{
  "last_updated_data": "2026-05-24T23:28:17Z",
  "league": {
    "admin_entry": null,
    "closed": false,
    "code_privacy": "p",
    "created": "2025-07-20T23:14:33.933835Z",
    "cup_league": 2815434,
    "has_cup": true,
    "id": 314,
    "league_type": "s",
    "max_entries": null,
    "name": "Overall",
    "rank": null,
    "scoring": "c",
    "start_event": 1
  },
  "new_entries": {
    "has_next": false,
    "page": 1,
    "results": []
  },
  "standings": {
    "has_next": true,
    "page": 108,
    "results": [
      {
        "club_badge_src": null,
        "entry": 7776859,
        "entry_name": "Paqueta Crisps",
        "event_total": 56,
        "has_played": true,
        "id": 63864671,
        "last_rank": 4742,
        "player_name": "Charlotte Lopez",
        "rank": 5290,
        "rank_sort": 5351,
        "total": 2413
      },
      {
        "club_badge_src": null,
        "entry": 8247917,
        "entry_name": "Dogs Dogs Dogs",
        "event_total": 53,
        "has_played": true,
        "id": 68204345,
        "last_rank": 4099,
        "player_name": "Matt Willard",
        "rank": 5290,
        "rank_sort": 5352,
        "total": 2413
      },
      {
        "club_badge_src": null,
        "entry": 8569992,
        "entry_name": "Poketpool",
        "event_total": 49,
        "has_played": true,
        "id": 71310635,
        "last_rank": 3442,
        "player_name": "Thiruvarasu Sandreseger",
        "rank": 5290,
        "rank_sort": 5353,
        "total": 2413
      },
      {
        "club_badge_src": "https://fantasy.premierleague.com/gcs/plfpl-production-adobe-approved/plfpl-production/9229874/866e62e3-a5e7-44fd-af41-6102d77827b6.png",
        "entry": 9229874,
        "entry_name": "forthelulz",
        "event_total": 64,
        "has_played": true,
        "id": 77726926,
        "last_rank": 6703,
        "player_name": "Shreyam Sinha",
        "rank": 5290,
        "rank_sort": 5354,
        "total": 2413
      },
      {
        "club_badge_src": null,
        "entry": 9310866,
        "entry_name": "Petr \u010dech your pants",
        "event_total": 55,
        "has_played": true,
        "id": 78513693,
        "last_rank": 4488,
        "player_name": "Dan Jones",
        "rank": 5290,
        "rank_sort": 5355,
        "total": 2413
      },
      {
        "club_badge_src": "https://fantasy.premierleague.com/gcs/plfpl-production-adobe-approved/plfpl-production/212/7222f4e3-4cef-42cc-a1b9-c043ab76f022.png",
        "entry": 212,
        "entry_name": "Not great, not good",
        "event_total": 62,
        "has_played": true,
        "id": 1168,
        "last_rank": 5173,
        "player_name": "Markku Ojala",
        "rank": 5356,
        "rank_sort": 5356,
        "total": 2413
      },
      {
        "club_badge_src": null,
        "entry": 1927,
        "entry_name": "Ayew Joking",
        "event_total": 36,
        "has_played": true,
        "id": 10735,
        "last_rank": 1452,
        "player_name": "David Hughes",
        "rank": 5356,
        "rank_sort": 5357,
        "total": 2413
      },
      {
        "club_badge_src": null,
        "entry": 5067,
        "entry_name": "On McAtee",
        "event_total": 67,
        "has_played": true,
        "id": 28870,
        "last_rank": 7676,
        "player_name": "Roy Weiss",
        "rank": 5356,
        "rank_sort": 5358,
        "total": 2413
      },
      {
        "club_badge_src": "https://fantasy.premierleague.com/gcs/plfpl-production-adobe-approved/plfpl-production/6626/b32a37bb-f4bb-45da-9b11-5dee62b6a153.png",
        "entry": 6626,
        "entry_name": "aroundyou",
        "event_total": 62,
        "has_played": true,
        "id": 38063,
        "last_rank": 5173,
        "player_name": "Kittiphop Kuhatasanadeekul",
        "rank": 5356,
        "rank_sort": 5359,
        "total": 2413
      },
      {
        "club_badge_src": null,
        "entry": 37788,
        "entry_name": "Tarklife",
        "event_total": 61,
        "has_played": true,
        "id": 242144,
        "last_rank": 4913,
        "player_name": "Mathew Nixon",
        "rank": 5356,
        "rank_sort": 5360,
        "total": 2413
      },
      {
        "club_badge_src": null,
        "entry": 46561,
        "entry_name": "ClownFish",
        "event_total": 51,
        "has_played": true,
        "id": 298478,
        "last_rank": 3765,
        "player_name": "George Mathai",
        "rank": 5356,
        "rank_sort": 5361,
        "total": 2413
      },
      {
        "club_badge_src": null,
        "entry": 51552,
        "entry_name": "Kinder Mbeumo",
        "event_total": 60,
        "has_played": true,
        "id": 331532,
        "last_rank": 5646,
        "player_name": "Jack Dodds",
        "rank": 5356,
        "rank_sort": 5362,
        "total": 2413
      },
      {
        "club_badge_src": "https://fantasy.premierleague.com/gcs/plfpl-production-adobe-approved/plfpl-production/54124/4ad2f203-1cf2-4ccc-afac-ee1564f7407f.png",
        "entry": 54124,
        "entry_name": "Mahyluck",
        "event_total": 67,
        "has_played": true,
        "id": 348327,
        "last_rank": 6448,
        "player_name": "Adeniyi S",
        "rank": 5356,
        "rank_sort": 5363,
        "total": 2413
      },
      {
        "club_badge_src": null,
        "entry": 64409,
        "entry_name": "Slotball FC",
        "event_total": 65,
        "has_played": true,
        "id": 415719,
        "last_rank": 5940,
        "player_name": "Syabil Khan",
        "rank": 5356,
        "rank_sort": 5364,
        "total": 2413
      },
      {
        "club_badge_src": null,
        "entry": 82280,
        "entry_name": "Kinder Mbeumo",
        "event_total": 69,
        "has_played": true,
        "id": 535362,
        "last_rank": 8382,
        "player_name": "Scott Crane",
        "rank": 5356,
        "rank_sort": 5365,
        "total": 2413
      },
      {
        "club_badge_src": null,
        "entry": 82921,
        "entry_name": "Saka Kak\u00e1",
        "event_total": 64,
        "has_played": true,
        "id": 539643,
        "last_rank": 6752,
        "player_name": "Maros Halasz",
        "rank": 5356,
        "rank_sort": 5366,
        "total": 2413
      },
      {
        "club_badge_src": "https://fantasy.premierleague.com/gcs/plfpl-production-adobe-approved/plfpl-production/128108/575b18f6-3310-4389-91fb-413a878fd30b.png",
        "entry": 128108,
        "entry_name": "\u0932\u093e\u0932 \u0930\u093e\u0915\u094d\u0937\u0938",
        "event_total": 72,
        "has_played": true,
        "id": 835032,
        "last_rank": 9536,
        "player_name": "Pritish Dudi",
        "rank": 5356,
        "rank_sort": 5367,
        "total": 2413
      },
      {
        "club_badge_src": null,
        "entry": 154027,
        "entry_name": "Pedro's and Enzo's",
        "event_total": 54,
        "has_played": true,
        "id": 1011719,
        "last_rank": 4303,
        "player_name": "Kyle Smith",
        "rank": 5356,
        "rank_sort": 5368,
        "total": 2413
      },
      {
        "club_badge_src": null,
        "entry": 204273,
        "entry_name": "Ananarsenul",
        "event_total": 54,
        "has_played": true,
        "id": 1357586,
        "last_rank": 4358,
        "player_name": "Ga\u00ebl Paquereau",
        "rank": 5356,
        "rank_sort": 5369,
        "total": 2413
      },
      {
        "club_badge_src": "https://fantasy.premierleague.com/gcs/plfpl-production-adobe-approved/plfpl-production/398624/dfde2658-6fe3-4e42-b290-cc3964c0fb49.png",
        "entry": 398624,
        "entry_name": "ZOE IS THE POINT",
        "event_total": 57,
        "has_played": true,
        "id": 2673177,
        "last_rank": 5011,
        "player_name": "Adewale Bidemi",
        "rank": 5356,
        "rank_sort": 5370,
        "total": 2413
      },
      {
        "club_badge_src": null,
        "entry": 426316,
        "entry_name": "Fino Alla Fine",
        "event_total": 61,
        "has_played": true,
        "id": 2858079,
        "last_rank": 6011,
        "player_name": "Dimas I",
        "rank": 5356,
        "rank_sort": 5371,
        "total": 2413
      },
      {
        "club_badge_src": null,
        "entry": 495396,
        "entry_name": "In full Flo",
        "event_total": 60,
        "has_played": true,
        "id": 3325213,
        "last_rank": 5688,
        "player_name": "Jeet Mishra",
        "rank": 5356,
        "rank_sort": 5372,
        "total": 2413
      },
      {
        "club_badge_src": null,
        "entry": 613229,
        "entry_name": "Earth Wind & Maguire",
        "event_total": 51,
        "has_played": true,
        "id": 4143491,
        "last_rank": 3721,
        "player_name": "James Morley",
        "rank": 5356,
        "rank_sort": 5373,
        "total": 2413
      },
      {
        "club_badge_src": null,
        "entry": 766908,
        "entry_name": "Ljl",
        "event_total": 67,
        "has_played": true,
        "id": 5230725,
        "last_rank": 7676,
        "player_name": "Lars Johan Lindeland",
        "rank": 5356,
        "rank_sort": 5374,
        "total": 2413
      },
      {
        "club_badge_src": null,
        "entry": 899512,
        "entry_name": "Livin Saliba loca",
        "event_total": 69,
        "has_played": true,
        "id": 6180460,
        "last_rank": 7059,
        "player_name": "Jamie Thompson",
        "rank": 5356,
        "rank_sort": 5375,
        "total": 2413
      },
      {
        "club_badge_src": "https://fantasy.premierleague.com/gcs/plfpl-production-adobe-approved/plfpl-production/1073096/3c5d2e2e-1024-47c1-b794-09783ab4c8ad.png",
        "entry": 1073096,
        "entry_name": "naamaninho",
        "event_total": 50,
        "has_played": true,
        "id": 7429160,
        "last_rank": 3601,
        "player_name": "Ali Naaman",
        "rank": 5356,
        "rank_sort": 5376,
        "total": 2413
      },
      {
        "club_badge_src": null,
        "entry": 1158631,
        "entry_name": "name",
        "event_total": 69,
        "has_played": true,
        "id": 8035182,
        "last_rank": 8484,
        "player_name": "Khalil L",
        "rank": 5356,
        "rank_sort": 5377,
        "total": 2413
      },
      {
        "club_badge_src": null,
        "entry": 1243265,
        "entry_name": "Slot Machine",
        "event_total": 54,
        "has_played": true,
        "id": 8634494,
        "last_rank": 4394,
        "player_name": "Craig Inness",
        "rank": 5356,
        "rank_sort": 5378,
        "total": 2413
      },
      {
        "club_badge_src": null,
        "entry": 1524199,
        "entry_name": "samlindell",
        "event_total": 42,
        "has_played": true,
        "id": 10630809,
        "last_rank": 2448,
        "player_name": "bob bob",
        "rank": 5356,
        "rank_sort": 5379,
        "total": 2413
      },
      {
        "club_badge_src": null,
        "entry": 1843804,
        "entry_name": "Peaky Reijnders FC",
        "event_total": 67,
        "has_played": true,
        "id": 12972638,
        "last_rank": 6448,
        "player_name": "Jordan Wood",
        "rank": 5356,
        "rank_sort": 5380,
        "total": 2413
      },
      {
        "club_badge_src": null,
        "entry": 1957116,
        "entry_name": "Machapotere",
        "event_total": 59,
        "has_played": true,
        "id": 13806625,
        "last_rank": 4515,
        "player_name": "prasad money raj",
        "rank": 5356,
        "rank_sort": 5381,
        "total": 2413
      },
      {
        "club_badge_src": null,
        "entry": 1980353,
        "entry_name": "Flytos",
        "event_total": 60,
        "has_played": true,
        "id": 13985389,
        "last_rank": 5752,
        "player_name": "Kristian Str\u00f8mmen",
        "rank": 5356,
        "rank_sort": 5382,
        "total": 2413
      },
      {
        "club_badge_src": "https://fantasy.premierleague.com/gcs/plfpl-production-adobe-approved/plfpl-production/2364107/609f8b9c-e10d-4954-9e43-37ecc051d5f7.png",
        "entry": 2364107,
        "entry_name": "j dog",
        "event_total": 50,
        "has_played": true,
        "id": 16874100,
        "last_rank": 3601,
        "player_name": "Max Goodwin",
        "rank": 5356,
        "rank_sort": 5383,
        "total": 2413
      },
      {
        "club_badge_src": null,
        "entry": 2365229,
        "entry_name": "Nilsovic FC",
        "event_total": 68,
        "has_played": true,
        "id": 16882604,
        "last_rank": 8138,
        "player_name": "Nils Johansson Hedstr\u00f6m",
        "rank": 5356,
        "rank_sort": 5384,
        "total": 2413
      },
      {
        "club_badge_src": "https://fantasy.premierleague.com/gcs/plfpl-production-adobe-approved/plfpl-production/2664957/3a320884-bb2e-44b7-8f7d-00b3200e3c50.png",
        "entry": 2664957,
        "entry_name": "EGGSTRAVAGANZA",
        "event_total": 58,
        "has_played": true,
        "id": 19157891,
        "last_rank": 5241,
        "player_name": "Isac Ekl\u00f6f",
        "rank": 5356,
        "rank_sort": 5385,
        "total": 2413
      },
      {
        "club_badge_src": null,
        "entry": 2687889,
        "entry_name": "Gunners",
        "event_total": 46,
        "has_played": true,
        "id": 19332668,
        "last_rank": 3026,
        "player_name": "Robert Macko",
        "rank": 5356,
        "rank_sort": 5386,
        "total": 2413
      },
      {
        "club_badge_src": null,
        "entry": 2723516,
        "entry_name": "Gy\u00f6k In My 'Rari",
        "event_total": 73,
        "has_played": true,
        "id": 19597965,
        "last_rank": 10031,
        "player_name": "Jay Faergemann",
        "rank": 5356,
        "rank_sort": 5387,
        "total": 2413
      },
      {
        "club_badge_src": null,
        "entry": 3916897,
        "entry_name": "McKickin Sandwich",
        "event_total": 59,
        "has_played": true,
        "id": 29452211,
        "last_rank": 5498,
        "player_name": "Eve Coleman",
        "rank": 5356,
        "rank_sort": 5388,
        "total": 2413
      },
      {
        "club_badge_src": null,
        "entry": 4172779,
        "entry_name": "Havets \u00e4nglar",
        "event_total": 59,
        "has_played": true,
        "id": 31560341,
        "last_rank": 4515,
        "player_name": "Emil Schalin",
        "rank": 5356,
        "rank_sort": 5389,
        "total": 2413
      },
      {
        "club_badge_src": null,
        "entry": 4403823,
        "entry_name": "Spaffletico Madrid",
        "event_total": 38,
        "has_played": true,
        "id": 33494549,
        "last_rank": 1978,
        "player_name": "Harry Hayes",
        "rank": 5356,
        "rank_sort": 5390,
        "total": 2413
      },
      {
        "club_badge_src": null,
        "entry": 4445225,
        "entry_name": "AbraDubravka",
        "event_total": 52,
        "has_played": true,
        "id": 33852550,
        "last_rank": 3902,
        "player_name": "finlay small",
        "rank": 5356,
        "rank_sort": 5391,
        "total": 2413
      },
      {
        "club_badge_src": "https://fantasy.premierleague.com/gcs/plfpl-production-adobe-approved/plfpl-production/4456571/492d5158-ff20-43c6-a7b0-488efa3c27f1.png",
        "entry": 4456571,
        "entry_name": "battle XG royale",
        "event_total": 38,
        "has_played": true,
        "id": 33949063,
        "last_rank": 2009,
        "player_name": "Roman Rozhkov",
        "rank": 5356,
        "rank_sort": 5392,
        "total": 2413
      },
      {
        "club_badge_src": null,
        "entry": 5072528,
        "entry_name": "Abdullatif",
        "event_total": 69,
        "has_played": true,
        "id": 39201008,
        "last_rank": 8484,
        "player_name": "Abdullatif Adnan",
        "rank": 5356,
        "rank_sort": 5393,
        "total": 2413
      },
      {
        "club_badge_src": null,
        "entry": 5297818,
        "entry_name": "Hammertime",
        "event_total": 65,
        "has_played": true,
        "id": 41066040,
        "last_rank": 7014,
        "player_name": "Jane Donoghue",
        "rank": 5356,
        "rank_sort": 5394,
        "total": 2413
      },
      {
        "club_badge_src": null,
        "entry": 5321383,
        "entry_name": "Vesla\u0161i",
        "event_total": 68,
        "has_played": true,
        "id": 41251567,
        "last_rank": 8032,
        "player_name": "Ognjen Vukicevic",
        "rank": 5356,
        "rank_sort": 5395,
        "total": 2413
      },
      {
        "club_badge_src": null,
        "entry": 6636666,
        "entry_name": "legend of yoro",
        "event_total": 66,
        "has_played": true,
        "id": 53046842,
        "last_rank": 7375,
        "player_name": "kalifa igteit",
        "rank": 5356,
        "rank_sort": 5396,
        "total": 2413
      },
      {
        "club_badge_src": null,
        "entry": 7721712,
        "entry_name": "FC Pete",
        "event_total": 56,
        "has_played": true,
        "id": 63366588,
        "last_rank": 4804,
        "player_name": "Peter Holmes",
        "rank": 5356,
        "rank_sort": 5397,
        "total": 2413
      },
      {
        "club_badge_src": "https://fantasy.premierleague.com/gcs/plfpl-production-adobe-approved/plfpl-production/8454946/31a17136-890d-435f-a064-cf969d6406f4.png",
        "entry": 8454946,
        "entry_name": "Jimmy",
        "event_total": 62,
        "has_played": true,
        "id": 70201354,
        "last_rank": 6265,
        "player_name": "Chan Jimmy",
        "rank": 5356,
        "rank_sort": 5398,
        "total": 2413
      },
      {
        "club_badge_src": "https://fantasy.premierleague.com/gcs/plfpl-production-adobe-approved/plfpl-production/9016478/382ccb1a-37b4-4977-8737-e6083147ce7e.png",
        "entry": 9016478,
        "entry_name": "Mappy Dons",
        "event_total": 62,
        "has_played": true,
        "id": 75638781,
        "last_rank": 6194,
        "player_name": "Tom Map",
        "rank": 5356,
        "rank_sort": 5399,
        "total": 2413
      },
      {
        "club_badge_src": null,
        "entry": 13285,
        "entry_name": "Bruno dos tres",
        "event_total": 69,
        "has_played": true,
        "id": 80164,
        "last_rank": 7141,
        "player_name": "Red Devil Forever",
        "rank": 5400,
        "rank_sort": 5400,
        "total": 2413
      }
    ]
  }
}