{
  "last_updated_data": "2026-05-24T23:28:17Z",
  "league": {
    "admin_entry": null,
    "closed": false,
    "code_privacy": "p",
    "created": "2025-07-20T23:14:33.933835Z",
    "cup_league": 2815434,
    "has_cup": true,
    "id": 314,
    "league_type": "s",
    "max_entries": null,
    "name": "Overall",
    "rank": null,
    "scoring": "c",
    "start_event": 1
  },
  "new_entries": {
    "has_next": false,
    "page": 1,
    "results": []
  },
  "standings": {
    "has_next": true,
    "page": 1498,
    "results": [
      {
        "club_badge_src": null,
        "entry": 1702875,
        "entry_name": "Kinder Mbeumo",
        "event_total": 70,
        "has_played": true,
        "id": 11928791,
        "last_rank": 107702,
        "player_name": "Eivinn Ludvigsen",
        "rank": 74777,
        "rank_sort": 74851,
        "total": 2338
      },
      {
        "club_badge_src": null,
        "entry": 1761525,
        "entry_name": "Sunflower",
        "event_total": 53,
        "has_played": true,
        "id": 12367963,
        "last_rank": 68107,
        "player_name": "Secret Plot Holder",
        "rank": 74777,
        "rank_sort": 74852,
        "total": 2338
      },
      {
        "club_badge_src": null,
        "entry": 2030527,
        "entry_name": "0M3R",
        "event_total": 72,
        "has_played": true,
        "id": 14375367,
        "last_rank": 113223,
        "player_name": "Omer Abdullah",
        "rank": 74777,
        "rank_sort": 74853,
        "total": 2338
      },
      {
        "club_badge_src": null,
        "entry": 2058071,
        "entry_name": "FC Birksen",
        "event_total": 47,
        "has_played": true,
        "id": 14579901,
        "last_rank": 57358,
        "player_name": "Andreas Birk Hansen",
        "rank": 74777,
        "rank_sort": 74854,
        "total": 2338
      },
      {
        "club_badge_src": null,
        "entry": 2072819,
        "entry_name": "Revealed CF",
        "event_total": 61,
        "has_played": true,
        "id": 14695901,
        "last_rank": 85207,
        "player_name": "ian kemboi",
        "rank": 74777,
        "rank_sort": 74855,
        "total": 2338
      },
      {
        "club_badge_src": null,
        "entry": 2111217,
        "entry_name": "Hoppo utd all stars",
        "event_total": 31,
        "has_played": true,
        "id": 14985305,
        "last_rank": 34749,
        "player_name": "Dave Hopkins",
        "rank": 74777,
        "rank_sort": 74856,
        "total": 2338
      },
      {
        "club_badge_src": null,
        "entry": 2197755,
        "entry_name": "JonTy's Giants",
        "event_total": 74,
        "has_played": true,
        "id": 15638586,
        "last_rank": 86735,
        "player_name": "Jon Tyzack",
        "rank": 74777,
        "rank_sort": 74857,
        "total": 2338
      },
      {
        "club_badge_src": null,
        "entry": 2213504,
        "entry_name": "Saka Punch",
        "event_total": 34,
        "has_played": true,
        "id": 15763052,
        "last_rank": 38267,
        "player_name": "Tom G",
        "rank": 74777,
        "rank_sort": 74858,
        "total": 2338
      },
      {
        "club_badge_src": null,
        "entry": 2250357,
        "entry_name": "Paque\u2026your suitcase",
        "event_total": 65,
        "has_played": true,
        "id": 16035313,
        "last_rank": 94778,
        "player_name": "Stuart Laughland",
        "rank": 74777,
        "rank_sort": 74859,
        "total": 2338
      },
      {
        "club_badge_src": null,
        "entry": 2403834,
        "entry_name": "Stars \ufffd",
        "event_total": 43,
        "has_played": true,
        "id": 17181563,
        "last_rank": 50772,
        "player_name": "Mahmoud Fathallah",
        "rank": 74777,
        "rank_sort": 74860,
        "total": 2338
      },
      {
        "club_badge_src": null,
        "entry": 2445397,
        "entry_name": "OneDaveToRuleThemAll",
        "event_total": 69,
        "has_played": true,
        "id": 17489576,
        "last_rank": 104941,
        "player_name": "Dave Rawlinson",
        "rank": 74777,
        "rank_sort": 74861,
        "total": 2338
      },
      {
        "club_badge_src": null,
        "entry": 2453807,
        "entry_name": "mufasa",
        "event_total": 56,
        "has_played": true,
        "id": 17550882,
        "last_rank": 66057,
        "player_name": "Dipesh Neupane",
        "rank": 74777,
        "rank_sort": 74862,
        "total": 2338
      },
      {
        "club_badge_src": null,
        "entry": 2477774,
        "entry_name": "Blink 1 Eto'o",
        "event_total": 64,
        "has_played": true,
        "id": 17728386,
        "last_rank": 92332,
        "player_name": "Oliver Meek",
        "rank": 74777,
        "rank_sort": 74863,
        "total": 2338
      },
      {
        "club_badge_src": null,
        "entry": 2556899,
        "entry_name": "Agram Bagram",
        "event_total": 65,
        "has_played": true,
        "id": 18335390,
        "last_rank": 84731,
        "player_name": "Bishan Teeluck",
        "rank": 74777,
        "rank_sort": 74864,
        "total": 2338
      },
      {
        "club_badge_src": null,
        "entry": 2568211,
        "entry_name": "juizeros",
        "event_total": 57,
        "has_played": true,
        "id": 18424569,
        "last_rank": 76330,
        "player_name": "jm K\u00f6ykk\u00e4",
        "rank": 74777,
        "rank_sort": 74865,
        "total": 2338
      },
      {
        "club_badge_src": null,
        "entry": 2589446,
        "entry_name": "Change Name",
        "event_total": 44,
        "has_played": true,
        "id": 18590375,
        "last_rank": 52357,
        "player_name": "Jonny Duarte",
        "rank": 74777,
        "rank_sort": 74866,
        "total": 2338
      },
      {
        "club_badge_src": null,
        "entry": 2618701,
        "entry_name": "MAGA",
        "event_total": 63,
        "has_played": true,
        "id": 18816455,
        "last_rank": 89897,
        "player_name": "Herman Nordhaug",
        "rank": 74777,
        "rank_sort": 74867,
        "total": 2338
      },
      {
        "club_badge_src": null,
        "entry": 2781711,
        "entry_name": "Hakuna Mateta",
        "event_total": 70,
        "has_played": true,
        "id": 20304683,
        "last_rank": 97096,
        "player_name": "Tom Desmond",
        "rank": 74777,
        "rank_sort": 74868,
        "total": 2338
      },
      {
        "club_badge_src": null,
        "entry": 2842388,
        "entry_name": "Murfeltic",
        "event_total": 76,
        "has_played": true,
        "id": 20775085,
        "last_rank": 124961,
        "player_name": "John Murphy",
        "rank": 74777,
        "rank_sort": 74869,
        "total": 2338
      },
      {
        "club_badge_src": "https://fantasy.premierleague.com/gcs/plfpl-production-adobe-approved/plfpl-production/2850733/46b7d82f-88d5-43b4-bfd5-25f0ba3ed977.png",
        "entry": 2850733,
        "entry_name": "BoRiKo",
        "event_total": 61,
        "has_played": true,
        "id": 20843076,
        "last_rank": 85207,
        "player_name": "Bora Taseli",
        "rank": 74777,
        "rank_sort": 74870,
        "total": 2338
      },
      {
        "club_badge_src": null,
        "entry": 2876681,
        "entry_name": "Hale End Boys",
        "event_total": 61,
        "has_played": true,
        "id": 21056661,
        "last_rank": 76128,
        "player_name": "Sultan Arteta",
        "rank": 74777,
        "rank_sort": 74871,
        "total": 2338
      },
      {
        "club_badge_src": null,
        "entry": 2886114,
        "entry_name": "2 Bee 2 Bee",
        "event_total": 59,
        "has_played": true,
        "id": 21129503,
        "last_rank": 80651,
        "player_name": "Bob Sehmi",
        "rank": 74777,
        "rank_sort": 74872,
        "total": 2338
      },
      {
        "club_badge_src": null,
        "entry": 2935399,
        "entry_name": "Legends",
        "event_total": 64,
        "has_played": true,
        "id": 21538674,
        "last_rank": 92126,
        "player_name": "Mohammed Assou",
        "rank": 74777,
        "rank_sort": 74873,
        "total": 2338
      },
      {
        "club_badge_src": "https://fantasy.premierleague.com/gcs/plfpl-production-adobe-approved/plfpl-production/2976164/9736f0e6-8b0e-4229-8166-f29d50011ab5.png",
        "entry": 2976164,
        "entry_name": "Bangkockney Blade",
        "event_total": 62,
        "has_played": true,
        "id": 21870287,
        "last_rank": 78244,
        "player_name": "Dan Simpo",
        "rank": 74777,
        "rank_sort": 74874,
        "total": 2338
      },
      {
        "club_badge_src": null,
        "entry": 3106911,
        "entry_name": "SAUBAN'S XI",
        "event_total": 61,
        "has_played": true,
        "id": 22908768,
        "last_rank": 76128,
        "player_name": "Sauban Drg",
        "rank": 74777,
        "rank_sort": 74875,
        "total": 2338
      },
      {
        "club_badge_src": null,
        "entry": 3232045,
        "entry_name": "Under my smookerella",
        "event_total": 55,
        "has_played": true,
        "id": 23903745,
        "last_rank": 72145,
        "player_name": "Gary Skea",
        "rank": 74777,
        "rank_sort": 74876,
        "total": 2338
      },
      {
        "club_badge_src": null,
        "entry": 3268123,
        "entry_name": "Zubi_dubi_doo",
        "event_total": 64,
        "has_played": true,
        "id": 24184654,
        "last_rank": 92126,
        "player_name": "John Hollenbach",
        "rank": 74777,
        "rank_sort": 74877,
        "total": 2338
      },
      {
        "club_badge_src": null,
        "entry": 3286385,
        "entry_name": "Town United",
        "event_total": 68,
        "has_played": true,
        "id": 24328233,
        "last_rank": 102125,
        "player_name": "Barry Marven",
        "rank": 74777,
        "rank_sort": 74878,
        "total": 2338
      },
      {
        "club_badge_src": null,
        "entry": 3495063,
        "entry_name": "Musty fc",
        "event_total": 65,
        "has_played": true,
        "id": 25996601,
        "last_rank": 84980,
        "player_name": "Suleiman Mustapha",
        "rank": 74777,
        "rank_sort": 74879,
        "total": 2338
      },
      {
        "club_badge_src": null,
        "entry": 3572385,
        "entry_name": "seb's squadron",
        "event_total": 51,
        "has_played": true,
        "id": 26600432,
        "last_rank": 64319,
        "player_name": "Jack Lindesay",
        "rank": 74777,
        "rank_sort": 74880,
        "total": 2338
      },
      {
        "club_badge_src": null,
        "entry": 3615566,
        "entry_name": "Maisie's furry lads",
        "event_total": 44,
        "has_played": true,
        "id": 26935594,
        "last_rank": 52357,
        "player_name": "Jason Cooke",
        "rank": 74777,
        "rank_sort": 74881,
        "total": 2338
      },
      {
        "club_badge_src": null,
        "entry": 3822358,
        "entry_name": "FC Failure",
        "event_total": 49,
        "has_played": true,
        "id": 28588926,
        "last_rank": 53345,
        "player_name": "Andreas Justesen",
        "rank": 74777,
        "rank_sort": 74882,
        "total": 2338
      },
      {
        "club_badge_src": null,
        "entry": 3915151,
        "entry_name": "Maresca's Mandem",
        "event_total": 54,
        "has_played": true,
        "id": 29438404,
        "last_rank": 69907,
        "player_name": "S Q",
        "rank": 74777,
        "rank_sort": 74883,
        "total": 2338
      },
      {
        "club_badge_src": null,
        "entry": 3962519,
        "entry_name": "#Mavel",
        "event_total": 52,
        "has_played": true,
        "id": 29814812,
        "last_rank": 66200,
        "player_name": "Oyemike Petrus",
        "rank": 74777,
        "rank_sort": 74884,
        "total": 2338
      },
      {
        "club_badge_src": null,
        "entry": 4019205,
        "entry_name": "Sonsational",
        "event_total": 59,
        "has_played": true,
        "id": 30290887,
        "last_rank": 71956,
        "player_name": "Nicky Lloyd Brown",
        "rank": 74777,
        "rank_sort": 74885,
        "total": 2338
      },
      {
        "club_badge_src": null,
        "entry": 4337575,
        "entry_name": "Van de Ven diagram",
        "event_total": 56,
        "has_played": true,
        "id": 32932067,
        "last_rank": 74166,
        "player_name": "Robert liu",
        "rank": 74777,
        "rank_sort": 74886,
        "total": 2338
      },
      {
        "club_badge_src": null,
        "entry": 4344602,
        "entry_name": "supik rokrak",
        "event_total": 45,
        "has_played": true,
        "id": 32989139,
        "last_rank": 54065,
        "player_name": "mat ming",
        "rank": 74777,
        "rank_sort": 74887,
        "total": 2338
      },
      {
        "club_badge_src": null,
        "entry": 4366138,
        "entry_name": "Gianfranko Zola",
        "event_total": 28,
        "has_played": true,
        "id": 33166742,
        "last_rank": 31371,
        "player_name": "Sam Franks",
        "rank": 74777,
        "rank_sort": 74888,
        "total": 2338
      },
      {
        "club_badge_src": null,
        "entry": 4581647,
        "entry_name": "Honey XI",
        "event_total": 65,
        "has_played": true,
        "id": 34976660,
        "last_rank": 94778,
        "player_name": "James Honey",
        "rank": 74777,
        "rank_sort": 74889,
        "total": 2338
      },
      {
        "club_badge_src": null,
        "entry": 4631613,
        "entry_name": "rachel_kenno_",
        "event_total": 55,
        "has_played": true,
        "id": 35415287,
        "last_rank": 71956,
        "player_name": "Rachel Kennedy",
        "rank": 74777,
        "rank_sort": 74890,
        "total": 2338
      },
      {
        "club_badge_src": null,
        "entry": 4665390,
        "entry_name": "Father Romeo Sensini",
        "event_total": 75,
        "has_played": true,
        "id": 35733405,
        "last_rank": 79431,
        "player_name": "Jack Lightfoot",
        "rank": 74777,
        "rank_sort": 74891,
        "total": 2338
      },
      {
        "club_badge_src": null,
        "entry": 4842985,
        "entry_name": "8run0",
        "event_total": 63,
        "has_played": true,
        "id": 37307681,
        "last_rank": 80194,
        "player_name": "Kuro Alyf",
        "rank": 74777,
        "rank_sort": 74892,
        "total": 2338
      },
      {
        "club_badge_src": null,
        "entry": 5142841,
        "entry_name": "TH14",
        "event_total": 70,
        "has_played": true,
        "id": 39783843,
        "last_rank": 107702,
        "player_name": "Neso Radovic",
        "rank": 74777,
        "rank_sort": 74893,
        "total": 2338
      },
      {
        "club_badge_src": null,
        "entry": 5280808,
        "entry_name": "SesCuMo",
        "event_total": 54,
        "has_played": true,
        "id": 40931633,
        "last_rank": 70072,
        "player_name": "Frank-Stian Myrseth",
        "rank": 74777,
        "rank_sort": 74894,
        "total": 2338
      },
      {
        "club_badge_src": "https://fantasy.premierleague.com/gcs/plfpl-production-adobe-approved/plfpl-production/5327971/48e5e5de-c4e3-4dba-99ad-1035eaa07943.png",
        "entry": 5327971,
        "entry_name": "Bolitho FC",
        "event_total": 53,
        "has_played": true,
        "id": 41303668,
        "last_rank": 53621,
        "player_name": "Louis Witham",
        "rank": 74777,
        "rank_sort": 74895,
        "total": 2338
      },
      {
        "club_badge_src": null,
        "entry": 5591366,
        "entry_name": "California Dreamings",
        "event_total": 59,
        "has_played": true,
        "id": 43681912,
        "last_rank": 80651,
        "player_name": "Malachy OBrien",
        "rank": 74777,
        "rank_sort": 74896,
        "total": 2338
      },
      {
        "club_badge_src": "https://fantasy.premierleague.com/gcs/plfpl-production-adobe-approved/plfpl-production/5828044/204da005-e89b-4d7a-87f8-be76593fb3a9.png",
        "entry": 5828044,
        "entry_name": "Giraffe FC",
        "event_total": 47,
        "has_played": true,
        "id": 45740811,
        "last_rank": 57358,
        "player_name": "Owen Davis",
        "rank": 74777,
        "rank_sort": 74897,
        "total": 2338
      },
      {
        "club_badge_src": null,
        "entry": 5842042,
        "entry_name": "VenoM",
        "event_total": 71,
        "has_played": true,
        "id": 45860127,
        "last_rank": 89426,
        "player_name": "Ali Reda",
        "rank": 74777,
        "rank_sort": 74898,
        "total": 2338
      },
      {
        "club_badge_src": null,
        "entry": 5994175,
        "entry_name": "Mkurugenzi\ufffd",
        "event_total": 56,
        "has_played": true,
        "id": 47239879,
        "last_rank": 73975,
        "player_name": "Allianz Arena",
        "rank": 74777,
        "rank_sort": 74899,
        "total": 2338
      },
      {
        "club_badge_src": null,
        "entry": 6027406,
        "entry_name": "Sanderball FC",
        "event_total": 72,
        "has_played": true,
        "id": 47542674,
        "last_rank": 112960,
        "player_name": "Nathaniel Sanderson",
        "rank": 74777,
        "rank_sort": 74900,
        "total": 2338
      }
    ]
  }
}