{
  "last_updated_data": "2026-05-24T23:28:17Z",
  "league": {
    "admin_entry": null,
    "closed": false,
    "code_privacy": "p",
    "created": "2025-07-20T23:14:33.933835Z",
    "cup_league": 2815434,
    "has_cup": true,
    "id": 314,
    "league_type": "s",
    "max_entries": null,
    "name": "Overall",
    "rank": null,
    "scoring": "c",
    "start_event": 1
  },
  "new_entries": {
    "has_next": false,
    "page": 1,
    "results": []
  },
  "standings": {
    "has_next": true,
    "page": 222,
    "results": [
      {
        "club_badge_src": null,
        "entry": 3828328,
        "entry_name": "Eto\u2019o isa?",
        "event_total": 53,
        "has_played": true,
        "id": 28637040,
        "last_rank": 8854,
        "player_name": "Jordan Whiteford",
        "rank": 11015,
        "rank_sort": 11051,
        "total": 2396
      },
      {
        "club_badge_src": null,
        "entry": 3838072,
        "entry_name": "Busby babes",
        "event_total": 51,
        "has_played": true,
        "id": 28732045,
        "last_rank": 8198,
        "player_name": "Richard Dsouza",
        "rank": 11015,
        "rank_sort": 11052,
        "total": 2396
      },
      {
        "club_badge_src": "https://fantasy.premierleague.com/gcs/plfpl-production-adobe-approved/plfpl-production/4001426/f2a4d380-b891-4a84-8f25-f944c6da8b73.png",
        "entry": 4001426,
        "entry_name": "Santas Reijnders",
        "event_total": 54,
        "has_played": true,
        "id": 30138789,
        "last_rank": 9311,
        "player_name": "Alfie Wood",
        "rank": 11015,
        "rank_sort": 11053,
        "total": 2396
      },
      {
        "club_badge_src": null,
        "entry": 4015353,
        "entry_name": "Once Upon Elmo",
        "event_total": 65,
        "has_played": true,
        "id": 30258852,
        "last_rank": 12322,
        "player_name": "Nathan Elman",
        "rank": 11015,
        "rank_sort": 11054,
        "total": 2396
      },
      {
        "club_badge_src": null,
        "entry": 4268554,
        "entry_name": "The Ultracheese",
        "event_total": 71,
        "has_played": true,
        "id": 32368118,
        "last_rank": 18377,
        "player_name": "Samuel Wahlberg",
        "rank": 11015,
        "rank_sort": 11055,
        "total": 2396
      },
      {
        "club_badge_src": null,
        "entry": 4438664,
        "entry_name": "Flannos",
        "event_total": 57,
        "has_played": true,
        "id": 33797898,
        "last_rank": 8854,
        "player_name": "Kristoffer Orheim",
        "rank": 11015,
        "rank_sort": 11056,
        "total": 2396
      },
      {
        "club_badge_src": null,
        "entry": 4531597,
        "entry_name": "24/25 Champ",
        "event_total": 64,
        "has_played": true,
        "id": 34566110,
        "last_rank": 14040,
        "player_name": "Warren Seery",
        "rank": 11015,
        "rank_sort": 11057,
        "total": 2396
      },
      {
        "club_badge_src": null,
        "entry": 4660877,
        "entry_name": "\u0160e\u0161ko Inferno",
        "event_total": 57,
        "has_played": true,
        "id": 35689795,
        "last_rank": 8854,
        "player_name": "Joacim Persson",
        "rank": 11015,
        "rank_sort": 11058,
        "total": 2396
      },
      {
        "club_badge_src": null,
        "entry": 4779060,
        "entry_name": "jeldo fc",
        "event_total": 84,
        "has_played": true,
        "id": 36788787,
        "last_rank": 28726,
        "player_name": "jordie pollock",
        "rank": 11015,
        "rank_sort": 11059,
        "total": 2396
      },
      {
        "club_badge_src": null,
        "entry": 4801259,
        "entry_name": "M7mmad",
        "event_total": 50,
        "has_played": true,
        "id": 36966875,
        "last_rank": 6528,
        "player_name": "Mohammed AlEnizy",
        "rank": 11015,
        "rank_sort": 11060,
        "total": 2396
      },
      {
        "club_badge_src": null,
        "entry": 4969222,
        "entry_name": "Aznou I'd win",
        "event_total": 45,
        "has_played": true,
        "id": 38349512,
        "last_rank": 6305,
        "player_name": "Zac Farbrother",
        "rank": 11015,
        "rank_sort": 11061,
        "total": 2396
      },
      {
        "club_badge_src": null,
        "entry": 5323633,
        "entry_name": "Lil Uzi Wirtz",
        "event_total": 47,
        "has_played": true,
        "id": 41269650,
        "last_rank": 6927,
        "player_name": "Oliver Ajaegbu",
        "rank": 11015,
        "rank_sort": 11062,
        "total": 2396
      },
      {
        "club_badge_src": null,
        "entry": 5476709,
        "entry_name": "KST2023",
        "event_total": 63,
        "has_played": true,
        "id": 42636107,
        "last_rank": 13500,
        "player_name": "Phuntsho Rabten",
        "rank": 11015,
        "rank_sort": 11063,
        "total": 2396
      },
      {
        "club_badge_src": null,
        "entry": 5546565,
        "entry_name": "Change Name",
        "event_total": 74,
        "has_played": true,
        "id": 43284584,
        "last_rank": 20416,
        "player_name": "Eirik Mikkelsen",
        "rank": 11015,
        "rank_sort": 11064,
        "total": 2396
      },
      {
        "club_badge_src": null,
        "entry": 5678354,
        "entry_name": "ABCDE FC",
        "event_total": 59,
        "has_played": true,
        "id": 44440960,
        "last_rank": 11419,
        "player_name": "Andrew Gregory",
        "rank": 11015,
        "rank_sort": 11065,
        "total": 2396
      },
      {
        "club_badge_src": null,
        "entry": 6088414,
        "entry_name": "Rodders",
        "event_total": 68,
        "has_played": true,
        "id": 48076014,
        "last_rank": 13821,
        "player_name": "Isko Elez",
        "rank": 11015,
        "rank_sort": 11066,
        "total": 2396
      },
      {
        "club_badge_src": null,
        "entry": 6163521,
        "entry_name": "Eminents",
        "event_total": 62,
        "has_played": true,
        "id": 48729395,
        "last_rank": 12846,
        "player_name": "Maximillian longe",
        "rank": 11015,
        "rank_sort": 11067,
        "total": 2396
      },
      {
        "club_badge_src": null,
        "entry": 6667339,
        "entry_name": "Bacuna Mateta",
        "event_total": 50,
        "has_played": true,
        "id": 53322040,
        "last_rank": 7822,
        "player_name": "Reece Lawrence",
        "rank": 11015,
        "rank_sort": 11068,
        "total": 2396
      },
      {
        "club_badge_src": null,
        "entry": 6846526,
        "entry_name": "Eoghanly Fans",
        "event_total": 68,
        "has_played": true,
        "id": 54849253,
        "last_rank": 11699,
        "player_name": "Eoghan Scully",
        "rank": 11015,
        "rank_sort": 11069,
        "total": 2396
      },
      {
        "club_badge_src": null,
        "entry": 7244862,
        "entry_name": "T999CUL",
        "event_total": 71,
        "has_played": true,
        "id": 58553810,
        "last_rank": 18270,
        "player_name": "Toby Cullum",
        "rank": 11015,
        "rank_sort": 11070,
        "total": 2396
      },
      {
        "club_badge_src": null,
        "entry": 7301925,
        "entry_name": "Jos\u00e9 Kuleinho",
        "event_total": 54,
        "has_played": true,
        "id": 59094277,
        "last_rank": 9311,
        "player_name": "Devan Kuleindiren",
        "rank": 11015,
        "rank_sort": 11071,
        "total": 2396
      },
      {
        "club_badge_src": "https://fantasy.premierleague.com/gcs/plfpl-production-adobe-approved/plfpl-production/7852249/8ea9ba85-213f-4f8a-8748-81e1ec960663.png",
        "entry": 7852249,
        "entry_name": "Bouhmid",
        "event_total": 65,
        "has_played": true,
        "id": 64552593,
        "last_rank": 12200,
        "player_name": "Ahmed Ayari",
        "rank": 11015,
        "rank_sort": 11072,
        "total": 2396
      },
      {
        "club_badge_src": null,
        "entry": 7896751,
        "entry_name": "stolpskott bk",
        "event_total": 60,
        "has_played": true,
        "id": 64958299,
        "last_rank": 11821,
        "player_name": "Ludwig Malmberg",
        "rank": 11015,
        "rank_sort": 11073,
        "total": 2396
      },
      {
        "club_badge_src": null,
        "entry": 8227612,
        "entry_name": "Slotto Jackpot",
        "event_total": 68,
        "has_played": true,
        "id": 68002256,
        "last_rank": 16441,
        "player_name": "Charlie Hand",
        "rank": 11015,
        "rank_sort": 11074,
        "total": 2396
      },
      {
        "club_badge_src": null,
        "entry": 1129,
        "entry_name": "Rogers that",
        "event_total": 50,
        "has_played": true,
        "id": 6277,
        "last_rank": 6579,
        "player_name": "Gesh Camran",
        "rank": 11075,
        "rank_sort": 11075,
        "total": 2396
      },
      {
        "club_badge_src": "https://fantasy.premierleague.com/gcs/plfpl-production-adobe-approved/plfpl-production/7448/fcd32115-b9c7-4e7a-a200-99dd0ad7e994.png",
        "entry": 7448,
        "entry_name": "Crouch Potato",
        "event_total": 67,
        "has_played": true,
        "id": 42940,
        "last_rank": 15694,
        "player_name": "Stuart Pagel",
        "rank": 11075,
        "rank_sort": 11076,
        "total": 2396
      },
      {
        "club_badge_src": null,
        "entry": 23961,
        "entry_name": "Gitten It Done",
        "event_total": 58,
        "has_played": true,
        "id": 151110,
        "last_rank": 7761,
        "player_name": "Pranav Chadha",
        "rank": 11075,
        "rank_sort": 11077,
        "total": 2396
      },
      {
        "club_badge_src": "https://fantasy.premierleague.com/gcs/plfpl-production-adobe-approved/plfpl-production/35706/bdfb0eb3-82ff-4e98-92a1-48db2028272d.png",
        "entry": 35706,
        "entry_name": "Zoinks",
        "event_total": 59,
        "has_played": true,
        "id": 228552,
        "last_rank": 11482,
        "player_name": "Ryan Reid",
        "rank": 11075,
        "rank_sort": 11078,
        "total": 2396
      },
      {
        "club_badge_src": null,
        "entry": 36107,
        "entry_name": "\u7425\u73c0\u8272\u7684\u5c3e\u5df4",
        "event_total": 69,
        "has_played": true,
        "id": 231062,
        "last_rank": 14604,
        "player_name": "Drpppr \u7425\u73c0\u8272\u7684\u5c3e\u5df4",
        "rank": 11075,
        "rank_sort": 11079,
        "total": 2396
      },
      {
        "club_badge_src": "https://fantasy.premierleague.com/gcs/plfpl-production-adobe-approved/plfpl-production/56088/2eb09666-f539-4087-9667-176b8044a7f0.png",
        "entry": 56088,
        "entry_name": "AAA",
        "event_total": 72,
        "has_played": true,
        "id": 361229,
        "last_rank": 19176,
        "player_name": "Mohamed Ibrahim",
        "rank": 11075,
        "rank_sort": 11080,
        "total": 2396
      },
      {
        "club_badge_src": null,
        "entry": 59243,
        "entry_name": "RB FC",
        "event_total": 59,
        "has_played": true,
        "id": 381541,
        "last_rank": 9536,
        "player_name": "Rob Brake",
        "rank": 11075,
        "rank_sort": 11081,
        "total": 2396
      },
      {
        "club_badge_src": null,
        "entry": 65180,
        "entry_name": "xo3",
        "event_total": 55,
        "has_played": true,
        "id": 420703,
        "last_rank": 9644,
        "player_name": "X0 3",
        "rank": 11075,
        "rank_sort": 11082,
        "total": 2396
      },
      {
        "club_badge_src": null,
        "entry": 130346,
        "entry_name": "Where didit go wrong",
        "event_total": 62,
        "has_played": true,
        "id": 849390,
        "last_rank": 12995,
        "player_name": "Philippe Langham",
        "rank": 11075,
        "rank_sort": 11083,
        "total": 2396
      },
      {
        "club_badge_src": null,
        "entry": 171162,
        "entry_name": "Fork Handles",
        "event_total": 59,
        "has_played": true,
        "id": 1130775,
        "last_rank": 11419,
        "player_name": "Simon Larcombe",
        "rank": 11075,
        "rank_sort": 11084,
        "total": 2396
      },
      {
        "club_badge_src": null,
        "entry": 213161,
        "entry_name": "Pole Calmer",
        "event_total": 64,
        "has_played": true,
        "id": 1417994,
        "last_rank": 11901,
        "player_name": "Willy C",
        "rank": 11075,
        "rank_sort": 11085,
        "total": 2396
      },
      {
        "club_badge_src": "https://fantasy.premierleague.com/gcs/plfpl-production-adobe-approved/plfpl-production/271899/b2c4c173-d77b-4975-a9a5-5fad01fd8fb5.png",
        "entry": 271899,
        "entry_name": "Unjokables FC",
        "event_total": 66,
        "has_played": true,
        "id": 1808964,
        "last_rank": 12940,
        "player_name": "Shakib Yasimin",
        "rank": 11075,
        "rank_sort": 11086,
        "total": 2396
      },
      {
        "club_badge_src": null,
        "entry": 364715,
        "entry_name": "Ayew Kidding Mee",
        "event_total": 52,
        "has_played": true,
        "id": 2440660,
        "last_rank": 8591,
        "player_name": "Thomas Pedersen",
        "rank": 11075,
        "rank_sort": 11087,
        "total": 2396
      },
      {
        "club_badge_src": null,
        "entry": 438078,
        "entry_name": "Struijk of Luck",
        "event_total": 54,
        "has_played": true,
        "id": 2937643,
        "last_rank": 9350,
        "player_name": "Richard McLachlan",
        "rank": 11075,
        "rank_sort": 11088,
        "total": 2396
      },
      {
        "club_badge_src": null,
        "entry": 477893,
        "entry_name": "Putuu putuuuuuuu",
        "event_total": 65,
        "has_played": true,
        "id": 3208270,
        "last_rank": 14668,
        "player_name": "Basant Khanal",
        "rank": 11075,
        "rank_sort": 11089,
        "total": 2396
      },
      {
        "club_badge_src": null,
        "entry": 695928,
        "entry_name": "Allez Allez Allez",
        "event_total": 76,
        "has_played": true,
        "id": 4713622,
        "last_rank": 22154,
        "player_name": "Mark Bowen",
        "rank": 11075,
        "rank_sort": 11090,
        "total": 2396
      },
      {
        "club_badge_src": null,
        "entry": 750727,
        "entry_name": "MurderOnZidanesFloor",
        "event_total": 66,
        "has_played": true,
        "id": 5108026,
        "last_rank": 15063,
        "player_name": "Fraser Walker",
        "rank": 11075,
        "rank_sort": 11091,
        "total": 2396
      },
      {
        "club_badge_src": null,
        "entry": 772838,
        "entry_name": "Rodri you Plonker!",
        "event_total": 41,
        "has_played": true,
        "id": 5272493,
        "last_rank": 5313,
        "player_name": "Jake Dawson",
        "rank": 11075,
        "rank_sort": 11092,
        "total": 2396
      },
      {
        "club_badge_src": null,
        "entry": 801282,
        "entry_name": "Mo Town",
        "event_total": 53,
        "has_played": true,
        "id": 5484956,
        "last_rank": 8925,
        "player_name": "Steve Morrison",
        "rank": 11075,
        "rank_sort": 11093,
        "total": 2396
      },
      {
        "club_badge_src": null,
        "entry": 1097941,
        "entry_name": "FC Sm\u00e5land",
        "event_total": 61,
        "has_played": true,
        "id": 7604927,
        "last_rank": 8854,
        "player_name": "Andreas Augustsson",
        "rank": 11075,
        "rank_sort": 11094,
        "total": 2396
      },
      {
        "club_badge_src": null,
        "entry": 1193635,
        "entry_name": "Beauchia Dortmund",
        "event_total": 72,
        "has_played": true,
        "id": 8281855,
        "last_rank": 19176,
        "player_name": "Stuart Beauchemin",
        "rank": 11075,
        "rank_sort": 11095,
        "total": 2396
      },
      {
        "club_badge_src": "https://fantasy.premierleague.com/gcs/plfpl-production-adobe-approved/plfpl-production/1245731/2acc1c9c-ad11-4f70-8639-33a2b04ef9fa.png",
        "entry": 1245731,
        "entry_name": "Vrzerale Livno BBB",
        "event_total": 73,
        "has_played": true,
        "id": 8651686,
        "last_rank": 19904,
        "player_name": "Jakov Eranovi\u0107",
        "rank": 11075,
        "rank_sort": 11096,
        "total": 2396
      },
      {
        "club_badge_src": "https://fantasy.premierleague.com/gcs/plfpl-production-adobe-approved/plfpl-production/1296148/9acddd48-447c-4d9f-8de9-2a74e16d3e28.png",
        "entry": 1296148,
        "entry_name": "Guapa",
        "event_total": 56,
        "has_played": true,
        "id": 9008063,
        "last_rank": 10151,
        "player_name": "Bixouz -",
        "rank": 11075,
        "rank_sort": 11097,
        "total": 2396
      },
      {
        "club_badge_src": null,
        "entry": 1399028,
        "entry_name": "bite yer legs",
        "event_total": 64,
        "has_played": true,
        "id": 9733308,
        "last_rank": 14040,
        "player_name": "Malcolm Bell",
        "rank": 11075,
        "rank_sort": 11098,
        "total": 2396
      },
      {
        "club_badge_src": null,
        "entry": 1623212,
        "entry_name": "Millereal",
        "event_total": 61,
        "has_played": true,
        "id": 11360924,
        "last_rank": 12420,
        "player_name": "David Miller",
        "rank": 11075,
        "rank_sort": 11099,
        "total": 2396
      },
      {
        "club_badge_src": null,
        "entry": 1748630,
        "entry_name": "The Dead Parrots",
        "event_total": 73,
        "has_played": true,
        "id": 12271014,
        "last_rank": 16959,
        "player_name": "David Connolly",
        "rank": 11075,
        "rank_sort": 11100,
        "total": 2396
      }
    ]
  }
}