{
  "last_updated_data": "2026-05-24T23:28:17Z",
  "league": {
    "admin_entry": null,
    "closed": false,
    "code_privacy": "p",
    "created": "2025-07-20T23:14:33.933835Z",
    "cup_league": 2815434,
    "has_cup": true,
    "id": 314,
    "league_type": "s",
    "max_entries": null,
    "name": "Overall",
    "rank": null,
    "scoring": "c",
    "start_event": 1
  },
  "new_entries": {
    "has_next": false,
    "page": 1,
    "results": []
  },
  "standings": {
    "has_next": true,
    "page": 590,
    "results": [
      {
        "club_badge_src": null,
        "entry": 2178726,
        "entry_name": "Rock bottom",
        "event_total": 56,
        "has_played": true,
        "id": 15494567,
        "last_rank": 28150,
        "player_name": "Daniel Jennings",
        "rank": 29400,
        "rank_sort": 29451,
        "total": 2369
      },
      {
        "club_badge_src": null,
        "entry": 2200989,
        "entry_name": "the palmernator",
        "event_total": 58,
        "has_played": true,
        "id": 15663041,
        "last_rank": 30060,
        "player_name": "Mark Ellam",
        "rank": 29400,
        "rank_sort": 29452,
        "total": 2369
      },
      {
        "club_badge_src": null,
        "entry": 2519497,
        "entry_name": "Salt 'n' Teta",
        "event_total": 66,
        "has_played": true,
        "id": 18052128,
        "last_rank": 34051,
        "player_name": "Fin Coates",
        "rank": 29400,
        "rank_sort": 29453,
        "total": 2369
      },
      {
        "club_badge_src": null,
        "entry": 2554645,
        "entry_name": "Szachmat",
        "event_total": 48,
        "has_played": true,
        "id": 18317901,
        "last_rank": 21392,
        "player_name": "Robert Cieslik",
        "rank": 29400,
        "rank_sort": 29454,
        "total": 2369
      },
      {
        "club_badge_src": null,
        "entry": 2632419,
        "entry_name": "\ufffd \ufffd \ufffd",
        "event_total": 58,
        "has_played": true,
        "id": 18918576,
        "last_rank": 30191,
        "player_name": "Ryan Hegarty",
        "rank": 29400,
        "rank_sort": 29455,
        "total": 2369
      },
      {
        "club_badge_src": null,
        "entry": 3059447,
        "entry_name": "Sunray United Too",
        "event_total": 57,
        "has_played": true,
        "id": 22524814,
        "last_rank": 29199,
        "player_name": "Stuart des Vignes",
        "rank": 29400,
        "rank_sort": 29456,
        "total": 2369
      },
      {
        "club_badge_src": null,
        "entry": 3084896,
        "entry_name": "Hogans Heros",
        "event_total": 52,
        "has_played": true,
        "id": 22728686,
        "last_rank": 24570,
        "player_name": "James Hogan",
        "rank": 29400,
        "rank_sort": 29457,
        "total": 2369
      },
      {
        "club_badge_src": null,
        "entry": 3086587,
        "entry_name": "Pep a Pig",
        "event_total": 64,
        "has_played": true,
        "id": 22741388,
        "last_rank": 27976,
        "player_name": "Stephen Hutcheson",
        "rank": 29400,
        "rank_sort": 29458,
        "total": 2369
      },
      {
        "club_badge_src": null,
        "entry": 3093126,
        "entry_name": "K77FFX",
        "event_total": 35,
        "has_played": true,
        "id": 22796336,
        "last_rank": 12995,
        "player_name": "Khafil Tahir",
        "rank": 29400,
        "rank_sort": 29459,
        "total": 2369
      },
      {
        "club_badge_src": null,
        "entry": 3139737,
        "entry_name": "Susie Sloths",
        "event_total": 62,
        "has_played": true,
        "id": 23178565,
        "last_rank": 34293,
        "player_name": "Susie Excell",
        "rank": 29400,
        "rank_sort": 29460,
        "total": 2369
      },
      {
        "club_badge_src": null,
        "entry": 3255675,
        "entry_name": "Iceman",
        "event_total": 67,
        "has_played": true,
        "id": 24088931,
        "last_rank": 35424,
        "player_name": "Will Wright",
        "rank": 29400,
        "rank_sort": 29461,
        "total": 2369
      },
      {
        "club_badge_src": null,
        "entry": 3286618,
        "entry_name": "HaCunhaMateta",
        "event_total": 57,
        "has_played": true,
        "id": 24330331,
        "last_rank": 25172,
        "player_name": "David Mansfield",
        "rank": 29400,
        "rank_sort": 29462,
        "total": 2369
      },
      {
        "club_badge_src": null,
        "entry": 3433503,
        "entry_name": "I\u2019m a gooner",
        "event_total": 64,
        "has_played": true,
        "id": 25506887,
        "last_rank": 36831,
        "player_name": "Kaiden Small",
        "rank": 29400,
        "rank_sort": 29463,
        "total": 2369
      },
      {
        "club_badge_src": null,
        "entry": 3502626,
        "entry_name": "The Mikey Ducks",
        "event_total": 48,
        "has_played": true,
        "id": 26055915,
        "last_rank": 21392,
        "player_name": "Mike Mackintosh",
        "rank": 29400,
        "rank_sort": 29464,
        "total": 2369
      },
      {
        "club_badge_src": null,
        "entry": 3988079,
        "entry_name": "Jaybee fc \u2728\ufe0f",
        "event_total": 63,
        "has_played": true,
        "id": 30026834,
        "last_rank": 35768,
        "player_name": "Joseph Banny",
        "rank": 29400,
        "rank_sort": 29465,
        "total": 2369
      },
      {
        "club_badge_src": null,
        "entry": 4059862,
        "entry_name": "Team Hrovatio",
        "event_total": 61,
        "has_played": true,
        "id": 30636131,
        "last_rank": 33483,
        "player_name": "Matic Hrovat",
        "rank": 29400,
        "rank_sort": 29466,
        "total": 2369
      },
      {
        "club_badge_src": null,
        "entry": 4074990,
        "entry_name": "Catfish&the Arsenal",
        "event_total": 72,
        "has_played": true,
        "id": 30759687,
        "last_rank": 36624,
        "player_name": "Ben Carr",
        "rank": 29400,
        "rank_sort": 29467,
        "total": 2369
      },
      {
        "club_badge_src": null,
        "entry": 4134250,
        "entry_name": "Peaky Reijnders",
        "event_total": 60,
        "has_played": true,
        "id": 31242900,
        "last_rank": 32335,
        "player_name": "Adam Oneill",
        "rank": 29400,
        "rank_sort": 29468,
        "total": 2369
      },
      {
        "club_badge_src": "https://fantasy.premierleague.com/gcs/plfpl-production-adobe-approved/plfpl-production/4143566/f14baa95-9690-41d7-a0a9-390227f95f3c.png",
        "entry": 4143566,
        "entry_name": "The Anxious Aura",
        "event_total": 61,
        "has_played": true,
        "id": 31316545,
        "last_rank": 28726,
        "player_name": "Sanjaya Gautam",
        "rank": 29400,
        "rank_sort": 29469,
        "total": 2369
      },
      {
        "club_badge_src": null,
        "entry": 4193263,
        "entry_name": "Bottleham Flopspur",
        "event_total": 52,
        "has_played": true,
        "id": 31735665,
        "last_rank": 24570,
        "player_name": "Damian Condon",
        "rank": 29400,
        "rank_sort": 29470,
        "total": 2369
      },
      {
        "club_badge_src": null,
        "entry": 4333902,
        "entry_name": "The Barcodes",
        "event_total": 62,
        "has_played": true,
        "id": 32902505,
        "last_rank": 34458,
        "player_name": "Conor McGrattan",
        "rank": 29400,
        "rank_sort": 29471,
        "total": 2369
      },
      {
        "club_badge_src": null,
        "entry": 4379561,
        "entry_name": "hanging in",
        "event_total": 69,
        "has_played": true,
        "id": 33280961,
        "last_rank": 43342,
        "player_name": "Peter Sprung",
        "rank": 29400,
        "rank_sort": 29472,
        "total": 2369
      },
      {
        "club_badge_src": null,
        "entry": 4987645,
        "entry_name": "Beez In The Trap",
        "event_total": 64,
        "has_played": true,
        "id": 38504950,
        "last_rank": 32190,
        "player_name": "Farhad Islam",
        "rank": 29400,
        "rank_sort": 29473,
        "total": 2369
      },
      {
        "club_badge_src": null,
        "entry": 5026422,
        "entry_name": "Basil",
        "event_total": 57,
        "has_played": true,
        "id": 38820380,
        "last_rank": 29071,
        "player_name": "Abu Dahem",
        "rank": 29400,
        "rank_sort": 29474,
        "total": 2369
      },
      {
        "club_badge_src": null,
        "entry": 5081878,
        "entry_name": "Calm as you like",
        "event_total": 56,
        "has_played": true,
        "id": 39276570,
        "last_rank": 28273,
        "player_name": "Dara Connolly",
        "rank": 29400,
        "rank_sort": 29475,
        "total": 2369
      },
      {
        "club_badge_src": null,
        "entry": 5098357,
        "entry_name": "Pear",
        "event_total": 51,
        "has_played": true,
        "id": 39406723,
        "last_rank": 23656,
        "player_name": "Michael Scott",
        "rank": 29400,
        "rank_sort": 29476,
        "total": 2369
      },
      {
        "club_badge_src": null,
        "entry": 5135638,
        "entry_name": "Hyrule Warriors",
        "event_total": 62,
        "has_played": true,
        "id": 39722593,
        "last_rank": 34458,
        "player_name": "Patrick Francisco",
        "rank": 29400,
        "rank_sort": 29477,
        "total": 2369
      },
      {
        "club_badge_src": null,
        "entry": 5290081,
        "entry_name": "Berbboo2",
        "event_total": 54,
        "has_played": true,
        "id": 41005218,
        "last_rank": 22830,
        "player_name": "Goguide Peeranat",
        "rank": 29400,
        "rank_sort": 29478,
        "total": 2369
      },
      {
        "club_badge_src": null,
        "entry": 5308587,
        "entry_name": "CescInTheCity",
        "event_total": 84,
        "has_played": true,
        "id": 41150083,
        "last_rank": 67695,
        "player_name": "Jack Painter",
        "rank": 29400,
        "rank_sort": 29479,
        "total": 2369
      },
      {
        "club_badge_src": "https://fantasy.premierleague.com/gcs/plfpl-production-adobe-approved/plfpl-production/5548622/3a6dd3be-e6a4-482f-aabf-d992a662f1fd.png",
        "entry": 5548622,
        "entry_name": "Diesskey",
        "event_total": 53,
        "has_played": true,
        "id": 43302595,
        "last_rank": 16163,
        "player_name": "Jawad Alqallaf",
        "rank": 29400,
        "rank_sort": 29480,
        "total": 2369
      },
      {
        "club_badge_src": null,
        "entry": 5627520,
        "entry_name": "Ossies Dream 11",
        "event_total": 46,
        "has_played": true,
        "id": 43995399,
        "last_rank": 19904,
        "player_name": "Paul Watts",
        "rank": 29400,
        "rank_sort": 29481,
        "total": 2369
      },
      {
        "club_badge_src": null,
        "entry": 6275605,
        "entry_name": "Word United",
        "event_total": 69,
        "has_played": true,
        "id": 49696067,
        "last_rank": 38016,
        "player_name": "Jamie Cresswell",
        "rank": 29400,
        "rank_sort": 29482,
        "total": 2369
      },
      {
        "club_badge_src": null,
        "entry": 6304016,
        "entry_name": "Raz Van Amsterdam",
        "event_total": 65,
        "has_played": true,
        "id": 49989009,
        "last_rank": 38016,
        "player_name": "Razvan Miu",
        "rank": 29400,
        "rank_sort": 29483,
        "total": 2369
      },
      {
        "club_badge_src": null,
        "entry": 6330112,
        "entry_name": "Lokomotiv Tuhus",
        "event_total": 62,
        "has_played": true,
        "id": 50303203,
        "last_rank": 30060,
        "player_name": "H\u00e5vard Tuhus",
        "rank": 29400,
        "rank_sort": 29484,
        "total": 2369
      },
      {
        "club_badge_src": null,
        "entry": 6378682,
        "entry_name": "DropItLikeIt'sSlot",
        "event_total": 65,
        "has_played": true,
        "id": 50730389,
        "last_rank": 33332,
        "player_name": "Brian Cope",
        "rank": 29400,
        "rank_sort": 29485,
        "total": 2369
      },
      {
        "club_badge_src": null,
        "entry": 6487964,
        "entry_name": "Harbinho",
        "event_total": 68,
        "has_played": true,
        "id": 51715660,
        "last_rank": 41967,
        "player_name": "Mohamad Harb",
        "rank": 29400,
        "rank_sort": 29486,
        "total": 2369
      },
      {
        "club_badge_src": "https://fantasy.premierleague.com/gcs/plfpl-production-adobe-approved/plfpl-production/6697315/26cdb4bc-a8c1-4fc2-8740-de0cc8b54cf8.png",
        "entry": 6697315,
        "entry_name": "yuriexplory",
        "event_total": 58,
        "has_played": true,
        "id": 53585475,
        "last_rank": 29688,
        "player_name": "Yuri Ono",
        "rank": 29400,
        "rank_sort": 29487,
        "total": 2369
      },
      {
        "club_badge_src": null,
        "entry": 7021638,
        "entry_name": "Alison Wonderland",
        "event_total": 77,
        "has_played": true,
        "id": 56402865,
        "last_rank": 55311,
        "player_name": "Stefan Sahl",
        "rank": 29400,
        "rank_sort": 29488,
        "total": 2369
      },
      {
        "club_badge_src": null,
        "entry": 7092941,
        "entry_name": "FC Mardin",
        "event_total": 59,
        "has_played": true,
        "id": 57108909,
        "last_rank": 31236,
        "player_name": "Firat Kavak",
        "rank": 29400,
        "rank_sort": 29489,
        "total": 2369
      },
      {
        "club_badge_src": null,
        "entry": 7261233,
        "entry_name": "Gy\u00f6 Eze On Me",
        "event_total": 63,
        "has_played": true,
        "id": 58711269,
        "last_rank": 35424,
        "player_name": "Tunji Nelson",
        "rank": 29400,
        "rank_sort": 29490,
        "total": 2369
      },
      {
        "club_badge_src": null,
        "entry": 7687591,
        "entry_name": "Invincibles",
        "event_total": 53,
        "has_played": true,
        "id": 63059883,
        "last_rank": 25436,
        "player_name": "Josh Brown",
        "rank": 29400,
        "rank_sort": 29491,
        "total": 2369
      },
      {
        "club_badge_src": null,
        "entry": 7716624,
        "entry_name": "Liverpool",
        "event_total": 61,
        "has_played": true,
        "id": 63320611,
        "last_rank": 29071,
        "player_name": "Mehran Yadegari",
        "rank": 29400,
        "rank_sort": 29492,
        "total": 2369
      },
      {
        "club_badge_src": null,
        "entry": 7784300,
        "entry_name": "tikitaka",
        "event_total": 72,
        "has_played": true,
        "id": 63932551,
        "last_rank": 47596,
        "player_name": "Marius Garnes",
        "rank": 29400,
        "rank_sort": 29493,
        "total": 2369
      },
      {
        "club_badge_src": null,
        "entry": 8000755,
        "entry_name": "THE FORCE V3.0",
        "event_total": 77,
        "has_played": true,
        "id": 65890602,
        "last_rank": 55659,
        "player_name": "ALFONSO PENAGOS",
        "rank": 29400,
        "rank_sort": 29494,
        "total": 2369
      },
      {
        "club_badge_src": "https://fantasy.premierleague.com/gcs/plfpl-production-adobe-approved/plfpl-production/9378191/2c05b486-1e00-4e3d-bd94-44f5cf5219f2.png",
        "entry": 9378191,
        "entry_name": "Alaw fc",
        "event_total": 46,
        "has_played": true,
        "id": 79161985,
        "last_rank": 19904,
        "player_name": "Daniel Galvin",
        "rank": 29400,
        "rank_sort": 29495,
        "total": 2369
      },
      {
        "club_badge_src": null,
        "entry": 6970,
        "entry_name": "Malaysian rejects",
        "event_total": 70,
        "has_played": true,
        "id": 40119,
        "last_rank": 39403,
        "player_name": "Sue Jiron",
        "rank": 29496,
        "rank_sort": 29496,
        "total": 2369
      },
      {
        "club_badge_src": null,
        "entry": 18204,
        "entry_name": "Xxxxxxx",
        "event_total": 56,
        "has_played": true,
        "id": 113177,
        "last_rank": 24570,
        "player_name": "Ervins Dukalskis",
        "rank": 29496,
        "rank_sort": 29497,
        "total": 2369
      },
      {
        "club_badge_src": null,
        "entry": 19417,
        "entry_name": "Netflix and Chilwell",
        "event_total": 59,
        "has_played": true,
        "id": 120818,
        "last_rank": 31236,
        "player_name": "Adam Smith",
        "rank": 29496,
        "rank_sort": 29498,
        "total": 2369
      },
      {
        "club_badge_src": "https://fantasy.premierleague.com/gcs/plfpl-production-adobe-approved/plfpl-production/40915/d9d7a573-78e6-46c7-a497-fcabd127c6fb.png",
        "entry": 40915,
        "entry_name": "BENO",
        "event_total": 81,
        "has_played": true,
        "id": 262248,
        "last_rank": 55311,
        "player_name": "Atef Beno",
        "rank": 29496,
        "rank_sort": 29499,
        "total": 2369
      },
      {
        "club_badge_src": null,
        "entry": 44594,
        "entry_name": "\u26bd CHAMPION \u26bd",
        "event_total": 44,
        "has_played": true,
        "id": 285817,
        "last_rank": 18555,
        "player_name": "Jonathan Brown",
        "rank": 29496,
        "rank_sort": 29500,
        "total": 2369
      }
    ]
  }
}