{
  "last_updated_data": "2026-05-24T23:28:17Z",
  "league": {
    "admin_entry": null,
    "closed": false,
    "code_privacy": "p",
    "created": "2025-07-20T23:14:33.933835Z",
    "cup_league": 2815434,
    "has_cup": true,
    "id": 314,
    "league_type": "s",
    "max_entries": null,
    "name": "Overall",
    "rank": null,
    "scoring": "c",
    "start_event": 1
  },
  "new_entries": {
    "has_next": false,
    "page": 1,
    "results": []
  },
  "standings": {
    "has_next": true,
    "page": 538,
    "results": [
      {
        "club_badge_src": null,
        "entry": 163249,
        "entry_name": "Kyama kyange",
        "event_total": 64,
        "has_played": true,
        "id": 1076623,
        "last_rank": 33695,
        "player_name": "-256- -1",
        "rank": 26848,
        "rank_sort": 26851,
        "total": 2372
      },
      {
        "club_badge_src": "https://fantasy.premierleague.com/gcs/plfpl-production-adobe-approved/plfpl-production/167787/f48bdc2c-fc30-48e5-87a1-330627cd68cc.png",
        "entry": 167787,
        "entry_name": "Lokomotiv",
        "event_total": 66,
        "has_played": true,
        "id": 1109107,
        "last_rank": 31236,
        "player_name": "Neil Jones",
        "rank": 26848,
        "rank_sort": 26852,
        "total": 2372
      },
      {
        "club_badge_src": null,
        "entry": 188678,
        "entry_name": "\u0623\u0628\u0648 saka",
        "event_total": 68,
        "has_played": true,
        "id": 1248423,
        "last_rank": 38391,
        "player_name": "Abo elqasem ahmed",
        "rank": 26848,
        "rank_sort": 26853,
        "total": 2372
      },
      {
        "club_badge_src": null,
        "entry": 268981,
        "entry_name": "Son Schade",
        "event_total": 68,
        "has_played": true,
        "id": 1789433,
        "last_rank": 38391,
        "player_name": "Lesen De Silva",
        "rank": 26848,
        "rank_sort": 26854,
        "total": 2372
      },
      {
        "club_badge_src": "https://fantasy.premierleague.com/gcs/plfpl-production-adobe-approved/plfpl-production/623681/6ffcf19f-d37b-463c-ad37-33b2a03c107c.png",
        "entry": 623681,
        "entry_name": "Russia \ufffd",
        "event_total": 65,
        "has_played": true,
        "id": 4214847,
        "last_rank": 30325,
        "player_name": "an an",
        "rank": 26848,
        "rank_sort": 26855,
        "total": 2372
      },
      {
        "club_badge_src": "https://fantasy.premierleague.com/gcs/plfpl-production-adobe-approved/plfpl-production/694006/6f2a28c6-1dfe-47b4-8ec9-f0ae72a1cbf6.png",
        "entry": 694006,
        "entry_name": "Yarop",
        "event_total": 65,
        "has_played": true,
        "id": 4700284,
        "last_rank": 30325,
        "player_name": "Yarop alhasania",
        "rank": 26848,
        "rank_sort": 26856,
        "total": 2372
      },
      {
        "club_badge_src": null,
        "entry": 854384,
        "entry_name": "MR-\ub9ac\uac15\ubaa8",
        "event_total": 71,
        "has_played": true,
        "id": 5856367,
        "last_rank": 32437,
        "player_name": "EMAD WALI",
        "rank": 26848,
        "rank_sort": 26857,
        "total": 2372
      },
      {
        "club_badge_src": "https://fantasy.premierleague.com/gcs/plfpl-production-adobe-approved/plfpl-production/941286/088b0d50-4ed7-4f2f-b70c-3b9df0c358a9.png",
        "entry": 941286,
        "entry_name": "AFC",
        "event_total": 61,
        "has_played": true,
        "id": 6480469,
        "last_rank": 30325,
        "player_name": "ARON Walle",
        "rank": 26848,
        "rank_sort": 26858,
        "total": 2372
      },
      {
        "club_badge_src": null,
        "entry": 1179242,
        "entry_name": "KILL BILL FC",
        "event_total": 71,
        "has_played": true,
        "id": 8182118,
        "last_rank": 37134,
        "player_name": "VASILIS KARAKOSTAS",
        "rank": 26848,
        "rank_sort": 26859,
        "total": 2372
      },
      {
        "club_badge_src": null,
        "entry": 1303695,
        "entry_name": "Murph n Turf",
        "event_total": 72,
        "has_played": true,
        "id": 9061021,
        "last_rank": 33582,
        "player_name": "Tom Borriello",
        "rank": 26848,
        "rank_sort": 26860,
        "total": 2372
      },
      {
        "club_badge_src": "https://fantasy.premierleague.com/gcs/plfpl-production-adobe-approved/plfpl-production/1513358/9278ba9b-3e85-4240-9d18-86c0890cd317.png",
        "entry": 1513358,
        "entry_name": "7redxx_UTDMaddy",
        "event_total": 63,
        "has_played": true,
        "id": 10555059,
        "last_rank": 28388,
        "player_name": "Mahid Miah",
        "rank": 26848,
        "rank_sort": 26861,
        "total": 2372
      },
      {
        "club_badge_src": "https://fantasy.premierleague.com/gcs/plfpl-production-adobe-approved/plfpl-production/2230037/1db133ba-35b1-4266-9df9-b14ae2bfba3f.png",
        "entry": 2230037,
        "entry_name": "Bend it like Bukayo",
        "event_total": 67,
        "has_played": true,
        "id": 15886451,
        "last_rank": 37134,
        "player_name": "Bethany Ewen",
        "rank": 26848,
        "rank_sort": 26862,
        "total": 2372
      },
      {
        "club_badge_src": null,
        "entry": 2297218,
        "entry_name": "Lord of the Ings",
        "event_total": 63,
        "has_played": true,
        "id": 16384232,
        "last_rank": 32531,
        "player_name": "Ellis Heath",
        "rank": 26848,
        "rank_sort": 26863,
        "total": 2372
      },
      {
        "club_badge_src": null,
        "entry": 2405517,
        "entry_name": "Real Strugglers",
        "event_total": 57,
        "has_played": true,
        "id": 17193871,
        "last_rank": 26512,
        "player_name": "Lee McGregor",
        "rank": 26848,
        "rank_sort": 26864,
        "total": 2372
      },
      {
        "club_badge_src": null,
        "entry": 2606648,
        "entry_name": "Usilalamike FC",
        "event_total": 69,
        "has_played": true,
        "id": 18724562,
        "last_rank": 34749,
        "player_name": "Sabury Sabury",
        "rank": 26848,
        "rank_sort": 26865,
        "total": 2372
      },
      {
        "club_badge_src": "https://fantasy.premierleague.com/gcs/plfpl-production-adobe-approved/plfpl-production/2861559/f9ebe2cf-2df1-48ed-b18c-2094970e44ed.png",
        "entry": 2861559,
        "entry_name": "GvardiolsoftheGalaxy",
        "event_total": 51,
        "has_played": true,
        "id": 20926468,
        "last_rank": 18555,
        "player_name": "Abbas Yusuf",
        "rank": 26848,
        "rank_sort": 26866,
        "total": 2372
      },
      {
        "club_badge_src": null,
        "entry": 3118598,
        "entry_name": "Everseenababypigeon",
        "event_total": 72,
        "has_played": true,
        "id": 23013948,
        "last_rank": 43512,
        "player_name": "Mark English",
        "rank": 26848,
        "rank_sort": 26867,
        "total": 2372
      },
      {
        "club_badge_src": null,
        "entry": 3248869,
        "entry_name": "wirtz nightmare",
        "event_total": 59,
        "has_played": true,
        "id": 24036237,
        "last_rank": 24680,
        "player_name": "Harry Williams",
        "rank": 26848,
        "rank_sort": 26868,
        "total": 2372
      },
      {
        "club_badge_src": "https://fantasy.premierleague.com/gcs/plfpl-production-adobe-approved/plfpl-production/3346785/aeaed253-2ab5-47a6-a8ea-8b127fe45a33.png",
        "entry": 3346785,
        "entry_name": "Goal Sarkastically",
        "event_total": 68,
        "has_played": true,
        "id": 24826662,
        "last_rank": 33651,
        "player_name": "Samikshan Sarkar",
        "rank": 26848,
        "rank_sort": 26869,
        "total": 2372
      },
      {
        "club_badge_src": null,
        "entry": 3837982,
        "entry_name": "Amadness",
        "event_total": 82,
        "has_played": true,
        "id": 28730903,
        "last_rank": 59170,
        "player_name": "Keaton Meagan",
        "rank": 26848,
        "rank_sort": 26870,
        "total": 2372
      },
      {
        "club_badge_src": null,
        "entry": 4830053,
        "entry_name": "CCS Superchamps",
        "event_total": 76,
        "has_played": true,
        "id": 37200670,
        "last_rank": 43512,
        "player_name": "Craig Caldwell-Smith",
        "rank": 26848,
        "rank_sort": 26871,
        "total": 2372
      },
      {
        "club_badge_src": null,
        "entry": 4855791,
        "entry_name": "\u0637\u062d\u0646",
        "event_total": 53,
        "has_played": true,
        "id": 37415138,
        "last_rank": 23071,
        "player_name": "basel blaibl",
        "rank": 26848,
        "rank_sort": 26872,
        "total": 2372
      },
      {
        "club_badge_src": "https://fantasy.premierleague.com/gcs/plfpl-production-adobe-approved/plfpl-production/5175676/646f5408-5d7b-4e20-a53a-2afa3160500a.png",
        "entry": 5175676,
        "entry_name": "Tenneson United FC",
        "event_total": 63,
        "has_played": true,
        "id": 40059753,
        "last_rank": 28388,
        "player_name": "Benjamin Fatukasi",
        "rank": 26848,
        "rank_sort": 26873,
        "total": 2372
      },
      {
        "club_badge_src": null,
        "entry": 5254319,
        "entry_name": "stubbed mitoma",
        "event_total": 49,
        "has_played": true,
        "id": 40722974,
        "last_rank": 20038,
        "player_name": "Todd Dyer",
        "rank": 26848,
        "rank_sort": 26874,
        "total": 2372
      },
      {
        "club_badge_src": null,
        "entry": 6353368,
        "entry_name": "Nem\u00e1m z\u00e1jem",
        "event_total": 62,
        "has_played": true,
        "id": 50509226,
        "last_rank": 27402,
        "player_name": "Miroslav Zampa",
        "rank": 26848,
        "rank_sort": 26875,
        "total": 2372
      },
      {
        "club_badge_src": null,
        "entry": 6386171,
        "entry_name": "shika",
        "event_total": 59,
        "has_played": true,
        "id": 50796611,
        "last_rank": 28425,
        "player_name": "mohamed hesham",
        "rank": 26848,
        "rank_sort": 26876,
        "total": 2372
      },
      {
        "club_badge_src": null,
        "entry": 6446416,
        "entry_name": "A Stoned Villa",
        "event_total": 66,
        "has_played": true,
        "id": 51330727,
        "last_rank": 31371,
        "player_name": "Ndaiga 4.1",
        "rank": 26848,
        "rank_sort": 26877,
        "total": 2372
      },
      {
        "club_badge_src": null,
        "entry": 6665979,
        "entry_name": "The Terminator",
        "event_total": 59,
        "has_played": true,
        "id": 53310197,
        "last_rank": 28388,
        "player_name": "The Terminator",
        "rank": 26848,
        "rank_sort": 26878,
        "total": 2372
      },
      {
        "club_badge_src": null,
        "entry": 6785267,
        "entry_name": "Toro Iberico",
        "event_total": 62,
        "has_played": true,
        "id": 54334137,
        "last_rank": 23820,
        "player_name": "Alejandro Munoz",
        "rank": 26848,
        "rank_sort": 26879,
        "total": 2372
      },
      {
        "club_badge_src": null,
        "entry": 7070638,
        "entry_name": "Pep Roulette",
        "event_total": 54,
        "has_played": true,
        "id": 56895299,
        "last_rank": 23881,
        "player_name": "Mike Capelle",
        "rank": 26848,
        "rank_sort": 26880,
        "total": 2372
      },
      {
        "club_badge_src": null,
        "entry": 8684562,
        "entry_name": "curl up Ndiaye",
        "event_total": 54,
        "has_played": true,
        "id": 72429604,
        "last_rank": 23881,
        "player_name": "Natalie Morey",
        "rank": 26848,
        "rank_sort": 26881,
        "total": 2372
      },
      {
        "club_badge_src": null,
        "entry": 89490,
        "entry_name": "Spardinga FC",
        "event_total": 63,
        "has_played": true,
        "id": 584166,
        "last_rank": 32335,
        "player_name": "Thanos Papathanasiou",
        "rank": 26882,
        "rank_sort": 26882,
        "total": 2372
      },
      {
        "club_badge_src": null,
        "entry": 98060,
        "entry_name": "One more try",
        "event_total": 51,
        "has_played": true,
        "id": 640463,
        "last_rank": 21530,
        "player_name": "Philip Obilo",
        "rank": 26882,
        "rank_sort": 26883,
        "total": 2372
      },
      {
        "club_badge_src": "https://fantasy.premierleague.com/gcs/plfpl-production-adobe-approved/plfpl-production/233133/819ee3a0-ffa6-425b-9775-f3edea3ef828.png",
        "entry": 233133,
        "entry_name": "We go again FC",
        "event_total": 56,
        "has_played": true,
        "id": 1551140,
        "last_rank": 25613,
        "player_name": "M\u00e5ns Ericsson",
        "rank": 26882,
        "rank_sort": 26884,
        "total": 2372
      },
      {
        "club_badge_src": null,
        "entry": 480369,
        "entry_name": "\u0647\u0627\u0634\u0645 \u0646\u0627\u0635\u0631",
        "event_total": 64,
        "has_played": true,
        "id": 3225069,
        "last_rank": 25564,
        "player_name": "\u0647\u0627\u0634\u0645 \u0646\u0627\u0635\u0631",
        "rank": 26882,
        "rank_sort": 26885,
        "total": 2372
      },
      {
        "club_badge_src": null,
        "entry": 506903,
        "entry_name": "WIRTZ CASE SCENARIO",
        "event_total": 75,
        "has_played": true,
        "id": 3402294,
        "last_rank": 42152,
        "player_name": "Jordan Mcginley",
        "rank": 26882,
        "rank_sort": 26886,
        "total": 2372
      },
      {
        "club_badge_src": "https://fantasy.premierleague.com/gcs/plfpl-production-adobe-approved/plfpl-production/521505/b34ff75a-3e50-4ca1-80c7-f8e1310c0f2d.png",
        "entry": 521505,
        "entry_name": "The Eagle \ufffd",
        "event_total": 65,
        "has_played": true,
        "id": 3502350,
        "last_rank": 30361,
        "player_name": "Raafat Khalil",
        "rank": 26882,
        "rank_sort": 26887,
        "total": 2372
      },
      {
        "club_badge_src": null,
        "entry": 1127694,
        "entry_name": "TrailingEdge FC",
        "event_total": 56,
        "has_played": true,
        "id": 7815335,
        "last_rank": 25633,
        "player_name": "Ben Adams",
        "rank": 26882,
        "rank_sort": 26888,
        "total": 2372
      },
      {
        "club_badge_src": null,
        "entry": 1245289,
        "entry_name": "\u0160e\u0161ko Inferno",
        "event_total": 50,
        "has_played": true,
        "id": 8648602,
        "last_rank": 15319,
        "player_name": "Jose Bracho",
        "rank": 26882,
        "rank_sort": 26889,
        "total": 2372
      },
      {
        "club_badge_src": null,
        "entry": 1372754,
        "entry_name": "Abdulmalikhaled",
        "event_total": 62,
        "has_played": true,
        "id": 9542490,
        "last_rank": 23857,
        "player_name": "Abdulmalik .",
        "rank": 26882,
        "rank_sort": 26890,
        "total": 2372
      },
      {
        "club_badge_src": null,
        "entry": 1458308,
        "entry_name": "The Mitchgicians",
        "event_total": 71,
        "has_played": true,
        "id": 10163183,
        "last_rank": 32491,
        "player_name": "Mitchell Kilgour",
        "rank": 26882,
        "rank_sort": 26891,
        "total": 2372
      },
      {
        "club_badge_src": null,
        "entry": 1969275,
        "entry_name": "Palmer Is The Boss",
        "event_total": 62,
        "has_played": true,
        "id": 13898378,
        "last_rank": 31404,
        "player_name": "Jamie O Brien",
        "rank": 26882,
        "rank_sort": 26892,
        "total": 2372
      },
      {
        "club_badge_src": null,
        "entry": 2057061,
        "entry_name": "mjk",
        "event_total": 40,
        "has_played": true,
        "id": 14572497,
        "last_rank": 12048,
        "player_name": "\u0645\u062d\u0645\u062f \u0627\u0644\u0643\u0648\u0627\u0641\u064a",
        "rank": 26882,
        "rank_sort": 26893,
        "total": 2372
      },
      {
        "club_badge_src": "https://fantasy.premierleague.com/gcs/plfpl-production-adobe-approved/plfpl-production/3224971/1fa8fde3-2832-432e-99d0-62617c09ff37.png",
        "entry": 3224971,
        "entry_name": "OUJDA 48",
        "event_total": 52,
        "has_played": true,
        "id": 23849384,
        "last_rank": 19302,
        "player_name": "YUNESS the GOAT",
        "rank": 26882,
        "rank_sort": 26894,
        "total": 2372
      },
      {
        "club_badge_src": null,
        "entry": 4413457,
        "entry_name": "Larkos Unlikely Lads",
        "event_total": 57,
        "has_played": true,
        "id": 33574922,
        "last_rank": 26512,
        "player_name": "Shane Larkin",
        "rank": 26882,
        "rank_sort": 26895,
        "total": 2372
      },
      {
        "club_badge_src": "https://fantasy.premierleague.com/gcs/plfpl-production-adobe-approved/plfpl-production/4988282/a16bee17-1885-4fdb-b06a-166799de2f12.png",
        "entry": 4988282,
        "entry_name": "FC Issa",
        "event_total": 52,
        "has_played": true,
        "id": 38510028,
        "last_rank": 19302,
        "player_name": "Hsen Issa",
        "rank": 26882,
        "rank_sort": 26896,
        "total": 2372
      },
      {
        "club_badge_src": null,
        "entry": 7518780,
        "entry_name": "troyygadgets",
        "event_total": 75,
        "has_played": true,
        "id": 61506604,
        "last_rank": 47868,
        "player_name": "Somto Uzoekwe",
        "rank": 26882,
        "rank_sort": 26897,
        "total": 2372
      },
      {
        "club_badge_src": null,
        "entry": 8411921,
        "entry_name": "Ruka u ruci",
        "event_total": 61,
        "has_played": true,
        "id": 69789255,
        "last_rank": 30395,
        "player_name": "Lucija Negoveti\u0107",
        "rank": 26882,
        "rank_sort": 26898,
        "total": 2372
      },
      {
        "club_badge_src": "https://fantasy.premierleague.com/gcs/plfpl-production-adobe-approved/plfpl-production/46644/b8b12d51-c9dc-4fd8-8388-e4b37e39e1c9.png",
        "entry": 46644,
        "entry_name": "Rayan ate nouri",
        "event_total": 50,
        "has_played": true,
        "id": 298994,
        "last_rank": 20782,
        "player_name": "Ronnie Newton",
        "rank": 26899,
        "rank_sort": 26899,
        "total": 2372
      },
      {
        "club_badge_src": "https://fantasy.premierleague.com/gcs/plfpl-production-adobe-approved/plfpl-production/99792/5869acb6-98db-45a9-8f27-6d7314fdd46f.png",
        "entry": 99792,
        "entry_name": "Valar Magalhaes",
        "event_total": 61,
        "has_played": true,
        "id": 651381,
        "last_rank": 23071,
        "player_name": "Tony Gammell",
        "rank": 26899,
        "rank_sort": 26900,
        "total": 2372
      }
    ]
  }
}