{
  "last_updated_data": "2026-05-24T23:28:17Z",
  "league": {
    "admin_entry": null,
    "closed": false,
    "code_privacy": "p",
    "created": "2025-07-20T23:14:33.933835Z",
    "cup_league": 2815434,
    "has_cup": true,
    "id": 314,
    "league_type": "s",
    "max_entries": null,
    "name": "Overall",
    "rank": null,
    "scoring": "c",
    "start_event": 1
  },
  "new_entries": {
    "has_next": false,
    "page": 1,
    "results": []
  },
  "standings": {
    "has_next": true,
    "page": 643,
    "results": [
      {
        "club_badge_src": null,
        "entry": 72822,
        "entry_name": "FC cuci jiwa",
        "event_total": 68,
        "has_played": true,
        "id": 473281,
        "last_rank": 40036,
        "player_name": "ayra aryalisah",
        "rank": 32080,
        "rank_sort": 32101,
        "total": 2366
      },
      {
        "club_badge_src": null,
        "entry": 77463,
        "entry_name": "Kiss and Tel",
        "event_total": 62,
        "has_played": true,
        "id": 503503,
        "last_rank": 37589,
        "player_name": "Dave Riley",
        "rank": 32080,
        "rank_sort": 32102,
        "total": 2366
      },
      {
        "club_badge_src": null,
        "entry": 86507,
        "entry_name": "3&1 Kalmar AB",
        "event_total": 60,
        "has_played": true,
        "id": 563800,
        "last_rank": 35166,
        "player_name": "Melker Bernhardsson",
        "rank": 32080,
        "rank_sort": 32103,
        "total": 2366
      },
      {
        "club_badge_src": null,
        "entry": 101676,
        "entry_name": "Cunha feel it?",
        "event_total": 63,
        "has_played": true,
        "id": 663412,
        "last_rank": 34051,
        "player_name": "Ethan May",
        "rank": 32080,
        "rank_sort": 32104,
        "total": 2366
      },
      {
        "club_badge_src": "https://fantasy.premierleague.com/gcs/plfpl-production-adobe-approved/plfpl-production/107751/b744e615-0e88-49e9-ac0f-fabb776f926c.png",
        "entry": 107751,
        "entry_name": "Toney The Blue",
        "event_total": 63,
        "has_played": true,
        "id": 702513,
        "last_rank": 34051,
        "player_name": "Anthony Chigozie",
        "rank": 32080,
        "rank_sort": 32105,
        "total": 2366
      },
      {
        "club_badge_src": null,
        "entry": 131872,
        "entry_name": "Salah-vating",
        "event_total": 51,
        "has_played": true,
        "id": 859108,
        "last_rank": 26088,
        "player_name": "Henry Wise",
        "rank": 32080,
        "rank_sort": 32106,
        "total": 2366
      },
      {
        "club_badge_src": null,
        "entry": 143170,
        "entry_name": "Milos my Shoe",
        "event_total": 52,
        "has_played": true,
        "id": 936605,
        "last_rank": 23230,
        "player_name": "Shay O-Leary",
        "rank": 32080,
        "rank_sort": 32107,
        "total": 2366
      },
      {
        "club_badge_src": null,
        "entry": 150941,
        "entry_name": "Fergie\u2019s Red Army",
        "event_total": 62,
        "has_played": true,
        "id": 990097,
        "last_rank": 37435,
        "player_name": "Mark Colbert",
        "rank": 32080,
        "rank_sort": 32108,
        "total": 2366
      },
      {
        "club_badge_src": null,
        "entry": 154125,
        "entry_name": "Quentins XI",
        "event_total": 56,
        "has_played": true,
        "id": 1012371,
        "last_rank": 30600,
        "player_name": "Quentin .",
        "rank": 32080,
        "rank_sort": 32109,
        "total": 2366
      },
      {
        "club_badge_src": null,
        "entry": 166974,
        "entry_name": "Shaw to win",
        "event_total": 77,
        "has_played": true,
        "id": 1103513,
        "last_rank": 60168,
        "player_name": "Liam Aust",
        "rank": 32080,
        "rank_sort": 32110,
        "total": 2366
      },
      {
        "club_badge_src": null,
        "entry": 188268,
        "entry_name": "Qosky FC",
        "event_total": 45,
        "has_played": true,
        "id": 1245408,
        "last_rank": 21159,
        "player_name": "Kolawole Olamide",
        "rank": 32080,
        "rank_sort": 32111,
        "total": 2366
      },
      {
        "club_badge_src": null,
        "entry": 196866,
        "entry_name": "MyffaDabbaDozyXI",
        "event_total": 60,
        "has_played": true,
        "id": 1306083,
        "last_rank": 34969,
        "player_name": "CJ Colligan",
        "rank": 32080,
        "rank_sort": 32112,
        "total": 2366
      },
      {
        "club_badge_src": null,
        "entry": 231346,
        "entry_name": "Finishers",
        "event_total": 53,
        "has_played": true,
        "id": 1539178,
        "last_rank": 24143,
        "player_name": "Lucas Ly",
        "rank": 32080,
        "rank_sort": 32113,
        "total": 2366
      },
      {
        "club_badge_src": null,
        "entry": 234201,
        "entry_name": "El Pork Chopo",
        "event_total": 52,
        "has_played": true,
        "id": 1558383,
        "last_rank": 27020,
        "player_name": "Carlos Duarte",
        "rank": 32080,
        "rank_sort": 32114,
        "total": 2366
      },
      {
        "club_badge_src": null,
        "entry": 236187,
        "entry_name": "RA Riyadi",
        "event_total": 70,
        "has_played": true,
        "id": 1571522,
        "last_rank": 42648,
        "player_name": "Rakan Abdallah",
        "rank": 32080,
        "rank_sort": 32115,
        "total": 2366
      },
      {
        "club_badge_src": "https://fantasy.premierleague.com/gcs/plfpl-production-adobe-approved/plfpl-production/244922/72ad3365-1d6c-4539-b902-85932f600910.png",
        "entry": 244922,
        "entry_name": "extraboyz",
        "event_total": 76,
        "has_played": true,
        "id": 1630678,
        "last_rank": 57776,
        "player_name": "Natapon Hukhanwit",
        "rank": 32080,
        "rank_sort": 32116,
        "total": 2366
      },
      {
        "club_badge_src": null,
        "entry": 252848,
        "entry_name": "SKC 98",
        "event_total": 66,
        "has_played": true,
        "id": 1681755,
        "last_rank": 42940,
        "player_name": "Samuel Chapman",
        "rank": 32080,
        "rank_sort": 32117,
        "total": 2366
      },
      {
        "club_badge_src": null,
        "entry": 277404,
        "entry_name": "Airscoop1",
        "event_total": 58,
        "has_played": true,
        "id": 1846411,
        "last_rank": 32879,
        "player_name": "Gerald Yuen",
        "rank": 32080,
        "rank_sort": 32118,
        "total": 2366
      },
      {
        "club_badge_src": null,
        "entry": 282440,
        "entry_name": "any chance here lino",
        "event_total": 58,
        "has_played": true,
        "id": 1879972,
        "last_rank": 32879,
        "player_name": "\u017dan Kavalar",
        "rank": 32080,
        "rank_sort": 32119,
        "total": 2366
      },
      {
        "club_badge_src": null,
        "entry": 313026,
        "entry_name": "Srogie Pigu\u0142y",
        "event_total": 75,
        "has_played": true,
        "id": 2097275,
        "last_rank": 56708,
        "player_name": "\u0141ukasz Str\u0105czek",
        "rank": 32080,
        "rank_sort": 32120,
        "total": 2366
      },
      {
        "club_badge_src": null,
        "entry": 316504,
        "entry_name": "Balls Of Justice",
        "event_total": 61,
        "has_played": true,
        "id": 2121390,
        "last_rank": 36624,
        "player_name": "Faisal Naved",
        "rank": 32080,
        "rank_sort": 32121,
        "total": 2366
      },
      {
        "club_badge_src": "https://fantasy.premierleague.com/gcs/plfpl-production-adobe-approved/plfpl-production/331509/67c8355a-bf08-44c3-9698-c5538f63a7ba.png",
        "entry": 331509,
        "entry_name": "Cantona is King",
        "event_total": 71,
        "has_played": true,
        "id": 2220440,
        "last_rank": 49691,
        "player_name": "Rune Eian",
        "rank": 32080,
        "rank_sort": 32122,
        "total": 2366
      },
      {
        "club_badge_src": "https://fantasy.premierleague.com/gcs/plfpl-production-adobe-approved/plfpl-production/342077/37e64893-840b-458e-a15c-14c3e68ee40e.png",
        "entry": 342077,
        "entry_name": "MurderOnZidanesFloor",
        "event_total": 67,
        "has_played": true,
        "id": 2289584,
        "last_rank": 44048,
        "player_name": "Phil Loader",
        "rank": 32080,
        "rank_sort": 32123,
        "total": 2366
      },
      {
        "club_badge_src": null,
        "entry": 347740,
        "entry_name": "Mandinho FC",
        "event_total": 66,
        "has_played": true,
        "id": 2327570,
        "last_rank": 37589,
        "player_name": "Mohamed Alaa",
        "rank": 32080,
        "rank_sort": 32124,
        "total": 2366
      },
      {
        "club_badge_src": "https://fantasy.premierleague.com/gcs/plfpl-production-adobe-approved/plfpl-production/377054/752c240f-f463-4248-9810-a090df764c43.png",
        "entry": 377054,
        "entry_name": "Escape from Alcaraz",
        "event_total": 54,
        "has_played": true,
        "id": 2525630,
        "last_rank": 28726,
        "player_name": "Andrew Anderson",
        "rank": 32080,
        "rank_sort": 32125,
        "total": 2366
      },
      {
        "club_badge_src": null,
        "entry": 390809,
        "entry_name": "lamboscreami",
        "event_total": 72,
        "has_played": true,
        "id": 2621452,
        "last_rank": 51720,
        "player_name": "Sean Clarke",
        "rank": 32080,
        "rank_sort": 32126,
        "total": 2366
      },
      {
        "club_badge_src": null,
        "entry": 399284,
        "entry_name": "Bowen's on Fire",
        "event_total": 54,
        "has_played": true,
        "id": 2677462,
        "last_rank": 28906,
        "player_name": "Chris Haseltine",
        "rank": 32080,
        "rank_sort": 32127,
        "total": 2366
      },
      {
        "club_badge_src": null,
        "entry": 460898,
        "entry_name": "bean machine",
        "event_total": 57,
        "has_played": true,
        "id": 3091744,
        "last_rank": 31747,
        "player_name": "Luke Archer",
        "rank": 32080,
        "rank_sort": 32128,
        "total": 2366
      },
      {
        "club_badge_src": null,
        "entry": 461678,
        "entry_name": "ZIMOWIT ZALESIE",
        "event_total": 63,
        "has_played": true,
        "id": 3096977,
        "last_rank": 39023,
        "player_name": "Adrian Szyszka",
        "rank": 32080,
        "rank_sort": 32129,
        "total": 2366
      },
      {
        "club_badge_src": null,
        "entry": 473777,
        "entry_name": "Xabi shahlonso",
        "event_total": 77,
        "has_played": true,
        "id": 3180745,
        "last_rank": 53023,
        "player_name": "Bardia Varshochi",
        "rank": 32080,
        "rank_sort": 32130,
        "total": 2366
      },
      {
        "club_badge_src": null,
        "entry": 510413,
        "entry_name": "SIUUU nArmy",
        "event_total": 72,
        "has_played": true,
        "id": 3427404,
        "last_rank": 51403,
        "player_name": "Chris Jopson",
        "rank": 32080,
        "rank_sort": 32131,
        "total": 2366
      },
      {
        "club_badge_src": null,
        "entry": 511883,
        "entry_name": "Mr Bojangles",
        "event_total": 55,
        "has_played": true,
        "id": 3437222,
        "last_rank": 29904,
        "player_name": "dan nowell",
        "rank": 32080,
        "rank_sort": 32132,
        "total": 2366
      },
      {
        "club_badge_src": null,
        "entry": 540055,
        "entry_name": "NK Zagorje",
        "event_total": 62,
        "has_played": true,
        "id": 3635082,
        "last_rank": 32879,
        "player_name": "Branimir Kebet",
        "rank": 32080,
        "rank_sort": 32133,
        "total": 2366
      },
      {
        "club_badge_src": null,
        "entry": 542244,
        "entry_name": "Hauktjern IL",
        "event_total": 64,
        "has_played": true,
        "id": 3649479,
        "last_rank": 35166,
        "player_name": "Elisabet St\u00f8rset",
        "rank": 32080,
        "rank_sort": 32134,
        "total": 2366
      },
      {
        "club_badge_src": "https://fantasy.premierleague.com/gcs/plfpl-production-adobe-approved/plfpl-production/542412/a353791d-8e7a-48ee-93c8-d91dc217a4a3.png",
        "entry": 542412,
        "entry_name": "GvardiolsOfTheGalaxy",
        "event_total": 52,
        "has_played": true,
        "id": 3650653,
        "last_rank": 27020,
        "player_name": "Patrick Rowland",
        "rank": 32080,
        "rank_sort": 32135,
        "total": 2366
      },
      {
        "club_badge_src": null,
        "entry": 543472,
        "entry_name": "Evertrueeverblue",
        "event_total": 61,
        "has_played": true,
        "id": 3657631,
        "last_rank": 31747,
        "player_name": "Markus Tollin",
        "rank": 32080,
        "rank_sort": 32136,
        "total": 2366
      },
      {
        "club_badge_src": "https://fantasy.premierleague.com/gcs/plfpl-production-adobe-approved/plfpl-production/570728/d49a2e4c-ec1f-4ce0-a871-85efba0bdb96.png",
        "entry": 570728,
        "entry_name": "Tarabe",
        "event_total": 61,
        "has_played": true,
        "id": 3841111,
        "last_rank": 36624,
        "player_name": "Marko Nedi\u0107",
        "rank": 32080,
        "rank_sort": 32137,
        "total": 2366
      },
      {
        "club_badge_src": null,
        "entry": 581405,
        "entry_name": "Ayew Having a Laugh",
        "event_total": 57,
        "has_played": true,
        "id": 3912634,
        "last_rank": 31747,
        "player_name": "James McCann",
        "rank": 32080,
        "rank_sort": 32138,
        "total": 2366
      },
      {
        "club_badge_src": null,
        "entry": 595268,
        "entry_name": "The Quarrymen",
        "event_total": 60,
        "has_played": true,
        "id": 4012889,
        "last_rank": 30727,
        "player_name": "Stephen Brogan",
        "rank": 32080,
        "rank_sort": 32139,
        "total": 2366
      },
      {
        "club_badge_src": null,
        "entry": 600087,
        "entry_name": "Warbies Wonders",
        "event_total": 68,
        "has_played": true,
        "id": 4048494,
        "last_rank": 40036,
        "player_name": "Chris Warburton",
        "rank": 32080,
        "rank_sort": 32140,
        "total": 2366
      },
      {
        "club_badge_src": null,
        "entry": 609395,
        "entry_name": "buzzcutnunez",
        "event_total": 61,
        "has_played": true,
        "id": 4116533,
        "last_rank": 36142,
        "player_name": "tom barry",
        "rank": 32080,
        "rank_sort": 32141,
        "total": 2366
      },
      {
        "club_badge_src": null,
        "entry": 620184,
        "entry_name": "Chapman FC",
        "event_total": 66,
        "has_played": true,
        "id": 4191086,
        "last_rank": 42648,
        "player_name": "Fredrik Jurvanen",
        "rank": 32080,
        "rank_sort": 32142,
        "total": 2366
      },
      {
        "club_badge_src": null,
        "entry": 635063,
        "entry_name": "Livertoon United",
        "event_total": 70,
        "has_played": true,
        "id": 4291910,
        "last_rank": 48642,
        "player_name": "Even Rostoen",
        "rank": 32080,
        "rank_sort": 32143,
        "total": 2366
      },
      {
        "club_badge_src": null,
        "entry": 636372,
        "entry_name": "Ctrl+Alt+de Ligt",
        "event_total": 76,
        "has_played": true,
        "id": 4300771,
        "last_rank": 57857,
        "player_name": "Matt Taylor",
        "rank": 32080,
        "rank_sort": 32144,
        "total": 2366
      },
      {
        "club_badge_src": null,
        "entry": 641291,
        "entry_name": "Under My Cucurella",
        "event_total": 60,
        "has_played": true,
        "id": 4334185,
        "last_rank": 35424,
        "player_name": "Ryan Tosh",
        "rank": 32080,
        "rank_sort": 32145,
        "total": 2366
      },
      {
        "club_badge_src": "https://fantasy.premierleague.com/gcs/plfpl-production-adobe-approved/plfpl-production/642739/be044348-9ce2-4a67-a7d9-2b45a718ae81.png",
        "entry": 642739,
        "entry_name": "C\u00e3es da Lixa",
        "event_total": 53,
        "has_played": true,
        "id": 4343893,
        "last_rank": 27644,
        "player_name": "Jo\u00e3o Freitas",
        "rank": 32080,
        "rank_sort": 32146,
        "total": 2366
      },
      {
        "club_badge_src": null,
        "entry": 687460,
        "entry_name": "LFC Warboys",
        "event_total": 56,
        "has_played": true,
        "id": 4654053,
        "last_rank": 30957,
        "player_name": "Simon Willis",
        "rank": 32080,
        "rank_sort": 32147,
        "total": 2366
      },
      {
        "club_badge_src": null,
        "entry": 699652,
        "entry_name": "NKOMO FC",
        "event_total": 60,
        "has_played": true,
        "id": 4739803,
        "last_rank": 35619,
        "player_name": "Nkazimulo Mkhize",
        "rank": 32080,
        "rank_sort": 32148,
        "total": 2366
      },
      {
        "club_badge_src": null,
        "entry": 705636,
        "entry_name": "Norbs",
        "event_total": 47,
        "has_played": true,
        "id": 4782089,
        "last_rank": 22830,
        "player_name": "John Norbury",
        "rank": 32080,
        "rank_sort": 32149,
        "total": 2366
      },
      {
        "club_badge_src": null,
        "entry": 713666,
        "entry_name": "Outer Milan",
        "event_total": 57,
        "has_played": true,
        "id": 4841624,
        "last_rank": 31747,
        "player_name": "Lee Schofield",
        "rank": 32080,
        "rank_sort": 32150,
        "total": 2366
      }
    ]
  }
}