{
  "last_updated_data": "2026-05-24T23:28:17Z",
  "league": {
    "admin_entry": null,
    "closed": false,
    "code_privacy": "p",
    "created": "2025-07-20T23:14:33.933835Z",
    "cup_league": 2815434,
    "has_cup": true,
    "id": 314,
    "league_type": "s",
    "max_entries": null,
    "name": "Overall",
    "rank": null,
    "scoring": "c",
    "start_event": 1
  },
  "new_entries": {
    "has_next": false,
    "page": 1,
    "results": []
  },
  "standings": {
    "has_next": true,
    "page": 1151,
    "results": [
      {
        "club_badge_src": null,
        "entry": 5782568,
        "entry_name": "who me?",
        "event_total": 69,
        "has_played": true,
        "id": 45345396,
        "last_rank": 82069,
        "player_name": "Alex Green",
        "rank": 57227,
        "rank_sort": 57501,
        "total": 2347
      },
      {
        "club_badge_src": null,
        "entry": 5840617,
        "entry_name": "Hot Mings Summer",
        "event_total": 57,
        "has_played": true,
        "id": 45847974,
        "last_rank": 58071,
        "player_name": "Aimee Wilkinson",
        "rank": 57227,
        "rank_sort": 57502,
        "total": 2347
      },
      {
        "club_badge_src": null,
        "entry": 5859433,
        "entry_name": "Akousha",
        "event_total": 45,
        "has_played": true,
        "id": 46008830,
        "last_rank": 40036,
        "player_name": "Mohammed Abdel Rahman",
        "rank": 57227,
        "rank_sort": 57503,
        "total": 2347
      },
      {
        "club_badge_src": null,
        "entry": 5921723,
        "entry_name": "Starlent Fusion FC",
        "event_total": 64,
        "has_played": true,
        "id": 46544979,
        "last_rank": 63201,
        "player_name": "BRANDON ALOPBUB",
        "rank": 57227,
        "rank_sort": 57504,
        "total": 2347
      },
      {
        "club_badge_src": null,
        "entry": 6023664,
        "entry_name": "Let Stephen Lee Eat",
        "event_total": 65,
        "has_played": true,
        "id": 47509596,
        "last_rank": 72702,
        "player_name": "Phil Mcimmy",
        "rank": 57227,
        "rank_sort": 57505,
        "total": 2347
      },
      {
        "club_badge_src": null,
        "entry": 6030304,
        "entry_name": "Florian Sqw1rtz",
        "event_total": 52,
        "has_played": true,
        "id": 47568996,
        "last_rank": 49691,
        "player_name": "Henry Clare",
        "rank": 57227,
        "rank_sort": 57506,
        "total": 2347
      },
      {
        "club_badge_src": null,
        "entry": 6037760,
        "entry_name": "Zubrightmanti",
        "event_total": 73,
        "has_played": true,
        "id": 47634035,
        "last_rank": 90746,
        "player_name": "Kawin Asawatreratanakul",
        "rank": 57227,
        "rank_sort": 57507,
        "total": 2347
      },
      {
        "club_badge_src": null,
        "entry": 6064897,
        "entry_name": "Justice ForZara",
        "event_total": 57,
        "has_played": true,
        "id": 47868516,
        "last_rank": 58071,
        "player_name": "Amirul Haqimie",
        "rank": 57227,
        "rank_sort": 57508,
        "total": 2347
      },
      {
        "club_badge_src": null,
        "entry": 6068378,
        "entry_name": "AFC jnr.",
        "event_total": 58,
        "has_played": true,
        "id": 47900261,
        "last_rank": 59813,
        "player_name": "Allan Wahinya",
        "rank": 57227,
        "rank_sort": 57509,
        "total": 2347
      },
      {
        "club_badge_src": null,
        "entry": 6098706,
        "entry_name": "Delap Dance",
        "event_total": 63,
        "has_played": true,
        "id": 48164932,
        "last_rank": 68624,
        "player_name": "Noah Paratian",
        "rank": 57227,
        "rank_sort": 57510,
        "total": 2347
      },
      {
        "club_badge_src": null,
        "entry": 6150713,
        "entry_name": "Sin City Devils",
        "event_total": 64,
        "has_played": true,
        "id": 48619328,
        "last_rank": 70985,
        "player_name": "Garrett Williams",
        "rank": 57227,
        "rank_sort": 57511,
        "total": 2347
      },
      {
        "club_badge_src": null,
        "entry": 6160650,
        "entry_name": "Team Thaitastic",
        "event_total": 68,
        "has_played": true,
        "id": 48704578,
        "last_rank": 79431,
        "player_name": "Vi Tuong Thai",
        "rank": 57227,
        "rank_sort": 57512,
        "total": 2347
      },
      {
        "club_badge_src": null,
        "entry": 6161878,
        "entry_name": "Ficka",
        "event_total": 50,
        "has_played": true,
        "id": 48715151,
        "last_rank": 46839,
        "player_name": "Filip Jovanovski",
        "rank": 57227,
        "rank_sort": 57513,
        "total": 2347
      },
      {
        "club_badge_src": null,
        "entry": 6205031,
        "entry_name": "FC Nico",
        "event_total": 68,
        "has_played": true,
        "id": 49088756,
        "last_rank": 79190,
        "player_name": "Nico Squirrel",
        "rank": 57227,
        "rank_sort": 57514,
        "total": 2347
      },
      {
        "club_badge_src": null,
        "entry": 6403921,
        "entry_name": "Zikas FC",
        "event_total": 51,
        "has_played": true,
        "id": 50954191,
        "last_rank": 48363,
        "player_name": "Ahmed Diab",
        "rank": 57227,
        "rank_sort": 57515,
        "total": 2347
      },
      {
        "club_badge_src": null,
        "entry": 6492867,
        "entry_name": "Squad",
        "event_total": 45,
        "has_played": true,
        "id": 51758814,
        "last_rank": 40036,
        "player_name": "Joel Allen",
        "rank": 57227,
        "rank_sort": 57516,
        "total": 2347
      },
      {
        "club_badge_src": null,
        "entry": 6573380,
        "entry_name": "Mateta is itching",
        "event_total": 55,
        "has_played": true,
        "id": 52478563,
        "last_rank": 54667,
        "player_name": "Kam Sond",
        "rank": 57227,
        "rank_sort": 57517,
        "total": 2347
      },
      {
        "club_badge_src": "https://fantasy.premierleague.com/gcs/plfpl-production-adobe-approved/plfpl-production/6615897/5123b974-13b3-4820-89e3-b62282f19cce.png",
        "entry": 6615897,
        "entry_name": "Tees Ironworks",
        "event_total": 58,
        "has_played": true,
        "id": 52864340,
        "last_rank": 59813,
        "player_name": "Ben Thompson",
        "rank": 57227,
        "rank_sort": 57518,
        "total": 2347
      },
      {
        "club_badge_src": null,
        "entry": 6723563,
        "entry_name": "Sanna United",
        "event_total": 63,
        "has_played": true,
        "id": 53811916,
        "last_rank": 68748,
        "player_name": "Sanna Alladin",
        "rank": 57227,
        "rank_sort": 57519,
        "total": 2347
      },
      {
        "club_badge_src": null,
        "entry": 6728697,
        "entry_name": "neva lost",
        "event_total": 61,
        "has_played": true,
        "id": 53855895,
        "last_rank": 64943,
        "player_name": "Sir Abdi",
        "rank": 57227,
        "rank_sort": 57520,
        "total": 2347
      },
      {
        "club_badge_src": null,
        "entry": 6822333,
        "entry_name": "The dragon",
        "event_total": 57,
        "has_played": true,
        "id": 54644011,
        "last_rank": 58388,
        "player_name": "Omar Helmy",
        "rank": 57227,
        "rank_sort": 57521,
        "total": 2347
      },
      {
        "club_badge_src": null,
        "entry": 6827143,
        "entry_name": "Gillingham Reserves",
        "event_total": 68,
        "has_played": true,
        "id": 54684211,
        "last_rank": 79079,
        "player_name": "Steve Morgan",
        "rank": 57227,
        "rank_sort": 57522,
        "total": 2347
      },
      {
        "club_badge_src": null,
        "entry": 6831125,
        "entry_name": "Proper Technicians",
        "event_total": 52,
        "has_played": true,
        "id": 54717772,
        "last_rank": 49691,
        "player_name": "Adam Donnellan",
        "rank": 57227,
        "rank_sort": 57523,
        "total": 2347
      },
      {
        "club_badge_src": "https://fantasy.premierleague.com/gcs/plfpl-production-adobe-approved/plfpl-production/6926086/86c082db-6eb1-42c4-a9e7-b14b62de54ef.png",
        "entry": 6926086,
        "entry_name": "Cr\u00e8me de la cr\u00e8me",
        "event_total": 43,
        "has_played": true,
        "id": 55522337,
        "last_rank": 37589,
        "player_name": "Kgosi Mutle",
        "rank": 57227,
        "rank_sort": 57524,
        "total": 2347
      },
      {
        "club_badge_src": null,
        "entry": 7044348,
        "entry_name": "Jim Jim Jim",
        "event_total": 58,
        "has_played": true,
        "id": 56640738,
        "last_rank": 60168,
        "player_name": "Jimmy Lennon",
        "rank": 57227,
        "rank_sort": 57525,
        "total": 2347
      },
      {
        "club_badge_src": null,
        "entry": 7049095,
        "entry_name": "Anshus out!",
        "event_total": 56,
        "has_played": true,
        "id": 56689273,
        "last_rank": 56369,
        "player_name": "Eirik Bakke",
        "rank": 57227,
        "rank_sort": 57526,
        "total": 2347
      },
      {
        "club_badge_src": null,
        "entry": 7071102,
        "entry_name": "Ballon d'Orgu",
        "event_total": 57,
        "has_played": true,
        "id": 56899535,
        "last_rank": 58388,
        "player_name": "Caleb Long",
        "rank": 57227,
        "rank_sort": 57527,
        "total": 2347
      },
      {
        "club_badge_src": null,
        "entry": 7094739,
        "entry_name": "Dubai Dukes",
        "event_total": 56,
        "has_played": true,
        "id": 57126085,
        "last_rank": 56369,
        "player_name": "Olav Vatna Selv\u00e5g",
        "rank": 57227,
        "rank_sort": 57528,
        "total": 2347
      },
      {
        "club_badge_src": "https://fantasy.premierleague.com/gcs/plfpl-production-adobe-approved/plfpl-production/7216415/3f45fcd5-ec75-46a2-b1c3-72a3687c26f1.png",
        "entry": 7216415,
        "entry_name": "Amorim Jiggy",
        "event_total": 57,
        "has_played": true,
        "id": 58288844,
        "last_rank": 58071,
        "player_name": "okeke martins",
        "rank": 57227,
        "rank_sort": 57529,
        "total": 2347
      },
      {
        "club_badge_src": null,
        "entry": 7233553,
        "entry_name": "To B\u0119dzie TEN Sezon",
        "event_total": 63,
        "has_played": true,
        "id": 58448075,
        "last_rank": 68748,
        "player_name": "Miko\u0142aj Kowalski",
        "rank": 57227,
        "rank_sort": 57530,
        "total": 2347
      },
      {
        "club_badge_src": null,
        "entry": 7274209,
        "entry_name": "I am a chosen",
        "event_total": 55,
        "has_played": true,
        "id": 58832658,
        "last_rank": 54494,
        "player_name": "Abdul-rasaq Olaniyan",
        "rank": 57227,
        "rank_sort": 57531,
        "total": 2347
      },
      {
        "club_badge_src": null,
        "entry": 7338755,
        "entry_name": "Snoop Dorgu",
        "event_total": 62,
        "has_played": true,
        "id": 59440200,
        "last_rank": 66738,
        "player_name": "Husain Motala",
        "rank": 57227,
        "rank_sort": 57532,
        "total": 2347
      },
      {
        "club_badge_src": null,
        "entry": 7394213,
        "entry_name": "VIP",
        "event_total": 51,
        "has_played": true,
        "id": 59959753,
        "last_rank": 48642,
        "player_name": "Alex Onegin",
        "rank": 57227,
        "rank_sort": 57533,
        "total": 2347
      },
      {
        "club_badge_src": null,
        "entry": 7415717,
        "entry_name": "Jeremy Pingpong",
        "event_total": 71,
        "has_played": true,
        "id": 60192609,
        "last_rank": 86304,
        "player_name": "nino ibrahimi",
        "rank": 57227,
        "rank_sort": 57534,
        "total": 2347
      },
      {
        "club_badge_src": null,
        "entry": 7459203,
        "entry_name": "FC Dreamers",
        "event_total": 52,
        "has_played": true,
        "id": 60755456,
        "last_rank": 49880,
        "player_name": "Mr Serious Guy",
        "rank": 57227,
        "rank_sort": 57535,
        "total": 2347
      },
      {
        "club_badge_src": null,
        "entry": 7479549,
        "entry_name": "Beeson XI",
        "event_total": 63,
        "has_played": true,
        "id": 61016894,
        "last_rank": 68957,
        "player_name": "Kate Beeson",
        "rank": 57227,
        "rank_sort": 57536,
        "total": 2347
      },
      {
        "club_badge_src": null,
        "entry": 7481594,
        "entry_name": "sakkake",
        "event_total": 53,
        "has_played": true,
        "id": 61043899,
        "last_rank": 51137,
        "player_name": "Mark\u00e9ta Fryaufov\u00e1",
        "rank": 57227,
        "rank_sort": 57537,
        "total": 2347
      },
      {
        "club_badge_src": null,
        "entry": 7550843,
        "entry_name": "Jacks boys",
        "event_total": 46,
        "has_played": true,
        "id": 61819755,
        "last_rank": 41617,
        "player_name": "Jack Karadogan",
        "rank": 57227,
        "rank_sort": 57538,
        "total": 2347
      },
      {
        "club_badge_src": null,
        "entry": 7591255,
        "entry_name": "Marching on together",
        "event_total": 56,
        "has_played": true,
        "id": 62186127,
        "last_rank": 56369,
        "player_name": "Neil Rabbitte",
        "rank": 57227,
        "rank_sort": 57539,
        "total": 2347
      },
      {
        "club_badge_src": null,
        "entry": 7785793,
        "entry_name": "A-side",
        "event_total": 73,
        "has_played": true,
        "id": 63945755,
        "last_rank": 91466,
        "player_name": "Mohammed Murad",
        "rank": 57227,
        "rank_sort": 57540,
        "total": 2347
      },
      {
        "club_badge_src": "https://fantasy.premierleague.com/gcs/plfpl-production-adobe-approved/plfpl-production/7849831/5ec8912c-d73e-48b8-bc01-a8411b60234a.png",
        "entry": 7849831,
        "entry_name": "Goooooaaaaa",
        "event_total": 39,
        "has_played": true,
        "id": 64530840,
        "last_rank": 33147,
        "player_name": "Jon A",
        "rank": 57227,
        "rank_sort": 57541,
        "total": 2347
      },
      {
        "club_badge_src": null,
        "entry": 7924260,
        "entry_name": "Ali",
        "event_total": 36,
        "has_played": true,
        "id": 65206475,
        "last_rank": 29904,
        "player_name": "Ali Ghanim",
        "rank": 57227,
        "rank_sort": 57542,
        "total": 2347
      },
      {
        "club_badge_src": "https://fantasy.premierleague.com/gcs/plfpl-production-adobe-approved/plfpl-production/7954212/aa8903e8-c1d0-446f-9d54-2191e81a7227.png",
        "entry": 7954212,
        "entry_name": "SALGOODMAN",
        "event_total": 78,
        "has_played": true,
        "id": 65477710,
        "last_rank": 103526,
        "player_name": "Faisal Ibrahim",
        "rank": 57227,
        "rank_sort": 57543,
        "total": 2347
      },
      {
        "club_badge_src": null,
        "entry": 7963654,
        "entry_name": "James' Team",
        "event_total": 60,
        "has_played": true,
        "id": 65562753,
        "last_rank": 63724,
        "player_name": "Ciaran Lyons",
        "rank": 57227,
        "rank_sort": 57544,
        "total": 2347
      },
      {
        "club_badge_src": null,
        "entry": 8024093,
        "entry_name": "EGC11",
        "event_total": 55,
        "has_played": true,
        "id": 66101893,
        "last_rank": 54667,
        "player_name": "Steven Cabral",
        "rank": 57227,
        "rank_sort": 57545,
        "total": 2347
      },
      {
        "club_badge_src": null,
        "entry": 8147125,
        "entry_name": "RC11",
        "event_total": 54,
        "has_played": true,
        "id": 67242085,
        "last_rank": 53023,
        "player_name": "Robert Coleman",
        "rank": 57227,
        "rank_sort": 57546,
        "total": 2347
      },
      {
        "club_badge_src": null,
        "entry": 8194660,
        "entry_name": "The Reds FC",
        "event_total": 62,
        "has_played": true,
        "id": 67689763,
        "last_rank": 67063,
        "player_name": "Hodari Williams",
        "rank": 57227,
        "rank_sort": 57547,
        "total": 2347
      },
      {
        "club_badge_src": null,
        "entry": 8196066,
        "entry_name": "Hasta el Final",
        "event_total": 67,
        "has_played": true,
        "id": 67703413,
        "last_rank": 77258,
        "player_name": "Mahmood Taha",
        "rank": 57227,
        "rank_sort": 57548,
        "total": 2347
      },
      {
        "club_badge_src": null,
        "entry": 8235127,
        "entry_name": "Romero & Juliet",
        "event_total": 67,
        "has_played": true,
        "id": 68076904,
        "last_rank": 77258,
        "player_name": "Bea Greenhalgh",
        "rank": 57227,
        "rank_sort": 57549,
        "total": 2347
      },
      {
        "club_badge_src": null,
        "entry": 8299911,
        "entry_name": "teta's",
        "event_total": 47,
        "has_played": true,
        "id": 68709238,
        "last_rank": 42648,
        "player_name": "Vishnu Vinay",
        "rank": 57227,
        "rank_sort": 57550,
        "total": 2347
      }
    ]
  }
}