{
  "last_updated_data": "2026-05-24T23:28:17Z",
  "league": {
    "admin_entry": null,
    "closed": false,
    "code_privacy": "p",
    "created": "2025-07-20T23:14:33.933835Z",
    "cup_league": 2815434,
    "has_cup": true,
    "id": 314,
    "league_type": "s",
    "max_entries": null,
    "name": "Overall",
    "rank": null,
    "scoring": "c",
    "start_event": 1
  },
  "new_entries": {
    "has_next": false,
    "page": 1,
    "results": []
  },
  "standings": {
    "has_next": true,
    "page": 95,
    "results": [
      {
        "club_badge_src": null,
        "entry": 6116707,
        "entry_name": "Liquid Football",
        "event_total": 68,
        "has_played": true,
        "id": 48321189,
        "last_rank": 7014,
        "player_name": "Mike O\u2019Sullivan",
        "rank": 4658,
        "rank_sort": 4701,
        "total": 2416
      },
      {
        "club_badge_src": null,
        "entry": 6271828,
        "entry_name": "Sneaky Deep Puddles",
        "event_total": 62,
        "has_played": true,
        "id": 49663994,
        "last_rank": 5448,
        "player_name": "Kevin Real",
        "rank": 4658,
        "rank_sort": 4702,
        "total": 2416
      },
      {
        "club_badge_src": null,
        "entry": 6438196,
        "entry_name": "Rubber Digne Rapids",
        "event_total": 63,
        "has_played": true,
        "id": 51257920,
        "last_rank": 5646,
        "player_name": "Sam Tresadern",
        "rank": 4658,
        "rank_sort": 4703,
        "total": 2416
      },
      {
        "club_badge_src": "https://fantasy.premierleague.com/gcs/plfpl-production-adobe-approved/plfpl-production/6517608/9882d396-3e0b-4f50-ad8a-41566d26b758.png",
        "entry": 6517608,
        "entry_name": "BARHAM",
        "event_total": 70,
        "has_played": true,
        "id": 51978976,
        "last_rank": 7604,
        "player_name": "barham aso",
        "rank": 4658,
        "rank_sort": 4704,
        "total": 2416
      },
      {
        "club_badge_src": null,
        "entry": 6674644,
        "entry_name": "MountEverest of Hope",
        "event_total": 42,
        "has_played": true,
        "id": 53386167,
        "last_rank": 2112,
        "player_name": "Gaurav Sahni",
        "rank": 4658,
        "rank_sort": 4705,
        "total": 2416
      },
      {
        "club_badge_src": null,
        "entry": 7629045,
        "entry_name": "PPJ / Eira",
        "event_total": 75,
        "has_played": true,
        "id": 62527202,
        "last_rank": 9484,
        "player_name": "Aleksi Koskinen",
        "rank": 4658,
        "rank_sort": 4706,
        "total": 2416
      },
      {
        "club_badge_src": null,
        "entry": 7801464,
        "entry_name": "Hoviso FC",
        "event_total": 61,
        "has_played": true,
        "id": 64086425,
        "last_rank": 5173,
        "player_name": "Vegard Hovdal",
        "rank": 4658,
        "rank_sort": 4707,
        "total": 2416
      },
      {
        "club_badge_src": null,
        "entry": 7981532,
        "entry_name": "fantasy25",
        "event_total": 42,
        "has_played": true,
        "id": 65721052,
        "last_rank": 2088,
        "player_name": "Fantasy Fpl",
        "rank": 4658,
        "rank_sort": 4708,
        "total": 2416
      },
      {
        "club_badge_src": null,
        "entry": 8660865,
        "entry_name": "ihaven'tgotaKALOU",
        "event_total": 67,
        "has_played": true,
        "id": 72197752,
        "last_rank": 6752,
        "player_name": "Samuel Fernandes",
        "rank": 4658,
        "rank_sort": 4709,
        "total": 2416
      },
      {
        "club_badge_src": null,
        "entry": 8700767,
        "entry_name": "ThomasTheFrankEngine",
        "event_total": 68,
        "has_played": true,
        "id": 72586577,
        "last_rank": 7059,
        "player_name": "George Church",
        "rank": 4658,
        "rank_sort": 4710,
        "total": 2416
      },
      {
        "club_badge_src": null,
        "entry": 9118136,
        "entry_name": "Rotation FC",
        "event_total": 63,
        "has_played": true,
        "id": 76628820,
        "last_rank": 5688,
        "player_name": "Conor Duff",
        "rank": 4658,
        "rank_sort": 4711,
        "total": 2416
      },
      {
        "club_badge_src": null,
        "entry": 9459840,
        "entry_name": "Bondegatan BoIS",
        "event_total": 62,
        "has_played": true,
        "id": 79939321,
        "last_rank": 5400,
        "player_name": "Elton Eiranson",
        "rank": 4658,
        "rank_sort": 4712,
        "total": 2416
      },
      {
        "club_badge_src": null,
        "entry": 2052,
        "entry_name": "Local Rhein Lover",
        "event_total": 58,
        "has_played": true,
        "id": 11448,
        "last_rank": 4488,
        "player_name": "Ryan Healey",
        "rank": 4713,
        "rank_sort": 4713,
        "total": 2416
      },
      {
        "club_badge_src": null,
        "entry": 3724,
        "entry_name": "The Scottyboys",
        "event_total": 64,
        "has_played": true,
        "id": 21104,
        "last_rank": 4954,
        "player_name": "Thomas Lie",
        "rank": 4713,
        "rank_sort": 4714,
        "total": 2416
      },
      {
        "club_badge_src": "https://fantasy.premierleague.com/gcs/plfpl-production-adobe-approved/plfpl-production/19718/2532adb2-ff20-42f3-9aec-96a13cc851c0.png",
        "entry": 19718,
        "entry_name": "BRIGHTON CHERKI",
        "event_total": 49,
        "has_played": true,
        "id": 122707,
        "last_rank": 2418,
        "player_name": "Martin Early",
        "rank": 4713,
        "rank_sort": 4715,
        "total": 2416
      },
      {
        "club_badge_src": null,
        "entry": 20494,
        "entry_name": "Sweet Child O'Nien",
        "event_total": 49,
        "has_played": true,
        "id": 127920,
        "last_rank": 3007,
        "player_name": "Joe Mitchell",
        "rank": 4713,
        "rank_sort": 4716,
        "total": 2416
      },
      {
        "club_badge_src": null,
        "entry": 24845,
        "entry_name": "ConferenceLeague Utd",
        "event_total": 65,
        "has_played": true,
        "id": 156927,
        "last_rank": 6194,
        "player_name": "Jordan Grace",
        "rank": 4713,
        "rank_sort": 4717,
        "total": 2416
      },
      {
        "club_badge_src": null,
        "entry": 24881,
        "entry_name": "Egyptian Sunshine",
        "event_total": 53,
        "has_played": true,
        "id": 157192,
        "last_rank": 3601,
        "player_name": "Ahmed Shams",
        "rank": 4713,
        "rank_sort": 4718,
        "total": 2416
      },
      {
        "club_badge_src": null,
        "entry": 31272,
        "entry_name": "Ice COLD",
        "event_total": 56,
        "has_played": true,
        "id": 198139,
        "last_rank": 3408,
        "player_name": "Adeeb T",
        "rank": 4713,
        "rank_sort": 4719,
        "total": 2416
      },
      {
        "club_badge_src": "https://fantasy.premierleague.com/gcs/plfpl-production-adobe-approved/plfpl-production/36122/ef7f761c-089b-4cd0-9a47-c3bf1e432c23.png",
        "entry": 36122,
        "entry_name": "SP Arsenal",
        "event_total": 71,
        "has_played": true,
        "id": 231173,
        "last_rank": 8032,
        "player_name": "Diogo Pereira da Silva",
        "rank": 4713,
        "rank_sort": 4720,
        "total": 2416
      },
      {
        "club_badge_src": null,
        "entry": 41610,
        "entry_name": "Reading Dong FC",
        "event_total": 47,
        "has_played": true,
        "id": 266610,
        "last_rank": 2731,
        "player_name": "Matt Frith",
        "rank": 4713,
        "rank_sort": 4721,
        "total": 2416
      },
      {
        "club_badge_src": null,
        "entry": 60699,
        "entry_name": "It cant get Wirtz",
        "event_total": 65,
        "has_played": true,
        "id": 390820,
        "last_rank": 6194,
        "player_name": "Josh Baverstock",
        "rank": 4713,
        "rank_sort": 4722,
        "total": 2416
      },
      {
        "club_badge_src": null,
        "entry": 68019,
        "entry_name": "Inga sura miner",
        "event_total": 52,
        "has_played": true,
        "id": 440597,
        "last_rank": 2824,
        "player_name": "Simon TB",
        "rank": 4713,
        "rank_sort": 4723,
        "total": 2416
      },
      {
        "club_badge_src": "https://fantasy.premierleague.com/gcs/plfpl-production-adobe-approved/plfpl-production/69269/cda8d935-6c20-4ba6-b442-78d1cf4fb470.png",
        "entry": 69269,
        "entry_name": "The Boot",
        "event_total": 74,
        "has_played": true,
        "id": 449183,
        "last_rank": 9311,
        "player_name": "Peter Jennings",
        "rank": 4713,
        "rank_sort": 4724,
        "total": 2416
      },
      {
        "club_badge_src": "https://fantasy.premierleague.com/gcs/plfpl-production-adobe-approved/plfpl-production/104944/cfbe1405-ef7d-4152-82bc-0a3b71969e91.png",
        "entry": 104944,
        "entry_name": "Hammer Attack",
        "event_total": 66,
        "has_played": true,
        "id": 684511,
        "last_rank": 6528,
        "player_name": "John Shereikis",
        "rank": 4713,
        "rank_sort": 4725,
        "total": 2416
      },
      {
        "club_badge_src": null,
        "entry": 106332,
        "entry_name": "Farmero FC",
        "event_total": 64,
        "has_played": true,
        "id": 693374,
        "last_rank": 5940,
        "player_name": "Jack Farmer",
        "rank": 4713,
        "rank_sort": 4726,
        "total": 2416
      },
      {
        "club_badge_src": null,
        "entry": 134345,
        "entry_name": "Kipex FC",
        "event_total": 65,
        "has_played": true,
        "id": 874961,
        "last_rank": 6265,
        "player_name": "Kimmo Koskelainen",
        "rank": 4713,
        "rank_sort": 4727,
        "total": 2416
      },
      {
        "club_badge_src": "https://fantasy.premierleague.com/gcs/plfpl-production-adobe-approved/plfpl-production/143226/db7c6ad6-0dfc-4fd7-9a10-73f5936d6ce9.png",
        "entry": 143226,
        "entry_name": "THL United",
        "event_total": 58,
        "has_played": true,
        "id": 936996,
        "last_rank": 4570,
        "player_name": "Linh Tran",
        "rank": 4713,
        "rank_sort": 4728,
        "total": 2416
      },
      {
        "club_badge_src": null,
        "entry": 279537,
        "entry_name": "Tefta!",
        "event_total": 66,
        "has_played": true,
        "id": 1860412,
        "last_rank": 6528,
        "player_name": "\u0631\u064a\u0627\u0644 \u0645\u062f\u0631\u064a\u062f      \ud83e\uddb9\ud83c\udffb",
        "rank": 4713,
        "rank_sort": 4729,
        "total": 2416
      },
      {
        "club_badge_src": null,
        "entry": 349841,
        "entry_name": "JxbbXE",
        "event_total": 63,
        "has_played": true,
        "id": 2341498,
        "last_rank": 5646,
        "player_name": "seubyos sinbour",
        "rank": 4713,
        "rank_sort": 4730,
        "total": 2416
      },
      {
        "club_badge_src": null,
        "entry": 587025,
        "entry_name": "TSR Allstars",
        "event_total": 59,
        "has_played": true,
        "id": 3951113,
        "last_rank": 4704,
        "player_name": "Lliam Brocksom",
        "rank": 4713,
        "rank_sort": 4731,
        "total": 2416
      },
      {
        "club_badge_src": null,
        "entry": 738351,
        "entry_name": "Epping Andor",
        "event_total": 61,
        "has_played": true,
        "id": 5019851,
        "last_rank": 4303,
        "player_name": "1984 Orwell",
        "rank": 4713,
        "rank_sort": 4732,
        "total": 2416
      },
      {
        "club_badge_src": null,
        "entry": 739663,
        "entry_name": "artilleriet",
        "event_total": 59,
        "has_played": true,
        "id": 5029103,
        "last_rank": 4804,
        "player_name": "Leon Svan\u00f6e",
        "rank": 4713,
        "rank_sort": 4733,
        "total": 2416
      },
      {
        "club_badge_src": null,
        "entry": 1030090,
        "entry_name": "Frimping pong",
        "event_total": 55,
        "has_played": true,
        "id": 7127009,
        "last_rank": 3951,
        "player_name": "Kristoffer Kl\u00f8vsg\u00e5rd",
        "rank": 4713,
        "rank_sort": 4734,
        "total": 2416
      },
      {
        "club_badge_src": null,
        "entry": 1039879,
        "entry_name": "The Cream!",
        "event_total": 59,
        "has_played": true,
        "id": 7196344,
        "last_rank": 4804,
        "player_name": "Dave Billington",
        "rank": 4713,
        "rank_sort": 4735,
        "total": 2416
      },
      {
        "club_badge_src": null,
        "entry": 1077983,
        "entry_name": "Wirtz things first",
        "event_total": 40,
        "has_played": true,
        "id": 7463957,
        "last_rank": 1909,
        "player_name": "Alex Pearson",
        "rank": 4713,
        "rank_sort": 4736,
        "total": 2416
      },
      {
        "club_badge_src": "https://fantasy.premierleague.com/gcs/plfpl-production-adobe-approved/plfpl-production/1111781/7056397a-954e-4028-859c-9bece4d3d018.png",
        "entry": 1111781,
        "entry_name": "FSG\u80a1\u6771",
        "event_total": 57,
        "has_played": true,
        "id": 7701172,
        "last_rank": 4303,
        "player_name": "Will Tse",
        "rank": 4713,
        "rank_sort": 4737,
        "total": 2416
      },
      {
        "club_badge_src": "https://fantasy.premierleague.com/gcs/plfpl-production-adobe-approved/plfpl-production/1271401/c4bc17e2-a55c-4d46-800e-7d4826756a29.png",
        "entry": 1271401,
        "entry_name": "Bouz United",
        "event_total": 43,
        "has_played": true,
        "id": 8834099,
        "last_rank": 1773,
        "player_name": "Christos Bouzoulas",
        "rank": 4713,
        "rank_sort": 4738,
        "total": 2416
      },
      {
        "club_badge_src": null,
        "entry": 1289211,
        "entry_name": "Lacroix Me A River",
        "event_total": 65,
        "has_played": true,
        "id": 8958476,
        "last_rank": 5173,
        "player_name": "Ben Pauley",
        "rank": 4713,
        "rank_sort": 4739,
        "total": 2416
      },
      {
        "club_badge_src": null,
        "entry": 1562136,
        "entry_name": "Dqjtav",
        "event_total": 77,
        "has_played": true,
        "id": 10911538,
        "last_rank": 10346,
        "player_name": "Sghbjv Druhg",
        "rank": 4713,
        "rank_sort": 4740,
        "total": 2416
      },
      {
        "club_badge_src": "https://fantasy.premierleague.com/gcs/plfpl-production-adobe-approved/plfpl-production/1634680/da53bf5a-c1e1-443b-9e7a-0475f17ca83b.png",
        "entry": 1634680,
        "entry_name": "FC TRICHEA",
        "event_total": 59,
        "has_played": true,
        "id": 11442003,
        "last_rank": 4804,
        "player_name": "Stefan Balcanu",
        "rank": 4713,
        "rank_sort": 4741,
        "total": 2416
      },
      {
        "club_badge_src": null,
        "entry": 1871295,
        "entry_name": "WGA XI",
        "event_total": 64,
        "has_played": true,
        "id": 13173926,
        "last_rank": 6011,
        "player_name": "Jeremy Morgan Naidoo",
        "rank": 4713,
        "rank_sort": 4742,
        "total": 2416
      },
      {
        "club_badge_src": null,
        "entry": 1987196,
        "entry_name": "Obi Wan Kobacki",
        "event_total": 73,
        "has_played": true,
        "id": 14037714,
        "last_rank": 8758,
        "player_name": "Andrew Hawley",
        "rank": 4713,
        "rank_sort": 4743,
        "total": 2416
      },
      {
        "club_badge_src": null,
        "entry": 2379411,
        "entry_name": "Bottletreeorto SC",
        "event_total": 58,
        "has_played": true,
        "id": 16989871,
        "last_rank": 4515,
        "player_name": "Gordon Tan",
        "rank": 4713,
        "rank_sort": 4744,
        "total": 2416
      },
      {
        "club_badge_src": null,
        "entry": 2687496,
        "entry_name": "Tony i Rederiet",
        "event_total": 69,
        "has_played": true,
        "id": 19329802,
        "last_rank": 7375,
        "player_name": "Martin Sundberg",
        "rank": 4713,
        "rank_sort": 4745,
        "total": 2416
      },
      {
        "club_badge_src": "https://fantasy.premierleague.com/gcs/plfpl-production-adobe-approved/plfpl-production/2965108/c9573940-c762-4b5e-b238-98e8c4adec99.png",
        "entry": 2965108,
        "entry_name": "Wirtz Nightmare",
        "event_total": 58,
        "has_played": true,
        "id": 21782892,
        "last_rank": 4570,
        "player_name": "Mark Sparrow",
        "rank": 4713,
        "rank_sort": 4746,
        "total": 2416
      },
      {
        "club_badge_src": null,
        "entry": 2996883,
        "entry_name": "Gy\u00f6kboet",
        "event_total": 46,
        "has_played": true,
        "id": 22042209,
        "last_rank": 2553,
        "player_name": "Erik Karlsson",
        "rank": 4713,
        "rank_sort": 4747,
        "total": 2416
      },
      {
        "club_badge_src": null,
        "entry": 3114485,
        "entry_name": "The A Team",
        "event_total": 67,
        "has_played": true,
        "id": 22983068,
        "last_rank": 6703,
        "player_name": "Ni Ck",
        "rank": 4713,
        "rank_sort": 4748,
        "total": 2416
      },
      {
        "club_badge_src": null,
        "entry": 3374226,
        "entry_name": "Life on Mahrez",
        "event_total": 64,
        "has_played": true,
        "id": 25044053,
        "last_rank": 5940,
        "player_name": "Peter McGowan",
        "rank": 4713,
        "rank_sort": 4749,
        "total": 2416
      },
      {
        "club_badge_src": null,
        "entry": 3434660,
        "entry_name": "Kung Fu Panda",
        "event_total": 60,
        "has_played": true,
        "id": 25515736,
        "last_rank": 4062,
        "player_name": "Cam Barras",
        "rank": 4713,
        "rank_sort": 4750,
        "total": 2416
      }
    ]
  }
}