{
  "last_updated_data": "2026-05-24T23:28:17Z",
  "league": {
    "admin_entry": null,
    "closed": false,
    "code_privacy": "p",
    "created": "2025-07-20T23:14:33.933835Z",
    "cup_league": 2815434,
    "has_cup": true,
    "id": 314,
    "league_type": "s",
    "max_entries": null,
    "name": "Overall",
    "rank": null,
    "scoring": "c",
    "start_event": 1
  },
  "new_entries": {
    "has_next": false,
    "page": 1,
    "results": []
  },
  "standings": {
    "has_next": true,
    "page": 953,
    "results": [
      {
        "club_badge_src": null,
        "entry": 971476,
        "entry_name": "Hot Slots Part Deux",
        "event_total": 58,
        "has_played": true,
        "id": 6696698,
        "last_rank": 43637,
        "player_name": "Con Twomey",
        "rank": 47597,
        "rank_sort": 47601,
        "total": 2354
      },
      {
        "club_badge_src": null,
        "entry": 1056440,
        "entry_name": "AL AHLY SC",
        "event_total": 45,
        "has_played": true,
        "id": 7311124,
        "last_rank": 32576,
        "player_name": "Walid Mohammed",
        "rank": 47597,
        "rank_sort": 47602,
        "total": 2354
      },
      {
        "club_badge_src": "https://fantasy.premierleague.com/gcs/plfpl-production-adobe-approved/plfpl-production/1321205/45457541-95b2-44e2-ab42-b7ea155198cc.png",
        "entry": 1321205,
        "entry_name": "11 Angry Men",
        "event_total": 70,
        "has_played": true,
        "id": 9183272,
        "last_rank": 70446,
        "player_name": "Fares saad",
        "rank": 47597,
        "rank_sort": 47603,
        "total": 2354
      },
      {
        "club_badge_src": null,
        "entry": 1424405,
        "entry_name": "MacAttack",
        "event_total": 63,
        "has_played": true,
        "id": 9923333,
        "last_rank": 50984,
        "player_name": "Dale Mackay",
        "rank": 47597,
        "rank_sort": 47604,
        "total": 2354
      },
      {
        "club_badge_src": null,
        "entry": 1518159,
        "entry_name": "Ali Allstars",
        "event_total": 40,
        "has_played": true,
        "id": 10588751,
        "last_rank": 27499,
        "player_name": "Ali Hussein",
        "rank": 47597,
        "rank_sort": 47605,
        "total": 2354
      },
      {
        "club_badge_src": "https://fantasy.premierleague.com/gcs/plfpl-production-adobe-approved/plfpl-production/2048366/f22cd6ed-7e12-4ecf-a168-d42faabc619d.png",
        "entry": 2048366,
        "entry_name": "Notts Co USA",
        "event_total": 55,
        "has_played": true,
        "id": 14507799,
        "last_rank": 34825,
        "player_name": "Brendan Keenan",
        "rank": 47597,
        "rank_sort": 47606,
        "total": 2354
      },
      {
        "club_badge_src": "https://fantasy.premierleague.com/gcs/plfpl-production-adobe-approved/plfpl-production/3166314/349d1c05-80d0-46fc-a55d-74ff41e8c10f.png",
        "entry": 3166314,
        "entry_name": "Sosigs",
        "event_total": 69,
        "has_played": true,
        "id": 23392125,
        "last_rank": 61087,
        "player_name": "Fred Parker",
        "rank": 47597,
        "rank_sort": 47607,
        "total": 2354
      },
      {
        "club_badge_src": null,
        "entry": 3309596,
        "entry_name": "Palmer Party",
        "event_total": 52,
        "has_played": true,
        "id": 24519447,
        "last_rank": 40976,
        "player_name": "Marius Suffeleers",
        "rank": 47597,
        "rank_sort": 47608,
        "total": 2354
      },
      {
        "club_badge_src": null,
        "entry": 3680281,
        "entry_name": "Emaan XI",
        "event_total": 80,
        "has_played": true,
        "id": 27450207,
        "last_rank": 92820,
        "player_name": "Emaan Bhatti",
        "rank": 47597,
        "rank_sort": 47609,
        "total": 2354
      },
      {
        "club_badge_src": null,
        "entry": 3744311,
        "entry_name": "Sesko-Evralitlehelps",
        "event_total": 64,
        "has_played": true,
        "id": 27951487,
        "last_rank": 59370,
        "player_name": "Scott Gearey",
        "rank": 47597,
        "rank_sort": 47610,
        "total": 2354
      },
      {
        "club_badge_src": null,
        "entry": 3929130,
        "entry_name": "Sydes Syde",
        "event_total": 57,
        "has_played": true,
        "id": 29549937,
        "last_rank": 42293,
        "player_name": "George Sydes",
        "rank": 47597,
        "rank_sort": 47611,
        "total": 2354
      },
      {
        "club_badge_src": "https://fantasy.premierleague.com/gcs/plfpl-production-adobe-approved/plfpl-production/4666378/f3f24786-dc40-45ba-9379-f9ba92ac9735.png",
        "entry": 4666378,
        "entry_name": "Restored",
        "event_total": 74,
        "has_played": true,
        "id": 35741543,
        "last_rank": 78830,
        "player_name": "Scott Murray",
        "rank": 47597,
        "rank_sort": 47612,
        "total": 2354
      },
      {
        "club_badge_src": null,
        "entry": 6024497,
        "entry_name": "Blaugrana FC",
        "event_total": 79,
        "has_played": true,
        "id": 47517200,
        "last_rank": 72407,
        "player_name": "Graham Phiri",
        "rank": 47597,
        "rank_sort": 47613,
        "total": 2354
      },
      {
        "club_badge_src": null,
        "entry": 6862519,
        "entry_name": "Saving Private Raya",
        "event_total": 74,
        "has_played": true,
        "id": 54986102,
        "last_rank": 70355,
        "player_name": "Lawrence Watson",
        "rank": 47597,
        "rank_sort": 47614,
        "total": 2354
      },
      {
        "club_badge_src": null,
        "entry": 7451366,
        "entry_name": "Zoom",
        "event_total": 42,
        "has_played": true,
        "id": 60652025,
        "last_rank": 25633,
        "player_name": "Ahmed Saleh",
        "rank": 47597,
        "rank_sort": 47615,
        "total": 2354
      },
      {
        "club_badge_src": null,
        "entry": 7582472,
        "entry_name": "Keeling FC",
        "event_total": 66,
        "has_played": true,
        "id": 62105681,
        "last_rank": 62939,
        "player_name": "Joshua Keeling",
        "rank": 47597,
        "rank_sort": 47616,
        "total": 2354
      },
      {
        "club_badge_src": null,
        "entry": 147062,
        "entry_name": "Back of the Neto",
        "event_total": 65,
        "has_played": true,
        "id": 963613,
        "last_rank": 54244,
        "player_name": "David de Carvalho",
        "rank": 47617,
        "rank_sort": 47617,
        "total": 2354
      },
      {
        "club_badge_src": null,
        "entry": 710619,
        "entry_name": "Never Again!",
        "event_total": 63,
        "has_played": true,
        "id": 4819274,
        "last_rank": 57636,
        "player_name": "Nick Price",
        "rank": 47617,
        "rank_sort": 47618,
        "total": 2354
      },
      {
        "club_badge_src": null,
        "entry": 763479,
        "entry_name": "Ak96",
        "event_total": 57,
        "has_played": true,
        "id": 5206853,
        "last_rank": 37236,
        "player_name": "Ahmed Tohami",
        "rank": 47617,
        "rank_sort": 47619,
        "total": 2354
      },
      {
        "club_badge_src": "https://fantasy.premierleague.com/gcs/plfpl-production-adobe-approved/plfpl-production/1820943/da2a6bdf-7621-4f02-845a-a7f5043c6796.png",
        "entry": 1820943,
        "entry_name": "ForOZZY!!!",
        "event_total": 68,
        "has_played": true,
        "id": 12806196,
        "last_rank": 66546,
        "player_name": "Tim Roddick",
        "rank": 47617,
        "rank_sort": 47620,
        "total": 2354
      },
      {
        "club_badge_src": null,
        "entry": 2262597,
        "entry_name": "Baby Reijnders",
        "event_total": 63,
        "has_played": true,
        "id": 16131769,
        "last_rank": 57636,
        "player_name": "greg clarke",
        "rank": 47617,
        "rank_sort": 47621,
        "total": 2354
      },
      {
        "club_badge_src": null,
        "entry": 2321622,
        "entry_name": "11 Mampakas",
        "event_total": 82,
        "has_played": true,
        "id": 16561955,
        "last_rank": 97814,
        "player_name": "Shireeram Shrestha",
        "rank": 47617,
        "rank_sort": 47622,
        "total": 2354
      },
      {
        "club_badge_src": null,
        "entry": 2497496,
        "entry_name": "Kinder Mbeumo",
        "event_total": 59,
        "has_played": true,
        "id": 17881186,
        "last_rank": 51035,
        "player_name": "Tristan Meano",
        "rank": 47617,
        "rank_sort": 47623,
        "total": 2354
      },
      {
        "club_badge_src": null,
        "entry": 2975198,
        "entry_name": "Mudryk did nothing w",
        "event_total": 58,
        "has_played": true,
        "id": 21862775,
        "last_rank": 49475,
        "player_name": "Jan Bielawski",
        "rank": 47617,
        "rank_sort": 47624,
        "total": 2354
      },
      {
        "club_badge_src": null,
        "entry": 3406530,
        "entry_name": "GoalScoringSuperstar",
        "event_total": 76,
        "has_played": true,
        "id": 25297229,
        "last_rank": 74561,
        "player_name": "Chris Parkes",
        "rank": 47617,
        "rank_sort": 47625,
        "total": 2354
      },
      {
        "club_badge_src": null,
        "entry": 3559504,
        "entry_name": "Bilal Ahmed",
        "event_total": 69,
        "has_played": true,
        "id": 26502118,
        "last_rank": 68460,
        "player_name": "Bilal Ahmed",
        "rank": 47617,
        "rank_sort": 47626,
        "total": 2354
      },
      {
        "club_badge_src": null,
        "entry": 4122554,
        "entry_name": "Specialists",
        "event_total": 63,
        "has_played": true,
        "id": 31146114,
        "last_rank": 57619,
        "player_name": "Jimmy Savjani",
        "rank": 47617,
        "rank_sort": 47627,
        "total": 2354
      },
      {
        "club_badge_src": null,
        "entry": 5251988,
        "entry_name": "JIMMYS XI",
        "event_total": 53,
        "has_played": true,
        "id": 40704336,
        "last_rank": 42327,
        "player_name": "James Williams",
        "rank": 47617,
        "rank_sort": 47628,
        "total": 2354
      },
      {
        "club_badge_src": null,
        "entry": 5517012,
        "entry_name": "Wake N Vape",
        "event_total": 60,
        "has_played": true,
        "id": 43015081,
        "last_rank": 52632,
        "player_name": "Jamal Smith",
        "rank": 47617,
        "rank_sort": 47629,
        "total": 2354
      },
      {
        "club_badge_src": null,
        "entry": 8031222,
        "entry_name": "Isak's Big BratWirtz",
        "event_total": 44,
        "has_played": true,
        "id": 66166655,
        "last_rank": 27499,
        "player_name": "Isaac Vickers",
        "rank": 47617,
        "rank_sort": 47630,
        "total": 2354
      },
      {
        "club_badge_src": null,
        "entry": 17850,
        "entry_name": "the comeback",
        "event_total": 63,
        "has_played": true,
        "id": 110834,
        "last_rank": 45034,
        "player_name": "Jonathan Somers",
        "rank": 47631,
        "rank_sort": 47631,
        "total": 2354
      },
      {
        "club_badge_src": null,
        "entry": 318482,
        "entry_name": "Lehtisaari United",
        "event_total": 64,
        "has_played": true,
        "id": 2134831,
        "last_rank": 52653,
        "player_name": "Frans \u00c5berg",
        "rank": 47631,
        "rank_sort": 47632,
        "total": 2354
      },
      {
        "club_badge_src": null,
        "entry": 500498,
        "entry_name": "Greenchester United",
        "event_total": 68,
        "has_played": true,
        "id": 3358907,
        "last_rank": 59335,
        "player_name": "Paul Green",
        "rank": 47631,
        "rank_sort": 47633,
        "total": 2354
      },
      {
        "club_badge_src": null,
        "entry": 1697652,
        "entry_name": "Dalot of Trouble",
        "event_total": 57,
        "has_played": true,
        "id": 11890690,
        "last_rank": 42327,
        "player_name": "wisam ali",
        "rank": 47631,
        "rank_sort": 47634,
        "total": 2354
      },
      {
        "club_badge_src": null,
        "entry": 2121921,
        "entry_name": "gyok tuah",
        "event_total": 42,
        "has_played": true,
        "id": 15073320,
        "last_rank": 29434,
        "player_name": "Luke Dudden",
        "rank": 47631,
        "rank_sort": 47635,
        "total": 2354
      },
      {
        "club_badge_src": null,
        "entry": 2295259,
        "entry_name": "J.S.Kabylie",
        "event_total": 53,
        "has_played": true,
        "id": 16369875,
        "last_rank": 42347,
        "player_name": "Adel Semrani",
        "rank": 47631,
        "rank_sort": 47636,
        "total": 2354
      },
      {
        "club_badge_src": null,
        "entry": 2599022,
        "entry_name": "Rafal Johnnybet",
        "event_total": 64,
        "has_played": true,
        "id": 18665405,
        "last_rank": 46454,
        "player_name": "Rafal Borowiak",
        "rank": 47631,
        "rank_sort": 47637,
        "total": 2354
      },
      {
        "club_badge_src": "https://fantasy.premierleague.com/gcs/plfpl-production-adobe-approved/plfpl-production/2603458/2fb73204-384f-4b12-ae8e-bc154c688839.png",
        "entry": 2603458,
        "entry_name": "Bobrov BEAVERS",
        "event_total": 42,
        "has_played": true,
        "id": 18700238,
        "last_rank": 29451,
        "player_name": "Anton Grobarcik",
        "rank": 47631,
        "rank_sort": 47638,
        "total": 2354
      },
      {
        "club_badge_src": null,
        "entry": 2641070,
        "entry_name": "Heres Jonny",
        "event_total": 76,
        "has_played": true,
        "id": 18981949,
        "last_rank": 74591,
        "player_name": "John Dun",
        "rank": 47631,
        "rank_sort": 47639,
        "total": 2354
      },
      {
        "club_badge_src": null,
        "entry": 7135188,
        "entry_name": "staggers",
        "event_total": 57,
        "has_played": true,
        "id": 57510469,
        "last_rank": 42327,
        "player_name": "Billy Wilson",
        "rank": 47631,
        "rank_sort": 47640,
        "total": 2354
      },
      {
        "club_badge_src": "https://fantasy.premierleague.com/gcs/plfpl-production-adobe-approved/plfpl-production/33751/f7308f9e-de18-4a5d-ad5a-c9b123623f3c.png",
        "entry": 33751,
        "entry_name": "OHYA",
        "event_total": 63,
        "has_played": true,
        "id": 215413,
        "last_rank": 51047,
        "player_name": "Harry Tang",
        "rank": 47641,
        "rank_sort": 47641,
        "total": 2354
      },
      {
        "club_badge_src": null,
        "entry": 426678,
        "entry_name": "Kudus in White",
        "event_total": 72,
        "has_played": true,
        "id": 2860797,
        "last_rank": 74591,
        "player_name": "Gary Rand",
        "rank": 47641,
        "rank_sort": 47642,
        "total": 2354
      },
      {
        "club_badge_src": null,
        "entry": 897326,
        "entry_name": "I\u2019m a Baleba",
        "event_total": 59,
        "has_played": true,
        "id": 6165107,
        "last_rank": 51056,
        "player_name": "James Maughan",
        "rank": 47641,
        "rank_sort": 47643,
        "total": 2354
      },
      {
        "club_badge_src": null,
        "entry": 1049917,
        "entry_name": "\u00d8de Parfum",
        "event_total": 51,
        "has_played": true,
        "id": 7265981,
        "last_rank": 39744,
        "player_name": "Max Rutherford",
        "rank": 47641,
        "rank_sort": 47644,
        "total": 2354
      },
      {
        "club_badge_src": "https://fantasy.premierleague.com/gcs/plfpl-production-adobe-approved/plfpl-production/1227662/f64e9107-010d-4204-ba6a-58b411ee8c41.png",
        "entry": 1227662,
        "entry_name": "YANU",
        "event_total": 57,
        "has_played": true,
        "id": 8524491,
        "last_rank": 48007,
        "player_name": "Yan Chen",
        "rank": 47641,
        "rank_sort": 47645,
        "total": 2354
      },
      {
        "club_badge_src": "https://fantasy.premierleague.com/gcs/plfpl-production-adobe-approved/plfpl-production/1987797/832f8c45-305d-4a26-a5e2-0db46b3dae60.png",
        "entry": 1987797,
        "entry_name": "london is red",
        "event_total": 59,
        "has_played": true,
        "id": 14042205,
        "last_rank": 30418,
        "player_name": "london is red",
        "rank": 47641,
        "rank_sort": 47646,
        "total": 2354
      },
      {
        "club_badge_src": "https://fantasy.premierleague.com/gcs/plfpl-production-adobe-approved/plfpl-production/2409830/2b0a592f-b8f2-41d8-9082-aaeb1f91acfd.png",
        "entry": 2409830,
        "entry_name": "Forever In My Shadow",
        "event_total": 55,
        "has_played": true,
        "id": 17225560,
        "last_rank": 39731,
        "player_name": "Charlie Major",
        "rank": 47641,
        "rank_sort": 47647,
        "total": 2354
      },
      {
        "club_badge_src": null,
        "entry": 2835870,
        "entry_name": "Shower of Schei\u00dfe",
        "event_total": 71,
        "has_played": true,
        "id": 20724455,
        "last_rank": 64677,
        "player_name": "Azim Shaikh",
        "rank": 47641,
        "rank_sort": 47648,
        "total": 2354
      },
      {
        "club_badge_src": null,
        "entry": 5527112,
        "entry_name": "Hansi flick ;",
        "event_total": 34,
        "has_played": true,
        "id": 43105078,
        "last_rank": 22342,
        "player_name": "Saleh SH",
        "rank": 47641,
        "rank_sort": 47649,
        "total": 2354
      },
      {
        "club_badge_src": "https://fantasy.premierleague.com/gcs/plfpl-production-adobe-approved/plfpl-production/96542/491527ec-d6ac-47ed-8726-81d67f1939b2.png",
        "entry": 96542,
        "entry_name": "Duje1312",
        "event_total": 65,
        "has_played": true,
        "id": 630680,
        "last_rank": 54291,
        "player_name": "Duje Kuzmani\u0107",
        "rank": 47650,
        "rank_sort": 47650,
        "total": 2354
      }
    ]
  }
}