{
  "last_updated_data": "2026-05-24T23:28:17Z",
  "league": {
    "admin_entry": null,
    "closed": false,
    "code_privacy": "p",
    "created": "2025-07-20T23:14:33.933835Z",
    "cup_league": 2815434,
    "has_cup": true,
    "id": 314,
    "league_type": "s",
    "max_entries": null,
    "name": "Overall",
    "rank": null,
    "scoring": "c",
    "start_event": 1
  },
  "new_entries": {
    "has_next": false,
    "page": 1,
    "results": []
  },
  "standings": {
    "has_next": true,
    "page": 495,
    "results": [
      {
        "club_badge_src": null,
        "entry": 1302998,
        "entry_name": "The Gy\u00f6kfather",
        "event_total": 54,
        "has_played": true,
        "id": 9055825,
        "last_rank": 22064,
        "player_name": "Davey Hulshof",
        "rank": 24632,
        "rank_sort": 24701,
        "total": 2374
      },
      {
        "club_badge_src": null,
        "entry": 1303943,
        "entry_name": "LYNS Armada",
        "event_total": 59,
        "has_played": true,
        "id": 9062779,
        "last_rank": 26088,
        "player_name": "Lounes Ahmed",
        "rank": 24632,
        "rank_sort": 24702,
        "total": 2374
      },
      {
        "club_badge_src": null,
        "entry": 1341117,
        "entry_name": "hacuhna matata",
        "event_total": 66,
        "has_played": true,
        "id": 9324129,
        "last_rank": 28546,
        "player_name": "Jordan Brooksher",
        "rank": 24632,
        "rank_sort": 24703,
        "total": 2374
      },
      {
        "club_badge_src": null,
        "entry": 1412576,
        "entry_name": "AK",
        "event_total": 63,
        "has_played": true,
        "id": 9830199,
        "last_rank": 29904,
        "player_name": "Ava Kennedy",
        "rank": 24632,
        "rank_sort": 24704,
        "total": 2374
      },
      {
        "club_badge_src": "https://fantasy.premierleague.com/gcs/plfpl-production-adobe-approved/plfpl-production/1470794/83952444-09f1-473e-a7aa-b4ee68a24630.png",
        "entry": 1470794,
        "entry_name": "ZaraFC",
        "event_total": 60,
        "has_played": true,
        "id": 10252241,
        "last_rank": 26827,
        "player_name": "Marko Profaca",
        "rank": 24632,
        "rank_sort": 24705,
        "total": 2374
      },
      {
        "club_badge_src": null,
        "entry": 1473686,
        "entry_name": "Exposing Areola",
        "event_total": 69,
        "has_played": true,
        "id": 10272420,
        "last_rank": 36200,
        "player_name": "Thomas Lazarus",
        "rank": 24632,
        "rank_sort": 24706,
        "total": 2374
      },
      {
        "club_badge_src": null,
        "entry": 1503839,
        "entry_name": "Crunch Time",
        "event_total": 53,
        "has_played": true,
        "id": 10487923,
        "last_rank": 21301,
        "player_name": "Andrew Millard",
        "rank": 24632,
        "rank_sort": 24707,
        "total": 2374
      },
      {
        "club_badge_src": null,
        "entry": 1668922,
        "entry_name": "JyT3am",
        "event_total": 66,
        "has_played": true,
        "id": 11684819,
        "last_rank": 28726,
        "player_name": "Ma Jy",
        "rank": 24632,
        "rank_sort": 24708,
        "total": 2374
      },
      {
        "club_badge_src": null,
        "entry": 1689921,
        "entry_name": "1911",
        "event_total": 53,
        "has_played": true,
        "id": 11830246,
        "last_rank": 21159,
        "player_name": "Mina Emadd",
        "rank": 24632,
        "rank_sort": 24709,
        "total": 2374
      },
      {
        "club_badge_src": null,
        "entry": 1704083,
        "entry_name": "Bazza's Boyz",
        "event_total": 69,
        "has_played": true,
        "id": 11937451,
        "last_rank": 36624,
        "player_name": "Henry Barry",
        "rank": 24632,
        "rank_sort": 24710,
        "total": 2374
      },
      {
        "club_badge_src": null,
        "entry": 1715224,
        "entry_name": "amorimball",
        "event_total": 71,
        "has_played": true,
        "id": 12019375,
        "last_rank": 39023,
        "player_name": "Ng Ethan",
        "rank": 24632,
        "rank_sort": 24711,
        "total": 2374
      },
      {
        "club_badge_src": null,
        "entry": 1726358,
        "entry_name": "Kinder Mbeumo",
        "event_total": 54,
        "has_played": true,
        "id": 12106396,
        "last_rank": 21949,
        "player_name": "Ryan Friel",
        "rank": 24632,
        "rank_sort": 24712,
        "total": 2374
      },
      {
        "club_badge_src": "https://fantasy.premierleague.com/gcs/plfpl-production-adobe-approved/plfpl-production/1795306/5248fa42-185a-437e-857f-4dca571f7dad.png",
        "entry": 1795306,
        "entry_name": "Grandmothers Revenge",
        "event_total": 62,
        "has_played": true,
        "id": 12616165,
        "last_rank": 28906,
        "player_name": "Pam Wortley",
        "rank": 24632,
        "rank_sort": 24713,
        "total": 2374
      },
      {
        "club_badge_src": null,
        "entry": 1850008,
        "entry_name": "The No Hopers",
        "event_total": 43,
        "has_played": true,
        "id": 13017934,
        "last_rank": 14496,
        "player_name": "Caroline Hope",
        "rank": 24632,
        "rank_sort": 24714,
        "total": 2374
      },
      {
        "club_badge_src": null,
        "entry": 2013191,
        "entry_name": "Noni Stop",
        "event_total": 64,
        "has_played": true,
        "id": 14236071,
        "last_rank": 30536,
        "player_name": "Liam Patterson",
        "rank": 24632,
        "rank_sort": 24715,
        "total": 2374
      },
      {
        "club_badge_src": null,
        "entry": 2022816,
        "entry_name": "Big Batigol",
        "event_total": 68,
        "has_played": true,
        "id": 14314103,
        "last_rank": 35166,
        "player_name": "Darragh Byrne",
        "rank": 24632,
        "rank_sort": 24716,
        "total": 2374
      },
      {
        "club_badge_src": null,
        "entry": 2075723,
        "entry_name": "The Winning One",
        "event_total": 59,
        "has_played": true,
        "id": 14716941,
        "last_rank": 22534,
        "player_name": "Christian Mourani",
        "rank": 24632,
        "rank_sort": 24717,
        "total": 2374
      },
      {
        "club_badge_src": null,
        "entry": 2101042,
        "entry_name": "FPL Axis",
        "event_total": 50,
        "has_played": true,
        "id": 14908565,
        "last_rank": 16163,
        "player_name": "Jake Burns",
        "rank": 24632,
        "rank_sort": 24718,
        "total": 2374
      },
      {
        "club_badge_src": null,
        "entry": 2212179,
        "entry_name": "JeanPie Rovers",
        "event_total": 78,
        "has_played": true,
        "id": 15753372,
        "last_rank": 48363,
        "player_name": "Jelle Meester",
        "rank": 24632,
        "rank_sort": 24719,
        "total": 2374
      },
      {
        "club_badge_src": "https://fantasy.premierleague.com/gcs/plfpl-production-adobe-approved/plfpl-production/2221475/5a898d93-fc57-4966-872e-72c9bc407edc.png",
        "entry": 2221475,
        "entry_name": "Kinder Mbuemo",
        "event_total": 64,
        "has_played": true,
        "id": 15822001,
        "last_rank": 30957,
        "player_name": "tyler meakin",
        "rank": 24632,
        "rank_sort": 24720,
        "total": 2374
      },
      {
        "club_badge_src": null,
        "entry": 2233810,
        "entry_name": "Sandbakkvegen FC",
        "event_total": 61,
        "has_played": true,
        "id": 15913745,
        "last_rank": 27644,
        "player_name": "Anders Devik",
        "rank": 24632,
        "rank_sort": 24721,
        "total": 2374
      },
      {
        "club_badge_src": null,
        "entry": 2320943,
        "entry_name": "The Haji WrightStuff",
        "event_total": 50,
        "has_played": true,
        "id": 16556940,
        "last_rank": 16163,
        "player_name": "Tony Tomkinson",
        "rank": 24632,
        "rank_sort": 24722,
        "total": 2374
      },
      {
        "club_badge_src": null,
        "entry": 2325826,
        "entry_name": "Zlo\u010desti de\u010dki",
        "event_total": 55,
        "has_played": true,
        "id": 16593298,
        "last_rank": 22534,
        "player_name": "matej arapovic",
        "rank": 24632,
        "rank_sort": 24723,
        "total": 2374
      },
      {
        "club_badge_src": null,
        "entry": 2365804,
        "entry_name": "Big Ozz Gunners",
        "event_total": 67,
        "has_played": true,
        "id": 16886878,
        "last_rank": 34051,
        "player_name": "Eirik Osland",
        "rank": 24632,
        "rank_sort": 24724,
        "total": 2374
      },
      {
        "club_badge_src": null,
        "entry": 2382228,
        "entry_name": "Herlario",
        "event_total": 68,
        "has_played": true,
        "id": 17011149,
        "last_rank": 35166,
        "player_name": "Robert Hrlr",
        "rank": 24632,
        "rank_sort": 24725,
        "total": 2374
      },
      {
        "club_badge_src": null,
        "entry": 2386707,
        "entry_name": "Dj11",
        "event_total": 56,
        "has_played": true,
        "id": 17047205,
        "last_rank": 23522,
        "player_name": "Jigme Dorji",
        "rank": 24632,
        "rank_sort": 24726,
        "total": 2374
      },
      {
        "club_badge_src": null,
        "entry": 2506401,
        "entry_name": "Marinakis Mafia",
        "event_total": 51,
        "has_played": true,
        "id": 17949133,
        "last_rank": 19721,
        "player_name": "Dave Sanders",
        "rank": 24632,
        "rank_sort": 24727,
        "total": 2374
      },
      {
        "club_badge_src": null,
        "entry": 2535040,
        "entry_name": "FC Saints",
        "event_total": 66,
        "has_played": true,
        "id": 18167011,
        "last_rank": 28726,
        "player_name": "Jevon Simon",
        "rank": 24632,
        "rank_sort": 24728,
        "total": 2374
      },
      {
        "club_badge_src": null,
        "entry": 2538938,
        "entry_name": "Delrio FC",
        "event_total": 50,
        "has_played": true,
        "id": 18195681,
        "last_rank": 18790,
        "player_name": "Nelson Melo",
        "rank": 24632,
        "rank_sort": 24729,
        "total": 2374
      },
      {
        "club_badge_src": null,
        "entry": 2540536,
        "entry_name": "NK Kraji\u0161nik",
        "event_total": 55,
        "has_played": true,
        "id": 18207488,
        "last_rank": 22685,
        "player_name": "Alen Suvic",
        "rank": 24632,
        "rank_sort": 24730,
        "total": 2374
      },
      {
        "club_badge_src": null,
        "entry": 2652998,
        "entry_name": "Gy\u00f6k 19",
        "event_total": 72,
        "has_played": true,
        "id": 19069760,
        "last_rank": 40297,
        "player_name": "Ore Deru",
        "rank": 24632,
        "rank_sort": 24731,
        "total": 2374
      },
      {
        "club_badge_src": null,
        "entry": 2660872,
        "entry_name": "Zubi-Doo FC",
        "event_total": 61,
        "has_played": true,
        "id": 19127607,
        "last_rank": 27585,
        "player_name": "Philip Walton",
        "rank": 24632,
        "rank_sort": 24732,
        "total": 2374
      },
      {
        "club_badge_src": null,
        "entry": 2693854,
        "entry_name": "Xhaka Khan",
        "event_total": 67,
        "has_played": true,
        "id": 19377234,
        "last_rank": 34458,
        "player_name": "owen spinola",
        "rank": 24632,
        "rank_sort": 24733,
        "total": 2374
      },
      {
        "club_badge_src": null,
        "entry": 2806470,
        "entry_name": "AAA",
        "event_total": 54,
        "has_played": true,
        "id": 20495502,
        "last_rank": 21775,
        "player_name": "Ali Alblooshi",
        "rank": 24632,
        "rank_sort": 24734,
        "total": 2374
      },
      {
        "club_badge_src": null,
        "entry": 2894583,
        "entry_name": "Les Miserables",
        "event_total": 63,
        "has_played": true,
        "id": 21206260,
        "last_rank": 29688,
        "player_name": "Ole Christian Fegri",
        "rank": 24632,
        "rank_sort": 24735,
        "total": 2374
      },
      {
        "club_badge_src": "https://fantasy.premierleague.com/gcs/plfpl-production-adobe-approved/plfpl-production/3034011/1bf31988-0c62-4f9e-86a0-af57d3c804da.png",
        "entry": 3034011,
        "entry_name": "Misie Puszyste",
        "event_total": 65,
        "has_played": true,
        "id": 22327755,
        "last_rank": 31620,
        "player_name": "Patryk Chwa\u0142a",
        "rank": 24632,
        "rank_sort": 24736,
        "total": 2374
      },
      {
        "club_badge_src": null,
        "entry": 3152960,
        "entry_name": "Strontium 90",
        "event_total": 46,
        "has_played": true,
        "id": 23285565,
        "last_rank": 16320,
        "player_name": "Goi Zi Jian",
        "rank": 24632,
        "rank_sort": 24737,
        "total": 2374
      },
      {
        "club_badge_src": null,
        "entry": 3201431,
        "entry_name": "Sergio",
        "event_total": 61,
        "has_played": true,
        "id": 23665418,
        "last_rank": 27976,
        "player_name": "Sergey Baskakov",
        "rank": 24632,
        "rank_sort": 24738,
        "total": 2374
      },
      {
        "club_badge_src": "https://fantasy.premierleague.com/gcs/plfpl-production-adobe-approved/plfpl-production/3217399/d404ea61-ccf4-4999-a1fd-69c05685f501.png",
        "entry": 3217399,
        "entry_name": "Betes FC",
        "event_total": 48,
        "has_played": true,
        "id": 23789472,
        "last_rank": 17585,
        "player_name": "James Williams",
        "rank": 24632,
        "rank_sort": 24739,
        "total": 2374
      },
      {
        "club_badge_src": null,
        "entry": 3262538,
        "entry_name": "agustineta",
        "event_total": 38,
        "has_played": true,
        "id": 24141152,
        "last_rank": 11821,
        "player_name": "Agustin Igich",
        "rank": 24632,
        "rank_sort": 24740,
        "total": 2374
      },
      {
        "club_badge_src": null,
        "entry": 3386167,
        "entry_name": "Thiaw for Now",
        "event_total": 60,
        "has_played": true,
        "id": 25137247,
        "last_rank": 23341,
        "player_name": "Stephen Fenwick",
        "rank": 24632,
        "rank_sort": 24741,
        "total": 2374
      },
      {
        "club_badge_src": "https://fantasy.premierleague.com/gcs/plfpl-production-adobe-approved/plfpl-production/3428680/f29747b6-f750-434f-9776-2ff5c74fe9f2.png",
        "entry": 3428680,
        "entry_name": "POTATO LOVERS FC",
        "event_total": 52,
        "has_played": true,
        "id": 25469890,
        "last_rank": 17358,
        "player_name": "azem nimri",
        "rank": 24632,
        "rank_sort": 24742,
        "total": 2374
      },
      {
        "club_badge_src": null,
        "entry": 3463072,
        "entry_name": "Harlia Fc",
        "event_total": 70,
        "has_played": true,
        "id": 25742671,
        "last_rank": 37589,
        "player_name": "Ebong Harry",
        "rank": 24632,
        "rank_sort": 24743,
        "total": 2374
      },
      {
        "club_badge_src": "https://fantasy.premierleague.com/gcs/plfpl-production-adobe-approved/plfpl-production/3627313/edb55b2f-79fa-4484-9b74-00ac507bf7d5.png",
        "entry": 3627313,
        "entry_name": "Herr Schika Pavlovi\u010d",
        "event_total": 48,
        "has_played": true,
        "id": 27028305,
        "last_rank": 17585,
        "player_name": "Davor Benkovic",
        "rank": 24632,
        "rank_sort": 24744,
        "total": 2374
      },
      {
        "club_badge_src": null,
        "entry": 3650746,
        "entry_name": "Slots Army",
        "event_total": 40,
        "has_played": true,
        "id": 27212315,
        "last_rank": 12846,
        "player_name": "A Malik",
        "rank": 24632,
        "rank_sort": 24745,
        "total": 2374
      },
      {
        "club_badge_src": null,
        "entry": 3676015,
        "entry_name": "oneofwun",
        "event_total": 46,
        "has_played": true,
        "id": 27417274,
        "last_rank": 16163,
        "player_name": "Bindu Makhesha",
        "rank": 24632,
        "rank_sort": 24746,
        "total": 2374
      },
      {
        "club_badge_src": null,
        "entry": 3934194,
        "entry_name": "Outsider FC",
        "event_total": 69,
        "has_played": true,
        "id": 29590471,
        "last_rank": 36624,
        "player_name": "Dawid Jamroz",
        "rank": 24632,
        "rank_sort": 24747,
        "total": 2374
      },
      {
        "club_badge_src": null,
        "entry": 3963330,
        "entry_name": "Red, White & Bruno",
        "event_total": 60,
        "has_played": true,
        "id": 29821189,
        "last_rank": 27020,
        "player_name": "Justin Meise",
        "rank": 24632,
        "rank_sort": 24748,
        "total": 2374
      },
      {
        "club_badge_src": null,
        "entry": 4000817,
        "entry_name": "St. Masserman",
        "event_total": 54,
        "has_played": true,
        "id": 30133640,
        "last_rank": 21775,
        "player_name": "John Masser",
        "rank": 24632,
        "rank_sort": 24749,
        "total": 2374
      },
      {
        "club_badge_src": null,
        "entry": 4055119,
        "entry_name": "Blue Capital",
        "event_total": 50,
        "has_played": true,
        "id": 30596418,
        "last_rank": 18790,
        "player_name": "steve swindell",
        "rank": 24632,
        "rank_sort": 24750,
        "total": 2374
      }
    ]
  }
}