{
  "last_updated_data": "2026-05-24T23:28:17Z",
  "league": {
    "admin_entry": null,
    "closed": false,
    "code_privacy": "p",
    "created": "2025-07-20T23:14:33.933835Z",
    "cup_league": 2815434,
    "has_cup": true,
    "id": 314,
    "league_type": "s",
    "max_entries": null,
    "name": "Overall",
    "rank": null,
    "scoring": "c",
    "start_event": 1
  },
  "new_entries": {
    "has_next": false,
    "page": 1,
    "results": []
  },
  "standings": {
    "has_next": true,
    "page": 1193,
    "results": [
      {
        "club_badge_src": null,
        "entry": 123455,
        "entry_name": "For Beto, For Wirtz",
        "event_total": 41,
        "has_played": true,
        "id": 805269,
        "last_rank": 31747,
        "player_name": "Bruce Dunn",
        "rank": 59580,
        "rank_sort": 59601,
        "total": 2346
      },
      {
        "club_badge_src": "https://fantasy.premierleague.com/gcs/plfpl-production-adobe-approved/plfpl-production/125730/a8db4301-938a-4072-92d8-1d475a3ae28b.png",
        "entry": 125730,
        "entry_name": "Goal of Duty FC",
        "event_total": 51,
        "has_played": true,
        "id": 819976,
        "last_rank": 50635,
        "player_name": "Abdul-Maalik Allie",
        "rank": 59580,
        "rank_sort": 59602,
        "total": 2346
      },
      {
        "club_badge_src": "https://fantasy.premierleague.com/gcs/plfpl-production-adobe-approved/plfpl-production/140909/95877e59-1c2b-4813-84f2-9b18bb7f9298.png",
        "entry": 140909,
        "entry_name": "Quangsocute",
        "event_total": 62,
        "has_played": true,
        "id": 920386,
        "last_rank": 61950,
        "player_name": "Quang Hoang",
        "rank": 59580,
        "rank_sort": 59603,
        "total": 2346
      },
      {
        "club_badge_src": "https://fantasy.premierleague.com/gcs/plfpl-production-adobe-approved/plfpl-production/150181/121f747a-9fd0-4c6e-87a9-44e7d2f4c05c.png",
        "entry": 150181,
        "entry_name": "Peaky Reijnders",
        "event_total": 59,
        "has_played": true,
        "id": 984849,
        "last_rank": 63390,
        "player_name": "Brad Roberts",
        "rank": 59580,
        "rank_sort": 59604,
        "total": 2346
      },
      {
        "club_badge_src": null,
        "entry": 159813,
        "entry_name": "Sagrada",
        "event_total": 62,
        "has_played": true,
        "id": 1052076,
        "last_rank": 69323,
        "player_name": "Patrik Ko\u0161uda",
        "rank": 59580,
        "rank_sort": 59605,
        "total": 2346
      },
      {
        "club_badge_src": null,
        "entry": 180447,
        "entry_name": "Boogers Caravan",
        "event_total": 80,
        "has_played": true,
        "id": 1190812,
        "last_rank": 112169,
        "player_name": "Dom Warren",
        "rank": 59580,
        "rank_sort": 59606,
        "total": 2346
      },
      {
        "club_badge_src": null,
        "entry": 194552,
        "entry_name": "Jota The Slotter",
        "event_total": 58,
        "has_played": true,
        "id": 1289884,
        "last_rank": 61950,
        "player_name": "Harry Baines",
        "rank": 59580,
        "rank_sort": 59607,
        "total": 2346
      },
      {
        "club_badge_src": null,
        "entry": 195878,
        "entry_name": "Athletico Mince",
        "event_total": 61,
        "has_played": true,
        "id": 1299168,
        "last_rank": 53023,
        "player_name": "Gordon Cunningham",
        "rank": 59580,
        "rank_sort": 59608,
        "total": 2346
      },
      {
        "club_badge_src": null,
        "entry": 203626,
        "entry_name": "Mohammed",
        "event_total": 68,
        "has_played": true,
        "id": 1352947,
        "last_rank": 73423,
        "player_name": "Mohammed Alrasheed",
        "rank": 59580,
        "rank_sort": 59609,
        "total": 2346
      },
      {
        "club_badge_src": "https://fantasy.premierleague.com/gcs/plfpl-production-adobe-approved/plfpl-production/226272/05bc0648-8a82-4f92-8909-16496825402e.png",
        "entry": 226272,
        "entry_name": "Krale",
        "event_total": 73,
        "has_played": true,
        "id": 1505205,
        "last_rank": 93883,
        "player_name": "Kristijan Kralevski",
        "rank": 59580,
        "rank_sort": 59610,
        "total": 2346
      },
      {
        "club_badge_src": "https://fantasy.premierleague.com/gcs/plfpl-production-adobe-approved/plfpl-production/227351/17846322-ccfb-499a-a7c2-31da94da1144.png",
        "entry": 227351,
        "entry_name": "Bowen Arrow",
        "event_total": 66,
        "has_played": true,
        "id": 1512311,
        "last_rank": 69323,
        "player_name": "Balint Roman",
        "rank": 59580,
        "rank_sort": 59611,
        "total": 2346
      },
      {
        "club_badge_src": null,
        "entry": 230803,
        "entry_name": "Mbeumo got Amad gyat",
        "event_total": 74,
        "has_played": true,
        "id": 1535521,
        "last_rank": 96777,
        "player_name": "Ethan Swain",
        "rank": 59580,
        "rank_sort": 59612,
        "total": 2346
      },
      {
        "club_badge_src": null,
        "entry": 250518,
        "entry_name": "Matraman United",
        "event_total": 69,
        "has_played": true,
        "id": 1666767,
        "last_rank": 83934,
        "player_name": "Pras Setio",
        "rank": 59580,
        "rank_sort": 59613,
        "total": 2346
      },
      {
        "club_badge_src": null,
        "entry": 254326,
        "entry_name": "Macoy&Trampa",
        "event_total": 60,
        "has_played": true,
        "id": 1691724,
        "last_rank": 58071,
        "player_name": "Alejandro Navarrete",
        "rank": 59580,
        "rank_sort": 59614,
        "total": 2346
      },
      {
        "club_badge_src": null,
        "entry": 306824,
        "entry_name": "Mahmoud",
        "event_total": 40,
        "has_played": true,
        "id": 2054831,
        "last_rank": 35619,
        "player_name": "Mahmoud Eldeeb",
        "rank": 59580,
        "rank_sort": 59615,
        "total": 2346
      },
      {
        "club_badge_src": null,
        "entry": 367663,
        "entry_name": "Un-baleba-ble jeff",
        "event_total": 51,
        "has_played": true,
        "id": 2460487,
        "last_rank": 44303,
        "player_name": "Theo Day",
        "rank": 59580,
        "rank_sort": 59616,
        "total": 2346
      },
      {
        "club_badge_src": null,
        "entry": 373132,
        "entry_name": "24 Hours of Lammens",
        "event_total": 53,
        "has_played": true,
        "id": 2496499,
        "last_rank": 53621,
        "player_name": "Dan Jones",
        "rank": 59580,
        "rank_sort": 59617,
        "total": 2346
      },
      {
        "club_badge_src": "https://fantasy.premierleague.com/gcs/plfpl-production-adobe-approved/plfpl-production/412366/583e3abc-dde3-4c31-b3ed-75ea6a3b9491.png",
        "entry": 412366,
        "entry_name": "STAND ARMS AKIMBO",
        "event_total": 68,
        "has_played": true,
        "id": 2764807,
        "last_rank": 81646,
        "player_name": "Hassan Jalloh",
        "rank": 59580,
        "rank_sort": 59618,
        "total": 2346
      },
      {
        "club_badge_src": null,
        "entry": 412888,
        "entry_name": "Pain in Diaz",
        "event_total": 53,
        "has_played": true,
        "id": 2768170,
        "last_rank": 53621,
        "player_name": "Daniel Abigail",
        "rank": 59580,
        "rank_sort": 59619,
        "total": 2346
      },
      {
        "club_badge_src": "https://fantasy.premierleague.com/gcs/plfpl-production-adobe-approved/plfpl-production/422924/9213d655-3dea-450b-8983-1070158eb25f.png",
        "entry": 422924,
        "entry_name": "Question Everything",
        "event_total": 59,
        "has_played": true,
        "id": 2834115,
        "last_rank": 56708,
        "player_name": "Jon Puleston",
        "rank": 59580,
        "rank_sort": 59620,
        "total": 2346
      },
      {
        "club_badge_src": "https://fantasy.premierleague.com/gcs/plfpl-production-adobe-approved/plfpl-production/436313/2fb853a0-2de4-4c5e-bc49-1bce6a5ca095.png",
        "entry": 436313,
        "entry_name": "Hadidas FC",
        "event_total": 70,
        "has_played": true,
        "id": 2925756,
        "last_rank": 86735,
        "player_name": "Hadi Bitar",
        "rank": 59580,
        "rank_sort": 59621,
        "total": 2346
      },
      {
        "club_badge_src": null,
        "entry": 459279,
        "entry_name": "InterNathionale",
        "event_total": 49,
        "has_played": true,
        "id": 3081069,
        "last_rank": 36348,
        "player_name": "Nathan Wilcox",
        "rank": 59580,
        "rank_sort": 59622,
        "total": 2346
      },
      {
        "club_badge_src": null,
        "entry": 478457,
        "entry_name": "Chittt",
        "event_total": 69,
        "has_played": true,
        "id": 3212048,
        "last_rank": 83934,
        "player_name": "Rathanak Sovann",
        "rank": 59580,
        "rank_sort": 59623,
        "total": 2346
      },
      {
        "club_badge_src": null,
        "entry": 484649,
        "entry_name": "FPL@Trapez",
        "event_total": 57,
        "has_played": true,
        "id": 3253116,
        "last_rank": 60462,
        "player_name": "\u0141ukasz Witkowski",
        "rank": 59580,
        "rank_sort": 59624,
        "total": 2346
      },
      {
        "club_badge_src": "https://fantasy.premierleague.com/gcs/plfpl-production-adobe-approved/plfpl-production/526049/6dedda82-eaf4-4802-a873-0d94a456e425.png",
        "entry": 526049,
        "entry_name": "Wimpole FC",
        "event_total": 42,
        "has_played": true,
        "id": 3536000,
        "last_rank": 38016,
        "player_name": "Ted Waggott",
        "rank": 59580,
        "rank_sort": 59625,
        "total": 2346
      },
      {
        "club_badge_src": null,
        "entry": 539184,
        "entry_name": "French Riv",
        "event_total": 71,
        "has_played": true,
        "id": 3629241,
        "last_rank": 79431,
        "player_name": "Sixten Ekberg",
        "rank": 59580,
        "rank_sort": 59626,
        "total": 2346
      },
      {
        "club_badge_src": null,
        "entry": 543306,
        "entry_name": "Atomic Gittens",
        "event_total": 67,
        "has_played": true,
        "id": 3656576,
        "last_rank": 79817,
        "player_name": "Jack Spicer",
        "rank": 59580,
        "rank_sort": 59627,
        "total": 2346
      },
      {
        "club_badge_src": null,
        "entry": 552025,
        "entry_name": "Reach for Pahars",
        "event_total": 49,
        "has_played": true,
        "id": 3715583,
        "last_rank": 47417,
        "player_name": "Matt Griffiths",
        "rank": 59580,
        "rank_sort": 59628,
        "total": 2346
      },
      {
        "club_badge_src": null,
        "entry": 573816,
        "entry_name": "MurderOnZidanesFloor",
        "event_total": 67,
        "has_played": true,
        "id": 3861663,
        "last_rank": 80194,
        "player_name": "Jack Tucker",
        "rank": 59580,
        "rank_sort": 59629,
        "total": 2346
      },
      {
        "club_badge_src": null,
        "entry": 589395,
        "entry_name": "Teddowes",
        "event_total": 56,
        "has_played": true,
        "id": 3969659,
        "last_rank": 58688,
        "player_name": "Toby Eddowes",
        "rank": 59580,
        "rank_sort": 59630,
        "total": 2346
      },
      {
        "club_badge_src": null,
        "entry": 608617,
        "entry_name": "Hacunha Mateta",
        "event_total": 68,
        "has_played": true,
        "id": 4110748,
        "last_rank": 82398,
        "player_name": "Ravivannan Premananthan",
        "rank": 59580,
        "rank_sort": 59631,
        "total": 2346
      },
      {
        "club_badge_src": null,
        "entry": 644096,
        "entry_name": "Pro Nation",
        "event_total": 59,
        "has_played": true,
        "id": 4352864,
        "last_rank": 63724,
        "player_name": "Dubem Okafor",
        "rank": 59580,
        "rank_sort": 59632,
        "total": 2346
      },
      {
        "club_badge_src": null,
        "entry": 666894,
        "entry_name": "MOHAMMED NASSER",
        "event_total": 39,
        "has_played": true,
        "id": 4509136,
        "last_rank": 34458,
        "player_name": "MOHAMMED N",
        "rank": 59580,
        "rank_sort": 59633,
        "total": 2346
      },
      {
        "club_badge_src": null,
        "entry": 675201,
        "entry_name": "Norway Bees",
        "event_total": 53,
        "has_played": true,
        "id": 4567966,
        "last_rank": 53621,
        "player_name": "Robin Hesmyr",
        "rank": 59580,
        "rank_sort": 59634,
        "total": 2346
      },
      {
        "club_badge_src": null,
        "entry": 677055,
        "entry_name": "ZeLocksTeam",
        "event_total": 71,
        "has_played": true,
        "id": 4580906,
        "last_rank": 79817,
        "player_name": "Francisco Aguiar",
        "rank": 59580,
        "rank_sort": 59635,
        "total": 2346
      },
      {
        "club_badge_src": null,
        "entry": 685559,
        "entry_name": "Max Everton",
        "event_total": 63,
        "has_played": true,
        "id": 4640494,
        "last_rank": 71713,
        "player_name": "max glisser",
        "rank": 59580,
        "rank_sort": 59636,
        "total": 2346
      },
      {
        "club_badge_src": null,
        "entry": 722361,
        "entry_name": "Obi one kenobi nil",
        "event_total": 58,
        "has_played": true,
        "id": 4906011,
        "last_rank": 55014,
        "player_name": "Jonny Ward",
        "rank": 59580,
        "rank_sort": 59637,
        "total": 2346
      },
      {
        "club_badge_src": "https://fantasy.premierleague.com/gcs/plfpl-production-adobe-approved/plfpl-production/729841/d95bd676-6360-44f2-842e-4c5a9548f28e.png",
        "entry": 729841,
        "entry_name": "Cole of Duty",
        "event_total": 45,
        "has_played": true,
        "id": 4959074,
        "last_rank": 41617,
        "player_name": "Jakub Maz\u00e1\u010d",
        "rank": 59580,
        "rank_sort": 59638,
        "total": 2346
      },
      {
        "club_badge_src": "https://fantasy.premierleague.com/gcs/plfpl-production-adobe-approved/plfpl-production/737010/ec6d468c-d8a0-4126-80b1-b9c80d8afe5b.png",
        "entry": 737010,
        "entry_name": "Te\u0161ko Finest",
        "event_total": 64,
        "has_played": true,
        "id": 5010424,
        "last_rank": 73720,
        "player_name": "Karamveer Saini",
        "rank": 59580,
        "rank_sort": 59639,
        "total": 2346
      },
      {
        "club_badge_src": null,
        "entry": 765600,
        "entry_name": "Adaz'11",
        "event_total": 62,
        "has_played": true,
        "id": 5221679,
        "last_rank": 69323,
        "player_name": "Chris Adamson",
        "rank": 59580,
        "rank_sort": 59640,
        "total": 2346
      },
      {
        "club_badge_src": null,
        "entry": 774245,
        "entry_name": "IssyFlissy FC",
        "event_total": 52,
        "has_played": true,
        "id": 5282522,
        "last_rank": 51403,
        "player_name": "Chris Avis",
        "rank": 59580,
        "rank_sort": 59641,
        "total": 2346
      },
      {
        "club_badge_src": null,
        "entry": 776040,
        "entry_name": "Huni-bee10",
        "event_total": 65,
        "has_played": true,
        "id": 5294985,
        "last_rank": 75537,
        "player_name": "Hanika Raikundalia",
        "rank": 59580,
        "rank_sort": 59642,
        "total": 2346
      },
      {
        "club_badge_src": null,
        "entry": 785374,
        "entry_name": "Schmiddy FC",
        "event_total": 67,
        "has_played": true,
        "id": 5366459,
        "last_rank": 80465,
        "player_name": "Stefan Schmid",
        "rank": 59580,
        "rank_sort": 59643,
        "total": 2346
      },
      {
        "club_badge_src": "https://fantasy.premierleague.com/gcs/plfpl-production-adobe-approved/plfpl-production/788241/1014c54f-338a-4396-9f77-073021523581.png",
        "entry": 788241,
        "entry_name": "Kingseat Collective",
        "event_total": 50,
        "has_played": true,
        "id": 5390307,
        "last_rank": 42648,
        "player_name": "Lewis Henderson",
        "rank": 59580,
        "rank_sort": 59644,
        "total": 2346
      },
      {
        "club_badge_src": null,
        "entry": 792120,
        "entry_name": "Chicken Tika MoSalah",
        "event_total": 67,
        "has_played": true,
        "id": 5420712,
        "last_rank": 79817,
        "player_name": "Suhail Esat",
        "rank": 59580,
        "rank_sort": 59645,
        "total": 2346
      },
      {
        "club_badge_src": null,
        "entry": 794618,
        "entry_name": "Silvaball",
        "event_total": 67,
        "has_played": true,
        "id": 5438092,
        "last_rank": 71386,
        "player_name": "Albert Balzer Ott",
        "rank": 59580,
        "rank_sort": 59646,
        "total": 2346
      },
      {
        "club_badge_src": null,
        "entry": 799830,
        "entry_name": "Arteta's Fringe",
        "event_total": 55,
        "has_played": true,
        "id": 5474658,
        "last_rank": 56708,
        "player_name": "Liam Mckay",
        "rank": 59580,
        "rank_sort": 59647,
        "total": 2346
      },
      {
        "club_badge_src": null,
        "entry": 800732,
        "entry_name": "Goal Diggers",
        "event_total": 63,
        "has_played": true,
        "id": 5480992,
        "last_rank": 56180,
        "player_name": "Hugo Edin",
        "rank": 59580,
        "rank_sort": 59648,
        "total": 2346
      },
      {
        "club_badge_src": null,
        "entry": 842992,
        "entry_name": "Clearlake Out",
        "event_total": 46,
        "has_played": true,
        "id": 5775918,
        "last_rank": 43168,
        "player_name": "Jason Rizzuto",
        "rank": 59580,
        "rank_sort": 59649,
        "total": 2346
      },
      {
        "club_badge_src": null,
        "entry": 851060,
        "entry_name": "AK 47",
        "event_total": 69,
        "has_played": true,
        "id": 5833385,
        "last_rank": 84731,
        "player_name": "Sonam Phuntsho",
        "rank": 59580,
        "rank_sort": 59650,
        "total": 2346
      }
    ]
  }
}