{
  "last_updated_data": "2026-05-24T23:28:17Z",
  "league": {
    "admin_entry": null,
    "closed": false,
    "code_privacy": "p",
    "created": "2025-07-20T23:14:33.933835Z",
    "cup_league": 2815434,
    "has_cup": true,
    "id": 314,
    "league_type": "s",
    "max_entries": null,
    "name": "Overall",
    "rank": null,
    "scoring": "c",
    "start_event": 1
  },
  "new_entries": {
    "has_next": false,
    "page": 1,
    "results": []
  },
  "standings": {
    "has_next": true,
    "page": 514,
    "results": [
      {
        "club_badge_src": null,
        "entry": 5847696,
        "entry_name": "Don Carlo",
        "event_total": 48,
        "has_played": true,
        "id": 45908576,
        "last_rank": 18113,
        "player_name": "Leonis Cekaj",
        "rank": 25514,
        "rank_sort": 25651,
        "total": 2373
      },
      {
        "club_badge_src": null,
        "entry": 5960222,
        "entry_name": "jivnuti",
        "event_total": 66,
        "has_played": true,
        "id": 46889522,
        "last_rank": 34051,
        "player_name": "Rully Amal Putra",
        "rank": 25514,
        "rank_sort": 25652,
        "total": 2373
      },
      {
        "club_badge_src": null,
        "entry": 5988606,
        "entry_name": "Ebenchready Eze",
        "event_total": 51,
        "has_played": true,
        "id": 47180598,
        "last_rank": 20538,
        "player_name": "Ayyub Malik",
        "rank": 25514,
        "rank_sort": 25653,
        "total": 2373
      },
      {
        "club_badge_src": "https://fantasy.premierleague.com/gcs/plfpl-production-adobe-approved/plfpl-production/6185389/0f4a3519-a7f0-4cb4-8670-71184cb56e82.png",
        "entry": 6185389,
        "entry_name": "Conrizzle Kicks",
        "event_total": 55,
        "has_played": true,
        "id": 48918633,
        "last_rank": 23522,
        "player_name": "Conor Evans",
        "rank": 25514,
        "rank_sort": 25654,
        "total": 2373
      },
      {
        "club_badge_src": null,
        "entry": 6362472,
        "entry_name": "Real Winner 24/25",
        "event_total": 41,
        "has_played": true,
        "id": 50589168,
        "last_rank": 13947,
        "player_name": "Martin Dwyer",
        "rank": 25514,
        "rank_sort": 25655,
        "total": 2373
      },
      {
        "club_badge_src": null,
        "entry": 6615728,
        "entry_name": "FC 47",
        "event_total": 71,
        "has_played": true,
        "id": 52862872,
        "last_rank": 40036,
        "player_name": "Wiktor Marzec",
        "rank": 25514,
        "rank_sort": 25656,
        "total": 2373
      },
      {
        "club_badge_src": null,
        "entry": 6651196,
        "entry_name": "Milton Road End",
        "event_total": 60,
        "has_played": true,
        "id": 53172616,
        "last_rank": 27976,
        "player_name": "Dom Keenan",
        "rank": 25514,
        "rank_sort": 25657,
        "total": 2373
      },
      {
        "club_badge_src": null,
        "entry": 7254260,
        "entry_name": "Me Myself Ndiaye",
        "event_total": 75,
        "has_played": true,
        "id": 58646866,
        "last_rank": 45182,
        "player_name": "Harvey Spencer",
        "rank": 25514,
        "rank_sort": 25658,
        "total": 2373
      },
      {
        "club_badge_src": null,
        "entry": 7802680,
        "entry_name": "ES\u00d8",
        "event_total": 63,
        "has_played": true,
        "id": 64097371,
        "last_rank": 26710,
        "player_name": "Eiolf \u00d8deg\u00e5rd",
        "rank": 25514,
        "rank_sort": 25659,
        "total": 2373
      },
      {
        "club_badge_src": null,
        "entry": 7955587,
        "entry_name": "\u0627\u0628\u0648 \u0627\u0644\u0642\u0644\u0627\u0642\u0644 \u0633\u064a\u062a\u064a",
        "event_total": 44,
        "has_played": true,
        "id": 65490527,
        "last_rank": 15550,
        "player_name": "Hazem Farah",
        "rank": 25514,
        "rank_sort": 25660,
        "total": 2373
      },
      {
        "club_badge_src": null,
        "entry": 8021610,
        "entry_name": "Dislocate Drome FC",
        "event_total": 59,
        "has_played": true,
        "id": 66079488,
        "last_rank": 26827,
        "player_name": "McDonald Lover",
        "rank": 25514,
        "rank_sort": 25661,
        "total": 2373
      },
      {
        "club_badge_src": null,
        "entry": 8247796,
        "entry_name": "Cheese FC",
        "event_total": 73,
        "has_played": true,
        "id": 68203113,
        "last_rank": 42940,
        "player_name": "Charlie Wrapson",
        "rank": 25514,
        "rank_sort": 25662,
        "total": 2373
      },
      {
        "club_badge_src": null,
        "entry": 8276047,
        "entry_name": "nasro",
        "event_total": 42,
        "has_played": true,
        "id": 68471355,
        "last_rank": 14496,
        "player_name": "Nasro Seddaoui",
        "rank": 25514,
        "rank_sort": 25663,
        "total": 2373
      },
      {
        "club_badge_src": null,
        "entry": 8369426,
        "entry_name": "Donza's Demons",
        "event_total": 63,
        "has_played": true,
        "id": 69389284,
        "last_rank": 30957,
        "player_name": "Kieran Donnelly",
        "rank": 25514,
        "rank_sort": 25664,
        "total": 2373
      },
      {
        "club_badge_src": null,
        "entry": 8444957,
        "entry_name": "Amorimpossible2beat",
        "event_total": 53,
        "has_played": true,
        "id": 70106088,
        "last_rank": 22064,
        "player_name": "Jack Innes",
        "rank": 25514,
        "rank_sort": 25665,
        "total": 2373
      },
      {
        "club_badge_src": null,
        "entry": 9008948,
        "entry_name": "Run The Kewells",
        "event_total": 66,
        "has_played": true,
        "id": 75566467,
        "last_rank": 29578,
        "player_name": "Mike Donkin",
        "rank": 25514,
        "rank_sort": 25666,
        "total": 2373
      },
      {
        "club_badge_src": null,
        "entry": 9394004,
        "entry_name": "Coop FC",
        "event_total": 59,
        "has_played": true,
        "id": 79316193,
        "last_rank": 27020,
        "player_name": "Cooper Chromik",
        "rank": 25514,
        "rank_sort": 25667,
        "total": 2373
      },
      {
        "club_badge_src": null,
        "entry": 10758783,
        "entry_name": "minus one",
        "event_total": 55,
        "has_played": true,
        "id": 90866920,
        "last_rank": 23522,
        "player_name": "Naomi Buck",
        "rank": 25514,
        "rank_sort": 25668,
        "total": 2373
      },
      {
        "club_badge_src": "https://fantasy.premierleague.com/gcs/plfpl-production-adobe-approved/plfpl-production/200/9da6ed1a-e239-420c-90c2-6c38ea436e19.png",
        "entry": 200,
        "entry_name": "Focal Point",
        "event_total": 65,
        "has_played": true,
        "id": 1109,
        "last_rank": 28906,
        "player_name": "Oscar -",
        "rank": 25669,
        "rank_sort": 25669,
        "total": 2373
      },
      {
        "club_badge_src": null,
        "entry": 391,
        "entry_name": "FPL_Thomas",
        "event_total": 67,
        "has_played": true,
        "id": 2159,
        "last_rank": 30957,
        "player_name": "Thomas ---",
        "rank": 25669,
        "rank_sort": 25670,
        "total": 2373
      },
      {
        "club_badge_src": null,
        "entry": 7143,
        "entry_name": "Poccos",
        "event_total": 72,
        "has_played": true,
        "id": 41140,
        "last_rank": 41617,
        "player_name": "Rikard Gustafsson",
        "rank": 25669,
        "rank_sort": 25671,
        "total": 2373
      },
      {
        "club_badge_src": null,
        "entry": 23479,
        "entry_name": "Win Dalot",
        "event_total": 74,
        "has_played": true,
        "id": 147884,
        "last_rank": 43849,
        "player_name": "Ben McHale",
        "rank": 25669,
        "rank_sort": 25672,
        "total": 2373
      },
      {
        "club_badge_src": "https://fantasy.premierleague.com/gcs/plfpl-production-adobe-approved/plfpl-production/26398/29209296-e6d3-478d-90f9-9590ab50b02c.png",
        "entry": 26398,
        "entry_name": "Telegram FPL",
        "event_total": 62,
        "has_played": true,
        "id": 166908,
        "last_rank": 25776,
        "player_name": "Telegram Hivemind",
        "rank": 25669,
        "rank_sort": 25673,
        "total": 2373
      },
      {
        "club_badge_src": null,
        "entry": 32920,
        "entry_name": "Back on our perch 20",
        "event_total": 52,
        "has_played": true,
        "id": 209678,
        "last_rank": 18270,
        "player_name": "Geraint Llewellyn",
        "rank": 25669,
        "rank_sort": 25674,
        "total": 2373
      },
      {
        "club_badge_src": null,
        "entry": 38393,
        "entry_name": "Ze Germans",
        "event_total": 66,
        "has_played": true,
        "id": 246054,
        "last_rank": 34293,
        "player_name": "Daniel Jurascheck",
        "rank": 25669,
        "rank_sort": 25675,
        "total": 2373
      },
      {
        "club_badge_src": "https://fantasy.premierleague.com/gcs/plfpl-production-adobe-approved/plfpl-production/38624/226a81d7-134a-43ad-b1c6-1e0675438762.png",
        "entry": 38624,
        "entry_name": "Nupit",
        "event_total": 60,
        "has_played": true,
        "id": 247594,
        "last_rank": 24330,
        "player_name": "Niko Riikonen",
        "rank": 25669,
        "rank_sort": 25676,
        "total": 2373
      },
      {
        "club_badge_src": null,
        "entry": 42469,
        "entry_name": "El Chapo",
        "event_total": 65,
        "has_played": true,
        "id": 272114,
        "last_rank": 33332,
        "player_name": "Boris Boskovic",
        "rank": 25669,
        "rank_sort": 25677,
        "total": 2373
      },
      {
        "club_badge_src": null,
        "entry": 46050,
        "entry_name": "Football Heritage",
        "event_total": 49,
        "has_played": true,
        "id": 295322,
        "last_rank": 19103,
        "player_name": "Killian Bukulin",
        "rank": 25669,
        "rank_sort": 25678,
        "total": 2373
      },
      {
        "club_badge_src": null,
        "entry": 56968,
        "entry_name": "FPL-Asem",
        "event_total": 65,
        "has_played": true,
        "id": 366953,
        "last_rank": 28906,
        "player_name": "Asem Jaffer",
        "rank": 25669,
        "rank_sort": 25679,
        "total": 2373
      },
      {
        "club_badge_src": null,
        "entry": 63126,
        "entry_name": "Cant get any Wirtz",
        "event_total": 67,
        "has_played": true,
        "id": 407190,
        "last_rank": 30957,
        "player_name": "biggalfredd ofori",
        "rank": 25669,
        "rank_sort": 25680,
        "total": 2373
      },
      {
        "club_badge_src": null,
        "entry": 67527,
        "entry_name": "Alf Army",
        "event_total": 73,
        "has_played": true,
        "id": 437221,
        "last_rank": 42940,
        "player_name": "Alfie Claxton",
        "rank": 25669,
        "rank_sort": 25681,
        "total": 2373
      },
      {
        "club_badge_src": null,
        "entry": 68590,
        "entry_name": "Wirtz of Wisdom",
        "event_total": 71,
        "has_played": true,
        "id": 444444,
        "last_rank": 35424,
        "player_name": "Luca De Gabriele",
        "rank": 25669,
        "rank_sort": 25682,
        "total": 2373
      },
      {
        "club_badge_src": null,
        "entry": 91545,
        "entry_name": "MarescaBalls",
        "event_total": 60,
        "has_played": true,
        "id": 597988,
        "last_rank": 28150,
        "player_name": "Soumyadeep Chatterjee",
        "rank": 25669,
        "rank_sort": 25683,
        "total": 2373
      },
      {
        "club_badge_src": null,
        "entry": 101086,
        "entry_name": "Frimpingpong",
        "event_total": 65,
        "has_played": true,
        "id": 659630,
        "last_rank": 28906,
        "player_name": "Ask Forvemo",
        "rank": 25669,
        "rank_sort": 25684,
        "total": 2373
      },
      {
        "club_badge_src": null,
        "entry": 164047,
        "entry_name": "Special ONE",
        "event_total": 50,
        "has_played": true,
        "id": 1082397,
        "last_rank": 19721,
        "player_name": "Abdullmohsen .",
        "rank": 25669,
        "rank_sort": 25685,
        "total": 2373
      },
      {
        "club_badge_src": null,
        "entry": 208283,
        "entry_name": "Ditto FC",
        "event_total": 70,
        "has_played": true,
        "id": 1384718,
        "last_rank": 39023,
        "player_name": "Vilmer Alm",
        "rank": 25669,
        "rank_sort": 25686,
        "total": 2373
      },
      {
        "club_badge_src": "https://fantasy.premierleague.com/gcs/plfpl-production-adobe-approved/plfpl-production/231582/f356c2a5-b193-4fb7-951b-e64e508298e1.png",
        "entry": 231582,
        "entry_name": "Rruga Peshkepia",
        "event_total": 50,
        "has_played": true,
        "id": 1540723,
        "last_rank": 19721,
        "player_name": "Redi Dumani",
        "rank": 25669,
        "rank_sort": 25687,
        "total": 2373
      },
      {
        "club_badge_src": "https://fantasy.premierleague.com/gcs/plfpl-production-adobe-approved/plfpl-production/235879/0e5b44b5-6863-4073-b322-0eefa75e2e6c.png",
        "entry": 235879,
        "entry_name": "As\u2019n Villa",
        "event_total": 43,
        "has_played": true,
        "id": 1569525,
        "last_rank": 15164,
        "player_name": "Julien Schenk",
        "rank": 25669,
        "rank_sort": 25688,
        "total": 2373
      },
      {
        "club_badge_src": null,
        "entry": 275929,
        "entry_name": "TUNA13",
        "event_total": 68,
        "has_played": true,
        "id": 1836461,
        "last_rank": 31995,
        "player_name": "Marko Antunovic",
        "rank": 25669,
        "rank_sort": 25689,
        "total": 2373
      },
      {
        "club_badge_src": null,
        "entry": 281674,
        "entry_name": "GarNacho Cheese",
        "event_total": 57,
        "has_played": true,
        "id": 1874546,
        "last_rank": 25002,
        "player_name": "Isabelle Holmes",
        "rank": 25669,
        "rank_sort": 25690,
        "total": 2373
      },
      {
        "club_badge_src": null,
        "entry": 365618,
        "entry_name": "Dot dot dot",
        "event_total": 58,
        "has_played": true,
        "id": 2446787,
        "last_rank": 19544,
        "player_name": "Nathan Hall",
        "rank": 25669,
        "rank_sort": 25691,
        "total": 2373
      },
      {
        "club_badge_src": "https://fantasy.premierleague.com/gcs/plfpl-production-adobe-approved/plfpl-production/386393/41a8283d-412b-485d-a3ca-352609298cbf.png",
        "entry": 386393,
        "entry_name": "Risky Business",
        "event_total": 72,
        "has_played": true,
        "id": 2592176,
        "last_rank": 36624,
        "player_name": "Sujay Vetri",
        "rank": 25669,
        "rank_sort": 25692,
        "total": 2373
      },
      {
        "club_badge_src": "https://fantasy.premierleague.com/gcs/plfpl-production-adobe-approved/plfpl-production/414890/e9ede5c5-01c3-4f88-91e8-85b896288397.png",
        "entry": 414890,
        "entry_name": "Zesz\u0142oFantasy",
        "event_total": 60,
        "has_played": true,
        "id": 2781255,
        "last_rank": 24330,
        "player_name": "Robert Wolak",
        "rank": 25669,
        "rank_sort": 25693,
        "total": 2373
      },
      {
        "club_badge_src": null,
        "entry": 440863,
        "entry_name": "Tom Powell FC",
        "event_total": 75,
        "has_played": true,
        "id": 2956089,
        "last_rank": 45927,
        "player_name": "Tom Powell",
        "rank": 25669,
        "rank_sort": 25694,
        "total": 2373
      },
      {
        "club_badge_src": null,
        "entry": 513047,
        "entry_name": "Isak Newton",
        "event_total": 65,
        "has_played": true,
        "id": 3444904,
        "last_rank": 28906,
        "player_name": "Joshua Ng",
        "rank": 25669,
        "rank_sort": 25695,
        "total": 2373
      },
      {
        "club_badge_src": null,
        "entry": 559834,
        "entry_name": "She-moan Inzagi",
        "event_total": 62,
        "has_played": true,
        "id": 3767945,
        "last_rank": 29904,
        "player_name": "ARGHYA DANDA",
        "rank": 25669,
        "rank_sort": 25696,
        "total": 2373
      },
      {
        "club_badge_src": "https://fantasy.premierleague.com/gcs/plfpl-production-adobe-approved/plfpl-production/565156/05290a62-8362-4c61-be45-090b1ce1c38a.png",
        "entry": 565156,
        "entry_name": "Cinico",
        "event_total": 59,
        "has_played": true,
        "id": 3803946,
        "last_rank": 27020,
        "player_name": "Sindre Askeland",
        "rank": 25669,
        "rank_sort": 25697,
        "total": 2373
      },
      {
        "club_badge_src": null,
        "entry": 624775,
        "entry_name": "Escape from Alcaraz",
        "event_total": 70,
        "has_played": true,
        "id": 4222049,
        "last_rank": 34293,
        "player_name": "Daniel Leeming",
        "rank": 25669,
        "rank_sort": 25698,
        "total": 2373
      },
      {
        "club_badge_src": null,
        "entry": 629661,
        "entry_name": "M\u00f6rbyl\u00e5nga Beerducks",
        "event_total": 56,
        "has_played": true,
        "id": 4254868,
        "last_rank": 21159,
        "player_name": "Teodor Svensson",
        "rank": 25669,
        "rank_sort": 25699,
        "total": 2373
      },
      {
        "club_badge_src": null,
        "entry": 694598,
        "entry_name": "FC Phema",
        "event_total": 63,
        "has_played": true,
        "id": 4704381,
        "last_rank": 27020,
        "player_name": "Marcel van der Burg",
        "rank": 25669,
        "rank_sort": 25700,
        "total": 2373
      }
    ]
  }
}