{
  "last_updated_data": "2026-05-24T23:28:17Z",
  "league": {
    "admin_entry": null,
    "closed": false,
    "code_privacy": "p",
    "created": "2025-07-20T23:14:33.933835Z",
    "cup_league": 2815434,
    "has_cup": true,
    "id": 314,
    "league_type": "s",
    "max_entries": null,
    "name": "Overall",
    "rank": null,
    "scoring": "c",
    "start_event": 1
  },
  "new_entries": {
    "has_next": false,
    "page": 1,
    "results": []
  },
  "standings": {
    "has_next": true,
    "page": 1165,
    "results": [
      {
        "club_badge_src": null,
        "entry": 5715028,
        "entry_name": "Jo\u00e3o Me the Money",
        "event_total": 64,
        "has_played": true,
        "id": 44757866,
        "last_rank": 63724,
        "player_name": "Sverre Hoddevik",
        "rank": 58067,
        "rank_sort": 58201,
        "total": 2347
      },
      {
        "club_badge_src": "https://fantasy.premierleague.com/gcs/plfpl-production-adobe-approved/plfpl-production/5731311/65560a9e-147d-4153-afe9-d9b838a9aaf3.png",
        "entry": 5731311,
        "entry_name": "Crimpysnitch",
        "event_total": 60,
        "has_played": true,
        "id": 44899597,
        "last_rank": 64005,
        "player_name": "Marwan Obeid",
        "rank": 58067,
        "rank_sort": 58202,
        "total": 2347
      },
      {
        "club_badge_src": null,
        "entry": 5837424,
        "entry_name": "WejaFC",
        "event_total": 77,
        "has_played": true,
        "id": 45821124,
        "last_rank": 91835,
        "player_name": "Mohamed El hussamy",
        "rank": 58067,
        "rank_sort": 58203,
        "total": 2347
      },
      {
        "club_badge_src": "https://fantasy.premierleague.com/gcs/plfpl-production-adobe-approved/plfpl-production/5965427/09083dc0-cc20-42b9-81fe-a295ddc7f347.png",
        "entry": 5965427,
        "entry_name": "o_0",
        "event_total": 67,
        "has_played": true,
        "id": 46934846,
        "last_rank": 77999,
        "player_name": "Karen Li",
        "rank": 58067,
        "rank_sort": 58204,
        "total": 2347
      },
      {
        "club_badge_src": null,
        "entry": 6020173,
        "entry_name": "Gedo",
        "event_total": 60,
        "has_played": true,
        "id": 47478690,
        "last_rank": 57001,
        "player_name": "John Tawfik",
        "rank": 58067,
        "rank_sort": 58205,
        "total": 2347
      },
      {
        "club_badge_src": "https://fantasy.premierleague.com/gcs/plfpl-production-adobe-approved/plfpl-production/6070470/c6ad946e-1794-4874-9ba0-187d391d3bfb.png",
        "entry": 6070470,
        "entry_name": "Botman & Robben",
        "event_total": 66,
        "has_played": true,
        "id": 47918712,
        "last_rank": 76128,
        "player_name": "Lee Roberts",
        "rank": 58067,
        "rank_sort": 58206,
        "total": 2347
      },
      {
        "club_badge_src": "https://fantasy.premierleague.com/gcs/plfpl-production-adobe-approved/plfpl-production/6217168/935664ff-583b-4a06-9ff0-e31143311104.png",
        "entry": 6217168,
        "entry_name": "WANTAM",
        "event_total": 65,
        "has_played": true,
        "id": 49192202,
        "last_rank": 58388,
        "player_name": "Benny Boom",
        "rank": 58067,
        "rank_sort": 58207,
        "total": 2347
      },
      {
        "club_badge_src": null,
        "entry": 6284365,
        "entry_name": "lads on toure",
        "event_total": 49,
        "has_played": true,
        "id": 49778078,
        "last_rank": 46236,
        "player_name": "Josh Keim",
        "rank": 58067,
        "rank_sort": 58208,
        "total": 2347
      },
      {
        "club_badge_src": "https://fantasy.premierleague.com/gcs/plfpl-production-adobe-approved/plfpl-production/6505545/ec43d681-03b9-4a5b-a428-7e4182cca54a.png",
        "entry": 6505545,
        "entry_name": "Kizazi jeuri\u2b50\ufe0f",
        "event_total": 82,
        "has_played": true,
        "id": 51871255,
        "last_rank": 115760,
        "player_name": "rasul kadir",
        "rank": 58067,
        "rank_sort": 58209,
        "total": 2347
      },
      {
        "club_badge_src": null,
        "entry": 6749070,
        "entry_name": "Barlow Babes",
        "event_total": 49,
        "has_played": true,
        "id": 54029786,
        "last_rank": 46106,
        "player_name": "Ali Barlow",
        "rank": 58067,
        "rank_sort": 58210,
        "total": 2347
      },
      {
        "club_badge_src": null,
        "entry": 6799096,
        "entry_name": "CK's XI",
        "event_total": 59,
        "has_played": true,
        "id": 54448815,
        "last_rank": 62429,
        "player_name": "Colby Kwok",
        "rank": 58067,
        "rank_sort": 58211,
        "total": 2347
      },
      {
        "club_badge_src": null,
        "entry": 6862531,
        "entry_name": "Haalandaise Sauce",
        "event_total": 52,
        "has_played": true,
        "id": 54986190,
        "last_rank": 50635,
        "player_name": "Sean Rawlings",
        "rank": 58067,
        "rank_sort": 58212,
        "total": 2347
      },
      {
        "club_badge_src": null,
        "entry": 6970398,
        "entry_name": "\u0647\u0632\u064a\u0645 \u0627\u0644\u0631\u0639\u062f",
        "event_total": 73,
        "has_played": true,
        "id": 55914014,
        "last_rank": 91835,
        "player_name": "fawaz kayal",
        "rank": 58067,
        "rank_sort": 58213,
        "total": 2347
      },
      {
        "club_badge_src": null,
        "entry": 6984903,
        "entry_name": "Iyad stars",
        "event_total": 48,
        "has_played": true,
        "id": 56063173,
        "last_rank": 44672,
        "player_name": "Mohamed Asiri",
        "rank": 58067,
        "rank_sort": 58214,
        "total": 2347
      },
      {
        "club_badge_src": null,
        "entry": 7020500,
        "entry_name": "ARKE",
        "event_total": 52,
        "has_played": true,
        "id": 56392233,
        "last_rank": 50635,
        "player_name": "Arif Ziberi",
        "rank": 58067,
        "rank_sort": 58215,
        "total": 2347
      },
      {
        "club_badge_src": null,
        "entry": 7134864,
        "entry_name": "Cornish Scousers",
        "event_total": 55,
        "has_played": true,
        "id": 57507443,
        "last_rank": 48898,
        "player_name": "Matt Wills",
        "rank": 58067,
        "rank_sort": 58216,
        "total": 2347
      },
      {
        "club_badge_src": null,
        "entry": 7318073,
        "entry_name": "Steel Workers",
        "event_total": 57,
        "has_played": true,
        "id": 59246031,
        "last_rank": 39874,
        "player_name": "Ben Steel",
        "rank": 58067,
        "rank_sort": 58217,
        "total": 2347
      },
      {
        "club_badge_src": null,
        "entry": 7439598,
        "entry_name": "Ron\u2018s crew",
        "event_total": 78,
        "has_played": true,
        "id": 60497734,
        "last_rank": 94255,
        "player_name": "Janis E",
        "rank": 58067,
        "rank_sort": 58218,
        "total": 2347
      },
      {
        "club_badge_src": null,
        "entry": 7531818,
        "entry_name": "Cool Dudez",
        "event_total": 68,
        "has_played": true,
        "id": 61645219,
        "last_rank": 63724,
        "player_name": "Prasanna Dhakal",
        "rank": 58067,
        "rank_sort": 58219,
        "total": 2347
      },
      {
        "club_badge_src": null,
        "entry": 7770729,
        "entry_name": "Aribo Supermix",
        "event_total": 64,
        "has_played": true,
        "id": 63809515,
        "last_rank": 64005,
        "player_name": "Viki Blanarova",
        "rank": 58067,
        "rank_sort": 58220,
        "total": 2347
      },
      {
        "club_badge_src": null,
        "entry": 7828773,
        "entry_name": "Supeer",
        "event_total": 70,
        "has_played": true,
        "id": 64334113,
        "last_rank": 84360,
        "player_name": "Supeerii CHE",
        "rank": 58067,
        "rank_sort": 58221,
        "total": 2347
      },
      {
        "club_badge_src": null,
        "entry": 8142349,
        "entry_name": "Fc Sambo",
        "event_total": 72,
        "has_played": true,
        "id": 67197406,
        "last_rank": 89426,
        "player_name": "Aminu Sambo",
        "rank": 58067,
        "rank_sort": 58222,
        "total": 2347
      },
      {
        "club_badge_src": null,
        "entry": 8270231,
        "entry_name": "Tackle me Gently",
        "event_total": 81,
        "has_played": true,
        "id": 68416808,
        "last_rank": 111669,
        "player_name": "Jon Myhill",
        "rank": 58067,
        "rank_sort": 58223,
        "total": 2347
      },
      {
        "club_badge_src": "https://fantasy.premierleague.com/gcs/plfpl-production-adobe-approved/plfpl-production/8317782/3d2bb80d-dc56-460f-beb5-994fbca6eaf2.png",
        "entry": 8317782,
        "entry_name": "CUNHA DIG IT SAKA!",
        "event_total": 74,
        "has_played": true,
        "id": 68897640,
        "last_rank": 84731,
        "player_name": "robin bradshaw",
        "rank": 58067,
        "rank_sort": 58224,
        "total": 2347
      },
      {
        "club_badge_src": "https://fantasy.premierleague.com/gcs/plfpl-production-adobe-approved/plfpl-production/8378937/1f8245ab-487c-495b-9f9a-8b6c097593a3.png",
        "entry": 8378937,
        "entry_name": "Champy FC",
        "event_total": 45,
        "has_played": true,
        "id": 69480949,
        "last_rank": 40770,
        "player_name": "Kartik Balaji",
        "rank": 58067,
        "rank_sort": 58225,
        "total": 2347
      },
      {
        "club_badge_src": null,
        "entry": 9226685,
        "entry_name": "saleh kha",
        "event_total": 65,
        "has_played": true,
        "id": 77695653,
        "last_rank": 73975,
        "player_name": "Saleh Alkhalifa",
        "rank": 58067,
        "rank_sort": 58226,
        "total": 2347
      },
      {
        "club_badge_src": null,
        "entry": 1749,
        "entry_name": "@FPL_cz",
        "event_total": 54,
        "has_played": true,
        "id": 9742,
        "last_rank": 53952,
        "player_name": "David Neveceral --FPL-cz-",
        "rank": 58227,
        "rank_sort": 58227,
        "total": 2347
      },
      {
        "club_badge_src": null,
        "entry": 5399,
        "entry_name": "abcdeFC",
        "event_total": 46,
        "has_played": true,
        "id": 30771,
        "last_rank": 36963,
        "player_name": "Conor Mcgarrity",
        "rank": 58227,
        "rank_sort": 58228,
        "total": 2347
      },
      {
        "club_badge_src": null,
        "entry": 8302,
        "entry_name": "AFC Richmond",
        "event_total": 64,
        "has_played": true,
        "id": 48184,
        "last_rank": 64190,
        "player_name": "Jenny Lowe",
        "rank": 58227,
        "rank_sort": 58229,
        "total": 2347
      },
      {
        "club_badge_src": null,
        "entry": 23067,
        "entry_name": "AJFC",
        "event_total": 49,
        "has_played": true,
        "id": 145139,
        "last_rank": 46106,
        "player_name": "Gavin Webb",
        "rank": 58227,
        "rank_sort": 58230,
        "total": 2347
      },
      {
        "club_badge_src": null,
        "entry": 28140,
        "entry_name": "FPL Chair",
        "event_total": 69,
        "has_played": true,
        "id": 177956,
        "last_rank": 73975,
        "player_name": "Fanis Theofanidis",
        "rank": 58227,
        "rank_sort": 58231,
        "total": 2347
      },
      {
        "club_badge_src": null,
        "entry": 41409,
        "entry_name": "Horda Peruna",
        "event_total": 47,
        "has_played": true,
        "id": 265315,
        "last_rank": 43444,
        "player_name": "Bj\u00f8rn Ugle",
        "rank": 58227,
        "rank_sort": 58232,
        "total": 2347
      },
      {
        "club_badge_src": null,
        "entry": 42741,
        "entry_name": "DontLookBackElanga",
        "event_total": 47,
        "has_played": true,
        "id": 273779,
        "last_rank": 43444,
        "player_name": "Brad Hutton",
        "rank": 58227,
        "rank_sort": 58233,
        "total": 2347
      },
      {
        "club_badge_src": null,
        "entry": 46468,
        "entry_name": "ShowMeTheMoney",
        "event_total": 62,
        "has_played": true,
        "id": 297921,
        "last_rank": 60671,
        "player_name": "Andreas Thrasyvoulou",
        "rank": 58227,
        "rank_sort": 58234,
        "total": 2347
      },
      {
        "club_badge_src": null,
        "entry": 59129,
        "entry_name": "Gibby FC",
        "event_total": 52,
        "has_played": true,
        "id": 380821,
        "last_rank": 44672,
        "player_name": "Tom Gibbs",
        "rank": 58227,
        "rank_sort": 58235,
        "total": 2347
      },
      {
        "club_badge_src": null,
        "entry": 66843,
        "entry_name": "Lobby\u2019s Lads",
        "event_total": 65,
        "has_played": true,
        "id": 432469,
        "last_rank": 66057,
        "player_name": "Martin Lobb",
        "rank": 58227,
        "rank_sort": 58236,
        "total": 2347
      },
      {
        "club_badge_src": null,
        "entry": 67814,
        "entry_name": "The Philosopher",
        "event_total": 61,
        "has_played": true,
        "id": 439162,
        "last_rank": 65796,
        "player_name": "khalid alshaya",
        "rank": 58227,
        "rank_sort": 58237,
        "total": 2347
      },
      {
        "club_badge_src": null,
        "entry": 75603,
        "entry_name": "Veal Deal",
        "event_total": 50,
        "has_played": true,
        "id": 491550,
        "last_rank": 41967,
        "player_name": "Edward Veal",
        "rank": 58227,
        "rank_sort": 58238,
        "total": 2347
      },
      {
        "club_badge_src": null,
        "entry": 83881,
        "entry_name": "Visions of Onana",
        "event_total": 69,
        "has_played": true,
        "id": 546026,
        "last_rank": 65796,
        "player_name": "Luke Parr",
        "rank": 58227,
        "rank_sort": 58239,
        "total": 2347
      },
      {
        "club_badge_src": "https://fantasy.premierleague.com/gcs/plfpl-production-adobe-approved/plfpl-production/86998/379845c7-187f-4e6b-a338-e3bae11a5e3f.png",
        "entry": 86998,
        "entry_name": "LEGENDXI",
        "event_total": 56,
        "has_played": true,
        "id": 567207,
        "last_rank": 50635,
        "player_name": "ARUNAV RAY",
        "rank": 58227,
        "rank_sort": 58240,
        "total": 2347
      },
      {
        "club_badge_src": null,
        "entry": 88848,
        "entry_name": "LokomotivSkjoldtun",
        "event_total": 64,
        "has_played": true,
        "id": 579914,
        "last_rank": 72145,
        "player_name": "Tom Brakstad",
        "rank": 58227,
        "rank_sort": 58241,
        "total": 2347
      },
      {
        "club_badge_src": "https://fantasy.premierleague.com/gcs/plfpl-production-adobe-approved/plfpl-production/106633/228764d0-f107-4905-a8d8-41ce0bceda90.png",
        "entry": 106633,
        "entry_name": "kyle-BigDog",
        "event_total": 40,
        "has_played": true,
        "id": 695266,
        "last_rank": 30191,
        "player_name": "Kyle Bates",
        "rank": 58227,
        "rank_sort": 58242,
        "total": 2347
      },
      {
        "club_badge_src": null,
        "entry": 107208,
        "entry_name": "Kobbie and Paste",
        "event_total": 65,
        "has_played": true,
        "id": 698879,
        "last_rank": 66057,
        "player_name": "Sean Garcha",
        "rank": 58227,
        "rank_sort": 58243,
        "total": 2347
      },
      {
        "club_badge_src": null,
        "entry": 107780,
        "entry_name": "MozMoz",
        "event_total": 49,
        "has_played": true,
        "id": 702715,
        "last_rank": 40297,
        "player_name": "Mohamed El-hawary",
        "rank": 58227,
        "rank_sort": 58244,
        "total": 2347
      },
      {
        "club_badge_src": null,
        "entry": 109067,
        "entry_name": "Team Name",
        "event_total": 65,
        "has_played": true,
        "id": 711046,
        "last_rank": 66057,
        "player_name": "David Garcha",
        "rank": 58227,
        "rank_sort": 58245,
        "total": 2347
      },
      {
        "club_badge_src": null,
        "entry": 113951,
        "entry_name": "Atomic Gittens",
        "event_total": 56,
        "has_played": true,
        "id": 743274,
        "last_rank": 57200,
        "player_name": "Jack Donnelly",
        "rank": 58227,
        "rank_sort": 58246,
        "total": 2347
      },
      {
        "club_badge_src": "https://fantasy.premierleague.com/gcs/plfpl-production-adobe-approved/plfpl-production/126144/7e892e33-f945-4bd9-a019-a00bdf66c744.png",
        "entry": 126144,
        "entry_name": "El Ref",
        "event_total": 54,
        "has_played": true,
        "id": 822565,
        "last_rank": 53952,
        "player_name": "Sebastian Lozano",
        "rank": 58227,
        "rank_sort": 58247,
        "total": 2347
      },
      {
        "club_badge_src": null,
        "entry": 142499,
        "entry_name": "Flying Without Ings",
        "event_total": 54,
        "has_played": true,
        "id": 931705,
        "last_rank": 47596,
        "player_name": "Innes Shelley",
        "rank": 58227,
        "rank_sort": 58248,
        "total": 2347
      },
      {
        "club_badge_src": null,
        "entry": 143769,
        "entry_name": "arsenie boca juniors",
        "event_total": 67,
        "has_played": true,
        "id": 940690,
        "last_rank": 61950,
        "player_name": "Silviu Paduroiu",
        "rank": 58227,
        "rank_sort": 58249,
        "total": 2347
      },
      {
        "club_badge_src": null,
        "entry": 162220,
        "entry_name": "NewtonHeath",
        "event_total": 68,
        "has_played": true,
        "id": 1069201,
        "last_rank": 71956,
        "player_name": "Brede Stordalen Liavik",
        "rank": 58227,
        "rank_sort": 58250,
        "total": 2347
      }
    ]
  }
}