{
  "last_updated_data": "2026-05-24T23:28:17Z",
  "league": {
    "admin_entry": null,
    "closed": false,
    "code_privacy": "p",
    "created": "2025-07-20T23:14:33.933835Z",
    "cup_league": 2815434,
    "has_cup": true,
    "id": 314,
    "league_type": "s",
    "max_entries": null,
    "name": "Overall",
    "rank": null,
    "scoring": "c",
    "start_event": 1
  },
  "new_entries": {
    "has_next": false,
    "page": 1,
    "results": []
  },
  "standings": {
    "has_next": true,
    "page": 670,
    "results": [
      {
        "club_badge_src": null,
        "entry": 1468441,
        "entry_name": "Seriemester'n",
        "event_total": 62,
        "has_played": true,
        "id": 10235554,
        "last_rank": 34293,
        "player_name": "Mathias L\u00f8vli",
        "rank": 33382,
        "rank_sort": 33451,
        "total": 2365
      },
      {
        "club_badge_src": "https://fantasy.premierleague.com/gcs/plfpl-production-adobe-approved/plfpl-production/1736616/23c7daa4-b504-43da-a578-b7428ed3affc.png",
        "entry": 1736616,
        "entry_name": "Enter Team Name",
        "event_total": 44,
        "has_played": true,
        "id": 12183225,
        "last_rank": 21301,
        "player_name": "Jigar Dalia",
        "rank": 33382,
        "rank_sort": 33452,
        "total": 2365
      },
      {
        "club_badge_src": null,
        "entry": 1881585,
        "entry_name": "\ufffd\u0627\u0644\u0645\u0635\u0646\u0642\u0631\u064a\u0646\ufffd",
        "event_total": 50,
        "has_played": true,
        "id": 13257578,
        "last_rank": 26345,
        "player_name": "Wd Elzaki",
        "rank": 33382,
        "rank_sort": 33453,
        "total": 2365
      },
      {
        "club_badge_src": "https://fantasy.premierleague.com/gcs/plfpl-production-adobe-approved/plfpl-production/1915493/f0427a16-2f29-42c9-b866-d48bbae1ec5d.png",
        "entry": 1915493,
        "entry_name": "Ubuntu 11",
        "event_total": 63,
        "has_played": true,
        "id": 13505548,
        "last_rank": 40297,
        "player_name": "frank kofi obeng",
        "rank": 33382,
        "rank_sort": 33454,
        "total": 2365
      },
      {
        "club_badge_src": "https://fantasy.premierleague.com/gcs/plfpl-production-adobe-approved/plfpl-production/1955631/3fee712c-fc6b-44e9-a598-061a555de328.png",
        "entry": 1955631,
        "entry_name": "Aura Farmers",
        "event_total": 74,
        "has_played": true,
        "id": 13795862,
        "last_rank": 57001,
        "player_name": "Abrar Islam",
        "rank": 33382,
        "rank_sort": 33455,
        "total": 2365
      },
      {
        "club_badge_src": null,
        "entry": 1975471,
        "entry_name": "\u00d8fsteng FC",
        "event_total": 61,
        "has_played": true,
        "id": 13944194,
        "last_rank": 38016,
        "player_name": "Magnus \u00d8fsteng Olsen",
        "rank": 33382,
        "rank_sort": 33456,
        "total": 2365
      },
      {
        "club_badge_src": null,
        "entry": 2080402,
        "entry_name": "Abdou's XI",
        "event_total": 70,
        "has_played": true,
        "id": 14752077,
        "last_rank": 38774,
        "player_name": "@thereal abdouu",
        "rank": 33382,
        "rank_sort": 33457,
        "total": 2365
      },
      {
        "club_badge_src": null,
        "entry": 2159612,
        "entry_name": "DerrickLewis'sballz",
        "event_total": 75,
        "has_played": true,
        "id": 15352179,
        "last_rank": 58688,
        "player_name": "Luke Crerand",
        "rank": 33382,
        "rank_sort": 33458,
        "total": 2365
      },
      {
        "club_badge_src": null,
        "entry": 2159941,
        "entry_name": "\u570b\u7c73\u6372\u571f\u91cd\u4f86",
        "event_total": 61,
        "has_played": true,
        "id": 15354505,
        "last_rank": 33147,
        "player_name": "Taylor Wong",
        "rank": 33382,
        "rank_sort": 33459,
        "total": 2365
      },
      {
        "club_badge_src": null,
        "entry": 2171284,
        "entry_name": "Chancellor",
        "event_total": 50,
        "has_played": true,
        "id": 15438553,
        "last_rank": 22534,
        "player_name": "Akhil Lalwani",
        "rank": 33382,
        "rank_sort": 33460,
        "total": 2365
      },
      {
        "club_badge_src": null,
        "entry": 2247439,
        "entry_name": "FC BK",
        "event_total": 69,
        "has_played": true,
        "id": 16013784,
        "last_rank": 49078,
        "player_name": "Barry King",
        "rank": 33382,
        "rank_sort": 33461,
        "total": 2365
      },
      {
        "club_badge_src": null,
        "entry": 2265539,
        "entry_name": "Ryan Pessoa",
        "event_total": 67,
        "has_played": true,
        "id": 16153275,
        "last_rank": 35034,
        "player_name": "Ryan Pessoa",
        "rank": 33382,
        "rank_sort": 33462,
        "total": 2365
      },
      {
        "club_badge_src": null,
        "entry": 2273560,
        "entry_name": "Better Call Cole",
        "event_total": 49,
        "has_played": true,
        "id": 16211817,
        "last_rank": 21949,
        "player_name": "Amnon Gindi",
        "rank": 33382,
        "rank_sort": 33463,
        "total": 2365
      },
      {
        "club_badge_src": null,
        "entry": 2350004,
        "entry_name": "OKC You Later",
        "event_total": 52,
        "has_played": true,
        "id": 16767899,
        "last_rank": 27976,
        "player_name": "Greg Keogh",
        "rank": 33382,
        "rank_sort": 33464,
        "total": 2365
      },
      {
        "club_badge_src": null,
        "entry": 2450823,
        "entry_name": "Barton utd",
        "event_total": 56,
        "has_played": true,
        "id": 17528895,
        "last_rank": 32190,
        "player_name": "ANDY MASON",
        "rank": 33382,
        "rank_sort": 33465,
        "total": 2365
      },
      {
        "club_badge_src": null,
        "entry": 2524795,
        "entry_name": "GOOO",
        "event_total": 71,
        "has_played": true,
        "id": 18091421,
        "last_rank": 51984,
        "player_name": "Ahajai Haksv",
        "rank": 33382,
        "rank_sort": 33466,
        "total": 2365
      },
      {
        "club_badge_src": null,
        "entry": 2548243,
        "entry_name": "Crutch FC",
        "event_total": 62,
        "has_played": true,
        "id": 18266758,
        "last_rank": 39023,
        "player_name": "Ernest Nistl",
        "rank": 33382,
        "rank_sort": 33467,
        "total": 2365
      },
      {
        "club_badge_src": null,
        "entry": 2601784,
        "entry_name": "FC NIKITA",
        "event_total": 71,
        "has_played": true,
        "id": 18686902,
        "last_rank": 45714,
        "player_name": "Tihomir Nikitov",
        "rank": 33382,
        "rank_sort": 33468,
        "total": 2365
      },
      {
        "club_badge_src": null,
        "entry": 2814072,
        "entry_name": "Base Counters X1",
        "event_total": 45,
        "has_played": true,
        "id": 20554022,
        "last_rank": 22064,
        "player_name": "Jason Hicks",
        "rank": 33382,
        "rank_sort": 33469,
        "total": 2365
      },
      {
        "club_badge_src": null,
        "entry": 2837703,
        "entry_name": "kinder mbeumo",
        "event_total": 73,
        "has_played": true,
        "id": 20738519,
        "last_rank": 48363,
        "player_name": "Bryan Corcoran",
        "rank": 33382,
        "rank_sort": 33470,
        "total": 2365
      },
      {
        "club_badge_src": null,
        "entry": 2865527,
        "entry_name": "Kinder Mbuemo",
        "event_total": 70,
        "has_played": true,
        "id": 20957822,
        "last_rank": 44048,
        "player_name": "Owen Lloyd",
        "rank": 33382,
        "rank_sort": 33471,
        "total": 2365
      },
      {
        "club_badge_src": null,
        "entry": 2902872,
        "entry_name": "Monster Muppets",
        "event_total": 71,
        "has_played": true,
        "id": 21272915,
        "last_rank": 45714,
        "player_name": "Steinar Holtskog",
        "rank": 33382,
        "rank_sort": 33472,
        "total": 2365
      },
      {
        "club_badge_src": null,
        "entry": 2918523,
        "entry_name": "clockwork oranges",
        "event_total": 55,
        "has_played": true,
        "id": 21392455,
        "last_rank": 27020,
        "player_name": "Mikhail Mashtakov",
        "rank": 33382,
        "rank_sort": 33473,
        "total": 2365
      },
      {
        "club_badge_src": null,
        "entry": 3232458,
        "entry_name": "kinder mbuemo",
        "event_total": 66,
        "has_played": true,
        "id": 23907087,
        "last_rank": 34051,
        "player_name": "Marc Beard",
        "rank": 33382,
        "rank_sort": 33474,
        "total": 2365
      },
      {
        "club_badge_src": null,
        "entry": 3367198,
        "entry_name": "ragnhild tufteland",
        "event_total": 62,
        "has_played": true,
        "id": 24986918,
        "last_rank": 39246,
        "player_name": "Ragnhild Tufteland",
        "rank": 33382,
        "rank_sort": 33475,
        "total": 2365
      },
      {
        "club_badge_src": "https://fantasy.premierleague.com/gcs/plfpl-production-adobe-approved/plfpl-production/3418761/5b70b5fe-1fc9-4985-ba99-b54b2961224f.png",
        "entry": 3418761,
        "entry_name": "V-2 Schneider FC",
        "event_total": 63,
        "has_played": true,
        "id": 25393762,
        "last_rank": 35424,
        "player_name": "Conor Nolan",
        "rank": 33382,
        "rank_sort": 33476,
        "total": 2365
      },
      {
        "club_badge_src": null,
        "entry": 3478509,
        "entry_name": "Fee Fi Foden",
        "event_total": 66,
        "has_played": true,
        "id": 25864947,
        "last_rank": 44303,
        "player_name": "Luca Elder",
        "rank": 33382,
        "rank_sort": 33477,
        "total": 2365
      },
      {
        "club_badge_src": null,
        "entry": 3499456,
        "entry_name": "11 mesar & en Stahre",
        "event_total": 49,
        "has_played": true,
        "id": 26031049,
        "last_rank": 25330,
        "player_name": "M\u00e5rten Gustafsson",
        "rank": 33382,
        "rank_sort": 33478,
        "total": 2365
      },
      {
        "club_badge_src": "https://fantasy.premierleague.com/gcs/plfpl-production-adobe-approved/plfpl-production/3586042/55b2d66f-a696-42ed-8280-d0d3c8e2850c.png",
        "entry": 3586042,
        "entry_name": "Ayew KonsaCrated?",
        "event_total": 62,
        "has_played": true,
        "id": 26705983,
        "last_rank": 29688,
        "player_name": "Samuel Belawu",
        "rank": 33382,
        "rank_sort": 33479,
        "total": 2365
      },
      {
        "club_badge_src": null,
        "entry": 3741587,
        "entry_name": "Butsy's Bears",
        "event_total": 43,
        "has_played": true,
        "id": 27930410,
        "last_rank": 20538,
        "player_name": "Alex Butler",
        "rank": 33382,
        "rank_sort": 33480,
        "total": 2365
      },
      {
        "club_badge_src": null,
        "entry": 3926914,
        "entry_name": "Bagfry Boys",
        "event_total": 60,
        "has_played": true,
        "id": 29532453,
        "last_rank": 36624,
        "player_name": "Nicholas Gale",
        "rank": 33382,
        "rank_sort": 33481,
        "total": 2365
      },
      {
        "club_badge_src": null,
        "entry": 3962834,
        "entry_name": "Maksa@llas",
        "event_total": 25,
        "has_played": true,
        "id": 29817326,
        "last_rank": 10102,
        "player_name": "Matti Nieminen",
        "rank": 33382,
        "rank_sort": 33482,
        "total": 2365
      },
      {
        "club_badge_src": null,
        "entry": 4095436,
        "entry_name": "Bruno Dos Tres",
        "event_total": 76,
        "has_played": true,
        "id": 30922784,
        "last_rank": 46839,
        "player_name": "Nicholas Willey",
        "rank": 33382,
        "rank_sort": 33483,
        "total": 2365
      },
      {
        "club_badge_src": null,
        "entry": 4173784,
        "entry_name": "FC G\u0141USZYNA",
        "event_total": 49,
        "has_played": true,
        "id": 31568784,
        "last_rank": 21949,
        "player_name": "Cezary Gawry\u015b",
        "rank": 33382,
        "rank_sort": 33484,
        "total": 2365
      },
      {
        "club_badge_src": "https://fantasy.premierleague.com/gcs/plfpl-production-adobe-approved/plfpl-production/4260687/c4d3c6e8-2406-4058-b588-14f8c22e7708.png",
        "entry": 4260687,
        "entry_name": "Gunnerwinagain",
        "event_total": 61,
        "has_played": true,
        "id": 32304318,
        "last_rank": 33147,
        "player_name": "brian graff",
        "rank": 33382,
        "rank_sort": 33485,
        "total": 2365
      },
      {
        "club_badge_src": null,
        "entry": 4329580,
        "entry_name": "Wirtzburger Kickers",
        "event_total": 50,
        "has_played": true,
        "id": 32863571,
        "last_rank": 26230,
        "player_name": "Andy Ramsden",
        "rank": 33382,
        "rank_sort": 33486,
        "total": 2365
      },
      {
        "club_badge_src": "https://fantasy.premierleague.com/gcs/plfpl-production-adobe-approved/plfpl-production/4368119/983afb58-1040-44e1-84d9-6e859dd524e3.png",
        "entry": 4368119,
        "entry_name": "KobesFC",
        "event_total": 64,
        "has_played": true,
        "id": 33183166,
        "last_rank": 36348,
        "player_name": "Aaron Kobes",
        "rank": 33382,
        "rank_sort": 33487,
        "total": 2365
      },
      {
        "club_badge_src": null,
        "entry": 4559963,
        "entry_name": "The United",
        "event_total": 55,
        "has_played": true,
        "id": 34795563,
        "last_rank": 31125,
        "player_name": "Thi Hoang",
        "rank": 33382,
        "rank_sort": 33488,
        "total": 2365
      },
      {
        "club_badge_src": null,
        "entry": 4570460,
        "entry_name": "Olavi Wirtza",
        "event_total": 63,
        "has_played": true,
        "id": 34880159,
        "last_rank": 40036,
        "player_name": "Matti Lepp\u00e4nen",
        "rank": 33382,
        "rank_sort": 33489,
        "total": 2365
      },
      {
        "club_badge_src": null,
        "entry": 4572982,
        "entry_name": "\u0e40\u0e1b\u0e34\u0e14\u0e42\u0e2b\u0e21\u0e48\u0e07",
        "event_total": 69,
        "has_played": true,
        "id": 34902761,
        "last_rank": 48642,
        "player_name": "Bancha Leenatham",
        "rank": 33382,
        "rank_sort": 33490,
        "total": 2365
      },
      {
        "club_badge_src": "https://fantasy.premierleague.com/gcs/plfpl-production-adobe-approved/plfpl-production/4676145/a1c608d1-2f68-4a06-82eb-6a8452b26a64.png",
        "entry": 4676145,
        "entry_name": "ItsAllGoneShaneLong",
        "event_total": 53,
        "has_played": true,
        "id": 35822891,
        "last_rank": 25002,
        "player_name": "Shane Budworth",
        "rank": 33382,
        "rank_sort": 33491,
        "total": 2365
      },
      {
        "club_badge_src": null,
        "entry": 4765512,
        "entry_name": "Slot Machine",
        "event_total": 56,
        "has_played": true,
        "id": 36676556,
        "last_rank": 31620,
        "player_name": "Atuba Sean",
        "rank": 33382,
        "rank_sort": 33492,
        "total": 2365
      },
      {
        "club_badge_src": null,
        "entry": 4919220,
        "entry_name": "Ave' It FC!",
        "event_total": 60,
        "has_played": true,
        "id": 37942507,
        "last_rank": 36624,
        "player_name": "Phoebe Harland-Kirk",
        "rank": 33382,
        "rank_sort": 33493,
        "total": 2365
      },
      {
        "club_badge_src": null,
        "entry": 5082475,
        "entry_name": "Bobcats",
        "event_total": 62,
        "has_played": true,
        "id": 39281252,
        "last_rank": 39023,
        "player_name": "Robert Bowen",
        "rank": 33382,
        "rank_sort": 33494,
        "total": 2365
      },
      {
        "club_badge_src": null,
        "entry": 5224209,
        "entry_name": "HANOOK",
        "event_total": 65,
        "has_played": true,
        "id": 40479480,
        "last_rank": 37822,
        "player_name": "Ahmed Al-darraji",
        "rank": 33382,
        "rank_sort": 33495,
        "total": 2365
      },
      {
        "club_badge_src": "https://fantasy.premierleague.com/gcs/plfpl-production-adobe-approved/plfpl-production/5367223/c4afb522-0a27-4b33-b4e6-030a92cb014e.png",
        "entry": 5367223,
        "entry_name": "Deep Crisp & Even FC",
        "event_total": 57,
        "has_played": true,
        "id": 41697692,
        "last_rank": 33332,
        "player_name": "Deb Durie",
        "rank": 33382,
        "rank_sort": 33496,
        "total": 2365
      },
      {
        "club_badge_src": null,
        "entry": 5653207,
        "entry_name": "Another Round",
        "event_total": 76,
        "has_played": true,
        "id": 44224382,
        "last_rank": 60168,
        "player_name": "Jon Round",
        "rank": 33382,
        "rank_sort": 33497,
        "total": 2365
      },
      {
        "club_badge_src": "https://fantasy.premierleague.com/gcs/plfpl-production-adobe-approved/plfpl-production/5673019/6ef50c8b-d0ca-4707-b3cf-d92d75c170f8.png",
        "entry": 5673019,
        "entry_name": "Gyok not th@ Kai pal",
        "event_total": 51,
        "has_played": true,
        "id": 44394863,
        "last_rank": 27203,
        "player_name": "Jake Horn",
        "rank": 33382,
        "rank_sort": 33498,
        "total": 2365
      },
      {
        "club_badge_src": "https://fantasy.premierleague.com/gcs/plfpl-production-adobe-approved/plfpl-production/5823454/961f48db-674c-40bf-b344-6c6f77118977.png",
        "entry": 5823454,
        "entry_name": "Frith Flutter",
        "event_total": 68,
        "has_played": true,
        "id": 45702330,
        "last_rank": 47163,
        "player_name": "Patrick Frith",
        "rank": 33382,
        "rank_sort": 33499,
        "total": 2365
      },
      {
        "club_badge_src": null,
        "entry": 5920263,
        "entry_name": "SoColdGoals",
        "event_total": 68,
        "has_played": true,
        "id": 46532249,
        "last_rank": 47417,
        "player_name": "Solomon Attah",
        "rank": 33382,
        "rank_sort": 33500,
        "total": 2365
      }
    ]
  }
}