{
  "last_updated_data": "2026-05-24T23:28:17Z",
  "league": {
    "admin_entry": null,
    "closed": false,
    "code_privacy": "p",
    "created": "2025-07-20T23:14:33.933835Z",
    "cup_league": 2815434,
    "has_cup": true,
    "id": 314,
    "league_type": "s",
    "max_entries": null,
    "name": "Overall",
    "rank": null,
    "scoring": "c",
    "start_event": 1
  },
  "new_entries": {
    "has_next": false,
    "page": 1,
    "results": []
  },
  "standings": {
    "has_next": true,
    "page": 1144,
    "results": [
      {
        "club_badge_src": null,
        "entry": 536089,
        "entry_name": "SOCCER ALL-STARS",
        "event_total": 73,
        "has_played": true,
        "id": 3608078,
        "last_rank": 90524,
        "player_name": "Matthew Reynolds",
        "rank": 57135,
        "rank_sort": 57151,
        "total": 2347
      },
      {
        "club_badge_src": null,
        "entry": 596760,
        "entry_name": "Slot Machine",
        "event_total": 87,
        "has_played": true,
        "id": 4023907,
        "last_rank": 129506,
        "player_name": "Henrik Eskevik",
        "rank": 57135,
        "rank_sort": 57152,
        "total": 2347
      },
      {
        "club_badge_src": null,
        "entry": 687436,
        "entry_name": "DaD's BoIS",
        "event_total": 69,
        "has_played": true,
        "id": 4653872,
        "last_rank": 81420,
        "player_name": "Andreas Westerberg",
        "rank": 57135,
        "rank_sort": 57153,
        "total": 2347
      },
      {
        "club_badge_src": null,
        "entry": 706925,
        "entry_name": "GoalPalmerGoalPedro",
        "event_total": 79,
        "has_played": true,
        "id": 4791022,
        "last_rank": 105963,
        "player_name": "Bukola Soyombo",
        "rank": 57135,
        "rank_sort": 57154,
        "total": 2347
      },
      {
        "club_badge_src": null,
        "entry": 813579,
        "entry_name": "Iwobi Wan Kenobi",
        "event_total": 62,
        "has_played": true,
        "id": 5571069,
        "last_rank": 66738,
        "player_name": "Joshua McCabe",
        "rank": 57135,
        "rank_sort": 57155,
        "total": 2347
      },
      {
        "club_badge_src": null,
        "entry": 914197,
        "entry_name": "It could be wirtz",
        "event_total": 54,
        "has_played": true,
        "id": 6286243,
        "last_rank": 52853,
        "player_name": "Elliott Irwin",
        "rank": 57135,
        "rank_sort": 57156,
        "total": 2347
      },
      {
        "club_badge_src": null,
        "entry": 1033766,
        "entry_name": "WHUEuropeanChamps",
        "event_total": 62,
        "has_played": true,
        "id": 7153362,
        "last_rank": 67063,
        "player_name": "Seb Byers",
        "rank": 57135,
        "rank_sort": 57157,
        "total": 2347
      },
      {
        "club_badge_src": null,
        "entry": 1056369,
        "entry_name": "Ayew serious?",
        "event_total": 38,
        "has_played": true,
        "id": 7310640,
        "last_rank": 31747,
        "player_name": "Daniel Holmen Syre",
        "rank": 57135,
        "rank_sort": 57158,
        "total": 2347
      },
      {
        "club_badge_src": null,
        "entry": 1192908,
        "entry_name": "Palmer Regele",
        "event_total": 72,
        "has_played": true,
        "id": 8276827,
        "last_rank": 88249,
        "player_name": "Daniel Bulimac",
        "rank": 57135,
        "rank_sort": 57159,
        "total": 2347
      },
      {
        "club_badge_src": null,
        "entry": 1300325,
        "entry_name": "Bruno Dos Tres",
        "event_total": 52,
        "has_played": true,
        "id": 9037153,
        "last_rank": 49880,
        "player_name": "Raunak Sunder",
        "rank": 57135,
        "rank_sort": 57160,
        "total": 2347
      },
      {
        "club_badge_src": "https://fantasy.premierleague.com/gcs/plfpl-production-adobe-approved/plfpl-production/1406696/3bcbecd8-1255-4e47-a08a-13ec0b49348e.png",
        "entry": 1406696,
        "entry_name": "What is the charge?",
        "event_total": 74,
        "has_played": true,
        "id": 9787811,
        "last_rank": 93186,
        "player_name": "Harry Monaghan",
        "rank": 57135,
        "rank_sort": 57161,
        "total": 2347
      },
      {
        "club_badge_src": null,
        "entry": 1598831,
        "entry_name": "Hala Madrid",
        "event_total": 68,
        "has_played": true,
        "id": 11184865,
        "last_rank": 79431,
        "player_name": "Mohammed BENTALEB",
        "rank": 57135,
        "rank_sort": 57162,
        "total": 2347
      },
      {
        "club_badge_src": null,
        "entry": 1785869,
        "entry_name": "Moudi Jr",
        "event_total": 50,
        "has_played": true,
        "id": 12547985,
        "last_rank": 46839,
        "player_name": "mohamed mussa",
        "rank": 57135,
        "rank_sort": 57163,
        "total": 2347
      },
      {
        "club_badge_src": null,
        "entry": 1882494,
        "entry_name": "Mammas Pojkar BK",
        "event_total": 59,
        "has_played": true,
        "id": 13264066,
        "last_rank": 61411,
        "player_name": "Elina \u00c5kerlind",
        "rank": 57135,
        "rank_sort": 57164,
        "total": 2347
      },
      {
        "club_badge_src": null,
        "entry": 1924922,
        "entry_name": "Ianos Army",
        "event_total": 67,
        "has_played": true,
        "id": 13575516,
        "last_rank": 76947,
        "player_name": "Ian O'Rourke",
        "rank": 57135,
        "rank_sort": 57165,
        "total": 2347
      },
      {
        "club_badge_src": null,
        "entry": 2046662,
        "entry_name": "RMA.DZ",
        "event_total": 63,
        "has_played": true,
        "id": 14495125,
        "last_rank": 68748,
        "player_name": "med reffada",
        "rank": 57135,
        "rank_sort": 57166,
        "total": 2347
      },
      {
        "club_badge_src": null,
        "entry": 2150342,
        "entry_name": "kemovetsh",
        "event_total": 63,
        "has_played": true,
        "id": 15284547,
        "last_rank": 68957,
        "player_name": "Kareem samy",
        "rank": 57135,
        "rank_sort": 57167,
        "total": 2347
      },
      {
        "club_badge_src": null,
        "entry": 2256736,
        "entry_name": "Kinder Mbeumo",
        "event_total": 67,
        "has_played": true,
        "id": 16087239,
        "last_rank": 76908,
        "player_name": "Rikki Morris",
        "rank": 57135,
        "rank_sort": 57168,
        "total": 2347
      },
      {
        "club_badge_src": null,
        "entry": 2274961,
        "entry_name": "L\u00e6ik FC",
        "event_total": 45,
        "has_played": true,
        "id": 16222190,
        "last_rank": 40036,
        "player_name": "Olav Hansen",
        "rank": 57135,
        "rank_sort": 57169,
        "total": 2347
      },
      {
        "club_badge_src": null,
        "entry": 2346896,
        "entry_name": "Panic@The\u0160e\u0161ko",
        "event_total": 61,
        "has_played": true,
        "id": 16745920,
        "last_rank": 64943,
        "player_name": "Ryan Doyle",
        "rank": 57135,
        "rank_sort": 57170,
        "total": 2347
      },
      {
        "club_badge_src": "https://fantasy.premierleague.com/gcs/plfpl-production-adobe-approved/plfpl-production/2425146/5ee90a81-2286-45a6-9375-227b6156d7d2.png",
        "entry": 2425146,
        "entry_name": "Ha-Cunha Mateta",
        "event_total": 70,
        "has_played": true,
        "id": 17340160,
        "last_rank": 83698,
        "player_name": "Clement Paul",
        "rank": 57135,
        "rank_sort": 57171,
        "total": 2347
      },
      {
        "club_badge_src": null,
        "entry": 2471397,
        "entry_name": "Slot drop",
        "event_total": 53,
        "has_played": true,
        "id": 17680262,
        "last_rank": 51137,
        "player_name": "ben newton",
        "rank": 57135,
        "rank_sort": 57172,
        "total": 2347
      },
      {
        "club_badge_src": null,
        "entry": 2663017,
        "entry_name": "FC Real Sektor",
        "event_total": 50,
        "has_played": true,
        "id": 19143318,
        "last_rank": 46839,
        "player_name": "Adin Alihodzic",
        "rank": 57135,
        "rank_sort": 57173,
        "total": 2347
      },
      {
        "club_badge_src": null,
        "entry": 2666817,
        "entry_name": "Jet",
        "event_total": 54,
        "has_played": true,
        "id": 19172230,
        "last_rank": 53023,
        "player_name": "Jetanich Tangpianpant",
        "rank": 57135,
        "rank_sort": 57174,
        "total": 2347
      },
      {
        "club_badge_src": "https://fantasy.premierleague.com/gcs/plfpl-production-adobe-approved/plfpl-production/2779419/d22ec25a-42e5-491f-9cb7-94c88c330551.png",
        "entry": 2779419,
        "entry_name": "WirtzCaseScenario",
        "event_total": 50,
        "has_played": true,
        "id": 20285060,
        "last_rank": 46660,
        "player_name": "Brett Thomson",
        "rank": 57135,
        "rank_sort": 57175,
        "total": 2347
      },
      {
        "club_badge_src": null,
        "entry": 2972388,
        "entry_name": "PBT United FC",
        "event_total": 45,
        "has_played": true,
        "id": 21839926,
        "last_rank": 40036,
        "player_name": "Per Bakke Torjesen",
        "rank": 57135,
        "rank_sort": 57176,
        "total": 2347
      },
      {
        "club_badge_src": null,
        "entry": 3019070,
        "entry_name": "Napa\u0107eni",
        "event_total": 60,
        "has_played": true,
        "id": 22212514,
        "last_rank": 63201,
        "player_name": "Marko Zirdum",
        "rank": 57135,
        "rank_sort": 57177,
        "total": 2347
      },
      {
        "club_badge_src": "https://fantasy.premierleague.com/gcs/plfpl-production-adobe-approved/plfpl-production/3182006/1892b55d-ec1e-4ce6-9386-bbe7f6793763.png",
        "entry": 3182006,
        "entry_name": "Fudbalski Klub Boris",
        "event_total": 30,
        "has_played": true,
        "id": 23513664,
        "last_rank": 24039,
        "player_name": "Boris Kovacevic",
        "rank": 57135,
        "rank_sort": 57178,
        "total": 2347
      },
      {
        "club_badge_src": null,
        "entry": 3197696,
        "entry_name": "Zinfandel Zidane",
        "event_total": 55,
        "has_played": true,
        "id": 23636277,
        "last_rank": 54667,
        "player_name": "Danny Holt",
        "rank": 57135,
        "rank_sort": 57179,
        "total": 2347
      },
      {
        "club_badge_src": null,
        "entry": 3247903,
        "entry_name": "A.C melon",
        "event_total": 72,
        "has_played": true,
        "id": 24028495,
        "last_rank": 88594,
        "player_name": "Andrew carden",
        "rank": 57135,
        "rank_sort": 57180,
        "total": 2347
      },
      {
        "club_badge_src": null,
        "entry": 3621408,
        "entry_name": "Los Milos Hermanos",
        "event_total": 45,
        "has_played": true,
        "id": 26981596,
        "last_rank": 40036,
        "player_name": "Kukovics Mih\u00e1ly",
        "rank": 57135,
        "rank_sort": 57181,
        "total": 2347
      },
      {
        "club_badge_src": null,
        "entry": 3672490,
        "entry_name": "Boyz n dahoud",
        "event_total": 64,
        "has_played": true,
        "id": 27390162,
        "last_rank": 70651,
        "player_name": "Matthew Hamilton",
        "rank": 57135,
        "rank_sort": 57182,
        "total": 2347
      },
      {
        "club_badge_src": null,
        "entry": 3761754,
        "entry_name": "Maretimo Marauders",
        "event_total": 48,
        "has_played": true,
        "id": 28086993,
        "last_rank": 43849,
        "player_name": "Alan Sutton",
        "rank": 57135,
        "rank_sort": 57183,
        "total": 2347
      },
      {
        "club_badge_src": "https://fantasy.premierleague.com/gcs/plfpl-production-adobe-approved/plfpl-production/4013300/87f34ee9-743a-40e0-a39c-887fdd79c9ce.png",
        "entry": 4013300,
        "entry_name": "The Cherki Boys",
        "event_total": 57,
        "has_played": true,
        "id": 30241503,
        "last_rank": 57776,
        "player_name": "David Smyth",
        "rank": 57135,
        "rank_sort": 57184,
        "total": 2347
      },
      {
        "club_badge_src": null,
        "entry": 4285840,
        "entry_name": "Baby Reijnder",
        "event_total": 60,
        "has_played": true,
        "id": 32507897,
        "last_rank": 56069,
        "player_name": "Alex Vivian",
        "rank": 57135,
        "rank_sort": 57185,
        "total": 2347
      },
      {
        "club_badge_src": null,
        "entry": 4371247,
        "entry_name": "Merksplas city",
        "event_total": 54,
        "has_played": true,
        "id": 33209338,
        "last_rank": 52853,
        "player_name": "Chiel Roefs",
        "rank": 57135,
        "rank_sort": 57186,
        "total": 2347
      },
      {
        "club_badge_src": null,
        "entry": 4455506,
        "entry_name": "Laget mitt",
        "event_total": 53,
        "has_played": true,
        "id": 33939908,
        "last_rank": 51112,
        "player_name": "Lene Skruklien",
        "rank": 57135,
        "rank_sort": 57187,
        "total": 2347
      },
      {
        "club_badge_src": null,
        "entry": 4475659,
        "entry_name": "John FC",
        "event_total": 65,
        "has_played": true,
        "id": 34108173,
        "last_rank": 72662,
        "player_name": "Jack Robson",
        "rank": 57135,
        "rank_sort": 57188,
        "total": 2347
      },
      {
        "club_badge_src": null,
        "entry": 4533047,
        "entry_name": "Dark Knights",
        "event_total": 68,
        "has_played": true,
        "id": 34578549,
        "last_rank": 79079,
        "player_name": "naseem Abul",
        "rank": 57135,
        "rank_sort": 57189,
        "total": 2347
      },
      {
        "club_badge_src": null,
        "entry": 4598214,
        "entry_name": "Goalgasm FC",
        "event_total": 67,
        "has_played": true,
        "id": 35120816,
        "last_rank": 76947,
        "player_name": "Ramkumar Srinivasan",
        "rank": 57135,
        "rank_sort": 57190,
        "total": 2347
      },
      {
        "club_badge_src": null,
        "entry": 4734179,
        "entry_name": "on the bench",
        "event_total": 46,
        "has_played": true,
        "id": 36423583,
        "last_rank": 41101,
        "player_name": "James Snow",
        "rank": 57135,
        "rank_sort": 57191,
        "total": 2347
      },
      {
        "club_badge_src": null,
        "entry": 5010060,
        "entry_name": "Mo with the Flo",
        "event_total": 44,
        "has_played": true,
        "id": 38688387,
        "last_rank": 38774,
        "player_name": "Amar Mistry",
        "rank": 57135,
        "rank_sort": 57192,
        "total": 2347
      },
      {
        "club_badge_src": null,
        "entry": 5242551,
        "entry_name": "AwAkeNinG",
        "event_total": 60,
        "has_played": true,
        "id": 40628768,
        "last_rank": 63201,
        "player_name": "Brian Cheng",
        "rank": 57135,
        "rank_sort": 57193,
        "total": 2347
      },
      {
        "club_badge_src": null,
        "entry": 5292266,
        "entry_name": "DTF T\u00f6l\u00f6 klubben",
        "event_total": 65,
        "has_played": true,
        "id": 41022179,
        "last_rank": 72815,
        "player_name": "Luukas Kumpulainen",
        "rank": 57135,
        "rank_sort": 57194,
        "total": 2347
      },
      {
        "club_badge_src": null,
        "entry": 5299241,
        "entry_name": "Tap ins & Screamers",
        "event_total": 60,
        "has_played": true,
        "id": 41077090,
        "last_rank": 63080,
        "player_name": "Henry N",
        "rank": 57135,
        "rank_sort": 57195,
        "total": 2347
      },
      {
        "club_badge_src": null,
        "entry": 5442308,
        "entry_name": "Mainoo Attraction",
        "event_total": 50,
        "has_played": true,
        "id": 42343401,
        "last_rank": 46660,
        "player_name": "Bradley Aljoe",
        "rank": 57135,
        "rank_sort": 57196,
        "total": 2347
      },
      {
        "club_badge_src": "https://fantasy.premierleague.com/gcs/plfpl-production-adobe-approved/plfpl-production/5515732/c926d6c3-d7aa-4fc0-9dab-69df93e57af8.png",
        "entry": 5515732,
        "entry_name": "Llandeloy Elite",
        "event_total": 67,
        "has_played": true,
        "id": 43001757,
        "last_rank": 76908,
        "player_name": "Neil Thomas",
        "rank": 57135,
        "rank_sort": 57197,
        "total": 2347
      },
      {
        "club_badge_src": null,
        "entry": 5565480,
        "entry_name": "HS Ekitokky",
        "event_total": 34,
        "has_played": true,
        "id": 43454098,
        "last_rank": 27770,
        "player_name": "A Lorgat",
        "rank": 57135,
        "rank_sort": 57198,
        "total": 2347
      },
      {
        "club_badge_src": null,
        "entry": 5576754,
        "entry_name": "Ospina Colada",
        "event_total": 63,
        "has_played": true,
        "id": 43552000,
        "last_rank": 68624,
        "player_name": "Jake Coleman",
        "rank": 57135,
        "rank_sort": 57199,
        "total": 2347
      },
      {
        "club_badge_src": null,
        "entry": 5591164,
        "entry_name": "Golden 11",
        "event_total": 55,
        "has_played": true,
        "id": 43680146,
        "last_rank": 54494,
        "player_name": "Samuel Golden",
        "rank": 57135,
        "rank_sort": 57200,
        "total": 2347
      }
    ]
  }
}