{
  "last_updated_data": "2026-05-24T23:28:17Z",
  "league": {
    "admin_entry": null,
    "closed": false,
    "code_privacy": "p",
    "created": "2025-07-20T23:14:33.933835Z",
    "cup_league": 2815434,
    "has_cup": true,
    "id": 314,
    "league_type": "s",
    "max_entries": null,
    "name": "Overall",
    "rank": null,
    "scoring": "c",
    "start_event": 1
  },
  "new_entries": {
    "has_next": false,
    "page": 1,
    "results": []
  },
  "standings": {
    "has_next": true,
    "page": 1328,
    "results": [
      {
        "club_badge_src": null,
        "entry": 27989,
        "entry_name": "Boughitown2",
        "event_total": 56,
        "has_played": true,
        "id": 177006,
        "last_rank": 65796,
        "player_name": "HADJI Rabie",
        "rank": 66338,
        "rank_sort": 66351,
        "total": 2342
      },
      {
        "club_badge_src": "https://fantasy.premierleague.com/gcs/plfpl-production-adobe-approved/plfpl-production/28970/6967cf06-73e8-445e-9c40-2bb089dd0ecf.png",
        "entry": 28970,
        "entry_name": "ViveTEAM",
        "event_total": 58,
        "has_played": true,
        "id": 183155,
        "last_rank": 69323,
        "player_name": "Adam Broda",
        "rank": 66338,
        "rank_sort": 66352,
        "total": 2342
      },
      {
        "club_badge_src": "https://fantasy.premierleague.com/gcs/plfpl-production-adobe-approved/plfpl-production/30398/215923d8-7edd-49d8-9383-8c7ce7551a15.png",
        "entry": 30398,
        "entry_name": "Preston's Pigs",
        "event_total": 60,
        "has_played": true,
        "id": 192373,
        "last_rank": 65163,
        "player_name": "Conor Preston",
        "rank": 66338,
        "rank_sort": 66353,
        "total": 2342
      },
      {
        "club_badge_src": null,
        "entry": 31935,
        "entry_name": "Orchard",
        "event_total": 66,
        "has_played": true,
        "id": 202792,
        "last_rank": 86304,
        "player_name": "Tony Chan",
        "rank": 66338,
        "rank_sort": 66354,
        "total": 2342
      },
      {
        "club_badge_src": "https://fantasy.premierleague.com/gcs/plfpl-production-adobe-approved/plfpl-production/33396/240b9aa0-63ad-4452-bee1-64e937712e96.png",
        "entry": 33396,
        "entry_name": "Red Nosed Reijnders",
        "event_total": 60,
        "has_played": true,
        "id": 212963,
        "last_rank": 65163,
        "player_name": "Kenneth Daly",
        "rank": 66338,
        "rank_sort": 66355,
        "total": 2342
      },
      {
        "club_badge_src": "https://fantasy.premierleague.com/gcs/plfpl-production-adobe-approved/plfpl-production/37102/063a76ba-2b70-43ac-82e0-a2beef76f352.png",
        "entry": 37102,
        "entry_name": "The Highs and Dalots",
        "event_total": 60,
        "has_played": true,
        "id": 237593,
        "last_rank": 65163,
        "player_name": "Joe Daly",
        "rank": 66338,
        "rank_sort": 66356,
        "total": 2342
      },
      {
        "club_badge_src": null,
        "entry": 38560,
        "entry_name": "FC Olri",
        "event_total": 52,
        "has_played": true,
        "id": 247160,
        "last_rank": 58388,
        "player_name": "Sam Abbandonato",
        "rank": 66338,
        "rank_sort": 66357,
        "total": 2342
      },
      {
        "club_badge_src": null,
        "entry": 42683,
        "entry_name": "Fantasy Goat",
        "event_total": 62,
        "has_played": true,
        "id": 273429,
        "last_rank": 77676,
        "player_name": "Nadhrah Azmi",
        "rank": 66338,
        "rank_sort": 66358,
        "total": 2342
      },
      {
        "club_badge_src": "https://fantasy.premierleague.com/gcs/plfpl-production-adobe-approved/plfpl-production/52658/e91853a0-2625-4156-923f-be0179689d56.png",
        "entry": 52658,
        "entry_name": "TeRMiNaTe",
        "event_total": 60,
        "has_played": true,
        "id": 338607,
        "last_rank": 72702,
        "player_name": "Vladislav Dimitrov",
        "rank": 66338,
        "rank_sort": 66359,
        "total": 2342
      },
      {
        "club_badge_src": null,
        "entry": 67860,
        "entry_name": "Ayman97",
        "event_total": 60,
        "has_played": true,
        "id": 439469,
        "last_rank": 65163,
        "player_name": "Ayman Ahmed",
        "rank": 66338,
        "rank_sort": 66360,
        "total": 2342
      },
      {
        "club_badge_src": null,
        "entry": 77285,
        "entry_name": "Wirtz of Art",
        "event_total": 58,
        "has_played": true,
        "id": 502321,
        "last_rank": 61606,
        "player_name": "Simon Tunkel",
        "rank": 66338,
        "rank_sort": 66361,
        "total": 2342
      },
      {
        "club_badge_src": null,
        "entry": 82438,
        "entry_name": "Rangers Cazzimma",
        "event_total": 58,
        "has_played": true,
        "id": 536428,
        "last_rank": 69323,
        "player_name": "Giovanni Ruggiero",
        "rank": 66338,
        "rank_sort": 66362,
        "total": 2342
      },
      {
        "club_badge_src": null,
        "entry": 84659,
        "entry_name": "Studs and Duds",
        "event_total": 51,
        "has_played": true,
        "id": 551227,
        "last_rank": 56180,
        "player_name": "scott Powney",
        "rank": 66338,
        "rank_sort": 66363,
        "total": 2342
      },
      {
        "club_badge_src": "https://fantasy.premierleague.com/gcs/plfpl-production-adobe-approved/plfpl-production/87969/b13ce878-9bfe-4ff7-8d70-ea3f30a69956.png",
        "entry": 87969,
        "entry_name": "Mars Rover FC",
        "event_total": 51,
        "has_played": true,
        "id": 573884,
        "last_rank": 56180,
        "player_name": "Daniel Marsden",
        "rank": 66338,
        "rank_sort": 66364,
        "total": 2342
      },
      {
        "club_badge_src": null,
        "entry": 91679,
        "entry_name": "Odborn\u00edk na fotbal",
        "event_total": 44,
        "has_played": true,
        "id": 598930,
        "last_rank": 39816,
        "player_name": "Adam Ceniga",
        "rank": 66338,
        "rank_sort": 66365,
        "total": 2342
      },
      {
        "club_badge_src": null,
        "entry": 92468,
        "entry_name": "Rock 'N' Roll Sarr",
        "event_total": 58,
        "has_played": true,
        "id": 604263,
        "last_rank": 69323,
        "player_name": "Xander Dolman",
        "rank": 66338,
        "rank_sort": 66366,
        "total": 2342
      },
      {
        "club_badge_src": "https://fantasy.premierleague.com/gcs/plfpl-production-adobe-approved/plfpl-production/105649/edc2c307-c7b3-4125-ad39-d5440ff64485.png",
        "entry": 105649,
        "entry_name": "si Zebra",
        "event_total": 66,
        "has_played": true,
        "id": 689025,
        "last_rank": 86735,
        "player_name": "Komara Jaya",
        "rank": 66338,
        "rank_sort": 66367,
        "total": 2342
      },
      {
        "club_badge_src": null,
        "entry": 107333,
        "entry_name": "Still the Champ",
        "event_total": 75,
        "has_played": true,
        "id": 699697,
        "last_rank": 98183,
        "player_name": "Brett Stein",
        "rank": 66338,
        "rank_sort": 66368,
        "total": 2342
      },
      {
        "club_badge_src": null,
        "entry": 115278,
        "entry_name": "Wackingstickers",
        "event_total": 57,
        "has_played": true,
        "id": 752315,
        "last_rank": 67422,
        "player_name": "Fredrik Landin",
        "rank": 66338,
        "rank_sort": 66369,
        "total": 2342
      },
      {
        "club_badge_src": null,
        "entry": 124376,
        "entry_name": "Cheeku Team",
        "event_total": 54,
        "has_played": true,
        "id": 811240,
        "last_rank": 61606,
        "player_name": "Surya Suresh",
        "rank": 66338,
        "rank_sort": 66370,
        "total": 2342
      },
      {
        "club_badge_src": null,
        "entry": 126320,
        "entry_name": "change name",
        "event_total": 45,
        "has_played": true,
        "id": 823686,
        "last_rank": 47163,
        "player_name": "Jack McMenamy",
        "rank": 66338,
        "rank_sort": 66371,
        "total": 2342
      },
      {
        "club_badge_src": null,
        "entry": 127109,
        "entry_name": "Calafiori Dreamin'",
        "event_total": 71,
        "has_played": true,
        "id": 828725,
        "last_rank": 98183,
        "player_name": "Fahad Alabdulrazzaq",
        "rank": 66338,
        "rank_sort": 66372,
        "total": 2342
      },
      {
        "club_badge_src": null,
        "entry": 131980,
        "entry_name": "FC ZABIJ SIE",
        "event_total": 71,
        "has_played": true,
        "id": 859777,
        "last_rank": 98436,
        "player_name": "Daniel Hejduk",
        "rank": 66338,
        "rank_sort": 66373,
        "total": 2342
      },
      {
        "club_badge_src": "https://fantasy.premierleague.com/gcs/plfpl-production-adobe-approved/plfpl-production/136716/c2e1503f-8fe0-417e-a57b-1cee489dc260.png",
        "entry": 136716,
        "entry_name": "Baby Reijnders",
        "event_total": 49,
        "has_played": true,
        "id": 890709,
        "last_rank": 53345,
        "player_name": "Ceri Jones",
        "rank": 66338,
        "rank_sort": 66374,
        "total": 2342
      },
      {
        "club_badge_src": null,
        "entry": 139257,
        "entry_name": "Wirtz of Wisdom",
        "event_total": 62,
        "has_played": true,
        "id": 908779,
        "last_rank": 77258,
        "player_name": "Sanath Kuppa",
        "rank": 66338,
        "rank_sort": 66375,
        "total": 2342
      },
      {
        "club_badge_src": "https://fantasy.premierleague.com/gcs/plfpl-production-adobe-approved/plfpl-production/139503/ae80c933-bc99-4bd9-8357-8d48c23137cf.png",
        "entry": 139503,
        "entry_name": "TinkermansTalismans\u2122",
        "event_total": 52,
        "has_played": true,
        "id": 910517,
        "last_rank": 57857,
        "player_name": "Shaheed 'BielSid' Laher",
        "rank": 66338,
        "rank_sort": 66376,
        "total": 2342
      },
      {
        "club_badge_src": "https://fantasy.premierleague.com/gcs/plfpl-production-adobe-approved/plfpl-production/144938/3a976490-58a2-41c4-b3dc-767957c7fc5b.png",
        "entry": 144938,
        "entry_name": "Obi 1 Kenobi 0",
        "event_total": 63,
        "has_played": true,
        "id": 948983,
        "last_rank": 79431,
        "player_name": "Joshua Harridine",
        "rank": 66338,
        "rank_sort": 66377,
        "total": 2342
      },
      {
        "club_badge_src": null,
        "entry": 145963,
        "entry_name": "Cookcurella",
        "event_total": 66,
        "has_played": true,
        "id": 956072,
        "last_rank": 86735,
        "player_name": "Matthew Goh",
        "rank": 66338,
        "rank_sort": 66378,
        "total": 2342
      },
      {
        "club_badge_src": null,
        "entry": 147925,
        "entry_name": "ville de baller",
        "event_total": 50,
        "has_played": true,
        "id": 969510,
        "last_rank": 54667,
        "player_name": "Aaron ball",
        "rank": 66338,
        "rank_sort": 66379,
        "total": 2342
      },
      {
        "club_badge_src": null,
        "entry": 163731,
        "entry_name": "Flabby Anus",
        "event_total": 50,
        "has_played": true,
        "id": 1080113,
        "last_rank": 48363,
        "player_name": "Kenny Read",
        "rank": 66338,
        "rank_sort": 66380,
        "total": 2342
      },
      {
        "club_badge_src": null,
        "entry": 170962,
        "entry_name": "Juggernaut",
        "event_total": 65,
        "has_played": true,
        "id": 1129473,
        "last_rank": 84360,
        "player_name": "Jagannath Ashwathaman",
        "rank": 66338,
        "rank_sort": 66381,
        "total": 2342
      },
      {
        "club_badge_src": "https://fantasy.premierleague.com/gcs/plfpl-production-adobe-approved/plfpl-production/180421/afa8fad6-4dfb-438e-ba78-0c4ad27f1fbe.png",
        "entry": 180421,
        "entry_name": "BentekeFriedChick\u00e8\u00f1",
        "event_total": 57,
        "has_played": true,
        "id": 1190635,
        "last_rank": 67422,
        "player_name": "Alfie Leonard",
        "rank": 66338,
        "rank_sort": 66382,
        "total": 2342
      },
      {
        "club_badge_src": null,
        "entry": 183338,
        "entry_name": "Farhaan's Team",
        "event_total": 61,
        "has_played": true,
        "id": 1210181,
        "last_rank": 75537,
        "player_name": "Farhaan Emrith",
        "rank": 66338,
        "rank_sort": 66383,
        "total": 2342
      },
      {
        "club_badge_src": null,
        "entry": 183710,
        "entry_name": "Dynamo Wassco",
        "event_total": 55,
        "has_played": true,
        "id": 1212878,
        "last_rank": 63724,
        "player_name": "Steve Wass",
        "rank": 66338,
        "rank_sort": 66384,
        "total": 2342
      },
      {
        "club_badge_src": "https://fantasy.premierleague.com/gcs/plfpl-production-adobe-approved/plfpl-production/184605/70a5e5c1-08d0-4d52-b3ad-0ef7f1ec8d28.png",
        "entry": 184605,
        "entry_name": "YouGotTherePhil!",
        "event_total": 62,
        "has_played": true,
        "id": 1219069,
        "last_rank": 68957,
        "player_name": "Ben Wharton",
        "rank": 66338,
        "rank_sort": 66385,
        "total": 2342
      },
      {
        "club_badge_src": null,
        "entry": 186271,
        "entry_name": "Net six and chill",
        "event_total": 71,
        "has_played": true,
        "id": 1230929,
        "last_rank": 98896,
        "player_name": "Max Brightmore",
        "rank": 66338,
        "rank_sort": 66386,
        "total": 2342
      },
      {
        "club_badge_src": null,
        "entry": 195160,
        "entry_name": "BigWillyFC",
        "event_total": 61,
        "has_played": true,
        "id": 1294087,
        "last_rank": 67063,
        "player_name": "Jack Davis",
        "rank": 66338,
        "rank_sort": 66387,
        "total": 2342
      },
      {
        "club_badge_src": null,
        "entry": 195604,
        "entry_name": "Pep Talk FC",
        "event_total": 64,
        "has_played": true,
        "id": 1297200,
        "last_rank": 82069,
        "player_name": "Oliver Noreklev",
        "rank": 66338,
        "rank_sort": 66388,
        "total": 2342
      },
      {
        "club_badge_src": null,
        "entry": 197172,
        "entry_name": "Wellsy United",
        "event_total": 57,
        "has_played": true,
        "id": 1308204,
        "last_rank": 67063,
        "player_name": "Ben Wells",
        "rank": 66338,
        "rank_sort": 66389,
        "total": 2342
      },
      {
        "club_badge_src": "https://fantasy.premierleague.com/gcs/plfpl-production-adobe-approved/plfpl-production/197608/810bafc7-d660-4c98-bdb9-2ff5b747f964.png",
        "entry": 197608,
        "entry_name": "Meadhaven Utd",
        "event_total": 58,
        "has_played": true,
        "id": 1311199,
        "last_rank": 61315,
        "player_name": "John Mullings",
        "rank": 66338,
        "rank_sort": 66390,
        "total": 2342
      },
      {
        "club_badge_src": null,
        "entry": 201561,
        "entry_name": "Dwyer FC",
        "event_total": 56,
        "has_played": true,
        "id": 1338358,
        "last_rank": 58071,
        "player_name": "Brett Dwyer",
        "rank": 66338,
        "rank_sort": 66391,
        "total": 2342
      },
      {
        "club_badge_src": null,
        "entry": 215473,
        "entry_name": "Kai (I)Sakbiise meh",
        "event_total": 58,
        "has_played": true,
        "id": 1433182,
        "last_rank": 68957,
        "player_name": "Andris Ladner",
        "rank": 66338,
        "rank_sort": 66392,
        "total": 2342
      },
      {
        "club_badge_src": null,
        "entry": 255635,
        "entry_name": "Mbeumo Problems",
        "event_total": 57,
        "has_played": true,
        "id": 1700346,
        "last_rank": 67422,
        "player_name": "Alexander Michael",
        "rank": 66338,
        "rank_sort": 66393,
        "total": 2342
      },
      {
        "club_badge_src": "https://fantasy.premierleague.com/gcs/plfpl-production-adobe-approved/plfpl-production/293681/11d9db35-bfa2-4859-9106-5f76bf461ae6.png",
        "entry": 293681,
        "entry_name": "FearCity FC",
        "event_total": 60,
        "has_played": true,
        "id": 1960528,
        "last_rank": 73038,
        "player_name": "Maximo Stephen Mgwadira",
        "rank": 66338,
        "rank_sort": 66394,
        "total": 2342
      },
      {
        "club_badge_src": null,
        "entry": 296726,
        "entry_name": "shebo",
        "event_total": 59,
        "has_played": true,
        "id": 1982756,
        "last_rank": 71386,
        "player_name": "Shehab marwan",
        "rank": 66338,
        "rank_sort": 66395,
        "total": 2342
      },
      {
        "club_badge_src": "https://fantasy.premierleague.com/gcs/plfpl-production-adobe-approved/plfpl-production/314337/b033a12a-92da-4f7b-8156-2a1866841795.png",
        "entry": 314337,
        "entry_name": "Red Red Twine",
        "event_total": 75,
        "has_played": true,
        "id": 2106391,
        "last_rank": 109454,
        "player_name": "John Chandler",
        "rank": 66338,
        "rank_sort": 66396,
        "total": 2342
      },
      {
        "club_badge_src": null,
        "entry": 317564,
        "entry_name": "jutyar21",
        "event_total": 47,
        "has_played": true,
        "id": 2128640,
        "last_rank": 50199,
        "player_name": "jutyar mahmood",
        "rank": 66338,
        "rank_sort": 66397,
        "total": 2342
      },
      {
        "club_badge_src": null,
        "entry": 323327,
        "entry_name": "Eb greens",
        "event_total": 68,
        "has_played": true,
        "id": 2166717,
        "last_rank": 91466,
        "player_name": "Eran Botbol",
        "rank": 66338,
        "rank_sort": 66398,
        "total": 2342
      },
      {
        "club_badge_src": null,
        "entry": 329272,
        "entry_name": "The Garibaldi",
        "event_total": 66,
        "has_played": true,
        "id": 2205717,
        "last_rank": 86735,
        "player_name": "Dennis Oaks",
        "rank": 66338,
        "rank_sort": 66399,
        "total": 2342
      },
      {
        "club_badge_src": null,
        "entry": 344705,
        "entry_name": "Saka Potato",
        "event_total": 53,
        "has_played": true,
        "id": 2307298,
        "last_rank": 52853,
        "player_name": "Oli Leett",
        "rank": 66338,
        "rank_sort": 66400,
        "total": 2342
      }
    ]
  }
}