{
  "last_updated_data": "2026-05-24T23:28:17Z",
  "league": {
    "admin_entry": null,
    "closed": false,
    "code_privacy": "p",
    "created": "2025-07-20T23:14:33.933835Z",
    "cup_league": 2815434,
    "has_cup": true,
    "id": 314,
    "league_type": "s",
    "max_entries": null,
    "name": "Overall",
    "rank": null,
    "scoring": "c",
    "start_event": 1
  },
  "new_entries": {
    "has_next": false,
    "page": 1,
    "results": []
  },
  "standings": {
    "has_next": true,
    "page": 1646,
    "results": [
      {
        "club_badge_src": null,
        "entry": 4421627,
        "entry_name": "Flopping Flogs",
        "event_total": 52,
        "has_played": true,
        "id": 33642525,
        "last_rank": 73038,
        "player_name": "Airlie Schirmer",
        "rank": 81984,
        "rank_sort": 82251,
        "total": 2334
      },
      {
        "club_badge_src": "https://fantasy.premierleague.com/gcs/plfpl-production-adobe-approved/plfpl-production/4439977/29651683-ac84-4157-b8b8-b3e082e5186b.png",
        "entry": 4439977,
        "entry_name": "TheHeadTheBalls",
        "event_total": 71,
        "has_played": true,
        "id": 33808720,
        "last_rank": 120103,
        "player_name": "John Boland",
        "rank": 81984,
        "rank_sort": 82252,
        "total": 2334
      },
      {
        "club_badge_src": null,
        "entry": 4454992,
        "entry_name": "Lovely Hair Jack",
        "event_total": 53,
        "has_played": true,
        "id": 33935715,
        "last_rank": 75139,
        "player_name": "Danny Mills",
        "rank": 81984,
        "rank_sort": 82253,
        "total": 2334
      },
      {
        "club_badge_src": null,
        "entry": 4484999,
        "entry_name": "Los Merengues",
        "event_total": 71,
        "has_played": true,
        "id": 34183995,
        "last_rank": 119948,
        "player_name": "Zayyad MK",
        "rank": 81984,
        "rank_sort": 82254,
        "total": 2334
      },
      {
        "club_badge_src": null,
        "entry": 4488851,
        "entry_name": "Aboelkher",
        "event_total": 44,
        "has_played": true,
        "id": 34215396,
        "last_rank": 57776,
        "player_name": "Shebl Aboelkher",
        "rank": 81984,
        "rank_sort": 82255,
        "total": 2334
      },
      {
        "club_badge_src": null,
        "entry": 4509444,
        "entry_name": "Neesh Titans",
        "event_total": 54,
        "has_played": true,
        "id": 34384105,
        "last_rank": 77258,
        "player_name": "Anesha Arshad",
        "rank": 81984,
        "rank_sort": 82256,
        "total": 2334
      },
      {
        "club_badge_src": "https://fantasy.premierleague.com/gcs/plfpl-production-adobe-approved/plfpl-production/4584169/a2fdd51e-b828-4570-9abe-61e2baf0c7c7.png",
        "entry": 4584169,
        "entry_name": "Hugg United",
        "event_total": 55,
        "has_played": true,
        "id": 34998322,
        "last_rank": 79431,
        "player_name": "Nathan Huggins",
        "rank": 81984,
        "rank_sort": 82257,
        "total": 2334
      },
      {
        "club_badge_src": null,
        "entry": 4658624,
        "entry_name": "Easy Money",
        "event_total": 46,
        "has_played": true,
        "id": 35664021,
        "last_rank": 61606,
        "player_name": "Mitchell Craig",
        "rank": 81984,
        "rank_sort": 82258,
        "total": 2334
      },
      {
        "club_badge_src": null,
        "entry": 4662549,
        "entry_name": "Argonauts",
        "event_total": 30,
        "has_played": true,
        "id": 35708190,
        "last_rank": 37589,
        "player_name": "Adam Whitehouse",
        "rank": 81984,
        "rank_sort": 82259,
        "total": 2334
      },
      {
        "club_badge_src": null,
        "entry": 4806278,
        "entry_name": "Macarena",
        "event_total": 52,
        "has_played": true,
        "id": 37006793,
        "last_rank": 72815,
        "player_name": "Ignacio Sierra",
        "rank": 81984,
        "rank_sort": 82260,
        "total": 2334
      },
      {
        "club_badge_src": null,
        "entry": 4808702,
        "entry_name": "Muppets",
        "event_total": 59,
        "has_played": true,
        "id": 37026121,
        "last_rank": 88594,
        "player_name": "J Bowyer",
        "rank": 81984,
        "rank_sort": 82261,
        "total": 2334
      },
      {
        "club_badge_src": null,
        "entry": 4864679,
        "entry_name": "Lightning",
        "event_total": 37,
        "has_played": true,
        "id": 37491361,
        "last_rank": 46839,
        "player_name": "Ethan Canning",
        "rank": 81984,
        "rank_sort": 82262,
        "total": 2334
      },
      {
        "club_badge_src": null,
        "entry": 4870222,
        "entry_name": "Crunchy United\ufffd",
        "event_total": 61,
        "has_played": true,
        "id": 37538710,
        "last_rank": 93443,
        "player_name": "Christopher Connors",
        "rank": 81984,
        "rank_sort": 82263,
        "total": 2334
      },
      {
        "club_badge_src": null,
        "entry": 4906369,
        "entry_name": "Change Name",
        "event_total": 66,
        "has_played": true,
        "id": 37835639,
        "last_rank": 105748,
        "player_name": "Borislav Kurzalevski",
        "rank": 81984,
        "rank_sort": 82264,
        "total": 2334
      },
      {
        "club_badge_src": "https://fantasy.premierleague.com/gcs/plfpl-production-adobe-approved/plfpl-production/4975106/000d87bc-2175-4529-94d3-4bc9734415d2.png",
        "entry": 4975106,
        "entry_name": "purple r@in",
        "event_total": 68,
        "has_played": true,
        "id": 38402609,
        "last_rank": 111405,
        "player_name": "Fahed Alnuaimi",
        "rank": 81984,
        "rank_sort": 82265,
        "total": 2334
      },
      {
        "club_badge_src": null,
        "entry": 4989315,
        "entry_name": "Striker 9",
        "event_total": 65,
        "has_played": true,
        "id": 38518467,
        "last_rank": 103526,
        "player_name": "Abady Mhmd",
        "rank": 81984,
        "rank_sort": 82266,
        "total": 2334
      },
      {
        "club_badge_src": null,
        "entry": 4994393,
        "entry_name": "Bane & Co.",
        "event_total": 45,
        "has_played": true,
        "id": 38559624,
        "last_rank": 59813,
        "player_name": "Gary Leong",
        "rank": 81984,
        "rank_sort": 82267,
        "total": 2334
      },
      {
        "club_badge_src": null,
        "entry": 5084067,
        "entry_name": "Solace",
        "event_total": 57,
        "has_played": true,
        "id": 39293815,
        "last_rank": 83698,
        "player_name": "Solomon Ayoola",
        "rank": 81984,
        "rank_sort": 82268,
        "total": 2334
      },
      {
        "club_badge_src": null,
        "entry": 5087881,
        "entry_name": "Goorkan FC",
        "event_total": 58,
        "has_played": true,
        "id": 39324363,
        "last_rank": 86054,
        "player_name": "Saman Taghavi Dilamani",
        "rank": 81984,
        "rank_sort": 82269,
        "total": 2334
      },
      {
        "club_badge_src": null,
        "entry": 5163200,
        "entry_name": "FC Scousers",
        "event_total": 74,
        "has_played": true,
        "id": 39956151,
        "last_rank": 129205,
        "player_name": "Viktor Vasilev",
        "rank": 81984,
        "rank_sort": 82270,
        "total": 2334
      },
      {
        "club_badge_src": null,
        "entry": 5194875,
        "entry_name": "CF OTIZIK NIVLEK OGU",
        "event_total": 67,
        "has_played": true,
        "id": 40220449,
        "last_rank": 108689,
        "player_name": "Ronaldo Ugochukwu",
        "rank": 81984,
        "rank_sort": 82271,
        "total": 2334
      },
      {
        "club_badge_src": null,
        "entry": 5199673,
        "entry_name": "nana fc",
        "event_total": 64,
        "has_played": true,
        "id": 40266084,
        "last_rank": 100700,
        "player_name": "Nana Quarme",
        "rank": 81984,
        "rank_sort": 82272,
        "total": 2334
      },
      {
        "club_badge_src": null,
        "entry": 5282305,
        "entry_name": "JuanWingedPabloAngel",
        "event_total": 71,
        "has_played": true,
        "id": 40943642,
        "last_rank": 120103,
        "player_name": "Tom Whitehead",
        "rank": 81984,
        "rank_sort": 82273,
        "total": 2334
      },
      {
        "club_badge_src": null,
        "entry": 5374760,
        "entry_name": "Cross United",
        "event_total": 62,
        "has_played": true,
        "id": 41770622,
        "last_rank": 95640,
        "player_name": "Ashley Cross",
        "rank": 81984,
        "rank_sort": 82274,
        "total": 2334
      },
      {
        "club_badge_src": null,
        "entry": 5426740,
        "entry_name": "slotterthemSlot S2",
        "event_total": 76,
        "has_played": true,
        "id": 42209506,
        "last_rank": 135737,
        "player_name": "Kakeya Chinonge",
        "rank": 81984,
        "rank_sort": 82275,
        "total": 2334
      },
      {
        "club_badge_src": "https://fantasy.premierleague.com/gcs/plfpl-production-adobe-approved/plfpl-production/5440341/1b262627-4ee9-4110-a55b-cc53f7dfa5de.png",
        "entry": 5440341,
        "entry_name": "delap dancer",
        "event_total": 42,
        "has_played": true,
        "id": 42327283,
        "last_rank": 54667,
        "player_name": "Daniel Small",
        "rank": 81984,
        "rank_sort": 82276,
        "total": 2334
      },
      {
        "club_badge_src": null,
        "entry": 5534985,
        "entry_name": "Heung-Min Son 7",
        "event_total": 53,
        "has_played": true,
        "id": 43183687,
        "last_rank": 74898,
        "player_name": "Michael Tomkins",
        "rank": 81984,
        "rank_sort": 82277,
        "total": 2334
      },
      {
        "club_badge_src": null,
        "entry": 5542719,
        "entry_name": "Floor is Lavia",
        "event_total": 56,
        "has_played": true,
        "id": 43251094,
        "last_rank": 81312,
        "player_name": "Daniel Flower",
        "rank": 81984,
        "rank_sort": 82278,
        "total": 2334
      },
      {
        "club_badge_src": null,
        "entry": 5589515,
        "entry_name": "Three Oh Walcott",
        "event_total": 63,
        "has_played": true,
        "id": 43665618,
        "last_rank": 98436,
        "player_name": "Mike Lawless",
        "rank": 81984,
        "rank_sort": 82279,
        "total": 2334
      },
      {
        "club_badge_src": null,
        "entry": 5614225,
        "entry_name": "Sch\u00e4rface",
        "event_total": 45,
        "has_played": true,
        "id": 43880579,
        "last_rank": 59535,
        "player_name": "Ed Smiley",
        "rank": 81984,
        "rank_sort": 82280,
        "total": 2334
      },
      {
        "club_badge_src": "https://fantasy.premierleague.com/gcs/plfpl-production-adobe-approved/plfpl-production/5620103/9ae3600f-b5f9-49a8-814d-2e311de3236e.png",
        "entry": 5620103,
        "entry_name": "FootballsForGirls",
        "event_total": 64,
        "has_played": true,
        "id": 43931725,
        "last_rank": 100949,
        "player_name": "George Harvey",
        "rank": 81984,
        "rank_sort": 82281,
        "total": 2334
      },
      {
        "club_badge_src": null,
        "entry": 5631299,
        "entry_name": "Pondys XI",
        "event_total": 77,
        "has_played": true,
        "id": 44028729,
        "last_rank": 138856,
        "player_name": "Dan Pond",
        "rank": 81984,
        "rank_sort": 82282,
        "total": 2334
      },
      {
        "club_badge_src": null,
        "entry": 5662765,
        "entry_name": "Galti Hajar Hunxan!!",
        "event_total": 57,
        "has_played": true,
        "id": 44305137,
        "last_rank": 84360,
        "player_name": "Rishav Sharma",
        "rank": 81984,
        "rank_sort": 82283,
        "total": 2334
      },
      {
        "club_badge_src": null,
        "entry": 5662800,
        "entry_name": "Norfolk Enchance",
        "event_total": 33,
        "has_played": true,
        "id": 44305478,
        "last_rank": 41324,
        "player_name": "Josh White",
        "rank": 81984,
        "rank_sort": 82284,
        "total": 2334
      },
      {
        "club_badge_src": null,
        "entry": 5668202,
        "entry_name": "The Soccer Team",
        "event_total": 50,
        "has_played": true,
        "id": 44351819,
        "last_rank": 68748,
        "player_name": "Matthew Yan",
        "rank": 81984,
        "rank_sort": 82285,
        "total": 2334
      },
      {
        "club_badge_src": null,
        "entry": 5761823,
        "entry_name": "BK Gamnacke",
        "event_total": 47,
        "has_played": true,
        "id": 45168213,
        "last_rank": 63390,
        "player_name": "Gustav K\u00e4ll",
        "rank": 81984,
        "rank_sort": 82286,
        "total": 2334
      },
      {
        "club_badge_src": null,
        "entry": 5856225,
        "entry_name": "freddebrushan",
        "event_total": 69,
        "has_played": true,
        "id": 45982637,
        "last_rank": 114169,
        "player_name": "Fredrik Eriksson",
        "rank": 81984,
        "rank_sort": 82287,
        "total": 2334
      },
      {
        "club_badge_src": "https://fantasy.premierleague.com/gcs/plfpl-production-adobe-approved/plfpl-production/5877002/e3686534-12be-49b2-b85e-44bed132f38d.png",
        "entry": 5877002,
        "entry_name": "Real Mentemalos",
        "event_total": 66,
        "has_played": true,
        "id": 46162864,
        "last_rank": 106259,
        "player_name": "James McCracken",
        "rank": 81984,
        "rank_sort": 82288,
        "total": 2334
      },
      {
        "club_badge_src": null,
        "entry": 5898772,
        "entry_name": "Chymes",
        "event_total": 66,
        "has_played": true,
        "id": 46343435,
        "last_rank": 105963,
        "player_name": "Chimere Alim",
        "rank": 81984,
        "rank_sort": 82289,
        "total": 2334
      },
      {
        "club_badge_src": null,
        "entry": 5940805,
        "entry_name": "Bowen in 60 seconds",
        "event_total": 64,
        "has_played": true,
        "id": 46715882,
        "last_rank": 100949,
        "player_name": "Tirso Ramirez",
        "rank": 81984,
        "rank_sort": 82290,
        "total": 2334
      },
      {
        "club_badge_src": null,
        "entry": 5944233,
        "entry_name": "Change Name",
        "event_total": 48,
        "has_played": true,
        "id": 46747129,
        "last_rank": 65163,
        "player_name": "Callum Mcintosh",
        "rank": 81984,
        "rank_sort": 82291,
        "total": 2334
      },
      {
        "club_badge_src": null,
        "entry": 6097613,
        "entry_name": "Up the Wahs",
        "event_total": 72,
        "has_played": true,
        "id": 48155493,
        "last_rank": 123120,
        "player_name": "Keegan Farrelly",
        "rank": 81984,
        "rank_sort": 82292,
        "total": 2334
      },
      {
        "club_badge_src": null,
        "entry": 6128497,
        "entry_name": "Neville Wears Prada",
        "event_total": 62,
        "has_played": true,
        "id": 48424458,
        "last_rank": 95890,
        "player_name": "Xander Davidson",
        "rank": 81984,
        "rank_sort": 82293,
        "total": 2334
      },
      {
        "club_badge_src": null,
        "entry": 6132025,
        "entry_name": "Golden Palace",
        "event_total": 64,
        "has_played": true,
        "id": 48456513,
        "last_rank": 100700,
        "player_name": "GP Lee",
        "rank": 81984,
        "rank_sort": 82294,
        "total": 2334
      },
      {
        "club_badge_src": null,
        "entry": 6183436,
        "entry_name": "Raya Sunshine",
        "event_total": 50,
        "has_played": true,
        "id": 48901967,
        "last_rank": 68957,
        "player_name": "Angela Anderson",
        "rank": 81984,
        "rank_sort": 82295,
        "total": 2334
      },
      {
        "club_badge_src": null,
        "entry": 6206716,
        "entry_name": "Lothl\u00f3rien",
        "event_total": 51,
        "has_played": true,
        "id": 49103345,
        "last_rank": 70985,
        "player_name": "Rikus Du Plessis",
        "rank": 81984,
        "rank_sort": 82296,
        "total": 2334
      },
      {
        "club_badge_src": null,
        "entry": 6284214,
        "entry_name": "Crawfords Crackers",
        "event_total": 36,
        "has_played": true,
        "id": 49776635,
        "last_rank": 45416,
        "player_name": "Dan Crawford",
        "rank": 81984,
        "rank_sort": 82297,
        "total": 2334
      },
      {
        "club_badge_src": null,
        "entry": 6292338,
        "entry_name": "7amood - Chelsea",
        "event_total": 60,
        "has_played": true,
        "id": 49860400,
        "last_rank": 91006,
        "player_name": "Sayed Mahmoud Alzalzalah",
        "rank": 81984,
        "rank_sort": 82298,
        "total": 2334
      },
      {
        "club_badge_src": null,
        "entry": 6359872,
        "entry_name": "Kinder Mbuemo",
        "event_total": 59,
        "has_played": true,
        "id": 50566493,
        "last_rank": 88348,
        "player_name": "Jesper Westphal",
        "rank": 81984,
        "rank_sort": 82299,
        "total": 2334
      },
      {
        "club_badge_src": null,
        "entry": 6389438,
        "entry_name": "This is Soccer!",
        "event_total": 55,
        "has_played": true,
        "id": 50824781,
        "last_rank": 79079,
        "player_name": "JJ Meyer",
        "rank": 81984,
        "rank_sort": 82300,
        "total": 2334
      }
    ]
  }
}