{
  "last_updated_data": "2026-05-24T23:28:17Z",
  "league": {
    "admin_entry": null,
    "closed": false,
    "code_privacy": "p",
    "created": "2025-07-20T23:14:33.933835Z",
    "cup_league": 2815434,
    "has_cup": true,
    "id": 314,
    "league_type": "s",
    "max_entries": null,
    "name": "Overall",
    "rank": null,
    "scoring": "c",
    "start_event": 1
  },
  "new_entries": {
    "has_next": false,
    "page": 1,
    "results": []
  },
  "standings": {
    "has_next": true,
    "page": 69,
    "results": [
      {
        "club_badge_src": null,
        "entry": 5720679,
        "entry_name": "LampCamp2",
        "event_total": 81,
        "has_played": true,
        "id": 44808745,
        "last_rank": 9089,
        "player_name": "Bruno Lima",
        "rank": 3358,
        "rank_sort": 3401,
        "total": 2423
      },
      {
        "club_badge_src": null,
        "entry": 6026606,
        "entry_name": "TheBhoys",
        "event_total": 62,
        "has_played": true,
        "id": 47535512,
        "last_rank": 3902,
        "player_name": "Danny Howe",
        "rank": 3358,
        "rank_sort": 3402,
        "total": 2423
      },
      {
        "club_badge_src": null,
        "entry": 6049188,
        "entry_name": "City Stars",
        "event_total": 67,
        "has_played": true,
        "id": 47732418,
        "last_rank": 4930,
        "player_name": "Trent Branson",
        "rank": 3358,
        "rank_sort": 3403,
        "total": 2423
      },
      {
        "club_badge_src": null,
        "entry": 6736533,
        "entry_name": "S\u00e9bastien Squillaci",
        "event_total": 61,
        "has_played": true,
        "id": 53922324,
        "last_rank": 3065,
        "player_name": "Harry Hemphill",
        "rank": 3358,
        "rank_sort": 3404,
        "total": 2423
      },
      {
        "club_badge_src": null,
        "entry": 7272001,
        "entry_name": "Cech Mate",
        "event_total": 65,
        "has_played": true,
        "id": 58811428,
        "last_rank": 4471,
        "player_name": "Ashwin Sunil",
        "rank": 3358,
        "rank_sort": 3405,
        "total": 2423
      },
      {
        "club_badge_src": null,
        "entry": 8057411,
        "entry_name": "WOOD",
        "event_total": 53,
        "has_played": true,
        "id": 66404351,
        "last_rank": 2553,
        "player_name": "Sam Waddington",
        "rank": 3358,
        "rank_sort": 3406,
        "total": 2423
      },
      {
        "club_badge_src": null,
        "entry": 8128946,
        "entry_name": "lions",
        "event_total": 52,
        "has_played": true,
        "id": 67072157,
        "last_rank": 2409,
        "player_name": "ammd alaa",
        "rank": 3358,
        "rank_sort": 3407,
        "total": 2423
      },
      {
        "club_badge_src": null,
        "entry": 8866398,
        "entry_name": "Zemanlandia",
        "event_total": 66,
        "has_played": true,
        "id": 74184954,
        "last_rank": 4742,
        "player_name": "Avanish Mishra",
        "rank": 3358,
        "rank_sort": 3408,
        "total": 2423
      },
      {
        "club_badge_src": null,
        "entry": 8992512,
        "entry_name": "ThingThingPhingPhing",
        "event_total": 54,
        "has_played": true,
        "id": 75409196,
        "last_rank": 2685,
        "player_name": "Supattra Panyarat",
        "rank": 3358,
        "rank_sort": 3409,
        "total": 2423
      },
      {
        "club_badge_src": "https://fantasy.premierleague.com/gcs/plfpl-production-adobe-approved/plfpl-production/314/1c2d0748-683a-447f-a5e4-d83ebbb9267e.png",
        "entry": 314,
        "entry_name": "Zubi Doobi Doo",
        "event_total": 68,
        "has_played": true,
        "id": 1735,
        "last_rank": 5173,
        "player_name": "Matt L",
        "rank": 3410,
        "rank_sort": 3410,
        "total": 2423
      },
      {
        "club_badge_src": null,
        "entry": 35510,
        "entry_name": "Chukuemeka Me Crazy",
        "event_total": 60,
        "has_played": true,
        "id": 227256,
        "last_rank": 2952,
        "player_name": "Malo Fowle",
        "rank": 3410,
        "rank_sort": 3411,
        "total": 2423
      },
      {
        "club_badge_src": null,
        "entry": 110689,
        "entry_name": "FPL Quacklums",
        "event_total": 53,
        "has_played": true,
        "id": 721887,
        "last_rank": 2588,
        "player_name": "David Iipumbu",
        "rank": 3410,
        "rank_sort": 3412,
        "total": 2423
      },
      {
        "club_badge_src": "https://fantasy.premierleague.com/gcs/plfpl-production-adobe-approved/plfpl-production/127073/f4b57d7f-66bc-447d-98b9-f9f0e8856488.png",
        "entry": 127073,
        "entry_name": "\u062c\u0645\u0627\u0644\u270c\ufffd",
        "event_total": 60,
        "has_played": true,
        "id": 828492,
        "last_rank": 3601,
        "player_name": "Jamal Alaati",
        "rank": 3410,
        "rank_sort": 3413,
        "total": 2423
      },
      {
        "club_badge_src": "https://fantasy.premierleague.com/gcs/plfpl-production-adobe-approved/plfpl-production/143701/cf81cc10-1fca-45ca-8bf0-eca9d6345a00.png",
        "entry": 143701,
        "entry_name": "Goth boys",
        "event_total": 67,
        "has_played": true,
        "id": 940227,
        "last_rank": 5011,
        "player_name": "Lloyd Ford",
        "rank": 3410,
        "rank_sort": 3414,
        "total": 2423
      },
      {
        "club_badge_src": null,
        "entry": 224628,
        "entry_name": "Listen to Joe Hart",
        "event_total": 64,
        "has_played": true,
        "id": 1494281,
        "last_rank": 4303,
        "player_name": "Magnus Wallengren",
        "rank": 3410,
        "rank_sort": 3415,
        "total": 2423
      },
      {
        "club_badge_src": "https://fantasy.premierleague.com/gcs/plfpl-production-adobe-approved/plfpl-production/260576/13764523-c2b1-4188-babd-3635b7c5dd41.png",
        "entry": 260576,
        "entry_name": "SparKy",
        "event_total": 46,
        "has_played": true,
        "id": 1732231,
        "last_rank": 1452,
        "player_name": "Spark Korn",
        "rank": 3410,
        "rank_sort": 3416,
        "total": 2423
      },
      {
        "club_badge_src": null,
        "entry": 278414,
        "entry_name": "bratwirtz",
        "event_total": 68,
        "has_played": true,
        "id": 1853078,
        "last_rank": 5173,
        "player_name": "Alexander Hjelm",
        "rank": 3410,
        "rank_sort": 3417,
        "total": 2423
      },
      {
        "club_badge_src": "https://fantasy.premierleague.com/gcs/plfpl-production-adobe-approved/plfpl-production/360607/91cdf735-62d5-4a61-82a6-a59c7cd7acb0.png",
        "entry": 360607,
        "entry_name": "RSCF",
        "event_total": 56,
        "has_played": true,
        "id": 2413012,
        "last_rank": 2418,
        "player_name": "Boris Tomov",
        "rank": 3410,
        "rank_sort": 3418,
        "total": 2423
      },
      {
        "club_badge_src": null,
        "entry": 420869,
        "entry_name": "Beto Call Saul",
        "event_total": 61,
        "has_played": true,
        "id": 2820557,
        "last_rank": 3765,
        "player_name": "Alex Creevey",
        "rank": 3410,
        "rank_sort": 3419,
        "total": 2423
      },
      {
        "club_badge_src": null,
        "entry": 629188,
        "entry_name": "fathy98",
        "event_total": 47,
        "has_played": true,
        "id": 4251747,
        "last_rank": 1880,
        "player_name": "fathy shannan",
        "rank": 3410,
        "rank_sort": 3420,
        "total": 2423
      },
      {
        "club_badge_src": null,
        "entry": 711476,
        "entry_name": "FPL City",
        "event_total": 69,
        "has_played": true,
        "id": 4825877,
        "last_rank": 5448,
        "player_name": "Ross Mcdonald",
        "rank": 3410,
        "rank_sort": 3421,
        "total": 2423
      },
      {
        "club_badge_src": null,
        "entry": 745499,
        "entry_name": "ooh its an equaliser",
        "event_total": 77,
        "has_played": true,
        "id": 5071409,
        "last_rank": 7676,
        "player_name": "Ben Leslie",
        "rank": 3410,
        "rank_sort": 3422,
        "total": 2423
      },
      {
        "club_badge_src": null,
        "entry": 1025436,
        "entry_name": "Winkerlettos",
        "event_total": 58,
        "has_played": true,
        "id": 7094506,
        "last_rank": 3257,
        "player_name": "Stuart Winks",
        "rank": 3410,
        "rank_sort": 3423,
        "total": 2423
      },
      {
        "club_badge_src": null,
        "entry": 1064599,
        "entry_name": "Eze does it",
        "event_total": 49,
        "has_played": true,
        "id": 7369864,
        "last_rank": 2112,
        "player_name": "jonjo elks",
        "rank": 3410,
        "rank_sort": 3424,
        "total": 2423
      },
      {
        "club_badge_src": null,
        "entry": 1069594,
        "entry_name": "Shak Attack",
        "event_total": 72,
        "has_played": true,
        "id": 7404674,
        "last_rank": 6265,
        "player_name": "Shakor Sarwar",
        "rank": 3410,
        "rank_sort": 3425,
        "total": 2423
      },
      {
        "club_badge_src": null,
        "entry": 1261823,
        "entry_name": "Psalm 73:26!!!",
        "event_total": 73,
        "has_played": true,
        "id": 8765485,
        "last_rank": 6448,
        "player_name": "Winston Adjaidoo",
        "rank": 3410,
        "rank_sort": 3426,
        "total": 2423
      },
      {
        "club_badge_src": null,
        "entry": 1366533,
        "entry_name": "CooLMaN FC",
        "event_total": 58,
        "has_played": true,
        "id": 9499613,
        "last_rank": 3237,
        "player_name": "Phonphat Khamum",
        "rank": 3410,
        "rank_sort": 3427,
        "total": 2423
      },
      {
        "club_badge_src": null,
        "entry": 1612166,
        "entry_name": "chippy chips",
        "event_total": 63,
        "has_played": true,
        "id": 11279799,
        "last_rank": 4062,
        "player_name": "Brandon Mullins",
        "rank": 3410,
        "rank_sort": 3428,
        "total": 2423
      },
      {
        "club_badge_src": null,
        "entry": 1747393,
        "entry_name": "Segara FC",
        "event_total": 79,
        "has_played": true,
        "id": 12262094,
        "last_rank": 7014,
        "player_name": "Muhamad Azaharil Azri",
        "rank": 3410,
        "rank_sort": 3429,
        "total": 2423
      },
      {
        "club_badge_src": null,
        "entry": 2381738,
        "entry_name": "L\u00f8n\u00f8ys Lions",
        "event_total": 48,
        "has_played": true,
        "id": 17007511,
        "last_rank": 2009,
        "player_name": "Hans Magnus L\u00f8n\u00f8y",
        "rank": 3410,
        "rank_sort": 3430,
        "total": 2423
      },
      {
        "club_badge_src": "https://fantasy.premierleague.com/gcs/plfpl-production-adobe-approved/plfpl-production/2786927/252a6ba1-4446-4b85-bf5e-754e0de4ecc3.png",
        "entry": 2786927,
        "entry_name": "Bayern Bru",
        "event_total": 48,
        "has_played": true,
        "id": 20346011,
        "last_rank": 2009,
        "player_name": "Fraser Smith",
        "rank": 3410,
        "rank_sort": 3431,
        "total": 2423
      },
      {
        "club_badge_src": null,
        "entry": 2962661,
        "entry_name": "Maldini's XI",
        "event_total": 52,
        "has_played": true,
        "id": 21763735,
        "last_rank": 2448,
        "player_name": "Anish Malde",
        "rank": 3410,
        "rank_sort": 3432,
        "total": 2423
      },
      {
        "club_badge_src": null,
        "entry": 3083976,
        "entry_name": "Warhammer Utd",
        "event_total": 60,
        "has_played": true,
        "id": 22721304,
        "last_rank": 3562,
        "player_name": "Adam Walker",
        "rank": 3410,
        "rank_sort": 3433,
        "total": 2423
      },
      {
        "club_badge_src": null,
        "entry": 3976470,
        "entry_name": "Lys of Kvarme",
        "event_total": 66,
        "has_played": true,
        "id": 29929367,
        "last_rank": 4742,
        "player_name": "Eirik Knutsen",
        "rank": 3410,
        "rank_sort": 3434,
        "total": 2423
      },
      {
        "club_badge_src": "https://fantasy.premierleague.com/gcs/plfpl-production-adobe-approved/plfpl-production/4079353/952e746d-a378-4238-b89d-1db102aba95b.png",
        "entry": 4079353,
        "entry_name": "SAMAN LATIF",
        "event_total": 68,
        "has_played": true,
        "id": 30794605,
        "last_rank": 5241,
        "player_name": "ZARA YAN",
        "rank": 3410,
        "rank_sort": 3435,
        "total": 2423
      },
      {
        "club_badge_src": null,
        "entry": 4822276,
        "entry_name": "Julma Tiimi",
        "event_total": 65,
        "has_played": true,
        "id": 37135452,
        "last_rank": 3721,
        "player_name": "Julius J\u00e4ppinen",
        "rank": 3410,
        "rank_sort": 3436,
        "total": 2423
      },
      {
        "club_badge_src": null,
        "entry": 4826401,
        "entry_name": "Norfolk n'Good",
        "event_total": 70,
        "has_played": true,
        "id": 37170881,
        "last_rank": 4742,
        "player_name": "Seb Giugno",
        "rank": 3410,
        "rank_sort": 3437,
        "total": 2423
      },
      {
        "club_badge_src": null,
        "entry": 5384180,
        "entry_name": "AHM FC",
        "event_total": 71,
        "has_played": true,
        "id": 41855852,
        "last_rank": 5940,
        "player_name": "Alex Hall Marco",
        "rank": 3410,
        "rank_sort": 3438,
        "total": 2423
      },
      {
        "club_badge_src": null,
        "entry": 5604082,
        "entry_name": "AFC Kocio\u0142 RZG",
        "event_total": 68,
        "has_played": true,
        "id": 43791861,
        "last_rank": 5173,
        "player_name": "Jan Majewski",
        "rank": 3410,
        "rank_sort": 3439,
        "total": 2423
      },
      {
        "club_badge_src": null,
        "entry": 5846857,
        "entry_name": "Fiorentina Turner",
        "event_total": 68,
        "has_played": true,
        "id": 45901562,
        "last_rank": 5173,
        "player_name": "John Turner",
        "rank": 3410,
        "rank_sort": 3440,
        "total": 2423
      },
      {
        "club_badge_src": null,
        "entry": 5932464,
        "entry_name": "Special Brew FC",
        "event_total": 57,
        "has_played": true,
        "id": 46640520,
        "last_rank": 3079,
        "player_name": "Julian Gower",
        "rank": 3410,
        "rank_sort": 3441,
        "total": 2423
      },
      {
        "club_badge_src": null,
        "entry": 7102107,
        "entry_name": "Feed the Yak..",
        "event_total": 66,
        "has_played": true,
        "id": 57195492,
        "last_rank": 4693,
        "player_name": "Kenneth Ullebust",
        "rank": 3410,
        "rank_sort": 3442,
        "total": 2423
      },
      {
        "club_badge_src": null,
        "entry": 7480991,
        "entry_name": "Millars Men",
        "event_total": 66,
        "has_played": true,
        "id": 61035776,
        "last_rank": 3902,
        "player_name": "Harriet Millar",
        "rank": 3410,
        "rank_sort": 3443,
        "total": 2423
      },
      {
        "club_badge_src": null,
        "entry": 9240804,
        "entry_name": "Palmer Violets",
        "event_total": 74,
        "has_played": true,
        "id": 77833527,
        "last_rank": 6677,
        "player_name": "Finn Holliday",
        "rank": 3410,
        "rank_sort": 3444,
        "total": 2423
      },
      {
        "club_badge_src": null,
        "entry": 10018,
        "entry_name": "Gy\u00f6k It Like Its Hot",
        "event_total": 54,
        "has_played": true,
        "id": 59124,
        "last_rank": 2762,
        "player_name": "Jamie Carpenter",
        "rank": 3445,
        "rank_sort": 3445,
        "total": 2423
      },
      {
        "club_badge_src": "https://fantasy.premierleague.com/gcs/plfpl-production-adobe-approved/plfpl-production/28805/9b25ee06-2d46-41b9-af72-57576998a81f.png",
        "entry": 28805,
        "entry_name": "Yorkshire Gunners**",
        "event_total": 66,
        "has_played": true,
        "id": 182099,
        "last_rank": 3951,
        "player_name": "Abdulla Al-Obaidat",
        "rank": 3445,
        "rank_sort": 3446,
        "total": 2423
      },
      {
        "club_badge_src": null,
        "entry": 43840,
        "entry_name": "Tudor Period",
        "event_total": 68,
        "has_played": true,
        "id": 280821,
        "last_rank": 4358,
        "player_name": "Chris Nestoros",
        "rank": 3445,
        "rank_sort": 3447,
        "total": 2423
      },
      {
        "club_badge_src": null,
        "entry": 76413,
        "entry_name": "Masterplan FC",
        "event_total": 79,
        "has_played": true,
        "id": 496723,
        "last_rank": 8552,
        "player_name": "Adam Davies",
        "rank": 3445,
        "rank_sort": 3448,
        "total": 2423
      },
      {
        "club_badge_src": null,
        "entry": 179443,
        "entry_name": "ARTE21CA",
        "event_total": 66,
        "has_played": true,
        "id": 1184158,
        "last_rank": 3951,
        "player_name": "T O",
        "rank": 3445,
        "rank_sort": 3449,
        "total": 2423
      },
      {
        "club_badge_src": null,
        "entry": 194092,
        "entry_name": "Santiagol FC",
        "event_total": 54,
        "has_played": true,
        "id": 1286703,
        "last_rank": 2749,
        "player_name": "Santiago Garrido Lecca",
        "rank": 3445,
        "rank_sort": 3450,
        "total": 2423
      }
    ]
  }
}