{
  "last_updated_data": "2026-05-24T23:28:17Z",
  "league": {
    "admin_entry": null,
    "closed": false,
    "code_privacy": "p",
    "created": "2025-07-20T23:14:33.933835Z",
    "cup_league": 2815434,
    "has_cup": true,
    "id": 314,
    "league_type": "s",
    "max_entries": null,
    "name": "Overall",
    "rank": null,
    "scoring": "c",
    "start_event": 1
  },
  "new_entries": {
    "has_next": false,
    "page": 1,
    "results": []
  },
  "standings": {
    "has_next": true,
    "page": 1531,
    "results": [
      {
        "club_badge_src": null,
        "entry": 1685297,
        "entry_name": "I like it dalot",
        "event_total": 66,
        "has_played": true,
        "id": 11797230,
        "last_rank": 99296,
        "player_name": "Greg Oakes",
        "rank": 76375,
        "rank_sort": 76501,
        "total": 2337
      },
      {
        "club_badge_src": null,
        "entry": 1693429,
        "entry_name": "sayoda",
        "event_total": 67,
        "has_played": true,
        "id": 11860351,
        "last_rank": 101818,
        "player_name": "Elsayed Esam",
        "rank": 76375,
        "rank_sort": 76502,
        "total": 2337
      },
      {
        "club_badge_src": "https://fantasy.premierleague.com/gcs/plfpl-production-adobe-approved/plfpl-production/1705843/610e6fd7-bcff-4999-b34f-466a3cd05007.png",
        "entry": 1705843,
        "entry_name": "Italian Sniper",
        "event_total": 62,
        "has_played": true,
        "id": 11950321,
        "last_rank": 89426,
        "player_name": "Alberto Scalchi",
        "rank": 76375,
        "rank_sort": 76503,
        "total": 2337
      },
      {
        "club_badge_src": null,
        "entry": 1741564,
        "entry_name": "chinaski",
        "event_total": 66,
        "has_played": true,
        "id": 12219547,
        "last_rank": 99296,
        "player_name": "Edgar Balabanov",
        "rank": 76375,
        "rank_sort": 76504,
        "total": 2337
      },
      {
        "club_badge_src": null,
        "entry": 1799427,
        "entry_name": "WeeWoo",
        "event_total": 61,
        "has_played": true,
        "id": 12646236,
        "last_rank": 87350,
        "player_name": "Ali Abdalla",
        "rank": 76375,
        "rank_sort": 76505,
        "total": 2337
      },
      {
        "club_badge_src": null,
        "entry": 1847286,
        "entry_name": "Lads FC",
        "event_total": 67,
        "has_played": true,
        "id": 12998193,
        "last_rank": 101818,
        "player_name": "Olu Ladega",
        "rank": 76375,
        "rank_sort": 76506,
        "total": 2337
      },
      {
        "club_badge_src": null,
        "entry": 1885770,
        "entry_name": "SW LDN",
        "event_total": 42,
        "has_played": true,
        "id": 13288195,
        "last_rank": 50635,
        "player_name": "Mikolaj Kuffel",
        "rank": 76375,
        "rank_sort": 76507,
        "total": 2337
      },
      {
        "club_badge_src": null,
        "entry": 2000176,
        "entry_name": "World Champions",
        "event_total": 57,
        "has_played": true,
        "id": 14139764,
        "last_rank": 77676,
        "player_name": "Isaac Kwong",
        "rank": 76375,
        "rank_sort": 76508,
        "total": 2337
      },
      {
        "club_badge_src": null,
        "entry": 2025327,
        "entry_name": "Me Myself Ndiaye",
        "event_total": 55,
        "has_played": true,
        "id": 14334694,
        "last_rank": 73720,
        "player_name": "Liam Turner",
        "rank": 76375,
        "rank_sort": 76509,
        "total": 2337
      },
      {
        "club_badge_src": null,
        "entry": 2039967,
        "entry_name": "Ha La Land",
        "event_total": 60,
        "has_played": true,
        "id": 14445985,
        "last_rank": 84980,
        "player_name": "Shane Pidgeon",
        "rank": 76375,
        "rank_sort": 76510,
        "total": 2337
      },
      {
        "club_badge_src": null,
        "entry": 2046272,
        "entry_name": "fruit salahd",
        "event_total": 52,
        "has_played": true,
        "id": 14492329,
        "last_rank": 53023,
        "player_name": "Daniel Toner",
        "rank": 76375,
        "rank_sort": 76511,
        "total": 2337
      },
      {
        "club_badge_src": null,
        "entry": 2062335,
        "entry_name": "Ho6tapler4e",
        "event_total": 52,
        "has_played": true,
        "id": 14613008,
        "last_rank": 60168,
        "player_name": "Goran Lefkov",
        "rank": 76375,
        "rank_sort": 76512,
        "total": 2337
      },
      {
        "club_badge_src": "https://fantasy.premierleague.com/gcs/plfpl-production-adobe-approved/plfpl-production/2094266/d003b7c3-c742-404f-a917-118b51a952fb.png",
        "entry": 2094266,
        "entry_name": "Lil Uzi Wirtz",
        "event_total": 59,
        "has_played": true,
        "id": 14858892,
        "last_rank": 82069,
        "player_name": "Matevz Hrastnik Avbelj",
        "rank": 76375,
        "rank_sort": 76513,
        "total": 2337
      },
      {
        "club_badge_src": null,
        "entry": 2099464,
        "entry_name": "Never Walk A Loan",
        "event_total": 41,
        "has_played": true,
        "id": 14896559,
        "last_rank": 48642,
        "player_name": "Guo Jie Ng",
        "rank": 76375,
        "rank_sort": 76514,
        "total": 2337
      },
      {
        "club_badge_src": null,
        "entry": 2121092,
        "entry_name": "Amadness",
        "event_total": 61,
        "has_played": true,
        "id": 15067126,
        "last_rank": 86735,
        "player_name": "Emmanuel Adewoye",
        "rank": 76375,
        "rank_sort": 76515,
        "total": 2337
      },
      {
        "club_badge_src": null,
        "entry": 2129840,
        "entry_name": "Squidwirtz",
        "event_total": 57,
        "has_played": true,
        "id": 15134574,
        "last_rank": 77999,
        "player_name": "Luke Stoneman",
        "rank": 76375,
        "rank_sort": 76516,
        "total": 2337
      },
      {
        "club_badge_src": null,
        "entry": 2186712,
        "entry_name": "Dribblers",
        "event_total": 54,
        "has_played": true,
        "id": 15555890,
        "last_rank": 63724,
        "player_name": "Hilary Brennan",
        "rank": 76375,
        "rank_sort": 76517,
        "total": 2337
      },
      {
        "club_badge_src": null,
        "entry": 2203101,
        "entry_name": "RalleyFC",
        "event_total": 66,
        "has_played": true,
        "id": 15678663,
        "last_rank": 89055,
        "player_name": "Steven Ralley",
        "rank": 76375,
        "rank_sort": 76518,
        "total": 2337
      },
      {
        "club_badge_src": null,
        "entry": 2264810,
        "entry_name": "Woody's @ t'wheel",
        "event_total": 59,
        "has_played": true,
        "id": 16148037,
        "last_rank": 73423,
        "player_name": "Ben Wood",
        "rank": 76375,
        "rank_sort": 76519,
        "total": 2337
      },
      {
        "club_badge_src": null,
        "entry": 2351766,
        "entry_name": "teacher badboys",
        "event_total": 61,
        "has_played": true,
        "id": 16780523,
        "last_rank": 86735,
        "player_name": "Dwi anggoro",
        "rank": 76375,
        "rank_sort": 76520,
        "total": 2337
      },
      {
        "club_badge_src": "https://fantasy.premierleague.com/gcs/plfpl-production-adobe-approved/plfpl-production/2355445/2d5c7280-440c-42a6-8400-6bc7bd3c8904.png",
        "entry": 2355445,
        "entry_name": "Kirkby Boys",
        "event_total": 32,
        "has_played": true,
        "id": 16806969,
        "last_rank": 36831,
        "player_name": "Alan Brown",
        "rank": 76375,
        "rank_sort": 76521,
        "total": 2337
      },
      {
        "club_badge_src": null,
        "entry": 2430769,
        "entry_name": "Ferrari Fc",
        "event_total": 76,
        "has_played": true,
        "id": 17381569,
        "last_rank": 127384,
        "player_name": "Feranmi Okuleye",
        "rank": 76375,
        "rank_sort": 76522,
        "total": 2337
      },
      {
        "club_badge_src": "https://fantasy.premierleague.com/gcs/plfpl-production-adobe-approved/plfpl-production/2446794/6e73d61d-2374-4306-847e-abb4bb3e6485.png",
        "entry": 2446794,
        "entry_name": "NSNO KAGS",
        "event_total": 60,
        "has_played": true,
        "id": 17499674,
        "last_rank": 75537,
        "player_name": "AL Lewis",
        "rank": 76375,
        "rank_sort": 76523,
        "total": 2337
      },
      {
        "club_badge_src": null,
        "entry": 2499037,
        "entry_name": "FC SpecialK",
        "event_total": 61,
        "has_played": true,
        "id": 17892768,
        "last_rank": 86735,
        "player_name": "Kevin Sears",
        "rank": 76375,
        "rank_sort": 76524,
        "total": 2337
      },
      {
        "club_badge_src": null,
        "entry": 2602449,
        "entry_name": "Onanas in Pyjamas",
        "event_total": 67,
        "has_played": true,
        "id": 18692010,
        "last_rank": 91006,
        "player_name": "Jacob Robertson",
        "rank": 76375,
        "rank_sort": 76525,
        "total": 2337
      },
      {
        "club_badge_src": null,
        "entry": 2608160,
        "entry_name": "Telend",
        "event_total": 79,
        "has_played": true,
        "id": 18737183,
        "last_rank": 136080,
        "player_name": "Rohan Cranfield",
        "rank": 76375,
        "rank_sort": 76526,
        "total": 2337
      },
      {
        "club_badge_src": "https://fantasy.premierleague.com/gcs/plfpl-production-adobe-approved/plfpl-production/2632456/121516a5-d6c2-4627-beca-1f82d62c71c2.png",
        "entry": 2632456,
        "entry_name": "unbuggablle",
        "event_total": 45,
        "has_played": true,
        "id": 18918864,
        "last_rank": 55311,
        "player_name": "Ahmad Nasser",
        "rank": 76375,
        "rank_sort": 76527,
        "total": 2337
      },
      {
        "club_badge_src": null,
        "entry": 2650082,
        "entry_name": "Vannari",
        "event_total": 57,
        "has_played": true,
        "id": 19048277,
        "last_rank": 68957,
        "player_name": "Thor Arne Sigmundstad",
        "rank": 76375,
        "rank_sort": 76528,
        "total": 2337
      },
      {
        "club_badge_src": "https://fantasy.premierleague.com/gcs/plfpl-production-adobe-approved/plfpl-production/2697334/8fd95532-30e9-486f-a70b-1b9c8ca49b1e.png",
        "entry": 2697334,
        "entry_name": "Ochez Mercenaries",
        "event_total": 79,
        "has_played": true,
        "id": 19402956,
        "last_rank": 135737,
        "player_name": "Andrew Onyeche",
        "rank": 76375,
        "rank_sort": 76529,
        "total": 2337
      },
      {
        "club_badge_src": null,
        "entry": 2717129,
        "entry_name": "SakaSpuds",
        "event_total": 65,
        "has_played": true,
        "id": 19550492,
        "last_rank": 96777,
        "player_name": "Daniel Hill",
        "rank": 76375,
        "rank_sort": 76530,
        "total": 2337
      },
      {
        "club_badge_src": null,
        "entry": 2764517,
        "entry_name": "Change Name",
        "event_total": 72,
        "has_played": true,
        "id": 20168915,
        "last_rank": 115421,
        "player_name": "J Black",
        "rank": 76375,
        "rank_sort": 76531,
        "total": 2337
      },
      {
        "club_badge_src": null,
        "entry": 2766272,
        "entry_name": "Mbeumo No.5",
        "event_total": 49,
        "has_played": true,
        "id": 20182441,
        "last_rank": 62223,
        "player_name": "Mike Eshelby",
        "rank": 76375,
        "rank_sort": 76532,
        "total": 2337
      },
      {
        "club_badge_src": null,
        "entry": 2799874,
        "entry_name": "Mizwed\u2019s",
        "event_total": 53,
        "has_played": true,
        "id": 20445411,
        "last_rank": 69323,
        "player_name": "Matthew Scicluna",
        "rank": 76375,
        "rank_sort": 76533,
        "total": 2337
      },
      {
        "club_badge_src": null,
        "entry": 2812710,
        "entry_name": "Let's eat Palmer ham",
        "event_total": 57,
        "has_played": true,
        "id": 20543979,
        "last_rank": 69323,
        "player_name": "michael gardner",
        "rank": 76375,
        "rank_sort": 76534,
        "total": 2337
      },
      {
        "club_badge_src": null,
        "entry": 2817355,
        "entry_name": "Kinder Mbeumo",
        "event_total": 69,
        "has_played": true,
        "id": 20578662,
        "last_rank": 107162,
        "player_name": "Neil Desai",
        "rank": 76375,
        "rank_sort": 76535,
        "total": 2337
      },
      {
        "club_badge_src": null,
        "entry": 2829440,
        "entry_name": "Kobbie and Paste",
        "event_total": 66,
        "has_played": true,
        "id": 20674897,
        "last_rank": 98896,
        "player_name": "Paul Lidar",
        "rank": 76375,
        "rank_sort": 76536,
        "total": 2337
      },
      {
        "club_badge_src": null,
        "entry": 2847723,
        "entry_name": "Ali",
        "event_total": 50,
        "has_played": true,
        "id": 20819553,
        "last_rank": 64005,
        "player_name": "Ali Reda",
        "rank": 76375,
        "rank_sort": 76537,
        "total": 2337
      },
      {
        "club_badge_src": null,
        "entry": 2853942,
        "entry_name": "Arneball",
        "event_total": 58,
        "has_played": true,
        "id": 20868005,
        "last_rank": 71386,
        "player_name": "Torstein Hauge",
        "rank": 76375,
        "rank_sort": 76538,
        "total": 2337
      },
      {
        "club_badge_src": null,
        "entry": 2891430,
        "entry_name": "Baby Reijnders",
        "event_total": 64,
        "has_played": true,
        "id": 21172926,
        "last_rank": 84360,
        "player_name": "Waqar Mohammed",
        "rank": 76375,
        "rank_sort": 76539,
        "total": 2337
      },
      {
        "club_badge_src": "https://fantasy.premierleague.com/gcs/plfpl-production-adobe-approved/plfpl-production/2968840/bbfc5466-bcb6-493d-9934-8a1c3c1a2438.png",
        "entry": 2968840,
        "entry_name": "Bradshaw Eagles",
        "event_total": 57,
        "has_played": true,
        "id": 21812310,
        "last_rank": 77676,
        "player_name": "Mathew Bradshaw",
        "rank": 76375,
        "rank_sort": 76540,
        "total": 2337
      },
      {
        "club_badge_src": null,
        "entry": 2974948,
        "entry_name": "Hagavik Giants",
        "event_total": 56,
        "has_played": true,
        "id": 21860864,
        "last_rank": 75874,
        "player_name": "Anders Wallevik",
        "rank": 76375,
        "rank_sort": 76541,
        "total": 2337
      },
      {
        "club_badge_src": null,
        "entry": 2996966,
        "entry_name": "Restricted Diffusion",
        "event_total": 67,
        "has_played": true,
        "id": 22043040,
        "last_rank": 91466,
        "player_name": "Samriddha Basnyat",
        "rank": 76375,
        "rank_sort": 76542,
        "total": 2337
      },
      {
        "club_badge_src": null,
        "entry": 3027588,
        "entry_name": "Ospina Colada",
        "event_total": 66,
        "has_played": true,
        "id": 22277322,
        "last_rank": 88594,
        "player_name": "Gabriel Kennish",
        "rank": 76375,
        "rank_sort": 76543,
        "total": 2337
      },
      {
        "club_badge_src": null,
        "entry": 3034222,
        "entry_name": "\u0628\u0627\u0641\u0627\u0631\u064a\u0627",
        "event_total": 43,
        "has_played": true,
        "id": 22329467,
        "last_rank": 51984,
        "player_name": "Adam Fawzy",
        "rank": 76375,
        "rank_sort": 76544,
        "total": 2337
      },
      {
        "club_badge_src": null,
        "entry": 3041860,
        "entry_name": "Pike XI",
        "event_total": 53,
        "has_played": true,
        "id": 22389772,
        "last_rank": 61950,
        "player_name": "Thomas Edwards",
        "rank": 76375,
        "rank_sort": 76545,
        "total": 2337
      },
      {
        "club_badge_src": null,
        "entry": 3044815,
        "entry_name": "Southgates Boys",
        "event_total": 56,
        "has_played": true,
        "id": 22413001,
        "last_rank": 76128,
        "player_name": "Reuben Marshall",
        "rank": 76375,
        "rank_sort": 76546,
        "total": 2337
      },
      {
        "club_badge_src": null,
        "entry": 3097532,
        "entry_name": "YoYoMan",
        "event_total": 45,
        "has_played": true,
        "id": 22829993,
        "last_rank": 55311,
        "player_name": "Ivan Lau",
        "rank": 76375,
        "rank_sort": 76547,
        "total": 2337
      },
      {
        "club_badge_src": null,
        "entry": 3142210,
        "entry_name": "Churcilawa",
        "event_total": 47,
        "has_played": true,
        "id": 23198499,
        "last_rank": 58688,
        "player_name": "Miko\u0142aj Sikorski",
        "rank": 76375,
        "rank_sort": 76548,
        "total": 2337
      },
      {
        "club_badge_src": null,
        "entry": 3189615,
        "entry_name": "Rootsy\u2019s Rooters",
        "event_total": 62,
        "has_played": true,
        "id": 23572211,
        "last_rank": 89426,
        "player_name": "Mitch Roots",
        "rank": 76375,
        "rank_sort": 76549,
        "total": 2337
      },
      {
        "club_badge_src": null,
        "entry": 3207319,
        "entry_name": "Points then pints",
        "event_total": 64,
        "has_played": true,
        "id": 23711358,
        "last_rank": 93883,
        "player_name": "Jack Kerrigan",
        "rank": 76375,
        "rank_sort": 76550,
        "total": 2337
      }
    ]
  }
}