{
  "last_updated_data": "2026-05-24T23:28:17Z",
  "league": {
    "admin_entry": null,
    "closed": false,
    "code_privacy": "p",
    "created": "2025-07-20T23:14:33.933835Z",
    "cup_league": 2815434,
    "has_cup": true,
    "id": 314,
    "league_type": "s",
    "max_entries": null,
    "name": "Overall",
    "rank": null,
    "scoring": "c",
    "start_event": 1
  },
  "new_entries": {
    "has_next": false,
    "page": 1,
    "results": []
  },
  "standings": {
    "has_next": true,
    "page": 915,
    "results": [
      {
        "club_badge_src": null,
        "entry": 2282233,
        "entry_name": "Forever DJ20",
        "event_total": 42,
        "has_played": true,
        "id": 16274989,
        "last_rank": 27976,
        "player_name": "You'll Never Walk Alone",
        "rank": 45597,
        "rank_sort": 45701,
        "total": 2355
      },
      {
        "club_badge_src": "https://fantasy.premierleague.com/gcs/plfpl-production-adobe-approved/plfpl-production/2324183/1b86c752-952d-48fd-8eec-264dea09c5ca.png",
        "entry": 2324183,
        "entry_name": "laurens03",
        "event_total": 57,
        "has_played": true,
        "id": 16581425,
        "last_rank": 35166,
        "player_name": "Laurens Dietz",
        "rank": 45597,
        "rank_sort": 45702,
        "total": 2355
      },
      {
        "club_badge_src": null,
        "entry": 2469201,
        "entry_name": "WhyNot",
        "event_total": 64,
        "has_played": true,
        "id": 17663812,
        "last_rank": 56708,
        "player_name": "Joakim Pettersson",
        "rank": 45597,
        "rank_sort": 45703,
        "total": 2355
      },
      {
        "club_badge_src": null,
        "entry": 2470974,
        "entry_name": "gy\u00f6k tuah",
        "event_total": 54,
        "has_played": true,
        "id": 17676970,
        "last_rank": 41824,
        "player_name": "Joshua Todd",
        "rank": 45597,
        "rank_sort": 45704,
        "total": 2355
      },
      {
        "club_badge_src": null,
        "entry": 2475796,
        "entry_name": "Gy\u00f6k of the Bushveld",
        "event_total": 59,
        "has_played": true,
        "id": 17713264,
        "last_rank": 48898,
        "player_name": "Matthew Hoole",
        "rank": 45597,
        "rank_sort": 45705,
        "total": 2355
      },
      {
        "club_badge_src": null,
        "entry": 2514030,
        "entry_name": "Kinder Mbeumo",
        "event_total": 63,
        "has_played": true,
        "id": 18011112,
        "last_rank": 55311,
        "player_name": "Haris Chaudhry",
        "rank": 45597,
        "rank_sort": 45706,
        "total": 2355
      },
      {
        "club_badge_src": "https://fantasy.premierleague.com/gcs/plfpl-production-adobe-approved/plfpl-production/2580425/155fe8ad-bb4d-4b75-897e-ea00365e1268.png",
        "entry": 2580425,
        "entry_name": "Kirribilli Humpbacks",
        "event_total": 53,
        "has_played": true,
        "id": 18520933,
        "last_rank": 40297,
        "player_name": "Peter Kaiser",
        "rank": 45597,
        "rank_sort": 45707,
        "total": 2355
      },
      {
        "club_badge_src": null,
        "entry": 2612563,
        "entry_name": "It's Coming Home",
        "event_total": 69,
        "has_played": true,
        "id": 18770767,
        "last_rank": 65796,
        "player_name": "Che Yankho",
        "rank": 45597,
        "rank_sort": 45708,
        "total": 2355
      },
      {
        "club_badge_src": null,
        "entry": 2639194,
        "entry_name": "IKL XI",
        "event_total": 59,
        "has_played": true,
        "id": 18968560,
        "last_rank": 48898,
        "player_name": "Ilias Lambrou",
        "rank": 45597,
        "rank_sort": 45709,
        "total": 2355
      },
      {
        "club_badge_src": null,
        "entry": 2692156,
        "entry_name": "Skrundzite",
        "event_total": 56,
        "has_played": true,
        "id": 19364515,
        "last_rank": 39023,
        "player_name": "Hristo Achkov",
        "rank": 45597,
        "rank_sort": 45710,
        "total": 2355
      },
      {
        "club_badge_src": null,
        "entry": 2706140,
        "entry_name": "Wirtz case scenario",
        "event_total": 72,
        "has_played": true,
        "id": 19468983,
        "last_rank": 71713,
        "player_name": "John Maye",
        "rank": 45597,
        "rank_sort": 45711,
        "total": 2355
      },
      {
        "club_badge_src": null,
        "entry": 2863512,
        "entry_name": "Team Baba",
        "event_total": 58,
        "has_played": true,
        "id": 20942241,
        "last_rank": 47417,
        "player_name": "Magnus Starheim",
        "rank": 45597,
        "rank_sort": 45712,
        "total": 2355
      },
      {
        "club_badge_src": null,
        "entry": 2935299,
        "entry_name": "The Elephant",
        "event_total": 69,
        "has_played": true,
        "id": 21537911,
        "last_rank": 58388,
        "player_name": "Aram B Harki",
        "rank": 45597,
        "rank_sort": 45713,
        "total": 2355
      },
      {
        "club_badge_src": null,
        "entry": 2957131,
        "entry_name": "ThisIsAnfield#20Jota",
        "event_total": 64,
        "has_played": true,
        "id": 21720261,
        "last_rank": 57001,
        "player_name": "Axel Tan",
        "rank": 45597,
        "rank_sort": 45714,
        "total": 2355
      },
      {
        "club_badge_src": null,
        "entry": 3000030,
        "entry_name": "Corn on the kobbie",
        "event_total": 43,
        "has_played": true,
        "id": 22066298,
        "last_rank": 29199,
        "player_name": "Harrison Atkinson",
        "rank": 45597,
        "rank_sort": 45715,
        "total": 2355
      },
      {
        "club_badge_src": "https://fantasy.premierleague.com/gcs/plfpl-production-adobe-approved/plfpl-production/3002496/490f0103-809a-4e66-9390-0a919665e9a4.png",
        "entry": 3002496,
        "entry_name": "Hangover 96",
        "event_total": 64,
        "has_played": true,
        "id": 22084924,
        "last_rank": 50199,
        "player_name": "Brock Guettler",
        "rank": 45597,
        "rank_sort": 45716,
        "total": 2355
      },
      {
        "club_badge_src": null,
        "entry": 3141479,
        "entry_name": "Skarfrasen",
        "event_total": 77,
        "has_played": true,
        "id": 23192725,
        "last_rank": 81646,
        "player_name": "Eirik Halstensg\u00e5rd",
        "rank": 45597,
        "rank_sort": 45717,
        "total": 2355
      },
      {
        "club_badge_src": "https://fantasy.premierleague.com/gcs/plfpl-production-adobe-approved/plfpl-production/3169268/4c37dca4-a4a6-48ac-8fae-2f2bf9f93e46.png",
        "entry": 3169268,
        "entry_name": "Dark Bring",
        "event_total": 69,
        "has_played": true,
        "id": 23415195,
        "last_rank": 58388,
        "player_name": "Ashraf Majid",
        "rank": 45597,
        "rank_sort": 45718,
        "total": 2355
      },
      {
        "club_badge_src": null,
        "entry": 3193633,
        "entry_name": "Team Cobra Dai",
        "event_total": 69,
        "has_played": true,
        "id": 23603836,
        "last_rank": 65796,
        "player_name": "kris jones",
        "rank": 45597,
        "rank_sort": 45719,
        "total": 2355
      },
      {
        "club_badge_src": null,
        "entry": 3243615,
        "entry_name": "UNITED WE STAND",
        "event_total": 62,
        "has_played": true,
        "id": 23994133,
        "last_rank": 47163,
        "player_name": "Helen Archer",
        "rank": 45597,
        "rank_sort": 45720,
        "total": 2355
      },
      {
        "club_badge_src": null,
        "entry": 3248959,
        "entry_name": "Wozzas Wizards",
        "event_total": 70,
        "has_played": true,
        "id": 24036974,
        "last_rank": 67926,
        "player_name": "Ben Warren",
        "rank": 45597,
        "rank_sort": 45721,
        "total": 2355
      },
      {
        "club_badge_src": null,
        "entry": 3339076,
        "entry_name": "THEE - SKY - BLUES",
        "event_total": 49,
        "has_played": true,
        "id": 24765305,
        "last_rank": 35619,
        "player_name": "Mohammed Luqman",
        "rank": 45597,
        "rank_sort": 45722,
        "total": 2355
      },
      {
        "club_badge_src": null,
        "entry": 3387585,
        "entry_name": "Amanjot",
        "event_total": 46,
        "has_played": true,
        "id": 25148078,
        "last_rank": 32335,
        "player_name": "Amanjot Aman",
        "rank": 45597,
        "rank_sort": 45723,
        "total": 2355
      },
      {
        "club_badge_src": null,
        "entry": 3724293,
        "entry_name": "Benar 10",
        "event_total": 60,
        "has_played": true,
        "id": 27794877,
        "last_rank": 50468,
        "player_name": "Benar Mrad",
        "rank": 45597,
        "rank_sort": 45724,
        "total": 2355
      },
      {
        "club_badge_src": null,
        "entry": 3915218,
        "entry_name": "Althona",
        "event_total": 71,
        "has_played": true,
        "id": 29438956,
        "last_rank": 69641,
        "player_name": "youssef hany",
        "rank": 45597,
        "rank_sort": 45725,
        "total": 2355
      },
      {
        "club_badge_src": null,
        "entry": 3928350,
        "entry_name": "UJI MOTO",
        "event_total": 70,
        "has_played": true,
        "id": 29543883,
        "last_rank": 67695,
        "player_name": "brian baya",
        "rank": 45597,
        "rank_sort": 45726,
        "total": 2355
      },
      {
        "club_badge_src": null,
        "entry": 3955728,
        "entry_name": "Drop It Like It Slot",
        "event_total": 61,
        "has_played": true,
        "id": 29760834,
        "last_rank": 51720,
        "player_name": "Dylan Mann",
        "rank": 45597,
        "rank_sort": 45727,
        "total": 2355
      },
      {
        "club_badge_src": null,
        "entry": 3974331,
        "entry_name": "Brattes Bois IF",
        "event_total": 74,
        "has_played": true,
        "id": 29911399,
        "last_rank": 59813,
        "player_name": "Elias Brattli",
        "rank": 45597,
        "rank_sort": 45728,
        "total": 2355
      },
      {
        "club_badge_src": null,
        "entry": 3992678,
        "entry_name": "Malins angels",
        "event_total": 56,
        "has_played": true,
        "id": 30065733,
        "last_rank": 44525,
        "player_name": "Malin Opdal Lig\u00e5rd",
        "rank": 45597,
        "rank_sort": 45729,
        "total": 2355
      },
      {
        "club_badge_src": null,
        "entry": 4004011,
        "entry_name": "Ball of Duty",
        "event_total": 65,
        "has_played": true,
        "id": 30160397,
        "last_rank": 57857,
        "player_name": "Marcus Solbakke",
        "rank": 45597,
        "rank_sort": 45730,
        "total": 2355
      },
      {
        "club_badge_src": null,
        "entry": 4028061,
        "entry_name": "Hot Palmerrr.r",
        "event_total": 65,
        "has_played": true,
        "id": 30364550,
        "last_rank": 51720,
        "player_name": "Palmerrrr Ngub",
        "rank": 45597,
        "rank_sort": 45731,
        "total": 2355
      },
      {
        "club_badge_src": null,
        "entry": 4034551,
        "entry_name": "SmellsLikeTeamSpirit",
        "event_total": 39,
        "has_played": true,
        "id": 30420508,
        "last_rank": 25436,
        "player_name": "Thomas Gundersen",
        "rank": 45597,
        "rank_sort": 45732,
        "total": 2355
      },
      {
        "club_badge_src": null,
        "entry": 4140752,
        "entry_name": "once24",
        "event_total": 50,
        "has_played": true,
        "id": 31294493,
        "last_rank": 36831,
        "player_name": "mohd erwan",
        "rank": 45597,
        "rank_sort": 45733,
        "total": 2355
      },
      {
        "club_badge_src": null,
        "entry": 4165161,
        "entry_name": "DonDesai",
        "event_total": 67,
        "has_played": true,
        "id": 31497016,
        "last_rank": 61606,
        "player_name": "Nitin Desai",
        "rank": 45597,
        "rank_sort": 45734,
        "total": 2355
      },
      {
        "club_badge_src": null,
        "entry": 4166690,
        "entry_name": "PluckStars",
        "event_total": 51,
        "has_played": true,
        "id": 31509566,
        "last_rank": 38016,
        "player_name": "Matthew Pluck",
        "rank": 45597,
        "rank_sort": 45735,
        "total": 2355
      },
      {
        "club_badge_src": null,
        "entry": 4203666,
        "entry_name": "thdust",
        "event_total": 53,
        "has_played": true,
        "id": 31821883,
        "last_rank": 40503,
        "player_name": "Tor Henning \u00c5svang",
        "rank": 45597,
        "rank_sort": 45736,
        "total": 2355
      },
      {
        "club_badge_src": "https://fantasy.premierleague.com/gcs/plfpl-production-adobe-approved/plfpl-production/4319705/6fe29d94-645b-4bb0-aa43-d41daf30f6fc.png",
        "entry": 4319705,
        "entry_name": "DUFC 83",
        "event_total": 41,
        "has_played": true,
        "id": 32782075,
        "last_rank": 27203,
        "player_name": "Mark McNally",
        "rank": 45597,
        "rank_sort": 45737,
        "total": 2355
      },
      {
        "club_badge_src": null,
        "entry": 4471802,
        "entry_name": "NOZAHY",
        "event_total": 81,
        "has_played": true,
        "id": 34076789,
        "last_rank": 91006,
        "player_name": "HUSSIEN NOZAHY",
        "rank": 45597,
        "rank_sort": 45738,
        "total": 2355
      },
      {
        "club_badge_src": null,
        "entry": 4718608,
        "entry_name": "L'Escalier FC",
        "event_total": 75,
        "has_played": true,
        "id": 36240417,
        "last_rank": 77999,
        "player_name": "Sebastian La Hausse de Lalouvi\u00e8re",
        "rank": 45597,
        "rank_sort": 45739,
        "total": 2355
      },
      {
        "club_badge_src": null,
        "entry": 5127859,
        "entry_name": "clouds",
        "event_total": 63,
        "has_played": true,
        "id": 39656058,
        "last_rank": 55514,
        "player_name": "Clouds Clouds",
        "rank": 45597,
        "rank_sort": 45740,
        "total": 2355
      },
      {
        "club_badge_src": null,
        "entry": 5195939,
        "entry_name": "Drobak Leeds",
        "event_total": 59,
        "has_played": true,
        "id": 40230397,
        "last_rank": 48898,
        "player_name": "Jorn Henriksen",
        "rank": 45597,
        "rank_sort": 45741,
        "total": 2355
      },
      {
        "club_badge_src": null,
        "entry": 5364352,
        "entry_name": "The Onions",
        "event_total": 56,
        "has_played": true,
        "id": 41670180,
        "last_rank": 38774,
        "player_name": "Bob Christie",
        "rank": 45597,
        "rank_sort": 45742,
        "total": 2355
      },
      {
        "club_badge_src": null,
        "entry": 5470903,
        "entry_name": "Fossett's Flops",
        "event_total": 58,
        "has_played": true,
        "id": 42585727,
        "last_rank": 41617,
        "player_name": "Jon Fossett",
        "rank": 45597,
        "rank_sort": 45743,
        "total": 2355
      },
      {
        "club_badge_src": null,
        "entry": 5511774,
        "entry_name": "Skowrczi21",
        "event_total": 66,
        "has_played": true,
        "id": 42963342,
        "last_rank": 59632,
        "player_name": "Bartosz Skowron",
        "rank": 45597,
        "rank_sort": 45744,
        "total": 2355
      },
      {
        "club_badge_src": null,
        "entry": 5519114,
        "entry_name": "\u00c9orann fc",
        "event_total": 66,
        "has_played": true,
        "id": 43034308,
        "last_rank": 60462,
        "player_name": "Eorann Hall",
        "rank": 45597,
        "rank_sort": 45745,
        "total": 2355
      },
      {
        "club_badge_src": "https://fantasy.premierleague.com/gcs/plfpl-production-adobe-approved/plfpl-production/5527375/9a5b4f93-3a88-423d-b13c-cc5ca65c50a7.png",
        "entry": 5527375,
        "entry_name": "Paris & yer Man",
        "event_total": 57,
        "has_played": true,
        "id": 43107791,
        "last_rank": 40297,
        "player_name": "Andy Herrity",
        "rank": 45597,
        "rank_sort": 45746,
        "total": 2355
      },
      {
        "club_badge_src": "https://fantasy.premierleague.com/gcs/plfpl-production-adobe-approved/plfpl-production/5534285/fe439bcd-212a-47ed-8000-fae7c9698ef6.png",
        "entry": 5534285,
        "entry_name": "ABCDE FC",
        "event_total": 64,
        "has_played": true,
        "id": 43177407,
        "last_rank": 57001,
        "player_name": "Kaushik Banerjee",
        "rank": 45597,
        "rank_sort": 45747,
        "total": 2355
      },
      {
        "club_badge_src": null,
        "entry": 5606651,
        "entry_name": "Haaland a Good Time",
        "event_total": 56,
        "has_played": true,
        "id": 43813867,
        "last_rank": 39023,
        "player_name": "Tom Healy",
        "rank": 45597,
        "rank_sort": 45748,
        "total": 2355
      },
      {
        "club_badge_src": null,
        "entry": 5639094,
        "entry_name": "El Campeon 5.0",
        "event_total": 71,
        "has_played": true,
        "id": 44097218,
        "last_rank": 69641,
        "player_name": "Henry Jimenez",
        "rank": 45597,
        "rank_sort": 45749,
        "total": 2355
      },
      {
        "club_badge_src": null,
        "entry": 5788300,
        "entry_name": "Escadrille",
        "event_total": 61,
        "has_played": true,
        "id": 45393987,
        "last_rank": 51984,
        "player_name": "Karl Rene K\u00f5lvart",
        "rank": 45597,
        "rank_sort": 45750,
        "total": 2355
      }
    ]
  }
}