{
  "last_updated_data": "2026-05-24T23:28:17Z",
  "league": {
    "admin_entry": null,
    "closed": false,
    "code_privacy": "p",
    "created": "2025-07-20T23:14:33.933835Z",
    "cup_league": 2815434,
    "has_cup": true,
    "id": 314,
    "league_type": "s",
    "max_entries": null,
    "name": "Overall",
    "rank": null,
    "scoring": "c",
    "start_event": 1
  },
  "new_entries": {
    "has_next": false,
    "page": 1,
    "results": []
  },
  "standings": {
    "has_next": true,
    "page": 986,
    "results": [
      {
        "club_badge_src": null,
        "entry": 674827,
        "entry_name": "Dzieci s\u0142onia",
        "event_total": 67,
        "has_played": true,
        "id": 4565318,
        "last_rank": 66738,
        "player_name": "Tomek S\u0142owi\u0144ski",
        "rank": 49250,
        "rank_sort": 49251,
        "total": 2352
      },
      {
        "club_badge_src": null,
        "entry": 1210884,
        "entry_name": "Slot Machine",
        "event_total": 56,
        "has_played": true,
        "id": 8404577,
        "last_rank": 48084,
        "player_name": "Vijay Rahl",
        "rank": 49250,
        "rank_sort": 49252,
        "total": 2352
      },
      {
        "club_badge_src": null,
        "entry": 1353416,
        "entry_name": "Bowen\u2019s on Fire",
        "event_total": 54,
        "has_played": true,
        "id": 9408523,
        "last_rank": 45144,
        "player_name": "Imran Beg",
        "rank": 49250,
        "rank_sort": 49253,
        "total": 2352
      },
      {
        "club_badge_src": null,
        "entry": 2656699,
        "entry_name": "We Win Sometimes",
        "event_total": 62,
        "has_played": true,
        "id": 19096905,
        "last_rank": 57723,
        "player_name": "Delight Makaza",
        "rank": 49250,
        "rank_sort": 49254,
        "total": 2352
      },
      {
        "club_badge_src": null,
        "entry": 3050096,
        "entry_name": "Machine Gun Skelly",
        "event_total": 65,
        "has_played": true,
        "id": 22453952,
        "last_rank": 63117,
        "player_name": "joe fossey",
        "rank": 49250,
        "rank_sort": 49255,
        "total": 2352
      },
      {
        "club_badge_src": null,
        "entry": 3648450,
        "entry_name": "Qudus FC",
        "event_total": 64,
        "has_played": true,
        "id": 27194908,
        "last_rank": 61239,
        "player_name": "Qudus Aguda",
        "rank": 49250,
        "rank_sort": 49256,
        "total": 2352
      },
      {
        "club_badge_src": "https://fantasy.premierleague.com/gcs/plfpl-production-adobe-approved/plfpl-production/4152814/36184060-ea6f-43da-a26b-1610cc4bdeda.png",
        "entry": 4152814,
        "entry_name": "i love chris wood <3",
        "event_total": 58,
        "has_played": true,
        "id": 31388887,
        "last_rank": 51137,
        "player_name": "Rowan Hurd",
        "rank": 49250,
        "rank_sort": 49257,
        "total": 2352
      },
      {
        "club_badge_src": null,
        "entry": 4166511,
        "entry_name": "Saving Private Raya",
        "event_total": 51,
        "has_played": true,
        "id": 31508002,
        "last_rank": 41101,
        "player_name": "Jamie Ward",
        "rank": 49250,
        "rank_sort": 49258,
        "total": 2352
      },
      {
        "club_badge_src": null,
        "entry": 4267486,
        "entry_name": "Enter Team Name",
        "event_total": 57,
        "has_played": true,
        "id": 32359328,
        "last_rank": 38516,
        "player_name": "Jordan Babrahani",
        "rank": 49250,
        "rank_sort": 49259,
        "total": 2352
      },
      {
        "club_badge_src": null,
        "entry": 4452256,
        "entry_name": "Bada Bing Bhoys",
        "event_total": 71,
        "has_played": true,
        "id": 33912324,
        "last_rank": 74787,
        "player_name": "Josh OHare",
        "rank": 49250,
        "rank_sort": 49260,
        "total": 2352
      },
      {
        "club_badge_src": null,
        "entry": 5210749,
        "entry_name": "The Usual Pyjamas",
        "event_total": 59,
        "has_played": true,
        "id": 40361317,
        "last_rank": 52759,
        "player_name": "Lee Saunders",
        "rank": 49250,
        "rank_sort": 49261,
        "total": 2352
      },
      {
        "club_badge_src": null,
        "entry": 5932440,
        "entry_name": "Sammys Scoopers",
        "event_total": 50,
        "has_played": true,
        "id": 46640303,
        "last_rank": 39816,
        "player_name": "Sammy Martin",
        "rank": 49250,
        "rank_sort": 49262,
        "total": 2352
      },
      {
        "club_badge_src": null,
        "entry": 5955102,
        "entry_name": "Rice and Shine",
        "event_total": 58,
        "has_played": true,
        "id": 46844530,
        "last_rank": 51137,
        "player_name": "Jay Anis",
        "rank": 49250,
        "rank_sort": 49263,
        "total": 2352
      },
      {
        "club_badge_src": "https://fantasy.premierleague.com/gcs/plfpl-production-adobe-approved/plfpl-production/6249355/0a322d8b-1bac-49ca-8033-a2ee2f33373b.png",
        "entry": 6249355,
        "entry_name": "Ctrl Alt De Ligt",
        "event_total": 52,
        "has_played": true,
        "id": 49469242,
        "last_rank": 42434,
        "player_name": "Robbie Willett",
        "rank": 49250,
        "rank_sort": 49264,
        "total": 2352
      },
      {
        "club_badge_src": null,
        "entry": 6357056,
        "entry_name": "Sesko meal deal",
        "event_total": 59,
        "has_played": true,
        "id": 50541104,
        "last_rank": 52759,
        "player_name": "Alex Harrington",
        "rank": 49250,
        "rank_sort": 49265,
        "total": 2352
      },
      {
        "club_badge_src": "https://fantasy.premierleague.com/gcs/plfpl-production-adobe-approved/plfpl-production/6474911/06a1bd55-2b62-473f-98c3-df30f41a6b59.png",
        "entry": 6474911,
        "entry_name": "Efc",
        "event_total": 87,
        "has_played": true,
        "id": 51595946,
        "last_rank": 114011,
        "player_name": "Helgi \u00deorvar\u00f0sson",
        "rank": 49250,
        "rank_sort": 49266,
        "total": 2352
      },
      {
        "club_badge_src": null,
        "entry": 6866403,
        "entry_name": "The A Team",
        "event_total": 69,
        "has_played": true,
        "id": 55019848,
        "last_rank": 70651,
        "player_name": "amrit singh",
        "rank": 49250,
        "rank_sort": 49267,
        "total": 2352
      },
      {
        "club_badge_src": null,
        "entry": 7422412,
        "entry_name": "freetheyute fc",
        "event_total": 52,
        "has_played": true,
        "id": 60270157,
        "last_rank": 42434,
        "player_name": "Emmanuel Omolere",
        "rank": 49250,
        "rank_sort": 49268,
        "total": 2352
      },
      {
        "club_badge_src": "https://fantasy.premierleague.com/gcs/plfpl-production-adobe-approved/plfpl-production/7559595/cdf53e5c-16c9-4b61-ac2b-b98c7cf542e1.png",
        "entry": 7559595,
        "entry_name": "Alex Burnham FC",
        "event_total": 46,
        "has_played": true,
        "id": 61898437,
        "last_rank": 34937,
        "player_name": "Ethan Trejo",
        "rank": 49250,
        "rank_sort": 49269,
        "total": 2352
      },
      {
        "club_badge_src": null,
        "entry": 9076401,
        "entry_name": "UVic Gooners",
        "event_total": 63,
        "has_played": true,
        "id": 76220754,
        "last_rank": 59464,
        "player_name": "Andrew Murray",
        "rank": 49250,
        "rank_sort": 49270,
        "total": 2352
      },
      {
        "club_badge_src": null,
        "entry": 36313,
        "entry_name": "Now I'm a Baleba",
        "event_total": 49,
        "has_played": true,
        "id": 232433,
        "last_rank": 38644,
        "player_name": "James Graham",
        "rank": 49271,
        "rank_sort": 49271,
        "total": 2352
      },
      {
        "club_badge_src": null,
        "entry": 44834,
        "entry_name": "Team",
        "event_total": 55,
        "has_played": true,
        "id": 287459,
        "last_rank": 46547,
        "player_name": "Calum Cameron",
        "rank": 49271,
        "rank_sort": 49272,
        "total": 2352
      },
      {
        "club_badge_src": null,
        "entry": 45004,
        "entry_name": "Your Wirtz Nightmare",
        "event_total": 52,
        "has_played": true,
        "id": 288591,
        "last_rank": 42506,
        "player_name": "Allen Cooper",
        "rank": 49271,
        "rank_sort": 49273,
        "total": 2352
      },
      {
        "club_badge_src": null,
        "entry": 84308,
        "entry_name": "Kova Chicks",
        "event_total": 63,
        "has_played": true,
        "id": 548899,
        "last_rank": 59496,
        "player_name": "Tom Rackind",
        "rank": 49271,
        "rank_sort": 49274,
        "total": 2352
      },
      {
        "club_badge_src": null,
        "entry": 436750,
        "entry_name": "Ozymandias",
        "event_total": 65,
        "has_played": true,
        "id": 2928808,
        "last_rank": 63117,
        "player_name": "Vladan Milutinovic",
        "rank": 49271,
        "rank_sort": 49275,
        "total": 2352
      },
      {
        "club_badge_src": null,
        "entry": 492208,
        "entry_name": "El Jespoporo",
        "event_total": 62,
        "has_played": true,
        "id": 3303930,
        "last_rank": 57743,
        "player_name": "Jesper Nilsson",
        "rank": 49271,
        "rank_sort": 49276,
        "total": 2352
      },
      {
        "club_badge_src": null,
        "entry": 506997,
        "entry_name": "McGinn & Tonic",
        "event_total": 62,
        "has_played": true,
        "id": 3402914,
        "last_rank": 57743,
        "player_name": "Henya Jackson",
        "rank": 49271,
        "rank_sort": 49277,
        "total": 2352
      },
      {
        "club_badge_src": null,
        "entry": 526607,
        "entry_name": "Slovaks Stars",
        "event_total": 53,
        "has_played": true,
        "id": 3539893,
        "last_rank": 43849,
        "player_name": "Nick Kavanagh",
        "rank": 49271,
        "rank_sort": 49278,
        "total": 2352
      },
      {
        "club_badge_src": null,
        "entry": 531545,
        "entry_name": "Saka'd In The Mornin",
        "event_total": 41,
        "has_played": true,
        "id": 3575079,
        "last_rank": 29578,
        "player_name": "Ben Reeves",
        "rank": 49271,
        "rank_sort": 49279,
        "total": 2352
      },
      {
        "club_badge_src": null,
        "entry": 694198,
        "entry_name": "hairykanes",
        "event_total": 53,
        "has_played": true,
        "id": 4701583,
        "last_rank": 43849,
        "player_name": "Dejan Spasic",
        "rank": 49271,
        "rank_sort": 49280,
        "total": 2352
      },
      {
        "club_badge_src": null,
        "entry": 740268,
        "entry_name": "Havertz a Clue",
        "event_total": 71,
        "has_played": true,
        "id": 5033429,
        "last_rank": 74712,
        "player_name": "Amritpal Singh",
        "rank": 49271,
        "rank_sort": 49281,
        "total": 2352
      },
      {
        "club_badge_src": null,
        "entry": 1341401,
        "entry_name": "4fun",
        "event_total": 67,
        "has_played": true,
        "id": 9326041,
        "last_rank": 66848,
        "player_name": "salah aggoun",
        "rank": 49271,
        "rank_sort": 49282,
        "total": 2352
      },
      {
        "club_badge_src": null,
        "entry": 1494253,
        "entry_name": "Wirtz Case Scenario",
        "event_total": 61,
        "has_played": true,
        "id": 10420332,
        "last_rank": 56099,
        "player_name": "Jason Griffiths",
        "rank": 49271,
        "rank_sort": 49283,
        "total": 2352
      },
      {
        "club_badge_src": null,
        "entry": 1892092,
        "entry_name": "-",
        "event_total": 64,
        "has_played": true,
        "id": 13335632,
        "last_rank": 61239,
        "player_name": "Jameel Bholat",
        "rank": 49271,
        "rank_sort": 49284,
        "total": 2352
      },
      {
        "club_badge_src": null,
        "entry": 2071325,
        "entry_name": "zD AM",
        "event_total": 52,
        "has_played": true,
        "id": 14685093,
        "last_rank": 42506,
        "player_name": "zaid amirouche",
        "rank": 49271,
        "rank_sort": 49285,
        "total": 2352
      },
      {
        "club_badge_src": "https://fantasy.premierleague.com/gcs/plfpl-production-adobe-approved/plfpl-production/2456479/8434d3d5-b95c-4229-805a-f4c505ab9796.png",
        "entry": 2456479,
        "entry_name": "MockTudor",
        "event_total": 64,
        "has_played": true,
        "id": 17570289,
        "last_rank": 61315,
        "player_name": "Helen Charles",
        "rank": 49271,
        "rank_sort": 49286,
        "total": 2352
      },
      {
        "club_badge_src": null,
        "entry": 2465082,
        "entry_name": "Adonis fc",
        "event_total": 67,
        "has_played": true,
        "id": 17632988,
        "last_rank": 66693,
        "player_name": "Mpho David",
        "rank": 49271,
        "rank_sort": 49287,
        "total": 2352
      },
      {
        "club_badge_src": null,
        "entry": 2582230,
        "entry_name": "Rice Rice Baby",
        "event_total": 50,
        "has_played": true,
        "id": 18534720,
        "last_rank": 39874,
        "player_name": "Koen Fens",
        "rank": 49271,
        "rank_sort": 49288,
        "total": 2352
      },
      {
        "club_badge_src": null,
        "entry": 2849475,
        "entry_name": "Sak-a Potatoes",
        "event_total": 61,
        "has_played": true,
        "id": 20833264,
        "last_rank": 56099,
        "player_name": "Rasmus Seiffert",
        "rank": 49271,
        "rank_sort": 49289,
        "total": 2352
      },
      {
        "club_badge_src": null,
        "entry": 2909954,
        "entry_name": "Tanyas XI",
        "event_total": 47,
        "has_played": true,
        "id": 21327608,
        "last_rank": 36142,
        "player_name": "Liam Morris",
        "rank": 49271,
        "rank_sort": 49290,
        "total": 2352
      },
      {
        "club_badge_src": null,
        "entry": 3028108,
        "entry_name": "HereForSleep",
        "event_total": 38,
        "has_played": true,
        "id": 22281182,
        "last_rank": 26631,
        "player_name": "Mongo Drreeee",
        "rank": 49271,
        "rank_sort": 49291,
        "total": 2352
      },
      {
        "club_badge_src": null,
        "entry": 3155780,
        "entry_name": "Your Wirtz Nightmare",
        "event_total": 42,
        "has_played": true,
        "id": 23309242,
        "last_rank": 30600,
        "player_name": "Beau Dietz",
        "rank": 49271,
        "rank_sort": 49292,
        "total": 2352
      },
      {
        "club_badge_src": null,
        "entry": 4197395,
        "entry_name": "Game of Throw-Ins",
        "event_total": 76,
        "has_played": true,
        "id": 31769681,
        "last_rank": 85870,
        "player_name": "Peter Hemmingsen",
        "rank": 49271,
        "rank_sort": 49293,
        "total": 2352
      },
      {
        "club_badge_src": "https://fantasy.premierleague.com/gcs/plfpl-production-adobe-approved/plfpl-production/4381907/27acfc28-9cf0-4495-835a-a1a76c025ec4.png",
        "entry": 4381907,
        "entry_name": "Kurjaci",
        "event_total": 42,
        "has_played": true,
        "id": 33301221,
        "last_rank": 30600,
        "player_name": "Nenad Spasojevi\u0107",
        "rank": 49271,
        "rank_sort": 49294,
        "total": 2352
      },
      {
        "club_badge_src": null,
        "entry": 4736405,
        "entry_name": "Fantastic Fantasy",
        "event_total": 58,
        "has_played": true,
        "id": 36441467,
        "last_rank": 51220,
        "player_name": "Samuel Boothman",
        "rank": 49271,
        "rank_sort": 49295,
        "total": 2352
      },
      {
        "club_badge_src": null,
        "entry": 4881190,
        "entry_name": "Havertz Your Way",
        "event_total": 71,
        "has_played": true,
        "id": 37628093,
        "last_rank": 74898,
        "player_name": "Daniel James",
        "rank": 49271,
        "rank_sort": 49296,
        "total": 2352
      },
      {
        "club_badge_src": null,
        "entry": 4891962,
        "entry_name": "Squidwirtz",
        "event_total": 69,
        "has_played": true,
        "id": 37717991,
        "last_rank": 70757,
        "player_name": "Rory Christian",
        "rank": 49271,
        "rank_sort": 49297,
        "total": 2352
      },
      {
        "club_badge_src": null,
        "entry": 5229831,
        "entry_name": "Drinkwater not Koke",
        "event_total": 62,
        "has_played": true,
        "id": 40525419,
        "last_rank": 57857,
        "player_name": "Mattias Plath",
        "rank": 49271,
        "rank_sort": 49298,
        "total": 2352
      },
      {
        "club_badge_src": null,
        "entry": 5420247,
        "entry_name": "RAK Toons",
        "event_total": 50,
        "has_played": true,
        "id": 42155588,
        "last_rank": 39816,
        "player_name": "Peter Floyd",
        "rank": 49271,
        "rank_sort": 49299,
        "total": 2352
      },
      {
        "club_badge_src": null,
        "entry": 5566522,
        "entry_name": "DaanK",
        "event_total": 54,
        "has_played": true,
        "id": 43463522,
        "last_rank": 45252,
        "player_name": "Daan Krabbe",
        "rank": 49271,
        "rank_sort": 49300,
        "total": 2352
      }
    ]
  }
}