{
  "last_updated_data": "2026-05-24T23:28:17Z",
  "league": {
    "admin_entry": null,
    "closed": false,
    "code_privacy": "p",
    "created": "2025-07-20T23:14:33.933835Z",
    "cup_league": 2815434,
    "has_cup": true,
    "id": 314,
    "league_type": "s",
    "max_entries": null,
    "name": "Overall",
    "rank": null,
    "scoring": "c",
    "start_event": 1
  },
  "new_entries": {
    "has_next": false,
    "page": 1,
    "results": []
  },
  "standings": {
    "has_next": true,
    "page": 36,
    "results": [
      {
        "club_badge_src": null,
        "entry": 2147132,
        "entry_name": "What\u2019s Rob holding?",
        "event_total": 58,
        "has_played": true,
        "id": 15261336,
        "last_rank": 1633,
        "player_name": "Hytum Abu-Own",
        "rank": 1740,
        "rank_sort": 1751,
        "total": 2437
      },
      {
        "club_badge_src": "https://fantasy.premierleague.com/gcs/plfpl-production-adobe-approved/plfpl-production/2380432/5d29e59a-1275-42f1-8fb9-877c4f9f3fed.png",
        "entry": 2380432,
        "entry_name": "GR YELLOW/BLUE ARMY",
        "event_total": 36,
        "has_played": true,
        "id": 16997660,
        "last_rank": 514,
        "player_name": "Nathan Lowe",
        "rank": 1740,
        "rank_sort": 1752,
        "total": 2437
      },
      {
        "club_badge_src": "https://fantasy.premierleague.com/gcs/plfpl-production-adobe-approved/plfpl-production/2407005/b1b67eb6-7fdf-473e-89c8-82134a61438b.png",
        "entry": 2407005,
        "entry_name": "Your Wirtz Nightmare",
        "event_total": 65,
        "has_played": true,
        "id": 17204872,
        "last_rank": 2300,
        "player_name": "Damian Shepherd",
        "rank": 1740,
        "rank_sort": 1753,
        "total": 2437
      },
      {
        "club_badge_src": null,
        "entry": 2694968,
        "entry_name": "Black Cat",
        "event_total": 68,
        "has_played": true,
        "id": 19385612,
        "last_rank": 2665,
        "player_name": "Haris Ioannou",
        "rank": 1740,
        "rank_sort": 1754,
        "total": 2437
      },
      {
        "club_badge_src": "https://fantasy.premierleague.com/gcs/plfpl-production-adobe-approved/plfpl-production/2877067/e830aced-7f07-4f9d-9d0c-f332b568cc4d.png",
        "entry": 2877067,
        "entry_name": "Skogsryd FC",
        "event_total": 64,
        "has_played": true,
        "id": 21060292,
        "last_rank": 2215,
        "player_name": "Simon Gustafsson",
        "rank": 1740,
        "rank_sort": 1755,
        "total": 2437
      },
      {
        "club_badge_src": null,
        "entry": 4317163,
        "entry_name": "Who Ate All Depays",
        "event_total": 59,
        "has_played": true,
        "id": 32761275,
        "last_rank": 1712,
        "player_name": "George Marshall",
        "rank": 1740,
        "rank_sort": 1756,
        "total": 2437
      },
      {
        "club_badge_src": "https://fantasy.premierleague.com/gcs/plfpl-production-adobe-approved/plfpl-production/5050280/a34b555c-6a3d-4293-a54e-e75d1dc8f637.png",
        "entry": 5050280,
        "entry_name": "Asbestos Men",
        "event_total": 68,
        "has_played": true,
        "id": 39019488,
        "last_rank": 2731,
        "player_name": "B Kell",
        "rank": 1740,
        "rank_sort": 1757,
        "total": 2437
      },
      {
        "club_badge_src": null,
        "entry": 5122857,
        "entry_name": "N13",
        "event_total": 66,
        "has_played": true,
        "id": 39614187,
        "last_rank": 1978,
        "player_name": "Nfta Al-S",
        "rank": 1740,
        "rank_sort": 1758,
        "total": 2437
      },
      {
        "club_badge_src": null,
        "entry": 5787026,
        "entry_name": "Shove it up yer hole",
        "event_total": 71,
        "has_played": true,
        "id": 45383290,
        "last_rank": 3150,
        "player_name": "Robert O'Shaughnessy",
        "rank": 1740,
        "rank_sort": 1759,
        "total": 2437
      },
      {
        "club_badge_src": null,
        "entry": 7480150,
        "entry_name": "JK",
        "event_total": 68,
        "has_played": true,
        "id": 61024666,
        "last_rank": 2731,
        "player_name": "Jeffrey Kwok",
        "rank": 1740,
        "rank_sort": 1760,
        "total": 2437
      },
      {
        "club_badge_src": null,
        "entry": 9141604,
        "entry_name": "HolyBoehly",
        "event_total": 62,
        "has_played": true,
        "id": 76859377,
        "last_rank": 1978,
        "player_name": "Todd Boehly-",
        "rank": 1740,
        "rank_sort": 1761,
        "total": 2437
      },
      {
        "club_badge_src": null,
        "entry": 10713908,
        "entry_name": "prrpr",
        "event_total": 70,
        "has_played": true,
        "id": 90502789,
        "last_rank": 2418,
        "player_name": "Lorna Golub",
        "rank": 1740,
        "rank_sort": 1762,
        "total": 2437
      },
      {
        "club_badge_src": "https://fantasy.premierleague.com/gcs/plfpl-production-adobe-approved/plfpl-production/19423/f791c8d4-4376-42fb-b1a2-eda5a660f8e5.png",
        "entry": 19423,
        "entry_name": "antaaar",
        "event_total": 72,
        "has_played": true,
        "id": 120838,
        "last_rank": 2731,
        "player_name": "Ahmed Antar",
        "rank": 1763,
        "rank_sort": 1763,
        "total": 2437
      },
      {
        "club_badge_src": null,
        "entry": 114667,
        "entry_name": "Mohammed Nalah",
        "event_total": 73,
        "has_played": true,
        "id": 748037,
        "last_rank": 3408,
        "player_name": "Gabriel Dahlstr\u00f6m",
        "rank": 1763,
        "rank_sort": 1764,
        "total": 2437
      },
      {
        "club_badge_src": null,
        "entry": 118739,
        "entry_name": "FC Harbo",
        "event_total": 64,
        "has_played": true,
        "id": 774873,
        "last_rank": 1797,
        "player_name": "Amit Alon",
        "rank": 1763,
        "rank_sort": 1765,
        "total": 2437
      },
      {
        "club_badge_src": null,
        "entry": 202022,
        "entry_name": "The Tedwardos",
        "event_total": 67,
        "has_played": true,
        "id": 1341505,
        "last_rank": 2112,
        "player_name": "Edward Kemp",
        "rank": 1763,
        "rank_sort": 1766,
        "total": 2437
      },
      {
        "club_badge_src": "https://fantasy.premierleague.com/gcs/plfpl-production-adobe-approved/plfpl-production/374531/c58beca8-ae7d-4786-be7e-6010be44a6f2.png",
        "entry": 374531,
        "entry_name": "Asiacanos",
        "event_total": 46,
        "has_played": true,
        "id": 2506703,
        "last_rank": 904,
        "player_name": "Ryan Martinez",
        "rank": 1763,
        "rank_sort": 1767,
        "total": 2437
      },
      {
        "club_badge_src": null,
        "entry": 1640505,
        "entry_name": "TheRealOG",
        "event_total": 60,
        "has_played": true,
        "id": 11483589,
        "last_rank": 1816,
        "player_name": "Oli Ginger",
        "rank": 1763,
        "rank_sort": 1768,
        "total": 2437
      },
      {
        "club_badge_src": null,
        "entry": 1875307,
        "entry_name": "free gazza",
        "event_total": 56,
        "has_played": true,
        "id": 13203138,
        "last_rank": 1478,
        "player_name": "nassim nass",
        "rank": 1763,
        "rank_sort": 1769,
        "total": 2437
      },
      {
        "club_badge_src": null,
        "entry": 3837908,
        "entry_name": "Berlin Braves",
        "event_total": 63,
        "has_played": true,
        "id": 28730029,
        "last_rank": 2133,
        "player_name": "Jon Anderson",
        "rank": 1763,
        "rank_sort": 1770,
        "total": 2437
      },
      {
        "club_badge_src": "https://fantasy.premierleague.com/gcs/plfpl-production-adobe-approved/plfpl-production/4145431/db9bec6c-fff1-44b2-86fc-0b1bcde227c8.png",
        "entry": 4145431,
        "entry_name": "Weekly Haulers Fc",
        "event_total": 68,
        "has_played": true,
        "id": 31331494,
        "last_rank": 2685,
        "player_name": "Chuks Ukwamedua",
        "rank": 1763,
        "rank_sort": 1771,
        "total": 2437
      },
      {
        "club_badge_src": null,
        "entry": 6208145,
        "entry_name": "Dullah",
        "event_total": 61,
        "has_played": true,
        "id": 49115794,
        "last_rank": 1931,
        "player_name": "abdallah hassan",
        "rank": 1763,
        "rank_sort": 1772,
        "total": 2437
      },
      {
        "club_badge_src": null,
        "entry": 48494,
        "entry_name": "Pandro Tun Ali",
        "event_total": 62,
        "has_played": true,
        "id": 311453,
        "last_rank": 1648,
        "player_name": "Zhafran Zulkafli",
        "rank": 1773,
        "rank_sort": 1773,
        "total": 2437
      },
      {
        "club_badge_src": null,
        "entry": 57301,
        "entry_name": "Palhincur Enjoyer",
        "event_total": 64,
        "has_played": true,
        "id": 369121,
        "last_rank": 2247,
        "player_name": "Maciej Burski",
        "rank": 1773,
        "rank_sort": 1774,
        "total": 2437
      },
      {
        "club_badge_src": null,
        "entry": 243214,
        "entry_name": "Kinder Mbeumo",
        "event_total": 59,
        "has_played": true,
        "id": 1619602,
        "last_rank": 1734,
        "player_name": "Graeme Sime",
        "rank": 1773,
        "rank_sort": 1775,
        "total": 2437
      },
      {
        "club_badge_src": null,
        "entry": 287252,
        "entry_name": "#johnsonout",
        "event_total": 55,
        "has_played": true,
        "id": 1914263,
        "last_rank": 1164,
        "player_name": "Darren Johnson",
        "rank": 1773,
        "rank_sort": 1776,
        "total": 2437
      },
      {
        "club_badge_src": "https://fantasy.premierleague.com/gcs/plfpl-production-adobe-approved/plfpl-production/310162/61714608-bfda-40d6-b61e-ec44619b6c56.png",
        "entry": 310162,
        "entry_name": "Kaminey",
        "event_total": 65,
        "has_played": true,
        "id": 2077693,
        "last_rank": 2363,
        "player_name": "Abhishek Thard",
        "rank": 1773,
        "rank_sort": 1777,
        "total": 2437
      },
      {
        "club_badge_src": null,
        "entry": 797486,
        "entry_name": "Arne's Army",
        "event_total": 33,
        "has_played": true,
        "id": 5458350,
        "last_rank": 449,
        "player_name": "Rob Carr",
        "rank": 1773,
        "rank_sort": 1778,
        "total": 2437
      },
      {
        "club_badge_src": "https://fantasy.premierleague.com/gcs/plfpl-production-adobe-approved/plfpl-production/1054055/631f0655-6abb-4b2c-b432-cd2c7feaf229.png",
        "entry": 1054055,
        "entry_name": "Popokatepetl UTD",
        "event_total": 57,
        "has_played": true,
        "id": 7294771,
        "last_rank": 1577,
        "player_name": "Aleksandar Mazur",
        "rank": 1773,
        "rank_sort": 1779,
        "total": 2437
      },
      {
        "club_badge_src": null,
        "entry": 3390220,
        "entry_name": "Whittank Wanderers",
        "event_total": 69,
        "has_played": true,
        "id": 25168539,
        "last_rank": 2907,
        "player_name": "Andrew May",
        "rank": 1773,
        "rank_sort": 1780,
        "total": 2437
      },
      {
        "club_badge_src": "https://fantasy.premierleague.com/gcs/plfpl-production-adobe-approved/plfpl-production/3539091/dc0eec80-41b1-4edc-b394-30c54eb41e00.png",
        "entry": 3539091,
        "entry_name": "gooners v2",
        "event_total": 62,
        "has_played": true,
        "id": 26343279,
        "last_rank": 2033,
        "player_name": "Eric Deykerhoff",
        "rank": 1773,
        "rank_sort": 1781,
        "total": 2437
      },
      {
        "club_badge_src": null,
        "entry": 3719257,
        "entry_name": "The Port Specials",
        "event_total": 68,
        "has_played": true,
        "id": 27755062,
        "last_rank": 2235,
        "player_name": "Michelle Stinson",
        "rank": 1773,
        "rank_sort": 1782,
        "total": 2437
      },
      {
        "club_badge_src": null,
        "entry": 5619941,
        "entry_name": "thedas11",
        "event_total": 67,
        "has_played": true,
        "id": 43930365,
        "last_rank": 2133,
        "player_name": "SWARUP DAS",
        "rank": 1773,
        "rank_sort": 1783,
        "total": 2437
      },
      {
        "club_badge_src": null,
        "entry": 6459453,
        "entry_name": "\u00d8degaardian Angel",
        "event_total": 62,
        "has_played": true,
        "id": 51453785,
        "last_rank": 1321,
        "player_name": "Theo Bockmuehl",
        "rank": 1773,
        "rank_sort": 1784,
        "total": 2437
      },
      {
        "club_badge_src": null,
        "entry": 7798945,
        "entry_name": "xxxxxxx",
        "event_total": 66,
        "has_played": true,
        "id": 64063812,
        "last_rank": 2482,
        "player_name": "Phil Jarvis",
        "rank": 1773,
        "rank_sort": 1785,
        "total": 2437
      },
      {
        "club_badge_src": null,
        "entry": 9760,
        "entry_name": "Wirtz Nightmare",
        "event_total": 67,
        "has_played": true,
        "id": 57493,
        "last_rank": 2141,
        "player_name": "Curtis Botham",
        "rank": 1786,
        "rank_sort": 1786,
        "total": 2437
      },
      {
        "club_badge_src": null,
        "entry": 463985,
        "entry_name": "Team eXtreme",
        "event_total": 65,
        "has_played": true,
        "id": 3112231,
        "last_rank": 2371,
        "player_name": "oren Nan",
        "rank": 1786,
        "rank_sort": 1787,
        "total": 2437
      },
      {
        "club_badge_src": null,
        "entry": 1523994,
        "entry_name": "Maarto",
        "event_total": 52,
        "has_played": true,
        "id": 10629377,
        "last_rank": 1215,
        "player_name": "Maarten Rensink",
        "rank": 1786,
        "rank_sort": 1788,
        "total": 2437
      },
      {
        "club_badge_src": null,
        "entry": 4457606,
        "entry_name": "Change Name",
        "event_total": 66,
        "has_played": true,
        "id": 33957885,
        "last_rank": 2495,
        "player_name": "kailesh patel",
        "rank": 1786,
        "rank_sort": 1789,
        "total": 2437
      },
      {
        "club_badge_src": null,
        "entry": 69778,
        "entry_name": "GriffLFC",
        "event_total": 62,
        "has_played": true,
        "id": 452803,
        "last_rank": 1338,
        "player_name": "Elis Griffiths",
        "rank": 1790,
        "rank_sort": 1790,
        "total": 2437
      },
      {
        "club_badge_src": null,
        "entry": 1381522,
        "entry_name": "No Totti No Party",
        "event_total": 63,
        "has_played": true,
        "id": 9608502,
        "last_rank": 1740,
        "player_name": "Simon Ferreira",
        "rank": 1790,
        "rank_sort": 1791,
        "total": 2437
      },
      {
        "club_badge_src": null,
        "entry": 3596366,
        "entry_name": "Palmerla Anderson",
        "event_total": 72,
        "has_played": true,
        "id": 26784513,
        "last_rank": 2762,
        "player_name": "Andrew Weatherhead",
        "rank": 1790,
        "rank_sort": 1792,
        "total": 2437
      },
      {
        "club_badge_src": null,
        "entry": 5874570,
        "entry_name": "Tadii",
        "event_total": 69,
        "has_played": true,
        "id": 46143143,
        "last_rank": 2920,
        "player_name": "Danger x",
        "rank": 1790,
        "rank_sort": 1793,
        "total": 2437
      },
      {
        "club_badge_src": null,
        "entry": 114418,
        "entry_name": "ElgaimFC",
        "event_total": 69,
        "has_played": true,
        "id": 746344,
        "last_rank": 2371,
        "player_name": "Ahmed Atef",
        "rank": 1794,
        "rank_sort": 1794,
        "total": 2437
      },
      {
        "club_badge_src": null,
        "entry": 323012,
        "entry_name": "Rutter Woke Nonsense",
        "event_total": 53,
        "has_played": true,
        "id": 2164653,
        "last_rank": 858,
        "player_name": "Matt Marshall",
        "rank": 1794,
        "rank_sort": 1795,
        "total": 2437
      },
      {
        "club_badge_src": "https://fantasy.premierleague.com/gcs/plfpl-production-adobe-approved/plfpl-production/968226/46c2ff74-6398-42af-b79e-b68a215a82db.png",
        "entry": 968226,
        "entry_name": "Khaled koura",
        "event_total": 61,
        "has_played": true,
        "id": 6673191,
        "last_rank": 1282,
        "player_name": "Khaled mustafa qoura",
        "rank": 1794,
        "rank_sort": 1796,
        "total": 2437
      },
      {
        "club_badge_src": "https://fantasy.premierleague.com/gcs/plfpl-production-adobe-approved/plfpl-production/3494239/baa0b3ac-2025-4409-a69a-655d65f50248.png",
        "entry": 3494239,
        "entry_name": "ZOPPEONE FC",
        "event_total": 65,
        "has_played": true,
        "id": 25990211,
        "last_rank": 2382,
        "player_name": "Papanestoros Ioannou",
        "rank": 1794,
        "rank_sort": 1797,
        "total": 2437
      },
      {
        "club_badge_src": "https://fantasy.premierleague.com/gcs/plfpl-production-adobe-approved/plfpl-production/3449869/e9b6dc05-05ef-44fd-ad77-761937964869.png",
        "entry": 3449869,
        "entry_name": "Blodjaffa",
        "event_total": 54,
        "has_played": true,
        "id": 25636649,
        "last_rank": 1114,
        "player_name": "Knut Mydland",
        "rank": 1798,
        "rank_sort": 1798,
        "total": 2437
      },
      {
        "club_badge_src": null,
        "entry": 577810,
        "entry_name": "MeteNojo FC",
        "event_total": 45,
        "has_played": true,
        "id": 3887981,
        "last_rank": 698,
        "player_name": "Helder Miguel Carvalho",
        "rank": 1799,
        "rank_sort": 1799,
        "total": 2437
      },
      {
        "club_badge_src": null,
        "entry": 8235950,
        "entry_name": "Dreamers",
        "event_total": 63,
        "has_played": true,
        "id": 68084813,
        "last_rank": 2165,
        "player_name": "Manu Mohan",
        "rank": 1800,
        "rank_sort": 1800,
        "total": 2436
      }
    ]
  }
}