{
  "last_updated_data": "2026-05-24T23:28:17Z",
  "league": {
    "admin_entry": null,
    "closed": false,
    "code_privacy": "p",
    "created": "2025-07-20T23:14:33.933835Z",
    "cup_league": 2815434,
    "has_cup": true,
    "id": 314,
    "league_type": "s",
    "max_entries": null,
    "name": "Overall",
    "rank": null,
    "scoring": "c",
    "start_event": 1
  },
  "new_entries": {
    "has_next": false,
    "page": 1,
    "results": []
  },
  "standings": {
    "has_next": true,
    "page": 1277,
    "results": [
      {
        "club_badge_src": null,
        "entry": 4331,
        "entry_name": "Jamie's Red Army",
        "event_total": 70,
        "has_played": true,
        "id": 24622,
        "last_rank": 92602,
        "player_name": "jamie gibbs",
        "rank": 63800,
        "rank_sort": 63801,
        "total": 2344
      },
      {
        "club_badge_src": null,
        "entry": 8917,
        "entry_name": "El Pistolero",
        "event_total": 68,
        "has_played": true,
        "id": 52100,
        "last_rank": 78671,
        "player_name": "Keith Dempsey",
        "rank": 63800,
        "rank_sort": 63802,
        "total": 2344
      },
      {
        "club_badge_src": null,
        "entry": 11699,
        "entry_name": "\u0627\u0644\u0646\u0633\u0631",
        "event_total": 63,
        "has_played": true,
        "id": 69643,
        "last_rank": 68294,
        "player_name": "ahmed sayed",
        "rank": 63800,
        "rank_sort": 63803,
        "total": 2344
      },
      {
        "club_badge_src": null,
        "entry": 13457,
        "entry_name": "Dontlook back Elanga",
        "event_total": 61,
        "has_played": true,
        "id": 81322,
        "last_rank": 57451,
        "player_name": "Nick De'Ath",
        "rank": 63800,
        "rank_sort": 63804,
        "total": 2344
      },
      {
        "club_badge_src": null,
        "entry": 13559,
        "entry_name": "Bart Team",
        "event_total": 62,
        "has_played": true,
        "id": 81991,
        "last_rank": 66380,
        "player_name": "Bartosz Biskup",
        "rank": 63800,
        "rank_sort": 63805,
        "total": 2344
      },
      {
        "club_badge_src": "https://fantasy.premierleague.com/gcs/plfpl-production-adobe-approved/plfpl-production/16469/cbc9f482-0e53-4c7b-8e36-3fdfd6a7256d.png",
        "entry": 16469,
        "entry_name": "UnLuckyTiger",
        "event_total": 71,
        "has_played": true,
        "id": 101745,
        "last_rank": 76474,
        "player_name": "Asbj\u00f8rn Ihlen",
        "rank": 63800,
        "rank_sort": 63806,
        "total": 2344
      },
      {
        "club_badge_src": "https://fantasy.premierleague.com/gcs/plfpl-production-adobe-approved/plfpl-production/42465/97a73b66-4c2a-4bbd-8f0d-f7e39e0a12d7.png",
        "entry": 42465,
        "entry_name": "Stranger Mings",
        "event_total": 61,
        "has_played": true,
        "id": 272092,
        "last_rank": 64508,
        "player_name": "Ibn Fernandes",
        "rank": 63800,
        "rank_sort": 63807,
        "total": 2344
      },
      {
        "club_badge_src": null,
        "entry": 47909,
        "entry_name": "Oy United",
        "event_total": 63,
        "has_played": true,
        "id": 307498,
        "last_rank": 60933,
        "player_name": "Yuval Margalit",
        "rank": 63800,
        "rank_sort": 63808,
        "total": 2344
      },
      {
        "club_badge_src": null,
        "entry": 49646,
        "entry_name": "The GOAT",
        "event_total": 55,
        "has_played": true,
        "id": 319163,
        "last_rank": 61087,
        "player_name": "Matthew Derby",
        "rank": 63800,
        "rank_sort": 63809,
        "total": 2344
      },
      {
        "club_badge_src": "https://fantasy.premierleague.com/gcs/plfpl-production-adobe-approved/plfpl-production/71913/9cbd5074-a09e-4dcf-8aec-b9d685cd3ff8.png",
        "entry": 71913,
        "entry_name": "WOODn't expect match",
        "event_total": 62,
        "has_played": true,
        "id": 467209,
        "last_rank": 66380,
        "player_name": "Krzysztof \u015aliwa",
        "rank": 63800,
        "rank_sort": 63810,
        "total": 2344
      },
      {
        "club_badge_src": null,
        "entry": 169040,
        "entry_name": "Moraaaaaaaa\u2b50",
        "event_total": 51,
        "has_played": true,
        "id": 1117140,
        "last_rank": 47812,
        "player_name": "omar soliman",
        "rank": 63800,
        "rank_sort": 63811,
        "total": 2344
      },
      {
        "club_badge_src": null,
        "entry": 180894,
        "entry_name": "Captain Amine",
        "event_total": 65,
        "has_played": true,
        "id": 1193758,
        "last_rank": 64422,
        "player_name": "boumediene Amine",
        "rank": 63800,
        "rank_sort": 63812,
        "total": 2344
      },
      {
        "club_badge_src": null,
        "entry": 257288,
        "entry_name": "FadiManaa\ufffd",
        "event_total": 66,
        "has_played": true,
        "id": 1711080,
        "last_rank": 66296,
        "player_name": "Fadi jordan",
        "rank": 63800,
        "rank_sort": 63813,
        "total": 2344
      },
      {
        "club_badge_src": "https://fantasy.premierleague.com/gcs/plfpl-production-adobe-approved/plfpl-production/344243/a3d0e1f4-54f4-4e32-b781-e910d07b0d81.png",
        "entry": 344243,
        "entry_name": "N'Golo Caicedo",
        "event_total": 38,
        "has_played": true,
        "id": 2304032,
        "last_rank": 31404,
        "player_name": "Minh Nguyen",
        "rank": 63800,
        "rank_sort": 63814,
        "total": 2344
      },
      {
        "club_badge_src": null,
        "entry": 358165,
        "entry_name": "Mimipool FC",
        "event_total": 71,
        "has_played": true,
        "id": 2396843,
        "last_rank": 85487,
        "player_name": "Zaric Milan",
        "rank": 63800,
        "rank_sort": 63815,
        "total": 2344
      },
      {
        "club_badge_src": null,
        "entry": 371149,
        "entry_name": "Zduny",
        "event_total": 71,
        "has_played": true,
        "id": 2483503,
        "last_rank": 85487,
        "player_name": "Damian Szyma\u0144ski",
        "rank": 63800,
        "rank_sort": 63816,
        "total": 2344
      },
      {
        "club_badge_src": "https://fantasy.premierleague.com/gcs/plfpl-production-adobe-approved/plfpl-production/394452/e1b51347-3411-4841-b6e7-6642d8878c5a.png",
        "entry": 394452,
        "entry_name": "ColdlikePalmer",
        "event_total": 49,
        "has_played": true,
        "id": 2645309,
        "last_rank": 44882,
        "player_name": "Pavlo Gorsky",
        "rank": 63800,
        "rank_sort": 63817,
        "total": 2344
      },
      {
        "club_badge_src": null,
        "entry": 404083,
        "entry_name": "Kurtulus JK",
        "event_total": 52,
        "has_played": true,
        "id": 2709466,
        "last_rank": 49368,
        "player_name": "Yagiz Koseoglu",
        "rank": 63800,
        "rank_sort": 63818,
        "total": 2344
      },
      {
        "club_badge_src": "https://fantasy.premierleague.com/gcs/plfpl-production-adobe-approved/plfpl-production/411067/684290cd-745e-406d-ae1e-c7acc040e7cc.png",
        "entry": 411067,
        "entry_name": "Coq Confidence",
        "event_total": 53,
        "has_played": true,
        "id": 2756255,
        "last_rank": 57557,
        "player_name": "Nathan Morris",
        "rank": 63800,
        "rank_sort": 63819,
        "total": 2344
      },
      {
        "club_badge_src": "https://fantasy.premierleague.com/gcs/plfpl-production-adobe-approved/plfpl-production/433367/a10268b5-d153-4fc6-8960-1f129a3b4cfb.png",
        "entry": 433367,
        "entry_name": "Hugos Tivoli",
        "event_total": 81,
        "has_played": true,
        "id": 2906238,
        "last_rank": 122458,
        "player_name": "Joachim Bratteng",
        "rank": 63800,
        "rank_sort": 63820,
        "total": 2344
      },
      {
        "club_badge_src": "https://fantasy.premierleague.com/gcs/plfpl-production-adobe-approved/plfpl-production/511061/5b2c4b2b-86e5-444e-a184-66f9267028f9.png",
        "entry": 511061,
        "entry_name": "Izzys Allstars 2025",
        "event_total": 62,
        "has_played": true,
        "id": 3431884,
        "last_rank": 74474,
        "player_name": "Keith Mccabe",
        "rank": 63800,
        "rank_sort": 63821,
        "total": 2344
      },
      {
        "club_badge_src": null,
        "entry": 541372,
        "entry_name": "FREE P\u00c0L\u00cbSTIN\u00c9 \u270c\ufe0f",
        "event_total": 53,
        "has_played": true,
        "id": 3643700,
        "last_rank": 57557,
        "player_name": "Mohanad Abd Elmenem",
        "rank": 63800,
        "rank_sort": 63822,
        "total": 2344
      },
      {
        "club_badge_src": "https://fantasy.premierleague.com/gcs/plfpl-production-adobe-approved/plfpl-production/558984/bf81f454-8e31-4dcc-abdb-af9a26c6cfd5.png",
        "entry": 558984,
        "entry_name": "FPLBaklava",
        "event_total": 65,
        "has_played": true,
        "id": 3761852,
        "last_rank": 72265,
        "player_name": "Fuad Yagout",
        "rank": 63800,
        "rank_sort": 63823,
        "total": 2344
      },
      {
        "club_badge_src": null,
        "entry": 568743,
        "entry_name": "TopMatt",
        "event_total": 69,
        "has_played": true,
        "id": 3827975,
        "last_rank": 80877,
        "player_name": "Matt Stainton",
        "rank": 63800,
        "rank_sort": 63824,
        "total": 2344
      },
      {
        "club_badge_src": null,
        "entry": 572358,
        "entry_name": "Old Seafood",
        "event_total": 63,
        "has_played": true,
        "id": 3852033,
        "last_rank": 60933,
        "player_name": "Samuel Fung",
        "rank": 63800,
        "rank_sort": 63825,
        "total": 2344
      },
      {
        "club_badge_src": null,
        "entry": 682328,
        "entry_name": "Sorry Nic Jackson oo",
        "event_total": 66,
        "has_played": true,
        "id": 4617860,
        "last_rank": 74395,
        "player_name": "Mike Forscutt",
        "rank": 63800,
        "rank_sort": 63826,
        "total": 2344
      },
      {
        "club_badge_src": null,
        "entry": 702098,
        "entry_name": "WhoPutZubInMyMendi",
        "event_total": 65,
        "has_played": true,
        "id": 4757280,
        "last_rank": 64422,
        "player_name": "Tarek AbouZeid",
        "rank": 63800,
        "rank_sort": 63827,
        "total": 2344
      },
      {
        "club_badge_src": "https://fantasy.premierleague.com/gcs/plfpl-production-adobe-approved/plfpl-production/707186/eeca30a6-f6ac-4e4f-89fa-591fdb8ce3d6.png",
        "entry": 707186,
        "entry_name": "Moles Allstars",
        "event_total": 66,
        "has_played": true,
        "id": 4792778,
        "last_rank": 83216,
        "player_name": "Daniel Dew",
        "rank": 63800,
        "rank_sort": 63828,
        "total": 2344
      },
      {
        "club_badge_src": null,
        "entry": 768262,
        "entry_name": "ballenes semester",
        "event_total": 51,
        "has_played": true,
        "id": 5240032,
        "last_rank": 54218,
        "player_name": "Jonas Henmo",
        "rank": 63800,
        "rank_sort": 63829,
        "total": 2344
      },
      {
        "club_badge_src": null,
        "entry": 843467,
        "entry_name": "Tuna Grooves",
        "event_total": 61,
        "has_played": true,
        "id": 5779104,
        "last_rank": 72407,
        "player_name": "Dean Woodmass",
        "rank": 63800,
        "rank_sort": 63830,
        "total": 2344
      },
      {
        "club_badge_src": null,
        "entry": 994108,
        "entry_name": "rp",
        "event_total": 42,
        "has_played": true,
        "id": 6858514,
        "last_rank": 40959,
        "player_name": "R P",
        "rank": 63800,
        "rank_sort": 63831,
        "total": 2344
      },
      {
        "club_badge_src": null,
        "entry": 1218962,
        "entry_name": "ElDod",
        "event_total": 62,
        "has_played": true,
        "id": 8462400,
        "last_rank": 66380,
        "player_name": "El Dod",
        "rank": 63800,
        "rank_sort": 63832,
        "total": 2344
      },
      {
        "club_badge_src": null,
        "entry": 1248544,
        "entry_name": "kebab Mo'salahd",
        "event_total": 66,
        "has_played": true,
        "id": 8671156,
        "last_rank": 66296,
        "player_name": "Jack Bird",
        "rank": 63800,
        "rank_sort": 63833,
        "total": 2344
      },
      {
        "club_badge_src": null,
        "entry": 1258474,
        "entry_name": "Fc Salahaaland \ufffd",
        "event_total": 56,
        "has_played": true,
        "id": 8741623,
        "last_rank": 62812,
        "player_name": "Syed Jishan",
        "rank": 63800,
        "rank_sort": 63834,
        "total": 2344
      },
      {
        "club_badge_src": null,
        "entry": 1439798,
        "entry_name": "Third Again",
        "event_total": 44,
        "has_played": true,
        "id": 10032805,
        "last_rank": 43607,
        "player_name": "Tristan Farr",
        "rank": 63800,
        "rank_sort": 63835,
        "total": 2344
      },
      {
        "club_badge_src": null,
        "entry": 1763457,
        "entry_name": "Alissonwonderland",
        "event_total": 54,
        "has_played": true,
        "id": 12382846,
        "last_rank": 59291,
        "player_name": "Tom Holroyd",
        "rank": 63800,
        "rank_sort": 63836,
        "total": 2344
      },
      {
        "club_badge_src": "https://fantasy.premierleague.com/gcs/plfpl-production-adobe-approved/plfpl-production/1998648/d69e8f35-8e80-43e9-81cd-4937321cd98e.png",
        "entry": 1998648,
        "entry_name": "Breeding beys",
        "event_total": 59,
        "has_played": true,
        "id": 14124526,
        "last_rank": 68351,
        "player_name": "Andrew Breed",
        "rank": 63800,
        "rank_sort": 63837,
        "total": 2344
      },
      {
        "club_badge_src": null,
        "entry": 2005119,
        "entry_name": "Main man\u00e8  fc",
        "event_total": 65,
        "has_played": true,
        "id": 14176281,
        "last_rank": 72346,
        "player_name": "hamza tariq",
        "rank": 63800,
        "rank_sort": 63838,
        "total": 2344
      },
      {
        "club_badge_src": null,
        "entry": 2433218,
        "entry_name": "Kinder Mbeumo",
        "event_total": 73,
        "has_played": true,
        "id": 17399472,
        "last_rank": 80651,
        "player_name": "Dino Saletovic",
        "rank": 63800,
        "rank_sort": 63839,
        "total": 2344
      },
      {
        "club_badge_src": null,
        "entry": 2580800,
        "entry_name": "HWG 10IAR",
        "event_total": 44,
        "has_played": true,
        "id": 18523752,
        "last_rank": 43570,
        "player_name": "Michael Mitchell",
        "rank": 63800,
        "rank_sort": 63840,
        "total": 2344
      },
      {
        "club_badge_src": null,
        "entry": 2811515,
        "entry_name": "kinder mbeumo",
        "event_total": 60,
        "has_played": true,
        "id": 20534832,
        "last_rank": 70355,
        "player_name": "Joe Walker",
        "rank": 63800,
        "rank_sort": 63841,
        "total": 2344
      },
      {
        "club_badge_src": null,
        "entry": 3053834,
        "entry_name": "Sally can wait",
        "event_total": 68,
        "has_played": true,
        "id": 22482331,
        "last_rank": 78671,
        "player_name": "Yash Mehta",
        "rank": 63800,
        "rank_sort": 63842,
        "total": 2344
      },
      {
        "club_badge_src": null,
        "entry": 3663803,
        "entry_name": "United\u2764\ufe0f",
        "event_total": 60,
        "has_played": true,
        "id": 27322767,
        "last_rank": 70355,
        "player_name": "Kristian Nesset",
        "rank": 63800,
        "rank_sort": 63843,
        "total": 2344
      },
      {
        "club_badge_src": null,
        "entry": 4233308,
        "entry_name": "Blacklist",
        "event_total": 67,
        "has_played": true,
        "id": 32077443,
        "last_rank": 85565,
        "player_name": "Trey Dante",
        "rank": 63800,
        "rank_sort": 63844,
        "total": 2344
      },
      {
        "club_badge_src": null,
        "entry": 4433136,
        "entry_name": "Rabid Vienna",
        "event_total": 47,
        "has_played": true,
        "id": 33751846,
        "last_rank": 42225,
        "player_name": "Brian Busbridge",
        "rank": 63800,
        "rank_sort": 63845,
        "total": 2344
      },
      {
        "club_badge_src": null,
        "entry": 5119639,
        "entry_name": "Jakes11",
        "event_total": 57,
        "has_played": true,
        "id": 39584014,
        "last_rank": 64603,
        "player_name": "Jake Devereux",
        "rank": 63800,
        "rank_sort": 63846,
        "total": 2344
      },
      {
        "club_badge_src": null,
        "entry": 5356324,
        "entry_name": "Wataru Doing",
        "event_total": 45,
        "has_played": true,
        "id": 41592138,
        "last_rank": 45007,
        "player_name": "James Callow",
        "rank": 63800,
        "rank_sort": 63847,
        "total": 2344
      },
      {
        "club_badge_src": null,
        "entry": 6457261,
        "entry_name": "\u0386\u03bd\u03b8\u03c1\u03c9\u03c0\u03bf\u03c2 \u03c4\u03bf\u03c5 \u0398\u03b5\u03bf\u03cd",
        "event_total": 69,
        "has_played": true,
        "id": 51430569,
        "last_rank": 72265,
        "player_name": "\u0386\u03bd\u03b8\u03c1\u03c9\u03c0\u03bf\u03c2 \u03c4\u03bf\u03c5 \u03c4\u03bf\u03c5",
        "rank": 63800,
        "rank_sort": 63848,
        "total": 2344
      },
      {
        "club_badge_src": null,
        "entry": 7485427,
        "entry_name": "Ponczek",
        "event_total": 67,
        "has_played": true,
        "id": 61093420,
        "last_rank": 76574,
        "player_name": "olaf wojcik",
        "rank": 63800,
        "rank_sort": 63849,
        "total": 2344
      },
      {
        "club_badge_src": null,
        "entry": 7735624,
        "entry_name": "Power Reijnders",
        "event_total": 56,
        "has_played": true,
        "id": 63492081,
        "last_rank": 62874,
        "player_name": "Karim Hady",
        "rank": 63800,
        "rank_sort": 63850,
        "total": 2344
      }
    ]
  }
}