{
  "last_updated_data": "2026-05-24T23:28:17Z",
  "league": {
    "admin_entry": null,
    "closed": false,
    "code_privacy": "p",
    "created": "2025-07-20T23:14:33.933835Z",
    "cup_league": 2815434,
    "has_cup": true,
    "id": 314,
    "league_type": "s",
    "max_entries": null,
    "name": "Overall",
    "rank": null,
    "scoring": "c",
    "start_event": 1
  },
  "new_entries": {
    "has_next": false,
    "page": 1,
    "results": []
  },
  "standings": {
    "has_next": true,
    "page": 90,
    "results": [
      {
        "club_badge_src": null,
        "entry": 41397,
        "entry_name": "Beto Call Saul",
        "event_total": 63,
        "has_played": true,
        "id": 265228,
        "last_rank": 5448,
        "player_name": "Fraser Coulter",
        "rank": 4442,
        "rank_sort": 4451,
        "total": 2417
      },
      {
        "club_badge_src": null,
        "entry": 93626,
        "entry_name": "True North FC",
        "event_total": 72,
        "has_played": true,
        "id": 611819,
        "last_rank": 7959,
        "player_name": "Matthew Kirk",
        "rank": 4442,
        "rank_sort": 4452,
        "total": 2417
      },
      {
        "club_badge_src": null,
        "entry": 96616,
        "entry_name": "Bajengurkan IF",
        "event_total": 71,
        "has_played": true,
        "id": 631144,
        "last_rank": 7592,
        "player_name": "Erik Nilsson Lundstr\u00f6m",
        "rank": 4442,
        "rank_sort": 4453,
        "total": 2417
      },
      {
        "club_badge_src": null,
        "entry": 98416,
        "entry_name": "Here comes the Mbeum",
        "event_total": 60,
        "has_played": true,
        "id": 642646,
        "last_rank": 4704,
        "player_name": "Jarle-Andr\u00e9 Almendingen",
        "rank": 4442,
        "rank_sort": 4454,
        "total": 2417
      },
      {
        "club_badge_src": null,
        "entry": 104680,
        "entry_name": "Guinness p\u00e5 kippaxen",
        "event_total": 47,
        "has_played": true,
        "id": 682845,
        "last_rank": 2553,
        "player_name": "Henrik Alver",
        "rank": 4442,
        "rank_sort": 4455,
        "total": 2417
      },
      {
        "club_badge_src": "https://fantasy.premierleague.com/gcs/plfpl-production-adobe-approved/plfpl-production/131729/368cc507-ecec-4c1b-b0b5-97865055965b.png",
        "entry": 131729,
        "entry_name": "Skibidi Hoilett",
        "event_total": 39,
        "has_played": true,
        "id": 858180,
        "last_rank": 1689,
        "player_name": "Ben Stanbury",
        "rank": 4442,
        "rank_sort": 4456,
        "total": 2417
      },
      {
        "club_badge_src": "https://fantasy.premierleague.com/gcs/plfpl-production-adobe-approved/plfpl-production/176845/849c693a-9f20-4f26-ae6c-8162d0a6b8cb.png",
        "entry": 176845,
        "entry_name": "4 dana nisam lego",
        "event_total": 66,
        "has_played": true,
        "id": 1167311,
        "last_rank": 6194,
        "player_name": "Aleksandar Ivkovic",
        "rank": 4442,
        "rank_sort": 4457,
        "total": 2417
      },
      {
        "club_badge_src": null,
        "entry": 225529,
        "entry_name": "FC Super Llama",
        "event_total": 67,
        "has_played": true,
        "id": 1500282,
        "last_rank": 6528,
        "player_name": "James Pearman",
        "rank": 4442,
        "rank_sort": 4458,
        "total": 2417
      },
      {
        "club_badge_src": null,
        "entry": 257809,
        "entry_name": "Noni for apologies",
        "event_total": 51,
        "has_played": true,
        "id": 1714452,
        "last_rank": 3103,
        "player_name": "Albin Detterfelt",
        "rank": 4442,
        "rank_sort": 4459,
        "total": 2417
      },
      {
        "club_badge_src": null,
        "entry": 318592,
        "entry_name": "The Unbearables",
        "event_total": 63,
        "has_played": true,
        "id": 2135603,
        "last_rank": 5448,
        "player_name": "Robbie Todd",
        "rank": 4442,
        "rank_sort": 4460,
        "total": 2417
      },
      {
        "club_badge_src": null,
        "entry": 352510,
        "entry_name": "Ragazzi Sporchi",
        "event_total": 76,
        "has_played": true,
        "id": 2359329,
        "last_rank": 9536,
        "player_name": "Nic Carroll",
        "rank": 4442,
        "rank_sort": 4461,
        "total": 2417
      },
      {
        "club_badge_src": null,
        "entry": 510272,
        "entry_name": "A very late Riser",
        "event_total": 61,
        "has_played": true,
        "id": 3426434,
        "last_rank": 4954,
        "player_name": "Imti Jamir",
        "rank": 4442,
        "rank_sort": 4462,
        "total": 2417
      },
      {
        "club_badge_src": null,
        "entry": 545744,
        "entry_name": "Showtimers",
        "event_total": 68,
        "has_played": true,
        "id": 3672867,
        "last_rank": 6703,
        "player_name": "Douglas Currie",
        "rank": 4442,
        "rank_sort": 4463,
        "total": 2417
      },
      {
        "club_badge_src": null,
        "entry": 578757,
        "entry_name": "Red Star Naperville",
        "event_total": 46,
        "has_played": true,
        "id": 3894227,
        "last_rank": 2418,
        "player_name": "David Byrne",
        "rank": 4442,
        "rank_sort": 4464,
        "total": 2417
      },
      {
        "club_badge_src": null,
        "entry": 650608,
        "entry_name": "4 in a Smith Rowe",
        "event_total": 65,
        "has_played": true,
        "id": 4396958,
        "last_rank": 5904,
        "player_name": "Marnie Kent",
        "rank": 4442,
        "rank_sort": 4465,
        "total": 2417
      },
      {
        "club_badge_src": null,
        "entry": 679727,
        "entry_name": "Greenarmy",
        "event_total": 67,
        "has_played": true,
        "id": 4599638,
        "last_rank": 6448,
        "player_name": "Alan Fitzpatrick",
        "rank": 4442,
        "rank_sort": 4466,
        "total": 2417
      },
      {
        "club_badge_src": null,
        "entry": 796323,
        "entry_name": "Big Al's Soccer Pals",
        "event_total": 74,
        "has_played": true,
        "id": 5449879,
        "last_rank": 8718,
        "player_name": "Alexander Pierson",
        "rank": 4442,
        "rank_sort": 4467,
        "total": 2417
      },
      {
        "club_badge_src": "https://fantasy.premierleague.com/gcs/plfpl-production-adobe-approved/plfpl-production/805543/e335f40a-6d89-49d2-bd02-201870104902.png",
        "entry": 805543,
        "entry_name": "Tosin the water",
        "event_total": 57,
        "has_played": true,
        "id": 5514355,
        "last_rank": 4047,
        "player_name": "Jeff Rentschler",
        "rank": 4442,
        "rank_sort": 4468,
        "total": 2417
      },
      {
        "club_badge_src": null,
        "entry": 878889,
        "entry_name": "GENESIS",
        "event_total": 52,
        "has_played": true,
        "id": 6026762,
        "last_rank": 3257,
        "player_name": "Ansah Musademba",
        "rank": 4442,
        "rank_sort": 4469,
        "total": 2417
      },
      {
        "club_badge_src": null,
        "entry": 927341,
        "entry_name": "THE MUFFIN SONG",
        "event_total": 66,
        "has_played": true,
        "id": 6379850,
        "last_rank": 6194,
        "player_name": "Jordan Warwood",
        "rank": 4442,
        "rank_sort": 4470,
        "total": 2417
      },
      {
        "club_badge_src": null,
        "entry": 948965,
        "entry_name": "GoodOnPaperFC",
        "event_total": 55,
        "has_played": true,
        "id": 6536888,
        "last_rank": 3721,
        "player_name": "Christian King",
        "rank": 4442,
        "rank_sort": 4471,
        "total": 2417
      },
      {
        "club_badge_src": null,
        "entry": 1054014,
        "entry_name": "cunhamadata",
        "event_total": 36,
        "has_played": true,
        "id": 7294492,
        "last_rank": 1465,
        "player_name": "eoin mckeown",
        "rank": 4442,
        "rank_sort": 4472,
        "total": 2417
      },
      {
        "club_badge_src": null,
        "entry": 1060386,
        "entry_name": "Gal\u00e1cticos",
        "event_total": 70,
        "has_played": true,
        "id": 7339185,
        "last_rank": 7333,
        "player_name": "Tsubasa Oozora",
        "rank": 4442,
        "rank_sort": 4473,
        "total": 2417
      },
      {
        "club_badge_src": null,
        "entry": 1113307,
        "entry_name": "Hardly Wirtz It",
        "event_total": 67,
        "has_played": true,
        "id": 7711711,
        "last_rank": 6448,
        "player_name": "Sian Donovan",
        "rank": 4442,
        "rank_sort": 4474,
        "total": 2417
      },
      {
        "club_badge_src": null,
        "entry": 1223604,
        "entry_name": "JoblessGooner FC",
        "event_total": 48,
        "has_played": true,
        "id": 8495212,
        "last_rank": 2685,
        "player_name": "James Davis",
        "rank": 4442,
        "rank_sort": 4475,
        "total": 2417
      },
      {
        "club_badge_src": "https://fantasy.premierleague.com/gcs/plfpl-production-adobe-approved/plfpl-production/1259405/7aa91a0b-45cd-4aab-b72b-b10ff8aa7dc3.png",
        "entry": 1259405,
        "entry_name": "Klopps Kop Kaiser",
        "event_total": 68,
        "has_played": true,
        "id": 8748053,
        "last_rank": 6752,
        "player_name": "carle lenting",
        "rank": 4442,
        "rank_sort": 4476,
        "total": 2417
      },
      {
        "club_badge_src": null,
        "entry": 1328956,
        "entry_name": "Haven\u2019t Got A Kalou",
        "event_total": 63,
        "has_played": true,
        "id": 9237251,
        "last_rank": 5400,
        "player_name": "Daniele Incerti",
        "rank": 4442,
        "rank_sort": 4477,
        "total": 2417
      },
      {
        "club_badge_src": null,
        "entry": 1333783,
        "entry_name": "Kinder Mbeumo",
        "event_total": 54,
        "has_played": true,
        "id": 9271119,
        "last_rank": 3562,
        "player_name": "Yahyaa Umarji",
        "rank": 4442,
        "rank_sort": 4478,
        "total": 2417
      },
      {
        "club_badge_src": "https://fantasy.premierleague.com/gcs/plfpl-production-adobe-approved/plfpl-production/1369547/b0e7f0b5-3ca5-4694-ac34-379e6beda6b5.png",
        "entry": 1369547,
        "entry_name": "Team Samuel",
        "event_total": 68,
        "has_played": true,
        "id": 9520109,
        "last_rank": 6752,
        "player_name": "Sam Won",
        "rank": 4442,
        "rank_sort": 4479,
        "total": 2417
      },
      {
        "club_badge_src": "https://fantasy.premierleague.com/gcs/plfpl-production-adobe-approved/plfpl-production/1376485/18f158a4-2a7b-444a-a806-b02eeaf4ac14.png",
        "entry": 1376485,
        "entry_name": "#cometoBes\u0131ktas",
        "event_total": 68,
        "has_played": true,
        "id": 9568386,
        "last_rank": 6752,
        "player_name": "K\u00fcfi \u00dcst\u00fcn",
        "rank": 4442,
        "rank_sort": 4480,
        "total": 2417
      },
      {
        "club_badge_src": null,
        "entry": 1527517,
        "entry_name": "Hugo Ekitike Out",
        "event_total": 69,
        "has_played": true,
        "id": 10654077,
        "last_rank": 7014,
        "player_name": "Patrick Merrigan",
        "rank": 4442,
        "rank_sort": 4481,
        "total": 2417
      },
      {
        "club_badge_src": null,
        "entry": 1603184,
        "entry_name": "NollyFC",
        "event_total": 62,
        "has_played": true,
        "id": 11215515,
        "last_rank": 5147,
        "player_name": "Olly Neech",
        "rank": 4442,
        "rank_sort": 4482,
        "total": 2417
      },
      {
        "club_badge_src": "https://fantasy.premierleague.com/gcs/plfpl-production-adobe-approved/plfpl-production/1925580/33b4bfc4-33dc-4175-baae-716b35f7e609.png",
        "entry": 1925580,
        "entry_name": "Me Myself Ndiaye",
        "event_total": 60,
        "has_played": true,
        "id": 13580033,
        "last_rank": 4704,
        "player_name": "Christopher Russell",
        "rank": 4442,
        "rank_sort": 4483,
        "total": 2417
      },
      {
        "club_badge_src": "https://fantasy.premierleague.com/gcs/plfpl-production-adobe-approved/plfpl-production/2189139/b4742e00-eacd-44c9-93ae-74c5cd25280a.png",
        "entry": 2189139,
        "entry_name": "Chaz City",
        "event_total": 64,
        "has_played": true,
        "id": 15573843,
        "last_rank": 5688,
        "player_name": "Charlie Dearden",
        "rank": 4442,
        "rank_sort": 4484,
        "total": 2417
      },
      {
        "club_badge_src": null,
        "entry": 2451313,
        "entry_name": "Sunderland to I Die",
        "event_total": 50,
        "has_played": true,
        "id": 17532648,
        "last_rank": 2952,
        "player_name": "Freddie Cooke",
        "rank": 4442,
        "rank_sort": 4485,
        "total": 2417
      },
      {
        "club_badge_src": null,
        "entry": 3017600,
        "entry_name": "Quattro Titoli",
        "event_total": 67,
        "has_played": true,
        "id": 22201359,
        "last_rank": 6409,
        "player_name": "Hampus Nilsson",
        "rank": 4442,
        "rank_sort": 4486,
        "total": 2417
      },
      {
        "club_badge_src": "https://fantasy.premierleague.com/gcs/plfpl-production-adobe-approved/plfpl-production/3122159/674122dd-7cbc-47a4-a861-cc9d7253234d.png",
        "entry": 3122159,
        "entry_name": "MRB_Utd7",
        "event_total": 60,
        "has_played": true,
        "id": 23040722,
        "last_rank": 4742,
        "player_name": "Mukunda Bastola",
        "rank": 4442,
        "rank_sort": 4487,
        "total": 2417
      },
      {
        "club_badge_src": "https://fantasy.premierleague.com/gcs/plfpl-production-adobe-approved/plfpl-production/3234364/cf3dc268-82fd-4437-bf0a-6f51eafb79d6.png",
        "entry": 3234364,
        "entry_name": "fc lettu",
        "event_total": 69,
        "has_played": true,
        "id": 23921765,
        "last_rank": 7059,
        "player_name": "Julius Repo",
        "rank": 4442,
        "rank_sort": 4488,
        "total": 2417
      },
      {
        "club_badge_src": null,
        "entry": 3320827,
        "entry_name": "Wilton Wildcats",
        "event_total": 43,
        "has_played": true,
        "id": 24616091,
        "last_rank": 2068,
        "player_name": "Stuart Maughan",
        "rank": 4442,
        "rank_sort": 4489,
        "total": 2417
      },
      {
        "club_badge_src": null,
        "entry": 3678560,
        "entry_name": "The Chickens",
        "event_total": 58,
        "has_played": true,
        "id": 27437099,
        "last_rank": 4303,
        "player_name": "Elliot Farrar",
        "rank": 4442,
        "rank_sort": 4490,
        "total": 2417
      },
      {
        "club_badge_src": null,
        "entry": 3707444,
        "entry_name": "Mittelstip",
        "event_total": 52,
        "has_played": true,
        "id": 27663363,
        "last_rank": 3257,
        "player_name": "Felix Moriau",
        "rank": 4442,
        "rank_sort": 4491,
        "total": 2417
      },
      {
        "club_badge_src": null,
        "entry": 3818481,
        "entry_name": "Nordin Gerzic",
        "event_total": 57,
        "has_played": true,
        "id": 28557112,
        "last_rank": 4062,
        "player_name": "Axel Rutstr\u00f6m",
        "rank": 4442,
        "rank_sort": 4492,
        "total": 2417
      },
      {
        "club_badge_src": "https://fantasy.premierleague.com/gcs/plfpl-production-adobe-approved/plfpl-production/4392603/5cdf8492-16a1-4532-ae58-20d4e412cbc3.png",
        "entry": 4392603,
        "entry_name": "TaxiSquad",
        "event_total": 59,
        "has_played": true,
        "id": 33394135,
        "last_rank": 4515,
        "player_name": "Santeri Korpela",
        "rank": 4442,
        "rank_sort": 4493,
        "total": 2417
      },
      {
        "club_badge_src": null,
        "entry": 4401513,
        "entry_name": "No more Mr. Rice Guy",
        "event_total": 43,
        "has_played": true,
        "id": 33474725,
        "last_rank": 2088,
        "player_name": "Alex Harris",
        "rank": 4442,
        "rank_sort": 4494,
        "total": 2417
      },
      {
        "club_badge_src": null,
        "entry": 4468741,
        "entry_name": "Still a step too VAR",
        "event_total": 63,
        "has_played": true,
        "id": 34051957,
        "last_rank": 5400,
        "player_name": "Derek Stewart",
        "rank": 4442,
        "rank_sort": 4495,
        "total": 2417
      },
      {
        "club_badge_src": null,
        "entry": 4666251,
        "entry_name": "Rutter Woke Nonsense",
        "event_total": 62,
        "has_played": true,
        "id": 35740481,
        "last_rank": 5173,
        "player_name": "Chris Pover",
        "rank": 4442,
        "rank_sort": 4496,
        "total": 2417
      },
      {
        "club_badge_src": null,
        "entry": 4768669,
        "entry_name": "Big Djik XI",
        "event_total": 57,
        "has_played": true,
        "id": 36701997,
        "last_rank": 4155,
        "player_name": "Aditya Sundesha",
        "rank": 4442,
        "rank_sort": 4497,
        "total": 2417
      },
      {
        "club_badge_src": null,
        "entry": 4784035,
        "entry_name": "El Galacticos",
        "event_total": 51,
        "has_played": true,
        "id": 36828518,
        "last_rank": 3103,
        "player_name": "Sean Meehan",
        "rank": 4442,
        "rank_sort": 4498,
        "total": 2417
      },
      {
        "club_badge_src": null,
        "entry": 5003607,
        "entry_name": "Boom Xhaka Laka",
        "event_total": 54,
        "has_played": true,
        "id": 38636390,
        "last_rank": 3528,
        "player_name": "Oscar Allansson",
        "rank": 4442,
        "rank_sort": 4499,
        "total": 2417
      },
      {
        "club_badge_src": null,
        "entry": 5005372,
        "entry_name": "Asmarinos \ufffd",
        "event_total": 50,
        "has_played": true,
        "id": 38650470,
        "last_rank": 2952,
        "player_name": "Nahom Redae",
        "rank": 4442,
        "rank_sort": 4500,
        "total": 2417
      }
    ]
  }
}