{
  "last_updated_data": "2026-05-24T23:28:17Z",
  "league": {
    "admin_entry": null,
    "closed": false,
    "code_privacy": "p",
    "created": "2025-07-20T23:14:33.933835Z",
    "cup_league": 2815434,
    "has_cup": true,
    "id": 314,
    "league_type": "s",
    "max_entries": null,
    "name": "Overall",
    "rank": null,
    "scoring": "c",
    "start_event": 1
  },
  "new_entries": {
    "has_next": false,
    "page": 1,
    "results": []
  },
  "standings": {
    "has_next": true,
    "page": 1317,
    "results": [
      {
        "club_badge_src": null,
        "entry": 546886,
        "entry_name": "Could be Wirtz",
        "event_total": 56,
        "has_played": true,
        "id": 3680501,
        "last_rank": 64777,
        "player_name": "\u0141ukasz Karpiak",
        "rank": 65799,
        "rank_sort": 65801,
        "total": 2342
      },
      {
        "club_badge_src": null,
        "entry": 974807,
        "entry_name": "Matt's XI",
        "event_total": 55,
        "has_played": true,
        "id": 6719801,
        "last_rank": 63080,
        "player_name": "Matthew Shanahan",
        "rank": 65799,
        "rank_sort": 65802,
        "total": 2342
      },
      {
        "club_badge_src": null,
        "entry": 1513269,
        "entry_name": "Monga Mania",
        "event_total": 59,
        "has_played": true,
        "id": 10554451,
        "last_rank": 70584,
        "player_name": "Neil Hooper",
        "rank": 65799,
        "rank_sort": 65803,
        "total": 2342
      },
      {
        "club_badge_src": null,
        "entry": 1817439,
        "entry_name": "Bubble buddies Fc",
        "event_total": 62,
        "has_played": true,
        "id": 12780841,
        "last_rank": 76908,
        "player_name": "Brian Lopez",
        "rank": 65799,
        "rank_sort": 65804,
        "total": 2342
      },
      {
        "club_badge_src": "https://fantasy.premierleague.com/gcs/plfpl-production-adobe-approved/plfpl-production/2435447/a12efea5-e54d-4630-9add-703906fb70a2.png",
        "entry": 2435447,
        "entry_name": "Wirtz Swedish Salad",
        "event_total": 66,
        "has_played": true,
        "id": 17416348,
        "last_rank": 85870,
        "player_name": "Kristian Berthelsen",
        "rank": 65799,
        "rank_sort": 65805,
        "total": 2342
      },
      {
        "club_badge_src": null,
        "entry": 2655109,
        "entry_name": "Kinder Mbeumo",
        "event_total": 75,
        "has_played": true,
        "id": 19085239,
        "last_rank": 108427,
        "player_name": "Alex Cheung",
        "rank": 65799,
        "rank_sort": 65806,
        "total": 2342
      },
      {
        "club_badge_src": null,
        "entry": 3828445,
        "entry_name": "xGPT",
        "event_total": 73,
        "has_played": true,
        "id": 28637943,
        "last_rank": 103054,
        "player_name": "Control Team",
        "rank": 65799,
        "rank_sort": 65807,
        "total": 2342
      },
      {
        "club_badge_src": null,
        "entry": 4442173,
        "entry_name": "Lig United",
        "event_total": 83,
        "has_played": true,
        "id": 33827039,
        "last_rank": 132198,
        "player_name": "Leandro Gatinho",
        "rank": 65799,
        "rank_sort": 65808,
        "total": 2342
      },
      {
        "club_badge_src": null,
        "entry": 5322485,
        "entry_name": "I Baleba I Can Fly",
        "event_total": 51,
        "has_played": true,
        "id": 41260250,
        "last_rank": 56047,
        "player_name": "Rustu Gupta",
        "rank": 65799,
        "rank_sort": 65809,
        "total": 2342
      },
      {
        "club_badge_src": "https://fantasy.premierleague.com/gcs/plfpl-production-adobe-approved/plfpl-production/8787032/4a25604c-0f66-40f5-aa72-9e35d49e8b10.png",
        "entry": 8787032,
        "entry_name": "Goal Diggers",
        "event_total": 43,
        "has_played": true,
        "id": 73419355,
        "last_rank": 43757,
        "player_name": "Sunny K",
        "rank": 65799,
        "rank_sort": 65810,
        "total": 2342
      },
      {
        "club_badge_src": "https://fantasy.premierleague.com/gcs/plfpl-production-adobe-approved/plfpl-production/9430241/ab157552-7d63-4abe-8b9b-660f77177fe4.png",
        "entry": 9430241,
        "entry_name": "NaPo city",
        "event_total": 60,
        "has_played": true,
        "id": 79662599,
        "last_rank": 72662,
        "player_name": "Kerry Lawson",
        "rank": 65799,
        "rank_sort": 65811,
        "total": 2342
      },
      {
        "club_badge_src": "https://fantasy.premierleague.com/gcs/plfpl-production-adobe-approved/plfpl-production/9434260/d501ae0d-d5ab-41fd-a338-576e3ff3ab50.png",
        "entry": 9434260,
        "entry_name": "FergieTime",
        "event_total": 72,
        "has_played": true,
        "id": 79700613,
        "last_rank": 100469,
        "player_name": "Arjun Trivedi",
        "rank": 65799,
        "rank_sort": 65812,
        "total": 2342
      },
      {
        "club_badge_src": null,
        "entry": 32398,
        "entry_name": "ChickenTikkaMo Salah",
        "event_total": 63,
        "has_played": true,
        "id": 206112,
        "last_rank": 78997,
        "player_name": "Andy Mayes",
        "rank": 65813,
        "rank_sort": 65813,
        "total": 2342
      },
      {
        "club_badge_src": null,
        "entry": 50675,
        "entry_name": "Keown FC",
        "event_total": 51,
        "has_played": true,
        "id": 325943,
        "last_rank": 56099,
        "player_name": "Jonathan Olsson",
        "rank": 65813,
        "rank_sort": 65814,
        "total": 2342
      },
      {
        "club_badge_src": null,
        "entry": 102412,
        "entry_name": "Bram's Offside Trap",
        "event_total": 56,
        "has_played": true,
        "id": 668200,
        "last_rank": 64830,
        "player_name": "Bram Nieuwendijk",
        "rank": 65813,
        "rank_sort": 65815,
        "total": 2342
      },
      {
        "club_badge_src": null,
        "entry": 189367,
        "entry_name": "Girth Merchants",
        "event_total": 72,
        "has_played": true,
        "id": 1253401,
        "last_rank": 100488,
        "player_name": "Daniel Lek",
        "rank": 65813,
        "rank_sort": 65816,
        "total": 2342
      },
      {
        "club_badge_src": null,
        "entry": 382680,
        "entry_name": "Stefcheeee",
        "event_total": 52,
        "has_played": true,
        "id": 2566069,
        "last_rank": 57776,
        "player_name": "Stefan Poposki",
        "rank": 65813,
        "rank_sort": 65817,
        "total": 2342
      },
      {
        "club_badge_src": "https://fantasy.premierleague.com/gcs/plfpl-production-adobe-approved/plfpl-production/666876/9b335969-92ea-4496-b1f8-0acd4aa7bfe4.png",
        "entry": 666876,
        "entry_name": "Bowen Arrow",
        "event_total": 67,
        "has_played": true,
        "id": 4508995,
        "last_rank": 88154,
        "player_name": "Ronan McDermott",
        "rank": 65813,
        "rank_sort": 65818,
        "total": 2342
      },
      {
        "club_badge_src": null,
        "entry": 926809,
        "entry_name": "Balclutha U10's",
        "event_total": 65,
        "has_played": true,
        "id": 6376168,
        "last_rank": 83584,
        "player_name": "David Kornyei",
        "rank": 65813,
        "rank_sort": 65819,
        "total": 2342
      },
      {
        "club_badge_src": "https://fantasy.premierleague.com/gcs/plfpl-production-adobe-approved/plfpl-production/1982591/20fc0293-8bc8-444d-a289-a10a1131b77f.png",
        "entry": 1982591,
        "entry_name": "The Strawhats",
        "event_total": 49,
        "has_played": true,
        "id": 14003373,
        "last_rank": 52759,
        "player_name": "Prakhar Deogirikar",
        "rank": 65813,
        "rank_sort": 65820,
        "total": 2342
      },
      {
        "club_badge_src": null,
        "entry": 2022837,
        "entry_name": "\u0625\u0646 \u0634\u0627\u0621 \u0627\u0644\u0644\u0647 \u062e\u064a\u0631",
        "event_total": 51,
        "has_played": true,
        "id": 14314276,
        "last_rank": 56099,
        "player_name": "\u0643\u0631\u0645 \u0627\u0644\u062d\u0644\u0648\u0627\u0646\u064a",
        "rank": 65813,
        "rank_sort": 65821,
        "total": 2342
      },
      {
        "club_badge_src": null,
        "entry": 2181355,
        "entry_name": "KBT Loyal",
        "event_total": 53,
        "has_played": true,
        "id": 15514719,
        "last_rank": 59496,
        "player_name": "Karol Dzieciatkowski",
        "rank": 65813,
        "rank_sort": 65822,
        "total": 2342
      },
      {
        "club_badge_src": null,
        "entry": 3476914,
        "entry_name": "Zola Flair",
        "event_total": 76,
        "has_played": true,
        "id": 25852386,
        "last_rank": 111203,
        "player_name": "Kez E",
        "rank": 65813,
        "rank_sort": 65823,
        "total": 2342
      },
      {
        "club_badge_src": null,
        "entry": 3689762,
        "entry_name": "Change Name",
        "event_total": 51,
        "has_played": true,
        "id": 27525897,
        "last_rank": 56099,
        "player_name": "Jarrod Russell",
        "rank": 65813,
        "rank_sort": 65824,
        "total": 2342
      },
      {
        "club_badge_src": null,
        "entry": 3759273,
        "entry_name": "Have Aguerd Day",
        "event_total": 60,
        "has_played": true,
        "id": 28068540,
        "last_rank": 72662,
        "player_name": "Finn Meehan",
        "rank": 65813,
        "rank_sort": 65825,
        "total": 2342
      },
      {
        "club_badge_src": null,
        "entry": 4629630,
        "entry_name": "No Kane, No Gain",
        "event_total": 69,
        "has_played": true,
        "id": 35398178,
        "last_rank": 92973,
        "player_name": "Darragh Flannery",
        "rank": 65813,
        "rank_sort": 65826,
        "total": 2342
      },
      {
        "club_badge_src": null,
        "entry": 5379264,
        "entry_name": "Harry's AI Bot",
        "event_total": 87,
        "has_played": true,
        "id": 41813912,
        "last_rank": 145455,
        "player_name": "George Holland",
        "rank": 65813,
        "rank_sort": 65827,
        "total": 2342
      },
      {
        "club_badge_src": null,
        "entry": 5390122,
        "entry_name": "JPFC",
        "event_total": 70,
        "has_played": true,
        "id": 41904842,
        "last_rank": 95464,
        "player_name": "Jonathan Proffitt",
        "rank": 65813,
        "rank_sort": 65828,
        "total": 2342
      },
      {
        "club_badge_src": null,
        "entry": 5504596,
        "entry_name": "Fitzy FC",
        "event_total": 59,
        "has_played": true,
        "id": 42894641,
        "last_rank": 70584,
        "player_name": "Patrick Fitzgerald",
        "rank": 65813,
        "rank_sort": 65829,
        "total": 2342
      },
      {
        "club_badge_src": null,
        "entry": 6432284,
        "entry_name": "Smithy Utd.",
        "event_total": 51,
        "has_played": true,
        "id": 51205152,
        "last_rank": 56069,
        "player_name": "Andrew Smith",
        "rank": 65813,
        "rank_sort": 65830,
        "total": 2342
      },
      {
        "club_badge_src": null,
        "entry": 6805740,
        "entry_name": "movioSWN",
        "event_total": 51,
        "has_played": true,
        "id": 54503796,
        "last_rank": 56099,
        "player_name": "Ernest Ehimen",
        "rank": 65813,
        "rank_sort": 65831,
        "total": 2342
      },
      {
        "club_badge_src": null,
        "entry": 6991978,
        "entry_name": "Holy Cockerel !!",
        "event_total": 69,
        "has_played": true,
        "id": 56128772,
        "last_rank": 92973,
        "player_name": "john Nicolopoulos",
        "rank": 65813,
        "rank_sort": 65832,
        "total": 2342
      },
      {
        "club_badge_src": null,
        "entry": 7961483,
        "entry_name": "ProfessorMcGinnagoal",
        "event_total": 53,
        "has_played": true,
        "id": 65543411,
        "last_rank": 59464,
        "player_name": "Georgia Titcomb",
        "rank": 65813,
        "rank_sort": 65833,
        "total": 2342
      },
      {
        "club_badge_src": null,
        "entry": 8297534,
        "entry_name": "Garfield FC",
        "event_total": 54,
        "has_played": true,
        "id": 68683931,
        "last_rank": 61258,
        "player_name": "Ben Yates",
        "rank": 65813,
        "rank_sort": 65834,
        "total": 2342
      },
      {
        "club_badge_src": null,
        "entry": 8370654,
        "entry_name": "Hyoba",
        "event_total": 69,
        "has_played": true,
        "id": 69401246,
        "last_rank": 92973,
        "player_name": "Hyowon Jeong",
        "rank": 65813,
        "rank_sort": 65835,
        "total": 2342
      },
      {
        "club_badge_src": null,
        "entry": 8789532,
        "entry_name": "Le Samba FC",
        "event_total": 63,
        "has_played": true,
        "id": 73443712,
        "last_rank": 78997,
        "player_name": "Tiago Moreira",
        "rank": 65813,
        "rank_sort": 65836,
        "total": 2342
      },
      {
        "club_badge_src": null,
        "entry": 9670688,
        "entry_name": "01",
        "event_total": 64,
        "has_played": true,
        "id": 82043051,
        "last_rank": 81211,
        "player_name": "abdou blidi",
        "rank": 65813,
        "rank_sort": 65837,
        "total": 2342
      },
      {
        "club_badge_src": null,
        "entry": 57832,
        "entry_name": "The Dribblers",
        "event_total": 82,
        "has_played": true,
        "id": 372563,
        "last_rank": 129205,
        "player_name": "Steve Rogers",
        "rank": 65838,
        "rank_sort": 65838,
        "total": 2342
      },
      {
        "club_badge_src": null,
        "entry": 64973,
        "entry_name": "Ring Kings",
        "event_total": 68,
        "has_played": true,
        "id": 419417,
        "last_rank": 90565,
        "player_name": "Robert Burke",
        "rank": 65838,
        "rank_sort": 65839,
        "total": 2342
      },
      {
        "club_badge_src": null,
        "entry": 97611,
        "entry_name": "New Barry Wallbanger",
        "event_total": 61,
        "has_played": true,
        "id": 637520,
        "last_rank": 74723,
        "player_name": "Per Anders Svenningsen",
        "rank": 65838,
        "rank_sort": 65840,
        "total": 2342
      },
      {
        "club_badge_src": null,
        "entry": 150393,
        "entry_name": "hezi",
        "event_total": 46,
        "has_played": true,
        "id": 986325,
        "last_rank": 48197,
        "player_name": "Hazzem Sukar",
        "rank": 65838,
        "rank_sort": 65841,
        "total": 2342
      },
      {
        "club_badge_src": "https://fantasy.premierleague.com/gcs/plfpl-production-adobe-approved/plfpl-production/164685/e6f9fe1f-f640-4649-9a6f-313dc5eecab2.png",
        "entry": 164685,
        "entry_name": "HTUNITED",
        "event_total": 73,
        "has_played": true,
        "id": 1086964,
        "last_rank": 103130,
        "player_name": "Henry Taylor",
        "rank": 65838,
        "rank_sort": 65842,
        "total": 2342
      },
      {
        "club_badge_src": null,
        "entry": 296251,
        "entry_name": "ThomasTheFrankEngine",
        "event_total": 61,
        "has_played": true,
        "id": 1979277,
        "last_rank": 74741,
        "player_name": "Shane Goodwin",
        "rank": 65838,
        "rank_sort": 65843,
        "total": 2342
      },
      {
        "club_badge_src": null,
        "entry": 336685,
        "entry_name": "How I Met ur Mainoo",
        "event_total": 57,
        "has_played": true,
        "id": 2254080,
        "last_rank": 66693,
        "player_name": "Raul Malad",
        "rank": 65838,
        "rank_sort": 65844,
        "total": 2342
      },
      {
        "club_badge_src": null,
        "entry": 447164,
        "entry_name": "Chido ObiWan Bissaka",
        "event_total": 76,
        "has_played": true,
        "id": 2999442,
        "last_rank": 111405,
        "player_name": "John Rogers",
        "rank": 65838,
        "rank_sort": 65845,
        "total": 2342
      },
      {
        "club_badge_src": null,
        "entry": 468458,
        "entry_name": "jonjoe does kenny",
        "event_total": 34,
        "has_played": true,
        "id": 3143983,
        "last_rank": 32751,
        "player_name": "Jack Beesley",
        "rank": 65838,
        "rank_sort": 65846,
        "total": 2342
      },
      {
        "club_badge_src": null,
        "entry": 565463,
        "entry_name": "i don't like cricket",
        "event_total": 56,
        "has_played": true,
        "id": 3806061,
        "last_rank": 64943,
        "player_name": "Azaan Shah",
        "rank": 65838,
        "rank_sort": 65847,
        "total": 2342
      },
      {
        "club_badge_src": null,
        "entry": 589138,
        "entry_name": "Joao me the way!",
        "event_total": 44,
        "has_played": true,
        "id": 3967724,
        "last_rank": 45182,
        "player_name": "Karen Etienne",
        "rank": 65838,
        "rank_sort": 65848,
        "total": 2342
      },
      {
        "club_badge_src": null,
        "entry": 662425,
        "entry_name": "YCN67",
        "event_total": 54,
        "has_played": true,
        "id": 4477907,
        "last_rank": 61411,
        "player_name": "Yacine Amaouche",
        "rank": 65838,
        "rank_sort": 65849,
        "total": 2342
      },
      {
        "club_badge_src": "https://fantasy.premierleague.com/gcs/plfpl-production-adobe-approved/plfpl-production/789119/4c86b6b7-c9a7-4aec-af4a-6b50f58ad4ef.png",
        "entry": 789119,
        "entry_name": "Bob Sacamano",
        "event_total": 53,
        "has_played": true,
        "id": 5397819,
        "last_rank": 59496,
        "player_name": "Anton Tingstr\u00f6m",
        "rank": 65838,
        "rank_sort": 65850,
        "total": 2342
      }
    ]
  }
}