{
  "last_updated_data": "2026-05-24T23:28:17Z",
  "league": {
    "admin_entry": null,
    "closed": false,
    "code_privacy": "p",
    "created": "2025-07-20T23:14:33.933835Z",
    "cup_league": 2815434,
    "has_cup": true,
    "id": 314,
    "league_type": "s",
    "max_entries": null,
    "name": "Overall",
    "rank": null,
    "scoring": "c",
    "start_event": 1
  },
  "new_entries": {
    "has_next": false,
    "page": 1,
    "results": []
  },
  "standings": {
    "has_next": true,
    "page": 729,
    "results": [
      {
        "club_badge_src": null,
        "entry": 2040095,
        "entry_name": "No Victor No Glory",
        "event_total": 68,
        "has_played": true,
        "id": 14446899,
        "last_rank": 51220,
        "player_name": "Sim Marcus",
        "rank": 36285,
        "rank_sort": 36401,
        "total": 2362
      },
      {
        "club_badge_src": null,
        "entry": 2109405,
        "entry_name": "CL6",
        "event_total": 59,
        "has_played": true,
        "id": 14972365,
        "last_rank": 38571,
        "player_name": "Lars Johan Fl\u00f8isand-Hansen",
        "rank": 36285,
        "rank_sort": 36402,
        "total": 2362
      },
      {
        "club_badge_src": null,
        "entry": 2196734,
        "entry_name": "madrid cf",
        "event_total": 48,
        "has_played": true,
        "id": 15630731,
        "last_rank": 26827,
        "player_name": "Mostafa Hashem",
        "rank": 36285,
        "rank_sort": 36403,
        "total": 2362
      },
      {
        "club_badge_src": "https://fantasy.premierleague.com/gcs/plfpl-production-adobe-approved/plfpl-production/2206652/e6a92cc7-4c69-4b2c-96dd-c0f6ec608e6f.png",
        "entry": 2206652,
        "entry_name": "Gooner Lukas Groener",
        "event_total": 65,
        "has_played": true,
        "id": 15711581,
        "last_rank": 46839,
        "player_name": "Jasper Van Laer",
        "rank": 36285,
        "rank_sort": 36404,
        "total": 2362
      },
      {
        "club_badge_src": "https://fantasy.premierleague.com/gcs/plfpl-production-adobe-approved/plfpl-production/2298800/ae8898cb-4207-45a6-a32b-7ede74572833.png",
        "entry": 2298800,
        "entry_name": "STL MFALME",
        "event_total": 34,
        "has_played": true,
        "id": 16395784,
        "last_rank": 16163,
        "player_name": "stephen kamoche",
        "rank": 36285,
        "rank_sort": 36405,
        "total": 2362
      },
      {
        "club_badge_src": "https://fantasy.premierleague.com/gcs/plfpl-production-adobe-approved/plfpl-production/2343541/61c9a72f-f7f1-428c-924d-91e606fc70d3.png",
        "entry": 2343541,
        "entry_name": "kevin mohammed17",
        "event_total": 64,
        "has_played": true,
        "id": 16721939,
        "last_rank": 45416,
        "player_name": "Kevin Mohammed",
        "rank": 36285,
        "rank_sort": 36406,
        "total": 2362
      },
      {
        "club_badge_src": null,
        "entry": 2383117,
        "entry_name": "Super Trooper",
        "event_total": 55,
        "has_played": true,
        "id": 17017809,
        "last_rank": 33936,
        "player_name": "Katie Troop",
        "rank": 36285,
        "rank_sort": 36407,
        "total": 2362
      },
      {
        "club_badge_src": null,
        "entry": 2403948,
        "entry_name": "Eze Come Eze Go",
        "event_total": 58,
        "has_played": true,
        "id": 17182395,
        "last_rank": 37435,
        "player_name": "Ognjen Sovilj",
        "rank": 36285,
        "rank_sort": 36408,
        "total": 2362
      },
      {
        "club_badge_src": null,
        "entry": 2425979,
        "entry_name": "Eze Come Eze Go",
        "event_total": 54,
        "has_played": true,
        "id": 17346378,
        "last_rank": 32879,
        "player_name": "Humoon Afsardeir",
        "rank": 36285,
        "rank_sort": 36409,
        "total": 2362
      },
      {
        "club_badge_src": null,
        "entry": 2482085,
        "entry_name": "Joy St Rejects",
        "event_total": 44,
        "has_played": true,
        "id": 17760476,
        "last_rank": 23341,
        "player_name": "Iain Scott",
        "rank": 36285,
        "rank_sort": 36410,
        "total": 2362
      },
      {
        "club_badge_src": null,
        "entry": 2559101,
        "entry_name": "GlazersOut",
        "event_total": 69,
        "has_played": true,
        "id": 18352794,
        "last_rank": 52853,
        "player_name": "Kaloyan Radev",
        "rank": 36285,
        "rank_sort": 36411,
        "total": 2362
      },
      {
        "club_badge_src": "https://fantasy.premierleague.com/gcs/plfpl-production-adobe-approved/plfpl-production/2595680/9d889887-722a-4579-860a-ccf7fd7d9862.png",
        "entry": 2595680,
        "entry_name": "Smash",
        "event_total": 68,
        "has_played": true,
        "id": 18639363,
        "last_rank": 51403,
        "player_name": "Ivan Kolaric",
        "rank": 36285,
        "rank_sort": 36412,
        "total": 2362
      },
      {
        "club_badge_src": null,
        "entry": 2640331,
        "entry_name": "DaretoCarrick",
        "event_total": 55,
        "has_played": true,
        "id": 18976640,
        "last_rank": 34051,
        "player_name": "Chris de kock",
        "rank": 36285,
        "rank_sort": 36413,
        "total": 2362
      },
      {
        "club_badge_src": null,
        "entry": 2663465,
        "entry_name": "TunaBelly",
        "event_total": 67,
        "has_played": true,
        "id": 19146634,
        "last_rank": 49880,
        "player_name": "Tuan Le",
        "rank": 36285,
        "rank_sort": 36414,
        "total": 2362
      },
      {
        "club_badge_src": "https://fantasy.premierleague.com/gcs/plfpl-production-adobe-approved/plfpl-production/2686580/9040636e-d81f-46c5-9708-4783c3ba7447.png",
        "entry": 2686580,
        "entry_name": "Big Gy\u00f6k Energy",
        "event_total": 58,
        "has_played": true,
        "id": 19323163,
        "last_rank": 37589,
        "player_name": "Faizan Pirzada",
        "rank": 36285,
        "rank_sort": 36415,
        "total": 2362
      },
      {
        "club_badge_src": null,
        "entry": 2837166,
        "entry_name": "dig",
        "event_total": 48,
        "has_played": true,
        "id": 20734426,
        "last_rank": 26827,
        "player_name": "Jonas lien",
        "rank": 36285,
        "rank_sort": 36416,
        "total": 2362
      },
      {
        "club_badge_src": null,
        "entry": 2869987,
        "entry_name": "mahmoud",
        "event_total": 69,
        "has_played": true,
        "id": 20994899,
        "last_rank": 53023,
        "player_name": "mahmoud salem",
        "rank": 36285,
        "rank_sort": 36417,
        "total": 2362
      },
      {
        "club_badge_src": null,
        "entry": 2903445,
        "entry_name": "UniqueReff",
        "event_total": 68,
        "has_played": true,
        "id": 21277247,
        "last_rank": 51403,
        "player_name": "Filip Sretenovi\u0107",
        "rank": 36285,
        "rank_sort": 36418,
        "total": 2362
      },
      {
        "club_badge_src": null,
        "entry": 2916318,
        "entry_name": "Neil Madrid",
        "event_total": 58,
        "has_played": true,
        "id": 21376272,
        "last_rank": 37435,
        "player_name": "Neil Hogg",
        "rank": 36285,
        "rank_sort": 36419,
        "total": 2362
      },
      {
        "club_badge_src": null,
        "entry": 3022206,
        "entry_name": "FC Rozmaryn",
        "event_total": 74,
        "has_played": true,
        "id": 22236211,
        "last_rank": 61606,
        "player_name": "Petr Neva\u0159il",
        "rank": 36285,
        "rank_sort": 36420,
        "total": 2362
      },
      {
        "club_badge_src": null,
        "entry": 3035483,
        "entry_name": "Eke's XI",
        "event_total": 48,
        "has_played": true,
        "id": 22339990,
        "last_rank": 26827,
        "player_name": "Christos Eke",
        "rank": 36285,
        "rank_sort": 36421,
        "total": 2362
      },
      {
        "club_badge_src": null,
        "entry": 3121648,
        "entry_name": "Fjaerdhundra SK",
        "event_total": 67,
        "has_played": true,
        "id": 23036752,
        "last_rank": 49880,
        "player_name": "Conrad J\u00f6rgensen",
        "rank": 36285,
        "rank_sort": 36422,
        "total": 2362
      },
      {
        "club_badge_src": null,
        "entry": 3237891,
        "entry_name": "Your Wirtz Nightmare",
        "event_total": 45,
        "has_played": true,
        "id": 23949048,
        "last_rank": 24143,
        "player_name": "Shamsur Rahman",
        "rank": 36285,
        "rank_sort": 36423,
        "total": 2362
      },
      {
        "club_badge_src": null,
        "entry": 3334873,
        "entry_name": "ThomasTheFrankEngine",
        "event_total": 49,
        "has_played": true,
        "id": 24731258,
        "last_rank": 27770,
        "player_name": "Ross McCrea",
        "rank": 36285,
        "rank_sort": 36424,
        "total": 2362
      },
      {
        "club_badge_src": "https://fantasy.premierleague.com/gcs/plfpl-production-adobe-approved/plfpl-production/3337849/9844a628-3893-4fe8-984d-7e9aac45451e.png",
        "entry": 3337849,
        "entry_name": "thefratellisfc",
        "event_total": 44,
        "has_played": true,
        "id": 24755671,
        "last_rank": 23341,
        "player_name": "Max Warren",
        "rank": 36285,
        "rank_sort": 36425,
        "total": 2362
      },
      {
        "club_badge_src": "https://fantasy.premierleague.com/gcs/plfpl-production-adobe-approved/plfpl-production/3344232/a42f422b-d66f-42e7-9eb3-1051149c65da.png",
        "entry": 3344232,
        "entry_name": "Bangla Syndicate FC",
        "event_total": 58,
        "has_played": true,
        "id": 24806526,
        "last_rank": 37589,
        "player_name": "Mumin Rahman",
        "rank": 36285,
        "rank_sort": 36426,
        "total": 2362
      },
      {
        "club_badge_src": "https://fantasy.premierleague.com/gcs/plfpl-production-adobe-approved/plfpl-production/3354873/56835096-824e-424d-9bf3-7df19b79d4a3.png",
        "entry": 3354873,
        "entry_name": "Kant\u00e9 West",
        "event_total": 54,
        "has_played": true,
        "id": 24889667,
        "last_rank": 32879,
        "player_name": "Krystian Lipi\u0144ski",
        "rank": 36285,
        "rank_sort": 36427,
        "total": 2362
      },
      {
        "club_badge_src": null,
        "entry": 3355221,
        "entry_name": "Raya Sunshine",
        "event_total": 43,
        "has_played": true,
        "id": 24892351,
        "last_rank": 22426,
        "player_name": "Callum Sanderson",
        "rank": 36285,
        "rank_sort": 36428,
        "total": 2362
      },
      {
        "club_badge_src": null,
        "entry": 3455305,
        "entry_name": "No Ka Oi",
        "event_total": 57,
        "has_played": true,
        "id": 25680274,
        "last_rank": 36348,
        "player_name": "Graham Williamson",
        "rank": 36285,
        "rank_sort": 36429,
        "total": 2362
      },
      {
        "club_badge_src": "https://fantasy.premierleague.com/gcs/plfpl-production-adobe-approved/plfpl-production/3513956/fc36ef8d-8991-42d2-8c81-911db71352f8.png",
        "entry": 3513956,
        "entry_name": "Jaslak",
        "event_total": 46,
        "has_played": true,
        "id": 26147803,
        "last_rank": 25002,
        "player_name": "Jo Are Aslaksen",
        "rank": 36285,
        "rank_sort": 36430,
        "total": 2362
      },
      {
        "club_badge_src": null,
        "entry": 3602775,
        "entry_name": "Sakademic",
        "event_total": 54,
        "has_played": true,
        "id": 26833813,
        "last_rank": 32879,
        "player_name": "Tom Dau",
        "rank": 36285,
        "rank_sort": 36431,
        "total": 2362
      },
      {
        "club_badge_src": "https://fantasy.premierleague.com/gcs/plfpl-production-adobe-approved/plfpl-production/3616624/06a2497c-2086-46e0-8c80-ec48bf8d4530.png",
        "entry": 3616624,
        "entry_name": "Nopparuji",
        "event_total": 38,
        "has_played": true,
        "id": 26944004,
        "last_rank": 18790,
        "player_name": "NOPPARUJ P",
        "rank": 36285,
        "rank_sort": 36432,
        "total": 2362
      },
      {
        "club_badge_src": null,
        "entry": 3783753,
        "entry_name": "World Wide Welbz",
        "event_total": 50,
        "has_played": true,
        "id": 28254875,
        "last_rank": 28726,
        "player_name": "Mohamed AlRemeithi",
        "rank": 36285,
        "rank_sort": 36433,
        "total": 2362
      },
      {
        "club_badge_src": null,
        "entry": 3837547,
        "entry_name": "Change Name",
        "event_total": 63,
        "has_played": true,
        "id": 28725615,
        "last_rank": 43849,
        "player_name": "Alex Gray",
        "rank": 36285,
        "rank_sort": 36434,
        "total": 2362
      },
      {
        "club_badge_src": null,
        "entry": 3850018,
        "entry_name": "Veldmaatseleven",
        "event_total": 58,
        "has_played": true,
        "id": 28859758,
        "last_rank": 37589,
        "player_name": "Jasper Veldmaat",
        "rank": 36285,
        "rank_sort": 36435,
        "total": 2362
      },
      {
        "club_badge_src": null,
        "entry": 3857431,
        "entry_name": "Adriano Grande",
        "event_total": 53,
        "has_played": true,
        "id": 28920154,
        "last_rank": 31620,
        "player_name": "Peter Do",
        "rank": 36285,
        "rank_sort": 36436,
        "total": 2362
      },
      {
        "club_badge_src": null,
        "entry": 3914919,
        "entry_name": "Barteta Ballers",
        "event_total": 70,
        "has_played": true,
        "id": 29436585,
        "last_rank": 54667,
        "player_name": "Filip Bartling",
        "rank": 36285,
        "rank_sort": 36437,
        "total": 2362
      },
      {
        "club_badge_src": null,
        "entry": 3953575,
        "entry_name": "CopilotAG",
        "event_total": 44,
        "has_played": true,
        "id": 29743807,
        "last_rank": 23341,
        "player_name": "Andy Grace",
        "rank": 36285,
        "rank_sort": 36438,
        "total": 2362
      },
      {
        "club_badge_src": null,
        "entry": 4005970,
        "entry_name": "Afternoon De Ligt",
        "event_total": 66,
        "has_played": true,
        "id": 30176681,
        "last_rank": 48642,
        "player_name": "Aidan Murray",
        "rank": 36285,
        "rank_sort": 36439,
        "total": 2362
      },
      {
        "club_badge_src": null,
        "entry": 4012472,
        "entry_name": "ehehehmos",
        "event_total": 71,
        "has_played": true,
        "id": 30234666,
        "last_rank": 56099,
        "player_name": "Amos Cheah",
        "rank": 36285,
        "rank_sort": 36440,
        "total": 2362
      },
      {
        "club_badge_src": null,
        "entry": 4065328,
        "entry_name": "TheUsualSuspects",
        "event_total": 68,
        "has_played": true,
        "id": 30680625,
        "last_rank": 51403,
        "player_name": "Filip Misevski",
        "rank": 36285,
        "rank_sort": 36441,
        "total": 2362
      },
      {
        "club_badge_src": null,
        "entry": 4096384,
        "entry_name": "Anto\u0161kas",
        "event_total": 52,
        "has_played": true,
        "id": 30930349,
        "last_rank": 30727,
        "player_name": "Vitalijs Nemnasevs",
        "rank": 36285,
        "rank_sort": 36442,
        "total": 2362
      },
      {
        "club_badge_src": null,
        "entry": 4152806,
        "entry_name": "Mulhaaland Drive",
        "event_total": 52,
        "has_played": true,
        "id": 31388828,
        "last_rank": 30727,
        "player_name": "Ammar Banatwala",
        "rank": 36285,
        "rank_sort": 36443,
        "total": 2362
      },
      {
        "club_badge_src": null,
        "entry": 4262666,
        "entry_name": "slot machine",
        "event_total": 43,
        "has_played": true,
        "id": 32320285,
        "last_rank": 22534,
        "player_name": "Ed Rhodes",
        "rank": 36285,
        "rank_sort": 36444,
        "total": 2362
      },
      {
        "club_badge_src": null,
        "entry": 4366184,
        "entry_name": "BBM Barmey Army",
        "event_total": 47,
        "has_played": true,
        "id": 33167079,
        "last_rank": 25902,
        "player_name": "Bradley Obrien",
        "rank": 36285,
        "rank_sort": 36445,
        "total": 2362
      },
      {
        "club_badge_src": null,
        "entry": 4389911,
        "entry_name": "Yoro wizard harry",
        "event_total": 60,
        "has_played": true,
        "id": 33371101,
        "last_rank": 39874,
        "player_name": "Gar Northo",
        "rank": 36285,
        "rank_sort": 36446,
        "total": 2362
      },
      {
        "club_badge_src": null,
        "entry": 4429029,
        "entry_name": "Change Name",
        "event_total": 63,
        "has_played": true,
        "id": 33714310,
        "last_rank": 44048,
        "player_name": "James Price",
        "rank": 36285,
        "rank_sort": 36447,
        "total": 2362
      },
      {
        "club_badge_src": null,
        "entry": 4532579,
        "entry_name": "Miki",
        "event_total": 57,
        "has_played": true,
        "id": 34574488,
        "last_rank": 36200,
        "player_name": "mikolaj Janik",
        "rank": 36285,
        "rank_sort": 36448,
        "total": 2362
      },
      {
        "club_badge_src": null,
        "entry": 4563689,
        "entry_name": "slb",
        "event_total": 64,
        "has_played": true,
        "id": 34825305,
        "last_rank": 39874,
        "player_name": "Kayden Albernaz",
        "rank": 36285,
        "rank_sort": 36449,
        "total": 2362
      },
      {
        "club_badge_src": null,
        "entry": 4620555,
        "entry_name": "NO WAHALA LIVIN FC",
        "event_total": 49,
        "has_played": true,
        "id": 35318008,
        "last_rank": 27976,
        "player_name": "Dan Edu",
        "rank": 36285,
        "rank_sort": 36450,
        "total": 2362
      }
    ]
  }
}