{
  "last_updated_data": "2026-05-24T23:28:17Z",
  "league": {
    "admin_entry": null,
    "closed": false,
    "code_privacy": "p",
    "created": "2025-07-20T23:14:33.933835Z",
    "cup_league": 2815434,
    "has_cup": true,
    "id": 314,
    "league_type": "s",
    "max_entries": null,
    "name": "Overall",
    "rank": null,
    "scoring": "c",
    "start_event": 1
  },
  "new_entries": {
    "has_next": false,
    "page": 1,
    "results": []
  },
  "standings": {
    "has_next": true,
    "page": 127,
    "results": [
      {
        "club_badge_src": null,
        "entry": 5887755,
        "entry_name": "Schbeen",
        "event_total": 72,
        "has_played": true,
        "id": 46250595,
        "last_rank": 11136,
        "player_name": "Carver L",
        "rank": 6299,
        "rank_sort": 6301,
        "total": 2409
      },
      {
        "club_badge_src": null,
        "entry": 6230417,
        "entry_name": "saka potatoes",
        "event_total": 64,
        "has_played": true,
        "id": 49306765,
        "last_rank": 7944,
        "player_name": "Eoin Mulvihill",
        "rank": 6299,
        "rank_sort": 6302,
        "total": 2409
      },
      {
        "club_badge_src": null,
        "entry": 298631,
        "entry_name": "4ever Bowen Bubbles",
        "event_total": 43,
        "has_played": true,
        "id": 1996688,
        "last_rank": 3079,
        "player_name": "Chris Angelakos",
        "rank": 6303,
        "rank_sort": 6303,
        "total": 2409
      },
      {
        "club_badge_src": null,
        "entry": 1471673,
        "entry_name": "Drop it like it Slot",
        "event_total": 43,
        "has_played": true,
        "id": 10258456,
        "last_rank": 3079,
        "player_name": "Gino de Gelder",
        "rank": 6303,
        "rank_sort": 6304,
        "total": 2409
      },
      {
        "club_badge_src": null,
        "entry": 4130937,
        "entry_name": "WHU-Tang Clan",
        "event_total": 62,
        "has_played": true,
        "id": 31216467,
        "last_rank": 7333,
        "player_name": "Charlie Muzzlewhite",
        "rank": 6303,
        "rank_sort": 6305,
        "total": 2409
      },
      {
        "club_badge_src": null,
        "entry": 6008616,
        "entry_name": "Eze Does It",
        "event_total": 68,
        "has_played": true,
        "id": 47374542,
        "last_rank": 9443,
        "player_name": "Terrence Smith",
        "rank": 6303,
        "rank_sort": 6306,
        "total": 2409
      },
      {
        "club_badge_src": null,
        "entry": 6367339,
        "entry_name": "NexB777",
        "event_total": 60,
        "has_played": true,
        "id": 50631306,
        "last_rank": 6703,
        "player_name": "Nemanja Bukumiric",
        "rank": 6303,
        "rank_sort": 6307,
        "total": 2409
      },
      {
        "club_badge_src": null,
        "entry": 6945649,
        "entry_name": "Cunha Believe It?",
        "event_total": 60,
        "has_played": true,
        "id": 55689381,
        "last_rank": 6703,
        "player_name": "Josh Tooke",
        "rank": 6303,
        "rank_sort": 6308,
        "total": 2409
      },
      {
        "club_badge_src": "https://fantasy.premierleague.com/gcs/plfpl-production-adobe-approved/plfpl-production/8381111/4d0a836b-7f0f-493e-bdf8-07d045146324.png",
        "entry": 8381111,
        "entry_name": "11 Paths Sage",
        "event_total": 18,
        "has_played": true,
        "id": 69501709,
        "last_rank": 870,
        "player_name": "Preye Princewill",
        "rank": 6303,
        "rank_sort": 6309,
        "total": 2409
      },
      {
        "club_badge_src": null,
        "entry": 112094,
        "entry_name": "PitaU",
        "event_total": 50,
        "has_played": true,
        "id": 730823,
        "last_rank": 4303,
        "player_name": "Per Christian \u00d8en",
        "rank": 6310,
        "rank_sort": 6310,
        "total": 2409
      },
      {
        "club_badge_src": "https://fantasy.premierleague.com/gcs/plfpl-production-adobe-approved/plfpl-production/431044/58a0c36b-2a3d-4c40-a691-cd664f97a2fe.png",
        "entry": 431044,
        "entry_name": "Winning XI",
        "event_total": 66,
        "has_played": true,
        "id": 2890833,
        "last_rank": 8687,
        "player_name": "Aleksandar Velikic",
        "rank": 6310,
        "rank_sort": 6311,
        "total": 2409
      },
      {
        "club_badge_src": null,
        "entry": 472640,
        "entry_name": "Smithers XI",
        "event_total": 55,
        "has_played": true,
        "id": 3173213,
        "last_rank": 5386,
        "player_name": "Sam Smith",
        "rank": 6310,
        "rank_sort": 6312,
        "total": 2409
      },
      {
        "club_badge_src": null,
        "entry": 1626907,
        "entry_name": "Lil Uzi Wirtz",
        "event_total": 51,
        "has_played": true,
        "id": 11387277,
        "last_rank": 4471,
        "player_name": "Fionn Coughlan",
        "rank": 6310,
        "rank_sort": 6313,
        "total": 2409
      },
      {
        "club_badge_src": null,
        "entry": 1711255,
        "entry_name": "Martial Arts",
        "event_total": 56,
        "has_played": true,
        "id": 11990300,
        "last_rank": 5646,
        "player_name": "Loris Cretenet",
        "rank": 6310,
        "rank_sort": 6314,
        "total": 2409
      },
      {
        "club_badge_src": null,
        "entry": 1721304,
        "entry_name": "7bibe fc",
        "event_total": 68,
        "has_played": true,
        "id": 12064459,
        "last_rank": 9459,
        "player_name": "Mouhamed Ali",
        "rank": 6310,
        "rank_sort": 6315,
        "total": 2409
      },
      {
        "club_badge_src": null,
        "entry": 1844674,
        "entry_name": "Obi 1 Kenobi 0",
        "event_total": 57,
        "has_played": true,
        "id": 12979006,
        "last_rank": 5894,
        "player_name": "Owen Russon",
        "rank": 6310,
        "rank_sort": 6316,
        "total": 2409
      },
      {
        "club_badge_src": null,
        "entry": 2497923,
        "entry_name": "Naruto > Football",
        "event_total": 59,
        "has_played": true,
        "id": 17884421,
        "last_rank": 6448,
        "player_name": "Greg Ford",
        "rank": 6310,
        "rank_sort": 6317,
        "total": 2409
      },
      {
        "club_badge_src": null,
        "entry": 2888782,
        "entry_name": "Scholes scores goals",
        "event_total": 62,
        "has_played": true,
        "id": 21151237,
        "last_rank": 7310,
        "player_name": "Tim Smith",
        "rank": 6310,
        "rank_sort": 6318,
        "total": 2409
      },
      {
        "club_badge_src": null,
        "entry": 3402349,
        "entry_name": "Arcadian Thunder",
        "event_total": 70,
        "has_played": true,
        "id": 25262673,
        "last_rank": 10346,
        "player_name": "Michael Sparkes",
        "rank": 6310,
        "rank_sort": 6319,
        "total": 2409
      },
      {
        "club_badge_src": "https://fantasy.premierleague.com/gcs/plfpl-production-adobe-approved/plfpl-production/3553236/010aa5eb-3d91-4870-bc11-25c1e2b365e4.png",
        "entry": 3553236,
        "entry_name": "TribeCalledWestFC",
        "event_total": 66,
        "has_played": true,
        "id": 26453522,
        "last_rank": 8718,
        "player_name": "Mark Patterson",
        "rank": 6310,
        "rank_sort": 6320,
        "total": 2409
      },
      {
        "club_badge_src": null,
        "entry": 4103869,
        "entry_name": "El Fenomeno **",
        "event_total": 44,
        "has_played": true,
        "id": 30990545,
        "last_rank": 3227,
        "player_name": "sean senior",
        "rank": 6310,
        "rank_sort": 6321,
        "total": 2409
      },
      {
        "club_badge_src": null,
        "entry": 4262185,
        "entry_name": "Gunners",
        "event_total": 53,
        "has_played": true,
        "id": 32316436,
        "last_rank": 4930,
        "player_name": "Travis Treloar",
        "rank": 6310,
        "rank_sort": 6322,
        "total": 2409
      },
      {
        "club_badge_src": null,
        "entry": 4303962,
        "entry_name": "Ospina Colada",
        "event_total": 62,
        "has_played": true,
        "id": 32654033,
        "last_rank": 7333,
        "player_name": "Joe Holmes",
        "rank": 6310,
        "rank_sort": 6323,
        "total": 2409
      },
      {
        "club_badge_src": null,
        "entry": 4686034,
        "entry_name": "Red Phoenix",
        "event_total": 60,
        "has_played": true,
        "id": 35911776,
        "last_rank": 6752,
        "player_name": "Darren Li Shing Fong",
        "rank": 6310,
        "rank_sort": 6324,
        "total": 2409
      },
      {
        "club_badge_src": null,
        "entry": 4688229,
        "entry_name": "The Arsenals",
        "event_total": 65,
        "has_played": true,
        "id": 35931117,
        "last_rank": 8320,
        "player_name": "Oluwafemi Joshua",
        "rank": 6310,
        "rank_sort": 6325,
        "total": 2409
      },
      {
        "club_badge_src": null,
        "entry": 5575189,
        "entry_name": "Wirtz Behaviour",
        "event_total": 60,
        "has_played": true,
        "id": 43538623,
        "last_rank": 6687,
        "player_name": "Vishva Vaid",
        "rank": 6310,
        "rank_sort": 6326,
        "total": 2409
      },
      {
        "club_badge_src": null,
        "entry": 5758403,
        "entry_name": "Sadchester United",
        "event_total": 57,
        "has_played": true,
        "id": 45138583,
        "last_rank": 5889,
        "player_name": "Jason Boulton",
        "rank": 6310,
        "rank_sort": 6327,
        "total": 2409
      },
      {
        "club_badge_src": null,
        "entry": 5795757,
        "entry_name": "Stellan FC",
        "event_total": 75,
        "has_played": true,
        "id": 45462132,
        "last_rank": 12599,
        "player_name": "Karl Andersson",
        "rank": 6310,
        "rank_sort": 6328,
        "total": 2409
      },
      {
        "club_badge_src": null,
        "entry": 5891880,
        "entry_name": "Betty's Palace II",
        "event_total": 70,
        "has_played": true,
        "id": 46284087,
        "last_rank": 10253,
        "player_name": "Jon Bettger",
        "rank": 6310,
        "rank_sort": 6329,
        "total": 2409
      },
      {
        "club_badge_src": "https://fantasy.premierleague.com/gcs/plfpl-production-adobe-approved/plfpl-production/6197045/2d1be076-1f4d-4b28-b7a7-3c841ddf5fdd.png",
        "entry": 6197045,
        "entry_name": "Pickled-Onions",
        "event_total": 74,
        "has_played": true,
        "id": 49019710,
        "last_rank": 12141,
        "player_name": "Hasan Akbar",
        "rank": 6310,
        "rank_sort": 6330,
        "total": 2409
      },
      {
        "club_badge_src": null,
        "entry": 6226403,
        "entry_name": "FC Zilla",
        "event_total": 69,
        "has_played": true,
        "id": 49271056,
        "last_rank": 9853,
        "player_name": "Matteo Varacca",
        "rank": 6310,
        "rank_sort": 6331,
        "total": 2409
      },
      {
        "club_badge_src": null,
        "entry": 7103631,
        "entry_name": "Kai me a river",
        "event_total": 57,
        "has_played": true,
        "id": 57209634,
        "last_rank": 5894,
        "player_name": "Harvey Ellis",
        "rank": 6310,
        "rank_sort": 6332,
        "total": 2409
      },
      {
        "club_badge_src": null,
        "entry": 7277846,
        "entry_name": "Atabala4733",
        "event_total": 50,
        "has_played": true,
        "id": 58867773,
        "last_rank": 4270,
        "player_name": "ATABALA M",
        "rank": 6310,
        "rank_sort": 6333,
        "total": 2409
      },
      {
        "club_badge_src": null,
        "entry": 7423034,
        "entry_name": "Dougs Deltas",
        "event_total": 73,
        "has_played": true,
        "id": 60278683,
        "last_rank": 11608,
        "player_name": "Douglas Geden",
        "rank": 6310,
        "rank_sort": 6334,
        "total": 2409
      },
      {
        "club_badge_src": null,
        "entry": 7534682,
        "entry_name": "corn on a Kobbie",
        "event_total": 64,
        "has_played": true,
        "id": 61671051,
        "last_rank": 7979,
        "player_name": "Jayakrishnan Ravindran",
        "rank": 6310,
        "rank_sort": 6335,
        "total": 2409
      },
      {
        "club_badge_src": null,
        "entry": 8426809,
        "entry_name": "Big Dom's Army",
        "event_total": 48,
        "has_played": true,
        "id": 69934331,
        "last_rank": 3866,
        "player_name": "Ryan Monaghan",
        "rank": 6310,
        "rank_sort": 6336,
        "total": 2409
      },
      {
        "club_badge_src": null,
        "entry": 8518430,
        "entry_name": "Red 44",
        "event_total": 77,
        "has_played": true,
        "id": 70815130,
        "last_rank": 13754,
        "player_name": "Keith Whitelam",
        "rank": 6310,
        "rank_sort": 6337,
        "total": 2409
      },
      {
        "club_badge_src": null,
        "entry": 8864912,
        "entry_name": "Stanjos Idrettslag",
        "event_total": 43,
        "has_played": true,
        "id": 74170651,
        "last_rank": 3066,
        "player_name": "Stian Johansen",
        "rank": 6310,
        "rank_sort": 6338,
        "total": 2409
      },
      {
        "club_badge_src": "https://fantasy.premierleague.com/gcs/plfpl-production-adobe-approved/plfpl-production/107/a8cc0790-a724-4ad5-9c72-62f9eec862cb.png",
        "entry": 107,
        "entry_name": "D\u00f8so",
        "event_total": 61,
        "has_played": true,
        "id": 600,
        "last_rank": 7059,
        "player_name": "Ivar Mehl Olsen",
        "rank": 6339,
        "rank_sort": 6339,
        "total": 2409
      },
      {
        "club_badge_src": "https://fantasy.premierleague.com/gcs/plfpl-production-adobe-approved/plfpl-production/1434/cee3d792-817b-4bc1-b5e7-0ad425e91628.png",
        "entry": 1434,
        "entry_name": "Scorpio Rising \u2606\u2606\u2606\u2606",
        "event_total": 50,
        "has_played": true,
        "id": 7975,
        "last_rank": 4270,
        "player_name": "Tom Clayton",
        "rank": 6339,
        "rank_sort": 6340,
        "total": 2409
      },
      {
        "club_badge_src": null,
        "entry": 3219,
        "entry_name": "Portuguese Magnifico",
        "event_total": 69,
        "has_played": true,
        "id": 18179,
        "last_rank": 9853,
        "player_name": "Steven O'Neill",
        "rank": 6339,
        "rank_sort": 6341,
        "total": 2409
      },
      {
        "club_badge_src": "https://fantasy.premierleague.com/gcs/plfpl-production-adobe-approved/plfpl-production/9634/e73d2cd8-0dbd-44b5-9db2-2e4473d543c9.png",
        "entry": 9634,
        "entry_name": "Brantiniho",
        "event_total": 65,
        "has_played": true,
        "id": 56695,
        "last_rank": 8339,
        "player_name": "Mattias Brandt",
        "rank": 6339,
        "rank_sort": 6342,
        "total": 2409
      },
      {
        "club_badge_src": null,
        "entry": 10745,
        "entry_name": "Monkeh Wanderers",
        "event_total": 68,
        "has_played": true,
        "id": 63636,
        "last_rank": 9536,
        "player_name": "Samuel Reeve",
        "rank": 6339,
        "rank_sort": 6343,
        "total": 2409
      },
      {
        "club_badge_src": null,
        "entry": 14089,
        "entry_name": "xG Whizz",
        "event_total": 50,
        "has_played": true,
        "id": 85398,
        "last_rank": 4303,
        "player_name": "Jon Mella",
        "rank": 6339,
        "rank_sort": 6344,
        "total": 2409
      },
      {
        "club_badge_src": "https://fantasy.premierleague.com/gcs/plfpl-production-adobe-approved/plfpl-production/17745/421cd85b-5bee-4cb8-8ca5-e760901abb95.png",
        "entry": 17745,
        "entry_name": "FPL Folkjamm",
        "event_total": 68,
        "has_played": true,
        "id": 110153,
        "last_rank": 9484,
        "player_name": "Teerayut Norkhum",
        "rank": 6339,
        "rank_sort": 6345,
        "total": 2409
      },
      {
        "club_badge_src": "https://fantasy.premierleague.com/gcs/plfpl-production-adobe-approved/plfpl-production/39872/41ec8610-bece-4e76-a923-a59c25c35e3e.png",
        "entry": 39872,
        "entry_name": "Haalandaise",
        "event_total": 65,
        "has_played": true,
        "id": 255565,
        "last_rank": 8320,
        "player_name": "Endre Falck Mentzoni",
        "rank": 6339,
        "rank_sort": 6346,
        "total": 2409
      },
      {
        "club_badge_src": null,
        "entry": 80983,
        "entry_name": "Wanghin FC",
        "event_total": 72,
        "has_played": true,
        "id": 526880,
        "last_rank": 11150,
        "player_name": "Chalard Duangmarn",
        "rank": 6339,
        "rank_sort": 6347,
        "total": 2409
      },
      {
        "club_badge_src": null,
        "entry": 81451,
        "entry_name": "Peaky Reijnders",
        "event_total": 43,
        "has_played": true,
        "id": 529879,
        "last_rank": 3103,
        "player_name": "Krishan Puran",
        "rank": 6339,
        "rank_sort": 6348,
        "total": 2409
      },
      {
        "club_badge_src": null,
        "entry": 86903,
        "entry_name": "Farnell Score",
        "event_total": 58,
        "has_played": true,
        "id": 566518,
        "last_rank": 6194,
        "player_name": "Zak Farnell",
        "rank": 6339,
        "rank_sort": 6349,
        "total": 2409
      },
      {
        "club_badge_src": null,
        "entry": 127249,
        "entry_name": "Game of Throw-ins",
        "event_total": 67,
        "has_played": true,
        "id": 829599,
        "last_rank": 9089,
        "player_name": "Luca Miceli",
        "rank": 6339,
        "rank_sort": 6350,
        "total": 2409
      }
    ]
  }
}