{
  "last_updated_data": "2026-05-24T23:28:17Z",
  "league": {
    "admin_entry": null,
    "closed": false,
    "code_privacy": "p",
    "created": "2025-07-20T23:14:33.933835Z",
    "cup_league": 2815434,
    "has_cup": true,
    "id": 314,
    "league_type": "s",
    "max_entries": null,
    "name": "Overall",
    "rank": null,
    "scoring": "c",
    "start_event": 1
  },
  "new_entries": {
    "has_next": false,
    "page": 1,
    "results": []
  },
  "standings": {
    "has_next": true,
    "page": 1335,
    "results": [
      {
        "club_badge_src": null,
        "entry": 586317,
        "entry_name": "Criston FC",
        "event_total": 59,
        "has_played": true,
        "id": 3945774,
        "last_rank": 71713,
        "player_name": "Badon Marwein",
        "rank": 66621,
        "rank_sort": 66701,
        "total": 2342
      },
      {
        "club_badge_src": "https://fantasy.premierleague.com/gcs/plfpl-production-adobe-approved/plfpl-production/601747/78b14475-1faf-4538-a965-c0644b3a94d6.png",
        "entry": 601747,
        "entry_name": "Free Palestine  \ufffd",
        "event_total": 66,
        "has_played": true,
        "id": 4060519,
        "last_rank": 68624,
        "player_name": "Ibrahim Al-Kotuory",
        "rank": 66621,
        "rank_sort": 66702,
        "total": 2342
      },
      {
        "club_badge_src": null,
        "entry": 617226,
        "entry_name": "C&C football factory",
        "event_total": 41,
        "has_played": true,
        "id": 4170336,
        "last_rank": 41824,
        "player_name": "Adam Green",
        "rank": 66621,
        "rank_sort": 66703,
        "total": 2342
      },
      {
        "club_badge_src": null,
        "entry": 651693,
        "entry_name": "Ten Bowles",
        "event_total": 71,
        "has_played": true,
        "id": 4404143,
        "last_rank": 89055,
        "player_name": "Michael Bennett",
        "rank": 66621,
        "rank_sort": 66704,
        "total": 2342
      },
      {
        "club_badge_src": "https://fantasy.premierleague.com/gcs/plfpl-production-adobe-approved/plfpl-production/653875/5006ffbf-6f30-4394-9821-5144d6ff560c.png",
        "entry": 653875,
        "entry_name": "IuLLy SCOG",
        "event_total": 59,
        "has_played": true,
        "id": 4418842,
        "last_rank": 71386,
        "player_name": "Iulian Tabacariu",
        "rank": 66621,
        "rank_sort": 66705,
        "total": 2342
      },
      {
        "club_badge_src": null,
        "entry": 668150,
        "entry_name": "FrankgoestoBolyWood",
        "event_total": 53,
        "has_played": true,
        "id": 4518139,
        "last_rank": 53345,
        "player_name": "James Hill",
        "rank": 66621,
        "rank_sort": 66706,
        "total": 2342
      },
      {
        "club_badge_src": null,
        "entry": 673627,
        "entry_name": "How I Met Your Mata",
        "event_total": 52,
        "has_played": true,
        "id": 4556841,
        "last_rank": 51720,
        "player_name": "Gavin Mc Williams",
        "rank": 66621,
        "rank_sort": 66707,
        "total": 2342
      },
      {
        "club_badge_src": null,
        "entry": 686268,
        "entry_name": "Wirtz case Eze-nario",
        "event_total": 60,
        "has_played": true,
        "id": 4645408,
        "last_rank": 73423,
        "player_name": "Francois Pharisa",
        "rank": 66621,
        "rank_sort": 66708,
        "total": 2342
      },
      {
        "club_badge_src": null,
        "entry": 695554,
        "entry_name": "Cunha Matata FC",
        "event_total": 61,
        "has_played": true,
        "id": 4711004,
        "last_rank": 75139,
        "player_name": "James Johnstone",
        "rank": 66621,
        "rank_sort": 66709,
        "total": 2342
      },
      {
        "club_badge_src": null,
        "entry": 700429,
        "entry_name": "Goobers",
        "event_total": 33,
        "has_played": true,
        "id": 4745493,
        "last_rank": 32190,
        "player_name": "Corey McGhee",
        "rank": 66621,
        "rank_sort": 66710,
        "total": 2342
      },
      {
        "club_badge_src": null,
        "entry": 706678,
        "entry_name": "ORCALA TIBAAA",
        "event_total": 49,
        "has_played": true,
        "id": 4789381,
        "last_rank": 53621,
        "player_name": "Mark Tabet",
        "rank": 66621,
        "rank_sort": 66711,
        "total": 2342
      },
      {
        "club_badge_src": null,
        "entry": 715867,
        "entry_name": "WardProwseWanderers",
        "event_total": 72,
        "has_played": true,
        "id": 4856979,
        "last_rank": 101818,
        "player_name": "Daniel Heather",
        "rank": 66621,
        "rank_sort": 66712,
        "total": 2342
      },
      {
        "club_badge_src": null,
        "entry": 724897,
        "entry_name": "Techno Vikings",
        "event_total": 70,
        "has_played": true,
        "id": 4923601,
        "last_rank": 86735,
        "player_name": "James Booth",
        "rank": 66621,
        "rank_sort": 66713,
        "total": 2342
      },
      {
        "club_badge_src": null,
        "entry": 749038,
        "entry_name": "wirtz case scenario",
        "event_total": 56,
        "has_played": true,
        "id": 5096120,
        "last_rank": 58388,
        "player_name": "Jesper Kleppan",
        "rank": 66621,
        "rank_sort": 66714,
        "total": 2342
      },
      {
        "club_badge_src": null,
        "entry": 756937,
        "entry_name": "Multi-Tasker\u2019s",
        "event_total": 55,
        "has_played": true,
        "id": 5153584,
        "last_rank": 64005,
        "player_name": "Chris Tasker",
        "rank": 66621,
        "rank_sort": 66715,
        "total": 2342
      },
      {
        "club_badge_src": "https://fantasy.premierleague.com/gcs/plfpl-production-adobe-approved/plfpl-production/768953/1b6ca54f-8f7a-4d6b-92db-e88a25694d0c.png",
        "entry": 768953,
        "entry_name": "Cold Samel",
        "event_total": 50,
        "has_played": true,
        "id": 5245129,
        "last_rank": 48642,
        "player_name": "Samuel Mattsson von Otter",
        "rank": 66621,
        "rank_sort": 66716,
        "total": 2342
      },
      {
        "club_badge_src": null,
        "entry": 786011,
        "entry_name": "Slightly Athletic",
        "event_total": 57,
        "has_played": true,
        "id": 5371726,
        "last_rank": 67695,
        "player_name": "Gerry O'Connor",
        "rank": 66621,
        "rank_sort": 66717,
        "total": 2342
      },
      {
        "club_badge_src": null,
        "entry": 798322,
        "entry_name": "DADDYS NOT THE MAN",
        "event_total": 64,
        "has_played": true,
        "id": 5464162,
        "last_rank": 82398,
        "player_name": "Alan Moye",
        "rank": 66621,
        "rank_sort": 66718,
        "total": 2342
      },
      {
        "club_badge_src": null,
        "entry": 800436,
        "entry_name": "I've played the game",
        "event_total": 42,
        "has_played": true,
        "id": 5478807,
        "last_rank": 43168,
        "player_name": "Stuart Broderick",
        "rank": 66621,
        "rank_sort": 66719,
        "total": 2342
      },
      {
        "club_badge_src": null,
        "entry": 829578,
        "entry_name": "Heffo's Heroes",
        "event_total": 53,
        "has_played": true,
        "id": 5682140,
        "last_rank": 46839,
        "player_name": "Jack Connolly",
        "rank": 66621,
        "rank_sort": 66720,
        "total": 2342
      },
      {
        "club_badge_src": null,
        "entry": 843249,
        "entry_name": "Dunk and Disorderly",
        "event_total": 54,
        "has_played": true,
        "id": 5777690,
        "last_rank": 62429,
        "player_name": "Taylor Wood",
        "rank": 66621,
        "rank_sort": 66721,
        "total": 2342
      },
      {
        "club_badge_src": "https://fantasy.premierleague.com/gcs/plfpl-production-adobe-approved/plfpl-production/851902/89b6eb83-5d7f-4f07-857c-fc63d7944c08.png",
        "entry": 851902,
        "entry_name": "Ferrybank Punks",
        "event_total": 51,
        "has_played": true,
        "id": 5839269,
        "last_rank": 56369,
        "player_name": "Lee Corcoran",
        "rank": 66621,
        "rank_sort": 66722,
        "total": 2342
      },
      {
        "club_badge_src": null,
        "entry": 881123,
        "entry_name": "Kiss My Arsenal",
        "event_total": 63,
        "has_played": true,
        "id": 6042524,
        "last_rank": 71386,
        "player_name": "Ava Stratman",
        "rank": 66621,
        "rank_sort": 66723,
        "total": 2342
      },
      {
        "club_badge_src": null,
        "entry": 895636,
        "entry_name": "ICBT FC",
        "event_total": 54,
        "has_played": true,
        "id": 6152686,
        "last_rank": 62223,
        "player_name": "Nigel Harte",
        "rank": 66621,
        "rank_sort": 66724,
        "total": 2342
      },
      {
        "club_badge_src": "https://fantasy.premierleague.com/gcs/plfpl-production-adobe-approved/plfpl-production/944071/ecff888a-d785-4fd5-a5a6-062a84bb98be.png",
        "entry": 944071,
        "entry_name": "AC PandA",
        "event_total": 51,
        "has_played": true,
        "id": 6502312,
        "last_rank": 57001,
        "player_name": "Matthew Wassell",
        "rank": 66621,
        "rank_sort": 66725,
        "total": 2342
      },
      {
        "club_badge_src": "https://fantasy.premierleague.com/gcs/plfpl-production-adobe-approved/plfpl-production/952072/ee790c38-9a5d-490c-a9c2-87b0c95d17a2.png",
        "entry": 952072,
        "entry_name": "Inthebeningin",
        "event_total": 57,
        "has_played": true,
        "id": 6559461,
        "last_rank": 59813,
        "player_name": "Mohamed Amairi",
        "rank": 66621,
        "rank_sort": 66726,
        "total": 2342
      },
      {
        "club_badge_src": "https://fantasy.premierleague.com/gcs/plfpl-production-adobe-approved/plfpl-production/958479/2ef2975c-8c57-46b1-a508-f54170fcd611.png",
        "entry": 958479,
        "entry_name": "KanonierzyPoMajstra",
        "event_total": 49,
        "has_played": true,
        "id": 6604531,
        "last_rank": 53345,
        "player_name": "Mateusz Choszcz",
        "rank": 66621,
        "rank_sort": 66727,
        "total": 2342
      },
      {
        "club_badge_src": null,
        "entry": 993961,
        "entry_name": "JDC FC",
        "event_total": 49,
        "has_played": true,
        "id": 6857102,
        "last_rank": 53621,
        "player_name": "Jamie De Cruz",
        "rank": 66621,
        "rank_sort": 66728,
        "total": 2342
      },
      {
        "club_badge_src": null,
        "entry": 1009979,
        "entry_name": "Ruud Reds'26",
        "event_total": 61,
        "has_played": true,
        "id": 6983901,
        "last_rank": 75874,
        "player_name": "Wilbur Julius",
        "rank": 66621,
        "rank_sort": 66729,
        "total": 2342
      },
      {
        "club_badge_src": null,
        "entry": 1070823,
        "entry_name": "SouthCoast B,s",
        "event_total": 72,
        "has_played": true,
        "id": 7413273,
        "last_rank": 91466,
        "player_name": "Bods zee",
        "rank": 66621,
        "rank_sort": 66730,
        "total": 2342
      },
      {
        "club_badge_src": null,
        "entry": 1072912,
        "entry_name": "Ugarte Be Kidding Me",
        "event_total": 63,
        "has_played": true,
        "id": 7427778,
        "last_rank": 80194,
        "player_name": "Martin Courtney",
        "rank": 66621,
        "rank_sort": 66731,
        "total": 2342
      },
      {
        "club_badge_src": null,
        "entry": 1073698,
        "entry_name": "Shelford Sharks",
        "event_total": 67,
        "has_played": true,
        "id": 7433330,
        "last_rank": 89426,
        "player_name": "Karl Grenz",
        "rank": 66621,
        "rank_sort": 66732,
        "total": 2342
      },
      {
        "club_badge_src": null,
        "entry": 1099800,
        "entry_name": "THE ARSENAL",
        "event_total": 54,
        "has_played": true,
        "id": 7617908,
        "last_rank": 61606,
        "player_name": "Mert Salimehmed",
        "rank": 66621,
        "rank_sort": 66733,
        "total": 2342
      },
      {
        "club_badge_src": null,
        "entry": 1119150,
        "entry_name": "Morocco",
        "event_total": 41,
        "has_played": true,
        "id": 7752101,
        "last_rank": 36624,
        "player_name": "radouane chatoui",
        "rank": 66621,
        "rank_sort": 66734,
        "total": 2342
      },
      {
        "club_badge_src": null,
        "entry": 1120916,
        "entry_name": "Ayew Kidding Mee",
        "event_total": 60,
        "has_played": true,
        "id": 7765593,
        "last_rank": 65475,
        "player_name": "Luke Williams",
        "rank": 66621,
        "rank_sort": 66735,
        "total": 2342
      },
      {
        "club_badge_src": null,
        "entry": 1147360,
        "entry_name": "beto call saul",
        "event_total": 74,
        "has_played": true,
        "id": 7955144,
        "last_rank": 107485,
        "player_name": "sean callanan",
        "rank": 66621,
        "rank_sort": 66736,
        "total": 2342
      },
      {
        "club_badge_src": null,
        "entry": 1149283,
        "entry_name": "Sabih fc",
        "event_total": 64,
        "has_played": true,
        "id": 7968594,
        "last_rank": 82398,
        "player_name": "eyad alsabih",
        "rank": 66621,
        "rank_sort": 66737,
        "total": 2342
      },
      {
        "club_badge_src": null,
        "entry": 1160079,
        "entry_name": "Pedroactive",
        "event_total": 44,
        "has_played": true,
        "id": 8047332,
        "last_rank": 40036,
        "player_name": "Arshant Nair",
        "rank": 66621,
        "rank_sort": 66738,
        "total": 2342
      },
      {
        "club_badge_src": null,
        "entry": 1165685,
        "entry_name": "Will Hughes",
        "event_total": 56,
        "has_played": true,
        "id": 8086238,
        "last_rank": 58071,
        "player_name": "Antti Leppiniemi",
        "rank": 66621,
        "rank_sort": 66739,
        "total": 2342
      },
      {
        "club_badge_src": null,
        "entry": 1168014,
        "entry_name": "Bergvalls Bollar",
        "event_total": 68,
        "has_played": true,
        "id": 8102666,
        "last_rank": 73038,
        "player_name": "Tim Lind\u00e9n",
        "rank": 66621,
        "rank_sort": 66740,
        "total": 2342
      },
      {
        "club_badge_src": null,
        "entry": 1170143,
        "entry_name": "cianooneill",
        "event_total": 68,
        "has_played": true,
        "id": 8117714,
        "last_rank": 91835,
        "player_name": "Cian O'Neill",
        "rank": 66621,
        "rank_sort": 66741,
        "total": 2342
      },
      {
        "club_badge_src": null,
        "entry": 1199213,
        "entry_name": "Roberto Larcos",
        "event_total": 52,
        "has_played": true,
        "id": 8321936,
        "last_rank": 58688,
        "player_name": "Kris Fawcett",
        "rank": 66621,
        "rank_sort": 66742,
        "total": 2342
      },
      {
        "club_badge_src": null,
        "entry": 1273495,
        "entry_name": "Kristofer87",
        "event_total": 39,
        "has_played": true,
        "id": 8848824,
        "last_rank": 38774,
        "player_name": "Fares Kristou",
        "rank": 66621,
        "rank_sort": 66743,
        "total": 2342
      },
      {
        "club_badge_src": null,
        "entry": 1320577,
        "entry_name": "Mohamed kingdom",
        "event_total": 49,
        "has_played": true,
        "id": 9178962,
        "last_rank": 53837,
        "player_name": "Mohamed djennane",
        "rank": 66621,
        "rank_sort": 66744,
        "total": 2342
      },
      {
        "club_badge_src": null,
        "entry": 1414881,
        "entry_name": "Beef Cherki",
        "event_total": 42,
        "has_played": true,
        "id": 9847936,
        "last_rank": 43168,
        "player_name": "Urban K",
        "rank": 66621,
        "rank_sort": 66745,
        "total": 2342
      },
      {
        "club_badge_src": null,
        "entry": 1420075,
        "entry_name": "Pickle Power",
        "event_total": 60,
        "has_played": true,
        "id": 9887839,
        "last_rank": 73720,
        "player_name": "Vincent Pickles",
        "rank": 66621,
        "rank_sort": 66746,
        "total": 2342
      },
      {
        "club_badge_src": null,
        "entry": 1480913,
        "entry_name": "Mhmdsmly177",
        "event_total": 57,
        "has_played": true,
        "id": 10326149,
        "last_rank": 67695,
        "player_name": "mhmd smly",
        "rank": 66621,
        "rank_sort": 66747,
        "total": 2342
      },
      {
        "club_badge_src": "https://fantasy.premierleague.com/gcs/plfpl-production-adobe-approved/plfpl-production/1484372/089d7e52-21a2-4b1c-8f69-13ff4239a473.png",
        "entry": 1484372,
        "entry_name": "DEEP FRIED CALAFIORI",
        "event_total": 68,
        "has_played": true,
        "id": 10351044,
        "last_rank": 82069,
        "player_name": "Charlie Beckett",
        "rank": 66621,
        "rank_sort": 66748,
        "total": 2342
      },
      {
        "club_badge_src": "https://fantasy.premierleague.com/gcs/plfpl-production-adobe-approved/plfpl-production/1622442/dbac1c4c-abfb-474c-bb42-d86b9f7a1e44.png",
        "entry": 1622442,
        "entry_name": "Tallinn 98-g\u00e4nget",
        "event_total": 48,
        "has_played": true,
        "id": 11355354,
        "last_rank": 52205,
        "player_name": "Johan Svard",
        "rank": 66621,
        "rank_sort": 66749,
        "total": 2342
      },
      {
        "club_badge_src": null,
        "entry": 1623694,
        "entry_name": "Better Call Cole",
        "event_total": 50,
        "has_played": true,
        "id": 11364474,
        "last_rank": 55311,
        "player_name": "Alex Barbary",
        "rank": 66621,
        "rank_sort": 66750,
        "total": 2342
      }
    ]
  }
}