{
  "last_updated_data": "2026-05-24T23:28:17Z",
  "league": {
    "admin_entry": null,
    "closed": false,
    "code_privacy": "p",
    "created": "2025-07-20T23:14:33.933835Z",
    "cup_league": 2815434,
    "has_cup": true,
    "id": 314,
    "league_type": "s",
    "max_entries": null,
    "name": "Overall",
    "rank": null,
    "scoring": "c",
    "start_event": 1
  },
  "new_entries": {
    "has_next": false,
    "page": 1,
    "results": []
  },
  "standings": {
    "has_next": true,
    "page": 731,
    "results": [
      {
        "club_badge_src": null,
        "entry": 8674885,
        "entry_name": "JhL FC",
        "event_total": 61,
        "has_played": true,
        "id": 72334380,
        "last_rank": 41162,
        "player_name": "Johan Lehmann",
        "rank": 36285,
        "rank_sort": 36501,
        "total": 2362
      },
      {
        "club_badge_src": null,
        "entry": 8692702,
        "entry_name": "Water Dogs",
        "event_total": 52,
        "has_played": true,
        "id": 72508428,
        "last_rank": 30600,
        "player_name": "Sofia Billett",
        "rank": 36285,
        "rank_sort": 36502,
        "total": 2362
      },
      {
        "club_badge_src": null,
        "entry": 8751231,
        "entry_name": "Mr Nabawy",
        "event_total": 62,
        "has_played": true,
        "id": 73075147,
        "last_rank": 42434,
        "player_name": "Ahmed Nabawy",
        "rank": 36285,
        "rank_sort": 36503,
        "total": 2362
      },
      {
        "club_badge_src": null,
        "entry": 8792950,
        "entry_name": "2nd Week Hey Game",
        "event_total": 32,
        "has_played": true,
        "id": 73476465,
        "last_rank": 14926,
        "player_name": "Ty Chu",
        "rank": 36285,
        "rank_sort": 36504,
        "total": 2362
      },
      {
        "club_badge_src": null,
        "entry": 9181705,
        "entry_name": "Snake",
        "event_total": 70,
        "has_played": true,
        "id": 77253040,
        "last_rank": 54494,
        "player_name": "Maks Sliusarenko",
        "rank": 36285,
        "rank_sort": 36505,
        "total": 2362
      },
      {
        "club_badge_src": null,
        "entry": 9273193,
        "entry_name": "Welly\u2019s wanderers",
        "event_total": 56,
        "has_played": true,
        "id": 78149831,
        "last_rank": 35166,
        "player_name": "Georgia Wells",
        "rank": 36285,
        "rank_sort": 36506,
        "total": 2362
      },
      {
        "club_badge_src": null,
        "entry": 9291125,
        "entry_name": "Expected toulouse",
        "event_total": 80,
        "has_played": true,
        "id": 78324576,
        "last_rank": 73423,
        "player_name": "Matt Reynolds",
        "rank": 36285,
        "rank_sort": 36507,
        "total": 2362
      },
      {
        "club_badge_src": null,
        "entry": 9403844,
        "entry_name": "Phantasya",
        "event_total": 62,
        "has_played": true,
        "id": 79410259,
        "last_rank": 42648,
        "player_name": "Monica Ivanova",
        "rank": 36285,
        "rank_sort": 36508,
        "total": 2362
      },
      {
        "club_badge_src": null,
        "entry": 9423637,
        "entry_name": "Marlo stanfield",
        "event_total": 68,
        "has_played": true,
        "id": 79600497,
        "last_rank": 51220,
        "player_name": "Ayomide Adebayo",
        "rank": 36285,
        "rank_sort": 36509,
        "total": 2362
      },
      {
        "club_badge_src": null,
        "entry": 595,
        "entry_name": "luke fc",
        "event_total": 68,
        "has_played": true,
        "id": 3283,
        "last_rank": 51403,
        "player_name": "Luke Mather",
        "rank": 36510,
        "rank_sort": 36510,
        "total": 2362
      },
      {
        "club_badge_src": "https://fantasy.premierleague.com/gcs/plfpl-production-adobe-approved/plfpl-production/1853/55f49659-58a4-41ad-91fc-c18455e075f6.png",
        "entry": 1853,
        "entry_name": "Run Of The Milner",
        "event_total": 73,
        "has_played": true,
        "id": 10327,
        "last_rank": 59813,
        "player_name": "Daire Wynne",
        "rank": 36510,
        "rank_sort": 36511,
        "total": 2362
      },
      {
        "club_badge_src": null,
        "entry": 2320,
        "entry_name": "HaCunha Mbuemo ! \u26bd\ufe0f",
        "event_total": 65,
        "has_played": true,
        "id": 12929,
        "last_rank": 47163,
        "player_name": "Anush Murpani",
        "rank": 36510,
        "rank_sort": 36512,
        "total": 2362
      },
      {
        "club_badge_src": "https://fantasy.premierleague.com/gcs/plfpl-production-adobe-approved/plfpl-production/2598/a7c60301-b1f3-4d64-b9f1-9df9c3259edb.png",
        "entry": 2598,
        "entry_name": "\u2b50 PREM TIPSTER",
        "event_total": 69,
        "has_played": true,
        "id": 14514,
        "last_rank": 53345,
        "player_name": "Prem Tipster",
        "rank": 36510,
        "rank_sort": 36513,
        "total": 2362
      },
      {
        "club_badge_src": null,
        "entry": 3010,
        "entry_name": "CantWinFPL",
        "event_total": 68,
        "has_played": true,
        "id": 16971,
        "last_rank": 45416,
        "player_name": "James mccance",
        "rank": 36510,
        "rank_sort": 36514,
        "total": 2362
      },
      {
        "club_badge_src": null,
        "entry": 7244,
        "entry_name": "AlCo",
        "event_total": 73,
        "has_played": true,
        "id": 41743,
        "last_rank": 53023,
        "player_name": "Alex Grant",
        "rank": 36510,
        "rank_sort": 36515,
        "total": 2362
      },
      {
        "club_badge_src": null,
        "entry": 7907,
        "entry_name": "Kohli-er than Thou",
        "event_total": 67,
        "has_played": true,
        "id": 45683,
        "last_rank": 50199,
        "player_name": "Jagir Patel",
        "rank": 36510,
        "rank_sort": 36516,
        "total": 2362
      },
      {
        "club_badge_src": null,
        "entry": 14639,
        "entry_name": "Bruno Fernandeggs",
        "event_total": 29,
        "has_played": true,
        "id": 89036,
        "last_rank": 13257,
        "player_name": "FPL Bodderz",
        "rank": 36510,
        "rank_sort": 36517,
        "total": 2362
      },
      {
        "club_badge_src": "https://fantasy.premierleague.com/gcs/plfpl-production-adobe-approved/plfpl-production/16865/54795dfc-376e-41b9-aaf7-185dad236e4a.png",
        "entry": 16865,
        "entry_name": "Reddevils",
        "event_total": 78,
        "has_played": true,
        "id": 104390,
        "last_rank": 69641,
        "player_name": "Abhi K",
        "rank": 36510,
        "rank_sort": 36518,
        "total": 2362
      },
      {
        "club_badge_src": null,
        "entry": 17798,
        "entry_name": "JV's XI",
        "event_total": 62,
        "has_played": true,
        "id": 110508,
        "last_rank": 42506,
        "player_name": "Joel Vollans",
        "rank": 36510,
        "rank_sort": 36519,
        "total": 2362
      },
      {
        "club_badge_src": null,
        "entry": 18300,
        "entry_name": "Scoredplace6",
        "event_total": 52,
        "has_played": true,
        "id": 113803,
        "last_rank": 30957,
        "player_name": "Alan O'Sullivan",
        "rank": 36510,
        "rank_sort": 36520,
        "total": 2362
      },
      {
        "club_badge_src": null,
        "entry": 24994,
        "entry_name": "Red Prince",
        "event_total": 63,
        "has_played": true,
        "id": 157958,
        "last_rank": 44048,
        "player_name": "Katya Protasenya",
        "rank": 36510,
        "rank_sort": 36521,
        "total": 2362
      },
      {
        "club_badge_src": "https://fantasy.premierleague.com/gcs/plfpl-production-adobe-approved/plfpl-production/28437/0b8f2d10-d038-4115-b11e-0d43218a9ef7.png",
        "entry": 28437,
        "entry_name": "Gy\u00f6k Tuah*",
        "event_total": 63,
        "has_played": true,
        "id": 179816,
        "last_rank": 44303,
        "player_name": "Michael Durey",
        "rank": 36510,
        "rank_sort": 36522,
        "total": 2362
      },
      {
        "club_badge_src": null,
        "entry": 28579,
        "entry_name": "Balotelli-tubbies",
        "event_total": 48,
        "has_played": true,
        "id": 180699,
        "last_rank": 27020,
        "player_name": "Raf Mulder",
        "rank": 36510,
        "rank_sort": 36523,
        "total": 2362
      },
      {
        "club_badge_src": null,
        "entry": 34020,
        "entry_name": "DestroyAllMonstersFC",
        "event_total": 68,
        "has_played": true,
        "id": 217237,
        "last_rank": 51220,
        "player_name": "William Pettit",
        "rank": 36510,
        "rank_sort": 36524,
        "total": 2362
      },
      {
        "club_badge_src": "https://fantasy.premierleague.com/gcs/plfpl-production-adobe-approved/plfpl-production/36023/af133b35-fb25-4436-88ca-02b191c6f84c.png",
        "entry": 36023,
        "entry_name": "Aymens",
        "event_total": 51,
        "has_played": true,
        "id": 230532,
        "last_rank": 29904,
        "player_name": "Aymen Sabah",
        "rank": 36510,
        "rank_sort": 36525,
        "total": 2362
      },
      {
        "club_badge_src": null,
        "entry": 36197,
        "entry_name": "LeHarout",
        "event_total": 53,
        "has_played": true,
        "id": 231680,
        "last_rank": 27770,
        "player_name": "Harout Kasbarian",
        "rank": 36510,
        "rank_sort": 36526,
        "total": 2362
      },
      {
        "club_badge_src": null,
        "entry": 39923,
        "entry_name": "The Maelstrom\u265a",
        "event_total": 70,
        "has_played": true,
        "id": 255880,
        "last_rank": 55014,
        "player_name": "David Ibrahim",
        "rank": 36510,
        "rank_sort": 36527,
        "total": 2362
      },
      {
        "club_badge_src": null,
        "entry": 46592,
        "entry_name": "This Is Meaningless",
        "event_total": 51,
        "has_played": true,
        "id": 298667,
        "last_rank": 29904,
        "player_name": "Chris Edwards",
        "rank": 36510,
        "rank_sort": 36528,
        "total": 2362
      },
      {
        "club_badge_src": null,
        "entry": 61224,
        "entry_name": "Caralhense FC",
        "event_total": 73,
        "has_played": true,
        "id": 394282,
        "last_rank": 53023,
        "player_name": "Filipe Marques",
        "rank": 36510,
        "rank_sort": 36529,
        "total": 2362
      },
      {
        "club_badge_src": null,
        "entry": 73747,
        "entry_name": "The Runners-Up",
        "event_total": 65,
        "has_played": true,
        "id": 479403,
        "last_rank": 47163,
        "player_name": "Lewis Adams",
        "rank": 36510,
        "rank_sort": 36530,
        "total": 2362
      },
      {
        "club_badge_src": null,
        "entry": 79878,
        "entry_name": "Bl\u00e5sippan",
        "event_total": 60,
        "has_played": true,
        "id": 519693,
        "last_rank": 35034,
        "player_name": "Christian Olsson",
        "rank": 36510,
        "rank_sort": 36531,
        "total": 2362
      },
      {
        "club_badge_src": null,
        "entry": 86996,
        "entry_name": "Zoobiedoobie",
        "event_total": 70,
        "has_played": true,
        "id": 567197,
        "last_rank": 48363,
        "player_name": "Alex Baleanu",
        "rank": 36510,
        "rank_sort": 36532,
        "total": 2362
      },
      {
        "club_badge_src": null,
        "entry": 96653,
        "entry_name": "PaperTroopers",
        "event_total": 68,
        "has_played": true,
        "id": 631384,
        "last_rank": 51720,
        "player_name": "S\u00f8ren Christian Mikkelsen",
        "rank": 36510,
        "rank_sort": 36533,
        "total": 2362
      },
      {
        "club_badge_src": null,
        "entry": 97263,
        "entry_name": "Doyley's Donkeys",
        "event_total": 46,
        "has_played": true,
        "id": 635299,
        "last_rank": 21775,
        "player_name": "Luke Wilson",
        "rank": 36510,
        "rank_sort": 36534,
        "total": 2362
      },
      {
        "club_badge_src": null,
        "entry": 108647,
        "entry_name": "FullFartSnabbStart",
        "event_total": 61,
        "has_played": true,
        "id": 708326,
        "last_rank": 36348,
        "player_name": "Elias Ekelund",
        "rank": 36510,
        "rank_sort": 36535,
        "total": 2362
      },
      {
        "club_badge_src": null,
        "entry": 112868,
        "entry_name": "Javel, se det!",
        "event_total": 68,
        "has_played": true,
        "id": 736051,
        "last_rank": 51220,
        "player_name": "Ruben Lia",
        "rank": 36510,
        "rank_sort": 36536,
        "total": 2362
      },
      {
        "club_badge_src": null,
        "entry": 116139,
        "entry_name": "Where's Rashford",
        "event_total": 65,
        "has_played": true,
        "id": 758162,
        "last_rank": 46839,
        "player_name": "Justin Teo",
        "rank": 36510,
        "rank_sort": 36537,
        "total": 2362
      },
      {
        "club_badge_src": null,
        "entry": 119594,
        "entry_name": "Sregnar",
        "event_total": 52,
        "has_played": true,
        "id": 780285,
        "last_rank": 30957,
        "player_name": "Lucas Fleming",
        "rank": 36510,
        "rank_sort": 36538,
        "total": 2362
      },
      {
        "club_badge_src": null,
        "entry": 125214,
        "entry_name": "Gyoke's on You",
        "event_total": 69,
        "has_played": true,
        "id": 816642,
        "last_rank": 46839,
        "player_name": "D Goat",
        "rank": 36510,
        "rank_sort": 36539,
        "total": 2362
      },
      {
        "club_badge_src": null,
        "entry": 126653,
        "entry_name": "Fat Piz FC",
        "event_total": 45,
        "has_played": true,
        "id": 825757,
        "last_rank": 24330,
        "player_name": "Craig Pirie",
        "rank": 36510,
        "rank_sort": 36540,
        "total": 2362
      },
      {
        "club_badge_src": null,
        "entry": 134288,
        "entry_name": "Hraunb\u00e6r United",
        "event_total": 60,
        "has_played": true,
        "id": 874584,
        "last_rank": 40297,
        "player_name": "\u00d3mar Olgeirsson",
        "rank": 36510,
        "rank_sort": 36541,
        "total": 2362
      },
      {
        "club_badge_src": "https://fantasy.premierleague.com/gcs/plfpl-production-adobe-approved/plfpl-production/139259/97584fdd-7cec-4fa0-b972-5ec3c888a29a.png",
        "entry": 139259,
        "entry_name": "Tunnstrumpan BK",
        "event_total": 52,
        "has_played": true,
        "id": 908790,
        "last_rank": 26827,
        "player_name": "Tim Lindgren",
        "rank": 36510,
        "rank_sort": 36542,
        "total": 2362
      },
      {
        "club_badge_src": "https://fantasy.premierleague.com/gcs/plfpl-production-adobe-approved/plfpl-production/141826/89f4fe07-1a16-49b0-a693-b3dc14721fe0.png",
        "entry": 141826,
        "entry_name": "Howay the Pharaoh!",
        "event_total": 53,
        "has_played": true,
        "id": 926813,
        "last_rank": 31747,
        "player_name": "Peter Hanna",
        "rank": 36510,
        "rank_sort": 36543,
        "total": 2362
      },
      {
        "club_badge_src": null,
        "entry": 159968,
        "entry_name": "HD City FC",
        "event_total": 64,
        "has_played": true,
        "id": 1053178,
        "last_rank": 40036,
        "player_name": "Hugh Downes",
        "rank": 36510,
        "rank_sort": 36544,
        "total": 2362
      },
      {
        "club_badge_src": "https://fantasy.premierleague.com/gcs/plfpl-production-adobe-approved/plfpl-production/160655/9cc112f8-5b2f-4bae-b37e-f8629c4d30ae.png",
        "entry": 160655,
        "entry_name": "Proletarian Vanguard",
        "event_total": 43,
        "has_played": true,
        "id": 1058025,
        "last_rank": 19544,
        "player_name": "Paul Butterworth",
        "rank": 36510,
        "rank_sort": 36545,
        "total": 2362
      },
      {
        "club_badge_src": null,
        "entry": 177984,
        "entry_name": "Obi 1 Kenobi 0",
        "event_total": 38,
        "has_played": true,
        "id": 1174684,
        "last_rank": 19103,
        "player_name": "James Lloyd",
        "rank": 36510,
        "rank_sort": 36546,
        "total": 2362
      },
      {
        "club_badge_src": null,
        "entry": 181076,
        "entry_name": "COYSBOYS",
        "event_total": 57,
        "has_played": true,
        "id": 1194947,
        "last_rank": 31747,
        "player_name": "Alex Cohen",
        "rank": 36510,
        "rank_sort": 36547,
        "total": 2362
      },
      {
        "club_badge_src": null,
        "entry": 181523,
        "entry_name": "House of Monk",
        "event_total": 65,
        "has_played": true,
        "id": 1197902,
        "last_rank": 41324,
        "player_name": "Valdemar Christiansen",
        "rank": 36510,
        "rank_sort": 36548,
        "total": 2362
      },
      {
        "club_badge_src": null,
        "entry": 183298,
        "entry_name": "Milambo No. 5",
        "event_total": 58,
        "has_played": true,
        "id": 1209884,
        "last_rank": 37435,
        "player_name": "Tom M",
        "rank": 36510,
        "rank_sort": 36549,
        "total": 2362
      },
      {
        "club_badge_src": null,
        "entry": 202186,
        "entry_name": "Asiantuntijapiirit",
        "event_total": 54,
        "has_played": true,
        "id": 1342604,
        "last_rank": 32879,
        "player_name": "Garry B",
        "rank": 36510,
        "rank_sort": 36550,
        "total": 2362
      }
    ]
  }
}