{
  "last_updated_data": "2026-05-24T23:28:17Z",
  "league": {
    "admin_entry": null,
    "closed": false,
    "code_privacy": "p",
    "created": "2025-07-20T23:14:33.933835Z",
    "cup_league": 2815434,
    "has_cup": true,
    "id": 314,
    "league_type": "s",
    "max_entries": null,
    "name": "Overall",
    "rank": null,
    "scoring": "c",
    "start_event": 1
  },
  "new_entries": {
    "has_next": false,
    "page": 1,
    "results": []
  },
  "standings": {
    "has_next": true,
    "page": 1030,
    "results": [
      {
        "club_badge_src": null,
        "entry": 2805265,
        "entry_name": "Mezzo Mix",
        "event_total": 74,
        "has_played": true,
        "id": 20486208,
        "last_rank": 83934,
        "player_name": "Namir Malek",
        "rank": 51278,
        "rank_sort": 51451,
        "total": 2351
      },
      {
        "club_badge_src": null,
        "entry": 2837818,
        "entry_name": "One Last Hoorah",
        "event_total": 59,
        "has_played": true,
        "id": 20739429,
        "last_rank": 55014,
        "player_name": "Tomos Hales",
        "rank": 51278,
        "rank_sort": 51452,
        "total": 2351
      },
      {
        "club_badge_src": null,
        "entry": 2839147,
        "entry_name": "Real Sosogood",
        "event_total": 57,
        "has_played": true,
        "id": 20749611,
        "last_rank": 51720,
        "player_name": "Bruno Alves",
        "rank": 51278,
        "rank_sort": 51453,
        "total": 2351
      },
      {
        "club_badge_src": null,
        "entry": 2844972,
        "entry_name": "Nyga FC",
        "event_total": 56,
        "has_played": true,
        "id": 20797862,
        "last_rank": 50199,
        "player_name": "Micha\u0142 \u015awi\u0105tek",
        "rank": 51278,
        "rank_sort": 51454,
        "total": 2351
      },
      {
        "club_badge_src": null,
        "entry": 2856884,
        "entry_name": "Boombaam",
        "event_total": 60,
        "has_played": true,
        "id": 20890769,
        "last_rank": 49880,
        "player_name": "Andria Lalruatfela",
        "rank": 51278,
        "rank_sort": 51455,
        "total": 2351
      },
      {
        "club_badge_src": null,
        "entry": 2896491,
        "entry_name": "Corn on the Kobbie",
        "event_total": 58,
        "has_played": true,
        "id": 21222521,
        "last_rank": 52759,
        "player_name": "Jake Mcsheehy",
        "rank": 51278,
        "rank_sort": 51456,
        "total": 2351
      },
      {
        "club_badge_src": null,
        "entry": 3009041,
        "entry_name": "DePOpe",
        "event_total": 54,
        "has_played": true,
        "id": 22135460,
        "last_rank": 47163,
        "player_name": "Pope Obasi",
        "rank": 51278,
        "rank_sort": 51457,
        "total": 2351
      },
      {
        "club_badge_src": null,
        "entry": 3170931,
        "entry_name": "above the boiler",
        "event_total": 46,
        "has_played": true,
        "id": 23428103,
        "last_rank": 36624,
        "player_name": "John Smyth",
        "rank": 51278,
        "rank_sort": 51458,
        "total": 2351
      },
      {
        "club_badge_src": null,
        "entry": 3191642,
        "entry_name": "BQ65",
        "event_total": 73,
        "has_played": true,
        "id": 23587983,
        "last_rank": 82069,
        "player_name": "M. Basim Qadri",
        "rank": 51278,
        "rank_sort": 51459,
        "total": 2351
      },
      {
        "club_badge_src": null,
        "entry": 3217766,
        "entry_name": "\u0645\u0648\u0633\u0645 \u0644\u0646\u0633\u064a\u0627\u0646",
        "event_total": 73,
        "has_played": true,
        "id": 23793624,
        "last_rank": 81646,
        "player_name": "ryad benyebdri",
        "rank": 51278,
        "rank_sort": 51460,
        "total": 2351
      },
      {
        "club_badge_src": null,
        "entry": 3231723,
        "entry_name": "spook fc",
        "event_total": 41,
        "has_played": true,
        "id": 23901355,
        "last_rank": 26827,
        "player_name": "Stephen Walters",
        "rank": 51278,
        "rank_sort": 51461,
        "total": 2351
      },
      {
        "club_badge_src": null,
        "entry": 3262589,
        "entry_name": "Up the Jacks!",
        "event_total": 70,
        "has_played": true,
        "id": 24141516,
        "last_rank": 75537,
        "player_name": "Mark Peters",
        "rank": 51278,
        "rank_sort": 51462,
        "total": 2351
      },
      {
        "club_badge_src": "https://fantasy.premierleague.com/gcs/plfpl-production-adobe-approved/plfpl-production/3283233/7fb39d8d-4168-4a40-9b14-ee44ad597ee2.png",
        "entry": 3283233,
        "entry_name": "DialFC",
        "event_total": 82,
        "has_played": true,
        "id": 24303289,
        "last_rank": 93186,
        "player_name": "H Ravisankar",
        "rank": 51278,
        "rank_sort": 51463,
        "total": 2351
      },
      {
        "club_badge_src": "https://fantasy.premierleague.com/gcs/plfpl-production-adobe-approved/plfpl-production/3311439/b25fddad-24f2-4c82-a984-19ec14f13e30.png",
        "entry": 3311439,
        "entry_name": "Mete o Pavlidis",
        "event_total": 56,
        "has_played": true,
        "id": 24534004,
        "last_rank": 44048,
        "player_name": "Rui Jorge Ribeiro",
        "rank": 51278,
        "rank_sort": 51464,
        "total": 2351
      },
      {
        "club_badge_src": null,
        "entry": 3335655,
        "entry_name": "Rice to the Occasion",
        "event_total": 47,
        "has_played": true,
        "id": 24737425,
        "last_rank": 37822,
        "player_name": "James Knowles",
        "rank": 51278,
        "rank_sort": 51465,
        "total": 2351
      },
      {
        "club_badge_src": null,
        "entry": 3343926,
        "entry_name": "Akuza Int.",
        "event_total": 50,
        "has_played": true,
        "id": 24804122,
        "last_rank": 41617,
        "player_name": "Fred Junior",
        "rank": 51278,
        "rank_sort": 51466,
        "total": 2351
      },
      {
        "club_badge_src": null,
        "entry": 3469001,
        "entry_name": "Destinysleek Fc",
        "event_total": 70,
        "has_played": true,
        "id": 25789197,
        "last_rank": 75537,
        "player_name": "Destiny Aighobahi",
        "rank": 51278,
        "rank_sort": 51467,
        "total": 2351
      },
      {
        "club_badge_src": null,
        "entry": 3471962,
        "entry_name": "Change Name",
        "event_total": 69,
        "has_played": true,
        "id": 25812532,
        "last_rank": 73423,
        "player_name": "Kieran Mitchell",
        "rank": 51278,
        "rank_sort": 51468,
        "total": 2351
      },
      {
        "club_badge_src": null,
        "entry": 3660610,
        "entry_name": "alex xI",
        "event_total": 58,
        "has_played": true,
        "id": 27297290,
        "last_rank": 46839,
        "player_name": "Alex leonard",
        "rank": 51278,
        "rank_sort": 51469,
        "total": 2351
      },
      {
        "club_badge_src": null,
        "entry": 3704552,
        "entry_name": "JFC",
        "event_total": 57,
        "has_played": true,
        "id": 27640915,
        "last_rank": 51720,
        "player_name": "Shahid Arif",
        "rank": 51278,
        "rank_sort": 51470,
        "total": 2351
      },
      {
        "club_badge_src": null,
        "entry": 3763079,
        "entry_name": "Fc Rustic",
        "event_total": 63,
        "has_played": true,
        "id": 28097143,
        "last_rank": 62223,
        "player_name": "Ey\u00fe\u00f3r R\u00fanarsson",
        "rank": 51278,
        "rank_sort": 51471,
        "total": 2351
      },
      {
        "club_badge_src": null,
        "entry": 3787839,
        "entry_name": "Palmer's Posse",
        "event_total": 60,
        "has_played": true,
        "id": 28299364,
        "last_rank": 56180,
        "player_name": "Ollie King",
        "rank": 51278,
        "rank_sort": 51472,
        "total": 2351
      },
      {
        "club_badge_src": null,
        "entry": 3802952,
        "entry_name": "Haalandaise Sauce",
        "event_total": 71,
        "has_played": true,
        "id": 28429951,
        "last_rank": 77258,
        "player_name": "Oliver Kerry",
        "rank": 51278,
        "rank_sort": 51473,
        "total": 2351
      },
      {
        "club_badge_src": null,
        "entry": 3806411,
        "entry_name": "Drogbas Dream",
        "event_total": 75,
        "has_played": true,
        "id": 28458703,
        "last_rank": 86054,
        "player_name": "Noel Mitchell",
        "rank": 51278,
        "rank_sort": 51474,
        "total": 2351
      },
      {
        "club_badge_src": null,
        "entry": 3814200,
        "entry_name": "Corn on the Kobbie",
        "event_total": 59,
        "has_played": true,
        "id": 28522299,
        "last_rank": 54667,
        "player_name": "Matt Ayris",
        "rank": 51278,
        "rank_sort": 51475,
        "total": 2351
      },
      {
        "club_badge_src": null,
        "entry": 3845495,
        "entry_name": "Beef Cherki",
        "event_total": 56,
        "has_played": true,
        "id": 28823042,
        "last_rank": 43849,
        "player_name": "Tom McPartland",
        "rank": 51278,
        "rank_sort": 51476,
        "total": 2351
      },
      {
        "club_badge_src": null,
        "entry": 3874758,
        "entry_name": "Wolferines",
        "event_total": 58,
        "has_played": true,
        "id": 29098908,
        "last_rank": 46839,
        "player_name": "Will G",
        "rank": 51278,
        "rank_sort": 51477,
        "total": 2351
      },
      {
        "club_badge_src": null,
        "entry": 3899589,
        "entry_name": "No Marseille no cry",
        "event_total": 26,
        "has_played": true,
        "id": 29313205,
        "last_rank": 18377,
        "player_name": "Pierre Billard",
        "rank": 51278,
        "rank_sort": 51478,
        "total": 2351
      },
      {
        "club_badge_src": null,
        "entry": 3995697,
        "entry_name": "Aubamacare",
        "event_total": 66,
        "has_played": true,
        "id": 30090573,
        "last_rank": 67063,
        "player_name": "Dalmar Nur",
        "rank": 51278,
        "rank_sort": 51479,
        "total": 2351
      },
      {
        "club_badge_src": null,
        "entry": 3998514,
        "entry_name": "Shahani Army",
        "event_total": 81,
        "has_played": true,
        "id": 30114095,
        "last_rank": 100700,
        "player_name": "Max Shahani",
        "rank": 51278,
        "rank_sort": 51480,
        "total": 2351
      },
      {
        "club_badge_src": null,
        "entry": 4032906,
        "entry_name": "Palmer Violets",
        "event_total": 61,
        "has_played": true,
        "id": 30405028,
        "last_rank": 58388,
        "player_name": "Conor Geran",
        "rank": 51278,
        "rank_sort": 51481,
        "total": 2351
      },
      {
        "club_badge_src": null,
        "entry": 4048539,
        "entry_name": "Dele Ali Kebabish",
        "event_total": 29,
        "has_played": true,
        "id": 30537330,
        "last_rank": 20416,
        "player_name": "Liam Corr",
        "rank": 51278,
        "rank_sort": 51482,
        "total": 2351
      },
      {
        "club_badge_src": null,
        "entry": 4097507,
        "entry_name": "Wissa Pattarna",
        "event_total": 49,
        "has_played": true,
        "id": 30939453,
        "last_rank": 40036,
        "player_name": "Viktor Raa Karlsen",
        "rank": 51278,
        "rank_sort": 51483,
        "total": 2351
      },
      {
        "club_badge_src": null,
        "entry": 4154808,
        "entry_name": "Free Will Wanderers",
        "event_total": 48,
        "has_played": true,
        "id": 31405879,
        "last_rank": 39023,
        "player_name": "Paul McDevitt",
        "rank": 51278,
        "rank_sort": 51484,
        "total": 2351
      },
      {
        "club_badge_src": null,
        "entry": 4221452,
        "entry_name": "Walt",
        "event_total": 61,
        "has_played": true,
        "id": 31978191,
        "last_rank": 51220,
        "player_name": "Walt Walt",
        "rank": 51278,
        "rank_sort": 51485,
        "total": 2351
      },
      {
        "club_badge_src": null,
        "entry": 4352648,
        "entry_name": "v\u00ebn\u00f0e\u021b\u021ba_fc",
        "event_total": 66,
        "has_played": true,
        "id": 33053771,
        "last_rank": 67063,
        "player_name": "Keron Russell",
        "rank": 51278,
        "rank_sort": 51486,
        "total": 2351
      },
      {
        "club_badge_src": null,
        "entry": 4361998,
        "entry_name": "FC Alltidtrua",
        "event_total": 58,
        "has_played": true,
        "id": 33130838,
        "last_rank": 53345,
        "player_name": "Tommy Nygaard",
        "rank": 51278,
        "rank_sort": 51487,
        "total": 2351
      },
      {
        "club_badge_src": null,
        "entry": 4387248,
        "entry_name": "Diego Shotta",
        "event_total": 63,
        "has_played": true,
        "id": 33349042,
        "last_rank": 61950,
        "player_name": "James Sloane",
        "rank": 51278,
        "rank_sort": 51488,
        "total": 2351
      },
      {
        "club_badge_src": null,
        "entry": 4430119,
        "entry_name": "Da Lazy Ones",
        "event_total": 64,
        "has_played": true,
        "id": 33723829,
        "last_rank": 63390,
        "player_name": "Chris Arnold",
        "rank": 51278,
        "rank_sort": 51489,
        "total": 2351
      },
      {
        "club_badge_src": null,
        "entry": 4663664,
        "entry_name": "Winner Or Charity FC",
        "event_total": 65,
        "has_played": true,
        "id": 35719114,
        "last_rank": 65163,
        "player_name": "Amol Karki",
        "rank": 51278,
        "rank_sort": 51490,
        "total": 2351
      },
      {
        "club_badge_src": "https://fantasy.premierleague.com/gcs/plfpl-production-adobe-approved/plfpl-production/4666700/eaea1b92-10be-4f8a-86e9-24d1dce34604.png",
        "entry": 4666700,
        "entry_name": "t\u00e4\u00e4 on ManUn vuosi",
        "event_total": 71,
        "has_played": true,
        "id": 35744208,
        "last_rank": 68957,
        "player_name": "Lauri Vanhanen",
        "rank": 51278,
        "rank_sort": 51491,
        "total": 2351
      },
      {
        "club_badge_src": null,
        "entry": 4706164,
        "entry_name": "Emil the dream",
        "event_total": 56,
        "has_played": true,
        "id": 36086569,
        "last_rank": 50199,
        "player_name": "Emil Lemtoft Olsen",
        "rank": 51278,
        "rank_sort": 51492,
        "total": 2351
      },
      {
        "club_badge_src": null,
        "entry": 4761759,
        "entry_name": "Drop it Like It'Slot",
        "event_total": 36,
        "has_played": true,
        "id": 36646778,
        "last_rank": 25902,
        "player_name": "evan collins",
        "rank": 51278,
        "rank_sort": 51493,
        "total": 2351
      },
      {
        "club_badge_src": null,
        "entry": 4767084,
        "entry_name": "Arsenal Preshow",
        "event_total": 77,
        "has_played": true,
        "id": 36689371,
        "last_rank": 91466,
        "player_name": "Matus Malik",
        "rank": 51278,
        "rank_sort": 51494,
        "total": 2351
      },
      {
        "club_badge_src": null,
        "entry": 4782118,
        "entry_name": "Club foot",
        "event_total": 58,
        "has_played": true,
        "id": 36813501,
        "last_rank": 53345,
        "player_name": "Rob Shaw",
        "rank": 51278,
        "rank_sort": 51495,
        "total": 2351
      },
      {
        "club_badge_src": null,
        "entry": 4863446,
        "entry_name": "Ina",
        "event_total": 59,
        "has_played": true,
        "id": 37480964,
        "last_rank": 55014,
        "player_name": "Ina Berg-vonli",
        "rank": 51278,
        "rank_sort": 51496,
        "total": 2351
      },
      {
        "club_badge_src": null,
        "entry": 4944114,
        "entry_name": "Loss county",
        "event_total": 46,
        "has_played": true,
        "id": 38148068,
        "last_rank": 36831,
        "player_name": "Thomas Nimmo",
        "rank": 51278,
        "rank_sort": 51497,
        "total": 2351
      },
      {
        "club_badge_src": null,
        "entry": 5004312,
        "entry_name": "payne in diaz",
        "event_total": 64,
        "has_played": true,
        "id": 38642051,
        "last_rank": 63390,
        "player_name": "George Harvey",
        "rank": 51278,
        "rank_sort": 51498,
        "total": 2351
      },
      {
        "club_badge_src": null,
        "entry": 5037995,
        "entry_name": "Frimpong Ping Pong",
        "event_total": 68,
        "has_played": true,
        "id": 38914039,
        "last_rank": 70757,
        "player_name": "Jack B",
        "rank": 51278,
        "rank_sort": 51499,
        "total": 2351
      },
      {
        "club_badge_src": null,
        "entry": 5165707,
        "entry_name": "Pep Guardebola",
        "event_total": 64,
        "has_played": true,
        "id": 39976730,
        "last_rank": 63390,
        "player_name": "George Ellmore",
        "rank": 51278,
        "rank_sort": 51500,
        "total": 2351
      }
    ]
  }
}