{
  "last_updated_data": "2026-05-24T23:28:17Z",
  "league": {
    "admin_entry": null,
    "closed": false,
    "code_privacy": "p",
    "created": "2025-07-20T23:14:33.933835Z",
    "cup_league": 2815434,
    "has_cup": true,
    "id": 314,
    "league_type": "s",
    "max_entries": null,
    "name": "Overall",
    "rank": null,
    "scoring": "c",
    "start_event": 1
  },
  "new_entries": {
    "has_next": false,
    "page": 1,
    "results": []
  },
  "standings": {
    "has_next": true,
    "page": 1651,
    "results": [
      {
        "club_badge_src": null,
        "entry": 1525518,
        "entry_name": "KudusToYou",
        "event_total": 58,
        "has_played": true,
        "id": 10640056,
        "last_rank": 86735,
        "player_name": "Zac Englander",
        "rank": 82364,
        "rank_sort": 82501,
        "total": 2334
      },
      {
        "club_badge_src": null,
        "entry": 1530002,
        "entry_name": "Reijnders Keepers",
        "event_total": 51,
        "has_played": true,
        "id": 10676789,
        "last_rank": 71386,
        "player_name": "Harry Dorricott-Watts",
        "rank": 82364,
        "rank_sort": 82502,
        "total": 2334
      },
      {
        "club_badge_src": null,
        "entry": 1621573,
        "entry_name": "Dream",
        "event_total": 57,
        "has_played": true,
        "id": 11348789,
        "last_rank": 75139,
        "player_name": "Mohamed Nassar",
        "rank": 82364,
        "rank_sort": 82503,
        "total": 2334
      },
      {
        "club_badge_src": null,
        "entry": 1636563,
        "entry_name": "SKLITAKLING!",
        "event_total": 67,
        "has_played": true,
        "id": 11455267,
        "last_rank": 108959,
        "player_name": "Nima Guardiola",
        "rank": 82364,
        "rank_sort": 82504,
        "total": 2334
      },
      {
        "club_badge_src": null,
        "entry": 1659711,
        "entry_name": "Brum and Get It",
        "event_total": 73,
        "has_played": true,
        "id": 11619930,
        "last_rank": 126948,
        "player_name": "Kristian McManus",
        "rank": 82364,
        "rank_sort": 82505,
        "total": 2334
      },
      {
        "club_badge_src": null,
        "entry": 1707841,
        "entry_name": "Botman Begins",
        "event_total": 58,
        "has_played": true,
        "id": 11965103,
        "last_rank": 87074,
        "player_name": "Edward Cockell",
        "rank": 82364,
        "rank_sort": 82506,
        "total": 2334
      },
      {
        "club_badge_src": null,
        "entry": 1751636,
        "entry_name": "Cole'd as ice",
        "event_total": 32,
        "has_played": true,
        "id": 12293209,
        "last_rank": 40297,
        "player_name": "Ricky Wheeler",
        "rank": 82364,
        "rank_sort": 82507,
        "total": 2334
      },
      {
        "club_badge_src": null,
        "entry": 1766525,
        "entry_name": "CR7",
        "event_total": 64,
        "has_played": true,
        "id": 12408157,
        "last_rank": 101419,
        "player_name": "Ahmed Hasan",
        "rank": 82364,
        "rank_sort": 82508,
        "total": 2334
      },
      {
        "club_badge_src": null,
        "entry": 1774031,
        "entry_name": "OMGWhatHappen2Virgil",
        "event_total": 70,
        "has_played": true,
        "id": 12462468,
        "last_rank": 117915,
        "player_name": "Kobie Hines",
        "rank": 82364,
        "rank_sort": 82509,
        "total": 2334
      },
      {
        "club_badge_src": "https://fantasy.premierleague.com/gcs/plfpl-production-adobe-approved/plfpl-production/1844171/bc6f06a7-fe00-4ca6-a997-a481f4beb62d.png",
        "entry": 1844171,
        "entry_name": "A Wry Weeping Willow",
        "event_total": 60,
        "has_played": true,
        "id": 12975355,
        "last_rank": 91466,
        "player_name": "Benjamin Cotterill",
        "rank": 82364,
        "rank_sort": 82510,
        "total": 2334
      },
      {
        "club_badge_src": null,
        "entry": 1899010,
        "entry_name": "Salahmander FC",
        "event_total": 63,
        "has_played": true,
        "id": 13386229,
        "last_rank": 88594,
        "player_name": "Vegard Brandt Slevigen",
        "rank": 82364,
        "rank_sort": 82511,
        "total": 2334
      },
      {
        "club_badge_src": null,
        "entry": 1906241,
        "entry_name": "Drabbs 11",
        "event_total": 55,
        "has_played": true,
        "id": 13438498,
        "last_rank": 79817,
        "player_name": "Tom Drabble",
        "rank": 82364,
        "rank_sort": 82512,
        "total": 2334
      },
      {
        "club_badge_src": null,
        "entry": 1913028,
        "entry_name": "Ballingary's Finest",
        "event_total": 72,
        "has_played": true,
        "id": 13487624,
        "last_rank": 123422,
        "player_name": "Tommy Millar",
        "rank": 82364,
        "rank_sort": 82513,
        "total": 2334
      },
      {
        "club_badge_src": null,
        "entry": 1954402,
        "entry_name": "andymanutd",
        "event_total": 63,
        "has_played": true,
        "id": 13787030,
        "last_rank": 98896,
        "player_name": "Andreas Wistrand",
        "rank": 82364,
        "rank_sort": 82514,
        "total": 2334
      },
      {
        "club_badge_src": "https://fantasy.premierleague.com/gcs/plfpl-production-adobe-approved/plfpl-production/1963120/0c167e48-964a-4634-94fe-ffba8c1aa310.png",
        "entry": 1963120,
        "entry_name": "ChampagneSuperRovers",
        "event_total": 50,
        "has_played": true,
        "id": 13851021,
        "last_rank": 69641,
        "player_name": "Alan Slinger",
        "rank": 82364,
        "rank_sort": 82515,
        "total": 2334
      },
      {
        "club_badge_src": null,
        "entry": 1969195,
        "entry_name": "ForeverBowenBubbles",
        "event_total": 62,
        "has_played": true,
        "id": 13897744,
        "last_rank": 96374,
        "player_name": "Tim Mallet",
        "rank": 82364,
        "rank_sort": 82516,
        "total": 2334
      },
      {
        "club_badge_src": null,
        "entry": 1974972,
        "entry_name": "Joga Bonito",
        "event_total": 61,
        "has_played": true,
        "id": 13940437,
        "last_rank": 93883,
        "player_name": "Matei Marcu",
        "rank": 82364,
        "rank_sort": 82517,
        "total": 2334
      },
      {
        "club_badge_src": null,
        "entry": 1977146,
        "entry_name": "Daylight Brobbey",
        "event_total": 60,
        "has_played": true,
        "id": 13956769,
        "last_rank": 81646,
        "player_name": "Gary Duncan",
        "rank": 82364,
        "rank_sort": 82518,
        "total": 2334
      },
      {
        "club_badge_src": "https://fantasy.premierleague.com/gcs/plfpl-production-adobe-approved/plfpl-production/1979406/45f90069-c881-4bcf-b15d-ac3f4df465f3.png",
        "entry": 1979406,
        "entry_name": "Stroke City",
        "event_total": 71,
        "has_played": true,
        "id": 13974396,
        "last_rank": 120103,
        "player_name": "Lee Shaw",
        "rank": 82364,
        "rank_sort": 82519,
        "total": 2334
      },
      {
        "club_badge_src": null,
        "entry": 1979409,
        "entry_name": "Rice to the Occasion",
        "event_total": 31,
        "has_played": true,
        "id": 13974435,
        "last_rank": 39246,
        "player_name": "Alex Brooks",
        "rank": 82364,
        "rank_sort": 82520,
        "total": 2334
      },
      {
        "club_badge_src": null,
        "entry": 1997638,
        "entry_name": "Harty",
        "event_total": 53,
        "has_played": true,
        "id": 14117014,
        "last_rank": 75139,
        "player_name": "Ian Hart",
        "rank": 82364,
        "rank_sort": 82521,
        "total": 2334
      },
      {
        "club_badge_src": "https://fantasy.premierleague.com/gcs/plfpl-production-adobe-approved/plfpl-production/2041264/3457478a-d072-4242-8dc6-9e1aa82073c5.png",
        "entry": 2041264,
        "entry_name": "Palli L\u00f6gga",
        "event_total": 55,
        "has_played": true,
        "id": 14455442,
        "last_rank": 79817,
        "player_name": "Smari J\u00f6kulsson",
        "rank": 82364,
        "rank_sort": 82522,
        "total": 2334
      },
      {
        "club_badge_src": null,
        "entry": 2052234,
        "entry_name": "Farkelona",
        "event_total": 48,
        "has_played": true,
        "id": 14536561,
        "last_rank": 65475,
        "player_name": "John Deacon",
        "rank": 82364,
        "rank_sort": 82523,
        "total": 2334
      },
      {
        "club_badge_src": null,
        "entry": 2059242,
        "entry_name": "TuhannenTumpelot",
        "event_total": 60,
        "has_played": true,
        "id": 14588577,
        "last_rank": 91006,
        "player_name": "Veikka Pekkala",
        "rank": 82364,
        "rank_sort": 82524,
        "total": 2334
      },
      {
        "club_badge_src": null,
        "entry": 2079899,
        "entry_name": "ARSEnal",
        "event_total": 54,
        "has_played": true,
        "id": 14748425,
        "last_rank": 77676,
        "player_name": "Tyler Diffley",
        "rank": 82364,
        "rank_sort": 82525,
        "total": 2334
      },
      {
        "club_badge_src": null,
        "entry": 2082206,
        "entry_name": "Gidinho",
        "event_total": 44,
        "has_played": true,
        "id": 14769024,
        "last_rank": 58388,
        "player_name": "Gustav Forssell",
        "rank": 82364,
        "rank_sort": 82526,
        "total": 2334
      },
      {
        "club_badge_src": null,
        "entry": 2094565,
        "entry_name": "11 Men of Tain",
        "event_total": 27,
        "has_played": true,
        "id": 14860975,
        "last_rank": 34293,
        "player_name": "Dave Doolan",
        "rank": 82364,
        "rank_sort": 82527,
        "total": 2334
      },
      {
        "club_badge_src": null,
        "entry": 2166701,
        "entry_name": "BeansBeans14",
        "event_total": 46,
        "has_played": true,
        "id": 15404489,
        "last_rank": 54667,
        "player_name": "\ud83c\uddf1\ud83c\udde6 Mitprasong Mingnakhone \ud83c\uddf1\ud83c\udde6",
        "rank": 82364,
        "rank_sort": 82528,
        "total": 2334
      },
      {
        "club_badge_src": null,
        "entry": 2173712,
        "entry_name": "Fancy Football",
        "event_total": 61,
        "has_played": true,
        "id": 15456355,
        "last_rank": 93883,
        "player_name": "Baz Maynard",
        "rank": 82364,
        "rank_sort": 82529,
        "total": 2334
      },
      {
        "club_badge_src": null,
        "entry": 2188911,
        "entry_name": "Slotty too Hotty",
        "event_total": 67,
        "has_played": true,
        "id": 15572161,
        "last_rank": 108959,
        "player_name": "Richard McConnell",
        "rank": 82364,
        "rank_sort": 82530,
        "total": 2334
      },
      {
        "club_badge_src": null,
        "entry": 2210588,
        "entry_name": "Francisco10",
        "event_total": 49,
        "has_played": true,
        "id": 15741450,
        "last_rank": 67422,
        "player_name": "Francisco Barreto",
        "rank": 82364,
        "rank_sort": 82531,
        "total": 2334
      },
      {
        "club_badge_src": null,
        "entry": 2269995,
        "entry_name": "yoro wizard harry",
        "event_total": 63,
        "has_played": true,
        "id": 16186116,
        "last_rank": 98436,
        "player_name": "andy shakanungu",
        "rank": 82364,
        "rank_sort": 82532,
        "total": 2334
      },
      {
        "club_badge_src": null,
        "entry": 2296819,
        "entry_name": "MDS Super team",
        "event_total": 46,
        "has_played": true,
        "id": 16381206,
        "last_rank": 62223,
        "player_name": "Abdou Lemmouchi",
        "rank": 82364,
        "rank_sort": 82533,
        "total": 2334
      },
      {
        "club_badge_src": null,
        "entry": 2377259,
        "entry_name": "enter team name",
        "event_total": 58,
        "has_played": true,
        "id": 16973287,
        "last_rank": 86735,
        "player_name": "Jack Mclaren",
        "rank": 82364,
        "rank_sort": 82534,
        "total": 2334
      },
      {
        "club_badge_src": null,
        "entry": 2428185,
        "entry_name": "The Dark Knight",
        "event_total": 61,
        "has_played": true,
        "id": 17362564,
        "last_rank": 93883,
        "player_name": "Prashanta Shrestha",
        "rank": 82364,
        "rank_sort": 82535,
        "total": 2334
      },
      {
        "club_badge_src": null,
        "entry": 2428287,
        "entry_name": "Bilbao Baggins",
        "event_total": 53,
        "has_played": true,
        "id": 17363360,
        "last_rank": 75537,
        "player_name": "Leon Gopal",
        "rank": 82364,
        "rank_sort": 82536,
        "total": 2334
      },
      {
        "club_badge_src": "https://fantasy.premierleague.com/gcs/plfpl-production-adobe-approved/plfpl-production/2469279/436cff1a-b1f0-4b9b-9588-016c26e297e3.png",
        "entry": 2469279,
        "entry_name": "HaCunha Mateta",
        "event_total": 58,
        "has_played": true,
        "id": 17664411,
        "last_rank": 77258,
        "player_name": "Elias Ferede",
        "rank": 82364,
        "rank_sort": 82537,
        "total": 2334
      },
      {
        "club_badge_src": null,
        "entry": 2485123,
        "entry_name": "Fl\u00f8dekartoflen",
        "event_total": 35,
        "has_played": true,
        "id": 17783260,
        "last_rank": 44303,
        "player_name": "johannes damsgaard",
        "rank": 82364,
        "rank_sort": 82538,
        "total": 2334
      },
      {
        "club_badge_src": null,
        "entry": 2611590,
        "entry_name": "\u0e1c\u0e31\u0e14\u0e1c\u0e31\u0e01\u0e23\u0e27\u0e21\u0e44\u0e21\u0e48\u0e43\u0e2a\u0e48\u0e1c\u0e31\u0e01",
        "event_total": 66,
        "has_played": true,
        "id": 18763306,
        "last_rank": 105748,
        "player_name": "Chawachit Phorntharukchaoren",
        "rank": 82364,
        "rank_sort": 82539,
        "total": 2334
      },
      {
        "club_badge_src": null,
        "entry": 2637200,
        "entry_name": "keanes Saipanigans",
        "event_total": 66,
        "has_played": true,
        "id": 18953615,
        "last_rank": 95640,
        "player_name": "Tony Hennessy",
        "rank": 82364,
        "rank_sort": 82540,
        "total": 2334
      },
      {
        "club_badge_src": null,
        "entry": 2689769,
        "entry_name": "Ali AlQaed",
        "event_total": 71,
        "has_played": true,
        "id": 19346640,
        "last_rank": 108959,
        "player_name": "Ali Alqaed",
        "rank": 82364,
        "rank_sort": 82541,
        "total": 2334
      },
      {
        "club_badge_src": null,
        "entry": 2789814,
        "entry_name": "elliotjohnnys",
        "event_total": 69,
        "has_played": true,
        "id": 20368051,
        "last_rank": 114574,
        "player_name": "Elliot Selin",
        "rank": 82364,
        "rank_sort": 82542,
        "total": 2334
      },
      {
        "club_badge_src": "https://fantasy.premierleague.com/gcs/plfpl-production-adobe-approved/plfpl-production/2804061/6b5b70a6-edab-4cd7-9898-f0e3c8db2e13.png",
        "entry": 2804061,
        "entry_name": "Futuristic",
        "event_total": 84,
        "has_played": true,
        "id": 20476933,
        "last_rank": 164884,
        "player_name": "Abdelrahman Rekaby",
        "rank": 82364,
        "rank_sort": 82543,
        "total": 2334
      },
      {
        "club_badge_src": null,
        "entry": 2827468,
        "entry_name": "G'won Valdimarsson",
        "event_total": 39,
        "has_played": true,
        "id": 20658757,
        "last_rank": 50199,
        "player_name": "Tom Johnson",
        "rank": 82364,
        "rank_sort": 82544,
        "total": 2334
      },
      {
        "club_badge_src": null,
        "entry": 2863370,
        "entry_name": "NSEG",
        "event_total": 56,
        "has_played": true,
        "id": 20941094,
        "last_rank": 81646,
        "player_name": "majed abdullah",
        "rank": 82364,
        "rank_sort": 82545,
        "total": 2334
      },
      {
        "club_badge_src": null,
        "entry": 2886655,
        "entry_name": "MoroccoLoco",
        "event_total": 41,
        "has_played": true,
        "id": 21133846,
        "last_rank": 53345,
        "player_name": "Anas Hamimech",
        "rank": 82364,
        "rank_sort": 82546,
        "total": 2334
      },
      {
        "club_badge_src": null,
        "entry": 2887011,
        "entry_name": "Rayz XI",
        "event_total": 50,
        "has_played": true,
        "id": 21136501,
        "last_rank": 69323,
        "player_name": "Sonny Ray",
        "rank": 82364,
        "rank_sort": 82547,
        "total": 2334
      },
      {
        "club_badge_src": null,
        "entry": 2967912,
        "entry_name": "Hot Totties",
        "event_total": 46,
        "has_played": true,
        "id": 21804961,
        "last_rank": 61950,
        "player_name": "Michael Biron",
        "rank": 82364,
        "rank_sort": 82548,
        "total": 2334
      },
      {
        "club_badge_src": null,
        "entry": 2978750,
        "entry_name": "Obi 1 Kenobi 0",
        "event_total": 55,
        "has_played": true,
        "id": 21898112,
        "last_rank": 79190,
        "player_name": "Jason Gillespie",
        "rank": 82364,
        "rank_sort": 82549,
        "total": 2334
      },
      {
        "club_badge_src": null,
        "entry": 3012040,
        "entry_name": "\u2193 Hello \u2193 Below \u2193",
        "event_total": 66,
        "has_played": true,
        "id": 22158388,
        "last_rank": 105963,
        "player_name": "Michael Sexton",
        "rank": 82364,
        "rank_sort": 82550,
        "total": 2334
      }
    ]
  }
}