{
  "last_updated_data": "2026-05-24T23:28:17Z",
  "league": {
    "admin_entry": null,
    "closed": false,
    "code_privacy": "p",
    "created": "2025-07-20T23:14:33.933835Z",
    "cup_league": 2815434,
    "has_cup": true,
    "id": 314,
    "league_type": "s",
    "max_entries": null,
    "name": "Overall",
    "rank": null,
    "scoring": "c",
    "start_event": 1
  },
  "new_entries": {
    "has_next": false,
    "page": 1,
    "results": []
  },
  "standings": {
    "has_next": true,
    "page": 1397,
    "results": [
      {
        "club_badge_src": null,
        "entry": 758448,
        "entry_name": "Rahh Saka sauce",
        "event_total": 50,
        "has_played": true,
        "id": 5166500,
        "last_rank": 51220,
        "player_name": "Sam Buat-Menard",
        "rank": 69708,
        "rank_sort": 69801,
        "total": 2340
      },
      {
        "club_badge_src": "https://fantasy.premierleague.com/gcs/plfpl-production-adobe-approved/plfpl-production/766538/98824ff5-d11e-43bc-81c9-c1d66319af9c.png",
        "entry": 766538,
        "entry_name": "The Walking Dead",
        "event_total": 58,
        "has_played": true,
        "id": 5228171,
        "last_rank": 73038,
        "player_name": "Stewart Martin",
        "rank": 69708,
        "rank_sort": 69802,
        "total": 2340
      },
      {
        "club_badge_src": null,
        "entry": 767027,
        "entry_name": "Hopium Utd",
        "event_total": 38,
        "has_played": true,
        "id": 5231550,
        "last_rank": 39874,
        "player_name": "Aman Uppal",
        "rank": 69708,
        "rank_sort": 69803,
        "total": 2340
      },
      {
        "club_badge_src": null,
        "entry": 769141,
        "entry_name": "How Dalot Can You Go",
        "event_total": 49,
        "has_played": true,
        "id": 5246551,
        "last_rank": 56369,
        "player_name": "Lee Chapman",
        "rank": 69708,
        "rank_sort": 69804,
        "total": 2340
      },
      {
        "club_badge_src": null,
        "entry": 784456,
        "entry_name": "FC Boyelona",
        "event_total": 57,
        "has_played": true,
        "id": 5358699,
        "last_rank": 70985,
        "player_name": "Boye Johan Kolstad",
        "rank": 69708,
        "rank_sort": 69805,
        "total": 2340
      },
      {
        "club_badge_src": null,
        "entry": 796227,
        "entry_name": "Cheese (Loads)",
        "event_total": 60,
        "has_played": true,
        "id": 5449220,
        "last_rank": 77258,
        "player_name": "James Delaney",
        "rank": 69708,
        "rank_sort": 69806,
        "total": 2340
      },
      {
        "club_badge_src": null,
        "entry": 796391,
        "entry_name": "Clarke..one nil!!",
        "event_total": 55,
        "has_played": true,
        "id": 5450358,
        "last_rank": 67063,
        "player_name": "Chris Price",
        "rank": 69708,
        "rank_sort": 69807,
        "total": 2340
      },
      {
        "club_badge_src": null,
        "entry": 810966,
        "entry_name": "Lucky Dip",
        "event_total": 58,
        "has_played": true,
        "id": 5552559,
        "last_rank": 73038,
        "player_name": "Paul Reid",
        "rank": 69708,
        "rank_sort": 69808,
        "total": 2340
      },
      {
        "club_badge_src": "https://fantasy.premierleague.com/gcs/plfpl-production-adobe-approved/plfpl-production/827250/dbfd1777-3af2-4350-ba39-24b13fc18b5b.png",
        "entry": 827250,
        "entry_name": "Piqu\u00e9 Blinders",
        "event_total": 57,
        "has_played": true,
        "id": 5665894,
        "last_rank": 70757,
        "player_name": "James Macleod",
        "rank": 69708,
        "rank_sort": 69809,
        "total": 2340
      },
      {
        "club_badge_src": null,
        "entry": 832670,
        "entry_name": "reedDevils",
        "event_total": 48,
        "has_played": true,
        "id": 5703371,
        "last_rank": 54667,
        "player_name": "Showvik Sharma",
        "rank": 69708,
        "rank_sort": 69810,
        "total": 2340
      },
      {
        "club_badge_src": null,
        "entry": 848295,
        "entry_name": "SakaJakaBoom",
        "event_total": 56,
        "has_played": true,
        "id": 5813940,
        "last_rank": 68957,
        "player_name": "Bobs Alomoge",
        "rank": 69708,
        "rank_sort": 69811,
        "total": 2340
      },
      {
        "club_badge_src": null,
        "entry": 852003,
        "entry_name": "Con's Red Devils",
        "event_total": 61,
        "has_played": true,
        "id": 5839971,
        "last_rank": 79079,
        "player_name": "Conrad Langridge",
        "rank": 69708,
        "rank_sort": 69812,
        "total": 2340
      },
      {
        "club_badge_src": null,
        "entry": 875181,
        "entry_name": "Bukay\u00f4 Sa\u0110\u1ecda",
        "event_total": 67,
        "has_played": true,
        "id": 6000182,
        "last_rank": 93443,
        "player_name": "dangorgeous mi",
        "rank": 69708,
        "rank_sort": 69813,
        "total": 2340
      },
      {
        "club_badge_src": null,
        "entry": 892634,
        "entry_name": "BDM-Lakers",
        "event_total": 67,
        "has_played": true,
        "id": 6130618,
        "last_rank": 93443,
        "player_name": "Ben Matthews",
        "rank": 69708,
        "rank_sort": 69814,
        "total": 2340
      },
      {
        "club_badge_src": "https://fantasy.premierleague.com/gcs/plfpl-production-adobe-approved/plfpl-production/905713/85bb434d-f0a3-466d-a820-97966faf1d63.png",
        "entry": 905713,
        "entry_name": "Red Army",
        "event_total": 39,
        "has_played": true,
        "id": 6225122,
        "last_rank": 41324,
        "player_name": "Uche Megbune",
        "rank": 69708,
        "rank_sort": 69815,
        "total": 2340
      },
      {
        "club_badge_src": null,
        "entry": 906848,
        "entry_name": "Haalandaise Sauce",
        "event_total": 64,
        "has_played": true,
        "id": 6233596,
        "last_rank": 86054,
        "player_name": "Gertis Aru",
        "rank": 69708,
        "rank_sort": 69816,
        "total": 2340
      },
      {
        "club_badge_src": null,
        "entry": 909826,
        "entry_name": "Dodgy Corners",
        "event_total": 52,
        "has_played": true,
        "id": 6254853,
        "last_rank": 61411,
        "player_name": "Steven Farrar",
        "rank": 69708,
        "rank_sort": 69817,
        "total": 2340
      },
      {
        "club_badge_src": null,
        "entry": 914310,
        "entry_name": "Kendal Mintcakes",
        "event_total": 60,
        "has_played": true,
        "id": 6287029,
        "last_rank": 77258,
        "player_name": "Jonathan Mote",
        "rank": 69708,
        "rank_sort": 69818,
        "total": 2340
      },
      {
        "club_badge_src": null,
        "entry": 927266,
        "entry_name": "Kinder Mbeumo",
        "event_total": 69,
        "has_played": true,
        "id": 6379299,
        "last_rank": 98896,
        "player_name": "Glynn Carey",
        "rank": 69708,
        "rank_sort": 69819,
        "total": 2340
      },
      {
        "club_badge_src": null,
        "entry": 930730,
        "entry_name": "Moraira Utd",
        "event_total": 64,
        "has_played": true,
        "id": 6404181,
        "last_rank": 86054,
        "player_name": "David Williams",
        "rank": 69708,
        "rank_sort": 69820,
        "total": 2340
      },
      {
        "club_badge_src": null,
        "entry": 938448,
        "entry_name": "Kante GoOn Like This",
        "event_total": 48,
        "has_played": true,
        "id": 6458980,
        "last_rank": 54494,
        "player_name": "Sam Clay",
        "rank": 69708,
        "rank_sort": 69821,
        "total": 2340
      },
      {
        "club_badge_src": null,
        "entry": 962493,
        "entry_name": "Ekitike-taka",
        "event_total": 54,
        "has_played": true,
        "id": 6632825,
        "last_rank": 65163,
        "player_name": "Lars Ove Skogseth",
        "rank": 69708,
        "rank_sort": 69822,
        "total": 2340
      },
      {
        "club_badge_src": "https://fantasy.premierleague.com/gcs/plfpl-production-adobe-approved/plfpl-production/985237/8ad9d79c-866a-4177-a4b7-4ad92af71884.png",
        "entry": 985237,
        "entry_name": "Nizz Palace",
        "event_total": 54,
        "has_played": true,
        "id": 6792881,
        "last_rank": 65163,
        "player_name": "Kai Nisbet",
        "rank": 69708,
        "rank_sort": 69823,
        "total": 2340
      },
      {
        "club_badge_src": null,
        "entry": 1000608,
        "entry_name": "Stinger XI",
        "event_total": 49,
        "has_played": true,
        "id": 6916753,
        "last_rank": 56369,
        "player_name": "Steven Rae",
        "rank": 69708,
        "rank_sort": 69824,
        "total": 2340
      },
      {
        "club_badge_src": null,
        "entry": 1044673,
        "entry_name": "Pjanic @ the Disco!",
        "event_total": 71,
        "has_played": true,
        "id": 7229644,
        "last_rank": 103254,
        "player_name": "Kieran Tobin",
        "rank": 69708,
        "rank_sort": 69825,
        "total": 2340
      },
      {
        "club_badge_src": null,
        "entry": 1052477,
        "entry_name": "Thomas Frank Engine",
        "event_total": 55,
        "has_played": true,
        "id": 7283809,
        "last_rank": 66738,
        "player_name": "Daniel Fuller",
        "rank": 69708,
        "rank_sort": 69826,
        "total": 2340
      },
      {
        "club_badge_src": null,
        "entry": 1056470,
        "entry_name": "Smithys Rampant Rams",
        "event_total": 32,
        "has_played": true,
        "id": 7311329,
        "last_rank": 32879,
        "player_name": "Nigel Smith",
        "rank": 69708,
        "rank_sort": 69827,
        "total": 2340
      },
      {
        "club_badge_src": "https://fantasy.premierleague.com/gcs/plfpl-production-adobe-approved/plfpl-production/1062499/bb0a7e39-7d3f-4f5c-a09d-5eac652b9675.png",
        "entry": 1062499,
        "entry_name": "Habibi FC",
        "event_total": 56,
        "has_played": true,
        "id": 7355200,
        "last_rank": 68957,
        "player_name": "Sammy Abraham",
        "rank": 69708,
        "rank_sort": 69828,
        "total": 2340
      },
      {
        "club_badge_src": null,
        "entry": 1072186,
        "entry_name": "Trash Attack",
        "event_total": 70,
        "has_played": true,
        "id": 7422665,
        "last_rank": 100949,
        "player_name": "Elwira Czartoryska",
        "rank": 69708,
        "rank_sort": 69829,
        "total": 2340
      },
      {
        "club_badge_src": null,
        "entry": 1082549,
        "entry_name": "For Slot its Wirtz",
        "event_total": 46,
        "has_played": true,
        "id": 7495835,
        "last_rank": 51403,
        "player_name": "Peter Johnson",
        "rank": 69708,
        "rank_sort": 69830,
        "total": 2340
      },
      {
        "club_badge_src": null,
        "entry": 1093008,
        "entry_name": "Ivendarcho00",
        "event_total": 59,
        "has_played": true,
        "id": 7570083,
        "last_rank": 75139,
        "player_name": "Ivo Chakarov",
        "rank": 69708,
        "rank_sort": 69831,
        "total": 2340
      },
      {
        "club_badge_src": "https://fantasy.premierleague.com/gcs/plfpl-production-adobe-approved/plfpl-production/1120864/0d1b2657-c08a-4be5-8375-7f3dc2d2523a.png",
        "entry": 1120864,
        "entry_name": "The Zed",
        "event_total": 59,
        "has_played": true,
        "id": 7765221,
        "last_rank": 75537,
        "player_name": "Zed Phobie",
        "rank": 69708,
        "rank_sort": 69832,
        "total": 2340
      },
      {
        "club_badge_src": null,
        "entry": 1140260,
        "entry_name": "joejoe",
        "event_total": 80,
        "has_played": true,
        "id": 7904119,
        "last_rank": 129205,
        "player_name": "Joey Han",
        "rank": 69708,
        "rank_sort": 69833,
        "total": 2340
      },
      {
        "club_badge_src": null,
        "entry": 1143251,
        "entry_name": "Firmin FC",
        "event_total": 45,
        "has_played": true,
        "id": 7924801,
        "last_rank": 49880,
        "player_name": "Ashley Firmin",
        "rank": 69708,
        "rank_sort": 69834,
        "total": 2340
      },
      {
        "club_badge_src": null,
        "entry": 1155067,
        "entry_name": "Mbeumo Number 5",
        "event_total": 68,
        "has_played": true,
        "id": 8009602,
        "last_rank": 95640,
        "player_name": "Tom Armstrong",
        "rank": 69708,
        "rank_sort": 69835,
        "total": 2340
      },
      {
        "club_badge_src": null,
        "entry": 1156097,
        "entry_name": "A\u00eft-Nour way I lose",
        "event_total": 49,
        "has_played": true,
        "id": 8016708,
        "last_rank": 56369,
        "player_name": "sabitendra telukula",
        "rank": 69708,
        "rank_sort": 69836,
        "total": 2340
      },
      {
        "club_badge_src": null,
        "entry": 1158405,
        "entry_name": "iyed team",
        "event_total": 56,
        "has_played": true,
        "id": 8033207,
        "last_rank": 68957,
        "player_name": "Iyed Ben romdhane",
        "rank": 69708,
        "rank_sort": 69837,
        "total": 2340
      },
      {
        "club_badge_src": null,
        "entry": 1176665,
        "entry_name": "Hamza massawi",
        "event_total": 70,
        "has_played": true,
        "id": 8164292,
        "last_rank": 100949,
        "player_name": "Hamza Moutaouakkil",
        "rank": 69708,
        "rank_sort": 69838,
        "total": 2340
      },
      {
        "club_badge_src": null,
        "entry": 1190978,
        "entry_name": "Black Swan",
        "event_total": 66,
        "has_played": true,
        "id": 8263519,
        "last_rank": 91006,
        "player_name": "Mahamed Muse",
        "rank": 69708,
        "rank_sort": 69839,
        "total": 2340
      },
      {
        "club_badge_src": null,
        "entry": 1218625,
        "entry_name": "Quorn Enthusiast FC",
        "event_total": 70,
        "has_played": true,
        "id": 8459787,
        "last_rank": 101419,
        "player_name": "Kieran Gillingham",
        "rank": 69708,
        "rank_sort": 69840,
        "total": 2340
      },
      {
        "club_badge_src": null,
        "entry": 1220059,
        "entry_name": "smuggles fc",
        "event_total": 62,
        "has_played": true,
        "id": 8470558,
        "last_rank": 81420,
        "player_name": "Julian Alexander",
        "rank": 69708,
        "rank_sort": 69841,
        "total": 2340
      },
      {
        "club_badge_src": null,
        "entry": 1269228,
        "entry_name": "BlueCoSoccerDemolish",
        "event_total": 60,
        "has_played": true,
        "id": 8818659,
        "last_rank": 77050,
        "player_name": "Attila N\u00e9meth",
        "rank": 69708,
        "rank_sort": 69842,
        "total": 2340
      },
      {
        "club_badge_src": null,
        "entry": 1302107,
        "entry_name": "Me, Myself Ndiaye",
        "event_total": 44,
        "has_played": true,
        "id": 9049717,
        "last_rank": 48363,
        "player_name": "Connor Goddard-Woods",
        "rank": 69708,
        "rank_sort": 69843,
        "total": 2340
      },
      {
        "club_badge_src": null,
        "entry": 1307350,
        "entry_name": "ThomastheFrankengine",
        "event_total": 36,
        "has_played": true,
        "id": 9086926,
        "last_rank": 37589,
        "player_name": "Martin farrow",
        "rank": 69708,
        "rank_sort": 69844,
        "total": 2340
      },
      {
        "club_badge_src": null,
        "entry": 1324274,
        "entry_name": "Milos Twerkez",
        "event_total": 43,
        "has_played": true,
        "id": 9204933,
        "last_rank": 46839,
        "player_name": "Max Aitchison",
        "rank": 69708,
        "rank_sort": 69845,
        "total": 2340
      },
      {
        "club_badge_src": null,
        "entry": 1353415,
        "entry_name": "Endo the world",
        "event_total": 48,
        "has_played": true,
        "id": 9408515,
        "last_rank": 54667,
        "player_name": "Daniel Harold",
        "rank": 69708,
        "rank_sort": 69846,
        "total": 2340
      },
      {
        "club_badge_src": null,
        "entry": 1376062,
        "entry_name": "Next Season FC",
        "event_total": 64,
        "has_played": true,
        "id": 9565478,
        "last_rank": 86304,
        "player_name": "Thomas John",
        "rank": 69708,
        "rank_sort": 69847,
        "total": 2340
      },
      {
        "club_badge_src": null,
        "entry": 1395063,
        "entry_name": "Under My Cucurella",
        "event_total": 48,
        "has_played": true,
        "id": 9705165,
        "last_rank": 55014,
        "player_name": "James Lynch",
        "rank": 69708,
        "rank_sort": 69848,
        "total": 2340
      },
      {
        "club_badge_src": null,
        "entry": 1410432,
        "entry_name": "mid table",
        "event_total": 60,
        "has_played": true,
        "id": 9814172,
        "last_rank": 77050,
        "player_name": "Joseph Shepherd",
        "rank": 69708,
        "rank_sort": 69849,
        "total": 2340
      },
      {
        "club_badge_src": "https://fantasy.premierleague.com/gcs/plfpl-production-adobe-approved/plfpl-production/1473117/5600f653-9d89-48d7-8084-f87533f9d81d.png",
        "entry": 1473117,
        "entry_name": "Gloryglory",
        "event_total": 36,
        "has_played": true,
        "id": 10268579,
        "last_rank": 37589,
        "player_name": "Linda Barton",
        "rank": 69708,
        "rank_sort": 69850,
        "total": 2340
      }
    ]
  }
}