{
  "last_updated_data": "2026-05-24T23:28:17Z",
  "league": {
    "admin_entry": null,
    "closed": false,
    "code_privacy": "p",
    "created": "2025-07-20T23:14:33.933835Z",
    "cup_league": 2815434,
    "has_cup": true,
    "id": 314,
    "league_type": "s",
    "max_entries": null,
    "name": "Overall",
    "rank": null,
    "scoring": "c",
    "start_event": 1
  },
  "new_entries": {
    "has_next": false,
    "page": 1,
    "results": []
  },
  "standings": {
    "has_next": true,
    "page": 1014,
    "results": [
      {
        "club_badge_src": null,
        "entry": 317741,
        "entry_name": "ABCDE FC",
        "event_total": 59,
        "has_played": true,
        "id": 2129816,
        "last_rank": 54181,
        "player_name": "Ryan O-Hara",
        "rank": 50645,
        "rank_sort": 50651,
        "total": 2352
      },
      {
        "club_badge_src": null,
        "entry": 385817,
        "entry_name": "Sexes' Disipler",
        "event_total": 65,
        "has_played": true,
        "id": 2588205,
        "last_rank": 50848,
        "player_name": "Jonas Bergh-Johnsen",
        "rank": 50645,
        "rank_sort": 50652,
        "total": 2352
      },
      {
        "club_badge_src": null,
        "entry": 442870,
        "entry_name": "Gabagool",
        "event_total": 63,
        "has_played": true,
        "id": 2969290,
        "last_rank": 61045,
        "player_name": "Adam Mezzzzz",
        "rank": 50645,
        "rank_sort": 50653,
        "total": 2352
      },
      {
        "club_badge_src": "https://fantasy.premierleague.com/gcs/plfpl-production-adobe-approved/plfpl-production/592887/f4a765f4-1050-4dae-8b94-722d4d65dfb5.png",
        "entry": 592887,
        "entry_name": "cunha believe it",
        "event_total": 55,
        "has_played": true,
        "id": 3995191,
        "last_rank": 47868,
        "player_name": "Damian Stacey",
        "rank": 50645,
        "rank_sort": 50654,
        "total": 2352
      },
      {
        "club_badge_src": "https://fantasy.premierleague.com/gcs/plfpl-production-adobe-approved/plfpl-production/629248/27d33165-2981-4944-9a06-ca833dece6a9.png",
        "entry": 629248,
        "entry_name": "Looney Toons",
        "event_total": 65,
        "has_played": true,
        "id": 4252125,
        "last_rank": 57515,
        "player_name": "Mark Battye",
        "rank": 50645,
        "rank_sort": 50655,
        "total": 2352
      },
      {
        "club_badge_src": null,
        "entry": 708218,
        "entry_name": "Fergie Time FC",
        "event_total": 84,
        "has_played": true,
        "id": 4800000,
        "last_rank": 97470,
        "player_name": "Wojciech Hila",
        "rank": 50645,
        "rank_sort": 50656,
        "total": 2352
      },
      {
        "club_badge_src": null,
        "entry": 949353,
        "entry_name": "Shawky",
        "event_total": 41,
        "has_played": true,
        "id": 6540052,
        "last_rank": 30395,
        "player_name": "Hansi Flick",
        "rank": 50645,
        "rank_sort": 50657,
        "total": 2352
      },
      {
        "club_badge_src": null,
        "entry": 1025648,
        "entry_name": "\u0639\u062f\u064a \u0644\u062a\u0631\u0628\u064a\u0629 \u0648\u0627\u0644\u062a\u0639\u0644\u064a\u0645",
        "event_total": 66,
        "has_played": true,
        "id": 7095996,
        "last_rank": 59249,
        "player_name": "Odai Berair",
        "rank": 50645,
        "rank_sort": 50658,
        "total": 2352
      },
      {
        "club_badge_src": null,
        "entry": 1100373,
        "entry_name": "Busk Fc",
        "event_total": 76,
        "has_played": true,
        "id": 7621896,
        "last_rank": 78575,
        "player_name": "Mohammed Saqif",
        "rank": 50645,
        "rank_sort": 50659,
        "total": 2352
      },
      {
        "club_badge_src": null,
        "entry": 1125292,
        "entry_name": "Im \u00d8DE the Moon",
        "event_total": 42,
        "has_played": true,
        "id": 7798636,
        "last_rank": 23857,
        "player_name": "Harley Taylor",
        "rank": 50645,
        "rank_sort": 50660,
        "total": 2352
      },
      {
        "club_badge_src": null,
        "entry": 1195932,
        "entry_name": "Pesky Sharks",
        "event_total": 66,
        "has_played": true,
        "id": 8298270,
        "last_rank": 52461,
        "player_name": "David Haseldine",
        "rank": 50645,
        "rank_sort": 50661,
        "total": 2352
      },
      {
        "club_badge_src": null,
        "entry": 1318364,
        "entry_name": "Ms7 Squad",
        "event_total": 64,
        "has_played": true,
        "id": 9163371,
        "last_rank": 55812,
        "player_name": "Mohammed Alsmari",
        "rank": 50645,
        "rank_sort": 50662,
        "total": 2352
      },
      {
        "club_badge_src": null,
        "entry": 1775820,
        "entry_name": "Bavarian",
        "event_total": 69,
        "has_played": true,
        "id": 12475315,
        "last_rank": 72407,
        "player_name": "Alyamani Aboalama",
        "rank": 50645,
        "rank_sort": 50663,
        "total": 2352
      },
      {
        "club_badge_src": "https://fantasy.premierleague.com/gcs/plfpl-production-adobe-approved/plfpl-production/1813473/205b1123-e372-410f-b598-a993a2694a8a.png",
        "entry": 1813473,
        "entry_name": "Murrough",
        "event_total": 57,
        "has_played": true,
        "id": 12751679,
        "last_rank": 50956,
        "player_name": "Remi Skoczylas",
        "rank": 50645,
        "rank_sort": 50664,
        "total": 2352
      },
      {
        "club_badge_src": null,
        "entry": 1922792,
        "entry_name": "Alii's",
        "event_total": 69,
        "has_played": true,
        "id": 13559939,
        "last_rank": 57451,
        "player_name": "Ali Mohamed",
        "rank": 50645,
        "rank_sort": 50665,
        "total": 2352
      },
      {
        "club_badge_src": null,
        "entry": 1969616,
        "entry_name": "Fr\u00e8re Saka",
        "event_total": 70,
        "has_played": true,
        "id": 13900909,
        "last_rank": 66296,
        "player_name": "Rory Odam Smith",
        "rank": 50645,
        "rank_sort": 50666,
        "total": 2352
      },
      {
        "club_badge_src": null,
        "entry": 2172636,
        "entry_name": "SHADU'S XI",
        "event_total": 46,
        "has_played": true,
        "id": 15448493,
        "last_rank": 35998,
        "player_name": "sahad abdulla",
        "rank": 50645,
        "rank_sort": 50667,
        "total": 2352
      },
      {
        "club_badge_src": null,
        "entry": 2339810,
        "entry_name": "P_LEAGUE Nc",
        "event_total": 56,
        "has_played": true,
        "id": 16695083,
        "last_rank": 49442,
        "player_name": "hamza nc",
        "rank": 50645,
        "rank_sort": 50668,
        "total": 2352
      },
      {
        "club_badge_src": null,
        "entry": 2790971,
        "entry_name": "Gar7a",
        "event_total": 72,
        "has_played": true,
        "id": 20376722,
        "last_rank": 55659,
        "player_name": "jasef sghaier",
        "rank": 50645,
        "rank_sort": 50669,
        "total": 2352
      },
      {
        "club_badge_src": null,
        "entry": 2994132,
        "entry_name": "Claret and booze",
        "event_total": 55,
        "has_played": true,
        "id": 22021548,
        "last_rank": 47868,
        "player_name": "Russ Young",
        "rank": 50645,
        "rank_sort": 50670,
        "total": 2352
      },
      {
        "club_badge_src": "https://fantasy.premierleague.com/gcs/plfpl-production-adobe-approved/plfpl-production/3395962/e59ab382-9c44-45aa-a6db-7be75b2df840.png",
        "entry": 3395962,
        "entry_name": "Irn Brunited",
        "event_total": 42,
        "has_played": true,
        "id": 25212937,
        "last_rank": 31437,
        "player_name": "Craig Leonard",
        "rank": 50645,
        "rank_sort": 50671,
        "total": 2352
      },
      {
        "club_badge_src": null,
        "entry": 3486275,
        "entry_name": "FC STARKS/ACKERMAN",
        "event_total": 59,
        "has_played": true,
        "id": 25925960,
        "last_rank": 37058,
        "player_name": "Ali Hamdan",
        "rank": 50645,
        "rank_sort": 50672,
        "total": 2352
      },
      {
        "club_badge_src": null,
        "entry": 3504351,
        "entry_name": "beat the doctor",
        "event_total": 68,
        "has_played": true,
        "id": 26069257,
        "last_rank": 55747,
        "player_name": "christoforos yiangou",
        "rank": 50645,
        "rank_sort": 50673,
        "total": 2352
      },
      {
        "club_badge_src": null,
        "entry": 4098184,
        "entry_name": "ONLY TIME WILL TEL",
        "event_total": 54,
        "has_played": true,
        "id": 30944849,
        "last_rank": 40878,
        "player_name": "Oliver Nevin",
        "rank": 50645,
        "rank_sort": 50674,
        "total": 2352
      },
      {
        "club_badge_src": null,
        "entry": 4127546,
        "entry_name": "Midges Mechanics",
        "event_total": 59,
        "has_played": true,
        "id": 31189382,
        "last_rank": 47868,
        "player_name": "Midge Gaskin",
        "rank": 50645,
        "rank_sort": 50675,
        "total": 2352
      },
      {
        "club_badge_src": null,
        "entry": 4747113,
        "entry_name": "Come back Cato",
        "event_total": 60,
        "has_played": true,
        "id": 36527084,
        "last_rank": 55865,
        "player_name": "JAMES FENNELL",
        "rank": 50645,
        "rank_sort": 50676,
        "total": 2352
      },
      {
        "club_badge_src": null,
        "entry": 4851191,
        "entry_name": "Mighty Morgans",
        "event_total": 64,
        "has_played": true,
        "id": 37376757,
        "last_rank": 62917,
        "player_name": "James Morgan",
        "rank": 50645,
        "rank_sort": 50677,
        "total": 2352
      },
      {
        "club_badge_src": null,
        "entry": 5240631,
        "entry_name": "Amory",
        "event_total": 61,
        "has_played": true,
        "id": 40613551,
        "last_rank": 50905,
        "player_name": "Omar Ragab",
        "rank": 50645,
        "rank_sort": 50678,
        "total": 2352
      },
      {
        "club_badge_src": null,
        "entry": 5261867,
        "entry_name": "Entale CF",
        "event_total": 49,
        "has_played": true,
        "id": 40781993,
        "last_rank": 39673,
        "player_name": "Elijah Baguma",
        "rank": 50645,
        "rank_sort": 50679,
        "total": 2352
      },
      {
        "club_badge_src": null,
        "entry": 5412605,
        "entry_name": "MEGOoOo",
        "event_total": 70,
        "has_played": true,
        "id": 42091428,
        "last_rank": 66380,
        "player_name": "amged mohamed",
        "rank": 50645,
        "rank_sort": 50680,
        "total": 2352
      },
      {
        "club_badge_src": "https://fantasy.premierleague.com/gcs/plfpl-production-adobe-approved/plfpl-production/5547106/f56c417a-4e40-420c-b061-aea75f94d3f0.png",
        "entry": 5547106,
        "entry_name": "Hacunha Matata",
        "event_total": 82,
        "has_played": true,
        "id": 43289445,
        "last_rank": 102767,
        "player_name": "Conor Monahan",
        "rank": 50645,
        "rank_sort": 50681,
        "total": 2352
      },
      {
        "club_badge_src": null,
        "entry": 5697632,
        "entry_name": "Nebula Nomad",
        "event_total": 70,
        "has_played": true,
        "id": 44607800,
        "last_rank": 66380,
        "player_name": "Ermiyas Mulu",
        "rank": 50645,
        "rank_sort": 50682,
        "total": 2352
      },
      {
        "club_badge_src": null,
        "entry": 6160319,
        "entry_name": "Madrid",
        "event_total": 56,
        "has_played": true,
        "id": 48701680,
        "last_rank": 49407,
        "player_name": "Bouchelaghem Loukmane",
        "rank": 50645,
        "rank_sort": 50683,
        "total": 2352
      },
      {
        "club_badge_src": null,
        "entry": 6406291,
        "entry_name": "11fromheaven",
        "event_total": 54,
        "has_played": true,
        "id": 50975008,
        "last_rank": 46406,
        "player_name": "gaurav kaintura",
        "rank": 50645,
        "rank_sort": 50684,
        "total": 2352
      },
      {
        "club_badge_src": null,
        "entry": 6473835,
        "entry_name": "\u0633\u064a\u062f\u0639\u0644\u064a \ufffd1",
        "event_total": 72,
        "has_played": true,
        "id": 51585751,
        "last_rank": 62724,
        "player_name": "Hamouchi Alilo",
        "rank": 50645,
        "rank_sort": 50685,
        "total": 2352
      },
      {
        "club_badge_src": null,
        "entry": 6516430,
        "entry_name": "waingatewanderer",
        "event_total": 61,
        "has_played": true,
        "id": 51968509,
        "last_rank": 57557,
        "player_name": "John Fell",
        "rank": 50645,
        "rank_sort": 50686,
        "total": 2352
      },
      {
        "club_badge_src": null,
        "entry": 6970767,
        "entry_name": "Palmergeddon",
        "event_total": 62,
        "has_played": true,
        "id": 55917804,
        "last_rank": 52522,
        "player_name": "Phill Bennett",
        "rank": 50645,
        "rank_sort": 50687,
        "total": 2352
      },
      {
        "club_badge_src": "https://fantasy.premierleague.com/gcs/plfpl-production-adobe-approved/plfpl-production/7272017/97eab8b4-b753-428a-a1b8-7f487fd09973.png",
        "entry": 7272017,
        "entry_name": "Ajigbawire \ufffd",
        "event_total": 24,
        "has_played": true,
        "id": 58811575,
        "last_rank": 16630,
        "player_name": "Taiwo Ajibola",
        "rank": 50645,
        "rank_sort": 50688,
        "total": 2352
      },
      {
        "club_badge_src": null,
        "entry": 7352734,
        "entry_name": "I Baleba can fly",
        "event_total": 61,
        "has_played": true,
        "id": 59572695,
        "last_rank": 57557,
        "player_name": "Mark Boland",
        "rank": 50645,
        "rank_sort": 50689,
        "total": 2352
      },
      {
        "club_badge_src": "https://fantasy.premierleague.com/gcs/plfpl-production-adobe-approved/plfpl-production/7490800/8e38000f-a489-4156-a91d-62689d2dc989.png",
        "entry": 7490800,
        "entry_name": "Seven Nation Arne",
        "event_total": 58,
        "has_played": true,
        "id": 61163865,
        "last_rank": 46364,
        "player_name": "Kieran Wilson",
        "rank": 50645,
        "rank_sort": 50690,
        "total": 2352
      },
      {
        "club_badge_src": null,
        "entry": 9120872,
        "entry_name": "Krypton FC",
        "event_total": 59,
        "has_played": true,
        "id": 76656127,
        "last_rank": 47868,
        "player_name": "Tasnim Mahmud Prova",
        "rank": 50645,
        "rank_sort": 50691,
        "total": 2352
      },
      {
        "club_badge_src": null,
        "entry": 13350,
        "entry_name": "HMTKP",
        "event_total": 60,
        "has_played": true,
        "id": 80588,
        "last_rank": 49368,
        "player_name": "Michalis Parperi",
        "rank": 50692,
        "rank_sort": 50692,
        "total": 2352
      },
      {
        "club_badge_src": "https://fantasy.premierleague.com/gcs/plfpl-production-adobe-approved/plfpl-production/18148/70b86bed-a836-48d7-a099-ac3157365c36.png",
        "entry": 18148,
        "entry_name": "RossoneRi",
        "event_total": 67,
        "has_played": true,
        "id": 112825,
        "last_rank": 61045,
        "player_name": "Bassem Romany",
        "rank": 50692,
        "rank_sort": 50693,
        "total": 2352
      },
      {
        "club_badge_src": "https://fantasy.premierleague.com/gcs/plfpl-production-adobe-approved/plfpl-production/30065/1eda85da-3cac-481d-a190-4585551ef3a9.png",
        "entry": 30065,
        "entry_name": "Atef FC",
        "event_total": 63,
        "has_played": true,
        "id": 190220,
        "last_rank": 61087,
        "player_name": "Mohamed Atef",
        "rank": 50692,
        "rank_sort": 50694,
        "total": 2352
      },
      {
        "club_badge_src": "https://fantasy.premierleague.com/gcs/plfpl-production-adobe-approved/plfpl-production/65424/6385fd31-8d14-4e1c-ad9b-8529258f3f10.png",
        "entry": 65424,
        "entry_name": "CHANGKAT LADA FC",
        "event_total": 63,
        "has_played": true,
        "id": 422342,
        "last_rank": 54181,
        "player_name": "SYAFIQ ARZMI",
        "rank": 50692,
        "rank_sort": 50695,
        "total": 2352
      },
      {
        "club_badge_src": null,
        "entry": 304732,
        "entry_name": "Backinthegame",
        "event_total": 43,
        "has_played": true,
        "id": 2040441,
        "last_rank": 32576,
        "player_name": "mark harris",
        "rank": 50692,
        "rank_sort": 50696,
        "total": 2352
      },
      {
        "club_badge_src": null,
        "entry": 360414,
        "entry_name": "3mk El Zamboor",
        "event_total": 69,
        "has_played": true,
        "id": 2411723,
        "last_rank": 64562,
        "player_name": "Ammar Mo",
        "rank": 50692,
        "rank_sort": 50697,
        "total": 2352
      },
      {
        "club_badge_src": "https://fantasy.premierleague.com/gcs/plfpl-production-adobe-approved/plfpl-production/1029997/d8b2da11-96ce-4af2-b72b-738bcd516307.png",
        "entry": 1029997,
        "entry_name": "Ctrl + Alt + De Ligt",
        "event_total": 63,
        "has_played": true,
        "id": 7126356,
        "last_rank": 54134,
        "player_name": "georgia joynes",
        "rank": 50692,
        "rank_sort": 50698,
        "total": 2352
      },
      {
        "club_badge_src": null,
        "entry": 1040831,
        "entry_name": "Shalla7at sha2a gdn",
        "event_total": 61,
        "has_played": true,
        "id": 7202878,
        "last_rank": 57557,
        "player_name": "Moro Abdallah",
        "rank": 50692,
        "rank_sort": 50699,
        "total": 2352
      },
      {
        "club_badge_src": "https://fantasy.premierleague.com/gcs/plfpl-production-adobe-approved/plfpl-production/1053825/ab3bec57-02b0-4313-a8a6-01b629d91cc2.png",
        "entry": 1053825,
        "entry_name": "El Hethe",
        "event_total": 39,
        "has_played": true,
        "id": 7293198,
        "last_rank": 21486,
        "player_name": "Gethin Merry",
        "rank": 50692,
        "rank_sort": 50700,
        "total": 2352
      }
    ]
  }
}