{
  "last_updated_data": "2026-05-24T23:28:17Z",
  "league": {
    "admin_entry": null,
    "closed": false,
    "code_privacy": "p",
    "created": "2025-07-20T23:14:33.933835Z",
    "cup_league": 2815434,
    "has_cup": true,
    "id": 314,
    "league_type": "s",
    "max_entries": null,
    "name": "Overall",
    "rank": null,
    "scoring": "c",
    "start_event": 1
  },
  "new_entries": {
    "has_next": false,
    "page": 1,
    "results": []
  },
  "standings": {
    "has_next": true,
    "page": 1379,
    "results": [
      {
        "club_badge_src": null,
        "entry": 4231073,
        "entry_name": "TEAM KELLY",
        "event_total": 68,
        "has_played": true,
        "id": 32058180,
        "last_rank": 84731,
        "player_name": "Thomas Kelly",
        "rank": 68762,
        "rank_sort": 68901,
        "total": 2341
      },
      {
        "club_badge_src": null,
        "entry": 4415169,
        "entry_name": "The Bucksky Babes",
        "event_total": 68,
        "has_played": true,
        "id": 33589173,
        "last_rank": 93883,
        "player_name": "James Buckhalter",
        "rank": 68762,
        "rank_sort": 68902,
        "total": 2341
      },
      {
        "club_badge_src": null,
        "entry": 4430268,
        "entry_name": "Zhelsea FC",
        "event_total": 56,
        "has_played": true,
        "id": 33725286,
        "last_rank": 67926,
        "player_name": "Zachary Hill",
        "rank": 68762,
        "rank_sort": 68903,
        "total": 2341
      },
      {
        "club_badge_src": "https://fantasy.premierleague.com/gcs/plfpl-production-adobe-approved/plfpl-production/4579286/b679d28d-28d2-4865-9eff-eed204d7dabb.png",
        "entry": 4579286,
        "entry_name": "AC United",
        "event_total": 56,
        "has_played": true,
        "id": 34956664,
        "last_rank": 67695,
        "player_name": "Alex Cheung",
        "rank": 68762,
        "rank_sort": 68904,
        "total": 2341
      },
      {
        "club_badge_src": null,
        "entry": 4585101,
        "entry_name": "Harapan Indah FC",
        "event_total": 47,
        "has_played": true,
        "id": 35006378,
        "last_rank": 52205,
        "player_name": "Kurnia Ramadhan",
        "rank": 68762,
        "rank_sort": 68905,
        "total": 2341
      },
      {
        "club_badge_src": null,
        "entry": 4715732,
        "entry_name": "Boginham City",
        "event_total": 34,
        "has_played": true,
        "id": 36205214,
        "last_rank": 34578,
        "player_name": "Ioannis Bogias",
        "rank": 68762,
        "rank_sort": 68906,
        "total": 2341
      },
      {
        "club_badge_src": null,
        "entry": 4768359,
        "entry_name": "Yoro Wizard Harry",
        "event_total": 71,
        "has_played": true,
        "id": 36699545,
        "last_rank": 102125,
        "player_name": "Adam Sullivan",
        "rank": 68762,
        "rank_sort": 68907,
        "total": 2341
      },
      {
        "club_badge_src": null,
        "entry": 4786463,
        "entry_name": "Cymorg FC",
        "event_total": 60,
        "has_played": true,
        "id": 36847742,
        "last_rank": 76128,
        "player_name": "Cyril Essien",
        "rank": 68762,
        "rank_sort": 68908,
        "total": 2341
      },
      {
        "club_badge_src": null,
        "entry": 4795986,
        "entry_name": "VillaForPrem",
        "event_total": 50,
        "has_played": true,
        "id": 36924494,
        "last_rank": 57200,
        "player_name": "Daniel Metry",
        "rank": 68762,
        "rank_sort": 68909,
        "total": 2341
      },
      {
        "club_badge_src": null,
        "entry": 4824684,
        "entry_name": "Hamza FPL",
        "event_total": 55,
        "has_played": true,
        "id": 37156933,
        "last_rank": 66057,
        "player_name": "Hamza Benamar",
        "rank": 68762,
        "rank_sort": 68910,
        "total": 2341
      },
      {
        "club_badge_src": null,
        "entry": 4848772,
        "entry_name": "Kuol Runnings",
        "event_total": 58,
        "has_played": true,
        "id": 37356361,
        "last_rank": 71956,
        "player_name": "Jake Bellfield",
        "rank": 68762,
        "rank_sort": 68911,
        "total": 2341
      },
      {
        "club_badge_src": null,
        "entry": 4849302,
        "entry_name": "klar Ferdig \u00d8degaard",
        "event_total": 71,
        "has_played": true,
        "id": 37360751,
        "last_rank": 102125,
        "player_name": "Jens Br\u00e5ten",
        "rank": 68762,
        "rank_sort": 68912,
        "total": 2341
      },
      {
        "club_badge_src": null,
        "entry": 4861483,
        "entry_name": "A-Cunha Matata",
        "event_total": 61,
        "has_played": true,
        "id": 37464523,
        "last_rank": 69641,
        "player_name": "Jordan Burtenshaw",
        "rank": 68762,
        "rank_sort": 68913,
        "total": 2341
      },
      {
        "club_badge_src": null,
        "entry": 5165511,
        "entry_name": "Ibby's XI",
        "event_total": 64,
        "has_played": true,
        "id": 39975179,
        "last_rank": 75537,
        "player_name": "Haseeb Ibrahim",
        "rank": 68762,
        "rank_sort": 68914,
        "total": 2341
      },
      {
        "club_badge_src": null,
        "entry": 5495724,
        "entry_name": "\u062c\u0644\u0627\u062f\u0643\u0645",
        "event_total": 58,
        "has_played": true,
        "id": 42809313,
        "last_rank": 71956,
        "player_name": "Issam hamed",
        "rank": 68762,
        "rank_sort": 68915,
        "total": 2341
      },
      {
        "club_badge_src": null,
        "entry": 5544859,
        "entry_name": "No Totti No Party",
        "event_total": 59,
        "has_played": true,
        "id": 43269876,
        "last_rank": 73975,
        "player_name": "Matteo Miccardi",
        "rank": 68762,
        "rank_sort": 68916,
        "total": 2341
      },
      {
        "club_badge_src": null,
        "entry": 5557358,
        "entry_name": "Hfnawy",
        "event_total": 68,
        "has_played": true,
        "id": 43381380,
        "last_rank": 94537,
        "player_name": "Hofny Aly",
        "rank": 68762,
        "rank_sort": 68917,
        "total": 2341
      },
      {
        "club_badge_src": null,
        "entry": 5590480,
        "entry_name": "Holte End",
        "event_total": 59,
        "has_played": true,
        "id": 43674301,
        "last_rank": 65796,
        "player_name": "Erik J\u00e4rmens",
        "rank": 68762,
        "rank_sort": 68918,
        "total": 2341
      },
      {
        "club_badge_src": null,
        "entry": 5641829,
        "entry_name": "Smithy's MEN!",
        "event_total": 53,
        "has_played": true,
        "id": 44122149,
        "last_rank": 62429,
        "player_name": "Callum Smith",
        "rank": 68762,
        "rank_sort": 68919,
        "total": 2341
      },
      {
        "club_badge_src": null,
        "entry": 5757251,
        "entry_name": "Tudor Cinema Club",
        "event_total": 54,
        "has_played": true,
        "id": 45129059,
        "last_rank": 64190,
        "player_name": "Martin Clinton",
        "rank": 68762,
        "rank_sort": 68920,
        "total": 2341
      },
      {
        "club_badge_src": null,
        "entry": 5803253,
        "entry_name": "Nedjmo",
        "event_total": 55,
        "has_played": true,
        "id": 45528119,
        "last_rank": 66057,
        "player_name": "Nedjmo Rt",
        "rank": 68762,
        "rank_sort": 68921,
        "total": 2341
      },
      {
        "club_badge_src": null,
        "entry": 5843084,
        "entry_name": "Earth Wind & Maguire",
        "event_total": 65,
        "has_played": true,
        "id": 45868761,
        "last_rank": 87350,
        "player_name": "Aidan Garske",
        "rank": 68762,
        "rank_sort": 68922,
        "total": 2341
      },
      {
        "club_badge_src": "https://fantasy.premierleague.com/gcs/plfpl-production-adobe-approved/plfpl-production/5852950/ba782c64-b682-4159-829d-6895c8cf79b3.png",
        "entry": 5852950,
        "entry_name": "Dirby",
        "event_total": 48,
        "has_played": true,
        "id": 45953116,
        "last_rank": 41617,
        "player_name": "Irbaz Mohammed",
        "rank": 68762,
        "rank_sort": 68923,
        "total": 2341
      },
      {
        "club_badge_src": null,
        "entry": 5935474,
        "entry_name": "You Cunha Believe It",
        "event_total": 60,
        "has_played": true,
        "id": 46667432,
        "last_rank": 75874,
        "player_name": "Keagan Wessels",
        "rank": 68762,
        "rank_sort": 68924,
        "total": 2341
      },
      {
        "club_badge_src": null,
        "entry": 5960094,
        "entry_name": "ZiZoO CR7",
        "event_total": 55,
        "has_played": true,
        "id": 46888414,
        "last_rank": 66057,
        "player_name": "Ziad Islam",
        "rank": 68762,
        "rank_sort": 68925,
        "total": 2341
      },
      {
        "club_badge_src": null,
        "entry": 6087366,
        "entry_name": "Big Four",
        "event_total": 46,
        "has_played": true,
        "id": 48066881,
        "last_rank": 50635,
        "player_name": "Mikkel Iversen",
        "rank": 68762,
        "rank_sort": 68926,
        "total": 2341
      },
      {
        "club_badge_src": null,
        "entry": 6135960,
        "entry_name": "Sesko meal deal",
        "event_total": 60,
        "has_played": true,
        "id": 48490730,
        "last_rank": 67695,
        "player_name": "Jay Charters",
        "rank": 68762,
        "rank_sort": 68927,
        "total": 2341
      },
      {
        "club_badge_src": null,
        "entry": 6231206,
        "entry_name": "Shady\u2019s Back Four",
        "event_total": 67,
        "has_played": true,
        "id": 49313820,
        "last_rank": 92126,
        "player_name": "James Drake",
        "rank": 68762,
        "rank_sort": 68928,
        "total": 2341
      },
      {
        "club_badge_src": null,
        "entry": 6473932,
        "entry_name": "Headhunters",
        "event_total": 68,
        "has_played": true,
        "id": 51586660,
        "last_rank": 94255,
        "player_name": "Ole Petersen Juul",
        "rank": 68762,
        "rank_sort": 68929,
        "total": 2341
      },
      {
        "club_badge_src": null,
        "entry": 6485663,
        "entry_name": "Ragnar Lothbrok",
        "event_total": 69,
        "has_played": true,
        "id": 51695494,
        "last_rank": 97096,
        "player_name": "Fares Mousa",
        "rank": 68762,
        "rank_sort": 68930,
        "total": 2341
      },
      {
        "club_badge_src": null,
        "entry": 6529931,
        "entry_name": "skrrrrrrrbeng",
        "event_total": 51,
        "has_played": true,
        "id": 52088789,
        "last_rank": 58688,
        "player_name": "Jephthah Mawuli",
        "rank": 68762,
        "rank_sort": 68931,
        "total": 2341
      },
      {
        "club_badge_src": null,
        "entry": 6562081,
        "entry_name": "The Bada Bings!",
        "event_total": 69,
        "has_played": true,
        "id": 52374650,
        "last_rank": 97096,
        "player_name": "Kevin Chetty",
        "rank": 68762,
        "rank_sort": 68932,
        "total": 2341
      },
      {
        "club_badge_src": null,
        "entry": 6678028,
        "entry_name": "Haskell's Harriers",
        "event_total": 77,
        "has_played": true,
        "id": 53415755,
        "last_rank": 106763,
        "player_name": "Max Haskell",
        "rank": 68762,
        "rank_sort": 68933,
        "total": 2341
      },
      {
        "club_badge_src": null,
        "entry": 6930137,
        "entry_name": "Pun & Games",
        "event_total": 52,
        "has_played": true,
        "id": 55556366,
        "last_rank": 60827,
        "player_name": "Puneet Kumar",
        "rank": 68762,
        "rank_sort": 68934,
        "total": 2341
      },
      {
        "club_badge_src": null,
        "entry": 7185836,
        "entry_name": "Backup Kepa",
        "event_total": 61,
        "has_played": true,
        "id": 58000893,
        "last_rank": 77999,
        "player_name": "Robert Russell",
        "rank": 68762,
        "rank_sort": 68935,
        "total": 2341
      },
      {
        "club_badge_src": null,
        "entry": 7215414,
        "entry_name": "Yaba daba do",
        "event_total": 43,
        "has_played": true,
        "id": 58279245,
        "last_rank": 46236,
        "player_name": "erik wulff",
        "rank": 68762,
        "rank_sort": 68936,
        "total": 2341
      },
      {
        "club_badge_src": null,
        "entry": 7342883,
        "entry_name": "OutoftheBox",
        "event_total": 75,
        "has_played": true,
        "id": 59478915,
        "last_rank": 112591,
        "player_name": "Csaba Feher",
        "rank": 68762,
        "rank_sort": 68937,
        "total": 2341
      },
      {
        "club_badge_src": null,
        "entry": 7373156,
        "entry_name": "Denis B. Team",
        "event_total": 51,
        "has_played": true,
        "id": 59763704,
        "last_rank": 51984,
        "player_name": "Denis B",
        "rank": 68762,
        "rank_sort": 68938,
        "total": 2341
      },
      {
        "club_badge_src": null,
        "entry": 7532990,
        "entry_name": "CryMartyParty",
        "event_total": 84,
        "has_played": true,
        "id": 61655759,
        "last_rank": 127384,
        "player_name": "Martine Guntveit",
        "rank": 68762,
        "rank_sort": 68939,
        "total": 2341
      },
      {
        "club_badge_src": null,
        "entry": 7714132,
        "entry_name": "IwataThose",
        "event_total": 51,
        "has_played": true,
        "id": 63298081,
        "last_rank": 58911,
        "player_name": "sean demetre",
        "rank": 68762,
        "rank_sort": 68940,
        "total": 2341
      },
      {
        "club_badge_src": null,
        "entry": 7937104,
        "entry_name": "Gun2Win",
        "event_total": 75,
        "has_played": true,
        "id": 65325176,
        "last_rank": 101818,
        "player_name": "Charan Vemulapalli",
        "rank": 68762,
        "rank_sort": 68941,
        "total": 2341
      },
      {
        "club_badge_src": null,
        "entry": 8148651,
        "entry_name": "CTRLDeLigt SC",
        "event_total": 45,
        "has_played": true,
        "id": 67256349,
        "last_rank": 49078,
        "player_name": "Sir Jevon Gapour",
        "rank": 68762,
        "rank_sort": 68942,
        "total": 2341
      },
      {
        "club_badge_src": null,
        "entry": 8214038,
        "entry_name": "ConnorOwesMeAEuro FC",
        "event_total": 55,
        "has_played": true,
        "id": 67874181,
        "last_rank": 58688,
        "player_name": "Charles McNeill Love",
        "rank": 68762,
        "rank_sort": 68943,
        "total": 2341
      },
      {
        "club_badge_src": null,
        "entry": 8240190,
        "entry_name": "Tipper Trucks",
        "event_total": 50,
        "has_played": true,
        "id": 68127009,
        "last_rank": 50199,
        "player_name": "George Tipper",
        "rank": 68762,
        "rank_sort": 68944,
        "total": 2341
      },
      {
        "club_badge_src": null,
        "entry": 8328902,
        "entry_name": "Kelly FC",
        "event_total": 68,
        "has_played": true,
        "id": 69004129,
        "last_rank": 84731,
        "player_name": "Donny Kelly",
        "rank": 68762,
        "rank_sort": 68945,
        "total": 2341
      },
      {
        "club_badge_src": null,
        "entry": 8619260,
        "entry_name": "Abu Ali",
        "event_total": 41,
        "has_played": true,
        "id": 71785226,
        "last_rank": 33147,
        "player_name": "abu ali",
        "rank": 68762,
        "rank_sort": 68946,
        "total": 2341
      },
      {
        "club_badge_src": null,
        "entry": 8687924,
        "entry_name": "PLAY B3YOND...",
        "event_total": 59,
        "has_played": true,
        "id": 72462507,
        "last_rank": 65796,
        "player_name": "Mark Butler",
        "rank": 68762,
        "rank_sort": 68947,
        "total": 2341
      },
      {
        "club_badge_src": null,
        "entry": 9000313,
        "entry_name": "J's 11",
        "event_total": 47,
        "has_played": true,
        "id": 75483430,
        "last_rank": 52205,
        "player_name": "Jay Palmer",
        "rank": 68762,
        "rank_sort": 68948,
        "total": 2341
      },
      {
        "club_badge_src": null,
        "entry": 9069303,
        "entry_name": "Forest Stench",
        "event_total": 57,
        "has_played": true,
        "id": 76151405,
        "last_rank": 69323,
        "player_name": "Sam Herrmann",
        "rank": 68762,
        "rank_sort": 68949,
        "total": 2341
      },
      {
        "club_badge_src": null,
        "entry": 9296714,
        "entry_name": "H10",
        "event_total": 67,
        "has_played": true,
        "id": 78378732,
        "last_rank": 92126,
        "player_name": "Hazard 10",
        "rank": 68762,
        "rank_sort": 68950,
        "total": 2341
      }
    ]
  }
}