{
  "last_updated_data": "2026-05-24T23:28:17Z",
  "league": {
    "admin_entry": null,
    "closed": false,
    "code_privacy": "p",
    "created": "2025-07-20T23:14:33.933835Z",
    "cup_league": 2815434,
    "has_cup": true,
    "id": 314,
    "league_type": "s",
    "max_entries": null,
    "name": "Overall",
    "rank": null,
    "scoring": "c",
    "start_event": 1
  },
  "new_entries": {
    "has_next": false,
    "page": 1,
    "results": []
  },
  "standings": {
    "has_next": true,
    "page": 809,
    "results": [
      {
        "club_badge_src": null,
        "entry": 1990975,
        "entry_name": "Cucurella con Paella",
        "event_total": 54,
        "has_played": true,
        "id": 14066537,
        "last_rank": 36831,
        "player_name": "Armin Mujagi\u0107",
        "rank": 40323,
        "rank_sort": 40401,
        "total": 2359
      },
      {
        "club_badge_src": null,
        "entry": 2002610,
        "entry_name": "Easy Company",
        "event_total": 73,
        "has_played": true,
        "id": 14158054,
        "last_rank": 65796,
        "player_name": "Harry Moloney",
        "rank": 40323,
        "rank_sort": 40402,
        "total": 2359
      },
      {
        "club_badge_src": "https://fantasy.premierleague.com/gcs/plfpl-production-adobe-approved/plfpl-production/2110431/5e085d0b-307a-44aa-8edc-07be44c0d8f9.png",
        "entry": 2110431,
        "entry_name": "Transfer Blues",
        "event_total": 46,
        "has_played": true,
        "id": 14979615,
        "last_rank": 24330,
        "player_name": "Dev Rout",
        "rank": 40323,
        "rank_sort": 40403,
        "total": 2359
      },
      {
        "club_badge_src": null,
        "entry": 2174891,
        "entry_name": "Rice",
        "event_total": 61,
        "has_played": true,
        "id": 15465043,
        "last_rank": 45927,
        "player_name": "Filigree Ky",
        "rank": 40323,
        "rank_sort": 40404,
        "total": 2359
      },
      {
        "club_badge_src": null,
        "entry": 2177430,
        "entry_name": "ElBastor",
        "event_total": 55,
        "has_played": true,
        "id": 15484997,
        "last_rank": 38016,
        "player_name": "Alex Basto",
        "rank": 40323,
        "rank_sort": 40405,
        "total": 2359
      },
      {
        "club_badge_src": null,
        "entry": 2177590,
        "entry_name": "Michaelxu",
        "event_total": 71,
        "has_played": true,
        "id": 15486171,
        "last_rank": 61606,
        "player_name": "Michael Xu",
        "rank": 40323,
        "rank_sort": 40406,
        "total": 2359
      },
      {
        "club_badge_src": null,
        "entry": 2319716,
        "entry_name": "Los Porros Hermanos",
        "event_total": 69,
        "has_played": true,
        "id": 16548118,
        "last_rank": 58071,
        "player_name": "Samar Verma",
        "rank": 40323,
        "rank_sort": 40407,
        "total": 2359
      },
      {
        "club_badge_src": null,
        "entry": 2475855,
        "entry_name": "Pete Vale",
        "event_total": 55,
        "has_played": true,
        "id": 17713757,
        "last_rank": 38016,
        "player_name": "Pete Smith",
        "rank": 40323,
        "rank_sort": 40408,
        "total": 2359
      },
      {
        "club_badge_src": null,
        "entry": 2569800,
        "entry_name": "What\u2019s on Semenyo?",
        "event_total": 59,
        "has_played": true,
        "id": 18438402,
        "last_rank": 43168,
        "player_name": "James Binks",
        "rank": 40323,
        "rank_sort": 40409,
        "total": 2359
      },
      {
        "club_badge_src": null,
        "entry": 2608299,
        "entry_name": "FC Libero",
        "event_total": 35,
        "has_played": true,
        "id": 18738190,
        "last_rank": 18985,
        "player_name": "Atli M\u00e1r Arnarson",
        "rank": 40323,
        "rank_sort": 40410,
        "total": 2359
      },
      {
        "club_badge_src": null,
        "entry": 2688964,
        "entry_name": "Sharma FC",
        "event_total": 69,
        "has_played": true,
        "id": 19340715,
        "last_rank": 58688,
        "player_name": "Bally Sharma",
        "rank": 40323,
        "rank_sort": 40411,
        "total": 2359
      },
      {
        "club_badge_src": null,
        "entry": 2713915,
        "entry_name": "ElShi5Ooo17",
        "event_total": 53,
        "has_played": true,
        "id": 19526839,
        "last_rank": 35619,
        "player_name": "ahmed el shi5o",
        "rank": 40323,
        "rank_sort": 40412,
        "total": 2359
      },
      {
        "club_badge_src": null,
        "entry": 2914683,
        "entry_name": "Sir Wili\u00f6",
        "event_total": 64,
        "has_played": true,
        "id": 21363852,
        "last_rank": 50468,
        "player_name": "Ulf Wili\u00f6",
        "rank": 40323,
        "rank_sort": 40413,
        "total": 2359
      },
      {
        "club_badge_src": null,
        "entry": 2919553,
        "entry_name": "Change Name",
        "event_total": 58,
        "has_played": true,
        "id": 21400176,
        "last_rank": 41824,
        "player_name": "Darren Tyrrell",
        "rank": 40323,
        "rank_sort": 40414,
        "total": 2359
      },
      {
        "club_badge_src": null,
        "entry": 3067213,
        "entry_name": "It\u2019s Coming Rome",
        "event_total": 63,
        "has_played": true,
        "id": 22584105,
        "last_rank": 48898,
        "player_name": "Graham Beckett",
        "rank": 40323,
        "rank_sort": 40415,
        "total": 2359
      },
      {
        "club_badge_src": null,
        "entry": 3091506,
        "entry_name": "Jackson Outkast",
        "event_total": 64,
        "has_played": true,
        "id": 22784197,
        "last_rank": 44303,
        "player_name": "William Littlewood",
        "rank": 40323,
        "rank_sort": 40416,
        "total": 2359
      },
      {
        "club_badge_src": null,
        "entry": 3253673,
        "entry_name": "Betta Than Bottom!",
        "event_total": 73,
        "has_played": true,
        "id": 24073474,
        "last_rank": 58388,
        "player_name": "Darren Smith",
        "rank": 40323,
        "rank_sort": 40417,
        "total": 2359
      },
      {
        "club_badge_src": null,
        "entry": 3276715,
        "entry_name": "CFC",
        "event_total": 57,
        "has_played": true,
        "id": 24251679,
        "last_rank": 40297,
        "player_name": "Jahidul Abedin",
        "rank": 40323,
        "rank_sort": 40418,
        "total": 2359
      },
      {
        "club_badge_src": null,
        "entry": 3369568,
        "entry_name": "El Jefe",
        "event_total": 49,
        "has_played": true,
        "id": 25005445,
        "last_rank": 31125,
        "player_name": "Max Hodge",
        "rank": 40323,
        "rank_sort": 40419,
        "total": 2359
      },
      {
        "club_badge_src": null,
        "entry": 3417041,
        "entry_name": "Wirtz team also",
        "event_total": 69,
        "has_played": true,
        "id": 25380584,
        "last_rank": 51720,
        "player_name": "Frank Flanagan",
        "rank": 40323,
        "rank_sort": 40420,
        "total": 2359
      },
      {
        "club_badge_src": null,
        "entry": 3424985,
        "entry_name": "TxALATASHAR",
        "event_total": 33,
        "has_played": true,
        "id": 25442213,
        "last_rank": 17718,
        "player_name": "Auhmet Khulet mouhmet",
        "rank": 40323,
        "rank_sort": 40421,
        "total": 2359
      },
      {
        "club_badge_src": "https://fantasy.premierleague.com/gcs/plfpl-production-adobe-approved/plfpl-production/3475367/fba544ea-4181-4197-8b84-d4585ad59965.png",
        "entry": 3475367,
        "entry_name": "Yadamm",
        "event_total": 62,
        "has_played": true,
        "id": 25839659,
        "last_rank": 47417,
        "player_name": "Wan Adam",
        "rank": 40323,
        "rank_sort": 40422,
        "total": 2359
      },
      {
        "club_badge_src": null,
        "entry": 3478416,
        "entry_name": "NK Nortfejs",
        "event_total": 56,
        "has_played": true,
        "id": 25864225,
        "last_rank": 34293,
        "player_name": "Jerko Tripalo",
        "rank": 40323,
        "rank_sort": 40423,
        "total": 2359
      },
      {
        "club_badge_src": null,
        "entry": 3506119,
        "entry_name": "HEAVENLY DELIGT",
        "event_total": 61,
        "has_played": true,
        "id": 26082991,
        "last_rank": 45714,
        "player_name": "Ahlzarn .",
        "rank": 40323,
        "rank_sort": 40424,
        "total": 2359
      },
      {
        "club_badge_src": null,
        "entry": 3594850,
        "entry_name": "Mugiwaras",
        "event_total": 59,
        "has_played": true,
        "id": 26773195,
        "last_rank": 43168,
        "player_name": "Stuardo Zelada",
        "rank": 40323,
        "rank_sort": 40425,
        "total": 2359
      },
      {
        "club_badge_src": "https://fantasy.premierleague.com/gcs/plfpl-production-adobe-approved/plfpl-production/3670389/cc089207-9853-44c0-a8e3-61ad022b3cbf.png",
        "entry": 3670389,
        "entry_name": "cityboysfc",
        "event_total": 58,
        "has_played": true,
        "id": 27373936,
        "last_rank": 41824,
        "player_name": "CITY BOYS FC",
        "rank": 40323,
        "rank_sort": 40426,
        "total": 2359
      },
      {
        "club_badge_src": null,
        "entry": 3711327,
        "entry_name": "Wolfie",
        "event_total": 58,
        "has_played": true,
        "id": 27693325,
        "last_rank": 41824,
        "player_name": "Simon Spackman",
        "rank": 40323,
        "rank_sort": 40427,
        "total": 2359
      },
      {
        "club_badge_src": null,
        "entry": 3746136,
        "entry_name": "Tesco McNeil Deal",
        "event_total": 41,
        "has_played": true,
        "id": 27965544,
        "last_rank": 23522,
        "player_name": "Harry Miskimmin",
        "rank": 40323,
        "rank_sort": 40428,
        "total": 2359
      },
      {
        "club_badge_src": "https://fantasy.premierleague.com/gcs/plfpl-production-adobe-approved/plfpl-production/3756067/ed0dc9ca-6f57-457e-af4f-bfbaffc42706.png",
        "entry": 3756067,
        "entry_name": "Boomo's Boomers",
        "event_total": 68,
        "has_played": true,
        "id": 28043104,
        "last_rank": 50199,
        "player_name": "Anoop Adiga",
        "rank": 40323,
        "rank_sort": 40429,
        "total": 2359
      },
      {
        "club_badge_src": null,
        "entry": 3823571,
        "entry_name": "Martial arts",
        "event_total": 57,
        "has_played": true,
        "id": 28598440,
        "last_rank": 40503,
        "player_name": "Abdi Adan",
        "rank": 40323,
        "rank_sort": 40430,
        "total": 2359
      },
      {
        "club_badge_src": null,
        "entry": 3857972,
        "entry_name": "Dynamo Drevland",
        "event_total": 62,
        "has_played": true,
        "id": 28924662,
        "last_rank": 46839,
        "player_name": "Eivind Sakslind",
        "rank": 40323,
        "rank_sort": 40431,
        "total": 2359
      },
      {
        "club_badge_src": null,
        "entry": 3905863,
        "entry_name": "Top of the Klopps",
        "event_total": 51,
        "has_played": true,
        "id": 29363982,
        "last_rank": 33483,
        "player_name": "Richie McEvoy",
        "rank": 40323,
        "rank_sort": 40432,
        "total": 2359
      },
      {
        "club_badge_src": null,
        "entry": 4121868,
        "entry_name": "DamnRadical",
        "event_total": 61,
        "has_played": true,
        "id": 31140508,
        "last_rank": 39874,
        "player_name": "Dan Radley",
        "rank": 40323,
        "rank_sort": 40433,
        "total": 2359
      },
      {
        "club_badge_src": "https://fantasy.premierleague.com/gcs/plfpl-production-adobe-approved/plfpl-production/4160946/810f4bf1-6388-4a67-bcf4-222ad433547c.png",
        "entry": 4160946,
        "entry_name": "Yeagers",
        "event_total": 53,
        "has_played": true,
        "id": 31458682,
        "last_rank": 35768,
        "player_name": "Ahmed Ayman",
        "rank": 40323,
        "rank_sort": 40434,
        "total": 2359
      },
      {
        "club_badge_src": null,
        "entry": 4164349,
        "entry_name": "Diallo or Nothing",
        "event_total": 60,
        "has_played": true,
        "id": 31490329,
        "last_rank": 44525,
        "player_name": "Martyn Riley",
        "rank": 40323,
        "rank_sort": 40435,
        "total": 2359
      },
      {
        "club_badge_src": null,
        "entry": 4345536,
        "entry_name": "Poppins FC",
        "event_total": 72,
        "has_played": true,
        "id": 32996499,
        "last_rank": 63724,
        "player_name": "Shristi Bansal",
        "rank": 40323,
        "rank_sort": 40436,
        "total": 2359
      },
      {
        "club_badge_src": null,
        "entry": 4397571,
        "entry_name": "Dooby Wonderland",
        "event_total": 51,
        "has_played": true,
        "id": 33439897,
        "last_rank": 33332,
        "player_name": "Mitchell Williams",
        "rank": 40323,
        "rank_sort": 40437,
        "total": 2359
      },
      {
        "club_badge_src": "https://fantasy.premierleague.com/gcs/plfpl-production-adobe-approved/plfpl-production/4436068/fea26040-4af5-48c8-adba-223cfc0bb39a.png",
        "entry": 4436068,
        "entry_name": "Calafiori Dreaming",
        "event_total": 66,
        "has_played": true,
        "id": 33776332,
        "last_rank": 53345,
        "player_name": "David Kirton",
        "rank": 40323,
        "rank_sort": 40438,
        "total": 2359
      },
      {
        "club_badge_src": null,
        "entry": 4447701,
        "entry_name": "D I MEDELLIN",
        "event_total": 66,
        "has_played": true,
        "id": 33873944,
        "last_rank": 47163,
        "player_name": "Pedro Mora",
        "rank": 40323,
        "rank_sort": 40439,
        "total": 2359
      },
      {
        "club_badge_src": null,
        "entry": 4465419,
        "entry_name": "Bowen747",
        "event_total": 57,
        "has_played": true,
        "id": 34024414,
        "last_rank": 40503,
        "player_name": "Jack Dickinson",
        "rank": 40323,
        "rank_sort": 40440,
        "total": 2359
      },
      {
        "club_badge_src": null,
        "entry": 4559317,
        "entry_name": "Eze's On Fire",
        "event_total": 61,
        "has_played": true,
        "id": 34790566,
        "last_rank": 45927,
        "player_name": "Telford Stuart",
        "rank": 40323,
        "rank_sort": 40441,
        "total": 2359
      },
      {
        "club_badge_src": null,
        "entry": 4583833,
        "entry_name": "San Fran\u0161e\u0161ko FC",
        "event_total": 52,
        "has_played": true,
        "id": 34995448,
        "last_rank": 34458,
        "player_name": "TJ Maglutac",
        "rank": 40323,
        "rank_sort": 40442,
        "total": 2359
      },
      {
        "club_badge_src": null,
        "entry": 4593524,
        "entry_name": "Why Ayew Runnin",
        "event_total": 39,
        "has_played": true,
        "id": 35079359,
        "last_rank": 22154,
        "player_name": "Izzy Abdulhamid",
        "rank": 40323,
        "rank_sort": 40443,
        "total": 2359
      },
      {
        "club_badge_src": null,
        "entry": 4604045,
        "entry_name": "No.1",
        "event_total": 72,
        "has_played": true,
        "id": 35173843,
        "last_rank": 64005,
        "player_name": "Prithivi Moktan",
        "rank": 40323,
        "rank_sort": 40444,
        "total": 2359
      },
      {
        "club_badge_src": null,
        "entry": 4697702,
        "entry_name": "Normalf\u00f6rdelningen",
        "event_total": 61,
        "has_played": true,
        "id": 36011718,
        "last_rank": 40297,
        "player_name": "Jakob Nyblom",
        "rank": 40323,
        "rank_sort": 40445,
        "total": 2359
      },
      {
        "club_badge_src": null,
        "entry": 4698498,
        "entry_name": "Bryan Bru",
        "event_total": 63,
        "has_played": true,
        "id": 36018208,
        "last_rank": 48898,
        "player_name": "Assad Chohan",
        "rank": 40323,
        "rank_sort": 40446,
        "total": 2359
      },
      {
        "club_badge_src": null,
        "entry": 4766995,
        "entry_name": "On Amad One",
        "event_total": 62,
        "has_played": true,
        "id": 36688590,
        "last_rank": 46839,
        "player_name": "Sachin Balaji",
        "rank": 40323,
        "rank_sort": 40447,
        "total": 2359
      },
      {
        "club_badge_src": null,
        "entry": 4865591,
        "entry_name": "Halfmanhalfbusquets",
        "event_total": 49,
        "has_played": true,
        "id": 37498908,
        "last_rank": 30957,
        "player_name": "Tom Ellis",
        "rank": 40323,
        "rank_sort": 40448,
        "total": 2359
      },
      {
        "club_badge_src": null,
        "entry": 4888620,
        "entry_name": "Chuffed to Death",
        "event_total": 65,
        "has_played": true,
        "id": 37690651,
        "last_rank": 45416,
        "player_name": "Daniel Walsh",
        "rank": 40323,
        "rank_sort": 40449,
        "total": 2359
      },
      {
        "club_badge_src": null,
        "entry": 5271377,
        "entry_name": "Bergen Seagulls",
        "event_total": 63,
        "has_played": true,
        "id": 40856468,
        "last_rank": 42648,
        "player_name": "Mads Bergen",
        "rank": 40323,
        "rank_sort": 40450,
        "total": 2359
      }
    ]
  }
}