{
  "last_updated_data": "2026-05-24T23:28:17Z",
  "league": {
    "admin_entry": null,
    "closed": false,
    "code_privacy": "p",
    "created": "2025-07-20T23:14:33.933835Z",
    "cup_league": 2815434,
    "has_cup": true,
    "id": 314,
    "league_type": "s",
    "max_entries": null,
    "name": "Overall",
    "rank": null,
    "scoring": "c",
    "start_event": 1
  },
  "new_entries": {
    "has_next": false,
    "page": 1,
    "results": []
  },
  "standings": {
    "has_next": true,
    "page": 368,
    "results": [
      {
        "club_badge_src": null,
        "entry": 3938581,
        "entry_name": "HaRdCoRe_CiTy_1914",
        "event_total": 74,
        "has_played": true,
        "id": 29626853,
        "last_rank": 32639,
        "player_name": "Dimitar Dimitrov",
        "rank": 18347,
        "rank_sort": 18351,
        "total": 2382
      },
      {
        "club_badge_src": null,
        "entry": 8227581,
        "entry_name": "mm146",
        "event_total": 60,
        "has_played": true,
        "id": 68001923,
        "last_rank": 20131,
        "player_name": "Mirko Mami\u0107",
        "rank": 18347,
        "rank_sort": 18352,
        "total": 2382
      },
      {
        "club_badge_src": null,
        "entry": 3347,
        "entry_name": "FC Albatros",
        "event_total": 66,
        "has_played": true,
        "id": 18944,
        "last_rank": 24817,
        "player_name": "Adrian Galikowski",
        "rank": 18353,
        "rank_sort": 18353,
        "total": 2382
      },
      {
        "club_badge_src": null,
        "entry": 189414,
        "entry_name": "wirtz of wisdom",
        "event_total": 67,
        "has_played": true,
        "id": 1253723,
        "last_rank": 25709,
        "player_name": "Elliott Daniel",
        "rank": 18353,
        "rank_sort": 18354,
        "total": 2382
      },
      {
        "club_badge_src": null,
        "entry": 231937,
        "entry_name": "CherkEkitikeMoSalah",
        "event_total": 64,
        "has_played": true,
        "id": 1543115,
        "last_rank": 23164,
        "player_name": "Adam Timol",
        "rank": 18353,
        "rank_sort": 18355,
        "total": 2382
      },
      {
        "club_badge_src": null,
        "entry": 647840,
        "entry_name": "Cherki pendi",
        "event_total": 56,
        "has_played": true,
        "id": 4378283,
        "last_rank": 17358,
        "player_name": "Sahil Waheed",
        "rank": 18353,
        "rank_sort": 18356,
        "total": 2382
      },
      {
        "club_badge_src": "https://fantasy.premierleague.com/gcs/plfpl-production-adobe-approved/plfpl-production/898314/b8d94626-f78a-4332-bff4-84760c305b7d.png",
        "entry": 898314,
        "entry_name": "7oda",
        "event_total": 68,
        "has_played": true,
        "id": 6172041,
        "last_rank": 26656,
        "player_name": "Mahmoud Mohamed",
        "rank": 18353,
        "rank_sort": 18357,
        "total": 2382
      },
      {
        "club_badge_src": null,
        "entry": 1691574,
        "entry_name": "mbeumocunha",
        "event_total": 64,
        "has_played": true,
        "id": 11846906,
        "last_rank": 23164,
        "player_name": "Nicholas Lo",
        "rank": 18353,
        "rank_sort": 18358,
        "total": 2382
      },
      {
        "club_badge_src": "https://fantasy.premierleague.com/gcs/plfpl-production-adobe-approved/plfpl-production/2134828/faac3886-5530-4057-bca9-9e75df33152f.png",
        "entry": 2134828,
        "entry_name": "Poppingham Forest",
        "event_total": 57,
        "has_played": true,
        "id": 15171327,
        "last_rank": 17989,
        "player_name": "Poppy Trewartha",
        "rank": 18353,
        "rank_sort": 18359,
        "total": 2382
      },
      {
        "club_badge_src": null,
        "entry": 3592897,
        "entry_name": "Lanesra FC",
        "event_total": 73,
        "has_played": true,
        "id": 26758530,
        "last_rank": 31518,
        "player_name": "Martin Hornbrook",
        "rank": 18353,
        "rank_sort": 18360,
        "total": 2382
      },
      {
        "club_badge_src": null,
        "entry": 3678048,
        "entry_name": "Nelis Casuals FC",
        "event_total": 58,
        "has_played": true,
        "id": 27433179,
        "last_rank": 18691,
        "player_name": "Niels Verlinden",
        "rank": 18353,
        "rank_sort": 18361,
        "total": 2382
      },
      {
        "club_badge_src": null,
        "entry": 3840876,
        "entry_name": "Whats Rob holding?",
        "event_total": 53,
        "has_played": true,
        "id": 28767030,
        "last_rank": 15452,
        "player_name": "Liam Rowley",
        "rank": 18353,
        "rank_sort": 18362,
        "total": 2382
      },
      {
        "club_badge_src": null,
        "entry": 4054436,
        "entry_name": "Aun chaisongkram",
        "event_total": 57,
        "has_played": true,
        "id": 30590852,
        "last_rank": 17960,
        "player_name": "Aun Chaisongkram",
        "rank": 18353,
        "rank_sort": 18363,
        "total": 2382
      },
      {
        "club_badge_src": null,
        "entry": 4962401,
        "entry_name": "Bilbao't time",
        "event_total": 58,
        "has_played": true,
        "id": 38294772,
        "last_rank": 18640,
        "player_name": "Alex Marzano",
        "rank": 18353,
        "rank_sort": 18364,
        "total": 2382
      },
      {
        "club_badge_src": null,
        "entry": 6001023,
        "entry_name": "KO.ora bo.Ora",
        "event_total": 34,
        "has_played": true,
        "id": 47307251,
        "last_rank": 7014,
        "player_name": "Youssef 3bas",
        "rank": 18353,
        "rank_sort": 18365,
        "total": 2382
      },
      {
        "club_badge_src": null,
        "entry": 6330248,
        "entry_name": "haCunhaMateta",
        "event_total": 47,
        "has_played": true,
        "id": 50304617,
        "last_rank": 12092,
        "player_name": "Magnus Andersen",
        "rank": 18353,
        "rank_sort": 18366,
        "total": 2382
      },
      {
        "club_badge_src": null,
        "entry": 6723487,
        "entry_name": "Trophy logistics SW6",
        "event_total": 55,
        "has_played": true,
        "id": 53811255,
        "last_rank": 16675,
        "player_name": "Jon Wiggins",
        "rank": 18353,
        "rank_sort": 18367,
        "total": 2382
      },
      {
        "club_badge_src": null,
        "entry": 6795399,
        "entry_name": "Kujat FC",
        "event_total": 53,
        "has_played": true,
        "id": 54418797,
        "last_rank": 15416,
        "player_name": "Adam Kujat",
        "rank": 18353,
        "rank_sort": 18368,
        "total": 2382
      },
      {
        "club_badge_src": null,
        "entry": 7985768,
        "entry_name": "The Worst Team",
        "event_total": 68,
        "has_played": true,
        "id": 65757893,
        "last_rank": 26631,
        "player_name": "Jonathan Wahl",
        "rank": 18353,
        "rank_sort": 18369,
        "total": 2382
      },
      {
        "club_badge_src": null,
        "entry": 8224234,
        "entry_name": "Skellynelly",
        "event_total": 68,
        "has_played": true,
        "id": 67970347,
        "last_rank": 26710,
        "player_name": "Anshuman Udeshi",
        "rank": 18353,
        "rank_sort": 18370,
        "total": 2382
      },
      {
        "club_badge_src": null,
        "entry": 37983,
        "entry_name": "AtyrauAFC",
        "event_total": 66,
        "has_played": true,
        "id": 243397,
        "last_rank": 21628,
        "player_name": "Aibek Yeleubayev",
        "rank": 18371,
        "rank_sort": 18371,
        "total": 2382
      },
      {
        "club_badge_src": null,
        "entry": 46462,
        "entry_name": "The Fantasy Grifters",
        "event_total": 66,
        "has_played": true,
        "id": 297880,
        "last_rank": 24897,
        "player_name": "David McGregor",
        "rank": 18371,
        "rank_sort": 18372,
        "total": 2382
      },
      {
        "club_badge_src": "https://fantasy.premierleague.com/gcs/plfpl-production-adobe-approved/plfpl-production/56580/63f6a357-ae5c-4ce5-8a5e-f63c12430c6a.png",
        "entry": 56580,
        "entry_name": "F.C Beilinson",
        "event_total": 47,
        "has_played": true,
        "id": 364414,
        "last_rank": 12109,
        "player_name": "Yaniv Guertel",
        "rank": 18371,
        "rank_sort": 18373,
        "total": 2382
      },
      {
        "club_badge_src": null,
        "entry": 60939,
        "entry_name": "HowDidYouMissJackson",
        "event_total": 31,
        "has_played": true,
        "id": 392359,
        "last_rank": 6166,
        "player_name": "Charlie McCarthy",
        "rank": 18371,
        "rank_sort": 18374,
        "total": 2382
      },
      {
        "club_badge_src": null,
        "entry": 114789,
        "entry_name": "P.F. Key",
        "event_total": 63,
        "has_played": true,
        "id": 748884,
        "last_rank": 22426,
        "player_name": "\u0393\u03b9\u03ac\u03bd\u03bd\u03bf\u03c2 \u03a4\u03b6\u03af\u03c1\u03b1",
        "rank": 18371,
        "rank_sort": 18375,
        "total": 2382
      },
      {
        "club_badge_src": null,
        "entry": 191030,
        "entry_name": "GoRio",
        "event_total": 79,
        "has_played": true,
        "id": 1265171,
        "last_rank": 38644,
        "player_name": "Tai Ta",
        "rank": 18371,
        "rank_sort": 18376,
        "total": 2382
      },
      {
        "club_badge_src": null,
        "entry": 216321,
        "entry_name": "Under My Cucurella",
        "event_total": 44,
        "has_played": true,
        "id": 1438777,
        "last_rank": 10805,
        "player_name": "Mark Casserly",
        "rank": 18371,
        "rank_sort": 18377,
        "total": 2382
      },
      {
        "club_badge_src": null,
        "entry": 316121,
        "entry_name": "Squidwirtz",
        "event_total": 60,
        "has_played": true,
        "id": 2118751,
        "last_rank": 20179,
        "player_name": "Sourav S",
        "rank": 18371,
        "rank_sort": 18378,
        "total": 2382
      },
      {
        "club_badge_src": null,
        "entry": 317799,
        "entry_name": "Captain Frat Sparrow",
        "event_total": 67,
        "has_played": true,
        "id": 2130196,
        "last_rank": 25729,
        "player_name": "Felipe Santacruz",
        "rank": 18371,
        "rank_sort": 18379,
        "total": 2382
      },
      {
        "club_badge_src": "https://fantasy.premierleague.com/gcs/plfpl-production-adobe-approved/plfpl-production/387239/e92fbb92-b9f3-4a11-9fc2-5004e09777ef.png",
        "entry": 387239,
        "entry_name": "Gullnesti FC",
        "event_total": 63,
        "has_played": true,
        "id": 2597795,
        "last_rank": 22391,
        "player_name": "Hlynur Sigur\u00f0sson",
        "rank": 18371,
        "rank_sort": 18380,
        "total": 2382
      },
      {
        "club_badge_src": null,
        "entry": 404127,
        "entry_name": "Fer\u2019s fer",
        "event_total": 35,
        "has_played": true,
        "id": 2709765,
        "last_rank": 7333,
        "player_name": "David Warnes",
        "rank": 18371,
        "rank_sort": 18381,
        "total": 2382
      },
      {
        "club_badge_src": null,
        "entry": 459025,
        "entry_name": "Peanut United",
        "event_total": 44,
        "has_played": true,
        "id": 3079416,
        "last_rank": 10805,
        "player_name": "Matt Smith",
        "rank": 18371,
        "rank_sort": 18382,
        "total": 2382
      },
      {
        "club_badge_src": null,
        "entry": 565396,
        "entry_name": "Uh Oh Gvardiol",
        "event_total": 67,
        "has_played": true,
        "id": 3805588,
        "last_rank": 25709,
        "player_name": "Herry D",
        "rank": 18371,
        "rank_sort": 18383,
        "total": 2382
      },
      {
        "club_badge_src": null,
        "entry": 576622,
        "entry_name": "Noni'd to be upset",
        "event_total": 55,
        "has_played": true,
        "id": 3880122,
        "last_rank": 16807,
        "player_name": "Finlay Knight",
        "rank": 18371,
        "rank_sort": 18384,
        "total": 2382
      },
      {
        "club_badge_src": null,
        "entry": 740362,
        "entry_name": "OnlyFoolsLoveHorses",
        "event_total": 72,
        "has_played": true,
        "id": 5034096,
        "last_rank": 30503,
        "player_name": "Callum Crosby",
        "rank": 18371,
        "rank_sort": 18385,
        "total": 2382
      },
      {
        "club_badge_src": null,
        "entry": 1177327,
        "entry_name": "Man Feelings",
        "event_total": 69,
        "has_played": true,
        "id": 8168873,
        "last_rank": 27585,
        "player_name": "Connell Stewart",
        "rank": 18371,
        "rank_sort": 18386,
        "total": 2382
      },
      {
        "club_badge_src": null,
        "entry": 1358884,
        "entry_name": "Fantastica FC",
        "event_total": 57,
        "has_played": true,
        "id": 9445633,
        "last_rank": 18113,
        "player_name": "Muhammad Mutaza",
        "rank": 18371,
        "rank_sort": 18387,
        "total": 2382
      },
      {
        "club_badge_src": null,
        "entry": 1406032,
        "entry_name": "Red Robins",
        "event_total": 43,
        "has_played": true,
        "id": 9783222,
        "last_rank": 10346,
        "player_name": "Peter Spurling",
        "rank": 18371,
        "rank_sort": 18388,
        "total": 2382
      },
      {
        "club_badge_src": null,
        "entry": 1597014,
        "entry_name": "Zubi Zubi Zuuuui",
        "event_total": 58,
        "has_played": true,
        "id": 11171744,
        "last_rank": 18691,
        "player_name": "Nathan Walker",
        "rank": 18371,
        "rank_sort": 18389,
        "total": 2382
      },
      {
        "club_badge_src": null,
        "entry": 1755702,
        "entry_name": "Goomba",
        "event_total": 49,
        "has_played": true,
        "id": 12325977,
        "last_rank": 13184,
        "player_name": "Jose Pickover",
        "rank": 18371,
        "rank_sort": 18390,
        "total": 2382
      },
      {
        "club_badge_src": "https://fantasy.premierleague.com/gcs/plfpl-production-adobe-approved/plfpl-production/2109415/19be78f2-90f9-4c9d-8819-0c4975136c91.png",
        "entry": 2109415,
        "entry_name": "Pepa Pig",
        "event_total": 51,
        "has_played": true,
        "id": 14972432,
        "last_rank": 14292,
        "player_name": "Kevin Williams",
        "rank": 18371,
        "rank_sort": 18391,
        "total": 2382
      },
      {
        "club_badge_src": "https://fantasy.premierleague.com/gcs/plfpl-production-adobe-approved/plfpl-production/2391928/62b2b13b-7e6d-4282-9769-15a5d8ee31d4.png",
        "entry": 2391928,
        "entry_name": "WhatKind XI",
        "event_total": 55,
        "has_played": true,
        "id": 17086436,
        "last_rank": 16729,
        "player_name": "Delwyn Pillay",
        "rank": 18371,
        "rank_sort": 18392,
        "total": 2382
      },
      {
        "club_badge_src": null,
        "entry": 2435098,
        "entry_name": "Zabarnyi Puppets",
        "event_total": 52,
        "has_played": true,
        "id": 17413819,
        "last_rank": 14857,
        "player_name": "mathieu aeschmann",
        "rank": 18371,
        "rank_sort": 18393,
        "total": 2382
      },
      {
        "club_badge_src": "https://fantasy.premierleague.com/gcs/plfpl-production-adobe-approved/plfpl-production/2522024/c9f78179-a4e7-4c3f-9d10-101ffdb8be49.png",
        "entry": 2522024,
        "entry_name": "Ha-Cunha Matata",
        "event_total": 76,
        "has_played": true,
        "id": 18070863,
        "last_rank": 34937,
        "player_name": "Andreas Ulfsnes R\u00e5ket",
        "rank": 18371,
        "rank_sort": 18394,
        "total": 2382
      },
      {
        "club_badge_src": null,
        "entry": 2586479,
        "entry_name": "Jaminthosedoughnuts",
        "event_total": 54,
        "has_played": true,
        "id": 18567513,
        "last_rank": 16062,
        "player_name": "Ben Warren",
        "rank": 18371,
        "rank_sort": 18395,
        "total": 2382
      },
      {
        "club_badge_src": null,
        "entry": 2694881,
        "entry_name": "Butlers Boys Again",
        "event_total": 58,
        "has_played": true,
        "id": 19384963,
        "last_rank": 18655,
        "player_name": "Jordan Wilson",
        "rank": 18371,
        "rank_sort": 18396,
        "total": 2382
      },
      {
        "club_badge_src": null,
        "entry": 2723997,
        "entry_name": "Bobb the builder",
        "event_total": 41,
        "has_played": true,
        "id": 19601487,
        "last_rank": 9536,
        "player_name": "ahmad Medhat",
        "rank": 18371,
        "rank_sort": 18397,
        "total": 2382
      },
      {
        "club_badge_src": null,
        "entry": 2773306,
        "entry_name": "Felici's Flyaz",
        "event_total": 65,
        "has_played": true,
        "id": 20236172,
        "last_rank": 23965,
        "player_name": "Matt Felici",
        "rank": 18371,
        "rank_sort": 18398,
        "total": 2382
      },
      {
        "club_badge_src": null,
        "entry": 3097787,
        "entry_name": "Benrahmas in Pyjamas",
        "event_total": 72,
        "has_played": true,
        "id": 22831886,
        "last_rank": 30503,
        "player_name": "Huzaifah Shaikh",
        "rank": 18371,
        "rank_sort": 18399,
        "total": 2382
      },
      {
        "club_badge_src": null,
        "entry": 3232529,
        "entry_name": "Anfield Road",
        "event_total": 33,
        "has_played": true,
        "id": 23907628,
        "last_rank": 6703,
        "player_name": "Joaquin Bernasconi",
        "rank": 18371,
        "rank_sort": 18400,
        "total": 2382
      }
    ]
  }
}