{
  "last_updated_data": "2026-05-24T23:28:17Z",
  "league": {
    "admin_entry": null,
    "closed": false,
    "code_privacy": "p",
    "created": "2025-07-20T23:14:33.933835Z",
    "cup_league": 2815434,
    "has_cup": true,
    "id": 314,
    "league_type": "s",
    "max_entries": null,
    "name": "Overall",
    "rank": null,
    "scoring": "c",
    "start_event": 1
  },
  "new_entries": {
    "has_next": false,
    "page": 1,
    "results": []
  },
  "standings": {
    "has_next": true,
    "page": 1186,
    "results": [
      {
        "club_badge_src": null,
        "entry": 6527,
        "entry_name": "Ekitike Touzani",
        "event_total": 53,
        "has_played": true,
        "id": 37471,
        "last_rank": 46660,
        "player_name": "Tom Sniekers",
        "rank": 59248,
        "rank_sort": 59251,
        "total": 2346
      },
      {
        "club_badge_src": null,
        "entry": 9964,
        "entry_name": "SKYBLUE STU",
        "event_total": 57,
        "has_played": true,
        "id": 58787,
        "last_rank": 53023,
        "player_name": "Stuart Rendall",
        "rank": 59248,
        "rank_sort": 59252,
        "total": 2346
      },
      {
        "club_badge_src": "https://fantasy.premierleague.com/gcs/plfpl-production-adobe-approved/plfpl-production/15553/db92eaa1-ba4d-4287-908b-ea69818e74ad.png",
        "entry": 15553,
        "entry_name": "winners yet again",
        "event_total": 48,
        "has_played": true,
        "id": 95524,
        "last_rank": 40036,
        "player_name": "shane roberts",
        "rank": 59248,
        "rank_sort": 59253,
        "total": 2346
      },
      {
        "club_badge_src": "https://fantasy.premierleague.com/gcs/plfpl-production-adobe-approved/plfpl-production/17715/408e61ac-90f0-4e46-b2bc-61190cbe369d.png",
        "entry": 17715,
        "entry_name": "what Samatta?",
        "event_total": 71,
        "has_played": true,
        "id": 109966,
        "last_rank": 89055,
        "player_name": "Finn Pannell",
        "rank": 59248,
        "rank_sort": 59254,
        "total": 2346
      },
      {
        "club_badge_src": null,
        "entry": 17960,
        "entry_name": "Badr",
        "event_total": 68,
        "has_played": true,
        "id": 111574,
        "last_rank": 81420,
        "player_name": "Badr Owais",
        "rank": 59248,
        "rank_sort": 59255,
        "total": 2346
      },
      {
        "club_badge_src": null,
        "entry": 24013,
        "entry_name": "Bafod\u00e9 Diabet\u00e9s",
        "event_total": 62,
        "has_played": true,
        "id": 151466,
        "last_rank": 61606,
        "player_name": "Nikolas Ruffet",
        "rank": 59248,
        "rank_sort": 59256,
        "total": 2346
      },
      {
        "club_badge_src": null,
        "entry": 24813,
        "entry_name": "Diyaash",
        "event_total": 55,
        "has_played": true,
        "id": 156715,
        "last_rank": 49880,
        "player_name": "amaan mohamed",
        "rank": 59248,
        "rank_sort": 59257,
        "total": 2346
      },
      {
        "club_badge_src": null,
        "entry": 32310,
        "entry_name": "The Vicar of Digby",
        "event_total": 64,
        "has_played": true,
        "id": 205505,
        "last_rank": 73038,
        "player_name": "Matthew Mostyn",
        "rank": 59248,
        "rank_sort": 59258,
        "total": 2346
      },
      {
        "club_badge_src": null,
        "entry": 33145,
        "entry_name": "Rutter Woke Nonsense",
        "event_total": 65,
        "has_played": true,
        "id": 211245,
        "last_rank": 75139,
        "player_name": "Cathal Walsh",
        "rank": 59248,
        "rank_sort": 59259,
        "total": 2346
      },
      {
        "club_badge_src": null,
        "entry": 33155,
        "entry_name": "bsk bor\u010de",
        "event_total": 61,
        "has_played": true,
        "id": 211312,
        "last_rank": 67063,
        "player_name": "Boris Jankovic",
        "rank": 59248,
        "rank_sort": 59260,
        "total": 2346
      },
      {
        "club_badge_src": null,
        "entry": 34380,
        "entry_name": "Kroos control",
        "event_total": 70,
        "has_played": true,
        "id": 219599,
        "last_rank": 77258,
        "player_name": "Jorge Teixeira",
        "rank": 59248,
        "rank_sort": 59261,
        "total": 2346
      },
      {
        "club_badge_src": null,
        "entry": 36106,
        "entry_name": "Placeholder",
        "event_total": 43,
        "has_played": true,
        "id": 231057,
        "last_rank": 39023,
        "player_name": "Brian McBrain",
        "rank": 59248,
        "rank_sort": 59262,
        "total": 2346
      },
      {
        "club_badge_src": "https://fantasy.premierleague.com/gcs/plfpl-production-adobe-approved/plfpl-production/36311/735109db-611d-44f3-b814-09cc5b680f69.png",
        "entry": 36311,
        "entry_name": "Wirtz Occurring",
        "event_total": 68,
        "has_played": true,
        "id": 232411,
        "last_rank": 72815,
        "player_name": "Liam Gallagher",
        "rank": 59248,
        "rank_sort": 59263,
        "total": 2346
      },
      {
        "club_badge_src": null,
        "entry": 37489,
        "entry_name": "Los Artilleros",
        "event_total": 64,
        "has_played": true,
        "id": 240140,
        "last_rank": 65163,
        "player_name": "Abdulaziz Alsudairy",
        "rank": 59248,
        "rank_sort": 59264,
        "total": 2346
      },
      {
        "club_badge_src": null,
        "entry": 47149,
        "entry_name": "Come Digne with Mee",
        "event_total": 57,
        "has_played": true,
        "id": 302366,
        "last_rank": 59813,
        "player_name": "Caley Taylor",
        "rank": 59248,
        "rank_sort": 59265,
        "total": 2346
      },
      {
        "club_badge_src": null,
        "entry": 49286,
        "entry_name": "Toon Army",
        "event_total": 50,
        "has_played": true,
        "id": 316758,
        "last_rank": 42648,
        "player_name": "Jason Chartres",
        "rank": 59248,
        "rank_sort": 59266,
        "total": 2346
      },
      {
        "club_badge_src": "https://fantasy.premierleague.com/gcs/plfpl-production-adobe-approved/plfpl-production/50345/e1b3f8d1-ab91-4b6a-a05b-c51773bc00f9.png",
        "entry": 50345,
        "entry_name": "Mad Dog's Mad Dergs",
        "event_total": 63,
        "has_played": true,
        "id": 323826,
        "last_rank": 63390,
        "player_name": "James Liosi",
        "rank": 59248,
        "rank_sort": 59267,
        "total": 2346
      },
      {
        "club_badge_src": null,
        "entry": 56808,
        "entry_name": "Ginger FPL King",
        "event_total": 78,
        "has_played": true,
        "id": 365941,
        "last_rank": 105963,
        "player_name": "Chris Pankhurst",
        "rank": 59248,
        "rank_sort": 59268,
        "total": 2346
      },
      {
        "club_badge_src": null,
        "entry": 59818,
        "entry_name": "Hotel? Thiago",
        "event_total": 71,
        "has_played": true,
        "id": 385179,
        "last_rank": 79190,
        "player_name": "Lloyd Davis",
        "rank": 59248,
        "rank_sort": 59269,
        "total": 2346
      },
      {
        "club_badge_src": null,
        "entry": 63734,
        "entry_name": "Ice on my Wirtz",
        "event_total": 69,
        "has_played": true,
        "id": 411267,
        "last_rank": 84360,
        "player_name": "Quoc Anh Nguyen",
        "rank": 59248,
        "rank_sort": 59270,
        "total": 2346
      },
      {
        "club_badge_src": null,
        "entry": 65779,
        "entry_name": "Delap dance",
        "event_total": 55,
        "has_played": true,
        "id": 424876,
        "last_rank": 56708,
        "player_name": "Jack Davies",
        "rank": 59248,
        "rank_sort": 59271,
        "total": 2346
      },
      {
        "club_badge_src": "https://fantasy.premierleague.com/gcs/plfpl-production-adobe-approved/plfpl-production/73795/3403da43-1822-47df-866e-ba3f2e6d0ab1.png",
        "entry": 73795,
        "entry_name": "Beef Cherki",
        "event_total": 52,
        "has_played": true,
        "id": 479733,
        "last_rank": 45416,
        "player_name": "Ethan Beeley",
        "rank": 59248,
        "rank_sort": 59272,
        "total": 2346
      },
      {
        "club_badge_src": null,
        "entry": 74689,
        "entry_name": "cheers geoff",
        "event_total": 37,
        "has_played": true,
        "id": 485497,
        "last_rank": 31747,
        "player_name": "S\u00f8ren Frederiksen",
        "rank": 59248,
        "rank_sort": 59273,
        "total": 2346
      },
      {
        "club_badge_src": "https://fantasy.premierleague.com/gcs/plfpl-production-adobe-approved/plfpl-production/85160/25855484-ebd9-4800-936f-2abb7de414c1.png",
        "entry": 85160,
        "entry_name": "Grove FC 2025-26",
        "event_total": 45,
        "has_played": true,
        "id": 554521,
        "last_rank": 41617,
        "player_name": "Colin McCracken",
        "rank": 59248,
        "rank_sort": 59274,
        "total": 2346
      },
      {
        "club_badge_src": "https://fantasy.premierleague.com/gcs/plfpl-production-adobe-approved/plfpl-production/86742/3687a7db-ae50-46a8-b59c-f8ef1bb8b2e0.png",
        "entry": 86742,
        "entry_name": "Houthi Style SN14",
        "event_total": 48,
        "has_played": true,
        "id": 565380,
        "last_rank": 45714,
        "player_name": "Nadav Simhy",
        "rank": 59248,
        "rank_sort": 59275,
        "total": 2346
      },
      {
        "club_badge_src": null,
        "entry": 96333,
        "entry_name": "ARSENAL",
        "event_total": 55,
        "has_played": true,
        "id": 629366,
        "last_rank": 57001,
        "player_name": "Abuzeid \u0628\u0637\u0644 \u0627\u0644\u062f\u0648\u0631\u064a \u0627\u0644\u0627\u0646\u062c\u0644\u064a\u0632\u064a",
        "rank": 59248,
        "rank_sort": 59276,
        "total": 2346
      },
      {
        "club_badge_src": "https://fantasy.premierleague.com/gcs/plfpl-production-adobe-approved/plfpl-production/96943/a7b62731-2d1c-49a0-b9f8-33c01d5f6888.png",
        "entry": 96943,
        "entry_name": "OTBC",
        "event_total": 68,
        "has_played": true,
        "id": 633239,
        "last_rank": 82069,
        "player_name": "Mark Jillings",
        "rank": 59248,
        "rank_sort": 59277,
        "total": 2346
      },
      {
        "club_badge_src": null,
        "entry": 100443,
        "entry_name": "SUBOPTIMAL BEATTYS",
        "event_total": 52,
        "has_played": true,
        "id": 655486,
        "last_rank": 45416,
        "player_name": "MARK BEATTY",
        "rank": 59248,
        "rank_sort": 59278,
        "total": 2346
      },
      {
        "club_badge_src": null,
        "entry": 101100,
        "entry_name": "haCunha Mateta",
        "event_total": 65,
        "has_played": true,
        "id": 659720,
        "last_rank": 75537,
        "player_name": "Drew Savani",
        "rank": 59248,
        "rank_sort": 59279,
        "total": 2346
      },
      {
        "club_badge_src": null,
        "entry": 124713,
        "entry_name": "back of the neto",
        "event_total": 58,
        "has_played": true,
        "id": 813427,
        "last_rank": 61411,
        "player_name": "Jack Lewis",
        "rank": 59248,
        "rank_sort": 59280,
        "total": 2346
      },
      {
        "club_badge_src": null,
        "entry": 126250,
        "entry_name": "Nmecha on toast",
        "event_total": 67,
        "has_played": true,
        "id": 823237,
        "last_rank": 79431,
        "player_name": "James Ray",
        "rank": 59248,
        "rank_sort": 59281,
        "total": 2346
      },
      {
        "club_badge_src": null,
        "entry": 147729,
        "entry_name": "Salem",
        "event_total": 51,
        "has_played": true,
        "id": 968197,
        "last_rank": 49880,
        "player_name": "salem eldaly",
        "rank": 59248,
        "rank_sort": 59282,
        "total": 2346
      },
      {
        "club_badge_src": null,
        "entry": 158205,
        "entry_name": "Pints Before Points",
        "event_total": 57,
        "has_played": true,
        "id": 1041002,
        "last_rank": 60168,
        "player_name": "Kacper Sinkiewicz",
        "rank": 59248,
        "rank_sort": 59283,
        "total": 2346
      },
      {
        "club_badge_src": null,
        "entry": 160431,
        "entry_name": "Change Name",
        "event_total": 60,
        "has_played": true,
        "id": 1056435,
        "last_rank": 57857,
        "player_name": "Sam Harper",
        "rank": 59248,
        "rank_sort": 59284,
        "total": 2346
      },
      {
        "club_badge_src": null,
        "entry": 169068,
        "entry_name": "rainjurs",
        "event_total": 42,
        "has_played": true,
        "id": 1117312,
        "last_rank": 37589,
        "player_name": "Liam Fraser",
        "rank": 59248,
        "rank_sort": 59285,
        "total": 2346
      },
      {
        "club_badge_src": null,
        "entry": 186724,
        "entry_name": "Luca",
        "event_total": 59,
        "has_played": true,
        "id": 1234172,
        "last_rank": 63201,
        "player_name": "Luca Silva",
        "rank": 59248,
        "rank_sort": 59286,
        "total": 2346
      },
      {
        "club_badge_src": null,
        "entry": 195264,
        "entry_name": "Haviks15",
        "event_total": 66,
        "has_played": true,
        "id": 1294806,
        "last_rank": 77258,
        "player_name": "Kristian Havik",
        "rank": 59248,
        "rank_sort": 59287,
        "total": 2346
      },
      {
        "club_badge_src": null,
        "entry": 198150,
        "entry_name": "\u00d8raker Hotspur",
        "event_total": 64,
        "has_played": true,
        "id": 1314945,
        "last_rank": 72815,
        "player_name": "Anders Taucher",
        "rank": 59248,
        "rank_sort": 59288,
        "total": 2346
      },
      {
        "club_badge_src": null,
        "entry": 201085,
        "entry_name": "MirrorSignalMalouda",
        "event_total": 48,
        "has_played": true,
        "id": 1335126,
        "last_rank": 45714,
        "player_name": "Will Swann",
        "rank": 59248,
        "rank_sort": 59289,
        "total": 2346
      },
      {
        "club_badge_src": null,
        "entry": 224058,
        "entry_name": "Ik\u2019 det der nu",
        "event_total": 61,
        "has_played": true,
        "id": 1490423,
        "last_rank": 67063,
        "player_name": "Christoffer Larsen",
        "rank": 59248,
        "rank_sort": 59290,
        "total": 2346
      },
      {
        "club_badge_src": null,
        "entry": 237795,
        "entry_name": "Walker's Way",
        "event_total": 52,
        "has_played": true,
        "id": 1582077,
        "last_rank": 51720,
        "player_name": "Jonny Bentley",
        "rank": 59248,
        "rank_sort": 59291,
        "total": 2346
      },
      {
        "club_badge_src": "https://fantasy.premierleague.com/gcs/plfpl-production-adobe-approved/plfpl-production/259162/e50dd4f3-1952-4469-a1b4-4e2b8ea34652.png",
        "entry": 259162,
        "entry_name": "Wu-Tang Klavan",
        "event_total": 46,
        "has_played": true,
        "id": 1723106,
        "last_rank": 42940,
        "player_name": "Dale Power",
        "rank": 59248,
        "rank_sort": 59292,
        "total": 2346
      },
      {
        "club_badge_src": null,
        "entry": 270520,
        "entry_name": "Gyok Tuah",
        "event_total": 56,
        "has_played": true,
        "id": 1799686,
        "last_rank": 58388,
        "player_name": "Tom Molyneux",
        "rank": 59248,
        "rank_sort": 59293,
        "total": 2346
      },
      {
        "club_badge_src": null,
        "entry": 275533,
        "entry_name": "Dr. Doofenshwirtz",
        "event_total": 63,
        "has_played": true,
        "id": 1833796,
        "last_rank": 71386,
        "player_name": "Jack Pettit",
        "rank": 59248,
        "rank_sort": 59294,
        "total": 2346
      },
      {
        "club_badge_src": null,
        "entry": 281238,
        "entry_name": "Losers And Boozers",
        "event_total": 50,
        "has_played": true,
        "id": 1871474,
        "last_rank": 42434,
        "player_name": "Simon Brownhill",
        "rank": 59248,
        "rank_sort": 59295,
        "total": 2346
      },
      {
        "club_badge_src": null,
        "entry": 283716,
        "entry_name": "foggingstandardsfc",
        "event_total": 75,
        "has_played": true,
        "id": 1888905,
        "last_rank": 98183,
        "player_name": "Justus Tabbara",
        "rank": 59248,
        "rank_sort": 59296,
        "total": 2346
      },
      {
        "club_badge_src": null,
        "entry": 308746,
        "entry_name": "Existential Djed",
        "event_total": 64,
        "has_played": true,
        "id": 2068023,
        "last_rank": 73423,
        "player_name": "John Burnham",
        "rank": 59248,
        "rank_sort": 59297,
        "total": 2346
      },
      {
        "club_badge_src": null,
        "entry": 316739,
        "entry_name": "The Mo Szoboszlacks",
        "event_total": 50,
        "has_played": true,
        "id": 2122963,
        "last_rank": 48363,
        "player_name": "Niall Sherlock",
        "rank": 59248,
        "rank_sort": 59298,
        "total": 2346
      },
      {
        "club_badge_src": null,
        "entry": 322614,
        "entry_name": "draget",
        "event_total": 36,
        "has_played": true,
        "id": 2161900,
        "last_rank": 26827,
        "player_name": "kristoffer draget",
        "rank": 59248,
        "rank_sort": 59299,
        "total": 2346
      },
      {
        "club_badge_src": null,
        "entry": 337951,
        "entry_name": "Haagan hattivatit",
        "event_total": 66,
        "has_played": true,
        "id": 2262481,
        "last_rank": 77258,
        "player_name": "Kalle Laakso",
        "rank": 59248,
        "rank_sort": 59300,
        "total": 2346
      }
    ]
  }
}