{
  "last_updated_data": "2026-05-24T23:28:17Z",
  "league": {
    "admin_entry": null,
    "closed": false,
    "code_privacy": "p",
    "created": "2025-07-20T23:14:33.933835Z",
    "cup_league": 2815434,
    "has_cup": true,
    "id": 314,
    "league_type": "s",
    "max_entries": null,
    "name": "Overall",
    "rank": null,
    "scoring": "c",
    "start_event": 1
  },
  "new_entries": {
    "has_next": false,
    "page": 1,
    "results": []
  },
  "standings": {
    "has_next": true,
    "page": 1586,
    "results": [
      {
        "club_badge_src": null,
        "entry": 7821427,
        "entry_name": "Me, Myself Ndiaye",
        "event_total": 59,
        "has_played": true,
        "id": 64267927,
        "last_rank": 85349,
        "player_name": "Dean Chapman",
        "rank": 79149,
        "rank_sort": 79251,
        "total": 2336
      },
      {
        "club_badge_src": null,
        "entry": 8169135,
        "entry_name": "dan",
        "event_total": 60,
        "has_played": true,
        "id": 67446486,
        "last_rank": 78440,
        "player_name": "Daniel McLellan",
        "rank": 79149,
        "rank_sort": 79252,
        "total": 2336
      },
      {
        "club_badge_src": null,
        "entry": 8834010,
        "entry_name": "yoro wizard harry",
        "event_total": 60,
        "has_played": true,
        "id": 73871666,
        "last_rank": 87710,
        "player_name": "Sarah Edwards",
        "rank": 79149,
        "rank_sort": 79253,
        "total": 2336
      },
      {
        "club_badge_src": null,
        "entry": 5635,
        "entry_name": "Gittens Kittens",
        "event_total": 52,
        "has_played": true,
        "id": 32146,
        "last_rank": 62724,
        "player_name": "Carwyn Jones",
        "rank": 79254,
        "rank_sort": 79254,
        "total": 2336
      },
      {
        "club_badge_src": "https://fantasy.premierleague.com/gcs/plfpl-production-adobe-approved/plfpl-production/20668/1a6152c5-d9c8-465a-8197-1ba72da42403.png",
        "entry": 20668,
        "entry_name": "General Milosov\u00edc",
        "event_total": 57,
        "has_played": true,
        "id": 129191,
        "last_rank": 80877,
        "player_name": "Nicholas Christodoulou",
        "rank": 79254,
        "rank_sort": 79255,
        "total": 2336
      },
      {
        "club_badge_src": null,
        "entry": 60704,
        "entry_name": "FC Mesth",
        "event_total": 50,
        "has_played": true,
        "id": 390835,
        "last_rank": 52357,
        "player_name": "Abdulla Mashroof",
        "rank": 79254,
        "rank_sort": 79256,
        "total": 2336
      },
      {
        "club_badge_src": null,
        "entry": 111061,
        "entry_name": "HangerHillMadHatters",
        "event_total": 62,
        "has_played": true,
        "id": 724252,
        "last_rank": 92471,
        "player_name": "Richard McCracken",
        "rank": 79254,
        "rank_sort": 79257,
        "total": 2336
      },
      {
        "club_badge_src": null,
        "entry": 170894,
        "entry_name": "BACKBENCHER",
        "event_total": 60,
        "has_played": true,
        "id": 1129022,
        "last_rank": 87710,
        "player_name": "Arthur Kamau",
        "rank": 79254,
        "rank_sort": 79258,
        "total": 2336
      },
      {
        "club_badge_src": null,
        "entry": 198228,
        "entry_name": "Raddz City",
        "event_total": 49,
        "has_played": true,
        "id": 1315464,
        "last_rank": 64508,
        "player_name": "Ben Adcock",
        "rank": 79254,
        "rank_sort": 79259,
        "total": 2336
      },
      {
        "club_badge_src": "https://fantasy.premierleague.com/gcs/plfpl-production-adobe-approved/plfpl-production/240988/3e3c45c0-18fa-4fb8-8213-272ab9fe4fbe.png",
        "entry": 240988,
        "entry_name": "Olympique Mayonnaise",
        "event_total": 57,
        "has_played": true,
        "id": 1603978,
        "last_rank": 72265,
        "player_name": "Ziyaad Rhyman",
        "rank": 79254,
        "rank_sort": 79260,
        "total": 2336
      },
      {
        "club_badge_src": null,
        "entry": 246845,
        "entry_name": "Bakkar",
        "event_total": 62,
        "has_played": true,
        "id": 1643251,
        "last_rank": 74166,
        "player_name": "Bak Kar",
        "rank": 79254,
        "rank_sort": 79261,
        "total": 2336
      },
      {
        "club_badge_src": "https://fantasy.premierleague.com/gcs/plfpl-production-adobe-approved/plfpl-production/281333/3c6bb49e-75a0-4ba3-b40c-04a95884cb6f.png",
        "entry": 281333,
        "entry_name": "GT TWIN-TURBO AMG FC",
        "event_total": 56,
        "has_played": true,
        "id": 1872149,
        "last_rank": 78671,
        "player_name": "Neil Davies-McKay",
        "rank": 79254,
        "rank_sort": 79262,
        "total": 2336
      },
      {
        "club_badge_src": "https://fantasy.premierleague.com/gcs/plfpl-production-adobe-approved/plfpl-production/389795/7949140f-da57-4d10-b255-0f7f98798c54.png",
        "entry": 389795,
        "entry_name": "Llabtoof Maet",
        "event_total": 61,
        "has_played": true,
        "id": 2614803,
        "last_rank": 80781,
        "player_name": "Andy Graves",
        "rank": 79254,
        "rank_sort": 79263,
        "total": 2336
      },
      {
        "club_badge_src": "https://fantasy.premierleague.com/gcs/plfpl-production-adobe-approved/plfpl-production/402147/149b986b-f3b3-4287-8946-ab29897d6f5a.png",
        "entry": 402147,
        "entry_name": "GGs Lucky 15",
        "event_total": 45,
        "has_played": true,
        "id": 2696508,
        "last_rank": 57515,
        "player_name": "Glen Gorman",
        "rank": 79254,
        "rank_sort": 79264,
        "total": 2336
      },
      {
        "club_badge_src": null,
        "entry": 405641,
        "entry_name": "Time will Tel",
        "event_total": 49,
        "has_played": true,
        "id": 2719649,
        "last_rank": 64508,
        "player_name": "Seb Ardiles",
        "rank": 79254,
        "rank_sort": 79265,
        "total": 2336
      },
      {
        "club_badge_src": null,
        "entry": 456083,
        "entry_name": "Last Danns",
        "event_total": 63,
        "has_played": true,
        "id": 3059815,
        "last_rank": 85349,
        "player_name": "zad boukhdoud",
        "rank": 79254,
        "rank_sort": 79266,
        "total": 2336
      },
      {
        "club_badge_src": "https://fantasy.premierleague.com/gcs/plfpl-production-adobe-approved/plfpl-production/499975/0a191010-8b8f-466d-a105-557dee39b93a.png",
        "entry": 499975,
        "entry_name": "Korsb\u00e5ndSchade",
        "event_total": 52,
        "has_played": true,
        "id": 3355492,
        "last_rank": 62724,
        "player_name": "Kristian Taraldsen",
        "rank": 79254,
        "rank_sort": 79267,
        "total": 2336
      },
      {
        "club_badge_src": null,
        "entry": 543218,
        "entry_name": "Kinder Mbeumo",
        "event_total": 46,
        "has_played": true,
        "id": 3655988,
        "last_rank": 59249,
        "player_name": "Chris Welch",
        "rank": 79254,
        "rank_sort": 79268,
        "total": 2336
      },
      {
        "club_badge_src": null,
        "entry": 575627,
        "entry_name": "Liam Delap Dancer",
        "event_total": 42,
        "has_played": true,
        "id": 3873581,
        "last_rank": 52522,
        "player_name": "Joe O-Sullivan",
        "rank": 79254,
        "rank_sort": 79269,
        "total": 2336
      },
      {
        "club_badge_src": null,
        "entry": 597372,
        "entry_name": "Nemesis",
        "event_total": 56,
        "has_played": true,
        "id": 4028338,
        "last_rank": 70183,
        "player_name": "Utkarsh Gupta",
        "rank": 79254,
        "rank_sort": 79270,
        "total": 2336
      },
      {
        "club_badge_src": null,
        "entry": 638546,
        "entry_name": "Jota's Slotters",
        "event_total": 68,
        "has_played": true,
        "id": 4315562,
        "last_rank": 97470,
        "player_name": "Parellin Naidoo",
        "rank": 79254,
        "rank_sort": 79271,
        "total": 2336
      },
      {
        "club_badge_src": null,
        "entry": 650227,
        "entry_name": "Standard L\u00fctten",
        "event_total": 51,
        "has_played": true,
        "id": 4394385,
        "last_rank": 53952,
        "player_name": "Boris Werhonik",
        "rank": 79254,
        "rank_sort": 79272,
        "total": 2336
      },
      {
        "club_badge_src": null,
        "entry": 713521,
        "entry_name": "im lost for wirtz",
        "event_total": 64,
        "has_played": true,
        "id": 4840601,
        "last_rank": 97597,
        "player_name": "Cayden Gribbin",
        "rank": 79254,
        "rank_sort": 79273,
        "total": 2336
      },
      {
        "club_badge_src": null,
        "entry": 785466,
        "entry_name": "Time to cook",
        "event_total": 60,
        "has_played": true,
        "id": 5367217,
        "last_rank": 87808,
        "player_name": "Chijioke Uba",
        "rank": 79254,
        "rank_sort": 79274,
        "total": 2336
      },
      {
        "club_badge_src": null,
        "entry": 824202,
        "entry_name": "Good Kid Amad City",
        "event_total": 66,
        "has_played": true,
        "id": 5644844,
        "last_rank": 92471,
        "player_name": "James Wightman",
        "rank": 79254,
        "rank_sort": 79275,
        "total": 2336
      },
      {
        "club_badge_src": null,
        "entry": 842334,
        "entry_name": "E SIR",
        "event_total": 69,
        "has_played": true,
        "id": 5771437,
        "last_rank": 110709,
        "player_name": "COAST WAVE",
        "rank": 79254,
        "rank_sort": 79276,
        "total": 2336
      },
      {
        "club_badge_src": null,
        "entry": 850068,
        "entry_name": "GGMU",
        "event_total": 71,
        "has_played": true,
        "id": 5826455,
        "last_rank": 84980,
        "player_name": "Zimraan Khan",
        "rank": 79254,
        "rank_sort": 79277,
        "total": 2336
      },
      {
        "club_badge_src": null,
        "entry": 955208,
        "entry_name": "cops and rogers",
        "event_total": 42,
        "has_played": true,
        "id": 6581494,
        "last_rank": 52522,
        "player_name": "Oscar Pickering",
        "rank": 79254,
        "rank_sort": 79278,
        "total": 2336
      },
      {
        "club_badge_src": "https://fantasy.premierleague.com/gcs/plfpl-production-adobe-approved/plfpl-production/1016063/4c69fbd2-d46c-42c9-9ce4-1947871217ab.png",
        "entry": 1016063,
        "entry_name": "Trigoria",
        "event_total": 99,
        "has_played": true,
        "id": 7029200,
        "last_rank": 154132,
        "player_name": "trigoria jedaida",
        "rank": 79254,
        "rank_sort": 79279,
        "total": 2336
      },
      {
        "club_badge_src": "https://fantasy.premierleague.com/gcs/plfpl-production-adobe-approved/plfpl-production/1019761/3ee7574d-4e53-4622-a846-cdca04a5987c.png",
        "entry": 1019761,
        "entry_name": "GarthieGooners",
        "event_total": 49,
        "has_played": true,
        "id": 7055155,
        "last_rank": 57451,
        "player_name": "Garieth Wade",
        "rank": 79254,
        "rank_sort": 79280,
        "total": 2336
      },
      {
        "club_badge_src": null,
        "entry": 1033871,
        "entry_name": "Wirtzual Insanity",
        "event_total": 61,
        "has_played": true,
        "id": 7154096,
        "last_rank": 71956,
        "player_name": "Jacob Sj\u00f6lin",
        "rank": 79254,
        "rank_sort": 79281,
        "total": 2336
      },
      {
        "club_badge_src": null,
        "entry": 1108515,
        "entry_name": "nosyajthing",
        "event_total": 64,
        "has_played": true,
        "id": 7678244,
        "last_rank": 97470,
        "player_name": "Jayson Teo",
        "rank": 79254,
        "rank_sort": 79282,
        "total": 2336
      },
      {
        "club_badge_src": "https://fantasy.premierleague.com/gcs/plfpl-production-adobe-approved/plfpl-production/1165892/bbd410e3-e40e-4006-bc8f-a22f33e9fbe1.png",
        "entry": 1165892,
        "entry_name": "Gyo Hard or Gyo Home",
        "event_total": 54,
        "has_played": true,
        "id": 8087684,
        "last_rank": 66296,
        "player_name": "Jeff Giocondi",
        "rank": 79254,
        "rank_sort": 79283,
        "total": 2336
      },
      {
        "club_badge_src": null,
        "entry": 1213484,
        "entry_name": "Too Sesko 4 my shirt",
        "event_total": 58,
        "has_played": true,
        "id": 8422839,
        "last_rank": 74317,
        "player_name": "Wayne Muchina",
        "rank": 79254,
        "rank_sort": 79284,
        "total": 2336
      },
      {
        "club_badge_src": null,
        "entry": 1216655,
        "entry_name": "Victor Moses Lawn",
        "event_total": 61,
        "has_played": true,
        "id": 8444811,
        "last_rank": 90158,
        "player_name": "Adam Jarman",
        "rank": 79254,
        "rank_sort": 79285,
        "total": 2336
      },
      {
        "club_badge_src": "https://fantasy.premierleague.com/gcs/plfpl-production-adobe-approved/plfpl-production/1448531/3a3e9a0f-9fc4-425e-865f-a49e794e7ef6.png",
        "entry": 1448531,
        "entry_name": "Poolights",
        "event_total": 40,
        "has_played": true,
        "id": 10093485,
        "last_rank": 49368,
        "player_name": "Torgeir N Berg",
        "rank": 79254,
        "rank_sort": 79286,
        "total": 2336
      },
      {
        "club_badge_src": null,
        "entry": 1483311,
        "entry_name": "\u0627\u0644\u0642\u0648\u0627\u062a \u0627\u0644\u062e\u0627\u0635\u0629 \u2734\ufe0f",
        "event_total": 34,
        "has_played": true,
        "id": 10343620,
        "last_rank": 40923,
        "player_name": "mohamed khair",
        "rank": 79254,
        "rank_sort": 79287,
        "total": 2336
      },
      {
        "club_badge_src": "https://fantasy.premierleague.com/gcs/plfpl-production-adobe-approved/plfpl-production/1489019/8c221241-28e4-4c64-a369-2ff998f9a647.png",
        "entry": 1489019,
        "entry_name": "Kinder Mbeumo",
        "event_total": 67,
        "has_played": true,
        "id": 10383650,
        "last_rank": 105264,
        "player_name": "Teo Hopeng",
        "rank": 79254,
        "rank_sort": 79288,
        "total": 2336
      },
      {
        "club_badge_src": null,
        "entry": 1530222,
        "entry_name": "Czarne charaktery",
        "event_total": 52,
        "has_played": true,
        "id": 10678318,
        "last_rank": 62724,
        "player_name": "Tomek Polak",
        "rank": 79254,
        "rank_sort": 79289,
        "total": 2336
      },
      {
        "club_badge_src": null,
        "entry": 1643523,
        "entry_name": "Don'tLookBackElanga",
        "event_total": 62,
        "has_played": true,
        "id": 11504901,
        "last_rank": 83018,
        "player_name": "Mark Chandler",
        "rank": 79254,
        "rank_sort": 79290,
        "total": 2336
      },
      {
        "club_badge_src": null,
        "entry": 1669628,
        "entry_name": "kjernekarer",
        "event_total": 62,
        "has_played": true,
        "id": 11689766,
        "last_rank": 83018,
        "player_name": "Jonathan Barikmo",
        "rank": 79254,
        "rank_sort": 79291,
        "total": 2336
      },
      {
        "club_badge_src": "https://fantasy.premierleague.com/gcs/plfpl-production-adobe-approved/plfpl-production/1743102/0dd5ee93-7d9f-466d-be32-8d9cd5559153.png",
        "entry": 1743102,
        "entry_name": "Kinder MBEUMO",
        "event_total": 60,
        "has_played": true,
        "id": 12230843,
        "last_rank": 87808,
        "player_name": "Rabbani Syamsudin",
        "rank": 79254,
        "rank_sort": 79292,
        "total": 2336
      },
      {
        "club_badge_src": null,
        "entry": 1863616,
        "entry_name": "Palestine",
        "event_total": 51,
        "has_played": true,
        "id": 13117140,
        "last_rank": 68294,
        "player_name": "Mostafa Shahin",
        "rank": 79254,
        "rank_sort": 79293,
        "total": 2336
      },
      {
        "club_badge_src": "https://fantasy.premierleague.com/gcs/plfpl-production-adobe-approved/plfpl-production/1913525/7bfb5675-30f1-4f6e-a374-0d08504c83e9.png",
        "entry": 1913525,
        "entry_name": "Barely Functional XI",
        "event_total": 71,
        "has_played": true,
        "id": 13491296,
        "last_rank": 105137,
        "player_name": "Kevin Sheppard",
        "rank": 79254,
        "rank_sort": 79294,
        "total": 2336
      },
      {
        "club_badge_src": null,
        "entry": 2191503,
        "entry_name": "ABO AL LAITH",
        "event_total": 70,
        "has_played": true,
        "id": 15591646,
        "last_rank": 113400,
        "player_name": "ibra what ev",
        "rank": 79254,
        "rank_sort": 79295,
        "total": 2336
      },
      {
        "club_badge_src": null,
        "entry": 2296006,
        "entry_name": "Inter Nalstrife 2025",
        "event_total": 49,
        "has_played": true,
        "id": 16375307,
        "last_rank": 64508,
        "player_name": "Stuart A'Hara",
        "rank": 79254,
        "rank_sort": 79296,
        "total": 2336
      },
      {
        "club_badge_src": "https://fantasy.premierleague.com/gcs/plfpl-production-adobe-approved/plfpl-production/2298026/bf38ac5f-083c-4663-97bf-a461c0e54198.png",
        "entry": 2298026,
        "entry_name": "Zealanders",
        "event_total": 79,
        "has_played": true,
        "id": 16390111,
        "last_rank": 141498,
        "player_name": "Gerry Campbell",
        "rank": 79254,
        "rank_sort": 79297,
        "total": 2336
      },
      {
        "club_badge_src": null,
        "entry": 2321857,
        "entry_name": "Net Six and Chill",
        "event_total": 47,
        "has_played": true,
        "id": 16563621,
        "last_rank": 60933,
        "player_name": "Carl McGuire",
        "rank": 79254,
        "rank_sort": 79298,
        "total": 2336
      },
      {
        "club_badge_src": null,
        "entry": 2358919,
        "entry_name": "Gone Frishing",
        "event_total": 53,
        "has_played": true,
        "id": 16834402,
        "last_rank": 72346,
        "player_name": "Daniel Frisch",
        "rank": 79254,
        "rank_sort": 79299,
        "total": 2336
      },
      {
        "club_badge_src": null,
        "entry": 2508172,
        "entry_name": "Akanji Believe It",
        "event_total": 57,
        "has_played": true,
        "id": 17962657,
        "last_rank": 80651,
        "player_name": "Michael Cullen",
        "rank": 79254,
        "rank_sort": 79300,
        "total": 2336
      }
    ]
  }
}