{
  "last_updated_data": "2026-05-24T23:28:17Z",
  "league": {
    "admin_entry": null,
    "closed": false,
    "code_privacy": "p",
    "created": "2025-07-20T23:14:33.933835Z",
    "cup_league": 2815434,
    "has_cup": true,
    "id": 314,
    "league_type": "s",
    "max_entries": null,
    "name": "Overall",
    "rank": null,
    "scoring": "c",
    "start_event": 1
  },
  "new_entries": {
    "has_next": false,
    "page": 1,
    "results": []
  },
  "standings": {
    "has_next": true,
    "page": 878,
    "results": [
      {
        "club_badge_src": null,
        "entry": 2720765,
        "entry_name": "Ferro FC",
        "event_total": 47,
        "has_played": true,
        "id": 19577843,
        "last_rank": 31747,
        "player_name": "Feras Gadmour",
        "rank": 43702,
        "rank_sort": 43851,
        "total": 2356
      },
      {
        "club_badge_src": "https://fantasy.premierleague.com/gcs/plfpl-production-adobe-approved/plfpl-production/2781706/34ab0850-cfda-49b9-8944-9ca7a873893f.png",
        "entry": 2781706,
        "entry_name": "ItsoKaybuddy",
        "event_total": 74,
        "has_played": true,
        "id": 20304651,
        "last_rank": 72815,
        "player_name": "Hristo Kirov",
        "rank": 43702,
        "rank_sort": 43852,
        "total": 2356
      },
      {
        "club_badge_src": null,
        "entry": 2808314,
        "entry_name": "NebeskoPlavi",
        "event_total": 53,
        "has_played": true,
        "id": 20510438,
        "last_rank": 39023,
        "player_name": "Emir Salihovi\u0107",
        "rank": 43702,
        "rank_sort": 43853,
        "total": 2356
      },
      {
        "club_badge_src": null,
        "entry": 2814203,
        "entry_name": "MCR XI",
        "event_total": 37,
        "has_played": true,
        "id": 20554989,
        "last_rank": 22685,
        "player_name": "Joe Williams",
        "rank": 43702,
        "rank_sort": 43854,
        "total": 2356
      },
      {
        "club_badge_src": "https://fantasy.premierleague.com/gcs/plfpl-production-adobe-approved/plfpl-production/2816126/675d2787-8dfd-4d17-8b52-178a7ab63ec4.png",
        "entry": 2816126,
        "entry_name": "2902",
        "event_total": 51,
        "has_played": true,
        "id": 20569504,
        "last_rank": 36348,
        "player_name": "Damir Haljilji",
        "rank": 43702,
        "rank_sort": 43855,
        "total": 2356
      },
      {
        "club_badge_src": null,
        "entry": 2837662,
        "entry_name": "forgot to screenshot",
        "event_total": 50,
        "has_played": true,
        "id": 20738212,
        "last_rank": 35166,
        "player_name": "Sean McCusker",
        "rank": 43702,
        "rank_sort": 43856,
        "total": 2356
      },
      {
        "club_badge_src": null,
        "entry": 2849491,
        "entry_name": "COYBIG",
        "event_total": 48,
        "has_played": true,
        "id": 20833410,
        "last_rank": 32751,
        "player_name": "James Walsh",
        "rank": 43702,
        "rank_sort": 43857,
        "total": 2356
      },
      {
        "club_badge_src": null,
        "entry": 2894851,
        "entry_name": "Spiidens Konsulter",
        "event_total": 57,
        "has_played": true,
        "id": 21209138,
        "last_rank": 43849,
        "player_name": "Erik Wid\u00e9n",
        "rank": 43702,
        "rank_sort": 43858,
        "total": 2356
      },
      {
        "club_badge_src": "https://fantasy.premierleague.com/gcs/plfpl-production-adobe-approved/plfpl-production/2916122/d1684860-1d58-44f8-9258-0794acc191de.png",
        "entry": 2916122,
        "entry_name": "Aiireza N17",
        "event_total": 63,
        "has_played": true,
        "id": 21374750,
        "last_rank": 52853,
        "player_name": "Reza Shah",
        "rank": 43702,
        "rank_sort": 43859,
        "total": 2356
      },
      {
        "club_badge_src": null,
        "entry": 2979254,
        "entry_name": "Rong Rende",
        "event_total": 77,
        "has_played": true,
        "id": 21903734,
        "last_rank": 79817,
        "player_name": "Murimi Ricky",
        "rank": 43702,
        "rank_sort": 43860,
        "total": 2356
      },
      {
        "club_badge_src": null,
        "entry": 2984809,
        "entry_name": "FFS FC",
        "event_total": 58,
        "has_played": true,
        "id": 21946955,
        "last_rank": 39816,
        "player_name": "Jacob Michie",
        "rank": 43702,
        "rank_sort": 43861,
        "total": 2356
      },
      {
        "club_badge_src": null,
        "entry": 2994614,
        "entry_name": "Tayls FC",
        "event_total": 63,
        "has_played": true,
        "id": 22025048,
        "last_rank": 52853,
        "player_name": "Luca Taylor",
        "rank": 43702,
        "rank_sort": 43862,
        "total": 2356
      },
      {
        "club_badge_src": null,
        "entry": 2998911,
        "entry_name": "McGillingham FC",
        "event_total": 62,
        "has_played": true,
        "id": 22057841,
        "last_rank": 51137,
        "player_name": "peter mcgill",
        "rank": 43702,
        "rank_sort": 43863,
        "total": 2356
      },
      {
        "club_badge_src": null,
        "entry": 3016198,
        "entry_name": "DHIA",
        "event_total": 66,
        "has_played": true,
        "id": 22190569,
        "last_rank": 58071,
        "player_name": "\u0636\u064a\u0627\u0621 \u0645\u062d\u0645\u062f",
        "rank": 43702,
        "rank_sort": 43864,
        "total": 2356
      },
      {
        "club_badge_src": null,
        "entry": 3058230,
        "entry_name": "Red Devils BG",
        "event_total": 60,
        "has_played": true,
        "id": 22515656,
        "last_rank": 48363,
        "player_name": "Aleksandar Alishahov",
        "rank": 43702,
        "rank_sort": 43865,
        "total": 2356
      },
      {
        "club_badge_src": "https://fantasy.premierleague.com/gcs/plfpl-production-adobe-approved/plfpl-production/3086831/fb52eb3e-cb0b-44d1-8101-e7ddd16be306.png",
        "entry": 3086831,
        "entry_name": "Ivers United",
        "event_total": 59,
        "has_played": true,
        "id": 22743224,
        "last_rank": 46839,
        "player_name": "Per Ivar Vinju",
        "rank": 43702,
        "rank_sort": 43866,
        "total": 2356
      },
      {
        "club_badge_src": null,
        "entry": 3123348,
        "entry_name": "Glory Days",
        "event_total": 63,
        "has_played": true,
        "id": 23049915,
        "last_rank": 52853,
        "player_name": "Jonathan Sexton",
        "rank": 43702,
        "rank_sort": 43867,
        "total": 2356
      },
      {
        "club_badge_src": "https://fantasy.premierleague.com/gcs/plfpl-production-adobe-approved/plfpl-production/3145601/a75d125d-b896-43b3-8dd4-9bb32caab2c3.png",
        "entry": 3145601,
        "entry_name": "Saints Fried Chicken",
        "event_total": 47,
        "has_played": true,
        "id": 23225693,
        "last_rank": 31620,
        "player_name": "Chris Bowry",
        "rank": 43702,
        "rank_sort": 43868,
        "total": 2356
      },
      {
        "club_badge_src": null,
        "entry": 3176042,
        "entry_name": "Hassan",
        "event_total": 65,
        "has_played": true,
        "id": 23467901,
        "last_rank": 56180,
        "player_name": "Hassane ElZein",
        "rank": 43702,
        "rank_sort": 43869,
        "total": 2356
      },
      {
        "club_badge_src": null,
        "entry": 3187923,
        "entry_name": "Percy's Elites",
        "event_total": 48,
        "has_played": true,
        "id": 23559264,
        "last_rank": 32751,
        "player_name": "Paul Olatunji",
        "rank": 43702,
        "rank_sort": 43870,
        "total": 2356
      },
      {
        "club_badge_src": null,
        "entry": 3227199,
        "entry_name": "OliOliOli OiOiOi",
        "event_total": 61,
        "has_played": true,
        "id": 23866414,
        "last_rank": 49880,
        "player_name": "Oliver McMurdo",
        "rank": 43702,
        "rank_sort": 43871,
        "total": 2356
      },
      {
        "club_badge_src": null,
        "entry": 3242383,
        "entry_name": "Club Dogrates",
        "event_total": 54,
        "has_played": true,
        "id": 23983964,
        "last_rank": 40036,
        "player_name": "Chikonzero Kankondo",
        "rank": 43702,
        "rank_sort": 43872,
        "total": 2356
      },
      {
        "club_badge_src": null,
        "entry": 3292861,
        "entry_name": "FC Vaduz",
        "event_total": 59,
        "has_played": true,
        "id": 24381835,
        "last_rank": 46660,
        "player_name": "Mark Allison",
        "rank": 43702,
        "rank_sort": 43873,
        "total": 2356
      },
      {
        "club_badge_src": null,
        "entry": 3309275,
        "entry_name": "The Bromley Bad Boys",
        "event_total": 71,
        "has_played": true,
        "id": 24516724,
        "last_rank": 66848,
        "player_name": "Clint Davies",
        "rank": 43702,
        "rank_sort": 43874,
        "total": 2356
      },
      {
        "club_badge_src": null,
        "entry": 3316780,
        "entry_name": "Not Really United",
        "event_total": 61,
        "has_played": true,
        "id": 24576430,
        "last_rank": 49880,
        "player_name": "Vegard Hillestad",
        "rank": 43702,
        "rank_sort": 43875,
        "total": 2356
      },
      {
        "club_badge_src": null,
        "entry": 3402803,
        "entry_name": "Minions at Work",
        "event_total": 41,
        "has_played": true,
        "id": 25266054,
        "last_rank": 25776,
        "player_name": "Anson Gomes",
        "rank": 43702,
        "rank_sort": 43876,
        "total": 2356
      },
      {
        "club_badge_src": null,
        "entry": 3420044,
        "entry_name": "Crystal Paldea",
        "event_total": 65,
        "has_played": true,
        "id": 25403764,
        "last_rank": 56180,
        "player_name": "Andrew Potter",
        "rank": 43702,
        "rank_sort": 43877,
        "total": 2356
      },
      {
        "club_badge_src": null,
        "entry": 3514625,
        "entry_name": "S.KORDY",
        "event_total": 63,
        "has_played": true,
        "id": 26152874,
        "last_rank": 52853,
        "player_name": "Seif el Kordy",
        "rank": 43702,
        "rank_sort": 43878,
        "total": 2356
      },
      {
        "club_badge_src": null,
        "entry": 3521361,
        "entry_name": "No m\u00f8rsy",
        "event_total": 58,
        "has_played": true,
        "id": 26205958,
        "last_rank": 45416,
        "player_name": "Per M\u00f8rstad",
        "rank": 43702,
        "rank_sort": 43879,
        "total": 2356
      },
      {
        "club_badge_src": null,
        "entry": 3541039,
        "entry_name": "Hardly Athletic",
        "event_total": 58,
        "has_played": true,
        "id": 26358266,
        "last_rank": 45416,
        "player_name": "Barry Little",
        "rank": 43702,
        "rank_sort": 43880,
        "total": 2356
      },
      {
        "club_badge_src": null,
        "entry": 3611629,
        "entry_name": "M-Al Buainain",
        "event_total": 64,
        "has_played": true,
        "id": 26904864,
        "last_rank": 54494,
        "player_name": "Mohammed Al-Buainain",
        "rank": 43702,
        "rank_sort": 43881,
        "total": 2356
      },
      {
        "club_badge_src": null,
        "entry": 3618513,
        "entry_name": "Zubi-Dubi-Doo",
        "event_total": 63,
        "has_played": true,
        "id": 26958449,
        "last_rank": 53023,
        "player_name": "Sim Chima",
        "rank": 43702,
        "rank_sort": 43882,
        "total": 2356
      },
      {
        "club_badge_src": "https://fantasy.premierleague.com/gcs/plfpl-production-adobe-approved/plfpl-production/3621014/6a07f3c4-e385-4406-9988-6169af0617ef.png",
        "entry": 3621014,
        "entry_name": "Dont look bak Elanga",
        "event_total": 45,
        "has_played": true,
        "id": 26978487,
        "last_rank": 29578,
        "player_name": "Matt Eadon",
        "rank": 43702,
        "rank_sort": 43883,
        "total": 2356
      },
      {
        "club_badge_src": "https://fantasy.premierleague.com/gcs/plfpl-production-adobe-approved/plfpl-production/3661693/dc4760ec-6bc4-4d4f-bb42-ae8cc838948f.png",
        "entry": 3661693,
        "entry_name": "J\u00f3sov\u00e9",
        "event_total": 50,
        "has_played": true,
        "id": 27305626,
        "last_rank": 35034,
        "player_name": "Josef Kub\u00edn",
        "rank": 43702,
        "rank_sort": 43884,
        "total": 2356
      },
      {
        "club_badge_src": null,
        "entry": 3709213,
        "entry_name": "evertony",
        "event_total": 53,
        "has_played": true,
        "id": 27677016,
        "last_rank": 38774,
        "player_name": "Sveinbj\u00f8rn Gudjonsson",
        "rank": 43702,
        "rank_sort": 43885,
        "total": 2356
      },
      {
        "club_badge_src": null,
        "entry": 3734492,
        "entry_name": "Guaranteed Gy\u00f6\u00e4ls",
        "event_total": 45,
        "has_played": true,
        "id": 27875385,
        "last_rank": 29578,
        "player_name": "David Hunter",
        "rank": 43702,
        "rank_sort": 43886,
        "total": 2356
      },
      {
        "club_badge_src": null,
        "entry": 3740046,
        "entry_name": "abdallalwayel",
        "event_total": 69,
        "has_played": true,
        "id": 27918579,
        "last_rank": 63201,
        "player_name": "Abdullah Alwayel",
        "rank": 43702,
        "rank_sort": 43887,
        "total": 2356
      },
      {
        "club_badge_src": null,
        "entry": 3747089,
        "entry_name": "NorfolknGood",
        "event_total": 32,
        "has_played": true,
        "id": 27972732,
        "last_rank": 18790,
        "player_name": "Paul Tilbury",
        "rank": 43702,
        "rank_sort": 43888,
        "total": 2356
      },
      {
        "club_badge_src": null,
        "entry": 3757305,
        "entry_name": "A Few Good Men",
        "event_total": 46,
        "has_played": true,
        "id": 28052694,
        "last_rank": 30536,
        "player_name": "Bilal Koubar",
        "rank": 43702,
        "rank_sort": 43889,
        "total": 2356
      },
      {
        "club_badge_src": null,
        "entry": 3825283,
        "entry_name": "Change Name",
        "event_total": 46,
        "has_played": true,
        "id": 28612391,
        "last_rank": 30727,
        "player_name": "Jamie Bellamy",
        "rank": 43702,
        "rank_sort": 43890,
        "total": 2356
      },
      {
        "club_badge_src": null,
        "entry": 3826935,
        "entry_name": "Albinho FC",
        "event_total": 41,
        "has_played": true,
        "id": 28625812,
        "last_rank": 25902,
        "player_name": "Albin Harris",
        "rank": 43702,
        "rank_sort": 43891,
        "total": 2356
      },
      {
        "club_badge_src": null,
        "entry": 3834910,
        "entry_name": "Macrae's Redeemers",
        "event_total": 58,
        "has_played": true,
        "id": 28692764,
        "last_rank": 45416,
        "player_name": "Jackson Macrae",
        "rank": 43702,
        "rank_sort": 43892,
        "total": 2356
      },
      {
        "club_badge_src": null,
        "entry": 3874399,
        "entry_name": "The Hammer",
        "event_total": 66,
        "has_played": true,
        "id": 29093132,
        "last_rank": 51220,
        "player_name": "Eddie Prideaux-Brune",
        "rank": 43702,
        "rank_sort": 43893,
        "total": 2356
      },
      {
        "club_badge_src": null,
        "entry": 3895148,
        "entry_name": "Livin' Saliba Loca",
        "event_total": 58,
        "has_played": true,
        "id": 29274364,
        "last_rank": 45252,
        "player_name": "Owen Jorge",
        "rank": 43702,
        "rank_sort": 43894,
        "total": 2356
      },
      {
        "club_badge_src": null,
        "entry": 3939530,
        "entry_name": "Jimmy Grimble's X1",
        "event_total": 66,
        "has_played": true,
        "id": 29634225,
        "last_rank": 57857,
        "player_name": "Austin Mc Cann",
        "rank": 43702,
        "rank_sort": 43895,
        "total": 2356
      },
      {
        "club_badge_src": null,
        "entry": 3966361,
        "entry_name": "Kaktus Team",
        "event_total": 69,
        "has_played": true,
        "id": 29845659,
        "last_rank": 63201,
        "player_name": "Danijel Pripelja\u0161",
        "rank": 43702,
        "rank_sort": 43896,
        "total": 2356
      },
      {
        "club_badge_src": null,
        "entry": 4028833,
        "entry_name": "Two Left Boots",
        "event_total": 42,
        "has_played": true,
        "id": 30371007,
        "last_rank": 26827,
        "player_name": "John Matthews",
        "rank": 43702,
        "rank_sort": 43897,
        "total": 2356
      },
      {
        "club_badge_src": "https://fantasy.premierleague.com/gcs/plfpl-production-adobe-approved/plfpl-production/4057267/324fbe64-f8b7-4891-8dc3-462b70c4043a.png",
        "entry": 4057267,
        "entry_name": "Neat FC",
        "event_total": 56,
        "has_played": true,
        "id": 30614506,
        "last_rank": 42506,
        "player_name": "Jordan Rooke",
        "rank": 43702,
        "rank_sort": 43898,
        "total": 2356
      },
      {
        "club_badge_src": null,
        "entry": 4123409,
        "entry_name": "Glory Glory Man U",
        "event_total": 60,
        "has_played": true,
        "id": 31153202,
        "last_rank": 48197,
        "player_name": "Johann Oberholzer",
        "rank": 43702,
        "rank_sort": 43899,
        "total": 2356
      },
      {
        "club_badge_src": null,
        "entry": 4240909,
        "entry_name": "Wirtz case scenario",
        "event_total": 68,
        "has_played": true,
        "id": 32141570,
        "last_rank": 61315,
        "player_name": "Leighton Sammans",
        "rank": 43702,
        "rank_sort": 43900,
        "total": 2356
      }
    ]
  }
}