{
  "last_updated_data": "2026-05-24T23:28:17Z",
  "league": {
    "admin_entry": null,
    "closed": false,
    "code_privacy": "p",
    "created": "2025-07-20T23:14:33.933835Z",
    "cup_league": 2815434,
    "has_cup": true,
    "id": 314,
    "league_type": "s",
    "max_entries": null,
    "name": "Overall",
    "rank": null,
    "scoring": "c",
    "start_event": 1
  },
  "new_entries": {
    "has_next": false,
    "page": 1,
    "results": []
  },
  "standings": {
    "has_next": true,
    "page": 384,
    "results": [
      {
        "club_badge_src": null,
        "entry": 5974044,
        "entry_name": "osmo dva",
        "event_total": 66,
        "has_played": true,
        "id": 47020619,
        "last_rank": 25776,
        "player_name": "Nikola Jovicic",
        "rank": 19111,
        "rank_sort": 19151,
        "total": 2381
      },
      {
        "club_badge_src": null,
        "entry": 6062221,
        "entry_name": "Perth rd Glory",
        "event_total": 54,
        "has_played": true,
        "id": 47845642,
        "last_rank": 16729,
        "player_name": "Patrick Healey",
        "rank": 19111,
        "rank_sort": 19152,
        "total": 2381
      },
      {
        "club_badge_src": null,
        "entry": 6097449,
        "entry_name": "The North Remembers",
        "event_total": 54,
        "has_played": true,
        "id": 48154121,
        "last_rank": 16807,
        "player_name": "Snehadeep Khot",
        "rank": 19111,
        "rank_sort": 19153,
        "total": 2381
      },
      {
        "club_badge_src": null,
        "entry": 6305939,
        "entry_name": "Premiere Team",
        "event_total": 68,
        "has_played": true,
        "id": 50011439,
        "last_rank": 27564,
        "player_name": "Branislav Budz\u00e1k",
        "rank": 19111,
        "rank_sort": 19154,
        "total": 2381
      },
      {
        "club_badge_src": null,
        "entry": 6321229,
        "entry_name": "Haaland Oates",
        "event_total": 74,
        "has_played": true,
        "id": 50198659,
        "last_rank": 33869,
        "player_name": "Malachy Mc Manus",
        "rank": 19111,
        "rank_sort": 19155,
        "total": 2381
      },
      {
        "club_badge_src": null,
        "entry": 6740730,
        "entry_name": "ctrl alt de ligt",
        "event_total": 72,
        "has_played": true,
        "id": 53957897,
        "last_rank": 31620,
        "player_name": "Darren Sheehan",
        "rank": 19111,
        "rank_sort": 19156,
        "total": 2381
      },
      {
        "club_badge_src": "https://fantasy.premierleague.com/gcs/plfpl-production-adobe-approved/plfpl-production/6835263/82f58c4a-f20e-4c85-b894-fd0afa7f63a4.png",
        "entry": 6835263,
        "entry_name": "Dukun Suntet",
        "event_total": 71,
        "has_played": true,
        "id": 54753607,
        "last_rank": 30536,
        "player_name": "Dukun Suntet",
        "rank": 19111,
        "rank_sort": 19157,
        "total": 2381
      },
      {
        "club_badge_src": null,
        "entry": 6994335,
        "entry_name": "San Paolo",
        "event_total": 86,
        "has_played": true,
        "id": 56150231,
        "last_rank": 49607,
        "player_name": "Martin DOSHEV",
        "rank": 19111,
        "rank_sort": 19158,
        "total": 2381
      },
      {
        "club_badge_src": null,
        "entry": 7037868,
        "entry_name": "Clark XI",
        "event_total": 64,
        "has_played": true,
        "id": 56576460,
        "last_rank": 23990,
        "player_name": "Ellis Clark",
        "rank": 19111,
        "rank_sort": 19159,
        "total": 2381
      },
      {
        "club_badge_src": null,
        "entry": 7044447,
        "entry_name": "Howe Rovers",
        "event_total": 77,
        "has_played": true,
        "id": 56641672,
        "last_rank": 37325,
        "player_name": "Thomas Howe",
        "rank": 19111,
        "rank_sort": 19160,
        "total": 2381
      },
      {
        "club_badge_src": null,
        "entry": 7207658,
        "entry_name": "scorpion",
        "event_total": 70,
        "has_played": true,
        "id": 58204353,
        "last_rank": 29495,
        "player_name": "ahmed abdelbaset",
        "rank": 19111,
        "rank_sort": 19161,
        "total": 2381
      },
      {
        "club_badge_src": null,
        "entry": 7423043,
        "entry_name": "Hans Bit On The Side",
        "event_total": 54,
        "has_played": true,
        "id": 60278808,
        "last_rank": 16807,
        "player_name": "Hannah Elcock",
        "rank": 19111,
        "rank_sort": 19162,
        "total": 2381
      },
      {
        "club_badge_src": "https://fantasy.premierleague.com/gcs/plfpl-production-adobe-approved/plfpl-production/7696190/e58f1242-cf93-4ee1-8e13-4c9c1c09d4e3.png",
        "entry": 7696190,
        "entry_name": "Iceb\u00f6rgs Grabbar",
        "event_total": 69,
        "has_played": true,
        "id": 63137200,
        "last_rank": 28546,
        "player_name": "Isak B\u00f6kberg",
        "rank": 19111,
        "rank_sort": 19163,
        "total": 2381
      },
      {
        "club_badge_src": null,
        "entry": 9110676,
        "entry_name": "Casino Romero",
        "event_total": 58,
        "has_played": true,
        "id": 76556134,
        "last_rank": 19544,
        "player_name": "Dominic Storey",
        "rank": 19111,
        "rank_sort": 19164,
        "total": 2381
      },
      {
        "club_badge_src": null,
        "entry": 9389323,
        "entry_name": "ianehnipoopoo.fc",
        "event_total": 52,
        "has_played": true,
        "id": 79271059,
        "last_rank": 15550,
        "player_name": "Ian Tay",
        "rank": 19111,
        "rank_sort": 19165,
        "total": 2381
      },
      {
        "club_badge_src": null,
        "entry": 2814,
        "entry_name": "The Goal Machine",
        "event_total": 57,
        "has_played": true,
        "id": 15816,
        "last_rank": 18691,
        "player_name": "Nick Gammons",
        "rank": 19166,
        "rank_sort": 19166,
        "total": 2381
      },
      {
        "club_badge_src": null,
        "entry": 3249,
        "entry_name": "Alisson Wonderland",
        "event_total": 67,
        "has_played": true,
        "id": 18356,
        "last_rank": 26827,
        "player_name": "Joe Hickey",
        "rank": 19166,
        "rank_sort": 19167,
        "total": 2381
      },
      {
        "club_badge_src": null,
        "entry": 4345,
        "entry_name": "Sole Destroyers",
        "event_total": 76,
        "has_played": true,
        "id": 24697,
        "last_rank": 36110,
        "player_name": "Matthew Pouncey",
        "rank": 19166,
        "rank_sort": 19168,
        "total": 2381
      },
      {
        "club_badge_src": null,
        "entry": 10715,
        "entry_name": "That's NumberHwang",
        "event_total": 51,
        "has_played": true,
        "id": 63458,
        "last_rank": 14926,
        "player_name": "Kieran Hennigan",
        "rank": 19166,
        "rank_sort": 19169,
        "total": 2381
      },
      {
        "club_badge_src": "https://fantasy.premierleague.com/gcs/plfpl-production-adobe-approved/plfpl-production/16149/872ff09d-d871-43cf-b391-78d310a8d87f.png",
        "entry": 16149,
        "entry_name": "How^I^MetYourPalmer",
        "event_total": 64,
        "has_played": true,
        "id": 99576,
        "last_rank": 24039,
        "player_name": "Petar Zelenika",
        "rank": 19166,
        "rank_sort": 19170,
        "total": 2381
      },
      {
        "club_badge_src": null,
        "entry": 20574,
        "entry_name": "Palindrome Palins",
        "event_total": 56,
        "has_played": true,
        "id": 128488,
        "last_rank": 18113,
        "player_name": "Nathan Johnson",
        "rank": 19166,
        "rank_sort": 19171,
        "total": 2381
      },
      {
        "club_badge_src": null,
        "entry": 20771,
        "entry_name": "RiktigtRakaR\u00f6rAB",
        "event_total": 45,
        "has_played": true,
        "id": 129922,
        "last_rank": 11642,
        "player_name": "Daniel Eriksson",
        "rank": 19166,
        "rank_sort": 19172,
        "total": 2381
      },
      {
        "club_badge_src": null,
        "entry": 21847,
        "entry_name": "Izanagi",
        "event_total": 71,
        "has_played": true,
        "id": 137057,
        "last_rank": 30727,
        "player_name": "Samuel Lalremruata",
        "rank": 19166,
        "rank_sort": 19173,
        "total": 2381
      },
      {
        "club_badge_src": null,
        "entry": 23564,
        "entry_name": "Emerylittlething",
        "event_total": 64,
        "has_played": true,
        "id": 148445,
        "last_rank": 24039,
        "player_name": "David Smullen",
        "rank": 19166,
        "rank_sort": 19174,
        "total": 2381
      },
      {
        "club_badge_src": "https://fantasy.premierleague.com/gcs/plfpl-production-adobe-approved/plfpl-production/34577/4f87fc78-f289-4a9a-a588-45e33099dd74.png",
        "entry": 34577,
        "entry_name": "Zubi Zubi doo",
        "event_total": 61,
        "has_played": true,
        "id": 220929,
        "last_rank": 21775,
        "player_name": "Yasin Baran",
        "rank": 19166,
        "rank_sort": 19175,
        "total": 2381
      },
      {
        "club_badge_src": null,
        "entry": 47045,
        "entry_name": "Portuguese Prince",
        "event_total": 66,
        "has_played": true,
        "id": 301670,
        "last_rank": 25729,
        "player_name": "Mike Stone",
        "rank": 19166,
        "rank_sort": 19176,
        "total": 2381
      },
      {
        "club_badge_src": null,
        "entry": 64023,
        "entry_name": "Isaktly",
        "event_total": 40,
        "has_played": true,
        "id": 413164,
        "last_rank": 9644,
        "player_name": "Sam H",
        "rank": 19166,
        "rank_sort": 19177,
        "total": 2381
      },
      {
        "club_badge_src": null,
        "entry": 74097,
        "entry_name": "Ekitike-taka",
        "event_total": 67,
        "has_played": true,
        "id": 481662,
        "last_rank": 26656,
        "player_name": "Archie C",
        "rank": 19166,
        "rank_sort": 19178,
        "total": 2381
      },
      {
        "club_badge_src": null,
        "entry": 76584,
        "entry_name": "Flabian Wirtzeler",
        "event_total": 53,
        "has_played": true,
        "id": 497843,
        "last_rank": 16062,
        "player_name": "Anil Abbas",
        "rank": 19166,
        "rank_sort": 19179,
        "total": 2381
      },
      {
        "club_badge_src": null,
        "entry": 103898,
        "entry_name": "Test",
        "event_total": 69,
        "has_played": true,
        "id": 677863,
        "last_rank": 28609,
        "player_name": "Sant Bhambra",
        "rank": 19166,
        "rank_sort": 19180,
        "total": 2381
      },
      {
        "club_badge_src": "https://fantasy.premierleague.com/gcs/plfpl-production-adobe-approved/plfpl-production/108486/93621dd4-6b58-466e-8171-afeed4561d71.png",
        "entry": 108486,
        "entry_name": "The biggest balls",
        "event_total": 62,
        "has_played": true,
        "id": 707297,
        "last_rank": 22534,
        "player_name": "Will Payne",
        "rank": 19166,
        "rank_sort": 19181,
        "total": 2381
      },
      {
        "club_badge_src": null,
        "entry": 111161,
        "entry_name": "Mbuckets39",
        "event_total": 51,
        "has_played": true,
        "id": 724872,
        "last_rank": 14926,
        "player_name": "Marley Dwyer",
        "rank": 19166,
        "rank_sort": 19182,
        "total": 2381
      },
      {
        "club_badge_src": null,
        "entry": 118766,
        "entry_name": "Daegu Dragons FC",
        "event_total": 56,
        "has_played": true,
        "id": 775049,
        "last_rank": 18113,
        "player_name": "Leighton Owen",
        "rank": 19166,
        "rank_sort": 19183,
        "total": 2381
      },
      {
        "club_badge_src": null,
        "entry": 120389,
        "entry_name": "Under my Cucurella",
        "event_total": 69,
        "has_played": true,
        "id": 785512,
        "last_rank": 28726,
        "player_name": "Alfie Barness",
        "rank": 19166,
        "rank_sort": 19184,
        "total": 2381
      },
      {
        "club_badge_src": "https://fantasy.premierleague.com/gcs/plfpl-production-adobe-approved/plfpl-production/122208/ffb63dd4-00f8-40c7-8b5b-340472ab4608.png",
        "entry": 122208,
        "entry_name": "Debanjan Mukherjee",
        "event_total": 45,
        "has_played": true,
        "id": 797309,
        "last_rank": 11699,
        "player_name": "Debanjan Mukherjee",
        "rank": 19166,
        "rank_sort": 19185,
        "total": 2381
      },
      {
        "club_badge_src": null,
        "entry": 135517,
        "entry_name": "saud",
        "event_total": 64,
        "has_played": true,
        "id": 882441,
        "last_rank": 24039,
        "player_name": "\u0633\u0639\u0648\u062f \u0627\u0644\u0642\u062d\u0637\u0627\u0646\u064a",
        "rank": 19166,
        "rank_sort": 19186,
        "total": 2381
      },
      {
        "club_badge_src": "https://fantasy.premierleague.com/gcs/plfpl-production-adobe-approved/plfpl-production/137013/bc826681-57dd-4d74-921e-0eb7ab98e2d6.png",
        "entry": 137013,
        "entry_name": "Rubysm",
        "event_total": 57,
        "has_played": true,
        "id": 892810,
        "last_rank": 18691,
        "player_name": "Tachakorn Uengpaporn",
        "rank": 19166,
        "rank_sort": 19187,
        "total": 2381
      },
      {
        "club_badge_src": null,
        "entry": 146096,
        "entry_name": "Marnie\u2019s Madness",
        "event_total": 68,
        "has_played": true,
        "id": 956981,
        "last_rank": 27770,
        "player_name": "Julia Raven",
        "rank": 19166,
        "rank_sort": 19188,
        "total": 2381
      },
      {
        "club_badge_src": "https://fantasy.premierleague.com/gcs/plfpl-production-adobe-approved/plfpl-production/149352/4a40bcfe-6389-4ba3-92f0-d9c2dc5afd09.png",
        "entry": 149352,
        "entry_name": "Nyan club de f\u00fatbol",
        "event_total": 47,
        "has_played": true,
        "id": 979228,
        "last_rank": 12705,
        "player_name": "NyanKyaw Aung",
        "rank": 19166,
        "rank_sort": 19189,
        "total": 2381
      },
      {
        "club_badge_src": null,
        "entry": 157156,
        "entry_name": "Groinkickers FC",
        "event_total": 66,
        "has_played": true,
        "id": 1033771,
        "last_rank": 25729,
        "player_name": "Thomas Furset",
        "rank": 19166,
        "rank_sort": 19190,
        "total": 2381
      },
      {
        "club_badge_src": "https://fantasy.premierleague.com/gcs/plfpl-production-adobe-approved/plfpl-production/159626/a7d305bb-87c0-47fd-85cb-0c54096c0374.png",
        "entry": 159626,
        "entry_name": "13",
        "event_total": 57,
        "has_played": true,
        "id": 1050744,
        "last_rank": 18985,
        "player_name": "Abdullah Halawah",
        "rank": 19166,
        "rank_sort": 19191,
        "total": 2381
      },
      {
        "club_badge_src": null,
        "entry": 170305,
        "entry_name": "shush",
        "event_total": 60,
        "has_played": true,
        "id": 1125221,
        "last_rank": 20983,
        "player_name": "David Kelly",
        "rank": 19166,
        "rank_sort": 19192,
        "total": 2381
      },
      {
        "club_badge_src": null,
        "entry": 173188,
        "entry_name": "Gazzas Greats",
        "event_total": 68,
        "has_played": true,
        "id": 1143847,
        "last_rank": 27585,
        "player_name": "Gary Tucker",
        "rank": 19166,
        "rank_sort": 19193,
        "total": 2381
      },
      {
        "club_badge_src": null,
        "entry": 177911,
        "entry_name": "Yellow13",
        "event_total": 67,
        "has_played": true,
        "id": 1174208,
        "last_rank": 26656,
        "player_name": "David Cronly",
        "rank": 19166,
        "rank_sort": 19194,
        "total": 2381
      },
      {
        "club_badge_src": null,
        "entry": 192042,
        "entry_name": "Sporting Leeds",
        "event_total": 66,
        "has_played": true,
        "id": 1272228,
        "last_rank": 26088,
        "player_name": "Craig Leeds",
        "rank": 19166,
        "rank_sort": 19195,
        "total": 2381
      },
      {
        "club_badge_src": "https://fantasy.premierleague.com/gcs/plfpl-production-adobe-approved/plfpl-production/217745/c1dfb5bf-2b7c-41a9-8d59-855152f122c7.png",
        "entry": 217745,
        "entry_name": "Saka Rice",
        "event_total": 60,
        "has_played": true,
        "id": 1448050,
        "last_rank": 20888,
        "player_name": "Cliff Ward",
        "rank": 19166,
        "rank_sort": 19196,
        "total": 2381
      },
      {
        "club_badge_src": null,
        "entry": 218143,
        "entry_name": "Holloway Heads",
        "event_total": 76,
        "has_played": true,
        "id": 1450646,
        "last_rank": 36200,
        "player_name": "Tim Kelleher",
        "rank": 19166,
        "rank_sort": 19197,
        "total": 2381
      },
      {
        "club_badge_src": null,
        "entry": 232694,
        "entry_name": "M62 United",
        "event_total": 71,
        "has_played": true,
        "id": 1548229,
        "last_rank": 30536,
        "player_name": "S W",
        "rank": 19166,
        "rank_sort": 19198,
        "total": 2381
      },
      {
        "club_badge_src": null,
        "entry": 262807,
        "entry_name": "JT",
        "event_total": 65,
        "has_played": true,
        "id": 1747266,
        "last_rank": 25002,
        "player_name": "Jad El Tom",
        "rank": 19166,
        "rank_sort": 19199,
        "total": 2381
      },
      {
        "club_badge_src": "https://fantasy.premierleague.com/gcs/plfpl-production-adobe-approved/plfpl-production/274827/56c607b7-93d9-485f-99f4-40bffc2dddda.png",
        "entry": 274827,
        "entry_name": "Trigger Happy AFC",
        "event_total": 45,
        "has_played": true,
        "id": 1828797,
        "last_rank": 11699,
        "player_name": "-FPL Matthew",
        "rank": 19166,
        "rank_sort": 19200,
        "total": 2381
      }
    ]
  }
}