{
  "last_updated_data": "2026-05-24T23:28:17Z",
  "league": {
    "admin_entry": null,
    "closed": false,
    "code_privacy": "p",
    "created": "2025-07-20T23:14:33.933835Z",
    "cup_league": 2815434,
    "has_cup": true,
    "id": 314,
    "league_type": "s",
    "max_entries": null,
    "name": "Overall",
    "rank": null,
    "scoring": "c",
    "start_event": 1
  },
  "new_entries": {
    "has_next": false,
    "page": 1,
    "results": []
  },
  "standings": {
    "has_next": true,
    "page": 510,
    "results": [
      {
        "club_badge_src": null,
        "entry": 3871286,
        "entry_name": "Hell of a shrew on u",
        "event_total": 67,
        "has_played": true,
        "id": 29047384,
        "last_rank": 30536,
        "player_name": "Cameron Nicholas",
        "rank": 25299,
        "rank_sort": 25451,
        "total": 2373
      },
      {
        "club_badge_src": null,
        "entry": 3931965,
        "entry_name": "Ahmedgaballa. fc",
        "event_total": 63,
        "has_played": true,
        "id": 29572771,
        "last_rank": 30957,
        "player_name": "Ahmed M gaballa",
        "rank": 25299,
        "rank_sort": 25452,
        "total": 2373
      },
      {
        "club_badge_src": null,
        "entry": 4014972,
        "entry_name": "Cheeseham FC",
        "event_total": 46,
        "has_played": true,
        "id": 30255915,
        "last_rank": 16729,
        "player_name": "Henrik Karlsson",
        "rank": 25299,
        "rank_sort": 25453,
        "total": 2373
      },
      {
        "club_badge_src": null,
        "entry": 4090112,
        "entry_name": "OnTopOfTheHill",
        "event_total": 45,
        "has_played": true,
        "id": 30880511,
        "last_rank": 16163,
        "player_name": "Morten Werner",
        "rank": 25299,
        "rank_sort": 25454,
        "total": 2373
      },
      {
        "club_badge_src": "https://fantasy.premierleague.com/gcs/plfpl-production-adobe-approved/plfpl-production/4315844/240c808e-aa9c-4c10-bdf6-5edef8198189.png",
        "entry": 4315844,
        "entry_name": "The Third Rice",
        "event_total": 79,
        "has_played": true,
        "id": 32750683,
        "last_rank": 51137,
        "player_name": "Tom Blair",
        "rank": 25299,
        "rank_sort": 25455,
        "total": 2373
      },
      {
        "club_badge_src": null,
        "entry": 4424198,
        "entry_name": "Isak'd in the mornin",
        "event_total": 68,
        "has_played": true,
        "id": 33666956,
        "last_rank": 36200,
        "player_name": "George Kitchin",
        "rank": 25299,
        "rank_sort": 25456,
        "total": 2373
      },
      {
        "club_badge_src": null,
        "entry": 4437281,
        "entry_name": "Currywirtz",
        "event_total": 71,
        "has_played": true,
        "id": 33786319,
        "last_rank": 39816,
        "player_name": "Harry Carruthers",
        "rank": 25299,
        "rank_sort": 25457,
        "total": 2373
      },
      {
        "club_badge_src": "https://fantasy.premierleague.com/gcs/plfpl-production-adobe-approved/plfpl-production/4448393/6b01bdc9-38cd-4e55-8d4f-c0f4e0b911f5.png",
        "entry": 4448393,
        "entry_name": "D\u2019 Supremos",
        "event_total": 63,
        "has_played": true,
        "id": 33879613,
        "last_rank": 30727,
        "player_name": "Kelvin Egah",
        "rank": 25299,
        "rank_sort": 25458,
        "total": 2373
      },
      {
        "club_badge_src": null,
        "entry": 4462581,
        "entry_name": "Devil's n Dust",
        "event_total": 56,
        "has_played": true,
        "id": 33999572,
        "last_rank": 24143,
        "player_name": "Cormac O Ceallaigh",
        "rank": 25299,
        "rank_sort": 25459,
        "total": 2373
      },
      {
        "club_badge_src": "https://fantasy.premierleague.com/gcs/plfpl-production-adobe-approved/plfpl-production/4496193/eb52527e-75a4-42dd-a78c-744f02537725.png",
        "entry": 4496193,
        "entry_name": "H A N G O \ufffd",
        "event_total": 56,
        "has_played": true,
        "id": 34275279,
        "last_rank": 23990,
        "player_name": "Ahmed Hany",
        "rank": 25299,
        "rank_sort": 25460,
        "total": 2373
      },
      {
        "club_badge_src": null,
        "entry": 4529361,
        "entry_name": "ChickenTikka MoSalah",
        "event_total": 66,
        "has_played": true,
        "id": 34547654,
        "last_rank": 34051,
        "player_name": "Eimear Gilmartin",
        "rank": 25299,
        "rank_sort": 25461,
        "total": 2373
      },
      {
        "club_badge_src": null,
        "entry": 4558075,
        "entry_name": "Robertson",
        "event_total": 69,
        "has_played": true,
        "id": 34780679,
        "last_rank": 37435,
        "player_name": "Zach Robertson",
        "rank": 25299,
        "rank_sort": 25462,
        "total": 2373
      },
      {
        "club_badge_src": null,
        "entry": 4602364,
        "entry_name": "Sweet (H) Alabama \u2b50\ufe0f",
        "event_total": 55,
        "has_played": true,
        "id": 35159450,
        "last_rank": 23230,
        "player_name": "Eoin O Shea",
        "rank": 25299,
        "rank_sort": 25463,
        "total": 2373
      },
      {
        "club_badge_src": null,
        "entry": 4619703,
        "entry_name": "Noni Your Business",
        "event_total": 73,
        "has_played": true,
        "id": 35310507,
        "last_rank": 37435,
        "player_name": "Douglas Black",
        "rank": 25299,
        "rank_sort": 25464,
        "total": 2373
      },
      {
        "club_badge_src": "https://fantasy.premierleague.com/gcs/plfpl-production-adobe-approved/plfpl-production/4628167/59756472-f06d-416d-8cb3-0e6dbb032594.png",
        "entry": 4628167,
        "entry_name": "Mnk Punat",
        "event_total": 67,
        "has_played": true,
        "id": 35385495,
        "last_rank": 35166,
        "player_name": "Luka Karabai\u0107",
        "rank": 25299,
        "rank_sort": 25465,
        "total": 2373
      },
      {
        "club_badge_src": null,
        "entry": 4670758,
        "entry_name": "Ekitike Maxx",
        "event_total": 54,
        "has_played": true,
        "id": 35777719,
        "last_rank": 22534,
        "player_name": "Kieran Mckenna",
        "rank": 25299,
        "rank_sort": 25466,
        "total": 2373
      },
      {
        "club_badge_src": "https://fantasy.premierleague.com/gcs/plfpl-production-adobe-approved/plfpl-production/4683499/7b9185a8-0eb1-422e-9691-62019499ae5d.png",
        "entry": 4683499,
        "entry_name": "Sparta Saltsei",
        "event_total": 54,
        "has_played": true,
        "id": 35890052,
        "last_rank": 22534,
        "player_name": "Mikael Moritsen",
        "rank": 25299,
        "rank_sort": 25467,
        "total": 2373
      },
      {
        "club_badge_src": null,
        "entry": 4853936,
        "entry_name": "Kinder Mbeumo",
        "event_total": 69,
        "has_played": true,
        "id": 37399838,
        "last_rank": 37589,
        "player_name": "James Webster",
        "rank": 25299,
        "rank_sort": 25468,
        "total": 2373
      },
      {
        "club_badge_src": "https://fantasy.premierleague.com/gcs/plfpl-production-adobe-approved/plfpl-production/4860446/40a95e7e-6272-4045-becc-f1f624192463.png",
        "entry": 4860446,
        "entry_name": "Corn on the Kobbie",
        "event_total": 64,
        "has_played": true,
        "id": 37456017,
        "last_rank": 31747,
        "player_name": "Greg Weldon",
        "rank": 25299,
        "rank_sort": 25469,
        "total": 2373
      },
      {
        "club_badge_src": null,
        "entry": 4959721,
        "entry_name": "FC Barcelona",
        "event_total": 61,
        "has_played": true,
        "id": 38272963,
        "last_rank": 28726,
        "player_name": "Mehdi lahrach",
        "rank": 25299,
        "rank_sort": 25470,
        "total": 2373
      },
      {
        "club_badge_src": null,
        "entry": 5025362,
        "entry_name": "yyeungg",
        "event_total": 52,
        "has_played": true,
        "id": 38811840,
        "last_rank": 20983,
        "player_name": "\u6bd4\u5229 \u7f8a",
        "rank": 25299,
        "rank_sort": 25471,
        "total": 2373
      },
      {
        "club_badge_src": null,
        "entry": 5059510,
        "entry_name": "Kinder Mbeumo",
        "event_total": 59,
        "has_played": true,
        "id": 39095566,
        "last_rank": 26827,
        "player_name": "Dan Alder",
        "rank": 25299,
        "rank_sort": 25472,
        "total": 2373
      },
      {
        "club_badge_src": null,
        "entry": 5175027,
        "entry_name": "Jelini Ratnici",
        "event_total": 70,
        "has_played": true,
        "id": 40054556,
        "last_rank": 38644,
        "player_name": "Luka Jelavi\u0107",
        "rank": 25299,
        "rank_sort": 25473,
        "total": 2373
      },
      {
        "club_badge_src": "https://fantasy.premierleague.com/gcs/plfpl-production-adobe-approved/plfpl-production/5184356/0d9f8c6b-d381-400e-876a-f818837590c0.png",
        "entry": 5184356,
        "entry_name": "Diamondback Reds FC",
        "event_total": 50,
        "has_played": true,
        "id": 40131012,
        "last_rank": 19544,
        "player_name": "riyaz limbada",
        "rank": 25299,
        "rank_sort": 25474,
        "total": 2373
      },
      {
        "club_badge_src": null,
        "entry": 5249753,
        "entry_name": "\u09b9\u09bf\u09ae\u09c1 \u098f\u0995\u09be\u09a6\u09b6",
        "event_total": 69,
        "has_played": true,
        "id": 40686577,
        "last_rank": 37589,
        "player_name": "Md Nayon",
        "rank": 25299,
        "rank_sort": 25475,
        "total": 2373
      },
      {
        "club_badge_src": null,
        "entry": 5283962,
        "entry_name": "Saka potatoes",
        "event_total": 52,
        "has_played": true,
        "id": 40956584,
        "last_rank": 20983,
        "player_name": "Alfie Thompson",
        "rank": 25299,
        "rank_sort": 25476,
        "total": 2373
      },
      {
        "club_badge_src": null,
        "entry": 5314996,
        "entry_name": "Change Name",
        "event_total": 60,
        "has_played": true,
        "id": 41200016,
        "last_rank": 24039,
        "player_name": "Jamie Clark",
        "rank": 25299,
        "rank_sort": 25477,
        "total": 2373
      },
      {
        "club_badge_src": null,
        "entry": 5469161,
        "entry_name": "MB",
        "event_total": 47,
        "has_played": true,
        "id": 42567899,
        "last_rank": 17585,
        "player_name": "M B",
        "rank": 25299,
        "rank_sort": 25478,
        "total": 2373
      },
      {
        "club_badge_src": null,
        "entry": 5547671,
        "entry_name": "MCL Milan",
        "event_total": 68,
        "has_played": true,
        "id": 43294539,
        "last_rank": 36142,
        "player_name": "dylan hennessy",
        "rank": 25299,
        "rank_sort": 25479,
        "total": 2373
      },
      {
        "club_badge_src": null,
        "entry": 5621055,
        "entry_name": "Dan United",
        "event_total": 62,
        "has_played": true,
        "id": 43939798,
        "last_rank": 29688,
        "player_name": "Daniel Mansell-Murphy",
        "rank": 25299,
        "rank_sort": 25480,
        "total": 2373
      },
      {
        "club_badge_src": null,
        "entry": 5764047,
        "entry_name": "Lisan al-Gaib",
        "event_total": 63,
        "has_played": true,
        "id": 45186878,
        "last_rank": 30600,
        "player_name": "Eric Mathenge",
        "rank": 25299,
        "rank_sort": 25481,
        "total": 2373
      },
      {
        "club_badge_src": null,
        "entry": 5827626,
        "entry_name": "Iwobi wan Kenobi",
        "event_total": 62,
        "has_played": true,
        "id": 45737342,
        "last_rank": 29688,
        "player_name": "Theo Wakelin",
        "rank": 25299,
        "rank_sort": 25482,
        "total": 2373
      },
      {
        "club_badge_src": null,
        "entry": 5841908,
        "entry_name": "Half the World (a)",
        "event_total": 68,
        "has_played": true,
        "id": 45858999,
        "last_rank": 36348,
        "player_name": "Lewis Kincaid",
        "rank": 25299,
        "rank_sort": 25483,
        "total": 2373
      },
      {
        "club_badge_src": null,
        "entry": 6019641,
        "entry_name": "H-rsenal",
        "event_total": 54,
        "has_played": true,
        "id": 47473858,
        "last_rank": 22426,
        "player_name": "Michael Hendry",
        "rank": 25299,
        "rank_sort": 25484,
        "total": 2373
      },
      {
        "club_badge_src": null,
        "entry": 6128086,
        "entry_name": "Victore",
        "event_total": 75,
        "has_played": true,
        "id": 48420989,
        "last_rank": 45252,
        "player_name": "victor odia",
        "rank": 25299,
        "rank_sort": 25485,
        "total": 2373
      },
      {
        "club_badge_src": null,
        "entry": 6211351,
        "entry_name": "Isak-ly",
        "event_total": 54,
        "has_played": true,
        "id": 49143094,
        "last_rank": 22534,
        "player_name": "Gideon Rudolph",
        "rank": 25299,
        "rank_sort": 25486,
        "total": 2373
      },
      {
        "club_badge_src": null,
        "entry": 6212831,
        "entry_name": "Old Maidens 25",
        "event_total": 57,
        "has_played": true,
        "id": 49155606,
        "last_rank": 25002,
        "player_name": "Rob Atkinson",
        "rank": 25299,
        "rank_sort": 25487,
        "total": 2373
      },
      {
        "club_badge_src": null,
        "entry": 6287984,
        "entry_name": "It's Coming Holmes",
        "event_total": 53,
        "has_played": true,
        "id": 49814323,
        "last_rank": 21677,
        "player_name": "Holly Holmes",
        "rank": 25299,
        "rank_sort": 25488,
        "total": 2373
      },
      {
        "club_badge_src": "https://fantasy.premierleague.com/gcs/plfpl-production-adobe-approved/plfpl-production/6362210/967ee7fa-aba1-4576-a6f1-dfb8f1640ccc.png",
        "entry": 6362210,
        "entry_name": "All-In Maestro",
        "event_total": 75,
        "has_played": true,
        "id": 50586524,
        "last_rank": 45252,
        "player_name": "Johnny B",
        "rank": 25299,
        "rank_sort": 25489,
        "total": 2373
      },
      {
        "club_badge_src": null,
        "entry": 6492586,
        "entry_name": "Micks Machine",
        "event_total": 68,
        "has_played": true,
        "id": 51756382,
        "last_rank": 36348,
        "player_name": "Michael Delaney",
        "rank": 25299,
        "rank_sort": 25490,
        "total": 2373
      },
      {
        "club_badge_src": null,
        "entry": 6680845,
        "entry_name": "Dreggenham & Red FC",
        "event_total": 62,
        "has_played": true,
        "id": 53439942,
        "last_rank": 29688,
        "player_name": "Dag Audun Kjoersvik",
        "rank": 25299,
        "rank_sort": 25491,
        "total": 2373
      },
      {
        "club_badge_src": null,
        "entry": 6743443,
        "entry_name": "Diamond Dogs",
        "event_total": 58,
        "has_played": true,
        "id": 53981294,
        "last_rank": 25902,
        "player_name": "Karl Ford",
        "rank": 25299,
        "rank_sort": 25492,
        "total": 2373
      },
      {
        "club_badge_src": null,
        "entry": 6866817,
        "entry_name": "Claydog's Crew",
        "event_total": 55,
        "has_played": true,
        "id": 55023261,
        "last_rank": 23230,
        "player_name": "Clayton Barnett",
        "rank": 25299,
        "rank_sort": 25493,
        "total": 2373
      },
      {
        "club_badge_src": null,
        "entry": 6909657,
        "entry_name": "FC Avenida Jimenez",
        "event_total": 62,
        "has_played": true,
        "id": 55385203,
        "last_rank": 29688,
        "player_name": "Maria Luisa Rocca",
        "rank": 25299,
        "rank_sort": 25494,
        "total": 2373
      },
      {
        "club_badge_src": null,
        "entry": 6941216,
        "entry_name": "Unno iz-eZe",
        "event_total": 62,
        "has_played": true,
        "id": 55651490,
        "last_rank": 29578,
        "player_name": "Zjd Family",
        "rank": 25299,
        "rank_sort": 25495,
        "total": 2373
      },
      {
        "club_badge_src": null,
        "entry": 7138299,
        "entry_name": "Enzo's Elite",
        "event_total": 69,
        "has_played": true,
        "id": 57539362,
        "last_rank": 37435,
        "player_name": "Luke Chapman",
        "rank": 25299,
        "rank_sort": 25496,
        "total": 2373
      },
      {
        "club_badge_src": null,
        "entry": 7409410,
        "entry_name": "Slots Machines",
        "event_total": 39,
        "has_played": true,
        "id": 60109070,
        "last_rank": 12705,
        "player_name": "Kieran Malone",
        "rank": 25299,
        "rank_sort": 25497,
        "total": 2373
      },
      {
        "club_badge_src": null,
        "entry": 7416277,
        "entry_name": "Na Buachalli",
        "event_total": 64,
        "has_played": true,
        "id": 60199814,
        "last_rank": 31534,
        "player_name": "Michael O'Grady",
        "rank": 25299,
        "rank_sort": 25498,
        "total": 2373
      },
      {
        "club_badge_src": null,
        "entry": 7458589,
        "entry_name": "Galact!cos",
        "event_total": 60,
        "has_played": true,
        "id": 60746963,
        "last_rank": 27770,
        "player_name": "Daniel Vancek",
        "rank": 25299,
        "rank_sort": 25499,
        "total": 2373
      },
      {
        "club_badge_src": null,
        "entry": 7610902,
        "entry_name": "thunell",
        "event_total": 57,
        "has_played": true,
        "id": 62362839,
        "last_rank": 24897,
        "player_name": "oskar thunell",
        "rank": 25299,
        "rank_sort": 25500,
        "total": 2373
      }
    ]
  }
}