{
  "last_updated_data": "2026-05-24T23:28:17Z",
  "league": {
    "admin_entry": null,
    "closed": false,
    "code_privacy": "p",
    "created": "2025-07-20T23:14:33.933835Z",
    "cup_league": 2815434,
    "has_cup": true,
    "id": 314,
    "league_type": "s",
    "max_entries": null,
    "name": "Overall",
    "rank": null,
    "scoring": "c",
    "start_event": 1
  },
  "new_entries": {
    "has_next": false,
    "page": 1,
    "results": []
  },
  "standings": {
    "has_next": true,
    "page": 1536,
    "results": [
      {
        "club_badge_src": null,
        "entry": 1717390,
        "entry_name": "A.Q 85:45",
        "event_total": 63,
        "has_played": true,
        "id": 12035611,
        "last_rank": 82398,
        "player_name": "Abdallah Qureshi",
        "rank": 76638,
        "rank_sort": 76751,
        "total": 2337
      },
      {
        "club_badge_src": null,
        "entry": 1720744,
        "entry_name": "laithfc",
        "event_total": 68,
        "has_played": true,
        "id": 12060366,
        "last_rank": 103978,
        "player_name": "Laith Abbas",
        "rank": 76638,
        "rank_sort": 76752,
        "total": 2337
      },
      {
        "club_badge_src": null,
        "entry": 1732739,
        "entry_name": "That's Your Slot",
        "event_total": 50,
        "has_played": true,
        "id": 12154329,
        "last_rank": 64319,
        "player_name": "Leighton Gibby",
        "rank": 76638,
        "rank_sort": 76753,
        "total": 2337
      },
      {
        "club_badge_src": null,
        "entry": 1747585,
        "entry_name": "Aga8arxidis FC",
        "event_total": 67,
        "has_played": true,
        "id": 12263470,
        "last_rank": 91835,
        "player_name": "Yiannis Constantinou",
        "rank": 76638,
        "rank_sort": 76754,
        "total": 2337
      },
      {
        "club_badge_src": null,
        "entry": 1763364,
        "entry_name": "kom Saka den",
        "event_total": 54,
        "has_played": true,
        "id": 12382204,
        "last_rank": 71956,
        "player_name": "Ahmed Korkut",
        "rank": 76638,
        "rank_sort": 76755,
        "total": 2337
      },
      {
        "club_badge_src": null,
        "entry": 1772600,
        "entry_name": "Nasi Ayam FC",
        "event_total": 46,
        "has_played": true,
        "id": 12452223,
        "last_rank": 57001,
        "player_name": "Daly Max",
        "rank": 76638,
        "rank_sort": 76756,
        "total": 2337
      },
      {
        "club_badge_src": null,
        "entry": 1786759,
        "entry_name": "Walters Wanderers",
        "event_total": 59,
        "has_played": true,
        "id": 12554336,
        "last_rank": 73720,
        "player_name": "Michael Walters",
        "rank": 76638,
        "rank_sort": 76757,
        "total": 2337
      },
      {
        "club_badge_src": null,
        "entry": 1818741,
        "entry_name": "SL Hu",
        "event_total": 68,
        "has_played": true,
        "id": 12790344,
        "last_rank": 94255,
        "player_name": "Leon Hu",
        "rank": 76638,
        "rank_sort": 76758,
        "total": 2337
      },
      {
        "club_badge_src": null,
        "entry": 1928729,
        "entry_name": "Burning Embers",
        "event_total": 67,
        "has_played": true,
        "id": 13602770,
        "last_rank": 102125,
        "player_name": "Matt Birch",
        "rank": 76638,
        "rank_sort": 76759,
        "total": 2337
      },
      {
        "club_badge_src": null,
        "entry": 1969388,
        "entry_name": "FC CADDY",
        "event_total": 63,
        "has_played": true,
        "id": 13899215,
        "last_rank": 92126,
        "player_name": "Luka Kadijevi\u0107",
        "rank": 76638,
        "rank_sort": 76760,
        "total": 2337
      },
      {
        "club_badge_src": null,
        "entry": 2040548,
        "entry_name": "Mind Your Etikete",
        "event_total": 44,
        "has_played": true,
        "id": 14450219,
        "last_rank": 41324,
        "player_name": "Alexander Boukaras",
        "rank": 76638,
        "rank_sort": 76761,
        "total": 2337
      },
      {
        "club_badge_src": null,
        "entry": 2054876,
        "entry_name": "Mnzoo team",
        "event_total": 61,
        "has_played": true,
        "id": 14556249,
        "last_rank": 77676,
        "player_name": "- Mnzookic -",
        "rank": 76638,
        "rank_sort": 76762,
        "total": 2337
      },
      {
        "club_badge_src": "https://fantasy.premierleague.com/gcs/plfpl-production-adobe-approved/plfpl-production/2140587/c3ac3da8-8910-4b2a-9028-ada51e4c9c74.png",
        "entry": 2140587,
        "entry_name": "Zero's Hero's",
        "event_total": 72,
        "has_played": true,
        "id": 15213235,
        "last_rank": 115760,
        "player_name": "Rob Hopkins",
        "rank": 76638,
        "rank_sort": 76763,
        "total": 2337
      },
      {
        "club_badge_src": null,
        "entry": 2166927,
        "entry_name": "123rd",
        "event_total": 58,
        "has_played": true,
        "id": 15406131,
        "last_rank": 80465,
        "player_name": "Alistair Hague",
        "rank": 76638,
        "rank_sort": 76764,
        "total": 2337
      },
      {
        "club_badge_src": null,
        "entry": 2176398,
        "entry_name": "Nik's XI",
        "event_total": 59,
        "has_played": true,
        "id": 15476238,
        "last_rank": 82398,
        "player_name": "Nikki Tourani",
        "rank": 76638,
        "rank_sort": 76765,
        "total": 2337
      },
      {
        "club_badge_src": null,
        "entry": 2332321,
        "entry_name": "Glory Glory Man Utd",
        "event_total": 71,
        "has_played": true,
        "id": 16640877,
        "last_rank": 112169,
        "player_name": "Stephen Mackenzie",
        "rank": 76638,
        "rank_sort": 76766,
        "total": 2337
      },
      {
        "club_badge_src": "https://fantasy.premierleague.com/gcs/plfpl-production-adobe-approved/plfpl-production/2364599/f9b45047-4cea-4a4d-908c-f35e504e80ca.png",
        "entry": 2364599,
        "entry_name": "Laal Shaitaan",
        "event_total": 58,
        "has_played": true,
        "id": 16877759,
        "last_rank": 71386,
        "player_name": "Mukund Laddha",
        "rank": 76638,
        "rank_sort": 76767,
        "total": 2337
      },
      {
        "club_badge_src": null,
        "entry": 2469922,
        "entry_name": "Bilbao Nights",
        "event_total": 42,
        "has_played": true,
        "id": 17669242,
        "last_rank": 50635,
        "player_name": "Joseph Fallon",
        "rank": 76638,
        "rank_sort": 76768,
        "total": 2337
      },
      {
        "club_badge_src": "https://fantasy.premierleague.com/gcs/plfpl-production-adobe-approved/plfpl-production/2531347/3562c223-4dbe-46bd-8e92-cafc7b615895.png",
        "entry": 2531347,
        "entry_name": "\u2694\ufe0f Alahly Fc \u2694\ufe0f",
        "event_total": 49,
        "has_played": true,
        "id": 18139067,
        "last_rank": 55311,
        "player_name": "Amr Eleraky",
        "rank": 76638,
        "rank_sort": 76769,
        "total": 2337
      },
      {
        "club_badge_src": "https://fantasy.premierleague.com/gcs/plfpl-production-adobe-approved/plfpl-production/2642221/3d4a6e1e-c375-4a3e-82c9-7e57c31428dd.png",
        "entry": 2642221,
        "entry_name": "MILS UNITED",
        "event_total": 60,
        "has_played": true,
        "id": 18990609,
        "last_rank": 84980,
        "player_name": "Mas Unggul",
        "rank": 76638,
        "rank_sort": 76770,
        "total": 2337
      },
      {
        "club_badge_src": "https://fantasy.premierleague.com/gcs/plfpl-production-adobe-approved/plfpl-production/2675618/4a6f4bda-bb25-422b-954a-209ba2d0a759.png",
        "entry": 2675618,
        "entry_name": "OrangoTango",
        "event_total": 60,
        "has_played": true,
        "id": 19237746,
        "last_rank": 84731,
        "player_name": "Villiam Roth",
        "rank": 76638,
        "rank_sort": 76771,
        "total": 2337
      },
      {
        "club_badge_src": null,
        "entry": 2694054,
        "entry_name": "La Cucurella",
        "event_total": 63,
        "has_played": true,
        "id": 19378717,
        "last_rank": 92126,
        "player_name": "Miranda Crean",
        "rank": 76638,
        "rank_sort": 76772,
        "total": 2337
      },
      {
        "club_badge_src": null,
        "entry": 2707334,
        "entry_name": "Dave FC",
        "event_total": 65,
        "has_played": true,
        "id": 19478081,
        "last_rank": 97096,
        "player_name": "konyefa david",
        "rank": 76638,
        "rank_sort": 76773,
        "total": 2337
      },
      {
        "club_badge_src": null,
        "entry": 2730908,
        "entry_name": "Wirtz",
        "event_total": 64,
        "has_played": true,
        "id": 19652168,
        "last_rank": 94778,
        "player_name": "Mina Karam",
        "rank": 76638,
        "rank_sort": 76774,
        "total": 2337
      },
      {
        "club_badge_src": null,
        "entry": 2816653,
        "entry_name": "Mind The Gap",
        "event_total": 55,
        "has_played": true,
        "id": 20573423,
        "last_rank": 74166,
        "player_name": "Thomas Pagan",
        "rank": 76638,
        "rank_sort": 76775,
        "total": 2337
      },
      {
        "club_badge_src": null,
        "entry": 2819145,
        "entry_name": "The Anamoly",
        "event_total": 59,
        "has_played": true,
        "id": 20593872,
        "last_rank": 73720,
        "player_name": "Kabir Chandrasekar",
        "rank": 76638,
        "rank_sort": 76776,
        "total": 2337
      },
      {
        "club_badge_src": "https://fantasy.premierleague.com/gcs/plfpl-production-adobe-approved/plfpl-production/2848511/339dd77c-4b81-406d-86ea-3360807ef1df.png",
        "entry": 2848511,
        "entry_name": "Net Gain FC",
        "event_total": 50,
        "has_played": true,
        "id": 20825693,
        "last_rank": 64190,
        "player_name": "Ross Porter",
        "rank": 76638,
        "rank_sort": 76777,
        "total": 2337
      },
      {
        "club_badge_src": null,
        "entry": 2883432,
        "entry_name": "GixerGaz",
        "event_total": 63,
        "has_played": true,
        "id": 21108863,
        "last_rank": 92126,
        "player_name": "Garry Hall",
        "rank": 76638,
        "rank_sort": 76778,
        "total": 2337
      },
      {
        "club_badge_src": null,
        "entry": 2896889,
        "entry_name": "Tinq's squad",
        "event_total": 44,
        "has_played": true,
        "id": 21225572,
        "last_rank": 53837,
        "player_name": "Quentin Gaillard",
        "rank": 76638,
        "rank_sort": 76779,
        "total": 2337
      },
      {
        "club_badge_src": null,
        "entry": 2903643,
        "entry_name": "Jaguar Paw",
        "event_total": 50,
        "has_played": true,
        "id": 21279093,
        "last_rank": 64319,
        "player_name": "Ghambo Khufu",
        "rank": 76638,
        "rank_sort": 76780,
        "total": 2337
      },
      {
        "club_badge_src": "https://fantasy.premierleague.com/gcs/plfpl-production-adobe-approved/plfpl-production/2986948/0d83facd-4d47-4cf9-abbe-3e09e317b961.png",
        "entry": 2986948,
        "entry_name": "Deasons XI",
        "event_total": 32,
        "has_played": true,
        "id": 21963656,
        "last_rank": 32190,
        "player_name": "Harvey Deason",
        "rank": 76638,
        "rank_sort": 76781,
        "total": 2337
      },
      {
        "club_badge_src": null,
        "entry": 3011104,
        "entry_name": "Marine",
        "event_total": 65,
        "has_played": true,
        "id": 22151096,
        "last_rank": 96777,
        "player_name": "Abdulateef Abdulsalam",
        "rank": 76638,
        "rank_sort": 76782,
        "total": 2337
      },
      {
        "club_badge_src": null,
        "entry": 3016483,
        "entry_name": "Zubi Dooby Doo",
        "event_total": 71,
        "has_played": true,
        "id": 22192675,
        "last_rank": 112591,
        "player_name": "Toby Lawrence",
        "rank": 76638,
        "rank_sort": 76783,
        "total": 2337
      },
      {
        "club_badge_src": null,
        "entry": 3107794,
        "entry_name": "Benchwarmers",
        "event_total": 51,
        "has_played": true,
        "id": 22922852,
        "last_rank": 65796,
        "player_name": "Darren Cook",
        "rank": 76638,
        "rank_sort": 76784,
        "total": 2337
      },
      {
        "club_badge_src": null,
        "entry": 3117442,
        "entry_name": "A team city \u26bd\ufe0f",
        "event_total": 56,
        "has_played": true,
        "id": 23004731,
        "last_rank": 76330,
        "player_name": "Uppity FC",
        "rank": 76638,
        "rank_sort": 76785,
        "total": 2337
      },
      {
        "club_badge_src": null,
        "entry": 3119025,
        "entry_name": "Eleven",
        "event_total": 72,
        "has_played": true,
        "id": 23017147,
        "last_rank": 104388,
        "player_name": "Debray17 penjor",
        "rank": 76638,
        "rank_sort": 76786,
        "total": 2337
      },
      {
        "club_badge_src": null,
        "entry": 3244325,
        "entry_name": "Elmmby \u00a3",
        "event_total": 81,
        "has_played": true,
        "id": 23999776,
        "last_rank": 143804,
        "player_name": "Ali Alrsheedi",
        "rank": 76638,
        "rank_sort": 76787,
        "total": 2337
      },
      {
        "club_badge_src": null,
        "entry": 3330243,
        "entry_name": "Beef Cherki",
        "event_total": 57,
        "has_played": true,
        "id": 24691442,
        "last_rank": 77999,
        "player_name": "Howard Boyes",
        "rank": 76638,
        "rank_sort": 76788,
        "total": 2337
      },
      {
        "club_badge_src": "https://fantasy.premierleague.com/gcs/plfpl-production-adobe-approved/plfpl-production/3335721/9e9efbc7-0f65-432e-ba29-f8560c65c5e5.png",
        "entry": 3335721,
        "entry_name": "Slavonski slonovi",
        "event_total": 65,
        "has_played": true,
        "id": 24737917,
        "last_rank": 97305,
        "player_name": "Filip Lukenda",
        "rank": 76638,
        "rank_sort": 76789,
        "total": 2337
      },
      {
        "club_badge_src": null,
        "entry": 3336164,
        "entry_name": "Dilapidated Devils",
        "event_total": 64,
        "has_played": true,
        "id": 24741477,
        "last_rank": 94255,
        "player_name": "David Harrison",
        "rank": 76638,
        "rank_sort": 76790,
        "total": 2337
      },
      {
        "club_badge_src": null,
        "entry": 3364194,
        "entry_name": "NORTH LONDON 4 EVER",
        "event_total": 61,
        "has_played": true,
        "id": 24963359,
        "last_rank": 77999,
        "player_name": "Saleh Hero",
        "rank": 76638,
        "rank_sort": 76791,
        "total": 2337
      },
      {
        "club_badge_src": null,
        "entry": 3493002,
        "entry_name": "PALMS&HERDS",
        "event_total": 74,
        "has_played": true,
        "id": 25980639,
        "last_rank": 121383,
        "player_name": "Kenneth Edet",
        "rank": 76638,
        "rank_sort": 76792,
        "total": 2337
      },
      {
        "club_badge_src": null,
        "entry": 3523414,
        "entry_name": "Galacticos",
        "event_total": 58,
        "has_played": true,
        "id": 26221584,
        "last_rank": 71713,
        "player_name": "Tharun Nair",
        "rank": 76638,
        "rank_sort": 76793,
        "total": 2337
      },
      {
        "club_badge_src": "https://fantasy.premierleague.com/gcs/plfpl-production-adobe-approved/plfpl-production/3605805/05a29fd9-f6b3-4a22-bcd1-fe3529ac14a4.png",
        "entry": 3605805,
        "entry_name": "Amr07",
        "event_total": 63,
        "has_played": true,
        "id": 26858170,
        "last_rank": 82398,
        "player_name": "amr moftah",
        "rank": 76638,
        "rank_sort": 76794,
        "total": 2337
      },
      {
        "club_badge_src": null,
        "entry": 3627454,
        "entry_name": "TeaandToast",
        "event_total": 63,
        "has_played": true,
        "id": 27029452,
        "last_rank": 92126,
        "player_name": "Liz Wilkins",
        "rank": 76638,
        "rank_sort": 76795,
        "total": 2337
      },
      {
        "club_badge_src": null,
        "entry": 3704919,
        "entry_name": "AlAA",
        "event_total": 68,
        "has_played": true,
        "id": 27643865,
        "last_rank": 104712,
        "player_name": "alaa edin chouachi",
        "rank": 76638,
        "rank_sort": 76796,
        "total": 2337
      },
      {
        "club_badge_src": null,
        "entry": 3780947,
        "entry_name": "Howtospelllose",
        "event_total": 45,
        "has_played": true,
        "id": 28233067,
        "last_rank": 55514,
        "player_name": "Sumit Phichitphajongkij",
        "rank": 76638,
        "rank_sort": 76797,
        "total": 2337
      },
      {
        "club_badge_src": null,
        "entry": 3890982,
        "entry_name": "The Hamlets FC",
        "event_total": 51,
        "has_played": true,
        "id": 29239977,
        "last_rank": 66057,
        "player_name": "Reece Finnerty",
        "rank": 76638,
        "rank_sort": 76798,
        "total": 2337
      },
      {
        "club_badge_src": null,
        "entry": 4107450,
        "entry_name": "looney's 11",
        "event_total": 57,
        "has_played": true,
        "id": 31018949,
        "last_rank": 77999,
        "player_name": "Thomas Looney",
        "rank": 76638,
        "rank_sort": 76799,
        "total": 2337
      },
      {
        "club_badge_src": null,
        "entry": 4117920,
        "entry_name": "Change Name",
        "event_total": 43,
        "has_played": true,
        "id": 31108885,
        "last_rank": 52205,
        "player_name": "Ryan Dunn",
        "rank": 76638,
        "rank_sort": 76800,
        "total": 2337
      }
    ]
  }
}