{
  "last_updated_data": "2026-05-24T23:28:17Z",
  "league": {
    "admin_entry": null,
    "closed": false,
    "code_privacy": "p",
    "created": "2025-07-20T23:14:33.933835Z",
    "cup_league": 2815434,
    "has_cup": true,
    "id": 314,
    "league_type": "s",
    "max_entries": null,
    "name": "Overall",
    "rank": null,
    "scoring": "c",
    "start_event": 1
  },
  "new_entries": {
    "has_next": false,
    "page": 1,
    "results": []
  },
  "standings": {
    "has_next": true,
    "page": 891,
    "results": [
      {
        "club_badge_src": null,
        "entry": 6005408,
        "entry_name": "Murph11",
        "event_total": 64,
        "has_played": true,
        "id": 47346317,
        "last_rank": 55311,
        "player_name": "Steven murphy",
        "rank": 44391,
        "rank_sort": 44501,
        "total": 2356
      },
      {
        "club_badge_src": null,
        "entry": 6039546,
        "entry_name": "Helt tilfeldig",
        "event_total": 54,
        "has_played": true,
        "id": 47648844,
        "last_rank": 40647,
        "player_name": "Dag Waage Gausdal",
        "rank": 44391,
        "rank_sort": 44502,
        "total": 2356
      },
      {
        "club_badge_src": null,
        "entry": 6049499,
        "entry_name": "Crown Point X",
        "event_total": 68,
        "has_played": true,
        "id": 47735107,
        "last_rank": 55014,
        "player_name": "Abubakar Bakari",
        "rank": 44391,
        "rank_sort": 44503,
        "total": 2356
      },
      {
        "club_badge_src": null,
        "entry": 6269552,
        "entry_name": "Ayew Joking?",
        "event_total": 44,
        "has_played": true,
        "id": 49645052,
        "last_rank": 29199,
        "player_name": "Carwyn Owen",
        "rank": 44391,
        "rank_sort": 44504,
        "total": 2356
      },
      {
        "club_badge_src": null,
        "entry": 6377038,
        "entry_name": "Invincibles",
        "event_total": 59,
        "has_played": true,
        "id": 50716196,
        "last_rank": 47596,
        "player_name": "Christopher Michael",
        "rank": 44391,
        "rank_sort": 44505,
        "total": 2356
      },
      {
        "club_badge_src": null,
        "entry": 6380383,
        "entry_name": "Patri Dad",
        "event_total": 72,
        "has_played": true,
        "id": 50745436,
        "last_rank": 55014,
        "player_name": "Lazaros Patrinos",
        "rank": 44391,
        "rank_sort": 44506,
        "total": 2356
      },
      {
        "club_badge_src": "https://fantasy.premierleague.com/gcs/plfpl-production-adobe-approved/plfpl-production/6583675/8f1ecfa5-761c-4ff2-a00a-58a8377424aa.png",
        "entry": 6583675,
        "entry_name": "YASS.FC",
        "event_total": 59,
        "has_played": true,
        "id": 52576178,
        "last_rank": 41324,
        "player_name": "yasser sesko",
        "rank": 44391,
        "rank_sort": 44507,
        "total": 2356
      },
      {
        "club_badge_src": null,
        "entry": 6702632,
        "entry_name": "Panga Zako FC",
        "event_total": 65,
        "has_played": true,
        "id": 53631498,
        "last_rank": 50468,
        "player_name": "Mark Chinyamunyamu",
        "rank": 44391,
        "rank_sort": 44508,
        "total": 2356
      },
      {
        "club_badge_src": "https://fantasy.premierleague.com/gcs/plfpl-production-adobe-approved/plfpl-production/6767158/c93851a5-b9b8-462f-8652-c82882e05f6e.png",
        "entry": 6767158,
        "entry_name": "Party after Part\u00e9",
        "event_total": 62,
        "has_played": true,
        "id": 54183548,
        "last_rank": 51984,
        "player_name": "Don AMs",
        "rank": 44391,
        "rank_sort": 44509,
        "total": 2356
      },
      {
        "club_badge_src": "https://fantasy.premierleague.com/gcs/plfpl-production-adobe-approved/plfpl-production/6830997/10d6bbda-5eb0-48a0-84a1-1ac9dc03f5bd.png",
        "entry": 6830997,
        "entry_name": "Loke p\u00e5 toppen",
        "event_total": 77,
        "has_played": true,
        "id": 54716649,
        "last_rank": 80194,
        "player_name": "Lukas Mikkelsen",
        "rank": 44391,
        "rank_sort": 44510,
        "total": 2356
      },
      {
        "club_badge_src": null,
        "entry": 6986489,
        "entry_name": "Not Forest FC",
        "event_total": 59,
        "has_played": true,
        "id": 56078455,
        "last_rank": 47596,
        "player_name": "Thomas Hercock",
        "rank": 44391,
        "rank_sort": 44511,
        "total": 2356
      },
      {
        "club_badge_src": null,
        "entry": 7011133,
        "entry_name": "Gixa 11's",
        "event_total": 61,
        "has_played": true,
        "id": 56305423,
        "last_rank": 50468,
        "player_name": "Andrew Tunnicliffe",
        "rank": 44391,
        "rank_sort": 44512,
        "total": 2356
      },
      {
        "club_badge_src": "https://fantasy.premierleague.com/gcs/plfpl-production-adobe-approved/plfpl-production/7033020/346aaa9d-85eb-414f-b852-75ac27b96d68.png",
        "entry": 7033020,
        "entry_name": "Bruno Fadnavis",
        "event_total": 72,
        "has_played": true,
        "id": 56527052,
        "last_rank": 69641,
        "player_name": "Shezan Dhamodiwala",
        "rank": 44391,
        "rank_sort": 44513,
        "total": 2356
      },
      {
        "club_badge_src": null,
        "entry": 7117920,
        "entry_name": "Unbalebable like",
        "event_total": 59,
        "has_played": true,
        "id": 57346810,
        "last_rank": 36624,
        "player_name": "Michael O Connell",
        "rank": 44391,
        "rank_sort": 44514,
        "total": 2356
      },
      {
        "club_badge_src": null,
        "entry": 7354113,
        "entry_name": "The \u00d8degaards",
        "event_total": 77,
        "has_played": true,
        "id": 59586684,
        "last_rank": 80465,
        "player_name": "Nick Schultz",
        "rank": 44391,
        "rank_sort": 44515,
        "total": 2356
      },
      {
        "club_badge_src": "https://fantasy.premierleague.com/gcs/plfpl-production-adobe-approved/plfpl-production/7394949/5456421a-ff3b-4d7d-9a8c-b8bfe4dc02bb.png",
        "entry": 7394949,
        "entry_name": "Roy's Boys",
        "event_total": 59,
        "has_played": true,
        "id": 59966841,
        "last_rank": 47596,
        "player_name": "Avik Ray",
        "rank": 44391,
        "rank_sort": 44516,
        "total": 2356
      },
      {
        "club_badge_src": null,
        "entry": 7543554,
        "entry_name": "SJ_Ballers",
        "event_total": 66,
        "has_played": true,
        "id": 61753420,
        "last_rank": 58911,
        "player_name": "Sophie Blake",
        "rank": 44391,
        "rank_sort": 44517,
        "total": 2356
      },
      {
        "club_badge_src": null,
        "entry": 7665871,
        "entry_name": "Extra butter",
        "event_total": 56,
        "has_played": true,
        "id": 62862800,
        "last_rank": 43168,
        "player_name": "Karolina Wilson",
        "rank": 44391,
        "rank_sort": 44518,
        "total": 2356
      },
      {
        "club_badge_src": "https://fantasy.premierleague.com/gcs/plfpl-production-adobe-approved/plfpl-production/8175986/d2ba8478-608d-4ef8-b637-dda8792c0872.png",
        "entry": 8175986,
        "entry_name": "Peaky Reijnders",
        "event_total": 58,
        "has_played": true,
        "id": 67512664,
        "last_rank": 46106,
        "player_name": "Szymon Stanieczek",
        "rank": 44391,
        "rank_sort": 44519,
        "total": 2356
      },
      {
        "club_badge_src": null,
        "entry": 8324701,
        "entry_name": "N\u00f3mada",
        "event_total": 59,
        "has_played": true,
        "id": 68964324,
        "last_rank": 47417,
        "player_name": "Nathan A",
        "rank": 44391,
        "rank_sort": 44520,
        "total": 2356
      },
      {
        "club_badge_src": null,
        "entry": 8494197,
        "entry_name": "YesWeKant\u00e9",
        "event_total": 51,
        "has_played": true,
        "id": 70580758,
        "last_rank": 27976,
        "player_name": "Francois Schrurs",
        "rank": 44391,
        "rank_sort": 44521,
        "total": 2356
      },
      {
        "club_badge_src": "https://fantasy.premierleague.com/gcs/plfpl-production-adobe-approved/plfpl-production/8876144/a564503d-96c5-4480-8136-1b5cece884d9.png",
        "entry": 8876144,
        "entry_name": "WhiteRice",
        "event_total": 60,
        "has_played": true,
        "id": 74277601,
        "last_rank": 48898,
        "player_name": "Antonis Petrou",
        "rank": 44391,
        "rank_sort": 44522,
        "total": 2356
      },
      {
        "club_badge_src": "https://fantasy.premierleague.com/gcs/plfpl-production-adobe-approved/plfpl-production/9090565/b9a394c9-2c98-46ff-aca4-0ce149c12859.png",
        "entry": 9090565,
        "entry_name": "FalLInG aPArT",
        "event_total": 65,
        "has_played": true,
        "id": 76358687,
        "last_rank": 57200,
        "player_name": "Jonathan Gallucci",
        "rank": 44391,
        "rank_sort": 44523,
        "total": 2356
      },
      {
        "club_badge_src": null,
        "entry": 4255,
        "entry_name": "Ayew Shaw",
        "event_total": 72,
        "has_played": true,
        "id": 24162,
        "last_rank": 62429,
        "player_name": "Sandesh Khatiwada",
        "rank": 44524,
        "rank_sort": 44524,
        "total": 2356
      },
      {
        "club_badge_src": "https://fantasy.premierleague.com/gcs/plfpl-production-adobe-approved/plfpl-production/6910/0c1575c8-9197-4182-a137-383504a1ed73.png",
        "entry": 6910,
        "entry_name": "EverTon-y Abbots",
        "event_total": 60,
        "has_played": true,
        "id": 39762,
        "last_rank": 49207,
        "player_name": "James Irlam",
        "rank": 44524,
        "rank_sort": 44525,
        "total": 2356
      },
      {
        "club_badge_src": null,
        "entry": 13369,
        "entry_name": "Thank U Mr Marinakis",
        "event_total": 59,
        "has_played": true,
        "id": 80728,
        "last_rank": 47596,
        "player_name": "Thomas Sinnott",
        "rank": 44524,
        "rank_sort": 44526,
        "total": 2356
      },
      {
        "club_badge_src": null,
        "entry": 22482,
        "entry_name": "Joppe\u2019s kanoner",
        "event_total": 57,
        "has_played": true,
        "id": 141190,
        "last_rank": 44804,
        "player_name": "Joppe Gjelseth",
        "rank": 44524,
        "rank_sort": 44527,
        "total": 2356
      },
      {
        "club_badge_src": null,
        "entry": 28835,
        "entry_name": "Bingo Wingers",
        "event_total": 74,
        "has_played": true,
        "id": 182295,
        "last_rank": 74166,
        "player_name": "Simon Copeland",
        "rank": 44524,
        "rank_sort": 44528,
        "total": 2356
      },
      {
        "club_badge_src": null,
        "entry": 75824,
        "entry_name": "dmhomag",
        "event_total": 71,
        "has_played": true,
        "id": 492980,
        "last_rank": 60671,
        "player_name": "Desmond Ho",
        "rank": 44524,
        "rank_sort": 44529,
        "total": 2356
      },
      {
        "club_badge_src": null,
        "entry": 77644,
        "entry_name": "FC Albatros",
        "event_total": 71,
        "has_played": true,
        "id": 504685,
        "last_rank": 67926,
        "player_name": "Sebastian Dzierzkiewicz",
        "rank": 44524,
        "rank_sort": 44530,
        "total": 2356
      },
      {
        "club_badge_src": null,
        "entry": 82287,
        "entry_name": "GOHAN FC",
        "event_total": 67,
        "has_played": true,
        "id": 535412,
        "last_rank": 60671,
        "player_name": "ARISS IS",
        "rank": 44524,
        "rank_sort": 44531,
        "total": 2356
      },
      {
        "club_badge_src": null,
        "entry": 115001,
        "entry_name": "RoweFC",
        "event_total": 70,
        "has_played": true,
        "id": 750371,
        "last_rank": 58911,
        "player_name": "Aidan Rowe",
        "rank": 44524,
        "rank_sort": 44532,
        "total": 2356
      },
      {
        "club_badge_src": null,
        "entry": 124869,
        "entry_name": "Going on Amad one",
        "event_total": 64,
        "has_played": true,
        "id": 814418,
        "last_rank": 49078,
        "player_name": "Ben Wilks",
        "rank": 44524,
        "rank_sort": 44533,
        "total": 2356
      },
      {
        "club_badge_src": null,
        "entry": 139183,
        "entry_name": "Wirtz of Wisdom",
        "event_total": 58,
        "has_played": true,
        "id": 908284,
        "last_rank": 45927,
        "player_name": "Mark Fall",
        "rank": 44524,
        "rank_sort": 44534,
        "total": 2356
      },
      {
        "club_badge_src": null,
        "entry": 184799,
        "entry_name": "Baby Reijnders",
        "event_total": 66,
        "has_played": true,
        "id": 1220420,
        "last_rank": 58688,
        "player_name": "Steve Zartarian",
        "rank": 44524,
        "rank_sort": 44535,
        "total": 2356
      },
      {
        "club_badge_src": "https://fantasy.premierleague.com/gcs/plfpl-production-adobe-approved/plfpl-production/197518/043eb68c-34d3-409b-b9f1-cd7f5d7436ef.png",
        "entry": 197518,
        "entry_name": "Oklahomaspor \u2b50\ufe0f\u2b50\ufe0f",
        "event_total": 53,
        "has_played": true,
        "id": 1310565,
        "last_rank": 34458,
        "player_name": "Ilker Temeltas",
        "rank": 44524,
        "rank_sort": 44536,
        "total": 2356
      },
      {
        "club_badge_src": null,
        "entry": 201794,
        "entry_name": "Atl\u00e9tico Tomassi",
        "event_total": 63,
        "has_played": true,
        "id": 1339951,
        "last_rank": 53952,
        "player_name": "James Spence",
        "rank": 44524,
        "rank_sort": 44537,
        "total": 2356
      },
      {
        "club_badge_src": null,
        "entry": 213528,
        "entry_name": "Bas'Team",
        "event_total": 63,
        "has_played": true,
        "id": 1420444,
        "last_rank": 53952,
        "player_name": "Bastien Brandt",
        "rank": 44524,
        "rank_sort": 44538,
        "total": 2356
      },
      {
        "club_badge_src": null,
        "entry": 245881,
        "entry_name": "Myla Maulers",
        "event_total": 51,
        "has_played": true,
        "id": 1637080,
        "last_rank": 37058,
        "player_name": "James Fryer-Kelsey",
        "rank": 44524,
        "rank_sort": 44539,
        "total": 2356
      },
      {
        "club_badge_src": null,
        "entry": 307242,
        "entry_name": "Argyle DXB",
        "event_total": 46,
        "has_played": true,
        "id": 2057693,
        "last_rank": 31309,
        "player_name": "Joe Ives",
        "rank": 44524,
        "rank_sort": 44540,
        "total": 2356
      },
      {
        "club_badge_src": null,
        "entry": 329529,
        "entry_name": "Exit Liquidity",
        "event_total": 53,
        "has_played": true,
        "id": 2207393,
        "last_rank": 34458,
        "player_name": "Douglas Chia",
        "rank": 44524,
        "rank_sort": 44541,
        "total": 2356
      },
      {
        "club_badge_src": null,
        "entry": 329623,
        "entry_name": "Burgil Van Dijk",
        "event_total": 49,
        "has_played": true,
        "id": 2208015,
        "last_rank": 30191,
        "player_name": "Joshua Burgess",
        "rank": 44524,
        "rank_sort": 44542,
        "total": 2356
      },
      {
        "club_badge_src": null,
        "entry": 330868,
        "entry_name": "Gro\u00df Misconduct",
        "event_total": 49,
        "has_played": true,
        "id": 2216210,
        "last_rank": 30191,
        "player_name": "Justin Goodin",
        "rank": 44524,
        "rank_sort": 44543,
        "total": 2356
      },
      {
        "club_badge_src": "https://fantasy.premierleague.com/gcs/plfpl-production-adobe-approved/plfpl-production/372574/8eb427d9-a8c7-4ab2-b647-ef4848696f3b.png",
        "entry": 372574,
        "entry_name": "The ChrizzlyBears",
        "event_total": 60,
        "has_played": true,
        "id": 2492854,
        "last_rank": 49078,
        "player_name": "Christoffer Gundersen",
        "rank": 44524,
        "rank_sort": 44544,
        "total": 2356
      },
      {
        "club_badge_src": "https://fantasy.premierleague.com/gcs/plfpl-production-adobe-approved/plfpl-production/421166/4a79f683-e486-4681-9f73-0697628b0693.png",
        "entry": 421166,
        "entry_name": "Roy Of The Rovers",
        "event_total": 64,
        "has_played": true,
        "id": 2822480,
        "last_rank": 49078,
        "player_name": "Matty Roy",
        "rank": 44524,
        "rank_sort": 44545,
        "total": 2356
      },
      {
        "club_badge_src": null,
        "entry": 433961,
        "entry_name": "ChampionXI",
        "event_total": 56,
        "has_played": true,
        "id": 2910285,
        "last_rank": 43444,
        "player_name": "Harry Graham",
        "rank": 44524,
        "rank_sort": 44546,
        "total": 2356
      },
      {
        "club_badge_src": "https://fantasy.premierleague.com/gcs/plfpl-production-adobe-approved/plfpl-production/463796/a68fa563-e7db-4262-9789-56889fe20e2f.png",
        "entry": 463796,
        "entry_name": "Maeda in Heaven",
        "event_total": 47,
        "has_played": true,
        "id": 3111005,
        "last_rank": 32437,
        "player_name": "David Pyrkosz",
        "rank": 44524,
        "rank_sort": 44547,
        "total": 2356
      },
      {
        "club_badge_src": null,
        "entry": 466192,
        "entry_name": "Jball",
        "event_total": 66,
        "has_played": true,
        "id": 3127803,
        "last_rank": 59077,
        "player_name": "Jordan Thomas",
        "rank": 44524,
        "rank_sort": 44548,
        "total": 2356
      },
      {
        "club_badge_src": null,
        "entry": 473523,
        "entry_name": "The Real Beal",
        "event_total": 51,
        "has_played": true,
        "id": 3179016,
        "last_rank": 37058,
        "player_name": "Gary Beal",
        "rank": 44524,
        "rank_sort": 44549,
        "total": 2356
      },
      {
        "club_badge_src": null,
        "entry": 479618,
        "entry_name": "Nasty Lemak",
        "event_total": 69,
        "has_played": true,
        "id": 3219857,
        "last_rank": 64319,
        "player_name": "Vincent Tan",
        "rank": 44524,
        "rank_sort": 44550,
        "total": 2356
      }
    ]
  }
}