{
  "last_updated_data": "2026-05-24T23:28:17Z",
  "league": {
    "admin_entry": null,
    "closed": false,
    "code_privacy": "p",
    "created": "2025-07-20T23:14:33.933835Z",
    "cup_league": 2815434,
    "has_cup": true,
    "id": 314,
    "league_type": "s",
    "max_entries": null,
    "name": "Overall",
    "rank": null,
    "scoring": "c",
    "start_event": 1
  },
  "new_entries": {
    "has_next": false,
    "page": 1,
    "results": []
  },
  "standings": {
    "has_next": true,
    "page": 15,
    "results": [
      {
        "club_badge_src": null,
        "entry": 415941,
        "entry_name": "VAMANOS PEST",
        "event_total": 52,
        "has_played": true,
        "id": 2788332,
        "last_rank": 367,
        "player_name": "Liam Touhey",
        "rank": 701,
        "rank_sort": 701,
        "total": 2455
      },
      {
        "club_badge_src": null,
        "entry": 566445,
        "entry_name": "The StatesMen",
        "event_total": 58,
        "has_played": true,
        "id": 3812492,
        "last_rank": 503,
        "player_name": "Stephen Tate",
        "rank": 701,
        "rank_sort": 702,
        "total": 2455
      },
      {
        "club_badge_src": null,
        "entry": 906444,
        "entry_name": "\u7fd4\u7530\u5343\u91cc\u99ac",
        "event_total": 58,
        "has_played": true,
        "id": 6230772,
        "last_rank": 503,
        "player_name": "Jacky Wong",
        "rank": 701,
        "rank_sort": 703,
        "total": 2455
      },
      {
        "club_badge_src": null,
        "entry": 1417752,
        "entry_name": "Athletic Hillbao",
        "event_total": 75,
        "has_played": true,
        "id": 9871090,
        "last_rank": 1510,
        "player_name": "Thomas Hill",
        "rank": 701,
        "rank_sort": 704,
        "total": 2455
      },
      {
        "club_badge_src": null,
        "entry": 3070363,
        "entry_name": "LiveFastNdiayeYoung",
        "event_total": 73,
        "has_played": true,
        "id": 22608336,
        "last_rank": 1372,
        "player_name": "Dan UK",
        "rank": 701,
        "rank_sort": 705,
        "total": 2455
      },
      {
        "club_badge_src": null,
        "entry": 3571907,
        "entry_name": "MCA",
        "event_total": 59,
        "has_played": true,
        "id": 26596920,
        "last_rank": 665,
        "player_name": "merouane chikhi",
        "rank": 701,
        "rank_sort": 706,
        "total": 2455
      },
      {
        "club_badge_src": null,
        "entry": 4388614,
        "entry_name": "CHAT GPT FPL",
        "event_total": 58,
        "has_played": true,
        "id": 33360231,
        "last_rank": 503,
        "player_name": "Aaron Ramsdale",
        "rank": 701,
        "rank_sort": 707,
        "total": 2455
      },
      {
        "club_badge_src": null,
        "entry": 7324758,
        "entry_name": "KuluKudus FC",
        "event_total": 65,
        "has_played": true,
        "id": 59308917,
        "last_rank": 936,
        "player_name": "Mattias Karlsson",
        "rank": 701,
        "rank_sort": 708,
        "total": 2455
      },
      {
        "club_badge_src": null,
        "entry": 202520,
        "entry_name": "Trust The process",
        "event_total": 73,
        "has_played": true,
        "id": 1344960,
        "last_rank": 1394,
        "player_name": "Jakkse Mourinho",
        "rank": 709,
        "rank_sort": 709,
        "total": 2455
      },
      {
        "club_badge_src": null,
        "entry": 8100553,
        "entry_name": "PadelBergh",
        "event_total": 61,
        "has_played": true,
        "id": 66806476,
        "last_rank": 605,
        "player_name": "Christian Bergh",
        "rank": 709,
        "rank_sort": 710,
        "total": 2455
      },
      {
        "club_badge_src": "https://fantasy.premierleague.com/gcs/plfpl-production-adobe-approved/plfpl-production/2107827/ed0935cd-f1f0-4d59-b8ff-f3bbdcd7181b.png",
        "entry": 2107827,
        "entry_name": "yassine Bendaghor",
        "event_total": 75,
        "has_played": true,
        "id": 14959379,
        "last_rank": 1551,
        "player_name": "Yassine Bendaghor",
        "rank": 711,
        "rank_sort": 711,
        "total": 2455
      },
      {
        "club_badge_src": null,
        "entry": 2500773,
        "entry_name": "Hattrick FC",
        "event_total": 52,
        "has_played": true,
        "id": 17906386,
        "last_rank": 468,
        "player_name": "Viktor Olsson",
        "rank": 711,
        "rank_sort": 712,
        "total": 2455
      },
      {
        "club_badge_src": "https://fantasy.premierleague.com/gcs/plfpl-production-adobe-approved/plfpl-production/5438865/2cdd9761-f92a-464c-9c28-999b0e838fee.png",
        "entry": 5438865,
        "entry_name": "Lamine Halal",
        "event_total": 62,
        "has_played": true,
        "id": 42314785,
        "last_rank": 802,
        "player_name": "Arvene Crozet",
        "rank": 711,
        "rank_sort": 713,
        "total": 2455
      },
      {
        "club_badge_src": null,
        "entry": 8849367,
        "entry_name": "Jarrod corey",
        "event_total": 57,
        "has_played": true,
        "id": 74020436,
        "last_rank": 617,
        "player_name": "Jarrod Dunstone",
        "rank": 711,
        "rank_sort": 714,
        "total": 2455
      },
      {
        "club_badge_src": null,
        "entry": 124340,
        "entry_name": "Her\u00f3is do Bar",
        "event_total": 64,
        "has_played": true,
        "id": 811015,
        "last_rank": 733,
        "player_name": "Rodrigo Santos",
        "rank": 715,
        "rank_sort": 715,
        "total": 2455
      },
      {
        "club_badge_src": null,
        "entry": 930533,
        "entry_name": "Pedro's Dandies",
        "event_total": 59,
        "has_played": true,
        "id": 6402761,
        "last_rank": 550,
        "player_name": "Peter Anderson",
        "rank": 715,
        "rank_sort": 716,
        "total": 2455
      },
      {
        "club_badge_src": "https://fantasy.premierleague.com/gcs/plfpl-production-adobe-approved/plfpl-production/4713952/abc26bcd-ba20-4d71-bcc4-7d95cf5da3d0.png",
        "entry": 4713952,
        "entry_name": "Manchester is red",
        "event_total": 41,
        "has_played": true,
        "id": 36183240,
        "last_rank": 254,
        "player_name": "Agust\u00edn Marras",
        "rank": 715,
        "rank_sort": 717,
        "total": 2455
      },
      {
        "club_badge_src": "https://fantasy.premierleague.com/gcs/plfpl-production-adobe-approved/plfpl-production/294230/2b045b24-9be5-408e-8c19-a105b9df011b.png",
        "entry": 294230,
        "entry_name": "The Special One FT^2",
        "event_total": 70,
        "has_played": true,
        "id": 1964468,
        "last_rank": 1215,
        "player_name": "Freeman Tong",
        "rank": 718,
        "rank_sort": 718,
        "total": 2455
      },
      {
        "club_badge_src": null,
        "entry": 5121191,
        "entry_name": "Jack Grealish Honey",
        "event_total": 72,
        "has_played": true,
        "id": 39597033,
        "last_rank": 917,
        "player_name": "Radek Mach\u00e1\u0148",
        "rank": 719,
        "rank_sort": 719,
        "total": 2455
      },
      {
        "club_badge_src": null,
        "entry": 6356967,
        "entry_name": "Peaky Reijnders",
        "event_total": 64,
        "has_played": true,
        "id": 50540372,
        "last_rank": 919,
        "player_name": "Dylan Sinkins",
        "rank": 720,
        "rank_sort": 720,
        "total": 2454
      },
      {
        "club_badge_src": null,
        "entry": 7794020,
        "entry_name": "Br\u00f6sarp United",
        "event_total": 64,
        "has_played": true,
        "id": 64019604,
        "last_rank": 922,
        "player_name": "Matilda Williams",
        "rank": 721,
        "rank_sort": 721,
        "total": 2454
      },
      {
        "club_badge_src": null,
        "entry": 36712,
        "entry_name": "Gazza Dons",
        "event_total": 59,
        "has_played": true,
        "id": 235056,
        "last_rank": 704,
        "player_name": "Gary Cook",
        "rank": 722,
        "rank_sort": 722,
        "total": 2454
      },
      {
        "club_badge_src": null,
        "entry": 67573,
        "entry_name": "Cunha Touch Mbeumo?",
        "event_total": 64,
        "has_played": true,
        "id": 437524,
        "last_rank": 926,
        "player_name": "Angelo Michael Davies",
        "rank": 722,
        "rank_sort": 723,
        "total": 2454
      },
      {
        "club_badge_src": "https://fantasy.premierleague.com/gcs/plfpl-production-adobe-approved/plfpl-production/162613/1a355e02-d785-42c1-9077-6187bc5b770b.png",
        "entry": 162613,
        "entry_name": "Frantastics",
        "event_total": 56,
        "has_played": true,
        "id": 1072037,
        "last_rank": 594,
        "player_name": "Fredrik Persson",
        "rank": 722,
        "rank_sort": 724,
        "total": 2454
      },
      {
        "club_badge_src": null,
        "entry": 410400,
        "entry_name": "Pain in Dias",
        "event_total": 85,
        "has_played": true,
        "id": 2751798,
        "last_rank": 2651,
        "player_name": "Martin Bogaert",
        "rank": 722,
        "rank_sort": 725,
        "total": 2454
      },
      {
        "club_badge_src": null,
        "entry": 722991,
        "entry_name": "Islem Kochkach",
        "event_total": 65,
        "has_played": true,
        "id": 4910308,
        "last_rank": 980,
        "player_name": "Islem Kochkach",
        "rank": 722,
        "rank_sort": 726,
        "total": 2454
      },
      {
        "club_badge_src": null,
        "entry": 1446306,
        "entry_name": "Yeboah Constrictors",
        "event_total": 51,
        "has_played": true,
        "id": 10078192,
        "last_rank": 458,
        "player_name": "Keiran Summers",
        "rank": 722,
        "rank_sort": 727,
        "total": 2454
      },
      {
        "club_badge_src": null,
        "entry": 3471822,
        "entry_name": "Paqueta is Innocent",
        "event_total": 62,
        "has_played": true,
        "id": 25811276,
        "last_rank": 820,
        "player_name": "Oli Sturgess",
        "rank": 722,
        "rank_sort": 728,
        "total": 2454
      },
      {
        "club_badge_src": null,
        "entry": 3486529,
        "entry_name": "Goals & Chaos",
        "event_total": 57,
        "has_played": true,
        "id": 25928110,
        "last_rank": 626,
        "player_name": "Khaled Hussein",
        "rank": 722,
        "rank_sort": 729,
        "total": 2454
      },
      {
        "club_badge_src": null,
        "entry": 3917166,
        "entry_name": "ElinaL",
        "event_total": 63,
        "has_played": true,
        "id": 29454267,
        "last_rank": 879,
        "player_name": "Elina Larsson",
        "rank": 722,
        "rank_sort": 730,
        "total": 2454
      },
      {
        "club_badge_src": null,
        "entry": 4253708,
        "entry_name": "Ice Cold Palmer",
        "event_total": 59,
        "has_played": true,
        "id": 32247173,
        "last_rank": 723,
        "player_name": "Shane Beirne",
        "rank": 722,
        "rank_sort": 731,
        "total": 2454
      },
      {
        "club_badge_src": null,
        "entry": 8508211,
        "entry_name": "Baby Reijnders",
        "event_total": 57,
        "has_played": true,
        "id": 70716905,
        "last_rank": 633,
        "player_name": "George Ellis",
        "rank": 722,
        "rank_sort": 732,
        "total": 2454
      },
      {
        "club_badge_src": null,
        "entry": 8590547,
        "entry_name": "Florian Wirtzigo",
        "event_total": 78,
        "has_played": true,
        "id": 71506874,
        "last_rank": 1510,
        "player_name": "Suzanne Hussell",
        "rank": 722,
        "rank_sort": 733,
        "total": 2454
      },
      {
        "club_badge_src": null,
        "entry": 18044,
        "entry_name": "bernal fc",
        "event_total": 45,
        "has_played": true,
        "id": 112138,
        "last_rank": 328,
        "player_name": "Art Surdulli",
        "rank": 734,
        "rank_sort": 734,
        "total": 2454
      },
      {
        "club_badge_src": null,
        "entry": 646722,
        "entry_name": "Mobben",
        "event_total": 59,
        "has_played": true,
        "id": 4370568,
        "last_rank": 723,
        "player_name": "Fredrik Jarngren",
        "rank": 734,
        "rank_sort": 735,
        "total": 2454
      },
      {
        "club_badge_src": null,
        "entry": 1100994,
        "entry_name": "shoulda woulda cunha",
        "event_total": 67,
        "has_played": true,
        "id": 7626154,
        "last_rank": 1096,
        "player_name": "Chris Gill",
        "rank": 734,
        "rank_sort": 736,
        "total": 2454
      },
      {
        "club_badge_src": null,
        "entry": 1800419,
        "entry_name": "HenOffFC",
        "event_total": 58,
        "has_played": true,
        "id": 12654334,
        "last_rank": 682,
        "player_name": "Henry Offord",
        "rank": 734,
        "rank_sort": 737,
        "total": 2454
      },
      {
        "club_badge_src": null,
        "entry": 5147577,
        "entry_name": "Ballon d'Awson",
        "event_total": 65,
        "has_played": true,
        "id": 39823200,
        "last_rank": 980,
        "player_name": "Thomas Spicer",
        "rank": 734,
        "rank_sort": 738,
        "total": 2454
      },
      {
        "club_badge_src": "https://fantasy.premierleague.com/gcs/plfpl-production-adobe-approved/plfpl-production/883713/a0a375a0-21d6-417d-ae57-3a4480cc75f0.png",
        "entry": 883713,
        "entry_name": "socalledstars11",
        "event_total": 71,
        "has_played": true,
        "id": 6060555,
        "last_rank": 1302,
        "player_name": "pat len",
        "rank": 739,
        "rank_sort": 739,
        "total": 2454
      },
      {
        "club_badge_src": null,
        "entry": 461480,
        "entry_name": "FiFiFoden",
        "event_total": 75,
        "has_played": true,
        "id": 3095626,
        "last_rank": 1648,
        "player_name": "Finlay Haworth",
        "rank": 740,
        "rank_sort": 740,
        "total": 2454
      },
      {
        "club_badge_src": "https://fantasy.premierleague.com/gcs/plfpl-production-adobe-approved/plfpl-production/4858818/71e916de-a828-4c7f-b6d8-64754522785e.png",
        "entry": 4858818,
        "entry_name": "Stay Humble Eh!",
        "event_total": 82,
        "has_played": true,
        "id": 37441400,
        "last_rank": 2328,
        "player_name": "Alok Shrestha",
        "rank": 740,
        "rank_sort": 741,
        "total": 2454
      },
      {
        "club_badge_src": null,
        "entry": 6119188,
        "entry_name": "Winter Wondhaaland",
        "event_total": 59,
        "has_played": true,
        "id": 48343378,
        "last_rank": 727,
        "player_name": "Declan Manning",
        "rank": 740,
        "rank_sort": 742,
        "total": 2454
      },
      {
        "club_badge_src": "https://fantasy.premierleague.com/gcs/plfpl-production-adobe-approved/plfpl-production/6924405/d6f58115-8090-44ae-a9a3-2f247f763d80.png",
        "entry": 6924405,
        "entry_name": "eze skanking",
        "event_total": 56,
        "has_played": true,
        "id": 55508436,
        "last_rank": 617,
        "player_name": "rajiv sooklal",
        "rank": 740,
        "rank_sort": 743,
        "total": 2454
      },
      {
        "club_badge_src": null,
        "entry": 4663930,
        "entry_name": "Truffert Shuffle",
        "event_total": 53,
        "has_played": true,
        "id": 35721299,
        "last_rank": 524,
        "player_name": "James Buchan",
        "rank": 744,
        "rank_sort": 744,
        "total": 2454
      },
      {
        "club_badge_src": null,
        "entry": 7717403,
        "entry_name": "Evans Eleven",
        "event_total": 51,
        "has_played": true,
        "id": 63327491,
        "last_rank": 378,
        "player_name": "Evan Johnson",
        "rank": 744,
        "rank_sort": 745,
        "total": 2454
      },
      {
        "club_badge_src": null,
        "entry": 2142124,
        "entry_name": "Khalil",
        "event_total": 54,
        "has_played": true,
        "id": 15224421,
        "last_rank": 560,
        "player_name": "Ahmad Ali",
        "rank": 746,
        "rank_sort": 746,
        "total": 2454
      },
      {
        "club_badge_src": null,
        "entry": 6180771,
        "entry_name": "And Still...",
        "event_total": 64,
        "has_played": true,
        "id": 48878948,
        "last_rank": 617,
        "player_name": "Ochuko Efemuaye",
        "rank": 746,
        "rank_sort": 747,
        "total": 2454
      },
      {
        "club_badge_src": null,
        "entry": 268450,
        "entry_name": "Hacunha Matata",
        "event_total": 66,
        "has_played": true,
        "id": 1785881,
        "last_rank": 861,
        "player_name": "Tom Griffiths",
        "rank": 748,
        "rank_sort": 748,
        "total": 2454
      },
      {
        "club_badge_src": null,
        "entry": 19913,
        "entry_name": "Uganda be Kidding Me",
        "event_total": 59,
        "has_played": true,
        "id": 123943,
        "last_rank": 737,
        "player_name": "James Conroy",
        "rank": 749,
        "rank_sort": 749,
        "total": 2454
      },
      {
        "club_badge_src": null,
        "entry": 94512,
        "entry_name": "Toss My Salah",
        "event_total": 67,
        "has_played": true,
        "id": 617536,
        "last_rank": 1130,
        "player_name": "Yaron Blanc",
        "rank": 750,
        "rank_sort": 750,
        "total": 2453
      }
    ]
  }
}