{
  "last_updated_data": "2026-05-24T23:28:17Z",
  "league": {
    "admin_entry": null,
    "closed": false,
    "code_privacy": "p",
    "created": "2025-07-20T23:14:33.933835Z",
    "cup_league": 2815434,
    "has_cup": true,
    "id": 314,
    "league_type": "s",
    "max_entries": null,
    "name": "Overall",
    "rank": null,
    "scoring": "c",
    "start_event": 1
  },
  "new_entries": {
    "has_next": false,
    "page": 1,
    "results": []
  },
  "standings": {
    "has_next": true,
    "page": 1631,
    "results": [
      {
        "club_badge_src": null,
        "entry": 428239,
        "entry_name": "Harry\u2019s Thyroid",
        "event_total": 66,
        "has_played": true,
        "id": 2872336,
        "last_rank": 85349,
        "player_name": "Andy Reynolds",
        "rank": 81485,
        "rank_sort": 81501,
        "total": 2335
      },
      {
        "club_badge_src": null,
        "entry": 452787,
        "entry_name": "Kinder Mbeumo",
        "event_total": 59,
        "has_played": true,
        "id": 3037451,
        "last_rank": 87885,
        "player_name": "Levi Hobden",
        "rank": 81485,
        "rank_sort": 81502,
        "total": 2335
      },
      {
        "club_badge_src": null,
        "entry": 482799,
        "entry_name": "Warriors",
        "event_total": 59,
        "has_played": true,
        "id": 3241024,
        "last_rank": 87885,
        "player_name": "Mino ezz",
        "rank": 81485,
        "rank_sort": 81503,
        "total": 2335
      },
      {
        "club_badge_src": null,
        "entry": 528055,
        "entry_name": "UNSUCH MOVES",
        "event_total": 34,
        "has_played": true,
        "id": 3550046,
        "last_rank": 37189,
        "player_name": "Hassan Muhammad",
        "rank": 81485,
        "rank_sort": 81504,
        "total": 2335
      },
      {
        "club_badge_src": null,
        "entry": 533007,
        "entry_name": "Karim BETA",
        "event_total": 68,
        "has_played": true,
        "id": 3586031,
        "last_rank": 110813,
        "player_name": "Karim Nabil",
        "rank": 81485,
        "rank_sort": 81505,
        "total": 2335
      },
      {
        "club_badge_src": null,
        "entry": 781467,
        "entry_name": "Gangsters Allardyce",
        "event_total": 56,
        "has_played": true,
        "id": 5335324,
        "last_rank": 80965,
        "player_name": "Grant Darling",
        "rank": 81485,
        "rank_sort": 81506,
        "total": 2335
      },
      {
        "club_badge_src": "https://fantasy.premierleague.com/gcs/plfpl-production-adobe-approved/plfpl-production/833441/7f4ca60e-34ce-49df-b3bd-d9e128dcc7f2.png",
        "entry": 833441,
        "entry_name": "ELZARKA",
        "event_total": 37,
        "has_played": true,
        "id": 5708642,
        "last_rank": 46432,
        "player_name": "Ahmed Ali",
        "rank": 81485,
        "rank_sort": 81507,
        "total": 2335
      },
      {
        "club_badge_src": "https://fantasy.premierleague.com/gcs/plfpl-production-adobe-approved/plfpl-production/848413/62f116ea-e459-4f80-bc73-7517318fbf0a.png",
        "entry": 848413,
        "entry_name": "free palestine",
        "event_total": 64,
        "has_played": true,
        "id": 5814826,
        "last_rank": 100177,
        "player_name": "Mohamed Nadhir Terraoui ----",
        "rank": 81485,
        "rank_sort": 81508,
        "total": 2335
      },
      {
        "club_badge_src": null,
        "entry": 1039173,
        "entry_name": "Nureke Bakevich",
        "event_total": 52,
        "has_played": true,
        "id": 7191344,
        "last_rank": 72407,
        "player_name": "Nuri Kapyshev",
        "rank": 81485,
        "rank_sort": 81509,
        "total": 2335
      },
      {
        "club_badge_src": null,
        "entry": 1052181,
        "entry_name": "B4r1c4",
        "event_total": 67,
        "has_played": true,
        "id": 7281733,
        "last_rank": 108086,
        "player_name": "Mirko Petricek",
        "rank": 81485,
        "rank_sort": 81510,
        "total": 2335
      },
      {
        "club_badge_src": null,
        "entry": 1174175,
        "entry_name": "Frank'sCoulstonPress",
        "event_total": 73,
        "has_played": true,
        "id": 8146058,
        "last_rank": 125397,
        "player_name": "Dave Barr",
        "rank": 81485,
        "rank_sort": 81511,
        "total": 2335
      },
      {
        "club_badge_src": "https://fantasy.premierleague.com/gcs/plfpl-production-adobe-approved/plfpl-production/1327056/9c5197ce-3573-4713-87b7-674def261b0a.png",
        "entry": 1327056,
        "entry_name": "Legend",
        "event_total": 66,
        "has_played": true,
        "id": 9224235,
        "last_rank": 105370,
        "player_name": "Alfred Osas",
        "rank": 81485,
        "rank_sort": 81512,
        "total": 2335
      },
      {
        "club_badge_src": null,
        "entry": 1400254,
        "entry_name": "Almas's team",
        "event_total": 56,
        "has_played": true,
        "id": 9742143,
        "last_rank": 80877,
        "player_name": "Ahmed Almas",
        "rank": 81485,
        "rank_sort": 81513,
        "total": 2335
      },
      {
        "club_badge_src": null,
        "entry": 1569963,
        "entry_name": "ImTooSesko",
        "event_total": 62,
        "has_played": true,
        "id": 10968527,
        "last_rank": 95147,
        "player_name": "Daire Cunningham",
        "rank": 81485,
        "rank_sort": 81514,
        "total": 2335
      },
      {
        "club_badge_src": null,
        "entry": 1573714,
        "entry_name": "Acunha Matata",
        "event_total": 54,
        "has_played": true,
        "id": 10996389,
        "last_rank": 76638,
        "player_name": "Nolan Pillay",
        "rank": 81485,
        "rank_sort": 81515,
        "total": 2335
      },
      {
        "club_badge_src": "https://fantasy.premierleague.com/gcs/plfpl-production-adobe-approved/plfpl-production/1874317/00f1b0af-6ad6-456e-8851-a8e9cc0e0ea3.png",
        "entry": 1874317,
        "entry_name": "Goal-den Stars",
        "event_total": 66,
        "has_played": true,
        "id": 13196076,
        "last_rank": 95063,
        "player_name": "Talib Hussain",
        "rank": 81485,
        "rank_sort": 81516,
        "total": 2335
      },
      {
        "club_badge_src": null,
        "entry": 2074380,
        "entry_name": "Asy",
        "event_total": 43,
        "has_played": true,
        "id": 14707307,
        "last_rank": 55865,
        "player_name": "Mateusz Gliwicki",
        "rank": 81485,
        "rank_sort": 81517,
        "total": 2335
      },
      {
        "club_badge_src": null,
        "entry": 2253581,
        "entry_name": "Kinder Mbeumo",
        "event_total": 72,
        "has_played": true,
        "id": 16063760,
        "last_rank": 122344,
        "player_name": "Ryan Jones",
        "rank": 81485,
        "rank_sort": 81518,
        "total": 2335
      },
      {
        "club_badge_src": null,
        "entry": 2320111,
        "entry_name": "Abanoub",
        "event_total": 58,
        "has_played": true,
        "id": 16551076,
        "last_rank": 76574,
        "player_name": "Abanoub Barakat Abdelsaied",
        "rank": 81485,
        "rank_sort": 81519,
        "total": 2335
      },
      {
        "club_badge_src": null,
        "entry": 2404439,
        "entry_name": "Hantona Utd",
        "event_total": 50,
        "has_played": true,
        "id": 17185964,
        "last_rank": 68351,
        "player_name": "Patrick Ang",
        "rank": 81485,
        "rank_sort": 81520,
        "total": 2335
      },
      {
        "club_badge_src": null,
        "entry": 2659955,
        "entry_name": "Ultim8 11",
        "event_total": 85,
        "has_played": true,
        "id": 19120819,
        "last_rank": 166266,
        "player_name": "Parvez Hamdulay",
        "rank": 81485,
        "rank_sort": 81521,
        "total": 2335
      },
      {
        "club_badge_src": "https://fantasy.premierleague.com/gcs/plfpl-production-adobe-approved/plfpl-production/2665472/fddce374-15a4-443c-ab0d-06aac0544bd5.png",
        "entry": 2665472,
        "entry_name": "Procrastinators FC",
        "event_total": 56,
        "has_played": true,
        "id": 19161540,
        "last_rank": 64422,
        "player_name": "Mariale Divagando",
        "rank": 81485,
        "rank_sort": 81522,
        "total": 2335
      },
      {
        "club_badge_src": "https://fantasy.premierleague.com/gcs/plfpl-production-adobe-approved/plfpl-production/2690009/99283c24-8994-4666-993a-a04fccd26f0f.png",
        "entry": 2690009,
        "entry_name": "De Cuyper Security",
        "event_total": 80,
        "has_played": true,
        "id": 19348445,
        "last_rank": 134720,
        "player_name": "Ragnar Eri Christoffersen",
        "rank": 81485,
        "rank_sort": 81523,
        "total": 2335
      },
      {
        "club_badge_src": null,
        "entry": 3056268,
        "entry_name": "Salahmonella",
        "event_total": 70,
        "has_played": true,
        "id": 22500961,
        "last_rank": 116351,
        "player_name": "Hieu Do",
        "rank": 81485,
        "rank_sort": 81524,
        "total": 2335
      },
      {
        "club_badge_src": null,
        "entry": 3131933,
        "entry_name": "Heia Syril",
        "event_total": 54,
        "has_played": true,
        "id": 23117258,
        "last_rank": 76638,
        "player_name": "Arne R\u00f8ysum",
        "rank": 81485,
        "rank_sort": 81525,
        "total": 2335
      },
      {
        "club_badge_src": null,
        "entry": 3462043,
        "entry_name": "Marky Marc",
        "event_total": 70,
        "has_played": true,
        "id": 25734477,
        "last_rank": 104941,
        "player_name": "Marc Scicluna",
        "rank": 81485,
        "rank_sort": 81526,
        "total": 2335
      },
      {
        "club_badge_src": null,
        "entry": 3468011,
        "entry_name": "ZubiDubiDoo",
        "event_total": 56,
        "has_played": true,
        "id": 25781500,
        "last_rank": 72346,
        "player_name": "Arnav Khetawat",
        "rank": 81485,
        "rank_sort": 81527,
        "total": 2335
      },
      {
        "club_badge_src": null,
        "entry": 3674784,
        "entry_name": "Far rau\u00f8rn",
        "event_total": 52,
        "has_played": true,
        "id": 27407728,
        "last_rank": 64508,
        "player_name": "Alex Walle Jensen",
        "rank": 81485,
        "rank_sort": 81528,
        "total": 2335
      },
      {
        "club_badge_src": null,
        "entry": 3870660,
        "entry_name": "NevilleWearsPrada",
        "event_total": 62,
        "has_played": true,
        "id": 29039717,
        "last_rank": 85207,
        "player_name": "Chris Taylor",
        "rank": 81485,
        "rank_sort": 81529,
        "total": 2335
      },
      {
        "club_badge_src": null,
        "entry": 3938546,
        "entry_name": "Wirtz The Craic",
        "event_total": 58,
        "has_played": true,
        "id": 29626586,
        "last_rank": 85565,
        "player_name": "Daithi Colton",
        "rank": 81485,
        "rank_sort": 81530,
        "total": 2335
      },
      {
        "club_badge_src": null,
        "entry": 3984843,
        "entry_name": "Nico 11",
        "event_total": 67,
        "has_played": true,
        "id": 30000119,
        "last_rank": 97597,
        "player_name": "Nicholas Singh",
        "rank": 81485,
        "rank_sort": 81531,
        "total": 2335
      },
      {
        "club_badge_src": null,
        "entry": 3991289,
        "entry_name": "bouncing back",
        "event_total": 52,
        "has_played": true,
        "id": 30054044,
        "last_rank": 72407,
        "player_name": "Owen Neary",
        "rank": 81485,
        "rank_sort": 81532,
        "total": 2335
      },
      {
        "club_badge_src": null,
        "entry": 4122231,
        "entry_name": "ChampsElect",
        "event_total": 66,
        "has_played": true,
        "id": 31143525,
        "last_rank": 95063,
        "player_name": "mark beales",
        "rank": 81485,
        "rank_sort": 81533,
        "total": 2335
      },
      {
        "club_badge_src": null,
        "entry": 4164830,
        "entry_name": "Les H\u00e9ros du gazon",
        "event_total": 63,
        "has_played": true,
        "id": 31494349,
        "last_rank": 97687,
        "player_name": "Benoit van Swieten",
        "rank": 81485,
        "rank_sort": 81534,
        "total": 2335
      },
      {
        "club_badge_src": null,
        "entry": 4289520,
        "entry_name": "Olu Dara F.C",
        "event_total": 74,
        "has_played": true,
        "id": 32537221,
        "last_rank": 116351,
        "player_name": "Eddie Nas",
        "rank": 81485,
        "rank_sort": 81535,
        "total": 2335
      },
      {
        "club_badge_src": null,
        "entry": 4357530,
        "entry_name": "SaKaka",
        "event_total": 54,
        "has_played": true,
        "id": 33093885,
        "last_rank": 76638,
        "player_name": "Luke Wakefield",
        "rank": 81485,
        "rank_sort": 81536,
        "total": 2335
      },
      {
        "club_badge_src": null,
        "entry": 4564915,
        "entry_name": "All4u Club",
        "event_total": 41,
        "has_played": true,
        "id": 34835303,
        "last_rank": 52603,
        "player_name": "Marthin TEL",
        "rank": 81485,
        "rank_sort": 81537,
        "total": 2335
      },
      {
        "club_badge_src": null,
        "entry": 4971957,
        "entry_name": "HelloSailor",
        "event_total": 54,
        "has_played": true,
        "id": 38376549,
        "last_rank": 76638,
        "player_name": "Todd Elliott",
        "rank": 81485,
        "rank_sort": 81538,
        "total": 2335
      },
      {
        "club_badge_src": null,
        "entry": 5037719,
        "entry_name": "Bowen arrows",
        "event_total": 61,
        "has_played": true,
        "id": 38911786,
        "last_rank": 92602,
        "player_name": "haddy Nagib",
        "rank": 81485,
        "rank_sort": 81539,
        "total": 2335
      },
      {
        "club_badge_src": null,
        "entry": 5127087,
        "entry_name": "ThistimenxtyearRodri",
        "event_total": 64,
        "has_played": true,
        "id": 39649427,
        "last_rank": 90158,
        "player_name": "Wayne Parker",
        "rank": 81485,
        "rank_sort": 81540,
        "total": 2335
      },
      {
        "club_badge_src": null,
        "entry": 5735734,
        "entry_name": "Abu Ali",
        "event_total": 51,
        "has_played": true,
        "id": 44937624,
        "last_rank": 62812,
        "player_name": "Khalifa Al salmi",
        "rank": 81485,
        "rank_sort": 81541,
        "total": 2335
      },
      {
        "club_badge_src": null,
        "entry": 6617142,
        "entry_name": "Goal Getters",
        "event_total": 58,
        "has_played": true,
        "id": 52875349,
        "last_rank": 85565,
        "player_name": "Angela Shaw",
        "rank": 81485,
        "rank_sort": 81542,
        "total": 2335
      },
      {
        "club_badge_src": null,
        "entry": 6911873,
        "entry_name": "dahaa",
        "event_total": 84,
        "has_played": true,
        "id": 55403585,
        "last_rank": 134720,
        "player_name": "Hicham Bel aiachi",
        "rank": 81485,
        "rank_sort": 81543,
        "total": 2335
      },
      {
        "club_badge_src": null,
        "entry": 7022911,
        "entry_name": "Howe-ay the lads",
        "event_total": 61,
        "has_played": true,
        "id": 56415356,
        "last_rank": 92738,
        "player_name": "Robbie McMullen",
        "rank": 81485,
        "rank_sort": 81544,
        "total": 2335
      },
      {
        "club_badge_src": null,
        "entry": 7164571,
        "entry_name": "Dos Hofros",
        "event_total": 63,
        "has_played": true,
        "id": 57801330,
        "last_rank": 87808,
        "player_name": "Lucas Wallman",
        "rank": 81485,
        "rank_sort": 81545,
        "total": 2335
      },
      {
        "club_badge_src": null,
        "entry": 7835197,
        "entry_name": "Obafemi Clartins",
        "event_total": 58,
        "has_played": true,
        "id": 64394703,
        "last_rank": 68216,
        "player_name": "Sean Allen",
        "rank": 81485,
        "rank_sort": 81546,
        "total": 2335
      },
      {
        "club_badge_src": null,
        "entry": 8090253,
        "entry_name": "Toffs XI",
        "event_total": 57,
        "has_played": true,
        "id": 66709969,
        "last_rank": 83216,
        "player_name": "Tausif Bhanji",
        "rank": 81485,
        "rank_sort": 81547,
        "total": 2335
      },
      {
        "club_badge_src": "https://fantasy.premierleague.com/gcs/plfpl-production-adobe-approved/plfpl-production/8335306/d5bf385c-bcab-4162-b109-2de089c66961.png",
        "entry": 8335306,
        "entry_name": "Team Jab",
        "event_total": 60,
        "has_played": true,
        "id": 69064953,
        "last_rank": 80877,
        "player_name": "Nazarii Khaniak",
        "rank": 81485,
        "rank_sort": 81548,
        "total": 2335
      },
      {
        "club_badge_src": null,
        "entry": 9209397,
        "entry_name": "\u041c\u0430\u0436\u0430\u0440 Lazer x5",
        "event_total": 61,
        "has_played": true,
        "id": 77526930,
        "last_rank": 83127,
        "player_name": "BAGDAT KUANDYKOFF",
        "rank": 81485,
        "rank_sort": 81549,
        "total": 2335
      },
      {
        "club_badge_src": null,
        "entry": 227188,
        "entry_name": "Yaseen",
        "event_total": 71,
        "has_played": true,
        "id": 1511248,
        "last_rank": 97597,
        "player_name": "Random team",
        "rank": 81550,
        "rank_sort": 81550,
        "total": 2335
      }
    ]
  }
}