{
  "last_updated_data": "2026-05-24T23:28:17Z",
  "league": {
    "admin_entry": null,
    "closed": false,
    "code_privacy": "p",
    "created": "2025-07-20T23:14:33.933835Z",
    "cup_league": 2815434,
    "has_cup": true,
    "id": 314,
    "league_type": "s",
    "max_entries": null,
    "name": "Overall",
    "rank": null,
    "scoring": "c",
    "start_event": 1
  },
  "new_entries": {
    "has_next": false,
    "page": 1,
    "results": []
  },
  "standings": {
    "has_next": true,
    "page": 949,
    "results": [
      {
        "club_badge_src": null,
        "entry": 5591833,
        "entry_name": "Can't Get Any Wirtz",
        "event_total": 61,
        "has_played": true,
        "id": 43686071,
        "last_rank": 47596,
        "player_name": "Tom Byfield",
        "rank": 47321,
        "rank_sort": 47401,
        "total": 2354
      },
      {
        "club_badge_src": null,
        "entry": 5610276,
        "entry_name": "FC WeCanHasWin",
        "event_total": 60,
        "has_played": true,
        "id": 43845709,
        "last_rank": 52205,
        "player_name": "Aske Tobias J\u00f8rgensen",
        "rank": 47321,
        "rank_sort": 47402,
        "total": 2354
      },
      {
        "club_badge_src": "https://fantasy.premierleague.com/gcs/plfpl-production-adobe-approved/plfpl-production/5919869/051d3ff7-d152-4fd2-86e0-7bc5bbcde336.png",
        "entry": 5919869,
        "entry_name": "St. Roberts Santimaa",
        "event_total": 60,
        "has_played": true,
        "id": 46528860,
        "last_rank": 52205,
        "player_name": "Eliakim Ngao",
        "rank": 47321,
        "rank_sort": 47403,
        "total": 2354
      },
      {
        "club_badge_src": null,
        "entry": 6054212,
        "entry_name": "Rabagast FC",
        "event_total": 41,
        "has_played": true,
        "id": 47776200,
        "last_rank": 24570,
        "player_name": "Lars Helliksen",
        "rank": 47321,
        "rank_sort": 47404,
        "total": 2354
      },
      {
        "club_badge_src": null,
        "entry": 6110722,
        "entry_name": "QuincyPromes Rangers",
        "event_total": 60,
        "has_played": true,
        "id": 48269886,
        "last_rank": 52357,
        "player_name": "Alex Lindsay",
        "rank": 47321,
        "rank_sort": 47405,
        "total": 2354
      },
      {
        "club_badge_src": null,
        "entry": 6146084,
        "entry_name": "FC GONJA",
        "event_total": 56,
        "has_played": true,
        "id": 48578483,
        "last_rank": 46236,
        "player_name": "Jonah Kigz",
        "rank": 47321,
        "rank_sort": 47406,
        "total": 2354
      },
      {
        "club_badge_src": null,
        "entry": 6237704,
        "entry_name": "GOONEMO",
        "event_total": 49,
        "has_played": true,
        "id": 49369178,
        "last_rank": 32335,
        "player_name": "Christoffer Johansson",
        "rank": 47321,
        "rank_sort": 47407,
        "total": 2354
      },
      {
        "club_badge_src": null,
        "entry": 6807718,
        "entry_name": "Not Again.",
        "event_total": 52,
        "has_played": true,
        "id": 54520528,
        "last_rank": 35619,
        "player_name": "Orpheus Jones",
        "rank": 47321,
        "rank_sort": 47408,
        "total": 2354
      },
      {
        "club_badge_src": null,
        "entry": 7161669,
        "entry_name": "\u1112\u1161\u11b7\u110c\u1161",
        "event_total": 66,
        "has_played": true,
        "id": 57769849,
        "last_rank": 62223,
        "player_name": "Hamza Wakili",
        "rank": 47321,
        "rank_sort": 47409,
        "total": 2354
      },
      {
        "club_badge_src": null,
        "entry": 7761839,
        "entry_name": "Nomads",
        "event_total": 39,
        "has_played": true,
        "id": 63729770,
        "last_rank": 26425,
        "player_name": "Ronan Kelly",
        "rank": 47321,
        "rank_sort": 47410,
        "total": 2354
      },
      {
        "club_badge_src": "https://fantasy.premierleague.com/gcs/plfpl-production-adobe-approved/plfpl-production/7876088/0bccbc72-0438-4d0f-81c2-18d96bf3e57b.png",
        "entry": 7876088,
        "entry_name": "Penhurst Wanderers",
        "event_total": 66,
        "has_played": true,
        "id": 64768887,
        "last_rank": 62617,
        "player_name": "Adrian Dedecker",
        "rank": 47321,
        "rank_sort": 47411,
        "total": 2354
      },
      {
        "club_badge_src": null,
        "entry": 8066474,
        "entry_name": "ezwin",
        "event_total": 53,
        "has_played": true,
        "id": 66488831,
        "last_rank": 42081,
        "player_name": "Soham Singh",
        "rank": 47321,
        "rank_sort": 47412,
        "total": 2354
      },
      {
        "club_badge_src": "https://fantasy.premierleague.com/gcs/plfpl-production-adobe-approved/plfpl-production/8183141/f285ced0-23a3-45c3-8538-cbd5887328be.png",
        "entry": 8183141,
        "entry_name": "Goaladon United",
        "event_total": 60,
        "has_played": true,
        "id": 67580755,
        "last_rank": 52357,
        "player_name": "Ilia Lisin",
        "rank": 47321,
        "rank_sort": 47413,
        "total": 2354
      },
      {
        "club_badge_src": null,
        "entry": 8233835,
        "entry_name": "Wirtz Mo in town FAF",
        "event_total": 59,
        "has_played": true,
        "id": 68064343,
        "last_rank": 39246,
        "player_name": "L Patrick",
        "rank": 47321,
        "rank_sort": 47414,
        "total": 2354
      },
      {
        "club_badge_src": null,
        "entry": 8237516,
        "entry_name": "FC Jostiband",
        "event_total": 57,
        "has_played": true,
        "id": 68100007,
        "last_rank": 41967,
        "player_name": "Dinkelaar Milo",
        "rank": 47321,
        "rank_sort": 47415,
        "total": 2354
      },
      {
        "club_badge_src": null,
        "entry": 8494959,
        "entry_name": "G's  last minute utd",
        "event_total": 57,
        "has_played": true,
        "id": 70588398,
        "last_rank": 47722,
        "player_name": "Graeme Robertson",
        "rank": 47321,
        "rank_sort": 47416,
        "total": 2354
      },
      {
        "club_badge_src": null,
        "entry": 8526824,
        "entry_name": "Box",
        "event_total": 48,
        "has_played": true,
        "id": 70896584,
        "last_rank": 35926,
        "player_name": "Ahmed Abdelhamid",
        "rank": 47321,
        "rank_sort": 47417,
        "total": 2354
      },
      {
        "club_badge_src": "https://fantasy.premierleague.com/gcs/plfpl-production-adobe-approved/plfpl-production/9028299/16f2f3c0-f2cf-434b-938b-5f77b5b8a903.png",
        "entry": 9028299,
        "entry_name": "FC PikkuMyy",
        "event_total": 61,
        "has_played": true,
        "id": 75752830,
        "last_rank": 53952,
        "player_name": "Lisa Fremmerlid",
        "rank": 47321,
        "rank_sort": 47418,
        "total": 2354
      },
      {
        "club_badge_src": "https://fantasy.premierleague.com/gcs/plfpl-production-adobe-approved/plfpl-production/9326691/530c76a6-58fc-430a-af9f-ae6ffa6bf924.png",
        "entry": 9326691,
        "entry_name": "The Wenger Boys",
        "event_total": 77,
        "has_played": true,
        "id": 78665339,
        "last_rank": 75537,
        "player_name": "Sarah West",
        "rank": 47321,
        "rank_sort": 47419,
        "total": 2354
      },
      {
        "club_badge_src": null,
        "entry": 9440244,
        "entry_name": "Salah-bratory vibes",
        "event_total": 65,
        "has_played": true,
        "id": 79757483,
        "last_rank": 60827,
        "player_name": "Kritish Narraidoo",
        "rank": 47321,
        "rank_sort": 47420,
        "total": 2354
      },
      {
        "club_badge_src": null,
        "entry": 1804,
        "entry_name": "You've been Werned",
        "event_total": 72,
        "has_played": true,
        "id": 10046,
        "last_rank": 74317,
        "player_name": "Rahul Peter",
        "rank": 47421,
        "rank_sort": 47421,
        "total": 2354
      },
      {
        "club_badge_src": null,
        "entry": 2573,
        "entry_name": "Gy\u00f6k Tuah",
        "event_total": 73,
        "has_played": true,
        "id": 14364,
        "last_rank": 68107,
        "player_name": "Harrison Giles",
        "rank": 47421,
        "rank_sort": 47422,
        "total": 2354
      },
      {
        "club_badge_src": null,
        "entry": 5990,
        "entry_name": "AAsenal_thai",
        "event_total": 57,
        "has_played": true,
        "id": 34271,
        "last_rank": 36963,
        "player_name": "atthasit leksomboon",
        "rank": 47421,
        "rank_sort": 47423,
        "total": 2354
      },
      {
        "club_badge_src": "https://fantasy.premierleague.com/gcs/plfpl-production-adobe-approved/plfpl-production/17149/71c0e363-f8f4-43cd-8cdf-70c673e88297.png",
        "entry": 17149,
        "entry_name": "KofiAcquah FC",
        "event_total": 61,
        "has_played": true,
        "id": 106280,
        "last_rank": 47722,
        "player_name": "Kofi Acquah",
        "rank": 47421,
        "rank_sort": 47424,
        "total": 2354
      },
      {
        "club_badge_src": "https://fantasy.premierleague.com/gcs/plfpl-production-adobe-approved/plfpl-production/20569/859884ac-f39e-431c-aa6b-1120d0032a0f.png",
        "entry": 20569,
        "entry_name": "FC Bang Bang",
        "event_total": 73,
        "has_played": true,
        "id": 128470,
        "last_rank": 76330,
        "player_name": "Hasan Besic",
        "rank": 47421,
        "rank_sort": 47425,
        "total": 2354
      },
      {
        "club_badge_src": null,
        "entry": 22260,
        "entry_name": "Mandem FC",
        "event_total": 54,
        "has_played": true,
        "id": 139760,
        "last_rank": 43512,
        "player_name": "Simen Hilmersen",
        "rank": 47421,
        "rank_sort": 47426,
        "total": 2354
      },
      {
        "club_badge_src": null,
        "entry": 27369,
        "entry_name": "FK Vra\u010dar \u2b50\u2b50\u2b50",
        "event_total": 62,
        "has_played": true,
        "id": 173010,
        "last_rank": 43342,
        "player_name": "Ivan Topalovic",
        "rank": 47421,
        "rank_sort": 47427,
        "total": 2354
      },
      {
        "club_badge_src": null,
        "entry": 43912,
        "entry_name": "Wataru doing",
        "event_total": 64,
        "has_played": true,
        "id": 281314,
        "last_rank": 59170,
        "player_name": "Jenson Cain",
        "rank": 47421,
        "rank_sort": 47428,
        "total": 2354
      },
      {
        "club_badge_src": null,
        "entry": 56289,
        "entry_name": "Corn on the Kobbie",
        "event_total": 73,
        "has_played": true,
        "id": 362550,
        "last_rank": 67926,
        "player_name": "Shawal A.",
        "rank": 47421,
        "rank_sort": 47429,
        "total": 2354
      },
      {
        "club_badge_src": "https://fantasy.premierleague.com/gcs/plfpl-production-adobe-approved/plfpl-production/83510/5435f223-58a1-48f0-94e6-aaa458a2e30d.png",
        "entry": 83510,
        "entry_name": "Mikel It Happen",
        "event_total": 68,
        "has_played": true,
        "id": 543554,
        "last_rank": 52205,
        "player_name": "John Carini",
        "rank": 47421,
        "rank_sort": 47430,
        "total": 2354
      },
      {
        "club_badge_src": null,
        "entry": 162611,
        "entry_name": "Smoke it Ange",
        "event_total": 31,
        "has_played": true,
        "id": 1072018,
        "last_rank": 20008,
        "player_name": "Luke Pritchard",
        "rank": 47421,
        "rank_sort": 47431,
        "total": 2354
      },
      {
        "club_badge_src": "https://fantasy.premierleague.com/gcs/plfpl-production-adobe-approved/plfpl-production/181471/e11dccdc-7772-49b7-b613-4b969125a8bf.png",
        "entry": 181471,
        "entry_name": "VARcelona",
        "event_total": 68,
        "has_played": true,
        "id": 1197559,
        "last_rank": 66200,
        "player_name": "Jamie Etherington",
        "rank": 47421,
        "rank_sort": 47432,
        "total": 2354
      },
      {
        "club_badge_src": null,
        "entry": 305892,
        "entry_name": "Meriooo",
        "event_total": 54,
        "has_played": true,
        "id": 2048539,
        "last_rank": 38163,
        "player_name": "Mario Magdy",
        "rank": 47421,
        "rank_sort": 47433,
        "total": 2354
      },
      {
        "club_badge_src": null,
        "entry": 362608,
        "entry_name": "Zubi Doobies",
        "event_total": 68,
        "has_played": true,
        "id": 2426211,
        "last_rank": 66296,
        "player_name": "Daniel Arauz-Naranjo",
        "rank": 47421,
        "rank_sort": 47434,
        "total": 2354
      },
      {
        "club_badge_src": null,
        "entry": 380944,
        "entry_name": "Filler",
        "event_total": 82,
        "has_played": true,
        "id": 2553438,
        "last_rank": 87541,
        "player_name": "jason tyler",
        "rank": 47421,
        "rank_sort": 47435,
        "total": 2354
      },
      {
        "club_badge_src": "https://fantasy.premierleague.com/gcs/plfpl-production-adobe-approved/plfpl-production/487817/505b3f75-e15a-424e-9212-02542f8699c3.png",
        "entry": 487817,
        "entry_name": "Crocky Hill Blues",
        "event_total": 49,
        "has_played": true,
        "id": 3274876,
        "last_rank": 32437,
        "player_name": "Jon Kenny",
        "rank": 47421,
        "rank_sort": 47436,
        "total": 2354
      },
      {
        "club_badge_src": null,
        "entry": 492329,
        "entry_name": "FcSquat",
        "event_total": 65,
        "has_played": true,
        "id": 3304798,
        "last_rank": 53952,
        "player_name": "Marcel Antoniak",
        "rank": 47421,
        "rank_sort": 47437,
        "total": 2354
      },
      {
        "club_badge_src": null,
        "entry": 714181,
        "entry_name": "NorfolkNGood",
        "event_total": 73,
        "has_played": true,
        "id": 4845229,
        "last_rank": 76474,
        "player_name": "Adam Ward",
        "rank": 47421,
        "rank_sort": 47438,
        "total": 2354
      },
      {
        "club_badge_src": null,
        "entry": 821094,
        "entry_name": "Elreda FC",
        "event_total": 72,
        "has_played": true,
        "id": 5623459,
        "last_rank": 51984,
        "player_name": "Hamza ElReda",
        "rank": 47421,
        "rank_sort": 47439,
        "total": 2354
      },
      {
        "club_badge_src": null,
        "entry": 933960,
        "entry_name": "SakAttack",
        "event_total": 70,
        "has_played": true,
        "id": 6426832,
        "last_rank": 62617,
        "player_name": "Ed Bohling",
        "rank": 47421,
        "rank_sort": 47440,
        "total": 2354
      },
      {
        "club_badge_src": null,
        "entry": 967998,
        "entry_name": "The Walking Red",
        "event_total": 70,
        "has_played": true,
        "id": 6671691,
        "last_rank": 70183,
        "player_name": "Adrian Carroll",
        "rank": 47421,
        "rank_sort": 47441,
        "total": 2354
      },
      {
        "club_badge_src": null,
        "entry": 982232,
        "entry_name": "sus fc",
        "event_total": 64,
        "has_played": true,
        "id": 6771614,
        "last_rank": 46106,
        "player_name": "Sushant Sriram",
        "rank": 47421,
        "rank_sort": 47442,
        "total": 2354
      },
      {
        "club_badge_src": null,
        "entry": 1228969,
        "entry_name": "GoalsRruss",
        "event_total": 54,
        "has_played": true,
        "id": 8533478,
        "last_rank": 43512,
        "player_name": "Russell Hubbard",
        "rank": 47421,
        "rank_sort": 47443,
        "total": 2354
      },
      {
        "club_badge_src": null,
        "entry": 1479718,
        "entry_name": "FC Hihhulit",
        "event_total": 66,
        "has_played": true,
        "id": 10317632,
        "last_rank": 62724,
        "player_name": "Erkki Hyttinen",
        "rank": 47421,
        "rank_sort": 47444,
        "total": 2354
      },
      {
        "club_badge_src": null,
        "entry": 1487334,
        "entry_name": "Foxes",
        "event_total": 68,
        "has_played": true,
        "id": 10371863,
        "last_rank": 59077,
        "player_name": "Fredrik \u00d8kstad Sandberg",
        "rank": 47421,
        "rank_sort": 47445,
        "total": 2354
      },
      {
        "club_badge_src": null,
        "entry": 1492552,
        "entry_name": "Me, Myself, Ndiaye",
        "event_total": 67,
        "has_played": true,
        "id": 10408436,
        "last_rank": 50635,
        "player_name": "Jake Collier",
        "rank": 47421,
        "rank_sort": 47446,
        "total": 2354
      },
      {
        "club_badge_src": null,
        "entry": 1503248,
        "entry_name": "No Glazers, No Cry",
        "event_total": 61,
        "has_played": true,
        "id": 10483673,
        "last_rank": 53952,
        "player_name": "kamogelo molefe",
        "rank": 47421,
        "rank_sort": 47447,
        "total": 2354
      },
      {
        "club_badge_src": null,
        "entry": 1545129,
        "entry_name": "Snoop Udogie Dogg",
        "event_total": 63,
        "has_played": true,
        "id": 10786079,
        "last_rank": 57358,
        "player_name": "Matt Trussell",
        "rank": 47421,
        "rank_sort": 47448,
        "total": 2354
      },
      {
        "club_badge_src": null,
        "entry": 1617626,
        "entry_name": "Shooting stars \u2728",
        "event_total": 52,
        "has_played": true,
        "id": 11319357,
        "last_rank": 35867,
        "player_name": "Hatsu Kabara",
        "rank": 47421,
        "rank_sort": 47449,
        "total": 2354
      },
      {
        "club_badge_src": null,
        "entry": 1655681,
        "entry_name": "Sporting Dynamite",
        "event_total": 57,
        "has_played": true,
        "id": 11591651,
        "last_rank": 47812,
        "player_name": "Mark Hucks",
        "rank": 47421,
        "rank_sort": 47450,
        "total": 2354
      }
    ]
  }
}