{
  "last_updated_data": "2026-05-24T23:28:17Z",
  "league": {
    "admin_entry": null,
    "closed": false,
    "code_privacy": "p",
    "created": "2025-07-20T23:14:33.933835Z",
    "cup_league": 2815434,
    "has_cup": true,
    "id": 314,
    "league_type": "s",
    "max_entries": null,
    "name": "Overall",
    "rank": null,
    "scoring": "c",
    "start_event": 1
  },
  "new_entries": {
    "has_next": false,
    "page": 1,
    "results": []
  },
  "standings": {
    "has_next": true,
    "page": 31,
    "results": [
      {
        "club_badge_src": null,
        "entry": 956295,
        "entry_name": "PoorSkills FC",
        "event_total": 39,
        "has_played": true,
        "id": 6589091,
        "last_rank": 401,
        "player_name": "Chris Evenson",
        "rank": 1495,
        "rank_sort": 1501,
        "total": 2440
      },
      {
        "club_badge_src": null,
        "entry": 1469981,
        "entry_name": "Ace Of Spades",
        "event_total": 54,
        "has_played": true,
        "id": 10246675,
        "last_rank": 1152,
        "player_name": "adam carvell",
        "rank": 1495,
        "rank_sort": 1502,
        "total": 2440
      },
      {
        "club_badge_src": null,
        "entry": 2182164,
        "entry_name": "Bielsa's Bucket List",
        "event_total": 54,
        "has_played": true,
        "id": 15521094,
        "last_rank": 936,
        "player_name": "Martin Brownridge",
        "rank": 1495,
        "rank_sort": 1503,
        "total": 2440
      },
      {
        "club_badge_src": null,
        "entry": 3287874,
        "entry_name": "Hua Hin Has Bins",
        "event_total": 71,
        "has_played": true,
        "id": 24340385,
        "last_rank": 2665,
        "player_name": "Roger Hunt",
        "rank": 1495,
        "rank_sort": 1504,
        "total": 2440
      },
      {
        "club_badge_src": null,
        "entry": 4436959,
        "entry_name": "Wirtz XI",
        "event_total": 59,
        "has_played": true,
        "id": 33783743,
        "last_rank": 1465,
        "player_name": "Chris Gough",
        "rank": 1495,
        "rank_sort": 1505,
        "total": 2440
      },
      {
        "club_badge_src": null,
        "entry": 4481385,
        "entry_name": "pedrovale11",
        "event_total": 56,
        "has_played": true,
        "id": 34154713,
        "last_rank": 1272,
        "player_name": "Pedro Vale",
        "rank": 1495,
        "rank_sort": 1506,
        "total": 2440
      },
      {
        "club_badge_src": null,
        "entry": 7108861,
        "entry_name": "Rutter Woke Nonsense",
        "event_total": 66,
        "has_played": true,
        "id": 57261491,
        "last_rank": 1689,
        "player_name": "Josh Wetson",
        "rank": 1495,
        "rank_sort": 1507,
        "total": 2440
      },
      {
        "club_badge_src": null,
        "entry": 7254954,
        "entry_name": "Ogo",
        "event_total": 60,
        "has_played": true,
        "id": 58653291,
        "last_rank": 1551,
        "player_name": "Ognjen Obradovic",
        "rank": 1495,
        "rank_sort": 1508,
        "total": 2440
      },
      {
        "club_badge_src": null,
        "entry": 7477688,
        "entry_name": "Kitty cats",
        "event_total": 58,
        "has_played": true,
        "id": 60993340,
        "last_rank": 1358,
        "player_name": "Freddy Lang",
        "rank": 1495,
        "rank_sort": 1509,
        "total": 2440
      },
      {
        "club_badge_src": null,
        "entry": 585044,
        "entry_name": "blaze_dynasty",
        "event_total": 60,
        "has_played": true,
        "id": 3937203,
        "last_rank": 1523,
        "player_name": "Firas Yousfi",
        "rank": 1510,
        "rank_sort": 1510,
        "total": 2440
      },
      {
        "club_badge_src": null,
        "entry": 626406,
        "entry_name": "Second2None",
        "event_total": 48,
        "has_played": true,
        "id": 4233033,
        "last_rank": 848,
        "player_name": "Dag L\u00f8vold",
        "rank": 1510,
        "rank_sort": 1511,
        "total": 2440
      },
      {
        "club_badge_src": null,
        "entry": 779401,
        "entry_name": "The Marsh Muppets",
        "event_total": 69,
        "has_played": true,
        "id": 5320386,
        "last_rank": 2448,
        "player_name": "Duncan Marsh",
        "rank": 1510,
        "rank_sort": 1512,
        "total": 2440
      },
      {
        "club_badge_src": null,
        "entry": 1358557,
        "entry_name": "BhaluthangFC",
        "event_total": 54,
        "has_played": true,
        "id": 9443387,
        "last_rank": 1164,
        "player_name": "Yogesh Chettri",
        "rank": 1510,
        "rank_sort": 1513,
        "total": 2440
      },
      {
        "club_badge_src": "https://fantasy.premierleague.com/gcs/plfpl-production-adobe-approved/plfpl-production/1485244/9de49b45-5060-4e00-a61e-f9d397e72e2c.png",
        "entry": 1485244,
        "entry_name": "Henry's Dad",
        "event_total": 56,
        "has_played": true,
        "id": 10357246,
        "last_rank": 1045,
        "player_name": "Dominic Walmsley",
        "rank": 1510,
        "rank_sort": 1514,
        "total": 2440
      },
      {
        "club_badge_src": null,
        "entry": 2316439,
        "entry_name": "MATETA'S ON FIRE",
        "event_total": 74,
        "has_played": true,
        "id": 16524451,
        "last_rank": 3103,
        "player_name": "Raphael Jacob",
        "rank": 1510,
        "rank_sort": 1515,
        "total": 2440
      },
      {
        "club_badge_src": "https://fantasy.premierleague.com/gcs/plfpl-production-adobe-approved/plfpl-production/3978596/0f259adc-612f-4286-a618-14b49c16bf91.png",
        "entry": 3978596,
        "entry_name": "Happy Bday",
        "event_total": 64,
        "has_played": true,
        "id": 29947593,
        "last_rank": 1551,
        "player_name": "Raahim Usman",
        "rank": 1510,
        "rank_sort": 1516,
        "total": 2440
      },
      {
        "club_badge_src": "https://fantasy.premierleague.com/gcs/plfpl-production-adobe-approved/plfpl-production/4733071/71b95a18-bf37-4f18-875a-2c7cf17a2727.png",
        "entry": 4733071,
        "entry_name": "Ping Hold United",
        "event_total": 39,
        "has_played": true,
        "id": 36414695,
        "last_rank": 519,
        "player_name": "Mike and Will Ramsden",
        "rank": 1510,
        "rank_sort": 1517,
        "total": 2440
      },
      {
        "club_badge_src": null,
        "entry": 4749718,
        "entry_name": "Seaport United",
        "event_total": 66,
        "has_played": true,
        "id": 36548696,
        "last_rank": 1712,
        "player_name": "Andrey Ivanov",
        "rank": 1510,
        "rank_sort": 1518,
        "total": 2440
      },
      {
        "club_badge_src": null,
        "entry": 5511480,
        "entry_name": "Newcastle",
        "event_total": 30,
        "has_played": true,
        "id": 42960735,
        "last_rank": 319,
        "player_name": "Terje Lanne",
        "rank": 1510,
        "rank_sort": 1519,
        "total": 2440
      },
      {
        "club_badge_src": null,
        "entry": 7243825,
        "entry_name": "\u0410\u0440\u0442\u0438\u043b\u0435\u0440\u0438\u0441\u0442\u0430  \u0412\u0430\u043d\u043a\u043e",
        "event_total": 70,
        "has_played": true,
        "id": 58543989,
        "last_rank": 2588,
        "player_name": "Ivan Dinev",
        "rank": 1510,
        "rank_sort": 1520,
        "total": 2440
      },
      {
        "club_badge_src": null,
        "entry": 8825512,
        "entry_name": "North point FC",
        "event_total": 64,
        "has_played": true,
        "id": 73789750,
        "last_rank": 1909,
        "player_name": "Ankit Adhikari",
        "rank": 1510,
        "rank_sort": 1521,
        "total": 2440
      },
      {
        "club_badge_src": null,
        "entry": 418289,
        "entry_name": "Cherki Dinosaurs",
        "event_total": 56,
        "has_played": true,
        "id": 2803686,
        "last_rank": 1272,
        "player_name": "Ant Hudson",
        "rank": 1522,
        "rank_sort": 1522,
        "total": 2440
      },
      {
        "club_badge_src": null,
        "entry": 1493797,
        "entry_name": "Terbi United",
        "event_total": 56,
        "has_played": true,
        "id": 10417143,
        "last_rank": 1281,
        "player_name": "Sangay Dorji",
        "rank": 1522,
        "rank_sort": 1523,
        "total": 2440
      },
      {
        "club_badge_src": "https://fantasy.premierleague.com/gcs/plfpl-production-adobe-approved/plfpl-production/1537324/24e4d4fe-e5ac-40e9-8148-425902ca6ac3.png",
        "entry": 1537324,
        "entry_name": "Do Not Redeem",
        "event_total": 68,
        "has_played": true,
        "id": 10729146,
        "last_rank": 1931,
        "player_name": "Kei Wong",
        "rank": 1522,
        "rank_sort": 1524,
        "total": 2440
      },
      {
        "club_badge_src": null,
        "entry": 6866093,
        "entry_name": "Gone in 2 weeks",
        "event_total": 50,
        "has_played": true,
        "id": 55017269,
        "last_rank": 951,
        "player_name": "Harry Giles",
        "rank": 1522,
        "rank_sort": 1525,
        "total": 2440
      },
      {
        "club_badge_src": "https://fantasy.premierleague.com/gcs/plfpl-production-adobe-approved/plfpl-production/74585/5d821256-1b2b-4dab-a7c0-397f799c1198.png",
        "entry": 74585,
        "entry_name": "MidTableMentality",
        "event_total": 64,
        "has_played": true,
        "id": 484802,
        "last_rank": 1563,
        "player_name": "Thanwut Theplib",
        "rank": 1526,
        "rank_sort": 1526,
        "total": 2440
      },
      {
        "club_badge_src": null,
        "entry": 567018,
        "entry_name": "It was Amad-ness",
        "event_total": 59,
        "has_played": true,
        "id": 3816299,
        "last_rank": 1491,
        "player_name": "1 Simms",
        "rank": 1526,
        "rank_sort": 1527,
        "total": 2440
      },
      {
        "club_badge_src": null,
        "entry": 3310098,
        "entry_name": "City City",
        "event_total": 60,
        "has_played": true,
        "id": 24523427,
        "last_rank": 1582,
        "player_name": "Pattana Laoprasert",
        "rank": 1526,
        "rank_sort": 1528,
        "total": 2440
      },
      {
        "club_badge_src": null,
        "entry": 4733643,
        "entry_name": "Can't Get Any Wirtz",
        "event_total": 57,
        "has_played": true,
        "id": 36419246,
        "last_rank": 1342,
        "player_name": "Lewis Baldry",
        "rank": 1526,
        "rank_sort": 1529,
        "total": 2440
      },
      {
        "club_badge_src": null,
        "entry": 221552,
        "entry_name": "What the Hecke",
        "event_total": 57,
        "has_played": true,
        "id": 1473544,
        "last_rank": 1346,
        "player_name": "Arvo Valkama",
        "rank": 1530,
        "rank_sort": 1530,
        "total": 2440
      },
      {
        "club_badge_src": null,
        "entry": 2421485,
        "entry_name": "gotta go baaaad",
        "event_total": 75,
        "has_played": true,
        "id": 17312060,
        "last_rank": 2775,
        "player_name": "abdullah badawi",
        "rank": 1530,
        "rank_sort": 1531,
        "total": 2440
      },
      {
        "club_badge_src": null,
        "entry": 6368712,
        "entry_name": "Saka White Rice",
        "event_total": 74,
        "has_played": true,
        "id": 50643226,
        "last_rank": 2632,
        "player_name": "Colin Newbury",
        "rank": 1530,
        "rank_sort": 1532,
        "total": 2440
      },
      {
        "club_badge_src": null,
        "entry": 7250121,
        "entry_name": "HaCunha Mateta",
        "event_total": 73,
        "has_played": true,
        "id": 58606088,
        "last_rank": 2491,
        "player_name": "Darren Wakefield",
        "rank": 1530,
        "rank_sort": 1533,
        "total": 2440
      },
      {
        "club_badge_src": null,
        "entry": 1107464,
        "entry_name": "[redacted]",
        "event_total": 71,
        "has_played": true,
        "id": 7670990,
        "last_rank": 2261,
        "player_name": "James Phillips",
        "rank": 1534,
        "rank_sort": 1534,
        "total": 2440
      },
      {
        "club_badge_src": null,
        "entry": 3153215,
        "entry_name": "slumdog mignolet",
        "event_total": 64,
        "has_played": true,
        "id": 23287544,
        "last_rank": 1286,
        "player_name": "Flynn Burgess",
        "rank": 1534,
        "rank_sort": 1535,
        "total": 2440
      },
      {
        "club_badge_src": null,
        "entry": 7770744,
        "entry_name": "Abo Aisha",
        "event_total": 72,
        "has_played": true,
        "id": 63809645,
        "last_rank": 1949,
        "player_name": "Muhammad Younis \ud83c\uddf5\ud83c\uddf8",
        "rank": 1536,
        "rank_sort": 1536,
        "total": 2440
      },
      {
        "club_badge_src": "https://fantasy.premierleague.com/gcs/plfpl-production-adobe-approved/plfpl-production/93158/77b42e1e-43ef-4c89-ae88-692f38daa95d.png",
        "entry": 93158,
        "entry_name": "UPDC's Moon Men",
        "event_total": 75,
        "has_played": true,
        "id": 608796,
        "last_rank": 3374,
        "player_name": "Urquhart Crosbie",
        "rank": 1537,
        "rank_sort": 1537,
        "total": 2439
      },
      {
        "club_badge_src": null,
        "entry": 6933864,
        "entry_name": "BULLISH HERO",
        "event_total": 69,
        "has_played": true,
        "id": 55588051,
        "last_rank": 2518,
        "player_name": "David ASANYE",
        "rank": 1538,
        "rank_sort": 1538,
        "total": 2439
      },
      {
        "club_badge_src": null,
        "entry": 8365374,
        "entry_name": "2 p\u00e5 rad",
        "event_total": 81,
        "has_played": true,
        "id": 69350767,
        "last_rank": 4462,
        "player_name": "Harald Larsen",
        "rank": 1538,
        "rank_sort": 1539,
        "total": 2439
      },
      {
        "club_badge_src": null,
        "entry": 84396,
        "entry_name": "Matz Sels Seashells",
        "event_total": 69,
        "has_played": true,
        "id": 549497,
        "last_rank": 2517,
        "player_name": "Reece Cairns",
        "rank": 1540,
        "rank_sort": 1540,
        "total": 2439
      },
      {
        "club_badge_src": null,
        "entry": 765276,
        "entry_name": "Schar's Electric",
        "event_total": 58,
        "has_played": true,
        "id": 5219415,
        "last_rank": 1177,
        "player_name": "Niall Haughey",
        "rank": 1540,
        "rank_sort": 1541,
        "total": 2439
      },
      {
        "club_badge_src": null,
        "entry": 1368133,
        "entry_name": "Pat D",
        "event_total": 55,
        "has_played": true,
        "id": 9510641,
        "last_rank": 1226,
        "player_name": "Patrick Duan",
        "rank": 1540,
        "rank_sort": 1542,
        "total": 2439
      },
      {
        "club_badge_src": null,
        "entry": 1901994,
        "entry_name": "Salt n Pep\u00e9",
        "event_total": 70,
        "has_played": true,
        "id": 13407927,
        "last_rank": 2651,
        "player_name": "Kyle Thomson",
        "rank": 1540,
        "rank_sort": 1543,
        "total": 2439
      },
      {
        "club_badge_src": null,
        "entry": 1945767,
        "entry_name": "Arsenal treble",
        "event_total": 45,
        "has_played": true,
        "id": 13725242,
        "last_rank": 748,
        "player_name": "Stephen Surbeck",
        "rank": 1540,
        "rank_sort": 1544,
        "total": 2439
      },
      {
        "club_badge_src": "https://fantasy.premierleague.com/gcs/plfpl-production-adobe-approved/plfpl-production/3391730/1c57c73a-9110-420a-9535-93b469863266.png",
        "entry": 3391730,
        "entry_name": "Zamalek SC",
        "event_total": 60,
        "has_played": true,
        "id": 25180099,
        "last_rank": 1609,
        "player_name": "Mohamed Ashraf",
        "rank": 1540,
        "rank_sort": 1545,
        "total": 2439
      },
      {
        "club_badge_src": null,
        "entry": 3417782,
        "entry_name": "Chickentikkamosalah",
        "event_total": 78,
        "has_played": true,
        "id": 25386319,
        "last_rank": 3848,
        "player_name": "Ravi Khanal",
        "rank": 1540,
        "rank_sort": 1546,
        "total": 2439
      },
      {
        "club_badge_src": null,
        "entry": 3850441,
        "entry_name": "Mar del plata",
        "event_total": 56,
        "has_played": true,
        "id": 28863266,
        "last_rank": 1291,
        "player_name": "Christine Peeraer",
        "rank": 1540,
        "rank_sort": 1547,
        "total": 2439
      },
      {
        "club_badge_src": null,
        "entry": 3863267,
        "entry_name": "ColeSlawPalmer",
        "event_total": 76,
        "has_played": true,
        "id": 28966912,
        "last_rank": 3514,
        "player_name": "Rasmus Nilsson",
        "rank": 1540,
        "rank_sort": 1548,
        "total": 2439
      },
      {
        "club_badge_src": null,
        "entry": 4846537,
        "entry_name": "Eriksen\u2019s EKG",
        "event_total": 64,
        "has_played": true,
        "id": 37337418,
        "last_rank": 1978,
        "player_name": "Austin Wallace",
        "rank": 1540,
        "rank_sort": 1549,
        "total": 2439
      },
      {
        "club_badge_src": null,
        "entry": 7694223,
        "entry_name": "Maxim",
        "event_total": 60,
        "has_played": true,
        "id": 63119571,
        "last_rank": 1601,
        "player_name": "Maxim Rufet",
        "rank": 1540,
        "rank_sort": 1550,
        "total": 2439
      }
    ]
  }
}