{
  "last_updated_data": "2026-05-24T23:28:17Z",
  "league": {
    "admin_entry": null,
    "closed": false,
    "code_privacy": "p",
    "created": "2025-07-20T23:14:33.933835Z",
    "cup_league": 2815434,
    "has_cup": true,
    "id": 314,
    "league_type": "s",
    "max_entries": null,
    "name": "Overall",
    "rank": null,
    "scoring": "c",
    "start_event": 1
  },
  "new_entries": {
    "has_next": false,
    "page": 1,
    "results": []
  },
  "standings": {
    "has_next": true,
    "page": 1535,
    "results": [
      {
        "club_badge_src": null,
        "entry": 669121,
        "entry_name": "Borussia Teeth",
        "event_total": 53,
        "has_played": true,
        "id": 4525114,
        "last_rank": 69323,
        "player_name": "Tim Turner",
        "rank": 76638,
        "rank_sort": 76701,
        "total": 2337
      },
      {
        "club_badge_src": null,
        "entry": 678348,
        "entry_name": "MicksBricks",
        "event_total": 59,
        "has_played": true,
        "id": 4590035,
        "last_rank": 82398,
        "player_name": "Mike Critchlow",
        "rank": 76638,
        "rank_sort": 76702,
        "total": 2337
      },
      {
        "club_badge_src": null,
        "entry": 684482,
        "entry_name": "Petr \u010cech Yourself",
        "event_total": 64,
        "has_played": true,
        "id": 4632949,
        "last_rank": 94537,
        "player_name": "Ben Laing",
        "rank": 76638,
        "rank_sort": 76703,
        "total": 2337
      },
      {
        "club_badge_src": null,
        "entry": 689086,
        "entry_name": "Kinder Mbeumo",
        "event_total": 55,
        "has_played": true,
        "id": 4665566,
        "last_rank": 65796,
        "player_name": "Kenylen Motean",
        "rank": 76638,
        "rank_sort": 76704,
        "total": 2337
      },
      {
        "club_badge_src": null,
        "entry": 755435,
        "entry_name": "Mbeumo No.5",
        "event_total": 55,
        "has_played": true,
        "id": 5142979,
        "last_rank": 65796,
        "player_name": "Ryan Beacall",
        "rank": 76638,
        "rank_sort": 76705,
        "total": 2337
      },
      {
        "club_badge_src": null,
        "entry": 763322,
        "entry_name": "Kroos Control",
        "event_total": 67,
        "has_played": true,
        "id": 5205806,
        "last_rank": 91835,
        "player_name": "Hayyan *",
        "rank": 76638,
        "rank_sort": 76706,
        "total": 2337
      },
      {
        "club_badge_src": null,
        "entry": 776249,
        "entry_name": "West Coast Albion",
        "event_total": 64,
        "has_played": true,
        "id": 5296453,
        "last_rank": 93883,
        "player_name": "Lyn Sharman",
        "rank": 76638,
        "rank_sort": 76707,
        "total": 2337
      },
      {
        "club_badge_src": null,
        "entry": 778059,
        "entry_name": "Allemeersch19",
        "event_total": 44,
        "has_played": true,
        "id": 5309096,
        "last_rank": 53837,
        "player_name": "Arthur Allemeersch",
        "rank": 76638,
        "rank_sort": 76708,
        "total": 2337
      },
      {
        "club_badge_src": null,
        "entry": 780262,
        "entry_name": "JohnSelectEleven",
        "event_total": 55,
        "has_played": true,
        "id": 5326971,
        "last_rank": 73975,
        "player_name": "JOHN CULVERWELL",
        "rank": 76638,
        "rank_sort": 76709,
        "total": 2337
      },
      {
        "club_badge_src": null,
        "entry": 796550,
        "entry_name": "Rossinpuff",
        "event_total": 72,
        "has_played": true,
        "id": 5451513,
        "last_rank": 115421,
        "player_name": "Lornts T\u00f8nne",
        "rank": 76638,
        "rank_sort": 76710,
        "total": 2337
      },
      {
        "club_badge_src": null,
        "entry": 814775,
        "entry_name": "Who let the dorg out",
        "event_total": 63,
        "has_played": true,
        "id": 5579364,
        "last_rank": 82398,
        "player_name": "JAMES MCADAM",
        "rank": 76638,
        "rank_sort": 76711,
        "total": 2337
      },
      {
        "club_badge_src": null,
        "entry": 845100,
        "entry_name": "Griffin FC",
        "event_total": 39,
        "has_played": true,
        "id": 5790446,
        "last_rank": 46106,
        "player_name": "Sam Griffin",
        "rank": 76638,
        "rank_sort": 76712,
        "total": 2337
      },
      {
        "club_badge_src": "https://fantasy.premierleague.com/gcs/plfpl-production-adobe-approved/plfpl-production/847220/99824b08-a019-437f-a962-086e1ea8b093.png",
        "entry": 847220,
        "entry_name": "Drayton Roblematical",
        "event_total": 46,
        "has_played": true,
        "id": 5805845,
        "last_rank": 57001,
        "player_name": "Robert Tavernor",
        "rank": 76638,
        "rank_sort": 76713,
        "total": 2337
      },
      {
        "club_badge_src": null,
        "entry": 892156,
        "entry_name": "lecozamania",
        "event_total": 58,
        "has_played": true,
        "id": 6125699,
        "last_rank": 71713,
        "player_name": "Alex Le Coz",
        "rank": 76638,
        "rank_sort": 76714,
        "total": 2337
      },
      {
        "club_badge_src": null,
        "entry": 900953,
        "entry_name": "QuarterSlavs",
        "event_total": 54,
        "has_played": true,
        "id": 6190444,
        "last_rank": 71956,
        "player_name": "Vytas Kupriscenkovas",
        "rank": 76638,
        "rank_sort": 76715,
        "total": 2337
      },
      {
        "club_badge_src": "https://fantasy.premierleague.com/gcs/plfpl-production-adobe-approved/plfpl-production/915149/24c0b5a3-72ed-4dde-8cd8-f59fcbcfa55f.png",
        "entry": 915149,
        "entry_name": "jam fc",
        "event_total": 72,
        "has_played": true,
        "id": 6292978,
        "last_rank": 115760,
        "player_name": "Kieran Gibson",
        "rank": 76638,
        "rank_sort": 76716,
        "total": 2337
      },
      {
        "club_badge_src": null,
        "entry": 915904,
        "entry_name": "McGinn & Tonic",
        "event_total": 61,
        "has_played": true,
        "id": 6298186,
        "last_rank": 87350,
        "player_name": "Jacob \u00d8rum Krefting",
        "rank": 76638,
        "rank_sort": 76717,
        "total": 2337
      },
      {
        "club_badge_src": null,
        "entry": 938626,
        "entry_name": "Cunha get Mbeumo",
        "event_total": 61,
        "has_played": true,
        "id": 6460216,
        "last_rank": 87350,
        "player_name": "Philip Kehoe",
        "rank": 76638,
        "rank_sort": 76718,
        "total": 2337
      },
      {
        "club_badge_src": null,
        "entry": 939750,
        "entry_name": "Tactician Mayor",
        "event_total": 64,
        "has_played": true,
        "id": 6468042,
        "last_rank": 84731,
        "player_name": "Oluwamayowa Amuda",
        "rank": 76638,
        "rank_sort": 76719,
        "total": 2337
      },
      {
        "club_badge_src": null,
        "entry": 962152,
        "entry_name": "United Fc",
        "event_total": 67,
        "has_played": true,
        "id": 6630457,
        "last_rank": 101818,
        "player_name": "Marcin Merdzinski",
        "rank": 76638,
        "rank_sort": 76720,
        "total": 2337
      },
      {
        "club_badge_src": null,
        "entry": 1009249,
        "entry_name": "SzaBika",
        "event_total": 70,
        "has_played": true,
        "id": 6977841,
        "last_rank": 110187,
        "player_name": "Szabolcs Marton",
        "rank": 76638,
        "rank_sort": 76721,
        "total": 2337
      },
      {
        "club_badge_src": null,
        "entry": 1009999,
        "entry_name": "After Me Please",
        "event_total": 53,
        "has_played": true,
        "id": 6984051,
        "last_rank": 69907,
        "player_name": "Joni Haverinen",
        "rank": 76638,
        "rank_sort": 76722,
        "total": 2337
      },
      {
        "club_badge_src": null,
        "entry": 1011937,
        "entry_name": "Lazy Labradors",
        "event_total": 64,
        "has_played": true,
        "id": 7000163,
        "last_rank": 94537,
        "player_name": "Luke Bainbridge",
        "rank": 76638,
        "rank_sort": 76723,
        "total": 2337
      },
      {
        "club_badge_src": null,
        "entry": 1014724,
        "entry_name": "Twust",
        "event_total": 47,
        "has_played": true,
        "id": 7019748,
        "last_rank": 45714,
        "player_name": "Eddie Hicks",
        "rank": 76638,
        "rank_sort": 76724,
        "total": 2337
      },
      {
        "club_badge_src": null,
        "entry": 1027239,
        "entry_name": "Stu FC",
        "event_total": 63,
        "has_played": true,
        "id": 7107059,
        "last_rank": 92126,
        "player_name": "Mark Donoghue",
        "rank": 76638,
        "rank_sort": 76725,
        "total": 2337
      },
      {
        "club_badge_src": null,
        "entry": 1084604,
        "entry_name": "Nwankwo-Kanusaufen!",
        "event_total": 56,
        "has_played": true,
        "id": 7510655,
        "last_rank": 76128,
        "player_name": "Bernhard Schranckell",
        "rank": 76638,
        "rank_sort": 76726,
        "total": 2337
      },
      {
        "club_badge_src": null,
        "entry": 1101338,
        "entry_name": "AyomideFc",
        "event_total": 65,
        "has_played": true,
        "id": 7628610,
        "last_rank": 96777,
        "player_name": "Ayomide Obaitan",
        "rank": 76638,
        "rank_sort": 76727,
        "total": 2337
      },
      {
        "club_badge_src": "https://fantasy.premierleague.com/gcs/plfpl-production-adobe-approved/plfpl-production/1112204/2f9431e0-08a8-4b5f-928b-68960fc9bf68.png",
        "entry": 1112204,
        "entry_name": "Fist United",
        "event_total": 65,
        "has_played": true,
        "id": 7704127,
        "last_rank": 96777,
        "player_name": "Mathieu Carriere-Catris",
        "rank": 76638,
        "rank_sort": 76728,
        "total": 2337
      },
      {
        "club_badge_src": "https://fantasy.premierleague.com/gcs/plfpl-production-adobe-approved/plfpl-production/1119402/8c9e41e1-e306-49a9-a177-772b55afdaee.png",
        "entry": 1119402,
        "entry_name": "Tall Paul",
        "event_total": 53,
        "has_played": true,
        "id": 7754021,
        "last_rank": 69907,
        "player_name": "Tall Paul",
        "rank": 76638,
        "rank_sort": 76729,
        "total": 2337
      },
      {
        "club_badge_src": "https://fantasy.premierleague.com/gcs/plfpl-production-adobe-approved/plfpl-production/1133418/7568f891-89aa-4836-903c-d38fe391c37c.png",
        "entry": 1133418,
        "entry_name": "Berghain Boys",
        "event_total": 54,
        "has_played": true,
        "id": 7856653,
        "last_rank": 71713,
        "player_name": "Lewis Morgan",
        "rank": 76638,
        "rank_sort": 76730,
        "total": 2337
      },
      {
        "club_badge_src": null,
        "entry": 1149426,
        "entry_name": "Stevies Wonders",
        "event_total": 60,
        "has_played": true,
        "id": 7969600,
        "last_rank": 84731,
        "player_name": "Stephen Aherne",
        "rank": 76638,
        "rank_sort": 76731,
        "total": 2337
      },
      {
        "club_badge_src": "https://fantasy.premierleague.com/gcs/plfpl-production-adobe-approved/plfpl-production/1150769/6eb93819-7494-42e5-8b0b-44a866578873.png",
        "entry": 1150769,
        "entry_name": "DropItLikelt'sSlot!",
        "event_total": 52,
        "has_played": true,
        "id": 7978981,
        "last_rank": 67926,
        "player_name": "Muhammad Mubarak",
        "rank": 76638,
        "rank_sort": 76732,
        "total": 2337
      },
      {
        "club_badge_src": "https://fantasy.premierleague.com/gcs/plfpl-production-adobe-approved/plfpl-production/1162954/56a09cba-d39f-446b-90da-4bd72c4be4b1.png",
        "entry": 1162954,
        "entry_name": "World Champion CFC",
        "event_total": 56,
        "has_played": true,
        "id": 8067356,
        "last_rank": 75537,
        "player_name": "Abdulrasheed Umar",
        "rank": 76638,
        "rank_sort": 76733,
        "total": 2337
      },
      {
        "club_badge_src": null,
        "entry": 1167789,
        "entry_name": "SF til europa",
        "event_total": 61,
        "has_played": true,
        "id": 8101124,
        "last_rank": 87350,
        "player_name": "Magnus Paulsrud",
        "rank": 76638,
        "rank_sort": 76734,
        "total": 2337
      },
      {
        "club_badge_src": null,
        "entry": 1174661,
        "entry_name": "Cunha Me Softly",
        "event_total": 69,
        "has_played": true,
        "id": 8149864,
        "last_rank": 86735,
        "player_name": "Daniel Abia-Okon",
        "rank": 76638,
        "rank_sort": 76735,
        "total": 2337
      },
      {
        "club_badge_src": null,
        "entry": 1181048,
        "entry_name": "Sound Of The Lloris",
        "event_total": 87,
        "has_played": true,
        "id": 8194460,
        "last_rank": 163377,
        "player_name": "Simon Morrison",
        "rank": 76638,
        "rank_sort": 76736,
        "total": 2337
      },
      {
        "club_badge_src": null,
        "entry": 1187757,
        "entry_name": "Hr. Imeline",
        "event_total": 58,
        "has_played": true,
        "id": 8241211,
        "last_rank": 80194,
        "player_name": "Karl-Martin Kuusk",
        "rank": 76638,
        "rank_sort": 76737,
        "total": 2337
      },
      {
        "club_badge_src": "https://fantasy.premierleague.com/gcs/plfpl-production-adobe-approved/plfpl-production/1232282/d3d5f90d-5764-4dfe-a53e-b0bc66a1d3a8.png",
        "entry": 1232282,
        "entry_name": "Man Feelings FC",
        "event_total": 70,
        "has_played": true,
        "id": 8556990,
        "last_rank": 99296,
        "player_name": "Rob Pritchard",
        "rank": 76638,
        "rank_sort": 76738,
        "total": 2337
      },
      {
        "club_badge_src": null,
        "entry": 1282993,
        "entry_name": "Fakroun united",
        "event_total": 62,
        "has_played": true,
        "id": 8915131,
        "last_rank": 89426,
        "player_name": "hakim kallel",
        "rank": 76638,
        "rank_sort": 76739,
        "total": 2337
      },
      {
        "club_badge_src": null,
        "entry": 1308798,
        "entry_name": "Bruno Dos Tres",
        "event_total": 74,
        "has_played": true,
        "id": 9097363,
        "last_rank": 120438,
        "player_name": "Amaan Yasar",
        "rank": 76638,
        "rank_sort": 76740,
        "total": 2337
      },
      {
        "club_badge_src": null,
        "entry": 1310705,
        "entry_name": "Guano Loca",
        "event_total": 58,
        "has_played": true,
        "id": 9110528,
        "last_rank": 80465,
        "player_name": "Christopher Flynn",
        "rank": 76638,
        "rank_sort": 76741,
        "total": 2337
      },
      {
        "club_badge_src": null,
        "entry": 1333739,
        "entry_name": "ImZirksee & i knowit",
        "event_total": 67,
        "has_played": true,
        "id": 9270790,
        "last_rank": 91835,
        "player_name": "Joshua Rowlands",
        "rank": 76638,
        "rank_sort": 76742,
        "total": 2337
      },
      {
        "club_badge_src": null,
        "entry": 1346132,
        "entry_name": "Poula \ufffd\u2665\ufe0f",
        "event_total": 65,
        "has_played": true,
        "id": 9358895,
        "last_rank": 86735,
        "player_name": "Bola Wagdy",
        "rank": 76638,
        "rank_sort": 76743,
        "total": 2337
      },
      {
        "club_badge_src": null,
        "entry": 1443292,
        "entry_name": "Real NidgeRid",
        "event_total": 59,
        "has_played": true,
        "id": 10057050,
        "last_rank": 82664,
        "player_name": "Nigel Ridden",
        "rank": 76638,
        "rank_sort": 76744,
        "total": 2337
      },
      {
        "club_badge_src": null,
        "entry": 1483243,
        "entry_name": "OAFC FC",
        "event_total": 48,
        "has_played": true,
        "id": 10343138,
        "last_rank": 60671,
        "player_name": "Mark Mac Namee",
        "rank": 76638,
        "rank_sort": 76745,
        "total": 2337
      },
      {
        "club_badge_src": null,
        "entry": 1584959,
        "entry_name": "ZEED FC",
        "event_total": 57,
        "has_played": true,
        "id": 11079705,
        "last_rank": 69641,
        "player_name": "Ramy Abuelyazeed",
        "rank": 76638,
        "rank_sort": 76746,
        "total": 2337
      },
      {
        "club_badge_src": null,
        "entry": 1630116,
        "entry_name": "Christie Kremes",
        "event_total": 46,
        "has_played": true,
        "id": 11409736,
        "last_rank": 57200,
        "player_name": "Sam Taylor",
        "rank": 76638,
        "rank_sort": 76747,
        "total": 2337
      },
      {
        "club_badge_src": null,
        "entry": 1662435,
        "entry_name": "Grove Park Players",
        "event_total": 48,
        "has_played": true,
        "id": 11639266,
        "last_rank": 60671,
        "player_name": "Kevin Tozer",
        "rank": 76638,
        "rank_sort": 76748,
        "total": 2337
      },
      {
        "club_badge_src": null,
        "entry": 1667737,
        "entry_name": "Change Name",
        "event_total": 55,
        "has_played": true,
        "id": 11676433,
        "last_rank": 73975,
        "player_name": "Baden Wandling",
        "rank": 76638,
        "rank_sort": 76749,
        "total": 2337
      },
      {
        "club_badge_src": "https://fantasy.premierleague.com/gcs/plfpl-production-adobe-approved/plfpl-production/1714361/91d18928-980e-4035-8661-6ff028b8c2e3.png",
        "entry": 1714361,
        "entry_name": "Snik Ballklubb",
        "event_total": 42,
        "has_played": true,
        "id": 12012961,
        "last_rank": 50772,
        "player_name": "Magnus T\u00f8rressen",
        "rank": 76638,
        "rank_sort": 76750,
        "total": 2337
      }
    ]
  }
}