{
  "last_updated_data": "2026-05-24T23:28:17Z",
  "league": {
    "admin_entry": null,
    "closed": false,
    "code_privacy": "p",
    "created": "2025-07-20T23:14:33.933835Z",
    "cup_league": 2815434,
    "has_cup": true,
    "id": 314,
    "league_type": "s",
    "max_entries": null,
    "name": "Overall",
    "rank": null,
    "scoring": "c",
    "start_event": 1
  },
  "new_entries": {
    "has_next": false,
    "page": 1,
    "results": []
  },
  "standings": {
    "has_next": true,
    "page": 1286,
    "results": [
      {
        "club_badge_src": null,
        "entry": 110421,
        "entry_name": "Filipczak Fuseys",
        "event_total": 62,
        "has_played": true,
        "id": 720147,
        "last_rank": 74898,
        "player_name": "Tom Filipczak",
        "rank": 64222,
        "rank_sort": 64251,
        "total": 2343
      },
      {
        "club_badge_src": null,
        "entry": 114736,
        "entry_name": "ryanFC",
        "event_total": 62,
        "has_played": true,
        "id": 748509,
        "last_rank": 74898,
        "player_name": "Ryan Laight",
        "rank": 64222,
        "rank_sort": 64252,
        "total": 2343
      },
      {
        "club_badge_src": "https://fantasy.premierleague.com/gcs/plfpl-production-adobe-approved/plfpl-production/118050/47ff9f59-a490-457f-a385-cbe0d1ab22fd.png",
        "entry": 118050,
        "entry_name": "Torpeda M'butu",
        "event_total": 55,
        "has_played": true,
        "id": 770447,
        "last_rank": 61411,
        "player_name": "Pawel Domszajt",
        "rank": 64222,
        "rank_sort": 64253,
        "total": 2343
      },
      {
        "club_badge_src": null,
        "entry": 129958,
        "entry_name": "Wirtz Team Ever",
        "event_total": 58,
        "has_played": true,
        "id": 846883,
        "last_rank": 59632,
        "player_name": "Darragh Copley",
        "rank": 64222,
        "rank_sort": 64254,
        "total": 2343
      },
      {
        "club_badge_src": "https://fantasy.premierleague.com/gcs/plfpl-production-adobe-approved/plfpl-production/140222/1aff9847-444f-4aa6-974f-acef2bbc1ead.png",
        "entry": 140222,
        "entry_name": "Tiki-Taka CF",
        "event_total": 51,
        "has_played": true,
        "id": 915584,
        "last_rank": 54494,
        "player_name": "Ehsan Fazlhashemi",
        "rank": 64222,
        "rank_sort": 64255,
        "total": 2343
      },
      {
        "club_badge_src": null,
        "entry": 162844,
        "entry_name": "KeepCalmAndCarrickOn",
        "event_total": 52,
        "has_played": true,
        "id": 1073671,
        "last_rank": 56369,
        "player_name": "Mervin P",
        "rank": 64222,
        "rank_sort": 64256,
        "total": 2343
      },
      {
        "club_badge_src": "https://fantasy.premierleague.com/gcs/plfpl-production-adobe-approved/plfpl-production/169812/f43a01ec-11e7-45e9-b8f2-70ef6ece8ff5.png",
        "entry": 169812,
        "entry_name": "Salibanter FC",
        "event_total": 58,
        "has_played": true,
        "id": 1122096,
        "last_rank": 67063,
        "player_name": "Erwan Camaret",
        "rank": 64222,
        "rank_sort": 64257,
        "total": 2343
      },
      {
        "club_badge_src": null,
        "entry": 180386,
        "entry_name": "Kaka",
        "event_total": 45,
        "has_played": true,
        "id": 1190409,
        "last_rank": 45416,
        "player_name": "Tuan Nguyen",
        "rank": 64222,
        "rank_sort": 64258,
        "total": 2343
      },
      {
        "club_badge_src": null,
        "entry": 213267,
        "entry_name": "Tinchy Reijnders",
        "event_total": 60,
        "has_played": true,
        "id": 1418686,
        "last_rank": 70985,
        "player_name": "Liam Ellwood",
        "rank": 64222,
        "rank_sort": 64259,
        "total": 2343
      },
      {
        "club_badge_src": null,
        "entry": 216217,
        "entry_name": "A Cunha Mateta",
        "event_total": 51,
        "has_played": true,
        "id": 1438047,
        "last_rank": 54667,
        "player_name": "Jacob Collyer-Smith",
        "rank": 64222,
        "rank_sort": 64260,
        "total": 2343
      },
      {
        "club_badge_src": null,
        "entry": 234016,
        "entry_name": "Cops and Rogers",
        "event_total": 56,
        "has_played": true,
        "id": 1557199,
        "last_rank": 63201,
        "player_name": "wyatt lovelace",
        "rank": 64222,
        "rank_sort": 64261,
        "total": 2343
      },
      {
        "club_badge_src": null,
        "entry": 252238,
        "entry_name": "Ctrl Alt de Ligt",
        "event_total": 55,
        "has_played": true,
        "id": 1677842,
        "last_rank": 61606,
        "player_name": "Jonathan Haugen",
        "rank": 64222,
        "rank_sort": 64262,
        "total": 2343
      },
      {
        "club_badge_src": null,
        "entry": 255123,
        "entry_name": "Wukkington Wanderers",
        "event_total": 54,
        "has_played": true,
        "id": 1697044,
        "last_rank": 59813,
        "player_name": "Peter Quinn",
        "rank": 64222,
        "rank_sort": 64263,
        "total": 2343
      },
      {
        "club_badge_src": null,
        "entry": 264070,
        "entry_name": "Cbuemo",
        "event_total": 65,
        "has_played": true,
        "id": 1755957,
        "last_rank": 81420,
        "player_name": "matt harding",
        "rank": 64222,
        "rank_sort": 64264,
        "total": 2343
      },
      {
        "club_badge_src": "https://fantasy.premierleague.com/gcs/plfpl-production-adobe-approved/plfpl-production/307513/2418032e-a46e-4a05-b47a-65c3f5fbc366.png",
        "entry": 307513,
        "entry_name": "Make love, not VAR",
        "event_total": 67,
        "has_played": true,
        "id": 2059589,
        "last_rank": 86304,
        "player_name": "Janne Puumalainen",
        "rank": 64222,
        "rank_sort": 64265,
        "total": 2343
      },
      {
        "club_badge_src": "https://fantasy.premierleague.com/gcs/plfpl-production-adobe-approved/plfpl-production/331069/e8dfe4ca-3237-4750-a6d8-a011230deeff.png",
        "entry": 331069,
        "entry_name": "Lindley Park FC",
        "event_total": 56,
        "has_played": true,
        "id": 2217548,
        "last_rank": 63201,
        "player_name": "Shaun O'Connor",
        "rank": 64222,
        "rank_sort": 64266,
        "total": 2343
      },
      {
        "club_badge_src": null,
        "entry": 337247,
        "entry_name": "It's Lavia-Sarr",
        "event_total": 50,
        "has_played": true,
        "id": 2257767,
        "last_rank": 53023,
        "player_name": "Joe Courtier",
        "rank": 64222,
        "rank_sort": 64267,
        "total": 2343
      },
      {
        "club_badge_src": null,
        "entry": 338126,
        "entry_name": "Japesan",
        "event_total": 70,
        "has_played": true,
        "id": 2263670,
        "last_rank": 93008,
        "player_name": "Santichai Seesan",
        "rank": 64222,
        "rank_sort": 64268,
        "total": 2343
      },
      {
        "club_badge_src": "https://fantasy.premierleague.com/gcs/plfpl-production-adobe-approved/plfpl-production/345382/40ca4bca-2dde-409c-a7a2-45722b753102.png",
        "entry": 345382,
        "entry_name": "Tramps Like Us",
        "event_total": 70,
        "has_played": true,
        "id": 2311965,
        "last_rank": 93186,
        "player_name": "Brian Bharwani",
        "rank": 64222,
        "rank_sort": 64269,
        "total": 2343
      },
      {
        "club_badge_src": null,
        "entry": 349295,
        "entry_name": "Drukayo Sanka",
        "event_total": 53,
        "has_played": true,
        "id": 2337880,
        "last_rank": 58071,
        "player_name": "Guillermo Hoogland",
        "rank": 64222,
        "rank_sort": 64270,
        "total": 2343
      },
      {
        "club_badge_src": null,
        "entry": 369341,
        "entry_name": "CHANYA 29",
        "event_total": 52,
        "has_played": true,
        "id": 2471460,
        "last_rank": 56180,
        "player_name": "Chanya Phutphat",
        "rank": 64222,
        "rank_sort": 64271,
        "total": 2343
      },
      {
        "club_badge_src": null,
        "entry": 398355,
        "entry_name": "Hapoel Argazim",
        "event_total": 61,
        "has_played": true,
        "id": 2671390,
        "last_rank": 72815,
        "player_name": "Ido Cahana",
        "rank": 64222,
        "rank_sort": 64272,
        "total": 2343
      },
      {
        "club_badge_src": null,
        "entry": 411256,
        "entry_name": "Exbelliarmus",
        "event_total": 67,
        "has_played": true,
        "id": 2757526,
        "last_rank": 86304,
        "player_name": "Tom Bell",
        "rank": 64222,
        "rank_sort": 64273,
        "total": 2343
      },
      {
        "club_badge_src": null,
        "entry": 415698,
        "entry_name": "Re9naby",
        "event_total": 46,
        "has_played": true,
        "id": 2786760,
        "last_rank": 47163,
        "player_name": "Reza Naby",
        "rank": 64222,
        "rank_sort": 64274,
        "total": 2343
      },
      {
        "club_badge_src": null,
        "entry": 418641,
        "entry_name": "You're a Wissa Harry",
        "event_total": 64,
        "has_played": true,
        "id": 2805983,
        "last_rank": 79190,
        "player_name": "Natalie Whittle",
        "rank": 64222,
        "rank_sort": 64275,
        "total": 2343
      },
      {
        "club_badge_src": null,
        "entry": 440871,
        "entry_name": "Thek\u00eeng7",
        "event_total": 47,
        "has_played": true,
        "id": 2956141,
        "last_rank": 48197,
        "player_name": "salah elhadraoui",
        "rank": 64222,
        "rank_sort": 64276,
        "total": 2343
      },
      {
        "club_badge_src": null,
        "entry": 441572,
        "entry_name": "Cuti & the Beast",
        "event_total": 67,
        "has_played": true,
        "id": 2960783,
        "last_rank": 86054,
        "player_name": "Zac Podlesny",
        "rank": 64222,
        "rank_sort": 64277,
        "total": 2343
      },
      {
        "club_badge_src": null,
        "entry": 451629,
        "entry_name": "Eat My Goals",
        "event_total": 42,
        "has_played": true,
        "id": 3029914,
        "last_rank": 41101,
        "player_name": "Jonathan Neve",
        "rank": 64222,
        "rank_sort": 64278,
        "total": 2343
      },
      {
        "club_badge_src": null,
        "entry": 470316,
        "entry_name": "Pinky and De Bruyne",
        "event_total": 42,
        "has_played": true,
        "id": 3157121,
        "last_rank": 41101,
        "player_name": "Simon Hambidge",
        "rank": 64222,
        "rank_sort": 64279,
        "total": 2343
      },
      {
        "club_badge_src": null,
        "entry": 499698,
        "entry_name": "JeremiePingPong",
        "event_total": 63,
        "has_played": true,
        "id": 3353632,
        "last_rank": 77258,
        "player_name": "Anish Bansal",
        "rank": 64222,
        "rank_sort": 64280,
        "total": 2343
      },
      {
        "club_badge_src": null,
        "entry": 518503,
        "entry_name": "Horle of Shamers",
        "event_total": 46,
        "has_played": true,
        "id": 3481284,
        "last_rank": 46660,
        "player_name": "Tom Horle",
        "rank": 64222,
        "rank_sort": 64281,
        "total": 2343
      },
      {
        "club_badge_src": null,
        "entry": 545788,
        "entry_name": "Game of stones",
        "event_total": 61,
        "has_played": true,
        "id": 3673166,
        "last_rank": 73038,
        "player_name": "Freddie Burke",
        "rank": 64222,
        "rank_sort": 64282,
        "total": 2343
      },
      {
        "club_badge_src": null,
        "entry": 554997,
        "entry_name": "Sorvankyl\u00e4n Pallo",
        "event_total": 61,
        "has_played": true,
        "id": 3735401,
        "last_rank": 73038,
        "player_name": "K Jyr\u00e4",
        "rank": 64222,
        "rank_sort": 64283,
        "total": 2343
      },
      {
        "club_badge_src": null,
        "entry": 570378,
        "entry_name": "One Man Arne",
        "event_total": 45,
        "has_played": true,
        "id": 3838784,
        "last_rank": 45416,
        "player_name": "Charlie Shuttleworth",
        "rank": 64222,
        "rank_sort": 64284,
        "total": 2343
      },
      {
        "club_badge_src": null,
        "entry": 573481,
        "entry_name": "dDothrakis",
        "event_total": 73,
        "has_played": true,
        "id": 3859503,
        "last_rank": 100572,
        "player_name": "Naveen K",
        "rank": 64222,
        "rank_sort": 64285,
        "total": 2343
      },
      {
        "club_badge_src": null,
        "entry": 586780,
        "entry_name": "Gana Give You Up",
        "event_total": 58,
        "has_played": true,
        "id": 3949322,
        "last_rank": 67063,
        "player_name": "Matthew Sullivan",
        "rank": 64222,
        "rank_sort": 64286,
        "total": 2343
      },
      {
        "club_badge_src": null,
        "entry": 605631,
        "entry_name": "Fight Club De Futbol",
        "event_total": 53,
        "has_played": true,
        "id": 4089118,
        "last_rank": 58071,
        "player_name": "Harry H",
        "rank": 64222,
        "rank_sort": 64287,
        "total": 2343
      },
      {
        "club_badge_src": null,
        "entry": 605825,
        "entry_name": "Lusail Hatters",
        "event_total": 50,
        "has_played": true,
        "id": 4090551,
        "last_rank": 53023,
        "player_name": "Connor McDonald",
        "rank": 64222,
        "rank_sort": 64288,
        "total": 2343
      },
      {
        "club_badge_src": null,
        "entry": 625775,
        "entry_name": "Nice Fc",
        "event_total": 68,
        "has_played": true,
        "id": 4228768,
        "last_rank": 88348,
        "player_name": "Nicholas Kyriakopoulos",
        "rank": 64222,
        "rank_sort": 64289,
        "total": 2343
      },
      {
        "club_badge_src": null,
        "entry": 630096,
        "entry_name": "Pep Will Eat Itself",
        "event_total": 69,
        "has_played": true,
        "id": 4257818,
        "last_rank": 91006,
        "player_name": "craig netterfield",
        "rank": 64222,
        "rank_sort": 64290,
        "total": 2343
      },
      {
        "club_badge_src": null,
        "entry": 637379,
        "entry_name": "can't get any wirtz",
        "event_total": 60,
        "has_played": true,
        "id": 4307756,
        "last_rank": 70757,
        "player_name": "Aarnav Munshi",
        "rank": 64222,
        "rank_sort": 64291,
        "total": 2343
      },
      {
        "club_badge_src": null,
        "entry": 642563,
        "entry_name": "omgheisgosu",
        "event_total": 66,
        "has_played": true,
        "id": 4342714,
        "last_rank": 83698,
        "player_name": "Denys Bushyn",
        "rank": 64222,
        "rank_sort": 64292,
        "total": 2343
      },
      {
        "club_badge_src": null,
        "entry": 673719,
        "entry_name": "Valar Morghulis",
        "event_total": 67,
        "has_played": true,
        "id": 4557473,
        "last_rank": 86304,
        "player_name": "Olivier Chavry",
        "rank": 64222,
        "rank_sort": 64293,
        "total": 2343
      },
      {
        "club_badge_src": null,
        "entry": 682614,
        "entry_name": "Palmer Ham",
        "event_total": 43,
        "has_played": true,
        "id": 4619840,
        "last_rank": 42648,
        "player_name": "Rebecca Samuels",
        "rank": 64222,
        "rank_sort": 64294,
        "total": 2343
      },
      {
        "club_badge_src": null,
        "entry": 687068,
        "entry_name": "Bee Juice",
        "event_total": 58,
        "has_played": true,
        "id": 4651309,
        "last_rank": 67063,
        "player_name": "Ethan White",
        "rank": 64222,
        "rank_sort": 64295,
        "total": 2343
      },
      {
        "club_badge_src": null,
        "entry": 695179,
        "entry_name": "Roll of the Dyche",
        "event_total": 52,
        "has_played": true,
        "id": 4708401,
        "last_rank": 56369,
        "player_name": "Martin Beesley",
        "rank": 64222,
        "rank_sort": 64296,
        "total": 2343
      },
      {
        "club_badge_src": null,
        "entry": 695593,
        "entry_name": "Hugo Boss",
        "event_total": 65,
        "has_played": true,
        "id": 4711282,
        "last_rank": 81420,
        "player_name": "Hugh McCaffrey",
        "rank": 64222,
        "rank_sort": 64297,
        "total": 2343
      },
      {
        "club_badge_src": null,
        "entry": 696596,
        "entry_name": "Shaw Mee The Man\u00e9",
        "event_total": 63,
        "has_played": true,
        "id": 4718343,
        "last_rank": 77258,
        "player_name": "Ryan Ramsay",
        "rank": 64222,
        "rank_sort": 64298,
        "total": 2343
      },
      {
        "club_badge_src": null,
        "entry": 701151,
        "entry_name": "Bruno Dos Tres",
        "event_total": 56,
        "has_played": true,
        "id": 4750658,
        "last_rank": 63390,
        "player_name": "Sam Tullett",
        "rank": 64222,
        "rank_sort": 64299,
        "total": 2343
      },
      {
        "club_badge_src": "https://fantasy.premierleague.com/gcs/plfpl-production-adobe-approved/plfpl-production/715489/6463df94-8da9-4057-8cec-2be2f600f655.png",
        "entry": 715489,
        "entry_name": "EL EL ISRAEL - OREN",
        "event_total": 71,
        "has_played": true,
        "id": 4854310,
        "last_rank": 95890,
        "player_name": "oren churi \ud83c\uddee\ud83c\uddf1",
        "rank": 64222,
        "rank_sort": 64300,
        "total": 2343
      }
    ]
  }
}