{
  "last_updated_data": "2026-05-24T23:28:17Z",
  "league": {
    "admin_entry": null,
    "closed": false,
    "code_privacy": "p",
    "created": "2025-07-20T23:14:33.933835Z",
    "cup_league": 2815434,
    "has_cup": true,
    "id": 314,
    "league_type": "s",
    "max_entries": null,
    "name": "Overall",
    "rank": null,
    "scoring": "c",
    "start_event": 1
  },
  "new_entries": {
    "has_next": false,
    "page": 1,
    "results": []
  },
  "standings": {
    "has_next": true,
    "page": 830,
    "results": [
      {
        "club_badge_src": null,
        "entry": 1599467,
        "entry_name": "FelixWastedPotential",
        "event_total": 64,
        "has_played": true,
        "id": 11189201,
        "last_rank": 51403,
        "player_name": "Dua Yamal",
        "rank": 41339,
        "rank_sort": 41451,
        "total": 2358
      },
      {
        "club_badge_src": "https://fantasy.premierleague.com/gcs/plfpl-production-adobe-approved/plfpl-production/1624795/ae95893d-6492-4012-909e-af4a71407940.png",
        "entry": 1624795,
        "entry_name": "Life is a Kai-way",
        "event_total": 41,
        "has_played": true,
        "id": 11372304,
        "last_rank": 24330,
        "player_name": "David Burn",
        "rank": 41339,
        "rank_sort": 41452,
        "total": 2358
      },
      {
        "club_badge_src": null,
        "entry": 1655484,
        "entry_name": "SBH  FC",
        "event_total": 68,
        "has_played": true,
        "id": 11590251,
        "last_rank": 58388,
        "player_name": "S Badaru",
        "rank": 41339,
        "rank_sort": 41453,
        "total": 2358
      },
      {
        "club_badge_src": null,
        "entry": 1714189,
        "entry_name": "THS04",
        "event_total": 53,
        "has_played": true,
        "id": 12011680,
        "last_rank": 36348,
        "player_name": "THS 04",
        "rank": 41339,
        "rank_sort": 41454,
        "total": 2358
      },
      {
        "club_badge_src": "https://fantasy.premierleague.com/gcs/plfpl-production-adobe-approved/plfpl-production/1724904/86153725-9074-402d-898a-beac491649b2.png",
        "entry": 1724904,
        "entry_name": "GROOT",
        "event_total": 74,
        "has_played": true,
        "id": 12095653,
        "last_rank": 61606,
        "player_name": "Rawad Abboud",
        "rank": 41339,
        "rank_sort": 41455,
        "total": 2358
      },
      {
        "club_badge_src": null,
        "entry": 1730117,
        "entry_name": "Barca Fc",
        "event_total": 44,
        "has_played": true,
        "id": 12134731,
        "last_rank": 27020,
        "player_name": "Abdelrahman Anwar",
        "rank": 41339,
        "rank_sort": 41456,
        "total": 2358
      },
      {
        "club_badge_src": null,
        "entry": 1738015,
        "entry_name": "Noah",
        "event_total": 34,
        "has_played": true,
        "id": 12193339,
        "last_rank": 19103,
        "player_name": "Hi FPL",
        "rank": 41339,
        "rank_sort": 41457,
        "total": 2358
      },
      {
        "club_badge_src": null,
        "entry": 1763196,
        "entry_name": "Droops Dreamers",
        "event_total": 72,
        "has_played": true,
        "id": 12381015,
        "last_rank": 65475,
        "player_name": "Bryan O Hara",
        "rank": 41339,
        "rank_sort": 41458,
        "total": 2358
      },
      {
        "club_badge_src": null,
        "entry": 1766883,
        "entry_name": "AHmED",
        "event_total": 44,
        "has_played": true,
        "id": 12411359,
        "last_rank": 27020,
        "player_name": "Ahmed Mohamed",
        "rank": 41339,
        "rank_sort": 41459,
        "total": 2358
      },
      {
        "club_badge_src": "https://fantasy.premierleague.com/gcs/plfpl-production-adobe-approved/plfpl-production/1768630/27f62b5c-823c-430a-8473-c763cc5a15cc.png",
        "entry": 1768630,
        "entry_name": "King FC",
        "event_total": 65,
        "has_played": true,
        "id": 12423998,
        "last_rank": 46839,
        "player_name": "Seyi Adepegba",
        "rank": 41339,
        "rank_sort": 41460,
        "total": 2358
      },
      {
        "club_badge_src": null,
        "entry": 1812256,
        "entry_name": "Nice one brother!",
        "event_total": 66,
        "has_played": true,
        "id": 12742771,
        "last_rank": 55014,
        "player_name": "Jimmy Harvey",
        "rank": 41339,
        "rank_sort": 41461,
        "total": 2358
      },
      {
        "club_badge_src": null,
        "entry": 1857684,
        "entry_name": "The Selecao",
        "event_total": 66,
        "has_played": true,
        "id": 13073701,
        "last_rank": 55014,
        "player_name": "Denis Adatare",
        "rank": 41339,
        "rank_sort": 41462,
        "total": 2358
      },
      {
        "club_badge_src": null,
        "entry": 1859603,
        "entry_name": "As High As Mudryk",
        "event_total": 74,
        "has_played": true,
        "id": 13088108,
        "last_rank": 68748,
        "player_name": "Hoang Gia Bao",
        "rank": 41339,
        "rank_sort": 41463,
        "total": 2358
      },
      {
        "club_badge_src": "https://fantasy.premierleague.com/gcs/plfpl-production-adobe-approved/plfpl-production/1874523/f6d65e9c-8b41-4394-b9f4-560cf2ef901f.png",
        "entry": 1874523,
        "entry_name": "Squid Rings",
        "event_total": 66,
        "has_played": true,
        "id": 13197548,
        "last_rank": 48363,
        "player_name": "Rory Davies",
        "rank": 41339,
        "rank_sort": 41464,
        "total": 2358
      },
      {
        "club_badge_src": "https://fantasy.premierleague.com/gcs/plfpl-production-adobe-approved/plfpl-production/2007237/57ea115c-d74d-4d8a-9c75-545121c95a99.png",
        "entry": 2007237,
        "entry_name": "Mahdi team",
        "event_total": 35,
        "has_played": true,
        "id": 14191957,
        "last_rank": 16807,
        "player_name": "Mahdi Alanazi",
        "rank": 41339,
        "rank_sort": 41465,
        "total": 2358
      },
      {
        "club_badge_src": null,
        "entry": 2018424,
        "entry_name": "Solace Incorporated",
        "event_total": 71,
        "has_played": true,
        "id": 14280157,
        "last_rank": 63724,
        "player_name": "IGE NIMFAS",
        "rank": 41339,
        "rank_sort": 41466,
        "total": 2358
      },
      {
        "club_badge_src": null,
        "entry": 2155975,
        "entry_name": "Change Name",
        "event_total": 64,
        "has_played": true,
        "id": 15325699,
        "last_rank": 51720,
        "player_name": "Adam Umar",
        "rank": 41339,
        "rank_sort": 41467,
        "total": 2358
      },
      {
        "club_badge_src": null,
        "entry": 2285333,
        "entry_name": "Havertz Harmony",
        "event_total": 66,
        "has_played": true,
        "id": 16297781,
        "last_rank": 54667,
        "player_name": "Murray Johnston",
        "rank": 41339,
        "rank_sort": 41468,
        "total": 2358
      },
      {
        "club_badge_src": null,
        "entry": 2332184,
        "entry_name": "Hacunha Mateta",
        "event_total": 62,
        "has_played": true,
        "id": 16639437,
        "last_rank": 48363,
        "player_name": "Aidan Gouveia",
        "rank": 41339,
        "rank_sort": 41469,
        "total": 2358
      },
      {
        "club_badge_src": null,
        "entry": 2343287,
        "entry_name": "As Veleno",
        "event_total": 50,
        "has_played": true,
        "id": 16720136,
        "last_rank": 33332,
        "player_name": "Firman Pratama",
        "rank": 41339,
        "rank_sort": 41470,
        "total": 2358
      },
      {
        "club_badge_src": null,
        "entry": 2344536,
        "entry_name": "Gorrasa United",
        "event_total": 69,
        "has_played": true,
        "id": 16728989,
        "last_rank": 60168,
        "player_name": "khalid Ibrahim",
        "rank": 41339,
        "rank_sort": 41471,
        "total": 2358
      },
      {
        "club_badge_src": null,
        "entry": 2433153,
        "entry_name": "HalfnHalf FC",
        "event_total": 46,
        "has_played": true,
        "id": 17399006,
        "last_rank": 28906,
        "player_name": "chris banks",
        "rank": 41339,
        "rank_sort": 41472,
        "total": 2358
      },
      {
        "club_badge_src": null,
        "entry": 2441279,
        "entry_name": "alleyoop",
        "event_total": 55,
        "has_played": true,
        "id": 17459253,
        "last_rank": 33936,
        "player_name": "Yumi Ward",
        "rank": 41339,
        "rank_sort": 41473,
        "total": 2358
      },
      {
        "club_badge_src": "https://fantasy.premierleague.com/gcs/plfpl-production-adobe-approved/plfpl-production/2464824/cf8bc721-75e1-4c7b-9c14-248ed5e56fad.png",
        "entry": 2464824,
        "entry_name": "sakranisto fc",
        "event_total": 50,
        "has_played": true,
        "id": 17631079,
        "last_rank": 33147,
        "player_name": "Mr Janawa",
        "rank": 41339,
        "rank_sort": 41474,
        "total": 2358
      },
      {
        "club_badge_src": null,
        "entry": 2473397,
        "entry_name": "Toastie-meerkat",
        "event_total": 48,
        "has_played": true,
        "id": 17695543,
        "last_rank": 26827,
        "player_name": "Celine Lavaud",
        "rank": 41339,
        "rank_sort": 41475,
        "total": 2358
      },
      {
        "club_badge_src": "https://fantasy.premierleague.com/gcs/plfpl-production-adobe-approved/plfpl-production/2474438/4a7fcf2c-dce4-4989-bfd9-dbb181caf0e1.png",
        "entry": 2474438,
        "entry_name": "Free Darwizzy",
        "event_total": 59,
        "has_played": true,
        "id": 17703295,
        "last_rank": 44048,
        "player_name": "Rhys Parry",
        "rank": 41339,
        "rank_sort": 41476,
        "total": 2358
      },
      {
        "club_badge_src": null,
        "entry": 2508287,
        "entry_name": "GLee's 11",
        "event_total": 61,
        "has_played": true,
        "id": 17963562,
        "last_rank": 47163,
        "player_name": "George Lee",
        "rank": 41339,
        "rank_sort": 41477,
        "total": 2358
      },
      {
        "club_badge_src": "https://fantasy.premierleague.com/gcs/plfpl-production-adobe-approved/plfpl-production/2516734/a90357a1-0184-473d-a33b-40014bce4e46.png",
        "entry": 2516734,
        "entry_name": "Livin' Saliba Loca",
        "event_total": 54,
        "has_played": true,
        "id": 18031204,
        "last_rank": 37822,
        "player_name": "Matthew Stanley",
        "rank": 41339,
        "rank_sort": 41478,
        "total": 2358
      },
      {
        "club_badge_src": null,
        "entry": 2542157,
        "entry_name": "Siuuuuuperstars",
        "event_total": 52,
        "has_played": true,
        "id": 18219681,
        "last_rank": 35424,
        "player_name": "Sabeer Kandel",
        "rank": 41339,
        "rank_sort": 41479,
        "total": 2358
      },
      {
        "club_badge_src": null,
        "entry": 2626101,
        "entry_name": "Kobbie Wan Kenobi",
        "event_total": 69,
        "has_played": true,
        "id": 18870794,
        "last_rank": 59632,
        "player_name": "James Snowdon",
        "rank": 41339,
        "rank_sort": 41480,
        "total": 2358
      },
      {
        "club_badge_src": null,
        "entry": 2639749,
        "entry_name": "Joel Glazer",
        "event_total": 64,
        "has_played": true,
        "id": 18972476,
        "last_rank": 45416,
        "player_name": "Sooraj Rao",
        "rank": 41339,
        "rank_sort": 41481,
        "total": 2358
      },
      {
        "club_badge_src": null,
        "entry": 2812562,
        "entry_name": "Cityson",
        "event_total": 51,
        "has_played": true,
        "id": 20542841,
        "last_rank": 29578,
        "player_name": "Jason Seng",
        "rank": 41339,
        "rank_sort": 41482,
        "total": 2358
      },
      {
        "club_badge_src": null,
        "entry": 2863837,
        "entry_name": "3RokLepszyOdPiotra",
        "event_total": 62,
        "has_played": true,
        "id": 20944715,
        "last_rank": 48363,
        "player_name": "Krzysztof Fuhrmann",
        "rank": 41339,
        "rank_sort": 41483,
        "total": 2358
      },
      {
        "club_badge_src": "https://fantasy.premierleague.com/gcs/plfpl-production-adobe-approved/plfpl-production/3037636/578ec608-626b-4c37-b551-e58d7f8cf836.png",
        "entry": 3037636,
        "entry_name": "Sum\u00e1s de Ananol",
        "event_total": 58,
        "has_played": true,
        "id": 22357202,
        "last_rank": 42940,
        "player_name": "Victor Silveira",
        "rank": 41339,
        "rank_sort": 41484,
        "total": 2358
      },
      {
        "club_badge_src": "https://fantasy.premierleague.com/gcs/plfpl-production-adobe-approved/plfpl-production/3066853/cefd766f-e2ba-4db6-a43b-101ca683dd92.png",
        "entry": 3066853,
        "entry_name": "Lea Vale United",
        "event_total": 56,
        "has_played": true,
        "id": 22581285,
        "last_rank": 40036,
        "player_name": "Ben Hodgson",
        "rank": 41339,
        "rank_sort": 41485,
        "total": 2358
      },
      {
        "club_badge_src": null,
        "entry": 3087347,
        "entry_name": "Tory Woodo",
        "event_total": 57,
        "has_played": true,
        "id": 22747197,
        "last_rank": 41617,
        "player_name": "Sam Willis",
        "rank": 41339,
        "rank_sort": 41486,
        "total": 2358
      },
      {
        "club_badge_src": null,
        "entry": 3133916,
        "entry_name": "Lack of border sauce",
        "event_total": 80,
        "has_played": true,
        "id": 23132791,
        "last_rank": 82069,
        "player_name": "Harry Walker",
        "rank": 41339,
        "rank_sort": 41487,
        "total": 2358
      },
      {
        "club_badge_src": null,
        "entry": 3144732,
        "entry_name": "Eimatkatapavaanseura",
        "event_total": 62,
        "has_played": true,
        "id": 23218779,
        "last_rank": 48119,
        "player_name": "Ville Kovalainen",
        "rank": 41339,
        "rank_sort": 41488,
        "total": 2358
      },
      {
        "club_badge_src": null,
        "entry": 3193422,
        "entry_name": "APNA5ABFC",
        "event_total": 60,
        "has_played": true,
        "id": 23601856,
        "last_rank": 45714,
        "player_name": "Saminder Tumber",
        "rank": 41339,
        "rank_sort": 41489,
        "total": 2358
      },
      {
        "club_badge_src": null,
        "entry": 3272851,
        "entry_name": "Aguirre FC",
        "event_total": 72,
        "has_played": true,
        "id": 24220932,
        "last_rank": 65475,
        "player_name": "Agust\u00edn Aguirre",
        "rank": 41339,
        "rank_sort": 41490,
        "total": 2358
      },
      {
        "club_badge_src": null,
        "entry": 3374830,
        "entry_name": "PAPICREEPY",
        "event_total": 56,
        "has_played": true,
        "id": 25048719,
        "last_rank": 40297,
        "player_name": "Fernando Valdano",
        "rank": 41339,
        "rank_sort": 41491,
        "total": 2358
      },
      {
        "club_badge_src": "https://fantasy.premierleague.com/gcs/plfpl-production-adobe-approved/plfpl-production/3384357/3643c0bd-d4d8-46b8-a3d4-42316bcb94e8.png",
        "entry": 3384357,
        "entry_name": "Ariy Shibuya",
        "event_total": 67,
        "has_played": true,
        "id": 25122868,
        "last_rank": 49691,
        "player_name": "Taishu Sumiyoshi",
        "rank": 41339,
        "rank_sort": 41492,
        "total": 2358
      },
      {
        "club_badge_src": null,
        "entry": 3450671,
        "entry_name": "Taylor's Swifties",
        "event_total": 71,
        "has_played": true,
        "id": 25642948,
        "last_rank": 56180,
        "player_name": "Jimmy Taylor",
        "rank": 41339,
        "rank_sort": 41493,
        "total": 2358
      },
      {
        "club_badge_src": null,
        "entry": 3486287,
        "entry_name": "Living Lavia Loca",
        "event_total": 56,
        "has_played": true,
        "id": 25926077,
        "last_rank": 40297,
        "player_name": "Kai Maxted",
        "rank": 41339,
        "rank_sort": 41494,
        "total": 2358
      },
      {
        "club_badge_src": null,
        "entry": 3499128,
        "entry_name": "Swarf FC",
        "event_total": 49,
        "has_played": true,
        "id": 26028548,
        "last_rank": 31747,
        "player_name": "Nicola Watt",
        "rank": 41339,
        "rank_sort": 41495,
        "total": 2358
      },
      {
        "club_badge_src": null,
        "entry": 3506754,
        "entry_name": "non-obvious choices",
        "event_total": 61,
        "has_played": true,
        "id": 26087954,
        "last_rank": 47163,
        "player_name": "Kacper \u015aliwiak",
        "rank": 41339,
        "rank_sort": 41496,
        "total": 2358
      },
      {
        "club_badge_src": null,
        "entry": 3508546,
        "entry_name": "Paltaney",
        "event_total": 60,
        "has_played": true,
        "id": 26103186,
        "last_rank": 45714,
        "player_name": "Paras Pradhan",
        "rank": 41339,
        "rank_sort": 41497,
        "total": 2358
      },
      {
        "club_badge_src": "https://fantasy.premierleague.com/gcs/plfpl-production-adobe-approved/plfpl-production/3630837/b899b2fc-8037-4e9d-a2e1-68efaacefb8c.png",
        "entry": 3630837,
        "entry_name": "Jesus loves you",
        "event_total": 60,
        "has_played": true,
        "id": 27056283,
        "last_rank": 40036,
        "player_name": "Surasak Ussawathawornchai",
        "rank": 41339,
        "rank_sort": 41498,
        "total": 2358
      },
      {
        "club_badge_src": null,
        "entry": 3633422,
        "entry_name": "Parni Valjak",
        "event_total": 55,
        "has_played": true,
        "id": 27076325,
        "last_rank": 38644,
        "player_name": "Dusan V",
        "rank": 41339,
        "rank_sort": 41499,
        "total": 2358
      },
      {
        "club_badge_src": null,
        "entry": 3722611,
        "entry_name": "!!Mandhtaagudam!!",
        "event_total": 52,
        "has_played": true,
        "id": 27781623,
        "last_rank": 35424,
        "player_name": "Udheern Reddy Mugala",
        "rank": 41339,
        "rank_sort": 41500,
        "total": 2358
      }
    ]
  }
}