{
  "last_updated_data": "2026-05-24T23:28:17Z",
  "league": {
    "admin_entry": null,
    "closed": false,
    "code_privacy": "p",
    "created": "2025-07-20T23:14:33.933835Z",
    "cup_league": 2815434,
    "has_cup": true,
    "id": 314,
    "league_type": "s",
    "max_entries": null,
    "name": "Overall",
    "rank": null,
    "scoring": "c",
    "start_event": 1
  },
  "new_entries": {
    "has_next": false,
    "page": 1,
    "results": []
  },
  "standings": {
    "has_next": true,
    "page": 394,
    "results": [
      {
        "club_badge_src": null,
        "entry": 8063638,
        "entry_name": "OB FC",
        "event_total": 67,
        "has_played": true,
        "id": 66462077,
        "last_rank": 23656,
        "player_name": "Omar Barghout",
        "rank": 19583,
        "rank_sort": 19651,
        "total": 2381
      },
      {
        "club_badge_src": null,
        "entry": 8420840,
        "entry_name": "Lallanas in Pjyamas",
        "event_total": 64,
        "has_played": true,
        "id": 69875563,
        "last_rank": 21301,
        "player_name": "Keyzer Soze",
        "rank": 19583,
        "rank_sort": 19652,
        "total": 2381
      },
      {
        "club_badge_src": null,
        "entry": 8823717,
        "entry_name": "Bunker Boys",
        "event_total": 49,
        "has_played": true,
        "id": 73772344,
        "last_rank": 14102,
        "player_name": "Joel Holland",
        "rank": 19583,
        "rank_sort": 19653,
        "total": 2381
      },
      {
        "club_badge_src": null,
        "entry": 5228,
        "entry_name": "The Klarnets",
        "event_total": 57,
        "has_played": true,
        "id": 29790,
        "last_rank": 16441,
        "player_name": "Hubert Zawieja",
        "rank": 19654,
        "rank_sort": 19654,
        "total": 2381
      },
      {
        "club_badge_src": null,
        "entry": 13763,
        "entry_name": "Famous last words",
        "event_total": 78,
        "has_played": true,
        "id": 83302,
        "last_rank": 34578,
        "player_name": "Douglas Sharp",
        "rank": 19654,
        "rank_sort": 19655,
        "total": 2381
      },
      {
        "club_badge_src": "https://fantasy.premierleague.com/gcs/plfpl-production-adobe-approved/plfpl-production/17627/cae65a59-8f4b-44a2-9913-687231e3ae9f.png",
        "entry": 17627,
        "entry_name": "Fizzy Water",
        "event_total": 56,
        "has_played": true,
        "id": 109411,
        "last_rank": 15797,
        "player_name": "Kieran Scully",
        "rank": 19654,
        "rank_sort": 19656,
        "total": 2381
      },
      {
        "club_badge_src": "https://fantasy.premierleague.com/gcs/plfpl-production-adobe-approved/plfpl-production/21910/bcb0e818-97aa-45f6-aafe-3bed2d2cf72a.png",
        "entry": 21910,
        "entry_name": "Cheddar Cheesemen",
        "event_total": 62,
        "has_played": true,
        "id": 137469,
        "last_rank": 22685,
        "player_name": "Phil Bailey",
        "rank": 19654,
        "rank_sort": 19657,
        "total": 2381
      },
      {
        "club_badge_src": null,
        "entry": 47854,
        "entry_name": "Bruno Dos Tres",
        "event_total": 73,
        "has_played": true,
        "id": 307127,
        "last_rank": 33483,
        "player_name": "Oliver Barletta",
        "rank": 19654,
        "rank_sort": 19658,
        "total": 2381
      },
      {
        "club_badge_src": null,
        "entry": 52238,
        "entry_name": "ZSC",
        "event_total": 65,
        "has_played": true,
        "id": 335921,
        "last_rank": 22154,
        "player_name": "Mahmoud Khaled",
        "rank": 19654,
        "rank_sort": 19659,
        "total": 2381
      },
      {
        "club_badge_src": null,
        "entry": 88595,
        "entry_name": "man utd team \ufffd\u2764\ufe0f",
        "event_total": 55,
        "has_played": true,
        "id": 578161,
        "last_rank": 15226,
        "player_name": "souma kh",
        "rank": 19654,
        "rank_sort": 19660,
        "total": 2381
      },
      {
        "club_badge_src": null,
        "entry": 91422,
        "entry_name": "STOOJ",
        "event_total": 49,
        "has_played": true,
        "id": 597132,
        "last_rank": 14148,
        "player_name": "Stuart Joynes",
        "rank": 19654,
        "rank_sort": 19661,
        "total": 2381
      },
      {
        "club_badge_src": "https://fantasy.premierleague.com/gcs/plfpl-production-adobe-approved/plfpl-production/101365/7db345bb-dbe9-4d82-beec-ea94be6c6d5f.png",
        "entry": 101365,
        "entry_name": "Ackata team",
        "event_total": 73,
        "has_played": true,
        "id": 661399,
        "last_rank": 29199,
        "player_name": "Atanas Tanev",
        "rank": 19654,
        "rank_sort": 19662,
        "total": 2381
      },
      {
        "club_badge_src": "https://fantasy.premierleague.com/gcs/plfpl-production-adobe-approved/plfpl-production/139787/5c411f2c-471e-4fcc-b3de-d3232109ba09.png",
        "entry": 139787,
        "entry_name": "The Eleven",
        "event_total": 58,
        "has_played": true,
        "id": 912559,
        "last_rank": 19904,
        "player_name": "Wayne Rodrigues",
        "rank": 19654,
        "rank_sort": 19663,
        "total": 2381
      },
      {
        "club_badge_src": null,
        "entry": 449534,
        "entry_name": "Nutmeg XI",
        "event_total": 62,
        "has_played": true,
        "id": 3016062,
        "last_rank": 19904,
        "player_name": "Shashank Bhandari",
        "rank": 19654,
        "rank_sort": 19664,
        "total": 2381
      },
      {
        "club_badge_src": null,
        "entry": 496371,
        "entry_name": "Change Name",
        "event_total": 53,
        "has_played": true,
        "id": 3331606,
        "last_rank": 16567,
        "player_name": "ashleigh ghaleb",
        "rank": 19654,
        "rank_sort": 19665,
        "total": 2381
      },
      {
        "club_badge_src": null,
        "entry": 526439,
        "entry_name": "Oni White Rice",
        "event_total": 79,
        "has_played": true,
        "id": 3538718,
        "last_rank": 40503,
        "player_name": "Hoang Pham",
        "rank": 19654,
        "rank_sort": 19666,
        "total": 2381
      },
      {
        "club_badge_src": null,
        "entry": 739492,
        "entry_name": "Czarnobyl Zdr\u00f3j",
        "event_total": 62,
        "has_played": true,
        "id": 5027908,
        "last_rank": 19835,
        "player_name": "Tomasz Kuklis",
        "rank": 19654,
        "rank_sort": 19667,
        "total": 2381
      },
      {
        "club_badge_src": null,
        "entry": 766743,
        "entry_name": "Eat my goal",
        "event_total": 65,
        "has_played": true,
        "id": 5229551,
        "last_rank": 18985,
        "player_name": "Chris Orford",
        "rank": 19654,
        "rank_sort": 19668,
        "total": 2381
      },
      {
        "club_badge_src": "https://fantasy.premierleague.com/gcs/plfpl-production-adobe-approved/plfpl-production/812622/9e8158bd-94ff-4176-95ec-73329800f911.png",
        "entry": 812622,
        "entry_name": "Butcher",
        "event_total": 65,
        "has_played": true,
        "id": 5564025,
        "last_rank": 22154,
        "player_name": "Majdi Fazaa",
        "rank": 19654,
        "rank_sort": 19669,
        "total": 2381
      },
      {
        "club_badge_src": "https://fantasy.premierleague.com/gcs/plfpl-production-adobe-approved/plfpl-production/1014228/e010ceeb-528b-4750-aaf7-1a12a782e2d9.png",
        "entry": 1014228,
        "entry_name": "Karma Kamahlian",
        "event_total": 71,
        "has_played": true,
        "id": 7016243,
        "last_rank": 23522,
        "player_name": "Bav Nathan",
        "rank": 19654,
        "rank_sort": 19670,
        "total": 2381
      },
      {
        "club_badge_src": null,
        "entry": 1033416,
        "entry_name": "oggs xi",
        "event_total": 64,
        "has_played": true,
        "id": 7150566,
        "last_rank": 24570,
        "player_name": "Sam Ogden",
        "rank": 19654,
        "rank_sort": 19671,
        "total": 2381
      },
      {
        "club_badge_src": "https://fantasy.premierleague.com/gcs/plfpl-production-adobe-approved/plfpl-production/1148968/fe9c969c-86c4-4493-8396-207ec6a3f7f1.png",
        "entry": 1148968,
        "entry_name": "El F\u0117nom\u00e9n\u00f8",
        "event_total": 69,
        "has_played": true,
        "id": 7966385,
        "last_rank": 22064,
        "player_name": "Omar El Bouamrani",
        "rank": 19654,
        "rank_sort": 19672,
        "total": 2381
      },
      {
        "club_badge_src": null,
        "entry": 1270648,
        "entry_name": "Gvardiola",
        "event_total": 62,
        "has_played": true,
        "id": 8828504,
        "last_rank": 19904,
        "player_name": "Francisco Champac",
        "rank": 19654,
        "rank_sort": 19673,
        "total": 2381
      },
      {
        "club_badge_src": null,
        "entry": 1274356,
        "entry_name": "humbugs fc",
        "event_total": 68,
        "has_played": true,
        "id": 8855050,
        "last_rank": 28348,
        "player_name": "Tom Bloxham",
        "rank": 19654,
        "rank_sort": 19674,
        "total": 2381
      },
      {
        "club_badge_src": "https://fantasy.premierleague.com/gcs/plfpl-production-adobe-approved/plfpl-production/1478603/5739805a-2389-4f75-8cae-9fe9c87475eb.png",
        "entry": 1478603,
        "entry_name": "Bantam Menace",
        "event_total": 61,
        "has_played": true,
        "id": 10309855,
        "last_rank": 22216,
        "player_name": "Nick Keefe",
        "rank": 19654,
        "rank_sort": 19675,
        "total": 2381
      },
      {
        "club_badge_src": null,
        "entry": 1504599,
        "entry_name": "Saka Potatoes",
        "event_total": 53,
        "has_played": true,
        "id": 10493261,
        "last_rank": 16567,
        "player_name": "Conor O Regan",
        "rank": 19654,
        "rank_sort": 19676,
        "total": 2381
      },
      {
        "club_badge_src": "https://fantasy.premierleague.com/gcs/plfpl-production-adobe-approved/plfpl-production/1532335/b829fc5f-b2e9-4b50-b060-69353ee0bfb3.png",
        "entry": 1532335,
        "entry_name": "Blue Suede Toffees*",
        "event_total": 72,
        "has_played": true,
        "id": 10693296,
        "last_rank": 28273,
        "player_name": "John Noone",
        "rank": 19654,
        "rank_sort": 19677,
        "total": 2381
      },
      {
        "club_badge_src": null,
        "entry": 1700354,
        "entry_name": "ManChestHair United",
        "event_total": 61,
        "has_played": true,
        "id": 11910458,
        "last_rank": 22216,
        "player_name": "Shaun Derbyshire",
        "rank": 19654,
        "rank_sort": 19678,
        "total": 2381
      },
      {
        "club_badge_src": null,
        "entry": 1883745,
        "entry_name": "The special one",
        "event_total": 78,
        "has_played": true,
        "id": 13273233,
        "last_rank": 39510,
        "player_name": "Mouhamed Namri",
        "rank": 19654,
        "rank_sort": 19679,
        "total": 2381
      },
      {
        "club_badge_src": "https://fantasy.premierleague.com/gcs/plfpl-production-adobe-approved/plfpl-production/2015052/ecd3ffb6-3279-4b40-8d52-e9afcbf90925.png",
        "entry": 2015052,
        "entry_name": "The Ordinary Men",
        "event_total": 61,
        "has_played": true,
        "id": 14255010,
        "last_rank": 19176,
        "player_name": "Owen Hammersley",
        "rank": 19654,
        "rank_sort": 19680,
        "total": 2381
      },
      {
        "club_badge_src": null,
        "entry": 2451768,
        "entry_name": "Botswana U12C",
        "event_total": 71,
        "has_played": true,
        "id": 17535861,
        "last_rank": 23522,
        "player_name": "Steve Kent",
        "rank": 19654,
        "rank_sort": 19681,
        "total": 2381
      },
      {
        "club_badge_src": null,
        "entry": 2458372,
        "entry_name": "The Hat Creek Outfit",
        "event_total": 59,
        "has_played": true,
        "id": 17584213,
        "last_rank": 17802,
        "player_name": "Michael Hoyland",
        "rank": 19654,
        "rank_sort": 19682,
        "total": 2381
      },
      {
        "club_badge_src": null,
        "entry": 2486558,
        "entry_name": "Liam delap dancer",
        "event_total": 62,
        "has_played": true,
        "id": 17795393,
        "last_rank": 22996,
        "player_name": "Alfie Smith",
        "rank": 19654,
        "rank_sort": 19683,
        "total": 2381
      },
      {
        "club_badge_src": "https://fantasy.premierleague.com/gcs/plfpl-production-adobe-approved/plfpl-production/2869137/fd46b6c2-b2b6-4c39-9e21-31a1c4026d87.png",
        "entry": 2869137,
        "entry_name": "Noni to Worry FC",
        "event_total": 47,
        "has_played": true,
        "id": 20986154,
        "last_rank": 11034,
        "player_name": "Irvin Molina",
        "rank": 19654,
        "rank_sort": 19684,
        "total": 2381
      },
      {
        "club_badge_src": "https://fantasy.premierleague.com/gcs/plfpl-production-adobe-approved/plfpl-production/3041036/cbbfdc95-a474-449c-918b-b2ff89508322.png",
        "entry": 3041036,
        "entry_name": "QuindecennialOfSSDS",
        "event_total": 60,
        "has_played": true,
        "id": 22383504,
        "last_rank": 21450,
        "player_name": "Chirag Madhukar",
        "rank": 19654,
        "rank_sort": 19685,
        "total": 2381
      },
      {
        "club_badge_src": null,
        "entry": 3239464,
        "entry_name": "Set Piece + SPF",
        "event_total": 54,
        "has_played": true,
        "id": 23961059,
        "last_rank": 17194,
        "player_name": "Russell Bailey",
        "rank": 19654,
        "rank_sort": 19686,
        "total": 2381
      },
      {
        "club_badge_src": null,
        "entry": 3275041,
        "entry_name": "Ziipan",
        "event_total": 54,
        "has_played": true,
        "id": 24238648,
        "last_rank": 17194,
        "player_name": "Khochapak Sunsaksawat",
        "rank": 19654,
        "rank_sort": 19687,
        "total": 2381
      },
      {
        "club_badge_src": null,
        "entry": 3293568,
        "entry_name": "kaizo64",
        "event_total": 53,
        "has_played": true,
        "id": 24388055,
        "last_rank": 14102,
        "player_name": "Satyashil Thapa",
        "rank": 19654,
        "rank_sort": 19688,
        "total": 2381
      },
      {
        "club_badge_src": null,
        "entry": 3646557,
        "entry_name": "DTW",
        "event_total": 59,
        "has_played": true,
        "id": 27179392,
        "last_rank": 20678,
        "player_name": "Jon Fisher",
        "rank": 19654,
        "rank_sort": 19689,
        "total": 2381
      },
      {
        "club_badge_src": null,
        "entry": 4125486,
        "entry_name": "The Shola System",
        "event_total": 56,
        "has_played": true,
        "id": 31170129,
        "last_rank": 15876,
        "player_name": "Mitch Taylor",
        "rank": 19654,
        "rank_sort": 19690,
        "total": 2381
      },
      {
        "club_badge_src": null,
        "entry": 4222721,
        "entry_name": "General Okaza",
        "event_total": 68,
        "has_played": true,
        "id": 31988538,
        "last_rank": 28348,
        "player_name": "Cabdikaafi Okaza",
        "rank": 19654,
        "rank_sort": 19691,
        "total": 2381
      },
      {
        "club_badge_src": "https://fantasy.premierleague.com/gcs/plfpl-production-adobe-approved/plfpl-production/4333158/51525e25-0cb4-4a40-af6f-e91dd3e7eb5f.png",
        "entry": 4333158,
        "entry_name": "viva reinilldo",
        "event_total": 65,
        "has_played": true,
        "id": 32895532,
        "last_rank": 22154,
        "player_name": "Huzaifah Nan",
        "rank": 19654,
        "rank_sort": 19692,
        "total": 2381
      },
      {
        "club_badge_src": null,
        "entry": 4361088,
        "entry_name": "G\u0142adko Posz\u0142o",
        "event_total": 70,
        "has_played": true,
        "id": 33123285,
        "last_rank": 26345,
        "player_name": "Piotr Chaba",
        "rank": 19654,
        "rank_sort": 19693,
        "total": 2381
      },
      {
        "club_badge_src": null,
        "entry": 4543413,
        "entry_name": "Omar Mahmoud",
        "event_total": 65,
        "has_played": true,
        "id": 34663123,
        "last_rank": 25517,
        "player_name": "OMAR Mahmoud",
        "rank": 19654,
        "rank_sort": 19694,
        "total": 2381
      },
      {
        "club_badge_src": null,
        "entry": 5195414,
        "entry_name": "Martial FC",
        "event_total": 80,
        "has_played": true,
        "id": 40226238,
        "last_rank": 41824,
        "player_name": "Kishlay Verma",
        "rank": 19654,
        "rank_sort": 19695,
        "total": 2381
      },
      {
        "club_badge_src": null,
        "entry": 5317946,
        "entry_name": "Kamal city",
        "event_total": 50,
        "has_played": true,
        "id": 41224285,
        "last_rank": 14746,
        "player_name": "K Show",
        "rank": 19654,
        "rank_sort": 19696,
        "total": 2381
      },
      {
        "club_badge_src": null,
        "entry": 6019379,
        "entry_name": "Svelekameratane",
        "event_total": 43,
        "has_played": true,
        "id": 47471524,
        "last_rank": 11080,
        "player_name": "Christoffer Hafsaas",
        "rank": 19654,
        "rank_sort": 19697,
        "total": 2381
      },
      {
        "club_badge_src": null,
        "entry": 6057008,
        "entry_name": "Me no pressure",
        "event_total": 58,
        "has_played": true,
        "id": 47800009,
        "last_rank": 17078,
        "player_name": "Usama Y",
        "rank": 19654,
        "rank_sort": 19698,
        "total": 2381
      },
      {
        "club_badge_src": null,
        "entry": 6192667,
        "entry_name": "Isaak attack",
        "event_total": 60,
        "has_played": true,
        "id": 48982236,
        "last_rank": 21392,
        "player_name": "kieran herzog",
        "rank": 19654,
        "rank_sort": 19699,
        "total": 2381
      },
      {
        "club_badge_src": null,
        "entry": 6678887,
        "entry_name": "Team Most",
        "event_total": 64,
        "has_played": true,
        "id": 53423278,
        "last_rank": 21392,
        "player_name": "Mostafa Radwan",
        "rank": 19654,
        "rank_sort": 19700,
        "total": 2381
      }
    ]
  }
}