{
  "last_updated_data": "2026-05-24T23:28:17Z",
  "league": {
    "admin_entry": null,
    "closed": false,
    "code_privacy": "p",
    "created": "2025-07-20T23:14:33.933835Z",
    "cup_league": 2815434,
    "has_cup": true,
    "id": 314,
    "league_type": "s",
    "max_entries": null,
    "name": "Overall",
    "rank": null,
    "scoring": "c",
    "start_event": 1
  },
  "new_entries": {
    "has_next": false,
    "page": 1,
    "results": []
  },
  "standings": {
    "has_next": true,
    "page": 360,
    "results": [
      {
        "club_badge_src": null,
        "entry": 1558712,
        "entry_name": "Eeek I've joined!",
        "event_total": 76,
        "has_played": true,
        "id": 10885023,
        "last_rank": 34051,
        "player_name": "Shaena Wills",
        "rank": 17890,
        "rank_sort": 17951,
        "total": 2383
      },
      {
        "club_badge_src": null,
        "entry": 1604323,
        "entry_name": "I predict a Raya",
        "event_total": 54,
        "has_played": true,
        "id": 11224112,
        "last_rank": 15694,
        "player_name": "Seb King",
        "rank": 17890,
        "rank_sort": 17952,
        "total": 2383
      },
      {
        "club_badge_src": null,
        "entry": 1650997,
        "entry_name": "Ezri Konsa-quences",
        "event_total": 71,
        "has_played": true,
        "id": 11558634,
        "last_rank": 28906,
        "player_name": "Karl Halpin",
        "rank": 17890,
        "rank_sort": 17953,
        "total": 2383
      },
      {
        "club_badge_src": null,
        "entry": 1652595,
        "entry_name": "Love Wirtz",
        "event_total": 61,
        "has_played": true,
        "id": 11569912,
        "last_rank": 17358,
        "player_name": "Randip Dhesi",
        "rank": 17890,
        "rank_sort": 17954,
        "total": 2383
      },
      {
        "club_badge_src": null,
        "entry": 1682577,
        "entry_name": "Boom Saka Laka",
        "event_total": 52,
        "has_played": true,
        "id": 11778672,
        "last_rank": 14370,
        "player_name": "Jon Tatum",
        "rank": 17890,
        "rank_sort": 17955,
        "total": 2383
      },
      {
        "club_badge_src": null,
        "entry": 1743662,
        "entry_name": "Whilemen",
        "event_total": 62,
        "has_played": true,
        "id": 12234907,
        "last_rank": 21159,
        "player_name": "Tony While",
        "rank": 17890,
        "rank_sort": 17956,
        "total": 2383
      },
      {
        "club_badge_src": null,
        "entry": 1823465,
        "entry_name": "\u0633\u062a\u0627\u0645\u0648\u0646\u064a \u0645\u0631\u0643\u0632 \u0628\u0644\u0642\u0627\u0633",
        "event_total": 60,
        "has_played": true,
        "id": 12824909,
        "last_rank": 19544,
        "player_name": "Amr Rafat",
        "rank": 17890,
        "rank_sort": 17957,
        "total": 2383
      },
      {
        "club_badge_src": null,
        "entry": 1861120,
        "entry_name": "GOGOGOGO",
        "event_total": 43,
        "has_played": true,
        "id": 13099224,
        "last_rank": 10031,
        "player_name": "Glenn Jensen",
        "rank": 17890,
        "rank_sort": 17958,
        "total": 2383
      },
      {
        "club_badge_src": null,
        "entry": 2015855,
        "entry_name": "shefo",
        "event_total": 58,
        "has_played": true,
        "id": 14260975,
        "last_rank": 18270,
        "player_name": "mahmoud shafik",
        "rank": 17890,
        "rank_sort": 17959,
        "total": 2383
      },
      {
        "club_badge_src": null,
        "entry": 2027278,
        "entry_name": "Wirtzel Gummidge",
        "event_total": 62,
        "has_played": true,
        "id": 14351221,
        "last_rank": 15452,
        "player_name": "Ross Appleton",
        "rank": 17890,
        "rank_sort": 17960,
        "total": 2383
      },
      {
        "club_badge_src": null,
        "entry": 2078486,
        "entry_name": "We Kick Ball",
        "event_total": 65,
        "has_played": true,
        "id": 14737373,
        "last_rank": 23522,
        "player_name": "tyler heade",
        "rank": 17890,
        "rank_sort": 17961,
        "total": 2383
      },
      {
        "club_badge_src": null,
        "entry": 2431627,
        "entry_name": "GreenTimeTrivela",
        "event_total": 65,
        "has_played": true,
        "id": 17387732,
        "last_rank": 23522,
        "player_name": "Armaan Friland",
        "rank": 17890,
        "rank_sort": 17962,
        "total": 2383
      },
      {
        "club_badge_src": null,
        "entry": 2626921,
        "entry_name": "Change Name",
        "event_total": 64,
        "has_played": true,
        "id": 18876927,
        "last_rank": 22426,
        "player_name": "David Abrahams",
        "rank": 17890,
        "rank_sort": 17963,
        "total": 2383
      },
      {
        "club_badge_src": null,
        "entry": 2884136,
        "entry_name": "Arab FC",
        "event_total": 67,
        "has_played": true,
        "id": 21114198,
        "last_rank": 25330,
        "player_name": "Razzy Boi",
        "rank": 17890,
        "rank_sort": 17964,
        "total": 2383
      },
      {
        "club_badge_src": "https://fantasy.premierleague.com/gcs/plfpl-production-adobe-approved/plfpl-production/3019189/01ba61c8-6561-49de-b8b8-bfce187901ae.png",
        "entry": 3019189,
        "entry_name": "Revenge Szn",
        "event_total": 65,
        "has_played": true,
        "id": 22213499,
        "last_rank": 20280,
        "player_name": "Areeb Baig",
        "rank": 17890,
        "rank_sort": 17965,
        "total": 2383
      },
      {
        "club_badge_src": null,
        "entry": 3067083,
        "entry_name": "Donkeyboy Fanklubben",
        "event_total": 56,
        "has_played": true,
        "id": 22583103,
        "last_rank": 14370,
        "player_name": "Kasper Dokka",
        "rank": 17890,
        "rank_sort": 17966,
        "total": 2383
      },
      {
        "club_badge_src": null,
        "entry": 3130837,
        "entry_name": "Pukupingpong",
        "event_total": 47,
        "has_played": true,
        "id": 23108643,
        "last_rank": 9942,
        "player_name": "Ian Wallis",
        "rank": 17890,
        "rank_sort": 17967,
        "total": 2383
      },
      {
        "club_badge_src": null,
        "entry": 3158665,
        "entry_name": "FirstTheWirtz",
        "event_total": 67,
        "has_played": true,
        "id": 23331501,
        "last_rank": 25172,
        "player_name": "Sunil Malhotra",
        "rank": 17890,
        "rank_sort": 17968,
        "total": 2383
      },
      {
        "club_badge_src": null,
        "entry": 3252985,
        "entry_name": "FC Rambo",
        "event_total": 64,
        "has_played": true,
        "id": 24068176,
        "last_rank": 19544,
        "player_name": "Christian Wilhelmsen",
        "rank": 17890,
        "rank_sort": 17969,
        "total": 2383
      },
      {
        "club_badge_src": null,
        "entry": 3297941,
        "entry_name": "Maresca for England",
        "event_total": 49,
        "has_played": true,
        "id": 24423603,
        "last_rank": 12846,
        "player_name": "Philip Mason",
        "rank": 17890,
        "rank_sort": 17970,
        "total": 2383
      },
      {
        "club_badge_src": null,
        "entry": 3311533,
        "entry_name": "Elm Park Royals",
        "event_total": 63,
        "has_played": true,
        "id": 24534740,
        "last_rank": 21775,
        "player_name": "Andy Whitton",
        "rank": 17890,
        "rank_sort": 17971,
        "total": 2383
      },
      {
        "club_badge_src": null,
        "entry": 3418073,
        "entry_name": "Zubi Zubi dooo",
        "event_total": 62,
        "has_played": true,
        "id": 25388557,
        "last_rank": 18113,
        "player_name": "Jimi Oguns",
        "rank": 17890,
        "rank_sort": 17972,
        "total": 2383
      },
      {
        "club_badge_src": null,
        "entry": 3571216,
        "entry_name": "Ha Cunha Mateta",
        "event_total": 72,
        "has_played": true,
        "id": 26591753,
        "last_rank": 25902,
        "player_name": "Paul Marney",
        "rank": 17890,
        "rank_sort": 17973,
        "total": 2383
      },
      {
        "club_badge_src": null,
        "entry": 3621971,
        "entry_name": "BrunitedWeStand",
        "event_total": 60,
        "has_played": true,
        "id": 26986068,
        "last_rank": 16807,
        "player_name": "Sucheet Amin",
        "rank": 17890,
        "rank_sort": 17974,
        "total": 2383
      },
      {
        "club_badge_src": null,
        "entry": 3640787,
        "entry_name": "Deeney's Weenies",
        "event_total": 54,
        "has_played": true,
        "id": 27133458,
        "last_rank": 15694,
        "player_name": "Robert Cooke",
        "rank": 17890,
        "rank_sort": 17975,
        "total": 2383
      },
      {
        "club_badge_src": null,
        "entry": 3719602,
        "entry_name": "ian bijol",
        "event_total": 63,
        "has_played": true,
        "id": 27757795,
        "last_rank": 21949,
        "player_name": "Ryan Paterson",
        "rank": 17890,
        "rank_sort": 17976,
        "total": 2383
      },
      {
        "club_badge_src": "https://fantasy.premierleague.com/gcs/plfpl-production-adobe-approved/plfpl-production/3752336/a471a9e6-d221-44a1-a97d-a1b9c2ad0430.png",
        "entry": 3752336,
        "entry_name": "UNTAMED\ufffd",
        "event_total": 65,
        "has_played": true,
        "id": 28015009,
        "last_rank": 23522,
        "player_name": "Mihai Ionescu\ud83c\uddf7\ud83c\uddf4",
        "rank": 17890,
        "rank_sort": 17977,
        "total": 2383
      },
      {
        "club_badge_src": null,
        "entry": 3890298,
        "entry_name": "SamTheMan",
        "event_total": 60,
        "has_played": true,
        "id": 29234271,
        "last_rank": 19544,
        "player_name": "Samuel Toscan",
        "rank": 17890,
        "rank_sort": 17978,
        "total": 2383
      },
      {
        "club_badge_src": "https://fantasy.premierleague.com/gcs/plfpl-production-adobe-approved/plfpl-production/3998859/af118c14-2efb-4455-919c-e8c7a60ad9e2.png",
        "entry": 3998859,
        "entry_name": "Madueke Fer It",
        "event_total": 63,
        "has_played": true,
        "id": 30116927,
        "last_rank": 21949,
        "player_name": "Ed Warren",
        "rank": 17890,
        "rank_sort": 17979,
        "total": 2383
      },
      {
        "club_badge_src": null,
        "entry": 4041115,
        "entry_name": "otiii",
        "event_total": 68,
        "has_played": true,
        "id": 30476041,
        "last_rank": 25776,
        "player_name": "adrian Otieno",
        "rank": 17890,
        "rank_sort": 17980,
        "total": 2383
      },
      {
        "club_badge_src": null,
        "entry": 4073315,
        "entry_name": "Machine Gun Skelly",
        "event_total": 76,
        "has_played": true,
        "id": 30746074,
        "last_rank": 29578,
        "player_name": "Dusty Kiaski",
        "rank": 17890,
        "rank_sort": 17981,
        "total": 2383
      },
      {
        "club_badge_src": "https://fantasy.premierleague.com/gcs/plfpl-production-adobe-approved/plfpl-production/4082159/0f2ebc47-347a-41e8-b911-c275851c6349.png",
        "entry": 4082159,
        "entry_name": "Al-Suqour Al-Khodhur",
        "event_total": 58,
        "has_played": true,
        "id": 30816851,
        "last_rank": 18113,
        "player_name": "Simo Modric",
        "rank": 17890,
        "rank_sort": 17982,
        "total": 2383
      },
      {
        "club_badge_src": "https://fantasy.premierleague.com/gcs/plfpl-production-adobe-approved/plfpl-production/4133736/f53b14bd-2f34-4af6-bcae-6947cd775a05.png",
        "entry": 4133736,
        "entry_name": "Monty Magic",
        "event_total": 63,
        "has_played": true,
        "id": 31238905,
        "last_rank": 21775,
        "player_name": "Craig Adams",
        "rank": 17890,
        "rank_sort": 17983,
        "total": 2383
      },
      {
        "club_badge_src": null,
        "entry": 4177169,
        "entry_name": "chrisFC",
        "event_total": 62,
        "has_played": true,
        "id": 31597018,
        "last_rank": 20983,
        "player_name": "Christopher Hoel Nilsen",
        "rank": 17890,
        "rank_sort": 17984,
        "total": 2383
      },
      {
        "club_badge_src": null,
        "entry": 4199157,
        "entry_name": "Ninja Skrtels",
        "event_total": 53,
        "has_played": true,
        "id": 31784863,
        "last_rank": 15063,
        "player_name": "Kevin Moylan",
        "rank": 17890,
        "rank_sort": 17985,
        "total": 2383
      },
      {
        "club_badge_src": null,
        "entry": 4260126,
        "entry_name": "MurderOnZidanesFloor",
        "event_total": 63,
        "has_played": true,
        "id": 32299726,
        "last_rank": 21775,
        "player_name": "Daniel Murnane",
        "rank": 17890,
        "rank_sort": 17986,
        "total": 2383
      },
      {
        "club_badge_src": null,
        "entry": 4401931,
        "entry_name": "The Tigers",
        "event_total": 48,
        "has_played": true,
        "id": 33478180,
        "last_rank": 12322,
        "player_name": "Shafayat Raju",
        "rank": 17890,
        "rank_sort": 17987,
        "total": 2383
      },
      {
        "club_badge_src": null,
        "entry": 4428081,
        "entry_name": "AI FC",
        "event_total": 51,
        "has_played": true,
        "id": 33705472,
        "last_rank": 13821,
        "player_name": "Azman Ismail",
        "rank": 17890,
        "rank_sort": 17988,
        "total": 2383
      },
      {
        "club_badge_src": null,
        "entry": 4611717,
        "entry_name": "Delap of Honour",
        "event_total": 63,
        "has_played": true,
        "id": 35240168,
        "last_rank": 21775,
        "player_name": "Isaac Anderson",
        "rank": 17890,
        "rank_sort": 17989,
        "total": 2383
      },
      {
        "club_badge_src": null,
        "entry": 4664610,
        "entry_name": "Dugganursister FC",
        "event_total": 63,
        "has_played": true,
        "id": 35726879,
        "last_rank": 21775,
        "player_name": "Shane Duggan",
        "rank": 17890,
        "rank_sort": 17990,
        "total": 2383
      },
      {
        "club_badge_src": null,
        "entry": 4693561,
        "entry_name": "MekswelJacobFriedman",
        "event_total": 60,
        "has_played": true,
        "id": 35976852,
        "last_rank": 19721,
        "player_name": "Gavin Barr",
        "rank": 17890,
        "rank_sort": 17991,
        "total": 2383
      },
      {
        "club_badge_src": null,
        "entry": 4716660,
        "entry_name": "Al Ahly FC",
        "event_total": 64,
        "has_played": true,
        "id": 36215744,
        "last_rank": 19432,
        "player_name": "Mohamed Mahrous",
        "rank": 17890,
        "rank_sort": 17992,
        "total": 2383
      },
      {
        "club_badge_src": null,
        "entry": 4862709,
        "entry_name": "Roberttown stars",
        "event_total": 57,
        "has_played": true,
        "id": 37474821,
        "last_rank": 17585,
        "player_name": "john lathbury",
        "rank": 17890,
        "rank_sort": 17993,
        "total": 2383
      },
      {
        "club_badge_src": null,
        "entry": 5038803,
        "entry_name": "Persepolis",
        "event_total": 42,
        "has_played": true,
        "id": 38920468,
        "last_rank": 9644,
        "player_name": "Ali Faghihi",
        "rank": 17890,
        "rank_sort": 17994,
        "total": 2383
      },
      {
        "club_badge_src": null,
        "entry": 5113576,
        "entry_name": "Beetlebug",
        "event_total": 66,
        "has_played": true,
        "id": 39533108,
        "last_rank": 24143,
        "player_name": "Victor Chen",
        "rank": 17890,
        "rank_sort": 17995,
        "total": 2383
      },
      {
        "club_badge_src": null,
        "entry": 5365220,
        "entry_name": "Druk Lager & 11000",
        "event_total": 60,
        "has_played": true,
        "id": 41678292,
        "last_rank": 16807,
        "player_name": "Dorji Phuentsho",
        "rank": 17890,
        "rank_sort": 17996,
        "total": 2383
      },
      {
        "club_badge_src": null,
        "entry": 5479932,
        "entry_name": "Palmer Violets",
        "event_total": 52,
        "has_played": true,
        "id": 42665127,
        "last_rank": 14604,
        "player_name": "Tom Emblem",
        "rank": 17890,
        "rank_sort": 17997,
        "total": 2383
      },
      {
        "club_badge_src": null,
        "entry": 5785655,
        "entry_name": "Brynhill Boys",
        "event_total": 67,
        "has_played": true,
        "id": 45371632,
        "last_rank": 24897,
        "player_name": "Jack Jones",
        "rank": 17890,
        "rank_sort": 17998,
        "total": 2383
      },
      {
        "club_badge_src": null,
        "entry": 5834791,
        "entry_name": "Amjad Fc",
        "event_total": 25,
        "has_played": true,
        "id": 45799027,
        "last_rank": 4615,
        "player_name": "amjad salah",
        "rank": 17890,
        "rank_sort": 17999,
        "total": 2383
      },
      {
        "club_badge_src": "https://fantasy.premierleague.com/gcs/plfpl-production-adobe-approved/plfpl-production/5835309/8c1133bc-2bee-418f-9b51-7834076d5520.png",
        "entry": 5835309,
        "entry_name": "Crazy Horses",
        "event_total": 55,
        "has_played": true,
        "id": 45803377,
        "last_rank": 16320,
        "player_name": "Ryan O-Hara",
        "rank": 17890,
        "rank_sort": 18000,
        "total": 2383
      }
    ]
  }
}