{
  "last_updated_data": "2026-05-24T23:28:17Z",
  "league": {
    "admin_entry": null,
    "closed": false,
    "code_privacy": "p",
    "created": "2025-07-20T23:14:33.933835Z",
    "cup_league": 2815434,
    "has_cup": true,
    "id": 314,
    "league_type": "s",
    "max_entries": null,
    "name": "Overall",
    "rank": null,
    "scoring": "c",
    "start_event": 1
  },
  "new_entries": {
    "has_next": false,
    "page": 1,
    "results": []
  },
  "standings": {
    "has_next": true,
    "page": 352,
    "results": [
      {
        "club_badge_src": null,
        "entry": 226249,
        "entry_name": "ABCDE FC",
        "event_total": 68,
        "has_played": true,
        "id": 1505058,
        "last_rank": 22154,
        "player_name": "David Turnbull",
        "rank": 17548,
        "rank_sort": 17551,
        "total": 2384
      },
      {
        "club_badge_src": "https://fantasy.premierleague.com/gcs/plfpl-production-adobe-approved/plfpl-production/237753/fdf4fdc6-263a-4baa-a9d0-c608a5bc2329.png",
        "entry": 237753,
        "entry_name": "Backorder",
        "event_total": 73,
        "has_played": true,
        "id": 1581812,
        "last_rank": 30276,
        "player_name": "Mo Abdelsalam",
        "rank": 17548,
        "rank_sort": 17552,
        "total": 2384
      },
      {
        "club_badge_src": null,
        "entry": 265691,
        "entry_name": "Ziko FC",
        "event_total": 56,
        "has_played": true,
        "id": 1767254,
        "last_rank": 11901,
        "player_name": "Youssef Zakaria",
        "rank": 17548,
        "rank_sort": 17553,
        "total": 2384
      },
      {
        "club_badge_src": null,
        "entry": 272230,
        "entry_name": "AM FC",
        "event_total": 67,
        "has_played": true,
        "id": 1811184,
        "last_rank": 24636,
        "player_name": "Abdullah Almohaisin",
        "rank": 17548,
        "rank_sort": 17554,
        "total": 2384
      },
      {
        "club_badge_src": "https://fantasy.premierleague.com/gcs/plfpl-production-adobe-approved/plfpl-production/392569/71e999b6-64ba-4a6d-8445-5c9897a697ca.png",
        "entry": 392569,
        "entry_name": "Tapulin Taikalanteet",
        "event_total": 75,
        "has_played": true,
        "id": 2633044,
        "last_rank": 28273,
        "player_name": "Antti Karppi",
        "rank": 17548,
        "rank_sort": 17555,
        "total": 2384
      },
      {
        "club_badge_src": null,
        "entry": 445049,
        "entry_name": "Dark Arts FC",
        "event_total": 53,
        "has_played": true,
        "id": 2984435,
        "last_rank": 14712,
        "player_name": "Frank Smit",
        "rank": 17548,
        "rank_sort": 17556,
        "total": 2384
      },
      {
        "club_badge_src": null,
        "entry": 488158,
        "entry_name": "Mindaugasas",
        "event_total": 64,
        "has_played": true,
        "id": 3277131,
        "last_rank": 19176,
        "player_name": "Mindaugas Kucinskas",
        "rank": 17548,
        "rank_sort": 17557,
        "total": 2384
      },
      {
        "club_badge_src": null,
        "entry": 781804,
        "entry_name": "Uche that you luv me",
        "event_total": 45,
        "has_played": true,
        "id": 5337635,
        "last_rank": 10629,
        "player_name": "Lucas Pope",
        "rank": 17548,
        "rank_sort": 17558,
        "total": 2384
      },
      {
        "club_badge_src": null,
        "entry": 912191,
        "entry_name": "Lost in space",
        "event_total": 70,
        "has_played": true,
        "id": 6272229,
        "last_rank": 20538,
        "player_name": "Thomas Hovstad",
        "rank": 17548,
        "rank_sort": 17559,
        "total": 2384
      },
      {
        "club_badge_src": null,
        "entry": 994430,
        "entry_name": "Belalcr7",
        "event_total": 63,
        "has_played": true,
        "id": 6861555,
        "last_rank": 18475,
        "player_name": "Belal Mohamed",
        "rank": 17548,
        "rank_sort": 17560,
        "total": 2384
      },
      {
        "club_badge_src": null,
        "entry": 1024456,
        "entry_name": "FilipinoMafia",
        "event_total": 73,
        "has_played": true,
        "id": 7087709,
        "last_rank": 30276,
        "player_name": "Paddy Earls",
        "rank": 17548,
        "rank_sort": 17561,
        "total": 2384
      },
      {
        "club_badge_src": null,
        "entry": 1048528,
        "entry_name": "BRUNO DON TRES",
        "event_total": 64,
        "has_played": true,
        "id": 7256442,
        "last_rank": 22216,
        "player_name": "Uzeffa Shah",
        "rank": 17548,
        "rank_sort": 17562,
        "total": 2384
      },
      {
        "club_badge_src": null,
        "entry": 1056176,
        "entry_name": "WhataloadofCobblers",
        "event_total": 44,
        "has_played": true,
        "id": 7309340,
        "last_rank": 8591,
        "player_name": "Lee Wade",
        "rank": 17548,
        "rank_sort": 17563,
        "total": 2384
      },
      {
        "club_badge_src": null,
        "entry": 1628750,
        "entry_name": "AKRAM BAKHAH",
        "event_total": 61,
        "has_played": true,
        "id": 11400214,
        "last_rank": 19966,
        "player_name": "Akram-- Bakhah--",
        "rank": 17548,
        "rank_sort": 17564,
        "total": 2384
      },
      {
        "club_badge_src": null,
        "entry": 1636655,
        "entry_name": "Livin' Saliba Loca",
        "event_total": 77,
        "has_played": true,
        "id": 11455913,
        "last_rank": 29904,
        "player_name": "Callum Jackson",
        "rank": 17548,
        "rank_sort": 17565,
        "total": 2384
      },
      {
        "club_badge_src": null,
        "entry": 2128839,
        "entry_name": "Blanks For Nothing",
        "event_total": 62,
        "has_played": true,
        "id": 15126844,
        "last_rank": 12846,
        "player_name": "Andy Pisarkiewicz",
        "rank": 17548,
        "rank_sort": 17566,
        "total": 2384
      },
      {
        "club_badge_src": null,
        "entry": 2258386,
        "entry_name": "Holy Boehly",
        "event_total": 69,
        "has_played": true,
        "id": 16099574,
        "last_rank": 26345,
        "player_name": "fabian blackler",
        "rank": 17548,
        "rank_sort": 17567,
        "total": 2384
      },
      {
        "club_badge_src": null,
        "entry": 3057672,
        "entry_name": "Bruno dos tres",
        "event_total": 65,
        "has_played": true,
        "id": 22511535,
        "last_rank": 19721,
        "player_name": "Ethan Brennan",
        "rank": 17548,
        "rank_sort": 17568,
        "total": 2384
      },
      {
        "club_badge_src": null,
        "entry": 3717849,
        "entry_name": "Ac Milan .",
        "event_total": 35,
        "has_played": true,
        "id": 27744150,
        "last_rank": 6949,
        "player_name": "Florent lilaj",
        "rank": 17548,
        "rank_sort": 17569,
        "total": 2384
      },
      {
        "club_badge_src": null,
        "entry": 3728097,
        "entry_name": "Salt Flats XI",
        "event_total": 52,
        "has_played": true,
        "id": 27825828,
        "last_rank": 10102,
        "player_name": "Ben Salter",
        "rank": 17548,
        "rank_sort": 17570,
        "total": 2384
      },
      {
        "club_badge_src": null,
        "entry": 3807435,
        "entry_name": "Egg Fried Guimaraes",
        "event_total": 59,
        "has_played": true,
        "id": 28466928,
        "last_rank": 15876,
        "player_name": "Mat Wu",
        "rank": 17548,
        "rank_sort": 17571,
        "total": 2384
      },
      {
        "club_badge_src": null,
        "entry": 3886067,
        "entry_name": "Pegasus Dreamers",
        "event_total": 53,
        "has_played": true,
        "id": 29200997,
        "last_rank": 14712,
        "player_name": "David Pegler",
        "rank": 17548,
        "rank_sort": 17572,
        "total": 2384
      },
      {
        "club_badge_src": null,
        "entry": 4967039,
        "entry_name": "Energy xd",
        "event_total": 60,
        "has_played": true,
        "id": 38332119,
        "last_rank": 14040,
        "player_name": "H\u00e5vard Julieb\u00f8",
        "rank": 17548,
        "rank_sort": 17573,
        "total": 2384
      },
      {
        "club_badge_src": null,
        "entry": 5791687,
        "entry_name": "Sesko Meal Deal",
        "event_total": 61,
        "has_played": true,
        "id": 45425531,
        "last_rank": 17150,
        "player_name": "Emanuel Roche",
        "rank": 17548,
        "rank_sort": 17574,
        "total": 2384
      },
      {
        "club_badge_src": null,
        "entry": 5972796,
        "entry_name": "Casemiracle Workers",
        "event_total": 67,
        "has_played": true,
        "id": 47007207,
        "last_rank": 24636,
        "player_name": "Jogdev Sidhu",
        "rank": 17548,
        "rank_sort": 17575,
        "total": 2384
      },
      {
        "club_badge_src": null,
        "entry": 5973106,
        "entry_name": "One Season Wonder",
        "event_total": 71,
        "has_played": true,
        "id": 47010466,
        "last_rank": 27976,
        "player_name": "Robert Hutchinson",
        "rank": 17548,
        "rank_sort": 17576,
        "total": 2384
      },
      {
        "club_badge_src": null,
        "entry": 6068873,
        "entry_name": "Giggling Mop",
        "event_total": 48,
        "has_played": true,
        "id": 47904466,
        "last_rank": 11999,
        "player_name": "Alison Lowell",
        "rank": 17548,
        "rank_sort": 17577,
        "total": 2384
      },
      {
        "club_badge_src": null,
        "entry": 6346173,
        "entry_name": "Corino FC",
        "event_total": 66,
        "has_played": true,
        "id": 50444411,
        "last_rank": 20624,
        "player_name": "Osipi Imhakhu",
        "rank": 17548,
        "rank_sort": 17578,
        "total": 2384
      },
      {
        "club_badge_src": null,
        "entry": 6696972,
        "entry_name": "LosPollosHermanos II",
        "event_total": 58,
        "has_played": true,
        "id": 53582402,
        "last_rank": 15226,
        "player_name": "Abdulrahman Ojuromi",
        "rank": 17548,
        "rank_sort": 17579,
        "total": 2384
      },
      {
        "club_badge_src": "https://fantasy.premierleague.com/gcs/plfpl-production-adobe-approved/plfpl-production/7802432/c5f19421-f6e9-4293-80fb-ed264040c6ba.png",
        "entry": 7802432,
        "entry_name": "Ne Spavamo",
        "event_total": 56,
        "has_played": true,
        "id": 64095126,
        "last_rank": 14102,
        "player_name": "Sead Karaahmetovic",
        "rank": 17548,
        "rank_sort": 17580,
        "total": 2384
      },
      {
        "club_badge_src": null,
        "entry": 96475,
        "entry_name": "Allah akbar",
        "event_total": 61,
        "has_played": true,
        "id": 630261,
        "last_rank": 20008,
        "player_name": "ahmed Ben ghazela",
        "rank": 17581,
        "rank_sort": 17581,
        "total": 2384
      },
      {
        "club_badge_src": null,
        "entry": 155722,
        "entry_name": "baby goat",
        "event_total": 55,
        "has_played": true,
        "id": 1023662,
        "last_rank": 15952,
        "player_name": "Ryan Luqman",
        "rank": 17581,
        "rank_sort": 17582,
        "total": 2384
      },
      {
        "club_badge_src": null,
        "entry": 196281,
        "entry_name": "Hello.........Bobb",
        "event_total": 54,
        "has_played": true,
        "id": 1301934,
        "last_rank": 12995,
        "player_name": "Andy Bradshaw",
        "rank": 17581,
        "rank_sort": 17583,
        "total": 2384
      },
      {
        "club_badge_src": null,
        "entry": 238988,
        "entry_name": "Five Guys Named Mo",
        "event_total": 40,
        "has_played": true,
        "id": 1590260,
        "last_rank": 8627,
        "player_name": "James Arney",
        "rank": 17581,
        "rank_sort": 17584,
        "total": 2384
      },
      {
        "club_badge_src": null,
        "entry": 307375,
        "entry_name": "Tamer Essam",
        "event_total": 51,
        "has_played": true,
        "id": 2058611,
        "last_rank": 13653,
        "player_name": "Tamer Essam",
        "rank": 17581,
        "rank_sort": 17585,
        "total": 2384
      },
      {
        "club_badge_src": null,
        "entry": 408795,
        "entry_name": "LHFC",
        "event_total": 60,
        "has_played": true,
        "id": 2741307,
        "last_rank": 16567,
        "player_name": "Luke Heffernan",
        "rank": 17581,
        "rank_sort": 17586,
        "total": 2384
      },
      {
        "club_badge_src": null,
        "entry": 659348,
        "entry_name": "Special One",
        "event_total": 54,
        "has_played": true,
        "id": 4455775,
        "last_rank": 13033,
        "player_name": "Abo Hlal",
        "rank": 17581,
        "rank_sort": 17587,
        "total": 2384
      },
      {
        "club_badge_src": null,
        "entry": 1157222,
        "entry_name": "fOTBALL LAG",
        "event_total": 66,
        "has_played": true,
        "id": 8024453,
        "last_rank": 23857,
        "player_name": "phillip lindekleiv",
        "rank": 17581,
        "rank_sort": 17588,
        "total": 2384
      },
      {
        "club_badge_src": null,
        "entry": 1258571,
        "entry_name": ".gun",
        "event_total": 64,
        "has_played": true,
        "id": 8742312,
        "last_rank": 19237,
        "player_name": "Calvin Cheung",
        "rank": 17581,
        "rank_sort": 17589,
        "total": 2384
      },
      {
        "club_badge_src": null,
        "entry": 1527378,
        "entry_name": "Keep Calm & Xavi On",
        "event_total": 71,
        "has_played": true,
        "id": 10653152,
        "last_rank": 28273,
        "player_name": "Ayo Williams",
        "rank": 17581,
        "rank_sort": 17590,
        "total": 2384
      },
      {
        "club_badge_src": "https://fantasy.premierleague.com/gcs/plfpl-production-adobe-approved/plfpl-production/1594529/dafd1686-e715-46f0-bd17-496844571ebc.png",
        "entry": 1594529,
        "entry_name": "Hurdy Gurdy United",
        "event_total": 56,
        "has_played": true,
        "id": 11153216,
        "last_rank": 16598,
        "player_name": "Thomas Fremo",
        "rank": 17581,
        "rank_sort": 17591,
        "total": 2384
      },
      {
        "club_badge_src": null,
        "entry": 1763780,
        "entry_name": "Backstreet Bowen",
        "event_total": 56,
        "has_played": true,
        "id": 12385433,
        "last_rank": 11901,
        "player_name": "Arild Pedersen",
        "rank": 17581,
        "rank_sort": 17592,
        "total": 2384
      },
      {
        "club_badge_src": null,
        "entry": 1908415,
        "entry_name": "Haa Cunha Mateta",
        "event_total": 63,
        "has_played": true,
        "id": 13454374,
        "last_rank": 18520,
        "player_name": "Andrew Sawbridge",
        "rank": 17581,
        "rank_sort": 17593,
        "total": 2384
      },
      {
        "club_badge_src": null,
        "entry": 2192426,
        "entry_name": "Ekitike-Takah",
        "event_total": 55,
        "has_played": true,
        "id": 15598516,
        "last_rank": 15952,
        "player_name": "Ben Nieroba",
        "rank": 17581,
        "rank_sort": 17594,
        "total": 2384
      },
      {
        "club_badge_src": "https://fantasy.premierleague.com/gcs/plfpl-production-adobe-approved/plfpl-production/2486447/ebdaa052-ec43-4f1c-b587-5fb92ef57e6f.png",
        "entry": 2486447,
        "entry_name": "50 Spence 2 Go Large",
        "event_total": 72,
        "has_played": true,
        "id": 17793972,
        "last_rank": 29333,
        "player_name": "Nathan Harvey",
        "rank": 17581,
        "rank_sort": 17595,
        "total": 2384
      },
      {
        "club_badge_src": null,
        "entry": 2540175,
        "entry_name": "Gone down \u00fcnder",
        "event_total": 68,
        "has_played": true,
        "id": 18204875,
        "last_rank": 25564,
        "player_name": "Riad Khalaf",
        "rank": 17581,
        "rank_sort": 17596,
        "total": 2384
      },
      {
        "club_badge_src": null,
        "entry": 2718571,
        "entry_name": "Cesc on the beach",
        "event_total": 61,
        "has_played": true,
        "id": 19561789,
        "last_rank": 19904,
        "player_name": "David Parker",
        "rank": 17581,
        "rank_sort": 17597,
        "total": 2384
      },
      {
        "club_badge_src": null,
        "entry": 4184184,
        "entry_name": "musabseif",
        "event_total": 59,
        "has_played": true,
        "id": 31657718,
        "last_rank": 18475,
        "player_name": "musab seif",
        "rank": 17581,
        "rank_sort": 17598,
        "total": 2384
      },
      {
        "club_badge_src": null,
        "entry": 4628920,
        "entry_name": "3 p\u00e5 rad :)",
        "event_total": 65,
        "has_played": true,
        "id": 35391875,
        "last_rank": 19904,
        "player_name": "Torbj\u00f8rn R\u00f8nningen",
        "rank": 17581,
        "rank_sort": 17599,
        "total": 2384
      },
      {
        "club_badge_src": null,
        "entry": 5153001,
        "entry_name": "Gvardiols of the gal",
        "event_total": 67,
        "has_played": true,
        "id": 39868174,
        "last_rank": 24680,
        "player_name": "Sukhi Biring",
        "rank": 17581,
        "rank_sort": 17600,
        "total": 2384
      }
    ]
  }
}