{
  "last_updated_data": "2026-05-24T23:28:17Z",
  "league": {
    "admin_entry": null,
    "closed": false,
    "code_privacy": "p",
    "created": "2025-07-20T23:14:33.933835Z",
    "cup_league": 2815434,
    "has_cup": true,
    "id": 314,
    "league_type": "s",
    "max_entries": null,
    "name": "Overall",
    "rank": null,
    "scoring": "c",
    "start_event": 1
  },
  "new_entries": {
    "has_next": false,
    "page": 1,
    "results": []
  },
  "standings": {
    "has_next": true,
    "page": 282,
    "results": [
      {
        "club_badge_src": null,
        "entry": 7275051,
        "entry_name": "claude snackelele",
        "event_total": 59,
        "has_played": true,
        "id": 58840350,
        "last_rank": 14604,
        "player_name": "Adrian Yeoh",
        "rank": 13989,
        "rank_sort": 14051,
        "total": 2390
      },
      {
        "club_badge_src": null,
        "entry": 9399548,
        "entry_name": "JP FC",
        "event_total": 77,
        "has_played": true,
        "id": 79369035,
        "last_rank": 27976,
        "player_name": "John Prosser",
        "rank": 13989,
        "rank_sort": 14052,
        "total": 2390
      },
      {
        "club_badge_src": "https://fantasy.premierleague.com/gcs/plfpl-production-adobe-approved/plfpl-production/12848/d1ad7d96-f1f4-4cbc-ab97-ea9e13900d7a.png",
        "entry": 12848,
        "entry_name": "Sk\u00e4lderwikens IF",
        "event_total": 65,
        "has_played": true,
        "id": 77287,
        "last_rank": 18475,
        "player_name": "Frederik Derwik",
        "rank": 14053,
        "rank_sort": 14053,
        "total": 2390
      },
      {
        "club_badge_src": "https://fantasy.premierleague.com/gcs/plfpl-production-adobe-approved/plfpl-production/31109/e97e1e08-6d2c-4d60-a241-51902ed08f1a.png",
        "entry": 31109,
        "entry_name": "Caesar",
        "event_total": 66,
        "has_played": true,
        "id": 197004,
        "last_rank": 19176,
        "player_name": "Ahmed Khalifa",
        "rank": 14053,
        "rank_sort": 14054,
        "total": 2390
      },
      {
        "club_badge_src": null,
        "entry": 58763,
        "entry_name": "Nedza FC",
        "event_total": 72,
        "has_played": true,
        "id": 378481,
        "last_rank": 20624,
        "player_name": "Emil xxxxxxxxxx",
        "rank": 14053,
        "rank_sort": 14055,
        "total": 2390
      },
      {
        "club_badge_src": "https://fantasy.premierleague.com/gcs/plfpl-production-adobe-approved/plfpl-production/70198/3911b729-1501-434e-a02f-a1d1895128d5.png",
        "entry": 70198,
        "entry_name": "Frim(ping)pong",
        "event_total": 65,
        "has_played": true,
        "id": 455681,
        "last_rank": 18475,
        "player_name": "Will Mercer",
        "rank": 14053,
        "rank_sort": 14056,
        "total": 2390
      },
      {
        "club_badge_src": null,
        "entry": 89236,
        "entry_name": "AJ Dorking Soccer",
        "event_total": 70,
        "has_played": true,
        "id": 582506,
        "last_rank": 22216,
        "player_name": "Arve Johannessen",
        "rank": 14053,
        "rank_sort": 14057,
        "total": 2390
      },
      {
        "club_badge_src": null,
        "entry": 197670,
        "entry_name": "TAA-Ra",
        "event_total": 72,
        "has_played": true,
        "id": 1311623,
        "last_rank": 23820,
        "player_name": "Andrew Barnes",
        "rank": 14053,
        "rank_sort": 14058,
        "total": 2390
      },
      {
        "club_badge_src": null,
        "entry": 231335,
        "entry_name": "Ekitik\u00e9 Taka",
        "event_total": 55,
        "has_played": true,
        "id": 1539100,
        "last_rank": 10600,
        "player_name": "Omar Abdelrehim",
        "rank": 14053,
        "rank_sort": 14059,
        "total": 2390
      },
      {
        "club_badge_src": null,
        "entry": 462272,
        "entry_name": "Postman patson daka",
        "event_total": 67,
        "has_played": true,
        "id": 3100877,
        "last_rank": 19904,
        "player_name": "Gethan Flint",
        "rank": 14053,
        "rank_sort": 14060,
        "total": 2390
      },
      {
        "club_badge_src": null,
        "entry": 479254,
        "entry_name": "Srce,ruke,glas!!!",
        "event_total": 67,
        "has_played": true,
        "id": 3217217,
        "last_rank": 19966,
        "player_name": "Luka Nikolic",
        "rank": 14053,
        "rank_sort": 14061,
        "total": 2390
      },
      {
        "club_badge_src": "https://fantasy.premierleague.com/gcs/plfpl-production-adobe-approved/plfpl-production/480127/66a854b1-c79a-4c31-b7ce-4f3d5f1f5fee.png",
        "entry": 480127,
        "entry_name": "TheChampionsbb8",
        "event_total": 68,
        "has_played": true,
        "id": 3223486,
        "last_rank": 17802,
        "player_name": "Neville Numaraki",
        "rank": 14053,
        "rank_sort": 14062,
        "total": 2390
      },
      {
        "club_badge_src": "https://fantasy.premierleague.com/gcs/plfpl-production-adobe-approved/plfpl-production/671785/fd595334-8baa-423c-8d13-e53d730bb4f5.png",
        "entry": 671785,
        "entry_name": "_elhadiidy_",
        "event_total": 56,
        "has_played": true,
        "id": 4543919,
        "last_rank": 12995,
        "player_name": "Ahmed Elhadidy",
        "rank": 14053,
        "rank_sort": 14063,
        "total": 2390
      },
      {
        "club_badge_src": null,
        "entry": 760459,
        "entry_name": "why always miss c",
        "event_total": 67,
        "has_played": true,
        "id": 5184041,
        "last_rank": 17150,
        "player_name": "Piotr \u015arodo\u0144",
        "rank": 14053,
        "rank_sort": 14064,
        "total": 2390
      },
      {
        "club_badge_src": null,
        "entry": 1179513,
        "entry_name": "cps utd",
        "event_total": 56,
        "has_played": true,
        "id": 8183946,
        "last_rank": 13033,
        "player_name": "Carl Stringfellow",
        "rank": 14053,
        "rank_sort": 14065,
        "total": 2390
      },
      {
        "club_badge_src": null,
        "entry": 1183655,
        "entry_name": "\u00d6bbi Fc",
        "event_total": 56,
        "has_played": true,
        "id": 8212522,
        "last_rank": 10992,
        "player_name": "\u00d6rvar \u00d3lafsson",
        "rank": 14053,
        "rank_sort": 14066,
        "total": 2390
      },
      {
        "club_badge_src": null,
        "entry": 1223323,
        "entry_name": "Ajer you ready?",
        "event_total": 69,
        "has_played": true,
        "id": 8493109,
        "last_rank": 21450,
        "player_name": "P\u00e5l Hverven",
        "rank": 14053,
        "rank_sort": 14067,
        "total": 2390
      },
      {
        "club_badge_src": null,
        "entry": 1749688,
        "entry_name": "\u0641\u0644\u0641\u0644 \ufffd\ufe0f\u2764\ufe0f\ufffd\ufffd",
        "event_total": 84,
        "has_played": true,
        "id": 12278711,
        "last_rank": 35867,
        "player_name": "AHMED SAAD",
        "rank": 14053,
        "rank_sort": 14068,
        "total": 2390
      },
      {
        "club_badge_src": null,
        "entry": 1864806,
        "entry_name": "Han United",
        "event_total": 63,
        "has_played": true,
        "id": 13125778,
        "last_rank": 17194,
        "player_name": "Hannah Salt",
        "rank": 14053,
        "rank_sort": 14069,
        "total": 2390
      },
      {
        "club_badge_src": null,
        "entry": 2083301,
        "entry_name": "WorldChampions",
        "event_total": 75,
        "has_played": true,
        "id": 14778586,
        "last_rank": 22830,
        "player_name": "Amr Galal",
        "rank": 14053,
        "rank_sort": 14070,
        "total": 2390
      },
      {
        "club_badge_src": null,
        "entry": 2181395,
        "entry_name": "wing and a prayer",
        "event_total": 53,
        "has_played": true,
        "id": 15515025,
        "last_rank": 11516,
        "player_name": "Peter Chantry",
        "rank": 14053,
        "rank_sort": 14071,
        "total": 2390
      },
      {
        "club_badge_src": null,
        "entry": 2560219,
        "entry_name": "Wet Bandits",
        "event_total": 51,
        "has_played": true,
        "id": 18361255,
        "last_rank": 10629,
        "player_name": "Tom Etherington",
        "rank": 14053,
        "rank_sort": 14072,
        "total": 2390
      },
      {
        "club_badge_src": "https://fantasy.premierleague.com/gcs/plfpl-production-adobe-approved/plfpl-production/2780201/b29c707d-3005-46c0-9431-f104f6821978.png",
        "entry": 2780201,
        "entry_name": "C Surfers FC",
        "event_total": 51,
        "has_played": true,
        "id": 20291316,
        "last_rank": 10651,
        "player_name": "Mat Croft",
        "rank": 14053,
        "rank_sort": 14073,
        "total": 2390
      },
      {
        "club_badge_src": null,
        "entry": 2943466,
        "entry_name": "Avengers \u2692\ufe0f",
        "event_total": 47,
        "has_played": true,
        "id": 21598524,
        "last_rank": 8999,
        "player_name": "Yacine Srairi",
        "rank": 14053,
        "rank_sort": 14074,
        "total": 2390
      },
      {
        "club_badge_src": null,
        "entry": 3817593,
        "entry_name": "RAW",
        "event_total": 40,
        "has_played": true,
        "id": 28550053,
        "last_rank": 5560,
        "player_name": "B\u00f8rge Brunes",
        "rank": 14053,
        "rank_sort": 14075,
        "total": 2390
      },
      {
        "club_badge_src": "https://fantasy.premierleague.com/gcs/plfpl-production-adobe-approved/plfpl-production/4183708/abb3c85b-5c1d-4af4-b610-c1b43d690e09.png",
        "entry": 4183708,
        "entry_name": "Sweed Jesus",
        "event_total": 86,
        "has_played": true,
        "id": 31653759,
        "last_rank": 38163,
        "player_name": "Michael Horton",
        "rank": 14053,
        "rank_sort": 14076,
        "total": 2390
      },
      {
        "club_badge_src": null,
        "entry": 4602187,
        "entry_name": "Haakonamatatas",
        "event_total": 77,
        "has_played": true,
        "id": 35157834,
        "last_rank": 21159,
        "player_name": "Haakon Ellingsen",
        "rank": 14053,
        "rank_sort": 14077,
        "total": 2390
      },
      {
        "club_badge_src": null,
        "entry": 4966422,
        "entry_name": "FC BAYOURS",
        "event_total": 58,
        "has_played": true,
        "id": 38327111,
        "last_rank": 14148,
        "player_name": "Humam Mohamed",
        "rank": 14053,
        "rank_sort": 14078,
        "total": 2390
      },
      {
        "club_badge_src": null,
        "entry": 5219249,
        "entry_name": "Gucci",
        "event_total": 48,
        "has_played": true,
        "id": 40438062,
        "last_rank": 9350,
        "player_name": "Henrik Nielsen",
        "rank": 14053,
        "rank_sort": 14079,
        "total": 2390
      },
      {
        "club_badge_src": null,
        "entry": 5290811,
        "entry_name": "SODO174",
        "event_total": 65,
        "has_played": true,
        "id": 41010713,
        "last_rank": 15876,
        "player_name": "Mohamed Ahmed",
        "rank": 14053,
        "rank_sort": 14080,
        "total": 2390
      },
      {
        "club_badge_src": null,
        "entry": 6717523,
        "entry_name": "Saka Tatties",
        "event_total": 66,
        "has_played": true,
        "id": 53760925,
        "last_rank": 19176,
        "player_name": "Kieran Mcilhatton",
        "rank": 14053,
        "rank_sort": 14081,
        "total": 2390
      },
      {
        "club_badge_src": null,
        "entry": 7046494,
        "entry_name": "Highway Rangers",
        "event_total": 55,
        "has_played": true,
        "id": 56663266,
        "last_rank": 12512,
        "player_name": "Parvin Raj",
        "rank": 14053,
        "rank_sort": 14082,
        "total": 2390
      },
      {
        "club_badge_src": "https://fantasy.premierleague.com/gcs/plfpl-production-adobe-approved/plfpl-production/13638/ccde664f-30d5-4921-8eae-31ef1b27110e.png",
        "entry": 13638,
        "entry_name": "Fail FC",
        "event_total": 56,
        "has_played": true,
        "id": 82502,
        "last_rank": 11058,
        "player_name": "Dale Cobain",
        "rank": 14083,
        "rank_sort": 14083,
        "total": 2390
      },
      {
        "club_badge_src": null,
        "entry": 21984,
        "entry_name": "Studs Up XI",
        "event_total": 68,
        "has_played": true,
        "id": 137964,
        "last_rank": 17848,
        "player_name": "Raheen Gabier",
        "rank": 14083,
        "rank_sort": 14084,
        "total": 2390
      },
      {
        "club_badge_src": null,
        "entry": 42944,
        "entry_name": "Stangborli",
        "event_total": 66,
        "has_played": true,
        "id": 275053,
        "last_rank": 19237,
        "player_name": "sindre stangborli",
        "rank": 14083,
        "rank_sort": 14085,
        "total": 2390
      },
      {
        "club_badge_src": "https://fantasy.premierleague.com/gcs/plfpl-production-adobe-approved/plfpl-production/195627/197c3564-7ef9-4a83-a3ba-7429ed9ccc4a.png",
        "entry": 195627,
        "entry_name": "einoman",
        "event_total": 77,
        "has_played": true,
        "id": 1297359,
        "last_rank": 24636,
        "player_name": "Eino Otava",
        "rank": 14083,
        "rank_sort": 14086,
        "total": 2390
      },
      {
        "club_badge_src": null,
        "entry": 435340,
        "entry_name": "Shaw Gonna Win",
        "event_total": 50,
        "has_played": true,
        "id": 2919292,
        "last_rank": 10195,
        "player_name": "Ben Burnage",
        "rank": 14083,
        "rank_sort": 14087,
        "total": 2390
      },
      {
        "club_badge_src": null,
        "entry": 451675,
        "entry_name": "Kinder Mbuemo",
        "event_total": 63,
        "has_played": true,
        "id": 3030206,
        "last_rank": 17194,
        "player_name": "Lucas Hjarding",
        "rank": 14083,
        "rank_sort": 14088,
        "total": 2390
      },
      {
        "club_badge_src": "https://fantasy.premierleague.com/gcs/plfpl-production-adobe-approved/plfpl-production/668247/fe29913c-6715-44ac-8e14-d1fa678f13f9.png",
        "entry": 668247,
        "entry_name": "Kol 3am ndezou fikom",
        "event_total": 53,
        "has_played": true,
        "id": 4518793,
        "last_rank": 9775,
        "player_name": "Seif Gheith",
        "rank": 14083,
        "rank_sort": 14089,
        "total": 2390
      },
      {
        "club_badge_src": null,
        "entry": 681492,
        "entry_name": "Agbadou do do",
        "event_total": 54,
        "has_played": true,
        "id": 4612011,
        "last_rank": 10173,
        "player_name": "Ashley Humphrey",
        "rank": 14083,
        "rank_sort": 14090,
        "total": 2390
      },
      {
        "club_badge_src": null,
        "entry": 685200,
        "entry_name": "WoodyLovedWatford",
        "event_total": 62,
        "has_played": true,
        "id": 4638004,
        "last_rank": 16598,
        "player_name": "steven golding",
        "rank": 14083,
        "rank_sort": 14091,
        "total": 2390
      },
      {
        "club_badge_src": null,
        "entry": 690416,
        "entry_name": "Tupp & Sleivspark FC",
        "event_total": 56,
        "has_played": true,
        "id": 4674955,
        "last_rank": 13060,
        "player_name": "Tommy Andersen",
        "rank": 14083,
        "rank_sort": 14092,
        "total": 2390
      },
      {
        "club_badge_src": null,
        "entry": 1020759,
        "entry_name": "Ledley\u2019s Kings",
        "event_total": 57,
        "has_played": true,
        "id": 7062060,
        "last_rank": 13629,
        "player_name": "Ian Jeffrey",
        "rank": 14083,
        "rank_sort": 14093,
        "total": 2390
      },
      {
        "club_badge_src": null,
        "entry": 1328646,
        "entry_name": "Boom xhakalaka",
        "event_total": 69,
        "has_played": true,
        "id": 9235066,
        "last_rank": 21486,
        "player_name": "Ben Matthews",
        "rank": 14083,
        "rank_sort": 14094,
        "total": 2390
      },
      {
        "club_badge_src": null,
        "entry": 1734211,
        "entry_name": "Chelsea.1",
        "event_total": 66,
        "has_played": true,
        "id": 12165467,
        "last_rank": 19279,
        "player_name": "Mohamed Mahmoud",
        "rank": 14083,
        "rank_sort": 14095,
        "total": 2390
      },
      {
        "club_badge_src": null,
        "entry": 1887240,
        "entry_name": "\u00c4nglarna",
        "event_total": 67,
        "has_played": true,
        "id": 13300131,
        "last_rank": 20008,
        "player_name": "Alexander B\u00e4ck",
        "rank": 14083,
        "rank_sort": 14096,
        "total": 2390
      },
      {
        "club_badge_src": "https://fantasy.premierleague.com/gcs/plfpl-production-adobe-approved/plfpl-production/2473376/d1d8d73a-a2da-4017-8c34-787444b05504.png",
        "entry": 2473376,
        "entry_name": "YoroAlwaysOnMyMind",
        "event_total": 63,
        "has_played": true,
        "id": 17695359,
        "last_rank": 17194,
        "player_name": "Matt Sayers",
        "rank": 14083,
        "rank_sort": 14097,
        "total": 2390
      },
      {
        "club_badge_src": "https://fantasy.premierleague.com/gcs/plfpl-production-adobe-approved/plfpl-production/2478225/0fe63437-93a1-4d2b-b2de-3630869a4f53.png",
        "entry": 2478225,
        "entry_name": "mateje",
        "event_total": 68,
        "has_played": true,
        "id": 17731656,
        "last_rank": 17848,
        "player_name": "Matej \u010cota",
        "rank": 14083,
        "rank_sort": 14098,
        "total": 2390
      },
      {
        "club_badge_src": "https://fantasy.premierleague.com/gcs/plfpl-production-adobe-approved/plfpl-production/3272288/251bf261-bd1a-4e11-acfe-ec5fd9409618.png",
        "entry": 3272288,
        "entry_name": "Buaya FC",
        "event_total": 64,
        "has_played": true,
        "id": 24216664,
        "last_rank": 12995,
        "player_name": "Hakim Razip",
        "rank": 14083,
        "rank_sort": 14099,
        "total": 2390
      },
      {
        "club_badge_src": null,
        "entry": 5267683,
        "entry_name": "Sausage Finger Squad",
        "event_total": 57,
        "has_played": true,
        "id": 40827852,
        "last_rank": 13653,
        "player_name": "Charlie King",
        "rank": 14083,
        "rank_sort": 14100,
        "total": 2390
      }
    ]
  }
}