{
  "last_updated_data": "2026-05-24T23:28:17Z",
  "league": {
    "admin_entry": null,
    "closed": false,
    "code_privacy": "p",
    "created": "2025-07-20T23:14:33.933835Z",
    "cup_league": 2815434,
    "has_cup": true,
    "id": 314,
    "league_type": "s",
    "max_entries": null,
    "name": "Overall",
    "rank": null,
    "scoring": "c",
    "start_event": 1
  },
  "new_entries": {
    "has_next": false,
    "page": 1,
    "results": []
  },
  "standings": {
    "has_next": true,
    "page": 1582,
    "results": [
      {
        "club_badge_src": null,
        "entry": 937564,
        "entry_name": "Onanarama",
        "event_total": 47,
        "has_played": true,
        "id": 6452688,
        "last_rank": 60827,
        "player_name": "Mark Phelps",
        "rank": 79001,
        "rank_sort": 79051,
        "total": 2336
      },
      {
        "club_badge_src": null,
        "entry": 990340,
        "entry_name": "Abdullah",
        "event_total": 56,
        "has_played": true,
        "id": 6828613,
        "last_rank": 61950,
        "player_name": "abdullah aldakak",
        "rank": 79001,
        "rank_sort": 79052,
        "total": 2336
      },
      {
        "club_badge_src": null,
        "entry": 1014849,
        "entry_name": "Me, Myself, Ndiaye",
        "event_total": 41,
        "has_played": true,
        "id": 7020610,
        "last_rank": 50772,
        "player_name": "Wesley Atkinson",
        "rank": 79001,
        "rank_sort": 79053,
        "total": 2336
      },
      {
        "club_badge_src": null,
        "entry": 1130030,
        "entry_name": "Super saints",
        "event_total": 65,
        "has_played": true,
        "id": 7832096,
        "last_rank": 99806,
        "player_name": "Martin Porter",
        "rank": 79001,
        "rank_sort": 79054,
        "total": 2336
      },
      {
        "club_badge_src": "https://fantasy.premierleague.com/gcs/plfpl-production-adobe-approved/plfpl-production/1177347/bfc97cf7-29d8-47e5-a0b8-4d92a168708e.png",
        "entry": 1177347,
        "entry_name": "Gy\u00f6ks big Saka Rice",
        "event_total": 50,
        "has_played": true,
        "id": 8169030,
        "last_rank": 66200,
        "player_name": "William Rushton",
        "rank": 79001,
        "rank_sort": 79055,
        "total": 2336
      },
      {
        "club_badge_src": null,
        "entry": 1257703,
        "entry_name": "The reds Yambool",
        "event_total": 64,
        "has_played": true,
        "id": 8736366,
        "last_rank": 96777,
        "player_name": "Nikolay Nenov",
        "rank": 79001,
        "rank_sort": 79056,
        "total": 2336
      },
      {
        "club_badge_src": null,
        "entry": 1285539,
        "entry_name": "Nydalen FC",
        "event_total": 67,
        "has_played": true,
        "id": 8932804,
        "last_rank": 104941,
        "player_name": "Even Kragfoss",
        "rank": 79001,
        "rank_sort": 79057,
        "total": 2336
      },
      {
        "club_badge_src": null,
        "entry": 1291483,
        "entry_name": "Al Opecia",
        "event_total": 65,
        "has_played": true,
        "id": 8974314,
        "last_rank": 99596,
        "player_name": "Owen Sullivan",
        "rank": 79001,
        "rank_sort": 79058,
        "total": 2336
      },
      {
        "club_badge_src": "https://fantasy.premierleague.com/gcs/plfpl-production-adobe-approved/plfpl-production/1379422/1618ebf1-ba8d-43f2-a063-b09a23de497f.png",
        "entry": 1379422,
        "entry_name": "Peanuts",
        "event_total": 60,
        "has_played": true,
        "id": 9588886,
        "last_rank": 87350,
        "player_name": "Jake Bianco",
        "rank": 79001,
        "rank_sort": 79059,
        "total": 2336
      },
      {
        "club_badge_src": null,
        "entry": 1388248,
        "entry_name": "3MAN XI",
        "event_total": 67,
        "has_played": true,
        "id": 9656482,
        "last_rank": 104388,
        "player_name": "josh freeman",
        "rank": 79001,
        "rank_sort": 79060,
        "total": 2336
      },
      {
        "club_badge_src": "https://fantasy.premierleague.com/gcs/plfpl-production-adobe-approved/plfpl-production/1442864/c0e7dd7c-fec4-4323-b01c-089bd1b67fa7.png",
        "entry": 1442864,
        "entry_name": "Obi Wan Kenobi Nil",
        "event_total": 65,
        "has_played": true,
        "id": 10054112,
        "last_rank": 99806,
        "player_name": "Ed Moys",
        "rank": 79001,
        "rank_sort": 79061,
        "total": 2336
      },
      {
        "club_badge_src": null,
        "entry": 1472038,
        "entry_name": "Heavy Steppers",
        "event_total": 52,
        "has_played": true,
        "id": 10261184,
        "last_rank": 70183,
        "player_name": "Tye Maynard",
        "rank": 79001,
        "rank_sort": 79062,
        "total": 2336
      },
      {
        "club_badge_src": null,
        "entry": 1495032,
        "entry_name": "Super Teko",
        "event_total": 33,
        "has_played": true,
        "id": 10425809,
        "last_rank": 39510,
        "player_name": "Tarek Ezzat",
        "rank": 79001,
        "rank_sort": 79063,
        "total": 2336
      },
      {
        "club_badge_src": null,
        "entry": 1500310,
        "entry_name": "Freed from Maguire",
        "event_total": 58,
        "has_played": true,
        "id": 10462922,
        "last_rank": 82398,
        "player_name": "Iain Black",
        "rank": 79001,
        "rank_sort": 79064,
        "total": 2336
      },
      {
        "club_badge_src": null,
        "entry": 1544327,
        "entry_name": "Grealish Bodily Harm",
        "event_total": 58,
        "has_played": true,
        "id": 10779559,
        "last_rank": 82873,
        "player_name": "Sam Pearson",
        "rank": 79001,
        "rank_sort": 79065,
        "total": 2336
      },
      {
        "club_badge_src": "https://fantasy.premierleague.com/gcs/plfpl-production-adobe-approved/plfpl-production/1663303/863c29a2-bc0f-4407-9bad-7edee42f0870.png",
        "entry": 1663303,
        "entry_name": "Kinder Mbuemo",
        "event_total": 76,
        "has_played": true,
        "id": 11645359,
        "last_rank": 131244,
        "player_name": "Scott Kirk",
        "rank": 79001,
        "rank_sort": 79066,
        "total": 2336
      },
      {
        "club_badge_src": null,
        "entry": 1705929,
        "entry_name": "Banog Boys",
        "event_total": 62,
        "has_played": true,
        "id": 11950954,
        "last_rank": 91835,
        "player_name": "Josh Lewis",
        "rank": 79001,
        "rank_sort": 79067,
        "total": 2336
      },
      {
        "club_badge_src": null,
        "entry": 1722840,
        "entry_name": "Dazzers Dazzlers",
        "event_total": 57,
        "has_played": true,
        "id": 12077417,
        "last_rank": 80651,
        "player_name": "Darren Reynolds",
        "rank": 79001,
        "rank_sort": 79068,
        "total": 2336
      },
      {
        "club_badge_src": null,
        "entry": 1817221,
        "entry_name": "Sweez&co",
        "event_total": 58,
        "has_played": true,
        "id": 12779227,
        "last_rank": 65796,
        "player_name": "Gianni Leroy",
        "rank": 79001,
        "rank_sort": 79069,
        "total": 2336
      },
      {
        "club_badge_src": null,
        "entry": 1888455,
        "entry_name": "Elfares",
        "event_total": 73,
        "has_played": true,
        "id": 13309035,
        "last_rank": 98896,
        "player_name": "Hesham Mesilhi",
        "rank": 79001,
        "rank_sort": 79070,
        "total": 2336
      },
      {
        "club_badge_src": null,
        "entry": 1904512,
        "entry_name": "Ayia Knapper Rovers",
        "event_total": 59,
        "has_played": true,
        "id": 13426031,
        "last_rank": 76128,
        "player_name": "Freddie Bols",
        "rank": 79001,
        "rank_sort": 79071,
        "total": 2336
      },
      {
        "club_badge_src": null,
        "entry": 1908179,
        "entry_name": "Yalaaanii",
        "event_total": 58,
        "has_played": true,
        "id": 13452622,
        "last_rank": 82873,
        "player_name": "Daniel Zavoianu",
        "rank": 79001,
        "rank_sort": 79072,
        "total": 2336
      },
      {
        "club_badge_src": null,
        "entry": 1945920,
        "entry_name": "khalid_al.RUSSE",
        "event_total": 70,
        "has_played": true,
        "id": 13726287,
        "last_rank": 102125,
        "player_name": "Khalid Kuzam",
        "rank": 79001,
        "rank_sort": 79073,
        "total": 2336
      },
      {
        "club_badge_src": null,
        "entry": 2068721,
        "entry_name": "Blue Hexagon",
        "event_total": 62,
        "has_played": true,
        "id": 14664222,
        "last_rank": 82664,
        "player_name": "Bart\u0142omiej Nosi\u0144ski",
        "rank": 79001,
        "rank_sort": 79074,
        "total": 2336
      },
      {
        "club_badge_src": null,
        "entry": 2117247,
        "entry_name": "Jhare977",
        "event_total": 43,
        "has_played": true,
        "id": 15038521,
        "last_rank": 53952,
        "player_name": "Sudip Gurung",
        "rank": 79001,
        "rank_sort": 79075,
        "total": 2336
      },
      {
        "club_badge_src": "https://fantasy.premierleague.com/gcs/plfpl-production-adobe-approved/plfpl-production/2160189/0bb83947-c7ab-4123-95be-82e69f82cd8b.png",
        "entry": 2160189,
        "entry_name": "DrAvIDIaN FC",
        "event_total": 53,
        "has_played": true,
        "id": 15356367,
        "last_rank": 71956,
        "player_name": "Vinotheraj Batumanathan",
        "rank": 79001,
        "rank_sort": 79076,
        "total": 2336
      },
      {
        "club_badge_src": null,
        "entry": 2177207,
        "entry_name": "Cucu Penitentiary",
        "event_total": 40,
        "has_played": true,
        "id": 15483234,
        "last_rank": 49207,
        "player_name": "Maneesh Sistla",
        "rank": 79001,
        "rank_sort": 79077,
        "total": 2336
      },
      {
        "club_badge_src": "https://fantasy.premierleague.com/gcs/plfpl-production-adobe-approved/plfpl-production/2278262/f809043e-d79b-4c22-8c68-b18188222d95.png",
        "entry": 2278262,
        "entry_name": "BrrBrr Patapim",
        "event_total": 60,
        "has_played": true,
        "id": 16246159,
        "last_rank": 87710,
        "player_name": "Sebastian Hallberg",
        "rank": 79001,
        "rank_sort": 79078,
        "total": 2336
      },
      {
        "club_badge_src": null,
        "entry": 2362387,
        "entry_name": "Antisocial traits",
        "event_total": 55,
        "has_played": true,
        "id": 16860076,
        "last_rank": 76128,
        "player_name": "Eugene Connell",
        "rank": 79001,
        "rank_sort": 79079,
        "total": 2336
      },
      {
        "club_badge_src": null,
        "entry": 2386037,
        "entry_name": "Froggies",
        "event_total": 63,
        "has_played": true,
        "id": 17042315,
        "last_rank": 94778,
        "player_name": "Bassel Nasrallah",
        "rank": 79001,
        "rank_sort": 79080,
        "total": 2336
      },
      {
        "club_badge_src": null,
        "entry": 2401741,
        "entry_name": "Jambuster",
        "event_total": 45,
        "has_played": true,
        "id": 17166030,
        "last_rank": 57200,
        "player_name": "Armando Tan",
        "rank": 79001,
        "rank_sort": 79081,
        "total": 2336
      },
      {
        "club_badge_src": null,
        "entry": 2435411,
        "entry_name": "Change Name",
        "event_total": 48,
        "has_played": true,
        "id": 17416100,
        "last_rank": 48642,
        "player_name": "Alex Hall",
        "rank": 79001,
        "rank_sort": 79082,
        "total": 2336
      },
      {
        "club_badge_src": null,
        "entry": 2515565,
        "entry_name": "leon mikes xi",
        "event_total": 59,
        "has_played": true,
        "id": 18022508,
        "last_rank": 85207,
        "player_name": "Scott Pratt",
        "rank": 79001,
        "rank_sort": 79083,
        "total": 2336
      },
      {
        "club_badge_src": null,
        "entry": 2516100,
        "entry_name": "abo yousef",
        "event_total": 42,
        "has_played": true,
        "id": 18026401,
        "last_rank": 52357,
        "player_name": "Mohammad Alazmi",
        "rank": 79001,
        "rank_sort": 79084,
        "total": 2336
      },
      {
        "club_badge_src": null,
        "entry": 2594213,
        "entry_name": "Brisbane Roar",
        "event_total": 67,
        "has_played": true,
        "id": 18627196,
        "last_rank": 94537,
        "player_name": "Chris McKeering",
        "rank": 79001,
        "rank_sort": 79085,
        "total": 2336
      },
      {
        "club_badge_src": "https://fantasy.premierleague.com/gcs/plfpl-production-adobe-approved/plfpl-production/2709033/3fba37aa-f17a-4a16-ad0d-be63d3fffeb4.png",
        "entry": 2709033,
        "entry_name": "merseyside",
        "event_total": 73,
        "has_played": true,
        "id": 19490557,
        "last_rank": 121705,
        "player_name": "Jorji Mersey",
        "rank": 79001,
        "rank_sort": 79086,
        "total": 2336
      },
      {
        "club_badge_src": null,
        "entry": 2784514,
        "entry_name": "Not Too Shabby",
        "event_total": 48,
        "has_played": true,
        "id": 20327596,
        "last_rank": 62223,
        "player_name": "Wilson Hughes",
        "rank": 79001,
        "rank_sort": 79087,
        "total": 2336
      },
      {
        "club_badge_src": null,
        "entry": 2848052,
        "entry_name": "TalkAmongst YourSels",
        "event_total": 57,
        "has_played": true,
        "id": 20822213,
        "last_rank": 71956,
        "player_name": "Joshua Merrifield",
        "rank": 79001,
        "rank_sort": 79088,
        "total": 2336
      },
      {
        "club_badge_src": null,
        "entry": 2859743,
        "entry_name": "FC DanBall",
        "event_total": 43,
        "has_played": true,
        "id": 20912823,
        "last_rank": 53837,
        "player_name": "Daniel Ball",
        "rank": 79001,
        "rank_sort": 79089,
        "total": 2336
      },
      {
        "club_badge_src": null,
        "entry": 2908612,
        "entry_name": "Fantastic Eleven",
        "event_total": 55,
        "has_played": true,
        "id": 21317181,
        "last_rank": 76330,
        "player_name": "H\u00e5kon Skibeli",
        "rank": 79001,
        "rank_sort": 79090,
        "total": 2336
      },
      {
        "club_badge_src": null,
        "entry": 2911007,
        "entry_name": "dr smsm",
        "event_total": 51,
        "has_played": true,
        "id": 21336029,
        "last_rank": 60671,
        "player_name": "Haitham Hosny",
        "rank": 79001,
        "rank_sort": 79091,
        "total": 2336
      },
      {
        "club_badge_src": null,
        "entry": 2924218,
        "entry_name": "Beef Cherki",
        "event_total": 54,
        "has_played": true,
        "id": 21436969,
        "last_rank": 73975,
        "player_name": "Peter Flambard",
        "rank": 79001,
        "rank_sort": 79092,
        "total": 2336
      },
      {
        "club_badge_src": null,
        "entry": 2944533,
        "entry_name": "Fpl_Gomek",
        "event_total": 67,
        "has_played": true,
        "id": 21606303,
        "last_rank": 94537,
        "player_name": "Araga Maajid",
        "rank": 79001,
        "rank_sort": 79093,
        "total": 2336
      },
      {
        "club_badge_src": null,
        "entry": 2990639,
        "entry_name": "ShawkyGerrard",
        "event_total": 61,
        "has_played": true,
        "id": 21994639,
        "last_rank": 89426,
        "player_name": "Shawky Gerrard",
        "rank": 79001,
        "rank_sort": 79094,
        "total": 2336
      },
      {
        "club_badge_src": null,
        "entry": 3032505,
        "entry_name": "MonkDeWallyDaHonk",
        "event_total": 43,
        "has_played": true,
        "id": 22316076,
        "last_rank": 53952,
        "player_name": "James Day",
        "rank": 79001,
        "rank_sort": 79095,
        "total": 2336
      },
      {
        "club_badge_src": null,
        "entry": 3105372,
        "entry_name": "MDJ FC",
        "event_total": 55,
        "has_played": true,
        "id": 22895776,
        "last_rank": 76330,
        "player_name": "Sue Morris",
        "rank": 79001,
        "rank_sort": 79096,
        "total": 2336
      },
      {
        "club_badge_src": null,
        "entry": 3165880,
        "entry_name": "Tyse",
        "event_total": 60,
        "has_played": true,
        "id": 23388869,
        "last_rank": 87350,
        "player_name": "David Tysoe",
        "rank": 79001,
        "rank_sort": 79097,
        "total": 2336
      },
      {
        "club_badge_src": null,
        "entry": 3183473,
        "entry_name": "triple x",
        "event_total": 66,
        "has_played": true,
        "id": 23525193,
        "last_rank": 91835,
        "player_name": "John Amir",
        "rank": 79001,
        "rank_sort": 79098,
        "total": 2336
      },
      {
        "club_badge_src": null,
        "entry": 3250332,
        "entry_name": "Don Duholm",
        "event_total": 51,
        "has_played": true,
        "id": 24047720,
        "last_rank": 67926,
        "player_name": "Jimmy Duholm",
        "rank": 79001,
        "rank_sort": 79099,
        "total": 2336
      },
      {
        "club_badge_src": null,
        "entry": 3326644,
        "entry_name": "Kings 26",
        "event_total": 55,
        "has_played": true,
        "id": 24663217,
        "last_rank": 76330,
        "player_name": "Harpreet Lachhar",
        "rank": 79001,
        "rank_sort": 79100,
        "total": 2336
      }
    ]
  }
}