{
  "last_updated_data": "2026-05-24T23:28:17Z",
  "league": {
    "admin_entry": null,
    "closed": false,
    "code_privacy": "p",
    "created": "2025-07-20T23:14:33.933835Z",
    "cup_league": 2815434,
    "has_cup": true,
    "id": 314,
    "league_type": "s",
    "max_entries": null,
    "name": "Overall",
    "rank": null,
    "scoring": "c",
    "start_event": 1
  },
  "new_entries": {
    "has_next": false,
    "page": 1,
    "results": []
  },
  "standings": {
    "has_next": true,
    "page": 591,
    "results": [
      {
        "club_badge_src": null,
        "entry": 89749,
        "entry_name": "Isak at FPL",
        "event_total": 54,
        "has_played": true,
        "id": 585861,
        "last_rank": 22921,
        "player_name": "Dan Littler",
        "rank": 29496,
        "rank_sort": 29501,
        "total": 2369
      },
      {
        "club_badge_src": null,
        "entry": 105356,
        "entry_name": "HiggiFC",
        "event_total": 57,
        "has_played": true,
        "id": 687149,
        "last_rank": 25436,
        "player_name": "Nath Higginbottom",
        "rank": 29496,
        "rank_sort": 29502,
        "total": 2369
      },
      {
        "club_badge_src": null,
        "entry": 127840,
        "entry_name": "North Maxedonia FC",
        "event_total": 53,
        "has_played": true,
        "id": 833300,
        "last_rank": 22154,
        "player_name": "Enzo Maxesca",
        "rank": 29496,
        "rank_sort": 29503,
        "total": 2369
      },
      {
        "club_badge_src": null,
        "entry": 132109,
        "entry_name": "Half the world (a)",
        "event_total": 47,
        "has_played": true,
        "id": 860610,
        "last_rank": 17718,
        "player_name": "Will Bunn",
        "rank": 29496,
        "rank_sort": 29504,
        "total": 2369
      },
      {
        "club_badge_src": null,
        "entry": 133215,
        "entry_name": "Sky Blues are back!",
        "event_total": 43,
        "has_played": true,
        "id": 867695,
        "last_rank": 15226,
        "player_name": "Matthew Brown",
        "rank": 29496,
        "rank_sort": 29505,
        "total": 2369
      },
      {
        "club_badge_src": null,
        "entry": 151483,
        "entry_name": "World Champions",
        "event_total": 55,
        "has_played": true,
        "id": 993856,
        "last_rank": 27364,
        "player_name": "Yosafat Chambara",
        "rank": 29496,
        "rank_sort": 29506,
        "total": 2369
      },
      {
        "club_badge_src": null,
        "entry": 186864,
        "entry_name": "Ha Cunha Mateta",
        "event_total": 57,
        "has_played": true,
        "id": 1235170,
        "last_rank": 29279,
        "player_name": "Callum MacCarthy",
        "rank": 29496,
        "rank_sort": 29507,
        "total": 2369
      },
      {
        "club_badge_src": null,
        "entry": 187988,
        "entry_name": "Blood Of Kings VII",
        "event_total": 46,
        "has_played": true,
        "id": 1243382,
        "last_rank": 17150,
        "player_name": "Richard Moses",
        "rank": 29496,
        "rank_sort": 29508,
        "total": 2369
      },
      {
        "club_badge_src": null,
        "entry": 259682,
        "entry_name": "Cold Innit",
        "event_total": 44,
        "has_played": true,
        "id": 1726552,
        "last_rank": 15876,
        "player_name": "Dion Bolonis",
        "rank": 29496,
        "rank_sort": 29509,
        "total": 2369
      },
      {
        "club_badge_src": null,
        "entry": 287693,
        "entry_name": "Rutter Woke Nonsense",
        "event_total": 62,
        "has_played": true,
        "id": 1917294,
        "last_rank": 34682,
        "player_name": "Craig Robb",
        "rank": 29496,
        "rank_sort": 29510,
        "total": 2369
      },
      {
        "club_badge_src": null,
        "entry": 315705,
        "entry_name": "Freeze",
        "event_total": 62,
        "has_played": true,
        "id": 2115861,
        "last_rank": 30191,
        "player_name": "Abdulaziz Aldurayhim",
        "rank": 29496,
        "rank_sort": 29511,
        "total": 2369
      },
      {
        "club_badge_src": "https://fantasy.premierleague.com/gcs/plfpl-production-adobe-approved/plfpl-production/373200/b3068874-368d-4942-9f0f-c805e13a99f4.png",
        "entry": 373200,
        "entry_name": "Catch Me If You Can",
        "event_total": 65,
        "has_played": true,
        "id": 2496954,
        "last_rank": 38163,
        "player_name": "Karim Khamis",
        "rank": 29496,
        "rank_sort": 29512,
        "total": 2369
      },
      {
        "club_badge_src": null,
        "entry": 394622,
        "entry_name": "The Hwang Overmars",
        "event_total": 53,
        "has_played": true,
        "id": 2646458,
        "last_rank": 25517,
        "player_name": "James Elliott",
        "rank": 29496,
        "rank_sort": 29513,
        "total": 2369
      },
      {
        "club_badge_src": null,
        "entry": 426746,
        "entry_name": "Quintuple time!",
        "event_total": 63,
        "has_played": true,
        "id": 2861307,
        "last_rank": 27020,
        "player_name": "Lee Faint",
        "rank": 29496,
        "rank_sort": 29514,
        "total": 2369
      },
      {
        "club_badge_src": null,
        "entry": 442023,
        "entry_name": "NumeroBruno",
        "event_total": 65,
        "has_played": true,
        "id": 2963778,
        "last_rank": 33483,
        "player_name": "Kaustubh Patwardhan",
        "rank": 29496,
        "rank_sort": 29515,
        "total": 2369
      },
      {
        "club_badge_src": "https://fantasy.premierleague.com/gcs/plfpl-production-adobe-approved/plfpl-production/528888/0deaf3d3-aa38-4f0e-a5f3-e339ae6f9769.png",
        "entry": 528888,
        "entry_name": "Lord Bendtner",
        "event_total": 49,
        "has_played": true,
        "id": 3556160,
        "last_rank": 22216,
        "player_name": "Justin Voskuyl",
        "rank": 29496,
        "rank_sort": 29516,
        "total": 2369
      },
      {
        "club_badge_src": null,
        "entry": 537336,
        "entry_name": "Honey Badgers",
        "event_total": 53,
        "has_played": true,
        "id": 3617144,
        "last_rank": 25517,
        "player_name": "Luke Everson",
        "rank": 29496,
        "rank_sort": 29517,
        "total": 2369
      },
      {
        "club_badge_src": null,
        "entry": 622416,
        "entry_name": "joe,s",
        "event_total": 71,
        "has_played": true,
        "id": 4206291,
        "last_rank": 40503,
        "player_name": "Yousef Yasser",
        "rank": 29496,
        "rank_sort": 29518,
        "total": 2369
      },
      {
        "club_badge_src": null,
        "entry": 630694,
        "entry_name": "Teaco McNiel Deal",
        "event_total": 59,
        "has_played": true,
        "id": 4261829,
        "last_rank": 27304,
        "player_name": "Adam Cross",
        "rank": 29496,
        "rank_sort": 29519,
        "total": 2369
      },
      {
        "club_badge_src": null,
        "entry": 745950,
        "entry_name": "Wirtz Case Scenario",
        "event_total": 62,
        "has_played": true,
        "id": 5074509,
        "last_rank": 34682,
        "player_name": "Jason Slater",
        "rank": 29496,
        "rank_sort": 29520,
        "total": 2369
      },
      {
        "club_badge_src": null,
        "entry": 974357,
        "entry_name": "Boydaz",
        "event_total": 44,
        "has_played": true,
        "id": 6716667,
        "last_rank": 18520,
        "player_name": "Monthon Supichayangkul",
        "rank": 29496,
        "rank_sort": 29521,
        "total": 2369
      },
      {
        "club_badge_src": null,
        "entry": 1011216,
        "entry_name": "ALAHLY",
        "event_total": 58,
        "has_played": true,
        "id": 6994352,
        "last_rank": 26230,
        "player_name": "Wael Karem",
        "rank": 29496,
        "rank_sort": 29522,
        "total": 2369
      },
      {
        "club_badge_src": null,
        "entry": 1033165,
        "entry_name": "MG 11",
        "event_total": 57,
        "has_played": true,
        "id": 7148500,
        "last_rank": 29199,
        "player_name": "David Praise",
        "rank": 29496,
        "rank_sort": 29523,
        "total": 2369
      },
      {
        "club_badge_src": null,
        "entry": 1134084,
        "entry_name": "Under Paddehatten",
        "event_total": 64,
        "has_played": true,
        "id": 7861267,
        "last_rank": 32335,
        "player_name": "Lasse Bach-kristensen",
        "rank": 29496,
        "rank_sort": 29524,
        "total": 2369
      },
      {
        "club_badge_src": null,
        "entry": 1249701,
        "entry_name": "Pine Hat Nerds",
        "event_total": 44,
        "has_played": true,
        "id": 8679130,
        "last_rank": 18520,
        "player_name": "Stephen Bent",
        "rank": 29496,
        "rank_sort": 29525,
        "total": 2369
      },
      {
        "club_badge_src": null,
        "entry": 1347111,
        "entry_name": "StrangerMings",
        "event_total": 57,
        "has_played": true,
        "id": 9365466,
        "last_rank": 29199,
        "player_name": "Ketan Damle",
        "rank": 29496,
        "rank_sort": 29526,
        "total": 2369
      },
      {
        "club_badge_src": null,
        "entry": 1376706,
        "entry_name": "Frankly my dear",
        "event_total": 66,
        "has_played": true,
        "id": 9569915,
        "last_rank": 39403,
        "player_name": "Cameron Flett",
        "rank": 29496,
        "rank_sort": 29527,
        "total": 2369
      },
      {
        "club_badge_src": "https://fantasy.premierleague.com/gcs/plfpl-production-adobe-approved/plfpl-production/1692127/208326ea-61d6-4051-b063-87c016f9152b.png",
        "entry": 1692127,
        "entry_name": "BananToKrul",
        "event_total": 70,
        "has_played": true,
        "id": 11850898,
        "last_rank": 39403,
        "player_name": "Damian Rucinski",
        "rank": 29496,
        "rank_sort": 29528,
        "total": 2369
      },
      {
        "club_badge_src": null,
        "entry": 1805188,
        "entry_name": "Mo Salah",
        "event_total": 41,
        "has_played": true,
        "id": 12690764,
        "last_rank": 16567,
        "player_name": "Syed Tushar",
        "rank": 29496,
        "rank_sort": 29529,
        "total": 2369
      },
      {
        "club_badge_src": null,
        "entry": 2010881,
        "entry_name": "Kunnin Stunz",
        "event_total": 65,
        "has_played": true,
        "id": 14219059,
        "last_rank": 33483,
        "player_name": "Anthony Bauge",
        "rank": 29496,
        "rank_sort": 29530,
        "total": 2369
      },
      {
        "club_badge_src": null,
        "entry": 2139376,
        "entry_name": "COLD YASSIN\ufffd",
        "event_total": 67,
        "has_played": true,
        "id": 15204433,
        "last_rank": 35768,
        "player_name": "yassin essam",
        "rank": 29496,
        "rank_sort": 29531,
        "total": 2369
      },
      {
        "club_badge_src": null,
        "entry": 2339234,
        "entry_name": "Palmer Ham",
        "event_total": 69,
        "has_played": true,
        "id": 16691059,
        "last_rank": 43444,
        "player_name": "Danielle Gill",
        "rank": 29496,
        "rank_sort": 29532,
        "total": 2369
      },
      {
        "club_badge_src": null,
        "entry": 2350405,
        "entry_name": "Salah Cinnamon",
        "event_total": 62,
        "has_played": true,
        "id": 16770832,
        "last_rank": 30191,
        "player_name": "Chris Parkin",
        "rank": 29496,
        "rank_sort": 29533,
        "total": 2369
      },
      {
        "club_badge_src": null,
        "entry": 2515006,
        "entry_name": "True warrior",
        "event_total": 69,
        "has_played": true,
        "id": 18018292,
        "last_rank": 38163,
        "player_name": "Kinga Loday",
        "rank": 29496,
        "rank_sort": 29534,
        "total": 2369
      },
      {
        "club_badge_src": null,
        "entry": 2807987,
        "entry_name": "Sweet Bald Slots",
        "event_total": 45,
        "has_played": true,
        "id": 20508055,
        "last_rank": 16512,
        "player_name": "Paul Race",
        "rank": 29496,
        "rank_sort": 29535,
        "total": 2369
      },
      {
        "club_badge_src": null,
        "entry": 3161246,
        "entry_name": "Highlanders",
        "event_total": 44,
        "has_played": true,
        "id": 23352752,
        "last_rank": 18520,
        "player_name": "James McLeod",
        "rank": 29496,
        "rank_sort": 29536,
        "total": 2369
      },
      {
        "club_badge_src": null,
        "entry": 3267165,
        "entry_name": "The Invincible",
        "event_total": 56,
        "has_played": true,
        "id": 24176822,
        "last_rank": 24570,
        "player_name": "Sunny Mafigu",
        "rank": 29496,
        "rank_sort": 29537,
        "total": 2369
      },
      {
        "club_badge_src": null,
        "entry": 4316348,
        "entry_name": "Pozzie FC",
        "event_total": 72,
        "has_played": true,
        "id": 32754770,
        "last_rank": 41967,
        "player_name": "Lewis Kind",
        "rank": 29496,
        "rank_sort": 29538,
        "total": 2369
      },
      {
        "club_badge_src": null,
        "entry": 4501838,
        "entry_name": "KingSingh XI",
        "event_total": 51,
        "has_played": true,
        "id": 34321454,
        "last_rank": 23857,
        "player_name": "Jordan Singh",
        "rank": 29496,
        "rank_sort": 29539,
        "total": 2369
      },
      {
        "club_badge_src": null,
        "entry": 5119593,
        "entry_name": "\u5468\u516dgogogo\u5468\u65e5nonono",
        "event_total": 52,
        "has_played": true,
        "id": 39583578,
        "last_rank": 24636,
        "player_name": "Liyi Gu",
        "rank": 29496,
        "rank_sort": 29540,
        "total": 2369
      },
      {
        "club_badge_src": null,
        "entry": 5162853,
        "entry_name": "Suir why knot",
        "event_total": 55,
        "has_played": true,
        "id": 39953242,
        "last_rank": 27364,
        "player_name": "S\u00e9amus Ryan",
        "rank": 29496,
        "rank_sort": 29541,
        "total": 2369
      },
      {
        "club_badge_src": null,
        "entry": 5204833,
        "entry_name": "alm3ala",
        "event_total": 55,
        "has_played": true,
        "id": 40311095,
        "last_rank": 23748,
        "player_name": "Abdulaziz Almualla",
        "rank": 29496,
        "rank_sort": 29542,
        "total": 2369
      },
      {
        "club_badge_src": null,
        "entry": 5464110,
        "entry_name": "\u0160e\u0161ko meal deal",
        "event_total": 63,
        "has_played": true,
        "id": 42525363,
        "last_rank": 31125,
        "player_name": "Liam Gillan",
        "rank": 29496,
        "rank_sort": 29543,
        "total": 2369
      },
      {
        "club_badge_src": null,
        "entry": 5819629,
        "entry_name": "Micro peen FC",
        "event_total": 68,
        "has_played": true,
        "id": 45669076,
        "last_rank": 41824,
        "player_name": "Jack mance",
        "rank": 29496,
        "rank_sort": 29544,
        "total": 2369
      },
      {
        "club_badge_src": null,
        "entry": 5835369,
        "entry_name": "Gary K Hole",
        "event_total": 66,
        "has_played": true,
        "id": 45803834,
        "last_rank": 34578,
        "player_name": "Ross Hackett",
        "rank": 29496,
        "rank_sort": 29545,
        "total": 2369
      },
      {
        "club_badge_src": "https://fantasy.premierleague.com/gcs/plfpl-production-adobe-approved/plfpl-production/5980969/94e0ed6a-11ac-4c6b-9065-d0e9e3a5b69b.png",
        "entry": 5980969,
        "entry_name": "Come As You Arteta",
        "event_total": 73,
        "has_played": true,
        "id": 47095130,
        "last_rank": 48898,
        "player_name": "James Herincx",
        "rank": 29496,
        "rank_sort": 29546,
        "total": 2369
      },
      {
        "club_badge_src": "https://fantasy.premierleague.com/gcs/plfpl-production-adobe-approved/plfpl-production/5988320/0526a45b-a86b-4b11-8a17-6b3dcd1e6a82.png",
        "entry": 5988320,
        "entry_name": "Chorleyboyz",
        "event_total": 53,
        "has_played": true,
        "id": 47177226,
        "last_rank": 25564,
        "player_name": "Steven Marsh",
        "rank": 29496,
        "rank_sort": 29547,
        "total": 2369
      },
      {
        "club_badge_src": null,
        "entry": 6335404,
        "entry_name": "Palmer violets",
        "event_total": 68,
        "has_played": true,
        "id": 50352459,
        "last_rank": 41967,
        "player_name": "Shane Freeth",
        "rank": 29496,
        "rank_sort": 29548,
        "total": 2369
      },
      {
        "club_badge_src": "https://fantasy.premierleague.com/gcs/plfpl-production-adobe-approved/plfpl-production/6726317/5ba29ef6-495c-4db7-8983-3400a3abe137.png",
        "entry": 6726317,
        "entry_name": "Mo Salah Mo Party",
        "event_total": 60,
        "has_played": true,
        "id": 53835145,
        "last_rank": 28150,
        "player_name": "Adam Dugdale",
        "rank": 29496,
        "rank_sort": 29549,
        "total": 2369
      },
      {
        "club_badge_src": null,
        "entry": 6848635,
        "entry_name": "HugoEkiTeacake",
        "event_total": 53,
        "has_played": true,
        "id": 54867612,
        "last_rank": 25517,
        "player_name": "Ashton Griffiths",
        "rank": 29496,
        "rank_sort": 29550,
        "total": 2369
      }
    ]
  }
}