{
  "last_updated_data": "2026-05-24T23:28:17Z",
  "league": {
    "admin_entry": null,
    "closed": false,
    "code_privacy": "p",
    "created": "2025-07-20T23:14:33.933835Z",
    "cup_league": 2815434,
    "has_cup": true,
    "id": 314,
    "league_type": "s",
    "max_entries": null,
    "name": "Overall",
    "rank": null,
    "scoring": "c",
    "start_event": 1
  },
  "new_entries": {
    "has_next": false,
    "page": 1,
    "results": []
  },
  "standings": {
    "has_next": true,
    "page": 1135,
    "results": [
      {
        "club_badge_src": null,
        "entry": 3372264,
        "entry_name": "W12 Hoops",
        "event_total": 74,
        "has_played": true,
        "id": 25026757,
        "last_rank": 92126,
        "player_name": "Eogain O'Sullivan",
        "rank": 56641,
        "rank_sort": 56701,
        "total": 2348
      },
      {
        "club_badge_src": null,
        "entry": 3491116,
        "entry_name": "Eart, Wind and Magui",
        "event_total": 56,
        "has_played": true,
        "id": 25963394,
        "last_rank": 55659,
        "player_name": "Arthur Risk\u00e9",
        "rank": 56641,
        "rank_sort": 56702,
        "total": 2348
      },
      {
        "club_badge_src": null,
        "entry": 3534820,
        "entry_name": "Les Bleus",
        "event_total": 67,
        "has_played": true,
        "id": 26309943,
        "last_rank": 76128,
        "player_name": "Paa Kwasi Appiagyei-Asiamah",
        "rank": 56641,
        "rank_sort": 56703,
        "total": 2348
      },
      {
        "club_badge_src": null,
        "entry": 3689459,
        "entry_name": "Football is liiiiife",
        "event_total": 53,
        "has_played": true,
        "id": 27523561,
        "last_rank": 50772,
        "player_name": "Ben Whyman",
        "rank": 56641,
        "rank_sort": 56704,
        "total": 2348
      },
      {
        "club_badge_src": null,
        "entry": 3698284,
        "entry_name": "Backstreet Moyes",
        "event_total": 56,
        "has_played": true,
        "id": 27592715,
        "last_rank": 55747,
        "player_name": "Connor Simpson",
        "rank": 56641,
        "rank_sort": 56705,
        "total": 2348
      },
      {
        "club_badge_src": null,
        "entry": 3808522,
        "entry_name": "MOT",
        "event_total": 52,
        "has_played": true,
        "id": 28475565,
        "last_rank": 49207,
        "player_name": "Marc Harkness",
        "rank": 56641,
        "rank_sort": 56706,
        "total": 2348
      },
      {
        "club_badge_src": "https://fantasy.premierleague.com/gcs/plfpl-production-adobe-approved/plfpl-production/3831825/745cf207-6449-4486-81f3-41ffb00f2893.png",
        "entry": 3831825,
        "entry_name": "Roch Ramblers",
        "event_total": 48,
        "has_played": true,
        "id": 28664857,
        "last_rank": 43444,
        "player_name": "Bobby Owen",
        "rank": 56641,
        "rank_sort": 56707,
        "total": 2348
      },
      {
        "club_badge_src": "https://fantasy.premierleague.com/gcs/plfpl-production-adobe-approved/plfpl-production/3942047/1f7d082f-ae01-46a6-b75a-5dbe3378e473.png",
        "entry": 3942047,
        "entry_name": "The Yardstick Yiend",
        "event_total": 57,
        "has_played": true,
        "id": 29653888,
        "last_rank": 57200,
        "player_name": "Nick Yiend",
        "rank": 56641,
        "rank_sort": 56708,
        "total": 2348
      },
      {
        "club_badge_src": null,
        "entry": 3997932,
        "entry_name": "LF -_-",
        "event_total": 52,
        "has_played": true,
        "id": 30109382,
        "last_rank": 43342,
        "player_name": "Luka Frankl",
        "rank": 56641,
        "rank_sort": 56709,
        "total": 2348
      },
      {
        "club_badge_src": null,
        "entry": 4109260,
        "entry_name": "A Whole Slot Wirtz",
        "event_total": 61,
        "has_played": true,
        "id": 31033360,
        "last_rank": 57200,
        "player_name": "Jack Howard",
        "rank": 56641,
        "rank_sort": 56710,
        "total": 2348
      },
      {
        "club_badge_src": null,
        "entry": 4385052,
        "entry_name": "RUDKIN OUT!",
        "event_total": 68,
        "has_played": true,
        "id": 33330532,
        "last_rank": 78575,
        "player_name": "Ian Evans",
        "rank": 56641,
        "rank_sort": 56711,
        "total": 2348
      },
      {
        "club_badge_src": null,
        "entry": 4443411,
        "entry_name": "Aint No Sonshine",
        "event_total": 59,
        "has_played": true,
        "id": 33837443,
        "last_rank": 60671,
        "player_name": "Erik Salmi",
        "rank": 56641,
        "rank_sort": 56712,
        "total": 2348
      },
      {
        "club_badge_src": null,
        "entry": 4461265,
        "entry_name": "Union Bunlin",
        "event_total": 57,
        "has_played": true,
        "id": 33988786,
        "last_rank": 57358,
        "player_name": "Ultan McGettigan",
        "rank": 56641,
        "rank_sort": 56713,
        "total": 2348
      },
      {
        "club_badge_src": "https://fantasy.premierleague.com/gcs/plfpl-production-adobe-approved/plfpl-production/4499794/a86012b6-d3fb-4a26-877e-b380f6899be5.png",
        "entry": 4499794,
        "entry_name": "Nayef",
        "event_total": 65,
        "has_played": true,
        "id": 34304623,
        "last_rank": 64005,
        "player_name": "Nayef mandi",
        "rank": 56641,
        "rank_sort": 56714,
        "total": 2348
      },
      {
        "club_badge_src": null,
        "entry": 4634176,
        "entry_name": "Champ",
        "event_total": 57,
        "has_played": true,
        "id": 35436844,
        "last_rank": 57200,
        "player_name": "Patryk Tomczak",
        "rank": 56641,
        "rank_sort": 56715,
        "total": 2348
      },
      {
        "club_badge_src": null,
        "entry": 4638881,
        "entry_name": "Jadey Cakes Fc",
        "event_total": 53,
        "has_played": true,
        "id": 35476814,
        "last_rank": 44672,
        "player_name": "Jade Brockwell",
        "rank": 56641,
        "rank_sort": 56716,
        "total": 2348
      },
      {
        "club_badge_src": null,
        "entry": 4643589,
        "entry_name": "bobloblaw",
        "event_total": 60,
        "has_played": true,
        "id": 35519550,
        "last_rank": 62617,
        "player_name": "Robert Neves",
        "rank": 56641,
        "rank_sort": 56717,
        "total": 2348
      },
      {
        "club_badge_src": null,
        "entry": 4722806,
        "entry_name": "Mark my Wirtz",
        "event_total": 59,
        "has_played": true,
        "id": 36291194,
        "last_rank": 60671,
        "player_name": "Chris Hearn",
        "rank": 56641,
        "rank_sort": 56718,
        "total": 2348
      },
      {
        "club_badge_src": null,
        "entry": 4894398,
        "entry_name": "Wirtz Case Scenario",
        "event_total": 65,
        "has_played": true,
        "id": 37737916,
        "last_rank": 64190,
        "player_name": "Eoin Mac Donnacha",
        "rank": 56641,
        "rank_sort": 56719,
        "total": 2348
      },
      {
        "club_badge_src": null,
        "entry": 5003358,
        "entry_name": "Joshspur",
        "event_total": 42,
        "has_played": true,
        "id": 38634360,
        "last_rank": 35867,
        "player_name": "Joshua Farrell",
        "rank": 56641,
        "rank_sort": 56720,
        "total": 2348
      },
      {
        "club_badge_src": null,
        "entry": 5060864,
        "entry_name": "Glazed and Confused",
        "event_total": 54,
        "has_played": true,
        "id": 39106844,
        "last_rank": 52357,
        "player_name": "Luke Forde",
        "rank": 56641,
        "rank_sort": 56721,
        "total": 2348
      },
      {
        "club_badge_src": null,
        "entry": 5097507,
        "entry_name": "Kragg's Mags",
        "event_total": 69,
        "has_played": true,
        "id": 39399975,
        "last_rank": 80651,
        "player_name": "Craig Brentnall",
        "rank": 56641,
        "rank_sort": 56722,
        "total": 2348
      },
      {
        "club_badge_src": null,
        "entry": 5127399,
        "entry_name": "Abdelhak bou",
        "event_total": 75,
        "has_played": true,
        "id": 39652217,
        "last_rank": 94778,
        "player_name": "Jijel18 Boulahia",
        "rank": 56641,
        "rank_sort": 56723,
        "total": 2348
      },
      {
        "club_badge_src": null,
        "entry": 5130586,
        "entry_name": "K.FC",
        "event_total": 59,
        "has_played": true,
        "id": 39680249,
        "last_rank": 53837,
        "player_name": "Khalid Alrefaie",
        "rank": 56641,
        "rank_sort": 56724,
        "total": 2348
      },
      {
        "club_badge_src": null,
        "entry": 5165216,
        "entry_name": "Dismasquerade",
        "event_total": 53,
        "has_played": true,
        "id": 39972743,
        "last_rank": 44672,
        "player_name": "Weka Mawe",
        "rank": 56641,
        "rank_sort": 56725,
        "total": 2348
      },
      {
        "club_badge_src": null,
        "entry": 5218128,
        "entry_name": "leo",
        "event_total": 72,
        "has_played": true,
        "id": 40428560,
        "last_rank": 87541,
        "player_name": "\u0639\u0644\u064a \u0627\u0644\u0639\u0628\u0648\u062f\u064a",
        "rank": 56641,
        "rank_sort": 56726,
        "total": 2348
      },
      {
        "club_badge_src": null,
        "entry": 5291579,
        "entry_name": "Ginchev",
        "event_total": 46,
        "has_played": true,
        "id": 41016962,
        "last_rank": 40832,
        "player_name": "Ivan Ginchev",
        "rank": 56641,
        "rank_sort": 56727,
        "total": 2348
      },
      {
        "club_badge_src": "https://fantasy.premierleague.com/gcs/plfpl-production-adobe-approved/plfpl-production/5299843/351043f3-a0fd-464e-9881-9651c706f20a.png",
        "entry": 5299843,
        "entry_name": "FCShugi2025",
        "event_total": 52,
        "has_played": true,
        "id": 41081741,
        "last_rank": 49207,
        "player_name": "Shuugii B",
        "rank": 56641,
        "rank_sort": 56728,
        "total": 2348
      },
      {
        "club_badge_src": null,
        "entry": 5316378,
        "entry_name": "Brunited",
        "event_total": 65,
        "has_played": true,
        "id": 41211697,
        "last_rank": 64005,
        "player_name": "Tadhg Telfer",
        "rank": 56641,
        "rank_sort": 56729,
        "total": 2348
      },
      {
        "club_badge_src": null,
        "entry": 5748735,
        "entry_name": "Wirtz name ever",
        "event_total": 51,
        "has_played": true,
        "id": 45055471,
        "last_rank": 47722,
        "player_name": "Alok Sagar",
        "rank": 56641,
        "rank_sort": 56730,
        "total": 2348
      },
      {
        "club_badge_src": null,
        "entry": 5887881,
        "entry_name": "Wexford Hammers",
        "event_total": 74,
        "has_played": true,
        "id": 46251648,
        "last_rank": 82664,
        "player_name": "Martin Kehoe",
        "rank": 56641,
        "rank_sort": 56731,
        "total": 2348
      },
      {
        "club_badge_src": null,
        "entry": 5891884,
        "entry_name": "Pepelmudo",
        "event_total": 60,
        "has_played": true,
        "id": 46284110,
        "last_rank": 55514,
        "player_name": "Renzo Baronio",
        "rank": 56641,
        "rank_sort": 56732,
        "total": 2348
      },
      {
        "club_badge_src": "https://fantasy.premierleague.com/gcs/plfpl-production-adobe-approved/plfpl-production/5896212/e23de351-6e90-4823-baa1-221738237094.png",
        "entry": 5896212,
        "entry_name": "Toilets",
        "event_total": 51,
        "has_played": true,
        "id": 46321586,
        "last_rank": 47722,
        "player_name": "Alessandro Di-Girolamo",
        "rank": 56641,
        "rank_sort": 56733,
        "total": 2348
      },
      {
        "club_badge_src": null,
        "entry": 6016312,
        "entry_name": "Snakes on a pitch",
        "event_total": 73,
        "has_played": true,
        "id": 47442805,
        "last_rank": 89897,
        "player_name": "Martin Erichsen",
        "rank": 56641,
        "rank_sort": 56734,
        "total": 2348
      },
      {
        "club_badge_src": null,
        "entry": 6016394,
        "entry_name": "Phamous Fc",
        "event_total": 66,
        "has_played": true,
        "id": 47443500,
        "last_rank": 66057,
        "player_name": "Samuel Abrokwa",
        "rank": 56641,
        "rank_sort": 56735,
        "total": 2348
      },
      {
        "club_badge_src": null,
        "entry": 6172472,
        "entry_name": "Four Four Three",
        "event_total": 60,
        "has_played": true,
        "id": 48807539,
        "last_rank": 62617,
        "player_name": "Diarmuid Kennedy",
        "rank": 56641,
        "rank_sort": 56736,
        "total": 2348
      },
      {
        "club_badge_src": null,
        "entry": 6280563,
        "entry_name": "Gertzy Footballs",
        "event_total": 62,
        "has_played": true,
        "id": 49741343,
        "last_rank": 66200,
        "player_name": "Jordan Gertzman",
        "rank": 56641,
        "rank_sort": 56737,
        "total": 2348
      },
      {
        "club_badge_src": null,
        "entry": 6977399,
        "entry_name": "Change Name",
        "event_total": 32,
        "has_played": true,
        "id": 55988354,
        "last_rank": 25517,
        "player_name": "Josh Palmer",
        "rank": 56641,
        "rank_sort": 56738,
        "total": 2348
      },
      {
        "club_badge_src": null,
        "entry": 7014782,
        "entry_name": "Ahmed Saaid",
        "event_total": 50,
        "has_played": true,
        "id": 56339306,
        "last_rank": 46313,
        "player_name": "ahmeds saad",
        "rank": 56641,
        "rank_sort": 56739,
        "total": 2348
      },
      {
        "club_badge_src": "https://fantasy.premierleague.com/gcs/plfpl-production-adobe-approved/plfpl-production/7037521/b051e5ad-7c18-4bb8-a0c1-b0bdfe48e766.png",
        "entry": 7037521,
        "entry_name": "Zirkzee ya later",
        "event_total": 62,
        "has_played": true,
        "id": 56572520,
        "last_rank": 66057,
        "player_name": "Ben Parker",
        "rank": 56641,
        "rank_sort": 56740,
        "total": 2348
      },
      {
        "club_badge_src": null,
        "entry": 7073738,
        "entry_name": "Mohamed jasm koya",
        "event_total": 62,
        "has_played": true,
        "id": 56924726,
        "last_rank": 66200,
        "player_name": "Muhamad Jassim",
        "rank": 56641,
        "rank_sort": 56741,
        "total": 2348
      },
      {
        "club_badge_src": null,
        "entry": 7124785,
        "entry_name": "ChampagneSuperNO-VAR",
        "event_total": 56,
        "has_played": true,
        "id": 57411156,
        "last_rank": 55747,
        "player_name": "Fabian Rigby",
        "rank": 56641,
        "rank_sort": 56742,
        "total": 2348
      },
      {
        "club_badge_src": null,
        "entry": 7585109,
        "entry_name": "Mirko Hrnjaz NS",
        "event_total": 65,
        "has_played": true,
        "id": 62129542,
        "last_rank": 64005,
        "player_name": "10.07. 1990.",
        "rank": 56641,
        "rank_sort": 56743,
        "total": 2348
      },
      {
        "club_badge_src": null,
        "entry": 7791165,
        "entry_name": "Burger Buns",
        "event_total": 56,
        "has_played": true,
        "id": 63993977,
        "last_rank": 55514,
        "player_name": "Nemanja Samardzic",
        "rank": 56641,
        "rank_sort": 56744,
        "total": 2348
      },
      {
        "club_badge_src": null,
        "entry": 7900935,
        "entry_name": "Team name",
        "event_total": 65,
        "has_played": true,
        "id": 64996445,
        "last_rank": 71956,
        "player_name": "Colm O Shea",
        "rank": 56641,
        "rank_sort": 56745,
        "total": 2348
      },
      {
        "club_badge_src": null,
        "entry": 8990304,
        "entry_name": "Wernerm Hogg",
        "event_total": 74,
        "has_played": true,
        "id": 75388201,
        "last_rank": 92332,
        "player_name": "Damon Kerry",
        "rank": 56641,
        "rank_sort": 56746,
        "total": 2348
      },
      {
        "club_badge_src": null,
        "entry": 9113476,
        "entry_name": "Try Again",
        "event_total": 56,
        "has_played": true,
        "id": 76583649,
        "last_rank": 49078,
        "player_name": "Try again",
        "rank": 56641,
        "rank_sort": 56747,
        "total": 2348
      },
      {
        "club_badge_src": null,
        "entry": 3888,
        "entry_name": "Hep",
        "event_total": 83,
        "has_played": true,
        "id": 22050,
        "last_rank": 104941,
        "player_name": "Saku P\u00f6rsti",
        "rank": 56748,
        "rank_sort": 56748,
        "total": 2348
      },
      {
        "club_badge_src": "https://fantasy.premierleague.com/gcs/plfpl-production-adobe-approved/plfpl-production/19805/42c58260-3b95-4b2c-ad3e-1fa93bf6119b.png",
        "entry": 19805,
        "entry_name": "Volleyduck FC",
        "event_total": 64,
        "has_played": true,
        "id": 123246,
        "last_rank": 62223,
        "player_name": "Tom Dellas",
        "rank": 56748,
        "rank_sort": 56749,
        "total": 2348
      },
      {
        "club_badge_src": null,
        "entry": 24120,
        "entry_name": "Agbadou\u2019s Army",
        "event_total": 55,
        "has_played": true,
        "id": 152175,
        "last_rank": 53952,
        "player_name": "Harry Turner",
        "rank": 56748,
        "rank_sort": 56750,
        "total": 2348
      }
    ]
  }
}