{
  "last_updated_data": "2026-05-24T23:28:17Z",
  "league": {
    "admin_entry": null,
    "closed": false,
    "code_privacy": "p",
    "created": "2025-07-20T23:14:33.933835Z",
    "cup_league": 2815434,
    "has_cup": true,
    "id": 314,
    "league_type": "s",
    "max_entries": null,
    "name": "Overall",
    "rank": null,
    "scoring": "c",
    "start_event": 1
  },
  "new_entries": {
    "has_next": false,
    "page": 1,
    "results": []
  },
  "standings": {
    "has_next": true,
    "page": 553,
    "results": [
      {
        "club_badge_src": null,
        "entry": 2032978,
        "entry_name": "Chido obi one kenobi",
        "event_total": 51,
        "has_played": true,
        "id": 14393556,
        "last_rank": 19103,
        "player_name": "Thomas Groenhilder",
        "rank": 27543,
        "rank_sort": 27601,
        "total": 2371
      },
      {
        "club_badge_src": "https://fantasy.premierleague.com/gcs/plfpl-production-adobe-approved/plfpl-production/2091970/386bc8f1-353e-4bd4-8edc-ec5f9b76460b.png",
        "entry": 2091970,
        "entry_name": "\u0627\u0644\u0647\u0644\u0627\u0644 \u0627\u0644\u0645\u0644\u0643\u064a",
        "event_total": 52,
        "has_played": true,
        "id": 14842438,
        "last_rank": 16729,
        "player_name": "matar M",
        "rank": 27543,
        "rank_sort": 27602,
        "total": 2371
      },
      {
        "club_badge_src": "https://fantasy.premierleague.com/gcs/plfpl-production-adobe-approved/plfpl-production/2308434/f7fcbdc1-e0f2-4f37-870e-d2257e97a694.png",
        "entry": 2308434,
        "entry_name": "The Palmer Express",
        "event_total": 52,
        "has_played": true,
        "id": 16465919,
        "last_rank": 22921,
        "player_name": "Kjarval thor",
        "rank": 27543,
        "rank_sort": 27603,
        "total": 2371
      },
      {
        "club_badge_src": null,
        "entry": 2489182,
        "entry_name": "Livin Saliba Loca",
        "event_total": 66,
        "has_played": true,
        "id": 17819658,
        "last_rank": 36963,
        "player_name": "Jaedon Paterson",
        "rank": 27543,
        "rank_sort": 27604,
        "total": 2371
      },
      {
        "club_badge_src": "https://fantasy.premierleague.com/gcs/plfpl-production-adobe-approved/plfpl-production/2598342/e9b4f2f4-fb96-47ef-a7d7-9a04337917fb.png",
        "entry": 2598342,
        "entry_name": "SHAKIL",
        "event_total": 59,
        "has_played": true,
        "id": 18660341,
        "last_rank": 29071,
        "player_name": "Aukloo Shakil",
        "rank": 27543,
        "rank_sort": 27605,
        "total": 2371
      },
      {
        "club_badge_src": null,
        "entry": 2829635,
        "entry_name": "connor",
        "event_total": 65,
        "has_played": true,
        "id": 20676451,
        "last_rank": 35768,
        "player_name": "Connor Hanson",
        "rank": 27543,
        "rank_sort": 27606,
        "total": 2371
      },
      {
        "club_badge_src": null,
        "entry": 2862338,
        "entry_name": "Donparo",
        "event_total": 67,
        "has_played": true,
        "id": 20932506,
        "last_rank": 33147,
        "player_name": "Samson Olowe",
        "rank": 27543,
        "rank_sort": 27607,
        "total": 2371
      },
      {
        "club_badge_src": null,
        "entry": 3074653,
        "entry_name": "ThomasTheFrankEngine",
        "event_total": 61,
        "has_played": true,
        "id": 22642844,
        "last_rank": 27020,
        "player_name": "Jordan Walsh",
        "rank": 27543,
        "rank_sort": 27608,
        "total": 2371
      },
      {
        "club_badge_src": "https://fantasy.premierleague.com/gcs/plfpl-production-adobe-approved/plfpl-production/3142851/b317bd1d-3a8a-4693-b9b7-82ef56e1e4e3.png",
        "entry": 3142851,
        "entry_name": "Mujov Lakat",
        "event_total": 66,
        "has_played": true,
        "id": 23203531,
        "last_rank": 36831,
        "player_name": "Du\u0161an Mad\u017earevi\u0107",
        "rank": 27543,
        "rank_sort": 27609,
        "total": 2371
      },
      {
        "club_badge_src": "https://fantasy.premierleague.com/gcs/plfpl-production-adobe-approved/plfpl-production/3194324/b40eb529-9d87-4d33-8f0b-902af1cb3681.png",
        "entry": 3194324,
        "entry_name": "OlyBoostZero",
        "event_total": 38,
        "has_played": true,
        "id": 23610047,
        "last_rank": 13601,
        "player_name": "Mateo \u0106osi\u0107",
        "rank": 27543,
        "rank_sort": 27610,
        "total": 2371
      },
      {
        "club_badge_src": null,
        "entry": 3360744,
        "entry_name": "Dan",
        "event_total": 51,
        "has_played": true,
        "id": 24936316,
        "last_rank": 22154,
        "player_name": "Daniel Lam",
        "rank": 27543,
        "rank_sort": 27611,
        "total": 2371
      },
      {
        "club_badge_src": null,
        "entry": 3619892,
        "entry_name": "Fc Havigh",
        "event_total": 78,
        "has_played": true,
        "id": 26969456,
        "last_rank": 53952,
        "player_name": "Milad Mahdinia",
        "rank": 27543,
        "rank_sort": 27612,
        "total": 2371
      },
      {
        "club_badge_src": null,
        "entry": 3696817,
        "entry_name": "DEADLINE FC",
        "event_total": 75,
        "has_played": true,
        "id": 27580677,
        "last_rank": 49078,
        "player_name": "Sham MOon",
        "rank": 27543,
        "rank_sort": 27613,
        "total": 2371
      },
      {
        "club_badge_src": null,
        "entry": 3811152,
        "entry_name": "Tevez Ate My Pedalo",
        "event_total": 65,
        "has_played": true,
        "id": 28497323,
        "last_rank": 35619,
        "player_name": "Geoff King",
        "rank": 27543,
        "rank_sort": 27614,
        "total": 2371
      },
      {
        "club_badge_src": null,
        "entry": 3879764,
        "entry_name": "Pointsfest Utd",
        "event_total": 68,
        "has_played": true,
        "id": 29151342,
        "last_rank": 34458,
        "player_name": "Steve Head",
        "rank": 27543,
        "rank_sort": 27615,
        "total": 2371
      },
      {
        "club_badge_src": null,
        "entry": 4001146,
        "entry_name": "Ytre Nes FC",
        "event_total": 68,
        "has_played": true,
        "id": 30136337,
        "last_rank": 39403,
        "player_name": "Stian Nedresk\u00e5r",
        "rank": 27543,
        "rank_sort": 27616,
        "total": 2371
      },
      {
        "club_badge_src": null,
        "entry": 4256983,
        "entry_name": "Made1eine Milan",
        "event_total": 59,
        "has_played": true,
        "id": 32273863,
        "last_rank": 29199,
        "player_name": "Daniel Osborn",
        "rank": 27543,
        "rank_sort": 27617,
        "total": 2371
      },
      {
        "club_badge_src": null,
        "entry": 4356287,
        "entry_name": "\\Here We Go Again\\",
        "event_total": 64,
        "has_played": true,
        "id": 33083908,
        "last_rank": 34578,
        "player_name": "Olanrewaju Akande",
        "rank": 27543,
        "rank_sort": 27618,
        "total": 2371
      },
      {
        "club_badge_src": null,
        "entry": 4415504,
        "entry_name": "Backformore",
        "event_total": 56,
        "has_played": true,
        "id": 33591963,
        "last_rank": 26230,
        "player_name": "Tom Tudor",
        "rank": 27543,
        "rank_sort": 27619,
        "total": 2371
      },
      {
        "club_badge_src": null,
        "entry": 4428152,
        "entry_name": "Pickleless Flax Bun",
        "event_total": 61,
        "has_played": true,
        "id": 33706023,
        "last_rank": 31125,
        "player_name": "Harry Knox",
        "rank": 27543,
        "rank_sort": 27620,
        "total": 2371
      },
      {
        "club_badge_src": "https://fantasy.premierleague.com/gcs/plfpl-production-adobe-approved/plfpl-production/4505579/0ac49068-9332-42bf-93ba-d6ed6742bd05.png",
        "entry": 4505579,
        "entry_name": "sweetermen 11",
        "event_total": 63,
        "has_played": true,
        "id": 34352048,
        "last_rank": 28906,
        "player_name": "Raphael D",
        "rank": 27543,
        "rank_sort": 27621,
        "total": 2371
      },
      {
        "club_badge_src": null,
        "entry": 4635867,
        "entry_name": "Yellow Rovers",
        "event_total": 66,
        "has_played": true,
        "id": 35451174,
        "last_rank": 37058,
        "player_name": "Justin Latham",
        "rank": 27543,
        "rank_sort": 27622,
        "total": 2371
      },
      {
        "club_badge_src": "https://fantasy.premierleague.com/gcs/plfpl-production-adobe-approved/plfpl-production/4793051/b9b87605-4d5f-428d-a0c9-2190256b54cf.png",
        "entry": 4793051,
        "entry_name": "The Grumbling Blokes",
        "event_total": 42,
        "has_played": true,
        "id": 36900739,
        "last_rank": 15797,
        "player_name": "Clive Hunn",
        "rank": 27543,
        "rank_sort": 27623,
        "total": 2371
      },
      {
        "club_badge_src": null,
        "entry": 4837204,
        "entry_name": "KerKez",
        "event_total": 59,
        "has_played": true,
        "id": 37260334,
        "last_rank": 29199,
        "player_name": "Chris Llewellyn",
        "rank": 27543,
        "rank_sort": 27624,
        "total": 2371
      },
      {
        "club_badge_src": null,
        "entry": 4872505,
        "entry_name": "In Levi We Trust",
        "event_total": 47,
        "has_played": true,
        "id": 37557998,
        "last_rank": 19176,
        "player_name": "A Azizi",
        "rank": 27543,
        "rank_sort": 27625,
        "total": 2371
      },
      {
        "club_badge_src": "https://fantasy.premierleague.com/gcs/plfpl-production-adobe-approved/plfpl-production/5036823/a2802fb8-6163-4377-8a40-d7135a587525.png",
        "entry": 5036823,
        "entry_name": "AB Team",
        "event_total": 68,
        "has_played": true,
        "id": 38904639,
        "last_rank": 34458,
        "player_name": "AB Team",
        "rank": 27543,
        "rank_sort": 27626,
        "total": 2371
      },
      {
        "club_badge_src": null,
        "entry": 5060412,
        "entry_name": "Cityzens F.C",
        "event_total": 76,
        "has_played": true,
        "id": 39103122,
        "last_rank": 50635,
        "player_name": "Momen Mohamed",
        "rank": 27543,
        "rank_sort": 27627,
        "total": 2371
      },
      {
        "club_badge_src": null,
        "entry": 5474182,
        "entry_name": "Korkombosh",
        "event_total": 72,
        "has_played": true,
        "id": 42614044,
        "last_rank": 44672,
        "player_name": "ben gatenyo",
        "rank": 27543,
        "rank_sort": 27628,
        "total": 2371
      },
      {
        "club_badge_src": null,
        "entry": 5534732,
        "entry_name": "OC United",
        "event_total": 64,
        "has_played": true,
        "id": 43181425,
        "last_rank": 34458,
        "player_name": "Oche Ameh",
        "rank": 27543,
        "rank_sort": 27629,
        "total": 2371
      },
      {
        "club_badge_src": null,
        "entry": 5619047,
        "entry_name": "gnu, elte, gampe.",
        "event_total": 50,
        "has_played": true,
        "id": 43922597,
        "last_rank": 18377,
        "player_name": "Sander Fuglestveit",
        "rank": 27543,
        "rank_sort": 27630,
        "total": 2371
      },
      {
        "club_badge_src": null,
        "entry": 5628590,
        "entry_name": "\u0628\u0648 \u0627\u0644\u0632\u064a\u0646",
        "event_total": 74,
        "has_played": true,
        "id": 44004707,
        "last_rank": 46839,
        "player_name": "KHALAF AL HARBI",
        "rank": 27543,
        "rank_sort": 27631,
        "total": 2371
      },
      {
        "club_badge_src": null,
        "entry": 5785069,
        "entry_name": "Zainul FC",
        "event_total": 68,
        "has_played": true,
        "id": 45366895,
        "last_rank": 34458,
        "player_name": "Zainul Hafeji",
        "rank": 27543,
        "rank_sort": 27632,
        "total": 2371
      },
      {
        "club_badge_src": "https://fantasy.premierleague.com/gcs/plfpl-production-adobe-approved/plfpl-production/5921561/e605b24e-45b6-4d5d-b0f1-5988ddbc8d0f.png",
        "entry": 5921561,
        "entry_name": "Pe\u00f1arol and Run Dogs",
        "event_total": 42,
        "has_played": true,
        "id": 46543650,
        "last_rank": 13500,
        "player_name": "Felipe Fern\u00e1ndez",
        "rank": 27543,
        "rank_sort": 27633,
        "total": 2371
      },
      {
        "club_badge_src": null,
        "entry": 6137605,
        "entry_name": "Rice Rice babyyy",
        "event_total": 52,
        "has_played": true,
        "id": 48504760,
        "last_rank": 22921,
        "player_name": "Scott Jarrett",
        "rank": 27543,
        "rank_sort": 27634,
        "total": 2371
      },
      {
        "club_badge_src": "https://fantasy.premierleague.com/gcs/plfpl-production-adobe-approved/plfpl-production/6277910/3bb784fb-7a1d-4353-8713-6f7130e7404b.png",
        "entry": 6277910,
        "entry_name": "The Shocking Jocks",
        "event_total": 64,
        "has_played": true,
        "id": 49716822,
        "last_rank": 30060,
        "player_name": "Derrick Lightbody",
        "rank": 27543,
        "rank_sort": 27635,
        "total": 2371
      },
      {
        "club_badge_src": null,
        "entry": 6557460,
        "entry_name": "EkitikeTaka",
        "event_total": 54,
        "has_played": true,
        "id": 52333381,
        "last_rank": 24636,
        "player_name": "Will Morland",
        "rank": 27543,
        "rank_sort": 27636,
        "total": 2371
      },
      {
        "club_badge_src": null,
        "entry": 6589810,
        "entry_name": "Shovel United FC",
        "event_total": 72,
        "has_played": true,
        "id": 52629632,
        "last_rank": 44525,
        "player_name": "seanie shanahan",
        "rank": 27543,
        "rank_sort": 27637,
        "total": 2371
      },
      {
        "club_badge_src": null,
        "entry": 6720021,
        "entry_name": "The Wittz Team",
        "event_total": 65,
        "has_played": true,
        "id": 53781769,
        "last_rank": 35619,
        "player_name": "Finlay Goodman",
        "rank": 27543,
        "rank_sort": 27638,
        "total": 2371
      },
      {
        "club_badge_src": null,
        "entry": 6728467,
        "entry_name": "Nice to Michu",
        "event_total": 65,
        "has_played": true,
        "id": 53853794,
        "last_rank": 30957,
        "player_name": "Arian Modiramani",
        "rank": 27543,
        "rank_sort": 27639,
        "total": 2371
      },
      {
        "club_badge_src": null,
        "entry": 7690166,
        "entry_name": "Singh's Kings 2.0",
        "event_total": 52,
        "has_played": true,
        "id": 63083137,
        "last_rank": 22830,
        "player_name": "Aaron Singh",
        "rank": 27543,
        "rank_sort": 27640,
        "total": 2371
      },
      {
        "club_badge_src": null,
        "entry": 8492312,
        "entry_name": "FjurgilvDijk",
        "event_total": 62,
        "has_played": true,
        "id": 70562243,
        "last_rank": 32335,
        "player_name": "Floris-Jan Schellekens",
        "rank": 27543,
        "rank_sort": 27641,
        "total": 2371
      },
      {
        "club_badge_src": null,
        "entry": 9367700,
        "entry_name": "way too sesko",
        "event_total": 66,
        "has_played": true,
        "id": 79058519,
        "last_rank": 36963,
        "player_name": "dylan bennett",
        "rank": 27543,
        "rank_sort": 27642,
        "total": 2371
      },
      {
        "club_badge_src": null,
        "entry": 268,
        "entry_name": "A Cunha Mateta",
        "event_total": 65,
        "has_played": true,
        "id": 1485,
        "last_rank": 31125,
        "player_name": "Theo Kretzas",
        "rank": 27643,
        "rank_sort": 27643,
        "total": 2371
      },
      {
        "club_badge_src": null,
        "entry": 25963,
        "entry_name": "Rees Rockets",
        "event_total": 48,
        "has_played": true,
        "id": 164168,
        "last_rank": 14604,
        "player_name": "Ryan Gethins",
        "rank": 27643,
        "rank_sort": 27644,
        "total": 2371
      },
      {
        "club_badge_src": null,
        "entry": 41911,
        "entry_name": "Call Me Ruxin",
        "event_total": 66,
        "has_played": true,
        "id": 268549,
        "last_rank": 32335,
        "player_name": "Don Davern",
        "rank": 27643,
        "rank_sort": 27645,
        "total": 2371
      },
      {
        "club_badge_src": null,
        "entry": 44660,
        "entry_name": "Expendables",
        "event_total": 65,
        "has_played": true,
        "id": 286272,
        "last_rank": 35619,
        "player_name": "David Wilson -\ufe0f-\ufe0f",
        "rank": 27643,
        "rank_sort": 27646,
        "total": 2371
      },
      {
        "club_badge_src": null,
        "entry": 44989,
        "entry_name": "2eze",
        "event_total": 63,
        "has_played": true,
        "id": 288498,
        "last_rank": 33483,
        "player_name": "Mads Christensen",
        "rank": 27643,
        "rank_sort": 27647,
        "total": 2371
      },
      {
        "club_badge_src": "https://fantasy.premierleague.com/gcs/plfpl-production-adobe-approved/plfpl-production/46710/88b2f2ef-3720-4131-806a-04c8c7ea93c4.png",
        "entry": 46710,
        "entry_name": "Theeye760",
        "event_total": 50,
        "has_played": true,
        "id": 299429,
        "last_rank": 18475,
        "player_name": "San-ti Eye",
        "rank": 27643,
        "rank_sort": 27648,
        "total": 2371
      },
      {
        "club_badge_src": null,
        "entry": 47901,
        "entry_name": "Red Devil Dandies",
        "event_total": 52,
        "has_played": true,
        "id": 307441,
        "last_rank": 22996,
        "player_name": "Neil Gordon",
        "rank": 27643,
        "rank_sort": 27649,
        "total": 2371
      },
      {
        "club_badge_src": null,
        "entry": 50183,
        "entry_name": "T\u00fdp Ph\u1edd N\u1edd",
        "event_total": 64,
        "has_played": true,
        "id": 322745,
        "last_rank": 30191,
        "player_name": "Nguy\u1ec5n \u0110\u00ecnh Th\u1eafng",
        "rank": 27643,
        "rank_sort": 27650,
        "total": 2371
      }
    ]
  }
}