{
  "last_updated_data": "2026-05-24T23:28:17Z",
  "league": {
    "admin_entry": null,
    "closed": false,
    "code_privacy": "p",
    "created": "2025-07-20T23:14:33.933835Z",
    "cup_league": 2815434,
    "has_cup": true,
    "id": 314,
    "league_type": "s",
    "max_entries": null,
    "name": "Overall",
    "rank": null,
    "scoring": "c",
    "start_event": 1
  },
  "new_entries": {
    "has_next": false,
    "page": 1,
    "results": []
  },
  "standings": {
    "has_next": true,
    "page": 1124,
    "results": [
      {
        "club_badge_src": null,
        "entry": 4081006,
        "entry_name": "SirBinteSeteFC 17'",
        "event_total": 50,
        "has_played": true,
        "id": 30807661,
        "last_rank": 39874,
        "player_name": "Lu\u00eds Pinto de Almeida",
        "rank": 55963,
        "rank_sort": 56151,
        "total": 2348
      },
      {
        "club_badge_src": null,
        "entry": 4090753,
        "entry_name": "Black Magic V",
        "event_total": 62,
        "has_played": true,
        "id": 30885608,
        "last_rank": 65163,
        "player_name": "Nairn Black",
        "rank": 55963,
        "rank_sort": 56152,
        "total": 2348
      },
      {
        "club_badge_src": null,
        "entry": 4099002,
        "entry_name": "Ronan Fc",
        "event_total": 81,
        "has_played": true,
        "id": 30951622,
        "last_rank": 108496,
        "player_name": "Ronan O-Connor",
        "rank": 55963,
        "rank_sort": 56153,
        "total": 2348
      },
      {
        "club_badge_src": null,
        "entry": 4126473,
        "entry_name": "Placepot",
        "event_total": 73,
        "has_played": true,
        "id": 31180431,
        "last_rank": 88594,
        "player_name": "Tommy Hogan",
        "rank": 55963,
        "rank_sort": 56154,
        "total": 2348
      },
      {
        "club_badge_src": null,
        "entry": 4158082,
        "entry_name": "Tickles FC",
        "event_total": 80,
        "has_played": true,
        "id": 31433167,
        "last_rank": 106763,
        "player_name": "Ben Oliver",
        "rank": 55963,
        "rank_sort": 56155,
        "total": 2348
      },
      {
        "club_badge_src": null,
        "entry": 4166205,
        "entry_name": "Di's United",
        "event_total": 74,
        "has_played": true,
        "id": 31505362,
        "last_rank": 91006,
        "player_name": "Diogo Ferreira",
        "rank": 55963,
        "rank_sort": 56156,
        "total": 2348
      },
      {
        "club_badge_src": null,
        "entry": 4176575,
        "entry_name": "Yeezymeister",
        "event_total": 53,
        "has_played": true,
        "id": 31591962,
        "last_rank": 50199,
        "player_name": "Malcolm Masuku",
        "rank": 55963,
        "rank_sort": 56157,
        "total": 2348
      },
      {
        "club_badge_src": null,
        "entry": 4243585,
        "entry_name": "Gyokeres",
        "event_total": 43,
        "has_played": true,
        "id": 32163247,
        "last_rank": 36624,
        "player_name": "Rodrigo Silva",
        "rank": 55963,
        "rank_sort": 56158,
        "total": 2348
      },
      {
        "club_badge_src": null,
        "entry": 4279462,
        "entry_name": "La Lester",
        "event_total": 60,
        "has_played": true,
        "id": 32455497,
        "last_rank": 54667,
        "player_name": "Dalton Lester",
        "rank": 55963,
        "rank_sort": 56159,
        "total": 2348
      },
      {
        "club_badge_src": null,
        "entry": 4307260,
        "entry_name": "Manageris",
        "event_total": 63,
        "has_played": true,
        "id": 32680313,
        "last_rank": 67422,
        "player_name": "Peter Valkovi\u010d",
        "rank": 55963,
        "rank_sort": 56160,
        "total": 2348
      },
      {
        "club_badge_src": null,
        "entry": 4325525,
        "entry_name": "TeeAitchEffSee",
        "event_total": 51,
        "has_played": true,
        "id": 32828984,
        "last_rank": 47417,
        "player_name": "Barry Pilkington",
        "rank": 55963,
        "rank_sort": 56161,
        "total": 2348
      },
      {
        "club_badge_src": null,
        "entry": 4385227,
        "entry_name": "Kinder Mbuemo",
        "event_total": 49,
        "has_played": true,
        "id": 33331972,
        "last_rank": 44303,
        "player_name": "Aaron Fearon",
        "rank": 55963,
        "rank_sort": 56162,
        "total": 2348
      },
      {
        "club_badge_src": null,
        "entry": 4404219,
        "entry_name": "Fear the Wirtz",
        "event_total": 58,
        "has_played": true,
        "id": 33497813,
        "last_rank": 51137,
        "player_name": "Jim Holt",
        "rank": 55963,
        "rank_sort": 56163,
        "total": 2348
      },
      {
        "club_badge_src": null,
        "entry": 4406701,
        "entry_name": "Red Devils",
        "event_total": 44,
        "has_played": true,
        "id": 33518865,
        "last_rank": 32688,
        "player_name": "Henning Botnen Sikveland",
        "rank": 55963,
        "rank_sort": 56164,
        "total": 2348
      },
      {
        "club_badge_src": null,
        "entry": 4590965,
        "entry_name": "Bog Athletic",
        "event_total": 57,
        "has_played": true,
        "id": 35057246,
        "last_rank": 56708,
        "player_name": "Jonathan Boggon",
        "rank": 55963,
        "rank_sort": 56165,
        "total": 2348
      },
      {
        "club_badge_src": null,
        "entry": 4671876,
        "entry_name": "Beto believe it",
        "event_total": 58,
        "has_played": true,
        "id": 35786984,
        "last_rank": 58388,
        "player_name": "Gregory Harrison",
        "rank": 55963,
        "rank_sort": 56166,
        "total": 2348
      },
      {
        "club_badge_src": null,
        "entry": 4739306,
        "entry_name": "Team Layla",
        "event_total": 66,
        "has_played": true,
        "id": 36464804,
        "last_rank": 64943,
        "player_name": "Sean Harrison",
        "rank": 55963,
        "rank_sort": 56167,
        "total": 2348
      },
      {
        "club_badge_src": null,
        "entry": 4743139,
        "entry_name": "DannyGFC",
        "event_total": 57,
        "has_played": true,
        "id": 36495856,
        "last_rank": 49691,
        "player_name": "Daniel Gibbs",
        "rank": 55963,
        "rank_sort": 56168,
        "total": 2348
      },
      {
        "club_badge_src": null,
        "entry": 4764566,
        "entry_name": "NPR-XI",
        "event_total": 61,
        "has_played": true,
        "id": 36669291,
        "last_rank": 63724,
        "player_name": "Nitin Raheja",
        "rank": 55963,
        "rank_sort": 56169,
        "total": 2348
      },
      {
        "club_badge_src": null,
        "entry": 4855734,
        "entry_name": "Final Season?",
        "event_total": 62,
        "has_played": true,
        "id": 37414638,
        "last_rank": 65475,
        "player_name": "Austin Nwadike",
        "rank": 55963,
        "rank_sort": 56170,
        "total": 2348
      },
      {
        "club_badge_src": null,
        "entry": 4883034,
        "entry_name": "Chicken Tikka Mo Sal",
        "event_total": 41,
        "has_played": true,
        "id": 37644488,
        "last_rank": 34293,
        "player_name": "Paul Cauvain",
        "rank": 55963,
        "rank_sort": 56171,
        "total": 2348
      },
      {
        "club_badge_src": null,
        "entry": 4913160,
        "entry_name": "a-more-in the net",
        "event_total": 63,
        "has_played": true,
        "id": 37890125,
        "last_rank": 59813,
        "player_name": "Jo Pestell",
        "rank": 55963,
        "rank_sort": 56172,
        "total": 2348
      },
      {
        "club_badge_src": null,
        "entry": 4975855,
        "entry_name": "HAMMER TIME",
        "event_total": 61,
        "has_played": true,
        "id": 38408767,
        "last_rank": 63724,
        "player_name": "A Al",
        "rank": 55963,
        "rank_sort": 56173,
        "total": 2348
      },
      {
        "club_badge_src": null,
        "entry": 5201227,
        "entry_name": "fc fiasco",
        "event_total": 48,
        "has_played": true,
        "id": 40281471,
        "last_rank": 42940,
        "player_name": "Niels Slosse",
        "rank": 55963,
        "rank_sort": 56174,
        "total": 2348
      },
      {
        "club_badge_src": null,
        "entry": 5208907,
        "entry_name": "Alppilan Herrat",
        "event_total": 44,
        "has_played": true,
        "id": 40345562,
        "last_rank": 37822,
        "player_name": "Ilkka Vuori",
        "rank": 55963,
        "rank_sort": 56175,
        "total": 2348
      },
      {
        "club_badge_src": null,
        "entry": 5220060,
        "entry_name": "kaffe gy\u00f6keres",
        "event_total": 53,
        "has_played": true,
        "id": 40444813,
        "last_rank": 50199,
        "player_name": "Christopher Bengtsson",
        "rank": 55963,
        "rank_sort": 56176,
        "total": 2348
      },
      {
        "club_badge_src": null,
        "entry": 5313832,
        "entry_name": "Asim Alsubhi",
        "event_total": 57,
        "has_played": true,
        "id": 41190448,
        "last_rank": 43849,
        "player_name": "Asim Alsubhi",
        "rank": 55963,
        "rank_sort": 56177,
        "total": 2348
      },
      {
        "club_badge_src": null,
        "entry": 5349762,
        "entry_name": "Gothos' Folly",
        "event_total": 60,
        "has_played": true,
        "id": 41521271,
        "last_rank": 61950,
        "player_name": "King Cantona",
        "rank": 55963,
        "rank_sort": 56178,
        "total": 2348
      },
      {
        "club_badge_src": null,
        "entry": 5354918,
        "entry_name": "rusolini fc",
        "event_total": 67,
        "has_played": true,
        "id": 41578053,
        "last_rank": 75537,
        "player_name": "Juan Manuel Ruiz",
        "rank": 55963,
        "rank_sort": 56179,
        "total": 2348
      },
      {
        "club_badge_src": "https://fantasy.premierleague.com/gcs/plfpl-production-adobe-approved/plfpl-production/5473507/5919395a-ef76-4166-94d3-ca9797b6ffe5.png",
        "entry": 5473507,
        "entry_name": "Campeo\u00f1es",
        "event_total": 65,
        "has_played": true,
        "id": 42608122,
        "last_rank": 63201,
        "player_name": "Arkadiusz Gluszczak",
        "rank": 55963,
        "rank_sort": 56180,
        "total": 2348
      },
      {
        "club_badge_src": null,
        "entry": 5532892,
        "entry_name": "FPL Experts",
        "event_total": 66,
        "has_played": true,
        "id": 43165255,
        "last_rank": 72815,
        "player_name": "Community Team",
        "rank": 55963,
        "rank_sort": 56181,
        "total": 2348
      },
      {
        "club_badge_src": null,
        "entry": 5698255,
        "entry_name": "Account in Arias",
        "event_total": 39,
        "has_played": true,
        "id": 44612918,
        "last_rank": 31995,
        "player_name": "Angus Hunter",
        "rank": 55963,
        "rank_sort": 56182,
        "total": 2348
      },
      {
        "club_badge_src": null,
        "entry": 5761896,
        "entry_name": "Sarr Wars",
        "event_total": 68,
        "has_played": true,
        "id": 45168856,
        "last_rank": 77258,
        "player_name": "Rameez Amod",
        "rank": 55963,
        "rank_sort": 56183,
        "total": 2348
      },
      {
        "club_badge_src": "https://fantasy.premierleague.com/gcs/plfpl-production-adobe-approved/plfpl-production/5898535/7c2549fd-63d3-4f8d-ac06-0299d5b59db6.png",
        "entry": 5898535,
        "entry_name": "Mi0zzz",
        "event_total": 55,
        "has_played": true,
        "id": 46341350,
        "last_rank": 53345,
        "player_name": "Eric Prakash",
        "rank": 55963,
        "rank_sort": 56184,
        "total": 2348
      },
      {
        "club_badge_src": "https://fantasy.premierleague.com/gcs/plfpl-production-adobe-approved/plfpl-production/5925094/e4a52934-2789-4236-a89f-11ff9baaa625.png",
        "entry": 5925094,
        "entry_name": "PREM XI",
        "event_total": 55,
        "has_played": true,
        "id": 46574466,
        "last_rank": 46839,
        "player_name": "Eric kariuki",
        "rank": 55963,
        "rank_sort": 56185,
        "total": 2348
      },
      {
        "club_badge_src": "https://fantasy.premierleague.com/gcs/plfpl-production-adobe-approved/plfpl-production/6028468/31d1bb17-ad7c-4ab5-be04-d4d48c953629.png",
        "entry": 6028468,
        "entry_name": "ColdPlaymakers!",
        "event_total": 63,
        "has_played": true,
        "id": 47551962,
        "last_rank": 67422,
        "player_name": "Sarthak Kakar",
        "rank": 55963,
        "rank_sort": 56186,
        "total": 2348
      },
      {
        "club_badge_src": null,
        "entry": 6037385,
        "entry_name": "Now I'm a Baleba",
        "event_total": 53,
        "has_played": true,
        "id": 47630836,
        "last_rank": 49880,
        "player_name": "Mark Brocklebank",
        "rank": 55963,
        "rank_sort": 56187,
        "total": 2348
      },
      {
        "club_badge_src": null,
        "entry": 6061675,
        "entry_name": "Dzeko & the Bunnymen",
        "event_total": 63,
        "has_played": true,
        "id": 47840646,
        "last_rank": 59813,
        "player_name": "Albie Hardwick",
        "rank": 55963,
        "rank_sort": 56188,
        "total": 2348
      },
      {
        "club_badge_src": null,
        "entry": 6067195,
        "entry_name": "Timo",
        "event_total": 66,
        "has_played": true,
        "id": 47888758,
        "last_rank": 64943,
        "player_name": "Tuli Mozes",
        "rank": 55963,
        "rank_sort": 56189,
        "total": 2348
      },
      {
        "club_badge_src": null,
        "entry": 6077052,
        "entry_name": "Saka Potatoes",
        "event_total": 63,
        "has_played": true,
        "id": 47976356,
        "last_rank": 67422,
        "player_name": "Penny Salman",
        "rank": 55963,
        "rank_sort": 56190,
        "total": 2348
      },
      {
        "club_badge_src": null,
        "entry": 6104822,
        "entry_name": "Saka Spuds",
        "event_total": 49,
        "has_played": true,
        "id": 48218815,
        "last_rank": 44048,
        "player_name": "James Kenny",
        "rank": 55963,
        "rank_sort": 56191,
        "total": 2348
      },
      {
        "club_badge_src": null,
        "entry": 6125622,
        "entry_name": "Son, Udogie Mee",
        "event_total": 48,
        "has_played": true,
        "id": 48399894,
        "last_rank": 42940,
        "player_name": "Ryan Adrian",
        "rank": 55963,
        "rank_sort": 56192,
        "total": 2348
      },
      {
        "club_badge_src": null,
        "entry": 6180610,
        "entry_name": "Pain in the Arias",
        "event_total": 51,
        "has_played": true,
        "id": 48877402,
        "last_rank": 46660,
        "player_name": "Ingram Howson",
        "rank": 55963,
        "rank_sort": 56193,
        "total": 2348
      },
      {
        "club_badge_src": null,
        "entry": 6183430,
        "entry_name": "King",
        "event_total": 66,
        "has_played": true,
        "id": 48901925,
        "last_rank": 64943,
        "player_name": "King Lourenco",
        "rank": 55963,
        "rank_sort": 56194,
        "total": 2348
      },
      {
        "club_badge_src": null,
        "entry": 6219718,
        "entry_name": "Spirit Bird 2.0",
        "event_total": 66,
        "has_played": true,
        "id": 49214242,
        "last_rank": 73038,
        "player_name": "Ankur Tamkoria",
        "rank": 55963,
        "rank_sort": 56195,
        "total": 2348
      },
      {
        "club_badge_src": null,
        "entry": 6424396,
        "entry_name": "Chongqing Lifan",
        "event_total": 69,
        "has_played": true,
        "id": 51136039,
        "last_rank": 79817,
        "player_name": "Ian Ross",
        "rank": 55963,
        "rank_sort": 56196,
        "total": 2348
      },
      {
        "club_badge_src": null,
        "entry": 6444189,
        "entry_name": "Saka Spuds",
        "event_total": 63,
        "has_played": true,
        "id": 51311024,
        "last_rank": 67063,
        "player_name": "Aled Rees",
        "rank": 55963,
        "rank_sort": 56197,
        "total": 2348
      },
      {
        "club_badge_src": null,
        "entry": 6468623,
        "entry_name": "Power Reijnders",
        "event_total": 63,
        "has_played": true,
        "id": 51538133,
        "last_rank": 67422,
        "player_name": "Kieran Edwards",
        "rank": 55963,
        "rank_sort": 56198,
        "total": 2348
      },
      {
        "club_badge_src": null,
        "entry": 6767345,
        "entry_name": "Winner FC",
        "event_total": 51,
        "has_played": true,
        "id": 54185110,
        "last_rank": 46839,
        "player_name": "Robert Scott",
        "rank": 55963,
        "rank_sort": 56199,
        "total": 2348
      },
      {
        "club_badge_src": null,
        "entry": 6770033,
        "entry_name": "RD3",
        "event_total": 50,
        "has_played": true,
        "id": 54207178,
        "last_rank": 45714,
        "player_name": "Rob Dunniece",
        "rank": 55963,
        "rank_sort": 56200,
        "total": 2348
      }
    ]
  }
}