{
  "last_updated_data": "2026-05-24T23:28:17Z",
  "league": {
    "admin_entry": null,
    "closed": false,
    "code_privacy": "p",
    "created": "2025-07-20T23:14:33.933835Z",
    "cup_league": 2815434,
    "has_cup": true,
    "id": 314,
    "league_type": "s",
    "max_entries": null,
    "name": "Overall",
    "rank": null,
    "scoring": "c",
    "start_event": 1
  },
  "new_entries": {
    "has_next": false,
    "page": 1,
    "results": []
  },
  "standings": {
    "has_next": true,
    "page": 992,
    "results": [
      {
        "club_badge_src": null,
        "entry": 1523750,
        "entry_name": "Wonder out West*",
        "event_total": 67,
        "has_played": true,
        "id": 10627595,
        "last_rank": 66848,
        "player_name": "Jonathan van den Berg",
        "rank": 49425,
        "rank_sort": 49551,
        "total": 2352
      },
      {
        "club_badge_src": "https://fantasy.premierleague.com/gcs/plfpl-production-adobe-approved/plfpl-production/1529843/00a01e14-1478-4766-904e-f1efa8907277.png",
        "entry": 1529843,
        "entry_name": "BuENDIa Like Beckham",
        "event_total": 63,
        "has_played": true,
        "id": 10675661,
        "last_rank": 59813,
        "player_name": "Jamie Challoner",
        "rank": 49425,
        "rank_sort": 49552,
        "total": 2352
      },
      {
        "club_badge_src": null,
        "entry": 1562782,
        "entry_name": "Aina the Tiger",
        "event_total": 63,
        "has_played": true,
        "id": 10916170,
        "last_rank": 59813,
        "player_name": "Noah Texter",
        "rank": 49425,
        "rank_sort": 49553,
        "total": 2352
      },
      {
        "club_badge_src": null,
        "entry": 1579166,
        "entry_name": "\u0641\u0631\u064a\u0627 \u0628\u0627\u0628\u0627\u0646 \ufffd",
        "event_total": 54,
        "has_played": true,
        "id": 11034804,
        "last_rank": 45416,
        "player_name": "\u0641\u0640\u0631\u064a\u0640\u0627 \u0645\u0640\u0648\u0644\u0640\u0648\u062f \ud83c\uddee\ud83c\uddf6",
        "rank": 49425,
        "rank_sort": 49554,
        "total": 2352
      },
      {
        "club_badge_src": "https://fantasy.premierleague.com/gcs/plfpl-production-adobe-approved/plfpl-production/1613568/d92342cb-a80f-477a-a218-5ed5e9f856b9.png",
        "entry": 1613568,
        "entry_name": "The Wheeler Dealers",
        "event_total": 49,
        "has_played": true,
        "id": 11290353,
        "last_rank": 38774,
        "player_name": "Jack Pickering",
        "rank": 49425,
        "rank_sort": 49555,
        "total": 2352
      },
      {
        "club_badge_src": null,
        "entry": 1626722,
        "entry_name": "Ozilleo",
        "event_total": 58,
        "has_played": true,
        "id": 11385970,
        "last_rank": 51403,
        "player_name": "Okwu Benard",
        "rank": 49425,
        "rank_sort": 49556,
        "total": 2352
      },
      {
        "club_badge_src": null,
        "entry": 1669585,
        "entry_name": "molham team",
        "event_total": 60,
        "has_played": true,
        "id": 11689464,
        "last_rank": 54494,
        "player_name": "molham breghle",
        "rank": 49425,
        "rank_sort": 49557,
        "total": 2352
      },
      {
        "club_badge_src": null,
        "entry": 1726755,
        "entry_name": "Wirtz a good pun?",
        "event_total": 93,
        "has_played": true,
        "id": 12109234,
        "last_rank": 132427,
        "player_name": "Alex Turpin",
        "rank": 49425,
        "rank_sort": 49558,
        "total": 2352
      },
      {
        "club_badge_src": null,
        "entry": 1786974,
        "entry_name": "Whats Rob Holding",
        "event_total": 61,
        "has_played": true,
        "id": 12555872,
        "last_rank": 49691,
        "player_name": "Simon Barton",
        "rank": 49425,
        "rank_sort": 49559,
        "total": 2352
      },
      {
        "club_badge_src": null,
        "entry": 1789642,
        "entry_name": "Launton Lads",
        "event_total": 62,
        "has_played": true,
        "id": 12575162,
        "last_rank": 58071,
        "player_name": "Brian Mackay",
        "rank": 49425,
        "rank_sort": 49560,
        "total": 2352
      },
      {
        "club_badge_src": null,
        "entry": 1798264,
        "entry_name": "Rosoniri",
        "event_total": 64,
        "has_played": true,
        "id": 12637736,
        "last_rank": 61411,
        "player_name": "Hossam Amer",
        "rank": 49425,
        "rank_sort": 49561,
        "total": 2352
      },
      {
        "club_badge_src": null,
        "entry": 1812670,
        "entry_name": "My bar\u00e7a 11",
        "event_total": 57,
        "has_played": true,
        "id": 12745855,
        "last_rank": 49607,
        "player_name": "Rushit Maheriya",
        "rank": 49425,
        "rank_sort": 49562,
        "total": 2352
      },
      {
        "club_badge_src": null,
        "entry": 1820133,
        "entry_name": "Default XI",
        "event_total": 63,
        "has_played": true,
        "id": 12800272,
        "last_rank": 59813,
        "player_name": "Andrew Delargy",
        "rank": 49425,
        "rank_sort": 49563,
        "total": 2352
      },
      {
        "club_badge_src": null,
        "entry": 1857038,
        "entry_name": "Pedro Poppe FC",
        "event_total": 55,
        "has_played": true,
        "id": 13069042,
        "last_rank": 46839,
        "player_name": "Pedro Poppe",
        "rank": 49425,
        "rank_sort": 49564,
        "total": 2352
      },
      {
        "club_badge_src": null,
        "entry": 1877205,
        "entry_name": "Inglorious Belters",
        "event_total": 68,
        "has_played": true,
        "id": 13220473,
        "last_rank": 68748,
        "player_name": "Matthew Donnachie",
        "rank": 49425,
        "rank_sort": 49565,
        "total": 2352
      },
      {
        "club_badge_src": null,
        "entry": 1903952,
        "entry_name": "lockdown fc",
        "event_total": 59,
        "has_played": true,
        "id": 13422054,
        "last_rank": 53023,
        "player_name": "Nathan Soer",
        "rank": 49425,
        "rank_sort": 49566,
        "total": 2352
      },
      {
        "club_badge_src": null,
        "entry": 1967055,
        "entry_name": "Burbscelona",
        "event_total": 68,
        "has_played": true,
        "id": 13881485,
        "last_rank": 68957,
        "player_name": "Richard Burberry",
        "rank": 49425,
        "rank_sort": 49567,
        "total": 2352
      },
      {
        "club_badge_src": null,
        "entry": 1989997,
        "entry_name": "Anfield Heroes",
        "event_total": 60,
        "has_played": true,
        "id": 14059136,
        "last_rank": 54667,
        "player_name": "Rolf Petter Karlsen",
        "rank": 49425,
        "rank_sort": 49568,
        "total": 2352
      },
      {
        "club_badge_src": null,
        "entry": 1998992,
        "entry_name": "All Of Us MBS",
        "event_total": 43,
        "has_played": true,
        "id": 14127836,
        "last_rank": 31995,
        "player_name": "Abu A9eel",
        "rank": 49425,
        "rank_sort": 49569,
        "total": 2352
      },
      {
        "club_badge_src": "https://fantasy.premierleague.com/gcs/plfpl-production-adobe-approved/plfpl-production/2042720/8e28c706-c80c-421c-854c-1ae6aeca899f.png",
        "entry": 2042720,
        "entry_name": "EBRRMR",
        "event_total": 49,
        "has_played": true,
        "id": 14466224,
        "last_rank": 38774,
        "player_name": "Mootooveeren Darren",
        "rank": 49425,
        "rank_sort": 49570,
        "total": 2352
      },
      {
        "club_badge_src": "https://fantasy.premierleague.com/gcs/plfpl-production-adobe-approved/plfpl-production/2048812/2f09a311-e120-4d0c-a360-4d5891ee6324.png",
        "entry": 2048812,
        "entry_name": "Dunmore Than You",
        "event_total": 47,
        "has_played": true,
        "id": 14511013,
        "last_rank": 36348,
        "player_name": "Conor Dunmore",
        "rank": 49425,
        "rank_sort": 49571,
        "total": 2352
      },
      {
        "club_badge_src": null,
        "entry": 2051955,
        "entry_name": "tbc",
        "event_total": 59,
        "has_played": true,
        "id": 14534515,
        "last_rank": 52853,
        "player_name": "Danielle Barnfield",
        "rank": 49425,
        "rank_sort": 49572,
        "total": 2352
      },
      {
        "club_badge_src": null,
        "entry": 2124516,
        "entry_name": "Puthboom",
        "event_total": 54,
        "has_played": true,
        "id": 15094471,
        "last_rank": 45252,
        "player_name": "Agash Puthi",
        "rank": 49425,
        "rank_sort": 49573,
        "total": 2352
      },
      {
        "club_badge_src": null,
        "entry": 2130800,
        "entry_name": "Ixelles 11",
        "event_total": 55,
        "has_played": true,
        "id": 15141759,
        "last_rank": 46839,
        "player_name": "Paul Davies",
        "rank": 49425,
        "rank_sort": 49574,
        "total": 2352
      },
      {
        "club_badge_src": null,
        "entry": 2209153,
        "entry_name": "Diallo or Nothing",
        "event_total": 63,
        "has_played": true,
        "id": 15731041,
        "last_rank": 59813,
        "player_name": "Shane Ward",
        "rank": 49425,
        "rank_sort": 49575,
        "total": 2352
      },
      {
        "club_badge_src": null,
        "entry": 2215863,
        "entry_name": "Come on United",
        "event_total": 63,
        "has_played": true,
        "id": 15780644,
        "last_rank": 59632,
        "player_name": "Mark Hill",
        "rank": 49425,
        "rank_sort": 49576,
        "total": 2352
      },
      {
        "club_badge_src": null,
        "entry": 2218825,
        "entry_name": "Ousmanne was that?",
        "event_total": 44,
        "has_played": true,
        "id": 15802681,
        "last_rank": 32879,
        "player_name": "Jake Myatt",
        "rank": 49425,
        "rank_sort": 49577,
        "total": 2352
      },
      {
        "club_badge_src": null,
        "entry": 2268523,
        "entry_name": "Tipp2025 champions",
        "event_total": 31,
        "has_played": true,
        "id": 16175505,
        "last_rank": 20983,
        "player_name": "Brendan Ryan",
        "rank": 49425,
        "rank_sort": 49578,
        "total": 2352
      },
      {
        "club_badge_src": "https://fantasy.premierleague.com/gcs/plfpl-production-adobe-approved/plfpl-production/2269259/e37e997f-bae5-4832-9e14-c3ac0d6b0daf.png",
        "entry": 2269259,
        "entry_name": "PASIR TUMBOH FC",
        "event_total": 65,
        "has_played": true,
        "id": 16180833,
        "last_rank": 63201,
        "player_name": "AFIQ AIMAN",
        "rank": 49425,
        "rank_sort": 49579,
        "total": 2352
      },
      {
        "club_badge_src": "https://fantasy.premierleague.com/gcs/plfpl-production-adobe-approved/plfpl-production/2272142/53c399a5-28f5-44d0-bbeb-ddf6bdc47828.png",
        "entry": 2272142,
        "entry_name": "OMMEYGA FC",
        "event_total": 63,
        "has_played": true,
        "id": 16201656,
        "last_rank": 59632,
        "player_name": "AFIQ AIMAN",
        "rank": 49425,
        "rank_sort": 49580,
        "total": 2352
      },
      {
        "club_badge_src": null,
        "entry": 2281722,
        "entry_name": "Red-white hobo",
        "event_total": 59,
        "has_played": true,
        "id": 16271334,
        "last_rank": 52853,
        "player_name": "Dmitry Savitskiy",
        "rank": 49425,
        "rank_sort": 49581,
        "total": 2352
      },
      {
        "club_badge_src": null,
        "entry": 2379913,
        "entry_name": "yoro wissa, harry",
        "event_total": 75,
        "has_played": true,
        "id": 16993709,
        "last_rank": 83698,
        "player_name": "Nicholas Mow",
        "rank": 49425,
        "rank_sort": 49582,
        "total": 2352
      },
      {
        "club_badge_src": null,
        "entry": 2394361,
        "entry_name": "stuz picz",
        "event_total": 83,
        "has_played": true,
        "id": 17104689,
        "last_rank": 103978,
        "player_name": "Stu Hawkless",
        "rank": 49425,
        "rank_sort": 49583,
        "total": 2352
      },
      {
        "club_badge_src": null,
        "entry": 2444204,
        "entry_name": "Game of Throw Ins",
        "event_total": 57,
        "has_played": true,
        "id": 17480888,
        "last_rank": 49880,
        "player_name": "Dom Petrie",
        "rank": 49425,
        "rank_sort": 49584,
        "total": 2352
      },
      {
        "club_badge_src": null,
        "entry": 2550332,
        "entry_name": "11 - Iskra Stolec",
        "event_total": 51,
        "has_played": true,
        "id": 18282773,
        "last_rank": 41324,
        "player_name": "Tomasz Gawro\u0144ski",
        "rank": 49425,
        "rank_sort": 49585,
        "total": 2352
      },
      {
        "club_badge_src": null,
        "entry": 2633468,
        "entry_name": "Kinder Mbuemo",
        "event_total": 47,
        "has_played": true,
        "id": 18926294,
        "last_rank": 36348,
        "player_name": "Freddy Roberts",
        "rank": 49425,
        "rank_sort": 49586,
        "total": 2352
      },
      {
        "club_badge_src": null,
        "entry": 2716892,
        "entry_name": "Atletico de Mt.View",
        "event_total": 69,
        "has_played": true,
        "id": 19548733,
        "last_rank": 70757,
        "player_name": "Nick Edwards",
        "rank": 49425,
        "rank_sort": 49587,
        "total": 2352
      },
      {
        "club_badge_src": null,
        "entry": 2728783,
        "entry_name": "95",
        "event_total": 75,
        "has_played": true,
        "id": 19636765,
        "last_rank": 83498,
        "player_name": "stanley harrhy",
        "rank": 49425,
        "rank_sort": 49588,
        "total": 2352
      },
      {
        "club_badge_src": null,
        "entry": 2745838,
        "entry_name": "Aura Remontada",
        "event_total": 61,
        "has_played": true,
        "id": 19877967,
        "last_rank": 56708,
        "player_name": "Nuno Silva",
        "rank": 49425,
        "rank_sort": 49589,
        "total": 2352
      },
      {
        "club_badge_src": null,
        "entry": 2748617,
        "entry_name": "EAK OSK110",
        "event_total": 62,
        "has_played": true,
        "id": 19939886,
        "last_rank": 58071,
        "player_name": "chaiwat dangsangthong",
        "rank": 49425,
        "rank_sort": 49590,
        "total": 2352
      },
      {
        "club_badge_src": null,
        "entry": 2811529,
        "entry_name": "absolutely Fabregras",
        "event_total": 70,
        "has_played": true,
        "id": 20534936,
        "last_rank": 72815,
        "player_name": "Billy Walker",
        "rank": 49425,
        "rank_sort": 49591,
        "total": 2352
      },
      {
        "club_badge_src": null,
        "entry": 2820264,
        "entry_name": "\u0645\u0648\u0633\u0649\u0670 \u0627\u0644\u0632\u063a\u0646\u063a\u0646",
        "event_total": 81,
        "has_played": true,
        "id": 20603504,
        "last_rank": 98896,
        "player_name": "ABDELLATIF BEN YOUSSEF",
        "rank": 49425,
        "rank_sort": 49592,
        "total": 2352
      },
      {
        "club_badge_src": null,
        "entry": 2924000,
        "entry_name": "\u0625\u062a\u062d\u0627\u062f \u0627\u0644\u0639\u0627\u0635\u0645\u0629",
        "event_total": 77,
        "has_played": true,
        "id": 21435359,
        "last_rank": 88594,
        "player_name": "adjabi faouzi",
        "rank": 49425,
        "rank_sort": 49593,
        "total": 2352
      },
      {
        "club_badge_src": null,
        "entry": 2953551,
        "entry_name": "Kop a feel",
        "event_total": 48,
        "has_played": true,
        "id": 21692588,
        "last_rank": 37435,
        "player_name": "Cam Duncraft",
        "rank": 49425,
        "rank_sort": 49594,
        "total": 2352
      },
      {
        "club_badge_src": null,
        "entry": 2994214,
        "entry_name": "Chad Utd",
        "event_total": 50,
        "has_played": true,
        "id": 22022133,
        "last_rank": 39874,
        "player_name": "Sam Maule",
        "rank": 49425,
        "rank_sort": 49595,
        "total": 2352
      },
      {
        "club_badge_src": null,
        "entry": 3000501,
        "entry_name": "Black and White Army",
        "event_total": 68,
        "has_played": true,
        "id": 22069846,
        "last_rank": 68748,
        "player_name": "Andy Thompson",
        "rank": 49425,
        "rank_sort": 49596,
        "total": 2352
      },
      {
        "club_badge_src": "https://fantasy.premierleague.com/gcs/plfpl-production-adobe-approved/plfpl-production/3008940/47f3dec1-359d-4dd8-9984-5a65fd567cff.png",
        "entry": 3008940,
        "entry_name": "The Gold Standard",
        "event_total": 72,
        "has_played": true,
        "id": 22134694,
        "last_rank": 76947,
        "player_name": "Raphael Awuviri",
        "rank": 49425,
        "rank_sort": 49597,
        "total": 2352
      },
      {
        "club_badge_src": null,
        "entry": 3053888,
        "entry_name": "TBC",
        "event_total": 69,
        "has_played": true,
        "id": 22482773,
        "last_rank": 70651,
        "player_name": "Aj Padmore",
        "rank": 49425,
        "rank_sort": 49598,
        "total": 2352
      },
      {
        "club_badge_src": null,
        "entry": 3096940,
        "entry_name": "Bowser FC",
        "event_total": 34,
        "has_played": true,
        "id": 22825386,
        "last_rank": 23341,
        "player_name": "Kyle Wilson",
        "rank": 49425,
        "rank_sort": 49599,
        "total": 2352
      },
      {
        "club_badge_src": null,
        "entry": 3115802,
        "entry_name": "\u0627\u0644\u0645\u0627\u064a\u0633\u062a\u0631\u0648",
        "event_total": 73,
        "has_played": true,
        "id": 22992775,
        "last_rank": 79817,
        "player_name": "\u0648\u0632\u064a\u0631 \u0627\u0644\u062f\u0641\u0627\u0639",
        "rank": 49425,
        "rank_sort": 49600,
        "total": 2352
      }
    ]
  }
}