{
  "last_updated_data": "2026-05-24T23:28:17Z",
  "league": {
    "admin_entry": null,
    "closed": false,
    "code_privacy": "p",
    "created": "2025-07-20T23:14:33.933835Z",
    "cup_league": 2815434,
    "has_cup": true,
    "id": 314,
    "league_type": "s",
    "max_entries": null,
    "name": "Overall",
    "rank": null,
    "scoring": "c",
    "start_event": 1
  },
  "new_entries": {
    "has_next": false,
    "page": 1,
    "results": []
  },
  "standings": {
    "has_next": true,
    "page": 397,
    "results": [
      {
        "club_badge_src": null,
        "entry": 1844251,
        "entry_name": "Amore",
        "event_total": 48,
        "has_played": true,
        "id": 12975951,
        "last_rank": 13687,
        "player_name": "amore minami",
        "rank": 19800,
        "rank_sort": 19801,
        "total": 2381
      },
      {
        "club_badge_src": null,
        "entry": 1981269,
        "entry_name": "WiefferWillis",
        "event_total": 68,
        "has_played": true,
        "id": 13992632,
        "last_rank": 28493,
        "player_name": "Gary Phillips",
        "rank": 19802,
        "rank_sort": 19802,
        "total": 2381
      },
      {
        "club_badge_src": "https://fantasy.premierleague.com/gcs/plfpl-production-adobe-approved/plfpl-production/1856248/4aba1232-f08b-4357-8314-34c155dafae4.png",
        "entry": 1856248,
        "entry_name": "StarnamaFC",
        "event_total": 53,
        "has_played": true,
        "id": 13063242,
        "last_rank": 14217,
        "player_name": "Amos kihara",
        "rank": 19803,
        "rank_sort": 19803,
        "total": 2381
      },
      {
        "club_badge_src": null,
        "entry": 607802,
        "entry_name": "Wefearnofoe",
        "event_total": 39,
        "has_played": true,
        "id": 4104856,
        "last_rank": 7939,
        "player_name": "Gary Pettengell",
        "rank": 19804,
        "rank_sort": 19804,
        "total": 2381
      },
      {
        "club_badge_src": null,
        "entry": 866541,
        "entry_name": "Aow Dee Deee",
        "event_total": 74,
        "has_played": true,
        "id": 5940606,
        "last_rank": 26599,
        "player_name": "Wichanon Poonsri",
        "rank": 19804,
        "rank_sort": 19805,
        "total": 2381
      },
      {
        "club_badge_src": null,
        "entry": 3681344,
        "entry_name": "AI Xl",
        "event_total": 55,
        "has_played": true,
        "id": 27458783,
        "last_rank": 17945,
        "player_name": "Neil Harrison",
        "rank": 19804,
        "rank_sort": 19806,
        "total": 2381
      },
      {
        "club_badge_src": null,
        "entry": 4171748,
        "entry_name": "Stock Transfers",
        "event_total": 63,
        "has_played": true,
        "id": 31551745,
        "last_rank": 23949,
        "player_name": "Alex Stock",
        "rank": 19804,
        "rank_sort": 19807,
        "total": 2381
      },
      {
        "club_badge_src": null,
        "entry": 2851942,
        "entry_name": "Biru03 FC",
        "event_total": 71,
        "has_played": true,
        "id": 20852599,
        "last_rank": 31498,
        "player_name": "Mohd Helmu",
        "rank": 19808,
        "rank_sort": 19808,
        "total": 2381
      },
      {
        "club_badge_src": null,
        "entry": 5857415,
        "entry_name": "Longness Eleven",
        "event_total": 57,
        "has_played": true,
        "id": 45992250,
        "last_rank": 19351,
        "player_name": "Adam Reeson",
        "rank": 19809,
        "rank_sort": 19809,
        "total": 2381
      },
      {
        "club_badge_src": "https://fantasy.premierleague.com/gcs/plfpl-production-adobe-approved/plfpl-production/2836889/ca3abce5-cec1-4490-ae6a-8b8dc1f522de.png",
        "entry": 2836889,
        "entry_name": "Chicken Rice FC",
        "event_total": 63,
        "has_played": true,
        "id": 20732331,
        "last_rank": 20804,
        "player_name": "Aditya Nambiar",
        "rank": 19810,
        "rank_sort": 19810,
        "total": 2381
      },
      {
        "club_badge_src": null,
        "entry": 6811552,
        "entry_name": "Hat Trickers",
        "event_total": 68,
        "has_played": true,
        "id": 54552236,
        "last_rank": 28501,
        "player_name": "Hunter Stroble",
        "rank": 19811,
        "rank_sort": 19811,
        "total": 2380
      },
      {
        "club_badge_src": null,
        "entry": 6505261,
        "entry_name": "United FC",
        "event_total": 75,
        "has_played": true,
        "id": 51868692,
        "last_rank": 36082,
        "player_name": "Alastair Frier",
        "rank": 19812,
        "rank_sort": 19812,
        "total": 2380
      },
      {
        "club_badge_src": null,
        "entry": 1686211,
        "entry_name": "Better Call Sarr",
        "event_total": 34,
        "has_played": true,
        "id": 11803953,
        "last_rank": 7586,
        "player_name": "Gal Hercek",
        "rank": 19813,
        "rank_sort": 19813,
        "total": 2380
      },
      {
        "club_badge_src": null,
        "entry": 6253507,
        "entry_name": "Sunderwall",
        "event_total": 58,
        "has_played": true,
        "id": 49505017,
        "last_rank": 20104,
        "player_name": "Jonny Dawson",
        "rank": 19813,
        "rank_sort": 19814,
        "total": 2380
      },
      {
        "club_badge_src": null,
        "entry": 4335342,
        "entry_name": "Harney Slots",
        "event_total": 57,
        "has_played": true,
        "id": 32914016,
        "last_rank": 19360,
        "player_name": "Callum Bourne",
        "rank": 19815,
        "rank_sort": 19815,
        "total": 2380
      },
      {
        "club_badge_src": "https://fantasy.premierleague.com/gcs/plfpl-production-adobe-approved/plfpl-production/7348785/fb04c668-107d-4bda-a1b4-aeb7a7cad02b.png",
        "entry": 7348785,
        "entry_name": "Tranquillo",
        "event_total": 54,
        "has_played": true,
        "id": 59534234,
        "last_rank": 17298,
        "player_name": "Emanuel Aiwu",
        "rank": 19815,
        "rank_sort": 19816,
        "total": 2380
      },
      {
        "club_badge_src": null,
        "entry": 2265611,
        "entry_name": "AYER MOLEK FC",
        "event_total": 51,
        "has_played": true,
        "id": 16153775,
        "last_rank": 15387,
        "player_name": "MOHD FAIRUZ AHMAD",
        "rank": 19817,
        "rank_sort": 19817,
        "total": 2380
      },
      {
        "club_badge_src": null,
        "entry": 2372115,
        "entry_name": "Ads Pros XI",
        "event_total": 77,
        "has_played": true,
        "id": 16933854,
        "last_rank": 38528,
        "player_name": "Aditya Sathe",
        "rank": 19817,
        "rank_sort": 19818,
        "total": 2380
      },
      {
        "club_badge_src": null,
        "entry": 5306685,
        "entry_name": "Coleplay",
        "event_total": 54,
        "has_played": true,
        "id": 41135332,
        "last_rank": 17304,
        "player_name": "Isak Nesset",
        "rank": 19817,
        "rank_sort": 19819,
        "total": 2380
      },
      {
        "club_badge_src": null,
        "entry": 7371438,
        "entry_name": "Bazz_inga0",
        "event_total": 43,
        "has_played": true,
        "id": 59747686,
        "last_rank": 11135,
        "player_name": "Ehi Adeseiye",
        "rank": 19817,
        "rank_sort": 19820,
        "total": 2380
      },
      {
        "club_badge_src": null,
        "entry": 2895765,
        "entry_name": "FC Stores Beater",
        "event_total": 59,
        "has_played": true,
        "id": 21217098,
        "last_rank": 20813,
        "player_name": "Matt Noonan",
        "rank": 19821,
        "rank_sort": 19821,
        "total": 2380
      },
      {
        "club_badge_src": null,
        "entry": 8888273,
        "entry_name": "Lektorlaget",
        "event_total": 70,
        "has_played": true,
        "id": 74395017,
        "last_rank": 30503,
        "player_name": "Eivin Kragholm Andersen",
        "rank": 19821,
        "rank_sort": 19822,
        "total": 2380
      },
      {
        "club_badge_src": null,
        "entry": 21552,
        "entry_name": "Wetherall FC",
        "event_total": 62,
        "has_played": true,
        "id": 135146,
        "last_rank": 23155,
        "player_name": "James Wetherall",
        "rank": 19823,
        "rank_sort": 19823,
        "total": 2380
      },
      {
        "club_badge_src": null,
        "entry": 2346417,
        "entry_name": "Why Always Mee",
        "event_total": 40,
        "has_played": true,
        "id": 16742595,
        "last_rank": 9853,
        "player_name": "Dovi Galinsky",
        "rank": 19823,
        "rank_sort": 19824,
        "total": 2380
      },
      {
        "club_badge_src": null,
        "entry": 5185253,
        "entry_name": "we need to cook",
        "event_total": 59,
        "has_played": true,
        "id": 40138522,
        "last_rank": 20853,
        "player_name": "Tomasz Kulik",
        "rank": 19823,
        "rank_sort": 19825,
        "total": 2380
      },
      {
        "club_badge_src": null,
        "entry": 2644,
        "entry_name": "Spanner in the Wirtz",
        "event_total": 66,
        "has_played": true,
        "id": 14790,
        "last_rank": 26610,
        "player_name": "Calum Bluck",
        "rank": 19826,
        "rank_sort": 19826,
        "total": 2380
      },
      {
        "club_badge_src": null,
        "entry": 181110,
        "entry_name": "Bol Isak",
        "event_total": 51,
        "has_played": true,
        "id": 1195194,
        "last_rank": 15452,
        "player_name": "Andrew Allan",
        "rank": 19826,
        "rank_sort": 19827,
        "total": 2380
      },
      {
        "club_badge_src": "https://fantasy.premierleague.com/gcs/plfpl-production-adobe-approved/plfpl-production/362320/6e8d0337-29c9-4191-9f1e-83ccf35f6282.png",
        "entry": 362320,
        "entry_name": "Joey's XI",
        "event_total": 52,
        "has_played": true,
        "id": 2424309,
        "last_rank": 16062,
        "player_name": "Joseph O'Connor",
        "rank": 19826,
        "rank_sort": 19828,
        "total": 2380
      },
      {
        "club_badge_src": "https://fantasy.premierleague.com/gcs/plfpl-production-adobe-approved/plfpl-production/450708/8b4a8d84-2d83-4949-b21c-e4ec509ccd68.png",
        "entry": 450708,
        "entry_name": "Hacuna Mateta",
        "event_total": 54,
        "has_played": true,
        "id": 3023834,
        "last_rank": 17327,
        "player_name": "Yogi Jefani",
        "rank": 19826,
        "rank_sort": 19829,
        "total": 2380
      },
      {
        "club_badge_src": null,
        "entry": 1019186,
        "entry_name": "Blues Rejectzz",
        "event_total": 76,
        "has_played": true,
        "id": 7051083,
        "last_rank": 37344,
        "player_name": "Joe Hawkins",
        "rank": 19826,
        "rank_sort": 19830,
        "total": 2380
      },
      {
        "club_badge_src": null,
        "entry": 1485874,
        "entry_name": "frimpingpong",
        "event_total": 73,
        "has_played": true,
        "id": 10361739,
        "last_rank": 33827,
        "player_name": "Luke Turner",
        "rank": 19826,
        "rank_sort": 19831,
        "total": 2380
      },
      {
        "club_badge_src": null,
        "entry": 1623257,
        "entry_name": "Rum Runners",
        "event_total": 39,
        "has_played": true,
        "id": 11361250,
        "last_rank": 9484,
        "player_name": "Paul Newport",
        "rank": 19826,
        "rank_sort": 19832,
        "total": 2380
      },
      {
        "club_badge_src": null,
        "entry": 2318294,
        "entry_name": "BelieveinViktor",
        "event_total": 43,
        "has_played": true,
        "id": 16537725,
        "last_rank": 11142,
        "player_name": "Victor Berg",
        "rank": 19826,
        "rank_sort": 19833,
        "total": 2380
      },
      {
        "club_badge_src": null,
        "entry": 2356831,
        "entry_name": "2eze",
        "event_total": 51,
        "has_played": true,
        "id": 16817108,
        "last_rank": 15452,
        "player_name": "Liban Chibssa",
        "rank": 19826,
        "rank_sort": 19834,
        "total": 2380
      },
      {
        "club_badge_src": null,
        "entry": 2430919,
        "entry_name": "Los Pollos",
        "event_total": 62,
        "has_played": true,
        "id": 17382616,
        "last_rank": 23188,
        "player_name": "triple J",
        "rank": 19826,
        "rank_sort": 19835,
        "total": 2380
      },
      {
        "club_badge_src": null,
        "entry": 3402844,
        "entry_name": "ChickenTikka MoSalah",
        "event_total": 44,
        "has_played": true,
        "id": 25266330,
        "last_rank": 11642,
        "player_name": "Thai Eaton",
        "rank": 19826,
        "rank_sort": 19836,
        "total": 2380
      },
      {
        "club_badge_src": null,
        "entry": 3565212,
        "entry_name": "Detinu Retsehc Nam",
        "event_total": 70,
        "has_played": true,
        "id": 26546143,
        "last_rank": 30503,
        "player_name": "CHANDA Slyde  MWANSA",
        "rank": 19826,
        "rank_sort": 19837,
        "total": 2380
      },
      {
        "club_badge_src": null,
        "entry": 3924606,
        "entry_name": "robinhood",
        "event_total": 65,
        "has_played": true,
        "id": 29514024,
        "last_rank": 25776,
        "player_name": "Parth Chalise",
        "rank": 19826,
        "rank_sort": 19838,
        "total": 2380
      },
      {
        "club_badge_src": null,
        "entry": 5193883,
        "entry_name": "Tuggy Tuchel",
        "event_total": 57,
        "has_played": true,
        "id": 40212459,
        "last_rank": 19392,
        "player_name": "Tom Hall",
        "rank": 19826,
        "rank_sort": 19839,
        "total": 2380
      },
      {
        "club_badge_src": null,
        "entry": 5792997,
        "entry_name": "Viktor-y Lap",
        "event_total": 45,
        "has_played": true,
        "id": 45438190,
        "last_rank": 12109,
        "player_name": "Thomas Fielden",
        "rank": 19826,
        "rank_sort": 19840,
        "total": 2380
      },
      {
        "club_badge_src": null,
        "entry": 30430,
        "entry_name": "\u0627\u062d\u0645\u062f",
        "event_total": 55,
        "has_played": true,
        "id": 192580,
        "last_rank": 18029,
        "player_name": "Ahmed Rahman",
        "rank": 19841,
        "rank_sort": 19841,
        "total": 2380
      },
      {
        "club_badge_src": null,
        "entry": 67644,
        "entry_name": "Untied",
        "event_total": 54,
        "has_played": true,
        "id": 438008,
        "last_rank": 17437,
        "player_name": "Richard Venner",
        "rank": 19841,
        "rank_sort": 19842,
        "total": 2380
      },
      {
        "club_badge_src": "https://fantasy.premierleague.com/gcs/plfpl-production-adobe-approved/plfpl-production/91166/a94b07b4-b859-4fb4-8d94-ccf6b2909f12.png",
        "entry": 91166,
        "entry_name": "Get On Zidanes Floor",
        "event_total": 50,
        "has_played": true,
        "id": 595368,
        "last_rank": 14857,
        "player_name": "Sripad S",
        "rank": 19841,
        "rank_sort": 19843,
        "total": 2380
      },
      {
        "club_badge_src": null,
        "entry": 110243,
        "entry_name": "G Force",
        "event_total": 61,
        "has_played": true,
        "id": 718977,
        "last_rank": 22391,
        "player_name": "Grace Haines",
        "rank": 19841,
        "rank_sort": 19844,
        "total": 2380
      },
      {
        "club_badge_src": null,
        "entry": 144324,
        "entry_name": "Tesco McNeil Deal",
        "event_total": 68,
        "has_played": true,
        "id": 944656,
        "last_rank": 28609,
        "player_name": "Alex Bridgeman",
        "rank": 19841,
        "rank_sort": 19845,
        "total": 2380
      },
      {
        "club_badge_src": null,
        "entry": 318866,
        "entry_name": "Leo Madrid",
        "event_total": 42,
        "has_played": true,
        "id": 2137402,
        "last_rank": 10805,
        "player_name": "Ali Adnan",
        "rank": 19841,
        "rank_sort": 19846,
        "total": 2380
      },
      {
        "club_badge_src": null,
        "entry": 365996,
        "entry_name": "maradonna kebab",
        "event_total": 65,
        "has_played": true,
        "id": 2449212,
        "last_rank": 25776,
        "player_name": "Zak Gibbs",
        "rank": 19841,
        "rank_sort": 19847,
        "total": 2380
      },
      {
        "club_badge_src": "https://fantasy.premierleague.com/gcs/plfpl-production-adobe-approved/plfpl-production/476124/0bf0f6fd-f1f6-4465-a183-afcf98839711.png",
        "entry": 476124,
        "entry_name": "DanteReyes",
        "event_total": 55,
        "has_played": true,
        "id": 3196099,
        "last_rank": 15416,
        "player_name": "Dante Reyes",
        "rank": 19841,
        "rank_sort": 19848,
        "total": 2380
      },
      {
        "club_badge_src": null,
        "entry": 718031,
        "entry_name": "AC FC",
        "event_total": 53,
        "has_played": true,
        "id": 4872375,
        "last_rank": 16729,
        "player_name": "Adam Cutler",
        "rank": 19841,
        "rank_sort": 19849,
        "total": 2380
      },
      {
        "club_badge_src": null,
        "entry": 1311286,
        "entry_name": "We ate all the pies",
        "event_total": 66,
        "has_played": true,
        "id": 9114561,
        "last_rank": 26710,
        "player_name": "Bill Coles",
        "rank": 19841,
        "rank_sort": 19850,
        "total": 2380
      }
    ]
  }
}