{
  "last_updated_data": "2026-05-24T23:28:17Z",
  "league": {
    "admin_entry": null,
    "closed": false,
    "code_privacy": "p",
    "created": "2025-07-20T23:14:33.933835Z",
    "cup_league": 2815434,
    "has_cup": true,
    "id": 314,
    "league_type": "s",
    "max_entries": null,
    "name": "Overall",
    "rank": null,
    "scoring": "c",
    "start_event": 1
  },
  "new_entries": {
    "has_next": false,
    "page": 1,
    "results": []
  },
  "standings": {
    "has_next": true,
    "page": 305,
    "results": [
      {
        "club_badge_src": null,
        "entry": 10254,
        "entry_name": "Wheres Andersen",
        "event_total": 52,
        "has_played": true,
        "id": 60572,
        "last_rank": 12027,
        "player_name": "Matthew Knight",
        "rank": 15200,
        "rank_sort": 15201,
        "total": 2388
      },
      {
        "club_badge_src": null,
        "entry": 301611,
        "entry_name": "Swoner in Beatpants",
        "event_total": 43,
        "has_played": true,
        "id": 2018009,
        "last_rank": 5845,
        "player_name": "Stanley Feldman",
        "rank": 15200,
        "rank_sort": 15202,
        "total": 2388
      },
      {
        "club_badge_src": null,
        "entry": 426475,
        "entry_name": "King iev",
        "event_total": 64,
        "has_played": true,
        "id": 2859284,
        "last_rank": 16598,
        "player_name": "Ivo Nap",
        "rank": 15200,
        "rank_sort": 15203,
        "total": 2388
      },
      {
        "club_badge_src": null,
        "entry": 768049,
        "entry_name": "Nend",
        "event_total": 56,
        "has_played": true,
        "id": 5238585,
        "last_rank": 10173,
        "player_name": "Andrew Nend",
        "rank": 15200,
        "rank_sort": 15204,
        "total": 2388
      },
      {
        "club_badge_src": null,
        "entry": 865907,
        "entry_name": "Pedro's 11",
        "event_total": 46,
        "has_played": true,
        "id": 5936206,
        "last_rank": 9412,
        "player_name": "Peter Johnson",
        "rank": 15200,
        "rank_sort": 15205,
        "total": 2388
      },
      {
        "club_badge_src": null,
        "entry": 1025137,
        "entry_name": "WeeJockPooPongMcPlop",
        "event_total": 34,
        "has_played": true,
        "id": 7092449,
        "last_rank": 4668,
        "player_name": "Jimmy Moorhouse",
        "rank": 15200,
        "rank_sort": 15206,
        "total": 2388
      },
      {
        "club_badge_src": null,
        "entry": 1358175,
        "entry_name": "Saka Onana",
        "event_total": 55,
        "has_played": true,
        "id": 9440800,
        "last_rank": 11516,
        "player_name": "Taylor Shirley",
        "rank": 15200,
        "rank_sort": 15207,
        "total": 2388
      },
      {
        "club_badge_src": null,
        "entry": 1632784,
        "entry_name": "JohnosBoyos",
        "event_total": 63,
        "has_played": true,
        "id": 11428596,
        "last_rank": 15952,
        "player_name": "Lewis Johnson",
        "rank": 15200,
        "rank_sort": 15208,
        "total": 2388
      },
      {
        "club_badge_src": null,
        "entry": 2385696,
        "entry_name": "BK Badboll",
        "event_total": 68,
        "has_played": true,
        "id": 17038545,
        "last_rank": 22293,
        "player_name": "Lars Fogelin",
        "rank": 15200,
        "rank_sort": 15209,
        "total": 2388
      },
      {
        "club_badge_src": null,
        "entry": 2506593,
        "entry_name": "anonim",
        "event_total": 39,
        "has_played": true,
        "id": 17950446,
        "last_rank": 6964,
        "player_name": "Laszlo Nadasdi",
        "rank": 15200,
        "rank_sort": 15210,
        "total": 2388
      },
      {
        "club_badge_src": null,
        "entry": 2510981,
        "entry_name": "115 not out",
        "event_total": 65,
        "has_played": true,
        "id": 17988492,
        "last_rank": 20038,
        "player_name": "David Kennedy",
        "rank": 15200,
        "rank_sort": 15211,
        "total": 2388
      },
      {
        "club_badge_src": null,
        "entry": 3089935,
        "entry_name": "B\u0112B\u00d3\u00f2V\u00ee\u010b",
        "event_total": 44,
        "has_played": true,
        "id": 22772214,
        "last_rank": 8645,
        "player_name": "Ihab Mohamed",
        "rank": 15200,
        "rank_sort": 15212,
        "total": 2388
      },
      {
        "club_badge_src": "https://fantasy.premierleague.com/gcs/plfpl-production-adobe-approved/plfpl-production/3942020/7d520f48-3547-4fee-8efa-80931a55781f.png",
        "entry": 3942020,
        "entry_name": "Fashion Cartel",
        "event_total": 88,
        "has_played": true,
        "id": 29653689,
        "last_rank": 43570,
        "player_name": "Kapiisi Raymond",
        "rank": 15200,
        "rank_sort": 15213,
        "total": 2388
      },
      {
        "club_badge_src": "https://fantasy.premierleague.com/gcs/plfpl-production-adobe-approved/plfpl-production/5220249/9b962a4e-66ec-46c9-b443-c74dc8d549ba.png",
        "entry": 5220249,
        "entry_name": "Naturally Selected",
        "event_total": 64,
        "has_played": true,
        "id": 40446390,
        "last_rank": 19302,
        "player_name": "Chris Rogerson",
        "rank": 15200,
        "rank_sort": 15214,
        "total": 2388
      },
      {
        "club_badge_src": null,
        "entry": 5930504,
        "entry_name": "Under My Cucurella",
        "event_total": 61,
        "has_played": true,
        "id": 46622894,
        "last_rank": 17233,
        "player_name": "Shane Gray",
        "rank": 15200,
        "rank_sort": 15215,
        "total": 2388
      },
      {
        "club_badge_src": null,
        "entry": 7295676,
        "entry_name": "Manchester is blue",
        "event_total": 46,
        "has_played": true,
        "id": 59036091,
        "last_rank": 9412,
        "player_name": "Sherif Diaa",
        "rank": 15200,
        "rank_sort": 15216,
        "total": 2388
      },
      {
        "club_badge_src": null,
        "entry": 7998,
        "entry_name": "LS11",
        "event_total": 55,
        "has_played": true,
        "id": 46274,
        "last_rank": 11551,
        "player_name": "Phil Edwards",
        "rank": 15217,
        "rank_sort": 15217,
        "total": 2388
      },
      {
        "club_badge_src": null,
        "entry": 331118,
        "entry_name": "FPL_THORNHILL",
        "event_total": 64,
        "has_played": true,
        "id": 2217865,
        "last_rank": 16598,
        "player_name": "Daniel Thornhill",
        "rank": 15217,
        "rank_sort": 15218,
        "total": 2388
      },
      {
        "club_badge_src": null,
        "entry": 436740,
        "entry_name": "Atlextico Madrid",
        "event_total": 66,
        "has_played": true,
        "id": 2928738,
        "last_rank": 20763,
        "player_name": "Alex Knight",
        "rank": 15217,
        "rank_sort": 15219,
        "total": 2388
      },
      {
        "club_badge_src": "https://fantasy.premierleague.com/gcs/plfpl-production-adobe-approved/plfpl-production/904213/8feecc0b-4192-4c52-9294-d5710030e106.png",
        "entry": 904213,
        "entry_name": "Beef Cherki",
        "event_total": 60,
        "has_played": true,
        "id": 6213228,
        "last_rank": 14171,
        "player_name": "Maddoc Roberts",
        "rank": 15217,
        "rank_sort": 15220,
        "total": 2388
      },
      {
        "club_badge_src": "https://fantasy.premierleague.com/gcs/plfpl-production-adobe-approved/plfpl-production/1374279/a4d1db76-547b-4baf-9ddf-a8c8ab0f75e9.png",
        "entry": 1374279,
        "entry_name": "Glock14",
        "event_total": 32,
        "has_played": true,
        "id": 9553093,
        "last_rank": 5115,
        "player_name": "Jonathan Berhane",
        "rank": 15217,
        "rank_sort": 15221,
        "total": 2388
      },
      {
        "club_badge_src": "https://fantasy.premierleague.com/gcs/plfpl-production-adobe-approved/plfpl-production/1654807/36877b0b-a4b9-4e5f-abc7-13acd67e2be0.png",
        "entry": 1654807,
        "entry_name": "Fixed Outcome",
        "event_total": 63,
        "has_played": true,
        "id": 11585591,
        "last_rank": 11516,
        "player_name": "Georgi Terziev",
        "rank": 15217,
        "rank_sort": 15222,
        "total": 2388
      },
      {
        "club_badge_src": null,
        "entry": 1684799,
        "entry_name": "Egus Fc",
        "event_total": 57,
        "has_played": true,
        "id": 11793858,
        "last_rank": 12547,
        "player_name": "Eguriase Ororho",
        "rank": 15217,
        "rank_sort": 15223,
        "total": 2388
      },
      {
        "club_badge_src": null,
        "entry": 2092993,
        "entry_name": "Football Not Saka",
        "event_total": 60,
        "has_played": true,
        "id": 14849782,
        "last_rank": 16630,
        "player_name": "Alex Anderson",
        "rank": 15217,
        "rank_sort": 15224,
        "total": 2388
      },
      {
        "club_badge_src": null,
        "entry": 6311735,
        "entry_name": "under my cucurella",
        "event_total": 72,
        "has_played": true,
        "id": 50078058,
        "last_rank": 22293,
        "player_name": "julian knight",
        "rank": 15217,
        "rank_sort": 15225,
        "total": 2388
      },
      {
        "club_badge_src": null,
        "entry": 9253929,
        "entry_name": "Uncle T United",
        "event_total": 38,
        "has_played": true,
        "id": 77960806,
        "last_rank": 6660,
        "player_name": "Vivek Gill",
        "rank": 15217,
        "rank_sort": 15226,
        "total": 2388
      },
      {
        "club_badge_src": null,
        "entry": 217716,
        "entry_name": "Dalung fc",
        "event_total": 53,
        "has_played": true,
        "id": 1447870,
        "last_rank": 5313,
        "player_name": "advent nugraha",
        "rank": 15227,
        "rank_sort": 15227,
        "total": 2388
      },
      {
        "club_badge_src": null,
        "entry": 2087250,
        "entry_name": "DelapDance",
        "event_total": 53,
        "has_played": true,
        "id": 14808133,
        "last_rank": 12559,
        "player_name": "Dean Chronis",
        "rank": 15227,
        "rank_sort": 15228,
        "total": 2388
      },
      {
        "club_badge_src": null,
        "entry": 2136896,
        "entry_name": "\u0628\u064a\u0643\u064a \u0628\u064a\u0643\u064a",
        "event_total": 48,
        "has_played": true,
        "id": 15186681,
        "last_rank": 8645,
        "player_name": "\u0627\u0644\u0627\u0633\u0637\u0648\u0631\u0629 \u0628\u0634\u0627\u0645\u064a\u0644",
        "rank": 15227,
        "rank_sort": 15229,
        "total": 2388
      },
      {
        "club_badge_src": null,
        "entry": 5551758,
        "entry_name": "Wira7",
        "event_total": 52,
        "has_played": true,
        "id": 43330913,
        "last_rank": 12056,
        "player_name": "Kratos .",
        "rank": 15227,
        "rank_sort": 15230,
        "total": 2388
      },
      {
        "club_badge_src": "https://fantasy.premierleague.com/gcs/plfpl-production-adobe-approved/plfpl-production/5652335/085b8687-8013-4965-b2fd-062cc4794698.png",
        "entry": 5652335,
        "entry_name": "Invincibles",
        "event_total": 65,
        "has_played": true,
        "id": 44217054,
        "last_rank": 20079,
        "player_name": "Frank Bulley",
        "rank": 15227,
        "rank_sort": 15231,
        "total": 2388
      },
      {
        "club_badge_src": "https://fantasy.premierleague.com/gcs/plfpl-production-adobe-approved/plfpl-production/7087716/6b2c6a1a-d7d3-406a-8041-fbe756283f77.png",
        "entry": 7087716,
        "entry_name": "BlAsTiNg BOYZZZZ",
        "event_total": 89,
        "has_played": true,
        "id": 57059682,
        "last_rank": 22921,
        "player_name": "niti anand",
        "rank": 15227,
        "rank_sort": 15232,
        "total": 2388
      },
      {
        "club_badge_src": null,
        "entry": 8894556,
        "entry_name": "Fahad",
        "event_total": 68,
        "has_played": true,
        "id": 74455982,
        "last_rank": 22331,
        "player_name": "Fahad algslan",
        "rank": 15227,
        "rank_sort": 15233,
        "total": 2388
      },
      {
        "club_badge_src": null,
        "entry": 994867,
        "entry_name": "Chasers FC",
        "event_total": 77,
        "has_played": true,
        "id": 6865414,
        "last_rank": 30433,
        "player_name": "Julio Franke",
        "rank": 15234,
        "rank_sort": 15234,
        "total": 2388
      },
      {
        "club_badge_src": null,
        "entry": 2170149,
        "entry_name": "b'hood w/o banners",
        "event_total": 66,
        "has_played": true,
        "id": 15429899,
        "last_rank": 20775,
        "player_name": "Marko Radosavljevi\u0107",
        "rank": 15234,
        "rank_sort": 15235,
        "total": 2388
      },
      {
        "club_badge_src": null,
        "entry": 3202242,
        "entry_name": "Nate Fc",
        "event_total": 60,
        "has_played": true,
        "id": 23672241,
        "last_rank": 16648,
        "player_name": "Nathaniel Marbaniang",
        "rank": 15234,
        "rank_sort": 15236,
        "total": 2388
      },
      {
        "club_badge_src": null,
        "entry": 350620,
        "entry_name": "HOSSAM MOHAMED",
        "event_total": 78,
        "has_played": true,
        "id": 2347035,
        "last_rank": 23919,
        "player_name": "hossam mohamed",
        "rank": 15237,
        "rank_sort": 15237,
        "total": 2388
      },
      {
        "club_badge_src": null,
        "entry": 1791918,
        "entry_name": "Ahmed El-taweel",
        "event_total": 55,
        "has_played": true,
        "id": 12591605,
        "last_rank": 8289,
        "player_name": "Ahmed El-tawel",
        "rank": 15237,
        "rank_sort": 15238,
        "total": 2388
      },
      {
        "club_badge_src": null,
        "entry": 2650060,
        "entry_name": "Mohammed Amer.00",
        "event_total": 78,
        "has_played": true,
        "id": 19048112,
        "last_rank": 23904,
        "player_name": "Mohammed El sayed",
        "rank": 15237,
        "rank_sort": 15239,
        "total": 2388
      },
      {
        "club_badge_src": null,
        "entry": 5389826,
        "entry_name": "verydustycarpet",
        "event_total": 53,
        "has_played": true,
        "id": 41902372,
        "last_rank": 12577,
        "player_name": "Clive Jones",
        "rank": 15237,
        "rank_sort": 15240,
        "total": 2388
      },
      {
        "club_badge_src": null,
        "entry": 7840764,
        "entry_name": "King of da Norrrthhh",
        "event_total": 58,
        "has_played": true,
        "id": 64448108,
        "last_rank": 9412,
        "player_name": "D J",
        "rank": 15237,
        "rank_sort": 15241,
        "total": 2388
      },
      {
        "club_badge_src": null,
        "entry": 551618,
        "entry_name": "Boody",
        "event_total": 81,
        "has_played": true,
        "id": 3712870,
        "last_rank": 23101,
        "player_name": "Abdo Ebrahim",
        "rank": 15242,
        "rank_sort": 15242,
        "total": 2388
      },
      {
        "club_badge_src": null,
        "entry": 2690917,
        "entry_name": "Mayed almazmi",
        "event_total": 66,
        "has_played": true,
        "id": 19355259,
        "last_rank": 17930,
        "player_name": "M Almazmi",
        "rank": 15242,
        "rank_sort": 15243,
        "total": 2388
      },
      {
        "club_badge_src": "https://fantasy.premierleague.com/gcs/plfpl-production-adobe-approved/plfpl-production/2869116/7c00085f-481f-4058-a718-da6edbce16cf.png",
        "entry": 2869116,
        "entry_name": "Wirtz up Doc",
        "event_total": 48,
        "has_played": true,
        "id": 20985931,
        "last_rank": 10235,
        "player_name": "Mo Kat",
        "rank": 15242,
        "rank_sort": 15244,
        "total": 2388
      },
      {
        "club_badge_src": null,
        "entry": 6840926,
        "entry_name": "Aura",
        "event_total": 73,
        "has_played": true,
        "id": 54801525,
        "last_rank": 20079,
        "player_name": "JJ Jean",
        "rank": 15242,
        "rank_sort": 15245,
        "total": 2388
      },
      {
        "club_badge_src": null,
        "entry": 7090846,
        "entry_name": "Leny a Yoro?",
        "event_total": 57,
        "has_played": true,
        "id": 57089254,
        "last_rank": 14793,
        "player_name": "Tristan Whitehead",
        "rank": 15242,
        "rank_sort": 15246,
        "total": 2388
      },
      {
        "club_badge_src": null,
        "entry": 229202,
        "entry_name": "Manstu eftir utd",
        "event_total": 54,
        "has_played": true,
        "id": 1524896,
        "last_rank": 11126,
        "player_name": "Sigurdur Skjaldberg",
        "rank": 15247,
        "rank_sort": 15247,
        "total": 2388
      },
      {
        "club_badge_src": null,
        "entry": 475499,
        "entry_name": "Monzz",
        "event_total": 69,
        "has_played": true,
        "id": 3192085,
        "last_rank": 17285,
        "player_name": "Mo'men Hassan",
        "rank": 15247,
        "rank_sort": 15248,
        "total": 2388
      },
      {
        "club_badge_src": "https://fantasy.premierleague.com/gcs/plfpl-production-adobe-approved/plfpl-production/1521469/7fcb03e9-a7b0-4679-b5eb-3dce850aaa59.png",
        "entry": 1521469,
        "entry_name": "THIS IS THE WAY!!!",
        "event_total": 60,
        "has_played": true,
        "id": 10611847,
        "last_rank": 16657,
        "player_name": "Paul Carson",
        "rank": 15247,
        "rank_sort": 15249,
        "total": 2388
      },
      {
        "club_badge_src": "https://fantasy.premierleague.com/gcs/plfpl-production-adobe-approved/plfpl-production/2525464/79ca91c9-6d05-4ff6-8446-3b85edc9a4e8.png",
        "entry": 2525464,
        "entry_name": "Magnum's Allstars",
        "event_total": 52,
        "has_played": true,
        "id": 18096338,
        "last_rank": 10235,
        "player_name": "Steve Harding",
        "rank": 15247,
        "rank_sort": 15250,
        "total": 2388
      }
    ]
  }
}