{
  "last_updated_data": "2026-05-24T23:28:17Z",
  "league": {
    "admin_entry": null,
    "closed": false,
    "code_privacy": "p",
    "created": "2025-07-20T23:14:33.933835Z",
    "cup_league": 2815434,
    "has_cup": true,
    "id": 314,
    "league_type": "s",
    "max_entries": null,
    "name": "Overall",
    "rank": null,
    "scoring": "c",
    "start_event": 1
  },
  "new_entries": {
    "has_next": false,
    "page": 1,
    "results": []
  },
  "standings": {
    "has_next": true,
    "page": 1364,
    "results": [
      {
        "club_badge_src": null,
        "entry": 7639277,
        "entry_name": "Saudade",
        "event_total": 69,
        "has_played": true,
        "id": 62619463,
        "last_rank": 95890,
        "player_name": "Sattar Mekhtiyev",
        "rank": 67829,
        "rank_sort": 68151,
        "total": 2341
      },
      {
        "club_badge_src": "https://fantasy.premierleague.com/gcs/plfpl-production-adobe-approved/plfpl-production/7728719/c3175cbe-bd47-49fb-9e01-50861bd88b57.png",
        "entry": 7728719,
        "entry_name": "ThisWillRuinTheTour\u00e9",
        "event_total": 40,
        "has_played": true,
        "id": 63429480,
        "last_rank": 41162,
        "player_name": "Chloe Forrester",
        "rank": 67829,
        "rank_sort": 68152,
        "total": 2341
      },
      {
        "club_badge_src": null,
        "entry": 7731126,
        "entry_name": "Salahnohaland",
        "event_total": 62,
        "has_played": true,
        "id": 63451276,
        "last_rank": 79190,
        "player_name": "Charlie Willans",
        "rank": 67829,
        "rank_sort": 68153,
        "total": 2341
      },
      {
        "club_badge_src": null,
        "entry": 7806089,
        "entry_name": "Change Name",
        "event_total": 91,
        "has_played": true,
        "id": 64127948,
        "last_rank": 163070,
        "player_name": "sidney eisenstein-levett",
        "rank": 67829,
        "rank_sort": 68154,
        "total": 2341
      },
      {
        "club_badge_src": null,
        "entry": 7885113,
        "entry_name": "HB FC",
        "event_total": 60,
        "has_played": true,
        "id": 64850371,
        "last_rank": 74741,
        "player_name": "Habiba Begum",
        "rank": 67829,
        "rank_sort": 68155,
        "total": 2341
      },
      {
        "club_badge_src": null,
        "entry": 7926995,
        "entry_name": "Fpl is Garbage",
        "event_total": 62,
        "has_played": true,
        "id": 65231543,
        "last_rank": 79817,
        "player_name": "Arron Little",
        "rank": 67829,
        "rank_sort": 68156,
        "total": 2341
      },
      {
        "club_badge_src": null,
        "entry": 8035178,
        "entry_name": "ULT WORLD XI",
        "event_total": 66,
        "has_played": true,
        "id": 66202245,
        "last_rank": 88594,
        "player_name": "Ayaan Bhoje",
        "rank": 67829,
        "rank_sort": 68157,
        "total": 2341
      },
      {
        "club_badge_src": "https://fantasy.premierleague.com/gcs/plfpl-production-adobe-approved/plfpl-production/8188691/03b5aed2-97eb-4b46-a8f0-cfe3e929179f.png",
        "entry": 8188691,
        "entry_name": "Qule fc",
        "event_total": 51,
        "has_played": true,
        "id": 67632762,
        "last_rank": 58071,
        "player_name": "Ali Sheer",
        "rank": 67829,
        "rank_sort": 68158,
        "total": 2341
      },
      {
        "club_badge_src": null,
        "entry": 8198831,
        "entry_name": "Cossey's Cowboys",
        "event_total": 64,
        "has_played": true,
        "id": 67729574,
        "last_rank": 84360,
        "player_name": "Marcus Cossey",
        "rank": 67829,
        "rank_sort": 68159,
        "total": 2341
      },
      {
        "club_badge_src": null,
        "entry": 8621493,
        "entry_name": "Gggoatnation",
        "event_total": 58,
        "has_played": true,
        "id": 71806843,
        "last_rank": 70985,
        "player_name": "Prem Daryanani",
        "rank": 67829,
        "rank_sort": 68160,
        "total": 2341
      },
      {
        "club_badge_src": null,
        "entry": 8796445,
        "entry_name": "Real Madrid",
        "event_total": 50,
        "has_played": true,
        "id": 73510890,
        "last_rank": 56180,
        "player_name": "Abdulrahman Hassan",
        "rank": 67829,
        "rank_sort": 68161,
        "total": 2341
      },
      {
        "club_badge_src": null,
        "entry": 8799500,
        "entry_name": "2good2betrue",
        "event_total": 52,
        "has_played": true,
        "id": 73540213,
        "last_rank": 59813,
        "player_name": "Marko Klasi\u0107",
        "rank": 67829,
        "rank_sort": 68162,
        "total": 2341
      },
      {
        "club_badge_src": null,
        "entry": 8864522,
        "entry_name": "Mo Sultan",
        "event_total": 47,
        "has_played": true,
        "id": 74166929,
        "last_rank": 51403,
        "player_name": "Mohamed Bin Hussain",
        "rank": 67829,
        "rank_sort": 68163,
        "total": 2341
      },
      {
        "club_badge_src": null,
        "entry": 9029598,
        "entry_name": "\u2622\ufe0f\u26bd",
        "event_total": 54,
        "has_played": true,
        "id": 75765603,
        "last_rank": 63201,
        "player_name": "Kyle Julien-Wilson",
        "rank": 67829,
        "rank_sort": 68164,
        "total": 2341
      },
      {
        "club_badge_src": null,
        "entry": 9048310,
        "entry_name": "Bunny City 25",
        "event_total": 67,
        "has_played": true,
        "id": 75948468,
        "last_rank": 91006,
        "player_name": "Alys Furness",
        "rank": 67829,
        "rank_sort": 68165,
        "total": 2341
      },
      {
        "club_badge_src": "https://fantasy.premierleague.com/gcs/plfpl-production-adobe-approved/plfpl-production/9191685/594604b2-c31d-4dbe-a1cf-295e405ae1ce.png",
        "entry": 9191685,
        "entry_name": "Justin Credibles",
        "event_total": 69,
        "has_played": true,
        "id": 77352039,
        "last_rank": 95640,
        "player_name": "Justin Mason",
        "rank": 67829,
        "rank_sort": 68166,
        "total": 2341
      },
      {
        "club_badge_src": null,
        "entry": 9249018,
        "entry_name": "Summertime Saka",
        "event_total": 73,
        "has_played": true,
        "id": 77912890,
        "last_rank": 106763,
        "player_name": "Demi Steele",
        "rank": 67829,
        "rank_sort": 68167,
        "total": 2341
      },
      {
        "club_badge_src": null,
        "entry": 9313585,
        "entry_name": "DF FC",
        "event_total": 54,
        "has_played": true,
        "id": 78540451,
        "last_rank": 63724,
        "player_name": "Dan Forbie",
        "rank": 67829,
        "rank_sort": 68168,
        "total": 2341
      },
      {
        "club_badge_src": null,
        "entry": 9346109,
        "entry_name": "Slotshaming Squids",
        "event_total": 47,
        "has_played": true,
        "id": 78850584,
        "last_rank": 51220,
        "player_name": "Richard Ensor",
        "rank": 67829,
        "rank_sort": 68169,
        "total": 2341
      },
      {
        "club_badge_src": null,
        "entry": 9441593,
        "entry_name": "Slam City",
        "event_total": 60,
        "has_played": true,
        "id": 79770187,
        "last_rank": 74898,
        "player_name": "Simon Lam",
        "rank": 67829,
        "rank_sort": 68170,
        "total": 2341
      },
      {
        "club_badge_src": null,
        "entry": 1738,
        "entry_name": "Mat3usz's Warr10rs",
        "event_total": 68,
        "has_played": true,
        "id": 9676,
        "last_rank": 83934,
        "player_name": "Mateusz Kabat",
        "rank": 68171,
        "rank_sort": 68171,
        "total": 2341
      },
      {
        "club_badge_src": "https://fantasy.premierleague.com/gcs/plfpl-production-adobe-approved/plfpl-production/2307/70f7c3e2-3f04-48b7-b2a5-2a3be4bbb671.png",
        "entry": 2307,
        "entry_name": "Hakuna Mateta",
        "event_total": 54,
        "has_played": true,
        "id": 12858,
        "last_rank": 63724,
        "player_name": "Fredrik Sether",
        "rank": 68171,
        "rank_sort": 68172,
        "total": 2341
      },
      {
        "club_badge_src": "https://fantasy.premierleague.com/gcs/plfpl-production-adobe-approved/plfpl-production/4101/40f8bf8c-3fea-47d3-9af6-8da08669a438.png",
        "entry": 4101,
        "entry_name": "NeverWalkerLone",
        "event_total": 60,
        "has_played": true,
        "id": 23276,
        "last_rank": 75139,
        "player_name": "Dan Walker",
        "rank": 68171,
        "rank_sort": 68173,
        "total": 2341
      },
      {
        "club_badge_src": null,
        "entry": 4482,
        "entry_name": "Rikstadgrenda City",
        "event_total": 65,
        "has_played": true,
        "id": 25487,
        "last_rank": 77050,
        "player_name": "Einar Rikstad",
        "rank": 68171,
        "rank_sort": 68174,
        "total": 2341
      },
      {
        "club_badge_src": null,
        "entry": 4861,
        "entry_name": "Positive Jam",
        "event_total": 56,
        "has_played": true,
        "id": 27661,
        "last_rank": 67422,
        "player_name": "Eddy -",
        "rank": 68171,
        "rank_sort": 68175,
        "total": 2341
      },
      {
        "club_badge_src": "https://fantasy.premierleague.com/gcs/plfpl-production-adobe-approved/plfpl-production/5061/81cd2f61-4cfb-40d7-b184-536aed0b1087.png",
        "entry": 5061,
        "entry_name": "Holte Enders",
        "event_total": 64,
        "has_played": true,
        "id": 28825,
        "last_rank": 83934,
        "player_name": "Matt Holder",
        "rank": 68171,
        "rank_sort": 68176,
        "total": 2341
      },
      {
        "club_badge_src": null,
        "entry": 7562,
        "entry_name": "Lamine Of Mass Yamal",
        "event_total": 33,
        "has_played": true,
        "id": 43607,
        "last_rank": 32751,
        "player_name": "Fin Piper",
        "rank": 68171,
        "rank_sort": 68177,
        "total": 2341
      },
      {
        "club_badge_src": null,
        "entry": 7601,
        "entry_name": "AHMAD\u2019s XI",
        "event_total": 39,
        "has_played": true,
        "id": 43831,
        "last_rank": 35166,
        "player_name": "A\ud835\udd92\ud835\udd86\ud835\udd89u \ud835\udd39\ud835\udd52\ud835\udd63\ud835\udd63\ud835\udd5a\ud835\udd56",
        "rank": 68171,
        "rank_sort": 68178,
        "total": 2341
      },
      {
        "club_badge_src": null,
        "entry": 9084,
        "entry_name": "Wirtz Team Ever",
        "event_total": 47,
        "has_played": true,
        "id": 53209,
        "last_rank": 51403,
        "player_name": "LFC 3palczasty",
        "rank": 68171,
        "rank_sort": 68179,
        "total": 2341
      },
      {
        "club_badge_src": null,
        "entry": 10571,
        "entry_name": "Jgg",
        "event_total": 61,
        "has_played": true,
        "id": 62562,
        "last_rank": 68957,
        "player_name": "Bjarne Martinussen",
        "rank": 68171,
        "rank_sort": 68180,
        "total": 2341
      },
      {
        "club_badge_src": null,
        "entry": 13416,
        "entry_name": "Right in the Konates",
        "event_total": 63,
        "has_played": true,
        "id": 81050,
        "last_rank": 73038,
        "player_name": "david braithwaite",
        "rank": 68171,
        "rank_sort": 68181,
        "total": 2341
      },
      {
        "club_badge_src": null,
        "entry": 13536,
        "entry_name": "Psychocandy F.C.",
        "event_total": 54,
        "has_played": true,
        "id": 81843,
        "last_rank": 63117,
        "player_name": "Griff Paul",
        "rank": 68171,
        "rank_sort": 68182,
        "total": 2341
      },
      {
        "club_badge_src": "https://fantasy.premierleague.com/gcs/plfpl-production-adobe-approved/plfpl-production/14214/748820f9-3d9c-4c72-8879-90f4c6914547.png",
        "entry": 14214,
        "entry_name": "Forever20Diogo",
        "event_total": 43,
        "has_played": true,
        "id": 86207,
        "last_rank": 45927,
        "player_name": "Namon Tingsabhat",
        "rank": 68171,
        "rank_sort": 68183,
        "total": 2341
      },
      {
        "club_badge_src": null,
        "entry": 14694,
        "entry_name": "Paqueta Crisps",
        "event_total": 57,
        "has_played": true,
        "id": 89432,
        "last_rank": 69323,
        "player_name": "Jake Luther",
        "rank": 68171,
        "rank_sort": 68184,
        "total": 2341
      },
      {
        "club_badge_src": "https://fantasy.premierleague.com/gcs/plfpl-production-adobe-approved/plfpl-production/18656/07bc0a24-c241-41d0-b102-e6e0195abb22.png",
        "entry": 18656,
        "entry_name": "Wirtz Team Ever",
        "event_total": 68,
        "has_played": true,
        "id": 116086,
        "last_rank": 93443,
        "player_name": "Lee Troy",
        "rank": 68171,
        "rank_sort": 68185,
        "total": 2341
      },
      {
        "club_badge_src": null,
        "entry": 24630,
        "entry_name": "MingsCanOnlyGetBetta",
        "event_total": 47,
        "has_played": true,
        "id": 155491,
        "last_rank": 51220,
        "player_name": "Derren Bowes",
        "rank": 68171,
        "rank_sort": 68186,
        "total": 2341
      },
      {
        "club_badge_src": null,
        "entry": 36498,
        "entry_name": "Tuchel For School",
        "event_total": 64,
        "has_played": true,
        "id": 233669,
        "last_rank": 75139,
        "player_name": "Ben Schauerman",
        "rank": 68171,
        "rank_sort": 68187,
        "total": 2341
      },
      {
        "club_badge_src": null,
        "entry": 36552,
        "entry_name": "Wirtz your head at?",
        "event_total": 56,
        "has_played": true,
        "id": 234022,
        "last_rank": 59813,
        "player_name": "Conor Higgins",
        "rank": 68171,
        "rank_sort": 68188,
        "total": 2341
      },
      {
        "club_badge_src": "https://fantasy.premierleague.com/gcs/plfpl-production-adobe-approved/plfpl-production/41631/790df192-508b-4064-98b0-76f07914dff6.png",
        "entry": 41631,
        "entry_name": "Itchibaan XI",
        "event_total": 68,
        "has_played": true,
        "id": 266741,
        "last_rank": 83934,
        "player_name": "Oliver Lanneberg",
        "rank": 68171,
        "rank_sort": 68189,
        "total": 2341
      },
      {
        "club_badge_src": null,
        "entry": 42204,
        "entry_name": "\u00d8-my-Gaard",
        "event_total": 73,
        "has_played": true,
        "id": 270446,
        "last_rank": 107162,
        "player_name": "Isaac Chee",
        "rank": 68171,
        "rank_sort": 68190,
        "total": 2341
      },
      {
        "club_badge_src": null,
        "entry": 43493,
        "entry_name": "Old Havertz Kai Hard",
        "event_total": 57,
        "has_played": true,
        "id": 278545,
        "last_rank": 69323,
        "player_name": "Oskar Gustafsson",
        "rank": 68171,
        "rank_sort": 68191,
        "total": 2341
      },
      {
        "club_badge_src": null,
        "entry": 46618,
        "entry_name": "Cucurella De Vill",
        "event_total": 53,
        "has_played": true,
        "id": 298821,
        "last_rank": 61411,
        "player_name": "Tom Whayman",
        "rank": 68171,
        "rank_sort": 68192,
        "total": 2341
      },
      {
        "club_badge_src": null,
        "entry": 50614,
        "entry_name": "The King",
        "event_total": 55,
        "has_played": true,
        "id": 325574,
        "last_rank": 57857,
        "player_name": "yiannis papadopoulos",
        "rank": 68171,
        "rank_sort": 68193,
        "total": 2341
      },
      {
        "club_badge_src": "https://fantasy.premierleague.com/gcs/plfpl-production-adobe-approved/plfpl-production/50776/92443e82-999c-40eb-8ded-8d69a6c3a6bf.png",
        "entry": 50776,
        "entry_name": "Llih tnias",
        "event_total": 49,
        "has_played": true,
        "id": 326611,
        "last_rank": 54667,
        "player_name": "Hector Gomez",
        "rank": 68171,
        "rank_sort": 68194,
        "total": 2341
      },
      {
        "club_badge_src": "https://fantasy.premierleague.com/gcs/plfpl-production-adobe-approved/plfpl-production/52718/3d7d5046-3c3f-43d4-8ccf-84c82a62d903.png",
        "entry": 52718,
        "entry_name": "Al Hilal Snack Pack",
        "event_total": 52,
        "has_played": true,
        "id": 338993,
        "last_rank": 52853,
        "player_name": "Nicky-Joe Caruso",
        "rank": 68171,
        "rank_sort": 68195,
        "total": 2341
      },
      {
        "club_badge_src": null,
        "entry": 57216,
        "entry_name": "cleavers",
        "event_total": 64,
        "has_played": true,
        "id": 368583,
        "last_rank": 75139,
        "player_name": "Anthony Thompson",
        "rank": 68171,
        "rank_sort": 68196,
        "total": 2341
      },
      {
        "club_badge_src": null,
        "entry": 58217,
        "entry_name": "Games gone",
        "event_total": 47,
        "has_played": true,
        "id": 375044,
        "last_rank": 51720,
        "player_name": "John Serra",
        "rank": 68171,
        "rank_sort": 68197,
        "total": 2341
      },
      {
        "club_badge_src": "https://fantasy.premierleague.com/gcs/plfpl-production-adobe-approved/plfpl-production/65072/678d0c35-c026-4866-9942-04d5796bbc2f.png",
        "entry": 65072,
        "entry_name": "Moyes From The Dwarf",
        "event_total": 60,
        "has_played": true,
        "id": 420031,
        "last_rank": 66848,
        "player_name": "George Cheeseman",
        "rank": 68171,
        "rank_sort": 68198,
        "total": 2341
      },
      {
        "club_badge_src": null,
        "entry": 68845,
        "entry_name": "The Alex's",
        "event_total": 66,
        "has_played": true,
        "id": 446231,
        "last_rank": 79431,
        "player_name": "Nigel Alexander",
        "rank": 68171,
        "rank_sort": 68199,
        "total": 2341
      },
      {
        "club_badge_src": null,
        "entry": 70257,
        "entry_name": "Ferg_Utd",
        "event_total": 72,
        "has_played": true,
        "id": 456080,
        "last_rank": 103526,
        "player_name": "Pawel Olech",
        "rank": 68171,
        "rank_sort": 68200,
        "total": 2341
      }
    ]
  }
}