{
  "last_updated_data": "2026-05-24T23:28:17Z",
  "league": {
    "admin_entry": null,
    "closed": false,
    "code_privacy": "p",
    "created": "2025-07-20T23:14:33.933835Z",
    "cup_league": 2815434,
    "has_cup": true,
    "id": 314,
    "league_type": "s",
    "max_entries": null,
    "name": "Overall",
    "rank": null,
    "scoring": "c",
    "start_event": 1
  },
  "new_entries": {
    "has_next": false,
    "page": 1,
    "results": []
  },
  "standings": {
    "has_next": true,
    "page": 863,
    "results": [
      {
        "club_badge_src": null,
        "entry": 977400,
        "entry_name": "MOOCHIE'S MUCHACHOS",
        "event_total": 55,
        "has_played": true,
        "id": 6738218,
        "last_rank": 40647,
        "player_name": "Mark Mezzabotta",
        "rank": 43046,
        "rank_sort": 43101,
        "total": 2357
      },
      {
        "club_badge_src": "https://fantasy.premierleague.com/gcs/plfpl-production-adobe-approved/plfpl-production/1029616/f43788ae-872f-4881-a40e-31b3459c8cd1.png",
        "entry": 1029616,
        "entry_name": "Dis n Dat",
        "event_total": 66,
        "has_played": true,
        "id": 7123674,
        "last_rank": 50468,
        "player_name": "Gary Cullinan",
        "rank": 43046,
        "rank_sort": 43102,
        "total": 2357
      },
      {
        "club_badge_src": "https://fantasy.premierleague.com/gcs/plfpl-production-adobe-approved/plfpl-production/1055303/805e8684-7755-417f-a859-860cc6c51f66.png",
        "entry": 1055303,
        "entry_name": "Gadovete v2",
        "event_total": 68,
        "has_played": true,
        "id": 7303316,
        "last_rank": 60671,
        "player_name": "Yani Buliev",
        "rank": 43046,
        "rank_sort": 43103,
        "total": 2357
      },
      {
        "club_badge_src": null,
        "entry": 1056823,
        "entry_name": "Mid-table Mediocrity",
        "event_total": 60,
        "has_played": true,
        "id": 7313762,
        "last_rank": 47596,
        "player_name": "Midfield General",
        "rank": 43046,
        "rank_sort": 43104,
        "total": 2357
      },
      {
        "club_badge_src": "https://fantasy.premierleague.com/gcs/plfpl-production-adobe-approved/plfpl-production/1074576/e27f85ea-d288-4e6e-9fb4-c999b0c917c4.png",
        "entry": 1074576,
        "entry_name": "TRIPLE V",
        "event_total": 68,
        "has_played": true,
        "id": 7439455,
        "last_rank": 60671,
        "player_name": "Haouli Alii",
        "rank": 43046,
        "rank_sort": 43105,
        "total": 2357
      },
      {
        "club_badge_src": null,
        "entry": 1138380,
        "entry_name": "Hakunamatata",
        "event_total": 47,
        "has_played": true,
        "id": 7890974,
        "last_rank": 31236,
        "player_name": "Dega Radana Juzar",
        "rank": 43046,
        "rank_sort": 43106,
        "total": 2357
      },
      {
        "club_badge_src": null,
        "entry": 1181967,
        "entry_name": "Buckstars",
        "event_total": 57,
        "has_played": true,
        "id": 8200708,
        "last_rank": 43342,
        "player_name": "Mr Buckner",
        "rank": 43046,
        "rank_sort": 43107,
        "total": 2357
      },
      {
        "club_badge_src": null,
        "entry": 1218800,
        "entry_name": "WheresTheLahmSauce",
        "event_total": 66,
        "has_played": true,
        "id": 8461115,
        "last_rank": 57200,
        "player_name": "James Moody",
        "rank": 43046,
        "rank_sort": 43108,
        "total": 2357
      },
      {
        "club_badge_src": "https://fantasy.premierleague.com/gcs/plfpl-production-adobe-approved/plfpl-production/1221768/3cabfd3d-24ae-4414-94ae-5d778f6f3280.png",
        "entry": 1221768,
        "entry_name": "Manchester is red",
        "event_total": 63,
        "has_played": true,
        "id": 8482429,
        "last_rank": 52205,
        "player_name": "Henry Ho",
        "rank": 43046,
        "rank_sort": 43109,
        "total": 2357
      },
      {
        "club_badge_src": null,
        "entry": 1228858,
        "entry_name": "Vardy Boys",
        "event_total": 57,
        "has_played": true,
        "id": 8532726,
        "last_rank": 43342,
        "player_name": "Dave Newton",
        "rank": 43046,
        "rank_sort": 43110,
        "total": 2357
      },
      {
        "club_badge_src": "https://fantasy.premierleague.com/gcs/plfpl-production-adobe-approved/plfpl-production/1292830/ba1b364b-36ab-4478-8b25-cca09050ea93.png",
        "entry": 1292830,
        "entry_name": "\ufffdAbo\ufffdSedra",
        "event_total": 65,
        "has_played": true,
        "id": 8983703,
        "last_rank": 55514,
        "player_name": "Ali Wassal",
        "rank": 43046,
        "rank_sort": 43111,
        "total": 2357
      },
      {
        "club_badge_src": null,
        "entry": 1399017,
        "entry_name": "Jeremie Pingpong",
        "event_total": 64,
        "has_played": true,
        "id": 9733242,
        "last_rank": 47417,
        "player_name": "Adam Thackeray",
        "rank": 43046,
        "rank_sort": 43112,
        "total": 2357
      },
      {
        "club_badge_src": null,
        "entry": 1427658,
        "entry_name": "The Champ is Here",
        "event_total": 68,
        "has_played": true,
        "id": 9947598,
        "last_rank": 53345,
        "player_name": "shafiq nassar",
        "rank": 43046,
        "rank_sort": 43113,
        "total": 2357
      },
      {
        "club_badge_src": null,
        "entry": 1450911,
        "entry_name": "swimstones.com",
        "event_total": 73,
        "has_played": true,
        "id": 10110002,
        "last_rank": 70072,
        "player_name": "Paul Carruthers",
        "rank": 43046,
        "rank_sort": 43114,
        "total": 2357
      },
      {
        "club_badge_src": null,
        "entry": 1461409,
        "entry_name": "tikka mosalah",
        "event_total": 39,
        "has_played": true,
        "id": 10186803,
        "last_rank": 23748,
        "player_name": "David Griffiths",
        "rank": 43046,
        "rank_sort": 43115,
        "total": 2357
      },
      {
        "club_badge_src": null,
        "entry": 1536259,
        "entry_name": "Cold Estrella",
        "event_total": 70,
        "has_played": true,
        "id": 10721239,
        "last_rank": 56369,
        "player_name": "Richard Tidemann Havdahl",
        "rank": 43046,
        "rank_sort": 43116,
        "total": 2357
      },
      {
        "club_badge_src": null,
        "entry": 1597658,
        "entry_name": "Dorquay United",
        "event_total": 78,
        "has_played": true,
        "id": 11176422,
        "last_rank": 80651,
        "player_name": "Louis Bainbridge",
        "rank": 43046,
        "rank_sort": 43117,
        "total": 2357
      },
      {
        "club_badge_src": null,
        "entry": 1631617,
        "entry_name": "mynameisphil",
        "event_total": 64,
        "has_played": true,
        "id": 11420341,
        "last_rank": 47163,
        "player_name": "Philip Davies",
        "rank": 43046,
        "rank_sort": 43118,
        "total": 2357
      },
      {
        "club_badge_src": null,
        "entry": 1682955,
        "entry_name": "Lawu",
        "event_total": 58,
        "has_played": true,
        "id": 11781189,
        "last_rank": 44672,
        "player_name": "Mukhlis Setyawan",
        "rank": 43046,
        "rank_sort": 43119,
        "total": 2357
      },
      {
        "club_badge_src": null,
        "entry": 1706585,
        "entry_name": "Asmit XI",
        "event_total": 75,
        "has_played": true,
        "id": 11955856,
        "last_rank": 73720,
        "player_name": "Asmit Shrestha",
        "rank": 43046,
        "rank_sort": 43120,
        "total": 2357
      },
      {
        "club_badge_src": null,
        "entry": 1802552,
        "entry_name": "Im sorry Nic Jackson",
        "event_total": 66,
        "has_played": true,
        "id": 12671742,
        "last_rank": 50468,
        "player_name": "Will Grinsted",
        "rank": 43046,
        "rank_sort": 43121,
        "total": 2357
      },
      {
        "club_badge_src": null,
        "entry": 1806402,
        "entry_name": "Il Magnifico",
        "event_total": 50,
        "has_played": true,
        "id": 12699535,
        "last_rank": 30060,
        "player_name": "Vintage Dirac",
        "rank": 43046,
        "rank_sort": 43122,
        "total": 2357
      },
      {
        "club_badge_src": null,
        "entry": 1834629,
        "entry_name": "La Vie en Goal",
        "event_total": 57,
        "has_played": true,
        "id": 12905896,
        "last_rank": 38016,
        "player_name": "Malene Ravn",
        "rank": 43046,
        "rank_sort": 43123,
        "total": 2357
      },
      {
        "club_badge_src": "https://fantasy.premierleague.com/gcs/plfpl-production-adobe-approved/plfpl-production/1888435/3aa122cf-3ad9-42cd-849f-bd335116a7b9.png",
        "entry": 1888435,
        "entry_name": "Famous Last Wirtz",
        "event_total": 50,
        "has_played": true,
        "id": 13308881,
        "last_rank": 34578,
        "player_name": "Jeremy Gardner",
        "rank": 43046,
        "rank_sort": 43124,
        "total": 2357
      },
      {
        "club_badge_src": "https://fantasy.premierleague.com/gcs/plfpl-production-adobe-approved/plfpl-production/1926266/b7ab001e-beee-4ca9-9de6-2164c537da07.png",
        "entry": 1926266,
        "entry_name": "Sh\u014dg\u00fbn",
        "event_total": 58,
        "has_played": true,
        "id": 13584992,
        "last_rank": 33936,
        "player_name": "Islam Mahran",
        "rank": 43046,
        "rank_sort": 43125,
        "total": 2357
      },
      {
        "club_badge_src": null,
        "entry": 2038529,
        "entry_name": "Zincredible FC",
        "event_total": 57,
        "has_played": true,
        "id": 14435408,
        "last_rank": 43342,
        "player_name": "Rudy Susanto",
        "rank": 43046,
        "rank_sort": 43126,
        "total": 2357
      },
      {
        "club_badge_src": null,
        "entry": 2131961,
        "entry_name": "Can't Be Any Wirtz",
        "event_total": 45,
        "has_played": true,
        "id": 15150168,
        "last_rank": 25330,
        "player_name": "Matty Grant",
        "rank": 43046,
        "rank_sort": 43127,
        "total": 2357
      },
      {
        "club_badge_src": null,
        "entry": 2174965,
        "entry_name": "Die Roten G\u00f6the",
        "event_total": 60,
        "has_played": true,
        "id": 15465599,
        "last_rank": 47596,
        "player_name": "Tobias H\u00e4rd",
        "rank": 43046,
        "rank_sort": 43128,
        "total": 2357
      },
      {
        "club_badge_src": "https://fantasy.premierleague.com/gcs/plfpl-production-adobe-approved/plfpl-production/2188573/d74d85d3-1424-4913-b5db-ab76fd237cab.png",
        "entry": 2188573,
        "entry_name": "It Weiss one of yas",
        "event_total": 58,
        "has_played": true,
        "id": 15569670,
        "last_rank": 39246,
        "player_name": "Mr Baggals",
        "rank": 43046,
        "rank_sort": 43129,
        "total": 2357
      },
      {
        "club_badge_src": "https://fantasy.premierleague.com/gcs/plfpl-production-adobe-approved/plfpl-production/2196790/883ec89a-67d5-406f-b2eb-ff26ffe2617e.png",
        "entry": 2196790,
        "entry_name": "Lajinsa viimeinen",
        "event_total": 44,
        "has_played": true,
        "id": 15631161,
        "last_rank": 24475,
        "player_name": "Antti Leppilampi",
        "rank": 43046,
        "rank_sort": 43130,
        "total": 2357
      },
      {
        "club_badge_src": null,
        "entry": 2199348,
        "entry_name": "Soul reading you",
        "event_total": 58,
        "has_played": true,
        "id": 15650239,
        "last_rank": 44525,
        "player_name": "Sean Tan",
        "rank": 43046,
        "rank_sort": 43131,
        "total": 2357
      },
      {
        "club_badge_src": null,
        "entry": 2213660,
        "entry_name": "A.M.M.O.R.Y",
        "event_total": 48,
        "has_played": true,
        "id": 15764146,
        "last_rank": 32335,
        "player_name": "Ammar Emad",
        "rank": 43046,
        "rank_sort": 43132,
        "total": 2357
      },
      {
        "club_badge_src": "https://fantasy.premierleague.com/gcs/plfpl-production-adobe-approved/plfpl-production/2268799/638c6470-3b6a-43b2-b385-a7d85d49cba6.png",
        "entry": 2268799,
        "entry_name": "BAUWA & CHAUBEY UTD",
        "event_total": 55,
        "has_played": true,
        "id": 16177633,
        "last_rank": 35619,
        "player_name": "Pankaj Chaubey",
        "rank": 43046,
        "rank_sort": 43133,
        "total": 2357
      },
      {
        "club_badge_src": "https://fantasy.premierleague.com/gcs/plfpl-production-adobe-approved/plfpl-production/2638145/727ad24e-816d-46cd-af25-b24fb8ecda33.png",
        "entry": 2638145,
        "entry_name": "Mourad Wolf \u27a1\ufe0f\ufffd",
        "event_total": 63,
        "has_played": true,
        "id": 18960673,
        "last_rank": 45927,
        "player_name": "Mourad DG",
        "rank": 43046,
        "rank_sort": 43134,
        "total": 2357
      },
      {
        "club_badge_src": null,
        "entry": 2714891,
        "entry_name": "Reece's Pieces",
        "event_total": 63,
        "has_played": true,
        "id": 19534014,
        "last_rank": 40297,
        "player_name": "Henry Blears",
        "rank": 43046,
        "rank_sort": 43135,
        "total": 2357
      },
      {
        "club_badge_src": null,
        "entry": 2799082,
        "entry_name": "benny",
        "event_total": 61,
        "has_played": true,
        "id": 20439524,
        "last_rank": 43168,
        "player_name": "Bernardo Gorj\u00e3o",
        "rank": 43046,
        "rank_sort": 43136,
        "total": 2357
      },
      {
        "club_badge_src": null,
        "entry": 2828218,
        "entry_name": "Pumb@ FC",
        "event_total": 57,
        "has_played": true,
        "id": 20665477,
        "last_rank": 43342,
        "player_name": "Nikola Stojanoski",
        "rank": 43046,
        "rank_sort": 43137,
        "total": 2357
      },
      {
        "club_badge_src": "https://fantasy.premierleague.com/gcs/plfpl-production-adobe-approved/plfpl-production/3014486/13b46fe1-ae16-49d7-9ca3-34c05111a2b8.png",
        "entry": 3014486,
        "entry_name": "\u0160uflikanti",
        "event_total": 75,
        "has_played": true,
        "id": 22177262,
        "last_rank": 73975,
        "player_name": "Martin \u0160ufliarsk\u00fd",
        "rank": 43046,
        "rank_sort": 43138,
        "total": 2357
      },
      {
        "club_badge_src": null,
        "entry": 3035669,
        "entry_name": "RooooonDog XI",
        "event_total": 71,
        "has_played": true,
        "id": 22341463,
        "last_rank": 58688,
        "player_name": "Jason Simaan",
        "rank": 43046,
        "rank_sort": 43139,
        "total": 2357
      },
      {
        "club_badge_src": null,
        "entry": 3044642,
        "entry_name": "Reis FC",
        "event_total": 79,
        "has_played": true,
        "id": 22411230,
        "last_rank": 81646,
        "player_name": "Francisco Reis",
        "rank": 43046,
        "rank_sort": 43140,
        "total": 2357
      },
      {
        "club_badge_src": null,
        "entry": 3135567,
        "entry_name": "Enter Shaqiri",
        "event_total": 76,
        "has_played": true,
        "id": 23145717,
        "last_rank": 67422,
        "player_name": "Patrick Hannity",
        "rank": 43046,
        "rank_sort": 43141,
        "total": 2357
      },
      {
        "club_badge_src": null,
        "entry": 3177396,
        "entry_name": "keep da faith",
        "event_total": 63,
        "has_played": true,
        "id": 23478294,
        "last_rank": 45927,
        "player_name": "Joseph Marshall",
        "rank": 43046,
        "rank_sort": 43142,
        "total": 2357
      },
      {
        "club_badge_src": null,
        "entry": 3223867,
        "entry_name": "Tuggers Fellas",
        "event_total": 50,
        "has_played": true,
        "id": 23840679,
        "last_rank": 30060,
        "player_name": "Edd Lumby",
        "rank": 43046,
        "rank_sort": 43143,
        "total": 2357
      },
      {
        "club_badge_src": null,
        "entry": 3344499,
        "entry_name": "T-bag Bagwell",
        "event_total": 72,
        "has_played": true,
        "id": 24808491,
        "last_rank": 60168,
        "player_name": "Benjamin Orme",
        "rank": 43046,
        "rank_sort": 43144,
        "total": 2357
      },
      {
        "club_badge_src": null,
        "entry": 3425855,
        "entry_name": "KELLYS KINGS FC",
        "event_total": 81,
        "has_played": true,
        "id": 25448956,
        "last_rank": 68957,
        "player_name": "Ryan Kelly",
        "rank": 43046,
        "rank_sort": 43145,
        "total": 2357
      },
      {
        "club_badge_src": null,
        "entry": 3472307,
        "entry_name": "FC Pihatontut",
        "event_total": 51,
        "has_played": true,
        "id": 25815204,
        "last_rank": 35768,
        "player_name": "Petri Nokkala",
        "rank": 43046,
        "rank_sort": 43146,
        "total": 2357
      },
      {
        "club_badge_src": null,
        "entry": 3742915,
        "entry_name": "Stuffers",
        "event_total": 60,
        "has_played": true,
        "id": 27940635,
        "last_rank": 41617,
        "player_name": "Martin Smith",
        "rank": 43046,
        "rank_sort": 43147,
        "total": 2357
      },
      {
        "club_badge_src": null,
        "entry": 3811366,
        "entry_name": "It could be Wirtz",
        "event_total": 58,
        "has_played": true,
        "id": 28499096,
        "last_rank": 44672,
        "player_name": "Cosmo Khan",
        "rank": 43046,
        "rank_sort": 43148,
        "total": 2357
      },
      {
        "club_badge_src": null,
        "entry": 3812059,
        "entry_name": "Kitae",
        "event_total": 57,
        "has_played": true,
        "id": 28504822,
        "last_rank": 43342,
        "player_name": "Kitae Nam",
        "rank": 43046,
        "rank_sort": 43149,
        "total": 2357
      },
      {
        "club_badge_src": "https://fantasy.premierleague.com/gcs/plfpl-production-adobe-approved/plfpl-production/3907671/ff128c67-d839-42d0-8c53-d52bc6794d2b.png",
        "entry": 3907671,
        "entry_name": "Gerradus bernadus",
        "event_total": 50,
        "has_played": true,
        "id": 29378564,
        "last_rank": 30060,
        "player_name": "Marcus Helmer Volbroek",
        "rank": 43046,
        "rank_sort": 43150,
        "total": 2357
      }
    ]
  }
}