{
  "last_updated_data": "2026-05-24T23:28:17Z",
  "league": {
    "admin_entry": null,
    "closed": false,
    "code_privacy": "p",
    "created": "2025-07-20T23:14:33.933835Z",
    "cup_league": 2815434,
    "has_cup": true,
    "id": 314,
    "league_type": "s",
    "max_entries": null,
    "name": "Overall",
    "rank": null,
    "scoring": "c",
    "start_event": 1
  },
  "new_entries": {
    "has_next": false,
    "page": 1,
    "results": []
  },
  "standings": {
    "has_next": true,
    "page": 408,
    "results": [
      {
        "club_badge_src": null,
        "entry": 323289,
        "entry_name": "M'name is SlimSchade",
        "event_total": 52,
        "has_played": true,
        "id": 2166453,
        "last_rank": 16567,
        "player_name": "J McEwan",
        "rank": 20342,
        "rank_sort": 20351,
        "total": 2380
      },
      {
        "club_badge_src": "https://fantasy.premierleague.com/gcs/plfpl-production-adobe-approved/plfpl-production/438719/8cecbee1-f739-48f6-81e5-33711effdfe2.png",
        "entry": 438719,
        "entry_name": "Wembley was EZE!",
        "event_total": 45,
        "has_played": true,
        "id": 2941942,
        "last_rank": 12512,
        "player_name": "Lewis Wadd",
        "rank": 20342,
        "rank_sort": 20352,
        "total": 2380
      },
      {
        "club_badge_src": "https://fantasy.premierleague.com/gcs/plfpl-production-adobe-approved/plfpl-production/468741/d0b517cd-766d-4d20-a446-f18654e354c2.png",
        "entry": 468741,
        "entry_name": "Of Rice and Men",
        "event_total": 60,
        "has_played": true,
        "id": 3145931,
        "last_rank": 16320,
        "player_name": "Michael Wren",
        "rank": 20342,
        "rank_sort": 20353,
        "total": 2380
      },
      {
        "club_badge_src": null,
        "entry": 521835,
        "entry_name": "Now im a Beleba",
        "event_total": 66,
        "has_played": true,
        "id": 3504646,
        "last_rank": 27364,
        "player_name": "ollie grizzell",
        "rank": 20342,
        "rank_sort": 20354,
        "total": 2380
      },
      {
        "club_badge_src": null,
        "entry": 549728,
        "entry_name": "Minstermen XI",
        "event_total": 66,
        "has_played": true,
        "id": 3699495,
        "last_rank": 23748,
        "player_name": "Matthew Dixon",
        "rank": 20342,
        "rank_sort": 20355,
        "total": 2380
      },
      {
        "club_badge_src": "https://fantasy.premierleague.com/gcs/plfpl-production-adobe-approved/plfpl-production/576689/00e7e222-ab0d-47a3-a4e2-f4086e5e9a47.png",
        "entry": 576689,
        "entry_name": "Kill 'Em All",
        "event_total": 68,
        "has_played": true,
        "id": 3880566,
        "last_rank": 29279,
        "player_name": "James Peters",
        "rank": 20342,
        "rank_sort": 20356,
        "total": 2380
      },
      {
        "club_badge_src": null,
        "entry": 579984,
        "entry_name": "Swansizzle My Nizzle",
        "event_total": 68,
        "has_played": true,
        "id": 3902740,
        "last_rank": 22064,
        "player_name": "Adam John",
        "rank": 20342,
        "rank_sort": 20357,
        "total": 2380
      },
      {
        "club_badge_src": null,
        "entry": 593007,
        "entry_name": "Slimes",
        "event_total": 56,
        "has_played": true,
        "id": 3996077,
        "last_rank": 16512,
        "player_name": "Nozz Kiev",
        "rank": 20342,
        "rank_sort": 20358,
        "total": 2380
      },
      {
        "club_badge_src": null,
        "entry": 659664,
        "entry_name": "Kiddi Casio",
        "event_total": 57,
        "has_played": true,
        "id": 4458212,
        "last_rank": 19904,
        "player_name": "\u00de\u00f3rarinn Stef\u00e1nsson",
        "rank": 20342,
        "rank_sort": 20359,
        "total": 2380
      },
      {
        "club_badge_src": null,
        "entry": 732718,
        "entry_name": "Shorrock Slayer",
        "event_total": 56,
        "has_played": true,
        "id": 4979196,
        "last_rank": 16512,
        "player_name": "Maurice Atkinson",
        "rank": 20342,
        "rank_sort": 20360,
        "total": 2380
      },
      {
        "club_badge_src": null,
        "entry": 740901,
        "entry_name": "DNA",
        "event_total": 50,
        "has_played": true,
        "id": 5038182,
        "last_rank": 15280,
        "player_name": "DIPIN GEORGE",
        "rank": 20342,
        "rank_sort": 20361,
        "total": 2380
      },
      {
        "club_badge_src": "https://fantasy.premierleague.com/gcs/plfpl-production-adobe-approved/plfpl-production/804985/d289b68f-edf8-4a0e-9263-98dd9f3e16bb.png",
        "entry": 804985,
        "entry_name": "Kruso BoIS",
        "event_total": 63,
        "has_played": true,
        "id": 5510466,
        "last_rank": 24570,
        "player_name": "Simon Fredriksson",
        "rank": 20342,
        "rank_sort": 20362,
        "total": 2380
      },
      {
        "club_badge_src": null,
        "entry": 931206,
        "entry_name": "BlueMist",
        "event_total": 68,
        "has_played": true,
        "id": 6407572,
        "last_rank": 25436,
        "player_name": "Hotan Nejad",
        "rank": 20342,
        "rank_sort": 20363,
        "total": 2380
      },
      {
        "club_badge_src": null,
        "entry": 963106,
        "entry_name": "memo",
        "event_total": 82,
        "has_played": true,
        "id": 6637162,
        "last_rank": 46106,
        "player_name": "Ahmed Elsayed",
        "rank": 20342,
        "rank_sort": 20364,
        "total": 2380
      },
      {
        "club_badge_src": null,
        "entry": 1218524,
        "entry_name": "BOSHH",
        "event_total": 54,
        "has_played": true,
        "id": 8458902,
        "last_rank": 17848,
        "player_name": "Lucas Palmer",
        "rank": 20342,
        "rank_sort": 20365,
        "total": 2380
      },
      {
        "club_badge_src": null,
        "entry": 1436810,
        "entry_name": "Rutter woke nonsense",
        "event_total": 58,
        "has_played": true,
        "id": 10011650,
        "last_rank": 20678,
        "player_name": "Thomas Starr",
        "rank": 20342,
        "rank_sort": 20366,
        "total": 2380
      },
      {
        "club_badge_src": "https://fantasy.premierleague.com/gcs/plfpl-production-adobe-approved/plfpl-production/1705242/adcdfe82-237c-4836-a071-1bdb99ec77ba.png",
        "entry": 1705242,
        "entry_name": "NdiayeYourEyesMate",
        "event_total": 63,
        "has_played": true,
        "id": 11945962,
        "last_rank": 21392,
        "player_name": "David Lloyd",
        "rank": 20342,
        "rank_sort": 20367,
        "total": 2380
      },
      {
        "club_badge_src": "https://fantasy.premierleague.com/gcs/plfpl-production-adobe-approved/plfpl-production/2388574/1cee4a72-268f-44ad-a413-31ff9cf29054.png",
        "entry": 2388574,
        "entry_name": "BAFC Ultras",
        "event_total": 56,
        "has_played": true,
        "id": 17060888,
        "last_rank": 16512,
        "player_name": "Carl Roberts",
        "rank": 20342,
        "rank_sort": 20368,
        "total": 2380
      },
      {
        "club_badge_src": null,
        "entry": 2562556,
        "entry_name": "Gnonto The Next One",
        "event_total": 55,
        "has_played": true,
        "id": 18379742,
        "last_rank": 18520,
        "player_name": "Charlie Ward",
        "rank": 20342,
        "rank_sort": 20369,
        "total": 2380
      },
      {
        "club_badge_src": null,
        "entry": 2831032,
        "entry_name": "Saintless",
        "event_total": 44,
        "has_played": true,
        "id": 20687104,
        "last_rank": 11957,
        "player_name": "Tommy Larsen",
        "rank": 20342,
        "rank_sort": 20370,
        "total": 2380
      },
      {
        "club_badge_src": null,
        "entry": 2925028,
        "entry_name": "Botman & the Gy\u00f6ker",
        "event_total": 57,
        "has_played": true,
        "id": 21443298,
        "last_rank": 19904,
        "player_name": "Leon Turrell",
        "rank": 20342,
        "rank_sort": 20371,
        "total": 2380
      },
      {
        "club_badge_src": null,
        "entry": 3195270,
        "entry_name": "Anyone But Ridwan",
        "event_total": 60,
        "has_played": true,
        "id": 23617414,
        "last_rank": 16320,
        "player_name": "Zeshan Akram",
        "rank": 20342,
        "rank_sort": 20372,
        "total": 2380
      },
      {
        "club_badge_src": null,
        "entry": 3208409,
        "entry_name": "RAINY DAY CORP BRRR",
        "event_total": 51,
        "has_played": true,
        "id": 23719851,
        "last_rank": 15920,
        "player_name": "big birds",
        "rank": 20342,
        "rank_sort": 20373,
        "total": 2380
      },
      {
        "club_badge_src": null,
        "entry": 3229883,
        "entry_name": "MosiPompie",
        "event_total": 52,
        "has_played": true,
        "id": 23887299,
        "last_rank": 16567,
        "player_name": "Mosi Pompie",
        "rank": 20342,
        "rank_sort": 20374,
        "total": 2380
      },
      {
        "club_badge_src": null,
        "entry": 3278460,
        "entry_name": "odys oddballs",
        "event_total": 65,
        "has_played": true,
        "id": 24265402,
        "last_rank": 26425,
        "player_name": "Michael O'Dwyer",
        "rank": 20342,
        "rank_sort": 20375,
        "total": 2380
      },
      {
        "club_badge_src": null,
        "entry": 3373803,
        "entry_name": "FC Stenari",
        "event_total": 76,
        "has_played": true,
        "id": 25040209,
        "last_rank": 38163,
        "player_name": "Tuukka Kilpinen",
        "rank": 20342,
        "rank_sort": 20376,
        "total": 2380
      },
      {
        "club_badge_src": null,
        "entry": 4339758,
        "entry_name": "mogtba S",
        "event_total": 83,
        "has_played": true,
        "id": 32949154,
        "last_rank": 47596,
        "player_name": "Mo- gb gb",
        "rank": 20342,
        "rank_sort": 20377,
        "total": 2380
      },
      {
        "club_badge_src": null,
        "entry": 4400956,
        "entry_name": "Never had chips",
        "event_total": 54,
        "has_played": true,
        "id": 33470199,
        "last_rank": 15226,
        "player_name": "Beanie Rausch",
        "rank": 20342,
        "rank_sort": 20378,
        "total": 2380
      },
      {
        "club_badge_src": "https://fantasy.premierleague.com/gcs/plfpl-production-adobe-approved/plfpl-production/4479308/1cbe367d-bb8c-415c-b60e-c3cf88c734df.png",
        "entry": 4479308,
        "entry_name": "Atomic Gittens",
        "event_total": 59,
        "has_played": true,
        "id": 34137984,
        "last_rank": 21450,
        "player_name": "Thomas Ellard",
        "rank": 20342,
        "rank_sort": 20379,
        "total": 2380
      },
      {
        "club_badge_src": null,
        "entry": 4576063,
        "entry_name": "Therminator BK",
        "event_total": 68,
        "has_played": true,
        "id": 34928657,
        "last_rank": 25436,
        "player_name": "Filip Algeman",
        "rank": 20342,
        "rank_sort": 20380,
        "total": 2380
      },
      {
        "club_badge_src": null,
        "entry": 4775493,
        "entry_name": "From Bad to Wirtz",
        "event_total": 50,
        "has_played": true,
        "id": 36759943,
        "last_rank": 15226,
        "player_name": "Sean Tracey",
        "rank": 20342,
        "rank_sort": 20381,
        "total": 2380
      },
      {
        "club_badge_src": null,
        "entry": 5180447,
        "entry_name": "Keittomiehet",
        "event_total": 70,
        "has_played": true,
        "id": 40098676,
        "last_rank": 31309,
        "player_name": "Santeri Nurhonen",
        "rank": 20342,
        "rank_sort": 20382,
        "total": 2380
      },
      {
        "club_badge_src": null,
        "entry": 5292575,
        "entry_name": "Saints and Sinners",
        "event_total": 62,
        "has_played": true,
        "id": 41024595,
        "last_rank": 23820,
        "player_name": "Gavin Williams",
        "rank": 20342,
        "rank_sort": 20383,
        "total": 2380
      },
      {
        "club_badge_src": null,
        "entry": 5518995,
        "entry_name": "MAJOR LEAGUE SAKA",
        "event_total": 66,
        "has_played": true,
        "id": 43033029,
        "last_rank": 23748,
        "player_name": "Tola Balogun",
        "rank": 20342,
        "rank_sort": 20384,
        "total": 2380
      },
      {
        "club_badge_src": null,
        "entry": 5932690,
        "entry_name": "Who Ate Depays??",
        "event_total": 41,
        "has_played": true,
        "id": 46642488,
        "last_rank": 10651,
        "player_name": "Ceiron Williams",
        "rank": 20342,
        "rank_sort": 20385,
        "total": 2380
      },
      {
        "club_badge_src": null,
        "entry": 6691856,
        "entry_name": "Tommys 8oo8s",
        "event_total": 46,
        "has_played": true,
        "id": 53537127,
        "last_rank": 13033,
        "player_name": "Tommy Salmon",
        "rank": 20342,
        "rank_sort": 20386,
        "total": 2380
      },
      {
        "club_badge_src": "https://fantasy.premierleague.com/gcs/plfpl-production-adobe-approved/plfpl-production/7265608/6e31a17b-ce2f-4da0-9784-2ced7fca5c73.png",
        "entry": 7265608,
        "entry_name": "G00nz",
        "event_total": 50,
        "has_played": true,
        "id": 58752696,
        "last_rank": 15280,
        "player_name": "Mikesh Patel",
        "rank": 20342,
        "rank_sort": 20387,
        "total": 2380
      },
      {
        "club_badge_src": null,
        "entry": 8111280,
        "entry_name": "SGFC",
        "event_total": 60,
        "has_played": true,
        "id": 66905959,
        "last_rank": 22064,
        "player_name": "Stephen Groucott",
        "rank": 20342,
        "rank_sort": 20388,
        "total": 2380
      },
      {
        "club_badge_src": null,
        "entry": 8480319,
        "entry_name": "Cunha Dig it",
        "event_total": 52,
        "has_played": true,
        "id": 70443146,
        "last_rank": 14102,
        "player_name": "Anthony Florea",
        "rank": 20342,
        "rank_sort": 20389,
        "total": 2380
      },
      {
        "club_badge_src": "https://fantasy.premierleague.com/gcs/plfpl-production-adobe-approved/plfpl-production/17602/49f2fb76-561d-49c7-a53a-1c522bc95483.png",
        "entry": 17602,
        "entry_name": "Garrison Gunners",
        "event_total": 43,
        "has_played": true,
        "id": 109248,
        "last_rank": 9775,
        "player_name": "Phil Olorenshaw",
        "rank": 20390,
        "rank_sort": 20390,
        "total": 2380
      },
      {
        "club_badge_src": null,
        "entry": 27979,
        "entry_name": "El Taw7eed w ElNour",
        "event_total": 58,
        "has_played": true,
        "id": 176942,
        "last_rank": 15226,
        "player_name": "Nour Hany",
        "rank": 20390,
        "rank_sort": 20391,
        "total": 2380
      },
      {
        "club_badge_src": "https://fantasy.premierleague.com/gcs/plfpl-production-adobe-approved/plfpl-production/68026/35975333-35dd-4e92-954e-a08462fb1eb2.png",
        "entry": 68026,
        "entry_name": "Whiskey Fever",
        "event_total": 69,
        "has_played": true,
        "id": 440647,
        "last_rank": 30325,
        "player_name": "Marko Jovanovic",
        "rank": 20390,
        "rank_sort": 20392,
        "total": 2380
      },
      {
        "club_badge_src": "https://fantasy.premierleague.com/gcs/plfpl-production-adobe-approved/plfpl-production/223276/66697b8a-9953-48bf-8caf-39c5715097f5.png",
        "entry": 223276,
        "entry_name": "Salah Vie",
        "event_total": 40,
        "has_played": true,
        "id": 1485246,
        "last_rank": 7237,
        "player_name": "Rob Swainson",
        "rank": 20390,
        "rank_sort": 20393,
        "total": 2380
      },
      {
        "club_badge_src": null,
        "entry": 422829,
        "entry_name": "Struijk me faster",
        "event_total": 64,
        "has_played": true,
        "id": 2833515,
        "last_rank": 25517,
        "player_name": "James Murkin",
        "rank": 20390,
        "rank_sort": 20394,
        "total": 2380
      },
      {
        "club_badge_src": "https://fantasy.premierleague.com/gcs/plfpl-production-adobe-approved/plfpl-production/570025/d4da2d19-d892-4364-976d-e43a82f43ad1.png",
        "entry": 570025,
        "entry_name": "bouleVARdiers",
        "event_total": 62,
        "has_played": true,
        "id": 3836473,
        "last_rank": 23748,
        "player_name": "Rasmus Kraglund Bagge",
        "rank": 20390,
        "rank_sort": 20395,
        "total": 2380
      },
      {
        "club_badge_src": null,
        "entry": 826032,
        "entry_name": "\u0627\u0644\u0645\u062f\u0641\u0639\u062c\u064a",
        "event_total": 57,
        "has_played": true,
        "id": 5657488,
        "last_rank": 14668,
        "player_name": "Mohamed Nashat",
        "rank": 20390,
        "rank_sort": 20396,
        "total": 2380
      },
      {
        "club_badge_src": null,
        "entry": 848224,
        "entry_name": "Fail",
        "event_total": 58,
        "has_played": true,
        "id": 5813445,
        "last_rank": 15226,
        "player_name": "Sidharth Shanon",
        "rank": 20390,
        "rank_sort": 20397,
        "total": 2380
      },
      {
        "club_badge_src": "https://fantasy.premierleague.com/gcs/plfpl-production-adobe-approved/plfpl-production/897385/a1a985cf-d337-468d-82ae-1503fcc85d75.png",
        "entry": 897385,
        "entry_name": "Gerhardinho FC",
        "event_total": 79,
        "has_played": true,
        "id": 6165534,
        "last_rank": 32335,
        "player_name": "Kjetil Gerhardsen",
        "rank": 20390,
        "rank_sort": 20398,
        "total": 2380
      },
      {
        "club_badge_src": null,
        "entry": 932116,
        "entry_name": "FC Haram Ball",
        "event_total": 47,
        "has_played": true,
        "id": 6413894,
        "last_rank": 13629,
        "player_name": "Akshat Arya",
        "rank": 20390,
        "rank_sort": 20399,
        "total": 2380
      },
      {
        "club_badge_src": null,
        "entry": 1449146,
        "entry_name": "Rezx",
        "event_total": 59,
        "has_played": true,
        "id": 10097763,
        "last_rank": 21486,
        "player_name": "Riyadh Alhudithi",
        "rank": 20390,
        "rank_sort": 20400,
        "total": 2380
      }
    ]
  }
}