{
  "last_updated_data": "2026-05-24T23:28:17Z",
  "league": {
    "admin_entry": null,
    "closed": false,
    "code_privacy": "p",
    "created": "2025-07-20T23:14:33.933835Z",
    "cup_league": 2815434,
    "has_cup": true,
    "id": 314,
    "league_type": "s",
    "max_entries": null,
    "name": "Overall",
    "rank": null,
    "scoring": "c",
    "start_event": 1
  },
  "new_entries": {
    "has_next": false,
    "page": 1,
    "results": []
  },
  "standings": {
    "has_next": true,
    "page": 1402,
    "results": [
      {
        "club_badge_src": null,
        "entry": 7769155,
        "entry_name": "PuLga",
        "event_total": 51,
        "has_played": true,
        "id": 63795435,
        "last_rank": 60168,
        "player_name": "Mohammad Alenezi",
        "rank": 69708,
        "rank_sort": 70051,
        "total": 2340
      },
      {
        "club_badge_src": null,
        "entry": 7772177,
        "entry_name": "CuCuPella",
        "event_total": 55,
        "has_played": true,
        "id": 63822615,
        "last_rank": 67422,
        "player_name": "Pelle Van Dessel",
        "rank": 69708,
        "rank_sort": 70052,
        "total": 2340
      },
      {
        "club_badge_src": null,
        "entry": 7863452,
        "entry_name": "Don'tTalkAbout Bruno",
        "event_total": 77,
        "has_played": true,
        "id": 64654269,
        "last_rank": 120941,
        "player_name": "Dhilan Desor",
        "rank": 69708,
        "rank_sort": 70053,
        "total": 2340
      },
      {
        "club_badge_src": null,
        "entry": 7950800,
        "entry_name": "PepGuaransiOngkir",
        "event_total": 60,
        "has_played": true,
        "id": 65446679,
        "last_rank": 77258,
        "player_name": "Donny Theo",
        "rank": 69708,
        "rank_sort": 70054,
        "total": 2340
      },
      {
        "club_badge_src": null,
        "entry": 7990415,
        "entry_name": "rami",
        "event_total": 47,
        "has_played": true,
        "id": 65798432,
        "last_rank": 53345,
        "player_name": "Rami Alrasasi",
        "rank": 69708,
        "rank_sort": 70055,
        "total": 2340
      },
      {
        "club_badge_src": null,
        "entry": 7993221,
        "entry_name": "HHurricanes",
        "event_total": 68,
        "has_played": true,
        "id": 65823209,
        "last_rank": 95527,
        "player_name": "Ramesh Malik",
        "rank": 69708,
        "rank_sort": 70056,
        "total": 2340
      },
      {
        "club_badge_src": null,
        "entry": 8160225,
        "entry_name": "Kinder Mbeumo",
        "event_total": 73,
        "has_played": true,
        "id": 67363563,
        "last_rank": 108496,
        "player_name": "Christoph Liebl",
        "rank": 69708,
        "rank_sort": 70057,
        "total": 2340
      },
      {
        "club_badge_src": null,
        "entry": 8164867,
        "entry_name": "Peak Pep",
        "event_total": 50,
        "has_played": true,
        "id": 67406860,
        "last_rank": 58071,
        "player_name": "Nasser A",
        "rank": 69708,
        "rank_sort": 70058,
        "total": 2340
      },
      {
        "club_badge_src": null,
        "entry": 8220355,
        "entry_name": "Team Elias",
        "event_total": 49,
        "has_played": true,
        "id": 67933881,
        "last_rank": 56180,
        "player_name": "Lene Vasland",
        "rank": 69708,
        "rank_sort": 70059,
        "total": 2340
      },
      {
        "club_badge_src": null,
        "entry": 8252470,
        "entry_name": "Raya Sunshine",
        "event_total": 63,
        "has_played": true,
        "id": 68247654,
        "last_rank": 83934,
        "player_name": "Swarika Ghimire",
        "rank": 69708,
        "rank_sort": 70060,
        "total": 2340
      },
      {
        "club_badge_src": "https://fantasy.premierleague.com/gcs/plfpl-production-adobe-approved/plfpl-production/8404610/4048dc7f-521b-4776-82f5-a871d5a2b1e3.png",
        "entry": 8404610,
        "entry_name": "Cityzens FC",
        "event_total": 43,
        "has_played": true,
        "id": 69721048,
        "last_rank": 46839,
        "player_name": "Boipelo Diphoko",
        "rank": 69708,
        "rank_sort": 70061,
        "total": 2340
      },
      {
        "club_badge_src": "https://fantasy.premierleague.com/gcs/plfpl-production-adobe-approved/plfpl-production/8509721/81802623-3255-4bc7-bd80-d1d4fcc1a626.png",
        "entry": 8509721,
        "entry_name": "ElDoc FC",
        "event_total": 53,
        "has_played": true,
        "id": 70731476,
        "last_rank": 63724,
        "player_name": "Omar Gohary",
        "rank": 69708,
        "rank_sort": 70062,
        "total": 2340
      },
      {
        "club_badge_src": null,
        "entry": 8513581,
        "entry_name": "The Cole Standard",
        "event_total": 60,
        "has_played": true,
        "id": 70769391,
        "last_rank": 77258,
        "player_name": "Jiad Banjak",
        "rank": 69708,
        "rank_sort": 70063,
        "total": 2340
      },
      {
        "club_badge_src": null,
        "entry": 8565132,
        "entry_name": "ureitett",
        "event_total": 75,
        "has_played": true,
        "id": 71264263,
        "last_rank": 114095,
        "player_name": "Fredrik Nysted",
        "rank": 69708,
        "rank_sort": 70064,
        "total": 2340
      },
      {
        "club_badge_src": "https://fantasy.premierleague.com/gcs/plfpl-production-adobe-approved/plfpl-production/8683855/fdd408aa-4cff-4e37-8681-f5887596f23d.png",
        "entry": 8683855,
        "entry_name": "TEAMala",
        "event_total": 63,
        "has_played": true,
        "id": 72422549,
        "last_rank": 83934,
        "player_name": "shaurya timala",
        "rank": 69708,
        "rank_sort": 70065,
        "total": 2340
      },
      {
        "club_badge_src": null,
        "entry": 8852955,
        "entry_name": "Boom",
        "event_total": 57,
        "has_played": true,
        "id": 74054761,
        "last_rank": 70757,
        "player_name": "Mark Roberts",
        "rank": 69708,
        "rank_sort": 70066,
        "total": 2340
      },
      {
        "club_badge_src": null,
        "entry": 8891940,
        "entry_name": "Allez Allez Allez",
        "event_total": 53,
        "has_played": true,
        "id": 74430526,
        "last_rank": 63201,
        "player_name": "Dev Shah",
        "rank": 69708,
        "rank_sort": 70067,
        "total": 2340
      },
      {
        "club_badge_src": "https://fantasy.premierleague.com/gcs/plfpl-production-adobe-approved/plfpl-production/8926921/cc56d9ca-25fc-446d-b2e8-9ebd2ded9a3b.png",
        "entry": 8926921,
        "entry_name": "Metallist Kharkiv",
        "event_total": 67,
        "has_played": true,
        "id": 74770607,
        "last_rank": 93186,
        "player_name": "Vladyslav Bezhko",
        "rank": 69708,
        "rank_sort": 70068,
        "total": 2340
      },
      {
        "club_badge_src": null,
        "entry": 9035687,
        "entry_name": "Arseboom!",
        "event_total": 68,
        "has_played": true,
        "id": 75825101,
        "last_rank": 95640,
        "player_name": "Reaz Ghanty",
        "rank": 69708,
        "rank_sort": 70069,
        "total": 2340
      },
      {
        "club_badge_src": null,
        "entry": 9103305,
        "entry_name": "Svrcko FC",
        "event_total": 68,
        "has_played": true,
        "id": 76484642,
        "last_rank": 95640,
        "player_name": "Milos Milosevic",
        "rank": 69708,
        "rank_sort": 70070,
        "total": 2340
      },
      {
        "club_badge_src": null,
        "entry": 9161188,
        "entry_name": "Red Lorry Leny Yoro",
        "event_total": 52,
        "has_played": true,
        "id": 77049795,
        "last_rank": 61606,
        "player_name": "Ehsan Akhtar",
        "rank": 69708,
        "rank_sort": 70071,
        "total": 2340
      },
      {
        "club_badge_src": null,
        "entry": 9216295,
        "entry_name": "Stang Ut!",
        "event_total": 59,
        "has_played": true,
        "id": 77594787,
        "last_rank": 74898,
        "player_name": "Frode Helland",
        "rank": 69708,
        "rank_sort": 70072,
        "total": 2340
      },
      {
        "club_badge_src": "https://fantasy.premierleague.com/gcs/plfpl-production-adobe-approved/plfpl-production/9222806/8c376a27-36e9-4e2a-ba94-0a62009c8c3d.png",
        "entry": 9222806,
        "entry_name": "reall",
        "event_total": 38,
        "has_played": true,
        "id": 77657437,
        "last_rank": 40297,
        "player_name": "aa.Hussein Tawfek",
        "rank": 69708,
        "rank_sort": 70073,
        "total": 2340
      },
      {
        "club_badge_src": null,
        "entry": 9243222,
        "entry_name": "Tea and Busquets",
        "event_total": 56,
        "has_played": true,
        "id": 77856750,
        "last_rank": 69323,
        "player_name": "Steve Mendonca",
        "rank": 69708,
        "rank_sort": 70074,
        "total": 2340
      },
      {
        "club_badge_src": null,
        "entry": 9273946,
        "entry_name": "Dynga",
        "event_total": 54,
        "has_played": true,
        "id": 78157082,
        "last_rank": 65163,
        "player_name": "Oda Valla",
        "rank": 69708,
        "rank_sort": 70075,
        "total": 2340
      },
      {
        "club_badge_src": null,
        "entry": 9283744,
        "entry_name": "My naam",
        "event_total": 73,
        "has_played": true,
        "id": 78252351,
        "last_rank": 108496,
        "player_name": "Uncle Iroh",
        "rank": 69708,
        "rank_sort": 70076,
        "total": 2340
      },
      {
        "club_badge_src": null,
        "entry": 9288876,
        "entry_name": "TIM TITANS",
        "event_total": 55,
        "has_played": true,
        "id": 78302723,
        "last_rank": 67063,
        "player_name": "oluwadurotimi ogundeji",
        "rank": 69708,
        "rank_sort": 70077,
        "total": 2340
      },
      {
        "club_badge_src": null,
        "entry": 490,
        "entry_name": "defcon xGInandes",
        "event_total": 67,
        "has_played": true,
        "id": 2701,
        "last_rank": 83934,
        "player_name": "Elias Sponton",
        "rank": 70078,
        "rank_sort": 70078,
        "total": 2340
      },
      {
        "club_badge_src": null,
        "entry": 3344,
        "entry_name": "Young Gunners***",
        "event_total": 62,
        "has_played": true,
        "id": 18925,
        "last_rank": 81646,
        "player_name": "Christos Myrtos",
        "rank": 70078,
        "rank_sort": 70079,
        "total": 2340
      },
      {
        "club_badge_src": null,
        "entry": 6271,
        "entry_name": "Teemu Pukki",
        "event_total": 51,
        "has_played": true,
        "id": 35943,
        "last_rank": 60168,
        "player_name": "peter musika",
        "rank": 70078,
        "rank_sort": 70080,
        "total": 2340
      },
      {
        "club_badge_src": null,
        "entry": 14882,
        "entry_name": "Hellerud Hippos",
        "event_total": 66,
        "has_played": true,
        "id": 90831,
        "last_rank": 81646,
        "player_name": "Nikolai Ruen",
        "rank": 70078,
        "rank_sort": 70081,
        "total": 2340
      },
      {
        "club_badge_src": null,
        "entry": 16131,
        "entry_name": "Arsenallay",
        "event_total": 64,
        "has_played": true,
        "id": 99466,
        "last_rank": 86304,
        "player_name": "Ahmed Zafar",
        "rank": 70078,
        "rank_sort": 70082,
        "total": 2340
      },
      {
        "club_badge_src": null,
        "entry": 21126,
        "entry_name": "Cunha Beat Me?",
        "event_total": 68,
        "has_played": true,
        "id": 132428,
        "last_rank": 96374,
        "player_name": "Tom Gurney",
        "rank": 70078,
        "rank_sort": 70083,
        "total": 2340
      },
      {
        "club_badge_src": null,
        "entry": 31625,
        "entry_name": "Gumbi FC",
        "event_total": 72,
        "has_played": true,
        "id": 200635,
        "last_rank": 106763,
        "player_name": "Sumanth Sunkari",
        "rank": 70078,
        "rank_sort": 70084,
        "total": 2340
      },
      {
        "club_badge_src": "https://fantasy.premierleague.com/gcs/plfpl-production-adobe-approved/plfpl-production/32793/8863d62d-3580-4933-8aab-349d2e5d0030.png",
        "entry": 32793,
        "entry_name": "Universe_23",
        "event_total": 73,
        "has_played": true,
        "id": 208777,
        "last_rank": 98436,
        "player_name": "Rinat Shakirov",
        "rank": 70078,
        "rank_sort": 70085,
        "total": 2340
      },
      {
        "club_badge_src": null,
        "entry": 44699,
        "entry_name": "Jean-Claude Van Dijk",
        "event_total": 51,
        "has_played": true,
        "id": 286545,
        "last_rank": 60168,
        "player_name": "Dragan Mandic",
        "rank": 70078,
        "rank_sort": 70086,
        "total": 2340
      },
      {
        "club_badge_src": null,
        "entry": 45822,
        "entry_name": "FC STAS",
        "event_total": 61,
        "has_played": true,
        "id": 293930,
        "last_rank": 70985,
        "player_name": "Artsiom Stanislavich",
        "rank": 70078,
        "rank_sort": 70087,
        "total": 2340
      },
      {
        "club_badge_src": null,
        "entry": 47569,
        "entry_name": "Swiss Cheese",
        "event_total": 51,
        "has_played": true,
        "id": 305191,
        "last_rank": 53023,
        "player_name": "Andy Cunningham",
        "rank": 70078,
        "rank_sort": 70088,
        "total": 2340
      },
      {
        "club_badge_src": null,
        "entry": 49531,
        "entry_name": "Bayer Daverkusen",
        "event_total": 68,
        "has_played": true,
        "id": 318431,
        "last_rank": 96374,
        "player_name": "Dave Sharpe",
        "rank": 70078,
        "rank_sort": 70089,
        "total": 2340
      },
      {
        "club_badge_src": "https://fantasy.premierleague.com/gcs/plfpl-production-adobe-approved/plfpl-production/50539/c70d890b-77fb-440b-aa6a-6e59588df973.png",
        "entry": 50539,
        "entry_name": "harhota",
        "event_total": 63,
        "has_played": true,
        "id": 325069,
        "last_rank": 75139,
        "player_name": "Alexander Harhota",
        "rank": 70078,
        "rank_sort": 70090,
        "total": 2340
      },
      {
        "club_badge_src": "https://fantasy.premierleague.com/gcs/plfpl-production-adobe-approved/plfpl-production/51909/665705fa-9585-42b7-831b-5ec5f3569c9d.png",
        "entry": 51909,
        "entry_name": "Boom Xhaka Laka",
        "event_total": 62,
        "has_played": true,
        "id": 333842,
        "last_rank": 82069,
        "player_name": "Peter McGovern",
        "rank": 70078,
        "rank_sort": 70091,
        "total": 2340
      },
      {
        "club_badge_src": null,
        "entry": 55584,
        "entry_name": "Cunha turn on DeLigt",
        "event_total": 54,
        "has_played": true,
        "id": 357881,
        "last_rank": 64943,
        "player_name": "Raymond H",
        "rank": 70078,
        "rank_sort": 70092,
        "total": 2340
      },
      {
        "club_badge_src": "https://fantasy.premierleague.com/gcs/plfpl-production-adobe-approved/plfpl-production/55666/c1fc4fac-d22b-480b-92fa-a45a20989845.png",
        "entry": 55666,
        "entry_name": "AC Catenaccio",
        "event_total": 54,
        "has_played": true,
        "id": 358420,
        "last_rank": 58071,
        "player_name": "Daniel Andersson",
        "rank": 70078,
        "rank_sort": 70093,
        "total": 2340
      },
      {
        "club_badge_src": "https://fantasy.premierleague.com/gcs/plfpl-production-adobe-approved/plfpl-production/57614/c7d8def2-7ffa-4621-ae75-4379da63a7f1.png",
        "entry": 57614,
        "entry_name": "Fundee United",
        "event_total": 54,
        "has_played": true,
        "id": 371168,
        "last_rank": 65163,
        "player_name": "Robin Gillespie",
        "rank": 70078,
        "rank_sort": 70094,
        "total": 2340
      },
      {
        "club_badge_src": null,
        "entry": 65014,
        "entry_name": "Haz to be Eden",
        "event_total": 54,
        "has_played": true,
        "id": 419678,
        "last_rank": 58071,
        "player_name": "Jamie Davenport",
        "rank": 70078,
        "rank_sort": 70095,
        "total": 2340
      },
      {
        "club_badge_src": "https://fantasy.premierleague.com/gcs/plfpl-production-adobe-approved/plfpl-production/66669/bb58d2cf-5d22-4762-8038-d1e989645385.png",
        "entry": 66669,
        "entry_name": "GoGo Power Reijnders",
        "event_total": 53,
        "has_played": true,
        "id": 431157,
        "last_rank": 56369,
        "player_name": "George Alborn",
        "rank": 70078,
        "rank_sort": 70096,
        "total": 2340
      },
      {
        "club_badge_src": "https://fantasy.premierleague.com/gcs/plfpl-production-adobe-approved/plfpl-production/68945/d29d075d-e5f4-4205-80e9-4d765d089702.png",
        "entry": 68945,
        "entry_name": "Random FPLayer",
        "event_total": 55,
        "has_played": true,
        "id": 446913,
        "last_rank": 59632,
        "player_name": "Tobias Gruber",
        "rank": 70078,
        "rank_sort": 70097,
        "total": 2340
      },
      {
        "club_badge_src": null,
        "entry": 72768,
        "entry_name": "ZANDHRA KYO",
        "event_total": 71,
        "has_played": true,
        "id": 472919,
        "last_rank": 93443,
        "player_name": "Desi Andriani",
        "rank": 70078,
        "rank_sort": 70098,
        "total": 2340
      },
      {
        "club_badge_src": "https://fantasy.premierleague.com/gcs/plfpl-production-adobe-approved/plfpl-production/78835/a8996cf8-245d-4cea-a57a-a6b9809560e6.png",
        "entry": 78835,
        "entry_name": "Wirtz Of Wall Street",
        "event_total": 68,
        "has_played": true,
        "id": 512555,
        "last_rank": 76947,
        "player_name": "Daniel Edge",
        "rank": 70078,
        "rank_sort": 70099,
        "total": 2340
      },
      {
        "club_badge_src": null,
        "entry": 81423,
        "entry_name": "Carrick the Midfield",
        "event_total": 66,
        "has_played": true,
        "id": 529707,
        "last_rank": 81646,
        "player_name": "Sachin Sharma",
        "rank": 70078,
        "rank_sort": 70100,
        "total": 2340
      }
    ]
  }
}