{
  "last_updated_data": "2026-05-24T23:28:17Z",
  "league": {
    "admin_entry": null,
    "closed": false,
    "code_privacy": "p",
    "created": "2025-07-20T23:14:33.933835Z",
    "cup_league": 2815434,
    "has_cup": true,
    "id": 314,
    "league_type": "s",
    "max_entries": null,
    "name": "Overall",
    "rank": null,
    "scoring": "c",
    "start_event": 1
  },
  "new_entries": {
    "has_next": false,
    "page": 1,
    "results": []
  },
  "standings": {
    "has_next": true,
    "page": 1207,
    "results": [
      {
        "club_badge_src": null,
        "entry": 2609499,
        "entry_name": "Mavri Apili",
        "event_total": 65,
        "has_played": true,
        "id": 18747224,
        "last_rank": 76638,
        "player_name": "Georgios Demetriou",
        "rank": 60276,
        "rank_sort": 60301,
        "total": 2346
      },
      {
        "club_badge_src": "https://fantasy.premierleague.com/gcs/plfpl-production-adobe-approved/plfpl-production/2630634/14cdde1a-cf13-435e-8cad-5f9811c11d97.png",
        "entry": 2630634,
        "entry_name": "No More Mr Rice Kai",
        "event_total": 55,
        "has_played": true,
        "id": 18905430,
        "last_rank": 50905,
        "player_name": "Matt Edgley",
        "rank": 60276,
        "rank_sort": 60302,
        "total": 2346
      },
      {
        "club_badge_src": "https://fantasy.premierleague.com/gcs/plfpl-production-adobe-approved/plfpl-production/3071003/9cca2a53-7ec4-4019-bedb-c545cd5bacea.png",
        "entry": 3071003,
        "entry_name": "A Cunha Lover",
        "event_total": 62,
        "has_played": true,
        "id": 22613542,
        "last_rank": 55747,
        "player_name": "Gabriel Villamonte",
        "rank": 60276,
        "rank_sort": 60303,
        "total": 2346
      },
      {
        "club_badge_src": null,
        "entry": 3395183,
        "entry_name": "Ctrl Alt De Ligt",
        "event_total": 33,
        "has_played": true,
        "id": 25206915,
        "last_rank": 28449,
        "player_name": "Upahar Sood",
        "rank": 60276,
        "rank_sort": 60304,
        "total": 2346
      },
      {
        "club_badge_src": "https://fantasy.premierleague.com/gcs/plfpl-production-adobe-approved/plfpl-production/3400333/ca08adcb-cea8-4968-958c-c631665729cf.png",
        "entry": 3400333,
        "entry_name": "Omar ship*",
        "event_total": 62,
        "has_played": true,
        "id": 25247352,
        "last_rank": 70355,
        "player_name": "Omar Diaa",
        "rank": 60276,
        "rank_sort": 60305,
        "total": 2346
      },
      {
        "club_badge_src": null,
        "entry": 3579653,
        "entry_name": "The Bluez",
        "event_total": 48,
        "has_played": true,
        "id": 26656588,
        "last_rank": 46406,
        "player_name": "Jay Kumar",
        "rank": 60276,
        "rank_sort": 60306,
        "total": 2346
      },
      {
        "club_badge_src": null,
        "entry": 3587910,
        "entry_name": "2 Girls and 1 schlup",
        "event_total": 60,
        "has_played": true,
        "id": 26720116,
        "last_rank": 52461,
        "player_name": "Kieran Gilsdorf",
        "rank": 60276,
        "rank_sort": 60307,
        "total": 2346
      },
      {
        "club_badge_src": null,
        "entry": 4168040,
        "entry_name": "B\u00e4rs",
        "event_total": 66,
        "has_played": true,
        "id": 31520628,
        "last_rank": 78671,
        "player_name": "Robin Stenback",
        "rank": 60276,
        "rank_sort": 60308,
        "total": 2346
      },
      {
        "club_badge_src": null,
        "entry": 4573726,
        "entry_name": "Sam King",
        "event_total": 62,
        "has_played": true,
        "id": 34908675,
        "last_rank": 70355,
        "player_name": "Sam King",
        "rank": 60276,
        "rank_sort": 60309,
        "total": 2346
      },
      {
        "club_badge_src": "https://fantasy.premierleague.com/gcs/plfpl-production-adobe-approved/plfpl-production/5103042/1d76ddbd-d7ba-4a55-8ea7-ac258870133d.png",
        "entry": 5103042,
        "entry_name": "Aim20 FC\u270c\ufe0f\u270c\ufe0f",
        "event_total": 60,
        "has_played": true,
        "id": 39444731,
        "last_rank": 52461,
        "player_name": "Patawee Changate",
        "rank": 60276,
        "rank_sort": 60310,
        "total": 2346
      },
      {
        "club_badge_src": null,
        "entry": 5255544,
        "entry_name": "Guaranteed Success",
        "event_total": 92,
        "has_played": true,
        "id": 40732598,
        "last_rank": 137936,
        "player_name": "Ijaz Sadiq",
        "rank": 60276,
        "rank_sort": 60311,
        "total": 2346
      },
      {
        "club_badge_src": null,
        "entry": 5465938,
        "entry_name": "Viktor Stiglitz",
        "event_total": 44,
        "has_played": true,
        "id": 42540646,
        "last_rank": 40923,
        "player_name": "Arnon Saiyotha",
        "rank": 60276,
        "rank_sort": 60312,
        "total": 2346
      },
      {
        "club_badge_src": null,
        "entry": 5857271,
        "entry_name": "Kareem Amgad",
        "event_total": 38,
        "has_played": true,
        "id": 45991103,
        "last_rank": 33751,
        "player_name": "Karim Amgad",
        "rank": 60276,
        "rank_sort": 60313,
        "total": 2346
      },
      {
        "club_badge_src": null,
        "entry": 6122438,
        "entry_name": "Palmer wine",
        "event_total": 61,
        "has_played": true,
        "id": 48371356,
        "last_rank": 54065,
        "player_name": "sam a",
        "rank": 60276,
        "rank_sort": 60314,
        "total": 2346
      },
      {
        "club_badge_src": null,
        "entry": 6572365,
        "entry_name": "MohammedLFC",
        "event_total": 56,
        "has_played": true,
        "id": 52468875,
        "last_rank": 52522,
        "player_name": "Mohammed Saeed",
        "rank": 60276,
        "rank_sort": 60315,
        "total": 2346
      },
      {
        "club_badge_src": "https://fantasy.premierleague.com/gcs/plfpl-production-adobe-approved/plfpl-production/6860609/38644236-3005-414d-8abe-44a833ba2048.png",
        "entry": 6860609,
        "entry_name": "Toon Snatch Squad",
        "event_total": 53,
        "has_played": true,
        "id": 54970170,
        "last_rank": 54181,
        "player_name": "Tony Larvin",
        "rank": 60276,
        "rank_sort": 60316,
        "total": 2346
      },
      {
        "club_badge_src": null,
        "entry": 7246512,
        "entry_name": "Virgil Island",
        "event_total": 70,
        "has_played": true,
        "id": 58570165,
        "last_rank": 87808,
        "player_name": "James Murphy",
        "rank": 60276,
        "rank_sort": 60317,
        "total": 2346
      },
      {
        "club_badge_src": null,
        "entry": 7940595,
        "entry_name": "Magnifico 11",
        "event_total": 67,
        "has_played": true,
        "id": 65356059,
        "last_rank": 64422,
        "player_name": "Dikshant Tahilramani",
        "rank": 60276,
        "rank_sort": 60318,
        "total": 2346
      },
      {
        "club_badge_src": null,
        "entry": 8764608,
        "entry_name": "Arsenali",
        "event_total": 64,
        "has_played": true,
        "id": 73202521,
        "last_rank": 66380,
        "player_name": "Arsenis Papadopoulos",
        "rank": 60276,
        "rank_sort": 60319,
        "total": 2346
      },
      {
        "club_badge_src": null,
        "entry": 8944120,
        "entry_name": "Deadpool2",
        "event_total": 62,
        "has_played": true,
        "id": 74941485,
        "last_rank": 62812,
        "player_name": "Paul Cooke",
        "rank": 60276,
        "rank_sort": 60320,
        "total": 2346
      },
      {
        "club_badge_src": "https://fantasy.premierleague.com/gcs/plfpl-production-adobe-approved/plfpl-production/8947814/d5e8311a-089e-45be-950c-a24da5b07a63.png",
        "entry": 8947814,
        "entry_name": "Omer Sherif",
        "event_total": 54,
        "has_played": true,
        "id": 74977976,
        "last_rank": 55865,
        "player_name": "omar shreif",
        "rank": 60276,
        "rank_sort": 60321,
        "total": 2346
      },
      {
        "club_badge_src": null,
        "entry": 9267104,
        "entry_name": "Wilkos Wanderers",
        "event_total": 64,
        "has_played": true,
        "id": 78089639,
        "last_rank": 74524,
        "player_name": "Steve Wilkinson",
        "rank": 60276,
        "rank_sort": 60322,
        "total": 2346
      },
      {
        "club_badge_src": "https://fantasy.premierleague.com/gcs/plfpl-production-adobe-approved/plfpl-production/14474/cd8c893f-de0f-48da-93d0-52e859371f9a.png",
        "entry": 14474,
        "entry_name": "^_^ Just Do it ^_^",
        "event_total": 63,
        "has_played": true,
        "id": 87919,
        "last_rank": 64562,
        "player_name": "Mohammed sagban ali",
        "rank": 60323,
        "rank_sort": 60323,
        "total": 2346
      },
      {
        "club_badge_src": null,
        "entry": 16960,
        "entry_name": "Venomous Vipers FC",
        "event_total": 67,
        "has_played": true,
        "id": 105021,
        "last_rank": 81010,
        "player_name": "Lukas CMC eUeS",
        "rank": 60323,
        "rank_sort": 60324,
        "total": 2346
      },
      {
        "club_badge_src": null,
        "entry": 74541,
        "entry_name": "Terengganu Fc",
        "event_total": 50,
        "has_played": true,
        "id": 484516,
        "last_rank": 49442,
        "player_name": "mohd azizul",
        "rank": 60323,
        "rank_sort": 60325,
        "total": 2346
      },
      {
        "club_badge_src": null,
        "entry": 87599,
        "entry_name": "PelleMariefred",
        "event_total": 63,
        "has_played": true,
        "id": 571313,
        "last_rank": 72454,
        "player_name": "Pelle Vikstr\u00f6m",
        "rank": 60323,
        "rank_sort": 60326,
        "total": 2346
      },
      {
        "club_badge_src": null,
        "entry": 166254,
        "entry_name": "Birchy Boyz",
        "event_total": 47,
        "has_played": true,
        "id": 1098307,
        "last_rank": 34796,
        "player_name": "James Birch",
        "rank": 60323,
        "rank_sort": 60327,
        "total": 2346
      },
      {
        "club_badge_src": null,
        "entry": 195239,
        "entry_name": "cochrane xi",
        "event_total": 72,
        "has_played": true,
        "id": 1294651,
        "last_rank": 92685,
        "player_name": "Ryan Cochrane",
        "rank": 60323,
        "rank_sort": 60328,
        "total": 2346
      },
      {
        "club_badge_src": null,
        "entry": 246802,
        "entry_name": "To Dare Is To Salt",
        "event_total": 53,
        "has_played": true,
        "id": 1642975,
        "last_rank": 54218,
        "player_name": "Samuel Salzer",
        "rank": 60323,
        "rank_sort": 60329,
        "total": 2346
      },
      {
        "club_badge_src": null,
        "entry": 319459,
        "entry_name": "KINGPOWER",
        "event_total": 48,
        "has_played": true,
        "id": 2141364,
        "last_rank": 46432,
        "player_name": "Neil King",
        "rank": 60323,
        "rank_sort": 60330,
        "total": 2346
      },
      {
        "club_badge_src": "https://fantasy.premierleague.com/gcs/plfpl-production-adobe-approved/plfpl-production/738630/72714994-bee0-4e5e-ae71-ed2e346f37b3.png",
        "entry": 738630,
        "entry_name": "Obi Wan Udogie",
        "event_total": 60,
        "has_played": true,
        "id": 5021833,
        "last_rank": 59291,
        "player_name": "Noel Foy",
        "rank": 60323,
        "rank_sort": 60331,
        "total": 2346
      },
      {
        "club_badge_src": null,
        "entry": 755049,
        "entry_name": "Saka White Rice",
        "event_total": 53,
        "has_played": true,
        "id": 5140322,
        "last_rank": 47920,
        "player_name": "Andrew Warburton",
        "rank": 60323,
        "rank_sort": 60332,
        "total": 2346
      },
      {
        "club_badge_src": null,
        "entry": 932709,
        "entry_name": "3olom",
        "event_total": 77,
        "has_played": true,
        "id": 6418034,
        "last_rank": 105430,
        "player_name": "\u0645\u062d\u0645\u062f \u0639\u0628\u062f \u0627\u0644\u0639\u0644\u064a\u0645",
        "rank": 60323,
        "rank_sort": 60333,
        "total": 2346
      },
      {
        "club_badge_src": null,
        "entry": 1283127,
        "entry_name": "Captains Pick",
        "event_total": 42,
        "has_played": true,
        "id": 8916058,
        "last_rank": 33729,
        "player_name": "Dan Kirk",
        "rank": 60323,
        "rank_sort": 60334,
        "total": 2346
      },
      {
        "club_badge_src": "https://fantasy.premierleague.com/gcs/plfpl-production-adobe-approved/plfpl-production/1336318/08de062b-1897-485c-b828-ebb040fa7851.png",
        "entry": 1336318,
        "entry_name": "Ugarte Be Kidding Me",
        "event_total": 54,
        "has_played": true,
        "id": 9288858,
        "last_rank": 49301,
        "player_name": "Te Hakeke Shenton-Rau",
        "rank": 60323,
        "rank_sort": 60335,
        "total": 2346
      },
      {
        "club_badge_src": "https://fantasy.premierleague.com/gcs/plfpl-production-adobe-approved/plfpl-production/1845072/daa65df9-475d-4ce2-95b2-5d393cec8064.png",
        "entry": 1845072,
        "entry_name": "Armi",
        "event_total": 58,
        "has_played": true,
        "id": 12981969,
        "last_rank": 62917,
        "player_name": "Arma\u011fan Karaege",
        "rank": 60323,
        "rank_sort": 60336,
        "total": 2346
      },
      {
        "club_badge_src": null,
        "entry": 2272289,
        "entry_name": "Aerdnacy",
        "event_total": 67,
        "has_played": true,
        "id": 16202750,
        "last_rank": 81010,
        "player_name": "Kuan Yuan Lim",
        "rank": 60323,
        "rank_sort": 60337,
        "total": 2346
      },
      {
        "club_badge_src": null,
        "entry": 2899693,
        "entry_name": "Size of that SAKa",
        "event_total": 63,
        "has_played": true,
        "id": 21248958,
        "last_rank": 72454,
        "player_name": "George Wilson",
        "rank": 60323,
        "rank_sort": 60338,
        "total": 2346
      },
      {
        "club_badge_src": null,
        "entry": 3363325,
        "entry_name": "Mings n' Roundabouts",
        "event_total": 61,
        "has_played": true,
        "id": 24956532,
        "last_rank": 54134,
        "player_name": "J Fellows",
        "rank": 60323,
        "rank_sort": 60339,
        "total": 2346
      },
      {
        "club_badge_src": null,
        "entry": 3993287,
        "entry_name": "skvibavig\u00e5",
        "event_total": 53,
        "has_played": true,
        "id": 30070644,
        "last_rank": 54181,
        "player_name": "Daniel Dybvig",
        "rank": 60323,
        "rank_sort": 60340,
        "total": 2346
      },
      {
        "club_badge_src": "https://fantasy.premierleague.com/gcs/plfpl-production-adobe-approved/plfpl-production/4868599/bef0636f-cadc-4836-a107-37713d44eb65.png",
        "entry": 4868599,
        "entry_name": "Tamer",
        "event_total": 61,
        "has_played": true,
        "id": 37525401,
        "last_rank": 54134,
        "player_name": "Tamer Roshdy",
        "rank": 60323,
        "rank_sort": 60341,
        "total": 2346
      },
      {
        "club_badge_src": "https://fantasy.premierleague.com/gcs/plfpl-production-adobe-approved/plfpl-production/4982418/addb6b84-230d-434d-9905-1c01e4949c3d.png",
        "entry": 4982418,
        "entry_name": "FC Peecabin",
        "event_total": 67,
        "has_played": true,
        "id": 38460992,
        "last_rank": 57451,
        "player_name": "Lauri K\u00e4rki",
        "rank": 60323,
        "rank_sort": 60342,
        "total": 2346
      },
      {
        "club_badge_src": null,
        "entry": 5126727,
        "entry_name": "RelegationBattle",
        "event_total": 64,
        "has_played": true,
        "id": 39646152,
        "last_rank": 66447,
        "player_name": "Chanakya Gupta",
        "rank": 60323,
        "rank_sort": 60343,
        "total": 2346
      },
      {
        "club_badge_src": null,
        "entry": 5538568,
        "entry_name": "#Villareback",
        "event_total": 81,
        "has_played": true,
        "id": 43214826,
        "last_rank": 105264,
        "player_name": "Steve South",
        "rank": 60323,
        "rank_sort": 60344,
        "total": 2346
      },
      {
        "club_badge_src": null,
        "entry": 5722746,
        "entry_name": "Real Easy Money",
        "event_total": 68,
        "has_played": true,
        "id": 44826790,
        "last_rank": 83267,
        "player_name": "Alan Moffatt",
        "rank": 60323,
        "rank_sort": 60345,
        "total": 2346
      },
      {
        "club_badge_src": null,
        "entry": 5854352,
        "entry_name": "Toronto Skala",
        "event_total": 66,
        "has_played": true,
        "id": 45966422,
        "last_rank": 78782,
        "player_name": "James Stamopoulos",
        "rank": 60323,
        "rank_sort": 60346,
        "total": 2346
      },
      {
        "club_badge_src": "https://fantasy.premierleague.com/gcs/plfpl-production-adobe-approved/plfpl-production/6352771/122f5f83-0128-4ccb-abed-977ec11e4589.png",
        "entry": 6352771,
        "entry_name": "Easysul FC",
        "event_total": 52,
        "has_played": true,
        "id": 50504030,
        "last_rank": 52603,
        "player_name": "Sulaiman Salaam Coker",
        "rank": 60323,
        "rank_sort": 60347,
        "total": 2346
      },
      {
        "club_badge_src": "https://fantasy.premierleague.com/gcs/plfpl-production-adobe-approved/plfpl-production/6953089/25a66ea6-7d98-4b47-9007-b9be55cf2571.png",
        "entry": 6953089,
        "entry_name": "Joememet Power",
        "event_total": 58,
        "has_played": true,
        "id": 55754305,
        "last_rank": 62917,
        "player_name": "Jo Memet",
        "rank": 60323,
        "rank_sort": 60348,
        "total": 2346
      },
      {
        "club_badge_src": null,
        "entry": 7081833,
        "entry_name": "Squidwirtz",
        "event_total": 57,
        "has_played": true,
        "id": 57003969,
        "last_rank": 61118,
        "player_name": "Tom Walton",
        "rank": 60323,
        "rank_sort": 60349,
        "total": 2346
      },
      {
        "club_badge_src": null,
        "entry": 8913165,
        "entry_name": "Embargo FC",
        "event_total": 63,
        "has_played": true,
        "id": 74636916,
        "last_rank": 72454,
        "player_name": "George Martin",
        "rank": 60323,
        "rank_sort": 60350,
        "total": 2346
      }
    ]
  }
}