{
  "last_updated_data": "2026-05-24T23:28:17Z",
  "league": {
    "admin_entry": null,
    "closed": false,
    "code_privacy": "p",
    "created": "2025-07-20T23:14:33.933835Z",
    "cup_league": 2815434,
    "has_cup": true,
    "id": 314,
    "league_type": "s",
    "max_entries": null,
    "name": "Overall",
    "rank": null,
    "scoring": "c",
    "start_event": 1
  },
  "new_entries": {
    "has_next": false,
    "page": 1,
    "results": []
  },
  "standings": {
    "has_next": true,
    "page": 1029,
    "results": [
      {
        "club_badge_src": null,
        "entry": 984437,
        "entry_name": "Where'sPepsHair",
        "event_total": 60,
        "has_played": true,
        "id": 6787216,
        "last_rank": 56708,
        "player_name": "Alfie Silver",
        "rank": 51278,
        "rank_sort": 51401,
        "total": 2351
      },
      {
        "club_badge_src": null,
        "entry": 991219,
        "entry_name": "Coen For Gold",
        "event_total": 45,
        "has_played": true,
        "id": 6834702,
        "last_rank": 35166,
        "player_name": "Marcus Coen",
        "rank": 51278,
        "rank_sort": 51402,
        "total": 2351
      },
      {
        "club_badge_src": null,
        "entry": 1022591,
        "entry_name": "Bangers and Rashford",
        "event_total": 49,
        "has_played": true,
        "id": 7074875,
        "last_rank": 40297,
        "player_name": "Will Roth",
        "rank": 51278,
        "rank_sort": 51403,
        "total": 2351
      },
      {
        "club_badge_src": null,
        "entry": 1042919,
        "entry_name": "No Digital ID FC",
        "event_total": 50,
        "has_played": true,
        "id": 7217314,
        "last_rank": 41617,
        "player_name": "Kyle Munn",
        "rank": 51278,
        "rank_sort": 51404,
        "total": 2351
      },
      {
        "club_badge_src": null,
        "entry": 1139619,
        "entry_name": "PPR",
        "event_total": 68,
        "has_played": true,
        "id": 7899667,
        "last_rank": 70985,
        "player_name": "Philip Allan",
        "rank": 51278,
        "rank_sort": 51405,
        "total": 2351
      },
      {
        "club_badge_src": null,
        "entry": 1161159,
        "entry_name": "FPL Tyler",
        "event_total": 64,
        "has_played": true,
        "id": 8054835,
        "last_rank": 56369,
        "player_name": "Tyler Tan",
        "rank": 51278,
        "rank_sort": 51406,
        "total": 2351
      },
      {
        "club_badge_src": null,
        "entry": 1170675,
        "entry_name": "Helicopter Sunday",
        "event_total": 68,
        "has_played": true,
        "id": 8121488,
        "last_rank": 70985,
        "player_name": "Steven Black",
        "rank": 51278,
        "rank_sort": 51407,
        "total": 2351
      },
      {
        "club_badge_src": null,
        "entry": 1181210,
        "entry_name": "M\u00f6rk\u00f6s Mannar",
        "event_total": 60,
        "has_played": true,
        "id": 8195528,
        "last_rank": 49880,
        "player_name": "Pontus Eriksson",
        "rank": 51278,
        "rank_sort": 51408,
        "total": 2351
      },
      {
        "club_badge_src": null,
        "entry": 1197437,
        "entry_name": "Van Gaalacticos",
        "event_total": 45,
        "has_played": true,
        "id": 8309446,
        "last_rank": 35424,
        "player_name": "Tyler Brooks",
        "rank": 51278,
        "rank_sort": 51409,
        "total": 2351
      },
      {
        "club_badge_src": null,
        "entry": 1247148,
        "entry_name": "Mundalene",
        "event_total": 68,
        "has_played": true,
        "id": 8661626,
        "last_rank": 71386,
        "player_name": "Olaf Mundal",
        "rank": 51278,
        "rank_sort": 51410,
        "total": 2351
      },
      {
        "club_badge_src": null,
        "entry": 1267150,
        "entry_name": "Polacy B",
        "event_total": 58,
        "has_played": true,
        "id": 8804327,
        "last_rank": 53023,
        "player_name": "Patryk Pawe\u0142ek",
        "rank": 51278,
        "rank_sort": 51411,
        "total": 2351
      },
      {
        "club_badge_src": null,
        "entry": 1288012,
        "entry_name": "Skating on Thin Rice",
        "event_total": 60,
        "has_played": true,
        "id": 8950085,
        "last_rank": 56708,
        "player_name": "Ylva Garnert",
        "rank": 51278,
        "rank_sort": 51412,
        "total": 2351
      },
      {
        "club_badge_src": null,
        "entry": 1314809,
        "entry_name": "masterhaha",
        "event_total": 30,
        "has_played": true,
        "id": 9138586,
        "last_rank": 21301,
        "player_name": "Maxim Savchuk",
        "rank": 51278,
        "rank_sort": 51413,
        "total": 2351
      },
      {
        "club_badge_src": null,
        "entry": 1342891,
        "entry_name": "Gooners",
        "event_total": 58,
        "has_played": true,
        "id": 9336653,
        "last_rank": 53345,
        "player_name": "Vivek Goel",
        "rank": 51278,
        "rank_sort": 51414,
        "total": 2351
      },
      {
        "club_badge_src": null,
        "entry": 1382088,
        "entry_name": "\u0e09\u0e34\u0e48\u0e19\u0e0a\u0e34\u0e49\u0e19",
        "event_total": 52,
        "has_played": true,
        "id": 9612437,
        "last_rank": 44303,
        "player_name": "Chinnapat Wattanakull",
        "rank": 51278,
        "rank_sort": 51415,
        "total": 2351
      },
      {
        "club_badge_src": null,
        "entry": 1397313,
        "entry_name": "trust the process",
        "event_total": 58,
        "has_played": true,
        "id": 9721220,
        "last_rank": 53345,
        "player_name": "Jack Wood",
        "rank": 51278,
        "rank_sort": 51416,
        "total": 2351
      },
      {
        "club_badge_src": null,
        "entry": 1401427,
        "entry_name": "BEAST FC",
        "event_total": 67,
        "has_played": true,
        "id": 9750739,
        "last_rank": 61411,
        "player_name": "Ian Cherigat",
        "rank": 51278,
        "rank_sort": 51417,
        "total": 2351
      },
      {
        "club_badge_src": null,
        "entry": 1431689,
        "entry_name": "Bumblebee Express",
        "event_total": 55,
        "has_played": true,
        "id": 9976096,
        "last_rank": 42648,
        "player_name": "Mark Whalley",
        "rank": 51278,
        "rank_sort": 51418,
        "total": 2351
      },
      {
        "club_badge_src": "https://fantasy.premierleague.com/gcs/plfpl-production-adobe-approved/plfpl-production/1506898/68f0a087-ddec-4b8b-ace5-b7a30dfe6e6d.png",
        "entry": 1506898,
        "entry_name": "FSC Shabooka",
        "event_total": 52,
        "has_played": true,
        "id": 10509685,
        "last_rank": 44303,
        "player_name": "Scott Moore",
        "rank": 51278,
        "rank_sort": 51419,
        "total": 2351
      },
      {
        "club_badge_src": null,
        "entry": 1555787,
        "entry_name": "Butters",
        "event_total": 61,
        "has_played": true,
        "id": 10863176,
        "last_rank": 58388,
        "player_name": "Ashley Butterfield",
        "rank": 51278,
        "rank_sort": 51420,
        "total": 2351
      },
      {
        "club_badge_src": null,
        "entry": 1556078,
        "entry_name": "Firmino Fc",
        "event_total": 48,
        "has_played": true,
        "id": 10865221,
        "last_rank": 39023,
        "player_name": "Donlad Sun",
        "rank": 51278,
        "rank_sort": 51421,
        "total": 2351
      },
      {
        "club_badge_src": null,
        "entry": 1559280,
        "entry_name": "Fowlers",
        "event_total": 55,
        "has_played": true,
        "id": 10889390,
        "last_rank": 48898,
        "player_name": "Eysteinn Einarsson",
        "rank": 51278,
        "rank_sort": 51422,
        "total": 2351
      },
      {
        "club_badge_src": null,
        "entry": 1600012,
        "entry_name": "Neville Wears Prada",
        "event_total": 57,
        "has_played": true,
        "id": 11193096,
        "last_rank": 51984,
        "player_name": "shivik bindal",
        "rank": 51278,
        "rank_sort": 51423,
        "total": 2351
      },
      {
        "club_badge_src": null,
        "entry": 1635018,
        "entry_name": "13yrsofbeatinggreeno",
        "event_total": 58,
        "has_played": true,
        "id": 11444412,
        "last_rank": 53621,
        "player_name": "James Stevenson",
        "rank": 51278,
        "rank_sort": 51424,
        "total": 2351
      },
      {
        "club_badge_src": null,
        "entry": 1695489,
        "entry_name": "EzeGoal",
        "event_total": 66,
        "has_played": true,
        "id": 11875148,
        "last_rank": 67063,
        "player_name": "KALOK WONG",
        "rank": 51278,
        "rank_sort": 51425,
        "total": 2351
      },
      {
        "club_badge_src": "https://fantasy.premierleague.com/gcs/plfpl-production-adobe-approved/plfpl-production/1725014/e904f592-cc33-4b50-9a63-5722a3945cda.png",
        "entry": 1725014,
        "entry_name": "Expected Toulouse",
        "event_total": 64,
        "has_played": true,
        "id": 12096533,
        "last_rank": 56369,
        "player_name": "Nimer Najar",
        "rank": 51278,
        "rank_sort": 51426,
        "total": 2351
      },
      {
        "club_badge_src": null,
        "entry": 1734404,
        "entry_name": "Bangkok Rovers",
        "event_total": 52,
        "has_played": true,
        "id": 12166849,
        "last_rank": 44303,
        "player_name": "NATTHAWUT LIMNIRAMON",
        "rank": 51278,
        "rank_sort": 51427,
        "total": 2351
      },
      {
        "club_badge_src": null,
        "entry": 1812986,
        "entry_name": "Green Team Sailors",
        "event_total": 67,
        "has_played": true,
        "id": 12748221,
        "last_rank": 69323,
        "player_name": "Aleksandar Aleksandrov",
        "rank": 51278,
        "rank_sort": 51428,
        "total": 2351
      },
      {
        "club_badge_src": null,
        "entry": 1852165,
        "entry_name": "Nam Cheong United",
        "event_total": 64,
        "has_played": true,
        "id": 13033315,
        "last_rank": 63724,
        "player_name": "Rocky L",
        "rank": 51278,
        "rank_sort": 51429,
        "total": 2351
      },
      {
        "club_badge_src": null,
        "entry": 1892831,
        "entry_name": "BackSeatBandits",
        "event_total": 51,
        "has_played": true,
        "id": 13340962,
        "last_rank": 43168,
        "player_name": "Kieran Padiachee",
        "rank": 51278,
        "rank_sort": 51430,
        "total": 2351
      },
      {
        "club_badge_src": null,
        "entry": 1963358,
        "entry_name": "Mick O'Lenn & Co",
        "event_total": 36,
        "has_played": true,
        "id": 13852778,
        "last_rank": 26088,
        "player_name": "Lee Clough",
        "rank": 51278,
        "rank_sort": 51431,
        "total": 2351
      },
      {
        "club_badge_src": null,
        "entry": 1976239,
        "entry_name": "Imposter united",
        "event_total": 60,
        "has_played": true,
        "id": 13949868,
        "last_rank": 56708,
        "player_name": "Anders Wiig",
        "rank": 51278,
        "rank_sort": 51432,
        "total": 2351
      },
      {
        "club_badge_src": "https://fantasy.premierleague.com/gcs/plfpl-production-adobe-approved/plfpl-production/1976358/d9f2959d-6c18-4624-888c-41bfb4177dc8.png",
        "entry": 1976358,
        "entry_name": "Cooking Amadness",
        "event_total": 68,
        "has_played": true,
        "id": 13950774,
        "last_rank": 70757,
        "player_name": "Jason Cook",
        "rank": 51278,
        "rank_sort": 51433,
        "total": 2351
      },
      {
        "club_badge_src": null,
        "entry": 1978990,
        "entry_name": "Champignons",
        "event_total": 52,
        "has_played": true,
        "id": 13971280,
        "last_rank": 44525,
        "player_name": "Captain Limero",
        "rank": 51278,
        "rank_sort": 51434,
        "total": 2351
      },
      {
        "club_badge_src": null,
        "entry": 2015456,
        "entry_name": "Kinder Mbuemo",
        "event_total": 64,
        "has_played": true,
        "id": 14257926,
        "last_rank": 63724,
        "player_name": "Jake Challinor-Smith",
        "rank": 51278,
        "rank_sort": 51435,
        "total": 2351
      },
      {
        "club_badge_src": null,
        "entry": 2061596,
        "entry_name": "\u062f\u0646\u062f\u0631\u0627\u0648\u064a \u0627\u0644\u0647\u0648\u0627\u0631\u064a",
        "event_total": 38,
        "has_played": true,
        "id": 14607580,
        "last_rank": 28150,
        "player_name": "Fa Yez",
        "rank": 51278,
        "rank_sort": 51436,
        "total": 2351
      },
      {
        "club_badge_src": null,
        "entry": 2173072,
        "entry_name": "Low Flying Birds",
        "event_total": 64,
        "has_played": true,
        "id": 15451732,
        "last_rank": 63201,
        "player_name": "Simon Brooks",
        "rank": 51278,
        "rank_sort": 51437,
        "total": 2351
      },
      {
        "club_badge_src": null,
        "entry": 2282383,
        "entry_name": "Whatever Wirtz",
        "event_total": 54,
        "has_played": true,
        "id": 16276164,
        "last_rank": 41162,
        "player_name": "Eric Sonke",
        "rank": 51278,
        "rank_sort": 51438,
        "total": 2351
      },
      {
        "club_badge_src": null,
        "entry": 2302867,
        "entry_name": "The Frenchie Villian",
        "event_total": 58,
        "has_played": true,
        "id": 16425073,
        "last_rank": 53621,
        "player_name": "Liz Holland",
        "rank": 51278,
        "rank_sort": 51439,
        "total": 2351
      },
      {
        "club_badge_src": null,
        "entry": 2339397,
        "entry_name": "Saka Potatoes",
        "event_total": 63,
        "has_played": true,
        "id": 16692161,
        "last_rank": 61411,
        "player_name": "Patrick Carney",
        "rank": 51278,
        "rank_sort": 51440,
        "total": 2351
      },
      {
        "club_badge_src": null,
        "entry": 2408174,
        "entry_name": "Lilla Spurs",
        "event_total": 62,
        "has_played": true,
        "id": 17213348,
        "last_rank": 60168,
        "player_name": "Magnus Lindskog",
        "rank": 51278,
        "rank_sort": 51441,
        "total": 2351
      },
      {
        "club_badge_src": null,
        "entry": 2441364,
        "entry_name": "Caspia FC",
        "event_total": 45,
        "has_played": true,
        "id": 17459831,
        "last_rank": 35166,
        "player_name": "Caspia FC",
        "rank": 51278,
        "rank_sort": 51442,
        "total": 2351
      },
      {
        "club_badge_src": null,
        "entry": 2442848,
        "entry_name": "Zala Fc",
        "event_total": 59,
        "has_played": true,
        "id": 17470807,
        "last_rank": 55311,
        "player_name": "Keenan Spanneberg",
        "rank": 51278,
        "rank_sort": 51443,
        "total": 2351
      },
      {
        "club_badge_src": "https://fantasy.premierleague.com/gcs/plfpl-production-adobe-approved/plfpl-production/2453622/8d953db0-630f-4cf4-ad35-2c6a8c5c1588.png",
        "entry": 2453622,
        "entry_name": "SangNilaUtama",
        "event_total": 46,
        "has_played": true,
        "id": 17549516,
        "last_rank": 36624,
        "player_name": "Mido Hamid",
        "rank": 51278,
        "rank_sort": 51444,
        "total": 2351
      },
      {
        "club_badge_src": null,
        "entry": 2578505,
        "entry_name": "BENZBENZ",
        "event_total": 54,
        "has_played": true,
        "id": 18506177,
        "last_rank": 47417,
        "player_name": "Ahmed Ben zina",
        "rank": 51278,
        "rank_sort": 51445,
        "total": 2351
      },
      {
        "club_badge_src": null,
        "entry": 2635053,
        "entry_name": "Ian's Idols",
        "event_total": 68,
        "has_played": true,
        "id": 18937952,
        "last_rank": 71386,
        "player_name": "Ian Mac",
        "rank": 51278,
        "rank_sort": 51446,
        "total": 2351
      },
      {
        "club_badge_src": null,
        "entry": 2683191,
        "entry_name": "AwobaBobbBobb",
        "event_total": 57,
        "has_played": true,
        "id": 19298015,
        "last_rank": 51720,
        "player_name": "Lewis Jowett",
        "rank": 51278,
        "rank_sort": 51447,
        "total": 2351
      },
      {
        "club_badge_src": null,
        "entry": 2727823,
        "entry_name": "ChoppedHuzzerhampton",
        "event_total": 62,
        "has_played": true,
        "id": 19629705,
        "last_rank": 52853,
        "player_name": "Will Hawgood",
        "rank": 51278,
        "rank_sort": 51448,
        "total": 2351
      },
      {
        "club_badge_src": null,
        "entry": 2759185,
        "entry_name": "brunkebyboys",
        "event_total": 57,
        "has_played": true,
        "id": 20125928,
        "last_rank": 51403,
        "player_name": "Lucas Linderyd",
        "rank": 51278,
        "rank_sort": 51449,
        "total": 2351
      },
      {
        "club_badge_src": null,
        "entry": 2787228,
        "entry_name": "abdou_rfs",
        "event_total": 69,
        "has_played": true,
        "id": 20348253,
        "last_rank": 72702,
        "player_name": "Rafes Abedelgani",
        "rank": 51278,
        "rank_sort": 51450,
        "total": 2351
      }
    ]
  }
}