{
  "last_updated_data": "2026-05-24T23:28:17Z",
  "league": {
    "admin_entry": null,
    "closed": false,
    "code_privacy": "p",
    "created": "2025-07-20T23:14:33.933835Z",
    "cup_league": 2815434,
    "has_cup": true,
    "id": 314,
    "league_type": "s",
    "max_entries": null,
    "name": "Overall",
    "rank": null,
    "scoring": "c",
    "start_event": 1
  },
  "new_entries": {
    "has_next": false,
    "page": 1,
    "results": []
  },
  "standings": {
    "has_next": true,
    "page": 1476,
    "results": [
      {
        "club_badge_src": null,
        "entry": 1267268,
        "entry_name": "Sween Redeem Team",
        "event_total": 49,
        "has_played": true,
        "id": 8805154,
        "last_rank": 59535,
        "player_name": "Matt S",
        "rank": 73620,
        "rank_sort": 73751,
        "total": 2338
      },
      {
        "club_badge_src": null,
        "entry": 1272729,
        "entry_name": "It's Eze orrr Sarr",
        "event_total": 62,
        "has_played": true,
        "id": 8843431,
        "last_rank": 86054,
        "player_name": "Jack Ward",
        "rank": 73620,
        "rank_sort": 73752,
        "total": 2338
      },
      {
        "club_badge_src": null,
        "entry": 1283019,
        "entry_name": "Kettleshulme Blues",
        "event_total": 59,
        "has_played": true,
        "id": 8915293,
        "last_rank": 79431,
        "player_name": "Steven Ogbourne",
        "rank": 73620,
        "rank_sort": 73753,
        "total": 2338
      },
      {
        "club_badge_src": null,
        "entry": 1332062,
        "entry_name": "Lush FC",
        "event_total": 69,
        "has_played": true,
        "id": 9258740,
        "last_rank": 103054,
        "player_name": "Lindsey Cato",
        "rank": 73620,
        "rank_sort": 73754,
        "total": 2338
      },
      {
        "club_badge_src": null,
        "entry": 1352435,
        "entry_name": "Flamengo",
        "event_total": 51,
        "has_played": true,
        "id": 9401843,
        "last_rank": 63390,
        "player_name": "Rafael Maximo",
        "rank": 73620,
        "rank_sort": 73755,
        "total": 2338
      },
      {
        "club_badge_src": null,
        "entry": 1353704,
        "entry_name": "Freekick",
        "event_total": 78,
        "has_played": true,
        "id": 9410541,
        "last_rank": 129043,
        "player_name": "Vikash Parida",
        "rank": 73620,
        "rank_sort": 73756,
        "total": 2338
      },
      {
        "club_badge_src": null,
        "entry": 1354021,
        "entry_name": "SanHoot SC",
        "event_total": 65,
        "has_played": true,
        "id": 9412622,
        "last_rank": 93443,
        "player_name": "Kareem Shehta",
        "rank": 73620,
        "rank_sort": 73757,
        "total": 2338
      },
      {
        "club_badge_src": null,
        "entry": 1394803,
        "entry_name": "Sonny and Schar",
        "event_total": 59,
        "has_played": true,
        "id": 9703340,
        "last_rank": 79431,
        "player_name": "Karla Mulreany",
        "rank": 73620,
        "rank_sort": 73758,
        "total": 2338
      },
      {
        "club_badge_src": null,
        "entry": 1408571,
        "entry_name": "smyrus",
        "event_total": 66,
        "has_played": true,
        "id": 9801184,
        "last_rank": 95527,
        "player_name": "Artur Jarz\u0105bek",
        "rank": 73620,
        "rank_sort": 73759,
        "total": 2338
      },
      {
        "club_badge_src": null,
        "entry": 1434408,
        "entry_name": "Kevin de B0n3r",
        "event_total": 73,
        "has_played": true,
        "id": 9995024,
        "last_rank": 114095,
        "player_name": "Elvin Aghdassi",
        "rank": 73620,
        "rank_sort": 73760,
        "total": 2338
      },
      {
        "club_badge_src": "https://fantasy.premierleague.com/gcs/plfpl-production-adobe-approved/plfpl-production/1446075/0920bd9f-835a-40e5-b565-9f2368c98c57.png",
        "entry": 1446075,
        "entry_name": "Courgette",
        "event_total": 71,
        "has_played": true,
        "id": 10076572,
        "last_rank": 108959,
        "player_name": "Nicolas Lamont",
        "rank": 73620,
        "rank_sort": 73761,
        "total": 2338
      },
      {
        "club_badge_src": null,
        "entry": 1450985,
        "entry_name": "BUFFALLLLOOO",
        "event_total": 74,
        "has_played": true,
        "id": 10110496,
        "last_rank": 117423,
        "player_name": "John Waite",
        "rank": 73620,
        "rank_sort": 73762,
        "total": 2338
      },
      {
        "club_badge_src": null,
        "entry": 1484778,
        "entry_name": "Hughes Your Daddy?",
        "event_total": 43,
        "has_played": true,
        "id": 10353912,
        "last_rank": 49880,
        "player_name": "Jack Lochinger",
        "rank": 73620,
        "rank_sort": 73763,
        "total": 2338
      },
      {
        "club_badge_src": null,
        "entry": 1522611,
        "entry_name": "The Hornets",
        "event_total": 64,
        "has_played": true,
        "id": 10619752,
        "last_rank": 91006,
        "player_name": "Pirashanthan Suntharalingam",
        "rank": 73620,
        "rank_sort": 73764,
        "total": 2338
      },
      {
        "club_badge_src": null,
        "entry": 1526271,
        "entry_name": "mit's",
        "event_total": 61,
        "has_played": true,
        "id": 10645375,
        "last_rank": 83698,
        "player_name": "Amrit Acharyakul",
        "rank": 73620,
        "rank_sort": 73765,
        "total": 2338
      },
      {
        "club_badge_src": null,
        "entry": 1538821,
        "entry_name": "Aniskhlifa",
        "event_total": 47,
        "has_played": true,
        "id": 10739748,
        "last_rank": 56180,
        "player_name": "Anis Khlifa",
        "rank": 73620,
        "rank_sort": 73766,
        "total": 2338
      },
      {
        "club_badge_src": "https://fantasy.premierleague.com/gcs/plfpl-production-adobe-approved/plfpl-production/1563866/5c831d63-8247-449c-a064-c059c47052bb.png",
        "entry": 1563866,
        "entry_name": "Football Club FC",
        "event_total": 62,
        "has_played": true,
        "id": 10924038,
        "last_rank": 86054,
        "player_name": "Vanlalruatsaka Hmar",
        "rank": 73620,
        "rank_sort": 73767,
        "total": 2338
      },
      {
        "club_badge_src": null,
        "entry": 1565006,
        "entry_name": "Dino",
        "event_total": 50,
        "has_played": true,
        "id": 10932623,
        "last_rank": 61950,
        "player_name": "Dino Haji",
        "rank": 73620,
        "rank_sort": 73768,
        "total": 2338
      },
      {
        "club_badge_src": null,
        "entry": 1567533,
        "entry_name": "FK Poskurice",
        "event_total": 43,
        "has_played": true,
        "id": 10950400,
        "last_rank": 50199,
        "player_name": "Luka Svilki\u0107",
        "rank": 73620,
        "rank_sort": 73769,
        "total": 2338
      },
      {
        "club_badge_src": null,
        "entry": 1578755,
        "entry_name": "Vivek's XI",
        "event_total": 56,
        "has_played": true,
        "id": 11031983,
        "last_rank": 72815,
        "player_name": "Vivek Radhakrishnan",
        "rank": 73620,
        "rank_sort": 73770,
        "total": 2338
      },
      {
        "club_badge_src": null,
        "entry": 1620849,
        "entry_name": "GoldenSDK",
        "event_total": 54,
        "has_played": true,
        "id": 11343327,
        "last_rank": 68957,
        "player_name": "Gustav Dr\u00f8yvold Kristoffersen",
        "rank": 73620,
        "rank_sort": 73771,
        "total": 2338
      },
      {
        "club_badge_src": null,
        "entry": 1630685,
        "entry_name": "Tricky Trees",
        "event_total": 43,
        "has_played": true,
        "id": 11413749,
        "last_rank": 49880,
        "player_name": "Billy Milburn",
        "rank": 73620,
        "rank_sort": 73772,
        "total": 2338
      },
      {
        "club_badge_src": null,
        "entry": 1689817,
        "entry_name": "Love Trump All",
        "event_total": 58,
        "has_played": true,
        "id": 11829541,
        "last_rank": 76947,
        "player_name": "Ronnie Yiu",
        "rank": 73620,
        "rank_sort": 73773,
        "total": 2338
      },
      {
        "club_badge_src": null,
        "entry": 1707828,
        "entry_name": "BAGALATY",
        "event_total": 58,
        "has_played": true,
        "id": 11965004,
        "last_rank": 77676,
        "player_name": "Omar Albagalaty",
        "rank": 73620,
        "rank_sort": 73774,
        "total": 2338
      },
      {
        "club_badge_src": null,
        "entry": 1742790,
        "entry_name": "Wirtz Case Scenario",
        "event_total": 70,
        "has_played": true,
        "id": 12228530,
        "last_rank": 105963,
        "player_name": "Jonas Melby",
        "rank": 73620,
        "rank_sort": 73775,
        "total": 2338
      },
      {
        "club_badge_src": null,
        "entry": 1764674,
        "entry_name": "G\u00f3rnik Piaski",
        "event_total": 50,
        "has_played": true,
        "id": 12393946,
        "last_rank": 61950,
        "player_name": "Piotr Gnacik",
        "rank": 73620,
        "rank_sort": 73776,
        "total": 2338
      },
      {
        "club_badge_src": null,
        "entry": 1822225,
        "entry_name": "#1 Squad",
        "event_total": 77,
        "has_played": true,
        "id": 12815726,
        "last_rank": 126088,
        "player_name": "Salil Choubey",
        "rank": 73620,
        "rank_sort": 73777,
        "total": 2338
      },
      {
        "club_badge_src": null,
        "entry": 1851073,
        "entry_name": "FC Bambik",
        "event_total": 37,
        "has_played": true,
        "id": 13025545,
        "last_rank": 36099,
        "player_name": "Miko\u0142aj Ko\u015bmider",
        "rank": 73620,
        "rank_sort": 73778,
        "total": 2338
      },
      {
        "club_badge_src": null,
        "entry": 1865293,
        "entry_name": "Humbledore FC",
        "event_total": 43,
        "has_played": true,
        "id": 13129329,
        "last_rank": 49880,
        "player_name": "Andrew Beattie",
        "rank": 73620,
        "rank_sort": 73779,
        "total": 2338
      },
      {
        "club_badge_src": null,
        "entry": 1868278,
        "entry_name": "Brainwave FC",
        "event_total": 72,
        "has_played": true,
        "id": 13151003,
        "last_rank": 111669,
        "player_name": "Biodun Osagbemi",
        "rank": 73620,
        "rank_sort": 73780,
        "total": 2338
      },
      {
        "club_badge_src": null,
        "entry": 1882698,
        "entry_name": "fc myn9lb",
        "event_total": 63,
        "has_played": true,
        "id": 13265508,
        "last_rank": 88348,
        "player_name": "alwa med",
        "rank": 73620,
        "rank_sort": 73781,
        "total": 2338
      },
      {
        "club_badge_src": "https://fantasy.premierleague.com/gcs/plfpl-production-adobe-approved/plfpl-production/1893382/8f74d2b9-a268-4c1d-b5a3-846efa48be1c.png",
        "entry": 1893382,
        "entry_name": "The Count of Fantasy",
        "event_total": 52,
        "has_played": true,
        "id": 13344915,
        "last_rank": 64943,
        "player_name": "Ivan Milo\u0161",
        "rank": 73620,
        "rank_sort": 73782,
        "total": 2338
      },
      {
        "club_badge_src": "https://fantasy.premierleague.com/gcs/plfpl-production-adobe-approved/plfpl-production/1910052/87167c8c-5267-4066-aff5-a94f206ca30a.png",
        "entry": 1910052,
        "entry_name": "Hapless FC",
        "event_total": 63,
        "has_played": true,
        "id": 13466150,
        "last_rank": 88594,
        "player_name": "Antony Truin",
        "rank": 73620,
        "rank_sort": 73783,
        "total": 2338
      },
      {
        "club_badge_src": null,
        "entry": 2011309,
        "entry_name": "Ctrl Alt DeLigt",
        "event_total": 50,
        "has_played": true,
        "id": 14222253,
        "last_rank": 61606,
        "player_name": "Sarah Roberts",
        "rank": 73620,
        "rank_sort": 73784,
        "total": 2338
      },
      {
        "club_badge_src": "https://fantasy.premierleague.com/gcs/plfpl-production-adobe-approved/plfpl-production/2012211/845c3c67-a725-46f6-a09b-19baa7784bb0.png",
        "entry": 2012211,
        "entry_name": "Operation Ayewtree",
        "event_total": 72,
        "has_played": true,
        "id": 14228899,
        "last_rank": 111669,
        "player_name": "Jonathan Robson",
        "rank": 73620,
        "rank_sort": 73785,
        "total": 2338
      },
      {
        "club_badge_src": null,
        "entry": 2058925,
        "entry_name": "Galabankies FC",
        "event_total": 54,
        "has_played": true,
        "id": 14586214,
        "last_rank": 68957,
        "player_name": "Syed Shahbaz Bakhtiyar",
        "rank": 73620,
        "rank_sort": 73786,
        "total": 2338
      },
      {
        "club_badge_src": null,
        "entry": 2060236,
        "entry_name": "X-Family",
        "event_total": 40,
        "has_played": true,
        "id": 14596812,
        "last_rank": 45416,
        "player_name": "Will Lweya",
        "rank": 73620,
        "rank_sort": 73787,
        "total": 2338
      },
      {
        "club_badge_src": null,
        "entry": 2061152,
        "entry_name": "mo-0907",
        "event_total": 44,
        "has_played": true,
        "id": 14604241,
        "last_rank": 51403,
        "player_name": "\u0645\u062d\u0645\u062f \u0627\u0644\u0627\u0633\u0645\u0631\u064a",
        "rank": 73620,
        "rank_sort": 73788,
        "total": 2338
      },
      {
        "club_badge_src": null,
        "entry": 2090147,
        "entry_name": "TakeItEase",
        "event_total": 56,
        "has_played": true,
        "id": 14829150,
        "last_rank": 73038,
        "player_name": "Matt Dias",
        "rank": 73620,
        "rank_sort": 73789,
        "total": 2338
      },
      {
        "club_badge_src": null,
        "entry": 2105951,
        "entry_name": "Team Bazraa",
        "event_total": 65,
        "has_played": true,
        "id": 14945350,
        "last_rank": 93186,
        "player_name": "Barry Bailey",
        "rank": 73620,
        "rank_sort": 73790,
        "total": 2338
      },
      {
        "club_badge_src": null,
        "entry": 2124416,
        "entry_name": "AFC Duke",
        "event_total": 68,
        "has_played": true,
        "id": 15093768,
        "last_rank": 100949,
        "player_name": "Duncan Greenwell",
        "rank": 73620,
        "rank_sort": 73791,
        "total": 2338
      },
      {
        "club_badge_src": "https://fantasy.premierleague.com/gcs/plfpl-production-adobe-approved/plfpl-production/2126701/10d49bda-7baa-4642-9f80-62ccc1210951.png",
        "entry": 2126701,
        "entry_name": "The Peaky Blinders",
        "event_total": 58,
        "has_played": true,
        "id": 15110925,
        "last_rank": 77258,
        "player_name": "Trent Phillips",
        "rank": 73620,
        "rank_sort": 73792,
        "total": 2338
      },
      {
        "club_badge_src": null,
        "entry": 2126820,
        "entry_name": "RipperRovers",
        "event_total": 65,
        "has_played": true,
        "id": 15111914,
        "last_rank": 93052,
        "player_name": "Jack Ackland",
        "rank": 73620,
        "rank_sort": 73793,
        "total": 2338
      },
      {
        "club_badge_src": null,
        "entry": 2128999,
        "entry_name": "Campeon\u00e9 Fc",
        "event_total": 60,
        "has_played": true,
        "id": 15127987,
        "last_rank": 81646,
        "player_name": "Steve Mwanza",
        "rank": 73620,
        "rank_sort": 73794,
        "total": 2338
      },
      {
        "club_badge_src": null,
        "entry": 2145236,
        "entry_name": "Bruno Dos Tres",
        "event_total": 45,
        "has_played": true,
        "id": 15247600,
        "last_rank": 53023,
        "player_name": "Kevin Musinskas",
        "rank": 73620,
        "rank_sort": 73795,
        "total": 2338
      },
      {
        "club_badge_src": null,
        "entry": 2149856,
        "entry_name": "WalktheMoonSelectXI",
        "event_total": 61,
        "has_played": true,
        "id": 15281059,
        "last_rank": 74898,
        "player_name": "Simon Criddle",
        "rank": 73620,
        "rank_sort": 73796,
        "total": 2338
      },
      {
        "club_badge_src": null,
        "entry": 2163384,
        "entry_name": "Echte_Liebe",
        "event_total": 68,
        "has_played": true,
        "id": 15379216,
        "last_rank": 100949,
        "player_name": "Bikesh Manandhar",
        "rank": 73620,
        "rank_sort": 73797,
        "total": 2338
      },
      {
        "club_badge_src": null,
        "entry": 2219667,
        "entry_name": "Mooneysmen",
        "event_total": 71,
        "has_played": true,
        "id": 15808942,
        "last_rank": 108959,
        "player_name": "Sh\u00e9a Mooney",
        "rank": 73620,
        "rank_sort": 73798,
        "total": 2338
      },
      {
        "club_badge_src": null,
        "entry": 2304116,
        "entry_name": "AURA",
        "event_total": 67,
        "has_played": true,
        "id": 16434404,
        "last_rank": 98183,
        "player_name": "Change Name",
        "rank": 73620,
        "rank_sort": 73799,
        "total": 2338
      },
      {
        "club_badge_src": "https://fantasy.premierleague.com/gcs/plfpl-production-adobe-approved/plfpl-production/2357909/76db9768-3243-4031-9a87-bd2b884bd568.png",
        "entry": 2357909,
        "entry_name": "Highlands",
        "event_total": 66,
        "has_played": true,
        "id": 16825137,
        "last_rank": 95640,
        "player_name": "Arunabh Bharadwaz",
        "rank": 73620,
        "rank_sort": 73800,
        "total": 2338
      }
    ]
  }
}