{
  "last_updated_data": "2026-05-24T23:28:17Z",
  "league": {
    "admin_entry": null,
    "closed": false,
    "code_privacy": "p",
    "created": "2025-07-20T23:14:33.933835Z",
    "cup_league": 2815434,
    "has_cup": true,
    "id": 314,
    "league_type": "s",
    "max_entries": null,
    "name": "Overall",
    "rank": null,
    "scoring": "c",
    "start_event": 1
  },
  "new_entries": {
    "has_next": false,
    "page": 1,
    "results": []
  },
  "standings": {
    "has_next": true,
    "page": 319,
    "results": [
      {
        "club_badge_src": null,
        "entry": 2852402,
        "entry_name": "Turbo Lads FC",
        "event_total": 63,
        "has_played": true,
        "id": 20856186,
        "last_rank": 19392,
        "player_name": "Manas Mohamed",
        "rank": 15879,
        "rank_sort": 15901,
        "total": 2386
      },
      {
        "club_badge_src": null,
        "entry": 3301813,
        "entry_name": "Socceroos",
        "event_total": 65,
        "has_played": true,
        "id": 24455102,
        "last_rank": 20888,
        "player_name": "Eric Bowman",
        "rank": 15879,
        "rank_sort": 15902,
        "total": 2386
      },
      {
        "club_badge_src": null,
        "entry": 3335459,
        "entry_name": "Ananasy",
        "event_total": 63,
        "has_played": true,
        "id": 24735885,
        "last_rank": 19432,
        "player_name": "Dominik Szczepa\u0144ski",
        "rank": 15879,
        "rank_sort": 15903,
        "total": 2386
      },
      {
        "club_badge_src": null,
        "entry": 3462066,
        "entry_name": "Far_KingBeasts",
        "event_total": 63,
        "has_played": true,
        "id": 25734645,
        "last_rank": 19544,
        "player_name": "Kaden Rowe",
        "rank": 15879,
        "rank_sort": 15904,
        "total": 2386
      },
      {
        "club_badge_src": null,
        "entry": 3578506,
        "entry_name": "Kareem FC",
        "event_total": 59,
        "has_played": true,
        "id": 26647559,
        "last_rank": 16675,
        "player_name": "kareem busila",
        "rank": 15879,
        "rank_sort": 15905,
        "total": 2386
      },
      {
        "club_badge_src": null,
        "entry": 3906569,
        "entry_name": "Bayern Bru",
        "event_total": 49,
        "has_played": true,
        "id": 29369545,
        "last_rank": 11237,
        "player_name": "Lewis Bilsland",
        "rank": 15879,
        "rank_sort": 15906,
        "total": 2386
      },
      {
        "club_badge_src": null,
        "entry": 4285209,
        "entry_name": "Juninho And Tonic",
        "event_total": 53,
        "has_played": true,
        "id": 32502856,
        "last_rank": 13184,
        "player_name": "Rhys Hughes",
        "rank": 15879,
        "rank_sort": 15907,
        "total": 2386
      },
      {
        "club_badge_src": "https://fantasy.premierleague.com/gcs/plfpl-production-adobe-approved/plfpl-production/4965977/5c017d8c-b3c4-46dd-9d98-9e1d486b04a5.png",
        "entry": 4965977,
        "entry_name": "The Burnley Bomber",
        "event_total": 67,
        "has_played": true,
        "id": 38323444,
        "last_rank": 22358,
        "player_name": "Carlos Howie",
        "rank": 15879,
        "rank_sort": 15908,
        "total": 2386
      },
      {
        "club_badge_src": null,
        "entry": 5175013,
        "entry_name": "Rocky Royal",
        "event_total": 52,
        "has_played": true,
        "id": 40054398,
        "last_rank": 12645,
        "player_name": "Zach Marsh",
        "rank": 15879,
        "rank_sort": 15909,
        "total": 2386
      },
      {
        "club_badge_src": null,
        "entry": 5272355,
        "entry_name": "Stakkis Eleven",
        "event_total": 69,
        "has_played": true,
        "id": 40864242,
        "last_rank": 23990,
        "player_name": "Rune Stakkeland",
        "rank": 15879,
        "rank_sort": 15910,
        "total": 2386
      },
      {
        "club_badge_src": null,
        "entry": 5475782,
        "entry_name": "Yoal",
        "event_total": 52,
        "has_played": true,
        "id": 42628040,
        "last_rank": 12705,
        "player_name": "Y A",
        "rank": 15879,
        "rank_sort": 15911,
        "total": 2386
      },
      {
        "club_badge_src": null,
        "entry": 5536773,
        "entry_name": "Delap Of Honour",
        "event_total": 46,
        "has_played": true,
        "id": 43199238,
        "last_rank": 9885,
        "player_name": "Hugo De Vito",
        "rank": 15879,
        "rank_sort": 15912,
        "total": 2386
      },
      {
        "club_badge_src": null,
        "entry": 5570163,
        "entry_name": "ostaosta",
        "event_total": 63,
        "has_played": true,
        "id": 43495174,
        "last_rank": 19392,
        "player_name": "karlo ostojic",
        "rank": 15879,
        "rank_sort": 15913,
        "total": 2386
      },
      {
        "club_badge_src": null,
        "entry": 5764334,
        "entry_name": "Nappy Rashford",
        "event_total": 56,
        "has_played": true,
        "id": 45189191,
        "last_rank": 14832,
        "player_name": "Josh Roberts",
        "rank": 15879,
        "rank_sort": 15914,
        "total": 2386
      },
      {
        "club_badge_src": null,
        "entry": 5889330,
        "entry_name": "Dude Wirtz My Car",
        "event_total": 64,
        "has_played": true,
        "id": 46263498,
        "last_rank": 20116,
        "player_name": "Luke Bartlett",
        "rank": 15879,
        "rank_sort": 15915,
        "total": 2386
      },
      {
        "club_badge_src": null,
        "entry": 6136854,
        "entry_name": "Lend me a Yoro",
        "event_total": 54,
        "has_played": true,
        "id": 48498305,
        "last_rank": 13720,
        "player_name": "Matthew Beck",
        "rank": 15879,
        "rank_sort": 15916,
        "total": 2386
      },
      {
        "club_badge_src": null,
        "entry": 6182814,
        "entry_name": "EsWirtzNichtGewusst",
        "event_total": 47,
        "has_played": true,
        "id": 48896598,
        "last_rank": 10346,
        "player_name": "Willem Germonprez",
        "rank": 15879,
        "rank_sort": 15917,
        "total": 2386
      },
      {
        "club_badge_src": null,
        "entry": 7324503,
        "entry_name": "Ryhm\u00e4 Hau",
        "event_total": 68,
        "has_played": true,
        "id": 59306486,
        "last_rank": 23230,
        "player_name": "Eemeli Nikula",
        "rank": 15879,
        "rank_sort": 15918,
        "total": 2386
      },
      {
        "club_badge_src": null,
        "entry": 7393069,
        "entry_name": "Janglo Saxons",
        "event_total": 63,
        "has_played": true,
        "id": 59948675,
        "last_rank": 19432,
        "player_name": "Jahangir Alom",
        "rank": 15879,
        "rank_sort": 15919,
        "total": 2386
      },
      {
        "club_badge_src": null,
        "entry": 7961494,
        "entry_name": "Change Name",
        "event_total": 94,
        "has_played": true,
        "id": 65543502,
        "last_rank": 54353,
        "player_name": "Balint Gal",
        "rank": 15879,
        "rank_sort": 15920,
        "total": 2386
      },
      {
        "club_badge_src": null,
        "entry": 8194543,
        "entry_name": "Change Name",
        "event_total": 51,
        "has_played": true,
        "id": 67688566,
        "last_rank": 12099,
        "player_name": "Sol Borde",
        "rank": 15879,
        "rank_sort": 15921,
        "total": 2386
      },
      {
        "club_badge_src": null,
        "entry": 4596,
        "entry_name": "bb",
        "event_total": 71,
        "has_played": true,
        "id": 26151,
        "last_rank": 25729,
        "player_name": "Berk -",
        "rank": 15922,
        "rank_sort": 15922,
        "total": 2386
      },
      {
        "club_badge_src": null,
        "entry": 5555,
        "entry_name": "Marmoushboosh",
        "event_total": 56,
        "has_played": true,
        "id": 31679,
        "last_rank": 14926,
        "player_name": "Chris Belfield",
        "rank": 15922,
        "rank_sort": 15923,
        "total": 2386
      },
      {
        "club_badge_src": null,
        "entry": 7571,
        "entry_name": "Fc Klitti",
        "event_total": 56,
        "has_played": true,
        "id": 43651,
        "last_rank": 14857,
        "player_name": "Juuso Hanka",
        "rank": 15922,
        "rank_sort": 15924,
        "total": 2386
      },
      {
        "club_badge_src": "https://fantasy.premierleague.com/gcs/plfpl-production-adobe-approved/plfpl-production/9710/2a5386ac-6b0f-4072-ad95-7be22f659945.png",
        "entry": 9710,
        "entry_name": "Zali Express",
        "event_total": 76,
        "has_played": true,
        "id": 57166,
        "last_rank": 30600,
        "player_name": "Roy Benjoseph",
        "rank": 15922,
        "rank_sort": 15925,
        "total": 2386
      },
      {
        "club_badge_src": null,
        "entry": 10500,
        "entry_name": "All Hale",
        "event_total": 64,
        "has_played": true,
        "id": 62119,
        "last_rank": 20179,
        "player_name": "Kieran Hale",
        "rank": 15922,
        "rank_sort": 15926,
        "total": 2386
      },
      {
        "club_badge_src": null,
        "entry": 11780,
        "entry_name": "Serial Cheetah",
        "event_total": 58,
        "has_played": true,
        "id": 70173,
        "last_rank": 16039,
        "player_name": "Christy Snell",
        "rank": 15922,
        "rank_sort": 15927,
        "total": 2386
      },
      {
        "club_badge_src": null,
        "entry": 12772,
        "entry_name": "Guinness FC",
        "event_total": 65,
        "has_played": true,
        "id": 76773,
        "last_rank": 20983,
        "player_name": "J\u00f8rgen Gj\u00e6rum",
        "rank": 15922,
        "rank_sort": 15928,
        "total": 2386
      },
      {
        "club_badge_src": null,
        "entry": 13888,
        "entry_name": "Boom Saka Laka",
        "event_total": 82,
        "has_played": true,
        "id": 84097,
        "last_rank": 37344,
        "player_name": "Giannis Xrist",
        "rank": 15922,
        "rank_sort": 15929,
        "total": 2386
      },
      {
        "club_badge_src": null,
        "entry": 22403,
        "entry_name": "KiDDz-",
        "event_total": 58,
        "has_played": true,
        "id": 140665,
        "last_rank": 16062,
        "player_name": "Zachary Yong",
        "rank": 15922,
        "rank_sort": 15930,
        "total": 2386
      },
      {
        "club_badge_src": null,
        "entry": 22948,
        "entry_name": "Ctrl alt DeLigt",
        "event_total": 66,
        "has_played": true,
        "id": 144316,
        "last_rank": 21628,
        "player_name": "Jack Heath",
        "rank": 15922,
        "rank_sort": 15931,
        "total": 2386
      },
      {
        "club_badge_src": "https://fantasy.premierleague.com/gcs/plfpl-production-adobe-approved/plfpl-production/26620/35fa1213-20b6-41dc-818b-ac2fc00e5ce6.png",
        "entry": 26620,
        "entry_name": "Soccer Galaxy",
        "event_total": 66,
        "has_played": true,
        "id": 168304,
        "last_rank": 21677,
        "player_name": "Sudeepta Jana",
        "rank": 15922,
        "rank_sort": 15932,
        "total": 2386
      },
      {
        "club_badge_src": null,
        "entry": 29800,
        "entry_name": "Kamagra Jelly",
        "event_total": 60,
        "has_played": true,
        "id": 188501,
        "last_rank": 17437,
        "player_name": "Handsome Wei Jie",
        "rank": 15922,
        "rank_sort": 15933,
        "total": 2386
      },
      {
        "club_badge_src": null,
        "entry": 35246,
        "entry_name": "DZPG",
        "event_total": 55,
        "has_played": true,
        "id": 225490,
        "last_rank": 14370,
        "player_name": "Jaros\u0142aw Pietrzak",
        "rank": 15922,
        "rank_sort": 15934,
        "total": 2386
      },
      {
        "club_badge_src": "https://fantasy.premierleague.com/gcs/plfpl-production-adobe-approved/plfpl-production/40621/4a83d1de-21c7-4617-8e22-6448618592c0.png",
        "entry": 40621,
        "entry_name": "M\u00fcllers FC",
        "event_total": 44,
        "has_played": true,
        "id": 260376,
        "last_rank": 9248,
        "player_name": "Petter Kristensen",
        "rank": 15922,
        "rank_sort": 15935,
        "total": 2386
      },
      {
        "club_badge_src": "https://fantasy.premierleague.com/gcs/plfpl-production-adobe-approved/plfpl-production/42498/d295ddcb-8d06-4e94-ab45-847256607023.png",
        "entry": 42498,
        "entry_name": "Guns N\u2019 Gy\u00f6keres",
        "event_total": 60,
        "has_played": true,
        "id": 272294,
        "last_rank": 17437,
        "player_name": "Johan Mankuzhiyil",
        "rank": 15922,
        "rank_sort": 15936,
        "total": 2386
      },
      {
        "club_badge_src": null,
        "entry": 42916,
        "entry_name": "Undav the Sea",
        "event_total": 58,
        "has_played": true,
        "id": 274890,
        "last_rank": 13754,
        "player_name": "Patrick Giblin",
        "rank": 15922,
        "rank_sort": 15937,
        "total": 2386
      },
      {
        "club_badge_src": null,
        "entry": 63894,
        "entry_name": "Don Juan XI",
        "event_total": 76,
        "has_played": true,
        "id": 412305,
        "last_rank": 30600,
        "player_name": "James Walker",
        "rank": 15922,
        "rank_sort": 15938,
        "total": 2386
      },
      {
        "club_badge_src": null,
        "entry": 64331,
        "entry_name": "How Yoro Doing!",
        "event_total": 60,
        "has_played": true,
        "id": 415218,
        "last_rank": 17327,
        "player_name": "Martin Rajka",
        "rank": 15922,
        "rank_sort": 15939,
        "total": 2386
      },
      {
        "club_badge_src": null,
        "entry": 70192,
        "entry_name": "Points Predator",
        "event_total": 78,
        "has_played": true,
        "id": 455641,
        "last_rank": 32647,
        "player_name": "Vortex R",
        "rank": 15922,
        "rank_sort": 15940,
        "total": 2386
      },
      {
        "club_badge_src": null,
        "entry": 72657,
        "entry_name": "For Better or Wirtz",
        "event_total": 62,
        "has_played": true,
        "id": 472159,
        "last_rank": 18691,
        "player_name": "Rob Marriott",
        "rank": 15922,
        "rank_sort": 15941,
        "total": 2386
      },
      {
        "club_badge_src": null,
        "entry": 72935,
        "entry_name": "Hustler's Uni",
        "event_total": 66,
        "has_played": true,
        "id": 474025,
        "last_rank": 21775,
        "player_name": "Nitish Arora",
        "rank": 15922,
        "rank_sort": 15942,
        "total": 2386
      },
      {
        "club_badge_src": "https://fantasy.premierleague.com/gcs/plfpl-production-adobe-approved/plfpl-production/103977/a3d76865-3c58-482f-9412-f0f27105f8c3.png",
        "entry": 103977,
        "entry_name": "NSK",
        "event_total": 53,
        "has_played": true,
        "id": 678356,
        "last_rank": 13257,
        "player_name": "Natchanon Sangkaew",
        "rank": 15922,
        "rank_sort": 15943,
        "total": 2386
      },
      {
        "club_badge_src": null,
        "entry": 113853,
        "entry_name": "Werf FC",
        "event_total": 77,
        "has_played": true,
        "id": 742642,
        "last_rank": 31556,
        "player_name": "Stefan van der Werf",
        "rank": 15922,
        "rank_sort": 15944,
        "total": 2386
      },
      {
        "club_badge_src": null,
        "entry": 133377,
        "entry_name": "TEAM \u00d8L",
        "event_total": 58,
        "has_played": true,
        "id": 868758,
        "last_rank": 16062,
        "player_name": "marius johannessen",
        "rank": 15922,
        "rank_sort": 15945,
        "total": 2386
      },
      {
        "club_badge_src": null,
        "entry": 135125,
        "entry_name": "Netflix and Chilwell",
        "event_total": 63,
        "has_played": true,
        "id": 879925,
        "last_rank": 19392,
        "player_name": "Declan Orriss",
        "rank": 15922,
        "rank_sort": 15946,
        "total": 2386
      },
      {
        "club_badge_src": null,
        "entry": 139789,
        "entry_name": "Maximo FC",
        "event_total": 71,
        "has_played": true,
        "id": 912573,
        "last_rank": 25776,
        "player_name": "Ciaran Rogers",
        "rank": 15922,
        "rank_sort": 15947,
        "total": 2386
      },
      {
        "club_badge_src": null,
        "entry": 148066,
        "entry_name": "Obi One Kenobi Nil",
        "event_total": 57,
        "has_played": true,
        "id": 970464,
        "last_rank": 15550,
        "player_name": "Michael Howard",
        "rank": 15922,
        "rank_sort": 15948,
        "total": 2386
      },
      {
        "club_badge_src": null,
        "entry": 148356,
        "entry_name": "Thomas the Frank",
        "event_total": 62,
        "has_played": true,
        "id": 972434,
        "last_rank": 18691,
        "player_name": "Simon Watkins",
        "rank": 15922,
        "rank_sort": 15949,
        "total": 2386
      },
      {
        "club_badge_src": null,
        "entry": 148505,
        "entry_name": "Reece\u2019s Set Pieces",
        "event_total": 66,
        "has_played": true,
        "id": 973474,
        "last_rank": 21628,
        "player_name": "Kai Chakartash",
        "rank": 15922,
        "rank_sort": 15950,
        "total": 2386
      }
    ]
  }
}