{
  "last_updated_data": "2026-05-24T23:28:17Z",
  "league": {
    "admin_entry": null,
    "closed": false,
    "code_privacy": "p",
    "created": "2025-07-20T23:14:33.933835Z",
    "cup_league": 2815434,
    "has_cup": true,
    "id": 314,
    "league_type": "s",
    "max_entries": null,
    "name": "Overall",
    "rank": null,
    "scoring": "c",
    "start_event": 1
  },
  "new_entries": {
    "has_next": false,
    "page": 1,
    "results": []
  },
  "standings": {
    "has_next": true,
    "page": 669,
    "results": [
      {
        "club_badge_src": null,
        "entry": 137181,
        "entry_name": "Saka Potatoes",
        "event_total": 73,
        "has_played": true,
        "id": 894005,
        "last_rank": 48642,
        "player_name": "Joshua Tighe",
        "rank": 33382,
        "rank_sort": 33401,
        "total": 2365
      },
      {
        "club_badge_src": null,
        "entry": 144463,
        "entry_name": "jetter i en rari",
        "event_total": 75,
        "has_played": true,
        "id": 945642,
        "last_rank": 58388,
        "player_name": "Scott Janson",
        "rank": 33382,
        "rank_sort": 33402,
        "total": 2365
      },
      {
        "club_badge_src": null,
        "entry": 146709,
        "entry_name": "Can't Get Any Wirtz",
        "event_total": 56,
        "has_played": true,
        "id": 961228,
        "last_rank": 27976,
        "player_name": "Conor Stygal",
        "rank": 33382,
        "rank_sort": 33403,
        "total": 2365
      },
      {
        "club_badge_src": "https://fantasy.premierleague.com/gcs/plfpl-production-adobe-approved/plfpl-production/146908/de713236-bc5e-4330-aeca-4fce11377e64.png",
        "entry": 146908,
        "entry_name": "Abbigoda IK",
        "event_total": 58,
        "has_played": true,
        "id": 962539,
        "last_rank": 34458,
        "player_name": "Daniel Olemyr",
        "rank": 33382,
        "rank_sort": 33404,
        "total": 2365
      },
      {
        "club_badge_src": null,
        "entry": 150649,
        "entry_name": "Comeback Kings!",
        "event_total": 73,
        "has_played": true,
        "id": 988118,
        "last_rank": 48642,
        "player_name": "Jimmit Mehta",
        "rank": 33382,
        "rank_sort": 33405,
        "total": 2365
      },
      {
        "club_badge_src": null,
        "entry": 157008,
        "entry_name": "Did I stRutter?",
        "event_total": 55,
        "has_played": true,
        "id": 1032733,
        "last_rank": 23341,
        "player_name": "Neil Dockerty",
        "rank": 33382,
        "rank_sort": 33406,
        "total": 2365
      },
      {
        "club_badge_src": "https://fantasy.premierleague.com/gcs/plfpl-production-adobe-approved/plfpl-production/158199/639f9af8-04f3-4ef6-a8d4-5eb1c4a8f082.png",
        "entry": 158199,
        "entry_name": "Arseneknows",
        "event_total": 68,
        "has_played": true,
        "id": 1040958,
        "last_rank": 47163,
        "player_name": "Rick Ying",
        "rank": 33382,
        "rank_sort": 33407,
        "total": 2365
      },
      {
        "club_badge_src": "https://fantasy.premierleague.com/gcs/plfpl-production-adobe-approved/plfpl-production/160469/3925a296-965c-4c26-bd56-93a655b9921c.png",
        "entry": 160469,
        "entry_name": "Degklumpskumpaner IF",
        "event_total": 60,
        "has_played": true,
        "id": 1056721,
        "last_rank": 36831,
        "player_name": "Erik Lundestam",
        "rank": 33382,
        "rank_sort": 33408,
        "total": 2365
      },
      {
        "club_badge_src": "https://fantasy.premierleague.com/gcs/plfpl-production-adobe-approved/plfpl-production/162752/1ec5726e-4293-4e70-8b7d-cf110dca7dbb.png",
        "entry": 162752,
        "entry_name": "El Capitano",
        "event_total": 56,
        "has_played": true,
        "id": 1073029,
        "last_rank": 32190,
        "player_name": "Stephen Bone",
        "rank": 33382,
        "rank_sort": 33409,
        "total": 2365
      },
      {
        "club_badge_src": "https://fantasy.premierleague.com/gcs/plfpl-production-adobe-approved/plfpl-production/164817/99a451f6-a250-4af0-9e3f-1a109afac54d.png",
        "entry": 164817,
        "entry_name": "Luka's Doggs",
        "event_total": 72,
        "has_played": true,
        "id": 1087880,
        "last_rank": 46660,
        "player_name": "Daniel Burrows",
        "rank": 33382,
        "rank_sort": 33410,
        "total": 2365
      },
      {
        "club_badge_src": null,
        "entry": 178555,
        "entry_name": "Trust The Process",
        "event_total": 47,
        "has_played": true,
        "id": 1178434,
        "last_rank": 23656,
        "player_name": "Aled Davies",
        "rank": 33382,
        "rank_sort": 33411,
        "total": 2365
      },
      {
        "club_badge_src": null,
        "entry": 208058,
        "entry_name": "\u0647\u0627\u0644\u0627\u0646\u062f \u0639\u0645\u0643 \ufffd\u2620\ufe0f",
        "event_total": 71,
        "has_played": true,
        "id": 1383153,
        "last_rank": 51403,
        "player_name": "Anas Ibrahim",
        "rank": 33382,
        "rank_sort": 33412,
        "total": 2365
      },
      {
        "club_badge_src": null,
        "entry": 234857,
        "entry_name": "Roberts Roverts",
        "event_total": 62,
        "has_played": true,
        "id": 1562721,
        "last_rank": 39246,
        "player_name": "Mark Roberts",
        "rank": 33382,
        "rank_sort": 33413,
        "total": 2365
      },
      {
        "club_badge_src": null,
        "entry": 272147,
        "entry_name": "Who ate all Depays?",
        "event_total": 53,
        "has_played": true,
        "id": 1810653,
        "last_rank": 28906,
        "player_name": "Matthew Brown",
        "rank": 33382,
        "rank_sort": 33414,
        "total": 2365
      },
      {
        "club_badge_src": null,
        "entry": 278677,
        "entry_name": "Toon Army",
        "event_total": 66,
        "has_played": true,
        "id": 1854776,
        "last_rank": 44303,
        "player_name": "Ross Ziniauskas",
        "rank": 33382,
        "rank_sort": 33415,
        "total": 2365
      },
      {
        "club_badge_src": null,
        "entry": 291224,
        "entry_name": "top secret",
        "event_total": 65,
        "has_played": true,
        "id": 1942415,
        "last_rank": 43168,
        "player_name": "ariel braunstein",
        "rank": 33382,
        "rank_sort": 33416,
        "total": 2365
      },
      {
        "club_badge_src": null,
        "entry": 309496,
        "entry_name": "Disc2",
        "event_total": 50,
        "has_played": true,
        "id": 2073138,
        "last_rank": 26230,
        "player_name": "Chinnawat Suriyadetwong",
        "rank": 33382,
        "rank_sort": 33417,
        "total": 2365
      },
      {
        "club_badge_src": null,
        "entry": 358243,
        "entry_name": "Kougkroi FC",
        "event_total": 48,
        "has_played": true,
        "id": 2397366,
        "last_rank": 18113,
        "player_name": "george zikakis",
        "rank": 33382,
        "rank_sort": 33418,
        "total": 2365
      },
      {
        "club_badge_src": null,
        "entry": 392821,
        "entry_name": "Andy\u2019s Army",
        "event_total": 63,
        "has_played": true,
        "id": 2634765,
        "last_rank": 40036,
        "player_name": "Andrew Stevenson",
        "rank": 33382,
        "rank_sort": 33419,
        "total": 2365
      },
      {
        "club_badge_src": null,
        "entry": 406196,
        "entry_name": "Pat_Dumnil",
        "event_total": 56,
        "has_played": true,
        "id": 2723487,
        "last_rank": 27976,
        "player_name": "Pitipat Dumnil",
        "rank": 33382,
        "rank_sort": 33420,
        "total": 2365
      },
      {
        "club_badge_src": null,
        "entry": 467930,
        "entry_name": "Under My Cucurella",
        "event_total": 63,
        "has_played": true,
        "id": 3140211,
        "last_rank": 40036,
        "player_name": "Sam Matthews",
        "rank": 33382,
        "rank_sort": 33421,
        "total": 2365
      },
      {
        "club_badge_src": null,
        "entry": 497068,
        "entry_name": "The Invincibles",
        "event_total": 66,
        "has_played": true,
        "id": 3336300,
        "last_rank": 44303,
        "player_name": "Aleksander S\u00f8rensen",
        "rank": 33382,
        "rank_sort": 33422,
        "total": 2365
      },
      {
        "club_badge_src": null,
        "entry": 532667,
        "entry_name": "Wizards of Oz",
        "event_total": 51,
        "has_played": true,
        "id": 3583412,
        "last_rank": 27020,
        "player_name": "Andrew Osborne",
        "rank": 33382,
        "rank_sort": 33423,
        "total": 2365
      },
      {
        "club_badge_src": null,
        "entry": 555684,
        "entry_name": "Bayern Bru",
        "event_total": 50,
        "has_played": true,
        "id": 3739892,
        "last_rank": 26230,
        "player_name": "Regan Hendry",
        "rank": 33382,
        "rank_sort": 33424,
        "total": 2365
      },
      {
        "club_badge_src": "https://fantasy.premierleague.com/gcs/plfpl-production-adobe-approved/plfpl-production/565499/535ad7c2-726e-419b-9e3b-a807de882a86.png",
        "entry": 565499,
        "entry_name": "Only Play Cleverley",
        "event_total": 56,
        "has_played": true,
        "id": 3806296,
        "last_rank": 27976,
        "player_name": "Matt Sweetman",
        "rank": 33382,
        "rank_sort": 33425,
        "total": 2365
      },
      {
        "club_badge_src": "https://fantasy.premierleague.com/gcs/plfpl-production-adobe-approved/plfpl-production/673650/0b4d7c45-a821-4880-b78c-aa051fe6d453.png",
        "entry": 673650,
        "entry_name": "oneill",
        "event_total": 63,
        "has_played": true,
        "id": 4556998,
        "last_rank": 40503,
        "player_name": "oneill lima",
        "rank": 33382,
        "rank_sort": 33426,
        "total": 2365
      },
      {
        "club_badge_src": null,
        "entry": 690166,
        "entry_name": "RWR BK",
        "event_total": 58,
        "has_played": true,
        "id": 4673206,
        "last_rank": 29904,
        "player_name": "Rasmus R\u00f8rb\u00e6k",
        "rank": 33382,
        "rank_sort": 33427,
        "total": 2365
      },
      {
        "club_badge_src": null,
        "entry": 695119,
        "entry_name": "Ndiaye Another Day",
        "event_total": 67,
        "has_played": true,
        "id": 4707982,
        "last_rank": 40297,
        "player_name": "Adam McNamara",
        "rank": 33382,
        "rank_sort": 33428,
        "total": 2365
      },
      {
        "club_badge_src": null,
        "entry": 708468,
        "entry_name": "Suwa\u00a0(\u0e07 \u2022\u0300_\u2022\u0301)\u0e07",
        "event_total": 63,
        "has_played": true,
        "id": 4801757,
        "last_rank": 40503,
        "player_name": "Suwa ---\u03c9--",
        "rank": 33382,
        "rank_sort": 33429,
        "total": 2365
      },
      {
        "club_badge_src": null,
        "entry": 751121,
        "entry_name": "Hugo Boss",
        "event_total": 52,
        "has_played": true,
        "id": 5110730,
        "last_rank": 24330,
        "player_name": "Adam Sinnott",
        "rank": 33382,
        "rank_sort": 33430,
        "total": 2365
      },
      {
        "club_badge_src": null,
        "entry": 751886,
        "entry_name": "the hearts are back",
        "event_total": 68,
        "has_played": true,
        "id": 5116257,
        "last_rank": 41617,
        "player_name": "Paul Leckie",
        "rank": 33382,
        "rank_sort": 33431,
        "total": 2365
      },
      {
        "club_badge_src": null,
        "entry": 773672,
        "entry_name": "Life of Bryan",
        "event_total": 45,
        "has_played": true,
        "id": 5278506,
        "last_rank": 22064,
        "player_name": "Matt Kershaw",
        "rank": 33382,
        "rank_sort": 33432,
        "total": 2365
      },
      {
        "club_badge_src": null,
        "entry": 794542,
        "entry_name": "Brahim Aamiss",
        "event_total": 61,
        "has_played": true,
        "id": 5437562,
        "last_rank": 33147,
        "player_name": "aamiss \ud83c\uddf5\ud83c\uddf8 brahim \ud83c\uddf5\ud83c\uddf8",
        "rank": 33382,
        "rank_sort": 33433,
        "total": 2365
      },
      {
        "club_badge_src": null,
        "entry": 803400,
        "entry_name": "Tito Mambo",
        "event_total": 49,
        "has_played": true,
        "id": 5499540,
        "last_rank": 25330,
        "player_name": "Mohamed Abed",
        "rank": 33382,
        "rank_sort": 33434,
        "total": 2365
      },
      {
        "club_badge_src": null,
        "entry": 804035,
        "entry_name": "Sesko and I know it",
        "event_total": 67,
        "has_played": true,
        "id": 5503960,
        "last_rank": 45927,
        "player_name": "Jude Jones",
        "rank": 33382,
        "rank_sort": 33435,
        "total": 2365
      },
      {
        "club_badge_src": null,
        "entry": 822446,
        "entry_name": "Delap Dance",
        "event_total": 61,
        "has_played": true,
        "id": 5632742,
        "last_rank": 28726,
        "player_name": "Alex Marsh",
        "rank": 33382,
        "rank_sort": 33436,
        "total": 2365
      },
      {
        "club_badge_src": null,
        "entry": 938597,
        "entry_name": "jimbobs11",
        "event_total": 36,
        "has_played": true,
        "id": 6460012,
        "last_rank": 13401,
        "player_name": "James Teasdale",
        "rank": 33382,
        "rank_sort": 33437,
        "total": 2365
      },
      {
        "club_badge_src": null,
        "entry": 947670,
        "entry_name": "Dokunamatata",
        "event_total": 76,
        "has_played": true,
        "id": 6527667,
        "last_rank": 60671,
        "player_name": "Jack Plowman",
        "rank": 33382,
        "rank_sort": 33438,
        "total": 2365
      },
      {
        "club_badge_src": null,
        "entry": 971907,
        "entry_name": "Viva Las Rat Pack",
        "event_total": 66,
        "has_played": true,
        "id": 6699720,
        "last_rank": 38774,
        "player_name": "Mark Boland",
        "rank": 33382,
        "rank_sort": 33439,
        "total": 2365
      },
      {
        "club_badge_src": null,
        "entry": 978673,
        "entry_name": "\u2606\u2606G.O.A.T\u2606\u2606",
        "event_total": 51,
        "has_played": true,
        "id": 6746913,
        "last_rank": 27304,
        "player_name": "Hearleng Paoparn-",
        "rank": 33382,
        "rank_sort": 33440,
        "total": 2365
      },
      {
        "club_badge_src": null,
        "entry": 1079403,
        "entry_name": "Victorious Secret",
        "event_total": 69,
        "has_played": true,
        "id": 7473927,
        "last_rank": 48898,
        "player_name": "Leigh Robinson",
        "rank": 33382,
        "rank_sort": 33441,
        "total": 2365
      },
      {
        "club_badge_src": "https://fantasy.premierleague.com/gcs/plfpl-production-adobe-approved/plfpl-production/1082404/81104f12-3d23-4bd4-94c9-562625e30a81.png",
        "entry": 1082404,
        "entry_name": "Wolf Pack",
        "event_total": 62,
        "has_played": true,
        "id": 7494811,
        "last_rank": 34293,
        "player_name": "Aslam -",
        "rank": 33382,
        "rank_sort": 33442,
        "total": 2365
      },
      {
        "club_badge_src": "https://fantasy.premierleague.com/gcs/plfpl-production-adobe-approved/plfpl-production/1135890/69e018aa-a8b7-49a4-829b-4e81549e80d4.png",
        "entry": 1135890,
        "entry_name": "Andromeda FC",
        "event_total": 62,
        "has_played": true,
        "id": 7873692,
        "last_rank": 34293,
        "player_name": "Maxim Raizenson",
        "rank": 33382,
        "rank_sort": 33443,
        "total": 2365
      },
      {
        "club_badge_src": null,
        "entry": 1177728,
        "entry_name": "Sonic Broom",
        "event_total": 56,
        "has_played": true,
        "id": 8171624,
        "last_rank": 32190,
        "player_name": "Jamie Broom",
        "rank": 33382,
        "rank_sort": 33444,
        "total": 2365
      },
      {
        "club_badge_src": "https://fantasy.premierleague.com/gcs/plfpl-production-adobe-approved/plfpl-production/1180371/72e61877-817f-4894-b721-4e5c7086b2f9.png",
        "entry": 1180371,
        "entry_name": "Knights of Honor",
        "event_total": 41,
        "has_played": true,
        "id": 8189815,
        "last_rank": 19103,
        "player_name": "Hossam Mohsen",
        "rank": 33382,
        "rank_sort": 33445,
        "total": 2365
      },
      {
        "club_badge_src": null,
        "entry": 1279351,
        "entry_name": "Do It For Diogo",
        "event_total": 50,
        "has_played": true,
        "id": 8889938,
        "last_rank": 26230,
        "player_name": "Todd Lomax",
        "rank": 33382,
        "rank_sort": 33446,
        "total": 2365
      },
      {
        "club_badge_src": null,
        "entry": 1367967,
        "entry_name": "burnaskopen",
        "event_total": 61,
        "has_played": true,
        "id": 9509477,
        "last_rank": 38016,
        "player_name": "James Bon",
        "rank": 33382,
        "rank_sort": 33447,
        "total": 2365
      },
      {
        "club_badge_src": null,
        "entry": 1391900,
        "entry_name": "idylankwang",
        "event_total": 57,
        "has_played": true,
        "id": 9683258,
        "last_rank": 33332,
        "player_name": "Dylan Kwang",
        "rank": 33382,
        "rank_sort": 33448,
        "total": 2365
      },
      {
        "club_badge_src": null,
        "entry": 1430031,
        "entry_name": "Acu\u00f1a Mateta",
        "event_total": 46,
        "has_played": true,
        "id": 9964419,
        "last_rank": 22685,
        "player_name": "Vova O\u2019Toole",
        "rank": 33382,
        "rank_sort": 33449,
        "total": 2365
      },
      {
        "club_badge_src": null,
        "entry": 1436141,
        "entry_name": "Farmer FC",
        "event_total": 77,
        "has_played": true,
        "id": 10007019,
        "last_rank": 54667,
        "player_name": "William Farmer",
        "rank": 33382,
        "rank_sort": 33450,
        "total": 2365
      }
    ]
  }
}