{
  "last_updated_data": "2026-05-24T23:28:17Z",
  "league": {
    "admin_entry": null,
    "closed": false,
    "code_privacy": "p",
    "created": "2025-07-20T23:14:33.933835Z",
    "cup_league": 2815434,
    "has_cup": true,
    "id": 314,
    "league_type": "s",
    "max_entries": null,
    "name": "Overall",
    "rank": null,
    "scoring": "c",
    "start_event": 1
  },
  "new_entries": {
    "has_next": false,
    "page": 1,
    "results": []
  },
  "standings": {
    "has_next": true,
    "page": 1194,
    "results": [
      {
        "club_badge_src": null,
        "entry": 892268,
        "entry_name": "SongOfRiceAndFire",
        "event_total": 65,
        "has_played": true,
        "id": 6126862,
        "last_rank": 67422,
        "player_name": "Mitchell Trebbin",
        "rank": 59580,
        "rank_sort": 59651,
        "total": 2346
      },
      {
        "club_badge_src": "https://fantasy.premierleague.com/gcs/plfpl-production-adobe-approved/plfpl-production/917014/d0260e47-2f43-44da-96b6-768c32e94e65.png",
        "entry": 917014,
        "entry_name": "Mungos Majestics",
        "event_total": 77,
        "has_played": true,
        "id": 6305977,
        "last_rank": 93883,
        "player_name": "John Murray",
        "rank": 59580,
        "rank_sort": 59652,
        "total": 2346
      },
      {
        "club_badge_src": null,
        "entry": 922102,
        "entry_name": "Winnerpool",
        "event_total": 51,
        "has_played": true,
        "id": 6341784,
        "last_rank": 50199,
        "player_name": "Torstein Lund",
        "rank": 59580,
        "rank_sort": 59653,
        "total": 2346
      },
      {
        "club_badge_src": null,
        "entry": 944802,
        "entry_name": "Wearside Fc",
        "event_total": 70,
        "has_played": true,
        "id": 6507494,
        "last_rank": 86304,
        "player_name": "Hussain Miah",
        "rank": 59580,
        "rank_sort": 59654,
        "total": 2346
      },
      {
        "club_badge_src": null,
        "entry": 961492,
        "entry_name": "FPL Tanpa Nama",
        "event_total": 65,
        "has_played": true,
        "id": 6625756,
        "last_rank": 67422,
        "player_name": "Muhammad Fadhlan",
        "rank": 59580,
        "rank_sort": 59655,
        "total": 2346
      },
      {
        "club_badge_src": null,
        "entry": 1013387,
        "entry_name": "KanyeWestHam",
        "event_total": 58,
        "has_played": true,
        "id": 7010379,
        "last_rank": 55014,
        "player_name": "Tony Moran",
        "rank": 59580,
        "rank_sort": 59656,
        "total": 2346
      },
      {
        "club_badge_src": null,
        "entry": 1015557,
        "entry_name": "Rutter Woke Nonsense",
        "event_total": 67,
        "has_played": true,
        "id": 7025651,
        "last_rank": 71386,
        "player_name": "Akshat Kumar",
        "rank": 59580,
        "rank_sort": 59657,
        "total": 2346
      },
      {
        "club_badge_src": null,
        "entry": 1019673,
        "entry_name": "\u0639\u0628\u062f \u0627\u0644\u0633\u0644\u0627\u0645",
        "event_total": 46,
        "has_played": true,
        "id": 7054537,
        "last_rank": 43342,
        "player_name": "\u0627\u0644\u0645\u0648\u062c \u0627\u0644\u0627\u0632\u0631\u0642",
        "rank": 59580,
        "rank_sort": 59658,
        "total": 2346
      },
      {
        "club_badge_src": null,
        "entry": 1058985,
        "entry_name": "hames 11",
        "event_total": 64,
        "has_played": true,
        "id": 7328843,
        "last_rank": 73038,
        "player_name": "James Orton",
        "rank": 59580,
        "rank_sort": 59659,
        "total": 2346
      },
      {
        "club_badge_src": null,
        "entry": 1101077,
        "entry_name": "Haaland&WirtzWelders",
        "event_total": 40,
        "has_played": true,
        "id": 7626763,
        "last_rank": 35619,
        "player_name": "Stephen Ellis",
        "rank": 59580,
        "rank_sort": 59660,
        "total": 2346
      },
      {
        "club_badge_src": null,
        "entry": 1138645,
        "entry_name": "Beef Cherki",
        "event_total": 64,
        "has_played": true,
        "id": 7892861,
        "last_rank": 73423,
        "player_name": "James Taylor",
        "rank": 59580,
        "rank_sort": 59661,
        "total": 2346
      },
      {
        "club_badge_src": null,
        "entry": 1145413,
        "entry_name": "Salah-vation Army",
        "event_total": 55,
        "has_played": true,
        "id": 7940992,
        "last_rank": 57001,
        "player_name": "Tom McFadden",
        "rank": 59580,
        "rank_sort": 59662,
        "total": 2346
      },
      {
        "club_badge_src": null,
        "entry": 1151692,
        "entry_name": "Kruttsterkt",
        "event_total": 70,
        "has_played": true,
        "id": 7985379,
        "last_rank": 86735,
        "player_name": "Jan Roar Robertsen",
        "rank": 59580,
        "rank_sort": 59663,
        "total": 2346
      },
      {
        "club_badge_src": null,
        "entry": 1210460,
        "entry_name": "ThunderRoad",
        "event_total": 31,
        "has_played": true,
        "id": 8401447,
        "last_rank": 22685,
        "player_name": "Stephen Dorby",
        "rank": 59580,
        "rank_sort": 59664,
        "total": 2346
      },
      {
        "club_badge_src": null,
        "entry": 1278621,
        "entry_name": "Xhaka Khan",
        "event_total": 65,
        "has_played": true,
        "id": 8884847,
        "last_rank": 75139,
        "player_name": "Kyle Martin",
        "rank": 59580,
        "rank_sort": 59665,
        "total": 2346
      },
      {
        "club_badge_src": null,
        "entry": 1313644,
        "entry_name": "Talal S",
        "event_total": 63,
        "has_played": true,
        "id": 9130729,
        "last_rank": 71713,
        "player_name": "Talal S",
        "rank": 59580,
        "rank_sort": 59666,
        "total": 2346
      },
      {
        "club_badge_src": null,
        "entry": 1368509,
        "entry_name": "MOT",
        "event_total": 44,
        "has_played": true,
        "id": 9513109,
        "last_rank": 40503,
        "player_name": "Stephen Strosko",
        "rank": 59580,
        "rank_sort": 59667,
        "total": 2346
      },
      {
        "club_badge_src": null,
        "entry": 1406443,
        "entry_name": "Borussia Teeth",
        "event_total": 49,
        "has_played": true,
        "id": 9786122,
        "last_rank": 47596,
        "player_name": "Conor Mulvey",
        "rank": 59580,
        "rank_sort": 59668,
        "total": 2346
      },
      {
        "club_badge_src": "https://fantasy.premierleague.com/gcs/plfpl-production-adobe-approved/plfpl-production/1420869/9c11969e-0424-40b9-8258-a9aa41cfca38.png",
        "entry": 1420869,
        "entry_name": "Not MikeDean Forever",
        "event_total": 56,
        "has_played": true,
        "id": 9893398,
        "last_rank": 58388,
        "player_name": "Joseph Carter",
        "rank": 59580,
        "rank_sort": 59669,
        "total": 2346
      },
      {
        "club_badge_src": null,
        "entry": 1476017,
        "entry_name": "Kaffasovic",
        "event_total": 43,
        "has_played": true,
        "id": 10289054,
        "last_rank": 39403,
        "player_name": "Wael Kaffas",
        "rank": 59580,
        "rank_sort": 59670,
        "total": 2346
      },
      {
        "club_badge_src": null,
        "entry": 1492311,
        "entry_name": "G350 V2",
        "event_total": 49,
        "has_played": true,
        "id": 10406753,
        "last_rank": 47163,
        "player_name": "apexi pitt",
        "rank": 59580,
        "rank_sort": 59671,
        "total": 2346
      },
      {
        "club_badge_src": null,
        "entry": 1505156,
        "entry_name": "YJAkolade",
        "event_total": 52,
        "has_played": true,
        "id": 10497077,
        "last_rank": 52205,
        "player_name": "Yahaya Jnr",
        "rank": 59580,
        "rank_sort": 59672,
        "total": 2346
      },
      {
        "club_badge_src": null,
        "entry": 1532016,
        "entry_name": "vizionar fabianski",
        "event_total": 56,
        "has_played": true,
        "id": 10691059,
        "last_rank": 58388,
        "player_name": "Fabian Samardzic",
        "rank": 59580,
        "rank_sort": 59673,
        "total": 2346
      },
      {
        "club_badge_src": null,
        "entry": 1596328,
        "entry_name": "ADIDAZZLERS",
        "event_total": 51,
        "has_played": true,
        "id": 11166846,
        "last_rank": 50468,
        "player_name": "Darren Oakes",
        "rank": 59580,
        "rank_sort": 59674,
        "total": 2346
      },
      {
        "club_badge_src": null,
        "entry": 1608315,
        "entry_name": "Zubi or not Zubi",
        "event_total": 62,
        "has_played": true,
        "id": 11252594,
        "last_rank": 68957,
        "player_name": "Elena Georgiou",
        "rank": 59580,
        "rank_sort": 59675,
        "total": 2346
      },
      {
        "club_badge_src": null,
        "entry": 1630780,
        "entry_name": "BaldyBalls",
        "event_total": 56,
        "has_played": true,
        "id": 11414419,
        "last_rank": 58688,
        "player_name": "Keith Brown",
        "rank": 59580,
        "rank_sort": 59676,
        "total": 2346
      },
      {
        "club_badge_src": null,
        "entry": 1637684,
        "entry_name": "Vava fighting!!",
        "event_total": 55,
        "has_played": true,
        "id": 11463105,
        "last_rank": 50199,
        "player_name": "Parinya Lertviriyasak",
        "rank": 59580,
        "rank_sort": 59677,
        "total": 2346
      },
      {
        "club_badge_src": null,
        "entry": 1644182,
        "entry_name": "Rock n Roll Sarr",
        "event_total": 57,
        "has_played": true,
        "id": 11509436,
        "last_rank": 60462,
        "player_name": "Ted Morton",
        "rank": 59580,
        "rank_sort": 59678,
        "total": 2346
      },
      {
        "club_badge_src": null,
        "entry": 1670168,
        "entry_name": "Caicedo Later",
        "event_total": 53,
        "has_played": true,
        "id": 11693436,
        "last_rank": 53621,
        "player_name": "Emil Tofte Christensen",
        "rank": 59580,
        "rank_sort": 59679,
        "total": 2346
      },
      {
        "club_badge_src": null,
        "entry": 1693720,
        "entry_name": "WorldClubChamps25",
        "event_total": 44,
        "has_played": true,
        "id": 11862510,
        "last_rank": 40503,
        "player_name": "Simon Winspear",
        "rank": 59580,
        "rank_sort": 59680,
        "total": 2346
      },
      {
        "club_badge_src": null,
        "entry": 1727729,
        "entry_name": "\u0643\u0628\u064a\u0631 \u0627\u0644\u0645\u062c\u0627\u0644",
        "event_total": 52,
        "has_played": true,
        "id": 12117006,
        "last_rank": 51984,
        "player_name": "mohamed adel mohamed",
        "rank": 59580,
        "rank_sort": 59681,
        "total": 2346
      },
      {
        "club_badge_src": null,
        "entry": 1779628,
        "entry_name": "The rider",
        "event_total": 37,
        "has_played": true,
        "id": 12502890,
        "last_rank": 32190,
        "player_name": "Mohammed Almustafa Ismail",
        "rank": 59580,
        "rank_sort": 59682,
        "total": 2346
      },
      {
        "club_badge_src": null,
        "entry": 1801267,
        "entry_name": "Dewventus",
        "event_total": 53,
        "has_played": true,
        "id": 12661921,
        "last_rank": 53621,
        "player_name": "Nathan Dewey",
        "rank": 59580,
        "rank_sort": 59683,
        "total": 2346
      },
      {
        "club_badge_src": null,
        "entry": 1826112,
        "entry_name": "Olavrex",
        "event_total": 64,
        "has_played": true,
        "id": 12844114,
        "last_rank": 65475,
        "player_name": "Karl Olav Sorli",
        "rank": 59580,
        "rank_sort": 59684,
        "total": 2346
      },
      {
        "club_badge_src": null,
        "entry": 1850165,
        "entry_name": "The best",
        "event_total": 54,
        "has_played": true,
        "id": 13019064,
        "last_rank": 55311,
        "player_name": "masheal Saleh",
        "rank": 59580,
        "rank_sort": 59685,
        "total": 2346
      },
      {
        "club_badge_src": null,
        "entry": 1856373,
        "entry_name": "wachulce",
        "event_total": 51,
        "has_played": true,
        "id": 13064323,
        "last_rank": 50199,
        "player_name": "Marek Wa\u015bk",
        "rank": 59580,
        "rank_sort": 59686,
        "total": 2346
      },
      {
        "club_badge_src": null,
        "entry": 1923948,
        "entry_name": "Athletico Cork",
        "event_total": 68,
        "has_played": true,
        "id": 13568437,
        "last_rank": 82069,
        "player_name": "David O Leary",
        "rank": 59580,
        "rank_sort": 59687,
        "total": 2346
      },
      {
        "club_badge_src": "https://fantasy.premierleague.com/gcs/plfpl-production-adobe-approved/plfpl-production/1999620/08fb0e2a-da72-447b-a62e-489624fac8c0.png",
        "entry": 1999620,
        "entry_name": "zakafan",
        "event_total": 82,
        "has_played": true,
        "id": 14135269,
        "last_rank": 117423,
        "player_name": "zakaria elyousfi",
        "rank": 59580,
        "rank_sort": 59688,
        "total": 2346
      },
      {
        "club_badge_src": "https://fantasy.premierleague.com/gcs/plfpl-production-adobe-approved/plfpl-production/2003382/88899eb4-876a-4d5b-9080-f5cd3cb4abae.png",
        "entry": 2003382,
        "entry_name": "Invisible Team",
        "event_total": 60,
        "has_played": true,
        "id": 14163699,
        "last_rank": 58071,
        "player_name": "Rahadian Mardani",
        "rank": 59580,
        "rank_sort": 59689,
        "total": 2346
      },
      {
        "club_badge_src": null,
        "entry": 2037228,
        "entry_name": "Bobby Cumming XI",
        "event_total": 54,
        "has_played": true,
        "id": 14425788,
        "last_rank": 54667,
        "player_name": "Tim Clarke",
        "rank": 59580,
        "rank_sort": 59690,
        "total": 2346
      },
      {
        "club_badge_src": null,
        "entry": 2057905,
        "entry_name": "Dom is Solanke",
        "event_total": 64,
        "has_played": true,
        "id": 14578703,
        "last_rank": 65475,
        "player_name": "Dom Romer",
        "rank": 59580,
        "rank_sort": 59691,
        "total": 2346
      },
      {
        "club_badge_src": null,
        "entry": 2089477,
        "entry_name": "Skri\u00f0a FC",
        "event_total": 50,
        "has_played": true,
        "id": 14824241,
        "last_rank": 48642,
        "player_name": "Atli Mar Sigurdsson",
        "rank": 59580,
        "rank_sort": 59692,
        "total": 2346
      },
      {
        "club_badge_src": null,
        "entry": 2136748,
        "entry_name": "ChatVVD",
        "event_total": 56,
        "has_played": true,
        "id": 15185657,
        "last_rank": 58688,
        "player_name": "Steven Bell",
        "rank": 59580,
        "rank_sort": 59693,
        "total": 2346
      },
      {
        "club_badge_src": null,
        "entry": 2177473,
        "entry_name": "Ero\u010d\u016f\u0148a V\u00e1lec",
        "event_total": 65,
        "has_played": true,
        "id": 15485313,
        "last_rank": 75537,
        "player_name": "Luk\u00e1\u0161 Bedecs",
        "rank": 59580,
        "rank_sort": 59694,
        "total": 2346
      },
      {
        "club_badge_src": null,
        "entry": 2177903,
        "entry_name": "\u725b\u8089\u52a0\u8471\u82b1 \u8981\u70cf\u51ac\u55ce",
        "event_total": 56,
        "has_played": true,
        "id": 15488439,
        "last_rank": 58688,
        "player_name": "Kevin Wong",
        "rank": 59580,
        "rank_sort": 59695,
        "total": 2346
      },
      {
        "club_badge_src": null,
        "entry": 2373062,
        "entry_name": "Power Reijnders",
        "event_total": 56,
        "has_played": true,
        "id": 16940807,
        "last_rank": 51720,
        "player_name": "Nikola Andic",
        "rank": 59580,
        "rank_sort": 59696,
        "total": 2346
      },
      {
        "club_badge_src": "https://fantasy.premierleague.com/gcs/plfpl-production-adobe-approved/plfpl-production/2387589/431f5e01-68c8-4080-85b2-0bec3844edc5.png",
        "entry": 2387589,
        "entry_name": "Boehly Moly",
        "event_total": 56,
        "has_played": true,
        "id": 17053622,
        "last_rank": 58388,
        "player_name": "Barney Wilson",
        "rank": 59580,
        "rank_sort": 59697,
        "total": 2346
      },
      {
        "club_badge_src": "https://fantasy.premierleague.com/gcs/plfpl-production-adobe-approved/plfpl-production/2448047/147ad910-72cd-45a3-9e17-e69047eca136.png",
        "entry": 2448047,
        "entry_name": "Gunnersaurus FC",
        "event_total": 53,
        "has_played": true,
        "id": 17508798,
        "last_rank": 53621,
        "player_name": "Mateo Gil Prieto",
        "rank": 59580,
        "rank_sort": 59698,
        "total": 2346
      },
      {
        "club_badge_src": null,
        "entry": 2452863,
        "entry_name": "Xalkanoras",
        "event_total": 57,
        "has_played": true,
        "id": 17543882,
        "last_rank": 60462,
        "player_name": "Angelos Taliotis",
        "rank": 59580,
        "rank_sort": 59699,
        "total": 2346
      },
      {
        "club_badge_src": null,
        "entry": 2598210,
        "entry_name": "Power Reijnders",
        "event_total": 80,
        "has_played": true,
        "id": 18659337,
        "last_rank": 112960,
        "player_name": "Shaakir Soni",
        "rank": 59580,
        "rank_sort": 59700,
        "total": 2346
      }
    ]
  }
}