{
  "last_updated_data": "2026-05-24T23:28:17Z",
  "league": {
    "admin_entry": null,
    "closed": false,
    "code_privacy": "p",
    "created": "2025-07-20T23:14:33.933835Z",
    "cup_league": 2815434,
    "has_cup": true,
    "id": 314,
    "league_type": "s",
    "max_entries": null,
    "name": "Overall",
    "rank": null,
    "scoring": "c",
    "start_event": 1
  },
  "new_entries": {
    "has_next": false,
    "page": 1,
    "results": []
  },
  "standings": {
    "has_next": true,
    "page": 188,
    "results": [
      {
        "club_badge_src": null,
        "entry": 6139891,
        "entry_name": "Men With Ven",
        "event_total": 57,
        "has_played": true,
        "id": 48524443,
        "last_rank": 8854,
        "player_name": "Declan Murphy",
        "rank": 9280,
        "rank_sort": 9351,
        "total": 2400
      },
      {
        "club_badge_src": "https://fantasy.premierleague.com/gcs/plfpl-production-adobe-approved/plfpl-production/6822665/498dcbff-c5ff-437e-a02d-3e8bee7c1783.png",
        "entry": 6822665,
        "entry_name": "SIMMY",
        "event_total": 53,
        "has_played": true,
        "id": 54646738,
        "last_rank": 7375,
        "player_name": "Joachim Hilleren",
        "rank": 9280,
        "rank_sort": 9352,
        "total": 2400
      },
      {
        "club_badge_src": null,
        "entry": 6908683,
        "entry_name": "Mostafa Elrokh",
        "event_total": 71,
        "has_played": true,
        "id": 55376892,
        "last_rank": 15694,
        "player_name": "Mostafa Elrokh",
        "rank": 9280,
        "rank_sort": 9353,
        "total": 2400
      },
      {
        "club_badge_src": null,
        "entry": 6974731,
        "entry_name": "cnnsdmmanrb",
        "event_total": 60,
        "has_played": true,
        "id": 55956210,
        "last_rank": 8382,
        "player_name": "Gerard McIntyre",
        "rank": 9280,
        "rank_sort": 9354,
        "total": 2400
      },
      {
        "club_badge_src": null,
        "entry": 7013473,
        "entry_name": "FC PRINCE",
        "event_total": 48,
        "has_played": true,
        "id": 56327353,
        "last_rank": 6011,
        "player_name": "ahmed afsal",
        "rank": 9280,
        "rank_sort": 9355,
        "total": 2400
      },
      {
        "club_badge_src": null,
        "entry": 7162977,
        "entry_name": "Gullit the dogs out",
        "event_total": 67,
        "has_played": true,
        "id": 57783843,
        "last_rank": 11237,
        "player_name": "Finn McC",
        "rank": 9280,
        "rank_sort": 9356,
        "total": 2400
      },
      {
        "club_badge_src": null,
        "entry": 7610553,
        "entry_name": "CF Loma Verde",
        "event_total": 67,
        "has_played": true,
        "id": 62359727,
        "last_rank": 13401,
        "player_name": "Chris Jones",
        "rank": 9280,
        "rank_sort": 9357,
        "total": 2400
      },
      {
        "club_badge_src": "https://fantasy.premierleague.com/gcs/plfpl-production-adobe-approved/plfpl-production/7626738/ac8d0d35-12b5-40eb-8cf7-1c06e94bda17.png",
        "entry": 7626738,
        "entry_name": "A girl has no name",
        "event_total": 72,
        "has_played": true,
        "id": 62506877,
        "last_rank": 13754,
        "player_name": "A Girl",
        "rank": 9280,
        "rank_sort": 9358,
        "total": 2400
      },
      {
        "club_badge_src": null,
        "entry": 7931746,
        "entry_name": "Moyes Will Be Moyes",
        "event_total": 55,
        "has_played": true,
        "id": 65276684,
        "last_rank": 8138,
        "player_name": "Glen Seabrook",
        "rank": 9280,
        "rank_sort": 9359,
        "total": 2400
      },
      {
        "club_badge_src": null,
        "entry": 8294849,
        "entry_name": "Salas\u2013\u0625\u0630\u0627 \u0636\u0631\u0628\u062a \u0641\u0623\u0648\u062c\u0639",
        "event_total": 79,
        "has_played": true,
        "id": 68655706,
        "last_rank": 21301,
        "player_name": "Salah Ghoumar",
        "rank": 9280,
        "rank_sort": 9360,
        "total": 2400
      },
      {
        "club_badge_src": null,
        "entry": 8305061,
        "entry_name": "Cooper's Troopers",
        "event_total": 59,
        "has_played": true,
        "id": 68763229,
        "last_rank": 7979,
        "player_name": "Charlotte Cooper",
        "rank": 9280,
        "rank_sort": 9361,
        "total": 2400
      },
      {
        "club_badge_src": null,
        "entry": 8368222,
        "entry_name": "Kutrius",
        "event_total": 68,
        "has_played": true,
        "id": 69377901,
        "last_rank": 13754,
        "player_name": "Kerim Suljevic",
        "rank": 9280,
        "rank_sort": 9362,
        "total": 2400
      },
      {
        "club_badge_src": null,
        "entry": 8912478,
        "entry_name": "Yoro Wizard Leny",
        "event_total": 69,
        "has_played": true,
        "id": 74630635,
        "last_rank": 14370,
        "player_name": "Daniel Evans",
        "rank": 9280,
        "rank_sort": 9363,
        "total": 2400
      },
      {
        "club_badge_src": null,
        "entry": 8993821,
        "entry_name": "the vibers",
        "event_total": 52,
        "has_played": true,
        "id": 75421603,
        "last_rank": 5940,
        "player_name": "Michael Chen",
        "rank": 9280,
        "rank_sort": 9364,
        "total": 2400
      },
      {
        "club_badge_src": null,
        "entry": 9061788,
        "entry_name": "Coldy FC",
        "event_total": 65,
        "has_played": true,
        "id": 76079501,
        "last_rank": 12322,
        "player_name": "Muhammad Ramiz Ebrahim",
        "rank": 9280,
        "rank_sort": 9365,
        "total": 2400
      },
      {
        "club_badge_src": null,
        "entry": 5563,
        "entry_name": "Dango Chutney",
        "event_total": 62,
        "has_played": true,
        "id": 31722,
        "last_rank": 7676,
        "player_name": "Adam Seel",
        "rank": 9366,
        "rank_sort": 9366,
        "total": 2400
      },
      {
        "club_badge_src": null,
        "entry": 9425,
        "entry_name": "BGCreW",
        "event_total": 46,
        "has_played": true,
        "id": 55412,
        "last_rank": 5498,
        "player_name": "Nikolay Zheynov",
        "rank": 9366,
        "rank_sort": 9367,
        "total": 2400
      },
      {
        "club_badge_src": null,
        "entry": 10199,
        "entry_name": "OM",
        "event_total": 50,
        "has_played": true,
        "id": 60234,
        "last_rank": 6579,
        "player_name": "Ossama Mouslimani",
        "rank": 9366,
        "rank_sort": 9368,
        "total": 2400
      },
      {
        "club_badge_src": "https://fantasy.premierleague.com/gcs/plfpl-production-adobe-approved/plfpl-production/11697/737572dc-5683-4939-b974-e87802040661.png",
        "entry": 11697,
        "entry_name": "FPL Engineering",
        "event_total": 65,
        "has_played": true,
        "id": 69628,
        "last_rank": 10462,
        "player_name": "Mihai Tataru",
        "rank": 9366,
        "rank_sort": 9369,
        "total": 2400
      },
      {
        "club_badge_src": null,
        "entry": 42805,
        "entry_name": "Bomber's Babies",
        "event_total": 60,
        "has_played": true,
        "id": 274190,
        "last_rank": 8484,
        "player_name": "Tom Harris",
        "rank": 9366,
        "rank_sort": 9370,
        "total": 2400
      },
      {
        "club_badge_src": null,
        "entry": 55920,
        "entry_name": "Absolute_Legends",
        "event_total": 62,
        "has_played": true,
        "id": 360137,
        "last_rank": 9248,
        "player_name": "Daren Milsom",
        "rank": 9366,
        "rank_sort": 9371,
        "total": 2400
      },
      {
        "club_badge_src": null,
        "entry": 111859,
        "entry_name": "theunderdogs",
        "event_total": 48,
        "has_played": true,
        "id": 729322,
        "last_rank": 5011,
        "player_name": "Achintya Singh",
        "rank": 9366,
        "rank_sort": 9372,
        "total": 2400
      },
      {
        "club_badge_src": "https://fantasy.premierleague.com/gcs/plfpl-production-adobe-approved/plfpl-production/127168/f13ad2e7-775d-4da4-814d-3c85a9a345bc.png",
        "entry": 127168,
        "entry_name": "Mila Tigers",
        "event_total": 67,
        "has_played": true,
        "id": 829098,
        "last_rank": 11237,
        "player_name": "Phu Nguyen",
        "rank": 9366,
        "rank_sort": 9373,
        "total": 2400
      },
      {
        "club_badge_src": "https://fantasy.premierleague.com/gcs/plfpl-production-adobe-approved/plfpl-production/169353/e41c57a1-e592-4f33-831a-93337e67d26b.png",
        "entry": 169353,
        "entry_name": "Ngu mower",
        "event_total": 59,
        "has_played": true,
        "id": 1119154,
        "last_rank": 8138,
        "player_name": "Andrew Winter",
        "rank": 9366,
        "rank_sort": 9374,
        "total": 2400
      },
      {
        "club_badge_src": null,
        "entry": 215722,
        "entry_name": "Liquid Football",
        "event_total": 55,
        "has_played": true,
        "id": 1434795,
        "last_rank": 6839,
        "player_name": "Jordan Henderson",
        "rank": 9366,
        "rank_sort": 9375,
        "total": 2400
      },
      {
        "club_badge_src": null,
        "entry": 220209,
        "entry_name": "Struijk of Genius",
        "event_total": 63,
        "has_played": true,
        "id": 1464610,
        "last_rank": 11419,
        "player_name": "Coby Link",
        "rank": 9366,
        "rank_sort": 9376,
        "total": 2400
      },
      {
        "club_badge_src": null,
        "entry": 241028,
        "entry_name": "GudmundssonGoodTeam",
        "event_total": 61,
        "has_played": true,
        "id": 1604249,
        "last_rank": 10556,
        "player_name": "Callum Jepson",
        "rank": 9366,
        "rank_sort": 9377,
        "total": 2400
      },
      {
        "club_badge_src": null,
        "entry": 275123,
        "entry_name": "Infinity Stones",
        "event_total": 59,
        "has_played": true,
        "id": 1830891,
        "last_rank": 8138,
        "player_name": "M S",
        "rank": 9366,
        "rank_sort": 9378,
        "total": 2400
      },
      {
        "club_badge_src": null,
        "entry": 585057,
        "entry_name": "Brighton Hurley",
        "event_total": 61,
        "has_played": true,
        "id": 3937315,
        "last_rank": 7375,
        "player_name": "Ian Hurley",
        "rank": 9366,
        "rank_sort": 9379,
        "total": 2400
      },
      {
        "club_badge_src": "https://fantasy.premierleague.com/gcs/plfpl-production-adobe-approved/plfpl-production/646463/1ecf0d27-5973-4c08-bf2f-49c70f7dd315.png",
        "entry": 646463,
        "entry_name": "Chippy Chips FC",
        "event_total": 52,
        "has_played": true,
        "id": 4368729,
        "last_rank": 7059,
        "player_name": "Shashwat Trivedi",
        "rank": 9366,
        "rank_sort": 9380,
        "total": 2400
      },
      {
        "club_badge_src": "https://fantasy.premierleague.com/gcs/plfpl-production-adobe-approved/plfpl-production/661157/10b30755-fb82-4f6a-9b6e-9009b178c25d.png",
        "entry": 661157,
        "entry_name": "Joao alpha",
        "event_total": 60,
        "has_played": true,
        "id": 4468540,
        "last_rank": 10102,
        "player_name": "Alpha Hussein",
        "rank": 9366,
        "rank_sort": 9381,
        "total": 2400
      },
      {
        "club_badge_src": null,
        "entry": 882043,
        "entry_name": "al3sily",
        "event_total": 66,
        "has_played": true,
        "id": 6048930,
        "last_rank": 12940,
        "player_name": "Ahmad al3sily",
        "rank": 9366,
        "rank_sort": 9382,
        "total": 2400
      },
      {
        "club_badge_src": null,
        "entry": 1203383,
        "entry_name": "Gy\u00f6k 'n' Roll",
        "event_total": 48,
        "has_played": true,
        "id": 8350989,
        "last_rank": 6061,
        "player_name": "Jack Bromley",
        "rank": 9366,
        "rank_sort": 9383,
        "total": 2400
      },
      {
        "club_badge_src": null,
        "entry": 1244101,
        "entry_name": "hogan",
        "event_total": 70,
        "has_played": true,
        "id": 8640321,
        "last_rank": 15063,
        "player_name": "ho mar",
        "rank": 9366,
        "rank_sort": 9384,
        "total": 2400
      },
      {
        "club_badge_src": null,
        "entry": 1270672,
        "entry_name": "omar.aizen",
        "event_total": 60,
        "has_played": true,
        "id": 8828705,
        "last_rank": 10031,
        "player_name": "omar Khaled",
        "rank": 9366,
        "rank_sort": 9385,
        "total": 2400
      },
      {
        "club_badge_src": null,
        "entry": 1440847,
        "entry_name": "FPL XI 2025/26",
        "event_total": 69,
        "has_played": true,
        "id": 10040159,
        "last_rank": 10346,
        "player_name": "Thomas Vaupres",
        "rank": 9366,
        "rank_sort": 9386,
        "total": 2400
      },
      {
        "club_badge_src": "https://fantasy.premierleague.com/gcs/plfpl-production-adobe-approved/plfpl-production/1583358/7b136deb-e233-4cca-8b49-e3f6448feac9.png",
        "entry": 1583358,
        "entry_name": "-4 Every Gameweek",
        "event_total": 64,
        "has_played": true,
        "id": 11065762,
        "last_rank": 10031,
        "player_name": "Yiu Cheuk Ting",
        "rank": 9366,
        "rank_sort": 9387,
        "total": 2400
      },
      {
        "club_badge_src": null,
        "entry": 1712771,
        "entry_name": "special ones",
        "event_total": 51,
        "has_played": true,
        "id": 12001319,
        "last_rank": 6887,
        "player_name": "Ali Aqeel",
        "rank": 9366,
        "rank_sort": 9388,
        "total": 2400
      },
      {
        "club_badge_src": null,
        "entry": 1854650,
        "entry_name": "MosalahDosa",
        "event_total": 62,
        "has_played": true,
        "id": 13051411,
        "last_rank": 10920,
        "player_name": "Umar Nazir",
        "rank": 9366,
        "rank_sort": 9389,
        "total": 2400
      },
      {
        "club_badge_src": null,
        "entry": 2184552,
        "entry_name": "Sant FC",
        "event_total": 71,
        "has_played": true,
        "id": 15539683,
        "last_rank": 15694,
        "player_name": "Daniel Sant",
        "rank": 9366,
        "rank_sort": 9390,
        "total": 2400
      },
      {
        "club_badge_src": null,
        "entry": 2296574,
        "entry_name": "Nasos Nasos",
        "event_total": 66,
        "has_played": true,
        "id": 16379459,
        "last_rank": 12940,
        "player_name": "Fotis Apostolopoulos",
        "rank": 9366,
        "rank_sort": 9391,
        "total": 2400
      },
      {
        "club_badge_src": null,
        "entry": 3457921,
        "entry_name": "Blackburn 4ever",
        "event_total": 57,
        "has_played": true,
        "id": 25701905,
        "last_rank": 8925,
        "player_name": "huanchao ng",
        "rank": 9366,
        "rank_sort": 9392,
        "total": 2400
      },
      {
        "club_badge_src": null,
        "entry": 3913731,
        "entry_name": "Reality Dysfunction",
        "event_total": 67,
        "has_played": true,
        "id": 29427420,
        "last_rank": 11237,
        "player_name": "Simon Allen",
        "rank": 9366,
        "rank_sort": 9393,
        "total": 2400
      },
      {
        "club_badge_src": null,
        "entry": 3923851,
        "entry_name": "Team Myklebust",
        "event_total": 60,
        "has_played": true,
        "id": 29508084,
        "last_rank": 8484,
        "player_name": "Sveinung Myklebust",
        "rank": 9366,
        "rank_sort": 9394,
        "total": 2400
      },
      {
        "club_badge_src": null,
        "entry": 4019681,
        "entry_name": "Smacke FC",
        "event_total": 61,
        "has_played": true,
        "id": 30295167,
        "last_rank": 10556,
        "player_name": "Kim Siberg",
        "rank": 9366,
        "rank_sort": 9395,
        "total": 2400
      },
      {
        "club_badge_src": null,
        "entry": 4564232,
        "entry_name": "Sub 4 FM",
        "event_total": 65,
        "has_played": true,
        "id": 34829736,
        "last_rank": 10462,
        "player_name": "Tineswaran S",
        "rank": 9366,
        "rank_sort": 9396,
        "total": 2400
      },
      {
        "club_badge_src": null,
        "entry": 4790018,
        "entry_name": "RedDevils",
        "event_total": 58,
        "has_played": true,
        "id": 36876262,
        "last_rank": 7761,
        "player_name": "Walid ElHenawy",
        "rank": 9366,
        "rank_sort": 9397,
        "total": 2400
      },
      {
        "club_badge_src": null,
        "entry": 4955747,
        "entry_name": "Swansalona",
        "event_total": 68,
        "has_played": true,
        "id": 38241460,
        "last_rank": 11821,
        "player_name": "Callum Smale",
        "rank": 9366,
        "rank_sort": 9398,
        "total": 2400
      },
      {
        "club_badge_src": "https://fantasy.premierleague.com/gcs/plfpl-production-adobe-approved/plfpl-production/5159171/1e52aab9-dc23-47c4-a67f-d8d7e7b42669.png",
        "entry": 5159171,
        "entry_name": "Thambaak adikkum",
        "event_total": 68,
        "has_played": true,
        "id": 39921302,
        "last_rank": 14040,
        "player_name": "Noble Joy",
        "rank": 9366,
        "rank_sort": 9399,
        "total": 2400
      },
      {
        "club_badge_src": null,
        "entry": 5201041,
        "entry_name": "Manc vs food",
        "event_total": 72,
        "has_played": true,
        "id": 40279933,
        "last_rank": 16320,
        "player_name": "taio vanzuylen",
        "rank": 9366,
        "rank_sort": 9400,
        "total": 2400
      }
    ]
  }
}