{
  "last_updated_data": "2026-05-24T23:28:17Z",
  "league": {
    "admin_entry": null,
    "closed": false,
    "code_privacy": "p",
    "created": "2025-07-20T23:14:33.933835Z",
    "cup_league": 2815434,
    "has_cup": true,
    "id": 314,
    "league_type": "s",
    "max_entries": null,
    "name": "Overall",
    "rank": null,
    "scoring": "c",
    "start_event": 1
  },
  "new_entries": {
    "has_next": false,
    "page": 1,
    "results": []
  },
  "standings": {
    "has_next": true,
    "page": 865,
    "results": [
      {
        "club_badge_src": null,
        "entry": 300780,
        "entry_name": "M BoGy",
        "event_total": 62,
        "has_played": true,
        "id": 2012002,
        "last_rank": 50772,
        "player_name": "Mohamed Bogy",
        "rank": 43181,
        "rank_sort": 43201,
        "total": 2357
      },
      {
        "club_badge_src": null,
        "entry": 335424,
        "entry_name": "Geneva Convention",
        "event_total": 40,
        "has_played": true,
        "id": 2245965,
        "last_rank": 24636,
        "player_name": "Tim Elvin",
        "rank": 43181,
        "rank_sort": 43202,
        "total": 2357
      },
      {
        "club_badge_src": null,
        "entry": 340338,
        "entry_name": "Livin' Saliba Loca",
        "event_total": 67,
        "has_played": true,
        "id": 2278157,
        "last_rank": 58911,
        "player_name": "Frode Lundberg",
        "rank": 43181,
        "rank_sort": 43203,
        "total": 2357
      },
      {
        "club_badge_src": null,
        "entry": 408296,
        "entry_name": "Godt Jobba",
        "event_total": 65,
        "has_played": true,
        "id": 2738018,
        "last_rank": 49078,
        "player_name": "J\u00f8rgen Rohde",
        "rank": 43181,
        "rank_sort": 43204,
        "total": 2357
      },
      {
        "club_badge_src": null,
        "entry": 447687,
        "entry_name": "InsertNameHere",
        "event_total": 63,
        "has_played": true,
        "id": 3003168,
        "last_rank": 40503,
        "player_name": "Anirudh V",
        "rank": 43181,
        "rank_sort": 43205,
        "total": 2357
      },
      {
        "club_badge_src": null,
        "entry": 470072,
        "entry_name": "Gud Signe Navarzete",
        "event_total": 56,
        "has_played": true,
        "id": 3155401,
        "last_rank": 36963,
        "player_name": "Mads Eskedal Lyngen",
        "rank": 43181,
        "rank_sort": 43206,
        "total": 2357
      },
      {
        "club_badge_src": null,
        "entry": 542593,
        "entry_name": "ABC",
        "event_total": 56,
        "has_played": true,
        "id": 3651851,
        "last_rank": 32190,
        "player_name": "Andreas Ihle",
        "rank": 43181,
        "rank_sort": 43207,
        "total": 2357
      },
      {
        "club_badge_src": null,
        "entry": 619738,
        "entry_name": "Mitov Saves!",
        "event_total": 46,
        "has_played": true,
        "id": 4188029,
        "last_rank": 26345,
        "player_name": "Myles Mack",
        "rank": 43181,
        "rank_sort": 43208,
        "total": 2357
      },
      {
        "club_badge_src": null,
        "entry": 642417,
        "entry_name": "We Back Baby",
        "event_total": 71,
        "has_played": true,
        "id": 4341740,
        "last_rank": 65796,
        "player_name": "Aaron Basford",
        "rank": 43181,
        "rank_sort": 43209,
        "total": 2357
      },
      {
        "club_badge_src": null,
        "entry": 681843,
        "entry_name": "Baked beans",
        "event_total": 34,
        "has_played": true,
        "id": 4614440,
        "last_rank": 19966,
        "player_name": "Ben Onslow",
        "rank": 43181,
        "rank_sort": 43210,
        "total": 2357
      },
      {
        "club_badge_src": null,
        "entry": 791980,
        "entry_name": "Slot Machine",
        "event_total": 53,
        "has_played": true,
        "id": 5419725,
        "last_rank": 38267,
        "player_name": "John Lowe",
        "rank": 43181,
        "rank_sort": 43211,
        "total": 2357
      },
      {
        "club_badge_src": null,
        "entry": 806534,
        "entry_name": "ARSENAL R CHAMPIONS",
        "event_total": 37,
        "has_played": true,
        "id": 5521527,
        "last_rank": 22216,
        "player_name": "Am Ghag",
        "rank": 43181,
        "rank_sort": 43212,
        "total": 2357
      },
      {
        "club_badge_src": null,
        "entry": 1194380,
        "entry_name": "Walker Does Runner",
        "event_total": 58,
        "has_played": true,
        "id": 8286952,
        "last_rank": 44804,
        "player_name": "Mark Brunsdon",
        "rank": 43181,
        "rank_sort": 43213,
        "total": 2357
      },
      {
        "club_badge_src": null,
        "entry": 1194394,
        "entry_name": "MAF",
        "event_total": 69,
        "has_played": true,
        "id": 8287039,
        "last_rank": 62617,
        "player_name": "Mohammad Al-Fahad",
        "rank": 43181,
        "rank_sort": 43214,
        "total": 2357
      },
      {
        "club_badge_src": null,
        "entry": 1201861,
        "entry_name": "3x Champion",
        "event_total": 62,
        "has_played": true,
        "id": 8340337,
        "last_rank": 44525,
        "player_name": "Josh Worrall",
        "rank": 43181,
        "rank_sort": 43215,
        "total": 2357
      },
      {
        "club_badge_src": null,
        "entry": 1312453,
        "entry_name": "Dirty Devils",
        "event_total": 63,
        "has_played": true,
        "id": 9122598,
        "last_rank": 52357,
        "player_name": "Keith Lee",
        "rank": 43181,
        "rank_sort": 43216,
        "total": 2357
      },
      {
        "club_badge_src": null,
        "entry": 1320936,
        "entry_name": "KobeBeefMainoo",
        "event_total": 53,
        "has_played": true,
        "id": 9181407,
        "last_rank": 38267,
        "player_name": "Tobias Heiding",
        "rank": 43181,
        "rank_sort": 43217,
        "total": 2357
      },
      {
        "club_badge_src": "https://fantasy.premierleague.com/gcs/plfpl-production-adobe-approved/plfpl-production/1326808/a074f30e-96a0-4197-9348-9bec9732a3ef.png",
        "entry": 1326808,
        "entry_name": "Mansy",
        "event_total": 63,
        "has_played": true,
        "id": 9222547,
        "last_rank": 52357,
        "player_name": "daniel mansy",
        "rank": 43181,
        "rank_sort": 43218,
        "total": 2357
      },
      {
        "club_badge_src": null,
        "entry": 1367711,
        "entry_name": "sydney boys",
        "event_total": 71,
        "has_played": true,
        "id": 9507678,
        "last_rank": 58911,
        "player_name": "darren roose",
        "rank": 43181,
        "rank_sort": 43219,
        "total": 2357
      },
      {
        "club_badge_src": null,
        "entry": 1383628,
        "entry_name": "william",
        "event_total": 74,
        "has_played": true,
        "id": 9623329,
        "last_rank": 64190,
        "player_name": "William van Selm",
        "rank": 43181,
        "rank_sort": 43220,
        "total": 2357
      },
      {
        "club_badge_src": null,
        "entry": 1392508,
        "entry_name": "THE BOYS",
        "event_total": 68,
        "has_played": true,
        "id": 9687450,
        "last_rank": 60671,
        "player_name": "saleem sani",
        "rank": 43181,
        "rank_sort": 43221,
        "total": 2357
      },
      {
        "club_badge_src": "https://fantasy.premierleague.com/gcs/plfpl-production-adobe-approved/plfpl-production/1398598/02a583ec-d53f-4380-bb8e-b31ceb32c1fb.png",
        "entry": 1398598,
        "entry_name": "goonsquad",
        "event_total": 63,
        "has_played": true,
        "id": 9730301,
        "last_rank": 40297,
        "player_name": "Josh Watkins",
        "rank": 43181,
        "rank_sort": 43222,
        "total": 2357
      },
      {
        "club_badge_src": null,
        "entry": 1419192,
        "entry_name": "Eze Come Eze Go",
        "event_total": 55,
        "has_played": true,
        "id": 9881351,
        "last_rank": 35768,
        "player_name": "Mike Yap",
        "rank": 43181,
        "rank_sort": 43223,
        "total": 2357
      },
      {
        "club_badge_src": null,
        "entry": 1469359,
        "entry_name": "MOSADEK",
        "event_total": 57,
        "has_played": true,
        "id": 10241857,
        "last_rank": 43168,
        "player_name": "mohamed Sadek",
        "rank": 43181,
        "rank_sort": 43224,
        "total": 2357
      },
      {
        "club_badge_src": null,
        "entry": 1623710,
        "entry_name": "smudge fc",
        "event_total": 53,
        "has_played": true,
        "id": 11364585,
        "last_rank": 38267,
        "player_name": "Roman Asamovich",
        "rank": 43181,
        "rank_sort": 43225,
        "total": 2357
      },
      {
        "club_badge_src": "https://fantasy.premierleague.com/gcs/plfpl-production-adobe-approved/plfpl-production/1650914/cb84299a-67de-429c-8b93-8e0dba3efbe5.png",
        "entry": 1650914,
        "entry_name": "SapinaKoko",
        "event_total": 74,
        "has_played": true,
        "id": 11558084,
        "last_rank": 70985,
        "player_name": "Imran Hakim",
        "rank": 43181,
        "rank_sort": 43226,
        "total": 2357
      },
      {
        "club_badge_src": null,
        "entry": 1841200,
        "entry_name": "Klinsmann \u71b1\u523a\u5947\u9023\u58eb\u6587",
        "event_total": 58,
        "has_played": true,
        "id": 12953717,
        "last_rank": 44804,
        "player_name": "Klinsmann Hotspur",
        "rank": 43181,
        "rank_sort": 43227,
        "total": 2357
      },
      {
        "club_badge_src": null,
        "entry": 1890704,
        "entry_name": "pepo777",
        "event_total": 39,
        "has_played": true,
        "id": 13325648,
        "last_rank": 23857,
        "player_name": "Mohamed Gharib",
        "rank": 43181,
        "rank_sort": 43228,
        "total": 2357
      },
      {
        "club_badge_src": null,
        "entry": 1920210,
        "entry_name": "ADZXI",
        "event_total": 62,
        "has_played": true,
        "id": 13540344,
        "last_rank": 50635,
        "player_name": "Adam Moussaoui",
        "rank": 43181,
        "rank_sort": 43229,
        "total": 2357
      },
      {
        "club_badge_src": null,
        "entry": 2026841,
        "entry_name": "kandis",
        "event_total": 67,
        "has_played": true,
        "id": 14348082,
        "last_rank": 58688,
        "player_name": "Michael B\u00e6k",
        "rank": 43181,
        "rank_sort": 43230,
        "total": 2357
      },
      {
        "club_badge_src": null,
        "entry": 2058996,
        "entry_name": "Vodka Martinelli",
        "event_total": 53,
        "has_played": true,
        "id": 14586745,
        "last_rank": 38163,
        "player_name": "Alfie Smith",
        "rank": 43181,
        "rank_sort": 43231,
        "total": 2357
      },
      {
        "club_badge_src": null,
        "entry": 2263406,
        "entry_name": "Kygo Jo",
        "event_total": 67,
        "has_played": true,
        "id": 16137528,
        "last_rank": 58688,
        "player_name": "Leon Ernst",
        "rank": 43181,
        "rank_sort": 43232,
        "total": 2357
      },
      {
        "club_badge_src": null,
        "entry": 2354467,
        "entry_name": "Aragorner Kick",
        "event_total": 55,
        "has_played": true,
        "id": 16800032,
        "last_rank": 40770,
        "player_name": "Martin Farrow",
        "rank": 43181,
        "rank_sort": 43233,
        "total": 2357
      },
      {
        "club_badge_src": null,
        "entry": 2362720,
        "entry_name": "suiii u later",
        "event_total": 67,
        "has_played": true,
        "id": 16862484,
        "last_rank": 59077,
        "player_name": "khaled omar",
        "rank": 43181,
        "rank_sort": 43234,
        "total": 2357
      },
      {
        "club_badge_src": null,
        "entry": 2423235,
        "entry_name": "Enter Team Name",
        "event_total": 56,
        "has_played": true,
        "id": 17325800,
        "last_rank": 42081,
        "player_name": "Morten Troelsen",
        "rank": 43181,
        "rank_sort": 43235,
        "total": 2357
      },
      {
        "club_badge_src": null,
        "entry": 2558968,
        "entry_name": "Empire",
        "event_total": 51,
        "has_played": true,
        "id": 18351674,
        "last_rank": 27203,
        "player_name": "Lloyd Bates",
        "rank": 43181,
        "rank_sort": 43236,
        "total": 2357
      },
      {
        "club_badge_src": null,
        "entry": 2632303,
        "entry_name": "Sacked by November",
        "event_total": 53,
        "has_played": true,
        "id": 18917694,
        "last_rank": 38267,
        "player_name": "Charles Tracey",
        "rank": 43181,
        "rank_sort": 43237,
        "total": 2357
      },
      {
        "club_badge_src": null,
        "entry": 2643986,
        "entry_name": "gooners",
        "event_total": 87,
        "has_played": true,
        "id": 19003611,
        "last_rank": 102501,
        "player_name": "Youssef zaghloul",
        "rank": 43181,
        "rank_sort": 43238,
        "total": 2357
      },
      {
        "club_badge_src": null,
        "entry": 2808704,
        "entry_name": "Marcsmen",
        "event_total": 63,
        "has_played": true,
        "id": 20513379,
        "last_rank": 52357,
        "player_name": "Marc Platt",
        "rank": 43181,
        "rank_sort": 43239,
        "total": 2357
      },
      {
        "club_badge_src": "https://fantasy.premierleague.com/gcs/plfpl-production-adobe-approved/plfpl-production/2825405/5dc1ce54-5a48-4744-b5d1-fce01b04385c.png",
        "entry": 2825405,
        "entry_name": "\u2b50 \u0645\u0648\u0644\u0648\u062f\u064a\u0629 \u0627\u0644\u062c\u0632\u0627\u0626\u0631",
        "event_total": 63,
        "has_played": true,
        "id": 20643035,
        "last_rank": 46106,
        "player_name": "Hamid Don",
        "rank": 43181,
        "rank_sort": 43240,
        "total": 2357
      },
      {
        "club_badge_src": null,
        "entry": 2956344,
        "entry_name": "Techno Vikings",
        "event_total": 65,
        "has_played": true,
        "id": 21714134,
        "last_rank": 49078,
        "player_name": "Toby Leadbetter",
        "rank": 43181,
        "rank_sort": 43241,
        "total": 2357
      },
      {
        "club_badge_src": null,
        "entry": 2984660,
        "entry_name": "Placeholder",
        "event_total": 40,
        "has_played": true,
        "id": 21945837,
        "last_rank": 24680,
        "player_name": "Valentino Herrez",
        "rank": 43181,
        "rank_sort": 43242,
        "total": 2357
      },
      {
        "club_badge_src": null,
        "entry": 2998377,
        "entry_name": "Kevin's United",
        "event_total": 62,
        "has_played": true,
        "id": 22053887,
        "last_rank": 39023,
        "player_name": "Kevin Govender",
        "rank": 43181,
        "rank_sort": 43243,
        "total": 2357
      },
      {
        "club_badge_src": "https://fantasy.premierleague.com/gcs/plfpl-production-adobe-approved/plfpl-production/3054388/fac9c3a7-a82c-496e-a51c-487e8ecf8bfe.png",
        "entry": 3054388,
        "entry_name": "Slabost Gacko",
        "event_total": 62,
        "has_played": true,
        "id": 22486776,
        "last_rank": 50635,
        "player_name": "Sofija Savi\u0107",
        "rank": 43181,
        "rank_sort": 43244,
        "total": 2357
      },
      {
        "club_badge_src": null,
        "entry": 3173084,
        "entry_name": "Flowers XI",
        "event_total": 60,
        "has_played": true,
        "id": 23444801,
        "last_rank": 47596,
        "player_name": "Harry Flower",
        "rank": 43181,
        "rank_sort": 43245,
        "total": 2357
      },
      {
        "club_badge_src": "https://fantasy.premierleague.com/gcs/plfpl-production-adobe-approved/plfpl-production/3214660/52f21820-e9e0-442f-b862-27b413d22e97.png",
        "entry": 3214660,
        "entry_name": "More than a Shirt",
        "event_total": 56,
        "has_played": true,
        "id": 23767667,
        "last_rank": 36963,
        "player_name": "Chris Payne",
        "rank": 43181,
        "rank_sort": 43246,
        "total": 2357
      },
      {
        "club_badge_src": null,
        "entry": 3315834,
        "entry_name": "Myerscorers",
        "event_total": 39,
        "has_played": true,
        "id": 24568912,
        "last_rank": 23857,
        "player_name": "Lance Myerscough",
        "rank": 43181,
        "rank_sort": 43247,
        "total": 2357
      },
      {
        "club_badge_src": null,
        "entry": 3317407,
        "entry_name": "Back of the Neto",
        "event_total": 63,
        "has_played": true,
        "id": 24581955,
        "last_rank": 52357,
        "player_name": "Josh Witts",
        "rank": 43181,
        "rank_sort": 43248,
        "total": 2357
      },
      {
        "club_badge_src": null,
        "entry": 3334470,
        "entry_name": "Gabby Ballon d'Or",
        "event_total": 62,
        "has_played": true,
        "id": 24727992,
        "last_rank": 44672,
        "player_name": "Sagun Gurung",
        "rank": 43181,
        "rank_sort": 43249,
        "total": 2357
      },
      {
        "club_badge_src": null,
        "entry": 3393810,
        "entry_name": "Feeding The Midfield",
        "event_total": 57,
        "has_played": true,
        "id": 25195917,
        "last_rank": 43342,
        "player_name": "Ciaran Gildea",
        "rank": 43181,
        "rank_sort": 43250,
        "total": 2357
      }
    ]
  }
}