{
  "last_updated_data": "2026-05-24T23:28:17Z",
  "league": {
    "admin_entry": null,
    "closed": false,
    "code_privacy": "p",
    "created": "2025-07-20T23:14:33.933835Z",
    "cup_league": 2815434,
    "has_cup": true,
    "id": 314,
    "league_type": "s",
    "max_entries": null,
    "name": "Overall",
    "rank": null,
    "scoring": "c",
    "start_event": 1
  },
  "new_entries": {
    "has_next": false,
    "page": 1,
    "results": []
  },
  "standings": {
    "has_next": true,
    "page": 1552,
    "results": [
      {
        "club_badge_src": null,
        "entry": 7537639,
        "entry_name": "Theatre of Memes FC",
        "event_total": 63,
        "has_played": true,
        "id": 61698305,
        "last_rank": 93052,
        "player_name": "Rodjoh Reed",
        "rank": 77522,
        "rank_sort": 77551,
        "total": 2336
      },
      {
        "club_badge_src": null,
        "entry": 7818320,
        "entry_name": "2 Sesko for U",
        "event_total": 61,
        "has_played": true,
        "id": 64239464,
        "last_rank": 88249,
        "player_name": "Devin Puente",
        "rank": 77522,
        "rank_sort": 77552,
        "total": 2336
      },
      {
        "club_badge_src": null,
        "entry": 7964349,
        "entry_name": "I miss assman chip",
        "event_total": 57,
        "has_played": true,
        "id": 65568840,
        "last_rank": 79079,
        "player_name": "Ethan Rosenbaum",
        "rank": 77522,
        "rank_sort": 77553,
        "total": 2336
      },
      {
        "club_badge_src": "https://fantasy.premierleague.com/gcs/plfpl-production-adobe-approved/plfpl-production/8215324/24086329-1ad2-44dc-8a96-ea492269fdea.png",
        "entry": 8215324,
        "entry_name": "Sully my reputation",
        "event_total": 52,
        "has_played": true,
        "id": 67886425,
        "last_rank": 68585,
        "player_name": "Alix StLawrence",
        "rank": 77522,
        "rank_sort": 77554,
        "total": 2336
      },
      {
        "club_badge_src": null,
        "entry": 9381568,
        "entry_name": "\u00f6rjans \u00f6rnar",
        "event_total": 37,
        "has_played": true,
        "id": 79195714,
        "last_rank": 43786,
        "player_name": "Leo Anderb",
        "rank": 77522,
        "rank_sort": 77555,
        "total": 2336
      },
      {
        "club_badge_src": null,
        "entry": 9484007,
        "entry_name": "Salah",
        "event_total": 36,
        "has_played": true,
        "id": 80153654,
        "last_rank": 42434,
        "player_name": "FPL Sa",
        "rank": 77522,
        "rank_sort": 77556,
        "total": 2336
      },
      {
        "club_badge_src": null,
        "entry": 3491,
        "entry_name": "Change",
        "event_total": 60,
        "has_played": true,
        "id": 19785,
        "last_rank": 76908,
        "player_name": "Callum Jones-Molyneux",
        "rank": 77557,
        "rank_sort": 77557,
        "total": 2336
      },
      {
        "club_badge_src": null,
        "entry": 13751,
        "entry_name": "Bella FC",
        "event_total": 67,
        "has_played": true,
        "id": 83218,
        "last_rank": 103130,
        "player_name": "J\u00f3n Tryggvi Arason",
        "rank": 77557,
        "rank_sort": 77558,
        "total": 2336
      },
      {
        "club_badge_src": null,
        "entry": 54693,
        "entry_name": "Grimace FC",
        "event_total": 37,
        "has_played": true,
        "id": 352012,
        "last_rank": 43849,
        "player_name": "Krist\u00f3fer Helgi",
        "rank": 77557,
        "rank_sort": 77559,
        "total": 2336
      },
      {
        "club_badge_src": null,
        "entry": 57351,
        "entry_name": "Waste of a tenner",
        "event_total": 52,
        "has_played": true,
        "id": 369442,
        "last_rank": 68748,
        "player_name": "Cameron Brown",
        "rank": 77557,
        "rank_sort": 77560,
        "total": 2336
      },
      {
        "club_badge_src": null,
        "entry": 69288,
        "entry_name": "MacAwoniyi Cheese",
        "event_total": 54,
        "has_played": true,
        "id": 449329,
        "last_rank": 72638,
        "player_name": "David Cassidy",
        "rank": 77557,
        "rank_sort": 77561,
        "total": 2336
      },
      {
        "club_badge_src": null,
        "entry": 75934,
        "entry_name": "Wirtz Nightmare",
        "event_total": 49,
        "has_played": true,
        "id": 493669,
        "last_rank": 63201,
        "player_name": "Jack Linley",
        "rank": 77557,
        "rank_sort": 77562,
        "total": 2336
      },
      {
        "club_badge_src": null,
        "entry": 79008,
        "entry_name": "Cunha Dig It Sucka?",
        "event_total": 64,
        "has_played": true,
        "id": 513733,
        "last_rank": 95527,
        "player_name": "Will Kinnair",
        "rank": 77557,
        "rank_sort": 77563,
        "total": 2336
      },
      {
        "club_badge_src": "https://fantasy.premierleague.com/gcs/plfpl-production-adobe-approved/plfpl-production/80975/9f94c683-1e9a-4dd8-9af2-7b43dfe5870b.png",
        "entry": 80975,
        "entry_name": "Pathetico Madrid",
        "event_total": 74,
        "has_played": true,
        "id": 526829,
        "last_rank": 122988,
        "player_name": "Jimmy James",
        "rank": 77557,
        "rank_sort": 77564,
        "total": 2336
      },
      {
        "club_badge_src": null,
        "entry": 90014,
        "entry_name": "thecluh",
        "event_total": 49,
        "has_played": true,
        "id": 587600,
        "last_rank": 63117,
        "player_name": "Nate Edwards",
        "rank": 77557,
        "rank_sort": 77565,
        "total": 2336
      },
      {
        "club_badge_src": null,
        "entry": 131663,
        "entry_name": "alhitmim",
        "event_total": 63,
        "has_played": true,
        "id": 857758,
        "last_rank": 93008,
        "player_name": "Mohammed Alhitmi",
        "rank": 77557,
        "rank_sort": 77566,
        "total": 2336
      },
      {
        "club_badge_src": null,
        "entry": 200663,
        "entry_name": "Kai's The Limit",
        "event_total": 54,
        "has_played": true,
        "id": 1332210,
        "last_rank": 72662,
        "player_name": "Akshath Ashok",
        "rank": 77557,
        "rank_sort": 77567,
        "total": 2336
      },
      {
        "club_badge_src": null,
        "entry": 338597,
        "entry_name": "Saliba's Back Pocket",
        "event_total": 70,
        "has_played": true,
        "id": 2266806,
        "last_rank": 111203,
        "player_name": "Daniel Watt",
        "rank": 77557,
        "rank_sort": 77568,
        "total": 2336
      },
      {
        "club_badge_src": "https://fantasy.premierleague.com/gcs/plfpl-production-adobe-approved/plfpl-production/504894/6c8a19ca-32b4-471c-8a14-0646b3e97916.png",
        "entry": 504894,
        "entry_name": "Raphinha Mateta",
        "event_total": 31,
        "has_played": true,
        "id": 3388943,
        "last_rank": 36200,
        "player_name": "Ricky Wong",
        "rank": 77557,
        "rank_sort": 77569,
        "total": 2336
      },
      {
        "club_badge_src": null,
        "entry": 720891,
        "entry_name": "Top Guns",
        "event_total": 73,
        "has_played": true,
        "id": 4894688,
        "last_rank": 119846,
        "player_name": "Abhishek Ghising",
        "rank": 77557,
        "rank_sort": 77570,
        "total": 2336
      },
      {
        "club_badge_src": null,
        "entry": 878590,
        "entry_name": "Rice Mill United",
        "event_total": 67,
        "has_played": true,
        "id": 6024655,
        "last_rank": 103130,
        "player_name": "Nattapol Rongluen",
        "rank": 77557,
        "rank_sort": 77571,
        "total": 2336
      },
      {
        "club_badge_src": null,
        "entry": 909327,
        "entry_name": "Redevil2523",
        "event_total": 70,
        "has_played": true,
        "id": 6251217,
        "last_rank": 111203,
        "player_name": "Aakash Wadhawan",
        "rank": 77557,
        "rank_sort": 77572,
        "total": 2336
      },
      {
        "club_badge_src": null,
        "entry": 923346,
        "entry_name": "Wirtz Case Scenario",
        "event_total": 64,
        "has_played": true,
        "id": 6351180,
        "last_rank": 95527,
        "player_name": "Lawrence Lavizani",
        "rank": 77557,
        "rank_sort": 77573,
        "total": 2336
      },
      {
        "club_badge_src": "https://fantasy.premierleague.com/gcs/plfpl-production-adobe-approved/plfpl-production/963179/15d9e771-76a1-4b1d-9f5b-a5f1be387a14.png",
        "entry": 963179,
        "entry_name": "Ricci FC",
        "event_total": 55,
        "has_played": true,
        "id": 6637686,
        "last_rank": 74898,
        "player_name": "Michael Riccioni",
        "rank": 77557,
        "rank_sort": 77574,
        "total": 2336
      },
      {
        "club_badge_src": null,
        "entry": 973898,
        "entry_name": "Hard Game",
        "event_total": 56,
        "has_played": true,
        "id": 6713444,
        "last_rank": 76947,
        "player_name": "Boss Fc",
        "rank": 77557,
        "rank_sort": 77575,
        "total": 2336
      },
      {
        "club_badge_src": null,
        "entry": 1088473,
        "entry_name": "Udogieeee style",
        "event_total": 71,
        "has_played": true,
        "id": 7538234,
        "last_rank": 114292,
        "player_name": "Challe Bl\u00f6mkvist",
        "rank": 77557,
        "rank_sort": 77576,
        "total": 2336
      },
      {
        "club_badge_src": null,
        "entry": 1240063,
        "entry_name": "McKenna's Magic Men",
        "event_total": 58,
        "has_played": true,
        "id": 8612258,
        "last_rank": 81312,
        "player_name": "Mark Gibbons",
        "rank": 77557,
        "rank_sort": 77577,
        "total": 2336
      },
      {
        "club_badge_src": null,
        "entry": 1701486,
        "entry_name": "Wirtzwagen",
        "event_total": 70,
        "has_played": true,
        "id": 11918659,
        "last_rank": 111203,
        "player_name": "Pietu Hiljanen",
        "rank": 77557,
        "rank_sort": 77578,
        "total": 2336
      },
      {
        "club_badge_src": null,
        "entry": 1816940,
        "entry_name": "Lord of the Pings",
        "event_total": 50,
        "has_played": true,
        "id": 12777143,
        "last_rank": 64760,
        "player_name": "Thomas Lambe",
        "rank": 77557,
        "rank_sort": 77579,
        "total": 2336
      },
      {
        "club_badge_src": null,
        "entry": 1857477,
        "entry_name": "mascotazia",
        "event_total": 46,
        "has_played": true,
        "id": 13072270,
        "last_rank": 57857,
        "player_name": "mohamed adel",
        "rank": 77557,
        "rank_sort": 77580,
        "total": 2336
      },
      {
        "club_badge_src": null,
        "entry": 1896204,
        "entry_name": "Zamalek Sc",
        "event_total": 61,
        "has_played": true,
        "id": 13365525,
        "last_rank": 88185,
        "player_name": "Mohamed Ali",
        "rank": 77557,
        "rank_sort": 77581,
        "total": 2336
      },
      {
        "club_badge_src": null,
        "entry": 2111276,
        "entry_name": "Tesco McNeil Deal",
        "event_total": 46,
        "has_played": true,
        "id": 14985737,
        "last_rank": 57743,
        "player_name": "Joseph Kerrigan",
        "rank": 77557,
        "rank_sort": 77582,
        "total": 2336
      },
      {
        "club_badge_src": null,
        "entry": 2129005,
        "entry_name": "Andrew_NSZ",
        "event_total": 66,
        "has_played": true,
        "id": 15128029,
        "last_rank": 100527,
        "player_name": "Andrew Andrew",
        "rank": 77557,
        "rank_sort": 77583,
        "total": 2336
      },
      {
        "club_badge_src": null,
        "entry": 2156759,
        "entry_name": "Laura Palmer",
        "event_total": 48,
        "has_played": true,
        "id": 15331433,
        "last_rank": 61411,
        "player_name": "Nathan G",
        "rank": 77557,
        "rank_sort": 77584,
        "total": 2336
      },
      {
        "club_badge_src": "https://fantasy.premierleague.com/gcs/plfpl-production-adobe-approved/plfpl-production/2476230/8d6fa0c6-bca0-4a54-9ae1-c65b0b61c830.png",
        "entry": 2476230,
        "entry_name": "Delapdanceduo",
        "event_total": 78,
        "has_played": true,
        "id": 17716612,
        "last_rank": 135737,
        "player_name": "Floris Dierickx",
        "rank": 77557,
        "rank_sort": 77585,
        "total": 2336
      },
      {
        "club_badge_src": "https://fantasy.premierleague.com/gcs/plfpl-production-adobe-approved/plfpl-production/2638534/c7b1994a-5b46-46c2-842d-d937f74e8add.png",
        "entry": 2638534,
        "entry_name": "Life of Brian Utd",
        "event_total": 35,
        "has_played": true,
        "id": 18963705,
        "last_rank": 41162,
        "player_name": "Trenton Stretch",
        "rank": 77557,
        "rank_sort": 77586,
        "total": 2336
      },
      {
        "club_badge_src": "https://fantasy.premierleague.com/gcs/plfpl-production-adobe-approved/plfpl-production/2968429/d10805f5-72b4-4c13-be88-90289d6a925d.png",
        "entry": 2968429,
        "entry_name": "Elanga Management",
        "event_total": 63,
        "has_played": true,
        "id": 21809064,
        "last_rank": 92973,
        "player_name": "Aaron Waters",
        "rank": 77557,
        "rank_sort": 77587,
        "total": 2336
      },
      {
        "club_badge_src": null,
        "entry": 3477414,
        "entry_name": "Tills Trotters",
        "event_total": 59,
        "has_played": true,
        "id": 25856402,
        "last_rank": 83584,
        "player_name": "Kay Speechley",
        "rank": 77557,
        "rank_sort": 77588,
        "total": 2336
      },
      {
        "club_badge_src": null,
        "entry": 3481504,
        "entry_name": "PSJ",
        "event_total": 35,
        "has_played": true,
        "id": 25888213,
        "last_rank": 41162,
        "player_name": "Joe Roylance",
        "rank": 77557,
        "rank_sort": 77589,
        "total": 2336
      },
      {
        "club_badge_src": null,
        "entry": 3845684,
        "entry_name": "The Hairy Wombats",
        "event_total": 59,
        "has_played": true,
        "id": 28824621,
        "last_rank": 83498,
        "player_name": "Tylor Leeds",
        "rank": 77557,
        "rank_sort": 77590,
        "total": 2336
      },
      {
        "club_badge_src": null,
        "entry": 3922424,
        "entry_name": "Cunha Mateta",
        "event_total": 48,
        "has_played": true,
        "id": 29496770,
        "last_rank": 61315,
        "player_name": "Chelsea Rice",
        "rank": 77557,
        "rank_sort": 77591,
        "total": 2336
      },
      {
        "club_badge_src": null,
        "entry": 4292944,
        "entry_name": "Real Frasiadad",
        "event_total": 55,
        "has_played": true,
        "id": 32564704,
        "last_rank": 74787,
        "player_name": "Fraser Cook",
        "rank": 77557,
        "rank_sort": 77592,
        "total": 2336
      },
      {
        "club_badge_src": null,
        "entry": 4430979,
        "entry_name": "Yippee Kai Yay",
        "event_total": 56,
        "has_played": true,
        "id": 33732658,
        "last_rank": 76947,
        "player_name": "George Lockerbie",
        "rank": 77557,
        "rank_sort": 77593,
        "total": 2336
      },
      {
        "club_badge_src": null,
        "entry": 4488370,
        "entry_name": "Wirtz case scenario",
        "event_total": 57,
        "has_played": true,
        "id": 34211428,
        "last_rank": 79190,
        "player_name": "Kieran Carlisle",
        "rank": 77557,
        "rank_sort": 77594,
        "total": 2336
      },
      {
        "club_badge_src": null,
        "entry": 4569182,
        "entry_name": "A-Team",
        "event_total": 41,
        "has_played": true,
        "id": 34869924,
        "last_rank": 49607,
        "player_name": "Anil Bhakri",
        "rank": 77557,
        "rank_sort": 77595,
        "total": 2336
      },
      {
        "club_badge_src": null,
        "entry": 4657644,
        "entry_name": "Sl\u00e4ttaFC",
        "event_total": 58,
        "has_played": true,
        "id": 35653124,
        "last_rank": 81420,
        "player_name": "Adam Jansson",
        "rank": 77557,
        "rank_sort": 77596,
        "total": 2336
      },
      {
        "club_badge_src": null,
        "entry": 4714504,
        "entry_name": "1906",
        "event_total": 60,
        "has_played": true,
        "id": 36189508,
        "last_rank": 85870,
        "player_name": "Alex Rodrigues",
        "rank": 77557,
        "rank_sort": 77597,
        "total": 2336
      },
      {
        "club_badge_src": null,
        "entry": 5119637,
        "entry_name": "Aaa",
        "event_total": 52,
        "has_played": true,
        "id": 39583992,
        "last_rank": 68556,
        "player_name": "Jason Sizto",
        "rank": 77557,
        "rank_sort": 77598,
        "total": 2336
      },
      {
        "club_badge_src": null,
        "entry": 5183061,
        "entry_name": "The Canucks",
        "event_total": 56,
        "has_played": true,
        "id": 40120039,
        "last_rank": 76947,
        "player_name": "Jessie Manns",
        "rank": 77557,
        "rank_sort": 77599,
        "total": 2336
      },
      {
        "club_badge_src": null,
        "entry": 5407109,
        "entry_name": "Le F\u00e9e Kitik\u00e9",
        "event_total": 50,
        "has_played": true,
        "id": 42045546,
        "last_rank": 64830,
        "player_name": "Jonathan dElissagaray",
        "rank": 77557,
        "rank_sort": 77600,
        "total": 2336
      }
    ]
  }
}