{
  "last_updated_data": "2026-05-24T23:28:17Z",
  "league": {
    "admin_entry": null,
    "closed": false,
    "code_privacy": "p",
    "created": "2025-07-20T23:14:33.933835Z",
    "cup_league": 2815434,
    "has_cup": true,
    "id": 314,
    "league_type": "s",
    "max_entries": null,
    "name": "Overall",
    "rank": null,
    "scoring": "c",
    "start_event": 1
  },
  "new_entries": {
    "has_next": false,
    "page": 1,
    "results": []
  },
  "standings": {
    "has_next": true,
    "page": 254,
    "results": [
      {
        "club_badge_src": null,
        "entry": 199992,
        "entry_name": "No Wirtz, No Glory",
        "event_total": 63,
        "has_played": true,
        "id": 1327479,
        "last_rank": 15452,
        "player_name": "David Bullimore",
        "rank": 12632,
        "rank_sort": 12651,
        "total": 2392
      },
      {
        "club_badge_src": null,
        "entry": 206896,
        "entry_name": "Poland",
        "event_total": 55,
        "has_played": true,
        "id": 1375175,
        "last_rank": 11175,
        "player_name": "Olaf Wasilewski",
        "rank": 12632,
        "rank_sort": 12652,
        "total": 2392
      },
      {
        "club_badge_src": null,
        "entry": 225397,
        "entry_name": "DNBigset XI",
        "event_total": 74,
        "has_played": true,
        "id": 1499401,
        "last_rank": 23230,
        "player_name": "Martin Bigset",
        "rank": 12632,
        "rank_sort": 12653,
        "total": 2392
      },
      {
        "club_badge_src": null,
        "entry": 251823,
        "entry_name": "Palacio de Cristal",
        "event_total": 56,
        "has_played": true,
        "id": 1675193,
        "last_rank": 11642,
        "player_name": "Rob Fairclough",
        "rank": 12632,
        "rank_sort": 12654,
        "total": 2392
      },
      {
        "club_badge_src": null,
        "entry": 259688,
        "entry_name": "ThanaChaya FC",
        "event_total": 35,
        "has_played": true,
        "id": 1726586,
        "last_rank": 4742,
        "player_name": "Thanakrit Chayangsu",
        "rank": 12632,
        "rank_sort": 12655,
        "total": 2392
      },
      {
        "club_badge_src": null,
        "entry": 266718,
        "entry_name": "Maple's Barky Army",
        "event_total": 62,
        "has_played": true,
        "id": 1774218,
        "last_rank": 14857,
        "player_name": "Michael McGill",
        "rank": 12632,
        "rank_sort": 12656,
        "total": 2392
      },
      {
        "club_badge_src": null,
        "entry": 288046,
        "entry_name": "Cunha Mateta",
        "event_total": 64,
        "has_played": true,
        "id": 1919785,
        "last_rank": 16062,
        "player_name": "Yarden Habas",
        "rank": 12632,
        "rank_sort": 12657,
        "total": 2392
      },
      {
        "club_badge_src": null,
        "entry": 406851,
        "entry_name": "Bolton Wanderers",
        "event_total": 61,
        "has_played": true,
        "id": 2728046,
        "last_rank": 14292,
        "player_name": "Gary Bolton",
        "rank": 12632,
        "rank_sort": 12658,
        "total": 2392
      },
      {
        "club_badge_src": null,
        "entry": 407007,
        "entry_name": "London is Blue",
        "event_total": 63,
        "has_played": true,
        "id": 2729181,
        "last_rank": 15550,
        "player_name": "James Kipper",
        "rank": 12632,
        "rank_sort": 12659,
        "total": 2392
      },
      {
        "club_badge_src": "https://fantasy.premierleague.com/gcs/plfpl-production-adobe-approved/plfpl-production/460504/d683dcb8-654c-4bb4-86bf-2c93932b81cd.png",
        "entry": 460504,
        "entry_name": "Sexxy Reds",
        "event_total": 50,
        "has_played": true,
        "id": 3089130,
        "last_rank": 9142,
        "player_name": "Nikolas Cruz-Marsted",
        "rank": 12632,
        "rank_sort": 12660,
        "total": 2392
      },
      {
        "club_badge_src": null,
        "entry": 500541,
        "entry_name": "gervinhos forehead",
        "event_total": 68,
        "has_played": true,
        "id": 3359186,
        "last_rank": 18691,
        "player_name": "Hembogi Yesharin",
        "rank": 12632,
        "rank_sort": 12661,
        "total": 2392
      },
      {
        "club_badge_src": null,
        "entry": 531839,
        "entry_name": "06 Wan",
        "event_total": 72,
        "has_played": true,
        "id": 3577178,
        "last_rank": 21775,
        "player_name": "Darragh Durkan",
        "rank": 12632,
        "rank_sort": 12662,
        "total": 2392
      },
      {
        "club_badge_src": null,
        "entry": 648570,
        "entry_name": "Lawshank Redemption",
        "event_total": 80,
        "has_played": true,
        "id": 4383239,
        "last_rank": 28726,
        "player_name": "Lewis Flint",
        "rank": 12632,
        "rank_sort": 12663,
        "total": 2392
      },
      {
        "club_badge_src": null,
        "entry": 687177,
        "entry_name": "SAADAALNUWAIF",
        "event_total": 52,
        "has_played": true,
        "id": 4652081,
        "last_rank": 9885,
        "player_name": "Saad Alnuwaif",
        "rank": 12632,
        "rank_sort": 12664,
        "total": 2392
      },
      {
        "club_badge_src": null,
        "entry": 712608,
        "entry_name": "NicholasL",
        "event_total": 76,
        "has_played": true,
        "id": 4834168,
        "last_rank": 25172,
        "player_name": "Nicholas Liu",
        "rank": 12632,
        "rank_sort": 12665,
        "total": 2392
      },
      {
        "club_badge_src": null,
        "entry": 858675,
        "entry_name": "RonaldO",
        "event_total": 65,
        "has_played": true,
        "id": 5886238,
        "last_rank": 16807,
        "player_name": "MW Chan",
        "rank": 12632,
        "rank_sort": 12666,
        "total": 2392
      },
      {
        "club_badge_src": null,
        "entry": 887628,
        "entry_name": "Team Elms",
        "event_total": 58,
        "has_played": true,
        "id": 6088020,
        "last_rank": 12645,
        "player_name": "Ashley Elms",
        "rank": 12632,
        "rank_sort": 12667,
        "total": 2392
      },
      {
        "club_badge_src": null,
        "entry": 894574,
        "entry_name": "mnbvcxz",
        "event_total": 56,
        "has_played": true,
        "id": 6145129,
        "last_rank": 11608,
        "player_name": "asdfgh hjklop",
        "rank": 12632,
        "rank_sort": 12668,
        "total": 2392
      },
      {
        "club_badge_src": null,
        "entry": 956772,
        "entry_name": "SnoopUdogieDogg",
        "event_total": 52,
        "has_played": true,
        "id": 6592459,
        "last_rank": 9942,
        "player_name": "Bryan Dobson",
        "rank": 12632,
        "rank_sort": 12669,
        "total": 2392
      },
      {
        "club_badge_src": null,
        "entry": 963157,
        "entry_name": "Mini Peasey FC",
        "event_total": 69,
        "has_played": true,
        "id": 6637532,
        "last_rank": 19376,
        "player_name": "James Pease",
        "rank": 12632,
        "rank_sort": 12670,
        "total": 2392
      },
      {
        "club_badge_src": null,
        "entry": 1028542,
        "entry_name": "Spectator",
        "event_total": 57,
        "has_played": true,
        "id": 7116297,
        "last_rank": 12200,
        "player_name": "Jan Vegard Bakali",
        "rank": 12632,
        "rank_sort": 12671,
        "total": 2392
      },
      {
        "club_badge_src": null,
        "entry": 1168480,
        "entry_name": "Reece's pieces",
        "event_total": 65,
        "has_played": true,
        "id": 8105988,
        "last_rank": 16807,
        "player_name": "Suleman Ahmed",
        "rank": 12632,
        "rank_sort": 12672,
        "total": 2392
      },
      {
        "club_badge_src": "https://fantasy.premierleague.com/gcs/plfpl-production-adobe-approved/plfpl-production/1240862/62219b06-ac44-42df-9297-48bf5c06b8b6.png",
        "entry": 1240862,
        "entry_name": "Amorim da bin",
        "event_total": 46,
        "has_played": true,
        "id": 8617786,
        "last_rank": 7625,
        "player_name": "Mike Cafferkey",
        "rank": 12632,
        "rank_sort": 12673,
        "total": 2392
      },
      {
        "club_badge_src": null,
        "entry": 1269415,
        "entry_name": "\u00d0avoli_Teatar snova",
        "event_total": 40,
        "has_played": true,
        "id": 8819957,
        "last_rank": 6011,
        "player_name": "Adnan Bajramovic",
        "rank": 12632,
        "rank_sort": 12674,
        "total": 2392
      },
      {
        "club_badge_src": null,
        "entry": 1271222,
        "entry_name": "This land is Haaland",
        "event_total": 63,
        "has_played": true,
        "id": 8832800,
        "last_rank": 15550,
        "player_name": "Mitchell Hough",
        "rank": 12632,
        "rank_sort": 12675,
        "total": 2392
      },
      {
        "club_badge_src": null,
        "entry": 1279070,
        "entry_name": "Ravelrig Rovers \u2b50\u2b50",
        "event_total": 67,
        "has_played": true,
        "id": 8888016,
        "last_rank": 18029,
        "player_name": "Chris Harris",
        "rank": 12632,
        "rank_sort": 12676,
        "total": 2392
      },
      {
        "club_badge_src": null,
        "entry": 1322278,
        "entry_name": "Aston Villa FC",
        "event_total": 57,
        "has_played": true,
        "id": 9191106,
        "last_rank": 12099,
        "player_name": "Jatinder Raulia",
        "rank": 12632,
        "rank_sort": 12677,
        "total": 2392
      },
      {
        "club_badge_src": "https://fantasy.premierleague.com/gcs/plfpl-production-adobe-approved/plfpl-production/1391054/26962916-7897-4944-a86c-cd2812a3ebbb.png",
        "entry": 1391054,
        "entry_name": "Dream11",
        "event_total": 58,
        "has_played": true,
        "id": 9677425,
        "last_rank": 12846,
        "player_name": "Marcus Nilsson",
        "rank": 12632,
        "rank_sort": 12678,
        "total": 2392
      },
      {
        "club_badge_src": null,
        "entry": 1396712,
        "entry_name": "No-Look Pass",
        "event_total": 69,
        "has_played": true,
        "id": 9716972,
        "last_rank": 19432,
        "player_name": "Rasmus Rooth",
        "rank": 12632,
        "rank_sort": 12679,
        "total": 2392
      },
      {
        "club_badge_src": null,
        "entry": 1409212,
        "entry_name": "Paul's Prodigies",
        "event_total": 52,
        "has_played": true,
        "id": 9805631,
        "last_rank": 9885,
        "player_name": "Paul Mitchell",
        "rank": 12632,
        "rank_sort": 12680,
        "total": 2392
      },
      {
        "club_badge_src": null,
        "entry": 1467529,
        "entry_name": "Barking at Moon FC",
        "event_total": 67,
        "has_played": true,
        "id": 10229268,
        "last_rank": 18113,
        "player_name": "Ant Whitlam",
        "rank": 12632,
        "rank_sort": 12681,
        "total": 2392
      },
      {
        "club_badge_src": null,
        "entry": 1559636,
        "entry_name": "MogasXI",
        "event_total": 58,
        "has_played": true,
        "id": 10891779,
        "last_rank": 12645,
        "player_name": "Sean Smith",
        "rank": 12632,
        "rank_sort": 12682,
        "total": 2392
      },
      {
        "club_badge_src": null,
        "entry": 1566453,
        "entry_name": "Quansah kuduro",
        "event_total": 66,
        "has_played": true,
        "id": 10942734,
        "last_rank": 17358,
        "player_name": "Eskil Fosshaug",
        "rank": 12632,
        "rank_sort": 12683,
        "total": 2392
      },
      {
        "club_badge_src": null,
        "entry": 1581221,
        "entry_name": "McArdle's Trebuchet",
        "event_total": 65,
        "has_played": true,
        "id": 11049459,
        "last_rank": 16807,
        "player_name": "Alex Gresham-Scott",
        "rank": 12632,
        "rank_sort": 12684,
        "total": 2392
      },
      {
        "club_badge_src": null,
        "entry": 1634402,
        "entry_name": "Angolaneren",
        "event_total": 65,
        "has_played": true,
        "id": 11440060,
        "last_rank": 16729,
        "player_name": "Elton Amisse",
        "rank": 12632,
        "rank_sort": 12685,
        "total": 2392
      },
      {
        "club_badge_src": null,
        "entry": 1834735,
        "entry_name": "Fast & Rodrious",
        "event_total": 72,
        "has_played": true,
        "id": 12906631,
        "last_rank": 21628,
        "player_name": "Joe Hill",
        "rank": 12632,
        "rank_sort": 12686,
        "total": 2392
      },
      {
        "club_badge_src": null,
        "entry": 1877553,
        "entry_name": "Jeffrey Palmer",
        "event_total": 63,
        "has_played": true,
        "id": 13223828,
        "last_rank": 15416,
        "player_name": "Cory Cain",
        "rank": 12632,
        "rank_sort": 12687,
        "total": 2392
      },
      {
        "club_badge_src": null,
        "entry": 1911839,
        "entry_name": "Jon's Not Athletic",
        "event_total": 70,
        "has_played": true,
        "id": 13478972,
        "last_rank": 17327,
        "player_name": "Jon Fairbairn",
        "rank": 12632,
        "rank_sort": 12688,
        "total": 2392
      },
      {
        "club_badge_src": null,
        "entry": 1931551,
        "entry_name": "O-Zasty Tactics",
        "event_total": 67,
        "has_played": true,
        "id": 13623013,
        "last_rank": 18029,
        "player_name": "Eric Ofori-Darko",
        "rank": 12632,
        "rank_sort": 12689,
        "total": 2392
      },
      {
        "club_badge_src": null,
        "entry": 2133845,
        "entry_name": "Superfarmer",
        "event_total": 68,
        "has_played": true,
        "id": 15164088,
        "last_rank": 18691,
        "player_name": "Dylan Maarse",
        "rank": 12632,
        "rank_sort": 12690,
        "total": 2392
      },
      {
        "club_badge_src": null,
        "entry": 2152030,
        "entry_name": "Dijk and Morty",
        "event_total": 54,
        "has_played": true,
        "id": 15296700,
        "last_rank": 10805,
        "player_name": "Voya Lukic",
        "rank": 12632,
        "rank_sort": 12691,
        "total": 2392
      },
      {
        "club_badge_src": "https://fantasy.premierleague.com/gcs/plfpl-production-adobe-approved/plfpl-production/2375775/3392bc27-fc09-44cb-87c9-64fb487f6d52.png",
        "entry": 2375775,
        "entry_name": "Amad Hatter",
        "event_total": 56,
        "has_played": true,
        "id": 16961196,
        "last_rank": 11699,
        "player_name": "Camden Naicker",
        "rank": 12632,
        "rank_sort": 12692,
        "total": 2392
      },
      {
        "club_badge_src": null,
        "entry": 2644848,
        "entry_name": "Steel Ball Run",
        "event_total": 64,
        "has_played": true,
        "id": 19009843,
        "last_rank": 16163,
        "player_name": "Shevin Narine",
        "rank": 12632,
        "rank_sort": 12693,
        "total": 2392
      },
      {
        "club_badge_src": "https://fantasy.premierleague.com/gcs/plfpl-production-adobe-approved/plfpl-production/2745344/1aa27fa0-e877-4f06-aff9-bf3f7d6916a8.png",
        "entry": 2745344,
        "entry_name": "Kylian McFrappe",
        "event_total": 59,
        "has_played": true,
        "id": 19866271,
        "last_rank": 13257,
        "player_name": "Zac Hutchings",
        "rank": 12632,
        "rank_sort": 12694,
        "total": 2392
      },
      {
        "club_badge_src": null,
        "entry": 2763953,
        "entry_name": "LucLilZac FC",
        "event_total": 86,
        "has_played": true,
        "id": 20164547,
        "last_rank": 35424,
        "player_name": "Paul Stevenson",
        "rank": 12632,
        "rank_sort": 12695,
        "total": 2392
      },
      {
        "club_badge_src": null,
        "entry": 2943359,
        "entry_name": "HakunaMateta",
        "event_total": 64,
        "has_played": true,
        "id": 21597708,
        "last_rank": 16062,
        "player_name": "Scott Osborne",
        "rank": 12632,
        "rank_sort": 12696,
        "total": 2392
      },
      {
        "club_badge_src": null,
        "entry": 3018643,
        "entry_name": "We Will Win Dalot",
        "event_total": 57,
        "has_played": true,
        "id": 22209210,
        "last_rank": 12200,
        "player_name": "Jai Patel",
        "rank": 12632,
        "rank_sort": 12697,
        "total": 2392
      },
      {
        "club_badge_src": null,
        "entry": 3100134,
        "entry_name": "Galakasaray",
        "event_total": 63,
        "has_played": true,
        "id": 22856681,
        "last_rank": 15452,
        "player_name": "Kasim Nawaz",
        "rank": 12632,
        "rank_sort": 12698,
        "total": 2392
      },
      {
        "club_badge_src": null,
        "entry": 3459039,
        "entry_name": "Arif FC",
        "event_total": 69,
        "has_played": true,
        "id": 25710595,
        "last_rank": 19432,
        "player_name": "Arif Lalap",
        "rank": 12632,
        "rank_sort": 12699,
        "total": 2392
      },
      {
        "club_badge_src": null,
        "entry": 3472680,
        "entry_name": "Noname",
        "event_total": 57,
        "has_played": true,
        "id": 25818138,
        "last_rank": 12141,
        "player_name": "Nikolay Vasilev",
        "rank": 12632,
        "rank_sort": 12700,
        "total": 2392
      }
    ]
  }
}