{
  "last_updated_data": "2026-05-24T23:28:17Z",
  "league": {
    "admin_entry": null,
    "closed": false,
    "code_privacy": "p",
    "created": "2025-07-20T23:14:33.933835Z",
    "cup_league": 2815434,
    "has_cup": true,
    "id": 314,
    "league_type": "s",
    "max_entries": null,
    "name": "Overall",
    "rank": null,
    "scoring": "c",
    "start_event": 1
  },
  "new_entries": {
    "has_next": false,
    "page": 1,
    "results": []
  },
  "standings": {
    "has_next": true,
    "page": 198,
    "results": [
      {
        "club_badge_src": null,
        "entry": 102017,
        "entry_name": "diya00v",
        "event_total": 43,
        "has_played": true,
        "id": 665607,
        "last_rank": 5092,
        "player_name": "Diyae Azzouzi-30",
        "rank": 9849,
        "rank_sort": 9851,
        "total": 2399
      },
      {
        "club_badge_src": "https://fantasy.premierleague.com/gcs/plfpl-production-adobe-approved/plfpl-production/142129/4959f667-ccb2-4473-92e5-2e9b268cd581.png",
        "entry": 142129,
        "entry_name": "Tha Gunners",
        "event_total": 61,
        "has_played": true,
        "id": 928963,
        "last_rank": 11058,
        "player_name": "Ole Martin Perskaas",
        "rank": 9849,
        "rank_sort": 9852,
        "total": 2399
      },
      {
        "club_badge_src": null,
        "entry": 302326,
        "entry_name": "ForeverUnitedTT",
        "event_total": 68,
        "has_played": true,
        "id": 2023195,
        "last_rank": 12470,
        "player_name": "jelani paul",
        "rank": 9849,
        "rank_sort": 9853,
        "total": 2399
      },
      {
        "club_badge_src": null,
        "entry": 468543,
        "entry_name": "V11",
        "event_total": 75,
        "has_played": true,
        "id": 3144570,
        "last_rank": 14040,
        "player_name": "Vipin N",
        "rank": 9849,
        "rank_sort": 9854,
        "total": 2399
      },
      {
        "club_badge_src": null,
        "entry": 485274,
        "entry_name": "Cletus Palmer",
        "event_total": 72,
        "has_played": true,
        "id": 3257273,
        "last_rank": 14668,
        "player_name": "Joseph Thiele",
        "rank": 9849,
        "rank_sort": 9855,
        "total": 2399
      },
      {
        "club_badge_src": null,
        "entry": 575632,
        "entry_name": "AFC Sweets",
        "event_total": 72,
        "has_played": true,
        "id": 3873611,
        "last_rank": 17150,
        "player_name": "Tom Sweetland",
        "rank": 9849,
        "rank_sort": 9856,
        "total": 2399
      },
      {
        "club_badge_src": null,
        "entry": 701755,
        "entry_name": "Havana Onana",
        "event_total": 58,
        "has_played": true,
        "id": 4754898,
        "last_rank": 8234,
        "player_name": "Dario Grganovi\u0107",
        "rank": 9849,
        "rank_sort": 9857,
        "total": 2399
      },
      {
        "club_badge_src": null,
        "entry": 716172,
        "entry_name": "Old Havertz Kai Hard",
        "event_total": 51,
        "has_played": true,
        "id": 4859162,
        "last_rank": 7237,
        "player_name": "Joe G",
        "rank": 9849,
        "rank_sort": 9858,
        "total": 2399
      },
      {
        "club_badge_src": "https://fantasy.premierleague.com/gcs/plfpl-production-adobe-approved/plfpl-production/873722/170a7b6c-3703-4628-a87d-5f2807e4da3f.png",
        "entry": 873722,
        "entry_name": "MVP",
        "event_total": 65,
        "has_played": true,
        "id": 5990083,
        "last_rank": 11034,
        "player_name": "Muhamed Khaled",
        "rank": 9849,
        "rank_sort": 9859,
        "total": 2399
      },
      {
        "club_badge_src": null,
        "entry": 1133846,
        "entry_name": "sakalabanta",
        "event_total": 55,
        "has_played": true,
        "id": 7859594,
        "last_rank": 8617,
        "player_name": "Kyazze Umar",
        "rank": 9849,
        "rank_sort": 9860,
        "total": 2399
      },
      {
        "club_badge_src": null,
        "entry": 1319340,
        "entry_name": "Second Last",
        "event_total": 77,
        "has_played": true,
        "id": 9170325,
        "last_rank": 20416,
        "player_name": "Andrew Quick",
        "rank": 9849,
        "rank_sort": 9861,
        "total": 2399
      },
      {
        "club_badge_src": "https://fantasy.premierleague.com/gcs/plfpl-production-adobe-approved/plfpl-production/1432543/cbf171f2-519d-4134-b17d-a49b6f38c073.png",
        "entry": 1432543,
        "entry_name": "FC RVN",
        "event_total": 59,
        "has_played": true,
        "id": 9982070,
        "last_rank": 10151,
        "player_name": "R v N",
        "rank": 9849,
        "rank_sort": 9862,
        "total": 2399
      },
      {
        "club_badge_src": "https://fantasy.premierleague.com/gcs/plfpl-production-adobe-approved/plfpl-production/1915337/be38e52e-fade-4af5-a432-3706748a9456.png",
        "entry": 1915337,
        "entry_name": "Better Call Goals",
        "event_total": 53,
        "has_played": true,
        "id": 13504425,
        "last_rank": 7891,
        "player_name": "omar odeh",
        "rank": 9849,
        "rank_sort": 9863,
        "total": 2399
      },
      {
        "club_badge_src": null,
        "entry": 2226598,
        "entry_name": "Centurions",
        "event_total": 53,
        "has_played": true,
        "id": 15860439,
        "last_rank": 7891,
        "player_name": "MIKE Bailey",
        "rank": 9849,
        "rank_sort": 9864,
        "total": 2399
      },
      {
        "club_badge_src": null,
        "entry": 2378146,
        "entry_name": "Rooney Tunes FC",
        "event_total": 54,
        "has_played": true,
        "id": 16979997,
        "last_rank": 5792,
        "player_name": "Niklas Nybro S\u00f8rensen",
        "rank": 9849,
        "rank_sort": 9865,
        "total": 2399
      },
      {
        "club_badge_src": null,
        "entry": 2778700,
        "entry_name": "One term wonders",
        "event_total": 48,
        "has_played": true,
        "id": 20279332,
        "last_rank": 6333,
        "player_name": "Nicolas Cook",
        "rank": 9849,
        "rank_sort": 9866,
        "total": 2399
      },
      {
        "club_badge_src": "https://fantasy.premierleague.com/gcs/plfpl-production-adobe-approved/plfpl-production/3610547/2befef72-5518-4c5a-9223-0cd5a6a3e1a8.png",
        "entry": 3610547,
        "entry_name": "Overnight Millionair",
        "event_total": 73,
        "has_played": true,
        "id": 26896079,
        "last_rank": 17718,
        "player_name": "Chaiyo Kummul",
        "rank": 9849,
        "rank_sort": 9867,
        "total": 2399
      },
      {
        "club_badge_src": null,
        "entry": 3644518,
        "entry_name": "WhatsUp Gunnerz",
        "event_total": 62,
        "has_played": true,
        "id": 27162290,
        "last_rank": 9751,
        "player_name": "Tanvir Majumder",
        "rank": 9849,
        "rank_sort": 9868,
        "total": 2399
      },
      {
        "club_badge_src": null,
        "entry": 3757056,
        "entry_name": "the champ",
        "event_total": 41,
        "has_played": true,
        "id": 28050872,
        "last_rank": 4657,
        "player_name": "Mohammed Alrusheidi",
        "rank": 9849,
        "rank_sort": 9869,
        "total": 2399
      },
      {
        "club_badge_src": null,
        "entry": 5401616,
        "entry_name": "Fierce Fc",
        "event_total": 61,
        "has_played": true,
        "id": 41999865,
        "last_rank": 9311,
        "player_name": "Azeez Liadi",
        "rank": 9849,
        "rank_sort": 9870,
        "total": 2399
      },
      {
        "club_badge_src": "https://fantasy.premierleague.com/gcs/plfpl-production-adobe-approved/plfpl-production/6269761/61bb6e4e-8938-4c69-87a4-61230efcca75.png",
        "entry": 6269761,
        "entry_name": "ziad elgeushy",
        "event_total": 62,
        "has_played": true,
        "id": 49646758,
        "last_rank": 11516,
        "player_name": "Ziad Elgeushy",
        "rank": 9849,
        "rank_sort": 9871,
        "total": 2399
      },
      {
        "club_badge_src": null,
        "entry": 8038020,
        "entry_name": "GoodEvilFC",
        "event_total": 56,
        "has_played": true,
        "id": 66228940,
        "last_rank": 8999,
        "player_name": "Good Evil",
        "rank": 9849,
        "rank_sort": 9872,
        "total": 2399
      },
      {
        "club_badge_src": null,
        "entry": 9043303,
        "entry_name": "Hoi FC",
        "event_total": 53,
        "has_played": true,
        "id": 75899723,
        "last_rank": 7891,
        "player_name": "Eirik Finne",
        "rank": 9849,
        "rank_sort": 9873,
        "total": 2399
      },
      {
        "club_badge_src": null,
        "entry": 2550,
        "entry_name": "Proculiani",
        "event_total": 66,
        "has_played": true,
        "id": 14229,
        "last_rank": 11516,
        "player_name": "Bart\u0142omiej Ostrzechowski",
        "rank": 9874,
        "rank_sort": 9874,
        "total": 2399
      },
      {
        "club_badge_src": null,
        "entry": 130124,
        "entry_name": "Everton til Ndiaye",
        "event_total": 67,
        "has_played": true,
        "id": 847946,
        "last_rank": 14040,
        "player_name": "Bailey Astbury",
        "rank": 9874,
        "rank_sort": 9875,
        "total": 2399
      },
      {
        "club_badge_src": null,
        "entry": 133865,
        "entry_name": "delhi lowercases",
        "event_total": 61,
        "has_played": true,
        "id": 871851,
        "last_rank": 11058,
        "player_name": "Sachin Sharma",
        "rank": 9874,
        "rank_sort": 9876,
        "total": 2399
      },
      {
        "club_badge_src": null,
        "entry": 188637,
        "entry_name": "Ange Impostercoglou",
        "event_total": 65,
        "has_played": true,
        "id": 1248109,
        "last_rank": 9350,
        "player_name": "Paul Brady",
        "rank": 9874,
        "rank_sort": 9877,
        "total": 2399
      },
      {
        "club_badge_src": null,
        "entry": 505065,
        "entry_name": "Flamin Hot Chidos",
        "event_total": 54,
        "has_played": true,
        "id": 3390074,
        "last_rank": 5820,
        "player_name": "Ryan Wilkinson",
        "rank": 9874,
        "rank_sort": 9878,
        "total": 2399
      },
      {
        "club_badge_src": null,
        "entry": 918901,
        "entry_name": "McEinbu",
        "event_total": 69,
        "has_played": true,
        "id": 6319154,
        "last_rank": 13033,
        "player_name": "Jonas Einbu",
        "rank": 9874,
        "rank_sort": 9879,
        "total": 2399
      },
      {
        "club_badge_src": null,
        "entry": 1291319,
        "entry_name": "LeSaux Solid Crew",
        "event_total": 68,
        "has_played": true,
        "id": 8973190,
        "last_rank": 14604,
        "player_name": "Tom Goodman",
        "rank": 9874,
        "rank_sort": 9880,
        "total": 2399
      },
      {
        "club_badge_src": null,
        "entry": 1690930,
        "entry_name": "Corky",
        "event_total": 61,
        "has_played": true,
        "id": 11842142,
        "last_rank": 9382,
        "player_name": "Joseph Corkish",
        "rank": 9874,
        "rank_sort": 9881,
        "total": 2399
      },
      {
        "club_badge_src": null,
        "entry": 2413462,
        "entry_name": "Niraj",
        "event_total": 56,
        "has_played": true,
        "id": 17252522,
        "last_rank": 7547,
        "player_name": "niraj dangi",
        "rank": 9874,
        "rank_sort": 9882,
        "total": 2399
      },
      {
        "club_badge_src": null,
        "entry": 2919275,
        "entry_name": "TADIC STARS",
        "event_total": 60,
        "has_played": true,
        "id": 21397992,
        "last_rank": 10651,
        "player_name": "Uros Tadic",
        "rank": 9874,
        "rank_sort": 9883,
        "total": 2399
      },
      {
        "club_badge_src": null,
        "entry": 3152860,
        "entry_name": "Neville Wears Prada",
        "event_total": 80,
        "has_played": true,
        "id": 23284752,
        "last_rank": 22996,
        "player_name": "Dom Gentlesmith",
        "rank": 9874,
        "rank_sort": 9884,
        "total": 2399
      },
      {
        "club_badge_src": null,
        "entry": 3766228,
        "entry_name": "They Had A Plan",
        "event_total": 69,
        "has_played": true,
        "id": 28120892,
        "last_rank": 15280,
        "player_name": "B Kem",
        "rank": 9874,
        "rank_sort": 9885,
        "total": 2399
      },
      {
        "club_badge_src": null,
        "entry": 4550995,
        "entry_name": "AddictedToHits",
        "event_total": 58,
        "has_played": true,
        "id": 34723921,
        "last_rank": 9792,
        "player_name": "Chris Davey-Evans",
        "rank": 9874,
        "rank_sort": 9886,
        "total": 2399
      },
      {
        "club_badge_src": null,
        "entry": 5534094,
        "entry_name": "United Reloaded",
        "event_total": 45,
        "has_played": true,
        "id": 43175775,
        "last_rank": 5597,
        "player_name": "Adebayo Oshinaga",
        "rank": 9874,
        "rank_sort": 9887,
        "total": 2399
      },
      {
        "club_badge_src": null,
        "entry": 5588064,
        "entry_name": "Yoro Wizard Harry",
        "event_total": 68,
        "has_played": true,
        "id": 43653215,
        "last_rank": 12512,
        "player_name": "Zdravko Rashkov",
        "rank": 9874,
        "rank_sort": 9888,
        "total": 2399
      },
      {
        "club_badge_src": null,
        "entry": 7016367,
        "entry_name": "Girth n turf",
        "event_total": 48,
        "has_played": true,
        "id": 56353880,
        "last_rank": 6365,
        "player_name": "Tshiamo Ngwenya",
        "rank": 9874,
        "rank_sort": 9889,
        "total": 2399
      },
      {
        "club_badge_src": "https://fantasy.premierleague.com/gcs/plfpl-production-adobe-approved/plfpl-production/8031719/3ee03e40-f2a1-4867-a9a1-6c74b64c34a2.png",
        "entry": 8031719,
        "entry_name": "Chelsea Fatheen",
        "event_total": 37,
        "has_played": true,
        "id": 66171267,
        "last_rank": 3833,
        "player_name": "Unais Zubair",
        "rank": 9874,
        "rank_sort": 9890,
        "total": 2399
      },
      {
        "club_badge_src": "https://fantasy.premierleague.com/gcs/plfpl-production-adobe-approved/plfpl-production/356168/ae868671-9f3e-4bf4-85b8-64ae9503b802.png",
        "entry": 356168,
        "entry_name": "AHMED AWFA",
        "event_total": 74,
        "has_played": true,
        "id": 2383468,
        "last_rank": 13558,
        "player_name": "AHMED AWFA",
        "rank": 9891,
        "rank_sort": 9891,
        "total": 2399
      },
      {
        "club_badge_src": "https://fantasy.premierleague.com/gcs/plfpl-production-adobe-approved/plfpl-production/948251/54b372c5-2a00-4d2f-92c0-66a1a0773c7e.png",
        "entry": 948251,
        "entry_name": "Hama",
        "event_total": 56,
        "has_played": true,
        "id": 6531865,
        "last_rank": 9028,
        "player_name": "Mohamed Aziz",
        "rank": 9891,
        "rank_sort": 9892,
        "total": 2399
      },
      {
        "club_badge_src": null,
        "entry": 967800,
        "entry_name": "Simen FC",
        "event_total": 56,
        "has_played": true,
        "id": 6670342,
        "last_rank": 9037,
        "player_name": "Simon Johansson",
        "rank": 9891,
        "rank_sort": 9893,
        "total": 2399
      },
      {
        "club_badge_src": null,
        "entry": 1105683,
        "entry_name": "Red Djed Redemption",
        "event_total": 54,
        "has_played": true,
        "id": 7658729,
        "last_rank": 5845,
        "player_name": "Daniel Mangan",
        "rank": 9891,
        "rank_sort": 9894,
        "total": 2399
      },
      {
        "club_badge_src": "https://fantasy.premierleague.com/gcs/plfpl-production-adobe-approved/plfpl-production/1853443/50a77500-7082-4ab8-930f-9ba94b2f544a.png",
        "entry": 1853443,
        "entry_name": "Blue Blood",
        "event_total": 59,
        "has_played": true,
        "id": 13042675,
        "last_rank": 8627,
        "player_name": "James Underwood",
        "rank": 9891,
        "rank_sort": 9895,
        "total": 2399
      },
      {
        "club_badge_src": null,
        "entry": 3726752,
        "entry_name": "Brunos Br\u00f6der",
        "event_total": 63,
        "has_played": true,
        "id": 27815482,
        "last_rank": 10195,
        "player_name": "Amro Alkubaisy",
        "rank": 9891,
        "rank_sort": 9896,
        "total": 2399
      },
      {
        "club_badge_src": null,
        "entry": 3971173,
        "entry_name": "4sighted",
        "event_total": 73,
        "has_played": true,
        "id": 29885081,
        "last_rank": 15280,
        "player_name": "BT Did",
        "rank": 9891,
        "rank_sort": 9897,
        "total": 2399
      },
      {
        "club_badge_src": "https://fantasy.premierleague.com/gcs/plfpl-production-adobe-approved/plfpl-production/4523523/a66e72bc-374f-401f-a7f6-3c60f47a50c4.png",
        "entry": 4523523,
        "entry_name": "blanks_only",
        "event_total": 66,
        "has_played": true,
        "id": 34499578,
        "last_rank": 11536,
        "player_name": "Shaarif Sajid",
        "rank": 9891,
        "rank_sort": 9898,
        "total": 2399
      },
      {
        "club_badge_src": null,
        "entry": 5567143,
        "entry_name": "Jimbolyas",
        "event_total": 74,
        "has_played": true,
        "id": 43468751,
        "last_rank": 18578,
        "player_name": "james cooper",
        "rank": 9891,
        "rank_sort": 9899,
        "total": 2399
      },
      {
        "club_badge_src": null,
        "entry": 5594610,
        "entry_name": "Name Violation",
        "event_total": 66,
        "has_played": true,
        "id": 43710023,
        "last_rank": 13629,
        "player_name": "Noah English",
        "rank": 9891,
        "rank_sort": 9900,
        "total": 2399
      }
    ]
  }
}