{
  "last_updated_data": "2026-05-24T23:28:17Z",
  "league": {
    "admin_entry": null,
    "closed": false,
    "code_privacy": "p",
    "created": "2025-07-20T23:14:33.933835Z",
    "cup_league": 2815434,
    "has_cup": true,
    "id": 314,
    "league_type": "s",
    "max_entries": null,
    "name": "Overall",
    "rank": null,
    "scoring": "c",
    "start_event": 1
  },
  "new_entries": {
    "has_next": false,
    "page": 1,
    "results": []
  },
  "standings": {
    "has_next": true,
    "page": 896,
    "results": [
      {
        "club_badge_src": null,
        "entry": 902762,
        "entry_name": "Toney is a safe bet",
        "event_total": 62,
        "has_played": true,
        "id": 6203025,
        "last_rank": 52561,
        "player_name": "Hugh Kennedy",
        "rank": 44738,
        "rank_sort": 44751,
        "total": 2356
      },
      {
        "club_badge_src": null,
        "entry": 1045473,
        "entry_name": "NoobSaibot",
        "event_total": 51,
        "has_played": true,
        "id": 7235326,
        "last_rank": 28388,
        "player_name": "Kristiyan Ivanov",
        "rank": 44738,
        "rank_sort": 44752,
        "total": 2356
      },
      {
        "club_badge_src": null,
        "entry": 1078737,
        "entry_name": "StrongBowen",
        "event_total": 71,
        "has_played": true,
        "id": 7469208,
        "last_rank": 68351,
        "player_name": "Roko Bla\u017ei\u010dko",
        "rank": 44738,
        "rank_sort": 44753,
        "total": 2356
      },
      {
        "club_badge_src": null,
        "entry": 1151587,
        "entry_name": "Valiants FC",
        "event_total": 72,
        "has_played": true,
        "id": 7984669,
        "last_rank": 70355,
        "player_name": "Jack Underhill",
        "rank": 44738,
        "rank_sort": 44754,
        "total": 2356
      },
      {
        "club_badge_src": null,
        "entry": 1261785,
        "entry_name": "JPG XI",
        "event_total": 35,
        "has_played": true,
        "id": 8765162,
        "last_rank": 21510,
        "player_name": "Joshua Goodridge",
        "rank": 44738,
        "rank_sort": 44755,
        "total": 2356
      },
      {
        "club_badge_src": null,
        "entry": 1330667,
        "entry_name": "The Ray Select",
        "event_total": 62,
        "has_played": true,
        "id": 9249259,
        "last_rank": 46364,
        "player_name": "Andrew Woodruff",
        "rank": 44738,
        "rank_sort": 44756,
        "total": 2356
      },
      {
        "club_badge_src": null,
        "entry": 1338450,
        "entry_name": "Terriers Utd",
        "event_total": 62,
        "has_played": true,
        "id": 9305714,
        "last_rank": 52561,
        "player_name": "Gareth Hardcastle",
        "rank": 44738,
        "rank_sort": 44757,
        "total": 2356
      },
      {
        "club_badge_src": "https://fantasy.premierleague.com/gcs/plfpl-production-adobe-approved/plfpl-production/1351837/97971725-29b5-4e3b-8b77-a6bd5e00894a.png",
        "entry": 1351837,
        "entry_name": "StillDeyPlay",
        "event_total": 45,
        "has_played": true,
        "id": 9397733,
        "last_rank": 26512,
        "player_name": "Joseph Boi-Ukeme",
        "rank": 44738,
        "rank_sort": 44758,
        "total": 2356
      },
      {
        "club_badge_src": null,
        "entry": 1411594,
        "entry_name": "LaZoumance",
        "event_total": 49,
        "has_played": true,
        "id": 9823403,
        "last_rank": 30325,
        "player_name": "Sebastian Armtoft",
        "rank": 44738,
        "rank_sort": 44759,
        "total": 2356
      },
      {
        "club_badge_src": null,
        "entry": 1491739,
        "entry_name": "knowledge anonymous",
        "event_total": 71,
        "has_played": true,
        "id": 10402639,
        "last_rank": 54065,
        "player_name": "Sean Powell",
        "rank": 44738,
        "rank_sort": 44760,
        "total": 2356
      },
      {
        "club_badge_src": null,
        "entry": 1783098,
        "entry_name": "DANi AL TiRA",
        "event_total": 58,
        "has_played": true,
        "id": 12527887,
        "last_rank": 40878,
        "player_name": "Dani Altira",
        "rank": 44738,
        "rank_sort": 44761,
        "total": 2356
      },
      {
        "club_badge_src": null,
        "entry": 1846856,
        "entry_name": "Stanchester United",
        "event_total": 53,
        "has_played": true,
        "id": 12994995,
        "last_rank": 39673,
        "player_name": "Graham Daniel",
        "rank": 44738,
        "rank_sort": 44762,
        "total": 2356
      },
      {
        "club_badge_src": null,
        "entry": 2388195,
        "entry_name": "Rygar",
        "event_total": 77,
        "has_played": true,
        "id": 17058132,
        "last_rank": 72346,
        "player_name": "G. P.",
        "rank": 44738,
        "rank_sort": 44763,
        "total": 2356
      },
      {
        "club_badge_src": null,
        "entry": 2814062,
        "entry_name": "Vicario Kart 64",
        "event_total": 55,
        "has_played": true,
        "id": 20553957,
        "last_rank": 42263,
        "player_name": "James Vennard",
        "rank": 44738,
        "rank_sort": 44764,
        "total": 2356
      },
      {
        "club_badge_src": null,
        "entry": 3064430,
        "entry_name": "RSC Jaychouey",
        "event_total": 57,
        "has_played": true,
        "id": 22562562,
        "last_rank": 39650,
        "player_name": "Jay Pero",
        "rank": 44738,
        "rank_sort": 44765,
        "total": 2356
      },
      {
        "club_badge_src": null,
        "entry": 3306453,
        "entry_name": "zlatan",
        "event_total": 59,
        "has_played": true,
        "id": 24492102,
        "last_rank": 47920,
        "player_name": "David Ljubek",
        "rank": 44738,
        "rank_sort": 44766,
        "total": 2356
      },
      {
        "club_badge_src": "https://fantasy.premierleague.com/gcs/plfpl-production-adobe-approved/plfpl-production/3403836/24055c28-8eda-4131-bab8-a7a0a96cd551.png",
        "entry": 3403836,
        "entry_name": "Clowns",
        "event_total": 65,
        "has_played": true,
        "id": 25273911,
        "last_rank": 57557,
        "player_name": "Piotr Ogar",
        "rank": 44738,
        "rank_sort": 44767,
        "total": 2356
      },
      {
        "club_badge_src": null,
        "entry": 3485427,
        "entry_name": "Polish Power !",
        "event_total": 54,
        "has_played": true,
        "id": 25918580,
        "last_rank": 40959,
        "player_name": "Szymon K",
        "rank": 44738,
        "rank_sort": 44768,
        "total": 2356
      },
      {
        "club_badge_src": null,
        "entry": 4201573,
        "entry_name": "AliKhaled Team",
        "event_total": 51,
        "has_played": true,
        "id": 31804945,
        "last_rank": 37211,
        "player_name": "Ali Khaled",
        "rank": 44738,
        "rank_sort": 44769,
        "total": 2356
      },
      {
        "club_badge_src": null,
        "entry": 4289900,
        "entry_name": "van de Venn diagram",
        "event_total": 56,
        "has_played": true,
        "id": 32540268,
        "last_rank": 43570,
        "player_name": "Bethan Trussell",
        "rank": 44738,
        "rank_sort": 44770,
        "total": 2356
      },
      {
        "club_badge_src": null,
        "entry": 4358864,
        "entry_name": "Bacode FPL",
        "event_total": 55,
        "has_played": true,
        "id": 33104721,
        "last_rank": 32491,
        "player_name": "Bacode FPL",
        "rank": 44738,
        "rank_sort": 44771,
        "total": 2356
      },
      {
        "club_badge_src": null,
        "entry": 4426376,
        "entry_name": "UPTHEVILLA",
        "event_total": 70,
        "has_played": true,
        "id": 33691354,
        "last_rank": 52357,
        "player_name": "Sam Woolliams",
        "rank": 44738,
        "rank_sort": 44772,
        "total": 2356
      },
      {
        "club_badge_src": null,
        "entry": 4845788,
        "entry_name": "No.20",
        "event_total": 62,
        "has_played": true,
        "id": 37331274,
        "last_rank": 52522,
        "player_name": "Niall Mason",
        "rank": 44738,
        "rank_sort": 44773,
        "total": 2356
      },
      {
        "club_badge_src": null,
        "entry": 5014536,
        "entry_name": "Prancing Reijnders",
        "event_total": 62,
        "has_played": true,
        "id": 38723944,
        "last_rank": 52561,
        "player_name": "Stav Servas",
        "rank": 44738,
        "rank_sort": 44774,
        "total": 2356
      },
      {
        "club_badge_src": null,
        "entry": 5346890,
        "entry_name": "Justice Sebo",
        "event_total": 60,
        "has_played": true,
        "id": 41489630,
        "last_rank": 49368,
        "player_name": "David Salim",
        "rank": 44738,
        "rank_sort": 44775,
        "total": 2356
      },
      {
        "club_badge_src": null,
        "entry": 5857944,
        "entry_name": "Boom selection!",
        "event_total": 67,
        "has_played": true,
        "id": 45996615,
        "last_rank": 54134,
        "player_name": "Adam Preston",
        "rank": 44738,
        "rank_sort": 44776,
        "total": 2356
      },
      {
        "club_badge_src": null,
        "entry": 6421374,
        "entry_name": "Ella's Boyz",
        "event_total": 62,
        "has_played": true,
        "id": 51110061,
        "last_rank": 52461,
        "player_name": "Elias Tadesse",
        "rank": 44738,
        "rank_sort": 44777,
        "total": 2356
      },
      {
        "club_badge_src": null,
        "entry": 9235756,
        "entry_name": "Rashford is red&blue",
        "event_total": 56,
        "has_played": true,
        "id": 77784151,
        "last_rank": 38391,
        "player_name": "Stiffe Andersson",
        "rank": 44738,
        "rank_sort": 44778,
        "total": 2356
      },
      {
        "club_badge_src": null,
        "entry": 46444,
        "entry_name": "Dg101",
        "event_total": 55,
        "has_played": true,
        "id": 297769,
        "last_rank": 42263,
        "player_name": "Damien Grimes",
        "rank": 44779,
        "rank_sort": 44779,
        "total": 2356
      },
      {
        "club_badge_src": null,
        "entry": 123235,
        "entry_name": "Dark Passengers",
        "event_total": 57,
        "has_played": true,
        "id": 803848,
        "last_rank": 39673,
        "player_name": "Matt Powell",
        "rank": 44779,
        "rank_sort": 44780,
        "total": 2356
      },
      {
        "club_badge_src": null,
        "entry": 198516,
        "entry_name": "Wirtz SZN",
        "event_total": 63,
        "has_played": true,
        "id": 1317366,
        "last_rank": 47868,
        "player_name": "Joonas Sonic",
        "rank": 44779,
        "rank_sort": 44781,
        "total": 2356
      },
      {
        "club_badge_src": null,
        "entry": 210375,
        "entry_name": "mustafatk8",
        "event_total": 59,
        "has_played": true,
        "id": 1399101,
        "last_rank": 47950,
        "player_name": "Mustafa hussam",
        "rank": 44779,
        "rank_sort": 44782,
        "total": 2356
      },
      {
        "club_badge_src": null,
        "entry": 212782,
        "entry_name": "B\u00f6nans Br\u00f6der",
        "event_total": 60,
        "has_played": true,
        "id": 1415496,
        "last_rank": 43570,
        "player_name": "Jesper Soj\u00e9",
        "rank": 44779,
        "rank_sort": 44783,
        "total": 2356
      },
      {
        "club_badge_src": null,
        "entry": 258709,
        "entry_name": "Costa Fortune",
        "event_total": 50,
        "has_played": true,
        "id": 1720220,
        "last_rank": 31437,
        "player_name": "Les Costa",
        "rank": 44779,
        "rank_sort": 44784,
        "total": 2356
      },
      {
        "club_badge_src": null,
        "entry": 516854,
        "entry_name": "Bismd",
        "event_total": 55,
        "has_played": true,
        "id": 3469966,
        "last_rank": 42225,
        "player_name": "Vivek Rahul",
        "rank": 44779,
        "rank_sort": 44785,
        "total": 2356
      },
      {
        "club_badge_src": null,
        "entry": 646196,
        "entry_name": "Do the Strand Larsen",
        "event_total": 55,
        "has_played": true,
        "id": 4366955,
        "last_rank": 42293,
        "player_name": "Ray O'Higgins",
        "rank": 44779,
        "rank_sort": 44786,
        "total": 2356
      },
      {
        "club_badge_src": "https://fantasy.premierleague.com/gcs/plfpl-production-adobe-approved/plfpl-production/693188/8485306a-27e4-4d61-b8ec-f3c37ca6818b.png",
        "entry": 693188,
        "entry_name": "\ufffd.\u00b2\u2077",
        "event_total": 69,
        "has_played": true,
        "id": 4694597,
        "last_rank": 64603,
        "player_name": "Talal Alghadani",
        "rank": 44779,
        "rank_sort": 44787,
        "total": 2356
      },
      {
        "club_badge_src": null,
        "entry": 723866,
        "entry_name": "Steaming Bell AFC",
        "event_total": 62,
        "has_played": true,
        "id": 4916309,
        "last_rank": 46406,
        "player_name": "Steven Bell",
        "rank": 44779,
        "rank_sort": 44788,
        "total": 2356
      },
      {
        "club_badge_src": null,
        "entry": 916493,
        "entry_name": "GLOCKERES",
        "event_total": 77,
        "has_played": true,
        "id": 6302335,
        "last_rank": 80965,
        "player_name": "T Alibhai",
        "rank": 44779,
        "rank_sort": 44789,
        "total": 2356
      },
      {
        "club_badge_src": null,
        "entry": 922960,
        "entry_name": "F\u00e6rderkameratene",
        "event_total": 60,
        "has_played": true,
        "id": 6347993,
        "last_rank": 38391,
        "player_name": "Lars Audun Granly",
        "rank": 44779,
        "rank_sort": 44790,
        "total": 2356
      },
      {
        "club_badge_src": "https://fantasy.premierleague.com/gcs/plfpl-production-adobe-approved/plfpl-production/925558/1403fb5f-50ab-4ed5-a051-7bb06a564659.png",
        "entry": 925558,
        "entry_name": "Nordic Meatshields",
        "event_total": 68,
        "has_played": true,
        "id": 6367389,
        "last_rank": 55812,
        "player_name": "Tim Hooper",
        "rank": 44779,
        "rank_sort": 44791,
        "total": 2356
      },
      {
        "club_badge_src": null,
        "entry": 1277765,
        "entry_name": "Athletico Bill Oddie",
        "event_total": 38,
        "has_played": true,
        "id": 8878834,
        "last_rank": 20747,
        "player_name": "Andrew Pritchard",
        "rank": 44779,
        "rank_sort": 44792,
        "total": 2356
      },
      {
        "club_badge_src": null,
        "entry": 1317689,
        "entry_name": "For Better or Wirtz",
        "event_total": 57,
        "has_played": true,
        "id": 9158774,
        "last_rank": 45007,
        "player_name": "Kevin Davis",
        "rank": 44779,
        "rank_sort": 44793,
        "total": 2356
      },
      {
        "club_badge_src": "https://fantasy.premierleague.com/gcs/plfpl-production-adobe-approved/plfpl-production/1539461/e22c8bb7-d6be-4684-acd1-47cfec946f2d.png",
        "entry": 1539461,
        "entry_name": "FC EAGLE",
        "event_total": 67,
        "has_played": true,
        "id": 10744270,
        "last_rank": 61087,
        "player_name": "Khalid Abdalahi",
        "rank": 44779,
        "rank_sort": 44794,
        "total": 2356
      },
      {
        "club_badge_src": null,
        "entry": 1586280,
        "entry_name": "Wonda Utd",
        "event_total": 57,
        "has_played": true,
        "id": 11089561,
        "last_rank": 39673,
        "player_name": "Stevon Jonathan",
        "rank": 44779,
        "rank_sort": 44795,
        "total": 2356
      },
      {
        "club_badge_src": "https://fantasy.premierleague.com/gcs/plfpl-production-adobe-approved/plfpl-production/1826525/62a6e6b2-3125-48b4-a26f-5a0660f658f5.png",
        "entry": 1826525,
        "entry_name": "Niko Kranj\u010dharge",
        "event_total": 42,
        "has_played": true,
        "id": 12847294,
        "last_rank": 23904,
        "player_name": "Ryan Gratton",
        "rank": 44779,
        "rank_sort": 44796,
        "total": 2356
      },
      {
        "club_badge_src": "https://fantasy.premierleague.com/gcs/plfpl-production-adobe-approved/plfpl-production/2573420/54f99416-a506-4dd5-8836-a1b2c0b3a9d6.png",
        "entry": 2573420,
        "entry_name": "Saka Potatoes",
        "event_total": 72,
        "has_played": true,
        "id": 18466574,
        "last_rank": 62874,
        "player_name": "Brian Waswani",
        "rank": 44779,
        "rank_sort": 44797,
        "total": 2356
      },
      {
        "club_badge_src": null,
        "entry": 2801436,
        "entry_name": "\u90ed\u723e\u8ecd\u5168\u9762\u9032\u5834",
        "event_total": 60,
        "has_played": true,
        "id": 20457088,
        "last_rank": 49442,
        "player_name": "thisis randomtrolling",
        "rank": 44779,
        "rank_sort": 44798,
        "total": 2356
      },
      {
        "club_badge_src": null,
        "entry": 3484805,
        "entry_name": "Daddys boys",
        "event_total": 63,
        "has_played": true,
        "id": 25913538,
        "last_rank": 47920,
        "player_name": "Nikolai Veskovic",
        "rank": 44779,
        "rank_sort": 44799,
        "total": 2356
      },
      {
        "club_badge_src": null,
        "entry": 3518026,
        "entry_name": "MZ Devils",
        "event_total": 72,
        "has_played": true,
        "id": 26179696,
        "last_rank": 70276,
        "player_name": "Moataz El-Awamri",
        "rank": 44779,
        "rank_sort": 44800,
        "total": 2356
      }
    ]
  }
}