{
  "last_updated_data": "2026-05-24T23:28:17Z",
  "league": {
    "admin_entry": null,
    "closed": false,
    "code_privacy": "p",
    "created": "2025-07-20T23:14:33.933835Z",
    "cup_league": 2815434,
    "has_cup": true,
    "id": 314,
    "league_type": "s",
    "max_entries": null,
    "name": "Overall",
    "rank": null,
    "scoring": "c",
    "start_event": 1
  },
  "new_entries": {
    "has_next": false,
    "page": 1,
    "results": []
  },
  "standings": {
    "has_next": true,
    "page": 1273,
    "results": [
      {
        "club_badge_src": null,
        "entry": 2381585,
        "entry_name": "Kobbie and Paste",
        "event_total": 54,
        "has_played": true,
        "id": 17006342,
        "last_rank": 58911,
        "player_name": "Emily Scott",
        "rank": 63533,
        "rank_sort": 63601,
        "total": 2344
      },
      {
        "club_badge_src": null,
        "entry": 2478834,
        "entry_name": "Potta FC",
        "event_total": 57,
        "has_played": true,
        "id": 17736141,
        "last_rank": 50468,
        "player_name": "Peter Alfred",
        "rank": 63533,
        "rank_sort": 63602,
        "total": 2344
      },
      {
        "club_badge_src": null,
        "entry": 2506967,
        "entry_name": "Liverpool Lions",
        "event_total": 54,
        "has_played": true,
        "id": 17953248,
        "last_rank": 58911,
        "player_name": "Henrik Bekkemellem-Kommisrud",
        "rank": 63533,
        "rank_sort": 63603,
        "total": 2344
      },
      {
        "club_badge_src": null,
        "entry": 2560019,
        "entry_name": "YoeselFC",
        "event_total": 73,
        "has_played": true,
        "id": 18359723,
        "last_rank": 99596,
        "player_name": "Mipham G Namgyel",
        "rank": 63533,
        "rank_sort": 63604,
        "total": 2344
      },
      {
        "club_badge_src": null,
        "entry": 2567252,
        "entry_name": "Smeds",
        "event_total": 59,
        "has_played": true,
        "id": 18416716,
        "last_rank": 68107,
        "player_name": "Thomas Smedsrud",
        "rank": 63533,
        "rank_sort": 63605,
        "total": 2344
      },
      {
        "club_badge_src": null,
        "entry": 2719741,
        "entry_name": "Miss Anne Thrope",
        "event_total": 59,
        "has_played": true,
        "id": 19570337,
        "last_rank": 68107,
        "player_name": "Martin Radich",
        "rank": 63533,
        "rank_sort": 63606,
        "total": 2344
      },
      {
        "club_badge_src": null,
        "entry": 2785338,
        "entry_name": "Zdravkovicv\u00e4gen",
        "event_total": 60,
        "has_played": true,
        "id": 20334062,
        "last_rank": 70072,
        "player_name": "Hannes Tylehed",
        "rank": 63533,
        "rank_sort": 63607,
        "total": 2344
      },
      {
        "club_badge_src": null,
        "entry": 2838545,
        "entry_name": "Eliano",
        "event_total": 60,
        "has_played": true,
        "id": 20745029,
        "last_rank": 69907,
        "player_name": "Elias Haile",
        "rank": 63533,
        "rank_sort": 63608,
        "total": 2344
      },
      {
        "club_badge_src": null,
        "entry": 2875695,
        "entry_name": "MLatte5",
        "event_total": 53,
        "has_played": true,
        "id": 21046398,
        "last_rank": 57358,
        "player_name": "David LATTES",
        "rank": 63533,
        "rank_sort": 63609,
        "total": 2344
      },
      {
        "club_badge_src": null,
        "entry": 2911415,
        "entry_name": "Wall ball FC",
        "event_total": 60,
        "has_played": true,
        "id": 21339043,
        "last_rank": 70072,
        "player_name": "lewis walls",
        "rank": 63533,
        "rank_sort": 63610,
        "total": 2344
      },
      {
        "club_badge_src": "https://fantasy.premierleague.com/gcs/plfpl-production-adobe-approved/plfpl-production/2965679/e05f6274-939c-47e0-bd75-85a77b9e08aa.png",
        "entry": 2965679,
        "entry_name": "Where Got Time?! FC",
        "event_total": 65,
        "has_played": true,
        "id": 21787474,
        "last_rank": 71956,
        "player_name": "Saktivel Chandramohan",
        "rank": 63533,
        "rank_sort": 63611,
        "total": 2344
      },
      {
        "club_badge_src": null,
        "entry": 2984750,
        "entry_name": "Mohamed belmokhtar \ufffd",
        "event_total": 51,
        "has_played": true,
        "id": 21946471,
        "last_rank": 53952,
        "player_name": "moh Rouji",
        "rank": 63533,
        "rank_sort": 63612,
        "total": 2344
      },
      {
        "club_badge_src": null,
        "entry": 3004633,
        "entry_name": "Creamy Weamy Teamy",
        "event_total": 49,
        "has_played": true,
        "id": 22101318,
        "last_rank": 50635,
        "player_name": "Dylan Woods",
        "rank": 63533,
        "rank_sort": 63613,
        "total": 2344
      },
      {
        "club_badge_src": null,
        "entry": 3222084,
        "entry_name": "Sakibidi toilet",
        "event_total": 45,
        "has_played": true,
        "id": 23826985,
        "last_rank": 44672,
        "player_name": "Joe Stewart",
        "rank": 63533,
        "rank_sort": 63614,
        "total": 2344
      },
      {
        "club_badge_src": null,
        "entry": 3236546,
        "entry_name": "Hunk XI",
        "event_total": 46,
        "has_played": true,
        "id": 23938680,
        "last_rank": 46106,
        "player_name": "Billy Hill",
        "rank": 63533,
        "rank_sort": 63615,
        "total": 2344
      },
      {
        "club_badge_src": null,
        "entry": 3284662,
        "entry_name": "LUHG",
        "event_total": 63,
        "has_played": true,
        "id": 24314823,
        "last_rank": 76128,
        "player_name": "N Y",
        "rank": 63533,
        "rank_sort": 63616,
        "total": 2344
      },
      {
        "club_badge_src": null,
        "entry": 3324735,
        "entry_name": "Hilscott FC",
        "event_total": 53,
        "has_played": true,
        "id": 24648010,
        "last_rank": 50468,
        "player_name": "Marcus Rowley",
        "rank": 63533,
        "rank_sort": 63617,
        "total": 2344
      },
      {
        "club_badge_src": null,
        "entry": 3510317,
        "entry_name": "BuenDIHa",
        "event_total": 58,
        "has_played": true,
        "id": 26119272,
        "last_rank": 66057,
        "player_name": "thomas Bergene",
        "rank": 63533,
        "rank_sort": 63618,
        "total": 2344
      },
      {
        "club_badge_src": "https://fantasy.premierleague.com/gcs/plfpl-production-adobe-approved/plfpl-production/3585162/9ab4f330-45a9-40bc-8d5b-be652a79fbea.png",
        "entry": 3585162,
        "entry_name": "Washington Machine",
        "event_total": 31,
        "has_played": true,
        "id": 26699167,
        "last_rank": 28348,
        "player_name": "Michael Lund",
        "rank": 63533,
        "rank_sort": 63619,
        "total": 2344
      },
      {
        "club_badge_src": null,
        "entry": 3658219,
        "entry_name": "Gladiator",
        "event_total": 51,
        "has_played": true,
        "id": 27278789,
        "last_rank": 53952,
        "player_name": "Kumar Kumaranayakam",
        "rank": 63533,
        "rank_sort": 63620,
        "total": 2344
      },
      {
        "club_badge_src": "https://fantasy.premierleague.com/gcs/plfpl-production-adobe-approved/plfpl-production/3700127/6b9751a1-db57-4b75-8f8a-8a85355e3a46.png",
        "entry": 3700127,
        "entry_name": "Bratwirtz Fc",
        "event_total": 55,
        "has_played": true,
        "id": 27606749,
        "last_rank": 60933,
        "player_name": "Theo Veitch",
        "rank": 63533,
        "rank_sort": 63621,
        "total": 2344
      },
      {
        "club_badge_src": null,
        "entry": 3761354,
        "entry_name": "Rashed",
        "event_total": 50,
        "has_played": true,
        "id": 28083928,
        "last_rank": 52357,
        "player_name": "Rashed Alkhaldi",
        "rank": 63533,
        "rank_sort": 63622,
        "total": 2344
      },
      {
        "club_badge_src": null,
        "entry": 4093343,
        "entry_name": "Lil Uzi Wirtz",
        "event_total": 70,
        "has_played": true,
        "id": 30906423,
        "last_rank": 82664,
        "player_name": "A B",
        "rank": 63533,
        "rank_sort": 63623,
        "total": 2344
      },
      {
        "club_badge_src": null,
        "entry": 4180975,
        "entry_name": "FC Fozzie",
        "event_total": 63,
        "has_played": true,
        "id": 31630273,
        "last_rank": 76474,
        "player_name": "Dave Bigwood",
        "rank": 63533,
        "rank_sort": 63624,
        "total": 2344
      },
      {
        "club_badge_src": null,
        "entry": 4190692,
        "entry_name": "Selim 3010",
        "event_total": 45,
        "has_played": true,
        "id": 31711628,
        "last_rank": 39403,
        "player_name": "mahmoud selim",
        "rank": 63533,
        "rank_sort": 63625,
        "total": 2344
      },
      {
        "club_badge_src": null,
        "entry": 4284855,
        "entry_name": "Kakolan Pallo",
        "event_total": 58,
        "has_played": true,
        "id": 32499842,
        "last_rank": 58911,
        "player_name": "Toni Niskanen",
        "rank": 63533,
        "rank_sort": 63626,
        "total": 2344
      },
      {
        "club_badge_src": null,
        "entry": 4287502,
        "entry_name": "Emeryci",
        "event_total": 72,
        "has_played": true,
        "id": 32521066,
        "last_rank": 77676,
        "player_name": "Rafa\u0142 Mazgaj",
        "rank": 63533,
        "rank_sort": 63627,
        "total": 2344
      },
      {
        "club_badge_src": null,
        "entry": 4338353,
        "entry_name": "Al Merrikh SC",
        "event_total": 61,
        "has_played": true,
        "id": 32938377,
        "last_rank": 72145,
        "player_name": "Alaeldin Nugod",
        "rank": 63533,
        "rank_sort": 63628,
        "total": 2344
      },
      {
        "club_badge_src": null,
        "entry": 4392945,
        "entry_name": "Mission Impossible",
        "event_total": 65,
        "has_played": true,
        "id": 33396858,
        "last_rank": 71956,
        "player_name": "Abdulrahman Almuhanna",
        "rank": 63533,
        "rank_sort": 63629,
        "total": 2344
      },
      {
        "club_badge_src": null,
        "entry": 4398057,
        "entry_name": "Kaiju No. 10",
        "event_total": 82,
        "has_played": true,
        "id": 33443965,
        "last_rank": 124961,
        "player_name": "Dapson Adesanya",
        "rank": 63533,
        "rank_sort": 63630,
        "total": 2344
      },
      {
        "club_badge_src": null,
        "entry": 4569448,
        "entry_name": "It's up 4 grabs now!",
        "event_total": 56,
        "has_played": true,
        "id": 34872177,
        "last_rank": 55514,
        "player_name": "Chris Bennett",
        "rank": 63533,
        "rank_sort": 63631,
        "total": 2344
      },
      {
        "club_badge_src": null,
        "entry": 4840336,
        "entry_name": "Mateta hotdog",
        "event_total": 63,
        "has_played": true,
        "id": 37286047,
        "last_rank": 76330,
        "player_name": "Kris Sutton",
        "rank": 63533,
        "rank_sort": 63632,
        "total": 2344
      },
      {
        "club_badge_src": null,
        "entry": 4919860,
        "entry_name": "Yoro Ma's a Slot",
        "event_total": 55,
        "has_played": true,
        "id": 37947710,
        "last_rank": 53621,
        "player_name": "Patrick Cunningham",
        "rank": 63533,
        "rank_sort": 63633,
        "total": 2344
      },
      {
        "club_badge_src": null,
        "entry": 4927242,
        "entry_name": "Adi Das Breads",
        "event_total": 55,
        "has_played": true,
        "id": 38006518,
        "last_rank": 60827,
        "player_name": "Casey Walker",
        "rank": 63533,
        "rank_sort": 63634,
        "total": 2344
      },
      {
        "club_badge_src": null,
        "entry": 5361766,
        "entry_name": "A Cu\u00f1ha Matata",
        "event_total": 55,
        "has_played": true,
        "id": 41645021,
        "last_rank": 60933,
        "player_name": "Teddy Mulamba",
        "rank": 63533,
        "rank_sort": 63635,
        "total": 2344
      },
      {
        "club_badge_src": "https://fantasy.premierleague.com/gcs/plfpl-production-adobe-approved/plfpl-production/6154548/e290b569-0528-488e-be7a-516c4f7e9f16.png",
        "entry": 6154548,
        "entry_name": "FPL Virgin",
        "event_total": 73,
        "has_played": true,
        "id": 48652165,
        "last_rank": 89426,
        "player_name": "Katie Milbank",
        "rank": 63533,
        "rank_sort": 63636,
        "total": 2344
      },
      {
        "club_badge_src": null,
        "entry": 6268908,
        "entry_name": "Rashid",
        "event_total": 58,
        "has_played": true,
        "id": 49639789,
        "last_rank": 66200,
        "player_name": "Yasin Mukiibi",
        "rank": 63533,
        "rank_sort": 63637,
        "total": 2344
      },
      {
        "club_badge_src": null,
        "entry": 6272157,
        "entry_name": "Shaw must go on",
        "event_total": 63,
        "has_played": true,
        "id": 49666843,
        "last_rank": 76128,
        "player_name": "Wilhelm Thorbj\u00f8rnsen",
        "rank": 63533,
        "rank_sort": 63638,
        "total": 2344
      },
      {
        "club_badge_src": null,
        "entry": 6322688,
        "entry_name": "Eze Does It",
        "event_total": 58,
        "has_played": true,
        "id": 50215672,
        "last_rank": 65796,
        "player_name": "Brandon Usagi",
        "rank": 63533,
        "rank_sort": 63639,
        "total": 2344
      },
      {
        "club_badge_src": "https://fantasy.premierleague.com/gcs/plfpl-production-adobe-approved/plfpl-production/6535073/7995d247-56e6-4a6f-a51f-bf7de03e3ffa.png",
        "entry": 6535073,
        "entry_name": "Ahito FC",
        "event_total": 48,
        "has_played": true,
        "id": 52134085,
        "last_rank": 43342,
        "player_name": "Maciek Felkiel",
        "rank": 63533,
        "rank_sort": 63640,
        "total": 2344
      },
      {
        "club_badge_src": "https://fantasy.premierleague.com/gcs/plfpl-production-adobe-approved/plfpl-production/6538347/e0487128-6656-468f-a895-123a9fe8ead9.png",
        "entry": 6538347,
        "entry_name": "Ballerz Fc",
        "event_total": 74,
        "has_played": true,
        "id": 52163015,
        "last_rank": 92126,
        "player_name": "Tee Jay",
        "rank": 63533,
        "rank_sort": 63641,
        "total": 2344
      },
      {
        "club_badge_src": null,
        "entry": 6578504,
        "entry_name": "hi",
        "event_total": 64,
        "has_played": true,
        "id": 52529119,
        "last_rank": 78244,
        "player_name": "Hisham Iqbal",
        "rank": 63533,
        "rank_sort": 63642,
        "total": 2344
      },
      {
        "club_badge_src": null,
        "entry": 6625131,
        "entry_name": "WIDBCFC",
        "event_total": 60,
        "has_played": true,
        "id": 52944322,
        "last_rank": 62429,
        "player_name": "Torjus Lorentsen",
        "rank": 63533,
        "rank_sort": 63643,
        "total": 2344
      },
      {
        "club_badge_src": null,
        "entry": 6795237,
        "entry_name": "AC Me Rollin'",
        "event_total": 58,
        "has_played": true,
        "id": 54417412,
        "last_rank": 66200,
        "player_name": "Kirsty Downing",
        "rank": 63533,
        "rank_sort": 63644,
        "total": 2344
      },
      {
        "club_badge_src": null,
        "entry": 6894966,
        "entry_name": "Ofek's Team",
        "event_total": 61,
        "has_played": true,
        "id": 55262260,
        "last_rank": 72145,
        "player_name": "Ofek Mossinson",
        "rank": 63533,
        "rank_sort": 63645,
        "total": 2344
      },
      {
        "club_badge_src": null,
        "entry": 7275666,
        "entry_name": "Xhaka Xhaka Eh Eh",
        "event_total": 71,
        "has_played": true,
        "id": 58846181,
        "last_rank": 94537,
        "player_name": "Marken Teder",
        "rank": 63533,
        "rank_sort": 63646,
        "total": 2344
      },
      {
        "club_badge_src": null,
        "entry": 7294790,
        "entry_name": "Daku Bahini",
        "event_total": 57,
        "has_played": true,
        "id": 59027685,
        "last_rank": 64319,
        "player_name": "Md. Rasel",
        "rank": 63533,
        "rank_sort": 63647,
        "total": 2344
      },
      {
        "club_badge_src": null,
        "entry": 7348824,
        "entry_name": "Bianconeri",
        "event_total": 58,
        "has_played": true,
        "id": 59534611,
        "last_rank": 66057,
        "player_name": "Yousif Rostam",
        "rank": 63533,
        "rank_sort": 63648,
        "total": 2344
      },
      {
        "club_badge_src": null,
        "entry": 7533970,
        "entry_name": "Alt Ctrl De Ligt",
        "event_total": 62,
        "has_played": true,
        "id": 61664722,
        "last_rank": 74166,
        "player_name": "Nick L",
        "rank": 63533,
        "rank_sort": 63649,
        "total": 2344
      },
      {
        "club_badge_src": null,
        "entry": 7589102,
        "entry_name": "Aura Farmers League",
        "event_total": 52,
        "has_played": true,
        "id": 62166845,
        "last_rank": 55659,
        "player_name": "Matthew Smith",
        "rank": 63533,
        "rank_sort": 63650,
        "total": 2344
      }
    ]
  }
}