{
  "last_updated_data": "2026-05-24T23:28:17Z",
  "league": {
    "admin_entry": null,
    "closed": false,
    "code_privacy": "p",
    "created": "2025-07-20T23:14:33.933835Z",
    "cup_league": 2815434,
    "has_cup": true,
    "id": 314,
    "league_type": "s",
    "max_entries": null,
    "name": "Overall",
    "rank": null,
    "scoring": "c",
    "start_event": 1
  },
  "new_entries": {
    "has_next": false,
    "page": 1,
    "results": []
  },
  "standings": {
    "has_next": true,
    "page": 619,
    "results": [
      {
        "club_badge_src": null,
        "entry": 1326138,
        "entry_name": "Like a Virgil",
        "event_total": 47,
        "has_played": true,
        "id": 9217973,
        "last_rank": 21775,
        "player_name": "Magnus Tuxen",
        "rank": 30820,
        "rank_sort": 30901,
        "total": 2367
      },
      {
        "club_badge_src": "https://fantasy.premierleague.com/gcs/plfpl-production-adobe-approved/plfpl-production/1346091/b942c92e-881a-4957-8324-3e55c32ee6be.png",
        "entry": 1346091,
        "entry_name": "Norfolk & France",
        "event_total": 49,
        "has_played": true,
        "id": 9358612,
        "last_rank": 23188,
        "player_name": "Kerry France",
        "rank": 30820,
        "rank_sort": 30902,
        "total": 2367
      },
      {
        "club_badge_src": null,
        "entry": 1368048,
        "entry_name": "Shinba",
        "event_total": 76,
        "has_played": true,
        "id": 9510041,
        "last_rank": 56099,
        "player_name": "Hongyi Loh",
        "rank": 30820,
        "rank_sort": 30903,
        "total": 2367
      },
      {
        "club_badge_src": null,
        "entry": 1387237,
        "entry_name": "Faston Villa",
        "event_total": 57,
        "has_played": true,
        "id": 9648843,
        "last_rank": 30600,
        "player_name": "Filip Savenstrand",
        "rank": 30820,
        "rank_sort": 30904,
        "total": 2367
      },
      {
        "club_badge_src": null,
        "entry": 1393140,
        "entry_name": "The Stingers",
        "event_total": 41,
        "has_played": true,
        "id": 9691915,
        "last_rank": 17437,
        "player_name": "Richard Hodgson",
        "rank": 30820,
        "rank_sort": 30905,
        "total": 2367
      },
      {
        "club_badge_src": null,
        "entry": 1409262,
        "entry_name": "HamzaBEN",
        "event_total": 49,
        "has_played": true,
        "id": 9806004,
        "last_rank": 23230,
        "player_name": "hamza benmachi",
        "rank": 30820,
        "rank_sort": 30906,
        "total": 2367
      },
      {
        "club_badge_src": null,
        "entry": 1423611,
        "entry_name": "Krokko",
        "event_total": 62,
        "has_played": true,
        "id": 9916101,
        "last_rank": 36110,
        "player_name": "Ulrik Lovdal",
        "rank": 30820,
        "rank_sort": 30907,
        "total": 2367
      },
      {
        "club_badge_src": null,
        "entry": 1458732,
        "entry_name": "Wolfe of Wall Street",
        "event_total": 65,
        "has_played": true,
        "id": 10166846,
        "last_rank": 39874,
        "player_name": "harry ruffell",
        "rank": 30820,
        "rank_sort": 30908,
        "total": 2367
      },
      {
        "club_badge_src": null,
        "entry": 1464767,
        "entry_name": "abo Hisham",
        "event_total": 63,
        "has_played": true,
        "id": 10210140,
        "last_rank": 37589,
        "player_name": "abo Hisham",
        "rank": 30820,
        "rank_sort": 30909,
        "total": 2367
      },
      {
        "club_badge_src": null,
        "entry": 1497031,
        "entry_name": "Pharos United",
        "event_total": 58,
        "has_played": true,
        "id": 10439874,
        "last_rank": 31747,
        "player_name": "Yasser Hendawy",
        "rank": 30820,
        "rank_sort": 30910,
        "total": 2367
      },
      {
        "club_badge_src": null,
        "entry": 1514047,
        "entry_name": "Wirtz Nightmare",
        "event_total": 59,
        "has_played": true,
        "id": 10559915,
        "last_rank": 32688,
        "player_name": "Dan Horne",
        "rank": 30820,
        "rank_sort": 30911,
        "total": 2367
      },
      {
        "club_badge_src": null,
        "entry": 1540384,
        "entry_name": "FC Pine Cones",
        "event_total": 67,
        "has_played": true,
        "id": 10750848,
        "last_rank": 42648,
        "player_name": "Marcus Laws",
        "rank": 30820,
        "rank_sort": 30912,
        "total": 2367
      },
      {
        "club_badge_src": null,
        "entry": 1540508,
        "entry_name": "Dontwanttoplay fc",
        "event_total": 67,
        "has_played": true,
        "id": 10751729,
        "last_rank": 42648,
        "player_name": "Danny Galvin",
        "rank": 30820,
        "rank_sort": 30913,
        "total": 2367
      },
      {
        "club_badge_src": null,
        "entry": 1567929,
        "entry_name": "Unbeatable",
        "event_total": 69,
        "has_played": true,
        "id": 10953197,
        "last_rank": 45252,
        "player_name": "King Kong",
        "rank": 30820,
        "rank_sort": 30914,
        "total": 2367
      },
      {
        "club_badge_src": null,
        "entry": 1590666,
        "entry_name": "Too Eze",
        "event_total": 78,
        "has_played": true,
        "id": 11122466,
        "last_rank": 59813,
        "player_name": "Oliver Matthews",
        "rank": 30820,
        "rank_sort": 30915,
        "total": 2367
      },
      {
        "club_badge_src": null,
        "entry": 1595607,
        "entry_name": "ChatVVD",
        "event_total": 55,
        "has_played": true,
        "id": 11161719,
        "last_rank": 28532,
        "player_name": "Chris Dixon",
        "rank": 30820,
        "rank_sort": 30916,
        "total": 2367
      },
      {
        "club_badge_src": null,
        "entry": 1614802,
        "entry_name": "scottishcafu",
        "event_total": 64,
        "has_played": true,
        "id": 11299046,
        "last_rank": 38644,
        "player_name": "Liam Reidy",
        "rank": 30820,
        "rank_sort": 30917,
        "total": 2367
      },
      {
        "club_badge_src": null,
        "entry": 1624102,
        "entry_name": "Champions tomorrow",
        "event_total": 60,
        "has_played": true,
        "id": 11367350,
        "last_rank": 33936,
        "player_name": "Nick Hutty",
        "rank": 30820,
        "rank_sort": 30918,
        "total": 2367
      },
      {
        "club_badge_src": "https://fantasy.premierleague.com/gcs/plfpl-production-adobe-approved/plfpl-production/1627388/5c3580b6-f5d2-4f86-8a38-96b354153ec5.png",
        "entry": 1627388,
        "entry_name": "King of the Pirates",
        "event_total": 59,
        "has_played": true,
        "id": 11390805,
        "last_rank": 32879,
        "player_name": "Daniel Medcalf",
        "rank": 30820,
        "rank_sort": 30919,
        "total": 2367
      },
      {
        "club_badge_src": "https://fantasy.premierleague.com/gcs/plfpl-production-adobe-approved/plfpl-production/1652615/c9055728-22f0-4228-9159-ac1a706ad512.png",
        "entry": 1652615,
        "entry_name": "Saka Potatoes",
        "event_total": 67,
        "has_played": true,
        "id": 11570048,
        "last_rank": 42506,
        "player_name": "Stefan Fleurette",
        "rank": 30820,
        "rank_sort": 30920,
        "total": 2367
      },
      {
        "club_badge_src": null,
        "entry": 1735876,
        "entry_name": "Yoro Wizard Harry",
        "event_total": 72,
        "has_played": true,
        "id": 12177754,
        "last_rank": 49607,
        "player_name": "Tom Campbell",
        "rank": 30820,
        "rank_sort": 30921,
        "total": 2367
      },
      {
        "club_badge_src": null,
        "entry": 1738788,
        "entry_name": "Bhutan #1",
        "event_total": 60,
        "has_played": true,
        "id": 12199120,
        "last_rank": 33936,
        "player_name": "Jurmey Tobgye",
        "rank": 30820,
        "rank_sort": 30922,
        "total": 2367
      },
      {
        "club_badge_src": null,
        "entry": 1748543,
        "entry_name": "Iron Lung",
        "event_total": 50,
        "has_played": true,
        "id": 12270328,
        "last_rank": 20853,
        "player_name": "Joseph Phillipson",
        "rank": 30820,
        "rank_sort": 30923,
        "total": 2367
      },
      {
        "club_badge_src": null,
        "entry": 1785621,
        "entry_name": "YNWA FC",
        "event_total": 64,
        "has_played": true,
        "id": 12546142,
        "last_rank": 38571,
        "player_name": "Jael Huber",
        "rank": 30820,
        "rank_sort": 30924,
        "total": 2367
      },
      {
        "club_badge_src": "https://fantasy.premierleague.com/gcs/plfpl-production-adobe-approved/plfpl-production/1810858/992d493a-5fbd-4d41-a7e6-28f7d376b0ae.png",
        "entry": 1810858,
        "entry_name": "Team Chris",
        "event_total": 50,
        "has_played": true,
        "id": 12731995,
        "last_rank": 24330,
        "player_name": "Christian Selsaas",
        "rank": 30820,
        "rank_sort": 30925,
        "total": 2367
      },
      {
        "club_badge_src": null,
        "entry": 1819663,
        "entry_name": "Onii Chan FC",
        "event_total": 62,
        "has_played": true,
        "id": 12796864,
        "last_rank": 36200,
        "player_name": "Piyush Katyal",
        "rank": 30820,
        "rank_sort": 30926,
        "total": 2367
      },
      {
        "club_badge_src": null,
        "entry": 1902688,
        "entry_name": "UTFR",
        "event_total": 60,
        "has_played": true,
        "id": 13412963,
        "last_rank": 33936,
        "player_name": "Mikkel H\u00f8j Pedersen",
        "rank": 30820,
        "rank_sort": 30927,
        "total": 2367
      },
      {
        "club_badge_src": "https://fantasy.premierleague.com/gcs/plfpl-production-adobe-approved/plfpl-production/1931513/c485123d-3ee6-4abe-9b83-80ce212c7c98.png",
        "entry": 1931513,
        "entry_name": "Uncle Red Squad",
        "event_total": 62,
        "has_played": true,
        "id": 13622733,
        "last_rank": 36348,
        "player_name": "Gary Lee",
        "rank": 30820,
        "rank_sort": 30928,
        "total": 2367
      },
      {
        "club_badge_src": null,
        "entry": 1947087,
        "entry_name": "SamoBorbeno1914",
        "event_total": 63,
        "has_played": true,
        "id": 13734563,
        "last_rank": 37589,
        "player_name": "Vladimir Nikodijevic",
        "rank": 30820,
        "rank_sort": 30929,
        "total": 2367
      },
      {
        "club_badge_src": null,
        "entry": 1964510,
        "entry_name": "FALVENTUS",
        "event_total": 65,
        "has_played": true,
        "id": 13861269,
        "last_rank": 40036,
        "player_name": "Thomas Falvey",
        "rank": 30820,
        "rank_sort": 30930,
        "total": 2367
      },
      {
        "club_badge_src": null,
        "entry": 2135058,
        "entry_name": "Queens",
        "event_total": 46,
        "has_played": true,
        "id": 15173008,
        "last_rank": 20983,
        "player_name": "Lily Bennett",
        "rank": 30820,
        "rank_sort": 30931,
        "total": 2367
      },
      {
        "club_badge_src": null,
        "entry": 2139062,
        "entry_name": "Birka FK",
        "event_total": 65,
        "has_played": true,
        "id": 15202103,
        "last_rank": 39816,
        "player_name": "Bjarte Gjesme",
        "rank": 30820,
        "rank_sort": 30932,
        "total": 2367
      },
      {
        "club_badge_src": null,
        "entry": 2191588,
        "entry_name": "F. C. Gingins",
        "event_total": 60,
        "has_played": true,
        "id": 15592269,
        "last_rank": 33936,
        "player_name": "Anders Olsen",
        "rank": 30820,
        "rank_sort": 30933,
        "total": 2367
      },
      {
        "club_badge_src": null,
        "entry": 2200216,
        "entry_name": "Ruben Interim",
        "event_total": 56,
        "has_played": true,
        "id": 15656809,
        "last_rank": 29688,
        "player_name": "Ryan Chan",
        "rank": 30820,
        "rank_sort": 30934,
        "total": 2367
      },
      {
        "club_badge_src": null,
        "entry": 2218759,
        "entry_name": "Ima Jedan Tim",
        "event_total": 67,
        "has_played": true,
        "id": 15802103,
        "last_rank": 42506,
        "player_name": "Bojan Maljkovic",
        "rank": 30820,
        "rank_sort": 30935,
        "total": 2367
      },
      {
        "club_badge_src": null,
        "entry": 2220662,
        "entry_name": "Gentlemans relief",
        "event_total": 59,
        "has_played": true,
        "id": 15816135,
        "last_rank": 32688,
        "player_name": "Chris Pritchard",
        "rank": 30820,
        "rank_sort": 30936,
        "total": 2367
      },
      {
        "club_badge_src": null,
        "entry": 2357442,
        "entry_name": "NilSatisNisiOptimum",
        "event_total": 62,
        "has_played": true,
        "id": 16821773,
        "last_rank": 36200,
        "player_name": "Luke Daniel",
        "rank": 30820,
        "rank_sort": 30937,
        "total": 2367
      },
      {
        "club_badge_src": null,
        "entry": 2359792,
        "entry_name": "Frimponging Ahead",
        "event_total": 50,
        "has_played": true,
        "id": 16840871,
        "last_rank": 24039,
        "player_name": "Ario Motamedi",
        "rank": 30820,
        "rank_sort": 30938,
        "total": 2367
      },
      {
        "club_badge_src": null,
        "entry": 2380255,
        "entry_name": "Paris Dan the Man",
        "event_total": 70,
        "has_played": true,
        "id": 16996303,
        "last_rank": 46839,
        "player_name": "Daniel Heydon",
        "rank": 30820,
        "rank_sort": 30939,
        "total": 2367
      },
      {
        "club_badge_src": null,
        "entry": 2384025,
        "entry_name": "Toppa lag",
        "event_total": 55,
        "has_played": true,
        "id": 17024546,
        "last_rank": 28726,
        "player_name": "Emil Cappelen Bj\u00f8ru",
        "rank": 30820,
        "rank_sort": 30940,
        "total": 2367
      },
      {
        "club_badge_src": null,
        "entry": 2505981,
        "entry_name": "Baron",
        "event_total": 58,
        "has_played": true,
        "id": 17945980,
        "last_rank": 31620,
        "player_name": "Geir Halvor Gjerstad",
        "rank": 30820,
        "rank_sort": 30941,
        "total": 2367
      },
      {
        "club_badge_src": null,
        "entry": 2527545,
        "entry_name": "Cunha Believe It?",
        "event_total": 49,
        "has_played": true,
        "id": 18111334,
        "last_rank": 23341,
        "player_name": "Tyrese Gough",
        "rank": 30820,
        "rank_sort": 30942,
        "total": 2367
      },
      {
        "club_badge_src": null,
        "entry": 2548650,
        "entry_name": "King FC",
        "event_total": 61,
        "has_played": true,
        "id": 18270011,
        "last_rank": 35166,
        "player_name": "Joe King",
        "rank": 30820,
        "rank_sort": 30943,
        "total": 2367
      },
      {
        "club_badge_src": null,
        "entry": 2558917,
        "entry_name": "SEM FC",
        "event_total": 57,
        "has_played": true,
        "id": 18351223,
        "last_rank": 30600,
        "player_name": "Seif El Meer",
        "rank": 30820,
        "rank_sort": 30944,
        "total": 2367
      },
      {
        "club_badge_src": null,
        "entry": 2588693,
        "entry_name": "FC Sporting Sandal",
        "event_total": 62,
        "has_played": true,
        "id": 18584577,
        "last_rank": 36348,
        "player_name": "Kristan Caryl",
        "rank": 30820,
        "rank_sort": 30945,
        "total": 2367
      },
      {
        "club_badge_src": null,
        "entry": 2631348,
        "entry_name": "Wirtz Nightmare",
        "event_total": 59,
        "has_played": true,
        "id": 18910690,
        "last_rank": 32879,
        "player_name": "James Sime",
        "rank": 30820,
        "rank_sort": 30946,
        "total": 2367
      },
      {
        "club_badge_src": null,
        "entry": 2637641,
        "entry_name": "Gyok 14",
        "event_total": 57,
        "has_played": true,
        "id": 18956863,
        "last_rank": 30600,
        "player_name": "Sam Cannon",
        "rank": 30820,
        "rank_sort": 30947,
        "total": 2367
      },
      {
        "club_badge_src": null,
        "entry": 2851270,
        "entry_name": "Chido Obi-Wan Kenobi",
        "event_total": 67,
        "has_played": true,
        "id": 20847480,
        "last_rank": 42648,
        "player_name": "Tiernan McGlynn",
        "rank": 30820,
        "rank_sort": 30948,
        "total": 2367
      },
      {
        "club_badge_src": null,
        "entry": 2867558,
        "entry_name": "Got a big gyok",
        "event_total": 42,
        "has_played": true,
        "id": 20973351,
        "last_rank": 18029,
        "player_name": "Freddie Pankhurst",
        "rank": 30820,
        "rank_sort": 30949,
        "total": 2367
      },
      {
        "club_badge_src": null,
        "entry": 2894533,
        "entry_name": "TimpeallAnCunha",
        "event_total": 48,
        "has_played": true,
        "id": 21205724,
        "last_rank": 22534,
        "player_name": "con horgan",
        "rank": 30820,
        "rank_sort": 30950,
        "total": 2367
      }
    ]
  }
}