{
  "last_updated_data": "2026-05-24T23:28:17Z",
  "league": {
    "admin_entry": null,
    "closed": false,
    "code_privacy": "p",
    "created": "2025-07-20T23:14:33.933835Z",
    "cup_league": 2815434,
    "has_cup": true,
    "id": 314,
    "league_type": "s",
    "max_entries": null,
    "name": "Overall",
    "rank": null,
    "scoring": "c",
    "start_event": 1
  },
  "new_entries": {
    "has_next": false,
    "page": 1,
    "results": []
  },
  "standings": {
    "has_next": true,
    "page": 686,
    "results": [
      {
        "club_badge_src": null,
        "entry": 11947,
        "entry_name": "11k ID = Season over",
        "event_total": 55,
        "has_played": true,
        "id": 71276,
        "last_rank": 27770,
        "player_name": "Ryan McGillick",
        "rank": 34242,
        "rank_sort": 34251,
        "total": 2364
      },
      {
        "club_badge_src": null,
        "entry": 14552,
        "entry_name": "Polonia United",
        "event_total": 60,
        "has_played": true,
        "id": 88432,
        "last_rank": 37589,
        "player_name": "Jakub Waszak",
        "rank": 34242,
        "rank_sort": 34252,
        "total": 2364
      },
      {
        "club_badge_src": null,
        "entry": 15439,
        "entry_name": "Bobbins FC",
        "event_total": 60,
        "has_played": true,
        "id": 94763,
        "last_rank": 32879,
        "player_name": "Nick Wright",
        "rank": 34242,
        "rank_sort": 34253,
        "total": 2364
      },
      {
        "club_badge_src": "https://fantasy.premierleague.com/gcs/plfpl-production-adobe-approved/plfpl-production/17183/0c5f1565-b75e-4add-b2e9-7e87ef7f3262.png",
        "entry": 17183,
        "entry_name": "Blank",
        "event_total": 68,
        "has_played": true,
        "id": 106511,
        "last_rank": 42506,
        "player_name": "Mohamed Rashad",
        "rank": 34242,
        "rank_sort": 34254,
        "total": 2364
      },
      {
        "club_badge_src": null,
        "entry": 19148,
        "entry_name": "Elitni XI",
        "event_total": 55,
        "has_played": true,
        "id": 119168,
        "last_rank": 31747,
        "player_name": "Nikola Stanisic",
        "rank": 34242,
        "rank_sort": 34255,
        "total": 2364
      },
      {
        "club_badge_src": null,
        "entry": 20064,
        "entry_name": "Kealy's Bears",
        "event_total": 68,
        "has_played": true,
        "id": 124921,
        "last_rank": 42506,
        "player_name": "Alexander Keal",
        "rank": 34242,
        "rank_sort": 34256,
        "total": 2364
      },
      {
        "club_badge_src": null,
        "entry": 23538,
        "entry_name": "TiccoTeam",
        "event_total": 49,
        "has_played": true,
        "id": 148271,
        "last_rank": 22426,
        "player_name": "Nicolai Ellingsen",
        "rank": 34242,
        "rank_sort": 34257,
        "total": 2364
      },
      {
        "club_badge_src": null,
        "entry": 29794,
        "entry_name": "Fred the Red",
        "event_total": 53,
        "has_played": true,
        "id": 188455,
        "last_rank": 29904,
        "player_name": "Fredrik Granroth",
        "rank": 34242,
        "rank_sort": 34258,
        "total": 2364
      },
      {
        "club_badge_src": null,
        "entry": 33164,
        "entry_name": "NotTooXabi",
        "event_total": 62,
        "has_played": true,
        "id": 211375,
        "last_rank": 40036,
        "player_name": "SB Bhai",
        "rank": 34242,
        "rank_sort": 34259,
        "total": 2364
      },
      {
        "club_badge_src": null,
        "entry": 34627,
        "entry_name": "Cold Calma",
        "event_total": 52,
        "has_played": true,
        "id": 221283,
        "last_rank": 28906,
        "player_name": "Mathias Sl\u00e5tta Folser\u00e5s",
        "rank": 34242,
        "rank_sort": 34260,
        "total": 2364
      },
      {
        "club_badge_src": null,
        "entry": 35866,
        "entry_name": "Osula-la!",
        "event_total": 69,
        "has_played": true,
        "id": 229557,
        "last_rank": 49880,
        "player_name": "Cameron Stewart",
        "rank": 34242,
        "rank_sort": 34261,
        "total": 2364
      },
      {
        "club_badge_src": null,
        "entry": 42762,
        "entry_name": "The Good Boys",
        "event_total": 71,
        "has_played": true,
        "id": 273905,
        "last_rank": 46839,
        "player_name": "Billy Higgins",
        "rank": 34242,
        "rank_sort": 34262,
        "total": 2364
      },
      {
        "club_badge_src": null,
        "entry": 43087,
        "entry_name": "Pringletelli",
        "event_total": 59,
        "has_played": true,
        "id": 275926,
        "last_rank": 31747,
        "player_name": "Jonny Pringle",
        "rank": 34242,
        "rank_sort": 34263,
        "total": 2364
      },
      {
        "club_badge_src": null,
        "entry": 49935,
        "entry_name": "Lilywhites",
        "event_total": 71,
        "has_played": true,
        "id": 321046,
        "last_rank": 46839,
        "player_name": "Itshaam Hussain",
        "rank": 34242,
        "rank_sort": 34264,
        "total": 2364
      },
      {
        "club_badge_src": null,
        "entry": 60484,
        "entry_name": "Relentless",
        "event_total": 60,
        "has_played": true,
        "id": 389425,
        "last_rank": 37589,
        "player_name": "Yash Maheshwari",
        "rank": 34242,
        "rank_sort": 34265,
        "total": 2364
      },
      {
        "club_badge_src": null,
        "entry": 69914,
        "entry_name": "Galacticos",
        "event_total": 51,
        "has_played": true,
        "id": 453759,
        "last_rank": 27976,
        "player_name": "Lirim Bela",
        "rank": 34242,
        "rank_sort": 34266,
        "total": 2364
      },
      {
        "club_badge_src": null,
        "entry": 75866,
        "entry_name": "Let's Get Messi",
        "event_total": 70,
        "has_played": true,
        "id": 493239,
        "last_rank": 51403,
        "player_name": "Rameaz Ali",
        "rank": 34242,
        "rank_sort": 34267,
        "total": 2364
      },
      {
        "club_badge_src": null,
        "entry": 94147,
        "entry_name": "Deus Vult",
        "event_total": 52,
        "has_played": true,
        "id": 615191,
        "last_rank": 28906,
        "player_name": "Nasriq Mohd Sohod -DR-",
        "rank": 34242,
        "rank_sort": 34268,
        "total": 2364
      },
      {
        "club_badge_src": null,
        "entry": 105801,
        "entry_name": "Becs11",
        "event_total": 61,
        "has_played": true,
        "id": 689990,
        "last_rank": 33936,
        "player_name": "Rebecca Cassidy",
        "rank": 34242,
        "rank_sort": 34269,
        "total": 2364
      },
      {
        "club_badge_src": null,
        "entry": 106354,
        "entry_name": "PabloFortnite FC",
        "event_total": 53,
        "has_played": true,
        "id": 693504,
        "last_rank": 29688,
        "player_name": "Stijn Verstraelen",
        "rank": 34242,
        "rank_sort": 34270,
        "total": 2364
      },
      {
        "club_badge_src": null,
        "entry": 108469,
        "entry_name": "FROM BAD TO WIRTZ",
        "event_total": 43,
        "has_played": true,
        "id": 707183,
        "last_rank": 20983,
        "player_name": "robbie granger",
        "rank": 34242,
        "rank_sort": 34271,
        "total": 2364
      },
      {
        "club_badge_src": null,
        "entry": 109906,
        "entry_name": "S\u00e5num Rovers",
        "event_total": 58,
        "has_played": true,
        "id": 716697,
        "last_rank": 35424,
        "player_name": "Vegard Aanensen",
        "rank": 34242,
        "rank_sort": 34272,
        "total": 2364
      },
      {
        "club_badge_src": "https://fantasy.premierleague.com/gcs/plfpl-production-adobe-approved/plfpl-production/112349/76e401c2-87f9-43d8-a97b-5bb54b2c201d.png",
        "entry": 112349,
        "entry_name": "Change Name",
        "event_total": 69,
        "has_played": true,
        "id": 732470,
        "last_rank": 49691,
        "player_name": "Carlos Kase",
        "rank": 34242,
        "rank_sort": 34273,
        "total": 2364
      },
      {
        "club_badge_src": null,
        "entry": 116884,
        "entry_name": "Wieffer Vendetta",
        "event_total": 51,
        "has_played": true,
        "id": 763024,
        "last_rank": 27976,
        "player_name": "Ryan Casey",
        "rank": 34242,
        "rank_sort": 34274,
        "total": 2364
      },
      {
        "club_badge_src": null,
        "entry": 124620,
        "entry_name": "Jamie's Sister",
        "event_total": 58,
        "has_played": true,
        "id": 812827,
        "last_rank": 35166,
        "player_name": "Luke Fowler",
        "rank": 34242,
        "rank_sort": 34275,
        "total": 2364
      },
      {
        "club_badge_src": "https://fantasy.premierleague.com/gcs/plfpl-production-adobe-approved/plfpl-production/127100/cc68974c-e60a-46fa-afad-38d3feb41a37.png",
        "entry": 127100,
        "entry_name": "Elmasry port said \ufffd",
        "event_total": 77,
        "has_played": true,
        "id": 828664,
        "last_rank": 63724,
        "player_name": "Mohamed Elmasry",
        "rank": 34242,
        "rank_sort": 34276,
        "total": 2364
      },
      {
        "club_badge_src": null,
        "entry": 128316,
        "entry_name": "Champions",
        "event_total": 64,
        "has_played": true,
        "id": 836410,
        "last_rank": 42648,
        "player_name": "FMFans ID",
        "rank": 34242,
        "rank_sort": 34277,
        "total": 2364
      },
      {
        "club_badge_src": null,
        "entry": 132086,
        "entry_name": "Trousers FC",
        "event_total": 67,
        "has_played": true,
        "id": 860468,
        "last_rank": 47417,
        "player_name": "Ben Cordery",
        "rank": 34242,
        "rank_sort": 34278,
        "total": 2364
      },
      {
        "club_badge_src": null,
        "entry": 134005,
        "entry_name": "Ballotellitubbies",
        "event_total": 48,
        "has_played": true,
        "id": 872787,
        "last_rank": 25172,
        "player_name": "Thomas Ansell",
        "rank": 34242,
        "rank_sort": 34279,
        "total": 2364
      },
      {
        "club_badge_src": null,
        "entry": 153772,
        "entry_name": "Brazil",
        "event_total": 71,
        "has_played": true,
        "id": 1009943,
        "last_rank": 46660,
        "player_name": "Peter Cronin",
        "rank": 34242,
        "rank_sort": 34280,
        "total": 2364
      },
      {
        "club_badge_src": null,
        "entry": 163793,
        "entry_name": "Arne's XI",
        "event_total": 67,
        "has_played": true,
        "id": 1080570,
        "last_rank": 47163,
        "player_name": "Ian Muscat",
        "rank": 34242,
        "rank_sort": 34281,
        "total": 2364
      },
      {
        "club_badge_src": "https://fantasy.premierleague.com/gcs/plfpl-production-adobe-approved/plfpl-production/167096/9ad7137f-0ef8-4f2e-a64b-18b4f336fbf1.png",
        "entry": 167096,
        "entry_name": "Getting Jover It",
        "event_total": 45,
        "has_played": true,
        "id": 1104388,
        "last_rank": 22685,
        "player_name": "Phil Hawkins",
        "rank": 34242,
        "rank_sort": 34282,
        "total": 2364
      },
      {
        "club_badge_src": null,
        "entry": 181156,
        "entry_name": "Home Bath Bed",
        "event_total": 38,
        "has_played": true,
        "id": 1195481,
        "last_rank": 17585,
        "player_name": "Liam Herrington",
        "rank": 34242,
        "rank_sort": 34283,
        "total": 2364
      },
      {
        "club_badge_src": null,
        "entry": 203896,
        "entry_name": "vill :)",
        "event_total": 68,
        "has_played": true,
        "id": 1354865,
        "last_rank": 48363,
        "player_name": "Setso Seitshiro",
        "rank": 34242,
        "rank_sort": 34284,
        "total": 2364
      },
      {
        "club_badge_src": null,
        "entry": 213381,
        "entry_name": "CmonYouGunners.!",
        "event_total": 51,
        "has_played": true,
        "id": 1419454,
        "last_rank": 27976,
        "player_name": "Deary Sherzad",
        "rank": 34242,
        "rank_sort": 34285,
        "total": 2364
      },
      {
        "club_badge_src": null,
        "entry": 218462,
        "entry_name": "Bokafogo",
        "event_total": 62,
        "has_played": true,
        "id": 1452800,
        "last_rank": 40297,
        "player_name": "Z Kovacs",
        "rank": 34242,
        "rank_sort": 34286,
        "total": 2364
      },
      {
        "club_badge_src": null,
        "entry": 226082,
        "entry_name": "JenniFer-Lopez",
        "event_total": 53,
        "has_played": true,
        "id": 1503991,
        "last_rank": 25902,
        "player_name": "James Linford",
        "rank": 34242,
        "rank_sort": 34287,
        "total": 2364
      },
      {
        "club_badge_src": "https://fantasy.premierleague.com/gcs/plfpl-production-adobe-approved/plfpl-production/235937/a1fefbef-d420-476b-8fcf-9cb716199353.png",
        "entry": 235937,
        "entry_name": "Ronin",
        "event_total": 58,
        "has_played": true,
        "id": 1569892,
        "last_rank": 30727,
        "player_name": "Ram Prakash",
        "rank": 34242,
        "rank_sort": 34288,
        "total": 2364
      },
      {
        "club_badge_src": null,
        "entry": 279678,
        "entry_name": "Reggie LeDuex's 11",
        "event_total": 52,
        "has_played": true,
        "id": 1861421,
        "last_rank": 28906,
        "player_name": "Ethan O'Neill",
        "rank": 34242,
        "rank_sort": 34289,
        "total": 2364
      },
      {
        "club_badge_src": null,
        "entry": 294569,
        "entry_name": "Anfield's wind",
        "event_total": 71,
        "has_played": true,
        "id": 1966919,
        "last_rank": 53023,
        "player_name": "Vladislav Pirinski",
        "rank": 34242,
        "rank_sort": 34290,
        "total": 2364
      },
      {
        "club_badge_src": "https://fantasy.premierleague.com/gcs/plfpl-production-adobe-approved/plfpl-production/328628/beb1cbfd-6453-4972-8790-de643201caee.png",
        "entry": 328628,
        "entry_name": "** Dra\u010da CS **",
        "event_total": 73,
        "has_played": true,
        "id": 2201523,
        "last_rank": 56708,
        "player_name": "Marko Kadovic",
        "rank": 34242,
        "rank_sort": 34291,
        "total": 2364
      },
      {
        "club_badge_src": null,
        "entry": 334323,
        "entry_name": "Champions of Europe",
        "event_total": 62,
        "has_played": true,
        "id": 2238796,
        "last_rank": 35034,
        "player_name": "Dylan Marsden",
        "rank": 34242,
        "rank_sort": 34292,
        "total": 2364
      },
      {
        "club_badge_src": "https://fantasy.premierleague.com/gcs/plfpl-production-adobe-approved/plfpl-production/342286/644d4c75-d964-4969-ae27-909af37b1c61.png",
        "entry": 342286,
        "entry_name": "CWC  1 and only",
        "event_total": 53,
        "has_played": true,
        "id": 2290989,
        "last_rank": 29904,
        "player_name": "Eugene Makhanu",
        "rank": 34242,
        "rank_sort": 34293,
        "total": 2364
      },
      {
        "club_badge_src": "https://fantasy.premierleague.com/gcs/plfpl-production-adobe-approved/plfpl-production/346956/015325b8-563e-4f42-ba14-30bb36615816.png",
        "entry": 346956,
        "entry_name": "Troths Turnips",
        "event_total": 41,
        "has_played": true,
        "id": 2322396,
        "last_rank": 19392,
        "player_name": "paul troth",
        "rank": 34242,
        "rank_sort": 34294,
        "total": 2364
      },
      {
        "club_badge_src": null,
        "entry": 360395,
        "entry_name": "RAP UNITED",
        "event_total": 62,
        "has_played": true,
        "id": 2411579,
        "last_rank": 40297,
        "player_name": "Raplang Sutnga",
        "rank": 34242,
        "rank_sort": 34295,
        "total": 2364
      },
      {
        "club_badge_src": null,
        "entry": 392131,
        "entry_name": "Matsuyama",
        "event_total": 59,
        "has_played": true,
        "id": 2630084,
        "last_rank": 36348,
        "player_name": "Tuukka Pesonen",
        "rank": 34242,
        "rank_sort": 34296,
        "total": 2364
      },
      {
        "club_badge_src": null,
        "entry": 393847,
        "entry_name": "Izzet AlwaysThisEze",
        "event_total": 44,
        "has_played": true,
        "id": 2641383,
        "last_rank": 21775,
        "player_name": "Dan Leach",
        "rank": 34242,
        "rank_sort": 34297,
        "total": 2364
      },
      {
        "club_badge_src": null,
        "entry": 403186,
        "entry_name": "Albury's Royals",
        "event_total": 54,
        "has_played": true,
        "id": 2703574,
        "last_rank": 30957,
        "player_name": "Matt Albury",
        "rank": 34242,
        "rank_sort": 34298,
        "total": 2364
      },
      {
        "club_badge_src": null,
        "entry": 480964,
        "entry_name": "Oh his name is Diogo",
        "event_total": 60,
        "has_played": true,
        "id": 3229005,
        "last_rank": 32879,
        "player_name": "Tom Callaway",
        "rank": 34242,
        "rank_sort": 34299,
        "total": 2364
      },
      {
        "club_badge_src": null,
        "entry": 482970,
        "entry_name": "drinks on the plane",
        "event_total": 60,
        "has_played": true,
        "id": 3242132,
        "last_rank": 37822,
        "player_name": "Nathan Cooper",
        "rank": 34242,
        "rank_sort": 34300,
        "total": 2364
      }
    ]
  }
}