{
  "last_updated_data": "2026-05-24T23:28:17Z",
  "league": {
    "admin_entry": null,
    "closed": false,
    "code_privacy": "p",
    "created": "2025-07-20T23:14:33.933835Z",
    "cup_league": 2815434,
    "has_cup": true,
    "id": 314,
    "league_type": "s",
    "max_entries": null,
    "name": "Overall",
    "rank": null,
    "scoring": "c",
    "start_event": 1
  },
  "new_entries": {
    "has_next": false,
    "page": 1,
    "results": []
  },
  "standings": {
    "has_next": true,
    "page": 1480,
    "results": [
      {
        "club_badge_src": null,
        "entry": 7225999,
        "entry_name": "Tel it to me Frank",
        "event_total": 58,
        "has_played": true,
        "id": 58378192,
        "last_rank": 76947,
        "player_name": "Ollie Rowe",
        "rank": 73620,
        "rank_sort": 73951,
        "total": 2338
      },
      {
        "club_badge_src": null,
        "entry": 7228653,
        "entry_name": "DM-Samarth",
        "event_total": 61,
        "has_played": true,
        "id": 58402800,
        "last_rank": 83698,
        "player_name": "Samarth Mundra",
        "rank": 73620,
        "rank_sort": 73952,
        "total": 2338
      },
      {
        "club_badge_src": null,
        "entry": 7255717,
        "entry_name": "Alice in WonHaaland",
        "event_total": 71,
        "has_played": true,
        "id": 58660303,
        "last_rank": 108567,
        "player_name": "Alice Fox",
        "rank": 73620,
        "rank_sort": 73953,
        "total": 2338
      },
      {
        "club_badge_src": null,
        "entry": 7482651,
        "entry_name": "Boom Xhaka Laka",
        "event_total": 66,
        "has_played": true,
        "id": 61057506,
        "last_rank": 95890,
        "player_name": "Quinn McLoughlin",
        "rank": 73620,
        "rank_sort": 73954,
        "total": 2338
      },
      {
        "club_badge_src": null,
        "entry": 7581897,
        "entry_name": "Ekitike taka",
        "event_total": 50,
        "has_played": true,
        "id": 62100652,
        "last_rank": 61606,
        "player_name": "Jack Byrne",
        "rank": 73620,
        "rank_sort": 73955,
        "total": 2338
      },
      {
        "club_badge_src": null,
        "entry": 7616992,
        "entry_name": "Our Year Again \ufffd",
        "event_total": 51,
        "has_played": true,
        "id": 62419497,
        "last_rank": 63390,
        "player_name": "Dave Ryan",
        "rank": 73620,
        "rank_sort": 73956,
        "total": 2338
      },
      {
        "club_badge_src": null,
        "entry": 7655224,
        "entry_name": "Runbors",
        "event_total": 52,
        "has_played": true,
        "id": 62763242,
        "last_rank": 64943,
        "player_name": "Rune Borsheim",
        "rank": 73620,
        "rank_sort": 73957,
        "total": 2338
      },
      {
        "club_badge_src": null,
        "entry": 7743926,
        "entry_name": "Haji Hama",
        "event_total": 62,
        "has_played": true,
        "id": 63566163,
        "last_rank": 86304,
        "player_name": "Haji Hama",
        "rank": 73620,
        "rank_sort": 73958,
        "total": 2338
      },
      {
        "club_badge_src": null,
        "entry": 7768008,
        "entry_name": "team kukk",
        "event_total": 56,
        "has_played": true,
        "id": 63785030,
        "last_rank": 73038,
        "player_name": "Kjetil Kveim",
        "rank": 73620,
        "rank_sort": 73959,
        "total": 2338
      },
      {
        "club_badge_src": null,
        "entry": 7791311,
        "entry_name": "Kurupt FC",
        "event_total": 67,
        "has_played": true,
        "id": 63995363,
        "last_rank": 97982,
        "player_name": "Omar Barry",
        "rank": 73620,
        "rank_sort": 73960,
        "total": 2338
      },
      {
        "club_badge_src": null,
        "entry": 7843943,
        "entry_name": "raytheflay",
        "event_total": 73,
        "has_played": true,
        "id": 64476404,
        "last_rank": 114574,
        "player_name": "Rayhan Kabiri",
        "rank": 73620,
        "rank_sort": 73961,
        "total": 2338
      },
      {
        "club_badge_src": null,
        "entry": 8041861,
        "entry_name": "\u062f\u062c\u064a\u0645 \u0645\u062f\u0631\u064a\u062f\u064a\u0633\u062a\u0627",
        "event_total": 41,
        "has_played": true,
        "id": 66263508,
        "last_rank": 47163,
        "player_name": "\u062f\u062c\u064a\u0645 \u0645\u062f\u0631\u064a\u062f\u064a\u0633\u062a\u0627",
        "rank": 73620,
        "rank_sort": 73962,
        "total": 2338
      },
      {
        "club_badge_src": null,
        "entry": 8059560,
        "entry_name": "Digger\u2019s Donuts",
        "event_total": 69,
        "has_played": true,
        "id": 66424154,
        "last_rank": 103254,
        "player_name": "Chris Barnes",
        "rank": 73620,
        "rank_sort": 73963,
        "total": 2338
      },
      {
        "club_badge_src": null,
        "entry": 8152312,
        "entry_name": "Backstreet Moyes",
        "event_total": 61,
        "has_played": true,
        "id": 67290623,
        "last_rank": 83534,
        "player_name": "Kell Davies",
        "rank": 73620,
        "rank_sort": 73964,
        "total": 2338
      },
      {
        "club_badge_src": null,
        "entry": 8163297,
        "entry_name": "Jagchester united",
        "event_total": 48,
        "has_played": true,
        "id": 67392331,
        "last_rank": 58071,
        "player_name": "Robert Johnson",
        "rank": 73620,
        "rank_sort": 73965,
        "total": 2338
      },
      {
        "club_badge_src": null,
        "entry": 8233315,
        "entry_name": "Elite Team",
        "event_total": 71,
        "has_played": true,
        "id": 68059028,
        "last_rank": 108959,
        "player_name": "Jose Mourinho",
        "rank": 73620,
        "rank_sort": 73966,
        "total": 2338
      },
      {
        "club_badge_src": null,
        "entry": 8252452,
        "entry_name": "Jojoba",
        "event_total": 56,
        "has_played": true,
        "id": 68247522,
        "last_rank": 73423,
        "player_name": "Orestis Kokkinos",
        "rank": 73620,
        "rank_sort": 73967,
        "total": 2338
      },
      {
        "club_badge_src": null,
        "entry": 8339564,
        "entry_name": "Wigan Pathetic",
        "event_total": 44,
        "has_played": true,
        "id": 69104418,
        "last_rank": 51403,
        "player_name": "kurtis Bradley",
        "rank": 73620,
        "rank_sort": 73968,
        "total": 2338
      },
      {
        "club_badge_src": null,
        "entry": 8424196,
        "entry_name": "pic'n'mix",
        "event_total": 64,
        "has_played": true,
        "id": 69909037,
        "last_rank": 91006,
        "player_name": "Karen Hau",
        "rank": 73620,
        "rank_sort": 73969,
        "total": 2338
      },
      {
        "club_badge_src": "https://fantasy.premierleague.com/gcs/plfpl-production-adobe-approved/plfpl-production/8449262/1fb6626e-c33c-4bec-acf4-3a2172465527.png",
        "entry": 8449262,
        "entry_name": "Team Naresh",
        "event_total": 49,
        "has_played": true,
        "id": 70148136,
        "last_rank": 59813,
        "player_name": "naresh poudel",
        "rank": 73620,
        "rank_sort": 73970,
        "total": 2338
      },
      {
        "club_badge_src": null,
        "entry": 8468062,
        "entry_name": "Houssam._.Blk",
        "event_total": 83,
        "has_played": true,
        "id": 70326027,
        "last_rank": 146079,
        "player_name": "Houssam Boulfekhar",
        "rank": 73620,
        "rank_sort": 73971,
        "total": 2338
      },
      {
        "club_badge_src": null,
        "entry": 8507970,
        "entry_name": "Lago FC",
        "event_total": 68,
        "has_played": true,
        "id": 70714661,
        "last_rank": 100700,
        "player_name": "Joao Lago",
        "rank": 73620,
        "rank_sort": 73972,
        "total": 2338
      },
      {
        "club_badge_src": "https://fantasy.premierleague.com/gcs/plfpl-production-adobe-approved/plfpl-production/8563771/e87acc80-c443-4886-ad1e-e420d44bff18.png",
        "entry": 8563771,
        "entry_name": "Atur",
        "event_total": 57,
        "has_played": true,
        "id": 71250970,
        "last_rank": 74898,
        "player_name": "Atur Keynan",
        "rank": 73620,
        "rank_sort": 73973,
        "total": 2338
      },
      {
        "club_badge_src": null,
        "entry": 8571968,
        "entry_name": "Vincenzo",
        "event_total": 52,
        "has_played": true,
        "id": 71329121,
        "last_rank": 65163,
        "player_name": "Samah Ibrahim",
        "rank": 73620,
        "rank_sort": 73974,
        "total": 2338
      },
      {
        "club_badge_src": null,
        "entry": 8694615,
        "entry_name": "Pugh Tang Clan XI",
        "event_total": 61,
        "has_played": true,
        "id": 72526831,
        "last_rank": 83934,
        "player_name": "Kenny Pugh",
        "rank": 73620,
        "rank_sort": 73975,
        "total": 2338
      },
      {
        "club_badge_src": null,
        "entry": 8874673,
        "entry_name": "sky blue",
        "event_total": 72,
        "has_played": true,
        "id": 74263519,
        "last_rank": 111669,
        "player_name": "Keita Nakano",
        "rank": 73620,
        "rank_sort": 73976,
        "total": 2338
      },
      {
        "club_badge_src": null,
        "entry": 8907959,
        "entry_name": "Texta",
        "event_total": 77,
        "has_played": true,
        "id": 74586926,
        "last_rank": 125869,
        "player_name": "Luka \u010cule",
        "rank": 73620,
        "rank_sort": 73977,
        "total": 2338
      },
      {
        "club_badge_src": null,
        "entry": 8957151,
        "entry_name": "D-Unit bus team",
        "event_total": 65,
        "has_played": true,
        "id": 75068657,
        "last_rank": 93052,
        "player_name": "D-Unit Krispler",
        "rank": 73620,
        "rank_sort": 73978,
        "total": 2338
      },
      {
        "club_badge_src": null,
        "entry": 8994562,
        "entry_name": "Californibu",
        "event_total": 62,
        "has_played": true,
        "id": 75428681,
        "last_rank": 86054,
        "player_name": "Jarle Birkeland",
        "rank": 73620,
        "rank_sort": 73979,
        "total": 2338
      },
      {
        "club_badge_src": "https://fantasy.premierleague.com/gcs/plfpl-production-adobe-approved/plfpl-production/9018585/ad62d279-90e6-406d-b9a7-4cc4466ad9c6.png",
        "entry": 9018585,
        "entry_name": "Power Plant Softball",
        "event_total": 52,
        "has_played": true,
        "id": 75658541,
        "last_rank": 64777,
        "player_name": "Luke Jones",
        "rank": 73620,
        "rank_sort": 73980,
        "total": 2338
      },
      {
        "club_badge_src": null,
        "entry": 9155466,
        "entry_name": "BenchBoost Barnehage",
        "event_total": 68,
        "has_played": true,
        "id": 76994015,
        "last_rank": 100572,
        "player_name": "Anders Kvinen Kaldheim",
        "rank": 73620,
        "rank_sort": 73981,
        "total": 2338
      },
      {
        "club_badge_src": null,
        "entry": 9375167,
        "entry_name": "Acetic FC",
        "event_total": 62,
        "has_played": true,
        "id": 79132158,
        "last_rank": 85932,
        "player_name": "Kgetho Makhafola",
        "rank": 73620,
        "rank_sort": 73982,
        "total": 2338
      },
      {
        "club_badge_src": "https://fantasy.premierleague.com/gcs/plfpl-production-adobe-approved/plfpl-production/413/afc4d514-bd70-4813-9710-98ed95457490.png",
        "entry": 413,
        "entry_name": "On Nobody's Hyde",
        "event_total": 53,
        "has_played": true,
        "id": 2280,
        "last_rank": 67422,
        "player_name": "Tom Hyde",
        "rank": 73983,
        "rank_sort": 73983,
        "total": 2338
      },
      {
        "club_badge_src": null,
        "entry": 4853,
        "entry_name": "Hull Vale",
        "event_total": 59,
        "has_played": true,
        "id": 27619,
        "last_rank": 70985,
        "player_name": "Joshua Selby",
        "rank": 73983,
        "rank_sort": 73984,
        "total": 2338
      },
      {
        "club_badge_src": null,
        "entry": 6912,
        "entry_name": "The Scouts",
        "event_total": 56,
        "has_played": true,
        "id": 39775,
        "last_rank": 73423,
        "player_name": "Joe Garner",
        "rank": 73983,
        "rank_sort": 73985,
        "total": 2338
      },
      {
        "club_badge_src": "https://fantasy.premierleague.com/gcs/plfpl-production-adobe-approved/plfpl-production/7846/66d4ddb0-b639-4871-b9c6-5838a5776984.png",
        "entry": 7846,
        "entry_name": "wolverines",
        "event_total": 52,
        "has_played": true,
        "id": 45292,
        "last_rank": 65475,
        "player_name": "Mo Sabah",
        "rank": 73983,
        "rank_sort": 73986,
        "total": 2338
      },
      {
        "club_badge_src": null,
        "entry": 8120,
        "entry_name": "Alan Sch\u00e4rer",
        "event_total": 55,
        "has_played": true,
        "id": 47032,
        "last_rank": 71386,
        "player_name": "Nunya Beeznees",
        "rank": 73983,
        "rank_sort": 73987,
        "total": 2338
      },
      {
        "club_badge_src": "https://fantasy.premierleague.com/gcs/plfpl-production-adobe-approved/plfpl-production/8675/f0a93ec3-bfb0-4e88-84b4-a6fad30b5971.png",
        "entry": 8675,
        "entry_name": "Juliet\u2019s United",
        "event_total": 61,
        "has_played": true,
        "id": 50572,
        "last_rank": 84360,
        "player_name": "\u8d56 \u5efa \u948a",
        "rank": 73983,
        "rank_sort": 73988,
        "total": 2338
      },
      {
        "club_badge_src": "https://fantasy.premierleague.com/gcs/plfpl-production-adobe-approved/plfpl-production/12606/46802d7f-3b44-4f87-9c01-8cf74e56d208.png",
        "entry": 12606,
        "entry_name": "DCL's ACL",
        "event_total": 55,
        "has_played": true,
        "id": 75642,
        "last_rank": 63390,
        "player_name": "Nathan Jeffrey",
        "rank": 73983,
        "rank_sort": 73989,
        "total": 2338
      },
      {
        "club_badge_src": null,
        "entry": 21379,
        "entry_name": "\u0420\u041a \u041e\u0445\u0440\u0438\u0434 2011",
        "event_total": 67,
        "has_played": true,
        "id": 134027,
        "last_rank": 98896,
        "player_name": "\u0410\u0442\u0430\u043d\u0430\u0441 \u041f\u043e\u043f-\u0421\u0442\u0435\u0444\u0430\u043d\u0438\u0458\u0430",
        "rank": 73983,
        "rank_sort": 73990,
        "total": 2338
      },
      {
        "club_badge_src": null,
        "entry": 22615,
        "entry_name": "Sokar El 7awamdya",
        "event_total": 60,
        "has_played": true,
        "id": 142088,
        "last_rank": 82069,
        "player_name": "Ahmed Hossam",
        "rank": 73983,
        "rank_sort": 73991,
        "total": 2338
      },
      {
        "club_badge_src": null,
        "entry": 23279,
        "entry_name": "oh Neil",
        "event_total": 57,
        "has_played": true,
        "id": 146545,
        "last_rank": 75139,
        "player_name": "Lewis Truby-Kelly",
        "rank": 73983,
        "rank_sort": 73992,
        "total": 2338
      },
      {
        "club_badge_src": null,
        "entry": 24695,
        "entry_name": "Ziipesh FC",
        "event_total": 66,
        "has_played": true,
        "id": 155919,
        "last_rank": 96374,
        "player_name": "Parvesh Ferag",
        "rank": 73983,
        "rank_sort": 73993,
        "total": 2338
      },
      {
        "club_badge_src": null,
        "entry": 28044,
        "entry_name": "Calafiori Dreamin",
        "event_total": 63,
        "has_played": true,
        "id": 177348,
        "last_rank": 88348,
        "player_name": "Filip Holmstr\u00f6m",
        "rank": 73983,
        "rank_sort": 73994,
        "total": 2338
      },
      {
        "club_badge_src": "https://fantasy.premierleague.com/gcs/plfpl-production-adobe-approved/plfpl-production/29021/5940760b-e0d3-4e99-bd2c-5c462202e9f4.png",
        "entry": 29021,
        "entry_name": "Apex",
        "event_total": 66,
        "has_played": true,
        "id": 183497,
        "last_rank": 96374,
        "player_name": "Mohammad Mokhtari",
        "rank": 73983,
        "rank_sort": 73995,
        "total": 2338
      },
      {
        "club_badge_src": null,
        "entry": 32160,
        "entry_name": "Saka la Vista, Baby",
        "event_total": 64,
        "has_played": true,
        "id": 204383,
        "last_rank": 81646,
        "player_name": "Stanislav Kirillov",
        "rank": 73983,
        "rank_sort": 73996,
        "total": 2338
      },
      {
        "club_badge_src": null,
        "entry": 41902,
        "entry_name": "Hakuna Mateta",
        "event_total": 80,
        "has_played": true,
        "id": 268485,
        "last_rank": 136080,
        "player_name": "Thijn 31",
        "rank": 73983,
        "rank_sort": 73997,
        "total": 2338
      },
      {
        "club_badge_src": null,
        "entry": 43680,
        "entry_name": "Mo money no Salah",
        "event_total": 56,
        "has_played": true,
        "id": 279752,
        "last_rank": 73423,
        "player_name": "Jan-Aage Brill",
        "rank": 73983,
        "rank_sort": 73998,
        "total": 2338
      },
      {
        "club_badge_src": "https://fantasy.premierleague.com/gcs/plfpl-production-adobe-approved/plfpl-production/45741/ad7a7410-91ad-4921-9934-0f6c1a3e599d.png",
        "entry": 45741,
        "entry_name": "ChampagneSuperRovers",
        "event_total": 65,
        "has_played": true,
        "id": 293404,
        "last_rank": 93883,
        "player_name": "Josh Hough",
        "rank": 73983,
        "rank_sort": 73999,
        "total": 2338
      },
      {
        "club_badge_src": null,
        "entry": 46499,
        "entry_name": "Gangsters Tannadice",
        "event_total": 67,
        "has_played": true,
        "id": 298094,
        "last_rank": 98436,
        "player_name": "Ciaran Lamont",
        "rank": 73983,
        "rank_sort": 74000,
        "total": 2338
      }
    ]
  }
}