{
  "last_updated_data": "2026-05-24T23:28:17Z",
  "league": {
    "admin_entry": null,
    "closed": false,
    "code_privacy": "p",
    "created": "2025-07-20T23:14:33.933835Z",
    "cup_league": 2815434,
    "has_cup": true,
    "id": 314,
    "league_type": "s",
    "max_entries": null,
    "name": "Overall",
    "rank": null,
    "scoring": "c",
    "start_event": 1
  },
  "new_entries": {
    "has_next": false,
    "page": 1,
    "results": []
  },
  "standings": {
    "has_next": true,
    "page": 767,
    "results": [
      {
        "club_badge_src": null,
        "entry": 401870,
        "entry_name": "Cold Procter",
        "event_total": 66,
        "has_played": true,
        "id": 2694667,
        "last_rank": 44882,
        "player_name": "Jacob Procter",
        "rank": 38293,
        "rank_sort": 38301,
        "total": 2361
      },
      {
        "club_badge_src": "https://fantasy.premierleague.com/gcs/plfpl-production-adobe-approved/plfpl-production/781666/4258b6db-2478-47c9-900e-27ff07579635.png",
        "entry": 781666,
        "entry_name": "AdamsXI",
        "event_total": 64,
        "has_played": true,
        "id": 5336662,
        "last_rank": 42152,
        "player_name": "Adam Grindley",
        "rank": 38293,
        "rank_sort": 38302,
        "total": 2361
      },
      {
        "club_badge_src": null,
        "entry": 885905,
        "entry_name": "F Society",
        "event_total": 63,
        "has_played": true,
        "id": 6075931,
        "last_rank": 46364,
        "player_name": "AHMED OSMAN",
        "rank": 38293,
        "rank_sort": 38303,
        "total": 2361
      },
      {
        "club_badge_src": null,
        "entry": 991320,
        "entry_name": "Tubystars",
        "event_total": 60,
        "has_played": true,
        "id": 6835400,
        "last_rank": 32437,
        "player_name": "Ian Seymour",
        "rank": 38293,
        "rank_sort": 38304,
        "total": 2361
      },
      {
        "club_badge_src": null,
        "entry": 1150213,
        "entry_name": "Big Nick Energy",
        "event_total": 49,
        "has_played": true,
        "id": 7975145,
        "last_rank": 25564,
        "player_name": "Calvin Dixon",
        "rank": 38293,
        "rank_sort": 38305,
        "total": 2361
      },
      {
        "club_badge_src": null,
        "entry": 1516364,
        "entry_name": "Aurora Borealis",
        "event_total": 59,
        "has_played": true,
        "id": 10576306,
        "last_rank": 40832,
        "player_name": "Andrew Spencer",
        "rank": 38293,
        "rank_sort": 38306,
        "total": 2361
      },
      {
        "club_badge_src": null,
        "entry": 1599690,
        "entry_name": "Thirsty Hirsty",
        "event_total": 50,
        "has_played": true,
        "id": 11190811,
        "last_rank": 30361,
        "player_name": "John Waters",
        "rank": 38293,
        "rank_sort": 38307,
        "total": 2361
      },
      {
        "club_badge_src": null,
        "entry": 1616868,
        "entry_name": "AHMED DARWISH FC\ufffd",
        "event_total": 42,
        "has_played": true,
        "id": 11314039,
        "last_rank": 20008,
        "player_name": "Abu Hiba \ud83d\udd25",
        "rank": 38293,
        "rank_sort": 38308,
        "total": 2361
      },
      {
        "club_badge_src": "https://fantasy.premierleague.com/gcs/plfpl-production-adobe-approved/plfpl-production/1687928/9d076a04-f197-4079-ba62-b0768fede67e.png",
        "entry": 1687928,
        "entry_name": "SdYou",
        "event_total": 76,
        "has_played": true,
        "id": 11815931,
        "last_rank": 68351,
        "player_name": "Sd You",
        "rank": 38293,
        "rank_sort": 38309,
        "total": 2361
      },
      {
        "club_badge_src": null,
        "entry": 2011736,
        "entry_name": "ViDuNgi boYs",
        "event_total": 63,
        "has_played": true,
        "id": 14225449,
        "last_rank": 40647,
        "player_name": "Das Maina",
        "rank": 38293,
        "rank_sort": 38310,
        "total": 2361
      },
      {
        "club_badge_src": null,
        "entry": 2186202,
        "entry_name": "Ernie's Ego",
        "event_total": 51,
        "has_played": true,
        "id": 15552147,
        "last_rank": 27402,
        "player_name": "jon hewitt",
        "rank": 38293,
        "rank_sort": 38311,
        "total": 2361
      },
      {
        "club_badge_src": null,
        "entry": 2256219,
        "entry_name": "Cungers FC",
        "event_total": 62,
        "has_played": true,
        "id": 16083568,
        "last_rank": 39585,
        "player_name": "iain c",
        "rank": 38293,
        "rank_sort": 38312,
        "total": 2361
      },
      {
        "club_badge_src": null,
        "entry": 2478727,
        "entry_name": "Wirtz Case Scenario",
        "event_total": 69,
        "has_played": true,
        "id": 17735335,
        "last_rank": 55812,
        "player_name": "Mike Procter",
        "rank": 38293,
        "rank_sort": 38313,
        "total": 2361
      },
      {
        "club_badge_src": null,
        "entry": 2505094,
        "entry_name": "MOHAMMED KUDOS0593",
        "event_total": 66,
        "has_played": true,
        "id": 17939353,
        "last_rank": 50905,
        "player_name": "Elg\u00fcn Abdurahmanov",
        "rank": 38293,
        "rank_sort": 38314,
        "total": 2361
      },
      {
        "club_badge_src": null,
        "entry": 2702443,
        "entry_name": "Moyes Boys",
        "event_total": 52,
        "has_played": true,
        "id": 19441047,
        "last_rank": 28388,
        "player_name": "Dale Sweetman",
        "rank": 38293,
        "rank_sort": 38315,
        "total": 2361
      },
      {
        "club_badge_src": null,
        "entry": 2758157,
        "entry_name": "The Kling\u2019ons",
        "event_total": 49,
        "has_played": true,
        "id": 20111229,
        "last_rank": 25564,
        "player_name": "Jeremy Maina",
        "rank": 38293,
        "rank_sort": 38316,
        "total": 2361
      },
      {
        "club_badge_src": null,
        "entry": 2775803,
        "entry_name": "L\u00e4rv\u00e4n Kytin\u00e4",
        "event_total": 53,
        "has_played": true,
        "id": 20257192,
        "last_rank": 33695,
        "player_name": "Peetu Tuomisto",
        "rank": 38293,
        "rank_sort": 38317,
        "total": 2361
      },
      {
        "club_badge_src": null,
        "entry": 2894609,
        "entry_name": "Livin' Saliba Loca",
        "event_total": 60,
        "has_played": true,
        "id": 21206522,
        "last_rank": 42152,
        "player_name": "Jay Burge",
        "rank": 38293,
        "rank_sort": 38318,
        "total": 2361
      },
      {
        "club_badge_src": null,
        "entry": 3008072,
        "entry_name": "Bradford? Really?",
        "event_total": 49,
        "has_played": true,
        "id": 22128089,
        "last_rank": 29333,
        "player_name": "Tom Hodgson",
        "rank": 38293,
        "rank_sort": 38319,
        "total": 2361
      },
      {
        "club_badge_src": null,
        "entry": 3167371,
        "entry_name": "MUTillDie",
        "event_total": 41,
        "has_played": true,
        "id": 23400531,
        "last_rank": 22309,
        "player_name": "Getsemani Sastradiningrat",
        "rank": 38293,
        "rank_sort": 38320,
        "total": 2361
      },
      {
        "club_badge_src": "https://fantasy.premierleague.com/gcs/plfpl-production-adobe-approved/plfpl-production/3185187/7f3b29bb-1538-495d-8b77-4ef35742bee8.png",
        "entry": 3185187,
        "entry_name": "Echoes of Madrid",
        "event_total": 62,
        "has_played": true,
        "id": 23538168,
        "last_rank": 34682,
        "player_name": "Ryan Johnson",
        "rank": 38293,
        "rank_sort": 38321,
        "total": 2361
      },
      {
        "club_badge_src": null,
        "entry": 3436877,
        "entry_name": "FC Conque",
        "event_total": 74,
        "has_played": true,
        "id": 25532390,
        "last_rank": 50772,
        "player_name": "Guythano Dmattos",
        "rank": 38293,
        "rank_sort": 38322,
        "total": 2361
      },
      {
        "club_badge_src": null,
        "entry": 3513215,
        "entry_name": "Yahia Othman Ad$",
        "event_total": 55,
        "has_played": true,
        "id": 26141988,
        "last_rank": 35867,
        "player_name": "Yahia Othman",
        "rank": 38293,
        "rank_sort": 38323,
        "total": 2361
      },
      {
        "club_badge_src": null,
        "entry": 3539384,
        "entry_name": "Ctrl Alt DeLigt",
        "event_total": 61,
        "has_played": true,
        "id": 26345616,
        "last_rank": 33582,
        "player_name": "George Gillson",
        "rank": 38293,
        "rank_sort": 38324,
        "total": 2361
      },
      {
        "club_badge_src": null,
        "entry": 3765183,
        "entry_name": "Omar nasser",
        "event_total": 76,
        "has_played": true,
        "id": 28112840,
        "last_rank": 60933,
        "player_name": "omar tarek",
        "rank": 38293,
        "rank_sort": 38325,
        "total": 2361
      },
      {
        "club_badge_src": null,
        "entry": 3924391,
        "entry_name": "Carta",
        "event_total": 56,
        "has_played": true,
        "id": 29512371,
        "last_rank": 32491,
        "player_name": "Elmar Carta",
        "rank": 38293,
        "rank_sort": 38326,
        "total": 2361
      },
      {
        "club_badge_src": null,
        "entry": 3945968,
        "entry_name": "SqueakyBumTime",
        "event_total": 77,
        "has_played": true,
        "id": 29684275,
        "last_rank": 70183,
        "player_name": "Matt Bracken",
        "rank": 38293,
        "rank_sort": 38327,
        "total": 2361
      },
      {
        "club_badge_src": null,
        "entry": 4104343,
        "entry_name": "Bottom",
        "event_total": 65,
        "has_played": true,
        "id": 30994381,
        "last_rank": 49368,
        "player_name": "Mark Williams",
        "rank": 38293,
        "rank_sort": 38328,
        "total": 2361
      },
      {
        "club_badge_src": null,
        "entry": 4440188,
        "entry_name": "The Assassin",
        "event_total": 69,
        "has_played": true,
        "id": 33810433,
        "last_rank": 43342,
        "player_name": "ryan francis",
        "rank": 38293,
        "rank_sort": 38329,
        "total": 2361
      },
      {
        "club_badge_src": null,
        "entry": 4825008,
        "entry_name": "Ez123",
        "event_total": 50,
        "has_played": true,
        "id": 37159535,
        "last_rank": 26475,
        "player_name": "Arsh Verma",
        "rank": 38293,
        "rank_sort": 38330,
        "total": 2361
      },
      {
        "club_badge_src": null,
        "entry": 5613473,
        "entry_name": "Yeah",
        "event_total": 64,
        "has_played": true,
        "id": 43873603,
        "last_rank": 47868,
        "player_name": "David Nilsson",
        "rank": 38293,
        "rank_sort": 38331,
        "total": 2361
      },
      {
        "club_badge_src": null,
        "entry": 7676124,
        "entry_name": "Los Futboleros",
        "event_total": 32,
        "has_played": true,
        "id": 62956557,
        "last_rank": 15972,
        "player_name": "Andreas Fagerli",
        "rank": 38293,
        "rank_sort": 38332,
        "total": 2361
      },
      {
        "club_badge_src": null,
        "entry": 7691006,
        "entry_name": "fuches sake",
        "event_total": 55,
        "has_played": true,
        "id": 63090695,
        "last_rank": 27364,
        "player_name": "Simon smith",
        "rank": 38293,
        "rank_sort": 38333,
        "total": 2361
      },
      {
        "club_badge_src": null,
        "entry": 7813705,
        "entry_name": "RFC Renaisien",
        "event_total": 56,
        "has_played": true,
        "id": 64197202,
        "last_rank": 37134,
        "player_name": "Laurens D'Hondt",
        "rank": 38293,
        "rank_sort": 38334,
        "total": 2361
      },
      {
        "club_badge_src": null,
        "entry": 8447243,
        "entry_name": "Le tenant du titre\u2b50",
        "event_total": 62,
        "has_played": true,
        "id": 70128314,
        "last_rank": 44950,
        "player_name": "Dhavesh Theetiah",
        "rank": 38293,
        "rank_sort": 38335,
        "total": 2361
      },
      {
        "club_badge_src": null,
        "entry": 8670158,
        "entry_name": "Ballyknock rovers",
        "event_total": 78,
        "has_played": true,
        "id": 72288820,
        "last_rank": 71956,
        "player_name": "Shane lyng",
        "rank": 38293,
        "rank_sort": 38336,
        "total": 2361
      },
      {
        "club_badge_src": null,
        "entry": 9161011,
        "entry_name": "Ferraz",
        "event_total": 74,
        "has_played": true,
        "id": 77048123,
        "last_rank": 64508,
        "player_name": "M\u00e1rio Ferraz",
        "rank": 38293,
        "rank_sort": 38337,
        "total": 2361
      },
      {
        "club_badge_src": "https://fantasy.premierleague.com/gcs/plfpl-production-adobe-approved/plfpl-production/9174242/f22ef239-9dd2-4941-acd4-3c1ee8514726.png",
        "entry": 9174242,
        "entry_name": "Curry Cunha XI",
        "event_total": 59,
        "has_played": true,
        "id": 77179288,
        "last_rank": 35926,
        "player_name": "Suraj Divakala",
        "rank": 38293,
        "rank_sort": 38338,
        "total": 2361
      },
      {
        "club_badge_src": null,
        "entry": 7437,
        "entry_name": "Bells n Hankies",
        "event_total": 58,
        "has_played": true,
        "id": 42878,
        "last_rank": 34749,
        "player_name": "Helen Franks",
        "rank": 38339,
        "rank_sort": 38339,
        "total": 2361
      },
      {
        "club_badge_src": null,
        "entry": 25524,
        "entry_name": "Sting in the Tail",
        "event_total": 61,
        "has_played": true,
        "id": 161437,
        "last_rank": 43570,
        "player_name": "Tim Oakes",
        "rank": 38339,
        "rank_sort": 38340,
        "total": 2361
      },
      {
        "club_badge_src": null,
        "entry": 40140,
        "entry_name": "Amr Hussein",
        "event_total": 60,
        "has_played": true,
        "id": 257347,
        "last_rank": 37189,
        "player_name": "Amr Hussein",
        "rank": 38339,
        "rank_sort": 38341,
        "total": 2361
      },
      {
        "club_badge_src": null,
        "entry": 106087,
        "entry_name": "Massive Attack",
        "event_total": 46,
        "has_played": true,
        "id": 691795,
        "last_rank": 23071,
        "player_name": "Magnus Wadsack",
        "rank": 38339,
        "rank_sort": 38342,
        "total": 2361
      },
      {
        "club_badge_src": "https://fantasy.premierleague.com/gcs/plfpl-production-adobe-approved/plfpl-production/126805/b55558ad-363a-4753-8a11-3335cb9346ff.png",
        "entry": 126805,
        "entry_name": "Crimson Devils 2484",
        "event_total": 60,
        "has_played": true,
        "id": 826756,
        "last_rank": 42263,
        "player_name": "Freddy Hartzenberg",
        "rank": 38339,
        "rank_sort": 38343,
        "total": 2361
      },
      {
        "club_badge_src": "https://fantasy.premierleague.com/gcs/plfpl-production-adobe-approved/plfpl-production/144539/c430638e-19bc-4bc2-81ff-9e49f6f76c7c.png",
        "entry": 144539,
        "entry_name": "Matty's Maestros",
        "event_total": 60,
        "has_played": true,
        "id": 946174,
        "last_rank": 37134,
        "player_name": "Matthew Powell",
        "rank": 38339,
        "rank_sort": 38344,
        "total": 2361
      },
      {
        "club_badge_src": null,
        "entry": 305800,
        "entry_name": "Ahmed Eldeeb",
        "event_total": 57,
        "has_played": true,
        "id": 2047845,
        "last_rank": 22154,
        "player_name": "Ahmed El Deeb",
        "rank": 38339,
        "rank_sort": 38345,
        "total": 2361
      },
      {
        "club_badge_src": null,
        "entry": 316060,
        "entry_name": "ginges 11",
        "event_total": 65,
        "has_played": true,
        "id": 2118350,
        "last_rank": 43570,
        "player_name": "Paul Richards",
        "rank": 38339,
        "rank_sort": 38346,
        "total": 2361
      },
      {
        "club_badge_src": null,
        "entry": 373563,
        "entry_name": "YR U Guehi",
        "event_total": 64,
        "has_played": true,
        "id": 2499383,
        "last_rank": 42152,
        "player_name": "Ash Wilson",
        "rank": 38339,
        "rank_sort": 38347,
        "total": 2361
      },
      {
        "club_badge_src": "https://fantasy.premierleague.com/gcs/plfpl-production-adobe-approved/plfpl-production/427461/3a0029b0-87d1-4fe5-9097-39f513d3f7ff.png",
        "entry": 427461,
        "entry_name": "BTH@A12",
        "event_total": 56,
        "has_played": true,
        "id": 2866671,
        "last_rank": 37211,
        "player_name": "Kenneth Chan",
        "rank": 38339,
        "rank_sort": 38348,
        "total": 2361
      },
      {
        "club_badge_src": "https://fantasy.premierleague.com/gcs/plfpl-production-adobe-approved/plfpl-production/447995/750303ac-664e-42b0-aea6-67089227dbf3.png",
        "entry": 447995,
        "entry_name": "Team Ginge",
        "event_total": 59,
        "has_played": true,
        "id": 3005284,
        "last_rank": 40923,
        "player_name": "Mike Byron",
        "rank": 38339,
        "rank_sort": 38349,
        "total": 2361
      },
      {
        "club_badge_src": null,
        "entry": 593478,
        "entry_name": "Bains on Toast",
        "event_total": 59,
        "has_played": true,
        "id": 3999527,
        "last_rank": 40923,
        "player_name": "Leon Morgan",
        "rank": 38339,
        "rank_sort": 38350,
        "total": 2361
      }
    ]
  }
}