{
  "last_updated_data": "2026-05-24T23:28:17Z",
  "league": {
    "admin_entry": null,
    "closed": false,
    "code_privacy": "p",
    "created": "2025-07-20T23:14:33.933835Z",
    "cup_league": 2815434,
    "has_cup": true,
    "id": 314,
    "league_type": "s",
    "max_entries": null,
    "name": "Overall",
    "rank": null,
    "scoring": "c",
    "start_event": 1
  },
  "new_entries": {
    "has_next": false,
    "page": 1,
    "results": []
  },
  "standings": {
    "has_next": true,
    "page": 85,
    "results": [
      {
        "club_badge_src": null,
        "entry": 4983132,
        "entry_name": "Borussia Doorjamb",
        "event_total": 50,
        "has_played": true,
        "id": 38468503,
        "last_rank": 2784,
        "player_name": "Edward Simpson",
        "rank": 4198,
        "rank_sort": 4201,
        "total": 2419
      },
      {
        "club_badge_src": null,
        "entry": 5029593,
        "entry_name": "M G",
        "event_total": 67,
        "has_played": true,
        "id": 38846049,
        "last_rank": 6122,
        "player_name": "Zaher Ahmed",
        "rank": 4198,
        "rank_sort": 4202,
        "total": 2419
      },
      {
        "club_badge_src": null,
        "entry": 6061407,
        "entry_name": "Abramovich",
        "event_total": 83,
        "has_played": true,
        "id": 47838347,
        "last_rank": 12056,
        "player_name": "Alex Chernyshev",
        "rank": 4198,
        "rank_sort": 4203,
        "total": 2419
      },
      {
        "club_badge_src": null,
        "entry": 285662,
        "entry_name": "FPL Akabu",
        "event_total": 60,
        "has_played": true,
        "id": 1902740,
        "last_rank": 3670,
        "player_name": "Ivan Borovik",
        "rank": 4204,
        "rank_sort": 4204,
        "total": 2419
      },
      {
        "club_badge_src": null,
        "entry": 2654837,
        "entry_name": "Free Palestine \ufffd",
        "event_total": 65,
        "has_played": true,
        "id": 19083199,
        "last_rank": 4673,
        "player_name": "Mohamed Hassan",
        "rank": 4204,
        "rank_sort": 4205,
        "total": 2419
      },
      {
        "club_badge_src": null,
        "entry": 852340,
        "entry_name": "Tic .. Tac",
        "event_total": 63,
        "has_played": true,
        "id": 5842244,
        "last_rank": 3495,
        "player_name": "Ayman Ghazy",
        "rank": 4206,
        "rank_sort": 4206,
        "total": 2419
      },
      {
        "club_badge_src": "https://fantasy.premierleague.com/gcs/plfpl-production-adobe-approved/plfpl-production/3215021/8d0d4ce9-98e0-48a8-961d-da1934f27fb0.png",
        "entry": 3215021,
        "entry_name": "Le Diable",
        "event_total": 58,
        "has_played": true,
        "id": 23770499,
        "last_rank": 3366,
        "player_name": "Darryl The Red",
        "rank": 4206,
        "rank_sort": 4207,
        "total": 2419
      },
      {
        "club_badge_src": null,
        "entry": 38558,
        "entry_name": "Bumble Bee Jr. 1st",
        "event_total": 83,
        "has_played": true,
        "id": 247147,
        "last_rank": 12073,
        "player_name": "Adam Rayyan",
        "rank": 4208,
        "rank_sort": 4208,
        "total": 2419
      },
      {
        "club_badge_src": null,
        "entry": 12284,
        "entry_name": "Beef Cherki",
        "event_total": 53,
        "has_played": true,
        "id": 73344,
        "last_rank": 3218,
        "player_name": "Ryan Easterby",
        "rank": 4209,
        "rank_sort": 4209,
        "total": 2419
      },
      {
        "club_badge_src": null,
        "entry": 485822,
        "entry_name": "Only time will Tel",
        "event_total": 68,
        "has_played": true,
        "id": 3261263,
        "last_rank": 5370,
        "player_name": "Katie Scott",
        "rank": 4209,
        "rank_sort": 4210,
        "total": 2419
      },
      {
        "club_badge_src": null,
        "entry": 2078803,
        "entry_name": "A&A",
        "event_total": 61,
        "has_played": true,
        "id": 14739870,
        "last_rank": 3843,
        "player_name": "Jeyakumar Niranjan",
        "rank": 4209,
        "rank_sort": 4211,
        "total": 2419
      },
      {
        "club_badge_src": null,
        "entry": 294872,
        "entry_name": "Abo Azoz FC",
        "event_total": 42,
        "has_played": true,
        "id": 1969181,
        "last_rank": 1501,
        "player_name": "Naif Ahmed",
        "rank": 4212,
        "rank_sort": 4212,
        "total": 2419
      },
      {
        "club_badge_src": null,
        "entry": 1653836,
        "entry_name": "FC Hoch und Weit",
        "event_total": 73,
        "has_played": true,
        "id": 11578667,
        "last_rank": 6666,
        "player_name": "Daniel Fiechtl",
        "rank": 4213,
        "rank_sort": 4213,
        "total": 2419
      },
      {
        "club_badge_src": null,
        "entry": 3099310,
        "entry_name": "Bert's Belters",
        "event_total": 67,
        "has_played": true,
        "id": 22850290,
        "last_rank": 5124,
        "player_name": "Robert Lord",
        "rank": 4214,
        "rank_sort": 4214,
        "total": 2419
      },
      {
        "club_badge_src": "https://fantasy.premierleague.com/gcs/plfpl-production-adobe-approved/plfpl-production/3749202/f2a57e3f-b9f1-4f09-a6a4-b14bc6ded0d1.png",
        "entry": 3749202,
        "entry_name": "londonistan FC",
        "event_total": 57,
        "has_played": true,
        "id": 27990944,
        "last_rank": 3845,
        "player_name": "Mazhar Chowdhury",
        "rank": 4214,
        "rank_sort": 4215,
        "total": 2419
      },
      {
        "club_badge_src": "https://fantasy.premierleague.com/gcs/plfpl-production-adobe-approved/plfpl-production/910893/e013b5f3-1a09-4e06-9ea1-70d42cb934f0.png",
        "entry": 910893,
        "entry_name": "FC Boonsampan",
        "event_total": 50,
        "has_played": true,
        "id": 6263095,
        "last_rank": 2269,
        "player_name": "Robin Simons",
        "rank": 4216,
        "rank_sort": 4216,
        "total": 2419
      },
      {
        "club_badge_src": null,
        "entry": 5558149,
        "entry_name": "Ice cold",
        "event_total": 66,
        "has_played": true,
        "id": 43388732,
        "last_rank": 4908,
        "player_name": "Momoh Sesay",
        "rank": 4217,
        "rank_sort": 4217,
        "total": 2419
      },
      {
        "club_badge_src": null,
        "entry": 7932812,
        "entry_name": "Allie's XI",
        "event_total": 64,
        "has_played": true,
        "id": 65286349,
        "last_rank": 5376,
        "player_name": "Allie Di Lieto",
        "rank": 4218,
        "rank_sort": 4218,
        "total": 2418
      },
      {
        "club_badge_src": null,
        "entry": 9214494,
        "entry_name": "Peking",
        "event_total": 74,
        "has_played": true,
        "id": 77577692,
        "last_rank": 8308,
        "player_name": "Alva Gr\u00f6nkvist",
        "rank": 4219,
        "rank_sort": 4219,
        "total": 2418
      },
      {
        "club_badge_src": null,
        "entry": 9155809,
        "entry_name": "MSHU FC",
        "event_total": 57,
        "has_played": true,
        "id": 76997466,
        "last_rank": 3847,
        "player_name": "Munzir Razi",
        "rank": 4220,
        "rank_sort": 4220,
        "total": 2418
      },
      {
        "club_badge_src": null,
        "entry": 4456701,
        "entry_name": "Wirtz Case Scenario",
        "event_total": 70,
        "has_played": true,
        "id": 33950120,
        "last_rank": 6988,
        "player_name": "Joey Ross",
        "rank": 4221,
        "rank_sort": 4221,
        "total": 2418
      },
      {
        "club_badge_src": null,
        "entry": 7637944,
        "entry_name": "Santa's Reijnders",
        "event_total": 51,
        "has_played": true,
        "id": 62607461,
        "last_rank": 2939,
        "player_name": "Freyja Powell",
        "rank": 4221,
        "rank_sort": 4222,
        "total": 2418
      },
      {
        "club_badge_src": null,
        "entry": 4887552,
        "entry_name": "Parking the Bassey",
        "event_total": 49,
        "has_played": true,
        "id": 37682068,
        "last_rank": 2645,
        "player_name": "Olly Briggs",
        "rank": 4223,
        "rank_sort": 4223,
        "total": 2418
      },
      {
        "club_badge_src": null,
        "entry": 9185022,
        "entry_name": "No More Mr Rice Guy",
        "event_total": 61,
        "has_played": true,
        "id": 77286256,
        "last_rank": 4687,
        "player_name": "Esi Quartey",
        "rank": 4224,
        "rank_sort": 4224,
        "total": 2418
      },
      {
        "club_badge_src": null,
        "entry": 1139387,
        "entry_name": "Fe!n",
        "event_total": 76,
        "has_played": true,
        "id": 7898070,
        "last_rank": 9065,
        "player_name": "Isak Finn",
        "rank": 4225,
        "rank_sort": 4225,
        "total": 2418
      },
      {
        "club_badge_src": null,
        "entry": 1445466,
        "entry_name": "Isaksen's Kanoner",
        "event_total": 56,
        "has_played": true,
        "id": 10072360,
        "last_rank": 3699,
        "player_name": "Esben Isaksen",
        "rank": 4225,
        "rank_sort": 4226,
        "total": 2418
      },
      {
        "club_badge_src": null,
        "entry": 2483695,
        "entry_name": "Metz",
        "event_total": 73,
        "has_played": true,
        "id": 17772601,
        "last_rank": 7944,
        "player_name": "Benny Benny",
        "rank": 4225,
        "rank_sort": 4227,
        "total": 2418
      },
      {
        "club_badge_src": "https://fantasy.premierleague.com/gcs/plfpl-production-adobe-approved/plfpl-production/3046531/843531b7-a908-4eda-9728-ed74ed770050.png",
        "entry": 3046531,
        "entry_name": "ben",
        "event_total": 60,
        "has_played": true,
        "id": 22426641,
        "last_rank": 4465,
        "player_name": "Ben V",
        "rank": 4225,
        "rank_sort": 4228,
        "total": 2418
      },
      {
        "club_badge_src": null,
        "entry": 6995110,
        "entry_name": "Mancmarvel 25-26",
        "event_total": 58,
        "has_played": true,
        "id": 56157191,
        "last_rank": 4062,
        "player_name": "Simon Brennan",
        "rank": 4225,
        "rank_sort": 4229,
        "total": 2418
      },
      {
        "club_badge_src": null,
        "entry": 7016802,
        "entry_name": "Bennynoodles",
        "event_total": 59,
        "has_played": true,
        "id": 56357919,
        "last_rank": 4257,
        "player_name": "Nicholas Cotter",
        "rank": 4225,
        "rank_sort": 4230,
        "total": 2418
      },
      {
        "club_badge_src": null,
        "entry": 28111,
        "entry_name": "Ali Himself!!",
        "event_total": 70,
        "has_played": true,
        "id": 177782,
        "last_rank": 7000,
        "player_name": "Ali Abdulmughni",
        "rank": 4231,
        "rank_sort": 4231,
        "total": 2418
      },
      {
        "club_badge_src": null,
        "entry": 85306,
        "entry_name": "Mickey Mcfinnigan v3",
        "event_total": 63,
        "has_played": true,
        "id": 555506,
        "last_rank": 5135,
        "player_name": "Jack Donnelly",
        "rank": 4231,
        "rank_sort": 4232,
        "total": 2418
      },
      {
        "club_badge_src": null,
        "entry": 356343,
        "entry_name": "Theway 2play Murillo",
        "event_total": 57,
        "has_played": true,
        "id": 2384611,
        "last_rank": 3853,
        "player_name": "Richard Hoiles",
        "rank": 4231,
        "rank_sort": 4233,
        "total": 2418
      },
      {
        "club_badge_src": null,
        "entry": 398693,
        "entry_name": "Soccer FC",
        "event_total": 51,
        "has_played": true,
        "id": 2673633,
        "last_rank": 2977,
        "player_name": "Josh Seltenright",
        "rank": 4231,
        "rank_sort": 4234,
        "total": 2418
      },
      {
        "club_badge_src": null,
        "entry": 4530770,
        "entry_name": "hmz",
        "event_total": 54,
        "has_played": true,
        "id": 34559371,
        "last_rank": 3391,
        "player_name": "Hamza Safir",
        "rank": 4231,
        "rank_sort": 4235,
        "total": 2418
      },
      {
        "club_badge_src": null,
        "entry": 4714592,
        "entry_name": "ABCDE FC",
        "event_total": 52,
        "has_played": true,
        "id": 36190322,
        "last_rank": 3103,
        "player_name": "Sean Callaghan",
        "rank": 4231,
        "rank_sort": 4236,
        "total": 2418
      },
      {
        "club_badge_src": null,
        "entry": 4960372,
        "entry_name": "Milhouse FC",
        "event_total": 94,
        "has_played": true,
        "id": 38278131,
        "last_rank": 18691,
        "player_name": "Pascal Millh\u00e4usler",
        "rank": 4231,
        "rank_sort": 4237,
        "total": 2418
      },
      {
        "club_badge_src": null,
        "entry": 5066445,
        "entry_name": "\u00f6sters if",
        "event_total": 70,
        "has_played": true,
        "id": 39152007,
        "last_rank": 6994,
        "player_name": "Ludvig Dahlin",
        "rank": 4231,
        "rank_sort": 4238,
        "total": 2418
      },
      {
        "club_badge_src": "https://fantasy.premierleague.com/gcs/plfpl-production-adobe-approved/plfpl-production/5909515/310dcb26-bcc3-464f-adb5-77667bfc18ca.png",
        "entry": 5909515,
        "entry_name": "blessed_united",
        "event_total": 72,
        "has_played": true,
        "id": 46437511,
        "last_rank": 7676,
        "player_name": "nungshi jamir",
        "rank": 4231,
        "rank_sort": 4239,
        "total": 2418
      },
      {
        "club_badge_src": null,
        "entry": 6432210,
        "entry_name": "xVibes",
        "event_total": 42,
        "has_played": true,
        "id": 51204426,
        "last_rank": 1856,
        "player_name": "Scott Johnson",
        "rank": 4231,
        "rank_sort": 4240,
        "total": 2418
      },
      {
        "club_badge_src": "https://fantasy.premierleague.com/gcs/plfpl-production-adobe-approved/plfpl-production/6937972/dbaec267-8886-4393-ba60-65ed63940933.png",
        "entry": 6937972,
        "entry_name": "Shekzilla",
        "event_total": 53,
        "has_played": true,
        "id": 55623461,
        "last_rank": 2651,
        "player_name": "Abhishek Joseph",
        "rank": 4231,
        "rank_sort": 4241,
        "total": 2418
      },
      {
        "club_badge_src": null,
        "entry": 8004182,
        "entry_name": "lil uzi wirtz",
        "event_total": 71,
        "has_played": true,
        "id": 65921723,
        "last_rank": 7333,
        "player_name": "Jdohveer Ranu",
        "rank": 4231,
        "rank_sort": 4242,
        "total": 2418
      },
      {
        "club_badge_src": "https://fantasy.premierleague.com/gcs/plfpl-production-adobe-approved/plfpl-production/1616/af5a13e8-e317-4922-ac33-26963e8aaabe.png",
        "entry": 1616,
        "entry_name": "The Prodigious Ones",
        "event_total": 53,
        "has_played": true,
        "id": 8995,
        "last_rank": 3257,
        "player_name": "Pro -",
        "rank": 4243,
        "rank_sort": 4243,
        "total": 2418
      },
      {
        "club_badge_src": null,
        "entry": 1686,
        "entry_name": "PPM",
        "event_total": 54,
        "has_played": true,
        "id": 9385,
        "last_rank": 3391,
        "player_name": "Pranav Mandlik",
        "rank": 4243,
        "rank_sort": 4244,
        "total": 2418
      },
      {
        "club_badge_src": null,
        "entry": 1784,
        "entry_name": "Goalden Wonderers",
        "event_total": 71,
        "has_played": true,
        "id": 9934,
        "last_rank": 7310,
        "player_name": "Stephen Smith",
        "rank": 4243,
        "rank_sort": 4245,
        "total": 2418
      },
      {
        "club_badge_src": "https://fantasy.premierleague.com/gcs/plfpl-production-adobe-approved/plfpl-production/6236/0598efea-8910-4126-a82b-986f931e2cc1.png",
        "entry": 6236,
        "entry_name": "Red Star",
        "event_total": 57,
        "has_played": true,
        "id": 35736,
        "last_rank": 3866,
        "player_name": "Jody Pegler",
        "rank": 4243,
        "rank_sort": 4246,
        "total": 2418
      },
      {
        "club_badge_src": null,
        "entry": 22745,
        "entry_name": "Reggie Ding",
        "event_total": 63,
        "has_played": true,
        "id": 142950,
        "last_rank": 5173,
        "player_name": "Reggie Ding",
        "rank": 4243,
        "rank_sort": 4247,
        "total": 2418
      },
      {
        "club_badge_src": null,
        "entry": 29374,
        "entry_name": "Real Breakfast",
        "event_total": 68,
        "has_played": true,
        "id": 185721,
        "last_rank": 6409,
        "player_name": "Dino -",
        "rank": 4243,
        "rank_sort": 4248,
        "total": 2418
      },
      {
        "club_badge_src": null,
        "entry": 49747,
        "entry_name": "hello",
        "event_total": 59,
        "has_played": true,
        "id": 319803,
        "last_rank": 4257,
        "player_name": "Rob Wood",
        "rank": 4243,
        "rank_sort": 4249,
        "total": 2418
      },
      {
        "club_badge_src": null,
        "entry": 54857,
        "entry_name": "NottingReform Forest",
        "event_total": 67,
        "has_played": true,
        "id": 353050,
        "last_rank": 6166,
        "player_name": "Jack Smith",
        "rank": 4243,
        "rank_sort": 4250,
        "total": 2418
      }
    ]
  }
}