{
  "last_updated_data": "2026-05-24T23:28:17Z",
  "league": {
    "admin_entry": null,
    "closed": false,
    "code_privacy": "p",
    "created": "2025-07-20T23:14:33.933835Z",
    "cup_league": 2815434,
    "has_cup": true,
    "id": 314,
    "league_type": "s",
    "max_entries": null,
    "name": "Overall",
    "rank": null,
    "scoring": "c",
    "start_event": 1
  },
  "new_entries": {
    "has_next": false,
    "page": 1,
    "results": []
  },
  "standings": {
    "has_next": true,
    "page": 883,
    "results": [
      {
        "club_badge_src": null,
        "entry": 2362761,
        "entry_name": "Wazzaa10",
        "event_total": 37,
        "has_played": true,
        "id": 16862819,
        "last_rank": 22830,
        "player_name": "Arpit Mishra",
        "rank": 43984,
        "rank_sort": 44101,
        "total": 2356
      },
      {
        "club_badge_src": "https://fantasy.premierleague.com/gcs/plfpl-production-adobe-approved/plfpl-production/2363516/eba933e1-3b20-4d33-821d-6a4c51a2cc68.png",
        "entry": 2363516,
        "entry_name": "Just A Random Team",
        "event_total": 63,
        "has_played": true,
        "id": 16869679,
        "last_rank": 53345,
        "player_name": "Manh Nguyen Duc",
        "rank": 43984,
        "rank_sort": 44102,
        "total": 2356
      },
      {
        "club_badge_src": null,
        "entry": 2395765,
        "entry_name": "Growl N Grunt",
        "event_total": 46,
        "has_played": true,
        "id": 17114981,
        "last_rank": 30957,
        "player_name": "Jonathan Shilvock",
        "rank": 43984,
        "rank_sort": 44103,
        "total": 2356
      },
      {
        "club_badge_src": null,
        "entry": 2399487,
        "entry_name": "de legt imate winner",
        "event_total": 67,
        "has_played": true,
        "id": 17149271,
        "last_rank": 60168,
        "player_name": "Paul Blackstone",
        "rank": 43984,
        "rank_sort": 44104,
        "total": 2356
      },
      {
        "club_badge_src": null,
        "entry": 2469967,
        "entry_name": "Play on Wirtz",
        "event_total": 53,
        "has_played": true,
        "id": 17669613,
        "last_rank": 39023,
        "player_name": "Jeremy Niland",
        "rank": 43984,
        "rank_sort": 44105,
        "total": 2356
      },
      {
        "club_badge_src": null,
        "entry": 2491930,
        "entry_name": "Taking The Mikel",
        "event_total": 68,
        "has_played": true,
        "id": 17839860,
        "last_rank": 61606,
        "player_name": "George Ward",
        "rank": 43984,
        "rank_sort": 44106,
        "total": 2356
      },
      {
        "club_badge_src": null,
        "entry": 2509254,
        "entry_name": "Pinball Wirtzard",
        "event_total": 57,
        "has_played": true,
        "id": 17970884,
        "last_rank": 44525,
        "player_name": "Bj\u00f8rn Bakke",
        "rank": 43984,
        "rank_sort": 44107,
        "total": 2356
      },
      {
        "club_badge_src": null,
        "entry": 2514753,
        "entry_name": "Touch Me",
        "event_total": 67,
        "has_played": true,
        "id": 18016485,
        "last_rank": 60168,
        "player_name": "Brad Morrell",
        "rank": 43984,
        "rank_sort": 44108,
        "total": 2356
      },
      {
        "club_badge_src": "https://fantasy.premierleague.com/gcs/plfpl-production-adobe-approved/plfpl-production/2593229/42063433-0f93-4d41-a281-dc8b7611b50a.png",
        "entry": 2593229,
        "entry_name": "The Bloodline FC",
        "event_total": 63,
        "has_played": true,
        "id": 18619460,
        "last_rank": 46839,
        "player_name": "Russell De Souza",
        "rank": 43984,
        "rank_sort": 44109,
        "total": 2356
      },
      {
        "club_badge_src": null,
        "entry": 2603349,
        "entry_name": "Gyok Lesnar",
        "event_total": 59,
        "has_played": true,
        "id": 18699415,
        "last_rank": 46839,
        "player_name": "Talal Baghoth",
        "rank": 43984,
        "rank_sort": 44110,
        "total": 2356
      },
      {
        "club_badge_src": null,
        "entry": 2628507,
        "entry_name": "barmen boys",
        "event_total": 69,
        "has_played": true,
        "id": 18888566,
        "last_rank": 63201,
        "player_name": "Ivar \u00d8ksendal",
        "rank": 43984,
        "rank_sort": 44111,
        "total": 2356
      },
      {
        "club_badge_src": null,
        "entry": 2773259,
        "entry_name": "YellowCow",
        "event_total": 63,
        "has_played": true,
        "id": 20235774,
        "last_rank": 52853,
        "player_name": "Peter Petrov",
        "rank": 43984,
        "rank_sort": 44112,
        "total": 2356
      },
      {
        "club_badge_src": null,
        "entry": 2786048,
        "entry_name": "Sarge's Squad",
        "event_total": 68,
        "has_played": true,
        "id": 20339442,
        "last_rank": 61950,
        "player_name": "Tom Sargent",
        "rank": 43984,
        "rank_sort": 44113,
        "total": 2356
      },
      {
        "club_badge_src": null,
        "entry": 2788176,
        "entry_name": "129 West 81st Street",
        "event_total": 69,
        "has_played": true,
        "id": 20355383,
        "last_rank": 56369,
        "player_name": "Craig Shutt",
        "rank": 43984,
        "rank_sort": 44114,
        "total": 2356
      },
      {
        "club_badge_src": null,
        "entry": 2796291,
        "entry_name": "Bukayo 14 \u2692\ufe0f",
        "event_total": 50,
        "has_played": true,
        "id": 20417870,
        "last_rank": 35619,
        "player_name": "mostapha magdy",
        "rank": 43984,
        "rank_sort": 44115,
        "total": 2356
      },
      {
        "club_badge_src": "https://fantasy.premierleague.com/gcs/plfpl-production-adobe-approved/plfpl-production/2947788/dabb3d5d-62dd-4f63-811a-7a3b0c37faec.png",
        "entry": 2947788,
        "entry_name": "Sewmo",
        "event_total": 55,
        "has_played": true,
        "id": 21648742,
        "last_rank": 41617,
        "player_name": "Ryan Procter",
        "rank": 43984,
        "rank_sort": 44116,
        "total": 2356
      },
      {
        "club_badge_src": null,
        "entry": 2957444,
        "entry_name": "Gas Works FC",
        "event_total": 60,
        "has_played": true,
        "id": 21722688,
        "last_rank": 48642,
        "player_name": "Nick Jones",
        "rank": 43984,
        "rank_sort": 44117,
        "total": 2356
      },
      {
        "club_badge_src": null,
        "entry": 3029775,
        "entry_name": "QUQE",
        "event_total": 52,
        "has_played": true,
        "id": 22294085,
        "last_rank": 37822,
        "player_name": "oupa Sithole",
        "rank": 43984,
        "rank_sort": 44118,
        "total": 2356
      },
      {
        "club_badge_src": "https://fantasy.premierleague.com/gcs/plfpl-production-adobe-approved/plfpl-production/3180201/ef7b22f2-02a2-4464-a27f-f3b64e030358.png",
        "entry": 3180201,
        "entry_name": "___A___",
        "event_total": 58,
        "has_played": true,
        "id": 23499849,
        "last_rank": 45714,
        "player_name": "Andreas Ruud Sj\u00f8lie",
        "rank": 43984,
        "rank_sort": 44119,
        "total": 2356
      },
      {
        "club_badge_src": "https://fantasy.premierleague.com/gcs/plfpl-production-adobe-approved/plfpl-production/3213134/f59271be-3f85-40a8-b369-7f4aee9355b7.png",
        "entry": 3213134,
        "entry_name": "Carlo's Devils",
        "event_total": 48,
        "has_played": true,
        "id": 23755921,
        "last_rank": 33147,
        "player_name": "Carlo Mahadew",
        "rank": 43984,
        "rank_sort": 44120,
        "total": 2356
      },
      {
        "club_badge_src": null,
        "entry": 3236802,
        "entry_name": "Lord Omar FC",
        "event_total": 61,
        "has_played": true,
        "id": 23940541,
        "last_rank": 49691,
        "player_name": "Omar Elsherif",
        "rank": 43984,
        "rank_sort": 44121,
        "total": 2356
      },
      {
        "club_badge_src": null,
        "entry": 3336103,
        "entry_name": "Zihuatanejo Utd",
        "event_total": 65,
        "has_played": true,
        "id": 24740974,
        "last_rank": 56708,
        "player_name": "John Griffiths",
        "rank": 43984,
        "rank_sort": 44122,
        "total": 2356
      },
      {
        "club_badge_src": null,
        "entry": 3358880,
        "entry_name": "The Invincibles",
        "event_total": 64,
        "has_played": true,
        "id": 24921374,
        "last_rank": 54667,
        "player_name": "FPL-ke Merchant",
        "rank": 43984,
        "rank_sort": 44123,
        "total": 2356
      },
      {
        "club_badge_src": null,
        "entry": 3375280,
        "entry_name": "FC'.Sultan",
        "event_total": 78,
        "has_played": true,
        "id": 25052084,
        "last_rank": 73038,
        "player_name": "Mohammed Ibrahim",
        "rank": 43984,
        "rank_sort": 44124,
        "total": 2356
      },
      {
        "club_badge_src": "https://fantasy.premierleague.com/gcs/plfpl-production-adobe-approved/plfpl-production/3462314/72632d75-51af-44e8-912c-ef0948611f3a.png",
        "entry": 3462314,
        "entry_name": "The Hashira",
        "event_total": 71,
        "has_played": true,
        "id": 25736522,
        "last_rank": 67063,
        "player_name": "Brian Ngoru",
        "rank": 43984,
        "rank_sort": 44125,
        "total": 2356
      },
      {
        "club_badge_src": null,
        "entry": 3611819,
        "entry_name": "Lab",
        "event_total": 58,
        "has_played": true,
        "id": 26906269,
        "last_rank": 45714,
        "player_name": "Arne Nesv\u00e5g",
        "rank": 43984,
        "rank_sort": 44126,
        "total": 2356
      },
      {
        "club_badge_src": null,
        "entry": 3624544,
        "entry_name": "YNWA",
        "event_total": 57,
        "has_played": true,
        "id": 27006514,
        "last_rank": 44048,
        "player_name": "Ognjen Veselinovic",
        "rank": 43984,
        "rank_sort": 44127,
        "total": 2356
      },
      {
        "club_badge_src": null,
        "entry": 3781921,
        "entry_name": "Hoffan FC",
        "event_total": 58,
        "has_played": true,
        "id": 28240720,
        "last_rank": 45714,
        "player_name": "Viktor Gyllander",
        "rank": 43984,
        "rank_sort": 44128,
        "total": 2356
      },
      {
        "club_badge_src": null,
        "entry": 3841406,
        "entry_name": "RubinMeTheRightWay",
        "event_total": 56,
        "has_played": true,
        "id": 28773787,
        "last_rank": 42940,
        "player_name": "Lewis Rocke",
        "rank": 43984,
        "rank_sort": 44129,
        "total": 2356
      },
      {
        "club_badge_src": null,
        "entry": 3863099,
        "entry_name": "Sunderland",
        "event_total": 63,
        "has_played": true,
        "id": 28965612,
        "last_rank": 53345,
        "player_name": "Pablo Ferrara",
        "rank": 43984,
        "rank_sort": 44130,
        "total": 2356
      },
      {
        "club_badge_src": null,
        "entry": 3878550,
        "entry_name": "Washington Redskins",
        "event_total": 52,
        "has_played": true,
        "id": 29141516,
        "last_rank": 37822,
        "player_name": "Vegard M\u00f8ller",
        "rank": 43984,
        "rank_sort": 44131,
        "total": 2356
      },
      {
        "club_badge_src": null,
        "entry": 3944481,
        "entry_name": "Cheeky Chirpers",
        "event_total": 69,
        "has_played": true,
        "id": 29672804,
        "last_rank": 63390,
        "player_name": "Scott Hardy",
        "rank": 43984,
        "rank_sort": 44132,
        "total": 2356
      },
      {
        "club_badge_src": null,
        "entry": 4064935,
        "entry_name": "Change Name",
        "event_total": 61,
        "has_played": true,
        "id": 30677586,
        "last_rank": 43849,
        "player_name": "Christo Stemmet",
        "rank": 43984,
        "rank_sort": 44133,
        "total": 2356
      },
      {
        "club_badge_src": "https://fantasy.premierleague.com/gcs/plfpl-production-adobe-approved/plfpl-production/4068320/2c955592-c7b8-4aa1-8758-ab4c1daeaffc.png",
        "entry": 4068320,
        "entry_name": "Forest Park Favs",
        "event_total": 49,
        "has_played": true,
        "id": 30705073,
        "last_rank": 34293,
        "player_name": "Paul Groom",
        "rank": 43984,
        "rank_sort": 44134,
        "total": 2356
      },
      {
        "club_badge_src": null,
        "entry": 4124132,
        "entry_name": "Feviks supergutter",
        "event_total": 32,
        "has_played": true,
        "id": 31159141,
        "last_rank": 18985,
        "player_name": "Anders Fevik",
        "rank": 43984,
        "rank_sort": 44135,
        "total": 2356
      },
      {
        "club_badge_src": null,
        "entry": 4150557,
        "entry_name": "Archie Grayhams",
        "event_total": 44,
        "has_played": true,
        "id": 31371398,
        "last_rank": 28906,
        "player_name": "Rupert Graham",
        "rank": 43984,
        "rank_sort": 44136,
        "total": 2356
      },
      {
        "club_badge_src": null,
        "entry": 4179462,
        "entry_name": "kboo",
        "event_total": 56,
        "has_played": true,
        "id": 31616645,
        "last_rank": 43168,
        "player_name": "khaled kbary",
        "rank": 43984,
        "rank_sort": 44137,
        "total": 2356
      },
      {
        "club_badge_src": null,
        "entry": 4182990,
        "entry_name": "WHAT PRESSURE?",
        "event_total": 75,
        "has_played": true,
        "id": 31647762,
        "last_rank": 75874,
        "player_name": "Thomas Skidmore",
        "rank": 43984,
        "rank_sort": 44138,
        "total": 2356
      },
      {
        "club_badge_src": "https://fantasy.premierleague.com/gcs/plfpl-production-adobe-approved/plfpl-production/4185515/3b1358b0-a5fc-4497-845c-e0cd3cefd962.png",
        "entry": 4185515,
        "entry_name": "IamAmmy",
        "event_total": 62,
        "has_played": true,
        "id": 31668765,
        "last_rank": 45416,
        "player_name": "Amit Deb",
        "rank": 43984,
        "rank_sort": 44139,
        "total": 2356
      },
      {
        "club_badge_src": null,
        "entry": 4246010,
        "entry_name": "Cunha Believe It",
        "event_total": 64,
        "has_played": true,
        "id": 32183463,
        "last_rank": 54667,
        "player_name": "Anna Bowman",
        "rank": 43984,
        "rank_sort": 44140,
        "total": 2356
      },
      {
        "club_badge_src": null,
        "entry": 4263626,
        "entry_name": "SteenkampXI",
        "event_total": 49,
        "has_played": true,
        "id": 32328135,
        "last_rank": 34293,
        "player_name": "Chris van Dyk",
        "rank": 43984,
        "rank_sort": 44141,
        "total": 2356
      },
      {
        "club_badge_src": null,
        "entry": 4268951,
        "entry_name": "Delap It All Up",
        "event_total": 73,
        "has_played": true,
        "id": 32371248,
        "last_rank": 70985,
        "player_name": "Charlie Moore",
        "rank": 43984,
        "rank_sort": 44142,
        "total": 2356
      },
      {
        "club_badge_src": null,
        "entry": 4322625,
        "entry_name": "Let's go Sesko",
        "event_total": 64,
        "has_played": true,
        "id": 32805945,
        "last_rank": 55014,
        "player_name": "Martin Coleman",
        "rank": 43984,
        "rank_sort": 44143,
        "total": 2356
      },
      {
        "club_badge_src": null,
        "entry": 4371523,
        "entry_name": "\u00c5kerbyberg United",
        "event_total": 68,
        "has_played": true,
        "id": 33211728,
        "last_rank": 61606,
        "player_name": "Petter Swensson",
        "rank": 43984,
        "rank_sort": 44144,
        "total": 2356
      },
      {
        "club_badge_src": null,
        "entry": 4380257,
        "entry_name": "Reece James FC",
        "event_total": 59,
        "has_played": true,
        "id": 33286746,
        "last_rank": 46839,
        "player_name": "Dan Rodenby",
        "rank": 43984,
        "rank_sort": 44145,
        "total": 2356
      },
      {
        "club_badge_src": null,
        "entry": 4382649,
        "entry_name": "Amorin or am I out?",
        "event_total": 45,
        "has_played": true,
        "id": 33310134,
        "last_rank": 29904,
        "player_name": "Arnie Nathan",
        "rank": 43984,
        "rank_sort": 44146,
        "total": 2356
      },
      {
        "club_badge_src": null,
        "entry": 4469972,
        "entry_name": "JB FC",
        "event_total": 64,
        "has_played": true,
        "id": 34061800,
        "last_rank": 54667,
        "player_name": "James Beer",
        "rank": 43984,
        "rank_sort": 44147,
        "total": 2356
      },
      {
        "club_badge_src": null,
        "entry": 4531090,
        "entry_name": "Byong Son",
        "event_total": 65,
        "has_played": true,
        "id": 34561966,
        "last_rank": 56099,
        "player_name": "Alex Barker",
        "rank": 43984,
        "rank_sort": 44148,
        "total": 2356
      },
      {
        "club_badge_src": null,
        "entry": 4540915,
        "entry_name": "Blue Chip",
        "event_total": 67,
        "has_played": true,
        "id": 34642750,
        "last_rank": 60168,
        "player_name": "Like Mike",
        "rank": 43984,
        "rank_sort": 44149,
        "total": 2356
      },
      {
        "club_badge_src": null,
        "entry": 4554325,
        "entry_name": "Prem XI",
        "event_total": 70,
        "has_played": true,
        "id": 34750756,
        "last_rank": 65475,
        "player_name": "Lee Wilkinson",
        "rank": 43984,
        "rank_sort": 44150,
        "total": 2356
      }
    ]
  }
}