{
  "last_updated_data": "2026-05-24T23:28:17Z",
  "league": {
    "admin_entry": null,
    "closed": false,
    "code_privacy": "p",
    "created": "2025-07-20T23:14:33.933835Z",
    "cup_league": 2815434,
    "has_cup": true,
    "id": 314,
    "league_type": "s",
    "max_entries": null,
    "name": "Overall",
    "rank": null,
    "scoring": "c",
    "start_event": 1
  },
  "new_entries": {
    "has_next": false,
    "page": 1,
    "results": []
  },
  "standings": {
    "has_next": true,
    "page": 1529,
    "results": [
      {
        "club_badge_src": null,
        "entry": 127596,
        "entry_name": "Tesco McNeil Deal",
        "event_total": 69,
        "has_played": true,
        "id": 831783,
        "last_rank": 107162,
        "player_name": "Ryan Mitchell",
        "rank": 76375,
        "rank_sort": 76401,
        "total": 2337
      },
      {
        "club_badge_src": null,
        "entry": 129937,
        "entry_name": "Can\u2019t Tel Me Nothing",
        "event_total": 57,
        "has_played": true,
        "id": 846734,
        "last_rank": 77999,
        "player_name": "Vasilii The Creator",
        "rank": 76375,
        "rank_sort": 76402,
        "total": 2337
      },
      {
        "club_badge_src": "https://fantasy.premierleague.com/gcs/plfpl-production-adobe-approved/plfpl-production/129966/cd8fc772-4a51-412b-844b-ca800671dc1e.png",
        "entry": 129966,
        "entry_name": "Surreal Madrid",
        "event_total": 34,
        "has_played": true,
        "id": 846933,
        "last_rank": 39246,
        "player_name": "Mark Jones",
        "rank": 76375,
        "rank_sort": 76403,
        "total": 2337
      },
      {
        "club_badge_src": null,
        "entry": 139864,
        "entry_name": "Williams Wizards",
        "event_total": 53,
        "has_played": true,
        "id": 913078,
        "last_rank": 69907,
        "player_name": "Adam Williams",
        "rank": 76375,
        "rank_sort": 76404,
        "total": 2337
      },
      {
        "club_badge_src": null,
        "entry": 144426,
        "entry_name": "Biggen United",
        "event_total": 66,
        "has_played": true,
        "id": 945375,
        "last_rank": 89055,
        "player_name": "Erik Bigsten",
        "rank": 76375,
        "rank_sort": 76405,
        "total": 2337
      },
      {
        "club_badge_src": "https://fantasy.premierleague.com/gcs/plfpl-production-adobe-approved/plfpl-production/144436/3f2883af-350c-40d8-aac8-b5527f8669ba.png",
        "entry": 144436,
        "entry_name": "Todibroski",
        "event_total": 49,
        "has_played": true,
        "id": 945450,
        "last_rank": 55014,
        "player_name": "Arthur Kerr-Martin",
        "rank": 76375,
        "rank_sort": 76406,
        "total": 2337
      },
      {
        "club_badge_src": null,
        "entry": 145402,
        "entry_name": "Juraseks On Legs",
        "event_total": 54,
        "has_played": true,
        "id": 952235,
        "last_rank": 71713,
        "player_name": "Ben Holloway",
        "rank": 76375,
        "rank_sort": 76407,
        "total": 2337
      },
      {
        "club_badge_src": null,
        "entry": 151115,
        "entry_name": "zolotnyky",
        "event_total": 67,
        "has_played": true,
        "id": 991291,
        "last_rank": 101419,
        "player_name": "ihor lemishka",
        "rank": 76375,
        "rank_sort": 76408,
        "total": 2337
      },
      {
        "club_badge_src": "https://fantasy.premierleague.com/gcs/plfpl-production-adobe-approved/plfpl-production/153510/caaecf18-1805-4adf-aa69-8894cd13ec2b.png",
        "entry": 153510,
        "entry_name": "FedeValverde",
        "event_total": 52,
        "has_played": true,
        "id": 1008107,
        "last_rank": 67422,
        "player_name": "lavi shaul",
        "rank": 76375,
        "rank_sort": 76409,
        "total": 2337
      },
      {
        "club_badge_src": null,
        "entry": 154204,
        "entry_name": "Ten Men and a Donkey",
        "event_total": 68,
        "has_played": true,
        "id": 1012913,
        "last_rank": 104388,
        "player_name": "Alex Barker",
        "rank": 76375,
        "rank_sort": 76410,
        "total": 2337
      },
      {
        "club_badge_src": null,
        "entry": 161161,
        "entry_name": "Si Se\u00f1or",
        "event_total": 60,
        "has_played": true,
        "id": 1061599,
        "last_rank": 83934,
        "player_name": "Theodor Christoffersen",
        "rank": 76375,
        "rank_sort": 76411,
        "total": 2337
      },
      {
        "club_badge_src": "https://fantasy.premierleague.com/gcs/plfpl-production-adobe-approved/plfpl-production/171652/17f131fd-318a-41cd-b9aa-1dbf31284ed0.png",
        "entry": 171652,
        "entry_name": "Apoca's Tricky Reds",
        "event_total": 72,
        "has_played": true,
        "id": 1133887,
        "last_rank": 103978,
        "player_name": "Aaron Emberson",
        "rank": 76375,
        "rank_sort": 76412,
        "total": 2337
      },
      {
        "club_badge_src": "https://fantasy.premierleague.com/gcs/plfpl-production-adobe-approved/plfpl-production/174653/4c1bd338-4cc4-4db1-b2a3-9770bfebb39b.png",
        "entry": 174653,
        "entry_name": "Victor Moses Lawn FC",
        "event_total": 60,
        "has_played": true,
        "id": 1153248,
        "last_rank": 75537,
        "player_name": "Maximillian Ringer",
        "rank": 76375,
        "rank_sort": 76413,
        "total": 2337
      },
      {
        "club_badge_src": "https://fantasy.premierleague.com/gcs/plfpl-production-adobe-approved/plfpl-production/180065/29a1ed6a-edf1-4ca5-9368-1e6c67606511.png",
        "entry": 180065,
        "entry_name": "BrianCunhaScorePlz",
        "event_total": 64,
        "has_played": true,
        "id": 1188296,
        "last_rank": 84360,
        "player_name": "Adam Roberts",
        "rank": 76375,
        "rank_sort": 76414,
        "total": 2337
      },
      {
        "club_badge_src": null,
        "entry": 183078,
        "entry_name": "Rutter Woke Nonsense",
        "event_total": 64,
        "has_played": true,
        "id": 1208266,
        "last_rank": 84360,
        "player_name": "zan ursic",
        "rank": 76375,
        "rank_sort": 76415,
        "total": 2337
      },
      {
        "club_badge_src": "https://fantasy.premierleague.com/gcs/plfpl-production-adobe-approved/plfpl-production/194618/dfd1f56e-5fdb-4124-a2ed-4b6a20281df6.png",
        "entry": 194618,
        "entry_name": "Lorem ipsum",
        "event_total": 57,
        "has_played": true,
        "id": 1290346,
        "last_rank": 69323,
        "player_name": "Nat Nathanon",
        "rank": 76375,
        "rank_sort": 76416,
        "total": 2337
      },
      {
        "club_badge_src": null,
        "entry": 196238,
        "entry_name": "3 BACK can't ATTACK",
        "event_total": 61,
        "has_played": true,
        "id": 1301633,
        "last_rank": 77676,
        "player_name": "hung bok lee",
        "rank": 76375,
        "rank_sort": 76417,
        "total": 2337
      },
      {
        "club_badge_src": "https://fantasy.premierleague.com/gcs/plfpl-production-adobe-approved/plfpl-production/197942/274a0334-0f9f-4aae-b999-01eda76a5463.png",
        "entry": 197942,
        "entry_name": "Golnes IL",
        "event_total": 60,
        "has_played": true,
        "id": 1313515,
        "last_rank": 84360,
        "player_name": "Dennis Ongamo",
        "rank": 76375,
        "rank_sort": 76418,
        "total": 2337
      },
      {
        "club_badge_src": null,
        "entry": 198109,
        "entry_name": "Sk\u00f6mm \u00ed hattinn",
        "event_total": 66,
        "has_played": true,
        "id": 1314649,
        "last_rank": 88594,
        "player_name": "Hafsteinn J\u00fal\u00edusson",
        "rank": 76375,
        "rank_sort": 76419,
        "total": 2337
      },
      {
        "club_badge_src": null,
        "entry": 212324,
        "entry_name": "Cunha Lingus FC",
        "event_total": 65,
        "has_played": true,
        "id": 1412448,
        "last_rank": 96777,
        "player_name": "Ellis Weavers",
        "rank": 76375,
        "rank_sort": 76420,
        "total": 2337
      },
      {
        "club_badge_src": "https://fantasy.premierleague.com/gcs/plfpl-production-adobe-approved/plfpl-production/234066/a1db3919-00e1-402d-b8c7-c1d8766ee47e.png",
        "entry": 234066,
        "entry_name": "It's Joever",
        "event_total": 59,
        "has_played": true,
        "id": 1557522,
        "last_rank": 81420,
        "player_name": "Kay Gupta",
        "rank": 76375,
        "rank_sort": 76421,
        "total": 2337
      },
      {
        "club_badge_src": null,
        "entry": 234318,
        "entry_name": "Wirtz Nightmare",
        "event_total": 79,
        "has_played": true,
        "id": 1559197,
        "last_rank": 123422,
        "player_name": "james purdy",
        "rank": 76375,
        "rank_sort": 76422,
        "total": 2337
      },
      {
        "club_badge_src": "https://fantasy.premierleague.com/gcs/plfpl-production-adobe-approved/plfpl-production/243857/e6db7a46-34d5-4182-819c-6653db7b032f.png",
        "entry": 243857,
        "entry_name": "FC Pa\u017adzierz",
        "event_total": 68,
        "has_played": true,
        "id": 1623667,
        "last_rank": 103978,
        "player_name": "Pawel Szczypek",
        "rank": 76375,
        "rank_sort": 76423,
        "total": 2337
      },
      {
        "club_badge_src": null,
        "entry": 249239,
        "entry_name": "Wissa Al-gaib",
        "event_total": 57,
        "has_played": true,
        "id": 1658654,
        "last_rank": 77999,
        "player_name": "Joel Edwards",
        "rank": 76375,
        "rank_sort": 76424,
        "total": 2337
      },
      {
        "club_badge_src": null,
        "entry": 266202,
        "entry_name": "Rutter Woke Nonsense",
        "event_total": 69,
        "has_played": true,
        "id": 1770741,
        "last_rank": 96374,
        "player_name": "George Morris",
        "rank": 76375,
        "rank_sort": 76425,
        "total": 2337
      },
      {
        "club_badge_src": null,
        "entry": 280097,
        "entry_name": "JOGA BONITO",
        "event_total": 45,
        "has_played": true,
        "id": 1864130,
        "last_rank": 55014,
        "player_name": "Breno Bertoco",
        "rank": 76375,
        "rank_sort": 76426,
        "total": 2337
      },
      {
        "club_badge_src": null,
        "entry": 286541,
        "entry_name": "Amr",
        "event_total": 57,
        "has_played": true,
        "id": 1909032,
        "last_rank": 77999,
        "player_name": "amr makhloof",
        "rank": 76375,
        "rank_sort": 76427,
        "total": 2337
      },
      {
        "club_badge_src": null,
        "entry": 288315,
        "entry_name": "LCD Hunter",
        "event_total": 58,
        "has_played": true,
        "id": 1921650,
        "last_rank": 80194,
        "player_name": "Antony Ash",
        "rank": 76375,
        "rank_sort": 76428,
        "total": 2337
      },
      {
        "club_badge_src": null,
        "entry": 288528,
        "entry_name": "Ji Sung Park The Bus",
        "event_total": 66,
        "has_played": true,
        "id": 1923150,
        "last_rank": 88594,
        "player_name": "Douglas Saunders",
        "rank": 76375,
        "rank_sort": 76429,
        "total": 2337
      },
      {
        "club_badge_src": null,
        "entry": 288789,
        "entry_name": "Charli xGx",
        "event_total": 58,
        "has_played": true,
        "id": 1924942,
        "last_rank": 80194,
        "player_name": "Bruno Trop\u010di\u0107",
        "rank": 76375,
        "rank_sort": 76430,
        "total": 2337
      },
      {
        "club_badge_src": "https://fantasy.premierleague.com/gcs/plfpl-production-adobe-approved/plfpl-production/295098/7ff28983-c5e6-4ae1-af08-1047a2abdc2c.png",
        "entry": 295098,
        "entry_name": "MacAwoniyi Cheese",
        "event_total": 63,
        "has_played": true,
        "id": 1970807,
        "last_rank": 91835,
        "player_name": "Gideon Gyamfi",
        "rank": 76375,
        "rank_sort": 76431,
        "total": 2337
      },
      {
        "club_badge_src": "https://fantasy.premierleague.com/gcs/plfpl-production-adobe-approved/plfpl-production/295551/87ec2d87-3031-4090-bad1-7667641d28e9.png",
        "entry": 295551,
        "entry_name": "Change Name",
        "event_total": 50,
        "has_played": true,
        "id": 1974163,
        "last_rank": 56708,
        "player_name": "Conor Shaw",
        "rank": 76375,
        "rank_sort": 76432,
        "total": 2337
      },
      {
        "club_badge_src": null,
        "entry": 312937,
        "entry_name": "STatIV PIsK",
        "event_total": 61,
        "has_played": true,
        "id": 2096660,
        "last_rank": 86735,
        "player_name": "Gustav R\u00f8msgaard",
        "rank": 76375,
        "rank_sort": 76433,
        "total": 2337
      },
      {
        "club_badge_src": null,
        "entry": 316602,
        "entry_name": "Tommy Fc",
        "event_total": 70,
        "has_played": true,
        "id": 2122019,
        "last_rank": 109454,
        "player_name": "Tommy Fairbrass",
        "rank": 76375,
        "rank_sort": 76434,
        "total": 2337
      },
      {
        "club_badge_src": null,
        "entry": 324247,
        "entry_name": "Le Saux Solid Crew",
        "event_total": 74,
        "has_played": true,
        "id": 2172749,
        "last_rank": 120438,
        "player_name": "James Donald",
        "rank": 76375,
        "rank_sort": 76435,
        "total": 2337
      },
      {
        "club_badge_src": null,
        "entry": 333353,
        "entry_name": "Raulers",
        "event_total": 55,
        "has_played": true,
        "id": 2232543,
        "last_rank": 73720,
        "player_name": "Rodion Antoshchenko",
        "rank": 76375,
        "rank_sort": 76436,
        "total": 2337
      },
      {
        "club_badge_src": null,
        "entry": 339335,
        "entry_name": "Yash",
        "event_total": 70,
        "has_played": true,
        "id": 2271649,
        "last_rank": 98896,
        "player_name": "Yashwanth Duggasani",
        "rank": 76375,
        "rank_sort": 76437,
        "total": 2337
      },
      {
        "club_badge_src": null,
        "entry": 374791,
        "entry_name": "Furys",
        "event_total": 64,
        "has_played": true,
        "id": 2508750,
        "last_rank": 83934,
        "player_name": "Rakesh Narayan",
        "rank": 76375,
        "rank_sort": 76438,
        "total": 2337
      },
      {
        "club_badge_src": "https://fantasy.premierleague.com/gcs/plfpl-production-adobe-approved/plfpl-production/386624/87d6a979-b314-4fa1-a9f1-b0a277451368.png",
        "entry": 386624,
        "entry_name": "Dribbling",
        "event_total": 58,
        "has_played": true,
        "id": 2593756,
        "last_rank": 80194,
        "player_name": "Fred Godfrey",
        "rank": 76375,
        "rank_sort": 76439,
        "total": 2337
      },
      {
        "club_badge_src": null,
        "entry": 388721,
        "entry_name": "Elkhouly FC",
        "event_total": 67,
        "has_played": true,
        "id": 2607623,
        "last_rank": 91466,
        "player_name": "Ahmed Elkhouly",
        "rank": 76375,
        "rank_sort": 76440,
        "total": 2337
      },
      {
        "club_badge_src": null,
        "entry": 404216,
        "entry_name": "Old Havertz Kai Hard",
        "event_total": 58,
        "has_played": true,
        "id": 2710337,
        "last_rank": 80194,
        "player_name": "Mark Humphris",
        "rank": 76375,
        "rank_sort": 76441,
        "total": 2337
      },
      {
        "club_badge_src": null,
        "entry": 405330,
        "entry_name": "p00 pushers fc",
        "event_total": 76,
        "has_played": true,
        "id": 2717593,
        "last_rank": 127384,
        "player_name": "Cian McCormack",
        "rank": 76375,
        "rank_sort": 76442,
        "total": 2337
      },
      {
        "club_badge_src": null,
        "entry": 433450,
        "entry_name": "Waynos Wanderers",
        "event_total": 60,
        "has_played": true,
        "id": 2906795,
        "last_rank": 66848,
        "player_name": "Wayne Wrath",
        "rank": 76375,
        "rank_sort": 76443,
        "total": 2337
      },
      {
        "club_badge_src": null,
        "entry": 448834,
        "entry_name": "RealJMayor",
        "event_total": 43,
        "has_played": true,
        "id": 3011138,
        "last_rank": 52205,
        "player_name": "Jezer Mayor",
        "rank": 76375,
        "rank_sort": 76444,
        "total": 2337
      },
      {
        "club_badge_src": null,
        "entry": 466998,
        "entry_name": "Frfwfcdc",
        "event_total": 55,
        "has_played": true,
        "id": 3133662,
        "last_rank": 58071,
        "player_name": "David Heron",
        "rank": 76375,
        "rank_sort": 76445,
        "total": 2337
      },
      {
        "club_badge_src": null,
        "entry": 476680,
        "entry_name": "Even more shambolic",
        "event_total": 71,
        "has_played": true,
        "id": 3199724,
        "last_rank": 112960,
        "player_name": "Chikeong Lok",
        "rank": 76375,
        "rank_sort": 76446,
        "total": 2337
      },
      {
        "club_badge_src": null,
        "entry": 483058,
        "entry_name": "Penne Arizzabalga",
        "event_total": 59,
        "has_played": true,
        "id": 3242685,
        "last_rank": 82398,
        "player_name": "Nick Barnes",
        "rank": 76375,
        "rank_sort": 76447,
        "total": 2337
      },
      {
        "club_badge_src": null,
        "entry": 486033,
        "entry_name": "Shenzhen\u9e4f\u5a77",
        "event_total": 53,
        "has_played": true,
        "id": 3262838,
        "last_rank": 69641,
        "player_name": "John Greenan",
        "rank": 76375,
        "rank_sort": 76448,
        "total": 2337
      },
      {
        "club_badge_src": null,
        "entry": 488545,
        "entry_name": "Charli xGx",
        "event_total": 60,
        "has_played": true,
        "id": 3279648,
        "last_rank": 84980,
        "player_name": "Charlie Wilson",
        "rank": 76375,
        "rank_sort": 76449,
        "total": 2337
      },
      {
        "club_badge_src": null,
        "entry": 489234,
        "entry_name": "AJ",
        "event_total": 55,
        "has_played": true,
        "id": 3284333,
        "last_rank": 73720,
        "player_name": "Andy Jones",
        "rank": 76375,
        "rank_sort": 76450,
        "total": 2337
      }
    ]
  }
}