{
  "last_updated_data": "2026-05-24T23:28:17Z",
  "league": {
    "admin_entry": null,
    "closed": false,
    "code_privacy": "p",
    "created": "2025-07-20T23:14:33.933835Z",
    "cup_league": 2815434,
    "has_cup": true,
    "id": 314,
    "league_type": "s",
    "max_entries": null,
    "name": "Overall",
    "rank": null,
    "scoring": "c",
    "start_event": 1
  },
  "new_entries": {
    "has_next": false,
    "page": 1,
    "results": []
  },
  "standings": {
    "has_next": true,
    "page": 1155,
    "results": [
      {
        "club_badge_src": null,
        "entry": 1696668,
        "entry_name": "\u010cuku-\u0106uku",
        "event_total": 69,
        "has_played": true,
        "id": 11883803,
        "last_rank": 81646,
        "player_name": "Risto Maljkovic",
        "rank": 57566,
        "rank_sort": 57701,
        "total": 2347
      },
      {
        "club_badge_src": null,
        "entry": 1792621,
        "entry_name": "FC Posternoclue",
        "event_total": 50,
        "has_played": true,
        "id": 12596554,
        "last_rank": 46839,
        "player_name": "Billy Smith",
        "rank": 57566,
        "rank_sort": 57702,
        "total": 2347
      },
      {
        "club_badge_src": null,
        "entry": 1804324,
        "entry_name": "obese alpaca",
        "event_total": 65,
        "has_played": true,
        "id": 12684541,
        "last_rank": 65163,
        "player_name": "Chris Yang",
        "rank": 57566,
        "rank_sort": 57703,
        "total": 2347
      },
      {
        "club_badge_src": null,
        "entry": 1813880,
        "entry_name": "aziz yakoubi",
        "event_total": 67,
        "has_played": true,
        "id": 12754644,
        "last_rank": 68957,
        "player_name": "Azize Yakoubi",
        "rank": 57566,
        "rank_sort": 57704,
        "total": 2347
      },
      {
        "club_badge_src": null,
        "entry": 1895033,
        "entry_name": "ghawth",
        "event_total": 58,
        "has_played": true,
        "id": 13357001,
        "last_rank": 60168,
        "player_name": "Mohammed Ghawth",
        "rank": 57566,
        "rank_sort": 57705,
        "total": 2347
      },
      {
        "club_badge_src": null,
        "entry": 1929552,
        "entry_name": "Charles Darwin Nunez",
        "event_total": 60,
        "has_played": true,
        "id": 13608728,
        "last_rank": 56369,
        "player_name": "Saif Thiab",
        "rank": 57566,
        "rank_sort": 57706,
        "total": 2347
      },
      {
        "club_badge_src": null,
        "entry": 1950357,
        "entry_name": "SHAKIRA  SHAKIRA",
        "event_total": 51,
        "has_played": true,
        "id": 13758022,
        "last_rank": 48642,
        "player_name": "Craig Smith",
        "rank": 57566,
        "rank_sort": 57707,
        "total": 2347
      },
      {
        "club_badge_src": null,
        "entry": 2004814,
        "entry_name": "Arkham City",
        "event_total": 57,
        "has_played": true,
        "id": 14174070,
        "last_rank": 58388,
        "player_name": "Manikandan Suresh Kumar",
        "rank": 57566,
        "rank_sort": 57708,
        "total": 2347
      },
      {
        "club_badge_src": null,
        "entry": 2076976,
        "entry_name": "Vjetre s Dybale",
        "event_total": 68,
        "has_played": true,
        "id": 14726212,
        "last_rank": 79190,
        "player_name": "Domagoj Bujdo",
        "rank": 57566,
        "rank_sort": 57709,
        "total": 2347
      },
      {
        "club_badge_src": null,
        "entry": 2107059,
        "entry_name": "eze does it",
        "event_total": 65,
        "has_played": true,
        "id": 14953706,
        "last_rank": 73038,
        "player_name": "Stefan Pini",
        "rank": 57566,
        "rank_sort": 57710,
        "total": 2347
      },
      {
        "club_badge_src": null,
        "entry": 2149155,
        "entry_name": "Halland Oates",
        "event_total": 62,
        "has_played": true,
        "id": 15276017,
        "last_rank": 59632,
        "player_name": "Jay Milliken",
        "rank": 57566,
        "rank_sort": 57711,
        "total": 2347
      },
      {
        "club_badge_src": null,
        "entry": 2238988,
        "entry_name": "Terribad",
        "event_total": 61,
        "has_played": true,
        "id": 15950816,
        "last_rank": 58071,
        "player_name": "Garry Winship",
        "rank": 57566,
        "rank_sort": 57712,
        "total": 2347
      },
      {
        "club_badge_src": null,
        "entry": 2264260,
        "entry_name": "so sick united",
        "event_total": 59,
        "has_played": true,
        "id": 16144067,
        "last_rank": 61950,
        "player_name": "Leonardo dos Passos",
        "rank": 57566,
        "rank_sort": 57713,
        "total": 2347
      },
      {
        "club_badge_src": null,
        "entry": 2264567,
        "entry_name": "FC Bruno",
        "event_total": 71,
        "has_played": true,
        "id": 16146325,
        "last_rank": 86304,
        "player_name": "Frode Bergskaug",
        "rank": 57566,
        "rank_sort": 57714,
        "total": 2347
      },
      {
        "club_badge_src": null,
        "entry": 2268250,
        "entry_name": "Youssef 195",
        "event_total": 58,
        "has_played": true,
        "id": 16173478,
        "last_rank": 60462,
        "player_name": "Youssef Waleed",
        "rank": 57566,
        "rank_sort": 57715,
        "total": 2347
      },
      {
        "club_badge_src": null,
        "entry": 2318719,
        "entry_name": "The Shaw Must Go On",
        "event_total": 63,
        "has_played": true,
        "id": 16541003,
        "last_rank": 68957,
        "player_name": "james knuckey",
        "rank": 57566,
        "rank_sort": 57716,
        "total": 2347
      },
      {
        "club_badge_src": null,
        "entry": 2359635,
        "entry_name": "Heung-Min Dad",
        "event_total": 64,
        "has_played": true,
        "id": 16839679,
        "last_rank": 70651,
        "player_name": "Finn Pressnell",
        "rank": 57566,
        "rank_sort": 57717,
        "total": 2347
      },
      {
        "club_badge_src": null,
        "entry": 2455879,
        "entry_name": "Excalibur XI",
        "event_total": 51,
        "has_played": true,
        "id": 17565926,
        "last_rank": 48642,
        "player_name": "Sayeem Chowdhury",
        "rank": 57566,
        "rank_sort": 57718,
        "total": 2347
      },
      {
        "club_badge_src": null,
        "entry": 2484872,
        "entry_name": "Chilli Con Cairney",
        "event_total": 65,
        "has_played": true,
        "id": 17781405,
        "last_rank": 73038,
        "player_name": "Luke Durnin",
        "rank": 57566,
        "rank_sort": 57719,
        "total": 2347
      },
      {
        "club_badge_src": null,
        "entry": 2510954,
        "entry_name": "ChickenTikkaMoSalah",
        "event_total": 68,
        "has_played": true,
        "id": 17988251,
        "last_rank": 79431,
        "player_name": "CHRIS STEAD",
        "rank": 57566,
        "rank_sort": 57720,
        "total": 2347
      },
      {
        "club_badge_src": null,
        "entry": 2575057,
        "entry_name": "Isakhunt",
        "event_total": 57,
        "has_played": true,
        "id": 18479565,
        "last_rank": 51403,
        "player_name": "Neil Webley",
        "rank": 57566,
        "rank_sort": 57721,
        "total": 2347
      },
      {
        "club_badge_src": "https://fantasy.premierleague.com/gcs/plfpl-production-adobe-approved/plfpl-production/2681611/d1c302f8-a361-410c-a701-02094873aa3b.png",
        "entry": 2681611,
        "entry_name": "BK H\u00f6tzendorff",
        "event_total": 73,
        "has_played": true,
        "id": 19286564,
        "last_rank": 90746,
        "player_name": "Andreas Andersson",
        "rank": 57566,
        "rank_sort": 57722,
        "total": 2347
      },
      {
        "club_badge_src": null,
        "entry": 2824841,
        "entry_name": "Who ate all Depays",
        "event_total": 66,
        "has_played": true,
        "id": 20638712,
        "last_rank": 74787,
        "player_name": "Jeffrey Tan",
        "rank": 57566,
        "rank_sort": 57723,
        "total": 2347
      },
      {
        "club_badge_src": null,
        "entry": 2851403,
        "entry_name": "FK Famos",
        "event_total": 64,
        "has_played": true,
        "id": 20848494,
        "last_rank": 71386,
        "player_name": "Amar Kajtazovic",
        "rank": 57566,
        "rank_sort": 57724,
        "total": 2347
      },
      {
        "club_badge_src": null,
        "entry": 2862717,
        "entry_name": "Charli xGx",
        "event_total": 66,
        "has_played": true,
        "id": 20935529,
        "last_rank": 67063,
        "player_name": "Jamie Kershaw",
        "rank": 57566,
        "rank_sort": 57725,
        "total": 2347
      },
      {
        "club_badge_src": null,
        "entry": 2908235,
        "entry_name": "Your ma love's it ;D",
        "event_total": 78,
        "has_played": true,
        "id": 21314378,
        "last_rank": 103526,
        "player_name": "Andzej Venskutonis",
        "rank": 57566,
        "rank_sort": 57726,
        "total": 2347
      },
      {
        "club_badge_src": "https://fantasy.premierleague.com/gcs/plfpl-production-adobe-approved/plfpl-production/2915991/165f3346-deab-4bd6-a72e-263bb624d9bb.png",
        "entry": 2915991,
        "entry_name": "cofis",
        "event_total": 61,
        "has_played": true,
        "id": 21373725,
        "last_rank": 65163,
        "player_name": "Ian Jones",
        "rank": 57566,
        "rank_sort": 57727,
        "total": 2347
      },
      {
        "club_badge_src": "https://fantasy.premierleague.com/gcs/plfpl-production-adobe-approved/plfpl-production/2926023/1eae3071-da05-41e6-8e3e-9e0936aee5ee.png",
        "entry": 2926023,
        "entry_name": "OrangeJuice",
        "event_total": 62,
        "has_played": true,
        "id": 21450960,
        "last_rank": 67063,
        "player_name": "Marko Antanasov",
        "rank": 57566,
        "rank_sort": 57728,
        "total": 2347
      },
      {
        "club_badge_src": "https://fantasy.premierleague.com/gcs/plfpl-production-adobe-approved/plfpl-production/2985551/246fc518-06ff-4a23-a0f3-014c5d572a76.png",
        "entry": 2985551,
        "entry_name": "Pom Pom Hurricanes",
        "event_total": 64,
        "has_played": true,
        "id": 21952734,
        "last_rank": 70985,
        "player_name": "thitiwat saensombat",
        "rank": 57566,
        "rank_sort": 57729,
        "total": 2347
      },
      {
        "club_badge_src": "https://fantasy.premierleague.com/gcs/plfpl-production-adobe-approved/plfpl-production/2987957/b617282a-acce-43af-af4d-6f10289e1d07.png",
        "entry": 2987957,
        "entry_name": "Dance Monkey",
        "event_total": 55,
        "has_played": true,
        "id": 21973350,
        "last_rank": 54667,
        "player_name": "Jean-Baptiste Alexandre",
        "rank": 57566,
        "rank_sort": 57730,
        "total": 2347
      },
      {
        "club_badge_src": null,
        "entry": 3017267,
        "entry_name": "FC Schnitzel",
        "event_total": 71,
        "has_played": true,
        "id": 22198717,
        "last_rank": 86735,
        "player_name": "Johannes Ryd\u00e8n",
        "rank": 57566,
        "rank_sort": 57731,
        "total": 2347
      },
      {
        "club_badge_src": null,
        "entry": 3045212,
        "entry_name": "JBoy69",
        "event_total": 68,
        "has_played": true,
        "id": 22416634,
        "last_rank": 79431,
        "player_name": "Jesper Ulsrud",
        "rank": 57566,
        "rank_sort": 57732,
        "total": 2347
      },
      {
        "club_badge_src": null,
        "entry": 3079748,
        "entry_name": "Your Wirtz Nightmare",
        "event_total": 63,
        "has_played": true,
        "id": 22688854,
        "last_rank": 68957,
        "player_name": "Drew Wright",
        "rank": 57566,
        "rank_sort": 57733,
        "total": 2347
      },
      {
        "club_badge_src": null,
        "entry": 3089327,
        "entry_name": "Kinder Mbeumo",
        "event_total": 75,
        "has_played": true,
        "id": 22766773,
        "last_rank": 95640,
        "player_name": "Firoz Rana",
        "rank": 57566,
        "rank_sort": 57734,
        "total": 2347
      },
      {
        "club_badge_src": null,
        "entry": 3191120,
        "entry_name": "Haalandaise Sauce",
        "event_total": 56,
        "has_played": true,
        "id": 23583524,
        "last_rank": 56708,
        "player_name": "Tiago Ferreira",
        "rank": 57566,
        "rank_sort": 57735,
        "total": 2347
      },
      {
        "club_badge_src": null,
        "entry": 3242678,
        "entry_name": "Thomas Frank engine",
        "event_total": 40,
        "has_played": true,
        "id": 23986370,
        "last_rank": 29688,
        "player_name": "Fred Mackintosh",
        "rank": 57566,
        "rank_sort": 57736,
        "total": 2347
      },
      {
        "club_badge_src": null,
        "entry": 3270722,
        "entry_name": "Semunte Jaya Fc",
        "event_total": 65,
        "has_played": true,
        "id": 24204131,
        "last_rank": 73423,
        "player_name": "Gomasthy Jonathan",
        "rank": 57566,
        "rank_sort": 57737,
        "total": 2347
      },
      {
        "club_badge_src": "https://fantasy.premierleague.com/gcs/plfpl-production-adobe-approved/plfpl-production/3280214/78e2fa5d-4597-4a4e-b399-7f72363051d3.png",
        "entry": 3280214,
        "entry_name": "TM7 FC",
        "event_total": 46,
        "has_played": true,
        "id": 24279127,
        "last_rank": 41617,
        "player_name": "Tawina Malani",
        "rank": 57566,
        "rank_sort": 57738,
        "total": 2347
      },
      {
        "club_badge_src": null,
        "entry": 3290569,
        "entry_name": "Your Wirtz Nightmare",
        "event_total": 63,
        "has_played": true,
        "id": 24362977,
        "last_rank": 68957,
        "player_name": "Jake Brown",
        "rank": 57566,
        "rank_sort": 57739,
        "total": 2347
      },
      {
        "club_badge_src": "https://fantasy.premierleague.com/gcs/plfpl-production-adobe-approved/plfpl-production/3292936/aa647915-579e-4455-8018-06499be136c1.png",
        "entry": 3292936,
        "entry_name": "Makaveli's",
        "event_total": 55,
        "has_played": true,
        "id": 24382422,
        "last_rank": 54667,
        "player_name": "Nemanja Cosic",
        "rank": 57566,
        "rank_sort": 57740,
        "total": 2347
      },
      {
        "club_badge_src": null,
        "entry": 3316526,
        "entry_name": "Beyond Storm",
        "event_total": 56,
        "has_played": true,
        "id": 24574397,
        "last_rank": 56708,
        "player_name": "Mohammed Bin Abdullah",
        "rank": 57566,
        "rank_sort": 57741,
        "total": 2347
      },
      {
        "club_badge_src": null,
        "entry": 3330368,
        "entry_name": "Dip Your Tosin",
        "event_total": 56,
        "has_played": true,
        "id": 24692458,
        "last_rank": 56708,
        "player_name": "Jacob Allan",
        "rank": 57566,
        "rank_sort": 57742,
        "total": 2347
      },
      {
        "club_badge_src": null,
        "entry": 3397348,
        "entry_name": "hoh",
        "event_total": 52,
        "has_played": true,
        "id": 25223876,
        "last_rank": 50468,
        "player_name": "Jed Solomon",
        "rank": 57566,
        "rank_sort": 57743,
        "total": 2347
      },
      {
        "club_badge_src": null,
        "entry": 3397757,
        "entry_name": "ZirkzeeAndIKnowIt",
        "event_total": 60,
        "has_played": true,
        "id": 25226875,
        "last_rank": 56369,
        "player_name": "Ben Eagle",
        "rank": 57566,
        "rank_sort": 57744,
        "total": 2347
      },
      {
        "club_badge_src": null,
        "entry": 3400208,
        "entry_name": "Halal ballers FC",
        "event_total": 48,
        "has_played": true,
        "id": 25246331,
        "last_rank": 44525,
        "player_name": "Tage Lai",
        "rank": 57566,
        "rank_sort": 57745,
        "total": 2347
      },
      {
        "club_badge_src": null,
        "entry": 3418013,
        "entry_name": "Come Digne with Mee",
        "event_total": 56,
        "has_played": true,
        "id": 25388108,
        "last_rank": 56708,
        "player_name": "Calum Curtis",
        "rank": 57566,
        "rank_sort": 57746,
        "total": 2347
      },
      {
        "club_badge_src": null,
        "entry": 3467719,
        "entry_name": "Bakwaas11",
        "event_total": 86,
        "has_played": true,
        "id": 25779222,
        "last_rank": 126408,
        "player_name": "Akash Singh",
        "rank": 57566,
        "rank_sort": 57747,
        "total": 2347
      },
      {
        "club_badge_src": null,
        "entry": 3478807,
        "entry_name": "\u0627\u0641\u0634\u062e \u0661\u0661 \u0641\u064a \u0627\u0644\u0661\u0668",
        "event_total": 55,
        "has_played": true,
        "id": 25867310,
        "last_rank": 55311,
        "player_name": "Ahmed ElNady",
        "rank": 57566,
        "rank_sort": 57748,
        "total": 2347
      },
      {
        "club_badge_src": null,
        "entry": 3494075,
        "entry_name": "Hakuna Morata",
        "event_total": 72,
        "has_played": true,
        "id": 25988935,
        "last_rank": 79190,
        "player_name": "Christian Svennblad",
        "rank": 57566,
        "rank_sort": 57749,
        "total": 2347
      },
      {
        "club_badge_src": "https://fantasy.premierleague.com/gcs/plfpl-production-adobe-approved/plfpl-production/3564603/b9c71111-51c7-4a2a-a71f-c6fb5f65bad2.png",
        "entry": 3564603,
        "entry_name": "Mr.Mosty",
        "event_total": 44,
        "has_played": true,
        "id": 26541569,
        "last_rank": 39246,
        "player_name": "Mostafa mo3wad",
        "rank": 57566,
        "rank_sort": 57750,
        "total": 2347
      }
    ]
  }
}