{
  "last_updated_data": "2026-05-24T23:28:17Z",
  "league": {
    "admin_entry": null,
    "closed": false,
    "code_privacy": "p",
    "created": "2025-07-20T23:14:33.933835Z",
    "cup_league": 2815434,
    "has_cup": true,
    "id": 314,
    "league_type": "s",
    "max_entries": null,
    "name": "Overall",
    "rank": null,
    "scoring": "c",
    "start_event": 1
  },
  "new_entries": {
    "has_next": false,
    "page": 1,
    "results": []
  },
  "standings": {
    "has_next": true,
    "page": 1090,
    "results": [
      {
        "club_badge_src": null,
        "entry": 1969199,
        "entry_name": "Teddy's Rangers",
        "event_total": 56,
        "has_played": true,
        "id": 13897765,
        "last_rank": 52853,
        "player_name": "Javes Javes",
        "rank": 54315,
        "rank_sort": 54451,
        "total": 2349
      },
      {
        "club_badge_src": null,
        "entry": 2145704,
        "entry_name": "Silvermine Mariners",
        "event_total": 65,
        "has_played": true,
        "id": 15251019,
        "last_rank": 69323,
        "player_name": "Andy Parkin",
        "rank": 54315,
        "rank_sort": 54452,
        "total": 2349
      },
      {
        "club_badge_src": null,
        "entry": 2172230,
        "entry_name": "O Captain Mo Captain",
        "event_total": 54,
        "has_played": true,
        "id": 15445478,
        "last_rank": 50199,
        "player_name": "Michael Braid",
        "rank": 54315,
        "rank_sort": 54453,
        "total": 2349
      },
      {
        "club_badge_src": null,
        "entry": 2174051,
        "entry_name": "aubamehavedih",
        "event_total": 56,
        "has_played": true,
        "id": 15458810,
        "last_rank": 53345,
        "player_name": "dylan lim",
        "rank": 54315,
        "rank_sort": 54454,
        "total": 2349
      },
      {
        "club_badge_src": null,
        "entry": 2197840,
        "entry_name": "Snjebbi",
        "event_total": 59,
        "has_played": true,
        "id": 15639197,
        "last_rank": 58388,
        "player_name": "Snorri Pall Sigurdsson",
        "rank": 54315,
        "rank_sort": 54455,
        "total": 2349
      },
      {
        "club_badge_src": "https://fantasy.premierleague.com/gcs/plfpl-production-adobe-approved/plfpl-production/2203015/08b6c874-8579-4694-90a1-c3450ee6956c.png",
        "entry": 2203015,
        "entry_name": "BuKhaled FC",
        "event_total": 41,
        "has_played": true,
        "id": 15678063,
        "last_rank": 33147,
        "player_name": "Hamad Khaled",
        "rank": 54315,
        "rank_sort": 54456,
        "total": 2349
      },
      {
        "club_badge_src": "https://fantasy.premierleague.com/gcs/plfpl-production-adobe-approved/plfpl-production/2210506/3cb712c0-3a9c-4b8f-bc55-0befc226fbf3.png",
        "entry": 2210506,
        "entry_name": "Speculative Effort",
        "event_total": 64,
        "has_played": true,
        "id": 15740844,
        "last_rank": 67063,
        "player_name": "Ross Atkinson",
        "rank": 54315,
        "rank_sort": 54457,
        "total": 2349
      },
      {
        "club_badge_src": null,
        "entry": 2317326,
        "entry_name": "My Team Sucks",
        "event_total": 71,
        "has_played": true,
        "id": 16530815,
        "last_rank": 81420,
        "player_name": "Simon Phelps",
        "rank": 54315,
        "rank_sort": 54458,
        "total": 2349
      },
      {
        "club_badge_src": null,
        "entry": 2375167,
        "entry_name": "Bragan\u00e7a",
        "event_total": 59,
        "has_played": true,
        "id": 16956365,
        "last_rank": 58388,
        "player_name": "Rui Delgado",
        "rank": 54315,
        "rank_sort": 54459,
        "total": 2349
      },
      {
        "club_badge_src": "https://fantasy.premierleague.com/gcs/plfpl-production-adobe-approved/plfpl-production/2377252/eb8a40b6-1a7f-435f-be1c-897caabbff75.png",
        "entry": 2377252,
        "entry_name": "Sk\u0142ad Wengra",
        "event_total": 60,
        "has_played": true,
        "id": 16973236,
        "last_rank": 59813,
        "player_name": "\u00c1rp\u00e1d Micor",
        "rank": 54315,
        "rank_sort": 54460,
        "total": 2349
      },
      {
        "club_badge_src": "https://fantasy.premierleague.com/gcs/plfpl-production-adobe-approved/plfpl-production/2439385/a2db8695-be03-4d5c-9a88-c024ba8035b9.png",
        "entry": 2439385,
        "entry_name": "TiSiCherkiTatinSin",
        "event_total": 64,
        "has_played": true,
        "id": 17445260,
        "last_rank": 66848,
        "player_name": "Luka \u0160ivak",
        "rank": 54315,
        "rank_sort": 54461,
        "total": 2349
      },
      {
        "club_badge_src": null,
        "entry": 2627502,
        "entry_name": "The danned United",
        "event_total": 52,
        "has_played": true,
        "id": 18881375,
        "last_rank": 41324,
        "player_name": "Dan Neary",
        "rank": 54315,
        "rank_sort": 54462,
        "total": 2349
      },
      {
        "club_badge_src": null,
        "entry": 2628912,
        "entry_name": "Arkwrights Sweetiies",
        "event_total": 67,
        "has_played": true,
        "id": 18891415,
        "last_rank": 73423,
        "player_name": "Simon Arkwright",
        "rank": 54315,
        "rank_sort": 54463,
        "total": 2349
      },
      {
        "club_badge_src": null,
        "entry": 2645415,
        "entry_name": "TheAngelGabriel",
        "event_total": 56,
        "has_played": true,
        "id": 19013985,
        "last_rank": 53345,
        "player_name": "toby watson",
        "rank": 54315,
        "rank_sort": 54464,
        "total": 2349
      },
      {
        "club_badge_src": null,
        "entry": 2677758,
        "entry_name": "Change Name",
        "event_total": 54,
        "has_played": true,
        "id": 19257347,
        "last_rank": 49880,
        "player_name": "James Forester",
        "rank": 54315,
        "rank_sort": 54465,
        "total": 2349
      },
      {
        "club_badge_src": null,
        "entry": 2727982,
        "entry_name": "AY SEE AY BEE",
        "event_total": 67,
        "has_played": true,
        "id": 19630858,
        "last_rank": 72815,
        "player_name": "Marcel Kondrk",
        "rank": 54315,
        "rank_sort": 54466,
        "total": 2349
      },
      {
        "club_badge_src": null,
        "entry": 2829575,
        "entry_name": "Goons",
        "event_total": 50,
        "has_played": true,
        "id": 20675936,
        "last_rank": 38774,
        "player_name": "Seun Adeyemi",
        "rank": 54315,
        "rank_sort": 54467,
        "total": 2349
      },
      {
        "club_badge_src": null,
        "entry": 2922023,
        "entry_name": "Gladiator \u2606",
        "event_total": 59,
        "has_played": true,
        "id": 21420544,
        "last_rank": 51403,
        "player_name": "ogwang joshua",
        "rank": 54315,
        "rank_sort": 54468,
        "total": 2349
      },
      {
        "club_badge_src": null,
        "entry": 2928544,
        "entry_name": "Not from the UK",
        "event_total": 63,
        "has_played": true,
        "id": 21470416,
        "last_rank": 58071,
        "player_name": "Tayeb Methlouthy",
        "rank": 54315,
        "rank_sort": 54469,
        "total": 2349
      },
      {
        "club_badge_src": null,
        "entry": 2969317,
        "entry_name": "CPD Tallings",
        "event_total": 47,
        "has_played": true,
        "id": 21816103,
        "last_rank": 35166,
        "player_name": "Huw Meredith",
        "rank": 54315,
        "rank_sort": 54470,
        "total": 2349
      },
      {
        "club_badge_src": "https://fantasy.premierleague.com/gcs/plfpl-production-adobe-approved/plfpl-production/2993249/d8f6ff6d-eef2-4417-9059-f9e9305cb1ab.png",
        "entry": 2993249,
        "entry_name": "TTRS\u00ae",
        "event_total": 45,
        "has_played": true,
        "id": 22014630,
        "last_rank": 37822,
        "player_name": "taha laaziz",
        "rank": 54315,
        "rank_sort": 54471,
        "total": 2349
      },
      {
        "club_badge_src": null,
        "entry": 3019325,
        "entry_name": "Zubi-Dooby-Doo",
        "event_total": 61,
        "has_played": true,
        "id": 22214493,
        "last_rank": 61950,
        "player_name": "George Nixon",
        "rank": 54315,
        "rank_sort": 54472,
        "total": 2349
      },
      {
        "club_badge_src": null,
        "entry": 3050994,
        "entry_name": "WAD AB SHANB",
        "event_total": 63,
        "has_played": true,
        "id": 22460741,
        "last_rank": 65475,
        "player_name": "Ali Almahi",
        "rank": 54315,
        "rank_sort": 54473,
        "total": 2349
      },
      {
        "club_badge_src": null,
        "entry": 3089616,
        "entry_name": "Inter Heiland",
        "event_total": 71,
        "has_played": true,
        "id": 22769613,
        "last_rank": 73038,
        "player_name": "Tobias Schmid",
        "rank": 54315,
        "rank_sort": 54474,
        "total": 2349
      },
      {
        "club_badge_src": null,
        "entry": 3094752,
        "entry_name": "Charli xGx",
        "event_total": 47,
        "has_played": true,
        "id": 22808568,
        "last_rank": 40297,
        "player_name": "Joe Evans",
        "rank": 54315,
        "rank_sort": 54475,
        "total": 2349
      },
      {
        "club_badge_src": null,
        "entry": 3295064,
        "entry_name": "Midnight Rambler",
        "event_total": 56,
        "has_played": true,
        "id": 24400117,
        "last_rank": 53023,
        "player_name": "Dean Knoote",
        "rank": 54315,
        "rank_sort": 54476,
        "total": 2349
      },
      {
        "club_badge_src": null,
        "entry": 3304448,
        "entry_name": "Kinder Mbuemo",
        "event_total": 63,
        "has_played": true,
        "id": 24476125,
        "last_rank": 65163,
        "player_name": "James Meechan",
        "rank": 54315,
        "rank_sort": 54477,
        "total": 2349
      },
      {
        "club_badge_src": "https://fantasy.premierleague.com/gcs/plfpl-production-adobe-approved/plfpl-production/3314612/4230040b-3a68-42b6-b30c-b9b7c48e408e.png",
        "entry": 3314612,
        "entry_name": "Blue Lynx",
        "event_total": 56,
        "has_played": true,
        "id": 24559047,
        "last_rank": 46839,
        "player_name": "Yaroslav Krasovskyi",
        "rank": 54315,
        "rank_sort": 54478,
        "total": 2349
      },
      {
        "club_badge_src": null,
        "entry": 3356470,
        "entry_name": "ThomasTheFrankEngine",
        "event_total": 65,
        "has_played": true,
        "id": 24902039,
        "last_rank": 68957,
        "player_name": "Jordan Sullivan",
        "rank": 54315,
        "rank_sort": 54479,
        "total": 2349
      },
      {
        "club_badge_src": null,
        "entry": 3521557,
        "entry_name": "Goodison Ghosts",
        "event_total": 67,
        "has_played": true,
        "id": 26207499,
        "last_rank": 73038,
        "player_name": "Rory Walsh",
        "rank": 54315,
        "rank_sort": 54480,
        "total": 2349
      },
      {
        "club_badge_src": null,
        "entry": 3534030,
        "entry_name": "ToViktorGy\u00f6TheSpoils",
        "event_total": 71,
        "has_played": true,
        "id": 26303814,
        "last_rank": 81420,
        "player_name": "Walter White",
        "rank": 54315,
        "rank_sort": 54481,
        "total": 2349
      },
      {
        "club_badge_src": null,
        "entry": 3565577,
        "entry_name": "Bankers Ballers",
        "event_total": 55,
        "has_played": true,
        "id": 26548976,
        "last_rank": 51984,
        "player_name": "Marcus Hartzell",
        "rank": 54315,
        "rank_sort": 54482,
        "total": 2349
      },
      {
        "club_badge_src": null,
        "entry": 3584682,
        "entry_name": "Rob's Reds",
        "event_total": 59,
        "has_played": true,
        "id": 26695407,
        "last_rank": 58388,
        "player_name": "Rob Holland",
        "rank": 54315,
        "rank_sort": 54483,
        "total": 2349
      },
      {
        "club_badge_src": null,
        "entry": 3638230,
        "entry_name": "daredevil",
        "event_total": 63,
        "has_played": true,
        "id": 27113584,
        "last_rank": 57857,
        "player_name": "Abolfazl Shirali",
        "rank": 54315,
        "rank_sort": 54484,
        "total": 2349
      },
      {
        "club_badge_src": null,
        "entry": 3676419,
        "entry_name": "The Mog Men",
        "event_total": 71,
        "has_played": true,
        "id": 27420511,
        "last_rank": 82069,
        "player_name": "Nick Edwards",
        "rank": 54315,
        "rank_sort": 54485,
        "total": 2349
      },
      {
        "club_badge_src": null,
        "entry": 3680067,
        "entry_name": "Sheyi FC",
        "event_total": 78,
        "has_played": true,
        "id": 27448627,
        "last_rank": 98896,
        "player_name": "Oluwaseyi Adeshakin",
        "rank": 54315,
        "rank_sort": 54486,
        "total": 2349
      },
      {
        "club_badge_src": null,
        "entry": 3685257,
        "entry_name": "rc96",
        "event_total": 67,
        "has_played": true,
        "id": 27490990,
        "last_rank": 73423,
        "player_name": "Rob Cowd",
        "rank": 54315,
        "rank_sort": 54487,
        "total": 2349
      },
      {
        "club_badge_src": null,
        "entry": 3726445,
        "entry_name": "0mr",
        "event_total": 36,
        "has_played": true,
        "id": 27813199,
        "last_rank": 24143,
        "player_name": "Omar Abdalhalim",
        "rank": 54315,
        "rank_sort": 54488,
        "total": 2349
      },
      {
        "club_badge_src": null,
        "entry": 3796506,
        "entry_name": "JO28",
        "event_total": 58,
        "has_played": true,
        "id": 28377412,
        "last_rank": 56708,
        "player_name": "Jerry Oozeer",
        "rank": 54315,
        "rank_sort": 54489,
        "total": 2349
      },
      {
        "club_badge_src": null,
        "entry": 3826240,
        "entry_name": "muchogusto",
        "event_total": 53,
        "has_played": true,
        "id": 28620216,
        "last_rank": 48363,
        "player_name": "Robert Lindley",
        "rank": 54315,
        "rank_sort": 54490,
        "total": 2349
      },
      {
        "club_badge_src": null,
        "entry": 3834032,
        "entry_name": "CACO",
        "event_total": 64,
        "has_played": true,
        "id": 28682222,
        "last_rank": 67063,
        "player_name": "Karim Taher",
        "rank": 54315,
        "rank_sort": 54491,
        "total": 2349
      },
      {
        "club_badge_src": "https://fantasy.premierleague.com/gcs/plfpl-production-adobe-approved/plfpl-production/3876742/e2b04419-6cc4-42b2-9fdf-69330ef09bcc.png",
        "entry": 3876742,
        "entry_name": "Skywalkers",
        "event_total": 45,
        "has_played": true,
        "id": 29126731,
        "last_rank": 37822,
        "player_name": "Lucas Klingsell",
        "rank": 54315,
        "rank_sort": 54492,
        "total": 2349
      },
      {
        "club_badge_src": null,
        "entry": 3879157,
        "entry_name": "West Broeli Albion",
        "event_total": 62,
        "has_played": true,
        "id": 29146666,
        "last_rank": 56369,
        "player_name": "Filip Myringer",
        "rank": 54315,
        "rank_sort": 54493,
        "total": 2349
      },
      {
        "club_badge_src": "https://fantasy.premierleague.com/gcs/plfpl-production-adobe-approved/plfpl-production/3888852/0b65fbff-746a-4605-85c8-f89ad0a8fffe.png",
        "entry": 3888852,
        "entry_name": "DJ Ed Spence",
        "event_total": 45,
        "has_played": true,
        "id": 29222653,
        "last_rank": 37589,
        "player_name": "Ben Chatwin",
        "rank": 54315,
        "rank_sort": 54494,
        "total": 2349
      },
      {
        "club_badge_src": null,
        "entry": 3952091,
        "entry_name": "David Villa",
        "event_total": 69,
        "has_played": true,
        "id": 29731901,
        "last_rank": 68748,
        "player_name": "Scott Broughill",
        "rank": 54315,
        "rank_sort": 54495,
        "total": 2349
      },
      {
        "club_badge_src": null,
        "entry": 3965259,
        "entry_name": "Prestvannet Ducks",
        "event_total": 49,
        "has_played": true,
        "id": 29836631,
        "last_rank": 42648,
        "player_name": "Christoffer B\u00f8rstad",
        "rank": 54315,
        "rank_sort": 54496,
        "total": 2349
      },
      {
        "club_badge_src": null,
        "entry": 4003704,
        "entry_name": "That_Team",
        "event_total": 62,
        "has_played": true,
        "id": 30157910,
        "last_rank": 56369,
        "player_name": "Kim Andr\u00e9 Johnsen",
        "rank": 54315,
        "rank_sort": 54497,
        "total": 2349
      },
      {
        "club_badge_src": null,
        "entry": 4033400,
        "entry_name": "Mudryk's Missile",
        "event_total": 55,
        "has_played": true,
        "id": 30410378,
        "last_rank": 51720,
        "player_name": "Ben Rimmer",
        "rank": 54315,
        "rank_sort": 54498,
        "total": 2349
      },
      {
        "club_badge_src": null,
        "entry": 4071423,
        "entry_name": "Ali iRaQi 88",
        "event_total": 55,
        "has_played": true,
        "id": 30730318,
        "last_rank": 51720,
        "player_name": "Killian Mbappe",
        "rank": 54315,
        "rank_sort": 54499,
        "total": 2349
      },
      {
        "club_badge_src": null,
        "entry": 4128536,
        "entry_name": "MurderOnZidanesFloor",
        "event_total": 60,
        "has_played": true,
        "id": 31197243,
        "last_rank": 60168,
        "player_name": "Vincent Breslin",
        "rank": 54315,
        "rank_sort": 54500,
        "total": 2349
      }
    ]
  }
}