{
  "last_updated_data": "2026-05-24T23:28:17Z",
  "league": {
    "admin_entry": null,
    "closed": false,
    "code_privacy": "p",
    "created": "2025-07-20T23:14:33.933835Z",
    "cup_league": 2815434,
    "has_cup": true,
    "id": 314,
    "league_type": "s",
    "max_entries": null,
    "name": "Overall",
    "rank": null,
    "scoring": "c",
    "start_event": 1
  },
  "new_entries": {
    "has_next": false,
    "page": 1,
    "results": []
  },
  "standings": {
    "has_next": true,
    "page": 1377,
    "results": [
      {
        "club_badge_src": null,
        "entry": 285480,
        "entry_name": "Hamza Mahjoub",
        "event_total": 59,
        "has_played": true,
        "id": 1901420,
        "last_rank": 73975,
        "player_name": "Hamza Mahjoub",
        "rank": 68762,
        "rank_sort": 68801,
        "total": 2341
      },
      {
        "club_badge_src": null,
        "entry": 308540,
        "entry_name": "Bengan Boys",
        "event_total": 47,
        "has_played": true,
        "id": 2066641,
        "last_rank": 52205,
        "player_name": "Matthias Bengtsson",
        "rank": 68762,
        "rank_sort": 68802,
        "total": 2341
      },
      {
        "club_badge_src": null,
        "entry": 310120,
        "entry_name": "GOGO FC",
        "event_total": 80,
        "has_played": true,
        "id": 2077403,
        "last_rank": 115421,
        "player_name": "Bader AlDamegh",
        "rank": 68762,
        "rank_sort": 68803,
        "total": 2341
      },
      {
        "club_badge_src": "https://fantasy.premierleague.com/gcs/plfpl-production-adobe-approved/plfpl-production/392746/c36e673f-e98a-4bba-9edd-c19c6374c2f7.png",
        "entry": 392746,
        "entry_name": "AmorimOut",
        "event_total": 70,
        "has_played": true,
        "id": 2634263,
        "last_rank": 89055,
        "player_name": "Viet Dung Nguyen",
        "rank": 68762,
        "rank_sort": 68804,
        "total": 2341
      },
      {
        "club_badge_src": null,
        "entry": 393539,
        "entry_name": "Tony's Titans",
        "event_total": 67,
        "has_played": true,
        "id": 2639396,
        "last_rank": 91835,
        "player_name": "Tony Palladino",
        "rank": 68762,
        "rank_sort": 68805,
        "total": 2341
      },
      {
        "club_badge_src": null,
        "entry": 406096,
        "entry_name": "Rehmii",
        "event_total": 69,
        "has_played": true,
        "id": 2722811,
        "last_rank": 86735,
        "player_name": "Thanaphum Sirithanachai",
        "rank": 68762,
        "rank_sort": 68806,
        "total": 2341
      },
      {
        "club_badge_src": null,
        "entry": 458236,
        "entry_name": "ElectricDreamMachine",
        "event_total": 72,
        "has_played": true,
        "id": 3074105,
        "last_rank": 94255,
        "player_name": "Einar Haraldsson",
        "rank": 68762,
        "rank_sort": 68807,
        "total": 2341
      },
      {
        "club_badge_src": null,
        "entry": 460543,
        "entry_name": "Jesus Saves",
        "event_total": 59,
        "has_played": true,
        "id": 3089399,
        "last_rank": 73975,
        "player_name": "tom bardner",
        "rank": 68762,
        "rank_sort": 68808,
        "total": 2341
      },
      {
        "club_badge_src": null,
        "entry": 476955,
        "entry_name": "TEAM AK",
        "event_total": 68,
        "has_played": true,
        "id": 3201506,
        "last_rank": 84731,
        "player_name": "Andrew Kelly",
        "rank": 68762,
        "rank_sort": 68809,
        "total": 2341
      },
      {
        "club_badge_src": null,
        "entry": 500120,
        "entry_name": "Sesko Mobile",
        "event_total": 57,
        "has_played": true,
        "id": 3356474,
        "last_rank": 62223,
        "player_name": "Aidan Parker",
        "rank": 68762,
        "rank_sort": 68810,
        "total": 2341
      },
      {
        "club_badge_src": null,
        "entry": 542266,
        "entry_name": "Franck Riberymoval",
        "event_total": 56,
        "has_played": true,
        "id": 3649643,
        "last_rank": 67695,
        "player_name": "Joe Hollands",
        "rank": 68762,
        "rank_sort": 68811,
        "total": 2341
      },
      {
        "club_badge_src": null,
        "entry": 589543,
        "entry_name": "RareArne",
        "event_total": 65,
        "has_played": true,
        "id": 3970784,
        "last_rank": 77258,
        "player_name": "Odd Arne Lauritzen",
        "rank": 68762,
        "rank_sort": 68812,
        "total": 2341
      },
      {
        "club_badge_src": null,
        "entry": 616858,
        "entry_name": "Rhodesian Antelopes",
        "event_total": 68,
        "has_played": true,
        "id": 4167937,
        "last_rank": 94255,
        "player_name": "Graham Nelson",
        "rank": 68762,
        "rank_sort": 68813,
        "total": 2341
      },
      {
        "club_badge_src": "https://fantasy.premierleague.com/gcs/plfpl-production-adobe-approved/plfpl-production/664375/aa50a149-3d4a-403b-a966-7e3446dc7e2a.png",
        "entry": 664375,
        "entry_name": "Invincible Smyth FC",
        "event_total": 63,
        "has_played": true,
        "id": 4491607,
        "last_rank": 82664,
        "player_name": "Joseph Smyth",
        "rank": 68762,
        "rank_sort": 68814,
        "total": 2341
      },
      {
        "club_badge_src": null,
        "entry": 674706,
        "entry_name": "Absolutely Fabregas",
        "event_total": 65,
        "has_played": true,
        "id": 4564425,
        "last_rank": 87350,
        "player_name": "Daniel Snowden",
        "rank": 68762,
        "rank_sort": 68815,
        "total": 2341
      },
      {
        "club_badge_src": null,
        "entry": 691060,
        "entry_name": "DeDe's FC",
        "event_total": 60,
        "has_played": true,
        "id": 4679675,
        "last_rank": 76128,
        "player_name": "Ayhan Oncu",
        "rank": 68762,
        "rank_sort": 68816,
        "total": 2341
      },
      {
        "club_badge_src": null,
        "entry": 719800,
        "entry_name": "Noni Yer Business",
        "event_total": 56,
        "has_played": true,
        "id": 4886143,
        "last_rank": 60462,
        "player_name": "James Byrne",
        "rank": 68762,
        "rank_sort": 68817,
        "total": 2341
      },
      {
        "club_badge_src": null,
        "entry": 725430,
        "entry_name": "Admin Afk",
        "event_total": 66,
        "has_played": true,
        "id": 4927385,
        "last_rank": 79431,
        "player_name": "Afk Ship",
        "rank": 68762,
        "rank_sort": 68818,
        "total": 2341
      },
      {
        "club_badge_src": null,
        "entry": 743165,
        "entry_name": "get_jamed",
        "event_total": 58,
        "has_played": true,
        "id": 5055073,
        "last_rank": 71713,
        "player_name": "James R\u00f8hr-Jovy",
        "rank": 68762,
        "rank_sort": 68819,
        "total": 2341
      },
      {
        "club_badge_src": "https://fantasy.premierleague.com/gcs/plfpl-production-adobe-approved/plfpl-production/780011/1a24eac1-de1f-4d0e-ae59-1a49b96d1460.png",
        "entry": 780011,
        "entry_name": "Restored Team",
        "event_total": 63,
        "has_played": true,
        "id": 5325212,
        "last_rank": 73720,
        "player_name": "Anders Gjestvang",
        "rank": 68762,
        "rank_sort": 68820,
        "total": 2341
      },
      {
        "club_badge_src": null,
        "entry": 803271,
        "entry_name": "Subbuteo FC",
        "event_total": 72,
        "has_played": true,
        "id": 5498682,
        "last_rank": 104388,
        "player_name": "Jason Curtis",
        "rank": 68762,
        "rank_sort": 68821,
        "total": 2341
      },
      {
        "club_badge_src": null,
        "entry": 821993,
        "entry_name": "Shiz",
        "event_total": 44,
        "has_played": true,
        "id": 5629566,
        "last_rank": 47596,
        "player_name": "Howard Ng",
        "rank": 68762,
        "rank_sort": 68822,
        "total": 2341
      },
      {
        "club_badge_src": null,
        "entry": 834690,
        "entry_name": "Jota20FC",
        "event_total": 59,
        "has_played": true,
        "id": 5717633,
        "last_rank": 58388,
        "player_name": "Edmund Yeung",
        "rank": 68762,
        "rank_sort": 68823,
        "total": 2341
      },
      {
        "club_badge_src": null,
        "entry": 838054,
        "entry_name": "Masters of petoparac",
        "event_total": 72,
        "has_played": true,
        "id": 5741545,
        "last_rank": 104388,
        "player_name": "Boris Vojnovic",
        "rank": 68762,
        "rank_sort": 68824,
        "total": 2341
      },
      {
        "club_badge_src": null,
        "entry": 853160,
        "entry_name": "\u957f\u5d0e\u821e\u6d45\u9759",
        "event_total": 53,
        "has_played": true,
        "id": 5847973,
        "last_rank": 62429,
        "player_name": "Victor Ko",
        "rank": 68762,
        "rank_sort": 68825,
        "total": 2341
      },
      {
        "club_badge_src": null,
        "entry": 865023,
        "entry_name": "New Kind of Kick",
        "event_total": 44,
        "has_played": true,
        "id": 5930118,
        "last_rank": 47596,
        "player_name": "Gary McLeod",
        "rank": 68762,
        "rank_sort": 68826,
        "total": 2341
      },
      {
        "club_badge_src": null,
        "entry": 901624,
        "entry_name": "UPTOWN DUNK",
        "event_total": 70,
        "has_played": true,
        "id": 6195189,
        "last_rank": 98896,
        "player_name": "Kieran McNally",
        "rank": 68762,
        "rank_sort": 68827,
        "total": 2341
      },
      {
        "club_badge_src": null,
        "entry": 905638,
        "entry_name": "Matadors",
        "event_total": 64,
        "has_played": true,
        "id": 6224570,
        "last_rank": 83934,
        "player_name": "Shubham Agarwal",
        "rank": 68762,
        "rank_sort": 68828,
        "total": 2341
      },
      {
        "club_badge_src": null,
        "entry": 948160,
        "entry_name": "Hard to Say FC",
        "event_total": 58,
        "has_played": true,
        "id": 6531238,
        "last_rank": 71713,
        "player_name": "Scott Ryan",
        "rank": 68762,
        "rank_sort": 68829,
        "total": 2341
      },
      {
        "club_badge_src": null,
        "entry": 975120,
        "entry_name": "ErhanSan",
        "event_total": 66,
        "has_played": true,
        "id": 6721931,
        "last_rank": 80194,
        "player_name": "Jonas Peirs",
        "rank": 68762,
        "rank_sort": 68830,
        "total": 2341
      },
      {
        "club_badge_src": "https://fantasy.premierleague.com/gcs/plfpl-production-adobe-approved/plfpl-production/981059/06cf0926-66b8-4281-a5dd-9ebef9da89ec.png",
        "entry": 981059,
        "entry_name": "No Kane No Gain",
        "event_total": 60,
        "has_played": true,
        "id": 6763390,
        "last_rank": 67422,
        "player_name": "Ryan Williams",
        "rank": 68762,
        "rank_sort": 68831,
        "total": 2341
      },
      {
        "club_badge_src": null,
        "entry": 987480,
        "entry_name": "Underdogs FC",
        "event_total": 60,
        "has_played": true,
        "id": 6808740,
        "last_rank": 76128,
        "player_name": "Rohan Varghese",
        "rank": 68762,
        "rank_sort": 68832,
        "total": 2341
      },
      {
        "club_badge_src": null,
        "entry": 997794,
        "entry_name": "Complan Boys",
        "event_total": 68,
        "has_played": true,
        "id": 6893462,
        "last_rank": 84360,
        "player_name": "Onkar Chavan",
        "rank": 68762,
        "rank_sort": 68833,
        "total": 2341
      },
      {
        "club_badge_src": null,
        "entry": 1031750,
        "entry_name": "The Winds of Change",
        "event_total": 44,
        "has_played": true,
        "id": 7138435,
        "last_rank": 47596,
        "player_name": "David Robertson",
        "rank": 68762,
        "rank_sort": 68834,
        "total": 2341
      },
      {
        "club_badge_src": "https://fantasy.premierleague.com/gcs/plfpl-production-adobe-approved/plfpl-production/1045093/48a29b8f-9f21-4987-944d-c7f892a38f52.png",
        "entry": 1045093,
        "entry_name": "\u0627\u0644\u0639\u0648\u0648\u0648",
        "event_total": 54,
        "has_played": true,
        "id": 7232724,
        "last_rank": 64190,
        "player_name": "\u0627\u0648\u0639\u0649 \u0627\u0644\u0639\u0648\u0648\u0648\u0648",
        "rank": 68762,
        "rank_sort": 68835,
        "total": 2341
      },
      {
        "club_badge_src": null,
        "entry": 1050284,
        "entry_name": "Mo'Money, Mo'Salah",
        "event_total": 66,
        "has_played": true,
        "id": 7268569,
        "last_rank": 80194,
        "player_name": "Abhishek Sreekumar",
        "rank": 68762,
        "rank_sort": 68836,
        "total": 2341
      },
      {
        "club_badge_src": null,
        "entry": 1064110,
        "entry_name": "JC Milan",
        "event_total": 63,
        "has_played": true,
        "id": 7366534,
        "last_rank": 73720,
        "player_name": "Joe Cornforth",
        "rank": 68762,
        "rank_sort": 68837,
        "total": 2341
      },
      {
        "club_badge_src": "https://fantasy.premierleague.com/gcs/plfpl-production-adobe-approved/plfpl-production/1088511/f6aa3ade-948e-4361-82cd-170d1dd3116e.png",
        "entry": 1088511,
        "entry_name": "Kasztany",
        "event_total": 62,
        "has_played": true,
        "id": 7538491,
        "last_rank": 80194,
        "player_name": "Eryk Dacz",
        "rank": 68762,
        "rank_sort": 68838,
        "total": 2341
      },
      {
        "club_badge_src": null,
        "entry": 1089303,
        "entry_name": "Pique team",
        "event_total": 65,
        "has_played": true,
        "id": 7544051,
        "last_rank": 87350,
        "player_name": "Mark Ferfolja",
        "rank": 68762,
        "rank_sort": 68839,
        "total": 2341
      },
      {
        "club_badge_src": null,
        "entry": 1137694,
        "entry_name": "mayday_slask71",
        "event_total": 61,
        "has_played": true,
        "id": 7886196,
        "last_rank": 68957,
        "player_name": "Przemyslaw Madej",
        "rank": 68762,
        "rank_sort": 68840,
        "total": 2341
      },
      {
        "club_badge_src": null,
        "entry": 1163611,
        "entry_name": "Change Name",
        "event_total": 51,
        "has_played": true,
        "id": 8072015,
        "last_rank": 58688,
        "player_name": "Aleksandar Gavriloski",
        "rank": 68762,
        "rank_sort": 68841,
        "total": 2341
      },
      {
        "club_badge_src": null,
        "entry": 1184608,
        "entry_name": "Gy\u00f6kzilla",
        "event_total": 66,
        "has_played": true,
        "id": 8219035,
        "last_rank": 89055,
        "player_name": "Kris Milts",
        "rank": 68762,
        "rank_sort": 68842,
        "total": 2341
      },
      {
        "club_badge_src": null,
        "entry": 1218662,
        "entry_name": "Burn After Reading",
        "event_total": 47,
        "has_played": true,
        "id": 8460084,
        "last_rank": 52205,
        "player_name": "Chris Denham",
        "rank": 68762,
        "rank_sort": 68843,
        "total": 2341
      },
      {
        "club_badge_src": null,
        "entry": 1226597,
        "entry_name": "ushouldknowme",
        "event_total": 69,
        "has_played": true,
        "id": 8517014,
        "last_rank": 87074,
        "player_name": "Ushouldknowme 369",
        "rank": 68762,
        "rank_sort": 68844,
        "total": 2341
      },
      {
        "club_badge_src": null,
        "entry": 1231625,
        "entry_name": "Change Name",
        "event_total": 52,
        "has_played": true,
        "id": 8552271,
        "last_rank": 60462,
        "player_name": "Christian yeates",
        "rank": 68762,
        "rank_sort": 68845,
        "total": 2341
      },
      {
        "club_badge_src": null,
        "entry": 1268309,
        "entry_name": "Wozza's Wotsits",
        "event_total": 56,
        "has_played": true,
        "id": 8812309,
        "last_rank": 67926,
        "player_name": "Mark Worrall",
        "rank": 68762,
        "rank_sort": 68846,
        "total": 2341
      },
      {
        "club_badge_src": null,
        "entry": 1300753,
        "entry_name": "Harchester United",
        "event_total": 73,
        "has_played": true,
        "id": 9040173,
        "last_rank": 106763,
        "player_name": "Dejan Stojanovic",
        "rank": 68762,
        "rank_sort": 68847,
        "total": 2341
      },
      {
        "club_badge_src": null,
        "entry": 1313922,
        "entry_name": "Stuart Dallas Stars",
        "event_total": 62,
        "has_played": true,
        "id": 9132611,
        "last_rank": 71713,
        "player_name": "Jonathan Tedeborg",
        "rank": 68762,
        "rank_sort": 68848,
        "total": 2341
      },
      {
        "club_badge_src": "https://fantasy.premierleague.com/gcs/plfpl-production-adobe-approved/plfpl-production/1393353/a6818301-77a3-4422-aa11-81011df61f82.png",
        "entry": 1393353,
        "entry_name": "JermaineIsTheName",
        "event_total": 65,
        "has_played": true,
        "id": 9693399,
        "last_rank": 87350,
        "player_name": "Rolio Z Lohe",
        "rank": 68762,
        "rank_sort": 68849,
        "total": 2341
      },
      {
        "club_badge_src": null,
        "entry": 1452040,
        "entry_name": "Pedro Por*o",
        "event_total": 66,
        "has_played": true,
        "id": 10117822,
        "last_rank": 89706,
        "player_name": "Alrik IJmker",
        "rank": 68762,
        "rank_sort": 68850,
        "total": 2341
      }
    ]
  }
}