{
  "last_updated_data": "2026-05-24T23:28:17Z",
  "league": {
    "admin_entry": null,
    "closed": false,
    "code_privacy": "p",
    "created": "2025-07-20T23:14:33.933835Z",
    "cup_league": 2815434,
    "has_cup": true,
    "id": 314,
    "league_type": "s",
    "max_entries": null,
    "name": "Overall",
    "rank": null,
    "scoring": "c",
    "start_event": 1
  },
  "new_entries": {
    "has_next": false,
    "page": 1,
    "results": []
  },
  "standings": {
    "has_next": true,
    "page": 177,
    "results": [
      {
        "club_badge_src": null,
        "entry": 4029763,
        "entry_name": "Archies Aces",
        "event_total": 66,
        "has_played": true,
        "id": 30378956,
        "last_rank": 12141,
        "player_name": "steve witt",
        "rank": 8787,
        "rank_sort": 8801,
        "total": 2401
      },
      {
        "club_badge_src": null,
        "entry": 4055102,
        "entry_name": "malogent banger",
        "event_total": 57,
        "has_played": true,
        "id": 30596276,
        "last_rank": 8339,
        "player_name": "David Byrne",
        "rank": 8787,
        "rank_sort": 8802,
        "total": 2401
      },
      {
        "club_badge_src": null,
        "entry": 4380605,
        "entry_name": "49ers",
        "event_total": 37,
        "has_played": true,
        "id": 33289810,
        "last_rank": 3408,
        "player_name": "Maximus Prime",
        "rank": 8787,
        "rank_sort": 8803,
        "total": 2401
      },
      {
        "club_badge_src": null,
        "entry": 4493131,
        "entry_name": "Kinnego Kids",
        "event_total": 52,
        "has_played": true,
        "id": 34250388,
        "last_rank": 6703,
        "player_name": "Niall Kerr",
        "rank": 8787,
        "rank_sort": 8804,
        "total": 2401
      },
      {
        "club_badge_src": null,
        "entry": 5365646,
        "entry_name": "Reuben's babies",
        "event_total": 65,
        "has_played": true,
        "id": 41682486,
        "last_rank": 11642,
        "player_name": "Reuebn Evans",
        "rank": 8787,
        "rank_sort": 8805,
        "total": 2401
      },
      {
        "club_badge_src": null,
        "entry": 5450280,
        "entry_name": "sopranos",
        "event_total": 52,
        "has_played": true,
        "id": 42411410,
        "last_rank": 6687,
        "player_name": "Ebrahim Esmaeil",
        "rank": 8787,
        "rank_sort": 8806,
        "total": 2401
      },
      {
        "club_badge_src": null,
        "entry": 5467061,
        "entry_name": "champeh fc",
        "event_total": 65,
        "has_played": true,
        "id": 42549890,
        "last_rank": 11699,
        "player_name": "Leon Shimanyula",
        "rank": 8787,
        "rank_sort": 8807,
        "total": 2401
      },
      {
        "club_badge_src": null,
        "entry": 5626972,
        "entry_name": "Jo\u00e3o Me The Money",
        "event_total": 67,
        "has_played": true,
        "id": 43990581,
        "last_rank": 12599,
        "player_name": "Joe Bidmead",
        "rank": 8787,
        "rank_sort": 8808,
        "total": 2401
      },
      {
        "club_badge_src": null,
        "entry": 5746105,
        "entry_name": "Gyok 19",
        "event_total": 43,
        "has_played": true,
        "id": 45033107,
        "last_rank": 4515,
        "player_name": "JP Blanchard",
        "rank": 8787,
        "rank_sort": 8809,
        "total": 2401
      },
      {
        "club_badge_src": null,
        "entry": 5958575,
        "entry_name": "Bruno\u00b4s Ballers",
        "event_total": 53,
        "has_played": true,
        "id": 46875199,
        "last_rank": 7014,
        "player_name": "Magnus Juhl",
        "rank": 8787,
        "rank_sort": 8810,
        "total": 2401
      },
      {
        "club_badge_src": null,
        "entry": 6303496,
        "entry_name": "DarkLord",
        "event_total": 69,
        "has_played": true,
        "id": 49983010,
        "last_rank": 13754,
        "player_name": "Christoforos Demetriou",
        "rank": 8787,
        "rank_sort": 8811,
        "total": 2401
      },
      {
        "club_badge_src": null,
        "entry": 6363777,
        "entry_name": "Rice Rice Baby",
        "event_total": 61,
        "has_played": true,
        "id": 50600815,
        "last_rank": 9853,
        "player_name": "Jordan White",
        "rank": 8787,
        "rank_sort": 8812,
        "total": 2401
      },
      {
        "club_badge_src": null,
        "entry": 6625465,
        "entry_name": "Hugo",
        "event_total": 73,
        "has_played": true,
        "id": 52947355,
        "last_rank": 16029,
        "player_name": "Hugo Wong",
        "rank": 8787,
        "rank_sort": 8813,
        "total": 2401
      },
      {
        "club_badge_src": "https://fantasy.premierleague.com/gcs/plfpl-production-adobe-approved/plfpl-production/6795824/4970a12b-b721-45d8-a31b-752952c7e5d1.png",
        "entry": 6795824,
        "entry_name": "Corn on the Kobbie",
        "event_total": 48,
        "has_played": true,
        "id": 54422243,
        "last_rank": 5688,
        "player_name": "Cathal O\u2019Mahony",
        "rank": 8787,
        "rank_sort": 8814,
        "total": 2401
      },
      {
        "club_badge_src": null,
        "entry": 7413570,
        "entry_name": "Expected Toulouse",
        "event_total": 52,
        "has_played": true,
        "id": 60163847,
        "last_rank": 6752,
        "player_name": "Matthew Lee",
        "rank": 8787,
        "rank_sort": 8815,
        "total": 2401
      },
      {
        "club_badge_src": null,
        "entry": 7682951,
        "entry_name": "Hedley's Heroes",
        "event_total": 66,
        "has_played": true,
        "id": 63017680,
        "last_rank": 12200,
        "player_name": "James Hedley",
        "rank": 8787,
        "rank_sort": 8816,
        "total": 2401
      },
      {
        "club_badge_src": "https://fantasy.premierleague.com/gcs/plfpl-production-adobe-approved/plfpl-production/7755870/67983694-cf8c-4014-ae54-860fe5e077d9.png",
        "entry": 7755870,
        "entry_name": "Wirtz or Wirtzout u",
        "event_total": 39,
        "has_played": true,
        "id": 63675708,
        "last_rank": 3066,
        "player_name": "Bonne Stiksma",
        "rank": 8787,
        "rank_sort": 8817,
        "total": 2401
      },
      {
        "club_badge_src": null,
        "entry": 8817575,
        "entry_name": "Change Name",
        "event_total": 73,
        "has_played": true,
        "id": 73713106,
        "last_rank": 16062,
        "player_name": "Dara Broadberry",
        "rank": 8787,
        "rank_sort": 8818,
        "total": 2401
      },
      {
        "club_badge_src": null,
        "entry": 3257,
        "entry_name": "Charli xGx",
        "event_total": 62,
        "has_played": true,
        "id": 18411,
        "last_rank": 10346,
        "player_name": "Liam Bell",
        "rank": 8819,
        "rank_sort": 8819,
        "total": 2401
      },
      {
        "club_badge_src": null,
        "entry": 5492,
        "entry_name": "Alta FC",
        "event_total": 66,
        "has_played": true,
        "id": 31312,
        "last_rank": 12141,
        "player_name": "Luca Altamura",
        "rank": 8819,
        "rank_sort": 8820,
        "total": 2401
      },
      {
        "club_badge_src": null,
        "entry": 6900,
        "entry_name": "Analyst Iceberg",
        "event_total": 61,
        "has_played": true,
        "id": 39705,
        "last_rank": 9853,
        "player_name": "Soponwid Kittiyapichatkul",
        "rank": 8819,
        "rank_sort": 8821,
        "total": 2401
      },
      {
        "club_badge_src": null,
        "entry": 17691,
        "entry_name": "slot's machine",
        "event_total": 50,
        "has_played": true,
        "id": 109812,
        "last_rank": 6166,
        "player_name": "graham mercer",
        "rank": 8819,
        "rank_sort": 8822,
        "total": 2401
      },
      {
        "club_badge_src": null,
        "entry": 26252,
        "entry_name": "zahodna sunka",
        "event_total": 65,
        "has_played": true,
        "id": 165975,
        "last_rank": 11608,
        "player_name": "Matic Ravnikar",
        "rank": 8819,
        "rank_sort": 8823,
        "total": 2401
      },
      {
        "club_badge_src": null,
        "entry": 45065,
        "entry_name": "CHAMPION FC",
        "event_total": 48,
        "has_played": true,
        "id": 288986,
        "last_rank": 4704,
        "player_name": "Cindy Li-Slade",
        "rank": 8819,
        "rank_sort": 8824,
        "total": 2401
      },
      {
        "club_badge_src": "https://fantasy.premierleague.com/gcs/plfpl-production-adobe-approved/plfpl-production/47557/99868ee0-68ab-41a3-acaa-cf804f32230f.png",
        "entry": 47557,
        "entry_name": "overpaid",
        "event_total": 75,
        "has_played": true,
        "id": 305110,
        "last_rank": 17437,
        "player_name": "stephen foy",
        "rank": 8819,
        "rank_sort": 8825,
        "total": 2401
      },
      {
        "club_badge_src": "https://fantasy.premierleague.com/gcs/plfpl-production-adobe-approved/plfpl-production/56387/588258fa-6864-49f2-9234-c88294a5866f.png",
        "entry": 56387,
        "entry_name": "Caasi F.C",
        "event_total": 61,
        "has_played": true,
        "id": 363188,
        "last_rank": 9853,
        "player_name": "Isaac Ding",
        "rank": 8819,
        "rank_sort": 8826,
        "total": 2401
      },
      {
        "club_badge_src": null,
        "entry": 70859,
        "entry_name": "Wirtz Team Ever",
        "event_total": 56,
        "has_played": true,
        "id": 460162,
        "last_rank": 7959,
        "player_name": "Boom Saka Salah",
        "rank": 8819,
        "rank_sort": 8827,
        "total": 2401
      },
      {
        "club_badge_src": "https://fantasy.premierleague.com/gcs/plfpl-production-adobe-approved/plfpl-production/80569/b9e008f6-8b87-4510-8c09-aaa0c3751858.png",
        "entry": 80569,
        "entry_name": "Robust Rabbit",
        "event_total": 51,
        "has_played": true,
        "id": 524182,
        "last_rank": 6409,
        "player_name": "Daniel Bakalov",
        "rank": 8819,
        "rank_sort": 8828,
        "total": 2401
      },
      {
        "club_badge_src": null,
        "entry": 92263,
        "entry_name": "Me, Myself, Ndiaye",
        "event_total": 69,
        "has_played": true,
        "id": 602869,
        "last_rank": 13754,
        "player_name": "Callum Chafer",
        "rank": 8819,
        "rank_sort": 8829,
        "total": 2401
      },
      {
        "club_badge_src": null,
        "entry": 157376,
        "entry_name": "Jacks XI",
        "event_total": 73,
        "has_played": true,
        "id": 1035314,
        "last_rank": 16062,
        "player_name": "Jack Wright",
        "rank": 8819,
        "rank_sort": 8830,
        "total": 2401
      },
      {
        "club_badge_src": null,
        "entry": 169405,
        "entry_name": "Glock14\ufffd",
        "event_total": 52,
        "has_played": true,
        "id": 1119497,
        "last_rank": 6677,
        "player_name": "Tudor Paun",
        "rank": 8819,
        "rank_sort": 8831,
        "total": 2401
      },
      {
        "club_badge_src": "https://fantasy.premierleague.com/gcs/plfpl-production-adobe-approved/plfpl-production/226819/cf2083e7-cdaa-4d25-81fa-2503f961dee9.png",
        "entry": 226819,
        "entry_name": "Bianconeri",
        "event_total": 82,
        "has_played": true,
        "id": 1508817,
        "last_rank": 22376,
        "player_name": "Jovan Popovi\u0107",
        "rank": 8819,
        "rank_sort": 8832,
        "total": 2401
      },
      {
        "club_badge_src": null,
        "entry": 232390,
        "entry_name": "Jorge.PM",
        "event_total": 58,
        "has_played": true,
        "id": 1546100,
        "last_rank": 8758,
        "player_name": "fantasy thailand",
        "rank": 8819,
        "rank_sort": 8833,
        "total": 2401
      },
      {
        "club_badge_src": null,
        "entry": 242898,
        "entry_name": "Saka On This",
        "event_total": 62,
        "has_played": true,
        "id": 1617402,
        "last_rank": 10288,
        "player_name": "Frank Figliola",
        "rank": 8819,
        "rank_sort": 8834,
        "total": 2401
      },
      {
        "club_badge_src": null,
        "entry": 268637,
        "entry_name": "mvgcmj",
        "event_total": 66,
        "has_played": true,
        "id": 1787114,
        "last_rank": 12200,
        "player_name": "mvg cmj",
        "rank": 8819,
        "rank_sort": 8835,
        "total": 2401
      },
      {
        "club_badge_src": null,
        "entry": 269341,
        "entry_name": "The New MLS",
        "event_total": 58,
        "has_played": true,
        "id": 1791830,
        "last_rank": 8758,
        "player_name": "Harvey Sellick",
        "rank": 8819,
        "rank_sort": 8836,
        "total": 2401
      },
      {
        "club_badge_src": null,
        "entry": 290207,
        "entry_name": "Squidwirtz",
        "event_total": 69,
        "has_played": true,
        "id": 1934962,
        "last_rank": 13821,
        "player_name": "Nathan Williams",
        "rank": 8819,
        "rank_sort": 8837,
        "total": 2401
      },
      {
        "club_badge_src": null,
        "entry": 323727,
        "entry_name": "One More Hit",
        "event_total": 63,
        "has_played": true,
        "id": 2169343,
        "last_rank": 10748,
        "player_name": "Hans Kristian Ellingsen",
        "rank": 8819,
        "rank_sort": 8838,
        "total": 2401
      },
      {
        "club_badge_src": "https://fantasy.premierleague.com/gcs/plfpl-production-adobe-approved/plfpl-production/336761/42d51e55-aff1-409f-9940-40549ce0a28b.png",
        "entry": 336761,
        "entry_name": "Kinder Mbeumo",
        "event_total": 54,
        "has_played": true,
        "id": 2254570,
        "last_rank": 7333,
        "player_name": "Ben Roberts",
        "rank": 8819,
        "rank_sort": 8839,
        "total": 2401
      },
      {
        "club_badge_src": null,
        "entry": 342264,
        "entry_name": "de lap dance",
        "event_total": 66,
        "has_played": true,
        "id": 2290839,
        "last_rank": 12109,
        "player_name": "Daniel Shittu",
        "rank": 8819,
        "rank_sort": 8840,
        "total": 2401
      },
      {
        "club_badge_src": null,
        "entry": 364947,
        "entry_name": "Bardak",
        "event_total": 68,
        "has_played": true,
        "id": 2442388,
        "last_rank": 13257,
        "player_name": "Sergey Titov",
        "rank": 8819,
        "rank_sort": 8841,
        "total": 2401
      },
      {
        "club_badge_src": null,
        "entry": 383201,
        "entry_name": "*Eiran Kilpa-Veikot*",
        "event_total": 77,
        "has_played": true,
        "id": 2569802,
        "last_rank": 18790,
        "player_name": "Jouni Kettunen",
        "rank": 8819,
        "rank_sort": 8842,
        "total": 2401
      },
      {
        "club_badge_src": "https://fantasy.premierleague.com/gcs/plfpl-production-adobe-approved/plfpl-production/411170/cbb8391e-e113-45c0-9b46-3a73b9fcd3a7.png",
        "entry": 411170,
        "entry_name": "SIR MAHDI CHOUAYAKH",
        "event_total": 71,
        "has_played": true,
        "id": 2756970,
        "last_rank": 14832,
        "player_name": "Mahdi Chouayakh",
        "rank": 8819,
        "rank_sort": 8843,
        "total": 2401
      },
      {
        "club_badge_src": null,
        "entry": 413517,
        "entry_name": "FC Janpa",
        "event_total": 50,
        "has_played": true,
        "id": 2772292,
        "last_rank": 6166,
        "player_name": "Janne Jokinen",
        "rank": 8819,
        "rank_sort": 8844,
        "total": 2401
      },
      {
        "club_badge_src": null,
        "entry": 493048,
        "entry_name": "De\u00e1kv\u00e1r SC",
        "event_total": 54,
        "has_played": true,
        "id": 3309600,
        "last_rank": 7450,
        "player_name": "Benedek Nagy",
        "rank": 8819,
        "rank_sort": 8845,
        "total": 2401
      },
      {
        "club_badge_src": "https://fantasy.premierleague.com/gcs/plfpl-production-adobe-approved/plfpl-production/496201/a01ea4d2-064d-44e6-9114-cd49915b80ec.png",
        "entry": 496201,
        "entry_name": "Umapyoi Legends",
        "event_total": 56,
        "has_played": true,
        "id": 3330503,
        "last_rank": 8032,
        "player_name": "Alejandro Sarabia",
        "rank": 8819,
        "rank_sort": 8846,
        "total": 2401
      },
      {
        "club_badge_src": null,
        "entry": 502471,
        "entry_name": "Salah'd Dodgers",
        "event_total": 57,
        "has_played": true,
        "id": 3372682,
        "last_rank": 8382,
        "player_name": "Jason Mitchell",
        "rank": 8819,
        "rank_sort": 8847,
        "total": 2401
      },
      {
        "club_badge_src": null,
        "entry": 591373,
        "entry_name": "The Dairylea Dunkers",
        "event_total": 53,
        "has_played": true,
        "id": 3984272,
        "last_rank": 7059,
        "player_name": "Jack Dunkerley",
        "rank": 8819,
        "rank_sort": 8848,
        "total": 2401
      },
      {
        "club_badge_src": null,
        "entry": 605974,
        "entry_name": "Irvine Dynamo FC",
        "event_total": 43,
        "has_played": true,
        "id": 4091647,
        "last_rank": 4515,
        "player_name": "Walter Bithell",
        "rank": 8819,
        "rank_sort": 8849,
        "total": 2401
      },
      {
        "club_badge_src": null,
        "entry": 626601,
        "entry_name": "Tyler's Titans",
        "event_total": 47,
        "has_played": true,
        "id": 4234373,
        "last_rank": 5498,
        "player_name": "Lee Tyler",
        "rank": 8819,
        "rank_sort": 8850,
        "total": 2401
      }
    ]
  }
}