{
  "last_updated_data": "2026-05-24T23:28:17Z",
  "league": {
    "admin_entry": null,
    "closed": false,
    "code_privacy": "p",
    "created": "2025-07-20T23:14:33.933835Z",
    "cup_league": 2815434,
    "has_cup": true,
    "id": 314,
    "league_type": "s",
    "max_entries": null,
    "name": "Overall",
    "rank": null,
    "scoring": "c",
    "start_event": 1
  },
  "new_entries": {
    "has_next": false,
    "page": 1,
    "results": []
  },
  "standings": {
    "has_next": true,
    "page": 1492,
    "results": [
      {
        "club_badge_src": null,
        "entry": 7072259,
        "entry_name": "DropItLikeItsSlot",
        "event_total": 42,
        "has_played": true,
        "id": 56910118,
        "last_rank": 48642,
        "player_name": "Charlie Lane",
        "rank": 74308,
        "rank_sort": 74551,
        "total": 2338
      },
      {
        "club_badge_src": null,
        "entry": 7073723,
        "entry_name": "The Charlottes",
        "event_total": 59,
        "has_played": true,
        "id": 56924595,
        "last_rank": 80194,
        "player_name": "Charlotte Smith",
        "rank": 74308,
        "rank_sort": 74552,
        "total": 2338
      },
      {
        "club_badge_src": null,
        "entry": 7100544,
        "entry_name": "Winner FC",
        "event_total": 76,
        "has_played": true,
        "id": 57180586,
        "last_rank": 112169,
        "player_name": "Fabian Ng",
        "rank": 74308,
        "rank_sort": 74553,
        "total": 2338
      },
      {
        "club_badge_src": null,
        "entry": 7257097,
        "entry_name": "Rats \ufffd",
        "event_total": 59,
        "has_played": true,
        "id": 58672913,
        "last_rank": 79817,
        "player_name": "Joe Mwangi",
        "rank": 74308,
        "rank_sort": 74554,
        "total": 2338
      },
      {
        "club_badge_src": null,
        "entry": 7277722,
        "entry_name": "Tolso",
        "event_total": 58,
        "has_played": true,
        "id": 58866633,
        "last_rank": 77999,
        "player_name": "Luca Tolsa",
        "rank": 74308,
        "rank_sort": 74555,
        "total": 2338
      },
      {
        "club_badge_src": "https://fantasy.premierleague.com/gcs/plfpl-production-adobe-approved/plfpl-production/7293816/dc209783-b908-4da7-be55-b49dc811bb09.png",
        "entry": 7293816,
        "entry_name": "Ribban BOIS",
        "event_total": 60,
        "has_played": true,
        "id": 59018424,
        "last_rank": 82398,
        "player_name": "Viktor M\u00e5nsson",
        "rank": 74308,
        "rank_sort": 74556,
        "total": 2338
      },
      {
        "club_badge_src": "https://fantasy.premierleague.com/gcs/plfpl-production-adobe-approved/plfpl-production/7377591/066849f0-0ac2-47e0-baae-24f2d439c63d.png",
        "entry": 7377591,
        "entry_name": "Padavicari",
        "event_total": 55,
        "has_played": true,
        "id": 59804132,
        "last_rank": 70985,
        "player_name": "Tin Barisec",
        "rank": 74308,
        "rank_sort": 74557,
        "total": 2338
      },
      {
        "club_badge_src": null,
        "entry": 7390620,
        "entry_name": "ABCDE FC",
        "event_total": 44,
        "has_played": true,
        "id": 59925537,
        "last_rank": 51984,
        "player_name": "Joshua Charles",
        "rank": 74308,
        "rank_sort": 74558,
        "total": 2338
      },
      {
        "club_badge_src": null,
        "entry": 7411884,
        "entry_name": "tiko",
        "event_total": 60,
        "has_played": true,
        "id": 60141776,
        "last_rank": 82398,
        "player_name": "Omar Attiah",
        "rank": 74308,
        "rank_sort": 74559,
        "total": 2338
      },
      {
        "club_badge_src": "https://fantasy.premierleague.com/gcs/plfpl-production-adobe-approved/plfpl-production/7570367/11d16fd9-aef4-45ee-a64b-c455d7b78693.png",
        "entry": 7570367,
        "entry_name": "ShebLo",
        "event_total": 69,
        "has_played": true,
        "id": 61995717,
        "last_rank": 104388,
        "player_name": "Amir Shebl",
        "rank": 74308,
        "rank_sort": 74560,
        "total": 2338
      },
      {
        "club_badge_src": null,
        "entry": 7585974,
        "entry_name": "Boujee United",
        "event_total": 52,
        "has_played": true,
        "id": 62137420,
        "last_rank": 65796,
        "player_name": "Bella Dee",
        "rank": 74308,
        "rank_sort": 74561,
        "total": 2338
      },
      {
        "club_badge_src": null,
        "entry": 7588042,
        "entry_name": "The Candidates",
        "event_total": 50,
        "has_played": true,
        "id": 62157153,
        "last_rank": 55014,
        "player_name": "Olov Hallberg",
        "rank": 74308,
        "rank_sort": 74562,
        "total": 2338
      },
      {
        "club_badge_src": null,
        "entry": 7795741,
        "entry_name": "Smith Rowe Your Boat",
        "event_total": 52,
        "has_played": true,
        "id": 64035060,
        "last_rank": 65475,
        "player_name": "Alex Parker",
        "rank": 74308,
        "rank_sort": 74563,
        "total": 2338
      },
      {
        "club_badge_src": null,
        "entry": 7837744,
        "entry_name": "OoO",
        "event_total": 58,
        "has_played": true,
        "id": 64420926,
        "last_rank": 68957,
        "player_name": "L D",
        "rank": 74308,
        "rank_sort": 74564,
        "total": 2338
      },
      {
        "club_badge_src": null,
        "entry": 8028477,
        "entry_name": "Der Mannschaft",
        "event_total": 52,
        "has_played": true,
        "id": 66141657,
        "last_rank": 65796,
        "player_name": "Ahmed Fareed",
        "rank": 74308,
        "rank_sort": 74565,
        "total": 2338
      },
      {
        "club_badge_src": null,
        "entry": 8158110,
        "entry_name": "Smokin Aces",
        "event_total": 59,
        "has_played": true,
        "id": 67344158,
        "last_rank": 80194,
        "player_name": "Deepak Garodia",
        "rank": 74308,
        "rank_sort": 74566,
        "total": 2338
      },
      {
        "club_badge_src": null,
        "entry": 8164837,
        "entry_name": "Yoro Wizard Harry",
        "event_total": 58,
        "has_played": true,
        "id": 67406576,
        "last_rank": 77999,
        "player_name": "James Thomson",
        "rank": 74308,
        "rank_sort": 74567,
        "total": 2338
      },
      {
        "club_badge_src": null,
        "entry": 8258426,
        "entry_name": "Bil-team",
        "event_total": 50,
        "has_played": true,
        "id": 68305298,
        "last_rank": 62223,
        "player_name": "Bilel BOUAZIZ",
        "rank": 74308,
        "rank_sort": 74568,
        "total": 2338
      },
      {
        "club_badge_src": null,
        "entry": 8316480,
        "entry_name": "ap",
        "event_total": 51,
        "has_played": true,
        "id": 68883693,
        "last_rank": 64190,
        "player_name": "Angelo Panayiotou",
        "rank": 74308,
        "rank_sort": 74569,
        "total": 2338
      },
      {
        "club_badge_src": null,
        "entry": 8337219,
        "entry_name": "Kudos to you",
        "event_total": 46,
        "has_played": true,
        "id": 69082632,
        "last_rank": 55311,
        "player_name": "Daniel Hayes",
        "rank": 74308,
        "rank_sort": 74570,
        "total": 2338
      },
      {
        "club_badge_src": null,
        "entry": 8713542,
        "entry_name": "Robot FC",
        "event_total": 51,
        "has_played": true,
        "id": 72710360,
        "last_rank": 64005,
        "player_name": "Abdulla Mahmood",
        "rank": 74308,
        "rank_sort": 74571,
        "total": 2338
      },
      {
        "club_badge_src": null,
        "entry": 8870857,
        "entry_name": "Gyok Tuah",
        "event_total": 56,
        "has_played": true,
        "id": 74226941,
        "last_rank": 73720,
        "player_name": "Odhran Doyle",
        "rank": 74308,
        "rank_sort": 74572,
        "total": 2338
      },
      {
        "club_badge_src": null,
        "entry": 9105496,
        "entry_name": "verrax",
        "event_total": 68,
        "has_played": true,
        "id": 76505876,
        "last_rank": 101419,
        "player_name": "bouajila moheddine",
        "rank": 74308,
        "rank_sort": 74573,
        "total": 2338
      },
      {
        "club_badge_src": null,
        "entry": 9209428,
        "entry_name": "Hicko United",
        "event_total": 82,
        "has_played": true,
        "id": 77527219,
        "last_rank": 130073,
        "player_name": "Chris Hickson",
        "rank": 74308,
        "rank_sort": 74574,
        "total": 2338
      },
      {
        "club_badge_src": null,
        "entry": 9309380,
        "entry_name": "milanooooo",
        "event_total": 67,
        "has_played": true,
        "id": 78499407,
        "last_rank": 99296,
        "player_name": "Poya Farah",
        "rank": 74308,
        "rank_sort": 74575,
        "total": 2338
      },
      {
        "club_badge_src": null,
        "entry": 9405275,
        "entry_name": "yesh",
        "event_total": 72,
        "has_played": true,
        "id": 79423663,
        "last_rank": 112169,
        "player_name": "Sdarh bs Ezz",
        "rank": 74308,
        "rank_sort": 74576,
        "total": 2338
      },
      {
        "club_badge_src": null,
        "entry": 9450193,
        "entry_name": "Toblarones",
        "event_total": 62,
        "has_played": true,
        "id": 79850171,
        "last_rank": 87074,
        "player_name": "Tal Bugai",
        "rank": 74308,
        "rank_sort": 74577,
        "total": 2338
      },
      {
        "club_badge_src": null,
        "entry": 9481430,
        "entry_name": "EBG Warriors",
        "event_total": 70,
        "has_played": true,
        "id": 80130283,
        "last_rank": 107485,
        "player_name": "Ewan Goudie",
        "rank": 74308,
        "rank_sort": 74578,
        "total": 2338
      },
      {
        "club_badge_src": null,
        "entry": 2986,
        "entry_name": "Zeven United",
        "event_total": 53,
        "has_played": true,
        "id": 16828,
        "last_rank": 60462,
        "player_name": "Narongchai Bunyutitumkul",
        "rank": 74579,
        "rank_sort": 74579,
        "total": 2338
      },
      {
        "club_badge_src": "https://fantasy.premierleague.com/gcs/plfpl-production-adobe-approved/plfpl-production/3280/d5ba5244-fabf-4b7b-ac22-44a53ea8eacd.png",
        "entry": 3280,
        "entry_name": "Headington Nowhere",
        "event_total": 59,
        "has_played": true,
        "id": 18548,
        "last_rank": 71713,
        "player_name": "James Beard",
        "rank": 74579,
        "rank_sort": 74580,
        "total": 2338
      },
      {
        "club_badge_src": null,
        "entry": 3840,
        "entry_name": "Alisson Wonderland",
        "event_total": 64,
        "has_played": true,
        "id": 21770,
        "last_rank": 82398,
        "player_name": "Sanish Ambekar",
        "rank": 74579,
        "rank_sort": 74581,
        "total": 2338
      },
      {
        "club_badge_src": null,
        "entry": 4077,
        "entry_name": "Czarki",
        "event_total": 67,
        "has_played": true,
        "id": 23133,
        "last_rank": 89055,
        "player_name": "Piotr Czekaj",
        "rank": 74579,
        "rank_sort": 74582,
        "total": 2338
      },
      {
        "club_badge_src": "https://fantasy.premierleague.com/gcs/plfpl-production-adobe-approved/plfpl-production/5612/a3a1913e-a936-4414-91c5-1bebb29a362f.png",
        "entry": 5612,
        "entry_name": "Cityzen XI",
        "event_total": 49,
        "has_played": true,
        "id": 32009,
        "last_rank": 60462,
        "player_name": "ackshat deoli",
        "rank": 74579,
        "rank_sort": 74583,
        "total": 2338
      },
      {
        "club_badge_src": null,
        "entry": 6708,
        "entry_name": "ToonChog",
        "event_total": 64,
        "has_played": true,
        "id": 38556,
        "last_rank": 91835,
        "player_name": "Al Charnley",
        "rank": 74579,
        "rank_sort": 74584,
        "total": 2338
      },
      {
        "club_badge_src": "https://fantasy.premierleague.com/gcs/plfpl-production-adobe-approved/plfpl-production/7071/f155d7a5-6b5c-44c3-afab-4a56953b90f4.png",
        "entry": 7071,
        "entry_name": "Knightmare on E5",
        "event_total": 56,
        "has_played": true,
        "id": 40725,
        "last_rank": 65796,
        "player_name": "Emilio --SnakeFpl-",
        "rank": 74579,
        "rank_sort": 74585,
        "total": 2338
      },
      {
        "club_badge_src": null,
        "entry": 10048,
        "entry_name": "Live and Let Kai",
        "event_total": 66,
        "has_played": true,
        "id": 59311,
        "last_rank": 97096,
        "player_name": "Dan Valen",
        "rank": 74579,
        "rank_sort": 74586,
        "total": 2338
      },
      {
        "club_badge_src": null,
        "entry": 11382,
        "entry_name": "Marcus's XI",
        "event_total": 69,
        "has_played": true,
        "id": 67653,
        "last_rank": 104712,
        "player_name": "Marcus Roberts",
        "rank": 74579,
        "rank_sort": 74587,
        "total": 2338
      },
      {
        "club_badge_src": "https://fantasy.premierleague.com/gcs/plfpl-production-adobe-approved/plfpl-production/13564/0ae70370-76f2-428e-90d0-25e33ffa3c7f.png",
        "entry": 13564,
        "entry_name": "Hula Hoopers",
        "event_total": 34,
        "has_played": true,
        "id": 82025,
        "last_rank": 38163,
        "player_name": "Andrew Tavey",
        "rank": 74579,
        "rank_sort": 74588,
        "total": 2338
      },
      {
        "club_badge_src": null,
        "entry": 16210,
        "entry_name": "AJ Red Devils",
        "event_total": 61,
        "has_played": true,
        "id": 99991,
        "last_rank": 84980,
        "player_name": "Arpit Jain",
        "rank": 74579,
        "rank_sort": 74589,
        "total": 2338
      },
      {
        "club_badge_src": null,
        "entry": 27297,
        "entry_name": "The Viper",
        "event_total": 60,
        "has_played": true,
        "id": 172540,
        "last_rank": 73720,
        "player_name": "Mohamed Safwat",
        "rank": 74579,
        "rank_sort": 74590,
        "total": 2338
      },
      {
        "club_badge_src": "https://fantasy.premierleague.com/gcs/plfpl-production-adobe-approved/plfpl-production/41674/b7384ebb-b21a-4712-8637-1baa32e3948e.png",
        "entry": 41674,
        "entry_name": "Amir_jasim",
        "event_total": 58,
        "has_played": true,
        "id": 267028,
        "last_rank": 69323,
        "player_name": "AMIR JASSEM",
        "rank": 74579,
        "rank_sort": 74591,
        "total": 2338
      },
      {
        "club_badge_src": null,
        "entry": 52211,
        "entry_name": "Cash me if you can",
        "event_total": 66,
        "has_played": true,
        "id": 335757,
        "last_rank": 96777,
        "player_name": "James Cox",
        "rank": 74579,
        "rank_sort": 74592,
        "total": 2338
      },
      {
        "club_badge_src": null,
        "entry": 73370,
        "entry_name": "Wirtz Nightmare",
        "event_total": 69,
        "has_played": true,
        "id": 476912,
        "last_rank": 104712,
        "player_name": "Liam Mcintosh",
        "rank": 74579,
        "rank_sort": 74593,
        "total": 2338
      },
      {
        "club_badge_src": "https://fantasy.premierleague.com/gcs/plfpl-production-adobe-approved/plfpl-production/74660/2193ac4f-d452-4c29-977d-5faf51388a32.png",
        "entry": 74660,
        "entry_name": "Jeene de Zidane",
        "event_total": 68,
        "has_played": true,
        "id": 485296,
        "last_rank": 91466,
        "player_name": "Mayank Sharma",
        "rank": 74579,
        "rank_sort": 74594,
        "total": 2338
      },
      {
        "club_badge_src": null,
        "entry": 74975,
        "entry_name": "ISAK NEWTON",
        "event_total": 68,
        "has_played": true,
        "id": 487408,
        "last_rank": 101419,
        "player_name": "Sam Aston",
        "rank": 74579,
        "rank_sort": 74595,
        "total": 2338
      },
      {
        "club_badge_src": "https://fantasy.premierleague.com/gcs/plfpl-production-adobe-approved/plfpl-production/77560/163c6cd1-b1ad-4a24-947c-ed0a8b562fff.png",
        "entry": 77560,
        "entry_name": "Bassit\u2019s \u26bd\ufe0f\ufffd\ufe0f",
        "event_total": 56,
        "has_played": true,
        "id": 504139,
        "last_rank": 65796,
        "player_name": "Ehab Bassit",
        "rank": 74579,
        "rank_sort": 74596,
        "total": 2338
      },
      {
        "club_badge_src": null,
        "entry": 82661,
        "entry_name": "Moyseh's Men",
        "event_total": 60,
        "has_played": true,
        "id": 537935,
        "last_rank": 82664,
        "player_name": "jordan smith",
        "rank": 74579,
        "rank_sort": 74597,
        "total": 2338
      },
      {
        "club_badge_src": null,
        "entry": 85295,
        "entry_name": "alifs",
        "event_total": 65,
        "has_played": true,
        "id": 555423,
        "last_rank": 84731,
        "player_name": "Ali Ismail",
        "rank": 74579,
        "rank_sort": 74598,
        "total": 2338
      },
      {
        "club_badge_src": null,
        "entry": 95554,
        "entry_name": "Infamous XI",
        "event_total": 56,
        "has_played": true,
        "id": 624321,
        "last_rank": 73975,
        "player_name": "Charles Uzodiagu",
        "rank": 74579,
        "rank_sort": 74599,
        "total": 2338
      },
      {
        "club_badge_src": null,
        "entry": 96068,
        "entry_name": "Lag1",
        "event_total": 59,
        "has_played": true,
        "id": 627599,
        "last_rank": 80465,
        "player_name": "Mattias Holmen",
        "rank": 74579,
        "rank_sort": 74600,
        "total": 2338
      }
    ]
  }
}