{
  "last_updated_data": "2026-05-24T23:28:17Z",
  "league": {
    "admin_entry": null,
    "closed": false,
    "code_privacy": "p",
    "created": "2025-07-20T23:14:33.933835Z",
    "cup_league": 2815434,
    "has_cup": true,
    "id": 314,
    "league_type": "s",
    "max_entries": null,
    "name": "Overall",
    "rank": null,
    "scoring": "c",
    "start_event": 1
  },
  "new_entries": {
    "has_next": false,
    "page": 1,
    "results": []
  },
  "standings": {
    "has_next": true,
    "page": 807,
    "results": [
      {
        "club_badge_src": null,
        "entry": 6827963,
        "entry_name": "Dunk and Disorderly",
        "event_total": 59,
        "has_played": true,
        "id": 54691072,
        "last_rank": 42940,
        "player_name": "Tim Jamieson",
        "rank": 40097,
        "rank_sort": 40301,
        "total": 2359
      },
      {
        "club_badge_src": null,
        "entry": 6988646,
        "entry_name": "Prezesinho",
        "event_total": 56,
        "has_played": true,
        "id": 56098008,
        "last_rank": 39023,
        "player_name": "Pablo Prezesinho",
        "rank": 40097,
        "rank_sort": 40302,
        "total": 2359
      },
      {
        "club_badge_src": null,
        "entry": 7117937,
        "entry_name": "The load bearers",
        "event_total": 41,
        "has_played": true,
        "id": 57346970,
        "last_rank": 23656,
        "player_name": "David Uk",
        "rank": 40097,
        "rank_sort": 40303,
        "total": 2359
      },
      {
        "club_badge_src": "https://fantasy.premierleague.com/gcs/plfpl-production-adobe-approved/plfpl-production/7231525/4a555605-d096-4a8b-9407-1a40224ec10c.png",
        "entry": 7231525,
        "entry_name": "Romero & Juliet",
        "event_total": 45,
        "has_played": true,
        "id": 58429308,
        "last_rank": 23341,
        "player_name": "Julie Blystad",
        "rank": 40097,
        "rank_sort": 40304,
        "total": 2359
      },
      {
        "club_badge_src": null,
        "entry": 7233748,
        "entry_name": "Fer love nor money",
        "event_total": 67,
        "has_played": true,
        "id": 58449850,
        "last_rank": 55014,
        "player_name": "Paul Burden",
        "rank": 40097,
        "rank_sort": 40305,
        "total": 2359
      },
      {
        "club_badge_src": "https://fantasy.premierleague.com/gcs/plfpl-production-adobe-approved/plfpl-production/7333465/e68aa549-f95b-4927-8db2-ed463bab6a4f.png",
        "entry": 7333465,
        "entry_name": "ImABaleba",
        "event_total": 59,
        "has_played": true,
        "id": 59390343,
        "last_rank": 43168,
        "player_name": "Seb Barnes",
        "rank": 40097,
        "rank_sort": 40306,
        "total": 2359
      },
      {
        "club_badge_src": null,
        "entry": 7384796,
        "entry_name": "MahesLeftHook",
        "event_total": 61,
        "has_played": true,
        "id": 59870745,
        "last_rank": 45416,
        "player_name": "Daniel Kane",
        "rank": 40097,
        "rank_sort": 40307,
        "total": 2359
      },
      {
        "club_badge_src": null,
        "entry": 7394055,
        "entry_name": "Hishko",
        "event_total": 35,
        "has_played": true,
        "id": 59958124,
        "last_rank": 18985,
        "player_name": "Hisham Suliman",
        "rank": 40097,
        "rank_sort": 40308,
        "total": 2359
      },
      {
        "club_badge_src": null,
        "entry": 7828450,
        "entry_name": "Livin' Saliba Loca",
        "event_total": 59,
        "has_played": true,
        "id": 64331305,
        "last_rank": 42648,
        "player_name": "Jordan Burke",
        "rank": 40097,
        "rank_sort": 40309,
        "total": 2359
      },
      {
        "club_badge_src": "https://fantasy.premierleague.com/gcs/plfpl-production-adobe-approved/plfpl-production/7905034/9894e392-6593-4a08-b305-e09bf9c9cc64.png",
        "entry": 7905034,
        "entry_name": "Jhola Gang FC",
        "event_total": 59,
        "has_played": true,
        "id": 65032681,
        "last_rank": 42506,
        "player_name": "Dhiraj Basnet",
        "rank": 40097,
        "rank_sort": 40310,
        "total": 2359
      },
      {
        "club_badge_src": null,
        "entry": 8082371,
        "entry_name": "Willi Alban",
        "event_total": 55,
        "has_played": true,
        "id": 66637455,
        "last_rank": 37822,
        "player_name": "Alban Lewis",
        "rank": 40097,
        "rank_sort": 40311,
        "total": 2359
      },
      {
        "club_badge_src": "https://fantasy.premierleague.com/gcs/plfpl-production-adobe-approved/plfpl-production/8154126/513426e6-00b8-4174-8abb-c4161eb7933f.png",
        "entry": 8154126,
        "entry_name": "Apexx world",
        "event_total": 47,
        "has_played": true,
        "id": 67307246,
        "last_rank": 28906,
        "player_name": "Apexx World",
        "rank": 40097,
        "rank_sort": 40312,
        "total": 2359
      },
      {
        "club_badge_src": "https://fantasy.premierleague.com/gcs/plfpl-production-adobe-approved/plfpl-production/8403981/951fcd48-c35a-4d9d-ad60-00bf9d516c16.png",
        "entry": 8403981,
        "entry_name": "Pops in the box",
        "event_total": 55,
        "has_played": true,
        "id": 69715185,
        "last_rank": 37822,
        "player_name": "Paola Buccinna",
        "rank": 40097,
        "rank_sort": 40313,
        "total": 2359
      },
      {
        "club_badge_src": null,
        "entry": 8514695,
        "entry_name": "Yasminelbanna*",
        "event_total": 53,
        "has_played": true,
        "id": 70780144,
        "last_rank": 35424,
        "player_name": "Yasmine Elbanna",
        "rank": 40097,
        "rank_sort": 40314,
        "total": 2359
      },
      {
        "club_badge_src": null,
        "entry": 8554377,
        "entry_name": "\u062d\u062f \u0642\u0627\u0644 \u0627\u0646\u0627",
        "event_total": 59,
        "has_played": true,
        "id": 71161590,
        "last_rank": 42434,
        "player_name": "Yahia Ahmed",
        "rank": 40097,
        "rank_sort": 40315,
        "total": 2359
      },
      {
        "club_badge_src": null,
        "entry": 8619809,
        "entry_name": "Ars",
        "event_total": 60,
        "has_played": true,
        "id": 71790655,
        "last_rank": 44303,
        "player_name": "Abdushukur Muydinov",
        "rank": 40097,
        "rank_sort": 40316,
        "total": 2359
      },
      {
        "club_badge_src": null,
        "entry": 8637203,
        "entry_name": "asem",
        "event_total": 62,
        "has_played": true,
        "id": 71959608,
        "last_rank": 47163,
        "player_name": "Asem Ahmed",
        "rank": 40097,
        "rank_sort": 40317,
        "total": 2359
      },
      {
        "club_badge_src": null,
        "entry": 8791182,
        "entry_name": "Kinder Mbeumo",
        "event_total": 49,
        "has_played": true,
        "id": 73459525,
        "last_rank": 30727,
        "player_name": "Vihaan Raval",
        "rank": 40097,
        "rank_sort": 40318,
        "total": 2359
      },
      {
        "club_badge_src": null,
        "entry": 8963640,
        "entry_name": "Mancunian is Red",
        "event_total": 75,
        "has_played": true,
        "id": 75130767,
        "last_rank": 68624,
        "player_name": "Irik Kentona",
        "rank": 40097,
        "rank_sort": 40319,
        "total": 2359
      },
      {
        "club_badge_src": "https://fantasy.premierleague.com/gcs/plfpl-production-adobe-approved/plfpl-production/9059311/90022929-72db-4248-862e-c8cc712c2739.png",
        "entry": 9059311,
        "entry_name": "Noobmaster69",
        "event_total": 65,
        "has_played": true,
        "id": 76055507,
        "last_rank": 51720,
        "player_name": "Victor Babalola",
        "rank": 40097,
        "rank_sort": 40320,
        "total": 2359
      },
      {
        "club_badge_src": null,
        "entry": 9111288,
        "entry_name": "Quidditch Rejects",
        "event_total": 69,
        "has_played": true,
        "id": 76562102,
        "last_rank": 58388,
        "player_name": "Ella Atkins",
        "rank": 40097,
        "rank_sort": 40321,
        "total": 2359
      },
      {
        "club_badge_src": null,
        "entry": 9367860,
        "entry_name": "maxipaskat",
        "event_total": 49,
        "has_played": true,
        "id": 79060044,
        "last_rank": 31125,
        "player_name": "Pyry Kyr\u00f6joki",
        "rank": 40097,
        "rank_sort": 40322,
        "total": 2359
      },
      {
        "club_badge_src": "https://fantasy.premierleague.com/gcs/plfpl-production-adobe-approved/plfpl-production/3367/d0b7cef0-deb6-47c1-8d64-22f44fbb8bab.png",
        "entry": 3367,
        "entry_name": "Mr.Fantastic",
        "event_total": 73,
        "has_played": true,
        "id": 19063,
        "last_rank": 66057,
        "player_name": "Lefteris Politis",
        "rank": 40323,
        "rank_sort": 40323,
        "total": 2359
      },
      {
        "club_badge_src": null,
        "entry": 10802,
        "entry_name": "FC Herrings",
        "event_total": 54,
        "has_played": true,
        "id": 63974,
        "last_rank": 27770,
        "player_name": "Piotrek \u015aledziewski",
        "rank": 40323,
        "rank_sort": 40324,
        "total": 2359
      },
      {
        "club_badge_src": null,
        "entry": 19760,
        "entry_name": "Always on targett",
        "event_total": 60,
        "has_played": true,
        "id": 122980,
        "last_rank": 44525,
        "player_name": "Star Wars",
        "rank": 40323,
        "rank_sort": 40325,
        "total": 2359
      },
      {
        "club_badge_src": null,
        "entry": 20545,
        "entry_name": "@FPL_Heisenberg",
        "event_total": 72,
        "has_played": true,
        "id": 128294,
        "last_rank": 64005,
        "player_name": "Wes Prickett",
        "rank": 40323,
        "rank_sort": 40326,
        "total": 2359
      },
      {
        "club_badge_src": null,
        "entry": 22023,
        "entry_name": "Real Bl\u00e5vitt",
        "event_total": 44,
        "has_played": true,
        "id": 138227,
        "last_rank": 22685,
        "player_name": "Maui Lolohea",
        "rank": 40323,
        "rank_sort": 40327,
        "total": 2359
      },
      {
        "club_badge_src": null,
        "entry": 32667,
        "entry_name": "Kai Havertz",
        "event_total": 64,
        "has_played": true,
        "id": 207913,
        "last_rank": 50199,
        "player_name": "Maung Thant",
        "rank": 40323,
        "rank_sort": 40328,
        "total": 2359
      },
      {
        "club_badge_src": "https://fantasy.premierleague.com/gcs/plfpl-production-adobe-approved/plfpl-production/33909/b57457c1-d6d0-4f04-a81a-2ed4b5f4add7.png",
        "entry": 33909,
        "entry_name": "Borrie Kickers",
        "event_total": 68,
        "has_played": true,
        "id": 216506,
        "last_rank": 56369,
        "player_name": "Rasmus Norlander",
        "rank": 40323,
        "rank_sort": 40329,
        "total": 2359
      },
      {
        "club_badge_src": null,
        "entry": 35309,
        "entry_name": "HPT HASON",
        "event_total": 60,
        "has_played": true,
        "id": 225919,
        "last_rank": 38774,
        "player_name": "-hadar hason--",
        "rank": 40323,
        "rank_sort": 40330,
        "total": 2359
      },
      {
        "club_badge_src": null,
        "entry": 36246,
        "entry_name": "Huijsen Sauce",
        "event_total": 68,
        "has_played": true,
        "id": 231981,
        "last_rank": 49880,
        "player_name": "Wayne Gardiner",
        "rank": 40323,
        "rank_sort": 40331,
        "total": 2359
      },
      {
        "club_badge_src": null,
        "entry": 44752,
        "entry_name": "Allora",
        "event_total": 51,
        "has_played": true,
        "id": 286909,
        "last_rank": 33332,
        "player_name": "\u00de\u00f3rir Oddsson",
        "rank": 40323,
        "rank_sort": 40332,
        "total": 2359
      },
      {
        "club_badge_src": null,
        "entry": 46101,
        "entry_name": "Palmer Violets",
        "event_total": 60,
        "has_played": true,
        "id": 295646,
        "last_rank": 39023,
        "player_name": "Matt Davies",
        "rank": 40323,
        "rank_sort": 40333,
        "total": 2359
      },
      {
        "club_badge_src": null,
        "entry": 55925,
        "entry_name": "Sou\u010dek Yo'self",
        "event_total": 72,
        "has_played": true,
        "id": 360167,
        "last_rank": 63724,
        "player_name": "Jamie Newman",
        "rank": 40323,
        "rank_sort": 40334,
        "total": 2359
      },
      {
        "club_badge_src": null,
        "entry": 63232,
        "entry_name": "KlichBait",
        "event_total": 65,
        "has_played": true,
        "id": 407899,
        "last_rank": 40036,
        "player_name": "Michal Skowron",
        "rank": 40323,
        "rank_sort": 40335,
        "total": 2359
      },
      {
        "club_badge_src": "https://fantasy.premierleague.com/gcs/plfpl-production-adobe-approved/plfpl-production/65385/27498634-5637-4a71-98c1-a040fe1ce01d.png",
        "entry": 65385,
        "entry_name": "Kinder Mbeumo",
        "event_total": 66,
        "has_played": true,
        "id": 422073,
        "last_rank": 53621,
        "player_name": "Rowan Fawcett",
        "rank": 40323,
        "rank_sort": 40336,
        "total": 2359
      },
      {
        "club_badge_src": null,
        "entry": 85081,
        "entry_name": "Bread and Rutter",
        "event_total": 54,
        "has_played": true,
        "id": 554018,
        "last_rank": 36831,
        "player_name": "Jay Legg",
        "rank": 40323,
        "rank_sort": 40337,
        "total": 2359
      },
      {
        "club_badge_src": null,
        "entry": 103120,
        "entry_name": "Football not Saka",
        "event_total": 61,
        "has_played": true,
        "id": 672917,
        "last_rank": 45927,
        "player_name": "Faure Heymans",
        "rank": 40323,
        "rank_sort": 40338,
        "total": 2359
      },
      {
        "club_badge_src": "https://fantasy.premierleague.com/gcs/plfpl-production-adobe-approved/plfpl-production/107094/a7b806a2-e77b-4d74-a81f-179e15b16545.png",
        "entry": 107094,
        "entry_name": "Wharton Wanderers",
        "event_total": 52,
        "has_played": true,
        "id": 698178,
        "last_rank": 34578,
        "player_name": "Rahul Rajasekharan",
        "rank": 40323,
        "rank_sort": 40339,
        "total": 2359
      },
      {
        "club_badge_src": null,
        "entry": 111773,
        "entry_name": "Jorell",
        "event_total": 69,
        "has_played": true,
        "id": 728782,
        "last_rank": 58388,
        "player_name": "Jordan Howell",
        "rank": 40323,
        "rank_sort": 40340,
        "total": 2359
      },
      {
        "club_badge_src": null,
        "entry": 115217,
        "entry_name": "Bukit Tunggal FC",
        "event_total": 56,
        "has_played": true,
        "id": 751883,
        "last_rank": 38774,
        "player_name": "Muhd Zulhairie",
        "rank": 40323,
        "rank_sort": 40341,
        "total": 2359
      },
      {
        "club_badge_src": null,
        "entry": 126302,
        "entry_name": "Sorry Nic Jackson",
        "event_total": 68,
        "has_played": true,
        "id": 823576,
        "last_rank": 56708,
        "player_name": "Samuel Baker",
        "rank": 40323,
        "rank_sort": 40342,
        "total": 2359
      },
      {
        "club_badge_src": "https://fantasy.premierleague.com/gcs/plfpl-production-adobe-approved/plfpl-production/142505/5778cfac-1210-4e12-9e5b-419494031266.png",
        "entry": 142505,
        "entry_name": "ManTiger United",
        "event_total": 61,
        "has_played": true,
        "id": 931749,
        "last_rank": 40297,
        "player_name": "marco maddalena",
        "rank": 40323,
        "rank_sort": 40343,
        "total": 2359
      },
      {
        "club_badge_src": null,
        "entry": 144524,
        "entry_name": "Arne's Slot Machine",
        "event_total": 66,
        "has_played": true,
        "id": 946072,
        "last_rank": 53345,
        "player_name": "Jack Murphy",
        "rank": 40323,
        "rank_sort": 40344,
        "total": 2359
      },
      {
        "club_badge_src": null,
        "entry": 146038,
        "entry_name": "Atletico Amber Leaf",
        "event_total": 72,
        "has_played": true,
        "id": 956573,
        "last_rank": 63724,
        "player_name": "Roy Flynn",
        "rank": 40323,
        "rank_sort": 40345,
        "total": 2359
      },
      {
        "club_badge_src": null,
        "entry": 150571,
        "entry_name": "Hammer Time",
        "event_total": 60,
        "has_played": true,
        "id": 987557,
        "last_rank": 44525,
        "player_name": "paul hamilton",
        "rank": 40323,
        "rank_sort": 40346,
        "total": 2359
      },
      {
        "club_badge_src": null,
        "entry": 173444,
        "entry_name": "FPL dream team",
        "event_total": 58,
        "has_played": true,
        "id": 1145480,
        "last_rank": 36624,
        "player_name": "Remco Van De Mond",
        "rank": 40323,
        "rank_sort": 40347,
        "total": 2359
      },
      {
        "club_badge_src": null,
        "entry": 179819,
        "entry_name": "Hooligans",
        "event_total": 75,
        "has_played": true,
        "id": 1186580,
        "last_rank": 54667,
        "player_name": "Rohit Shrestha",
        "rank": 40323,
        "rank_sort": 40348,
        "total": 2359
      },
      {
        "club_badge_src": "https://fantasy.premierleague.com/gcs/plfpl-production-adobe-approved/plfpl-production/198169/c87989b6-e09e-4f3a-9b1e-4d59cf91c549.png",
        "entry": 198169,
        "entry_name": "Raya Nephew",
        "event_total": 43,
        "has_played": true,
        "id": 1315073,
        "last_rank": 25330,
        "player_name": "Nathan Grant",
        "rank": 40323,
        "rank_sort": 40349,
        "total": 2359
      },
      {
        "club_badge_src": null,
        "entry": 208452,
        "entry_name": "mati",
        "event_total": 45,
        "has_played": true,
        "id": 1385907,
        "last_rank": 27203,
        "player_name": "Mateusz Wojtys",
        "rank": 40323,
        "rank_sort": 40350,
        "total": 2359
      }
    ]
  }
}