{
  "last_updated_data": "2026-05-24T23:28:17Z",
  "league": {
    "admin_entry": null,
    "closed": false,
    "code_privacy": "p",
    "created": "2025-07-20T23:14:33.933835Z",
    "cup_league": 2815434,
    "has_cup": true,
    "id": 314,
    "league_type": "s",
    "max_entries": null,
    "name": "Overall",
    "rank": null,
    "scoring": "c",
    "start_event": 1
  },
  "new_entries": {
    "has_next": false,
    "page": 1,
    "results": []
  },
  "standings": {
    "has_next": true,
    "page": 242,
    "results": [
      {
        "club_badge_src": null,
        "entry": 6238946,
        "entry_name": "peteerpan10",
        "event_total": 57,
        "has_played": true,
        "id": 49379800,
        "last_rank": 9792,
        "player_name": "Petr Jaro\u0148",
        "rank": 12035,
        "rank_sort": 12051,
        "total": 2394
      },
      {
        "club_badge_src": null,
        "entry": 6530887,
        "entry_name": "Drittspill",
        "event_total": 64,
        "has_played": true,
        "id": 52097011,
        "last_rank": 13060,
        "player_name": "J\u00f8rgen Tindeland",
        "rank": 12035,
        "rank_sort": 12052,
        "total": 2394
      },
      {
        "club_badge_src": null,
        "entry": 269475,
        "entry_name": "Beef Cherki",
        "event_total": 75,
        "has_played": true,
        "id": 1792708,
        "last_rank": 22921,
        "player_name": "Abdul Ahad Mutahhir",
        "rank": 12053,
        "rank_sort": 12053,
        "total": 2394
      },
      {
        "club_badge_src": null,
        "entry": 285779,
        "entry_name": "Mean Moller Machine",
        "event_total": 54,
        "has_played": true,
        "id": 1903616,
        "last_rank": 8627,
        "player_name": "Arthur Moller",
        "rank": 12053,
        "rank_sort": 12054,
        "total": 2394
      },
      {
        "club_badge_src": null,
        "entry": 295830,
        "entry_name": "The Golden Ticket",
        "event_total": 56,
        "has_played": true,
        "id": 1976209,
        "last_rank": 9382,
        "player_name": "Robert Mitchell",
        "rank": 12053,
        "rank_sort": 12055,
        "total": 2394
      },
      {
        "club_badge_src": null,
        "entry": 1352746,
        "entry_name": "\"No risk , No fun\"",
        "event_total": 69,
        "has_played": true,
        "id": 9404039,
        "last_rank": 18592,
        "player_name": "3amor hussien",
        "rank": 12053,
        "rank_sort": 12056,
        "total": 2394
      },
      {
        "club_badge_src": null,
        "entry": 2899556,
        "entry_name": "SlotsSl@ts",
        "event_total": 81,
        "has_played": true,
        "id": 21247910,
        "last_rank": 24680,
        "player_name": "Miles Eastwood",
        "rank": 12053,
        "rank_sort": 12057,
        "total": 2394
      },
      {
        "club_badge_src": null,
        "entry": 3848595,
        "entry_name": "Varsenal",
        "event_total": 61,
        "has_played": true,
        "id": 28848378,
        "last_rank": 13662,
        "player_name": "James Varlow",
        "rank": 12053,
        "rank_sort": 12058,
        "total": 2394
      },
      {
        "club_badge_src": null,
        "entry": 4047392,
        "entry_name": "Sharpe Shooters",
        "event_total": 53,
        "has_played": true,
        "id": 30527788,
        "last_rank": 9819,
        "player_name": "Ingrid Kiddle",
        "rank": 12053,
        "rank_sort": 12059,
        "total": 2394
      },
      {
        "club_badge_src": "https://fantasy.premierleague.com/gcs/plfpl-production-adobe-approved/plfpl-production/361376/2ecb07d6-67de-4383-ad81-7256b9bdb2b7.png",
        "entry": 361376,
        "entry_name": "Be\u010dki Dje\u010daci",
        "event_total": 61,
        "has_played": true,
        "id": 2418044,
        "last_rank": 13674,
        "player_name": "Belmin Havic",
        "rank": 12060,
        "rank_sort": 12060,
        "total": 2394
      },
      {
        "club_badge_src": null,
        "entry": 470262,
        "entry_name": "AL AHLI FC",
        "event_total": 59,
        "has_played": true,
        "id": 3156737,
        "last_rank": 12563,
        "player_name": "Nawaf AL Banna",
        "rank": 12060,
        "rank_sort": 12061,
        "total": 2394
      },
      {
        "club_badge_src": null,
        "entry": 715520,
        "entry_name": "Delap of Honour",
        "event_total": 51,
        "has_played": true,
        "id": 4854545,
        "last_rank": 9042,
        "player_name": "Ryan Scarff",
        "rank": 12060,
        "rank_sort": 12062,
        "total": 2394
      },
      {
        "club_badge_src": null,
        "entry": 1549758,
        "entry_name": "Free Palestine",
        "event_total": 80,
        "has_played": true,
        "id": 10820214,
        "last_rank": 23904,
        "player_name": "Magid 2029",
        "rank": 12060,
        "rank_sort": 12063,
        "total": 2394
      },
      {
        "club_badge_src": null,
        "entry": 2687601,
        "entry_name": "Long Ball F.C.",
        "event_total": 61,
        "has_played": true,
        "id": 19330556,
        "last_rank": 13674,
        "player_name": "Br\u00edan Smith",
        "rank": 12060,
        "rank_sort": 12064,
        "total": 2394
      },
      {
        "club_badge_src": null,
        "entry": 3621288,
        "entry_name": "who ate all Depays",
        "event_total": 55,
        "has_played": true,
        "id": 26980676,
        "last_rank": 10686,
        "player_name": "Tom Whitney",
        "rank": 12060,
        "rank_sort": 12065,
        "total": 2394
      },
      {
        "club_badge_src": "https://fantasy.premierleague.com/gcs/plfpl-production-adobe-approved/plfpl-production/3768981/e0f4efe1-c42f-41ee-926b-31e5ffa1c40b.png",
        "entry": 3768981,
        "entry_name": "glockeres",
        "event_total": 62,
        "has_played": true,
        "id": 28141439,
        "last_rank": 10209,
        "player_name": "Hashim Asmat",
        "rank": 12060,
        "rank_sort": 12066,
        "total": 2394
      },
      {
        "club_badge_src": null,
        "entry": 6221805,
        "entry_name": "Champers FC",
        "event_total": 62,
        "has_played": true,
        "id": 49231799,
        "last_rank": 10195,
        "player_name": "Jamal Ferguson",
        "rank": 12060,
        "rank_sort": 12067,
        "total": 2394
      },
      {
        "club_badge_src": null,
        "entry": 8865130,
        "entry_name": "japanboy",
        "event_total": 61,
        "has_played": true,
        "id": 74172740,
        "last_rank": 13674,
        "player_name": "Suphachai Yeesunsri",
        "rank": 12060,
        "rank_sort": 12068,
        "total": 2394
      },
      {
        "club_badge_src": "https://fantasy.premierleague.com/gcs/plfpl-production-adobe-approved/plfpl-production/62042/3aa918e7-8453-4fd7-9980-00f8508f7f78.png",
        "entry": 62042,
        "entry_name": "Los Camaradas",
        "event_total": 71,
        "has_played": true,
        "id": 399775,
        "last_rank": 20065,
        "player_name": "Tobias Oskarsson",
        "rank": 12069,
        "rank_sort": 12069,
        "total": 2394
      },
      {
        "club_badge_src": "https://fantasy.premierleague.com/gcs/plfpl-production-adobe-approved/plfpl-production/65007/ebb3638e-e560-4824-8026-bf562d84db42.png",
        "entry": 65007,
        "entry_name": "Falcon FC",
        "event_total": 60,
        "has_played": true,
        "id": 419628,
        "last_rank": 11112,
        "player_name": "Essam Elashry",
        "rank": 12069,
        "rank_sort": 12070,
        "total": 2394
      },
      {
        "club_badge_src": null,
        "entry": 99625,
        "entry_name": "TEH TARIK SAKA",
        "event_total": 73,
        "has_played": true,
        "id": 650325,
        "last_rank": 21545,
        "player_name": "SELAMATKAN ROCK N ROLL",
        "rank": 12069,
        "rank_sort": 12071,
        "total": 2394
      },
      {
        "club_badge_src": null,
        "entry": 779469,
        "entry_name": "Bourbons United",
        "event_total": 65,
        "has_played": true,
        "id": 5320917,
        "last_rank": 13662,
        "player_name": "Michael Robson",
        "rank": 12069,
        "rank_sort": 12072,
        "total": 2394
      },
      {
        "club_badge_src": null,
        "entry": 3497186,
        "entry_name": "BelieveAromin",
        "event_total": 44,
        "has_played": true,
        "id": 26013088,
        "last_rank": 5609,
        "player_name": "Tom Thomas",
        "rank": 12069,
        "rank_sort": 12073,
        "total": 2394
      },
      {
        "club_badge_src": "https://fantasy.premierleague.com/gcs/plfpl-production-adobe-approved/plfpl-production/22024/2fac9ec5-6c93-4e0c-aee7-3928f22ab02b.png",
        "entry": 22024,
        "entry_name": "Ym14RedDevils",
        "event_total": 76,
        "has_played": true,
        "id": 138223,
        "last_rank": 17918,
        "player_name": "Yasser Merjan",
        "rank": 12074,
        "rank_sort": 12074,
        "total": 2394
      },
      {
        "club_badge_src": null,
        "entry": 171741,
        "entry_name": "The Cruyff Turn",
        "event_total": 51,
        "has_played": true,
        "id": 1134457,
        "last_rank": 9051,
        "player_name": "Russell Tyner",
        "rank": 12074,
        "rank_sort": 12075,
        "total": 2394
      },
      {
        "club_badge_src": null,
        "entry": 5945171,
        "entry_name": "Slide (A)",
        "event_total": 72,
        "has_played": true,
        "id": 46755818,
        "last_rank": 17918,
        "player_name": "aaron mcdonald",
        "rank": 12074,
        "rank_sort": 12076,
        "total": 2394
      },
      {
        "club_badge_src": null,
        "entry": 795853,
        "entry_name": "Ait-Nour Son shine",
        "event_total": 48,
        "has_played": true,
        "id": 5446699,
        "last_rank": 7935,
        "player_name": "James Northwood",
        "rank": 12077,
        "rank_sort": 12077,
        "total": 2394
      },
      {
        "club_badge_src": null,
        "entry": 1323394,
        "entry_name": "Ekitiki-taka",
        "event_total": 61,
        "has_played": true,
        "id": 9198878,
        "last_rank": 13683,
        "player_name": "Mark Lawrence",
        "rank": 12077,
        "rank_sort": 12078,
        "total": 2394
      },
      {
        "club_badge_src": null,
        "entry": 111312,
        "entry_name": "FC Brutale",
        "event_total": 50,
        "has_played": true,
        "id": 725819,
        "last_rank": 8662,
        "player_name": "Piotr Wasilewski",
        "rank": 12079,
        "rank_sort": 12079,
        "total": 2394
      },
      {
        "club_badge_src": null,
        "entry": 4835279,
        "entry_name": "The Man with No Name",
        "event_total": 64,
        "has_played": true,
        "id": 37244164,
        "last_rank": 15375,
        "player_name": "mike smith",
        "rank": 12080,
        "rank_sort": 12080,
        "total": 2394
      },
      {
        "club_badge_src": null,
        "entry": 2699064,
        "entry_name": "Elsayad",
        "event_total": 55,
        "has_played": true,
        "id": 19415831,
        "last_rank": 10699,
        "player_name": "Zezo Elsayad",
        "rank": 12081,
        "rank_sort": 12081,
        "total": 2394
      },
      {
        "club_badge_src": "https://fantasy.premierleague.com/gcs/plfpl-production-adobe-approved/plfpl-production/3805/b87e35cc-438e-4e95-9922-ca5275ed2a74.png",
        "entry": 3805,
        "entry_name": "Ekitikitaka",
        "event_total": 64,
        "has_played": true,
        "id": 21581,
        "last_rank": 7941,
        "player_name": "Luke Holden",
        "rank": 12082,
        "rank_sort": 12082,
        "total": 2394
      },
      {
        "club_badge_src": null,
        "entry": 5627910,
        "entry_name": "Billion \u00a3 BottleJobs",
        "event_total": 57,
        "has_played": true,
        "id": 43998908,
        "last_rank": 11582,
        "player_name": "Corbin Strauss",
        "rank": 12083,
        "rank_sort": 12083,
        "total": 2393
      },
      {
        "club_badge_src": null,
        "entry": 2097575,
        "entry_name": "FavWirtzNightmare",
        "event_total": 62,
        "has_played": true,
        "id": 14882870,
        "last_rank": 14225,
        "player_name": "Ciar\u00e1n Wilson",
        "rank": 12084,
        "rank_sort": 12084,
        "total": 2393
      },
      {
        "club_badge_src": null,
        "entry": 8093085,
        "entry_name": "Precarious FC",
        "event_total": 62,
        "has_played": true,
        "id": 66736772,
        "last_rank": 14226,
        "player_name": "Eddie Tee",
        "rank": 12085,
        "rank_sort": 12085,
        "total": 2393
      },
      {
        "club_badge_src": null,
        "entry": 4257191,
        "entry_name": "Kai me a river",
        "event_total": 57,
        "has_played": true,
        "id": 32275536,
        "last_rank": 11599,
        "player_name": "Todd Fieldhouse",
        "rank": 12086,
        "rank_sort": 12086,
        "total": 2393
      },
      {
        "club_badge_src": null,
        "entry": 5386770,
        "entry_name": "FC Hollywood",
        "event_total": 77,
        "has_played": true,
        "id": 41877248,
        "last_rank": 24809,
        "player_name": "Nik Von Uexkull",
        "rank": 12086,
        "rank_sort": 12087,
        "total": 2393
      },
      {
        "club_badge_src": null,
        "entry": 7758563,
        "entry_name": "Change Name",
        "event_total": 59,
        "has_played": true,
        "id": 63700151,
        "last_rank": 12594,
        "player_name": "Dan Hearsey",
        "rank": 12086,
        "rank_sort": 12088,
        "total": 2393
      },
      {
        "club_badge_src": null,
        "entry": 8420297,
        "entry_name": "Overhaul XI",
        "event_total": 52,
        "has_played": true,
        "id": 69870408,
        "last_rank": 9448,
        "player_name": "Conrad Awoody",
        "rank": 12086,
        "rank_sort": 12089,
        "total": 2393
      },
      {
        "club_badge_src": null,
        "entry": 8696808,
        "entry_name": "Eze Peazy",
        "event_total": 70,
        "has_played": true,
        "id": 72548165,
        "last_rank": 19363,
        "player_name": "Peter Dunlop",
        "rank": 12086,
        "rank_sort": 12090,
        "total": 2393
      },
      {
        "club_badge_src": null,
        "entry": 484452,
        "entry_name": "littlelegs fc",
        "event_total": 53,
        "has_played": true,
        "id": 3251777,
        "last_rank": 9853,
        "player_name": "Jason Macey",
        "rank": 12091,
        "rank_sort": 12091,
        "total": 2393
      },
      {
        "club_badge_src": null,
        "entry": 1069680,
        "entry_name": "Kinder Mbuemo",
        "event_total": 66,
        "has_played": true,
        "id": 7405259,
        "last_rank": 16675,
        "player_name": "William Phillips",
        "rank": 12091,
        "rank_sort": 12092,
        "total": 2393
      },
      {
        "club_badge_src": null,
        "entry": 1903304,
        "entry_name": "Badger Braves",
        "event_total": 68,
        "has_played": true,
        "id": 13417364,
        "last_rank": 17970,
        "player_name": "Barnaby Vallance",
        "rank": 12091,
        "rank_sort": 12093,
        "total": 2393
      },
      {
        "club_badge_src": null,
        "entry": 99383,
        "entry_name": "Cunha get any Worse",
        "event_total": 51,
        "has_played": true,
        "id": 648780,
        "last_rank": 9089,
        "player_name": "Ste Powell",
        "rank": 12094,
        "rank_sort": 12094,
        "total": 2393
      },
      {
        "club_badge_src": null,
        "entry": 219575,
        "entry_name": "Amsterdam Sportif",
        "event_total": 73,
        "has_played": true,
        "id": 1460231,
        "last_rank": 21628,
        "player_name": "Yigit Ozer",
        "rank": 12094,
        "rank_sort": 12095,
        "total": 2393
      },
      {
        "club_badge_src": null,
        "entry": 345895,
        "entry_name": "FPLLLLLLL",
        "event_total": 66,
        "has_played": true,
        "id": 2315369,
        "last_rank": 16675,
        "player_name": "Jason Toh",
        "rank": 12094,
        "rank_sort": 12096,
        "total": 2393
      },
      {
        "club_badge_src": null,
        "entry": 585699,
        "entry_name": "NoKocha NoParty",
        "event_total": 64,
        "has_played": true,
        "id": 3941635,
        "last_rank": 15452,
        "player_name": "Stephen Hambleton",
        "rank": 12094,
        "rank_sort": 12097,
        "total": 2393
      },
      {
        "club_badge_src": null,
        "entry": 604357,
        "entry_name": "Cunha believe it?!?",
        "event_total": 56,
        "has_played": true,
        "id": 4079772,
        "last_rank": 11150,
        "player_name": "Ole Moltu",
        "rank": 12094,
        "rank_sort": 12098,
        "total": 2393
      },
      {
        "club_badge_src": null,
        "entry": 634604,
        "entry_name": "Berge King",
        "event_total": 77,
        "has_played": true,
        "id": 4288859,
        "last_rank": 24817,
        "player_name": "Charles Maloney",
        "rank": 12094,
        "rank_sort": 12099,
        "total": 2393
      },
      {
        "club_badge_src": null,
        "entry": 1185135,
        "entry_name": "\u00c9douard\u2019s Empire",
        "event_total": 51,
        "has_played": true,
        "id": 8222778,
        "last_rank": 9089,
        "player_name": "Oliver Chamberlain",
        "rank": 12094,
        "rank_sort": 12100,
        "total": 2393
      }
    ]
  }
}