{
  "last_updated_data": "2026-05-24T23:28:17Z",
  "league": {
    "admin_entry": null,
    "closed": false,
    "code_privacy": "p",
    "created": "2025-07-20T23:14:33.933835Z",
    "cup_league": 2815434,
    "has_cup": true,
    "id": 314,
    "league_type": "s",
    "max_entries": null,
    "name": "Overall",
    "rank": null,
    "scoring": "c",
    "start_event": 1
  },
  "new_entries": {
    "has_next": false,
    "page": 1,
    "results": []
  },
  "standings": {
    "has_next": true,
    "page": 9,
    "results": [
      {
        "club_badge_src": null,
        "entry": 6783719,
        "entry_name": "Who let the Dorg out",
        "event_total": 66,
        "has_played": true,
        "id": 54321217,
        "last_rank": 580,
        "player_name": "Richard Holland",
        "rank": 399,
        "rank_sort": 401,
        "total": 2465
      },
      {
        "club_badge_src": "https://fantasy.premierleague.com/gcs/plfpl-production-adobe-approved/plfpl-production/7581950/316f4178-6345-4cf3-8720-76e93fc12ae4.png",
        "entry": 7581950,
        "entry_name": "Former Millionaires",
        "event_total": 66,
        "has_played": true,
        "id": 62101123,
        "last_rank": 580,
        "player_name": "Armand Viik",
        "rank": 399,
        "rank_sort": 402,
        "total": 2465
      },
      {
        "club_badge_src": null,
        "entry": 1583438,
        "entry_name": "O'black FC",
        "event_total": 53,
        "has_played": true,
        "id": 11066294,
        "last_rank": 277,
        "player_name": "Victor Bamijoko",
        "rank": 403,
        "rank_sort": 403,
        "total": 2465
      },
      {
        "club_badge_src": null,
        "entry": 5340812,
        "entry_name": "Nairn United",
        "event_total": 68,
        "has_played": true,
        "id": 41420652,
        "last_rank": 401,
        "player_name": "Jamie Nairn",
        "rank": 403,
        "rank_sort": 404,
        "total": 2465
      },
      {
        "club_badge_src": null,
        "entry": 589196,
        "entry_name": "ULTRON FC",
        "event_total": 73,
        "has_played": true,
        "id": 3968145,
        "last_rank": 686,
        "player_name": "George Nicolaou",
        "rank": 405,
        "rank_sort": 405,
        "total": 2465
      },
      {
        "club_badge_src": null,
        "entry": 2378519,
        "entry_name": "Taylor Park Boys",
        "event_total": 61,
        "has_played": true,
        "id": 16983005,
        "last_rank": 449,
        "player_name": "Toby Taylor",
        "rank": 405,
        "rank_sort": 406,
        "total": 2465
      },
      {
        "club_badge_src": null,
        "entry": 7842898,
        "entry_name": "Leif Erikson",
        "event_total": 60,
        "has_played": true,
        "id": 64467075,
        "last_rank": 418,
        "player_name": "Leif Axelarris",
        "rank": 405,
        "rank_sort": 407,
        "total": 2465
      },
      {
        "club_badge_src": "https://fantasy.premierleague.com/gcs/plfpl-production-adobe-approved/plfpl-production/1138304/92b5936f-827f-4119-9d4f-88b19d136bc5.png",
        "entry": 1138304,
        "entry_name": "Andys Diamonds",
        "event_total": 57,
        "has_played": true,
        "id": 7890447,
        "last_rank": 358,
        "player_name": "Andy Gill",
        "rank": 408,
        "rank_sort": 408,
        "total": 2465
      },
      {
        "club_badge_src": null,
        "entry": 1331539,
        "entry_name": "\u0645\u062d\u0645\u0648\u062f \u0639\u0628\u062f \u0627\u0644\u0633\u0644\u0627\u0645",
        "event_total": 60,
        "has_played": true,
        "id": 9255229,
        "last_rank": 343,
        "player_name": "\u0627\u0644\u062e\u0637\u064a\u0628 \u0645\u062d\u0645\u0648\u062f \u0639\u0628\u062f \u0627\u0644\u0633\u0644\u0627\u0645",
        "rank": 408,
        "rank_sort": 409,
        "total": 2465
      },
      {
        "club_badge_src": null,
        "entry": 4728207,
        "entry_name": "Wirtz Nightmare",
        "event_total": 73,
        "has_played": true,
        "id": 36356624,
        "last_rank": 857,
        "player_name": "George Woods",
        "rank": 408,
        "rank_sort": 410,
        "total": 2465
      },
      {
        "club_badge_src": null,
        "entry": 89980,
        "entry_name": "King of the hill",
        "event_total": 55,
        "has_played": true,
        "id": 587378,
        "last_rank": 323,
        "player_name": "Kyle Beattie",
        "rank": 411,
        "rank_sort": 411,
        "total": 2465
      },
      {
        "club_badge_src": null,
        "entry": 3324034,
        "entry_name": "Pet shop Moyes",
        "event_total": 59,
        "has_played": true,
        "id": 24642597,
        "last_rank": 396,
        "player_name": "joe hennighan",
        "rank": 412,
        "rank_sort": 412,
        "total": 2464
      },
      {
        "club_badge_src": "https://fantasy.premierleague.com/gcs/plfpl-production-adobe-approved/plfpl-production/1995045/b07abe07-2c3e-481f-bf01-84d6aa69eaee.png",
        "entry": 1995045,
        "entry_name": "Calendar Shmirl",
        "event_total": 61,
        "has_played": true,
        "id": 14097047,
        "last_rank": 454,
        "player_name": "Henry Cottam",
        "rank": 413,
        "rank_sort": 413,
        "total": 2464
      },
      {
        "club_badge_src": null,
        "entry": 13037,
        "entry_name": "Wirtz Behaviour",
        "event_total": 56,
        "has_played": true,
        "id": 78542,
        "last_rank": 348,
        "player_name": "Darren Fernandes",
        "rank": 414,
        "rank_sort": 414,
        "total": 2464
      },
      {
        "club_badge_src": null,
        "entry": 7286215,
        "entry_name": "Return of the Rice",
        "event_total": 74,
        "has_played": true,
        "id": 58947668,
        "last_rank": 920,
        "player_name": "Seb D'Arcy Rice",
        "rank": 415,
        "rank_sort": 415,
        "total": 2464
      },
      {
        "club_badge_src": null,
        "entry": 38568,
        "entry_name": "All Leeds Aren't We?",
        "event_total": 65,
        "has_played": true,
        "id": 247204,
        "last_rank": 563,
        "player_name": "Conor McGarry",
        "rank": 416,
        "rank_sort": 416,
        "total": 2464
      },
      {
        "club_badge_src": "https://fantasy.premierleague.com/gcs/plfpl-production-adobe-approved/plfpl-production/201724/8eb7640b-c728-416b-9aa2-63bba38824aa.png",
        "entry": 201724,
        "entry_name": "Four Naan FC",
        "event_total": 54,
        "has_played": true,
        "id": 1339472,
        "last_rank": 309,
        "player_name": "Luke Montgomery",
        "rank": 416,
        "rank_sort": 417,
        "total": 2464
      },
      {
        "club_badge_src": "https://fantasy.premierleague.com/gcs/plfpl-production-adobe-approved/plfpl-production/357000/57b22d83-82c7-43a5-8cee-ca885fe3aaa0.png",
        "entry": 357000,
        "entry_name": "Europe Overrated",
        "event_total": 58,
        "has_played": true,
        "id": 2389053,
        "last_rank": 388,
        "player_name": "Gareth Ryan",
        "rank": 416,
        "rank_sort": 418,
        "total": 2464
      },
      {
        "club_badge_src": null,
        "entry": 1217287,
        "entry_name": "Here We \u0160e\u0161ko",
        "event_total": 62,
        "has_played": true,
        "id": 8449577,
        "last_rank": 475,
        "player_name": "Hassan Alim",
        "rank": 416,
        "rank_sort": 419,
        "total": 2464
      },
      {
        "club_badge_src": null,
        "entry": 2191103,
        "entry_name": "Tinchy Sneijder",
        "event_total": 55,
        "has_played": true,
        "id": 15588683,
        "last_rank": 328,
        "player_name": "Jack Lee",
        "rank": 416,
        "rank_sort": 420,
        "total": 2464
      },
      {
        "club_badge_src": null,
        "entry": 2535061,
        "entry_name": "Minstar",
        "event_total": 59,
        "has_played": true,
        "id": 18167156,
        "last_rank": 397,
        "player_name": "Min Khant Zaw",
        "rank": 416,
        "rank_sort": 421,
        "total": 2464
      },
      {
        "club_badge_src": "https://fantasy.premierleague.com/gcs/plfpl-production-adobe-approved/plfpl-production/2884418/e54b1161-3c2b-42c8-a4b3-03f1a5869600.png",
        "entry": 2884418,
        "entry_name": "HabibisFC",
        "event_total": 58,
        "has_played": true,
        "id": 21116429,
        "last_rank": 388,
        "player_name": "Fadi AU",
        "rank": 416,
        "rank_sort": 422,
        "total": 2464
      },
      {
        "club_badge_src": null,
        "entry": 7714197,
        "entry_name": "Ballerz",
        "event_total": 51,
        "has_played": true,
        "id": 63298615,
        "last_rank": 256,
        "player_name": "Osato Happiness",
        "rank": 416,
        "rank_sort": 423,
        "total": 2464
      },
      {
        "club_badge_src": null,
        "entry": 3814,
        "entry_name": "Back O\u2019 The Neto",
        "event_total": 80,
        "has_played": true,
        "id": 21630,
        "last_rank": 1240,
        "player_name": "Andrew McKinnon",
        "rank": 424,
        "rank_sort": 424,
        "total": 2464
      },
      {
        "club_badge_src": null,
        "entry": 6038,
        "entry_name": "DEFC\u00f8N 1 Dynam\u00f8s",
        "event_total": 58,
        "has_played": true,
        "id": 34555,
        "last_rank": 390,
        "player_name": "Matthew Nuttall",
        "rank": 424,
        "rank_sort": 425,
        "total": 2464
      },
      {
        "club_badge_src": null,
        "entry": 49235,
        "entry_name": "Dragon's Fire",
        "event_total": 66,
        "has_played": true,
        "id": 316422,
        "last_rank": 475,
        "player_name": "Geoffrey Barrington",
        "rank": 424,
        "rank_sort": 426,
        "total": 2464
      },
      {
        "club_badge_src": "https://fantasy.premierleague.com/gcs/plfpl-production-adobe-approved/plfpl-production/1270475/c9680162-d232-46de-9fb4-f46ba80e6ed3.png",
        "entry": 1270475,
        "entry_name": "Jemar's Stars",
        "event_total": 65,
        "has_played": true,
        "id": 8827292,
        "last_rank": 573,
        "player_name": "Graham Baker",
        "rank": 424,
        "rank_sort": 427,
        "total": 2464
      },
      {
        "club_badge_src": null,
        "entry": 1908920,
        "entry_name": "Bendall\u2019s Beauties",
        "event_total": 59,
        "has_played": true,
        "id": 13457932,
        "last_rank": 328,
        "player_name": "Peter Kensell",
        "rank": 424,
        "rank_sort": 428,
        "total": 2464
      },
      {
        "club_badge_src": null,
        "entry": 2482303,
        "entry_name": "Podri",
        "event_total": 68,
        "has_played": true,
        "id": 17762153,
        "last_rank": 665,
        "player_name": "Mark Pearson",
        "rank": 424,
        "rank_sort": 429,
        "total": 2464
      },
      {
        "club_badge_src": null,
        "entry": 3373405,
        "entry_name": "maf",
        "event_total": 53,
        "has_played": true,
        "id": 25035699,
        "last_rank": 293,
        "player_name": "Mazen Alfuraih",
        "rank": 424,
        "rank_sort": 430,
        "total": 2464
      },
      {
        "club_badge_src": null,
        "entry": 3381818,
        "entry_name": "The Gervinator",
        "event_total": 66,
        "has_played": true,
        "id": 25103212,
        "last_rank": 475,
        "player_name": "Hugh McCarthy",
        "rank": 424,
        "rank_sort": 431,
        "total": 2464
      },
      {
        "club_badge_src": null,
        "entry": 3709346,
        "entry_name": "Eki-Tikki",
        "event_total": 54,
        "has_played": true,
        "id": 27678046,
        "last_rank": 241,
        "player_name": "Aniket Dhawan",
        "rank": 424,
        "rank_sort": 432,
        "total": 2464
      },
      {
        "club_badge_src": "https://fantasy.premierleague.com/gcs/plfpl-production-adobe-approved/plfpl-production/5691661/0b322838-2717-4a02-8872-c87bea329d7a.png",
        "entry": 5691661,
        "entry_name": "Ayks & Pains FC",
        "event_total": 67,
        "has_played": true,
        "id": 44556138,
        "last_rank": 633,
        "player_name": "Sion Aykroyd",
        "rank": 424,
        "rank_sort": 433,
        "total": 2464
      },
      {
        "club_badge_src": null,
        "entry": 7204217,
        "entry_name": "Famagusta",
        "event_total": 66,
        "has_played": true,
        "id": 58171537,
        "last_rank": 473,
        "player_name": "Christos Photiou",
        "rank": 424,
        "rank_sort": 434,
        "total": 2464
      },
      {
        "club_badge_src": "https://fantasy.premierleague.com/gcs/plfpl-production-adobe-approved/plfpl-production/7351920/bb3eedb7-01e1-463a-b649-0be747a46159.png",
        "entry": 7351920,
        "entry_name": "Mrlzitt",
        "event_total": 39,
        "has_played": true,
        "id": 59564421,
        "last_rank": 129,
        "player_name": "francesca cerone",
        "rank": 424,
        "rank_sort": 435,
        "total": 2464
      },
      {
        "club_badge_src": null,
        "entry": 2816220,
        "entry_name": "Toppalaget",
        "event_total": 67,
        "has_played": true,
        "id": 20570202,
        "last_rank": 514,
        "player_name": "Elias Lambine Christensen",
        "rank": 436,
        "rank_sort": 436,
        "total": 2464
      },
      {
        "club_badge_src": null,
        "entry": 5994909,
        "entry_name": "TEATON",
        "event_total": 59,
        "has_played": true,
        "id": 47247519,
        "last_rank": 338,
        "player_name": "Thomas Eaton",
        "rank": 436,
        "rank_sort": 437,
        "total": 2464
      },
      {
        "club_badge_src": null,
        "entry": 255185,
        "entry_name": "\u0e1a\u0e38\u0e23\u0e38\u0e29\u0e1a\u0e34\u0e19\u0e44\u0e14\u0e49",
        "event_total": 66,
        "has_played": true,
        "id": 1697420,
        "last_rank": 487,
        "player_name": "Chat Han",
        "rank": 438,
        "rank_sort": 438,
        "total": 2464
      },
      {
        "club_badge_src": "https://fantasy.premierleague.com/gcs/plfpl-production-adobe-approved/plfpl-production/2550012/beb996b7-d6b6-4938-96c0-c50fef90b83d.png",
        "entry": 2550012,
        "entry_name": "Solaire Of Astora",
        "event_total": 74,
        "has_played": true,
        "id": 18280496,
        "last_rank": 963,
        "player_name": "John Hyland",
        "rank": 438,
        "rank_sort": 439,
        "total": 2464
      },
      {
        "club_badge_src": null,
        "entry": 2576761,
        "entry_name": "The Gunners",
        "event_total": 68,
        "has_played": true,
        "id": 18492675,
        "last_rank": 546,
        "player_name": "Jordan Smyth",
        "rank": 438,
        "rank_sort": 440,
        "total": 2464
      },
      {
        "club_badge_src": "https://fantasy.premierleague.com/gcs/plfpl-production-adobe-approved/plfpl-production/1569011/d6b2236e-6ce1-4f86-a5eb-82bf9390f374.png",
        "entry": 1569011,
        "entry_name": "Nearly Wan De Yoro's",
        "event_total": 61,
        "has_played": true,
        "id": 10960862,
        "last_rank": 376,
        "player_name": "Zak Lynn",
        "rank": 441,
        "rank_sort": 441,
        "total": 2464
      },
      {
        "club_badge_src": null,
        "entry": 1237084,
        "entry_name": "Walker's cr\u00e8che 11",
        "event_total": 64,
        "has_played": true,
        "id": 8590456,
        "last_rank": 453,
        "player_name": "craig Wilkinson",
        "rank": 442,
        "rank_sort": 442,
        "total": 2464
      },
      {
        "club_badge_src": "https://fantasy.premierleague.com/gcs/plfpl-production-adobe-approved/plfpl-production/3240533/ee7ea788-7b5f-4fc2-b285-ec0d462818c5.png",
        "entry": 3240533,
        "entry_name": "I\u2019m a Baleba",
        "event_total": 57,
        "has_played": true,
        "id": 23969349,
        "last_rank": 385,
        "player_name": "Oscar Hancock",
        "rank": 443,
        "rank_sort": 443,
        "total": 2463
      },
      {
        "club_badge_src": null,
        "entry": 7035765,
        "entry_name": "Red devvils \ufffd",
        "event_total": 78,
        "has_played": true,
        "id": 56554890,
        "last_rank": 1176,
        "player_name": "Dewakar Balu",
        "rank": 443,
        "rank_sort": 444,
        "total": 2463
      },
      {
        "club_badge_src": null,
        "entry": 523396,
        "entry_name": "Samoan Academy",
        "event_total": 63,
        "has_played": true,
        "id": 3515542,
        "last_rank": 531,
        "player_name": "Bartosz Lasek",
        "rank": 445,
        "rank_sort": 445,
        "total": 2463
      },
      {
        "club_badge_src": null,
        "entry": 2164279,
        "entry_name": "Rash Decisions",
        "event_total": 67,
        "has_played": true,
        "id": 15385665,
        "last_rank": 656,
        "player_name": "Derrick Choi",
        "rank": 445,
        "rank_sort": 446,
        "total": 2463
      },
      {
        "club_badge_src": "https://fantasy.premierleague.com/gcs/plfpl-production-adobe-approved/plfpl-production/4596916/0127ecac-3df7-4b40-96e5-f78e301797e9.png",
        "entry": 4596916,
        "entry_name": "ManchesterUnited 1st",
        "event_total": 53,
        "has_played": true,
        "id": 35109370,
        "last_rank": 307,
        "player_name": "Atipong Kaewmuang",
        "rank": 445,
        "rank_sort": 447,
        "total": 2463
      },
      {
        "club_badge_src": null,
        "entry": 6484764,
        "entry_name": "HakunaJuanMata",
        "event_total": 59,
        "has_played": true,
        "id": 51687562,
        "last_rank": 423,
        "player_name": "Jason Byrne",
        "rank": 445,
        "rank_sort": 448,
        "total": 2463
      },
      {
        "club_badge_src": "https://fantasy.premierleague.com/gcs/plfpl-production-adobe-approved/plfpl-production/6882774/8a223fc0-0772-4328-ae12-31ed1ea1ff2a.png",
        "entry": 6882774,
        "entry_name": "Riffa United",
        "event_total": 68,
        "has_played": true,
        "id": 55159626,
        "last_rank": 563,
        "player_name": "Salman Al-Khalifa",
        "rank": 445,
        "rank_sort": 449,
        "total": 2463
      },
      {
        "club_badge_src": null,
        "entry": 50053,
        "entry_name": "McWigan Athletic",
        "event_total": 64,
        "has_played": true,
        "id": 321839,
        "last_rank": 565,
        "player_name": "McWigan Athletic",
        "rank": 450,
        "rank_sort": 450,
        "total": 2463
      }
    ]
  }
}