{
  "last_updated_data": "2026-05-24T23:28:17Z",
  "league": {
    "admin_entry": null,
    "closed": false,
    "code_privacy": "p",
    "created": "2025-07-20T23:14:33.933835Z",
    "cup_league": 2815434,
    "has_cup": true,
    "id": 314,
    "league_type": "s",
    "max_entries": null,
    "name": "Overall",
    "rank": null,
    "scoring": "c",
    "start_event": 1
  },
  "new_entries": {
    "has_next": false,
    "page": 1,
    "results": []
  },
  "standings": {
    "has_next": true,
    "page": 694,
    "results": [
      {
        "club_badge_src": null,
        "entry": 1889133,
        "entry_name": "Dracarys",
        "event_total": 42,
        "has_played": true,
        "id": 13314375,
        "last_rank": 17585,
        "player_name": "Eric Kimathi",
        "rank": 34599,
        "rank_sort": 34651,
        "total": 2364
      },
      {
        "club_badge_src": null,
        "entry": 1904939,
        "entry_name": "The Glediators",
        "event_total": 54,
        "has_played": true,
        "id": 13429136,
        "last_rank": 31125,
        "player_name": "Tom Gledhill",
        "rank": 34599,
        "rank_sort": 34652,
        "total": 2364
      },
      {
        "club_badge_src": null,
        "entry": 1919580,
        "entry_name": "Slot Machine v2",
        "event_total": 68,
        "has_played": true,
        "id": 13535838,
        "last_rank": 48898,
        "player_name": "Derek Vaughan",
        "rank": 34599,
        "rank_sort": 34653,
        "total": 2364
      },
      {
        "club_badge_src": null,
        "entry": 1922973,
        "entry_name": "Mikamiko",
        "event_total": 50,
        "has_played": true,
        "id": 13561253,
        "last_rank": 27304,
        "player_name": "Karl \u00d8yvind Mikalsen",
        "rank": 34599,
        "rank_sort": 34654,
        "total": 2364
      },
      {
        "club_badge_src": null,
        "entry": 2185885,
        "entry_name": "Gunning for Glory",
        "event_total": 71,
        "has_played": true,
        "id": 15549786,
        "last_rank": 53837,
        "player_name": "James Orchard",
        "rank": 34599,
        "rank_sort": 34655,
        "total": 2364
      },
      {
        "club_badge_src": null,
        "entry": 2198999,
        "entry_name": "Tea for Tielemans",
        "event_total": 43,
        "has_played": true,
        "id": 15647700,
        "last_rank": 21392,
        "player_name": "Joe Gregory",
        "rank": 34599,
        "rank_sort": 34656,
        "total": 2364
      },
      {
        "club_badge_src": null,
        "entry": 2281027,
        "entry_name": "Bigly winning",
        "event_total": 51,
        "has_played": true,
        "id": 16266388,
        "last_rank": 28273,
        "player_name": "Chris lamb",
        "rank": 34599,
        "rank_sort": 34657,
        "total": 2364
      },
      {
        "club_badge_src": null,
        "entry": 2311393,
        "entry_name": "ICE Cold Palmers",
        "event_total": 67,
        "has_played": true,
        "id": 16487382,
        "last_rank": 41824,
        "player_name": "Adam Pike",
        "rank": 34599,
        "rank_sort": 34658,
        "total": 2364
      },
      {
        "club_badge_src": null,
        "entry": 2406486,
        "entry_name": "kabutsalju_",
        "event_total": 62,
        "has_played": true,
        "id": 17201028,
        "last_rank": 40647,
        "player_name": "Fadli Bajili Pratama",
        "rank": 34599,
        "rank_sort": 34659,
        "total": 2364
      },
      {
        "club_badge_src": null,
        "entry": 2510074,
        "entry_name": "Enter Malamb",
        "event_total": 66,
        "has_played": true,
        "id": 17979988,
        "last_rank": 45927,
        "player_name": "David Robinson",
        "rank": 34599,
        "rank_sort": 34660,
        "total": 2364
      },
      {
        "club_badge_src": null,
        "entry": 2585788,
        "entry_name": "Netflix and Chilwell",
        "event_total": 61,
        "has_played": true,
        "id": 18562226,
        "last_rank": 39246,
        "player_name": "Matthew Tindall",
        "rank": 34599,
        "rank_sort": 34661,
        "total": 2364
      },
      {
        "club_badge_src": "https://fantasy.premierleague.com/gcs/plfpl-production-adobe-approved/plfpl-production/2781601/31c0d80b-7c2d-4d9f-9200-ca869b38daf1.png",
        "entry": 2781601,
        "entry_name": "Dr\u0103gu\u0219in Din Tei",
        "event_total": 48,
        "has_played": true,
        "id": 20303806,
        "last_rank": 25330,
        "player_name": "Luis Hegarty",
        "rank": 34599,
        "rank_sort": 34662,
        "total": 2364
      },
      {
        "club_badge_src": null,
        "entry": 2793644,
        "entry_name": "Kobbie and Paste",
        "event_total": 70,
        "has_played": true,
        "id": 20397445,
        "last_rank": 35166,
        "player_name": "Joe Taylor",
        "rank": 34599,
        "rank_sort": 34663,
        "total": 2364
      },
      {
        "club_badge_src": null,
        "entry": 2804990,
        "entry_name": "GAMAL FC",
        "event_total": 41,
        "has_played": true,
        "id": 20484193,
        "last_rank": 19966,
        "player_name": "Gamal Hassan",
        "rank": 34599,
        "rank_sort": 34664,
        "total": 2364
      },
      {
        "club_badge_src": null,
        "entry": 3074665,
        "entry_name": "Sanjay's Earthquakes",
        "event_total": 70,
        "has_played": true,
        "id": 22643000,
        "last_rank": 45927,
        "player_name": "Sanjay Sikdar",
        "rank": 34599,
        "rank_sort": 34665,
        "total": 2364
      },
      {
        "club_badge_src": null,
        "entry": 3215751,
        "entry_name": "Hansi 11",
        "event_total": 68,
        "has_played": true,
        "id": 23776038,
        "last_rank": 49078,
        "player_name": "Santosh Adhikari",
        "rank": 34599,
        "rank_sort": 34666,
        "total": 2364
      },
      {
        "club_badge_src": null,
        "entry": 3270653,
        "entry_name": "Tintin",
        "event_total": 77,
        "has_played": true,
        "id": 24203613,
        "last_rank": 57001,
        "player_name": "Andre Chijian",
        "rank": 34599,
        "rank_sort": 34667,
        "total": 2364
      },
      {
        "club_badge_src": null,
        "entry": 3286924,
        "entry_name": "Devilz Home",
        "event_total": 62,
        "has_played": true,
        "id": 24332810,
        "last_rank": 40647,
        "player_name": "Miheer Wazarkar",
        "rank": 34599,
        "rank_sort": 34668,
        "total": 2364
      },
      {
        "club_badge_src": null,
        "entry": 3456247,
        "entry_name": "Suckseed United",
        "event_total": 63,
        "has_played": true,
        "id": 25688233,
        "last_rank": 41967,
        "player_name": "Theerachet Wachirawatthanont",
        "rank": 34599,
        "rank_sort": 34669,
        "total": 2364
      },
      {
        "club_badge_src": null,
        "entry": 3465717,
        "entry_name": "Kinder Mbeumo",
        "event_total": 71,
        "has_played": true,
        "id": 25763533,
        "last_rank": 41324,
        "player_name": "James Hatherley",
        "rank": 34599,
        "rank_sort": 34670,
        "total": 2364
      },
      {
        "club_badge_src": "https://fantasy.premierleague.com/gcs/plfpl-production-adobe-approved/plfpl-production/3469384/1c0511ff-cd3f-44d8-99d9-f994dc5783f4.png",
        "entry": 3469384,
        "entry_name": "Howe's Moving Castle",
        "event_total": 48,
        "has_played": true,
        "id": 25792273,
        "last_rank": 25436,
        "player_name": "Phil Laws",
        "rank": 34599,
        "rank_sort": 34671,
        "total": 2364
      },
      {
        "club_badge_src": null,
        "entry": 3474097,
        "entry_name": "good luck mal",
        "event_total": 50,
        "has_played": true,
        "id": 25829321,
        "last_rank": 27304,
        "player_name": "malcolm spray",
        "rank": 34599,
        "rank_sort": 34672,
        "total": 2364
      },
      {
        "club_badge_src": null,
        "entry": 3524494,
        "entry_name": "Go Go Power Ranger",
        "event_total": 49,
        "has_played": true,
        "id": 26230006,
        "last_rank": 26345,
        "player_name": "J Hong",
        "rank": 34599,
        "rank_sort": 34673,
        "total": 2364
      },
      {
        "club_badge_src": null,
        "entry": 3536450,
        "entry_name": "Failure Specialists",
        "event_total": 58,
        "has_played": true,
        "id": 26322752,
        "last_rank": 31125,
        "player_name": "Michael Paling",
        "rank": 34599,
        "rank_sort": 34674,
        "total": 2364
      },
      {
        "club_badge_src": null,
        "entry": 3774949,
        "entry_name": "Harpo's Heroes",
        "event_total": 57,
        "has_played": true,
        "id": 28186480,
        "last_rank": 34578,
        "player_name": "Neil Colclough",
        "rank": 34599,
        "rank_sort": 34675,
        "total": 2364
      },
      {
        "club_badge_src": null,
        "entry": 3815280,
        "entry_name": "Fartlek",
        "event_total": 62,
        "has_played": true,
        "id": 28531027,
        "last_rank": 40647,
        "player_name": "Mattias Kirkeby Thuve",
        "rank": 34599,
        "rank_sort": 34676,
        "total": 2364
      },
      {
        "club_badge_src": "https://fantasy.premierleague.com/gcs/plfpl-production-adobe-approved/plfpl-production/4126980/d5263294-6d05-4ca1-878f-6797ba53ce72.png",
        "entry": 4126980,
        "entry_name": "Gabba Tigers",
        "event_total": 44,
        "has_played": true,
        "id": 31184529,
        "last_rank": 22154,
        "player_name": "Cheese Monster",
        "rank": 34599,
        "rank_sort": 34677,
        "total": 2364
      },
      {
        "club_badge_src": null,
        "entry": 4370500,
        "entry_name": "The Slot Thickens",
        "event_total": 32,
        "has_played": true,
        "id": 33203235,
        "last_rank": 14102,
        "player_name": "Ash Sag",
        "rank": 34599,
        "rank_sort": 34678,
        "total": 2364
      },
      {
        "club_badge_src": null,
        "entry": 4397372,
        "entry_name": "Real Madrid",
        "event_total": 73,
        "has_played": true,
        "id": 33438098,
        "last_rank": 57001,
        "player_name": "Kapil Jung Karki",
        "rank": 34599,
        "rank_sort": 34679,
        "total": 2364
      },
      {
        "club_badge_src": null,
        "entry": 4586248,
        "entry_name": "Heroji 25/26",
        "event_total": 66,
        "has_played": true,
        "id": 35016499,
        "last_rank": 46106,
        "player_name": "Simon Lesnik",
        "rank": 34599,
        "rank_sort": 34680,
        "total": 2364
      },
      {
        "club_badge_src": null,
        "entry": 4688784,
        "entry_name": "Kroos Control",
        "event_total": 54,
        "has_played": true,
        "id": 35935689,
        "last_rank": 31236,
        "player_name": "Declan Hughes",
        "rank": 34599,
        "rank_sort": 34681,
        "total": 2364
      },
      {
        "club_badge_src": null,
        "entry": 4716039,
        "entry_name": "for beto or wirtz",
        "event_total": 47,
        "has_played": true,
        "id": 36209469,
        "last_rank": 21159,
        "player_name": "Victor Lin",
        "rank": 34599,
        "rank_sort": 34682,
        "total": 2364
      },
      {
        "club_badge_src": null,
        "entry": 4742833,
        "entry_name": "Lapaniitty United",
        "event_total": 65,
        "has_played": true,
        "id": 36493377,
        "last_rank": 44672,
        "player_name": "Mikael M\u00f6tt\u00f6nen",
        "rank": 34599,
        "rank_sort": 34683,
        "total": 2364
      },
      {
        "club_badge_src": null,
        "entry": 4789158,
        "entry_name": "\u0643\u0641\u0627\u0627\u0627\u0631\u0627 \u064a\u0627 \u0633\u0644\u0627\u0627\u0627\u0627\u0645 \ufffd",
        "event_total": 59,
        "has_played": true,
        "id": 36869196,
        "last_rank": 36963,
        "player_name": "Abdulla Alamoodi",
        "rank": 34599,
        "rank_sort": 34684,
        "total": 2364
      },
      {
        "club_badge_src": null,
        "entry": 5072659,
        "entry_name": "Balotellitubbies",
        "event_total": 70,
        "has_played": true,
        "id": 39202059,
        "last_rank": 52205,
        "player_name": "Zain Hemani",
        "rank": 34599,
        "rank_sort": 34685,
        "total": 2364
      },
      {
        "club_badge_src": "https://fantasy.premierleague.com/gcs/plfpl-production-adobe-approved/plfpl-production/5097005/1ec724bb-76aa-4eff-ab3d-c9eaa3489005.png",
        "entry": 5097005,
        "entry_name": "Acho Cunheta FC",
        "event_total": 63,
        "has_played": true,
        "id": 39395940,
        "last_rank": 31995,
        "player_name": "Giovanni Pag\u00e1n V\u00e9lez",
        "rank": 34599,
        "rank_sort": 34686,
        "total": 2364
      },
      {
        "club_badge_src": null,
        "entry": 5108144,
        "entry_name": "fc emja",
        "event_total": 75,
        "has_played": true,
        "id": 39486618,
        "last_rank": 60462,
        "player_name": "Emil Jansson",
        "rank": 34599,
        "rank_sort": 34687,
        "total": 2364
      },
      {
        "club_badge_src": "https://fantasy.premierleague.com/gcs/plfpl-production-adobe-approved/plfpl-production/5234519/b6f787d3-374f-4d8b-b98d-1c7770564267.png",
        "entry": 5234519,
        "entry_name": "LA Galaxy FC",
        "event_total": 72,
        "has_played": true,
        "id": 40563499,
        "last_rank": 48898,
        "player_name": "Adam Rafik",
        "rank": 34599,
        "rank_sort": 34688,
        "total": 2364
      },
      {
        "club_badge_src": null,
        "entry": 5491250,
        "entry_name": "M'Boom FC",
        "event_total": 50,
        "has_played": true,
        "id": 42768324,
        "last_rank": 27304,
        "player_name": "Mark Burdon",
        "rank": 34599,
        "rank_sort": 34689,
        "total": 2364
      },
      {
        "club_badge_src": "https://fantasy.premierleague.com/gcs/plfpl-production-adobe-approved/plfpl-production/5510902/1c2ce838-6cb4-4b45-b892-9170442a5606.png",
        "entry": 5510902,
        "entry_name": "Wirtz is this?",
        "event_total": 56,
        "has_played": true,
        "id": 42955166,
        "last_rank": 28906,
        "player_name": "Eric Le",
        "rank": 34599,
        "rank_sort": 34690,
        "total": 2364
      },
      {
        "club_badge_src": null,
        "entry": 5656578,
        "entry_name": "Fantomas",
        "event_total": 91,
        "has_played": true,
        "id": 44252809,
        "last_rank": 94778,
        "player_name": "pedro auger",
        "rank": 34599,
        "rank_sort": 34691,
        "total": 2364
      },
      {
        "club_badge_src": "https://fantasy.premierleague.com/gcs/plfpl-production-adobe-approved/plfpl-production/5690739/d4b6dcd5-226d-46cd-afcf-9b68261bfdb1.png",
        "entry": 5690739,
        "entry_name": "For Better or Wirtz?",
        "event_total": 42,
        "has_played": true,
        "id": 44548485,
        "last_rank": 20624,
        "player_name": "Rohan Ramchandani",
        "rank": 34599,
        "rank_sort": 34692,
        "total": 2364
      },
      {
        "club_badge_src": null,
        "entry": 5730018,
        "entry_name": "MR67",
        "event_total": 62,
        "has_played": true,
        "id": 44888496,
        "last_rank": 35424,
        "player_name": "M R",
        "rank": 34599,
        "rank_sort": 34693,
        "total": 2364
      },
      {
        "club_badge_src": null,
        "entry": 5758810,
        "entry_name": "\uff1c(\u25d5\u25e1\u25d5)\uff1e",
        "event_total": 69,
        "has_played": true,
        "id": 45141904,
        "last_rank": 50468,
        "player_name": "Akshay Singh",
        "rank": 34599,
        "rank_sort": 34694,
        "total": 2364
      },
      {
        "club_badge_src": null,
        "entry": 5769849,
        "entry_name": "Grange rovers",
        "event_total": 59,
        "has_played": true,
        "id": 45236060,
        "last_rank": 32190,
        "player_name": "john coyle",
        "rank": 34599,
        "rank_sort": 34695,
        "total": 2364
      },
      {
        "club_badge_src": null,
        "entry": 5824986,
        "entry_name": "houssam",
        "event_total": 58,
        "has_played": true,
        "id": 45715208,
        "last_rank": 35768,
        "player_name": "houssem hou",
        "rank": 34599,
        "rank_sort": 34696,
        "total": 2364
      },
      {
        "club_badge_src": null,
        "entry": 5852679,
        "entry_name": "ABUBA'S XI",
        "event_total": 73,
        "has_played": true,
        "id": 45950821,
        "last_rank": 57001,
        "player_name": "Abubakar Kassim",
        "rank": 34599,
        "rank_sort": 34697,
        "total": 2364
      },
      {
        "club_badge_src": null,
        "entry": 5957079,
        "entry_name": "This is Easy lol",
        "event_total": 64,
        "has_played": true,
        "id": 46862023,
        "last_rank": 43342,
        "player_name": "Rahil Ahmed",
        "rank": 34599,
        "rank_sort": 34698,
        "total": 2364
      },
      {
        "club_badge_src": null,
        "entry": 6036673,
        "entry_name": "Blink\u00bf",
        "event_total": 60,
        "has_played": true,
        "id": 47624691,
        "last_rank": 38016,
        "player_name": "Alvin Sk",
        "rank": 34599,
        "rank_sort": 34699,
        "total": 2364
      },
      {
        "club_badge_src": null,
        "entry": 6211471,
        "entry_name": "Big G United",
        "event_total": 69,
        "has_played": true,
        "id": 49144127,
        "last_rank": 50635,
        "player_name": "Alan Jenkins",
        "rank": 34599,
        "rank_sort": 34700,
        "total": 2364
      }
    ]
  }
}