{
  "last_updated_data": "2026-05-24T23:28:17Z",
  "league": {
    "admin_entry": null,
    "closed": false,
    "code_privacy": "p",
    "created": "2025-07-20T23:14:33.933835Z",
    "cup_league": 2815434,
    "has_cup": true,
    "id": 314,
    "league_type": "s",
    "max_entries": null,
    "name": "Overall",
    "rank": null,
    "scoring": "c",
    "start_event": 1
  },
  "new_entries": {
    "has_next": false,
    "page": 1,
    "results": []
  },
  "standings": {
    "has_next": true,
    "page": 1548,
    "results": [
      {
        "club_badge_src": null,
        "entry": 8995632,
        "entry_name": "Victomator",
        "event_total": 45,
        "has_played": true,
        "id": 75438803,
        "last_rank": 43607,
        "player_name": "Aiman Alaiesh",
        "rank": 77312,
        "rank_sort": 77351,
        "total": 2337
      },
      {
        "club_badge_src": null,
        "entry": 9214726,
        "entry_name": "NdiMuo",
        "event_total": 62,
        "has_played": true,
        "id": 77580010,
        "last_rank": 90359,
        "player_name": "Kelaivy Ivonye",
        "rank": 77312,
        "rank_sort": 77352,
        "total": 2337
      },
      {
        "club_badge_src": null,
        "entry": 31863,
        "entry_name": "Hoof Hearted",
        "event_total": 58,
        "has_played": true,
        "id": 202281,
        "last_rank": 72495,
        "player_name": "Joseph Dixon",
        "rank": 77353,
        "rank_sort": 77353,
        "total": 2337
      },
      {
        "club_badge_src": null,
        "entry": 36702,
        "entry_name": "Pringles FC",
        "event_total": 59,
        "has_played": true,
        "id": 235001,
        "last_rank": 74561,
        "player_name": "Henrik Larsen",
        "rank": 77353,
        "rank_sort": 77354,
        "total": 2337
      },
      {
        "club_badge_src": "https://fantasy.premierleague.com/gcs/plfpl-production-adobe-approved/plfpl-production/198789/ada0139e-f83e-4bdf-9e74-0a21eb8d9f93.png",
        "entry": 198789,
        "entry_name": "Ekitik\u00e9-Taka",
        "event_total": 60,
        "has_played": true,
        "id": 1319218,
        "last_rank": 68351,
        "player_name": "Sam Adamson",
        "rank": 77353,
        "rank_sort": 77355,
        "total": 2337
      },
      {
        "club_badge_src": null,
        "entry": 490811,
        "entry_name": "Ouda",
        "event_total": 70,
        "has_played": true,
        "id": 3294641,
        "last_rank": 90300,
        "player_name": "Ali Ouda",
        "rank": 77353,
        "rank_sort": 77356,
        "total": 2337
      },
      {
        "club_badge_src": null,
        "entry": 568364,
        "entry_name": "forever our number20",
        "event_total": 53,
        "has_played": true,
        "id": 3825434,
        "last_rank": 70471,
        "player_name": "Gary Harlock",
        "rank": 77353,
        "rank_sort": 77357,
        "total": 2337
      },
      {
        "club_badge_src": "https://fantasy.premierleague.com/gcs/plfpl-production-adobe-approved/plfpl-production/621609/981ad656-7d0f-44c8-a591-93912dd8cf3d.png",
        "entry": 621609,
        "entry_name": "Abo Hamza",
        "event_total": 64,
        "has_played": true,
        "id": 4200788,
        "last_rank": 85624,
        "player_name": "Mohamed Teleb",
        "rank": 77353,
        "rank_sort": 77358,
        "total": 2337
      },
      {
        "club_badge_src": null,
        "entry": 751083,
        "entry_name": "jamal 77",
        "event_total": 68,
        "has_played": true,
        "id": 5110472,
        "last_rank": 85624,
        "player_name": "Luke St omer",
        "rank": 77353,
        "rank_sort": 77359,
        "total": 2337
      },
      {
        "club_badge_src": null,
        "entry": 757458,
        "entry_name": "Cunha get any Wirtz",
        "event_total": 61,
        "has_played": true,
        "id": 5159009,
        "last_rank": 78830,
        "player_name": "Hamish Chalmers",
        "rank": 77353,
        "rank_sort": 77360,
        "total": 2337
      },
      {
        "club_badge_src": null,
        "entry": 956937,
        "entry_name": "Palmer violets",
        "event_total": 54,
        "has_played": true,
        "id": 6593652,
        "last_rank": 72524,
        "player_name": "phillip doolan",
        "rank": 77353,
        "rank_sort": 77361,
        "total": 2337
      },
      {
        "club_badge_src": "https://fantasy.premierleague.com/gcs/plfpl-production-adobe-approved/plfpl-production/1086308/093fc4bb-c660-4870-92f4-b301b4bf6778.png",
        "entry": 1086308,
        "entry_name": "Remontada FC",
        "event_total": 70,
        "has_played": true,
        "id": 7523075,
        "last_rank": 100283,
        "player_name": "Anis Ibrahim mahfouz",
        "rank": 77353,
        "rank_sort": 77362,
        "total": 2337
      },
      {
        "club_badge_src": "https://fantasy.premierleague.com/gcs/plfpl-production-adobe-approved/plfpl-production/1120349/d6c33d5a-f618-44fa-b8f2-a05c5122be40.png",
        "entry": 1120349,
        "entry_name": "Low Block FC",
        "event_total": 66,
        "has_played": true,
        "id": 7761734,
        "last_rank": 90359,
        "player_name": "Nana Otabil",
        "rank": 77353,
        "rank_sort": 77363,
        "total": 2337
      },
      {
        "club_badge_src": "https://fantasy.premierleague.com/gcs/plfpl-production-adobe-approved/plfpl-production/1168390/ddc36d9f-c1fb-45c1-a2b7-bcd7b491c442.png",
        "entry": 1168390,
        "entry_name": "KINGU!!!",
        "event_total": 64,
        "has_played": true,
        "id": 8105337,
        "last_rank": 95281,
        "player_name": "Greatest Majeed",
        "rank": 77353,
        "rank_sort": 77364,
        "total": 2337
      },
      {
        "club_badge_src": "https://fantasy.premierleague.com/gcs/plfpl-production-adobe-approved/plfpl-production/1560151/926f452e-e37c-4580-b2a0-c69d04a5ffad.png",
        "entry": 1560151,
        "entry_name": "iBRAHIM aHMED 1995",
        "event_total": 67,
        "has_played": true,
        "id": 10895550,
        "last_rank": 102844,
        "player_name": "Ibrahim Ahmed",
        "rank": 77353,
        "rank_sort": 77365,
        "total": 2337
      },
      {
        "club_badge_src": null,
        "entry": 1622856,
        "entry_name": "neville wears prada",
        "event_total": 61,
        "has_played": true,
        "id": 11358241,
        "last_rank": 78830,
        "player_name": "Michael Spain",
        "rank": 77353,
        "rank_sort": 77366,
        "total": 2337
      },
      {
        "club_badge_src": null,
        "entry": 1623735,
        "entry_name": "Flaming Warriors",
        "event_total": 67,
        "has_played": true,
        "id": 11364757,
        "last_rank": 102844,
        "player_name": "Chidubem Arachie",
        "rank": 77353,
        "rank_sort": 77367,
        "total": 2337
      },
      {
        "club_badge_src": null,
        "entry": 1631747,
        "entry_name": "Golden Wanderers",
        "event_total": 55,
        "has_played": true,
        "id": 11421250,
        "last_rank": 74591,
        "player_name": "Nick Gold",
        "rank": 77353,
        "rank_sort": 77368,
        "total": 2337
      },
      {
        "club_badge_src": null,
        "entry": 1929471,
        "entry_name": "medbk",
        "event_total": 55,
        "has_played": true,
        "id": 13608144,
        "last_rank": 74591,
        "player_name": "simo bakali",
        "rank": 77353,
        "rank_sort": 77369,
        "total": 2337
      },
      {
        "club_badge_src": null,
        "entry": 2345750,
        "entry_name": "StrawHats",
        "event_total": 69,
        "has_played": true,
        "id": 16737770,
        "last_rank": 108232,
        "player_name": "Shahrzad Bhagvager",
        "rank": 77353,
        "rank_sort": 77370,
        "total": 2337
      },
      {
        "club_badge_src": null,
        "entry": 2553253,
        "entry_name": "sergio bosquets",
        "event_total": 83,
        "has_played": true,
        "id": 18307172,
        "last_rank": 102622,
        "player_name": "Joshua Foster",
        "rank": 77353,
        "rank_sort": 77371,
        "total": 2337
      },
      {
        "club_badge_src": null,
        "entry": 2632523,
        "entry_name": "Bane Mask",
        "event_total": 66,
        "has_played": true,
        "id": 18919377,
        "last_rank": 100283,
        "player_name": "Giorgos Antoniou",
        "rank": 77353,
        "rank_sort": 77372,
        "total": 2337
      },
      {
        "club_badge_src": null,
        "entry": 2878837,
        "entry_name": "GarnachosWithCheese",
        "event_total": 51,
        "has_played": true,
        "id": 21073729,
        "last_rank": 59335,
        "player_name": "Zan Demiri",
        "rank": 77353,
        "rank_sort": 77373,
        "total": 2337
      },
      {
        "club_badge_src": null,
        "entry": 2944009,
        "entry_name": "Sonny's Soilders",
        "event_total": 67,
        "has_played": true,
        "id": 21602515,
        "last_rank": 92780,
        "player_name": "Rylan Stotts",
        "rank": 77353,
        "rank_sort": 77374,
        "total": 2337
      },
      {
        "club_badge_src": null,
        "entry": 4417864,
        "entry_name": "Bravearse",
        "event_total": 59,
        "has_played": true,
        "id": 33611467,
        "last_rank": 74561,
        "player_name": "Stuart Cowan",
        "rank": 77353,
        "rank_sort": 77375,
        "total": 2337
      },
      {
        "club_badge_src": "https://fantasy.premierleague.com/gcs/plfpl-production-adobe-approved/plfpl-production/4544810/c50c5e1c-1aef-449f-9366-52bcedd08ccc.png",
        "entry": 4544810,
        "entry_name": "Skupy FC",
        "event_total": 67,
        "has_played": true,
        "id": 34674209,
        "last_rank": 102813,
        "player_name": "Michal Skupien",
        "rank": 77353,
        "rank_sort": 77376,
        "total": 2337
      },
      {
        "club_badge_src": null,
        "entry": 5160464,
        "entry_name": "blxst",
        "event_total": 64,
        "has_played": true,
        "id": 39932353,
        "last_rank": 95281,
        "player_name": "Usikue Fala",
        "rank": 77353,
        "rank_sort": 77377,
        "total": 2337
      },
      {
        "club_badge_src": null,
        "entry": 5564502,
        "entry_name": "Aymen Iraqi 1",
        "event_total": 48,
        "has_played": true,
        "id": 43444852,
        "last_rank": 54244,
        "player_name": "MARADONA IRAQI",
        "rank": 77353,
        "rank_sort": 77378,
        "total": 2337
      },
      {
        "club_badge_src": null,
        "entry": 8881018,
        "entry_name": "V\u00e1gsgeil FC",
        "event_total": 36,
        "has_played": true,
        "id": 74324559,
        "last_rank": 42327,
        "player_name": "Haraldur Reinert H\u00f8jgaard",
        "rank": 77353,
        "rank_sort": 77379,
        "total": 2337
      },
      {
        "club_badge_src": "https://fantasy.premierleague.com/gcs/plfpl-production-adobe-approved/plfpl-production/79712/49905b8c-8804-4d00-afb8-4b4300e1b7a5.png",
        "entry": 79712,
        "entry_name": "Kinder Mbeumo",
        "event_total": 58,
        "has_played": true,
        "id": 518528,
        "last_rank": 81093,
        "player_name": "Chris Howarth",
        "rank": 77380,
        "rank_sort": 77380,
        "total": 2337
      },
      {
        "club_badge_src": null,
        "entry": 86301,
        "entry_name": "Fc Stryders",
        "event_total": 55,
        "has_played": true,
        "id": 562374,
        "last_rank": 66546,
        "player_name": "Michal Wesolowski",
        "rank": 77380,
        "rank_sort": 77381,
        "total": 2337
      },
      {
        "club_badge_src": "https://fantasy.premierleague.com/gcs/plfpl-production-adobe-approved/plfpl-production/129918/411a9f34-4cd8-4bb9-8b5f-33c32a7e6a18.png",
        "entry": 129918,
        "entry_name": "Prosthetic Athletic",
        "event_total": 61,
        "has_played": true,
        "id": 846628,
        "last_rank": 88031,
        "player_name": "Bobby Kilkenny",
        "rank": 77380,
        "rank_sort": 77382,
        "total": 2337
      },
      {
        "club_badge_src": null,
        "entry": 231222,
        "entry_name": "Simply Lovely!",
        "event_total": 75,
        "has_played": true,
        "id": 1538343,
        "last_rank": 125633,
        "player_name": "Alan Miranda",
        "rank": 77380,
        "rank_sort": 77383,
        "total": 2337
      },
      {
        "club_badge_src": null,
        "entry": 231997,
        "entry_name": "Pau-er Rangers",
        "event_total": 44,
        "has_played": true,
        "id": 1543496,
        "last_rank": 54291,
        "player_name": "Jake Dodgson",
        "rank": 77380,
        "rank_sort": 77384,
        "total": 2337
      },
      {
        "club_badge_src": null,
        "entry": 289395,
        "entry_name": "Victorious Secret XI",
        "event_total": 60,
        "has_played": true,
        "id": 1929084,
        "last_rank": 85747,
        "player_name": "Mrunmayi Deshpande",
        "rank": 77380,
        "rank_sort": 77385,
        "total": 2337
      },
      {
        "club_badge_src": null,
        "entry": 393205,
        "entry_name": "World Champions 11",
        "event_total": 46,
        "has_played": true,
        "id": 2637252,
        "last_rank": 57652,
        "player_name": "ben robinson",
        "rank": 77380,
        "rank_sort": 77386,
        "total": 2337
      },
      {
        "club_badge_src": null,
        "entry": 464840,
        "entry_name": "Leny YoYo",
        "event_total": 69,
        "has_played": true,
        "id": 3118244,
        "last_rank": 108294,
        "player_name": "Alex Fenelon",
        "rank": 77380,
        "rank_sort": 77387,
        "total": 2337
      },
      {
        "club_badge_src": "https://fantasy.premierleague.com/gcs/plfpl-production-adobe-approved/plfpl-production/504733/d2c57fb1-9d48-4634-bb3e-c8407c8c294e.png",
        "entry": 504733,
        "entry_name": "Marvelous United",
        "event_total": 61,
        "has_played": true,
        "id": 3387914,
        "last_rank": 88005,
        "player_name": "Kev Lyanto",
        "rank": 77380,
        "rank_sort": 77388,
        "total": 2337
      },
      {
        "club_badge_src": null,
        "entry": 606507,
        "entry_name": "Coco",
        "event_total": 57,
        "has_played": true,
        "id": 4095491,
        "last_rank": 70471,
        "player_name": "Mina Roaman",
        "rank": 77380,
        "rank_sort": 77389,
        "total": 2337
      },
      {
        "club_badge_src": null,
        "entry": 1328736,
        "entry_name": "Mbappe med kaffe",
        "event_total": 60,
        "has_played": true,
        "id": 9235679,
        "last_rank": 85730,
        "player_name": "Daniel Mikkelsen",
        "rank": 77380,
        "rank_sort": 77390,
        "total": 2337
      },
      {
        "club_badge_src": null,
        "entry": 2338688,
        "entry_name": "Waazzzaa",
        "event_total": 71,
        "has_played": true,
        "id": 16687009,
        "last_rank": 113835,
        "player_name": "Abdulkarim Al Jehani",
        "rank": 77380,
        "rank_sort": 77391,
        "total": 2337
      },
      {
        "club_badge_src": null,
        "entry": 3880486,
        "entry_name": "Dark Defender",
        "event_total": 65,
        "has_played": true,
        "id": 29156965,
        "last_rank": 87976,
        "player_name": "SOO FIEN NG",
        "rank": 77380,
        "rank_sort": 77392,
        "total": 2337
      },
      {
        "club_badge_src": null,
        "entry": 5308205,
        "entry_name": "A Cunha Mateta",
        "event_total": 69,
        "has_played": true,
        "id": 41147019,
        "last_rank": 97814,
        "player_name": "Dan Cripps",
        "rank": 77380,
        "rank_sort": 77393,
        "total": 2337
      },
      {
        "club_badge_src": null,
        "entry": 5318039,
        "entry_name": "osamaalsediq",
        "event_total": 49,
        "has_played": true,
        "id": 41225051,
        "last_rank": 62958,
        "player_name": "OSAMA ALSEDIQ",
        "rank": 77380,
        "rank_sort": 77394,
        "total": 2337
      },
      {
        "club_badge_src": null,
        "entry": 5641027,
        "entry_name": "Alsharqi",
        "event_total": 68,
        "has_played": true,
        "id": 44114431,
        "last_rank": 105559,
        "player_name": "Ahmed Alsharqi",
        "rank": 77380,
        "rank_sort": 77395,
        "total": 2337
      },
      {
        "club_badge_src": null,
        "entry": 5996900,
        "entry_name": "Agbadou-dou-dou",
        "event_total": 60,
        "has_played": true,
        "id": 47268180,
        "last_rank": 85730,
        "player_name": "Nigel Pope",
        "rank": 77380,
        "rank_sort": 77396,
        "total": 2337
      },
      {
        "club_badge_src": null,
        "entry": 6082035,
        "entry_name": "Change Name",
        "event_total": 52,
        "has_played": true,
        "id": 48019727,
        "last_rank": 54244,
        "player_name": "Jacob Atkinson",
        "rank": 77380,
        "rank_sort": 77397,
        "total": 2337
      },
      {
        "club_badge_src": null,
        "entry": 6288441,
        "entry_name": "Hakuna Mateta",
        "event_total": 58,
        "has_played": true,
        "id": 49818433,
        "last_rank": 64634,
        "player_name": "Matthew Colligan",
        "rank": 77380,
        "rank_sort": 77398,
        "total": 2337
      },
      {
        "club_badge_src": null,
        "entry": 6725039,
        "entry_name": "Up the blues",
        "event_total": 50,
        "has_played": true,
        "id": 53824642,
        "last_rank": 64677,
        "player_name": "Liz Johnston",
        "rank": 77380,
        "rank_sort": 77399,
        "total": 2337
      },
      {
        "club_badge_src": "https://fantasy.premierleague.com/gcs/plfpl-production-adobe-approved/plfpl-production/8843976/02998204-d55f-429c-8778-948b578d9dd7.png",
        "entry": 8843976,
        "entry_name": "Mohsen FPL",
        "event_total": 58,
        "has_played": true,
        "id": 73968339,
        "last_rank": 81093,
        "player_name": "Mohamed Mohsen",
        "rank": 77380,
        "rank_sort": 77400,
        "total": 2337
      }
    ]
  }
}