{
  "last_updated_data": "2026-05-24T23:28:17Z",
  "league": {
    "admin_entry": null,
    "closed": false,
    "code_privacy": "p",
    "created": "2025-07-20T23:14:33.933835Z",
    "cup_league": 2815434,
    "has_cup": true,
    "id": 314,
    "league_type": "s",
    "max_entries": null,
    "name": "Overall",
    "rank": null,
    "scoring": "c",
    "start_event": 1
  },
  "new_entries": {
    "has_next": false,
    "page": 1,
    "results": []
  },
  "standings": {
    "has_next": true,
    "page": 549,
    "results": [
      {
        "club_badge_src": null,
        "entry": 7752896,
        "entry_name": "TeamTIL",
        "event_total": 75,
        "has_played": true,
        "id": 63647454,
        "last_rank": 42506,
        "player_name": "Lars Inge Sl\u00e6prud",
        "rank": 27246,
        "rank_sort": 27401,
        "total": 2371
      },
      {
        "club_badge_src": null,
        "entry": 7951856,
        "entry_name": "I\u2019ll show U Matetas",
        "event_total": 56,
        "has_played": true,
        "id": 65456111,
        "last_rank": 26088,
        "player_name": "Kian Issari",
        "rank": 27246,
        "rank_sort": 27402,
        "total": 2371
      },
      {
        "club_badge_src": null,
        "entry": 8424029,
        "entry_name": "Ji Sung Park The Bus",
        "event_total": 58,
        "has_played": true,
        "id": 69907315,
        "last_rank": 24143,
        "player_name": "Ben Taylor",
        "rank": 27246,
        "rank_sort": 27403,
        "total": 2371
      },
      {
        "club_badge_src": "https://fantasy.premierleague.com/gcs/plfpl-production-adobe-approved/plfpl-production/8545574/4916df9c-d572-4fd9-9793-0562b94369a4.png",
        "entry": 8545574,
        "entry_name": "Arteta la Vista,Baby",
        "event_total": 56,
        "has_played": true,
        "id": 71075699,
        "last_rank": 26088,
        "player_name": "Azrul Zulkifli",
        "rank": 27246,
        "rank_sort": 27404,
        "total": 2371
      },
      {
        "club_badge_src": null,
        "entry": 8634253,
        "entry_name": "De Lamballen",
        "event_total": 62,
        "has_played": true,
        "id": 71929612,
        "last_rank": 32190,
        "player_name": "Sam Lammers",
        "rank": 27246,
        "rank_sort": 27405,
        "total": 2371
      },
      {
        "club_badge_src": null,
        "entry": 8647916,
        "entry_name": "Cucu eats paella",
        "event_total": 73,
        "has_played": true,
        "id": 72065151,
        "last_rank": 30536,
        "player_name": "Anastasis Dimopoulos",
        "rank": 27246,
        "rank_sort": 27406,
        "total": 2371
      },
      {
        "club_badge_src": null,
        "entry": 8707427,
        "entry_name": "Fabis Heldige",
        "event_total": 57,
        "has_played": true,
        "id": 72650733,
        "last_rank": 23341,
        "player_name": "Fabian Weiby",
        "rank": 27246,
        "rank_sort": 27407,
        "total": 2371
      },
      {
        "club_badge_src": null,
        "entry": 8760677,
        "entry_name": "Mundaldinho FC",
        "event_total": 55,
        "has_played": true,
        "id": 73164856,
        "last_rank": 25172,
        "player_name": "Kasper Mundal",
        "rank": 27246,
        "rank_sort": 27408,
        "total": 2371
      },
      {
        "club_badge_src": null,
        "entry": 8930991,
        "entry_name": "M\u00ednir Menn",
        "event_total": 66,
        "has_played": true,
        "id": 74812208,
        "last_rank": 36348,
        "player_name": "Sm\u00e1ri Ketilsson",
        "rank": 27246,
        "rank_sort": 27409,
        "total": 2371
      },
      {
        "club_badge_src": null,
        "entry": 8974005,
        "entry_name": "sammy's superstars",
        "event_total": 80,
        "has_played": true,
        "id": 75230855,
        "last_rank": 56069,
        "player_name": "Sammy K",
        "rank": 27246,
        "rank_sort": 27410,
        "total": 2371
      },
      {
        "club_badge_src": null,
        "entry": 9005463,
        "entry_name": "Sorkare FC",
        "event_total": 44,
        "has_played": true,
        "id": 75533111,
        "last_rank": 16807,
        "player_name": "Chili Timm",
        "rank": 27246,
        "rank_sort": 27411,
        "total": 2371
      },
      {
        "club_badge_src": null,
        "entry": 9104131,
        "entry_name": "Could Be 'Wirtz",
        "event_total": 61,
        "has_played": true,
        "id": 76492745,
        "last_rank": 26827,
        "player_name": "Abi Adeyemi",
        "rank": 27246,
        "rank_sort": 27412,
        "total": 2371
      },
      {
        "club_badge_src": "https://fantasy.premierleague.com/gcs/plfpl-production-adobe-approved/plfpl-production/9210236/8ad3771c-0b33-4287-8cdd-3dfabfb94c9e.png",
        "entry": 9210236,
        "entry_name": "Gingaz Rangaz",
        "event_total": 52,
        "has_played": true,
        "id": 77535159,
        "last_rank": 22534,
        "player_name": "georgiana smith",
        "rank": 27246,
        "rank_sort": 27413,
        "total": 2371
      },
      {
        "club_badge_src": null,
        "entry": 7303,
        "entry_name": "Suxzez FC",
        "event_total": 68,
        "has_played": true,
        "id": 42075,
        "last_rank": 39023,
        "player_name": "Martin Linnros",
        "rank": 27414,
        "rank_sort": 27414,
        "total": 2371
      },
      {
        "club_badge_src": null,
        "entry": 22039,
        "entry_name": "AC Dead People",
        "event_total": 47,
        "has_played": true,
        "id": 138315,
        "last_rank": 18985,
        "player_name": "Murray Lyons",
        "rank": 27414,
        "rank_sort": 27415,
        "total": 2371
      },
      {
        "club_badge_src": null,
        "entry": 40008,
        "entry_name": "UnBalebal Pints Lak",
        "event_total": 51,
        "has_played": true,
        "id": 256447,
        "last_rank": 21949,
        "player_name": "Dara Mc Carthy",
        "rank": 27414,
        "rank_sort": 27416,
        "total": 2371
      },
      {
        "club_badge_src": null,
        "entry": 42832,
        "entry_name": "Charli xGx",
        "event_total": 58,
        "has_played": true,
        "id": 274354,
        "last_rank": 24330,
        "player_name": "Jordon Bailey",
        "rank": 27414,
        "rank_sort": 27417,
        "total": 2371
      },
      {
        "club_badge_src": "https://fantasy.premierleague.com/gcs/plfpl-production-adobe-approved/plfpl-production/51984/3ab0172b-eb5e-4f1f-a031-691880bf8a77.png",
        "entry": 51984,
        "entry_name": "Jo \u270c\ufe0f\u2764\ufe0f",
        "event_total": 51,
        "has_played": true,
        "id": 334321,
        "last_rank": 22064,
        "player_name": "Youssef Ashraf",
        "rank": 27414,
        "rank_sort": 27418,
        "total": 2371
      },
      {
        "club_badge_src": null,
        "entry": 56423,
        "entry_name": "Buchamere United",
        "event_total": 72,
        "has_played": true,
        "id": 363412,
        "last_rank": 39023,
        "player_name": "Narongruk Tosrijaroen",
        "rank": 27414,
        "rank_sort": 27419,
        "total": 2371
      },
      {
        "club_badge_src": null,
        "entry": 66651,
        "entry_name": "Taengoo6 Fc",
        "event_total": 51,
        "has_played": true,
        "id": 431018,
        "last_rank": 18985,
        "player_name": "Teeradate Buajan",
        "rank": 27414,
        "rank_sort": 27420,
        "total": 2371
      },
      {
        "club_badge_src": null,
        "entry": 78562,
        "entry_name": "Kevin & Perri",
        "event_total": 68,
        "has_played": true,
        "id": 510805,
        "last_rank": 38774,
        "player_name": "Simon Hesmondhalgh",
        "rank": 27414,
        "rank_sort": 27421,
        "total": 2371
      },
      {
        "club_badge_src": null,
        "entry": 82139,
        "entry_name": "Stari Grad F.C.",
        "event_total": 65,
        "has_played": true,
        "id": 534402,
        "last_rank": 35424,
        "player_name": "Luka Puletic",
        "rank": 27414,
        "rank_sort": 27422,
        "total": 2371
      },
      {
        "club_badge_src": null,
        "entry": 88749,
        "entry_name": "Squidwirtz",
        "event_total": 72,
        "has_played": true,
        "id": 579223,
        "last_rank": 44525,
        "player_name": "Luke Buckley-Mellor",
        "rank": 27414,
        "rank_sort": 27423,
        "total": 2371
      },
      {
        "club_badge_src": null,
        "entry": 121106,
        "entry_name": "The Blues Brothers",
        "event_total": 55,
        "has_played": true,
        "id": 790230,
        "last_rank": 21949,
        "player_name": "Varun Reddy",
        "rank": 27414,
        "rank_sort": 27424,
        "total": 2371
      },
      {
        "club_badge_src": null,
        "entry": 124218,
        "entry_name": "WEUnited1891",
        "event_total": 52,
        "has_played": true,
        "id": 810208,
        "last_rank": 22534,
        "player_name": "Ward Vanbelle",
        "rank": 27414,
        "rank_sort": 27425,
        "total": 2371
      },
      {
        "club_badge_src": "https://fantasy.premierleague.com/gcs/plfpl-production-adobe-approved/plfpl-production/141793/39fc92f7-bf94-4078-90bf-c05e8469a748.png",
        "entry": 141793,
        "entry_name": "Ugarte the Manuel?",
        "event_total": 69,
        "has_played": true,
        "id": 926584,
        "last_rank": 40297,
        "player_name": "Junaid Sarwar",
        "rank": 27414,
        "rank_sort": 27426,
        "total": 2371
      },
      {
        "club_badge_src": null,
        "entry": 152572,
        "entry_name": "absoloutely fabregas",
        "event_total": 64,
        "has_played": true,
        "id": 1001431,
        "last_rank": 25902,
        "player_name": "jamie jackman",
        "rank": 27414,
        "rank_sort": 27427,
        "total": 2371
      },
      {
        "club_badge_src": null,
        "entry": 165885,
        "entry_name": "WirtzWaltz",
        "event_total": 58,
        "has_played": true,
        "id": 1095637,
        "last_rank": 28150,
        "player_name": "Andreas Servan",
        "rank": 27414,
        "rank_sort": 27428,
        "total": 2371
      },
      {
        "club_badge_src": "https://fantasy.premierleague.com/gcs/plfpl-production-adobe-approved/plfpl-production/206690/1c87baa6-a8d3-4b60-8f99-ce1b659a95fd.png",
        "entry": 206690,
        "entry_name": "Slotty Era",
        "event_total": 60,
        "has_played": true,
        "id": 1373774,
        "last_rank": 26088,
        "player_name": "Vipin MG",
        "rank": 27414,
        "rank_sort": 27429,
        "total": 2371
      },
      {
        "club_badge_src": null,
        "entry": 214179,
        "entry_name": "Ekitikitaka",
        "event_total": 44,
        "has_played": true,
        "id": 1424839,
        "last_rank": 17078,
        "player_name": "karl gelbjerg",
        "rank": 27414,
        "rank_sort": 27430,
        "total": 2371
      },
      {
        "club_badge_src": null,
        "entry": 246761,
        "entry_name": "peter7737",
        "event_total": 60,
        "has_played": true,
        "id": 1642729,
        "last_rank": 25902,
        "player_name": "Tang Wai Wing",
        "rank": 27414,
        "rank_sort": 27431,
        "total": 2371
      },
      {
        "club_badge_src": null,
        "entry": 276811,
        "entry_name": "Pelaw Argyle",
        "event_total": 58,
        "has_played": true,
        "id": 1842420,
        "last_rank": 28150,
        "player_name": "jonny turner",
        "rank": 27414,
        "rank_sort": 27432,
        "total": 2371
      },
      {
        "club_badge_src": null,
        "entry": 281930,
        "entry_name": "Black Pepper",
        "event_total": 65,
        "has_played": true,
        "id": 1876354,
        "last_rank": 35619,
        "player_name": "Abdul Khaled",
        "rank": 27414,
        "rank_sort": 27433,
        "total": 2371
      },
      {
        "club_badge_src": "https://fantasy.premierleague.com/gcs/plfpl-production-adobe-approved/plfpl-production/286825/56f7b338-d18d-4b38-9ecf-4aeaa153cd8a.png",
        "entry": 286825,
        "entry_name": "Slimes Hj\u00e4ltar",
        "event_total": 65,
        "has_played": true,
        "id": 1911122,
        "last_rank": 30727,
        "player_name": "Simon Bluhme",
        "rank": 27414,
        "rank_sort": 27434,
        "total": 2371
      },
      {
        "club_badge_src": "https://fantasy.premierleague.com/gcs/plfpl-production-adobe-approved/plfpl-production/316412/9a11216a-274d-4b86-8cb5-67c23788ce50.png",
        "entry": 316412,
        "entry_name": "Frille BK",
        "event_total": 66,
        "has_played": true,
        "id": 2120755,
        "last_rank": 36831,
        "player_name": "Adam Bohlin",
        "rank": 27414,
        "rank_sort": 27435,
        "total": 2371
      },
      {
        "club_badge_src": "https://fantasy.premierleague.com/gcs/plfpl-production-adobe-approved/plfpl-production/364050/b7ca5300-895a-4bf4-a011-ed545787c6b7.png",
        "entry": 364050,
        "entry_name": "Crouch Potato",
        "event_total": 44,
        "has_played": true,
        "id": 2436101,
        "last_rank": 17078,
        "player_name": "James Duffy",
        "rank": 27414,
        "rank_sort": 27436,
        "total": 2371
      },
      {
        "club_badge_src": null,
        "entry": 375056,
        "entry_name": ">>>",
        "event_total": 59,
        "has_played": true,
        "id": 2510697,
        "last_rank": 25172,
        "player_name": "Jesper Wijk",
        "rank": 27414,
        "rank_sort": 27437,
        "total": 2371
      },
      {
        "club_badge_src": null,
        "entry": 395377,
        "entry_name": "one to beat",
        "event_total": 81,
        "has_played": true,
        "id": 2651469,
        "last_rank": 58388,
        "player_name": "Jonathan Elliott Miles",
        "rank": 27414,
        "rank_sort": 27438,
        "total": 2371
      },
      {
        "club_badge_src": "https://fantasy.premierleague.com/gcs/plfpl-production-adobe-approved/plfpl-production/414343/3c4f28f8-a905-41bc-8e67-6fdc77443934.png",
        "entry": 414343,
        "entry_name": "SK Vl\u010dice \ufffd",
        "event_total": 56,
        "has_played": true,
        "id": 2777752,
        "last_rank": 22685,
        "player_name": "Jan Vonsik",
        "rank": 27414,
        "rank_sort": 27439,
        "total": 2371
      },
      {
        "club_badge_src": null,
        "entry": 472269,
        "entry_name": "Rasmus FC",
        "event_total": 54,
        "has_played": true,
        "id": 3170779,
        "last_rank": 20983,
        "player_name": "Rasmus Smed",
        "rank": 27414,
        "rank_sort": 27440,
        "total": 2371
      },
      {
        "club_badge_src": null,
        "entry": 528332,
        "entry_name": "Relaxed Fit F.C.",
        "event_total": 37,
        "has_played": true,
        "id": 3552038,
        "last_rank": 12995,
        "player_name": "Jake Thorogood",
        "rank": 27414,
        "rank_sort": 27441,
        "total": 2371
      },
      {
        "club_badge_src": null,
        "entry": 552833,
        "entry_name": "NadiUno",
        "event_total": 66,
        "has_played": true,
        "id": 3721021,
        "last_rank": 31995,
        "player_name": "Ahmed Nadi",
        "rank": 27414,
        "rank_sort": 27442,
        "total": 2371
      },
      {
        "club_badge_src": "https://fantasy.premierleague.com/gcs/plfpl-production-adobe-approved/plfpl-production/572188/dba24561-1826-402b-8e0b-95790d36b8f3.png",
        "entry": 572188,
        "entry_name": "Game\u2019s gone!",
        "event_total": 51,
        "has_played": true,
        "id": 3850864,
        "last_rank": 21949,
        "player_name": "George Seguya",
        "rank": 27414,
        "rank_sort": 27443,
        "total": 2371
      },
      {
        "club_badge_src": null,
        "entry": 617696,
        "entry_name": "knacko",
        "event_total": 59,
        "has_played": true,
        "id": 4173432,
        "last_rank": 25172,
        "player_name": "Marcus Lorentzon",
        "rank": 27414,
        "rank_sort": 27444,
        "total": 2371
      },
      {
        "club_badge_src": null,
        "entry": 644831,
        "entry_name": "Agents",
        "event_total": 70,
        "has_played": true,
        "id": 4357704,
        "last_rank": 36624,
        "player_name": "Ali Samooh",
        "rank": 27414,
        "rank_sort": 27445,
        "total": 2371
      },
      {
        "club_badge_src": null,
        "entry": 738316,
        "entry_name": "KerkEazy Win",
        "event_total": 66,
        "has_played": true,
        "id": 5019611,
        "last_rank": 36831,
        "player_name": "Aleksander Halvorsen",
        "rank": 27414,
        "rank_sort": 27446,
        "total": 2371
      },
      {
        "club_badge_src": null,
        "entry": 749785,
        "entry_name": "that's your slot 2",
        "event_total": 42,
        "has_played": true,
        "id": 5101399,
        "last_rank": 15876,
        "player_name": "Lee Doughty",
        "rank": 27414,
        "rank_sort": 27447,
        "total": 2371
      },
      {
        "club_badge_src": null,
        "entry": 751734,
        "entry_name": "Old Boy Bern",
        "event_total": 44,
        "has_played": true,
        "id": 5115205,
        "last_rank": 17078,
        "player_name": "Neil Hull",
        "rank": 27414,
        "rank_sort": 27448,
        "total": 2371
      },
      {
        "club_badge_src": null,
        "entry": 790425,
        "entry_name": "FPL LIKE MAC",
        "event_total": 64,
        "has_played": true,
        "id": 5408591,
        "last_rank": 34293,
        "player_name": "Like Mac",
        "rank": 27414,
        "rank_sort": 27449,
        "total": 2371
      },
      {
        "club_badge_src": null,
        "entry": 821335,
        "entry_name": "VECTOR FC",
        "event_total": 57,
        "has_played": true,
        "id": 5625098,
        "last_rank": 27203,
        "player_name": "Ethiad Rangers",
        "rank": 27414,
        "rank_sort": 27450,
        "total": 2371
      }
    ]
  }
}