{
  "last_updated_data": "2026-05-24T23:28:17Z",
  "league": {
    "admin_entry": null,
    "closed": false,
    "code_privacy": "p",
    "created": "2025-07-20T23:14:33.933835Z",
    "cup_league": 2815434,
    "has_cup": true,
    "id": 314,
    "league_type": "s",
    "max_entries": null,
    "name": "Overall",
    "rank": null,
    "scoring": "c",
    "start_event": 1
  },
  "new_entries": {
    "has_next": false,
    "page": 1,
    "results": []
  },
  "standings": {
    "has_next": true,
    "page": 1074,
    "results": [
      {
        "club_badge_src": null,
        "entry": 1277382,
        "entry_name": "Je\u017ad\u017acy Bez G\u0142owy",
        "event_total": 66,
        "has_played": true,
        "id": 8876219,
        "last_rank": 62617,
        "player_name": "Mateusz Wawer",
        "rank": 53624,
        "rank_sort": 53651,
        "total": 2350
      },
      {
        "club_badge_src": null,
        "entry": 1302500,
        "entry_name": "Mushroom F.C.",
        "event_total": 65,
        "has_played": true,
        "id": 9052399,
        "last_rank": 60933,
        "player_name": "Colin Armitage",
        "rank": 53624,
        "rank_sort": 53652,
        "total": 2350
      },
      {
        "club_badge_src": null,
        "entry": 1586623,
        "entry_name": "FreeFree PALMERstine",
        "event_total": 39,
        "has_played": true,
        "id": 11092024,
        "last_rank": 30361,
        "player_name": "Joe Haffejee",
        "rank": 53624,
        "rank_sort": 53653,
        "total": 2350
      },
      {
        "club_badge_src": null,
        "entry": 1808387,
        "entry_name": "A - team",
        "event_total": 66,
        "has_played": true,
        "id": 12713846,
        "last_rank": 55659,
        "player_name": "Nikola Radonjic",
        "rank": 53624,
        "rank_sort": 53654,
        "total": 2350
      },
      {
        "club_badge_src": null,
        "entry": 2095713,
        "entry_name": "S Club 11 FC",
        "event_total": 63,
        "has_played": true,
        "id": 14869383,
        "last_rank": 64562,
        "player_name": "Alex Hyde",
        "rank": 53624,
        "rank_sort": 53655,
        "total": 2350
      },
      {
        "club_badge_src": null,
        "entry": 2122156,
        "entry_name": "MurderOnZidanesFloor",
        "event_total": 73,
        "has_played": true,
        "id": 15075018,
        "last_rank": 76474,
        "player_name": "Ashley Scott",
        "rank": 53624,
        "rank_sort": 53656,
        "total": 2350
      },
      {
        "club_badge_src": "https://fantasy.premierleague.com/gcs/plfpl-production-adobe-approved/plfpl-production/2774663/cec5f526-bc8c-4c1c-9351-1d30a1b823d9.png",
        "entry": 2774663,
        "entry_name": "Champions",
        "event_total": 63,
        "has_played": true,
        "id": 20248424,
        "last_rank": 64508,
        "player_name": "Harvie Pearce",
        "rank": 53624,
        "rank_sort": 53657,
        "total": 2350
      },
      {
        "club_badge_src": null,
        "entry": 2925635,
        "entry_name": "Back2Back",
        "event_total": 64,
        "has_played": true,
        "id": 21447821,
        "last_rank": 59077,
        "player_name": "Jo\u00e3o Silva",
        "rank": 53624,
        "rank_sort": 53658,
        "total": 2350
      },
      {
        "club_badge_src": "https://fantasy.premierleague.com/gcs/plfpl-production-adobe-approved/plfpl-production/2961837/ed78b0b3-5cb5-4e65-8d3b-276c8d8c9735.png",
        "entry": 2961837,
        "entry_name": "Lil Klui Vert",
        "event_total": 60,
        "has_played": true,
        "id": 21757201,
        "last_rank": 59170,
        "player_name": "Rowland Wanderi",
        "rank": 53624,
        "rank_sort": 53659,
        "total": 2350
      },
      {
        "club_badge_src": null,
        "entry": 3069567,
        "entry_name": "Wirtzel Gummage",
        "event_total": 61,
        "has_played": true,
        "id": 22602273,
        "last_rank": 54065,
        "player_name": "Ben Colgan",
        "rank": 53624,
        "rank_sort": 53660,
        "total": 2350
      },
      {
        "club_badge_src": null,
        "entry": 3405528,
        "entry_name": "Oil FC",
        "event_total": 60,
        "has_played": true,
        "id": 25289601,
        "last_rank": 52461,
        "player_name": "Shayaan Aqil",
        "rank": 53624,
        "rank_sort": 53661,
        "total": 2350
      },
      {
        "club_badge_src": null,
        "entry": 3570606,
        "entry_name": "Regis FC",
        "event_total": 66,
        "has_played": true,
        "id": 26587031,
        "last_rank": 70276,
        "player_name": "Graham Powell",
        "rank": 53624,
        "rank_sort": 53662,
        "total": 2350
      },
      {
        "club_badge_src": null,
        "entry": 4178162,
        "entry_name": "king kai",
        "event_total": 64,
        "has_played": true,
        "id": 31605495,
        "last_rank": 66380,
        "player_name": "Elliot Dillon",
        "rank": 53624,
        "rank_sort": 53663,
        "total": 2350
      },
      {
        "club_badge_src": null,
        "entry": 4222542,
        "entry_name": "Fonkington Stanley",
        "event_total": 73,
        "has_played": true,
        "id": 31987007,
        "last_rank": 85487,
        "player_name": "Louie Meehan",
        "rank": 53624,
        "rank_sort": 53664,
        "total": 2350
      },
      {
        "club_badge_src": "https://fantasy.premierleague.com/gcs/plfpl-production-adobe-approved/plfpl-production/4250419/0292954a-5309-449c-bcaa-2cfeb1389fa0.png",
        "entry": 4250419,
        "entry_name": "Hamido",
        "event_total": 48,
        "has_played": true,
        "id": 32220107,
        "last_rank": 40923,
        "player_name": "Mohamed Hameed",
        "rank": 53624,
        "rank_sort": 53665,
        "total": 2350
      },
      {
        "club_badge_src": null,
        "entry": 4250615,
        "entry_name": "Part Time Pep",
        "event_total": 70,
        "has_played": true,
        "id": 32221682,
        "last_rank": 70183,
        "player_name": "Steven Boender",
        "rank": 53624,
        "rank_sort": 53666,
        "total": 2350
      },
      {
        "club_badge_src": "https://fantasy.premierleague.com/gcs/plfpl-production-adobe-approved/plfpl-production/4290717/e3cd3961-4cc4-4687-8c3e-8a10de0035cb.png",
        "entry": 4290717,
        "entry_name": "0",
        "event_total": 66,
        "has_played": true,
        "id": 32546700,
        "last_rank": 70276,
        "player_name": "Roy Hodgson",
        "rank": 53624,
        "rank_sort": 53667,
        "total": 2350
      },
      {
        "club_badge_src": null,
        "entry": 4523553,
        "entry_name": "Zalago F.C",
        "event_total": 55,
        "has_played": true,
        "id": 34499878,
        "last_rank": 44882,
        "player_name": "Jaksa Bona",
        "rank": 53624,
        "rank_sort": 53668,
        "total": 2350
      },
      {
        "club_badge_src": null,
        "entry": 4788009,
        "entry_name": "Don Gustavos XI",
        "event_total": 57,
        "has_played": true,
        "id": 36860086,
        "last_rank": 54134,
        "player_name": "Gustav Buhl",
        "rank": 53624,
        "rank_sort": 53669,
        "total": 2350
      },
      {
        "club_badge_src": null,
        "entry": 4812242,
        "entry_name": "free palestine",
        "event_total": 65,
        "has_played": true,
        "id": 37054133,
        "last_rank": 53952,
        "player_name": "Mahmoud Elazony",
        "rank": 53624,
        "rank_sort": 53670,
        "total": 2350
      },
      {
        "club_badge_src": "https://fantasy.premierleague.com/gcs/plfpl-production-adobe-approved/plfpl-production/4901026/3a6d7fed-98a9-4c1e-8635-44674c006fc9.png",
        "entry": 4901026,
        "entry_name": "PLaiR PatsoN FC",
        "event_total": 48,
        "has_played": true,
        "id": 37792646,
        "last_rank": 40878,
        "player_name": "PatsoN Phiri",
        "rank": 53624,
        "rank_sort": 53671,
        "total": 2350
      },
      {
        "club_badge_src": "https://fantasy.premierleague.com/gcs/plfpl-production-adobe-approved/plfpl-production/5036395/7aa268a1-f8b1-48b2-92fe-59ba2b0a14de.png",
        "entry": 5036395,
        "entry_name": "Templeswans",
        "event_total": 56,
        "has_played": true,
        "id": 38900993,
        "last_rank": 46313,
        "player_name": "Ted Fraine",
        "rank": 53624,
        "rank_sort": 53672,
        "total": 2350
      },
      {
        "club_badge_src": null,
        "entry": 5276495,
        "entry_name": "Sonny(*)",
        "event_total": 60,
        "has_played": true,
        "id": 40897455,
        "last_rank": 59291,
        "player_name": "Omar Saber",
        "rank": 53624,
        "rank_sort": 53673,
        "total": 2350
      },
      {
        "club_badge_src": null,
        "entry": 5871765,
        "entry_name": "POP FC",
        "event_total": 72,
        "has_played": true,
        "id": 46119845,
        "last_rank": 83018,
        "player_name": "Manuel Ochoa",
        "rank": 53624,
        "rank_sort": 53674,
        "total": 2350
      },
      {
        "club_badge_src": null,
        "entry": 5969982,
        "entry_name": "YNWA on Thursday",
        "event_total": 43,
        "has_played": true,
        "id": 46976594,
        "last_rank": 34796,
        "player_name": "Christopher Chatwood",
        "rank": 53624,
        "rank_sort": 53675,
        "total": 2350
      },
      {
        "club_badge_src": null,
        "entry": 6129443,
        "entry_name": "Analytics FC",
        "event_total": 60,
        "has_played": true,
        "id": 48432776,
        "last_rank": 52461,
        "player_name": "H ~ S",
        "rank": 53624,
        "rank_sort": 53676,
        "total": 2350
      },
      {
        "club_badge_src": null,
        "entry": 6274101,
        "entry_name": "Las krangass",
        "event_total": 81,
        "has_played": true,
        "id": 49683267,
        "last_rank": 84980,
        "player_name": "Arnt Egil Ydsteb\u00f8",
        "rank": 53624,
        "rank_sort": 53677,
        "total": 2350
      },
      {
        "club_badge_src": null,
        "entry": 6368824,
        "entry_name": "aymen18",
        "event_total": 65,
        "has_played": true,
        "id": 50644212,
        "last_rank": 60933,
        "player_name": "Aymen Guerch",
        "rank": 53624,
        "rank_sort": 53678,
        "total": 2350
      },
      {
        "club_badge_src": null,
        "entry": 7186970,
        "entry_name": "\u00d8deparfum",
        "event_total": 62,
        "has_played": true,
        "id": 58011968,
        "last_rank": 62812,
        "player_name": "Moosa Hassan",
        "rank": 53624,
        "rank_sort": 53679,
        "total": 2350
      },
      {
        "club_badge_src": null,
        "entry": 7197636,
        "entry_name": "Stach to the future",
        "event_total": 45,
        "has_played": true,
        "id": 58110427,
        "last_rank": 37134,
        "player_name": "Jaden carroll",
        "rank": 53624,
        "rank_sort": 53680,
        "total": 2350
      },
      {
        "club_badge_src": null,
        "entry": 8422147,
        "entry_name": "Trippelz",
        "event_total": 62,
        "has_played": true,
        "id": 69888221,
        "last_rank": 62724,
        "player_name": "Danie Ommeda",
        "rank": 53624,
        "rank_sort": 53681,
        "total": 2350
      },
      {
        "club_badge_src": null,
        "entry": 13381,
        "entry_name": "Semphis",
        "event_total": 54,
        "has_played": true,
        "id": 80806,
        "last_rank": 49368,
        "player_name": "Sem Kortlever",
        "rank": 53682,
        "rank_sort": 53682,
        "total": 2350
      },
      {
        "club_badge_src": "https://fantasy.premierleague.com/gcs/plfpl-production-adobe-approved/plfpl-production/118315/faccf89a-8337-426b-b58d-6d0e9f96407d.png",
        "entry": 118315,
        "entry_name": "Saiyan Sesko",
        "event_total": 50,
        "has_played": true,
        "id": 772192,
        "last_rank": 43607,
        "player_name": "Anirudh Vempati",
        "rank": 53682,
        "rank_sort": 53683,
        "total": 2350
      },
      {
        "club_badge_src": "https://fantasy.premierleague.com/gcs/plfpl-production-adobe-approved/plfpl-production/321374/470ce512-8e60-49a1-b04f-535fc224ed56.png",
        "entry": 321374,
        "entry_name": "Keeserslautern",
        "event_total": 65,
        "has_played": true,
        "id": 2153809,
        "last_rank": 61004,
        "player_name": "Kieron Etheridge",
        "rank": 53682,
        "rank_sort": 53684,
        "total": 2350
      },
      {
        "club_badge_src": null,
        "entry": 332191,
        "entry_name": "Sordid Sentinels",
        "event_total": 45,
        "has_played": true,
        "id": 2224912,
        "last_rank": 37211,
        "player_name": "Philip Tunnicliffe",
        "rank": 53682,
        "rank_sort": 53685,
        "total": 2350
      },
      {
        "club_badge_src": null,
        "entry": 412413,
        "entry_name": "Gooders Greats",
        "event_total": 50,
        "has_played": true,
        "id": 2765109,
        "last_rank": 38340,
        "player_name": "Daniel Goodman",
        "rank": 53682,
        "rank_sort": 53686,
        "total": 2350
      },
      {
        "club_badge_src": null,
        "entry": 438553,
        "entry_name": "Crtl+Alt+Elite",
        "event_total": 54,
        "has_played": true,
        "id": 2940845,
        "last_rank": 49407,
        "player_name": "Tadiwa Mukwenya",
        "rank": 53682,
        "rank_sort": 53687,
        "total": 2350
      },
      {
        "club_badge_src": "https://fantasy.premierleague.com/gcs/plfpl-production-adobe-approved/plfpl-production/482566/56c5fbcc-c8b4-495e-9d58-cbed0882b7b3.png",
        "entry": 482566,
        "entry_name": "Ahmed hassan",
        "event_total": 58,
        "has_played": true,
        "id": 3239494,
        "last_rank": 55865,
        "player_name": "Ahmed Hassan",
        "rank": 53682,
        "rank_sort": 53688,
        "total": 2350
      },
      {
        "club_badge_src": null,
        "entry": 512084,
        "entry_name": "Que la win FC",
        "event_total": 56,
        "has_played": true,
        "id": 3438562,
        "last_rank": 46364,
        "player_name": "Yazid Diaf",
        "rank": 53682,
        "rank_sort": 53689,
        "total": 2350
      },
      {
        "club_badge_src": null,
        "entry": 552345,
        "entry_name": "LW1974",
        "event_total": 42,
        "has_played": true,
        "id": 3717750,
        "last_rank": 33729,
        "player_name": "Lee Will",
        "rank": 53682,
        "rank_sort": 53690,
        "total": 2350
      },
      {
        "club_badge_src": null,
        "entry": 587188,
        "entry_name": "Tomcat Town",
        "event_total": 50,
        "has_played": true,
        "id": 3952341,
        "last_rank": 43607,
        "player_name": "Geoffrey Foxon",
        "rank": 53682,
        "rank_sort": 53691,
        "total": 2350
      },
      {
        "club_badge_src": null,
        "entry": 588350,
        "entry_name": "caja",
        "event_total": 59,
        "has_played": true,
        "id": 3961778,
        "last_rank": 57557,
        "player_name": "milan mikulic",
        "rank": 53682,
        "rank_sort": 53692,
        "total": 2350
      },
      {
        "club_badge_src": null,
        "entry": 715078,
        "entry_name": "Blink 1-Eto'o",
        "event_total": 63,
        "has_played": true,
        "id": 4851462,
        "last_rank": 57515,
        "player_name": "Sion Foulkes",
        "rank": 53682,
        "rank_sort": 53693,
        "total": 2350
      },
      {
        "club_badge_src": null,
        "entry": 758144,
        "entry_name": "Me, Myself, Ndiaye",
        "event_total": 60,
        "has_played": true,
        "id": 5164184,
        "last_rank": 59291,
        "player_name": "Andrew Bond",
        "rank": 53682,
        "rank_sort": 53694,
        "total": 2350
      },
      {
        "club_badge_src": null,
        "entry": 849612,
        "entry_name": "mohamd",
        "event_total": 62,
        "has_played": true,
        "id": 5823419,
        "last_rank": 49301,
        "player_name": "Mohamd Al.anzi",
        "rank": 53682,
        "rank_sort": 53695,
        "total": 2350
      },
      {
        "club_badge_src": null,
        "entry": 885956,
        "entry_name": "Glimtvis bra!",
        "event_total": 64,
        "has_played": true,
        "id": 6076288,
        "last_rank": 66380,
        "player_name": "Halvard Greger Sandstad",
        "rank": 53682,
        "rank_sort": 53696,
        "total": 2350
      },
      {
        "club_badge_src": null,
        "entry": 902236,
        "entry_name": "Lovesosa FC",
        "event_total": 66,
        "has_played": true,
        "id": 6199392,
        "last_rank": 70183,
        "player_name": "Ryan Young",
        "rank": 53682,
        "rank_sort": 53697,
        "total": 2350
      },
      {
        "club_badge_src": null,
        "entry": 944307,
        "entry_name": "formentor champions",
        "event_total": 53,
        "has_played": true,
        "id": 6503947,
        "last_rank": 32335,
        "player_name": "Chris Bruce",
        "rank": 53682,
        "rank_sort": 53698,
        "total": 2350
      },
      {
        "club_badge_src": null,
        "entry": 1075927,
        "entry_name": "Yoro Wizard",
        "event_total": 61,
        "has_played": true,
        "id": 7449554,
        "last_rank": 54134,
        "player_name": "Ryan Moore",
        "rank": 53682,
        "rank_sort": 53699,
        "total": 2350
      },
      {
        "club_badge_src": "https://fantasy.premierleague.com/gcs/plfpl-production-adobe-approved/plfpl-production/1285138/3bc41c7e-a616-4b05-aba6-11009b853d4f.png",
        "entry": 1285138,
        "entry_name": "bowen747",
        "event_total": 70,
        "has_played": true,
        "id": 8929989,
        "last_rank": 70276,
        "player_name": "Elliot Lawn",
        "rank": 53682,
        "rank_sort": 53700,
        "total": 2350
      }
    ]
  }
}