{
  "last_updated_data": "2026-05-24T23:28:17Z",
  "league": {
    "admin_entry": null,
    "closed": false,
    "code_privacy": "p",
    "created": "2025-07-20T23:14:33.933835Z",
    "cup_league": 2815434,
    "has_cup": true,
    "id": 314,
    "league_type": "s",
    "max_entries": null,
    "name": "Overall",
    "rank": null,
    "scoring": "c",
    "start_event": 1
  },
  "new_entries": {
    "has_next": false,
    "page": 1,
    "results": []
  },
  "standings": {
    "has_next": true,
    "page": 790,
    "results": [
      {
        "club_badge_src": null,
        "entry": 4856932,
        "entry_name": "Jackowack",
        "event_total": 50,
        "has_played": true,
        "id": 37425995,
        "last_rank": 31371,
        "player_name": "Jack Mccrea",
        "rank": 39399,
        "rank_sort": 39451,
        "total": 2360
      },
      {
        "club_badge_src": null,
        "entry": 4871828,
        "entry_name": "Pathetico Madrid",
        "event_total": 76,
        "has_played": true,
        "id": 37552265,
        "last_rank": 62223,
        "player_name": "Chris Auty",
        "rank": 39399,
        "rank_sort": 39452,
        "total": 2360
      },
      {
        "club_badge_src": null,
        "entry": 5149507,
        "entry_name": "Marty Nelly",
        "event_total": 61,
        "has_played": true,
        "id": 39839206,
        "last_rank": 44804,
        "player_name": "Muhammad Ali",
        "rank": 39399,
        "rank_sort": 39453,
        "total": 2360
      },
      {
        "club_badge_src": "https://fantasy.premierleague.com/gcs/plfpl-production-adobe-approved/plfpl-production/5400142/b2e0fb61-3abe-407f-9b45-3429035b6a66.png",
        "entry": 5400142,
        "entry_name": "Key Bumps",
        "event_total": 60,
        "has_played": true,
        "id": 41987304,
        "last_rank": 43342,
        "player_name": "Dominic Prado Vomend",
        "rank": 39399,
        "rank_sort": 39454,
        "total": 2360
      },
      {
        "club_badge_src": "https://fantasy.premierleague.com/gcs/plfpl-production-adobe-approved/plfpl-production/5531512/b286d37b-4885-48fc-b66f-985a0963e021.png",
        "entry": 5531512,
        "entry_name": "Bowen Arrows",
        "event_total": 67,
        "has_played": true,
        "id": 43153183,
        "last_rank": 47596,
        "player_name": "Jack Lavi",
        "rank": 39399,
        "rank_sort": 39455,
        "total": 2360
      },
      {
        "club_badge_src": "https://fantasy.premierleague.com/gcs/plfpl-production-adobe-approved/plfpl-production/5796091/ff7e07e6-3291-41f5-99fa-7f8b6f76c412.png",
        "entry": 5796091,
        "entry_name": "Chat KDB",
        "event_total": 56,
        "has_played": true,
        "id": 45464897,
        "last_rank": 38016,
        "player_name": "Tim Love",
        "rank": 39399,
        "rank_sort": 39456,
        "total": 2360
      },
      {
        "club_badge_src": null,
        "entry": 5848446,
        "entry_name": "New Look City",
        "event_total": 60,
        "has_played": true,
        "id": 45915136,
        "last_rank": 43168,
        "player_name": "Jason Sutton",
        "rank": 39399,
        "rank_sort": 39457,
        "total": 2360
      },
      {
        "club_badge_src": "https://fantasy.premierleague.com/gcs/plfpl-production-adobe-approved/plfpl-production/6342907/4bf98d8a-2483-4e79-87ac-dd229a644e21.png",
        "entry": 6342907,
        "entry_name": "The Special One",
        "event_total": 63,
        "has_played": true,
        "id": 50417011,
        "last_rank": 47596,
        "player_name": "I am Jose Mourinho",
        "rank": 39399,
        "rank_sort": 39458,
        "total": 2360
      },
      {
        "club_badge_src": null,
        "entry": 6403937,
        "entry_name": "world class",
        "event_total": 75,
        "has_played": true,
        "id": 50954351,
        "last_rank": 67695,
        "player_name": "Patrick Mwangi",
        "rank": 39399,
        "rank_sort": 39459,
        "total": 2360
      },
      {
        "club_badge_src": null,
        "entry": 6698200,
        "entry_name": "VERMELL F.C",
        "event_total": 47,
        "has_played": true,
        "id": 53593050,
        "last_rank": 28388,
        "player_name": "Kingsley Vermell",
        "rank": 39399,
        "rank_sort": 39460,
        "total": 2360
      },
      {
        "club_badge_src": "https://fantasy.premierleague.com/gcs/plfpl-production-adobe-approved/plfpl-production/6726466/6c3030bf-f60d-40db-87ab-a1e37896174d.png",
        "entry": 6726466,
        "entry_name": "Fredagsklubben 25/26",
        "event_total": 65,
        "has_played": true,
        "id": 53836369,
        "last_rank": 50848,
        "player_name": "Linus Christensen",
        "rank": 39399,
        "rank_sort": 39461,
        "total": 2360
      },
      {
        "club_badge_src": null,
        "entry": 6797216,
        "entry_name": "Team Shaolin",
        "event_total": 59,
        "has_played": true,
        "id": 54433671,
        "last_rank": 41967,
        "player_name": "Sam Hutchins",
        "rank": 39399,
        "rank_sort": 39462,
        "total": 2360
      },
      {
        "club_badge_src": "https://fantasy.premierleague.com/gcs/plfpl-production-adobe-approved/plfpl-production/7485992/b1917918-cbef-4d59-8ecb-0e4617e304d7.png",
        "entry": 7485992,
        "entry_name": "Betboo Boys",
        "event_total": 76,
        "has_played": true,
        "id": 61100805,
        "last_rank": 55311,
        "player_name": "Jay Greenham",
        "rank": 39399,
        "rank_sort": 39463,
        "total": 2360
      },
      {
        "club_badge_src": null,
        "entry": 7540130,
        "entry_name": "Hotncold11",
        "event_total": 48,
        "has_played": true,
        "id": 61722230,
        "last_rank": 29279,
        "player_name": "Tali Jamir",
        "rank": 39399,
        "rank_sort": 39464,
        "total": 2360
      },
      {
        "club_badge_src": null,
        "entry": 8327791,
        "entry_name": "Bus Stop in Hounslow",
        "event_total": 70,
        "has_played": true,
        "id": 68993444,
        "last_rank": 59077,
        "player_name": "Caspar Naylor",
        "rank": 39399,
        "rank_sort": 39465,
        "total": 2360
      },
      {
        "club_badge_src": null,
        "entry": 8370855,
        "entry_name": "ABCDE FC",
        "event_total": 62,
        "has_played": true,
        "id": 69403108,
        "last_rank": 46236,
        "player_name": "Richard Molloy",
        "rank": 39399,
        "rank_sort": 39466,
        "total": 2360
      },
      {
        "club_badge_src": null,
        "entry": 9330402,
        "entry_name": "\u0633\u0647\u0645",
        "event_total": 65,
        "has_played": true,
        "id": 78700962,
        "last_rank": 44672,
        "player_name": "112233 112233",
        "rank": 39399,
        "rank_sort": 39467,
        "total": 2360
      },
      {
        "club_badge_src": "https://fantasy.premierleague.com/gcs/plfpl-production-adobe-approved/plfpl-production/5217/6e76d004-9433-4f8d-bb36-0d7acd099995.png",
        "entry": 5217,
        "entry_name": "Note ToonArmy",
        "event_total": 64,
        "has_played": true,
        "id": 29727,
        "last_rank": 43444,
        "player_name": "Jarut Puttung",
        "rank": 39468,
        "rank_sort": 39468,
        "total": 2360
      },
      {
        "club_badge_src": null,
        "entry": 18919,
        "entry_name": "Bruno Dos Tres",
        "event_total": 63,
        "has_played": true,
        "id": 117752,
        "last_rank": 42081,
        "player_name": "Henrik Garmannslund",
        "rank": 39468,
        "rank_sort": 39469,
        "total": 2360
      },
      {
        "club_badge_src": null,
        "entry": 27579,
        "entry_name": "Mohammed Salam Ramos",
        "event_total": 67,
        "has_played": true,
        "id": 174353,
        "last_rank": 47722,
        "player_name": "Mohammed Salam Ramos",
        "rank": 39468,
        "rank_sort": 39470,
        "total": 2360
      },
      {
        "club_badge_src": "https://fantasy.premierleague.com/gcs/plfpl-production-adobe-approved/plfpl-production/54774/801faba8-e48c-4c18-a94a-6ebcd17eec3b.png",
        "entry": 54774,
        "entry_name": "Average FC",
        "event_total": 61,
        "has_played": true,
        "id": 352532,
        "last_rank": 34578,
        "player_name": "Andrew G",
        "rank": 39468,
        "rank_sort": 39471,
        "total": 2360
      },
      {
        "club_badge_src": null,
        "entry": 73867,
        "entry_name": "Shiver me Timbers",
        "event_total": 54,
        "has_played": true,
        "id": 480201,
        "last_rank": 27304,
        "player_name": "Naldo Marques",
        "rank": 39468,
        "rank_sort": 39472,
        "total": 2360
      },
      {
        "club_badge_src": null,
        "entry": 84201,
        "entry_name": "Hacunha Mateta",
        "event_total": 62,
        "has_played": true,
        "id": 548144,
        "last_rank": 46313,
        "player_name": "Hugh Martin",
        "rank": 39468,
        "rank_sort": 39473,
        "total": 2360
      },
      {
        "club_badge_src": null,
        "entry": 151872,
        "entry_name": "Non-Corey Squad",
        "event_total": 48,
        "has_played": true,
        "id": 996548,
        "last_rank": 29369,
        "player_name": "Ben Peppercorn",
        "rank": 39468,
        "rank_sort": 39474,
        "total": 2360
      },
      {
        "club_badge_src": "https://fantasy.premierleague.com/gcs/plfpl-production-adobe-approved/plfpl-production/167148/6d50a666-d8f7-48f2-a85c-2504f17df9d4.png",
        "entry": 167148,
        "entry_name": "Fad Army",
        "event_total": 62,
        "has_played": true,
        "id": 1104761,
        "last_rank": 46236,
        "player_name": "Dave Butterworth",
        "rank": 39468,
        "rank_sort": 39475,
        "total": 2360
      },
      {
        "club_badge_src": "https://fantasy.premierleague.com/gcs/plfpl-production-adobe-approved/plfpl-production/174400/0724a194-6e85-4457-8d10-3d0d65498870.png",
        "entry": 174400,
        "entry_name": "Plavi Kavd'rchani FC",
        "event_total": 47,
        "has_played": true,
        "id": 1151607,
        "last_rank": 28388,
        "player_name": "Ivan Nedev",
        "rank": 39468,
        "rank_sort": 39476,
        "total": 2360
      },
      {
        "club_badge_src": null,
        "entry": 179612,
        "entry_name": "Kane-sham Town",
        "event_total": 66,
        "has_played": true,
        "id": 1185247,
        "last_rank": 52357,
        "player_name": "John Hare",
        "rank": 39468,
        "rank_sort": 39477,
        "total": 2360
      },
      {
        "club_badge_src": null,
        "entry": 214893,
        "entry_name": "Club Ala eddine",
        "event_total": 59,
        "has_played": true,
        "id": 1429431,
        "last_rank": 32335,
        "player_name": "ALA HAMIDANI",
        "rank": 39468,
        "rank_sort": 39478,
        "total": 2360
      },
      {
        "club_badge_src": null,
        "entry": 247721,
        "entry_name": "El-Mazarita FC",
        "event_total": 67,
        "has_played": true,
        "id": 1648860,
        "last_rank": 54065,
        "player_name": "Ahmed Hesham",
        "rank": 39468,
        "rank_sort": 39479,
        "total": 2360
      },
      {
        "club_badge_src": null,
        "entry": 253729,
        "entry_name": "White Iversen",
        "event_total": 43,
        "has_played": true,
        "id": 1687697,
        "last_rank": 24636,
        "player_name": "Tuomas Savijoki",
        "rank": 39468,
        "rank_sort": 39480,
        "total": 2360
      },
      {
        "club_badge_src": null,
        "entry": 264080,
        "entry_name": "Gyokeres + 10",
        "event_total": 74,
        "has_played": true,
        "id": 1756021,
        "last_rank": 66200,
        "player_name": "Bruno Magalh\u00e3es",
        "rank": 39468,
        "rank_sort": 39481,
        "total": 2360
      },
      {
        "club_badge_src": null,
        "entry": 293264,
        "entry_name": "\u062d\u0628\u0634\u064a",
        "event_total": 48,
        "has_played": true,
        "id": 1957502,
        "last_rank": 22154,
        "player_name": "Musab Awad",
        "rank": 39468,
        "rank_sort": 39482,
        "total": 2360
      },
      {
        "club_badge_src": null,
        "entry": 312653,
        "entry_name": "ZwalMiCunha",
        "event_total": 50,
        "has_played": true,
        "id": 2094730,
        "last_rank": 31404,
        "player_name": "Szymon Jachymiak",
        "rank": 39468,
        "rank_sort": 39483,
        "total": 2360
      },
      {
        "club_badge_src": null,
        "entry": 339050,
        "entry_name": "Rice Rice Baby",
        "event_total": 61,
        "has_played": true,
        "id": 2269808,
        "last_rank": 44804,
        "player_name": "Yeabsera Fasil",
        "rank": 39468,
        "rank_sort": 39484,
        "total": 2360
      },
      {
        "club_badge_src": "https://fantasy.premierleague.com/gcs/plfpl-production-adobe-approved/plfpl-production/370227/0cabc6be-21a8-4870-96ac-b17c2927b789.png",
        "entry": 370227,
        "entry_name": "Nostradamus FC",
        "event_total": 64,
        "has_played": true,
        "id": 2477385,
        "last_rank": 43444,
        "player_name": "Luc van der veen",
        "rank": 39468,
        "rank_sort": 39485,
        "total": 2360
      },
      {
        "club_badge_src": null,
        "entry": 558604,
        "entry_name": "DazzLerZ",
        "event_total": 57,
        "has_played": true,
        "id": 3759310,
        "last_rank": 39585,
        "player_name": "Gannappan Manimuthu",
        "rank": 39468,
        "rank_sort": 39486,
        "total": 2360
      },
      {
        "club_badge_src": "https://fantasy.premierleague.com/gcs/plfpl-production-adobe-approved/plfpl-production/574074/8f5cf4fe-1300-4550-b3df-0972d6489caa.png",
        "entry": 574074,
        "entry_name": "That's NumberHwang!",
        "event_total": 69,
        "has_played": true,
        "id": 3863350,
        "last_rank": 57001,
        "player_name": "Max Russell",
        "rank": 39468,
        "rank_sort": 39487,
        "total": 2360
      },
      {
        "club_badge_src": null,
        "entry": 706204,
        "entry_name": "Cunha believe it",
        "event_total": 69,
        "has_played": true,
        "id": 4786084,
        "last_rank": 57451,
        "player_name": "Daniel Brady",
        "rank": 39468,
        "rank_sort": 39488,
        "total": 2360
      },
      {
        "club_badge_src": "https://fantasy.premierleague.com/gcs/plfpl-production-adobe-approved/plfpl-production/732726/6723d38a-a4e4-49e3-89e9-0790cc7073b6.png",
        "entry": 732726,
        "entry_name": "New Frills FC",
        "event_total": 50,
        "has_played": true,
        "id": 4979252,
        "last_rank": 31309,
        "player_name": "Justin Garner",
        "rank": 39468,
        "rank_sort": 39489,
        "total": 2360
      },
      {
        "club_badge_src": null,
        "entry": 771570,
        "entry_name": "Ascot Shots",
        "event_total": 62,
        "has_played": true,
        "id": 5263739,
        "last_rank": 40770,
        "player_name": "Tim Schofield",
        "rank": 39468,
        "rank_sort": 39490,
        "total": 2360
      },
      {
        "club_badge_src": null,
        "entry": 775109,
        "entry_name": "Sandmere Rovers",
        "event_total": 69,
        "has_played": true,
        "id": 5288597,
        "last_rank": 50772,
        "player_name": "Colin Lever",
        "rank": 39468,
        "rank_sort": 39491,
        "total": 2360
      },
      {
        "club_badge_src": null,
        "entry": 810927,
        "entry_name": "Mandaflorian",
        "event_total": 59,
        "has_played": true,
        "id": 5552299,
        "last_rank": 37058,
        "player_name": "Imran Nasir",
        "rank": 39468,
        "rank_sort": 39492,
        "total": 2360
      },
      {
        "club_badge_src": "https://fantasy.premierleague.com/gcs/plfpl-production-adobe-approved/plfpl-production/831914/34227641-5b35-4334-a4b1-5a0cf24e5907.png",
        "entry": 831914,
        "entry_name": "\u0160e\u0161ko Disco",
        "event_total": 66,
        "has_played": true,
        "id": 5698157,
        "last_rank": 52357,
        "player_name": "Jack Sturm",
        "rank": 39468,
        "rank_sort": 39493,
        "total": 2360
      },
      {
        "club_badge_src": null,
        "entry": 1064063,
        "entry_name": "rolls reus",
        "event_total": 58,
        "has_played": true,
        "id": 7366189,
        "last_rank": 40770,
        "player_name": "Alex Sagen",
        "rank": 39468,
        "rank_sort": 39494,
        "total": 2360
      },
      {
        "club_badge_src": "https://fantasy.premierleague.com/gcs/plfpl-production-adobe-approved/plfpl-production/1355929/7a219668-ed80-4ca8-8c9a-3314a2895725.png",
        "entry": 1355929,
        "entry_name": "Mercato",
        "event_total": 67,
        "has_played": true,
        "id": 9425520,
        "last_rank": 53621,
        "player_name": "Samy Nabil",
        "rank": 39468,
        "rank_sort": 39495,
        "total": 2360
      },
      {
        "club_badge_src": null,
        "entry": 1404733,
        "entry_name": "the dying",
        "event_total": 60,
        "has_played": true,
        "id": 9774016,
        "last_rank": 38267,
        "player_name": "Kero Mohab",
        "rank": 39468,
        "rank_sort": 39496,
        "total": 2360
      },
      {
        "club_badge_src": null,
        "entry": 1500895,
        "entry_name": "Tommy's Trotters",
        "event_total": 66,
        "has_played": true,
        "id": 10467064,
        "last_rank": 52357,
        "player_name": "Thomas Clark",
        "rank": 39468,
        "rank_sort": 39497,
        "total": 2360
      },
      {
        "club_badge_src": null,
        "entry": 1861675,
        "entry_name": "LUFC",
        "event_total": 50,
        "has_played": true,
        "id": 13103192,
        "last_rank": 27364,
        "player_name": "cian doherty",
        "rank": 39468,
        "rank_sort": 39498,
        "total": 2360
      },
      {
        "club_badge_src": null,
        "entry": 1964074,
        "entry_name": "Low Block FC",
        "event_total": 59,
        "has_played": true,
        "id": 13858108,
        "last_rank": 42081,
        "player_name": "Rob Price",
        "rank": 39468,
        "rank_sort": 39499,
        "total": 2360
      },
      {
        "club_badge_src": null,
        "entry": 2314433,
        "entry_name": "KacchaLimbu",
        "event_total": 57,
        "has_played": true,
        "id": 16509886,
        "last_rank": 34682,
        "player_name": "Pratik Gosar",
        "rank": 39468,
        "rank_sort": 39500,
        "total": 2360
      }
    ]
  }
}