{
  "last_updated_data": "2026-05-24T23:28:17Z",
  "league": {
    "admin_entry": null,
    "closed": false,
    "code_privacy": "p",
    "created": "2025-07-20T23:14:33.933835Z",
    "cup_league": 2815434,
    "has_cup": true,
    "id": 314,
    "league_type": "s",
    "max_entries": null,
    "name": "Overall",
    "rank": null,
    "scoring": "c",
    "start_event": 1
  },
  "new_entries": {
    "has_next": false,
    "page": 1,
    "results": []
  },
  "standings": {
    "has_next": true,
    "page": 1082,
    "results": [
      {
        "club_badge_src": null,
        "entry": 249623,
        "entry_name": "fggzf",
        "event_total": 61,
        "has_played": true,
        "id": 1661095,
        "last_rank": 61315,
        "player_name": "Jon Doe",
        "rank": 54011,
        "rank_sort": 54051,
        "total": 2349
      },
      {
        "club_badge_src": "https://fantasy.premierleague.com/gcs/plfpl-production-adobe-approved/plfpl-production/250745/a32c8435-124d-4bab-9bca-fe901b60f3b7.png",
        "entry": 250745,
        "entry_name": "FC Galgos",
        "event_total": 67,
        "has_played": true,
        "id": 1668238,
        "last_rank": 72815,
        "player_name": "Valter Lehtinen",
        "rank": 54011,
        "rank_sort": 54052,
        "total": 2349
      },
      {
        "club_badge_src": null,
        "entry": 253119,
        "entry_name": "Indra Ajhari",
        "event_total": 63,
        "has_played": true,
        "id": 1683518,
        "last_rank": 64943,
        "player_name": "Indra Ajhari Nainggolan",
        "rank": 54011,
        "rank_sort": 54053,
        "total": 2349
      },
      {
        "club_badge_src": null,
        "entry": 254968,
        "entry_name": "Fast Eddy FC",
        "event_total": 51,
        "has_played": true,
        "id": 1695989,
        "last_rank": 45714,
        "player_name": "Dan Edwards",
        "rank": 54011,
        "rank_sort": 54054,
        "total": 2349
      },
      {
        "club_badge_src": null,
        "entry": 290865,
        "entry_name": "Mick's Marauders",
        "event_total": 51,
        "has_played": true,
        "id": 1939795,
        "last_rank": 45416,
        "player_name": "Michael Moorcroft",
        "rank": 54011,
        "rank_sort": 54055,
        "total": 2349
      },
      {
        "club_badge_src": "https://fantasy.premierleague.com/gcs/plfpl-production-adobe-approved/plfpl-production/304098/fbfd49a4-8904-4da5-9a13-4d6f9a765db4.png",
        "entry": 304098,
        "entry_name": "Palmer's Fringe XI",
        "event_total": 66,
        "has_played": true,
        "id": 2035895,
        "last_rank": 70985,
        "player_name": "Kynan Behan",
        "rank": 54011,
        "rank_sort": 54056,
        "total": 2349
      },
      {
        "club_badge_src": "https://fantasy.premierleague.com/gcs/plfpl-production-adobe-approved/plfpl-production/313001/f2b6a73c-2f2d-4723-9351-dc11e409ab27.png",
        "entry": 313001,
        "entry_name": "Tony's Wonders",
        "event_total": 75,
        "has_played": true,
        "id": 2097100,
        "last_rank": 90565,
        "player_name": "Tony Towers",
        "rank": 54011,
        "rank_sort": 54057,
        "total": 2349
      },
      {
        "club_badge_src": null,
        "entry": 315813,
        "entry_name": "MurderonZidanesfloor",
        "event_total": 55,
        "has_played": true,
        "id": 2116612,
        "last_rank": 51403,
        "player_name": "Robbie Grayson",
        "rank": 54011,
        "rank_sort": 54058,
        "total": 2349
      },
      {
        "club_badge_src": null,
        "entry": 316559,
        "entry_name": "BC XI",
        "event_total": 55,
        "has_played": true,
        "id": 2121747,
        "last_rank": 51403,
        "player_name": "Brennan Cross",
        "rank": 54011,
        "rank_sort": 54059,
        "total": 2349
      },
      {
        "club_badge_src": null,
        "entry": 325611,
        "entry_name": "Sousuke Allison",
        "event_total": 48,
        "has_played": true,
        "id": 2181743,
        "last_rank": 41324,
        "player_name": "Joseph Moran",
        "rank": 54011,
        "rank_sort": 54060,
        "total": 2349
      },
      {
        "club_badge_src": "https://fantasy.premierleague.com/gcs/plfpl-production-adobe-approved/plfpl-production/327857/990fb13c-df4e-401f-b1b9-4a724cb8b416.png",
        "entry": 327857,
        "entry_name": "Kinder Mbuemo",
        "event_total": 63,
        "has_played": true,
        "id": 2196521,
        "last_rank": 65163,
        "player_name": "Navroop Sidhu",
        "rank": 54011,
        "rank_sort": 54061,
        "total": 2349
      },
      {
        "club_badge_src": null,
        "entry": 329173,
        "entry_name": "Jason Bournemouth",
        "event_total": 68,
        "has_played": true,
        "id": 2205084,
        "last_rank": 75139,
        "player_name": "Nick Salter",
        "rank": 54011,
        "rank_sort": 54062,
        "total": 2349
      },
      {
        "club_badge_src": null,
        "entry": 331520,
        "entry_name": "Back In The Game",
        "event_total": 59,
        "has_played": true,
        "id": 2220515,
        "last_rank": 58071,
        "player_name": "Phil B",
        "rank": 54011,
        "rank_sort": 54063,
        "total": 2349
      },
      {
        "club_badge_src": null,
        "entry": 332886,
        "entry_name": "gooning  xi",
        "event_total": 52,
        "has_played": true,
        "id": 2229481,
        "last_rank": 46839,
        "player_name": "Richy Iley",
        "rank": 54011,
        "rank_sort": 54064,
        "total": 2349
      },
      {
        "club_badge_src": null,
        "entry": 347882,
        "entry_name": "JaSienna",
        "event_total": 77,
        "has_played": true,
        "id": 2328483,
        "last_rank": 95640,
        "player_name": "JaSienna McKeown",
        "rank": 54011,
        "rank_sort": 54065,
        "total": 2349
      },
      {
        "club_badge_src": "https://fantasy.premierleague.com/gcs/plfpl-production-adobe-approved/plfpl-production/354215/5420580f-d195-445e-b442-3943b7460817.png",
        "entry": 354215,
        "entry_name": "Wandering All Stars",
        "event_total": 42,
        "has_played": true,
        "id": 2370610,
        "last_rank": 34051,
        "player_name": "Paul McCloskey",
        "rank": 54011,
        "rank_sort": 54066,
        "total": 2349
      },
      {
        "club_badge_src": null,
        "entry": 363169,
        "entry_name": "Gittens Got Talent",
        "event_total": 83,
        "has_played": true,
        "id": 2430207,
        "last_rank": 111169,
        "player_name": "Kadan Al-Gharabally",
        "rank": 54011,
        "rank_sort": 54067,
        "total": 2349
      },
      {
        "club_badge_src": null,
        "entry": 379780,
        "entry_name": "Bread and Rutter",
        "event_total": 70,
        "has_played": true,
        "id": 2544887,
        "last_rank": 79190,
        "player_name": "Joe Emery",
        "rank": 54011,
        "rank_sort": 54068,
        "total": 2349
      },
      {
        "club_badge_src": "https://fantasy.premierleague.com/gcs/plfpl-production-adobe-approved/plfpl-production/408432/589c443d-2759-4aea-836d-4eb2cfbc1378.png",
        "entry": 408432,
        "entry_name": "Sams Hams",
        "event_total": 54,
        "has_played": true,
        "id": 2738947,
        "last_rank": 49880,
        "player_name": "Sam Turner",
        "rank": 54011,
        "rank_sort": 54069,
        "total": 2349
      },
      {
        "club_badge_src": null,
        "entry": 408518,
        "entry_name": "hakona matata",
        "event_total": 58,
        "has_played": true,
        "id": 2739507,
        "last_rank": 56369,
        "player_name": "Mohamed Salah",
        "rank": 54011,
        "rank_sort": 54070,
        "total": 2349
      },
      {
        "club_badge_src": "https://fantasy.premierleague.com/gcs/plfpl-production-adobe-approved/plfpl-production/422226/c7f2d79c-3c76-471d-a9a0-6c6c4afa43e5.png",
        "entry": 422226,
        "entry_name": "Kri$$y B",
        "event_total": 61,
        "has_played": true,
        "id": 2829590,
        "last_rank": 61606,
        "player_name": "Kristian Gjelsvik",
        "rank": 54011,
        "rank_sort": 54071,
        "total": 2349
      },
      {
        "club_badge_src": null,
        "entry": 425801,
        "entry_name": "Wilks FC",
        "event_total": 70,
        "has_played": true,
        "id": 2854426,
        "last_rank": 79431,
        "player_name": "Luke Wilkie",
        "rank": 54011,
        "rank_sort": 54072,
        "total": 2349
      },
      {
        "club_badge_src": null,
        "entry": 429017,
        "entry_name": "Cops and Szobbers",
        "event_total": 49,
        "has_played": true,
        "id": 2877513,
        "last_rank": 42648,
        "player_name": "Ben Kennedy",
        "rank": 54011,
        "rank_sort": 54073,
        "total": 2349
      },
      {
        "club_badge_src": "https://fantasy.premierleague.com/gcs/plfpl-production-adobe-approved/plfpl-production/431960/5286d946-9ac0-46bd-9cf6-f334816b339a.png",
        "entry": 431960,
        "entry_name": "Madturk020",
        "event_total": 53,
        "has_played": true,
        "id": 2897081,
        "last_rank": 48363,
        "player_name": "Kayan Kilinger",
        "rank": 54011,
        "rank_sort": 54074,
        "total": 2349
      },
      {
        "club_badge_src": null,
        "entry": 457234,
        "entry_name": "hoyin24",
        "event_total": 63,
        "has_played": true,
        "id": 3067564,
        "last_rank": 65163,
        "player_name": "Ho Yin Liu",
        "rank": 54011,
        "rank_sort": 54075,
        "total": 2349
      },
      {
        "club_badge_src": null,
        "entry": 471806,
        "entry_name": "Socceroos",
        "event_total": 49,
        "has_played": true,
        "id": 3167625,
        "last_rank": 37435,
        "player_name": "Andrew Cotton",
        "rank": 54011,
        "rank_sort": 54076,
        "total": 2349
      },
      {
        "club_badge_src": null,
        "entry": 472318,
        "entry_name": "Pensioners",
        "event_total": 74,
        "has_played": true,
        "id": 3171110,
        "last_rank": 88185,
        "player_name": "Nikolaos Grosias",
        "rank": 54011,
        "rank_sort": 54077,
        "total": 2349
      },
      {
        "club_badge_src": null,
        "entry": 477186,
        "entry_name": "Wake up smell coffee",
        "event_total": 52,
        "has_played": true,
        "id": 3203191,
        "last_rank": 46839,
        "player_name": "Jay Thomas",
        "rank": 54011,
        "rank_sort": 54078,
        "total": 2349
      },
      {
        "club_badge_src": null,
        "entry": 480170,
        "entry_name": "Eki Tea Cake",
        "event_total": 44,
        "has_played": true,
        "id": 3223780,
        "last_rank": 36348,
        "player_name": "Isaac Andrews",
        "rank": 54011,
        "rank_sort": 54079,
        "total": 2349
      },
      {
        "club_badge_src": null,
        "entry": 487180,
        "entry_name": "Mykolenko on Toast",
        "event_total": 54,
        "has_played": true,
        "id": 3270675,
        "last_rank": 49691,
        "player_name": "Ross Mitchell",
        "rank": 54011,
        "rank_sort": 54080,
        "total": 2349
      },
      {
        "club_badge_src": null,
        "entry": 527542,
        "entry_name": "Harjun Raittiusseura",
        "event_total": 67,
        "has_played": true,
        "id": 3546457,
        "last_rank": 72815,
        "player_name": "Niklas Jokitulppo",
        "rank": 54011,
        "rank_sort": 54081,
        "total": 2349
      },
      {
        "club_badge_src": null,
        "entry": 568792,
        "entry_name": "Wimbledon Welsh",
        "event_total": 44,
        "has_played": true,
        "id": 3828318,
        "last_rank": 36624,
        "player_name": "John Mortimer",
        "rank": 54011,
        "rank_sort": 54082,
        "total": 2349
      },
      {
        "club_badge_src": null,
        "entry": 601319,
        "entry_name": "Premierdial Soup",
        "event_total": 62,
        "has_played": true,
        "id": 4057444,
        "last_rank": 63390,
        "player_name": "Tom Bell",
        "rank": 54011,
        "rank_sort": 54083,
        "total": 2349
      },
      {
        "club_badge_src": null,
        "entry": 637080,
        "entry_name": "p\u00f8l Harbour",
        "event_total": 30,
        "has_played": true,
        "id": 4305663,
        "last_rank": 22685,
        "player_name": "Elling Dimmen Roppen",
        "rank": 54011,
        "rank_sort": 54084,
        "total": 2349
      },
      {
        "club_badge_src": null,
        "entry": 638199,
        "entry_name": "Change Name",
        "event_total": 60,
        "has_played": true,
        "id": 4313268,
        "last_rank": 59632,
        "player_name": "max lawton",
        "rank": 54011,
        "rank_sort": 54085,
        "total": 2349
      },
      {
        "club_badge_src": "https://fantasy.premierleague.com/gcs/plfpl-production-adobe-approved/plfpl-production/657711/2c39d289-731a-4ce9-9acd-be3fbf18a55a.png",
        "entry": 657711,
        "entry_name": "FC Krabbe",
        "event_total": 63,
        "has_played": true,
        "id": 4444742,
        "last_rank": 65163,
        "player_name": "Christoffer Krabbe",
        "rank": 54011,
        "rank_sort": 54086,
        "total": 2349
      },
      {
        "club_badge_src": null,
        "entry": 674744,
        "entry_name": "rUtter Woke Nonsense",
        "event_total": 61,
        "has_played": true,
        "id": 4564704,
        "last_rank": 61606,
        "player_name": "Aland Salim",
        "rank": 54011,
        "rank_sort": 54087,
        "total": 2349
      },
      {
        "club_badge_src": null,
        "entry": 691373,
        "entry_name": "Discmaniac",
        "event_total": 62,
        "has_played": true,
        "id": 4681958,
        "last_rank": 63390,
        "player_name": "Johannes Husa",
        "rank": 54011,
        "rank_sort": 54088,
        "total": 2349
      },
      {
        "club_badge_src": null,
        "entry": 715626,
        "entry_name": "HepCunhaMateta",
        "event_total": 53,
        "has_played": true,
        "id": 4855284,
        "last_rank": 48363,
        "player_name": "Andy Heppell",
        "rank": 54011,
        "rank_sort": 54089,
        "total": 2349
      },
      {
        "club_badge_src": null,
        "entry": 749069,
        "entry_name": "Benchalona",
        "event_total": 60,
        "has_played": true,
        "id": 5096326,
        "last_rank": 59813,
        "player_name": "Joe Bench",
        "rank": 54011,
        "rank_sort": 54090,
        "total": 2349
      },
      {
        "club_badge_src": null,
        "entry": 754397,
        "entry_name": "GBG25",
        "event_total": 52,
        "has_played": true,
        "id": 5135202,
        "last_rank": 46660,
        "player_name": "K2 Fitness",
        "rank": 54011,
        "rank_sort": 54091,
        "total": 2349
      },
      {
        "club_badge_src": null,
        "entry": 761936,
        "entry_name": "Blues \ufffd",
        "event_total": 59,
        "has_played": true,
        "id": 5195887,
        "last_rank": 58388,
        "player_name": "Emanuil Manov",
        "rank": 54011,
        "rank_sort": 54092,
        "total": 2349
      },
      {
        "club_badge_src": null,
        "entry": 764291,
        "entry_name": "Give Neal Maupay",
        "event_total": 52,
        "has_played": true,
        "id": 5212508,
        "last_rank": 46839,
        "player_name": "George Neal",
        "rank": 54011,
        "rank_sort": 54093,
        "total": 2349
      },
      {
        "club_badge_src": "https://fantasy.premierleague.com/gcs/plfpl-production-adobe-approved/plfpl-production/793395/3f547d0a-b3cf-4112-bb5f-4dd96473da59.png",
        "entry": 793395,
        "entry_name": "Martyn",
        "event_total": 77,
        "has_played": true,
        "id": 5429591,
        "last_rank": 95640,
        "player_name": "Vyacheslav Martynov",
        "rank": 54011,
        "rank_sort": 54094,
        "total": 2349
      },
      {
        "club_badge_src": null,
        "entry": 797329,
        "entry_name": "Minteh Ndidi",
        "event_total": 59,
        "has_played": true,
        "id": 5457292,
        "last_rank": 58071,
        "player_name": "Pedro Pablo Mir",
        "rank": 54011,
        "rank_sort": 54095,
        "total": 2349
      },
      {
        "club_badge_src": null,
        "entry": 800008,
        "entry_name": "VeraTTi",
        "event_total": 71,
        "has_played": true,
        "id": 5475879,
        "last_rank": 81646,
        "player_name": "Yousef Yasser",
        "rank": 54011,
        "rank_sort": 54096,
        "total": 2349
      },
      {
        "club_badge_src": "https://fantasy.premierleague.com/gcs/plfpl-production-adobe-approved/plfpl-production/803195/6a1dd270-a242-4a8d-9be6-c57f5d8cacab.png",
        "entry": 803195,
        "entry_name": "TheHype",
        "event_total": 65,
        "has_played": true,
        "id": 5498177,
        "last_rank": 68624,
        "player_name": "Will White",
        "rank": 54011,
        "rank_sort": 54097,
        "total": 2349
      },
      {
        "club_badge_src": null,
        "entry": 839896,
        "entry_name": "Cole Blooded Palmer",
        "event_total": 57,
        "has_played": true,
        "id": 5754539,
        "last_rank": 54667,
        "player_name": "Mohamud Abdi",
        "rank": 54011,
        "rank_sort": 54098,
        "total": 2349
      },
      {
        "club_badge_src": null,
        "entry": 879491,
        "entry_name": "tropicaljews",
        "event_total": 69,
        "has_played": true,
        "id": 6031010,
        "last_rank": 68748,
        "player_name": "Fletcher McIvor",
        "rank": 54011,
        "rank_sort": 54099,
        "total": 2349
      },
      {
        "club_badge_src": null,
        "entry": 920920,
        "entry_name": "Big Nick Energy",
        "event_total": 59,
        "has_played": true,
        "id": 6333411,
        "last_rank": 58071,
        "player_name": "Cameron Vincent",
        "rank": 54011,
        "rank_sort": 54100,
        "total": 2349
      }
    ]
  }
}