{
  "last_updated_data": "2026-05-24T23:28:17Z",
  "league": {
    "admin_entry": null,
    "closed": false,
    "code_privacy": "p",
    "created": "2025-07-20T23:14:33.933835Z",
    "cup_league": 2815434,
    "has_cup": true,
    "id": 314,
    "league_type": "s",
    "max_entries": null,
    "name": "Overall",
    "rank": null,
    "scoring": "c",
    "start_event": 1
  },
  "new_entries": {
    "has_next": false,
    "page": 1,
    "results": []
  },
  "standings": {
    "has_next": true,
    "page": 1506,
    "results": [
      {
        "club_badge_src": null,
        "entry": 15151,
        "entry_name": "BamNK",
        "event_total": 58,
        "has_played": true,
        "id": 92715,
        "last_rank": 70446,
        "player_name": "Nitiphat Kuntawee",
        "rank": 75250,
        "rank_sort": 75251,
        "total": 2338
      },
      {
        "club_badge_src": null,
        "entry": 28704,
        "entry_name": "vifpaal united",
        "event_total": 56,
        "has_played": true,
        "id": 181462,
        "last_rank": 66518,
        "player_name": "P\u00e5l Andre Rasmussen",
        "rank": 75250,
        "rank_sort": 75252,
        "total": 2338
      },
      {
        "club_badge_src": null,
        "entry": 99684,
        "entry_name": "Yellow Hawk",
        "event_total": 60,
        "has_played": true,
        "id": 650708,
        "last_rank": 74561,
        "player_name": "Thai Tran",
        "rank": 75250,
        "rank_sort": 75253,
        "total": 2338
      },
      {
        "club_badge_src": "https://fantasy.premierleague.com/gcs/plfpl-production-adobe-approved/plfpl-production/119618/b8c51de3-9b04-4f52-b09c-c87ea175de93.png",
        "entry": 119618,
        "entry_name": "Cunha Believe It?",
        "event_total": 41,
        "has_played": true,
        "id": 780430,
        "last_rank": 47982,
        "player_name": "Dhruv Rajah",
        "rank": 75250,
        "rank_sort": 75254,
        "total": 2338
      },
      {
        "club_badge_src": "https://fantasy.premierleague.com/gcs/plfpl-production-adobe-approved/plfpl-production/216377/2161a3b8-1f1f-441a-881a-b99ee7ee9116.png",
        "entry": 216377,
        "entry_name": "Definitely Maybe",
        "event_total": 70,
        "has_played": true,
        "id": 1439156,
        "last_rank": 108264,
        "player_name": "Chris Maudsley",
        "rank": 75250,
        "rank_sort": 75255,
        "total": 2338
      },
      {
        "club_badge_src": null,
        "entry": 219156,
        "entry_name": "Divlje svinje",
        "event_total": 60,
        "has_played": true,
        "id": 1457446,
        "last_rank": 66447,
        "player_name": "Orlan Kocijan",
        "rank": 75250,
        "rank_sort": 75256,
        "total": 2338
      },
      {
        "club_badge_src": "https://fantasy.premierleague.com/gcs/plfpl-production-adobe-approved/plfpl-production/274951/ec0dac1f-ba7b-492b-89d5-49c085568f6a.png",
        "entry": 274951,
        "entry_name": "Power Reijnders",
        "event_total": 69,
        "has_played": true,
        "id": 1829663,
        "last_rank": 95248,
        "player_name": "Rob Holden",
        "rank": 75250,
        "rank_sort": 75257,
        "total": 2338
      },
      {
        "club_badge_src": null,
        "entry": 353745,
        "entry_name": "Sylarexx FC",
        "event_total": 68,
        "has_played": true,
        "id": 2367530,
        "last_rank": 102844,
        "player_name": "Adedapo Adedire",
        "rank": 75250,
        "rank_sort": 75258,
        "total": 2338
      },
      {
        "club_badge_src": null,
        "entry": 488100,
        "entry_name": "Set and Remember",
        "event_total": 65,
        "has_played": true,
        "id": 3276755,
        "last_rank": 95281,
        "player_name": "Joel Gibson",
        "rank": 75250,
        "rank_sort": 75259,
        "total": 2338
      },
      {
        "club_badge_src": null,
        "entry": 580058,
        "entry_name": "Tesco Mcneil deal",
        "event_total": 67,
        "has_played": true,
        "id": 3903335,
        "last_rank": 90300,
        "player_name": "Henry Callaghan",
        "rank": 75250,
        "rank_sort": 75260,
        "total": 2338
      },
      {
        "club_badge_src": null,
        "entry": 613763,
        "entry_name": "Saudi Mane",
        "event_total": 64,
        "has_played": true,
        "id": 4147233,
        "last_rank": 83311,
        "player_name": "Ian akhuyo",
        "rank": 75250,
        "rank_sort": 75261,
        "total": 2338
      },
      {
        "club_badge_src": null,
        "entry": 684080,
        "entry_name": "Varsruiningthegame",
        "event_total": 43,
        "has_played": true,
        "id": 4630209,
        "last_rank": 45034,
        "player_name": "Carl Schorah",
        "rank": 75250,
        "rank_sort": 75262,
        "total": 2338
      },
      {
        "club_badge_src": "https://fantasy.premierleague.com/gcs/plfpl-production-adobe-approved/plfpl-production/911898/900b9d3b-db97-4a2a-bb48-528e026d52f1.png",
        "entry": 911898,
        "entry_name": "Ali Hilal",
        "event_total": 61,
        "has_played": true,
        "id": 6270234,
        "last_rank": 68395,
        "player_name": "ali hilal",
        "rank": 75250,
        "rank_sort": 75263,
        "total": 2338
      },
      {
        "club_badge_src": null,
        "entry": 1051494,
        "entry_name": "OneSalahdplease",
        "event_total": 69,
        "has_played": true,
        "id": 7276983,
        "last_rank": 105529,
        "player_name": "Alexander Rask",
        "rank": 75250,
        "rank_sort": 75264,
        "total": 2338
      },
      {
        "club_badge_src": null,
        "entry": 1190405,
        "entry_name": "Urgate be kidding me",
        "event_total": 66,
        "has_played": true,
        "id": 8259690,
        "last_rank": 97786,
        "player_name": "Sundip Jassa",
        "rank": 75250,
        "rank_sort": 75265,
        "total": 2338
      },
      {
        "club_badge_src": null,
        "entry": 1534214,
        "entry_name": "Kante Believe It",
        "event_total": 46,
        "has_played": true,
        "id": 10706568,
        "last_rank": 55957,
        "player_name": "Alan Davis",
        "rank": 75250,
        "rank_sort": 75266,
        "total": 2338
      },
      {
        "club_badge_src": "https://fantasy.premierleague.com/gcs/plfpl-production-adobe-approved/plfpl-production/1777425/5576eff3-9c2e-44bb-aa3b-43790eda7f9c.png",
        "entry": 1777425,
        "entry_name": "momo28",
        "event_total": 61,
        "has_played": true,
        "id": 12486802,
        "last_rank": 68395,
        "player_name": "Mahmoud Eldawy",
        "rank": 75250,
        "rank_sort": 75267,
        "total": 2338
      },
      {
        "club_badge_src": null,
        "entry": 1855254,
        "entry_name": "Jdt Sepang",
        "event_total": 67,
        "has_played": true,
        "id": 13055963,
        "last_rank": 100241,
        "player_name": "Mr Zahir",
        "rank": 75250,
        "rank_sort": 75268,
        "total": 2338
      },
      {
        "club_badge_src": null,
        "entry": 2121261,
        "entry_name": "Issam assel",
        "event_total": 64,
        "has_played": true,
        "id": 15068319,
        "last_rank": 92820,
        "player_name": "issam assel",
        "rank": 75250,
        "rank_sort": 75269,
        "total": 2338
      },
      {
        "club_badge_src": "https://fantasy.premierleague.com/gcs/plfpl-production-adobe-approved/plfpl-production/2456019/ec7a621a-b68e-4fa5-8e61-f3371bb18e7c.png",
        "entry": 2456019,
        "entry_name": "Atef AL Shamy",
        "event_total": 59,
        "has_played": true,
        "id": 17566918,
        "last_rank": 64603,
        "player_name": "Atef Al Shamy",
        "rank": 75250,
        "rank_sort": 75270,
        "total": 2338
      },
      {
        "club_badge_src": null,
        "entry": 2539416,
        "entry_name": "SemadiNulungSekulaFC",
        "event_total": 72,
        "has_played": true,
        "id": 18199292,
        "last_rank": 113835,
        "player_name": "gilbert bunan",
        "rank": 75250,
        "rank_sort": 75271,
        "total": 2338
      },
      {
        "club_badge_src": null,
        "entry": 3436914,
        "entry_name": "Viktor Infliktors",
        "event_total": 52,
        "has_played": true,
        "id": 25532699,
        "last_rank": 66546,
        "player_name": "Tom Dixon",
        "rank": 75250,
        "rank_sort": 75272,
        "total": 2338
      },
      {
        "club_badge_src": null,
        "entry": 4644166,
        "entry_name": "Tesco McNeil Deal",
        "event_total": 72,
        "has_played": true,
        "id": 35524467,
        "last_rank": 102813,
        "player_name": "Alex Norgett",
        "rank": 75250,
        "rank_sort": 75273,
        "total": 2338
      },
      {
        "club_badge_src": null,
        "entry": 5112545,
        "entry_name": "Roman Empire",
        "event_total": 60,
        "has_played": true,
        "id": 39524589,
        "last_rank": 59291,
        "player_name": "Roman Abramov",
        "rank": 75250,
        "rank_sort": 75274,
        "total": 2338
      },
      {
        "club_badge_src": "https://fantasy.premierleague.com/gcs/plfpl-production-adobe-approved/plfpl-production/5804620/5722285a-2983-43f1-ae3c-4519339e0eee.png",
        "entry": 5804620,
        "entry_name": "Epic Failure FC",
        "event_total": 70,
        "has_played": true,
        "id": 45540105,
        "last_rank": 87945,
        "player_name": "Kenneth Anciaux",
        "rank": 75250,
        "rank_sort": 75275,
        "total": 2338
      },
      {
        "club_badge_src": null,
        "entry": 6538174,
        "entry_name": "Blameitontraore",
        "event_total": 60,
        "has_played": true,
        "id": 52161457,
        "last_rank": 74524,
        "player_name": "Noel Comer",
        "rank": 75250,
        "rank_sort": 75276,
        "total": 2338
      },
      {
        "club_badge_src": null,
        "entry": 7426238,
        "entry_name": "Burn them all",
        "event_total": 41,
        "has_played": true,
        "id": 60320679,
        "last_rank": 47982,
        "player_name": "Ali Awad",
        "rank": 75250,
        "rank_sort": 75277,
        "total": 2338
      },
      {
        "club_badge_src": null,
        "entry": 8840541,
        "entry_name": "ManJoe",
        "event_total": 54,
        "has_played": true,
        "id": 73934722,
        "last_rank": 49407,
        "player_name": "yousef walid",
        "rank": 75250,
        "rank_sort": 75278,
        "total": 2338
      },
      {
        "club_badge_src": null,
        "entry": 9025536,
        "entry_name": "GiGi United",
        "event_total": 60,
        "has_played": true,
        "id": 75726186,
        "last_rank": 59291,
        "player_name": "Regine Hjort Francke",
        "rank": 75250,
        "rank_sort": 75279,
        "total": 2338
      },
      {
        "club_badge_src": null,
        "entry": 38285,
        "entry_name": "Mahmoud mayez",
        "event_total": 37,
        "has_played": true,
        "id": 245349,
        "last_rank": 42347,
        "player_name": "Mahmoud Mayez",
        "rank": 75280,
        "rank_sort": 75280,
        "total": 2338
      },
      {
        "club_badge_src": null,
        "entry": 60910,
        "entry_name": "Bertonov FC",
        "event_total": 53,
        "has_played": true,
        "id": 392180,
        "last_rank": 61139,
        "player_name": "Lior Milikowski",
        "rank": 75280,
        "rank_sort": 75281,
        "total": 2338
      },
      {
        "club_badge_src": null,
        "entry": 167458,
        "entry_name": "Sabr & Shukr",
        "event_total": 46,
        "has_played": true,
        "id": 1106915,
        "last_rank": 49475,
        "player_name": "Azim Khan",
        "rank": 75280,
        "rank_sort": 75282,
        "total": 2338
      },
      {
        "club_badge_src": null,
        "entry": 220065,
        "entry_name": "Yusfkurd11",
        "event_total": 69,
        "has_played": true,
        "id": 1463602,
        "last_rank": 85672,
        "player_name": "Yusf dlzar",
        "rank": 75280,
        "rank_sort": 75283,
        "total": 2338
      },
      {
        "club_badge_src": null,
        "entry": 475554,
        "entry_name": "7amani110",
        "event_total": 37,
        "has_played": true,
        "id": 3192459,
        "last_rank": 37264,
        "player_name": "Abdelrhman Ashraf",
        "rank": 75280,
        "rank_sort": 75284,
        "total": 2338
      },
      {
        "club_badge_src": null,
        "entry": 518505,
        "entry_name": "LeGALA",
        "event_total": 68,
        "has_played": true,
        "id": 3481293,
        "last_rank": 92820,
        "player_name": "Giang Dao",
        "rank": 75280,
        "rank_sort": 75285,
        "total": 2338
      },
      {
        "club_badge_src": null,
        "entry": 612411,
        "entry_name": "ibn imam",
        "event_total": 66,
        "has_played": true,
        "id": 4138046,
        "last_rank": 97841,
        "player_name": "Adam Adebayo",
        "rank": 75280,
        "rank_sort": 75286,
        "total": 2338
      },
      {
        "club_badge_src": null,
        "entry": 640442,
        "entry_name": "FIFA TACTICS",
        "event_total": 62,
        "has_played": true,
        "id": 4328365,
        "last_rank": 78852,
        "player_name": "H2H KING",
        "rank": 75280,
        "rank_sort": 75287,
        "total": 2338
      },
      {
        "club_badge_src": null,
        "entry": 655877,
        "entry_name": "The Schlimp",
        "event_total": 58,
        "has_played": true,
        "id": 4432453,
        "last_rank": 70471,
        "player_name": "Brandon Schlimper",
        "rank": 75280,
        "rank_sort": 75288,
        "total": 2338
      },
      {
        "club_badge_src": null,
        "entry": 977254,
        "entry_name": "Unreal United",
        "event_total": 67,
        "has_played": true,
        "id": 6737232,
        "last_rank": 90359,
        "player_name": "B B",
        "rank": 75280,
        "rank_sort": 75289,
        "total": 2338
      },
      {
        "club_badge_src": "https://fantasy.premierleague.com/gcs/plfpl-production-adobe-approved/plfpl-production/1096291/f0aee438-39f3-43d9-b723-67f8407796d3.png",
        "entry": 1096291,
        "entry_name": "M&Ms",
        "event_total": 69,
        "has_played": true,
        "id": 7593330,
        "last_rank": 105559,
        "player_name": "Murad Yosef",
        "rank": 75280,
        "rank_sort": 75290,
        "total": 2338
      },
      {
        "club_badge_src": "https://fantasy.premierleague.com/gcs/plfpl-production-adobe-approved/plfpl-production/1617000/99cd9fcd-f7e3-4fd3-9108-f0673090c2d6.png",
        "entry": 1617000,
        "entry_name": "Barry's Believers",
        "event_total": 70,
        "has_played": true,
        "id": 11314964,
        "last_rank": 97814,
        "player_name": "Barry Roberts",
        "rank": 75280,
        "rank_sort": 75291,
        "total": 2338
      },
      {
        "club_badge_src": null,
        "entry": 2768908,
        "entry_name": "muhannadka",
        "event_total": 68,
        "has_played": true,
        "id": 20202378,
        "last_rank": 92820,
        "player_name": "mohanned alotibi",
        "rank": 75280,
        "rank_sort": 75292,
        "total": 2338
      },
      {
        "club_badge_src": null,
        "entry": 2871536,
        "entry_name": "Wirtz Case Scenario",
        "event_total": 51,
        "has_played": true,
        "id": 21010985,
        "last_rank": 57636,
        "player_name": "Daniel Blowers",
        "rank": 75280,
        "rank_sort": 75293,
        "total": 2338
      },
      {
        "club_badge_src": "https://fantasy.premierleague.com/gcs/plfpl-production-adobe-approved/plfpl-production/3248984/4d8bb5ac-bdb9-458a-8c05-fc0c7db5c81d.png",
        "entry": 3248984,
        "entry_name": "thrylosfc",
        "event_total": 52,
        "has_played": true,
        "id": 24037157,
        "last_rank": 66559,
        "player_name": "alex kavoulis",
        "rank": 75280,
        "rank_sort": 75294,
        "total": 2338
      },
      {
        "club_badge_src": null,
        "entry": 3951270,
        "entry_name": "tra varre",
        "event_total": 62,
        "has_played": true,
        "id": 29725448,
        "last_rank": 78852,
        "player_name": "Safi Abdou",
        "rank": 75280,
        "rank_sort": 75295,
        "total": 2338
      },
      {
        "club_badge_src": null,
        "entry": 5724684,
        "entry_name": "Golazo",
        "event_total": 54,
        "has_played": true,
        "id": 44843291,
        "last_rank": 70493,
        "player_name": "Michael Beltran",
        "rank": 75280,
        "rank_sort": 75296,
        "total": 2338
      },
      {
        "club_badge_src": null,
        "entry": 6015883,
        "entry_name": "White card fc",
        "event_total": 69,
        "has_played": true,
        "id": 47439058,
        "last_rank": 85672,
        "player_name": "Pacem C",
        "rank": 75280,
        "rank_sort": 75297,
        "total": 2338
      },
      {
        "club_badge_src": null,
        "entry": 8520123,
        "entry_name": "123456789",
        "event_total": 39,
        "has_played": true,
        "id": 70831343,
        "last_rank": 34864,
        "player_name": "Fredrik Thelander",
        "rank": 75280,
        "rank_sort": 75298,
        "total": 2338
      },
      {
        "club_badge_src": "https://fantasy.premierleague.com/gcs/plfpl-production-adobe-approved/plfpl-production/22632/fbf332b8-e6ee-4f23-b436-da60403d11d4.png",
        "entry": 22632,
        "entry_name": "ARTETATTACKK LADS!",
        "event_total": 61,
        "has_played": true,
        "id": 142201,
        "last_rank": 85730,
        "player_name": "Roshan Aryal",
        "rank": 75299,
        "rank_sort": 75299,
        "total": 2338
      },
      {
        "club_badge_src": null,
        "entry": 641401,
        "entry_name": "Deportivo Explosivo",
        "event_total": 66,
        "has_played": true,
        "id": 4334922,
        "last_rank": 88031,
        "player_name": "Allan Hopkins",
        "rank": 75299,
        "rank_sort": 75300,
        "total": 2338
      }
    ]
  }
}