{
  "last_updated_data": "2026-05-24T23:28:17Z",
  "league": {
    "admin_entry": null,
    "closed": false,
    "code_privacy": "p",
    "created": "2025-07-20T23:14:33.933835Z",
    "cup_league": 2815434,
    "has_cup": true,
    "id": 314,
    "league_type": "s",
    "max_entries": null,
    "name": "Overall",
    "rank": null,
    "scoring": "c",
    "start_event": 1
  },
  "new_entries": {
    "has_next": false,
    "page": 1,
    "results": []
  },
  "standings": {
    "has_next": true,
    "page": 1645,
    "results": [
      {
        "club_badge_src": null,
        "entry": 3126775,
        "entry_name": "Lundys Lads",
        "event_total": 62,
        "has_played": true,
        "id": 23076369,
        "last_rank": 95890,
        "player_name": "Geraint Lloyd",
        "rank": 81984,
        "rank_sort": 82201,
        "total": 2334
      },
      {
        "club_badge_src": null,
        "entry": 3130763,
        "entry_name": "Carts United",
        "event_total": 53,
        "has_played": true,
        "id": 23108072,
        "last_rank": 75139,
        "player_name": "Cathal Carty",
        "rank": 81984,
        "rank_sort": 82202,
        "total": 2334
      },
      {
        "club_badge_src": null,
        "entry": 3215275,
        "entry_name": "Beneteke F.C.",
        "event_total": 50,
        "has_played": true,
        "id": 23772529,
        "last_rank": 68624,
        "player_name": "Benedict Parkes",
        "rank": 81984,
        "rank_sort": 82203,
        "total": 2334
      },
      {
        "club_badge_src": null,
        "entry": 3228566,
        "entry_name": "booooooo",
        "event_total": 72,
        "has_played": true,
        "id": 23877387,
        "last_rank": 123120,
        "player_name": "Victoria Smart",
        "rank": 81984,
        "rank_sort": 82204,
        "total": 2334
      },
      {
        "club_badge_src": null,
        "entry": 3260895,
        "entry_name": "WINNING ELEVEN",
        "event_total": 54,
        "has_played": true,
        "id": 24128599,
        "last_rank": 76947,
        "player_name": "sangay khado",
        "rank": 81984,
        "rank_sort": 82205,
        "total": 2334
      },
      {
        "club_badge_src": "https://fantasy.premierleague.com/gcs/plfpl-production-adobe-approved/plfpl-production/3268159/39fec62b-0000-43ea-8c1b-1e059830c9f5.png",
        "entry": 3268159,
        "entry_name": "RedOne",
        "event_total": 63,
        "has_played": true,
        "id": 24184928,
        "last_rank": 98436,
        "player_name": "Redouan Belafki",
        "rank": 81984,
        "rank_sort": 82206,
        "total": 2334
      },
      {
        "club_badge_src": null,
        "entry": 3288434,
        "entry_name": "Oh he wears theno.20",
        "event_total": 60,
        "has_played": true,
        "id": 24345084,
        "last_rank": 91006,
        "player_name": "luis lodeiro",
        "rank": 81984,
        "rank_sort": 82207,
        "total": 2334
      },
      {
        "club_badge_src": null,
        "entry": 3317423,
        "entry_name": "TNFFC",
        "event_total": 64,
        "has_played": true,
        "id": 24582073,
        "last_rank": 100700,
        "player_name": "Tyron Hug",
        "rank": 81984,
        "rank_sort": 82208,
        "total": 2334
      },
      {
        "club_badge_src": null,
        "entry": 3326898,
        "entry_name": "Acunhamateta",
        "event_total": 61,
        "has_played": true,
        "id": 24665194,
        "last_rank": 93186,
        "player_name": "Thomas Joyce",
        "rank": 81984,
        "rank_sort": 82209,
        "total": 2334
      },
      {
        "club_badge_src": null,
        "entry": 3367597,
        "entry_name": "UpTheRa",
        "event_total": 34,
        "has_played": true,
        "id": 24989912,
        "last_rank": 42648,
        "player_name": "cas lee",
        "rank": 81984,
        "rank_sort": 82210,
        "total": 2334
      },
      {
        "club_badge_src": "https://fantasy.premierleague.com/gcs/plfpl-production-adobe-approved/plfpl-production/3377285/15d1da5e-56e4-48d0-b11c-b765ab3b66ac.png",
        "entry": 3377285,
        "entry_name": "Kinder Mbeumo",
        "event_total": 61,
        "has_played": true,
        "id": 25067900,
        "last_rank": 93443,
        "player_name": "David Albinson",
        "rank": 81984,
        "rank_sort": 82211,
        "total": 2334
      },
      {
        "club_badge_src": "https://fantasy.premierleague.com/gcs/plfpl-production-adobe-approved/plfpl-production/3381130/2209c91d-4528-4552-b55d-eaa7ceff3f84.png",
        "entry": 3381130,
        "entry_name": "KK",
        "event_total": 50,
        "has_played": true,
        "id": 25097707,
        "last_rank": 68748,
        "player_name": "Khalid Shaheen",
        "rank": 81984,
        "rank_sort": 82212,
        "total": 2334
      },
      {
        "club_badge_src": null,
        "entry": 3385388,
        "entry_name": "Ballymore Utd",
        "event_total": 68,
        "has_played": true,
        "id": 25131009,
        "last_rank": 111405,
        "player_name": "liam - Peter young",
        "rank": 81984,
        "rank_sort": 82213,
        "total": 2334
      },
      {
        "club_badge_src": null,
        "entry": 3388085,
        "entry_name": "Inter Arab",
        "event_total": 53,
        "has_played": true,
        "id": 25151919,
        "last_rank": 75139,
        "player_name": "Mamet Assegaf",
        "rank": 81984,
        "rank_sort": 82214,
        "total": 2334
      },
      {
        "club_badge_src": null,
        "entry": 3413629,
        "entry_name": "Tom's team",
        "event_total": 56,
        "has_played": true,
        "id": 25353487,
        "last_rank": 81646,
        "player_name": "Thomas Murrison",
        "rank": 81984,
        "rank_sort": 82215,
        "total": 2334
      },
      {
        "club_badge_src": "https://fantasy.premierleague.com/gcs/plfpl-production-adobe-approved/plfpl-production/3468673/c200e58f-ccc6-4594-9b69-faeef7fd11a0.png",
        "entry": 3468673,
        "entry_name": "Oconman",
        "event_total": 50,
        "has_played": true,
        "id": 25786658,
        "last_rank": 68957,
        "player_name": "Chris O'connor",
        "rank": 81984,
        "rank_sort": 82216,
        "total": 2334
      },
      {
        "club_badge_src": null,
        "entry": 3470915,
        "entry_name": "SO GOOD FC",
        "event_total": 65,
        "has_played": true,
        "id": 25804096,
        "last_rank": 103526,
        "player_name": "Yuri G",
        "rank": 81984,
        "rank_sort": 82217,
        "total": 2334
      },
      {
        "club_badge_src": "https://fantasy.premierleague.com/gcs/plfpl-production-adobe-approved/plfpl-production/3496239/ca86e487-cfd4-4cca-a784-29fef17be925.png",
        "entry": 3496239,
        "entry_name": "Salomeister",
        "event_total": 63,
        "has_played": true,
        "id": 26005787,
        "last_rank": 88348,
        "player_name": "Salomon Santis",
        "rank": 81984,
        "rank_sort": 82218,
        "total": 2334
      },
      {
        "club_badge_src": null,
        "entry": 3509214,
        "entry_name": "DollsWithBalls",
        "event_total": 57,
        "has_played": true,
        "id": 26110581,
        "last_rank": 84360,
        "player_name": "Muhammad Ridwan Badrul Zaman",
        "rank": 81984,
        "rank_sort": 82219,
        "total": 2334
      },
      {
        "club_badge_src": null,
        "entry": 3530379,
        "entry_name": "LA Jakers",
        "event_total": 44,
        "has_played": true,
        "id": 26275289,
        "last_rank": 58071,
        "player_name": "Jake Horan",
        "rank": 81984,
        "rank_sort": 82220,
        "total": 2334
      },
      {
        "club_badge_src": null,
        "entry": 3546717,
        "entry_name": "Terminator Gagagugu",
        "event_total": 61,
        "has_played": true,
        "id": 26402778,
        "last_rank": 93443,
        "player_name": "Michael Okonoboh",
        "rank": 81984,
        "rank_sort": 82221,
        "total": 2334
      },
      {
        "club_badge_src": null,
        "entry": 3556268,
        "entry_name": "Plus Ultra FC",
        "event_total": 61,
        "has_played": true,
        "id": 26477648,
        "last_rank": 93186,
        "player_name": "Reece Walker",
        "rank": 81984,
        "rank_sort": 82222,
        "total": 2334
      },
      {
        "club_badge_src": null,
        "entry": 3610367,
        "entry_name": "Boom Xhakalaka",
        "event_total": 68,
        "has_played": true,
        "id": 26894292,
        "last_rank": 111203,
        "player_name": "Lena Vogelsang",
        "rank": 81984,
        "rank_sort": 82223,
        "total": 2334
      },
      {
        "club_badge_src": null,
        "entry": 3618101,
        "entry_name": "Aderap",
        "event_total": 56,
        "has_played": true,
        "id": 26955325,
        "last_rank": 81420,
        "player_name": "Brandan Cai",
        "rank": 81984,
        "rank_sort": 82224,
        "total": 2334
      },
      {
        "club_badge_src": null,
        "entry": 3632275,
        "entry_name": "Jo\u00e3o Me The Money",
        "event_total": 72,
        "has_played": true,
        "id": 27067742,
        "last_rank": 123120,
        "player_name": "Jamie Lumsden",
        "rank": 81984,
        "rank_sort": 82225,
        "total": 2334
      },
      {
        "club_badge_src": null,
        "entry": 3649969,
        "entry_name": "Kudus' Kings FC",
        "event_total": 49,
        "has_played": true,
        "id": 27206490,
        "last_rank": 67063,
        "player_name": "Calum Diomidous",
        "rank": 81984,
        "rank_sort": 82226,
        "total": 2334
      },
      {
        "club_badge_src": "https://fantasy.premierleague.com/gcs/plfpl-production-adobe-approved/plfpl-production/3697380/284dc7a2-bb8e-4210-a9ef-51ba4ee5f779.png",
        "entry": 3697380,
        "entry_name": "Freddie FC",
        "event_total": 61,
        "has_played": true,
        "id": 27585430,
        "last_rank": 93443,
        "player_name": "Haroon Yousaf",
        "rank": 81984,
        "rank_sort": 82227,
        "total": 2334
      },
      {
        "club_badge_src": null,
        "entry": 3705566,
        "entry_name": "Salamingoz",
        "event_total": 36,
        "has_played": true,
        "id": 27648896,
        "last_rank": 45416,
        "player_name": "Issam A",
        "rank": 81984,
        "rank_sort": 82228,
        "total": 2334
      },
      {
        "club_badge_src": null,
        "entry": 3837319,
        "entry_name": "It'll do again",
        "event_total": 64,
        "has_played": true,
        "id": 28722831,
        "last_rank": 100572,
        "player_name": "Andrew Duggan",
        "rank": 81984,
        "rank_sort": 82229,
        "total": 2334
      },
      {
        "club_badge_src": "https://fantasy.premierleague.com/gcs/plfpl-production-adobe-approved/plfpl-production/3879399/08bd29e8-f5ee-4640-87d5-6d1a2beb931f.png",
        "entry": 3879399,
        "entry_name": "Bright Balls United",
        "event_total": 61,
        "has_played": true,
        "id": 29148533,
        "last_rank": 93443,
        "player_name": "Andrea Bright",
        "rank": 81984,
        "rank_sort": 82230,
        "total": 2334
      },
      {
        "club_badge_src": null,
        "entry": 3949775,
        "entry_name": "Myers's Magic Men",
        "event_total": 46,
        "has_played": true,
        "id": 29714110,
        "last_rank": 61606,
        "player_name": "James Myers",
        "rank": 81984,
        "rank_sort": 82231,
        "total": 2334
      },
      {
        "club_badge_src": "https://fantasy.premierleague.com/gcs/plfpl-production-adobe-approved/plfpl-production/3966793/23f28a44-aee4-4f95-83a8-4684abed58d6.png",
        "entry": 3966793,
        "entry_name": "KSGBOY",
        "event_total": 48,
        "has_played": true,
        "id": 29849133,
        "last_rank": 64943,
        "player_name": "Sebastian Lubas",
        "rank": 81984,
        "rank_sort": 82232,
        "total": 2334
      },
      {
        "club_badge_src": null,
        "entry": 3967079,
        "entry_name": "Hobnob Havoc",
        "event_total": 89,
        "has_played": true,
        "id": 29851381,
        "last_rank": 182242,
        "player_name": "Alex McVitie",
        "rank": 81984,
        "rank_sort": 82233,
        "total": 2334
      },
      {
        "club_badge_src": null,
        "entry": 3995790,
        "entry_name": "Saka Potatoes",
        "event_total": 27,
        "has_played": true,
        "id": 30091364,
        "last_rank": 34051,
        "player_name": "Callum Porter",
        "rank": 81984,
        "rank_sort": 82234,
        "total": 2334
      },
      {
        "club_badge_src": "https://fantasy.premierleague.com/gcs/plfpl-production-adobe-approved/plfpl-production/4020822/fc81a883-68f9-4cd7-bbfd-291d232cf108.png",
        "entry": 4020822,
        "entry_name": "Inter Carbrook \u2b50\u2b50",
        "event_total": 66,
        "has_played": true,
        "id": 30304324,
        "last_rank": 106259,
        "player_name": "Istv\u00e1n Baranyi",
        "rank": 81984,
        "rank_sort": 82235,
        "total": 2334
      },
      {
        "club_badge_src": null,
        "entry": 4033521,
        "entry_name": "Red Knot Redemption",
        "event_total": 61,
        "has_played": true,
        "id": 30411330,
        "last_rank": 93883,
        "player_name": "Knotto Kornvinai",
        "rank": 81984,
        "rank_sort": 82236,
        "total": 2334
      },
      {
        "club_badge_src": null,
        "entry": 4037685,
        "entry_name": "Goal Diggers",
        "event_total": 66,
        "has_played": true,
        "id": 30446852,
        "last_rank": 105963,
        "player_name": "trilochan thapa",
        "rank": 81984,
        "rank_sort": 82237,
        "total": 2334
      },
      {
        "club_badge_src": "https://fantasy.premierleague.com/gcs/plfpl-production-adobe-approved/plfpl-production/4094437/3f30da67-8815-4868-b6f0-6ea08705fc45.png",
        "entry": 4094437,
        "entry_name": "FC Pedroleum Spill",
        "event_total": 50,
        "has_played": true,
        "id": 30914958,
        "last_rank": 68748,
        "player_name": "Philip Robertson",
        "rank": 81984,
        "rank_sort": 82238,
        "total": 2334
      },
      {
        "club_badge_src": "https://fantasy.premierleague.com/gcs/plfpl-production-adobe-approved/plfpl-production/4112068/2a8d43ce-6285-4c53-b888-7ab30f260024.png",
        "entry": 4112068,
        "entry_name": "Peppu City",
        "event_total": 70,
        "has_played": true,
        "id": 31055637,
        "last_rank": 117112,
        "player_name": "Petter Sumelius",
        "rank": 81984,
        "rank_sort": 82239,
        "total": 2334
      },
      {
        "club_badge_src": null,
        "entry": 4150445,
        "entry_name": "CalafioriGirls",
        "event_total": 62,
        "has_played": true,
        "id": 31370453,
        "last_rank": 95890,
        "player_name": "Lorcan Burns",
        "rank": 81984,
        "rank_sort": 82240,
        "total": 2334
      },
      {
        "club_badge_src": null,
        "entry": 4174998,
        "entry_name": "road 213",
        "event_total": 50,
        "has_played": true,
        "id": 31578837,
        "last_rank": 68957,
        "player_name": "Tommy Danielsson",
        "rank": 81984,
        "rank_sort": 82241,
        "total": 2334
      },
      {
        "club_badge_src": "https://fantasy.premierleague.com/gcs/plfpl-production-adobe-approved/plfpl-production/4179756/a356531e-6cc9-4cdb-9a45-aac399a2bbb6.png",
        "entry": 4179756,
        "entry_name": "Triple Cap Fail FC",
        "event_total": 45,
        "has_played": true,
        "id": 31619010,
        "last_rank": 59813,
        "player_name": "Emils Slisans",
        "rank": 81984,
        "rank_sort": 82242,
        "total": 2334
      },
      {
        "club_badge_src": null,
        "entry": 4196111,
        "entry_name": "Pippard Academy",
        "event_total": 52,
        "has_played": true,
        "id": 31759091,
        "last_rank": 73038,
        "player_name": "Jack Pippard",
        "rank": 81984,
        "rank_sort": 82243,
        "total": 2334
      },
      {
        "club_badge_src": null,
        "entry": 4210462,
        "entry_name": "silvesterk",
        "event_total": 55,
        "has_played": true,
        "id": 31878616,
        "last_rank": 79190,
        "player_name": "silvester kim",
        "rank": 81984,
        "rank_sort": 82244,
        "total": 2334
      },
      {
        "club_badge_src": null,
        "entry": 4214831,
        "entry_name": "#jogabonito",
        "event_total": 53,
        "has_played": true,
        "id": 31917545,
        "last_rank": 74898,
        "player_name": "JP Delgado",
        "rank": 81984,
        "rank_sort": 82245,
        "total": 2334
      },
      {
        "club_badge_src": null,
        "entry": 4221258,
        "entry_name": "Holmes Law FC",
        "event_total": 63,
        "has_played": true,
        "id": 31976543,
        "last_rank": 98436,
        "player_name": "John Holmes",
        "rank": 81984,
        "rank_sort": 82246,
        "total": 2334
      },
      {
        "club_badge_src": "https://fantasy.premierleague.com/gcs/plfpl-production-adobe-approved/plfpl-production/4298235/010fba97-bef2-4562-9597-d91e84c70797.png",
        "entry": 4298235,
        "entry_name": "Seattle FC",
        "event_total": 67,
        "has_played": true,
        "id": 32608126,
        "last_rank": 108689,
        "player_name": "Kerina Young",
        "rank": 81984,
        "rank_sort": 82247,
        "total": 2334
      },
      {
        "club_badge_src": null,
        "entry": 4349936,
        "entry_name": "spread em fc",
        "event_total": 62,
        "has_played": true,
        "id": 33031796,
        "last_rank": 95890,
        "player_name": "Connor Page",
        "rank": 81984,
        "rank_sort": 82248,
        "total": 2334
      },
      {
        "club_badge_src": null,
        "entry": 4372530,
        "entry_name": "Jampots 11",
        "event_total": 51,
        "has_played": true,
        "id": 33221371,
        "last_rank": 70985,
        "player_name": "Jamie Potter",
        "rank": 81984,
        "rank_sort": 82249,
        "total": 2334
      },
      {
        "club_badge_src": null,
        "entry": 4409963,
        "entry_name": "Team with Seskoppeal",
        "event_total": 51,
        "has_played": true,
        "id": 33546029,
        "last_rank": 63201,
        "player_name": "Nicholas Decrean",
        "rank": 81984,
        "rank_sort": 82250,
        "total": 2334
      }
    ]
  }
}