{
  "last_updated_data": "2026-05-24T23:28:17Z",
  "league": {
    "admin_entry": null,
    "closed": false,
    "code_privacy": "p",
    "created": "2025-07-20T23:14:33.933835Z",
    "cup_league": 2815434,
    "has_cup": true,
    "id": 314,
    "league_type": "s",
    "max_entries": null,
    "name": "Overall",
    "rank": null,
    "scoring": "c",
    "start_event": 1
  },
  "new_entries": {
    "has_next": false,
    "page": 1,
    "results": []
  },
  "standings": {
    "has_next": true,
    "page": 293,
    "results": [
      {
        "club_badge_src": null,
        "entry": 202964,
        "entry_name": "Guardioloi Mesa",
        "event_total": 64,
        "has_played": true,
        "id": 1348172,
        "last_rank": 18475,
        "player_name": "Eftichios Iordanous",
        "rank": 14594,
        "rank_sort": 14601,
        "total": 2389
      },
      {
        "club_badge_src": null,
        "entry": 291022,
        "entry_name": "OKAFA FC",
        "event_total": 57,
        "has_played": true,
        "id": 1940905,
        "last_rank": 11957,
        "player_name": "Michael Haufiku",
        "rank": 14594,
        "rank_sort": 14602,
        "total": 2389
      },
      {
        "club_badge_src": null,
        "entry": 339174,
        "entry_name": "Gyoked and Loaded ><",
        "event_total": 68,
        "has_played": true,
        "id": 2270620,
        "last_rank": 18377,
        "player_name": "Daniel Moses",
        "rank": 14594,
        "rank_sort": 14603,
        "total": 2389
      },
      {
        "club_badge_src": null,
        "entry": 487980,
        "entry_name": "Los 11 impostores",
        "event_total": 62,
        "has_played": true,
        "id": 3275952,
        "last_rank": 12420,
        "player_name": "Gerardo L\u00f3pez Lozada",
        "rank": 14594,
        "rank_sort": 14604,
        "total": 2389
      },
      {
        "club_badge_src": "https://fantasy.premierleague.com/gcs/plfpl-production-adobe-approved/plfpl-production/498177/704a81fb-8a0c-4a4c-85a6-080b9e0c7fdf.png",
        "entry": 498177,
        "entry_name": "Chineapple Punks",
        "event_total": 55,
        "has_played": true,
        "id": 3343675,
        "last_rank": 13033,
        "player_name": "David Herridge",
        "rank": 14594,
        "rank_sort": 14605,
        "total": 2389
      },
      {
        "club_badge_src": "https://fantasy.premierleague.com/gcs/plfpl-production-adobe-approved/plfpl-production/539877/389b5649-eb66-49f7-8663-e15d721987f4.png",
        "entry": 539877,
        "entry_name": "Power Group",
        "event_total": 58,
        "has_played": true,
        "id": 3633909,
        "last_rank": 14712,
        "player_name": "Neacsu Sebastian",
        "rank": 14594,
        "rank_sort": 14606,
        "total": 2389
      },
      {
        "club_badge_src": null,
        "entry": 606514,
        "entry_name": "Baza Ludzi z Mg\u0142y",
        "event_total": 55,
        "has_played": true,
        "id": 4095544,
        "last_rank": 9311,
        "player_name": "Marcin Janowski",
        "rank": 14594,
        "rank_sort": 14607,
        "total": 2389
      },
      {
        "club_badge_src": null,
        "entry": 836378,
        "entry_name": "\u7b28\u96d5\u5148\u98de",
        "event_total": 74,
        "has_played": true,
        "id": 5729530,
        "last_rank": 22830,
        "player_name": "Clocat S",
        "rank": 14594,
        "rank_sort": 14608,
        "total": 2389
      },
      {
        "club_badge_src": "https://fantasy.premierleague.com/gcs/plfpl-production-adobe-approved/plfpl-production/980294/0a7f25b1-0066-4a8b-aab5-98e383d7167b.png",
        "entry": 980294,
        "entry_name": "Talisman11",
        "event_total": 43,
        "has_played": true,
        "id": 6758202,
        "last_rank": 7891,
        "player_name": "nishkam shivam",
        "rank": 14594,
        "rank_sort": 14609,
        "total": 2389
      },
      {
        "club_badge_src": null,
        "entry": 1007519,
        "entry_name": "Cunha Matata XI",
        "event_total": 57,
        "has_played": true,
        "id": 6965574,
        "last_rank": 14040,
        "player_name": "Alex Price",
        "rank": 14594,
        "rank_sort": 14610,
        "total": 2389
      },
      {
        "club_badge_src": null,
        "entry": 1142236,
        "entry_name": "W-Pain Productions",
        "event_total": 57,
        "has_played": true,
        "id": 7917869,
        "last_rank": 11957,
        "player_name": "Erik Wilhelmsson",
        "rank": 14594,
        "rank_sort": 14611,
        "total": 2389
      },
      {
        "club_badge_src": null,
        "entry": 1148268,
        "entry_name": "Da1",
        "event_total": 78,
        "has_played": true,
        "id": 7961534,
        "last_rank": 30060,
        "player_name": "Shaurya Dwivedi",
        "rank": 14594,
        "rank_sort": 14612,
        "total": 2389
      },
      {
        "club_badge_src": "https://fantasy.premierleague.com/gcs/plfpl-production-adobe-approved/plfpl-production/1878143/488a5197-a9c7-4d5e-b94c-0b6dd64b2e66.png",
        "entry": 1878143,
        "entry_name": "AFCONMAN",
        "event_total": 76,
        "has_played": true,
        "id": 13229447,
        "last_rank": 21301,
        "player_name": "Mateen Sedenu",
        "rank": 14594,
        "rank_sort": 14613,
        "total": 2389
      },
      {
        "club_badge_src": null,
        "entry": 1954687,
        "entry_name": "Sat down mate",
        "event_total": 72,
        "has_played": true,
        "id": 13789082,
        "last_rank": 24636,
        "player_name": "Sam Richards",
        "rank": 14594,
        "rank_sort": 14614,
        "total": 2389
      },
      {
        "club_badge_src": null,
        "entry": 2001575,
        "entry_name": "The highs and DALOTs",
        "event_total": 68,
        "has_played": true,
        "id": 14150326,
        "last_rank": 18475,
        "player_name": "Prateek Paliwal",
        "rank": 14594,
        "rank_sort": 14615,
        "total": 2389
      },
      {
        "club_badge_src": "https://fantasy.premierleague.com/gcs/plfpl-production-adobe-approved/plfpl-production/2142437/7c6af0ab-194b-42ea-8328-2b04f6bedad2.png",
        "entry": 2142437,
        "entry_name": "Topp4\u2714\ufe0f",
        "event_total": 49,
        "has_played": true,
        "id": 15226792,
        "last_rank": 10173,
        "player_name": "Ivar Lyslo",
        "rank": 14594,
        "rank_sort": 14616,
        "total": 2389
      },
      {
        "club_badge_src": null,
        "entry": 2744739,
        "entry_name": "Enzo FC",
        "event_total": 65,
        "has_played": true,
        "id": 19852331,
        "last_rank": 16512,
        "player_name": "Marco Ryan",
        "rank": 14594,
        "rank_sort": 14617,
        "total": 2389
      },
      {
        "club_badge_src": null,
        "entry": 3863614,
        "entry_name": "Gaza\u270c\ufffdCR7 Fc",
        "event_total": 47,
        "has_played": true,
        "id": 28969543,
        "last_rank": 9382,
        "player_name": "Belal Ashraf",
        "rank": 14594,
        "rank_sort": 14618,
        "total": 2389
      },
      {
        "club_badge_src": null,
        "entry": 3976655,
        "entry_name": "Steve Spruce's XI",
        "event_total": 40,
        "has_played": true,
        "id": 29931637,
        "last_rank": 6964,
        "player_name": "Freddie Hoare",
        "rank": 14594,
        "rank_sort": 14619,
        "total": 2389
      },
      {
        "club_badge_src": null,
        "entry": 4694899,
        "entry_name": "Crab FC",
        "event_total": 48,
        "has_played": true,
        "id": 35988282,
        "last_rank": 9775,
        "player_name": "Tim Shepperson",
        "rank": 14594,
        "rank_sort": 14620,
        "total": 2389
      },
      {
        "club_badge_src": null,
        "entry": 4859364,
        "entry_name": "Morsy Fc",
        "event_total": 70,
        "has_played": true,
        "id": 37445815,
        "last_rank": 22996,
        "player_name": "Mohamed Morsy",
        "rank": 14594,
        "rank_sort": 14621,
        "total": 2389
      },
      {
        "club_badge_src": null,
        "entry": 5015266,
        "entry_name": "Goalman Trebor",
        "event_total": 66,
        "has_played": true,
        "id": 38729584,
        "last_rank": 19904,
        "player_name": "Benjamin Eidem",
        "rank": 14594,
        "rank_sort": 14622,
        "total": 2389
      },
      {
        "club_badge_src": null,
        "entry": 5132988,
        "entry_name": "yes ndidi",
        "event_total": 50,
        "has_played": true,
        "id": 39700175,
        "last_rank": 10629,
        "player_name": "Claudio Ricci",
        "rank": 14594,
        "rank_sort": 14623,
        "total": 2389
      },
      {
        "club_badge_src": "https://fantasy.premierleague.com/gcs/plfpl-production-adobe-approved/plfpl-production/5188082/de3b8d2c-e7f8-4393-9794-ffb27e8b9884.png",
        "entry": 5188082,
        "entry_name": "BadutMFL",
        "event_total": 70,
        "has_played": true,
        "id": 40162935,
        "last_rank": 19904,
        "player_name": "Derr Champions",
        "rank": 14594,
        "rank_sort": 14624,
        "total": 2389
      },
      {
        "club_badge_src": null,
        "entry": 5469824,
        "entry_name": "The Royal Knights",
        "event_total": 60,
        "has_played": true,
        "id": 42574696,
        "last_rank": 15920,
        "player_name": "Suchan Niroula",
        "rank": 14594,
        "rank_sort": 14625,
        "total": 2389
      },
      {
        "club_badge_src": null,
        "entry": 6027266,
        "entry_name": "Bruno Dos Tres",
        "event_total": 72,
        "has_played": true,
        "id": 47541449,
        "last_rank": 21301,
        "player_name": "Akshay Pundir",
        "rank": 14594,
        "rank_sort": 14626,
        "total": 2389
      },
      {
        "club_badge_src": null,
        "entry": 7468397,
        "entry_name": "Panoramix",
        "event_total": 74,
        "has_played": true,
        "id": 60874499,
        "last_rank": 26088,
        "player_name": "Vladimir Petrovic",
        "rank": 14594,
        "rank_sort": 14627,
        "total": 2389
      },
      {
        "club_badge_src": null,
        "entry": 7566272,
        "entry_name": "Wirtz of Art",
        "event_total": 61,
        "has_played": true,
        "id": 61958506,
        "last_rank": 16512,
        "player_name": "Manjinder Mann",
        "rank": 14594,
        "rank_sort": 14628,
        "total": 2389
      },
      {
        "club_badge_src": null,
        "entry": 206628,
        "entry_name": "Hussain",
        "event_total": 76,
        "has_played": true,
        "id": 1373347,
        "last_rank": 28348,
        "player_name": "Hussain Fater \ud83c\uddf5\ud83c\uddf8",
        "rank": 14629,
        "rank_sort": 14629,
        "total": 2389
      },
      {
        "club_badge_src": null,
        "entry": 696427,
        "entry_name": "Ben Well Chilled",
        "event_total": 56,
        "has_played": true,
        "id": 4717143,
        "last_rank": 11482,
        "player_name": "Nick Warner",
        "rank": 14629,
        "rank_sort": 14630,
        "total": 2389
      },
      {
        "club_badge_src": null,
        "entry": 785577,
        "entry_name": "Josh Kings Fan Club",
        "event_total": 46,
        "has_played": true,
        "id": 5368122,
        "last_rank": 9028,
        "player_name": "Kenton Maloney",
        "rank": 14629,
        "rank_sort": 14631,
        "total": 2389
      },
      {
        "club_badge_src": null,
        "entry": 856142,
        "entry_name": "FK Panic",
        "event_total": 66,
        "has_played": true,
        "id": 5868425,
        "last_rank": 17194,
        "player_name": "Stefan Panic",
        "rank": 14629,
        "rank_sort": 14632,
        "total": 2389
      },
      {
        "club_badge_src": null,
        "entry": 1064649,
        "entry_name": "Whenow City",
        "event_total": 55,
        "has_played": true,
        "id": 7370208,
        "last_rank": 11058,
        "player_name": "Barry Devine",
        "rank": 14629,
        "rank_sort": 14633,
        "total": 2389
      },
      {
        "club_badge_src": null,
        "entry": 1138185,
        "entry_name": "blues21",
        "event_total": 59,
        "has_played": true,
        "id": 7889608,
        "last_rank": 13033,
        "player_name": "kevin verghese",
        "rank": 14629,
        "rank_sort": 14634,
        "total": 2389
      },
      {
        "club_badge_src": null,
        "entry": 1420699,
        "entry_name": "Nightrain",
        "event_total": 59,
        "has_played": true,
        "id": 9892197,
        "last_rank": 13033,
        "player_name": "Stephen Kasenda",
        "rank": 14629,
        "rank_sort": 14635,
        "total": 2389
      },
      {
        "club_badge_src": null,
        "entry": 1569149,
        "entry_name": "Abed_jumaa",
        "event_total": 56,
        "has_played": true,
        "id": 10961845,
        "last_rank": 13629,
        "player_name": "abed jumaa abu jumaa",
        "rank": 14629,
        "rank_sort": 14636,
        "total": 2389
      },
      {
        "club_badge_src": null,
        "entry": 1742713,
        "entry_name": "JM",
        "event_total": 50,
        "has_played": true,
        "id": 12227951,
        "last_rank": 10651,
        "player_name": "Jaber Almethen",
        "rank": 14629,
        "rank_sort": 14637,
        "total": 2389
      },
      {
        "club_badge_src": null,
        "entry": 1747076,
        "entry_name": "Beyond The Boundary",
        "event_total": 69,
        "has_played": true,
        "id": 12259731,
        "last_rank": 22293,
        "player_name": "Dave Hudson",
        "rank": 14629,
        "rank_sort": 14638,
        "total": 2389
      },
      {
        "club_badge_src": null,
        "entry": 1802366,
        "entry_name": "Pyro Tiranos FC",
        "event_total": 50,
        "has_played": true,
        "id": 12670405,
        "last_rank": 10651,
        "player_name": "Antonio Vilela",
        "rank": 14629,
        "rank_sort": 14639,
        "total": 2389
      },
      {
        "club_badge_src": null,
        "entry": 2066578,
        "entry_name": "mostafa Zahran",
        "event_total": 62,
        "has_played": true,
        "id": 14648725,
        "last_rank": 12470,
        "player_name": "Mostafa Zahran",
        "rank": 14629,
        "rank_sort": 14640,
        "total": 2389
      },
      {
        "club_badge_src": null,
        "entry": 2436401,
        "entry_name": "highs and dalots",
        "event_total": 51,
        "has_played": true,
        "id": 17423249,
        "last_rank": 11080,
        "player_name": "Daniel Joyce",
        "rank": 14629,
        "rank_sort": 14641,
        "total": 2389
      },
      {
        "club_badge_src": null,
        "entry": 2792013,
        "entry_name": "Blues",
        "event_total": 59,
        "has_played": true,
        "id": 20384529,
        "last_rank": 12995,
        "player_name": "emir jasarevic",
        "rank": 14629,
        "rank_sort": 14642,
        "total": 2389
      },
      {
        "club_badge_src": null,
        "entry": 3924583,
        "entry_name": "DontLookBackElanga",
        "event_total": 67,
        "has_played": true,
        "id": 29513829,
        "last_rank": 15164,
        "player_name": "jack leslie",
        "rank": 14629,
        "rank_sort": 14643,
        "total": 2389
      },
      {
        "club_badge_src": null,
        "entry": 5401889,
        "entry_name": "Popoosky",
        "event_total": 65,
        "has_played": true,
        "id": 42002220,
        "last_rank": 19279,
        "player_name": "Popoola Ahmed",
        "rank": 14629,
        "rank_sort": 14644,
        "total": 2389
      },
      {
        "club_badge_src": null,
        "entry": 6019034,
        "entry_name": "Vignette's",
        "event_total": 68,
        "has_played": true,
        "id": 47468543,
        "last_rank": 18520,
        "player_name": "Vignir Da\u00f0i Valt\u00fdsson",
        "rank": 14629,
        "rank_sort": 14645,
        "total": 2389
      },
      {
        "club_badge_src": null,
        "entry": 6163587,
        "entry_name": "Sesko meal deal",
        "event_total": 51,
        "has_played": true,
        "id": 48729923,
        "last_rank": 7863,
        "player_name": "Evan Campbell",
        "rank": 14629,
        "rank_sort": 14646,
        "total": 2389
      },
      {
        "club_badge_src": null,
        "entry": 9315487,
        "entry_name": "Kobbie Krusaders",
        "event_total": 67,
        "has_played": true,
        "id": 78558356,
        "last_rank": 17848,
        "player_name": "Dellan Kutto",
        "rank": 14629,
        "rank_sort": 14647,
        "total": 2389
      },
      {
        "club_badge_src": null,
        "entry": 56060,
        "entry_name": "Murton Mags",
        "event_total": 51,
        "has_played": true,
        "id": 361059,
        "last_rank": 7863,
        "player_name": "Garry Stokoe",
        "rank": 14648,
        "rank_sort": 14648,
        "total": 2389
      },
      {
        "club_badge_src": null,
        "entry": 86564,
        "entry_name": "ninja",
        "event_total": 64,
        "has_played": true,
        "id": 564170,
        "last_rank": 15952,
        "player_name": "Ali AlKhafajiy",
        "rank": 14648,
        "rank_sort": 14649,
        "total": 2389
      },
      {
        "club_badge_src": null,
        "entry": 275185,
        "entry_name": "Almost Famous",
        "event_total": 60,
        "has_played": true,
        "id": 1831353,
        "last_rank": 13629,
        "player_name": "Mateusz Hejnicki",
        "rank": 14648,
        "rank_sort": 14650,
        "total": 2389
      }
    ]
  }
}