{
  "last_updated_data": "2026-05-24T23:28:17Z",
  "league": {
    "admin_entry": null,
    "closed": false,
    "code_privacy": "p",
    "created": "2025-07-20T23:14:33.933835Z",
    "cup_league": 2815434,
    "has_cup": true,
    "id": 314,
    "league_type": "s",
    "max_entries": null,
    "name": "Overall",
    "rank": null,
    "scoring": "c",
    "start_event": 1
  },
  "new_entries": {
    "has_next": false,
    "page": 1,
    "results": []
  },
  "standings": {
    "has_next": true,
    "page": 995,
    "results": [
      {
        "club_badge_src": null,
        "entry": 7601601,
        "entry_name": "We've won it all",
        "event_total": 73,
        "has_played": true,
        "id": 62279222,
        "last_rank": 79431,
        "player_name": "Ben Molyneux",
        "rank": 49425,
        "rank_sort": 49701,
        "total": 2352
      },
      {
        "club_badge_src": null,
        "entry": 7645216,
        "entry_name": "Don't stop Baleba-in",
        "event_total": 70,
        "has_played": true,
        "id": 62672738,
        "last_rank": 72815,
        "player_name": "David O'Reilly",
        "rank": 49425,
        "rank_sort": 49702,
        "total": 2352
      },
      {
        "club_badge_src": null,
        "entry": 7646501,
        "entry_name": "Wirtz Case Scenario",
        "event_total": 50,
        "has_played": true,
        "id": 62684723,
        "last_rank": 40036,
        "player_name": "Andy Combs",
        "rank": 49425,
        "rank_sort": 49703,
        "total": 2352
      },
      {
        "club_badge_src": null,
        "entry": 7651802,
        "entry_name": "MAKXI",
        "event_total": 59,
        "has_played": true,
        "id": 62733029,
        "last_rank": 53023,
        "player_name": "Mushhood Ahmed Khan",
        "rank": 49425,
        "rank_sort": 49704,
        "total": 2352
      },
      {
        "club_badge_src": null,
        "entry": 7673126,
        "entry_name": "Gortroe Utd return",
        "event_total": 47,
        "has_played": true,
        "id": 62929753,
        "last_rank": 36348,
        "player_name": "Alan Loughlin",
        "rank": 49425,
        "rank_sort": 49705,
        "total": 2352
      },
      {
        "club_badge_src": null,
        "entry": 7707034,
        "entry_name": "The Lily Legion",
        "event_total": 65,
        "has_played": true,
        "id": 63234425,
        "last_rank": 63201,
        "player_name": "A B",
        "rank": 49425,
        "rank_sort": 49706,
        "total": 2352
      },
      {
        "club_badge_src": "https://fantasy.premierleague.com/gcs/plfpl-production-adobe-approved/plfpl-production/7727834/93271346-3932-48a0-87bb-4b0cca7d10fb.png",
        "entry": 7727834,
        "entry_name": "Florian Viewz",
        "event_total": 71,
        "has_played": true,
        "id": 63421770,
        "last_rank": 75537,
        "player_name": "Natpasith Lertkitsiri",
        "rank": 49425,
        "rank_sort": 49707,
        "total": 2352
      },
      {
        "club_badge_src": null,
        "entry": 7740747,
        "entry_name": "sakalicious",
        "event_total": 49,
        "has_played": true,
        "id": 63537638,
        "last_rank": 38774,
        "player_name": "Declan Carroll",
        "rank": 49425,
        "rank_sort": 49708,
        "total": 2352
      },
      {
        "club_badge_src": null,
        "entry": 7784538,
        "entry_name": "Real SoSobad",
        "event_total": 52,
        "has_played": true,
        "id": 63934531,
        "last_rank": 42648,
        "player_name": "Martin Smith",
        "rank": 49425,
        "rank_sort": 49709,
        "total": 2352
      },
      {
        "club_badge_src": null,
        "entry": 7825550,
        "entry_name": "Teach me to Saka",
        "event_total": 73,
        "has_played": true,
        "id": 64305120,
        "last_rank": 79431,
        "player_name": "Alec Townsend",
        "rank": 49425,
        "rank_sort": 49710,
        "total": 2352
      },
      {
        "club_badge_src": null,
        "entry": 7928927,
        "entry_name": "A.B.B's Men",
        "event_total": 56,
        "has_played": true,
        "id": 65248906,
        "last_rank": 48084,
        "player_name": "Ahmad Bafarat",
        "rank": 49425,
        "rank_sort": 49711,
        "total": 2352
      },
      {
        "club_badge_src": null,
        "entry": 8040057,
        "entry_name": "Ivrige",
        "event_total": 73,
        "has_played": true,
        "id": 66247648,
        "last_rank": 79190,
        "player_name": "Iver Andersen",
        "rank": 49425,
        "rank_sort": 49712,
        "total": 2352
      },
      {
        "club_badge_src": null,
        "entry": 8086083,
        "entry_name": "Vote for Pedro",
        "event_total": 64,
        "has_played": true,
        "id": 66671934,
        "last_rank": 61606,
        "player_name": "Ollie Habermel",
        "rank": 49425,
        "rank_sort": 49713,
        "total": 2352
      },
      {
        "club_badge_src": null,
        "entry": 8099745,
        "entry_name": "bbq area",
        "event_total": 57,
        "has_played": true,
        "id": 66799113,
        "last_rank": 49691,
        "player_name": "James Meese",
        "rank": 49425,
        "rank_sort": 49714,
        "total": 2352
      },
      {
        "club_badge_src": null,
        "entry": 8184015,
        "entry_name": "Franks p\u00f8lsep\u00e5gar",
        "event_total": 52,
        "has_played": true,
        "id": 67589148,
        "last_rank": 42648,
        "player_name": "Tor Frimanson",
        "rank": 49425,
        "rank_sort": 49715,
        "total": 2352
      },
      {
        "club_badge_src": null,
        "entry": 8186225,
        "entry_name": "Potts & Palmers",
        "event_total": 66,
        "has_played": true,
        "id": 67609768,
        "last_rank": 64830,
        "player_name": "Chris Mangubat",
        "rank": 49425,
        "rank_sort": 49716,
        "total": 2352
      },
      {
        "club_badge_src": null,
        "entry": 8281929,
        "entry_name": "Phil ROADen",
        "event_total": 67,
        "has_played": true,
        "id": 68526772,
        "last_rank": 66848,
        "player_name": "Mollie Johnson",
        "rank": 49425,
        "rank_sort": 49717,
        "total": 2352
      },
      {
        "club_badge_src": null,
        "entry": 8333098,
        "entry_name": "Dave Shrimpton",
        "event_total": 67,
        "has_played": true,
        "id": 69044168,
        "last_rank": 67063,
        "player_name": "Dave Shrimpton",
        "rank": 49425,
        "rank_sort": 49718,
        "total": 2352
      },
      {
        "club_badge_src": null,
        "entry": 8600181,
        "entry_name": "Jon",
        "event_total": 61,
        "has_played": true,
        "id": 71599531,
        "last_rank": 56369,
        "player_name": "Jonas Str\u00f8mberg",
        "rank": 49425,
        "rank_sort": 49719,
        "total": 2352
      },
      {
        "club_badge_src": null,
        "entry": 8621372,
        "entry_name": "AC Alrewas",
        "event_total": 56,
        "has_played": true,
        "id": 71805760,
        "last_rank": 48197,
        "player_name": "Chris Cooper",
        "rank": 49425,
        "rank_sort": 49720,
        "total": 2352
      },
      {
        "club_badge_src": null,
        "entry": 8705216,
        "entry_name": "Dream11",
        "event_total": 70,
        "has_played": true,
        "id": 72629289,
        "last_rank": 72702,
        "player_name": "nikhil pothan",
        "rank": 49425,
        "rank_sort": 49721,
        "total": 2352
      },
      {
        "club_badge_src": null,
        "entry": 8787967,
        "entry_name": "Angel DeLigt",
        "event_total": 44,
        "has_played": true,
        "id": 73428276,
        "last_rank": 32751,
        "player_name": "Nathan Bowers",
        "rank": 49425,
        "rank_sort": 49722,
        "total": 2352
      },
      {
        "club_badge_src": null,
        "entry": 8869467,
        "entry_name": "Notvery Athletic FC",
        "event_total": 63,
        "has_played": true,
        "id": 74213714,
        "last_rank": 59813,
        "player_name": "Joseph Williams",
        "rank": 49425,
        "rank_sort": 49723,
        "total": 2352
      },
      {
        "club_badge_src": null,
        "entry": 8871982,
        "entry_name": "Acrnym",
        "event_total": 63,
        "has_played": true,
        "id": 74237580,
        "last_rank": 59632,
        "player_name": "renaldy iswanda",
        "rank": 49425,
        "rank_sort": 49724,
        "total": 2352
      },
      {
        "club_badge_src": null,
        "entry": 8985911,
        "entry_name": "Bruce county >>>",
        "event_total": 65,
        "has_played": true,
        "id": 75346116,
        "last_rank": 63201,
        "player_name": "Shashank sinha",
        "rank": 49425,
        "rank_sort": 49725,
        "total": 2352
      },
      {
        "club_badge_src": null,
        "entry": 9300552,
        "entry_name": "Anas Alkhdour",
        "event_total": 37,
        "has_played": true,
        "id": 78415038,
        "last_rank": 26088,
        "player_name": "Anas Alkhdour",
        "rank": 49425,
        "rank_sort": 49726,
        "total": 2352
      },
      {
        "club_badge_src": null,
        "entry": 9337618,
        "entry_name": "Singers FC",
        "event_total": 58,
        "has_played": true,
        "id": 78768937,
        "last_rank": 51137,
        "player_name": "Emma Lewis",
        "rank": 49425,
        "rank_sort": 49727,
        "total": 2352
      },
      {
        "club_badge_src": null,
        "entry": 9352357,
        "entry_name": "Bennys Boys",
        "event_total": 52,
        "has_played": true,
        "id": 78909675,
        "last_rank": 42648,
        "player_name": "Clive Randall",
        "rank": 49425,
        "rank_sort": 49728,
        "total": 2352
      },
      {
        "club_badge_src": "https://fantasy.premierleague.com/gcs/plfpl-production-adobe-approved/plfpl-production/9454653/3e0033d7-4549-47e2-bf64-42f136e362cc.png",
        "entry": 9454653,
        "entry_name": "7attaba",
        "event_total": 66,
        "has_played": true,
        "id": 79891494,
        "last_rank": 64943,
        "player_name": "Mahmoud Abd Elraheem",
        "rank": 49425,
        "rank_sort": 49729,
        "total": 2352
      },
      {
        "club_badge_src": "https://fantasy.premierleague.com/gcs/plfpl-production-adobe-approved/plfpl-production/1151/9c802bb8-e2d8-4dc3-9d71-140116568ce1.png",
        "entry": 1151,
        "entry_name": "Prop Joe",
        "event_total": 53,
        "has_played": true,
        "id": 6396,
        "last_rank": 38774,
        "player_name": "Rohan DSouza",
        "rank": 49730,
        "rank_sort": 49730,
        "total": 2352
      },
      {
        "club_badge_src": null,
        "entry": 2125,
        "entry_name": "F\u00fcll House",
        "event_total": 56,
        "has_played": true,
        "id": 11852,
        "last_rank": 48363,
        "player_name": "Matt Ward-Perkins",
        "rank": 49730,
        "rank_sort": 49731,
        "total": 2352
      },
      {
        "club_badge_src": null,
        "entry": 3430,
        "entry_name": "Brokeback Mount10",
        "event_total": 69,
        "has_played": true,
        "id": 19428,
        "last_rank": 63390,
        "player_name": "Tom Willis",
        "rank": 49730,
        "rank_sort": 49732,
        "total": 2352
      },
      {
        "club_badge_src": null,
        "entry": 5506,
        "entry_name": "ChoboistheBest",
        "event_total": 68,
        "has_played": true,
        "id": 31393,
        "last_rank": 61606,
        "player_name": "Prithhvi Sunil",
        "rank": 49730,
        "rank_sort": 49733,
        "total": 2352
      },
      {
        "club_badge_src": null,
        "entry": 6006,
        "entry_name": "Forgive 'n Forget",
        "event_total": 58,
        "has_played": true,
        "id": 34367,
        "last_rank": 51403,
        "player_name": "IRFAN ARIF",
        "rank": 49730,
        "rank_sort": 49734,
        "total": 2352
      },
      {
        "club_badge_src": null,
        "entry": 6524,
        "entry_name": "What the SKELLYante",
        "event_total": 66,
        "has_played": true,
        "id": 37451,
        "last_rank": 58071,
        "player_name": "Brendan Hallab",
        "rank": 49730,
        "rank_sort": 49735,
        "total": 2352
      },
      {
        "club_badge_src": "https://fantasy.premierleague.com/gcs/plfpl-production-adobe-approved/plfpl-production/10985/9db89c7b-0d4f-4651-b5f0-419d024a381f.png",
        "entry": 10985,
        "entry_name": "Bajo Belgrano",
        "event_total": 50,
        "has_played": true,
        "id": 65111,
        "last_rank": 40297,
        "player_name": "Fernando Bruno",
        "rank": 49730,
        "rank_sort": 49736,
        "total": 2352
      },
      {
        "club_badge_src": null,
        "entry": 13681,
        "entry_name": "FC1804",
        "event_total": 67,
        "has_played": true,
        "id": 82763,
        "last_rank": 59813,
        "player_name": "Ashwin A",
        "rank": 49730,
        "rank_sort": 49737,
        "total": 2352
      },
      {
        "club_badge_src": "https://fantasy.premierleague.com/gcs/plfpl-production-adobe-approved/plfpl-production/15935/bff9ce5b-ac99-408b-8b82-165314e70940.png",
        "entry": 15935,
        "entry_name": "20LEgend",
        "event_total": 55,
        "has_played": true,
        "id": 98169,
        "last_rank": 47163,
        "player_name": "Niall Bolster",
        "rank": 49730,
        "rank_sort": 49738,
        "total": 2352
      },
      {
        "club_badge_src": "https://fantasy.premierleague.com/gcs/plfpl-production-adobe-approved/plfpl-production/21040/be197c7e-4d7a-42b5-a007-3591246f3499.png",
        "entry": 21040,
        "entry_name": "PSR&VAR Corruption",
        "event_total": 51,
        "has_played": true,
        "id": 131846,
        "last_rank": 36348,
        "player_name": "Rob Curran",
        "rank": 49730,
        "rank_sort": 49739,
        "total": 2352
      },
      {
        "club_badge_src": null,
        "entry": 22779,
        "entry_name": "Yakubu's Labubus",
        "event_total": 62,
        "has_played": true,
        "id": 143194,
        "last_rank": 51403,
        "player_name": "Thomas Monaghan",
        "rank": 49730,
        "rank_sort": 49740,
        "total": 2352
      },
      {
        "club_badge_src": null,
        "entry": 23830,
        "entry_name": "DH XIs",
        "event_total": 66,
        "has_played": true,
        "id": 150263,
        "last_rank": 57857,
        "player_name": "Matt Charman",
        "rank": 49730,
        "rank_sort": 49741,
        "total": 2352
      },
      {
        "club_badge_src": null,
        "entry": 24184,
        "entry_name": "Noni Zubi Sad",
        "event_total": 58,
        "has_played": true,
        "id": 152587,
        "last_rank": 45416,
        "player_name": "Toby Schultz",
        "rank": 49730,
        "rank_sort": 49742,
        "total": 2352
      },
      {
        "club_badge_src": null,
        "entry": 24486,
        "entry_name": "\u010cAR\u0160IJANERI",
        "event_total": 54,
        "has_played": true,
        "id": 154565,
        "last_rank": 45714,
        "player_name": "Nedim Tokalic",
        "rank": 49730,
        "rank_sort": 49743,
        "total": 2352
      },
      {
        "club_badge_src": null,
        "entry": 28919,
        "entry_name": "MAGNUM EST!",
        "event_total": 55,
        "has_played": true,
        "id": 182819,
        "last_rank": 47163,
        "player_name": "Micah Mc Clatchie",
        "rank": 49730,
        "rank_sort": 49744,
        "total": 2352
      },
      {
        "club_badge_src": null,
        "entry": 31147,
        "entry_name": "Ibrahem-alrabeeah88@",
        "event_total": 61,
        "has_played": true,
        "id": 197256,
        "last_rank": 49880,
        "player_name": "Ibrahem Alrabeeah",
        "rank": 49730,
        "rank_sort": 49745,
        "total": 2352
      },
      {
        "club_badge_src": null,
        "entry": 32886,
        "entry_name": "FC Blix",
        "event_total": 40,
        "has_played": true,
        "id": 209447,
        "last_rank": 25002,
        "player_name": "H\u00e5kon Blix Nordlid",
        "rank": 49730,
        "rank_sort": 49746,
        "total": 2352
      },
      {
        "club_badge_src": null,
        "entry": 36591,
        "entry_name": "Ignatious FC",
        "event_total": 60,
        "has_played": true,
        "id": 234258,
        "last_rank": 54667,
        "player_name": "Matt Whitesman",
        "rank": 49730,
        "rank_sort": 49747,
        "total": 2352
      },
      {
        "club_badge_src": null,
        "entry": 40964,
        "entry_name": "Rice Rice Baby",
        "event_total": 50,
        "has_played": true,
        "id": 262561,
        "last_rank": 40297,
        "player_name": "Rasmus Viktorsson",
        "rank": 49730,
        "rank_sort": 49748,
        "total": 2352
      },
      {
        "club_badge_src": null,
        "entry": 44121,
        "entry_name": "HK Stars",
        "event_total": 68,
        "has_played": true,
        "id": 282714,
        "last_rank": 61411,
        "player_name": "Jozef Javorek",
        "rank": 49730,
        "rank_sort": 49749,
        "total": 2352
      },
      {
        "club_badge_src": "https://fantasy.premierleague.com/gcs/plfpl-production-adobe-approved/plfpl-production/44408/673a2826-e6bd-4bbe-986a-0681217792ee.png",
        "entry": 44408,
        "entry_name": "Pukki Party",
        "event_total": 59,
        "has_played": true,
        "id": 284609,
        "last_rank": 53345,
        "player_name": "George Burford",
        "rank": 49730,
        "rank_sort": 49750,
        "total": 2352
      }
    ]
  }
}