{
  "last_updated_data": "2026-05-24T23:28:17Z",
  "league": {
    "admin_entry": null,
    "closed": false,
    "code_privacy": "p",
    "created": "2025-07-20T23:14:33.933835Z",
    "cup_league": 2815434,
    "has_cup": true,
    "id": 314,
    "league_type": "s",
    "max_entries": null,
    "name": "Overall",
    "rank": null,
    "scoring": "c",
    "start_event": 1
  },
  "new_entries": {
    "has_next": false,
    "page": 1,
    "results": []
  },
  "standings": {
    "has_next": true,
    "page": 1415,
    "results": [
      {
        "club_badge_src": null,
        "entry": 599069,
        "entry_name": "Pickled Cirkin",
        "event_total": 55,
        "has_played": true,
        "id": 4040739,
        "last_rank": 67926,
        "player_name": "Matthew Barker",
        "rank": 70627,
        "rank_sort": 70701,
        "total": 2340
      },
      {
        "club_badge_src": "https://fantasy.premierleague.com/gcs/plfpl-production-adobe-approved/plfpl-production/603931/2f9579ac-9e75-4a92-90ed-6587d6990814.png",
        "entry": 603931,
        "entry_name": "Backstreet Moyes",
        "event_total": 53,
        "has_played": true,
        "id": 4076639,
        "last_rank": 64005,
        "player_name": "Daniel Pugh",
        "rank": 70627,
        "rank_sort": 70702,
        "total": 2340
      },
      {
        "club_badge_src": null,
        "entry": 609472,
        "entry_name": "GULLMEISTERS",
        "event_total": 47,
        "has_played": true,
        "id": 4117115,
        "last_rank": 47417,
        "player_name": "Ole Martin Gulla",
        "rank": 70627,
        "rank_sort": 70703,
        "total": 2340
      },
      {
        "club_badge_src": null,
        "entry": 656133,
        "entry_name": "2 years straight",
        "event_total": 60,
        "has_played": true,
        "id": 4434177,
        "last_rank": 78244,
        "player_name": "Ali Gamal",
        "rank": 70627,
        "rank_sort": 70704,
        "total": 2340
      },
      {
        "club_badge_src": null,
        "entry": 660452,
        "entry_name": "FcRende",
        "event_total": 75,
        "has_played": true,
        "id": 4463649,
        "last_rank": 115421,
        "player_name": "Sir Moko",
        "rank": 70627,
        "rank_sort": 70705,
        "total": 2340
      },
      {
        "club_badge_src": null,
        "entry": 688905,
        "entry_name": "Ronaldinho's Rockets",
        "event_total": 54,
        "has_played": true,
        "id": 4664304,
        "last_rank": 65796,
        "player_name": "Luke Lambert",
        "rank": 70627,
        "rank_sort": 70706,
        "total": 2340
      },
      {
        "club_badge_src": null,
        "entry": 694593,
        "entry_name": "FCBAES",
        "event_total": 62,
        "has_played": true,
        "id": 4704347,
        "last_rank": 82664,
        "player_name": "Simon Baes",
        "rank": 70627,
        "rank_sort": 70707,
        "total": 2340
      },
      {
        "club_badge_src": "https://fantasy.premierleague.com/gcs/plfpl-production-adobe-approved/plfpl-production/748343/a8101b88-7cb9-405a-9295-0a5fb1ac5da2.png",
        "entry": 748343,
        "entry_name": "Charli xGx",
        "event_total": 46,
        "has_played": true,
        "id": 5091325,
        "last_rank": 45927,
        "player_name": "Chris Stanworth",
        "rank": 70627,
        "rank_sort": 70708,
        "total": 2340
      },
      {
        "club_badge_src": null,
        "entry": 748684,
        "entry_name": "Chilli Con Cairney",
        "event_total": 68,
        "has_played": true,
        "id": 5093664,
        "last_rank": 97096,
        "player_name": "George Healy",
        "rank": 70627,
        "rank_sort": 70709,
        "total": 2340
      },
      {
        "club_badge_src": null,
        "entry": 772765,
        "entry_name": "Under My Cucurella",
        "event_total": 59,
        "has_played": true,
        "id": 5271997,
        "last_rank": 67695,
        "player_name": "Blaise Venus",
        "rank": 70627,
        "rank_sort": 70710,
        "total": 2340
      },
      {
        "club_badge_src": null,
        "entry": 813939,
        "entry_name": "Change Name",
        "event_total": 50,
        "has_played": true,
        "id": 5573576,
        "last_rank": 51403,
        "player_name": "Kevin Weir",
        "rank": 70627,
        "rank_sort": 70711,
        "total": 2340
      },
      {
        "club_badge_src": null,
        "entry": 818554,
        "entry_name": "4-4-2",
        "event_total": 69,
        "has_played": true,
        "id": 5605868,
        "last_rank": 89055,
        "player_name": "Adriano Riva",
        "rank": 70627,
        "rank_sort": 70712,
        "total": 2340
      },
      {
        "club_badge_src": "https://fantasy.premierleague.com/gcs/plfpl-production-adobe-approved/plfpl-production/821959/7c443437-b43c-4fb8-947d-fdcbf6579a28.png",
        "entry": 821959,
        "entry_name": "Mount Son",
        "event_total": 61,
        "has_played": true,
        "id": 5629334,
        "last_rank": 63724,
        "player_name": "Leo Lee",
        "rank": 70627,
        "rank_sort": 70713,
        "total": 2340
      },
      {
        "club_badge_src": null,
        "entry": 848699,
        "entry_name": "makaroniarze",
        "event_total": 73,
        "has_played": true,
        "id": 5817127,
        "last_rank": 109863,
        "player_name": "Szymon Makaruk",
        "rank": 70627,
        "rank_sort": 70714,
        "total": 2340
      },
      {
        "club_badge_src": null,
        "entry": 876236,
        "entry_name": "Kaizachief FC",
        "event_total": 45,
        "has_played": true,
        "id": 6007433,
        "last_rank": 50635,
        "player_name": "Sohail Kaiser",
        "rank": 70627,
        "rank_sort": 70715,
        "total": 2340
      },
      {
        "club_badge_src": null,
        "entry": 883076,
        "entry_name": "Where's Leicester :(",
        "event_total": 63,
        "has_played": true,
        "id": 6056137,
        "last_rank": 84360,
        "player_name": "Luke Gibson",
        "rank": 70627,
        "rank_sort": 70716,
        "total": 2340
      },
      {
        "club_badge_src": null,
        "entry": 924900,
        "entry_name": "The Blades",
        "event_total": 56,
        "has_played": true,
        "id": 6362611,
        "last_rank": 69907,
        "player_name": "Jonathan hague",
        "rank": 70627,
        "rank_sort": 70717,
        "total": 2340
      },
      {
        "club_badge_src": null,
        "entry": 934852,
        "entry_name": "QUEquality",
        "event_total": 64,
        "has_played": true,
        "id": 6433279,
        "last_rank": 87350,
        "player_name": "Maciej Mazur",
        "rank": 70627,
        "rank_sort": 70718,
        "total": 2340
      },
      {
        "club_badge_src": null,
        "entry": 999563,
        "entry_name": "Mitchkel Arteta",
        "event_total": 52,
        "has_played": true,
        "id": 6909280,
        "last_rank": 62429,
        "player_name": "Mitch Ryan",
        "rank": 70627,
        "rank_sort": 70719,
        "total": 2340
      },
      {
        "club_badge_src": null,
        "entry": 1016536,
        "entry_name": "Kinder Mbeumo",
        "event_total": 49,
        "has_played": true,
        "id": 7032468,
        "last_rank": 50468,
        "player_name": "Jay Crowe",
        "rank": 70627,
        "rank_sort": 70720,
        "total": 2340
      },
      {
        "club_badge_src": null,
        "entry": 1103113,
        "entry_name": "The Crowing Cockerel",
        "event_total": 58,
        "has_played": true,
        "id": 7640967,
        "last_rank": 65796,
        "player_name": "Gary spendiff",
        "rank": 70627,
        "rank_sort": 70721,
        "total": 2340
      },
      {
        "club_badge_src": null,
        "entry": 1127067,
        "entry_name": "Wirtz Wizard Wonders",
        "event_total": 55,
        "has_played": true,
        "id": 7811058,
        "last_rank": 67926,
        "player_name": "Simon Cavanagh",
        "rank": 70627,
        "rank_sort": 70722,
        "total": 2340
      },
      {
        "club_badge_src": null,
        "entry": 1141539,
        "entry_name": "D\u00e9mouilles",
        "event_total": 48,
        "has_played": true,
        "id": 7913011,
        "last_rank": 55514,
        "player_name": "Obiajulu Okeke",
        "rank": 70627,
        "rank_sort": 70723,
        "total": 2340
      },
      {
        "club_badge_src": null,
        "entry": 1193454,
        "entry_name": "Donninic SoLanky",
        "event_total": 73,
        "has_played": true,
        "id": 8280619,
        "last_rank": 99296,
        "player_name": "Don Collins",
        "rank": 70627,
        "rank_sort": 70724,
        "total": 2340
      },
      {
        "club_badge_src": null,
        "entry": 1255992,
        "entry_name": "GOODBYE SALAH",
        "event_total": 65,
        "has_played": true,
        "id": 8724322,
        "last_rank": 89706,
        "player_name": "Aidan Baughan",
        "rank": 70627,
        "rank_sort": 70725,
        "total": 2340
      },
      {
        "club_badge_src": "https://fantasy.premierleague.com/gcs/plfpl-production-adobe-approved/plfpl-production/1268308/2854644d-64b5-40f2-80ff-c1a92d3f0e31.png",
        "entry": 1268308,
        "entry_name": "Tab Extra",
        "event_total": 56,
        "has_played": true,
        "id": 8812302,
        "last_rank": 69907,
        "player_name": "Dagsi Odinsson",
        "rank": 70627,
        "rank_sort": 70726,
        "total": 2340
      },
      {
        "club_badge_src": "https://fantasy.premierleague.com/gcs/plfpl-production-adobe-approved/plfpl-production/1288336/63ea862a-b795-4064-b938-806474c6a59a.png",
        "entry": 1288336,
        "entry_name": "ACCURATE C.F",
        "event_total": 61,
        "has_played": true,
        "id": 8952339,
        "last_rank": 71713,
        "player_name": "Adekoya Adedeji",
        "rank": 70627,
        "rank_sort": 70727,
        "total": 2340
      },
      {
        "club_badge_src": null,
        "entry": 1289147,
        "entry_name": "Spreadsheet FC",
        "event_total": 53,
        "has_played": true,
        "id": 8958042,
        "last_rank": 64190,
        "player_name": "Moinul Piplu",
        "rank": 70627,
        "rank_sort": 70728,
        "total": 2340
      },
      {
        "club_badge_src": null,
        "entry": 1302182,
        "entry_name": "AlbinoSteffe FF",
        "event_total": 54,
        "has_played": true,
        "id": 9050226,
        "last_rank": 58688,
        "player_name": "Stefan Karlgren",
        "rank": 70627,
        "rank_sort": 70729,
        "total": 2340
      },
      {
        "club_badge_src": "https://fantasy.premierleague.com/gcs/plfpl-production-adobe-approved/plfpl-production/1370225/0f5f14ea-e30c-4bfd-9265-8b0831a674f4.png",
        "entry": 1370225,
        "entry_name": "Real Mai",
        "event_total": 55,
        "has_played": true,
        "id": 9524811,
        "last_rank": 67926,
        "player_name": "Khanh Mai",
        "rank": 70627,
        "rank_sort": 70730,
        "total": 2340
      },
      {
        "club_badge_src": null,
        "entry": 1372444,
        "entry_name": "No Salad (11)",
        "event_total": 61,
        "has_played": true,
        "id": 9540429,
        "last_rank": 80465,
        "player_name": "Felix Rodriguez-Firpo",
        "rank": 70627,
        "rank_sort": 70731,
        "total": 2340
      },
      {
        "club_badge_src": null,
        "entry": 1478037,
        "entry_name": "La Sqalla Team",
        "event_total": 52,
        "has_played": true,
        "id": 10305743,
        "last_rank": 62429,
        "player_name": "Imad Salmi",
        "rank": 70627,
        "rank_sort": 70732,
        "total": 2340
      },
      {
        "club_badge_src": "https://fantasy.premierleague.com/gcs/plfpl-production-adobe-approved/plfpl-production/1600466/dc846fe6-1a0d-44f9-9089-e29fd6c24fb4.png",
        "entry": 1600466,
        "entry_name": "up the tics",
        "event_total": 53,
        "has_played": true,
        "id": 11196270,
        "last_rank": 64190,
        "player_name": "Chris Gregory",
        "rank": 70627,
        "rank_sort": 70733,
        "total": 2340
      },
      {
        "club_badge_src": null,
        "entry": 1664089,
        "entry_name": "prouseyXI",
        "event_total": 73,
        "has_played": true,
        "id": 11650969,
        "last_rank": 99296,
        "player_name": "Ben Prouse",
        "rank": 70627,
        "rank_sort": 70734,
        "total": 2340
      },
      {
        "club_badge_src": "https://fantasy.premierleague.com/gcs/plfpl-production-adobe-approved/plfpl-production/1676850/3c2f4bb6-620f-4143-9668-d22fd3e69248.png",
        "entry": 1676850,
        "entry_name": "IFK Aave",
        "event_total": 67,
        "has_played": true,
        "id": 11739578,
        "last_rank": 93883,
        "player_name": "Akeem Ible",
        "rank": 70627,
        "rank_sort": 70735,
        "total": 2340
      },
      {
        "club_badge_src": null,
        "entry": 1737367,
        "entry_name": "Pepdola",
        "event_total": 61,
        "has_played": true,
        "id": 12188650,
        "last_rank": 80194,
        "player_name": "Adel Mamdouh",
        "rank": 70627,
        "rank_sort": 70736,
        "total": 2340
      },
      {
        "club_badge_src": null,
        "entry": 1747011,
        "entry_name": "Raya Sunshine",
        "event_total": 54,
        "has_played": true,
        "id": 12259278,
        "last_rank": 58688,
        "player_name": "Summer Goodkind",
        "rank": 70627,
        "rank_sort": 70737,
        "total": 2340
      },
      {
        "club_badge_src": null,
        "entry": 1791174,
        "entry_name": "Stusblues",
        "event_total": 60,
        "has_played": true,
        "id": 12586164,
        "last_rank": 78244,
        "player_name": "Stu Randle",
        "rank": 70627,
        "rank_sort": 70738,
        "total": 2340
      },
      {
        "club_badge_src": null,
        "entry": 1795714,
        "entry_name": "Kente kickers",
        "event_total": 78,
        "has_played": true,
        "id": 12619089,
        "last_rank": 124682,
        "player_name": "akoto Joshua",
        "rank": 70627,
        "rank_sort": 70739,
        "total": 2340
      },
      {
        "club_badge_src": null,
        "entry": 1951330,
        "entry_name": "Ahmad alawadhi",
        "event_total": 64,
        "has_played": true,
        "id": 13765078,
        "last_rank": 87350,
        "player_name": "\u0627\u062d\u0645\u062f \u0627\u0644\u0639\u0648\u0636\u064a",
        "rank": 70627,
        "rank_sort": 70740,
        "total": 2340
      },
      {
        "club_badge_src": null,
        "entry": 1965653,
        "entry_name": "Leitrim  Villians",
        "event_total": 51,
        "has_played": true,
        "id": 13869982,
        "last_rank": 60671,
        "player_name": "John Mitchell",
        "rank": 70627,
        "rank_sort": 70741,
        "total": 2340
      },
      {
        "club_badge_src": null,
        "entry": 1989136,
        "entry_name": "SarrHerFaesImABaleba",
        "event_total": 70,
        "has_played": true,
        "id": 14052756,
        "last_rank": 91835,
        "player_name": "Adrian Chai",
        "rank": 70627,
        "rank_sort": 70742,
        "total": 2340
      },
      {
        "club_badge_src": null,
        "entry": 1990403,
        "entry_name": "Barrows Bombs \ufffd",
        "event_total": 37,
        "has_played": true,
        "id": 14062121,
        "last_rank": 39403,
        "player_name": "Neil Barrow",
        "rank": 70627,
        "rank_sort": 70743,
        "total": 2340
      },
      {
        "club_badge_src": "https://fantasy.premierleague.com/gcs/plfpl-production-adobe-approved/plfpl-production/2066601/f72485a3-1bd7-49ba-8cad-ec0e0d726dfb.png",
        "entry": 2066601,
        "entry_name": "Moo\u2013ZSC",
        "event_total": 64,
        "has_played": true,
        "id": 14648892,
        "last_rank": 87350,
        "player_name": "Mohamed Nabil",
        "rank": 70627,
        "rank_sort": 70744,
        "total": 2340
      },
      {
        "club_badge_src": null,
        "entry": 2082131,
        "entry_name": "backcrackandisak",
        "event_total": 51,
        "has_played": true,
        "id": 14768274,
        "last_rank": 59813,
        "player_name": "Leon Wick",
        "rank": 70627,
        "rank_sort": 70745,
        "total": 2340
      },
      {
        "club_badge_src": null,
        "entry": 2112485,
        "entry_name": "Craic of the Net",
        "event_total": 56,
        "has_played": true,
        "id": 14994485,
        "last_rank": 61950,
        "player_name": "John Kyne",
        "rank": 70627,
        "rank_sort": 70746,
        "total": 2340
      },
      {
        "club_badge_src": null,
        "entry": 2133061,
        "entry_name": "Reijnders Keepers",
        "event_total": 55,
        "has_played": true,
        "id": 15158271,
        "last_rank": 67695,
        "player_name": "Elliot Clayton",
        "rank": 70627,
        "rank_sort": 70747,
        "total": 2340
      },
      {
        "club_badge_src": null,
        "entry": 2143620,
        "entry_name": "Rosscahill Rovers",
        "event_total": 64,
        "has_played": true,
        "id": 15235694,
        "last_rank": 77999,
        "player_name": "calum mac",
        "rank": 70627,
        "rank_sort": 70748,
        "total": 2340
      },
      {
        "club_badge_src": null,
        "entry": 2149191,
        "entry_name": "16 Czechoslovakians",
        "event_total": 53,
        "has_played": true,
        "id": 15276271,
        "last_rank": 57001,
        "player_name": "Andreas Blomstervik Hansten",
        "rank": 70627,
        "rank_sort": 70749,
        "total": 2340
      },
      {
        "club_badge_src": null,
        "entry": 2162118,
        "entry_name": "SheFoo FC",
        "event_total": 71,
        "has_played": true,
        "id": 15370065,
        "last_rank": 104712,
        "player_name": "Mohamed Sherif",
        "rank": 70627,
        "rank_sort": 70750,
        "total": 2340
      }
    ]
  }
}