{
  "last_updated_data": "2026-05-24T23:28:17Z",
  "league": {
    "admin_entry": null,
    "closed": false,
    "code_privacy": "p",
    "created": "2025-07-20T23:14:33.933835Z",
    "cup_league": 2815434,
    "has_cup": true,
    "id": 314,
    "league_type": "s",
    "max_entries": null,
    "name": "Overall",
    "rank": null,
    "scoring": "c",
    "start_event": 1
  },
  "new_entries": {
    "has_next": false,
    "page": 1,
    "results": []
  },
  "standings": {
    "has_next": true,
    "page": 363,
    "results": [
      {
        "club_badge_src": null,
        "entry": 5218208,
        "entry_name": "FC Perry",
        "event_total": 59,
        "has_played": true,
        "id": 40429337,
        "last_rank": 19103,
        "player_name": "Emil Karlsen",
        "rank": 18025,
        "rank_sort": 18101,
        "total": 2383
      },
      {
        "club_badge_src": null,
        "entry": 5504784,
        "entry_name": "muokiabed",
        "event_total": 63,
        "has_played": true,
        "id": 42896357,
        "last_rank": 22064,
        "player_name": "Abed Muoki",
        "rank": 18025,
        "rank_sort": 18102,
        "total": 2383
      },
      {
        "club_badge_src": null,
        "entry": 5522051,
        "entry_name": "Caesar Salah",
        "event_total": 59,
        "has_played": true,
        "id": 43060364,
        "last_rank": 19103,
        "player_name": "Ira Perkins",
        "rank": 18025,
        "rank_sort": 18103,
        "total": 2383
      },
      {
        "club_badge_src": null,
        "entry": 5584485,
        "entry_name": "The Pickpockets",
        "event_total": 61,
        "has_played": true,
        "id": 43620619,
        "last_rank": 20538,
        "player_name": "John Moule",
        "rank": 18025,
        "rank_sort": 18104,
        "total": 2383
      },
      {
        "club_badge_src": null,
        "entry": 5591437,
        "entry_name": "WWJTD",
        "event_total": 57,
        "has_played": true,
        "id": 43682551,
        "last_rank": 14926,
        "player_name": "Declan Knight",
        "rank": 18025,
        "rank_sort": 18105,
        "total": 2383
      },
      {
        "club_badge_src": null,
        "entry": 5705120,
        "entry_name": "bog brush",
        "event_total": 45,
        "has_played": true,
        "id": 44671498,
        "last_rank": 10992,
        "player_name": "stephen wise",
        "rank": 18025,
        "rank_sort": 18106,
        "total": 2383
      },
      {
        "club_badge_src": null,
        "entry": 5726878,
        "entry_name": "Bowen 747",
        "event_total": 65,
        "has_played": true,
        "id": 44861862,
        "last_rank": 23230,
        "player_name": "Diarmuid Ryan",
        "rank": 18025,
        "rank_sort": 18107,
        "total": 2383
      },
      {
        "club_badge_src": null,
        "entry": 6140000,
        "entry_name": "VaskaaaFc",
        "event_total": 92,
        "has_played": true,
        "id": 48525438,
        "last_rank": 56099,
        "player_name": "Hannes Strmberg",
        "rank": 18025,
        "rank_sort": 18108,
        "total": 2383
      },
      {
        "club_badge_src": null,
        "entry": 6435695,
        "entry_name": "karkoub17",
        "event_total": 54,
        "has_played": true,
        "id": 51235209,
        "last_rank": 15797,
        "player_name": "haikel karkoub",
        "rank": 18025,
        "rank_sort": 18109,
        "total": 2383
      },
      {
        "club_badge_src": null,
        "entry": 6687048,
        "entry_name": "Stairway to Heaven",
        "event_total": 69,
        "has_played": true,
        "id": 53493978,
        "last_rank": 27020,
        "player_name": "Arnav Bakshi",
        "rank": 18025,
        "rank_sort": 18110,
        "total": 2383
      },
      {
        "club_badge_src": null,
        "entry": 6705443,
        "entry_name": "Nizz FC",
        "event_total": 58,
        "has_played": true,
        "id": 53656795,
        "last_rank": 18377,
        "player_name": "Inaayah Hussain",
        "rank": 18025,
        "rank_sort": 18111,
        "total": 2383
      },
      {
        "club_badge_src": null,
        "entry": 7064735,
        "entry_name": "The Revivals",
        "event_total": 55,
        "has_played": true,
        "id": 56839842,
        "last_rank": 16512,
        "player_name": "Otshepeng Mosetlhe",
        "rank": 18025,
        "rank_sort": 18112,
        "total": 2383
      },
      {
        "club_badge_src": null,
        "entry": 7141577,
        "entry_name": "Fayenoord",
        "event_total": 51,
        "has_played": true,
        "id": 57569592,
        "last_rank": 14102,
        "player_name": "Charlie Faye",
        "rank": 18025,
        "rank_sort": 18113,
        "total": 2383
      },
      {
        "club_badge_src": null,
        "entry": 7329673,
        "entry_name": "Alpha Squad XI",
        "event_total": 52,
        "has_played": true,
        "id": 59355057,
        "last_rank": 14668,
        "player_name": "Asher Dixon",
        "rank": 18025,
        "rank_sort": 18114,
        "total": 2383
      },
      {
        "club_badge_src": null,
        "entry": 7683352,
        "entry_name": "La Palue FC",
        "event_total": 61,
        "has_played": true,
        "id": 63021289,
        "last_rank": 20538,
        "player_name": "Jamil Tazutdinov",
        "rank": 18025,
        "rank_sort": 18115,
        "total": 2383
      },
      {
        "club_badge_src": null,
        "entry": 7739996,
        "entry_name": "Empire of the Sun",
        "event_total": 55,
        "has_played": true,
        "id": 63530781,
        "last_rank": 16441,
        "player_name": "Ankur Jain",
        "rank": 18025,
        "rank_sort": 18116,
        "total": 2383
      },
      {
        "club_badge_src": null,
        "entry": 7819584,
        "entry_name": "Get On Yer Janners",
        "event_total": 62,
        "has_played": true,
        "id": 64250873,
        "last_rank": 21159,
        "player_name": "Dan Toft",
        "rank": 18025,
        "rank_sort": 18117,
        "total": 2383
      },
      {
        "club_badge_src": null,
        "entry": 8296087,
        "entry_name": "Elland Back",
        "event_total": 63,
        "has_played": true,
        "id": 68668651,
        "last_rank": 21949,
        "player_name": "Declan McCarthy",
        "rank": 18025,
        "rank_sort": 18118,
        "total": 2383
      },
      {
        "club_badge_src": null,
        "entry": 9068567,
        "entry_name": "Haven\u2019t Got A Kalou",
        "event_total": 63,
        "has_played": true,
        "id": 76144425,
        "last_rank": 22064,
        "player_name": "Pav Patel",
        "rank": 18025,
        "rank_sort": 18119,
        "total": 2383
      },
      {
        "club_badge_src": null,
        "entry": 9348293,
        "entry_name": "BigMike FC",
        "event_total": 69,
        "has_played": true,
        "id": 78871193,
        "last_rank": 26710,
        "player_name": "Muhammad Dali",
        "rank": 18025,
        "rank_sort": 18120,
        "total": 2383
      },
      {
        "club_badge_src": null,
        "entry": 10592849,
        "entry_name": "Lui FC",
        "event_total": 59,
        "has_played": true,
        "id": 89523257,
        "last_rank": 19103,
        "player_name": "Luay Taufeeq",
        "rank": 18025,
        "rank_sort": 18121,
        "total": 2383
      },
      {
        "club_badge_src": "https://fantasy.premierleague.com/gcs/plfpl-production-adobe-approved/plfpl-production/843/0eb00164-1343-4bf0-9827-b0c16c0b56da.png",
        "entry": 843,
        "entry_name": "Hwangover",
        "event_total": 82,
        "has_played": true,
        "id": 4643,
        "last_rank": 36831,
        "player_name": "Bartosz Skolimowski",
        "rank": 18122,
        "rank_sort": 18122,
        "total": 2383
      },
      {
        "club_badge_src": null,
        "entry": 26573,
        "entry_name": "Eze Come, Eze Go",
        "event_total": 68,
        "has_played": true,
        "id": 168008,
        "last_rank": 26345,
        "player_name": "Samin Rahman",
        "rank": 18122,
        "rank_sort": 18123,
        "total": 2383
      },
      {
        "club_badge_src": "https://fantasy.premierleague.com/gcs/plfpl-production-adobe-approved/plfpl-production/27118/790ece12-17fe-4063-8b35-1ffe8cc7276b.png",
        "entry": 27118,
        "entry_name": "SIRBEER-UNITED",
        "event_total": 67,
        "has_played": true,
        "id": 171428,
        "last_rank": 22064,
        "player_name": "Chanawut Surachaidanktavin",
        "rank": 18122,
        "rank_sort": 18124,
        "total": 2383
      },
      {
        "club_badge_src": null,
        "entry": 47680,
        "entry_name": "Kinder Mbeumo",
        "event_total": 67,
        "has_played": true,
        "id": 305929,
        "last_rank": 25436,
        "player_name": "Aidan Moran",
        "rank": 18122,
        "rank_sort": 18125,
        "total": 2383
      },
      {
        "club_badge_src": null,
        "entry": 97602,
        "entry_name": "NARCOS",
        "event_total": 67,
        "has_played": true,
        "id": 637455,
        "last_rank": 25436,
        "player_name": "Khaled Alshafe",
        "rank": 18122,
        "rank_sort": 18126,
        "total": 2383
      },
      {
        "club_badge_src": null,
        "entry": 126503,
        "entry_name": "\u2b50PLAYER ONE\u2b50",
        "event_total": 49,
        "has_played": true,
        "id": 824810,
        "last_rank": 12995,
        "player_name": "Mwenda Kanungo",
        "rank": 18122,
        "rank_sort": 18127,
        "total": 2383
      },
      {
        "club_badge_src": null,
        "entry": 189651,
        "entry_name": "Back of the Neto",
        "event_total": 74,
        "has_played": true,
        "id": 1255401,
        "last_rank": 31747,
        "player_name": "Daniel Hartley",
        "rank": 18122,
        "rank_sort": 18128,
        "total": 2383
      },
      {
        "club_badge_src": "https://fantasy.premierleague.com/gcs/plfpl-production-adobe-approved/plfpl-production/200517/5e000a81-a2b7-4a5c-841c-8267dda8669a.png",
        "entry": 200517,
        "entry_name": "Blue Power",
        "event_total": 41,
        "has_played": true,
        "id": 1331165,
        "last_rank": 9382,
        "player_name": "Ghazi Almuqati",
        "rank": 18122,
        "rank_sort": 18129,
        "total": 2383
      },
      {
        "club_badge_src": "https://fantasy.premierleague.com/gcs/plfpl-production-adobe-approved/plfpl-production/239938/621639e2-cf92-49df-85e9-7fffbcec707d.png",
        "entry": 239938,
        "entry_name": "Klar for \u00e5 bli Slot?",
        "event_total": 59,
        "has_played": true,
        "id": 1596769,
        "last_rank": 16441,
        "player_name": "H\u00e5vard S\u00f8rv\u00e5g",
        "rank": 18122,
        "rank_sort": 18130,
        "total": 2383
      },
      {
        "club_badge_src": null,
        "entry": 257475,
        "entry_name": "Wirtzless FC",
        "event_total": 44,
        "has_played": true,
        "id": 1712293,
        "last_rank": 8925,
        "player_name": "Martin Hestvik",
        "rank": 18122,
        "rank_sort": 18131,
        "total": 2383
      },
      {
        "club_badge_src": null,
        "entry": 274771,
        "entry_name": "Mainoo Team Name",
        "event_total": 55,
        "has_played": true,
        "id": 1828378,
        "last_rank": 16567,
        "player_name": "Craig Chamberlain",
        "rank": 18122,
        "rank_sort": 18132,
        "total": 2383
      },
      {
        "club_badge_src": null,
        "entry": 282197,
        "entry_name": "Dial Square",
        "event_total": 60,
        "has_played": true,
        "id": 1878280,
        "last_rank": 17078,
        "player_name": "Arne Krohn-Nydal",
        "rank": 18122,
        "rank_sort": 18133,
        "total": 2383
      },
      {
        "club_badge_src": "https://fantasy.premierleague.com/gcs/plfpl-production-adobe-approved/plfpl-production/340039/93b11d33-e797-4fef-b96d-0f0e28471581.png",
        "entry": 340039,
        "entry_name": "TEEVOC CF",
        "event_total": 59,
        "has_played": true,
        "id": 2276201,
        "last_rank": 19103,
        "player_name": "oloruntoba adeolu",
        "rank": 18122,
        "rank_sort": 18134,
        "total": 2383
      },
      {
        "club_badge_src": null,
        "entry": 375652,
        "entry_name": "Wallington Bear",
        "event_total": 71,
        "has_played": true,
        "id": 2515196,
        "last_rank": 25330,
        "player_name": "Lewis Walton",
        "rank": 18122,
        "rank_sort": 18135,
        "total": 2383
      },
      {
        "club_badge_src": null,
        "entry": 411179,
        "entry_name": "Sensitive Areola",
        "event_total": 66,
        "has_played": true,
        "id": 2757033,
        "last_rank": 24570,
        "player_name": "Rafal Zabrocki",
        "rank": 18122,
        "rank_sort": 18136,
        "total": 2383
      },
      {
        "club_badge_src": null,
        "entry": 422753,
        "entry_name": "TsimikasMobileDisco",
        "event_total": 74,
        "has_played": true,
        "id": 2833017,
        "last_rank": 32335,
        "player_name": "James Balmont",
        "rank": 18122,
        "rank_sort": 18137,
        "total": 2383
      },
      {
        "club_badge_src": null,
        "entry": 432565,
        "entry_name": "Wirtz Nightmare",
        "event_total": 59,
        "has_played": true,
        "id": 2901033,
        "last_rank": 19176,
        "player_name": "Cade Gibson",
        "rank": 18122,
        "rank_sort": 18138,
        "total": 2383
      },
      {
        "club_badge_src": "https://fantasy.premierleague.com/gcs/plfpl-production-adobe-approved/plfpl-production/456018/70ce9577-5b16-4333-aa33-826cc50077da.png",
        "entry": 456018,
        "entry_name": "Pan-fried C Bassey",
        "event_total": 65,
        "has_played": true,
        "id": 3059388,
        "last_rank": 20538,
        "player_name": "Toby Crowther",
        "rank": 18122,
        "rank_sort": 18139,
        "total": 2383
      },
      {
        "club_badge_src": null,
        "entry": 516368,
        "entry_name": "Hamdy",
        "event_total": 39,
        "has_played": true,
        "id": 3466771,
        "last_rank": 8591,
        "player_name": "moustafa hamdy",
        "rank": 18122,
        "rank_sort": 18140,
        "total": 2383
      },
      {
        "club_badge_src": null,
        "entry": 521164,
        "entry_name": "sturmans finest",
        "event_total": 64,
        "has_played": true,
        "id": 3499954,
        "last_rank": 22921,
        "player_name": "Sam Sturman",
        "rank": 18122,
        "rank_sort": 18141,
        "total": 2383
      },
      {
        "club_badge_src": null,
        "entry": 552860,
        "entry_name": "GUFETTO XV",
        "event_total": 59,
        "has_played": true,
        "id": 3721181,
        "last_rank": 19103,
        "player_name": "\ud83d\udfe1 \u0641\u0648\u0642 \u2692\ufe0f \u0627\u0644\u0639\u0627\u062f\u0629 \u26ab\ufe0f",
        "rank": 18122,
        "rank_sort": 18142,
        "total": 2383
      },
      {
        "club_badge_src": null,
        "entry": 642325,
        "entry_name": "Dont LookBack Elanga",
        "event_total": 59,
        "has_played": true,
        "id": 4341102,
        "last_rank": 16441,
        "player_name": "Dan Jackson",
        "rank": 18122,
        "rank_sort": 18143,
        "total": 2383
      },
      {
        "club_badge_src": null,
        "entry": 650774,
        "entry_name": "Gortin FC",
        "event_total": 60,
        "has_played": true,
        "id": 4398093,
        "last_rank": 17078,
        "player_name": "Eddie McBrearty",
        "rank": 18122,
        "rank_sort": 18144,
        "total": 2383
      },
      {
        "club_badge_src": null,
        "entry": 762598,
        "entry_name": "Change Name",
        "event_total": 61,
        "has_played": true,
        "id": 5200676,
        "last_rank": 17718,
        "player_name": "Matt Keppel",
        "rank": 18122,
        "rank_sort": 18145,
        "total": 2383
      },
      {
        "club_badge_src": null,
        "entry": 914987,
        "entry_name": "Inter Ewe",
        "event_total": 58,
        "has_played": true,
        "id": 6291835,
        "last_rank": 18377,
        "player_name": "Nick Williams",
        "rank": 18122,
        "rank_sort": 18146,
        "total": 2383
      },
      {
        "club_badge_src": null,
        "entry": 925638,
        "entry_name": "\u6597\u7834\u82cd\u7a79",
        "event_total": 76,
        "has_played": true,
        "id": 6368007,
        "last_rank": 30060,
        "player_name": "Dave Liang",
        "rank": 18122,
        "rank_sort": 18147,
        "total": 2383
      },
      {
        "club_badge_src": null,
        "entry": 992545,
        "entry_name": "Numero Bruno",
        "event_total": 53,
        "has_played": true,
        "id": 6845459,
        "last_rank": 10920,
        "player_name": "Jesse Hoey",
        "rank": 18122,
        "rank_sort": 18148,
        "total": 2383
      },
      {
        "club_badge_src": "https://fantasy.premierleague.com/gcs/plfpl-production-adobe-approved/plfpl-production/1167237/6cde1716-6304-4102-8b05-d59405681f66.png",
        "entry": 1167237,
        "entry_name": "Showboat FC",
        "event_total": 57,
        "has_played": true,
        "id": 8096977,
        "last_rank": 17802,
        "player_name": "Michael Duffin",
        "rank": 18122,
        "rank_sort": 18149,
        "total": 2383
      },
      {
        "club_badge_src": null,
        "entry": 1244374,
        "entry_name": "The Cesc Pistols",
        "event_total": 66,
        "has_played": true,
        "id": 8642193,
        "last_rank": 24475,
        "player_name": "michael sephton",
        "rank": 18122,
        "rank_sort": 18150,
        "total": 2383
      }
    ]
  }
}