{
  "last_updated_data": "2026-05-24T23:28:17Z",
  "league": {
    "admin_entry": null,
    "closed": false,
    "code_privacy": "p",
    "created": "2025-07-20T23:14:33.933835Z",
    "cup_league": 2815434,
    "has_cup": true,
    "id": 314,
    "league_type": "s",
    "max_entries": null,
    "name": "Overall",
    "rank": null,
    "scoring": "c",
    "start_event": 1
  },
  "new_entries": {
    "has_next": false,
    "page": 1,
    "results": []
  },
  "standings": {
    "has_next": true,
    "page": 33,
    "results": [
      {
        "club_badge_src": null,
        "entry": 5044050,
        "entry_name": "Triple cap yer da",
        "event_total": 53,
        "has_played": true,
        "id": 38962941,
        "last_rank": 1168,
        "player_name": "John McAleenan",
        "rank": 1592,
        "rank_sort": 1601,
        "total": 2439
      },
      {
        "club_badge_src": null,
        "entry": 2642070,
        "entry_name": "lou x\u00e9r\u00e9 wow kong",
        "event_total": 59,
        "has_played": true,
        "id": 18989495,
        "last_rank": 1577,
        "player_name": "Oumar Badiane",
        "rank": 1602,
        "rank_sort": 1602,
        "total": 2439
      },
      {
        "club_badge_src": null,
        "entry": 3204877,
        "entry_name": "C&F",
        "event_total": 51,
        "has_played": true,
        "id": 23692355,
        "last_rank": 1056,
        "player_name": "Ross Campbell",
        "rank": 1602,
        "rank_sort": 1603,
        "total": 2439
      },
      {
        "club_badge_src": null,
        "entry": 5568089,
        "entry_name": "the giver",
        "event_total": 47,
        "has_played": true,
        "id": 43477110,
        "last_rank": 861,
        "player_name": "the giver",
        "rank": 1602,
        "rank_sort": 1604,
        "total": 2439
      },
      {
        "club_badge_src": null,
        "entry": 5670540,
        "entry_name": "TheShedEnd",
        "event_total": 70,
        "has_played": true,
        "id": 44374228,
        "last_rank": 1465,
        "player_name": "Teymur Aliyev",
        "rank": 1602,
        "rank_sort": 1605,
        "total": 2439
      },
      {
        "club_badge_src": "https://fantasy.premierleague.com/gcs/plfpl-production-adobe-approved/plfpl-production/1037/03d84e2a-b988-4d16-afe8-85d22e390caf.png",
        "entry": 1037,
        "entry_name": "Parisian Bulls",
        "event_total": 61,
        "has_played": true,
        "id": 5752,
        "last_rank": 1429,
        "player_name": "Marco Arlotti",
        "rank": 1606,
        "rank_sort": 1606,
        "total": 2439
      },
      {
        "club_badge_src": null,
        "entry": 204932,
        "entry_name": "Horsey Mullet",
        "event_total": 68,
        "has_played": true,
        "id": 1362103,
        "last_rank": 2045,
        "player_name": "Dan Smith",
        "rank": 1606,
        "rank_sort": 1607,
        "total": 2439
      },
      {
        "club_badge_src": null,
        "entry": 431842,
        "entry_name": "GravdalsArmy",
        "event_total": 63,
        "has_played": true,
        "id": 2896231,
        "last_rank": 1589,
        "player_name": "Thomas Gravdal",
        "rank": 1608,
        "rank_sort": 1608,
        "total": 2439
      },
      {
        "club_badge_src": null,
        "entry": 6834578,
        "entry_name": "Glasnikov-47",
        "event_total": 65,
        "has_played": true,
        "id": 54747973,
        "last_rank": 2156,
        "player_name": "Flava Flave",
        "rank": 1608,
        "rank_sort": 1609,
        "total": 2439
      },
      {
        "club_badge_src": null,
        "entry": 2182877,
        "entry_name": "BlueMonday",
        "event_total": 56,
        "has_played": true,
        "id": 15526768,
        "last_rank": 1115,
        "player_name": "Michael Scoble",
        "rank": 1610,
        "rank_sort": 1610,
        "total": 2439
      },
      {
        "club_badge_src": null,
        "entry": 9133751,
        "entry_name": "Space Utd",
        "event_total": 72,
        "has_played": true,
        "id": 76782811,
        "last_rank": 3060,
        "player_name": "George Whitehead",
        "rank": 1611,
        "rank_sort": 1611,
        "total": 2438
      },
      {
        "club_badge_src": null,
        "entry": 7666,
        "entry_name": "JR FC",
        "event_total": 59,
        "has_played": true,
        "id": 44225,
        "last_rank": 1595,
        "player_name": "J R",
        "rank": 1612,
        "rank_sort": 1612,
        "total": 2438
      },
      {
        "club_badge_src": null,
        "entry": 1821833,
        "entry_name": "owen",
        "event_total": 75,
        "has_played": true,
        "id": 12812869,
        "last_rank": 3514,
        "player_name": "Owen Walsh",
        "rank": 1612,
        "rank_sort": 1613,
        "total": 2438
      },
      {
        "club_badge_src": null,
        "entry": 1068193,
        "entry_name": "Sim Salah Bim",
        "event_total": 68,
        "has_played": true,
        "id": 7394939,
        "last_rank": 2516,
        "player_name": "Love Stevrin",
        "rank": 1614,
        "rank_sort": 1614,
        "total": 2438
      },
      {
        "club_badge_src": "https://fantasy.premierleague.com/gcs/plfpl-production-adobe-approved/plfpl-production/48555/07a47c3c-04cd-4f3f-b6fe-b38fb0607aca.png",
        "entry": 48555,
        "entry_name": "Salah-cious Rumours",
        "event_total": 68,
        "has_played": true,
        "id": 311868,
        "last_rank": 2526,
        "player_name": "Alex H",
        "rank": 1615,
        "rank_sort": 1615,
        "total": 2438
      },
      {
        "club_badge_src": null,
        "entry": 515035,
        "entry_name": "Sparta F.C.",
        "event_total": 45,
        "has_played": true,
        "id": 3458055,
        "last_rank": 791,
        "player_name": "Danny Bailey",
        "rank": 1615,
        "rank_sort": 1616,
        "total": 2438
      },
      {
        "club_badge_src": null,
        "entry": 1308115,
        "entry_name": "Mings of Power",
        "event_total": 69,
        "has_played": true,
        "id": 9092358,
        "last_rank": 2685,
        "player_name": "Callum Venn",
        "rank": 1615,
        "rank_sort": 1617,
        "total": 2438
      },
      {
        "club_badge_src": null,
        "entry": 2431408,
        "entry_name": "CaptainSolanke",
        "event_total": 53,
        "has_played": true,
        "id": 17386160,
        "last_rank": 1182,
        "player_name": "Oddvar Ueland",
        "rank": 1615,
        "rank_sort": 1618,
        "total": 2438
      },
      {
        "club_badge_src": null,
        "entry": 4221577,
        "entry_name": "Ozoh Easy",
        "event_total": 56,
        "has_played": true,
        "id": 31979161,
        "last_rank": 1358,
        "player_name": "Joshua Goozee",
        "rank": 1615,
        "rank_sort": 1619,
        "total": 2438
      },
      {
        "club_badge_src": null,
        "entry": 2581,
        "entry_name": "Keeping it Frank",
        "event_total": 67,
        "has_played": true,
        "id": 14414,
        "last_rank": 2399,
        "player_name": "Zac Hambury",
        "rank": 1620,
        "rank_sort": 1620,
        "total": 2438
      },
      {
        "club_badge_src": "https://fantasy.premierleague.com/gcs/plfpl-production-adobe-approved/plfpl-production/8842/61b8ae07-aa02-456b-8943-2eae6445d86f.png",
        "entry": 8842,
        "entry_name": "Milpool FC",
        "event_total": 61,
        "has_played": true,
        "id": 51618,
        "last_rank": 1773,
        "player_name": "Anthony Ede",
        "rank": 1620,
        "rank_sort": 1621,
        "total": 2438
      },
      {
        "club_badge_src": null,
        "entry": 20163,
        "entry_name": "Auto Glasner Repair",
        "event_total": 63,
        "has_played": true,
        "id": 125578,
        "last_rank": 1978,
        "player_name": "Tom Evans",
        "rank": 1620,
        "rank_sort": 1622,
        "total": 2438
      },
      {
        "club_badge_src": null,
        "entry": 263028,
        "entry_name": "Atletico Montju\u00efc",
        "event_total": 63,
        "has_played": true,
        "id": 1748794,
        "last_rank": 1961,
        "player_name": "Tomi Junttila",
        "rank": 1620,
        "rank_sort": 1623,
        "total": 2438
      },
      {
        "club_badge_src": null,
        "entry": 337168,
        "entry_name": "Woo Club Bongo",
        "event_total": 69,
        "has_played": true,
        "id": 2257231,
        "last_rank": 2651,
        "player_name": "woo club bongo",
        "rank": 1620,
        "rank_sort": 1624,
        "total": 2438
      },
      {
        "club_badge_src": null,
        "entry": 403304,
        "entry_name": "DontLookBackInElanga",
        "event_total": 63,
        "has_played": true,
        "id": 2704366,
        "last_rank": 1961,
        "player_name": "jonathan soames",
        "rank": 1620,
        "rank_sort": 1625,
        "total": 2438
      },
      {
        "club_badge_src": null,
        "entry": 471945,
        "entry_name": "FreemanAFC",
        "event_total": 64,
        "has_played": true,
        "id": 3168585,
        "last_rank": 2068,
        "player_name": "FreeManAFC \ud83e\udd70OCNZEGC",
        "rank": 1620,
        "rank_sort": 1626,
        "total": 2438
      },
      {
        "club_badge_src": null,
        "entry": 600400,
        "entry_name": "Ayew ok",
        "event_total": 94,
        "has_played": true,
        "id": 4050856,
        "last_rank": 8312,
        "player_name": "Harry Widdop",
        "rank": 1620,
        "rank_sort": 1627,
        "total": 2438
      },
      {
        "club_badge_src": null,
        "entry": 675779,
        "entry_name": "Serious Konsaquences",
        "event_total": 79,
        "has_played": true,
        "id": 4571974,
        "last_rank": 4270,
        "player_name": "Dan Peasley",
        "rank": 1620,
        "rank_sort": 1628,
        "total": 2438
      },
      {
        "club_badge_src": null,
        "entry": 677965,
        "entry_name": "Have that",
        "event_total": 66,
        "has_played": true,
        "id": 4587183,
        "last_rank": 2328,
        "player_name": "Ben Tilling",
        "rank": 1620,
        "rank_sort": 1629,
        "total": 2438
      },
      {
        "club_badge_src": null,
        "entry": 705386,
        "entry_name": "Chickn Tikka MoSalah",
        "event_total": 56,
        "has_played": true,
        "id": 4780302,
        "last_rank": 1354,
        "player_name": "Josh Webber",
        "rank": 1620,
        "rank_sort": 1630,
        "total": 2438
      },
      {
        "club_badge_src": null,
        "entry": 966487,
        "entry_name": "Parsnip",
        "event_total": 57,
        "has_played": true,
        "id": 6661117,
        "last_rank": 1438,
        "player_name": "Rima R",
        "rank": 1620,
        "rank_sort": 1631,
        "total": 2438
      },
      {
        "club_badge_src": null,
        "entry": 1309581,
        "entry_name": "IFFK Norra",
        "event_total": 50,
        "has_played": true,
        "id": 9102766,
        "last_rank": 1022,
        "player_name": "Kristian Granberg",
        "rank": 1620,
        "rank_sort": 1632,
        "total": 2438
      },
      {
        "club_badge_src": null,
        "entry": 1362427,
        "entry_name": "\u6211\u7368\u81ea\u5931\u5206",
        "event_total": 58,
        "has_played": true,
        "id": 9470262,
        "last_rank": 1523,
        "player_name": "Alexander Chan",
        "rank": 1620,
        "rank_sort": 1633,
        "total": 2438
      },
      {
        "club_badge_src": "https://fantasy.premierleague.com/gcs/plfpl-production-adobe-approved/plfpl-production/2217305/3b62df32-e2d5-4d08-873c-d101b199c0e2.png",
        "entry": 2217305,
        "entry_name": "In Sula Iubirii",
        "event_total": 54,
        "has_played": true,
        "id": 15791390,
        "last_rank": 1231,
        "player_name": "FPL Excel",
        "rank": 1620,
        "rank_sort": 1634,
        "total": 2438
      },
      {
        "club_badge_src": null,
        "entry": 2373317,
        "entry_name": "Hobbiton Forest",
        "event_total": 83,
        "has_played": true,
        "id": 16942657,
        "last_rank": 5129,
        "player_name": "Mark Wilson",
        "rank": 1620,
        "rank_sort": 1635,
        "total": 2438
      },
      {
        "club_badge_src": null,
        "entry": 2738298,
        "entry_name": "Goal Digger$",
        "event_total": 64,
        "has_played": true,
        "id": 19723845,
        "last_rank": 2068,
        "player_name": "rzn znl",
        "rank": 1620,
        "rank_sort": 1636,
        "total": 2438
      },
      {
        "club_badge_src": "https://fantasy.premierleague.com/gcs/plfpl-production-adobe-approved/plfpl-production/2852775/7f591a1d-6f4a-4052-a1ef-847419e0ae9d.png",
        "entry": 2852775,
        "entry_name": "Mister Sitter",
        "event_total": 57,
        "has_played": true,
        "id": 20859071,
        "last_rank": 1452,
        "player_name": "Robert Miller",
        "rank": 1620,
        "rank_sort": 1637,
        "total": 2438
      },
      {
        "club_badge_src": "https://fantasy.premierleague.com/gcs/plfpl-production-adobe-approved/plfpl-production/3984178/a52c405a-2ece-4e15-bbec-c0cbf0b46075.png",
        "entry": 3984178,
        "entry_name": "qpost",
        "event_total": 84,
        "has_played": true,
        "id": 29994851,
        "last_rank": 5386,
        "player_name": "Elias Johansen",
        "rank": 1620,
        "rank_sort": 1638,
        "total": 2438
      },
      {
        "club_badge_src": "https://fantasy.premierleague.com/gcs/plfpl-production-adobe-approved/plfpl-production/4126217/319dda20-6368-47ac-9d11-b3a21adf571a.png",
        "entry": 4126217,
        "entry_name": "Gold XI UTD",
        "event_total": 78,
        "has_played": true,
        "id": 31178436,
        "last_rank": 4099,
        "player_name": "Nicolay Gulliksen",
        "rank": 1620,
        "rank_sort": 1639,
        "total": 2438
      },
      {
        "club_badge_src": null,
        "entry": 4223497,
        "entry_name": "Alitico",
        "event_total": 69,
        "has_played": true,
        "id": 31994801,
        "last_rank": 2665,
        "player_name": "Ali Lane",
        "rank": 1620,
        "rank_sort": 1640,
        "total": 2438
      },
      {
        "club_badge_src": null,
        "entry": 4441258,
        "entry_name": "Metcalfe Massive",
        "event_total": 45,
        "has_played": true,
        "id": 33819194,
        "last_rank": 791,
        "player_name": "Elliot Potter",
        "rank": 1620,
        "rank_sort": 1641,
        "total": 2438
      },
      {
        "club_badge_src": null,
        "entry": 4665485,
        "entry_name": "Kung Fu Konhas",
        "event_total": 68,
        "has_played": true,
        "id": 35734299,
        "last_rank": 2518,
        "player_name": "Rodrigo Conhita",
        "rank": 1620,
        "rank_sort": 1642,
        "total": 2438
      },
      {
        "club_badge_src": null,
        "entry": 4787581,
        "entry_name": "Slidey again ole ole",
        "event_total": 65,
        "has_played": true,
        "id": 36856658,
        "last_rank": 2189,
        "player_name": "Diana Bartuleva",
        "rank": 1620,
        "rank_sort": 1643,
        "total": 2438
      },
      {
        "club_badge_src": null,
        "entry": 5730419,
        "entry_name": "Consistency",
        "event_total": 58,
        "has_played": true,
        "id": 44892064,
        "last_rank": 1523,
        "player_name": "Ademola Adetokunbo",
        "rank": 1620,
        "rank_sort": 1644,
        "total": 2438
      },
      {
        "club_badge_src": null,
        "entry": 5766654,
        "entry_name": "Rock 'n' Roll Sarr",
        "event_total": 64,
        "has_played": true,
        "id": 45209030,
        "last_rank": 2068,
        "player_name": "Alex Holdcroft",
        "rank": 1620,
        "rank_sort": 1645,
        "total": 2438
      },
      {
        "club_badge_src": "https://fantasy.premierleague.com/gcs/plfpl-production-adobe-approved/plfpl-production/5947701/9981e6fb-082e-4dc2-856d-58fc8ffc7cde.png",
        "entry": 5947701,
        "entry_name": "infamous",
        "event_total": 66,
        "has_played": true,
        "id": 46778561,
        "last_rank": 2300,
        "player_name": "Ivo Ivanov",
        "rank": 1620,
        "rank_sort": 1646,
        "total": 2438
      },
      {
        "club_badge_src": null,
        "entry": 7024232,
        "entry_name": "Gunners",
        "event_total": 68,
        "has_played": true,
        "id": 56429233,
        "last_rank": 2553,
        "player_name": "Asbjorn Bjorkelund",
        "rank": 1620,
        "rank_sort": 1647,
        "total": 2438
      },
      {
        "club_badge_src": null,
        "entry": 7062057,
        "entry_name": "Dundee Swindon",
        "event_total": 61,
        "has_played": true,
        "id": 56815182,
        "last_rank": 1773,
        "player_name": "Roddy Macleod",
        "rank": 1620,
        "rank_sort": 1648,
        "total": 2438
      },
      {
        "club_badge_src": null,
        "entry": 7667331,
        "entry_name": "Rash Decisions FC",
        "event_total": 67,
        "has_played": true,
        "id": 62876379,
        "last_rank": 2418,
        "player_name": "Yaaseen Solomon",
        "rank": 1620,
        "rank_sort": 1649,
        "total": 2438
      },
      {
        "club_badge_src": null,
        "entry": 8156664,
        "entry_name": "S S S",
        "event_total": 60,
        "has_played": true,
        "id": 67330699,
        "last_rank": 1689,
        "player_name": "saleh alarifi",
        "rank": 1620,
        "rank_sort": 1650,
        "total": 2438
      }
    ]
  }
}