{
  "last_updated_data": "2026-05-24T23:28:17Z",
  "league": {
    "admin_entry": null,
    "closed": false,
    "code_privacy": "p",
    "created": "2025-07-20T23:14:33.933835Z",
    "cup_league": 2815434,
    "has_cup": true,
    "id": 314,
    "league_type": "s",
    "max_entries": null,
    "name": "Overall",
    "rank": null,
    "scoring": "c",
    "start_event": 1
  },
  "new_entries": {
    "has_next": false,
    "page": 1,
    "results": []
  },
  "standings": {
    "has_next": true,
    "page": 1242,
    "results": [
      {
        "club_badge_src": null,
        "entry": 5068882,
        "entry_name": "7120",
        "event_total": 72,
        "has_played": true,
        "id": 39171524,
        "last_rank": 95063,
        "player_name": "Ismail Nouainia",
        "rank": 62023,
        "rank_sort": 62051,
        "total": 2345
      },
      {
        "club_badge_src": "https://fantasy.premierleague.com/gcs/plfpl-production-adobe-approved/plfpl-production/5554999/f0f1121f-778b-4a16-9a2d-09b28e581aaf.png",
        "entry": 5554999,
        "entry_name": "Erikssons Elva",
        "event_total": 44,
        "has_played": true,
        "id": 43359676,
        "last_rank": 42263,
        "player_name": "Gustav Eriksson",
        "rank": 62023,
        "rank_sort": 62052,
        "total": 2345
      },
      {
        "club_badge_src": null,
        "entry": 5697700,
        "entry_name": "unchained",
        "event_total": 69,
        "has_played": true,
        "id": 44608394,
        "last_rank": 87808,
        "player_name": "-- -",
        "rank": 62023,
        "rank_sort": 62053,
        "total": 2345
      },
      {
        "club_badge_src": null,
        "entry": 5836862,
        "entry_name": "Cespiano Wonders",
        "event_total": 77,
        "has_played": true,
        "id": 45816233,
        "last_rank": 108086,
        "player_name": "El Cespiano",
        "rank": 62023,
        "rank_sort": 62054,
        "total": 2345
      },
      {
        "club_badge_src": null,
        "entry": 6711168,
        "entry_name": "Gordon4s Or Gordon1s",
        "event_total": 59,
        "has_played": true,
        "id": 53707509,
        "last_rank": 66447,
        "player_name": "Kai Thaws",
        "rank": 62023,
        "rank_sort": 62055,
        "total": 2345
      },
      {
        "club_badge_src": null,
        "entry": 6797998,
        "entry_name": "Ahh team",
        "event_total": 63,
        "has_played": true,
        "id": 54439934,
        "last_rank": 74395,
        "player_name": "Nwisr Terba",
        "rank": 62023,
        "rank_sort": 62056,
        "total": 2345
      },
      {
        "club_badge_src": null,
        "entry": 7202449,
        "entry_name": "haedr thamir2",
        "event_total": 65,
        "has_played": true,
        "id": 58154825,
        "last_rank": 70276,
        "player_name": "haider thamir",
        "rank": 62023,
        "rank_sort": 62057,
        "total": 2345
      },
      {
        "club_badge_src": null,
        "entry": 8613909,
        "entry_name": "Panika FC",
        "event_total": 49,
        "has_played": true,
        "id": 71731950,
        "last_rank": 49407,
        "player_name": "Hubert chuberrt",
        "rank": 62023,
        "rank_sort": 62058,
        "total": 2345
      },
      {
        "club_badge_src": null,
        "entry": 8747566,
        "entry_name": "Change Name",
        "event_total": 68,
        "has_played": true,
        "id": 73040541,
        "last_rank": 76574,
        "player_name": "Jak Snowling",
        "rank": 62023,
        "rank_sort": 62059,
        "total": 2345
      },
      {
        "club_badge_src": null,
        "entry": 9007015,
        "entry_name": "\u0634\u064a\u062e \u0627\u0644\u0645\u062f\u0631\u0628\u064a\u0646 \u2705",
        "event_total": 47,
        "has_played": true,
        "id": 75547830,
        "last_rank": 40878,
        "player_name": "\u063a\u0632\u0629 Number 2",
        "rank": 62023,
        "rank_sort": 62060,
        "total": 2345
      },
      {
        "club_badge_src": null,
        "entry": 9276215,
        "entry_name": "Czarny Ko\u0144",
        "event_total": 61,
        "has_played": true,
        "id": 78179301,
        "last_rank": 62812,
        "player_name": "Piotr Flegel",
        "rank": 62023,
        "rank_sort": 62061,
        "total": 2345
      },
      {
        "club_badge_src": null,
        "entry": 9318238,
        "entry_name": "Cao Poy",
        "event_total": 56,
        "has_played": true,
        "id": 78584572,
        "last_rank": 61045,
        "player_name": "Nemanja Petrovic",
        "rank": 62023,
        "rank_sort": 62062,
        "total": 2345
      },
      {
        "club_badge_src": null,
        "entry": 28179,
        "entry_name": "Mastercard or Wissa",
        "event_total": 67,
        "has_played": true,
        "id": 178188,
        "last_rank": 83127,
        "player_name": "Christopher Hjort",
        "rank": 62063,
        "rank_sort": 62063,
        "total": 2345
      },
      {
        "club_badge_src": null,
        "entry": 39211,
        "entry_name": "Lucca Calcio",
        "event_total": 55,
        "has_played": true,
        "id": 251283,
        "last_rank": 59335,
        "player_name": "Andrew Graham",
        "rank": 62063,
        "rank_sort": 62064,
        "total": 2345
      },
      {
        "club_badge_src": "https://fantasy.premierleague.com/gcs/plfpl-production-adobe-approved/plfpl-production/95348/bd64df60-27e6-47a5-9ab3-40014a844149.png",
        "entry": 95348,
        "entry_name": "Ekitike Maxx",
        "event_total": 68,
        "has_played": true,
        "id": 623052,
        "last_rank": 85624,
        "player_name": "Rikki Brockwell",
        "rank": 62063,
        "rank_sort": 62065,
        "total": 2345
      },
      {
        "club_badge_src": "https://fantasy.premierleague.com/gcs/plfpl-production-adobe-approved/plfpl-production/123328/b0d3e2ac-d4d9-4420-a9e6-4dd55a4e18c5.png",
        "entry": 123328,
        "entry_name": "ahly4ever",
        "event_total": 44,
        "has_played": true,
        "id": 804451,
        "last_rank": 37211,
        "player_name": "ammr morsy",
        "rank": 62063,
        "rank_sort": 62066,
        "total": 2345
      },
      {
        "club_badge_src": "https://fantasy.premierleague.com/gcs/plfpl-production-adobe-approved/plfpl-production/182265/b5e8bef8-5c3b-410d-b58b-66df7539df1d.png",
        "entry": 182265,
        "entry_name": "rellricardo",
        "event_total": 59,
        "has_played": true,
        "id": 1202783,
        "last_rank": 59291,
        "player_name": "Durrell Charles",
        "rank": 62063,
        "rank_sort": 62067,
        "total": 2345
      },
      {
        "club_badge_src": null,
        "entry": 193947,
        "entry_name": "Lucky Dogs",
        "event_total": 65,
        "has_played": true,
        "id": 1285685,
        "last_rank": 55747,
        "player_name": "Zachery Zheng",
        "rank": 62063,
        "rank_sort": 62068,
        "total": 2345
      },
      {
        "club_badge_src": null,
        "entry": 200763,
        "entry_name": "too easy",
        "event_total": 55,
        "has_played": true,
        "id": 1332916,
        "last_rank": 52561,
        "player_name": "cammy finnie",
        "rank": 62063,
        "rank_sort": 62069,
        "total": 2345
      },
      {
        "club_badge_src": null,
        "entry": 206706,
        "entry_name": "ASPRFC",
        "event_total": 73,
        "has_played": true,
        "id": 1373891,
        "last_rank": 87885,
        "player_name": "RAO RAO",
        "rank": 62063,
        "rank_sort": 62070,
        "total": 2345
      },
      {
        "club_badge_src": null,
        "entry": 332831,
        "entry_name": "Bills FC",
        "event_total": 40,
        "has_played": true,
        "id": 2229099,
        "last_rank": 37236,
        "player_name": "Yousef Shabah",
        "rank": 62063,
        "rank_sort": 62071,
        "total": 2345
      },
      {
        "club_badge_src": null,
        "entry": 644311,
        "entry_name": "Baby Reijnder",
        "event_total": 69,
        "has_played": true,
        "id": 4354313,
        "last_rank": 78730,
        "player_name": "Robert Pook",
        "rank": 62063,
        "rank_sort": 62072,
        "total": 2345
      },
      {
        "club_badge_src": null,
        "entry": 686518,
        "entry_name": "Wirtz case scenario",
        "event_total": 49,
        "has_played": true,
        "id": 4647309,
        "last_rank": 43607,
        "player_name": "Hamish McGlinchy",
        "rank": 62063,
        "rank_sort": 62073,
        "total": 2345
      },
      {
        "club_badge_src": null,
        "entry": 721768,
        "entry_name": "Blue Team",
        "event_total": 64,
        "has_played": true,
        "id": 4901568,
        "last_rank": 68351,
        "player_name": "Daniel Deighan",
        "rank": 62063,
        "rank_sort": 62074,
        "total": 2345
      },
      {
        "club_badge_src": null,
        "entry": 723011,
        "entry_name": "Labing Lima",
        "event_total": 70,
        "has_played": true,
        "id": 4910462,
        "last_rank": 90229,
        "player_name": "Dave Liddiatt",
        "rank": 62063,
        "rank_sort": 62075,
        "total": 2345
      },
      {
        "club_badge_src": null,
        "entry": 901125,
        "entry_name": "\u0645\u0637\u0642\u0639 \u0627\u0644\u0643\u062a\u0627\u0643\u064a\u062a",
        "event_total": 66,
        "has_played": true,
        "id": 6191639,
        "last_rank": 72407,
        "player_name": "FAHAD AL3biwii",
        "rank": 62063,
        "rank_sort": 62076,
        "total": 2345
      },
      {
        "club_badge_src": null,
        "entry": 1077605,
        "entry_name": "Garibaldi Reds",
        "event_total": 68,
        "has_played": true,
        "id": 7461392,
        "last_rank": 85565,
        "player_name": "Sam Cooper",
        "rank": 62063,
        "rank_sort": 62077,
        "total": 2345
      },
      {
        "club_badge_src": "https://fantasy.premierleague.com/gcs/plfpl-production-adobe-approved/plfpl-production/1081965/ad586163-ff3e-4311-8d6d-7deab316271e.png",
        "entry": 1081965,
        "entry_name": "Pepriar Guardioler",
        "event_total": 67,
        "has_played": true,
        "id": 7491715,
        "last_rank": 74395,
        "player_name": "Fredrik Ringstad",
        "rank": 62063,
        "rank_sort": 62078,
        "total": 2345
      },
      {
        "club_badge_src": null,
        "entry": 1326986,
        "entry_name": "bu ibrahim",
        "event_total": 51,
        "has_played": true,
        "id": 9223722,
        "last_rank": 46406,
        "player_name": "abdullah alhabib",
        "rank": 62063,
        "rank_sort": 62079,
        "total": 2345
      },
      {
        "club_badge_src": null,
        "entry": 1435048,
        "entry_name": "\u0639\u0627\u0648\u0632\u064a\u0646 \u0627\u062e\u0635\u0627\u0645",
        "event_total": 59,
        "has_played": true,
        "id": 9999493,
        "last_rank": 59291,
        "player_name": "Baker khader",
        "rank": 62063,
        "rank_sort": 62080,
        "total": 2345
      },
      {
        "club_badge_src": null,
        "entry": 1646602,
        "entry_name": "Rejects",
        "event_total": 49,
        "has_played": true,
        "id": 11526418,
        "last_rank": 49463,
        "player_name": "Roy Santos",
        "rank": 62063,
        "rank_sort": 62081,
        "total": 2345
      },
      {
        "club_badge_src": null,
        "entry": 1942542,
        "entry_name": "ohmyohm",
        "event_total": 53,
        "has_played": true,
        "id": 13702315,
        "last_rank": 55902,
        "player_name": "mohamad firdaus",
        "rank": 62063,
        "rank_sort": 62082,
        "total": 2345
      },
      {
        "club_badge_src": null,
        "entry": 2026385,
        "entry_name": "MIB",
        "event_total": 65,
        "has_played": true,
        "id": 14344709,
        "last_rank": 70355,
        "player_name": "shane brown",
        "rank": 62063,
        "rank_sort": 62083,
        "total": 2345
      },
      {
        "club_badge_src": null,
        "entry": 2285713,
        "entry_name": "\u062e\u0644\u064a\u0647\u0627 \u0639\u0644\u064a \u0627\u0644\u0644\u0647",
        "event_total": 86,
        "has_played": true,
        "id": 16300629,
        "last_rank": 110709,
        "player_name": "Mo3az wasfy",
        "rank": 62063,
        "rank_sort": 62084,
        "total": 2345
      },
      {
        "club_badge_src": null,
        "entry": 2457687,
        "entry_name": "TaraKelsae",
        "event_total": 55,
        "has_played": true,
        "id": 17579271,
        "last_rank": 52561,
        "player_name": "Bruce Taylor",
        "rank": 62063,
        "rank_sort": 62085,
        "total": 2345
      },
      {
        "club_badge_src": "https://fantasy.premierleague.com/gcs/plfpl-production-adobe-approved/plfpl-production/2499067/c9664305-8bf5-4aca-861c-e2f2ddfbfe8a.png",
        "entry": 2499067,
        "entry_name": "Melursus Ursinus",
        "event_total": 53,
        "has_played": true,
        "id": 17892993,
        "last_rank": 55902,
        "player_name": "M Mutluay",
        "rank": 62063,
        "rank_sort": 62086,
        "total": 2345
      },
      {
        "club_badge_src": null,
        "entry": 2645066,
        "entry_name": "Ekitikitaka",
        "event_total": 65,
        "has_played": true,
        "id": 19011453,
        "last_rank": 70276,
        "player_name": "Matthew Tunnicliff",
        "rank": 62063,
        "rank_sort": 62087,
        "total": 2345
      },
      {
        "club_badge_src": null,
        "entry": 2702998,
        "entry_name": "Fouad",
        "event_total": 67,
        "has_played": true,
        "id": 19445528,
        "last_rank": 74395,
        "player_name": "Omar Fouad",
        "rank": 62063,
        "rank_sort": 62088,
        "total": 2345
      },
      {
        "club_badge_src": "https://fantasy.premierleague.com/gcs/plfpl-production-adobe-approved/plfpl-production/2969383/2168d989-6fc9-42c4-8361-1cc6f53811a3.png",
        "entry": 2969383,
        "entry_name": "Michu at De Gea Bar",
        "event_total": 71,
        "has_played": true,
        "id": 21816593,
        "last_rank": 92738,
        "player_name": "Robin Sand\u00f8",
        "rank": 62063,
        "rank_sort": 62089,
        "total": 2345
      },
      {
        "club_badge_src": null,
        "entry": 3039355,
        "entry_name": "Finding mbeumo",
        "event_total": 78,
        "has_played": true,
        "id": 22370478,
        "last_rank": 80781,
        "player_name": "achmad fawas gadi",
        "rank": 62063,
        "rank_sort": 62090,
        "total": 2345
      },
      {
        "club_badge_src": "https://fantasy.premierleague.com/gcs/plfpl-production-adobe-approved/plfpl-production/3269378/0bdbb458-11e8-4c8b-9409-161a76a0ff5a.png",
        "entry": 3269378,
        "entry_name": "SHAWTOWIN",
        "event_total": 37,
        "has_played": true,
        "id": 24194245,
        "last_rank": 33751,
        "player_name": "Daniel Peter",
        "rank": 62063,
        "rank_sort": 62091,
        "total": 2345
      },
      {
        "club_badge_src": "https://fantasy.premierleague.com/gcs/plfpl-production-adobe-approved/plfpl-production/3344910/67e5eb09-7357-41d5-ad89-d5cc9884f61b.png",
        "entry": 3344910,
        "entry_name": "Unmesh 11 FC",
        "event_total": 65,
        "has_played": true,
        "id": 24811625,
        "last_rank": 62812,
        "player_name": "Unmesh Gavand",
        "rank": 62063,
        "rank_sort": 62092,
        "total": 2345
      },
      {
        "club_badge_src": null,
        "entry": 3564955,
        "entry_name": "Mhd dz",
        "event_total": 83,
        "has_played": true,
        "id": 26544253,
        "last_rank": 125397,
        "player_name": "Mohamed am",
        "rank": 62063,
        "rank_sort": 62093,
        "total": 2345
      },
      {
        "club_badge_src": null,
        "entry": 3663398,
        "entry_name": "Lacroixssant FC",
        "event_total": 51,
        "has_played": true,
        "id": 27319449,
        "last_rank": 52603,
        "player_name": "James Campbell",
        "rank": 62063,
        "rank_sort": 62094,
        "total": 2345
      },
      {
        "club_badge_src": null,
        "entry": 3720202,
        "entry_name": "Virgil Van Strike",
        "event_total": 51,
        "has_played": true,
        "id": 27762824,
        "last_rank": 52603,
        "player_name": "Nicole Lewarne",
        "rank": 62063,
        "rank_sort": 62095,
        "total": 2345
      },
      {
        "club_badge_src": null,
        "entry": 3763222,
        "entry_name": "Flo&TheSlotMachine",
        "event_total": 57,
        "has_played": true,
        "id": 28098211,
        "last_rank": 55865,
        "player_name": "James Carragher",
        "rank": 62063,
        "rank_sort": 62096,
        "total": 2345
      },
      {
        "club_badge_src": null,
        "entry": 4303817,
        "entry_name": "Paqueta Crisps",
        "event_total": 42,
        "has_played": true,
        "id": 32652896,
        "last_rank": 39703,
        "player_name": "Ali Weir",
        "rank": 62063,
        "rank_sort": 62097,
        "total": 2345
      },
      {
        "club_badge_src": null,
        "entry": 4453070,
        "entry_name": "Me Myself Ndiaye",
        "event_total": 70,
        "has_played": true,
        "id": 33919092,
        "last_rank": 57358,
        "player_name": "Dean McCarry",
        "rank": 62063,
        "rank_sort": 62098,
        "total": 2345
      },
      {
        "club_badge_src": null,
        "entry": 4528532,
        "entry_name": "Skjolden FC",
        "event_total": 67,
        "has_played": true,
        "id": 34540782,
        "last_rank": 83216,
        "player_name": "Ruy Hernandez",
        "rank": 62063,
        "rank_sort": 62099,
        "total": 2345
      },
      {
        "club_badge_src": null,
        "entry": 4570443,
        "entry_name": "kaja v\u00e6r s\u00e5 snill FC",
        "event_total": 55,
        "has_played": true,
        "id": 34880022,
        "last_rank": 52522,
        "player_name": "Andreas Andersen",
        "rank": 62063,
        "rank_sort": 62100,
        "total": 2345
      }
    ]
  }
}