{
  "last_updated_data": "2026-05-24T23:28:17Z",
  "league": {
    "admin_entry": null,
    "closed": false,
    "code_privacy": "p",
    "created": "2025-07-20T23:14:33.933835Z",
    "cup_league": 2815434,
    "has_cup": true,
    "id": 314,
    "league_type": "s",
    "max_entries": null,
    "name": "Overall",
    "rank": null,
    "scoring": "c",
    "start_event": 1
  },
  "new_entries": {
    "has_next": false,
    "page": 1,
    "results": []
  },
  "standings": {
    "has_next": true,
    "page": 1440,
    "results": [
      {
        "club_badge_src": null,
        "entry": 6519364,
        "entry_name": "bo5aledzzz",
        "event_total": 67,
        "has_played": true,
        "id": 51994322,
        "last_rank": 95640,
        "player_name": "Abdullah Alsaleh",
        "rank": 71654,
        "rank_sort": 71951,
        "total": 2339
      },
      {
        "club_badge_src": null,
        "entry": 6523525,
        "entry_name": "SharkHunter\ufffd",
        "event_total": 50,
        "has_played": true,
        "id": 52031101,
        "last_rank": 60168,
        "player_name": "Chris Bristow",
        "rank": 71654,
        "rank_sort": 71952,
        "total": 2339
      },
      {
        "club_badge_src": null,
        "entry": 6578976,
        "entry_name": "Arteta's Army",
        "event_total": 71,
        "has_played": true,
        "id": 52533462,
        "last_rank": 105963,
        "player_name": "Saif Choudhury",
        "rank": 71654,
        "rank_sort": 71953,
        "total": 2339
      },
      {
        "club_badge_src": null,
        "entry": 6694784,
        "entry_name": "Bob's Blues",
        "event_total": 59,
        "has_played": true,
        "id": 53563081,
        "last_rank": 77050,
        "player_name": "Bob Santariello",
        "rank": 71654,
        "rank_sort": 71954,
        "total": 2339
      },
      {
        "club_badge_src": null,
        "entry": 6726133,
        "entry_name": "BestNick",
        "event_total": 91,
        "has_played": true,
        "id": 53833620,
        "last_rank": 171219,
        "player_name": "Nick Kemennu",
        "rank": 71654,
        "rank_sort": 71955,
        "total": 2339
      },
      {
        "club_badge_src": null,
        "entry": 6853525,
        "entry_name": "Lads on Tour\u00e9",
        "event_total": 59,
        "has_played": true,
        "id": 54909199,
        "last_rank": 77050,
        "player_name": "Kayenne Grant-Evans",
        "rank": 71654,
        "rank_sort": 71956,
        "total": 2339
      },
      {
        "club_badge_src": null,
        "entry": 6854109,
        "entry_name": "SHERZADJ",
        "event_total": 29,
        "has_played": true,
        "id": 54914161,
        "last_rank": 30727,
        "player_name": "Sherzad Jabbar",
        "rank": 71654,
        "rank_sort": 71957,
        "total": 2339
      },
      {
        "club_badge_src": null,
        "entry": 6884430,
        "entry_name": "Isak hates Geordies",
        "event_total": 81,
        "has_played": true,
        "id": 55173543,
        "last_rank": 136624,
        "player_name": "Jonny Martin",
        "rank": 71654,
        "rank_sort": 71958,
        "total": 2339
      },
      {
        "club_badge_src": null,
        "entry": 6906431,
        "entry_name": "Free Palestine Team",
        "event_total": 55,
        "has_played": true,
        "id": 55358036,
        "last_rank": 68957,
        "player_name": "Mohammad AbuKhalil",
        "rank": 71654,
        "rank_sort": 71959,
        "total": 2339
      },
      {
        "club_badge_src": null,
        "entry": 6941219,
        "entry_name": "McGinn n Tonic",
        "event_total": 25,
        "has_played": true,
        "id": 55651520,
        "last_rank": 26827,
        "player_name": "Lewis Black",
        "rank": 71654,
        "rank_sort": 71960,
        "total": 2339
      },
      {
        "club_badge_src": null,
        "entry": 6975942,
        "entry_name": "Alfa Romero",
        "event_total": 40,
        "has_played": true,
        "id": 55970843,
        "last_rank": 44048,
        "player_name": "Tamas Havas",
        "rank": 71654,
        "rank_sort": 71961,
        "total": 2339
      },
      {
        "club_badge_src": null,
        "entry": 7009276,
        "entry_name": "Adil FC",
        "event_total": 67,
        "has_played": true,
        "id": 56288409,
        "last_rank": 86054,
        "player_name": "Adil Haji",
        "rank": 71654,
        "rank_sort": 71962,
        "total": 2339
      },
      {
        "club_badge_src": null,
        "entry": 7020495,
        "entry_name": "FrankTheTank",
        "event_total": 56,
        "has_played": true,
        "id": 56392186,
        "last_rank": 70985,
        "player_name": "JP Finucane",
        "rank": 71654,
        "rank_sort": 71963,
        "total": 2339
      },
      {
        "club_badge_src": "https://fantasy.premierleague.com/gcs/plfpl-production-adobe-approved/plfpl-production/7140491/2ba214f8-535e-4d08-be5a-f5dc1573b753.png",
        "entry": 7140491,
        "entry_name": "Lalai's XI",
        "event_total": 60,
        "has_played": true,
        "id": 57559378,
        "last_rank": 79431,
        "player_name": "Yash Lalai",
        "rank": 71654,
        "rank_sort": 71964,
        "total": 2339
      },
      {
        "club_badge_src": null,
        "entry": 7161048,
        "entry_name": "Comme ci, Konsa",
        "event_total": 58,
        "has_played": true,
        "id": 57763720,
        "last_rank": 75139,
        "player_name": "Andrew Deanshaw",
        "rank": 71654,
        "rank_sort": 71965,
        "total": 2339
      },
      {
        "club_badge_src": null,
        "entry": 7320124,
        "entry_name": "Jossy's Giants",
        "event_total": 52,
        "has_played": true,
        "id": 59265035,
        "last_rank": 63201,
        "player_name": "Michael Connor",
        "rank": 71654,
        "rank_sort": 71966,
        "total": 2339
      },
      {
        "club_badge_src": null,
        "entry": 7362650,
        "entry_name": "Camel nuggets",
        "event_total": 56,
        "has_played": true,
        "id": 59666543,
        "last_rank": 70651,
        "player_name": "Mo Rahma",
        "rank": 71654,
        "rank_sort": 71967,
        "total": 2339
      },
      {
        "club_badge_src": null,
        "entry": 7373591,
        "entry_name": "Red",
        "event_total": 47,
        "has_played": true,
        "id": 59767711,
        "last_rank": 54494,
        "player_name": "Ross Redmond",
        "rank": 71654,
        "rank_sort": 71968,
        "total": 2339
      },
      {
        "club_badge_src": null,
        "entry": 7498345,
        "entry_name": "lallana del ray",
        "event_total": 52,
        "has_played": true,
        "id": 61258470,
        "last_rank": 63201,
        "player_name": "Oliver Bragg",
        "rank": 71654,
        "rank_sort": 71969,
        "total": 2339
      },
      {
        "club_badge_src": null,
        "entry": 7505064,
        "entry_name": "Yerda Sels Avon",
        "event_total": 53,
        "has_played": true,
        "id": 61339009,
        "last_rank": 65163,
        "player_name": "Mark Patterson",
        "rank": 71654,
        "rank_sort": 71970,
        "total": 2339
      },
      {
        "club_badge_src": null,
        "entry": 7513897,
        "entry_name": "Veni Vici",
        "event_total": 61,
        "has_played": true,
        "id": 61446144,
        "last_rank": 81244,
        "player_name": "Emmanuel Boateng",
        "rank": 71654,
        "rank_sort": 71971,
        "total": 2339
      },
      {
        "club_badge_src": null,
        "entry": 7520960,
        "entry_name": "Zoltan Vera",
        "event_total": 61,
        "has_played": true,
        "id": 61533390,
        "last_rank": 81646,
        "player_name": "Dom Moritz",
        "rank": 71654,
        "rank_sort": 71972,
        "total": 2339
      },
      {
        "club_badge_src": "https://fantasy.premierleague.com/gcs/plfpl-production-adobe-approved/plfpl-production/7545991/5aeaf341-b7ae-4e5a-8785-86010dd202b3.png",
        "entry": 7545991,
        "entry_name": "ZeeRoX",
        "event_total": 63,
        "has_played": true,
        "id": 61776143,
        "last_rank": 86304,
        "player_name": "A N M Zahid Hossain",
        "rank": 71654,
        "rank_sort": 71973,
        "total": 2339
      },
      {
        "club_badge_src": null,
        "entry": 7555725,
        "entry_name": "The Pink Sambucas",
        "event_total": 59,
        "has_played": true,
        "id": 61863780,
        "last_rank": 76947,
        "player_name": "Dave Hurworth",
        "rank": 71654,
        "rank_sort": 71974,
        "total": 2339
      },
      {
        "club_badge_src": null,
        "entry": 7572861,
        "entry_name": "Kinder Mbuemo",
        "event_total": 65,
        "has_played": true,
        "id": 62018561,
        "last_rank": 90746,
        "player_name": "ama C",
        "rank": 71654,
        "rank_sort": 71975,
        "total": 2339
      },
      {
        "club_badge_src": null,
        "entry": 7627088,
        "entry_name": "Cunha Believe This",
        "event_total": 39,
        "has_played": true,
        "id": 62509871,
        "last_rank": 42648,
        "player_name": "Thomas O'Sullivan",
        "rank": 71654,
        "rank_sort": 71976,
        "total": 2339
      },
      {
        "club_badge_src": null,
        "entry": 7629717,
        "entry_name": "El Ter3a West",
        "event_total": 68,
        "has_played": true,
        "id": 62533309,
        "last_rank": 98183,
        "player_name": "Salah Tawfik",
        "rank": 71654,
        "rank_sort": 71977,
        "total": 2339
      },
      {
        "club_badge_src": null,
        "entry": 7640494,
        "entry_name": "Isak At FPL",
        "event_total": 57,
        "has_played": true,
        "id": 62630341,
        "last_rank": 73038,
        "player_name": "Hussein Damji",
        "rank": 71654,
        "rank_sort": 71978,
        "total": 2339
      },
      {
        "club_badge_src": null,
        "entry": 7698800,
        "entry_name": "East End Parkers",
        "event_total": 54,
        "has_played": true,
        "id": 63160384,
        "last_rank": 67422,
        "player_name": "Mark Anderson",
        "rank": 71654,
        "rank_sort": 71979,
        "total": 2339
      },
      {
        "club_badge_src": null,
        "entry": 7735390,
        "entry_name": "The Yeordies",
        "event_total": 52,
        "has_played": true,
        "id": 63489973,
        "last_rank": 63390,
        "player_name": "Antonia Farbridge",
        "rank": 71654,
        "rank_sort": 71980,
        "total": 2339
      },
      {
        "club_badge_src": null,
        "entry": 7777933,
        "entry_name": "Nade FC",
        "event_total": 47,
        "has_played": true,
        "id": 63875224,
        "last_rank": 55014,
        "player_name": "Nade Seidon",
        "rank": 71654,
        "rank_sort": 71981,
        "total": 2339
      },
      {
        "club_badge_src": null,
        "entry": 7781097,
        "entry_name": "Belair wanderers",
        "event_total": 58,
        "has_played": true,
        "id": 63903887,
        "last_rank": 75139,
        "player_name": "Jesse Edwards",
        "rank": 71654,
        "rank_sort": 71982,
        "total": 2339
      },
      {
        "club_badge_src": null,
        "entry": 7794392,
        "entry_name": "Dave Hensman",
        "event_total": 59,
        "has_played": true,
        "id": 64023073,
        "last_rank": 77258,
        "player_name": "Josh Rodrigues",
        "rank": 71654,
        "rank_sort": 71983,
        "total": 2339
      },
      {
        "club_badge_src": null,
        "entry": 7934141,
        "entry_name": "Batman McGinns(:",
        "event_total": 66,
        "has_played": true,
        "id": 65298485,
        "last_rank": 93186,
        "player_name": "SUOMYN ONA",
        "rank": 71654,
        "rank_sort": 71984,
        "total": 2339
      },
      {
        "club_badge_src": null,
        "entry": 8003218,
        "entry_name": "ASKIR Fantasy",
        "event_total": 49,
        "has_played": true,
        "id": 65913179,
        "last_rank": 57857,
        "player_name": "Achmad S Nor",
        "rank": 71654,
        "rank_sort": 71985,
        "total": 2339
      },
      {
        "club_badge_src": null,
        "entry": 8007119,
        "entry_name": "World Champs",
        "event_total": 56,
        "has_played": true,
        "id": 65947713,
        "last_rank": 70985,
        "player_name": "Eduardo Ortega",
        "rank": 71654,
        "rank_sort": 71986,
        "total": 2339
      },
      {
        "club_badge_src": null,
        "entry": 8053907,
        "entry_name": "Bigfoot",
        "event_total": 36,
        "has_played": true,
        "id": 66372754,
        "last_rank": 39023,
        "player_name": "Tobias Refsland",
        "rank": 71654,
        "rank_sort": 71987,
        "total": 2339
      },
      {
        "club_badge_src": "https://fantasy.premierleague.com/gcs/plfpl-production-adobe-approved/plfpl-production/8065424/931c4e17-e3f8-4b51-b9af-b93c509ca413.png",
        "entry": 8065424,
        "entry_name": "Fernandes nutz",
        "event_total": 77,
        "has_played": true,
        "id": 66478911,
        "last_rank": 123120,
        "player_name": "George Rahmani",
        "rank": 71654,
        "rank_sort": 71988,
        "total": 2339
      },
      {
        "club_badge_src": null,
        "entry": 8110813,
        "entry_name": "kabab hendi",
        "event_total": 48,
        "has_played": true,
        "id": 66901582,
        "last_rank": 56369,
        "player_name": "Ameen Yamal",
        "rank": 71654,
        "rank_sort": 71989,
        "total": 2339
      },
      {
        "club_badge_src": "https://fantasy.premierleague.com/gcs/plfpl-production-adobe-approved/plfpl-production/8161237/a4415ed3-c17d-4947-81e2-a7f918d094fe.png",
        "entry": 8161237,
        "entry_name": "Hatters36",
        "event_total": 53,
        "has_played": true,
        "id": 67372909,
        "last_rank": 65163,
        "player_name": "Sandra Wilson",
        "rank": 71654,
        "rank_sort": 71990,
        "total": 2339
      },
      {
        "club_badge_src": null,
        "entry": 8186692,
        "entry_name": "De Blau Scheen",
        "event_total": 65,
        "has_played": true,
        "id": 67614049,
        "last_rank": 91006,
        "player_name": "Pegie Achttien",
        "rank": 71654,
        "rank_sort": 71991,
        "total": 2339
      },
      {
        "club_badge_src": null,
        "entry": 8259942,
        "entry_name": "BRAMIL",
        "event_total": 72,
        "has_played": true,
        "id": 68319185,
        "last_rank": 108567,
        "player_name": "Branislav Milanovi\u0107",
        "rank": 71654,
        "rank_sort": 71992,
        "total": 2339
      },
      {
        "club_badge_src": null,
        "entry": 8266498,
        "entry_name": "Tetatop1",
        "event_total": 68,
        "has_played": true,
        "id": 68380835,
        "last_rank": 98436,
        "player_name": "syaran suri",
        "rank": 71654,
        "rank_sort": 71993,
        "total": 2339
      },
      {
        "club_badge_src": null,
        "entry": 8401679,
        "entry_name": "Les Pandas 6.9",
        "event_total": 50,
        "has_played": true,
        "id": 69693315,
        "last_rank": 59813,
        "player_name": "Kareem Abu Khadra",
        "rank": 71654,
        "rank_sort": 71994,
        "total": 2339
      },
      {
        "club_badge_src": null,
        "entry": 8471243,
        "entry_name": "Gaspas FC",
        "event_total": 47,
        "has_played": true,
        "id": 70356655,
        "last_rank": 55014,
        "player_name": "Diogo Gaspar Dias",
        "rank": 71654,
        "rank_sort": 71995,
        "total": 2339
      },
      {
        "club_badge_src": "https://fantasy.premierleague.com/gcs/plfpl-production-adobe-approved/plfpl-production/8527945/292737ea-bda7-4f6a-bca8-d7c363a5be63.png",
        "entry": 8527945,
        "entry_name": "Gyo\u03ba\u03b5\u03c1\u03b9\u03ac & Sali\u03b2\u03ac\u03bd\u03b9\u03b1",
        "event_total": 66,
        "has_played": true,
        "id": 70907081,
        "last_rank": 93186,
        "player_name": "Dimitris Tselikas",
        "rank": 71654,
        "rank_sort": 71996,
        "total": 2339
      },
      {
        "club_badge_src": null,
        "entry": 8608941,
        "entry_name": "Keisarinn",
        "event_total": 40,
        "has_played": true,
        "id": 71683971,
        "last_rank": 44303,
        "player_name": "Ing\u00f3lfur Helgi Ing\u00f3lfsson",
        "rank": 71654,
        "rank_sort": 71997,
        "total": 2339
      },
      {
        "club_badge_src": null,
        "entry": 8612960,
        "entry_name": "ALLEZ",
        "event_total": 65,
        "has_played": true,
        "id": 71722843,
        "last_rank": 91006,
        "player_name": "tom prt",
        "rank": 71654,
        "rank_sort": 71998,
        "total": 2339
      },
      {
        "club_badge_src": "https://fantasy.premierleague.com/gcs/plfpl-production-adobe-approved/plfpl-production/8721294/aed8d0af-0394-4e25-9a4b-997c12940297.png",
        "entry": 8721294,
        "entry_name": "\u062a\u0627\u0645\u0631 \u0639\u0627\u0634\u0648\u0631 \u0647\u0648 \u0627\u0644\u0628\u0627\u0628\u0627",
        "event_total": 70,
        "has_played": true,
        "id": 72786582,
        "last_rank": 103254,
        "player_name": "Kareem Sabri",
        "rank": 71654,
        "rank_sort": 71999,
        "total": 2339
      },
      {
        "club_badge_src": null,
        "entry": 8758709,
        "entry_name": "Mok",
        "event_total": 55,
        "has_played": true,
        "id": 73146001,
        "last_rank": 68957,
        "player_name": "mokrane L'inconnu",
        "rank": 71654,
        "rank_sort": 72000,
        "total": 2339
      }
    ]
  }
}