{
  "last_updated_data": "2026-05-24T23:28:17Z",
  "league": {
    "admin_entry": null,
    "closed": false,
    "code_privacy": "p",
    "created": "2025-07-20T23:14:33.933835Z",
    "cup_league": 2815434,
    "has_cup": true,
    "id": 314,
    "league_type": "s",
    "max_entries": null,
    "name": "Overall",
    "rank": null,
    "scoring": "c",
    "start_event": 1
  },
  "new_entries": {
    "has_next": false,
    "page": 1,
    "results": []
  },
  "standings": {
    "has_next": true,
    "page": 1283,
    "results": [
      {
        "club_badge_src": null,
        "entry": 3510965,
        "entry_name": "Fc Bob Hm",
        "event_total": 58,
        "has_played": true,
        "id": 26124412,
        "last_rank": 66848,
        "player_name": "alaa eddine bob hm",
        "rank": 64083,
        "rank_sort": 64101,
        "total": 2343
      },
      {
        "club_badge_src": null,
        "entry": 3631360,
        "entry_name": "Spartak Azerbaijan",
        "event_total": 64,
        "has_played": true,
        "id": 27060333,
        "last_rank": 79190,
        "player_name": "Jason Petrie",
        "rank": 64083,
        "rank_sort": 64102,
        "total": 2343
      },
      {
        "club_badge_src": null,
        "entry": 3903504,
        "entry_name": "Tickhill Tigers",
        "event_total": 58,
        "has_played": true,
        "id": 29344820,
        "last_rank": 66848,
        "player_name": "Alan Ryans",
        "rank": 64083,
        "rank_sort": 64103,
        "total": 2343
      },
      {
        "club_badge_src": null,
        "entry": 4074286,
        "entry_name": "Soccer or Football",
        "event_total": 64,
        "has_played": true,
        "id": 30753965,
        "last_rank": 79027,
        "player_name": "Philip Brennan",
        "rank": 64083,
        "rank_sort": 64104,
        "total": 2343
      },
      {
        "club_badge_src": "https://fantasy.premierleague.com/gcs/plfpl-production-adobe-approved/plfpl-production/4106256/ea1772c1-1899-4b74-a366-8abc64cacaa3.png",
        "entry": 4106256,
        "entry_name": "cage will",
        "event_total": 58,
        "has_played": true,
        "id": 31009358,
        "last_rank": 66693,
        "player_name": "Blake Moynagh",
        "rank": 64083,
        "rank_sort": 64105,
        "total": 2343
      },
      {
        "club_badge_src": null,
        "entry": 4267490,
        "entry_name": "Giggs in a Blanket",
        "event_total": 71,
        "has_played": true,
        "id": 32359365,
        "last_rank": 95464,
        "player_name": "Justin Perkins",
        "rank": 64083,
        "rank_sort": 64106,
        "total": 2343
      },
      {
        "club_badge_src": null,
        "entry": 4595530,
        "entry_name": "RubADub",
        "event_total": 51,
        "has_played": true,
        "id": 35097569,
        "last_rank": 54416,
        "player_name": "Ruben Da Rocha",
        "rank": 64083,
        "rank_sort": 64107,
        "total": 2343
      },
      {
        "club_badge_src": null,
        "entry": 4966802,
        "entry_name": "Dolphin FC",
        "event_total": 43,
        "has_played": true,
        "id": 38330284,
        "last_rank": 42506,
        "player_name": "Michael Allen",
        "rank": 64083,
        "rank_sort": 64108,
        "total": 2343
      },
      {
        "club_badge_src": null,
        "entry": 5047236,
        "entry_name": "nandinos",
        "event_total": 65,
        "has_played": true,
        "id": 38991874,
        "last_rank": 72662,
        "player_name": "Emily Keegan Le",
        "rank": 64083,
        "rank_sort": 64109,
        "total": 2343
      },
      {
        "club_badge_src": null,
        "entry": 5468647,
        "entry_name": "CCFC",
        "event_total": 45,
        "has_played": true,
        "id": 42563204,
        "last_rank": 45252,
        "player_name": "Faisal Ahmed",
        "rank": 64083,
        "rank_sort": 64110,
        "total": 2343
      },
      {
        "club_badge_src": null,
        "entry": 5514001,
        "entry_name": "Bend It like Beckham",
        "event_total": 69,
        "has_played": true,
        "id": 42985235,
        "last_rank": 90494,
        "player_name": "M\u00e1rton N\u00e9meth",
        "rank": 64083,
        "rank_sort": 64111,
        "total": 2343
      },
      {
        "club_badge_src": null,
        "entry": 5613443,
        "entry_name": "Arthur's XI",
        "event_total": 64,
        "has_played": true,
        "id": 43873324,
        "last_rank": 78979,
        "player_name": "Arthur Kirkby",
        "rank": 64083,
        "rank_sort": 64112,
        "total": 2343
      },
      {
        "club_badge_src": "https://fantasy.premierleague.com/gcs/plfpl-production-adobe-approved/plfpl-production/5735782/107cf5ad-66a3-4494-a1b1-07d426afefae.png",
        "entry": 5735782,
        "entry_name": "pepkt",
        "event_total": 74,
        "has_played": true,
        "id": 44938049,
        "last_rank": 103017,
        "player_name": "Kristian T",
        "rank": 64083,
        "rank_sort": 64113,
        "total": 2343
      },
      {
        "club_badge_src": null,
        "entry": 5886999,
        "entry_name": "Cunha Catch Me",
        "event_total": 53,
        "has_played": true,
        "id": 46244377,
        "last_rank": 57776,
        "player_name": "Shayan Haqqi",
        "rank": 64083,
        "rank_sort": 64114,
        "total": 2343
      },
      {
        "club_badge_src": null,
        "entry": 5923176,
        "entry_name": "Charli xGx",
        "event_total": 62,
        "has_played": true,
        "id": 46557942,
        "last_rank": 74741,
        "player_name": "Nic Djounov",
        "rank": 64083,
        "rank_sort": 64115,
        "total": 2343
      },
      {
        "club_badge_src": null,
        "entry": 6189803,
        "entry_name": "Champ 21\u2019 x 25\u2019",
        "event_total": 76,
        "has_played": true,
        "id": 48957135,
        "last_rank": 108496,
        "player_name": "Andy Rowsome",
        "rank": 64083,
        "rank_sort": 64116,
        "total": 2343
      },
      {
        "club_badge_src": null,
        "entry": 6371999,
        "entry_name": "moles army",
        "event_total": 57,
        "has_played": true,
        "id": 50671678,
        "last_rank": 64943,
        "player_name": "james o donovan",
        "rank": 64083,
        "rank_sort": 64117,
        "total": 2343
      },
      {
        "club_badge_src": null,
        "entry": 6467621,
        "entry_name": "Soccer_Team_3",
        "event_total": 53,
        "has_played": true,
        "id": 51529446,
        "last_rank": 57776,
        "player_name": "O W",
        "rank": 64083,
        "rank_sort": 64118,
        "total": 2343
      },
      {
        "club_badge_src": null,
        "entry": 7356743,
        "entry_name": "milanese",
        "event_total": 69,
        "has_played": true,
        "id": 59611458,
        "last_rank": 90524,
        "player_name": "Milan Jacobs",
        "rank": 64083,
        "rank_sort": 64119,
        "total": 2343
      },
      {
        "club_badge_src": null,
        "entry": 7480627,
        "entry_name": "LesMiserables",
        "event_total": 81,
        "has_played": true,
        "id": 61031216,
        "last_rank": 123120,
        "player_name": "Chinonso Iwu",
        "rank": 64083,
        "rank_sort": 64120,
        "total": 2343
      },
      {
        "club_badge_src": null,
        "entry": 8492713,
        "entry_name": "pablitini fc",
        "event_total": 60,
        "has_played": true,
        "id": 70566310,
        "last_rank": 70600,
        "player_name": "Pablito A",
        "rank": 64083,
        "rank_sort": 64121,
        "total": 2343
      },
      {
        "club_badge_src": null,
        "entry": 9098143,
        "entry_name": "CityzensOfTheGalaxy",
        "event_total": 65,
        "has_played": true,
        "id": 76433792,
        "last_rank": 81312,
        "player_name": "Mark Coupe",
        "rank": 64083,
        "rank_sort": 64122,
        "total": 2343
      },
      {
        "club_badge_src": null,
        "entry": 2488,
        "entry_name": "Odegaardium Leviosa",
        "event_total": 64,
        "has_played": true,
        "id": 13879,
        "last_rank": 79190,
        "player_name": "Ollie Palmer",
        "rank": 64123,
        "rank_sort": 64123,
        "total": 2343
      },
      {
        "club_badge_src": null,
        "entry": 6547,
        "entry_name": "ABCDE FC",
        "event_total": 51,
        "has_played": true,
        "id": 37582,
        "last_rank": 54494,
        "player_name": "Alec Thomas",
        "rank": 64123,
        "rank_sort": 64124,
        "total": 2343
      },
      {
        "club_badge_src": null,
        "entry": 22306,
        "entry_name": "Eze Does It",
        "event_total": 64,
        "has_played": true,
        "id": 140053,
        "last_rank": 79079,
        "player_name": "Ollie Sharpe",
        "rank": 64123,
        "rank_sort": 64125,
        "total": 2343
      },
      {
        "club_badge_src": "https://fantasy.premierleague.com/gcs/plfpl-production-adobe-approved/plfpl-production/126051/b8779862-ef5c-4936-bd4a-092905359c89.png",
        "entry": 126051,
        "entry_name": "Drush FC",
        "event_total": 60,
        "has_played": true,
        "id": 821957,
        "last_rank": 70985,
        "player_name": "Matt Richards",
        "rank": 64123,
        "rank_sort": 64126,
        "total": 2343
      },
      {
        "club_badge_src": null,
        "entry": 136116,
        "entry_name": "KanteGetAnyWorse",
        "event_total": 54,
        "has_played": true,
        "id": 886585,
        "last_rank": 59535,
        "player_name": "Robin Dahlgren",
        "rank": 64123,
        "rank_sort": 64127,
        "total": 2343
      },
      {
        "club_badge_src": null,
        "entry": 166478,
        "entry_name": "theshortblanket",
        "event_total": 67,
        "has_played": true,
        "id": 1099910,
        "last_rank": 86054,
        "player_name": "Joel Barnard",
        "rank": 64123,
        "rank_sort": 64128,
        "total": 2343
      },
      {
        "club_badge_src": "https://fantasy.premierleague.com/gcs/plfpl-production-adobe-approved/plfpl-production/174771/84390f40-99b6-4cf2-8e0b-9ebb8b717cb1.png",
        "entry": 174771,
        "entry_name": "Bruno Dos Tres",
        "event_total": 62,
        "has_played": true,
        "id": 1154003,
        "last_rank": 74898,
        "player_name": "Kingsley Smith",
        "rank": 64123,
        "rank_sort": 64129,
        "total": 2343
      },
      {
        "club_badge_src": null,
        "entry": 212343,
        "entry_name": "Wirtz Case Scenario",
        "event_total": 51,
        "has_played": true,
        "id": 1412579,
        "last_rank": 54667,
        "player_name": "Resha Rizvi",
        "rank": 64123,
        "rank_sort": 64130,
        "total": 2343
      },
      {
        "club_badge_src": null,
        "entry": 249380,
        "entry_name": "four&half",
        "event_total": 62,
        "has_played": true,
        "id": 1659562,
        "last_rank": 74787,
        "player_name": "Troy Langefeld",
        "rank": 64123,
        "rank_sort": 64131,
        "total": 2343
      },
      {
        "club_badge_src": null,
        "entry": 249697,
        "entry_name": "Pain in Dias",
        "event_total": 52,
        "has_played": true,
        "id": 1661551,
        "last_rank": 49607,
        "player_name": "James Lee",
        "rank": 64123,
        "rank_sort": 64132,
        "total": 2343
      },
      {
        "club_badge_src": "https://fantasy.premierleague.com/gcs/plfpl-production-adobe-approved/plfpl-production/256348/479c112f-6cd0-4cac-bf5a-bb40320da569.png",
        "entry": 256348,
        "entry_name": "Dhey\u00e1 f odat",
        "event_total": 57,
        "has_played": true,
        "id": 1704952,
        "last_rank": 65163,
        "player_name": "Dhey'a F Odat",
        "rank": 64123,
        "rank_sort": 64133,
        "total": 2343
      },
      {
        "club_badge_src": null,
        "entry": 264012,
        "entry_name": "Cucu for Gy\u00f6ko Puffs",
        "event_total": 62,
        "has_played": true,
        "id": 1755543,
        "last_rank": 74787,
        "player_name": "Jonathan Frank",
        "rank": 64123,
        "rank_sort": 64134,
        "total": 2343
      },
      {
        "club_badge_src": null,
        "entry": 282087,
        "entry_name": "Victor Moses lawn",
        "event_total": 63,
        "has_played": true,
        "id": 1877516,
        "last_rank": 76885,
        "player_name": "Archie Ferguson",
        "rank": 64123,
        "rank_sort": 64135,
        "total": 2343
      },
      {
        "club_badge_src": null,
        "entry": 338664,
        "entry_name": "aymanben26",
        "event_total": 33,
        "has_played": true,
        "id": 2267253,
        "last_rank": 30727,
        "player_name": "Ayman Benajiba",
        "rank": 64123,
        "rank_sort": 64136,
        "total": 2343
      },
      {
        "club_badge_src": null,
        "entry": 410794,
        "entry_name": "MrInbetween3000",
        "event_total": 67,
        "has_played": true,
        "id": 2754405,
        "last_rank": 85870,
        "player_name": "Lee Wright",
        "rank": 64123,
        "rank_sort": 64137,
        "total": 2343
      },
      {
        "club_badge_src": null,
        "entry": 449347,
        "entry_name": "WXXW",
        "event_total": 39,
        "has_played": true,
        "id": 3014715,
        "last_rank": 37589,
        "player_name": "Omoefe Watemi",
        "rank": 64123,
        "rank_sort": 64138,
        "total": 2343
      },
      {
        "club_badge_src": "https://fantasy.premierleague.com/gcs/plfpl-production-adobe-approved/plfpl-production/553702/67a3930d-7e28-47c3-a75a-0817190a9fb2.png",
        "entry": 553702,
        "entry_name": "Matrix",
        "event_total": 57,
        "has_played": true,
        "id": 3726797,
        "last_rank": 64943,
        "player_name": "Ugnius Ad",
        "rank": 64123,
        "rank_sort": 64139,
        "total": 2343
      },
      {
        "club_badge_src": "https://fantasy.premierleague.com/gcs/plfpl-production-adobe-approved/plfpl-production/554454/616999e7-ff41-4626-bd4b-c6d8dd1789fb.png",
        "entry": 554454,
        "entry_name": "Lads FC",
        "event_total": 57,
        "has_played": true,
        "id": 3731738,
        "last_rank": 64830,
        "player_name": "Grunde Otnes",
        "rank": 64123,
        "rank_sort": 64140,
        "total": 2343
      },
      {
        "club_badge_src": "https://fantasy.premierleague.com/gcs/plfpl-production-adobe-approved/plfpl-production/608740/5e517b91-10e3-419f-8976-f9b29ef3f4ed.png",
        "entry": 608740,
        "entry_name": "\u0160e\u0161ko Meal Deal",
        "event_total": 46,
        "has_played": true,
        "id": 4111606,
        "last_rank": 46591,
        "player_name": "Jonny Brownlow",
        "rank": 64123,
        "rank_sort": 64141,
        "total": 2343
      },
      {
        "club_badge_src": null,
        "entry": 626854,
        "entry_name": "TwistsandTurns",
        "event_total": 43,
        "has_played": true,
        "id": 4236058,
        "last_rank": 42648,
        "player_name": "Mark Finnigan",
        "rank": 64123,
        "rank_sort": 64142,
        "total": 2343
      },
      {
        "club_badge_src": null,
        "entry": 661752,
        "entry_name": "Enter name here",
        "event_total": 59,
        "has_played": true,
        "id": 4472829,
        "last_rank": 68748,
        "player_name": "Lewis Conlan",
        "rank": 64123,
        "rank_sort": 64143,
        "total": 2343
      },
      {
        "club_badge_src": null,
        "entry": 674688,
        "entry_name": "ImSorryNicJackson",
        "event_total": 53,
        "has_played": true,
        "id": 4564294,
        "last_rank": 57776,
        "player_name": "Connor Mcfarlane",
        "rank": 64123,
        "rank_sort": 64144,
        "total": 2343
      },
      {
        "club_badge_src": null,
        "entry": 728856,
        "entry_name": "Is Matcha Any Good??",
        "event_total": 52,
        "has_played": true,
        "id": 4952032,
        "last_rank": 56099,
        "player_name": "Owen Marvel",
        "rank": 64123,
        "rank_sort": 64145,
        "total": 2343
      },
      {
        "club_badge_src": null,
        "entry": 762938,
        "entry_name": "D-Generation xG",
        "event_total": 64,
        "has_played": true,
        "id": 5203143,
        "last_rank": 79190,
        "player_name": "Matthew Hayes",
        "rank": 64123,
        "rank_sort": 64146,
        "total": 2343
      },
      {
        "club_badge_src": null,
        "entry": 783324,
        "entry_name": "THE T TEAM",
        "event_total": 53,
        "has_played": true,
        "id": 5349368,
        "last_rank": 57776,
        "player_name": "Stephen M Foy",
        "rank": 64123,
        "rank_sort": 64147,
        "total": 2343
      },
      {
        "club_badge_src": null,
        "entry": 912316,
        "entry_name": "Vilda V\u00e4sby",
        "event_total": 52,
        "has_played": true,
        "id": 6273119,
        "last_rank": 56180,
        "player_name": "Victor Nordstr\u00f6m",
        "rank": 64123,
        "rank_sort": 64148,
        "total": 2343
      },
      {
        "club_badge_src": "https://fantasy.premierleague.com/gcs/plfpl-production-adobe-approved/plfpl-production/953296/3a007a2b-8796-4711-9540-54d69cd9fd37.png",
        "entry": 953296,
        "entry_name": "Bowen Arrow",
        "event_total": 77,
        "has_played": true,
        "id": 6568133,
        "last_rank": 111405,
        "player_name": "Matt Ancell",
        "rank": 64123,
        "rank_sort": 64149,
        "total": 2343
      },
      {
        "club_badge_src": "https://fantasy.premierleague.com/gcs/plfpl-production-adobe-approved/plfpl-production/1007763/e8fa9b76-8f0f-4ce3-bb74-1b463860d99d.png",
        "entry": 1007763,
        "entry_name": "KennyReade",
        "event_total": 41,
        "has_played": true,
        "id": 6967358,
        "last_rank": 39874,
        "player_name": "Kenny Reade",
        "rank": 64123,
        "rank_sort": 64150,
        "total": 2343
      }
    ]
  }
}