{
  "last_updated_data": "2026-05-24T23:28:17Z",
  "league": {
    "admin_entry": null,
    "closed": false,
    "code_privacy": "p",
    "created": "2025-07-20T23:14:33.933835Z",
    "cup_league": 2815434,
    "has_cup": true,
    "id": 314,
    "league_type": "s",
    "max_entries": null,
    "name": "Overall",
    "rank": null,
    "scoring": "c",
    "start_event": 1
  },
  "new_entries": {
    "has_next": false,
    "page": 1,
    "results": []
  },
  "standings": {
    "has_next": true,
    "page": 727,
    "results": [
      {
        "club_badge_src": null,
        "entry": 32681,
        "entry_name": "WirtzSZN",
        "event_total": 56,
        "has_played": true,
        "id": 208007,
        "last_rank": 34969,
        "player_name": "caide bloomfield",
        "rank": 36285,
        "rank_sort": 36301,
        "total": 2362
      },
      {
        "club_badge_src": null,
        "entry": 33413,
        "entry_name": "Rice to the occasion",
        "event_total": 49,
        "has_played": true,
        "id": 213074,
        "last_rank": 27770,
        "player_name": "Badboy-sugar Njie",
        "rank": 36285,
        "rank_sort": 36302,
        "total": 2362
      },
      {
        "club_badge_src": "https://fantasy.premierleague.com/gcs/plfpl-production-adobe-approved/plfpl-production/36605/1d0a91f7-8e27-44b9-8094-33b5b52436a5.png",
        "entry": 36605,
        "entry_name": "\u0e18\u0e19\u0e32\u0e23\u0e31\u0e15\u0e19\u0e4c \u0e2b\u0e27\u0e32\u0e19\u0e2a\u0e38\u0e14\u0e43\u0e08",
        "event_total": 38,
        "has_played": true,
        "id": 234362,
        "last_rank": 18790,
        "player_name": "\u0e18\u0e19\u0e32\u0e23\u0e31\u0e15\u0e19\u0e4c \u0e2b\u0e27\u0e32\u0e19\u0e2a\u0e38\u0e14\u0e43\u0e08",
        "rank": 36285,
        "rank_sort": 36303,
        "total": 2362
      },
      {
        "club_badge_src": null,
        "entry": 40116,
        "entry_name": "Darwin(nie) The Pooh",
        "event_total": 56,
        "has_played": true,
        "id": 257186,
        "last_rank": 35166,
        "player_name": "Konstantinos Triantafillidis",
        "rank": 36285,
        "rank_sort": 36304,
        "total": 2362
      },
      {
        "club_badge_src": null,
        "entry": 43964,
        "entry_name": "Guesswork FC",
        "event_total": 67,
        "has_played": true,
        "id": 281653,
        "last_rank": 49691,
        "player_name": "Marton Szaloky",
        "rank": 36285,
        "rank_sort": 36305,
        "total": 2362
      },
      {
        "club_badge_src": null,
        "entry": 45560,
        "entry_name": "Sidevils07",
        "event_total": 62,
        "has_played": true,
        "id": 292276,
        "last_rank": 42434,
        "player_name": "Siddharth Madaan",
        "rank": 36285,
        "rank_sort": 36306,
        "total": 2362
      },
      {
        "club_badge_src": null,
        "entry": 46927,
        "entry_name": "Delap Dance",
        "event_total": 62,
        "has_played": true,
        "id": 300851,
        "last_rank": 42506,
        "player_name": "matthew brasenell",
        "rank": 36285,
        "rank_sort": 36307,
        "total": 2362
      },
      {
        "club_badge_src": null,
        "entry": 46978,
        "entry_name": "Russell's Rogerers",
        "event_total": 72,
        "has_played": true,
        "id": 301201,
        "last_rank": 57857,
        "player_name": "Ian Russell",
        "rank": 36285,
        "rank_sort": 36308,
        "total": 2362
      },
      {
        "club_badge_src": null,
        "entry": 49458,
        "entry_name": "SuperMandi",
        "event_total": 71,
        "has_played": true,
        "id": 317936,
        "last_rank": 56180,
        "player_name": "Laurell Scorgie \u2122\ufe0f",
        "rank": 36285,
        "rank_sort": 36309,
        "total": 2362
      },
      {
        "club_badge_src": null,
        "entry": 49496,
        "entry_name": "Your Wirtz Nightmare",
        "event_total": 60,
        "has_played": true,
        "id": 318199,
        "last_rank": 39784,
        "player_name": "Mo Syahdan",
        "rank": 36285,
        "rank_sort": 36310,
        "total": 2362
      },
      {
        "club_badge_src": "https://fantasy.premierleague.com/gcs/plfpl-production-adobe-approved/plfpl-production/52437/a6ad0f48-7b99-4915-b24a-0e92dd5cc0b1.png",
        "entry": 52437,
        "entry_name": "Who are these guys?",
        "event_total": 76,
        "has_played": true,
        "id": 337186,
        "last_rank": 64830,
        "player_name": "Ben Burger",
        "rank": 36285,
        "rank_sort": 36311,
        "total": 2362
      },
      {
        "club_badge_src": null,
        "entry": 53009,
        "entry_name": "Chicken MoSalah",
        "event_total": 59,
        "has_played": true,
        "id": 340904,
        "last_rank": 38644,
        "player_name": "Mayank Jha",
        "rank": 36285,
        "rank_sort": 36312,
        "total": 2362
      },
      {
        "club_badge_src": null,
        "entry": 66142,
        "entry_name": "Stabile menn",
        "event_total": 70,
        "has_played": true,
        "id": 427409,
        "last_rank": 55014,
        "player_name": "fabian sele",
        "rank": 36285,
        "rank_sort": 36313,
        "total": 2362
      },
      {
        "club_badge_src": null,
        "entry": 75752,
        "entry_name": "L\u2019\u00c9tranger",
        "event_total": 57,
        "has_played": true,
        "id": 492545,
        "last_rank": 36200,
        "player_name": "Ahmed Nasser",
        "rank": 36285,
        "rank_sort": 36314,
        "total": 2362
      },
      {
        "club_badge_src": "https://fantasy.premierleague.com/gcs/plfpl-production-adobe-approved/plfpl-production/77277/ac3aed97-7494-425e-bd80-c6179dfe030f.png",
        "entry": 77277,
        "entry_name": "red dragon \ufffd",
        "event_total": 51,
        "has_played": true,
        "id": 502289,
        "last_rank": 29688,
        "player_name": "Mohamed Khaled",
        "rank": 36285,
        "rank_sort": 36315,
        "total": 2362
      },
      {
        "club_badge_src": null,
        "entry": 87531,
        "entry_name": "Howe's the Bacon?",
        "event_total": 61,
        "has_played": true,
        "id": 570867,
        "last_rank": 41162,
        "player_name": "Adam McLeod",
        "rank": 36285,
        "rank_sort": 36316,
        "total": 2362
      },
      {
        "club_badge_src": "https://fantasy.premierleague.com/gcs/plfpl-production-adobe-approved/plfpl-production/87565/1331f36f-8628-4474-94c8-91994d112530.png",
        "entry": 87565,
        "entry_name": "Blades XI",
        "event_total": 59,
        "has_played": true,
        "id": 571097,
        "last_rank": 38644,
        "player_name": "Martin Cullen",
        "rank": 36285,
        "rank_sort": 36317,
        "total": 2362
      },
      {
        "club_badge_src": null,
        "entry": 89289,
        "entry_name": "Bili Zmaji",
        "event_total": 56,
        "has_played": true,
        "id": 582854,
        "last_rank": 35166,
        "player_name": "Gregor Lisec",
        "rank": 36285,
        "rank_sort": 36318,
        "total": 2362
      },
      {
        "club_badge_src": null,
        "entry": 110759,
        "entry_name": "Colorado C.F",
        "event_total": 61,
        "has_played": true,
        "id": 722328,
        "last_rank": 41101,
        "player_name": "Rasmus Ivik Gravesen",
        "rank": 36285,
        "rank_sort": 36319,
        "total": 2362
      },
      {
        "club_badge_src": null,
        "entry": 113472,
        "entry_name": "White Devils",
        "event_total": 56,
        "has_played": true,
        "id": 740070,
        "last_rank": 35034,
        "player_name": "Shahan Ahmed",
        "rank": 36285,
        "rank_sort": 36320,
        "total": 2362
      },
      {
        "club_badge_src": "https://fantasy.premierleague.com/gcs/plfpl-production-adobe-approved/plfpl-production/115223/911d601d-2795-4d50-a73d-e4189f65f7e3.png",
        "entry": 115223,
        "entry_name": "Victorious Secret",
        "event_total": 66,
        "has_played": true,
        "id": 751927,
        "last_rank": 48197,
        "player_name": "Scott Goyette",
        "rank": 36285,
        "rank_sort": 36321,
        "total": 2362
      },
      {
        "club_badge_src": null,
        "entry": 137102,
        "entry_name": "Correct FC",
        "event_total": 57,
        "has_played": true,
        "id": 893445,
        "last_rank": 36348,
        "player_name": "Adam Liddell",
        "rank": 36285,
        "rank_sort": 36322,
        "total": 2362
      },
      {
        "club_badge_src": null,
        "entry": 137467,
        "entry_name": "Once Hugo Black...",
        "event_total": 67,
        "has_played": true,
        "id": 896101,
        "last_rank": 49880,
        "player_name": "Andrew Turner",
        "rank": 36285,
        "rank_sort": 36323,
        "total": 2362
      },
      {
        "club_badge_src": null,
        "entry": 150093,
        "entry_name": "Ali Dia\u2019s Flyers",
        "event_total": 62,
        "has_played": true,
        "id": 984234,
        "last_rank": 42506,
        "player_name": "Jon Bramall",
        "rank": 36285,
        "rank_sort": 36324,
        "total": 2362
      },
      {
        "club_badge_src": null,
        "entry": 167355,
        "entry_name": "Ange Management",
        "event_total": 46,
        "has_played": true,
        "id": 1106199,
        "last_rank": 25002,
        "player_name": "Rafi Zackheim",
        "rank": 36285,
        "rank_sort": 36325,
        "total": 2362
      },
      {
        "club_badge_src": null,
        "entry": 173282,
        "entry_name": "Eagles",
        "event_total": 64,
        "has_played": true,
        "id": 1144447,
        "last_rank": 45252,
        "player_name": "Belfassi Anass ----",
        "rank": 36285,
        "rank_sort": 36326,
        "total": 2362
      },
      {
        "club_badge_src": null,
        "entry": 175206,
        "entry_name": "Wirtz Case Scenario",
        "event_total": 67,
        "has_played": true,
        "id": 1156783,
        "last_rank": 49691,
        "player_name": "Steve Simmons",
        "rank": 36285,
        "rank_sort": 36327,
        "total": 2362
      },
      {
        "club_badge_src": null,
        "entry": 191817,
        "entry_name": "Kinder Mbeumo",
        "event_total": 69,
        "has_played": true,
        "id": 1270677,
        "last_rank": 52853,
        "player_name": "Moynol Ahmed",
        "rank": 36285,
        "rank_sort": 36328,
        "total": 2362
      },
      {
        "club_badge_src": null,
        "entry": 206798,
        "entry_name": "Mat's Grechies",
        "event_total": 57,
        "has_played": true,
        "id": 1374513,
        "last_rank": 36142,
        "player_name": "Evan Poland",
        "rank": 36285,
        "rank_sort": 36329,
        "total": 2362
      },
      {
        "club_badge_src": null,
        "entry": 211963,
        "entry_name": "Number Twenty",
        "event_total": 62,
        "has_played": true,
        "id": 1409971,
        "last_rank": 42648,
        "player_name": "Tony Seath",
        "rank": 36285,
        "rank_sort": 36330,
        "total": 2362
      },
      {
        "club_badge_src": null,
        "entry": 247689,
        "entry_name": "Adem Dakhli",
        "event_total": 64,
        "has_played": true,
        "id": 1648667,
        "last_rank": 45416,
        "player_name": "Adem Dakhli",
        "rank": 36285,
        "rank_sort": 36331,
        "total": 2362
      },
      {
        "club_badge_src": null,
        "entry": 249793,
        "entry_name": "Frank the Tank",
        "event_total": 31,
        "has_played": true,
        "id": 1662157,
        "last_rank": 14370,
        "player_name": "David Bowden",
        "rank": 36285,
        "rank_sort": 36332,
        "total": 2362
      },
      {
        "club_badge_src": null,
        "entry": 251408,
        "entry_name": "Cushia Dortmund",
        "event_total": 59,
        "has_played": true,
        "id": 1672553,
        "last_rank": 38774,
        "player_name": "Max Cushion",
        "rank": 36285,
        "rank_sort": 36333,
        "total": 2362
      },
      {
        "club_badge_src": null,
        "entry": 311607,
        "entry_name": "Inter Peckham F.C.",
        "event_total": 82,
        "has_played": true,
        "id": 2087633,
        "last_rank": 77258,
        "player_name": "John Wood",
        "rank": 36285,
        "rank_sort": 36334,
        "total": 2362
      },
      {
        "club_badge_src": null,
        "entry": 331235,
        "entry_name": "Could be Wirtz",
        "event_total": 68,
        "has_played": true,
        "id": 2218619,
        "last_rank": 51220,
        "player_name": "Robert Crooks",
        "rank": 36285,
        "rank_sort": 36335,
        "total": 2362
      },
      {
        "club_badge_src": null,
        "entry": 332822,
        "entry_name": "Tokyo Verdy",
        "event_total": 47,
        "has_played": true,
        "id": 2229033,
        "last_rank": 25729,
        "player_name": "Benny Lau",
        "rank": 36285,
        "rank_sort": 36336,
        "total": 2362
      },
      {
        "club_badge_src": "https://fantasy.premierleague.com/gcs/plfpl-production-adobe-approved/plfpl-production/372702/b234ff5f-44ce-420b-a046-e22c6e8c8abd.png",
        "entry": 372702,
        "entry_name": "Rob Holding-Wood",
        "event_total": 68,
        "has_played": true,
        "id": 2493709,
        "last_rank": 51403,
        "player_name": "Vitalii Erfan",
        "rank": 36285,
        "rank_sort": 36337,
        "total": 2362
      },
      {
        "club_badge_src": null,
        "entry": 387839,
        "entry_name": "Ribena",
        "event_total": 51,
        "has_played": true,
        "id": 2601854,
        "last_rank": 29688,
        "player_name": "Mikko Hynynen",
        "rank": 36285,
        "rank_sort": 36338,
        "total": 2362
      },
      {
        "club_badge_src": null,
        "entry": 390094,
        "entry_name": "McSauce",
        "event_total": 64,
        "has_played": true,
        "id": 2616732,
        "last_rank": 45416,
        "player_name": "Cormac Hynes",
        "rank": 36285,
        "rank_sort": 36339,
        "total": 2362
      },
      {
        "club_badge_src": null,
        "entry": 413633,
        "entry_name": "Bon Voyage",
        "event_total": 67,
        "has_played": true,
        "id": 2773062,
        "last_rank": 49691,
        "player_name": "Krzysztof Jarzyna",
        "rank": 36285,
        "rank_sort": 36340,
        "total": 2362
      },
      {
        "club_badge_src": "https://fantasy.premierleague.com/gcs/plfpl-production-adobe-approved/plfpl-production/414304/f53370d1-b93a-4629-aecb-f17e2d2bfead.png",
        "entry": 414304,
        "entry_name": "Cuti and the beast",
        "event_total": 68,
        "has_played": true,
        "id": 2777514,
        "last_rank": 51137,
        "player_name": "isaac Ducure",
        "rank": 36285,
        "rank_sort": 36341,
        "total": 2362
      },
      {
        "club_badge_src": "https://fantasy.premierleague.com/gcs/plfpl-production-adobe-approved/plfpl-production/492444/6f0b0dc6-8797-4d9e-a59e-95a181e4f766.png",
        "entry": 492444,
        "entry_name": "Trgo",
        "event_total": 68,
        "has_played": true,
        "id": 3305685,
        "last_rank": 51112,
        "player_name": "Renco Trgo",
        "rank": 36285,
        "rank_sort": 36342,
        "total": 2362
      },
      {
        "club_badge_src": null,
        "entry": 501222,
        "entry_name": "Halfham",
        "event_total": 69,
        "has_played": true,
        "id": 3363691,
        "last_rank": 53023,
        "player_name": "Katie Atkinson",
        "rank": 36285,
        "rank_sort": 36343,
        "total": 2362
      },
      {
        "club_badge_src": null,
        "entry": 505508,
        "entry_name": "Real Sandstr\u00f6m",
        "event_total": 56,
        "has_played": true,
        "id": 3392943,
        "last_rank": 35034,
        "player_name": "Patrik Sandstr\u00f6m",
        "rank": 36285,
        "rank_sort": 36344,
        "total": 2362
      },
      {
        "club_badge_src": null,
        "entry": 546390,
        "entry_name": "Lans Fc",
        "event_total": 54,
        "has_played": true,
        "id": 3677093,
        "last_rank": 32751,
        "player_name": "Lans Bovenberg",
        "rank": 36285,
        "rank_sort": 36345,
        "total": 2362
      },
      {
        "club_badge_src": null,
        "entry": 561467,
        "entry_name": "GoodDaysAreComing",
        "event_total": 64,
        "has_played": true,
        "id": 3779339,
        "last_rank": 45182,
        "player_name": "Oliver Tong",
        "rank": 36285,
        "rank_sort": 36346,
        "total": 2362
      },
      {
        "club_badge_src": null,
        "entry": 564710,
        "entry_name": "Jose Jordinho",
        "event_total": 59,
        "has_played": true,
        "id": 3801050,
        "last_rank": 38774,
        "player_name": "Jordan Thornton",
        "rank": 36285,
        "rank_sort": 36347,
        "total": 2362
      },
      {
        "club_badge_src": null,
        "entry": 566704,
        "entry_name": "Gettin Riggy With It",
        "event_total": 44,
        "has_played": true,
        "id": 3814210,
        "last_rank": 23341,
        "player_name": "thomas beston",
        "rank": 36285,
        "rank_sort": 36348,
        "total": 2362
      },
      {
        "club_badge_src": "https://fantasy.premierleague.com/gcs/plfpl-production-adobe-approved/plfpl-production/595485/d18f034a-2bc6-4ecb-9fb0-7fdd0beefa53.png",
        "entry": 595485,
        "entry_name": "Back Hand Blues FC",
        "event_total": 68,
        "has_played": true,
        "id": 4014472,
        "last_rank": 51403,
        "player_name": "Tushar Yadav",
        "rank": 36285,
        "rank_sort": 36349,
        "total": 2362
      },
      {
        "club_badge_src": null,
        "entry": 655921,
        "entry_name": "JD on the rocks",
        "event_total": 66,
        "has_played": true,
        "id": 4432734,
        "last_rank": 48197,
        "player_name": "Jonathan Dyson",
        "rank": 36285,
        "rank_sort": 36350,
        "total": 2362
      }
    ]
  }
}