{
  "last_updated_data": "2026-05-24T23:28:17Z",
  "league": {
    "admin_entry": null,
    "closed": false,
    "code_privacy": "p",
    "created": "2025-07-20T23:14:33.933835Z",
    "cup_league": 2815434,
    "has_cup": true,
    "id": 314,
    "league_type": "s",
    "max_entries": null,
    "name": "Overall",
    "rank": null,
    "scoring": "c",
    "start_event": 1
  },
  "new_entries": {
    "has_next": false,
    "page": 1,
    "results": []
  },
  "standings": {
    "has_next": true,
    "page": 73,
    "results": [
      {
        "club_badge_src": null,
        "entry": 3139008,
        "entry_name": "Lightfoots 10+",
        "event_total": 58,
        "has_played": true,
        "id": 23172900,
        "last_rank": 2824,
        "player_name": "Steve Lightfoot",
        "rank": 3580,
        "rank_sort": 3601,
        "total": 2422
      },
      {
        "club_badge_src": null,
        "entry": 4571310,
        "entry_name": "Nbfthgdthklljgt",
        "event_total": 63,
        "has_played": true,
        "id": 34887014,
        "last_rank": 4358,
        "player_name": "Kavan Bhavin",
        "rank": 3580,
        "rank_sort": 3602,
        "total": 2422
      },
      {
        "club_badge_src": null,
        "entry": 5952843,
        "entry_name": "Pleasure Krafth",
        "event_total": 60,
        "has_played": true,
        "id": 46824285,
        "last_rank": 3765,
        "player_name": "John Fornear",
        "rank": 3580,
        "rank_sort": 3603,
        "total": 2422
      },
      {
        "club_badge_src": null,
        "entry": 6578154,
        "entry_name": "\u0642\u0627\u0647\u0631 \u0627\u0644\u0639\u0635\u0627\u0639\u064a\u0635",
        "event_total": 64,
        "has_played": true,
        "id": 52525796,
        "last_rank": 4570,
        "player_name": "Ahmed Mostafa",
        "rank": 3580,
        "rank_sort": 3604,
        "total": 2422
      },
      {
        "club_badge_src": null,
        "entry": 7891880,
        "entry_name": "No name",
        "event_total": 48,
        "has_played": true,
        "id": 64911494,
        "last_rank": 2112,
        "player_name": "ben halloran",
        "rank": 3580,
        "rank_sort": 3605,
        "total": 2422
      },
      {
        "club_badge_src": null,
        "entry": 8367650,
        "entry_name": "Abd El Moumen",
        "event_total": 59,
        "has_played": true,
        "id": 69372307,
        "last_rank": 3627,
        "player_name": "Free Palestine",
        "rank": 3580,
        "rank_sort": 3606,
        "total": 2422
      },
      {
        "club_badge_src": "https://fantasy.premierleague.com/gcs/plfpl-production-adobe-approved/plfpl-production/8449482/4fb834d4-0430-4d54-b6ba-757a4f506964.png",
        "entry": 8449482,
        "entry_name": "FISHER FC",
        "event_total": 65,
        "has_played": true,
        "id": 70150269,
        "last_rank": 4704,
        "player_name": "Johnfisher Uzomah",
        "rank": 3580,
        "rank_sort": 3607,
        "total": 2422
      },
      {
        "club_badge_src": null,
        "entry": 9036360,
        "entry_name": "Maro 10",
        "event_total": 53,
        "has_played": true,
        "id": 75831719,
        "last_rank": 2189,
        "player_name": "maro killeeny",
        "rank": 3580,
        "rank_sort": 3608,
        "total": 2422
      },
      {
        "club_badge_src": null,
        "entry": 132757,
        "entry_name": "Crex Crex County",
        "event_total": 72,
        "has_played": true,
        "id": 864707,
        "last_rank": 5448,
        "player_name": "Denver Slowther",
        "rank": 3609,
        "rank_sort": 3609,
        "total": 2422
      },
      {
        "club_badge_src": "https://fantasy.premierleague.com/gcs/plfpl-production-adobe-approved/plfpl-production/794626/bd3d2229-5210-4a13-a006-fee6582d75a5.png",
        "entry": 794626,
        "entry_name": "Mbeumo, have Messi!",
        "event_total": 66,
        "has_played": true,
        "id": 5438143,
        "last_rank": 5053,
        "player_name": "Evenso Ndlovu",
        "rank": 3609,
        "rank_sort": 3610,
        "total": 2422
      },
      {
        "club_badge_src": null,
        "entry": 962321,
        "entry_name": "Super Rudhachs",
        "event_total": 67,
        "has_played": true,
        "id": 6631640,
        "last_rank": 4358,
        "player_name": "Angus Mackay",
        "rank": 3609,
        "rank_sort": 3611,
        "total": 2422
      },
      {
        "club_badge_src": null,
        "entry": 1027286,
        "entry_name": "Kinder Mbuemo",
        "event_total": 60,
        "has_played": true,
        "id": 7107387,
        "last_rank": 3765,
        "player_name": "Aaron Marrs",
        "rank": 3609,
        "rank_sort": 3612,
        "total": 2422
      },
      {
        "club_badge_src": null,
        "entry": 1431371,
        "entry_name": "Rus.pfc",
        "event_total": 70,
        "has_played": true,
        "id": 9973850,
        "last_rank": 6011,
        "player_name": "Andreja Talovic",
        "rank": 3609,
        "rank_sort": 3613,
        "total": 2422
      },
      {
        "club_badge_src": null,
        "entry": 1709265,
        "entry_name": "Boys Planners",
        "event_total": 74,
        "has_played": true,
        "id": 11975767,
        "last_rank": 6011,
        "player_name": "KL Ibraheem",
        "rank": 3609,
        "rank_sort": 3614,
        "total": 2422
      },
      {
        "club_badge_src": null,
        "entry": 2777864,
        "entry_name": "F\u00fatbol Club Hersch",
        "event_total": 77,
        "has_played": true,
        "id": 20273007,
        "last_rank": 8234,
        "player_name": "Anthony Herschell",
        "rank": 3609,
        "rank_sort": 3615,
        "total": 2422
      },
      {
        "club_badge_src": null,
        "entry": 2873160,
        "entry_name": "Back Stronger",
        "event_total": 63,
        "has_played": true,
        "id": 21023812,
        "last_rank": 3601,
        "player_name": "James Gavaghan",
        "rank": 3609,
        "rank_sort": 3616,
        "total": 2422
      },
      {
        "club_badge_src": "https://fantasy.premierleague.com/gcs/plfpl-production-adobe-approved/plfpl-production/5074419/4d7704c6-7402-4861-9f04-78594440eb8b.png",
        "entry": 5074419,
        "entry_name": "HidjiYNWA",
        "event_total": 63,
        "has_played": true,
        "id": 39216674,
        "last_rank": 3601,
        "player_name": "ahmed hidji",
        "rank": 3609,
        "rank_sort": 3617,
        "total": 2422
      },
      {
        "club_badge_src": null,
        "entry": 5717241,
        "entry_name": "G. Echenique",
        "event_total": 50,
        "has_played": true,
        "id": 44779835,
        "last_rank": 1909,
        "player_name": "Gregorio Echenique Bordal\u00ed",
        "rank": 3609,
        "rank_sort": 3618,
        "total": 2422
      },
      {
        "club_badge_src": "https://fantasy.premierleague.com/gcs/plfpl-production-adobe-approved/plfpl-production/6363393/24d6b0b8-d149-4ea8-80e5-27bf61af59ac.png",
        "entry": 6363393,
        "entry_name": "ManCHESSter",
        "event_total": 62,
        "has_played": true,
        "id": 50597418,
        "last_rank": 4186,
        "player_name": "Joshua Olalekan",
        "rank": 3609,
        "rank_sort": 3619,
        "total": 2422
      },
      {
        "club_badge_src": null,
        "entry": 6546583,
        "entry_name": "Cunha Matata",
        "event_total": 48,
        "has_played": true,
        "id": 52237010,
        "last_rank": 2133,
        "player_name": "Bjartur Sigur\u00f0arson",
        "rank": 3609,
        "rank_sort": 3620,
        "total": 2422
      },
      {
        "club_badge_src": "https://fantasy.premierleague.com/gcs/plfpl-production-adobe-approved/plfpl-production/6934572/534e6ecc-aa11-47dd-9fda-be33442cc07e.png",
        "entry": 6934572,
        "entry_name": "POLARIS",
        "event_total": 63,
        "has_played": true,
        "id": 55593861,
        "last_rank": 4394,
        "player_name": "Hazem Al-Jamil",
        "rank": 3609,
        "rank_sort": 3621,
        "total": 2422
      },
      {
        "club_badge_src": null,
        "entry": 8886471,
        "entry_name": "Indonesia Cerah",
        "event_total": 68,
        "has_played": true,
        "id": 74377503,
        "last_rank": 5498,
        "player_name": "Larry Djono",
        "rank": 3609,
        "rank_sort": 3622,
        "total": 2422
      },
      {
        "club_badge_src": null,
        "entry": 62544,
        "entry_name": "BrunoDosTres",
        "event_total": 71,
        "has_played": true,
        "id": 403233,
        "last_rank": 6194,
        "player_name": "Ben Glaysher",
        "rank": 3623,
        "rank_sort": 3623,
        "total": 2422
      },
      {
        "club_badge_src": null,
        "entry": 108092,
        "entry_name": "Neilofskis winners",
        "event_total": 56,
        "has_played": true,
        "id": 704731,
        "last_rank": 3192,
        "player_name": "Neil Atkins",
        "rank": 3623,
        "rank_sort": 3624,
        "total": 2422
      },
      {
        "club_badge_src": null,
        "entry": 515786,
        "entry_name": "Peterburb United",
        "event_total": 54,
        "has_played": true,
        "id": 3462952,
        "last_rank": 2891,
        "player_name": "Sean Burbridge",
        "rank": 3623,
        "rank_sort": 3625,
        "total": 2422
      },
      {
        "club_badge_src": null,
        "entry": 706677,
        "entry_name": "Whoppas",
        "event_total": 59,
        "has_played": true,
        "id": 4789375,
        "last_rank": 3648,
        "player_name": "James Mackin",
        "rank": 3623,
        "rank_sort": 3626,
        "total": 2422
      },
      {
        "club_badge_src": null,
        "entry": 1417152,
        "entry_name": "No Salah",
        "event_total": 46,
        "has_played": true,
        "id": 9866801,
        "last_rank": 1938,
        "player_name": "Martyn Guest",
        "rank": 3623,
        "rank_sort": 3627,
        "total": 2422
      },
      {
        "club_badge_src": null,
        "entry": 2038950,
        "entry_name": "broma400",
        "event_total": 42,
        "has_played": true,
        "id": 14438453,
        "last_rank": 1577,
        "player_name": "hugo bromley",
        "rank": 3623,
        "rank_sort": 3628,
        "total": 2422
      },
      {
        "club_badge_src": null,
        "entry": 2167687,
        "entry_name": "Birddogged",
        "event_total": 67,
        "has_played": true,
        "id": 15411654,
        "last_rank": 4394,
        "player_name": "Jeremy Bird",
        "rank": 3623,
        "rank_sort": 3629,
        "total": 2422
      },
      {
        "club_badge_src": null,
        "entry": 3127852,
        "entry_name": "MANutdIEK",
        "event_total": 59,
        "has_played": true,
        "id": 23084625,
        "last_rank": 3648,
        "player_name": "Mariusz Chlubiecki",
        "rank": 3623,
        "rank_sort": 3630,
        "total": 2422
      },
      {
        "club_badge_src": null,
        "entry": 3174083,
        "entry_name": "Vardy left the Party",
        "event_total": 52,
        "has_played": true,
        "id": 23452762,
        "last_rank": 2620,
        "player_name": "Finley Burton",
        "rank": 3623,
        "rank_sort": 3631,
        "total": 2422
      },
      {
        "club_badge_src": null,
        "entry": 3440119,
        "entry_name": "Grazer Utd",
        "event_total": 58,
        "has_played": true,
        "id": 25557908,
        "last_rank": 3473,
        "player_name": "Gary Bailison",
        "rank": 3623,
        "rank_sort": 3632,
        "total": 2422
      },
      {
        "club_badge_src": null,
        "entry": 3708868,
        "entry_name": "Change Name FC",
        "event_total": 65,
        "has_played": true,
        "id": 27674374,
        "last_rank": 4000,
        "player_name": "Guneet Dhameja",
        "rank": 3623,
        "rank_sort": 3633,
        "total": 2422
      },
      {
        "club_badge_src": "https://fantasy.premierleague.com/gcs/plfpl-production-adobe-approved/plfpl-production/4209629/026bd285-f77f-4af7-8441-781258ca3c95.png",
        "entry": 4209629,
        "entry_name": "Yeemee555",
        "event_total": 55,
        "has_played": true,
        "id": 31871834,
        "last_rank": 3035,
        "player_name": "Yeemee Mongkon S",
        "rank": 3623,
        "rank_sort": 3634,
        "total": 2422
      },
      {
        "club_badge_src": null,
        "entry": 5548359,
        "entry_name": "JB11",
        "event_total": 57,
        "has_played": true,
        "id": 43300277,
        "last_rank": 3350,
        "player_name": "Jayden Bruce",
        "rank": 3623,
        "rank_sort": 3635,
        "total": 2422
      },
      {
        "club_badge_src": null,
        "entry": 6029551,
        "entry_name": "Em\u2019s Eleven",
        "event_total": 63,
        "has_played": true,
        "id": 47562543,
        "last_rank": 4413,
        "player_name": "Emily Ashcroft",
        "rank": 3623,
        "rank_sort": 3636,
        "total": 2422
      },
      {
        "club_badge_src": null,
        "entry": 6099234,
        "entry_name": "Amorim11",
        "event_total": 66,
        "has_played": true,
        "id": 48169372,
        "last_rank": 5053,
        "player_name": "Enoch Richbert",
        "rank": 3623,
        "rank_sort": 3637,
        "total": 2422
      },
      {
        "club_badge_src": null,
        "entry": 7575687,
        "entry_name": "GUNNERS",
        "event_total": 50,
        "has_played": true,
        "id": 62044465,
        "last_rank": 2363,
        "player_name": "Dahim Gunner",
        "rank": 3623,
        "rank_sort": 3638,
        "total": 2422
      },
      {
        "club_badge_src": "https://fantasy.premierleague.com/gcs/plfpl-production-adobe-approved/plfpl-production/13569/033edc14-9397-4dbc-8bad-6bb47f9889dc.png",
        "entry": 13569,
        "entry_name": "Lallana's in Pyjamas",
        "event_total": 64,
        "has_played": true,
        "id": 82049,
        "last_rank": 4657,
        "player_name": "\u00d8ystein Pedersen",
        "rank": 3639,
        "rank_sort": 3639,
        "total": 2422
      },
      {
        "club_badge_src": null,
        "entry": 45107,
        "entry_name": "FC Podw\u00f3rkowcy",
        "event_total": 60,
        "has_played": true,
        "id": 289262,
        "last_rank": 3192,
        "player_name": "Maciej Ratajczak",
        "rank": 3639,
        "rank_sort": 3640,
        "total": 2422
      },
      {
        "club_badge_src": null,
        "entry": 390283,
        "entry_name": "showMeDaMan\u00e9",
        "event_total": 72,
        "has_played": true,
        "id": 2617980,
        "last_rank": 5560,
        "player_name": "El Bomba",
        "rank": 3639,
        "rank_sort": 3641,
        "total": 2422
      },
      {
        "club_badge_src": null,
        "entry": 5678580,
        "entry_name": "Malek",
        "event_total": 66,
        "has_played": true,
        "id": 44442827,
        "last_rank": 4205,
        "player_name": "Malek Mostafa",
        "rank": 3639,
        "rank_sort": 3642,
        "total": 2422
      },
      {
        "club_badge_src": null,
        "entry": 6291620,
        "entry_name": "Methylphenidate 04",
        "event_total": 78,
        "has_played": true,
        "id": 49852770,
        "last_rank": 8591,
        "player_name": "Major Allen",
        "rank": 3639,
        "rank_sort": 3643,
        "total": 2422
      },
      {
        "club_badge_src": null,
        "entry": 6821876,
        "entry_name": "ItCan'tGoOnLikeThis",
        "event_total": 81,
        "has_played": true,
        "id": 54640207,
        "last_rank": 9775,
        "player_name": "Gerard O'Brien",
        "rank": 3639,
        "rank_sort": 3644,
        "total": 2422
      },
      {
        "club_badge_src": null,
        "entry": 7035298,
        "entry_name": "The Kings Men",
        "event_total": 64,
        "has_played": true,
        "id": 56550307,
        "last_rank": 3813,
        "player_name": "Eleanor King",
        "rank": 3639,
        "rank_sort": 3645,
        "total": 2422
      },
      {
        "club_badge_src": null,
        "entry": 7500997,
        "entry_name": "King Kash",
        "event_total": 57,
        "has_played": true,
        "id": 61290620,
        "last_rank": 3342,
        "player_name": "Cash Singh",
        "rank": 3639,
        "rank_sort": 3646,
        "total": 2422
      },
      {
        "club_badge_src": null,
        "entry": 4427,
        "entry_name": "Snoop Udogie Dogg",
        "event_total": 62,
        "has_played": true,
        "id": 25172,
        "last_rank": 3482,
        "player_name": "Jeffrey Fielder",
        "rank": 3647,
        "rank_sort": 3647,
        "total": 2422
      },
      {
        "club_badge_src": null,
        "entry": 12531,
        "entry_name": "Your Wirtz Nightmare",
        "event_total": 72,
        "has_played": true,
        "id": 75083,
        "last_rank": 5528,
        "player_name": "Damo Ciccone",
        "rank": 3647,
        "rank_sort": 3648,
        "total": 2422
      },
      {
        "club_badge_src": "https://fantasy.premierleague.com/gcs/plfpl-production-adobe-approved/plfpl-production/44941/b46f394d-3413-438d-a842-09223e10f943.png",
        "entry": 44941,
        "entry_name": "Gave Her Matip",
        "event_total": 72,
        "has_played": true,
        "id": 288159,
        "last_rank": 6637,
        "player_name": "Anshul Saboo",
        "rank": 3647,
        "rank_sort": 3649,
        "total": 2422
      },
      {
        "club_badge_src": null,
        "entry": 151881,
        "entry_name": "Olympique HTell",
        "event_total": 65,
        "has_played": true,
        "id": 996607,
        "last_rank": 4866,
        "player_name": "Hampus Tellqvist",
        "rank": 3647,
        "rank_sort": 3650,
        "total": 2422
      }
    ]
  }
}