{
  "last_updated_data": "2026-05-24T23:28:17Z",
  "league": {
    "admin_entry": null,
    "closed": false,
    "code_privacy": "p",
    "created": "2025-07-20T23:14:33.933835Z",
    "cup_league": 2815434,
    "has_cup": true,
    "id": 314,
    "league_type": "s",
    "max_entries": null,
    "name": "Overall",
    "rank": null,
    "scoring": "c",
    "start_event": 1
  },
  "new_entries": {
    "has_next": false,
    "page": 1,
    "results": []
  },
  "standings": {
    "has_next": true,
    "page": 110,
    "results": [
      {
        "club_badge_src": null,
        "entry": 5593112,
        "entry_name": "Slowandsteady",
        "event_total": 53,
        "has_played": true,
        "id": 43697134,
        "last_rank": 4205,
        "player_name": "GRAHAM SHIELDS",
        "rank": 5434,
        "rank_sort": 5451,
        "total": 2413
      },
      {
        "club_badge_src": "https://fantasy.premierleague.com/gcs/plfpl-production-adobe-approved/plfpl-production/6376878/a1c28a8b-c000-491d-8019-f9d6a4c66513.png",
        "entry": 6376878,
        "entry_name": "CtrlAltDeLigt",
        "event_total": 51,
        "has_played": true,
        "id": 50714780,
        "last_rank": 3175,
        "player_name": "Ricardo Silva",
        "rank": 5434,
        "rank_sort": 5452,
        "total": 2413
      },
      {
        "club_badge_src": null,
        "entry": 6685681,
        "entry_name": "Lokonga Sokratis",
        "event_total": 60,
        "has_played": true,
        "id": 53482209,
        "last_rank": 5792,
        "player_name": "Roman Nkomo",
        "rank": 5434,
        "rank_sort": 5453,
        "total": 2413
      },
      {
        "club_badge_src": null,
        "entry": 7329655,
        "entry_name": "FC tanks",
        "event_total": 57,
        "has_played": true,
        "id": 59354844,
        "last_rank": 5053,
        "player_name": "Filip Buczma",
        "rank": 5434,
        "rank_sort": 5454,
        "total": 2413
      },
      {
        "club_badge_src": null,
        "entry": 7454283,
        "entry_name": "Rico FC",
        "event_total": 60,
        "has_played": true,
        "id": 60690760,
        "last_rank": 5792,
        "player_name": "Ricardo Guedes",
        "rank": 5434,
        "rank_sort": 5455,
        "total": 2413
      },
      {
        "club_badge_src": null,
        "entry": 7520629,
        "entry_name": "SPUDGUN UTD",
        "event_total": 53,
        "has_played": true,
        "id": 61529247,
        "last_rank": 4205,
        "player_name": "julian martin",
        "rank": 5434,
        "rank_sort": 5456,
        "total": 2413
      },
      {
        "club_badge_src": null,
        "entry": 8046117,
        "entry_name": "R\u00faben Sandwich",
        "event_total": 49,
        "has_played": true,
        "id": 66302095,
        "last_rank": 2891,
        "player_name": "Kyle Cuthbertson",
        "rank": 5434,
        "rank_sort": 5457,
        "total": 2413
      },
      {
        "club_badge_src": null,
        "entry": 9926769,
        "entry_name": "Minhao",
        "event_total": 53,
        "has_played": true,
        "id": 84207262,
        "last_rank": 4205,
        "player_name": "Neil Qian",
        "rank": 5434,
        "rank_sort": 5458,
        "total": 2413
      },
      {
        "club_badge_src": "https://fantasy.premierleague.com/gcs/plfpl-production-adobe-approved/plfpl-production/55765/0527c489-c467-4c9e-9b3e-92fbaf21b12f.png",
        "entry": 55765,
        "entry_name": "Diogo Hotakainen",
        "event_total": 67,
        "has_played": true,
        "id": 359071,
        "last_rank": 5528,
        "player_name": "Janne Salmi",
        "rank": 5459,
        "rank_sort": 5459,
        "total": 2413
      },
      {
        "club_badge_src": "https://fantasy.premierleague.com/gcs/plfpl-production-adobe-approved/plfpl-production/88976/ce93dede-4aba-4315-b959-ede8e5d5d537.png",
        "entry": 88976,
        "entry_name": "TSSierak\u00f3w",
        "event_total": 57,
        "has_played": true,
        "id": 580773,
        "last_rank": 5081,
        "player_name": "Bart\u0142omiej S\u0142owik",
        "rank": 5459,
        "rank_sort": 5460,
        "total": 2413
      },
      {
        "club_badge_src": null,
        "entry": 95775,
        "entry_name": "Livin Saliba Loca",
        "event_total": 58,
        "has_played": true,
        "id": 625719,
        "last_rank": 5335,
        "player_name": "Jordan Jillians",
        "rank": 5459,
        "rank_sort": 5461,
        "total": 2413
      },
      {
        "club_badge_src": null,
        "entry": 98162,
        "entry_name": "Oso FC",
        "event_total": 69,
        "has_played": true,
        "id": 641086,
        "last_rank": 7237,
        "player_name": "Bj\u00f6rn Holm\u00e9n",
        "rank": 5459,
        "rank_sort": 5462,
        "total": 2413
      },
      {
        "club_badge_src": null,
        "entry": 233040,
        "entry_name": "John 3:16",
        "event_total": 69,
        "has_played": true,
        "id": 1550517,
        "last_rank": 8552,
        "player_name": "Maxwell Tego",
        "rank": 5459,
        "rank_sort": 5463,
        "total": 2413
      },
      {
        "club_badge_src": "https://fantasy.premierleague.com/gcs/plfpl-production-adobe-approved/plfpl-production/313993/eb11828b-96e3-4b1a-81f7-9b22beec25ed.png",
        "entry": 313993,
        "entry_name": "Power of 7",
        "event_total": 71,
        "has_played": true,
        "id": 2104007,
        "last_rank": 7863,
        "player_name": "Ajinkya Vaze",
        "rank": 5459,
        "rank_sort": 5464,
        "total": 2413
      },
      {
        "club_badge_src": null,
        "entry": 471424,
        "entry_name": "2OLEgend",
        "event_total": 61,
        "has_played": true,
        "id": 3164910,
        "last_rank": 5081,
        "player_name": "Tom Giles",
        "rank": 5459,
        "rank_sort": 5465,
        "total": 2413
      },
      {
        "club_badge_src": null,
        "entry": 541250,
        "entry_name": "SeattleSoccerGeek",
        "event_total": 73,
        "has_played": true,
        "id": 3642927,
        "last_rank": 7193,
        "player_name": "John Cook",
        "rank": 5459,
        "rank_sort": 5466,
        "total": 2413
      },
      {
        "club_badge_src": null,
        "entry": 622143,
        "entry_name": "PEFC",
        "event_total": 78,
        "has_played": true,
        "id": 4204359,
        "last_rank": 12470,
        "player_name": "paul Etchells",
        "rank": 5459,
        "rank_sort": 5467,
        "total": 2413
      },
      {
        "club_badge_src": null,
        "entry": 3348235,
        "entry_name": "A Cunha Matata",
        "event_total": 58,
        "has_played": true,
        "id": 24838038,
        "last_rank": 5313,
        "player_name": "Matthew Lowe",
        "rank": 5459,
        "rank_sort": 5468,
        "total": 2413
      },
      {
        "club_badge_src": "https://fantasy.premierleague.com/gcs/plfpl-production-adobe-approved/plfpl-production/3848903/05d915ac-b9aa-48c6-8891-61ea6438568b.png",
        "entry": 3848903,
        "entry_name": "Kevin De Cherki",
        "event_total": 67,
        "has_played": true,
        "id": 28850839,
        "last_rank": 7891,
        "player_name": "hamse Asensio",
        "rank": 5459,
        "rank_sort": 5469,
        "total": 2413
      },
      {
        "club_badge_src": null,
        "entry": 38402,
        "entry_name": "Barrys Ballers",
        "event_total": 59,
        "has_played": true,
        "id": 246106,
        "last_rank": 5591,
        "player_name": "Frankie Barry",
        "rank": 5470,
        "rank_sort": 5470,
        "total": 2413
      },
      {
        "club_badge_src": "https://fantasy.premierleague.com/gcs/plfpl-production-adobe-approved/plfpl-production/111663/ddf64e69-b1fc-497a-b8fc-1c90079f6b54.png",
        "entry": 111663,
        "entry_name": "Wish Upon A Sarr",
        "event_total": 63,
        "has_played": true,
        "id": 728080,
        "last_rank": 6637,
        "player_name": "Nnamdi Onuchukwu",
        "rank": 5470,
        "rank_sort": 5471,
        "total": 2413
      },
      {
        "club_badge_src": "https://fantasy.premierleague.com/gcs/plfpl-production-adobe-approved/plfpl-production/180517/86539884-af7a-4cf4-bb5a-a532f899b448.png",
        "entry": 180517,
        "entry_name": "HAMZAWYARAB",
        "event_total": 66,
        "has_played": true,
        "id": 1191280,
        "last_rank": 7547,
        "player_name": "Hamzawy Arab",
        "rank": 5470,
        "rank_sort": 5472,
        "total": 2413
      },
      {
        "club_badge_src": null,
        "entry": 833482,
        "entry_name": "Jack is back",
        "event_total": 58,
        "has_played": true,
        "id": 5708920,
        "last_rank": 4431,
        "player_name": "Carlos Alarcon",
        "rank": 5470,
        "rank_sort": 5473,
        "total": 2413
      },
      {
        "club_badge_src": "https://fantasy.premierleague.com/gcs/plfpl-production-adobe-approved/plfpl-production/2359673/c1c9643f-2cd4-40c6-9b7b-d1eca22fe99f.png",
        "entry": 2359673,
        "entry_name": "Jackboys",
        "event_total": 67,
        "has_played": true,
        "id": 16839957,
        "last_rank": 7891,
        "player_name": "Hastiingzz kayys",
        "rank": 5470,
        "rank_sort": 5474,
        "total": 2413
      },
      {
        "club_badge_src": null,
        "entry": 4139319,
        "entry_name": "#6 King of brazil",
        "event_total": 57,
        "has_played": true,
        "id": 31282933,
        "last_rank": 4223,
        "player_name": "Shire Shire",
        "rank": 5470,
        "rank_sort": 5475,
        "total": 2413
      },
      {
        "club_badge_src": null,
        "entry": 5834593,
        "entry_name": "Backstreet Moyes",
        "event_total": 64,
        "has_played": true,
        "id": 45797291,
        "last_rank": 6964,
        "player_name": "Finn Bunce",
        "rank": 5470,
        "rank_sort": 5476,
        "total": 2413
      },
      {
        "club_badge_src": null,
        "entry": 8140225,
        "entry_name": "eldersy13",
        "event_total": 36,
        "has_played": true,
        "id": 67177190,
        "last_rank": 1839,
        "player_name": "Thirteen Eldersy",
        "rank": 5470,
        "rank_sort": 5477,
        "total": 2413
      },
      {
        "club_badge_src": "https://fantasy.premierleague.com/gcs/plfpl-production-adobe-approved/plfpl-production/1359889/37683432-de81-4ab2-9cc2-a5672f74128b.png",
        "entry": 1359889,
        "entry_name": "TBoehly's Love Story",
        "event_total": 66,
        "has_played": true,
        "id": 9452519,
        "last_rank": 7573,
        "player_name": "Jake Man",
        "rank": 5478,
        "rank_sort": 5478,
        "total": 2413
      },
      {
        "club_badge_src": null,
        "entry": 1585153,
        "entry_name": "- 4",
        "event_total": 62,
        "has_played": true,
        "id": 11081439,
        "last_rank": 5348,
        "player_name": "Nuno Uno",
        "rank": 5478,
        "rank_sort": 5479,
        "total": 2413
      },
      {
        "club_badge_src": null,
        "entry": 1912336,
        "entry_name": "Go Petone Go",
        "event_total": 64,
        "has_played": true,
        "id": 13482603,
        "last_rank": 5860,
        "player_name": "Theo Philipsen",
        "rank": 5478,
        "rank_sort": 5480,
        "total": 2413
      },
      {
        "club_badge_src": null,
        "entry": 2054507,
        "entry_name": "Morozyao FC",
        "event_total": 74,
        "has_played": true,
        "id": 14553574,
        "last_rank": 10651,
        "player_name": "Evgeny Morozov",
        "rank": 5478,
        "rank_sort": 5481,
        "total": 2413
      },
      {
        "club_badge_src": null,
        "entry": 2385347,
        "entry_name": "@mostafaelfaky",
        "event_total": 62,
        "has_played": true,
        "id": 17034937,
        "last_rank": 6365,
        "player_name": "Mostafa Elfaky",
        "rank": 5478,
        "rank_sort": 5482,
        "total": 2413
      },
      {
        "club_badge_src": null,
        "entry": 109477,
        "entry_name": "Surf City",
        "event_total": 58,
        "has_played": true,
        "id": 713809,
        "last_rank": 5362,
        "player_name": "Paul Tregear",
        "rank": 5483,
        "rank_sort": 5483,
        "total": 2413
      },
      {
        "club_badge_src": null,
        "entry": 1181532,
        "entry_name": "Top100kNoExcuses",
        "event_total": 57,
        "has_played": true,
        "id": 8197770,
        "last_rank": 3495,
        "player_name": "Will Abbott",
        "rank": 5483,
        "rank_sort": 5484,
        "total": 2413
      },
      {
        "club_badge_src": null,
        "entry": 1376853,
        "entry_name": "Club Amby",
        "event_total": 59,
        "has_played": true,
        "id": 9570929,
        "last_rank": 5606,
        "player_name": "Alex Ambartsumian",
        "rank": 5483,
        "rank_sort": 5485,
        "total": 2413
      },
      {
        "club_badge_src": null,
        "entry": 3333606,
        "entry_name": "Optimus XI",
        "event_total": 55,
        "has_played": true,
        "id": 24719120,
        "last_rank": 4675,
        "player_name": "Steve Irwin",
        "rank": 5483,
        "rank_sort": 5486,
        "total": 2413
      },
      {
        "club_badge_src": "https://fantasy.premierleague.com/gcs/plfpl-production-adobe-approved/plfpl-production/4820917/e5663a9b-7a78-47ae-b459-0c8f288b2978.png",
        "entry": 4820917,
        "entry_name": "Hima",
        "event_total": 73,
        "has_played": true,
        "id": 37124507,
        "last_rank": 8638,
        "player_name": "Hima Nasir",
        "rank": 5483,
        "rank_sort": 5487,
        "total": 2413
      },
      {
        "club_badge_src": "https://fantasy.premierleague.com/gcs/plfpl-production-adobe-approved/plfpl-production/4951925/5cad0244-d728-4f83-a0f3-6fc6f6ef336c.png",
        "entry": 4951925,
        "entry_name": "Evening Major",
        "event_total": 59,
        "has_played": true,
        "id": 38210976,
        "last_rank": 3833,
        "player_name": "James Gloyn",
        "rank": 5483,
        "rank_sort": 5488,
        "total": 2413
      },
      {
        "club_badge_src": "https://fantasy.premierleague.com/gcs/plfpl-production-adobe-approved/plfpl-production/7201549/a0d14335-f2c9-45f1-8618-08e5b5515c24.png",
        "entry": 7201549,
        "entry_name": "Even More Eejits.",
        "event_total": 62,
        "has_played": true,
        "id": 58146246,
        "last_rank": 6365,
        "player_name": "Mark Brown",
        "rank": 5483,
        "rank_sort": 5489,
        "total": 2413
      },
      {
        "club_badge_src": null,
        "entry": 7994209,
        "entry_name": "KJ1",
        "event_total": 73,
        "has_played": true,
        "id": 65831782,
        "last_rank": 10209,
        "player_name": "Karyn Jones",
        "rank": 5483,
        "rank_sort": 5490,
        "total": 2413
      },
      {
        "club_badge_src": null,
        "entry": 2244815,
        "entry_name": "Super Marion",
        "event_total": 69,
        "has_played": true,
        "id": 15993766,
        "last_rank": 8652,
        "player_name": "Marion Williams",
        "rank": 5491,
        "rank_sort": 5491,
        "total": 2413
      },
      {
        "club_badge_src": null,
        "entry": 3012756,
        "entry_name": "Under My Cucurella",
        "event_total": 57,
        "has_played": true,
        "id": 22164019,
        "last_rank": 5115,
        "player_name": "jason ring",
        "rank": 5491,
        "rank_sort": 5492,
        "total": 2413
      },
      {
        "club_badge_src": null,
        "entry": 7757843,
        "entry_name": "Bruno Dos Tres",
        "event_total": 60,
        "has_played": true,
        "id": 63693743,
        "last_rank": 4895,
        "player_name": "Sufi Mohamed",
        "rank": 5491,
        "rank_sort": 5493,
        "total": 2413
      },
      {
        "club_badge_src": "https://fantasy.premierleague.com/gcs/plfpl-production-adobe-approved/plfpl-production/1220899/3a0fef29-5f5f-4d7f-8495-e218ab184afe.png",
        "entry": 1220899,
        "entry_name": "Mbeumo No.5",
        "event_total": 68,
        "has_played": true,
        "id": 8476317,
        "last_rank": 8303,
        "player_name": "Ryan Turner",
        "rank": 5494,
        "rank_sort": 5494,
        "total": 2413
      },
      {
        "club_badge_src": null,
        "entry": 3269893,
        "entry_name": "Visca Bar\u00e7a",
        "event_total": 52,
        "has_played": true,
        "id": 24197980,
        "last_rank": 3370,
        "player_name": "abdlra2of sherif",
        "rank": 5495,
        "rank_sort": 5495,
        "total": 2413
      },
      {
        "club_badge_src": null,
        "entry": 7291093,
        "entry_name": "soldjvt fc",
        "event_total": 58,
        "has_played": true,
        "id": 58993016,
        "last_rank": 4457,
        "player_name": "aziz ne",
        "rank": 5495,
        "rank_sort": 5496,
        "total": 2413
      },
      {
        "club_badge_src": null,
        "entry": 9000752,
        "entry_name": "Isha United",
        "event_total": 64,
        "has_played": true,
        "id": 75487748,
        "last_rank": 5874,
        "player_name": "Isha S",
        "rank": 5495,
        "rank_sort": 5497,
        "total": 2413
      },
      {
        "club_badge_src": null,
        "entry": 16926,
        "entry_name": "Kringleland",
        "event_total": 83,
        "has_played": true,
        "id": 104797,
        "last_rank": 15375,
        "player_name": "Kris Allen",
        "rank": 5498,
        "rank_sort": 5498,
        "total": 2413
      },
      {
        "club_badge_src": null,
        "entry": 1343728,
        "entry_name": "aliloulbez",
        "event_total": 59,
        "has_played": true,
        "id": 9342356,
        "last_rank": 5617,
        "player_name": "alilostation lbezblanc",
        "rank": 5498,
        "rank_sort": 5499,
        "total": 2413
      },
      {
        "club_badge_src": null,
        "entry": 3706706,
        "entry_name": "Second Coming",
        "event_total": 60,
        "has_played": true,
        "id": 27657625,
        "last_rank": 4909,
        "player_name": "James Rodriguez",
        "rank": 5500,
        "rank_sort": 5500,
        "total": 2413
      }
    ]
  }
}