{
  "last_updated_data": "2026-05-24T23:28:17Z",
  "league": {
    "admin_entry": null,
    "closed": false,
    "code_privacy": "p",
    "created": "2025-07-20T23:14:33.933835Z",
    "cup_league": 2815434,
    "has_cup": true,
    "id": 314,
    "league_type": "s",
    "max_entries": null,
    "name": "Overall",
    "rank": null,
    "scoring": "c",
    "start_event": 1
  },
  "new_entries": {
    "has_next": false,
    "page": 1,
    "results": []
  },
  "standings": {
    "has_next": true,
    "page": 1078,
    "results": [
      {
        "club_badge_src": null,
        "entry": 4619422,
        "entry_name": "Babuc FC",
        "event_total": 65,
        "has_played": true,
        "id": 35308175,
        "last_rank": 68556,
        "player_name": "Alan Babuc",
        "rank": 53848,
        "rank_sort": 53851,
        "total": 2349
      },
      {
        "club_badge_src": "https://fantasy.premierleague.com/gcs/plfpl-production-adobe-approved/plfpl-production/5338786/627cf7ac-1260-4da7-a9e8-9ecb1524c326.png",
        "entry": 5338786,
        "entry_name": "King Of Kings FC",
        "event_total": 76,
        "has_played": true,
        "id": 41398394,
        "last_rank": 92949,
        "player_name": "Raheel Choudhary",
        "rank": 53848,
        "rank_sort": 53852,
        "total": 2349
      },
      {
        "club_badge_src": null,
        "entry": 6051321,
        "entry_name": "Ekitike Taka",
        "event_total": 62,
        "has_played": true,
        "id": 47751517,
        "last_rank": 63080,
        "player_name": "Louis Bagga",
        "rank": 53848,
        "rank_sort": 53853,
        "total": 2349
      },
      {
        "club_badge_src": null,
        "entry": 6593299,
        "entry_name": "We'll have a look...",
        "event_total": 44,
        "has_played": true,
        "id": 52660105,
        "last_rank": 36110,
        "player_name": "David Kelly",
        "rank": 53848,
        "rank_sort": 53854,
        "total": 2349
      },
      {
        "club_badge_src": null,
        "entry": 6781549,
        "entry_name": "Webdog Specials",
        "event_total": 58,
        "has_played": true,
        "id": 54303008,
        "last_rank": 56069,
        "player_name": "Jonathan Webber",
        "rank": 53848,
        "rank_sort": 53855,
        "total": 2349
      },
      {
        "club_badge_src": null,
        "entry": 6863627,
        "entry_name": "FC Kihvt Punt",
        "event_total": 42,
        "has_played": true,
        "id": 54995227,
        "last_rank": 33845,
        "player_name": "Endrik Reose",
        "rank": 53848,
        "rank_sort": 53856,
        "total": 2349
      },
      {
        "club_badge_src": null,
        "entry": 7173950,
        "entry_name": "Laget",
        "event_total": 70,
        "has_played": true,
        "id": 57889974,
        "last_rank": 79027,
        "player_name": "Jahn Ove Bekkelund",
        "rank": 53848,
        "rank_sort": 53857,
        "total": 2349
      },
      {
        "club_badge_src": null,
        "entry": 7545992,
        "entry_name": "Sheikh's Fanta Sea",
        "event_total": 53,
        "has_played": true,
        "id": 61776154,
        "last_rank": 48067,
        "player_name": "Mikey Straw",
        "rank": 53848,
        "rank_sort": 53858,
        "total": 2349
      },
      {
        "club_badge_src": null,
        "entry": 8189001,
        "entry_name": "Murphy FC",
        "event_total": 76,
        "has_played": true,
        "id": 67635687,
        "last_rank": 92958,
        "player_name": "Daniel Murphy",
        "rank": 53848,
        "rank_sort": 53859,
        "total": 2349
      },
      {
        "club_badge_src": null,
        "entry": 94258,
        "entry_name": "faze-co fc",
        "event_total": 55,
        "has_played": true,
        "id": 615896,
        "last_rank": 51137,
        "player_name": "Alexander Jahr",
        "rank": 53860,
        "rank_sort": 53860,
        "total": 2349
      },
      {
        "club_badge_src": "https://fantasy.premierleague.com/gcs/plfpl-production-adobe-approved/plfpl-production/336460/2eecef3b-da79-46d3-b5ba-c04508d919fd.png",
        "entry": 336460,
        "entry_name": "Worms XI",
        "event_total": 75,
        "has_played": true,
        "id": 2252604,
        "last_rank": 90524,
        "player_name": "David Croucher",
        "rank": 53860,
        "rank_sort": 53861,
        "total": 2349
      },
      {
        "club_badge_src": null,
        "entry": 746000,
        "entry_name": "The Greal Deal",
        "event_total": 46,
        "has_played": true,
        "id": 5074849,
        "last_rank": 38542,
        "player_name": "Aaron Dillon",
        "rank": 53860,
        "rank_sort": 53862,
        "total": 2349
      },
      {
        "club_badge_src": null,
        "entry": 761600,
        "entry_name": "Lindsatron FC",
        "event_total": 55,
        "has_played": true,
        "id": 5193090,
        "last_rank": 51137,
        "player_name": "James Lindsay",
        "rank": 53860,
        "rank_sort": 53863,
        "total": 2349
      },
      {
        "club_badge_src": null,
        "entry": 775294,
        "entry_name": "MTK Athletico",
        "event_total": 43,
        "has_played": true,
        "id": 5289880,
        "last_rank": 34969,
        "player_name": "Rob Harris",
        "rank": 53860,
        "rank_sort": 53864,
        "total": 2349
      },
      {
        "club_badge_src": null,
        "entry": 1798046,
        "entry_name": "Change Name",
        "event_total": 58,
        "has_played": true,
        "id": 12636210,
        "last_rank": 56099,
        "player_name": "Maxime Smets",
        "rank": 53860,
        "rank_sort": 53865,
        "total": 2349
      },
      {
        "club_badge_src": null,
        "entry": 3161633,
        "entry_name": "Egg Gyoke, Jover Eze",
        "event_total": 40,
        "has_played": true,
        "id": 23355942,
        "last_rank": 31512,
        "player_name": "Jared Rice",
        "rank": 53860,
        "rank_sort": 53866,
        "total": 2349
      },
      {
        "club_badge_src": null,
        "entry": 3280721,
        "entry_name": "MessiFlaps",
        "event_total": 46,
        "has_played": true,
        "id": 24283007,
        "last_rank": 38571,
        "player_name": "Ryan Finlay",
        "rank": 53860,
        "rank_sort": 53867,
        "total": 2349
      },
      {
        "club_badge_src": null,
        "entry": 3784200,
        "entry_name": "Beth\u2019s best team",
        "event_total": 51,
        "has_played": true,
        "id": 28258457,
        "last_rank": 45182,
        "player_name": "Elizabeth Jefferys",
        "rank": 53860,
        "rank_sort": 53868,
        "total": 2349
      },
      {
        "club_badge_src": null,
        "entry": 4381799,
        "entry_name": "Shuvey-FC",
        "event_total": 49,
        "has_played": true,
        "id": 33300159,
        "last_rank": 42401,
        "player_name": "Mohamed Shiyab",
        "rank": 53860,
        "rank_sort": 53869,
        "total": 2349
      },
      {
        "club_badge_src": null,
        "entry": 4403760,
        "entry_name": "Mwaybob FC",
        "event_total": 57,
        "has_played": true,
        "id": 33494064,
        "last_rank": 54416,
        "player_name": "Matt McCarten",
        "rank": 53860,
        "rank_sort": 53870,
        "total": 2349
      },
      {
        "club_badge_src": null,
        "entry": 4406653,
        "entry_name": "ChampionsOfHongKong",
        "event_total": 40,
        "has_played": true,
        "id": 33518475,
        "last_rank": 31556,
        "player_name": "David Moravec",
        "rank": 53860,
        "rank_sort": 53871,
        "total": 2349
      },
      {
        "club_badge_src": null,
        "entry": 5131642,
        "entry_name": "Folk\u015b Land worrier",
        "event_total": 57,
        "has_played": true,
        "id": 39688898,
        "last_rank": 54416,
        "player_name": "Abduba Gura",
        "rank": 53860,
        "rank_sort": 53872,
        "total": 2349
      },
      {
        "club_badge_src": null,
        "entry": 5498208,
        "entry_name": "No Coffee FC",
        "event_total": 71,
        "has_played": true,
        "id": 42837787,
        "last_rank": 81185,
        "player_name": "Mark Hawthorne",
        "rank": 53860,
        "rank_sort": 53873,
        "total": 2349
      },
      {
        "club_badge_src": null,
        "entry": 6185190,
        "entry_name": "Cate City Spurs",
        "event_total": 58,
        "has_played": true,
        "id": 48916962,
        "last_rank": 56099,
        "player_name": "Chris Cate",
        "rank": 53860,
        "rank_sort": 53874,
        "total": 2349
      },
      {
        "club_badge_src": null,
        "entry": 6318773,
        "entry_name": "Cashkings FC",
        "event_total": 54,
        "has_played": true,
        "id": 50160151,
        "last_rank": 49607,
        "player_name": "Learny T",
        "rank": 53860,
        "rank_sort": 53875,
        "total": 2349
      },
      {
        "club_badge_src": null,
        "entry": 7621462,
        "entry_name": "Rex & Teddy Rabbit",
        "event_total": 68,
        "has_played": true,
        "id": 62459965,
        "last_rank": 74787,
        "player_name": "Richard Fidler",
        "rank": 53860,
        "rank_sort": 53876,
        "total": 2349
      },
      {
        "club_badge_src": null,
        "entry": 7722394,
        "entry_name": "Sargallu",
        "event_total": 52,
        "has_played": true,
        "id": 63372629,
        "last_rank": 46547,
        "player_name": "Aiub Muhamad",
        "rank": 53860,
        "rank_sort": 53877,
        "total": 2349
      },
      {
        "club_badge_src": null,
        "entry": 55038,
        "entry_name": "HAULING HAULAND XX",
        "event_total": 54,
        "has_played": true,
        "id": 354228,
        "last_rank": 49607,
        "player_name": "John kennedy",
        "rank": 53878,
        "rank_sort": 53878,
        "total": 2349
      },
      {
        "club_badge_src": null,
        "entry": 67306,
        "entry_name": "The Subs",
        "event_total": 69,
        "has_played": true,
        "id": 435755,
        "last_rank": 76877,
        "player_name": "Emma Ackroyd",
        "rank": 53878,
        "rank_sort": 53879,
        "total": 2349
      },
      {
        "club_badge_src": "https://fantasy.premierleague.com/gcs/plfpl-production-adobe-approved/plfpl-production/120066/4d8adfb1-02f5-44b6-bf47-6fc0eda20d88.png",
        "entry": 120066,
        "entry_name": "BolBol_7yran \u24d2",
        "event_total": 63,
        "has_played": true,
        "id": 783370,
        "last_rank": 64777,
        "player_name": "Mohamed Omar",
        "rank": 53878,
        "rank_sort": 53880,
        "total": 2349
      },
      {
        "club_badge_src": "https://fantasy.premierleague.com/gcs/plfpl-production-adobe-approved/plfpl-production/642705/647542cd-8a30-4c36-a034-957416d7e2d1.png",
        "entry": 642705,
        "entry_name": "One Man Show",
        "event_total": 73,
        "has_played": true,
        "id": 4343663,
        "last_rank": 85836,
        "player_name": "Othmane Echkaf",
        "rank": 53878,
        "rank_sort": 53881,
        "total": 2349
      },
      {
        "club_badge_src": null,
        "entry": 654319,
        "entry_name": "Victor Moses Lawn",
        "event_total": 41,
        "has_played": true,
        "id": 4421886,
        "last_rank": 32751,
        "player_name": "Tyler Andrews",
        "rank": 53878,
        "rank_sort": 53882,
        "total": 2349
      },
      {
        "club_badge_src": null,
        "entry": 677160,
        "entry_name": "Taking the Mykolenko",
        "event_total": 58,
        "has_played": true,
        "id": 4581641,
        "last_rank": 56069,
        "player_name": "Jack Tarleton-Lord",
        "rank": 53878,
        "rank_sort": 53883,
        "total": 2349
      },
      {
        "club_badge_src": null,
        "entry": 737130,
        "entry_name": "Copper City",
        "event_total": 54,
        "has_played": true,
        "id": 5011226,
        "last_rank": 49691,
        "player_name": "Joakim Kirkhus",
        "rank": 53878,
        "rank_sort": 53884,
        "total": 2349
      },
      {
        "club_badge_src": null,
        "entry": 1211364,
        "entry_name": "33BOMSQUAD48",
        "event_total": 59,
        "has_played": true,
        "id": 8407998,
        "last_rank": 57776,
        "player_name": "Ravene Bamueni",
        "rank": 53878,
        "rank_sort": 53885,
        "total": 2349
      },
      {
        "club_badge_src": null,
        "entry": 1561856,
        "entry_name": "Kinder Mbuemo",
        "event_total": 56,
        "has_played": true,
        "id": 10909525,
        "last_rank": 52853,
        "player_name": "Blake Douglas",
        "rank": 53878,
        "rank_sort": 53886,
        "total": 2349
      },
      {
        "club_badge_src": null,
        "entry": 1633707,
        "entry_name": "Solo Leweling",
        "event_total": 62,
        "has_played": true,
        "id": 11435127,
        "last_rank": 63045,
        "player_name": "Patrick Gribben",
        "rank": 53878,
        "rank_sort": 53887,
        "total": 2349
      },
      {
        "club_badge_src": null,
        "entry": 2427165,
        "entry_name": "Team Ream",
        "event_total": 47,
        "has_played": true,
        "id": 17355078,
        "last_rank": 39816,
        "player_name": "H\u00e5kon Edvardsen",
        "rank": 53878,
        "rank_sort": 53888,
        "total": 2349
      },
      {
        "club_badge_src": null,
        "entry": 2471559,
        "entry_name": "Drittes Reich",
        "event_total": 51,
        "has_played": true,
        "id": 17681438,
        "last_rank": 45182,
        "player_name": "Niklas Holmstr\u00f6m",
        "rank": 53878,
        "rank_sort": 53889,
        "total": 2349
      },
      {
        "club_badge_src": null,
        "entry": 2580140,
        "entry_name": "Pelka",
        "event_total": 65,
        "has_played": true,
        "id": 18518803,
        "last_rank": 68572,
        "player_name": "Lukasz Olaczek",
        "rank": 53878,
        "rank_sort": 53890,
        "total": 2349
      },
      {
        "club_badge_src": null,
        "entry": 2594234,
        "entry_name": "For Beto Or Wirtz",
        "event_total": 60,
        "has_played": true,
        "id": 18627361,
        "last_rank": 52722,
        "player_name": "Luke Warren",
        "rank": 53878,
        "rank_sort": 53891,
        "total": 2349
      },
      {
        "club_badge_src": null,
        "entry": 3107338,
        "entry_name": "fut Bito",
        "event_total": 66,
        "has_played": true,
        "id": 22915914,
        "last_rank": 70757,
        "player_name": "Mukuka Musonda",
        "rank": 53878,
        "rank_sort": 53892,
        "total": 2349
      },
      {
        "club_badge_src": "https://fantasy.premierleague.com/gcs/plfpl-production-adobe-approved/plfpl-production/3146827/07621b5e-fddd-4c46-b9c2-88af7e7555a8.png",
        "entry": 3146827,
        "entry_name": "TabasaluTermiidid",
        "event_total": 75,
        "has_played": true,
        "id": 23235372,
        "last_rank": 90625,
        "player_name": "Mark Sauga",
        "rank": 53878,
        "rank_sort": 53893,
        "total": 2349
      },
      {
        "club_badge_src": "https://fantasy.premierleague.com/gcs/plfpl-production-adobe-approved/plfpl-production/3259439/dc84b1e4-01fc-4841-b02d-a896d054a2e0.png",
        "entry": 3259439,
        "entry_name": "kurt",
        "event_total": 40,
        "has_played": true,
        "id": 24117621,
        "last_rank": 31620,
        "player_name": "cihat kurt",
        "rank": 53878,
        "rank_sort": 53894,
        "total": 2349
      },
      {
        "club_badge_src": null,
        "entry": 3308803,
        "entry_name": "Nella Fantasia",
        "event_total": 68,
        "has_played": true,
        "id": 24512638,
        "last_rank": 74741,
        "player_name": "H\u00e5kon M\u00f8rch",
        "rank": 53878,
        "rank_sort": 53895,
        "total": 2349
      },
      {
        "club_badge_src": null,
        "entry": 3500817,
        "entry_name": "\u00e5SallahnAllan",
        "event_total": 58,
        "has_played": true,
        "id": 26041892,
        "last_rank": 56180,
        "player_name": "Knut Birkevold",
        "rank": 53878,
        "rank_sort": 53896,
        "total": 2349
      },
      {
        "club_badge_src": null,
        "entry": 3672497,
        "entry_name": "Malcolm and Dennis",
        "event_total": 48,
        "has_played": true,
        "id": 27390205,
        "last_rank": 41101,
        "player_name": "Andrew Medcalf",
        "rank": 53878,
        "rank_sort": 53897,
        "total": 2349
      },
      {
        "club_badge_src": null,
        "entry": 3805309,
        "entry_name": "Change Name",
        "event_total": 43,
        "has_played": true,
        "id": 28449746,
        "last_rank": 35034,
        "player_name": "krishna kashyap",
        "rank": 53878,
        "rank_sort": 53898,
        "total": 2349
      },
      {
        "club_badge_src": "https://fantasy.premierleague.com/gcs/plfpl-production-adobe-approved/plfpl-production/3882807/35df0ba8-f1ea-4818-a7a0-f17f35a51116.png",
        "entry": 3882807,
        "entry_name": "Banzai Nuggets",
        "event_total": 41,
        "has_played": true,
        "id": 29175315,
        "last_rank": 32639,
        "player_name": "Euan Wilson",
        "rank": 53878,
        "rank_sort": 53899,
        "total": 2349
      },
      {
        "club_badge_src": null,
        "entry": 4215499,
        "entry_name": "Put The Balls In",
        "event_total": 52,
        "has_played": true,
        "id": 31924449,
        "last_rank": 46547,
        "player_name": "Jordan Kennedy",
        "rank": 53878,
        "rank_sort": 53900,
        "total": 2349
      }
    ]
  }
}