{
  "last_updated_data": "2026-05-24T23:28:17Z",
  "league": {
    "admin_entry": null,
    "closed": false,
    "code_privacy": "p",
    "created": "2025-07-20T23:14:33.933835Z",
    "cup_league": 2815434,
    "has_cup": true,
    "id": 314,
    "league_type": "s",
    "max_entries": null,
    "name": "Overall",
    "rank": null,
    "scoring": "c",
    "start_event": 1
  },
  "new_entries": {
    "has_next": false,
    "page": 1,
    "results": []
  },
  "standings": {
    "has_next": true,
    "page": 1401,
    "results": [
      {
        "club_badge_src": null,
        "entry": 5678107,
        "entry_name": "K Town FC",
        "event_total": 61,
        "has_played": true,
        "id": 44438777,
        "last_rank": 79431,
        "player_name": "Keiran Hotchin",
        "rank": 69708,
        "rank_sort": 70001,
        "total": 2340
      },
      {
        "club_badge_src": null,
        "entry": 5730462,
        "entry_name": "Sammo\u2019s Assassins",
        "event_total": 56,
        "has_played": true,
        "id": 44892438,
        "last_rank": 68957,
        "player_name": "David Sampson",
        "rank": 69708,
        "rank_sort": 70002,
        "total": 2340
      },
      {
        "club_badge_src": null,
        "entry": 5820557,
        "entry_name": "high fade",
        "event_total": 62,
        "has_played": true,
        "id": 45677838,
        "last_rank": 81646,
        "player_name": "JT Thomas",
        "rank": 69708,
        "rank_sort": 70003,
        "total": 2340
      },
      {
        "club_badge_src": "https://fantasy.premierleague.com/gcs/plfpl-production-adobe-approved/plfpl-production/5823574/1104c1db-4027-4c56-bda1-7aa47a2bd545.png",
        "entry": 5823574,
        "entry_name": "Los Tucanes",
        "event_total": 51,
        "has_played": true,
        "id": 45703309,
        "last_rank": 59813,
        "player_name": "Ethan Lindley Orezzoli",
        "rank": 69708,
        "rank_sort": 70004,
        "total": 2340
      },
      {
        "club_badge_src": null,
        "entry": 5886660,
        "entry_name": "sanchobibi",
        "event_total": 58,
        "has_played": true,
        "id": 46241624,
        "last_rank": 73423,
        "player_name": "sanchovies kid",
        "rank": 69708,
        "rank_sort": 70005,
        "total": 2340
      },
      {
        "club_badge_src": null,
        "entry": 5974344,
        "entry_name": "BeeTee",
        "event_total": 43,
        "has_played": true,
        "id": 47024120,
        "last_rank": 46839,
        "player_name": "BARRY TYSOE",
        "rank": 69708,
        "rank_sort": 70006,
        "total": 2340
      },
      {
        "club_badge_src": null,
        "entry": 5997252,
        "entry_name": "Better Call-up Flo",
        "event_total": 74,
        "has_played": true,
        "id": 47272058,
        "last_rank": 111203,
        "player_name": "Flo B.",
        "rank": 69708,
        "rank_sort": 70007,
        "total": 2340
      },
      {
        "club_badge_src": "https://fantasy.premierleague.com/gcs/plfpl-production-adobe-approved/plfpl-production/6107644/ebbc6c3e-3299-4a31-90bf-945a29cea877.png",
        "entry": 6107644,
        "entry_name": "SVB",
        "event_total": 45,
        "has_played": true,
        "id": 48242986,
        "last_rank": 49880,
        "player_name": "Sergey Borisov",
        "rank": 69708,
        "rank_sort": 70008,
        "total": 2340
      },
      {
        "club_badge_src": "https://fantasy.premierleague.com/gcs/plfpl-production-adobe-approved/plfpl-production/6111297/5e6ed926-10ce-4e9e-a098-ede4b82434fa.png",
        "entry": 6111297,
        "entry_name": "LA1KA",
        "event_total": 60,
        "has_played": true,
        "id": 48274727,
        "last_rank": 77258,
        "player_name": "Potsawat Samsone",
        "rank": 69708,
        "rank_sort": 70009,
        "total": 2340
      },
      {
        "club_badge_src": "https://fantasy.premierleague.com/gcs/plfpl-production-adobe-approved/plfpl-production/6133724/dd447f70-5431-42e3-9656-8a4002487588.png",
        "entry": 6133724,
        "entry_name": "Drakarna",
        "event_total": 72,
        "has_played": true,
        "id": 48471021,
        "last_rank": 105963,
        "player_name": "Rasmus Ramsell",
        "rank": 69708,
        "rank_sort": 70010,
        "total": 2340
      },
      {
        "club_badge_src": null,
        "entry": 6147564,
        "entry_name": "mandemfc",
        "event_total": 54,
        "has_played": true,
        "id": 48591242,
        "last_rank": 65163,
        "player_name": "Ben Ten",
        "rank": 69708,
        "rank_sort": 70011,
        "total": 2340
      },
      {
        "club_badge_src": null,
        "entry": 6223653,
        "entry_name": "FPL LOU",
        "event_total": 65,
        "has_played": true,
        "id": 49247543,
        "last_rank": 88249,
        "player_name": "LOU ---",
        "rank": 69708,
        "rank_sort": 70012,
        "total": 2340
      },
      {
        "club_badge_src": null,
        "entry": 6263763,
        "entry_name": "Palmergeddon",
        "event_total": 55,
        "has_played": true,
        "id": 49595690,
        "last_rank": 67063,
        "player_name": "Billy Babbage",
        "rank": 69708,
        "rank_sort": 70013,
        "total": 2340
      },
      {
        "club_badge_src": null,
        "entry": 6264541,
        "entry_name": "Moody's miracles",
        "event_total": 46,
        "has_played": true,
        "id": 49602634,
        "last_rank": 51112,
        "player_name": "Tom Moody",
        "rank": 69708,
        "rank_sort": 70014,
        "total": 2340
      },
      {
        "club_badge_src": null,
        "entry": 6267707,
        "entry_name": "HamKam3",
        "event_total": 67,
        "has_played": true,
        "id": 49629723,
        "last_rank": 93186,
        "player_name": "Stig Volla",
        "rank": 69708,
        "rank_sort": 70015,
        "total": 2340
      },
      {
        "club_badge_src": null,
        "entry": 6289045,
        "entry_name": "Mr. Joshua",
        "event_total": 55,
        "has_played": true,
        "id": 49824772,
        "last_rank": 67063,
        "player_name": "Josh Graber",
        "rank": 69708,
        "rank_sort": 70016,
        "total": 2340
      },
      {
        "club_badge_src": null,
        "entry": 6350616,
        "entry_name": "Phorlerkemii",
        "event_total": 64,
        "has_played": true,
        "id": 50485017,
        "last_rank": 76947,
        "player_name": "Rofiat Dada",
        "rank": 69708,
        "rank_sort": 70017,
        "total": 2340
      },
      {
        "club_badge_src": "https://fantasy.premierleague.com/gcs/plfpl-production-adobe-approved/plfpl-production/6364347/eb6821e1-6f8b-47d0-b2ca-f579d5514f2d.png",
        "entry": 6364347,
        "entry_name": "BLUE-EYE",
        "event_total": 60,
        "has_played": true,
        "id": 50605647,
        "last_rank": 77258,
        "player_name": "Ali B",
        "rank": 69708,
        "rank_sort": 70018,
        "total": 2340
      },
      {
        "club_badge_src": "https://fantasy.premierleague.com/gcs/plfpl-production-adobe-approved/plfpl-production/6403307/cac9e9ed-6260-41f5-a421-651a4a6bebd7.png",
        "entry": 6403307,
        "entry_name": "Truba",
        "event_total": 70,
        "has_played": true,
        "id": 50948856,
        "last_rank": 100488,
        "player_name": "Jakov Novakovic",
        "rank": 69708,
        "rank_sort": 70019,
        "total": 2340
      },
      {
        "club_badge_src": null,
        "entry": 6504171,
        "entry_name": "Villa Unai-ted FC",
        "event_total": 46,
        "has_played": true,
        "id": 51858960,
        "last_rank": 51720,
        "player_name": "Steve Najdovski",
        "rank": 69708,
        "rank_sort": 70020,
        "total": 2340
      },
      {
        "club_badge_src": null,
        "entry": 6623118,
        "entry_name": "M10",
        "event_total": 56,
        "has_played": true,
        "id": 52927061,
        "last_rank": 68748,
        "player_name": "Muhammad khadar Yussuf",
        "rank": 69708,
        "rank_sort": 70021,
        "total": 2340
      },
      {
        "club_badge_src": null,
        "entry": 6641554,
        "entry_name": "\u0160e\u0161ko Meal Deal",
        "event_total": 62,
        "has_played": true,
        "id": 53089892,
        "last_rank": 81646,
        "player_name": "Steven Hill",
        "rank": 69708,
        "rank_sort": 70022,
        "total": 2340
      },
      {
        "club_badge_src": null,
        "entry": 6690810,
        "entry_name": "Wazi",
        "event_total": 59,
        "has_played": true,
        "id": 53528189,
        "last_rank": 75139,
        "player_name": "Kevin Wardlaw",
        "rank": 69708,
        "rank_sort": 70023,
        "total": 2340
      },
      {
        "club_badge_src": null,
        "entry": 6765611,
        "entry_name": "Hakuna Mateta",
        "event_total": 39,
        "has_played": true,
        "id": 54170730,
        "last_rank": 41324,
        "player_name": "sean funnell",
        "rank": 69708,
        "rank_sort": 70024,
        "total": 2340
      },
      {
        "club_badge_src": null,
        "entry": 6779827,
        "entry_name": "Liverpool FC",
        "event_total": 57,
        "has_played": true,
        "id": 54288682,
        "last_rank": 70985,
        "player_name": "Mary Pratt",
        "rank": 69708,
        "rank_sort": 70025,
        "total": 2340
      },
      {
        "club_badge_src": null,
        "entry": 6796565,
        "entry_name": "You Whart Mate?",
        "event_total": 50,
        "has_played": true,
        "id": 54428331,
        "last_rank": 58388,
        "player_name": "Pierce Muir",
        "rank": 69708,
        "rank_sort": 70026,
        "total": 2340
      },
      {
        "club_badge_src": null,
        "entry": 6843583,
        "entry_name": "Bason Journe",
        "event_total": 67,
        "has_played": true,
        "id": 54823744,
        "last_rank": 93443,
        "player_name": "Patrick Vinger",
        "rank": 69708,
        "rank_sort": 70027,
        "total": 2340
      },
      {
        "club_badge_src": null,
        "entry": 6846007,
        "entry_name": "Don\u2019tLookBackElanga",
        "event_total": 58,
        "has_played": true,
        "id": 54844749,
        "last_rank": 73038,
        "player_name": "Nat Hayward",
        "rank": 69708,
        "rank_sort": 70028,
        "total": 2340
      },
      {
        "club_badge_src": null,
        "entry": 6860909,
        "entry_name": "Taking The Mikel",
        "event_total": 72,
        "has_played": true,
        "id": 54972678,
        "last_rank": 105963,
        "player_name": "Lee Packman",
        "rank": 69708,
        "rank_sort": 70029,
        "total": 2340
      },
      {
        "club_badge_src": null,
        "entry": 6894519,
        "entry_name": "Van de Title",
        "event_total": 44,
        "has_played": true,
        "id": 55258105,
        "last_rank": 48197,
        "player_name": "Lukas Krunic",
        "rank": 69708,
        "rank_sort": 70030,
        "total": 2340
      },
      {
        "club_badge_src": null,
        "entry": 6903095,
        "entry_name": "Lucky Pants",
        "event_total": 65,
        "has_played": true,
        "id": 55330127,
        "last_rank": 88348,
        "player_name": "Neil Berry",
        "rank": 69708,
        "rank_sort": 70031,
        "total": 2340
      },
      {
        "club_badge_src": null,
        "entry": 7023159,
        "entry_name": "Absa",
        "event_total": 64,
        "has_played": true,
        "id": 56417990,
        "last_rank": 85932,
        "player_name": "ahmed anche",
        "rank": 69708,
        "rank_sort": 70032,
        "total": 2340
      },
      {
        "club_badge_src": null,
        "entry": 7138491,
        "entry_name": "Ashwins angels",
        "event_total": 45,
        "has_played": true,
        "id": 57541077,
        "last_rank": 49880,
        "player_name": "Michael Ashwin",
        "rank": 69708,
        "rank_sort": 70033,
        "total": 2340
      },
      {
        "club_badge_src": null,
        "entry": 7143127,
        "entry_name": "John FC",
        "event_total": 62,
        "has_played": true,
        "id": 57584918,
        "last_rank": 81420,
        "player_name": "John Sutherland",
        "rank": 69708,
        "rank_sort": 70034,
        "total": 2340
      },
      {
        "club_badge_src": null,
        "entry": 7154085,
        "entry_name": "Excellence United",
        "event_total": 77,
        "has_played": true,
        "id": 57694216,
        "last_rank": 119948,
        "player_name": "Karoline Ihlen",
        "rank": 69708,
        "rank_sort": 70035,
        "total": 2340
      },
      {
        "club_badge_src": null,
        "entry": 7220438,
        "entry_name": "Team Adinatoor 5.0",
        "event_total": 68,
        "has_played": true,
        "id": 58326211,
        "last_rank": 95640,
        "player_name": "Jesper Fiksdal",
        "rank": 69708,
        "rank_sort": 70036,
        "total": 2340
      },
      {
        "club_badge_src": null,
        "entry": 7232118,
        "entry_name": "cbex",
        "event_total": 57,
        "has_played": true,
        "id": 58434619,
        "last_rank": 70985,
        "player_name": "Collin Becker",
        "rank": 69708,
        "rank_sort": 70037,
        "total": 2340
      },
      {
        "club_badge_src": null,
        "entry": 7243005,
        "entry_name": "Khafaji",
        "event_total": 46,
        "has_played": true,
        "id": 58536269,
        "last_rank": 51403,
        "player_name": "Hasan Jasim",
        "rank": 69708,
        "rank_sort": 70038,
        "total": 2340
      },
      {
        "club_badge_src": null,
        "entry": 7263389,
        "entry_name": "Van Gaal United",
        "event_total": 72,
        "has_played": true,
        "id": 58731225,
        "last_rank": 105963,
        "player_name": "Eelko Dijkstra",
        "rank": 69708,
        "rank_sort": 70039,
        "total": 2340
      },
      {
        "club_badge_src": null,
        "entry": 7353326,
        "entry_name": "Curly Boy Stubbs",
        "event_total": 53,
        "has_played": true,
        "id": 59578868,
        "last_rank": 63390,
        "player_name": "Sam Guggenheimer",
        "rank": 69708,
        "rank_sort": 70040,
        "total": 2340
      },
      {
        "club_badge_src": null,
        "entry": 7355001,
        "entry_name": "Rice Rice Baby",
        "event_total": 60,
        "has_played": true,
        "id": 59595418,
        "last_rank": 77258,
        "player_name": "Jack Charman",
        "rank": 69708,
        "rank_sort": 70041,
        "total": 2340
      },
      {
        "club_badge_src": null,
        "entry": 7364543,
        "entry_name": "ZirkzeeDai",
        "event_total": 44,
        "has_played": true,
        "id": 59684005,
        "last_rank": 48363,
        "player_name": "Jacky Ho",
        "rank": 69708,
        "rank_sort": 70042,
        "total": 2340
      },
      {
        "club_badge_src": null,
        "entry": 7431456,
        "entry_name": "Pending Moderation",
        "event_total": 53,
        "has_played": true,
        "id": 60389886,
        "last_rank": 63390,
        "player_name": "Christine \u00d8en",
        "rank": 69708,
        "rank_sort": 70043,
        "total": 2340
      },
      {
        "club_badge_src": null,
        "entry": 7501921,
        "entry_name": "Boom Sakalaka",
        "event_total": 59,
        "has_played": true,
        "id": 61302047,
        "last_rank": 75139,
        "player_name": "Geoff Lowe",
        "rank": 69708,
        "rank_sort": 70044,
        "total": 2340
      },
      {
        "club_badge_src": null,
        "entry": 7527590,
        "entry_name": "Alright Balde",
        "event_total": 79,
        "has_played": true,
        "id": 61607066,
        "last_rank": 126408,
        "player_name": "Richard Nichols",
        "rank": 69708,
        "rank_sort": 70045,
        "total": 2340
      },
      {
        "club_badge_src": null,
        "entry": 7564884,
        "entry_name": "moha BEN",
        "event_total": 52,
        "has_played": true,
        "id": 61946057,
        "last_rank": 61950,
        "player_name": "Mohamad Ben Taher",
        "rank": 69708,
        "rank_sort": 70046,
        "total": 2340
      },
      {
        "club_badge_src": null,
        "entry": 7578932,
        "entry_name": "ali morsy",
        "event_total": 67,
        "has_played": true,
        "id": 62073805,
        "last_rank": 93443,
        "player_name": "Ali Morsy",
        "rank": 69708,
        "rank_sort": 70047,
        "total": 2340
      },
      {
        "club_badge_src": null,
        "entry": 7586139,
        "entry_name": "Ajax Treesdown",
        "event_total": 57,
        "has_played": true,
        "id": 62138892,
        "last_rank": 70985,
        "player_name": "Cameron Moore",
        "rank": 69708,
        "rank_sort": 70048,
        "total": 2340
      },
      {
        "club_badge_src": null,
        "entry": 7674106,
        "entry_name": "FFS",
        "event_total": 50,
        "has_played": true,
        "id": 62938436,
        "last_rank": 57857,
        "player_name": "N gomes",
        "rank": 69708,
        "rank_sort": 70049,
        "total": 2340
      },
      {
        "club_badge_src": null,
        "entry": 7693460,
        "entry_name": "Zenchester yanited",
        "event_total": 55,
        "has_played": true,
        "id": 63112564,
        "last_rank": 66693,
        "player_name": "Z A",
        "rank": 69708,
        "rank_sort": 70050,
        "total": 2340
      }
    ]
  }
}