{
  "last_updated_data": "2026-05-24T23:28:17Z",
  "league": {
    "admin_entry": null,
    "closed": false,
    "code_privacy": "p",
    "created": "2025-07-20T23:14:33.933835Z",
    "cup_league": 2815434,
    "has_cup": true,
    "id": 314,
    "league_type": "s",
    "max_entries": null,
    "name": "Overall",
    "rank": null,
    "scoring": "c",
    "start_event": 1
  },
  "new_entries": {
    "has_next": false,
    "page": 1,
    "results": []
  },
  "standings": {
    "has_next": true,
    "page": 1662,
    "results": [
      {
        "club_badge_src": null,
        "entry": 344453,
        "entry_name": "The Best Attackers",
        "event_total": 58,
        "has_played": true,
        "id": 2305584,
        "last_rank": 86735,
        "player_name": "Micha\u0142 Nowak",
        "rank": 83008,
        "rank_sort": 83051,
        "total": 2334
      },
      {
        "club_badge_src": null,
        "entry": 356156,
        "entry_name": "StaraZara",
        "event_total": 68,
        "has_played": true,
        "id": 2383390,
        "last_rank": 112169,
        "player_name": "Tihomir Ivanov",
        "rank": 83008,
        "rank_sort": 83052,
        "total": 2334
      },
      {
        "club_badge_src": null,
        "entry": 366240,
        "entry_name": "Elite XI",
        "event_total": 52,
        "has_played": true,
        "id": 2450800,
        "last_rank": 51403,
        "player_name": "Omar El-Desouky",
        "rank": 83008,
        "rank_sort": 83053,
        "total": 2334
      },
      {
        "club_badge_src": null,
        "entry": 370305,
        "entry_name": "St domingo FC",
        "event_total": 61,
        "has_played": true,
        "id": 2477921,
        "last_rank": 84731,
        "player_name": "liam crowley",
        "rank": 83008,
        "rank_sort": 83054,
        "total": 2334
      },
      {
        "club_badge_src": null,
        "entry": 395618,
        "entry_name": "Collins FC",
        "event_total": 54,
        "has_played": true,
        "id": 2653105,
        "last_rank": 61950,
        "player_name": "Charlie Collins",
        "rank": 83008,
        "rank_sort": 83055,
        "total": 2334
      },
      {
        "club_badge_src": "https://fantasy.premierleague.com/gcs/plfpl-production-adobe-approved/plfpl-production/411178/1ecdea09-72b4-4165-aeb1-d80fe5150e1a.png",
        "entry": 411178,
        "entry_name": "Hakuna Matiti",
        "event_total": 68,
        "has_played": true,
        "id": 2757023,
        "last_rank": 112169,
        "player_name": "\ufe0e   zidane \ufe0e",
        "rank": 83008,
        "rank_sort": 83056,
        "total": 2334
      },
      {
        "club_badge_src": null,
        "entry": 439207,
        "entry_name": "Devils United",
        "event_total": 52,
        "has_played": true,
        "id": 2945135,
        "last_rank": 65796,
        "player_name": "Bharath Vignesh",
        "rank": 83008,
        "rank_sort": 83057,
        "total": 2334
      },
      {
        "club_badge_src": null,
        "entry": 453902,
        "entry_name": "Isak All You've Got?",
        "event_total": 52,
        "has_played": true,
        "id": 3044797,
        "last_rank": 73720,
        "player_name": "Jastej L",
        "rank": 83008,
        "rank_sort": 83058,
        "total": 2334
      },
      {
        "club_badge_src": null,
        "entry": 455200,
        "entry_name": "Template Merchants",
        "event_total": 63,
        "has_played": true,
        "id": 3053762,
        "last_rank": 89426,
        "player_name": "\u0141ukasz Nowak",
        "rank": 83008,
        "rank_sort": 83059,
        "total": 2334
      },
      {
        "club_badge_src": null,
        "entry": 487800,
        "entry_name": "Toppenham Hotspurs",
        "event_total": 53,
        "has_played": true,
        "id": 3274757,
        "last_rank": 67695,
        "player_name": "Magnus Anderstr\u00f6m",
        "rank": 83008,
        "rank_sort": 83060,
        "total": 2334
      },
      {
        "club_badge_src": null,
        "entry": 516282,
        "entry_name": "Gmacks All Stars",
        "event_total": 60,
        "has_played": true,
        "id": 3466196,
        "last_rank": 91835,
        "player_name": "Ian Mackie",
        "rank": 83008,
        "rank_sort": 83061,
        "total": 2334
      },
      {
        "club_badge_src": null,
        "entry": 545812,
        "entry_name": "Acunha Mateta",
        "event_total": 54,
        "has_played": true,
        "id": 3673338,
        "last_rank": 69641,
        "player_name": "\u6c14s\u0361\u032fe\u0361\u032ft\u0361\u032fh\u0361\u032f\u6c14\ud83e\udd0f\ud83c\udffc\ud83d\ude0e \ud83c\udccf",
        "rank": 83008,
        "rank_sort": 83062,
        "total": 2334
      },
      {
        "club_badge_src": null,
        "entry": 557298,
        "entry_name": "Coxys mowing",
        "event_total": 57,
        "has_played": true,
        "id": 3750611,
        "last_rank": 84980,
        "player_name": "Christopher Cox",
        "rank": 83008,
        "rank_sort": 83063,
        "total": 2334
      },
      {
        "club_badge_src": null,
        "entry": 606251,
        "entry_name": "Pep Roulette",
        "event_total": 61,
        "has_played": true,
        "id": 4093638,
        "last_rank": 84731,
        "player_name": "Henry Gilmore",
        "rank": 83008,
        "rank_sort": 83064,
        "total": 2334
      },
      {
        "club_badge_src": null,
        "entry": 606923,
        "entry_name": "UnLucky FC",
        "event_total": 58,
        "has_played": true,
        "id": 4098539,
        "last_rank": 86304,
        "player_name": "Aabu Yousuf Raj",
        "rank": 83008,
        "rank_sort": 83065,
        "total": 2334
      },
      {
        "club_badge_src": null,
        "entry": 634885,
        "entry_name": "Der G\u00fcterzug",
        "event_total": 72,
        "has_played": true,
        "id": 4290736,
        "last_rank": 124682,
        "player_name": "Lucas Ljungdahl",
        "rank": 83008,
        "rank_sort": 83066,
        "total": 2334
      },
      {
        "club_badge_src": null,
        "entry": 657871,
        "entry_name": "Dae FC",
        "event_total": 44,
        "has_played": true,
        "id": 4445838,
        "last_rank": 59077,
        "player_name": "Its Dae",
        "rank": 83008,
        "rank_sort": 83067,
        "total": 2334
      },
      {
        "club_badge_src": null,
        "entry": 686352,
        "entry_name": "\u00c4lgens \u00c4nglar",
        "event_total": 61,
        "has_played": true,
        "id": 4646068,
        "last_rank": 84731,
        "player_name": "Anders Antonsson",
        "rank": 83008,
        "rank_sort": 83068,
        "total": 2334
      },
      {
        "club_badge_src": "https://fantasy.premierleague.com/gcs/plfpl-production-adobe-approved/plfpl-production/701403/d4ce079b-aaaf-421a-8464-a7ead11dba1d.png",
        "entry": 701403,
        "entry_name": "Karjarannan Hurjat",
        "event_total": 54,
        "has_played": true,
        "id": 4752447,
        "last_rank": 78244,
        "player_name": "Santeri \u00c4ij\u00f6",
        "rank": 83008,
        "rank_sort": 83069,
        "total": 2334
      },
      {
        "club_badge_src": null,
        "entry": 753172,
        "entry_name": "Onana What's My Name",
        "event_total": 50,
        "has_played": true,
        "id": 5125302,
        "last_rank": 69907,
        "player_name": "Shuayb Ayub",
        "rank": 83008,
        "rank_sort": 83070,
        "total": 2334
      },
      {
        "club_badge_src": null,
        "entry": 753250,
        "entry_name": "fayeq",
        "event_total": 54,
        "has_played": true,
        "id": 5125873,
        "last_rank": 69641,
        "player_name": "Ahmed Fayeq",
        "rank": 83008,
        "rank_sort": 83071,
        "total": 2334
      },
      {
        "club_badge_src": "https://fantasy.premierleague.com/gcs/plfpl-production-adobe-approved/plfpl-production/781014/182df924-3719-43c7-bc35-831b8b51d11e.png",
        "entry": 781014,
        "entry_name": "Toonish Cobbler",
        "event_total": 65,
        "has_played": true,
        "id": 5332206,
        "last_rank": 94255,
        "player_name": "Amin Al-rubb",
        "rank": 83008,
        "rank_sort": 83072,
        "total": 2334
      },
      {
        "club_badge_src": null,
        "entry": 797141,
        "entry_name": "Mazacar",
        "event_total": 50,
        "has_played": true,
        "id": 5455896,
        "last_rank": 69641,
        "player_name": "Fannar M\u00e1ni Fjalarsson",
        "rank": 83008,
        "rank_sort": 83073,
        "total": 2334
      },
      {
        "club_badge_src": null,
        "entry": 810342,
        "entry_name": "Obi-Wan Iwobi",
        "event_total": 69,
        "has_played": true,
        "id": 5548183,
        "last_rank": 104388,
        "player_name": "Lachlan Cameron",
        "rank": 83008,
        "rank_sort": 83074,
        "total": 2334
      },
      {
        "club_badge_src": null,
        "entry": 822585,
        "entry_name": "Kamikazes",
        "event_total": 66,
        "has_played": true,
        "id": 5633684,
        "last_rank": 96777,
        "player_name": "Mohammed Jawad",
        "rank": 83008,
        "rank_sort": 83075,
        "total": 2334
      },
      {
        "club_badge_src": null,
        "entry": 825276,
        "entry_name": "d59",
        "event_total": 67,
        "has_played": true,
        "id": 5652273,
        "last_rank": 110187,
        "player_name": "Kojo Okwore",
        "rank": 83008,
        "rank_sort": 83076,
        "total": 2334
      },
      {
        "club_badge_src": null,
        "entry": 832455,
        "entry_name": "BalotelliTubbies",
        "event_total": 82,
        "has_played": true,
        "id": 5701954,
        "last_rank": 142273,
        "player_name": "Samuel Giannitto",
        "rank": 83008,
        "rank_sort": 83077,
        "total": 2334
      },
      {
        "club_badge_src": "https://fantasy.premierleague.com/gcs/plfpl-production-adobe-approved/plfpl-production/840051/b921397f-884d-4589-a891-b8b4f50fe476.png",
        "entry": 840051,
        "entry_name": "Millospool FC",
        "event_total": 79,
        "has_played": true,
        "id": 5755620,
        "last_rank": 132758,
        "player_name": "Mateo Quimbaya Ramos",
        "rank": 83008,
        "rank_sort": 83078,
        "total": 2334
      },
      {
        "club_badge_src": null,
        "entry": 857113,
        "entry_name": "same7",
        "event_total": 77,
        "has_played": true,
        "id": 5875179,
        "last_rank": 140831,
        "player_name": "sameh shaaban",
        "rank": 83008,
        "rank_sort": 83079,
        "total": 2334
      },
      {
        "club_badge_src": null,
        "entry": 860131,
        "entry_name": "Meteseh Old FC",
        "event_total": 69,
        "has_played": true,
        "id": 5896213,
        "last_rank": 115421,
        "player_name": "M Kholil M",
        "rank": 83008,
        "rank_sort": 83080,
        "total": 2334
      },
      {
        "club_badge_src": "https://fantasy.premierleague.com/gcs/plfpl-production-adobe-approved/plfpl-production/875384/5dc5468a-6ad1-4308-a425-1e2fb0836f59.png",
        "entry": 875384,
        "entry_name": "Man Scatter",
        "event_total": 60,
        "has_played": true,
        "id": 6001594,
        "last_rank": 92332,
        "player_name": "Gideon Koech",
        "rank": 83008,
        "rank_sort": 83081,
        "total": 2334
      },
      {
        "club_badge_src": null,
        "entry": 877236,
        "entry_name": "The Train",
        "event_total": 61,
        "has_played": true,
        "id": 6014327,
        "last_rank": 93883,
        "player_name": "Ravin Sharma",
        "rank": 83008,
        "rank_sort": 83082,
        "total": 2334
      },
      {
        "club_badge_src": "https://fantasy.premierleague.com/gcs/plfpl-production-adobe-approved/plfpl-production/893348/079a0785-a9e0-442b-9fd9-3cbc828e3d7e.png",
        "entry": 893348,
        "entry_name": "Killdemallanddone",
        "event_total": 29,
        "has_played": true,
        "id": 6136365,
        "last_rank": 36963,
        "player_name": "Michael Philibert",
        "rank": 83008,
        "rank_sort": 83083,
        "total": 2334
      },
      {
        "club_badge_src": null,
        "entry": 927893,
        "entry_name": "B\u00a3ue|MaG\u00a1K *",
        "event_total": 41,
        "has_played": true,
        "id": 6383662,
        "last_rank": 47163,
        "player_name": "Siddhant Joshi",
        "rank": 83008,
        "rank_sort": 83084,
        "total": 2334
      },
      {
        "club_badge_src": null,
        "entry": 930182,
        "entry_name": "DOM LOVES SHane LONG",
        "event_total": 63,
        "has_played": true,
        "id": 6400249,
        "last_rank": 99296,
        "player_name": "Sean Kelly",
        "rank": 83008,
        "rank_sort": 83085,
        "total": 2334
      },
      {
        "club_badge_src": null,
        "entry": 944016,
        "entry_name": "Balwans",
        "event_total": 60,
        "has_played": true,
        "id": 6501948,
        "last_rank": 92126,
        "player_name": "Petr Vacek",
        "rank": 83008,
        "rank_sort": 83086,
        "total": 2334
      },
      {
        "club_badge_src": null,
        "entry": 1061959,
        "entry_name": "Wheres your caravan?",
        "event_total": 58,
        "has_played": true,
        "id": 7351451,
        "last_rank": 87541,
        "player_name": "Barry Stalgis",
        "rank": 83008,
        "rank_sort": 83087,
        "total": 2334
      },
      {
        "club_badge_src": "https://fantasy.premierleague.com/gcs/plfpl-production-adobe-approved/plfpl-production/1089775/ca8d897b-64ce-4541-a03e-0eaeb7a95b2c.png",
        "entry": 1089775,
        "entry_name": "TheNaturat",
        "event_total": 63,
        "has_played": true,
        "id": 7547379,
        "last_rank": 99296,
        "player_name": "Sebastian Po\u015bwiat",
        "rank": 83008,
        "rank_sort": 83088,
        "total": 2334
      },
      {
        "club_badge_src": null,
        "entry": 1107122,
        "entry_name": "Gandesanlfc",
        "event_total": 52,
        "has_played": true,
        "id": 7668689,
        "last_rank": 58388,
        "player_name": "Espen Andersen",
        "rank": 83008,
        "rank_sort": 83089,
        "total": 2334
      },
      {
        "club_badge_src": null,
        "entry": 1113301,
        "entry_name": "Wrighters Winkers",
        "event_total": 58,
        "has_played": true,
        "id": 7711657,
        "last_rank": 87350,
        "player_name": "Phil Wright",
        "rank": 83008,
        "rank_sort": 83090,
        "total": 2334
      },
      {
        "club_badge_src": "https://fantasy.premierleague.com/gcs/plfpl-production-adobe-approved/plfpl-production/1120631/64a785b3-c006-4c64-bd26-cd268dc99fca.png",
        "entry": 1120631,
        "entry_name": "Salinewin Sporting",
        "event_total": 58,
        "has_played": true,
        "id": 7763629,
        "last_rank": 87074,
        "player_name": "Nikyle Bisnath",
        "rank": 83008,
        "rank_sort": 83091,
        "total": 2334
      },
      {
        "club_badge_src": null,
        "entry": 1122885,
        "entry_name": "\u203c\ufe0fShawberto Carlos\u203c\ufe0f",
        "event_total": 50,
        "has_played": true,
        "id": 7780315,
        "last_rank": 69907,
        "player_name": "\ud83c\uddef\ud83c\uddea  Josh Ozard",
        "rank": 83008,
        "rank_sort": 83092,
        "total": 2334
      },
      {
        "club_badge_src": null,
        "entry": 1160864,
        "entry_name": "Landa XI",
        "event_total": 52,
        "has_played": true,
        "id": 8052801,
        "last_rank": 73975,
        "player_name": "Ajay Landa",
        "rank": 83008,
        "rank_sort": 83093,
        "total": 2334
      },
      {
        "club_badge_src": null,
        "entry": 1172655,
        "entry_name": "Bottomham Hotcurse",
        "event_total": 66,
        "has_played": true,
        "id": 8135281,
        "last_rank": 107485,
        "player_name": "Jovan Ostojic",
        "rank": 83008,
        "rank_sort": 83094,
        "total": 2334
      },
      {
        "club_badge_src": null,
        "entry": 1178151,
        "entry_name": "Kag\u00e9 FC",
        "event_total": 53,
        "has_played": true,
        "id": 8174487,
        "last_rank": 67695,
        "player_name": "Jorry Mweemba",
        "rank": 83008,
        "rank_sort": 83095,
        "total": 2334
      },
      {
        "club_badge_src": null,
        "entry": 1207175,
        "entry_name": "Mustash",
        "event_total": 63,
        "has_played": true,
        "id": 8377676,
        "last_rank": 89426,
        "player_name": "ash hunt",
        "rank": 83008,
        "rank_sort": 83096,
        "total": 2334
      },
      {
        "club_badge_src": null,
        "entry": 1234027,
        "entry_name": "Mehdi FC",
        "event_total": 66,
        "has_played": true,
        "id": 8569313,
        "last_rank": 96374,
        "player_name": "Mehdi Sayad",
        "rank": 83008,
        "rank_sort": 83097,
        "total": 2334
      },
      {
        "club_badge_src": "https://fantasy.premierleague.com/gcs/plfpl-production-adobe-approved/plfpl-production/1237049/686767f7-b30a-477c-be0a-85367337f248.png",
        "entry": 1237049,
        "entry_name": "Onana What's My Name",
        "event_total": 31,
        "has_played": true,
        "id": 8590222,
        "last_rank": 39403,
        "player_name": "Mick Gardner",
        "rank": 83008,
        "rank_sort": 83098,
        "total": 2334
      },
      {
        "club_badge_src": null,
        "entry": 1270196,
        "entry_name": "V\u03b1\u0285\u03b1\u027e M\u03c3\u027e\u0260\u050b\u03c5\u0285\u03b9\u0282",
        "event_total": 63,
        "has_played": true,
        "id": 8825340,
        "last_rank": 89055,
        "player_name": "Mohammed Tayeb",
        "rank": 83008,
        "rank_sort": 83099,
        "total": 2334
      },
      {
        "club_badge_src": null,
        "entry": 1270443,
        "entry_name": "COLLEEMAN FC\ufffd",
        "event_total": 68,
        "has_played": true,
        "id": 8827062,
        "last_rank": 101818,
        "player_name": "Antwi Collins",
        "rank": 83008,
        "rank_sort": 83100,
        "total": 2334
      }
    ]
  }
}