{
  "last_updated_data": "2026-05-24T23:28:17Z",
  "league": {
    "admin_entry": null,
    "closed": false,
    "code_privacy": "p",
    "created": "2025-07-20T23:14:33.933835Z",
    "cup_league": 2815434,
    "has_cup": true,
    "id": 314,
    "league_type": "s",
    "max_entries": null,
    "name": "Overall",
    "rank": null,
    "scoring": "c",
    "start_event": 1
  },
  "new_entries": {
    "has_next": false,
    "page": 1,
    "results": []
  },
  "standings": {
    "has_next": true,
    "page": 1400,
    "results": [
      {
        "club_badge_src": null,
        "entry": 3870148,
        "entry_name": "Initial Draft 0",
        "event_total": 62,
        "has_played": true,
        "id": 29033649,
        "last_rank": 81420,
        "player_name": "Yashiel Shriduth",
        "rank": 69708,
        "rank_sort": 69951,
        "total": 2340
      },
      {
        "club_badge_src": null,
        "entry": 3880346,
        "entry_name": "Calafiorication",
        "event_total": 78,
        "has_played": true,
        "id": 29155855,
        "last_rank": 122988,
        "player_name": "Sean Mulhern",
        "rank": 69708,
        "rank_sort": 69952,
        "total": 2340
      },
      {
        "club_badge_src": null,
        "entry": 3921100,
        "entry_name": "Coleplay",
        "event_total": 57,
        "has_played": true,
        "id": 29485744,
        "last_rank": 70985,
        "player_name": "Joe Oliver",
        "rank": 69708,
        "rank_sort": 69953,
        "total": 2340
      },
      {
        "club_badge_src": null,
        "entry": 3992823,
        "entry_name": "Kwerku's Black Stars",
        "event_total": 77,
        "has_played": true,
        "id": 30066954,
        "last_rank": 120103,
        "player_name": "William Jenkins",
        "rank": 69708,
        "rank_sort": 69954,
        "total": 2340
      },
      {
        "club_badge_src": null,
        "entry": 4011335,
        "entry_name": "FrimPing Pong",
        "event_total": 56,
        "has_played": true,
        "id": 30225147,
        "last_rank": 61411,
        "player_name": "Jared Ellis",
        "rank": 69708,
        "rank_sort": 69955,
        "total": 2340
      },
      {
        "club_badge_src": null,
        "entry": 4019335,
        "entry_name": "Eggy Bread FC",
        "event_total": 64,
        "has_played": true,
        "id": 30291981,
        "last_rank": 85932,
        "player_name": "Josh Waters",
        "rank": 69708,
        "rank_sort": 69956,
        "total": 2340
      },
      {
        "club_badge_src": null,
        "entry": 4067180,
        "entry_name": "Mro\u017ee",
        "event_total": 57,
        "has_played": true,
        "id": 30695798,
        "last_rank": 70985,
        "player_name": "Mojmir Keselak",
        "rank": 69708,
        "rank_sort": 69957,
        "total": 2340
      },
      {
        "club_badge_src": null,
        "entry": 4093862,
        "entry_name": "fu\u00dfballmannschaft",
        "event_total": 54,
        "has_played": true,
        "id": 30910446,
        "last_rank": 64830,
        "player_name": "Jordan Stratton",
        "rank": 69708,
        "rank_sort": 69958,
        "total": 2340
      },
      {
        "club_badge_src": null,
        "entry": 4107001,
        "entry_name": "Cunha Matata",
        "event_total": 70,
        "has_played": true,
        "id": 31015540,
        "last_rank": 90746,
        "player_name": "David Barlow",
        "rank": 69708,
        "rank_sort": 69959,
        "total": 2340
      },
      {
        "club_badge_src": null,
        "entry": 4132713,
        "entry_name": "The MC Grammar 5",
        "event_total": 76,
        "has_played": true,
        "id": 31230540,
        "last_rank": 117423,
        "player_name": "Ray Flack",
        "rank": 69708,
        "rank_sort": 69960,
        "total": 2340
      },
      {
        "club_badge_src": null,
        "entry": 4147186,
        "entry_name": "Eze does it",
        "event_total": 71,
        "has_played": true,
        "id": 31345159,
        "last_rank": 103526,
        "player_name": "James Tickle",
        "rank": 69708,
        "rank_sort": 69961,
        "total": 2340
      },
      {
        "club_badge_src": null,
        "entry": 4230108,
        "entry_name": "The SurViVors",
        "event_total": 74,
        "has_played": true,
        "id": 32050361,
        "last_rank": 100572,
        "player_name": "Mina Nashat",
        "rank": 69708,
        "rank_sort": 69962,
        "total": 2340
      },
      {
        "club_badge_src": "https://fantasy.premierleague.com/gcs/plfpl-production-adobe-approved/plfpl-production/4375226/4abc303e-a590-4d5a-875c-633611e68118.png",
        "entry": 4375226,
        "entry_name": "Benched by Ben",
        "event_total": 64,
        "has_played": true,
        "id": 33244025,
        "last_rank": 86304,
        "player_name": "Ben Franklin",
        "rank": 69708,
        "rank_sort": 69963,
        "total": 2340
      },
      {
        "club_badge_src": null,
        "entry": 4386161,
        "entry_name": "Tariff Town FC",
        "event_total": 64,
        "has_played": true,
        "id": 33339718,
        "last_rank": 86054,
        "player_name": "Mike Pimm",
        "rank": 69708,
        "rank_sort": 69964,
        "total": 2340
      },
      {
        "club_badge_src": null,
        "entry": 4408925,
        "entry_name": "Madla IL",
        "event_total": 52,
        "has_played": true,
        "id": 33537344,
        "last_rank": 61950,
        "player_name": "Fredrik Haugvaldstad",
        "rank": 69708,
        "rank_sort": 69965,
        "total": 2340
      },
      {
        "club_badge_src": null,
        "entry": 4458292,
        "entry_name": "EB's minions",
        "event_total": 57,
        "has_played": true,
        "id": 33963405,
        "last_rank": 70985,
        "player_name": "Edward Brett",
        "rank": 69708,
        "rank_sort": 69966,
        "total": 2340
      },
      {
        "club_badge_src": null,
        "entry": 4477190,
        "entry_name": "SamBack",
        "event_total": 71,
        "has_played": true,
        "id": 34120363,
        "last_rank": 103130,
        "player_name": "Sami Machta",
        "rank": 69708,
        "rank_sort": 69967,
        "total": 2340
      },
      {
        "club_badge_src": null,
        "entry": 4506622,
        "entry_name": "Ctrl + AI + Chill",
        "event_total": 54,
        "has_played": true,
        "id": 34360813,
        "last_rank": 64943,
        "player_name": "Ganesh Sapkota",
        "rank": 69708,
        "rank_sort": 69968,
        "total": 2340
      },
      {
        "club_badge_src": null,
        "entry": 4532689,
        "entry_name": "Jaxon Fc",
        "event_total": 50,
        "has_played": true,
        "id": 34575480,
        "last_rank": 58071,
        "player_name": "Michael Fulton",
        "rank": 69708,
        "rank_sort": 69969,
        "total": 2340
      },
      {
        "club_badge_src": null,
        "entry": 4579519,
        "entry_name": "Duck Duck Goose FC",
        "event_total": 58,
        "has_played": true,
        "id": 34958708,
        "last_rank": 73038,
        "player_name": "Gus McIntosh",
        "rank": 69708,
        "rank_sort": 69970,
        "total": 2340
      },
      {
        "club_badge_src": null,
        "entry": 4625723,
        "entry_name": "Sudanesisk Tiki-Taka",
        "event_total": 71,
        "has_played": true,
        "id": 35364874,
        "last_rank": 103526,
        "player_name": "Josef Yousif",
        "rank": 69708,
        "rank_sort": 69971,
        "total": 2340
      },
      {
        "club_badge_src": null,
        "entry": 4680846,
        "entry_name": "Abby FC",
        "event_total": 54,
        "has_played": true,
        "id": 35866835,
        "last_rank": 65475,
        "player_name": "Abayomi George",
        "rank": 69708,
        "rank_sort": 69972,
        "total": 2340
      },
      {
        "club_badge_src": null,
        "entry": 4706312,
        "entry_name": "FC Tiny Dancer",
        "event_total": 58,
        "has_played": true,
        "id": 36088181,
        "last_rank": 72815,
        "player_name": "Alex Kostalas",
        "rank": 69708,
        "rank_sort": 69973,
        "total": 2340
      },
      {
        "club_badge_src": null,
        "entry": 4755438,
        "entry_name": "Shamiltons fc",
        "event_total": 64,
        "has_played": true,
        "id": 36594563,
        "last_rank": 86054,
        "player_name": "Simon Hamilton",
        "rank": 69708,
        "rank_sort": 69974,
        "total": 2340
      },
      {
        "club_badge_src": "https://fantasy.premierleague.com/gcs/plfpl-production-adobe-approved/plfpl-production/4808915/631cfb31-75dd-4ca9-8a96-d77b59e9bc1a.png",
        "entry": 4808915,
        "entry_name": "my chest are united",
        "event_total": 68,
        "has_played": true,
        "id": 37027804,
        "last_rank": 95890,
        "player_name": "Jay baba",
        "rank": 69708,
        "rank_sort": 69975,
        "total": 2340
      },
      {
        "club_badge_src": null,
        "entry": 4809152,
        "entry_name": "Megoo",
        "event_total": 73,
        "has_played": true,
        "id": 37029653,
        "last_rank": 108689,
        "player_name": "Ahmed Magdy",
        "rank": 69708,
        "rank_sort": 69976,
        "total": 2340
      },
      {
        "club_badge_src": null,
        "entry": 4847530,
        "entry_name": "Havana Onana",
        "event_total": 68,
        "has_played": true,
        "id": 37345628,
        "last_rank": 95890,
        "player_name": "Michael Blanchard",
        "rank": 69708,
        "rank_sort": 69977,
        "total": 2340
      },
      {
        "club_badge_src": null,
        "entry": 4871260,
        "entry_name": "Palmer violets",
        "event_total": 43,
        "has_played": true,
        "id": 37547507,
        "last_rank": 46839,
        "player_name": "Jamie Allinson",
        "rank": 69708,
        "rank_sort": 69978,
        "total": 2340
      },
      {
        "club_badge_src": null,
        "entry": 4872664,
        "entry_name": "SepoysXI",
        "event_total": 59,
        "has_played": true,
        "id": 37559316,
        "last_rank": 75139,
        "player_name": "Sambhav Jain",
        "rank": 69708,
        "rank_sort": 69979,
        "total": 2340
      },
      {
        "club_badge_src": null,
        "entry": 4906467,
        "entry_name": "hamaydlshad",
        "event_total": 49,
        "has_played": true,
        "id": 37836410,
        "last_rank": 56708,
        "player_name": "Hama Dlshad",
        "rank": 69708,
        "rank_sort": 69980,
        "total": 2340
      },
      {
        "club_badge_src": null,
        "entry": 4909796,
        "entry_name": "Sakaficial Lambs",
        "event_total": 64,
        "has_played": true,
        "id": 37863174,
        "last_rank": 86054,
        "player_name": "Wayne Richardson",
        "rank": 69708,
        "rank_sort": 69981,
        "total": 2340
      },
      {
        "club_badge_src": "https://fantasy.premierleague.com/gcs/plfpl-production-adobe-approved/plfpl-production/4963645/632749d7-57a7-4959-a100-c8a4f753e279.png",
        "entry": 4963645,
        "entry_name": "King Power Rangers",
        "event_total": 33,
        "has_played": true,
        "id": 38304712,
        "last_rank": 33936,
        "player_name": "Asim Mulla",
        "rank": 69708,
        "rank_sort": 69982,
        "total": 2340
      },
      {
        "club_badge_src": null,
        "entry": 5005640,
        "entry_name": "Sveistrup FC",
        "event_total": 69,
        "has_played": true,
        "id": 38652640,
        "last_rank": 98073,
        "player_name": "Kasper Sveistrup",
        "rank": 69708,
        "rank_sort": 69983,
        "total": 2340
      },
      {
        "club_badge_src": null,
        "entry": 5047526,
        "entry_name": "Sonny & Sch\u00e4r",
        "event_total": 78,
        "has_played": true,
        "id": 38994787,
        "last_rank": 122988,
        "player_name": "Cameron Brown",
        "rank": 69708,
        "rank_sort": 69984,
        "total": 2340
      },
      {
        "club_badge_src": null,
        "entry": 5081069,
        "entry_name": "Absolutely Fabianski",
        "event_total": 67,
        "has_played": true,
        "id": 39270020,
        "last_rank": 93186,
        "player_name": "Michael Townsend",
        "rank": 69708,
        "rank_sort": 69985,
        "total": 2340
      },
      {
        "club_badge_src": null,
        "entry": 5137092,
        "entry_name": "What Say You?",
        "event_total": 72,
        "has_played": true,
        "id": 39734850,
        "last_rank": 105748,
        "player_name": "Adam Mia",
        "rank": 69708,
        "rank_sort": 69986,
        "total": 2340
      },
      {
        "club_badge_src": null,
        "entry": 5137662,
        "entry_name": "Dockers Never Walk",
        "event_total": 62,
        "has_played": true,
        "id": 39740072,
        "last_rank": 81646,
        "player_name": "James Johnston",
        "rank": 69708,
        "rank_sort": 69987,
        "total": 2340
      },
      {
        "club_badge_src": null,
        "entry": 5191657,
        "entry_name": "Aug's Golazo",
        "event_total": 45,
        "has_played": true,
        "id": 40193589,
        "last_rank": 49880,
        "player_name": "Zhiao Yuan",
        "rank": 69708,
        "rank_sort": 69988,
        "total": 2340
      },
      {
        "club_badge_src": "https://fantasy.premierleague.com/gcs/plfpl-production-adobe-approved/plfpl-production/5234857/33291f64-6364-455d-ab5e-1b5ffdc64bc2.png",
        "entry": 5234857,
        "entry_name": "W\u00e4\u00d1T\u00e8D",
        "event_total": 48,
        "has_played": true,
        "id": 40566232,
        "last_rank": 54667,
        "player_name": "\u0e2d\u0e34\u0e17\u0e18\u0e34\u0e1e\u0e31\u0e17\u0e23\u0e4c \u0e2a\u0e38\u0e27\u0e23\u0e23\u0e13\u0e28\u0e34\u0e25\u0e1b\u0e4c",
        "rank": 69708,
        "rank_sort": 69989,
        "total": 2340
      },
      {
        "club_badge_src": null,
        "entry": 5269609,
        "entry_name": "Lakeman's Lakes",
        "event_total": 57,
        "has_played": true,
        "id": 40842845,
        "last_rank": 70757,
        "player_name": "Nicholas Lakeman",
        "rank": 69708,
        "rank_sort": 69990,
        "total": 2340
      },
      {
        "club_badge_src": null,
        "entry": 5303068,
        "entry_name": "Aimee Sed Score",
        "event_total": 41,
        "has_played": true,
        "id": 41106968,
        "last_rank": 43849,
        "player_name": "Aimee Seddon",
        "rank": 69708,
        "rank_sort": 69991,
        "total": 2340
      },
      {
        "club_badge_src": null,
        "entry": 5315314,
        "entry_name": "Eamonnhighagain",
        "event_total": 65,
        "has_played": true,
        "id": 41202772,
        "last_rank": 88594,
        "player_name": "Eamonn Oakes",
        "rank": 69708,
        "rank_sort": 69992,
        "total": 2340
      },
      {
        "club_badge_src": null,
        "entry": 5321348,
        "entry_name": "El mejor",
        "event_total": 52,
        "has_played": true,
        "id": 41251311,
        "last_rank": 61411,
        "player_name": "Esam Alotaibi",
        "rank": 69708,
        "rank_sort": 69993,
        "total": 2340
      },
      {
        "club_badge_src": null,
        "entry": 5455819,
        "entry_name": "Paulo Dyballer",
        "event_total": 54,
        "has_played": true,
        "id": 42457123,
        "last_rank": 65163,
        "player_name": "Che Derber",
        "rank": 69708,
        "rank_sort": 69994,
        "total": 2340
      },
      {
        "club_badge_src": null,
        "entry": 5489643,
        "entry_name": "Ri ki ki",
        "event_total": 66,
        "has_played": true,
        "id": 42754351,
        "last_rank": 91006,
        "player_name": "Soma Szuhodovszki",
        "rank": 69708,
        "rank_sort": 69995,
        "total": 2340
      },
      {
        "club_badge_src": null,
        "entry": 5516480,
        "entry_name": "Soma Ahmad",
        "event_total": 39,
        "has_played": true,
        "id": 43009221,
        "last_rank": 41324,
        "player_name": "Soma Messi",
        "rank": 69708,
        "rank_sort": 69996,
        "total": 2340
      },
      {
        "club_badge_src": null,
        "entry": 5519715,
        "entry_name": "Prashs Pearlers",
        "event_total": 47,
        "has_played": true,
        "id": 43039709,
        "last_rank": 53023,
        "player_name": "Prashant Patel",
        "rank": 69708,
        "rank_sort": 69997,
        "total": 2340
      },
      {
        "club_badge_src": null,
        "entry": 5543195,
        "entry_name": "Omar FC",
        "event_total": 51,
        "has_played": true,
        "id": 43255299,
        "last_rank": 59813,
        "player_name": "Omar Islam",
        "rank": 69708,
        "rank_sort": 69998,
        "total": 2340
      },
      {
        "club_badge_src": null,
        "entry": 5603356,
        "entry_name": "Royal Roffa",
        "event_total": 62,
        "has_played": true,
        "id": 43785528,
        "last_rank": 81312,
        "player_name": "Bryant V",
        "rank": 69708,
        "rank_sort": 69999,
        "total": 2340
      },
      {
        "club_badge_src": null,
        "entry": 5608843,
        "entry_name": "Dromin Slashers",
        "event_total": 68,
        "has_played": true,
        "id": 43833143,
        "last_rank": 95464,
        "player_name": "Thomas Doyle",
        "rank": 69708,
        "rank_sort": 70000,
        "total": 2340
      }
    ]
  }
}