{
  "last_updated_data": "2026-05-24T23:28:17Z",
  "league": {
    "admin_entry": null,
    "closed": false,
    "code_privacy": "p",
    "created": "2025-07-20T23:14:33.933835Z",
    "cup_league": 2815434,
    "has_cup": true,
    "id": 314,
    "league_type": "s",
    "max_entries": null,
    "name": "Overall",
    "rank": null,
    "scoring": "c",
    "start_event": 1
  },
  "new_entries": {
    "has_next": false,
    "page": 1,
    "results": []
  },
  "standings": {
    "has_next": true,
    "page": 1128,
    "results": [
      {
        "club_badge_src": null,
        "entry": 1768083,
        "entry_name": "EggFu FC",
        "event_total": 67,
        "has_played": true,
        "id": 12420081,
        "last_rank": 59632,
        "player_name": "Tor Helleland",
        "rank": 56235,
        "rank_sort": 56351,
        "total": 2348
      },
      {
        "club_badge_src": null,
        "entry": 1806834,
        "entry_name": "Go with the Flo",
        "event_total": 54,
        "has_played": true,
        "id": 12702666,
        "last_rank": 51720,
        "player_name": "Gerti Sadiku",
        "rank": 56235,
        "rank_sort": 56352,
        "total": 2348
      },
      {
        "club_badge_src": null,
        "entry": 1815508,
        "entry_name": "ambrose united",
        "event_total": 63,
        "has_played": true,
        "id": 12766793,
        "last_rank": 60168,
        "player_name": "Ambrose Hau",
        "rank": 56235,
        "rank_sort": 56353,
        "total": 2348
      },
      {
        "club_badge_src": null,
        "entry": 1842283,
        "entry_name": "No Partey, No Party",
        "event_total": 71,
        "has_played": true,
        "id": 12961438,
        "last_rank": 84360,
        "player_name": "Yujie Cheng",
        "rank": 56235,
        "rank_sort": 56354,
        "total": 2348
      },
      {
        "club_badge_src": null,
        "entry": 1843121,
        "entry_name": "FC \u017daloudci",
        "event_total": 59,
        "has_played": true,
        "id": 12967541,
        "last_rank": 60462,
        "player_name": "Radek Ferkl",
        "rank": 56235,
        "rank_sort": 56355,
        "total": 2348
      },
      {
        "club_badge_src": null,
        "entry": 1848201,
        "entry_name": "X",
        "event_total": 49,
        "has_played": true,
        "id": 13004793,
        "last_rank": 44048,
        "player_name": "Aaron Brady",
        "rank": 56235,
        "rank_sort": 56356,
        "total": 2348
      },
      {
        "club_badge_src": null,
        "entry": 1878277,
        "entry_name": "Robbie",
        "event_total": 33,
        "has_played": true,
        "id": 13230679,
        "last_rank": 22426,
        "player_name": "Robert Perry",
        "rank": 56235,
        "rank_sort": 56357,
        "total": 2348
      },
      {
        "club_badge_src": "https://fantasy.premierleague.com/gcs/plfpl-production-adobe-approved/plfpl-production/1905366/f2ae0db5-5b95-4305-8604-4a36b812b624.png",
        "entry": 1905366,
        "entry_name": "Fl\u00f6jtarna",
        "event_total": 55,
        "has_played": true,
        "id": 13432273,
        "last_rank": 53621,
        "player_name": "Erik Lerneryd",
        "rank": 56235,
        "rank_sort": 56358,
        "total": 2348
      },
      {
        "club_badge_src": null,
        "entry": 1950038,
        "entry_name": "Mind the Gap FC",
        "event_total": 67,
        "has_played": true,
        "id": 13755569,
        "last_rank": 75139,
        "player_name": "Daniel Cullen",
        "rank": 56235,
        "rank_sort": 56359,
        "total": 2348
      },
      {
        "club_badge_src": null,
        "entry": 1972220,
        "entry_name": "Template Tomlin",
        "event_total": 68,
        "has_played": true,
        "id": 13920326,
        "last_rank": 69323,
        "player_name": "Benjamin Charles Tomlinson",
        "rank": 56235,
        "rank_sort": 56360,
        "total": 2348
      },
      {
        "club_badge_src": null,
        "entry": 2002159,
        "entry_name": "SCP777",
        "event_total": 62,
        "has_played": true,
        "id": 14154700,
        "last_rank": 65796,
        "player_name": "Deepak Sharma",
        "rank": 56235,
        "rank_sort": 56361,
        "total": 2348
      },
      {
        "club_badge_src": null,
        "entry": 2008684,
        "entry_name": "Silva Lining",
        "event_total": 51,
        "has_played": true,
        "id": 14202815,
        "last_rank": 47163,
        "player_name": "Hussain Ashraf",
        "rank": 56235,
        "rank_sort": 56362,
        "total": 2348
      },
      {
        "club_badge_src": null,
        "entry": 2021476,
        "entry_name": "shaughx11",
        "event_total": 65,
        "has_played": true,
        "id": 14304220,
        "last_rank": 71386,
        "player_name": "Samuel Haugh",
        "rank": 56235,
        "rank_sort": 56363,
        "total": 2348
      },
      {
        "club_badge_src": null,
        "entry": 2064359,
        "entry_name": "Red Pants Return",
        "event_total": 55,
        "has_played": true,
        "id": 14628956,
        "last_rank": 53023,
        "player_name": "Jon Crick",
        "rank": 56235,
        "rank_sort": 56364,
        "total": 2348
      },
      {
        "club_badge_src": "https://fantasy.premierleague.com/gcs/plfpl-production-adobe-approved/plfpl-production/2074565/e91403f7-fc96-4952-8671-9dceaa90617c.png",
        "entry": 2074565,
        "entry_name": "Buttered Toast",
        "event_total": 68,
        "has_played": true,
        "id": 14708652,
        "last_rank": 77676,
        "player_name": "Conal Houstoun",
        "rank": 56235,
        "rank_sort": 56365,
        "total": 2348
      },
      {
        "club_badge_src": null,
        "entry": 2078635,
        "entry_name": "Haven't got a Kalou",
        "event_total": 27,
        "has_played": true,
        "id": 14738574,
        "last_rank": 21159,
        "player_name": "Eddy Mearns",
        "rank": 56235,
        "rank_sort": 56366,
        "total": 2348
      },
      {
        "club_badge_src": null,
        "entry": 2096742,
        "entry_name": "isaa77\ufffd",
        "event_total": 43,
        "has_played": true,
        "id": 14876936,
        "last_rank": 36831,
        "player_name": "issa 77 \ud83c\uddf4\ud83c\uddf2",
        "rank": 56235,
        "rank_sort": 56367,
        "total": 2348
      },
      {
        "club_badge_src": null,
        "entry": 2102747,
        "entry_name": "Chippy Chips",
        "event_total": 62,
        "has_played": true,
        "id": 14921858,
        "last_rank": 58388,
        "player_name": "Sean Tupman",
        "rank": 56235,
        "rank_sort": 56368,
        "total": 2348
      },
      {
        "club_badge_src": null,
        "entry": 2108813,
        "entry_name": "CS Ballers",
        "event_total": 80,
        "has_played": true,
        "id": 14967350,
        "last_rank": 107162,
        "player_name": "Charles Stone",
        "rank": 56235,
        "rank_sort": 56369,
        "total": 2348
      },
      {
        "club_badge_src": null,
        "entry": 2252147,
        "entry_name": "I don't give a Lamb",
        "event_total": 61,
        "has_played": true,
        "id": 16048949,
        "last_rank": 64005,
        "player_name": "Ken Lam",
        "rank": 56235,
        "rank_sort": 56370,
        "total": 2348
      },
      {
        "club_badge_src": null,
        "entry": 2394153,
        "entry_name": "LSC United",
        "event_total": 67,
        "has_played": true,
        "id": 17103205,
        "last_rank": 76128,
        "player_name": "Kacper Klasi\u0144ski",
        "rank": 56235,
        "rank_sort": 56371,
        "total": 2348
      },
      {
        "club_badge_src": "https://fantasy.premierleague.com/gcs/plfpl-production-adobe-approved/plfpl-production/2394343/6ff4a5b9-e06f-43f0-9e52-1b9d839e31fc.png",
        "entry": 2394343,
        "entry_name": "google ai",
        "event_total": 51,
        "has_played": true,
        "id": 17104567,
        "last_rank": 47163,
        "player_name": "Knut Loite",
        "rank": 56235,
        "rank_sort": 56372,
        "total": 2348
      },
      {
        "club_badge_src": null,
        "entry": 2581885,
        "entry_name": "Pepto-Dismal",
        "event_total": 58,
        "has_played": true,
        "id": 18532025,
        "last_rank": 51720,
        "player_name": "Joshua Sawtell",
        "rank": 56235,
        "rank_sort": 56373,
        "total": 2348
      },
      {
        "club_badge_src": null,
        "entry": 2681413,
        "entry_name": "eoghriginals",
        "event_total": 60,
        "has_played": true,
        "id": 19285097,
        "last_rank": 62223,
        "player_name": "Eoghan Harkin",
        "rank": 56235,
        "rank_sort": 56374,
        "total": 2348
      },
      {
        "club_badge_src": null,
        "entry": 2684479,
        "entry_name": "SoltaniDesign",
        "event_total": 75,
        "has_played": true,
        "id": 19307477,
        "last_rank": 93443,
        "player_name": "alireza poursoltani",
        "rank": 56235,
        "rank_sort": 56375,
        "total": 2348
      },
      {
        "club_badge_src": "https://fantasy.premierleague.com/gcs/plfpl-production-adobe-approved/plfpl-production/2713355/d25a4564-c78e-41d3-89e9-9622ebee6428.png",
        "entry": 2713355,
        "entry_name": "Arabest United",
        "event_total": 43,
        "has_played": true,
        "id": 19522513,
        "last_rank": 36831,
        "player_name": "Derek Kirk",
        "rank": 56235,
        "rank_sort": 56376,
        "total": 2348
      },
      {
        "club_badge_src": null,
        "entry": 2752475,
        "entry_name": "Could Be Wirtz",
        "event_total": 57,
        "has_played": true,
        "id": 20013855,
        "last_rank": 50199,
        "player_name": "Bradley Carroll",
        "rank": 56235,
        "rank_sort": 56377,
        "total": 2348
      },
      {
        "club_badge_src": "https://fantasy.premierleague.com/gcs/plfpl-production-adobe-approved/plfpl-production/2791291/b5a76ff2-b8ff-4cbb-bfeb-2cb3f7d4f500.png",
        "entry": 2791291,
        "entry_name": "Eze Come, Eze Go",
        "event_total": 71,
        "has_played": true,
        "id": 20379175,
        "last_rank": 84360,
        "player_name": "Ga\u0161per Torkar",
        "rank": 56235,
        "rank_sort": 56378,
        "total": 2348
      },
      {
        "club_badge_src": null,
        "entry": 2813333,
        "entry_name": "FirstThePoints",
        "event_total": 44,
        "has_played": true,
        "id": 20548491,
        "last_rank": 38016,
        "player_name": "Peter Owen",
        "rank": 56235,
        "rank_sort": 56379,
        "total": 2348
      },
      {
        "club_badge_src": "https://fantasy.premierleague.com/gcs/plfpl-production-adobe-approved/plfpl-production/2820736/39e63122-ed47-4f63-8d2b-793661c31d67.png",
        "entry": 2820736,
        "entry_name": "Wirtz the goal flirt",
        "event_total": 47,
        "has_played": true,
        "id": 20607118,
        "last_rank": 41617,
        "player_name": "Chad Pethybridge",
        "rank": 56235,
        "rank_sort": 56380,
        "total": 2348
      },
      {
        "club_badge_src": "https://fantasy.premierleague.com/gcs/plfpl-production-adobe-approved/plfpl-production/2873452/79f8d5df-1b7e-41d7-921c-6d59ae3ca217.png",
        "entry": 2873452,
        "entry_name": "BajaderkaFC",
        "event_total": 59,
        "has_played": true,
        "id": 21026056,
        "last_rank": 60168,
        "player_name": "Marcin Augustyn",
        "rank": 56235,
        "rank_sort": 56381,
        "total": 2348
      },
      {
        "club_badge_src": null,
        "entry": 3000548,
        "entry_name": "AlwaysNextYearFC",
        "event_total": 46,
        "has_played": true,
        "id": 22070172,
        "last_rank": 35424,
        "player_name": "Russ Jones",
        "rank": 56235,
        "rank_sort": 56382,
        "total": 2348
      },
      {
        "club_badge_src": null,
        "entry": 3085455,
        "entry_name": "Rolf tutched myarris",
        "event_total": 59,
        "has_played": true,
        "id": 22732976,
        "last_rank": 60462,
        "player_name": "Andy Cox",
        "rank": 56235,
        "rank_sort": 56383,
        "total": 2348
      },
      {
        "club_badge_src": null,
        "entry": 3129187,
        "entry_name": "Capitano's Captains",
        "event_total": 55,
        "has_played": true,
        "id": 23095374,
        "last_rank": 53345,
        "player_name": "Stijn van der Klis",
        "rank": 56235,
        "rank_sort": 56384,
        "total": 2348
      },
      {
        "club_badge_src": null,
        "entry": 3173499,
        "entry_name": "60 M Down The Drain",
        "event_total": 61,
        "has_played": true,
        "id": 23447983,
        "last_rank": 56708,
        "player_name": "Georgi Ermenkov",
        "rank": 56235,
        "rank_sort": 56385,
        "total": 2348
      },
      {
        "club_badge_src": null,
        "entry": 3207121,
        "entry_name": "kaffeholmen United",
        "event_total": 71,
        "has_played": true,
        "id": 23709843,
        "last_rank": 84731,
        "player_name": "\u00c5shild Haga",
        "rank": 56235,
        "rank_sort": 56386,
        "total": 2348
      },
      {
        "club_badge_src": null,
        "entry": 3239556,
        "entry_name": "Shooter McGavin",
        "event_total": 62,
        "has_played": true,
        "id": 23961763,
        "last_rank": 65796,
        "player_name": "Matty Harrison",
        "rank": 56235,
        "rank_sort": 56387,
        "total": 2348
      },
      {
        "club_badge_src": null,
        "entry": 3304923,
        "entry_name": "MuthamiFc",
        "event_total": 79,
        "has_played": true,
        "id": 24479864,
        "last_rank": 104712,
        "player_name": "Leon muthami",
        "rank": 56235,
        "rank_sort": 56388,
        "total": 2348
      },
      {
        "club_badge_src": null,
        "entry": 3342200,
        "entry_name": "Bowen Arrows",
        "event_total": 65,
        "has_played": true,
        "id": 24790270,
        "last_rank": 71713,
        "player_name": "Joe Collin",
        "rank": 56235,
        "rank_sort": 56389,
        "total": 2348
      },
      {
        "club_badge_src": "https://fantasy.premierleague.com/gcs/plfpl-production-adobe-approved/plfpl-production/3356086/f33d892e-2092-4cb3-8958-ef681997c94d.png",
        "entry": 3356086,
        "entry_name": "Tha Barbary Lion",
        "event_total": 41,
        "has_played": true,
        "id": 24899188,
        "last_rank": 34578,
        "player_name": "Rob Unstoppable",
        "rank": 56235,
        "rank_sort": 56390,
        "total": 2348
      },
      {
        "club_badge_src": null,
        "entry": 3403248,
        "entry_name": "ELAND FC",
        "event_total": 41,
        "has_played": true,
        "id": 25269517,
        "last_rank": 34578,
        "player_name": "Darrell Matapure",
        "rank": 56235,
        "rank_sort": 56391,
        "total": 2348
      },
      {
        "club_badge_src": null,
        "entry": 3412544,
        "entry_name": "LNS",
        "event_total": 58,
        "has_played": true,
        "id": 25343825,
        "last_rank": 58688,
        "player_name": "Richard Barber",
        "rank": 56235,
        "rank_sort": 56392,
        "total": 2348
      },
      {
        "club_badge_src": null,
        "entry": 3476444,
        "entry_name": "Pallys 11",
        "event_total": 52,
        "has_played": true,
        "id": 25848720,
        "last_rank": 48898,
        "player_name": "Sukhpal Thandi",
        "rank": 56235,
        "rank_sort": 56393,
        "total": 2348
      },
      {
        "club_badge_src": null,
        "entry": 3477408,
        "entry_name": "saka potaotes",
        "event_total": 47,
        "has_played": true,
        "id": 25856344,
        "last_rank": 41967,
        "player_name": "Hayley Moxom",
        "rank": 56235,
        "rank_sort": 56394,
        "total": 2348
      },
      {
        "club_badge_src": null,
        "entry": 3493794,
        "entry_name": "Grandekhui",
        "event_total": 73,
        "has_played": true,
        "id": 25986689,
        "last_rank": 70985,
        "player_name": "neofitos kouzalis",
        "rank": 56235,
        "rank_sort": 56395,
        "total": 2348
      },
      {
        "club_badge_src": null,
        "entry": 3598500,
        "entry_name": "Kinder Mbeumo",
        "event_total": 59,
        "has_played": true,
        "id": 26800939,
        "last_rank": 60462,
        "player_name": "Asad Ahmed",
        "rank": 56235,
        "rank_sort": 56396,
        "total": 2348
      },
      {
        "club_badge_src": null,
        "entry": 3634434,
        "entry_name": "Drazzers FC",
        "event_total": 63,
        "has_played": true,
        "id": 27084177,
        "last_rank": 67695,
        "player_name": "Chidera Chukwuka",
        "rank": 56235,
        "rank_sort": 56397,
        "total": 2348
      },
      {
        "club_badge_src": null,
        "entry": 3825124,
        "entry_name": "Abdulaziz team",
        "event_total": 62,
        "has_played": true,
        "id": 28611021,
        "last_rank": 58388,
        "player_name": "Abdu laziz",
        "rank": 56235,
        "rank_sort": 56398,
        "total": 2348
      },
      {
        "club_badge_src": null,
        "entry": 3828505,
        "entry_name": "Dad's Cold Demons",
        "event_total": 52,
        "has_played": true,
        "id": 28638434,
        "last_rank": 48898,
        "player_name": "Colin Hirsch",
        "rank": 56235,
        "rank_sort": 56399,
        "total": 2348
      },
      {
        "club_badge_src": null,
        "entry": 3830302,
        "entry_name": "Jo's",
        "event_total": 75,
        "has_played": true,
        "id": 28652504,
        "last_rank": 94537,
        "player_name": "Johann d\u2019Almeida",
        "rank": 56235,
        "rank_sort": 56400,
        "total": 2348
      }
    ]
  }
}