{
  "last_updated_data": "2026-05-24T23:28:17Z",
  "league": {
    "admin_entry": null,
    "closed": false,
    "code_privacy": "p",
    "created": "2025-07-20T23:14:33.933835Z",
    "cup_league": 2815434,
    "has_cup": true,
    "id": 314,
    "league_type": "s",
    "max_entries": null,
    "name": "Overall",
    "rank": null,
    "scoring": "c",
    "start_event": 1
  },
  "new_entries": {
    "has_next": false,
    "page": 1,
    "results": []
  },
  "standings": {
    "has_next": true,
    "page": 932,
    "results": [
      {
        "club_badge_src": null,
        "entry": 1153654,
        "entry_name": "Diouf ink I'll win?",
        "event_total": 58,
        "has_played": true,
        "id": 7999589,
        "last_rank": 48363,
        "player_name": "Ben Holdstock-Brown",
        "rank": 46464,
        "rank_sort": 46551,
        "total": 2354
      },
      {
        "club_badge_src": null,
        "entry": 1165391,
        "entry_name": "rompipalle",
        "event_total": 49,
        "has_played": true,
        "id": 8084251,
        "last_rank": 36348,
        "player_name": "Stefano Greco",
        "rank": 46464,
        "rank_sort": 46552,
        "total": 2354
      },
      {
        "club_badge_src": null,
        "entry": 1210107,
        "entry_name": "PepperNoni Madueke",
        "event_total": 64,
        "has_played": true,
        "id": 8399018,
        "last_rank": 57857,
        "player_name": "Eoghan Mc Donagh",
        "rank": 46464,
        "rank_sort": 46553,
        "total": 2354
      },
      {
        "club_badge_src": "https://fantasy.premierleague.com/gcs/plfpl-production-adobe-approved/plfpl-production/1242319/d2646e8f-3bf0-4f6a-b02f-42b03ea6bcea.png",
        "entry": 1242319,
        "entry_name": "EL CUCUY CSO",
        "event_total": 69,
        "has_played": true,
        "id": 8627793,
        "last_rank": 66848,
        "player_name": "Chris Forsman",
        "rank": 46464,
        "rank_sort": 46554,
        "total": 2354
      },
      {
        "club_badge_src": null,
        "entry": 1246628,
        "entry_name": "Pain In Dias",
        "event_total": 55,
        "has_played": true,
        "id": 8657954,
        "last_rank": 44048,
        "player_name": "James Taylor",
        "rank": 46464,
        "rank_sort": 46555,
        "total": 2354
      },
      {
        "club_badge_src": "https://fantasy.premierleague.com/gcs/plfpl-production-adobe-approved/plfpl-production/1277021/d99ebd6d-c874-4d48-baba-7f16375b10bb.png",
        "entry": 1277021,
        "entry_name": "100 Acre Albion",
        "event_total": 76,
        "has_played": true,
        "id": 8873628,
        "last_rank": 81211,
        "player_name": "Romy Hoban",
        "rank": 46464,
        "rank_sort": 46556,
        "total": 2354
      },
      {
        "club_badge_src": null,
        "entry": 1280955,
        "entry_name": "Big Mama's Army",
        "event_total": 71,
        "has_played": true,
        "id": 8900996,
        "last_rank": 70985,
        "player_name": "Madison McGrath",
        "rank": 46464,
        "rank_sort": 46557,
        "total": 2354
      },
      {
        "club_badge_src": null,
        "entry": 1291516,
        "entry_name": "Earleys 11",
        "event_total": 44,
        "has_played": true,
        "id": 8974530,
        "last_rank": 30600,
        "player_name": "Eoin Earley",
        "rank": 46464,
        "rank_sort": 46558,
        "total": 2354
      },
      {
        "club_badge_src": "https://fantasy.premierleague.com/gcs/plfpl-production-adobe-approved/plfpl-production/1355224/c1a0b32c-41ed-4e9b-a363-25077f5f8a71.png",
        "entry": 1355224,
        "entry_name": "Lemur FC",
        "event_total": 62,
        "has_played": true,
        "id": 9420672,
        "last_rank": 54494,
        "player_name": "Calvin Ryan",
        "rank": 46464,
        "rank_sort": 46559,
        "total": 2354
      },
      {
        "club_badge_src": null,
        "entry": 1398627,
        "entry_name": "Inter Mittent",
        "event_total": 55,
        "has_played": true,
        "id": 9730501,
        "last_rank": 44048,
        "player_name": "Paul Simpson",
        "rank": 46464,
        "rank_sort": 46560,
        "total": 2354
      },
      {
        "club_badge_src": "https://fantasy.premierleague.com/gcs/plfpl-production-adobe-approved/plfpl-production/1399416/44c681ab-ba3c-4cad-a664-f85e421f27a1.png",
        "entry": 1399416,
        "entry_name": "Chippy Chips FC",
        "event_total": 68,
        "has_played": true,
        "id": 9736234,
        "last_rank": 64830,
        "player_name": "Jamie Lythgoe",
        "rank": 46464,
        "rank_sort": 46561,
        "total": 2354
      },
      {
        "club_badge_src": null,
        "entry": 1418772,
        "entry_name": "Villalainen",
        "event_total": 57,
        "has_played": true,
        "id": 9878378,
        "last_rank": 46839,
        "player_name": "Pontus Johansson",
        "rank": 46464,
        "rank_sort": 46562,
        "total": 2354
      },
      {
        "club_badge_src": null,
        "entry": 1439087,
        "entry_name": "QVDS",
        "event_total": 67,
        "has_played": true,
        "id": 10027831,
        "last_rank": 63201,
        "player_name": "Quentin Van der Schueren",
        "rank": 46464,
        "rank_sort": 46563,
        "total": 2354
      },
      {
        "club_badge_src": null,
        "entry": 1452796,
        "entry_name": "PKRG",
        "event_total": 49,
        "has_played": true,
        "id": 10123136,
        "last_rank": 36348,
        "player_name": "Lukas Skinderis",
        "rank": 46464,
        "rank_sort": 46564,
        "total": 2354
      },
      {
        "club_badge_src": "https://fantasy.premierleague.com/gcs/plfpl-production-adobe-approved/plfpl-production/1458655/b9d9514b-a0bc-49ea-be9a-f6d64d133518.png",
        "entry": 1458655,
        "entry_name": "FCPM",
        "event_total": 71,
        "has_played": true,
        "id": 10166178,
        "last_rank": 70600,
        "player_name": "Paulius Mockevicius",
        "rank": 46464,
        "rank_sort": 46565,
        "total": 2354
      },
      {
        "club_badge_src": null,
        "entry": 1492370,
        "entry_name": "Cairos Eleven",
        "event_total": 61,
        "has_played": true,
        "id": 10407170,
        "last_rank": 52759,
        "player_name": "Cairo Smolar",
        "rank": 46464,
        "rank_sort": 46566,
        "total": 2354
      },
      {
        "club_badge_src": null,
        "entry": 1511295,
        "entry_name": "Slot Machine",
        "event_total": 66,
        "has_played": true,
        "id": 10540451,
        "last_rank": 54494,
        "player_name": "Jelle Kuipers",
        "rank": 46464,
        "rank_sort": 46567,
        "total": 2354
      },
      {
        "club_badge_src": null,
        "entry": 1575532,
        "entry_name": "Supernova Heights",
        "event_total": 73,
        "has_played": true,
        "id": 11009308,
        "last_rank": 74898,
        "player_name": "Gary Corfield",
        "rank": 46464,
        "rank_sort": 46568,
        "total": 2354
      },
      {
        "club_badge_src": null,
        "entry": 1575599,
        "entry_name": "Wirtz Nightmare",
        "event_total": 67,
        "has_played": true,
        "id": 11009776,
        "last_rank": 63201,
        "player_name": "andy frost",
        "rank": 46464,
        "rank_sort": 46569,
        "total": 2354
      },
      {
        "club_badge_src": null,
        "entry": 1577886,
        "entry_name": "ORCs XI FC",
        "event_total": 41,
        "has_played": true,
        "id": 11025886,
        "last_rank": 27770,
        "player_name": "Ian Powell",
        "rank": 46464,
        "rank_sort": 46570,
        "total": 2354
      },
      {
        "club_badge_src": null,
        "entry": 1589956,
        "entry_name": "To the Glory \u261d\ufe0f",
        "event_total": 58,
        "has_played": true,
        "id": 11117320,
        "last_rank": 48363,
        "player_name": "Wassim Jabri",
        "rank": 46464,
        "rank_sort": 46571,
        "total": 2354
      },
      {
        "club_badge_src": null,
        "entry": 1609933,
        "entry_name": "Matsuki's Marvels",
        "event_total": 61,
        "has_played": true,
        "id": 11263912,
        "last_rank": 53345,
        "player_name": "Christopher Salz",
        "rank": 46464,
        "rank_sort": 46572,
        "total": 2354
      },
      {
        "club_badge_src": null,
        "entry": 1652497,
        "entry_name": "AllstarsX",
        "event_total": 54,
        "has_played": true,
        "id": 11569253,
        "last_rank": 42648,
        "player_name": "Nasim Bahnam",
        "rank": 46464,
        "rank_sort": 46573,
        "total": 2354
      },
      {
        "club_badge_src": null,
        "entry": 1674898,
        "entry_name": "Gunner 4 Life",
        "event_total": 62,
        "has_played": true,
        "id": 11726086,
        "last_rank": 48084,
        "player_name": "taaj j",
        "rank": 46464,
        "rank_sort": 46574,
        "total": 2354
      },
      {
        "club_badge_src": null,
        "entry": 1731784,
        "entry_name": "McGinn and Tonic",
        "event_total": 66,
        "has_played": true,
        "id": 12147041,
        "last_rank": 61411,
        "player_name": "Connor Huntly",
        "rank": 46464,
        "rank_sort": 46575,
        "total": 2354
      },
      {
        "club_badge_src": null,
        "entry": 1735315,
        "entry_name": "WhyAllwsysMe",
        "event_total": 52,
        "has_played": true,
        "id": 12173797,
        "last_rank": 40036,
        "player_name": "Leo Synnott",
        "rank": 46464,
        "rank_sort": 46576,
        "total": 2354
      },
      {
        "club_badge_src": null,
        "entry": 1845426,
        "entry_name": "Barnesy Gumble",
        "event_total": 72,
        "has_played": true,
        "id": 12984584,
        "last_rank": 72702,
        "player_name": "Matty Gimbert",
        "rank": 46464,
        "rank_sort": 46577,
        "total": 2354
      },
      {
        "club_badge_src": null,
        "entry": 1874043,
        "entry_name": "Jambiani FC",
        "event_total": 62,
        "has_played": true,
        "id": 13194092,
        "last_rank": 54494,
        "player_name": "Nk Jam",
        "rank": 46464,
        "rank_sort": 46578,
        "total": 2354
      },
      {
        "club_badge_src": null,
        "entry": 1917116,
        "entry_name": "We'll have a look",
        "event_total": 59,
        "has_played": true,
        "id": 13517489,
        "last_rank": 50199,
        "player_name": "Harry Morgan",
        "rank": 46464,
        "rank_sort": 46579,
        "total": 2354
      },
      {
        "club_badge_src": null,
        "entry": 1965246,
        "entry_name": "_rfyx",
        "event_total": 85,
        "has_played": true,
        "id": 13866758,
        "last_rank": 103978,
        "player_name": "Hatem ALmamari",
        "rank": 46464,
        "rank_sort": 46580,
        "total": 2354
      },
      {
        "club_badge_src": null,
        "entry": 2044800,
        "entry_name": "Gassama-Mia",
        "event_total": 65,
        "has_played": true,
        "id": 14481430,
        "last_rank": 59813,
        "player_name": "Josh Thompson",
        "rank": 46464,
        "rank_sort": 46581,
        "total": 2354
      },
      {
        "club_badge_src": "https://fantasy.premierleague.com/gcs/plfpl-production-adobe-approved/plfpl-production/2099140/8dbfc6a1-dbda-4503-912b-54ef61610c72.png",
        "entry": 2099140,
        "entry_name": "Slam_Dunk",
        "event_total": 61,
        "has_played": true,
        "id": 14894296,
        "last_rank": 53023,
        "player_name": "Nuno Bettencourt",
        "rank": 46464,
        "rank_sort": 46582,
        "total": 2354
      },
      {
        "club_badge_src": null,
        "entry": 2147682,
        "entry_name": "Skansen BK",
        "event_total": 56,
        "has_played": true,
        "id": 15265389,
        "last_rank": 45416,
        "player_name": "Philip Basmaci",
        "rank": 46464,
        "rank_sort": 46583,
        "total": 2354
      },
      {
        "club_badge_src": null,
        "entry": 2148690,
        "entry_name": "Kat Slaters",
        "event_total": 68,
        "has_played": true,
        "id": 15272663,
        "last_rank": 64943,
        "player_name": "Matt Crossingham",
        "rank": 46464,
        "rank_sort": 46584,
        "total": 2354
      },
      {
        "club_badge_src": null,
        "entry": 2149965,
        "entry_name": "KanU Pires Off?",
        "event_total": 49,
        "has_played": true,
        "id": 15281836,
        "last_rank": 36348,
        "player_name": "Stu T",
        "rank": 46464,
        "rank_sort": 46585,
        "total": 2354
      },
      {
        "club_badge_src": null,
        "entry": 2164784,
        "entry_name": "Ale Madrid",
        "event_total": 57,
        "has_played": true,
        "id": 15389341,
        "last_rank": 46839,
        "player_name": "Jeff Bazeley",
        "rank": 46464,
        "rank_sort": 46586,
        "total": 2354
      },
      {
        "club_badge_src": null,
        "entry": 2191446,
        "entry_name": "XYZ_",
        "event_total": 68,
        "has_played": true,
        "id": 15591206,
        "last_rank": 65163,
        "player_name": "xxx yyy",
        "rank": 46464,
        "rank_sort": 46587,
        "total": 2354
      },
      {
        "club_badge_src": null,
        "entry": 2210073,
        "entry_name": "clartinelli",
        "event_total": 67,
        "has_played": true,
        "id": 15737750,
        "last_rank": 63390,
        "player_name": "Theo JL",
        "rank": 46464,
        "rank_sort": 46588,
        "total": 2354
      },
      {
        "club_badge_src": null,
        "entry": 2265091,
        "entry_name": "Locomotiv Moocow",
        "event_total": 71,
        "has_played": true,
        "id": 16150060,
        "last_rank": 70651,
        "player_name": "Roger Winterbottom",
        "rank": 46464,
        "rank_sort": 46589,
        "total": 2354
      },
      {
        "club_badge_src": null,
        "entry": 2274043,
        "entry_name": "Boscombe FC",
        "event_total": 60,
        "has_played": true,
        "id": 16215457,
        "last_rank": 51403,
        "player_name": "Joshua King",
        "rank": 46464,
        "rank_sort": 46590,
        "total": 2354
      },
      {
        "club_badge_src": null,
        "entry": 2290754,
        "entry_name": "IstraPula",
        "event_total": 72,
        "has_played": true,
        "id": 16337444,
        "last_rank": 73038,
        "player_name": "Tihomir Soltic",
        "rank": 46464,
        "rank_sort": 46591,
        "total": 2354
      },
      {
        "club_badge_src": null,
        "entry": 2359766,
        "entry_name": "Ramadan FC",
        "event_total": 71,
        "has_played": true,
        "id": 16840638,
        "last_rank": 70757,
        "player_name": "Ramadan Bah",
        "rank": 46464,
        "rank_sort": 46592,
        "total": 2354
      },
      {
        "club_badge_src": null,
        "entry": 2400021,
        "entry_name": "M\u00e6g's Lads",
        "event_total": 56,
        "has_played": true,
        "id": 17153162,
        "last_rank": 45416,
        "player_name": "Magnus Vigeland",
        "rank": 46464,
        "rank_sort": 46593,
        "total": 2354
      },
      {
        "club_badge_src": "https://fantasy.premierleague.com/gcs/plfpl-production-adobe-approved/plfpl-production/2454421/b05c55ce-9cd4-4a44-b68e-8300df7b53d0.png",
        "entry": 2454421,
        "entry_name": "MonstersYouMade",
        "event_total": 64,
        "has_played": true,
        "id": 17555328,
        "last_rank": 58071,
        "player_name": "Onyemauche Amaechi",
        "rank": 46464,
        "rank_sort": 46594,
        "total": 2354
      },
      {
        "club_badge_src": null,
        "entry": 2576621,
        "entry_name": "JaffaaPennuille",
        "event_total": 43,
        "has_played": true,
        "id": 18491626,
        "last_rank": 29688,
        "player_name": "Sisu Ruohonen",
        "rank": 46464,
        "rank_sort": 46595,
        "total": 2354
      },
      {
        "club_badge_src": null,
        "entry": 2621780,
        "entry_name": "FOREST CITY FC",
        "event_total": 53,
        "has_played": true,
        "id": 18838623,
        "last_rank": 41162,
        "player_name": "MUHAMMAD FIRDAUS",
        "rank": 46464,
        "rank_sort": 46596,
        "total": 2354
      },
      {
        "club_badge_src": null,
        "entry": 2646759,
        "entry_name": "Kai Me a Rio",
        "event_total": 63,
        "has_played": true,
        "id": 19023707,
        "last_rank": 56180,
        "player_name": "Kushal Patel",
        "rank": 46464,
        "rank_sort": 46597,
        "total": 2354
      },
      {
        "club_badge_src": null,
        "entry": 2704039,
        "entry_name": "Games Gone XI",
        "event_total": 52,
        "has_played": true,
        "id": 19453170,
        "last_rank": 40297,
        "player_name": "Damien Ward",
        "rank": 46464,
        "rank_sort": 46598,
        "total": 2354
      },
      {
        "club_badge_src": "https://fantasy.premierleague.com/gcs/plfpl-production-adobe-approved/plfpl-production/2722199/19f2f7f3-c431-40bd-b067-e55a6faa9df9.png",
        "entry": 2722199,
        "entry_name": "Zubi zubi zuu",
        "event_total": 41,
        "has_played": true,
        "id": 19588214,
        "last_rank": 27770,
        "player_name": "R\u00f3bert Dlho\u0161",
        "rank": 46464,
        "rank_sort": 46599,
        "total": 2354
      },
      {
        "club_badge_src": null,
        "entry": 2799320,
        "entry_name": "Guns N' Moses",
        "event_total": 39,
        "has_played": true,
        "id": 20441317,
        "last_rank": 25776,
        "player_name": "jordan leahy",
        "rank": 46464,
        "rank_sort": 46600,
        "total": 2354
      }
    ]
  }
}