{
  "last_updated_data": "2026-05-24T23:28:17Z",
  "league": {
    "admin_entry": null,
    "closed": false,
    "code_privacy": "p",
    "created": "2025-07-20T23:14:33.933835Z",
    "cup_league": 2815434,
    "has_cup": true,
    "id": 314,
    "league_type": "s",
    "max_entries": null,
    "name": "Overall",
    "rank": null,
    "scoring": "c",
    "start_event": 1
  },
  "new_entries": {
    "has_next": false,
    "page": 1,
    "results": []
  },
  "standings": {
    "has_next": true,
    "page": 161,
    "results": [
      {
        "club_badge_src": null,
        "entry": 859459,
        "entry_name": "GetYa Dalg On A Lish",
        "event_total": 35,
        "has_played": true,
        "id": 5891666,
        "last_rank": 2749,
        "player_name": "Jake Haywood",
        "rank": 7987,
        "rank_sort": 8001,
        "total": 2404
      },
      {
        "club_badge_src": null,
        "entry": 1150745,
        "entry_name": "Bret's Fastballs",
        "event_total": 56,
        "has_played": true,
        "id": 7978810,
        "last_rank": 7257,
        "player_name": "Bret Schoenebeck",
        "rank": 7987,
        "rank_sort": 8002,
        "total": 2404
      },
      {
        "club_badge_src": "https://fantasy.premierleague.com/gcs/plfpl-production-adobe-approved/plfpl-production/1170034/2429a236-6535-4b77-9221-2eb75b69e7a5.png",
        "entry": 1170034,
        "entry_name": "SoLanky",
        "event_total": 59,
        "has_played": true,
        "id": 8116928,
        "last_rank": 6887,
        "player_name": "Anthony Hubert",
        "rank": 7987,
        "rank_sort": 8003,
        "total": 2404
      },
      {
        "club_badge_src": null,
        "entry": 1185792,
        "entry_name": "\u0160e\u0161ko Meal Deal",
        "event_total": 65,
        "has_played": true,
        "id": 8227396,
        "last_rank": 8925,
        "player_name": "Rhys Bennett",
        "rank": 7987,
        "rank_sort": 8004,
        "total": 2404
      },
      {
        "club_badge_src": null,
        "entry": 1225996,
        "entry_name": "shiko",
        "event_total": 68,
        "has_played": true,
        "id": 8512480,
        "last_rank": 11901,
        "player_name": "sherif moharam",
        "rank": 7987,
        "rank_sort": 8005,
        "total": 2404
      },
      {
        "club_badge_src": null,
        "entry": 2046314,
        "entry_name": "AK7",
        "event_total": 65,
        "has_played": true,
        "id": 14492619,
        "last_rank": 8925,
        "player_name": "A K7",
        "rank": 7987,
        "rank_sort": 8006,
        "total": 2404
      },
      {
        "club_badge_src": null,
        "entry": 2153750,
        "entry_name": "Comtes FC",
        "event_total": 55,
        "has_played": true,
        "id": 15309514,
        "last_rank": 6927,
        "player_name": "Rui Barreto",
        "rank": 7987,
        "rank_sort": 8007,
        "total": 2404
      },
      {
        "club_badge_src": null,
        "entry": 2241028,
        "entry_name": "TKFC",
        "event_total": 60,
        "has_played": true,
        "id": 15965621,
        "last_rank": 8591,
        "player_name": "Paul Jaccarini",
        "rank": 7987,
        "rank_sort": 8008,
        "total": 2404
      },
      {
        "club_badge_src": null,
        "entry": 2263011,
        "entry_name": "Prime Consult",
        "event_total": 64,
        "has_played": true,
        "id": 16134688,
        "last_rank": 8552,
        "player_name": "todor ognyanov",
        "rank": 7987,
        "rank_sort": 8009,
        "total": 2404
      },
      {
        "club_badge_src": null,
        "entry": 2368917,
        "entry_name": "Messi One",
        "event_total": 60,
        "has_played": true,
        "id": 16910191,
        "last_rank": 7193,
        "player_name": "Chetan Malia",
        "rank": 7987,
        "rank_sort": 8010,
        "total": 2404
      },
      {
        "club_badge_src": null,
        "entry": 2373699,
        "entry_name": "Go Eze On Mee",
        "event_total": 65,
        "has_played": true,
        "id": 16945503,
        "last_rank": 10556,
        "player_name": "Jordan Lynch",
        "rank": 7987,
        "rank_sort": 8011,
        "total": 2404
      },
      {
        "club_badge_src": null,
        "entry": 2377709,
        "entry_name": "Bawale",
        "event_total": 70,
        "has_played": true,
        "id": 16976715,
        "last_rank": 12995,
        "player_name": "Govar Abbas",
        "rank": 7987,
        "rank_sort": 8012,
        "total": 2404
      },
      {
        "club_badge_src": "https://fantasy.premierleague.com/gcs/plfpl-production-adobe-approved/plfpl-production/3702070/6d21517f-6a35-4460-b372-806df1df8b59.png",
        "entry": 3702070,
        "entry_name": "Magic Moyes",
        "event_total": 67,
        "has_played": true,
        "id": 27621641,
        "last_rank": 9711,
        "player_name": "David Williams",
        "rank": 7987,
        "rank_sort": 8013,
        "total": 2404
      },
      {
        "club_badge_src": "https://fantasy.premierleague.com/gcs/plfpl-production-adobe-approved/plfpl-production/3813983/c7acb1d7-959a-40da-95b1-dda9d3bf6b7b.png",
        "entry": 3813983,
        "entry_name": "Earth Wind & Maguire",
        "event_total": 62,
        "has_played": true,
        "id": 28520572,
        "last_rank": 6528,
        "player_name": "John Mevatne",
        "rank": 7987,
        "rank_sort": 8014,
        "total": 2404
      },
      {
        "club_badge_src": null,
        "entry": 4309089,
        "entry_name": "Evans FC",
        "event_total": 54,
        "has_played": true,
        "id": 32695194,
        "last_rank": 6614,
        "player_name": "Robert Evans",
        "rank": 7987,
        "rank_sort": 8015,
        "total": 2404
      },
      {
        "club_badge_src": null,
        "entry": 4508583,
        "entry_name": "Cozza FC",
        "event_total": 60,
        "has_played": true,
        "id": 34377076,
        "last_rank": 8552,
        "player_name": "Lewis Corrigan",
        "rank": 7987,
        "rank_sort": 8016,
        "total": 2404
      },
      {
        "club_badge_src": null,
        "entry": 5366533,
        "entry_name": "Suve Klase",
        "event_total": 51,
        "has_played": true,
        "id": 41691201,
        "last_rank": 4839,
        "player_name": "Milan \u0160aki\u0107",
        "rank": 7987,
        "rank_sort": 8017,
        "total": 2404
      },
      {
        "club_badge_src": null,
        "entry": 8628541,
        "entry_name": "Havregr\u00f8t",
        "event_total": 50,
        "has_played": true,
        "id": 71873950,
        "last_rank": 4615,
        "player_name": "Bile Abdule",
        "rank": 7987,
        "rank_sort": 8018,
        "total": 2404
      },
      {
        "club_badge_src": "https://fantasy.premierleague.com/gcs/plfpl-production-adobe-approved/plfpl-production/4730/c79851b0-6d35-4cad-8f72-d7112f338348.png",
        "entry": 4730,
        "entry_name": "hjhjhjhjhjhjhjhjhjhj",
        "event_total": 62,
        "has_played": true,
        "id": 26905,
        "last_rank": 7863,
        "player_name": "Marcus Aarseth",
        "rank": 8019,
        "rank_sort": 8019,
        "total": 2404
      },
      {
        "club_badge_src": "https://fantasy.premierleague.com/gcs/plfpl-production-adobe-approved/plfpl-production/60885/69a17b69-b60b-41e9-9080-95b19a0c22b2.png",
        "entry": 60885,
        "entry_name": "Rutter Woke Nonsense",
        "event_total": 45,
        "has_played": true,
        "id": 392029,
        "last_rank": 2448,
        "player_name": "Tom S",
        "rank": 8019,
        "rank_sort": 8020,
        "total": 2404
      },
      {
        "club_badge_src": "https://fantasy.premierleague.com/gcs/plfpl-production-adobe-approved/plfpl-production/99772/577aa565-8fd2-4bea-9f63-8deee0308d95.png",
        "entry": 99772,
        "entry_name": "FC JMS",
        "event_total": 70,
        "has_played": true,
        "id": 651262,
        "last_rank": 11034,
        "player_name": "Joni Selk\u00e4inaho",
        "rank": 8019,
        "rank_sort": 8021,
        "total": 2404
      },
      {
        "club_badge_src": "https://fantasy.premierleague.com/gcs/plfpl-production-adobe-approved/plfpl-production/116675/6eaec4e2-07f1-4fe3-8857-efa9974eb640.png",
        "entry": 116675,
        "entry_name": "Madureke og loff",
        "event_total": 59,
        "has_played": true,
        "id": 761699,
        "last_rank": 6927,
        "player_name": "Albert Dalen",
        "rank": 8019,
        "rank_sort": 8022,
        "total": 2404
      },
      {
        "club_badge_src": null,
        "entry": 158193,
        "entry_name": "Royal korgis",
        "event_total": 52,
        "has_played": true,
        "id": 1040917,
        "last_rank": 6106,
        "player_name": "Yaroslav Kudritskiy",
        "rank": 8019,
        "rank_sort": 8023,
        "total": 2404
      },
      {
        "club_badge_src": "https://fantasy.premierleague.com/gcs/plfpl-production-adobe-approved/plfpl-production/399236/80b35db8-e200-4016-b8bb-f67131fc5e1d.png",
        "entry": 399236,
        "entry_name": "Change Name",
        "event_total": 64,
        "has_played": true,
        "id": 2677164,
        "last_rank": 10173,
        "player_name": "John John",
        "rank": 8019,
        "rank_sort": 8024,
        "total": 2404
      },
      {
        "club_badge_src": null,
        "entry": 504725,
        "entry_name": "Jake's Jokers",
        "event_total": 56,
        "has_played": true,
        "id": 3387864,
        "last_rank": 7257,
        "player_name": "Jake Girling",
        "rank": 8019,
        "rank_sort": 8025,
        "total": 2404
      },
      {
        "club_badge_src": null,
        "entry": 525015,
        "entry_name": "Kinder Mbuemo",
        "event_total": 63,
        "has_played": true,
        "id": 3528133,
        "last_rank": 8198,
        "player_name": "Brodie Hayes",
        "rank": 8019,
        "rank_sort": 8026,
        "total": 2404
      },
      {
        "club_badge_src": "https://fantasy.premierleague.com/gcs/plfpl-production-adobe-approved/plfpl-production/558760/ec5536ce-1682-4248-8a2f-fc897c07b20b.png",
        "entry": 558760,
        "entry_name": "Barry's Babes",
        "event_total": 34,
        "has_played": true,
        "id": 3760380,
        "last_rank": 2632,
        "player_name": "Barry Poland",
        "rank": 8019,
        "rank_sort": 8027,
        "total": 2404
      },
      {
        "club_badge_src": null,
        "entry": 663140,
        "entry_name": "Embee Rose Bud XI",
        "event_total": 64,
        "has_played": true,
        "id": 4483044,
        "last_rank": 7193,
        "player_name": "Arpan Das",
        "rank": 8019,
        "rank_sort": 8028,
        "total": 2404
      },
      {
        "club_badge_src": null,
        "entry": 674690,
        "entry_name": "your wirtz nightmare",
        "event_total": 72,
        "has_played": true,
        "id": 4564312,
        "last_rank": 11957,
        "player_name": "Sam Small",
        "rank": 8019,
        "rank_sort": 8029,
        "total": 2404
      },
      {
        "club_badge_src": null,
        "entry": 839043,
        "entry_name": "seggs",
        "event_total": 64,
        "has_played": true,
        "id": 5748680,
        "last_rank": 8552,
        "player_name": "gabriel sim",
        "rank": 8019,
        "rank_sort": 8030,
        "total": 2404
      },
      {
        "club_badge_src": null,
        "entry": 1331927,
        "entry_name": "Lilywhites",
        "event_total": 72,
        "has_played": true,
        "id": 9257804,
        "last_rank": 14148,
        "player_name": "Tobias Skuggedal Hansen",
        "rank": 8019,
        "rank_sort": 8031,
        "total": 2404
      },
      {
        "club_badge_src": null,
        "entry": 1832919,
        "entry_name": "Grant Place United",
        "event_total": 49,
        "has_played": true,
        "id": 12893416,
        "last_rank": 5335,
        "player_name": "Hugh McWhinnie",
        "rank": 8019,
        "rank_sort": 8032,
        "total": 2404
      },
      {
        "club_badge_src": null,
        "entry": 2113476,
        "entry_name": "jvk fc",
        "event_total": 63,
        "has_played": true,
        "id": 15002480,
        "last_rank": 9775,
        "player_name": "james kearney",
        "rank": 8019,
        "rank_sort": 8033,
        "total": 2404
      },
      {
        "club_badge_src": null,
        "entry": 3141136,
        "entry_name": "Kaoruna Mateta",
        "event_total": 52,
        "has_played": true,
        "id": 23190019,
        "last_rank": 6106,
        "player_name": "Tom Lavender",
        "rank": 8019,
        "rank_sort": 8034,
        "total": 2404
      },
      {
        "club_badge_src": "https://fantasy.premierleague.com/gcs/plfpl-production-adobe-approved/plfpl-production/4000273/fb061b52-796a-48cd-b4c2-ea0ca3750d88.png",
        "entry": 4000273,
        "entry_name": "Blue Birds",
        "event_total": 71,
        "has_played": true,
        "id": 30129205,
        "last_rank": 13558,
        "player_name": "Natasha Evans",
        "rank": 8019,
        "rank_sort": 8035,
        "total": 2404
      },
      {
        "club_badge_src": null,
        "entry": 4037163,
        "entry_name": "Kinder Mbeumo",
        "event_total": 55,
        "has_played": true,
        "id": 30442481,
        "last_rank": 5820,
        "player_name": "Brad Barnes",
        "rank": 8019,
        "rank_sort": 8036,
        "total": 2404
      },
      {
        "club_badge_src": null,
        "entry": 4758968,
        "entry_name": "Man Blue",
        "event_total": 47,
        "has_played": true,
        "id": 36624051,
        "last_rank": 4007,
        "player_name": "Danar Khalid",
        "rank": 8019,
        "rank_sort": 8037,
        "total": 2404
      },
      {
        "club_badge_src": null,
        "entry": 6463789,
        "entry_name": "AFC Smitho",
        "event_total": 85,
        "has_played": true,
        "id": 51496139,
        "last_rank": 22996,
        "player_name": "Joshua Smith",
        "rank": 8019,
        "rank_sort": 8038,
        "total": 2404
      },
      {
        "club_badge_src": null,
        "entry": 6856829,
        "entry_name": "Hotel Calafiori",
        "event_total": 59,
        "has_played": true,
        "id": 54937837,
        "last_rank": 8198,
        "player_name": "Roger Reid",
        "rank": 8019,
        "rank_sort": 8039,
        "total": 2404
      },
      {
        "club_badge_src": null,
        "entry": 9310632,
        "entry_name": "cabtanoo",
        "event_total": 77,
        "has_played": true,
        "id": 78511379,
        "last_rank": 14668,
        "player_name": "Mr Mohammed",
        "rank": 8019,
        "rank_sort": 8040,
        "total": 2404
      },
      {
        "club_badge_src": null,
        "entry": 60465,
        "entry_name": "For Beto\u2026For Wirtz",
        "event_total": 79,
        "has_played": true,
        "id": 389303,
        "last_rank": 13558,
        "player_name": "Rory Broady",
        "rank": 8041,
        "rank_sort": 8041,
        "total": 2404
      },
      {
        "club_badge_src": null,
        "entry": 453599,
        "entry_name": "Ruben van der Bagger",
        "event_total": 57,
        "has_played": true,
        "id": 3042742,
        "last_rank": 6347,
        "player_name": "Adam Wessman",
        "rank": 8041,
        "rank_sort": 8042,
        "total": 2404
      },
      {
        "club_badge_src": null,
        "entry": 1058494,
        "entry_name": "\u0627\u0644\u0643\u0627\u0628\u064a\u062a\u0627\u0646\u0648 \u0627\u0628\u0648 \u0633\u0644\u064a\u0645",
        "event_total": 63,
        "has_played": true,
        "id": 7325419,
        "last_rank": 9792,
        "player_name": "ahmed kefi",
        "rank": 8041,
        "rank_sort": 8043,
        "total": 2404
      },
      {
        "club_badge_src": null,
        "entry": 1281792,
        "entry_name": "The Artful Dodgers",
        "event_total": 72,
        "has_played": true,
        "id": 8906822,
        "last_rank": 11957,
        "player_name": "Peter Jones",
        "rank": 8041,
        "rank_sort": 8044,
        "total": 2404
      },
      {
        "club_badge_src": null,
        "entry": 2920405,
        "entry_name": "Daggis disipler",
        "event_total": 68,
        "has_played": true,
        "id": 21408314,
        "last_rank": 10173,
        "player_name": "Daggi J\u00f8lstad",
        "rank": 8041,
        "rank_sort": 8045,
        "total": 2404
      },
      {
        "club_badge_src": "https://fantasy.premierleague.com/gcs/plfpl-production-adobe-approved/plfpl-production/4577016/67425f0d-b330-462c-9df6-c1360ad79eb7.png",
        "entry": 4577016,
        "entry_name": "Fenris",
        "event_total": 56,
        "has_played": true,
        "id": 34937314,
        "last_rank": 7257,
        "player_name": "Olawale Adigun",
        "rank": 8041,
        "rank_sort": 8046,
        "total": 2404
      },
      {
        "club_badge_src": null,
        "entry": 7516144,
        "entry_name": "Two In A Row",
        "event_total": 61,
        "has_played": true,
        "id": 61473683,
        "last_rank": 6333,
        "player_name": "Garry Goodchild",
        "rank": 8041,
        "rank_sort": 8047,
        "total": 2404
      },
      {
        "club_badge_src": null,
        "entry": 9281995,
        "entry_name": "Halox",
        "event_total": 71,
        "has_played": true,
        "id": 78235473,
        "last_rank": 9751,
        "player_name": "Mohamed Solaah",
        "rank": 8041,
        "rank_sort": 8048,
        "total": 2404
      },
      {
        "club_badge_src": null,
        "entry": 98728,
        "entry_name": "ChatGPT FC",
        "event_total": 74,
        "has_played": true,
        "id": 644610,
        "last_rank": 15280,
        "player_name": "Gennaro Giordano",
        "rank": 8049,
        "rank_sort": 8049,
        "total": 2404
      },
      {
        "club_badge_src": null,
        "entry": 134667,
        "entry_name": "Nickegeeezzz 4.0",
        "event_total": 68,
        "has_played": true,
        "id": 877039,
        "last_rank": 11999,
        "player_name": "Niklas Axelsson",
        "rank": 8049,
        "rank_sort": 8050,
        "total": 2404
      }
    ]
  }
}