{
  "last_updated_data": "2026-05-24T23:28:17Z",
  "league": {
    "admin_entry": null,
    "closed": false,
    "code_privacy": "p",
    "created": "2025-07-20T23:14:33.933835Z",
    "cup_league": 2815434,
    "has_cup": true,
    "id": 314,
    "league_type": "s",
    "max_entries": null,
    "name": "Overall",
    "rank": null,
    "scoring": "c",
    "start_event": 1
  },
  "new_entries": {
    "has_next": false,
    "page": 1,
    "results": []
  },
  "standings": {
    "has_next": true,
    "page": 1405,
    "results": [
      {
        "club_badge_src": null,
        "entry": 2141972,
        "entry_name": "ThunderStruijk",
        "event_total": 62,
        "has_played": true,
        "id": 15223340,
        "last_rank": 81646,
        "player_name": "Gerald Dunn",
        "rank": 70078,
        "rank_sort": 70201,
        "total": 2340
      },
      {
        "club_badge_src": "https://fantasy.premierleague.com/gcs/plfpl-production-adobe-approved/plfpl-production/2241675/79d2fbfc-4dcb-4cf8-8b7d-c1bdc8993f87.png",
        "entry": 2241675,
        "entry_name": "shipaaan",
        "event_total": 79,
        "has_played": true,
        "id": 15970352,
        "last_rank": 126088,
        "player_name": "Imangali Myrzabaiuly",
        "rank": 70078,
        "rank_sort": 70202,
        "total": 2340
      },
      {
        "club_badge_src": null,
        "entry": 2251165,
        "entry_name": "FC TopoftheTable 1c",
        "event_total": 66,
        "has_played": true,
        "id": 16041019,
        "last_rank": 91006,
        "player_name": "Lukas Holzner",
        "rank": 70078,
        "rank_sort": 70203,
        "total": 2340
      },
      {
        "club_badge_src": null,
        "entry": 2262079,
        "entry_name": "Won The Farke In Lot",
        "event_total": 52,
        "has_played": true,
        "id": 16127941,
        "last_rank": 61606,
        "player_name": "Zohaib Khan",
        "rank": 70078,
        "rank_sort": 70204,
        "total": 2340
      },
      {
        "club_badge_src": null,
        "entry": 2294516,
        "entry_name": "Free Palastine",
        "event_total": 56,
        "has_played": true,
        "id": 16364532,
        "last_rank": 69323,
        "player_name": "Hasan Abd El Aleem",
        "rank": 70078,
        "rank_sort": 70205,
        "total": 2340
      },
      {
        "club_badge_src": null,
        "entry": 2331592,
        "entry_name": "Chippy Chips",
        "event_total": 59,
        "has_played": true,
        "id": 16635167,
        "last_rank": 75537,
        "player_name": "Shaheed Jaffer",
        "rank": 70078,
        "rank_sort": 70206,
        "total": 2340
      },
      {
        "club_badge_src": null,
        "entry": 2353960,
        "entry_name": "Zee Irish Pharaoh",
        "event_total": 58,
        "has_played": true,
        "id": 16796392,
        "last_rank": 73720,
        "player_name": "Karim Khaled",
        "rank": 70078,
        "rank_sort": 70207,
        "total": 2340
      },
      {
        "club_badge_src": null,
        "entry": 2421160,
        "entry_name": "AHFC",
        "event_total": 48,
        "has_played": true,
        "id": 17309633,
        "last_rank": 55014,
        "player_name": "Andy Hall",
        "rank": 70078,
        "rank_sort": 70208,
        "total": 2340
      },
      {
        "club_badge_src": null,
        "entry": 2441295,
        "entry_name": "Undermycucurella",
        "event_total": 61,
        "has_played": true,
        "id": 17459360,
        "last_rank": 79817,
        "player_name": "Maverick Gore",
        "rank": 70078,
        "rank_sort": 70209,
        "total": 2340
      },
      {
        "club_badge_src": null,
        "entry": 2456397,
        "entry_name": "Emile Stiff Chode",
        "event_total": 67,
        "has_played": true,
        "id": 17569676,
        "last_rank": 83934,
        "player_name": "Matthew Campbell",
        "rank": 70078,
        "rank_sort": 70210,
        "total": 2340
      },
      {
        "club_badge_src": null,
        "entry": 2456787,
        "entry_name": "Lesta Boyz",
        "event_total": 56,
        "has_played": true,
        "id": 17572463,
        "last_rank": 69323,
        "player_name": "Jay Mistry",
        "rank": 70078,
        "rank_sort": 70211,
        "total": 2340
      },
      {
        "club_badge_src": null,
        "entry": 2480870,
        "entry_name": "Alare FC",
        "event_total": 72,
        "has_played": true,
        "id": 17751356,
        "last_rank": 95890,
        "player_name": "Debo Alare",
        "rank": 70078,
        "rank_sort": 70212,
        "total": 2340
      },
      {
        "club_badge_src": null,
        "entry": 2497045,
        "entry_name": "h",
        "event_total": 52,
        "has_played": true,
        "id": 17877795,
        "last_rank": 61950,
        "player_name": "Brandon Rumball",
        "rank": 70078,
        "rank_sort": 70213,
        "total": 2340
      },
      {
        "club_badge_src": "https://fantasy.premierleague.com/gcs/plfpl-production-adobe-approved/plfpl-production/2534449/bf44c29b-032d-441a-ba6b-b2680f963caa.png",
        "entry": 2534449,
        "entry_name": "Team Thames Irons",
        "event_total": 68,
        "has_played": true,
        "id": 18162631,
        "last_rank": 95640,
        "player_name": "Stephen Adams",
        "rank": 70078,
        "rank_sort": 70214,
        "total": 2340
      },
      {
        "club_badge_src": null,
        "entry": 2535126,
        "entry_name": "50 Schades",
        "event_total": 60,
        "has_played": true,
        "id": 18167635,
        "last_rank": 77676,
        "player_name": "Jesse Gicevski",
        "rank": 70078,
        "rank_sort": 70215,
        "total": 2340
      },
      {
        "club_badge_src": null,
        "entry": 2622621,
        "entry_name": "Fifala",
        "event_total": 44,
        "has_played": true,
        "id": 18844863,
        "last_rank": 48642,
        "player_name": "Filip Horacek",
        "rank": 70078,
        "rank_sort": 70216,
        "total": 2340
      },
      {
        "club_badge_src": null,
        "entry": 2673239,
        "entry_name": "mustafa4",
        "event_total": 44,
        "has_played": true,
        "id": 19220335,
        "last_rank": 48898,
        "player_name": "Mustafa Mohammed",
        "rank": 70078,
        "rank_sort": 70217,
        "total": 2340
      },
      {
        "club_badge_src": null,
        "entry": 2702727,
        "entry_name": "Flores SR",
        "event_total": 67,
        "has_played": true,
        "id": 19443490,
        "last_rank": 93443,
        "player_name": "Miguel Flores",
        "rank": 70078,
        "rank_sort": 70218,
        "total": 2340
      },
      {
        "club_badge_src": "https://fantasy.premierleague.com/gcs/plfpl-production-adobe-approved/plfpl-production/2791470/dfb50749-2bfd-4982-b519-9fa9e7f60ca6.png",
        "entry": 2791470,
        "entry_name": "PK 11",
        "event_total": 52,
        "has_played": true,
        "id": 20380494,
        "last_rank": 62223,
        "player_name": "Patryk Kantorski",
        "rank": 70078,
        "rank_sort": 70219,
        "total": 2340
      },
      {
        "club_badge_src": null,
        "entry": 2803496,
        "entry_name": "Livin' Saliba Loca",
        "event_total": 36,
        "has_played": true,
        "id": 20472778,
        "last_rank": 37435,
        "player_name": "Oliver Costanza",
        "rank": 70078,
        "rank_sort": 70220,
        "total": 2340
      },
      {
        "club_badge_src": null,
        "entry": 2819161,
        "entry_name": "The Heroes",
        "event_total": 54,
        "has_played": true,
        "id": 20594046,
        "last_rank": 65796,
        "player_name": "Chit Pyae",
        "rank": 70078,
        "rank_sort": 70221,
        "total": 2340
      },
      {
        "club_badge_src": "https://fantasy.premierleague.com/gcs/plfpl-production-adobe-approved/plfpl-production/2828367/a044501a-c181-4fc4-b0b8-6a4049a824c4.png",
        "entry": 2828367,
        "entry_name": "HurryKanes",
        "event_total": 49,
        "has_played": true,
        "id": 20666606,
        "last_rank": 56369,
        "player_name": "david & alice moroney",
        "rank": 70078,
        "rank_sort": 70222,
        "total": 2340
      },
      {
        "club_badge_src": null,
        "entry": 2840225,
        "entry_name": "Tomi219",
        "event_total": 63,
        "has_played": true,
        "id": 20758669,
        "last_rank": 84360,
        "player_name": "Tomaz Kovacic",
        "rank": 70078,
        "rank_sort": 70223,
        "total": 2340
      },
      {
        "club_badge_src": null,
        "entry": 2864923,
        "entry_name": "Crouch Potato",
        "event_total": 62,
        "has_played": true,
        "id": 20953077,
        "last_rank": 82069,
        "player_name": "Victoria Lewis",
        "rank": 70078,
        "rank_sort": 70224,
        "total": 2340
      },
      {
        "club_badge_src": null,
        "entry": 2867059,
        "entry_name": "Major League Saka",
        "event_total": 39,
        "has_played": true,
        "id": 20969453,
        "last_rank": 41617,
        "player_name": "Daniel Costello",
        "rank": 70078,
        "rank_sort": 70225,
        "total": 2340
      },
      {
        "club_badge_src": null,
        "entry": 2873165,
        "entry_name": "Give Me Some Kudus",
        "event_total": 51,
        "has_played": true,
        "id": 21023861,
        "last_rank": 52853,
        "player_name": "Darren Thone",
        "rank": 70078,
        "rank_sort": 70226,
        "total": 2340
      },
      {
        "club_badge_src": null,
        "entry": 2888755,
        "entry_name": "fl0ssy fc",
        "event_total": 58,
        "has_played": true,
        "id": 21151029,
        "last_rank": 73038,
        "player_name": "Christoffer D\u00f6ring",
        "rank": 70078,
        "rank_sort": 70227,
        "total": 2340
      },
      {
        "club_badge_src": null,
        "entry": 2902515,
        "entry_name": "MurtDoctor\u2019s XI",
        "event_total": 48,
        "has_played": true,
        "id": 21270341,
        "last_rank": 54667,
        "player_name": "Cavan Murt",
        "rank": 70078,
        "rank_sort": 70228,
        "total": 2340
      },
      {
        "club_badge_src": null,
        "entry": 2935765,
        "entry_name": "Games gone",
        "event_total": 69,
        "has_played": true,
        "id": 21541266,
        "last_rank": 98896,
        "player_name": "Runar Solberg",
        "rank": 70078,
        "rank_sort": 70229,
        "total": 2340
      },
      {
        "club_badge_src": null,
        "entry": 2938281,
        "entry_name": "jooo",
        "event_total": 62,
        "has_played": true,
        "id": 21559840,
        "last_rank": 82069,
        "player_name": "Youssef Jooo \ud83c\uddf5\ud83c\uddf8",
        "rank": 70078,
        "rank_sort": 70230,
        "total": 2340
      },
      {
        "club_badge_src": null,
        "entry": 2944670,
        "entry_name": "Wirtz Case Scenario",
        "event_total": 63,
        "has_played": true,
        "id": 21607362,
        "last_rank": 74898,
        "player_name": "Liam Creighton",
        "rank": 70078,
        "rank_sort": 70231,
        "total": 2340
      },
      {
        "club_badge_src": "https://fantasy.premierleague.com/gcs/plfpl-production-adobe-approved/plfpl-production/3010083/ce9fbca3-2d25-4707-bc17-eaf602998a4d.png",
        "entry": 3010083,
        "entry_name": "De r\u00f6da dj\u00e4vularna",
        "event_total": 78,
        "has_played": true,
        "id": 22143363,
        "last_rank": 123422,
        "player_name": "Leo Vinterloo",
        "rank": 70078,
        "rank_sort": 70232,
        "total": 2340
      },
      {
        "club_badge_src": "https://fantasy.premierleague.com/gcs/plfpl-production-adobe-approved/plfpl-production/3026776/d6ce8a9c-5a37-4592-8cc5-f53d306395cc.png",
        "entry": 3026776,
        "entry_name": "Stay Humble Eh",
        "event_total": 76,
        "has_played": true,
        "id": 22271244,
        "last_rank": 117423,
        "player_name": "David Short",
        "rank": 70078,
        "rank_sort": 70233,
        "total": 2340
      },
      {
        "club_badge_src": "https://fantasy.premierleague.com/gcs/plfpl-production-adobe-approved/plfpl-production/3038976/04feb070-829e-447b-9680-c6fd0ffbd939.png",
        "entry": 3038976,
        "entry_name": "IncogNeto",
        "event_total": 54,
        "has_played": true,
        "id": 22367559,
        "last_rank": 64830,
        "player_name": "Jamia Azad",
        "rank": 70078,
        "rank_sort": 70234,
        "total": 2340
      },
      {
        "club_badge_src": null,
        "entry": 3134303,
        "entry_name": "Wirtzwizards",
        "event_total": 71,
        "has_played": true,
        "id": 23135747,
        "last_rank": 93443,
        "player_name": "Barry Cunnane",
        "rank": 70078,
        "rank_sort": 70235,
        "total": 2340
      },
      {
        "club_badge_src": null,
        "entry": 3179899,
        "entry_name": "Return of the Mac",
        "event_total": 47,
        "has_played": true,
        "id": 23497562,
        "last_rank": 53345,
        "player_name": "Mac Karpeta",
        "rank": 70078,
        "rank_sort": 70236,
        "total": 2340
      },
      {
        "club_badge_src": null,
        "entry": 3180850,
        "entry_name": "BvBIreland",
        "event_total": 56,
        "has_played": true,
        "id": 23504707,
        "last_rank": 68957,
        "player_name": "Darragh McKiernan",
        "rank": 70078,
        "rank_sort": 70237,
        "total": 2340
      },
      {
        "club_badge_src": null,
        "entry": 3304112,
        "entry_name": "AIDreamTeam2",
        "event_total": 70,
        "has_played": true,
        "id": 24473489,
        "last_rank": 100700,
        "player_name": "keshav taurah",
        "rank": 70078,
        "rank_sort": 70238,
        "total": 2340
      },
      {
        "club_badge_src": "https://fantasy.premierleague.com/gcs/plfpl-production-adobe-approved/plfpl-production/3345504/ee84832a-248f-416e-84ec-1d9fb4f02cf6.png",
        "entry": 3345504,
        "entry_name": "The Fish Shack FFC",
        "event_total": 53,
        "has_played": true,
        "id": 24816344,
        "last_rank": 63724,
        "player_name": "Les Edwards",
        "rank": 70078,
        "rank_sort": 70239,
        "total": 2340
      },
      {
        "club_badge_src": null,
        "entry": 3351463,
        "entry_name": "Tippeh\u00f8na United",
        "event_total": 53,
        "has_played": true,
        "id": 24863361,
        "last_rank": 63724,
        "player_name": "Astrid G. Granum",
        "rank": 70078,
        "rank_sort": 70240,
        "total": 2340
      },
      {
        "club_badge_src": "https://fantasy.premierleague.com/gcs/plfpl-production-adobe-approved/plfpl-production/3386338/65a6170e-6593-424b-9c03-597dd1915287.png",
        "entry": 3386338,
        "entry_name": "cr\u00e9me de la prem",
        "event_total": 63,
        "has_played": true,
        "id": 25138550,
        "last_rank": 84360,
        "player_name": "Simon Nield",
        "rank": 70078,
        "rank_sort": 70241,
        "total": 2340
      },
      {
        "club_badge_src": null,
        "entry": 3419398,
        "entry_name": "Citizen Cain",
        "event_total": 66,
        "has_played": true,
        "id": 25398768,
        "last_rank": 91006,
        "player_name": "Cain Mackenzie-Yapa",
        "rank": 70078,
        "rank_sort": 70242,
        "total": 2340
      },
      {
        "club_badge_src": null,
        "entry": 3423122,
        "entry_name": "R9",
        "event_total": 44,
        "has_played": true,
        "id": 25427560,
        "last_rank": 48642,
        "player_name": "Mohammed Alkubaisi",
        "rank": 70078,
        "rank_sort": 70243,
        "total": 2340
      },
      {
        "club_badge_src": null,
        "entry": 3432385,
        "entry_name": "PureGold FC",
        "event_total": 52,
        "has_played": true,
        "id": 25498100,
        "last_rank": 61950,
        "player_name": "Prasun Gurung",
        "rank": 70078,
        "rank_sort": 70244,
        "total": 2340
      },
      {
        "club_badge_src": null,
        "entry": 3472837,
        "entry_name": "Tickle Monster",
        "event_total": 61,
        "has_played": true,
        "id": 25819319,
        "last_rank": 80194,
        "player_name": "Joe Hamblin",
        "rank": 70078,
        "rank_sort": 70245,
        "total": 2340
      },
      {
        "club_badge_src": "https://fantasy.premierleague.com/gcs/plfpl-production-adobe-approved/plfpl-production/3516317/58b09388-6ec7-446f-8937-c7e94e3db1f0.png",
        "entry": 3516317,
        "entry_name": "Great XI",
        "event_total": 48,
        "has_played": true,
        "id": 26166285,
        "last_rank": 55014,
        "player_name": "Farhan Khaled Adib",
        "rank": 70078,
        "rank_sort": 70246,
        "total": 2340
      },
      {
        "club_badge_src": null,
        "entry": 3532925,
        "entry_name": "Ndiaye Another Day",
        "event_total": 53,
        "has_played": true,
        "id": 26295106,
        "last_rank": 63724,
        "player_name": "Kenny Merritt",
        "rank": 70078,
        "rank_sort": 70247,
        "total": 2340
      },
      {
        "club_badge_src": null,
        "entry": 3567426,
        "entry_name": "pendelis",
        "event_total": 54,
        "has_played": true,
        "id": 26562993,
        "last_rank": 65796,
        "player_name": "Egidijus Nartkus",
        "rank": 70078,
        "rank_sort": 70248,
        "total": 2340
      },
      {
        "club_badge_src": null,
        "entry": 3570921,
        "entry_name": "Glocktherest",
        "event_total": 41,
        "has_played": true,
        "id": 26589432,
        "last_rank": 44525,
        "player_name": "Trinity Domson",
        "rank": 70078,
        "rank_sort": 70249,
        "total": 2340
      },
      {
        "club_badge_src": null,
        "entry": 3582475,
        "entry_name": "African Fitness",
        "event_total": 66,
        "has_played": true,
        "id": 26678329,
        "last_rank": 91466,
        "player_name": "Ali Ramadhan",
        "rank": 70078,
        "rank_sort": 70250,
        "total": 2340
      }
    ]
  }
}