{
  "last_updated_data": "2026-05-24T23:28:17Z",
  "league": {
    "admin_entry": null,
    "closed": false,
    "code_privacy": "p",
    "created": "2025-07-20T23:14:33.933835Z",
    "cup_league": 2815434,
    "has_cup": true,
    "id": 314,
    "league_type": "s",
    "max_entries": null,
    "name": "Overall",
    "rank": null,
    "scoring": "c",
    "start_event": 1
  },
  "new_entries": {
    "has_next": false,
    "page": 1,
    "results": []
  },
  "standings": {
    "has_next": true,
    "page": 838,
    "results": [
      {
        "club_badge_src": null,
        "entry": 6103219,
        "entry_name": "The Storm Drakes FC",
        "event_total": 51,
        "has_played": true,
        "id": 48203413,
        "last_rank": 34578,
        "player_name": "Beshoy Luka",
        "rank": 41752,
        "rank_sort": 41851,
        "total": 2358
      },
      {
        "club_badge_src": null,
        "entry": 6205149,
        "entry_name": "FING ARBLASTER",
        "event_total": 58,
        "has_played": true,
        "id": 49089769,
        "last_rank": 43342,
        "player_name": "Daley Stokes",
        "rank": 41752,
        "rank_sort": 41852,
        "total": 2358
      },
      {
        "club_badge_src": "https://fantasy.premierleague.com/gcs/plfpl-production-adobe-approved/plfpl-production/6219243/e4350301-f666-4cfe-8aab-e241a796e029.png",
        "entry": 6219243,
        "entry_name": "dip your tosin",
        "event_total": 61,
        "has_played": true,
        "id": 49210267,
        "last_rank": 47596,
        "player_name": "Joshua Jackson",
        "rank": 41752,
        "rank_sort": 41853,
        "total": 2358
      },
      {
        "club_badge_src": null,
        "entry": 6358058,
        "entry_name": "sijja kwogela",
        "event_total": 53,
        "has_played": true,
        "id": 50549727,
        "last_rank": 36963,
        "player_name": "Patrick Evans",
        "rank": 41752,
        "rank_sort": 41854,
        "total": 2358
      },
      {
        "club_badge_src": null,
        "entry": 6536923,
        "entry_name": "JIMMYS XI",
        "event_total": 58,
        "has_played": true,
        "id": 52150529,
        "last_rank": 38016,
        "player_name": "James Playle",
        "rank": 41752,
        "rank_sort": 41855,
        "total": 2358
      },
      {
        "club_badge_src": null,
        "entry": 6556841,
        "entry_name": "Bongo Ball FC",
        "event_total": 68,
        "has_played": true,
        "id": 52327744,
        "last_rank": 58688,
        "player_name": "Zoltan Werth",
        "rank": 41752,
        "rank_sort": 41856,
        "total": 2358
      },
      {
        "club_badge_src": "https://fantasy.premierleague.com/gcs/plfpl-production-adobe-approved/plfpl-production/7242990/a730ad73-f4a9-427b-8719-1acba1709eac.png",
        "entry": 7242990,
        "entry_name": "PartyOnZidanesFloor",
        "event_total": 60,
        "has_played": true,
        "id": 58536119,
        "last_rank": 45927,
        "player_name": "Sergio Johnson",
        "rank": 41752,
        "rank_sort": 41857,
        "total": 2358
      },
      {
        "club_badge_src": null,
        "entry": 8215465,
        "entry_name": "Horkinckles FC",
        "event_total": 63,
        "has_played": true,
        "id": 67887816,
        "last_rank": 50635,
        "player_name": "Eduard Aprahamyan",
        "rank": 41752,
        "rank_sort": 41858,
        "total": 2358
      },
      {
        "club_badge_src": null,
        "entry": 8407600,
        "entry_name": "Pearce FC",
        "event_total": 68,
        "has_played": true,
        "id": 69748873,
        "last_rank": 51984,
        "player_name": "Ben Pearce",
        "rank": 41752,
        "rank_sort": 41859,
        "total": 2358
      },
      {
        "club_badge_src": "https://fantasy.premierleague.com/gcs/plfpl-production-adobe-approved/plfpl-production/8435112/b79ffb5c-67a0-4b91-bf1e-127f090675cb.png",
        "entry": 8435112,
        "entry_name": "Union BB",
        "event_total": 58,
        "has_played": true,
        "id": 70013971,
        "last_rank": 42940,
        "player_name": "Karl Omito",
        "rank": 41752,
        "rank_sort": 41860,
        "total": 2358
      },
      {
        "club_badge_src": null,
        "entry": 8516606,
        "entry_name": "Abotaleb",
        "event_total": 64,
        "has_played": true,
        "id": 70798060,
        "last_rank": 51984,
        "player_name": "Mohamed Ayman",
        "rank": 41752,
        "rank_sort": 41861,
        "total": 2358
      },
      {
        "club_badge_src": null,
        "entry": 9047862,
        "entry_name": "WINNER!",
        "event_total": 54,
        "has_played": true,
        "id": 75944118,
        "last_rank": 38016,
        "player_name": "Malgorzata Symeryak",
        "rank": 41752,
        "rank_sort": 41862,
        "total": 2358
      },
      {
        "club_badge_src": null,
        "entry": 9050596,
        "entry_name": "tiny turtle on skate",
        "event_total": 54,
        "has_played": true,
        "id": 75970700,
        "last_rank": 38163,
        "player_name": "Sulaiman Alnjashi",
        "rank": 41752,
        "rank_sort": 41863,
        "total": 2358
      },
      {
        "club_badge_src": null,
        "entry": 9257607,
        "entry_name": "Arsenal Force",
        "event_total": 66,
        "has_played": true,
        "id": 77996614,
        "last_rank": 55514,
        "player_name": "Shivram VA",
        "rank": 41752,
        "rank_sort": 41864,
        "total": 2358
      },
      {
        "club_badge_src": null,
        "entry": 104,
        "entry_name": "Viva La Madge",
        "event_total": 61,
        "has_played": true,
        "id": 571,
        "last_rank": 41967,
        "player_name": "Liam O Reilly",
        "rank": 41865,
        "rank_sort": 41865,
        "total": 2358
      },
      {
        "club_badge_src": null,
        "entry": 8944,
        "entry_name": "It's Pau or Never",
        "event_total": 64,
        "has_played": true,
        "id": 52283,
        "last_rank": 46106,
        "player_name": "Braden Valles",
        "rank": 41865,
        "rank_sort": 41866,
        "total": 2358
      },
      {
        "club_badge_src": null,
        "entry": 15845,
        "entry_name": "Albatros",
        "event_total": 51,
        "has_played": true,
        "id": 97565,
        "last_rank": 30191,
        "player_name": "Brajan Wierciszewski",
        "rank": 41865,
        "rank_sort": 41867,
        "total": 2358
      },
      {
        "club_badge_src": "https://fantasy.premierleague.com/gcs/plfpl-production-adobe-approved/plfpl-production/16307/962022af-3aaa-4385-991c-736da89de566.png",
        "entry": 16307,
        "entry_name": "Pep Guardi \u00f4 t\u00f4",
        "event_total": 48,
        "has_played": true,
        "id": 100648,
        "last_rank": 27304,
        "player_name": "The Psy",
        "rank": 41865,
        "rank_sort": 41868,
        "total": 2358
      },
      {
        "club_badge_src": null,
        "entry": 17390,
        "entry_name": "Donkey",
        "event_total": 55,
        "has_played": true,
        "id": 107872,
        "last_rank": 34578,
        "player_name": "Trevor Stedman",
        "rank": 41865,
        "rank_sort": 41869,
        "total": 2358
      },
      {
        "club_badge_src": null,
        "entry": 23846,
        "entry_name": "The Special Ones",
        "event_total": 60,
        "has_played": true,
        "id": 150362,
        "last_rank": 46106,
        "player_name": "Tarek Balbaa",
        "rank": 41865,
        "rank_sort": 41870,
        "total": 2358
      },
      {
        "club_badge_src": null,
        "entry": 29337,
        "entry_name": "11 Berbatovs",
        "event_total": 69,
        "has_played": true,
        "id": 185480,
        "last_rank": 60671,
        "player_name": "Jon Melby",
        "rank": 41865,
        "rank_sort": 41871,
        "total": 2358
      },
      {
        "club_badge_src": null,
        "entry": 29553,
        "entry_name": "Seskoeverylittlehelp",
        "event_total": 64,
        "has_played": true,
        "id": 186902,
        "last_rank": 46106,
        "player_name": "Antony Fitzpatrick",
        "rank": 41865,
        "rank_sort": 41872,
        "total": 2358
      },
      {
        "club_badge_src": null,
        "entry": 31877,
        "entry_name": "Ekitike-Taka",
        "event_total": 53,
        "has_played": true,
        "id": 202389,
        "last_rank": 28150,
        "player_name": "Ronan Miller",
        "rank": 41865,
        "rank_sort": 41873,
        "total": 2358
      },
      {
        "club_badge_src": null,
        "entry": 34343,
        "entry_name": "KZ",
        "event_total": 68,
        "has_played": true,
        "id": 219335,
        "last_rank": 58911,
        "player_name": "Nur Khayra",
        "rank": 41865,
        "rank_sort": 41874,
        "total": 2358
      },
      {
        "club_badge_src": null,
        "entry": 45846,
        "entry_name": "I love Patrick Dorgu",
        "event_total": 72,
        "has_played": true,
        "id": 294068,
        "last_rank": 58911,
        "player_name": "Harry Glynn",
        "rank": 41865,
        "rank_sort": 41875,
        "total": 2358
      },
      {
        "club_badge_src": "https://fantasy.premierleague.com/gcs/plfpl-production-adobe-approved/plfpl-production/60569/3912aca0-adec-4280-974b-54fd81993ee1.png",
        "entry": 60569,
        "entry_name": "Rarely_reply",
        "event_total": 68,
        "has_played": true,
        "id": 389967,
        "last_rank": 58911,
        "player_name": "Thanadech Surakamhaeng",
        "rank": 41865,
        "rank_sort": 41876,
        "total": 2358
      },
      {
        "club_badge_src": null,
        "entry": 72282,
        "entry_name": "Mogz United",
        "event_total": 60,
        "has_played": true,
        "id": 469675,
        "last_rank": 46106,
        "player_name": "Owen Morgan",
        "rank": 41865,
        "rank_sort": 41877,
        "total": 2358
      },
      {
        "club_badge_src": null,
        "entry": 90464,
        "entry_name": "Keato Stars ***",
        "event_total": 51,
        "has_played": true,
        "id": 590641,
        "last_rank": 34682,
        "player_name": "Alex Keating",
        "rank": 41865,
        "rank_sort": 41878,
        "total": 2358
      },
      {
        "club_badge_src": "https://fantasy.premierleague.com/gcs/plfpl-production-adobe-approved/plfpl-production/100066/aec9c6c1-1721-43a0-9682-f44651895ed5.png",
        "entry": 100066,
        "entry_name": "Rosewoods FC",
        "event_total": 67,
        "has_played": true,
        "id": 653102,
        "last_rank": 50468,
        "player_name": "Daniel Witte",
        "rank": 41865,
        "rank_sort": 41879,
        "total": 2358
      },
      {
        "club_badge_src": null,
        "entry": 119170,
        "entry_name": "Reece Lightning",
        "event_total": 43,
        "has_played": true,
        "id": 777581,
        "last_rank": 26425,
        "player_name": "Jake Wright",
        "rank": 41865,
        "rank_sort": 41880,
        "total": 2358
      },
      {
        "club_badge_src": null,
        "entry": 134152,
        "entry_name": "Piast\u00f3w FC",
        "event_total": 47,
        "has_played": true,
        "id": 873713,
        "last_rank": 30191,
        "player_name": "Tomasz Sok\u00f3\u0142",
        "rank": 41865,
        "rank_sort": 41881,
        "total": 2358
      },
      {
        "club_badge_src": null,
        "entry": 134578,
        "entry_name": "moeezi",
        "event_total": 59,
        "has_played": true,
        "id": 876463,
        "last_rank": 39246,
        "player_name": "Moeez Ejaz",
        "rank": 41865,
        "rank_sort": 41882,
        "total": 2358
      },
      {
        "club_badge_src": null,
        "entry": 136926,
        "entry_name": "Team Andres",
        "event_total": 60,
        "has_played": true,
        "id": 892191,
        "last_rank": 46106,
        "player_name": "Anders S\u00f8rlien",
        "rank": 41865,
        "rank_sort": 41883,
        "total": 2358
      },
      {
        "club_badge_src": "https://fantasy.premierleague.com/gcs/plfpl-production-adobe-approved/plfpl-production/148496/3da9302a-f8c8-411f-8322-c7cfb7a05fc2.png",
        "entry": 148496,
        "entry_name": "BLG Reds Army",
        "event_total": 57,
        "has_played": true,
        "id": 973406,
        "last_rank": 36963,
        "player_name": "Stanoy Golev",
        "rank": 41865,
        "rank_sort": 41884,
        "total": 2358
      },
      {
        "club_badge_src": "https://fantasy.premierleague.com/gcs/plfpl-production-adobe-approved/plfpl-production/249627/3c8a2b82-a559-440e-becf-05d17faee557.png",
        "entry": 249627,
        "entry_name": "AC Krakken",
        "event_total": 64,
        "has_played": true,
        "id": 1661109,
        "last_rank": 46106,
        "player_name": "Jonas Baardsen",
        "rank": 41865,
        "rank_sort": 41885,
        "total": 2358
      },
      {
        "club_badge_src": "https://fantasy.premierleague.com/gcs/plfpl-production-adobe-approved/plfpl-production/258292/1b9e1fac-ad96-44d6-86dc-807543901fe8.png",
        "entry": 258292,
        "entry_name": "Leo Marco",
        "event_total": 63,
        "has_played": true,
        "id": 1717550,
        "last_rank": 44672,
        "player_name": "Marcorios Hany",
        "rank": 41865,
        "rank_sort": 41886,
        "total": 2358
      },
      {
        "club_badge_src": null,
        "entry": 283021,
        "entry_name": "Ekitike-Taka",
        "event_total": 46,
        "has_played": true,
        "id": 1884041,
        "last_rank": 25436,
        "player_name": "zane dagher",
        "rank": 41865,
        "rank_sort": 41887,
        "total": 2358
      },
      {
        "club_badge_src": null,
        "entry": 353568,
        "entry_name": "Spartak Sete Fontes",
        "event_total": 56,
        "has_played": true,
        "id": 2366369,
        "last_rank": 40770,
        "player_name": "Diogo EA",
        "rank": 41865,
        "rank_sort": 41888,
        "total": 2358
      },
      {
        "club_badge_src": null,
        "entry": 366248,
        "entry_name": "Corn On The Kobbie",
        "event_total": 71,
        "has_played": true,
        "id": 2450862,
        "last_rank": 64319,
        "player_name": "Tyler Martin",
        "rank": 41865,
        "rank_sort": 41889,
        "total": 2358
      },
      {
        "club_badge_src": null,
        "entry": 369903,
        "entry_name": "Kaiser Eze",
        "event_total": 59,
        "has_played": true,
        "id": 2475230,
        "last_rank": 44672,
        "player_name": "Zain Noor",
        "rank": 41865,
        "rank_sort": 41890,
        "total": 2358
      },
      {
        "club_badge_src": null,
        "entry": 403423,
        "entry_name": "Platty United",
        "event_total": 67,
        "has_played": true,
        "id": 2705136,
        "last_rank": 50635,
        "player_name": "Steve Platt",
        "rank": 41865,
        "rank_sort": 41891,
        "total": 2358
      },
      {
        "club_badge_src": null,
        "entry": 714908,
        "entry_name": "Haloufa",
        "event_total": 58,
        "has_played": true,
        "id": 4850288,
        "last_rank": 43444,
        "player_name": "Haloufa Nar",
        "rank": 41865,
        "rank_sort": 41892,
        "total": 2358
      },
      {
        "club_badge_src": null,
        "entry": 818964,
        "entry_name": "Mansour",
        "event_total": 74,
        "has_played": true,
        "id": 5608659,
        "last_rank": 69907,
        "player_name": "Ahmed Mansour",
        "rank": 41865,
        "rank_sort": 41893,
        "total": 2358
      },
      {
        "club_badge_src": null,
        "entry": 820563,
        "entry_name": "A PACK OF WOLVES",
        "event_total": 35,
        "has_played": true,
        "id": 5619785,
        "last_rank": 19904,
        "player_name": "Steven Yates",
        "rank": 41865,
        "rank_sort": 41894,
        "total": 2358
      },
      {
        "club_badge_src": null,
        "entry": 863251,
        "entry_name": "Madden2005Official",
        "event_total": 58,
        "has_played": true,
        "id": 5917964,
        "last_rank": 38163,
        "player_name": "Brian Kaspari",
        "rank": 41865,
        "rank_sort": 41895,
        "total": 2358
      },
      {
        "club_badge_src": null,
        "entry": 1070367,
        "entry_name": "Old Skertonians",
        "event_total": 62,
        "has_played": true,
        "id": 7410098,
        "last_rank": 49207,
        "player_name": "Craig Rogerson",
        "rank": 41865,
        "rank_sort": 41896,
        "total": 2358
      },
      {
        "club_badge_src": null,
        "entry": 1280479,
        "entry_name": "Jogo Bonito",
        "event_total": 62,
        "has_played": true,
        "id": 8897751,
        "last_rank": 43168,
        "player_name": "Oliver Gray",
        "rank": 41865,
        "rank_sort": 41897,
        "total": 2358
      },
      {
        "club_badge_src": null,
        "entry": 1299609,
        "entry_name": "\u2728\u2728 AMAZING \u2728\u2728",
        "event_total": 65,
        "has_played": true,
        "id": 9032233,
        "last_rank": 47596,
        "player_name": "Stephen  A Badu",
        "rank": 41865,
        "rank_sort": 41898,
        "total": 2358
      },
      {
        "club_badge_src": null,
        "entry": 1326071,
        "entry_name": "Chu F.C.",
        "event_total": 54,
        "has_played": true,
        "id": 9217522,
        "last_rank": 38163,
        "player_name": "Chu Chee Howe",
        "rank": 41865,
        "rank_sort": 41899,
        "total": 2358
      },
      {
        "club_badge_src": null,
        "entry": 1551933,
        "entry_name": "2INDORGU1INTHEP00",
        "event_total": 60,
        "has_played": true,
        "id": 10835786,
        "last_rank": 46236,
        "player_name": "jon ford",
        "rank": 41865,
        "rank_sort": 41900,
        "total": 2358
      }
    ]
  }
}