{
  "last_updated_data": "2026-05-24T23:28:17Z",
  "league": {
    "admin_entry": null,
    "closed": false,
    "code_privacy": "p",
    "created": "2025-07-20T23:14:33.933835Z",
    "cup_league": 2815434,
    "has_cup": true,
    "id": 314,
    "league_type": "s",
    "max_entries": null,
    "name": "Overall",
    "rank": null,
    "scoring": "c",
    "start_event": 1
  },
  "new_entries": {
    "has_next": false,
    "page": 1,
    "results": []
  },
  "standings": {
    "has_next": true,
    "page": 395,
    "results": [
      {
        "club_badge_src": null,
        "entry": 6719993,
        "entry_name": "Now I'm A Baleba",
        "event_total": 73,
        "has_played": true,
        "id": 53781511,
        "last_rank": 33582,
        "player_name": "Rishi Sarkar",
        "rank": 19654,
        "rank_sort": 19701,
        "total": 2381
      },
      {
        "club_badge_src": null,
        "entry": 7228376,
        "entry_name": "Neville Wears Prada",
        "event_total": 74,
        "has_played": true,
        "id": 58400274,
        "last_rank": 34578,
        "player_name": "Louis Serkis",
        "rank": 19654,
        "rank_sort": 19702,
        "total": 2381
      },
      {
        "club_badge_src": "https://fantasy.premierleague.com/gcs/plfpl-production-adobe-approved/plfpl-production/8163112/a5169653-fb0c-4e2a-b1e1-4933c887faae.png",
        "entry": 8163112,
        "entry_name": "Kinder Mbeumo",
        "event_total": 54,
        "has_played": true,
        "id": 67390601,
        "last_rank": 14668,
        "player_name": "Daniel Lamont",
        "rank": 19654,
        "rank_sort": 19703,
        "total": 2381
      },
      {
        "club_badge_src": null,
        "entry": 8297142,
        "entry_name": "\u99ac\u978d\u5c71\u9ea5\u4f73\u4e9e",
        "event_total": 60,
        "has_played": true,
        "id": 68679833,
        "last_rank": 21392,
        "player_name": "Monday Tsui",
        "rank": 19654,
        "rank_sort": 19704,
        "total": 2381
      },
      {
        "club_badge_src": null,
        "entry": 8853491,
        "entry_name": "Champions FC",
        "event_total": 63,
        "has_played": true,
        "id": 74059879,
        "last_rank": 23857,
        "player_name": "Adrian H",
        "rank": 19654,
        "rank_sort": 19705,
        "total": 2381
      },
      {
        "club_badge_src": null,
        "entry": 47480,
        "entry_name": "Boba Yaga",
        "event_total": 60,
        "has_played": true,
        "id": 304586,
        "last_rank": 21450,
        "player_name": "John Thicck",
        "rank": 19706,
        "rank_sort": 19706,
        "total": 2381
      },
      {
        "club_badge_src": null,
        "entry": 57289,
        "entry_name": "\u0646\u0627\u0635\u0631 \u0647\u0627\u062c \u0646\u0627\u0635\u0631 \u0645\u0627\u062c",
        "event_total": 61,
        "has_played": true,
        "id": 369045,
        "last_rank": 22263,
        "player_name": "mandoor Mohammed",
        "rank": 19706,
        "rank_sort": 19707,
        "total": 2381
      },
      {
        "club_badge_src": null,
        "entry": 63745,
        "entry_name": "Tom United",
        "event_total": 69,
        "has_played": true,
        "id": 411338,
        "last_rank": 22154,
        "player_name": "Tom Rowley",
        "rank": 19706,
        "rank_sort": 19708,
        "total": 2381
      },
      {
        "club_badge_src": "https://fantasy.premierleague.com/gcs/plfpl-production-adobe-approved/plfpl-production/98185/ffda0d3c-c98e-4368-8aff-df990ad4e545.png",
        "entry": 98185,
        "entry_name": "North London Nomads",
        "event_total": 57,
        "has_played": true,
        "id": 641235,
        "last_rank": 16567,
        "player_name": "Tolegen Sattay",
        "rank": 19706,
        "rank_sort": 19709,
        "total": 2381
      },
      {
        "club_badge_src": null,
        "entry": 273080,
        "entry_name": "Bruno YerNansDead",
        "event_total": 68,
        "has_played": true,
        "id": 1817005,
        "last_rank": 28388,
        "player_name": "fen bleasdale",
        "rank": 19706,
        "rank_sort": 19710,
        "total": 2381
      },
      {
        "club_badge_src": null,
        "entry": 340176,
        "entry_name": "Struber Eats",
        "event_total": 68,
        "has_played": true,
        "id": 2277095,
        "last_rank": 28388,
        "player_name": "Ben Harvey",
        "rank": 19706,
        "rank_sort": 19711,
        "total": 2381
      },
      {
        "club_badge_src": null,
        "entry": 348360,
        "entry_name": "Saka Potatoes",
        "event_total": 65,
        "has_played": true,
        "id": 2331782,
        "last_rank": 22216,
        "player_name": "Cormac Gibney",
        "rank": 19706,
        "rank_sort": 19712,
        "total": 2381
      },
      {
        "club_badge_src": "https://fantasy.premierleague.com/gcs/plfpl-production-adobe-approved/plfpl-production/352714/26e6fa10-0c01-41e2-8686-6eb62377abea.png",
        "entry": 352714,
        "entry_name": "Allan Dunn Vacuums",
        "event_total": 49,
        "has_played": true,
        "id": 2360701,
        "last_rank": 11957,
        "player_name": "Colin Adams",
        "rank": 19706,
        "rank_sort": 19713,
        "total": 2381
      },
      {
        "club_badge_src": null,
        "entry": 461263,
        "entry_name": "Nei Nei Neymar",
        "event_total": 66,
        "has_played": true,
        "id": 3094182,
        "last_rank": 22996,
        "player_name": "J\u00f8rn Lurud",
        "rank": 19706,
        "rank_sort": 19714,
        "total": 2381
      },
      {
        "club_badge_src": null,
        "entry": 646596,
        "entry_name": "Krafth and Furious",
        "event_total": 64,
        "has_played": true,
        "id": 4369700,
        "last_rank": 18475,
        "player_name": "Matthew Wood",
        "rank": 19706,
        "rank_sort": 19715,
        "total": 2381
      },
      {
        "club_badge_src": null,
        "entry": 646954,
        "entry_name": "Bayer Neverlosin",
        "event_total": 48,
        "has_played": true,
        "id": 4372141,
        "last_rank": 13629,
        "player_name": "Matthew Saunders",
        "rank": 19706,
        "rank_sort": 19716,
        "total": 2381
      },
      {
        "club_badge_src": null,
        "entry": 1243463,
        "entry_name": "KanonenBk",
        "event_total": 68,
        "has_played": true,
        "id": 8635875,
        "last_rank": 21392,
        "player_name": "Jimmy Nilsson",
        "rank": 19706,
        "rank_sort": 19717,
        "total": 2381
      },
      {
        "club_badge_src": null,
        "entry": 1264811,
        "entry_name": "No Fox Given",
        "event_total": 56,
        "has_played": true,
        "id": 8787942,
        "last_rank": 15920,
        "player_name": "Robin Sivebro",
        "rank": 19706,
        "rank_sort": 19718,
        "total": 2381
      },
      {
        "club_badge_src": null,
        "entry": 1339678,
        "entry_name": "Azzdogs11",
        "event_total": 62,
        "has_played": true,
        "id": 9314171,
        "last_rank": 23039,
        "player_name": "Aaron Caton-Hand",
        "rank": 19706,
        "rank_sort": 19719,
        "total": 2381
      },
      {
        "club_badge_src": "https://fantasy.premierleague.com/gcs/plfpl-production-adobe-approved/plfpl-production/1463904/e8f301d5-67df-49e8-9ceb-d8554a4fa9ce.png",
        "entry": 1463904,
        "entry_name": "Mohammad Shehata",
        "event_total": 68,
        "has_played": true,
        "id": 10204112,
        "last_rank": 28388,
        "player_name": "mohammad shehata",
        "rank": 19706,
        "rank_sort": 19720,
        "total": 2381
      },
      {
        "club_badge_src": null,
        "entry": 1527545,
        "entry_name": "Die Mannschaft",
        "event_total": 55,
        "has_played": true,
        "id": 10654288,
        "last_rank": 15280,
        "player_name": "Sem Van der Voort",
        "rank": 19706,
        "rank_sort": 19721,
        "total": 2381
      },
      {
        "club_badge_src": null,
        "entry": 1998086,
        "entry_name": "barrymcc2",
        "event_total": 50,
        "has_played": true,
        "id": 14120325,
        "last_rank": 14746,
        "player_name": "Barry McCambridge",
        "rank": 19706,
        "rank_sort": 19722,
        "total": 2381
      },
      {
        "club_badge_src": null,
        "entry": 2039484,
        "entry_name": "Blesa",
        "event_total": 61,
        "has_played": true,
        "id": 14442372,
        "last_rank": 19237,
        "player_name": "Sasa Vukovic",
        "rank": 19706,
        "rank_sort": 19723,
        "total": 2381
      },
      {
        "club_badge_src": null,
        "entry": 2053262,
        "entry_name": "Palmer Violets",
        "event_total": 75,
        "has_played": true,
        "id": 14544372,
        "last_rank": 31309,
        "player_name": "Adam Crowley",
        "rank": 19706,
        "rank_sort": 19724,
        "total": 2381
      },
      {
        "club_badge_src": "https://fantasy.premierleague.com/gcs/plfpl-production-adobe-approved/plfpl-production/2123839/6aa231bd-83d4-4737-af9a-c419b1a33388.png",
        "entry": 2123839,
        "entry_name": "Unicorn Sports FC",
        "event_total": 64,
        "has_played": true,
        "id": 15087530,
        "last_rank": 18475,
        "player_name": "Richard Mackay-Smith",
        "rank": 19706,
        "rank_sort": 19725,
        "total": 2381
      },
      {
        "club_badge_src": "https://fantasy.premierleague.com/gcs/plfpl-production-adobe-approved/plfpl-production/2239266/1489a517-7871-4f8d-9670-c6f6d96fbbd5.png",
        "entry": 2239266,
        "entry_name": "lokesh fc",
        "event_total": 65,
        "has_played": true,
        "id": 15952743,
        "last_rank": 22216,
        "player_name": "lokesh mufc",
        "rank": 19706,
        "rank_sort": 19726,
        "total": 2381
      },
      {
        "club_badge_src": null,
        "entry": 2802121,
        "entry_name": "ChickenTikkaMoSalah",
        "event_total": 49,
        "has_played": true,
        "id": 20462354,
        "last_rank": 14171,
        "player_name": "Thomas Samuels",
        "rank": 19706,
        "rank_sort": 19727,
        "total": 2381
      },
      {
        "club_badge_src": null,
        "entry": 2885706,
        "entry_name": "Cunha believe it",
        "event_total": 59,
        "has_played": true,
        "id": 21126417,
        "last_rank": 17848,
        "player_name": "Ryan Dearman",
        "rank": 19706,
        "rank_sort": 19728,
        "total": 2381
      },
      {
        "club_badge_src": null,
        "entry": 3014543,
        "entry_name": "HuttonDressedAsLahm",
        "event_total": 60,
        "has_played": true,
        "id": 22177714,
        "last_rank": 18377,
        "player_name": "Nick Dixon",
        "rank": 19706,
        "rank_sort": 19729,
        "total": 2381
      },
      {
        "club_badge_src": "https://fantasy.premierleague.com/gcs/plfpl-production-adobe-approved/plfpl-production/4034326/5409356e-095b-46f9-81b7-833723b2d426.png",
        "entry": 4034326,
        "entry_name": "GoMaa",
        "event_total": 63,
        "has_played": true,
        "id": 30418748,
        "last_rank": 20678,
        "player_name": "Ahmed Gomaa",
        "rank": 19706,
        "rank_sort": 19730,
        "total": 2381
      },
      {
        "club_badge_src": null,
        "entry": 4332884,
        "entry_name": "Hakuna Mateta",
        "event_total": 47,
        "has_played": true,
        "id": 32891951,
        "last_rank": 13084,
        "player_name": "Kirsty Wetherall",
        "rank": 19706,
        "rank_sort": 19731,
        "total": 2381
      },
      {
        "club_badge_src": null,
        "entry": 4915802,
        "entry_name": "McJ\u00f6nnister",
        "event_total": 64,
        "has_played": true,
        "id": 37914447,
        "last_rank": 24570,
        "player_name": "Emil J\u00f6nsson",
        "rank": 19706,
        "rank_sort": 19732,
        "total": 2381
      },
      {
        "club_badge_src": null,
        "entry": 5943025,
        "entry_name": "The All Stars",
        "event_total": 59,
        "has_played": true,
        "id": 46736319,
        "last_rank": 17848,
        "player_name": "Hassan Hussain",
        "rank": 19706,
        "rank_sort": 19733,
        "total": 2381
      },
      {
        "club_badge_src": "https://fantasy.premierleague.com/gcs/plfpl-production-adobe-approved/plfpl-production/6324979/f5daf93a-1d48-44a0-be1a-c66396fb54ad.png",
        "entry": 6324979,
        "entry_name": "J'AI UNE FILLE",
        "event_total": 57,
        "has_played": true,
        "id": 50243493,
        "last_rank": 16512,
        "player_name": "Aob Prathompat",
        "rank": 19706,
        "rank_sort": 19734,
        "total": 2381
      },
      {
        "club_badge_src": null,
        "entry": 7406866,
        "entry_name": "Salahry Unjustified",
        "event_total": 56,
        "has_played": true,
        "id": 60077327,
        "last_rank": 18555,
        "player_name": "Con Moclosk",
        "rank": 19706,
        "rank_sort": 19735,
        "total": 2381
      },
      {
        "club_badge_src": null,
        "entry": 7510168,
        "entry_name": "Tractor Bois",
        "event_total": 66,
        "has_played": true,
        "id": 61399602,
        "last_rank": 26475,
        "player_name": "Mark Hone",
        "rank": 19706,
        "rank_sort": 19736,
        "total": 2381
      },
      {
        "club_badge_src": null,
        "entry": 8113125,
        "entry_name": "Warriorgok",
        "event_total": 68,
        "has_played": true,
        "id": 66923090,
        "last_rank": 28388,
        "player_name": "Adegoke Kester",
        "rank": 19706,
        "rank_sort": 19737,
        "total": 2381
      },
      {
        "club_badge_src": null,
        "entry": 2285,
        "entry_name": "Bruno Dos Tres",
        "event_total": 51,
        "has_played": true,
        "id": 12738,
        "last_rank": 15336,
        "player_name": "Mohsin Malik",
        "rank": 19738,
        "rank_sort": 19738,
        "total": 2381
      },
      {
        "club_badge_src": null,
        "entry": 168995,
        "entry_name": "Thumpers Athletic",
        "event_total": 64,
        "has_played": true,
        "id": 1116857,
        "last_rank": 21486,
        "player_name": "Patrick Delahunt",
        "rank": 19738,
        "rank_sort": 19739,
        "total": 2381
      },
      {
        "club_badge_src": null,
        "entry": 850494,
        "entry_name": "divoke cervence",
        "event_total": 70,
        "has_played": true,
        "id": 5829546,
        "last_rank": 22996,
        "player_name": "Jan Zavadil",
        "rank": 19738,
        "rank_sort": 19740,
        "total": 2381
      },
      {
        "club_badge_src": "https://fantasy.premierleague.com/gcs/plfpl-production-adobe-approved/plfpl-production/921164/b5bf5e06-f945-4d8d-8fac-b1babd9d5c99.png",
        "entry": 921164,
        "entry_name": "Iron Eleven",
        "event_total": 67,
        "has_played": true,
        "id": 6335109,
        "last_rank": 27438,
        "player_name": "Rajko Cuk",
        "rank": 19738,
        "rank_sort": 19741,
        "total": 2381
      },
      {
        "club_badge_src": null,
        "entry": 1522450,
        "entry_name": "Stuitalia",
        "event_total": 64,
        "has_played": true,
        "id": 10618636,
        "last_rank": 21486,
        "player_name": "Stuart Ogden",
        "rank": 19738,
        "rank_sort": 19742,
        "total": 2381
      },
      {
        "club_badge_src": null,
        "entry": 2408753,
        "entry_name": "Wild Berries",
        "event_total": 73,
        "has_played": true,
        "id": 17217694,
        "last_rank": 19103,
        "player_name": "Nikkyta Robinson",
        "rank": 19738,
        "rank_sort": 19743,
        "total": 2381
      },
      {
        "club_badge_src": null,
        "entry": 2502985,
        "entry_name": "Nk masu para",
        "event_total": 70,
        "has_played": true,
        "id": 17923589,
        "last_rank": 30395,
        "player_name": "Mateo Parencan",
        "rank": 19738,
        "rank_sort": 19744,
        "total": 2381
      },
      {
        "club_badge_src": null,
        "entry": 2927225,
        "entry_name": "Gammurinn",
        "event_total": 63,
        "has_played": true,
        "id": 21460260,
        "last_rank": 23881,
        "player_name": "Dadi eyjolfsson",
        "rank": 19738,
        "rank_sort": 19745,
        "total": 2381
      },
      {
        "club_badge_src": null,
        "entry": 2980900,
        "entry_name": "Yoro Wizard Harry",
        "event_total": 40,
        "has_played": true,
        "id": 21916687,
        "last_rank": 9806,
        "player_name": "Conor Gallagher",
        "rank": 19738,
        "rank_sort": 19746,
        "total": 2381
      },
      {
        "club_badge_src": null,
        "entry": 3673266,
        "entry_name": "Peaky Reijnders",
        "event_total": 46,
        "has_played": true,
        "id": 27396075,
        "last_rank": 10629,
        "player_name": "Matt Bell",
        "rank": 19738,
        "rank_sort": 19747,
        "total": 2381
      },
      {
        "club_badge_src": null,
        "entry": 3870586,
        "entry_name": "Can\u2019t Stop Avalanche",
        "event_total": 64,
        "has_played": true,
        "id": 29038962,
        "last_rank": 24713,
        "player_name": "Basit Ademola",
        "rank": 19738,
        "rank_sort": 19748,
        "total": 2381
      },
      {
        "club_badge_src": null,
        "entry": 4306216,
        "entry_name": "\u0160tatl",
        "event_total": 56,
        "has_played": true,
        "id": 32671970,
        "last_rank": 15952,
        "player_name": "Petr Kurina",
        "rank": 19738,
        "rank_sort": 19749,
        "total": 2381
      },
      {
        "club_badge_src": null,
        "entry": 4338395,
        "entry_name": "Schrute Farms FC",
        "event_total": 57,
        "has_played": true,
        "id": 32938707,
        "last_rank": 19279,
        "player_name": "Markus Nakkim",
        "rank": 19738,
        "rank_sort": 19750,
        "total": 2381
      }
    ]
  }
}