{
  "last_updated_data": "2026-05-24T23:28:17Z",
  "league": {
    "admin_entry": null,
    "closed": false,
    "code_privacy": "p",
    "created": "2025-07-20T23:14:33.933835Z",
    "cup_league": 2815434,
    "has_cup": true,
    "id": 314,
    "league_type": "s",
    "max_entries": null,
    "name": "Overall",
    "rank": null,
    "scoring": "c",
    "start_event": 1
  },
  "new_entries": {
    "has_next": false,
    "page": 1,
    "results": []
  },
  "standings": {
    "has_next": true,
    "page": 870,
    "results": [
      {
        "club_badge_src": null,
        "entry": 141310,
        "entry_name": "Mesho Awad",
        "event_total": 64,
        "has_played": true,
        "id": 923213,
        "last_rank": 42263,
        "player_name": "Mesho Awad",
        "rank": 43449,
        "rank_sort": 43451,
        "total": 2357
      },
      {
        "club_badge_src": null,
        "entry": 152234,
        "entry_name": "AdhamQ",
        "event_total": 52,
        "has_played": true,
        "id": 999075,
        "last_rank": 28449,
        "player_name": "Adham quraitem",
        "rank": 43449,
        "rank_sort": 43452,
        "total": 2357
      },
      {
        "club_badge_src": null,
        "entry": 215295,
        "entry_name": "Yasser team",
        "event_total": 72,
        "has_played": true,
        "id": 1432054,
        "last_rank": 47868,
        "player_name": "Yasser Abo Khamis",
        "rank": 43449,
        "rank_sort": 43453,
        "total": 2357
      },
      {
        "club_badge_src": null,
        "entry": 487299,
        "entry_name": "Dick Duckworth",
        "event_total": 67,
        "has_played": true,
        "id": 3271410,
        "last_rank": 59335,
        "player_name": "Jonas Englund",
        "rank": 43449,
        "rank_sort": 43454,
        "total": 2357
      },
      {
        "club_badge_src": null,
        "entry": 759781,
        "entry_name": "Yoro Wizard Harry",
        "event_total": 45,
        "has_played": true,
        "id": 5178278,
        "last_rank": 29434,
        "player_name": "Haris Mahmood",
        "rank": 43449,
        "rank_sort": 43455,
        "total": 2357
      },
      {
        "club_badge_src": "https://fantasy.premierleague.com/gcs/plfpl-production-adobe-approved/plfpl-production/907693/6320ae83-f311-4685-be6b-6e232a7dd446.png",
        "entry": 907693,
        "entry_name": "High Flyers *",
        "event_total": 50,
        "has_played": true,
        "id": 6239523,
        "last_rank": 34864,
        "player_name": "Serhat Yazgun",
        "rank": 43449,
        "rank_sort": 43456,
        "total": 2357
      },
      {
        "club_badge_src": "https://fantasy.premierleague.com/gcs/plfpl-production-adobe-approved/plfpl-production/981828/792aea77-e5da-4c8c-9bdf-7e449b031496.png",
        "entry": 981828,
        "entry_name": "The Dicemen",
        "event_total": 69,
        "has_played": true,
        "id": 6768853,
        "last_rank": 55902,
        "player_name": "Jonathan Ellinghaus",
        "rank": 43449,
        "rank_sort": 43457,
        "total": 2357
      },
      {
        "club_badge_src": null,
        "entry": 1070216,
        "entry_name": "Premier Prix",
        "event_total": 58,
        "has_played": true,
        "id": 7409046,
        "last_rank": 39703,
        "player_name": "james jones",
        "rank": 43449,
        "rank_sort": 43458,
        "total": 2357
      },
      {
        "club_badge_src": null,
        "entry": 2471319,
        "entry_name": "Palmer Violets",
        "event_total": 40,
        "has_played": true,
        "id": 17679642,
        "last_rank": 24770,
        "player_name": "LEE MUNDAY",
        "rank": 43449,
        "rank_sort": 43459,
        "total": 2357
      },
      {
        "club_badge_src": null,
        "entry": 3503775,
        "entry_name": "Darnell FC",
        "event_total": 82,
        "has_played": true,
        "id": 26064831,
        "last_rank": 90386,
        "player_name": "Darnell Ossai",
        "rank": 43449,
        "rank_sort": 43460,
        "total": 2357
      },
      {
        "club_badge_src": null,
        "entry": 3878509,
        "entry_name": "The Rock",
        "event_total": 57,
        "has_played": true,
        "id": 29141195,
        "last_rank": 33695,
        "player_name": "PETER RADY",
        "rank": 43449,
        "rank_sort": 43461,
        "total": 2357
      },
      {
        "club_badge_src": null,
        "entry": 4041053,
        "entry_name": "Dadders demons",
        "event_total": 59,
        "has_played": true,
        "id": 30475431,
        "last_rank": 35998,
        "player_name": "amit dadwal",
        "rank": 43449,
        "rank_sort": 43462,
        "total": 2357
      },
      {
        "club_badge_src": null,
        "entry": 5048105,
        "entry_name": "NichollsXI",
        "event_total": 82,
        "has_played": true,
        "id": 39000749,
        "last_rank": 64508,
        "player_name": "Mathew Nicholls",
        "rank": 43449,
        "rank_sort": 43463,
        "total": 2357
      },
      {
        "club_badge_src": null,
        "entry": 5319631,
        "entry_name": "Swagsurfers",
        "event_total": 60,
        "has_played": true,
        "id": 41237806,
        "last_rank": 47982,
        "player_name": "Karl Antwi Adjei",
        "rank": 43449,
        "rank_sort": 43464,
        "total": 2357
      },
      {
        "club_badge_src": null,
        "entry": 5357264,
        "entry_name": "Banks FC",
        "event_total": 50,
        "has_played": true,
        "id": 41601543,
        "last_rank": 34864,
        "player_name": "Kehinde Bankole",
        "rank": 43449,
        "rank_sort": 43465,
        "total": 2357
      },
      {
        "club_badge_src": null,
        "entry": 5445182,
        "entry_name": "Olaf FC",
        "event_total": 58,
        "has_played": true,
        "id": 42367053,
        "last_rank": 39703,
        "player_name": "Michael Olafadehan",
        "rank": 43449,
        "rank_sort": 43466,
        "total": 2357
      },
      {
        "club_badge_src": null,
        "entry": 6960830,
        "entry_name": "Matt Ultras",
        "event_total": 60,
        "has_played": true,
        "id": 55824117,
        "last_rank": 42293,
        "player_name": "Matthew Stiles",
        "rank": 43449,
        "rank_sort": 43467,
        "total": 2357
      },
      {
        "club_badge_src": "https://fantasy.premierleague.com/gcs/plfpl-production-adobe-approved/plfpl-production/7272981/c5bdb552-60a2-4942-b26f-21cc2633cb8d.png",
        "entry": 7272981,
        "entry_name": "Messi_Q8i",
        "event_total": 44,
        "has_played": true,
        "id": 58820511,
        "last_rank": 24757,
        "player_name": "Abo Zaid",
        "rank": 43449,
        "rank_sort": 43468,
        "total": 2357
      },
      {
        "club_badge_src": null,
        "entry": 10750196,
        "entry_name": "H Team",
        "event_total": 61,
        "has_played": true,
        "id": 90797562,
        "last_rank": 49463,
        "player_name": "Heindrich Henn",
        "rank": 43449,
        "rank_sort": 43469,
        "total": 2357
      },
      {
        "club_badge_src": null,
        "entry": 25181,
        "entry_name": "Special One Enrique",
        "event_total": 47,
        "has_played": true,
        "id": 159260,
        "last_rank": 27499,
        "player_name": "Ameer Habib",
        "rank": 43470,
        "rank_sort": 43470,
        "total": 2357
      },
      {
        "club_badge_src": "https://fantasy.premierleague.com/gcs/plfpl-production-adobe-approved/plfpl-production/35498/f2e35a33-b33a-4609-94eb-4766d5efa8e7.png",
        "entry": 35498,
        "entry_name": "Bouncing Back",
        "event_total": 58,
        "has_played": true,
        "id": 227185,
        "last_rank": 45050,
        "player_name": "Alex Barnes",
        "rank": 43470,
        "rank_sort": 43471,
        "total": 2357
      },
      {
        "club_badge_src": null,
        "entry": 88513,
        "entry_name": "Buckley's and None",
        "event_total": 64,
        "has_played": true,
        "id": 577611,
        "last_rank": 47982,
        "player_name": "Steve Britton",
        "rank": 43470,
        "rank_sort": 43472,
        "total": 2357
      },
      {
        "club_badge_src": null,
        "entry": 313705,
        "entry_name": "Ketasticos",
        "event_total": 52,
        "has_played": true,
        "id": 2101921,
        "last_rank": 37264,
        "player_name": "Ketan Bharadwa",
        "rank": 43470,
        "rank_sort": 43473,
        "total": 2357
      },
      {
        "club_badge_src": "https://fantasy.premierleague.com/gcs/plfpl-production-adobe-approved/plfpl-production/562643/24c52fb6-ddae-442a-9114-c36124afaca3.png",
        "entry": 562643,
        "entry_name": "Acunha Mateta",
        "event_total": 67,
        "has_played": true,
        "id": 3787125,
        "last_rank": 59291,
        "player_name": "Dominik Gawlik",
        "rank": 43470,
        "rank_sort": 43474,
        "total": 2357
      },
      {
        "club_badge_src": null,
        "entry": 666160,
        "entry_name": "Bleikmyr United",
        "event_total": 64,
        "has_played": true,
        "id": 4503975,
        "last_rank": 54268,
        "player_name": "Kjetil Kristjansson",
        "rank": 43470,
        "rank_sort": 43475,
        "total": 2357
      },
      {
        "club_badge_src": null,
        "entry": 677357,
        "entry_name": "Arne Slot macHines",
        "event_total": 65,
        "has_played": true,
        "id": 4582975,
        "last_rank": 43637,
        "player_name": "Ashley Stevens",
        "rank": 43470,
        "rank_sort": 43476,
        "total": 2357
      },
      {
        "club_badge_src": "https://fantasy.premierleague.com/gcs/plfpl-production-adobe-approved/plfpl-production/918364/432c2362-0deb-45a7-9ed6-8bc58486a8ba.png",
        "entry": 918364,
        "entry_name": "Zlatans Lions",
        "event_total": 82,
        "has_played": true,
        "id": 6315489,
        "last_rank": 81049,
        "player_name": "Gary Smith",
        "rank": 43470,
        "rank_sort": 43477,
        "total": 2357
      },
      {
        "club_badge_src": null,
        "entry": 1055139,
        "entry_name": "DolskiFC",
        "event_total": 71,
        "has_played": true,
        "id": 7302270,
        "last_rank": 59370,
        "player_name": "Nicholas Gordon",
        "rank": 43470,
        "rank_sort": 43478,
        "total": 2357
      },
      {
        "club_badge_src": null,
        "entry": 1183225,
        "entry_name": "\u0627\u0644\u0639\u0635\u0627\u0628\u0647 \u26a1\ufe0f\u2694\ufe0f",
        "event_total": 67,
        "has_played": true,
        "id": 8209470,
        "last_rank": 46432,
        "player_name": "Eslam El Shazly",
        "rank": 43470,
        "rank_sort": 43479,
        "total": 2357
      },
      {
        "club_badge_src": null,
        "entry": 1241934,
        "entry_name": "Burgos Allstars",
        "event_total": 73,
        "has_played": true,
        "id": 8625115,
        "last_rank": 62917,
        "player_name": "James Burgess",
        "rank": 43470,
        "rank_sort": 43480,
        "total": 2357
      },
      {
        "club_badge_src": null,
        "entry": 1245983,
        "entry_name": "Siiii",
        "event_total": 67,
        "has_played": true,
        "id": 8653493,
        "last_rank": 40923,
        "player_name": "Rayan .",
        "rank": 43470,
        "rank_sort": 43481,
        "total": 2357
      },
      {
        "club_badge_src": null,
        "entry": 2861466,
        "entry_name": "Cun ya get me top",
        "event_total": 62,
        "has_played": true,
        "id": 20925743,
        "last_rank": 45034,
        "player_name": "Jagdish Bains",
        "rank": 43470,
        "rank_sort": 43482,
        "total": 2357
      },
      {
        "club_badge_src": "https://fantasy.premierleague.com/gcs/plfpl-production-adobe-approved/plfpl-production/3931131/323223a5-e494-4ccf-ab2b-3f1e6f07d011.png",
        "entry": 3931131,
        "entry_name": "Wirtz Nightmare",
        "event_total": 56,
        "has_played": true,
        "id": 29566057,
        "last_rank": 42327,
        "player_name": "Warren Kennedy",
        "rank": 43470,
        "rank_sort": 43483,
        "total": 2357
      },
      {
        "club_badge_src": "https://fantasy.premierleague.com/gcs/plfpl-production-adobe-approved/plfpl-production/4761714/404daf92-1edb-4f18-a0cc-67b18b92a87d.png",
        "entry": 4761714,
        "entry_name": "Net Six and Chill",
        "event_total": 65,
        "has_played": true,
        "id": 36646471,
        "last_rank": 55957,
        "player_name": "Sam Marshall",
        "rank": 43470,
        "rank_sort": 43484,
        "total": 2357
      },
      {
        "club_badge_src": null,
        "entry": 5545292,
        "entry_name": "Fordham's Flyers",
        "event_total": 58,
        "has_played": true,
        "id": 43273631,
        "last_rank": 34849,
        "player_name": "Thomas Fordham",
        "rank": 43470,
        "rank_sort": 43485,
        "total": 2357
      },
      {
        "club_badge_src": null,
        "entry": 6182043,
        "entry_name": "Raging Pigs",
        "event_total": 65,
        "has_played": true,
        "id": 48890087,
        "last_rank": 55932,
        "player_name": "David Waterhouse",
        "rank": 43470,
        "rank_sort": 43486,
        "total": 2357
      },
      {
        "club_badge_src": null,
        "entry": 6252992,
        "entry_name": "Tyke That to the Top",
        "event_total": 52,
        "has_played": true,
        "id": 49500563,
        "last_rank": 37256,
        "player_name": "Stephen Highfield",
        "rank": 43470,
        "rank_sort": 43487,
        "total": 2357
      },
      {
        "club_badge_src": null,
        "entry": 17913,
        "entry_name": "Hakuna Mateta",
        "event_total": 58,
        "has_played": true,
        "id": 111264,
        "last_rank": 30418,
        "player_name": "Steve Whalley",
        "rank": 43488,
        "rank_sort": 43488,
        "total": 2357
      },
      {
        "club_badge_src": null,
        "entry": 441385,
        "entry_name": "Manchester city",
        "event_total": 61,
        "has_played": true,
        "id": 2959509,
        "last_rank": 38461,
        "player_name": "Kaaareiim MK93",
        "rank": 43488,
        "rank_sort": 43489,
        "total": 2357
      },
      {
        "club_badge_src": null,
        "entry": 457662,
        "entry_name": "BACK2BACK2BACK",
        "event_total": 71,
        "has_played": true,
        "id": 3070332,
        "last_rank": 52632,
        "player_name": "Hashim Mohamed",
        "rank": 43488,
        "rank_sort": 43490,
        "total": 2357
      },
      {
        "club_badge_src": null,
        "entry": 797539,
        "entry_name": "FC Freya",
        "event_total": 61,
        "has_played": true,
        "id": 5458719,
        "last_rank": 38461,
        "player_name": "Stephen Jones",
        "rank": 43488,
        "rank_sort": 43491,
        "total": 2357
      },
      {
        "club_badge_src": null,
        "entry": 1428012,
        "entry_name": "Dunk and Disorderly",
        "event_total": 65,
        "has_played": true,
        "id": 9950109,
        "last_rank": 55969,
        "player_name": "Christon Dillow",
        "rank": 43488,
        "rank_sort": 43492,
        "total": 2357
      },
      {
        "club_badge_src": null,
        "entry": 2384115,
        "entry_name": "Random 15?",
        "event_total": 45,
        "has_played": true,
        "id": 17025221,
        "last_rank": 29443,
        "player_name": "Stephen Olds",
        "rank": 43488,
        "rank_sort": 43493,
        "total": 2357
      },
      {
        "club_badge_src": null,
        "entry": 3031731,
        "entry_name": "Rutter Woke Nonsense",
        "event_total": 65,
        "has_played": true,
        "id": 22309925,
        "last_rank": 43657,
        "player_name": "Alexander Price",
        "rank": 43488,
        "rank_sort": 43494,
        "total": 2357
      },
      {
        "club_badge_src": null,
        "entry": 5201078,
        "entry_name": "Gunna 626",
        "event_total": 69,
        "has_played": true,
        "id": 40280264,
        "last_rank": 62989,
        "player_name": "janeiro james",
        "rank": 43488,
        "rank_sort": 43495,
        "total": 2357
      },
      {
        "club_badge_src": null,
        "entry": 5428160,
        "entry_name": "ILovewhenitreijnders",
        "event_total": 71,
        "has_played": true,
        "id": 42221451,
        "last_rank": 66559,
        "player_name": "Tyrell Graham",
        "rank": 43488,
        "rank_sort": 43496,
        "total": 2357
      },
      {
        "club_badge_src": null,
        "entry": 6155583,
        "entry_name": "zlatan",
        "event_total": 63,
        "has_played": true,
        "id": 48661065,
        "last_rank": 52653,
        "player_name": "Abdi qadir",
        "rank": 43488,
        "rank_sort": 43497,
        "total": 2357
      },
      {
        "club_badge_src": null,
        "entry": 6339895,
        "entry_name": "FC W O\u010cI PI\u010cO",
        "event_total": 69,
        "has_played": true,
        "id": 50391068,
        "last_rank": 43637,
        "player_name": "Krispop 1922",
        "rank": 43488,
        "rank_sort": 43498,
        "total": 2357
      },
      {
        "club_badge_src": null,
        "entry": 6853468,
        "entry_name": "ADBARBER",
        "event_total": 61,
        "has_played": true,
        "id": 54908680,
        "last_rank": 43679,
        "player_name": "Aaron De Moor",
        "rank": 43488,
        "rank_sort": 43499,
        "total": 2357
      },
      {
        "club_badge_src": null,
        "entry": 761044,
        "entry_name": "GvardiolsOfTheGalaxy",
        "event_total": 59,
        "has_played": true,
        "id": 5188692,
        "last_rank": 41003,
        "player_name": "Reece Wilson",
        "rank": 43500,
        "rank_sort": 43500,
        "total": 2357
      }
    ]
  }
}