{
  "last_updated_data": "2026-05-24T23:28:17Z",
  "league": {
    "admin_entry": null,
    "closed": false,
    "code_privacy": "p",
    "created": "2025-07-20T23:14:33.933835Z",
    "cup_league": 2815434,
    "has_cup": true,
    "id": 314,
    "league_type": "s",
    "max_entries": null,
    "name": "Overall",
    "rank": null,
    "scoring": "c",
    "start_event": 1
  },
  "new_entries": {
    "has_next": false,
    "page": 1,
    "results": []
  },
  "standings": {
    "has_next": true,
    "page": 24,
    "results": [
      {
        "club_badge_src": null,
        "entry": 5608819,
        "entry_name": "Smoove moves",
        "event_total": 63,
        "has_played": true,
        "id": 43832962,
        "last_rank": 1394,
        "player_name": "Opiyo Walter",
        "rank": 1139,
        "rank_sort": 1151,
        "total": 2445
      },
      {
        "club_badge_src": "https://fantasy.premierleague.com/gcs/plfpl-production-adobe-approved/plfpl-production/6170048/471e14a9-e83e-493c-bdf9-d6a18dae4048.png",
        "entry": 6170048,
        "entry_name": "Centre Midds",
        "event_total": 58,
        "has_played": true,
        "id": 48786350,
        "last_rank": 870,
        "player_name": "Ryan Middleton",
        "rank": 1139,
        "rank_sort": 1152,
        "total": 2445
      },
      {
        "club_badge_src": null,
        "entry": 6471086,
        "entry_name": "Rosso-bianco",
        "event_total": 48,
        "has_played": true,
        "id": 51559499,
        "last_rank": 641,
        "player_name": "David \u010colovi\u0107",
        "rank": 1139,
        "rank_sort": 1153,
        "total": 2445
      },
      {
        "club_badge_src": "https://fantasy.premierleague.com/gcs/plfpl-production-adobe-approved/plfpl-production/6543593/29c4ccbb-f873-4a88-b96d-ad7339f20995.png",
        "entry": 6543593,
        "entry_name": "Ste FC",
        "event_total": 66,
        "has_played": true,
        "id": 52210394,
        "last_rank": 1302,
        "player_name": "Steven Heatherton",
        "rank": 1139,
        "rank_sort": 1154,
        "total": 2445
      },
      {
        "club_badge_src": null,
        "entry": 9472118,
        "entry_name": "Arne Slots",
        "event_total": 55,
        "has_played": true,
        "id": 80050672,
        "last_rank": 936,
        "player_name": "Ashraf Mimoune-Eloudghiri",
        "rank": 1139,
        "rank_sort": 1155,
        "total": 2445
      },
      {
        "club_badge_src": null,
        "entry": 4465,
        "entry_name": "Could be Wirtz",
        "event_total": 52,
        "has_played": true,
        "id": 25394,
        "last_rank": 641,
        "player_name": "Joe Linford",
        "rank": 1156,
        "rank_sort": 1156,
        "total": 2445
      },
      {
        "club_badge_src": null,
        "entry": 27937,
        "entry_name": "BendItLikeMyElbows",
        "event_total": 66,
        "has_played": true,
        "id": 176671,
        "last_rank": 1633,
        "player_name": "Joe Starks",
        "rank": 1156,
        "rank_sort": 1157,
        "total": 2445
      },
      {
        "club_badge_src": null,
        "entry": 81162,
        "entry_name": "Abdullah Alothman",
        "event_total": 63,
        "has_played": true,
        "id": 528026,
        "last_rank": 1410,
        "player_name": "Abdullah Alothman",
        "rank": 1156,
        "rank_sort": 1158,
        "total": 2445
      },
      {
        "club_badge_src": null,
        "entry": 1379957,
        "entry_name": "Botticelli Angels",
        "event_total": 53,
        "has_played": true,
        "id": 9592576,
        "last_rank": 848,
        "player_name": "David Bellingham",
        "rank": 1156,
        "rank_sort": 1159,
        "total": 2445
      },
      {
        "club_badge_src": "https://fantasy.premierleague.com/gcs/plfpl-production-adobe-approved/plfpl-production/2331536/d87789cc-4f0d-48e8-9603-dfc1e3c781ff.png",
        "entry": 2331536,
        "entry_name": "MadamHong",
        "event_total": 48,
        "has_played": true,
        "id": 16634784,
        "last_rank": 641,
        "player_name": "Ho Thongam",
        "rank": 1156,
        "rank_sort": 1160,
        "total": 2445
      },
      {
        "club_badge_src": null,
        "entry": 3337804,
        "entry_name": "Making Emile of it",
        "event_total": 65,
        "has_played": true,
        "id": 24755324,
        "last_rank": 1240,
        "player_name": "Mike Shepherd",
        "rank": 1156,
        "rank_sort": 1161,
        "total": 2445
      },
      {
        "club_badge_src": null,
        "entry": 6046232,
        "entry_name": "A-Bang-Ben-Cabango",
        "event_total": 49,
        "has_played": true,
        "id": 47706770,
        "last_rank": 686,
        "player_name": "David Brinicombe",
        "rank": 1156,
        "rank_sort": 1162,
        "total": 2445
      },
      {
        "club_badge_src": null,
        "entry": 6387980,
        "entry_name": "Cunha believe it ?",
        "event_total": 61,
        "has_played": true,
        "id": 50812092,
        "last_rank": 1272,
        "player_name": "Alun Matthews",
        "rank": 1156,
        "rank_sort": 1163,
        "total": 2445
      },
      {
        "club_badge_src": null,
        "entry": 7675534,
        "entry_name": "Cops and Rogers",
        "event_total": 58,
        "has_played": true,
        "id": 62951361,
        "last_rank": 1096,
        "player_name": "Matt Rogers",
        "rank": 1156,
        "rank_sort": 1164,
        "total": 2445
      },
      {
        "club_badge_src": null,
        "entry": 7966385,
        "entry_name": "lghoul",
        "event_total": 69,
        "has_played": true,
        "id": 65586626,
        "last_rank": 1231,
        "player_name": "ghoul sami",
        "rank": 1156,
        "rank_sort": 1165,
        "total": 2445
      },
      {
        "club_badge_src": null,
        "entry": 1153110,
        "entry_name": "BK Krajj",
        "event_total": 52,
        "has_played": true,
        "id": 7995769,
        "last_rank": 647,
        "player_name": "Johannes Olsson",
        "rank": 1166,
        "rank_sort": 1166,
        "total": 2445
      },
      {
        "club_badge_src": null,
        "entry": 2494149,
        "entry_name": "MyGun",
        "event_total": 60,
        "has_played": true,
        "id": 17856253,
        "last_rank": 1005,
        "player_name": "Olav Sauar",
        "rank": 1166,
        "rank_sort": 1167,
        "total": 2445
      },
      {
        "club_badge_src": null,
        "entry": 8707384,
        "entry_name": "Les Mattssons",
        "event_total": 54,
        "has_played": true,
        "id": 72650280,
        "last_rank": 904,
        "player_name": "Elina Mattsson",
        "rank": 1166,
        "rank_sort": 1168,
        "total": 2445
      },
      {
        "club_badge_src": null,
        "entry": 2213114,
        "entry_name": "Count Doku",
        "event_total": 67,
        "has_played": true,
        "id": 15760232,
        "last_rank": 1740,
        "player_name": "David Nation",
        "rank": 1169,
        "rank_sort": 1169,
        "total": 2445
      },
      {
        "club_badge_src": null,
        "entry": 1198859,
        "entry_name": "Gamla Hugget",
        "event_total": 59,
        "has_played": true,
        "id": 8319419,
        "last_rank": 1173,
        "player_name": "Hugo Andersson",
        "rank": 1170,
        "rank_sort": 1170,
        "total": 2445
      },
      {
        "club_badge_src": "https://fantasy.premierleague.com/gcs/plfpl-production-adobe-approved/plfpl-production/378/466a90a1-6277-4e4e-b5c0-c3da94a4ca0d.png",
        "entry": 378,
        "entry_name": "Reece is the Word",
        "event_total": 59,
        "has_played": true,
        "id": 2090,
        "last_rank": 968,
        "player_name": "L I",
        "rank": 1171,
        "rank_sort": 1171,
        "total": 2445
      },
      {
        "club_badge_src": null,
        "entry": 338269,
        "entry_name": "vote for pedro",
        "event_total": 67,
        "has_played": true,
        "id": 2264644,
        "last_rank": 1746,
        "player_name": "Aidan Black",
        "rank": 1171,
        "rank_sort": 1172,
        "total": 2445
      },
      {
        "club_badge_src": null,
        "entry": 6532614,
        "entry_name": "3li Yasir",
        "event_total": 66,
        "has_played": true,
        "id": 52112601,
        "last_rank": 1659,
        "player_name": "Ali Yasir",
        "rank": 1171,
        "rank_sort": 1173,
        "total": 2445
      },
      {
        "club_badge_src": null,
        "entry": 8931116,
        "entry_name": "EZ Money",
        "event_total": 48,
        "has_played": true,
        "id": 74813420,
        "last_rank": 651,
        "player_name": "Nolan Rebelo",
        "rank": 1174,
        "rank_sort": 1174,
        "total": 2445
      },
      {
        "club_badge_src": null,
        "entry": 6201638,
        "entry_name": "Freddie's dreamers",
        "event_total": 38,
        "has_played": true,
        "id": 49059260,
        "last_rank": 384,
        "player_name": "Anthony Cooper",
        "rank": 1175,
        "rank_sort": 1175,
        "total": 2444
      },
      {
        "club_badge_src": null,
        "entry": 2803408,
        "entry_name": "Bakayaro FC",
        "event_total": 57,
        "has_played": true,
        "id": 20472079,
        "last_rank": 1063,
        "player_name": "\u0141ukasz Gabrych",
        "rank": 1176,
        "rank_sort": 1176,
        "total": 2444
      },
      {
        "club_badge_src": null,
        "entry": 2313682,
        "entry_name": "Mediocre United",
        "event_total": 66,
        "has_played": true,
        "id": 16504385,
        "last_rank": 1663,
        "player_name": "Jan Olav Paulsen",
        "rank": 1177,
        "rank_sort": 1177,
        "total": 2444
      },
      {
        "club_badge_src": "https://fantasy.premierleague.com/gcs/plfpl-production-adobe-approved/plfpl-production/1181643/fc9db864-eb40-4214-afb3-88cc3b2775b3.png",
        "entry": 1181643,
        "entry_name": "Boehly Grail",
        "event_total": 62,
        "has_played": true,
        "id": 8198549,
        "last_rank": 1354,
        "player_name": "Alex Ferrari",
        "rank": 1178,
        "rank_sort": 1178,
        "total": 2444
      },
      {
        "club_badge_src": null,
        "entry": 2970093,
        "entry_name": "Gal\u00e1cticos",
        "event_total": 66,
        "has_played": true,
        "id": 21822167,
        "last_rank": 1665,
        "player_name": "Ossi Saarela",
        "rank": 1178,
        "rank_sort": 1179,
        "total": 2444
      },
      {
        "club_badge_src": null,
        "entry": 7847974,
        "entry_name": "Bek",
        "event_total": 41,
        "has_played": true,
        "id": 64513234,
        "last_rank": 458,
        "player_name": "kastriot bekteshi",
        "rank": 1178,
        "rank_sort": 1180,
        "total": 2444
      },
      {
        "club_badge_src": "https://fantasy.premierleague.com/gcs/plfpl-production-adobe-approved/plfpl-production/88/0064b279-f11e-4e60-98fa-2ec0c02e70f2.png",
        "entry": 88,
        "entry_name": "Count Doku",
        "event_total": 56,
        "has_played": true,
        "id": 485,
        "last_rank": 1031,
        "player_name": "JJ Stephenson",
        "rank": 1181,
        "rank_sort": 1181,
        "total": 2444
      },
      {
        "club_badge_src": null,
        "entry": 33227,
        "entry_name": "Dubs XI",
        "event_total": 64,
        "has_played": true,
        "id": 211816,
        "last_rank": 1523,
        "player_name": "Ben May",
        "rank": 1181,
        "rank_sort": 1182,
        "total": 2444
      },
      {
        "club_badge_src": null,
        "entry": 91806,
        "entry_name": "Flying Without Ings",
        "event_total": 55,
        "has_played": true,
        "id": 599786,
        "last_rank": 971,
        "player_name": "Tom Watkinson",
        "rank": 1181,
        "rank_sort": 1183,
        "total": 2444
      },
      {
        "club_badge_src": null,
        "entry": 172082,
        "entry_name": "FPL Cono",
        "event_total": 64,
        "has_played": true,
        "id": 1136655,
        "last_rank": 1523,
        "player_name": "Connor Shelley",
        "rank": 1181,
        "rank_sort": 1184,
        "total": 2444
      },
      {
        "club_badge_src": "https://fantasy.premierleague.com/gcs/plfpl-production-adobe-approved/plfpl-production/247364/e23c0091-a949-4536-a953-c9d64e053a25.png",
        "entry": 247364,
        "entry_name": "DubraLocoMoSonWijMee",
        "event_total": 62,
        "has_played": true,
        "id": 1646565,
        "last_rank": 1372,
        "player_name": "Anthony Brown",
        "rank": 1181,
        "rank_sort": 1185,
        "total": 2444
      },
      {
        "club_badge_src": null,
        "entry": 337156,
        "entry_name": "696969",
        "event_total": 58,
        "has_played": true,
        "id": 2257152,
        "last_rank": 1130,
        "player_name": "Kenny Leung",
        "rank": 1181,
        "rank_sort": 1186,
        "total": 2444
      },
      {
        "club_badge_src": "https://fantasy.premierleague.com/gcs/plfpl-production-adobe-approved/plfpl-production/419056/792bd269-ae12-4af9-9eaa-27cf73eb3d3b.png",
        "entry": 419056,
        "entry_name": "Reijnders Keepers",
        "event_total": 65,
        "has_played": true,
        "id": 2808714,
        "last_rank": 1601,
        "player_name": "Chris Duggan",
        "rank": 1181,
        "rank_sort": 1187,
        "total": 2444
      },
      {
        "club_badge_src": "https://fantasy.premierleague.com/gcs/plfpl-production-adobe-approved/plfpl-production/763489/6f6c8435-c794-415a-9568-ba43c8a3723e.png",
        "entry": 763489,
        "entry_name": "No Salahd no biceps",
        "event_total": 41,
        "has_played": true,
        "id": 5206917,
        "last_rank": 458,
        "player_name": "Peter Altmann",
        "rank": 1181,
        "rank_sort": 1188,
        "total": 2444
      },
      {
        "club_badge_src": "https://fantasy.premierleague.com/gcs/plfpl-production-adobe-approved/plfpl-production/999496/1e02ad7b-062a-4882-930b-20a7c49fb8ca.png",
        "entry": 999496,
        "entry_name": "2lax26",
        "event_total": 61,
        "has_played": true,
        "id": 6908710,
        "last_rank": 1294,
        "player_name": "Viktor S\u00f6derberg",
        "rank": 1181,
        "rank_sort": 1189,
        "total": 2444
      },
      {
        "club_badge_src": null,
        "entry": 1323224,
        "entry_name": "Better Call Sol",
        "event_total": 53,
        "has_played": true,
        "id": 9197660,
        "last_rank": 879,
        "player_name": "Paul Connolly",
        "rank": 1181,
        "rank_sort": 1190,
        "total": 2444
      },
      {
        "club_badge_src": null,
        "entry": 1603245,
        "entry_name": "wexford",
        "event_total": 68,
        "has_played": true,
        "id": 11215934,
        "last_rank": 1880,
        "player_name": "Ethna Kelly",
        "rank": 1181,
        "rank_sort": 1191,
        "total": 2444
      },
      {
        "club_badge_src": "https://fantasy.premierleague.com/gcs/plfpl-production-adobe-approved/plfpl-production/1972567/f44ba110-7ab2-4477-8d79-06ab40c3702e.png",
        "entry": 1972567,
        "entry_name": "LeopolitanS",
        "event_total": 64,
        "has_played": true,
        "id": 13922802,
        "last_rank": 1510,
        "player_name": "Andriy Khoruzhyi",
        "rank": 1181,
        "rank_sort": 1192,
        "total": 2444
      },
      {
        "club_badge_src": null,
        "entry": 2783002,
        "entry_name": "f\u00f8rstialt",
        "event_total": 57,
        "has_played": true,
        "id": 20314572,
        "last_rank": 1079,
        "player_name": "Erik Andersson",
        "rank": 1181,
        "rank_sort": 1193,
        "total": 2444
      },
      {
        "club_badge_src": null,
        "entry": 3113779,
        "entry_name": "Mr. Sir's Army",
        "event_total": 66,
        "has_played": true,
        "id": 22977798,
        "last_rank": 1668,
        "player_name": "Anthony Piteo",
        "rank": 1181,
        "rank_sort": 1194,
        "total": 2444
      },
      {
        "club_badge_src": null,
        "entry": 4009741,
        "entry_name": "Con\u00edmbriga United",
        "event_total": 62,
        "has_played": true,
        "id": 30207597,
        "last_rank": 1372,
        "player_name": "Bruno Juli\u00e3o",
        "rank": 1181,
        "rank_sort": 1195,
        "total": 2444
      },
      {
        "club_badge_src": null,
        "entry": 4273350,
        "entry_name": "Jeremie Pingpong",
        "event_total": 60,
        "has_played": true,
        "id": 32406856,
        "last_rank": 1240,
        "player_name": "P\u00e9tur Andri \u00d3lafsson",
        "rank": 1181,
        "rank_sort": 1196,
        "total": 2444
      },
      {
        "club_badge_src": null,
        "entry": 5331334,
        "entry_name": "ogres originals",
        "event_total": 79,
        "has_played": true,
        "id": 41331031,
        "last_rank": 3257,
        "player_name": "tim tyrrell",
        "rank": 1181,
        "rank_sort": 1197,
        "total": 2444
      },
      {
        "club_badge_src": null,
        "entry": 6020193,
        "entry_name": "BCFC ON THE RISE",
        "event_total": 71,
        "has_played": true,
        "id": 47478894,
        "last_rank": 2170,
        "player_name": "Greg Barlow",
        "rank": 1181,
        "rank_sort": 1198,
        "total": 2444
      },
      {
        "club_badge_src": null,
        "entry": 3205,
        "entry_name": "BingBongs",
        "event_total": 48,
        "has_played": true,
        "id": 18100,
        "last_rank": 535,
        "player_name": "Kristian Heibing",
        "rank": 1199,
        "rank_sort": 1199,
        "total": 2444
      },
      {
        "club_badge_src": null,
        "entry": 5557,
        "entry_name": "Zubi Dubi Doo",
        "event_total": 56,
        "has_played": true,
        "id": 31691,
        "last_rank": 825,
        "player_name": "Ramone Charles",
        "rank": 1199,
        "rank_sort": 1200,
        "total": 2444
      }
    ]
  }
}