{
  "last_updated_data": "2026-05-24T23:28:17Z",
  "league": {
    "admin_entry": null,
    "closed": false,
    "code_privacy": "p",
    "created": "2025-07-20T23:14:33.933835Z",
    "cup_league": 2815434,
    "has_cup": true,
    "id": 314,
    "league_type": "s",
    "max_entries": null,
    "name": "Overall",
    "rank": null,
    "scoring": "c",
    "start_event": 1
  },
  "new_entries": {
    "has_next": false,
    "page": 1,
    "results": []
  },
  "standings": {
    "has_next": true,
    "page": 862,
    "results": [
      {
        "club_badge_src": null,
        "entry": 48059,
        "entry_name": "Best FC",
        "event_total": 65,
        "has_played": true,
        "id": 308470,
        "last_rank": 48898,
        "player_name": "Zsolt Jenvay",
        "rank": 43046,
        "rank_sort": 43051,
        "total": 2357
      },
      {
        "club_badge_src": null,
        "entry": 51352,
        "entry_name": "Sadio Olimpico",
        "event_total": 56,
        "has_played": true,
        "id": 330270,
        "last_rank": 36831,
        "player_name": "Paul Stevens",
        "rank": 43046,
        "rank_sort": 43052,
        "total": 2357
      },
      {
        "club_badge_src": null,
        "entry": 64353,
        "entry_name": "Hammertime",
        "event_total": 49,
        "has_played": true,
        "id": 415364,
        "last_rank": 33483,
        "player_name": "Alan Griffiths",
        "rank": 43046,
        "rank_sort": 43053,
        "total": 2357
      },
      {
        "club_badge_src": null,
        "entry": 64831,
        "entry_name": "ColePalmer10",
        "event_total": 74,
        "has_played": true,
        "id": 418501,
        "last_rank": 71956,
        "player_name": "Leo Tang",
        "rank": 43046,
        "rank_sort": 43054,
        "total": 2357
      },
      {
        "club_badge_src": null,
        "entry": 72427,
        "entry_name": "Legia Janka",
        "event_total": 54,
        "has_played": true,
        "id": 470637,
        "last_rank": 39246,
        "player_name": "Mariusz Ja\u0144czak",
        "rank": 43046,
        "rank_sort": 43055,
        "total": 2357
      },
      {
        "club_badge_src": "https://fantasy.premierleague.com/gcs/plfpl-production-adobe-approved/plfpl-production/82576/b94b3f33-5389-4b85-b746-0dc7e2ed210e.png",
        "entry": 82576,
        "entry_name": "Mikel Artekkers",
        "event_total": 69,
        "has_played": true,
        "id": 537353,
        "last_rank": 55311,
        "player_name": "Josh Burrows",
        "rank": 43046,
        "rank_sort": 43056,
        "total": 2357
      },
      {
        "club_badge_src": null,
        "entry": 98087,
        "entry_name": "Ronnie Omelettes",
        "event_total": 61,
        "has_played": true,
        "id": 640621,
        "last_rank": 43168,
        "player_name": "Jack Rudling",
        "rank": 43046,
        "rank_sort": 43057,
        "total": 2357
      },
      {
        "club_badge_src": null,
        "entry": 108323,
        "entry_name": "Big Hard Decks",
        "event_total": 43,
        "has_played": true,
        "id": 706251,
        "last_rank": 20416,
        "player_name": "Stephen Vincent",
        "rank": 43046,
        "rank_sort": 43058,
        "total": 2357
      },
      {
        "club_badge_src": "https://fantasy.premierleague.com/gcs/plfpl-production-adobe-approved/plfpl-production/108713/610e04e5-6882-46c5-ac6d-45553348bd21.png",
        "entry": 108713,
        "entry_name": "Real Beales",
        "event_total": 55,
        "has_played": true,
        "id": 708763,
        "last_rank": 40036,
        "player_name": "Mackenzie Beale",
        "rank": 43046,
        "rank_sort": 43059,
        "total": 2357
      },
      {
        "club_badge_src": null,
        "entry": 112857,
        "entry_name": "My Richard's Rising",
        "event_total": 64,
        "has_played": true,
        "id": 735962,
        "last_rank": 47417,
        "player_name": "Ben Wells",
        "rank": 43046,
        "rank_sort": 43060,
        "total": 2357
      },
      {
        "club_badge_src": "https://fantasy.premierleague.com/gcs/plfpl-production-adobe-approved/plfpl-production/167853/21732394-2809-45ed-9be2-61a02690099a.png",
        "entry": 167853,
        "entry_name": "Magnificent 11",
        "event_total": 63,
        "has_played": true,
        "id": 1109500,
        "last_rank": 45927,
        "player_name": "Joe Morudi",
        "rank": 43046,
        "rank_sort": 43061,
        "total": 2357
      },
      {
        "club_badge_src": null,
        "entry": 169213,
        "entry_name": "Reijnders Keepers",
        "event_total": 59,
        "has_played": true,
        "id": 1118255,
        "last_rank": 46106,
        "player_name": "Harry Dunning",
        "rank": 43046,
        "rank_sort": 43062,
        "total": 2357
      },
      {
        "club_badge_src": null,
        "entry": 181613,
        "entry_name": "HTAFC",
        "event_total": 67,
        "has_played": true,
        "id": 1198487,
        "last_rank": 58911,
        "player_name": "Joe Roberts",
        "rank": 43046,
        "rank_sort": 43063,
        "total": 2357
      },
      {
        "club_badge_src": null,
        "entry": 185706,
        "entry_name": "Cole Blooded",
        "event_total": 66,
        "has_played": true,
        "id": 1226880,
        "last_rank": 57200,
        "player_name": "Monther Al Khateeb",
        "rank": 43046,
        "rank_sort": 43064,
        "total": 2357
      },
      {
        "club_badge_src": null,
        "entry": 201618,
        "entry_name": "Matheus Bryan.",
        "event_total": 72,
        "has_played": true,
        "id": 1338747,
        "last_rank": 67926,
        "player_name": "Ojo Bamiji",
        "rank": 43046,
        "rank_sort": 43065,
        "total": 2357
      },
      {
        "club_badge_src": null,
        "entry": 201953,
        "entry_name": "China Fort United",
        "event_total": 60,
        "has_played": true,
        "id": 1341067,
        "last_rank": 41824,
        "player_name": "ASJARD SHIHAB",
        "rank": 43046,
        "rank_sort": 43066,
        "total": 2357
      },
      {
        "club_badge_src": null,
        "entry": 206564,
        "entry_name": "Pique Blinders",
        "event_total": 63,
        "has_played": true,
        "id": 1372906,
        "last_rank": 45714,
        "player_name": "Anmol Jhaveri",
        "rank": 43046,
        "rank_sort": 43067,
        "total": 2357
      },
      {
        "club_badge_src": null,
        "entry": 221805,
        "entry_name": "sultan fc",
        "event_total": 76,
        "has_played": true,
        "id": 1475244,
        "last_rank": 76128,
        "player_name": "Joel Sultan",
        "rank": 43046,
        "rank_sort": 43068,
        "total": 2357
      },
      {
        "club_badge_src": null,
        "entry": 230564,
        "entry_name": "TheBroBizz",
        "event_total": 67,
        "has_played": true,
        "id": 1533884,
        "last_rank": 58911,
        "player_name": "Anders Brogaard",
        "rank": 43046,
        "rank_sort": 43069,
        "total": 2357
      },
      {
        "club_badge_src": "https://fantasy.premierleague.com/gcs/plfpl-production-adobe-approved/plfpl-production/232621/aa4ca4d8-7c25-472a-9763-21c717b04273.png",
        "entry": 232621,
        "entry_name": "fergietimesquad",
        "event_total": 71,
        "has_played": true,
        "id": 1547740,
        "last_rank": 58071,
        "player_name": "Anand Shankar",
        "rank": 43046,
        "rank_sort": 43070,
        "total": 2357
      },
      {
        "club_badge_src": null,
        "entry": 254975,
        "entry_name": "NotMikeDeanForever",
        "event_total": 32,
        "has_played": true,
        "id": 1696043,
        "last_rank": 18520,
        "player_name": "Dec Metcalfe",
        "rank": 43046,
        "rank_sort": 43071,
        "total": 2357
      },
      {
        "club_badge_src": "https://fantasy.premierleague.com/gcs/plfpl-production-adobe-approved/plfpl-production/281887/e3bb97e4-591d-4cc9-9f1c-169f97142407.png",
        "entry": 281887,
        "entry_name": "Polapp FC",
        "event_total": 70,
        "has_played": true,
        "id": 1876075,
        "last_rank": 64190,
        "player_name": "Aadith Sankar",
        "rank": 43046,
        "rank_sort": 43072,
        "total": 2357
      },
      {
        "club_badge_src": null,
        "entry": 295313,
        "entry_name": "Pique Blinders",
        "event_total": 53,
        "has_played": true,
        "id": 1972449,
        "last_rank": 38163,
        "player_name": "Paul Ose",
        "rank": 43046,
        "rank_sort": 43073,
        "total": 2357
      },
      {
        "club_badge_src": null,
        "entry": 303183,
        "entry_name": "Deadman",
        "event_total": 60,
        "has_played": true,
        "id": 2029359,
        "last_rank": 41617,
        "player_name": "Mohamed Al Rais",
        "rank": 43046,
        "rank_sort": 43074,
        "total": 2357
      },
      {
        "club_badge_src": null,
        "entry": 303231,
        "entry_name": "Lloyd\u2019s XI",
        "event_total": 59,
        "has_played": true,
        "id": 2029712,
        "last_rank": 40503,
        "player_name": "Lloyd Webb",
        "rank": 43046,
        "rank_sort": 43075,
        "total": 2357
      },
      {
        "club_badge_src": null,
        "entry": 325559,
        "entry_name": "The Forss Awakens",
        "event_total": 65,
        "has_played": true,
        "id": 2181411,
        "last_rank": 42940,
        "player_name": "Yusuf Salad",
        "rank": 43046,
        "rank_sort": 43076,
        "total": 2357
      },
      {
        "club_badge_src": null,
        "entry": 334384,
        "entry_name": "Team Kuss",
        "event_total": 66,
        "has_played": true,
        "id": 2239184,
        "last_rank": 57200,
        "player_name": "Henrik Klarskov Andersen",
        "rank": 43046,
        "rank_sort": 43077,
        "total": 2357
      },
      {
        "club_badge_src": null,
        "entry": 391248,
        "entry_name": "Under my Cucurella",
        "event_total": 67,
        "has_played": true,
        "id": 2624360,
        "last_rank": 58688,
        "player_name": "Aidan Hobday",
        "rank": 43046,
        "rank_sort": 43078,
        "total": 2357
      },
      {
        "club_badge_src": "https://fantasy.premierleague.com/gcs/plfpl-production-adobe-approved/plfpl-production/394161/d693f48c-e9ef-4989-8125-012221055a23.png",
        "entry": 394161,
        "entry_name": "Dormitory",
        "event_total": 62,
        "has_played": true,
        "id": 2643426,
        "last_rank": 50635,
        "player_name": "Mikolaj S",
        "rank": 43046,
        "rank_sort": 43079,
        "total": 2357
      },
      {
        "club_badge_src": null,
        "entry": 448890,
        "entry_name": "Konsa Quential",
        "event_total": 64,
        "has_played": true,
        "id": 3011507,
        "last_rank": 53621,
        "player_name": "Seth Northern",
        "rank": 43046,
        "rank_sort": 43080,
        "total": 2357
      },
      {
        "club_badge_src": null,
        "entry": 481550,
        "entry_name": "Caraxes FC",
        "event_total": 48,
        "has_played": true,
        "id": 3232823,
        "last_rank": 32437,
        "player_name": "SAAD BASHIR",
        "rank": 43046,
        "rank_sort": 43081,
        "total": 2357
      },
      {
        "club_badge_src": null,
        "entry": 492997,
        "entry_name": "Hama",
        "event_total": 59,
        "has_played": true,
        "id": 3309247,
        "last_rank": 45927,
        "player_name": "Mohammed Najdat",
        "rank": 43046,
        "rank_sort": 43082,
        "total": 2357
      },
      {
        "club_badge_src": null,
        "entry": 565764,
        "entry_name": "BZJV",
        "event_total": 69,
        "has_played": true,
        "id": 3808005,
        "last_rank": 55014,
        "player_name": "Patrik Luk\u00e1\u010d",
        "rank": 43046,
        "rank_sort": 43083,
        "total": 2357
      },
      {
        "club_badge_src": null,
        "entry": 589472,
        "entry_name": "Vote for Pedro Porro",
        "event_total": 46,
        "has_played": true,
        "id": 3970237,
        "last_rank": 30191,
        "player_name": "Todd Richards",
        "rank": 43046,
        "rank_sort": 43084,
        "total": 2357
      },
      {
        "club_badge_src": null,
        "entry": 590541,
        "entry_name": "Why do we do this?",
        "event_total": 29,
        "has_played": true,
        "id": 3978188,
        "last_rank": 16512,
        "player_name": "Ben Macdonald",
        "rank": 43046,
        "rank_sort": 43085,
        "total": 2357
      },
      {
        "club_badge_src": null,
        "entry": 592134,
        "entry_name": "Kinder Mbuemo",
        "event_total": 53,
        "has_played": true,
        "id": 3989744,
        "last_rank": 38016,
        "player_name": "Callum Malone",
        "rank": 43046,
        "rank_sort": 43086,
        "total": 2357
      },
      {
        "club_badge_src": null,
        "entry": 610465,
        "entry_name": "Norfolk & Chance",
        "event_total": 62,
        "has_played": true,
        "id": 4124315,
        "last_rank": 44525,
        "player_name": "danny clarke",
        "rank": 43046,
        "rank_sort": 43087,
        "total": 2357
      },
      {
        "club_badge_src": null,
        "entry": 614152,
        "entry_name": "Wirtz Nightmare",
        "event_total": 64,
        "has_played": true,
        "id": 4149865,
        "last_rank": 53621,
        "player_name": "Scott Parks",
        "rank": 43046,
        "rank_sort": 43088,
        "total": 2357
      },
      {
        "club_badge_src": null,
        "entry": 643330,
        "entry_name": "Backstreet Moyes",
        "event_total": 52,
        "has_played": true,
        "id": 4347807,
        "last_rank": 36963,
        "player_name": "Aidan Noble",
        "rank": 43046,
        "rank_sort": 43089,
        "total": 2357
      },
      {
        "club_badge_src": null,
        "entry": 697844,
        "entry_name": "Drink Dannywater",
        "event_total": 52,
        "has_played": true,
        "id": 4727076,
        "last_rank": 32190,
        "player_name": "Vegard Kolltveit",
        "rank": 43046,
        "rank_sort": 43090,
        "total": 2357
      },
      {
        "club_badge_src": null,
        "entry": 741716,
        "entry_name": "Est\u00eava\u00f5-behandling",
        "event_total": 69,
        "has_played": true,
        "id": 5044690,
        "last_rank": 62429,
        "player_name": "Hannes Bergenfur",
        "rank": 43046,
        "rank_sort": 43091,
        "total": 2357
      },
      {
        "club_badge_src": null,
        "entry": 771016,
        "entry_name": "Pennies",
        "event_total": 59,
        "has_played": true,
        "id": 5259760,
        "last_rank": 46106,
        "player_name": "Simon K",
        "rank": 43046,
        "rank_sort": 43092,
        "total": 2357
      },
      {
        "club_badge_src": null,
        "entry": 794162,
        "entry_name": "Here We Go",
        "event_total": 55,
        "has_played": true,
        "id": 5434873,
        "last_rank": 35619,
        "player_name": "Bendik Buttedal Andersen",
        "rank": 43046,
        "rank_sort": 43093,
        "total": 2357
      },
      {
        "club_badge_src": null,
        "entry": 814397,
        "entry_name": "Currywirtz",
        "event_total": 31,
        "has_played": true,
        "id": 5576736,
        "last_rank": 15164,
        "player_name": "Vinoth Rathakrishnan",
        "rank": 43046,
        "rank_sort": 43094,
        "total": 2357
      },
      {
        "club_badge_src": "https://fantasy.premierleague.com/gcs/plfpl-production-adobe-approved/plfpl-production/814876/71708a00-9dcd-4303-ac48-ba6e42be6417.png",
        "entry": 814876,
        "entry_name": "PEPperoni Tactics",
        "event_total": 51,
        "has_played": true,
        "id": 5580085,
        "last_rank": 35619,
        "player_name": "Malik Scott",
        "rank": 43046,
        "rank_sort": 43095,
        "total": 2357
      },
      {
        "club_badge_src": null,
        "entry": 851015,
        "entry_name": "PookiMonTCG",
        "event_total": 39,
        "has_played": true,
        "id": 5833086,
        "last_rank": 23820,
        "player_name": "Yixian Wong",
        "rank": 43046,
        "rank_sort": 43096,
        "total": 2357
      },
      {
        "club_badge_src": "https://fantasy.premierleague.com/gcs/plfpl-production-adobe-approved/plfpl-production/877619/de3b805d-fb16-4a0c-9e9a-6052b7b544ca.png",
        "entry": 877619,
        "entry_name": "Canblaster FC",
        "event_total": 62,
        "has_played": true,
        "id": 6016951,
        "last_rank": 50635,
        "player_name": "Prosenjit Das",
        "rank": 43046,
        "rank_sort": 43097,
        "total": 2357
      },
      {
        "club_badge_src": null,
        "entry": 887044,
        "entry_name": "Change Name",
        "event_total": 62,
        "has_played": true,
        "id": 6084015,
        "last_rank": 50635,
        "player_name": "Rishabh Dhunnoo",
        "rank": 43046,
        "rank_sort": 43098,
        "total": 2357
      },
      {
        "club_badge_src": null,
        "entry": 942843,
        "entry_name": "Zubi Zubi Doo",
        "event_total": 68,
        "has_played": true,
        "id": 6493655,
        "last_rank": 41324,
        "player_name": "Andres Ramirez",
        "rank": 43046,
        "rank_sort": 43099,
        "total": 2357
      },
      {
        "club_badge_src": null,
        "entry": 957944,
        "entry_name": "Die Lannschaft",
        "event_total": 69,
        "has_played": true,
        "id": 6600700,
        "last_rank": 62429,
        "player_name": "Lander Vierendeels",
        "rank": 43046,
        "rank_sort": 43100,
        "total": 2357
      }
    ]
  }
}