{
  "last_updated_data": "2026-05-24T23:28:17Z",
  "league": {
    "admin_entry": null,
    "closed": false,
    "code_privacy": "p",
    "created": "2025-07-20T23:14:33.933835Z",
    "cup_league": 2815434,
    "has_cup": true,
    "id": 314,
    "league_type": "s",
    "max_entries": null,
    "name": "Overall",
    "rank": null,
    "scoring": "c",
    "start_event": 1
  },
  "new_entries": {
    "has_next": false,
    "page": 1,
    "results": []
  },
  "standings": {
    "has_next": true,
    "page": 2,
    "results": [
      {
        "club_badge_src": null,
        "entry": 232428,
        "entry_name": "Forest Fires",
        "event_total": 59,
        "has_played": true,
        "id": 1546359,
        "last_rank": 54,
        "player_name": "Gareth Down",
        "rank": 51,
        "rank_sort": 51,
        "total": 2498
      },
      {
        "club_badge_src": null,
        "entry": 1485726,
        "entry_name": "Got Mainoo Shoes On",
        "event_total": 72,
        "has_played": true,
        "id": 10360683,
        "last_rank": 123,
        "player_name": "Louis Collins",
        "rank": 51,
        "rank_sort": 52,
        "total": 2498
      },
      {
        "club_badge_src": "https://fantasy.premierleague.com/gcs/plfpl-production-adobe-approved/plfpl-production/4043/56d70c5f-d72f-4dd9-aa5a-4786f8571d60.png",
        "entry": 4043,
        "entry_name": "Guinness13",
        "event_total": 65,
        "has_played": true,
        "id": 22935,
        "last_rank": 60,
        "player_name": "Mike Mahoney",
        "rank": 53,
        "rank_sort": 53,
        "total": 2498
      },
      {
        "club_badge_src": null,
        "entry": 1915681,
        "entry_name": "Lads, its Tottenham",
        "event_total": 70,
        "has_played": true,
        "id": 13506938,
        "last_rank": 114,
        "player_name": "Jon Page",
        "rank": 54,
        "rank_sort": 54,
        "total": 2498
      },
      {
        "club_badge_src": null,
        "entry": 47186,
        "entry_name": "ROCKS",
        "event_total": 56,
        "has_played": true,
        "id": 302601,
        "last_rank": 46,
        "player_name": "Faisal Rocks",
        "rank": 55,
        "rank_sort": 55,
        "total": 2497
      },
      {
        "club_badge_src": null,
        "entry": 766701,
        "entry_name": "DJ8CR8",
        "event_total": 71,
        "has_played": true,
        "id": 5229263,
        "last_rank": 96,
        "player_name": "rafa vale",
        "rank": 56,
        "rank_sort": 56,
        "total": 2497
      },
      {
        "club_badge_src": null,
        "entry": 7232952,
        "entry_name": "aaa fc",
        "event_total": 67,
        "has_played": true,
        "id": 58442264,
        "last_rank": 98,
        "player_name": "Jaturong Ruangkert",
        "rank": 56,
        "rank_sort": 57,
        "total": 2497
      },
      {
        "club_badge_src": null,
        "entry": 6673941,
        "entry_name": "ItCantGoAnyWirtz",
        "event_total": 76,
        "has_played": true,
        "id": 53379760,
        "last_rank": 173,
        "player_name": "ZombiePetter K",
        "rank": 58,
        "rank_sort": 58,
        "total": 2496
      },
      {
        "club_badge_src": null,
        "entry": 97619,
        "entry_name": "SheBK",
        "event_total": 51,
        "has_played": true,
        "id": 637572,
        "last_rank": 35,
        "player_name": "Vladimir Rutman",
        "rank": 59,
        "rank_sort": 59,
        "total": 2496
      },
      {
        "club_badge_src": null,
        "entry": 18383,
        "entry_name": "Ricos Roughnecks",
        "event_total": 60,
        "has_played": true,
        "id": 114345,
        "last_rank": 50,
        "player_name": "-Calm -",
        "rank": 60,
        "rank_sort": 60,
        "total": 2496
      },
      {
        "club_badge_src": null,
        "entry": 185521,
        "entry_name": "Cat in the Hato",
        "event_total": 51,
        "has_played": true,
        "id": 1225576,
        "last_rank": 25,
        "player_name": "Pedrom Meskini",
        "rank": 60,
        "rank_sort": 61,
        "total": 2496
      },
      {
        "club_badge_src": null,
        "entry": 9015619,
        "entry_name": "fip",
        "event_total": 52,
        "has_played": true,
        "id": 75630470,
        "last_rank": 41,
        "player_name": "Jacob Charles",
        "rank": 62,
        "rank_sort": 62,
        "total": 2495
      },
      {
        "club_badge_src": null,
        "entry": 643288,
        "entry_name": "Sullivan's Squad",
        "event_total": 54,
        "has_played": true,
        "id": 4347521,
        "last_rank": 47,
        "player_name": "Eoin O Sullivan",
        "rank": 63,
        "rank_sort": 63,
        "total": 2495
      },
      {
        "club_badge_src": null,
        "entry": 7701,
        "entry_name": "Headhunters",
        "event_total": 51,
        "has_played": true,
        "id": 44432,
        "last_rank": 39,
        "player_name": "Chris O-Donnell",
        "rank": 64,
        "rank_sort": 64,
        "total": 2495
      },
      {
        "club_badge_src": null,
        "entry": 5340266,
        "entry_name": "Reijnders Keepers",
        "event_total": 68,
        "has_played": true,
        "id": 41414517,
        "last_rank": 116,
        "player_name": "Jack Marshall",
        "rank": 64,
        "rank_sort": 65,
        "total": 2495
      },
      {
        "club_badge_src": null,
        "entry": 1287966,
        "entry_name": "TwistedMelons",
        "event_total": 62,
        "has_played": true,
        "id": 8949780,
        "last_rank": 80,
        "player_name": "Tony McGing",
        "rank": 66,
        "rank_sort": 66,
        "total": 2495
      },
      {
        "club_badge_src": null,
        "entry": 6556124,
        "entry_name": "Skell on Earth",
        "event_total": 58,
        "has_played": true,
        "id": 52321516,
        "last_rank": 66,
        "player_name": "Tyler Zabel",
        "rank": 66,
        "rank_sort": 67,
        "total": 2495
      },
      {
        "club_badge_src": null,
        "entry": 6714366,
        "entry_name": "desta vez \u00e9 a s\u00e9rio",
        "event_total": 55,
        "has_played": true,
        "id": 53734573,
        "last_rank": 55,
        "player_name": "Diogo Evangelista",
        "rank": 68,
        "rank_sort": 68,
        "total": 2494
      },
      {
        "club_badge_src": null,
        "entry": 3871872,
        "entry_name": "RAMBO",
        "event_total": 73,
        "has_played": true,
        "id": 29056009,
        "last_rank": 160,
        "player_name": "Kirpal Mehat",
        "rank": 69,
        "rank_sort": 69,
        "total": 2494
      },
      {
        "club_badge_src": null,
        "entry": 4933870,
        "entry_name": "Gengar FC",
        "event_total": 73,
        "has_played": true,
        "id": 38062281,
        "last_rank": 159,
        "player_name": "Dilip Gengatharan",
        "rank": 69,
        "rank_sort": 70,
        "total": 2494
      },
      {
        "club_badge_src": null,
        "entry": 304110,
        "entry_name": "Taptics",
        "event_total": 64,
        "has_played": true,
        "id": 2035985,
        "last_rank": 95,
        "player_name": "Jeppe Skov",
        "rank": 71,
        "rank_sort": 71,
        "total": 2494
      },
      {
        "club_badge_src": null,
        "entry": 3704490,
        "entry_name": "Pittsburg United",
        "event_total": 74,
        "has_played": true,
        "id": 27640447,
        "last_rank": 174,
        "player_name": "Rodney Johnston",
        "rank": 71,
        "rank_sort": 72,
        "total": 2494
      },
      {
        "club_badge_src": null,
        "entry": 7802018,
        "entry_name": "Shoegazer",
        "event_total": 64,
        "has_played": true,
        "id": 64091309,
        "last_rank": 98,
        "player_name": "Graham Pleavin",
        "rank": 73,
        "rank_sort": 73,
        "total": 2494
      },
      {
        "club_badge_src": null,
        "entry": 4437104,
        "entry_name": "Total Gareth",
        "event_total": 54,
        "has_played": true,
        "id": 33784922,
        "last_rank": 56,
        "player_name": "Chris Field",
        "rank": 74,
        "rank_sort": 74,
        "total": 2493
      },
      {
        "club_badge_src": null,
        "entry": 236220,
        "entry_name": "Rutter woke nonsense",
        "event_total": 61,
        "has_played": true,
        "id": 1571737,
        "last_rank": 84,
        "player_name": "David Ogunyemi",
        "rank": 75,
        "rank_sort": 75,
        "total": 2493
      },
      {
        "club_badge_src": null,
        "entry": 283695,
        "entry_name": "leggs 11",
        "event_total": 70,
        "has_played": true,
        "id": 1888769,
        "last_rank": 143,
        "player_name": "Thomas Legg",
        "rank": 76,
        "rank_sort": 76,
        "total": 2493
      },
      {
        "club_badge_src": null,
        "entry": 1182672,
        "entry_name": "Not second",
        "event_total": 75,
        "has_played": true,
        "id": 8205604,
        "last_rank": 199,
        "player_name": "Dan Erik R\u00f8dder",
        "rank": 77,
        "rank_sort": 77,
        "total": 2492
      },
      {
        "club_badge_src": "https://fantasy.premierleague.com/gcs/plfpl-production-adobe-approved/plfpl-production/1032270/3fe9b559-ac00-4aee-840f-b5a6b42e8d4a.png",
        "entry": 1032270,
        "entry_name": "\u0e1a\u0e34\u0e19\u0e17\u0e30\u0e25\u0e38\u0e1a\u0e49\u0e32\u0e19FC",
        "event_total": 65,
        "has_played": true,
        "id": 7142026,
        "last_rank": 116,
        "player_name": "Preraphas Sutitammakul",
        "rank": 78,
        "rank_sort": 78,
        "total": 2492
      },
      {
        "club_badge_src": "https://fantasy.premierleague.com/gcs/plfpl-production-adobe-approved/plfpl-production/2261780/70a8c6c7-dcfd-440b-8495-959681c85259.png",
        "entry": 2261780,
        "entry_name": "diudiuw",
        "event_total": 59,
        "has_played": true,
        "id": 16125827,
        "last_rank": 78,
        "player_name": "Enoch Lam",
        "rank": 78,
        "rank_sort": 79,
        "total": 2492
      },
      {
        "club_badge_src": "https://fantasy.premierleague.com/gcs/plfpl-production-adobe-approved/plfpl-production/11727/03631e00-c82d-4f23-9fff-61599f538934.png",
        "entry": 11727,
        "entry_name": "Comeback is On",
        "event_total": 59,
        "has_played": true,
        "id": 69816,
        "last_rank": 63,
        "player_name": "Abudulah Samura",
        "rank": 80,
        "rank_sort": 80,
        "total": 2492
      },
      {
        "club_badge_src": null,
        "entry": 12674,
        "entry_name": "Yoro wizard Harry",
        "event_total": 55,
        "has_played": true,
        "id": 76123,
        "last_rank": 65,
        "player_name": "Edward Bell",
        "rank": 80,
        "rank_sort": 81,
        "total": 2492
      },
      {
        "club_badge_src": "https://fantasy.premierleague.com/gcs/plfpl-production-adobe-approved/plfpl-production/1370909/7dd922d1-ce0e-4242-b8a1-eb024cb4530e.png",
        "entry": 1370909,
        "entry_name": "GUNKERES",
        "event_total": 63,
        "has_played": true,
        "id": 9529565,
        "last_rank": 78,
        "player_name": "Ratthagun Suwanchai",
        "rank": 80,
        "rank_sort": 82,
        "total": 2492
      },
      {
        "club_badge_src": "https://fantasy.premierleague.com/gcs/plfpl-production-adobe-approved/plfpl-production/8190938/1b752326-6faa-4c30-b16b-210efccff141.png",
        "entry": 8190938,
        "entry_name": "Keezy",
        "event_total": 60,
        "has_played": true,
        "id": 67653809,
        "last_rank": 71,
        "player_name": "Alex Willison",
        "rank": 83,
        "rank_sort": 83,
        "total": 2492
      },
      {
        "club_badge_src": null,
        "entry": 19811,
        "entry_name": "To be Frank",
        "event_total": 80,
        "has_played": true,
        "id": 123287,
        "last_rank": 178,
        "player_name": "Adrian Clark",
        "rank": 84,
        "rank_sort": 84,
        "total": 2492
      },
      {
        "club_badge_src": "https://fantasy.premierleague.com/gcs/plfpl-production-adobe-approved/plfpl-production/3824231/a04e5a42-a6c4-4ed5-9aff-105397e7c726.png",
        "entry": 3824231,
        "entry_name": "Shimalavandu FC",
        "event_total": 73,
        "has_played": true,
        "id": 28603646,
        "last_rank": 188,
        "player_name": "Blaise - \u5e03\u83b1\u65af",
        "rank": 85,
        "rank_sort": 85,
        "total": 2491
      },
      {
        "club_badge_src": "https://fantasy.premierleague.com/gcs/plfpl-production-adobe-approved/plfpl-production/18883/adf9723b-9011-4d46-86e6-62fe13fc4ea4.png",
        "entry": 18883,
        "entry_name": "Bobby Monas Firfisle",
        "event_total": 83,
        "has_played": true,
        "id": 117525,
        "last_rank": 348,
        "player_name": "Jonas Aksel Myrer",
        "rank": 86,
        "rank_sort": 86,
        "total": 2491
      },
      {
        "club_badge_src": null,
        "entry": 1597534,
        "entry_name": "In good Kompany",
        "event_total": 77,
        "has_played": true,
        "id": 11175539,
        "last_rank": 236,
        "player_name": "Gijs Kruise",
        "rank": 86,
        "rank_sort": 87,
        "total": 2491
      },
      {
        "club_badge_src": "https://fantasy.premierleague.com/gcs/plfpl-production-adobe-approved/plfpl-production/3418659/1f7ee892-1204-4f7d-8e55-43580256dc52.png",
        "entry": 3418659,
        "entry_name": "Tick Tick Mbeumo!",
        "event_total": 66,
        "has_played": true,
        "id": 25393041,
        "last_rank": 129,
        "player_name": "Liam Donnelly",
        "rank": 86,
        "rank_sort": 88,
        "total": 2491
      },
      {
        "club_badge_src": null,
        "entry": 8078893,
        "entry_name": "FC Truckdrivers",
        "event_total": 46,
        "has_played": true,
        "id": 66604572,
        "last_rank": 34,
        "player_name": "Janne Ojanpera",
        "rank": 86,
        "rank_sort": 89,
        "total": 2491
      },
      {
        "club_badge_src": null,
        "entry": 8100122,
        "entry_name": "Palmerout",
        "event_total": 35,
        "has_played": true,
        "id": 66802482,
        "last_rank": 19,
        "player_name": "Martin vist kristoffersen",
        "rank": 90,
        "rank_sort": 90,
        "total": 2491
      },
      {
        "club_badge_src": null,
        "entry": 2428831,
        "entry_name": "Kinder Mbeumo",
        "event_total": 55,
        "has_played": true,
        "id": 17367385,
        "last_rank": 52,
        "player_name": "Eoin Meehan",
        "rank": 91,
        "rank_sort": 91,
        "total": 2491
      },
      {
        "club_badge_src": null,
        "entry": 7144606,
        "entry_name": "Loading...",
        "event_total": 69,
        "has_played": true,
        "id": 57600238,
        "last_rank": 153,
        "player_name": "Prince Gauchan",
        "rank": 91,
        "rank_sort": 92,
        "total": 2491
      },
      {
        "club_badge_src": null,
        "entry": 793178,
        "entry_name": "Cunha Lingus",
        "event_total": 73,
        "has_played": true,
        "id": 5428106,
        "last_rank": 196,
        "player_name": "Luigi Limjap",
        "rank": 93,
        "rank_sort": 93,
        "total": 2491
      },
      {
        "club_badge_src": null,
        "entry": 926232,
        "entry_name": "Flying Parker",
        "event_total": 69,
        "has_played": true,
        "id": 6372100,
        "last_rank": 160,
        "player_name": "pharkphum rakruam",
        "rank": 94,
        "rank_sort": 94,
        "total": 2490
      },
      {
        "club_badge_src": "https://fantasy.premierleague.com/gcs/plfpl-production-adobe-approved/plfpl-production/4886117/6cde4bc9-b0b9-45b9-8ee9-03882a2f14b9.png",
        "entry": 4886117,
        "entry_name": "The Treble Winners",
        "event_total": 54,
        "has_played": true,
        "id": 37670319,
        "last_rank": 68,
        "player_name": "Lennon D'Souza",
        "rank": 94,
        "rank_sort": 95,
        "total": 2490
      },
      {
        "club_badge_src": null,
        "entry": 347953,
        "entry_name": "The August Wildcards",
        "event_total": 64,
        "has_played": true,
        "id": 2328971,
        "last_rank": 124,
        "player_name": "Steve Barrett",
        "rank": 96,
        "rank_sort": 96,
        "total": 2490
      },
      {
        "club_badge_src": null,
        "entry": 649584,
        "entry_name": "Tope's Red Devils",
        "event_total": 67,
        "has_played": true,
        "id": 4390029,
        "last_rank": 147,
        "player_name": "Tope Anifalaje",
        "rank": 97,
        "rank_sort": 97,
        "total": 2490
      },
      {
        "club_badge_src": null,
        "entry": 4638602,
        "entry_name": "Lekestue",
        "event_total": 56,
        "has_played": true,
        "id": 35474427,
        "last_rank": 76,
        "player_name": "Olai Storhaugen",
        "rank": 98,
        "rank_sort": 98,
        "total": 2490
      },
      {
        "club_badge_src": null,
        "entry": 306124,
        "entry_name": "eveve",
        "event_total": 57,
        "has_played": true,
        "id": 2050093,
        "last_rank": 84,
        "player_name": "Milosz Dudzinski",
        "rank": 99,
        "rank_sort": 99,
        "total": 2489
      },
      {
        "club_badge_src": "https://fantasy.premierleague.com/gcs/plfpl-production-adobe-approved/plfpl-production/1731239/f2537526-9ae1-45c7-b9d0-067aec49d480.png",
        "entry": 1731239,
        "entry_name": "Bayern Bru",
        "event_total": 54,
        "has_played": true,
        "id": 12143193,
        "last_rank": 74,
        "player_name": "Lee Foster",
        "rank": 99,
        "rank_sort": 100,
        "total": 2489
      }
    ]
  }
}