{
  "last_updated_data": "2026-05-24T23:28:17Z",
  "league": {
    "admin_entry": null,
    "closed": false,
    "code_privacy": "p",
    "created": "2025-07-20T23:14:33.933835Z",
    "cup_league": 2815434,
    "has_cup": true,
    "id": 314,
    "league_type": "s",
    "max_entries": null,
    "name": "Overall",
    "rank": null,
    "scoring": "c",
    "start_event": 1
  },
  "new_entries": {
    "has_next": false,
    "page": 1,
    "results": []
  },
  "standings": {
    "has_next": true,
    "page": 605,
    "results": [
      {
        "club_badge_src": null,
        "entry": 4598086,
        "entry_name": "DamnBaby",
        "event_total": 50,
        "has_played": true,
        "id": 35119708,
        "last_rank": 23341,
        "player_name": "Franky Chau",
        "rank": 30061,
        "rank_sort": 30201,
        "total": 2368
      },
      {
        "club_badge_src": null,
        "entry": 4627459,
        "entry_name": "Stokes City",
        "event_total": 46,
        "has_played": true,
        "id": 35379421,
        "last_rank": 20416,
        "player_name": "Jamie Stokes",
        "rank": 30061,
        "rank_sort": 30202,
        "total": 2368
      },
      {
        "club_badge_src": null,
        "entry": 4636865,
        "entry_name": "Guskeres FC",
        "event_total": 60,
        "has_played": true,
        "id": 35459881,
        "last_rank": 28726,
        "player_name": "Gustav Andersson",
        "rank": 30061,
        "rank_sort": 30203,
        "total": 2368
      },
      {
        "club_badge_src": null,
        "entry": 4637839,
        "entry_name": "japa koniu",
        "event_total": 53,
        "has_played": true,
        "id": 35468047,
        "last_rank": 22426,
        "player_name": "Konrad Szczerba",
        "rank": 30061,
        "rank_sort": 30204,
        "total": 2368
      },
      {
        "club_badge_src": null,
        "entry": 4679744,
        "entry_name": "Gung Ho",
        "event_total": 62,
        "has_played": true,
        "id": 35854662,
        "last_rank": 35424,
        "player_name": "Sian Frampton",
        "rank": 30061,
        "rank_sort": 30205,
        "total": 2368
      },
      {
        "club_badge_src": null,
        "entry": 4705813,
        "entry_name": "The Shola Express",
        "event_total": 60,
        "has_played": true,
        "id": 36082311,
        "last_rank": 28726,
        "player_name": "James Simcox",
        "rank": 30061,
        "rank_sort": 30206,
        "total": 2368
      },
      {
        "club_badge_src": null,
        "entry": 4722095,
        "entry_name": "Ninja Squad",
        "event_total": 62,
        "has_played": true,
        "id": 36282604,
        "last_rank": 35619,
        "player_name": "zain Abbas",
        "rank": 30061,
        "rank_sort": 30207,
        "total": 2368
      },
      {
        "club_badge_src": null,
        "entry": 4823441,
        "entry_name": "Preston Utd",
        "event_total": 68,
        "has_played": true,
        "id": 37146837,
        "last_rank": 42648,
        "player_name": "Thomas McDonald",
        "rank": 30061,
        "rank_sort": 30208,
        "total": 2368
      },
      {
        "club_badge_src": null,
        "entry": 4831775,
        "entry_name": "Chi mi Chi mi Chi mi",
        "event_total": 50,
        "has_played": true,
        "id": 37215482,
        "last_rank": 23522,
        "player_name": "Prakrit Nimcharoen",
        "rank": 30061,
        "rank_sort": 30209,
        "total": 2368
      },
      {
        "club_badge_src": null,
        "entry": 4840483,
        "entry_name": "ABALOI",
        "event_total": 67,
        "has_played": true,
        "id": 37287316,
        "last_rank": 41162,
        "player_name": "Anestis G",
        "rank": 30061,
        "rank_sort": 30210,
        "total": 2368
      },
      {
        "club_badge_src": null,
        "entry": 4867744,
        "entry_name": "Peaky Reijnders",
        "event_total": 38,
        "has_played": true,
        "id": 37518514,
        "last_rank": 15063,
        "player_name": "Ed Cox",
        "rank": 30061,
        "rank_sort": 30211,
        "total": 2368
      },
      {
        "club_badge_src": null,
        "entry": 4888349,
        "entry_name": "Sal The Man",
        "event_total": 46,
        "has_played": true,
        "id": 37688410,
        "last_rank": 20416,
        "player_name": "Salmaan Moosa",
        "rank": 30061,
        "rank_sort": 30212,
        "total": 2368
      },
      {
        "club_badge_src": null,
        "entry": 4930859,
        "entry_name": "asserr",
        "event_total": 37,
        "has_played": true,
        "id": 38036864,
        "last_rank": 14496,
        "player_name": "Asser Ashraf",
        "rank": 30061,
        "rank_sort": 30213,
        "total": 2368
      },
      {
        "club_badge_src": null,
        "entry": 4988569,
        "entry_name": "Neville wears Prada",
        "event_total": 58,
        "has_played": true,
        "id": 38512358,
        "last_rank": 30957,
        "player_name": "Andy Warrilow",
        "rank": 30061,
        "rank_sort": 30214,
        "total": 2368
      },
      {
        "club_badge_src": null,
        "entry": 5028514,
        "entry_name": "Ekitike-Taka",
        "event_total": 68,
        "has_played": true,
        "id": 38837280,
        "last_rank": 42434,
        "player_name": "Sam Finnegan",
        "rank": 30061,
        "rank_sort": 30215,
        "total": 2368
      },
      {
        "club_badge_src": "https://fantasy.premierleague.com/gcs/plfpl-production-adobe-approved/plfpl-production/5125036/ae1b6062-0c6b-41c7-9039-e699b7946440.png",
        "entry": 5125036,
        "entry_name": "\u5403\u5c0f\u5b69\u7684\u54c8\u54c8\u602a",
        "event_total": 63,
        "has_played": true,
        "id": 39632341,
        "last_rank": 31620,
        "player_name": "Ha Haa\u2006lan\u2006d",
        "rank": 30061,
        "rank_sort": 30216,
        "total": 2368
      },
      {
        "club_badge_src": null,
        "entry": 5555224,
        "entry_name": "Black Magic",
        "event_total": 72,
        "has_played": true,
        "id": 43361725,
        "last_rank": 48642,
        "player_name": "Oscar Donati",
        "rank": 30061,
        "rank_sort": 30217,
        "total": 2368
      },
      {
        "club_badge_src": "https://fantasy.premierleague.com/gcs/plfpl-production-adobe-approved/plfpl-production/5752046/78dc0628-7f88-4fee-835e-746ab9749c2a.png",
        "entry": 5752046,
        "entry_name": "MoRightWingThanSaka",
        "event_total": 46,
        "has_played": true,
        "id": 45083427,
        "last_rank": 17437,
        "player_name": "Saurabh Bose",
        "rank": 30061,
        "rank_sort": 30218,
        "total": 2368
      },
      {
        "club_badge_src": null,
        "entry": 5762922,
        "entry_name": "Bohemiah Rafsody",
        "event_total": 46,
        "has_played": true,
        "id": 45177409,
        "last_rank": 20416,
        "player_name": "Raf Miah",
        "rank": 30061,
        "rank_sort": 30219,
        "total": 2368
      },
      {
        "club_badge_src": null,
        "entry": 5832630,
        "entry_name": "Max Cannon",
        "event_total": 70,
        "has_played": true,
        "id": 45780744,
        "last_rank": 45714,
        "player_name": "Izzat Syakirin",
        "rank": 30061,
        "rank_sort": 30220,
        "total": 2368
      },
      {
        "club_badge_src": null,
        "entry": 5894943,
        "entry_name": "\u0e20\u0e31\u0e01\u0e01\u0e35\u0e49 \u0e22\u0e39\u0e44\u0e19\u0e40\u0e15\u0e47\u0e15",
        "event_total": 51,
        "has_played": true,
        "id": 46309625,
        "last_rank": 24330,
        "player_name": "Pakavee Srisawang",
        "rank": 30061,
        "rank_sort": 30221,
        "total": 2368
      },
      {
        "club_badge_src": null,
        "entry": 5899232,
        "entry_name": "SmallOrBigSocceroo?",
        "event_total": 47,
        "has_played": true,
        "id": 46347324,
        "last_rank": 18113,
        "player_name": "Tristan Bain",
        "rank": 30061,
        "rank_sort": 30222,
        "total": 2368
      },
      {
        "club_badge_src": null,
        "entry": 5954374,
        "entry_name": "Sligo Rovers XI",
        "event_total": 61,
        "has_played": true,
        "id": 46837990,
        "last_rank": 29578,
        "player_name": "James Coleman",
        "rank": 30061,
        "rank_sort": 30223,
        "total": 2368
      },
      {
        "club_badge_src": null,
        "entry": 5964214,
        "entry_name": "Mkhicharyan United",
        "event_total": 66,
        "has_played": true,
        "id": 46924440,
        "last_rank": 40297,
        "player_name": "Vemal Charian Nedumcharian",
        "rank": 30061,
        "rank_sort": 30224,
        "total": 2368
      },
      {
        "club_badge_src": null,
        "entry": 6000695,
        "entry_name": "Game of Two Halves",
        "event_total": 62,
        "has_played": true,
        "id": 47304446,
        "last_rank": 30727,
        "player_name": "Andrew Schofield",
        "rank": 30061,
        "rank_sort": 30225,
        "total": 2368
      },
      {
        "club_badge_src": null,
        "entry": 6036316,
        "entry_name": "FPLKING",
        "event_total": 67,
        "has_played": true,
        "id": 47621523,
        "last_rank": 36348,
        "player_name": "Daud Bryan",
        "rank": 30061,
        "rank_sort": 30226,
        "total": 2368
      },
      {
        "club_badge_src": null,
        "entry": 6062422,
        "entry_name": "M\u00e5lmandens Mareridt",
        "event_total": 63,
        "has_played": true,
        "id": 47847335,
        "last_rank": 31747,
        "player_name": "Mikkel Lund Pedersen",
        "rank": 30061,
        "rank_sort": 30227,
        "total": 2368
      },
      {
        "club_badge_src": null,
        "entry": 6070781,
        "entry_name": "Savage XI",
        "event_total": 58,
        "has_played": true,
        "id": 47921351,
        "last_rank": 30957,
        "player_name": "David Savage",
        "rank": 30061,
        "rank_sort": 30228,
        "total": 2368
      },
      {
        "club_badge_src": null,
        "entry": 6432761,
        "entry_name": "Itchisak",
        "event_total": 33,
        "has_played": true,
        "id": 51209576,
        "last_rank": 12322,
        "player_name": "Olly Tennant",
        "rank": 30061,
        "rank_sort": 30229,
        "total": 2368
      },
      {
        "club_badge_src": null,
        "entry": 6650420,
        "entry_name": "Flying Without Ings",
        "event_total": 53,
        "has_played": true,
        "id": 53165996,
        "last_rank": 26088,
        "player_name": "Cameron Fraser",
        "rank": 30061,
        "rank_sort": 30230,
        "total": 2368
      },
      {
        "club_badge_src": null,
        "entry": 6925875,
        "entry_name": "THE ROYALISTS",
        "event_total": 61,
        "has_played": true,
        "id": 55520657,
        "last_rank": 34051,
        "player_name": "J Comeau",
        "rank": 30061,
        "rank_sort": 30231,
        "total": 2368
      },
      {
        "club_badge_src": "https://fantasy.premierleague.com/gcs/plfpl-production-adobe-approved/plfpl-production/7029887/a4823d78-3957-4f63-8a6a-809bdfaa9a72.png",
        "entry": 7029887,
        "entry_name": "Theatre of Dreams",
        "event_total": 58,
        "has_played": true,
        "id": 56492915,
        "last_rank": 30957,
        "player_name": "alvin choo",
        "rank": 30061,
        "rank_sort": 30232,
        "total": 2368
      },
      {
        "club_badge_src": null,
        "entry": 7070384,
        "entry_name": "Karambit",
        "event_total": 58,
        "has_played": true,
        "id": 56892815,
        "last_rank": 30957,
        "player_name": "Kai Amilin",
        "rank": 30061,
        "rank_sort": 30233,
        "total": 2368
      },
      {
        "club_badge_src": null,
        "entry": 7208813,
        "entry_name": "no idea",
        "event_total": 71,
        "has_played": true,
        "id": 58215829,
        "last_rank": 46547,
        "player_name": "Mo Panchy",
        "rank": 30061,
        "rank_sort": 30234,
        "total": 2368
      },
      {
        "club_badge_src": null,
        "entry": 7285941,
        "entry_name": "H",
        "event_total": 62,
        "has_played": true,
        "id": 58945183,
        "last_rank": 35166,
        "player_name": "Husain A",
        "rank": 30061,
        "rank_sort": 30235,
        "total": 2368
      },
      {
        "club_badge_src": null,
        "entry": 8080718,
        "entry_name": "Rice Rice Baby",
        "event_total": 65,
        "has_played": true,
        "id": 66621829,
        "last_rank": 38774,
        "player_name": "Aditya Hingorani",
        "rank": 30061,
        "rank_sort": 30236,
        "total": 2368
      },
      {
        "club_badge_src": null,
        "entry": 8114807,
        "entry_name": "Schaste Fc",
        "event_total": 52,
        "has_played": true,
        "id": 66939126,
        "last_rank": 25172,
        "player_name": "Lethabo Kgakatsi",
        "rank": 30061,
        "rank_sort": 30237,
        "total": 2368
      },
      {
        "club_badge_src": null,
        "entry": 8144051,
        "entry_name": "Moth Balls",
        "event_total": 58,
        "has_played": true,
        "id": 67212905,
        "last_rank": 26827,
        "player_name": "Hayley Elnaugh",
        "rank": 30061,
        "rank_sort": 30238,
        "total": 2368
      },
      {
        "club_badge_src": "https://fantasy.premierleague.com/gcs/plfpl-production-adobe-approved/plfpl-production/8175514/5672b7ad-d962-45d2-97fe-f931e9e2c790.png",
        "entry": 8175514,
        "entry_name": "3oss el Boss team",
        "event_total": 63,
        "has_played": true,
        "id": 67507901,
        "last_rank": 36348,
        "player_name": "Youssef Essam",
        "rank": 30061,
        "rank_sort": 30239,
        "total": 2368
      },
      {
        "club_badge_src": null,
        "entry": 8389389,
        "entry_name": "Not a Kalou",
        "event_total": 66,
        "has_played": true,
        "id": 69580392,
        "last_rank": 35166,
        "player_name": "Cian Waters",
        "rank": 30061,
        "rank_sort": 30240,
        "total": 2368
      },
      {
        "club_badge_src": null,
        "entry": 8559661,
        "entry_name": "The Moyesiah Returns",
        "event_total": 70,
        "has_played": true,
        "id": 71212009,
        "last_rank": 45416,
        "player_name": "Stephen Lewis",
        "rank": 30061,
        "rank_sort": 30241,
        "total": 2368
      },
      {
        "club_badge_src": null,
        "entry": 8911952,
        "entry_name": "FC Bexelona",
        "event_total": 69,
        "has_played": true,
        "id": 74625619,
        "last_rank": 44303,
        "player_name": "Rebecca Talbot",
        "rank": 30061,
        "rank_sort": 30242,
        "total": 2368
      },
      {
        "club_badge_src": null,
        "entry": 9174128,
        "entry_name": "KTBFFH BW",
        "event_total": 72,
        "has_played": true,
        "id": 77178205,
        "last_rank": 42648,
        "player_name": "MX PH",
        "rank": 30061,
        "rank_sort": 30243,
        "total": 2368
      },
      {
        "club_badge_src": "https://fantasy.premierleague.com/gcs/plfpl-production-adobe-approved/plfpl-production/1824/378137a6-ffac-47e1-a335-80550b6ef76b.png",
        "entry": 1824,
        "entry_name": "The Cream",
        "event_total": 51,
        "has_played": true,
        "id": 10161,
        "last_rank": 24330,
        "player_name": "Joe Crotty",
        "rank": 30244,
        "rank_sort": 30244,
        "total": 2368
      },
      {
        "club_badge_src": null,
        "entry": 15519,
        "entry_name": "MooMooMeadows",
        "event_total": 88,
        "has_played": true,
        "id": 95291,
        "last_rank": 68624,
        "player_name": "C Moo",
        "rank": 30244,
        "rank_sort": 30245,
        "total": 2368
      },
      {
        "club_badge_src": null,
        "entry": 16842,
        "entry_name": "Yosuef ahmed",
        "event_total": 55,
        "has_played": true,
        "id": 104247,
        "last_rank": 20983,
        "player_name": "Yosuef Ahmed",
        "rank": 30244,
        "rank_sort": 30246,
        "total": 2368
      },
      {
        "club_badge_src": null,
        "entry": 20843,
        "entry_name": "man feelings",
        "event_total": 46,
        "has_played": true,
        "id": 130427,
        "last_rank": 17585,
        "player_name": "Isaac Jackson",
        "rank": 30244,
        "rank_sort": 30247,
        "total": 2368
      },
      {
        "club_badge_src": null,
        "entry": 25848,
        "entry_name": "Barabakoi",
        "event_total": 70,
        "has_played": true,
        "id": 163470,
        "last_rank": 40297,
        "player_name": "Ioannis Vasileiadis",
        "rank": 30244,
        "rank_sort": 30248,
        "total": 2368
      },
      {
        "club_badge_src": null,
        "entry": 29958,
        "entry_name": "Amorwin",
        "event_total": 61,
        "has_played": true,
        "id": 189521,
        "last_rank": 29904,
        "player_name": "Adam \u010capka",
        "rank": 30244,
        "rank_sort": 30249,
        "total": 2368
      },
      {
        "club_badge_src": "https://fantasy.premierleague.com/gcs/plfpl-production-adobe-approved/plfpl-production/34688/76c4708b-afa7-4f91-92c7-fca716918949.png",
        "entry": 34688,
        "entry_name": "Dier Straits",
        "event_total": 71,
        "has_played": true,
        "id": 221711,
        "last_rank": 41617,
        "player_name": "Carsten Geeurickx",
        "rank": 30244,
        "rank_sort": 30250,
        "total": 2368
      }
    ]
  }
}