{
  "last_updated_data": "2026-05-24T23:28:17Z",
  "league": {
    "admin_entry": null,
    "closed": false,
    "code_privacy": "p",
    "created": "2025-07-20T23:14:33.933835Z",
    "cup_league": 2815434,
    "has_cup": true,
    "id": 314,
    "league_type": "s",
    "max_entries": null,
    "name": "Overall",
    "rank": null,
    "scoring": "c",
    "start_event": 1
  },
  "new_entries": {
    "has_next": false,
    "page": 1,
    "results": []
  },
  "standings": {
    "has_next": true,
    "page": 1315,
    "results": [
      {
        "club_badge_src": null,
        "entry": 2115544,
        "entry_name": "Dents XI",
        "event_total": 64,
        "has_played": true,
        "id": 15022348,
        "last_rank": 81093,
        "player_name": "Tyler Denton",
        "rank": 65694,
        "rank_sort": 65701,
        "total": 2343
      },
      {
        "club_badge_src": null,
        "entry": 2307639,
        "entry_name": "Sala7",
        "event_total": 70,
        "has_played": true,
        "id": 16460202,
        "last_rank": 68395,
        "player_name": "\u0623\u062d\u0645\u062f \u0635\u0644\u0627\u062d",
        "rank": 65694,
        "rank_sort": 65702,
        "total": 2343
      },
      {
        "club_badge_src": null,
        "entry": 2700569,
        "entry_name": "KeenanXi",
        "event_total": 59,
        "has_played": true,
        "id": 19427283,
        "last_rank": 70493,
        "player_name": "Joe Keenan",
        "rank": 65694,
        "rank_sort": 65703,
        "total": 2343
      },
      {
        "club_badge_src": null,
        "entry": 2971565,
        "entry_name": "FC Kannikieze",
        "event_total": 45,
        "has_played": true,
        "id": 21833478,
        "last_rank": 46468,
        "player_name": "Nick Van Look",
        "rank": 65694,
        "rank_sort": 65704,
        "total": 2343
      },
      {
        "club_badge_src": "https://fantasy.premierleague.com/gcs/plfpl-production-adobe-approved/plfpl-production/3238535/2067a918-6223-464c-9b2d-0a7ebb96f1e8.png",
        "entry": 3238535,
        "entry_name": "360 N0 P0PE",
        "event_total": 62,
        "has_played": true,
        "id": 23954001,
        "last_rank": 76778,
        "player_name": "Domhnall Morris",
        "rank": 65694,
        "rank_sort": 65705,
        "total": 2343
      },
      {
        "club_badge_src": null,
        "entry": 5177675,
        "entry_name": "Diamond Dogs",
        "event_total": 60,
        "has_played": true,
        "id": 40075775,
        "last_rank": 64656,
        "player_name": "Jeff Wagner",
        "rank": 65694,
        "rank_sort": 65706,
        "total": 2343
      },
      {
        "club_badge_src": null,
        "entry": 5886874,
        "entry_name": "Im a Baleba",
        "event_total": 72,
        "has_played": true,
        "id": 46243420,
        "last_rank": 90386,
        "player_name": "Tochi Ogu",
        "rank": 65694,
        "rank_sort": 65707,
        "total": 2343
      },
      {
        "club_badge_src": null,
        "entry": 7299389,
        "entry_name": "Journeymen XI",
        "event_total": 61,
        "has_played": true,
        "id": 59070762,
        "last_rank": 66546,
        "player_name": "Joseph Hobbs",
        "rank": 65694,
        "rank_sort": 65708,
        "total": 2343
      },
      {
        "club_badge_src": "https://fantasy.premierleague.com/gcs/plfpl-production-adobe-approved/plfpl-production/7698716/a9179b54-f740-40df-9a99-2f6b3d4db671.png",
        "entry": 7698716,
        "entry_name": "Abdelrahman Elsayed",
        "event_total": 53,
        "has_played": true,
        "id": 63159645,
        "last_rank": 59399,
        "player_name": "Abdelrahman Wagdy",
        "rank": 65694,
        "rank_sort": 65709,
        "total": 2343
      },
      {
        "club_badge_src": null,
        "entry": 51556,
        "entry_name": "The Reds",
        "event_total": 64,
        "has_played": true,
        "id": 331551,
        "last_rank": 72536,
        "player_name": "Hisham saadawy",
        "rank": 65710,
        "rank_sort": 65710,
        "total": 2343
      },
      {
        "club_badge_src": "https://fantasy.premierleague.com/gcs/plfpl-production-adobe-approved/plfpl-production/172280/4b9fd53d-237a-436b-85d6-9ac8501d0dc7.png",
        "entry": 172280,
        "entry_name": "The Unknown Cross",
        "event_total": 70,
        "has_played": true,
        "id": 1137877,
        "last_rank": 76758,
        "player_name": "Dominic Cross",
        "rank": 65710,
        "rank_sort": 65711,
        "total": 2343
      },
      {
        "club_badge_src": "https://fantasy.premierleague.com/gcs/plfpl-production-adobe-approved/plfpl-production/174537/220dcf97-3974-47f1-88e8-6309ac5d683a.png",
        "entry": 174537,
        "entry_name": "Boom Xhakalaka",
        "event_total": 44,
        "has_played": true,
        "id": 1152467,
        "last_rank": 45072,
        "player_name": "Brian Hope",
        "rank": 65710,
        "rank_sort": 65712,
        "total": 2343
      },
      {
        "club_badge_src": null,
        "entry": 223825,
        "entry_name": "SuperHoops",
        "event_total": 65,
        "has_played": true,
        "id": 1488891,
        "last_rank": 52603,
        "player_name": "Tim Rooke",
        "rank": 65710,
        "rank_sort": 65713,
        "total": 2343
      },
      {
        "club_badge_src": null,
        "entry": 325964,
        "entry_name": "FC Utd",
        "event_total": 70,
        "has_played": true,
        "id": 2184069,
        "last_rank": 76758,
        "player_name": "Paul Curry",
        "rank": 65710,
        "rank_sort": 65714,
        "total": 2343
      },
      {
        "club_badge_src": null,
        "entry": 489845,
        "entry_name": "The Mighty C's",
        "event_total": 63,
        "has_played": true,
        "id": 3288427,
        "last_rank": 55932,
        "player_name": "Chad Michael",
        "rank": 65710,
        "rank_sort": 65715,
        "total": 2343
      },
      {
        "club_badge_src": null,
        "entry": 510797,
        "entry_name": "FC Wakabombs",
        "event_total": 52,
        "has_played": true,
        "id": 3430102,
        "last_rank": 51035,
        "player_name": "Lauri Nyyss\u00f6nen",
        "rank": 65710,
        "rank_sort": 65716,
        "total": 2343
      },
      {
        "club_badge_src": null,
        "entry": 920376,
        "entry_name": "Tesco McNeil Deal",
        "event_total": 72,
        "has_played": true,
        "id": 6329613,
        "last_rank": 90386,
        "player_name": "Joe Mccracken",
        "rank": 65710,
        "rank_sort": 65717,
        "total": 2343
      },
      {
        "club_badge_src": "https://fantasy.premierleague.com/gcs/plfpl-production-adobe-approved/plfpl-production/1232369/65c340d6-e64d-4e3e-81b3-e02468ee9299.png",
        "entry": 1232369,
        "entry_name": "Change Name",
        "event_total": 62,
        "has_played": true,
        "id": 8557714,
        "last_rank": 76778,
        "player_name": "Simon Garner",
        "rank": 65710,
        "rank_sort": 65718,
        "total": 2343
      },
      {
        "club_badge_src": "https://fantasy.premierleague.com/gcs/plfpl-production-adobe-approved/plfpl-production/1547662/409bc146-8684-4c31-b166-02cfb33114df.png",
        "entry": 1547662,
        "entry_name": "Shakhtar Pomfretsk",
        "event_total": 54,
        "has_played": true,
        "id": 10805212,
        "last_rank": 61139,
        "player_name": "James Pomfret",
        "rank": 65710,
        "rank_sort": 65719,
        "total": 2343
      },
      {
        "club_badge_src": null,
        "entry": 1867981,
        "entry_name": "Eze Come Eze Go",
        "event_total": 66,
        "has_played": true,
        "id": 13148773,
        "last_rank": 76758,
        "player_name": "Drewdinho Jern",
        "rank": 65710,
        "rank_sort": 65720,
        "total": 2343
      },
      {
        "club_badge_src": "https://fantasy.premierleague.com/gcs/plfpl-production-adobe-approved/plfpl-production/1966188/e67eb9fb-127e-4388-a4f3-a5a0be7c7998.png",
        "entry": 1966188,
        "entry_name": "One Piece FC",
        "event_total": 58,
        "has_played": true,
        "id": 13875095,
        "last_rank": 68489,
        "player_name": "Abongile Tshangana",
        "rank": 65710,
        "rank_sort": 65721,
        "total": 2343
      },
      {
        "club_badge_src": null,
        "entry": 2510394,
        "entry_name": "West Ham",
        "event_total": 54,
        "has_played": true,
        "id": 17984006,
        "last_rank": 61157,
        "player_name": "Falah AL Mutairi",
        "rank": 65710,
        "rank_sort": 65722,
        "total": 2343
      },
      {
        "club_badge_src": null,
        "entry": 3119155,
        "entry_name": "manischel FC",
        "event_total": 52,
        "has_played": true,
        "id": 23018081,
        "last_rank": 51047,
        "player_name": "Manish Adhikari",
        "rank": 65710,
        "rank_sort": 65723,
        "total": 2343
      },
      {
        "club_badge_src": null,
        "entry": 3404142,
        "entry_name": "Corporate Slaves FC",
        "event_total": 59,
        "has_played": true,
        "id": 25276273,
        "last_rank": 70514,
        "player_name": "Harikumar Govindarajan",
        "rank": 65710,
        "rank_sort": 65724,
        "total": 2343
      },
      {
        "club_badge_src": "https://fantasy.premierleague.com/gcs/plfpl-production-adobe-approved/plfpl-production/5337491/44d2a285-cab8-4ca0-bf92-35a2c7dd96a4.png",
        "entry": 5337491,
        "entry_name": "Frank's Fryers",
        "event_total": 33,
        "has_played": true,
        "id": 41384019,
        "last_rank": 27521,
        "player_name": "Sarah Lamb",
        "rank": 65710,
        "rank_sort": 65725,
        "total": 2343
      },
      {
        "club_badge_src": null,
        "entry": 5548148,
        "entry_name": "Arsenal Fc",
        "event_total": 61,
        "has_played": true,
        "id": 43298539,
        "last_rank": 59386,
        "player_name": "Talib Wasfi",
        "rank": 65710,
        "rank_sort": 65726,
        "total": 2343
      },
      {
        "club_badge_src": null,
        "entry": 5955689,
        "entry_name": "Liverpool in the mud",
        "event_total": 31,
        "has_played": true,
        "id": 46849640,
        "last_rank": 25671,
        "player_name": "Craig Bell-Langford",
        "rank": 65710,
        "rank_sort": 65727,
        "total": 2343
      },
      {
        "club_badge_src": null,
        "entry": 6242587,
        "entry_name": "ONANA what's my name",
        "event_total": 51,
        "has_played": true,
        "id": 49411166,
        "last_rank": 55980,
        "player_name": "Jorge Jacobo",
        "rank": 65710,
        "rank_sort": 65728,
        "total": 2343
      },
      {
        "club_badge_src": null,
        "entry": 7262211,
        "entry_name": "Doda",
        "event_total": 66,
        "has_played": true,
        "id": 58720453,
        "last_rank": 61118,
        "player_name": "ahmed abd el galil",
        "rank": 65710,
        "rank_sort": 65729,
        "total": 2343
      },
      {
        "club_badge_src": null,
        "entry": 9108671,
        "entry_name": "Abhilash",
        "event_total": 71,
        "has_played": true,
        "id": 76536513,
        "last_rank": 97866,
        "player_name": "ABHILASH RAMACHANDRAN",
        "rank": 65710,
        "rank_sort": 65730,
        "total": 2343
      },
      {
        "club_badge_src": null,
        "entry": 14991,
        "entry_name": "SABI BOYS X",
        "event_total": 73,
        "has_played": true,
        "id": 91618,
        "last_rank": 92861,
        "player_name": "Allan -Nanu",
        "rank": 65731,
        "rank_sort": 65731,
        "total": 2343
      },
      {
        "club_badge_src": null,
        "entry": 92916,
        "entry_name": "Shed\u00e8\u00e9d_14",
        "event_total": 58,
        "has_played": true,
        "id": 607204,
        "last_rank": 61172,
        "player_name": "Ahmed Shedeed --",
        "rank": 65731,
        "rank_sort": 65732,
        "total": 2343
      },
      {
        "club_badge_src": null,
        "entry": 370342,
        "entry_name": "Giroud Sandstorm",
        "event_total": 71,
        "has_played": true,
        "id": 2478200,
        "last_rank": 97866,
        "player_name": "Daniel Hord",
        "rank": 65731,
        "rank_sort": 65733,
        "total": 2343
      },
      {
        "club_badge_src": null,
        "entry": 847912,
        "entry_name": "Morganvilla",
        "event_total": 59,
        "has_played": true,
        "id": 5811275,
        "last_rank": 70518,
        "player_name": "Jenkyn Morgan",
        "rank": 65731,
        "rank_sort": 65734,
        "total": 2343
      },
      {
        "club_badge_src": "https://fantasy.premierleague.com/gcs/plfpl-production-adobe-approved/plfpl-production/999249/2e83ea38-49e2-4ede-864f-428251889e25.png",
        "entry": 999249,
        "entry_name": "Kinder Mbuemo",
        "event_total": 35,
        "has_played": true,
        "id": 6906517,
        "last_rank": 33792,
        "player_name": "Alessandro Hut",
        "rank": 65731,
        "rank_sort": 65735,
        "total": 2343
      },
      {
        "club_badge_src": "https://fantasy.premierleague.com/gcs/plfpl-production-adobe-approved/plfpl-production/1021923/b49e46b3-78fb-4982-920b-86cf13c1b0af.png",
        "entry": 1021923,
        "entry_name": "Collopool FC",
        "event_total": 66,
        "has_played": true,
        "id": 7070291,
        "last_rank": 54244,
        "player_name": "Carl Collinson",
        "rank": 65731,
        "rank_sort": 65736,
        "total": 2343
      },
      {
        "club_badge_src": null,
        "entry": 1579727,
        "entry_name": "Zoouma Kicks Gittens",
        "event_total": 70,
        "has_played": true,
        "id": 11038914,
        "last_rank": 95321,
        "player_name": "\u00c5smund Mildestveit",
        "rank": 65731,
        "rank_sort": 65737,
        "total": 2343
      },
      {
        "club_badge_src": null,
        "entry": 1967410,
        "entry_name": "FC Loliliana",
        "event_total": 57,
        "has_played": true,
        "id": 13884122,
        "last_rank": 66580,
        "player_name": "James Smith",
        "rank": 65731,
        "rank_sort": 65738,
        "total": 2343
      },
      {
        "club_badge_src": null,
        "entry": 3128495,
        "entry_name": "Mohamed team",
        "event_total": 47,
        "has_played": true,
        "id": 23089742,
        "last_rank": 38475,
        "player_name": "Mohamed Ali",
        "rank": 65731,
        "rank_sort": 65739,
        "total": 2343
      },
      {
        "club_badge_src": null,
        "entry": 4082756,
        "entry_name": "gavinjf",
        "event_total": 57,
        "has_played": true,
        "id": 30821716,
        "last_rank": 66580,
        "player_name": "Gavin Farmer",
        "rank": 65731,
        "rank_sort": 65740,
        "total": 2343
      },
      {
        "club_badge_src": null,
        "entry": 6366438,
        "entry_name": "Casper 96",
        "event_total": 87,
        "has_played": true,
        "id": 50623728,
        "last_rank": 131966,
        "player_name": "Omar Abdulaziz",
        "rank": 65731,
        "rank_sort": 65741,
        "total": 2343
      },
      {
        "club_badge_src": null,
        "entry": 8590080,
        "entry_name": "Some Say He Is...",
        "event_total": 55,
        "has_played": true,
        "id": 71502390,
        "last_rank": 62999,
        "player_name": "Syver R\u00f8hneb\u00e6k Kongsrud",
        "rank": 65731,
        "rank_sort": 65742,
        "total": 2343
      },
      {
        "club_badge_src": null,
        "entry": 3924097,
        "entry_name": "mbeuno",
        "event_total": 45,
        "has_played": true,
        "id": 29510096,
        "last_rank": 36052,
        "player_name": "Jac McManus",
        "rank": 65743,
        "rank_sort": 65743,
        "total": 2343
      },
      {
        "club_badge_src": null,
        "entry": 4933261,
        "entry_name": "Woodthorpe Wanderers",
        "event_total": 54,
        "has_played": true,
        "id": 38057212,
        "last_rank": 61190,
        "player_name": "Steve Sheppard",
        "rank": 65743,
        "rank_sort": 65744,
        "total": 2343
      },
      {
        "club_badge_src": null,
        "entry": 532159,
        "entry_name": "sadwinners",
        "event_total": 56,
        "has_played": true,
        "id": 3579554,
        "last_rank": 45072,
        "player_name": "Artur Urba\u0144czyk",
        "rank": 65745,
        "rank_sort": 65745,
        "total": 2343
      },
      {
        "club_badge_src": null,
        "entry": 857197,
        "entry_name": "fo2sh",
        "event_total": 54,
        "has_played": true,
        "id": 5875778,
        "last_rank": 42360,
        "player_name": "Ahmed Fouad",
        "rank": 65745,
        "rank_sort": 65746,
        "total": 2343
      },
      {
        "club_badge_src": null,
        "entry": 1015771,
        "entry_name": "MAOP FC",
        "event_total": 54,
        "has_played": true,
        "id": 7027145,
        "last_rank": 54313,
        "player_name": "Muhammad Akbar",
        "rank": 65745,
        "rank_sort": 65747,
        "total": 2343
      },
      {
        "club_badge_src": null,
        "entry": 1111294,
        "entry_name": "Kinder Mbeumo",
        "event_total": 53,
        "has_played": true,
        "id": 7697892,
        "last_rank": 59427,
        "player_name": "Briain Daly",
        "rank": 65745,
        "rank_sort": 65748,
        "total": 2343
      },
      {
        "club_badge_src": null,
        "entry": 6910901,
        "entry_name": "\u0627\u0631\u0646\u064a \u0633\u0644\u0648\u062a",
        "event_total": 65,
        "has_played": true,
        "id": 55395581,
        "last_rank": 83427,
        "player_name": "Liv Barzan",
        "rank": 65745,
        "rank_sort": 65749,
        "total": 2343
      },
      {
        "club_badge_src": "https://fantasy.premierleague.com/gcs/plfpl-production-adobe-approved/plfpl-production/4448150/e95a4145-f819-4952-9a73-f59c8bdbc970.png",
        "entry": 4448150,
        "entry_name": "Altara FC",
        "event_total": 62,
        "has_played": true,
        "id": 33877558,
        "last_rank": 76833,
        "player_name": "Aldin Prayogi",
        "rank": 65750,
        "rank_sort": 65750,
        "total": 2343
      }
    ]
  }
}