{
  "last_updated_data": "2026-05-24T23:28:17Z",
  "league": {
    "admin_entry": null,
    "closed": false,
    "code_privacy": "p",
    "created": "2025-07-20T23:14:33.933835Z",
    "cup_league": 2815434,
    "has_cup": true,
    "id": 314,
    "league_type": "s",
    "max_entries": null,
    "name": "Overall",
    "rank": null,
    "scoring": "c",
    "start_event": 1
  },
  "new_entries": {
    "has_next": false,
    "page": 1,
    "results": []
  },
  "standings": {
    "has_next": true,
    "page": 1218,
    "results": [
      {
        "club_badge_src": null,
        "entry": 3176756,
        "entry_name": "RochdaleMassive",
        "event_total": 47,
        "has_played": true,
        "id": 23473401,
        "last_rank": 39874,
        "player_name": "Tom Mather",
        "rank": 60651,
        "rank_sort": 60851,
        "total": 2345
      },
      {
        "club_badge_src": null,
        "entry": 3177119,
        "entry_name": "H'Cunha Matata",
        "event_total": 67,
        "has_played": true,
        "id": 23476161,
        "last_rank": 81646,
        "player_name": "Andrew G",
        "rank": 60651,
        "rank_sort": 60852,
        "total": 2345
      },
      {
        "club_badge_src": null,
        "entry": 3198894,
        "entry_name": "Haaland Oates",
        "event_total": 68,
        "has_played": true,
        "id": 23645535,
        "last_rank": 83934,
        "player_name": "Joey Ellis",
        "rank": 60651,
        "rank_sort": 60853,
        "total": 2345
      },
      {
        "club_badge_src": null,
        "entry": 3299039,
        "entry_name": "SakaSaka AyeAye",
        "event_total": 52,
        "has_played": true,
        "id": 24432511,
        "last_rank": 52759,
        "player_name": "WILLIAM ABEL",
        "rank": 60651,
        "rank_sort": 60854,
        "total": 2345
      },
      {
        "club_badge_src": "https://fantasy.premierleague.com/gcs/plfpl-production-adobe-approved/plfpl-production/3313198/2fac98fb-04d2-4a3f-8d53-8cb7b9fcd6cb.png",
        "entry": 3313198,
        "entry_name": "Los Originales",
        "event_total": 74,
        "has_played": true,
        "id": 24547901,
        "last_rank": 98183,
        "player_name": "John Ruane",
        "rank": 60651,
        "rank_sort": 60855,
        "total": 2345
      },
      {
        "club_badge_src": null,
        "entry": 3505714,
        "entry_name": "U lose Ndiaye win!",
        "event_total": 47,
        "has_played": true,
        "id": 26079819,
        "last_rank": 45252,
        "player_name": "Molly Harvey",
        "rank": 60651,
        "rank_sort": 60856,
        "total": 2345
      },
      {
        "club_badge_src": null,
        "entry": 3517141,
        "entry_name": "Livin' Lavia Loca",
        "event_total": 56,
        "has_played": true,
        "id": 26172683,
        "last_rank": 52853,
        "player_name": "Dylan Barnes",
        "rank": 60651,
        "rank_sort": 60857,
        "total": 2345
      },
      {
        "club_badge_src": null,
        "entry": 3525922,
        "entry_name": "Kamara Sutra",
        "event_total": 68,
        "has_played": true,
        "id": 26240854,
        "last_rank": 83698,
        "player_name": "Guilherme Santos",
        "rank": 60651,
        "rank_sort": 60858,
        "total": 2345
      },
      {
        "club_badge_src": null,
        "entry": 3533431,
        "entry_name": "Virgin van Dijk",
        "event_total": 60,
        "has_played": true,
        "id": 26299221,
        "last_rank": 67063,
        "player_name": "Charley Fry",
        "rank": 60651,
        "rank_sort": 60859,
        "total": 2345
      },
      {
        "club_badge_src": null,
        "entry": 3638897,
        "entry_name": "Anfield",
        "event_total": 68,
        "has_played": true,
        "id": 27118679,
        "last_rank": 83698,
        "player_name": "Ali Felaifel",
        "rank": 60651,
        "rank_sort": 60860,
        "total": 2345
      },
      {
        "club_badge_src": null,
        "entry": 3686830,
        "entry_name": "Shropshire Harriers",
        "event_total": 61,
        "has_played": true,
        "id": 27503177,
        "last_rank": 68624,
        "player_name": "Shaw Wallace",
        "rank": 60651,
        "rank_sort": 60861,
        "total": 2345
      },
      {
        "club_badge_src": null,
        "entry": 3717021,
        "entry_name": "Gusten United",
        "event_total": 60,
        "has_played": true,
        "id": 27737654,
        "last_rank": 66738,
        "player_name": "Gustaf Jeppsson",
        "rank": 60651,
        "rank_sort": 60862,
        "total": 2345
      },
      {
        "club_badge_src": null,
        "entry": 3805398,
        "entry_name": "Poms Away",
        "event_total": 60,
        "has_played": true,
        "id": 28450424,
        "last_rank": 67063,
        "player_name": "DAVE KING",
        "rank": 60651,
        "rank_sort": 60863,
        "total": 2345
      },
      {
        "club_badge_src": null,
        "entry": 3813112,
        "entry_name": "Zubi-Dooby-Do",
        "event_total": 51,
        "has_played": true,
        "id": 28513376,
        "last_rank": 51220,
        "player_name": "Sam Tompkins",
        "rank": 60651,
        "rank_sort": 60864,
        "total": 2345
      },
      {
        "club_badge_src": null,
        "entry": 3814244,
        "entry_name": "Last man standing",
        "event_total": 70,
        "has_played": true,
        "id": 28522652,
        "last_rank": 88594,
        "player_name": "Abdelrahman mohammmed",
        "rank": 60651,
        "rank_sort": 60865,
        "total": 2345
      },
      {
        "club_badge_src": null,
        "entry": 3831442,
        "entry_name": "Gurt FC",
        "event_total": 61,
        "has_played": true,
        "id": 28661736,
        "last_rank": 68957,
        "player_name": "Adam Gurteen",
        "rank": 60651,
        "rank_sort": 60866,
        "total": 2345
      },
      {
        "club_badge_src": null,
        "entry": 3889355,
        "entry_name": "toc's army",
        "event_total": 66,
        "has_played": true,
        "id": 29226550,
        "last_rank": 79190,
        "player_name": "Thomas O Connor",
        "rank": 60651,
        "rank_sort": 60867,
        "total": 2345
      },
      {
        "club_badge_src": null,
        "entry": 3891523,
        "entry_name": "baserates",
        "event_total": 54,
        "has_played": true,
        "id": 29244794,
        "last_rank": 56369,
        "player_name": "Ollie Rodriguez",
        "rank": 60651,
        "rank_sort": 60868,
        "total": 2345
      },
      {
        "club_badge_src": null,
        "entry": 3929688,
        "entry_name": "WeiffergotYouWereEre",
        "event_total": 54,
        "has_played": true,
        "id": 29554383,
        "last_rank": 56369,
        "player_name": "Alex Baxter Smith",
        "rank": 60651,
        "rank_sort": 60869,
        "total": 2345
      },
      {
        "club_badge_src": "https://fantasy.premierleague.com/gcs/plfpl-production-adobe-approved/plfpl-production/3972979/4defdd27-6861-4a09-aab5-72de6ee08797.png",
        "entry": 3972979,
        "entry_name": "Abo_Snake FC",
        "event_total": 62,
        "has_played": true,
        "id": 29899909,
        "last_rank": 71386,
        "player_name": "Abdullah Flaih",
        "rank": 60651,
        "rank_sort": 60870,
        "total": 2345
      },
      {
        "club_badge_src": null,
        "entry": 4029652,
        "entry_name": "Dustin the Cherki",
        "event_total": 66,
        "has_played": true,
        "id": 30378055,
        "last_rank": 79190,
        "player_name": "Dualta Beatty",
        "rank": 60651,
        "rank_sort": 60871,
        "total": 2345
      },
      {
        "club_badge_src": null,
        "entry": 4036452,
        "entry_name": "Beating Chasterds",
        "event_total": 52,
        "has_played": true,
        "id": 30436421,
        "last_rank": 53023,
        "player_name": "Rizwan Ali",
        "rank": 60651,
        "rank_sort": 60872,
        "total": 2345
      },
      {
        "club_badge_src": null,
        "entry": 4057429,
        "entry_name": "Ypree \ufffd",
        "event_total": 56,
        "has_played": true,
        "id": 30615876,
        "last_rank": 59813,
        "player_name": "Craig The UnRuLy-",
        "rank": 60651,
        "rank_sort": 60873,
        "total": 2345
      },
      {
        "club_badge_src": null,
        "entry": 4069426,
        "entry_name": "Bruno utan sol",
        "event_total": 55,
        "has_played": true,
        "id": 30713983,
        "last_rank": 58071,
        "player_name": "M\u00e5ns Garsten",
        "rank": 60651,
        "rank_sort": 60874,
        "total": 2345
      },
      {
        "club_badge_src": null,
        "entry": 4103737,
        "entry_name": "El Jefe",
        "event_total": 69,
        "has_played": true,
        "id": 30989504,
        "last_rank": 85932,
        "player_name": "Sebastian Pedersen",
        "rank": 60651,
        "rank_sort": 60875,
        "total": 2345
      },
      {
        "club_badge_src": null,
        "entry": 4104596,
        "entry_name": "Zubidubidoo",
        "event_total": 56,
        "has_played": true,
        "id": 30996283,
        "last_rank": 59813,
        "player_name": "Joakim Anderson",
        "rank": 60651,
        "rank_sort": 60876,
        "total": 2345
      },
      {
        "club_badge_src": "https://fantasy.premierleague.com/gcs/plfpl-production-adobe-approved/plfpl-production/4118273/eac7cf13-0b5e-4d45-95e0-7ae435a50869.png",
        "entry": 4118273,
        "entry_name": "FC SHUNOI",
        "event_total": 53,
        "has_played": true,
        "id": 31111799,
        "last_rank": 54494,
        "player_name": "Abdul Chowdhury",
        "rank": 60651,
        "rank_sort": 60877,
        "total": 2345
      },
      {
        "club_badge_src": null,
        "entry": 4152391,
        "entry_name": "Dumb Luck",
        "event_total": 87,
        "has_played": true,
        "id": 31385636,
        "last_rank": 135737,
        "player_name": "Nate Osborne",
        "rank": 60651,
        "rank_sort": 60878,
        "total": 2345
      },
      {
        "club_badge_src": null,
        "entry": 4256327,
        "entry_name": "The Romains of Esse",
        "event_total": 42,
        "has_played": true,
        "id": 32268541,
        "last_rank": 38774,
        "player_name": "Eddie Hamidovic",
        "rank": 60651,
        "rank_sort": 60879,
        "total": 2345
      },
      {
        "club_badge_src": null,
        "entry": 4263592,
        "entry_name": "Not too Xavi FC",
        "event_total": 60,
        "has_played": true,
        "id": 32327873,
        "last_rank": 67063,
        "player_name": "Koushik Karthik",
        "rank": 60651,
        "rank_sort": 60880,
        "total": 2345
      },
      {
        "club_badge_src": null,
        "entry": 4338495,
        "entry_name": "Nick united",
        "event_total": 48,
        "has_played": true,
        "id": 32939496,
        "last_rank": 47163,
        "player_name": "Nicholas Flynn",
        "rank": 60651,
        "rank_sort": 60881,
        "total": 2345
      },
      {
        "club_badge_src": null,
        "entry": 4370554,
        "entry_name": "Zeus FC",
        "event_total": 66,
        "has_played": true,
        "id": 33203639,
        "last_rank": 79079,
        "player_name": "Mazen Nadim",
        "rank": 60651,
        "rank_sort": 60882,
        "total": 2345
      },
      {
        "club_badge_src": null,
        "entry": 4391946,
        "entry_name": "It's Mo again",
        "event_total": 53,
        "has_played": true,
        "id": 33388508,
        "last_rank": 54667,
        "player_name": "Rob Lloyd",
        "rank": 60651,
        "rank_sort": 60883,
        "total": 2345
      },
      {
        "club_badge_src": null,
        "entry": 4513447,
        "entry_name": "THE PHYSICS",
        "event_total": 54,
        "has_played": true,
        "id": 34416790,
        "last_rank": 56369,
        "player_name": "Alwaleed Alen",
        "rank": 60651,
        "rank_sort": 60884,
        "total": 2345
      },
      {
        "club_badge_src": "https://fantasy.premierleague.com/gcs/plfpl-production-adobe-approved/plfpl-production/4589436/0877baa5-b79b-4086-b631-32802d2004e7.png",
        "entry": 4589436,
        "entry_name": "Sesko in the Box",
        "event_total": 57,
        "has_played": true,
        "id": 35044057,
        "last_rank": 61606,
        "player_name": "Sandeep Doorgakant",
        "rank": 60651,
        "rank_sort": 60885,
        "total": 2345
      },
      {
        "club_badge_src": null,
        "entry": 4614489,
        "entry_name": "No Name",
        "event_total": 61,
        "has_played": true,
        "id": 35265953,
        "last_rank": 68957,
        "player_name": "Ji\u0159\u00ed K\u0159iklan",
        "rank": 60651,
        "rank_sort": 60886,
        "total": 2345
      },
      {
        "club_badge_src": null,
        "entry": 4626471,
        "entry_name": "Kinder Mbeumo",
        "event_total": 62,
        "has_played": true,
        "id": 35371080,
        "last_rank": 70985,
        "player_name": "Ben Carter",
        "rank": 60651,
        "rank_sort": 60887,
        "total": 2345
      },
      {
        "club_badge_src": null,
        "entry": 4674473,
        "entry_name": "Classic XI",
        "event_total": 45,
        "has_played": true,
        "id": 35808488,
        "last_rank": 42506,
        "player_name": "John Russell",
        "rank": 60651,
        "rank_sort": 60888,
        "total": 2345
      },
      {
        "club_badge_src": null,
        "entry": 4710190,
        "entry_name": "Gunner smash it",
        "event_total": 66,
        "has_played": true,
        "id": 36135036,
        "last_rank": 79817,
        "player_name": "Carsten Brandl",
        "rank": 60651,
        "rank_sort": 60889,
        "total": 2345
      },
      {
        "club_badge_src": null,
        "entry": 4710260,
        "entry_name": "Big Cheese FC",
        "event_total": 51,
        "has_played": true,
        "id": 36136044,
        "last_rank": 51220,
        "player_name": "Quackers Murphy",
        "rank": 60651,
        "rank_sort": 60890,
        "total": 2345
      },
      {
        "club_badge_src": null,
        "entry": 4751062,
        "entry_name": "Nohope FC",
        "event_total": 42,
        "has_played": true,
        "id": 36559449,
        "last_rank": 39023,
        "player_name": "Steve Pearson",
        "rank": 60651,
        "rank_sort": 60891,
        "total": 2345
      },
      {
        "club_badge_src": null,
        "entry": 4800432,
        "entry_name": "rolling",
        "event_total": 77,
        "has_played": true,
        "id": 36960057,
        "last_rank": 105963,
        "player_name": "Maetee Pattana",
        "rank": 60651,
        "rank_sort": 60892,
        "total": 2345
      },
      {
        "club_badge_src": null,
        "entry": 4854488,
        "entry_name": "John West Cunha Man",
        "event_total": 59,
        "has_played": true,
        "id": 37404399,
        "last_rank": 64830,
        "player_name": "Lane Procter",
        "rank": 60651,
        "rank_sort": 60893,
        "total": 2345
      },
      {
        "club_badge_src": null,
        "entry": 4871499,
        "entry_name": "Roll the Rice",
        "event_total": 41,
        "has_played": true,
        "id": 37549576,
        "last_rank": 37435,
        "player_name": "Adam Emberson",
        "rank": 60651,
        "rank_sort": 60894,
        "total": 2345
      },
      {
        "club_badge_src": null,
        "entry": 4883536,
        "entry_name": "Empire of the Son",
        "event_total": 60,
        "has_played": true,
        "id": 37648696,
        "last_rank": 67063,
        "player_name": "Joanna Tsang",
        "rank": 60651,
        "rank_sort": 60895,
        "total": 2345
      },
      {
        "club_badge_src": null,
        "entry": 4889792,
        "entry_name": "Connemaracrowshooter",
        "event_total": 52,
        "has_played": true,
        "id": 37700123,
        "last_rank": 53023,
        "player_name": "James O-Flaherty",
        "rank": 60651,
        "rank_sort": 60896,
        "total": 2345
      },
      {
        "club_badge_src": null,
        "entry": 4890649,
        "entry_name": "\u0160e\u0161ko your own way",
        "event_total": 65,
        "has_played": true,
        "id": 37707072,
        "last_rank": 77258,
        "player_name": "James Barley",
        "rank": 60651,
        "rank_sort": 60897,
        "total": 2345
      },
      {
        "club_badge_src": null,
        "entry": 4939695,
        "entry_name": "ateamofpaulgreens",
        "event_total": 56,
        "has_played": true,
        "id": 38111461,
        "last_rank": 59632,
        "player_name": "Jason Murphy",
        "rank": 60651,
        "rank_sort": 60898,
        "total": 2345
      },
      {
        "club_badge_src": null,
        "entry": 4959844,
        "entry_name": "Bradley Beal",
        "event_total": 63,
        "has_played": true,
        "id": 38273853,
        "last_rank": 73038,
        "player_name": "Bradley Beal",
        "rank": 60651,
        "rank_sort": 60899,
        "total": 2345
      },
      {
        "club_badge_src": null,
        "entry": 4987343,
        "entry_name": "prime fc",
        "event_total": 58,
        "has_played": true,
        "id": 38502538,
        "last_rank": 63724,
        "player_name": "Luke Kelly",
        "rank": 60651,
        "rank_sort": 60900,
        "total": 2345
      }
    ]
  }
}