{
  "last_updated_data": "2026-05-24T23:28:17Z",
  "league": {
    "admin_entry": null,
    "closed": false,
    "code_privacy": "p",
    "created": "2025-07-20T23:14:33.933835Z",
    "cup_league": 2815434,
    "has_cup": true,
    "id": 314,
    "league_type": "s",
    "max_entries": null,
    "name": "Overall",
    "rank": null,
    "scoring": "c",
    "start_event": 1
  },
  "new_entries": {
    "has_next": false,
    "page": 1,
    "results": []
  },
  "standings": {
    "has_next": true,
    "page": 173,
    "results": [
      {
        "club_badge_src": null,
        "entry": 1381640,
        "entry_name": "007",
        "event_total": 40,
        "has_played": true,
        "id": 9609290,
        "last_rank": 3721,
        "player_name": "Omer Mukhtar",
        "rank": 8570,
        "rank_sort": 8601,
        "total": 2402
      },
      {
        "club_badge_src": null,
        "entry": 1397003,
        "entry_name": "Elhaj's Finest",
        "event_total": 61,
        "has_played": true,
        "id": 9718995,
        "last_rank": 9644,
        "player_name": "Christian Elhaj",
        "rank": 8570,
        "rank_sort": 8602,
        "total": 2402
      },
      {
        "club_badge_src": null,
        "entry": 1468897,
        "entry_name": "myklebeast",
        "event_total": 71,
        "has_played": true,
        "id": 10238691,
        "last_rank": 12141,
        "player_name": "Kristian Myklebust",
        "rank": 8570,
        "rank_sort": 8603,
        "total": 2402
      },
      {
        "club_badge_src": null,
        "entry": 1601156,
        "entry_name": "THIS IS THE SEASON!",
        "event_total": 55,
        "has_played": true,
        "id": 11201006,
        "last_rank": 7450,
        "player_name": "HUSSEIN ABUBAKAR SWALEH",
        "rank": 8570,
        "rank_sort": 8604,
        "total": 2402
      },
      {
        "club_badge_src": null,
        "entry": 1625347,
        "entry_name": "BabaJaga",
        "event_total": 52,
        "has_played": true,
        "id": 11376211,
        "last_rank": 6528,
        "player_name": "Jan Sienicki",
        "rank": 8570,
        "rank_sort": 8605,
        "total": 2402
      },
      {
        "club_badge_src": null,
        "entry": 1787926,
        "entry_name": "The One Zack One",
        "event_total": 57,
        "has_played": true,
        "id": 12562756,
        "last_rank": 8138,
        "player_name": "Zakwan Zulkifli",
        "rank": 8570,
        "rank_sort": 8606,
        "total": 2402
      },
      {
        "club_badge_src": null,
        "entry": 1946446,
        "entry_name": "kryptonite fc",
        "event_total": 60,
        "has_played": true,
        "id": 13729940,
        "last_rank": 9248,
        "player_name": "Gaspar Ching",
        "rank": 8570,
        "rank_sort": 8607,
        "total": 2402
      },
      {
        "club_badge_src": null,
        "entry": 1970495,
        "entry_name": "FPLyons",
        "event_total": 64,
        "has_played": true,
        "id": 13907581,
        "last_rank": 10920,
        "player_name": "Jeremy Lyons",
        "rank": 8570,
        "rank_sort": 8608,
        "total": 2402
      },
      {
        "club_badge_src": "https://fantasy.premierleague.com/gcs/plfpl-production-adobe-approved/plfpl-production/2115567/f93760d2-0149-4fe3-ba9e-40133be74962.png",
        "entry": 2115567,
        "entry_name": "Melbourne Messi",
        "event_total": 56,
        "has_played": true,
        "id": 15022588,
        "last_rank": 7761,
        "player_name": "Mark Simpson",
        "rank": 8570,
        "rank_sort": 8609,
        "total": 2402
      },
      {
        "club_badge_src": null,
        "entry": 2127572,
        "entry_name": "RuckFules",
        "event_total": 49,
        "has_played": true,
        "id": 15117474,
        "last_rank": 5688,
        "player_name": "Amr Afifi",
        "rank": 8570,
        "rank_sort": 8610,
        "total": 2402
      },
      {
        "club_badge_src": null,
        "entry": 2295588,
        "entry_name": "SimonPeli",
        "event_total": 68,
        "has_played": true,
        "id": 16372212,
        "last_rank": 12645,
        "player_name": "Simon Peli",
        "rank": 8570,
        "rank_sort": 8611,
        "total": 2402
      },
      {
        "club_badge_src": null,
        "entry": 2577254,
        "entry_name": "M\u00f8kkalaget",
        "event_total": 66,
        "has_played": true,
        "id": 18496435,
        "last_rank": 11642,
        "player_name": "Brynjulf Agente",
        "rank": 8570,
        "rank_sort": 8612,
        "total": 2402
      },
      {
        "club_badge_src": null,
        "entry": 2790708,
        "entry_name": "Rutter woke nonsense",
        "event_total": 41,
        "has_played": true,
        "id": 20374792,
        "last_rank": 3951,
        "player_name": "steve king",
        "rank": 8570,
        "rank_sort": 8613,
        "total": 2402
      },
      {
        "club_badge_src": null,
        "entry": 3299117,
        "entry_name": "VFarm FC",
        "event_total": 61,
        "has_played": true,
        "id": 24433079,
        "last_rank": 9484,
        "player_name": "Vegard R\u00f8dal",
        "rank": 8570,
        "rank_sort": 8614,
        "total": 2402
      },
      {
        "club_badge_src": null,
        "entry": 3523756,
        "entry_name": "We won the FA Cup",
        "event_total": 59,
        "has_played": true,
        "id": 26224244,
        "last_rank": 8854,
        "player_name": "Michael Huntington",
        "rank": 8570,
        "rank_sort": 8615,
        "total": 2402
      },
      {
        "club_badge_src": null,
        "entry": 3596246,
        "entry_name": "RiceRice",
        "event_total": 49,
        "has_played": true,
        "id": 26783662,
        "last_rank": 5752,
        "player_name": "shohan s",
        "rank": 8570,
        "rank_sort": 8616,
        "total": 2402
      },
      {
        "club_badge_src": null,
        "entry": 3773975,
        "entry_name": "Holy Stars",
        "event_total": 59,
        "has_played": true,
        "id": 28178914,
        "last_rank": 8854,
        "player_name": "Lukasz Mrozek",
        "rank": 8570,
        "rank_sort": 8617,
        "total": 2402
      },
      {
        "club_badge_src": null,
        "entry": 3816240,
        "entry_name": "Senparos",
        "event_total": 54,
        "has_played": true,
        "id": 28538873,
        "last_rank": 7141,
        "player_name": "Alexandros Ignatiadis",
        "rank": 8570,
        "rank_sort": 8618,
        "total": 2402
      },
      {
        "club_badge_src": null,
        "entry": 4126049,
        "entry_name": "GALEBI",
        "event_total": 51,
        "has_played": true,
        "id": 31177100,
        "last_rank": 6265,
        "player_name": "Luka Divjak",
        "rank": 8570,
        "rank_sort": 8619,
        "total": 2402
      },
      {
        "club_badge_src": null,
        "entry": 4838950,
        "entry_name": "Bowen 747",
        "event_total": 49,
        "has_played": true,
        "id": 37274806,
        "last_rank": 5752,
        "player_name": "john kendall",
        "rank": 8570,
        "rank_sort": 8620,
        "total": 2402
      },
      {
        "club_badge_src": "https://fantasy.premierleague.com/gcs/plfpl-production-adobe-approved/plfpl-production/5106826/07da2d83-a431-44eb-b67d-bdda10bf84b5.png",
        "entry": 5106826,
        "entry_name": "BlisteR FC",
        "event_total": 56,
        "has_played": true,
        "id": 39475487,
        "last_rank": 6409,
        "player_name": "Sokea Ry",
        "rank": 8570,
        "rank_sort": 8621,
        "total": 2402
      },
      {
        "club_badge_src": "https://fantasy.premierleague.com/gcs/plfpl-production-adobe-approved/plfpl-production/5573098/ea85cf82-ad15-4f87-8354-2fe31170ab77.png",
        "entry": 5573098,
        "entry_name": "Maspinzlebi",
        "event_total": 61,
        "has_played": true,
        "id": 43520530,
        "last_rank": 8032,
        "player_name": "Rati Terashvili",
        "rank": 8570,
        "rank_sort": 8622,
        "total": 2402
      },
      {
        "club_badge_src": null,
        "entry": 5654105,
        "entry_name": "in the mud",
        "event_total": 50,
        "has_played": true,
        "id": 44231877,
        "last_rank": 6011,
        "player_name": "Festus Kibet",
        "rank": 8570,
        "rank_sort": 8623,
        "total": 2402
      },
      {
        "club_badge_src": "https://fantasy.premierleague.com/gcs/plfpl-production-adobe-approved/plfpl-production/5710888/32520bcf-d78d-4611-8be3-d9c76f106e0e.png",
        "entry": 5710888,
        "entry_name": "Green Wave Yanited",
        "event_total": 69,
        "has_played": true,
        "id": 44721280,
        "last_rank": 11175,
        "player_name": "Hugh Pinkney",
        "rank": 8570,
        "rank_sort": 8624,
        "total": 2402
      },
      {
        "club_badge_src": "https://fantasy.premierleague.com/gcs/plfpl-production-adobe-approved/plfpl-production/5883252/8e68e4a3-1e5e-4549-a1e8-c71bbff0f3a8.png",
        "entry": 5883252,
        "entry_name": "Stylin & Profilin FC",
        "event_total": 74,
        "has_played": true,
        "id": 46214284,
        "last_rank": 16320,
        "player_name": "FPL Ric Flair",
        "rank": 8570,
        "rank_sort": 8625,
        "total": 2402
      },
      {
        "club_badge_src": null,
        "entry": 6606812,
        "entry_name": "Elite XI",
        "event_total": 56,
        "has_played": true,
        "id": 52780598,
        "last_rank": 7761,
        "player_name": "Keng Meng",
        "rank": 8570,
        "rank_sort": 8626,
        "total": 2402
      },
      {
        "club_badge_src": null,
        "entry": 7525178,
        "entry_name": "Hawa Power",
        "event_total": 44,
        "has_played": true,
        "id": 61582573,
        "last_rank": 4570,
        "player_name": "Harry Sinfield",
        "rank": 8570,
        "rank_sort": 8627,
        "total": 2402
      },
      {
        "club_badge_src": null,
        "entry": 7529478,
        "entry_name": "FC Mika",
        "event_total": 67,
        "has_played": true,
        "id": 61624223,
        "last_rank": 12322,
        "player_name": "Nizu Halid",
        "rank": 8570,
        "rank_sort": 8628,
        "total": 2402
      },
      {
        "club_badge_src": null,
        "entry": 8262421,
        "entry_name": "doulavm",
        "event_total": 72,
        "has_played": true,
        "id": 68342288,
        "last_rank": 14857,
        "player_name": "Dou Lavm",
        "rank": 8570,
        "rank_sort": 8629,
        "total": 2402
      },
      {
        "club_badge_src": null,
        "entry": 8750809,
        "entry_name": "The Big Nose Bandits",
        "event_total": 74,
        "has_played": true,
        "id": 73071267,
        "last_rank": 13821,
        "player_name": "Ricky Zucconi",
        "rank": 8570,
        "rank_sort": 8630,
        "total": 2402
      },
      {
        "club_badge_src": null,
        "entry": 9052571,
        "entry_name": "AubameYung",
        "event_total": 72,
        "has_played": true,
        "id": 75990480,
        "last_rank": 15063,
        "player_name": "Kenneth Yung",
        "rank": 8570,
        "rank_sort": 8631,
        "total": 2402
      },
      {
        "club_badge_src": null,
        "entry": 9061273,
        "entry_name": "\u0160e\u0161ko Mobile",
        "event_total": 65,
        "has_played": true,
        "id": 76074511,
        "last_rank": 9484,
        "player_name": "D\u00e1ire Crowe",
        "rank": 8570,
        "rank_sort": 8632,
        "total": 2402
      },
      {
        "club_badge_src": null,
        "entry": 9291587,
        "entry_name": "O'Leary's Legends",
        "event_total": 67,
        "has_played": true,
        "id": 78328987,
        "last_rank": 12322,
        "player_name": "Shane O'Leary",
        "rank": 8570,
        "rank_sort": 8633,
        "total": 2402
      },
      {
        "club_badge_src": "https://fantasy.premierleague.com/gcs/plfpl-production-adobe-approved/plfpl-production/582/7c9e969f-b88b-47dd-96e7-b4367ee0d12b.png",
        "entry": 582,
        "entry_name": "Britke sablje",
        "event_total": 70,
        "has_played": true,
        "id": 3213,
        "last_rank": 11821,
        "player_name": "Stefan Radovanovic",
        "rank": 8634,
        "rank_sort": 8634,
        "total": 2402
      },
      {
        "club_badge_src": null,
        "entry": 22074,
        "entry_name": "TeaMToMModashi2",
        "event_total": 66,
        "has_played": true,
        "id": 138548,
        "last_rank": 11901,
        "player_name": "Chiteke Kapepula",
        "rank": 8634,
        "rank_sort": 8635,
        "total": 2402
      },
      {
        "club_badge_src": null,
        "entry": 30560,
        "entry_name": "Saka Potatoes",
        "event_total": 60,
        "has_played": true,
        "id": 193396,
        "last_rank": 9248,
        "player_name": "Jacob Griffiths",
        "rank": 8634,
        "rank_sort": 8636,
        "total": 2402
      },
      {
        "club_badge_src": null,
        "entry": 30888,
        "entry_name": "Noni Modueke",
        "event_total": 60,
        "has_played": true,
        "id": 195533,
        "last_rank": 7761,
        "player_name": "Peerawit Ngamsittiroek",
        "rank": 8634,
        "rank_sort": 8637,
        "total": 2402
      },
      {
        "club_badge_src": null,
        "entry": 35818,
        "entry_name": "HiJohn007",
        "event_total": 48,
        "has_played": true,
        "id": 229257,
        "last_rank": 5528,
        "player_name": "Christodoulos Hayiannis",
        "rank": 8634,
        "rank_sort": 8638,
        "total": 2402
      },
      {
        "club_badge_src": null,
        "entry": 58688,
        "entry_name": "GemDaiHaz",
        "event_total": 67,
        "has_played": true,
        "id": 377988,
        "last_rank": 12322,
        "player_name": "Philly Blackett",
        "rank": 8634,
        "rank_sort": 8639,
        "total": 2402
      },
      {
        "club_badge_src": "https://fantasy.premierleague.com/gcs/plfpl-production-adobe-approved/plfpl-production/64178/63914346-262d-4a48-adcf-49ce2855e999.png",
        "entry": 64178,
        "entry_name": "SOLSTRANDENS dynamo",
        "event_total": 69,
        "has_played": true,
        "id": 414194,
        "last_rank": 13184,
        "player_name": "Tommi Slunga",
        "rank": 8634,
        "rank_sort": 8640,
        "total": 2402
      },
      {
        "club_badge_src": null,
        "entry": 120092,
        "entry_name": "Bode's Bandits",
        "event_total": 58,
        "has_played": true,
        "id": 783536,
        "last_rank": 8484,
        "player_name": "Oliver Wright",
        "rank": 8634,
        "rank_sort": 8641,
        "total": 2402
      },
      {
        "club_badge_src": null,
        "entry": 137486,
        "entry_name": "FCBBBBBB",
        "event_total": 63,
        "has_played": true,
        "id": 896249,
        "last_rank": 10462,
        "player_name": "Kristian Dennis",
        "rank": 8634,
        "rank_sort": 8642,
        "total": 2402
      },
      {
        "club_badge_src": null,
        "entry": 140438,
        "entry_name": "Delap Dance",
        "event_total": 70,
        "has_played": true,
        "id": 917086,
        "last_rank": 9942,
        "player_name": "Makenzie Caddick",
        "rank": 8634,
        "rank_sort": 8643,
        "total": 2402
      },
      {
        "club_badge_src": null,
        "entry": 159690,
        "entry_name": "FC Bodkar",
        "event_total": 66,
        "has_played": true,
        "id": 1051170,
        "last_rank": 9942,
        "player_name": "marius robertsen",
        "rank": 8634,
        "rank_sort": 8644,
        "total": 2402
      },
      {
        "club_badge_src": null,
        "entry": 208735,
        "entry_name": "Minnie the Cookie",
        "event_total": 63,
        "has_played": true,
        "id": 1387934,
        "last_rank": 10462,
        "player_name": "Min Sopaladawan",
        "rank": 8634,
        "rank_sort": 8645,
        "total": 2402
      },
      {
        "club_badge_src": null,
        "entry": 265677,
        "entry_name": "Ahmed. G",
        "event_total": 65,
        "has_played": true,
        "id": 1767157,
        "last_rank": 9644,
        "player_name": "Ahmed Elhayatmy",
        "rank": 8634,
        "rank_sort": 8646,
        "total": 2402
      },
      {
        "club_badge_src": "https://fantasy.premierleague.com/gcs/plfpl-production-adobe-approved/plfpl-production/285247/f7f03910-cc5d-4f4e-8d5e-c868ba9d8a3b.png",
        "entry": 285247,
        "entry_name": "Cunha done it better",
        "event_total": 59,
        "has_played": true,
        "id": 1899731,
        "last_rank": 8925,
        "player_name": "Andre Bulbeck",
        "rank": 8634,
        "rank_sort": 8647,
        "total": 2402
      },
      {
        "club_badge_src": null,
        "entry": 288003,
        "entry_name": "ParkinsonsDribbler",
        "event_total": 65,
        "has_played": true,
        "id": 1919487,
        "last_rank": 11175,
        "player_name": "Liam Ashley",
        "rank": 8634,
        "rank_sort": 8648,
        "total": 2402
      },
      {
        "club_badge_src": null,
        "entry": 355556,
        "entry_name": "Scorpion",
        "event_total": 63,
        "has_played": true,
        "id": 2379488,
        "last_rank": 8758,
        "player_name": "Ahmed Elnehrawy",
        "rank": 8634,
        "rank_sort": 8649,
        "total": 2402
      },
      {
        "club_badge_src": "https://fantasy.premierleague.com/gcs/plfpl-production-adobe-approved/plfpl-production/467760/877911ea-95a3-4b94-9508-e9cc51decedc.png",
        "entry": 467760,
        "entry_name": "MM25",
        "event_total": 62,
        "has_played": true,
        "id": 3139031,
        "last_rank": 10102,
        "player_name": "Mateo Milos",
        "rank": 8634,
        "rank_sort": 8650,
        "total": 2402
      }
    ]
  }
}