{
  "last_updated_data": "2026-05-24T23:28:17Z",
  "league": {
    "admin_entry": null,
    "closed": false,
    "code_privacy": "p",
    "created": "2025-07-20T23:14:33.933835Z",
    "cup_league": 2815434,
    "has_cup": true,
    "id": 314,
    "league_type": "s",
    "max_entries": null,
    "name": "Overall",
    "rank": null,
    "scoring": "c",
    "start_event": 1
  },
  "new_entries": {
    "has_next": false,
    "page": 1,
    "results": []
  },
  "standings": {
    "has_next": true,
    "page": 1298,
    "results": [
      {
        "club_badge_src": null,
        "entry": 36017,
        "entry_name": "Whats the Wirtz",
        "event_total": 67,
        "has_played": true,
        "id": 230492,
        "last_rank": 86735,
        "player_name": "Jonny Salmon",
        "rank": 64833,
        "rank_sort": 64851,
        "total": 2343
      },
      {
        "club_badge_src": null,
        "entry": 39973,
        "entry_name": "Flying Hellfish FC",
        "event_total": 60,
        "has_played": true,
        "id": 256215,
        "last_rank": 71386,
        "player_name": "Andrew Sigal",
        "rank": 64833,
        "rank_sort": 64852,
        "total": 2343
      },
      {
        "club_badge_src": "https://fantasy.premierleague.com/gcs/plfpl-production-adobe-approved/plfpl-production/41723/f3200719-300e-4dfd-9fce-e70f46213526.png",
        "entry": 41723,
        "entry_name": "Lucerne FC",
        "event_total": 59,
        "has_played": true,
        "id": 267342,
        "last_rank": 69907,
        "player_name": "Chantal Schmid",
        "rank": 64833,
        "rank_sort": 64853,
        "total": 2343
      },
      {
        "club_badge_src": null,
        "entry": 44629,
        "entry_name": "Rose Rovers",
        "event_total": 55,
        "has_played": true,
        "id": 286054,
        "last_rank": 48363,
        "player_name": "Alice Walsh",
        "rank": 64833,
        "rank_sort": 64854,
        "total": 2343
      },
      {
        "club_badge_src": null,
        "entry": 51482,
        "entry_name": "Ashton Villa \u00a9\u00a9\u00a9",
        "event_total": 60,
        "has_played": true,
        "id": 331088,
        "last_rank": 63390,
        "player_name": "Ash Humby",
        "rank": 64833,
        "rank_sort": 64855,
        "total": 2343
      },
      {
        "club_badge_src": null,
        "entry": 67983,
        "entry_name": "Piff Richards",
        "event_total": 56,
        "has_played": true,
        "id": 440359,
        "last_rank": 64005,
        "player_name": "Niall Durning",
        "rank": 64833,
        "rank_sort": 64856,
        "total": 2343
      },
      {
        "club_badge_src": "https://fantasy.premierleague.com/gcs/plfpl-production-adobe-approved/plfpl-production/68444/c273534f-f5d1-4955-a83f-26fab087a68f.png",
        "entry": 68444,
        "entry_name": "Redlion Rovers",
        "event_total": 66,
        "has_played": true,
        "id": 443480,
        "last_rank": 84731,
        "player_name": "Aaron McNally",
        "rank": 64833,
        "rank_sort": 64857,
        "total": 2343
      },
      {
        "club_badge_src": "https://fantasy.premierleague.com/gcs/plfpl-production-adobe-approved/plfpl-production/68955/7f34391e-f1c7-4564-a78b-5d9350b5c136.png",
        "entry": 68955,
        "entry_name": "S11 Yarra Spartans",
        "event_total": 69,
        "has_played": true,
        "id": 446984,
        "last_rank": 91835,
        "player_name": "Bill Koulis",
        "rank": 64833,
        "rank_sort": 64858,
        "total": 2343
      },
      {
        "club_badge_src": "https://fantasy.premierleague.com/gcs/plfpl-production-adobe-approved/plfpl-production/71514/f40c0e15-3e9c-4d34-8820-d681ec11e448.png",
        "entry": 71514,
        "entry_name": "maximum20characters",
        "event_total": 33,
        "has_played": true,
        "id": 464531,
        "last_rank": 31125,
        "player_name": "d hibell",
        "rank": 64833,
        "rank_sort": 64859,
        "total": 2343
      },
      {
        "club_badge_src": null,
        "entry": 73082,
        "entry_name": "PrzyjacieleWitkaKozy",
        "event_total": 67,
        "has_played": true,
        "id": 475017,
        "last_rank": 86304,
        "player_name": "Jakub Biernacki",
        "rank": 64833,
        "rank_sort": 64860,
        "total": 2343
      },
      {
        "club_badge_src": null,
        "entry": 90790,
        "entry_name": "Bayer Alwayslusen",
        "event_total": 56,
        "has_played": true,
        "id": 592872,
        "last_rank": 63724,
        "player_name": "Daniel Cook",
        "rank": 64833,
        "rank_sort": 64861,
        "total": 2343
      },
      {
        "club_badge_src": null,
        "entry": 92684,
        "entry_name": "Dodgy left eye",
        "event_total": 72,
        "has_played": true,
        "id": 605666,
        "last_rank": 79431,
        "player_name": "Brian Feeney",
        "rank": 64833,
        "rank_sort": 64862,
        "total": 2343
      },
      {
        "club_badge_src": null,
        "entry": 92968,
        "entry_name": "Wirtz Occuring",
        "event_total": 68,
        "has_played": true,
        "id": 607549,
        "last_rank": 89426,
        "player_name": "Craig Paterson",
        "rank": 64833,
        "rank_sort": 64863,
        "total": 2343
      },
      {
        "club_badge_src": null,
        "entry": 101741,
        "entry_name": "Kai me a river",
        "event_total": 50,
        "has_played": true,
        "id": 663828,
        "last_rank": 47163,
        "player_name": "Tom Welsh",
        "rank": 64833,
        "rank_sort": 64864,
        "total": 2343
      },
      {
        "club_badge_src": "https://fantasy.premierleague.com/gcs/plfpl-production-adobe-approved/plfpl-production/102958/ec6e76e8-5148-462d-873b-ce963f8b82d0.png",
        "entry": 102958,
        "entry_name": "Adico \u26bd\ufe0e",
        "event_total": 71,
        "has_played": true,
        "id": 671838,
        "last_rank": 86735,
        "player_name": "Leo Mcgill",
        "rank": 64833,
        "rank_sort": 64865,
        "total": 2343
      },
      {
        "club_badge_src": "https://fantasy.premierleague.com/gcs/plfpl-production-adobe-approved/plfpl-production/107062/45cfde13-26c5-46be-9c1e-4f3d8f7d9343.png",
        "entry": 107062,
        "entry_name": "LuLions",
        "event_total": 68,
        "has_played": true,
        "id": 697969,
        "last_rank": 89426,
        "player_name": "Lucent Nicholson",
        "rank": 64833,
        "rank_sort": 64866,
        "total": 2343
      },
      {
        "club_badge_src": "https://fantasy.premierleague.com/gcs/plfpl-production-adobe-approved/plfpl-production/115011/c42a4211-29ea-4a35-965f-e8ffb49fac66.png",
        "entry": 115011,
        "entry_name": "ArsenalKing",
        "event_total": 73,
        "has_played": true,
        "id": 750442,
        "last_rank": 91466,
        "player_name": "Tomasz Chylinski",
        "rank": 64833,
        "rank_sort": 64867,
        "total": 2343
      },
      {
        "club_badge_src": null,
        "entry": 123443,
        "entry_name": "Al-Zulfi F.C.",
        "event_total": 58,
        "has_played": true,
        "id": 805190,
        "last_rank": 67695,
        "player_name": "Marcelo Bielsa",
        "rank": 64833,
        "rank_sort": 64868,
        "total": 2343
      },
      {
        "club_badge_src": null,
        "entry": 134026,
        "entry_name": "Ham solo",
        "event_total": 54,
        "has_played": true,
        "id": 872923,
        "last_rank": 60462,
        "player_name": "Jack Harvey",
        "rank": 64833,
        "rank_sort": 64869,
        "total": 2343
      },
      {
        "club_badge_src": null,
        "entry": 134230,
        "entry_name": "Mum Utd",
        "event_total": 35,
        "has_played": true,
        "id": 874222,
        "last_rank": 28906,
        "player_name": "Georgina Evans",
        "rank": 64833,
        "rank_sort": 64870,
        "total": 2343
      },
      {
        "club_badge_src": null,
        "entry": 138508,
        "entry_name": "What\u2019s Rob Holding",
        "event_total": 54,
        "has_played": true,
        "id": 903600,
        "last_rank": 59813,
        "player_name": "Eshaan Pasha",
        "rank": 64833,
        "rank_sort": 64871,
        "total": 2343
      },
      {
        "club_badge_src": null,
        "entry": 156860,
        "entry_name": "Right Arm Slot",
        "event_total": 65,
        "has_played": true,
        "id": 1031681,
        "last_rank": 73038,
        "player_name": "Martin Gibson",
        "rank": 64833,
        "rank_sort": 64872,
        "total": 2343
      },
      {
        "club_badge_src": null,
        "entry": 174913,
        "entry_name": "Bruno Dos Tres",
        "event_total": 57,
        "has_played": true,
        "id": 1154919,
        "last_rank": 65796,
        "player_name": "Reece Burrows",
        "rank": 64833,
        "rank_sort": 64873,
        "total": 2343
      },
      {
        "club_badge_src": null,
        "entry": 189086,
        "entry_name": "Big Jobs",
        "event_total": 55,
        "has_played": true,
        "id": 1251437,
        "last_rank": 55014,
        "player_name": "jack wagstaff",
        "rank": 64833,
        "rank_sort": 64874,
        "total": 2343
      },
      {
        "club_badge_src": null,
        "entry": 213896,
        "entry_name": "TwentyTwo",
        "event_total": 71,
        "has_played": true,
        "id": 1422933,
        "last_rank": 96374,
        "player_name": "ahmed abdelrahman",
        "rank": 64833,
        "rank_sort": 64875,
        "total": 2343
      },
      {
        "club_badge_src": null,
        "entry": 215335,
        "entry_name": "The Martinellicopter",
        "event_total": 71,
        "has_played": true,
        "id": 1432303,
        "last_rank": 96374,
        "player_name": "James Collins",
        "rank": 64833,
        "rank_sort": 64876,
        "total": 2343
      },
      {
        "club_badge_src": "https://fantasy.premierleague.com/gcs/plfpl-production-adobe-approved/plfpl-production/217750/b625fbe0-659b-49b5-9eaa-5e58e75ac0b4.png",
        "entry": 217750,
        "entry_name": "Milk 'n' Shake FC",
        "event_total": 61,
        "has_played": true,
        "id": 1448079,
        "last_rank": 73038,
        "player_name": "Zac Leach",
        "rank": 64833,
        "rank_sort": 64877,
        "total": 2343
      },
      {
        "club_badge_src": null,
        "entry": 229532,
        "entry_name": "Yaya Corey",
        "event_total": 68,
        "has_played": true,
        "id": 1527115,
        "last_rank": 89055,
        "player_name": "Corey Sutton",
        "rank": 64833,
        "rank_sort": 64878,
        "total": 2343
      },
      {
        "club_badge_src": null,
        "entry": 231295,
        "entry_name": "Cunha Matata",
        "event_total": 62,
        "has_played": true,
        "id": 1538849,
        "last_rank": 75874,
        "player_name": "Marc Mourant",
        "rank": 64833,
        "rank_sort": 64879,
        "total": 2343
      },
      {
        "club_badge_src": null,
        "entry": 247693,
        "entry_name": "\u52dd\u5229\u7403\u8ff7",
        "event_total": 68,
        "has_played": true,
        "id": 1648687,
        "last_rank": 89426,
        "player_name": "Peter Ng",
        "rank": 64833,
        "rank_sort": 64880,
        "total": 2343
      },
      {
        "club_badge_src": null,
        "entry": 248057,
        "entry_name": "Nath FC",
        "event_total": 61,
        "has_played": true,
        "id": 1651044,
        "last_rank": 73038,
        "player_name": "Nathan Hughes",
        "rank": 64833,
        "rank_sort": 64881,
        "total": 2343
      },
      {
        "club_badge_src": null,
        "entry": 256891,
        "entry_name": "Mind the gap",
        "event_total": 59,
        "has_played": true,
        "id": 1708531,
        "last_rank": 61950,
        "player_name": "Vegard Anthun",
        "rank": 64833,
        "rank_sort": 64882,
        "total": 2343
      },
      {
        "club_badge_src": null,
        "entry": 266356,
        "entry_name": "Northfields AFC",
        "event_total": 49,
        "has_played": true,
        "id": 1771753,
        "last_rank": 35034,
        "player_name": "Matt Hagg",
        "rank": 64833,
        "rank_sort": 64883,
        "total": 2343
      },
      {
        "club_badge_src": "https://fantasy.premierleague.com/gcs/plfpl-production-adobe-approved/plfpl-production/311980/817b1b6a-7221-4536-8dd4-fe3bf54c0a66.png",
        "entry": 311980,
        "entry_name": "Bowen Arrows",
        "event_total": 76,
        "has_played": true,
        "id": 2090161,
        "last_rank": 108959,
        "player_name": "Luke Vincent",
        "rank": 64833,
        "rank_sort": 64884,
        "total": 2343
      },
      {
        "club_badge_src": null,
        "entry": 320636,
        "entry_name": "Chocolate Dychestive",
        "event_total": 59,
        "has_played": true,
        "id": 2149030,
        "last_rank": 69641,
        "player_name": "Chris Cotton",
        "rank": 64833,
        "rank_sort": 64885,
        "total": 2343
      },
      {
        "club_badge_src": null,
        "entry": 336034,
        "entry_name": "Obi Wan Iwobi",
        "event_total": 62,
        "has_played": true,
        "id": 2249887,
        "last_rank": 75874,
        "player_name": "Lester Wyatt",
        "rank": 64833,
        "rank_sort": 64886,
        "total": 2343
      },
      {
        "club_badge_src": null,
        "entry": 364766,
        "entry_name": "Wirtz Team Ever",
        "event_total": 73,
        "has_played": true,
        "id": 2441045,
        "last_rank": 101419,
        "player_name": "Alfie Jones",
        "rank": 64833,
        "rank_sort": 64887,
        "total": 2343
      },
      {
        "club_badge_src": "https://fantasy.premierleague.com/gcs/plfpl-production-adobe-approved/plfpl-production/372887/001e7489-c5e5-4749-a7ee-925ed34e3ecf.png",
        "entry": 372887,
        "entry_name": "furty isn't fat",
        "event_total": 74,
        "has_played": true,
        "id": 2494946,
        "last_rank": 103526,
        "player_name": "not thepugilist",
        "rank": 64833,
        "rank_sort": 64888,
        "total": 2343
      },
      {
        "club_badge_src": "https://fantasy.premierleague.com/gcs/plfpl-production-adobe-approved/plfpl-production/383497/0576356c-8ab1-4cc5-bb3a-b23c001ab9b8.png",
        "entry": 383497,
        "entry_name": "Haaland Oates",
        "event_total": 63,
        "has_played": true,
        "id": 2571918,
        "last_rank": 69323,
        "player_name": "Hillel Aron",
        "rank": 64833,
        "rank_sort": 64889,
        "total": 2343
      },
      {
        "club_badge_src": null,
        "entry": 412767,
        "entry_name": "FC KuTu",
        "event_total": 67,
        "has_played": true,
        "id": 2767384,
        "last_rank": 77258,
        "player_name": "Ville Raasakka",
        "rank": 64833,
        "rank_sort": 64890,
        "total": 2343
      },
      {
        "club_badge_src": "https://fantasy.premierleague.com/gcs/plfpl-production-adobe-approved/plfpl-production/433643/4cbde97c-627c-46df-8581-39dfd414431f.png",
        "entry": 433643,
        "entry_name": "Oakland titans FC",
        "event_total": 54,
        "has_played": true,
        "id": 2908169,
        "last_rank": 60462,
        "player_name": "Marlon Gunter",
        "rank": 64833,
        "rank_sort": 64891,
        "total": 2343
      },
      {
        "club_badge_src": null,
        "entry": 435501,
        "entry_name": "Vekkulin Kekkulit",
        "event_total": 55,
        "has_played": true,
        "id": 2920370,
        "last_rank": 62223,
        "player_name": "Vesa Laakso",
        "rank": 64833,
        "rank_sort": 64892,
        "total": 2343
      },
      {
        "club_badge_src": null,
        "entry": 437712,
        "entry_name": "AthleTEO Madrid",
        "event_total": 69,
        "has_played": true,
        "id": 2935231,
        "last_rank": 91466,
        "player_name": "Matteo Marcellini",
        "rank": 64833,
        "rank_sort": 64893,
        "total": 2343
      },
      {
        "club_badge_src": null,
        "entry": 444024,
        "entry_name": "Smallville Crowes",
        "event_total": 79,
        "has_played": true,
        "id": 2977277,
        "last_rank": 117915,
        "player_name": "Neil Farragher",
        "rank": 64833,
        "rank_sort": 64894,
        "total": 2343
      },
      {
        "club_badge_src": "https://fantasy.premierleague.com/gcs/plfpl-production-adobe-approved/plfpl-production/446450/21efae81-8006-4ab3-a7e2-7e5a1fcde00d.png",
        "entry": 446450,
        "entry_name": "Salah Vie",
        "event_total": 57,
        "has_played": true,
        "id": 2994440,
        "last_rank": 65796,
        "player_name": "Per Oemer Dil",
        "rank": 64833,
        "rank_sort": 64895,
        "total": 2343
      },
      {
        "club_badge_src": "https://fantasy.premierleague.com/gcs/plfpl-production-adobe-approved/plfpl-production/447209/e155dea0-4a3a-4cd2-ad82-bcf875cbed4e.png",
        "entry": 447209,
        "entry_name": "Mike Duff Fanclub",
        "event_total": 60,
        "has_played": true,
        "id": 2999752,
        "last_rank": 71386,
        "player_name": "Finn Olav Haga",
        "rank": 64833,
        "rank_sort": 64896,
        "total": 2343
      },
      {
        "club_badge_src": "https://fantasy.premierleague.com/gcs/plfpl-production-adobe-approved/plfpl-production/454261/9bb4b3a4-f750-475b-b2fd-dc964190972f.png",
        "entry": 454261,
        "entry_name": "I'm a Baleba",
        "event_total": 48,
        "has_played": true,
        "id": 3047382,
        "last_rank": 50468,
        "player_name": "Patrik Ward",
        "rank": 64833,
        "rank_sort": 64897,
        "total": 2343
      },
      {
        "club_badge_src": null,
        "entry": 463883,
        "entry_name": "Delappy Ending",
        "event_total": 61,
        "has_played": true,
        "id": 3111587,
        "last_rank": 57857,
        "player_name": "Grant Ross",
        "rank": 64833,
        "rank_sort": 64898,
        "total": 2343
      },
      {
        "club_badge_src": "https://fantasy.premierleague.com/gcs/plfpl-production-adobe-approved/plfpl-production/464491/ecd29d9b-ddc6-4c5d-adce-b76ff69bd0d9.png",
        "entry": 464491,
        "entry_name": "DropItLikeItsSlot",
        "event_total": 44,
        "has_played": true,
        "id": 3115632,
        "last_rank": 44525,
        "player_name": "Faris Khan",
        "rank": 64833,
        "rank_sort": 64899,
        "total": 2343
      },
      {
        "club_badge_src": null,
        "entry": 474922,
        "entry_name": "Here we go again",
        "event_total": 71,
        "has_played": true,
        "id": 3188242,
        "last_rank": 96777,
        "player_name": "Liberty Dewar",
        "rank": 64833,
        "rank_sort": 64900,
        "total": 2343
      }
    ]
  }
}