{
  "last_updated_data": "2026-05-24T23:28:17Z",
  "league": {
    "admin_entry": null,
    "closed": false,
    "code_privacy": "p",
    "created": "2025-07-20T23:14:33.933835Z",
    "cup_league": 2815434,
    "has_cup": true,
    "id": 314,
    "league_type": "s",
    "max_entries": null,
    "name": "Overall",
    "rank": null,
    "scoring": "c",
    "start_event": 1
  },
  "new_entries": {
    "has_next": false,
    "page": 1,
    "results": []
  },
  "standings": {
    "has_next": true,
    "page": 143,
    "results": [
      {
        "club_badge_src": null,
        "entry": 89701,
        "entry_name": "Devils_Legacy",
        "event_total": 60,
        "has_played": true,
        "id": 585534,
        "last_rank": 6347,
        "player_name": "Vijay Suresh",
        "rank": 7100,
        "rank_sort": 7101,
        "total": 2407
      },
      {
        "club_badge_src": "https://fantasy.premierleague.com/gcs/plfpl-production-adobe-approved/plfpl-production/919831/ee0775a1-d7d4-44b0-bacc-2a0e10636fe2.png",
        "entry": 919831,
        "entry_name": "MoshPit",
        "event_total": 70,
        "has_played": true,
        "id": 6325799,
        "last_rank": 9775,
        "player_name": "Ashish Gajjar",
        "rank": 7100,
        "rank_sort": 7102,
        "total": 2407
      },
      {
        "club_badge_src": null,
        "entry": 1786043,
        "entry_name": "Kinder Mbeumo",
        "event_total": 68,
        "has_played": true,
        "id": 12549272,
        "last_rank": 10600,
        "player_name": "Taylor Swift",
        "rank": 7100,
        "rank_sort": 7103,
        "total": 2407
      },
      {
        "club_badge_src": null,
        "entry": 4110891,
        "entry_name": "WhatAreYou EndMo",
        "event_total": 50,
        "has_played": true,
        "id": 31046261,
        "last_rank": 4015,
        "player_name": "mohamed marwan",
        "rank": 7100,
        "rank_sort": 7104,
        "total": 2407
      },
      {
        "club_badge_src": null,
        "entry": 4135932,
        "entry_name": "We'veSeenItAll",
        "event_total": 78,
        "has_played": true,
        "id": 31256332,
        "last_rank": 15920,
        "player_name": "Jason Carter",
        "rank": 7100,
        "rank_sort": 7105,
        "total": 2407
      },
      {
        "club_badge_src": "https://fantasy.premierleague.com/gcs/plfpl-production-adobe-approved/plfpl-production/4152146/8f8c4cda-d829-4900-bad1-01e33f0b32f1.png",
        "entry": 4152146,
        "entry_name": "caisenma",
        "event_total": 66,
        "has_played": true,
        "id": 31383728,
        "last_rank": 9775,
        "player_name": "arlin dueck",
        "rank": 7100,
        "rank_sort": 7106,
        "total": 2407
      },
      {
        "club_badge_src": "https://fantasy.premierleague.com/gcs/plfpl-production-adobe-approved/plfpl-production/5173250/0c8bf237-dc04-4487-b38a-5e87d952ce3f.png",
        "entry": 5173250,
        "entry_name": "Moves Like Xhaka",
        "event_total": 71,
        "has_played": true,
        "id": 40039727,
        "last_rank": 12027,
        "player_name": "William Sopp",
        "rank": 7100,
        "rank_sort": 7107,
        "total": 2407
      },
      {
        "club_badge_src": "https://fantasy.premierleague.com/gcs/plfpl-production-adobe-approved/plfpl-production/6433175/109cf4fc-9a0d-4a82-b5f8-548b9d80269e.png",
        "entry": 6433175,
        "entry_name": "Ndola City FC",
        "event_total": 68,
        "has_played": true,
        "id": 51213119,
        "last_rank": 8999,
        "player_name": "Mwila Bwalya",
        "rank": 7100,
        "rank_sort": 7108,
        "total": 2407
      },
      {
        "club_badge_src": null,
        "entry": 7214398,
        "entry_name": "Bridge Bulldogs",
        "event_total": 47,
        "has_played": true,
        "id": 58269336,
        "last_rank": 3482,
        "player_name": "Simon Farnham",
        "rank": 7100,
        "rank_sort": 7109,
        "total": 2407
      },
      {
        "club_badge_src": "https://fantasy.premierleague.com/gcs/plfpl-production-adobe-approved/plfpl-production/8389033/4081982c-a8ae-4655-ad2e-6f27e04e45e2.png",
        "entry": 8389033,
        "entry_name": "Top Dogs",
        "event_total": 58,
        "has_played": true,
        "id": 69577092,
        "last_rank": 4866,
        "player_name": "Omari Blake",
        "rank": 7100,
        "rank_sort": 7110,
        "total": 2407
      },
      {
        "club_badge_src": null,
        "entry": 583680,
        "entry_name": "Skelly Furtardo",
        "event_total": 65,
        "has_played": true,
        "id": 3928012,
        "last_rank": 9412,
        "player_name": "Jamie Dezart",
        "rank": 7111,
        "rank_sort": 7111,
        "total": 2407
      },
      {
        "club_badge_src": null,
        "entry": 762955,
        "entry_name": "Nedveds hj\u00e4ltar",
        "event_total": 70,
        "has_played": true,
        "id": 5203255,
        "last_rank": 9792,
        "player_name": "Christoffer Van Der Bilt",
        "rank": 7111,
        "rank_sort": 7112,
        "total": 2407
      },
      {
        "club_badge_src": null,
        "entry": 1061238,
        "entry_name": "The Damsgaardians",
        "event_total": 57,
        "has_played": true,
        "id": 7346365,
        "last_rank": 6647,
        "player_name": "Oden Bansi",
        "rank": 7111,
        "rank_sort": 7113,
        "total": 2407
      },
      {
        "club_badge_src": null,
        "entry": 1357761,
        "entry_name": "alii",
        "event_total": 50,
        "has_played": true,
        "id": 9437985,
        "last_rank": 4895,
        "player_name": "Ahmed ali",
        "rank": 7111,
        "rank_sort": 7114,
        "total": 2407
      },
      {
        "club_badge_src": "https://fantasy.premierleague.com/gcs/plfpl-production-adobe-approved/plfpl-production/2480152/da3e875b-0b64-420e-84f2-9a3effd1a269.png",
        "entry": 2480152,
        "entry_name": "Cabbie Kings Utd",
        "event_total": 63,
        "has_played": true,
        "id": 17745979,
        "last_rank": 7257,
        "player_name": "David Porter",
        "rank": 7111,
        "rank_sort": 7115,
        "total": 2407
      },
      {
        "club_badge_src": null,
        "entry": 3348176,
        "entry_name": "Winner",
        "event_total": 47,
        "has_played": true,
        "id": 24837586,
        "last_rank": 3495,
        "player_name": "Michael Harutyunyan",
        "rank": 7111,
        "rank_sort": 7116,
        "total": 2407
      },
      {
        "club_badge_src": null,
        "entry": 3986632,
        "entry_name": "Ruzomberok",
        "event_total": 76,
        "has_played": true,
        "id": 30015031,
        "last_rank": 12512,
        "player_name": "Aner Osm",
        "rank": 7111,
        "rank_sort": 7117,
        "total": 2407
      },
      {
        "club_badge_src": null,
        "entry": 6611533,
        "entry_name": "That is so Gerrard",
        "event_total": 64,
        "has_played": true,
        "id": 52824899,
        "last_rank": 7567,
        "player_name": "Robert Holmes",
        "rank": 7111,
        "rank_sort": 7118,
        "total": 2407
      },
      {
        "club_badge_src": null,
        "entry": 7469216,
        "entry_name": "Blazooo",
        "event_total": 61,
        "has_played": true,
        "id": 60884842,
        "last_rank": 7914,
        "player_name": "Blazo Radoman",
        "rank": 7111,
        "rank_sort": 7119,
        "total": 2407
      },
      {
        "club_badge_src": null,
        "entry": 35542,
        "entry_name": "AlhajeryFc",
        "event_total": 71,
        "has_played": true,
        "id": 227465,
        "last_rank": 10209,
        "player_name": "Abdullah Alhajery",
        "rank": 7120,
        "rank_sort": 7120,
        "total": 2407
      },
      {
        "club_badge_src": null,
        "entry": 95294,
        "entry_name": "Tb77",
        "event_total": 65,
        "has_played": true,
        "id": 622679,
        "last_rank": 6647,
        "player_name": "Thomas Brekke",
        "rank": 7120,
        "rank_sort": 7121,
        "total": 2407
      },
      {
        "club_badge_src": null,
        "entry": 654786,
        "entry_name": "Haven't Got A Kalou",
        "event_total": 59,
        "has_played": true,
        "id": 4425099,
        "last_rank": 6122,
        "player_name": "Jack Wattie",
        "rank": 7120,
        "rank_sort": 7122,
        "total": 2407
      },
      {
        "club_badge_src": "https://fantasy.premierleague.com/gcs/plfpl-production-adobe-approved/plfpl-production/695766/a7913eb7-dad2-4dce-b124-35e881e6e475.png",
        "entry": 695766,
        "entry_name": "Ljube",
        "event_total": 59,
        "has_played": true,
        "id": 4712490,
        "last_rank": 6122,
        "player_name": "Ljupcho Vangelski",
        "rank": 7120,
        "rank_sort": 7123,
        "total": 2407
      },
      {
        "club_badge_src": "https://fantasy.premierleague.com/gcs/plfpl-production-adobe-approved/plfpl-production/997886/c3b254e4-af73-4d95-b1ea-4d164919ea27.png",
        "entry": 997886,
        "entry_name": "WORLD XI",
        "event_total": 70,
        "has_played": true,
        "id": 6894285,
        "last_rank": 9806,
        "player_name": "Don Michaeleone",
        "rank": 7120,
        "rank_sort": 7124,
        "total": 2407
      },
      {
        "club_badge_src": "https://fantasy.premierleague.com/gcs/plfpl-production-adobe-approved/plfpl-production/1774836/1423e868-8e50-4975-bc79-7e267ffc866f.png",
        "entry": 1774836,
        "entry_name": "Tactical Mayhem",
        "event_total": 56,
        "has_played": true,
        "id": 12468225,
        "last_rank": 6372,
        "player_name": "Christopher Lepisto",
        "rank": 7120,
        "rank_sort": 7125,
        "total": 2407
      },
      {
        "club_badge_src": null,
        "entry": 5965550,
        "entry_name": "Could be Wirtz",
        "event_total": 65,
        "has_played": true,
        "id": 46935992,
        "last_rank": 6637,
        "player_name": "Leon Rush",
        "rank": 7120,
        "rank_sort": 7126,
        "total": 2407
      },
      {
        "club_badge_src": null,
        "entry": 1765572,
        "entry_name": "Umbrella Slider FC",
        "event_total": 63,
        "has_played": true,
        "id": 12401239,
        "last_rank": 8645,
        "player_name": "Manoon Pokitti",
        "rank": 7127,
        "rank_sort": 7127,
        "total": 2407
      },
      {
        "club_badge_src": null,
        "entry": 4081291,
        "entry_name": "- krish -",
        "event_total": 66,
        "has_played": true,
        "id": 30809926,
        "last_rank": 8289,
        "player_name": "Krish Gorsia",
        "rank": 7127,
        "rank_sort": 7128,
        "total": 2407
      },
      {
        "club_badge_src": null,
        "entry": 4330665,
        "entry_name": "Sesko goes Tesco",
        "event_total": 79,
        "has_played": true,
        "id": 32873114,
        "last_rank": 14192,
        "player_name": "vinnay chandarana",
        "rank": 7127,
        "rank_sort": 7129,
        "total": 2407
      },
      {
        "club_badge_src": "https://fantasy.premierleague.com/gcs/plfpl-production-adobe-approved/plfpl-production/4816733/7ead6fb0-7744-414f-8d7c-4816de035947.png",
        "entry": 4816733,
        "entry_name": "Champs FC",
        "event_total": 44,
        "has_played": true,
        "id": 37090313,
        "last_rank": 3670,
        "player_name": "Usama Abid",
        "rank": 7127,
        "rank_sort": 7130,
        "total": 2407
      },
      {
        "club_badge_src": null,
        "entry": 8180210,
        "entry_name": "ZONA10",
        "event_total": 52,
        "has_played": true,
        "id": 67553886,
        "last_rank": 5370,
        "player_name": "Mazen Alharbi",
        "rank": 7127,
        "rank_sort": 7131,
        "total": 2407
      },
      {
        "club_badge_src": null,
        "entry": 187641,
        "entry_name": "Slot Machine",
        "event_total": 62,
        "has_played": true,
        "id": 1240849,
        "last_rank": 6978,
        "player_name": "Kristian R\u00e4m\u00f6",
        "rank": 7132,
        "rank_sort": 7132,
        "total": 2407
      },
      {
        "club_badge_src": null,
        "entry": 366623,
        "entry_name": "Slot it in",
        "event_total": 61,
        "has_played": true,
        "id": 2453444,
        "last_rank": 6663,
        "player_name": "Martin Budworth",
        "rank": 7132,
        "rank_sort": 7133,
        "total": 2407
      },
      {
        "club_badge_src": "https://fantasy.premierleague.com/gcs/plfpl-production-adobe-approved/plfpl-production/5596914/68edfbcb-9196-41dc-9e73-b10c3a691e92.png",
        "entry": 5596914,
        "entry_name": "PartimeUnited",
        "event_total": 50,
        "has_played": true,
        "id": 43729535,
        "last_rank": 4903,
        "player_name": "Arman Sharif",
        "rank": 7132,
        "rank_sort": 7134,
        "total": 2407
      },
      {
        "club_badge_src": null,
        "entry": 108994,
        "entry_name": "Air Jordan Henderson",
        "event_total": 57,
        "has_played": true,
        "id": 710559,
        "last_rank": 5613,
        "player_name": "Michael Keep",
        "rank": 7135,
        "rank_sort": 7135,
        "total": 2407
      },
      {
        "club_badge_src": null,
        "entry": 5713659,
        "entry_name": "Abcde",
        "event_total": 54,
        "has_played": true,
        "id": 44745740,
        "last_rank": 5875,
        "player_name": "ashish arora",
        "rank": 7135,
        "rank_sort": 7136,
        "total": 2407
      },
      {
        "club_badge_src": null,
        "entry": 6618063,
        "entry_name": "Call of Guti",
        "event_total": 79,
        "has_played": true,
        "id": 52882940,
        "last_rank": 14200,
        "player_name": "Miika Nuutinen",
        "rank": 7135,
        "rank_sort": 7137,
        "total": 2407
      },
      {
        "club_badge_src": null,
        "entry": 69760,
        "entry_name": "DiMaria Count Me In",
        "event_total": 71,
        "has_played": true,
        "id": 452679,
        "last_rank": 10232,
        "player_name": "Andi Young",
        "rank": 7138,
        "rank_sort": 7138,
        "total": 2407
      },
      {
        "club_badge_src": null,
        "entry": 5049730,
        "entry_name": "Isku Tasho",
        "event_total": 67,
        "has_played": true,
        "id": 39015194,
        "last_rank": 10235,
        "player_name": "ahmed nasir",
        "rank": 7138,
        "rank_sort": 7139,
        "total": 2407
      },
      {
        "club_badge_src": null,
        "entry": 212357,
        "entry_name": "\u00d8defans",
        "event_total": 69,
        "has_played": true,
        "id": 1412675,
        "last_rank": 11132,
        "player_name": "Oliver Kofod",
        "rank": 7140,
        "rank_sort": 7140,
        "total": 2407
      },
      {
        "club_badge_src": null,
        "entry": 4272132,
        "entry_name": "Allsorts Utd",
        "event_total": 80,
        "has_played": true,
        "id": 32397085,
        "last_rank": 12585,
        "player_name": "Joanne Lang",
        "rank": 7140,
        "rank_sort": 7141,
        "total": 2407
      },
      {
        "club_badge_src": null,
        "entry": 200356,
        "entry_name": "Acle's Attack",
        "event_total": 68,
        "has_played": true,
        "id": 1330074,
        "last_rank": 10701,
        "player_name": "Alec Spence",
        "rank": 7142,
        "rank_sort": 7142,
        "total": 2406
      },
      {
        "club_badge_src": null,
        "entry": 996889,
        "entry_name": "Throwing Schade",
        "event_total": 65,
        "has_played": true,
        "id": 6884931,
        "last_rank": 9442,
        "player_name": "Max Potier",
        "rank": 7143,
        "rank_sort": 7143,
        "total": 2406
      },
      {
        "club_badge_src": null,
        "entry": 3262394,
        "entry_name": "Purple Raptorz",
        "event_total": 52,
        "has_played": true,
        "id": 24139965,
        "last_rank": 5379,
        "player_name": "Umair Asad",
        "rank": 7144,
        "rank_sort": 7144,
        "total": 2406
      },
      {
        "club_badge_src": null,
        "entry": 6767073,
        "entry_name": "Change Name",
        "event_total": 58,
        "has_played": true,
        "id": 54182845,
        "last_rank": 6991,
        "player_name": "Shaun Brennan",
        "rank": 7144,
        "rank_sort": 7145,
        "total": 2406
      },
      {
        "club_badge_src": null,
        "entry": 2003416,
        "entry_name": "Bobby\u2019s boys",
        "event_total": 61,
        "has_played": true,
        "id": 14163962,
        "last_rank": 7979,
        "player_name": "Bobby Reid",
        "rank": 7146,
        "rank_sort": 7146,
        "total": 2406
      },
      {
        "club_badge_src": null,
        "entry": 2115972,
        "entry_name": "Kinder Mbeumo",
        "event_total": 77,
        "has_played": true,
        "id": 15027252,
        "last_rank": 15452,
        "player_name": "Elijah James",
        "rank": 7146,
        "rank_sort": 7147,
        "total": 2406
      },
      {
        "club_badge_src": null,
        "entry": 9000879,
        "entry_name": "Hodgson's Heroes",
        "event_total": 65,
        "has_played": true,
        "id": 75488952,
        "last_rank": 9448,
        "player_name": "Jack Hodgson",
        "rank": 7146,
        "rank_sort": 7148,
        "total": 2406
      },
      {
        "club_badge_src": null,
        "entry": 5810,
        "entry_name": "147 elite",
        "event_total": 66,
        "has_played": true,
        "id": 33205,
        "last_rank": 9885,
        "player_name": "Adam Campbell",
        "rank": 7149,
        "rank_sort": 7149,
        "total": 2406
      },
      {
        "club_badge_src": null,
        "entry": 9315,
        "entry_name": "Eze Winning",
        "event_total": 65,
        "has_played": true,
        "id": 54715,
        "last_rank": 9459,
        "player_name": "Hassan Turay",
        "rank": 7149,
        "rank_sort": 7150,
        "total": 2406
      }
    ]
  }
}