{
  "last_updated_data": "2026-05-24T23:28:17Z",
  "league": {
    "admin_entry": null,
    "closed": false,
    "code_privacy": "p",
    "created": "2025-07-20T23:14:33.933835Z",
    "cup_league": 2815434,
    "has_cup": true,
    "id": 314,
    "league_type": "s",
    "max_entries": null,
    "name": "Overall",
    "rank": null,
    "scoring": "c",
    "start_event": 1
  },
  "new_entries": {
    "has_next": false,
    "page": 1,
    "results": []
  },
  "standings": {
    "has_next": true,
    "page": 738,
    "results": [
      {
        "club_badge_src": null,
        "entry": 3629400,
        "entry_name": "Livin' Saliba Loca",
        "event_total": 61,
        "has_played": true,
        "id": 27045223,
        "last_rank": 41824,
        "player_name": "Ryan Golding",
        "rank": 36729,
        "rank_sort": 36851,
        "total": 2362
      },
      {
        "club_badge_src": null,
        "entry": 3688968,
        "entry_name": "Levanger Stallions",
        "event_total": 75,
        "has_played": true,
        "id": 27519771,
        "last_rank": 63724,
        "player_name": "Jakob Schick",
        "rank": 36729,
        "rank_sort": 36852,
        "total": 2362
      },
      {
        "club_badge_src": null,
        "entry": 3748710,
        "entry_name": "vedi Valverde",
        "event_total": 64,
        "has_played": true,
        "id": 27987113,
        "last_rank": 45927,
        "player_name": "Qusay Omer",
        "rank": 36729,
        "rank_sort": 36853,
        "total": 2362
      },
      {
        "club_badge_src": null,
        "entry": 3778918,
        "entry_name": "Knallogfall FC",
        "event_total": 65,
        "has_played": true,
        "id": 28217100,
        "last_rank": 41617,
        "player_name": "Marius Tandberg Nilsen",
        "rank": 36729,
        "rank_sort": 36854,
        "total": 2362
      },
      {
        "club_badge_src": null,
        "entry": 3783455,
        "entry_name": "We Back FC",
        "event_total": 56,
        "has_played": true,
        "id": 28252487,
        "last_rank": 35619,
        "player_name": "Nicky Hewitt",
        "rank": 36729,
        "rank_sort": 36855,
        "total": 2362
      },
      {
        "club_badge_src": "https://fantasy.premierleague.com/gcs/plfpl-production-adobe-approved/plfpl-production/3803802/b9febeb4-dbe4-4417-bf0f-ed6bc052c98f.png",
        "entry": 3803802,
        "entry_name": "BKT NEPAL",
        "event_total": 65,
        "has_played": true,
        "id": 28436907,
        "last_rank": 47417,
        "player_name": "ROHAN SHRESTHA",
        "rank": 36729,
        "rank_sort": 36856,
        "total": 2362
      },
      {
        "club_badge_src": null,
        "entry": 3840857,
        "entry_name": "Witho Wanderers FC",
        "event_total": 59,
        "has_played": true,
        "id": 28766832,
        "last_rank": 39246,
        "player_name": "Matt Witheridge",
        "rank": 36729,
        "rank_sort": 36857,
        "total": 2362
      },
      {
        "club_badge_src": null,
        "entry": 3859271,
        "entry_name": "xG Force",
        "event_total": 61,
        "has_played": true,
        "id": 28935045,
        "last_rank": 41617,
        "player_name": "Brian Doherty",
        "rank": 36729,
        "rank_sort": 36858,
        "total": 2362
      },
      {
        "club_badge_src": null,
        "entry": 3924310,
        "entry_name": "AKAM",
        "event_total": 57,
        "has_played": true,
        "id": 29511745,
        "last_rank": 36831,
        "player_name": "AKAM MZAFAR",
        "rank": 36729,
        "rank_sort": 36859,
        "total": 2362
      },
      {
        "club_badge_src": "https://fantasy.premierleague.com/gcs/plfpl-production-adobe-approved/plfpl-production/3943547/095a7b4c-09b8-4066-b974-a9a18eada3e6.png",
        "entry": 3943547,
        "entry_name": "Red Devils",
        "event_total": 41,
        "has_played": true,
        "id": 29665599,
        "last_rank": 21392,
        "player_name": "Ramy Badran",
        "rank": 36729,
        "rank_sort": 36860,
        "total": 2362
      },
      {
        "club_badge_src": null,
        "entry": 3994607,
        "entry_name": "Trihards",
        "event_total": 84,
        "has_played": true,
        "id": 30081382,
        "last_rank": 73423,
        "player_name": "Matt Lee",
        "rank": 36729,
        "rank_sort": 36861,
        "total": 2362
      },
      {
        "club_badge_src": null,
        "entry": 4015039,
        "entry_name": "Fc Schiethorst",
        "event_total": 60,
        "has_played": true,
        "id": 30256434,
        "last_rank": 35424,
        "player_name": "djim menses",
        "rank": 36729,
        "rank_sort": 36862,
        "total": 2362
      },
      {
        "club_badge_src": null,
        "entry": 4045714,
        "entry_name": "Crabbys XI",
        "event_total": 51,
        "has_played": true,
        "id": 30514066,
        "last_rank": 30060,
        "player_name": "Joe Crabtree",
        "rank": 36729,
        "rank_sort": 36863,
        "total": 2362
      },
      {
        "club_badge_src": null,
        "entry": 4179432,
        "entry_name": "Cherki Chicken",
        "event_total": 81,
        "has_played": true,
        "id": 31616433,
        "last_rank": 75139,
        "player_name": "Leo Fountain",
        "rank": 36729,
        "rank_sort": 36864,
        "total": 2362
      },
      {
        "club_badge_src": null,
        "entry": 4197730,
        "entry_name": "FPL Kill$witch24",
        "event_total": 58,
        "has_played": true,
        "id": 31773129,
        "last_rank": 37822,
        "player_name": "KITTI KRITJAROONRUK",
        "rank": 36729,
        "rank_sort": 36865,
        "total": 2362
      },
      {
        "club_badge_src": "https://fantasy.premierleague.com/gcs/plfpl-production-adobe-approved/plfpl-production/4201645/66afc5c0-a354-4085-8d3e-a34e1fa0f8ec.png",
        "entry": 4201645,
        "entry_name": "beast team",
        "event_total": 64,
        "has_played": true,
        "id": 31805538,
        "last_rank": 40036,
        "player_name": "Oliver J Reite",
        "rank": 36729,
        "rank_sort": 36866,
        "total": 2362
      },
      {
        "club_badge_src": null,
        "entry": 4209373,
        "entry_name": "Brad Bottlers",
        "event_total": 43,
        "has_played": true,
        "id": 31869654,
        "last_rank": 22830,
        "player_name": "Brad Till",
        "rank": 36729,
        "rank_sort": 36867,
        "total": 2362
      },
      {
        "club_badge_src": null,
        "entry": 4263719,
        "entry_name": "Lamp",
        "event_total": 89,
        "has_played": true,
        "id": 32328969,
        "last_rank": 94255,
        "player_name": "Patrick Lam",
        "rank": 36729,
        "rank_sort": 36868,
        "total": 2362
      },
      {
        "club_badge_src": "https://fantasy.premierleague.com/gcs/plfpl-production-adobe-approved/plfpl-production/4369205/aec8ae8c-1f8c-4705-9027-e78b61cd975a.png",
        "entry": 4369205,
        "entry_name": "Hammertime FC",
        "event_total": 61,
        "has_played": true,
        "id": 33192325,
        "last_rank": 41617,
        "player_name": "Damien Hunt",
        "rank": 36729,
        "rank_sort": 36869,
        "total": 2362
      },
      {
        "club_badge_src": null,
        "entry": 4369640,
        "entry_name": "Access to Lee Dixons",
        "event_total": 51,
        "has_played": true,
        "id": 33196019,
        "last_rank": 30060,
        "player_name": "Will Richens",
        "rank": 36729,
        "rank_sort": 36870,
        "total": 2362
      },
      {
        "club_badge_src": null,
        "entry": 4491204,
        "entry_name": "kezzas Xi",
        "event_total": 50,
        "has_played": true,
        "id": 34234473,
        "last_rank": 29071,
        "player_name": "Kieran Page",
        "rank": 36729,
        "rank_sort": 36871,
        "total": 2362
      },
      {
        "club_badge_src": null,
        "entry": 4530702,
        "entry_name": "Kings FC",
        "event_total": 75,
        "has_played": true,
        "id": 34558816,
        "last_rank": 64190,
        "player_name": "\u041c\u0438\u0440\u043e \u0410\u043d\u0435\u0432",
        "rank": 36729,
        "rank_sort": 36872,
        "total": 2362
      },
      {
        "club_badge_src": null,
        "entry": 4540789,
        "entry_name": "Overthinking FC",
        "event_total": 40,
        "has_played": true,
        "id": 34641809,
        "last_rank": 17585,
        "player_name": "Aled Clarridge",
        "rank": 36729,
        "rank_sort": 36873,
        "total": 2362
      },
      {
        "club_badge_src": null,
        "entry": 4571365,
        "entry_name": "Vinisuce le moi",
        "event_total": 68,
        "has_played": true,
        "id": 34887438,
        "last_rank": 40036,
        "player_name": "Edwin Khouri",
        "rank": 36729,
        "rank_sort": 36874,
        "total": 2362
      },
      {
        "club_badge_src": null,
        "entry": 4582537,
        "entry_name": "Kusiluistin",
        "event_total": 52,
        "has_played": true,
        "id": 34984187,
        "last_rank": 31125,
        "player_name": "Antti Numminen",
        "rank": 36729,
        "rank_sort": 36875,
        "total": 2362
      },
      {
        "club_badge_src": null,
        "entry": 4647676,
        "entry_name": "Vinnie vidi vici",
        "event_total": 63,
        "has_played": true,
        "id": 35554809,
        "last_rank": 44303,
        "player_name": "Vincent Sundberg",
        "rank": 36729,
        "rank_sort": 36876,
        "total": 2362
      },
      {
        "club_badge_src": null,
        "entry": 4869589,
        "entry_name": "Diallo Diallo",
        "event_total": 71,
        "has_played": true,
        "id": 37533416,
        "last_rank": 57001,
        "player_name": "Temi Babasanya",
        "rank": 36729,
        "rank_sort": 36877,
        "total": 2362
      },
      {
        "club_badge_src": null,
        "entry": 4879369,
        "entry_name": "SQ",
        "event_total": 51,
        "has_played": true,
        "id": 37613514,
        "last_rank": 30060,
        "player_name": "S Alkamesi",
        "rank": 36729,
        "rank_sort": 36878,
        "total": 2362
      },
      {
        "club_badge_src": null,
        "entry": 4913601,
        "entry_name": "PetertheGr8",
        "event_total": 61,
        "has_played": true,
        "id": 37894761,
        "last_rank": 31747,
        "player_name": "Peter Thomas",
        "rank": 36729,
        "rank_sort": 36879,
        "total": 2362
      },
      {
        "club_badge_src": "https://fantasy.premierleague.com/gcs/plfpl-production-adobe-approved/plfpl-production/4949223/8f7756e2-b303-4e96-8e93-077c0d2b84a1.png",
        "entry": 4949223,
        "entry_name": "Crystal Shanty",
        "event_total": 57,
        "has_played": true,
        "id": 38188857,
        "last_rank": 36624,
        "player_name": "Sami Ed",
        "rank": 36729,
        "rank_sort": 36880,
        "total": 2362
      },
      {
        "club_badge_src": null,
        "entry": 4970497,
        "entry_name": "Rooney Tunes",
        "event_total": 65,
        "has_played": true,
        "id": 38361660,
        "last_rank": 47417,
        "player_name": "Luke Harris",
        "rank": 36729,
        "rank_sort": 36881,
        "total": 2362
      },
      {
        "club_badge_src": null,
        "entry": 4989378,
        "entry_name": "Jerkin my Cherkin",
        "event_total": 77,
        "has_played": true,
        "id": 38518969,
        "last_rank": 60168,
        "player_name": "Adam Cole",
        "rank": 36729,
        "rank_sort": 36882,
        "total": 2362
      },
      {
        "club_badge_src": null,
        "entry": 5123110,
        "entry_name": "Skanckes Utvalgte",
        "event_total": 69,
        "has_played": true,
        "id": 39616339,
        "last_rank": 53023,
        "player_name": "\u00c5smund Karlsnes",
        "rank": 36729,
        "rank_sort": 36883,
        "total": 2362
      },
      {
        "club_badge_src": null,
        "entry": 5166580,
        "entry_name": "Dights Delights",
        "event_total": 71,
        "has_played": true,
        "id": 39984095,
        "last_rank": 57001,
        "player_name": "Johnathan Dight",
        "rank": 36729,
        "rank_sort": 36884,
        "total": 2362
      },
      {
        "club_badge_src": null,
        "entry": 5195010,
        "entry_name": "kaffemedGY\u00d6Keres",
        "event_total": 46,
        "has_played": true,
        "id": 40221886,
        "last_rank": 25330,
        "player_name": "David Rickard Hermansson",
        "rank": 36729,
        "rank_sort": 36885,
        "total": 2362
      },
      {
        "club_badge_src": null,
        "entry": 5259638,
        "entry_name": "Pepsi Max FC",
        "event_total": 59,
        "has_played": true,
        "id": 40764496,
        "last_rank": 34293,
        "player_name": "Silje Lunde",
        "rank": 36729,
        "rank_sort": 36886,
        "total": 2362
      },
      {
        "club_badge_src": null,
        "entry": 5308557,
        "entry_name": "BurnedByTheMoyesiah",
        "event_total": 76,
        "has_played": true,
        "id": 41149818,
        "last_rank": 65475,
        "player_name": "David Mansfield",
        "rank": 36729,
        "rank_sort": 36887,
        "total": 2362
      },
      {
        "club_badge_src": null,
        "entry": 5364274,
        "entry_name": "Beto Late Than Never",
        "event_total": 65,
        "has_played": true,
        "id": 41669496,
        "last_rank": 41617,
        "player_name": "Peter Tomlinson",
        "rank": 36729,
        "rank_sort": 36888,
        "total": 2362
      },
      {
        "club_badge_src": null,
        "entry": 5490299,
        "entry_name": "The Gunners",
        "event_total": 56,
        "has_played": true,
        "id": 42760095,
        "last_rank": 35619,
        "player_name": "Kristoffer Lillev\u00e5je",
        "rank": 36729,
        "rank_sort": 36889,
        "total": 2362
      },
      {
        "club_badge_src": null,
        "entry": 5589425,
        "entry_name": "Test",
        "event_total": 45,
        "has_played": true,
        "id": 43664823,
        "last_rank": 24475,
        "player_name": "Sam Honey",
        "rank": 36729,
        "rank_sort": 36890,
        "total": 2362
      },
      {
        "club_badge_src": null,
        "entry": 5746949,
        "entry_name": "in for the craic",
        "event_total": 58,
        "has_played": true,
        "id": 45040512,
        "last_rank": 38016,
        "player_name": "Gary Quigley",
        "rank": 36729,
        "rank_sort": 36891,
        "total": 2362
      },
      {
        "club_badge_src": null,
        "entry": 5887379,
        "entry_name": "LiverWirtz",
        "event_total": 45,
        "has_played": true,
        "id": 46247474,
        "last_rank": 24570,
        "player_name": "Tim McCarthy",
        "rank": 36729,
        "rank_sort": 36892,
        "total": 2362
      },
      {
        "club_badge_src": "https://fantasy.premierleague.com/gcs/plfpl-production-adobe-approved/plfpl-production/6174209/67277e7c-af07-468c-aa48-1c012b91c0c4.png",
        "entry": 6174209,
        "entry_name": "MVP's",
        "event_total": 39,
        "has_played": true,
        "id": 48822258,
        "last_rank": 19721,
        "player_name": "Mohamed Saanim",
        "rank": 36729,
        "rank_sort": 36893,
        "total": 2362
      },
      {
        "club_badge_src": null,
        "entry": 6183406,
        "entry_name": "Forza azzurri",
        "event_total": 50,
        "has_played": true,
        "id": 48901702,
        "last_rank": 28906,
        "player_name": "khaled Alfadhala",
        "rank": 36729,
        "rank_sort": 36894,
        "total": 2362
      },
      {
        "club_badge_src": null,
        "entry": 6299072,
        "entry_name": "YANGTSO",
        "event_total": 68,
        "has_played": true,
        "id": 49933088,
        "last_rank": 51984,
        "player_name": "Tshering Wangchuk",
        "rank": 36729,
        "rank_sort": 36895,
        "total": 2362
      },
      {
        "club_badge_src": null,
        "entry": 6304245,
        "entry_name": "relegation nation",
        "event_total": 55,
        "has_played": true,
        "id": 49991624,
        "last_rank": 34458,
        "player_name": "Eric Ares",
        "rank": 36729,
        "rank_sort": 36896,
        "total": 2362
      },
      {
        "club_badge_src": null,
        "entry": 6635116,
        "entry_name": "2 Much FC",
        "event_total": 61,
        "has_played": true,
        "id": 53032822,
        "last_rank": 41617,
        "player_name": "Darren Strauss",
        "rank": 36729,
        "rank_sort": 36897,
        "total": 2362
      },
      {
        "club_badge_src": null,
        "entry": 6688193,
        "entry_name": "Kinder Mbuemo",
        "event_total": 68,
        "has_played": true,
        "id": 53504561,
        "last_rank": 51403,
        "player_name": "Rian Wallace",
        "rank": 36729,
        "rank_sort": 36898,
        "total": 2362
      },
      {
        "club_badge_src": null,
        "entry": 6717852,
        "entry_name": "ibbyPaz",
        "event_total": 67,
        "has_played": true,
        "id": 53763737,
        "last_rank": 50199,
        "player_name": "Ibby Pazir",
        "rank": 36729,
        "rank_sort": 36899,
        "total": 2362
      },
      {
        "club_badge_src": null,
        "entry": 6822276,
        "entry_name": "second place suits u",
        "event_total": 67,
        "has_played": true,
        "id": 54643564,
        "last_rank": 38644,
        "player_name": "THE CONQUEROR - -",
        "rank": 36729,
        "rank_sort": 36900,
        "total": 2362
      }
    ]
  }
}