{
  "last_updated_data": "2026-05-24T23:28:17Z",
  "league": {
    "admin_entry": null,
    "closed": false,
    "code_privacy": "p",
    "created": "2025-07-20T23:14:33.933835Z",
    "cup_league": 2815434,
    "has_cup": true,
    "id": 314,
    "league_type": "s",
    "max_entries": null,
    "name": "Overall",
    "rank": null,
    "scoring": "c",
    "start_event": 1
  },
  "new_entries": {
    "has_next": false,
    "page": 1,
    "results": []
  },
  "standings": {
    "has_next": true,
    "page": 1434,
    "results": [
      {
        "club_badge_src": null,
        "entry": 9667280,
        "entry_name": "Athletico Bihar",
        "event_total": 57,
        "has_played": true,
        "id": 82014150,
        "last_rank": 64830,
        "player_name": "Ishan Singh",
        "rank": 71517,
        "rank_sort": 71651,
        "total": 2339
      },
      {
        "club_badge_src": null,
        "entry": 10417316,
        "entry_name": "Jatujak Park Rangers",
        "event_total": 67,
        "has_played": true,
        "id": 88143819,
        "last_rank": 95527,
        "player_name": "Alan Platt",
        "rank": 71517,
        "rank_sort": 71652,
        "total": 2339
      },
      {
        "club_badge_src": null,
        "entry": 10733638,
        "entry_name": "She's an Eze Lover",
        "event_total": 63,
        "has_played": true,
        "id": 90664980,
        "last_rank": 85932,
        "player_name": "Carly Pescodd",
        "rank": 71517,
        "rank_sort": 71653,
        "total": 2339
      },
      {
        "club_badge_src": null,
        "entry": 1700,
        "entry_name": "Enter_Team_Name_;)",
        "event_total": 58,
        "has_played": true,
        "id": 9459,
        "last_rank": 75139,
        "player_name": "Billaras C",
        "rank": 71654,
        "rank_sort": 71654,
        "total": 2339
      },
      {
        "club_badge_src": "https://fantasy.premierleague.com/gcs/plfpl-production-adobe-approved/plfpl-production/2234/fc882e67-b8a9-4d39-83b7-474171b91748.png",
        "entry": 2234,
        "entry_name": "Gakpocalypse Now",
        "event_total": 67,
        "has_played": true,
        "id": 12459,
        "last_rank": 95890,
        "player_name": "Jan K\u0119pski",
        "rank": 71654,
        "rank_sort": 71655,
        "total": 2339
      },
      {
        "club_badge_src": null,
        "entry": 6810,
        "entry_name": "Kvame United",
        "event_total": 52,
        "has_played": true,
        "id": 39172,
        "last_rank": 63080,
        "player_name": "Ole Rasmus Kvame",
        "rank": 71654,
        "rank_sort": 71656,
        "total": 2339
      },
      {
        "club_badge_src": null,
        "entry": 11236,
        "entry_name": "AFC Hughes",
        "event_total": 55,
        "has_played": true,
        "id": 66721,
        "last_rank": 68748,
        "player_name": "Daniel Hughes",
        "rank": 71654,
        "rank_sort": 71657,
        "total": 2339
      },
      {
        "club_badge_src": null,
        "entry": 12205,
        "entry_name": "Speck's Angels",
        "event_total": 74,
        "has_played": true,
        "id": 72830,
        "last_rank": 114292,
        "player_name": "Matthew Speck",
        "rank": 71654,
        "rank_sort": 71658,
        "total": 2339
      },
      {
        "club_badge_src": null,
        "entry": 12276,
        "entry_name": "My Little Toney",
        "event_total": 73,
        "has_played": true,
        "id": 73283,
        "last_rank": 111405,
        "player_name": "Harrison Rudd",
        "rank": 71654,
        "rank_sort": 71659,
        "total": 2339
      },
      {
        "club_badge_src": "https://fantasy.premierleague.com/gcs/plfpl-production-adobe-approved/plfpl-production/20942/c93f5212-d10f-44bd-930d-8726cb923903.png",
        "entry": 20942,
        "entry_name": "Arteta\u2019s Hairline",
        "event_total": 68,
        "has_played": true,
        "id": 131146,
        "last_rank": 98011,
        "player_name": "Nick Miokovic",
        "rank": 71654,
        "rank_sort": 71660,
        "total": 2339
      },
      {
        "club_badge_src": null,
        "entry": 21950,
        "entry_name": "Stonemountain FC",
        "event_total": 58,
        "has_played": true,
        "id": 137732,
        "last_rank": 74787,
        "player_name": "Gustav Stenberg",
        "rank": 71654,
        "rank_sort": 71661,
        "total": 2339
      },
      {
        "club_badge_src": null,
        "entry": 24288,
        "entry_name": "MTBTTF",
        "event_total": 30,
        "has_played": true,
        "id": 153277,
        "last_rank": 31747,
        "player_name": "Paul Yaya",
        "rank": 71654,
        "rank_sort": 71662,
        "total": 2339
      },
      {
        "club_badge_src": "https://fantasy.premierleague.com/gcs/plfpl-production-adobe-approved/plfpl-production/25939/609ac64f-265d-488f-b347-17df67b98559.png",
        "entry": 25939,
        "entry_name": "I love Huel",
        "event_total": 58,
        "has_played": true,
        "id": 164029,
        "last_rank": 75537,
        "player_name": "Charlie Way",
        "rank": 71654,
        "rank_sort": 71663,
        "total": 2339
      },
      {
        "club_badge_src": null,
        "entry": 33463,
        "entry_name": "Loading name...",
        "event_total": 53,
        "has_played": true,
        "id": 213419,
        "last_rank": 65163,
        "player_name": "Devak Bakhai",
        "rank": 71654,
        "rank_sort": 71664,
        "total": 2339
      },
      {
        "club_badge_src": "https://fantasy.premierleague.com/gcs/plfpl-production-adobe-approved/plfpl-production/34187/3e60c528-8c10-49ba-a56b-baa228f180a3.png",
        "entry": 34187,
        "entry_name": "Shoulda Woulda Kudus",
        "event_total": 62,
        "has_played": true,
        "id": 218324,
        "last_rank": 83934,
        "player_name": "Geo Metson",
        "rank": 71654,
        "rank_sort": 71665,
        "total": 2339
      },
      {
        "club_badge_src": null,
        "entry": 38844,
        "entry_name": "In the beck XI",
        "event_total": 56,
        "has_played": true,
        "id": 249003,
        "last_rank": 70757,
        "player_name": "Rik Andrews",
        "rank": 71654,
        "rank_sort": 71666,
        "total": 2339
      },
      {
        "club_badge_src": null,
        "entry": 40438,
        "entry_name": "Wirtz Nightmare",
        "event_total": 53,
        "has_played": true,
        "id": 259257,
        "last_rank": 65163,
        "player_name": "Marcus Dunn",
        "rank": 71654,
        "rank_sort": 71667,
        "total": 2339
      },
      {
        "club_badge_src": null,
        "entry": 41534,
        "entry_name": "Kokala Appr Society",
        "event_total": 65,
        "has_played": true,
        "id": 266106,
        "last_rank": 90746,
        "player_name": "Ilia Markov",
        "rank": 71654,
        "rank_sort": 71668,
        "total": 2339
      },
      {
        "club_badge_src": null,
        "entry": 44314,
        "entry_name": "The Power Reijnders",
        "event_total": 38,
        "has_played": true,
        "id": 283983,
        "last_rank": 41162,
        "player_name": "Omry Malka",
        "rank": 71654,
        "rank_sort": 71669,
        "total": 2339
      },
      {
        "club_badge_src": null,
        "entry": 46998,
        "entry_name": "Major League Saka",
        "event_total": 55,
        "has_played": true,
        "id": 301348,
        "last_rank": 68957,
        "player_name": "blake green",
        "rank": 71654,
        "rank_sort": 71670,
        "total": 2339
      },
      {
        "club_badge_src": null,
        "entry": 47269,
        "entry_name": "@FPL_Cordeiro",
        "event_total": 58,
        "has_played": true,
        "id": 303133,
        "last_rank": 74787,
        "player_name": "Gabriel Cordeiro",
        "rank": 71654,
        "rank_sort": 71671,
        "total": 2339
      },
      {
        "club_badge_src": null,
        "entry": 61071,
        "entry_name": "Bruno Dos Tres",
        "event_total": 62,
        "has_played": true,
        "id": 393243,
        "last_rank": 83584,
        "player_name": "Eileen Whiteside",
        "rank": 71654,
        "rank_sort": 71672,
        "total": 2339
      },
      {
        "club_badge_src": null,
        "entry": 65920,
        "entry_name": "Lonely at the Top",
        "event_total": 56,
        "has_played": true,
        "id": 425854,
        "last_rank": 70985,
        "player_name": "Harry May",
        "rank": 71654,
        "rank_sort": 71673,
        "total": 2339
      },
      {
        "club_badge_src": null,
        "entry": 68546,
        "entry_name": "Oofy FC",
        "event_total": 43,
        "has_played": true,
        "id": 444161,
        "last_rank": 48197,
        "player_name": "Brady Ford",
        "rank": 71654,
        "rank_sort": 71674,
        "total": 2339
      },
      {
        "club_badge_src": null,
        "entry": 72375,
        "entry_name": "Baines on Toast",
        "event_total": 59,
        "has_played": true,
        "id": 470297,
        "last_rank": 77258,
        "player_name": "Matthew Baines",
        "rank": 71654,
        "rank_sort": 71675,
        "total": 2339
      },
      {
        "club_badge_src": "https://fantasy.premierleague.com/gcs/plfpl-production-adobe-approved/plfpl-production/72836/dced15c9-d152-40cf-8b76-8e9b267b7004.png",
        "entry": 72836,
        "entry_name": "Mogwai FC",
        "event_total": 64,
        "has_played": true,
        "id": 473380,
        "last_rank": 88348,
        "player_name": "Sir Alex KLF",
        "rank": 71654,
        "rank_sort": 71676,
        "total": 2339
      },
      {
        "club_badge_src": null,
        "entry": 84808,
        "entry_name": "Local Hardmen",
        "event_total": 59,
        "has_played": true,
        "id": 552220,
        "last_rank": 77258,
        "player_name": "Alex bright",
        "rank": 71654,
        "rank_sort": 71677,
        "total": 2339
      },
      {
        "club_badge_src": null,
        "entry": 85798,
        "entry_name": "R\u00e6kjurnar",
        "event_total": 63,
        "has_played": true,
        "id": 558934,
        "last_rank": 86304,
        "player_name": "Finnbogi Rafn J\u00f3nsson",
        "rank": 71654,
        "rank_sort": 71678,
        "total": 2339
      },
      {
        "club_badge_src": null,
        "entry": 86811,
        "entry_name": "Leon's lekeland",
        "event_total": 60,
        "has_played": true,
        "id": 565843,
        "last_rank": 79431,
        "player_name": "Kim Sukkestad",
        "rank": 71654,
        "rank_sort": 71679,
        "total": 2339
      },
      {
        "club_badge_src": null,
        "entry": 86922,
        "entry_name": "Rutter Woke Nonsense",
        "event_total": 68,
        "has_played": true,
        "id": 566658,
        "last_rank": 98436,
        "player_name": "Leighton Cummings",
        "rank": 71654,
        "rank_sort": 71680,
        "total": 2339
      },
      {
        "club_badge_src": "https://fantasy.premierleague.com/gcs/plfpl-production-adobe-approved/plfpl-production/91100/af5e13f9-d602-4454-a5b2-93de3d9f84b4.png",
        "entry": 91100,
        "entry_name": "The Oracle",
        "event_total": 58,
        "has_played": true,
        "id": 594941,
        "last_rank": 74898,
        "player_name": "Vas .",
        "rank": 71654,
        "rank_sort": 71681,
        "total": 2339
      },
      {
        "club_badge_src": null,
        "entry": 105511,
        "entry_name": "FC CHOOKER",
        "event_total": 67,
        "has_played": true,
        "id": 688150,
        "last_rank": 95527,
        "player_name": "Chuka Iwunze",
        "rank": 71654,
        "rank_sort": 71682,
        "total": 2339
      },
      {
        "club_badge_src": null,
        "entry": 108073,
        "entry_name": "Cocojam FC",
        "event_total": 52,
        "has_played": true,
        "id": 704605,
        "last_rank": 63117,
        "player_name": "Han Liang Chong",
        "rank": 71654,
        "rank_sort": 71683,
        "total": 2339
      },
      {
        "club_badge_src": null,
        "entry": 114259,
        "entry_name": "Snoop Udogie dog",
        "event_total": 61,
        "has_played": true,
        "id": 745302,
        "last_rank": 81420,
        "player_name": "Joshua O'Leary",
        "rank": 71654,
        "rank_sort": 71684,
        "total": 2339
      },
      {
        "club_badge_src": null,
        "entry": 130199,
        "entry_name": "Borussia Teeth",
        "event_total": 69,
        "has_played": true,
        "id": 848448,
        "last_rank": 100949,
        "player_name": "Aidan Collins",
        "rank": 71654,
        "rank_sort": 71685,
        "total": 2339
      },
      {
        "club_badge_src": null,
        "entry": 135969,
        "entry_name": "FC Barkerlona",
        "event_total": 55,
        "has_played": true,
        "id": 885546,
        "last_rank": 68957,
        "player_name": "Jay Barker",
        "rank": 71654,
        "rank_sort": 71686,
        "total": 2339
      },
      {
        "club_badge_src": null,
        "entry": 140498,
        "entry_name": "Zuuuubimendiii",
        "event_total": 57,
        "has_played": true,
        "id": 917487,
        "last_rank": 72815,
        "player_name": "Benedict Peh",
        "rank": 71654,
        "rank_sort": 71687,
        "total": 2339
      },
      {
        "club_badge_src": null,
        "entry": 141288,
        "entry_name": "Backbones",
        "event_total": 66,
        "has_played": true,
        "id": 923057,
        "last_rank": 93443,
        "player_name": "David Lever",
        "rank": 71654,
        "rank_sort": 71688,
        "total": 2339
      },
      {
        "club_badge_src": null,
        "entry": 153924,
        "entry_name": "miernoty i harnasie",
        "event_total": 60,
        "has_played": true,
        "id": 1011004,
        "last_rank": 79079,
        "player_name": "Olek Olek",
        "rank": 71654,
        "rank_sort": 71689,
        "total": 2339
      },
      {
        "club_badge_src": "https://fantasy.premierleague.com/gcs/plfpl-production-adobe-approved/plfpl-production/159081/814e382a-9ff1-4303-9ccc-b507bd4f9cb2.png",
        "entry": 159081,
        "entry_name": "MorNor",
        "event_total": 57,
        "has_played": true,
        "id": 1046896,
        "last_rank": 73038,
        "player_name": "Morten Nordahl",
        "rank": 71654,
        "rank_sort": 71690,
        "total": 2339
      },
      {
        "club_badge_src": "https://fantasy.premierleague.com/gcs/plfpl-production-adobe-approved/plfpl-production/159683/b51770cf-ac95-484b-bb9f-223b2cebffe7.png",
        "entry": 159683,
        "entry_name": "Arezzo",
        "event_total": 50,
        "has_played": true,
        "id": 1051115,
        "last_rank": 59813,
        "player_name": "Sajed Hamadi",
        "rank": 71654,
        "rank_sort": 71691,
        "total": 2339
      },
      {
        "club_badge_src": null,
        "entry": 162884,
        "entry_name": "Baby reijnders",
        "event_total": 66,
        "has_played": true,
        "id": 1073954,
        "last_rank": 93052,
        "player_name": "Keith Y",
        "rank": 71654,
        "rank_sort": 71692,
        "total": 2339
      },
      {
        "club_badge_src": null,
        "entry": 165384,
        "entry_name": "Noni your business",
        "event_total": 64,
        "has_played": true,
        "id": 1091896,
        "last_rank": 88249,
        "player_name": "Malte Blomdahl",
        "rank": 71654,
        "rank_sort": 71693,
        "total": 2339
      },
      {
        "club_badge_src": null,
        "entry": 207137,
        "entry_name": "Azeezy As That",
        "event_total": 56,
        "has_played": true,
        "id": 1376747,
        "last_rank": 70985,
        "player_name": "David Lewins",
        "rank": 71654,
        "rank_sort": 71694,
        "total": 2339
      },
      {
        "club_badge_src": null,
        "entry": 227014,
        "entry_name": "Fibonacci FC",
        "event_total": 62,
        "has_played": true,
        "id": 1510094,
        "last_rank": 83934,
        "player_name": "Ifeanyi Zette OBE",
        "rank": 71654,
        "rank_sort": 71695,
        "total": 2339
      },
      {
        "club_badge_src": null,
        "entry": 242104,
        "entry_name": "Olympic Marshall",
        "event_total": 60,
        "has_played": true,
        "id": 1611544,
        "last_rank": 79190,
        "player_name": "Barthez Maerschalck",
        "rank": 71654,
        "rank_sort": 71696,
        "total": 2339
      },
      {
        "club_badge_src": "https://fantasy.premierleague.com/gcs/plfpl-production-adobe-approved/plfpl-production/254010/b61a61e5-ccf4-4423-8517-8dcbf5b52804.png",
        "entry": 254010,
        "entry_name": "Open-AI -Na",
        "event_total": 59,
        "has_played": true,
        "id": 1689705,
        "last_rank": 77050,
        "player_name": "Tim Chattaway",
        "rank": 71654,
        "rank_sort": 71697,
        "total": 2339
      },
      {
        "club_badge_src": null,
        "entry": 263379,
        "entry_name": "Sir Edward Howe FC",
        "event_total": 69,
        "has_played": true,
        "id": 1751181,
        "last_rank": 100700,
        "player_name": "Mark Bullock",
        "rank": 71654,
        "rank_sort": 71698,
        "total": 2339
      },
      {
        "club_badge_src": "https://fantasy.premierleague.com/gcs/plfpl-production-adobe-approved/plfpl-production/275024/d7914957-bd30-4ae7-9419-05f18b3248a7.png",
        "entry": 275024,
        "entry_name": "Rice Rice Baby",
        "event_total": 55,
        "has_played": true,
        "id": 1830179,
        "last_rank": 68748,
        "player_name": "Ludvig Arvidsson",
        "rank": 71654,
        "rank_sort": 71699,
        "total": 2339
      },
      {
        "club_badge_src": null,
        "entry": 275409,
        "entry_name": "FIK",
        "event_total": 58,
        "has_played": true,
        "id": 1832879,
        "last_rank": 74898,
        "player_name": "Marcus Sundberg",
        "rank": 71654,
        "rank_sort": 71700,
        "total": 2339
      }
    ]
  }
}