{
  "last_updated_data": "2026-05-24T23:28:17Z",
  "league": {
    "admin_entry": null,
    "closed": false,
    "code_privacy": "p",
    "created": "2025-07-20T23:14:33.933835Z",
    "cup_league": 2815434,
    "has_cup": true,
    "id": 314,
    "league_type": "s",
    "max_entries": null,
    "name": "Overall",
    "rank": null,
    "scoring": "c",
    "start_event": 1
  },
  "new_entries": {
    "has_next": false,
    "page": 1,
    "results": []
  },
  "standings": {
    "has_next": true,
    "page": 1180,
    "results": [
      {
        "club_badge_src": null,
        "entry": 155975,
        "entry_name": "Chili con Carney",
        "event_total": 68,
        "has_played": true,
        "id": 1025515,
        "last_rank": 81420,
        "player_name": "Enk Zeg",
        "rank": 58914,
        "rank_sort": 58951,
        "total": 2346
      },
      {
        "club_badge_src": null,
        "entry": 157557,
        "entry_name": "h.t.w",
        "event_total": 74,
        "has_played": true,
        "id": 1036528,
        "last_rank": 96374,
        "player_name": "ibrahim ashraf",
        "rank": 58914,
        "rank_sort": 58952,
        "total": 2346
      },
      {
        "club_badge_src": null,
        "entry": 162018,
        "entry_name": "Rhubarbs Mk II",
        "event_total": 60,
        "has_played": true,
        "id": 1067751,
        "last_rank": 64943,
        "player_name": "stephen coomber",
        "rank": 58914,
        "rank_sort": 58953,
        "total": 2346
      },
      {
        "club_badge_src": null,
        "entry": 166304,
        "entry_name": "Greggs FC",
        "event_total": 53,
        "has_played": true,
        "id": 1098669,
        "last_rank": 52853,
        "player_name": "Jack Holmes",
        "rank": 58914,
        "rank_sort": 58954,
        "total": 2346
      },
      {
        "club_badge_src": null,
        "entry": 169014,
        "entry_name": "Stingy Dwarves",
        "event_total": 72,
        "has_played": true,
        "id": 1116957,
        "last_rank": 90625,
        "player_name": "Andreas Chantzos",
        "rank": 58914,
        "rank_sort": 58955,
        "total": 2346
      },
      {
        "club_badge_src": null,
        "entry": 170402,
        "entry_name": "Snoop Udogie Dogg",
        "event_total": 67,
        "has_played": true,
        "id": 1125831,
        "last_rank": 79190,
        "player_name": "Owen Lewis",
        "rank": 58914,
        "rank_sort": 58956,
        "total": 2346
      },
      {
        "club_badge_src": null,
        "entry": 171098,
        "entry_name": "Grecian Gas",
        "event_total": 68,
        "has_played": true,
        "id": 1130347,
        "last_rank": 81420,
        "player_name": "Daniel Harding",
        "rank": 58914,
        "rank_sort": 58957,
        "total": 2346
      },
      {
        "club_badge_src": "https://fantasy.premierleague.com/gcs/plfpl-production-adobe-approved/plfpl-production/177374/595dc1c8-50a6-4888-b113-324b2b758c36.png",
        "entry": 177374,
        "entry_name": "Cold Palmer",
        "event_total": 72,
        "has_played": true,
        "id": 1170728,
        "last_rank": 90746,
        "player_name": "Hikmat Irham",
        "rank": 58914,
        "rank_sort": 58958,
        "total": 2346
      },
      {
        "club_badge_src": null,
        "entry": 182141,
        "entry_name": "BK Badrum",
        "event_total": 61,
        "has_played": true,
        "id": 1201935,
        "last_rank": 67063,
        "player_name": "Michael Mannila",
        "rank": 58914,
        "rank_sort": 58959,
        "total": 2346
      },
      {
        "club_badge_src": null,
        "entry": 191664,
        "entry_name": "minteh fresh",
        "event_total": 57,
        "has_played": true,
        "id": 1269571,
        "last_rank": 59813,
        "player_name": "Alex Brown",
        "rank": 58914,
        "rank_sort": 58960,
        "total": 2346
      },
      {
        "club_badge_src": null,
        "entry": 201554,
        "entry_name": "Bolin babes",
        "event_total": 49,
        "has_played": true,
        "id": 1338306,
        "last_rank": 46660,
        "player_name": "Jonathan Bolin",
        "rank": 58914,
        "rank_sort": 58961,
        "total": 2346
      },
      {
        "club_badge_src": "https://fantasy.premierleague.com/gcs/plfpl-production-adobe-approved/plfpl-production/202742/ecfdc514-fb2b-412c-96dd-ba988a9c3bb2.png",
        "entry": 202742,
        "entry_name": "McNeil Before Me",
        "event_total": 57,
        "has_played": true,
        "id": 1346537,
        "last_rank": 59632,
        "player_name": "Charlie Dove",
        "rank": 58914,
        "rank_sort": 58962,
        "total": 2346
      },
      {
        "club_badge_src": null,
        "entry": 206262,
        "entry_name": "Hangover Achievers",
        "event_total": 44,
        "has_played": true,
        "id": 1370943,
        "last_rank": 40036,
        "player_name": "Chris Clarkson",
        "rank": 58914,
        "rank_sort": 58963,
        "total": 2346
      },
      {
        "club_badge_src": null,
        "entry": 207994,
        "entry_name": "Chips Overload",
        "event_total": 42,
        "has_played": true,
        "id": 1382670,
        "last_rank": 37376,
        "player_name": "Julio Silva",
        "rank": 58914,
        "rank_sort": 58964,
        "total": 2346
      },
      {
        "club_badge_src": null,
        "entry": 211405,
        "entry_name": "Farke the IOF",
        "event_total": 67,
        "has_played": true,
        "id": 1406123,
        "last_rank": 79431,
        "player_name": "Sameer Brown",
        "rank": 58914,
        "rank_sort": 58965,
        "total": 2346
      },
      {
        "club_badge_src": "https://fantasy.premierleague.com/gcs/plfpl-production-adobe-approved/plfpl-production/216261/1805ceaa-a77d-473d-9b5a-9e0eb01d3c32.png",
        "entry": 216261,
        "entry_name": "Emanon",
        "event_total": 58,
        "has_played": true,
        "id": 1438355,
        "last_rank": 61258,
        "player_name": "Allan Claybon",
        "rank": 58914,
        "rank_sort": 58966,
        "total": 2346
      },
      {
        "club_badge_src": null,
        "entry": 217950,
        "entry_name": "Sergio Von Falafel",
        "event_total": 70,
        "has_played": true,
        "id": 1449381,
        "last_rank": 85870,
        "player_name": "James Bushby",
        "rank": 58914,
        "rank_sort": 58967,
        "total": 2346
      },
      {
        "club_badge_src": null,
        "entry": 221680,
        "entry_name": "Kunda P\u00fcssid",
        "event_total": 59,
        "has_played": true,
        "id": 1474427,
        "last_rank": 63390,
        "player_name": "Rauno Kahem",
        "rank": 58914,
        "rank_sort": 58968,
        "total": 2346
      },
      {
        "club_badge_src": null,
        "entry": 228682,
        "entry_name": "Selby98",
        "event_total": 66,
        "has_played": true,
        "id": 1521398,
        "last_rank": 77050,
        "player_name": "George Selby",
        "rank": 58914,
        "rank_sort": 58969,
        "total": 2346
      },
      {
        "club_badge_src": null,
        "entry": 228921,
        "entry_name": "Markchester United",
        "event_total": 75,
        "has_played": true,
        "id": 1523043,
        "last_rank": 98183,
        "player_name": "Mark Chester",
        "rank": 58914,
        "rank_sort": 58970,
        "total": 2346
      },
      {
        "club_badge_src": null,
        "entry": 235635,
        "entry_name": "RaceGPCharts",
        "event_total": 56,
        "has_played": true,
        "id": 1567889,
        "last_rank": 58071,
        "player_name": "Marco Silva",
        "rank": 58914,
        "rank_sort": 58971,
        "total": 2346
      },
      {
        "club_badge_src": null,
        "entry": 239083,
        "entry_name": "Scott Chegg",
        "event_total": 66,
        "has_played": true,
        "id": 1590927,
        "last_rank": 77258,
        "player_name": "Ryan Cambray",
        "rank": 58914,
        "rank_sort": 58972,
        "total": 2346
      },
      {
        "club_badge_src": null,
        "entry": 246473,
        "entry_name": "Mah Dude",
        "event_total": 72,
        "has_played": true,
        "id": 1640871,
        "last_rank": 90746,
        "player_name": "Kristian Howard",
        "rank": 58914,
        "rank_sort": 58973,
        "total": 2346
      },
      {
        "club_badge_src": null,
        "entry": 249982,
        "entry_name": "Lillyhammer FC",
        "event_total": 44,
        "has_played": true,
        "id": 1663345,
        "last_rank": 39874,
        "player_name": "Joakim Heldenius",
        "rank": 58914,
        "rank_sort": 58974,
        "total": 2346
      },
      {
        "club_badge_src": null,
        "entry": 251370,
        "entry_name": "Eddy's Barmy Army",
        "event_total": 59,
        "has_played": true,
        "id": 1672322,
        "last_rank": 63201,
        "player_name": "Joe Edmond",
        "rank": 58914,
        "rank_sort": 58975,
        "total": 2346
      },
      {
        "club_badge_src": null,
        "entry": 253143,
        "entry_name": "BallBesy",
        "event_total": 48,
        "has_played": true,
        "id": 1683677,
        "last_rank": 45416,
        "player_name": "Yuriy Lokshyn",
        "rank": 58914,
        "rank_sort": 58976,
        "total": 2346
      },
      {
        "club_badge_src": null,
        "entry": 265169,
        "entry_name": "nico",
        "event_total": 59,
        "has_played": true,
        "id": 1763607,
        "last_rank": 63201,
        "player_name": "Nicolas Horns",
        "rank": 58914,
        "rank_sort": 58977,
        "total": 2346
      },
      {
        "club_badge_src": null,
        "entry": 265346,
        "entry_name": "Little monkey fc",
        "event_total": 58,
        "has_played": true,
        "id": 1764818,
        "last_rank": 61411,
        "player_name": "Eaknakorn Farkporn",
        "rank": 58914,
        "rank_sort": 58978,
        "total": 2346
      },
      {
        "club_badge_src": null,
        "entry": 273533,
        "entry_name": "Peaky Reijnders",
        "event_total": 72,
        "has_played": true,
        "id": 1820073,
        "last_rank": 90746,
        "player_name": "Thorkil Kolstad",
        "rank": 58914,
        "rank_sort": 58979,
        "total": 2346
      },
      {
        "club_badge_src": null,
        "entry": 281101,
        "entry_name": "Pittonaters",
        "event_total": 68,
        "has_played": true,
        "id": 1870552,
        "last_rank": 81420,
        "player_name": "Max Pittom",
        "rank": 58914,
        "rank_sort": 58980,
        "total": 2346
      },
      {
        "club_badge_src": "https://fantasy.premierleague.com/gcs/plfpl-production-adobe-approved/plfpl-production/290439/a96c7a80-6464-400b-a325-c79c5725185d.png",
        "entry": 290439,
        "entry_name": "Gangster's Allardyce",
        "event_total": 60,
        "has_played": true,
        "id": 1936683,
        "last_rank": 65163,
        "player_name": "Luca Del-Signore",
        "rank": 58914,
        "rank_sort": 58981,
        "total": 2346
      },
      {
        "club_badge_src": "https://fantasy.premierleague.com/gcs/plfpl-production-adobe-approved/plfpl-production/299992/194e12b8-d1e1-47a3-85c7-31eca26430fd.png",
        "entry": 299992,
        "entry_name": "OuttaRoad",
        "event_total": 64,
        "has_played": true,
        "id": 2006366,
        "last_rank": 73038,
        "player_name": "Ramorn Stewart",
        "rank": 58914,
        "rank_sort": 58982,
        "total": 2346
      },
      {
        "club_badge_src": null,
        "entry": 301120,
        "entry_name": "OdegaardsAreToBeRang",
        "event_total": 69,
        "has_played": true,
        "id": 2014429,
        "last_rank": 83584,
        "player_name": "Jordan Madden",
        "rank": 58914,
        "rank_sort": 58983,
        "total": 2346
      },
      {
        "club_badge_src": null,
        "entry": 337021,
        "entry_name": "Bellerin's Stylist",
        "event_total": 72,
        "has_played": true,
        "id": 2256289,
        "last_rank": 91006,
        "player_name": "Caleb Kehler",
        "rank": 58914,
        "rank_sort": 58984,
        "total": 2346
      },
      {
        "club_badge_src": null,
        "entry": 353706,
        "entry_name": "Team Briskeby",
        "event_total": 69,
        "has_played": true,
        "id": 2367273,
        "last_rank": 83584,
        "player_name": "Eric Lanza Knudsen",
        "rank": 58914,
        "rank_sort": 58985,
        "total": 2346
      },
      {
        "club_badge_src": null,
        "entry": 354437,
        "entry_name": "Hei og Haaland",
        "event_total": 59,
        "has_played": true,
        "id": 2372100,
        "last_rank": 63201,
        "player_name": "Kristian Vaskinn",
        "rank": 58914,
        "rank_sort": 58986,
        "total": 2346
      },
      {
        "club_badge_src": null,
        "entry": 356758,
        "entry_name": "Onanas in Pyjamas",
        "event_total": 38,
        "has_played": true,
        "id": 2387376,
        "last_rank": 33147,
        "player_name": "Liam Stringer",
        "rank": 58914,
        "rank_sort": 58987,
        "total": 2346
      },
      {
        "club_badge_src": null,
        "entry": 364297,
        "entry_name": "JokerHimself",
        "event_total": 62,
        "has_played": true,
        "id": 2437743,
        "last_rank": 69323,
        "player_name": "Mazen Tamer",
        "rank": 58914,
        "rank_sort": 58988,
        "total": 2346
      },
      {
        "club_badge_src": null,
        "entry": 420248,
        "entry_name": "Dr. Blues",
        "event_total": 67,
        "has_played": true,
        "id": 2816469,
        "last_rank": 79190,
        "player_name": "Roberto Jim\u00e9nez",
        "rank": 58914,
        "rank_sort": 58989,
        "total": 2346
      },
      {
        "club_badge_src": null,
        "entry": 422630,
        "entry_name": "Onanas in pyjamas",
        "event_total": 56,
        "has_played": true,
        "id": 2832210,
        "last_rank": 57857,
        "player_name": "Ben Warriner",
        "rank": 58914,
        "rank_sort": 58990,
        "total": 2346
      },
      {
        "club_badge_src": null,
        "entry": 423822,
        "entry_name": "Not the Pier for me!",
        "event_total": 81,
        "has_played": true,
        "id": 2840419,
        "last_rank": 114574,
        "player_name": "Matt Kay",
        "rank": 58914,
        "rank_sort": 58991,
        "total": 2346
      },
      {
        "club_badge_src": null,
        "entry": 431970,
        "entry_name": "Bygget",
        "event_total": 56,
        "has_played": true,
        "id": 2897139,
        "last_rank": 57857,
        "player_name": "Johan Dermark",
        "rank": 58914,
        "rank_sort": 58992,
        "total": 2346
      },
      {
        "club_badge_src": null,
        "entry": 435738,
        "entry_name": "Wrench",
        "event_total": 64,
        "has_played": true,
        "id": 2921919,
        "last_rank": 73038,
        "player_name": "Riaz Abdullah",
        "rank": 58914,
        "rank_sort": 58993,
        "total": 2346
      },
      {
        "club_badge_src": "https://fantasy.premierleague.com/gcs/plfpl-production-adobe-approved/plfpl-production/443759/f6b30af0-4ae3-4d20-8da4-b7ab1af716f8.png",
        "entry": 443759,
        "entry_name": "HFK Lands\u00e5s",
        "event_total": 63,
        "has_played": true,
        "id": 2975396,
        "last_rank": 70757,
        "player_name": "Hans Arne Jacobsen",
        "rank": 58914,
        "rank_sort": 58994,
        "total": 2346
      },
      {
        "club_badge_src": null,
        "entry": 474213,
        "entry_name": "Habbabagu FC",
        "event_total": 64,
        "has_played": true,
        "id": 3183632,
        "last_rank": 72815,
        "player_name": "Gerard Bisnath",
        "rank": 58914,
        "rank_sort": 58995,
        "total": 2346
      },
      {
        "club_badge_src": null,
        "entry": 497275,
        "entry_name": "De Cuyper Belt",
        "event_total": 57,
        "has_played": true,
        "id": 3337693,
        "last_rank": 59813,
        "player_name": "KEVIN KELLY",
        "rank": 58914,
        "rank_sort": 58996,
        "total": 2346
      },
      {
        "club_badge_src": "https://fantasy.premierleague.com/gcs/plfpl-production-adobe-approved/plfpl-production/521642/99565ab7-8dfd-436e-882a-e6560ef4c629.png",
        "entry": 521642,
        "entry_name": "Top Lot XI",
        "event_total": 68,
        "has_played": true,
        "id": 3503313,
        "last_rank": 81646,
        "player_name": "Aniket Mulye",
        "rank": 58914,
        "rank_sort": 58997,
        "total": 2346
      },
      {
        "club_badge_src": null,
        "entry": 527573,
        "entry_name": "Elanga Management",
        "event_total": 49,
        "has_played": true,
        "id": 3546670,
        "last_rank": 46660,
        "player_name": "Max Sewell",
        "rank": 58914,
        "rank_sort": 58998,
        "total": 2346
      },
      {
        "club_badge_src": null,
        "entry": 540269,
        "entry_name": "Nice to Michu",
        "event_total": 58,
        "has_played": true,
        "id": 3636471,
        "last_rank": 61411,
        "player_name": "Bjorn Limani",
        "rank": 58914,
        "rank_sort": 58999,
        "total": 2346
      },
      {
        "club_badge_src": null,
        "entry": 551604,
        "entry_name": "Zupaooo",
        "event_total": 51,
        "has_played": true,
        "id": 3712767,
        "last_rank": 49607,
        "player_name": "Bartosz Ros\u00f3\u0142",
        "rank": 58914,
        "rank_sort": 59000,
        "total": 2346
      }
    ]
  }
}