{
  "last_updated_data": "2026-05-24T23:28:17Z",
  "league": {
    "admin_entry": null,
    "closed": false,
    "code_privacy": "p",
    "created": "2025-07-20T23:14:33.933835Z",
    "cup_league": 2815434,
    "has_cup": true,
    "id": 314,
    "league_type": "s",
    "max_entries": null,
    "name": "Overall",
    "rank": null,
    "scoring": "c",
    "start_event": 1
  },
  "new_entries": {
    "has_next": false,
    "page": 1,
    "results": []
  },
  "standings": {
    "has_next": true,
    "page": 726,
    "results": [
      {
        "club_badge_src": null,
        "entry": 2576508,
        "entry_name": "\u9ece\u660e\u7684\u90a3\u9053\u5149",
        "event_total": 64,
        "has_played": true,
        "id": 18490753,
        "last_rank": 45182,
        "player_name": "Alex Koh",
        "rank": 36214,
        "rank_sort": 36251,
        "total": 2362
      },
      {
        "club_badge_src": null,
        "entry": 2758825,
        "entry_name": "All the Smallings",
        "event_total": 67,
        "has_played": true,
        "id": 20120879,
        "last_rank": 49691,
        "player_name": "Matt Carlson",
        "rank": 36214,
        "rank_sort": 36252,
        "total": 2362
      },
      {
        "club_badge_src": null,
        "entry": 2786507,
        "entry_name": "haffi_thegreat",
        "event_total": 65,
        "has_played": true,
        "id": 20342887,
        "last_rank": 46660,
        "player_name": "H\u00e5kon Hafskj\u00e6r",
        "rank": 36214,
        "rank_sort": 36253,
        "total": 2362
      },
      {
        "club_badge_src": null,
        "entry": 3001345,
        "entry_name": "Lets be Frank",
        "event_total": 54,
        "has_played": true,
        "id": 22076305,
        "last_rank": 32751,
        "player_name": "Ryan Willson",
        "rank": 36214,
        "rank_sort": 36254,
        "total": 2362
      },
      {
        "club_badge_src": null,
        "entry": 3210427,
        "entry_name": "Xdo",
        "event_total": 43,
        "has_played": true,
        "id": 23735466,
        "last_rank": 22534,
        "player_name": "Man RED",
        "rank": 36214,
        "rank_sort": 36255,
        "total": 2362
      },
      {
        "club_badge_src": "https://fantasy.premierleague.com/gcs/plfpl-production-adobe-approved/plfpl-production/3383132/9cc91532-a3d3-4b9c-8a38-23e0cd2b825c.png",
        "entry": 3383132,
        "entry_name": "John and the Wailers",
        "event_total": 71,
        "has_played": true,
        "id": 25113349,
        "last_rank": 56069,
        "player_name": "John St-Laurent O'Connor",
        "rank": 36214,
        "rank_sort": 36256,
        "total": 2362
      },
      {
        "club_badge_src": null,
        "entry": 3441044,
        "entry_name": "Marinakis Logistics",
        "event_total": 54,
        "has_played": true,
        "id": 25564805,
        "last_rank": 32688,
        "player_name": "Al Hick",
        "rank": 36214,
        "rank_sort": 36257,
        "total": 2362
      },
      {
        "club_badge_src": null,
        "entry": 3519653,
        "entry_name": "Anghkooey",
        "event_total": 58,
        "has_played": true,
        "id": 26192600,
        "last_rank": 37589,
        "player_name": "Somadina Umeh",
        "rank": 36214,
        "rank_sort": 36258,
        "total": 2362
      },
      {
        "club_badge_src": null,
        "entry": 4030496,
        "entry_name": "Hatfield of Dreams",
        "event_total": 74,
        "has_played": true,
        "id": 30384966,
        "last_rank": 61315,
        "player_name": "Adam Cattell",
        "rank": 36214,
        "rank_sort": 36259,
        "total": 2362
      },
      {
        "club_badge_src": null,
        "entry": 4474083,
        "entry_name": "Change Name",
        "event_total": 64,
        "has_played": true,
        "id": 34095451,
        "last_rank": 45182,
        "player_name": "V Sereda",
        "rank": 36214,
        "rank_sort": 36260,
        "total": 2362
      },
      {
        "club_badge_src": null,
        "entry": 4476568,
        "entry_name": "Hwangry LikeThe Wolf",
        "event_total": 53,
        "has_played": true,
        "id": 34115412,
        "last_rank": 31620,
        "player_name": "Alex Daniel",
        "rank": 36214,
        "rank_sort": 36261,
        "total": 2362
      },
      {
        "club_badge_src": null,
        "entry": 4531967,
        "entry_name": "Piemonte Calcio",
        "event_total": 67,
        "has_played": true,
        "id": 34569090,
        "last_rank": 49691,
        "player_name": "Philip Jemt",
        "rank": 36214,
        "rank_sort": 36262,
        "total": 2362
      },
      {
        "club_badge_src": null,
        "entry": 4854947,
        "entry_name": "\u00c5rsta\u00c5lder\u00c5terigen",
        "event_total": 41,
        "has_played": true,
        "id": 37408038,
        "last_rank": 20888,
        "player_name": "Henrik Karlsson",
        "rank": 36214,
        "rank_sort": 36263,
        "total": 2362
      },
      {
        "club_badge_src": null,
        "entry": 4917983,
        "entry_name": "Yoro Wissa Harry",
        "event_total": 57,
        "has_played": true,
        "id": 37932061,
        "last_rank": 36142,
        "player_name": "Jamaal Khan",
        "rank": 36214,
        "rank_sort": 36264,
        "total": 2362
      },
      {
        "club_badge_src": null,
        "entry": 5011112,
        "entry_name": "FC COLD",
        "event_total": 39,
        "has_played": true,
        "id": 38696700,
        "last_rank": 19544,
        "player_name": "Trajche Pocev",
        "rank": 36214,
        "rank_sort": 36265,
        "total": 2362
      },
      {
        "club_badge_src": null,
        "entry": 5210141,
        "entry_name": "Kinder Mbeumo",
        "event_total": 91,
        "has_played": true,
        "id": 40356255,
        "last_rank": 97968,
        "player_name": "Matthew McGeever",
        "rank": 36214,
        "rank_sort": 36266,
        "total": 2362
      },
      {
        "club_badge_src": null,
        "entry": 5495034,
        "entry_name": "Easter House Red Sox",
        "event_total": 41,
        "has_played": true,
        "id": 42802429,
        "last_rank": 20983,
        "player_name": "Jamie Jamieson",
        "rank": 36214,
        "rank_sort": 36267,
        "total": 2362
      },
      {
        "club_badge_src": null,
        "entry": 5573851,
        "entry_name": "Change Name",
        "event_total": 42,
        "has_played": true,
        "id": 43527106,
        "last_rank": 21775,
        "player_name": "Caolan Gough",
        "rank": 36214,
        "rank_sort": 36268,
        "total": 2362
      },
      {
        "club_badge_src": null,
        "entry": 6258606,
        "entry_name": "Mad Dragons FC",
        "event_total": 52,
        "has_played": true,
        "id": 49549735,
        "last_rank": 30727,
        "player_name": "R\u00faben Castro",
        "rank": 36214,
        "rank_sort": 36269,
        "total": 2362
      },
      {
        "club_badge_src": null,
        "entry": 6382932,
        "entry_name": "MANCITY 2026 CHAMP",
        "event_total": 62,
        "has_played": true,
        "id": 50768947,
        "last_rank": 42648,
        "player_name": "Ridho Zul Fakhri",
        "rank": 36214,
        "rank_sort": 36270,
        "total": 2362
      },
      {
        "club_badge_src": null,
        "entry": 6776622,
        "entry_name": "Kinder Mbeumo",
        "event_total": 60,
        "has_played": true,
        "id": 54262132,
        "last_rank": 40036,
        "player_name": "Kristian Ingebrigtsen",
        "rank": 36214,
        "rank_sort": 36271,
        "total": 2362
      },
      {
        "club_badge_src": null,
        "entry": 6817078,
        "entry_name": "lcz",
        "event_total": 55,
        "has_played": true,
        "id": 54598302,
        "last_rank": 33936,
        "player_name": "Luke Czerepaniak",
        "rank": 36214,
        "rank_sort": 36272,
        "total": 2362
      },
      {
        "club_badge_src": "https://fantasy.premierleague.com/gcs/plfpl-production-adobe-approved/plfpl-production/7132497/aaa8201e-29e6-43fb-a061-3bf7b1981550.png",
        "entry": 7132497,
        "entry_name": "Akatsuki \u611b",
        "event_total": 71,
        "has_played": true,
        "id": 57483560,
        "last_rank": 56099,
        "player_name": "Aleksa Bozovic",
        "rank": 36214,
        "rank_sort": 36273,
        "total": 2362
      },
      {
        "club_badge_src": null,
        "entry": 7336340,
        "entry_name": "Traz mania",
        "event_total": 71,
        "has_played": true,
        "id": 59417431,
        "last_rank": 56180,
        "player_name": "Niall Flynn",
        "rank": 36214,
        "rank_sort": 36274,
        "total": 2362
      },
      {
        "club_badge_src": "https://fantasy.premierleague.com/gcs/plfpl-production-adobe-approved/plfpl-production/7486645/cd4c6181-ce1d-46df-a9f1-516302001758.png",
        "entry": 7486645,
        "entry_name": "Tekkerslovakia",
        "event_total": 32,
        "has_played": true,
        "id": 61109504,
        "last_rank": 14926,
        "player_name": "Ryan Worley",
        "rank": 36214,
        "rank_sort": 36275,
        "total": 2362
      },
      {
        "club_badge_src": null,
        "entry": 7538720,
        "entry_name": "Frank The Tank",
        "event_total": 44,
        "has_played": true,
        "id": 61708366,
        "last_rank": 23188,
        "player_name": "Magnus Riis Christensen",
        "rank": 36214,
        "rank_sort": 36276,
        "total": 2362
      },
      {
        "club_badge_src": null,
        "entry": 7671404,
        "entry_name": "GSD FC",
        "event_total": 64,
        "has_played": true,
        "id": 62914070,
        "last_rank": 45252,
        "player_name": "Gabriel Dorgu",
        "rank": 36214,
        "rank_sort": 36277,
        "total": 2362
      },
      {
        "club_badge_src": null,
        "entry": 7852972,
        "entry_name": "mongalism",
        "event_total": 70,
        "has_played": true,
        "id": 64558891,
        "last_rank": 54362,
        "player_name": "Gabe K",
        "rank": 36214,
        "rank_sort": 36278,
        "total": 2362
      },
      {
        "club_badge_src": null,
        "entry": 8043135,
        "entry_name": "NemesiZ",
        "event_total": 43,
        "has_played": true,
        "id": 66275197,
        "last_rank": 22426,
        "player_name": "Anirban Mondal",
        "rank": 36214,
        "rank_sort": 36279,
        "total": 2362
      },
      {
        "club_badge_src": null,
        "entry": 8393513,
        "entry_name": "Shaw it coming FC",
        "event_total": 58,
        "has_played": true,
        "id": 69618657,
        "last_rank": 37589,
        "player_name": "H\u00e5vard Jakobsen",
        "rank": 36214,
        "rank_sort": 36280,
        "total": 2362
      },
      {
        "club_badge_src": null,
        "entry": 8420441,
        "entry_name": "HowDoIWorkThis",
        "event_total": 69,
        "has_played": true,
        "id": 69871738,
        "last_rank": 52759,
        "player_name": "Katie Cunningham",
        "rank": 36214,
        "rank_sort": 36281,
        "total": 2362
      },
      {
        "club_badge_src": null,
        "entry": 8450867,
        "entry_name": "Efce drzefce",
        "event_total": 49,
        "has_played": true,
        "id": 70163160,
        "last_rank": 27644,
        "player_name": "Micha\u0142 Gradys",
        "rank": 36214,
        "rank_sort": 36282,
        "total": 2362
      },
      {
        "club_badge_src": null,
        "entry": 8745150,
        "entry_name": "Pivoteers",
        "event_total": 48,
        "has_played": true,
        "id": 73017403,
        "last_rank": 26710,
        "player_name": "Katrina Ratniece",
        "rank": 36214,
        "rank_sort": 36283,
        "total": 2362
      },
      {
        "club_badge_src": null,
        "entry": 10681243,
        "entry_name": "LastMinuteGoal",
        "event_total": 71,
        "has_played": true,
        "id": 90232168,
        "last_rank": 56180,
        "player_name": "Juan Felipe Becerra",
        "rank": 36214,
        "rank_sort": 36284,
        "total": 2362
      },
      {
        "club_badge_src": "https://fantasy.premierleague.com/gcs/plfpl-production-adobe-approved/plfpl-production/371/92372068-dbdc-4fa3-bd7f-a622cb35ab0d.png",
        "entry": 371,
        "entry_name": "cigolsdrawkcab",
        "event_total": 54,
        "has_played": true,
        "id": 2055,
        "last_rank": 32879,
        "player_name": "Michael Milne",
        "rank": 36285,
        "rank_sort": 36285,
        "total": 2362
      },
      {
        "club_badge_src": null,
        "entry": 2097,
        "entry_name": "I\u2019mSorryNickJackson",
        "event_total": 38,
        "has_played": true,
        "id": 11705,
        "last_rank": 18790,
        "player_name": "Aleksander Spisz",
        "rank": 36285,
        "rank_sort": 36286,
        "total": 2362
      },
      {
        "club_badge_src": null,
        "entry": 3776,
        "entry_name": "11 Angry Men",
        "event_total": 41,
        "has_played": true,
        "id": 21408,
        "last_rank": 20983,
        "player_name": "Joachim Skyaasen",
        "rank": 36285,
        "rank_sort": 36287,
        "total": 2362
      },
      {
        "club_badge_src": null,
        "entry": 4323,
        "entry_name": "Kinder Mbeumo",
        "event_total": 63,
        "has_played": true,
        "id": 24565,
        "last_rank": 43849,
        "player_name": "Damian Zwierzy\u0144ski",
        "rank": 36285,
        "rank_sort": 36288,
        "total": 2362
      },
      {
        "club_badge_src": null,
        "entry": 4443,
        "entry_name": "Fooooottbbaaaaalllll",
        "event_total": 71,
        "has_played": true,
        "id": 25261,
        "last_rank": 56180,
        "player_name": "Simon Anderson",
        "rank": 36285,
        "rank_sort": 36289,
        "total": 2362
      },
      {
        "club_badge_src": null,
        "entry": 8172,
        "entry_name": "Hotel? Thiago",
        "event_total": 66,
        "has_played": true,
        "id": 47365,
        "last_rank": 48119,
        "player_name": "Jordan Wilson",
        "rank": 36285,
        "rank_sort": 36290,
        "total": 2362
      },
      {
        "club_badge_src": null,
        "entry": 12618,
        "entry_name": "Ted Benteke",
        "event_total": 60,
        "has_played": true,
        "id": 75729,
        "last_rank": 39874,
        "player_name": "Patrick Mathias",
        "rank": 36285,
        "rank_sort": 36291,
        "total": 2362
      },
      {
        "club_badge_src": null,
        "entry": 14264,
        "entry_name": "Gro\u00df Incompetence",
        "event_total": 64,
        "has_played": true,
        "id": 86549,
        "last_rank": 45252,
        "player_name": "Evie Clark",
        "rank": 36285,
        "rank_sort": 36292,
        "total": 2362
      },
      {
        "club_badge_src": "https://fantasy.premierleague.com/gcs/plfpl-production-adobe-approved/plfpl-production/14528/e112965a-95b8-4a66-8fa1-3274b73633ab.png",
        "entry": 14528,
        "entry_name": "Rutter woke nonsense",
        "event_total": 68,
        "has_played": true,
        "id": 88278,
        "last_rank": 51220,
        "player_name": "Elliot Mason",
        "rank": 36285,
        "rank_sort": 36293,
        "total": 2362
      },
      {
        "club_badge_src": null,
        "entry": 17209,
        "entry_name": "Tipp are Magic",
        "event_total": 65,
        "has_played": true,
        "id": 106692,
        "last_rank": 46591,
        "player_name": "Eoghan Wade",
        "rank": 36285,
        "rank_sort": 36294,
        "total": 2362
      },
      {
        "club_badge_src": null,
        "entry": 19721,
        "entry_name": "Arsenal Tula",
        "event_total": 82,
        "has_played": true,
        "id": 122733,
        "last_rank": 76908,
        "player_name": "Oleg Sim",
        "rank": 36285,
        "rank_sort": 36295,
        "total": 2362
      },
      {
        "club_badge_src": null,
        "entry": 25548,
        "entry_name": "Men With Ven",
        "event_total": 64,
        "has_played": true,
        "id": 161594,
        "last_rank": 45252,
        "player_name": "Charlie Cumming",
        "rank": 36285,
        "rank_sort": 36296,
        "total": 2362
      },
      {
        "club_badge_src": "https://fantasy.premierleague.com/gcs/plfpl-production-adobe-approved/plfpl-production/26420/ff27e7a5-e22b-4cb4-993f-ca959af9b722.png",
        "entry": 26420,
        "entry_name": "BENJ XI",
        "event_total": 65,
        "has_played": true,
        "id": 167054,
        "last_rank": 46660,
        "player_name": "Khalil BenJ",
        "rank": 36285,
        "rank_sort": 36297,
        "total": 2362
      },
      {
        "club_badge_src": "https://fantasy.premierleague.com/gcs/plfpl-production-adobe-approved/plfpl-production/27288/a7211e28-0d05-4d58-b85e-7aa58c7b1381.png",
        "entry": 27288,
        "entry_name": "Doku's Den",
        "event_total": 53,
        "has_played": true,
        "id": 172475,
        "last_rank": 31747,
        "player_name": "Lars Dewolf",
        "rank": 36285,
        "rank_sort": 36298,
        "total": 2362
      },
      {
        "club_badge_src": null,
        "entry": 29108,
        "entry_name": "All-World XI",
        "event_total": 66,
        "has_played": true,
        "id": 184045,
        "last_rank": 48197,
        "player_name": "Zigor Salazar Candelas",
        "rank": 36285,
        "rank_sort": 36299,
        "total": 2362
      },
      {
        "club_badge_src": "https://fantasy.premierleague.com/gcs/plfpl-production-adobe-approved/plfpl-production/29127/75cdeb94-902d-4e64-a2af-e008b6bad5f7.png",
        "entry": 29127,
        "entry_name": "Ballzies",
        "event_total": 60,
        "has_played": true,
        "id": 184165,
        "last_rank": 39874,
        "player_name": "Rayzer J",
        "rank": 36285,
        "rank_sort": 36300,
        "total": 2362
      }
    ]
  }
}