{
  "last_updated_data": "2026-05-24T23:28:17Z",
  "league": {
    "admin_entry": null,
    "closed": false,
    "code_privacy": "p",
    "created": "2025-07-20T23:14:33.933835Z",
    "cup_league": 2815434,
    "has_cup": true,
    "id": 314,
    "league_type": "s",
    "max_entries": null,
    "name": "Overall",
    "rank": null,
    "scoring": "c",
    "start_event": 1
  },
  "new_entries": {
    "has_next": false,
    "page": 1,
    "results": []
  },
  "standings": {
    "has_next": true,
    "page": 1073,
    "results": [
      {
        "club_badge_src": null,
        "entry": 3808190,
        "entry_name": "Footpaul is the game",
        "event_total": 62,
        "has_played": true,
        "id": 28472944,
        "last_rank": 62724,
        "player_name": "Paul Ferris",
        "rank": 53540,
        "rank_sort": 53601,
        "total": 2350
      },
      {
        "club_badge_src": "https://fantasy.premierleague.com/gcs/plfpl-production-adobe-approved/plfpl-production/3949109/9e1db0e6-848d-41b6-8650-75b15a7d5ad3.png",
        "entry": 3949109,
        "entry_name": "FC Ball Knowledge",
        "event_total": 50,
        "has_played": true,
        "id": 29708757,
        "last_rank": 43444,
        "player_name": "Matteo Tizzano",
        "rank": 53540,
        "rank_sort": 53602,
        "total": 2350
      },
      {
        "club_badge_src": null,
        "entry": 3990475,
        "entry_name": "Northern Blades",
        "event_total": 65,
        "has_played": true,
        "id": 30047147,
        "last_rank": 68216,
        "player_name": "Mark Spowage",
        "rank": 53540,
        "rank_sort": 53603,
        "total": 2350
      },
      {
        "club_badge_src": null,
        "entry": 4181887,
        "entry_name": "EarthWindAndMaguire",
        "event_total": 75,
        "has_played": true,
        "id": 31638311,
        "last_rank": 89426,
        "player_name": "Noah Cooke",
        "rank": 53540,
        "rank_sort": 53604,
        "total": 2350
      },
      {
        "club_badge_src": "https://fantasy.premierleague.com/gcs/plfpl-production-adobe-approved/plfpl-production/4485553/0cf2671b-2705-40b9-991c-912808f0dcd3.png",
        "entry": 4485553,
        "entry_name": "Wheelsy 2",
        "event_total": 58,
        "has_played": true,
        "id": 34188729,
        "last_rank": 55659,
        "player_name": "Mason Wheel",
        "rank": 53540,
        "rank_sort": 53605,
        "total": 2350
      },
      {
        "club_badge_src": null,
        "entry": 4632139,
        "entry_name": "OSSU FC",
        "event_total": 56,
        "has_played": true,
        "id": 35419651,
        "last_rank": 52461,
        "player_name": "Oscar Sucksdorff",
        "rank": 53540,
        "rank_sort": 53606,
        "total": 2350
      },
      {
        "club_badge_src": "https://fantasy.premierleague.com/gcs/plfpl-production-adobe-approved/plfpl-production/4815039/68e9ccf4-5054-4956-8e66-c1d401d3b764.png",
        "entry": 4815039,
        "entry_name": "Holy Boehly",
        "event_total": 52,
        "has_played": true,
        "id": 37076993,
        "last_rank": 46313,
        "player_name": "Pavle Krstic",
        "rank": 53540,
        "rank_sort": 53607,
        "total": 2350
      },
      {
        "club_badge_src": null,
        "entry": 4859736,
        "entry_name": "The Class of 1888",
        "event_total": 66,
        "has_played": true,
        "id": 37449067,
        "last_rank": 62617,
        "player_name": "Peter Comiskey",
        "rank": 53540,
        "rank_sort": 53608,
        "total": 2350
      },
      {
        "club_badge_src": "https://fantasy.premierleague.com/gcs/plfpl-production-adobe-approved/plfpl-production/4865604/0c3a7470-be0b-4a90-884f-9ba0e7a5f993.png",
        "entry": 4865604,
        "entry_name": "Team USA \u2b50\ufe0f\u2b50\ufe0f",
        "event_total": 58,
        "has_played": true,
        "id": 37499010,
        "last_rank": 55659,
        "player_name": "Andrew Redmond",
        "rank": 53540,
        "rank_sort": 53609,
        "total": 2350
      },
      {
        "club_badge_src": null,
        "entry": 4918686,
        "entry_name": "Mbeumotion",
        "event_total": 73,
        "has_played": true,
        "id": 37937839,
        "last_rank": 85349,
        "player_name": "Rasmus Harring J\u00f8rgensen",
        "rank": 53540,
        "rank_sort": 53610,
        "total": 2350
      },
      {
        "club_badge_src": null,
        "entry": 4940163,
        "entry_name": "Barca 91",
        "event_total": 64,
        "has_played": true,
        "id": 38115288,
        "last_rank": 66296,
        "player_name": "Stuart Ives",
        "rank": 53540,
        "rank_sort": 53611,
        "total": 2350
      },
      {
        "club_badge_src": null,
        "entry": 5063826,
        "entry_name": "Tafifi FC",
        "event_total": 70,
        "has_played": true,
        "id": 39130710,
        "last_rank": 78575,
        "player_name": "Ansto Tafara Chibamu",
        "rank": 53540,
        "rank_sort": 53612,
        "total": 2350
      },
      {
        "club_badge_src": null,
        "entry": 5375128,
        "entry_name": "Licha Prayer",
        "event_total": 43,
        "has_played": true,
        "id": 41774188,
        "last_rank": 30276,
        "player_name": "Barnaby Anson-Walsh",
        "rank": 53540,
        "rank_sort": 53613,
        "total": 2350
      },
      {
        "club_badge_src": null,
        "entry": 5616903,
        "entry_name": "GTA: Rice City",
        "event_total": 33,
        "has_played": true,
        "id": 43904082,
        "last_rank": 24680,
        "player_name": "Cameron Stewart",
        "rank": 53540,
        "rank_sort": 53614,
        "total": 2350
      },
      {
        "club_badge_src": null,
        "entry": 5845135,
        "entry_name": "Holstad",
        "event_total": 60,
        "has_played": true,
        "id": 45887189,
        "last_rank": 59170,
        "player_name": "Gjermund Kjelstrup",
        "rank": 53540,
        "rank_sort": 53615,
        "total": 2350
      },
      {
        "club_badge_src": null,
        "entry": 6094558,
        "entry_name": "al_jazira",
        "event_total": 64,
        "has_played": true,
        "id": 48129174,
        "last_rank": 66380,
        "player_name": "Muhammed Ghiath Issa",
        "rank": 53540,
        "rank_sort": 53616,
        "total": 2350
      },
      {
        "club_badge_src": null,
        "entry": 6215922,
        "entry_name": "Backup Kepa",
        "event_total": 63,
        "has_played": true,
        "id": 49181615,
        "last_rank": 57358,
        "player_name": "Johan Mohd Sani",
        "rank": 53540,
        "rank_sort": 53617,
        "total": 2350
      },
      {
        "club_badge_src": "https://fantasy.premierleague.com/gcs/plfpl-production-adobe-approved/plfpl-production/6548640/836bd8dd-3457-40b6-bfc7-67b6888dc657.png",
        "entry": 6548640,
        "entry_name": "\u0634\u0645\u0631\u0648\u0637",
        "event_total": 70,
        "has_played": true,
        "id": 52255203,
        "last_rank": 78575,
        "player_name": "Mannozz zz",
        "rank": 53540,
        "rank_sort": 53618,
        "total": 2350
      },
      {
        "club_badge_src": null,
        "entry": 6564463,
        "entry_name": "Sam Arteta",
        "event_total": 61,
        "has_played": true,
        "id": 52395808,
        "last_rank": 60933,
        "player_name": "samuel getahun",
        "rank": 53540,
        "rank_sort": 53619,
        "total": 2350
      },
      {
        "club_badge_src": null,
        "entry": 6822842,
        "entry_name": "AFC Cracker's",
        "event_total": 54,
        "has_played": true,
        "id": 54648172,
        "last_rank": 49301,
        "player_name": "Howard Cracknell",
        "rank": 53540,
        "rank_sort": 53620,
        "total": 2350
      },
      {
        "club_badge_src": "https://fantasy.premierleague.com/gcs/plfpl-production-adobe-approved/plfpl-production/6989873/14dc384b-b848-4d4b-8123-d02a329c6ef9.png",
        "entry": 6989873,
        "entry_name": "Vegan Beef Cherki",
        "event_total": 64,
        "has_played": true,
        "id": 56109504,
        "last_rank": 66296,
        "player_name": "Matthew Sirr",
        "rank": 53540,
        "rank_sort": 53621,
        "total": 2350
      },
      {
        "club_badge_src": null,
        "entry": 7622767,
        "entry_name": "Slotmachine",
        "event_total": 50,
        "has_played": true,
        "id": 62471623,
        "last_rank": 43342,
        "player_name": "Anton Ik\u00e4heimonen",
        "rank": 53540,
        "rank_sort": 53622,
        "total": 2350
      },
      {
        "club_badge_src": null,
        "entry": 8289851,
        "entry_name": "Fdogs",
        "event_total": 64,
        "has_played": true,
        "id": 68603837,
        "last_rank": 52205,
        "player_name": "Farren Devine",
        "rank": 53540,
        "rank_sort": 53623,
        "total": 2350
      },
      {
        "club_badge_src": null,
        "entry": 19290,
        "entry_name": "Micke lustig ale ale",
        "event_total": 62,
        "has_played": true,
        "id": 120043,
        "last_rank": 55747,
        "player_name": "Oliver Pettersson",
        "rank": 53624,
        "rank_sort": 53624,
        "total": 2350
      },
      {
        "club_badge_src": "https://fantasy.premierleague.com/gcs/plfpl-production-adobe-approved/plfpl-production/47682/acaa75e8-fba8-4845-86e9-3577e55eb78e.png",
        "entry": 47682,
        "entry_name": "DELKURD",
        "event_total": 53,
        "has_played": true,
        "id": 305946,
        "last_rank": 47868,
        "player_name": "MASOOD Ali",
        "rank": 53624,
        "rank_sort": 53625,
        "total": 2350
      },
      {
        "club_badge_src": null,
        "entry": 50395,
        "entry_name": "FPL GOAL",
        "event_total": 72,
        "has_played": true,
        "id": 324139,
        "last_rank": 74317,
        "player_name": "Mohamed Rafat",
        "rank": 53624,
        "rank_sort": 53626,
        "total": 2350
      },
      {
        "club_badge_src": null,
        "entry": 72805,
        "entry_name": "Mark is Awesome",
        "event_total": 62,
        "has_played": true,
        "id": 473172,
        "last_rank": 55747,
        "player_name": "Mark Johnson",
        "rank": 53624,
        "rank_sort": 53627,
        "total": 2350
      },
      {
        "club_badge_src": null,
        "entry": 78977,
        "entry_name": "piccalilli shinpads",
        "event_total": 65,
        "has_played": true,
        "id": 513525,
        "last_rank": 68294,
        "player_name": "stuart mckinnon",
        "rank": 53624,
        "rank_sort": 53628,
        "total": 2350
      },
      {
        "club_badge_src": null,
        "entry": 101108,
        "entry_name": "Team Baillklang",
        "event_total": 74,
        "has_played": true,
        "id": 659773,
        "last_rank": 87350,
        "player_name": "Esben Ho\u00e5s Rygg",
        "rank": 53624,
        "rank_sort": 53629,
        "total": 2350
      },
      {
        "club_badge_src": null,
        "entry": 124658,
        "entry_name": "Acostic Fc",
        "event_total": 64,
        "has_played": true,
        "id": 813080,
        "last_rank": 59170,
        "player_name": "Acostic Is Coming 4 U",
        "rank": 53624,
        "rank_sort": 53630,
        "total": 2350
      },
      {
        "club_badge_src": null,
        "entry": 153216,
        "entry_name": "Wirtz Team Ever",
        "event_total": 68,
        "has_played": true,
        "id": 1006059,
        "last_rank": 74395,
        "player_name": "Reiss Walker",
        "rank": 53624,
        "rank_sort": 53631,
        "total": 2350
      },
      {
        "club_badge_src": null,
        "entry": 154754,
        "entry_name": "Pau Patrol FC",
        "event_total": 68,
        "has_played": true,
        "id": 1016779,
        "last_rank": 66296,
        "player_name": "Karl West",
        "rank": 53624,
        "rank_sort": 53632,
        "total": 2350
      },
      {
        "club_badge_src": null,
        "entry": 239053,
        "entry_name": "Gnontoasted Bogles",
        "event_total": 58,
        "has_played": true,
        "id": 1590712,
        "last_rank": 55812,
        "player_name": "Emil Degn",
        "rank": 53624,
        "rank_sort": 53633,
        "total": 2350
      },
      {
        "club_badge_src": "https://fantasy.premierleague.com/gcs/plfpl-production-adobe-approved/plfpl-production/269276/b9ca3c66-e3b5-4135-bb4e-a0144dbc2975.png",
        "entry": 269276,
        "entry_name": "Gunners FC",
        "event_total": 60,
        "has_played": true,
        "id": 1791378,
        "last_rank": 52461,
        "player_name": "Muhd Ridhwaan",
        "rank": 53624,
        "rank_sort": 53634,
        "total": 2350
      },
      {
        "club_badge_src": null,
        "entry": 294367,
        "entry_name": "ThomasTheFrankEngine",
        "event_total": 58,
        "has_played": true,
        "id": 1965460,
        "last_rank": 49301,
        "player_name": "Joel Godfrey",
        "rank": 53624,
        "rank_sort": 53635,
        "total": 2350
      },
      {
        "club_badge_src": null,
        "entry": 395346,
        "entry_name": "PH. Husam",
        "event_total": 32,
        "has_played": true,
        "id": 2651248,
        "last_rank": 23904,
        "player_name": "Husam Mohammed",
        "rank": 53624,
        "rank_sort": 53636,
        "total": 2350
      },
      {
        "club_badge_src": null,
        "entry": 442600,
        "entry_name": "Ellyas",
        "event_total": 79,
        "has_played": true,
        "id": 2967561,
        "last_rank": 100177,
        "player_name": "ABU SAUD",
        "rank": 53624,
        "rank_sort": 53637,
        "total": 2350
      },
      {
        "club_badge_src": null,
        "entry": 537288,
        "entry_name": "Beer Warriors",
        "event_total": 67,
        "has_played": true,
        "id": 3616764,
        "last_rank": 57358,
        "player_name": "Stavros Papachristou",
        "rank": 53624,
        "rank_sort": 53638,
        "total": 2350
      },
      {
        "club_badge_src": null,
        "entry": 618701,
        "entry_name": "\" Hang this up \"",
        "event_total": 58,
        "has_played": true,
        "id": 4180531,
        "last_rank": 49207,
        "player_name": "Nirmesh Patel",
        "rank": 53624,
        "rank_sort": 53639,
        "total": 2350
      },
      {
        "club_badge_src": "https://fantasy.premierleague.com/gcs/plfpl-production-adobe-approved/plfpl-production/652390/ef474a6a-8d75-4112-b708-7039401dbe8f.png",
        "entry": 652390,
        "entry_name": "Ali\u26a1\ufe0fBarca",
        "event_total": 37,
        "has_played": true,
        "id": 4408885,
        "last_rank": 28425,
        "player_name": "Man City",
        "rank": 53624,
        "rank_sort": 53640,
        "total": 2350
      },
      {
        "club_badge_src": null,
        "entry": 668096,
        "entry_name": "Twisted Saltergater",
        "event_total": 68,
        "has_played": true,
        "id": 4517748,
        "last_rank": 66296,
        "player_name": "Mark Lilliman",
        "rank": 53624,
        "rank_sort": 53641,
        "total": 2350
      },
      {
        "club_badge_src": null,
        "entry": 723638,
        "entry_name": "Van de Venn Diagram",
        "event_total": 88,
        "has_played": true,
        "id": 4914739,
        "last_rank": 102343,
        "player_name": "Theo Klaus",
        "rank": 53624,
        "rank_sort": 53642,
        "total": 2350
      },
      {
        "club_badge_src": null,
        "entry": 735061,
        "entry_name": "Hinch85 FC",
        "event_total": 61,
        "has_played": true,
        "id": 4996378,
        "last_rank": 61045,
        "player_name": "Danny Hinchliffe",
        "rank": 53624,
        "rank_sort": 53643,
        "total": 2350
      },
      {
        "club_badge_src": null,
        "entry": 748274,
        "entry_name": "I'm first \u270c\ufe0f\u270c\ufe0f\u270c\ufe0f",
        "event_total": 55,
        "has_played": true,
        "id": 5090820,
        "last_rank": 50905,
        "player_name": "Ali Hussein",
        "rank": 53624,
        "rank_sort": 53644,
        "total": 2350
      },
      {
        "club_badge_src": null,
        "entry": 829399,
        "entry_name": "Galacticos",
        "event_total": 69,
        "has_played": true,
        "id": 5680948,
        "last_rank": 60827,
        "player_name": "sulaiman alsaif",
        "rank": 53624,
        "rank_sort": 53645,
        "total": 2350
      },
      {
        "club_badge_src": "https://fantasy.premierleague.com/gcs/plfpl-production-adobe-approved/plfpl-production/887180/e4e55053-9a41-4fc2-884e-c4e73271752f.png",
        "entry": 887180,
        "entry_name": "FK Sloboda Tuzla",
        "event_total": 58,
        "has_played": true,
        "id": 6084959,
        "last_rank": 55747,
        "player_name": "Igor Miskovic",
        "rank": 53624,
        "rank_sort": 53646,
        "total": 2350
      },
      {
        "club_badge_src": null,
        "entry": 981306,
        "entry_name": "Wirtz nightmare",
        "event_total": 64,
        "has_played": true,
        "id": 6765125,
        "last_rank": 59170,
        "player_name": "George Bosworth",
        "rank": 53624,
        "rank_sort": 53647,
        "total": 2350
      },
      {
        "club_badge_src": null,
        "entry": 1054035,
        "entry_name": "Timewarp",
        "event_total": 52,
        "has_played": true,
        "id": 7294631,
        "last_rank": 31236,
        "player_name": "Vikrant Nimbalkar",
        "rank": 53624,
        "rank_sort": 53648,
        "total": 2350
      },
      {
        "club_badge_src": "https://fantasy.premierleague.com/gcs/plfpl-production-adobe-approved/plfpl-production/1146078/9d4063ac-c35b-4ab1-af83-a5d3409a4dc1.png",
        "entry": 1146078,
        "entry_name": "OogaBooga FC \u265b\u265b\u265b",
        "event_total": 49,
        "has_played": true,
        "id": 7946161,
        "last_rank": 42225,
        "player_name": "Jong Long",
        "rank": 53624,
        "rank_sort": 53649,
        "total": 2350
      },
      {
        "club_badge_src": null,
        "entry": 1224974,
        "entry_name": "Fiorentina Turner",
        "event_total": 53,
        "has_played": true,
        "id": 8505409,
        "last_rank": 42152,
        "player_name": "Chris Nutt",
        "rank": 53624,
        "rank_sort": 53650,
        "total": 2350
      }
    ]
  }
}