{
  "last_updated_data": "2026-05-24T23:28:17Z",
  "league": {
    "admin_entry": null,
    "closed": false,
    "code_privacy": "p",
    "created": "2025-07-20T23:14:33.933835Z",
    "cup_league": 2815434,
    "has_cup": true,
    "id": 314,
    "league_type": "s",
    "max_entries": null,
    "name": "Overall",
    "rank": null,
    "scoring": "c",
    "start_event": 1
  },
  "new_entries": {
    "has_next": false,
    "page": 1,
    "results": []
  },
  "standings": {
    "has_next": true,
    "page": 721,
    "results": [
      {
        "club_badge_src": null,
        "entry": 2843442,
        "entry_name": "\u0627\u0644\u0633\u0627\u0637\u064a",
        "event_total": 50,
        "has_played": true,
        "id": 20783388,
        "last_rank": 24636,
        "player_name": "ahmed hani",
        "rank": 35963,
        "rank_sort": 36001,
        "total": 2363
      },
      {
        "club_badge_src": null,
        "entry": 2896404,
        "entry_name": "Midusa",
        "event_total": 80,
        "has_played": true,
        "id": 21221842,
        "last_rank": 72265,
        "player_name": "Frank Midusa",
        "rank": 35963,
        "rank_sort": 36002,
        "total": 2363
      },
      {
        "club_badge_src": null,
        "entry": 3273825,
        "entry_name": "Kooks FC",
        "event_total": 54,
        "has_played": true,
        "id": 24228275,
        "last_rank": 32491,
        "player_name": "Sihn-min Anderson",
        "rank": 35963,
        "rank_sort": 36003,
        "total": 2363
      },
      {
        "club_badge_src": null,
        "entry": 3586378,
        "entry_name": "chifloura2018",
        "event_total": 49,
        "has_played": true,
        "id": 26708610,
        "last_rank": 27402,
        "player_name": "R\u00e2bah Boulhares",
        "rank": 35963,
        "rank_sort": 36004,
        "total": 2363
      },
      {
        "club_badge_src": null,
        "entry": 3598746,
        "entry_name": "TheOne1ToWin",
        "event_total": 69,
        "has_played": true,
        "id": 26802821,
        "last_rank": 51984,
        "player_name": "David Omotosho",
        "rank": 35963,
        "rank_sort": 36005,
        "total": 2363
      },
      {
        "club_badge_src": null,
        "entry": 3731629,
        "entry_name": "Bayou Boys",
        "event_total": 51,
        "has_played": true,
        "id": 27853084,
        "last_rank": 29333,
        "player_name": "Kevin Boyce",
        "rank": 35963,
        "rank_sort": 36006,
        "total": 2363
      },
      {
        "club_badge_src": null,
        "entry": 3757304,
        "entry_name": "Mohammed Team",
        "event_total": 64,
        "has_played": true,
        "id": 28052686,
        "last_rank": 44804,
        "player_name": "Mohammed Hussein",
        "rank": 35963,
        "rank_sort": 36007,
        "total": 2363
      },
      {
        "club_badge_src": null,
        "entry": 3817686,
        "entry_name": "betaTEAM",
        "event_total": 33,
        "has_played": true,
        "id": 28550788,
        "last_rank": 15280,
        "player_name": "Mohamed TL",
        "rank": 35963,
        "rank_sort": 36008,
        "total": 2363
      },
      {
        "club_badge_src": null,
        "entry": 4043131,
        "entry_name": "FC Astana",
        "event_total": 68,
        "has_played": true,
        "id": 30492669,
        "last_rank": 44804,
        "player_name": "Zhanserik Kazbek",
        "rank": 35963,
        "rank_sort": 36009,
        "total": 2363
      },
      {
        "club_badge_src": null,
        "entry": 4184206,
        "entry_name": "Aman FC",
        "event_total": 51,
        "has_played": true,
        "id": 31657883,
        "last_rank": 29333,
        "player_name": "Ahmed Aman",
        "rank": 35963,
        "rank_sort": 36010,
        "total": 2363
      },
      {
        "club_badge_src": null,
        "entry": 4465344,
        "entry_name": "Football>Soccer",
        "event_total": 56,
        "has_played": true,
        "id": 34023620,
        "last_rank": 34796,
        "player_name": "Jacob Berry",
        "rank": 35963,
        "rank_sort": 36011,
        "total": 2363
      },
      {
        "club_badge_src": null,
        "entry": 4871011,
        "entry_name": "It's time",
        "event_total": 52,
        "has_played": true,
        "id": 37545372,
        "last_rank": 30325,
        "player_name": "Salu Team",
        "rank": 35963,
        "rank_sort": 36012,
        "total": 2363
      },
      {
        "club_badge_src": null,
        "entry": 4887104,
        "entry_name": "Alison Wonderland",
        "event_total": 66,
        "has_played": true,
        "id": 37678483,
        "last_rank": 47722,
        "player_name": "Padraig O Reilly",
        "rank": 35963,
        "rank_sort": 36013,
        "total": 2363
      },
      {
        "club_badge_src": "https://fantasy.premierleague.com/gcs/plfpl-production-adobe-approved/plfpl-production/4904583/85940792-0978-4ee3-9196-9f03ab17c2d4.png",
        "entry": 4904583,
        "entry_name": "Johnny Quid\u2019s XI",
        "event_total": 74,
        "has_played": true,
        "id": 37821385,
        "last_rank": 60671,
        "player_name": "Greg Simmonds",
        "rank": 35963,
        "rank_sort": 36014,
        "total": 2363
      },
      {
        "club_badge_src": null,
        "entry": 4983248,
        "entry_name": "Fusialt",
        "event_total": 67,
        "has_played": true,
        "id": 38469726,
        "last_rank": 49078,
        "player_name": "Eivind Dyken",
        "rank": 35963,
        "rank_sort": 36015,
        "total": 2363
      },
      {
        "club_badge_src": null,
        "entry": 5042233,
        "entry_name": "delightfulinnit",
        "event_total": 68,
        "has_played": true,
        "id": 38948525,
        "last_rank": 44804,
        "player_name": "Aditya Sethi",
        "rank": 35963,
        "rank_sort": 36016,
        "total": 2363
      },
      {
        "club_badge_src": "https://fantasy.premierleague.com/gcs/plfpl-production-adobe-approved/plfpl-production/5664156/d1e05246-043e-46ad-ab1d-bf9e2f9c7492.png",
        "entry": 5664156,
        "entry_name": "Roteux\u010cechupGrealish",
        "event_total": 63,
        "has_played": true,
        "id": 44316802,
        "last_rank": 43512,
        "player_name": "\u00c9tienne Girard",
        "rank": 35963,
        "rank_sort": 36017,
        "total": 2363
      },
      {
        "club_badge_src": "https://fantasy.premierleague.com/gcs/plfpl-production-adobe-approved/plfpl-production/5712565/f2ec48b4-add1-4075-a00e-be25028d17cb.png",
        "entry": 5712565,
        "entry_name": "FC Drip",
        "event_total": 63,
        "has_played": true,
        "id": 44736248,
        "last_rank": 43512,
        "player_name": "Jonathon Moore",
        "rank": 35963,
        "rank_sort": 36018,
        "total": 2363
      },
      {
        "club_badge_src": null,
        "entry": 5871251,
        "entry_name": "Peaky Reijnders",
        "event_total": 69,
        "has_played": true,
        "id": 46115571,
        "last_rank": 46236,
        "player_name": "linus holmqvist",
        "rank": 35963,
        "rank_sort": 36019,
        "total": 2363
      },
      {
        "club_badge_src": null,
        "entry": 5927141,
        "entry_name": "FC neccaN",
        "event_total": 57,
        "has_played": true,
        "id": 46592875,
        "last_rank": 31309,
        "player_name": "Mathias Torverud",
        "rank": 35963,
        "rank_sort": 36020,
        "total": 2363
      },
      {
        "club_badge_src": null,
        "entry": 6031484,
        "entry_name": "Wilfried Crohny FC",
        "event_total": 66,
        "has_played": true,
        "id": 47579172,
        "last_rank": 47812,
        "player_name": "Dan Davis",
        "rank": 35963,
        "rank_sort": 36021,
        "total": 2363
      },
      {
        "club_badge_src": null,
        "entry": 6414204,
        "entry_name": "Rayan",
        "event_total": 65,
        "has_played": true,
        "id": 51046100,
        "last_rank": 46313,
        "player_name": "Rayan Thany",
        "rank": 35963,
        "rank_sort": 36022,
        "total": 2363
      },
      {
        "club_badge_src": "https://fantasy.premierleague.com/gcs/plfpl-production-adobe-approved/plfpl-production/6740823/e353a6b1-c470-4348-bf9e-d2a41f2328c8.png",
        "entry": 6740823,
        "entry_name": "Beef Cherki",
        "event_total": 60,
        "has_played": true,
        "id": 53958671,
        "last_rank": 34682,
        "player_name": "Steve Wells",
        "rank": 35963,
        "rank_sort": 36023,
        "total": 2363
      },
      {
        "club_badge_src": null,
        "entry": 6908794,
        "entry_name": "Freeman Team",
        "event_total": 57,
        "has_played": true,
        "id": 55377829,
        "last_rank": 31309,
        "player_name": "Chukwujiekwu Vitus",
        "rank": 35963,
        "rank_sort": 36024,
        "total": 2363
      },
      {
        "club_badge_src": null,
        "entry": 7116801,
        "entry_name": "Gibek team",
        "event_total": 45,
        "has_played": true,
        "id": 57336448,
        "last_rank": 23857,
        "player_name": "Piotr Bator",
        "rank": 35963,
        "rank_sort": 36025,
        "total": 2363
      },
      {
        "club_badge_src": "https://fantasy.premierleague.com/gcs/plfpl-production-adobe-approved/plfpl-production/7252179/4a07045d-0c4e-432e-8295-fad6b7974a8b.png",
        "entry": 7252179,
        "entry_name": "Arsenal Glock 9",
        "event_total": 64,
        "has_played": true,
        "id": 58627011,
        "last_rank": 44882,
        "player_name": "Navinne Singh",
        "rank": 35963,
        "rank_sort": 36026,
        "total": 2363
      },
      {
        "club_badge_src": null,
        "entry": 7906278,
        "entry_name": "DenyaCFC",
        "event_total": 56,
        "has_played": true,
        "id": 65043852,
        "last_rank": 30276,
        "player_name": "D Safonov",
        "rank": 35963,
        "rank_sort": 36027,
        "total": 2363
      },
      {
        "club_badge_src": null,
        "entry": 8402668,
        "entry_name": "No Kane, no gain",
        "event_total": 62,
        "has_played": true,
        "id": 69702941,
        "last_rank": 42152,
        "player_name": "Mari T\u00f8nnessen Fl\u00e5t\u00e5mo",
        "rank": 35963,
        "rank_sort": 36028,
        "total": 2363
      },
      {
        "club_badge_src": null,
        "entry": 8947467,
        "entry_name": "Hakketid!",
        "event_total": 64,
        "has_played": true,
        "id": 74974482,
        "last_rank": 44804,
        "player_name": "Susanne Rueness Espeseth",
        "rank": 35963,
        "rank_sort": 36029,
        "total": 2363
      },
      {
        "club_badge_src": "https://fantasy.premierleague.com/gcs/plfpl-production-adobe-approved/plfpl-production/5154/930875c8-45a1-47c3-80af-5e0d3498867b.png",
        "entry": 5154,
        "entry_name": "JOHOR BAHRU FC",
        "event_total": 53,
        "has_played": true,
        "id": 29368,
        "last_rank": 31371,
        "player_name": "HARRIS HAZARD HAKIM",
        "rank": 36030,
        "rank_sort": 36030,
        "total": 2363
      },
      {
        "club_badge_src": null,
        "entry": 7543,
        "entry_name": "Planet Earth Is Blue",
        "event_total": 66,
        "has_played": true,
        "id": 43497,
        "last_rank": 47722,
        "player_name": "Deb Adams",
        "rank": 36030,
        "rank_sort": 36031,
        "total": 2363
      },
      {
        "club_badge_src": null,
        "entry": 47011,
        "entry_name": "Fantasyaddicts FC",
        "event_total": 60,
        "has_played": true,
        "id": 301443,
        "last_rank": 34682,
        "player_name": "Linus Klinga",
        "rank": 36030,
        "rank_sort": 36032,
        "total": 2363
      },
      {
        "club_badge_src": null,
        "entry": 118880,
        "entry_name": "Bianconiri",
        "event_total": 59,
        "has_played": true,
        "id": 775758,
        "last_rank": 38391,
        "player_name": "Nasser Haithem",
        "rank": 36030,
        "rank_sort": 36033,
        "total": 2363
      },
      {
        "club_badge_src": null,
        "entry": 217456,
        "entry_name": "VsechnoBude FC",
        "event_total": 46,
        "has_played": true,
        "id": 1446190,
        "last_rank": 24713,
        "player_name": "Miroslav Palma",
        "rank": 36030,
        "rank_sort": 36034,
        "total": 2363
      },
      {
        "club_badge_src": null,
        "entry": 277627,
        "entry_name": "Dr.Ahmed",
        "event_total": 58,
        "has_played": true,
        "id": 1847916,
        "last_rank": 37189,
        "player_name": "Ahmed Kamal",
        "rank": 36030,
        "rank_sort": 36035,
        "total": 2363
      },
      {
        "club_badge_src": null,
        "entry": 447427,
        "entry_name": "The Six Time",
        "event_total": 55,
        "has_played": true,
        "id": 3001307,
        "last_rank": 25517,
        "player_name": "Jordan Murphy",
        "rank": 36030,
        "rank_sort": 36036,
        "total": 2363
      },
      {
        "club_badge_src": null,
        "entry": 484334,
        "entry_name": "Jugoplastika FK",
        "event_total": 69,
        "has_played": true,
        "id": 3250998,
        "last_rank": 46313,
        "player_name": "Dragan Brinjak",
        "rank": 36030,
        "rank_sort": 36037,
        "total": 2363
      },
      {
        "club_badge_src": null,
        "entry": 487902,
        "entry_name": "The Highs & Diallos",
        "event_total": 64,
        "has_played": true,
        "id": 3275439,
        "last_rank": 39585,
        "player_name": "Moji Toh",
        "rank": 36030,
        "rank_sort": 36038,
        "total": 2363
      },
      {
        "club_badge_src": null,
        "entry": 603242,
        "entry_name": "Mkhandisi",
        "event_total": 48,
        "has_played": true,
        "id": 4071591,
        "last_rank": 19966,
        "player_name": "Wan Sifuna",
        "rank": 36030,
        "rank_sort": 36039,
        "total": 2363
      },
      {
        "club_badge_src": null,
        "entry": 652331,
        "entry_name": "MOF",
        "event_total": 53,
        "has_played": true,
        "id": 4408508,
        "last_rank": 31437,
        "player_name": "Mahmoud Moftah",
        "rank": 36030,
        "rank_sort": 36040,
        "total": 2363
      },
      {
        "club_badge_src": null,
        "entry": 785195,
        "entry_name": "A Forest",
        "event_total": 67,
        "has_played": true,
        "id": 5365013,
        "last_rank": 49368,
        "player_name": "Oliver Bowler",
        "rank": 36030,
        "rank_sort": 36041,
        "total": 2363
      },
      {
        "club_badge_src": null,
        "entry": 790786,
        "entry_name": "Saka Potatoes",
        "event_total": 57,
        "has_played": true,
        "id": 5411213,
        "last_rank": 35969,
        "player_name": "Shane Molloy",
        "rank": 36030,
        "rank_sort": 36042,
        "total": 2363
      },
      {
        "club_badge_src": "https://fantasy.premierleague.com/gcs/plfpl-production-adobe-approved/plfpl-production/819687/3a27a7e4-78a0-41ce-9009-c068420cd49c.png",
        "entry": 819687,
        "entry_name": "smoking that zaha",
        "event_total": 55,
        "has_played": true,
        "id": 5613779,
        "last_rank": 33582,
        "player_name": "Samuel Kearney",
        "rank": 36030,
        "rank_sort": 36043,
        "total": 2363
      },
      {
        "club_badge_src": "https://fantasy.premierleague.com/gcs/plfpl-production-adobe-approved/plfpl-production/855217/67c822bf-b552-4cc5-a131-ca0a0f352023.png",
        "entry": 855217,
        "entry_name": "FNF FC",
        "event_total": 58,
        "has_played": true,
        "id": 5862069,
        "last_rank": 32491,
        "player_name": "Muhammad Firdaus Razali",
        "rank": 36030,
        "rank_sort": 36044,
        "total": 2363
      },
      {
        "club_badge_src": "https://fantasy.premierleague.com/gcs/plfpl-production-adobe-approved/plfpl-production/1080715/9c896547-e99d-4378-b54f-64bdadb8d8ab.png",
        "entry": 1080715,
        "entry_name": "MR TOM",
        "event_total": 47,
        "has_played": true,
        "id": 7482995,
        "last_rank": 22154,
        "player_name": "Thomas Webster",
        "rank": 36030,
        "rank_sort": 36045,
        "total": 2363
      },
      {
        "club_badge_src": null,
        "entry": 1094321,
        "entry_name": "\u0645\u0627\u0632\u0646 \u0631\u0627\u062c\u0639",
        "event_total": 74,
        "has_played": true,
        "id": 7579337,
        "last_rank": 60671,
        "player_name": "Mazen Abdelgawad",
        "rank": 36030,
        "rank_sort": 36046,
        "total": 2363
      },
      {
        "club_badge_src": null,
        "entry": 1110791,
        "entry_name": "Bleed Blue FC",
        "event_total": 56,
        "has_played": true,
        "id": 7694450,
        "last_rank": 34796,
        "player_name": "Vishrut Agarwal",
        "rank": 36030,
        "rank_sort": 36047,
        "total": 2363
      },
      {
        "club_badge_src": null,
        "entry": 1487624,
        "entry_name": "My\u2764\ufe0fgoesSalahlalala",
        "event_total": 47,
        "has_played": true,
        "id": 10373849,
        "last_rank": 25564,
        "player_name": "Gethin Edwards",
        "rank": 36030,
        "rank_sort": 36048,
        "total": 2363
      },
      {
        "club_badge_src": null,
        "entry": 1604729,
        "entry_name": "Bobo Caldy",
        "event_total": 59,
        "has_played": true,
        "id": 11226942,
        "last_rank": 29279,
        "player_name": "Ally Caldicott",
        "rank": 36030,
        "rank_sort": 36049,
        "total": 2363
      },
      {
        "club_badge_src": null,
        "entry": 1837384,
        "entry_name": "Unbelievable Jeff",
        "event_total": 50,
        "has_played": true,
        "id": 12926080,
        "last_rank": 28425,
        "player_name": "Jason Hinton",
        "rank": 36030,
        "rank_sort": 36050,
        "total": 2363
      }
    ]
  }
}