{
  "last_updated_data": "2026-05-24T23:28:17Z",
  "league": {
    "admin_entry": null,
    "closed": false,
    "code_privacy": "p",
    "created": "2025-07-20T23:14:33.933835Z",
    "cup_league": 2815434,
    "has_cup": true,
    "id": 314,
    "league_type": "s",
    "max_entries": null,
    "name": "Overall",
    "rank": null,
    "scoring": "c",
    "start_event": 1
  },
  "new_entries": {
    "has_next": false,
    "page": 1,
    "results": []
  },
  "standings": {
    "has_next": true,
    "page": 1159,
    "results": [
      {
        "club_badge_src": null,
        "entry": 300727,
        "entry_name": "Ananas",
        "event_total": 58,
        "has_played": true,
        "id": 2011641,
        "last_rank": 53345,
        "player_name": "\u00c5nen Viljar Vest\u00f8l",
        "rank": 57853,
        "rank_sort": 57901,
        "total": 2347
      },
      {
        "club_badge_src": null,
        "entry": 308976,
        "entry_name": "Florian sqirtz",
        "event_total": 59,
        "has_played": true,
        "id": 2069595,
        "last_rank": 61950,
        "player_name": "George Robbins",
        "rank": 57853,
        "rank_sort": 57902,
        "total": 2347
      },
      {
        "club_badge_src": null,
        "entry": 329129,
        "entry_name": "Ingoat FC",
        "event_total": 61,
        "has_played": true,
        "id": 2204790,
        "last_rank": 58388,
        "player_name": "Ingmar Lindel\u00f6f",
        "rank": 57853,
        "rank_sort": 57903,
        "total": 2347
      },
      {
        "club_badge_src": null,
        "entry": 341252,
        "entry_name": "Squidwirtz",
        "event_total": 56,
        "has_played": true,
        "id": 2284207,
        "last_rank": 57001,
        "player_name": "Liam Tidy",
        "rank": 57853,
        "rank_sort": 57904,
        "total": 2347
      },
      {
        "club_badge_src": null,
        "entry": 346853,
        "entry_name": "Cunha Matata",
        "event_total": 51,
        "has_played": true,
        "id": 2321716,
        "last_rank": 48642,
        "player_name": "Ryan Bratby",
        "rank": 57853,
        "rank_sort": 57905,
        "total": 2347
      },
      {
        "club_badge_src": null,
        "entry": 354745,
        "entry_name": "johnny fc",
        "event_total": 60,
        "has_played": true,
        "id": 2374106,
        "last_rank": 63390,
        "player_name": "Johnny Sykes-Ellis",
        "rank": 57853,
        "rank_sort": 57906,
        "total": 2347
      },
      {
        "club_badge_src": null,
        "entry": 361327,
        "entry_name": "Darwirtzy",
        "event_total": 55,
        "has_played": true,
        "id": 2417720,
        "last_rank": 55311,
        "player_name": "Oscar Ravik",
        "rank": 57853,
        "rank_sort": 57907,
        "total": 2347
      },
      {
        "club_badge_src": null,
        "entry": 385533,
        "entry_name": "Giswolds Gutter",
        "event_total": 56,
        "has_played": true,
        "id": 2586211,
        "last_rank": 56369,
        "player_name": "Sverre Giswold",
        "rank": 57853,
        "rank_sort": 57908,
        "total": 2347
      },
      {
        "club_badge_src": null,
        "entry": 454567,
        "entry_name": "You Beto Believe It",
        "event_total": 50,
        "has_played": true,
        "id": 3049542,
        "last_rank": 41617,
        "player_name": "Seb Walsh",
        "rank": 57853,
        "rank_sort": 57909,
        "total": 2347
      },
      {
        "club_badge_src": null,
        "entry": 455103,
        "entry_name": "Guy of Anderlecht",
        "event_total": 67,
        "has_played": true,
        "id": 3053099,
        "last_rank": 77999,
        "player_name": "Rowan Emslie",
        "rank": 57853,
        "rank_sort": 57910,
        "total": 2347
      },
      {
        "club_badge_src": null,
        "entry": 460223,
        "entry_name": "Iwobi wan kenobi",
        "event_total": 71,
        "has_played": true,
        "id": 3087278,
        "last_rank": 87074,
        "player_name": "Joshua Beardsworth",
        "rank": 57853,
        "rank_sort": 57911,
        "total": 2347
      },
      {
        "club_badge_src": null,
        "entry": 484844,
        "entry_name": "Bowen Arrows",
        "event_total": 56,
        "has_played": true,
        "id": 3254387,
        "last_rank": 50199,
        "player_name": "Steven Turner",
        "rank": 57853,
        "rank_sort": 57912,
        "total": 2347
      },
      {
        "club_badge_src": null,
        "entry": 484976,
        "entry_name": "\u267e\ufe0fDiogo20\u267e\ufe0f",
        "event_total": 56,
        "has_played": true,
        "id": 3255254,
        "last_rank": 50199,
        "player_name": "Michael Ariav",
        "rank": 57853,
        "rank_sort": 57913,
        "total": 2347
      },
      {
        "club_badge_src": null,
        "entry": 511343,
        "entry_name": "Fergie Time",
        "event_total": 64,
        "has_played": true,
        "id": 3433746,
        "last_rank": 71386,
        "player_name": "Amol Adhikari",
        "rank": 57853,
        "rank_sort": 57914,
        "total": 2347
      },
      {
        "club_badge_src": "https://fantasy.premierleague.com/gcs/plfpl-production-adobe-approved/plfpl-production/526745/df48aedb-39f3-4803-9c76-e9d5c10ace5b.png",
        "entry": 526745,
        "entry_name": "Mohamed tareq",
        "event_total": 80,
        "has_played": true,
        "id": 3540881,
        "last_rank": 110187,
        "player_name": "Mohamed Tareq",
        "rank": 57853,
        "rank_sort": 57915,
        "total": 2347
      },
      {
        "club_badge_src": null,
        "entry": 533636,
        "entry_name": "Bally Utd",
        "event_total": 51,
        "has_played": true,
        "id": 3590759,
        "last_rank": 48898,
        "player_name": "James O'Leary",
        "rank": 57853,
        "rank_sort": 57916,
        "total": 2347
      },
      {
        "club_badge_src": "https://fantasy.premierleague.com/gcs/plfpl-production-adobe-approved/plfpl-production/588569/43ea2619-800f-47aa-856f-55d0868594c4.png",
        "entry": 588569,
        "entry_name": "The Pharaohs",
        "event_total": 60,
        "has_played": true,
        "id": 3963540,
        "last_rank": 64005,
        "player_name": "Omar Abdel Hamid",
        "rank": 57853,
        "rank_sort": 57917,
        "total": 2347
      },
      {
        "club_badge_src": null,
        "entry": 617728,
        "entry_name": "Slot Machines",
        "event_total": 44,
        "has_played": true,
        "id": 4173638,
        "last_rank": 39246,
        "player_name": "Daniel Marshall",
        "rank": 57853,
        "rank_sort": 57918,
        "total": 2347
      },
      {
        "club_badge_src": null,
        "entry": 625252,
        "entry_name": "Pink Sock Lollypop",
        "event_total": 66,
        "has_played": true,
        "id": 4225207,
        "last_rank": 67422,
        "player_name": "Barry Roberts",
        "rank": 57853,
        "rank_sort": 57919,
        "total": 2347
      },
      {
        "club_badge_src": null,
        "entry": 625711,
        "entry_name": "Sch\u00e4rface",
        "event_total": 67,
        "has_played": true,
        "id": 4228333,
        "last_rank": 68957,
        "player_name": "Mikey Scanlan",
        "rank": 57853,
        "rank_sort": 57920,
        "total": 2347
      },
      {
        "club_badge_src": null,
        "entry": 627446,
        "entry_name": "Nurkkajussit",
        "event_total": 65,
        "has_played": true,
        "id": 4240003,
        "last_rank": 73423,
        "player_name": "Antti Nieminen",
        "rank": 57853,
        "rank_sort": 57921,
        "total": 2347
      },
      {
        "club_badge_src": null,
        "entry": 662057,
        "entry_name": "Ekitike's Tiki Taka",
        "event_total": 70,
        "has_played": true,
        "id": 4475058,
        "last_rank": 84731,
        "player_name": "Tomasz Zawisza",
        "rank": 57853,
        "rank_sort": 57922,
        "total": 2347
      },
      {
        "club_badge_src": null,
        "entry": 676371,
        "entry_name": "ubice",
        "event_total": 79,
        "has_played": true,
        "id": 4576089,
        "last_rank": 95640,
        "player_name": "Nikola Lukic",
        "rank": 57853,
        "rank_sort": 57923,
        "total": 2347
      },
      {
        "club_badge_src": null,
        "entry": 681062,
        "entry_name": "Lil Uzi Wirtz",
        "event_total": 58,
        "has_played": true,
        "id": 4609073,
        "last_rank": 60168,
        "player_name": "Chester Bloomfield",
        "rank": 57853,
        "rank_sort": 57924,
        "total": 2347
      },
      {
        "club_badge_src": null,
        "entry": 742869,
        "entry_name": "SOOnami",
        "event_total": 66,
        "has_played": true,
        "id": 5053026,
        "last_rank": 75874,
        "player_name": "William Soo",
        "rank": 57853,
        "rank_sort": 57925,
        "total": 2347
      },
      {
        "club_badge_src": null,
        "entry": 780821,
        "entry_name": "Hamed FC",
        "event_total": 42,
        "has_played": true,
        "id": 5330840,
        "last_rank": 36963,
        "player_name": "Sherif Hamed",
        "rank": 57853,
        "rank_sort": 57926,
        "total": 2347
      },
      {
        "club_badge_src": null,
        "entry": 791876,
        "entry_name": "The Kingdom",
        "event_total": 45,
        "has_played": true,
        "id": 5418982,
        "last_rank": 40503,
        "player_name": "Derek Sullivan",
        "rank": 57853,
        "rank_sort": 57927,
        "total": 2347
      },
      {
        "club_badge_src": null,
        "entry": 792199,
        "entry_name": "Sotirya Athletic",
        "event_total": 47,
        "has_played": true,
        "id": 5421274,
        "last_rank": 37822,
        "player_name": "Vesselin Todorov",
        "rank": 57853,
        "rank_sort": 57928,
        "total": 2347
      },
      {
        "club_badge_src": null,
        "entry": 819098,
        "entry_name": "Cashflow Cobham",
        "event_total": 59,
        "has_played": true,
        "id": 5609621,
        "last_rank": 55014,
        "player_name": "Jake Russell",
        "rank": 57853,
        "rank_sort": 57929,
        "total": 2347
      },
      {
        "club_badge_src": null,
        "entry": 864227,
        "entry_name": "Catalans",
        "event_total": 62,
        "has_played": true,
        "id": 5924668,
        "last_rank": 53023,
        "player_name": "Omar Hemmat",
        "rank": 57853,
        "rank_sort": 57930,
        "total": 2347
      },
      {
        "club_badge_src": null,
        "entry": 866327,
        "entry_name": "Joshing About",
        "event_total": 58,
        "has_played": true,
        "id": 5939081,
        "last_rank": 53345,
        "player_name": "Kenechukwu Okata",
        "rank": 57853,
        "rank_sort": 57931,
        "total": 2347
      },
      {
        "club_badge_src": null,
        "entry": 957154,
        "entry_name": "Alqabo Champion",
        "event_total": 56,
        "has_played": true,
        "id": 6595210,
        "last_rank": 57200,
        "player_name": "Anas Hazim",
        "rank": 57853,
        "rank_sort": 57932,
        "total": 2347
      },
      {
        "club_badge_src": null,
        "entry": 977911,
        "entry_name": "Eumundi Rangers",
        "event_total": 66,
        "has_played": true,
        "id": 6741721,
        "last_rank": 75537,
        "player_name": "Sam Putnam",
        "rank": 57853,
        "rank_sort": 57933,
        "total": 2347
      },
      {
        "club_badge_src": null,
        "entry": 1003861,
        "entry_name": "Champagne khusanova",
        "event_total": 71,
        "has_played": true,
        "id": 6939322,
        "last_rank": 87350,
        "player_name": "Harry Behrens",
        "rank": 57853,
        "rank_sort": 57934,
        "total": 2347
      },
      {
        "club_badge_src": "https://fantasy.premierleague.com/gcs/plfpl-production-adobe-approved/plfpl-production/1052516/539e0ec4-f13a-44f9-bee0-bc4b298b7157.png",
        "entry": 1052516,
        "entry_name": "Kinder Mbeumo",
        "event_total": 47,
        "has_played": true,
        "id": 7284054,
        "last_rank": 42940,
        "player_name": "Libero Signorelli",
        "rank": 57853,
        "rank_sort": 57935,
        "total": 2347
      },
      {
        "club_badge_src": null,
        "entry": 1055649,
        "entry_name": "shocku",
        "event_total": 54,
        "has_played": true,
        "id": 7305716,
        "last_rank": 53837,
        "player_name": "Dariusz \u0141ucki",
        "rank": 57853,
        "rank_sort": 57936,
        "total": 2347
      },
      {
        "club_badge_src": null,
        "entry": 1114973,
        "entry_name": "Fandango",
        "event_total": 58,
        "has_played": true,
        "id": 7723124,
        "last_rank": 60168,
        "player_name": "Kyle Tremain",
        "rank": 57853,
        "rank_sort": 57937,
        "total": 2347
      },
      {
        "club_badge_src": null,
        "entry": 1116399,
        "entry_name": "Manchesthair United",
        "event_total": 79,
        "has_played": true,
        "id": 7733158,
        "last_rank": 106763,
        "player_name": "Brett Whitehead",
        "rank": 57853,
        "rank_sort": 57938,
        "total": 2347
      },
      {
        "club_badge_src": null,
        "entry": 1138315,
        "entry_name": "MPT",
        "event_total": 70,
        "has_played": true,
        "id": 7890512,
        "last_rank": 84360,
        "player_name": "Ramin Talukder",
        "rank": 57853,
        "rank_sort": 57939,
        "total": 2347
      },
      {
        "club_badge_src": null,
        "entry": 1138560,
        "entry_name": "Baelas BK",
        "event_total": 77,
        "has_played": true,
        "id": 7892245,
        "last_rank": 101419,
        "player_name": "Helene R\u00f8kke",
        "rank": 57853,
        "rank_sort": 57940,
        "total": 2347
      },
      {
        "club_badge_src": null,
        "entry": 1147513,
        "entry_name": "haCunha Mateta",
        "event_total": 65,
        "has_played": true,
        "id": 7956223,
        "last_rank": 65475,
        "player_name": "Ruaridh Reid",
        "rank": 57853,
        "rank_sort": 57941,
        "total": 2347
      },
      {
        "club_badge_src": null,
        "entry": 1224976,
        "entry_name": "Naani Madueke",
        "event_total": 68,
        "has_played": true,
        "id": 8505425,
        "last_rank": 79817,
        "player_name": "Joe McCall",
        "rank": 57853,
        "rank_sort": 57942,
        "total": 2347
      },
      {
        "club_badge_src": "https://fantasy.premierleague.com/gcs/plfpl-production-adobe-approved/plfpl-production/1239138/eea736a8-b7c4-49f7-b247-4f9a4e046228.png",
        "entry": 1239138,
        "entry_name": "B.M\u00f6nchenflapjack",
        "event_total": 60,
        "has_played": true,
        "id": 8605787,
        "last_rank": 64005,
        "player_name": "Adam Stevens",
        "rank": 57853,
        "rank_sort": 57943,
        "total": 2347
      },
      {
        "club_badge_src": null,
        "entry": 1262757,
        "entry_name": "Wirtz off Wallstreet",
        "event_total": 55,
        "has_played": true,
        "id": 8773268,
        "last_rank": 55014,
        "player_name": "Lars Warmerdam",
        "rank": 57853,
        "rank_sort": 57944,
        "total": 2347
      },
      {
        "club_badge_src": null,
        "entry": 1278369,
        "entry_name": "St1 Oilers",
        "event_total": 54,
        "has_played": true,
        "id": 8883060,
        "last_rank": 53345,
        "player_name": "Linus \u00d6gren",
        "rank": 57853,
        "rank_sort": 57945,
        "total": 2347
      },
      {
        "club_badge_src": null,
        "entry": 1282452,
        "entry_name": "Halftime Orange",
        "event_total": 53,
        "has_played": true,
        "id": 8911418,
        "last_rank": 51984,
        "player_name": "Tom pemberton",
        "rank": 57853,
        "rank_sort": 57946,
        "total": 2347
      },
      {
        "club_badge_src": null,
        "entry": 1344662,
        "entry_name": "Haalandaise Sauce",
        "event_total": 65,
        "has_played": true,
        "id": 9348803,
        "last_rank": 73423,
        "player_name": "Timothy Rohith Bharath",
        "rank": 57853,
        "rank_sort": 57947,
        "total": 2347
      },
      {
        "club_badge_src": null,
        "entry": 1376984,
        "entry_name": "Skinbulbs",
        "event_total": 68,
        "has_played": true,
        "id": 9571803,
        "last_rank": 79817,
        "player_name": "Andrew Davis",
        "rank": 57853,
        "rank_sort": 57948,
        "total": 2347
      },
      {
        "club_badge_src": null,
        "entry": 1379514,
        "entry_name": "Win Win Gary",
        "event_total": 52,
        "has_played": true,
        "id": 9589497,
        "last_rank": 50468,
        "player_name": "Gary Wong",
        "rank": 57853,
        "rank_sort": 57949,
        "total": 2347
      },
      {
        "club_badge_src": null,
        "entry": 1415786,
        "entry_name": "team zero",
        "event_total": 72,
        "has_played": true,
        "id": 9856207,
        "last_rank": 79817,
        "player_name": "Phu Nguyen",
        "rank": 57853,
        "rank_sort": 57950,
        "total": 2347
      }
    ]
  }
}