{
  "last_updated_data": "2026-05-24T23:28:17Z",
  "league": {
    "admin_entry": null,
    "closed": false,
    "code_privacy": "p",
    "created": "2025-07-20T23:14:33.933835Z",
    "cup_league": 2815434,
    "has_cup": true,
    "id": 314,
    "league_type": "s",
    "max_entries": null,
    "name": "Overall",
    "rank": null,
    "scoring": "c",
    "start_event": 1
  },
  "new_entries": {
    "has_next": false,
    "page": 1,
    "results": []
  },
  "standings": {
    "has_next": true,
    "page": 122,
    "results": [
      {
        "club_badge_src": null,
        "entry": 3704574,
        "entry_name": "Smith 11",
        "event_total": 47,
        "has_played": true,
        "id": 27641099,
        "last_rank": 3528,
        "player_name": "Freddy Smith",
        "rank": 6041,
        "rank_sort": 6051,
        "total": 2410
      },
      {
        "club_badge_src": null,
        "entry": 3904014,
        "entry_name": "The Bulls",
        "event_total": 32,
        "has_played": true,
        "id": 29348950,
        "last_rank": 1689,
        "player_name": "Adam Cornish",
        "rank": 6041,
        "rank_sort": 6052,
        "total": 2410
      },
      {
        "club_badge_src": null,
        "entry": 4256195,
        "entry_name": "Mustapha F.C",
        "event_total": 63,
        "has_played": true,
        "id": 32267441,
        "last_rank": 7333,
        "player_name": "Musta Koujane",
        "rank": 6041,
        "rank_sort": 6053,
        "total": 2410
      },
      {
        "club_badge_src": null,
        "entry": 4328646,
        "entry_name": "Lee's swfc shirt",
        "event_total": 66,
        "has_played": true,
        "id": 32854367,
        "last_rank": 8382,
        "player_name": "james baxter",
        "rank": 6041,
        "rank_sort": 6054,
        "total": 2410
      },
      {
        "club_badge_src": null,
        "entry": 4596402,
        "entry_name": "Lucky Luke",
        "event_total": 69,
        "has_played": true,
        "id": 35105095,
        "last_rank": 9484,
        "player_name": "luke theodosiou",
        "rank": 6041,
        "rank_sort": 6055,
        "total": 2410
      },
      {
        "club_badge_src": null,
        "entry": 4931008,
        "entry_name": "King KDB",
        "event_total": 76,
        "has_played": true,
        "id": 38038058,
        "last_rank": 12608,
        "player_name": "mayur jadhav",
        "rank": 6041,
        "rank_sort": 6056,
        "total": 2410
      },
      {
        "club_badge_src": null,
        "entry": 5305043,
        "entry_name": "George Ace",
        "event_total": 57,
        "has_played": true,
        "id": 41122516,
        "last_rank": 5646,
        "player_name": "George Hurley",
        "rank": 6041,
        "rank_sort": 6057,
        "total": 2410
      },
      {
        "club_badge_src": null,
        "entry": 5622205,
        "entry_name": "Genuine Bot Manager",
        "event_total": 43,
        "has_played": true,
        "id": 43949467,
        "last_rank": 2952,
        "player_name": "Sourav Kumar Shil",
        "rank": 6041,
        "rank_sort": 6058,
        "total": 2410
      },
      {
        "club_badge_src": null,
        "entry": 5766145,
        "entry_name": "Shika Paka Power",
        "event_total": 59,
        "has_played": true,
        "id": 45204734,
        "last_rank": 6194,
        "player_name": "Wachania Kanyi",
        "rank": 6041,
        "rank_sort": 6059,
        "total": 2410
      },
      {
        "club_badge_src": null,
        "entry": 7170660,
        "entry_name": "Muszon Team",
        "event_total": 64,
        "has_played": true,
        "id": 57859216,
        "last_rank": 7625,
        "player_name": "Filip Mucha",
        "rank": 6041,
        "rank_sort": 6060,
        "total": 2410
      },
      {
        "club_badge_src": null,
        "entry": 7746062,
        "entry_name": "teamfantaCE",
        "event_total": 66,
        "has_played": true,
        "id": 63585405,
        "last_rank": 8339,
        "player_name": "Taimur Tanvir",
        "rank": 6041,
        "rank_sort": 6061,
        "total": 2410
      },
      {
        "club_badge_src": null,
        "entry": 7758823,
        "entry_name": "(Four) Green Army",
        "event_total": 52,
        "has_played": true,
        "id": 63702529,
        "last_rank": 4471,
        "player_name": "Rich Hamon",
        "rank": 6041,
        "rank_sort": 6062,
        "total": 2410
      },
      {
        "club_badge_src": null,
        "entry": 446,
        "entry_name": "Stach Overflow",
        "event_total": 58,
        "has_played": true,
        "id": 2463,
        "last_rank": 5940,
        "player_name": "Erik Garcia",
        "rank": 6063,
        "rank_sort": 6063,
        "total": 2410
      },
      {
        "club_badge_src": null,
        "entry": 3273,
        "entry_name": "Jos\u00e9 Mourinho",
        "event_total": 72,
        "has_played": true,
        "id": 18505,
        "last_rank": 10748,
        "player_name": "Lirim Saidi",
        "rank": 6063,
        "rank_sort": 6064,
        "total": 2410
      },
      {
        "club_badge_src": null,
        "entry": 8729,
        "entry_name": "Reijnders Games",
        "event_total": 68,
        "has_played": true,
        "id": 50918,
        "last_rank": 9089,
        "player_name": "Randall Arendse",
        "rank": 6063,
        "rank_sort": 6065,
        "total": 2410
      },
      {
        "club_badge_src": null,
        "entry": 22476,
        "entry_name": "Can't Get Any Wirtz",
        "event_total": 71,
        "has_played": true,
        "id": 141151,
        "last_rank": 10253,
        "player_name": "Daniel Pallett",
        "rank": 6063,
        "rank_sort": 6066,
        "total": 2410
      },
      {
        "club_badge_src": null,
        "entry": 42247,
        "entry_name": "Faceroll",
        "event_total": 70,
        "has_played": true,
        "id": 270719,
        "last_rank": 9853,
        "player_name": "Keith Ong",
        "rank": 6063,
        "rank_sort": 6067,
        "total": 2410
      },
      {
        "club_badge_src": "https://fantasy.premierleague.com/gcs/plfpl-production-adobe-approved/plfpl-production/44903/ce150a3a-617e-45fe-b219-43c389b0fb0f.png",
        "entry": 44903,
        "entry_name": "Fantasy by science",
        "event_total": 46,
        "has_played": true,
        "id": 287920,
        "last_rank": 3408,
        "player_name": "Abdelrahman EL Kayal",
        "rank": 6063,
        "rank_sort": 6068,
        "total": 2410
      },
      {
        "club_badge_src": null,
        "entry": 47308,
        "entry_name": "Academy@ctus",
        "event_total": 71,
        "has_played": true,
        "id": 303391,
        "last_rank": 10288,
        "player_name": "jukkrapong popetrai",
        "rank": 6063,
        "rank_sort": 6069,
        "total": 2410
      },
      {
        "club_badge_src": null,
        "entry": 71605,
        "entry_name": "CATS XI",
        "event_total": 61,
        "has_played": true,
        "id": 465114,
        "last_rank": 6752,
        "player_name": "Tom Aldis",
        "rank": 6063,
        "rank_sort": 6070,
        "total": 2410
      },
      {
        "club_badge_src": null,
        "entry": 78878,
        "entry_name": "Subbed at '59",
        "event_total": 60,
        "has_played": true,
        "id": 512845,
        "last_rank": 6409,
        "player_name": "Biraag Shah",
        "rank": 6063,
        "rank_sort": 6071,
        "total": 2410
      },
      {
        "club_badge_src": "https://fantasy.premierleague.com/gcs/plfpl-production-adobe-approved/plfpl-production/80598/0c2184bc-39ba-43fb-a254-8e09d686f96c.png",
        "entry": 80598,
        "entry_name": "AnJ",
        "event_total": 60,
        "has_played": true,
        "id": 524354,
        "last_rank": 6409,
        "player_name": "Andrzej Zytko",
        "rank": 6063,
        "rank_sort": 6072,
        "total": 2410
      },
      {
        "club_badge_src": null,
        "entry": 93523,
        "entry_name": "Rawwville",
        "event_total": 53,
        "has_played": true,
        "id": 611153,
        "last_rank": 4704,
        "player_name": "Nana Osei A Adusei",
        "rank": 6063,
        "rank_sort": 6073,
        "total": 2410
      },
      {
        "club_badge_src": null,
        "entry": 128104,
        "entry_name": "That's NumberHwang",
        "event_total": 57,
        "has_played": true,
        "id": 835008,
        "last_rank": 5646,
        "player_name": "Callum Bell",
        "rank": 6063,
        "rank_sort": 6074,
        "total": 2410
      },
      {
        "club_badge_src": null,
        "entry": 143763,
        "entry_name": "Atletico Bolton",
        "event_total": 64,
        "has_played": true,
        "id": 940652,
        "last_rank": 7604,
        "player_name": "Liam Yates",
        "rank": 6063,
        "rank_sort": 6075,
        "total": 2410
      },
      {
        "club_badge_src": null,
        "entry": 185148,
        "entry_name": "Big Beautiful Team",
        "event_total": 53,
        "has_played": true,
        "id": 1222859,
        "last_rank": 4742,
        "player_name": "Sid Chalke",
        "rank": 6063,
        "rank_sort": 6076,
        "total": 2410
      },
      {
        "club_badge_src": null,
        "entry": 188868,
        "entry_name": "Wile E Kayodes",
        "event_total": 42,
        "has_played": true,
        "id": 1249780,
        "last_rank": 2802,
        "player_name": "Hobie Hoffmann",
        "rank": 6063,
        "rank_sort": 6077,
        "total": 2410
      },
      {
        "club_badge_src": null,
        "entry": 266245,
        "entry_name": "HornetHiatus",
        "event_total": 69,
        "has_played": true,
        "id": 1771028,
        "last_rank": 9484,
        "player_name": "Matt Adcock",
        "rank": 6063,
        "rank_sort": 6078,
        "total": 2410
      },
      {
        "club_badge_src": null,
        "entry": 284617,
        "entry_name": "The Sharks",
        "event_total": 60,
        "has_played": true,
        "id": 1895236,
        "last_rank": 6448,
        "player_name": "Stoyan Kolarov",
        "rank": 6063,
        "rank_sort": 6079,
        "total": 2410
      },
      {
        "club_badge_src": null,
        "entry": 392991,
        "entry_name": "Chip & Dale FC",
        "event_total": 56,
        "has_played": true,
        "id": 2635837,
        "last_rank": 5400,
        "player_name": "Dale Buckley",
        "rank": 6063,
        "rank_sort": 6080,
        "total": 2410
      },
      {
        "club_badge_src": "https://fantasy.premierleague.com/gcs/plfpl-production-adobe-approved/plfpl-production/394474/758f4677-b9a4-47d9-8718-0a19c653d38d.png",
        "entry": 394474,
        "entry_name": "THE PENGUINS",
        "event_total": 66,
        "has_played": true,
        "id": 2645446,
        "last_rank": 8382,
        "player_name": "Marcin So\u0142tys",
        "rank": 6063,
        "rank_sort": 6081,
        "total": 2410
      },
      {
        "club_badge_src": null,
        "entry": 484778,
        "entry_name": "Gorgie Globetrotters",
        "event_total": 66,
        "has_played": true,
        "id": 3253975,
        "last_rank": 8382,
        "player_name": "Craig Thomson",
        "rank": 6063,
        "rank_sort": 6082,
        "total": 2410
      },
      {
        "club_badge_src": null,
        "entry": 497232,
        "entry_name": "Mullally's magicians",
        "event_total": 50,
        "has_played": true,
        "id": 3337420,
        "last_rank": 4099,
        "player_name": "Joseph Mullally",
        "rank": 6063,
        "rank_sort": 6083,
        "total": 2410
      },
      {
        "club_badge_src": null,
        "entry": 768019,
        "entry_name": "ShadeHunters",
        "event_total": 50,
        "has_played": true,
        "id": 5238401,
        "last_rank": 4099,
        "player_name": "Daniel Palmer",
        "rank": 6063,
        "rank_sort": 6084,
        "total": 2410
      },
      {
        "club_badge_src": "https://fantasy.premierleague.com/gcs/plfpl-production-adobe-approved/plfpl-production/798002/691e0ee5-bf04-491d-a123-47d944ea51b4.png",
        "entry": 798002,
        "entry_name": "Saka Potatoes",
        "event_total": 58,
        "has_played": true,
        "id": 5461975,
        "last_rank": 5940,
        "player_name": "Joe Irvine",
        "rank": 6063,
        "rank_sort": 6085,
        "total": 2410
      },
      {
        "club_badge_src": null,
        "entry": 811745,
        "entry_name": "Hala Madrid",
        "event_total": 66,
        "has_played": true,
        "id": 5557895,
        "last_rank": 8320,
        "player_name": "FC SODA FPL",
        "rank": 6063,
        "rank_sort": 6086,
        "total": 2410
      },
      {
        "club_badge_src": "https://fantasy.premierleague.com/gcs/plfpl-production-adobe-approved/plfpl-production/824375/2b4a073a-0e58-4023-af31-3ab47d589a20.png",
        "entry": 824375,
        "entry_name": "Koptimise",
        "event_total": 68,
        "has_played": true,
        "id": 5646034,
        "last_rank": 9077,
        "player_name": "A R",
        "rank": 6063,
        "rank_sort": 6087,
        "total": 2410
      },
      {
        "club_badge_src": null,
        "entry": 949667,
        "entry_name": "Moranchester City",
        "event_total": 61,
        "has_played": true,
        "id": 6542268,
        "last_rank": 6752,
        "player_name": "Joe Moran",
        "rank": 6063,
        "rank_sort": 6088,
        "total": 2410
      },
      {
        "club_badge_src": null,
        "entry": 949728,
        "entry_name": "Eat my Goals",
        "event_total": 48,
        "has_played": true,
        "id": 6542679,
        "last_rank": 3721,
        "player_name": "Richard Webb",
        "rank": 6063,
        "rank_sort": 6089,
        "total": 2410
      },
      {
        "club_badge_src": null,
        "entry": 961939,
        "entry_name": "FC Samparini",
        "event_total": 64,
        "has_played": true,
        "id": 6628993,
        "last_rank": 7676,
        "player_name": "Samuel Folkesson Algman",
        "rank": 6063,
        "rank_sort": 6090,
        "total": 2410
      },
      {
        "club_badge_src": null,
        "entry": 1063366,
        "entry_name": "Hajduk",
        "event_total": 46,
        "has_played": true,
        "id": 7361327,
        "last_rank": 3391,
        "player_name": "Wineste Splicho",
        "rank": 6063,
        "rank_sort": 6091,
        "total": 2410
      },
      {
        "club_badge_src": "https://fantasy.premierleague.com/gcs/plfpl-production-adobe-approved/plfpl-production/1082706/56a2ce73-fbd7-43ce-8cc5-7354647ad318.png",
        "entry": 1082706,
        "entry_name": "mac dante",
        "event_total": 64,
        "has_played": true,
        "id": 7496957,
        "last_rank": 7625,
        "player_name": "Mac Dante",
        "rank": 6063,
        "rank_sort": 6092,
        "total": 2410
      },
      {
        "club_badge_src": null,
        "entry": 1193119,
        "entry_name": "FC King Crab",
        "event_total": 53,
        "has_played": true,
        "id": 8278297,
        "last_rank": 4704,
        "player_name": "Minh Hieu Le",
        "rank": 6063,
        "rank_sort": 6093,
        "total": 2410
      },
      {
        "club_badge_src": null,
        "entry": 1196001,
        "entry_name": "Almost captained him",
        "event_total": 52,
        "has_played": true,
        "id": 8298822,
        "last_rank": 4515,
        "player_name": "Matt Allen",
        "rank": 6063,
        "rank_sort": 6094,
        "total": 2410
      },
      {
        "club_badge_src": null,
        "entry": 1213148,
        "entry_name": "15 - ManU",
        "event_total": 56,
        "has_played": true,
        "id": 8420516,
        "last_rank": 5400,
        "player_name": "Mrutyunjaya Rath",
        "rank": 6063,
        "rank_sort": 6095,
        "total": 2410
      },
      {
        "club_badge_src": null,
        "entry": 1448251,
        "entry_name": "Yoro Wizard Harry",
        "event_total": 57,
        "has_played": true,
        "id": 10091578,
        "last_rank": 5646,
        "player_name": "Blake Mort",
        "rank": 6063,
        "rank_sort": 6096,
        "total": 2410
      },
      {
        "club_badge_src": null,
        "entry": 1455332,
        "entry_name": "Escape from Alcaraz",
        "event_total": 49,
        "has_played": true,
        "id": 10140770,
        "last_rank": 3866,
        "player_name": "Rob Dawes",
        "rank": 6063,
        "rank_sort": 6097,
        "total": 2410
      },
      {
        "club_badge_src": "https://fantasy.premierleague.com/gcs/plfpl-production-adobe-approved/plfpl-production/1460439/5f73ef7c-2ea8-4cdc-bd83-82a07ee5b48f.png",
        "entry": 1460439,
        "entry_name": "Krakow Machetes",
        "event_total": 74,
        "has_played": true,
        "id": 10179947,
        "last_rank": 11608,
        "player_name": "Hubert Roma\u0144czyk",
        "rank": 6063,
        "rank_sort": 6098,
        "total": 2410
      },
      {
        "club_badge_src": null,
        "entry": 1512759,
        "entry_name": "R. Kell. E FC",
        "event_total": 62,
        "has_played": true,
        "id": 10550644,
        "last_rank": 7059,
        "player_name": "Rob Kelleher",
        "rank": 6063,
        "rank_sort": 6099,
        "total": 2410
      },
      {
        "club_badge_src": null,
        "entry": 1545421,
        "entry_name": "Taj Mahaaland",
        "event_total": 45,
        "has_played": true,
        "id": 10788511,
        "last_rank": 3257,
        "player_name": "Will Mills",
        "rank": 6063,
        "rank_sort": 6100,
        "total": 2410
      }
    ]
  }
}