{
  "last_updated_data": "2026-05-24T23:28:17Z",
  "league": {
    "admin_entry": null,
    "closed": false,
    "code_privacy": "p",
    "created": "2025-07-20T23:14:33.933835Z",
    "cup_league": 2815434,
    "has_cup": true,
    "id": 314,
    "league_type": "s",
    "max_entries": null,
    "name": "Overall",
    "rank": null,
    "scoring": "c",
    "start_event": 1
  },
  "new_entries": {
    "has_next": false,
    "page": 1,
    "results": []
  },
  "standings": {
    "has_next": true,
    "page": 1477,
    "results": [
      {
        "club_badge_src": null,
        "entry": 2373178,
        "entry_name": "upthecherries",
        "event_total": 66,
        "has_played": true,
        "id": 16941627,
        "last_rank": 95640,
        "player_name": "Simon Bereznicki",
        "rank": 73620,
        "rank_sort": 73801,
        "total": 2338
      },
      {
        "club_badge_src": null,
        "entry": 2401718,
        "entry_name": "Kaizen Chiefs",
        "event_total": 60,
        "has_played": true,
        "id": 17165853,
        "last_rank": 81646,
        "player_name": "Michael Parry",
        "rank": 73620,
        "rank_sort": 73802,
        "total": 2338
      },
      {
        "club_badge_src": null,
        "entry": 2407195,
        "entry_name": "ReturnofTheKlopp",
        "event_total": 64,
        "has_played": true,
        "id": 17206250,
        "last_rank": 90524,
        "player_name": "Hazim Hazim",
        "rank": 73620,
        "rank_sort": 73803,
        "total": 2338
      },
      {
        "club_badge_src": null,
        "entry": 2471284,
        "entry_name": "Ctrl Alt De ligt",
        "event_total": 53,
        "has_played": true,
        "id": 17679348,
        "last_rank": 67063,
        "player_name": "Itay Sasportas",
        "rank": 73620,
        "rank_sort": 73804,
        "total": 2338
      },
      {
        "club_badge_src": "https://fantasy.premierleague.com/gcs/plfpl-production-adobe-approved/plfpl-production/2530266/5d272394-3af7-41c3-95cd-d2e8e14c6862.png",
        "entry": 2530266,
        "entry_name": "Supreme Squad",
        "event_total": 63,
        "has_played": true,
        "id": 18131115,
        "last_rank": 88594,
        "player_name": "Ebrima Sillah",
        "rank": 73620,
        "rank_sort": 73805,
        "total": 2338
      },
      {
        "club_badge_src": null,
        "entry": 2536885,
        "entry_name": "Ninja Skrtels",
        "event_total": 68,
        "has_played": true,
        "id": 18180664,
        "last_rank": 100700,
        "player_name": "Ollie Worker",
        "rank": 73620,
        "rank_sort": 73806,
        "total": 2338
      },
      {
        "club_badge_src": null,
        "entry": 2547381,
        "entry_name": "shead11",
        "event_total": 49,
        "has_played": true,
        "id": 18260164,
        "last_rank": 59813,
        "player_name": "Luke Shead",
        "rank": 73620,
        "rank_sort": 73807,
        "total": 2338
      },
      {
        "club_badge_src": null,
        "entry": 2576842,
        "entry_name": "Wirtzards of the Kop",
        "event_total": 63,
        "has_played": true,
        "id": 18493265,
        "last_rank": 88348,
        "player_name": "Henrik Benonisen",
        "rank": 73620,
        "rank_sort": 73808,
        "total": 2338
      },
      {
        "club_badge_src": "https://fantasy.premierleague.com/gcs/plfpl-production-adobe-approved/plfpl-production/2587228/c5ee1fd9-25e9-491c-9491-a232863c0fe7.png",
        "entry": 2587228,
        "entry_name": "Wild Rovers",
        "event_total": 81,
        "has_played": true,
        "id": 18573226,
        "last_rank": 138767,
        "player_name": "Matt Bickerton",
        "rank": 73620,
        "rank_sort": 73809,
        "total": 2338
      },
      {
        "club_badge_src": null,
        "entry": 2623774,
        "entry_name": "Viktorrrrrrrrrrrious",
        "event_total": 69,
        "has_played": true,
        "id": 18853577,
        "last_rank": 103130,
        "player_name": "Mahan Mobasseri",
        "rank": 73620,
        "rank_sort": 73810,
        "total": 2338
      },
      {
        "club_badge_src": null,
        "entry": 2709585,
        "entry_name": "Leshgo Sakas",
        "event_total": 61,
        "has_played": true,
        "id": 19494784,
        "last_rank": 83934,
        "player_name": "Caleb Gregg",
        "rank": 73620,
        "rank_sort": 73811,
        "total": 2338
      },
      {
        "club_badge_src": null,
        "entry": 2732358,
        "entry_name": "M.A.D.M",
        "event_total": 55,
        "has_played": true,
        "id": 19662539,
        "last_rank": 71386,
        "player_name": "Nick Milson",
        "rank": 73620,
        "rank_sort": 73812,
        "total": 2338
      },
      {
        "club_badge_src": null,
        "entry": 2739929,
        "entry_name": "2 Girls Wan-Bissaka",
        "event_total": 41,
        "has_played": true,
        "id": 19760911,
        "last_rank": 46839,
        "player_name": "Jamie Coates",
        "rank": 73620,
        "rank_sort": 73813,
        "total": 2338
      },
      {
        "club_badge_src": "https://fantasy.premierleague.com/gcs/plfpl-production-adobe-approved/plfpl-production/2758531/546320ad-bb77-4999-a8c0-4d5222f01b3d.png",
        "entry": 2758531,
        "entry_name": "Siu Mai",
        "event_total": 55,
        "has_played": true,
        "id": 20116634,
        "last_rank": 70757,
        "player_name": "Hoi Fai Tai",
        "rank": 73620,
        "rank_sort": 73814,
        "total": 2338
      },
      {
        "club_badge_src": null,
        "entry": 2785490,
        "entry_name": "DG",
        "event_total": 62,
        "has_played": true,
        "id": 20335244,
        "last_rank": 86304,
        "player_name": "Dimitri Grsh",
        "rank": 73620,
        "rank_sort": 73815,
        "total": 2338
      },
      {
        "club_badge_src": null,
        "entry": 2845586,
        "entry_name": "winaldi",
        "event_total": 52,
        "has_played": true,
        "id": 20802764,
        "last_rank": 64943,
        "player_name": "winaldi agustianto",
        "rank": 73620,
        "rank_sort": 73816,
        "total": 2338
      },
      {
        "club_badge_src": null,
        "entry": 2857063,
        "entry_name": "Soletti",
        "event_total": 47,
        "has_played": true,
        "id": 20892235,
        "last_rank": 56369,
        "player_name": "Anders Ellefsen",
        "rank": 73620,
        "rank_sort": 73817,
        "total": 2338
      },
      {
        "club_badge_src": null,
        "entry": 2876909,
        "entry_name": "FC Fernet",
        "event_total": 77,
        "has_played": true,
        "id": 21058984,
        "last_rank": 126088,
        "player_name": "Henrik Rosberg",
        "rank": 73620,
        "rank_sort": 73818,
        "total": 2338
      },
      {
        "club_badge_src": null,
        "entry": 2886138,
        "entry_name": "Bryan Mbumboclaat",
        "event_total": 69,
        "has_played": true,
        "id": 21129702,
        "last_rank": 103054,
        "player_name": "Jamie Eyton-Jones",
        "rank": 73620,
        "rank_sort": 73819,
        "total": 2338
      },
      {
        "club_badge_src": null,
        "entry": 2888855,
        "entry_name": "Sporting Almanac",
        "event_total": 50,
        "has_played": true,
        "id": 21151786,
        "last_rank": 61606,
        "player_name": "Chris Smith",
        "rank": 73620,
        "rank_sort": 73820,
        "total": 2338
      },
      {
        "club_badge_src": null,
        "entry": 2896134,
        "entry_name": "You will own nothing",
        "event_total": 56,
        "has_played": true,
        "id": 21219816,
        "last_rank": 72815,
        "player_name": "Robert Heffernan",
        "rank": 73620,
        "rank_sort": 73821,
        "total": 2338
      },
      {
        "club_badge_src": null,
        "entry": 2911388,
        "entry_name": "Kinder Mbeumo",
        "event_total": 59,
        "has_played": true,
        "id": 21338846,
        "last_rank": 79431,
        "player_name": "Matt Alcock",
        "rank": 73620,
        "rank_sort": 73822,
        "total": 2338
      },
      {
        "club_badge_src": null,
        "entry": 3011816,
        "entry_name": "8.6 light-years",
        "event_total": 69,
        "has_played": true,
        "id": 22156579,
        "last_rank": 103254,
        "player_name": "Palm Nutthawut",
        "rank": 73620,
        "rank_sort": 73823,
        "total": 2338
      },
      {
        "club_badge_src": null,
        "entry": 3049867,
        "entry_name": "game set and snatch",
        "event_total": 44,
        "has_played": true,
        "id": 22452221,
        "last_rank": 51403,
        "player_name": "Tom Morgan",
        "rank": 73620,
        "rank_sort": 73824,
        "total": 2338
      },
      {
        "club_badge_src": "https://fantasy.premierleague.com/gcs/plfpl-production-adobe-approved/plfpl-production/3105092/88c49d36-c4e5-4321-adb7-05c5f9dfe495.png",
        "entry": 3105092,
        "entry_name": "Pogues",
        "event_total": 73,
        "has_played": true,
        "id": 22893743,
        "last_rank": 114574,
        "player_name": "Chris Lucey",
        "rank": 73620,
        "rank_sort": 73825,
        "total": 2338
      },
      {
        "club_badge_src": null,
        "entry": 3111562,
        "entry_name": "Change Name",
        "event_total": 59,
        "has_played": true,
        "id": 22961383,
        "last_rank": 79079,
        "player_name": "Jay Cullum",
        "rank": 73620,
        "rank_sort": 73826,
        "total": 2338
      },
      {
        "club_badge_src": null,
        "entry": 3123903,
        "entry_name": "Gotham City FC",
        "event_total": 49,
        "has_played": true,
        "id": 23054261,
        "last_rank": 59813,
        "player_name": "Sandile Nkanini",
        "rank": 73620,
        "rank_sort": 73827,
        "total": 2338
      },
      {
        "club_badge_src": null,
        "entry": 3146901,
        "entry_name": "John Brummer FC",
        "event_total": 49,
        "has_played": true,
        "id": 23235916,
        "last_rank": 59813,
        "player_name": "Adam Cockerill",
        "rank": 73620,
        "rank_sort": 73828,
        "total": 2338
      },
      {
        "club_badge_src": null,
        "entry": 3156237,
        "entry_name": "Kort corner er m\u00e5l",
        "event_total": 52,
        "has_played": true,
        "id": 23312791,
        "last_rank": 64830,
        "player_name": "J\u00f8rgen Sk\u00e5nvik",
        "rank": 73620,
        "rank_sort": 73829,
        "total": 2338
      },
      {
        "club_badge_src": null,
        "entry": 3169414,
        "entry_name": "VAR and Refs Suck",
        "event_total": 64,
        "has_played": true,
        "id": 23416279,
        "last_rank": 91006,
        "player_name": "Wayne Murphy",
        "rank": 73620,
        "rank_sort": 73830,
        "total": 2338
      },
      {
        "club_badge_src": null,
        "entry": 3184297,
        "entry_name": "Dynamos Take 3",
        "event_total": 70,
        "has_played": true,
        "id": 23531500,
        "last_rank": 105963,
        "player_name": "David Mason",
        "rank": 73620,
        "rank_sort": 73831,
        "total": 2338
      },
      {
        "club_badge_src": null,
        "entry": 3205609,
        "entry_name": "Blues fc",
        "event_total": 76,
        "has_played": true,
        "id": 23698021,
        "last_rank": 123422,
        "player_name": "Stephen Maestro",
        "rank": 73620,
        "rank_sort": 73832,
        "total": 2338
      },
      {
        "club_badge_src": "https://fantasy.premierleague.com/gcs/plfpl-production-adobe-approved/plfpl-production/3236636/7fb992f3-9b81-482b-8e83-aaac21885b64.png",
        "entry": 3236636,
        "entry_name": "The Mighty T",
        "event_total": 60,
        "has_played": true,
        "id": 23939314,
        "last_rank": 81420,
        "player_name": "Andreas Tsolakis",
        "rank": 73620,
        "rank_sort": 73833,
        "total": 2338
      },
      {
        "club_badge_src": null,
        "entry": 3247174,
        "entry_name": "thisonesforkeeps",
        "event_total": 67,
        "has_played": true,
        "id": 24022742,
        "last_rank": 98183,
        "player_name": "Ian Gibson",
        "rank": 73620,
        "rank_sort": 73834,
        "total": 2338
      },
      {
        "club_badge_src": null,
        "entry": 3254797,
        "entry_name": "Wirtz up",
        "event_total": 61,
        "has_played": true,
        "id": 24082189,
        "last_rank": 83584,
        "player_name": "Paul Wiseman",
        "rank": 73620,
        "rank_sort": 73835,
        "total": 2338
      },
      {
        "club_badge_src": null,
        "entry": 3303421,
        "entry_name": "Finding Mido",
        "event_total": 59,
        "has_played": true,
        "id": 24467846,
        "last_rank": 79431,
        "player_name": "Daniel White",
        "rank": 73620,
        "rank_sort": 73836,
        "total": 2338
      },
      {
        "club_badge_src": null,
        "entry": 3314041,
        "entry_name": "Noisy Nomads",
        "event_total": 49,
        "has_played": true,
        "id": 24554383,
        "last_rank": 59632,
        "player_name": "Tim Hammond",
        "rank": 73620,
        "rank_sort": 73837,
        "total": 2338
      },
      {
        "club_badge_src": null,
        "entry": 3367824,
        "entry_name": "Oranger",
        "event_total": 50,
        "has_played": true,
        "id": 24991720,
        "last_rank": 61606,
        "player_name": "Ben Sum",
        "rank": 73620,
        "rank_sort": 73838,
        "total": 2338
      },
      {
        "club_badge_src": null,
        "entry": 3368664,
        "entry_name": "Aya",
        "event_total": 67,
        "has_played": true,
        "id": 24998282,
        "last_rank": 98183,
        "player_name": "aya sayed",
        "rank": 73620,
        "rank_sort": 73839,
        "total": 2338
      },
      {
        "club_badge_src": null,
        "entry": 3412103,
        "entry_name": "Raya Sunshine",
        "event_total": 61,
        "has_played": true,
        "id": 25340465,
        "last_rank": 83934,
        "player_name": "Sarah Stephenson",
        "rank": 73620,
        "rank_sort": 73840,
        "total": 2338
      },
      {
        "club_badge_src": null,
        "entry": 3465287,
        "entry_name": "MurderOnZidanesFloor",
        "event_total": 56,
        "has_played": true,
        "id": 25760037,
        "last_rank": 73038,
        "player_name": "Jack Rees",
        "rank": 73620,
        "rank_sort": 73841,
        "total": 2338
      },
      {
        "club_badge_src": null,
        "entry": 3465884,
        "entry_name": "Shatner's Bassoon",
        "event_total": 53,
        "has_played": true,
        "id": 25764819,
        "last_rank": 67063,
        "player_name": "Mike Byrne",
        "rank": 73620,
        "rank_sort": 73842,
        "total": 2338
      },
      {
        "club_badge_src": null,
        "entry": 3473231,
        "entry_name": "\u0623\u0628\u0648 \u0646\u0633\u0631 \ufffd",
        "event_total": 55,
        "has_played": true,
        "id": 25822402,
        "last_rank": 70985,
        "player_name": "Saad El Ganainy",
        "rank": 73620,
        "rank_sort": 73843,
        "total": 2338
      },
      {
        "club_badge_src": null,
        "entry": 3536640,
        "entry_name": "Moggers Mob",
        "event_total": 47,
        "has_played": true,
        "id": 26324205,
        "last_rank": 56180,
        "player_name": "Gustav Eriksson",
        "rank": 73620,
        "rank_sort": 73844,
        "total": 2338
      },
      {
        "club_badge_src": null,
        "entry": 3565312,
        "entry_name": "real marinara",
        "event_total": 75,
        "has_played": true,
        "id": 26546896,
        "last_rank": 120438,
        "player_name": "Giacomo Greco",
        "rank": 73620,
        "rank_sort": 73845,
        "total": 2338
      },
      {
        "club_badge_src": null,
        "entry": 3575639,
        "entry_name": "Benaldo",
        "event_total": 55,
        "has_played": true,
        "id": 26625359,
        "last_rank": 70985,
        "player_name": "Colm Cushen",
        "rank": 73620,
        "rank_sort": 73846,
        "total": 2338
      },
      {
        "club_badge_src": null,
        "entry": 3589820,
        "entry_name": "Hornettos",
        "event_total": 76,
        "has_played": true,
        "id": 26734935,
        "last_rank": 123908,
        "player_name": "Robin Melvin",
        "rank": 73620,
        "rank_sort": 73847,
        "total": 2338
      },
      {
        "club_badge_src": null,
        "entry": 3643681,
        "entry_name": "DH F.C.",
        "event_total": 72,
        "has_played": true,
        "id": 27155920,
        "last_rank": 111669,
        "player_name": "Fowler Hu",
        "rank": 73620,
        "rank_sort": 73848,
        "total": 2338
      },
      {
        "club_badge_src": null,
        "entry": 3694358,
        "entry_name": "The Blueprint",
        "event_total": 52,
        "has_played": true,
        "id": 27561351,
        "last_rank": 65163,
        "player_name": "Kristian R\u00f8sok",
        "rank": 73620,
        "rank_sort": 73849,
        "total": 2338
      },
      {
        "club_badge_src": null,
        "entry": 3698723,
        "entry_name": "50 shades of Gueye",
        "event_total": 61,
        "has_played": true,
        "id": 27596106,
        "last_rank": 83698,
        "player_name": "AJ Holland",
        "rank": 73620,
        "rank_sort": 73850,
        "total": 2338
      }
    ]
  }
}