{
  "last_updated_data": "2026-05-24T23:28:17Z",
  "league": {
    "admin_entry": null,
    "closed": false,
    "code_privacy": "p",
    "created": "2025-07-20T23:14:33.933835Z",
    "cup_league": 2815434,
    "has_cup": true,
    "id": 314,
    "league_type": "s",
    "max_entries": null,
    "name": "Overall",
    "rank": null,
    "scoring": "c",
    "start_event": 1
  },
  "new_entries": {
    "has_next": false,
    "page": 1,
    "results": []
  },
  "standings": {
    "has_next": true,
    "page": 1319,
    "results": [
      {
        "club_badge_src": null,
        "entry": 27254,
        "entry_name": "Bradford Army",
        "event_total": 65,
        "has_played": true,
        "id": 172265,
        "last_rank": 83534,
        "player_name": "Joseph Brosnan",
        "rank": 65898,
        "rank_sort": 65901,
        "total": 2342
      },
      {
        "club_badge_src": null,
        "entry": 29371,
        "entry_name": "Moeen Ali's Beard",
        "event_total": 55,
        "has_played": true,
        "id": 185702,
        "last_rank": 63117,
        "player_name": "Alex Syrpis",
        "rank": 65898,
        "rank_sort": 65902,
        "total": 2342
      },
      {
        "club_badge_src": null,
        "entry": 33614,
        "entry_name": "football team fc",
        "event_total": 65,
        "has_played": true,
        "id": 214446,
        "last_rank": 83584,
        "player_name": "Robbie Paul",
        "rank": 65898,
        "rank_sort": 65903,
        "total": 2342
      },
      {
        "club_badge_src": "https://fantasy.premierleague.com/gcs/plfpl-production-adobe-approved/plfpl-production/44885/25b5e5a6-25cb-403b-91a3-6e4050cb908b.png",
        "entry": 44885,
        "entry_name": "CujoKat FC",
        "event_total": 59,
        "has_played": true,
        "id": 287792,
        "last_rank": 70757,
        "player_name": "Cullen Yurick",
        "rank": 65898,
        "rank_sort": 65904,
        "total": 2342
      },
      {
        "club_badge_src": "https://fantasy.premierleague.com/gcs/plfpl-production-adobe-approved/plfpl-production/46145/b7918155-11aa-472d-873f-b7895eb08c80.png",
        "entry": 46145,
        "entry_name": "A Date with Destiny",
        "event_total": 68,
        "has_played": true,
        "id": 295902,
        "last_rank": 90746,
        "player_name": "Aaron Dunford",
        "rank": 65898,
        "rank_sort": 65905,
        "total": 2342
      },
      {
        "club_badge_src": null,
        "entry": 82133,
        "entry_name": "Machine Gun Skelly",
        "event_total": 59,
        "has_played": true,
        "id": 534374,
        "last_rank": 70757,
        "player_name": "Harry Boland",
        "rank": 65898,
        "rank_sort": 65906,
        "total": 2342
      },
      {
        "club_badge_src": null,
        "entry": 131144,
        "entry_name": "Could be Wirtz?",
        "event_total": 46,
        "has_played": true,
        "id": 854464,
        "last_rank": 48119,
        "player_name": "Oli Chatwin",
        "rank": 65898,
        "rank_sort": 65907,
        "total": 2342
      },
      {
        "club_badge_src": null,
        "entry": 153143,
        "entry_name": "AliKFantasy",
        "event_total": 69,
        "has_played": true,
        "id": 1005563,
        "last_rank": 93186,
        "player_name": "Ali Kyzaibay",
        "rank": 65898,
        "rank_sort": 65908,
        "total": 2342
      },
      {
        "club_badge_src": null,
        "entry": 202542,
        "entry_name": "Clear-out FC",
        "event_total": 64,
        "has_played": true,
        "id": 1345129,
        "last_rank": 81646,
        "player_name": "Connor Scott",
        "rank": 65898,
        "rank_sort": 65909,
        "total": 2342
      },
      {
        "club_badge_src": null,
        "entry": 203537,
        "entry_name": "Mighty Terriers",
        "event_total": 82,
        "has_played": true,
        "id": 1352309,
        "last_rank": 129506,
        "player_name": "Linton Joseph",
        "rank": 65898,
        "rank_sort": 65910,
        "total": 2342
      },
      {
        "club_badge_src": null,
        "entry": 240648,
        "entry_name": "Manuel benson",
        "event_total": 64,
        "has_played": true,
        "id": 1601612,
        "last_rank": 81646,
        "player_name": "Hhh Ccc",
        "rank": 65898,
        "rank_sort": 65911,
        "total": 2342
      },
      {
        "club_badge_src": null,
        "entry": 252814,
        "entry_name": "Show Me Da Mane",
        "event_total": 57,
        "has_played": true,
        "id": 1681521,
        "last_rank": 67063,
        "player_name": "Tom McDonald",
        "rank": 65898,
        "rank_sort": 65912,
        "total": 2342
      },
      {
        "club_badge_src": "https://fantasy.premierleague.com/gcs/plfpl-production-adobe-approved/plfpl-production/424623/0adc272f-2a62-473b-8ca9-f8bf31398f37.png",
        "entry": 424623,
        "entry_name": "DJB",
        "event_total": 60,
        "has_played": true,
        "id": 2845861,
        "last_rank": 72815,
        "player_name": "Bank Nathapol",
        "rank": 65898,
        "rank_sort": 65913,
        "total": 2342
      },
      {
        "club_badge_src": null,
        "entry": 540658,
        "entry_name": "Uptown Dunk",
        "event_total": 57,
        "has_played": true,
        "id": 3638997,
        "last_rank": 66848,
        "player_name": "Joey Cohen",
        "rank": 65898,
        "rank_sort": 65914,
        "total": 2342
      },
      {
        "club_badge_src": null,
        "entry": 578409,
        "entry_name": "andrea diu",
        "event_total": 58,
        "has_played": true,
        "id": 3891925,
        "last_rank": 68748,
        "player_name": "farnas farnas",
        "rank": 65898,
        "rank_sort": 65915,
        "total": 2342
      },
      {
        "club_badge_src": null,
        "entry": 608996,
        "entry_name": "Amr",
        "event_total": 56,
        "has_played": true,
        "id": 4113526,
        "last_rank": 64830,
        "player_name": "Amr 7",
        "rank": 65898,
        "rank_sort": 65916,
        "total": 2342
      },
      {
        "club_badge_src": null,
        "entry": 725330,
        "entry_name": "Mango United FC",
        "event_total": 68,
        "has_played": true,
        "id": 4926703,
        "last_rank": 91006,
        "player_name": "Henning Gustad",
        "rank": 65898,
        "rank_sort": 65917,
        "total": 2342
      },
      {
        "club_badge_src": null,
        "entry": 729707,
        "entry_name": "Earth Wind & Maguire",
        "event_total": 89,
        "has_played": true,
        "id": 4958122,
        "last_rank": 152552,
        "player_name": "Ava Pourfallah",
        "rank": 65898,
        "rank_sort": 65918,
        "total": 2342
      },
      {
        "club_badge_src": null,
        "entry": 765780,
        "entry_name": "Mr. Threepeat",
        "event_total": 58,
        "has_played": true,
        "id": 5222939,
        "last_rank": 68624,
        "player_name": "Damon Salehi",
        "rank": 65898,
        "rank_sort": 65919,
        "total": 2342
      },
      {
        "club_badge_src": null,
        "entry": 777702,
        "entry_name": "Hacienda Blues",
        "event_total": 47,
        "has_played": true,
        "id": 5306527,
        "last_rank": 49691,
        "player_name": "Paul Kerr",
        "rank": 65898,
        "rank_sort": 65920,
        "total": 2342
      },
      {
        "club_badge_src": null,
        "entry": 783967,
        "entry_name": "Earth wind &Maguire",
        "event_total": 70,
        "has_played": true,
        "id": 5354662,
        "last_rank": 95640,
        "player_name": "Dan Birch",
        "rank": 65898,
        "rank_sort": 65921,
        "total": 2342
      },
      {
        "club_badge_src": null,
        "entry": 821050,
        "entry_name": "LP FC",
        "event_total": 67,
        "has_played": true,
        "id": 5623174,
        "last_rank": 88594,
        "player_name": "Luisa Prothero",
        "rank": 65898,
        "rank_sort": 65922,
        "total": 2342
      },
      {
        "club_badge_src": null,
        "entry": 864821,
        "entry_name": "Bookies\u2019 Favourite",
        "event_total": 66,
        "has_played": true,
        "id": 5928757,
        "last_rank": 86054,
        "player_name": "Zak Bookatz",
        "rank": 65898,
        "rank_sort": 65923,
        "total": 2342
      },
      {
        "club_badge_src": null,
        "entry": 888406,
        "entry_name": "JOErokococo",
        "event_total": 53,
        "has_played": true,
        "id": 6093541,
        "last_rank": 59632,
        "player_name": "Dev Lala",
        "rank": 65898,
        "rank_sort": 65924,
        "total": 2342
      },
      {
        "club_badge_src": null,
        "entry": 940284,
        "entry_name": "Chips & Marmoushy Ps",
        "event_total": 48,
        "has_played": true,
        "id": 6471899,
        "last_rank": 51112,
        "player_name": "Rich Croll",
        "rank": 65898,
        "rank_sort": 65925,
        "total": 2342
      },
      {
        "club_badge_src": "https://fantasy.premierleague.com/gcs/plfpl-production-adobe-approved/plfpl-production/944029/d3ed6b34-a118-4a7a-9028-98a501ba6c13.png",
        "entry": 944029,
        "entry_name": "The AnderDogs",
        "event_total": 66,
        "has_played": true,
        "id": 6502026,
        "last_rank": 85932,
        "player_name": "Anders Dominguez",
        "rank": 65898,
        "rank_sort": 65926,
        "total": 2342
      },
      {
        "club_badge_src": "https://fantasy.premierleague.com/gcs/plfpl-production-adobe-approved/plfpl-production/948058/d6abf41e-faf7-4a51-82dc-d0f3fd796242.png",
        "entry": 948058,
        "entry_name": "FC Tons",
        "event_total": 61,
        "has_played": true,
        "id": 6530510,
        "last_rank": 75139,
        "player_name": "Anton Hoeft",
        "rank": 65898,
        "rank_sort": 65927,
        "total": 2342
      },
      {
        "club_badge_src": null,
        "entry": 962139,
        "entry_name": "On Porro\u2019d Time",
        "event_total": 69,
        "has_played": true,
        "id": 6630356,
        "last_rank": 93052,
        "player_name": "Eric Morgan",
        "rank": 65898,
        "rank_sort": 65928,
        "total": 2342
      },
      {
        "club_badge_src": null,
        "entry": 970667,
        "entry_name": "Wirtz Case Scenario",
        "event_total": 47,
        "has_played": true,
        "id": 6691109,
        "last_rank": 49880,
        "player_name": "erling haugum",
        "rank": 65898,
        "rank_sort": 65929,
        "total": 2342
      },
      {
        "club_badge_src": null,
        "entry": 1000244,
        "entry_name": "Eze Money",
        "event_total": 42,
        "has_played": true,
        "id": 6914175,
        "last_rank": 42506,
        "player_name": "Luke Connell",
        "rank": 65898,
        "rank_sort": 65930,
        "total": 2342
      },
      {
        "club_badge_src": null,
        "entry": 1004215,
        "entry_name": "Change name",
        "event_total": 83,
        "has_played": true,
        "id": 6941858,
        "last_rank": 132156,
        "player_name": "nathan hewitt",
        "rank": 65898,
        "rank_sort": 65931,
        "total": 2342
      },
      {
        "club_badge_src": "https://fantasy.premierleague.com/gcs/plfpl-production-adobe-approved/plfpl-production/1094525/6af01570-3e21-4691-8a71-54d1716c6976.png",
        "entry": 1094525,
        "entry_name": "Gullit Mee Cook",
        "event_total": 63,
        "has_played": true,
        "id": 7580734,
        "last_rank": 79190,
        "player_name": "Alvin Lane",
        "rank": 65898,
        "rank_sort": 65932,
        "total": 2342
      },
      {
        "club_badge_src": null,
        "entry": 1096041,
        "entry_name": "!",
        "event_total": 72,
        "has_played": true,
        "id": 7591584,
        "last_rank": 100700,
        "player_name": "raver firm",
        "rank": 65898,
        "rank_sort": 65933,
        "total": 2342
      },
      {
        "club_badge_src": null,
        "entry": 1190361,
        "entry_name": "The Whiz Kids",
        "event_total": 44,
        "has_played": true,
        "id": 8259377,
        "last_rank": 45416,
        "player_name": "Conor Wray",
        "rank": 65898,
        "rank_sort": 65934,
        "total": 2342
      },
      {
        "club_badge_src": null,
        "entry": 1253907,
        "entry_name": "Bramley Moore",
        "event_total": 67,
        "has_played": true,
        "id": 8708951,
        "last_rank": 88348,
        "player_name": "Phil Traynor",
        "rank": 65898,
        "rank_sort": 65935,
        "total": 2342
      },
      {
        "club_badge_src": null,
        "entry": 1254563,
        "entry_name": "HaCunhaMateta",
        "event_total": 69,
        "has_played": true,
        "id": 8713558,
        "last_rank": 93008,
        "player_name": "Damon ballands",
        "rank": 65898,
        "rank_sort": 65936,
        "total": 2342
      },
      {
        "club_badge_src": null,
        "entry": 1294388,
        "entry_name": "hmo morrall",
        "event_total": 42,
        "has_played": true,
        "id": 8995757,
        "last_rank": 42648,
        "player_name": "Harry Morrall",
        "rank": 65898,
        "rank_sort": 65937,
        "total": 2342
      },
      {
        "club_badge_src": null,
        "entry": 1422741,
        "entry_name": "Mougo",
        "event_total": 60,
        "has_played": true,
        "id": 9908022,
        "last_rank": 73038,
        "player_name": "Hamed Chelly",
        "rank": 65898,
        "rank_sort": 65938,
        "total": 2342
      },
      {
        "club_badge_src": null,
        "entry": 1442653,
        "entry_name": "Tik-Tak MZ",
        "event_total": 55,
        "has_played": true,
        "id": 10052679,
        "last_rank": 63390,
        "player_name": "Marco Chumaio",
        "rank": 65898,
        "rank_sort": 65939,
        "total": 2342
      },
      {
        "club_badge_src": null,
        "entry": 1471580,
        "entry_name": "Tame Impalmer",
        "event_total": 56,
        "has_played": true,
        "id": 10257774,
        "last_rank": 64830,
        "player_name": "Joshua Wallace",
        "rank": 65898,
        "rank_sort": 65940,
        "total": 2342
      },
      {
        "club_badge_src": null,
        "entry": 1474311,
        "entry_name": "A Wengers Assemble",
        "event_total": 47,
        "has_played": true,
        "id": 10276786,
        "last_rank": 49691,
        "player_name": "Levi Sweatz",
        "rank": 65898,
        "rank_sort": 65941,
        "total": 2342
      },
      {
        "club_badge_src": null,
        "entry": 1523598,
        "entry_name": "BennyBlancosB\u00e4stisar",
        "event_total": 70,
        "has_played": true,
        "id": 10626583,
        "last_rank": 95890,
        "player_name": "Adam Nordstr\u00f6m",
        "rank": 65898,
        "rank_sort": 65942,
        "total": 2342
      },
      {
        "club_badge_src": null,
        "entry": 1541435,
        "entry_name": "Boehlymeian Rhapsody",
        "event_total": 51,
        "has_played": true,
        "id": 10758248,
        "last_rank": 56180,
        "player_name": "Luke Phelan",
        "rank": 65898,
        "rank_sort": 65943,
        "total": 2342
      },
      {
        "club_badge_src": null,
        "entry": 1574916,
        "entry_name": "George\u2019s Meaghervels",
        "event_total": 30,
        "has_played": true,
        "id": 11004957,
        "last_rank": 28609,
        "player_name": "George Meagher",
        "rank": 65898,
        "rank_sort": 65944,
        "total": 2342
      },
      {
        "club_badge_src": "https://fantasy.premierleague.com/gcs/plfpl-production-adobe-approved/plfpl-production/1613045/553558bb-f8f6-4ba1-94ca-5dc8822da323.png",
        "entry": 1613045,
        "entry_name": "How I Met Your Mata",
        "event_total": 70,
        "has_played": true,
        "id": 11286680,
        "last_rank": 95640,
        "player_name": "Bobby Jackson",
        "rank": 65898,
        "rank_sort": 65945,
        "total": 2342
      },
      {
        "club_badge_src": null,
        "entry": 1639178,
        "entry_name": "Lionsgate FC",
        "event_total": 63,
        "has_played": true,
        "id": 11473935,
        "last_rank": 79190,
        "player_name": "Michael Hedstrom",
        "rank": 65898,
        "rank_sort": 65946,
        "total": 2342
      },
      {
        "club_badge_src": null,
        "entry": 1670829,
        "entry_name": "Blinding Wrights",
        "event_total": 53,
        "has_played": true,
        "id": 11698072,
        "last_rank": 59813,
        "player_name": "Craig Wright",
        "rank": 65898,
        "rank_sort": 65947,
        "total": 2342
      },
      {
        "club_badge_src": null,
        "entry": 1834295,
        "entry_name": "Molby Magic",
        "event_total": 62,
        "has_played": true,
        "id": 12903472,
        "last_rank": 77258,
        "player_name": "Denise Melrose",
        "rank": 65898,
        "rank_sort": 65948,
        "total": 2342
      },
      {
        "club_badge_src": null,
        "entry": 2082073,
        "entry_name": "Mohamed",
        "event_total": 53,
        "has_played": true,
        "id": 14767633,
        "last_rank": 59813,
        "player_name": "Mohamed Elhout",
        "rank": 65898,
        "rank_sort": 65949,
        "total": 2342
      },
      {
        "club_badge_src": null,
        "entry": 2332110,
        "entry_name": "BoomBoomBuccaneers**",
        "event_total": 62,
        "has_played": true,
        "id": 16638879,
        "last_rank": 76947,
        "player_name": "James Pownall",
        "rank": 65898,
        "rank_sort": 65950,
        "total": 2342
      }
    ]
  }
}