{
  "last_updated_data": "2026-05-24T23:28:17Z",
  "league": {
    "admin_entry": null,
    "closed": false,
    "code_privacy": "p",
    "created": "2025-07-20T23:14:33.933835Z",
    "cup_league": 2815434,
    "has_cup": true,
    "id": 314,
    "league_type": "s",
    "max_entries": null,
    "name": "Overall",
    "rank": null,
    "scoring": "c",
    "start_event": 1
  },
  "new_entries": {
    "has_next": false,
    "page": 1,
    "results": []
  },
  "standings": {
    "has_next": true,
    "page": 1062,
    "results": [
      {
        "club_badge_src": null,
        "entry": 28999,
        "entry_name": "Mo Money Mo Salah",
        "event_total": 63,
        "has_played": true,
        "id": 183343,
        "last_rank": 56369,
        "player_name": "Hpone Myat Khine",
        "rank": 53036,
        "rank_sort": 53051,
        "total": 2350
      },
      {
        "club_badge_src": null,
        "entry": 32611,
        "entry_name": "Hannibal forever",
        "event_total": 61,
        "has_played": true,
        "id": 207521,
        "last_rank": 60168,
        "player_name": "Mohammad Arefi Sigaroudi",
        "rank": 53036,
        "rank_sort": 53052,
        "total": 2350
      },
      {
        "club_badge_src": null,
        "entry": 41505,
        "entry_name": "Farcelona",
        "event_total": 66,
        "has_played": true,
        "id": 265920,
        "last_rank": 69641,
        "player_name": "David Williamson",
        "rank": 53036,
        "rank_sort": 53053,
        "total": 2350
      },
      {
        "club_badge_src": null,
        "entry": 46080,
        "entry_name": "FC Nigdzie",
        "event_total": 60,
        "has_played": true,
        "id": 295512,
        "last_rank": 58388,
        "player_name": "Piotrek Rozenbajgier",
        "rank": 53036,
        "rank_sort": 53054,
        "total": 2350
      },
      {
        "club_badge_src": "https://fantasy.premierleague.com/gcs/plfpl-production-adobe-approved/plfpl-production/47070/ddd1e6df-d6b7-49bf-9e65-f429464e0e03.png",
        "entry": 47070,
        "entry_name": "Betonligar",
        "event_total": 58,
        "has_played": true,
        "id": 301843,
        "last_rank": 55014,
        "player_name": "Neven Kulic",
        "rank": 53036,
        "rank_sort": 53055,
        "total": 2350
      },
      {
        "club_badge_src": null,
        "entry": 47486,
        "entry_name": "DeeGee",
        "event_total": 51,
        "has_played": true,
        "id": 304623,
        "last_rank": 44672,
        "player_name": "Dale Gentil",
        "rank": 53036,
        "rank_sort": 53056,
        "total": 2350
      },
      {
        "club_badge_src": "https://fantasy.premierleague.com/gcs/plfpl-production-adobe-approved/plfpl-production/50125/58d03752-554a-4bec-a91e-e3dd2994fd67.png",
        "entry": 50125,
        "entry_name": "No name...",
        "event_total": 51,
        "has_played": true,
        "id": 322339,
        "last_rank": 44303,
        "player_name": "Richard Azeem",
        "rank": 53036,
        "rank_sort": 53057,
        "total": 2350
      },
      {
        "club_badge_src": null,
        "entry": 53952,
        "entry_name": "Kinder Mbeumo",
        "event_total": 59,
        "has_played": true,
        "id": 347202,
        "last_rank": 50199,
        "player_name": "Joachim Gjesdal Kristensen",
        "rank": 53036,
        "rank_sort": 53058,
        "total": 2350
      },
      {
        "club_badge_src": "https://fantasy.premierleague.com/gcs/plfpl-production-adobe-approved/plfpl-production/58997/f1558a9f-1c60-41c0-87ce-dfc9d7d03c4a.png",
        "entry": 58997,
        "entry_name": "shaw program",
        "event_total": 49,
        "has_played": true,
        "id": 379989,
        "last_rank": 36624,
        "player_name": "Luka Antic",
        "rank": 53036,
        "rank_sort": 53059,
        "total": 2350
      },
      {
        "club_badge_src": null,
        "entry": 60265,
        "entry_name": "[T&G] MU is back!",
        "event_total": 88,
        "has_played": true,
        "id": 388017,
        "last_rank": 124682,
        "player_name": "D\u01b0\u01a1ng Qu\u00e1",
        "rank": 53036,
        "rank_sort": 53060,
        "total": 2350
      },
      {
        "club_badge_src": null,
        "entry": 60266,
        "entry_name": "CC Wanderers",
        "event_total": 52,
        "has_played": true,
        "id": 388029,
        "last_rank": 40297,
        "player_name": "C. Cave-Hall",
        "rank": 53036,
        "rank_sort": 53061,
        "total": 2350
      },
      {
        "club_badge_src": "https://fantasy.premierleague.com/gcs/plfpl-production-adobe-approved/plfpl-production/82935/557eeeee-af95-45c8-a701-86d0e1980bf6.png",
        "entry": 82935,
        "entry_name": "Saka Rice",
        "event_total": 66,
        "has_played": true,
        "id": 539734,
        "last_rank": 69641,
        "player_name": "Billy Tasker-Brown",
        "rank": 53036,
        "rank_sort": 53062,
        "total": 2350
      },
      {
        "club_badge_src": null,
        "entry": 90707,
        "entry_name": "Rum Ham",
        "event_total": 58,
        "has_played": true,
        "id": 592278,
        "last_rank": 55311,
        "player_name": "Shane Rafferty",
        "rank": 53036,
        "rank_sort": 53063,
        "total": 2350
      },
      {
        "club_badge_src": null,
        "entry": 90927,
        "entry_name": "Everton",
        "event_total": 48,
        "has_played": true,
        "id": 593797,
        "last_rank": 40503,
        "player_name": "Adam Brandreth",
        "rank": 53036,
        "rank_sort": 53064,
        "total": 2350
      },
      {
        "club_badge_src": null,
        "entry": 97723,
        "entry_name": "BEAMEN",
        "event_total": 45,
        "has_played": true,
        "id": 638225,
        "last_rank": 27770,
        "player_name": "Jonathan Schmidt",
        "rank": 53036,
        "rank_sort": 53065,
        "total": 2350
      },
      {
        "club_badge_src": null,
        "entry": 104651,
        "entry_name": "Abra Dubravka",
        "event_total": 71,
        "has_played": true,
        "id": 682641,
        "last_rank": 79431,
        "player_name": "Stevie Grogan",
        "rank": 53036,
        "rank_sort": 53066,
        "total": 2350
      },
      {
        "club_badge_src": "https://fantasy.premierleague.com/gcs/plfpl-production-adobe-approved/plfpl-production/104725/76314004-7c06-4df7-8319-9f2408badd16.png",
        "entry": 104725,
        "entry_name": "Chaztastics",
        "event_total": 67,
        "has_played": true,
        "id": 683118,
        "last_rank": 63724,
        "player_name": "Charles Taverner",
        "rank": 53036,
        "rank_sort": 53067,
        "total": 2350
      },
      {
        "club_badge_src": "https://fantasy.premierleague.com/gcs/plfpl-production-adobe-approved/plfpl-production/116114/154337d2-3655-4447-8648-aed87e951c65.png",
        "entry": 116114,
        "entry_name": "You're a Wissa Harry",
        "event_total": 61,
        "has_played": true,
        "id": 757986,
        "last_rank": 53345,
        "player_name": "Dillon Ingram",
        "rank": 53036,
        "rank_sort": 53068,
        "total": 2350
      },
      {
        "club_badge_src": null,
        "entry": 120082,
        "entry_name": "NicholasPepeFanClub",
        "event_total": 56,
        "has_played": true,
        "id": 783473,
        "last_rank": 51984,
        "player_name": "J\u0119drek Ko\u015bcielniak",
        "rank": 53036,
        "rank_sort": 53069,
        "total": 2350
      },
      {
        "club_badge_src": null,
        "entry": 145673,
        "entry_name": "SupperMA",
        "event_total": 61,
        "has_played": true,
        "id": 954090,
        "last_rank": 60168,
        "player_name": "Ammar AbdAllah",
        "rank": 53036,
        "rank_sort": 53070,
        "total": 2350
      },
      {
        "club_badge_src": null,
        "entry": 146118,
        "entry_name": "Floor is Lavia",
        "event_total": 59,
        "has_played": true,
        "id": 957142,
        "last_rank": 56369,
        "player_name": "Ilyas G",
        "rank": 53036,
        "rank_sort": 53071,
        "total": 2350
      },
      {
        "club_badge_src": "https://fantasy.premierleague.com/gcs/plfpl-production-adobe-approved/plfpl-production/148642/3deac98f-a016-47f8-a8ea-fbcb29cc7670.png",
        "entry": 148642,
        "entry_name": "HaCunha Mateta",
        "event_total": 79,
        "has_played": true,
        "id": 974407,
        "last_rank": 79190,
        "player_name": "Gregory Melnyk",
        "rank": 53036,
        "rank_sort": 53072,
        "total": 2350
      },
      {
        "club_badge_src": null,
        "entry": 149943,
        "entry_name": "Aederling",
        "event_total": 38,
        "has_played": true,
        "id": 983200,
        "last_rank": 29071,
        "player_name": "Bernician Aederling",
        "rank": 53036,
        "rank_sort": 53073,
        "total": 2350
      },
      {
        "club_badge_src": null,
        "entry": 151656,
        "entry_name": "Isidorable",
        "event_total": 43,
        "has_played": true,
        "id": 995039,
        "last_rank": 34458,
        "player_name": "Jackson Gray",
        "rank": 53036,
        "rank_sort": 53074,
        "total": 2350
      },
      {
        "club_badge_src": null,
        "entry": 162401,
        "entry_name": "Scoudies mannar",
        "event_total": 58,
        "has_played": true,
        "id": 1070504,
        "last_rank": 48363,
        "player_name": "Melvin R\u00e5dendal",
        "rank": 53036,
        "rank_sort": 53075,
        "total": 2350
      },
      {
        "club_badge_src": null,
        "entry": 168445,
        "entry_name": "Putte1961",
        "event_total": 45,
        "has_played": true,
        "id": 1113307,
        "last_rank": 31995,
        "player_name": "Thomas Nyg\u00e5rd",
        "rank": 53036,
        "rank_sort": 53076,
        "total": 2350
      },
      {
        "club_badge_src": null,
        "entry": 173848,
        "entry_name": "Beans on Tosin",
        "event_total": 72,
        "has_played": true,
        "id": 1148083,
        "last_rank": 82398,
        "player_name": "Julian Side",
        "rank": 53036,
        "rank_sort": 53077,
        "total": 2350
      },
      {
        "club_badge_src": null,
        "entry": 178959,
        "entry_name": "\u9577\u63f8Son\u4ed4",
        "event_total": 70,
        "has_played": true,
        "id": 1181015,
        "last_rank": 69323,
        "player_name": "Sing Yeung",
        "rank": 53036,
        "rank_sort": 53078,
        "total": 2350
      },
      {
        "club_badge_src": null,
        "entry": 187033,
        "entry_name": "Perri Piroe Porro",
        "event_total": 64,
        "has_played": true,
        "id": 1236379,
        "last_rank": 65475,
        "player_name": "Jonas Halsne",
        "rank": 53036,
        "rank_sort": 53079,
        "total": 2350
      },
      {
        "club_badge_src": "https://fantasy.premierleague.com/gcs/plfpl-production-adobe-approved/plfpl-production/187346/559405f2-0cc4-43e6-ab4d-e476576ffea1.png",
        "entry": 187346,
        "entry_name": "Its Too Eze FC",
        "event_total": 67,
        "has_played": true,
        "id": 1238674,
        "last_rank": 63724,
        "player_name": "Ronnie Motsoeneng",
        "rank": 53036,
        "rank_sort": 53080,
        "total": 2350
      },
      {
        "club_badge_src": null,
        "entry": 205470,
        "entry_name": "Cyprus FC",
        "event_total": 58,
        "has_played": true,
        "id": 1365742,
        "last_rank": 55014,
        "player_name": "Ercan Kamil",
        "rank": 53036,
        "rank_sort": 53081,
        "total": 2350
      },
      {
        "club_badge_src": null,
        "entry": 209253,
        "entry_name": "Knowledge Kid",
        "event_total": 60,
        "has_played": true,
        "id": 1391502,
        "last_rank": 51720,
        "player_name": "Adrian Kowlessar",
        "rank": 53036,
        "rank_sort": 53082,
        "total": 2350
      },
      {
        "club_badge_src": null,
        "entry": 245943,
        "entry_name": "For beto or wirtz",
        "event_total": 55,
        "has_played": true,
        "id": 1637493,
        "last_rank": 44303,
        "player_name": "Will Jones",
        "rank": 53036,
        "rank_sort": 53083,
        "total": 2350
      },
      {
        "club_badge_src": "https://fantasy.premierleague.com/gcs/plfpl-production-adobe-approved/plfpl-production/256074/84e7194d-34c5-4f6f-be97-79c0f0ae974d.png",
        "entry": 256074,
        "entry_name": "Gooners",
        "event_total": 50,
        "has_played": true,
        "id": 1703153,
        "last_rank": 43168,
        "player_name": "Callum Hogwood",
        "rank": 53036,
        "rank_sort": 53084,
        "total": 2350
      },
      {
        "club_badge_src": null,
        "entry": 265318,
        "entry_name": "ynwa",
        "event_total": 66,
        "has_played": true,
        "id": 1764644,
        "last_rank": 69323,
        "player_name": "Ragavendra Gopalakrishnan",
        "rank": 53036,
        "rank_sort": 53085,
        "total": 2350
      },
      {
        "club_badge_src": null,
        "entry": 277600,
        "entry_name": "A Pain In The Diaz",
        "event_total": 62,
        "has_played": true,
        "id": 1847736,
        "last_rank": 62223,
        "player_name": "Jack White",
        "rank": 53036,
        "rank_sort": 53086,
        "total": 2350
      },
      {
        "club_badge_src": null,
        "entry": 293566,
        "entry_name": "Embichka City",
        "event_total": 71,
        "has_played": true,
        "id": 1959706,
        "last_rank": 71386,
        "player_name": "Embichkata Radev",
        "rank": 53036,
        "rank_sort": 53087,
        "total": 2350
      },
      {
        "club_badge_src": null,
        "entry": 308514,
        "entry_name": "Norman's Little Legs",
        "event_total": 55,
        "has_played": true,
        "id": 2066457,
        "last_rank": 50199,
        "player_name": "Martin Fiteni",
        "rank": 53036,
        "rank_sort": 53088,
        "total": 2350
      },
      {
        "club_badge_src": null,
        "entry": 308766,
        "entry_name": "Wabben Warriors",
        "event_total": 71,
        "has_played": true,
        "id": 2068156,
        "last_rank": 80194,
        "player_name": "Colm Swayne",
        "rank": 53036,
        "rank_sort": 53089,
        "total": 2350
      },
      {
        "club_badge_src": null,
        "entry": 326773,
        "entry_name": "Had One Tchouameni",
        "event_total": 60,
        "has_played": true,
        "id": 2189452,
        "last_rank": 58688,
        "player_name": "Harry Hunt",
        "rank": 53036,
        "rank_sort": 53090,
        "total": 2350
      },
      {
        "club_badge_src": null,
        "entry": 328749,
        "entry_name": "Mohamed Ben sauod",
        "event_total": 50,
        "has_played": true,
        "id": 2202279,
        "last_rank": 43168,
        "player_name": "mohamed ben sauod",
        "rank": 53036,
        "rank_sort": 53091,
        "total": 2350
      },
      {
        "club_badge_src": null,
        "entry": 335718,
        "entry_name": "Squiddly Diddley XI",
        "event_total": 44,
        "has_played": true,
        "id": 2247849,
        "last_rank": 35619,
        "player_name": "dave sharp",
        "rank": 53036,
        "rank_sort": 53092,
        "total": 2350
      },
      {
        "club_badge_src": null,
        "entry": 381145,
        "entry_name": "Bassieking",
        "event_total": 60,
        "has_played": true,
        "id": 2554933,
        "last_rank": 58688,
        "player_name": "Jordy Bastien",
        "rank": 53036,
        "rank_sort": 53093,
        "total": 2350
      },
      {
        "club_badge_src": null,
        "entry": 428310,
        "entry_name": "Mansoura Utd",
        "event_total": 60,
        "has_played": true,
        "id": 2872812,
        "last_rank": 51720,
        "player_name": "yasser abo elfetouh",
        "rank": 53036,
        "rank_sort": 53094,
        "total": 2350
      },
      {
        "club_badge_src": null,
        "entry": 541303,
        "entry_name": "TB11",
        "event_total": 62,
        "has_played": true,
        "id": 3643279,
        "last_rank": 62223,
        "player_name": "Tom Butler",
        "rank": 53036,
        "rank_sort": 53095,
        "total": 2350
      },
      {
        "club_badge_src": null,
        "entry": 544838,
        "entry_name": "Athletic Jimbao",
        "event_total": 43,
        "has_played": true,
        "id": 3666812,
        "last_rank": 34458,
        "player_name": "James Johnson",
        "rank": 53036,
        "rank_sort": 53096,
        "total": 2350
      },
      {
        "club_badge_src": "https://fantasy.premierleague.com/gcs/plfpl-production-adobe-approved/plfpl-production/546027/a5581f51-b604-4170-8c7e-7e776f57ca52.png",
        "entry": 546027,
        "entry_name": "\u265b \u20ad\u0142\u20a6\u20b2 \u00d8\u20a3 \u20a3\u20b1\u2c60 \u265b",
        "event_total": 71,
        "has_played": true,
        "id": 3674721,
        "last_rank": 71386,
        "player_name": "KING OF FPL",
        "rank": 53036,
        "rank_sort": 53097,
        "total": 2350
      },
      {
        "club_badge_src": null,
        "entry": 549794,
        "entry_name": "JERRY",
        "event_total": 57,
        "has_played": true,
        "id": 3699936,
        "last_rank": 47163,
        "player_name": "Muhammed Ramadan",
        "rank": 53036,
        "rank_sort": 53098,
        "total": 2350
      },
      {
        "club_badge_src": null,
        "entry": 567791,
        "entry_name": "Walder's War Dogs",
        "event_total": 49,
        "has_played": true,
        "id": 3821546,
        "last_rank": 41824,
        "player_name": "Royston Walder",
        "rank": 53036,
        "rank_sort": 53099,
        "total": 2350
      },
      {
        "club_badge_src": null,
        "entry": 581064,
        "entry_name": "Winning the Slot",
        "event_total": 66,
        "has_played": true,
        "id": 3910145,
        "last_rank": 61950,
        "player_name": "Joshua Lawrence",
        "rank": 53036,
        "rank_sort": 53100,
        "total": 2350
      }
    ]
  }
}