{
  "last_updated_data": "2026-05-24T23:28:17Z",
  "league": {
    "admin_entry": null,
    "closed": false,
    "code_privacy": "p",
    "created": "2025-07-20T23:14:33.933835Z",
    "cup_league": 2815434,
    "has_cup": true,
    "id": 314,
    "league_type": "s",
    "max_entries": null,
    "name": "Overall",
    "rank": null,
    "scoring": "c",
    "start_event": 1
  },
  "new_entries": {
    "has_next": false,
    "page": 1,
    "results": []
  },
  "standings": {
    "has_next": true,
    "page": 873,
    "results": [
      {
        "club_badge_src": null,
        "entry": 2873017,
        "entry_name": "DANFC",
        "event_total": 61,
        "has_played": true,
        "id": 21022708,
        "last_rank": 49572,
        "player_name": "Dan Peters",
        "rank": 43584,
        "rank_sort": 43601,
        "total": 2356
      },
      {
        "club_badge_src": null,
        "entry": 2924691,
        "entry_name": "Delap of honour",
        "event_total": 43,
        "has_played": true,
        "id": 21440750,
        "last_rank": 27644,
        "player_name": "Jack Triptree",
        "rank": 43584,
        "rank_sort": 43602,
        "total": 2356
      },
      {
        "club_badge_src": null,
        "entry": 3220979,
        "entry_name": "ohmymoush",
        "event_total": 59,
        "has_played": true,
        "id": 23818524,
        "last_rank": 46660,
        "player_name": "Mateo Suarez",
        "rank": 43584,
        "rank_sort": 43603,
        "total": 2356
      },
      {
        "club_badge_src": null,
        "entry": 3324118,
        "entry_name": "Botman Returns",
        "event_total": 65,
        "has_played": true,
        "id": 24643234,
        "last_rank": 56047,
        "player_name": "Jim Greensted",
        "rank": 43584,
        "rank_sort": 43604,
        "total": 2356
      },
      {
        "club_badge_src": null,
        "entry": 3367460,
        "entry_name": "Academical",
        "event_total": 67,
        "has_played": true,
        "id": 24988880,
        "last_rank": 59535,
        "player_name": "Robert Baxter",
        "rank": 43584,
        "rank_sort": 43605,
        "total": 2356
      },
      {
        "club_badge_src": null,
        "entry": 3935503,
        "entry_name": "droyalxv",
        "event_total": 66,
        "has_played": true,
        "id": 29602498,
        "last_rank": 57857,
        "player_name": "Daniel Royal",
        "rank": 43584,
        "rank_sort": 43606,
        "total": 2356
      },
      {
        "club_badge_src": null,
        "entry": 4392550,
        "entry_name": "Tesco McNeil Deal",
        "event_total": 77,
        "has_played": true,
        "id": 33393672,
        "last_rank": 79027,
        "player_name": "Ben Chapman",
        "rank": 43584,
        "rank_sort": 43607,
        "total": 2356
      },
      {
        "club_badge_src": null,
        "entry": 4672641,
        "entry_name": "Team Name",
        "event_total": 60,
        "has_played": true,
        "id": 35793237,
        "last_rank": 48067,
        "player_name": "Daniel McGuire",
        "rank": 43584,
        "rank_sort": 43608,
        "total": 2356
      },
      {
        "club_badge_src": null,
        "entry": 5042513,
        "entry_name": "Change Name",
        "event_total": 56,
        "has_played": true,
        "id": 38950685,
        "last_rank": 42506,
        "player_name": "Ahmer Alam",
        "rank": 43584,
        "rank_sort": 43609,
        "total": 2356
      },
      {
        "club_badge_src": null,
        "entry": 5136575,
        "entry_name": "Hammer Theory",
        "event_total": 51,
        "has_played": true,
        "id": 39730445,
        "last_rank": 36200,
        "player_name": "Mark Miodownik",
        "rank": 43584,
        "rank_sort": 43610,
        "total": 2356
      },
      {
        "club_badge_src": null,
        "entry": 5298978,
        "entry_name": "Delapidated",
        "event_total": 71,
        "has_played": true,
        "id": 41075008,
        "last_rank": 66693,
        "player_name": "Sudarshan Shrikanthan",
        "rank": 43584,
        "rank_sort": 43611,
        "total": 2356
      },
      {
        "club_badge_src": null,
        "entry": 5542568,
        "entry_name": "MuderOnZidanesFloor",
        "event_total": 59,
        "has_played": true,
        "id": 43249871,
        "last_rank": 46660,
        "player_name": "Javaid Mohun",
        "rank": 43584,
        "rank_sort": 43612,
        "total": 2356
      },
      {
        "club_badge_src": null,
        "entry": 5771349,
        "entry_name": "Barrovian Bedlam",
        "event_total": 63,
        "has_played": true,
        "id": 45248707,
        "last_rank": 52759,
        "player_name": "Steven High",
        "rank": 43584,
        "rank_sort": 43613,
        "total": 2356
      },
      {
        "club_badge_src": null,
        "entry": 5916450,
        "entry_name": "Carlkeres maskin",
        "event_total": 43,
        "has_played": true,
        "id": 46498331,
        "last_rank": 27644,
        "player_name": "Carl-Filip Larsson",
        "rank": 43584,
        "rank_sort": 43614,
        "total": 2356
      },
      {
        "club_badge_src": null,
        "entry": 6060725,
        "entry_name": "Pallet Town FC",
        "event_total": 61,
        "has_played": true,
        "id": 47832384,
        "last_rank": 49572,
        "player_name": "Emma Liddell",
        "rank": 43584,
        "rank_sort": 43615,
        "total": 2356
      },
      {
        "club_badge_src": null,
        "entry": 6385851,
        "entry_name": "Cherki Teeth",
        "event_total": 63,
        "has_played": true,
        "id": 50793817,
        "last_rank": 52759,
        "player_name": "Chris Bell",
        "rank": 43584,
        "rank_sort": 43616,
        "total": 2356
      },
      {
        "club_badge_src": null,
        "entry": 6611377,
        "entry_name": "Mighty Blues",
        "event_total": 54,
        "has_played": true,
        "id": 52823417,
        "last_rank": 39784,
        "player_name": "Steliyan Georgiev",
        "rank": 43584,
        "rank_sort": 43617,
        "total": 2356
      },
      {
        "club_badge_src": null,
        "entry": 6733106,
        "entry_name": "Back2back2back2back",
        "event_total": 40,
        "has_played": true,
        "id": 53893134,
        "last_rank": 24832,
        "player_name": "Jose Carlos Solis Rojas",
        "rank": 43584,
        "rank_sort": 43618,
        "total": 2356
      },
      {
        "club_badge_src": null,
        "entry": 6972046,
        "entry_name": "Raya Nephew",
        "event_total": 56,
        "has_played": true,
        "id": 55929950,
        "last_rank": 42401,
        "player_name": "Richard Mccrea",
        "rank": 43584,
        "rank_sort": 43619,
        "total": 2356
      },
      {
        "club_badge_src": null,
        "entry": 6986473,
        "entry_name": "Terry's all stars",
        "event_total": 50,
        "has_played": true,
        "id": 56078298,
        "last_rank": 34969,
        "player_name": "Terry Burbidge",
        "rank": 43584,
        "rank_sort": 43620,
        "total": 2356
      },
      {
        "club_badge_src": null,
        "entry": 7225563,
        "entry_name": "Nine On Tyne",
        "event_total": 31,
        "has_played": true,
        "id": 58374201,
        "last_rank": 18029,
        "player_name": "Stuart Seaborn",
        "rank": 43584,
        "rank_sort": 43621,
        "total": 2356
      },
      {
        "club_badge_src": "https://fantasy.premierleague.com/gcs/plfpl-production-adobe-approved/plfpl-production/7537029/f090979a-85ba-459c-9f14-bf42e818d1de.png",
        "entry": 7537029,
        "entry_name": "KFC BEST FC",
        "event_total": 47,
        "has_played": true,
        "id": 61692620,
        "last_rank": 31620,
        "player_name": "GLENN Lee",
        "rank": 43584,
        "rank_sort": 43622,
        "total": 2356
      },
      {
        "club_badge_src": null,
        "entry": 7730222,
        "entry_name": "Don'tLookBackElanga",
        "event_total": 65,
        "has_played": true,
        "id": 63443188,
        "last_rank": 56099,
        "player_name": "Alex White",
        "rank": 43584,
        "rank_sort": 43623,
        "total": 2356
      },
      {
        "club_badge_src": null,
        "entry": 7975011,
        "entry_name": "The Messi-ahs",
        "event_total": 55,
        "has_played": true,
        "id": 65663139,
        "last_rank": 41101,
        "player_name": "Amrit Sidhu",
        "rank": 43584,
        "rank_sort": 43624,
        "total": 2356
      },
      {
        "club_badge_src": null,
        "entry": 8496070,
        "entry_name": "MattysMiracles",
        "event_total": 50,
        "has_played": true,
        "id": 70599313,
        "last_rank": 35034,
        "player_name": "Matty Haigh",
        "rank": 43584,
        "rank_sort": 43625,
        "total": 2356
      },
      {
        "club_badge_src": null,
        "entry": 8871790,
        "entry_name": "Hank",
        "event_total": 64,
        "has_played": true,
        "id": 74235791,
        "last_rank": 54494,
        "player_name": "Amy McLoughlin",
        "rank": 43584,
        "rank_sort": 43626,
        "total": 2356
      },
      {
        "club_badge_src": null,
        "entry": 3006,
        "entry_name": "Calafiori Gurls",
        "event_total": 51,
        "has_played": true,
        "id": 16948,
        "last_rank": 36142,
        "player_name": "Thomas Boast",
        "rank": 43627,
        "rank_sort": 43627,
        "total": 2356
      },
      {
        "club_badge_src": null,
        "entry": 9408,
        "entry_name": "goodwood geese",
        "event_total": 40,
        "has_played": true,
        "id": 55297,
        "last_rank": 25002,
        "player_name": "Callan Kudra-Harding",
        "rank": 43627,
        "rank_sort": 43628,
        "total": 2356
      },
      {
        "club_badge_src": "https://fantasy.premierleague.com/gcs/plfpl-production-adobe-approved/plfpl-production/21407/79d1a4e7-8508-45a3-a61b-c5308c1b4a37.png",
        "entry": 21407,
        "entry_name": "Wirtz of Times",
        "event_total": 65,
        "has_played": true,
        "id": 134203,
        "last_rank": 56180,
        "player_name": "Mark Cooper",
        "rank": 43627,
        "rank_sort": 43629,
        "total": 2356
      },
      {
        "club_badge_src": null,
        "entry": 58573,
        "entry_name": "This Is the One",
        "event_total": 52,
        "has_played": true,
        "id": 377263,
        "last_rank": 37344,
        "player_name": "Jan Jankowski",
        "rank": 43627,
        "rank_sort": 43630,
        "total": 2356
      },
      {
        "club_badge_src": null,
        "entry": 71527,
        "entry_name": "For Beto, for Wirtz",
        "event_total": 61,
        "has_played": true,
        "id": 464618,
        "last_rank": 49880,
        "player_name": "Cathal Scott",
        "rank": 43627,
        "rank_sort": 43631,
        "total": 2356
      },
      {
        "club_badge_src": null,
        "entry": 139578,
        "entry_name": "PikoFrikase",
        "event_total": 59,
        "has_played": true,
        "id": 911079,
        "last_rank": 46591,
        "player_name": "Yasen Milov",
        "rank": 43627,
        "rank_sort": 43632,
        "total": 2356
      },
      {
        "club_badge_src": null,
        "entry": 243078,
        "entry_name": "That's Amorim",
        "event_total": 72,
        "has_played": true,
        "id": 1618669,
        "last_rank": 68748,
        "player_name": "Sean Devilly",
        "rank": 43627,
        "rank_sort": 43633,
        "total": 2356
      },
      {
        "club_badge_src": null,
        "entry": 247400,
        "entry_name": "\u0627\u0644\u0627\u062a\u062d\u0627\u062f \u0633\u064a\u062f \u0627\u0644\u0628\u0644\u062f",
        "event_total": 48,
        "has_played": true,
        "id": 1646802,
        "last_rank": 32879,
        "player_name": "El BALF",
        "rank": 43627,
        "rank_sort": 43634,
        "total": 2356
      },
      {
        "club_badge_src": "https://fantasy.premierleague.com/gcs/plfpl-production-adobe-approved/plfpl-production/296632/74794ec0-bb74-4bce-92a8-9403d0198295.png",
        "entry": 296632,
        "entry_name": "KLD FC",
        "event_total": 45,
        "has_played": true,
        "id": 1982068,
        "last_rank": 29578,
        "player_name": "Khalid Egeh",
        "rank": 43627,
        "rank_sort": 43635,
        "total": 2356
      },
      {
        "club_badge_src": null,
        "entry": 436239,
        "entry_name": "Bobb's yer uncle",
        "event_total": 48,
        "has_played": true,
        "id": 2925245,
        "last_rank": 32688,
        "player_name": "Dominic Spencer Jolly",
        "rank": 43627,
        "rank_sort": 43636,
        "total": 2356
      },
      {
        "club_badge_src": "https://fantasy.premierleague.com/gcs/plfpl-production-adobe-approved/plfpl-production/469811/c3720de4-fa5f-4738-af46-9730ea8a7e88.png",
        "entry": 469811,
        "entry_name": "Distinguished Gents",
        "event_total": 61,
        "has_played": true,
        "id": 3153613,
        "last_rank": 49572,
        "player_name": "Gert-Robert P\u00fctsep",
        "rank": 43627,
        "rank_sort": 43637,
        "total": 2356
      },
      {
        "club_badge_src": null,
        "entry": 561396,
        "entry_name": "Back II Back",
        "event_total": 76,
        "has_played": true,
        "id": 3778860,
        "last_rank": 76947,
        "player_name": "Liam Bradley",
        "rank": 43627,
        "rank_sort": 43638,
        "total": 2356
      },
      {
        "club_badge_src": null,
        "entry": 605332,
        "entry_name": "The 15",
        "event_total": 68,
        "has_played": true,
        "id": 4086911,
        "last_rank": 61258,
        "player_name": "Matty Ellis",
        "rank": 43627,
        "rank_sort": 43639,
        "total": 2356
      },
      {
        "club_badge_src": null,
        "entry": 627989,
        "entry_name": "The blue Galaxy",
        "event_total": 49,
        "has_played": true,
        "id": 4243543,
        "last_rank": 33936,
        "player_name": "Hamid Kharbache",
        "rank": 43627,
        "rank_sort": 43640,
        "total": 2356
      },
      {
        "club_badge_src": null,
        "entry": 687552,
        "entry_name": "Tinman FC \u2b50\ufe0f\u2b50\ufe0f\u2b50\ufe0f\u2b50\ufe0f",
        "event_total": 36,
        "has_played": true,
        "id": 4654642,
        "last_rank": 21677,
        "player_name": "Graham Russell",
        "rank": 43627,
        "rank_sort": 43641,
        "total": 2356
      },
      {
        "club_badge_src": null,
        "entry": 715688,
        "entry_name": "Beef Cherki",
        "event_total": 78,
        "has_played": true,
        "id": 4855731,
        "last_rank": 81244,
        "player_name": "Ronnie Chen",
        "rank": 43627,
        "rank_sort": 43642,
        "total": 2356
      },
      {
        "club_badge_src": null,
        "entry": 866239,
        "entry_name": "gamiaes",
        "event_total": 69,
        "has_played": true,
        "id": 5938468,
        "last_rank": 63117,
        "player_name": "Nestoras Koulas",
        "rank": 43627,
        "rank_sort": 43643,
        "total": 2356
      },
      {
        "club_badge_src": null,
        "entry": 939320,
        "entry_name": "Rampage FC",
        "event_total": 66,
        "has_played": true,
        "id": 6464983,
        "last_rank": 57857,
        "player_name": "Oche Abechi",
        "rank": 43627,
        "rank_sort": 43644,
        "total": 2356
      },
      {
        "club_badge_src": null,
        "entry": 1007504,
        "entry_name": "Hammies Heroes",
        "event_total": 56,
        "has_played": true,
        "id": 6965466,
        "last_rank": 42506,
        "player_name": "Willem van Ham",
        "rank": 43627,
        "rank_sort": 43645,
        "total": 2356
      },
      {
        "club_badge_src": null,
        "entry": 1194945,
        "entry_name": "you a wissa harry",
        "event_total": 65,
        "has_played": true,
        "id": 8290819,
        "last_rank": 56369,
        "player_name": "Charlie Dixon",
        "rank": 43627,
        "rank_sort": 43646,
        "total": 2356
      },
      {
        "club_badge_src": null,
        "entry": 1222467,
        "entry_name": "Ctrl Alt De Ligt",
        "event_total": 50,
        "has_played": true,
        "id": 8487245,
        "last_rank": 35166,
        "player_name": "Dougie Burns",
        "rank": 43627,
        "rank_sort": 43647,
        "total": 2356
      },
      {
        "club_badge_src": null,
        "entry": 1331239,
        "entry_name": "Rutter Woke Rubbish",
        "event_total": 60,
        "has_played": true,
        "id": 9253136,
        "last_rank": 48119,
        "player_name": "Connor Seddon",
        "rank": 43627,
        "rank_sort": 43648,
        "total": 2356
      },
      {
        "club_badge_src": null,
        "entry": 1679585,
        "entry_name": "HisNameIsRioAndHe\u2026",
        "event_total": 68,
        "has_played": true,
        "id": 11758232,
        "last_rank": 61411,
        "player_name": "Carson Gorecki",
        "rank": 43627,
        "rank_sort": 43649,
        "total": 2356
      },
      {
        "club_badge_src": null,
        "entry": 1837409,
        "entry_name": "Livin' Saliba Loca",
        "event_total": 87,
        "has_played": true,
        "id": 12926277,
        "last_rank": 103254,
        "player_name": "Will Brighton",
        "rank": 43627,
        "rank_sort": 43650,
        "total": 2356
      }
    ]
  }
}