{
  "last_updated_data": "2026-05-24T23:28:17Z",
  "league": {
    "admin_entry": null,
    "closed": false,
    "code_privacy": "p",
    "created": "2025-07-20T23:14:33.933835Z",
    "cup_league": 2815434,
    "has_cup": true,
    "id": 314,
    "league_type": "s",
    "max_entries": null,
    "name": "Overall",
    "rank": null,
    "scoring": "c",
    "start_event": 1
  },
  "new_entries": {
    "has_next": false,
    "page": 1,
    "results": []
  },
  "standings": {
    "has_next": true,
    "page": 1479,
    "results": [
      {
        "club_badge_src": null,
        "entry": 5020122,
        "entry_name": "Don'tLookBackElanga",
        "event_total": 66,
        "has_played": true,
        "id": 38769315,
        "last_rank": 95890,
        "player_name": "Justin Dunner",
        "rank": 73620,
        "rank_sort": 73901,
        "total": 2338
      },
      {
        "club_badge_src": null,
        "entry": 5026722,
        "entry_name": "Abood_mufc",
        "event_total": 72,
        "has_played": true,
        "id": 38823014,
        "last_rank": 111669,
        "player_name": "Abdulla Abdulrahman",
        "rank": 73620,
        "rank_sort": 73902,
        "total": 2338
      },
      {
        "club_badge_src": null,
        "entry": 5037731,
        "entry_name": "Behind Emery Lines",
        "event_total": 60,
        "has_played": true,
        "id": 38911876,
        "last_rank": 81420,
        "player_name": "Owen Hayes",
        "rank": 73620,
        "rank_sort": 73903,
        "total": 2338
      },
      {
        "club_badge_src": null,
        "entry": 5050379,
        "entry_name": "OTB",
        "event_total": 60,
        "has_played": true,
        "id": 39020244,
        "last_rank": 81420,
        "player_name": "Khalid OTB",
        "rank": 73620,
        "rank_sort": 73904,
        "total": 2338
      },
      {
        "club_badge_src": null,
        "entry": 5118799,
        "entry_name": "I\u2019m a Baleba",
        "event_total": 66,
        "has_played": true,
        "id": 39576505,
        "last_rank": 95890,
        "player_name": "Jack Perry",
        "rank": 73620,
        "rank_sort": 73905,
        "total": 2338
      },
      {
        "club_badge_src": null,
        "entry": 5134677,
        "entry_name": "DarkKnighted",
        "event_total": 63,
        "has_played": true,
        "id": 39714598,
        "last_rank": 88594,
        "player_name": "Amine Ben Slama",
        "rank": 73620,
        "rank_sort": 73906,
        "total": 2338
      },
      {
        "club_badge_src": null,
        "entry": 5164132,
        "entry_name": "Luca Koleno-show",
        "event_total": 61,
        "has_played": true,
        "id": 39963881,
        "last_rank": 83934,
        "player_name": "George Hampson",
        "rank": 73620,
        "rank_sort": 73907,
        "total": 2338
      },
      {
        "club_badge_src": null,
        "entry": 5215750,
        "entry_name": "lost for wirtz",
        "event_total": 68,
        "has_played": true,
        "id": 40404852,
        "last_rank": 100949,
        "player_name": "Laurie Fishwick",
        "rank": 73620,
        "rank_sort": 73908,
        "total": 2338
      },
      {
        "club_badge_src": null,
        "entry": 5236361,
        "entry_name": "un cliente prime",
        "event_total": 68,
        "has_played": true,
        "id": 40578658,
        "last_rank": 100700,
        "player_name": "ahmed mady",
        "rank": 73620,
        "rank_sort": 73909,
        "total": 2338
      },
      {
        "club_badge_src": null,
        "entry": 5243516,
        "entry_name": "Les Mis\u00e9rables",
        "event_total": 42,
        "has_played": true,
        "id": 40636570,
        "last_rank": 48363,
        "player_name": "Arild Christiansen",
        "rank": 73620,
        "rank_sort": 73910,
        "total": 2338
      },
      {
        "club_badge_src": null,
        "entry": 5339220,
        "entry_name": "aalabsi",
        "event_total": 60,
        "has_played": true,
        "id": 41403060,
        "last_rank": 81646,
        "player_name": "Abdullah Alabsi",
        "rank": 73620,
        "rank_sort": 73911,
        "total": 2338
      },
      {
        "club_badge_src": null,
        "entry": 5368372,
        "entry_name": "ChickenTikkaMoSalah",
        "event_total": 57,
        "has_played": true,
        "id": 41708666,
        "last_rank": 66848,
        "player_name": "James Greco-Taylor",
        "rank": 73620,
        "rank_sort": 73912,
        "total": 2338
      },
      {
        "club_badge_src": null,
        "entry": 5444838,
        "entry_name": "Yousef Fc",
        "event_total": 60,
        "has_played": true,
        "id": 42364112,
        "last_rank": 81646,
        "player_name": "yousef essam",
        "rank": 73620,
        "rank_sort": 73913,
        "total": 2338
      },
      {
        "club_badge_src": null,
        "entry": 5483666,
        "entry_name": "mattsxi",
        "event_total": 80,
        "has_played": true,
        "id": 42698966,
        "last_rank": 135577,
        "player_name": "Matt hunt",
        "rank": 73620,
        "rank_sort": 73914,
        "total": 2338
      },
      {
        "club_badge_src": null,
        "entry": 5495711,
        "entry_name": "BIG MOU",
        "event_total": 50,
        "has_played": true,
        "id": 42809151,
        "last_rank": 61411,
        "player_name": "Delight Woyike",
        "rank": 73620,
        "rank_sort": 73915,
        "total": 2338
      },
      {
        "club_badge_src": null,
        "entry": 5513607,
        "entry_name": "FC Kays",
        "event_total": 53,
        "has_played": true,
        "id": 42981642,
        "last_rank": 66848,
        "player_name": "Hope Kugotsi",
        "rank": 73620,
        "rank_sort": 73916,
        "total": 2338
      },
      {
        "club_badge_src": null,
        "entry": 5535683,
        "entry_name": "Blockers",
        "event_total": 64,
        "has_played": true,
        "id": 43189832,
        "last_rank": 91006,
        "player_name": "jon nicol",
        "rank": 73620,
        "rank_sort": 73917,
        "total": 2338
      },
      {
        "club_badge_src": null,
        "entry": 5654783,
        "entry_name": "Average Joes",
        "event_total": 50,
        "has_played": true,
        "id": 44237727,
        "last_rank": 61411,
        "player_name": "Joe Jackson",
        "rank": 73620,
        "rank_sort": 73918,
        "total": 2338
      },
      {
        "club_badge_src": null,
        "entry": 5705319,
        "entry_name": "Squids",
        "event_total": 64,
        "has_played": true,
        "id": 44673160,
        "last_rank": 91006,
        "player_name": "Nick Wilson",
        "rank": 73620,
        "rank_sort": 73919,
        "total": 2338
      },
      {
        "club_badge_src": "https://fantasy.premierleague.com/gcs/plfpl-production-adobe-approved/plfpl-production/5754301/35ef5c9f-c77d-489a-962c-17ad66c98891.png",
        "entry": 5754301,
        "entry_name": "\u0424.\u041a. \u0422\u0440\u0438 \u0428\u0435\u0441\u043a\u0438",
        "event_total": 60,
        "has_played": true,
        "id": 45104582,
        "last_rank": 81420,
        "player_name": "Dzhoko Mitev",
        "rank": 73620,
        "rank_sort": 73920,
        "total": 2338
      },
      {
        "club_badge_src": null,
        "entry": 5761698,
        "entry_name": "Red Suited Gangsters",
        "event_total": 68,
        "has_played": true,
        "id": 45167152,
        "last_rank": 100949,
        "player_name": "Graeme Moore",
        "rank": 73620,
        "rank_sort": 73921,
        "total": 2338
      },
      {
        "club_badge_src": null,
        "entry": 5782707,
        "entry_name": "Nwaneri Poppins",
        "event_total": 60,
        "has_played": true,
        "id": 45346593,
        "last_rank": 81244,
        "player_name": "Ben Viles",
        "rank": 73620,
        "rank_sort": 73922,
        "total": 2338
      },
      {
        "club_badge_src": null,
        "entry": 5795542,
        "entry_name": "AssassinatingGunnerz",
        "event_total": 63,
        "has_played": true,
        "id": 45460315,
        "last_rank": 88348,
        "player_name": "Kelvin Agara",
        "rank": 73620,
        "rank_sort": 73923,
        "total": 2338
      },
      {
        "club_badge_src": null,
        "entry": 5816192,
        "entry_name": "Finternazionale",
        "event_total": 58,
        "has_played": true,
        "id": 45639369,
        "last_rank": 77050,
        "player_name": "Fin Rylatt",
        "rank": 73620,
        "rank_sort": 73924,
        "total": 2338
      },
      {
        "club_badge_src": null,
        "entry": 5916204,
        "entry_name": "Ingland",
        "event_total": 58,
        "has_played": true,
        "id": 46495780,
        "last_rank": 77258,
        "player_name": "Lucian Ingley",
        "rank": 73620,
        "rank_sort": 73925,
        "total": 2338
      },
      {
        "club_badge_src": null,
        "entry": 6034553,
        "entry_name": "Amiros",
        "event_total": 53,
        "has_played": true,
        "id": 47606346,
        "last_rank": 67063,
        "player_name": "Amir Avitan",
        "rank": 73620,
        "rank_sort": 73926,
        "total": 2338
      },
      {
        "club_badge_src": null,
        "entry": 6048974,
        "entry_name": "ABCDE FC",
        "event_total": 75,
        "has_played": true,
        "id": 47730579,
        "last_rank": 120438,
        "player_name": "JAMES BHARA",
        "rank": 73620,
        "rank_sort": 73927,
        "total": 2338
      },
      {
        "club_badge_src": null,
        "entry": 6049184,
        "entry_name": "Gy\u00f6k14",
        "event_total": 79,
        "has_played": true,
        "id": 47732377,
        "last_rank": 133328,
        "player_name": "Liam Hennessy",
        "rank": 73620,
        "rank_sort": 73928,
        "total": 2338
      },
      {
        "club_badge_src": "https://fantasy.premierleague.com/gcs/plfpl-production-adobe-approved/plfpl-production/6076748/7f9090b7-2950-4c87-bed7-bbc18d38bb9b.png",
        "entry": 6076748,
        "entry_name": "\u062e\u0637\u0627\u0641 \u0627\u0644\u0642\u0644\u0639\u0629",
        "event_total": 48,
        "has_played": true,
        "id": 47973690,
        "last_rank": 58071,
        "player_name": "Bilel Issaoui",
        "rank": 73620,
        "rank_sort": 73929,
        "total": 2338
      },
      {
        "club_badge_src": null,
        "entry": 6276113,
        "entry_name": "Netflix and Chilwell",
        "event_total": 53,
        "has_played": true,
        "id": 49700506,
        "last_rank": 67063,
        "player_name": "Caitlin Pfarr",
        "rank": 73620,
        "rank_sort": 73930,
        "total": 2338
      },
      {
        "club_badge_src": "https://fantasy.premierleague.com/gcs/plfpl-production-adobe-approved/plfpl-production/6281615/eb87013c-0909-4457-9597-b7f79e2cfe37.png",
        "entry": 6281615,
        "entry_name": "Koreen's ParkRangers",
        "event_total": 58,
        "has_played": true,
        "id": 49751552,
        "last_rank": 76885,
        "player_name": "John Koreen",
        "rank": 73620,
        "rank_sort": 73931,
        "total": 2338
      },
      {
        "club_badge_src": null,
        "entry": 6296710,
        "entry_name": "Violent Vicarios",
        "event_total": 70,
        "has_played": true,
        "id": 49906783,
        "last_rank": 106259,
        "player_name": "Hugh Gowland",
        "rank": 73620,
        "rank_sort": 73932,
        "total": 2338
      },
      {
        "club_badge_src": null,
        "entry": 6322043,
        "entry_name": "Heman",
        "event_total": 58,
        "has_played": true,
        "id": 50208018,
        "last_rank": 77050,
        "player_name": "Andrew He",
        "rank": 73620,
        "rank_sort": 73933,
        "total": 2338
      },
      {
        "club_badge_src": null,
        "entry": 6455429,
        "entry_name": "Hokuna_Mateta",
        "event_total": 48,
        "has_played": true,
        "id": 51411281,
        "last_rank": 57857,
        "player_name": "Richmond kusi",
        "rank": 73620,
        "rank_sort": 73934,
        "total": 2338
      },
      {
        "club_badge_src": null,
        "entry": 6474627,
        "entry_name": "MarchingOnTogether",
        "event_total": 51,
        "has_played": true,
        "id": 51593205,
        "last_rank": 63390,
        "player_name": "Tim Mann",
        "rank": 73620,
        "rank_sort": 73935,
        "total": 2338
      },
      {
        "club_badge_src": null,
        "entry": 6488368,
        "entry_name": "Riise's Pieces",
        "event_total": 62,
        "has_played": true,
        "id": 51719223,
        "last_rank": 86304,
        "player_name": "Craig Johnson",
        "rank": 73620,
        "rank_sort": 73936,
        "total": 2338
      },
      {
        "club_badge_src": null,
        "entry": 6523009,
        "entry_name": "Onpavaikeeta",
        "event_total": 51,
        "has_played": true,
        "id": 52026439,
        "last_rank": 63724,
        "player_name": "Onni Lundin",
        "rank": 73620,
        "rank_sort": 73937,
        "total": 2338
      },
      {
        "club_badge_src": null,
        "entry": 6565786,
        "entry_name": "Jkrug",
        "event_total": 48,
        "has_played": true,
        "id": 52407620,
        "last_rank": 58071,
        "player_name": "Jeff Krug",
        "rank": 73620,
        "rank_sort": 73938,
        "total": 2338
      },
      {
        "club_badge_src": null,
        "entry": 6591581,
        "entry_name": "Hamer Time",
        "event_total": 60,
        "has_played": true,
        "id": 52645078,
        "last_rank": 81211,
        "player_name": "Lucas Hawke",
        "rank": 73620,
        "rank_sort": 73939,
        "total": 2338
      },
      {
        "club_badge_src": null,
        "entry": 6625496,
        "entry_name": "Flashman",
        "event_total": 62,
        "has_played": true,
        "id": 52947670,
        "last_rank": 86304,
        "player_name": "Jeff Clayton",
        "rank": 73620,
        "rank_sort": 73940,
        "total": 2338
      },
      {
        "club_badge_src": null,
        "entry": 6828838,
        "entry_name": "Cherki Twizzlers",
        "event_total": 58,
        "has_played": true,
        "id": 54698584,
        "last_rank": 77258,
        "player_name": "Danny Monksfield",
        "rank": 73620,
        "rank_sort": 73941,
        "total": 2338
      },
      {
        "club_badge_src": null,
        "entry": 6889473,
        "entry_name": "Yengui Team",
        "event_total": 32,
        "has_played": true,
        "id": 55215973,
        "last_rank": 35034,
        "player_name": "Yengui Yessin",
        "rank": 73620,
        "rank_sort": 73942,
        "total": 2338
      },
      {
        "club_badge_src": null,
        "entry": 6906109,
        "entry_name": "Mufasa's Pride",
        "event_total": 51,
        "has_played": true,
        "id": 55355205,
        "last_rank": 63201,
        "player_name": "Red Naz",
        "rank": 73620,
        "rank_sort": 73943,
        "total": 2338
      },
      {
        "club_badge_src": null,
        "entry": 6909902,
        "entry_name": "Sneijder Cut",
        "event_total": 68,
        "has_played": true,
        "id": 55387284,
        "last_rank": 100949,
        "player_name": "Lockie Alliex",
        "rank": 73620,
        "rank_sort": 73944,
        "total": 2338
      },
      {
        "club_badge_src": null,
        "entry": 6985287,
        "entry_name": "Som3a",
        "event_total": 58,
        "has_played": true,
        "id": 56067070,
        "last_rank": 77050,
        "player_name": "Ismail Osman",
        "rank": 73620,
        "rank_sort": 73945,
        "total": 2338
      },
      {
        "club_badge_src": null,
        "entry": 7044625,
        "entry_name": "Indaboski",
        "event_total": 29,
        "has_played": true,
        "id": 56643358,
        "last_rank": 31995,
        "player_name": "Timileyin D O",
        "rank": 73620,
        "rank_sort": 73946,
        "total": 2338
      },
      {
        "club_badge_src": null,
        "entry": 7046743,
        "entry_name": "Kohilo Dreams",
        "event_total": 56,
        "has_played": true,
        "id": 56665672,
        "last_rank": 73038,
        "player_name": "Christian Koksvik Dahl",
        "rank": 73620,
        "rank_sort": 73947,
        "total": 2338
      },
      {
        "club_badge_src": null,
        "entry": 7072727,
        "entry_name": "Under My Cucurella",
        "event_total": 40,
        "has_played": true,
        "id": 56914541,
        "last_rank": 45416,
        "player_name": "Harry Poll",
        "rank": 73620,
        "rank_sort": 73948,
        "total": 2338
      },
      {
        "club_badge_src": null,
        "entry": 7115425,
        "entry_name": "Tamil Tiger",
        "event_total": 44,
        "has_played": true,
        "id": 57323742,
        "last_rank": 51403,
        "player_name": "Johan Sittampalam",
        "rank": 73620,
        "rank_sort": 73949,
        "total": 2338
      },
      {
        "club_badge_src": null,
        "entry": 7190063,
        "entry_name": "LetMeBeYourFantasyFC",
        "event_total": 62,
        "has_played": true,
        "id": 58040420,
        "last_rank": 86054,
        "player_name": "Jack Bailey",
        "rank": 73620,
        "rank_sort": 73950,
        "total": 2338
      }
    ]
  }
}