{
  "last_updated_data": "2026-05-24T23:28:17Z",
  "league": {
    "admin_entry": null,
    "closed": false,
    "code_privacy": "p",
    "created": "2025-07-20T23:14:33.933835Z",
    "cup_league": 2815434,
    "has_cup": true,
    "id": 314,
    "league_type": "s",
    "max_entries": null,
    "name": "Overall",
    "rank": null,
    "scoring": "c",
    "start_event": 1
  },
  "new_entries": {
    "has_next": false,
    "page": 1,
    "results": []
  },
  "standings": {
    "has_next": true,
    "page": 969,
    "results": [
      {
        "club_badge_src": null,
        "entry": 5193431,
        "entry_name": "Vote for Pedro",
        "event_total": 69,
        "has_played": true,
        "id": 40208808,
        "last_rank": 68748,
        "player_name": "Chris Galgano",
        "rank": 48181,
        "rank_sort": 48401,
        "total": 2353
      },
      {
        "club_badge_src": null,
        "entry": 5250287,
        "entry_name": "BU Fantasy Warrior",
        "event_total": 61,
        "has_played": true,
        "id": 40690733,
        "last_rank": 55014,
        "player_name": "Md. Rasel",
        "rank": 48181,
        "rank_sort": 48402,
        "total": 2353
      },
      {
        "club_badge_src": null,
        "entry": 5286457,
        "entry_name": "CUNHA DIG IT, SOCCER",
        "event_total": 64,
        "has_played": true,
        "id": 40976583,
        "last_rank": 59813,
        "player_name": "Conor Walsh",
        "rank": 48181,
        "rank_sort": 48403,
        "total": 2353
      },
      {
        "club_badge_src": null,
        "entry": 5314005,
        "entry_name": "Lil Uzi Wirtz",
        "event_total": 62,
        "has_played": true,
        "id": 41191808,
        "last_rank": 56708,
        "player_name": "Murray Miller",
        "rank": 48181,
        "rank_sort": 48404,
        "total": 2353
      },
      {
        "club_badge_src": null,
        "entry": 5348788,
        "entry_name": "Mansplained",
        "event_total": 59,
        "has_played": true,
        "id": 41510161,
        "last_rank": 45416,
        "player_name": "Bendikte Lende",
        "rank": 48181,
        "rank_sort": 48405,
        "total": 2353
      },
      {
        "club_badge_src": null,
        "entry": 5505524,
        "entry_name": "Brighton My Day",
        "event_total": 68,
        "has_played": true,
        "id": 42902950,
        "last_rank": 59813,
        "player_name": "Ananth Menon",
        "rank": 48181,
        "rank_sort": 48406,
        "total": 2353
      },
      {
        "club_badge_src": null,
        "entry": 5507732,
        "entry_name": "UsedToBeGood",
        "event_total": 54,
        "has_played": true,
        "id": 42927141,
        "last_rank": 44303,
        "player_name": "Keith Seah",
        "rank": 48181,
        "rank_sort": 48407,
        "total": 2353
      },
      {
        "club_badge_src": null,
        "entry": 5542468,
        "entry_name": "SicParvisMagna",
        "event_total": 73,
        "has_played": true,
        "id": 43248985,
        "last_rank": 77676,
        "player_name": "Kapil Koul",
        "rank": 48181,
        "rank_sort": 48408,
        "total": 2353
      },
      {
        "club_badge_src": null,
        "entry": 5608061,
        "entry_name": "El Fen\u00f3meno",
        "event_total": 56,
        "has_played": true,
        "id": 43826387,
        "last_rank": 41324,
        "player_name": "Shane Halai",
        "rank": 48181,
        "rank_sort": 48409,
        "total": 2353
      },
      {
        "club_badge_src": null,
        "entry": 5633761,
        "entry_name": "Turkish De Ligt*",
        "event_total": 60,
        "has_played": true,
        "id": 44050216,
        "last_rank": 53345,
        "player_name": "Ashley Brown",
        "rank": 48181,
        "rank_sort": 48410,
        "total": 2353
      },
      {
        "club_badge_src": null,
        "entry": 5657974,
        "entry_name": "SL Benfica",
        "event_total": 56,
        "has_played": true,
        "id": 44264913,
        "last_rank": 46839,
        "player_name": "Nelson Benevides",
        "rank": 48181,
        "rank_sort": 48411,
        "total": 2353
      },
      {
        "club_badge_src": null,
        "entry": 5682367,
        "entry_name": "Gravberget Knights",
        "event_total": 60,
        "has_played": true,
        "id": 44475294,
        "last_rank": 53023,
        "player_name": "Lars Even Karlstad",
        "rank": 48181,
        "rank_sort": 48412,
        "total": 2353
      },
      {
        "club_badge_src": null,
        "entry": 5738940,
        "entry_name": "Jezza's Bhoys",
        "event_total": 57,
        "has_played": true,
        "id": 44967236,
        "last_rank": 48363,
        "player_name": "Jeremy Ackerman",
        "rank": 48181,
        "rank_sort": 48413,
        "total": 2353
      },
      {
        "club_badge_src": null,
        "entry": 5815241,
        "entry_name": "Udder Fantasy",
        "event_total": 62,
        "has_played": true,
        "id": 45631367,
        "last_rank": 56708,
        "player_name": "David Roe",
        "rank": 48181,
        "rank_sort": 48414,
        "total": 2353
      },
      {
        "club_badge_src": null,
        "entry": 5938094,
        "entry_name": "SB-129",
        "event_total": 53,
        "has_played": true,
        "id": 46692188,
        "last_rank": 42940,
        "player_name": "Marcus Jonsson",
        "rank": 48181,
        "rank_sort": 48415,
        "total": 2353
      },
      {
        "club_badge_src": "https://fantasy.premierleague.com/gcs/plfpl-production-adobe-approved/plfpl-production/5978452/e9fdd28d-364c-40d0-8b8e-288abaf091e5.png",
        "entry": 5978452,
        "entry_name": "NothingHillFC",
        "event_total": 51,
        "has_played": true,
        "id": 47068389,
        "last_rank": 40297,
        "player_name": "Park Ju Bong de ligt",
        "rank": 48181,
        "rank_sort": 48416,
        "total": 2353
      },
      {
        "club_badge_src": null,
        "entry": 6005915,
        "entry_name": "Shine Bright",
        "event_total": 53,
        "has_played": true,
        "id": 47350599,
        "last_rank": 42940,
        "player_name": "Ben Kel",
        "rank": 48181,
        "rank_sort": 48417,
        "total": 2353
      },
      {
        "club_badge_src": null,
        "entry": 6006130,
        "entry_name": "Teddy's Tots",
        "event_total": 65,
        "has_played": true,
        "id": 47352448,
        "last_rank": 61950,
        "player_name": "Theo Botha",
        "rank": 48181,
        "rank_sort": 48418,
        "total": 2353
      },
      {
        "club_badge_src": null,
        "entry": 6030899,
        "entry_name": "Dahighs&DalotsFC",
        "event_total": 50,
        "has_played": true,
        "id": 47574285,
        "last_rank": 39023,
        "player_name": "Jacob Maddox",
        "rank": 48181,
        "rank_sort": 48419,
        "total": 2353
      },
      {
        "club_badge_src": null,
        "entry": 6032303,
        "entry_name": "Mugiwara fc",
        "event_total": 66,
        "has_played": true,
        "id": 47586199,
        "last_rank": 63390,
        "player_name": "Osusu Osusu",
        "rank": 48181,
        "rank_sort": 48420,
        "total": 2353
      },
      {
        "club_badge_src": null,
        "entry": 6188111,
        "entry_name": "Bacon Bap",
        "event_total": 56,
        "has_played": true,
        "id": 48942521,
        "last_rank": 46839,
        "player_name": "Craig Thorley",
        "rank": 48181,
        "rank_sort": 48421,
        "total": 2353
      },
      {
        "club_badge_src": null,
        "entry": 6217130,
        "entry_name": "Ballard Ballers",
        "event_total": 75,
        "has_played": true,
        "id": 49191823,
        "last_rank": 81646,
        "player_name": "albert andersson",
        "rank": 48181,
        "rank_sort": 48422,
        "total": 2353
      },
      {
        "club_badge_src": "https://fantasy.premierleague.com/gcs/plfpl-production-adobe-approved/plfpl-production/6229774/aaba506b-4826-41b8-943b-668bd924f9ee.png",
        "entry": 6229774,
        "entry_name": "No risk, No glory",
        "event_total": 36,
        "has_played": true,
        "id": 49301389,
        "last_rank": 20983,
        "player_name": "andrew halim",
        "rank": 48181,
        "rank_sort": 48423,
        "total": 2353
      },
      {
        "club_badge_src": null,
        "entry": 6298705,
        "entry_name": "Treky",
        "event_total": 74,
        "has_played": true,
        "id": 49928834,
        "last_rank": 79431,
        "player_name": "Dalkeith Brown",
        "rank": 48181,
        "rank_sort": 48424,
        "total": 2353
      },
      {
        "club_badge_src": null,
        "entry": 6315274,
        "entry_name": "Minteh Fresh",
        "event_total": 65,
        "has_played": true,
        "id": 50116333,
        "last_rank": 61950,
        "player_name": "Ross de Beer",
        "rank": 48181,
        "rank_sort": 48425,
        "total": 2353
      },
      {
        "club_badge_src": "https://fantasy.premierleague.com/gcs/plfpl-production-adobe-approved/plfpl-production/6463556/00effa4a-d153-45e1-932d-60c38acbfa06.png",
        "entry": 6463556,
        "entry_name": "Carl Jung-Min Son",
        "event_total": 47,
        "has_played": true,
        "id": 51494081,
        "last_rank": 35034,
        "player_name": "Jack Griffiths",
        "rank": 48181,
        "rank_sort": 48426,
        "total": 2353
      },
      {
        "club_badge_src": null,
        "entry": 6487898,
        "entry_name": "Shalin F.C.",
        "event_total": 56,
        "has_played": true,
        "id": 51715061,
        "last_rank": 41324,
        "player_name": "Shalin Parikh",
        "rank": 48181,
        "rank_sort": 48427,
        "total": 2353
      },
      {
        "club_badge_src": null,
        "entry": 6552495,
        "entry_name": "One more time fc",
        "event_total": 56,
        "has_played": true,
        "id": 52289560,
        "last_rank": 47163,
        "player_name": "Robert White",
        "rank": 48181,
        "rank_sort": 48428,
        "total": 2353
      },
      {
        "club_badge_src": null,
        "entry": 6599051,
        "entry_name": "could get Messi",
        "event_total": 53,
        "has_played": true,
        "id": 52712254,
        "last_rank": 42506,
        "player_name": "Stefan Burger",
        "rank": 48181,
        "rank_sort": 48429,
        "total": 2353
      },
      {
        "club_badge_src": null,
        "entry": 6784141,
        "entry_name": "Kalmaaa FF",
        "event_total": 54,
        "has_played": true,
        "id": 54324805,
        "last_rank": 44048,
        "player_name": "Arvid Holm",
        "rank": 48181,
        "rank_sort": 48430,
        "total": 2353
      },
      {
        "club_badge_src": null,
        "entry": 6802605,
        "entry_name": "You Shall Not Pass",
        "event_total": 61,
        "has_played": true,
        "id": 54478360,
        "last_rank": 54667,
        "player_name": "Harry Thompson",
        "rank": 48181,
        "rank_sort": 48431,
        "total": 2353
      },
      {
        "club_badge_src": "https://fantasy.premierleague.com/gcs/plfpl-production-adobe-approved/plfpl-production/6941727/eb998b3f-ac17-496a-b197-65c79ccbb571.png",
        "entry": 6941727,
        "entry_name": "Kai~El",
        "event_total": 68,
        "has_played": true,
        "id": 55655897,
        "last_rank": 67422,
        "player_name": "Abdulkadir Raji",
        "rank": 48181,
        "rank_sort": 48432,
        "total": 2353
      },
      {
        "club_badge_src": null,
        "entry": 7015208,
        "entry_name": "Tinchy Sneijder",
        "event_total": 45,
        "has_played": true,
        "id": 56343142,
        "last_rank": 33147,
        "player_name": "Richard Morris",
        "rank": 48181,
        "rank_sort": 48433,
        "total": 2353
      },
      {
        "club_badge_src": null,
        "entry": 7086652,
        "entry_name": "The Saliba Syndicate",
        "event_total": 56,
        "has_played": true,
        "id": 57049613,
        "last_rank": 47163,
        "player_name": "B Abdi",
        "rank": 48181,
        "rank_sort": 48434,
        "total": 2353
      },
      {
        "club_badge_src": null,
        "entry": 7113982,
        "entry_name": "Behind Emery Lines",
        "event_total": 56,
        "has_played": true,
        "id": 57309713,
        "last_rank": 46660,
        "player_name": "Simeon Lilenstein",
        "rank": 48181,
        "rank_sort": 48435,
        "total": 2353
      },
      {
        "club_badge_src": null,
        "entry": 7197876,
        "entry_name": "The Champions",
        "event_total": 59,
        "has_played": true,
        "id": 58112587,
        "last_rank": 51720,
        "player_name": "Ahmed Beltagy",
        "rank": 48181,
        "rank_sort": 48436,
        "total": 2353
      },
      {
        "club_badge_src": null,
        "entry": 7209060,
        "entry_name": "Nought Nought",
        "event_total": 51,
        "has_played": true,
        "id": 58218200,
        "last_rank": 40297,
        "player_name": "Richard Bourne",
        "rank": 48181,
        "rank_sort": 48437,
        "total": 2353
      },
      {
        "club_badge_src": null,
        "entry": 7405951,
        "entry_name": "PetoTheGreat",
        "event_total": 53,
        "has_played": true,
        "id": 60068938,
        "last_rank": 42940,
        "player_name": "Peter Abdelmessih",
        "rank": 48181,
        "rank_sort": 48438,
        "total": 2353
      },
      {
        "club_badge_src": null,
        "entry": 7463709,
        "entry_name": "UrGoingToulouse",
        "event_total": 61,
        "has_played": true,
        "id": 60813799,
        "last_rank": 55014,
        "player_name": "Marc Phelan",
        "rank": 48181,
        "rank_sort": 48439,
        "total": 2353
      },
      {
        "club_badge_src": null,
        "entry": 7516323,
        "entry_name": "Name",
        "event_total": 64,
        "has_played": true,
        "id": 61476093,
        "last_rank": 59813,
        "player_name": "David Seddon",
        "rank": 48181,
        "rank_sort": 48440,
        "total": 2353
      },
      {
        "club_badge_src": null,
        "entry": 7605491,
        "entry_name": "Fridinho FC",
        "event_total": 61,
        "has_played": true,
        "id": 62314080,
        "last_rank": 55014,
        "player_name": "Frida Vala",
        "rank": 48181,
        "rank_sort": 48441,
        "total": 2353
      },
      {
        "club_badge_src": null,
        "entry": 7674027,
        "entry_name": "Zubi Dubi Do",
        "event_total": 51,
        "has_played": true,
        "id": 62937751,
        "last_rank": 40503,
        "player_name": "Ross Drysdale",
        "rank": 48181,
        "rank_sort": 48442,
        "total": 2353
      },
      {
        "club_badge_src": null,
        "entry": 7748807,
        "entry_name": "la casa de papel",
        "event_total": 35,
        "has_played": true,
        "id": 63610430,
        "last_rank": 20280,
        "player_name": "yacine benzema",
        "rank": 48181,
        "rank_sort": 48443,
        "total": 2353
      },
      {
        "club_badge_src": null,
        "entry": 7885994,
        "entry_name": "hhhhhhhhhh",
        "event_total": 79,
        "has_played": true,
        "id": 64858222,
        "last_rank": 91006,
        "player_name": "Hany Fawzy",
        "rank": 48181,
        "rank_sort": 48444,
        "total": 2353
      },
      {
        "club_badge_src": null,
        "entry": 8364889,
        "entry_name": "Charlie's Champions",
        "event_total": 59,
        "has_played": true,
        "id": 69345818,
        "last_rank": 51403,
        "player_name": "charlie brown",
        "rank": 48181,
        "rank_sort": 48445,
        "total": 2353
      },
      {
        "club_badge_src": null,
        "entry": 8468831,
        "entry_name": "emilos",
        "event_total": 41,
        "has_played": true,
        "id": 70333400,
        "last_rank": 28906,
        "player_name": "Emil Zag\u00f3rowski",
        "rank": 48181,
        "rank_sort": 48446,
        "total": 2353
      },
      {
        "club_badge_src": null,
        "entry": 8471716,
        "entry_name": "Ole FK",
        "event_total": 37,
        "has_played": true,
        "id": 70361208,
        "last_rank": 25172,
        "player_name": "Olena Kursik",
        "rank": 48181,
        "rank_sort": 48447,
        "total": 2353
      },
      {
        "club_badge_src": null,
        "entry": 8751517,
        "entry_name": "roll of the dyche",
        "event_total": 68,
        "has_played": true,
        "id": 73077785,
        "last_rank": 59813,
        "player_name": "Waheed Suleman",
        "rank": 48181,
        "rank_sort": 48448,
        "total": 2353
      },
      {
        "club_badge_src": null,
        "entry": 9107237,
        "entry_name": "TigerZubi",
        "event_total": 61,
        "has_played": true,
        "id": 76522448,
        "last_rank": 48197,
        "player_name": "Atanas Damyanov",
        "rank": 48181,
        "rank_sort": 48449,
        "total": 2353
      },
      {
        "club_badge_src": null,
        "entry": 9226044,
        "entry_name": "FC Flaschke 07",
        "event_total": 54,
        "has_played": true,
        "id": 77689211,
        "last_rank": 44303,
        "player_name": "Jacek Kowalski",
        "rank": 48181,
        "rank_sort": 48450,
        "total": 2353
      }
    ]
  }
}