{
  "last_updated_data": "2026-05-24T23:28:17Z",
  "league": {
    "admin_entry": null,
    "closed": false,
    "code_privacy": "p",
    "created": "2025-07-20T23:14:33.933835Z",
    "cup_league": 2815434,
    "has_cup": true,
    "id": 314,
    "league_type": "s",
    "max_entries": null,
    "name": "Overall",
    "rank": null,
    "scoring": "c",
    "start_event": 1
  },
  "new_entries": {
    "has_next": false,
    "page": 1,
    "results": []
  },
  "standings": {
    "has_next": true,
    "page": 1213,
    "results": [
      {
        "club_badge_src": null,
        "entry": 3081072,
        "entry_name": "Gy\u00f6Gy\u00f6 pops",
        "event_total": 60,
        "has_played": true,
        "id": 22698896,
        "last_rank": 66848,
        "player_name": "Katie Kohler",
        "rank": 60556,
        "rank_sort": 60601,
        "total": 2345
      },
      {
        "club_badge_src": null,
        "entry": 3165291,
        "entry_name": "Rubber Digne Rapids",
        "event_total": 55,
        "has_played": true,
        "id": 23384177,
        "last_rank": 58071,
        "player_name": "Jack Sparrow",
        "rank": 60556,
        "rank_sort": 60602,
        "total": 2345
      },
      {
        "club_badge_src": null,
        "entry": 3262046,
        "entry_name": "COYG",
        "event_total": 71,
        "has_played": true,
        "id": 24137401,
        "last_rank": 90746,
        "player_name": "Brandyn Shank",
        "rank": 60556,
        "rank_sort": 60603,
        "total": 2345
      },
      {
        "club_badge_src": null,
        "entry": 3278423,
        "entry_name": "Half the world (A)",
        "event_total": 54,
        "has_played": true,
        "id": 24265109,
        "last_rank": 56180,
        "player_name": "Damon Mcandrew",
        "rank": 60556,
        "rank_sort": 60604,
        "total": 2345
      },
      {
        "club_badge_src": null,
        "entry": 3460847,
        "entry_name": "Reece's Set Pieces",
        "event_total": 72,
        "has_played": true,
        "id": 25725193,
        "last_rank": 93443,
        "player_name": "Gaby Shaw",
        "rank": 60556,
        "rank_sort": 60605,
        "total": 2345
      },
      {
        "club_badge_src": "https://fantasy.premierleague.com/gcs/plfpl-production-adobe-approved/plfpl-production/3481212/8b46f543-518e-4c74-912c-e792645416f2.png",
        "entry": 3481212,
        "entry_name": "Phenominal FC",
        "event_total": 51,
        "has_played": true,
        "id": 25885967,
        "last_rank": 51220,
        "player_name": "Alvin Hakata",
        "rank": 60556,
        "rank_sort": 60606,
        "total": 2345
      },
      {
        "club_badge_src": null,
        "entry": 3641621,
        "entry_name": "Filmavdelingen",
        "event_total": 47,
        "has_played": true,
        "id": 27140018,
        "last_rank": 45252,
        "player_name": "Eirik Fosse",
        "rank": 60556,
        "rank_sort": 60607,
        "total": 2345
      },
      {
        "club_badge_src": "https://fantasy.premierleague.com/gcs/plfpl-production-adobe-approved/plfpl-production/3701519/95bef85b-355e-4c46-aa82-8d2ee393a87d.png",
        "entry": 3701519,
        "entry_name": "Grill\u00f6len",
        "event_total": 58,
        "has_played": true,
        "id": 27617331,
        "last_rank": 63201,
        "player_name": "Ludvig Lindgren",
        "rank": 60556,
        "rank_sort": 60608,
        "total": 2345
      },
      {
        "club_badge_src": null,
        "entry": 3752032,
        "entry_name": "bmt",
        "event_total": 59,
        "has_played": true,
        "id": 28012796,
        "last_rank": 64943,
        "player_name": "yochida ilunga",
        "rank": 60556,
        "rank_sort": 60609,
        "total": 2345
      },
      {
        "club_badge_src": "https://fantasy.premierleague.com/gcs/plfpl-production-adobe-approved/plfpl-production/3781358/8e54bb0e-630f-4953-aad6-85cfe6ada523.png",
        "entry": 3781358,
        "entry_name": "Biggest Ballers",
        "event_total": 41,
        "has_played": true,
        "id": 28236284,
        "last_rank": 37589,
        "player_name": "John Spry",
        "rank": 60556,
        "rank_sort": 60610,
        "total": 2345
      },
      {
        "club_badge_src": null,
        "entry": 4043377,
        "entry_name": "mansouriya fc",
        "event_total": 60,
        "has_played": true,
        "id": 30494696,
        "last_rank": 66848,
        "player_name": "Yousef Al zayed",
        "rank": 60556,
        "rank_sort": 60611,
        "total": 2345
      },
      {
        "club_badge_src": null,
        "entry": 4170909,
        "entry_name": "Canal Train",
        "event_total": 61,
        "has_played": true,
        "id": 31544701,
        "last_rank": 68624,
        "player_name": "Ross Mccrorie",
        "rank": 60556,
        "rank_sort": 60612,
        "total": 2345
      },
      {
        "club_badge_src": null,
        "entry": 4177079,
        "entry_name": "Pique Blinders",
        "event_total": 69,
        "has_played": true,
        "id": 31596213,
        "last_rank": 76885,
        "player_name": "David Macquat",
        "rank": 60556,
        "rank_sort": 60613,
        "total": 2345
      },
      {
        "club_badge_src": null,
        "entry": 4221962,
        "entry_name": "Who Let Dorgu Out",
        "event_total": 64,
        "has_played": true,
        "id": 31982240,
        "last_rank": 74898,
        "player_name": "Chris Hill",
        "rank": 60556,
        "rank_sort": 60614,
        "total": 2345
      },
      {
        "club_badge_src": null,
        "entry": 4292297,
        "entry_name": "son but nt forgotten",
        "event_total": 72,
        "has_played": true,
        "id": 32559566,
        "last_rank": 93186,
        "player_name": "James Dutton",
        "rank": 60556,
        "rank_sort": 60615,
        "total": 2345
      },
      {
        "club_badge_src": null,
        "entry": 4324221,
        "entry_name": "COYS",
        "event_total": 60,
        "has_played": true,
        "id": 32818608,
        "last_rank": 66738,
        "player_name": "Grant Schauer",
        "rank": 60556,
        "rank_sort": 60616,
        "total": 2345
      },
      {
        "club_badge_src": null,
        "entry": 4362604,
        "entry_name": "Athletico Longton",
        "event_total": 70,
        "has_played": true,
        "id": 33136205,
        "last_rank": 88249,
        "player_name": "James Dove",
        "rank": 60556,
        "rank_sort": 60617,
        "total": 2345
      },
      {
        "club_badge_src": null,
        "entry": 4372217,
        "entry_name": "Livin Saliba Loca",
        "event_total": 51,
        "has_played": true,
        "id": 33217531,
        "last_rank": 51403,
        "player_name": "Joe Marsh",
        "rank": 60556,
        "rank_sort": 60618,
        "total": 2345
      },
      {
        "club_badge_src": null,
        "entry": 4481374,
        "entry_name": "The Albion",
        "event_total": 44,
        "has_played": true,
        "id": 34154623,
        "last_rank": 36142,
        "player_name": "Chris Jebb",
        "rank": 60556,
        "rank_sort": 60619,
        "total": 2345
      },
      {
        "club_badge_src": null,
        "entry": 4564558,
        "entry_name": "Agile Beasts",
        "event_total": 53,
        "has_played": true,
        "id": 34832358,
        "last_rank": 54494,
        "player_name": "David Woodward",
        "rank": 60556,
        "rank_sort": 60620,
        "total": 2345
      },
      {
        "club_badge_src": null,
        "entry": 4580448,
        "entry_name": "Kewell Runnings FC",
        "event_total": 63,
        "has_played": true,
        "id": 34966480,
        "last_rank": 72702,
        "player_name": "chris holland",
        "rank": 60556,
        "rank_sort": 60621,
        "total": 2345
      },
      {
        "club_badge_src": null,
        "entry": 4585944,
        "entry_name": "Why Ayew Running",
        "event_total": 59,
        "has_played": true,
        "id": 35014008,
        "last_rank": 64943,
        "player_name": "Will Yarwood",
        "rank": 60556,
        "rank_sort": 60622,
        "total": 2345
      },
      {
        "club_badge_src": null,
        "entry": 4755021,
        "entry_name": "Pablo EscoBarnes",
        "event_total": 47,
        "has_played": true,
        "id": 36591172,
        "last_rank": 45416,
        "player_name": "Alex Mikelson",
        "rank": 60556,
        "rank_sort": 60623,
        "total": 2345
      },
      {
        "club_badge_src": null,
        "entry": 4912316,
        "entry_name": "Tq for ur donation",
        "event_total": 56,
        "has_played": true,
        "id": 37883162,
        "last_rank": 59535,
        "player_name": "Patrick Ho",
        "rank": 60556,
        "rank_sort": 60624,
        "total": 2345
      },
      {
        "club_badge_src": "https://fantasy.premierleague.com/gcs/plfpl-production-adobe-approved/plfpl-production/5027647/efe2bb65-81b8-4dd1-a53d-bf9c43205d16.png",
        "entry": 5027647,
        "entry_name": "Baldrick",
        "event_total": 70,
        "has_played": true,
        "id": 38830449,
        "last_rank": 88348,
        "player_name": "Jonathan Liu",
        "rank": 60556,
        "rank_sort": 60625,
        "total": 2345
      },
      {
        "club_badge_src": null,
        "entry": 5049653,
        "entry_name": "Gy\u00f6keres in the pack",
        "event_total": 71,
        "has_played": true,
        "id": 39014566,
        "last_rank": 90625,
        "player_name": "Daniel Bryant",
        "rank": 60556,
        "rank_sort": 60626,
        "total": 2345
      },
      {
        "club_badge_src": null,
        "entry": 5337598,
        "entry_name": "Heskay",
        "event_total": 65,
        "has_played": true,
        "id": 41385048,
        "last_rank": 77050,
        "player_name": "Heskay Heskay",
        "rank": 60556,
        "rank_sort": 60627,
        "total": 2345
      },
      {
        "club_badge_src": null,
        "entry": 5834228,
        "entry_name": "Kingers Killers",
        "event_total": 63,
        "has_played": true,
        "id": 45794220,
        "last_rank": 73038,
        "player_name": "James Kingsbury",
        "rank": 60556,
        "rank_sort": 60628,
        "total": 2345
      },
      {
        "club_badge_src": null,
        "entry": 6258855,
        "entry_name": "Dr.Phil",
        "event_total": 57,
        "has_played": true,
        "id": 49551885,
        "last_rank": 61315,
        "player_name": "Philip Dannevig",
        "rank": 60556,
        "rank_sort": 60629,
        "total": 2345
      },
      {
        "club_badge_src": null,
        "entry": 6307649,
        "entry_name": "Sensnake FC",
        "event_total": 53,
        "has_played": true,
        "id": 50031107,
        "last_rank": 54667,
        "player_name": "Senthu Sritharan",
        "rank": 60556,
        "rank_sort": 60630,
        "total": 2345
      },
      {
        "club_badge_src": null,
        "entry": 6474022,
        "entry_name": "CarTyr",
        "event_total": 59,
        "has_played": true,
        "id": 51587522,
        "last_rank": 64830,
        "player_name": "Cartier Saengchaiarun",
        "rank": 60556,
        "rank_sort": 60631,
        "total": 2345
      },
      {
        "club_badge_src": null,
        "entry": 6559686,
        "entry_name": "Gets Wirtz Each Year",
        "event_total": 51,
        "has_played": true,
        "id": 52353291,
        "last_rank": 51403,
        "player_name": "David Mc Namara",
        "rank": 60556,
        "rank_sort": 60632,
        "total": 2345
      },
      {
        "club_badge_src": null,
        "entry": 6567515,
        "entry_name": "Under My Cucurella",
        "event_total": 55,
        "has_played": true,
        "id": 52422922,
        "last_rank": 57857,
        "player_name": "Brandon Watts",
        "rank": 60556,
        "rank_sort": 60633,
        "total": 2345
      },
      {
        "club_badge_src": null,
        "entry": 6629736,
        "entry_name": "One Knight Stand xxx",
        "event_total": 50,
        "has_played": true,
        "id": 52985182,
        "last_rank": 49880,
        "player_name": "Romana Knight",
        "rank": 60556,
        "rank_sort": 60634,
        "total": 2345
      },
      {
        "club_badge_src": null,
        "entry": 6884023,
        "entry_name": "Kinder Mbuemo",
        "event_total": 34,
        "has_played": true,
        "id": 55170024,
        "last_rank": 29578,
        "player_name": "Peter Hart",
        "rank": 60556,
        "rank_sort": 60635,
        "total": 2345
      },
      {
        "club_badge_src": "https://fantasy.premierleague.com/gcs/plfpl-production-adobe-approved/plfpl-production/7068871/d52a0b01-7ec3-44b3-927c-22d755912c51.png",
        "entry": 7068871,
        "entry_name": "Comeback boy",
        "event_total": 54,
        "has_played": true,
        "id": 56878700,
        "last_rank": 56099,
        "player_name": "Erik Jacobsen",
        "rank": 60556,
        "rank_sort": 60636,
        "total": 2345
      },
      {
        "club_badge_src": null,
        "entry": 7826273,
        "entry_name": "fireball kh",
        "event_total": 53,
        "has_played": true,
        "id": 64311833,
        "last_rank": 54667,
        "player_name": "Ali Khudhair",
        "rank": 60556,
        "rank_sort": 60637,
        "total": 2345
      },
      {
        "club_badge_src": null,
        "entry": 7927714,
        "entry_name": "Real Meowdrid",
        "event_total": 66,
        "has_played": true,
        "id": 65238103,
        "last_rank": 79079,
        "player_name": "Dimitar Mitev",
        "rank": 60556,
        "rank_sort": 60638,
        "total": 2345
      },
      {
        "club_badge_src": null,
        "entry": 8089456,
        "entry_name": "the Jackson V",
        "event_total": 60,
        "has_played": true,
        "id": 66702859,
        "last_rank": 66848,
        "player_name": "Jackson Elliott",
        "rank": 60556,
        "rank_sort": 60639,
        "total": 2345
      },
      {
        "club_badge_src": null,
        "entry": 8146071,
        "entry_name": "1-Nil By Mouth",
        "event_total": 52,
        "has_played": true,
        "id": 67232244,
        "last_rank": 52759,
        "player_name": "Matt Read",
        "rank": 60556,
        "rank_sort": 60640,
        "total": 2345
      },
      {
        "club_badge_src": null,
        "entry": 8355785,
        "entry_name": "Rubber Digne Rapids",
        "event_total": 59,
        "has_played": true,
        "id": 69257188,
        "last_rank": 64777,
        "player_name": "Steven Waite",
        "rank": 60556,
        "rank_sort": 60641,
        "total": 2345
      },
      {
        "club_badge_src": null,
        "entry": 8511322,
        "entry_name": "JonaSterns Generaler",
        "event_total": 68,
        "has_played": true,
        "id": 70747379,
        "last_rank": 83534,
        "player_name": "Adam Sterner",
        "rank": 60556,
        "rank_sort": 60642,
        "total": 2345
      },
      {
        "club_badge_src": null,
        "entry": 8747916,
        "entry_name": "Absolutelyfabregas",
        "event_total": 63,
        "has_played": true,
        "id": 73043899,
        "last_rank": 72815,
        "player_name": "Michael Smith",
        "rank": 60556,
        "rank_sort": 60643,
        "total": 2345
      },
      {
        "club_badge_src": null,
        "entry": 8827634,
        "entry_name": "Torpedo",
        "event_total": 70,
        "has_played": true,
        "id": 73809989,
        "last_rank": 88185,
        "player_name": "Lora Peak",
        "rank": 60556,
        "rank_sort": 60644,
        "total": 2345
      },
      {
        "club_badge_src": null,
        "entry": 9019471,
        "entry_name": "Champagne Super Neva",
        "event_total": 69,
        "has_played": true,
        "id": 75667081,
        "last_rank": 86054,
        "player_name": "Dom Hinks",
        "rank": 60556,
        "rank_sort": 60645,
        "total": 2345
      },
      {
        "club_badge_src": null,
        "entry": 9151532,
        "entry_name": "Team PMax",
        "event_total": 56,
        "has_played": true,
        "id": 76955562,
        "last_rank": 59632,
        "player_name": "Hege Huneide-R\u00f8dsdalen",
        "rank": 60556,
        "rank_sort": 60646,
        "total": 2345
      },
      {
        "club_badge_src": null,
        "entry": 10335429,
        "entry_name": "cmokitgceo",
        "event_total": 60,
        "has_played": true,
        "id": 87493629,
        "last_rank": 66848,
        "player_name": "Oleg Rukavitsa",
        "rank": 60556,
        "rank_sort": 60647,
        "total": 2345
      },
      {
        "club_badge_src": "https://fantasy.premierleague.com/gcs/plfpl-production-adobe-approved/plfpl-production/10527335/3d92cd43-e8aa-4fcf-8f5c-6e43ed0036d2.png",
        "entry": 10527335,
        "entry_name": "Roy Ken't Touch This",
        "event_total": 46,
        "has_played": true,
        "id": 89001948,
        "last_rank": 43849,
        "player_name": "Nanci Butler",
        "rank": 60556,
        "rank_sort": 60648,
        "total": 2345
      },
      {
        "club_badge_src": "https://fantasy.premierleague.com/gcs/plfpl-production-adobe-approved/plfpl-production/10692600/cd8e3b79-6707-477b-8b9c-fb968bbb4905.png",
        "entry": 10692600,
        "entry_name": "Elnino",
        "event_total": 60,
        "has_played": true,
        "id": 90324313,
        "last_rank": 66848,
        "player_name": "El nino",
        "rank": 60556,
        "rank_sort": 60649,
        "total": 2345
      },
      {
        "club_badge_src": null,
        "entry": 10723354,
        "entry_name": "FC Pyriatyn",
        "event_total": 53,
        "has_played": true,
        "id": 90580039,
        "last_rank": 54494,
        "player_name": "Vadym Mozhchil",
        "rank": 60556,
        "rank_sort": 60650,
        "total": 2345
      }
    ]
  }
}