{
  "last_updated_data": "2026-05-24T23:28:17Z",
  "league": {
    "admin_entry": null,
    "closed": false,
    "code_privacy": "p",
    "created": "2025-07-20T23:14:33.933835Z",
    "cup_league": 2815434,
    "has_cup": true,
    "id": 314,
    "league_type": "s",
    "max_entries": null,
    "name": "Overall",
    "rank": null,
    "scoring": "c",
    "start_event": 1
  },
  "new_entries": {
    "has_next": false,
    "page": 1,
    "results": []
  },
  "standings": {
    "has_next": true,
    "page": 672,
    "results": [
      {
        "club_badge_src": null,
        "entry": 239523,
        "entry_name": "Fraser Swfc",
        "event_total": 65,
        "has_played": true,
        "id": 1593903,
        "last_rank": 38016,
        "player_name": "Fraser Smith",
        "rank": 33524,
        "rank_sort": 33551,
        "total": 2365
      },
      {
        "club_badge_src": null,
        "entry": 245319,
        "entry_name": "Docmo F.C",
        "event_total": 54,
        "has_played": true,
        "id": 1633288,
        "last_rank": 22685,
        "player_name": "Mohanad Abdelmagid",
        "rank": 33524,
        "rank_sort": 33552,
        "total": 2365
      },
      {
        "club_badge_src": null,
        "entry": 275554,
        "entry_name": "MAN WIV VAN de ven",
        "event_total": 67,
        "has_played": true,
        "id": 1833942,
        "last_rank": 35424,
        "player_name": "Rico Jara",
        "rank": 33524,
        "rank_sort": 33553,
        "total": 2365
      },
      {
        "club_badge_src": null,
        "entry": 291320,
        "entry_name": "Kinder Mbuemo",
        "event_total": 72,
        "has_played": true,
        "id": 1943119,
        "last_rank": 47417,
        "player_name": "Lucas Finnegan",
        "rank": 33524,
        "rank_sort": 33554,
        "total": 2365
      },
      {
        "club_badge_src": null,
        "entry": 323336,
        "entry_name": "Karawal",
        "event_total": 65,
        "has_played": true,
        "id": 2166789,
        "last_rank": 38016,
        "player_name": "Abdulla Karawal -\ufe0f",
        "rank": 33524,
        "rank_sort": 33555,
        "total": 2365
      },
      {
        "club_badge_src": null,
        "entry": 324033,
        "entry_name": "KeppieUppies",
        "event_total": 61,
        "has_played": true,
        "id": 2171354,
        "last_rank": 33332,
        "player_name": "C J",
        "rank": 33524,
        "rank_sort": 33556,
        "total": 2365
      },
      {
        "club_badge_src": "https://fantasy.premierleague.com/gcs/plfpl-production-adobe-approved/plfpl-production/369486/7b16febf-2895-4765-b9b1-9104d482a942.png",
        "entry": 369486,
        "entry_name": "Palmer Of My Hand \u270b\ufe0f",
        "event_total": 57,
        "has_played": true,
        "id": 2472421,
        "last_rank": 33483,
        "player_name": "Taffy Chirinda",
        "rank": 33524,
        "rank_sort": 33557,
        "total": 2365
      },
      {
        "club_badge_src": null,
        "entry": 426227,
        "entry_name": "Cunha Believe It",
        "event_total": 63,
        "has_played": true,
        "id": 2857420,
        "last_rank": 35619,
        "player_name": "William Kerns",
        "rank": 33524,
        "rank_sort": 33558,
        "total": 2365
      },
      {
        "club_badge_src": null,
        "entry": 436956,
        "entry_name": "FC11",
        "event_total": 72,
        "has_played": true,
        "id": 2930154,
        "last_rank": 47163,
        "player_name": "Hussain Muaz",
        "rank": 33524,
        "rank_sort": 33559,
        "total": 2365
      },
      {
        "club_badge_src": "https://fantasy.premierleague.com/gcs/plfpl-production-adobe-approved/plfpl-production/448772/49565aa3-ce71-4b6d-ac0c-725b08eb04e0.png",
        "entry": 448772,
        "entry_name": "Bernard's ghost",
        "event_total": 47,
        "has_played": true,
        "id": 3010710,
        "last_rank": 20538,
        "player_name": "Philip Moorhouse",
        "rank": 33524,
        "rank_sort": 33560,
        "total": 2365
      },
      {
        "club_badge_src": null,
        "entry": 487846,
        "entry_name": "\u6599\u5c06blank",
        "event_total": 66,
        "has_played": true,
        "id": 3275086,
        "last_rank": 39246,
        "player_name": "yoga ZZ",
        "rank": 33524,
        "rank_sort": 33561,
        "total": 2365
      },
      {
        "club_badge_src": null,
        "entry": 540105,
        "entry_name": "Altiko",
        "event_total": 62,
        "has_played": true,
        "id": 3635401,
        "last_rank": 29904,
        "player_name": "Altay Omarov",
        "rank": 33524,
        "rank_sort": 33562,
        "total": 2365
      },
      {
        "club_badge_src": null,
        "entry": 551821,
        "entry_name": "The Tom@Joe Show",
        "event_total": 73,
        "has_played": true,
        "id": 3714219,
        "last_rank": 55514,
        "player_name": "Tomo Stokes",
        "rank": 33524,
        "rank_sort": 33563,
        "total": 2365
      },
      {
        "club_badge_src": "https://fantasy.premierleague.com/gcs/plfpl-production-adobe-approved/plfpl-production/566838/b653d52d-4616-42d7-a4cf-9ab3478abd60.png",
        "entry": 566838,
        "entry_name": "Unbenmeeviable Jeff",
        "event_total": 55,
        "has_played": true,
        "id": 3815106,
        "last_rank": 31236,
        "player_name": "Shay Kearney",
        "rank": 33524,
        "rank_sort": 33564,
        "total": 2365
      },
      {
        "club_badge_src": null,
        "entry": 642984,
        "entry_name": "Scorpions FC",
        "event_total": 54,
        "has_played": true,
        "id": 4345468,
        "last_rank": 30191,
        "player_name": "Anup Shreyas Chethan",
        "rank": 33524,
        "rank_sort": 33565,
        "total": 2365
      },
      {
        "club_badge_src": null,
        "entry": 667061,
        "entry_name": "Magic Mainoo",
        "event_total": 63,
        "has_played": true,
        "id": 4510287,
        "last_rank": 35424,
        "player_name": "martin davis",
        "rank": 33524,
        "rank_sort": 33566,
        "total": 2365
      },
      {
        "club_badge_src": null,
        "entry": 682815,
        "entry_name": "Snaken",
        "event_total": 53,
        "has_played": true,
        "id": 4621245,
        "last_rank": 29071,
        "player_name": "Ties Van De Ven",
        "rank": 33524,
        "rank_sort": 33567,
        "total": 2365
      },
      {
        "club_badge_src": null,
        "entry": 713270,
        "entry_name": "Beef Cherki",
        "event_total": 56,
        "has_played": true,
        "id": 4838829,
        "last_rank": 28150,
        "player_name": "George Aylmer",
        "rank": 33524,
        "rank_sort": 33568,
        "total": 2365
      },
      {
        "club_badge_src": "https://fantasy.premierleague.com/gcs/plfpl-production-adobe-approved/plfpl-production/715199/78604b6f-8d69-4a6b-ba19-afbed6782051.png",
        "entry": 715199,
        "entry_name": "Change Name",
        "event_total": 40,
        "has_played": true,
        "id": 4852278,
        "last_rank": 18377,
        "player_name": "Isaac Stemson",
        "rank": 33524,
        "rank_sort": 33569,
        "total": 2365
      },
      {
        "club_badge_src": null,
        "entry": 742543,
        "entry_name": "alisson wonderland",
        "event_total": 43,
        "has_played": true,
        "id": 5050700,
        "last_rank": 17718,
        "player_name": "Saahil Noor",
        "rank": 33524,
        "rank_sort": 33570,
        "total": 2365
      },
      {
        "club_badge_src": null,
        "entry": 786046,
        "entry_name": "Gift of the Gabriel",
        "event_total": 39,
        "has_played": true,
        "id": 5372016,
        "last_rank": 17802,
        "player_name": "Kian Leggett",
        "rank": 33524,
        "rank_sort": 33571,
        "total": 2365
      },
      {
        "club_badge_src": null,
        "entry": 798410,
        "entry_name": "A-squad",
        "event_total": 64,
        "has_played": true,
        "id": 5464759,
        "last_rank": 36831,
        "player_name": "Pablo Suarez",
        "rank": 33524,
        "rank_sort": 33572,
        "total": 2365
      },
      {
        "club_badge_src": "https://fantasy.premierleague.com/gcs/plfpl-production-adobe-approved/plfpl-production/832811/e1c765c9-5d5e-41e1-8c79-b333194e2030.png",
        "entry": 832811,
        "entry_name": "The SPECIAL One",
        "event_total": 67,
        "has_played": true,
        "id": 5704411,
        "last_rank": 45714,
        "player_name": "Osama Salama",
        "rank": 33524,
        "rank_sort": 33573,
        "total": 2365
      },
      {
        "club_badge_src": null,
        "entry": 843328,
        "entry_name": "Jarrod Blowin\u2019",
        "event_total": 57,
        "has_played": true,
        "id": 5778199,
        "last_rank": 29071,
        "player_name": "Ryan Sternbergs",
        "rank": 33524,
        "rank_sort": 33574,
        "total": 2365
      },
      {
        "club_badge_src": null,
        "entry": 846373,
        "entry_name": "RedNosedReijnders",
        "event_total": 60,
        "has_played": true,
        "id": 5799152,
        "last_rank": 37058,
        "player_name": "Se\u00e1n Marron",
        "rank": 33524,
        "rank_sort": 33575,
        "total": 2365
      },
      {
        "club_badge_src": null,
        "entry": 871806,
        "entry_name": "Ctrl+Alt+De Ligt\ufffd",
        "event_total": 66,
        "has_played": true,
        "id": 5977006,
        "last_rank": 39246,
        "player_name": "Jorges-Dijk in Dias",
        "rank": 33524,
        "rank_sort": 33576,
        "total": 2365
      },
      {
        "club_badge_src": null,
        "entry": 902294,
        "entry_name": "Mackem Maestro",
        "event_total": 68,
        "has_played": true,
        "id": 6199784,
        "last_rank": 47417,
        "player_name": "Iain Dawson",
        "rank": 33524,
        "rank_sort": 33577,
        "total": 2365
      },
      {
        "club_badge_src": null,
        "entry": 964785,
        "entry_name": "Steel\u2019s United",
        "event_total": 69,
        "has_played": true,
        "id": 6649067,
        "last_rank": 49078,
        "player_name": "Philip Steel",
        "rank": 33524,
        "rank_sort": 33578,
        "total": 2365
      },
      {
        "club_badge_src": null,
        "entry": 976317,
        "entry_name": "Rock and Roll Sarr",
        "event_total": 33,
        "has_played": true,
        "id": 6730609,
        "last_rank": 14102,
        "player_name": "Liam Flaherty",
        "rank": 33524,
        "rank_sort": 33579,
        "total": 2365
      },
      {
        "club_badge_src": "https://fantasy.premierleague.com/gcs/plfpl-production-adobe-approved/plfpl-production/977950/27410719-b7d6-4fa8-8fe5-224ec019dbb1.png",
        "entry": 977950,
        "entry_name": "Wirtz Nightmare",
        "event_total": 58,
        "has_played": true,
        "id": 6741992,
        "last_rank": 34578,
        "player_name": "Jordan Wallwork",
        "rank": 33524,
        "rank_sort": 33580,
        "total": 2365
      },
      {
        "club_badge_src": "https://fantasy.premierleague.com/gcs/plfpl-production-adobe-approved/plfpl-production/1023870/1390088f-7b20-4c81-85e2-5d68edc575a7.png",
        "entry": 1023870,
        "entry_name": "Manbeumo United",
        "event_total": 41,
        "has_played": true,
        "id": 7083716,
        "last_rank": 19103,
        "player_name": "Julian Peters",
        "rank": 33524,
        "rank_sort": 33581,
        "total": 2365
      },
      {
        "club_badge_src": "https://fantasy.premierleague.com/gcs/plfpl-production-adobe-approved/plfpl-production/1178781/451f3a66-6db1-4074-8675-24f54ce3e204.png",
        "entry": 1178781,
        "entry_name": "Noah, Lucas & Kai FC",
        "event_total": 68,
        "has_played": true,
        "id": 8178936,
        "last_rank": 47596,
        "player_name": "Damien Sorhaindo",
        "rank": 33524,
        "rank_sort": 33582,
        "total": 2365
      },
      {
        "club_badge_src": null,
        "entry": 1228100,
        "entry_name": "Kinder Mbeumo",
        "event_total": 66,
        "has_played": true,
        "id": 8527508,
        "last_rank": 39023,
        "player_name": "Alex Crawford",
        "rank": 33524,
        "rank_sort": 33583,
        "total": 2365
      },
      {
        "club_badge_src": null,
        "entry": 1353666,
        "entry_name": "Second Rate FC",
        "event_total": 61,
        "has_played": true,
        "id": 9410268,
        "last_rank": 33147,
        "player_name": "David Alexander",
        "rank": 33524,
        "rank_sort": 33584,
        "total": 2365
      },
      {
        "club_badge_src": null,
        "entry": 1374828,
        "entry_name": "u\u028dop \u01ddp\u1d09sdn",
        "event_total": 65,
        "has_played": true,
        "id": 9556961,
        "last_rank": 38016,
        "player_name": "Abood Ahmed",
        "rank": 33524,
        "rank_sort": 33585,
        "total": 2365
      },
      {
        "club_badge_src": "https://fantasy.premierleague.com/gcs/plfpl-production-adobe-approved/plfpl-production/1389745/5d123918-d446-48da-b5dc-3965e19c0a2a.png",
        "entry": 1389745,
        "entry_name": "Deadly G",
        "event_total": 67,
        "has_played": true,
        "id": 9667024,
        "last_rank": 46106,
        "player_name": "Gary Phillips",
        "rank": 33524,
        "rank_sort": 33586,
        "total": 2365
      },
      {
        "club_badge_src": null,
        "entry": 1441346,
        "entry_name": "Under my Cucurella",
        "event_total": 65,
        "has_played": true,
        "id": 10043679,
        "last_rank": 33147,
        "player_name": "Andy Bretherton",
        "rank": 33524,
        "rank_sort": 33587,
        "total": 2365
      },
      {
        "club_badge_src": null,
        "entry": 1470379,
        "entry_name": "3peat",
        "event_total": 66,
        "has_played": true,
        "id": 10249418,
        "last_rank": 44672,
        "player_name": "Saad Akram",
        "rank": 33524,
        "rank_sort": 33588,
        "total": 2365
      },
      {
        "club_badge_src": null,
        "entry": 1472516,
        "entry_name": "JediCole",
        "event_total": 59,
        "has_played": true,
        "id": 10264465,
        "last_rank": 30957,
        "player_name": "Cole Fernandes",
        "rank": 33524,
        "rank_sort": 33589,
        "total": 2365
      },
      {
        "club_badge_src": null,
        "entry": 1487435,
        "entry_name": "Brock Solid",
        "event_total": 55,
        "has_played": true,
        "id": 10372534,
        "last_rank": 26827,
        "player_name": "Matt Brocklehurst",
        "rank": 33524,
        "rank_sort": 33590,
        "total": 2365
      },
      {
        "club_badge_src": null,
        "entry": 1564950,
        "entry_name": "Oh Joey Joey!",
        "event_total": 65,
        "has_played": true,
        "id": 10932162,
        "last_rank": 43168,
        "player_name": "sharon holman",
        "rank": 33524,
        "rank_sort": 33591,
        "total": 2365
      },
      {
        "club_badge_src": null,
        "entry": 1737657,
        "entry_name": "That gy\u00f6 > Liams FC",
        "event_total": 71,
        "has_played": true,
        "id": 12190747,
        "last_rank": 51984,
        "player_name": "David Gatford",
        "rank": 33524,
        "rank_sort": 33592,
        "total": 2365
      },
      {
        "club_badge_src": null,
        "entry": 1968117,
        "entry_name": "BackToYoutube",
        "event_total": 58,
        "has_played": true,
        "id": 13889474,
        "last_rank": 34293,
        "player_name": "David Williams",
        "rank": 33524,
        "rank_sort": 33593,
        "total": 2365
      },
      {
        "club_badge_src": null,
        "entry": 2139850,
        "entry_name": "Retirement Club Vets",
        "event_total": 56,
        "has_played": true,
        "id": 15207949,
        "last_rank": 32335,
        "player_name": "Paul Hackeson",
        "rank": 33524,
        "rank_sort": 33594,
        "total": 2365
      },
      {
        "club_badge_src": null,
        "entry": 2313186,
        "entry_name": "Uzz Buzzs 11",
        "event_total": 61,
        "has_played": true,
        "id": 16500772,
        "last_rank": 33332,
        "player_name": "Ryan Boyle",
        "rank": 33524,
        "rank_sort": 33595,
        "total": 2365
      },
      {
        "club_badge_src": null,
        "entry": 2385103,
        "entry_name": "wanonwan",
        "event_total": 47,
        "has_played": true,
        "id": 17032947,
        "last_rank": 23748,
        "player_name": "Ridhwan Wan",
        "rank": 33524,
        "rank_sort": 33596,
        "total": 2365
      },
      {
        "club_badge_src": null,
        "entry": 2455992,
        "entry_name": "Dinge Wan Tah Wynne",
        "event_total": 64,
        "has_played": true,
        "id": 17566726,
        "last_rank": 41967,
        "player_name": "Aiden Wren",
        "rank": 33524,
        "rank_sort": 33597,
        "total": 2365
      },
      {
        "club_badge_src": null,
        "entry": 2572523,
        "entry_name": "mentre fpl brucia",
        "event_total": 54,
        "has_played": true,
        "id": 18459707,
        "last_rank": 26230,
        "player_name": "Juliusz Kr\u00f3l",
        "rank": 33524,
        "rank_sort": 33598,
        "total": 2365
      },
      {
        "club_badge_src": null,
        "entry": 2626491,
        "entry_name": "t'Robin Koch",
        "event_total": 64,
        "has_played": true,
        "id": 18873731,
        "last_rank": 41967,
        "player_name": "Robert Sutherland",
        "rank": 33524,
        "rank_sort": 33599,
        "total": 2365
      },
      {
        "club_badge_src": "https://fantasy.premierleague.com/gcs/plfpl-production-adobe-approved/plfpl-production/2644700/1fcd11ce-a927-40cb-81b8-b2a490caf6ed.png",
        "entry": 2644700,
        "entry_name": "Ekitiktok",
        "event_total": 57,
        "has_played": true,
        "id": 19008786,
        "last_rank": 25172,
        "player_name": "Henry Kwok",
        "rank": 33524,
        "rank_sort": 33600,
        "total": 2365
      }
    ]
  }
}