{
  "last_updated_data": "2026-05-24T23:28:17Z",
  "league": {
    "admin_entry": null,
    "closed": false,
    "code_privacy": "p",
    "created": "2025-07-20T23:14:33.933835Z",
    "cup_league": 2815434,
    "has_cup": true,
    "id": 314,
    "league_type": "s",
    "max_entries": null,
    "name": "Overall",
    "rank": null,
    "scoring": "c",
    "start_event": 1
  },
  "new_entries": {
    "has_next": false,
    "page": 1,
    "results": []
  },
  "standings": {
    "has_next": true,
    "page": 1639,
    "results": [
      {
        "club_badge_src": null,
        "entry": 2563490,
        "entry_name": "Konsanent Pls Carol",
        "event_total": 37,
        "has_played": true,
        "id": 18386928,
        "last_rank": 46839,
        "player_name": "Samuel Workman",
        "rank": 81843,
        "rank_sort": 81901,
        "total": 2334
      },
      {
        "club_badge_src": null,
        "entry": 2694122,
        "entry_name": "Gubb Club",
        "event_total": 59,
        "has_played": true,
        "id": 19379215,
        "last_rank": 79027,
        "player_name": "Leo Gubbay",
        "rank": 81843,
        "rank_sort": 81902,
        "total": 2334
      },
      {
        "club_badge_src": null,
        "entry": 2706841,
        "entry_name": "tayem fc",
        "event_total": 78,
        "has_played": true,
        "id": 19474496,
        "last_rank": 142113,
        "player_name": "TAYM Mohamed",
        "rank": 81843,
        "rank_sort": 81903,
        "total": 2334
      },
      {
        "club_badge_src": null,
        "entry": 2913867,
        "entry_name": "Bobalina",
        "event_total": 49,
        "has_played": true,
        "id": 21357766,
        "last_rank": 66738,
        "player_name": "Casey Payne",
        "rank": 81843,
        "rank_sort": 81904,
        "total": 2334
      },
      {
        "club_badge_src": null,
        "entry": 2915743,
        "entry_name": "Maradamen",
        "event_total": 73,
        "has_played": true,
        "id": 21371858,
        "last_rank": 125869,
        "player_name": "Kristof Damen",
        "rank": 81843,
        "rank_sort": 81905,
        "total": 2334
      },
      {
        "club_badge_src": null,
        "entry": 3030581,
        "entry_name": "FCSEMEDO",
        "event_total": 59,
        "has_played": true,
        "id": 22300529,
        "last_rank": 88594,
        "player_name": "Nelson Semedo",
        "rank": 81843,
        "rank_sort": 81906,
        "total": 2334
      },
      {
        "club_badge_src": null,
        "entry": 3126778,
        "entry_name": "Hugo's Boss",
        "event_total": 64,
        "has_played": true,
        "id": 23076387,
        "last_rank": 100572,
        "player_name": "Russ Hatton",
        "rank": 81843,
        "rank_sort": 81907,
        "total": 2334
      },
      {
        "club_badge_src": null,
        "entry": 3148334,
        "entry_name": "hereshogg...",
        "event_total": 41,
        "has_played": true,
        "id": 23247188,
        "last_rank": 53023,
        "player_name": "Omer Katz",
        "rank": 81843,
        "rank_sort": 81908,
        "total": 2334
      },
      {
        "club_badge_src": null,
        "entry": 3151619,
        "entry_name": "FC Modi",
        "event_total": 49,
        "has_played": true,
        "id": 23274856,
        "last_rank": 66848,
        "player_name": "Aditya M",
        "rank": 81843,
        "rank_sort": 81909,
        "total": 2334
      },
      {
        "club_badge_src": null,
        "entry": 3154724,
        "entry_name": "Neil Before Zod",
        "event_total": 52,
        "has_played": true,
        "id": 23299521,
        "last_rank": 72702,
        "player_name": "Neil Webster",
        "rank": 81843,
        "rank_sort": 81910,
        "total": 2334
      },
      {
        "club_badge_src": null,
        "entry": 3168280,
        "entry_name": "Cunha Mateta",
        "event_total": 70,
        "has_played": true,
        "id": 23407569,
        "last_rank": 117112,
        "player_name": "Evan Osborne",
        "rank": 81843,
        "rank_sort": 81911,
        "total": 2334
      },
      {
        "club_badge_src": null,
        "entry": 3193654,
        "entry_name": "Burneston Whites",
        "event_total": 59,
        "has_played": true,
        "id": 23604015,
        "last_rank": 88348,
        "player_name": "Tony Nelson",
        "rank": 81843,
        "rank_sort": 81912,
        "total": 2334
      },
      {
        "club_badge_src": null,
        "entry": 3202378,
        "entry_name": "Lads on Toure",
        "event_total": 59,
        "has_played": true,
        "id": 23673250,
        "last_rank": 88249,
        "player_name": "Joe Wilkinson",
        "rank": 81843,
        "rank_sort": 81913,
        "total": 2334
      },
      {
        "club_badge_src": null,
        "entry": 3224478,
        "entry_name": "Spence&Spencibility",
        "event_total": 60,
        "has_played": true,
        "id": 23845368,
        "last_rank": 91006,
        "player_name": "Concrete 403",
        "rank": 81843,
        "rank_sort": 81914,
        "total": 2334
      },
      {
        "club_badge_src": null,
        "entry": 3280944,
        "entry_name": "Upswing",
        "event_total": 58,
        "has_played": true,
        "id": 24284647,
        "last_rank": 86054,
        "player_name": "Andreas Aarra",
        "rank": 81843,
        "rank_sort": 81915,
        "total": 2334
      },
      {
        "club_badge_src": null,
        "entry": 3310750,
        "entry_name": "\u00a1Livin' Saliba Loca!",
        "event_total": 55,
        "has_played": true,
        "id": 24528487,
        "last_rank": 79079,
        "player_name": "Campbell ODowd",
        "rank": 81843,
        "rank_sort": 81916,
        "total": 2334
      },
      {
        "club_badge_src": "https://fantasy.premierleague.com/gcs/plfpl-production-adobe-approved/plfpl-production/3606662/d961c979-99c0-48db-8049-fec544a49f72.png",
        "entry": 3606662,
        "entry_name": "Party like a Gyok",
        "event_total": 78,
        "has_played": true,
        "id": 26865313,
        "last_rank": 142273,
        "player_name": "Mazen Alawar",
        "rank": 81843,
        "rank_sort": 81917,
        "total": 2334
      },
      {
        "club_badge_src": null,
        "entry": 3628227,
        "entry_name": "Florian Is Wirtz It",
        "event_total": 50,
        "has_played": true,
        "id": 27035990,
        "last_rank": 68748,
        "player_name": "zubher osman",
        "rank": 81843,
        "rank_sort": 81918,
        "total": 2334
      },
      {
        "club_badge_src": null,
        "entry": 3767475,
        "entry_name": "Ekitikka Mo Salah",
        "event_total": 37,
        "has_played": true,
        "id": 28130011,
        "last_rank": 46839,
        "player_name": "Nabil Schwarzwalder",
        "rank": 81843,
        "rank_sort": 81919,
        "total": 2334
      },
      {
        "club_badge_src": null,
        "entry": 3920725,
        "entry_name": "Kinder Mbeumo",
        "event_total": 54,
        "has_played": true,
        "id": 29482510,
        "last_rank": 77258,
        "player_name": "Prem Markowski",
        "rank": 81843,
        "rank_sort": 81920,
        "total": 2334
      },
      {
        "club_badge_src": null,
        "entry": 3969274,
        "entry_name": "batzithebuilder",
        "event_total": 63,
        "has_played": true,
        "id": 29869081,
        "last_rank": 98011,
        "player_name": "Zlatin Stankov",
        "rank": 81843,
        "rank_sort": 81921,
        "total": 2334
      },
      {
        "club_badge_src": null,
        "entry": 4214656,
        "entry_name": "Hatate Scone",
        "event_total": 88,
        "has_played": true,
        "id": 31915640,
        "last_rank": 178285,
        "player_name": "Ollie Campbell",
        "rank": 81843,
        "rank_sort": 81922,
        "total": 2334
      },
      {
        "club_badge_src": null,
        "entry": 4232582,
        "entry_name": "The Surplus",
        "event_total": 68,
        "has_played": true,
        "id": 32071601,
        "last_rank": 111669,
        "player_name": "Aled Griffiths",
        "rank": 81843,
        "rank_sort": 81923,
        "total": 2334
      },
      {
        "club_badge_src": null,
        "entry": 4249523,
        "entry_name": "Morgan Snubs Spurs",
        "event_total": 24,
        "has_played": true,
        "id": 32213090,
        "last_rank": 30600,
        "player_name": "Jason Andrews",
        "rank": 81843,
        "rank_sort": 81924,
        "total": 2334
      },
      {
        "club_badge_src": null,
        "entry": 4265608,
        "entry_name": "Rash Decisions",
        "event_total": 62,
        "has_played": true,
        "id": 32344260,
        "last_rank": 85932,
        "player_name": "Ewan North",
        "rank": 81843,
        "rank_sort": 81925,
        "total": 2334
      },
      {
        "club_badge_src": null,
        "entry": 4334801,
        "entry_name": "Saudi Mags",
        "event_total": 63,
        "has_played": true,
        "id": 32909572,
        "last_rank": 98183,
        "player_name": "Christopher Peacock",
        "rank": 81843,
        "rank_sort": 81926,
        "total": 2334
      },
      {
        "club_badge_src": null,
        "entry": 4377474,
        "entry_name": "Larsinho",
        "event_total": 67,
        "has_played": true,
        "id": 33263038,
        "last_rank": 108452,
        "player_name": "Lars Skovgaard Laursen",
        "rank": 81843,
        "rank_sort": 81927,
        "total": 2334
      },
      {
        "club_badge_src": null,
        "entry": 4438333,
        "entry_name": "y este chad?",
        "event_total": 72,
        "has_played": true,
        "id": 33795130,
        "last_rank": 123422,
        "player_name": "Alfonso Marques",
        "rank": 81843,
        "rank_sort": 81928,
        "total": 2334
      },
      {
        "club_badge_src": null,
        "entry": 4440256,
        "entry_name": "Merlin the magician",
        "event_total": 60,
        "has_played": true,
        "id": 33810971,
        "last_rank": 90565,
        "player_name": "Sam Dymond",
        "rank": 81843,
        "rank_sort": 81929,
        "total": 2334
      },
      {
        "club_badge_src": null,
        "entry": 4519709,
        "entry_name": "Leitrimjohn",
        "event_total": 57,
        "has_played": true,
        "id": 34468214,
        "last_rank": 83698,
        "player_name": "John McHugh",
        "rank": 81843,
        "rank_sort": 81930,
        "total": 2334
      },
      {
        "club_badge_src": "https://fantasy.premierleague.com/gcs/plfpl-production-adobe-approved/plfpl-production/4576313/52d06169-2a2d-4552-9ac2-a853918f5d48.png",
        "entry": 4576313,
        "entry_name": "Spartak Kent",
        "event_total": 42,
        "has_played": true,
        "id": 34931361,
        "last_rank": 54667,
        "player_name": "Andrew Kent",
        "rank": 81843,
        "rank_sort": 81931,
        "total": 2334
      },
      {
        "club_badge_src": null,
        "entry": 4582865,
        "entry_name": "Team O'neil",
        "event_total": 62,
        "has_played": true,
        "id": 34987090,
        "last_rank": 95890,
        "player_name": "Martin Hansson",
        "rank": 81843,
        "rank_sort": 81932,
        "total": 2334
      },
      {
        "club_badge_src": null,
        "entry": 4619321,
        "entry_name": "Martel FC",
        "event_total": 47,
        "has_played": true,
        "id": 35307318,
        "last_rank": 63201,
        "player_name": "Olufemi Obe",
        "rank": 81843,
        "rank_sort": 81933,
        "total": 2334
      },
      {
        "club_badge_src": null,
        "entry": 4822184,
        "entry_name": "Boehly\u2019s Bankrupt XI",
        "event_total": 41,
        "has_played": true,
        "id": 37134690,
        "last_rank": 53023,
        "player_name": "Kushal Naik",
        "rank": 81843,
        "rank_sort": 81934,
        "total": 2334
      },
      {
        "club_badge_src": null,
        "entry": 4848766,
        "entry_name": "OFFSIDE",
        "event_total": 55,
        "has_played": true,
        "id": 37356308,
        "last_rank": 79079,
        "player_name": "Stefan L",
        "rank": 81843,
        "rank_sort": 81935,
        "total": 2334
      },
      {
        "club_badge_src": null,
        "entry": 4919244,
        "entry_name": "Sporting Abeergut",
        "event_total": 67,
        "has_played": true,
        "id": 37942707,
        "last_rank": 108689,
        "player_name": "Matt O'Riordan",
        "rank": 81843,
        "rank_sort": 81936,
        "total": 2334
      },
      {
        "club_badge_src": "https://fantasy.premierleague.com/gcs/plfpl-production-adobe-approved/plfpl-production/5053090/8c3f7f83-d839-479b-88be-f1b583e080bb.png",
        "entry": 5053090,
        "entry_name": "Wirtz up, Reds?",
        "event_total": 72,
        "has_played": true,
        "id": 39042719,
        "last_rank": 111270,
        "player_name": "Gajendra Khatri",
        "rank": 81843,
        "rank_sort": 81937,
        "total": 2334
      },
      {
        "club_badge_src": null,
        "entry": 5138055,
        "entry_name": "Panic! at the Sesko",
        "event_total": 61,
        "has_played": true,
        "id": 39743445,
        "last_rank": 93443,
        "player_name": "Freddie Newman",
        "rank": 81843,
        "rank_sort": 81938,
        "total": 2334
      },
      {
        "club_badge_src": null,
        "entry": 5165478,
        "entry_name": "It doesn't Mata",
        "event_total": 78,
        "has_played": true,
        "id": 39974905,
        "last_rank": 142273,
        "player_name": "Matthew Dibbo",
        "rank": 81843,
        "rank_sort": 81939,
        "total": 2334
      },
      {
        "club_badge_src": null,
        "entry": 5321653,
        "entry_name": "Edwards 11",
        "event_total": 65,
        "has_played": true,
        "id": 41253747,
        "last_rank": 103526,
        "player_name": "Jordan Edwards",
        "rank": 81843,
        "rank_sort": 81940,
        "total": 2334
      },
      {
        "club_badge_src": null,
        "entry": 5447345,
        "entry_name": "#FreePartey",
        "event_total": 48,
        "has_played": true,
        "id": 42386054,
        "last_rank": 64777,
        "player_name": "Daniel Cagnola",
        "rank": 81843,
        "rank_sort": 81941,
        "total": 2334
      },
      {
        "club_badge_src": null,
        "entry": 5487787,
        "entry_name": "Virtual Villains",
        "event_total": 61,
        "has_played": true,
        "id": 42737744,
        "last_rank": 93186,
        "player_name": "Kris Davis",
        "rank": 81843,
        "rank_sort": 81942,
        "total": 2334
      },
      {
        "club_badge_src": null,
        "entry": 5529247,
        "entry_name": "Susu Almond",
        "event_total": 41,
        "has_played": true,
        "id": 43128700,
        "last_rank": 52853,
        "player_name": "Kemal Atthariq",
        "rank": 81843,
        "rank_sort": 81943,
        "total": 2334
      },
      {
        "club_badge_src": null,
        "entry": 5557557,
        "entry_name": "SuperSkillFC",
        "event_total": 46,
        "has_played": true,
        "id": 43383171,
        "last_rank": 61606,
        "player_name": "Tom Scales",
        "rank": 81843,
        "rank_sort": 81944,
        "total": 2334
      },
      {
        "club_badge_src": null,
        "entry": 5634422,
        "entry_name": "Blades FC",
        "event_total": 65,
        "has_played": true,
        "id": 44056555,
        "last_rank": 103054,
        "player_name": "Jonathan Starbrook",
        "rank": 81843,
        "rank_sort": 81945,
        "total": 2334
      },
      {
        "club_badge_src": "https://fantasy.premierleague.com/gcs/plfpl-production-adobe-approved/plfpl-production/5690308/80751831-6f55-4ee3-ac6b-e662263102e5.png",
        "entry": 5690308,
        "entry_name": "Cillian Dollar Baby",
        "event_total": 50,
        "has_played": true,
        "id": 44544759,
        "last_rank": 68748,
        "player_name": "Cillian Milne",
        "rank": 81843,
        "rank_sort": 81946,
        "total": 2334
      },
      {
        "club_badge_src": null,
        "entry": 5720407,
        "entry_name": "Yoro Wissa Harry",
        "event_total": 53,
        "has_played": true,
        "id": 44806460,
        "last_rank": 74898,
        "player_name": "Tom Stidwill",
        "rank": 81843,
        "rank_sort": 81947,
        "total": 2334
      },
      {
        "club_badge_src": null,
        "entry": 5786208,
        "entry_name": "Gyok Tuah",
        "event_total": 58,
        "has_played": true,
        "id": 45376326,
        "last_rank": 85932,
        "player_name": "Herbie Parry",
        "rank": 81843,
        "rank_sort": 81948,
        "total": 2334
      },
      {
        "club_badge_src": null,
        "entry": 5815713,
        "entry_name": "Beto Call Saul",
        "event_total": 60,
        "has_played": true,
        "id": 45635359,
        "last_rank": 90746,
        "player_name": "Alex Doran",
        "rank": 81843,
        "rank_sort": 81949,
        "total": 2334
      },
      {
        "club_badge_src": "https://fantasy.premierleague.com/gcs/plfpl-production-adobe-approved/plfpl-production/5929180/1ce4406c-89ec-4bd9-ba19-db43cedb9a11.png",
        "entry": 5929180,
        "entry_name": "Ep IV - A New Pope",
        "event_total": 64,
        "has_played": true,
        "id": 46610664,
        "last_rank": 100700,
        "player_name": "matthew foster",
        "rank": 81843,
        "rank_sort": 81950,
        "total": 2334
      }
    ]
  }
}