{
  "last_updated_data": "2026-05-24T23:28:17Z",
  "league": {
    "admin_entry": null,
    "closed": false,
    "code_privacy": "p",
    "created": "2025-07-20T23:14:33.933835Z",
    "cup_league": 2815434,
    "has_cup": true,
    "id": 314,
    "league_type": "s",
    "max_entries": null,
    "name": "Overall",
    "rank": null,
    "scoring": "c",
    "start_event": 1
  },
  "new_entries": {
    "has_next": false,
    "page": 1,
    "results": []
  },
  "standings": {
    "has_next": true,
    "page": 94,
    "results": [
      {
        "club_badge_src": null,
        "entry": 4240944,
        "entry_name": "FC Elmhill",
        "event_total": 55,
        "has_played": true,
        "id": 32141892,
        "last_rank": 3866,
        "player_name": "Hans Ivar Almaas",
        "rank": 4647,
        "rank_sort": 4651,
        "total": 2416
      },
      {
        "club_badge_src": null,
        "entry": 4343444,
        "entry_name": "Surviving M Skelly",
        "event_total": 66,
        "has_played": true,
        "id": 32979965,
        "last_rank": 6409,
        "player_name": "keani fairbanks",
        "rank": 4647,
        "rank_sort": 4652,
        "total": 2416
      },
      {
        "club_badge_src": null,
        "entry": 4514033,
        "entry_name": "Sesko 2.0",
        "event_total": 54,
        "has_played": true,
        "id": 34421548,
        "last_rank": 3721,
        "player_name": "Noel O Riordan",
        "rank": 4647,
        "rank_sort": 4653,
        "total": 2416
      },
      {
        "club_badge_src": null,
        "entry": 4539698,
        "entry_name": "ciPRO",
        "event_total": 68,
        "has_played": true,
        "id": 34633247,
        "last_rank": 6994,
        "player_name": "Marko Cipranic",
        "rank": 4647,
        "rank_sort": 4654,
        "total": 2416
      },
      {
        "club_badge_src": "https://fantasy.premierleague.com/gcs/plfpl-production-adobe-approved/plfpl-production/4705129/2dc1b8a6-68cd-4509-b3f0-d15b42e65d04.png",
        "entry": 4705129,
        "entry_name": "Straightupmixavi",
        "event_total": 68,
        "has_played": true,
        "id": 36073597,
        "last_rank": 6991,
        "player_name": "Asher Mckeown",
        "rank": 4647,
        "rank_sort": 4655,
        "total": 2416
      },
      {
        "club_badge_src": null,
        "entry": 5757880,
        "entry_name": "oli",
        "event_total": 77,
        "has_played": true,
        "id": 45134195,
        "last_rank": 10247,
        "player_name": "Oli Lawson",
        "rank": 4647,
        "rank_sort": 4656,
        "total": 2416
      },
      {
        "club_badge_src": null,
        "entry": 7015703,
        "entry_name": "Face Palmer",
        "event_total": 59,
        "has_played": true,
        "id": 56347772,
        "last_rank": 4704,
        "player_name": "Aayush Chudgar",
        "rank": 4647,
        "rank_sort": 4657,
        "total": 2416
      },
      {
        "club_badge_src": "https://fantasy.premierleague.com/gcs/plfpl-production-adobe-approved/plfpl-production/638/b1205e7a-f270-455a-84e4-918da76be3df.png",
        "entry": 638,
        "entry_name": "I Baleba Can Fly",
        "event_total": 65,
        "has_played": true,
        "id": 3522,
        "last_rank": 6194,
        "player_name": "Aaron Houston",
        "rank": 4658,
        "rank_sort": 4658,
        "total": 2416
      },
      {
        "club_badge_src": null,
        "entry": 3025,
        "entry_name": "Charli xGx",
        "event_total": 64,
        "has_played": true,
        "id": 17071,
        "last_rank": 5940,
        "player_name": "Elijah Hubbard",
        "rank": 4658,
        "rank_sort": 4659,
        "total": 2416
      },
      {
        "club_badge_src": null,
        "entry": 3417,
        "entry_name": "Le F\u00e9ever Pitch",
        "event_total": 71,
        "has_played": true,
        "id": 19359,
        "last_rank": 7979,
        "player_name": "Mickey Williams",
        "rank": 4658,
        "rank_sort": 4660,
        "total": 2416
      },
      {
        "club_badge_src": "https://fantasy.premierleague.com/gcs/plfpl-production-adobe-approved/plfpl-production/7534/ee25b35a-8862-478a-b1a5-da02eaf9a1ff.png",
        "entry": 7534,
        "entry_name": "Formigine FC",
        "event_total": 79,
        "has_played": true,
        "id": 43438,
        "last_rank": 11150,
        "player_name": "Michael Kenna-Allison",
        "rank": 4658,
        "rank_sort": 4661,
        "total": 2416
      },
      {
        "club_badge_src": null,
        "entry": 7839,
        "entry_name": "Mikey Mooreish",
        "event_total": 61,
        "has_played": true,
        "id": 45250,
        "last_rank": 5173,
        "player_name": "Callum Goldsmith",
        "rank": 4658,
        "rank_sort": 4662,
        "total": 2416
      },
      {
        "club_badge_src": null,
        "entry": 8290,
        "entry_name": "glazrsout",
        "event_total": 60,
        "has_played": true,
        "id": 48109,
        "last_rank": 4954,
        "player_name": "Manas Raghav",
        "rank": 4658,
        "rank_sort": 4663,
        "total": 2416
      },
      {
        "club_badge_src": null,
        "entry": 11214,
        "entry_name": "Hill 16 Salalaaah",
        "event_total": 60,
        "has_played": true,
        "id": 66580,
        "last_rank": 4954,
        "player_name": "Mark Lynch",
        "rank": 4658,
        "rank_sort": 4664,
        "total": 2416
      },
      {
        "club_badge_src": null,
        "entry": 18211,
        "entry_name": "Prindog Millionaires",
        "event_total": 35,
        "has_played": true,
        "id": 113237,
        "last_rank": 1438,
        "player_name": "Liam Prince",
        "rank": 4658,
        "rank_sort": 4665,
        "total": 2416
      },
      {
        "club_badge_src": null,
        "entry": 22141,
        "entry_name": "Team E Mallett",
        "event_total": 68,
        "has_played": true,
        "id": 138991,
        "last_rank": 7014,
        "player_name": "Adam Evans",
        "rank": 4658,
        "rank_sort": 4666,
        "total": 2416
      },
      {
        "club_badge_src": null,
        "entry": 29017,
        "entry_name": "Pjanic at the Disco",
        "event_total": 43,
        "has_played": true,
        "id": 183464,
        "last_rank": 2174,
        "player_name": "George Reilly",
        "rank": 4658,
        "rank_sort": 4667,
        "total": 2416
      },
      {
        "club_badge_src": null,
        "entry": 86142,
        "entry_name": "Jorgen Kaivin",
        "event_total": 54,
        "has_played": true,
        "id": 561281,
        "last_rank": 3721,
        "player_name": "Kalle V\u00e4limaa",
        "rank": 4658,
        "rank_sort": 4668,
        "total": 2416
      },
      {
        "club_badge_src": null,
        "entry": 103204,
        "entry_name": "Tea & Busquets",
        "event_total": 66,
        "has_played": true,
        "id": 673468,
        "last_rank": 6448,
        "player_name": "Jacob Elliot",
        "rank": 4658,
        "rank_sort": 4669,
        "total": 2416
      },
      {
        "club_badge_src": null,
        "entry": 126770,
        "entry_name": "Pass Lacroixssants",
        "event_total": 66,
        "has_played": true,
        "id": 826542,
        "last_rank": 6448,
        "player_name": "Patrick Baga",
        "rank": 4658,
        "rank_sort": 4670,
        "total": 2416
      },
      {
        "club_badge_src": null,
        "entry": 155338,
        "entry_name": "Corn on the Kobbie",
        "event_total": 72,
        "has_played": true,
        "id": 1020867,
        "last_rank": 8339,
        "player_name": "Matt Macklin",
        "rank": 4658,
        "rank_sort": 4671,
        "total": 2416
      },
      {
        "club_badge_src": null,
        "entry": 197836,
        "entry_name": "Glumse BK",
        "event_total": 57,
        "has_played": true,
        "id": 1312770,
        "last_rank": 4257,
        "player_name": "emil klasson",
        "rank": 4658,
        "rank_sort": 4672,
        "total": 2416
      },
      {
        "club_badge_src": "https://fantasy.premierleague.com/gcs/plfpl-production-adobe-approved/plfpl-production/255809/20b8606e-3065-49fd-862d-4ff5f4decd99.png",
        "entry": 255809,
        "entry_name": "WestCoastRangers",
        "event_total": 57,
        "has_played": true,
        "id": 1701461,
        "last_rank": 4303,
        "player_name": "Zach Gentry",
        "rank": 4658,
        "rank_sort": 4673,
        "total": 2416
      },
      {
        "club_badge_src": null,
        "entry": 270169,
        "entry_name": "gro\u00df margins",
        "event_total": 63,
        "has_played": true,
        "id": 1797419,
        "last_rank": 5646,
        "player_name": "sholto mactaggart",
        "rank": 4658,
        "rank_sort": 4674,
        "total": 2416
      },
      {
        "club_badge_src": null,
        "entry": 298809,
        "entry_name": "STEEL 2.0",
        "event_total": 63,
        "has_played": true,
        "id": 1997995,
        "last_rank": 5646,
        "player_name": "Jude Ninson",
        "rank": 4658,
        "rank_sort": 4675,
        "total": 2416
      },
      {
        "club_badge_src": null,
        "entry": 463671,
        "entry_name": "Saka Spuds",
        "event_total": 49,
        "has_played": true,
        "id": 3110134,
        "last_rank": 2952,
        "player_name": "Ben Nicholls",
        "rank": 4658,
        "rank_sort": 4676,
        "total": 2416
      },
      {
        "club_badge_src": "https://fantasy.premierleague.com/gcs/plfpl-production-adobe-approved/plfpl-production/612479/01eeb8a6-27df-423b-b08b-df0c3222ce88.png",
        "entry": 612479,
        "entry_name": "Libbys Laaities",
        "event_total": 68,
        "has_played": true,
        "id": 4138551,
        "last_rank": 7059,
        "player_name": "Elizabeth Lenting",
        "rank": 4658,
        "rank_sort": 4677,
        "total": 2416
      },
      {
        "club_badge_src": null,
        "entry": 641526,
        "entry_name": "Ha'Cunha Mateta",
        "event_total": 51,
        "has_played": true,
        "id": 4335763,
        "last_rank": 3237,
        "player_name": "Connor Buckley",
        "rank": 4658,
        "rank_sort": 4678,
        "total": 2416
      },
      {
        "club_badge_src": null,
        "entry": 658637,
        "entry_name": "Orca88",
        "event_total": 65,
        "has_played": true,
        "id": 4450894,
        "last_rank": 6194,
        "player_name": "ali Mansour",
        "rank": 4658,
        "rank_sort": 4679,
        "total": 2416
      },
      {
        "club_badge_src": "https://fantasy.premierleague.com/gcs/plfpl-production-adobe-approved/plfpl-production/701040/927f8939-9d64-45b5-8d30-9de08e86bf06.png",
        "entry": 701040,
        "entry_name": "Dr.Davtyan",
        "event_total": 62,
        "has_played": true,
        "id": 4749881,
        "last_rank": 5448,
        "player_name": "Abel Davtyan",
        "rank": 4658,
        "rank_sort": 4680,
        "total": 2416
      },
      {
        "club_badge_src": null,
        "entry": 726196,
        "entry_name": "Mocho's pups",
        "event_total": 75,
        "has_played": true,
        "id": 4932865,
        "last_rank": 9484,
        "player_name": "Jos\u00e9 Azevedo",
        "rank": 4658,
        "rank_sort": 4681,
        "total": 2416
      },
      {
        "club_badge_src": null,
        "entry": 728537,
        "entry_name": "Ba Cunha Mateta",
        "event_total": 65,
        "has_played": true,
        "id": 4949765,
        "last_rank": 6166,
        "player_name": "Zak Padmore",
        "rank": 4658,
        "rank_sort": 4682,
        "total": 2416
      },
      {
        "club_badge_src": null,
        "entry": 1012901,
        "entry_name": "Isak about me",
        "event_total": 52,
        "has_played": true,
        "id": 7006925,
        "last_rank": 3408,
        "player_name": "Yinka O",
        "rank": 4658,
        "rank_sort": 4683,
        "total": 2416
      },
      {
        "club_badge_src": null,
        "entry": 1898599,
        "entry_name": "William Evans",
        "event_total": 73,
        "has_played": true,
        "id": 13383270,
        "last_rank": 8758,
        "player_name": "William Evans",
        "rank": 4658,
        "rank_sort": 4684,
        "total": 2416
      },
      {
        "club_badge_src": "https://fantasy.premierleague.com/gcs/plfpl-production-adobe-approved/plfpl-production/1953351/9630900e-e978-4a5d-ae2c-ea23dfa8503a.png",
        "entry": 1953351,
        "entry_name": "letmetellyousomethin",
        "event_total": 49,
        "has_played": true,
        "id": 13779562,
        "last_rank": 3007,
        "player_name": "Anvarov Nodirkhon",
        "rank": 4658,
        "rank_sort": 4685,
        "total": 2416
      },
      {
        "club_badge_src": null,
        "entry": 2501302,
        "entry_name": "Lon-team",
        "event_total": 53,
        "has_played": true,
        "id": 17910567,
        "last_rank": 3520,
        "player_name": "Leon Kli\u015b",
        "rank": 4658,
        "rank_sort": 4686,
        "total": 2416
      },
      {
        "club_badge_src": "https://fantasy.premierleague.com/gcs/plfpl-production-adobe-approved/plfpl-production/2567017/36adb7e8-b5d8-4dcb-b9c8-8894329d81b2.png",
        "entry": 2567017,
        "entry_name": "Scouse Accent",
        "event_total": 43,
        "has_played": true,
        "id": 18414871,
        "last_rank": 2189,
        "player_name": "Beksultan Zhalgas",
        "rank": 4658,
        "rank_sort": 4687,
        "total": 2416
      },
      {
        "club_badge_src": "https://fantasy.premierleague.com/gcs/plfpl-production-adobe-approved/plfpl-production/2951149/8f59cfb5-e3a4-46a0-808b-12ed3d033362.png",
        "entry": 2951149,
        "entry_name": "Kinder Mbeumo",
        "event_total": 66,
        "has_played": true,
        "id": 21673887,
        "last_rank": 6392,
        "player_name": "Ivaylo Gyokov",
        "rank": 4658,
        "rank_sort": 4688,
        "total": 2416
      },
      {
        "club_badge_src": null,
        "entry": 3668820,
        "entry_name": "Y Nada Mas .!",
        "event_total": 55,
        "has_played": true,
        "id": 27361578,
        "last_rank": 3902,
        "player_name": "Ahmed Ejaimi",
        "rank": 4658,
        "rank_sort": 4689,
        "total": 2416
      },
      {
        "club_badge_src": null,
        "entry": 3766799,
        "entry_name": "Toronto Warriors",
        "event_total": 60,
        "has_played": true,
        "id": 28124971,
        "last_rank": 4062,
        "player_name": "Liad Roytfarb",
        "rank": 4658,
        "rank_sort": 4690,
        "total": 2416
      },
      {
        "club_badge_src": null,
        "entry": 4124424,
        "entry_name": "H-Town",
        "event_total": 67,
        "has_played": true,
        "id": 31161556,
        "last_rank": 6703,
        "player_name": "Daniel McGinley",
        "rank": 4658,
        "rank_sort": 4691,
        "total": 2416
      },
      {
        "club_badge_src": null,
        "entry": 4219821,
        "entry_name": "How about Zlat?",
        "event_total": 61,
        "has_played": true,
        "id": 31961397,
        "last_rank": 4270,
        "player_name": "Ryan Goff",
        "rank": 4658,
        "rank_sort": 4692,
        "total": 2416
      },
      {
        "club_badge_src": null,
        "entry": 4419980,
        "entry_name": "Wirtz case scenario",
        "event_total": 60,
        "has_played": true,
        "id": 33628836,
        "last_rank": 4040,
        "player_name": "Callum Edwards",
        "rank": 4658,
        "rank_sort": 4693,
        "total": 2416
      },
      {
        "club_badge_src": null,
        "entry": 5283888,
        "entry_name": "ROKR",
        "event_total": 55,
        "has_played": true,
        "id": 40955980,
        "last_rank": 3902,
        "player_name": "Peter Ho",
        "rank": 4658,
        "rank_sort": 4694,
        "total": 2416
      },
      {
        "club_badge_src": null,
        "entry": 5492789,
        "entry_name": "Haalandaise Sauce",
        "event_total": 42,
        "has_played": true,
        "id": 42782144,
        "last_rank": 2088,
        "player_name": "Nico M",
        "rank": 4658,
        "rank_sort": 4695,
        "total": 2416
      },
      {
        "club_badge_src": null,
        "entry": 5560410,
        "entry_name": "Leeds Leads",
        "event_total": 67,
        "has_played": true,
        "id": 43408544,
        "last_rank": 6703,
        "player_name": "Paul Barnett",
        "rank": 4658,
        "rank_sort": 4696,
        "total": 2416
      },
      {
        "club_badge_src": "https://fantasy.premierleague.com/gcs/plfpl-production-adobe-approved/plfpl-production/5598372/86cbd1dc-bd5b-4d83-a89d-111b76ae7b82.png",
        "entry": 5598372,
        "entry_name": "Corvette CB",
        "event_total": 53,
        "has_played": true,
        "id": 43742203,
        "last_rank": 3562,
        "player_name": "Corvette Jarumon",
        "rank": 4658,
        "rank_sort": 4697,
        "total": 2416
      },
      {
        "club_badge_src": null,
        "entry": 5753867,
        "entry_name": "Nest best",
        "event_total": 56,
        "has_played": true,
        "id": 45100563,
        "last_rank": 4099,
        "player_name": "Lars Kristoffersen",
        "rank": 4658,
        "rank_sort": 4698,
        "total": 2416
      },
      {
        "club_badge_src": null,
        "entry": 5842430,
        "entry_name": "Dan United",
        "event_total": 64,
        "has_played": true,
        "id": 45863331,
        "last_rank": 5904,
        "player_name": "Dan Mee",
        "rank": 4658,
        "rank_sort": 4699,
        "total": 2416
      },
      {
        "club_badge_src": null,
        "entry": 6043439,
        "entry_name": "Nordic Noir",
        "event_total": 48,
        "has_played": true,
        "id": 47682617,
        "last_rank": 2802,
        "player_name": "Ole-Kristian \u00d8ien",
        "rank": 4658,
        "rank_sort": 4700,
        "total": 2416
      }
    ]
  }
}