{
  "last_updated_data": "2026-05-24T23:28:17Z",
  "league": {
    "admin_entry": null,
    "closed": false,
    "code_privacy": "p",
    "created": "2025-07-20T23:14:33.933835Z",
    "cup_league": 2815434,
    "has_cup": true,
    "id": 314,
    "league_type": "s",
    "max_entries": null,
    "name": "Overall",
    "rank": null,
    "scoring": "c",
    "start_event": 1
  },
  "new_entries": {
    "has_next": false,
    "page": 1,
    "results": []
  },
  "standings": {
    "has_next": true,
    "page": 1176,
    "results": [
      {
        "club_badge_src": null,
        "entry": 7315132,
        "entry_name": "Utthan Shrestha",
        "event_total": 36,
        "has_played": true,
        "id": 59218280,
        "last_rank": 30486,
        "player_name": "Utthan Shrestha",
        "rank": 58731,
        "rank_sort": 58751,
        "total": 2346
      },
      {
        "club_badge_src": null,
        "entry": 7846280,
        "entry_name": "Burlo's Boys",
        "event_total": 68,
        "has_played": true,
        "id": 64497244,
        "last_rank": 81244,
        "player_name": "Mitchell Burland",
        "rank": 58731,
        "rank_sort": 58752,
        "total": 2346
      },
      {
        "club_badge_src": null,
        "entry": 8256700,
        "entry_name": "Lade Slackers",
        "event_total": 51,
        "has_played": true,
        "id": 68288721,
        "last_rank": 49607,
        "player_name": "Kenneth R",
        "rank": 58731,
        "rank_sort": 58753,
        "total": 2346
      },
      {
        "club_badge_src": null,
        "entry": 92112,
        "entry_name": "JogarFundz$",
        "event_total": 41,
        "has_played": true,
        "id": 601844,
        "last_rank": 36142,
        "player_name": "Jogar Adamede",
        "rank": 58754,
        "rank_sort": 58754,
        "total": 2346
      },
      {
        "club_badge_src": null,
        "entry": 210523,
        "entry_name": "\u2603\ufe0e",
        "event_total": 58,
        "has_played": true,
        "id": 1400086,
        "last_rank": 61258,
        "player_name": "Tom Jones",
        "rank": 58754,
        "rank_sort": 58755,
        "total": 2346
      },
      {
        "club_badge_src": null,
        "entry": 213299,
        "entry_name": "cobham",
        "event_total": 34,
        "has_played": true,
        "id": 1418895,
        "last_rank": 28517,
        "player_name": "Lawi Bett",
        "rank": 58754,
        "rank_sort": 58756,
        "total": 2346
      },
      {
        "club_badge_src": null,
        "entry": 218256,
        "entry_name": "Lok\u00f8ys feilvalgte",
        "event_total": 55,
        "has_played": true,
        "id": 1451392,
        "last_rank": 56047,
        "player_name": "Robert Lok\u00f8y",
        "rank": 58754,
        "rank_sort": 58757,
        "total": 2346
      },
      {
        "club_badge_src": null,
        "entry": 292549,
        "entry_name": "Blue Lock",
        "event_total": 44,
        "has_played": true,
        "id": 1952144,
        "last_rank": 39874,
        "player_name": "Xuan Che",
        "rank": 58754,
        "rank_sort": 58758,
        "total": 2346
      },
      {
        "club_badge_src": null,
        "entry": 432173,
        "entry_name": "Tickle Me Guglielmo",
        "event_total": 60,
        "has_played": true,
        "id": 2898451,
        "last_rank": 64777,
        "player_name": "Ieuan Woolridge",
        "rank": 58754,
        "rank_sort": 58759,
        "total": 2346
      },
      {
        "club_badge_src": null,
        "entry": 532711,
        "entry_name": "Change Name",
        "event_total": 46,
        "has_played": true,
        "id": 3583753,
        "last_rank": 42506,
        "player_name": "Jai Sian Davis",
        "rank": 58754,
        "rank_sort": 58760,
        "total": 2346
      },
      {
        "club_badge_src": null,
        "entry": 561822,
        "entry_name": "The Mulumbians",
        "event_total": 49,
        "has_played": true,
        "id": 3781668,
        "last_rank": 46591,
        "player_name": "Dan Meredith",
        "rank": 58754,
        "rank_sort": 58761,
        "total": 2346
      },
      {
        "club_badge_src": null,
        "entry": 578778,
        "entry_name": "Kinder Mbeumo",
        "event_total": 45,
        "has_played": true,
        "id": 3894358,
        "last_rank": 41101,
        "player_name": "Luke Partridge",
        "rank": 58754,
        "rank_sort": 58762,
        "total": 2346
      },
      {
        "club_badge_src": "https://fantasy.premierleague.com/gcs/plfpl-production-adobe-approved/plfpl-production/651165/4da71914-9ea3-49db-aa9e-8e3d9ea7778b.png",
        "entry": 651165,
        "entry_name": "Forza Juve",
        "event_total": 53,
        "has_played": true,
        "id": 4400683,
        "last_rank": 52853,
        "player_name": "Aleksandar Lazarevic",
        "rank": 58754,
        "rank_sort": 58763,
        "total": 2346
      },
      {
        "club_badge_src": null,
        "entry": 675701,
        "entry_name": "Dexter Knows Ball XI",
        "event_total": 59,
        "has_played": true,
        "id": 4571439,
        "last_rank": 56041,
        "player_name": "Dexter Salt",
        "rank": 58754,
        "rank_sort": 58764,
        "total": 2346
      },
      {
        "club_badge_src": null,
        "entry": 955234,
        "entry_name": "An Utd",
        "event_total": 57,
        "has_played": true,
        "id": 6581679,
        "last_rank": 59475,
        "player_name": "Anish Patel",
        "rank": 58754,
        "rank_sort": 58765,
        "total": 2346
      },
      {
        "club_badge_src": null,
        "entry": 1203280,
        "entry_name": "Cunha Matata",
        "event_total": 46,
        "has_played": true,
        "id": 8350278,
        "last_rank": 42506,
        "player_name": "Tamale Trevor",
        "rank": 58754,
        "rank_sort": 58766,
        "total": 2346
      },
      {
        "club_badge_src": null,
        "entry": 1307645,
        "entry_name": "The Points Battalion",
        "event_total": 50,
        "has_played": true,
        "id": 9088961,
        "last_rank": 48197,
        "player_name": "M\ud835\udc0eH\ud835\udc00M\ud835\udc04D S\ud835\udc00IF Alden\ud83c\uddf8\ud83c\udde9",
        "rank": 58754,
        "rank_sort": 58767,
        "total": 2346
      },
      {
        "club_badge_src": null,
        "entry": 1897948,
        "entry_name": "Pink Pony Cold",
        "event_total": 61,
        "has_played": true,
        "id": 13378341,
        "last_rank": 66738,
        "player_name": "Akeem Johnson",
        "rank": 58754,
        "rank_sort": 58768,
        "total": 2346
      },
      {
        "club_badge_src": null,
        "entry": 2391442,
        "entry_name": "RiceEverythingNice",
        "event_total": 57,
        "has_played": true,
        "id": 17082814,
        "last_rank": 59535,
        "player_name": "Noa Hjorth",
        "rank": 58754,
        "rank_sort": 58769,
        "total": 2346
      },
      {
        "club_badge_src": null,
        "entry": 2441924,
        "entry_name": "Amorim a nightmare",
        "event_total": 71,
        "has_played": true,
        "id": 17464031,
        "last_rank": 88348,
        "player_name": "Paul Gracen",
        "rank": 58754,
        "rank_sort": 58770,
        "total": 2346
      },
      {
        "club_badge_src": null,
        "entry": 2605156,
        "entry_name": "Guennichi Ya Dawla",
        "event_total": 60,
        "has_played": true,
        "id": 18713161,
        "last_rank": 64777,
        "player_name": "Haythem Guennichi",
        "rank": 58754,
        "rank_sort": 58771,
        "total": 2346
      },
      {
        "club_badge_src": null,
        "entry": 2613783,
        "entry_name": "Fivest Team",
        "event_total": 56,
        "has_played": true,
        "id": 18779964,
        "last_rank": 57857,
        "player_name": "Fay\u00e7al Benalioua",
        "rank": 58754,
        "rank_sort": 58772,
        "total": 2346
      },
      {
        "club_badge_src": null,
        "entry": 2812990,
        "entry_name": "Viktor Gooner'es",
        "event_total": 34,
        "has_played": true,
        "id": 20546014,
        "last_rank": 28609,
        "player_name": "Richard Stewart",
        "rank": 58754,
        "rank_sort": 58773,
        "total": 2346
      },
      {
        "club_badge_src": null,
        "entry": 2983153,
        "entry_name": "Betoniarka",
        "event_total": 58,
        "has_played": true,
        "id": 21934101,
        "last_rank": 61258,
        "player_name": "Gabriel Rozmus",
        "rank": 58754,
        "rank_sort": 58774,
        "total": 2346
      },
      {
        "club_badge_src": null,
        "entry": 3685459,
        "entry_name": "Fields 11",
        "event_total": 67,
        "has_played": true,
        "id": 27492518,
        "last_rank": 79079,
        "player_name": "Thomas Field",
        "rank": 58754,
        "rank_sort": 58775,
        "total": 2346
      },
      {
        "club_badge_src": null,
        "entry": 3754343,
        "entry_name": "The Krouptomaniacs",
        "event_total": 66,
        "has_played": true,
        "id": 28030234,
        "last_rank": 76947,
        "player_name": "Johnny Powell",
        "rank": 58754,
        "rank_sort": 58776,
        "total": 2346
      },
      {
        "club_badge_src": null,
        "entry": 3792709,
        "entry_name": "Im Sorry Nic Jackson",
        "event_total": 40,
        "has_played": true,
        "id": 28345586,
        "last_rank": 35034,
        "player_name": "Daniel Devitt",
        "rank": 58754,
        "rank_sort": 58777,
        "total": 2346
      },
      {
        "club_badge_src": null,
        "entry": 3851768,
        "entry_name": "Mings Dynasty",
        "event_total": 50,
        "has_played": true,
        "id": 28873765,
        "last_rank": 48084,
        "player_name": "Joe Duffield",
        "rank": 58754,
        "rank_sort": 58778,
        "total": 2346
      },
      {
        "club_badge_src": null,
        "entry": 4277691,
        "entry_name": "Palmer Violets",
        "event_total": 52,
        "has_played": true,
        "id": 32441416,
        "last_rank": 51112,
        "player_name": "Aaron Luckett",
        "rank": 58754,
        "rank_sort": 58779,
        "total": 2346
      },
      {
        "club_badge_src": null,
        "entry": 4421278,
        "entry_name": "24/05",
        "event_total": 51,
        "has_played": true,
        "id": 33639711,
        "last_rank": 49691,
        "player_name": "cj --",
        "rank": 58754,
        "rank_sort": 58780,
        "total": 2346
      },
      {
        "club_badge_src": null,
        "entry": 4739750,
        "entry_name": "Matt's Men",
        "event_total": 68,
        "has_played": true,
        "id": 36468368,
        "last_rank": 81211,
        "player_name": "Matthew Nicholls",
        "rank": 58754,
        "rank_sort": 58781,
        "total": 2346
      },
      {
        "club_badge_src": null,
        "entry": 5214952,
        "entry_name": "Manchester",
        "event_total": 44,
        "has_played": true,
        "id": 40396365,
        "last_rank": 39874,
        "player_name": "Sergey Krivoruchko",
        "rank": 58754,
        "rank_sort": 58782,
        "total": 2346
      },
      {
        "club_badge_src": null,
        "entry": 5298036,
        "entry_name": "Lonely Hearts Crew",
        "event_total": 62,
        "has_played": true,
        "id": 41067675,
        "last_rank": 68556,
        "player_name": "James Reilly",
        "rank": 58754,
        "rank_sort": 58783,
        "total": 2346
      },
      {
        "club_badge_src": null,
        "entry": 5484712,
        "entry_name": "Donya\u2019s Demons",
        "event_total": 64,
        "has_played": true,
        "id": 42708411,
        "last_rank": 72662,
        "player_name": "Marko Dackovic",
        "rank": 58754,
        "rank_sort": 58784,
        "total": 2346
      },
      {
        "club_badge_src": null,
        "entry": 5541016,
        "entry_name": "BombSquad",
        "event_total": 37,
        "has_played": true,
        "id": 43236294,
        "last_rank": 31556,
        "player_name": "Halvor Bakka",
        "rank": 58754,
        "rank_sort": 58785,
        "total": 2346
      },
      {
        "club_badge_src": null,
        "entry": 5557719,
        "entry_name": "Bowen 747",
        "event_total": 38,
        "has_played": true,
        "id": 43384736,
        "last_rank": 32688,
        "player_name": "Justine Yarnton-Peacock",
        "rank": 58754,
        "rank_sort": 58786,
        "total": 2346
      },
      {
        "club_badge_src": "https://fantasy.premierleague.com/gcs/plfpl-production-adobe-approved/plfpl-production/5719773/5844a057-4a11-44ed-8ea6-97e74a2ceb9a.png",
        "entry": 5719773,
        "entry_name": "Ko\u017amin team",
        "event_total": 51,
        "has_played": true,
        "id": 44800822,
        "last_rank": 49691,
        "player_name": "Pawe\u0142 Ko\u017ami\u0144ski",
        "rank": 58754,
        "rank_sort": 58787,
        "total": 2346
      },
      {
        "club_badge_src": null,
        "entry": 6414938,
        "entry_name": "Amad Juan",
        "event_total": 58,
        "has_played": true,
        "id": 51052556,
        "last_rank": 61411,
        "player_name": "Victor Kimani",
        "rank": 58754,
        "rank_sort": 58788,
        "total": 2346
      },
      {
        "club_badge_src": null,
        "entry": 6440307,
        "entry_name": "XL Bully Muntari",
        "event_total": 56,
        "has_played": true,
        "id": 51276386,
        "last_rank": 57857,
        "player_name": "Alex Bradley",
        "rank": 58754,
        "rank_sort": 58789,
        "total": 2346
      },
      {
        "club_badge_src": null,
        "entry": 6630006,
        "entry_name": "ellis eggs",
        "event_total": 63,
        "has_played": true,
        "id": 52987657,
        "last_rank": 70566,
        "player_name": "Ellis Pridgeon",
        "rank": 58754,
        "rank_sort": 58790,
        "total": 2346
      },
      {
        "club_badge_src": null,
        "entry": 6727775,
        "entry_name": "Kinder mbeumo",
        "event_total": 51,
        "has_played": true,
        "id": 53847462,
        "last_rank": 49691,
        "player_name": "Thomas Davey",
        "rank": 58754,
        "rank_sort": 58791,
        "total": 2346
      },
      {
        "club_badge_src": null,
        "entry": 6742449,
        "entry_name": "Abclutch177",
        "event_total": 61,
        "has_played": true,
        "id": 53972493,
        "last_rank": 66658,
        "player_name": "Artur Dias",
        "rank": 58754,
        "rank_sort": 58792,
        "total": 2346
      },
      {
        "club_badge_src": "https://fantasy.premierleague.com/gcs/plfpl-production-adobe-approved/plfpl-production/6934536/c65480c4-bfef-4d8b-9941-cb9a378c6d34.png",
        "entry": 6934536,
        "entry_name": "Bruno-Dos-Tres",
        "event_total": 65,
        "has_played": true,
        "id": 55593567,
        "last_rank": 74741,
        "player_name": "Parth Gunjal",
        "rank": 58754,
        "rank_sort": 58793,
        "total": 2346
      },
      {
        "club_badge_src": null,
        "entry": 6976937,
        "entry_name": "Brandito FC",
        "event_total": 68,
        "has_played": true,
        "id": 55982850,
        "last_rank": 72638,
        "player_name": "Brandon Lee",
        "rank": 58754,
        "rank_sort": 58794,
        "total": 2346
      },
      {
        "club_badge_src": null,
        "entry": 7517498,
        "entry_name": "Terzzzaaa",
        "event_total": 60,
        "has_played": true,
        "id": 61490789,
        "last_rank": 64760,
        "player_name": "David Makivic",
        "rank": 58754,
        "rank_sort": 58795,
        "total": 2346
      },
      {
        "club_badge_src": null,
        "entry": 7537031,
        "entry_name": "Pokkjo United",
        "event_total": 45,
        "has_played": true,
        "id": 61692649,
        "last_rank": 41162,
        "player_name": "Eivind Skorpen",
        "rank": 58754,
        "rank_sort": 58796,
        "total": 2346
      },
      {
        "club_badge_src": null,
        "entry": 8446776,
        "entry_name": "kossa",
        "event_total": 68,
        "has_played": true,
        "id": 70123683,
        "last_rank": 81244,
        "player_name": "Filippa Berndtsson",
        "rank": 58754,
        "rank_sort": 58797,
        "total": 2346
      },
      {
        "club_badge_src": null,
        "entry": 8574525,
        "entry_name": "OluB",
        "event_total": 52,
        "has_played": true,
        "id": 71353596,
        "last_rank": 51137,
        "player_name": "Olu B",
        "rank": 58754,
        "rank_sort": 58798,
        "total": 2346
      },
      {
        "club_badge_src": null,
        "entry": 8871756,
        "entry_name": "NoPointsHere",
        "event_total": 58,
        "has_played": true,
        "id": 74235494,
        "last_rank": 61258,
        "player_name": "Roman Baev",
        "rank": 58754,
        "rank_sort": 58799,
        "total": 2346
      },
      {
        "club_badge_src": null,
        "entry": 8876864,
        "entry_name": "Cherk Me Off",
        "event_total": 59,
        "has_played": true,
        "id": 74284727,
        "last_rank": 63201,
        "player_name": "James Hill",
        "rank": 58754,
        "rank_sort": 58800,
        "total": 2346
      }
    ]
  }
}