{
  "last_updated_data": "2026-05-24T23:28:17Z",
  "league": {
    "admin_entry": null,
    "closed": false,
    "code_privacy": "p",
    "created": "2025-07-20T23:14:33.933835Z",
    "cup_league": 2815434,
    "has_cup": true,
    "id": 314,
    "league_type": "s",
    "max_entries": null,
    "name": "Overall",
    "rank": null,
    "scoring": "c",
    "start_event": 1
  },
  "new_entries": {
    "has_next": false,
    "page": 1,
    "results": []
  },
  "standings": {
    "has_next": true,
    "page": 1300,
    "results": [
      {
        "club_badge_src": null,
        "entry": 1928439,
        "entry_name": "Frimpong Iddle I Po",
        "event_total": 52,
        "has_played": true,
        "id": 13600662,
        "last_rank": 50199,
        "player_name": "Godot Taxis",
        "rank": 64833,
        "rank_sort": 64951,
        "total": 2343
      },
      {
        "club_badge_src": null,
        "entry": 2042536,
        "entry_name": "Doris on Tour",
        "event_total": 68,
        "has_played": true,
        "id": 14464837,
        "last_rank": 79817,
        "player_name": "Dawn Croft",
        "rank": 64833,
        "rank_sort": 64952,
        "total": 2343
      },
      {
        "club_badge_src": null,
        "entry": 2073255,
        "entry_name": "Brahim ajdouri",
        "event_total": 46,
        "has_played": true,
        "id": 14699156,
        "last_rank": 47417,
        "player_name": "brahim ml",
        "rank": 64833,
        "rank_sort": 64953,
        "total": 2343
      },
      {
        "club_badge_src": null,
        "entry": 2115815,
        "entry_name": "Escape From Alcaraz",
        "event_total": 71,
        "has_played": true,
        "id": 15025524,
        "last_rank": 96777,
        "player_name": "Ian Winters",
        "rank": 64833,
        "rank_sort": 64954,
        "total": 2343
      },
      {
        "club_badge_src": null,
        "entry": 2118970,
        "entry_name": "Yellow Submarine",
        "event_total": 60,
        "has_played": true,
        "id": 15051275,
        "last_rank": 63724,
        "player_name": "Stephane Forest",
        "rank": 64833,
        "rank_sort": 64955,
        "total": 2343
      },
      {
        "club_badge_src": null,
        "entry": 2119797,
        "entry_name": "ThomasTheFrankEngine",
        "event_total": 64,
        "has_played": true,
        "id": 15057374,
        "last_rank": 71386,
        "player_name": "Tom Keith",
        "rank": 64833,
        "rank_sort": 64956,
        "total": 2343
      },
      {
        "club_badge_src": null,
        "entry": 2166253,
        "entry_name": "Team Solo Midfield",
        "event_total": 72,
        "has_played": true,
        "id": 15400198,
        "last_rank": 98896,
        "player_name": "Zane Murphy",
        "rank": 64833,
        "rank_sort": 64957,
        "total": 2343
      },
      {
        "club_badge_src": null,
        "entry": 2173755,
        "entry_name": "FC Spurzy",
        "event_total": 50,
        "has_played": true,
        "id": 15456683,
        "last_rank": 52853,
        "player_name": "Matthew Jinks",
        "rank": 64833,
        "rank_sort": 64958,
        "total": 2343
      },
      {
        "club_badge_src": null,
        "entry": 2189081,
        "entry_name": "Milanista",
        "event_total": 72,
        "has_played": true,
        "id": 15573421,
        "last_rank": 99296,
        "player_name": "turki alabdulrazzaq",
        "rank": 64833,
        "rank_sort": 64959,
        "total": 2343
      },
      {
        "club_badge_src": null,
        "entry": 2261366,
        "entry_name": "L'  Garden Settee",
        "event_total": 65,
        "has_played": true,
        "id": 16122710,
        "last_rank": 82398,
        "player_name": "Greg Marsh",
        "rank": 64833,
        "rank_sort": 64960,
        "total": 2343
      },
      {
        "club_badge_src": null,
        "entry": 2280907,
        "entry_name": "Zirkzee me Rolling",
        "event_total": 52,
        "has_played": true,
        "id": 16265537,
        "last_rank": 56708,
        "player_name": "Will Ramshaw",
        "rank": 64833,
        "rank_sort": 64961,
        "total": 2343
      },
      {
        "club_badge_src": null,
        "entry": 2313041,
        "entry_name": "halloj",
        "event_total": 55,
        "has_played": true,
        "id": 16499703,
        "last_rank": 61950,
        "player_name": "Kalle Josefsson",
        "rank": 64833,
        "rank_sort": 64962,
        "total": 2343
      },
      {
        "club_badge_src": null,
        "entry": 2313502,
        "entry_name": "Uppa Toon",
        "event_total": 59,
        "has_played": true,
        "id": 16503063,
        "last_rank": 61606,
        "player_name": "Laurence Ross",
        "rank": 64833,
        "rank_sort": 64963,
        "total": 2343
      },
      {
        "club_badge_src": null,
        "entry": 2364362,
        "entry_name": "Kinder Mbeumo",
        "event_total": 72,
        "has_played": true,
        "id": 16876021,
        "last_rank": 98896,
        "player_name": "Jamie O'Connor",
        "rank": 64833,
        "rank_sort": 64964,
        "total": 2343
      },
      {
        "club_badge_src": null,
        "entry": 2459177,
        "entry_name": "Money Makers",
        "event_total": 74,
        "has_played": true,
        "id": 17590104,
        "last_rank": 103978,
        "player_name": "Maciej Wojnar",
        "rank": 64833,
        "rank_sort": 64965,
        "total": 2343
      },
      {
        "club_badge_src": null,
        "entry": 2488820,
        "entry_name": "COLD PALMER FC",
        "event_total": 66,
        "has_played": true,
        "id": 17817047,
        "last_rank": 84980,
        "player_name": "Chibueze James",
        "rank": 64833,
        "rank_sort": 64966,
        "total": 2343
      },
      {
        "club_badge_src": null,
        "entry": 2493775,
        "entry_name": "Happy World of Aribo",
        "event_total": 50,
        "has_played": true,
        "id": 17853436,
        "last_rank": 53345,
        "player_name": "Jonah Weisselberg",
        "rank": 64833,
        "rank_sort": 64967,
        "total": 2343
      },
      {
        "club_badge_src": null,
        "entry": 2536301,
        "entry_name": "Young Gunnas",
        "event_total": 63,
        "has_played": true,
        "id": 18176239,
        "last_rank": 68957,
        "player_name": "Noah Styka",
        "rank": 64833,
        "rank_sort": 64968,
        "total": 2343
      },
      {
        "club_badge_src": null,
        "entry": 2584578,
        "entry_name": "RangersFC",
        "event_total": 45,
        "has_played": true,
        "id": 18552986,
        "last_rank": 45927,
        "player_name": "Geor Malan",
        "rank": 64833,
        "rank_sort": 64969,
        "total": 2343
      },
      {
        "club_badge_src": null,
        "entry": 2795439,
        "entry_name": "Oldcastle United",
        "event_total": 66,
        "has_played": true,
        "id": 20411347,
        "last_rank": 84731,
        "player_name": "Mike Middlemiss",
        "rank": 64833,
        "rank_sort": 64970,
        "total": 2343
      },
      {
        "club_badge_src": "https://fantasy.premierleague.com/gcs/plfpl-production-adobe-approved/plfpl-production/2820190/8b052673-1d0a-4148-9237-ae1c124b2828.png",
        "entry": 2820190,
        "entry_name": "\u0643\u0627\u0628\u0648\u0633\u0643",
        "event_total": 63,
        "has_played": true,
        "id": 20602939,
        "last_rank": 77999,
        "player_name": "Apopaker alms",
        "rank": 64833,
        "rank_sort": 64971,
        "total": 2343
      },
      {
        "club_badge_src": "https://fantasy.premierleague.com/gcs/plfpl-production-adobe-approved/plfpl-production/2845334/ab0fffc1-becf-49c5-841a-00c98b2630d8.png",
        "entry": 2845334,
        "entry_name": "Esperion FC",
        "event_total": 72,
        "has_played": true,
        "id": 20800803,
        "last_rank": 98896,
        "player_name": "Ivan Mohylnyi",
        "rank": 64833,
        "rank_sort": 64972,
        "total": 2343
      },
      {
        "club_badge_src": null,
        "entry": 2852759,
        "entry_name": "Under My Cucurella",
        "event_total": 68,
        "has_played": true,
        "id": 20858966,
        "last_rank": 89055,
        "player_name": "Matt Hutchison",
        "rank": 64833,
        "rank_sort": 64973,
        "total": 2343
      },
      {
        "club_badge_src": null,
        "entry": 2866581,
        "entry_name": "Dikke Ronaldo",
        "event_total": 58,
        "has_played": true,
        "id": 20965861,
        "last_rank": 67695,
        "player_name": "Nick Janssens",
        "rank": 64833,
        "rank_sort": 64974,
        "total": 2343
      },
      {
        "club_badge_src": null,
        "entry": 2893555,
        "entry_name": "A Cuhna Mateta",
        "event_total": 71,
        "has_played": true,
        "id": 21195515,
        "last_rank": 96374,
        "player_name": "Anthony English",
        "rank": 64833,
        "rank_sort": 64975,
        "total": 2343
      },
      {
        "club_badge_src": null,
        "entry": 2922034,
        "entry_name": "Jayden F. Stories",
        "event_total": 65,
        "has_played": true,
        "id": 21420616,
        "last_rank": 73423,
        "player_name": "Jayden Peter Gomes",
        "rank": 64833,
        "rank_sort": 64976,
        "total": 2343
      },
      {
        "club_badge_src": null,
        "entry": 2997475,
        "entry_name": "Hilltop RoverS",
        "event_total": 42,
        "has_played": true,
        "id": 22046901,
        "last_rank": 41824,
        "player_name": "andy wakefield",
        "rank": 64833,
        "rank_sort": 64977,
        "total": 2343
      },
      {
        "club_badge_src": "https://fantasy.premierleague.com/gcs/plfpl-production-adobe-approved/plfpl-production/3084422/bdab052e-3c20-4934-a17e-d753c1822966.png",
        "entry": 3084422,
        "entry_name": "Cunha Matata",
        "event_total": 73,
        "has_played": true,
        "id": 22724923,
        "last_rank": 101419,
        "player_name": "Kieran Ashmore",
        "rank": 64833,
        "rank_sort": 64978,
        "total": 2343
      },
      {
        "club_badge_src": null,
        "entry": 3107041,
        "entry_name": "Fc Armanii",
        "event_total": 74,
        "has_played": true,
        "id": 22910799,
        "last_rank": 103978,
        "player_name": "Armaniii Dedovicccc",
        "rank": 64833,
        "rank_sort": 64979,
        "total": 2343
      },
      {
        "club_badge_src": null,
        "entry": 3121993,
        "entry_name": "Tallawah",
        "event_total": 68,
        "has_played": true,
        "id": 23039459,
        "last_rank": 89055,
        "player_name": "Ellon Peterkin",
        "rank": 64833,
        "rank_sort": 64980,
        "total": 2343
      },
      {
        "club_badge_src": null,
        "entry": 3123821,
        "entry_name": "St Patrick's Roberts",
        "event_total": 57,
        "has_played": true,
        "id": 23053545,
        "last_rank": 58071,
        "player_name": "Gary Brown",
        "rank": 64833,
        "rank_sort": 64981,
        "total": 2343
      },
      {
        "club_badge_src": null,
        "entry": 3171158,
        "entry_name": "Team Langli",
        "event_total": 71,
        "has_played": true,
        "id": 23429775,
        "last_rank": 96374,
        "player_name": "Aleksander Langli",
        "rank": 64833,
        "rank_sort": 64982,
        "total": 2343
      },
      {
        "club_badge_src": null,
        "entry": 3188748,
        "entry_name": "trylekunusst FC",
        "event_total": 73,
        "has_played": true,
        "id": 23565608,
        "last_rank": 81646,
        "player_name": "Stig Rune Skauge",
        "rank": 64833,
        "rank_sort": 64983,
        "total": 2343
      },
      {
        "club_badge_src": null,
        "entry": 3208794,
        "entry_name": "Maestro_Karaman",
        "event_total": 68,
        "has_played": true,
        "id": 23722841,
        "last_rank": 79817,
        "player_name": "Yavuz Karaman",
        "rank": 64833,
        "rank_sort": 64984,
        "total": 2343
      },
      {
        "club_badge_src": null,
        "entry": 3218351,
        "entry_name": "Delton Dragon FC",
        "event_total": 58,
        "has_played": true,
        "id": 23798433,
        "last_rank": 67422,
        "player_name": "Karma Dorji",
        "rank": 64833,
        "rank_sort": 64985,
        "total": 2343
      },
      {
        "club_badge_src": null,
        "entry": 3281358,
        "entry_name": "Whitegate Drive FC",
        "event_total": 53,
        "has_played": true,
        "id": 24288312,
        "last_rank": 58688,
        "player_name": "matt ashby",
        "rank": 64833,
        "rank_sort": 64986,
        "total": 2343
      },
      {
        "club_badge_src": null,
        "entry": 3323491,
        "entry_name": "Feli City",
        "event_total": 74,
        "has_played": true,
        "id": 24637433,
        "last_rank": 103526,
        "player_name": "Joseph Dove",
        "rank": 64833,
        "rank_sort": 64987,
        "total": 2343
      },
      {
        "club_badge_src": null,
        "entry": 3337163,
        "entry_name": "yorzy",
        "event_total": 64,
        "has_played": true,
        "id": 24749268,
        "last_rank": 80194,
        "player_name": "Asha Ayodeji",
        "rank": 64833,
        "rank_sort": 64988,
        "total": 2343
      },
      {
        "club_badge_src": null,
        "entry": 3350673,
        "entry_name": "Football heritage",
        "event_total": 48,
        "has_played": true,
        "id": 24857094,
        "last_rank": 50199,
        "player_name": "Mohamed Bo Romeo",
        "rank": 64833,
        "rank_sort": 64989,
        "total": 2343
      },
      {
        "club_badge_src": null,
        "entry": 3362612,
        "entry_name": "RubberDigneRapids",
        "event_total": 48,
        "has_played": true,
        "id": 24950829,
        "last_rank": 50468,
        "player_name": "Issey Croft",
        "rank": 64833,
        "rank_sort": 64990,
        "total": 2343
      },
      {
        "club_badge_src": null,
        "entry": 3372930,
        "entry_name": "Urenia Empire",
        "event_total": 47,
        "has_played": true,
        "id": 25031906,
        "last_rank": 48898,
        "player_name": "Ali Amiri",
        "rank": 64833,
        "rank_sort": 64991,
        "total": 2343
      },
      {
        "club_badge_src": null,
        "entry": 3387510,
        "entry_name": "Gy\u00f6kero dinheiro",
        "event_total": 54,
        "has_played": true,
        "id": 25147487,
        "last_rank": 53345,
        "player_name": "M\u00e1rio Matos",
        "rank": 64833,
        "rank_sort": 64992,
        "total": 2343
      },
      {
        "club_badge_src": null,
        "entry": 3448534,
        "entry_name": "Template Gill",
        "event_total": 57,
        "has_played": true,
        "id": 25624308,
        "last_rank": 58388,
        "player_name": "Ollie Gill",
        "rank": 64833,
        "rank_sort": 64993,
        "total": 2343
      },
      {
        "club_badge_src": null,
        "entry": 3451609,
        "entry_name": "Half The World (A)",
        "event_total": 59,
        "has_played": true,
        "id": 25650266,
        "last_rank": 69641,
        "player_name": "Fraser Macleod",
        "rank": 64833,
        "rank_sort": 64994,
        "total": 2343
      },
      {
        "club_badge_src": null,
        "entry": 3473742,
        "entry_name": "Invictus",
        "event_total": 45,
        "has_played": true,
        "id": 25826545,
        "last_rank": 45927,
        "player_name": "Tony Zhang",
        "rank": 64833,
        "rank_sort": 64995,
        "total": 2343
      },
      {
        "club_badge_src": null,
        "entry": 3473823,
        "entry_name": "TONY_FC",
        "event_total": 42,
        "has_played": true,
        "id": 25827173,
        "last_rank": 41824,
        "player_name": "Kritsada saejueng",
        "rank": 64833,
        "rank_sort": 64996,
        "total": 2343
      },
      {
        "club_badge_src": null,
        "entry": 3476900,
        "entry_name": "Ballon D\u2019orgu",
        "event_total": 60,
        "has_played": true,
        "id": 25852276,
        "last_rank": 71386,
        "player_name": "Louis Hardy",
        "rank": 64833,
        "rank_sort": 64997,
        "total": 2343
      },
      {
        "club_badge_src": null,
        "entry": 3531384,
        "entry_name": "ThomasTheFrankEngine",
        "event_total": 61,
        "has_played": true,
        "id": 26283073,
        "last_rank": 65475,
        "player_name": "Callum Martin",
        "rank": 64833,
        "rank_sort": 64998,
        "total": 2343
      },
      {
        "club_badge_src": null,
        "entry": 3660669,
        "entry_name": "Cammpeones",
        "event_total": 54,
        "has_played": true,
        "id": 27297759,
        "last_rank": 60462,
        "player_name": "Thomas Cammegh",
        "rank": 64833,
        "rank_sort": 64999,
        "total": 2343
      },
      {
        "club_badge_src": "https://fantasy.premierleague.com/gcs/plfpl-production-adobe-approved/plfpl-production/3689311/5938d9a2-2fd1-4d42-b8df-dc345d8c5770.png",
        "entry": 3689311,
        "entry_name": "World Champs 11",
        "event_total": 67,
        "has_played": true,
        "id": 27522394,
        "last_rank": 87074,
        "player_name": "Peter North",
        "rank": 64833,
        "rank_sort": 65000,
        "total": 2343
      }
    ]
  }
}