{
  "last_updated_data": "2026-05-24T23:28:17Z",
  "league": {
    "admin_entry": null,
    "closed": false,
    "code_privacy": "p",
    "created": "2025-07-20T23:14:33.933835Z",
    "cup_league": 2815434,
    "has_cup": true,
    "id": 314,
    "league_type": "s",
    "max_entries": null,
    "name": "Overall",
    "rank": null,
    "scoring": "c",
    "start_event": 1
  },
  "new_entries": {
    "has_next": false,
    "page": 1,
    "results": []
  },
  "standings": {
    "has_next": true,
    "page": 1248,
    "results": [
      {
        "club_badge_src": null,
        "entry": 1754213,
        "entry_name": "Djedi Master",
        "event_total": 61,
        "has_played": true,
        "id": 12315061,
        "last_rank": 70757,
        "player_name": "Tobi Naylor",
        "rank": 62320,
        "rank_sort": 62351,
        "total": 2344
      },
      {
        "club_badge_src": null,
        "entry": 1799661,
        "entry_name": "DameTime is Back",
        "event_total": 39,
        "has_played": true,
        "id": 12647892,
        "last_rank": 36348,
        "player_name": "omar alhosani",
        "rank": 62320,
        "rank_sort": 62352,
        "total": 2344
      },
      {
        "club_badge_src": null,
        "entry": 1870333,
        "entry_name": "The Phantom Slot",
        "event_total": 55,
        "has_played": true,
        "id": 13166118,
        "last_rank": 59632,
        "player_name": "\u00d8yvind Sandnes",
        "rank": 62320,
        "rank_sort": 62353,
        "total": 2344
      },
      {
        "club_badge_src": null,
        "entry": 2107927,
        "entry_name": "ChickenTikkaMoSalah",
        "event_total": 61,
        "has_played": true,
        "id": 14960323,
        "last_rank": 70985,
        "player_name": "Alex Fowler",
        "rank": 62320,
        "rank_sort": 62354,
        "total": 2344
      },
      {
        "club_badge_src": null,
        "entry": 2132372,
        "entry_name": "terrance rimstock",
        "event_total": 50,
        "has_played": true,
        "id": 15153124,
        "last_rank": 51220,
        "player_name": "Chris Brown",
        "rank": 62320,
        "rank_sort": 62355,
        "total": 2344
      },
      {
        "club_badge_src": null,
        "entry": 2200048,
        "entry_name": "RichTea FC",
        "event_total": 47,
        "has_played": true,
        "id": 15655527,
        "last_rank": 46591,
        "player_name": "Richard Alston",
        "rank": 62320,
        "rank_sort": 62356,
        "total": 2344
      },
      {
        "club_badge_src": null,
        "entry": 2259353,
        "entry_name": "Viktorias' Secret",
        "event_total": 58,
        "has_played": true,
        "id": 16106601,
        "last_rank": 65163,
        "player_name": "Ryan Haakerson",
        "rank": 62320,
        "rank_sort": 62357,
        "total": 2344
      },
      {
        "club_badge_src": null,
        "entry": 2273813,
        "entry_name": "Stacking Up XL",
        "event_total": 72,
        "has_played": true,
        "id": 16213715,
        "last_rank": 95640,
        "player_name": "Neil Metcalfe",
        "rank": 62320,
        "rank_sort": 62358,
        "total": 2344
      },
      {
        "club_badge_src": null,
        "entry": 2286851,
        "entry_name": "Eze p\u00e5 leggen",
        "event_total": 62,
        "has_played": true,
        "id": 16309007,
        "last_rank": 72815,
        "player_name": "Patrick Kristiansen",
        "rank": 62320,
        "rank_sort": 62359,
        "total": 2344
      },
      {
        "club_badge_src": null,
        "entry": 2435903,
        "entry_name": "Bo$$ FC",
        "event_total": 63,
        "has_played": true,
        "id": 17419567,
        "last_rank": 74898,
        "player_name": "shamas khan",
        "rank": 62320,
        "rank_sort": 62360,
        "total": 2344
      },
      {
        "club_badge_src": "https://fantasy.premierleague.com/gcs/plfpl-production-adobe-approved/plfpl-production/2481262/05c958b3-07d8-4a2a-9727-91a44d077b96.png",
        "entry": 2481262,
        "entry_name": "Cunha Dig It?",
        "event_total": 67,
        "has_played": true,
        "id": 17754305,
        "last_rank": 83534,
        "player_name": "Josh Varun",
        "rank": 62320,
        "rank_sort": 62361,
        "total": 2344
      },
      {
        "club_badge_src": null,
        "entry": 2573299,
        "entry_name": "Rami team",
        "event_total": 65,
        "has_played": true,
        "id": 18465705,
        "last_rank": 79079,
        "player_name": "Mohamed Rami larbi",
        "rank": 62320,
        "rank_sort": 62362,
        "total": 2344
      },
      {
        "club_badge_src": null,
        "entry": 2589115,
        "entry_name": "FREE MYKHAILO MUDRYK",
        "event_total": 67,
        "has_played": true,
        "id": 18587848,
        "last_rank": 83498,
        "player_name": "Matthew Weiss",
        "rank": 62320,
        "rank_sort": 62363,
        "total": 2344
      },
      {
        "club_badge_src": "https://fantasy.premierleague.com/gcs/plfpl-production-adobe-approved/plfpl-production/2703573/c98af4d3-ecd7-4e68-ac25-ea1f3b8af43a.png",
        "entry": 2703573,
        "entry_name": "Quantus Theory",
        "event_total": 67,
        "has_played": true,
        "id": 19449780,
        "last_rank": 83584,
        "player_name": "Leon Hors",
        "rank": 62320,
        "rank_sort": 62364,
        "total": 2344
      },
      {
        "club_badge_src": null,
        "entry": 2768867,
        "entry_name": "Sama7aaaaa",
        "event_total": 48,
        "has_played": true,
        "id": 20202066,
        "last_rank": 48197,
        "player_name": "amr sameeh",
        "rank": 62320,
        "rank_sort": 62365,
        "total": 2344
      },
      {
        "club_badge_src": null,
        "entry": 2928940,
        "entry_name": "Real City United FC",
        "event_total": 36,
        "has_played": true,
        "id": 21473643,
        "last_rank": 32751,
        "player_name": "Matthew M",
        "rank": 62320,
        "rank_sort": 62366,
        "total": 2344
      },
      {
        "club_badge_src": null,
        "entry": 2975250,
        "entry_name": "Bora Drlja\u010da",
        "event_total": 51,
        "has_played": true,
        "id": 21863156,
        "last_rank": 52759,
        "player_name": "Nemanja Stepancevic",
        "rank": 62320,
        "rank_sort": 62367,
        "total": 2344
      },
      {
        "club_badge_src": null,
        "entry": 2978455,
        "entry_name": "Culers Club F\u00fatbol",
        "event_total": 51,
        "has_played": true,
        "id": 21894788,
        "last_rank": 53023,
        "player_name": "Marco Spescha",
        "rank": 62320,
        "rank_sort": 62368,
        "total": 2344
      },
      {
        "club_badge_src": null,
        "entry": 3196175,
        "entry_name": "Mainoo Event",
        "event_total": 51,
        "has_played": true,
        "id": 23624626,
        "last_rank": 52759,
        "player_name": "Mike Keech",
        "rank": 62320,
        "rank_sort": 62369,
        "total": 2344
      },
      {
        "club_badge_src": "https://fantasy.premierleague.com/gcs/plfpl-production-adobe-approved/plfpl-production/3205938/fb49a0ca-5eaa-4f26-b3f2-057cdbca35f6.png",
        "entry": 3205938,
        "entry_name": "Lukilosers FC",
        "event_total": 68,
        "has_played": true,
        "id": 23700507,
        "last_rank": 85870,
        "player_name": "Lucas Ljungqvist",
        "rank": 62320,
        "rank_sort": 62370,
        "total": 2344
      },
      {
        "club_badge_src": "https://fantasy.premierleague.com/gcs/plfpl-production-adobe-approved/plfpl-production/3391855/ae66c541-afbd-46a5-8ce8-261ef94ab568.png",
        "entry": 3391855,
        "entry_name": "No Podcasts FC",
        "event_total": 52,
        "has_played": true,
        "id": 25180994,
        "last_rank": 54494,
        "player_name": "Joe Dowden",
        "rank": 62320,
        "rank_sort": 62371,
        "total": 2344
      },
      {
        "club_badge_src": null,
        "entry": 3396990,
        "entry_name": "p c billy",
        "event_total": 66,
        "has_played": true,
        "id": 25221024,
        "last_rank": 81312,
        "player_name": "Kyle Dugdale",
        "rank": 62320,
        "rank_sort": 62372,
        "total": 2344
      },
      {
        "club_badge_src": null,
        "entry": 3898590,
        "entry_name": "Steve11XTn",
        "event_total": 77,
        "has_played": true,
        "id": 29302545,
        "last_rank": 108567,
        "player_name": "saif Amara",
        "rank": 62320,
        "rank_sort": 62373,
        "total": 2344
      },
      {
        "club_badge_src": null,
        "entry": 4006604,
        "entry_name": "FrankinSpence&Moore",
        "event_total": 60,
        "has_played": true,
        "id": 30182211,
        "last_rank": 68624,
        "player_name": "Mark Vincent",
        "rank": 62320,
        "rank_sort": 62374,
        "total": 2344
      },
      {
        "club_badge_src": null,
        "entry": 4018297,
        "entry_name": "Yoro Wissa Harry",
        "event_total": 63,
        "has_played": true,
        "id": 30283272,
        "last_rank": 74898,
        "player_name": "Matt Cullen",
        "rank": 62320,
        "rank_sort": 62375,
        "total": 2344
      },
      {
        "club_badge_src": "https://fantasy.premierleague.com/gcs/plfpl-production-adobe-approved/plfpl-production/4199207/4a832742-ee94-49e1-992b-256673c9f4c0.png",
        "entry": 4199207,
        "entry_name": "Schlupptown Funk FC",
        "event_total": 62,
        "has_played": true,
        "id": 31785313,
        "last_rank": 72702,
        "player_name": "Joseph Mannion",
        "rank": 62320,
        "rank_sort": 62376,
        "total": 2344
      },
      {
        "club_badge_src": null,
        "entry": 4224229,
        "entry_name": "w.f.c",
        "event_total": 55,
        "has_played": true,
        "id": 32000822,
        "last_rank": 59813,
        "player_name": "Waleed Fathy",
        "rank": 62320,
        "rank_sort": 62377,
        "total": 2344
      },
      {
        "club_badge_src": "https://fantasy.premierleague.com/gcs/plfpl-production-adobe-approved/plfpl-production/4280383/3fb11529-98b2-4419-85aa-ccb5c57f3212.png",
        "entry": 4280383,
        "entry_name": "Chido Obi Wan Kenobi",
        "event_total": 65,
        "has_played": true,
        "id": 32463199,
        "last_rank": 79027,
        "player_name": "Ed Hawksworth",
        "rank": 62320,
        "rank_sort": 62378,
        "total": 2344
      },
      {
        "club_badge_src": null,
        "entry": 4287329,
        "entry_name": "Strikestars11",
        "event_total": 62,
        "has_played": true,
        "id": 32519718,
        "last_rank": 72815,
        "player_name": "Mohamed Junaid",
        "rank": 62320,
        "rank_sort": 62379,
        "total": 2344
      },
      {
        "club_badge_src": null,
        "entry": 4406651,
        "entry_name": "Netflix and Chilwell",
        "event_total": 69,
        "has_played": true,
        "id": 33518449,
        "last_rank": 88185,
        "player_name": "Nikhil Rawal",
        "rank": 62320,
        "rank_sort": 62380,
        "total": 2344
      },
      {
        "club_badge_src": null,
        "entry": 4459804,
        "entry_name": "Lord of the Ings",
        "event_total": 76,
        "has_played": true,
        "id": 33976360,
        "last_rank": 105748,
        "player_name": "Simeon Jarrett",
        "rank": 62320,
        "rank_sort": 62381,
        "total": 2344
      },
      {
        "club_badge_src": null,
        "entry": 4721011,
        "entry_name": "The Golden Gods",
        "event_total": 59,
        "has_played": true,
        "id": 36269448,
        "last_rank": 66738,
        "player_name": "Philip Halpin",
        "rank": 62320,
        "rank_sort": 62382,
        "total": 2344
      },
      {
        "club_badge_src": null,
        "entry": 4722367,
        "entry_name": "It\u2019s Coming Home",
        "event_total": 70,
        "has_played": true,
        "id": 36285204,
        "last_rank": 90746,
        "player_name": "Mahmoud Gamal",
        "rank": 62320,
        "rank_sort": 62383,
        "total": 2344
      },
      {
        "club_badge_src": null,
        "entry": 4769635,
        "entry_name": "greenwood fc",
        "event_total": 41,
        "has_played": true,
        "id": 36710355,
        "last_rank": 38774,
        "player_name": "Charlie Saunders",
        "rank": 62320,
        "rank_sort": 62384,
        "total": 2344
      },
      {
        "club_badge_src": null,
        "entry": 4853889,
        "entry_name": "Always walk alone FC",
        "event_total": 66,
        "has_played": true,
        "id": 37399450,
        "last_rank": 81420,
        "player_name": "Stefan Osnes",
        "rank": 62320,
        "rank_sort": 62385,
        "total": 2344
      },
      {
        "club_badge_src": null,
        "entry": 4899009,
        "entry_name": "Faisal",
        "event_total": 42,
        "has_played": true,
        "id": 37776193,
        "last_rank": 40036,
        "player_name": "Ahmed Faisal",
        "rank": 62320,
        "rank_sort": 62386,
        "total": 2344
      },
      {
        "club_badge_src": null,
        "entry": 4901473,
        "entry_name": "King cunha",
        "event_total": 68,
        "has_played": true,
        "id": 37796553,
        "last_rank": 86054,
        "player_name": "Louis Wellekens",
        "rank": 62320,
        "rank_sort": 62387,
        "total": 2344
      },
      {
        "club_badge_src": null,
        "entry": 4905872,
        "entry_name": "Nofolk n' Chance",
        "event_total": 54,
        "has_played": true,
        "id": 37831672,
        "last_rank": 57857,
        "player_name": "Raphael Landaw",
        "rank": 62320,
        "rank_sort": 62388,
        "total": 2344
      },
      {
        "club_badge_src": null,
        "entry": 4908090,
        "entry_name": "Saka's Gabi Gyok",
        "event_total": 58,
        "has_played": true,
        "id": 37849410,
        "last_rank": 65163,
        "player_name": "Peter Winchester",
        "rank": 62320,
        "rank_sort": 62389,
        "total": 2344
      },
      {
        "club_badge_src": null,
        "entry": 5056019,
        "entry_name": "El",
        "event_total": 82,
        "has_played": true,
        "id": 39066831,
        "last_rank": 123120,
        "player_name": "Mohammed Idris",
        "rank": 62320,
        "rank_sort": 62390,
        "total": 2344
      },
      {
        "club_badge_src": null,
        "entry": 5305230,
        "entry_name": "Khalid Sefouane",
        "event_total": 32,
        "has_played": true,
        "id": 41123931,
        "last_rank": 28726,
        "player_name": "Khalid Sefouane",
        "rank": 62320,
        "rank_sort": 62391,
        "total": 2344
      },
      {
        "club_badge_src": null,
        "entry": 5488163,
        "entry_name": "Hakuna mtu fafect \ufffd",
        "event_total": 66,
        "has_played": true,
        "id": 42741067,
        "last_rank": 81646,
        "player_name": "James Wesley",
        "rank": 62320,
        "rank_sort": 62392,
        "total": 2344
      },
      {
        "club_badge_src": null,
        "entry": 5587519,
        "entry_name": "Bears Boys",
        "event_total": 54,
        "has_played": true,
        "id": 43648516,
        "last_rank": 57857,
        "player_name": "michael casey",
        "rank": 62320,
        "rank_sort": 62393,
        "total": 2344
      },
      {
        "club_badge_src": null,
        "entry": 5597450,
        "entry_name": "\u0644\u0643\u0644 \u0646\u0647\u0627\u064a\u0629 \u0628\u062f\u0627\u064a\u0629",
        "event_total": 41,
        "has_played": true,
        "id": 43734088,
        "last_rank": 38774,
        "player_name": "Elhariry Ali",
        "rank": 62320,
        "rank_sort": 62394,
        "total": 2344
      },
      {
        "club_badge_src": null,
        "entry": 5625634,
        "entry_name": "whykickamoocow",
        "event_total": 78,
        "has_played": true,
        "id": 43978946,
        "last_rank": 111669,
        "player_name": "Adrian Brault",
        "rank": 62320,
        "rank_sort": 62395,
        "total": 2344
      },
      {
        "club_badge_src": null,
        "entry": 5628667,
        "entry_name": "Rothmans FC",
        "event_total": 54,
        "has_played": true,
        "id": 44005368,
        "last_rank": 57776,
        "player_name": "Zukile Mfoza",
        "rank": 62320,
        "rank_sort": 62396,
        "total": 2344
      },
      {
        "club_badge_src": null,
        "entry": 5683613,
        "entry_name": "Gary",
        "event_total": 35,
        "has_played": true,
        "id": 44487876,
        "last_rank": 31534,
        "player_name": "Gary Owens",
        "rank": 62320,
        "rank_sort": 62397,
        "total": 2344
      },
      {
        "club_badge_src": "https://fantasy.premierleague.com/gcs/plfpl-production-adobe-approved/plfpl-production/5766967/ee3df257-8b1c-4631-ac41-b452abf99aaf.png",
        "entry": 5766967,
        "entry_name": "50 Shades of Beto",
        "event_total": 58,
        "has_played": true,
        "id": 45211699,
        "last_rank": 64830,
        "player_name": "Aleksi Tiitinen",
        "rank": 62320,
        "rank_sort": 62398,
        "total": 2344
      },
      {
        "club_badge_src": null,
        "entry": 5991996,
        "entry_name": "Mee Matz Sels Ndiaye",
        "event_total": 57,
        "has_played": true,
        "id": 47216962,
        "last_rank": 63117,
        "player_name": "Ian Sadler",
        "rank": 62320,
        "rank_sort": 62399,
        "total": 2344
      },
      {
        "club_badge_src": null,
        "entry": 6101965,
        "entry_name": "Gordon's McGinn",
        "event_total": 67,
        "has_played": true,
        "id": 48192633,
        "last_rank": 83698,
        "player_name": "Asgeir H\u00f8imoen",
        "rank": 62320,
        "rank_sort": 62400,
        "total": 2344
      }
    ]
  }
}