{
  "last_updated_data": "2026-05-24T23:28:17Z",
  "league": {
    "admin_entry": null,
    "closed": false,
    "code_privacy": "p",
    "created": "2025-07-20T23:14:33.933835Z",
    "cup_league": 2815434,
    "has_cup": true,
    "id": 314,
    "league_type": "s",
    "max_entries": null,
    "name": "Overall",
    "rank": null,
    "scoring": "c",
    "start_event": 1
  },
  "new_entries": {
    "has_next": false,
    "page": 1,
    "results": []
  },
  "standings": {
    "has_next": true,
    "page": 1610,
    "results": [
      {
        "club_badge_src": null,
        "entry": 2770555,
        "entry_name": "Obi-Wan Kenobi-Nil",
        "event_total": 39,
        "has_played": true,
        "id": 20214808,
        "last_rank": 48363,
        "player_name": "Liam Neild",
        "rank": 80241,
        "rank_sort": 80451,
        "total": 2335
      },
      {
        "club_badge_src": null,
        "entry": 2771375,
        "entry_name": "fillekorven FC",
        "event_total": 45,
        "has_played": true,
        "id": 20221074,
        "last_rank": 58388,
        "player_name": "Felix Thuresson",
        "rank": 80241,
        "rank_sort": 80452,
        "total": 2335
      },
      {
        "club_badge_src": null,
        "entry": 2781624,
        "entry_name": "Lallana Del Rey",
        "event_total": 51,
        "has_played": true,
        "id": 20303966,
        "last_rank": 69641,
        "player_name": "Michael Sweeney",
        "rank": 80241,
        "rank_sort": 80453,
        "total": 2335
      },
      {
        "club_badge_src": "https://fantasy.premierleague.com/gcs/plfpl-production-adobe-approved/plfpl-production/2803644/37ad445d-d087-45dd-938b-af1adbbb41d7.png",
        "entry": 2803644,
        "entry_name": "BUBUR AYAM KO GINHAN",
        "event_total": 39,
        "has_played": true,
        "id": 20473896,
        "last_rank": 48642,
        "player_name": "christopher amadeus",
        "rank": 80241,
        "rank_sort": 80454,
        "total": 2335
      },
      {
        "club_badge_src": null,
        "entry": 2827733,
        "entry_name": "Patrick",
        "event_total": 54,
        "has_played": true,
        "id": 20660699,
        "last_rank": 67063,
        "player_name": "Patrick Delattre",
        "rank": 80241,
        "rank_sort": 80455,
        "total": 2335
      },
      {
        "club_badge_src": null,
        "entry": 2867546,
        "entry_name": "White Ben Can't Jump",
        "event_total": 60,
        "has_played": true,
        "id": 20973248,
        "last_rank": 89426,
        "player_name": "Martin Voisey",
        "rank": 80241,
        "rank_sort": 80456,
        "total": 2335
      },
      {
        "club_badge_src": null,
        "entry": 2880947,
        "entry_name": "Rashid",
        "event_total": 59,
        "has_played": true,
        "id": 21089891,
        "last_rank": 86735,
        "player_name": "Rashid alshafi",
        "rank": 80241,
        "rank_sort": 80457,
        "total": 2335
      },
      {
        "club_badge_src": null,
        "entry": 2908569,
        "entry_name": "KTBFFH",
        "event_total": 69,
        "has_played": true,
        "id": 21316874,
        "last_rank": 111669,
        "player_name": "Milan Tikvicki",
        "rank": 80241,
        "rank_sort": 80458,
        "total": 2335
      },
      {
        "club_badge_src": "https://fantasy.premierleague.com/gcs/plfpl-production-adobe-approved/plfpl-production/2948473/ade32a5e-d756-4884-b0dd-54e5a7659ae3.png",
        "entry": 2948473,
        "entry_name": "Rentong FC",
        "event_total": 37,
        "has_played": true,
        "id": 21653872,
        "last_rank": 45714,
        "player_name": "Dinie Zulfadhli",
        "rank": 80241,
        "rank_sort": 80459,
        "total": 2335
      },
      {
        "club_badge_src": null,
        "entry": 2979375,
        "entry_name": "Earth,Wind & Maguire",
        "event_total": 66,
        "has_played": true,
        "id": 21904710,
        "last_rank": 93443,
        "player_name": "Sean Hudson",
        "rank": 80241,
        "rank_sort": 80460,
        "total": 2335
      },
      {
        "club_badge_src": null,
        "entry": 2996141,
        "entry_name": "Donny the Doberman",
        "event_total": 43,
        "has_played": true,
        "id": 22036615,
        "last_rank": 55014,
        "player_name": "Gordon Brown",
        "rank": 80241,
        "rank_sort": 80461,
        "total": 2335
      },
      {
        "club_badge_src": null,
        "entry": 2996495,
        "entry_name": "Trent Alexander Isak",
        "event_total": 72,
        "has_played": true,
        "id": 22039308,
        "last_rank": 120438,
        "player_name": "Digi Tollie",
        "rank": 80241,
        "rank_sort": 80462,
        "total": 2335
      },
      {
        "club_badge_src": null,
        "entry": 3015676,
        "entry_name": "10hag ball",
        "event_total": 59,
        "has_played": true,
        "id": 22186488,
        "last_rank": 87074,
        "player_name": "Ahmad Aljasser",
        "rank": 80241,
        "rank_sort": 80463,
        "total": 2335
      },
      {
        "club_badge_src": null,
        "entry": 3015722,
        "entry_name": "Change Name",
        "event_total": 61,
        "has_played": true,
        "id": 22186829,
        "last_rank": 91466,
        "player_name": "Joel Slight",
        "rank": 80241,
        "rank_sort": 80464,
        "total": 2335
      },
      {
        "club_badge_src": null,
        "entry": 3020694,
        "entry_name": "FPLPandaX",
        "event_total": 54,
        "has_played": true,
        "id": 22224666,
        "last_rank": 75537,
        "player_name": "Kristian Ambrozai",
        "rank": 80241,
        "rank_sort": 80465,
        "total": 2335
      },
      {
        "club_badge_src": null,
        "entry": 3095189,
        "entry_name": "Men with van de Ven",
        "event_total": 55,
        "has_played": true,
        "id": 22811875,
        "last_rank": 54380,
        "player_name": "Dillon Kennedy",
        "rank": 80241,
        "rank_sort": 80466,
        "total": 2335
      },
      {
        "club_badge_src": null,
        "entry": 3099679,
        "entry_name": "Sakaliba",
        "event_total": 53,
        "has_played": true,
        "id": 22853141,
        "last_rank": 73038,
        "player_name": "abhinav pachauri",
        "rank": 80241,
        "rank_sort": 80467,
        "total": 2335
      },
      {
        "club_badge_src": null,
        "entry": 3144600,
        "entry_name": "Joey\u2019s XI",
        "event_total": 40,
        "has_played": true,
        "id": 23217757,
        "last_rank": 49880,
        "player_name": "Joe HUGHES",
        "rank": 80241,
        "rank_sort": 80468,
        "total": 2335
      },
      {
        "club_badge_src": "https://fantasy.premierleague.com/gcs/plfpl-production-adobe-approved/plfpl-production/3161801/d5fc49e7-a211-4b31-a7eb-49dd8ae952c0.png",
        "entry": 3161801,
        "entry_name": "Puffins eleven",
        "event_total": 64,
        "has_played": true,
        "id": 23357321,
        "last_rank": 98896,
        "player_name": "Peter Lees",
        "rank": 80241,
        "rank_sort": 80469,
        "total": 2335
      },
      {
        "club_badge_src": null,
        "entry": 3225796,
        "entry_name": "Me, Myself Ndiaye",
        "event_total": 67,
        "has_played": true,
        "id": 23855664,
        "last_rank": 106763,
        "player_name": "Connor Parker",
        "rank": 80241,
        "rank_sort": 80470,
        "total": 2335
      },
      {
        "club_badge_src": null,
        "entry": 3231308,
        "entry_name": "USV Krakaudorf",
        "event_total": 52,
        "has_played": true,
        "id": 23898259,
        "last_rank": 71386,
        "player_name": "Fabian Celeschi",
        "rank": 80241,
        "rank_sort": 80471,
        "total": 2335
      },
      {
        "club_badge_src": null,
        "entry": 3305269,
        "entry_name": "FITZ XI",
        "event_total": 58,
        "has_played": true,
        "id": 24482623,
        "last_rank": 83934,
        "player_name": "Liam Fitzgerald",
        "rank": 80241,
        "rank_sort": 80472,
        "total": 2335
      },
      {
        "club_badge_src": null,
        "entry": 3308950,
        "entry_name": "Chelsule\u021bu'",
        "event_total": 71,
        "has_played": true,
        "id": 24513796,
        "last_rank": 117915,
        "player_name": "Dan Pughineanu",
        "rank": 80241,
        "rank_sort": 80473,
        "total": 2335
      },
      {
        "club_badge_src": null,
        "entry": 3326732,
        "entry_name": "Goonies",
        "event_total": 31,
        "has_played": true,
        "id": 24663891,
        "last_rank": 38016,
        "player_name": "Jimbo Danby",
        "rank": 80241,
        "rank_sort": 80474,
        "total": 2335
      },
      {
        "club_badge_src": null,
        "entry": 3441675,
        "entry_name": "joao pedro neto",
        "event_total": 65,
        "has_played": true,
        "id": 25569654,
        "last_rank": 100700,
        "player_name": "nura m",
        "rank": 80241,
        "rank_sort": 80475,
        "total": 2335
      },
      {
        "club_badge_src": null,
        "entry": 3466554,
        "entry_name": "Reece's set pieces",
        "event_total": 44,
        "has_played": true,
        "id": 25770019,
        "last_rank": 56708,
        "player_name": "Max Feather",
        "rank": 80241,
        "rank_sort": 80476,
        "total": 2335
      },
      {
        "club_badge_src": null,
        "entry": 3494496,
        "entry_name": "Fail Madrid",
        "event_total": 41,
        "has_played": true,
        "id": 25992239,
        "last_rank": 45416,
        "player_name": "Daryl Jolliffe",
        "rank": 80241,
        "rank_sort": 80477,
        "total": 2335
      },
      {
        "club_badge_src": null,
        "entry": 3525550,
        "entry_name": "token",
        "event_total": 57,
        "has_played": true,
        "id": 26238079,
        "last_rank": 82069,
        "player_name": "Edward Freedman",
        "rank": 80241,
        "rank_sort": 80478,
        "total": 2335
      },
      {
        "club_badge_src": null,
        "entry": 3630368,
        "entry_name": "IFK Mellanmj\u00f6lk",
        "event_total": 72,
        "has_played": true,
        "id": 27052625,
        "last_rank": 120941,
        "player_name": "Liam Eriksson",
        "rank": 80241,
        "rank_sort": 80479,
        "total": 2335
      },
      {
        "club_badge_src": null,
        "entry": 3655023,
        "entry_name": "abcde FC",
        "event_total": 72,
        "has_played": true,
        "id": 27248354,
        "last_rank": 120941,
        "player_name": "Rod Hulme",
        "rank": 80241,
        "rank_sort": 80480,
        "total": 2335
      },
      {
        "club_badge_src": null,
        "entry": 3668936,
        "entry_name": "Robert's Rabble",
        "event_total": 58,
        "has_played": true,
        "id": 27362535,
        "last_rank": 75139,
        "player_name": "Robert Walker",
        "rank": 80241,
        "rank_sort": 80481,
        "total": 2335
      },
      {
        "club_badge_src": null,
        "entry": 3693002,
        "entry_name": "Birch's x11",
        "event_total": 63,
        "has_played": true,
        "id": 27551018,
        "last_rank": 96374,
        "player_name": "Francis Birch",
        "rank": 80241,
        "rank_sort": 80482,
        "total": 2335
      },
      {
        "club_badge_src": null,
        "entry": 3796544,
        "entry_name": "hauk\u00e5s Airlines",
        "event_total": 56,
        "has_played": true,
        "id": 28377743,
        "last_rank": 79817,
        "player_name": "Jo Hauk\u00e5s",
        "rank": 80241,
        "rank_sort": 80483,
        "total": 2335
      },
      {
        "club_badge_src": null,
        "entry": 3797303,
        "entry_name": "Lids",
        "event_total": 41,
        "has_played": true,
        "id": 28383855,
        "last_rank": 51720,
        "player_name": "Chris Liddle",
        "rank": 80241,
        "rank_sort": 80484,
        "total": 2335
      },
      {
        "club_badge_src": null,
        "entry": 3799991,
        "entry_name": "No Kane, no gain",
        "event_total": 57,
        "has_played": true,
        "id": 28405890,
        "last_rank": 81646,
        "player_name": "Alvin L\u00f6fgren",
        "rank": 80241,
        "rank_sort": 80485,
        "total": 2335
      },
      {
        "club_badge_src": null,
        "entry": 3801440,
        "entry_name": "Cunha Believe It?",
        "event_total": 69,
        "has_played": true,
        "id": 28417834,
        "last_rank": 100949,
        "player_name": "Dhruvil Shah",
        "rank": 80241,
        "rank_sort": 80486,
        "total": 2335
      },
      {
        "club_badge_src": null,
        "entry": 3823549,
        "entry_name": "Salah-vage",
        "event_total": 70,
        "has_played": true,
        "id": 28598222,
        "last_rank": 103526,
        "player_name": "Kreesan Rajagopal",
        "rank": 80241,
        "rank_sort": 80487,
        "total": 2335
      },
      {
        "club_badge_src": null,
        "entry": 3825802,
        "entry_name": "Bouncebackability FC",
        "event_total": 77,
        "has_played": true,
        "id": 28616818,
        "last_rank": 136080,
        "player_name": "Feargus Hutchins",
        "rank": 80241,
        "rank_sort": 80488,
        "total": 2335
      },
      {
        "club_badge_src": null,
        "entry": 3856612,
        "entry_name": "Ottie's Hot Dogs",
        "event_total": 62,
        "has_played": true,
        "id": 28913550,
        "last_rank": 93443,
        "player_name": "David Hignell",
        "rank": 80241,
        "rank_sort": 80489,
        "total": 2335
      },
      {
        "club_badge_src": "https://fantasy.premierleague.com/gcs/plfpl-production-adobe-approved/plfpl-production/3883442/c6cb424c-ea28-4311-b33b-d037d4d5f966.png",
        "entry": 3883442,
        "entry_name": "MartyPickle",
        "event_total": 50,
        "has_played": true,
        "id": 29180252,
        "last_rank": 67422,
        "player_name": "Matt Alewine",
        "rank": 80241,
        "rank_sort": 80490,
        "total": 2335
      },
      {
        "club_badge_src": null,
        "entry": 3893798,
        "entry_name": "Il Fy Fasan",
        "event_total": 54,
        "has_played": true,
        "id": 29263508,
        "last_rank": 75537,
        "player_name": "Gjermund Springgard",
        "rank": 80241,
        "rank_sort": 80491,
        "total": 2335
      },
      {
        "club_badge_src": null,
        "entry": 3912726,
        "entry_name": "Colon CEB",
        "event_total": 73,
        "has_played": true,
        "id": 29418577,
        "last_rank": 111405,
        "player_name": "Taksheel Beejan",
        "rank": 80241,
        "rank_sort": 80492,
        "total": 2335
      },
      {
        "club_badge_src": null,
        "entry": 3917620,
        "entry_name": "The Boys",
        "event_total": 54,
        "has_played": true,
        "id": 29457876,
        "last_rank": 75139,
        "player_name": "John Gupton",
        "rank": 80241,
        "rank_sort": 80493,
        "total": 2335
      },
      {
        "club_badge_src": null,
        "entry": 3947796,
        "entry_name": "Economists FC",
        "event_total": 50,
        "has_played": true,
        "id": 29698247,
        "last_rank": 67422,
        "player_name": "surendra sivakumar",
        "rank": 80241,
        "rank_sort": 80494,
        "total": 2335
      },
      {
        "club_badge_src": null,
        "entry": 3985053,
        "entry_name": "Saka Potatos",
        "event_total": 51,
        "has_played": true,
        "id": 30001908,
        "last_rank": 68957,
        "player_name": "Tom Dearsley",
        "rank": 80241,
        "rank_sort": 80495,
        "total": 2335
      },
      {
        "club_badge_src": null,
        "entry": 3986786,
        "entry_name": "My Wirtz XI",
        "event_total": 84,
        "has_played": true,
        "id": 30016250,
        "last_rank": 160108,
        "player_name": "Brian Kealy",
        "rank": 80241,
        "rank_sort": 80496,
        "total": 2335
      },
      {
        "club_badge_src": null,
        "entry": 4031791,
        "entry_name": "Suffer FC",
        "event_total": 41,
        "has_played": true,
        "id": 30395636,
        "last_rank": 51403,
        "player_name": "Nitin Garg",
        "rank": 80241,
        "rank_sort": 80497,
        "total": 2335
      },
      {
        "club_badge_src": null,
        "entry": 4033171,
        "entry_name": "Bent Ham United",
        "event_total": 59,
        "has_played": true,
        "id": 30407850,
        "last_rank": 86304,
        "player_name": "Philip Schofield",
        "rank": 80241,
        "rank_sort": 80498,
        "total": 2335
      },
      {
        "club_badge_src": null,
        "entry": 4121493,
        "entry_name": "animal's famsters",
        "event_total": 69,
        "has_played": true,
        "id": 31137469,
        "last_rank": 112169,
        "player_name": "Doug Tay",
        "rank": 80241,
        "rank_sort": 80499,
        "total": 2335
      },
      {
        "club_badge_src": null,
        "entry": 4125684,
        "entry_name": "Zubi Bend It",
        "event_total": 57,
        "has_played": true,
        "id": 31172637,
        "last_rank": 81420,
        "player_name": "Sam Taylor",
        "rank": 80241,
        "rank_sort": 80500,
        "total": 2335
      }
    ]
  }
}