{
  "last_updated_data": "2026-05-24T23:28:17Z",
  "league": {
    "admin_entry": null,
    "closed": false,
    "code_privacy": "p",
    "created": "2025-07-20T23:14:33.933835Z",
    "cup_league": 2815434,
    "has_cup": true,
    "id": 314,
    "league_type": "s",
    "max_entries": null,
    "name": "Overall",
    "rank": null,
    "scoring": "c",
    "start_event": 1
  },
  "new_entries": {
    "has_next": false,
    "page": 1,
    "results": []
  },
  "standings": {
    "has_next": true,
    "page": 1611,
    "results": [
      {
        "club_badge_src": null,
        "entry": 4164736,
        "entry_name": "Banway di class",
        "event_total": 75,
        "has_played": true,
        "id": 31493538,
        "last_rank": 129043,
        "player_name": "Zuhair Butt",
        "rank": 80241,
        "rank_sort": 80501,
        "total": 2335
      },
      {
        "club_badge_src": null,
        "entry": 4167233,
        "entry_name": "Batterays",
        "event_total": 58,
        "has_played": true,
        "id": 31514026,
        "last_rank": 83934,
        "player_name": "Erlend Ellingsen",
        "rank": 80241,
        "rank_sort": 80502,
        "total": 2335
      },
      {
        "club_badge_src": null,
        "entry": 4213774,
        "entry_name": "Slot & Roll",
        "event_total": 52,
        "has_played": true,
        "id": 31906584,
        "last_rank": 71713,
        "player_name": "Apurve Gupta",
        "rank": 80241,
        "rank_sort": 80503,
        "total": 2335
      },
      {
        "club_badge_src": "https://fantasy.premierleague.com/gcs/plfpl-production-adobe-approved/plfpl-production/4243500/349ddaa7-0923-4009-859a-d234bcd0a7ff.png",
        "entry": 4243500,
        "entry_name": "Bullet Raja",
        "event_total": 57,
        "has_played": true,
        "id": 32162597,
        "last_rank": 73038,
        "player_name": "Sushant Chapagain",
        "rank": 80241,
        "rank_sort": 80504,
        "total": 2335
      },
      {
        "club_badge_src": null,
        "entry": 4251804,
        "entry_name": "Winter Milan",
        "event_total": 54,
        "has_played": true,
        "id": 32231144,
        "last_rank": 75139,
        "player_name": "Ed Winter",
        "rank": 80241,
        "rank_sort": 80505,
        "total": 2335
      },
      {
        "club_badge_src": null,
        "entry": 4329522,
        "entry_name": "Fer Play",
        "event_total": 49,
        "has_played": true,
        "id": 32863077,
        "last_rank": 65163,
        "player_name": "Mark Gnerre",
        "rank": 80241,
        "rank_sort": 80506,
        "total": 2335
      },
      {
        "club_badge_src": null,
        "entry": 4389694,
        "entry_name": "In Delap of the Gods",
        "event_total": 59,
        "has_played": true,
        "id": 33369205,
        "last_rank": 86735,
        "player_name": "Neil Paterson",
        "rank": 80241,
        "rank_sort": 80507,
        "total": 2335
      },
      {
        "club_badge_src": null,
        "entry": 4469571,
        "entry_name": "Boehly's Budget",
        "event_total": 48,
        "has_played": true,
        "id": 34058614,
        "last_rank": 64005,
        "player_name": "Ludwig Sjostrand",
        "rank": 80241,
        "rank_sort": 80508,
        "total": 2335
      },
      {
        "club_badge_src": null,
        "entry": 4510551,
        "entry_name": "B.MoH",
        "event_total": 79,
        "has_played": true,
        "id": 34393107,
        "last_rank": 129205,
        "player_name": "Babori Mohcen",
        "rank": 80241,
        "rank_sort": 80509,
        "total": 2335
      },
      {
        "club_badge_src": null,
        "entry": 4535841,
        "entry_name": "Unreal Madrid",
        "event_total": 61,
        "has_played": true,
        "id": 34601692,
        "last_rank": 81646,
        "player_name": "Sir Badal Zeb",
        "rank": 80241,
        "rank_sort": 80510,
        "total": 2335
      },
      {
        "club_badge_src": "https://fantasy.premierleague.com/gcs/plfpl-production-adobe-approved/plfpl-production/4590404/bf205044-4567-40a8-a250-f8f2b1e13240.png",
        "entry": 4590404,
        "entry_name": "Dont Know Mee Son",
        "event_total": 66,
        "has_played": true,
        "id": 35052285,
        "last_rank": 103978,
        "player_name": "Stuart Duncan",
        "rank": 80241,
        "rank_sort": 80511,
        "total": 2335
      },
      {
        "club_badge_src": null,
        "entry": 4649135,
        "entry_name": "Kobbie and Paste",
        "event_total": 54,
        "has_played": true,
        "id": 35567741,
        "last_rank": 75139,
        "player_name": "Palvinder Garcha",
        "rank": 80241,
        "rank_sort": 80512,
        "total": 2335
      },
      {
        "club_badge_src": null,
        "entry": 4675005,
        "entry_name": "Shawshank Revolution",
        "event_total": 60,
        "has_played": true,
        "id": 35812976,
        "last_rank": 88594,
        "player_name": "Colin Shaw",
        "rank": 80241,
        "rank_sort": 80513,
        "total": 2335
      },
      {
        "club_badge_src": null,
        "entry": 4689886,
        "entry_name": "Balon D'Orgu",
        "event_total": 59,
        "has_played": true,
        "id": 35945575,
        "last_rank": 86304,
        "player_name": "Jordan McCallen",
        "rank": 80241,
        "rank_sort": 80514,
        "total": 2335
      },
      {
        "club_badge_src": "https://fantasy.premierleague.com/gcs/plfpl-production-adobe-approved/plfpl-production/4742907/9a3ca9ce-6587-400e-817e-a9472250cd0d.png",
        "entry": 4742907,
        "entry_name": "BOOM XHAKA-SAKA",
        "event_total": 54,
        "has_played": true,
        "id": 36493938,
        "last_rank": 75537,
        "player_name": "James Bruton",
        "rank": 80241,
        "rank_sort": 80515,
        "total": 2335
      },
      {
        "club_badge_src": null,
        "entry": 4767215,
        "entry_name": "I guess",
        "event_total": 59,
        "has_played": true,
        "id": 36690384,
        "last_rank": 86735,
        "player_name": "Alon Blecherman",
        "rank": 80241,
        "rank_sort": 80516,
        "total": 2335
      },
      {
        "club_badge_src": null,
        "entry": 4774321,
        "entry_name": "The Cohen",
        "event_total": 52,
        "has_played": true,
        "id": 36750269,
        "last_rank": 71386,
        "player_name": "Ben Cohen",
        "rank": 80241,
        "rank_sort": 80517,
        "total": 2335
      },
      {
        "club_badge_src": null,
        "entry": 4785316,
        "entry_name": "Uppa Towen",
        "event_total": 49,
        "has_played": true,
        "id": 36838629,
        "last_rank": 65475,
        "player_name": "Tom Coe",
        "rank": 80241,
        "rank_sort": 80518,
        "total": 2335
      },
      {
        "club_badge_src": null,
        "entry": 4878742,
        "entry_name": "FC Olz",
        "event_total": 42,
        "has_played": true,
        "id": 37608397,
        "last_rank": 46839,
        "player_name": "Erik Olsson",
        "rank": 80241,
        "rank_sort": 80519,
        "total": 2335
      },
      {
        "club_badge_src": "https://fantasy.premierleague.com/gcs/plfpl-production-adobe-approved/plfpl-production/4883149/6ce6c2ed-e0ca-4a00-86af-dbfa10d87f5d.png",
        "entry": 4883149,
        "entry_name": "Hey Arne",
        "event_total": 67,
        "has_played": true,
        "id": 37645488,
        "last_rank": 105818,
        "player_name": "Bailey Lyth",
        "rank": 80241,
        "rank_sort": 80520,
        "total": 2335
      },
      {
        "club_badge_src": "https://fantasy.premierleague.com/gcs/plfpl-production-adobe-approved/plfpl-production/4892092/31ba5395-6d6e-4fa2-bd57-7b5163910d86.png",
        "entry": 4892092,
        "entry_name": "Sundby",
        "event_total": 58,
        "has_played": true,
        "id": 37719150,
        "last_rank": 84360,
        "player_name": "Gustav Sundby Moeller",
        "rank": 80241,
        "rank_sort": 80521,
        "total": 2335
      },
      {
        "club_badge_src": null,
        "entry": 4914773,
        "entry_name": "Brennan Jerry's",
        "event_total": 57,
        "has_played": true,
        "id": 37905494,
        "last_rank": 81646,
        "player_name": "Jey de Silva",
        "rank": 80241,
        "rank_sort": 80522,
        "total": 2335
      },
      {
        "club_badge_src": null,
        "entry": 4946350,
        "entry_name": "Willmath FC",
        "event_total": 54,
        "has_played": true,
        "id": 38165874,
        "last_rank": 67063,
        "player_name": "Edward de Forest",
        "rank": 80241,
        "rank_sort": 80523,
        "total": 2335
      },
      {
        "club_badge_src": null,
        "entry": 4971371,
        "entry_name": "Gotzilla FC",
        "event_total": 51,
        "has_played": true,
        "id": 38371067,
        "last_rank": 68957,
        "player_name": "tossaporn usasupak",
        "rank": 80241,
        "rank_sort": 80524,
        "total": 2335
      },
      {
        "club_badge_src": null,
        "entry": 5021403,
        "entry_name": "HaCunha Matata",
        "event_total": 67,
        "has_played": true,
        "id": 38779788,
        "last_rank": 106259,
        "player_name": "Matt Allen",
        "rank": 80241,
        "rank_sort": 80525,
        "total": 2335
      },
      {
        "club_badge_src": null,
        "entry": 5022362,
        "entry_name": "Ntja Tsa Life FC",
        "event_total": 68,
        "has_played": true,
        "id": 38787490,
        "last_rank": 108959,
        "player_name": "Ontlametse Soul",
        "rank": 80241,
        "rank_sort": 80526,
        "total": 2335
      },
      {
        "club_badge_src": null,
        "entry": 5064906,
        "entry_name": "KR1$H XI",
        "event_total": 48,
        "has_played": true,
        "id": 39139475,
        "last_rank": 63724,
        "player_name": "krish Gurung",
        "rank": 80241,
        "rank_sort": 80527,
        "total": 2335
      },
      {
        "club_badge_src": "https://fantasy.premierleague.com/gcs/plfpl-production-adobe-approved/plfpl-production/5139573/fed56d56-731a-454c-a266-39bdb5995a10.png",
        "entry": 5139573,
        "entry_name": "Arthur's All-Stars",
        "event_total": 53,
        "has_played": true,
        "id": 39756449,
        "last_rank": 73038,
        "player_name": "Darren Pitman",
        "rank": 80241,
        "rank_sort": 80528,
        "total": 2335
      },
      {
        "club_badge_src": "https://fantasy.premierleague.com/gcs/plfpl-production-adobe-approved/plfpl-production/5143086/178cab25-68e1-41fe-8276-8b13177266be.png",
        "entry": 5143086,
        "entry_name": "1921",
        "event_total": 76,
        "has_played": true,
        "id": 39785817,
        "last_rank": 132758,
        "player_name": "Damir Garbin",
        "rank": 80241,
        "rank_sort": 80529,
        "total": 2335
      },
      {
        "club_badge_src": null,
        "entry": 5178701,
        "entry_name": "Calafiornication",
        "event_total": 73,
        "has_played": true,
        "id": 40084078,
        "last_rank": 123908,
        "player_name": "Rob Nixon",
        "rank": 80241,
        "rank_sort": 80530,
        "total": 2335
      },
      {
        "club_badge_src": null,
        "entry": 5222753,
        "entry_name": "\u0627\u0644\u0641\u0627\u0626\u0632\u0648\u0646",
        "event_total": 32,
        "has_played": true,
        "id": 40467384,
        "last_rank": 39246,
        "player_name": "Youssef Aitm",
        "rank": 80241,
        "rank_sort": 80531,
        "total": 2335
      },
      {
        "club_badge_src": null,
        "entry": 5239616,
        "entry_name": "\u0644\u064a\u0641\u0631\u0628\u0648\u0644",
        "event_total": 69,
        "has_played": true,
        "id": 40605216,
        "last_rank": 112591,
        "player_name": "Mu Mu",
        "rank": 80241,
        "rank_sort": 80532,
        "total": 2335
      },
      {
        "club_badge_src": null,
        "entry": 5240456,
        "entry_name": "Heavy Lemon",
        "event_total": 57,
        "has_played": true,
        "id": 40612133,
        "last_rank": 82069,
        "player_name": "Eamonn McNamee",
        "rank": 80241,
        "rank_sort": 80533,
        "total": 2335
      },
      {
        "club_badge_src": null,
        "entry": 5276237,
        "entry_name": "Furness Warriors",
        "event_total": 43,
        "has_played": true,
        "id": 40895396,
        "last_rank": 55014,
        "player_name": "Mark Grange",
        "rank": 80241,
        "rank_sort": 80534,
        "total": 2335
      },
      {
        "club_badge_src": null,
        "entry": 5401819,
        "entry_name": "Heberton",
        "event_total": 40,
        "has_played": true,
        "id": 42001596,
        "last_rank": 49880,
        "player_name": "Hans Erik Bryhn",
        "rank": 80241,
        "rank_sort": 80535,
        "total": 2335
      },
      {
        "club_badge_src": null,
        "entry": 5480931,
        "entry_name": "Hakuna Onana",
        "event_total": 67,
        "has_played": true,
        "id": 42673845,
        "last_rank": 106763,
        "player_name": "Maxim Pepelyaev",
        "rank": 80241,
        "rank_sort": 80536,
        "total": 2335
      },
      {
        "club_badge_src": "https://fantasy.premierleague.com/gcs/plfpl-production-adobe-approved/plfpl-production/5490950/8216f653-c5cf-46a8-89a0-de823505527f.png",
        "entry": 5490950,
        "entry_name": "Jackpot",
        "event_total": 67,
        "has_played": true,
        "id": 42765725,
        "last_rank": 106763,
        "player_name": "Sunny Alvin",
        "rank": 80241,
        "rank_sort": 80537,
        "total": 2335
      },
      {
        "club_badge_src": null,
        "entry": 5509836,
        "entry_name": "Pukkichu I Choose U*",
        "event_total": 63,
        "has_played": true,
        "id": 42945570,
        "last_rank": 95890,
        "player_name": "Joshua Reeves",
        "rank": 80241,
        "rank_sort": 80538,
        "total": 2335
      },
      {
        "club_badge_src": null,
        "entry": 5516591,
        "entry_name": "Barnhill's XI",
        "event_total": 69,
        "has_played": true,
        "id": 43010374,
        "last_rank": 111669,
        "player_name": "Brett Barnhill",
        "rank": 80241,
        "rank_sort": 80539,
        "total": 2335
      },
      {
        "club_badge_src": null,
        "entry": 5527867,
        "entry_name": "does it mata?",
        "event_total": 66,
        "has_played": true,
        "id": 43113070,
        "last_rank": 103526,
        "player_name": "Andy B",
        "rank": 80241,
        "rank_sort": 80540,
        "total": 2335
      },
      {
        "club_badge_src": null,
        "entry": 5580293,
        "entry_name": "HPLIKETHESAUCE",
        "event_total": 61,
        "has_played": true,
        "id": 43582573,
        "last_rank": 91835,
        "player_name": "Harvey Penning",
        "rank": 80241,
        "rank_sort": 80541,
        "total": 2335
      },
      {
        "club_badge_src": null,
        "entry": 5659830,
        "entry_name": "Rutter Woke Nonsense",
        "event_total": 64,
        "has_played": true,
        "id": 44280815,
        "last_rank": 98436,
        "player_name": "Cormac Hoey",
        "rank": 80241,
        "rank_sort": 80542,
        "total": 2335
      },
      {
        "club_badge_src": null,
        "entry": 5664017,
        "entry_name": "Alisson Wonderland",
        "event_total": 68,
        "has_played": true,
        "id": 44315671,
        "last_rank": 108959,
        "player_name": "Tarun Kurien",
        "rank": 80241,
        "rank_sort": 80543,
        "total": 2335
      },
      {
        "club_badge_src": "https://fantasy.premierleague.com/gcs/plfpl-production-adobe-approved/plfpl-production/5665861/97e6ba1f-ce6e-4bb6-99b6-5a39dbae8fd0.png",
        "entry": 5665861,
        "entry_name": "Rice Rice baby",
        "event_total": 68,
        "has_played": true,
        "id": 44331439,
        "last_rank": 98436,
        "player_name": "Anthon Thorn-Knudsen",
        "rank": 80241,
        "rank_sort": 80544,
        "total": 2335
      },
      {
        "club_badge_src": null,
        "entry": 5749072,
        "entry_name": "Bari-hat-trick",
        "event_total": 67,
        "has_played": true,
        "id": 45058343,
        "last_rank": 106259,
        "player_name": "Fabian Toms",
        "rank": 80241,
        "rank_sort": 80545,
        "total": 2335
      },
      {
        "club_badge_src": null,
        "entry": 5767348,
        "entry_name": "Paddy\u2019s Passion",
        "event_total": 71,
        "has_played": true,
        "id": 45214955,
        "last_rank": 106259,
        "player_name": "Daniel Petecchia",
        "rank": 80241,
        "rank_sort": 80546,
        "total": 2335
      },
      {
        "club_badge_src": null,
        "entry": 5793102,
        "entry_name": "Surti Sizzlers",
        "event_total": 67,
        "has_played": true,
        "id": 45439277,
        "last_rank": 106259,
        "player_name": "Nilesh Surti",
        "rank": 80241,
        "rank_sort": 80547,
        "total": 2335
      },
      {
        "club_badge_src": null,
        "entry": 6070294,
        "entry_name": "Frank's favourites",
        "event_total": 76,
        "has_played": true,
        "id": 47917236,
        "last_rank": 132758,
        "player_name": "Nick Staddon",
        "rank": 80241,
        "rank_sort": 80548,
        "total": 2335
      },
      {
        "club_badge_src": null,
        "entry": 6079470,
        "entry_name": "Change Name",
        "event_total": 56,
        "has_played": true,
        "id": 47997655,
        "last_rank": 79817,
        "player_name": "Neil Frazer",
        "rank": 80241,
        "rank_sort": 80549,
        "total": 2335
      },
      {
        "club_badge_src": null,
        "entry": 6085600,
        "entry_name": "It's Getting Messi",
        "event_total": 68,
        "has_played": true,
        "id": 48051111,
        "last_rank": 108959,
        "player_name": "Devansh khanderia",
        "rank": 80241,
        "rank_sort": 80550,
        "total": 2335
      }
    ]
  }
}