{
  "last_updated_data": "2026-05-24T23:28:17Z",
  "league": {
    "admin_entry": null,
    "closed": false,
    "code_privacy": "p",
    "created": "2025-07-20T23:14:33.933835Z",
    "cup_league": 2815434,
    "has_cup": true,
    "id": 314,
    "league_type": "s",
    "max_entries": null,
    "name": "Overall",
    "rank": null,
    "scoring": "c",
    "start_event": 1
  },
  "new_entries": {
    "has_next": false,
    "page": 1,
    "results": []
  },
  "standings": {
    "has_next": true,
    "page": 788,
    "results": [
      {
        "club_badge_src": null,
        "entry": 3439091,
        "entry_name": "To the Moon",
        "event_total": 60,
        "has_played": true,
        "id": 25549635,
        "last_rank": 43342,
        "player_name": "James Israel",
        "rank": 39256,
        "rank_sort": 39351,
        "total": 2360
      },
      {
        "club_badge_src": null,
        "entry": 3447728,
        "entry_name": "Swad Style",
        "event_total": 48,
        "has_played": true,
        "id": 25617774,
        "last_rank": 29199,
        "player_name": "Greg McNeill",
        "rank": 39256,
        "rank_sort": 39352,
        "total": 2360
      },
      {
        "club_badge_src": null,
        "entry": 3478781,
        "entry_name": "Polish Mob",
        "event_total": 68,
        "has_played": true,
        "id": 25867120,
        "last_rank": 55311,
        "player_name": "Sebastian Polak",
        "rank": 39256,
        "rank_sort": 39353,
        "total": 2360
      },
      {
        "club_badge_src": null,
        "entry": 3625463,
        "entry_name": "naninjo9",
        "event_total": 60,
        "has_played": true,
        "id": 27013896,
        "last_rank": 38016,
        "player_name": "nace koprivnik",
        "rank": 39256,
        "rank_sort": 39354,
        "total": 2360
      },
      {
        "club_badge_src": null,
        "entry": 3626708,
        "entry_name": "CF Hazard",
        "event_total": 61,
        "has_played": true,
        "id": 27023655,
        "last_rank": 39246,
        "player_name": "Sarvana Sagundaran",
        "rank": 39256,
        "rank_sort": 39355,
        "total": 2360
      },
      {
        "club_badge_src": null,
        "entry": 3641150,
        "entry_name": "Hacunha Mateta",
        "event_total": 39,
        "has_played": true,
        "id": 27136237,
        "last_rank": 21392,
        "player_name": "Jacob Nilsen",
        "rank": 39256,
        "rank_sort": 39356,
        "total": 2360
      },
      {
        "club_badge_src": null,
        "entry": 3880395,
        "entry_name": "Hish's Superstars FC",
        "event_total": 68,
        "has_played": true,
        "id": 29156219,
        "last_rank": 55514,
        "player_name": "Hisham's Superstars",
        "rank": 39256,
        "rank_sort": 39357,
        "total": 2360
      },
      {
        "club_badge_src": null,
        "entry": 4136641,
        "entry_name": "pipo",
        "event_total": 52,
        "has_played": true,
        "id": 31261779,
        "last_rank": 33483,
        "player_name": "Saif Pipo",
        "rank": 39256,
        "rank_sort": 39358,
        "total": 2360
      },
      {
        "club_badge_src": null,
        "entry": 4431305,
        "entry_name": "League Winner",
        "event_total": 53,
        "has_played": true,
        "id": 33736242,
        "last_rank": 34682,
        "player_name": "Rahul Rauniyar",
        "rank": 39256,
        "rank_sort": 39359,
        "total": 2360
      },
      {
        "club_badge_src": null,
        "entry": 4460445,
        "entry_name": "SeblaUnited",
        "event_total": 75,
        "has_played": true,
        "id": 33981929,
        "last_rank": 59813,
        "player_name": "Sebastian Langfrits",
        "rank": 39256,
        "rank_sort": 39360,
        "total": 2360
      },
      {
        "club_badge_src": null,
        "entry": 4567643,
        "entry_name": "maxwhan",
        "event_total": 52,
        "has_played": true,
        "id": 34857141,
        "last_rank": 29071,
        "player_name": "Wutthichai Preechavetchkul",
        "rank": 39256,
        "rank_sort": 39361,
        "total": 2360
      },
      {
        "club_badge_src": null,
        "entry": 4979066,
        "entry_name": "Bruno Dos Tres",
        "event_total": 74,
        "has_played": true,
        "id": 38434102,
        "last_rank": 66057,
        "player_name": "Tim Hoyle",
        "rank": 39256,
        "rank_sort": 39362,
        "total": 2360
      },
      {
        "club_badge_src": null,
        "entry": 4999565,
        "entry_name": "hr",
        "event_total": 55,
        "has_played": true,
        "id": 38604353,
        "last_rank": 32190,
        "player_name": "Nicklas Philip Olsen",
        "rank": 39256,
        "rank_sort": 39363,
        "total": 2360
      },
      {
        "club_badge_src": null,
        "entry": 5024040,
        "entry_name": "Sportklubben",
        "event_total": 70,
        "has_played": true,
        "id": 38801228,
        "last_rank": 58911,
        "player_name": "Felix Hedquist",
        "rank": 39256,
        "rank_sort": 39364,
        "total": 2360
      },
      {
        "club_badge_src": null,
        "entry": 5196943,
        "entry_name": "4-4-2 Park The Bus",
        "event_total": 62,
        "has_played": true,
        "id": 40238707,
        "last_rank": 45927,
        "player_name": "Suman Ghosh",
        "rank": 39256,
        "rank_sort": 39365,
        "total": 2360
      },
      {
        "club_badge_src": "https://fantasy.premierleague.com/gcs/plfpl-production-adobe-approved/plfpl-production/5318998/b2553fb4-3fb2-45a0-aa57-f4c818a599ee.png",
        "entry": 5318998,
        "entry_name": "De Zerbi-nator",
        "event_total": 42,
        "has_played": true,
        "id": 41232690,
        "last_rank": 20538,
        "player_name": "ian spooner",
        "rank": 39256,
        "rank_sort": 39366,
        "total": 2360
      },
      {
        "club_badge_src": null,
        "entry": 5536403,
        "entry_name": "Change Name",
        "event_total": 40,
        "has_played": true,
        "id": 43196090,
        "last_rank": 22216,
        "player_name": "Eamon Enright",
        "rank": 39256,
        "rank_sort": 39367,
        "total": 2360
      },
      {
        "club_badge_src": "https://fantasy.premierleague.com/gcs/plfpl-production-adobe-approved/plfpl-production/5572479/c611f77a-2d61-43b0-a0ac-3ebae9c584e5.png",
        "entry": 5572479,
        "entry_name": "mabyo3a",
        "event_total": 68,
        "has_played": true,
        "id": 43515058,
        "last_rank": 55514,
        "player_name": "Omar Hosny",
        "rank": 39256,
        "rank_sort": 39368,
        "total": 2360
      },
      {
        "club_badge_src": null,
        "entry": 5697621,
        "entry_name": "bandawar wa7hsho \ufffd",
        "event_total": 62,
        "has_played": true,
        "id": 44607698,
        "last_rank": 40503,
        "player_name": "Bandawar Sardar",
        "rank": 39256,
        "rank_sort": 39369,
        "total": 2360
      },
      {
        "club_badge_src": null,
        "entry": 5731610,
        "entry_name": "Bowen Arrow",
        "event_total": 63,
        "has_played": true,
        "id": 44902103,
        "last_rank": 41824,
        "player_name": "Harry Power",
        "rank": 39256,
        "rank_sort": 39370,
        "total": 2360
      },
      {
        "club_badge_src": null,
        "entry": 5841137,
        "entry_name": "Beans on Tosin",
        "event_total": 66,
        "has_played": true,
        "id": 45852385,
        "last_rank": 52205,
        "player_name": "Zak Kingsford",
        "rank": 39256,
        "rank_sort": 39371,
        "total": 2360
      },
      {
        "club_badge_src": null,
        "entry": 6360451,
        "entry_name": "The Robbit",
        "event_total": 58,
        "has_played": true,
        "id": 50571468,
        "last_rank": 40503,
        "player_name": "Robert Alexander",
        "rank": 39256,
        "rank_sort": 39372,
        "total": 2360
      },
      {
        "club_badge_src": null,
        "entry": 6443238,
        "entry_name": "Wirtz Case Scenario",
        "event_total": 70,
        "has_played": true,
        "id": 51302720,
        "last_rank": 58911,
        "player_name": "Michael Vlas\u00e1k",
        "rank": 39256,
        "rank_sort": 39373,
        "total": 2360
      },
      {
        "club_badge_src": null,
        "entry": 6550641,
        "entry_name": "Belindas mushy peas",
        "event_total": 58,
        "has_played": true,
        "id": 52272960,
        "last_rank": 40647,
        "player_name": "John Taylor",
        "rank": 39256,
        "rank_sort": 39374,
        "total": 2360
      },
      {
        "club_badge_src": "https://fantasy.premierleague.com/gcs/plfpl-production-adobe-approved/plfpl-production/6724462/f10f7226-0f5a-48ff-b4d5-4fb07fef1a1c.png",
        "entry": 6724462,
        "entry_name": "Reijnder games",
        "event_total": 60,
        "has_played": true,
        "id": 53819819,
        "last_rank": 38016,
        "player_name": "Jon Cowie",
        "rank": 39256,
        "rank_sort": 39375,
        "total": 2360
      },
      {
        "club_badge_src": null,
        "entry": 6740292,
        "entry_name": "Timber and Mainoo",
        "event_total": 59,
        "has_played": true,
        "id": 53954379,
        "last_rank": 41967,
        "player_name": "peter mann",
        "rank": 39256,
        "rank_sort": 39376,
        "total": 2360
      },
      {
        "club_badge_src": null,
        "entry": 6759257,
        "entry_name": "pipped at the post",
        "event_total": 69,
        "has_played": true,
        "id": 54117007,
        "last_rank": 57001,
        "player_name": "Paul Crookes",
        "rank": 39256,
        "rank_sort": 39377,
        "total": 2360
      },
      {
        "club_badge_src": null,
        "entry": 7155352,
        "entry_name": "khalid MuN",
        "event_total": 46,
        "has_played": true,
        "id": 57706746,
        "last_rank": 27304,
        "player_name": "khalid mostafa",
        "rank": 39256,
        "rank_sort": 39378,
        "total": 2360
      },
      {
        "club_badge_src": null,
        "entry": 7179740,
        "entry_name": "H.J.F.C",
        "event_total": 62,
        "has_played": true,
        "id": 57943693,
        "last_rank": 40503,
        "player_name": "Harish Jagtap",
        "rank": 39256,
        "rank_sort": 39379,
        "total": 2360
      },
      {
        "club_badge_src": "https://fantasy.premierleague.com/gcs/plfpl-production-adobe-approved/plfpl-production/7185516/aba05e3a-d302-4d94-85a8-e80fd57da2a4.png",
        "entry": 7185516,
        "entry_name": "Souf05",
        "event_total": 67,
        "has_played": true,
        "id": 57997869,
        "last_rank": 53837,
        "player_name": "Soufian Ftich",
        "rank": 39256,
        "rank_sort": 39380,
        "total": 2360
      },
      {
        "club_badge_src": "https://fantasy.premierleague.com/gcs/plfpl-production-adobe-approved/plfpl-production/7390151/5dc5c4b1-a84b-4cee-98ce-f0c60dd4055b.png",
        "entry": 7390151,
        "entry_name": "JUDO FC",
        "event_total": 43,
        "has_played": true,
        "id": 59921175,
        "last_rank": 24570,
        "player_name": "Davi\u00f0 Kristj\u00e1nsson",
        "rank": 39256,
        "rank_sort": 39381,
        "total": 2360
      },
      {
        "club_badge_src": null,
        "entry": 7465287,
        "entry_name": "just hits no misses",
        "event_total": 55,
        "has_played": true,
        "id": 60833905,
        "last_rank": 27976,
        "player_name": "Mahmoud Ali",
        "rank": 39256,
        "rank_sort": 39382,
        "total": 2360
      },
      {
        "club_badge_src": null,
        "entry": 7620875,
        "entry_name": "Football Nomad",
        "event_total": 66,
        "has_played": true,
        "id": 62454846,
        "last_rank": 45927,
        "player_name": "Sadat Shahid",
        "rank": 39256,
        "rank_sort": 39383,
        "total": 2360
      },
      {
        "club_badge_src": null,
        "entry": 7623086,
        "entry_name": "chabab l3wina",
        "event_total": 45,
        "has_played": true,
        "id": 62474550,
        "last_rank": 22830,
        "player_name": "SAID ATMARI",
        "rank": 39256,
        "rank_sort": 39384,
        "total": 2360
      },
      {
        "club_badge_src": null,
        "entry": 7711629,
        "entry_name": "Xhakaboom",
        "event_total": 68,
        "has_played": true,
        "id": 63275122,
        "last_rank": 55311,
        "player_name": "Rinor Zeqiri",
        "rank": 39256,
        "rank_sort": 39385,
        "total": 2360
      },
      {
        "club_badge_src": null,
        "entry": 7722765,
        "entry_name": "Bu Bisher",
        "event_total": 31,
        "has_played": true,
        "id": 63375933,
        "last_rank": 15797,
        "player_name": "Ahmd B",
        "rank": 39256,
        "rank_sort": 39386,
        "total": 2360
      },
      {
        "club_badge_src": null,
        "entry": 7762413,
        "entry_name": "aka75013",
        "event_total": 65,
        "has_played": true,
        "id": 63734841,
        "last_rank": 44525,
        "player_name": "Achraf Akazane",
        "rank": 39256,
        "rank_sort": 39387,
        "total": 2360
      },
      {
        "club_badge_src": null,
        "entry": 7895752,
        "entry_name": "Tiara-fying OPS Fc",
        "event_total": 64,
        "has_played": true,
        "id": 64949179,
        "last_rank": 49078,
        "player_name": "Mamba Mambacita",
        "rank": 39256,
        "rank_sort": 39388,
        "total": 2360
      },
      {
        "club_badge_src": null,
        "entry": 8202375,
        "entry_name": "Martinez_FC",
        "event_total": 66,
        "has_played": true,
        "id": 67762873,
        "last_rank": 40036,
        "player_name": "Anthony Martinez",
        "rank": 39256,
        "rank_sort": 39389,
        "total": 2360
      },
      {
        "club_badge_src": "https://fantasy.premierleague.com/gcs/plfpl-production-adobe-approved/plfpl-production/8319093/20e9e0b9-fc97-4bf9-be99-e677d028013d.png",
        "entry": 8319093,
        "entry_name": "Jan'nicked me Monga",
        "event_total": 64,
        "has_played": true,
        "id": 68910475,
        "last_rank": 48898,
        "player_name": "Will Marshall",
        "rank": 39256,
        "rank_sort": 39390,
        "total": 2360
      },
      {
        "club_badge_src": null,
        "entry": 8357708,
        "entry_name": "PFC",
        "event_total": 51,
        "has_played": true,
        "id": 69275891,
        "last_rank": 32437,
        "player_name": "Parvind Tamil",
        "rank": 39256,
        "rank_sort": 39391,
        "total": 2360
      },
      {
        "club_badge_src": null,
        "entry": 8414860,
        "entry_name": "wowgr8",
        "event_total": 71,
        "has_played": true,
        "id": 69817122,
        "last_rank": 60671,
        "player_name": "korporite bidness",
        "rank": 39256,
        "rank_sort": 39392,
        "total": 2360
      },
      {
        "club_badge_src": null,
        "entry": 8623324,
        "entry_name": "foosil",
        "event_total": 63,
        "has_played": true,
        "id": 71823787,
        "last_rank": 41824,
        "player_name": "M02 039",
        "rank": 39256,
        "rank_sort": 39393,
        "total": 2360
      },
      {
        "club_badge_src": null,
        "entry": 8815992,
        "entry_name": "Smartti United",
        "event_total": 70,
        "has_played": true,
        "id": 73698016,
        "last_rank": 51984,
        "player_name": "Matti Artimo",
        "rank": 39256,
        "rank_sort": 39394,
        "total": 2360
      },
      {
        "club_badge_src": null,
        "entry": 8819097,
        "entry_name": "50 Shades O'Shea",
        "event_total": 74,
        "has_played": true,
        "id": 73727762,
        "last_rank": 66200,
        "player_name": "Owen McCrea",
        "rank": 39256,
        "rank_sort": 39395,
        "total": 2360
      },
      {
        "club_badge_src": null,
        "entry": 8973269,
        "entry_name": "PASS THE FANNE",
        "event_total": 71,
        "has_played": true,
        "id": 75223698,
        "last_rank": 53345,
        "player_name": "Jamie Ayres",
        "rank": 39256,
        "rank_sort": 39396,
        "total": 2360
      },
      {
        "club_badge_src": null,
        "entry": 9229777,
        "entry_name": "Copy Cats XI",
        "event_total": 68,
        "has_played": true,
        "id": 77725986,
        "last_rank": 55014,
        "player_name": "Naman Abhimanyu",
        "rank": 39256,
        "rank_sort": 39397,
        "total": 2360
      },
      {
        "club_badge_src": null,
        "entry": 9259480,
        "entry_name": "Wirtz Case Scenario",
        "event_total": 73,
        "has_played": true,
        "id": 78014949,
        "last_rank": 64005,
        "player_name": "Saeed D",
        "rank": 39256,
        "rank_sort": 39398,
        "total": 2360
      },
      {
        "club_badge_src": "https://fantasy.premierleague.com/gcs/plfpl-production-adobe-approved/plfpl-production/11928/f900a649-28de-462d-b36b-1899b8215372.png",
        "entry": 11928,
        "entry_name": "Tractor Boys ***",
        "event_total": 59,
        "has_played": true,
        "id": 71151,
        "last_rank": 42081,
        "player_name": "Warren Cray",
        "rank": 39399,
        "rank_sort": 39399,
        "total": 2360
      },
      {
        "club_badge_src": null,
        "entry": 13499,
        "entry_name": "Monkey Island FC",
        "event_total": 62,
        "has_played": true,
        "id": 81583,
        "last_rank": 40647,
        "player_name": "Rory Cartwright",
        "rank": 39399,
        "rank_sort": 39400,
        "total": 2360
      }
    ]
  }
}