{
  "last_updated_data": "2026-05-24T23:28:17Z",
  "league": {
    "admin_entry": null,
    "closed": false,
    "code_privacy": "p",
    "created": "2025-07-20T23:14:33.933835Z",
    "cup_league": 2815434,
    "has_cup": true,
    "id": 314,
    "league_type": "s",
    "max_entries": null,
    "name": "Overall",
    "rank": null,
    "scoring": "c",
    "start_event": 1
  },
  "new_entries": {
    "has_next": false,
    "page": 1,
    "results": []
  },
  "standings": {
    "has_next": true,
    "page": 739,
    "results": [
      {
        "club_badge_src": null,
        "entry": 6935947,
        "entry_name": "SK Smoggie",
        "event_total": 67,
        "has_played": true,
        "id": 55605776,
        "last_rank": 50468,
        "player_name": "Chris Morris",
        "rank": 36729,
        "rank_sort": 36901,
        "total": 2362
      },
      {
        "club_badge_src": null,
        "entry": 7020114,
        "entry_name": "Salahbration",
        "event_total": 55,
        "has_played": true,
        "id": 56388531,
        "last_rank": 34051,
        "player_name": "Taha Memon",
        "rank": 36729,
        "rank_sort": 36902,
        "total": 2362
      },
      {
        "club_badge_src": "https://fantasy.premierleague.com/gcs/plfpl-production-adobe-approved/plfpl-production/7020472/af1d59dd-b0db-4c25-bf5d-3e7c509426f7.png",
        "entry": 7020472,
        "entry_name": "Pro Evolution Saka",
        "event_total": 54,
        "has_played": true,
        "id": 56391921,
        "last_rank": 33332,
        "player_name": "Youtube FPL TheEnglishAussie",
        "rank": 36729,
        "rank_sort": 36903,
        "total": 2362
      },
      {
        "club_badge_src": null,
        "entry": 7094903,
        "entry_name": "Habbi",
        "event_total": 37,
        "has_played": true,
        "id": 57127581,
        "last_rank": 18377,
        "player_name": "Erik Havnen Ullsfoss",
        "rank": 36729,
        "rank_sort": 36904,
        "total": 2362
      },
      {
        "club_badge_src": null,
        "entry": 7225398,
        "entry_name": "Seb Ts tropper",
        "event_total": 45,
        "has_played": true,
        "id": 58372684,
        "last_rank": 24475,
        "player_name": "Sebastian Oliver Skovbro Thomas",
        "rank": 36729,
        "rank_sort": 36905,
        "total": 2362
      },
      {
        "club_badge_src": null,
        "entry": 7255512,
        "entry_name": "GG",
        "event_total": 65,
        "has_played": true,
        "id": 58658365,
        "last_rank": 47417,
        "player_name": "Gabriel Franz\u00e9n",
        "rank": 36729,
        "rank_sort": 36906,
        "total": 2362
      },
      {
        "club_badge_src": "https://fantasy.premierleague.com/gcs/plfpl-production-adobe-approved/plfpl-production/7366761/e931e794-730d-4e53-9f1a-fd008cda0a40.png",
        "entry": 7366761,
        "entry_name": "Atl\u00e9tico Keyser S\u00f6ze",
        "event_total": 60,
        "has_played": true,
        "id": 59704762,
        "last_rank": 30727,
        "player_name": "Kevin Gorman",
        "rank": 36729,
        "rank_sort": 36907,
        "total": 2362
      },
      {
        "club_badge_src": null,
        "entry": 7465370,
        "entry_name": "50 shades of Gray",
        "event_total": 55,
        "has_played": true,
        "id": 60835109,
        "last_rank": 34293,
        "player_name": "daniel haase",
        "rank": 36729,
        "rank_sort": 36908,
        "total": 2362
      },
      {
        "club_badge_src": null,
        "entry": 7677579,
        "entry_name": "Legally Blonde",
        "event_total": 65,
        "has_played": true,
        "id": 62969684,
        "last_rank": 46660,
        "player_name": "Emilie Grimstad",
        "rank": 36729,
        "rank_sort": 36909,
        "total": 2362
      },
      {
        "club_badge_src": null,
        "entry": 7761902,
        "entry_name": "Team Rocket",
        "event_total": 65,
        "has_played": true,
        "id": 63730348,
        "last_rank": 47417,
        "player_name": "Geir Sandal",
        "rank": 36729,
        "rank_sort": 36910,
        "total": 2362
      },
      {
        "club_badge_src": null,
        "entry": 7965621,
        "entry_name": "Lympalong 11",
        "event_total": 65,
        "has_played": true,
        "id": 65579905,
        "last_rank": 36348,
        "player_name": "Lynn Moir",
        "rank": 36729,
        "rank_sort": 36911,
        "total": 2362
      },
      {
        "club_badge_src": null,
        "entry": 8080372,
        "entry_name": "Medusa's Tackle",
        "event_total": 75,
        "has_played": true,
        "id": 66618724,
        "last_rank": 64190,
        "player_name": "Vangeli Voudouris",
        "rank": 36729,
        "rank_sort": 36912,
        "total": 2362
      },
      {
        "club_badge_src": null,
        "entry": 8287021,
        "entry_name": "Ndiaye Hard",
        "event_total": 74,
        "has_played": true,
        "id": 68575274,
        "last_rank": 62429,
        "player_name": "Owen Seago",
        "rank": 36729,
        "rank_sort": 36913,
        "total": 2362
      },
      {
        "club_badge_src": "https://fantasy.premierleague.com/gcs/plfpl-production-adobe-approved/plfpl-production/8702092/16553f6e-d7c2-4133-8525-b8946c3172a0.png",
        "entry": 8702092,
        "entry_name": "Langballe FC",
        "event_total": 44,
        "has_played": true,
        "id": 72599250,
        "last_rank": 23656,
        "player_name": "Gustav Langballe",
        "rank": 36729,
        "rank_sort": 36914,
        "total": 2362
      },
      {
        "club_badge_src": null,
        "entry": 8759956,
        "entry_name": "Lenes lag",
        "event_total": 43,
        "has_played": true,
        "id": 73158051,
        "last_rank": 22685,
        "player_name": "Lene Fikstvedt",
        "rank": 36729,
        "rank_sort": 36915,
        "total": 2362
      },
      {
        "club_badge_src": null,
        "entry": 8969224,
        "entry_name": "zeus11",
        "event_total": 56,
        "has_played": true,
        "id": 75185364,
        "last_rank": 35768,
        "player_name": "Nihar Shah",
        "rank": 36729,
        "rank_sort": 36916,
        "total": 2362
      },
      {
        "club_badge_src": null,
        "entry": 9127867,
        "entry_name": "Pure Saint",
        "event_total": 74,
        "has_played": true,
        "id": 76725808,
        "last_rank": 61950,
        "player_name": "Pure Saint",
        "rank": 36729,
        "rank_sort": 36917,
        "total": 2362
      },
      {
        "club_badge_src": null,
        "entry": 9193090,
        "entry_name": "Set n Forget",
        "event_total": 56,
        "has_played": true,
        "id": 77366058,
        "last_rank": 35166,
        "player_name": "Muhammad Ikhsan Al-Farraby",
        "rank": 36729,
        "rank_sort": 36918,
        "total": 2362
      },
      {
        "club_badge_src": null,
        "entry": 9225937,
        "entry_name": "Sloths FC",
        "event_total": 46,
        "has_played": true,
        "id": 77688105,
        "last_rank": 25330,
        "player_name": "maddie winchester",
        "rank": 36729,
        "rank_sort": 36919,
        "total": 2362
      },
      {
        "club_badge_src": null,
        "entry": 9234865,
        "entry_name": "lastminute.com",
        "event_total": 65,
        "has_played": true,
        "id": 77775474,
        "last_rank": 47163,
        "player_name": "Luke Tavener",
        "rank": 36729,
        "rank_sort": 36920,
        "total": 2362
      },
      {
        "club_badge_src": "https://fantasy.premierleague.com/gcs/plfpl-production-adobe-approved/plfpl-production/10232868/87fdb216-ec6f-464a-9698-020fedb31f3b.png",
        "entry": 10232868,
        "entry_name": "Bulga club",
        "event_total": 60,
        "has_played": true,
        "id": 86666212,
        "last_rank": 40647,
        "player_name": "Quit Zal",
        "rank": 36729,
        "rank_sort": 36921,
        "total": 2362
      },
      {
        "club_badge_src": "https://fantasy.premierleague.com/gcs/plfpl-production-adobe-approved/plfpl-production/22829/808851e3-60bc-44c9-a6e5-d24201455153.png",
        "entry": 22829,
        "entry_name": "Literally Mikey",
        "event_total": 67,
        "has_played": true,
        "id": 143528,
        "last_rank": 50635,
        "player_name": "Michael Keogh",
        "rank": 36922,
        "rank_sort": 36922,
        "total": 2362
      },
      {
        "club_badge_src": null,
        "entry": 31251,
        "entry_name": "Hoopty Dinkman FC",
        "event_total": 56,
        "has_played": true,
        "id": 197998,
        "last_rank": 35768,
        "player_name": "Alex Herlich",
        "rank": 36922,
        "rank_sort": 36923,
        "total": 2362
      },
      {
        "club_badge_src": null,
        "entry": 54608,
        "entry_name": "Backstreet Moyes",
        "event_total": 57,
        "has_played": true,
        "id": 351473,
        "last_rank": 36963,
        "player_name": "Justin Weaver",
        "rank": 36922,
        "rank_sort": 36924,
        "total": 2362
      },
      {
        "club_badge_src": null,
        "entry": 58475,
        "entry_name": "Easy Money",
        "event_total": 55,
        "has_played": true,
        "id": 376644,
        "last_rank": 34458,
        "player_name": "Alex Taylor",
        "rank": 36922,
        "rank_sort": 36925,
        "total": 2362
      },
      {
        "club_badge_src": null,
        "entry": 62159,
        "entry_name": "Godzilla Minus 4",
        "event_total": 76,
        "has_played": true,
        "id": 400551,
        "last_rank": 66057,
        "player_name": "Fitriandika Nugraha",
        "rank": 36922,
        "rank_sort": 36926,
        "total": 2362
      },
      {
        "club_badge_src": "https://fantasy.premierleague.com/gcs/plfpl-production-adobe-approved/plfpl-production/78786/b28d70cf-4ac0-40b8-9422-2682bd1843c3.png",
        "entry": 78786,
        "entry_name": "Pigs on trampolines",
        "event_total": 53,
        "has_played": true,
        "id": 512239,
        "last_rank": 32335,
        "player_name": "Jordan Wells",
        "rank": 36922,
        "rank_sort": 36927,
        "total": 2362
      },
      {
        "club_badge_src": null,
        "entry": 79483,
        "entry_name": "TeamRaheem",
        "event_total": 68,
        "has_played": true,
        "id": 516947,
        "last_rank": 35166,
        "player_name": "Ville Norrman",
        "rank": 36922,
        "rank_sort": 36928,
        "total": 2362
      },
      {
        "club_badge_src": null,
        "entry": 145126,
        "entry_name": "Crystal Palajs",
        "event_total": 75,
        "has_played": true,
        "id": 950295,
        "last_rank": 50199,
        "player_name": "Jurica Palajsa",
        "rank": 36922,
        "rank_sort": 36929,
        "total": 2362
      },
      {
        "club_badge_src": null,
        "entry": 186359,
        "entry_name": "50 Shades of O\u2019Shea",
        "event_total": 60,
        "has_played": true,
        "id": 1231603,
        "last_rank": 40647,
        "player_name": "Brad Pfeifer",
        "rank": 36922,
        "rank_sort": 36930,
        "total": 2362
      },
      {
        "club_badge_src": null,
        "entry": 192267,
        "entry_name": "Edvins Grabbar",
        "event_total": 53,
        "has_played": true,
        "id": 1273861,
        "last_rank": 31995,
        "player_name": "Edvin Barck",
        "rank": 36922,
        "rank_sort": 36931,
        "total": 2362
      },
      {
        "club_badge_src": null,
        "entry": 242627,
        "entry_name": "Disarsenal",
        "event_total": 57,
        "has_played": true,
        "id": 1615391,
        "last_rank": 36348,
        "player_name": "Theodore Kapetanios",
        "rank": 36922,
        "rank_sort": 36932,
        "total": 2362
      },
      {
        "club_badge_src": "https://fantasy.premierleague.com/gcs/plfpl-production-adobe-approved/plfpl-production/259251/7f7d1091-1c01-4fa7-81ee-a4320febe16b.png",
        "entry": 259251,
        "entry_name": "U-Beam A-team",
        "event_total": 51,
        "has_played": true,
        "id": 1723685,
        "last_rank": 30060,
        "player_name": "Michael Allan",
        "rank": 36922,
        "rank_sort": 36933,
        "total": 2362
      },
      {
        "club_badge_src": null,
        "entry": 261494,
        "entry_name": "FreitasLobices",
        "event_total": 65,
        "has_played": true,
        "id": 1738315,
        "last_rank": 47596,
        "player_name": "Bruno Costa",
        "rank": 36922,
        "rank_sort": 36934,
        "total": 2362
      },
      {
        "club_badge_src": null,
        "entry": 271247,
        "entry_name": "sir Azzam",
        "event_total": 55,
        "has_played": true,
        "id": 1804526,
        "last_rank": 34458,
        "player_name": "Azzam Altamimi",
        "rank": 36922,
        "rank_sort": 36935,
        "total": 2362
      },
      {
        "club_badge_src": null,
        "entry": 279744,
        "entry_name": "NotGotAPostecoglou",
        "event_total": 76,
        "has_played": true,
        "id": 1861877,
        "last_rank": 65796,
        "player_name": "Olly Lindars",
        "rank": 36922,
        "rank_sort": 36936,
        "total": 2362
      },
      {
        "club_badge_src": null,
        "entry": 282912,
        "entry_name": "Real Kjeller",
        "event_total": 57,
        "has_played": true,
        "id": 1883309,
        "last_rank": 36963,
        "player_name": "Jonas Skaarer",
        "rank": 36922,
        "rank_sort": 36937,
        "total": 2362
      },
      {
        "club_badge_src": null,
        "entry": 319127,
        "entry_name": "Chocolate",
        "event_total": 61,
        "has_played": true,
        "id": 2139215,
        "last_rank": 41824,
        "player_name": "Jar Jar",
        "rank": 36922,
        "rank_sort": 36938,
        "total": 2362
      },
      {
        "club_badge_src": null,
        "entry": 357163,
        "entry_name": "42 Galaxy",
        "event_total": 62,
        "has_played": true,
        "id": 2390175,
        "last_rank": 43168,
        "player_name": "Phoe Htoo",
        "rank": 36922,
        "rank_sort": 36939,
        "total": 2362
      },
      {
        "club_badge_src": null,
        "entry": 388068,
        "entry_name": "KFC",
        "event_total": 65,
        "has_played": true,
        "id": 2603362,
        "last_rank": 47596,
        "player_name": "Khaled Elsayed",
        "rank": 36922,
        "rank_sort": 36940,
        "total": 2362
      },
      {
        "club_badge_src": null,
        "entry": 400588,
        "entry_name": "Southwell City",
        "event_total": 55,
        "has_played": true,
        "id": 2686219,
        "last_rank": 34578,
        "player_name": "Dayle southwell",
        "rank": 36922,
        "rank_sort": 36941,
        "total": 2362
      },
      {
        "club_badge_src": null,
        "entry": 520000,
        "entry_name": "Wirtz Team Ever",
        "event_total": 59,
        "has_played": true,
        "id": 3491806,
        "last_rank": 39246,
        "player_name": "Luca Mitchell",
        "rank": 36922,
        "rank_sort": 36942,
        "total": 2362
      },
      {
        "club_badge_src": null,
        "entry": 586434,
        "entry_name": "AGS FC",
        "event_total": 54,
        "has_played": true,
        "id": 3946684,
        "last_rank": 33483,
        "player_name": "ARUWE GBENGA STITCHES \ud83e\udea1\u2702\ufe0f",
        "rank": 36922,
        "rank_sort": 36943,
        "total": 2362
      },
      {
        "club_badge_src": null,
        "entry": 604135,
        "entry_name": "GGG",
        "event_total": 45,
        "has_played": true,
        "id": 4078131,
        "last_rank": 21159,
        "player_name": "Gilad Levy",
        "rank": 36922,
        "rank_sort": 36944,
        "total": 2362
      },
      {
        "club_badge_src": null,
        "entry": 619569,
        "entry_name": "No 1",
        "event_total": 60,
        "has_played": true,
        "id": 4186807,
        "last_rank": 30957,
        "player_name": "ben branson",
        "rank": 36922,
        "rank_sort": 36945,
        "total": 2362
      },
      {
        "club_badge_src": "https://fantasy.premierleague.com/gcs/plfpl-production-adobe-approved/plfpl-production/620789/9eadb4cd-5d4a-4677-beb8-6407ccc22e53.png",
        "entry": 620789,
        "entry_name": "The Magnates",
        "event_total": 66,
        "has_played": true,
        "id": 4195303,
        "last_rank": 43168,
        "player_name": "Wojciech Bilicz",
        "rank": 36922,
        "rank_sort": 36946,
        "total": 2362
      },
      {
        "club_badge_src": null,
        "entry": 627253,
        "entry_name": "FC Bolk\u00f3w Piast HM",
        "event_total": 65,
        "has_played": true,
        "id": 4238698,
        "last_rank": 41617,
        "player_name": "Dawid Partyka",
        "rank": 36922,
        "rank_sort": 36947,
        "total": 2362
      },
      {
        "club_badge_src": "https://fantasy.premierleague.com/gcs/plfpl-production-adobe-approved/plfpl-production/632657/7d4ab3f2-4f7c-4303-b046-992154e874b7.png",
        "entry": 632657,
        "entry_name": "Club Qurnation",
        "event_total": 70,
        "has_played": true,
        "id": 4274830,
        "last_rank": 48898,
        "player_name": "Taufiq Rahman",
        "rank": 36922,
        "rank_sort": 36948,
        "total": 2362
      },
      {
        "club_badge_src": "https://fantasy.premierleague.com/gcs/plfpl-production-adobe-approved/plfpl-production/684485/30f47149-d64b-4ba2-a3c2-65c73cf558ad.png",
        "entry": 684485,
        "entry_name": "Bayern Bru",
        "event_total": 58,
        "has_played": true,
        "id": 4632970,
        "last_rank": 38016,
        "player_name": "Bob Holmes",
        "rank": 36922,
        "rank_sort": 36949,
        "total": 2362
      },
      {
        "club_badge_src": "https://fantasy.premierleague.com/gcs/plfpl-production-adobe-approved/plfpl-production/731969/6beafa3e-a011-4ead-a4b7-9b6360077e11.png",
        "entry": 731969,
        "entry_name": "Smooth Jiminal",
        "event_total": 58,
        "has_played": true,
        "id": 4973977,
        "last_rank": 38163,
        "player_name": "James McCullough",
        "rank": 36922,
        "rank_sort": 36950,
        "total": 2362
      }
    ]
  }
}