{
  "last_updated_data": "2026-05-24T23:28:17Z",
  "league": {
    "admin_entry": null,
    "closed": false,
    "code_privacy": "p",
    "created": "2025-07-20T23:14:33.933835Z",
    "cup_league": 2815434,
    "has_cup": true,
    "id": 314,
    "league_type": "s",
    "max_entries": null,
    "name": "Overall",
    "rank": null,
    "scoring": "c",
    "start_event": 1
  },
  "new_entries": {
    "has_next": false,
    "page": 1,
    "results": []
  },
  "standings": {
    "has_next": true,
    "page": 539,
    "results": [
      {
        "club_badge_src": null,
        "entry": 142356,
        "entry_name": "Kobbie-Wan Kenobi",
        "event_total": 71,
        "has_played": true,
        "id": 930658,
        "last_rank": 37211,
        "player_name": "Daniel Crabb",
        "rank": 26899,
        "rank_sort": 26901,
        "total": 2372
      },
      {
        "club_badge_src": "https://fantasy.premierleague.com/gcs/plfpl-production-adobe-approved/plfpl-production/1185215/06cf128f-b568-44ad-be01-11cd0c465cf1.png",
        "entry": 1185215,
        "entry_name": "FC Bez Formy",
        "event_total": 62,
        "has_played": true,
        "id": 8223357,
        "last_rank": 31448,
        "player_name": "Patryk \u0141aszcz",
        "rank": 26899,
        "rank_sort": 26902,
        "total": 2372
      },
      {
        "club_badge_src": null,
        "entry": 1272875,
        "entry_name": "Schaffhausen FC",
        "event_total": 59,
        "has_played": true,
        "id": 8844446,
        "last_rank": 28466,
        "player_name": "Jack Sutton",
        "rank": 26899,
        "rank_sort": 26903,
        "total": 2372
      },
      {
        "club_badge_src": "https://fantasy.premierleague.com/gcs/plfpl-production-adobe-approved/plfpl-production/1796026/0a4f439f-33fa-43fe-baa7-a20444fb42dc.png",
        "entry": 1796026,
        "entry_name": "Tur\u010din FK",
        "event_total": 59,
        "has_played": true,
        "id": 12621279,
        "last_rank": 24735,
        "player_name": "Ramiz Ozer",
        "rank": 26899,
        "rank_sort": 26904,
        "total": 2372
      },
      {
        "club_badge_src": null,
        "entry": 4043034,
        "entry_name": "MOREBEVERTON",
        "event_total": 56,
        "has_played": true,
        "id": 30491877,
        "last_rank": 22309,
        "player_name": "Paul Hozack",
        "rank": 26899,
        "rank_sort": 26905,
        "total": 2372
      },
      {
        "club_badge_src": null,
        "entry": 4570249,
        "entry_name": "Hogan's Heroes",
        "event_total": 69,
        "has_played": true,
        "id": 34878450,
        "last_rank": 39673,
        "player_name": "Luke Hogan",
        "rank": 26899,
        "rank_sort": 26906,
        "total": 2372
      },
      {
        "club_badge_src": "https://fantasy.premierleague.com/gcs/plfpl-production-adobe-approved/plfpl-production/5111642/765dff00-21a6-46ff-8e73-1e14300db57a.png",
        "entry": 5111642,
        "entry_name": "yacine on one",
        "event_total": 73,
        "has_played": true,
        "id": 39517027,
        "last_rank": 45007,
        "player_name": "Yacine Mca",
        "rank": 26899,
        "rank_sort": 26907,
        "total": 2372
      },
      {
        "club_badge_src": null,
        "entry": 5179549,
        "entry_name": "Amadou what I do",
        "event_total": 66,
        "has_played": true,
        "id": 40091391,
        "last_rank": 31371,
        "player_name": "Constable Makope",
        "rank": 26899,
        "rank_sort": 26908,
        "total": 2372
      },
      {
        "club_badge_src": null,
        "entry": 5446303,
        "entry_name": "Khaled",
        "event_total": 56,
        "has_played": true,
        "id": 42377246,
        "last_rank": 22309,
        "player_name": "Khaled Alotaibi",
        "rank": 26899,
        "rank_sort": 26909,
        "total": 2372
      },
      {
        "club_badge_src": null,
        "entry": 5796966,
        "entry_name": "Saka Spuds",
        "event_total": 66,
        "has_played": true,
        "id": 45472572,
        "last_rank": 36015,
        "player_name": "Danny McAleer",
        "rank": 26899,
        "rank_sort": 26910,
        "total": 2372
      },
      {
        "club_badge_src": null,
        "entry": 6966444,
        "entry_name": "Test",
        "event_total": 67,
        "has_played": true,
        "id": 55874989,
        "last_rank": 32552,
        "player_name": "Akshay Melwani",
        "rank": 26899,
        "rank_sort": 26911,
        "total": 2372
      },
      {
        "club_badge_src": null,
        "entry": 7916927,
        "entry_name": "Mighty Whites XI",
        "event_total": 53,
        "has_played": true,
        "id": 65141497,
        "last_rank": 23110,
        "player_name": "Steve Taylor",
        "rank": 26899,
        "rank_sort": 26912,
        "total": 2372
      },
      {
        "club_badge_src": null,
        "entry": 8274405,
        "entry_name": "Mark no Balls",
        "event_total": 58,
        "has_played": true,
        "id": 68455531,
        "last_rank": 27480,
        "player_name": "Rohan Boyd",
        "rank": 26899,
        "rank_sort": 26913,
        "total": 2372
      },
      {
        "club_badge_src": "https://fantasy.premierleague.com/gcs/plfpl-production-adobe-approved/plfpl-production/9075854/5bd4bdc8-6c2f-4e70-a133-566f50f6bcf4.png",
        "entry": 9075854,
        "entry_name": "Thakuru FC",
        "event_total": 66,
        "has_played": true,
        "id": 76215250,
        "last_rank": 31437,
        "player_name": "Ali Sam'aan Ibrahim",
        "rank": 26899,
        "rank_sort": 26914,
        "total": 2372
      },
      {
        "club_badge_src": null,
        "entry": 96756,
        "entry_name": "sijjjjj",
        "event_total": 56,
        "has_played": true,
        "id": 632043,
        "last_rank": 22325,
        "player_name": "Sajjad Omid",
        "rank": 26915,
        "rank_sort": 26915,
        "total": 2372
      },
      {
        "club_badge_src": null,
        "entry": 188444,
        "entry_name": "KochamPiwo",
        "event_total": 89,
        "has_played": true,
        "id": 1246742,
        "last_rank": 57557,
        "player_name": "Ludwik Moraczynski",
        "rank": 26915,
        "rank_sort": 26916,
        "total": 2372
      },
      {
        "club_badge_src": null,
        "entry": 210321,
        "entry_name": "Wirtz Case Scenario",
        "event_total": 45,
        "has_played": true,
        "id": 1398733,
        "last_rank": 17275,
        "player_name": "Nicholas Clarke",
        "rank": 26915,
        "rank_sort": 26917,
        "total": 2372
      },
      {
        "club_badge_src": null,
        "entry": 777932,
        "entry_name": "Gladiators",
        "event_total": 44,
        "has_played": true,
        "id": 5308108,
        "last_rank": 12056,
        "player_name": "Ahmed Kassem",
        "rank": 26915,
        "rank_sort": 26918,
        "total": 2372
      },
      {
        "club_badge_src": "https://fantasy.premierleague.com/gcs/plfpl-production-adobe-approved/plfpl-production/3847279/b3d1e125-555b-49bf-a85d-5f6507e44b4f.png",
        "entry": 3847279,
        "entry_name": "Athletic Bilben",
        "event_total": 101,
        "has_played": true,
        "id": 28837493,
        "last_rank": 80965,
        "player_name": "Benjamin Patrick",
        "rank": 26915,
        "rank_sort": 26919,
        "total": 2372
      },
      {
        "club_badge_src": null,
        "entry": 4870650,
        "entry_name": "The Wenger Boys",
        "event_total": 74,
        "has_played": true,
        "id": 37542407,
        "last_rank": 40923,
        "player_name": "Jack Welsh",
        "rank": 26915,
        "rank_sort": 26920,
        "total": 2372
      },
      {
        "club_badge_src": null,
        "entry": 5463726,
        "entry_name": "Spinal",
        "event_total": 60,
        "has_played": true,
        "id": 42522289,
        "last_rank": 29419,
        "player_name": "Z z",
        "rank": 26915,
        "rank_sort": 26921,
        "total": 2372
      },
      {
        "club_badge_src": null,
        "entry": 9149566,
        "entry_name": "Zubby Fc.",
        "event_total": 71,
        "has_played": true,
        "id": 76936403,
        "last_rank": 37236,
        "player_name": "izuchukwu nwolu",
        "rank": 26915,
        "rank_sort": 26922,
        "total": 2372
      },
      {
        "club_badge_src": null,
        "entry": 258472,
        "entry_name": "Stompe FC",
        "event_total": 62,
        "has_played": true,
        "id": 1718698,
        "last_rank": 27499,
        "player_name": "Robert Julian",
        "rank": 26923,
        "rank_sort": 26923,
        "total": 2372
      },
      {
        "club_badge_src": null,
        "entry": 643744,
        "entry_name": "K\u00f6ln Kickers*",
        "event_total": 65,
        "has_played": true,
        "id": 4350560,
        "last_rank": 34874,
        "player_name": "Rupert Booth",
        "rank": 26923,
        "rank_sort": 26924,
        "total": 2372
      },
      {
        "club_badge_src": null,
        "entry": 772176,
        "entry_name": "The Molly",
        "event_total": 60,
        "has_played": true,
        "id": 5267943,
        "last_rank": 25653,
        "player_name": "Kensington Fields F.C",
        "rank": 26923,
        "rank_sort": 26925,
        "total": 2372
      },
      {
        "club_badge_src": null,
        "entry": 874790,
        "entry_name": "\u062a\u064a\u0645 \u062e\u0644\u064a\u0647\u0627 \u0639\u0644\u064a \u0627\u0644\u0644\u0647",
        "event_total": 72,
        "has_played": true,
        "id": 5997485,
        "last_rank": 38448,
        "player_name": "Osman Saka",
        "rank": 26923,
        "rank_sort": 26926,
        "total": 2372
      },
      {
        "club_badge_src": null,
        "entry": 1389631,
        "entry_name": "MPM utd.",
        "event_total": 59,
        "has_played": true,
        "id": 9666278,
        "last_rank": 28480,
        "player_name": "jum jump",
        "rank": 26923,
        "rank_sort": 26927,
        "total": 2372
      },
      {
        "club_badge_src": null,
        "entry": 1504633,
        "entry_name": "AodAd",
        "event_total": 75,
        "has_played": true,
        "id": 10493491,
        "last_rank": 37236,
        "player_name": "Aod Bunlue",
        "rank": 26923,
        "rank_sort": 26928,
        "total": 2372
      },
      {
        "club_badge_src": null,
        "entry": 1722030,
        "entry_name": "Show park",
        "event_total": 74,
        "has_played": true,
        "id": 12069804,
        "last_rank": 36015,
        "player_name": "Samuel Hrub\u0161a",
        "rank": 26923,
        "rank_sort": 26929,
        "total": 2372
      },
      {
        "club_badge_src": null,
        "entry": 2033550,
        "entry_name": "FC A. Raheem",
        "event_total": 62,
        "has_played": true,
        "id": 14397822,
        "last_rank": 31471,
        "player_name": "Ali Raheem",
        "rank": 26923,
        "rank_sort": 26930,
        "total": 2372
      },
      {
        "club_badge_src": "https://fantasy.premierleague.com/gcs/plfpl-production-adobe-approved/plfpl-production/2635312/ad9e94ea-a874-4a5f-a1ea-76ab7edde77d.png",
        "entry": 2635312,
        "entry_name": "Change Name",
        "event_total": 55,
        "has_played": true,
        "id": 18939902,
        "last_rank": 21558,
        "player_name": "Stan Abraham",
        "rank": 26923,
        "rank_sort": 26931,
        "total": 2372
      },
      {
        "club_badge_src": null,
        "entry": 6483912,
        "entry_name": "Too Sesko ForMyShirt",
        "event_total": 51,
        "has_played": true,
        "id": 51680063,
        "last_rank": 18609,
        "player_name": "John Bracken",
        "rank": 26923,
        "rank_sort": 26932,
        "total": 2372
      },
      {
        "club_badge_src": null,
        "entry": 9460669,
        "entry_name": "The Sultans",
        "event_total": 49,
        "has_played": true,
        "id": 79947016,
        "last_rank": 17275,
        "player_name": "David O'Sullivan",
        "rank": 26923,
        "rank_sort": 26933,
        "total": 2372
      },
      {
        "club_badge_src": null,
        "entry": 285014,
        "entry_name": "Arturitos Banditos",
        "event_total": 64,
        "has_played": true,
        "id": 1898036,
        "last_rank": 29419,
        "player_name": "Artur Witkowski",
        "rank": 26934,
        "rank_sort": 26934,
        "total": 2372
      },
      {
        "club_badge_src": null,
        "entry": 3059900,
        "entry_name": "Ammas 11",
        "event_total": 61,
        "has_played": true,
        "id": 22528221,
        "last_rank": 30456,
        "player_name": "Amadeus Karlgren",
        "rank": 26934,
        "rank_sort": 26935,
        "total": 2372
      },
      {
        "club_badge_src": null,
        "entry": 3229465,
        "entry_name": "One Piece",
        "event_total": 61,
        "has_played": true,
        "id": 23884144,
        "last_rank": 26576,
        "player_name": "John Morgan",
        "rank": 26934,
        "rank_sort": 26936,
        "total": 2372
      },
      {
        "club_badge_src": null,
        "entry": 234792,
        "entry_name": "Manchester United",
        "event_total": 55,
        "has_played": true,
        "id": 1562303,
        "last_rank": 21569,
        "player_name": "Wail Ashmaig",
        "rank": 26937,
        "rank_sort": 26937,
        "total": 2372
      },
      {
        "club_badge_src": null,
        "entry": 895155,
        "entry_name": "Toonali",
        "event_total": 59,
        "has_played": true,
        "id": 6149200,
        "last_rank": 21563,
        "player_name": "John Thorpe",
        "rank": 26937,
        "rank_sort": 26938,
        "total": 2372
      },
      {
        "club_badge_src": null,
        "entry": 1431602,
        "entry_name": "Unlucky Bucryosaka",
        "event_total": 62,
        "has_played": true,
        "id": 9975452,
        "last_rank": 31484,
        "player_name": "Ignatius Dass",
        "rank": 26937,
        "rank_sort": 26939,
        "total": 2372
      },
      {
        "club_badge_src": null,
        "entry": 2177787,
        "entry_name": "ZEN UNITED",
        "event_total": 61,
        "has_played": true,
        "id": 15487591,
        "last_rank": 30456,
        "player_name": "Zein Hasan",
        "rank": 26937,
        "rank_sort": 26940,
        "total": 2372
      },
      {
        "club_badge_src": null,
        "entry": 2629968,
        "entry_name": "Imma Saliber",
        "event_total": 59,
        "has_played": true,
        "id": 18900470,
        "last_rank": 28493,
        "player_name": "Brett Plecas",
        "rank": 26937,
        "rank_sort": 26941,
        "total": 2372
      },
      {
        "club_badge_src": null,
        "entry": 5175497,
        "entry_name": "Femergy",
        "event_total": 72,
        "has_played": true,
        "id": 40058322,
        "last_rank": 38475,
        "player_name": "Dawn D",
        "rank": 26937,
        "rank_sort": 26942,
        "total": 2372
      },
      {
        "club_badge_src": null,
        "entry": 1448074,
        "entry_name": "Ctrl Alt De Ligt",
        "event_total": 54,
        "has_played": true,
        "id": 10090343,
        "last_rank": 23945,
        "player_name": "vinny Cole",
        "rank": 26943,
        "rank_sort": 26943,
        "total": 2372
      },
      {
        "club_badge_src": null,
        "entry": 2376048,
        "entry_name": "AD HD",
        "event_total": 55,
        "has_played": true,
        "id": 16963431,
        "last_rank": 21573,
        "player_name": "Adrian Safciu",
        "rank": 26943,
        "rank_sort": 26944,
        "total": 2372
      },
      {
        "club_badge_src": null,
        "entry": 6968412,
        "entry_name": "Drrrr",
        "event_total": 55,
        "has_played": true,
        "id": 55894428,
        "last_rank": 18616,
        "player_name": "Abdelrahman Ghaly",
        "rank": 26943,
        "rank_sort": 26945,
        "total": 2372
      },
      {
        "club_badge_src": null,
        "entry": 9272751,
        "entry_name": "Threemium",
        "event_total": 69,
        "has_played": true,
        "id": 78145503,
        "last_rank": 26576,
        "player_name": "Sir Domin",
        "rank": 26943,
        "rank_sort": 26946,
        "total": 2372
      },
      {
        "club_badge_src": "https://fantasy.premierleague.com/gcs/plfpl-production-adobe-approved/plfpl-production/26339/a3403976-5d9a-491f-9d1d-79b8af7dd379.png",
        "entry": 26339,
        "entry_name": "LFSteve",
        "event_total": 65,
        "has_played": true,
        "id": 166532,
        "last_rank": 26590,
        "player_name": "Stephen Gayton",
        "rank": 26947,
        "rank_sort": 26947,
        "total": 2372
      },
      {
        "club_badge_src": null,
        "entry": 2183002,
        "entry_name": "Ice & Fire",
        "event_total": 57,
        "has_played": true,
        "id": 15527732,
        "last_rank": 23131,
        "player_name": "Kazi Rahman",
        "rank": 26947,
        "rank_sort": 26948,
        "total": 2372
      },
      {
        "club_badge_src": null,
        "entry": 7372139,
        "entry_name": "020 433 187 420",
        "event_total": 63,
        "has_played": true,
        "id": 59754108,
        "last_rank": 24792,
        "player_name": "Colin Chow",
        "rank": 26947,
        "rank_sort": 26949,
        "total": 2372
      },
      {
        "club_badge_src": null,
        "entry": 2583546,
        "entry_name": "Gobby Gooner Geezers",
        "event_total": 60,
        "has_played": true,
        "id": 18545001,
        "last_rank": 25680,
        "player_name": "Chris Leahy",
        "rank": 26950,
        "rank_sort": 26950,
        "total": 2372
      }
    ]
  }
}