{
  "last_updated_data": "2026-05-24T23:28:17Z",
  "league": {
    "admin_entry": null,
    "closed": false,
    "code_privacy": "p",
    "created": "2025-07-20T23:14:33.933835Z",
    "cup_league": 2815434,
    "has_cup": true,
    "id": 314,
    "league_type": "s",
    "max_entries": null,
    "name": "Overall",
    "rank": null,
    "scoring": "c",
    "start_event": 1
  },
  "new_entries": {
    "has_next": false,
    "page": 1,
    "results": []
  },
  "standings": {
    "has_next": true,
    "page": 935,
    "results": [
      {
        "club_badge_src": null,
        "entry": 6885224,
        "entry_name": "Mitrogoal",
        "event_total": 53,
        "has_played": true,
        "id": 55180269,
        "last_rank": 41324,
        "player_name": "Oresti Mitro",
        "rank": 46464,
        "rank_sort": 46701,
        "total": 2354
      },
      {
        "club_badge_src": null,
        "entry": 6916922,
        "entry_name": "NoHoesFC",
        "event_total": 57,
        "has_played": true,
        "id": 55446329,
        "last_rank": 47163,
        "player_name": "Anthony Martinez",
        "rank": 46464,
        "rank_sort": 46702,
        "total": 2354
      },
      {
        "club_badge_src": null,
        "entry": 6923117,
        "entry_name": "Swoyambhunath FC",
        "event_total": 62,
        "has_played": true,
        "id": 55497457,
        "last_rank": 48119,
        "player_name": "mrinal singh",
        "rank": 46464,
        "rank_sort": 46703,
        "total": 2354
      },
      {
        "club_badge_src": null,
        "entry": 6974625,
        "entry_name": "Jacks the lad",
        "event_total": 49,
        "has_played": true,
        "id": 55955045,
        "last_rank": 36348,
        "player_name": "Phil Bean",
        "rank": 46464,
        "rank_sort": 46704,
        "total": 2354
      },
      {
        "club_badge_src": null,
        "entry": 7116374,
        "entry_name": "Fc Miranda1950",
        "event_total": 76,
        "has_played": true,
        "id": 57332534,
        "last_rank": 82069,
        "player_name": "Miran Mendelski",
        "rank": 46464,
        "rank_sort": 46705,
        "total": 2354
      },
      {
        "club_badge_src": null,
        "entry": 7299333,
        "entry_name": "Local Price",
        "event_total": 68,
        "has_played": true,
        "id": 59070251,
        "last_rank": 64943,
        "player_name": "Anton Arhipov",
        "rank": 46464,
        "rank_sort": 46706,
        "total": 2354
      },
      {
        "club_badge_src": null,
        "entry": 7523087,
        "entry_name": "Paisti",
        "event_total": 61,
        "has_played": true,
        "id": 61558399,
        "last_rank": 52853,
        "player_name": "Antti Kauppila",
        "rank": 46464,
        "rank_sort": 46707,
        "total": 2354
      },
      {
        "club_badge_src": null,
        "entry": 7572688,
        "entry_name": "He wears the no. 20",
        "event_total": 59,
        "has_played": true,
        "id": 62017024,
        "last_rank": 49691,
        "player_name": "Anthony Cogswell",
        "rank": 46464,
        "rank_sort": 46708,
        "total": 2354
      },
      {
        "club_badge_src": null,
        "entry": 7621505,
        "entry_name": "Pain In Diaz",
        "event_total": 54,
        "has_played": true,
        "id": 62460346,
        "last_rank": 42648,
        "player_name": "Liam Browne",
        "rank": 46464,
        "rank_sort": 46709,
        "total": 2354
      },
      {
        "club_badge_src": "https://fantasy.premierleague.com/gcs/plfpl-production-adobe-approved/plfpl-production/7642025/b6354d23-57f0-49a6-9cca-914ba71ba3c5.png",
        "entry": 7642025,
        "entry_name": "So Solid Crewe",
        "event_total": 53,
        "has_played": true,
        "id": 62643633,
        "last_rank": 41324,
        "player_name": "Tony Jones",
        "rank": 46464,
        "rank_sort": 46710,
        "total": 2354
      },
      {
        "club_badge_src": null,
        "entry": 7658414,
        "entry_name": "Idfc fc",
        "event_total": 55,
        "has_played": true,
        "id": 62792149,
        "last_rank": 43849,
        "player_name": "Geraint Evans",
        "rank": 46464,
        "rank_sort": 46711,
        "total": 2354
      },
      {
        "club_badge_src": null,
        "entry": 7758279,
        "entry_name": "Cunha pass the salt?",
        "event_total": 79,
        "has_played": true,
        "id": 63697593,
        "last_rank": 88348,
        "player_name": "Matthew Papadopoulos",
        "rank": 46464,
        "rank_sort": 46712,
        "total": 2354
      },
      {
        "club_badge_src": null,
        "entry": 7799027,
        "entry_name": "Onana what's my name",
        "event_total": 69,
        "has_played": true,
        "id": 64064483,
        "last_rank": 59632,
        "player_name": "Jennie Sanders",
        "rank": 46464,
        "rank_sort": 46713,
        "total": 2354
      },
      {
        "club_badge_src": null,
        "entry": 8033364,
        "entry_name": "Project 150",
        "event_total": 57,
        "has_played": true,
        "id": 66185906,
        "last_rank": 41162,
        "player_name": "Yash Bharati",
        "rank": 46464,
        "rank_sort": 46714,
        "total": 2354
      },
      {
        "club_badge_src": null,
        "entry": 8174961,
        "entry_name": "Blaugrana",
        "event_total": 60,
        "has_played": true,
        "id": 67502633,
        "last_rank": 51403,
        "player_name": "Becir Basic",
        "rank": 46464,
        "rank_sort": 46715,
        "total": 2354
      },
      {
        "club_badge_src": null,
        "entry": 8299440,
        "entry_name": "2nd Place FC",
        "event_total": 51,
        "has_played": true,
        "id": 68704182,
        "last_rank": 38644,
        "player_name": "Daryl Mulley",
        "rank": 46464,
        "rank_sort": 46716,
        "total": 2354
      },
      {
        "club_badge_src": null,
        "entry": 8338648,
        "entry_name": "Wattoo Wanderers",
        "event_total": 49,
        "has_played": true,
        "id": 69095859,
        "last_rank": 36348,
        "player_name": "Steve Watts",
        "rank": 46464,
        "rank_sort": 46717,
        "total": 2354
      },
      {
        "club_badge_src": null,
        "entry": 8368028,
        "entry_name": "Boats&Aguerhoes",
        "event_total": 52,
        "has_played": true,
        "id": 69376026,
        "last_rank": 40036,
        "player_name": "Cormac O'Neill",
        "rank": 46464,
        "rank_sort": 46718,
        "total": 2354
      },
      {
        "club_badge_src": "https://fantasy.premierleague.com/gcs/plfpl-production-adobe-approved/plfpl-production/8424052/e71c3d24-0d4c-4b82-8f89-bc76f69202b5.png",
        "entry": 8424052,
        "entry_name": "Deportivo La Crinu\u00f1a",
        "event_total": 68,
        "has_played": true,
        "id": 69907573,
        "last_rank": 65163,
        "player_name": "Dan Baker",
        "rank": 46464,
        "rank_sort": 46719,
        "total": 2354
      },
      {
        "club_badge_src": null,
        "entry": 8579607,
        "entry_name": "Abbas",
        "event_total": 63,
        "has_played": true,
        "id": 71402145,
        "last_rank": 56180,
        "player_name": "Abbas Fadil",
        "rank": 46464,
        "rank_sort": 46720,
        "total": 2354
      },
      {
        "club_badge_src": null,
        "entry": 8767317,
        "entry_name": "Lallie's Legends",
        "event_total": 51,
        "has_played": true,
        "id": 73229129,
        "last_rank": 38774,
        "player_name": "Manisha Raman",
        "rank": 46464,
        "rank_sort": 46721,
        "total": 2354
      },
      {
        "club_badge_src": "https://fantasy.premierleague.com/gcs/plfpl-production-adobe-approved/plfpl-production/8774428/e6b0c541-4c94-4bd1-96d4-c7ae20259762.png",
        "entry": 8774428,
        "entry_name": "Shotz Grealish",
        "event_total": 50,
        "has_played": true,
        "id": 73297495,
        "last_rank": 37376,
        "player_name": "Ian Loughlin",
        "rank": 46464,
        "rank_sort": 46722,
        "total": 2354
      },
      {
        "club_badge_src": "https://fantasy.premierleague.com/gcs/plfpl-production-adobe-approved/plfpl-production/8780903/6b31f7ee-9eac-4825-a4b4-762d0b4d4d67.png",
        "entry": 8780903,
        "entry_name": "Hamzewi",
        "event_total": 41,
        "has_played": true,
        "id": 73360510,
        "last_rank": 27770,
        "player_name": "Hamza Ghanmi",
        "rank": 46464,
        "rank_sort": 46723,
        "total": 2354
      },
      {
        "club_badge_src": null,
        "entry": 9286725,
        "entry_name": "Klich and Collect",
        "event_total": 66,
        "has_played": true,
        "id": 78281556,
        "last_rank": 61315,
        "player_name": "Robbie Goulsbra",
        "rank": 46464,
        "rank_sort": 46724,
        "total": 2354
      },
      {
        "club_badge_src": null,
        "entry": 9380379,
        "entry_name": "Gyrid loves Chat GPT",
        "event_total": 68,
        "has_played": true,
        "id": 79184059,
        "last_rank": 64777,
        "player_name": "Gyrid L\u00f8nnestad",
        "rank": 46464,
        "rank_sort": 46725,
        "total": 2354
      },
      {
        "club_badge_src": null,
        "entry": 9390988,
        "entry_name": "TheirFather",
        "event_total": 66,
        "has_played": true,
        "id": 79286948,
        "last_rank": 61411,
        "player_name": "Ife Johnson",
        "rank": 46464,
        "rank_sort": 46726,
        "total": 2354
      },
      {
        "club_badge_src": "https://fantasy.premierleague.com/gcs/plfpl-production-adobe-approved/plfpl-production/149/01abe2fd-f14f-4bcc-a88b-ae8753a562ec.png",
        "entry": 149,
        "entry_name": "David De Heyi",
        "event_total": 64,
        "has_played": true,
        "id": 825,
        "last_rank": 51403,
        "player_name": "Heyi Su",
        "rank": 46727,
        "rank_sort": 46727,
        "total": 2354
      },
      {
        "club_badge_src": "https://fantasy.premierleague.com/gcs/plfpl-production-adobe-approved/plfpl-production/585/205a77e8-af27-4964-aa62-e8a683b1566d.png",
        "entry": 585,
        "entry_name": "Culley's Clowns",
        "event_total": 41,
        "has_played": true,
        "id": 3235,
        "last_rank": 27770,
        "player_name": "George Culley",
        "rank": 46727,
        "rank_sort": 46728,
        "total": 2354
      },
      {
        "club_badge_src": null,
        "entry": 1209,
        "entry_name": "Zubi Doo",
        "event_total": 68,
        "has_played": true,
        "id": 6717,
        "last_rank": 58071,
        "player_name": "William Lewis",
        "rank": 46727,
        "rank_sort": 46729,
        "total": 2354
      },
      {
        "club_badge_src": null,
        "entry": 1988,
        "entry_name": "Rock N Roll Sarr",
        "event_total": 40,
        "has_played": true,
        "id": 11082,
        "last_rank": 27020,
        "player_name": "Fin Newton",
        "rank": 46727,
        "rank_sort": 46730,
        "total": 2354
      },
      {
        "club_badge_src": null,
        "entry": 2223,
        "entry_name": "Get Carter",
        "event_total": 39,
        "has_played": true,
        "id": 12398,
        "last_rank": 25902,
        "player_name": "Gary Carter",
        "rank": 46727,
        "rank_sort": 46731,
        "total": 2354
      },
      {
        "club_badge_src": "https://fantasy.premierleague.com/gcs/plfpl-production-adobe-approved/plfpl-production/2686/05f1519a-bcb5-45ef-8226-94df17f581b8.png",
        "entry": 2686,
        "entry_name": "I Sort of Knew",
        "event_total": 74,
        "has_played": true,
        "id": 15044,
        "last_rank": 77258,
        "player_name": "Chris Bristow",
        "rank": 46727,
        "rank_sort": 46732,
        "total": 2354
      },
      {
        "club_badge_src": null,
        "entry": 7142,
        "entry_name": "Wukong FC",
        "event_total": 64,
        "has_played": true,
        "id": 41132,
        "last_rank": 51220,
        "player_name": "Gotze Krid",
        "rank": 46727,
        "rank_sort": 46733,
        "total": 2354
      },
      {
        "club_badge_src": "https://fantasy.premierleague.com/gcs/plfpl-production-adobe-approved/plfpl-production/7739/5663548b-3cc6-4d86-a4d0-4814f9df3be5.png",
        "entry": 7739,
        "entry_name": "UnReal Madrid",
        "event_total": 50,
        "has_played": true,
        "id": 44657,
        "last_rank": 38016,
        "player_name": "Vyshnav Menon",
        "rank": 46727,
        "rank_sort": 46734,
        "total": 2354
      },
      {
        "club_badge_src": null,
        "entry": 12969,
        "entry_name": "Figa z makiem",
        "event_total": 45,
        "has_played": true,
        "id": 78095,
        "last_rank": 31747,
        "player_name": "Wies\u0142aw Rutkowski",
        "rank": 46727,
        "rank_sort": 46735,
        "total": 2354
      },
      {
        "club_badge_src": null,
        "entry": 15142,
        "entry_name": "Half the World (A)",
        "event_total": 64,
        "has_played": true,
        "id": 92652,
        "last_rank": 58071,
        "player_name": "James Cole",
        "rank": 46727,
        "rank_sort": 46736,
        "total": 2354
      },
      {
        "club_badge_src": null,
        "entry": 15609,
        "entry_name": "Noldus FC",
        "event_total": 58,
        "has_played": true,
        "id": 95933,
        "last_rank": 42648,
        "player_name": "simen utvik",
        "rank": 46727,
        "rank_sort": 46737,
        "total": 2354
      },
      {
        "club_badge_src": null,
        "entry": 19061,
        "entry_name": "FC Mariupol",
        "event_total": 58,
        "has_played": true,
        "id": 118626,
        "last_rank": 48642,
        "player_name": "Anton Khabaiev",
        "rank": 46727,
        "rank_sort": 46738,
        "total": 2354
      },
      {
        "club_badge_src": "https://fantasy.premierleague.com/gcs/plfpl-production-adobe-approved/plfpl-production/22462/239ff5aa-e478-4450-9728-e14afb31b342.png",
        "entry": 22462,
        "entry_name": "Texas Reijnders",
        "event_total": 52,
        "has_played": true,
        "id": 141049,
        "last_rank": 39874,
        "player_name": "Taras Shevchuk",
        "rank": 46727,
        "rank_sort": 46739,
        "total": 2354
      },
      {
        "club_badge_src": null,
        "entry": 26853,
        "entry_name": "Mr Hindsight",
        "event_total": 65,
        "has_played": true,
        "id": 169785,
        "last_rank": 60168,
        "player_name": "William Elliott",
        "rank": 46727,
        "rank_sort": 46740,
        "total": 2354
      },
      {
        "club_badge_src": null,
        "entry": 43515,
        "entry_name": "Half the World (A)",
        "event_total": 61,
        "has_played": true,
        "id": 278682,
        "last_rank": 53345,
        "player_name": "Sean Carroll",
        "rank": 46727,
        "rank_sort": 46741,
        "total": 2354
      },
      {
        "club_badge_src": "https://fantasy.premierleague.com/gcs/plfpl-production-adobe-approved/plfpl-production/44184/b72e9a44-364c-4f02-9748-b7efd8d9dd76.png",
        "entry": 44184,
        "entry_name": "Haggis",
        "event_total": 38,
        "has_played": true,
        "id": 283136,
        "last_rank": 25172,
        "player_name": "Espen Hagestrand",
        "rank": 46727,
        "rank_sort": 46742,
        "total": 2354
      },
      {
        "club_badge_src": null,
        "entry": 44395,
        "entry_name": "Kayams 11",
        "event_total": 56,
        "has_played": true,
        "id": 284513,
        "last_rank": 45416,
        "player_name": "Naeem Mohamed",
        "rank": 46727,
        "rank_sort": 46743,
        "total": 2354
      },
      {
        "club_badge_src": "https://fantasy.premierleague.com/gcs/plfpl-production-adobe-approved/plfpl-production/46651/763e1c24-5396-4745-960e-9a87143fcb6b.png",
        "entry": 46651,
        "entry_name": "WirtzCaseOntario",
        "event_total": 52,
        "has_played": true,
        "id": 299026,
        "last_rank": 30600,
        "player_name": "ian maccuaig",
        "rank": 46727,
        "rank_sort": 46744,
        "total": 2354
      },
      {
        "club_badge_src": null,
        "entry": 47355,
        "entry_name": "Dude,WheresMyCarson?",
        "event_total": 53,
        "has_played": true,
        "id": 303709,
        "last_rank": 36142,
        "player_name": "Benjamin Endresen",
        "rank": 46727,
        "rank_sort": 46745,
        "total": 2354
      },
      {
        "club_badge_src": null,
        "entry": 56851,
        "entry_name": "lol.",
        "event_total": 69,
        "has_played": true,
        "id": 366223,
        "last_rank": 66848,
        "player_name": "Harry Moi",
        "rank": 46727,
        "rank_sort": 46746,
        "total": 2354
      },
      {
        "club_badge_src": null,
        "entry": 69840,
        "entry_name": "FC Delapzwans",
        "event_total": 64,
        "has_played": true,
        "id": 453247,
        "last_rank": 51403,
        "player_name": "Tom Wilmer",
        "rank": 46727,
        "rank_sort": 46747,
        "total": 2354
      },
      {
        "club_badge_src": null,
        "entry": 69958,
        "entry_name": "Fica's Black GF",
        "event_total": 68,
        "has_played": true,
        "id": 454049,
        "last_rank": 58071,
        "player_name": "richard lewis",
        "rank": 46727,
        "rank_sort": 46748,
        "total": 2354
      },
      {
        "club_badge_src": null,
        "entry": 72519,
        "entry_name": "Parody FC",
        "event_total": 70,
        "has_played": true,
        "id": 471239,
        "last_rank": 68748,
        "player_name": "Darren Parody",
        "rank": 46727,
        "rank_sort": 46749,
        "total": 2354
      },
      {
        "club_badge_src": null,
        "entry": 74351,
        "entry_name": "WDsXI.",
        "event_total": 73,
        "has_played": true,
        "id": 483266,
        "last_rank": 67063,
        "player_name": "Marc Cuffin",
        "rank": 46727,
        "rank_sort": 46750,
        "total": 2354
      }
    ]
  }
}