{
  "last_updated_data": "2026-05-24T23:28:17Z",
  "league": {
    "admin_entry": null,
    "closed": false,
    "code_privacy": "p",
    "created": "2025-07-20T23:14:33.933835Z",
    "cup_league": 2815434,
    "has_cup": true,
    "id": 314,
    "league_type": "s",
    "max_entries": null,
    "name": "Overall",
    "rank": null,
    "scoring": "c",
    "start_event": 1
  },
  "new_entries": {
    "has_next": false,
    "page": 1,
    "results": []
  },
  "standings": {
    "has_next": true,
    "page": 203,
    "results": [
      {
        "club_badge_src": null,
        "entry": 355659,
        "entry_name": "Teamname123",
        "event_total": 52,
        "has_played": true,
        "id": 2380202,
        "last_rank": 7761,
        "player_name": "Anton Fahlander",
        "rank": 10079,
        "rank_sort": 10101,
        "total": 2398
      },
      {
        "club_badge_src": null,
        "entry": 459867,
        "entry_name": "Copa Kebano",
        "event_total": 38,
        "has_played": true,
        "id": 3084944,
        "last_rank": 4155,
        "player_name": "Olly Johnson",
        "rank": 10079,
        "rank_sort": 10102,
        "total": 2398
      },
      {
        "club_badge_src": "https://fantasy.premierleague.com/gcs/plfpl-production-adobe-approved/plfpl-production/566061/ad104354-b1a0-43a7-acff-38eebcd0b9d9.png",
        "entry": 566061,
        "entry_name": "Lennyroyal Tea",
        "event_total": 43,
        "has_played": true,
        "id": 3809953,
        "last_rank": 5241,
        "player_name": "Si Tyler",
        "rank": 10079,
        "rank_sort": 10103,
        "total": 2398
      },
      {
        "club_badge_src": null,
        "entry": 629843,
        "entry_name": "Busquets and Gravy",
        "event_total": 63,
        "has_played": true,
        "id": 4256098,
        "last_rank": 12322,
        "player_name": "Andrew Kinsman",
        "rank": 10079,
        "rank_sort": 10104,
        "total": 2398
      },
      {
        "club_badge_src": null,
        "entry": 671068,
        "entry_name": "To Hell and Baku",
        "event_total": 62,
        "has_played": true,
        "id": 4538881,
        "last_rank": 11821,
        "player_name": "Andrew Parker",
        "rank": 10079,
        "rank_sort": 10105,
        "total": 2398
      },
      {
        "club_badge_src": null,
        "entry": 1008674,
        "entry_name": "Lampie",
        "event_total": 60,
        "has_played": true,
        "id": 6973671,
        "last_rank": 10805,
        "player_name": "Bryan Lamberink",
        "rank": 10079,
        "rank_sort": 10106,
        "total": 2398
      },
      {
        "club_badge_src": null,
        "entry": 1139413,
        "entry_name": "Raj's Eleven",
        "event_total": 65,
        "has_played": true,
        "id": 7898239,
        "last_rank": 11237,
        "player_name": "Sahay S. Raj",
        "rank": 10079,
        "rank_sort": 10107,
        "total": 2398
      },
      {
        "club_badge_src": "https://fantasy.premierleague.com/gcs/plfpl-production-adobe-approved/plfpl-production/1310270/2af9be92-fe74-4438-a0a6-f0db0da8136b.png",
        "entry": 1310270,
        "entry_name": "mohojojo",
        "event_total": 45,
        "has_played": true,
        "id": 9107550,
        "last_rank": 5752,
        "player_name": "D\u00e1niel P\u00e9ter",
        "rank": 10079,
        "rank_sort": 10108,
        "total": 2398
      },
      {
        "club_badge_src": null,
        "entry": 1343586,
        "entry_name": "Ameer",
        "event_total": 65,
        "has_played": true,
        "id": 9341385,
        "last_rank": 11237,
        "player_name": "Ameer Haji",
        "rank": 10079,
        "rank_sort": 10109,
        "total": 2398
      },
      {
        "club_badge_src": null,
        "entry": 1503104,
        "entry_name": "I am Hozzy Mourinho",
        "event_total": 56,
        "has_played": true,
        "id": 10482707,
        "last_rank": 7625,
        "player_name": "Henry Joyce",
        "rank": 10079,
        "rank_sort": 10110,
        "total": 2398
      },
      {
        "club_badge_src": null,
        "entry": 1552680,
        "entry_name": "Pain in Dias",
        "event_total": 71,
        "has_played": true,
        "id": 10841143,
        "last_rank": 16959,
        "player_name": "Adam Nouh",
        "rank": 10079,
        "rank_sort": 10111,
        "total": 2398
      },
      {
        "club_badge_src": "https://fantasy.premierleague.com/gcs/plfpl-production-adobe-approved/plfpl-production/1630927/cb8750d7-a927-4640-9c38-4ef13797ca61.png",
        "entry": 1630927,
        "entry_name": "Locks Heathens",
        "event_total": 62,
        "has_played": true,
        "id": 11415499,
        "last_rank": 11642,
        "player_name": "Dan Williamson",
        "rank": 10079,
        "rank_sort": 10112,
        "total": 2398
      },
      {
        "club_badge_src": null,
        "entry": 1725514,
        "entry_name": "All names get banned",
        "event_total": 46,
        "has_played": true,
        "id": 12100270,
        "last_rank": 5940,
        "player_name": "Casey McDonagh",
        "rank": 10079,
        "rank_sort": 10113,
        "total": 2398
      },
      {
        "club_badge_src": "https://fantasy.premierleague.com/gcs/plfpl-production-adobe-approved/plfpl-production/2073671/bad57447-3fd2-45b4-8588-3bf696e23266.png",
        "entry": 2073671,
        "entry_name": "Cider Army",
        "event_total": 57,
        "has_played": true,
        "id": 14702162,
        "last_rank": 8032,
        "player_name": "Olly Groves",
        "rank": 10079,
        "rank_sort": 10114,
        "total": 2398
      },
      {
        "club_badge_src": "https://fantasy.premierleague.com/gcs/plfpl-production-adobe-approved/plfpl-production/2088449/054c1828-56f9-4156-a46f-e89c99dc6fd5.png",
        "entry": 2088449,
        "entry_name": "Dzochekwa",
        "event_total": 78,
        "has_played": true,
        "id": 14816896,
        "last_rank": 21949,
        "player_name": "Lawford Macheka",
        "rank": 10079,
        "rank_sort": 10115,
        "total": 2398
      },
      {
        "club_badge_src": null,
        "entry": 2179832,
        "entry_name": "Bl\u00e5 Period",
        "event_total": 57,
        "has_played": true,
        "id": 15503296,
        "last_rank": 9711,
        "player_name": "Simon de Boer",
        "rank": 10079,
        "rank_sort": 10116,
        "total": 2398
      },
      {
        "club_badge_src": "https://fantasy.premierleague.com/gcs/plfpl-production-adobe-approved/plfpl-production/2273717/022c2d8b-6aa7-4835-94a8-09140f1645c6.png",
        "entry": 2273717,
        "entry_name": "SaTurn",
        "event_total": 53,
        "has_played": true,
        "id": 16213048,
        "last_rank": 8032,
        "player_name": "Abdullah AlMusleh",
        "rank": 10079,
        "rank_sort": 10117,
        "total": 2398
      },
      {
        "club_badge_src": null,
        "entry": 2384613,
        "entry_name": "Buster Jerk 15cm",
        "event_total": 62,
        "has_played": true,
        "id": 17028798,
        "last_rank": 9942,
        "player_name": "Arvid F\u00e4lt",
        "rank": 10079,
        "rank_sort": 10118,
        "total": 2398
      },
      {
        "club_badge_src": null,
        "entry": 2406186,
        "entry_name": "Change Name",
        "event_total": 55,
        "has_played": true,
        "id": 17198786,
        "last_rank": 8854,
        "player_name": "Linus Westergren",
        "rank": 10079,
        "rank_sort": 10119,
        "total": 2398
      },
      {
        "club_badge_src": null,
        "entry": 2409946,
        "entry_name": "El_3omda",
        "event_total": 56,
        "has_played": true,
        "id": 17226389,
        "last_rank": 9248,
        "player_name": "Mohamed Gamal Khedr",
        "rank": 10079,
        "rank_sort": 10120,
        "total": 2398
      },
      {
        "club_badge_src": null,
        "entry": 3007444,
        "entry_name": "Frank the Plank",
        "event_total": 63,
        "has_played": true,
        "id": 22123327,
        "last_rank": 10346,
        "player_name": "hanton rex",
        "rank": 10079,
        "rank_sort": 10121,
        "total": 2398
      },
      {
        "club_badge_src": null,
        "entry": 3008532,
        "entry_name": "alexander the great",
        "event_total": 61,
        "has_played": true,
        "id": 22131652,
        "last_rank": 11345,
        "player_name": "Alexander Herlestam",
        "rank": 10079,
        "rank_sort": 10122,
        "total": 2398
      },
      {
        "club_badge_src": null,
        "entry": 3304068,
        "entry_name": "Premadige FC",
        "event_total": 66,
        "has_played": true,
        "id": 24473134,
        "last_rank": 13947,
        "player_name": "Naomi Premadige",
        "rank": 10079,
        "rank_sort": 10123,
        "total": 2398
      },
      {
        "club_badge_src": null,
        "entry": 3364183,
        "entry_name": "Hakuna Kamara",
        "event_total": 64,
        "has_played": true,
        "id": 24963281,
        "last_rank": 10805,
        "player_name": "Luke Jillings",
        "rank": 10079,
        "rank_sort": 10124,
        "total": 2398
      },
      {
        "club_badge_src": "https://fantasy.premierleague.com/gcs/plfpl-production-adobe-approved/plfpl-production/3541953/a6251614-c420-4fdb-a54d-cfd0a958f3ac.png",
        "entry": 3541953,
        "entry_name": "Alrewas XI",
        "event_total": 45,
        "has_played": true,
        "id": 26365288,
        "last_rank": 5752,
        "player_name": "Dan Scott",
        "rank": 10079,
        "rank_sort": 10125,
        "total": 2398
      },
      {
        "club_badge_src": null,
        "entry": 3632097,
        "entry_name": "AMAAN XI",
        "event_total": 59,
        "has_played": true,
        "id": 27066357,
        "last_rank": 8758,
        "player_name": "Amaan _r1",
        "rank": 10079,
        "rank_sort": 10126,
        "total": 2398
      },
      {
        "club_badge_src": "https://fantasy.premierleague.com/gcs/plfpl-production-adobe-approved/plfpl-production/3943531/092377e9-1fba-45c3-b6dc-2168940791fe.png",
        "entry": 3943531,
        "entry_name": "Sesko\u2019s Finest",
        "event_total": 49,
        "has_played": true,
        "id": 29665481,
        "last_rank": 6839,
        "player_name": "Manish Shah",
        "rank": 10079,
        "rank_sort": 10127,
        "total": 2398
      },
      {
        "club_badge_src": null,
        "entry": 4007344,
        "entry_name": "Athletico E4",
        "event_total": 46,
        "has_played": true,
        "id": 30188063,
        "last_rank": 6011,
        "player_name": "Rufus Lacey",
        "rank": 10079,
        "rank_sort": 10128,
        "total": 2398
      },
      {
        "club_badge_src": null,
        "entry": 4117380,
        "entry_name": "Eric's Seagulls",
        "event_total": 59,
        "has_played": true,
        "id": 31104456,
        "last_rank": 10462,
        "player_name": "Tom Watson",
        "rank": 10079,
        "rank_sort": 10129,
        "total": 2398
      },
      {
        "club_badge_src": "https://fantasy.premierleague.com/gcs/plfpl-production-adobe-approved/plfpl-production/4183507/67569669-b53e-4c71-b9d8-7291fb87df93.png",
        "entry": 4183507,
        "entry_name": "TreazZzy Ballers",
        "event_total": 59,
        "has_played": true,
        "id": 31651979,
        "last_rank": 10556,
        "player_name": "Tafadzwa Rukodzi",
        "rank": 10079,
        "rank_sort": 10130,
        "total": 2398
      },
      {
        "club_badge_src": "https://fantasy.premierleague.com/gcs/plfpl-production-adobe-approved/plfpl-production/4198397/ad3772d8-461e-4b93-9021-32ef9d5187cf.png",
        "entry": 4198397,
        "entry_name": "evrapatrice",
        "event_total": 72,
        "has_played": true,
        "id": 31778825,
        "last_rank": 17437,
        "player_name": "Even Takn\u00e6s",
        "rank": 10079,
        "rank_sort": 10131,
        "total": 2398
      },
      {
        "club_badge_src": null,
        "entry": 4207003,
        "entry_name": "Legend of Yoro",
        "event_total": 57,
        "has_played": true,
        "id": 31849645,
        "last_rank": 9644,
        "player_name": "Jonathan Day",
        "rank": 10079,
        "rank_sort": 10132,
        "total": 2398
      },
      {
        "club_badge_src": null,
        "entry": 4381632,
        "entry_name": "Gy\u00f6k & Roll FC",
        "event_total": 68,
        "has_played": true,
        "id": 33298612,
        "last_rank": 15164,
        "player_name": "Jonah Normand",
        "rank": 10079,
        "rank_sort": 10133,
        "total": 2398
      },
      {
        "club_badge_src": null,
        "entry": 4499504,
        "entry_name": "FIP Fc",
        "event_total": 65,
        "has_played": true,
        "id": 34302337,
        "last_rank": 11237,
        "player_name": "Hussain Ali",
        "rank": 10079,
        "rank_sort": 10134,
        "total": 2398
      },
      {
        "club_badge_src": null,
        "entry": 4789941,
        "entry_name": "XI",
        "event_total": 54,
        "has_played": true,
        "id": 36875628,
        "last_rank": 8484,
        "player_name": "Thomas Tremblay",
        "rank": 10079,
        "rank_sort": 10135,
        "total": 2398
      },
      {
        "club_badge_src": null,
        "entry": 4927422,
        "entry_name": "Sixtyniners",
        "event_total": 52,
        "has_played": true,
        "id": 38008097,
        "last_rank": 7761,
        "player_name": "Abdul Dawood",
        "rank": 10079,
        "rank_sort": 10136,
        "total": 2398
      },
      {
        "club_badge_src": null,
        "entry": 4962832,
        "entry_name": "Haharski Ajvara\u0161i",
        "event_total": 54,
        "has_played": true,
        "id": 38298224,
        "last_rank": 8484,
        "player_name": "Ian \u017divoder",
        "rank": 10079,
        "rank_sort": 10137,
        "total": 2398
      },
      {
        "club_badge_src": null,
        "entry": 5177555,
        "entry_name": "Substandard Li\u00e8ge",
        "event_total": 64,
        "has_played": true,
        "id": 40074830,
        "last_rank": 12705,
        "player_name": "Josh Wrzyszcz",
        "rank": 10079,
        "rank_sort": 10138,
        "total": 2398
      },
      {
        "club_badge_src": null,
        "entry": 5235826,
        "entry_name": "Oreos Boys",
        "event_total": 29,
        "has_played": true,
        "id": 40574299,
        "last_rank": 2685,
        "player_name": "Debbie Smith",
        "rank": 10079,
        "rank_sort": 10139,
        "total": 2398
      },
      {
        "club_badge_src": null,
        "entry": 5302949,
        "entry_name": "Sweaty Pollocks",
        "event_total": 50,
        "has_played": true,
        "id": 41106052,
        "last_rank": 7193,
        "player_name": "Jack Ibb",
        "rank": 10079,
        "rank_sort": 10140,
        "total": 2398
      },
      {
        "club_badge_src": null,
        "entry": 5583730,
        "entry_name": "Kick-Ass 2",
        "event_total": 61,
        "has_played": true,
        "id": 43613642,
        "last_rank": 11345,
        "player_name": "Lars Eknes",
        "rank": 10079,
        "rank_sort": 10141,
        "total": 2398
      },
      {
        "club_badge_src": null,
        "entry": 5597030,
        "entry_name": "xG FC",
        "event_total": 64,
        "has_played": true,
        "id": 43730625,
        "last_rank": 12645,
        "player_name": "Brian O Donoghue",
        "rank": 10079,
        "rank_sort": 10142,
        "total": 2398
      },
      {
        "club_badge_src": null,
        "entry": 5844318,
        "entry_name": "The Rice Girls",
        "event_total": 59,
        "has_played": true,
        "id": 45880237,
        "last_rank": 10462,
        "player_name": "Ben Blight",
        "rank": 10079,
        "rank_sort": 10143,
        "total": 2398
      },
      {
        "club_badge_src": null,
        "entry": 5867414,
        "entry_name": "Change Name",
        "event_total": 51,
        "has_played": true,
        "id": 46084171,
        "last_rank": 7375,
        "player_name": "Leroy Marsland",
        "rank": 10079,
        "rank_sort": 10144,
        "total": 2398
      },
      {
        "club_badge_src": null,
        "entry": 6004876,
        "entry_name": "DanDowsOut",
        "event_total": 66,
        "has_played": true,
        "id": 47341630,
        "last_rank": 11699,
        "player_name": "Liam Daly",
        "rank": 10079,
        "rank_sort": 10145,
        "total": 2398
      },
      {
        "club_badge_src": null,
        "entry": 6139763,
        "entry_name": "Alisson Wonderland",
        "event_total": 59,
        "has_played": true,
        "id": 48523384,
        "last_rank": 10462,
        "player_name": "Hanshini Mutty",
        "rank": 10079,
        "rank_sort": 10146,
        "total": 2398
      },
      {
        "club_badge_src": null,
        "entry": 6144779,
        "entry_name": "Im Sorry Nik Jackson",
        "event_total": 62,
        "has_played": true,
        "id": 48567460,
        "last_rank": 11821,
        "player_name": "Fraser Daun",
        "rank": 10079,
        "rank_sort": 10147,
        "total": 2398
      },
      {
        "club_badge_src": null,
        "entry": 6198593,
        "entry_name": "Ginge n' Tonic",
        "event_total": 64,
        "has_played": true,
        "id": 49033356,
        "last_rank": 12846,
        "player_name": "Ron Gingell",
        "rank": 10079,
        "rank_sort": 10148,
        "total": 2398
      },
      {
        "club_badge_src": null,
        "entry": 6259360,
        "entry_name": "OlliWans",
        "event_total": 64,
        "has_played": true,
        "id": 49556438,
        "last_rank": 12705,
        "player_name": "Joni Loponen",
        "rank": 10079,
        "rank_sort": 10149,
        "total": 2398
      },
      {
        "club_badge_src": "https://fantasy.premierleague.com/gcs/plfpl-production-adobe-approved/plfpl-production/6446898/054b229b-db13-4d80-b526-786fcf7f8af5.png",
        "entry": 6446898,
        "entry_name": "Rafiki & The Big 5",
        "event_total": 57,
        "has_played": true,
        "id": 51335022,
        "last_rank": 9536,
        "player_name": "Jay Ikram",
        "rank": 10079,
        "rank_sort": 10150,
        "total": 2398
      }
    ]
  }
}