{
  "last_updated_data": "2026-05-24T23:28:17Z",
  "league": {
    "admin_entry": null,
    "closed": false,
    "code_privacy": "p",
    "created": "2025-07-20T23:14:33.933835Z",
    "cup_league": 2815434,
    "has_cup": true,
    "id": 314,
    "league_type": "s",
    "max_entries": null,
    "name": "Overall",
    "rank": null,
    "scoring": "c",
    "start_event": 1
  },
  "new_entries": {
    "has_next": false,
    "page": 1,
    "results": []
  },
  "standings": {
    "has_next": true,
    "page": 1451,
    "results": [
      {
        "club_badge_src": null,
        "entry": 4158007,
        "entry_name": "Major League Saka",
        "event_total": 40,
        "has_played": true,
        "id": 31432573,
        "last_rank": 44525,
        "player_name": "Rishi Mehta",
        "rank": 72321,
        "rank_sort": 72501,
        "total": 2339
      },
      {
        "club_badge_src": null,
        "entry": 4161293,
        "entry_name": "Special One",
        "event_total": 81,
        "has_played": true,
        "id": 31461729,
        "last_rank": 111405,
        "player_name": "Special One -\ufe0f",
        "rank": 72321,
        "rank_sort": 72502,
        "total": 2339
      },
      {
        "club_badge_src": null,
        "entry": 4186525,
        "entry_name": "anwarturunnaik",
        "event_total": 50,
        "has_played": true,
        "id": 31676945,
        "last_rank": 60168,
        "player_name": "muhd ameer",
        "rank": 72321,
        "rank_sort": 72503,
        "total": 2339
      },
      {
        "club_badge_src": "https://fantasy.premierleague.com/gcs/plfpl-production-adobe-approved/plfpl-production/4224341/290885a6-28bc-4005-8217-6a6d59f4c348.png",
        "entry": 4224341,
        "entry_name": "Nice To Michu",
        "event_total": 61,
        "has_played": true,
        "id": 32001740,
        "last_rank": 82398,
        "player_name": "Cal Nolan",
        "rank": 72321,
        "rank_sort": 72504,
        "total": 2339
      },
      {
        "club_badge_src": null,
        "entry": 4379932,
        "entry_name": "11 Frauds",
        "event_total": 55,
        "has_played": true,
        "id": 33284035,
        "last_rank": 69907,
        "player_name": "Daniel Hallqvist",
        "rank": 72321,
        "rank_sort": 72505,
        "total": 2339
      },
      {
        "club_badge_src": null,
        "entry": 4381315,
        "entry_name": "War Pigs",
        "event_total": 47,
        "has_played": true,
        "id": 33295979,
        "last_rank": 55311,
        "player_name": "Terry Faulkner",
        "rank": 72321,
        "rank_sort": 72506,
        "total": 2339
      },
      {
        "club_badge_src": null,
        "entry": 4492337,
        "entry_name": "Yalla 2.0",
        "event_total": 82,
        "has_played": true,
        "id": 34243725,
        "last_rank": 140831,
        "player_name": "Tino Zakeyo",
        "rank": 72321,
        "rank_sort": 72507,
        "total": 2339
      },
      {
        "club_badge_src": null,
        "entry": 4549541,
        "entry_name": "raed is here",
        "event_total": 53,
        "has_played": true,
        "id": 34711796,
        "last_rank": 51403,
        "player_name": "raef hosny",
        "rank": 72321,
        "rank_sort": 72508,
        "total": 2339
      },
      {
        "club_badge_src": null,
        "entry": 4615784,
        "entry_name": "Botman and Robin",
        "event_total": 41,
        "has_played": true,
        "id": 35277433,
        "last_rank": 45927,
        "player_name": "Matthew Robinson",
        "rank": 72321,
        "rank_sort": 72509,
        "total": 2339
      },
      {
        "club_badge_src": null,
        "entry": 4656398,
        "entry_name": "Hanker Chiefs",
        "event_total": 75,
        "has_played": true,
        "id": 35639245,
        "last_rank": 118654,
        "player_name": "neal shah",
        "rank": 72321,
        "rank_sort": 72510,
        "total": 2339
      },
      {
        "club_badge_src": null,
        "entry": 4723788,
        "entry_name": "BlinkyBadger",
        "event_total": 65,
        "has_played": true,
        "id": 36303069,
        "last_rank": 91835,
        "player_name": "Will W",
        "rank": 72321,
        "rank_sort": 72511,
        "total": 2339
      },
      {
        "club_badge_src": "https://fantasy.premierleague.com/gcs/plfpl-production-adobe-approved/plfpl-production/4738454/9f791b46-3efb-4243-b96a-c2ba4f7f5d8b.png",
        "entry": 4738454,
        "entry_name": "UselessFC",
        "event_total": 64,
        "has_played": true,
        "id": 36457814,
        "last_rank": 79817,
        "player_name": "Dheer Barua",
        "rank": 72321,
        "rank_sort": 72512,
        "total": 2339
      },
      {
        "club_badge_src": null,
        "entry": 4745716,
        "entry_name": "Czelsi FC",
        "event_total": 49,
        "has_played": true,
        "id": 36516040,
        "last_rank": 58688,
        "player_name": "Arkadiusz Mat",
        "rank": 72321,
        "rank_sort": 72513,
        "total": 2339
      },
      {
        "club_badge_src": "https://fantasy.premierleague.com/gcs/plfpl-production-adobe-approved/plfpl-production/4766980/e65d4579-b4b3-4372-b4f4-a8c029772761.png",
        "entry": 4766980,
        "entry_name": "Chairman Hao",
        "event_total": 65,
        "has_played": true,
        "id": 36688436,
        "last_rank": 91835,
        "player_name": "Harout khacheekian",
        "rank": 72321,
        "rank_sort": 72514,
        "total": 2339
      },
      {
        "club_badge_src": null,
        "entry": 4769640,
        "entry_name": "\u0648\u0633\u064a\u0645",
        "event_total": 75,
        "has_played": true,
        "id": 36710418,
        "last_rank": 118654,
        "player_name": "\u0648\u0633\u064a\u0645 \u0648\u0633\u064a\u0645",
        "rank": 72321,
        "rank_sort": 72515,
        "total": 2339
      },
      {
        "club_badge_src": null,
        "entry": 4855316,
        "entry_name": "Enemark FC",
        "event_total": 49,
        "has_played": true,
        "id": 37411124,
        "last_rank": 51720,
        "player_name": "Christian Enemark",
        "rank": 72321,
        "rank_sort": 72516,
        "total": 2339
      },
      {
        "club_badge_src": null,
        "entry": 4865641,
        "entry_name": "Corn on the Kobbie",
        "event_total": 69,
        "has_played": true,
        "id": 37499339,
        "last_rank": 101419,
        "player_name": "Louis Cunningham",
        "rank": 72321,
        "rank_sort": 72517,
        "total": 2339
      },
      {
        "club_badge_src": null,
        "entry": 4996507,
        "entry_name": "To Elland Back",
        "event_total": 64,
        "has_played": true,
        "id": 38580103,
        "last_rank": 79817,
        "player_name": "Tyler Chance",
        "rank": 72321,
        "rank_sort": 72518,
        "total": 2339
      },
      {
        "club_badge_src": "https://fantasy.premierleague.com/gcs/plfpl-production-adobe-approved/plfpl-production/5124643/27a7ae51-b407-45bf-aadd-f1e2134d06f9.png",
        "entry": 5124643,
        "entry_name": "Drage V",
        "event_total": 53,
        "has_played": true,
        "id": 39629069,
        "last_rank": 65475,
        "player_name": "Vegard R\u00f8nning",
        "rank": 72321,
        "rank_sort": 72519,
        "total": 2339
      },
      {
        "club_badge_src": null,
        "entry": 5135025,
        "entry_name": "The Wandians",
        "event_total": 50,
        "has_played": true,
        "id": 39717495,
        "last_rank": 60462,
        "player_name": "Marcus Karia",
        "rank": 72321,
        "rank_sort": 72520,
        "total": 2339
      },
      {
        "club_badge_src": null,
        "entry": 5140011,
        "entry_name": "OmAIdara",
        "event_total": 49,
        "has_played": true,
        "id": 39760583,
        "last_rank": 51720,
        "player_name": "Alex Spyrou",
        "rank": 72321,
        "rank_sort": 72521,
        "total": 2339
      },
      {
        "club_badge_src": null,
        "entry": 5159915,
        "entry_name": "Fiftum FC",
        "event_total": 62,
        "has_played": true,
        "id": 39927666,
        "last_rank": 75537,
        "player_name": "Kevin Lahner",
        "rank": 72321,
        "rank_sort": 72522,
        "total": 2339
      },
      {
        "club_badge_src": null,
        "entry": 5203071,
        "entry_name": "yakawachibasmakayn",
        "event_total": 61,
        "has_played": true,
        "id": 40296572,
        "last_rank": 82398,
        "player_name": "Flo oky",
        "rank": 72321,
        "rank_sort": 72523,
        "total": 2339
      },
      {
        "club_badge_src": null,
        "entry": 5259818,
        "entry_name": "Fox in the box",
        "event_total": 63,
        "has_played": true,
        "id": 40765964,
        "last_rank": 77676,
        "player_name": "Pete Gash",
        "rank": 72321,
        "rank_sort": 72524,
        "total": 2339
      },
      {
        "club_badge_src": null,
        "entry": 5380570,
        "entry_name": "Kamara Chameleon FC",
        "event_total": 57,
        "has_played": true,
        "id": 41826250,
        "last_rank": 73975,
        "player_name": "Brad Watkins",
        "rank": 72321,
        "rank_sort": 72525,
        "total": 2339
      },
      {
        "club_badge_src": null,
        "entry": 5489137,
        "entry_name": "Carabao",
        "event_total": 58,
        "has_played": true,
        "id": 42750047,
        "last_rank": 76128,
        "player_name": "Peter Warodom",
        "rank": 72321,
        "rank_sort": 72526,
        "total": 2339
      },
      {
        "club_badge_src": "https://fantasy.premierleague.com/gcs/plfpl-production-adobe-approved/plfpl-production/5530082/12aa2ebf-1486-47ea-a447-6f02f678e203.png",
        "entry": 5530082,
        "entry_name": "Roronoa Yoro",
        "event_total": 57,
        "has_played": true,
        "id": 43137791,
        "last_rank": 73975,
        "player_name": "Othman Almuamari --",
        "rank": 72321,
        "rank_sort": 72527,
        "total": 2339
      },
      {
        "club_badge_src": null,
        "entry": 5594017,
        "entry_name": "A Cunha Mateta",
        "event_total": 54,
        "has_played": true,
        "id": 43705016,
        "last_rank": 67695,
        "player_name": "Paul O' Doherty",
        "rank": 72321,
        "rank_sort": 72528,
        "total": 2339
      },
      {
        "club_badge_src": null,
        "entry": 5629961,
        "entry_name": "Retail Plus Ship",
        "event_total": 56,
        "has_played": true,
        "id": 44017078,
        "last_rank": 63724,
        "player_name": "Nikesh Gudka",
        "rank": 72321,
        "rank_sort": 72529,
        "total": 2339
      },
      {
        "club_badge_src": "https://fantasy.premierleague.com/gcs/plfpl-production-adobe-approved/plfpl-production/5634264/cae03d69-3404-4502-99af-ceb1511d67fb.png",
        "entry": 5634264,
        "entry_name": "JanKatz XI",
        "event_total": 64,
        "has_played": true,
        "id": 44055244,
        "last_rank": 89055,
        "player_name": "Jancke Eygelaar",
        "rank": 72321,
        "rank_sort": 72530,
        "total": 2339
      },
      {
        "club_badge_src": null,
        "entry": 5678446,
        "entry_name": "Arsenal Obsessed",
        "event_total": 57,
        "has_played": true,
        "id": 44441699,
        "last_rank": 73975,
        "player_name": "josh ali",
        "rank": 72321,
        "rank_sort": 72531,
        "total": 2339
      },
      {
        "club_badge_src": "https://fantasy.premierleague.com/gcs/plfpl-production-adobe-approved/plfpl-production/5749359/0f17b0d1-49be-4cba-a760-35930059106b.png",
        "entry": 5749359,
        "entry_name": "Gidiexperito",
        "event_total": 62,
        "has_played": true,
        "id": 45060753,
        "last_rank": 84731,
        "player_name": "Gideon Mathembe",
        "rank": 72321,
        "rank_sort": 72532,
        "total": 2339
      },
      {
        "club_badge_src": null,
        "entry": 5750904,
        "entry_name": "Template Team",
        "event_total": 65,
        "has_played": true,
        "id": 45073836,
        "last_rank": 91835,
        "player_name": "L L",
        "rank": 72321,
        "rank_sort": 72533,
        "total": 2339
      },
      {
        "club_badge_src": null,
        "entry": 5819738,
        "entry_name": "Creamy Pints",
        "event_total": 57,
        "has_played": true,
        "id": 45670220,
        "last_rank": 65475,
        "player_name": "CIARAN MCCURDY",
        "rank": 72321,
        "rank_sort": 72534,
        "total": 2339
      },
      {
        "club_badge_src": null,
        "entry": 5852479,
        "entry_name": "claymoores",
        "event_total": 62,
        "has_played": true,
        "id": 45949184,
        "last_rank": 84731,
        "player_name": "Nicci Claypole",
        "rank": 72321,
        "rank_sort": 72535,
        "total": 2339
      },
      {
        "club_badge_src": null,
        "entry": 5869769,
        "entry_name": "KT UTD",
        "event_total": 63,
        "has_played": true,
        "id": 46103373,
        "last_rank": 77050,
        "player_name": "Kenny Tee",
        "rank": 72321,
        "rank_sort": 72536,
        "total": 2339
      },
      {
        "club_badge_src": null,
        "entry": 6037544,
        "entry_name": "The Slot Machine",
        "event_total": 70,
        "has_played": true,
        "id": 47632211,
        "last_rank": 104388,
        "player_name": "Nick Doble",
        "rank": 72321,
        "rank_sort": 72537,
        "total": 2339
      },
      {
        "club_badge_src": null,
        "entry": 6161931,
        "entry_name": "Super Daniel",
        "event_total": 57,
        "has_played": true,
        "id": 48715627,
        "last_rank": 73720,
        "player_name": "David Ramy",
        "rank": 72321,
        "rank_sort": 72538,
        "total": 2339
      },
      {
        "club_badge_src": null,
        "entry": 6196844,
        "entry_name": "kudus to you",
        "event_total": 52,
        "has_played": true,
        "id": 49018026,
        "last_rank": 64005,
        "player_name": "Glen Smith",
        "rank": 72321,
        "rank_sort": 72539,
        "total": 2339
      },
      {
        "club_badge_src": null,
        "entry": 6255435,
        "entry_name": "Captain Melvin",
        "event_total": 45,
        "has_played": true,
        "id": 49522172,
        "last_rank": 51984,
        "player_name": "Neil Melvin",
        "rank": 72321,
        "rank_sort": 72540,
        "total": 2339
      },
      {
        "club_badge_src": null,
        "entry": 6268930,
        "entry_name": "mahmoud 10",
        "event_total": 48,
        "has_played": true,
        "id": 49639958,
        "last_rank": 57001,
        "player_name": "Mahmoud 11 Adam",
        "rank": 72321,
        "rank_sort": 72541,
        "total": 2339
      },
      {
        "club_badge_src": null,
        "entry": 6282414,
        "entry_name": "Rastaclaart",
        "event_total": 51,
        "has_played": true,
        "id": 49759455,
        "last_rank": 61950,
        "player_name": "Matthew Grayburn",
        "rank": 72321,
        "rank_sort": 72542,
        "total": 2339
      },
      {
        "club_badge_src": "https://fantasy.premierleague.com/gcs/plfpl-production-adobe-approved/plfpl-production/6295734/ef5ff819-eb02-4373-85f1-b81de0827289.png",
        "entry": 6295734,
        "entry_name": "Abo MoaaZ",
        "event_total": 60,
        "has_played": true,
        "id": 49896105,
        "last_rank": 71386,
        "player_name": "Ahmed Essam",
        "rank": 72321,
        "rank_sort": 72543,
        "total": 2339
      },
      {
        "club_badge_src": null,
        "entry": 6309594,
        "entry_name": "FC Piterki",
        "event_total": 64,
        "has_played": true,
        "id": 50052974,
        "last_rank": 88249,
        "player_name": "Piterek Piterowski",
        "rank": 72321,
        "rank_sort": 72544,
        "total": 2339
      },
      {
        "club_badge_src": null,
        "entry": 6318068,
        "entry_name": "Lights Kamara Action",
        "event_total": 67,
        "has_played": true,
        "id": 50148985,
        "last_rank": 96777,
        "player_name": "Charlie Santos",
        "rank": 72321,
        "rank_sort": 72545,
        "total": 2339
      },
      {
        "club_badge_src": null,
        "entry": 6428435,
        "entry_name": "Greens & Blues",
        "event_total": 65,
        "has_played": true,
        "id": 51171654,
        "last_rank": 91835,
        "player_name": "Kevin Farrell",
        "rank": 72321,
        "rank_sort": 72546,
        "total": 2339
      },
      {
        "club_badge_src": null,
        "entry": 6450786,
        "entry_name": "Sorp fc",
        "event_total": 58,
        "has_played": true,
        "id": 51369340,
        "last_rank": 75874,
        "player_name": "Krist\u00f3fer \u00d3skarsson",
        "rank": 72321,
        "rank_sort": 72547,
        "total": 2339
      },
      {
        "club_badge_src": null,
        "entry": 6488744,
        "entry_name": "ctrl alt de ligt",
        "event_total": 79,
        "has_played": true,
        "id": 51722597,
        "last_rank": 130073,
        "player_name": "Manas Sharma",
        "rank": 72321,
        "rank_sort": 72548,
        "total": 2339
      },
      {
        "club_badge_src": "https://fantasy.premierleague.com/gcs/plfpl-production-adobe-approved/plfpl-production/6511488/8e4d62c6-7299-4b38-982c-86e3df7d9c56.png",
        "entry": 6511488,
        "entry_name": "Joshi FC",
        "event_total": 77,
        "has_played": true,
        "id": 51924066,
        "last_rank": 123422,
        "player_name": "Bodhi Joshi",
        "rank": 72321,
        "rank_sort": 72549,
        "total": 2339
      },
      {
        "club_badge_src": null,
        "entry": 6539783,
        "entry_name": "Vamps YNWA",
        "event_total": 51,
        "has_played": true,
        "id": 52175994,
        "last_rank": 62429,
        "player_name": "ShanaeJaydine Nayee",
        "rank": 72321,
        "rank_sort": 72550,
        "total": 2339
      }
    ]
  }
}