{
  "last_updated_data": "2026-05-24T23:28:17Z",
  "league": {
    "admin_entry": null,
    "closed": false,
    "code_privacy": "p",
    "created": "2025-07-20T23:14:33.933835Z",
    "cup_league": 2815434,
    "has_cup": true,
    "id": 314,
    "league_type": "s",
    "max_entries": null,
    "name": "Overall",
    "rank": null,
    "scoring": "c",
    "start_event": 1
  },
  "new_entries": {
    "has_next": false,
    "page": 1,
    "results": []
  },
  "standings": {
    "has_next": true,
    "page": 841,
    "results": [
      {
        "club_badge_src": null,
        "entry": 2041156,
        "entry_name": "Bacon Buyers",
        "event_total": 54,
        "has_played": true,
        "id": 14454662,
        "last_rank": 38340,
        "player_name": "Jos van der Laan",
        "rank": 41963,
        "rank_sort": 42001,
        "total": 2358
      },
      {
        "club_badge_src": null,
        "entry": 2297851,
        "entry_name": "Amad Genius",
        "event_total": 72,
        "has_played": true,
        "id": 16388809,
        "last_rank": 52205,
        "player_name": "Alisdair Davies",
        "rank": 41963,
        "rank_sort": 42002,
        "total": 2358
      },
      {
        "club_badge_src": null,
        "entry": 2543902,
        "entry_name": "Winnieboy",
        "event_total": 56,
        "has_played": true,
        "id": 18233236,
        "last_rank": 40878,
        "player_name": "Gavin Pawskul",
        "rank": 41963,
        "rank_sort": 42003,
        "total": 2358
      },
      {
        "club_badge_src": null,
        "entry": 2641425,
        "entry_name": "Dolla Bill",
        "event_total": 38,
        "has_played": true,
        "id": 18984555,
        "last_rank": 22293,
        "player_name": "William Moler",
        "rank": 41963,
        "rank_sort": 42004,
        "total": 2358
      },
      {
        "club_badge_src": null,
        "entry": 2726194,
        "entry_name": "40 Year Old Virgil",
        "event_total": 71,
        "has_played": true,
        "id": 19617742,
        "last_rank": 50635,
        "player_name": "Khyle Cole",
        "rank": 41963,
        "rank_sort": 42005,
        "total": 2358
      },
      {
        "club_badge_src": null,
        "entry": 2979599,
        "entry_name": "Loafers United",
        "event_total": 75,
        "has_played": true,
        "id": 21906451,
        "last_rank": 71956,
        "player_name": "Alexander Andersson",
        "rank": 41963,
        "rank_sort": 42006,
        "total": 2358
      },
      {
        "club_badge_src": null,
        "entry": 2999225,
        "entry_name": "FC Not Again",
        "event_total": 53,
        "has_played": true,
        "id": 22060255,
        "last_rank": 32335,
        "player_name": "Kristjan Noormets",
        "rank": 41963,
        "rank_sort": 42007,
        "total": 2358
      },
      {
        "club_badge_src": null,
        "entry": 3382827,
        "entry_name": "Yamal or no Yamal",
        "event_total": 72,
        "has_played": true,
        "id": 25111040,
        "last_rank": 59077,
        "player_name": "Seun Falola",
        "rank": 41963,
        "rank_sort": 42008,
        "total": 2358
      },
      {
        "club_badge_src": null,
        "entry": 3415371,
        "entry_name": "okka\u2764\ufe0f\u2728\ufe0f",
        "event_total": 68,
        "has_played": true,
        "id": 25367696,
        "last_rank": 52357,
        "player_name": "Karim Salah",
        "rank": 41963,
        "rank_sort": 42009,
        "total": 2358
      },
      {
        "club_badge_src": "https://fantasy.premierleague.com/gcs/plfpl-production-adobe-approved/plfpl-production/3480630/08e81e99-bea7-495a-90e3-4669e751507c.png",
        "entry": 3480630,
        "entry_name": "Slapway V3",
        "event_total": 55,
        "has_played": true,
        "id": 25881636,
        "last_rank": 34682,
        "player_name": "Nathan Ashley McFarlane",
        "rank": 41963,
        "rank_sort": 42010,
        "total": 2358
      },
      {
        "club_badge_src": null,
        "entry": 4220385,
        "entry_name": "Krupskopaksbana",
        "event_total": 62,
        "has_played": true,
        "id": 31967343,
        "last_rank": 43168,
        "player_name": "Ibrahim Salihovi\u0107",
        "rank": 41963,
        "rank_sort": 42011,
        "total": 2358
      },
      {
        "club_badge_src": null,
        "entry": 4625360,
        "entry_name": "Bowen 747",
        "event_total": 62,
        "has_played": true,
        "id": 35361826,
        "last_rank": 43444,
        "player_name": "Jeff Allen",
        "rank": 41963,
        "rank_sort": 42012,
        "total": 2358
      },
      {
        "club_badge_src": null,
        "entry": 4781653,
        "entry_name": "Better call Khaled",
        "event_total": 43,
        "has_played": true,
        "id": 36809847,
        "last_rank": 26475,
        "player_name": "Khaled Alharbi",
        "rank": 41963,
        "rank_sort": 42013,
        "total": 2358
      },
      {
        "club_badge_src": null,
        "entry": 4804432,
        "entry_name": "abdullrahman \u2b50\ufe0f \u2b50\ufe0f",
        "event_total": 57,
        "has_played": true,
        "id": 36992173,
        "last_rank": 37058,
        "player_name": "Abdullrahman Alshehri",
        "rank": 41963,
        "rank_sort": 42014,
        "total": 2358
      },
      {
        "club_badge_src": null,
        "entry": 5024519,
        "entry_name": "ANOTHER ONE!!",
        "event_total": 44,
        "has_played": true,
        "id": 38805185,
        "last_rank": 27402,
        "player_name": "benjamin crilley",
        "rank": 41963,
        "rank_sort": 42015,
        "total": 2358
      },
      {
        "club_badge_src": null,
        "entry": 5307181,
        "entry_name": "Boom Xhakalaka",
        "event_total": 62,
        "has_played": true,
        "id": 41139159,
        "last_rank": 49078,
        "player_name": "Rohan Kapoor",
        "rank": 41963,
        "rank_sort": 42016,
        "total": 2358
      },
      {
        "club_badge_src": "https://fantasy.premierleague.com/gcs/plfpl-production-adobe-approved/plfpl-production/5883079/a2ba47b6-6aef-4500-8c2a-bdcfcb2d43c1.png",
        "entry": 5883079,
        "entry_name": "Serpong FC",
        "event_total": 48,
        "has_played": true,
        "id": 46212848,
        "last_rank": 31371,
        "player_name": "Carlo Edigol",
        "rank": 41963,
        "rank_sort": 42017,
        "total": 2358
      },
      {
        "club_badge_src": null,
        "entry": 6606534,
        "entry_name": "Bluemonkey",
        "event_total": 64,
        "has_played": true,
        "id": 52778238,
        "last_rank": 52461,
        "player_name": "Zino Sozou",
        "rank": 41963,
        "rank_sort": 42018,
        "total": 2358
      },
      {
        "club_badge_src": null,
        "entry": 6675995,
        "entry_name": "InglouriousBradfords",
        "event_total": 64,
        "has_played": true,
        "id": 53398028,
        "last_rank": 46236,
        "player_name": "Tom Rycroft",
        "rank": 41963,
        "rank_sort": 42019,
        "total": 2358
      },
      {
        "club_badge_src": null,
        "entry": 8376208,
        "entry_name": "Stealth Mode",
        "event_total": 63,
        "has_played": true,
        "id": 69454797,
        "last_rank": 44804,
        "player_name": "Walter White",
        "rank": 41963,
        "rank_sort": 42020,
        "total": 2358
      },
      {
        "club_badge_src": null,
        "entry": 8450163,
        "entry_name": "Kinder Mbeumo",
        "event_total": 75,
        "has_played": true,
        "id": 70156658,
        "last_rank": 71713,
        "player_name": "Callum Hamer",
        "rank": 41963,
        "rank_sort": 42021,
        "total": 2358
      },
      {
        "club_badge_src": null,
        "entry": 8609047,
        "entry_name": "Doku Banged my Mum",
        "event_total": 60,
        "has_played": true,
        "id": 71684922,
        "last_rank": 35768,
        "player_name": "Xavier Montague",
        "rank": 41963,
        "rank_sort": 42022,
        "total": 2358
      },
      {
        "club_badge_src": null,
        "entry": 8730401,
        "entry_name": "wzan",
        "event_total": 56,
        "has_played": true,
        "id": 72875159,
        "last_rank": 35867,
        "player_name": "Wzan \u0648\u0632\u0627\u0646",
        "rank": 41963,
        "rank_sort": 42023,
        "total": 2358
      },
      {
        "club_badge_src": null,
        "entry": 8788344,
        "entry_name": "fakeshot",
        "event_total": 69,
        "has_played": true,
        "id": 73431967,
        "last_rank": 60933,
        "player_name": "Akseli Ollila",
        "rank": 41963,
        "rank_sort": 42024,
        "total": 2358
      },
      {
        "club_badge_src": null,
        "entry": 9435719,
        "entry_name": "Ja n\u00e4in",
        "event_total": 56,
        "has_played": true,
        "id": 79714327,
        "last_rank": 35768,
        "player_name": "Markku Tiensuu",
        "rank": 41963,
        "rank_sort": 42025,
        "total": 2358
      },
      {
        "club_badge_src": null,
        "entry": 9473135,
        "entry_name": "Ahmed",
        "event_total": 50,
        "has_played": true,
        "id": 80059512,
        "last_rank": 29279,
        "player_name": "\u0627\u062d\u0645\u062f \u0627\u0644\u062c\u0631\u064a\u0627\u0646",
        "rank": 41963,
        "rank_sort": 42026,
        "total": 2358
      },
      {
        "club_badge_src": "https://fantasy.premierleague.com/gcs/plfpl-production-adobe-approved/plfpl-production/2577/d6694115-8678-46f7-8bf6-52607d4c0c7f.png",
        "entry": 2577,
        "entry_name": "Mr BOoMBaStic",
        "event_total": 66,
        "has_played": true,
        "id": 14387,
        "last_rank": 49078,
        "player_name": "Muhammad El Bashir",
        "rank": 42027,
        "rank_sort": 42027,
        "total": 2358
      },
      {
        "club_badge_src": "https://fantasy.premierleague.com/gcs/plfpl-production-adobe-approved/plfpl-production/3634/86bdb79f-e173-4ce2-a695-e18ad227ac37.png",
        "entry": 3634,
        "entry_name": "Kai Hawirtz",
        "event_total": 67,
        "has_played": true,
        "id": 20605,
        "last_rank": 57358,
        "player_name": "Zidan Sayrevi",
        "rank": 42027,
        "rank_sort": 42028,
        "total": 2358
      },
      {
        "club_badge_src": "https://fantasy.premierleague.com/gcs/plfpl-production-adobe-approved/plfpl-production/12596/9d489bdc-28e3-4d8b-86c4-8b4da9c78811.png",
        "entry": 12596,
        "entry_name": "Got Dat Dorgu In Him",
        "event_total": 62,
        "has_played": true,
        "id": 75572,
        "last_rank": 33483,
        "player_name": "Stephen Moyse",
        "rank": 42027,
        "rank_sort": 42029,
        "total": 2358
      },
      {
        "club_badge_src": null,
        "entry": 15262,
        "entry_name": "BANGI FC",
        "event_total": 62,
        "has_played": true,
        "id": 93519,
        "last_rank": 49368,
        "player_name": "UWAIS QARNIYY",
        "rank": 42027,
        "rank_sort": 42030,
        "total": 2358
      },
      {
        "club_badge_src": "https://fantasy.premierleague.com/gcs/plfpl-production-adobe-approved/plfpl-production/27757/eda36dd7-e57a-43f8-b421-715b4642b2b9.png",
        "entry": 27757,
        "entry_name": "Nankatsu",
        "event_total": 68,
        "has_played": true,
        "id": 175489,
        "last_rank": 59170,
        "player_name": "Virgantyo Kurniawan",
        "rank": 42027,
        "rank_sort": 42031,
        "total": 2358
      },
      {
        "club_badge_src": null,
        "entry": 43695,
        "entry_name": "Anffodus",
        "event_total": 61,
        "has_played": true,
        "id": 279866,
        "last_rank": 42152,
        "player_name": "Phillip James",
        "rank": 42027,
        "rank_sort": 42032,
        "total": 2358
      },
      {
        "club_badge_src": null,
        "entry": 63414,
        "entry_name": "PL Legends \ufffd",
        "event_total": 48,
        "has_played": true,
        "id": 409144,
        "last_rank": 23820,
        "player_name": "Khaled Hamed",
        "rank": 42027,
        "rank_sort": 42033,
        "total": 2358
      },
      {
        "club_badge_src": null,
        "entry": 68333,
        "entry_name": "Veer Zaara \u2665\ufe0f",
        "event_total": 67,
        "has_played": true,
        "id": 442723,
        "last_rank": 50848,
        "player_name": "Veer Zaara",
        "rank": 42027,
        "rank_sort": 42034,
        "total": 2358
      },
      {
        "club_badge_src": null,
        "entry": 70172,
        "entry_name": "Wild boys fc",
        "event_total": 42,
        "has_played": true,
        "id": 455512,
        "last_rank": 22263,
        "player_name": "vishen harichander",
        "rank": 42027,
        "rank_sort": 42035,
        "total": 2358
      },
      {
        "club_badge_src": "https://fantasy.premierleague.com/gcs/plfpl-production-adobe-approved/plfpl-production/102648/19405731-81bc-4e3c-9dd0-94edc3e9358e.png",
        "entry": 102648,
        "entry_name": "One in a Milner",
        "event_total": 53,
        "has_played": true,
        "id": 669748,
        "last_rank": 32491,
        "player_name": "Matthew Gallagher",
        "rank": 42027,
        "rank_sort": 42036,
        "total": 2358
      },
      {
        "club_badge_src": null,
        "entry": 222453,
        "entry_name": "FREE PALASTINE",
        "event_total": 62,
        "has_played": true,
        "id": 1479677,
        "last_rank": 43512,
        "player_name": "Mohamed A.Hamed",
        "rank": 42027,
        "rank_sort": 42037,
        "total": 2358
      },
      {
        "club_badge_src": null,
        "entry": 316511,
        "entry_name": "Sewey Vuitton",
        "event_total": 47,
        "has_played": true,
        "id": 2121432,
        "last_rank": 30361,
        "player_name": "James Ackerman",
        "rank": 42027,
        "rank_sort": 42038,
        "total": 2358
      },
      {
        "club_badge_src": "https://fantasy.premierleague.com/gcs/plfpl-production-adobe-approved/plfpl-production/328256/bd73d4fa-4128-4db9-9fe7-b04f3c6ffd95.png",
        "entry": 328256,
        "entry_name": "The House of Dragons",
        "event_total": 66,
        "has_played": true,
        "id": 2199111,
        "last_rank": 55659,
        "player_name": "Prabhat Mali",
        "rank": 42027,
        "rank_sort": 42039,
        "total": 2358
      },
      {
        "club_badge_src": null,
        "entry": 411963,
        "entry_name": "Deleted",
        "event_total": 62,
        "has_played": true,
        "id": 2762210,
        "last_rank": 43512,
        "player_name": "PSG Fan",
        "rank": 42027,
        "rank_sort": 42040,
        "total": 2358
      },
      {
        "club_badge_src": null,
        "entry": 476146,
        "entry_name": "ISIMS",
        "event_total": 47,
        "has_played": true,
        "id": 3196241,
        "last_rank": 30361,
        "player_name": "Stewart Watson",
        "rank": 42027,
        "rank_sort": 42041,
        "total": 2358
      },
      {
        "club_badge_src": null,
        "entry": 513673,
        "entry_name": "Orabi\u00edi",
        "event_total": 59,
        "has_played": true,
        "id": 3449110,
        "last_rank": 44882,
        "player_name": "Mahmoud orabi",
        "rank": 42027,
        "rank_sort": 42042,
        "total": 2358
      },
      {
        "club_badge_src": "https://fantasy.premierleague.com/gcs/plfpl-production-adobe-approved/plfpl-production/526650/9e96e37f-6b58-453b-b17c-f12b50d477c7.png",
        "entry": 526650,
        "entry_name": "Chels World Champs",
        "event_total": 64,
        "has_played": true,
        "id": 3540215,
        "last_rank": 46313,
        "player_name": "Shihab Sozan",
        "rank": 42027,
        "rank_sort": 42043,
        "total": 2358
      },
      {
        "club_badge_src": null,
        "entry": 561760,
        "entry_name": "Ladamso",
        "event_total": 44,
        "has_played": true,
        "id": 3781259,
        "last_rank": 23857,
        "player_name": "Luke Adams",
        "rank": 42027,
        "rank_sort": 42044,
        "total": 2358
      },
      {
        "club_badge_src": "https://fantasy.premierleague.com/gcs/plfpl-production-adobe-approved/plfpl-production/580839/ca55a720-fdb3-4f1f-b263-ea1854317fc0.png",
        "entry": 580839,
        "entry_name": "Que Salah Diaz",
        "event_total": 73,
        "has_played": true,
        "id": 3908699,
        "last_rank": 53952,
        "player_name": "Donagh Lanigan",
        "rank": 42027,
        "rank_sort": 42045,
        "total": 2358
      },
      {
        "club_badge_src": null,
        "entry": 634297,
        "entry_name": "AL AHLY",
        "event_total": 50,
        "has_played": true,
        "id": 4286655,
        "last_rank": 25517,
        "player_name": "Mohamed Fathy",
        "rank": 42027,
        "rank_sort": 42046,
        "total": 2358
      },
      {
        "club_badge_src": null,
        "entry": 640567,
        "entry_name": "JaSon Heung-Min",
        "event_total": 50,
        "has_played": true,
        "id": 4329178,
        "last_rank": 33695,
        "player_name": "Jason Dourado",
        "rank": 42027,
        "rank_sort": 42047,
        "total": 2358
      },
      {
        "club_badge_src": null,
        "entry": 677958,
        "entry_name": "Ballus Maximus",
        "event_total": 46,
        "has_played": true,
        "id": 4587122,
        "last_rank": 29369,
        "player_name": "Douglas Flint",
        "rank": 42027,
        "rank_sort": 42048,
        "total": 2358
      },
      {
        "club_badge_src": null,
        "entry": 706007,
        "entry_name": "MixiPixi",
        "event_total": 57,
        "has_played": true,
        "id": 4784709,
        "last_rank": 37134,
        "player_name": "Dimitar Savov",
        "rank": 42027,
        "rank_sort": 42049,
        "total": 2358
      },
      {
        "club_badge_src": null,
        "entry": 886179,
        "entry_name": "Kniksenprisen",
        "event_total": 68,
        "has_played": true,
        "id": 6077978,
        "last_rank": 59249,
        "player_name": "Karl-Ludvig Mauland",
        "rank": 42027,
        "rank_sort": 42050,
        "total": 2358
      }
    ]
  }
}