{
  "last_updated_data": "2026-05-24T23:28:17Z",
  "league": {
    "admin_entry": null,
    "closed": false,
    "code_privacy": "p",
    "created": "2025-07-20T23:14:33.933835Z",
    "cup_league": 2815434,
    "has_cup": true,
    "id": 314,
    "league_type": "s",
    "max_entries": null,
    "name": "Overall",
    "rank": null,
    "scoring": "c",
    "start_event": 1
  },
  "new_entries": {
    "has_next": false,
    "page": 1,
    "results": []
  },
  "standings": {
    "has_next": true,
    "page": 1542,
    "results": [
      {
        "club_badge_src": null,
        "entry": 617691,
        "entry_name": "Cook, Pass, Babridge",
        "event_total": 67,
        "has_played": true,
        "id": 4173399,
        "last_rank": 102501,
        "player_name": "Katherine Kennedy",
        "rank": 77015,
        "rank_sort": 77051,
        "total": 2337
      },
      {
        "club_badge_src": null,
        "entry": 665887,
        "entry_name": "Late night Gooners",
        "event_total": 54,
        "has_played": true,
        "id": 4502077,
        "last_rank": 72265,
        "player_name": "Kian Rees-Buckley",
        "rank": 77015,
        "rank_sort": 77052,
        "total": 2337
      },
      {
        "club_badge_src": null,
        "entry": 683374,
        "entry_name": "Sunnysiders",
        "event_total": 46,
        "has_played": true,
        "id": 4625188,
        "last_rank": 57451,
        "player_name": "Rob Davis",
        "rank": 77015,
        "rank_sort": 77053,
        "total": 2337
      },
      {
        "club_badge_src": null,
        "entry": 691289,
        "entry_name": "Gamser G\u00e4mse",
        "event_total": 31,
        "has_played": true,
        "id": 4681352,
        "last_rank": 35969,
        "player_name": "Iggy Kuri",
        "rank": 77015,
        "rank_sort": 77054,
        "total": 2337
      },
      {
        "club_badge_src": null,
        "entry": 710302,
        "entry_name": "Bang Goal",
        "event_total": 77,
        "has_played": true,
        "id": 4816915,
        "last_rank": 118654,
        "player_name": "Reg Schleiger",
        "rank": 77015,
        "rank_sort": 77055,
        "total": 2337
      },
      {
        "club_badge_src": null,
        "entry": 763903,
        "entry_name": "FC_Othmane",
        "event_total": 36,
        "has_played": true,
        "id": 5209803,
        "last_rank": 42081,
        "player_name": "Othmane Azzam",
        "rank": 77015,
        "rank_sort": 77056,
        "total": 2337
      },
      {
        "club_badge_src": null,
        "entry": 784205,
        "entry_name": "Morgans",
        "event_total": 53,
        "has_played": true,
        "id": 5356558,
        "last_rank": 62617,
        "player_name": "Karim Nader",
        "rank": 77015,
        "rank_sort": 77057,
        "total": 2337
      },
      {
        "club_badge_src": null,
        "entry": 797332,
        "entry_name": "Krstinci",
        "event_total": 59,
        "has_played": true,
        "id": 5457313,
        "last_rank": 83018,
        "player_name": "Aleksa Krstic",
        "rank": 77015,
        "rank_sort": 77058,
        "total": 2337
      },
      {
        "club_badge_src": null,
        "entry": 868216,
        "entry_name": "Net Six and Chill",
        "event_total": 58,
        "has_played": true,
        "id": 5952276,
        "last_rank": 80781,
        "player_name": "Andy Taylor",
        "rank": 77015,
        "rank_sort": 77059,
        "total": 2337
      },
      {
        "club_badge_src": null,
        "entry": 920629,
        "entry_name": "zeekyle",
        "event_total": 65,
        "has_played": true,
        "id": 6331415,
        "last_rank": 97305,
        "player_name": "Kyle Breen",
        "rank": 77015,
        "rank_sort": 77060,
        "total": 2337
      },
      {
        "club_badge_src": null,
        "entry": 967936,
        "entry_name": "Palmer Violets",
        "event_total": 65,
        "has_played": true,
        "id": 6671253,
        "last_rank": 87541,
        "player_name": "Gareth Lord",
        "rank": 77015,
        "rank_sort": 77061,
        "total": 2337
      },
      {
        "club_badge_src": null,
        "entry": 1016800,
        "entry_name": "Ctrl Alt De Ligt",
        "event_total": 59,
        "has_played": true,
        "id": 7034328,
        "last_rank": 83018,
        "player_name": "Bilal Bhatti",
        "rank": 77015,
        "rank_sort": 77062,
        "total": 2337
      },
      {
        "club_badge_src": null,
        "entry": 1102520,
        "entry_name": "Bara +EV",
        "event_total": 61,
        "has_played": true,
        "id": 7636891,
        "last_rank": 78440,
        "player_name": "Gustav Persson",
        "rank": 77015,
        "rank_sort": 77063,
        "total": 2337
      },
      {
        "club_badge_src": null,
        "entry": 1111060,
        "entry_name": "Ajibola khaleel",
        "event_total": 71,
        "has_played": true,
        "id": 7696307,
        "last_rank": 113400,
        "player_name": "khaleelullah ajibola",
        "rank": 77015,
        "rank_sort": 77064,
        "total": 2337
      },
      {
        "club_badge_src": null,
        "entry": 1111796,
        "entry_name": "Reds, the red team",
        "event_total": 69,
        "has_played": true,
        "id": 7701288,
        "last_rank": 107866,
        "player_name": "Sean Dutton",
        "rank": 77015,
        "rank_sort": 77065,
        "total": 2337
      },
      {
        "club_badge_src": null,
        "entry": 1165633,
        "entry_name": "Major League Saka",
        "event_total": 73,
        "has_played": true,
        "id": 8085880,
        "last_rank": 119152,
        "player_name": "Elliot Croucher",
        "rank": 77015,
        "rank_sort": 77066,
        "total": 2337
      },
      {
        "club_badge_src": null,
        "entry": 1244701,
        "entry_name": "Bl@ck M\u00c5g\u00efc",
        "event_total": 61,
        "has_played": true,
        "id": 8644499,
        "last_rank": 69641,
        "player_name": "Chintu Moonga",
        "rank": 77015,
        "rank_sort": 77067,
        "total": 2337
      },
      {
        "club_badge_src": "https://fantasy.premierleague.com/gcs/plfpl-production-adobe-approved/plfpl-production/1308774/5c8c859c-f710-429a-9982-4df5edc5dba3.png",
        "entry": 1308774,
        "entry_name": "goon squad",
        "event_total": 58,
        "has_played": true,
        "id": 9097201,
        "last_rank": 71956,
        "player_name": "Mo J",
        "rank": 77015,
        "rank_sort": 77068,
        "total": 2337
      },
      {
        "club_badge_src": null,
        "entry": 1418013,
        "entry_name": "Sniper team",
        "event_total": 54,
        "has_played": true,
        "id": 9872920,
        "last_rank": 72265,
        "player_name": "mohamed sayed",
        "rank": 77015,
        "rank_sort": 77069,
        "total": 2337
      },
      {
        "club_badge_src": null,
        "entry": 1453818,
        "entry_name": "LittleBwana",
        "event_total": 64,
        "has_played": true,
        "id": 10130191,
        "last_rank": 94933,
        "player_name": "Darrell Spencer",
        "rank": 77015,
        "rank_sort": 77070,
        "total": 2337
      },
      {
        "club_badge_src": null,
        "entry": 1464598,
        "entry_name": "\u0646\u0648\u064a\u0631 \u0627\u0641 \u0633\u064a",
        "event_total": 74,
        "has_played": true,
        "id": 10208970,
        "last_rank": 122344,
        "player_name": "ahmed elgohary",
        "rank": 77015,
        "rank_sort": 77071,
        "total": 2337
      },
      {
        "club_badge_src": null,
        "entry": 1514520,
        "entry_name": "Cliffside Wanderers",
        "event_total": 65,
        "has_played": true,
        "id": 10563268,
        "last_rank": 97597,
        "player_name": "Mike Wood",
        "rank": 77015,
        "rank_sort": 77072,
        "total": 2337
      },
      {
        "club_badge_src": null,
        "entry": 1529742,
        "entry_name": "Smarties",
        "event_total": 56,
        "has_played": true,
        "id": 10674967,
        "last_rank": 76128,
        "player_name": "Graham McKenzie",
        "rank": 77015,
        "rank_sort": 77073,
        "total": 2337
      },
      {
        "club_badge_src": null,
        "entry": 1598870,
        "entry_name": "kiely kickers",
        "event_total": 60,
        "has_played": true,
        "id": 11185146,
        "last_rank": 85349,
        "player_name": "chris kiely",
        "rank": 77015,
        "rank_sort": 77074,
        "total": 2337
      },
      {
        "club_badge_src": null,
        "entry": 1706354,
        "entry_name": "DeclanFreeKickRice",
        "event_total": 70,
        "has_played": true,
        "id": 11954125,
        "last_rank": 110573,
        "player_name": "Lana Raja",
        "rank": 77015,
        "rank_sort": 77075,
        "total": 2337
      },
      {
        "club_badge_src": null,
        "entry": 1806630,
        "entry_name": "Kinder Mbeumo",
        "event_total": 71,
        "has_played": true,
        "id": 12701193,
        "last_rank": 102343,
        "player_name": "Philip Leetch",
        "rank": 77015,
        "rank_sort": 77076,
        "total": 2337
      },
      {
        "club_badge_src": null,
        "entry": 1822366,
        "entry_name": "CBM",
        "event_total": 57,
        "has_played": true,
        "id": 12816768,
        "last_rank": 78575,
        "player_name": "Jonathan Ho",
        "rank": 77015,
        "rank_sort": 77077,
        "total": 2337
      },
      {
        "club_badge_src": null,
        "entry": 1851883,
        "entry_name": "Stranger Mings",
        "event_total": 60,
        "has_played": true,
        "id": 13031299,
        "last_rank": 85349,
        "player_name": "Richard Dobson",
        "rank": 77015,
        "rank_sort": 77078,
        "total": 2337
      },
      {
        "club_badge_src": null,
        "entry": 1906101,
        "entry_name": "Blink 1- Eto'o",
        "event_total": 70,
        "has_played": true,
        "id": 13437495,
        "last_rank": 110573,
        "player_name": "Cameron Miller",
        "rank": 77015,
        "rank_sort": 77079,
        "total": 2337
      },
      {
        "club_badge_src": null,
        "entry": 1906751,
        "entry_name": "SmoggyBottom",
        "event_total": 67,
        "has_played": true,
        "id": 13442203,
        "last_rank": 102501,
        "player_name": "Lee Maskell",
        "rank": 77015,
        "rank_sort": 77080,
        "total": 2337
      },
      {
        "club_badge_src": null,
        "entry": 1907808,
        "entry_name": "Tennick's Team",
        "event_total": 49,
        "has_played": true,
        "id": 13449877,
        "last_rank": 62724,
        "player_name": "Liam Tennick",
        "rank": 77015,
        "rank_sort": 77081,
        "total": 2337
      },
      {
        "club_badge_src": "https://fantasy.premierleague.com/gcs/plfpl-production-adobe-approved/plfpl-production/2091527/9aa97018-fd37-40bc-9e2b-9ae1c5e95297.png",
        "entry": 2091527,
        "entry_name": "baraSinghee_XI",
        "event_total": 68,
        "has_played": true,
        "id": 14839274,
        "last_rank": 104941,
        "player_name": "Laxman Thapa",
        "rank": 77015,
        "rank_sort": 77082,
        "total": 2337
      },
      {
        "club_badge_src": null,
        "entry": 2119817,
        "entry_name": "Hufsa",
        "event_total": 44,
        "has_played": true,
        "id": 15057536,
        "last_rank": 47722,
        "player_name": "Espen Nilssen",
        "rank": 77015,
        "rank_sort": 77083,
        "total": 2337
      },
      {
        "club_badge_src": null,
        "entry": 2154179,
        "entry_name": "zangora",
        "event_total": 68,
        "has_played": true,
        "id": 15312508,
        "last_rank": 104712,
        "player_name": "A7med 7ossny",
        "rank": 77015,
        "rank_sort": 77084,
        "total": 2337
      },
      {
        "club_badge_src": null,
        "entry": 2249431,
        "entry_name": "saints",
        "event_total": 74,
        "has_played": true,
        "id": 16028693,
        "last_rank": 121991,
        "player_name": "Callum Downer",
        "rank": 77015,
        "rank_sort": 77085,
        "total": 2337
      },
      {
        "club_badge_src": null,
        "entry": 2388599,
        "entry_name": "ScandiGunner",
        "event_total": 67,
        "has_played": true,
        "id": 17061067,
        "last_rank": 92126,
        "player_name": "Martin Preisler",
        "rank": 77015,
        "rank_sort": 77086,
        "total": 2337
      },
      {
        "club_badge_src": null,
        "entry": 2388765,
        "entry_name": "Popersijanci",
        "event_total": 44,
        "has_played": true,
        "id": 17062306,
        "last_rank": 54065,
        "player_name": "Jovanovic Nikola",
        "rank": 77015,
        "rank_sort": 77087,
        "total": 2337
      },
      {
        "club_badge_src": null,
        "entry": 2517793,
        "entry_name": "Dragon",
        "event_total": 50,
        "has_played": true,
        "id": 18039554,
        "last_rank": 50635,
        "player_name": "Ammar Fawzy",
        "rank": 77015,
        "rank_sort": 77088,
        "total": 2337
      },
      {
        "club_badge_src": null,
        "entry": 2540594,
        "entry_name": "TheRealGoalkeres",
        "event_total": 60,
        "has_played": true,
        "id": 18207953,
        "last_rank": 85349,
        "player_name": "Allen Dsouza",
        "rank": 77015,
        "rank_sort": 77089,
        "total": 2337
      },
      {
        "club_badge_src": "https://fantasy.premierleague.com/gcs/plfpl-production-adobe-approved/plfpl-production/2941546/d2c5f512-c131-4609-9612-299dbacad0a3.png",
        "entry": 2941546,
        "entry_name": "Wirtz Case Scenario",
        "event_total": 41,
        "has_played": true,
        "id": 21584672,
        "last_rank": 49301,
        "player_name": "Shayn Bosco",
        "rank": 77015,
        "rank_sort": 77090,
        "total": 2337
      },
      {
        "club_badge_src": null,
        "entry": 2993365,
        "entry_name": "Beef Cherki",
        "event_total": 67,
        "has_played": true,
        "id": 22015848,
        "last_rank": 92332,
        "player_name": "Chris Chung",
        "rank": 77015,
        "rank_sort": 77091,
        "total": 2337
      },
      {
        "club_badge_src": null,
        "entry": 3016875,
        "entry_name": "Delap Dance",
        "event_total": 72,
        "has_played": true,
        "id": 22195693,
        "last_rank": 94537,
        "player_name": "Johnny Webb",
        "rank": 77015,
        "rank_sort": 77092,
        "total": 2337
      },
      {
        "club_badge_src": null,
        "entry": 3040317,
        "entry_name": "Saka PoTattos",
        "event_total": 57,
        "has_played": true,
        "id": 22378039,
        "last_rank": 70072,
        "player_name": "Tatto Hosking",
        "rank": 77015,
        "rank_sort": 77093,
        "total": 2337
      },
      {
        "club_badge_src": null,
        "entry": 3091906,
        "entry_name": "Better than Figo",
        "event_total": 45,
        "has_played": true,
        "id": 22787149,
        "last_rank": 55747,
        "player_name": "Emlyn Harris",
        "rank": 77015,
        "rank_sort": 77094,
        "total": 2337
      },
      {
        "club_badge_src": null,
        "entry": 3160729,
        "entry_name": "Adel",
        "event_total": 65,
        "has_played": true,
        "id": 23348766,
        "last_rank": 97470,
        "player_name": "Adel Fahim",
        "rank": 77015,
        "rank_sort": 77095,
        "total": 2337
      },
      {
        "club_badge_src": null,
        "entry": 3197810,
        "entry_name": "The Konate Kid",
        "event_total": 61,
        "has_played": true,
        "id": 23637183,
        "last_rank": 87710,
        "player_name": "ryan kisten",
        "rank": 77015,
        "rank_sort": 77096,
        "total": 2337
      },
      {
        "club_badge_src": null,
        "entry": 3271765,
        "entry_name": "OOOMAIGADD",
        "event_total": 68,
        "has_played": true,
        "id": 24212558,
        "last_rank": 105137,
        "player_name": "CACA HANDIKA",
        "rank": 77015,
        "rank_sort": 77097,
        "total": 2337
      },
      {
        "club_badge_src": null,
        "entry": 3460330,
        "entry_name": "Red Rocket",
        "event_total": 72,
        "has_played": true,
        "id": 25721135,
        "last_rank": 115760,
        "player_name": "Ted Croker",
        "rank": 77015,
        "rank_sort": 77098,
        "total": 2337
      },
      {
        "club_badge_src": "https://fantasy.premierleague.com/gcs/plfpl-production-adobe-approved/plfpl-production/3465947/bb99a6e8-8870-4147-8ee4-1d04f0ea8c1c.png",
        "entry": 3465947,
        "entry_name": "skybluearmy!!!",
        "event_total": 65,
        "has_played": true,
        "id": 25765276,
        "last_rank": 97470,
        "player_name": "Thomas Doran",
        "rank": 77015,
        "rank_sort": 77099,
        "total": 2337
      },
      {
        "club_badge_src": null,
        "entry": 3727763,
        "entry_name": "Bj\u00f6rnley FC",
        "event_total": 63,
        "has_played": true,
        "id": 27823251,
        "last_rank": 82873,
        "player_name": "Bj\u00f6rn Johnson",
        "rank": 77015,
        "rank_sort": 77100,
        "total": 2337
      }
    ]
  }
}