{
  "last_updated_data": "2026-05-24T23:28:17Z",
  "league": {
    "admin_entry": null,
    "closed": false,
    "code_privacy": "p",
    "created": "2025-07-20T23:14:33.933835Z",
    "cup_league": 2815434,
    "has_cup": true,
    "id": 314,
    "league_type": "s",
    "max_entries": null,
    "name": "Overall",
    "rank": null,
    "scoring": "c",
    "start_event": 1
  },
  "new_entries": {
    "has_next": false,
    "page": 1,
    "results": []
  },
  "standings": {
    "has_next": true,
    "page": 1501,
    "results": [
      {
        "club_badge_src": null,
        "entry": 4165389,
        "entry_name": "HulkHoganPhoneCall",
        "event_total": 64,
        "has_played": true,
        "id": 31498822,
        "last_rank": 82664,
        "player_name": "Michael Atif",
        "rank": 74920,
        "rank_sort": 75001,
        "total": 2338
      },
      {
        "club_badge_src": null,
        "entry": 4167430,
        "entry_name": "Swindon",
        "event_total": 69,
        "has_played": true,
        "id": 31515722,
        "last_rank": 94778,
        "player_name": "Milan Rojevic",
        "rank": 74920,
        "rank_sort": 75002,
        "total": 2338
      },
      {
        "club_badge_src": "https://fantasy.premierleague.com/gcs/plfpl-production-adobe-approved/plfpl-production/4412847/c48c666f-e2c1-4673-8f78-8e7d39591e4e.png",
        "entry": 4412847,
        "entry_name": "Ek266",
        "event_total": 59,
        "has_played": true,
        "id": 33569949,
        "last_rank": 80651,
        "player_name": "Eddy Kareh",
        "rank": 74920,
        "rank_sort": 75003,
        "total": 2338
      },
      {
        "club_badge_src": null,
        "entry": 4445798,
        "entry_name": "Ginovski",
        "event_total": 69,
        "has_played": true,
        "id": 33857164,
        "last_rank": 104712,
        "player_name": "Petar Ginovski",
        "rank": 74920,
        "rank_sort": 75004,
        "total": 2338
      },
      {
        "club_badge_src": null,
        "entry": 4599663,
        "entry_name": "Lost for Wirtz",
        "event_total": 51,
        "has_played": true,
        "id": 35133775,
        "last_rank": 57358,
        "player_name": "Andrew Hedley",
        "rank": 74920,
        "rank_sort": 75005,
        "total": 2338
      },
      {
        "club_badge_src": null,
        "entry": 5123992,
        "entry_name": "Line It FC",
        "event_total": 58,
        "has_played": true,
        "id": 39623642,
        "last_rank": 78440,
        "player_name": "Ethan Rathore",
        "rank": 74920,
        "rank_sort": 75006,
        "total": 2338
      },
      {
        "club_badge_src": null,
        "entry": 5393679,
        "entry_name": "Almighty",
        "event_total": 57,
        "has_played": true,
        "id": 41934119,
        "last_rank": 76330,
        "player_name": "Aleksandar Visic",
        "rank": 74920,
        "rank_sort": 75007,
        "total": 2338
      },
      {
        "club_badge_src": null,
        "entry": 5492016,
        "entry_name": "LAIPUI",
        "event_total": 55,
        "has_played": true,
        "id": 42775241,
        "last_rank": 72346,
        "player_name": "Ruatpuia Jongte",
        "rank": 74920,
        "rank_sort": 75008,
        "total": 2338
      },
      {
        "club_badge_src": null,
        "entry": 5599965,
        "entry_name": "7",
        "event_total": 50,
        "has_played": true,
        "id": 43756130,
        "last_rank": 62724,
        "player_name": "MouStafa MoUrad",
        "rank": 74920,
        "rank_sort": 75009,
        "total": 2338
      },
      {
        "club_badge_src": null,
        "entry": 5802263,
        "entry_name": "Anything you Kudus\u2026",
        "event_total": 63,
        "has_played": true,
        "id": 45519493,
        "last_rank": 89897,
        "player_name": "Owen Jenkins",
        "rank": 74920,
        "rank_sort": 75010,
        "total": 2338
      },
      {
        "club_badge_src": "https://fantasy.premierleague.com/gcs/plfpl-production-adobe-approved/plfpl-production/5815970/dc03adff-5324-4414-80ba-5f82256728bc.png",
        "entry": 5815970,
        "entry_name": "INEVITABLE FC",
        "event_total": 68,
        "has_played": true,
        "id": 45637514,
        "last_rank": 92332,
        "player_name": "Kudakwashe Binzi",
        "rank": 74920,
        "rank_sort": 75011,
        "total": 2338
      },
      {
        "club_badge_src": "https://fantasy.premierleague.com/gcs/plfpl-production-adobe-approved/plfpl-production/6009272/90148168-f742-434e-b9a9-8a216853ffd9.png",
        "entry": 6009272,
        "entry_name": "Survivor Blues",
        "event_total": 65,
        "has_played": true,
        "id": 47380396,
        "last_rank": 94933,
        "player_name": "Gabi Trigga",
        "rank": 74920,
        "rank_sort": 75012,
        "total": 2338
      },
      {
        "club_badge_src": "https://fantasy.premierleague.com/gcs/plfpl-production-adobe-approved/plfpl-production/6265739/a067036b-7283-4518-abde-89e84bec7ce5.png",
        "entry": 6265739,
        "entry_name": "Osamh GH",
        "event_total": 65,
        "has_played": true,
        "id": 49612992,
        "last_rank": 94537,
        "player_name": "Mr-OS --",
        "rank": 74920,
        "rank_sort": 75013,
        "total": 2338
      },
      {
        "club_badge_src": null,
        "entry": 6678867,
        "entry_name": "kinder Mbeumo",
        "event_total": 52,
        "has_played": true,
        "id": 53423092,
        "last_rank": 66296,
        "player_name": "Roman Shalapay",
        "rank": 74920,
        "rank_sort": 75014,
        "total": 2338
      },
      {
        "club_badge_src": null,
        "entry": 6733815,
        "entry_name": "Hope FC",
        "event_total": 59,
        "has_played": true,
        "id": 53899130,
        "last_rank": 80651,
        "player_name": "Sultan --",
        "rank": 74920,
        "rank_sort": 75015,
        "total": 2338
      },
      {
        "club_badge_src": null,
        "entry": 6758108,
        "entry_name": "Hunterlaand",
        "event_total": 58,
        "has_played": true,
        "id": 54107295,
        "last_rank": 70072,
        "player_name": "Vlad Stefan Pandelescu",
        "rank": 74920,
        "rank_sort": 75016,
        "total": 2338
      },
      {
        "club_badge_src": null,
        "entry": 6983562,
        "entry_name": "chatchout team",
        "event_total": 82,
        "has_played": true,
        "id": 56051090,
        "last_rank": 144830,
        "player_name": "Houssem Bouzid",
        "rank": 74920,
        "rank_sort": 75017,
        "total": 2338
      },
      {
        "club_badge_src": null,
        "entry": 7009415,
        "entry_name": "muleyball",
        "event_total": 52,
        "has_played": true,
        "id": 56289723,
        "last_rank": 59077,
        "player_name": "Martin Drake",
        "rank": 74920,
        "rank_sort": 75018,
        "total": 2338
      },
      {
        "club_badge_src": null,
        "entry": 7353286,
        "entry_name": "AlZ3eem",
        "event_total": 54,
        "has_played": true,
        "id": 59578431,
        "last_rank": 62617,
        "player_name": "\u0639\u0644\u064a \u0627\u0644\u0646\u0642\u064a",
        "rank": 74920,
        "rank_sort": 75019,
        "total": 2338
      },
      {
        "club_badge_src": null,
        "entry": 7890363,
        "entry_name": "Abanikannda's.",
        "event_total": 73,
        "has_played": true,
        "id": 64897699,
        "last_rank": 116216,
        "player_name": "Ethan \u00c0b\u00e1nik\u00e1nnd\u00e1",
        "rank": 74920,
        "rank_sort": 75020,
        "total": 2338
      },
      {
        "club_badge_src": null,
        "entry": 8149517,
        "entry_name": "AZYUNITED",
        "event_total": 65,
        "has_played": true,
        "id": 67264368,
        "last_rank": 84731,
        "player_name": "Ahmad Zahran Yusof",
        "rank": 74920,
        "rank_sort": 75021,
        "total": 2338
      },
      {
        "club_badge_src": null,
        "entry": 8243466,
        "entry_name": "Dark Knight",
        "event_total": 65,
        "has_played": true,
        "id": 68160340,
        "last_rank": 85207,
        "player_name": "Haytham Abbas",
        "rank": 74920,
        "rank_sort": 75022,
        "total": 2338
      },
      {
        "club_badge_src": null,
        "entry": 8584861,
        "entry_name": "The wrath",
        "event_total": 40,
        "has_played": true,
        "id": 71452130,
        "last_rank": 46313,
        "player_name": "meti john",
        "rank": 74920,
        "rank_sort": 75023,
        "total": 2338
      },
      {
        "club_badge_src": null,
        "entry": 8830632,
        "entry_name": "GMG Legends",
        "event_total": 50,
        "has_played": true,
        "id": 73838805,
        "last_rank": 62812,
        "player_name": "Ghenwa Ali",
        "rank": 74920,
        "rank_sort": 75024,
        "total": 2338
      },
      {
        "club_badge_src": null,
        "entry": 8947972,
        "entry_name": "Alfies M\u00e4ster Lag",
        "event_total": 46,
        "has_played": true,
        "id": 74979524,
        "last_rank": 49207,
        "player_name": "Douglas Lundgren",
        "rank": 74920,
        "rank_sort": 75025,
        "total": 2338
      },
      {
        "club_badge_src": null,
        "entry": 8985545,
        "entry_name": "Slotty Doesn\u2019t Know",
        "event_total": 64,
        "has_played": true,
        "id": 75342555,
        "last_rank": 82664,
        "player_name": "Rory Inglis",
        "rank": 74920,
        "rank_sort": 75026,
        "total": 2338
      },
      {
        "club_badge_src": null,
        "entry": 9000585,
        "entry_name": "T's Chaps",
        "event_total": 76,
        "has_played": true,
        "id": 75486210,
        "last_rank": 124682,
        "player_name": "Taylor Chapman",
        "rank": 74920,
        "rank_sort": 75027,
        "total": 2338
      },
      {
        "club_badge_src": null,
        "entry": 9139714,
        "entry_name": "The Big Lewandowski",
        "event_total": 48,
        "has_played": true,
        "id": 76840938,
        "last_rank": 59170,
        "player_name": "David Hunter",
        "rank": 74920,
        "rank_sort": 75028,
        "total": 2338
      },
      {
        "club_badge_src": null,
        "entry": 9247113,
        "entry_name": "The Pincer Movement",
        "event_total": 57,
        "has_played": true,
        "id": 77894252,
        "last_rank": 60462,
        "player_name": "Nivin Thomas George",
        "rank": 74920,
        "rank_sort": 75029,
        "total": 2338
      },
      {
        "club_badge_src": null,
        "entry": 9342827,
        "entry_name": "\uff34",
        "event_total": 67,
        "has_played": true,
        "id": 78819480,
        "last_rank": 99806,
        "player_name": "t henzelis",
        "rank": 74920,
        "rank_sort": 75030,
        "total": 2338
      },
      {
        "club_badge_src": null,
        "entry": 9413615,
        "entry_name": "FC Disen",
        "event_total": 69,
        "has_played": true,
        "id": 79504264,
        "last_rank": 94778,
        "player_name": "Emil Liereng",
        "rank": 74920,
        "rank_sort": 75031,
        "total": 2338
      },
      {
        "club_badge_src": null,
        "entry": 9462285,
        "entry_name": "Massive Saka",
        "event_total": 54,
        "has_played": true,
        "id": 79962071,
        "last_rank": 70072,
        "player_name": "Dean Latchman",
        "rank": 74920,
        "rank_sort": 75032,
        "total": 2338
      },
      {
        "club_badge_src": "https://fantasy.premierleague.com/gcs/plfpl-production-adobe-approved/plfpl-production/9581355/ea0fe4a6-6257-454a-b992-51b5e503944d.png",
        "entry": 9581355,
        "entry_name": "Nico fc",
        "event_total": 64,
        "has_played": true,
        "id": 81130741,
        "last_rank": 92471,
        "player_name": "Nico Di Carlo",
        "rank": 74920,
        "rank_sort": 75033,
        "total": 2338
      },
      {
        "club_badge_src": "https://fantasy.premierleague.com/gcs/plfpl-production-adobe-approved/plfpl-production/20360/420eb3cf-fb41-4d48-bd7a-854ccd27f8cc.png",
        "entry": 20360,
        "entry_name": "Zilant City",
        "event_total": 41,
        "has_played": true,
        "id": 126872,
        "last_rank": 42152,
        "player_name": "Benjamin Dik",
        "rank": 75034,
        "rank_sort": 75034,
        "total": 2338
      },
      {
        "club_badge_src": null,
        "entry": 108517,
        "entry_name": "Enter Name Here",
        "event_total": 59,
        "has_played": true,
        "id": 707485,
        "last_rank": 72265,
        "player_name": "Val Kats",
        "rank": 75034,
        "rank_sort": 75035,
        "total": 2338
      },
      {
        "club_badge_src": null,
        "entry": 132271,
        "entry_name": "Lego Botman",
        "event_total": 59,
        "has_played": true,
        "id": 861663,
        "last_rank": 80877,
        "player_name": "Oscar Murphy",
        "rank": 75034,
        "rank_sort": 75036,
        "total": 2338
      },
      {
        "club_badge_src": null,
        "entry": 156707,
        "entry_name": "Your Wirtz Nightmare",
        "event_total": 59,
        "has_played": true,
        "id": 1030622,
        "last_rank": 64319,
        "player_name": "Meshari .",
        "rank": 75034,
        "rank_sort": 75037,
        "total": 2338
      },
      {
        "club_badge_src": null,
        "entry": 178619,
        "entry_name": "Adiala 11",
        "event_total": 65,
        "has_played": true,
        "id": 1178846,
        "last_rank": 76330,
        "player_name": "Yasir Solanki",
        "rank": 75034,
        "rank_sort": 75038,
        "total": 2338
      },
      {
        "club_badge_src": "https://fantasy.premierleague.com/gcs/plfpl-production-adobe-approved/plfpl-production/194999/5bf66280-7b16-4c01-ac39-d9b00298badf.png",
        "entry": 194999,
        "entry_name": "Seskonvict",
        "event_total": 49,
        "has_played": true,
        "id": 1292970,
        "last_rank": 60933,
        "player_name": "Bradley Ng",
        "rank": 75034,
        "rank_sort": 75039,
        "total": 2338
      },
      {
        "club_badge_src": null,
        "entry": 267917,
        "entry_name": "Rangifer Tarandus FC",
        "event_total": 53,
        "has_played": true,
        "id": 1782320,
        "last_rank": 68216,
        "player_name": "Eric Saa",
        "rank": 75034,
        "rank_sort": 75040,
        "total": 2338
      },
      {
        "club_badge_src": "https://fantasy.premierleague.com/gcs/plfpl-production-adobe-approved/plfpl-production/296520/aa30108c-8479-400d-b81a-ab01c2f1f880.png",
        "entry": 296520,
        "entry_name": "BOWEN ARROW FC",
        "event_total": 66,
        "has_played": true,
        "id": 1981241,
        "last_rank": 78440,
        "player_name": "Andrew savage",
        "rank": 75034,
        "rank_sort": 75041,
        "total": 2338
      },
      {
        "club_badge_src": "https://fantasy.premierleague.com/gcs/plfpl-production-adobe-approved/plfpl-production/301939/f346a66a-d12b-49b7-b50c-a91822711ea7.png",
        "entry": 301939,
        "entry_name": "wirtz team ever",
        "event_total": 65,
        "has_played": true,
        "id": 2020421,
        "last_rank": 84980,
        "player_name": "Sumeet Patel",
        "rank": 75034,
        "rank_sort": 75042,
        "total": 2338
      },
      {
        "club_badge_src": null,
        "entry": 369013,
        "entry_name": "shawky",
        "event_total": 68,
        "has_played": true,
        "id": 2469335,
        "last_rank": 92332,
        "player_name": "Abdalla Shawky",
        "rank": 75034,
        "rank_sort": 75043,
        "total": 2338
      },
      {
        "club_badge_src": "https://fantasy.premierleague.com/gcs/plfpl-production-adobe-approved/plfpl-production/400874/8bdb5592-48f2-498c-90c6-fa47f118b1ec.png",
        "entry": 400874,
        "entry_name": "way 2 sesko",
        "event_total": 70,
        "has_played": true,
        "id": 2688174,
        "last_rank": 97470,
        "player_name": "Wiktor Mroziuk",
        "rank": 75034,
        "rank_sort": 75044,
        "total": 2338
      },
      {
        "club_badge_src": null,
        "entry": 431495,
        "entry_name": "Goose's XI",
        "event_total": 68,
        "has_played": true,
        "id": 2893866,
        "last_rank": 102622,
        "player_name": "Angus Wight",
        "rank": 75034,
        "rank_sort": 75045,
        "total": 2338
      },
      {
        "club_badge_src": null,
        "entry": 445576,
        "entry_name": "Red Devils",
        "event_total": 51,
        "has_played": true,
        "id": 2988268,
        "last_rank": 64562,
        "player_name": "Gajendran P",
        "rank": 75034,
        "rank_sort": 75046,
        "total": 2338
      },
      {
        "club_badge_src": null,
        "entry": 455986,
        "entry_name": "Its 2nd Gear Time",
        "event_total": 59,
        "has_played": true,
        "id": 3059134,
        "last_rank": 64319,
        "player_name": "S brian",
        "rank": 75034,
        "rank_sort": 75047,
        "total": 2338
      },
      {
        "club_badge_src": null,
        "entry": 496147,
        "entry_name": "Heart isn't init",
        "event_total": 70,
        "has_played": true,
        "id": 3330145,
        "last_rank": 107995,
        "player_name": "Joshua FROST-NIVEN",
        "rank": 75034,
        "rank_sort": 75048,
        "total": 2338
      },
      {
        "club_badge_src": null,
        "entry": 537402,
        "entry_name": "Game of Stones",
        "event_total": 49,
        "has_played": true,
        "id": 3617593,
        "last_rank": 60933,
        "player_name": "Aidan Clish",
        "rank": 75034,
        "rank_sort": 75049,
        "total": 2338
      },
      {
        "club_badge_src": "https://fantasy.premierleague.com/gcs/plfpl-production-adobe-approved/plfpl-production/538422/aa3d2d3c-d04c-4063-ac47-153ba8a7cb84.png",
        "entry": 538422,
        "entry_name": "RedDevil",
        "event_total": 75,
        "has_played": true,
        "id": 3624332,
        "last_rank": 122344,
        "player_name": "Ahmed Saaih",
        "rank": 75034,
        "rank_sort": 75050,
        "total": 2338
      }
    ]
  }
}