{
  "last_updated_data": "2026-05-24T23:28:17Z",
  "league": {
    "admin_entry": null,
    "closed": false,
    "code_privacy": "p",
    "created": "2025-07-20T23:14:33.933835Z",
    "cup_league": 2815434,
    "has_cup": true,
    "id": 314,
    "league_type": "s",
    "max_entries": null,
    "name": "Overall",
    "rank": null,
    "scoring": "c",
    "start_event": 1
  },
  "new_entries": {
    "has_next": false,
    "page": 1,
    "results": []
  },
  "standings": {
    "has_next": true,
    "page": 419,
    "results": [
      {
        "club_badge_src": null,
        "entry": 194904,
        "entry_name": "Hooligans",
        "event_total": 64,
        "has_played": true,
        "id": 1292306,
        "last_rank": 22685,
        "player_name": "Max Hopkins",
        "rank": 20885,
        "rank_sort": 20901,
        "total": 2379
      },
      {
        "club_badge_src": null,
        "entry": 199251,
        "entry_name": "\u00d8de Toilette",
        "event_total": 62,
        "has_played": true,
        "id": 1322384,
        "last_rank": 24330,
        "player_name": "Omar Shiqim",
        "rank": 20885,
        "rank_sort": 20902,
        "total": 2379
      },
      {
        "club_badge_src": null,
        "entry": 215899,
        "entry_name": "bonnie Bs boys",
        "event_total": 66,
        "has_played": true,
        "id": 1435904,
        "last_rank": 27976,
        "player_name": "Alex Ludlam",
        "rank": 20885,
        "rank_sort": 20903,
        "total": 2379
      },
      {
        "club_badge_src": null,
        "entry": 229906,
        "entry_name": "Naadoo786",
        "event_total": 66,
        "has_played": true,
        "id": 1529557,
        "last_rank": 24143,
        "player_name": "Naadir Ally",
        "rank": 20885,
        "rank_sort": 20904,
        "total": 2379
      },
      {
        "club_badge_src": "https://fantasy.premierleague.com/gcs/plfpl-production-adobe-approved/plfpl-production/244953/78aa220a-c397-44e5-af9d-a6ad0babe91a.png",
        "entry": 244953,
        "entry_name": "approx 15 dirtbags",
        "event_total": 59,
        "has_played": true,
        "id": 1630875,
        "last_rank": 18985,
        "player_name": "Jibran Siddique",
        "rank": 20885,
        "rank_sort": 20905,
        "total": 2379
      },
      {
        "club_badge_src": null,
        "entry": 328035,
        "entry_name": "Partey like its 1999",
        "event_total": 71,
        "has_played": true,
        "id": 2197671,
        "last_rank": 33147,
        "player_name": "James Redcliffe",
        "rank": 20885,
        "rank_sort": 20906,
        "total": 2379
      },
      {
        "club_badge_src": null,
        "entry": 386155,
        "entry_name": "No Heaton, No Party",
        "event_total": 57,
        "has_played": true,
        "id": 2590569,
        "last_rank": 20538,
        "player_name": "Ville Hertell",
        "rank": 20885,
        "rank_sort": 20907,
        "total": 2379
      },
      {
        "club_badge_src": null,
        "entry": 428733,
        "entry_name": "Leirv\u00e5gen IL",
        "event_total": 64,
        "has_played": true,
        "id": 2875568,
        "last_rank": 26230,
        "player_name": "Kjartan Folden Ervik",
        "rank": 20885,
        "rank_sort": 20908,
        "total": 2379
      },
      {
        "club_badge_src": null,
        "entry": 514333,
        "entry_name": "Ctrl Alt deLigt",
        "event_total": 63,
        "has_played": true,
        "id": 3453426,
        "last_rank": 25172,
        "player_name": "Andreas Haugli",
        "rank": 20885,
        "rank_sort": 20909,
        "total": 2379
      },
      {
        "club_badge_src": null,
        "entry": 528861,
        "entry_name": "Lil' Lize",
        "event_total": 64,
        "has_played": true,
        "id": 3555943,
        "last_rank": 26088,
        "player_name": "David Hannigan",
        "rank": 20885,
        "rank_sort": 20910,
        "total": 2379
      },
      {
        "club_badge_src": null,
        "entry": 543488,
        "entry_name": "Game of stones",
        "event_total": 54,
        "has_played": true,
        "id": 3657736,
        "last_rank": 18377,
        "player_name": "Jacob Fardey",
        "rank": 20885,
        "rank_sort": 20911,
        "total": 2379
      },
      {
        "club_badge_src": null,
        "entry": 552464,
        "entry_name": "checkoutmygravenberc",
        "event_total": 62,
        "has_played": true,
        "id": 3718550,
        "last_rank": 21159,
        "player_name": "Callum O-Connor",
        "rank": 20885,
        "rank_sort": 20912,
        "total": 2379
      },
      {
        "club_badge_src": "https://fantasy.premierleague.com/gcs/plfpl-production-adobe-approved/plfpl-production/560150/449b1f10-23c7-438d-84ca-c2de67f942e6.png",
        "entry": 560150,
        "entry_name": "AHMED-HA",
        "event_total": 56,
        "has_played": true,
        "id": 3770401,
        "last_rank": 16959,
        "player_name": "Ahmed.HA -\ufe0f",
        "rank": 20885,
        "rank_sort": 20913,
        "total": 2379
      },
      {
        "club_badge_src": null,
        "entry": 610712,
        "entry_name": "up the tics",
        "event_total": 57,
        "has_played": true,
        "id": 4126112,
        "last_rank": 17585,
        "player_name": "Jake Nicholson",
        "rank": 20885,
        "rank_sort": 20914,
        "total": 2379
      },
      {
        "club_badge_src": null,
        "entry": 626801,
        "entry_name": "FC Gorduno",
        "event_total": 63,
        "has_played": true,
        "id": 4235695,
        "last_rank": 25330,
        "player_name": "Leandro Tranchina",
        "rank": 20885,
        "rank_sort": 20915,
        "total": 2379
      },
      {
        "club_badge_src": null,
        "entry": 650162,
        "entry_name": "Tosin and Turning",
        "event_total": 58,
        "has_played": true,
        "id": 4393942,
        "last_rank": 18270,
        "player_name": "Miles Williams",
        "rank": 20885,
        "rank_sort": 20916,
        "total": 2379
      },
      {
        "club_badge_src": null,
        "entry": 671250,
        "entry_name": "Haalalaland",
        "event_total": 62,
        "has_played": true,
        "id": 4540177,
        "last_rank": 20983,
        "player_name": "Juhamatti Sorsa",
        "rank": 20885,
        "rank_sort": 20917,
        "total": 2379
      },
      {
        "club_badge_src": null,
        "entry": 716005,
        "entry_name": "As Cold As Ice",
        "event_total": 58,
        "has_played": true,
        "id": 4857957,
        "last_rank": 21301,
        "player_name": "Shane Scarff",
        "rank": 20885,
        "rank_sort": 20918,
        "total": 2379
      },
      {
        "club_badge_src": null,
        "entry": 729652,
        "entry_name": "Daniels G\u00e4ng",
        "event_total": 58,
        "has_played": true,
        "id": 4957734,
        "last_rank": 18270,
        "player_name": "Daniel Pahlen",
        "rank": 20885,
        "rank_sort": 20919,
        "total": 2379
      },
      {
        "club_badge_src": "https://fantasy.premierleague.com/gcs/plfpl-production-adobe-approved/plfpl-production/793140/7163564f-695e-4ade-baaa-ea4448c4f0a7.png",
        "entry": 793140,
        "entry_name": "Emre State of Mind",
        "event_total": 55,
        "has_played": true,
        "id": 5427838,
        "last_rank": 19103,
        "player_name": "Peter Higginbottom",
        "rank": 20885,
        "rank_sort": 20920,
        "total": 2379
      },
      {
        "club_badge_src": null,
        "entry": 801764,
        "entry_name": "insert pun here",
        "event_total": 62,
        "has_played": true,
        "id": 5488321,
        "last_rank": 24475,
        "player_name": "Dylan Sheehan",
        "rank": 20885,
        "rank_sort": 20921,
        "total": 2379
      },
      {
        "club_badge_src": "https://fantasy.premierleague.com/gcs/plfpl-production-adobe-approved/plfpl-production/841764/ac91bc67-59f3-48a8-bd20-8d4074c0bd36.png",
        "entry": 841764,
        "entry_name": "NASRRR\u2b50",
        "event_total": 53,
        "has_played": true,
        "id": 5767538,
        "last_rank": 17718,
        "player_name": "\ud835\ude70\ud835\ude71\ud835\ude73\ud835\ude70\ud835\ude7b\ud835\ude7b\ud835\ude70\ud835\ude77 \ud835\ude7d\ud835\ude70\ud835\ude82\ud835\ude81",
        "rank": 20885,
        "rank_sort": 20922,
        "total": 2379
      },
      {
        "club_badge_src": null,
        "entry": 1095444,
        "entry_name": "Yoronbalebaball",
        "event_total": 54,
        "has_played": true,
        "id": 7587150,
        "last_rank": 13257,
        "player_name": "Andreas Helin",
        "rank": 20885,
        "rank_sort": 20923,
        "total": 2379
      },
      {
        "club_badge_src": null,
        "entry": 1116905,
        "entry_name": "Certified Boogeyman",
        "event_total": 65,
        "has_played": true,
        "id": 7736671,
        "last_rank": 23522,
        "player_name": "Matthew Arogundade",
        "rank": 20885,
        "rank_sort": 20924,
        "total": 2379
      },
      {
        "club_badge_src": null,
        "entry": 1124247,
        "entry_name": "Alexander MitroWicks",
        "event_total": 77,
        "has_played": true,
        "id": 7791231,
        "last_rank": 30600,
        "player_name": "Alexander Wicks",
        "rank": 20885,
        "rank_sort": 20925,
        "total": 2379
      },
      {
        "club_badge_src": "https://fantasy.premierleague.com/gcs/plfpl-production-adobe-approved/plfpl-production/1159272/66044cbc-590c-4464-a286-6ab65327ec3f.png",
        "entry": 1159272,
        "entry_name": "Saka to the Future",
        "event_total": 62,
        "has_played": true,
        "id": 8040703,
        "last_rank": 24475,
        "player_name": "Adam Gilbert",
        "rank": 20885,
        "rank_sort": 20926,
        "total": 2379
      },
      {
        "club_badge_src": "https://fantasy.premierleague.com/gcs/plfpl-production-adobe-approved/plfpl-production/1167010/4e50df40-28e9-4379-92f4-8bdd76493931.png",
        "entry": 1167010,
        "entry_name": "COMSTAD FC",
        "event_total": 62,
        "has_played": true,
        "id": 8095422,
        "last_rank": 21159,
        "player_name": "Mark Craven",
        "rank": 20885,
        "rank_sort": 20927,
        "total": 2379
      },
      {
        "club_badge_src": null,
        "entry": 1413835,
        "entry_name": "Heavenly de Ligt",
        "event_total": 67,
        "has_played": true,
        "id": 9839123,
        "last_rank": 29071,
        "player_name": "Steve Wardle",
        "rank": 20885,
        "rank_sort": 20928,
        "total": 2379
      },
      {
        "club_badge_src": null,
        "entry": 1416737,
        "entry_name": "Something Funny",
        "event_total": 57,
        "has_played": true,
        "id": 9863939,
        "last_rank": 17585,
        "player_name": "Jack Corrin",
        "rank": 20885,
        "rank_sort": 20929,
        "total": 2379
      },
      {
        "club_badge_src": "https://fantasy.premierleague.com/gcs/plfpl-production-adobe-approved/plfpl-production/1483613/96727158-0acd-4945-9534-fa09ed57ea7b.png",
        "entry": 1483613,
        "entry_name": "The Akatsuki",
        "event_total": 55,
        "has_played": true,
        "id": 10345795,
        "last_rank": 19103,
        "player_name": "Michael Boahin",
        "rank": 20885,
        "rank_sort": 20930,
        "total": 2379
      },
      {
        "club_badge_src": null,
        "entry": 1621173,
        "entry_name": "I miss KDB",
        "event_total": 60,
        "has_played": true,
        "id": 11345624,
        "last_rank": 22830,
        "player_name": "James Jilek",
        "rank": 20885,
        "rank_sort": 20931,
        "total": 2379
      },
      {
        "club_badge_src": "https://fantasy.premierleague.com/gcs/plfpl-production-adobe-approved/plfpl-production/1682463/8f22422c-38a7-4190-ae8b-6b4cd2770d5f.png",
        "entry": 1682463,
        "entry_name": "Invincibles",
        "event_total": 68,
        "has_played": true,
        "id": 11777868,
        "last_rank": 30060,
        "player_name": "Kunal Sinha",
        "rank": 20885,
        "rank_sort": 20932,
        "total": 2379
      },
      {
        "club_badge_src": null,
        "entry": 1684434,
        "entry_name": "Beylabong",
        "event_total": 76,
        "has_played": true,
        "id": 11791388,
        "last_rank": 39023,
        "player_name": "Ahmad Sabri",
        "rank": 20885,
        "rank_sort": 20933,
        "total": 2379
      },
      {
        "club_badge_src": null,
        "entry": 1746467,
        "entry_name": "SesIHamborg",
        "event_total": 50,
        "has_played": true,
        "id": 12255277,
        "last_rank": 13401,
        "player_name": "Jakob Kellner",
        "rank": 20885,
        "rank_sort": 20934,
        "total": 2379
      },
      {
        "club_badge_src": null,
        "entry": 1751110,
        "entry_name": "Hjeltarna",
        "event_total": 61,
        "has_played": true,
        "id": 12289297,
        "last_rank": 23522,
        "player_name": "Fredrik Hjelte",
        "rank": 20885,
        "rank_sort": 20935,
        "total": 2379
      },
      {
        "club_badge_src": null,
        "entry": 1751413,
        "entry_name": "33Black",
        "event_total": 61,
        "has_played": true,
        "id": 12291502,
        "last_rank": 23522,
        "player_name": "Karen Robson",
        "rank": 20885,
        "rank_sort": 20936,
        "total": 2379
      },
      {
        "club_badge_src": null,
        "entry": 1807051,
        "entry_name": "Tiger Puds",
        "event_total": 69,
        "has_played": true,
        "id": 12704235,
        "last_rank": 30957,
        "player_name": "Elliot Thomas",
        "rank": 20885,
        "rank_sort": 20937,
        "total": 2379
      },
      {
        "club_badge_src": null,
        "entry": 1844857,
        "entry_name": "Warner.Bros",
        "event_total": 66,
        "has_played": true,
        "id": 12980381,
        "last_rank": 28150,
        "player_name": "Ashley Warner",
        "rank": 20885,
        "rank_sort": 20938,
        "total": 2379
      },
      {
        "club_badge_src": null,
        "entry": 1968216,
        "entry_name": "cr\u00e8me de la Cr\u00e8me",
        "event_total": 62,
        "has_played": true,
        "id": 13890282,
        "last_rank": 24475,
        "player_name": "Mike van der Velde",
        "rank": 20885,
        "rank_sort": 20939,
        "total": 2379
      },
      {
        "club_badge_src": null,
        "entry": 1984199,
        "entry_name": "SR United",
        "event_total": 49,
        "has_played": true,
        "id": 14015468,
        "last_rank": 15164,
        "player_name": "Stephen Roche",
        "rank": 20885,
        "rank_sort": 20940,
        "total": 2379
      },
      {
        "club_badge_src": null,
        "entry": 2017977,
        "entry_name": "eldod",
        "event_total": 65,
        "has_played": true,
        "id": 14276834,
        "last_rank": 27203,
        "player_name": "Adam Eldod",
        "rank": 20885,
        "rank_sort": 20941,
        "total": 2379
      },
      {
        "club_badge_src": null,
        "entry": 2155541,
        "entry_name": "Glenora Bears",
        "event_total": 71,
        "has_played": true,
        "id": 15322547,
        "last_rank": 33147,
        "player_name": "Roberta Walsh",
        "rank": 20885,
        "rank_sort": 20942,
        "total": 2379
      },
      {
        "club_badge_src": null,
        "entry": 2318866,
        "entry_name": "Mbuemo Wrestlers",
        "event_total": 59,
        "has_played": true,
        "id": 16542006,
        "last_rank": 22064,
        "player_name": "George Hackett",
        "rank": 20885,
        "rank_sort": 20943,
        "total": 2379
      },
      {
        "club_badge_src": null,
        "entry": 2360843,
        "entry_name": "\u0645\u0634\u0639\u0648\u0630 \u0628\u064a\u0631\u064a\u0632",
        "event_total": 47,
        "has_played": true,
        "id": 16848675,
        "last_rank": 11821,
        "player_name": "Hashim Al",
        "rank": 20885,
        "rank_sort": 20944,
        "total": 2379
      },
      {
        "club_badge_src": "https://fantasy.premierleague.com/gcs/plfpl-production-adobe-approved/plfpl-production/2471864/c99b586c-529f-40d3-8af3-a8115ccb5536.png",
        "entry": 2471864,
        "entry_name": "Elchifaestodofc",
        "event_total": 53,
        "has_played": true,
        "id": 17683752,
        "last_rank": 17718,
        "player_name": "Alonso Noguera",
        "rank": 20885,
        "rank_sort": 20945,
        "total": 2379
      },
      {
        "club_badge_src": null,
        "entry": 2510790,
        "entry_name": "sleepless",
        "event_total": 58,
        "has_played": true,
        "id": 17987014,
        "last_rank": 21301,
        "player_name": "Joshua McPhail",
        "rank": 20885,
        "rank_sort": 20946,
        "total": 2379
      },
      {
        "club_badge_src": null,
        "entry": 2519432,
        "entry_name": "Wirtz Pick Ever",
        "event_total": 48,
        "has_played": true,
        "id": 18051664,
        "last_rank": 14604,
        "player_name": "Gaurav Singhvi",
        "rank": 20885,
        "rank_sort": 20947,
        "total": 2379
      },
      {
        "club_badge_src": "https://fantasy.premierleague.com/gcs/plfpl-production-adobe-approved/plfpl-production/2584596/38005f2e-0fb4-4a4f-adf4-e7a79d4bdc51.png",
        "entry": 2584596,
        "entry_name": "club chombe..tea",
        "event_total": 53,
        "has_played": true,
        "id": 18553108,
        "last_rank": 17585,
        "player_name": "Theo Malewezi",
        "rank": 20885,
        "rank_sort": 20948,
        "total": 2379
      },
      {
        "club_badge_src": null,
        "entry": 2599323,
        "entry_name": "Le Saux Solid Crew",
        "event_total": 58,
        "has_played": true,
        "id": 18667772,
        "last_rank": 21159,
        "player_name": "Nick Cuff",
        "rank": 20885,
        "rank_sort": 20949,
        "total": 2379
      },
      {
        "club_badge_src": null,
        "entry": 2628362,
        "entry_name": "Nosfera",
        "event_total": 54,
        "has_played": true,
        "id": 18887512,
        "last_rank": 18270,
        "player_name": "Sittinan Meaksawangwong",
        "rank": 20885,
        "rank_sort": 20950,
        "total": 2379
      }
    ]
  }
}