{
  "last_updated_data": "2026-05-24T23:28:17Z",
  "league": {
    "admin_entry": null,
    "closed": false,
    "code_privacy": "p",
    "created": "2025-07-20T23:14:33.933835Z",
    "cup_league": 2815434,
    "has_cup": true,
    "id": 314,
    "league_type": "s",
    "max_entries": null,
    "name": "Overall",
    "rank": null,
    "scoring": "c",
    "start_event": 1
  },
  "new_entries": {
    "has_next": false,
    "page": 1,
    "results": []
  },
  "standings": {
    "has_next": true,
    "page": 542,
    "results": [
      {
        "club_badge_src": null,
        "entry": 6677109,
        "entry_name": "Ranaim",
        "event_total": 62,
        "has_played": true,
        "id": 53407764,
        "last_rank": 31556,
        "player_name": "Jakob Kjeldset",
        "rank": 27002,
        "rank_sort": 27051,
        "total": 2371
      },
      {
        "club_badge_src": null,
        "entry": 6776941,
        "entry_name": "Bottingham Forest",
        "event_total": 58,
        "has_played": true,
        "id": 54264831,
        "last_rank": 27644,
        "player_name": "James Botting",
        "rank": 27002,
        "rank_sort": 27052,
        "total": 2371
      },
      {
        "club_badge_src": "https://fantasy.premierleague.com/gcs/plfpl-production-adobe-approved/plfpl-production/6908767/dd0ef580-e0ae-4d03-9718-eb21c43af0d8.png",
        "entry": 6908767,
        "entry_name": "Lockitas",
        "event_total": 32,
        "has_played": true,
        "id": 55377602,
        "last_rank": 10346,
        "player_name": "Gonzalo Ueda",
        "rank": 27002,
        "rank_sort": 27053,
        "total": 2371
      },
      {
        "club_badge_src": null,
        "entry": 7583004,
        "entry_name": "Balotelli Tubbies FC",
        "event_total": 67,
        "has_played": true,
        "id": 62110354,
        "last_rank": 37344,
        "player_name": "Ollie Wood",
        "rank": 27002,
        "rank_sort": 27054,
        "total": 2371
      },
      {
        "club_badge_src": null,
        "entry": 8190362,
        "entry_name": "kinesisk AI",
        "event_total": 72,
        "has_played": true,
        "id": 67648341,
        "last_rank": 43849,
        "player_name": "Patrick Kristiansen",
        "rank": 27002,
        "rank_sort": 27055,
        "total": 2371
      },
      {
        "club_badge_src": null,
        "entry": 656,
        "entry_name": "Stang Inn",
        "event_total": 67,
        "has_played": true,
        "id": 3619,
        "last_rank": 37435,
        "player_name": "Tore Kalleberg",
        "rank": 27056,
        "rank_sort": 27056,
        "total": 2371
      },
      {
        "club_badge_src": null,
        "entry": 4304,
        "entry_name": "Pughski's Pirates",
        "event_total": 58,
        "has_played": true,
        "id": 24457,
        "last_rank": 27644,
        "player_name": "Chris Pugh",
        "rank": 27056,
        "rank_sort": 27057,
        "total": 2371
      },
      {
        "club_badge_src": "https://fantasy.premierleague.com/gcs/plfpl-production-adobe-approved/plfpl-production/5119/8456504f-ef0b-443b-be78-abf82a34d76a.png",
        "entry": 5119,
        "entry_name": "Reijnders Keepers",
        "event_total": 67,
        "has_played": true,
        "id": 29164,
        "last_rank": 37435,
        "player_name": "Ryan :)",
        "rank": 27056,
        "rank_sort": 27058,
        "total": 2371
      },
      {
        "club_badge_src": null,
        "entry": 5242,
        "entry_name": "Tigronis FC",
        "event_total": 54,
        "has_played": true,
        "id": 29874,
        "last_rank": 24330,
        "player_name": "Carlos Ferreira",
        "rank": 27056,
        "rank_sort": 27059,
        "total": 2371
      },
      {
        "club_badge_src": null,
        "entry": 6625,
        "entry_name": "Mighty Shrews",
        "event_total": 49,
        "has_played": true,
        "id": 38069,
        "last_rank": 20280,
        "player_name": "Matt Harrison",
        "rank": 27056,
        "rank_sort": 27060,
        "total": 2371
      },
      {
        "club_badge_src": null,
        "entry": 9477,
        "entry_name": "Old Havertz Kai Hard",
        "event_total": 62,
        "has_played": true,
        "id": 55731,
        "last_rank": 31747,
        "player_name": "Edward Burrell",
        "rank": 27056,
        "rank_sort": 27061,
        "total": 2371
      },
      {
        "club_badge_src": null,
        "entry": 11482,
        "entry_name": "Nameless",
        "event_total": 66,
        "has_played": true,
        "id": 68262,
        "last_rank": 36348,
        "player_name": "Austin Draycott",
        "rank": 27056,
        "rank_sort": 27062,
        "total": 2371
      },
      {
        "club_badge_src": null,
        "entry": 13538,
        "entry_name": "One Man Arne",
        "event_total": 66,
        "has_played": true,
        "id": 81856,
        "last_rank": 36200,
        "player_name": "Joe Gardner",
        "rank": 27056,
        "rank_sort": 27063,
        "total": 2371
      },
      {
        "club_badge_src": null,
        "entry": 21222,
        "entry_name": "Hoda Usama",
        "event_total": 70,
        "has_played": true,
        "id": 133028,
        "last_rank": 41324,
        "player_name": "Mahmoud Osama",
        "rank": 27056,
        "rank_sort": 27064,
        "total": 2371
      },
      {
        "club_badge_src": null,
        "entry": 35149,
        "entry_name": "10 Men Went To Mo",
        "event_total": 55,
        "has_played": true,
        "id": 224834,
        "last_rank": 25002,
        "player_name": "Alexei Shklyaver",
        "rank": 27056,
        "rank_sort": 27065,
        "total": 2371
      },
      {
        "club_badge_src": null,
        "entry": 37502,
        "entry_name": "Jambo Journeyman",
        "event_total": 63,
        "has_played": true,
        "id": 240221,
        "last_rank": 32751,
        "player_name": "Michael Rafferty",
        "rank": 27056,
        "rank_sort": 27066,
        "total": 2371
      },
      {
        "club_badge_src": "https://fantasy.premierleague.com/gcs/plfpl-production-adobe-approved/plfpl-production/39529/ba98bd22-0963-4d51-9756-d153c25efe28.png",
        "entry": 39529,
        "entry_name": "Balti Rovers",
        "event_total": 52,
        "has_played": true,
        "id": 253282,
        "last_rank": 22426,
        "player_name": "Dom Holmes",
        "rank": 27056,
        "rank_sort": 27067,
        "total": 2371
      },
      {
        "club_badge_src": null,
        "entry": 41172,
        "entry_name": "kups sudet d-90",
        "event_total": 67,
        "has_played": true,
        "id": 263832,
        "last_rank": 37589,
        "player_name": "lari ahti",
        "rank": 27056,
        "rank_sort": 27068,
        "total": 2371
      },
      {
        "club_badge_src": null,
        "entry": 44065,
        "entry_name": "Isaac's Winners",
        "event_total": 70,
        "has_played": true,
        "id": 282335,
        "last_rank": 41324,
        "player_name": "Glenn Gibb",
        "rank": 27056,
        "rank_sort": 27069,
        "total": 2371
      },
      {
        "club_badge_src": null,
        "entry": 50677,
        "entry_name": "Gibbles",
        "event_total": 57,
        "has_played": true,
        "id": 325959,
        "last_rank": 26656,
        "player_name": "Matt Pringle",
        "rank": 27056,
        "rank_sort": 27070,
        "total": 2371
      },
      {
        "club_badge_src": null,
        "entry": 52844,
        "entry_name": "Try to Win",
        "event_total": 68,
        "has_played": true,
        "id": 339784,
        "last_rank": 38774,
        "player_name": "Seb Kelly",
        "rank": 27056,
        "rank_sort": 27071,
        "total": 2371
      },
      {
        "club_badge_src": null,
        "entry": 54080,
        "entry_name": "Enter Team Name",
        "event_total": 71,
        "has_played": true,
        "id": 348034,
        "last_rank": 42506,
        "player_name": "Alf Ronny Kaarbo",
        "rank": 27056,
        "rank_sort": 27072,
        "total": 2371
      },
      {
        "club_badge_src": null,
        "entry": 60270,
        "entry_name": "FPL Muhammad",
        "event_total": 66,
        "has_played": true,
        "id": 388056,
        "last_rank": 36142,
        "player_name": "Muhammed Arf",
        "rank": 27056,
        "rank_sort": 27073,
        "total": 2371
      },
      {
        "club_badge_src": "https://fantasy.premierleague.com/gcs/plfpl-production-adobe-approved/plfpl-production/66447/a38d36dd-7c85-447b-9231-ea76fa1244b6.png",
        "entry": 66447,
        "entry_name": "Parker The Bus",
        "event_total": 59,
        "has_played": true,
        "id": 429607,
        "last_rank": 28726,
        "player_name": "Tom Burton",
        "rank": 27056,
        "rank_sort": 27074,
        "total": 2371
      },
      {
        "club_badge_src": null,
        "entry": 81231,
        "entry_name": "Eze Money",
        "event_total": 56,
        "has_played": true,
        "id": 528467,
        "last_rank": 25776,
        "player_name": "Rob Fotheringham",
        "rank": 27056,
        "rank_sort": 27075,
        "total": 2371
      },
      {
        "club_badge_src": null,
        "entry": 90128,
        "entry_name": "Tchaouna & Sweetcorn",
        "event_total": 66,
        "has_played": true,
        "id": 588382,
        "last_rank": 31620,
        "player_name": "Matthew Main",
        "rank": 27056,
        "rank_sort": 27076,
        "total": 2371
      },
      {
        "club_badge_src": null,
        "entry": 99519,
        "entry_name": "Heavy When Wet",
        "event_total": 55,
        "has_played": true,
        "id": 649670,
        "last_rank": 25002,
        "player_name": "James Myers",
        "rank": 27056,
        "rank_sort": 27077,
        "total": 2371
      },
      {
        "club_badge_src": null,
        "entry": 125451,
        "entry_name": "S.A.A.",
        "event_total": 55,
        "has_played": true,
        "id": 818157,
        "last_rank": 24897,
        "player_name": "Saeed Al Ali",
        "rank": 27056,
        "rank_sort": 27078,
        "total": 2371
      },
      {
        "club_badge_src": "https://fantasy.premierleague.com/gcs/plfpl-production-adobe-approved/plfpl-production/143117/a6ed88be-14fd-4be8-9128-567cf27b9678.png",
        "entry": 143117,
        "entry_name": "It's R\u00f6hl Over Now",
        "event_total": 45,
        "has_played": true,
        "id": 936223,
        "last_rank": 17437,
        "player_name": "Alex Dunkley",
        "rank": 27056,
        "rank_sort": 27079,
        "total": 2371
      },
      {
        "club_badge_src": null,
        "entry": 145471,
        "entry_name": "Halpa Puolustaja",
        "event_total": 57,
        "has_played": true,
        "id": 952713,
        "last_rank": 26710,
        "player_name": "Jani Torniainen",
        "rank": 27056,
        "rank_sort": 27080,
        "total": 2371
      },
      {
        "club_badge_src": null,
        "entry": 161299,
        "entry_name": "Bruno Dos Tres",
        "event_total": 62,
        "has_played": true,
        "id": 1062587,
        "last_rank": 31620,
        "player_name": "Harry Macey",
        "rank": 27056,
        "rank_sort": 27081,
        "total": 2371
      },
      {
        "club_badge_src": null,
        "entry": 182424,
        "entry_name": "Marmeis FC",
        "event_total": 46,
        "has_played": true,
        "id": 1203835,
        "last_rank": 18113,
        "player_name": "Angel Mateos",
        "rank": 27056,
        "rank_sort": 27082,
        "total": 2371
      },
      {
        "club_badge_src": "https://fantasy.premierleague.com/gcs/plfpl-production-adobe-approved/plfpl-production/193362/b4849a72-a219-4499-a50a-933cfe169c4e.png",
        "entry": 193362,
        "entry_name": "FK Gejkovac",
        "event_total": 66,
        "has_played": true,
        "id": 1281616,
        "last_rank": 36142,
        "player_name": "Hrvoje Barisic",
        "rank": 27056,
        "rank_sort": 27083,
        "total": 2371
      },
      {
        "club_badge_src": null,
        "entry": 193603,
        "entry_name": "Team Knaggen",
        "event_total": 60,
        "has_played": true,
        "id": 1283312,
        "last_rank": 29578,
        "player_name": "Joakim Sp\u00e5ngberg",
        "rank": 27056,
        "rank_sort": 27084,
        "total": 2371
      },
      {
        "club_badge_src": null,
        "entry": 224076,
        "entry_name": "A-Cunha-Mateta",
        "event_total": 51,
        "has_played": true,
        "id": 1490555,
        "last_rank": 21775,
        "player_name": "Erich Busby",
        "rank": 27056,
        "rank_sort": 27085,
        "total": 2371
      },
      {
        "club_badge_src": null,
        "entry": 229198,
        "entry_name": "SNAIKS 11",
        "event_total": 58,
        "has_played": true,
        "id": 1524869,
        "last_rank": 27770,
        "player_name": "Shalin Naik",
        "rank": 27056,
        "rank_sort": 27086,
        "total": 2371
      },
      {
        "club_badge_src": null,
        "entry": 240047,
        "entry_name": "AutoGlasner Replace",
        "event_total": 61,
        "has_played": true,
        "id": 1597504,
        "last_rank": 30600,
        "player_name": "Josh Beckett",
        "rank": 27056,
        "rank_sort": 27087,
        "total": 2371
      },
      {
        "club_badge_src": null,
        "entry": 280114,
        "entry_name": "templates",
        "event_total": 76,
        "has_played": true,
        "id": 1864233,
        "last_rank": 49880,
        "player_name": "Js Y",
        "rank": 27056,
        "rank_sort": 27088,
        "total": 2371
      },
      {
        "club_badge_src": null,
        "entry": 280749,
        "entry_name": "no touchy no Partey",
        "event_total": 62,
        "has_played": true,
        "id": 1868307,
        "last_rank": 31747,
        "player_name": "Matthew Hayes",
        "rank": 27056,
        "rank_sort": 27089,
        "total": 2371
      },
      {
        "club_badge_src": null,
        "entry": 320275,
        "entry_name": "Fight & Win",
        "event_total": 63,
        "has_played": true,
        "id": 2146672,
        "last_rank": 32879,
        "player_name": "Oisin Ellison",
        "rank": 27056,
        "rank_sort": 27090,
        "total": 2371
      },
      {
        "club_badge_src": null,
        "entry": 333682,
        "entry_name": "Ollecrew FC",
        "event_total": 60,
        "has_played": true,
        "id": 2234630,
        "last_rank": 29578,
        "player_name": "Olle Amborn",
        "rank": 27056,
        "rank_sort": 27091,
        "total": 2371
      },
      {
        "club_badge_src": null,
        "entry": 335384,
        "entry_name": "slam dunk",
        "event_total": 58,
        "has_played": true,
        "id": 2245710,
        "last_rank": 27770,
        "player_name": "Anthony Lindfield",
        "rank": 27056,
        "rank_sort": 27092,
        "total": 2371
      },
      {
        "club_badge_src": "https://fantasy.premierleague.com/gcs/plfpl-production-adobe-approved/plfpl-production/339243/f3ad0c41-d04d-4a6c-9cc9-c84befc1541d.png",
        "entry": 339243,
        "entry_name": "[nWo]",
        "event_total": 67,
        "has_played": true,
        "id": 2271055,
        "last_rank": 37344,
        "player_name": "Chia Shogun",
        "rank": 27056,
        "rank_sort": 27093,
        "total": 2371
      },
      {
        "club_badge_src": null,
        "entry": 345967,
        "entry_name": "Ange Management",
        "event_total": 53,
        "has_played": true,
        "id": 2315826,
        "last_rank": 23341,
        "player_name": "Mark Bryceland",
        "rank": 27056,
        "rank_sort": 27094,
        "total": 2371
      },
      {
        "club_badge_src": "https://fantasy.premierleague.com/gcs/plfpl-production-adobe-approved/plfpl-production/350570/6c4026d7-9d82-45c6-9154-f7affe63d76a.png",
        "entry": 350570,
        "entry_name": "Incognito",
        "event_total": 62,
        "has_played": true,
        "id": 2346651,
        "last_rank": 31747,
        "player_name": "Espen Karlberg",
        "rank": 27056,
        "rank_sort": 27095,
        "total": 2371
      },
      {
        "club_badge_src": "https://fantasy.premierleague.com/gcs/plfpl-production-adobe-approved/plfpl-production/377313/2c7d2db1-0fb0-4f6b-8c66-b29eb263b7be.png",
        "entry": 377313,
        "entry_name": "Ekitike taka",
        "event_total": 55,
        "has_played": true,
        "id": 2527437,
        "last_rank": 24832,
        "player_name": "Sam Butterworth",
        "rank": 27056,
        "rank_sort": 27096,
        "total": 2371
      },
      {
        "club_badge_src": null,
        "entry": 396453,
        "entry_name": "FrimPingPong",
        "event_total": 62,
        "has_played": true,
        "id": 2658560,
        "last_rank": 31747,
        "player_name": "Omar Khalil",
        "rank": 27056,
        "rank_sort": 27097,
        "total": 2371
      },
      {
        "club_badge_src": null,
        "entry": 400745,
        "entry_name": "AzBz RCA49\ufffd",
        "event_total": 81,
        "has_played": true,
        "id": 2687330,
        "last_rank": 58071,
        "player_name": "BOUIZDEM aziz",
        "rank": 27056,
        "rank_sort": 27098,
        "total": 2371
      },
      {
        "club_badge_src": null,
        "entry": 420727,
        "entry_name": "Mb fc",
        "event_total": 65,
        "has_played": true,
        "id": 2819622,
        "last_rank": 35166,
        "player_name": "Mb Graham",
        "rank": 27056,
        "rank_sort": 27099,
        "total": 2371
      },
      {
        "club_badge_src": null,
        "entry": 458735,
        "entry_name": "Forever 20",
        "event_total": 37,
        "has_played": true,
        "id": 3077490,
        "last_rank": 12608,
        "player_name": "Ian Powell",
        "rank": 27056,
        "rank_sort": 27100,
        "total": 2371
      }
    ]
  }
}