{
  "last_updated_data": "2026-05-24T23:28:17Z",
  "league": {
    "admin_entry": null,
    "closed": false,
    "code_privacy": "p",
    "created": "2025-07-20T23:14:33.933835Z",
    "cup_league": 2815434,
    "has_cup": true,
    "id": 314,
    "league_type": "s",
    "max_entries": null,
    "name": "Overall",
    "rank": null,
    "scoring": "c",
    "start_event": 1
  },
  "new_entries": {
    "has_next": false,
    "page": 1,
    "results": []
  },
  "standings": {
    "has_next": true,
    "page": 1097,
    "results": [
      {
        "club_badge_src": null,
        "entry": 6473748,
        "entry_name": "YAGROOVA@6",
        "event_total": 77,
        "has_played": true,
        "id": 51584905,
        "last_rank": 96374,
        "player_name": "Corbin April",
        "rank": 54594,
        "rank_sort": 54801,
        "total": 2349
      },
      {
        "club_badge_src": null,
        "entry": 6530468,
        "entry_name": "Jogonalan United",
        "event_total": 56,
        "has_played": true,
        "id": 52093368,
        "last_rank": 53345,
        "player_name": "Yudha Ardhana",
        "rank": 54594,
        "rank_sort": 54802,
        "total": 2349
      },
      {
        "club_badge_src": null,
        "entry": 6532578,
        "entry_name": "Kantedoit",
        "event_total": 61,
        "has_played": true,
        "id": 52112294,
        "last_rank": 54667,
        "player_name": "Ben Rafferty",
        "rank": 54594,
        "rank_sort": 54803,
        "total": 2349
      },
      {
        "club_badge_src": null,
        "entry": 6654507,
        "entry_name": "ThomasTheFrankEngine",
        "event_total": 50,
        "has_played": true,
        "id": 53204478,
        "last_rank": 44525,
        "player_name": "Michael Pateman",
        "rank": 54594,
        "rank_sort": 54804,
        "total": 2349
      },
      {
        "club_badge_src": null,
        "entry": 6694980,
        "entry_name": "#MeanMachine",
        "event_total": 69,
        "has_played": true,
        "id": 53564854,
        "last_rank": 77676,
        "player_name": "Fred Keny",
        "rank": 54594,
        "rank_sort": 54805,
        "total": 2349
      },
      {
        "club_badge_src": null,
        "entry": 6774852,
        "entry_name": "Bellingham Palace",
        "event_total": 68,
        "has_played": true,
        "id": 54247212,
        "last_rank": 75537,
        "player_name": "Marte Lysnes",
        "rank": 54594,
        "rank_sort": 54806,
        "total": 2349
      },
      {
        "club_badge_src": null,
        "entry": 6775026,
        "entry_name": "Is Your Motherwell",
        "event_total": 40,
        "has_played": true,
        "id": 54248640,
        "last_rank": 32190,
        "player_name": "Adam Mclaughlin",
        "rank": 54594,
        "rank_sort": 54807,
        "total": 2349
      },
      {
        "club_badge_src": null,
        "entry": 6883313,
        "entry_name": "SuperSonics",
        "event_total": 55,
        "has_played": true,
        "id": 55164018,
        "last_rank": 51984,
        "player_name": "Carl Ahlin",
        "rank": 54594,
        "rank_sort": 54808,
        "total": 2349
      },
      {
        "club_badge_src": null,
        "entry": 6937499,
        "entry_name": "Rooney Tunes",
        "event_total": 58,
        "has_played": true,
        "id": 55618885,
        "last_rank": 56708,
        "player_name": "Cole Fitzgerald",
        "rank": 54594,
        "rank_sort": 54809,
        "total": 2349
      },
      {
        "club_badge_src": null,
        "entry": 6959979,
        "entry_name": "Ole-Wan Kenobi",
        "event_total": 67,
        "has_played": true,
        "id": 55816429,
        "last_rank": 73423,
        "player_name": "David Joyner",
        "rank": 54594,
        "rank_sort": 54810,
        "total": 2349
      },
      {
        "club_badge_src": null,
        "entry": 6985392,
        "entry_name": "Sesto \u0160e\u0161ko",
        "event_total": 70,
        "has_played": true,
        "id": 56068193,
        "last_rank": 79817,
        "player_name": "Cosi Nic",
        "rank": 54594,
        "rank_sort": 54811,
        "total": 2349
      },
      {
        "club_badge_src": null,
        "entry": 7029227,
        "entry_name": "weluvf3lickxy2013",
        "event_total": 72,
        "has_played": true,
        "id": 56485273,
        "last_rank": 84360,
        "player_name": "felix rose",
        "rank": 54594,
        "rank_sort": 54812,
        "total": 2349
      },
      {
        "club_badge_src": null,
        "entry": 7125762,
        "entry_name": "3K FC",
        "event_total": 80,
        "has_played": true,
        "id": 57420451,
        "last_rank": 103254,
        "player_name": "NAVIN RAI",
        "rank": 54594,
        "rank_sort": 54813,
        "total": 2349
      },
      {
        "club_badge_src": null,
        "entry": 7128367,
        "entry_name": "Morley's Masterclass",
        "event_total": 55,
        "has_played": true,
        "id": 57444608,
        "last_rank": 51720,
        "player_name": "Reece Morley",
        "rank": 54594,
        "rank_sort": 54814,
        "total": 2349
      },
      {
        "club_badge_src": null,
        "entry": 7132208,
        "entry_name": "Haalandaise Sauce",
        "event_total": 43,
        "has_played": true,
        "id": 57480792,
        "last_rank": 35424,
        "player_name": "Andrew Broadbent",
        "rank": 54594,
        "rank_sort": 54815,
        "total": 2349
      },
      {
        "club_badge_src": null,
        "entry": 7164499,
        "entry_name": "\u062e\u0627\u0644\u062f \u0627\u062d\u0645\u062f",
        "event_total": 47,
        "has_played": true,
        "id": 57800556,
        "last_rank": 40647,
        "player_name": "Khalid Ahmed",
        "rank": 54594,
        "rank_sort": 54816,
        "total": 2349
      },
      {
        "club_badge_src": null,
        "entry": 7255134,
        "entry_name": "Ayr Down Under",
        "event_total": 59,
        "has_played": true,
        "id": 58654821,
        "last_rank": 45416,
        "player_name": "Aaron Whitefield",
        "rank": 54594,
        "rank_sort": 54817,
        "total": 2349
      },
      {
        "club_badge_src": "https://fantasy.premierleague.com/gcs/plfpl-production-adobe-approved/plfpl-production/7297151/4f4ee488-e463-4e98-89ef-8e9a8067ce70.png",
        "entry": 7297151,
        "entry_name": "Bulletinho FC",
        "event_total": 55,
        "has_played": true,
        "id": 59049738,
        "last_rank": 51984,
        "player_name": "Keyon Grant",
        "rank": 54594,
        "rank_sort": 54818,
        "total": 2349
      },
      {
        "club_badge_src": null,
        "entry": 7330588,
        "entry_name": "Old Havertz Kai Hard",
        "event_total": 35,
        "has_played": true,
        "id": 59363591,
        "last_rank": 27304,
        "player_name": "raza wahid",
        "rank": 54594,
        "rank_sort": 54819,
        "total": 2349
      },
      {
        "club_badge_src": null,
        "entry": 7411339,
        "entry_name": "Darren's Dazzlers",
        "event_total": 56,
        "has_played": true,
        "id": 60134305,
        "last_rank": 53621,
        "player_name": "Aaron Smith",
        "rank": 54594,
        "rank_sort": 54820,
        "total": 2349
      },
      {
        "club_badge_src": null,
        "entry": 7542982,
        "entry_name": "Lentran Wanderers",
        "event_total": 63,
        "has_played": true,
        "id": 61748258,
        "last_rank": 65475,
        "player_name": "Finlay MacLennan",
        "rank": 54594,
        "rank_sort": 54821,
        "total": 2349
      },
      {
        "club_badge_src": null,
        "entry": 7623366,
        "entry_name": "Bosvedjan beast",
        "event_total": 43,
        "has_played": true,
        "id": 62477004,
        "last_rank": 35619,
        "player_name": "Lisa H\u00e4ggblom",
        "rank": 54594,
        "rank_sort": 54822,
        "total": 2349
      },
      {
        "club_badge_src": null,
        "entry": 7639532,
        "entry_name": "MFFC XXV \u2605\u2605\u2606\u2606\u2606",
        "event_total": 30,
        "has_played": true,
        "id": 62621680,
        "last_rank": 22685,
        "player_name": "David Janssens",
        "rank": 54594,
        "rank_sort": 54823,
        "total": 2349
      },
      {
        "club_badge_src": null,
        "entry": 7661875,
        "entry_name": "ali1234",
        "event_total": 64,
        "has_played": true,
        "id": 62824294,
        "last_rank": 67695,
        "player_name": "Ali Janati",
        "rank": 54594,
        "rank_sort": 54824,
        "total": 2349
      },
      {
        "club_badge_src": null,
        "entry": 7711098,
        "entry_name": "United Hub",
        "event_total": 74,
        "has_played": true,
        "id": 63270314,
        "last_rank": 89055,
        "player_name": "Amir Omar",
        "rank": 54594,
        "rank_sort": 54825,
        "total": 2349
      },
      {
        "club_badge_src": null,
        "entry": 7833897,
        "entry_name": "I'm Winning Dalot",
        "event_total": 58,
        "has_played": true,
        "id": 64381754,
        "last_rank": 56708,
        "player_name": "Taher Ali",
        "rank": 54594,
        "rank_sort": 54826,
        "total": 2349
      },
      {
        "club_badge_src": null,
        "entry": 8112144,
        "entry_name": "Unbeliverpool HK",
        "event_total": 55,
        "has_played": true,
        "id": 66914104,
        "last_rank": 45416,
        "player_name": "Sze Lung Chan",
        "rank": 54594,
        "rank_sort": 54827,
        "total": 2349
      },
      {
        "club_badge_src": null,
        "entry": 8119246,
        "entry_name": "DALLAH FC",
        "event_total": 62,
        "has_played": true,
        "id": 66981079,
        "last_rank": 56708,
        "player_name": "3bdallah Ahmed",
        "rank": 54594,
        "rank_sort": 54828,
        "total": 2349
      },
      {
        "club_badge_src": null,
        "entry": 8142239,
        "entry_name": "Football Partridge",
        "event_total": 61,
        "has_played": true,
        "id": 67196393,
        "last_rank": 61950,
        "player_name": "Lucinda Partridge",
        "rank": 54594,
        "rank_sort": 54829,
        "total": 2349
      },
      {
        "club_badge_src": null,
        "entry": 8151423,
        "entry_name": "Baby Reijnders",
        "event_total": 62,
        "has_played": true,
        "id": 67282065,
        "last_rank": 64005,
        "player_name": "Kevin McMahon",
        "rank": 54594,
        "rank_sort": 54830,
        "total": 2349
      },
      {
        "club_badge_src": null,
        "entry": 8217392,
        "entry_name": "Life is Gaard",
        "event_total": 69,
        "has_played": true,
        "id": 67906321,
        "last_rank": 77676,
        "player_name": "Anthony Howley",
        "rank": 54594,
        "rank_sort": 54831,
        "total": 2349
      },
      {
        "club_badge_src": null,
        "entry": 8246615,
        "entry_name": "Gueye",
        "event_total": 68,
        "has_played": true,
        "id": 68191764,
        "last_rank": 67422,
        "player_name": "Harry Ainsworth",
        "rank": 54594,
        "rank_sort": 54832,
        "total": 2349
      },
      {
        "club_badge_src": null,
        "entry": 8290095,
        "entry_name": "Final Fantasy",
        "event_total": 59,
        "has_played": true,
        "id": 68606349,
        "last_rank": 51720,
        "player_name": "Terry Cheng",
        "rank": 54594,
        "rank_sort": 54833,
        "total": 2349
      },
      {
        "club_badge_src": null,
        "entry": 8441299,
        "entry_name": "bigmejo",
        "event_total": 66,
        "has_played": true,
        "id": 70071466,
        "last_rank": 63724,
        "player_name": "Kofi Amejo",
        "rank": 54594,
        "rank_sort": 54834,
        "total": 2349
      },
      {
        "club_badge_src": null,
        "entry": 8567758,
        "entry_name": "Balotellitubbies",
        "event_total": 68,
        "has_played": true,
        "id": 71289620,
        "last_rank": 74898,
        "player_name": "Sam Godfrey",
        "rank": 54594,
        "rank_sort": 54835,
        "total": 2349
      },
      {
        "club_badge_src": null,
        "entry": 8729206,
        "entry_name": "Muffers Divers",
        "event_total": 74,
        "has_played": true,
        "id": 72863535,
        "last_rank": 89426,
        "player_name": "Muneer Hanif",
        "rank": 54594,
        "rank_sort": 54836,
        "total": 2349
      },
      {
        "club_badge_src": null,
        "entry": 8772392,
        "entry_name": "UNCS",
        "event_total": 50,
        "has_played": true,
        "id": 73277924,
        "last_rank": 44525,
        "player_name": "Nico Campbell",
        "rank": 54594,
        "rank_sort": 54837,
        "total": 2349
      },
      {
        "club_badge_src": null,
        "entry": 8784179,
        "entry_name": "Atouba's Allstars",
        "event_total": 76,
        "has_played": true,
        "id": 73392144,
        "last_rank": 93883,
        "player_name": "Indy Virdi",
        "rank": 54594,
        "rank_sort": 54838,
        "total": 2349
      },
      {
        "club_badge_src": null,
        "entry": 8946518,
        "entry_name": "TBC",
        "event_total": 51,
        "has_played": true,
        "id": 74964886,
        "last_rank": 40036,
        "player_name": "Ronan McCormack",
        "rank": 54594,
        "rank_sort": 54839,
        "total": 2349
      },
      {
        "club_badge_src": null,
        "entry": 8961118,
        "entry_name": "FC Youssef",
        "event_total": 65,
        "has_played": true,
        "id": 75106640,
        "last_rank": 61950,
        "player_name": "Youssef Tissir",
        "rank": 54594,
        "rank_sort": 54840,
        "total": 2349
      },
      {
        "club_badge_src": null,
        "entry": 8973624,
        "entry_name": "I'm A Baleba",
        "event_total": 50,
        "has_played": true,
        "id": 75227057,
        "last_rank": 39023,
        "player_name": "Rob Harris",
        "rank": 54594,
        "rank_sort": 54841,
        "total": 2349
      },
      {
        "club_badge_src": null,
        "entry": 8976642,
        "entry_name": "FPLatvia",
        "event_total": 50,
        "has_played": true,
        "id": 75256248,
        "last_rank": 44525,
        "player_name": "Dan Voitkun",
        "rank": 54594,
        "rank_sort": 54842,
        "total": 2349
      },
      {
        "club_badge_src": null,
        "entry": 9055937,
        "entry_name": "FPLGuruAlfie",
        "event_total": 91,
        "has_played": true,
        "id": 76022591,
        "last_rank": 135737,
        "player_name": "Alfred Pedersen",
        "rank": 54594,
        "rank_sort": 54843,
        "total": 2349
      },
      {
        "club_badge_src": null,
        "entry": 9414786,
        "entry_name": "Falcon",
        "event_total": 71,
        "has_played": true,
        "id": 79515594,
        "last_rank": 82398,
        "player_name": "Abdullah Alhabib",
        "rank": 54594,
        "rank_sort": 54844,
        "total": 2349
      },
      {
        "club_badge_src": null,
        "entry": 9624351,
        "entry_name": "Left 4 Djed",
        "event_total": 63,
        "has_played": true,
        "id": 81579963,
        "last_rank": 66057,
        "player_name": "Michael Capus",
        "rank": 54594,
        "rank_sort": 54845,
        "total": 2349
      },
      {
        "club_badge_src": null,
        "entry": 10731414,
        "entry_name": "Manchester Whatever",
        "event_total": 68,
        "has_played": true,
        "id": 90646877,
        "last_rank": 75537,
        "player_name": "Shabby Maby",
        "rank": 54594,
        "rank_sort": 54846,
        "total": 2349
      },
      {
        "club_badge_src": null,
        "entry": 10773192,
        "entry_name": "Hemn Saadun",
        "event_total": 52,
        "has_played": true,
        "id": 90985477,
        "last_rank": 47417,
        "player_name": "Chamchamal Team",
        "rank": 54594,
        "rank_sort": 54847,
        "total": 2349
      },
      {
        "club_badge_src": null,
        "entry": 327,
        "entry_name": "Kinder Mbeumo",
        "event_total": 67,
        "has_played": true,
        "id": 1805,
        "last_rank": 65796,
        "player_name": "Lewis Wood",
        "rank": 54848,
        "rank_sort": 54848,
        "total": 2349
      },
      {
        "club_badge_src": null,
        "entry": 756,
        "entry_name": "Fulham Khan",
        "event_total": 57,
        "has_played": true,
        "id": 4176,
        "last_rank": 55514,
        "player_name": "Mark Hitchin",
        "rank": 54848,
        "rank_sort": 54849,
        "total": 2349
      },
      {
        "club_badge_src": null,
        "entry": 1337,
        "entry_name": "Brat Wirtz",
        "event_total": 58,
        "has_played": true,
        "id": 7425,
        "last_rank": 57200,
        "player_name": "Chris Rickett",
        "rank": 54848,
        "rank_sort": 54850,
        "total": 2349
      }
    ]
  }
}