{
  "last_updated_data": "2026-05-24T23:28:17Z",
  "league": {
    "admin_entry": null,
    "closed": false,
    "code_privacy": "p",
    "created": "2025-07-20T23:14:33.933835Z",
    "cup_league": 2815434,
    "has_cup": true,
    "id": 314,
    "league_type": "s",
    "max_entries": null,
    "name": "Overall",
    "rank": null,
    "scoring": "c",
    "start_event": 1
  },
  "new_entries": {
    "has_next": false,
    "page": 1,
    "results": []
  },
  "standings": {
    "has_next": true,
    "page": 1621,
    "results": [
      {
        "club_badge_src": null,
        "entry": 1249752,
        "entry_name": "Basem",
        "event_total": 50,
        "has_played": true,
        "id": 8679496,
        "last_rank": 67926,
        "player_name": "Basem Basa",
        "rank": 80913,
        "rank_sort": 81001,
        "total": 2335
      },
      {
        "club_badge_src": null,
        "entry": 1265845,
        "entry_name": "For Beto or Wirtz",
        "event_total": 53,
        "has_played": true,
        "id": 8795308,
        "last_rank": 65796,
        "player_name": "Gavin Burnett",
        "rank": 80913,
        "rank_sort": 81002,
        "total": 2335
      },
      {
        "club_badge_src": null,
        "entry": 1278086,
        "entry_name": "Turley fc",
        "event_total": 41,
        "has_played": true,
        "id": 8881009,
        "last_rank": 52205,
        "player_name": "andy heaps",
        "rank": 80913,
        "rank_sort": 81003,
        "total": 2335
      },
      {
        "club_badge_src": null,
        "entry": 1421007,
        "entry_name": "The_Doctor team",
        "event_total": 61,
        "has_played": true,
        "id": 9894334,
        "last_rank": 82398,
        "player_name": "Oussama Anouar",
        "rank": 80913,
        "rank_sort": 81004,
        "total": 2335
      },
      {
        "club_badge_src": null,
        "entry": 1480186,
        "entry_name": "Tommy 10 Sheds",
        "event_total": 41,
        "has_played": true,
        "id": 10320800,
        "last_rank": 51720,
        "player_name": "Tom Darling",
        "rank": 80913,
        "rank_sort": 81005,
        "total": 2335
      },
      {
        "club_badge_src": null,
        "entry": 1498371,
        "entry_name": "Orthodox brothers",
        "event_total": 47,
        "has_played": true,
        "id": 10449409,
        "last_rank": 62429,
        "player_name": "Vladimir Lekic",
        "rank": 80913,
        "rank_sort": 81006,
        "total": 2335
      },
      {
        "club_badge_src": "https://fantasy.premierleague.com/gcs/plfpl-production-adobe-approved/plfpl-production/1503682/2325dffc-fd59-427e-9274-9b17f3fdb590.png",
        "entry": 1503682,
        "entry_name": "Star City",
        "event_total": 56,
        "has_played": true,
        "id": 10486865,
        "last_rank": 80194,
        "player_name": "John Cregg",
        "rank": 80913,
        "rank_sort": 81007,
        "total": 2335
      },
      {
        "club_badge_src": null,
        "entry": 1525946,
        "entry_name": "Team Boerst",
        "event_total": 56,
        "has_played": true,
        "id": 10643063,
        "last_rank": 71713,
        "player_name": "Espen B\u00f8rsting",
        "rank": 80913,
        "rank_sort": 81008,
        "total": 2335
      },
      {
        "club_badge_src": null,
        "entry": 1567777,
        "entry_name": "Kinder Mbeumo",
        "event_total": 63,
        "has_played": true,
        "id": 10952115,
        "last_rank": 96777,
        "player_name": "Harley Marshall",
        "rank": 80913,
        "rank_sort": 81009,
        "total": 2335
      },
      {
        "club_badge_src": null,
        "entry": 1568533,
        "entry_name": "WolfsterFC",
        "event_total": 64,
        "has_played": true,
        "id": 10957483,
        "last_rank": 99296,
        "player_name": "Shravan Subramanian",
        "rank": 80913,
        "rank_sort": 81010,
        "total": 2335
      },
      {
        "club_badge_src": null,
        "entry": 1585797,
        "entry_name": "\u0623\u064f\u0645\u062f\u0631\u0645\u0627\u0646 \u0627\u0644\u0642\u062f\u064a\u0645\u0629",
        "event_total": 58,
        "has_played": true,
        "id": 11086067,
        "last_rank": 84980,
        "player_name": "Eyad Nageeb",
        "rank": 80913,
        "rank_sort": 81011,
        "total": 2335
      },
      {
        "club_badge_src": null,
        "entry": 1649824,
        "entry_name": "Sienna's Lucamotives",
        "event_total": 71,
        "has_played": true,
        "id": 11550395,
        "last_rank": 107162,
        "player_name": "Ben Grogan",
        "rank": 80913,
        "rank_sort": 81012,
        "total": 2335
      },
      {
        "club_badge_src": null,
        "entry": 1654328,
        "entry_name": "The Wet Bandits",
        "event_total": 54,
        "has_played": true,
        "id": 11582116,
        "last_rank": 67695,
        "player_name": "nick pescod",
        "rank": 80913,
        "rank_sort": 81013,
        "total": 2335
      },
      {
        "club_badge_src": null,
        "entry": 1686354,
        "entry_name": "Lorem Ipsum",
        "event_total": 62,
        "has_played": true,
        "id": 11804919,
        "last_rank": 94255,
        "player_name": "Putu Bagus",
        "rank": 80913,
        "rank_sort": 81014,
        "total": 2335
      },
      {
        "club_badge_src": null,
        "entry": 1695118,
        "entry_name": "zizo0o",
        "event_total": 53,
        "has_played": true,
        "id": 11872517,
        "last_rank": 73975,
        "player_name": "mohamed Abdel-Aziz --",
        "rank": 80913,
        "rank_sort": 81015,
        "total": 2335
      },
      {
        "club_badge_src": "https://fantasy.premierleague.com/gcs/plfpl-production-adobe-approved/plfpl-production/1859124/5df636ed-075c-4530-883b-9c607e27d954.png",
        "entry": 1859124,
        "entry_name": "Gpower",
        "event_total": 62,
        "has_played": true,
        "id": 13084578,
        "last_rank": 94778,
        "player_name": "Jo-Ann Martin",
        "rank": 80913,
        "rank_sort": 81016,
        "total": 2335
      },
      {
        "club_badge_src": null,
        "entry": 1987809,
        "entry_name": "liver666",
        "event_total": 54,
        "has_played": true,
        "id": 14042286,
        "last_rank": 76128,
        "player_name": "Axis Axis",
        "rank": 80913,
        "rank_sort": 81017,
        "total": 2335
      },
      {
        "club_badge_src": null,
        "entry": 2008083,
        "entry_name": "Donny Van De Feekers",
        "event_total": 58,
        "has_played": true,
        "id": 14198359,
        "last_rank": 84980,
        "player_name": "Tim Dennehy",
        "rank": 80913,
        "rank_sort": 81018,
        "total": 2335
      },
      {
        "club_badge_src": null,
        "entry": 2029609,
        "entry_name": "Geachy's XI",
        "event_total": 63,
        "has_played": true,
        "id": 14368718,
        "last_rank": 97096,
        "player_name": "Ross McGeachie",
        "rank": 80913,
        "rank_sort": 81019,
        "total": 2335
      },
      {
        "club_badge_src": null,
        "entry": 2044291,
        "entry_name": "Go with the Flo, Mo!",
        "event_total": 63,
        "has_played": true,
        "id": 14477634,
        "last_rank": 96777,
        "player_name": "David Adams",
        "rank": 80913,
        "rank_sort": 81020,
        "total": 2335
      },
      {
        "club_badge_src": null,
        "entry": 2044517,
        "entry_name": "club paradise",
        "event_total": 63,
        "has_played": true,
        "id": 14479377,
        "last_rank": 97096,
        "player_name": "Abdurahman Ajmal",
        "rank": 80913,
        "rank_sort": 81021,
        "total": 2335
      },
      {
        "club_badge_src": null,
        "entry": 2071195,
        "entry_name": "Top 10 \ufffd",
        "event_total": 62,
        "has_played": true,
        "id": 14684121,
        "last_rank": 94537,
        "player_name": "Erik Lov\u00e9n",
        "rank": 80913,
        "rank_sort": 81022,
        "total": 2335
      },
      {
        "club_badge_src": null,
        "entry": 2111113,
        "entry_name": "\u0645\u062d\u0645\u062f \u0637\u0627\u0631\u0642",
        "event_total": 60,
        "has_played": true,
        "id": 14984548,
        "last_rank": 89706,
        "player_name": "\u0645\u062d\u0645\u0648\u062f \u0639\u064a\u062f",
        "rank": 80913,
        "rank_sort": 81023,
        "total": 2335
      },
      {
        "club_badge_src": null,
        "entry": 2147107,
        "entry_name": "FC letsee",
        "event_total": 67,
        "has_played": true,
        "id": 15261141,
        "last_rank": 96777,
        "player_name": "Mikael Lehtonen",
        "rank": 80913,
        "rank_sort": 81024,
        "total": 2335
      },
      {
        "club_badge_src": null,
        "entry": 2179680,
        "entry_name": "Kinder Mbeumo",
        "event_total": 63,
        "has_played": true,
        "id": 15502214,
        "last_rank": 96777,
        "player_name": "Amber Squire",
        "rank": 80913,
        "rank_sort": 81025,
        "total": 2335
      },
      {
        "club_badge_src": "https://fantasy.premierleague.com/gcs/plfpl-production-adobe-approved/plfpl-production/2186886/67411eff-13bb-4381-8d56-b6de61f70dab.png",
        "entry": 2186886,
        "entry_name": "BMG",
        "event_total": 34,
        "has_played": true,
        "id": 15557163,
        "last_rank": 41967,
        "player_name": "Oskari Kaartinen",
        "rank": 80913,
        "rank_sort": 81026,
        "total": 2335
      },
      {
        "club_badge_src": null,
        "entry": 2248230,
        "entry_name": "Boezie",
        "event_total": 59,
        "has_played": true,
        "id": 16019989,
        "last_rank": 77999,
        "player_name": "Matthijs Boezerooij",
        "rank": 80913,
        "rank_sort": 81027,
        "total": 2335
      },
      {
        "club_badge_src": "https://fantasy.premierleague.com/gcs/plfpl-production-adobe-approved/plfpl-production/2303942/94829368-e289-4850-b337-3bc9720e9edf.png",
        "entry": 2303942,
        "entry_name": "Mighty_BLUES\ufffd",
        "event_total": 87,
        "has_played": true,
        "id": 16433148,
        "last_rank": 129506,
        "player_name": "Dawa Sherpa",
        "rank": 80913,
        "rank_sort": 81028,
        "total": 2335
      },
      {
        "club_badge_src": null,
        "entry": 2372552,
        "entry_name": "Pradeep 11",
        "event_total": 54,
        "has_played": true,
        "id": 16937083,
        "last_rank": 76128,
        "player_name": "Pradeep Kumar Muralidharan",
        "rank": 80913,
        "rank_sort": 81029,
        "total": 2335
      },
      {
        "club_badge_src": null,
        "entry": 2428145,
        "entry_name": "Ekitike Taka",
        "event_total": 69,
        "has_played": true,
        "id": 17362261,
        "last_rank": 112591,
        "player_name": "Joshua Askham",
        "rank": 80913,
        "rank_sort": 81030,
        "total": 2335
      },
      {
        "club_badge_src": null,
        "entry": 2444894,
        "entry_name": "DayRonViejoDeCaldas",
        "event_total": 51,
        "has_played": true,
        "id": 17485946,
        "last_rank": 62223,
        "player_name": "Nicolas Echeverri",
        "rank": 80913,
        "rank_sort": 81031,
        "total": 2335
      },
      {
        "club_badge_src": "https://fantasy.premierleague.com/gcs/plfpl-production-adobe-approved/plfpl-production/2475562/b06e2a28-8542-48d8-881e-e49a69281024.png",
        "entry": 2475562,
        "entry_name": "THE ETIHAD \ufffd",
        "event_total": 62,
        "has_played": true,
        "id": 17711530,
        "last_rank": 94537,
        "player_name": "Salman Ahamed",
        "rank": 80913,
        "rank_sort": 81032,
        "total": 2335
      },
      {
        "club_badge_src": null,
        "entry": 2493610,
        "entry_name": "Tractor B",
        "event_total": 45,
        "has_played": true,
        "id": 17852211,
        "last_rank": 58911,
        "player_name": "Mads Simonsen",
        "rank": 80913,
        "rank_sort": 81033,
        "total": 2335
      },
      {
        "club_badge_src": null,
        "entry": 2512585,
        "entry_name": "Wirtz of art",
        "event_total": 57,
        "has_played": true,
        "id": 18000320,
        "last_rank": 73720,
        "player_name": "Saeed Paulse",
        "rank": 80913,
        "rank_sort": 81034,
        "total": 2335
      },
      {
        "club_badge_src": null,
        "entry": 2518312,
        "entry_name": "Tesco help",
        "event_total": 64,
        "has_played": true,
        "id": 18043384,
        "last_rank": 99806,
        "player_name": "Maris Cars",
        "rank": 80913,
        "rank_sort": 81035,
        "total": 2335
      },
      {
        "club_badge_src": null,
        "entry": 2520209,
        "entry_name": "AroCygaro",
        "event_total": 44,
        "has_played": true,
        "id": 18057524,
        "last_rank": 57001,
        "player_name": "Arek Tober",
        "rank": 80913,
        "rank_sort": 81036,
        "total": 2335
      },
      {
        "club_badge_src": null,
        "entry": 2558670,
        "entry_name": "Lift and Shift, baby",
        "event_total": 65,
        "has_played": true,
        "id": 18349255,
        "last_rank": 91466,
        "player_name": "Ricky Novis",
        "rank": 80913,
        "rank_sort": 81037,
        "total": 2335
      },
      {
        "club_badge_src": "https://fantasy.premierleague.com/gcs/plfpl-production-adobe-approved/plfpl-production/2585834/d3d0899c-3e39-4280-bc46-bfb9b832d849.png",
        "entry": 2585834,
        "entry_name": "Urban Frogs",
        "event_total": 58,
        "has_played": true,
        "id": 18562629,
        "last_rank": 84731,
        "player_name": "Sebastian Eales",
        "rank": 80913,
        "rank_sort": 81038,
        "total": 2335
      },
      {
        "club_badge_src": null,
        "entry": 2596841,
        "entry_name": "DontLookBackInElanga",
        "event_total": 65,
        "has_played": true,
        "id": 18648366,
        "last_rank": 82069,
        "player_name": "Richard Mitcham",
        "rank": 80913,
        "rank_sort": 81039,
        "total": 2335
      },
      {
        "club_badge_src": null,
        "entry": 2626839,
        "entry_name": "AstonKontrolojk",
        "event_total": 44,
        "has_played": true,
        "id": 18876342,
        "last_rank": 57200,
        "player_name": "Nikolaj Lojk",
        "rank": 80913,
        "rank_sort": 81040,
        "total": 2335
      },
      {
        "club_badge_src": null,
        "entry": 2627506,
        "entry_name": "London Calling",
        "event_total": 58,
        "has_played": true,
        "id": 18881401,
        "last_rank": 84731,
        "player_name": "Nikos Detsios",
        "rank": 80913,
        "rank_sort": 81041,
        "total": 2335
      },
      {
        "club_badge_src": "https://fantasy.premierleague.com/gcs/plfpl-production-adobe-approved/plfpl-production/2630888/56645175-8a44-4820-947a-1ed724cb6e92.png",
        "entry": 2630888,
        "entry_name": "Manchester city FC",
        "event_total": 72,
        "has_played": true,
        "id": 18907363,
        "last_rank": 121383,
        "player_name": "Bahamas Pep",
        "rank": 80913,
        "rank_sort": 81042,
        "total": 2335
      },
      {
        "club_badge_src": null,
        "entry": 2761312,
        "entry_name": "Traderager",
        "event_total": 42,
        "has_played": true,
        "id": 20144669,
        "last_rank": 47417,
        "player_name": "Campbell Paine",
        "rank": 80913,
        "rank_sort": 81043,
        "total": 2335
      },
      {
        "club_badge_src": null,
        "entry": 2830933,
        "entry_name": "Sahlad Dodgers",
        "event_total": 45,
        "has_played": true,
        "id": 20686340,
        "last_rank": 58911,
        "player_name": "chris crombie",
        "rank": 80913,
        "rank_sort": 81044,
        "total": 2335
      },
      {
        "club_badge_src": null,
        "entry": 2845415,
        "entry_name": "Kizzy's Allstars",
        "event_total": 57,
        "has_played": true,
        "id": 20801424,
        "last_rank": 82664,
        "player_name": "Kieran Haffenden",
        "rank": 80913,
        "rank_sort": 81045,
        "total": 2335
      },
      {
        "club_badge_src": null,
        "entry": 2883323,
        "entry_name": "Hagman FC",
        "event_total": 61,
        "has_played": true,
        "id": 21107988,
        "last_rank": 91835,
        "player_name": "Philip Hagman",
        "rank": 80913,
        "rank_sort": 81046,
        "total": 2335
      },
      {
        "club_badge_src": null,
        "entry": 2892659,
        "entry_name": "Towhere",
        "event_total": 50,
        "has_played": true,
        "id": 21186090,
        "last_rank": 67926,
        "player_name": "Amer Alhashan",
        "rank": 80913,
        "rank_sort": 81047,
        "total": 2335
      },
      {
        "club_badge_src": null,
        "entry": 2957162,
        "entry_name": "RB Depok",
        "event_total": 56,
        "has_played": true,
        "id": 21720561,
        "last_rank": 80465,
        "player_name": "Hafidh Taqiyyudin",
        "rank": 80913,
        "rank_sort": 81048,
        "total": 2335
      },
      {
        "club_badge_src": "https://fantasy.premierleague.com/gcs/plfpl-production-adobe-approved/plfpl-production/3027801/e8f1867a-a18a-4be1-a42c-afe32fc6c731.png",
        "entry": 3027801,
        "entry_name": "The Mean Machine",
        "event_total": 51,
        "has_played": true,
        "id": 22278906,
        "last_rank": 62223,
        "player_name": "nicholas squire",
        "rank": 80913,
        "rank_sort": 81049,
        "total": 2335
      },
      {
        "club_badge_src": null,
        "entry": 3069789,
        "entry_name": "GVTy FC",
        "event_total": 44,
        "has_played": true,
        "id": 22603948,
        "last_rank": 50468,
        "player_name": "Newton Kones",
        "rank": 80913,
        "rank_sort": 81050,
        "total": 2335
      }
    ]
  }
}