{
  "last_updated_data": "2026-05-24T23:28:17Z",
  "league": {
    "admin_entry": null,
    "closed": false,
    "code_privacy": "p",
    "created": "2025-07-20T23:14:33.933835Z",
    "cup_league": 2815434,
    "has_cup": true,
    "id": 314,
    "league_type": "s",
    "max_entries": null,
    "name": "Overall",
    "rank": null,
    "scoring": "c",
    "start_event": 1
  },
  "new_entries": {
    "has_next": false,
    "page": 1,
    "results": []
  },
  "standings": {
    "has_next": true,
    "page": 502,
    "results": [
      {
        "club_badge_src": null,
        "entry": 2287233,
        "entry_name": "Rebaz Qaraman",
        "event_total": 76,
        "has_played": true,
        "id": 16311829,
        "last_rank": 40647,
        "player_name": "Rebaz Anesthesia",
        "rank": 25023,
        "rank_sort": 25051,
        "total": 2374
      },
      {
        "club_badge_src": null,
        "entry": 2294047,
        "entry_name": "Rusholme Ruffians",
        "event_total": 65,
        "has_played": true,
        "id": 16361156,
        "last_rank": 32437,
        "player_name": "GJ Evs",
        "rank": 25023,
        "rank_sort": 25052,
        "total": 2374
      },
      {
        "club_badge_src": "https://fantasy.premierleague.com/gcs/plfpl-production-adobe-approved/plfpl-production/2353281/cd4804b6-57bd-4a90-bb37-f72c36e1d6b5.png",
        "entry": 2353281,
        "entry_name": "Moee emad",
        "event_total": 66,
        "has_played": true,
        "id": 16791510,
        "last_rank": 33483,
        "player_name": "Emad Atiea",
        "rank": 25023,
        "rank_sort": 25053,
        "total": 2374
      },
      {
        "club_badge_src": null,
        "entry": 2522182,
        "entry_name": "alfarso",
        "event_total": 51,
        "has_played": true,
        "id": 18072077,
        "last_rank": 19904,
        "player_name": "Talal Alfarsi",
        "rank": 25023,
        "rank_sort": 25054,
        "total": 2374
      },
      {
        "club_badge_src": null,
        "entry": 2770772,
        "entry_name": "Message in a Bottle",
        "event_total": 69,
        "has_played": true,
        "id": 20216435,
        "last_rank": 37058,
        "player_name": "Dan Message",
        "rank": 25023,
        "rank_sort": 25055,
        "total": 2374
      },
      {
        "club_badge_src": null,
        "entry": 2785922,
        "entry_name": "Bogleing",
        "event_total": 63,
        "has_played": true,
        "id": 20338465,
        "last_rank": 30276,
        "player_name": "Brett Eldin",
        "rank": 25023,
        "rank_sort": 25056,
        "total": 2374
      },
      {
        "club_badge_src": null,
        "entry": 2812245,
        "entry_name": "GA-VAR",
        "event_total": 55,
        "has_played": true,
        "id": 20540432,
        "last_rank": 22996,
        "player_name": "Gavin Johnstone",
        "rank": 25023,
        "rank_sort": 25057,
        "total": 2374
      },
      {
        "club_badge_src": null,
        "entry": 2820392,
        "entry_name": "Bruno Bruno Bruno",
        "event_total": 62,
        "has_played": true,
        "id": 20604417,
        "last_rank": 29199,
        "player_name": "Swastik Karmacharya",
        "rank": 25023,
        "rank_sort": 25058,
        "total": 2374
      },
      {
        "club_badge_src": null,
        "entry": 2912090,
        "entry_name": "Bluetown Rats",
        "event_total": 55,
        "has_played": true,
        "id": 21344212,
        "last_rank": 19904,
        "player_name": "Max Scragg",
        "rank": 25023,
        "rank_sort": 25059,
        "total": 2374
      },
      {
        "club_badge_src": null,
        "entry": 3012038,
        "entry_name": "Smart [Long Term]",
        "event_total": 66,
        "has_played": true,
        "id": 22158368,
        "last_rank": 29199,
        "player_name": "Pitipat Patanacharoenwong",
        "rank": 25023,
        "rank_sort": 25060,
        "total": 2374
      },
      {
        "club_badge_src": null,
        "entry": 3355869,
        "entry_name": "lord of the ings",
        "event_total": 40,
        "has_played": true,
        "id": 24897556,
        "last_rank": 12995,
        "player_name": "Krissander Digernes",
        "rank": 25023,
        "rank_sort": 25061,
        "total": 2374
      },
      {
        "club_badge_src": null,
        "entry": 3433318,
        "entry_name": "Oil be back",
        "event_total": 75,
        "has_played": true,
        "id": 25505463,
        "last_rank": 44525,
        "player_name": "Lwin Khant",
        "rank": 25023,
        "rank_sort": 25062,
        "total": 2374
      },
      {
        "club_badge_src": null,
        "entry": 3494180,
        "entry_name": "No risk,No Fun",
        "event_total": 70,
        "has_played": true,
        "id": 25989756,
        "last_rank": 38267,
        "player_name": "hassan mohamed",
        "rank": 25023,
        "rank_sort": 25063,
        "total": 2374
      },
      {
        "club_badge_src": null,
        "entry": 3725386,
        "entry_name": "Saka Khan Saka Khan",
        "event_total": 48,
        "has_played": true,
        "id": 27805015,
        "last_rank": 17848,
        "player_name": "Michael Horsnell",
        "rank": 25023,
        "rank_sort": 25064,
        "total": 2374
      },
      {
        "club_badge_src": null,
        "entry": 3759838,
        "entry_name": "buttons11",
        "event_total": 55,
        "has_played": true,
        "id": 28072752,
        "last_rank": 22996,
        "player_name": "Matthew Button",
        "rank": 25023,
        "rank_sort": 25065,
        "total": 2374
      },
      {
        "club_badge_src": null,
        "entry": 3985326,
        "entry_name": "FC B\u00e5tsman",
        "event_total": 67,
        "has_played": true,
        "id": 30004289,
        "last_rank": 34578,
        "player_name": "Jakob Lindahl",
        "rank": 25023,
        "rank_sort": 25066,
        "total": 2374
      },
      {
        "club_badge_src": null,
        "entry": 4183171,
        "entry_name": "FC Go Get That",
        "event_total": 51,
        "has_played": true,
        "id": 31649272,
        "last_rank": 17150,
        "player_name": "Diarmaid Smyth",
        "rank": 25023,
        "rank_sort": 25067,
        "total": 2374
      },
      {
        "club_badge_src": null,
        "entry": 4954570,
        "entry_name": "Digestive Busquets",
        "event_total": 47,
        "has_played": true,
        "id": 38232085,
        "last_rank": 17194,
        "player_name": "Phil Barber",
        "rank": 25023,
        "rank_sort": 25068,
        "total": 2374
      },
      {
        "club_badge_src": null,
        "entry": 5152259,
        "entry_name": "Halas Team \u2705\ufe0f",
        "event_total": 57,
        "has_played": true,
        "id": 39862127,
        "last_rank": 24636,
        "player_name": "halas Ibrahim",
        "rank": 25023,
        "rank_sort": 25069,
        "total": 2374
      },
      {
        "club_badge_src": null,
        "entry": 6319607,
        "entry_name": "\u0641\u0631\u0627\u062c \u0628\u0631\u0643\u0627\u062a",
        "event_total": 65,
        "has_played": true,
        "id": 50173442,
        "last_rank": 32437,
        "player_name": "\u0641\u0631\u0627\u062c \u0628\u0631\u0643\u0627\u062a",
        "rank": 25023,
        "rank_sort": 25070,
        "total": 2374
      },
      {
        "club_badge_src": "https://fantasy.premierleague.com/gcs/plfpl-production-adobe-approved/plfpl-production/6905324/c59cae01-699a-4c6e-ac7a-1eaeadddf68a.png",
        "entry": 6905324,
        "entry_name": "HB.Hisoka",
        "event_total": 57,
        "has_played": true,
        "id": 55348673,
        "last_rank": 24636,
        "player_name": "Hamza Bena\u00efssa",
        "rank": 25023,
        "rank_sort": 25071,
        "total": 2374
      },
      {
        "club_badge_src": null,
        "entry": 7485533,
        "entry_name": "oliver",
        "event_total": 70,
        "has_played": true,
        "id": 61094881,
        "last_rank": 33483,
        "player_name": "Oliver Haugland",
        "rank": 25023,
        "rank_sort": 25072,
        "total": 2374
      },
      {
        "club_badge_src": null,
        "entry": 8050428,
        "entry_name": "IQ",
        "event_total": 59,
        "has_played": true,
        "id": 66341153,
        "last_rank": 19835,
        "player_name": "Yasser OP",
        "rank": 25023,
        "rank_sort": 25073,
        "total": 2374
      },
      {
        "club_badge_src": null,
        "entry": 8802365,
        "entry_name": "mooomakeen",
        "event_total": 48,
        "has_played": true,
        "id": 73567610,
        "last_rank": 17802,
        "player_name": "Eng Makeen",
        "rank": 25023,
        "rank_sort": 25074,
        "total": 2374
      },
      {
        "club_badge_src": null,
        "entry": 13904,
        "entry_name": "angeo21",
        "event_total": 73,
        "has_played": true,
        "id": 84196,
        "last_rank": 37058,
        "player_name": "andreas andreou",
        "rank": 25075,
        "rank_sort": 25075,
        "total": 2374
      },
      {
        "club_badge_src": null,
        "entry": 26367,
        "entry_name": "FC Bebas - OCNB",
        "event_total": 71,
        "has_played": true,
        "id": 166707,
        "last_rank": 34682,
        "player_name": "Helder Jorge Preza",
        "rank": 25075,
        "rank_sort": 25076,
        "total": 2374
      },
      {
        "club_badge_src": null,
        "entry": 26844,
        "entry_name": "Rock The CAS-Bah",
        "event_total": 73,
        "has_played": true,
        "id": 169730,
        "last_rank": 37058,
        "player_name": "Declan Wood",
        "rank": 25075,
        "rank_sort": 25077,
        "total": 2374
      },
      {
        "club_badge_src": null,
        "entry": 39424,
        "entry_name": "Slim Jim United",
        "event_total": 60,
        "has_played": true,
        "id": 252615,
        "last_rank": 27402,
        "player_name": "Jim !",
        "rank": 25075,
        "rank_sort": 25078,
        "total": 2374
      },
      {
        "club_badge_src": null,
        "entry": 57089,
        "entry_name": "HuttonDressedAsLahm",
        "event_total": 55,
        "has_played": true,
        "id": 367733,
        "last_rank": 19966,
        "player_name": "Roberto Losito",
        "rank": 25075,
        "rank_sort": 25079,
        "total": 2374
      },
      {
        "club_badge_src": null,
        "entry": 57433,
        "entry_name": "The Zarate Kid",
        "event_total": 63,
        "has_played": true,
        "id": 369985,
        "last_rank": 26345,
        "player_name": "Liam Grey",
        "rank": 25075,
        "rank_sort": 25080,
        "total": 2374
      },
      {
        "club_badge_src": null,
        "entry": 82336,
        "entry_name": "Choucha FC",
        "event_total": 60,
        "has_played": true,
        "id": 535751,
        "last_rank": 23820,
        "player_name": "Matej \u0160antek",
        "rank": 25075,
        "rank_sort": 25081,
        "total": 2374
      },
      {
        "club_badge_src": null,
        "entry": 122781,
        "entry_name": "Major League Saka",
        "event_total": 55,
        "has_played": true,
        "id": 800944,
        "last_rank": 22996,
        "player_name": "Nathan Kelly",
        "rank": 25075,
        "rank_sort": 25082,
        "total": 2374
      },
      {
        "club_badge_src": null,
        "entry": 205018,
        "entry_name": "alhashemi_15",
        "event_total": 72,
        "has_played": true,
        "id": 1362690,
        "last_rank": 35768,
        "player_name": "Taleb Alhashemi",
        "rank": 25075,
        "rank_sort": 25083,
        "total": 2374
      },
      {
        "club_badge_src": null,
        "entry": 268270,
        "entry_name": "The Quills IL",
        "event_total": 73,
        "has_played": true,
        "id": 1784664,
        "last_rank": 42152,
        "player_name": "Arild Svendsen",
        "rank": 25075,
        "rank_sort": 25084,
        "total": 2374
      },
      {
        "club_badge_src": null,
        "entry": 289994,
        "entry_name": "FarkeKnightRises",
        "event_total": 75,
        "has_played": true,
        "id": 1933396,
        "last_rank": 44882,
        "player_name": "Joe Field",
        "rank": 25075,
        "rank_sort": 25085,
        "total": 2374
      },
      {
        "club_badge_src": null,
        "entry": 439900,
        "entry_name": "Dave's Piggin Team",
        "event_total": 58,
        "has_played": true,
        "id": 2949725,
        "last_rank": 22216,
        "player_name": "Dave Carter",
        "rank": 25075,
        "rank_sort": 25086,
        "total": 2374
      },
      {
        "club_badge_src": null,
        "entry": 489367,
        "entry_name": "LYN FC",
        "event_total": 65,
        "has_played": true,
        "id": 3285247,
        "last_rank": 32491,
        "player_name": "Phan Tuan",
        "rank": 25075,
        "rank_sort": 25087,
        "total": 2374
      },
      {
        "club_badge_src": null,
        "entry": 498905,
        "entry_name": "Here We Gy\u00f6",
        "event_total": 66,
        "has_played": true,
        "id": 3348415,
        "last_rank": 33332,
        "player_name": "Will Powell",
        "rank": 25075,
        "rank_sort": 25088,
        "total": 2374
      },
      {
        "club_badge_src": null,
        "entry": 505616,
        "entry_name": "Que Salah, Salah",
        "event_total": 56,
        "has_played": true,
        "id": 3393691,
        "last_rank": 20678,
        "player_name": "Danny Meachin",
        "rank": 25075,
        "rank_sort": 25089,
        "total": 2374
      },
      {
        "club_badge_src": null,
        "entry": 865459,
        "entry_name": "DJ20 forever!",
        "event_total": 53,
        "has_played": true,
        "id": 5933155,
        "last_rank": 21486,
        "player_name": "Yatish Lodhia",
        "rank": 25075,
        "rank_sort": 25090,
        "total": 2374
      },
      {
        "club_badge_src": null,
        "entry": 894677,
        "entry_name": "Good Ebening",
        "event_total": 62,
        "has_played": true,
        "id": 6145856,
        "last_rank": 25517,
        "player_name": "Alexander Thorhauge",
        "rank": 25075,
        "rank_sort": 25091,
        "total": 2374
      },
      {
        "club_badge_src": null,
        "entry": 962045,
        "entry_name": "GOMBAK FC",
        "event_total": 47,
        "has_played": true,
        "id": 6629714,
        "last_rank": 14712,
        "player_name": "MOHD HAZRIN",
        "rank": 25075,
        "rank_sort": 25092,
        "total": 2374
      },
      {
        "club_badge_src": "https://fantasy.premierleague.com/gcs/plfpl-production-adobe-approved/plfpl-production/1005651/fc99b598-991b-4055-9348-840d921345b3.png",
        "entry": 1005651,
        "entry_name": "Pyttipannathinaikos",
        "event_total": 34,
        "has_played": true,
        "id": 6951852,
        "last_rank": 10195,
        "player_name": "Ludvig Svenesson",
        "rank": 25075,
        "rank_sort": 25093,
        "total": 2374
      },
      {
        "club_badge_src": "https://fantasy.premierleague.com/gcs/plfpl-production-adobe-approved/plfpl-production/1053979/30f9e906-803c-481a-88e2-12bb2fdfc3c5.png",
        "entry": 1053979,
        "entry_name": "Eleganckie Ch\u0142opaki",
        "event_total": 72,
        "has_played": true,
        "id": 7294249,
        "last_rank": 31236,
        "player_name": "Maciej Ziemski",
        "rank": 25075,
        "rank_sort": 25094,
        "total": 2374
      },
      {
        "club_badge_src": "https://fantasy.premierleague.com/gcs/plfpl-production-adobe-approved/plfpl-production/1157274/97ce9562-4199-4c1a-94d4-bb7ac891ff96.png",
        "entry": 1157274,
        "entry_name": "a",
        "event_total": 69,
        "has_played": true,
        "id": 8024824,
        "last_rank": 37134,
        "player_name": "David Beeth",
        "rank": 25075,
        "rank_sort": 25095,
        "total": 2374
      },
      {
        "club_badge_src": null,
        "entry": 1359854,
        "entry_name": "Kinder Mbuemo",
        "event_total": 73,
        "has_played": true,
        "id": 9452293,
        "last_rank": 37058,
        "player_name": "Josh Gurr",
        "rank": 25075,
        "rank_sort": 25096,
        "total": 2374
      },
      {
        "club_badge_src": null,
        "entry": 1740519,
        "entry_name": "Calafiornication",
        "event_total": 59,
        "has_played": true,
        "id": 12211736,
        "last_rank": 26475,
        "player_name": "Alex Markham",
        "rank": 25075,
        "rank_sort": 25097,
        "total": 2374
      },
      {
        "club_badge_src": null,
        "entry": 2786186,
        "entry_name": "The 205",
        "event_total": 70,
        "has_played": true,
        "id": 20340509,
        "last_rank": 38340,
        "player_name": "William Graham",
        "rank": 25075,
        "rank_sort": 25098,
        "total": 2374
      },
      {
        "club_badge_src": null,
        "entry": 3006080,
        "entry_name": "EnzosWorldChampions",
        "event_total": 64,
        "has_played": true,
        "id": 22112427,
        "last_rank": 27364,
        "player_name": "Joe McCallig",
        "rank": 25075,
        "rank_sort": 25099,
        "total": 2374
      },
      {
        "club_badge_src": null,
        "entry": 3153365,
        "entry_name": "Tonali Deaf",
        "event_total": 63,
        "has_played": true,
        "id": 23288742,
        "last_rank": 26345,
        "player_name": "Graham Price",
        "rank": 25075,
        "rank_sort": 25100,
        "total": 2374
      }
    ]
  }
}