{
  "last_updated_data": "2026-05-24T23:28:17Z",
  "league": {
    "admin_entry": null,
    "closed": false,
    "code_privacy": "p",
    "created": "2025-07-20T23:14:33.933835Z",
    "cup_league": 2815434,
    "has_cup": true,
    "id": 314,
    "league_type": "s",
    "max_entries": null,
    "name": "Overall",
    "rank": null,
    "scoring": "c",
    "start_event": 1
  },
  "new_entries": {
    "has_next": false,
    "page": 1,
    "results": []
  },
  "standings": {
    "has_next": true,
    "page": 197,
    "results": [
      {
        "club_badge_src": null,
        "entry": 7156121,
        "entry_name": "Backstreet Moyes",
        "event_total": 50,
        "has_played": true,
        "id": 57714496,
        "last_rank": 6839,
        "player_name": "Leah Sidley",
        "rank": 9756,
        "rank_sort": 9801,
        "total": 2399
      },
      {
        "club_badge_src": null,
        "entry": 7734515,
        "entry_name": "World Champions",
        "event_total": 50,
        "has_played": true,
        "id": 63481898,
        "last_rank": 6887,
        "player_name": "Wazo DM",
        "rank": 9756,
        "rank_sort": 9802,
        "total": 2399
      },
      {
        "club_badge_src": null,
        "entry": 7764131,
        "entry_name": "NRF\u00fcllkrug",
        "event_total": 69,
        "has_played": true,
        "id": 63750464,
        "last_rank": 15063,
        "player_name": "Eleanor Clotworthy",
        "rank": 9756,
        "rank_sort": 9803,
        "total": 2399
      },
      {
        "club_badge_src": null,
        "entry": 8510939,
        "entry_name": "DenjaazBoss",
        "event_total": 62,
        "has_played": true,
        "id": 70743532,
        "last_rank": 11345,
        "player_name": "Vivaan Hira",
        "rank": 9756,
        "rank_sort": 9804,
        "total": 2399
      },
      {
        "club_badge_src": null,
        "entry": 8934079,
        "entry_name": "Baipor",
        "event_total": 66,
        "has_played": true,
        "id": 74843352,
        "last_rank": 11175,
        "player_name": "\u0e1b\u0e23\u0e27\u0e34\u0e17\u0e22\u0e4c \u0e22\u0e28\u0e16\u0e32",
        "rank": 9756,
        "rank_sort": 9805,
        "total": 2399
      },
      {
        "club_badge_src": null,
        "entry": 4421,
        "entry_name": "Nellys Toffeemen",
        "event_total": 56,
        "has_played": true,
        "id": 25134,
        "last_rank": 8977,
        "player_name": "Neil Rimmer",
        "rank": 9806,
        "rank_sort": 9806,
        "total": 2399
      },
      {
        "club_badge_src": "https://fantasy.premierleague.com/gcs/plfpl-production-adobe-approved/plfpl-production/6342/af3de89c-a3f5-4516-8178-63d4a39f5149.png",
        "entry": 6342,
        "entry_name": "Art\u00eate-\u00e0-t\u00eate",
        "event_total": 59,
        "has_played": true,
        "id": 36368,
        "last_rank": 10102,
        "player_name": "Jack Byford",
        "rank": 9806,
        "rank_sort": 9807,
        "total": 2399
      },
      {
        "club_badge_src": null,
        "entry": 34891,
        "entry_name": "AC Sparta Praha",
        "event_total": 57,
        "has_played": true,
        "id": 223104,
        "last_rank": 9248,
        "player_name": "Robert Fran\u011bk",
        "rank": 9806,
        "rank_sort": 9808,
        "total": 2399
      },
      {
        "club_badge_src": "https://fantasy.premierleague.com/gcs/plfpl-production-adobe-approved/plfpl-production/89035/3e2e0824-baf6-4733-937b-16aaabf6409a.png",
        "entry": 89035,
        "entry_name": "h2h",
        "event_total": 54,
        "has_played": true,
        "id": 581176,
        "last_rank": 8198,
        "player_name": "James Boyce",
        "rank": 9806,
        "rank_sort": 9809,
        "total": 2399
      },
      {
        "club_badge_src": null,
        "entry": 132986,
        "entry_name": "The Legends",
        "event_total": 67,
        "has_played": true,
        "id": 866214,
        "last_rank": 11901,
        "player_name": "Ben Ware",
        "rank": 9806,
        "rank_sort": 9810,
        "total": 2399
      },
      {
        "club_badge_src": null,
        "entry": 170468,
        "entry_name": "Ice-Cole finishers",
        "event_total": 60,
        "has_played": true,
        "id": 1126250,
        "last_rank": 10600,
        "player_name": "Kunwar Nanda",
        "rank": 9806,
        "rank_sort": 9811,
        "total": 2399
      },
      {
        "club_badge_src": null,
        "entry": 181928,
        "entry_name": "The Blue Mavericks",
        "event_total": 60,
        "has_played": true,
        "id": 1200542,
        "last_rank": 8925,
        "player_name": "Adnan Shah",
        "rank": 9806,
        "rank_sort": 9812,
        "total": 2399
      },
      {
        "club_badge_src": "https://fantasy.premierleague.com/gcs/plfpl-production-adobe-approved/plfpl-production/187078/b36d4456-9977-4e1b-bfc3-677b10347d65.png",
        "entry": 187078,
        "entry_name": "BALLERRZZ",
        "event_total": 56,
        "has_played": true,
        "id": 1236712,
        "last_rank": 8925,
        "player_name": "SIR HAISOOB",
        "rank": 9806,
        "rank_sort": 9813,
        "total": 2399
      },
      {
        "club_badge_src": null,
        "entry": 280041,
        "entry_name": "CaptainJoe",
        "event_total": 77,
        "has_played": true,
        "id": 1863756,
        "last_rank": 17585,
        "player_name": "Mohd Syafiq",
        "rank": 9806,
        "rank_sort": 9814,
        "total": 2399
      },
      {
        "club_badge_src": null,
        "entry": 445274,
        "entry_name": "Samoen FC",
        "event_total": 57,
        "has_played": true,
        "id": 2986015,
        "last_rank": 9350,
        "player_name": "Sam Broad",
        "rank": 9806,
        "rank_sort": 9815,
        "total": 2399
      },
      {
        "club_badge_src": null,
        "entry": 485687,
        "entry_name": "Bustus FC",
        "event_total": 62,
        "has_played": true,
        "id": 3260259,
        "last_rank": 11482,
        "player_name": "Seb Oijen",
        "rank": 9806,
        "rank_sort": 9816,
        "total": 2399
      },
      {
        "club_badge_src": "https://fantasy.premierleague.com/gcs/plfpl-production-adobe-approved/plfpl-production/516311/7bd6b315-de24-4837-98d9-6b255efcd3cb.png",
        "entry": 516311,
        "entry_name": "Blankchester City",
        "event_total": 57,
        "has_played": true,
        "id": 3466392,
        "last_rank": 9350,
        "player_name": "Michael Lopez",
        "rank": 9806,
        "rank_sort": 9817,
        "total": 2399
      },
      {
        "club_badge_src": "https://fantasy.premierleague.com/gcs/plfpl-production-adobe-approved/plfpl-production/559298/8a9e14cb-9787-4c41-84a8-bc755cca29c9.png",
        "entry": 559298,
        "entry_name": "OnlyFoolsAndHorses",
        "event_total": 64,
        "has_played": true,
        "id": 3763950,
        "last_rank": 12420,
        "player_name": "Milos Majkic",
        "rank": 9806,
        "rank_sort": 9818,
        "total": 2399
      },
      {
        "club_badge_src": null,
        "entry": 649442,
        "entry_name": "Jackie's Tipsy Takas",
        "event_total": 64,
        "has_played": true,
        "id": 4389094,
        "last_rank": 12470,
        "player_name": "Wayne Stacker",
        "rank": 9806,
        "rank_sort": 9819,
        "total": 2399
      },
      {
        "club_badge_src": null,
        "entry": 716238,
        "entry_name": "ThomasTheFrankEngine",
        "event_total": 78,
        "has_played": true,
        "id": 4859630,
        "last_rank": 18377,
        "player_name": "Charlie Pannell",
        "rank": 9806,
        "rank_sort": 9820,
        "total": 2399
      },
      {
        "club_badge_src": null,
        "entry": 1014642,
        "entry_name": "Change Name",
        "event_total": 59,
        "has_played": true,
        "id": 7019166,
        "last_rank": 10031,
        "player_name": "oliver newton",
        "rank": 9806,
        "rank_sort": 9821,
        "total": 2399
      },
      {
        "club_badge_src": "https://fantasy.premierleague.com/gcs/plfpl-production-adobe-approved/plfpl-production/1371352/c7e1e072-505a-4a5f-a92e-3d8ec8359655.png",
        "entry": 1371352,
        "entry_name": "Yanited FK",
        "event_total": 66,
        "has_played": true,
        "id": 9532706,
        "last_rank": 11419,
        "player_name": "Simen Tobiassen",
        "rank": 9806,
        "rank_sort": 9822,
        "total": 2399
      },
      {
        "club_badge_src": null,
        "entry": 1389598,
        "entry_name": "andy",
        "event_total": 71,
        "has_played": true,
        "id": 9665991,
        "last_rank": 16441,
        "player_name": "andy andy",
        "rank": 9806,
        "rank_sort": 9823,
        "total": 2399
      },
      {
        "club_badge_src": "https://fantasy.premierleague.com/gcs/plfpl-production-adobe-approved/plfpl-production/1411239/d679c2c2-11e5-4067-bbb7-69642a784fdf.png",
        "entry": 1411239,
        "entry_name": "Christian NordVPN",
        "event_total": 57,
        "has_played": true,
        "id": 9820388,
        "last_rank": 7822,
        "player_name": "Matt Constable",
        "rank": 9806,
        "rank_sort": 9824,
        "total": 2399
      },
      {
        "club_badge_src": null,
        "entry": 1481930,
        "entry_name": "Pain in Dias",
        "event_total": 62,
        "has_played": true,
        "id": 10333863,
        "last_rank": 11482,
        "player_name": "Haris Mehic",
        "rank": 9806,
        "rank_sort": 9825,
        "total": 2399
      },
      {
        "club_badge_src": null,
        "entry": 1489121,
        "entry_name": "Mehras",
        "event_total": 57,
        "has_played": true,
        "id": 10384362,
        "last_rank": 9350,
        "player_name": "mehras akbari",
        "rank": 9806,
        "rank_sort": 9826,
        "total": 2399
      },
      {
        "club_badge_src": null,
        "entry": 1755181,
        "entry_name": "DBS FC",
        "event_total": 57,
        "has_played": true,
        "id": 12322126,
        "last_rank": 6528,
        "player_name": "Filip Ivanov",
        "rank": 9806,
        "rank_sort": 9827,
        "total": 2399
      },
      {
        "club_badge_src": null,
        "entry": 1806940,
        "entry_name": "cosmos",
        "event_total": 68,
        "has_played": true,
        "id": 12703424,
        "last_rank": 14604,
        "player_name": "Chris Cullen",
        "rank": 9806,
        "rank_sort": 9828,
        "total": 2399
      },
      {
        "club_badge_src": null,
        "entry": 2241350,
        "entry_name": "Callez",
        "event_total": 57,
        "has_played": true,
        "id": 15968026,
        "last_rank": 9382,
        "player_name": "Carl Rasmus Hansen",
        "rank": 9806,
        "rank_sort": 9829,
        "total": 2399
      },
      {
        "club_badge_src": "https://fantasy.premierleague.com/gcs/plfpl-production-adobe-approved/plfpl-production/2545017/ce5405d7-ef63-48d7-9dc3-9772a133e983.png",
        "entry": 2545017,
        "entry_name": "Nedko's Team",
        "event_total": 54,
        "has_played": true,
        "id": 18241642,
        "last_rank": 6887,
        "player_name": "Nedko Brymchev",
        "rank": 9806,
        "rank_sort": 9830,
        "total": 2399
      },
      {
        "club_badge_src": null,
        "entry": 2565823,
        "entry_name": "NICO XI",
        "event_total": 57,
        "has_played": true,
        "id": 18405581,
        "last_rank": 7761,
        "player_name": "Tom Nicholson",
        "rank": 9806,
        "rank_sort": 9831,
        "total": 2399
      },
      {
        "club_badge_src": null,
        "entry": 2580038,
        "entry_name": "My_Rash_Is_Gone",
        "event_total": 71,
        "has_played": true,
        "id": 18517984,
        "last_rank": 16320,
        "player_name": "James winters",
        "rank": 9806,
        "rank_sort": 9832,
        "total": 2399
      },
      {
        "club_badge_src": null,
        "entry": 2580757,
        "entry_name": "Haal or nothing",
        "event_total": 74,
        "has_played": true,
        "id": 18523384,
        "last_rank": 18475,
        "player_name": "Chris Lee",
        "rank": 9806,
        "rank_sort": 9833,
        "total": 2399
      },
      {
        "club_badge_src": "https://fantasy.premierleague.com/gcs/plfpl-production-adobe-approved/plfpl-production/2620459/78e53563-3802-41f9-96d9-cbf24315715b.png",
        "entry": 2620459,
        "entry_name": "Cunha Kick it",
        "event_total": 58,
        "has_played": true,
        "id": 18829070,
        "last_rank": 9751,
        "player_name": "Sam Wellman",
        "rank": 9806,
        "rank_sort": 9834,
        "total": 2399
      },
      {
        "club_badge_src": null,
        "entry": 2647181,
        "entry_name": "Pathetic Athletic",
        "event_total": 69,
        "has_played": true,
        "id": 19026773,
        "last_rank": 15226,
        "player_name": "Euan Miller",
        "rank": 9806,
        "rank_sort": 9835,
        "total": 2399
      },
      {
        "club_badge_src": null,
        "entry": 3190481,
        "entry_name": "Uchiha elButcher",
        "event_total": 66,
        "has_played": true,
        "id": 23578691,
        "last_rank": 11419,
        "player_name": "tareq eljazzar",
        "rank": 9806,
        "rank_sort": 9836,
        "total": 2399
      },
      {
        "club_badge_src": null,
        "entry": 4035745,
        "entry_name": "Ekitike Taka",
        "event_total": 65,
        "has_played": true,
        "id": 30430414,
        "last_rank": 12940,
        "player_name": "Jaskaran Rai",
        "rank": 9806,
        "rank_sort": 9837,
        "total": 2399
      },
      {
        "club_badge_src": null,
        "entry": 4209350,
        "entry_name": "Matt City",
        "event_total": 35,
        "has_played": true,
        "id": 31869482,
        "last_rank": 3473,
        "player_name": "Matt O'Conor",
        "rank": 9806,
        "rank_sort": 9838,
        "total": 2399
      },
      {
        "club_badge_src": null,
        "entry": 4298521,
        "entry_name": "Arteta's Last Dance",
        "event_total": 71,
        "has_played": true,
        "id": 32610329,
        "last_rank": 16441,
        "player_name": "Harry James",
        "rank": 9806,
        "rank_sort": 9839,
        "total": 2399
      },
      {
        "club_badge_src": null,
        "entry": 4467762,
        "entry_name": "Jakedinhot",
        "event_total": 72,
        "has_played": true,
        "id": 34044225,
        "last_rank": 17078,
        "player_name": "Jaakko Hyysalo",
        "rank": 9806,
        "rank_sort": 9840,
        "total": 2399
      },
      {
        "club_badge_src": null,
        "entry": 4695762,
        "entry_name": "Artekkers",
        "event_total": 72,
        "has_played": true,
        "id": 35995571,
        "last_rank": 14604,
        "player_name": "Vdag Tatarian",
        "rank": 9806,
        "rank_sort": 9841,
        "total": 2399
      },
      {
        "club_badge_src": null,
        "entry": 4932812,
        "entry_name": "Kudzwa Fu\u00dfballverein",
        "event_total": 72,
        "has_played": true,
        "id": 38053704,
        "last_rank": 17078,
        "player_name": "Takudzwa Madzikatire",
        "rank": 9806,
        "rank_sort": 9842,
        "total": 2399
      },
      {
        "club_badge_src": null,
        "entry": 5304730,
        "entry_name": "FC Safi Kama Pamba",
        "event_total": 66,
        "has_played": true,
        "id": 41120086,
        "last_rank": 11419,
        "player_name": "Arnold Midunga",
        "rank": 9806,
        "rank_sort": 9843,
        "total": 2399
      },
      {
        "club_badge_src": null,
        "entry": 5712691,
        "entry_name": "No Shirt Blanca",
        "event_total": 63,
        "has_played": true,
        "id": 44737348,
        "last_rank": 11957,
        "player_name": "Stephen Elstone",
        "rank": 9806,
        "rank_sort": 9844,
        "total": 2399
      },
      {
        "club_badge_src": "https://fantasy.premierleague.com/gcs/plfpl-production-adobe-approved/plfpl-production/6108627/4b857b19-f17f-483c-bb66-2503ba4a9e78.png",
        "entry": 6108627,
        "entry_name": "Varissuon Varkaat",
        "event_total": 66,
        "has_played": true,
        "id": 48251658,
        "last_rank": 11419,
        "player_name": "Henry Humalam\u00e4ki",
        "rank": 9806,
        "rank_sort": 9845,
        "total": 2399
      },
      {
        "club_badge_src": null,
        "entry": 6639257,
        "entry_name": "Kierans11",
        "event_total": 61,
        "has_played": true,
        "id": 53070056,
        "last_rank": 11034,
        "player_name": "Kieran Kane",
        "rank": 9806,
        "rank_sort": 9846,
        "total": 2399
      },
      {
        "club_badge_src": "https://fantasy.premierleague.com/gcs/plfpl-production-adobe-approved/plfpl-production/6822690/f0134f56-5980-4061-82fc-9d69a32bc4ba.png",
        "entry": 6822690,
        "entry_name": "ANS BG",
        "event_total": 44,
        "has_played": true,
        "id": 54646927,
        "last_rank": 5313,
        "player_name": "THE EMPEROR",
        "rank": 9806,
        "rank_sort": 9847,
        "total": 2399
      },
      {
        "club_badge_src": null,
        "entry": 8006770,
        "entry_name": "Chagardo soteiro fc",
        "event_total": 64,
        "has_played": true,
        "id": 65944619,
        "last_rank": 12470,
        "player_name": "Santiago Martinez",
        "rank": 9806,
        "rank_sort": 9848,
        "total": 2399
      },
      {
        "club_badge_src": null,
        "entry": 26843,
        "entry_name": "Andrews FC",
        "event_total": 63,
        "has_played": true,
        "id": 169723,
        "last_rank": 9942,
        "player_name": "Andrew Cook",
        "rank": 9849,
        "rank_sort": 9849,
        "total": 2399
      },
      {
        "club_badge_src": null,
        "entry": 65438,
        "entry_name": "Be More Dog*******",
        "event_total": 69,
        "has_played": true,
        "id": 422453,
        "last_rank": 12995,
        "player_name": "Paul Kingsley",
        "rank": 9849,
        "rank_sort": 9850,
        "total": 2399
      }
    ]
  }
}