{
  "last_updated_data": "2026-05-24T23:28:17Z",
  "league": {
    "admin_entry": null,
    "closed": false,
    "code_privacy": "p",
    "created": "2025-07-20T23:14:33.933835Z",
    "cup_league": 2815434,
    "has_cup": true,
    "id": 314,
    "league_type": "s",
    "max_entries": null,
    "name": "Overall",
    "rank": null,
    "scoring": "c",
    "start_event": 1
  },
  "new_entries": {
    "has_next": false,
    "page": 1,
    "results": []
  },
  "standings": {
    "has_next": true,
    "page": 129,
    "results": [
      {
        "club_badge_src": null,
        "entry": 6202418,
        "entry_name": "Hearts of Oak",
        "event_total": 56,
        "has_played": true,
        "id": 49065845,
        "last_rank": 5646,
        "player_name": "James Royle",
        "rank": 6339,
        "rank_sort": 6401,
        "total": 2409
      },
      {
        "club_badge_src": null,
        "entry": 6429055,
        "entry_name": "When Seagulls Follow",
        "event_total": 60,
        "has_played": true,
        "id": 51177002,
        "last_rank": 6752,
        "player_name": "David Lloyd",
        "rank": 6339,
        "rank_sort": 6402,
        "total": 2409
      },
      {
        "club_badge_src": null,
        "entry": 7121441,
        "entry_name": "Howe Toon is Now",
        "event_total": 52,
        "has_played": true,
        "id": 57379610,
        "last_rank": 4742,
        "player_name": "Daniel Nevison",
        "rank": 6339,
        "rank_sort": 6403,
        "total": 2409
      },
      {
        "club_badge_src": null,
        "entry": 7273989,
        "entry_name": "To Viktor the spoils",
        "event_total": 61,
        "has_played": true,
        "id": 58830548,
        "last_rank": 7059,
        "player_name": "Henry Church",
        "rank": 6339,
        "rank_sort": 6404,
        "total": 2409
      },
      {
        "club_badge_src": "https://fantasy.premierleague.com/gcs/plfpl-production-adobe-approved/plfpl-production/7737910/6709edca-1420-4f74-b1eb-3b2657ca5d20.png",
        "entry": 7737910,
        "entry_name": "Hakuna Mateta",
        "event_total": 65,
        "has_played": true,
        "id": 63512255,
        "last_rank": 8339,
        "player_name": "Dr Ruffers",
        "rank": 6339,
        "rank_sort": 6405,
        "total": 2409
      },
      {
        "club_badge_src": "https://fantasy.premierleague.com/gcs/plfpl-production-adobe-approved/plfpl-production/7821363/4d7b7294-653e-4a3e-989c-6bfef84ee5a9.png",
        "entry": 7821363,
        "entry_name": "FC Stump",
        "event_total": 64,
        "has_played": true,
        "id": 64267327,
        "last_rank": 7979,
        "player_name": "Richie Elliott",
        "rank": 6339,
        "rank_sort": 6406,
        "total": 2409
      },
      {
        "club_badge_src": null,
        "entry": 7866813,
        "entry_name": "Nick's Good Boys",
        "event_total": 62,
        "has_played": true,
        "id": 64685076,
        "last_rank": 7375,
        "player_name": "Nick Skordellis",
        "rank": 6339,
        "rank_sort": 6407,
        "total": 2409
      },
      {
        "club_badge_src": null,
        "entry": 8153297,
        "entry_name": "Living the Ream",
        "event_total": 59,
        "has_played": true,
        "id": 67299578,
        "last_rank": 6386,
        "player_name": "Ian Richard",
        "rank": 6339,
        "rank_sort": 6408,
        "total": 2409
      },
      {
        "club_badge_src": null,
        "entry": 8278909,
        "entry_name": "Theatre Of Streams",
        "event_total": 71,
        "has_played": true,
        "id": 68498894,
        "last_rank": 10748,
        "player_name": "Labib Bari",
        "rank": 6339,
        "rank_sort": 6409,
        "total": 2409
      },
      {
        "club_badge_src": null,
        "entry": 8387424,
        "entry_name": "tolga76",
        "event_total": 53,
        "has_played": true,
        "id": 69561845,
        "last_rank": 4954,
        "player_name": "Tolga I\u015f\u0131k",
        "rank": 6339,
        "rank_sort": 6410,
        "total": 2409
      },
      {
        "club_badge_src": null,
        "entry": 8499535,
        "entry_name": "Columna Durruti",
        "event_total": 70,
        "has_played": true,
        "id": 70632976,
        "last_rank": 10346,
        "player_name": "Pablo Albeza Candela",
        "rank": 6339,
        "rank_sort": 6411,
        "total": 2409
      },
      {
        "club_badge_src": "https://fantasy.premierleague.com/gcs/plfpl-production-adobe-approved/plfpl-production/9224671/de44cc3e-725e-4a70-b9a9-d1ee51015552.png",
        "entry": 9224671,
        "entry_name": "Purplefire",
        "event_total": 67,
        "has_played": true,
        "id": 77675628,
        "last_rank": 9248,
        "player_name": "Jeffrey Huang",
        "rank": 6339,
        "rank_sort": 6412,
        "total": 2409
      },
      {
        "club_badge_src": "https://fantasy.premierleague.com/gcs/plfpl-production-adobe-approved/plfpl-production/8108/8f7308a8-30c7-423f-b3b3-9c350c05724e.png",
        "entry": 8108,
        "entry_name": "Ghost",
        "event_total": 65,
        "has_played": true,
        "id": 46960,
        "last_rank": 7059,
        "player_name": "Ahmed Emad",
        "rank": 6413,
        "rank_sort": 6413,
        "total": 2409
      },
      {
        "club_badge_src": null,
        "entry": 20131,
        "entry_name": "Yamalfunctioning FC",
        "event_total": 68,
        "has_played": true,
        "id": 125356,
        "last_rank": 9644,
        "player_name": "Kwabena Asiamah",
        "rank": 6413,
        "rank_sort": 6414,
        "total": 2409
      },
      {
        "club_badge_src": null,
        "entry": 29217,
        "entry_name": "\u5373\u65e5\u8d77\u6e1b\u5c11\u8a0e\u8ad6\u82f1\u8d85 \u7121\u766e \u5c07\u6642\u9593\u653e\u6b63\u7d93\u4e8b",
        "event_total": 65,
        "has_played": true,
        "id": 184724,
        "last_rank": 7059,
        "player_name": "Wanna bgor",
        "rank": 6413,
        "rank_sort": 6415,
        "total": 2409
      },
      {
        "club_badge_src": null,
        "entry": 57468,
        "entry_name": "AnfieldWarriors",
        "event_total": 30,
        "has_played": true,
        "id": 370205,
        "last_rank": 1633,
        "player_name": "Mike Alman",
        "rank": 6413,
        "rank_sort": 6416,
        "total": 2409
      },
      {
        "club_badge_src": null,
        "entry": 61899,
        "entry_name": "Kinder Mbeumo",
        "event_total": 64,
        "has_played": true,
        "id": 398808,
        "last_rank": 8032,
        "player_name": "Claudio Napolitano",
        "rank": 6413,
        "rank_sort": 6417,
        "total": 2409
      },
      {
        "club_badge_src": null,
        "entry": 89649,
        "entry_name": "De Wahlistiske",
        "event_total": 60,
        "has_played": true,
        "id": 585220,
        "last_rank": 5646,
        "player_name": "Torkel Wahl-Olsen",
        "rank": 6413,
        "rank_sort": 6418,
        "total": 2409
      },
      {
        "club_badge_src": null,
        "entry": 93085,
        "entry_name": "Rutter Woke Nonsense",
        "event_total": 41,
        "has_played": true,
        "id": 608324,
        "last_rank": 2300,
        "player_name": "Tom Edrich",
        "rank": 6413,
        "rank_sort": 6419,
        "total": 2409
      },
      {
        "club_badge_src": null,
        "entry": 148839,
        "entry_name": "Shalapy",
        "event_total": 66,
        "has_played": true,
        "id": 975752,
        "last_rank": 7375,
        "player_name": "ahmed shalpy",
        "rank": 6413,
        "rank_sort": 6420,
        "total": 2409
      },
      {
        "club_badge_src": null,
        "entry": 166262,
        "entry_name": "Giroud Sandstorm",
        "event_total": 70,
        "has_played": true,
        "id": 1098346,
        "last_rank": 8718,
        "player_name": "Reid Kyle",
        "rank": 6413,
        "rank_sort": 6421,
        "total": 2409
      },
      {
        "club_badge_src": null,
        "entry": 191488,
        "entry_name": "out of darkness",
        "event_total": 50,
        "has_played": true,
        "id": 1268337,
        "last_rank": 4358,
        "player_name": "JAMES MYATT",
        "rank": 6413,
        "rank_sort": 6422,
        "total": 2409
      },
      {
        "club_badge_src": null,
        "entry": 301944,
        "entry_name": "No more Mr Rice guy",
        "event_total": 72,
        "has_played": true,
        "id": 2020465,
        "last_rank": 11345,
        "player_name": "Jake Seaton",
        "rank": 6413,
        "rank_sort": 6423,
        "total": 2409
      },
      {
        "club_badge_src": null,
        "entry": 321496,
        "entry_name": "Palmer violets",
        "event_total": 58,
        "has_played": true,
        "id": 2154575,
        "last_rank": 6194,
        "player_name": "Harvey Rhone",
        "rank": 6413,
        "rank_sort": 6424,
        "total": 2409
      },
      {
        "club_badge_src": null,
        "entry": 331044,
        "entry_name": "TTTPPP _AKP",
        "event_total": 58,
        "has_played": true,
        "id": 2217371,
        "last_rank": 5173,
        "player_name": "Panuwat Akkharaprathomphong",
        "rank": 6413,
        "rank_sort": 6425,
        "total": 2409
      },
      {
        "club_badge_src": null,
        "entry": 401079,
        "entry_name": "mu8587",
        "event_total": 62,
        "has_played": true,
        "id": 2689510,
        "last_rank": 7450,
        "player_name": "Wan Bsaka",
        "rank": 6413,
        "rank_sort": 6426,
        "total": 2409
      },
      {
        "club_badge_src": null,
        "entry": 550033,
        "entry_name": "MyFochingTeam",
        "event_total": 65,
        "has_played": true,
        "id": 3701727,
        "last_rank": 8382,
        "player_name": "\u0141uki Szyns",
        "rank": 6413,
        "rank_sort": 6427,
        "total": 2409
      },
      {
        "club_badge_src": null,
        "entry": 640495,
        "entry_name": "Samuraya",
        "event_total": 61,
        "has_played": true,
        "id": 4328703,
        "last_rank": 7141,
        "player_name": "Tsvetelin Tsonev",
        "rank": 6413,
        "rank_sort": 6428,
        "total": 2409
      },
      {
        "club_badge_src": null,
        "entry": 796626,
        "entry_name": "Mohawks",
        "event_total": 70,
        "has_played": true,
        "id": 5452097,
        "last_rank": 10346,
        "player_name": "Cal Waldron",
        "rank": 6413,
        "rank_sort": 6429,
        "total": 2409
      },
      {
        "club_badge_src": null,
        "entry": 811337,
        "entry_name": "RTE Guide Paper",
        "event_total": 63,
        "has_played": true,
        "id": 5555095,
        "last_rank": 6448,
        "player_name": "Sean Harrington",
        "rank": 6413,
        "rank_sort": 6430,
        "total": 2409
      },
      {
        "club_badge_src": null,
        "entry": 912771,
        "entry_name": "ThePutbulls",
        "event_total": 61,
        "has_played": true,
        "id": 6276189,
        "last_rank": 7141,
        "player_name": "Casper Put",
        "rank": 6413,
        "rank_sort": 6431,
        "total": 2409
      },
      {
        "club_badge_src": null,
        "entry": 1084300,
        "entry_name": "Old Havertz Kai Hard",
        "event_total": 61,
        "has_played": true,
        "id": 7508175,
        "last_rank": 5940,
        "player_name": "Joe Russell",
        "rank": 6413,
        "rank_sort": 6432,
        "total": 2409
      },
      {
        "club_badge_src": null,
        "entry": 1117874,
        "entry_name": "kikim king",
        "event_total": 58,
        "has_played": true,
        "id": 7743360,
        "last_rank": 5173,
        "player_name": "kikim king",
        "rank": 6413,
        "rank_sort": 6433,
        "total": 2409
      },
      {
        "club_badge_src": null,
        "entry": 1192044,
        "entry_name": "FREE PALESTINE",
        "event_total": 50,
        "has_played": true,
        "id": 8270862,
        "last_rank": 4358,
        "player_name": "Mahmoud hani",
        "rank": 6413,
        "rank_sort": 6434,
        "total": 2409
      },
      {
        "club_badge_src": "https://fantasy.premierleague.com/gcs/plfpl-production-adobe-approved/plfpl-production/1351699/1300da6f-4709-460c-b806-06b1fa234e5c.png",
        "entry": 1351699,
        "entry_name": "\u0627\u0644\u0648\u0632\u064a\u0631",
        "event_total": 70,
        "has_played": true,
        "id": 9396801,
        "last_rank": 10462,
        "player_name": "Sameh Hammad",
        "rank": 6413,
        "rank_sort": 6435,
        "total": 2409
      },
      {
        "club_badge_src": "https://fantasy.premierleague.com/gcs/plfpl-production-adobe-approved/plfpl-production/1383539/8123a385-6637-43c5-af05-de72371c5fcc.png",
        "entry": 1383539,
        "entry_name": "Haalandaise S\u00e5s",
        "event_total": 54,
        "has_played": true,
        "id": 9622707,
        "last_rank": 5173,
        "player_name": "Walter Almgren",
        "rank": 6413,
        "rank_sort": 6436,
        "total": 2409
      },
      {
        "club_badge_src": null,
        "entry": 1412127,
        "entry_name": "we back",
        "event_total": 70,
        "has_played": true,
        "id": 9827093,
        "last_rank": 10346,
        "player_name": "Matti Wallays",
        "rank": 6413,
        "rank_sort": 6437,
        "total": 2409
      },
      {
        "club_badge_src": null,
        "entry": 1506603,
        "entry_name": "HaCunha Mateta",
        "event_total": 45,
        "has_played": true,
        "id": 10507453,
        "last_rank": 3442,
        "player_name": "Matthew Curtiss",
        "rank": 6413,
        "rank_sort": 6438,
        "total": 2409
      },
      {
        "club_badge_src": null,
        "entry": 1581685,
        "entry_name": "Moyesy Neighbours",
        "event_total": 70,
        "has_played": true,
        "id": 11053051,
        "last_rank": 10346,
        "player_name": "Malcolm Taylor",
        "rank": 6413,
        "rank_sort": 6439,
        "total": 2409
      },
      {
        "club_badge_src": null,
        "entry": 1921294,
        "entry_name": "Noisy Neighbours",
        "event_total": 61,
        "has_played": true,
        "id": 13548093,
        "last_rank": 7014,
        "player_name": "Randall Kerr",
        "rank": 6413,
        "rank_sort": 6440,
        "total": 2409
      },
      {
        "club_badge_src": null,
        "entry": 1979794,
        "entry_name": "Fredagsmys",
        "event_total": 51,
        "has_played": true,
        "id": 13978296,
        "last_rank": 4570,
        "player_name": "Martin Bodin",
        "rank": 6413,
        "rank_sort": 6441,
        "total": 2409
      },
      {
        "club_badge_src": null,
        "entry": 2065683,
        "entry_name": "Issegalys mannar",
        "event_total": 50,
        "has_played": true,
        "id": 14642193,
        "last_rank": 4358,
        "player_name": "isak Nystrom",
        "rank": 6413,
        "rank_sort": 6442,
        "total": 2409
      },
      {
        "club_badge_src": null,
        "entry": 2277370,
        "entry_name": "\u5976\u806f",
        "event_total": 59,
        "has_played": true,
        "id": 16239648,
        "last_rank": 5448,
        "player_name": "Gaston Panda",
        "rank": 6413,
        "rank_sort": 6443,
        "total": 2409
      },
      {
        "club_badge_src": null,
        "entry": 2317404,
        "entry_name": "FC R\u00eds B\u00e1n",
        "event_total": 50,
        "has_played": true,
        "id": 16531336,
        "last_rank": 4303,
        "player_name": "Johnny Comer",
        "rank": 6413,
        "rank_sort": 6444,
        "total": 2409
      },
      {
        "club_badge_src": null,
        "entry": 2395378,
        "entry_name": "Tom FC",
        "event_total": 60,
        "has_played": true,
        "id": 17112135,
        "last_rank": 6839,
        "player_name": "Thomas Hunt",
        "rank": 6413,
        "rank_sort": 6445,
        "total": 2409
      },
      {
        "club_badge_src": null,
        "entry": 2846420,
        "entry_name": "ROMANTIC BONNIE",
        "event_total": 66,
        "has_played": true,
        "id": 20809103,
        "last_rank": 8854,
        "player_name": "J\u0119drzej Bo\u017cek",
        "rank": 6413,
        "rank_sort": 6446,
        "total": 2409
      },
      {
        "club_badge_src": null,
        "entry": 2936393,
        "entry_name": "A-Z of RICE",
        "event_total": 60,
        "has_played": true,
        "id": 21546478,
        "last_rank": 5646,
        "player_name": "PAUL E GREEN",
        "rank": 6413,
        "rank_sort": 6447,
        "total": 2409
      },
      {
        "club_badge_src": "https://fantasy.premierleague.com/gcs/plfpl-production-adobe-approved/plfpl-production/3182288/491b71c0-12b3-46b5-b3c5-f3e6e52d5005.png",
        "entry": 3182288,
        "entry_name": "Pep-a Pig",
        "event_total": 67,
        "has_played": true,
        "id": 23516063,
        "last_rank": 9142,
        "player_name": "Darius Dragan",
        "rank": 6413,
        "rank_sort": 6448,
        "total": 2409
      },
      {
        "club_badge_src": null,
        "entry": 3292442,
        "entry_name": "Espresso Yourself",
        "event_total": 65,
        "has_played": true,
        "id": 24378431,
        "last_rank": 8382,
        "player_name": "Darren Mugleston",
        "rank": 6413,
        "rank_sort": 6449,
        "total": 2409
      },
      {
        "club_badge_src": null,
        "entry": 3523485,
        "entry_name": "StanleyFC",
        "event_total": 74,
        "has_played": true,
        "id": 26222150,
        "last_rank": 12200,
        "player_name": "Stanley Kok",
        "rank": 6413,
        "rank_sort": 6450,
        "total": 2409
      }
    ]
  }
}