{
  "last_updated_data": "2026-05-24T23:28:17Z",
  "league": {
    "admin_entry": null,
    "closed": false,
    "code_privacy": "p",
    "created": "2025-07-20T23:14:33.933835Z",
    "cup_league": 2815434,
    "has_cup": true,
    "id": 314,
    "league_type": "s",
    "max_entries": null,
    "name": "Overall",
    "rank": null,
    "scoring": "c",
    "start_event": 1
  },
  "new_entries": {
    "has_next": false,
    "page": 1,
    "results": []
  },
  "standings": {
    "has_next": true,
    "page": 1358,
    "results": [
      {
        "club_badge_src": null,
        "entry": 86216,
        "entry_name": "Charlie xGx",
        "event_total": 41,
        "has_played": true,
        "id": 561774,
        "last_rank": 42940,
        "player_name": "Anya Martin",
        "rank": 67829,
        "rank_sort": 67851,
        "total": 2341
      },
      {
        "club_badge_src": null,
        "entry": 89244,
        "entry_name": "ArabicFPL",
        "event_total": 64,
        "has_played": true,
        "id": 582559,
        "last_rank": 83584,
        "player_name": "Abdul Rahman",
        "rank": 67829,
        "rank_sort": 67852,
        "total": 2341
      },
      {
        "club_badge_src": "https://fantasy.premierleague.com/gcs/plfpl-production-adobe-approved/plfpl-production/104799/482f582a-d76d-40cd-8b2d-d2516edcb1c3.png",
        "entry": 104799,
        "entry_name": "your wirtz nightmare",
        "event_total": 63,
        "has_played": true,
        "id": 683581,
        "last_rank": 81420,
        "player_name": "Cat Baker",
        "rank": 67829,
        "rank_sort": 67853,
        "total": 2341
      },
      {
        "club_badge_src": null,
        "entry": 112734,
        "entry_name": "Dbale Ps",
        "event_total": 69,
        "has_played": true,
        "id": 735130,
        "last_rank": 95527,
        "player_name": "Dbale Ps",
        "rank": 67829,
        "rank_sort": 67854,
        "total": 2341
      },
      {
        "club_badge_src": null,
        "entry": 113601,
        "entry_name": "prestige worldwide",
        "event_total": 49,
        "has_played": true,
        "id": 740921,
        "last_rank": 54667,
        "player_name": "James Hallett",
        "rank": 67829,
        "rank_sort": 67855,
        "total": 2341
      },
      {
        "club_badge_src": null,
        "entry": 113728,
        "entry_name": "Circusmonkeys",
        "event_total": 77,
        "has_played": true,
        "id": 741826,
        "last_rank": 116953,
        "player_name": "John Ritchie",
        "rank": 67829,
        "rank_sort": 67856,
        "total": 2341
      },
      {
        "club_badge_src": "https://fantasy.premierleague.com/gcs/plfpl-production-adobe-approved/plfpl-production/126097/77c1ca70-7631-4cbc-b1f0-ad87beb26ff6.png",
        "entry": 126097,
        "entry_name": "charli xGx",
        "event_total": 69,
        "has_played": true,
        "id": 822268,
        "last_rank": 95640,
        "player_name": "Michael Scott",
        "rank": 67829,
        "rank_sort": 67857,
        "total": 2341
      },
      {
        "club_badge_src": null,
        "entry": 126261,
        "entry_name": "Fryktelig greit",
        "event_total": 66,
        "has_played": true,
        "id": 823317,
        "last_rank": 88348,
        "player_name": "Andreas R\u00f8nningen",
        "rank": 67829,
        "rank_sort": 67858,
        "total": 2341
      },
      {
        "club_badge_src": null,
        "entry": 130666,
        "entry_name": "Catwalk Bamford",
        "event_total": 47,
        "has_played": true,
        "id": 851397,
        "last_rank": 51403,
        "player_name": "Tom Dale",
        "rank": 67829,
        "rank_sort": 67859,
        "total": 2341
      },
      {
        "club_badge_src": "https://fantasy.premierleague.com/gcs/plfpl-production-adobe-approved/plfpl-production/143026/76475598-33fb-49c6-84b9-bd2b3fcf3908.png",
        "entry": 143026,
        "entry_name": "Za Warudo!!",
        "event_total": 56,
        "has_played": true,
        "id": 935574,
        "last_rank": 66738,
        "player_name": "Ameel MUV",
        "rank": 67829,
        "rank_sort": 67860,
        "total": 2341
      },
      {
        "club_badge_src": null,
        "entry": 144857,
        "entry_name": "Kudus To You",
        "event_total": 50,
        "has_played": true,
        "id": 948427,
        "last_rank": 56369,
        "player_name": "Benjaminas Valiauga",
        "rank": 67829,
        "rank_sort": 67861,
        "total": 2341
      },
      {
        "club_badge_src": null,
        "entry": 147279,
        "entry_name": "Don'tLookBackElanga",
        "event_total": 56,
        "has_played": true,
        "id": 965118,
        "last_rank": 66848,
        "player_name": "Dan Catterall",
        "rank": 67829,
        "rank_sort": 67862,
        "total": 2341
      },
      {
        "club_badge_src": "https://fantasy.premierleague.com/gcs/plfpl-production-adobe-approved/plfpl-production/160602/c8eb5fc2-3af9-4cce-a5eb-9f17c8a8acc6.png",
        "entry": 160602,
        "entry_name": "Bouncing Baggies",
        "event_total": 56,
        "has_played": true,
        "id": 1057657,
        "last_rank": 67063,
        "player_name": "Daniel Dowley",
        "rank": 67829,
        "rank_sort": 67863,
        "total": 2341
      },
      {
        "club_badge_src": null,
        "entry": 170288,
        "entry_name": "Dunnys Divers",
        "event_total": 42,
        "has_played": true,
        "id": 1125125,
        "last_rank": 44048,
        "player_name": "James Dunn",
        "rank": 67829,
        "rank_sort": 67864,
        "total": 2341
      },
      {
        "club_badge_src": null,
        "entry": 181678,
        "entry_name": "\u6df1\u6c34\u57d7\u62c9\u8212\u798f\u7279",
        "event_total": 59,
        "has_played": true,
        "id": 1198874,
        "last_rank": 72702,
        "player_name": "Kelvin Ho",
        "rank": 67829,
        "rank_sort": 67865,
        "total": 2341
      },
      {
        "club_badge_src": "https://fantasy.premierleague.com/gcs/plfpl-production-adobe-approved/plfpl-production/189351/e78b0fc1-d540-4d16-b9ab-4dd703885835.png",
        "entry": 189351,
        "entry_name": "Leedsus Christ FC",
        "event_total": 55,
        "has_played": true,
        "id": 1253292,
        "last_rank": 65163,
        "player_name": "Steve Eyles",
        "rank": 67829,
        "rank_sort": 67866,
        "total": 2341
      },
      {
        "club_badge_src": null,
        "entry": 194638,
        "entry_name": "benguzi",
        "event_total": 54,
        "has_played": true,
        "id": 1290484,
        "last_rank": 63390,
        "player_name": "Asaf Geffen",
        "rank": 67829,
        "rank_sort": 67867,
        "total": 2341
      },
      {
        "club_badge_src": null,
        "entry": 195792,
        "entry_name": "Farzad duski",
        "event_total": 34,
        "has_played": true,
        "id": 1298538,
        "last_rank": 34051,
        "player_name": "Farzad Anwar",
        "rank": 67829,
        "rank_sort": 67868,
        "total": 2341
      },
      {
        "club_badge_src": "https://fantasy.premierleague.com/gcs/plfpl-production-adobe-approved/plfpl-production/205055/b4aaf7d4-a315-449e-a568-048b89d37f94.png",
        "entry": 205055,
        "entry_name": "Salahcious",
        "event_total": 65,
        "has_played": true,
        "id": 1362947,
        "last_rank": 86304,
        "player_name": "Mikkel Nielsen",
        "rank": 67829,
        "rank_sort": 67869,
        "total": 2341
      },
      {
        "club_badge_src": null,
        "entry": 214981,
        "entry_name": "Palmer Violets",
        "event_total": 55,
        "has_played": true,
        "id": 1430010,
        "last_rank": 65163,
        "player_name": "Alex Hargreaves",
        "rank": 67829,
        "rank_sort": 67870,
        "total": 2341
      },
      {
        "club_badge_src": null,
        "entry": 217293,
        "entry_name": "Rory's Rovers",
        "event_total": 72,
        "has_played": true,
        "id": 1445117,
        "last_rank": 103254,
        "player_name": "Luke Walton",
        "rank": 67829,
        "rank_sort": 67871,
        "total": 2341
      },
      {
        "club_badge_src": null,
        "entry": 218608,
        "entry_name": "Sakarilegious",
        "event_total": 41,
        "has_played": true,
        "id": 1453771,
        "last_rank": 42506,
        "player_name": "Ethan Salloum",
        "rank": 67829,
        "rank_sort": 67872,
        "total": 2341
      },
      {
        "club_badge_src": null,
        "entry": 218610,
        "entry_name": "Morgan D Rogers \u2620\ufe0f",
        "event_total": 48,
        "has_played": true,
        "id": 1453784,
        "last_rank": 52853,
        "player_name": "Lincoln Ealefoh",
        "rank": 67829,
        "rank_sort": 67873,
        "total": 2341
      },
      {
        "club_badge_src": null,
        "entry": 229301,
        "entry_name": "No Ndidi Partey",
        "event_total": 67,
        "has_played": true,
        "id": 1525562,
        "last_rank": 91006,
        "player_name": "Sam Jowett",
        "rank": 67829,
        "rank_sort": 67874,
        "total": 2341
      },
      {
        "club_badge_src": null,
        "entry": 247708,
        "entry_name": "Angel SEEN",
        "event_total": 64,
        "has_played": true,
        "id": 1648771,
        "last_rank": 83698,
        "player_name": "Thapanat Chomphoophan",
        "rank": 67829,
        "rank_sort": 67875,
        "total": 2341
      },
      {
        "club_badge_src": null,
        "entry": 251766,
        "entry_name": "Bon Ekitike",
        "event_total": 53,
        "has_played": true,
        "id": 1674826,
        "last_rank": 61606,
        "player_name": "michael paparozzi",
        "rank": 67829,
        "rank_sort": 67876,
        "total": 2341
      },
      {
        "club_badge_src": "https://fantasy.premierleague.com/gcs/plfpl-production-adobe-approved/plfpl-production/266106/2cc71468-67cb-4e36-a9e9-4faaee785b61.png",
        "entry": 266106,
        "entry_name": "GREENY FC",
        "event_total": 65,
        "has_played": true,
        "id": 1770100,
        "last_rank": 86304,
        "player_name": "Brandon Green",
        "rank": 67829,
        "rank_sort": 67877,
        "total": 2341
      },
      {
        "club_badge_src": null,
        "entry": 270465,
        "entry_name": "FC SQUARE OLIVIA",
        "event_total": 61,
        "has_played": true,
        "id": 1799344,
        "last_rank": 77258,
        "player_name": "SANGAY TENZIN",
        "rank": 67829,
        "rank_sort": 67878,
        "total": 2341
      },
      {
        "club_badge_src": null,
        "entry": 317967,
        "entry_name": "The Vengaboys",
        "event_total": 61,
        "has_played": true,
        "id": 2131384,
        "last_rank": 68624,
        "player_name": "Ryan Noke",
        "rank": 67829,
        "rank_sort": 67879,
        "total": 2341
      },
      {
        "club_badge_src": null,
        "entry": 325091,
        "entry_name": "JayJay United",
        "event_total": 67,
        "has_played": true,
        "id": 2178357,
        "last_rank": 90746,
        "player_name": "Johan Jonsson",
        "rank": 67829,
        "rank_sort": 67880,
        "total": 2341
      },
      {
        "club_badge_src": "https://fantasy.premierleague.com/gcs/plfpl-production-adobe-approved/plfpl-production/348117/245345b8-5fba-485c-a719-ac52465eb088.png",
        "entry": 348117,
        "entry_name": "Farcelona",
        "event_total": 62,
        "has_played": true,
        "id": 2330094,
        "last_rank": 79431,
        "player_name": "Jon Hambleton",
        "rank": 67829,
        "rank_sort": 67881,
        "total": 2341
      },
      {
        "club_badge_src": null,
        "entry": 357151,
        "entry_name": "Beddinge BK",
        "event_total": 64,
        "has_played": true,
        "id": 2390100,
        "last_rank": 83584,
        "player_name": "Frank Regen",
        "rank": 67829,
        "rank_sort": 67882,
        "total": 2341
      },
      {
        "club_badge_src": null,
        "entry": 359432,
        "entry_name": "Badr",
        "event_total": 46,
        "has_played": true,
        "id": 2405241,
        "last_rank": 49880,
        "player_name": "Mohamed Badr",
        "rank": 67829,
        "rank_sort": 67883,
        "total": 2341
      },
      {
        "club_badge_src": null,
        "entry": 360821,
        "entry_name": "Electric Boogaloo",
        "event_total": 55,
        "has_played": true,
        "id": 2414410,
        "last_rank": 65163,
        "player_name": "Jonathan Buma",
        "rank": 67829,
        "rank_sort": 67884,
        "total": 2341
      },
      {
        "club_badge_src": "https://fantasy.premierleague.com/gcs/plfpl-production-adobe-approved/plfpl-production/368071/e7d14922-28bd-43c6-86e8-09040f2c5038.png",
        "entry": 368071,
        "entry_name": "Could Be Wirtz",
        "event_total": 67,
        "has_played": true,
        "id": 2463149,
        "last_rank": 91006,
        "player_name": "Cristian Henegariu",
        "rank": 67829,
        "rank_sort": 67885,
        "total": 2341
      },
      {
        "club_badge_src": null,
        "entry": 397258,
        "entry_name": "Game of Throw-Ins",
        "event_total": 64,
        "has_played": true,
        "id": 2663777,
        "last_rank": 83698,
        "player_name": "Callum Joyce",
        "rank": 67829,
        "rank_sort": 67886,
        "total": 2341
      },
      {
        "club_badge_src": null,
        "entry": 402621,
        "entry_name": "Ctrl Alt Deligt",
        "event_total": 67,
        "has_played": true,
        "id": 2699647,
        "last_rank": 91466,
        "player_name": "Sergej Kostic",
        "rank": 67829,
        "rank_sort": 67887,
        "total": 2341
      },
      {
        "club_badge_src": null,
        "entry": 404260,
        "entry_name": "Scarper FC",
        "event_total": 61,
        "has_played": true,
        "id": 2710637,
        "last_rank": 77258,
        "player_name": "Steve Barron",
        "rank": 67829,
        "rank_sort": 67888,
        "total": 2341
      },
      {
        "club_badge_src": null,
        "entry": 405677,
        "entry_name": "JK92",
        "event_total": 46,
        "has_played": true,
        "id": 2719914,
        "last_rank": 50199,
        "player_name": "Josh King",
        "rank": 67829,
        "rank_sort": 67889,
        "total": 2341
      },
      {
        "club_badge_src": null,
        "entry": 406129,
        "entry_name": "Net Six and Chill",
        "event_total": 36,
        "has_played": true,
        "id": 2723037,
        "last_rank": 36200,
        "player_name": "Chrystian K",
        "rank": 67829,
        "rank_sort": 67890,
        "total": 2341
      },
      {
        "club_badge_src": null,
        "entry": 433929,
        "entry_name": "Hzmy",
        "event_total": 55,
        "has_played": true,
        "id": 2910080,
        "last_rank": 65163,
        "player_name": "Ismail Alhzme",
        "rank": 67829,
        "rank_sort": 67891,
        "total": 2341
      },
      {
        "club_badge_src": null,
        "entry": 446116,
        "entry_name": "4:20 KGB \u2622\ufe0f",
        "event_total": 65,
        "has_played": true,
        "id": 2992113,
        "last_rank": 85870,
        "player_name": "Joseph Atanu",
        "rank": 67829,
        "rank_sort": 67892,
        "total": 2341
      },
      {
        "club_badge_src": null,
        "entry": 452813,
        "entry_name": "Gak Gitu Salah",
        "event_total": 67,
        "has_played": true,
        "id": 3037611,
        "last_rank": 90746,
        "player_name": "Joshua Angsono",
        "rank": 67829,
        "rank_sort": 67893,
        "total": 2341
      },
      {
        "club_badge_src": "https://fantasy.premierleague.com/gcs/plfpl-production-adobe-approved/plfpl-production/453230/c1d1ea08-5f9c-462e-814c-e8bf9bbc699c.png",
        "entry": 453230,
        "entry_name": "Ett vanligt lag",
        "event_total": 68,
        "has_played": true,
        "id": 3040307,
        "last_rank": 93186,
        "player_name": "Elias Lundstr\u00f6m",
        "rank": 67829,
        "rank_sort": 67894,
        "total": 2341
      },
      {
        "club_badge_src": null,
        "entry": 463278,
        "entry_name": "jesus christ",
        "event_total": 57,
        "has_played": true,
        "id": 3107558,
        "last_rank": 68748,
        "player_name": "Jonathan Golding",
        "rank": 67829,
        "rank_sort": 67895,
        "total": 2341
      },
      {
        "club_badge_src": null,
        "entry": 469850,
        "entry_name": "EJ Ultimate FC",
        "event_total": 52,
        "has_played": true,
        "id": 3153860,
        "last_rank": 59632,
        "player_name": "Eden Joffe",
        "rank": 67829,
        "rank_sort": 67896,
        "total": 2341
      },
      {
        "club_badge_src": null,
        "entry": 482469,
        "entry_name": "Ouattara you saying?",
        "event_total": 61,
        "has_played": true,
        "id": 3238839,
        "last_rank": 77050,
        "player_name": "Adam Saunders",
        "rank": 67829,
        "rank_sort": 67897,
        "total": 2341
      },
      {
        "club_badge_src": null,
        "entry": 519054,
        "entry_name": "Alisson wonderland",
        "event_total": 59,
        "has_played": true,
        "id": 3485078,
        "last_rank": 72815,
        "player_name": "Ruben Viken",
        "rank": 67829,
        "rank_sort": 67898,
        "total": 2341
      },
      {
        "club_badge_src": "https://fantasy.premierleague.com/gcs/plfpl-production-adobe-approved/plfpl-production/521069/c2432f37-b8f5-46e3-9d0b-c63ed8a3ad99.png",
        "entry": 521069,
        "entry_name": "Santos Reijnders",
        "event_total": 53,
        "has_played": true,
        "id": 3499281,
        "last_rank": 61606,
        "player_name": "Chris Sentance",
        "rank": 67829,
        "rank_sort": 67899,
        "total": 2341
      },
      {
        "club_badge_src": null,
        "entry": 538637,
        "entry_name": "It's all Maevey",
        "event_total": 44,
        "has_played": true,
        "id": 3625727,
        "last_rank": 46660,
        "player_name": "Richard Hill",
        "rank": 67829,
        "rank_sort": 67900,
        "total": 2341
      }
    ]
  }
}