{
  "last_updated_data": "2026-05-24T23:28:17Z",
  "league": {
    "admin_entry": null,
    "closed": false,
    "code_privacy": "p",
    "created": "2025-07-20T23:14:33.933835Z",
    "cup_league": 2815434,
    "has_cup": true,
    "id": 314,
    "league_type": "s",
    "max_entries": null,
    "name": "Overall",
    "rank": null,
    "scoring": "c",
    "start_event": 1
  },
  "new_entries": {
    "has_next": false,
    "page": 1,
    "results": []
  },
  "standings": {
    "has_next": true,
    "page": 661,
    "results": [
      {
        "club_badge_src": null,
        "entry": 244568,
        "entry_name": "Wirtz Party Ever",
        "event_total": 69,
        "has_played": true,
        "id": 1628313,
        "last_rank": 48197,
        "player_name": "Jackson Engstrom",
        "rank": 32962,
        "rank_sort": 33001,
        "total": 2365
      },
      {
        "club_badge_src": "https://fantasy.premierleague.com/gcs/plfpl-production-adobe-approved/plfpl-production/258450/2db79b8b-1265-49ae-95ce-ddf2612d9e68.png",
        "entry": 258450,
        "entry_name": "Give Me Some Kudus",
        "event_total": 58,
        "has_played": true,
        "id": 1718559,
        "last_rank": 34051,
        "player_name": "Paul Barnett",
        "rank": 32962,
        "rank_sort": 33002,
        "total": 2365
      },
      {
        "club_badge_src": null,
        "entry": 259390,
        "entry_name": "Frederik Zoller",
        "event_total": 50,
        "has_played": true,
        "id": 1724597,
        "last_rank": 25776,
        "player_name": "Logel Fran\u00e7ois",
        "rank": 32962,
        "rank_sort": 33003,
        "total": 2365
      },
      {
        "club_badge_src": null,
        "entry": 266164,
        "entry_name": "ForeverBowenBubbles",
        "event_total": 71,
        "has_played": true,
        "id": 1770497,
        "last_rank": 51220,
        "player_name": "Joseph cleary",
        "rank": 32962,
        "rank_sort": 33004,
        "total": 2365
      },
      {
        "club_badge_src": null,
        "entry": 283412,
        "entry_name": "Bu Abdulla",
        "event_total": 54,
        "has_played": true,
        "id": 1886791,
        "last_rank": 29688,
        "player_name": "Bu ABDULLA",
        "rank": 32962,
        "rank_sort": 33005,
        "total": 2365
      },
      {
        "club_badge_src": null,
        "entry": 293997,
        "entry_name": "Livin' Saliba Loca",
        "event_total": 62,
        "has_played": true,
        "id": 1962767,
        "last_rank": 38774,
        "player_name": "David McNichol",
        "rank": 32962,
        "rank_sort": 33006,
        "total": 2365
      },
      {
        "club_badge_src": null,
        "entry": 305230,
        "entry_name": "Sj\u00f6bergs Superstolta",
        "event_total": 65,
        "has_played": true,
        "id": 2043978,
        "last_rank": 42506,
        "player_name": "Filip Sj\u00f6berg",
        "rank": 32962,
        "rank_sort": 33007,
        "total": 2365
      },
      {
        "club_badge_src": null,
        "entry": 314906,
        "entry_name": "Benda like beckham",
        "event_total": 44,
        "has_played": true,
        "id": 2110293,
        "last_rank": 20853,
        "player_name": "Sean Connolly-Harris",
        "rank": 32962,
        "rank_sort": 33008,
        "total": 2365
      },
      {
        "club_badge_src": null,
        "entry": 358539,
        "entry_name": "Yma o Hyd",
        "event_total": 58,
        "has_played": true,
        "id": 2399318,
        "last_rank": 33936,
        "player_name": "Harry Brown",
        "rank": 32962,
        "rank_sort": 33009,
        "total": 2365
      },
      {
        "club_badge_src": null,
        "entry": 358595,
        "entry_name": "i miss De Bruyne",
        "event_total": 55,
        "has_played": true,
        "id": 2399698,
        "last_rank": 30600,
        "player_name": "Nick La Fontaine",
        "rank": 32962,
        "rank_sort": 33010,
        "total": 2365
      },
      {
        "club_badge_src": null,
        "entry": 362352,
        "entry_name": "Ollie United",
        "event_total": 71,
        "has_played": true,
        "id": 2424520,
        "last_rank": 51220,
        "player_name": "Oliver Carr",
        "rank": 32962,
        "rank_sort": 33011,
        "total": 2365
      },
      {
        "club_badge_src": "https://fantasy.premierleague.com/gcs/plfpl-production-adobe-approved/plfpl-production/368167/5b86c048-2c18-4f9b-90f4-907c3254f4c8.png",
        "entry": 368167,
        "entry_name": "Blaugrana",
        "event_total": 68,
        "has_played": true,
        "id": 2463765,
        "last_rank": 46839,
        "player_name": "Ucf Attar",
        "rank": 32962,
        "rank_sort": 33012,
        "total": 2365
      },
      {
        "club_badge_src": null,
        "entry": 377423,
        "entry_name": "Count_Doku",
        "event_total": 56,
        "has_played": true,
        "id": 2528209,
        "last_rank": 31747,
        "player_name": "Nic Lytwynchuk",
        "rank": 32962,
        "rank_sort": 33013,
        "total": 2365
      },
      {
        "club_badge_src": null,
        "entry": 378918,
        "entry_name": "Gormans Gunners",
        "event_total": 50,
        "has_played": true,
        "id": 2538737,
        "last_rank": 26088,
        "player_name": "james gorman",
        "rank": 32962,
        "rank_sort": 33014,
        "total": 2365
      },
      {
        "club_badge_src": null,
        "entry": 381895,
        "entry_name": "Livin' Lavia Loka",
        "event_total": 67,
        "has_played": true,
        "id": 2560565,
        "last_rank": 45416,
        "player_name": "lewis wing",
        "rank": 32962,
        "rank_sort": 33015,
        "total": 2365
      },
      {
        "club_badge_src": null,
        "entry": 382475,
        "entry_name": "\u011e\u0124\u00d8\u0160\u0323\u0166",
        "event_total": 72,
        "has_played": true,
        "id": 2564577,
        "last_rank": 52853,
        "player_name": "Emeka Okechukwu",
        "rank": 32962,
        "rank_sort": 33016,
        "total": 2365
      },
      {
        "club_badge_src": "https://fantasy.premierleague.com/gcs/plfpl-production-adobe-approved/plfpl-production/389235/c49b9c4d-6b32-4100-bef5-71c5172c29c3.png",
        "entry": 389235,
        "entry_name": "Ayam-Masak-Kurma",
        "event_total": 52,
        "has_played": true,
        "id": 2611009,
        "last_rank": 27976,
        "player_name": "Huzairie Hairuzi",
        "rank": 32962,
        "rank_sort": 33017,
        "total": 2365
      },
      {
        "club_badge_src": null,
        "entry": 389513,
        "entry_name": "doddenham",
        "event_total": 61,
        "has_played": true,
        "id": 2612863,
        "last_rank": 37589,
        "player_name": "Dodo Kori",
        "rank": 32962,
        "rank_sort": 33018,
        "total": 2365
      },
      {
        "club_badge_src": null,
        "entry": 442820,
        "entry_name": "Baby Reijndeer",
        "event_total": 61,
        "has_played": true,
        "id": 2968985,
        "last_rank": 37435,
        "player_name": "Matt Davis",
        "rank": 32962,
        "rank_sort": 33019,
        "total": 2365
      },
      {
        "club_badge_src": null,
        "entry": 448109,
        "entry_name": "Ghost FC",
        "event_total": 58,
        "has_played": true,
        "id": 3006042,
        "last_rank": 33936,
        "player_name": "Robert P",
        "rank": 32962,
        "rank_sort": 33020,
        "total": 2365
      },
      {
        "club_badge_src": null,
        "entry": 450544,
        "entry_name": "saka spuds",
        "event_total": 58,
        "has_played": true,
        "id": 3022771,
        "last_rank": 34051,
        "player_name": "Michael Terry",
        "rank": 32962,
        "rank_sort": 33021,
        "total": 2365
      },
      {
        "club_badge_src": null,
        "entry": 458942,
        "entry_name": "Mamar's slot",
        "event_total": 66,
        "has_played": true,
        "id": 3078856,
        "last_rank": 43849,
        "player_name": "Oliver Holmsgaard \u00d8stenfelt",
        "rank": 32962,
        "rank_sort": 33022,
        "total": 2365
      },
      {
        "club_badge_src": null,
        "entry": 497548,
        "entry_name": "Queen Street Rangers",
        "event_total": 55,
        "has_played": true,
        "id": 3339506,
        "last_rank": 30727,
        "player_name": "James Oliver",
        "rank": 32962,
        "rank_sort": 33023,
        "total": 2365
      },
      {
        "club_badge_src": null,
        "entry": 521386,
        "entry_name": "Saving Private Raya",
        "event_total": 40,
        "has_played": true,
        "id": 3501538,
        "last_rank": 18113,
        "player_name": "Tom Silva",
        "rank": 32962,
        "rank_sort": 33024,
        "total": 2365
      },
      {
        "club_badge_src": null,
        "entry": 527286,
        "entry_name": "Shrimp",
        "event_total": 59,
        "has_played": true,
        "id": 3544675,
        "last_rank": 35034,
        "player_name": "Harry Tinworth",
        "rank": 32962,
        "rank_sort": 33025,
        "total": 2365
      },
      {
        "club_badge_src": "https://fantasy.premierleague.com/gcs/plfpl-production-adobe-approved/plfpl-production/541446/f27451c4-36fd-4172-bcc1-8adcb4c059ae.png",
        "entry": 541446,
        "entry_name": "Rowleys Rockets",
        "event_total": 59,
        "has_played": true,
        "id": 3644180,
        "last_rank": 35166,
        "player_name": "Michael Rowley",
        "rank": 32962,
        "rank_sort": 33026,
        "total": 2365
      },
      {
        "club_badge_src": null,
        "entry": 577655,
        "entry_name": "HaCunhaMateta",
        "event_total": 59,
        "has_played": true,
        "id": 3886970,
        "last_rank": 35166,
        "player_name": "Olle Hedin",
        "rank": 32962,
        "rank_sort": 33027,
        "total": 2365
      },
      {
        "club_badge_src": null,
        "entry": 679887,
        "entry_name": "Ballack Market",
        "event_total": 61,
        "has_played": true,
        "id": 4600749,
        "last_rank": 37589,
        "player_name": "Stephen O'Reilly",
        "rank": 32962,
        "rank_sort": 33028,
        "total": 2365
      },
      {
        "club_badge_src": "https://fantasy.premierleague.com/gcs/plfpl-production-adobe-approved/plfpl-production/681771/ddd06f39-3fb3-4f95-9323-66feec154567.png",
        "entry": 681771,
        "entry_name": "Big Saka Spuds",
        "event_total": 56,
        "has_played": true,
        "id": 4613951,
        "last_rank": 31620,
        "player_name": "Joe Knights",
        "rank": 32962,
        "rank_sort": 33029,
        "total": 2365
      },
      {
        "club_badge_src": null,
        "entry": 724688,
        "entry_name": "Emz",
        "event_total": 46,
        "has_played": true,
        "id": 4922115,
        "last_rank": 22534,
        "player_name": "Emma Elston",
        "rank": 32962,
        "rank_sort": 33030,
        "total": 2365
      },
      {
        "club_badge_src": "https://fantasy.premierleague.com/gcs/plfpl-production-adobe-approved/plfpl-production/801475/eeaca3b4-f952-4a38-b33e-d08837a2113c.png",
        "entry": 801475,
        "entry_name": "Purple Reijn",
        "event_total": 51,
        "has_played": true,
        "id": 5486285,
        "last_rank": 26827,
        "player_name": "Benjamin Lemmens",
        "rank": 32962,
        "rank_sort": 33031,
        "total": 2365
      },
      {
        "club_badge_src": null,
        "entry": 815628,
        "entry_name": "Calafiori Sunshine",
        "event_total": 59,
        "has_played": true,
        "id": 5585350,
        "last_rank": 35166,
        "player_name": "Amar Barik",
        "rank": 32962,
        "rank_sort": 33032,
        "total": 2365
      },
      {
        "club_badge_src": "https://fantasy.premierleague.com/gcs/plfpl-production-adobe-approved/plfpl-production/853712/b21bf42e-9675-42aa-a36d-8a91032ed1c3.png",
        "entry": 853712,
        "entry_name": "That's Shocking",
        "event_total": 64,
        "has_played": true,
        "id": 5851791,
        "last_rank": 41324,
        "player_name": "Harry Bailey",
        "rank": 32962,
        "rank_sort": 33033,
        "total": 2365
      },
      {
        "club_badge_src": null,
        "entry": 963562,
        "entry_name": "FPL Heysy",
        "event_total": 58,
        "has_played": true,
        "id": 6640448,
        "last_rank": 33936,
        "player_name": "Ben Heys",
        "rank": 32962,
        "rank_sort": 33034,
        "total": 2365
      },
      {
        "club_badge_src": "https://fantasy.premierleague.com/gcs/plfpl-production-adobe-approved/plfpl-production/985603/c6408d4a-a884-4553-b2bc-2e799f76fa43.png",
        "entry": 985603,
        "entry_name": "Obi one-Kenobi nill",
        "event_total": 59,
        "has_played": true,
        "id": 6795480,
        "last_rank": 35166,
        "player_name": "Rijad Imamovic",
        "rank": 32962,
        "rank_sort": 33035,
        "total": 2365
      },
      {
        "club_badge_src": null,
        "entry": 1012745,
        "entry_name": "info@cpfc.co.uk",
        "event_total": 61,
        "has_played": true,
        "id": 7005861,
        "last_rank": 37376,
        "player_name": "Jack Lemming",
        "rank": 32962,
        "rank_sort": 33036,
        "total": 2365
      },
      {
        "club_badge_src": null,
        "entry": 1019258,
        "entry_name": "Bramley Moore FC",
        "event_total": 58,
        "has_played": true,
        "id": 7051644,
        "last_rank": 34051,
        "player_name": "Peter Clarke",
        "rank": 32962,
        "rank_sort": 33037,
        "total": 2365
      },
      {
        "club_badge_src": null,
        "entry": 1029734,
        "entry_name": "Obi 1 Kenobi 0",
        "event_total": 61,
        "has_played": true,
        "id": 7124517,
        "last_rank": 37589,
        "player_name": "Jacob Dunkley",
        "rank": 32962,
        "rank_sort": 33038,
        "total": 2365
      },
      {
        "club_badge_src": null,
        "entry": 1138294,
        "entry_name": "AWO YAA",
        "event_total": 56,
        "has_played": true,
        "id": 7890371,
        "last_rank": 31747,
        "player_name": "Steven Duodu",
        "rank": 32962,
        "rank_sort": 33039,
        "total": 2365
      },
      {
        "club_badge_src": null,
        "entry": 1140576,
        "entry_name": "Coeliac FC",
        "event_total": 69,
        "has_played": true,
        "id": 7906256,
        "last_rank": 48119,
        "player_name": "Patrick Walker",
        "rank": 32962,
        "rank_sort": 33040,
        "total": 2365
      },
      {
        "club_badge_src": null,
        "entry": 1153373,
        "entry_name": "Taking The Mikel",
        "event_total": 56,
        "has_played": true,
        "id": 7997629,
        "last_rank": 31747,
        "player_name": "Matt Morgan",
        "rank": 32962,
        "rank_sort": 33041,
        "total": 2365
      },
      {
        "club_badge_src": null,
        "entry": 1249963,
        "entry_name": "Saka Tatties",
        "event_total": 48,
        "has_played": true,
        "id": 8681199,
        "last_rank": 24143,
        "player_name": "Zoe Gulson",
        "rank": 32962,
        "rank_sort": 33042,
        "total": 2365
      },
      {
        "club_badge_src": null,
        "entry": 1251156,
        "entry_name": "Gooners",
        "event_total": 67,
        "has_played": true,
        "id": 8689740,
        "last_rank": 45252,
        "player_name": "Luka Perovic",
        "rank": 32962,
        "rank_sort": 33043,
        "total": 2365
      },
      {
        "club_badge_src": null,
        "entry": 1266225,
        "entry_name": "Livin Saliba Loca",
        "event_total": 52,
        "has_played": true,
        "id": 8797937,
        "last_rank": 27976,
        "player_name": "Louie Anderson",
        "rank": 32962,
        "rank_sort": 33044,
        "total": 2365
      },
      {
        "club_badge_src": null,
        "entry": 1279153,
        "entry_name": "\u03a7\u03c1\u03ad\u03b7 \u03c3\u03c4\u03bf \u0399\u039a\u0391 3,5\u03c7\u03c1.",
        "event_total": 74,
        "has_played": true,
        "id": 8888585,
        "last_rank": 56369,
        "player_name": "\u039b\u03b9\u03bb\u03af\u03ba\u03b1 \u039a\u03b1\u03bb\u03bb\u03af\u03c4\u03c3\u03b7",
        "rank": 32962,
        "rank_sort": 33045,
        "total": 2365
      },
      {
        "club_badge_src": "https://fantasy.premierleague.com/gcs/plfpl-production-adobe-approved/plfpl-production/1286503/38816bdd-d887-4853-8e98-783d3e7837e1.png",
        "entry": 1286503,
        "entry_name": "A POR LA 16",
        "event_total": 57,
        "has_played": true,
        "id": 8939578,
        "last_rank": 32661,
        "player_name": "Emils Sagateljans",
        "rank": 32962,
        "rank_sort": 33046,
        "total": 2365
      },
      {
        "club_badge_src": null,
        "entry": 1297843,
        "entry_name": "bianconeri",
        "event_total": 41,
        "has_played": true,
        "id": 9020060,
        "last_rank": 18790,
        "player_name": "Mladen \u0160ukalo",
        "rank": 32962,
        "rank_sort": 33047,
        "total": 2365
      },
      {
        "club_badge_src": null,
        "entry": 1302256,
        "entry_name": "-Mista Sinista-",
        "event_total": 64,
        "has_played": true,
        "id": 9050740,
        "last_rank": 41324,
        "player_name": "Anton Bartko",
        "rank": 32962,
        "rank_sort": 33048,
        "total": 2365
      },
      {
        "club_badge_src": "https://fantasy.premierleague.com/gcs/plfpl-production-adobe-approved/plfpl-production/1369485/5bacaf88-df65-41d9-bfe5-dc9a9626a5f5.png",
        "entry": 1369485,
        "entry_name": "Messians FC",
        "event_total": 68,
        "has_played": true,
        "id": 9519713,
        "last_rank": 46591,
        "player_name": "TJ KYD",
        "rank": 32962,
        "rank_sort": 33049,
        "total": 2365
      },
      {
        "club_badge_src": null,
        "entry": 1397898,
        "entry_name": "Ree",
        "event_total": 43,
        "has_played": true,
        "id": 9725397,
        "last_rank": 20280,
        "player_name": "Ree 3",
        "rank": 32962,
        "rank_sort": 33050,
        "total": 2365
      }
    ]
  }
}