{
  "last_updated_data": "2026-05-24T23:28:17Z",
  "league": {
    "admin_entry": null,
    "closed": false,
    "code_privacy": "p",
    "created": "2025-07-20T23:14:33.933835Z",
    "cup_league": 2815434,
    "has_cup": true,
    "id": 314,
    "league_type": "s",
    "max_entries": null,
    "name": "Overall",
    "rank": null,
    "scoring": "c",
    "start_event": 1
  },
  "new_entries": {
    "has_next": false,
    "page": 1,
    "results": []
  },
  "standings": {
    "has_next": true,
    "page": 757,
    "results": [
      {
        "club_badge_src": null,
        "entry": 2761311,
        "entry_name": "xoxo",
        "event_total": 60,
        "has_played": true,
        "id": 20144659,
        "last_rank": 41617,
        "player_name": "Amr Mohamed",
        "rank": 37683,
        "rank_sort": 37801,
        "total": 2361
      },
      {
        "club_badge_src": null,
        "entry": 2793790,
        "entry_name": "Real Madridlesbrough",
        "event_total": 61,
        "has_played": true,
        "id": 20398897,
        "last_rank": 42940,
        "player_name": "Josh Rutherford",
        "rank": 37683,
        "rank_sort": 37802,
        "total": 2361
      },
      {
        "club_badge_src": null,
        "entry": 2816602,
        "entry_name": "Nothing else Madders",
        "event_total": 51,
        "has_played": true,
        "id": 20573072,
        "last_rank": 31125,
        "player_name": "Ryan Head",
        "rank": 37683,
        "rank_sort": 37803,
        "total": 2361
      },
      {
        "club_badge_src": null,
        "entry": 2827084,
        "entry_name": "Domo team",
        "event_total": 57,
        "has_played": true,
        "id": 20655926,
        "last_rank": 37822,
        "player_name": "Dominik Novos\u00e1d",
        "rank": 37683,
        "rank_sort": 37804,
        "total": 2361
      },
      {
        "club_badge_src": null,
        "entry": 2843247,
        "entry_name": "LARD",
        "event_total": 55,
        "has_played": true,
        "id": 20781772,
        "last_rank": 35166,
        "player_name": "Matt Rockingham",
        "rank": 37683,
        "rank_sort": 37805,
        "total": 2361
      },
      {
        "club_badge_src": null,
        "entry": 2950018,
        "entry_name": "Monner\u2019S",
        "event_total": 57,
        "has_played": true,
        "id": 21665423,
        "last_rank": 37822,
        "player_name": "Ahmed Monner",
        "rank": 37683,
        "rank_sort": 37806,
        "total": 2361
      },
      {
        "club_badge_src": null,
        "entry": 2969835,
        "entry_name": "l\u00e0 cronic\u00e0",
        "event_total": 59,
        "has_played": true,
        "id": 21820128,
        "last_rank": 40297,
        "player_name": "Nyasha Mabweazara",
        "rank": 37683,
        "rank_sort": 37807,
        "total": 2361
      },
      {
        "club_badge_src": null,
        "entry": 2982837,
        "entry_name": "Palmeeeeeer again",
        "event_total": 47,
        "has_played": true,
        "id": 21931674,
        "last_rank": 27020,
        "player_name": "Sameer Farishta",
        "rank": 37683,
        "rank_sort": 37808,
        "total": 2361
      },
      {
        "club_badge_src": null,
        "entry": 3000792,
        "entry_name": "Breiflabb",
        "event_total": 54,
        "has_played": true,
        "id": 22072069,
        "last_rank": 34293,
        "player_name": "Sindre Borge Ranheim",
        "rank": 37683,
        "rank_sort": 37809,
        "total": 2361
      },
      {
        "club_badge_src": "https://fantasy.premierleague.com/gcs/plfpl-production-adobe-approved/plfpl-production/3069564/df03c72c-bd0d-4d69-99ba-89154ae180b8.png",
        "entry": 3069564,
        "entry_name": "We R the Teeky Boyz",
        "event_total": 55,
        "has_played": true,
        "id": 22602254,
        "last_rank": 35424,
        "player_name": "Tom Kniveton",
        "rank": 37683,
        "rank_sort": 37810,
        "total": 2361
      },
      {
        "club_badge_src": null,
        "entry": 3075774,
        "entry_name": "kallousa",
        "event_total": 37,
        "has_played": true,
        "id": 22657371,
        "last_rank": 18985,
        "player_name": "Ahmed Kallousa",
        "rank": 37683,
        "rank_sort": 37811,
        "total": 2361
      },
      {
        "club_badge_src": null,
        "entry": 3151892,
        "entry_name": "MCFC CXV",
        "event_total": 72,
        "has_played": true,
        "id": 23277129,
        "last_rank": 60168,
        "player_name": "Sam Lingard",
        "rank": 37683,
        "rank_sort": 37812,
        "total": 2361
      },
      {
        "club_badge_src": null,
        "entry": 3188529,
        "entry_name": "Triple H",
        "event_total": 79,
        "has_played": true,
        "id": 23563922,
        "last_rank": 72815,
        "player_name": "Howard Holland",
        "rank": 37683,
        "rank_sort": 37813,
        "total": 2361
      },
      {
        "club_badge_src": null,
        "entry": 3217460,
        "entry_name": "I Hate FPL",
        "event_total": 51,
        "has_played": true,
        "id": 23790092,
        "last_rank": 31125,
        "player_name": "James Farrell",
        "rank": 37683,
        "rank_sort": 37814,
        "total": 2361
      },
      {
        "club_badge_src": null,
        "entry": 3331879,
        "entry_name": "adham",
        "event_total": 41,
        "has_played": true,
        "id": 24704326,
        "last_rank": 21949,
        "player_name": "Adham Tamer",
        "rank": 37683,
        "rank_sort": 37815,
        "total": 2361
      },
      {
        "club_badge_src": null,
        "entry": 3346061,
        "entry_name": "Long Live King Kone",
        "event_total": 55,
        "has_played": true,
        "id": 24820733,
        "last_rank": 30727,
        "player_name": "Ed Fitzgerald",
        "rank": 37683,
        "rank_sort": 37816,
        "total": 2361
      },
      {
        "club_badge_src": null,
        "entry": 3396028,
        "entry_name": "Van de Ven Diagram",
        "event_total": 39,
        "has_played": true,
        "id": 25213440,
        "last_rank": 20416,
        "player_name": "Mahtab Khan",
        "rank": 37683,
        "rank_sort": 37817,
        "total": 2361
      },
      {
        "club_badge_src": null,
        "entry": 3398591,
        "entry_name": "StraightOuttaCobham",
        "event_total": 62,
        "has_played": true,
        "id": 25233780,
        "last_rank": 44525,
        "player_name": "Connor Holden",
        "rank": 37683,
        "rank_sort": 37818,
        "total": 2361
      },
      {
        "club_badge_src": null,
        "entry": 3402028,
        "entry_name": "Lil Uzi Wirtz",
        "event_total": 70,
        "has_played": true,
        "id": 25260168,
        "last_rank": 56708,
        "player_name": "Isaac Hayden",
        "rank": 37683,
        "rank_sort": 37819,
        "total": 2361
      },
      {
        "club_badge_src": null,
        "entry": 3436811,
        "entry_name": "Glencoe",
        "event_total": 59,
        "has_played": true,
        "id": 25531902,
        "last_rank": 40036,
        "player_name": "John Comeau",
        "rank": 37683,
        "rank_sort": 37820,
        "total": 2361
      },
      {
        "club_badge_src": null,
        "entry": 3442327,
        "entry_name": "Ranger FC",
        "event_total": 68,
        "has_played": true,
        "id": 25574873,
        "last_rank": 53345,
        "player_name": "Aishwarya Gurung",
        "rank": 37683,
        "rank_sort": 37821,
        "total": 2361
      },
      {
        "club_badge_src": "https://fantasy.premierleague.com/gcs/plfpl-production-adobe-approved/plfpl-production/3544139/ac83d466-aa05-47fa-a92b-af82f136eb93.png",
        "entry": 3544139,
        "entry_name": "Wild Panenka",
        "event_total": 58,
        "has_played": true,
        "id": 26382472,
        "last_rank": 34051,
        "player_name": "Rob Heppenstall",
        "rank": 37683,
        "rank_sort": 37822,
        "total": 2361
      },
      {
        "club_badge_src": null,
        "entry": 3567100,
        "entry_name": "Bowen 747",
        "event_total": 61,
        "has_played": true,
        "id": 26560521,
        "last_rank": 42506,
        "player_name": "john simpson",
        "rank": 37683,
        "rank_sort": 37823,
        "total": 2361
      },
      {
        "club_badge_src": null,
        "entry": 3594326,
        "entry_name": "Thelin Machine",
        "event_total": 69,
        "has_played": true,
        "id": 26769313,
        "last_rank": 54667,
        "player_name": "Adam Bremner",
        "rank": 37683,
        "rank_sort": 37824,
        "total": 2361
      },
      {
        "club_badge_src": null,
        "entry": 3662700,
        "entry_name": "Mioddusbrough F.C.",
        "event_total": 53,
        "has_played": true,
        "id": 27314036,
        "last_rank": 33147,
        "player_name": "Micha\u0142 Mioduchowski",
        "rank": 37683,
        "rank_sort": 37825,
        "total": 2361
      },
      {
        "club_badge_src": null,
        "entry": 3789712,
        "entry_name": "Dun\u00f6 United",
        "event_total": 64,
        "has_played": true,
        "id": 28314823,
        "last_rank": 47163,
        "player_name": "Jesper Wallin",
        "rank": 37683,
        "rank_sort": 37826,
        "total": 2361
      },
      {
        "club_badge_src": "https://fantasy.premierleague.com/gcs/plfpl-production-adobe-approved/plfpl-production/3826201/b8e9bafb-7b50-4c9e-a4d3-05a1d64af162.png",
        "entry": 3826201,
        "entry_name": "RayaDeepMountainKai",
        "event_total": 61,
        "has_played": true,
        "id": 28619901,
        "last_rank": 42940,
        "player_name": "Richard Jordan",
        "rank": 37683,
        "rank_sort": 37827,
        "total": 2361
      },
      {
        "club_badge_src": null,
        "entry": 3846522,
        "entry_name": "Horner's Henchmen",
        "event_total": 67,
        "has_played": true,
        "id": 28831302,
        "last_rank": 51220,
        "player_name": "Stephen Smyth",
        "rank": 37683,
        "rank_sort": 37828,
        "total": 2361
      },
      {
        "club_badge_src": null,
        "entry": 3972412,
        "entry_name": "JWS ACADEMY",
        "event_total": 74,
        "has_played": true,
        "id": 29895220,
        "last_rank": 63390,
        "player_name": "Filip Oanes",
        "rank": 37683,
        "rank_sort": 37829,
        "total": 2361
      },
      {
        "club_badge_src": null,
        "entry": 4100217,
        "entry_name": "VC XII",
        "event_total": 79,
        "has_played": true,
        "id": 30961272,
        "last_rank": 73720,
        "player_name": "Bhulesh Kachra",
        "rank": 37683,
        "rank_sort": 37830,
        "total": 2361
      },
      {
        "club_badge_src": null,
        "entry": 4144726,
        "entry_name": "Elite FC",
        "event_total": 57,
        "has_played": true,
        "id": 31326021,
        "last_rank": 37822,
        "player_name": "Mahsa Yari",
        "rank": 37683,
        "rank_sort": 37831,
        "total": 2361
      },
      {
        "club_badge_src": "https://fantasy.premierleague.com/gcs/plfpl-production-adobe-approved/plfpl-production/4165386/22c5be1b-9778-41b9-abaf-cc0be319ff5c.png",
        "entry": 4165386,
        "entry_name": "Scorpion",
        "event_total": 66,
        "has_played": true,
        "id": 31498790,
        "last_rank": 50199,
        "player_name": "Abdullah Abu-Seido",
        "rank": 37683,
        "rank_sort": 37832,
        "total": 2361
      },
      {
        "club_badge_src": null,
        "entry": 4183679,
        "entry_name": "RB's Army",
        "event_total": 62,
        "has_played": true,
        "id": 31653464,
        "last_rank": 44303,
        "player_name": "Richard Brown",
        "rank": 37683,
        "rank_sort": 37833,
        "total": 2361
      },
      {
        "club_badge_src": null,
        "entry": 4226438,
        "entry_name": "Jimbo's Magicians",
        "event_total": 105,
        "has_played": true,
        "id": 32020332,
        "last_rank": 142754,
        "player_name": "James Northcott",
        "rank": 37683,
        "rank_sort": 37834,
        "total": 2361
      },
      {
        "club_badge_src": null,
        "entry": 4250908,
        "entry_name": "KRFC",
        "event_total": 71,
        "has_played": true,
        "id": 32223935,
        "last_rank": 58071,
        "player_name": "Keith Reynolds",
        "rank": 37683,
        "rank_sort": 37835,
        "total": 2361
      },
      {
        "club_badge_src": null,
        "entry": 4309451,
        "entry_name": "Mother Love Bone",
        "event_total": 61,
        "has_played": true,
        "id": 32698219,
        "last_rank": 37589,
        "player_name": "Motte G\u00e9rard",
        "rank": 37683,
        "rank_sort": 37836,
        "total": 2361
      },
      {
        "club_badge_src": "https://fantasy.premierleague.com/gcs/plfpl-production-adobe-approved/plfpl-production/4377303/228254b9-b13d-4c30-abbf-c553f482a49e.png",
        "entry": 4377303,
        "entry_name": "Golden Joysticks",
        "event_total": 66,
        "has_played": true,
        "id": 33261531,
        "last_rank": 49880,
        "player_name": "Christian Dinh",
        "rank": 37683,
        "rank_sort": 37837,
        "total": 2361
      },
      {
        "club_badge_src": null,
        "entry": 4523002,
        "entry_name": "RyBother FC",
        "event_total": 55,
        "has_played": true,
        "id": 34495359,
        "last_rank": 35424,
        "player_name": "Ryan Gittings",
        "rank": 37683,
        "rank_sort": 37838,
        "total": 2361
      },
      {
        "club_badge_src": null,
        "entry": 4536628,
        "entry_name": "FPL BAGS",
        "event_total": 63,
        "has_played": true,
        "id": 34607937,
        "last_rank": 40036,
        "player_name": "Josh Abrahams",
        "rank": 37683,
        "rank_sort": 37839,
        "total": 2361
      },
      {
        "club_badge_src": null,
        "entry": 4555219,
        "entry_name": "oh",
        "event_total": 68,
        "has_played": true,
        "id": 34757851,
        "last_rank": 53023,
        "player_name": "Oriana Wright",
        "rank": 37683,
        "rank_sort": 37840,
        "total": 2361
      },
      {
        "club_badge_src": null,
        "entry": 4586801,
        "entry_name": "Bisse.fi",
        "event_total": 65,
        "has_played": true,
        "id": 35021580,
        "last_rank": 48642,
        "player_name": "Anton Kantalinski",
        "rank": 37683,
        "rank_sort": 37841,
        "total": 2361
      },
      {
        "club_badge_src": null,
        "entry": 4606233,
        "entry_name": "Vi Jobbar V\u00e4nsterfil",
        "event_total": 42,
        "has_played": true,
        "id": 35192812,
        "last_rank": 22685,
        "player_name": "Jacob Svensson",
        "rank": 37683,
        "rank_sort": 37842,
        "total": 2361
      },
      {
        "club_badge_src": null,
        "entry": 4619255,
        "entry_name": "Gunners",
        "event_total": 61,
        "has_played": true,
        "id": 35306779,
        "last_rank": 42648,
        "player_name": "Muhammad Yusuf Adam",
        "rank": 37683,
        "rank_sort": 37843,
        "total": 2361
      },
      {
        "club_badge_src": null,
        "entry": 4776118,
        "entry_name": "The Wizards",
        "event_total": 62,
        "has_played": true,
        "id": 36765084,
        "last_rank": 44048,
        "player_name": "Tom Brady",
        "rank": 37683,
        "rank_sort": 37844,
        "total": 2361
      },
      {
        "club_badge_src": "https://fantasy.premierleague.com/gcs/plfpl-production-adobe-approved/plfpl-production/5005313/0e738ae5-78fc-42aa-a1be-1bd036bec6d2.png",
        "entry": 5005313,
        "entry_name": "Mehdouna",
        "event_total": 66,
        "has_played": true,
        "id": 38650005,
        "last_rank": 50199,
        "player_name": "Mehdi Tunechi",
        "rank": 37683,
        "rank_sort": 37845,
        "total": 2361
      },
      {
        "club_badge_src": null,
        "entry": 5023186,
        "entry_name": "Roro in the mixx",
        "event_total": 59,
        "has_played": true,
        "id": 38794212,
        "last_rank": 40036,
        "player_name": "Roro De Maniax",
        "rank": 37683,
        "rank_sort": 37846,
        "total": 2361
      },
      {
        "club_badge_src": null,
        "entry": 5033303,
        "entry_name": "Car Park Strollers",
        "event_total": 58,
        "has_played": true,
        "id": 38876075,
        "last_rank": 34051,
        "player_name": "Tim Simpson",
        "rank": 37683,
        "rank_sort": 37847,
        "total": 2361
      },
      {
        "club_badge_src": null,
        "entry": 5067565,
        "entry_name": "onwards fc",
        "event_total": 58,
        "has_played": true,
        "id": 39160951,
        "last_rank": 38774,
        "player_name": "kalvin scrivner",
        "rank": 37683,
        "rank_sort": 37848,
        "total": 2361
      },
      {
        "club_badge_src": null,
        "entry": 5113824,
        "entry_name": "\u6211\u52a0\u9ac0\u723e\u964d\u81e8",
        "event_total": 68,
        "has_played": true,
        "id": 39535211,
        "last_rank": 53621,
        "player_name": "Wilson Leung",
        "rank": 37683,
        "rank_sort": 37849,
        "total": 2361
      },
      {
        "club_badge_src": null,
        "entry": 5140947,
        "entry_name": "Artois Athletic",
        "event_total": 71,
        "has_played": true,
        "id": 39768469,
        "last_rank": 58071,
        "player_name": "Johnny Rayner",
        "rank": 37683,
        "rank_sort": 37850,
        "total": 2361
      }
    ]
  }
}