{
  "last_updated_data": "2026-05-24T23:28:17Z",
  "league": {
    "admin_entry": null,
    "closed": false,
    "code_privacy": "p",
    "created": "2025-07-20T23:14:33.933835Z",
    "cup_league": 2815434,
    "has_cup": true,
    "id": 314,
    "league_type": "s",
    "max_entries": null,
    "name": "Overall",
    "rank": null,
    "scoring": "c",
    "start_event": 1
  },
  "new_entries": {
    "has_next": false,
    "page": 1,
    "results": []
  },
  "standings": {
    "has_next": true,
    "page": 913,
    "results": [
      {
        "club_badge_src": null,
        "entry": 14561,
        "entry_name": "Darth  P\u00e5l",
        "event_total": 60,
        "has_played": true,
        "id": 88489,
        "last_rank": 50468,
        "player_name": "P\u00e5l Egil Runde",
        "rank": 45597,
        "rank_sort": 45601,
        "total": 2355
      },
      {
        "club_badge_src": "https://fantasy.premierleague.com/gcs/plfpl-production-adobe-approved/plfpl-production/21864/0a57a7f1-b377-4127-9dc1-274ebb05ab88.png",
        "entry": 21864,
        "entry_name": "Kolakowskis Disipler",
        "event_total": 62,
        "has_played": true,
        "id": 137171,
        "last_rank": 53345,
        "player_name": "Alexander Kolakowski",
        "rank": 45597,
        "rank_sort": 45602,
        "total": 2355
      },
      {
        "club_badge_src": null,
        "entry": 25099,
        "entry_name": "Arsham FC",
        "event_total": 63,
        "has_played": true,
        "id": 158703,
        "last_rank": 48363,
        "player_name": "Arsham Abedini",
        "rank": 45597,
        "rank_sort": 45603,
        "total": 2355
      },
      {
        "club_badge_src": null,
        "entry": 26029,
        "entry_name": "GoodFellas",
        "event_total": 51,
        "has_played": true,
        "id": 164588,
        "last_rank": 28726,
        "player_name": "Peter Lajtai",
        "rank": 45597,
        "rank_sort": 45604,
        "total": 2355
      },
      {
        "club_badge_src": null,
        "entry": 26566,
        "entry_name": "Atlas Wildcats",
        "event_total": 51,
        "has_played": true,
        "id": 167962,
        "last_rank": 33147,
        "player_name": "Stuart Timson",
        "rank": 45597,
        "rank_sort": 45605,
        "total": 2355
      },
      {
        "club_badge_src": "https://fantasy.premierleague.com/gcs/plfpl-production-adobe-approved/plfpl-production/29269/2c459f26-b256-4a8a-a813-d3adb7067916.png",
        "entry": 29269,
        "entry_name": "Shelby FC",
        "event_total": 58,
        "has_played": true,
        "id": 185049,
        "last_rank": 41324,
        "player_name": "Matthew Spencer",
        "rank": 45597,
        "rank_sort": 45606,
        "total": 2355
      },
      {
        "club_badge_src": null,
        "entry": 29835,
        "entry_name": "Kinder Mbeumo",
        "event_total": 68,
        "has_played": true,
        "id": 188743,
        "last_rank": 56708,
        "player_name": "Kamal Hemadeh",
        "rank": 45597,
        "rank_sort": 45607,
        "total": 2355
      },
      {
        "club_badge_src": "https://fantasy.premierleague.com/gcs/plfpl-production-adobe-approved/plfpl-production/38491/a6305b6b-eb0a-464b-9728-01791d9c3b5b.png",
        "entry": 38491,
        "entry_name": "PT69 (Ikak555)",
        "event_total": 72,
        "has_played": true,
        "id": 246698,
        "last_rank": 71713,
        "player_name": "Kriangsak Koampai",
        "rank": 45597,
        "rank_sort": 45608,
        "total": 2355
      },
      {
        "club_badge_src": null,
        "entry": 50347,
        "entry_name": "momo the dodo",
        "event_total": 53,
        "has_played": true,
        "id": 323838,
        "last_rank": 40647,
        "player_name": "Mo Subratty",
        "rank": 45597,
        "rank_sort": 45609,
        "total": 2355
      },
      {
        "club_badge_src": "https://fantasy.premierleague.com/gcs/plfpl-production-adobe-approved/plfpl-production/56810/e2e210d2-696d-4aae-b75b-e4caa8866293.png",
        "entry": 56810,
        "entry_name": "Ctrl Alt De Laet",
        "event_total": 66,
        "has_played": true,
        "id": 365959,
        "last_rank": 60168,
        "player_name": "Chris East",
        "rank": 45597,
        "rank_sort": 45610,
        "total": 2355
      },
      {
        "club_badge_src": null,
        "entry": 58461,
        "entry_name": "Still Konsapated",
        "event_total": 60,
        "has_played": true,
        "id": 376551,
        "last_rank": 44303,
        "player_name": "Alexandra Waller",
        "rank": 45597,
        "rank_sort": 45611,
        "total": 2355
      },
      {
        "club_badge_src": null,
        "entry": 64259,
        "entry_name": "Iloveyoujota",
        "event_total": 62,
        "has_played": true,
        "id": 414744,
        "last_rank": 53621,
        "player_name": "weijen- chong",
        "rank": 45597,
        "rank_sort": 45612,
        "total": 2355
      },
      {
        "club_badge_src": null,
        "entry": 72362,
        "entry_name": "RawR FC",
        "event_total": 52,
        "has_played": true,
        "id": 470207,
        "last_rank": 39246,
        "player_name": "Kris Marbun",
        "rank": 45597,
        "rank_sort": 45613,
        "total": 2355
      },
      {
        "club_badge_src": null,
        "entry": 77778,
        "entry_name": "FC United",
        "event_total": 65,
        "has_played": true,
        "id": 505573,
        "last_rank": 45416,
        "player_name": "J\u00f8rgen Fiplingdal",
        "rank": 45597,
        "rank_sort": 45614,
        "total": 2355
      },
      {
        "club_badge_src": null,
        "entry": 84576,
        "entry_name": "CHAMP20NS",
        "event_total": 68,
        "has_played": true,
        "id": 550688,
        "last_rank": 64005,
        "player_name": "George Farrington",
        "rank": 45597,
        "rank_sort": 45615,
        "total": 2355
      },
      {
        "club_badge_src": null,
        "entry": 84928,
        "entry_name": "The Upsetters",
        "event_total": 54,
        "has_played": true,
        "id": 553009,
        "last_rank": 41824,
        "player_name": "James Leather",
        "rank": 45597,
        "rank_sort": 45616,
        "total": 2355
      },
      {
        "club_badge_src": null,
        "entry": 90528,
        "entry_name": "Na My Year Be This",
        "event_total": 59,
        "has_played": true,
        "id": 591036,
        "last_rank": 42940,
        "player_name": "Mr Peters",
        "rank": 45597,
        "rank_sort": 45617,
        "total": 2355
      },
      {
        "club_badge_src": null,
        "entry": 96867,
        "entry_name": "Wirtz Behaviour",
        "event_total": 80,
        "has_played": true,
        "id": 632746,
        "last_rank": 79817,
        "player_name": "Rehan Kukar",
        "rank": 45597,
        "rank_sort": 45618,
        "total": 2355
      },
      {
        "club_badge_src": null,
        "entry": 100789,
        "entry_name": "Selektorski 15",
        "event_total": 64,
        "has_played": true,
        "id": 657729,
        "last_rank": 56099,
        "player_name": "Aleks Miljanic",
        "rank": 45597,
        "rank_sort": 45619,
        "total": 2355
      },
      {
        "club_badge_src": null,
        "entry": 108460,
        "entry_name": "Saka INNU Beka",
        "event_total": 61,
        "has_played": true,
        "id": 707125,
        "last_rank": 51984,
        "player_name": "Kamal Joshua",
        "rank": 45597,
        "rank_sort": 45620,
        "total": 2355
      },
      {
        "club_badge_src": null,
        "entry": 115244,
        "entry_name": "Cold Palmer FC",
        "event_total": 59,
        "has_played": true,
        "id": 752075,
        "last_rank": 48642,
        "player_name": "Zayn Inaz",
        "rank": 45597,
        "rank_sort": 45621,
        "total": 2355
      },
      {
        "club_badge_src": null,
        "entry": 117957,
        "entry_name": "BALOK FC",
        "event_total": 51,
        "has_played": true,
        "id": 769850,
        "last_rank": 38016,
        "player_name": "HANIF FAUZI",
        "rank": 45597,
        "rank_sort": 45622,
        "total": 2355
      },
      {
        "club_badge_src": "https://fantasy.premierleague.com/gcs/plfpl-production-adobe-approved/plfpl-production/120136/3b5e0f88-0e14-4f7b-be83-a50946ed8c97.png",
        "entry": 120136,
        "entry_name": "Me, Myself, Ndiaye",
        "event_total": 48,
        "has_played": true,
        "id": 783828,
        "last_rank": 29904,
        "player_name": "Noah Fernandez",
        "rank": 45597,
        "rank_sort": 45623,
        "total": 2355
      },
      {
        "club_badge_src": null,
        "entry": 125456,
        "entry_name": "Delapsolute Peach",
        "event_total": 62,
        "has_played": true,
        "id": 818185,
        "last_rank": 41324,
        "player_name": "Jayden Lusher-Hunt",
        "rank": 45597,
        "rank_sort": 45624,
        "total": 2355
      },
      {
        "club_badge_src": null,
        "entry": 138361,
        "entry_name": "Tuga Power",
        "event_total": 59,
        "has_played": true,
        "id": 902538,
        "last_rank": 42648,
        "player_name": "Ant\u00f3nio Cachada",
        "rank": 45597,
        "rank_sort": 45625,
        "total": 2355
      },
      {
        "club_badge_src": null,
        "entry": 140820,
        "entry_name": "FCsofagris",
        "event_total": 68,
        "has_played": true,
        "id": 919749,
        "last_rank": 49880,
        "player_name": "Cecilie Liane",
        "rank": 45597,
        "rank_sort": 45626,
        "total": 2355
      },
      {
        "club_badge_src": null,
        "entry": 142364,
        "entry_name": "Lawton's XI",
        "event_total": 66,
        "has_played": true,
        "id": 930725,
        "last_rank": 60462,
        "player_name": "Scott Lawton",
        "rank": 45597,
        "rank_sort": 45627,
        "total": 2355
      },
      {
        "club_badge_src": null,
        "entry": 145738,
        "entry_name": "Milk and two Sugawar",
        "event_total": 47,
        "has_played": true,
        "id": 954548,
        "last_rank": 33483,
        "player_name": "Morgan Spinney",
        "rank": 45597,
        "rank_sort": 45628,
        "total": 2355
      },
      {
        "club_badge_src": null,
        "entry": 154605,
        "entry_name": "Romanu Schmid",
        "event_total": 61,
        "has_played": true,
        "id": 1015709,
        "last_rank": 51984,
        "player_name": "Manuel Haag",
        "rank": 45597,
        "rank_sort": 45629,
        "total": 2355
      },
      {
        "club_badge_src": "https://fantasy.premierleague.com/gcs/plfpl-production-adobe-approved/plfpl-production/159378/612c0d74-ecba-4b0d-8785-66100820ac7c.png",
        "entry": 159378,
        "entry_name": "ColoFC",
        "event_total": 54,
        "has_played": true,
        "id": 1049019,
        "last_rank": 36624,
        "player_name": "mohamed abdalla",
        "rank": 45597,
        "rank_sort": 45630,
        "total": 2355
      },
      {
        "club_badge_src": null,
        "entry": 169677,
        "entry_name": "Rubens on Amadness",
        "event_total": 49,
        "has_played": true,
        "id": 1121239,
        "last_rank": 35619,
        "player_name": "Ahlaur Miah",
        "rank": 45597,
        "rank_sort": 45631,
        "total": 2355
      },
      {
        "club_badge_src": "https://fantasy.premierleague.com/gcs/plfpl-production-adobe-approved/plfpl-production/205857/56d15252-45d6-4e43-a7cc-d7b989fb5855.png",
        "entry": 205857,
        "entry_name": "Pink Pony FC",
        "event_total": 55,
        "has_played": true,
        "id": 1368351,
        "last_rank": 43168,
        "player_name": "Keir Nichols",
        "rank": 45597,
        "rank_sort": 45632,
        "total": 2355
      },
      {
        "club_badge_src": null,
        "entry": 211115,
        "entry_name": "Holy Boehly",
        "event_total": 63,
        "has_played": true,
        "id": 1404150,
        "last_rank": 48642,
        "player_name": "H\u00e5vard \u00d8wre",
        "rank": 45597,
        "rank_sort": 45633,
        "total": 2355
      },
      {
        "club_badge_src": null,
        "entry": 221113,
        "entry_name": "Chido Obi-Wan Kenobi",
        "event_total": 64,
        "has_played": true,
        "id": 1470616,
        "last_rank": 56708,
        "player_name": "Hayden Zhao",
        "rank": 45597,
        "rank_sort": 45634,
        "total": 2355
      },
      {
        "club_badge_src": null,
        "entry": 232848,
        "entry_name": "Rosewell Cartel",
        "event_total": 55,
        "has_played": true,
        "id": 1549265,
        "last_rank": 37589,
        "player_name": "Ged Flanagan",
        "rank": 45597,
        "rank_sort": 45635,
        "total": 2355
      },
      {
        "club_badge_src": "https://fantasy.premierleague.com/gcs/plfpl-production-adobe-approved/plfpl-production/247936/ba80a6fd-a086-41e4-9580-40fd141a47ff.png",
        "entry": 247936,
        "entry_name": "Living iliman Loca",
        "event_total": 58,
        "has_played": true,
        "id": 1650272,
        "last_rank": 47163,
        "player_name": "Ollie Leonard",
        "rank": 45597,
        "rank_sort": 45636,
        "total": 2355
      },
      {
        "club_badge_src": null,
        "entry": 248829,
        "entry_name": "Gdawgs gremlims",
        "event_total": 51,
        "has_played": true,
        "id": 1656011,
        "last_rank": 38016,
        "player_name": "Graeme Stoner",
        "rank": 45597,
        "rank_sort": 45637,
        "total": 2355
      },
      {
        "club_badge_src": null,
        "entry": 258089,
        "entry_name": "Change Name",
        "event_total": 44,
        "has_played": true,
        "id": 1716204,
        "last_rank": 30191,
        "player_name": "Ankit Sehgal",
        "rank": 45597,
        "rank_sort": 45638,
        "total": 2355
      },
      {
        "club_badge_src": null,
        "entry": 275877,
        "entry_name": "Cold Palmer FC",
        "event_total": 59,
        "has_played": true,
        "id": 1836121,
        "last_rank": 37589,
        "player_name": "Mohammad Ali Ani",
        "rank": 45597,
        "rank_sort": 45639,
        "total": 2355
      },
      {
        "club_badge_src": null,
        "entry": 296502,
        "entry_name": "Noni your business",
        "event_total": 55,
        "has_played": true,
        "id": 1981116,
        "last_rank": 43168,
        "player_name": "paddy frawley",
        "rank": 45597,
        "rank_sort": 45640,
        "total": 2355
      },
      {
        "club_badge_src": null,
        "entry": 296773,
        "entry_name": "Perennial Strugglers",
        "event_total": 63,
        "has_played": true,
        "id": 1983096,
        "last_rank": 48642,
        "player_name": "Mark Thomas",
        "rank": 45597,
        "rank_sort": 45641,
        "total": 2355
      },
      {
        "club_badge_src": "https://fantasy.premierleague.com/gcs/plfpl-production-adobe-approved/plfpl-production/310238/17e4056b-1a0c-4bf2-a8b7-797033012c31.png",
        "entry": 310238,
        "entry_name": "Salah'd dodger",
        "event_total": 56,
        "has_played": true,
        "id": 2078213,
        "last_rank": 44525,
        "player_name": "Karl Garratty",
        "rank": 45597,
        "rank_sort": 45642,
        "total": 2355
      },
      {
        "club_badge_src": null,
        "entry": 347269,
        "entry_name": "Ur a wizard Barry",
        "event_total": 85,
        "has_played": true,
        "id": 2324481,
        "last_rank": 101419,
        "player_name": "James Cooke",
        "rank": 45597,
        "rank_sort": 45643,
        "total": 2355
      },
      {
        "club_badge_src": "https://fantasy.premierleague.com/gcs/plfpl-production-adobe-approved/plfpl-production/356902/b4cdc723-9c89-4c1e-9875-dc67784c28ae.png",
        "entry": 356902,
        "entry_name": "Usiba FC",
        "event_total": 77,
        "has_played": true,
        "id": 2388381,
        "last_rank": 81646,
        "player_name": "Matimba Usiba",
        "rank": 45597,
        "rank_sort": 45644,
        "total": 2355
      },
      {
        "club_badge_src": null,
        "entry": 360275,
        "entry_name": "Zubi or not Zubi",
        "event_total": 65,
        "has_played": true,
        "id": 2410771,
        "last_rank": 51720,
        "player_name": "Tom Makris",
        "rank": 45597,
        "rank_sort": 45645,
        "total": 2355
      },
      {
        "club_badge_src": null,
        "entry": 362691,
        "entry_name": "Coco Cola FC",
        "event_total": 56,
        "has_played": true,
        "id": 2426769,
        "last_rank": 39023,
        "player_name": "Andreas Indro",
        "rank": 45597,
        "rank_sort": 45646,
        "total": 2355
      },
      {
        "club_badge_src": "https://fantasy.premierleague.com/gcs/plfpl-production-adobe-approved/plfpl-production/392488/cf31f6a8-a547-4caf-9740-c26a7a696a4f.png",
        "entry": 392488,
        "entry_name": "Swann Vestas",
        "event_total": 59,
        "has_played": true,
        "id": 2632480,
        "last_rank": 48642,
        "player_name": "Stephen Swann",
        "rank": 45597,
        "rank_sort": 45647,
        "total": 2355
      },
      {
        "club_badge_src": "https://fantasy.premierleague.com/gcs/plfpl-production-adobe-approved/plfpl-production/423555/7de89e8b-c198-499f-8470-49b1a10cf15d.png",
        "entry": 423555,
        "entry_name": "The Winning XI",
        "event_total": 68,
        "has_played": true,
        "id": 2838513,
        "last_rank": 63724,
        "player_name": "Bipin Baniya",
        "rank": 45597,
        "rank_sort": 45648,
        "total": 2355
      },
      {
        "club_badge_src": null,
        "entry": 467476,
        "entry_name": "A Cunha Mateta",
        "event_total": 56,
        "has_played": true,
        "id": 3137001,
        "last_rank": 39023,
        "player_name": "Billy Vowles",
        "rank": 45597,
        "rank_sort": 45649,
        "total": 2355
      },
      {
        "club_badge_src": null,
        "entry": 469497,
        "entry_name": "Rio Cantona",
        "event_total": 61,
        "has_played": true,
        "id": 3151424,
        "last_rank": 45416,
        "player_name": "Jonatan Fre",
        "rank": 45597,
        "rank_sort": 45650,
        "total": 2355
      }
    ]
  }
}