{
  "last_updated_data": "2026-05-24T23:28:17Z",
  "league": {
    "admin_entry": null,
    "closed": false,
    "code_privacy": "p",
    "created": "2025-07-20T23:14:33.933835Z",
    "cup_league": 2815434,
    "has_cup": true,
    "id": 314,
    "league_type": "s",
    "max_entries": null,
    "name": "Overall",
    "rank": null,
    "scoring": "c",
    "start_event": 1
  },
  "new_entries": {
    "has_next": false,
    "page": 1,
    "results": []
  },
  "standings": {
    "has_next": true,
    "page": 331,
    "results": [
      {
        "club_badge_src": null,
        "entry": 6393602,
        "entry_name": "The Final Boss",
        "event_total": 43,
        "has_played": true,
        "id": 50862385,
        "last_rank": 9089,
        "player_name": "mohamed ahmed",
        "rank": 16492,
        "rank_sort": 16501,
        "total": 2385
      },
      {
        "club_badge_src": null,
        "entry": 7388034,
        "entry_name": "Backstreet Moyes",
        "event_total": 56,
        "has_played": true,
        "id": 59901145,
        "last_rank": 15396,
        "player_name": "Filippo Squarci",
        "rank": 16492,
        "rank_sort": 16502,
        "total": 2385
      },
      {
        "club_badge_src": null,
        "entry": 8174075,
        "entry_name": "7nkh",
        "event_total": 71,
        "has_played": true,
        "id": 67494122,
        "last_rank": 26656,
        "player_name": "7nkh 1",
        "rank": 16492,
        "rank_sort": 16503,
        "total": 2385
      },
      {
        "club_badge_src": null,
        "entry": 8222756,
        "entry_name": "NorthLondonRedMagic",
        "event_total": 68,
        "has_played": true,
        "id": 67956429,
        "last_rank": 23990,
        "player_name": "K\u00e1d\u00e1r D\u00e1niel",
        "rank": 16492,
        "rank_sort": 16504,
        "total": 2385
      },
      {
        "club_badge_src": null,
        "entry": 8499743,
        "entry_name": "goda",
        "event_total": 65,
        "has_played": true,
        "id": 70635024,
        "last_rank": 21609,
        "player_name": "Mohamed Gooda",
        "rank": 16492,
        "rank_sort": 16505,
        "total": 2385
      },
      {
        "club_badge_src": null,
        "entry": 47785,
        "entry_name": "V12 Enzo",
        "event_total": 70,
        "has_played": true,
        "id": 306647,
        "last_rank": 25729,
        "player_name": "Benediktas Butler",
        "rank": 16506,
        "rank_sort": 16506,
        "total": 2385
      },
      {
        "club_badge_src": null,
        "entry": 55161,
        "entry_name": "Transfer Algorithm",
        "event_total": 53,
        "has_played": true,
        "id": 355041,
        "last_rank": 13720,
        "player_name": "Tor Mikkel Tokvam",
        "rank": 16506,
        "rank_sort": 16507,
        "total": 2385
      },
      {
        "club_badge_src": null,
        "entry": 106821,
        "entry_name": "AK",
        "event_total": 62,
        "has_played": true,
        "id": 696471,
        "last_rank": 19432,
        "player_name": "Ahmad Kilo",
        "rank": 16506,
        "rank_sort": 16508,
        "total": 2385
      },
      {
        "club_badge_src": null,
        "entry": 131665,
        "entry_name": "\u0627\u0644\u0627\u0645\u0648\u0627\u062a",
        "event_total": 56,
        "has_played": true,
        "id": 857777,
        "last_rank": 15452,
        "player_name": "Abdo Mohamed",
        "rank": 16506,
        "rank_sort": 16509,
        "total": 2385
      },
      {
        "club_badge_src": null,
        "entry": 291165,
        "entry_name": "Half the world (a)",
        "event_total": 45,
        "has_played": true,
        "id": 1941962,
        "last_rank": 9942,
        "player_name": "Olly Bradley",
        "rank": 16506,
        "rank_sort": 16510,
        "total": 2385
      },
      {
        "club_badge_src": null,
        "entry": 390994,
        "entry_name": "T.B FPL",
        "event_total": 57,
        "has_played": true,
        "id": 2622704,
        "last_rank": 16163,
        "player_name": "Thomas Bradshaw",
        "rank": 16506,
        "rank_sort": 16511,
        "total": 2385
      },
      {
        "club_badge_src": null,
        "entry": 449543,
        "entry_name": "TheLegendOfJota",
        "event_total": 61,
        "has_played": true,
        "id": 3016128,
        "last_rank": 18790,
        "player_name": "Adhiraj Singh",
        "rank": 16506,
        "rank_sort": 16512,
        "total": 2385
      },
      {
        "club_badge_src": null,
        "entry": 528757,
        "entry_name": "Emmy Whyte FC",
        "event_total": 44,
        "has_played": true,
        "id": 3555145,
        "last_rank": 9536,
        "player_name": "Triple E",
        "rank": 16506,
        "rank_sort": 16513,
        "total": 2385
      },
      {
        "club_badge_src": null,
        "entry": 571245,
        "entry_name": "Isak at this game",
        "event_total": 71,
        "has_played": true,
        "id": 3844535,
        "last_rank": 26710,
        "player_name": "Eseosa Aibangbee",
        "rank": 16506,
        "rank_sort": 16514,
        "total": 2385
      },
      {
        "club_badge_src": null,
        "entry": 659586,
        "entry_name": "\u0160e\u0161ko Clubcard",
        "event_total": 61,
        "has_played": true,
        "id": 4457616,
        "last_rank": 18691,
        "player_name": "Mark Hopkins",
        "rank": 16506,
        "rank_sort": 16515,
        "total": 2385
      },
      {
        "club_badge_src": "https://fantasy.premierleague.com/gcs/plfpl-production-adobe-approved/plfpl-production/664928/67195c57-5992-4e21-9ccf-2bd7045d293c.png",
        "entry": 664928,
        "entry_name": "Semi-Stubborn",
        "event_total": 69,
        "has_played": true,
        "id": 4495393,
        "last_rank": 24857,
        "player_name": "Weston King",
        "rank": 16506,
        "rank_sort": 16516,
        "total": 2385
      },
      {
        "club_badge_src": null,
        "entry": 948288,
        "entry_name": "Akumpo",
        "event_total": 43,
        "has_played": true,
        "id": 6532120,
        "last_rank": 9142,
        "player_name": "kimonas mitsios",
        "rank": 16506,
        "rank_sort": 16517,
        "total": 2385
      },
      {
        "club_badge_src": null,
        "entry": 975473,
        "entry_name": "FC Hinderton",
        "event_total": 63,
        "has_played": true,
        "id": 6724402,
        "last_rank": 20131,
        "player_name": "Adam Knight",
        "rank": 16506,
        "rank_sort": 16518,
        "total": 2385
      },
      {
        "club_badge_src": "https://fantasy.premierleague.com/gcs/plfpl-production-adobe-approved/plfpl-production/1208665/9cb4baa7-2906-4533-8966-be39d2f3eb17.png",
        "entry": 1208665,
        "entry_name": "Squatting Slavs",
        "event_total": 44,
        "has_played": true,
        "id": 8388513,
        "last_rank": 9536,
        "player_name": "Srdjan Rakic",
        "rank": 16506,
        "rank_sort": 16519,
        "total": 2385
      },
      {
        "club_badge_src": null,
        "entry": 1319970,
        "entry_name": "MUFC",
        "event_total": 61,
        "has_played": true,
        "id": 9174731,
        "last_rank": 18640,
        "player_name": "Patryk Michalski",
        "rank": 16506,
        "rank_sort": 16520,
        "total": 2385
      },
      {
        "club_badge_src": "https://fantasy.premierleague.com/gcs/plfpl-production-adobe-approved/plfpl-production/1376083/ce1c90ba-6bc6-4a4c-8f09-1ba4aeaf6464.png",
        "entry": 1376083,
        "entry_name": "TAA Very Much",
        "event_total": 60,
        "has_played": true,
        "id": 9565639,
        "last_rank": 18113,
        "player_name": "Simon Hibberd",
        "rank": 16506,
        "rank_sort": 16521,
        "total": 2385
      },
      {
        "club_badge_src": null,
        "entry": 1426243,
        "entry_name": "Change Name",
        "event_total": 64,
        "has_played": true,
        "id": 9937360,
        "last_rank": 20888,
        "player_name": "Tom Matthews",
        "rank": 16506,
        "rank_sort": 16522,
        "total": 2385
      },
      {
        "club_badge_src": null,
        "entry": 1559418,
        "entry_name": "UncutGems",
        "event_total": 62,
        "has_played": true,
        "id": 10890311,
        "last_rank": 19392,
        "player_name": "Vitaliy Leshkevich",
        "rank": 16506,
        "rank_sort": 16523,
        "total": 2385
      },
      {
        "club_badge_src": null,
        "entry": 1793232,
        "entry_name": "norea del Corte",
        "event_total": 47,
        "has_played": true,
        "id": 12600950,
        "last_rank": 10748,
        "player_name": "Manu Saroka",
        "rank": 16506,
        "rank_sort": 16524,
        "total": 2385
      },
      {
        "club_badge_src": "https://fantasy.premierleague.com/gcs/plfpl-production-adobe-approved/plfpl-production/2097786/d63356fd-a5bc-4771-ad1b-0152506c5972.png",
        "entry": 2097786,
        "entry_name": "Greenz XI",
        "event_total": 55,
        "has_played": true,
        "id": 14884435,
        "last_rank": 14926,
        "player_name": "Josh Green",
        "rank": 16506,
        "rank_sort": 16525,
        "total": 2385
      },
      {
        "club_badge_src": null,
        "entry": 2505432,
        "entry_name": "Les Formidables",
        "event_total": 55,
        "has_played": true,
        "id": 17941896,
        "last_rank": 14857,
        "player_name": "Alexander Vinkel",
        "rank": 16506,
        "rank_sort": 16526,
        "total": 2385
      },
      {
        "club_badge_src": "https://fantasy.premierleague.com/gcs/plfpl-production-adobe-approved/plfpl-production/2790027/211c0644-b8bf-4232-9538-37190bc02e91.png",
        "entry": 2790027,
        "entry_name": "ChickenTikkaMoSalah",
        "event_total": 63,
        "has_played": true,
        "id": 20369627,
        "last_rank": 20179,
        "player_name": "Jan Juhart",
        "rank": 16506,
        "rank_sort": 16527,
        "total": 2385
      },
      {
        "club_badge_src": null,
        "entry": 3097981,
        "entry_name": "sometimes maybe good",
        "event_total": 70,
        "has_played": true,
        "id": 22833424,
        "last_rank": 25709,
        "player_name": "Percy Fagent",
        "rank": 16506,
        "rank_sort": 16528,
        "total": 2385
      },
      {
        "club_badge_src": null,
        "entry": 3184462,
        "entry_name": "BleepBloopFC",
        "event_total": 63,
        "has_played": true,
        "id": 23532714,
        "last_rank": 20179,
        "player_name": "kazz Thompson",
        "rank": 16506,
        "rank_sort": 16529,
        "total": 2385
      },
      {
        "club_badge_src": null,
        "entry": 3432342,
        "entry_name": "Big Back DEFCON",
        "event_total": 41,
        "has_played": true,
        "id": 25497729,
        "last_rank": 8382,
        "player_name": "Ciaran Smith",
        "rank": 16506,
        "rank_sort": 16530,
        "total": 2385
      },
      {
        "club_badge_src": null,
        "entry": 3593990,
        "entry_name": "Unaichi FC",
        "event_total": 68,
        "has_played": true,
        "id": 26766796,
        "last_rank": 24039,
        "player_name": "Parm Bains",
        "rank": 16506,
        "rank_sort": 16531,
        "total": 2385
      },
      {
        "club_badge_src": null,
        "entry": 3595236,
        "entry_name": "Sillen",
        "event_total": 65,
        "has_played": true,
        "id": 26776082,
        "last_rank": 21677,
        "player_name": "Johan Sellen",
        "rank": 16506,
        "rank_sort": 16532,
        "total": 2385
      },
      {
        "club_badge_src": null,
        "entry": 3632479,
        "entry_name": "Bonnie\u2019sBlues",
        "event_total": 68,
        "has_played": true,
        "id": 27069311,
        "last_rank": 23973,
        "player_name": "Andrew Genovese",
        "rank": 16506,
        "rank_sort": 16533,
        "total": 2385
      },
      {
        "club_badge_src": null,
        "entry": 3684378,
        "entry_name": "Noosa FC",
        "event_total": 59,
        "has_played": true,
        "id": 27484015,
        "last_rank": 17358,
        "player_name": "Luke Callaghan",
        "rank": 16506,
        "rank_sort": 16534,
        "total": 2385
      },
      {
        "club_badge_src": null,
        "entry": 3900469,
        "entry_name": "Gullars007",
        "event_total": 44,
        "has_played": true,
        "id": 29320605,
        "last_rank": 9484,
        "player_name": "Rune Tofting",
        "rank": 16506,
        "rank_sort": 16535,
        "total": 2385
      },
      {
        "club_badge_src": null,
        "entry": 3926080,
        "entry_name": "isaked in the mornin",
        "event_total": 50,
        "has_played": true,
        "id": 29526071,
        "last_rank": 12141,
        "player_name": "jonathan butterworth",
        "rank": 16506,
        "rank_sort": 16536,
        "total": 2385
      },
      {
        "club_badge_src": null,
        "entry": 4034078,
        "entry_name": "Alexandrides FC",
        "event_total": 78,
        "has_played": true,
        "id": 30416062,
        "last_rank": 34051,
        "player_name": "Andreas Alexandrides",
        "rank": 16506,
        "rank_sort": 16537,
        "total": 2385
      },
      {
        "club_badge_src": null,
        "entry": 4188879,
        "entry_name": "the streets remember",
        "event_total": 53,
        "has_played": true,
        "id": 31696556,
        "last_rank": 13720,
        "player_name": "Ben Merrett",
        "rank": 16506,
        "rank_sort": 16538,
        "total": 2385
      },
      {
        "club_badge_src": "https://fantasy.premierleague.com/gcs/plfpl-production-adobe-approved/plfpl-production/4354033/b4098090-dd56-46d3-9987-e2a8461107a5.png",
        "entry": 4354033,
        "entry_name": "Red Nevilles",
        "event_total": 72,
        "has_played": true,
        "id": 33065474,
        "last_rank": 27585,
        "player_name": "Mehul Tuli",
        "rank": 16506,
        "rank_sort": 16539,
        "total": 2385
      },
      {
        "club_badge_src": null,
        "entry": 4378722,
        "entry_name": "Week 1 Enthusiasts",
        "event_total": 47,
        "has_played": true,
        "id": 33273762,
        "last_rank": 10748,
        "player_name": "Even Jonsen",
        "rank": 16506,
        "rank_sort": 16540,
        "total": 2385
      },
      {
        "club_badge_src": "https://fantasy.premierleague.com/gcs/plfpl-production-adobe-approved/plfpl-production/4979179/f33a8cda-180d-4ac2-bc6e-6666940bf274.png",
        "entry": 4979179,
        "entry_name": "BSK2025",
        "event_total": 57,
        "has_played": true,
        "id": 38434962,
        "last_rank": 16062,
        "player_name": "Baasanjav Tumur",
        "rank": 16506,
        "rank_sort": 16541,
        "total": 2385
      },
      {
        "club_badge_src": "https://fantasy.premierleague.com/gcs/plfpl-production-adobe-approved/plfpl-production/4992083/7a3cd61e-9348-4166-8432-3cee7d35fe6b.png",
        "entry": 4992083,
        "entry_name": "Citeh",
        "event_total": 70,
        "has_played": true,
        "id": 38540682,
        "last_rank": 25700,
        "player_name": "Oliver Wright-Eirew",
        "rank": 16506,
        "rank_sort": 16542,
        "total": 2385
      },
      {
        "club_badge_src": null,
        "entry": 5138005,
        "entry_name": "Mamen DZ",
        "event_total": 66,
        "has_played": true,
        "id": 39743012,
        "last_rank": 22426,
        "player_name": "Aymen Boufenar",
        "rank": 16506,
        "rank_sort": 16543,
        "total": 2385
      },
      {
        "club_badge_src": null,
        "entry": 5160493,
        "entry_name": "bolarpear fc",
        "event_total": 51,
        "has_played": true,
        "id": 39932596,
        "last_rank": 12705,
        "player_name": "Stanley Siong",
        "rank": 16506,
        "rank_sort": 16544,
        "total": 2385
      },
      {
        "club_badge_src": null,
        "entry": 5287012,
        "entry_name": "\u00d8hdeargaard",
        "event_total": 48,
        "has_played": true,
        "id": 40981070,
        "last_rank": 11237,
        "player_name": "Hamzah Kaz",
        "rank": 16506,
        "rank_sort": 16545,
        "total": 2385
      },
      {
        "club_badge_src": null,
        "entry": 5592032,
        "entry_name": "Baggies",
        "event_total": 58,
        "has_played": true,
        "id": 43687739,
        "last_rank": 16807,
        "player_name": "Mike Baker",
        "rank": 16506,
        "rank_sort": 16546,
        "total": 2385
      },
      {
        "club_badge_src": null,
        "entry": 5693010,
        "entry_name": "It's Lonely Up Here!",
        "event_total": 55,
        "has_played": true,
        "id": 44567572,
        "last_rank": 14857,
        "player_name": "Euclid Nduati",
        "rank": 16506,
        "rank_sort": 16547,
        "total": 2385
      },
      {
        "club_badge_src": "https://fantasy.premierleague.com/gcs/plfpl-production-adobe-approved/plfpl-production/5991438/1c3b87c4-dfc2-4f57-b6ed-31e208d9e7fa.png",
        "entry": 5991438,
        "entry_name": "Cantona\u2019s Collar Up",
        "event_total": 60,
        "has_played": true,
        "id": 47211021,
        "last_rank": 18029,
        "player_name": "Sean Golafshan",
        "rank": 16506,
        "rank_sort": 16548,
        "total": 2385
      },
      {
        "club_badge_src": null,
        "entry": 6063032,
        "entry_name": "no name",
        "event_total": 58,
        "has_played": true,
        "id": 47852641,
        "last_rank": 16729,
        "player_name": "Shaun Woo",
        "rank": 16506,
        "rank_sort": 16549,
        "total": 2385
      },
      {
        "club_badge_src": null,
        "entry": 6465727,
        "entry_name": "Burnieley FC",
        "event_total": 52,
        "has_played": true,
        "id": 51513297,
        "last_rank": 13257,
        "player_name": "Fraser Burnie",
        "rank": 16506,
        "rank_sort": 16550,
        "total": 2385
      }
    ]
  }
}