{
  "last_updated_data": "2026-05-24T23:28:17Z",
  "league": {
    "admin_entry": null,
    "closed": false,
    "code_privacy": "p",
    "created": "2025-07-20T23:14:33.933835Z",
    "cup_league": 2815434,
    "has_cup": true,
    "id": 314,
    "league_type": "s",
    "max_entries": null,
    "name": "Overall",
    "rank": null,
    "scoring": "c",
    "start_event": 1
  },
  "new_entries": {
    "has_next": false,
    "page": 1,
    "results": []
  },
  "standings": {
    "has_next": true,
    "page": 1530,
    "results": [
      {
        "club_badge_src": null,
        "entry": 511070,
        "entry_name": "To The King",
        "event_total": 69,
        "has_played": true,
        "id": 3431934,
        "last_rank": 106259,
        "player_name": "Ben TYM",
        "rank": 76375,
        "rank_sort": 76451,
        "total": 2337
      },
      {
        "club_badge_src": null,
        "entry": 528872,
        "entry_name": "Tierney Weenie",
        "event_total": 65,
        "has_played": true,
        "id": 3556035,
        "last_rank": 86735,
        "player_name": "Tommy Harris",
        "rank": 76375,
        "rank_sort": 76452,
        "total": 2337
      },
      {
        "club_badge_src": null,
        "entry": 530520,
        "entry_name": "ABCDEFC",
        "event_total": 43,
        "has_played": true,
        "id": 3567814,
        "last_rank": 51984,
        "player_name": "Anthony Eyre",
        "rank": 76375,
        "rank_sort": 76453,
        "total": 2337
      },
      {
        "club_badge_src": null,
        "entry": 533429,
        "entry_name": "Pick n Mix",
        "event_total": 53,
        "has_played": true,
        "id": 3589214,
        "last_rank": 54667,
        "player_name": "Chris Hughes",
        "rank": 76375,
        "rank_sort": 76454,
        "total": 2337
      },
      {
        "club_badge_src": null,
        "entry": 533686,
        "entry_name": "Pirin",
        "event_total": 63,
        "has_played": true,
        "id": 3591125,
        "last_rank": 82069,
        "player_name": "Stanislav Angelov",
        "rank": 76375,
        "rank_sort": 76455,
        "total": 2337
      },
      {
        "club_badge_src": null,
        "entry": 586552,
        "entry_name": "Dapping Franks",
        "event_total": 35,
        "has_played": true,
        "id": 3947663,
        "last_rank": 40503,
        "player_name": "David Wood",
        "rank": 76375,
        "rank_sort": 76456,
        "total": 2337
      },
      {
        "club_badge_src": null,
        "entry": 587818,
        "entry_name": "StandinOnTheRoeftops",
        "event_total": 57,
        "has_played": true,
        "id": 3957432,
        "last_rank": 77999,
        "player_name": "Jonathan Waterson",
        "rank": 76375,
        "rank_sort": 76457,
        "total": 2337
      },
      {
        "club_badge_src": null,
        "entry": 598088,
        "entry_name": "Simo",
        "event_total": 57,
        "has_played": true,
        "id": 4033538,
        "last_rank": 69323,
        "player_name": "Mohamed El Sayed",
        "rank": 76375,
        "rank_sort": 76458,
        "total": 2337
      },
      {
        "club_badge_src": "https://fantasy.premierleague.com/gcs/plfpl-production-adobe-approved/plfpl-production/600748/7c5643fa-5367-45be-8785-636cd312dc2d.png",
        "entry": 600748,
        "entry_name": "Tungtungtung Saluhr",
        "event_total": 56,
        "has_played": true,
        "id": 4053380,
        "last_rank": 75874,
        "player_name": "G Waller",
        "rank": 76375,
        "rank_sort": 76459,
        "total": 2337
      },
      {
        "club_badge_src": "https://fantasy.premierleague.com/gcs/plfpl-production-adobe-approved/plfpl-production/617546/b628552b-7e2d-4c88-b94e-28e38aa5b378.png",
        "entry": 617546,
        "entry_name": "Elite 11",
        "event_total": 59,
        "has_played": true,
        "id": 4172448,
        "last_rank": 82398,
        "player_name": "Nabeih Ahmed",
        "rank": 76375,
        "rank_sort": 76460,
        "total": 2337
      },
      {
        "club_badge_src": null,
        "entry": 632730,
        "entry_name": "Noni Your Business",
        "event_total": 74,
        "has_played": true,
        "id": 4275334,
        "last_rank": 120103,
        "player_name": "Sam Stewart",
        "rank": 76375,
        "rank_sort": 76461,
        "total": 2337
      },
      {
        "club_badge_src": null,
        "entry": 652738,
        "entry_name": "Patel Warriors",
        "event_total": 64,
        "has_played": true,
        "id": 4411273,
        "last_rank": 75139,
        "player_name": "Rohit Patel",
        "rank": 76375,
        "rank_sort": 76462,
        "total": 2337
      },
      {
        "club_badge_src": null,
        "entry": 656232,
        "entry_name": "Lil Uzi Wirtz",
        "event_total": 97,
        "has_played": true,
        "id": 4434849,
        "last_rank": 203081,
        "player_name": "Shuaib Hussain",
        "rank": 76375,
        "rank_sort": 76463,
        "total": 2337
      },
      {
        "club_badge_src": null,
        "entry": 691068,
        "entry_name": "No Women, No Kai",
        "event_total": 95,
        "has_played": true,
        "id": 4679732,
        "last_rank": 178983,
        "player_name": "Alex Hendry",
        "rank": 76375,
        "rank_sort": 76464,
        "total": 2337
      },
      {
        "club_badge_src": null,
        "entry": 711812,
        "entry_name": "Boys of Wexford",
        "event_total": 45,
        "has_played": true,
        "id": 4828431,
        "last_rank": 55311,
        "player_name": "Barry Moroney",
        "rank": 76375,
        "rank_sort": 76465,
        "total": 2337
      },
      {
        "club_badge_src": null,
        "entry": 739843,
        "entry_name": "Cunha believe it?",
        "event_total": 70,
        "has_played": true,
        "id": 5030430,
        "last_rank": 98896,
        "player_name": "Harry Fane",
        "rank": 76375,
        "rank_sort": 76466,
        "total": 2337
      },
      {
        "club_badge_src": null,
        "entry": 748221,
        "entry_name": "The fiery red",
        "event_total": 48,
        "has_played": true,
        "id": 5090447,
        "last_rank": 53023,
        "player_name": "Mohamed Shawky",
        "rank": 76375,
        "rank_sort": 76467,
        "total": 2337
      },
      {
        "club_badge_src": null,
        "entry": 780565,
        "entry_name": "Dat Guy Welbz",
        "event_total": 61,
        "has_played": true,
        "id": 5329108,
        "last_rank": 77676,
        "player_name": "Joe Vise",
        "rank": 76375,
        "rank_sort": 76468,
        "total": 2337
      },
      {
        "club_badge_src": null,
        "entry": 806044,
        "entry_name": "Loughran's Lads",
        "event_total": 58,
        "has_played": true,
        "id": 5517771,
        "last_rank": 80194,
        "player_name": "Aidan Loughran",
        "rank": 76375,
        "rank_sort": 76469,
        "total": 2337
      },
      {
        "club_badge_src": null,
        "entry": 855308,
        "entry_name": "Los Porritos",
        "event_total": 43,
        "has_played": true,
        "id": 5862680,
        "last_rank": 51984,
        "player_name": "Fionn Parker",
        "rank": 76375,
        "rank_sort": 76470,
        "total": 2337
      },
      {
        "club_badge_src": null,
        "entry": 873081,
        "entry_name": "Change Name",
        "event_total": 60,
        "has_played": true,
        "id": 5985656,
        "last_rank": 67063,
        "player_name": "Aidan OSullivan",
        "rank": 76375,
        "rank_sort": 76471,
        "total": 2337
      },
      {
        "club_badge_src": "https://fantasy.premierleague.com/gcs/plfpl-production-adobe-approved/plfpl-production/937643/0c5d93c2-9da7-46e5-b59b-c12a4381e84b.png",
        "entry": 937643,
        "entry_name": "Emix",
        "event_total": 65,
        "has_played": true,
        "id": 6453238,
        "last_rank": 77258,
        "player_name": "Patryk Strzelecki",
        "rank": 76375,
        "rank_sort": 76472,
        "total": 2337
      },
      {
        "club_badge_src": null,
        "entry": 966276,
        "entry_name": "El Lord",
        "event_total": 50,
        "has_played": true,
        "id": 6659680,
        "last_rank": 56708,
        "player_name": "Husain Adbiah",
        "rank": 76375,
        "rank_sort": 76473,
        "total": 2337
      },
      {
        "club_badge_src": null,
        "entry": 973416,
        "entry_name": "Slot a Kepa N'Golo",
        "event_total": 65,
        "has_played": true,
        "id": 6710174,
        "last_rank": 96777,
        "player_name": "Bart Etcheverry",
        "rank": 76375,
        "rank_sort": 76474,
        "total": 2337
      },
      {
        "club_badge_src": null,
        "entry": 979397,
        "entry_name": "City's going up",
        "event_total": 65,
        "has_played": true,
        "id": 6751888,
        "last_rank": 96777,
        "player_name": "Robert Garrett",
        "rank": 76375,
        "rank_sort": 76475,
        "total": 2337
      },
      {
        "club_badge_src": null,
        "entry": 982242,
        "entry_name": "Gopher Brokers",
        "event_total": 54,
        "has_played": true,
        "id": 6771682,
        "last_rank": 63724,
        "player_name": "Stuart McIntyre",
        "rank": 76375,
        "rank_sort": 76476,
        "total": 2337
      },
      {
        "club_badge_src": null,
        "entry": 1012177,
        "entry_name": "Woodstock",
        "event_total": 77,
        "has_played": true,
        "id": 7001990,
        "last_rank": 130566,
        "player_name": "Michael Woodbridge",
        "rank": 76375,
        "rank_sort": 76477,
        "total": 2337
      },
      {
        "club_badge_src": null,
        "entry": 1039670,
        "entry_name": "Caplebriar",
        "event_total": 67,
        "has_played": true,
        "id": 7194891,
        "last_rank": 101818,
        "player_name": "Joanne Higgins",
        "rank": 76375,
        "rank_sort": 76478,
        "total": 2337
      },
      {
        "club_badge_src": null,
        "entry": 1053975,
        "entry_name": "D\u00f8nnis FC",
        "event_total": 62,
        "has_played": true,
        "id": 7294219,
        "last_rank": 79817,
        "player_name": "Henrik D\u00f8nnestad",
        "rank": 76375,
        "rank_sort": 76479,
        "total": 2337
      },
      {
        "club_badge_src": null,
        "entry": 1136044,
        "entry_name": "Ancymon Parweniusz",
        "event_total": 62,
        "has_played": true,
        "id": 7874763,
        "last_rank": 79817,
        "player_name": "Daniel Danski",
        "rank": 76375,
        "rank_sort": 76480,
        "total": 2337
      },
      {
        "club_badge_src": null,
        "entry": 1145349,
        "entry_name": "it'sCalledSoccer",
        "event_total": 50,
        "has_played": true,
        "id": 7940469,
        "last_rank": 64005,
        "player_name": "Michael Hirst",
        "rank": 76375,
        "rank_sort": 76481,
        "total": 2337
      },
      {
        "club_badge_src": null,
        "entry": 1146208,
        "entry_name": "Ragnar \ufffd",
        "event_total": 74,
        "has_played": true,
        "id": 7947110,
        "last_rank": 120941,
        "player_name": "Amr Salah",
        "rank": 76375,
        "rank_sort": 76482,
        "total": 2337
      },
      {
        "club_badge_src": null,
        "entry": 1147384,
        "entry_name": "Ducna",
        "event_total": 68,
        "has_played": true,
        "id": 7955318,
        "last_rank": 103978,
        "player_name": "Ducna Nguyen",
        "rank": 76375,
        "rank_sort": 76483,
        "total": 2337
      },
      {
        "club_badge_src": null,
        "entry": 1244082,
        "entry_name": "Chorlton Athletic",
        "event_total": 67,
        "has_played": true,
        "id": 8640187,
        "last_rank": 101419,
        "player_name": "Greg Poole",
        "rank": 76375,
        "rank_sort": 76484,
        "total": 2337
      },
      {
        "club_badge_src": null,
        "entry": 1244383,
        "entry_name": "Balderdash",
        "event_total": 52,
        "has_played": true,
        "id": 8642254,
        "last_rank": 67695,
        "player_name": "Sean Beauchamp",
        "rank": 76375,
        "rank_sort": 76485,
        "total": 2337
      },
      {
        "club_badge_src": "https://fantasy.premierleague.com/gcs/plfpl-production-adobe-approved/plfpl-production/1255771/5b364033-3707-4d60-8eb3-421a538f3ad9.png",
        "entry": 1255771,
        "entry_name": "Hamra w bidha",
        "event_total": 56,
        "has_played": true,
        "id": 8722420,
        "last_rank": 67422,
        "player_name": "Karim El Kadhi",
        "rank": 76375,
        "rank_sort": 76486,
        "total": 2337
      },
      {
        "club_badge_src": null,
        "entry": 1266923,
        "entry_name": "Kangaroo Courts",
        "event_total": 52,
        "has_played": true,
        "id": 8802780,
        "last_rank": 60168,
        "player_name": "Kat Dee",
        "rank": 76375,
        "rank_sort": 76487,
        "total": 2337
      },
      {
        "club_badge_src": null,
        "entry": 1275724,
        "entry_name": "Aurora's Allstars",
        "event_total": 63,
        "has_played": true,
        "id": 8864581,
        "last_rank": 91835,
        "player_name": "Richard Johns",
        "rank": 76375,
        "rank_sort": 76488,
        "total": 2337
      },
      {
        "club_badge_src": null,
        "entry": 1328750,
        "entry_name": "No Mbeumo",
        "event_total": 48,
        "has_played": true,
        "id": 9235773,
        "last_rank": 52853,
        "player_name": "Luke Salmon",
        "rank": 76375,
        "rank_sort": 76489,
        "total": 2337
      },
      {
        "club_badge_src": null,
        "entry": 1377305,
        "entry_name": "Haaland Oates",
        "event_total": 47,
        "has_played": true,
        "id": 9574081,
        "last_rank": 58688,
        "player_name": "James Clynes",
        "rank": 76375,
        "rank_sort": 76490,
        "total": 2337
      },
      {
        "club_badge_src": "https://fantasy.premierleague.com/gcs/plfpl-production-adobe-approved/plfpl-production/1402433/789c6afd-59f4-43ca-b4a2-3cd850c3a410.png",
        "entry": 1402433,
        "entry_name": "Let it Rip FC",
        "event_total": 68,
        "has_played": true,
        "id": 9757765,
        "last_rank": 104388,
        "player_name": "Akshat Dhamija",
        "rank": 76375,
        "rank_sort": 76491,
        "total": 2337
      },
      {
        "club_badge_src": null,
        "entry": 1443688,
        "entry_name": "Bruno Dos Tres",
        "event_total": 45,
        "has_played": true,
        "id": 10059810,
        "last_rank": 55311,
        "player_name": "Ethan Thoburn",
        "rank": 76375,
        "rank_sort": 76492,
        "total": 2337
      },
      {
        "club_badge_src": null,
        "entry": 1450884,
        "entry_name": "Ditton Utd",
        "event_total": 25,
        "has_played": true,
        "id": 10109808,
        "last_rank": 29071,
        "player_name": "Jack Millard",
        "rank": 76375,
        "rank_sort": 76493,
        "total": 2337
      },
      {
        "club_badge_src": "https://fantasy.premierleague.com/gcs/plfpl-production-adobe-approved/plfpl-production/1471287/4d822306-90e7-4e99-8fd4-45c6f27f64e5.png",
        "entry": 1471287,
        "entry_name": "Its who we are Mate!",
        "event_total": 56,
        "has_played": true,
        "id": 10255601,
        "last_rank": 75874,
        "player_name": "Angelo Pestana",
        "rank": 76375,
        "rank_sort": 76494,
        "total": 2337
      },
      {
        "club_badge_src": null,
        "entry": 1477584,
        "entry_name": "AudrisaBoys",
        "event_total": 71,
        "has_played": true,
        "id": 10302206,
        "last_rank": 112169,
        "player_name": "Audrius Mikalauskas",
        "rank": 76375,
        "rank_sort": 76495,
        "total": 2337
      },
      {
        "club_badge_src": null,
        "entry": 1540474,
        "entry_name": "Winster Utd",
        "event_total": 66,
        "has_played": true,
        "id": 10751478,
        "last_rank": 99596,
        "player_name": "Kevin Weeden",
        "rank": 76375,
        "rank_sort": 76496,
        "total": 2337
      },
      {
        "club_badge_src": null,
        "entry": 1560181,
        "entry_name": "xG FC",
        "event_total": 69,
        "has_played": true,
        "id": 10895763,
        "last_rank": 106763,
        "player_name": "Brandon Mighty",
        "rank": 76375,
        "rank_sort": 76497,
        "total": 2337
      },
      {
        "club_badge_src": null,
        "entry": 1603443,
        "entry_name": "Havalencia",
        "event_total": 62,
        "has_played": true,
        "id": 11217822,
        "last_rank": 89426,
        "player_name": "Makman 9",
        "rank": 76375,
        "rank_sort": 76498,
        "total": 2337
      },
      {
        "club_badge_src": null,
        "entry": 1668435,
        "entry_name": "Zubi-Wan Kenobi",
        "event_total": 44,
        "has_played": true,
        "id": 11681170,
        "last_rank": 53621,
        "player_name": "Ragnar Djurhuus Hammer",
        "rank": 76375,
        "rank_sort": 76499,
        "total": 2337
      },
      {
        "club_badge_src": null,
        "entry": 1674376,
        "entry_name": "Hell's Paradise",
        "event_total": 56,
        "has_played": true,
        "id": 11722430,
        "last_rank": 67422,
        "player_name": "taha elgharbi",
        "rank": 76375,
        "rank_sort": 76500,
        "total": 2337
      }
    ]
  }
}