{
  "last_updated_data": "2026-05-24T23:28:17Z",
  "league": {
    "admin_entry": null,
    "closed": false,
    "code_privacy": "p",
    "created": "2025-07-20T23:14:33.933835Z",
    "cup_league": 2815434,
    "has_cup": true,
    "id": 314,
    "league_type": "s",
    "max_entries": null,
    "name": "Overall",
    "rank": null,
    "scoring": "c",
    "start_event": 1
  },
  "new_entries": {
    "has_next": false,
    "page": 1,
    "results": []
  },
  "standings": {
    "has_next": true,
    "page": 528,
    "results": [
      {
        "club_badge_src": null,
        "entry": 9293137,
        "entry_name": "ZsbFc",
        "event_total": 60,
        "has_played": true,
        "id": 78344086,
        "last_rank": 28906,
        "player_name": "Omar Shalabi",
        "rank": 26139,
        "rank_sort": 26351,
        "total": 2372
      },
      {
        "club_badge_src": null,
        "entry": 836,
        "entry_name": "Palmergiana & Salahd",
        "event_total": 59,
        "has_played": true,
        "id": 4622,
        "last_rank": 27976,
        "player_name": "Stuart Holywell",
        "rank": 26352,
        "rank_sort": 26352,
        "total": 2372
      },
      {
        "club_badge_src": null,
        "entry": 5794,
        "entry_name": "Second again ole ole",
        "event_total": 69,
        "has_played": true,
        "id": 33114,
        "last_rank": 39023,
        "player_name": "Matthew Vaughan",
        "rank": 26352,
        "rank_sort": 26353,
        "total": 2372
      },
      {
        "club_badge_src": null,
        "entry": 6850,
        "entry_name": "Whod ya Fink you are",
        "event_total": 56,
        "has_played": true,
        "id": 39410,
        "last_rank": 21677,
        "player_name": "Hamish Munro",
        "rank": 26352,
        "rank_sort": 26354,
        "total": 2372
      },
      {
        "club_badge_src": null,
        "entry": 8653,
        "entry_name": "NotEze :(",
        "event_total": 63,
        "has_played": true,
        "id": 50435,
        "last_rank": 31747,
        "player_name": "Mustafa Alsemawi",
        "rank": 26352,
        "rank_sort": 26355,
        "total": 2372
      },
      {
        "club_badge_src": null,
        "entry": 9026,
        "entry_name": "Cola Palme",
        "event_total": 42,
        "has_played": true,
        "id": 52827,
        "last_rank": 14926,
        "player_name": "Julian Strahberger",
        "rank": 26352,
        "rank_sort": 26356,
        "total": 2372
      },
      {
        "club_badge_src": "https://fantasy.premierleague.com/gcs/plfpl-production-adobe-approved/plfpl-production/9889/9853b3e8-76cf-4bd7-b808-640fd36b32d7.png",
        "entry": 9889,
        "entry_name": "MessiFc",
        "event_total": 64,
        "has_played": true,
        "id": 58310,
        "last_rank": 33147,
        "player_name": "Abdullah almaskeen",
        "rank": 26352,
        "rank_sort": 26357,
        "total": 2372
      },
      {
        "club_badge_src": null,
        "entry": 18458,
        "entry_name": "the rivlins",
        "event_total": 56,
        "has_played": true,
        "id": 114829,
        "last_rank": 25002,
        "player_name": "Ido Rivlin",
        "rank": 26352,
        "rank_sort": 26358,
        "total": 2372
      },
      {
        "club_badge_src": null,
        "entry": 20035,
        "entry_name": "Saka potatoes",
        "event_total": 50,
        "has_played": true,
        "id": 124726,
        "last_rank": 17437,
        "player_name": "Riz Law",
        "rank": 26352,
        "rank_sort": 26359,
        "total": 2372
      },
      {
        "club_badge_src": "https://fantasy.premierleague.com/gcs/plfpl-production-adobe-approved/plfpl-production/22145/b8d6acc1-051d-4e3b-8a18-c6df9b897496.png",
        "entry": 22145,
        "entry_name": "Hazy FC",
        "event_total": 66,
        "has_played": true,
        "id": 139025,
        "last_rank": 35166,
        "player_name": "Nishant Didar Singh",
        "rank": 26352,
        "rank_sort": 26360,
        "total": 2372
      },
      {
        "club_badge_src": null,
        "entry": 23628,
        "entry_name": "Change Name",
        "event_total": 62,
        "has_played": true,
        "id": 148890,
        "last_rank": 26827,
        "player_name": "Eoghan Kelly",
        "rank": 26352,
        "rank_sort": 26361,
        "total": 2372
      },
      {
        "club_badge_src": null,
        "entry": 31428,
        "entry_name": "TBFC",
        "event_total": 61,
        "has_played": true,
        "id": 199203,
        "last_rank": 29688,
        "player_name": "Terje Balteskard",
        "rank": 26352,
        "rank_sort": 26362,
        "total": 2372
      },
      {
        "club_badge_src": null,
        "entry": 33523,
        "entry_name": "Fergie Time FC",
        "event_total": 60,
        "has_played": true,
        "id": 213814,
        "last_rank": 28726,
        "player_name": "Truls Knudsen",
        "rank": 26352,
        "rank_sort": 26363,
        "total": 2372
      },
      {
        "club_badge_src": "https://fantasy.premierleague.com/gcs/plfpl-production-adobe-approved/plfpl-production/37434/31b760ad-63d5-4ef5-98ac-991fb0d25723.png",
        "entry": 37434,
        "entry_name": "Badgers9",
        "event_total": 64,
        "has_played": true,
        "id": 239785,
        "last_rank": 28726,
        "player_name": "Tom Stephenson",
        "rank": 26352,
        "rank_sort": 26364,
        "total": 2372
      },
      {
        "club_badge_src": null,
        "entry": 37478,
        "entry_name": "R3DD3V!L",
        "event_total": 64,
        "has_played": true,
        "id": 240065,
        "last_rank": 28726,
        "player_name": "Mudit Gupta",
        "rank": 26352,
        "rank_sort": 26365,
        "total": 2372
      },
      {
        "club_badge_src": null,
        "entry": 46167,
        "entry_name": "theAttractive",
        "event_total": 74,
        "has_played": true,
        "id": 296042,
        "last_rank": 45416,
        "player_name": "Zhen Tian",
        "rank": 26352,
        "rank_sort": 26366,
        "total": 2372
      },
      {
        "club_badge_src": null,
        "entry": 56789,
        "entry_name": "g\u00f8s",
        "event_total": 63,
        "has_played": true,
        "id": 365810,
        "last_rank": 31995,
        "player_name": "Simen Gustavsen",
        "rank": 26352,
        "rank_sort": 26367,
        "total": 2372
      },
      {
        "club_badge_src": null,
        "entry": 57329,
        "entry_name": "\u0627\u0644\u0647\u0628\u064a\u062f",
        "event_total": 65,
        "has_played": true,
        "id": 369302,
        "last_rank": 29688,
        "player_name": "Karim Mohi",
        "rank": 26352,
        "rank_sort": 26368,
        "total": 2372
      },
      {
        "club_badge_src": "https://fantasy.premierleague.com/gcs/plfpl-production-adobe-approved/plfpl-production/57930/e743403b-6f39-4a72-8de4-d69b28191262.png",
        "entry": 57930,
        "entry_name": "LFC4Now...",
        "event_total": 52,
        "has_played": true,
        "id": 373192,
        "last_rank": 21949,
        "player_name": "Yonatan Kay",
        "rank": 26352,
        "rank_sort": 26369,
        "total": 2372
      },
      {
        "club_badge_src": null,
        "entry": 61931,
        "entry_name": "SlotAddicted",
        "event_total": 74,
        "has_played": true,
        "id": 399027,
        "last_rank": 45252,
        "player_name": "Eskil Jahr",
        "rank": 26352,
        "rank_sort": 26370,
        "total": 2372
      },
      {
        "club_badge_src": null,
        "entry": 76147,
        "entry_name": "Zaninhoz",
        "event_total": 40,
        "has_played": true,
        "id": 495032,
        "last_rank": 14040,
        "player_name": "Giannis Angelakakis",
        "rank": 26352,
        "rank_sort": 26371,
        "total": 2372
      },
      {
        "club_badge_src": "https://fantasy.premierleague.com/gcs/plfpl-production-adobe-approved/plfpl-production/76397/82ec47c5-8b4b-4a3c-b0b7-b8277226dcca.png",
        "entry": 76397,
        "entry_name": "H\u0160K Ima\u010di Kada",
        "event_total": 65,
        "has_played": true,
        "id": 496608,
        "last_rank": 34051,
        "player_name": "Marino Masla\u0107",
        "rank": 26352,
        "rank_sort": 26372,
        "total": 2372
      },
      {
        "club_badge_src": null,
        "entry": 82459,
        "entry_name": "A-team",
        "event_total": 55,
        "has_played": true,
        "id": 536564,
        "last_rank": 24330,
        "player_name": "Thomas Knutsen",
        "rank": 26352,
        "rank_sort": 26373,
        "total": 2372
      },
      {
        "club_badge_src": null,
        "entry": 119328,
        "entry_name": "Benchwarmers",
        "event_total": 59,
        "has_played": true,
        "id": 778597,
        "last_rank": 27770,
        "player_name": "Thomas Peters",
        "rank": 26352,
        "rank_sort": 26374,
        "total": 2372
      },
      {
        "club_badge_src": null,
        "entry": 122262,
        "entry_name": "Hope&Glory",
        "event_total": 49,
        "has_played": true,
        "id": 797637,
        "last_rank": 16807,
        "player_name": "Sean Woodbridge",
        "rank": 26352,
        "rank_sort": 26375,
        "total": 2372
      },
      {
        "club_badge_src": null,
        "entry": 122623,
        "entry_name": "Gabbes gjeng",
        "event_total": 72,
        "has_played": true,
        "id": 799956,
        "last_rank": 42648,
        "player_name": "Henning Stien",
        "rank": 26352,
        "rank_sort": 26376,
        "total": 2372
      },
      {
        "club_badge_src": null,
        "entry": 125138,
        "entry_name": "Tielemans iwant100ms",
        "event_total": 57,
        "has_played": true,
        "id": 816162,
        "last_rank": 25902,
        "player_name": "Ruairidh Stirling",
        "rank": 26352,
        "rank_sort": 26377,
        "total": 2372
      },
      {
        "club_badge_src": null,
        "entry": 134785,
        "entry_name": "ChickenTikkaMoSalah",
        "event_total": 48,
        "has_played": true,
        "id": 877811,
        "last_rank": 18985,
        "player_name": "Nick Patel",
        "rank": 26352,
        "rank_sort": 26378,
        "total": 2372
      },
      {
        "club_badge_src": "https://fantasy.premierleague.com/gcs/plfpl-production-adobe-approved/plfpl-production/137930/5b3c5435-9f3d-4f66-8999-dd98927eaff8.png",
        "entry": 137930,
        "entry_name": "\u043a\u0420\u0430\u0434\u043d\u0438\u0447\u043a\u0438",
        "event_total": 67,
        "has_played": true,
        "id": 899446,
        "last_rank": 36624,
        "player_name": "\u041c\u043b\u0430\u0434\u0435\u043d \u041c\u0438\u043a\u0438\u045b",
        "rank": 26352,
        "rank_sort": 26379,
        "total": 2372
      },
      {
        "club_badge_src": "https://fantasy.premierleague.com/gcs/plfpl-production-adobe-approved/plfpl-production/138292/ee9918e7-b416-46ba-a2cb-2fb41e737350.png",
        "entry": 138292,
        "entry_name": "Rutter Woke Nonsense",
        "event_total": 66,
        "has_played": true,
        "id": 902041,
        "last_rank": 35424,
        "player_name": "Dan Anderson",
        "rank": 26352,
        "rank_sort": 26380,
        "total": 2372
      },
      {
        "club_badge_src": null,
        "entry": 165663,
        "entry_name": "Despacito Remix",
        "event_total": 70,
        "has_played": true,
        "id": 1093951,
        "last_rank": 35034,
        "player_name": "William Dannevig",
        "rank": 26352,
        "rank_sort": 26381,
        "total": 2372
      },
      {
        "club_badge_src": null,
        "entry": 181405,
        "entry_name": "FPL Pirate",
        "event_total": 63,
        "has_played": true,
        "id": 1197120,
        "last_rank": 27770,
        "player_name": "Dhummas Mehta",
        "rank": 26352,
        "rank_sort": 26382,
        "total": 2372
      },
      {
        "club_badge_src": "https://fantasy.premierleague.com/gcs/plfpl-production-adobe-approved/plfpl-production/184497/a34d6918-964c-4af4-874c-8bb6c86ad07f.png",
        "entry": 184497,
        "entry_name": "Surgical Attack",
        "event_total": 47,
        "has_played": true,
        "id": 1218322,
        "last_rank": 18270,
        "player_name": "Astik Gupta",
        "rank": 26352,
        "rank_sort": 26383,
        "total": 2372
      },
      {
        "club_badge_src": null,
        "entry": 190469,
        "entry_name": "Octave XI",
        "event_total": 67,
        "has_played": true,
        "id": 1261294,
        "last_rank": 36200,
        "player_name": "Carlton D'Souza",
        "rank": 26352,
        "rank_sort": 26384,
        "total": 2372
      },
      {
        "club_badge_src": null,
        "entry": 208306,
        "entry_name": "Jesus12",
        "event_total": 45,
        "has_played": true,
        "id": 1384881,
        "last_rank": 16959,
        "player_name": "Frank O Brien",
        "rank": 26352,
        "rank_sort": 26385,
        "total": 2372
      },
      {
        "club_badge_src": "https://fantasy.premierleague.com/gcs/plfpl-production-adobe-approved/plfpl-production/227030/fb2af3c2-bec9-4257-aef3-5512fb78658b.png",
        "entry": 227030,
        "entry_name": "Livin\u2019 Saliba Loca",
        "event_total": 68,
        "has_played": true,
        "id": 1510203,
        "last_rank": 37822,
        "player_name": "Jordan Mayer",
        "rank": 26352,
        "rank_sort": 26386,
        "total": 2372
      },
      {
        "club_badge_src": null,
        "entry": 283329,
        "entry_name": "Burn Baby Burn",
        "event_total": 57,
        "has_played": true,
        "id": 1886220,
        "last_rank": 25902,
        "player_name": "Warren Montgomery",
        "rank": 26352,
        "rank_sort": 26387,
        "total": 2372
      },
      {
        "club_badge_src": null,
        "entry": 297557,
        "entry_name": "FC Winden",
        "event_total": 63,
        "has_played": true,
        "id": 1988882,
        "last_rank": 27770,
        "player_name": "Andrew Notley",
        "rank": 26352,
        "rank_sort": 26388,
        "total": 2372
      },
      {
        "club_badge_src": "https://fantasy.premierleague.com/gcs/plfpl-production-adobe-approved/plfpl-production/308673/81418e2b-144b-41ef-91fd-3fe98536025b.png",
        "entry": 308673,
        "entry_name": "Abozaid",
        "event_total": 49,
        "has_played": true,
        "id": 2067537,
        "last_rank": 19835,
        "player_name": "Ali Abozaid",
        "rank": 26352,
        "rank_sort": 26389,
        "total": 2372
      },
      {
        "club_badge_src": null,
        "entry": 321311,
        "entry_name": "Under My Cucurella",
        "event_total": 61,
        "has_played": true,
        "id": 2153411,
        "last_rank": 29904,
        "player_name": "Jamie Laybourn-morris",
        "rank": 26352,
        "rank_sort": 26390,
        "total": 2372
      },
      {
        "club_badge_src": null,
        "entry": 331302,
        "entry_name": "Tosczak AFC",
        "event_total": 60,
        "has_played": true,
        "id": 2219064,
        "last_rank": 28726,
        "player_name": "Nick Tosczak",
        "rank": 26352,
        "rank_sort": 26391,
        "total": 2372
      },
      {
        "club_badge_src": null,
        "entry": 335409,
        "entry_name": "Rutter Woke Nonsense",
        "event_total": 66,
        "has_played": true,
        "id": 2245871,
        "last_rank": 35424,
        "player_name": "Alfie O'Driscoll",
        "rank": 26352,
        "rank_sort": 26392,
        "total": 2372
      },
      {
        "club_badge_src": "https://fantasy.premierleague.com/gcs/plfpl-production-adobe-approved/plfpl-production/342038/b6c1ce79-0f9b-43d2-bc90-af5cc454ce98.png",
        "entry": 342038,
        "entry_name": "Relegation Battle",
        "event_total": 65,
        "has_played": true,
        "id": 2289313,
        "last_rank": 34051,
        "player_name": "Jake Flynn",
        "rank": 26352,
        "rank_sort": 26393,
        "total": 2372
      },
      {
        "club_badge_src": null,
        "entry": 368038,
        "entry_name": "YELTZ",
        "event_total": 69,
        "has_played": true,
        "id": 2462918,
        "last_rank": 34051,
        "player_name": "Matt Heywood",
        "rank": 26352,
        "rank_sort": 26394,
        "total": 2372
      },
      {
        "club_badge_src": null,
        "entry": 375494,
        "entry_name": "Plastik Biru",
        "event_total": 63,
        "has_played": true,
        "id": 2514019,
        "last_rank": 27770,
        "player_name": "Anang Prasetyo",
        "rank": 26352,
        "rank_sort": 26395,
        "total": 2372
      },
      {
        "club_badge_src": "https://fantasy.premierleague.com/gcs/plfpl-production-adobe-approved/plfpl-production/398800/88feb09a-8c3d-4056-93be-c58e096d8a54.png",
        "entry": 398800,
        "entry_name": "SayurKangkung",
        "event_total": 61,
        "has_played": true,
        "id": 2674289,
        "last_rank": 29904,
        "player_name": "Reh Mi",
        "rank": 26352,
        "rank_sort": 26396,
        "total": 2372
      },
      {
        "club_badge_src": null,
        "entry": 401462,
        "entry_name": "Crouch Potato",
        "event_total": 49,
        "has_played": true,
        "id": 2691995,
        "last_rank": 16807,
        "player_name": "George Cornish",
        "rank": 26352,
        "rank_sort": 26397,
        "total": 2372
      },
      {
        "club_badge_src": null,
        "entry": 415760,
        "entry_name": "I\u2019m a Baleba",
        "event_total": 48,
        "has_played": true,
        "id": 2787186,
        "last_rank": 18985,
        "player_name": "Rich Phillips",
        "rank": 26352,
        "rank_sort": 26398,
        "total": 2372
      },
      {
        "club_badge_src": null,
        "entry": 461517,
        "entry_name": "red devils",
        "event_total": 56,
        "has_played": true,
        "id": 3095855,
        "last_rank": 25330,
        "player_name": "alan moran",
        "rank": 26352,
        "rank_sort": 26399,
        "total": 2372
      },
      {
        "club_badge_src": null,
        "entry": 500624,
        "entry_name": "broomage brethrens",
        "event_total": 69,
        "has_played": true,
        "id": 3359736,
        "last_rank": 34051,
        "player_name": "Daniel Olubolade",
        "rank": 26352,
        "rank_sort": 26400,
        "total": 2372
      }
    ]
  }
}