{
  "last_updated_data": "2026-05-24T23:28:17Z",
  "league": {
    "admin_entry": null,
    "closed": false,
    "code_privacy": "p",
    "created": "2025-07-20T23:14:33.933835Z",
    "cup_league": 2815434,
    "has_cup": true,
    "id": 314,
    "league_type": "s",
    "max_entries": null,
    "name": "Overall",
    "rank": null,
    "scoring": "c",
    "start_event": 1
  },
  "new_entries": {
    "has_next": false,
    "page": 1,
    "results": []
  },
  "standings": {
    "has_next": true,
    "page": 1150,
    "results": [
      {
        "club_badge_src": null,
        "entry": 4163469,
        "entry_name": "Wirtz Case Scenario",
        "event_total": 56,
        "has_played": true,
        "id": 31482971,
        "last_rank": 56180,
        "player_name": "Rob Rowland",
        "rank": 57227,
        "rank_sort": 57451,
        "total": 2347
      },
      {
        "club_badge_src": null,
        "entry": 4178230,
        "entry_name": "The Bomb Squad",
        "event_total": 63,
        "has_played": true,
        "id": 31606228,
        "last_rank": 68748,
        "player_name": "Jamie Taylor",
        "rank": 57227,
        "rank_sort": 57452,
        "total": 2347
      },
      {
        "club_badge_src": "https://fantasy.premierleague.com/gcs/plfpl-production-adobe-approved/plfpl-production/4207134/471e5441-e57d-4db9-92b8-ba8621cbbe85.png",
        "entry": 4207134,
        "entry_name": "Cole Calm Collective",
        "event_total": 49,
        "has_played": true,
        "id": 31850704,
        "last_rank": 45416,
        "player_name": "Dylan Ligeon",
        "rank": 57227,
        "rank_sort": 57453,
        "total": 2347
      },
      {
        "club_badge_src": null,
        "entry": 4254410,
        "entry_name": "Green Devils",
        "event_total": 54,
        "has_played": true,
        "id": 32252792,
        "last_rank": 52853,
        "player_name": "Pancho Panev",
        "rank": 57227,
        "rank_sort": 57454,
        "total": 2347
      },
      {
        "club_badge_src": null,
        "entry": 4301951,
        "entry_name": "Partey all the time",
        "event_total": 56,
        "has_played": true,
        "id": 32637929,
        "last_rank": 56369,
        "player_name": "Aidan Parry",
        "rank": 57227,
        "rank_sort": 57455,
        "total": 2347
      },
      {
        "club_badge_src": null,
        "entry": 4325412,
        "entry_name": "Glunten",
        "event_total": 58,
        "has_played": true,
        "id": 32828100,
        "last_rank": 59632,
        "player_name": "Sindre Almlid",
        "rank": 57227,
        "rank_sort": 57456,
        "total": 2347
      },
      {
        "club_badge_src": null,
        "entry": 4343988,
        "entry_name": "mpoloXI",
        "event_total": 58,
        "has_played": true,
        "id": 32984303,
        "last_rank": 59813,
        "player_name": "Marco Scipione",
        "rank": 57227,
        "rank_sort": 57457,
        "total": 2347
      },
      {
        "club_badge_src": null,
        "entry": 4349327,
        "entry_name": "my name is katy!",
        "event_total": 64,
        "has_played": true,
        "id": 33027013,
        "last_rank": 70757,
        "player_name": "Kathryn Hart",
        "rank": 57227,
        "rank_sort": 57458,
        "total": 2347
      },
      {
        "club_badge_src": null,
        "entry": 4366795,
        "entry_name": "Debosi",
        "event_total": 78,
        "has_played": true,
        "id": 33172298,
        "last_rank": 103978,
        "player_name": "Dick Dastardly",
        "rank": 57227,
        "rank_sort": 57459,
        "total": 2347
      },
      {
        "club_badge_src": null,
        "entry": 4418496,
        "entry_name": "WirtzCaseScenario",
        "event_total": 57,
        "has_played": true,
        "id": 33616652,
        "last_rank": 58071,
        "player_name": "Alastair Bailey",
        "rank": 57227,
        "rank_sort": 57460,
        "total": 2347
      },
      {
        "club_badge_src": null,
        "entry": 4452989,
        "entry_name": "B83FC",
        "event_total": 58,
        "has_played": true,
        "id": 33918467,
        "last_rank": 59535,
        "player_name": "Benjamin Woodhouse",
        "rank": 57227,
        "rank_sort": 57461,
        "total": 2347
      },
      {
        "club_badge_src": "https://fantasy.premierleague.com/gcs/plfpl-production-adobe-approved/plfpl-production/4501219/5d4ae018-1b1f-495e-aedc-3e6a472c40c0.png",
        "entry": 4501219,
        "entry_name": "STAMFORD ROVERS",
        "event_total": 62,
        "has_played": true,
        "id": 34316381,
        "last_rank": 67063,
        "player_name": "Mohammed Hossain",
        "rank": 57227,
        "rank_sort": 57462,
        "total": 2347
      },
      {
        "club_badge_src": null,
        "entry": 4556689,
        "entry_name": "The Icey-Cole-Poles",
        "event_total": 59,
        "has_played": true,
        "id": 34769666,
        "last_rank": 61606,
        "player_name": "Tom Denyer",
        "rank": 57227,
        "rank_sort": 57463,
        "total": 2347
      },
      {
        "club_badge_src": null,
        "entry": 4626425,
        "entry_name": "wanny fobblers",
        "event_total": 45,
        "has_played": true,
        "id": 35370704,
        "last_rank": 40297,
        "player_name": "tuppy fawl",
        "rank": 57227,
        "rank_sort": 57464,
        "total": 2347
      },
      {
        "club_badge_src": null,
        "entry": 4667346,
        "entry_name": "Flo Salah",
        "event_total": 66,
        "has_played": true,
        "id": 35749445,
        "last_rank": 74741,
        "player_name": "Floris de Bruin",
        "rank": 57227,
        "rank_sort": 57465,
        "total": 2347
      },
      {
        "club_badge_src": null,
        "entry": 4679737,
        "entry_name": "Hoops Up Side Maeda",
        "event_total": 50,
        "has_played": true,
        "id": 35854583,
        "last_rank": 46839,
        "player_name": "Jack Grant",
        "rank": 57227,
        "rank_sort": 57466,
        "total": 2347
      },
      {
        "club_badge_src": null,
        "entry": 4684823,
        "entry_name": "GG",
        "event_total": 51,
        "has_played": true,
        "id": 35901345,
        "last_rank": 48197,
        "player_name": "Chris Anderson",
        "rank": 57227,
        "rank_sort": 57467,
        "total": 2347
      },
      {
        "club_badge_src": null,
        "entry": 4691721,
        "entry_name": "FK Bogutova\u010dka banja",
        "event_total": 58,
        "has_played": true,
        "id": 35961309,
        "last_rank": 59813,
        "player_name": "Marko Jolovic",
        "rank": 57227,
        "rank_sort": 57468,
        "total": 2347
      },
      {
        "club_badge_src": null,
        "entry": 4696804,
        "entry_name": "Ineos",
        "event_total": 51,
        "has_played": true,
        "id": 36004279,
        "last_rank": 48363,
        "player_name": "JOVAN BUTTIGIEG",
        "rank": 57227,
        "rank_sort": 57469,
        "total": 2347
      },
      {
        "club_badge_src": null,
        "entry": 4707227,
        "entry_name": "Big Sam's Mural",
        "event_total": 42,
        "has_played": true,
        "id": 36098212,
        "last_rank": 36348,
        "player_name": "Simon Moss",
        "rank": 57227,
        "rank_sort": 57470,
        "total": 2347
      },
      {
        "club_badge_src": null,
        "entry": 4731646,
        "entry_name": "Luicester City",
        "event_total": 67,
        "has_played": true,
        "id": 36398144,
        "last_rank": 77050,
        "player_name": "Luis David Rojas Rodriguez",
        "rank": 57227,
        "rank_sort": 57471,
        "total": 2347
      },
      {
        "club_badge_src": null,
        "entry": 4760817,
        "entry_name": "Gangsters Allardyce",
        "event_total": 56,
        "has_played": true,
        "id": 36639152,
        "last_rank": 56369,
        "player_name": "Glen Ratcliffe",
        "rank": 57227,
        "rank_sort": 57472,
        "total": 2347
      },
      {
        "club_badge_src": null,
        "entry": 4844817,
        "entry_name": "The Old Filth",
        "event_total": 35,
        "has_played": true,
        "id": 37323306,
        "last_rank": 28609,
        "player_name": "Nick Lambert",
        "rank": 57227,
        "rank_sort": 57473,
        "total": 2347
      },
      {
        "club_badge_src": null,
        "entry": 4889073,
        "entry_name": "Yatir FC",
        "event_total": 47,
        "has_played": true,
        "id": 37694311,
        "last_rank": 42648,
        "player_name": "Gabriel Miller",
        "rank": 57227,
        "rank_sort": 57474,
        "total": 2347
      },
      {
        "club_badge_src": null,
        "entry": 4925046,
        "entry_name": "21sttime",
        "event_total": 41,
        "has_played": true,
        "id": 37989000,
        "last_rank": 35166,
        "player_name": "Martin Malchev",
        "rank": 57227,
        "rank_sort": 57475,
        "total": 2347
      },
      {
        "club_badge_src": null,
        "entry": 4964083,
        "entry_name": "beginners luck",
        "event_total": 52,
        "has_played": true,
        "id": 38308386,
        "last_rank": 50199,
        "player_name": "Sotiri Geo",
        "rank": 57227,
        "rank_sort": 57476,
        "total": 2347
      },
      {
        "club_badge_src": "https://fantasy.premierleague.com/gcs/plfpl-production-adobe-approved/plfpl-production/4999093/efe6eea2-fb93-4c1f-8cc1-9a8fd0e93837.png",
        "entry": 4999093,
        "entry_name": "Casa Bonita",
        "event_total": 58,
        "has_played": true,
        "id": 38600688,
        "last_rank": 59813,
        "player_name": "Adarsh Kisoensingh",
        "rank": 57227,
        "rank_sort": 57477,
        "total": 2347
      },
      {
        "club_badge_src": null,
        "entry": 5008798,
        "entry_name": "Cunha Be Sly",
        "event_total": 77,
        "has_played": true,
        "id": 38678222,
        "last_rank": 100572,
        "player_name": "Ryan Walsh",
        "rank": 57227,
        "rank_sort": 57478,
        "total": 2347
      },
      {
        "club_badge_src": null,
        "entry": 5071510,
        "entry_name": ".",
        "event_total": 72,
        "has_played": true,
        "id": 39192970,
        "last_rank": 88348,
        "player_name": "Aidan Lawson",
        "rank": 57227,
        "rank_sort": 57479,
        "total": 2347
      },
      {
        "club_badge_src": null,
        "entry": 5095350,
        "entry_name": "Rabs to Riches",
        "event_total": 61,
        "has_played": true,
        "id": 39382992,
        "last_rank": 65163,
        "player_name": "Rabeel Warraich",
        "rank": 57227,
        "rank_sort": 57480,
        "total": 2347
      },
      {
        "club_badge_src": "https://fantasy.premierleague.com/gcs/plfpl-production-adobe-approved/plfpl-production/5128106/d1a030f6-d881-45d6-8e67-96611f4fd7ba.png",
        "entry": 5128106,
        "entry_name": "FC Beercelona",
        "event_total": 51,
        "has_played": true,
        "id": 39658219,
        "last_rank": 48197,
        "player_name": "Gareth Beer",
        "rank": 57227,
        "rank_sort": 57481,
        "total": 2347
      },
      {
        "club_badge_src": null,
        "entry": 5176185,
        "entry_name": "Bethnal XI",
        "event_total": 54,
        "has_played": true,
        "id": 40064042,
        "last_rank": 53023,
        "player_name": "Jordan St George",
        "rank": 57227,
        "rank_sort": 57482,
        "total": 2347
      },
      {
        "club_badge_src": null,
        "entry": 5188976,
        "entry_name": "4rsenal",
        "event_total": 64,
        "has_played": true,
        "id": 40170557,
        "last_rank": 70985,
        "player_name": "Daniel Dell'Armi",
        "rank": 57227,
        "rank_sort": 57483,
        "total": 2347
      },
      {
        "club_badge_src": null,
        "entry": 5205292,
        "entry_name": "Master FC",
        "event_total": 67,
        "has_played": true,
        "id": 40315412,
        "last_rank": 77050,
        "player_name": "MOHAMMED MASTER",
        "rank": 57227,
        "rank_sort": 57484,
        "total": 2347
      },
      {
        "club_badge_src": null,
        "entry": 5205340,
        "entry_name": "Second Szn Angeball",
        "event_total": 50,
        "has_played": true,
        "id": 40315799,
        "last_rank": 46839,
        "player_name": "Josh Davidson",
        "rank": 57227,
        "rank_sort": 57485,
        "total": 2347
      },
      {
        "club_badge_src": null,
        "entry": 5245685,
        "entry_name": "Fan Clan",
        "event_total": 56,
        "has_played": true,
        "id": 40653931,
        "last_rank": 56180,
        "player_name": "David Fan",
        "rank": 57227,
        "rank_sort": 57486,
        "total": 2347
      },
      {
        "club_badge_src": null,
        "entry": 5281175,
        "entry_name": "Dolce & Lallana",
        "event_total": 66,
        "has_played": true,
        "id": 40934441,
        "last_rank": 74898,
        "player_name": "Olivia Doody",
        "rank": 57227,
        "rank_sort": 57487,
        "total": 2347
      },
      {
        "club_badge_src": null,
        "entry": 5315354,
        "entry_name": "Change Name",
        "event_total": 55,
        "has_played": true,
        "id": 41203143,
        "last_rank": 54667,
        "player_name": "Omar Siddiqui",
        "rank": 57227,
        "rank_sort": 57488,
        "total": 2347
      },
      {
        "club_badge_src": "https://fantasy.premierleague.com/gcs/plfpl-production-adobe-approved/plfpl-production/5338699/437e5a91-7854-4236-9315-ba7a030a19c0.png",
        "entry": 5338699,
        "entry_name": "McGinn and Tonic",
        "event_total": 38,
        "has_played": true,
        "id": 41397418,
        "last_rank": 31747,
        "player_name": "Joe Goodchild",
        "rank": 57227,
        "rank_sort": 57489,
        "total": 2347
      },
      {
        "club_badge_src": null,
        "entry": 5411368,
        "entry_name": "El Matador \ufffd",
        "event_total": 35,
        "has_played": true,
        "id": 42081263,
        "last_rank": 28906,
        "player_name": "Muhammad Nour",
        "rank": 57227,
        "rank_sort": 57490,
        "total": 2347
      },
      {
        "club_badge_src": null,
        "entry": 5416499,
        "entry_name": "106CM",
        "event_total": 58,
        "has_played": true,
        "id": 42124231,
        "last_rank": 59632,
        "player_name": "Nicholas Williams",
        "rank": 57227,
        "rank_sort": 57491,
        "total": 2347
      },
      {
        "club_badge_src": null,
        "entry": 5425369,
        "entry_name": "Htown Hustlers",
        "event_total": 47,
        "has_played": true,
        "id": 42198228,
        "last_rank": 42940,
        "player_name": "Niall Carmody",
        "rank": 57227,
        "rank_sort": 57492,
        "total": 2347
      },
      {
        "club_badge_src": "https://fantasy.premierleague.com/gcs/plfpl-production-adobe-approved/plfpl-production/5468799/a2ac3a91-3acf-4856-bf05-6f8f21e29dfc.png",
        "entry": 5468799,
        "entry_name": "Fliying Huntsmen",
        "event_total": 53,
        "has_played": true,
        "id": 42564471,
        "last_rank": 51137,
        "player_name": "Paul Van Deuren",
        "rank": 57227,
        "rank_sort": 57493,
        "total": 2347
      },
      {
        "club_badge_src": null,
        "entry": 5499701,
        "entry_name": "allan",
        "event_total": 40,
        "has_played": true,
        "id": 42851294,
        "last_rank": 34051,
        "player_name": "Anthony Kitaka",
        "rank": 57227,
        "rank_sort": 57494,
        "total": 2347
      },
      {
        "club_badge_src": null,
        "entry": 5547331,
        "entry_name": "Charva XI",
        "event_total": 71,
        "has_played": true,
        "id": 43291305,
        "last_rank": 86304,
        "player_name": "Sondre Kristensen",
        "rank": 57227,
        "rank_sort": 57495,
        "total": 2347
      },
      {
        "club_badge_src": null,
        "entry": 5585190,
        "entry_name": "Mount Keverest",
        "event_total": 71,
        "has_played": true,
        "id": 43627285,
        "last_rank": 86054,
        "player_name": "Kevin Daly",
        "rank": 57227,
        "rank_sort": 57496,
        "total": 2347
      },
      {
        "club_badge_src": null,
        "entry": 5636323,
        "entry_name": "Birres springisar",
        "event_total": 50,
        "has_played": true,
        "id": 44072887,
        "last_rank": 46660,
        "player_name": "Birmand Majid",
        "rank": 57227,
        "rank_sort": 57497,
        "total": 2347
      },
      {
        "club_badge_src": null,
        "entry": 5638419,
        "entry_name": "Sporting Abeergut",
        "event_total": 57,
        "has_played": true,
        "id": 44091366,
        "last_rank": 57857,
        "player_name": "Ben Brown",
        "rank": 57227,
        "rank_sort": 57498,
        "total": 2347
      },
      {
        "club_badge_src": null,
        "entry": 5675851,
        "entry_name": "Rave Cave Dave",
        "event_total": 47,
        "has_played": true,
        "id": 44419229,
        "last_rank": 42648,
        "player_name": "Dav\u00ed\u00f0 Atlason",
        "rank": 57227,
        "rank_sort": 57499,
        "total": 2347
      },
      {
        "club_badge_src": null,
        "entry": 5685200,
        "entry_name": "furnes squad",
        "event_total": 64,
        "has_played": true,
        "id": 44501335,
        "last_rank": 70757,
        "player_name": "Anders Furnes",
        "rank": 57227,
        "rank_sort": 57500,
        "total": 2347
      }
    ]
  }
}