{
  "last_updated_data": "2026-05-24T23:28:17Z",
  "league": {
    "admin_entry": null,
    "closed": false,
    "code_privacy": "p",
    "created": "2025-07-20T23:14:33.933835Z",
    "cup_league": 2815434,
    "has_cup": true,
    "id": 314,
    "league_type": "s",
    "max_entries": null,
    "name": "Overall",
    "rank": null,
    "scoring": "c",
    "start_event": 1
  },
  "new_entries": {
    "has_next": false,
    "page": 1,
    "results": []
  },
  "standings": {
    "has_next": true,
    "page": 1118,
    "results": [
      {
        "club_badge_src": null,
        "entry": 3676162,
        "entry_name": "Scallywags",
        "event_total": 39,
        "has_played": true,
        "id": 27418437,
        "last_rank": 31620,
        "player_name": "Jackie Russell",
        "rank": 55651,
        "rank_sort": 55851,
        "total": 2348
      },
      {
        "club_badge_src": null,
        "entry": 3698850,
        "entry_name": "Hoops",
        "event_total": 57,
        "has_played": true,
        "id": 27597055,
        "last_rank": 56708,
        "player_name": "Iain McFeat",
        "rank": 55651,
        "rank_sort": 55852,
        "total": 2348
      },
      {
        "club_badge_src": null,
        "entry": 3740581,
        "entry_name": "Change Name",
        "event_total": 61,
        "has_played": true,
        "id": 27922739,
        "last_rank": 63390,
        "player_name": "Louis Bonsall",
        "rank": 55651,
        "rank_sort": 55853,
        "total": 2348
      },
      {
        "club_badge_src": null,
        "entry": 3833879,
        "entry_name": "MurderOnZidanesFloor",
        "event_total": 68,
        "has_played": true,
        "id": 28680953,
        "last_rank": 76947,
        "player_name": "Drew Abercrombie",
        "rank": 55651,
        "rank_sort": 55854,
        "total": 2348
      },
      {
        "club_badge_src": null,
        "entry": 3860369,
        "entry_name": "Liquid Football",
        "event_total": 58,
        "has_played": true,
        "id": 28943743,
        "last_rank": 58071,
        "player_name": "Richard Bradford",
        "rank": 55651,
        "rank_sort": 55855,
        "total": 2348
      },
      {
        "club_badge_src": null,
        "entry": 3872356,
        "entry_name": "Miley Offensive",
        "event_total": 60,
        "has_played": true,
        "id": 29063272,
        "last_rank": 54494,
        "player_name": "Alan Pierce",
        "rank": 55651,
        "rank_sort": 55856,
        "total": 2348
      },
      {
        "club_badge_src": null,
        "entry": 3888044,
        "entry_name": "Livin' Saliba Loca",
        "event_total": 55,
        "has_played": true,
        "id": 29216334,
        "last_rank": 53023,
        "player_name": "Mark Cooper",
        "rank": 55651,
        "rank_sort": 55857,
        "total": 2348
      },
      {
        "club_badge_src": null,
        "entry": 3959147,
        "entry_name": "Hakuna Mateta",
        "event_total": 66,
        "has_played": true,
        "id": 29787390,
        "last_rank": 72815,
        "player_name": "Angela Mee",
        "rank": 55651,
        "rank_sort": 55858,
        "total": 2348
      },
      {
        "club_badge_src": null,
        "entry": 3972372,
        "entry_name": "Erkan",
        "event_total": 68,
        "has_played": true,
        "id": 29894911,
        "last_rank": 77050,
        "player_name": "Erik Lennartsson",
        "rank": 55651,
        "rank_sort": 55859,
        "total": 2348
      },
      {
        "club_badge_src": null,
        "entry": 3987854,
        "entry_name": "B2B Fc",
        "event_total": 47,
        "has_played": true,
        "id": 30024867,
        "last_rank": 41162,
        "player_name": "Simon Lindroos",
        "rank": 55651,
        "rank_sort": 55860,
        "total": 2348
      },
      {
        "club_badge_src": null,
        "entry": 4000710,
        "entry_name": "Beb\u00e9 come back",
        "event_total": 63,
        "has_played": true,
        "id": 30132795,
        "last_rank": 67063,
        "player_name": "Kai Menzel",
        "rank": 55651,
        "rank_sort": 55861,
        "total": 2348
      },
      {
        "club_badge_src": "https://fantasy.premierleague.com/gcs/plfpl-production-adobe-approved/plfpl-production/4044468/5ec0a360-b78c-45cb-baf6-8704e79e8281.png",
        "entry": 4044468,
        "entry_name": "Audere est Facere",
        "event_total": 46,
        "has_played": true,
        "id": 30503814,
        "last_rank": 40036,
        "player_name": "Joe Tilbrook",
        "rank": 55651,
        "rank_sort": 55862,
        "total": 2348
      },
      {
        "club_badge_src": null,
        "entry": 4091227,
        "entry_name": "Lesados SL Comadres",
        "event_total": 76,
        "has_played": true,
        "id": 30889301,
        "last_rank": 95640,
        "player_name": "Diogo Rodrigues",
        "rank": 55651,
        "rank_sort": 55863,
        "total": 2348
      },
      {
        "club_badge_src": null,
        "entry": 4094665,
        "entry_name": "It's ok to come 2nd",
        "event_total": 54,
        "has_played": true,
        "id": 30916713,
        "last_rank": 51720,
        "player_name": "Gavin Martinig",
        "rank": 55651,
        "rank_sort": 55864,
        "total": 2348
      },
      {
        "club_badge_src": null,
        "entry": 4107857,
        "entry_name": "Wirtz Team Ever",
        "event_total": 63,
        "has_played": true,
        "id": 31022220,
        "last_rank": 66848,
        "player_name": "Neil McKenna",
        "rank": 55651,
        "rank_sort": 55865,
        "total": 2348
      },
      {
        "club_badge_src": null,
        "entry": 4161077,
        "entry_name": "Bas united",
        "event_total": 52,
        "has_played": true,
        "id": 31459768,
        "last_rank": 48363,
        "player_name": "Bas Heemskerk",
        "rank": 55651,
        "rank_sort": 55866,
        "total": 2348
      },
      {
        "club_badge_src": "https://fantasy.premierleague.com/gcs/plfpl-production-adobe-approved/plfpl-production/4185976/8bbdb984-4ff8-4a39-9ecc-b441be3cf6f6.png",
        "entry": 4185976,
        "entry_name": "A Cunha Mateta",
        "event_total": 53,
        "has_played": true,
        "id": 31672460,
        "last_rank": 49880,
        "player_name": "Darren Paffett",
        "rank": 55651,
        "rank_sort": 55867,
        "total": 2348
      },
      {
        "club_badge_src": null,
        "entry": 4282538,
        "entry_name": "WHAT BOTTLE???",
        "event_total": 54,
        "has_played": true,
        "id": 32480690,
        "last_rank": 51137,
        "player_name": "Erik Gerteisen",
        "rank": 55651,
        "rank_sort": 55868,
        "total": 2348
      },
      {
        "club_badge_src": null,
        "entry": 4284700,
        "entry_name": "Black Cole Sun",
        "event_total": 72,
        "has_played": true,
        "id": 32498487,
        "last_rank": 86304,
        "player_name": "Matthew Lee-Smith",
        "rank": 55651,
        "rank_sort": 55869,
        "total": 2348
      },
      {
        "club_badge_src": "https://fantasy.premierleague.com/gcs/plfpl-production-adobe-approved/plfpl-production/4381120/38c7fb97-b349-4e48-959e-9911a1af6d05.png",
        "entry": 4381120,
        "entry_name": "jeffskiiii",
        "event_total": 51,
        "has_played": true,
        "id": 33294317,
        "last_rank": 47163,
        "player_name": "jeff Szn",
        "rank": 55651,
        "rank_sort": 55870,
        "total": 2348
      },
      {
        "club_badge_src": null,
        "entry": 4395940,
        "entry_name": "pep 14",
        "event_total": 67,
        "has_played": true,
        "id": 33425998,
        "last_rank": 74898,
        "player_name": "Said Albalushi",
        "rank": 55651,
        "rank_sort": 55871,
        "total": 2348
      },
      {
        "club_badge_src": null,
        "entry": 4425914,
        "entry_name": "Piroe-na Virus",
        "event_total": 67,
        "has_played": true,
        "id": 33686324,
        "last_rank": 74898,
        "player_name": "Oliver Fox",
        "rank": 55651,
        "rank_sort": 55872,
        "total": 2348
      },
      {
        "club_badge_src": null,
        "entry": 4435693,
        "entry_name": "Reality Soucek",
        "event_total": 56,
        "has_played": true,
        "id": 33773165,
        "last_rank": 54494,
        "player_name": "Harry Robinson",
        "rank": 55651,
        "rank_sort": 55873,
        "total": 2348
      },
      {
        "club_badge_src": null,
        "entry": 4437954,
        "entry_name": "COYS",
        "event_total": 59,
        "has_played": true,
        "id": 33792003,
        "last_rank": 59813,
        "player_name": "Justin Hannan",
        "rank": 55651,
        "rank_sort": 55874,
        "total": 2348
      },
      {
        "club_badge_src": null,
        "entry": 4463675,
        "entry_name": "Purple Haze",
        "event_total": 39,
        "has_played": true,
        "id": 34008250,
        "last_rank": 31995,
        "player_name": "Thomas Chung",
        "rank": 55651,
        "rank_sort": 55875,
        "total": 2348
      },
      {
        "club_badge_src": null,
        "entry": 4496308,
        "entry_name": "EddyEliteFC B",
        "event_total": 62,
        "has_played": true,
        "id": 34276183,
        "last_rank": 65163,
        "player_name": "Eddy Zamhary",
        "rank": 55651,
        "rank_sort": 55876,
        "total": 2348
      },
      {
        "club_badge_src": null,
        "entry": 4511236,
        "entry_name": "Nextplease",
        "event_total": 58,
        "has_played": true,
        "id": 34398713,
        "last_rank": 58071,
        "player_name": "Tom\u00e1\u0161 Semer\u00e1d",
        "rank": 55651,
        "rank_sort": 55877,
        "total": 2348
      },
      {
        "club_badge_src": null,
        "entry": 4571703,
        "entry_name": "DJ United",
        "event_total": 48,
        "has_played": true,
        "id": 34890227,
        "last_rank": 42506,
        "player_name": "Danny Johnston",
        "rank": 55651,
        "rank_sort": 55878,
        "total": 2348
      },
      {
        "club_badge_src": null,
        "entry": 4658995,
        "entry_name": "FPL virgin",
        "event_total": 66,
        "has_played": true,
        "id": 35668287,
        "last_rank": 72815,
        "player_name": "Cameron Lewis",
        "rank": 55651,
        "rank_sort": 55879,
        "total": 2348
      },
      {
        "club_badge_src": null,
        "entry": 4675958,
        "entry_name": "Livin' Lavia Loca",
        "event_total": 62,
        "has_played": true,
        "id": 35820855,
        "last_rank": 65163,
        "player_name": "Janis Zemelis",
        "rank": 55651,
        "rank_sort": 55880,
        "total": 2348
      },
      {
        "club_badge_src": null,
        "entry": 4767505,
        "entry_name": "Blue Nosed Reijnders",
        "event_total": 57,
        "has_played": true,
        "id": 36692811,
        "last_rank": 56099,
        "player_name": "Sarosh Zaman",
        "rank": 55651,
        "rank_sort": 55881,
        "total": 2348
      },
      {
        "club_badge_src": null,
        "entry": 4837416,
        "entry_name": "Tesco McNeil Deal",
        "event_total": 67,
        "has_played": true,
        "id": 37262091,
        "last_rank": 74787,
        "player_name": "Jake Dale-Rourke",
        "rank": 55651,
        "rank_sort": 55882,
        "total": 2348
      },
      {
        "club_badge_src": null,
        "entry": 4886926,
        "entry_name": "Amogrim Reality FC",
        "event_total": 52,
        "has_played": true,
        "id": 37677045,
        "last_rank": 42506,
        "player_name": "Shiv R",
        "rank": 55651,
        "rank_sort": 55883,
        "total": 2348
      },
      {
        "club_badge_src": null,
        "entry": 4954532,
        "entry_name": "Celjski vepri",
        "event_total": 59,
        "has_played": true,
        "id": 38231778,
        "last_rank": 59813,
        "player_name": "Nejc Doler",
        "rank": 55651,
        "rank_sort": 55884,
        "total": 2348
      },
      {
        "club_badge_src": null,
        "entry": 5009177,
        "entry_name": "Newman's Own",
        "event_total": 59,
        "has_played": true,
        "id": 38681280,
        "last_rank": 59632,
        "player_name": "Jared Newman",
        "rank": 55651,
        "rank_sort": 55885,
        "total": 2348
      },
      {
        "club_badge_src": null,
        "entry": 5015870,
        "entry_name": "\u062c\u063a\u0645\u0647",
        "event_total": 60,
        "has_played": true,
        "id": 38734506,
        "last_rank": 61411,
        "player_name": "\u0644\u0640\u064a\u062a\u0640\u0634\u0640\u0627 -\ufe0f",
        "rank": 55651,
        "rank_sort": 55886,
        "total": 2348
      },
      {
        "club_badge_src": null,
        "entry": 5175767,
        "entry_name": "THE METS",
        "event_total": 52,
        "has_played": true,
        "id": 40060525,
        "last_rank": 48363,
        "player_name": "Dan Williams",
        "rank": 55651,
        "rank_sort": 55887,
        "total": 2348
      },
      {
        "club_badge_src": "https://fantasy.premierleague.com/gcs/plfpl-production-adobe-approved/plfpl-production/5229739/c6f7811a-0fa2-4ee8-be8d-f7bc76607280.png",
        "entry": 5229739,
        "entry_name": "radimo_subotom",
        "event_total": 69,
        "has_played": true,
        "id": 40524661,
        "last_rank": 79079,
        "player_name": "Djordje Rajic",
        "rank": 55651,
        "rank_sort": 55888,
        "total": 2348
      },
      {
        "club_badge_src": null,
        "entry": 5262525,
        "entry_name": "Makin up the numbers",
        "event_total": 43,
        "has_played": true,
        "id": 40787268,
        "last_rank": 36624,
        "player_name": "Gary Booth",
        "rank": 55651,
        "rank_sort": 55889,
        "total": 2348
      },
      {
        "club_badge_src": null,
        "entry": 5368302,
        "entry_name": "Howe-ay the lads",
        "event_total": 66,
        "has_played": true,
        "id": 41708006,
        "last_rank": 73038,
        "player_name": "Andrew Simpson",
        "rank": 55651,
        "rank_sort": 55890,
        "total": 2348
      },
      {
        "club_badge_src": null,
        "entry": 5403198,
        "entry_name": "Under My Cucurella",
        "event_total": 65,
        "has_played": true,
        "id": 42013237,
        "last_rank": 70757,
        "player_name": "Charlie Ross",
        "rank": 55651,
        "rank_sort": 55891,
        "total": 2348
      },
      {
        "club_badge_src": null,
        "entry": 5441837,
        "entry_name": "Walid fc",
        "event_total": 45,
        "has_played": true,
        "id": 42339579,
        "last_rank": 38774,
        "player_name": "Al-walid Sirriyag",
        "rank": 55651,
        "rank_sort": 55892,
        "total": 2348
      },
      {
        "club_badge_src": null,
        "entry": 5469382,
        "entry_name": "helliz",
        "event_total": 52,
        "has_played": true,
        "id": 42569895,
        "last_rank": 48363,
        "player_name": "isma hellis",
        "rank": 55651,
        "rank_sort": 55893,
        "total": 2348
      },
      {
        "club_badge_src": "https://fantasy.premierleague.com/gcs/plfpl-production-adobe-approved/plfpl-production/5511143/4d1832fd-8c9b-44a6-9017-1670b7bb86e9.png",
        "entry": 5511143,
        "entry_name": "Gyurmacia FC",
        "event_total": 61,
        "has_played": true,
        "id": 42957447,
        "last_rank": 63390,
        "player_name": "Gy\u00f6rgy Ferencz",
        "rank": 55651,
        "rank_sort": 55894,
        "total": 2348
      },
      {
        "club_badge_src": null,
        "entry": 5541457,
        "entry_name": "Victorious Secret",
        "event_total": 49,
        "has_played": true,
        "id": 43240111,
        "last_rank": 44303,
        "player_name": "Jesse Thacher",
        "rank": 55651,
        "rank_sort": 55895,
        "total": 2348
      },
      {
        "club_badge_src": "https://fantasy.premierleague.com/gcs/plfpl-production-adobe-approved/plfpl-production/5611393/ef766ee1-4bcc-44b2-bf05-7447f2c0a022.png",
        "entry": 5611393,
        "entry_name": "No Salah-d Days",
        "event_total": 68,
        "has_played": true,
        "id": 43855302,
        "last_rank": 77258,
        "player_name": "Faraz Hanan",
        "rank": 55651,
        "rank_sort": 55896,
        "total": 2348
      },
      {
        "club_badge_src": null,
        "entry": 5640145,
        "entry_name": "Liam Messi",
        "event_total": 74,
        "has_played": true,
        "id": 44106463,
        "last_rank": 90746,
        "player_name": "Liam Messi",
        "rank": 55651,
        "rank_sort": 55897,
        "total": 2348
      },
      {
        "club_badge_src": null,
        "entry": 5676243,
        "entry_name": "Tra La La La La",
        "event_total": 65,
        "has_played": true,
        "id": 44422467,
        "last_rank": 70757,
        "player_name": "Adam Schwarzschild",
        "rank": 55651,
        "rank_sort": 55898,
        "total": 2348
      },
      {
        "club_badge_src": null,
        "entry": 5748160,
        "entry_name": "Jorginho's dogs",
        "event_total": 65,
        "has_played": true,
        "id": 45050710,
        "last_rank": 70985,
        "player_name": "Christian Wood",
        "rank": 55651,
        "rank_sort": 55899,
        "total": 2348
      },
      {
        "club_badge_src": null,
        "entry": 5770848,
        "entry_name": "Change Name",
        "event_total": 78,
        "has_played": true,
        "id": 45244517,
        "last_rank": 101419,
        "player_name": "Scott Bland",
        "rank": 55651,
        "rank_sort": 55900,
        "total": 2348
      }
    ]
  }
}