{
  "last_updated_data": "2026-05-24T23:28:17Z",
  "league": {
    "admin_entry": null,
    "closed": false,
    "code_privacy": "p",
    "created": "2025-07-20T23:14:33.933835Z",
    "cup_league": 2815434,
    "has_cup": true,
    "id": 314,
    "league_type": "s",
    "max_entries": null,
    "name": "Overall",
    "rank": null,
    "scoring": "c",
    "start_event": 1
  },
  "new_entries": {
    "has_next": false,
    "page": 1,
    "results": []
  },
  "standings": {
    "has_next": true,
    "page": 1018,
    "results": [
      {
        "club_badge_src": null,
        "entry": 3924304,
        "entry_name": "Cunha Kick It!",
        "event_total": 79,
        "has_played": true,
        "id": 29511703,
        "last_rank": 95436,
        "player_name": "Logan Kirk",
        "rank": 50846,
        "rank_sort": 50851,
        "total": 2351
      },
      {
        "club_badge_src": null,
        "entry": 4174334,
        "entry_name": "Zabijaci",
        "event_total": 61,
        "has_played": true,
        "id": 31573328,
        "last_rank": 57776,
        "player_name": "Mat\u00fa\u0161 Hitka",
        "rank": 50846,
        "rank_sort": 50852,
        "total": 2351
      },
      {
        "club_badge_src": null,
        "entry": 4252541,
        "entry_name": "Green Machine",
        "event_total": 62,
        "has_played": true,
        "id": 32237562,
        "last_rank": 59464,
        "player_name": "Chris Green",
        "rank": 50846,
        "rank_sort": 50853,
        "total": 2351
      },
      {
        "club_badge_src": null,
        "entry": 6158122,
        "entry_name": "Zubi Doobie Doo",
        "event_total": 39,
        "has_played": true,
        "id": 48682990,
        "last_rank": 28546,
        "player_name": "Denzel Domnic",
        "rank": 50846,
        "rank_sort": 50854,
        "total": 2351
      },
      {
        "club_badge_src": "https://fantasy.premierleague.com/gcs/plfpl-production-adobe-approved/plfpl-production/6955109/e85e9bb6-b189-4d83-9e3d-4d9aedf0053b.png",
        "entry": 6955109,
        "entry_name": "The Kings",
        "event_total": 59,
        "has_played": true,
        "id": 55773017,
        "last_rank": 54380,
        "player_name": "Elliot and Nicole King",
        "rank": 50846,
        "rank_sort": 50855,
        "total": 2351
      },
      {
        "club_badge_src": null,
        "entry": 7167206,
        "entry_name": "Atletico \u00d6xab\u00e4ck",
        "event_total": 44,
        "has_played": true,
        "id": 57827233,
        "last_rank": 33845,
        "player_name": "Per Bengtsson",
        "rank": 50846,
        "rank_sort": 50856,
        "total": 2351
      },
      {
        "club_badge_src": null,
        "entry": 7582599,
        "entry_name": "All Gone Pete Tong",
        "event_total": 64,
        "has_played": true,
        "id": 62106769,
        "last_rank": 63080,
        "player_name": "John Marchant",
        "rank": 50846,
        "rank_sort": 50857,
        "total": 2351
      },
      {
        "club_badge_src": null,
        "entry": 7777069,
        "entry_name": "Predator FC",
        "event_total": 60,
        "has_played": true,
        "id": 63866745,
        "last_rank": 56047,
        "player_name": "Akinola Akinboboye",
        "rank": 50846,
        "rank_sort": 50858,
        "total": 2351
      },
      {
        "club_badge_src": null,
        "entry": 9084819,
        "entry_name": "Nselk",
        "event_total": 58,
        "has_played": true,
        "id": 76302958,
        "last_rank": 52722,
        "player_name": "Hilde Raaen",
        "rank": 50846,
        "rank_sort": 50859,
        "total": 2351
      },
      {
        "club_badge_src": null,
        "entry": 587,
        "entry_name": "da",
        "event_total": 59,
        "has_played": true,
        "id": 3240,
        "last_rank": 48084,
        "player_name": "Daniel Andersson",
        "rank": 50860,
        "rank_sort": 50860,
        "total": 2351
      },
      {
        "club_badge_src": null,
        "entry": 28848,
        "entry_name": "ork. Kristali",
        "event_total": 44,
        "has_played": true,
        "id": 182380,
        "last_rank": 33936,
        "player_name": "Nikolay Rachev",
        "rank": 50860,
        "rank_sort": 50861,
        "total": 2351
      },
      {
        "club_badge_src": "https://fantasy.premierleague.com/gcs/plfpl-production-adobe-approved/plfpl-production/57601/7e2c7042-e4f0-41d3-90b2-21fd9062ef7c.png",
        "entry": 57601,
        "entry_name": "Marone",
        "event_total": 59,
        "has_played": true,
        "id": 371076,
        "last_rank": 54494,
        "player_name": "Marouan Lamrani",
        "rank": 50860,
        "rank_sort": 50862,
        "total": 2351
      },
      {
        "club_badge_src": null,
        "entry": 72918,
        "entry_name": "Absolutely Fabregas",
        "event_total": 50,
        "has_played": true,
        "id": 473925,
        "last_rank": 41101,
        "player_name": "Dermot Hainey",
        "rank": 50860,
        "rank_sort": 50863,
        "total": 2351
      },
      {
        "club_badge_src": null,
        "entry": 190938,
        "entry_name": "D777",
        "event_total": 57,
        "has_played": true,
        "id": 1264547,
        "last_rank": 51220,
        "player_name": "Dane Schofield",
        "rank": 50860,
        "rank_sort": 50864,
        "total": 2351
      },
      {
        "club_badge_src": null,
        "entry": 308325,
        "entry_name": "HammersHouseofHorror",
        "event_total": 65,
        "has_played": true,
        "id": 2065191,
        "last_rank": 64830,
        "player_name": "Nick Hewat",
        "rank": 50860,
        "rank_sort": 50865,
        "total": 2351
      },
      {
        "club_badge_src": null,
        "entry": 321195,
        "entry_name": "Mais FC",
        "event_total": 54,
        "has_played": true,
        "id": 2152654,
        "last_rank": 46660,
        "player_name": "Marius Fredriksen",
        "rank": 50860,
        "rank_sort": 50866,
        "total": 2351
      },
      {
        "club_badge_src": null,
        "entry": 324174,
        "entry_name": "Helevatakloppi",
        "event_total": 66,
        "has_played": true,
        "id": 2172274,
        "last_rank": 66644,
        "player_name": "Kalle Aitj\u00e4rvi",
        "rank": 50860,
        "rank_sort": 50867,
        "total": 2351
      },
      {
        "club_badge_src": null,
        "entry": 415370,
        "entry_name": "Mason Mount Everest",
        "event_total": 53,
        "has_played": true,
        "id": 2784502,
        "last_rank": 45182,
        "player_name": "Sam Cawthra",
        "rank": 50860,
        "rank_sort": 50868,
        "total": 2351
      },
      {
        "club_badge_src": "https://fantasy.premierleague.com/gcs/plfpl-production-adobe-approved/plfpl-production/782241/81a709d4-4e93-4ae3-ab7b-baba0871875b.png",
        "entry": 782241,
        "entry_name": "WhoWillBuyMyBread",
        "event_total": 56,
        "has_played": true,
        "id": 5340657,
        "last_rank": 49691,
        "player_name": "Danny Greenwood",
        "rank": 50860,
        "rank_sort": 50869,
        "total": 2351
      },
      {
        "club_badge_src": null,
        "entry": 905733,
        "entry_name": "Three Peat FC",
        "event_total": 86,
        "has_played": true,
        "id": 6225266,
        "last_rank": 114095,
        "player_name": "Josh Pinder",
        "rank": 50860,
        "rank_sort": 50870,
        "total": 2351
      },
      {
        "club_badge_src": null,
        "entry": 1126853,
        "entry_name": "Hamza Al",
        "event_total": 61,
        "has_played": true,
        "id": 7809580,
        "last_rank": 57857,
        "player_name": "Hamza Laaraj",
        "rank": 50860,
        "rank_sort": 50871,
        "total": 2351
      },
      {
        "club_badge_src": null,
        "entry": 1179937,
        "entry_name": "The Invincibles",
        "event_total": 63,
        "has_played": true,
        "id": 8186826,
        "last_rank": 61315,
        "player_name": "Thilak Thangarasa",
        "rank": 50860,
        "rank_sort": 50872,
        "total": 2351
      },
      {
        "club_badge_src": null,
        "entry": 1456658,
        "entry_name": "Jim Carrys Klaphatte",
        "event_total": 63,
        "has_played": true,
        "id": 10150258,
        "last_rank": 61239,
        "player_name": "Anders J\u00f8rgensen",
        "rank": 50860,
        "rank_sort": 50873,
        "total": 2351
      },
      {
        "club_badge_src": null,
        "entry": 1556672,
        "entry_name": "Partey Poopers",
        "event_total": 72,
        "has_played": true,
        "id": 10869349,
        "last_rank": 78979,
        "player_name": "Joseph Sellers West",
        "rank": 50860,
        "rank_sort": 50874,
        "total": 2351
      },
      {
        "club_badge_src": null,
        "entry": 1621723,
        "entry_name": "jetovhlave",
        "event_total": 54,
        "has_played": true,
        "id": 11349831,
        "last_rank": 46591,
        "player_name": "Filip Nosek",
        "rank": 50860,
        "rank_sort": 50875,
        "total": 2351
      },
      {
        "club_badge_src": null,
        "entry": 1695516,
        "entry_name": "Eze Come Eze Go",
        "event_total": 59,
        "has_played": true,
        "id": 11875342,
        "last_rank": 54416,
        "player_name": "Bradley Remy",
        "rank": 50860,
        "rank_sort": 50876,
        "total": 2351
      },
      {
        "club_badge_src": null,
        "entry": 1877573,
        "entry_name": "Change Name",
        "event_total": 52,
        "has_played": true,
        "id": 13224015,
        "last_rank": 43757,
        "player_name": "Sam Webster",
        "rank": 50860,
        "rank_sort": 50877,
        "total": 2351
      },
      {
        "club_badge_src": null,
        "entry": 2263225,
        "entry_name": "hardy boys",
        "event_total": 55,
        "has_played": true,
        "id": 16136217,
        "last_rank": 48197,
        "player_name": "Kaleab Gulilat",
        "rank": 50860,
        "rank_sort": 50878,
        "total": 2351
      },
      {
        "club_badge_src": null,
        "entry": 2447869,
        "entry_name": "Lindog Millionaire",
        "event_total": 51,
        "has_played": true,
        "id": 17507376,
        "last_rank": 42401,
        "player_name": "Joe Linney",
        "rank": 50860,
        "rank_sort": 50879,
        "total": 2351
      },
      {
        "club_badge_src": null,
        "entry": 2565265,
        "entry_name": "George's Best",
        "event_total": 58,
        "has_played": true,
        "id": 18400929,
        "last_rank": 52738,
        "player_name": "George Beverley",
        "rank": 50860,
        "rank_sort": 50880,
        "total": 2351
      },
      {
        "club_badge_src": null,
        "entry": 3219790,
        "entry_name": "Dosh_XI",
        "event_total": 57,
        "has_played": true,
        "id": 23809486,
        "last_rank": 51220,
        "player_name": "Prince-Roe Mulea",
        "rank": 50860,
        "rank_sort": 50881,
        "total": 2351
      },
      {
        "club_badge_src": "https://fantasy.premierleague.com/gcs/plfpl-production-adobe-approved/plfpl-production/3400140/cc313c95-9684-4b47-9815-324205f2bee5.png",
        "entry": 3400140,
        "entry_name": "Lazers",
        "event_total": 74,
        "has_played": true,
        "id": 25245817,
        "last_rank": 83534,
        "player_name": "Abubakar Haruna",
        "rank": 50860,
        "rank_sort": 50882,
        "total": 2351
      },
      {
        "club_badge_src": null,
        "entry": 3469718,
        "entry_name": "Beto Call Saul",
        "event_total": 55,
        "has_played": true,
        "id": 25794795,
        "last_rank": 48197,
        "player_name": "Matt Toulson",
        "rank": 50860,
        "rank_sort": 50883,
        "total": 2351
      },
      {
        "club_badge_src": "https://fantasy.premierleague.com/gcs/plfpl-production-adobe-approved/plfpl-production/3502331/61277ead-0d7d-469b-b388-d2dbe579d6f8.png",
        "entry": 3502331,
        "entry_name": "VBS.Redlof.B",
        "event_total": 78,
        "has_played": true,
        "id": 26053670,
        "last_rank": 93052,
        "player_name": "Euan Milne",
        "rank": 50860,
        "rank_sort": 50884,
        "total": 2351
      },
      {
        "club_badge_src": null,
        "entry": 4586779,
        "entry_name": "los sicarios",
        "event_total": 51,
        "has_played": true,
        "id": 35021408,
        "last_rank": 42506,
        "player_name": "Dante Lau",
        "rank": 50860,
        "rank_sort": 50885,
        "total": 2351
      },
      {
        "club_badge_src": null,
        "entry": 5398572,
        "entry_name": "RagingBulls#GOAT",
        "event_total": 59,
        "has_played": true,
        "id": 41974398,
        "last_rank": 54494,
        "player_name": "Elas Miah",
        "rank": 50860,
        "rank_sort": 50886,
        "total": 2351
      },
      {
        "club_badge_src": null,
        "entry": 5742403,
        "entry_name": "Prematur Salibration",
        "event_total": 51,
        "has_played": true,
        "id": 45001202,
        "last_rank": 42434,
        "player_name": "Philip McSweeney",
        "rank": 50860,
        "rank_sort": 50887,
        "total": 2351
      },
      {
        "club_badge_src": null,
        "entry": 6090263,
        "entry_name": "Real Salamanders",
        "event_total": 68,
        "has_played": true,
        "id": 48092355,
        "last_rank": 70651,
        "player_name": "Marcus Young",
        "rank": 50860,
        "rank_sort": 50888,
        "total": 2351
      },
      {
        "club_badge_src": null,
        "entry": 6278806,
        "entry_name": "Backstreet Moyes",
        "event_total": 83,
        "has_played": true,
        "id": 49725050,
        "last_rank": 105963,
        "player_name": "Ollie Boesen",
        "rank": 50860,
        "rank_sort": 50889,
        "total": 2351
      },
      {
        "club_badge_src": null,
        "entry": 6301146,
        "entry_name": "DP",
        "event_total": 77,
        "has_played": true,
        "id": 49956546,
        "last_rank": 90494,
        "player_name": "David Pepple",
        "rank": 50860,
        "rank_sort": 50890,
        "total": 2351
      },
      {
        "club_badge_src": null,
        "entry": 6592019,
        "entry_name": "DGS_SITE",
        "event_total": 73,
        "has_played": true,
        "id": 52648960,
        "last_rank": 81244,
        "player_name": "Luke Bricknell",
        "rank": 50860,
        "rank_sort": 50891,
        "total": 2351
      },
      {
        "club_badge_src": null,
        "entry": 6725947,
        "entry_name": "Yoro Seskoffender",
        "event_total": 55,
        "has_played": true,
        "id": 53832115,
        "last_rank": 48119,
        "player_name": "Mustafa Vohra",
        "rank": 50860,
        "rank_sort": 50892,
        "total": 2351
      },
      {
        "club_badge_src": null,
        "entry": 7204044,
        "entry_name": "Los Gal\u00e1cticos",
        "event_total": 66,
        "has_played": true,
        "id": 58169935,
        "last_rank": 66738,
        "player_name": "Avik Roy",
        "rank": 50860,
        "rank_sort": 50893,
        "total": 2351
      },
      {
        "club_badge_src": null,
        "entry": 7946094,
        "entry_name": "zaki ugc\ufffd\ufffd\u2620\ufe0f\ufffd\ufffd\u2620\ufe0f",
        "event_total": 54,
        "has_played": true,
        "id": 65404573,
        "last_rank": 46660,
        "player_name": "zakaria guerchaoui",
        "rank": 50860,
        "rank_sort": 50894,
        "total": 2351
      },
      {
        "club_badge_src": null,
        "entry": 8019922,
        "entry_name": "Rice Rice Baby",
        "event_total": 52,
        "has_played": true,
        "id": 66064413,
        "last_rank": 43849,
        "player_name": "Cillian Tully",
        "rank": 50860,
        "rank_sort": 50895,
        "total": 2351
      },
      {
        "club_badge_src": null,
        "entry": 8229536,
        "entry_name": "Ji Sung Park The Bus",
        "event_total": 37,
        "has_played": true,
        "id": 68021521,
        "last_rank": 26710,
        "player_name": "Aaron Service",
        "rank": 50860,
        "rank_sort": 50896,
        "total": 2351
      },
      {
        "club_badge_src": null,
        "entry": 9257855,
        "entry_name": "Gy\u00f6kalicious?",
        "event_total": 77,
        "has_played": true,
        "id": 77999015,
        "last_rank": 90524,
        "player_name": "Nick Whatcott",
        "rank": 50860,
        "rank_sort": 50897,
        "total": 2351
      },
      {
        "club_badge_src": null,
        "entry": 9412552,
        "entry_name": "Rasputin",
        "event_total": 40,
        "has_played": true,
        "id": 79493928,
        "last_rank": 29522,
        "player_name": "Magnus Karlsson",
        "rank": 50860,
        "rank_sort": 50898,
        "total": 2351
      },
      {
        "club_badge_src": null,
        "entry": 290,
        "entry_name": "GoGo Power Reijnders",
        "event_total": 51,
        "has_played": true,
        "id": 1603,
        "last_rank": 42648,
        "player_name": "Victor Whytock",
        "rank": 50899,
        "rank_sort": 50899,
        "total": 2351
      },
      {
        "club_badge_src": null,
        "entry": 17952,
        "entry_name": "Toney pas si facile",
        "event_total": 62,
        "has_played": true,
        "id": 111520,
        "last_rank": 59496,
        "player_name": "Pierre Montagard",
        "rank": 50899,
        "rank_sort": 50900,
        "total": 2351
      }
    ]
  }
}