{
  "last_updated_data": "2026-05-24T23:28:17Z",
  "league": {
    "admin_entry": null,
    "closed": false,
    "code_privacy": "p",
    "created": "2025-07-20T23:14:33.933835Z",
    "cup_league": 2815434,
    "has_cup": true,
    "id": 314,
    "league_type": "s",
    "max_entries": null,
    "name": "Overall",
    "rank": null,
    "scoring": "c",
    "start_event": 1
  },
  "new_entries": {
    "has_next": false,
    "page": 1,
    "results": []
  },
  "standings": {
    "has_next": true,
    "page": 607,
    "results": [
      {
        "club_badge_src": null,
        "entry": 1969282,
        "entry_name": "side eye 99",
        "event_total": 66,
        "has_played": true,
        "id": 13898436,
        "last_rank": 40647,
        "player_name": "Siddharth Sanil",
        "rank": 30244,
        "rank_sort": 30301,
        "total": 2368
      },
      {
        "club_badge_src": null,
        "entry": 2008990,
        "entry_name": "Kremfl\u00f8te",
        "event_total": 65,
        "has_played": true,
        "id": 14205116,
        "last_rank": 39246,
        "player_name": "Erik Lassesen",
        "rank": 30244,
        "rank_sort": 30302,
        "total": 2368
      },
      {
        "club_badge_src": null,
        "entry": 2042897,
        "entry_name": "Shaw and Order",
        "event_total": 59,
        "has_played": true,
        "id": 14467548,
        "last_rank": 32190,
        "player_name": "Graeme Benson",
        "rank": 30244,
        "rank_sort": 30303,
        "total": 2368
      },
      {
        "club_badge_src": null,
        "entry": 2109518,
        "entry_name": "El Teflon FC",
        "event_total": 55,
        "has_played": true,
        "id": 14973160,
        "last_rank": 27976,
        "player_name": "Akhil Bist",
        "rank": 30244,
        "rank_sort": 30304,
        "total": 2368
      },
      {
        "club_badge_src": null,
        "entry": 2157596,
        "entry_name": "big mac allister",
        "event_total": 68,
        "has_played": true,
        "id": 15337371,
        "last_rank": 37822,
        "player_name": "Jayden O leary",
        "rank": 30244,
        "rank_sort": 30305,
        "total": 2368
      },
      {
        "club_badge_src": null,
        "entry": 2192971,
        "entry_name": "Kinder Mbeumo",
        "event_total": 59,
        "has_played": true,
        "id": 15602532,
        "last_rank": 24143,
        "player_name": "Mohd N",
        "rank": 30244,
        "rank_sort": 30306,
        "total": 2368
      },
      {
        "club_badge_src": null,
        "entry": 2304250,
        "entry_name": "Class of 26",
        "event_total": 49,
        "has_played": true,
        "id": 16435378,
        "last_rank": 19721,
        "player_name": "Mikael Espedal",
        "rank": 30244,
        "rank_sort": 30307,
        "total": 2368
      },
      {
        "club_badge_src": null,
        "entry": 2418564,
        "entry_name": "Liverpool FC",
        "event_total": 66,
        "has_played": true,
        "id": 17289898,
        "last_rank": 35424,
        "player_name": "Nischal Gyawali",
        "rank": 30244,
        "rank_sort": 30308,
        "total": 2368
      },
      {
        "club_badge_src": null,
        "entry": 2446247,
        "entry_name": "Moyes R Us",
        "event_total": 46,
        "has_played": true,
        "id": 17495728,
        "last_rank": 20416,
        "player_name": "Graham Mc",
        "rank": 30244,
        "rank_sort": 30309,
        "total": 2368
      },
      {
        "club_badge_src": null,
        "entry": 2508205,
        "entry_name": "BrickSoccerClub",
        "event_total": 76,
        "has_played": true,
        "id": 17962965,
        "last_rank": 48642,
        "player_name": "Ailan HE",
        "rank": 30244,
        "rank_sort": 30310,
        "total": 2368
      },
      {
        "club_badge_src": null,
        "entry": 2523610,
        "entry_name": "A701",
        "event_total": 72,
        "has_played": true,
        "id": 18082743,
        "last_rank": 48363,
        "player_name": "eslam mahmoud",
        "rank": 30244,
        "rank_sort": 30311,
        "total": 2368
      },
      {
        "club_badge_src": "https://fantasy.premierleague.com/gcs/plfpl-production-adobe-approved/plfpl-production/2692959/12f3f86c-d769-4afc-a542-67796c6e94ec.png",
        "entry": 2692959,
        "entry_name": "SinghFC",
        "event_total": 77,
        "has_played": true,
        "id": 19370537,
        "last_rank": 49880,
        "player_name": "Kuljit Singh",
        "rank": 30244,
        "rank_sort": 30312,
        "total": 2368
      },
      {
        "club_badge_src": null,
        "entry": 2722740,
        "entry_name": "Abdullah team",
        "event_total": 71,
        "has_played": true,
        "id": 19592205,
        "last_rank": 36348,
        "player_name": "Abdullah Al-Tamimi",
        "rank": 30244,
        "rank_sort": 30313,
        "total": 2368
      },
      {
        "club_badge_src": null,
        "entry": 2785340,
        "entry_name": "HotFuzz",
        "event_total": 73,
        "has_played": true,
        "id": 20334083,
        "last_rank": 50199,
        "player_name": "Dave Bradshaw",
        "rank": 30244,
        "rank_sort": 30314,
        "total": 2368
      },
      {
        "club_badge_src": null,
        "entry": 2789529,
        "entry_name": "St Martins XCVI",
        "event_total": 67,
        "has_played": true,
        "id": 20365922,
        "last_rank": 36624,
        "player_name": "Samuel Bergmanski",
        "rank": 30244,
        "rank_sort": 30315,
        "total": 2368
      },
      {
        "club_badge_src": null,
        "entry": 2885352,
        "entry_name": "kinder Mbeumo",
        "event_total": 59,
        "has_played": true,
        "id": 21123792,
        "last_rank": 31995,
        "player_name": "Shahram Nojo",
        "rank": 30244,
        "rank_sort": 30316,
        "total": 2368
      },
      {
        "club_badge_src": null,
        "entry": 2885995,
        "entry_name": "Stranger Mings",
        "event_total": 65,
        "has_played": true,
        "id": 21128561,
        "last_rank": 39246,
        "player_name": "Ben Viney",
        "rank": 30244,
        "rank_sort": 30317,
        "total": 2368
      },
      {
        "club_badge_src": null,
        "entry": 2892168,
        "entry_name": "R\u00c6S\ufffd",
        "event_total": 59,
        "has_played": true,
        "id": 21180808,
        "last_rank": 31995,
        "player_name": "Jimmy Kioko",
        "rank": 30244,
        "rank_sort": 30318,
        "total": 2368
      },
      {
        "club_badge_src": null,
        "entry": 3018997,
        "entry_name": "UnklJoes Mintballers",
        "event_total": 61,
        "has_played": true,
        "id": 22211986,
        "last_rank": 29904,
        "player_name": "ALISTAIR TOMLINSON",
        "rank": 30244,
        "rank_sort": 30319,
        "total": 2368
      },
      {
        "club_badge_src": null,
        "entry": 3057294,
        "entry_name": "Hakuna Mateta",
        "event_total": 43,
        "has_played": true,
        "id": 22508595,
        "last_rank": 18475,
        "player_name": "Ewan Morgan",
        "rank": 30244,
        "rank_sort": 30320,
        "total": 2368
      },
      {
        "club_badge_src": null,
        "entry": 3129984,
        "entry_name": "CAMPEONES FC",
        "event_total": 65,
        "has_played": true,
        "id": 23102018,
        "last_rank": 38644,
        "player_name": "YEUNG KIEN LUP",
        "rank": 30244,
        "rank_sort": 30321,
        "total": 2368
      },
      {
        "club_badge_src": null,
        "entry": 3193919,
        "entry_name": "RSC Arsenout",
        "event_total": 46,
        "has_played": true,
        "id": 23606185,
        "last_rank": 20416,
        "player_name": "Arnout Kestemont",
        "rank": 30244,
        "rank_sort": 30322,
        "total": 2368
      },
      {
        "club_badge_src": null,
        "entry": 3239073,
        "entry_name": "Eze Come Eze Go",
        "event_total": 81,
        "has_played": true,
        "id": 23958122,
        "last_rank": 49880,
        "player_name": "Matthew Chang",
        "rank": 30244,
        "rank_sort": 30323,
        "total": 2368
      },
      {
        "club_badge_src": null,
        "entry": 3305047,
        "entry_name": "Benji",
        "event_total": 56,
        "has_played": true,
        "id": 24480880,
        "last_rank": 29071,
        "player_name": "Benji boyo",
        "rank": 30244,
        "rank_sort": 30324,
        "total": 2368
      },
      {
        "club_badge_src": null,
        "entry": 3395631,
        "entry_name": "@AllIDoIsWings",
        "event_total": 56,
        "has_played": true,
        "id": 25210416,
        "last_rank": 21775,
        "player_name": "Vishnu Panchal",
        "rank": 30244,
        "rank_sort": 30325,
        "total": 2368
      },
      {
        "club_badge_src": null,
        "entry": 3482049,
        "entry_name": "Squadward Rejects",
        "event_total": 81,
        "has_played": true,
        "id": 25892273,
        "last_rank": 63724,
        "player_name": "eoin Meehan",
        "rank": 30244,
        "rank_sort": 30326,
        "total": 2368
      },
      {
        "club_badge_src": null,
        "entry": 3640956,
        "entry_name": "Adenium fc",
        "event_total": 52,
        "has_played": true,
        "id": 27134697,
        "last_rank": 25330,
        "player_name": "Mohd Shahril",
        "rank": 30244,
        "rank_sort": 30327,
        "total": 2368
      },
      {
        "club_badge_src": null,
        "entry": 3821682,
        "entry_name": "The Cole Train",
        "event_total": 63,
        "has_played": true,
        "id": 28583456,
        "last_rank": 36831,
        "player_name": "Alfie Hardy",
        "rank": 30244,
        "rank_sort": 30328,
        "total": 2368
      },
      {
        "club_badge_src": "https://fantasy.premierleague.com/gcs/plfpl-production-adobe-approved/plfpl-production/3838989/024f60e9-3064-4303-921c-ce4cbf15b309.png",
        "entry": 3838989,
        "entry_name": "The Holy Inadequates",
        "event_total": 53,
        "has_played": true,
        "id": 28743280,
        "last_rank": 26230,
        "player_name": "Michael Wolstencroft",
        "rank": 30244,
        "rank_sort": 30329,
        "total": 2368
      },
      {
        "club_badge_src": null,
        "entry": 3882935,
        "entry_name": "rinsed out",
        "event_total": 73,
        "has_played": true,
        "id": 29176259,
        "last_rank": 50468,
        "player_name": "Lachlan Mackey",
        "rank": 30244,
        "rank_sort": 30330,
        "total": 2368
      },
      {
        "club_badge_src": null,
        "entry": 3893498,
        "entry_name": "Absolute Creamer FC",
        "event_total": 61,
        "has_played": true,
        "id": 29261103,
        "last_rank": 34458,
        "player_name": "James Sinclair",
        "rank": 30244,
        "rank_sort": 30331,
        "total": 2368
      },
      {
        "club_badge_src": null,
        "entry": 3933758,
        "entry_name": "Bad knee fc",
        "event_total": 56,
        "has_played": true,
        "id": 29587098,
        "last_rank": 29071,
        "player_name": "Eddie Walker",
        "rank": 30244,
        "rank_sort": 30332,
        "total": 2368
      },
      {
        "club_badge_src": "https://fantasy.premierleague.com/gcs/plfpl-production-adobe-approved/plfpl-production/3937317/5a3d861f-372a-446c-8edd-f780a0eb6b6e.png",
        "entry": 3937317,
        "entry_name": "I_am_McLovin",
        "event_total": 65,
        "has_played": true,
        "id": 29616977,
        "last_rank": 38774,
        "player_name": "David Loving",
        "rank": 30244,
        "rank_sort": 30333,
        "total": 2368
      },
      {
        "club_badge_src": null,
        "entry": 3972824,
        "entry_name": "LANGEL FC",
        "event_total": 62,
        "has_played": true,
        "id": 29898585,
        "last_rank": 35619,
        "player_name": "Lawmkima Lawmtea",
        "rank": 30244,
        "rank_sort": 30334,
        "total": 2368
      },
      {
        "club_badge_src": null,
        "entry": 4132592,
        "entry_name": "Griffing",
        "event_total": 59,
        "has_played": true,
        "id": 31229603,
        "last_rank": 27976,
        "player_name": "Aurora Bye",
        "rank": 30244,
        "rank_sort": 30335,
        "total": 2368
      },
      {
        "club_badge_src": null,
        "entry": 4209275,
        "entry_name": "Fock it",
        "event_total": 59,
        "has_played": true,
        "id": 31868866,
        "last_rank": 32190,
        "player_name": "Tijan Buh",
        "rank": 30244,
        "rank_sort": 30336,
        "total": 2368
      },
      {
        "club_badge_src": null,
        "entry": 4261245,
        "entry_name": "The North Stars",
        "event_total": 44,
        "has_played": true,
        "id": 32308642,
        "last_rank": 19103,
        "player_name": "Guy North",
        "rank": 30244,
        "rank_sort": 30337,
        "total": 2368
      },
      {
        "club_badge_src": null,
        "entry": 4345866,
        "entry_name": "Pep Osama FC",
        "event_total": 86,
        "has_played": true,
        "id": 32999132,
        "last_rank": 57857,
        "player_name": "Osama Mohamed",
        "rank": 30244,
        "rank_sort": 30338,
        "total": 2368
      },
      {
        "club_badge_src": null,
        "entry": 4466680,
        "entry_name": "mightyimps",
        "event_total": 66,
        "has_played": true,
        "id": 34035357,
        "last_rank": 40503,
        "player_name": "martyn long",
        "rank": 30244,
        "rank_sort": 30339,
        "total": 2368
      },
      {
        "club_badge_src": null,
        "entry": 4832992,
        "entry_name": "Smudger United",
        "event_total": 48,
        "has_played": true,
        "id": 37225296,
        "last_rank": 22064,
        "player_name": "Andrew Smith",
        "rank": 30244,
        "rank_sort": 30340,
        "total": 2368
      },
      {
        "club_badge_src": null,
        "entry": 4931040,
        "entry_name": "As Long As It\u2019s Blue",
        "event_total": 76,
        "has_played": true,
        "id": 38038332,
        "last_rank": 54667,
        "player_name": "Brian Cough",
        "rank": 30244,
        "rank_sort": 30341,
        "total": 2368
      },
      {
        "club_badge_src": null,
        "entry": 4997090,
        "entry_name": "Kinder Mbeumo",
        "event_total": 73,
        "has_played": true,
        "id": 38584736,
        "last_rank": 50199,
        "player_name": "Tom Arden",
        "rank": 30244,
        "rank_sort": 30342,
        "total": 2368
      },
      {
        "club_badge_src": null,
        "entry": 5015608,
        "entry_name": "Pro Squad",
        "event_total": 65,
        "has_played": true,
        "id": 38732427,
        "last_rank": 34293,
        "player_name": "Zakaria Limouri",
        "rank": 30244,
        "rank_sort": 30343,
        "total": 2368
      },
      {
        "club_badge_src": null,
        "entry": 5026322,
        "entry_name": "Walshs Wallies",
        "event_total": 86,
        "has_played": true,
        "id": 38819602,
        "last_rank": 73975,
        "player_name": "Geo Walsh",
        "rank": 30244,
        "rank_sort": 30344,
        "total": 2368
      },
      {
        "club_badge_src": null,
        "entry": 5132790,
        "entry_name": "Kai's revenge",
        "event_total": 57,
        "has_played": true,
        "id": 39698550,
        "last_rank": 30060,
        "player_name": "Magnus Mikkelsen",
        "rank": 30244,
        "rank_sort": 30345,
        "total": 2368
      },
      {
        "club_badge_src": "https://fantasy.premierleague.com/gcs/plfpl-production-adobe-approved/plfpl-production/5255085/d6da9a42-c986-48f6-83fa-eb701072c322.png",
        "entry": 5255085,
        "entry_name": "KabMoo",
        "event_total": 54,
        "has_played": true,
        "id": 40728955,
        "last_rank": 27203,
        "player_name": "Worawit Singsomdee",
        "rank": 30244,
        "rank_sort": 30346,
        "total": 2368
      },
      {
        "club_badge_src": null,
        "entry": 5294805,
        "entry_name": "detvelokay",
        "event_total": 60,
        "has_played": true,
        "id": 41041865,
        "last_rank": 33147,
        "player_name": "Frederik Kjeldgaard",
        "rank": 30244,
        "rank_sort": 30347,
        "total": 2368
      },
      {
        "club_badge_src": null,
        "entry": 5485857,
        "entry_name": "OLA OLA",
        "event_total": 69,
        "has_played": true,
        "id": 42720714,
        "last_rank": 39023,
        "player_name": "shailendra retnendran",
        "rank": 30244,
        "rank_sort": 30348,
        "total": 2368
      },
      {
        "club_badge_src": "https://fantasy.premierleague.com/gcs/plfpl-production-adobe-approved/plfpl-production/5626814/136ba788-8eca-4032-b11b-f47ffb78a80f.png",
        "entry": 5626814,
        "entry_name": "I\u2019mOnlyHereForTheAGM",
        "event_total": 75,
        "has_played": true,
        "id": 43989208,
        "last_rank": 53621,
        "player_name": "Joe Sullivan",
        "rank": 30244,
        "rank_sort": 30349,
        "total": 2368
      },
      {
        "club_badge_src": null,
        "entry": 5675874,
        "entry_name": "Riken Raptor",
        "event_total": 50,
        "has_played": true,
        "id": 44419437,
        "last_rank": 20416,
        "player_name": "Lalu Tri",
        "rank": 30244,
        "rank_sort": 30350,
        "total": 2368
      }
    ]
  }
}