{
  "last_updated_data": "2026-05-24T23:28:17Z",
  "league": {
    "admin_entry": null,
    "closed": false,
    "code_privacy": "p",
    "created": "2025-07-20T23:14:33.933835Z",
    "cup_league": 2815434,
    "has_cup": true,
    "id": 314,
    "league_type": "s",
    "max_entries": null,
    "name": "Overall",
    "rank": null,
    "scoring": "c",
    "start_event": 1
  },
  "new_entries": {
    "has_next": false,
    "page": 1,
    "results": []
  },
  "standings": {
    "has_next": true,
    "page": 98,
    "results": [
      {
        "club_badge_src": null,
        "entry": 5391589,
        "entry_name": "Ice Cool FC",
        "event_total": 54,
        "has_played": true,
        "id": 41916910,
        "last_rank": 3853,
        "player_name": "Rhegard Scheepers",
        "rank": 4850,
        "rank_sort": 4851,
        "total": 2415
      },
      {
        "club_badge_src": null,
        "entry": 388365,
        "entry_name": "Myles Ahead FC",
        "event_total": 44,
        "has_played": true,
        "id": 2605299,
        "last_rank": 2409,
        "player_name": "Kisery Tinsew",
        "rank": 4852,
        "rank_sort": 4852,
        "total": 2415
      },
      {
        "club_badge_src": null,
        "entry": 688661,
        "entry_name": "Alfie's All Stars",
        "event_total": 56,
        "has_played": true,
        "id": 4662596,
        "last_rank": 4270,
        "player_name": "Alfie K",
        "rank": 4852,
        "rank_sort": 4853,
        "total": 2415
      },
      {
        "club_badge_src": null,
        "entry": 2547698,
        "entry_name": "Luncai FC",
        "event_total": 75,
        "has_played": true,
        "id": 18262662,
        "last_rank": 9836,
        "player_name": "Fathul Johari",
        "rank": 4852,
        "rank_sort": 4854,
        "total": 2415
      },
      {
        "club_badge_src": null,
        "entry": 2575437,
        "entry_name": "Change Name",
        "event_total": 68,
        "has_played": true,
        "id": 18482611,
        "last_rank": 7305,
        "player_name": "Luke Taylor",
        "rank": 4852,
        "rank_sort": 4855,
        "total": 2415
      },
      {
        "club_badge_src": null,
        "entry": 4027377,
        "entry_name": "Lallana Del Rey",
        "event_total": 79,
        "has_played": true,
        "id": 30358839,
        "last_rank": 11591,
        "player_name": "Henrik Bakkerud",
        "rank": 4852,
        "rank_sort": 4856,
        "total": 2415
      },
      {
        "club_badge_src": null,
        "entry": 6071156,
        "entry_name": "Ok Thai",
        "event_total": 85,
        "has_played": true,
        "id": 47924468,
        "last_rank": 14817,
        "player_name": "Oktay Fassihi",
        "rank": 4852,
        "rank_sort": 4857,
        "total": 2415
      },
      {
        "club_badge_src": null,
        "entry": 6966196,
        "entry_name": "Disco Dave",
        "event_total": 49,
        "has_played": true,
        "id": 55872708,
        "last_rank": 3066,
        "player_name": "David Jones",
        "rank": 4852,
        "rank_sort": 4858,
        "total": 2415
      },
      {
        "club_badge_src": "https://fantasy.premierleague.com/gcs/plfpl-production-adobe-approved/plfpl-production/163180/aabc4602-c4ca-413c-9086-3bf4332c5971.png",
        "entry": 163180,
        "entry_name": "Baines on Toast",
        "event_total": 84,
        "has_played": true,
        "id": 1076079,
        "last_rank": 14230,
        "player_name": "Harry Alty",
        "rank": 4859,
        "rank_sort": 4859,
        "total": 2415
      },
      {
        "club_badge_src": null,
        "entry": 749572,
        "entry_name": "Walbrins Wanderers",
        "event_total": 52,
        "has_played": true,
        "id": 5099874,
        "last_rank": 3562,
        "player_name": "Alfie walbrin",
        "rank": 4859,
        "rank_sort": 4860,
        "total": 2415
      },
      {
        "club_badge_src": "https://fantasy.premierleague.com/gcs/plfpl-production-adobe-approved/plfpl-production/1031356/3a0aaa8f-7c7a-4cbb-af58-799d0aef180f.png",
        "entry": 1031356,
        "entry_name": "Mid Table Obscurity",
        "event_total": 43,
        "has_played": true,
        "id": 7135762,
        "last_rank": 2280,
        "player_name": "Lance Paget",
        "rank": 4859,
        "rank_sort": 4861,
        "total": 2415
      },
      {
        "club_badge_src": null,
        "entry": 3636722,
        "entry_name": "saka deeez nuts",
        "event_total": 69,
        "has_played": true,
        "id": 27101933,
        "last_rank": 7604,
        "player_name": "Alf Parker",
        "rank": 4859,
        "rank_sort": 4862,
        "total": 2415
      },
      {
        "club_badge_src": null,
        "entry": 4142413,
        "entry_name": "The Bald Fraud Again",
        "event_total": 59,
        "has_played": true,
        "id": 31307649,
        "last_rank": 4913,
        "player_name": "Gary Roulston",
        "rank": 4859,
        "rank_sort": 4863,
        "total": 2415
      },
      {
        "club_badge_src": null,
        "entry": 5503881,
        "entry_name": "Neymar Mr Nice guy",
        "event_total": 69,
        "has_played": true,
        "id": 42888293,
        "last_rank": 7625,
        "player_name": "Adam Wilson",
        "rank": 4859,
        "rank_sort": 4864,
        "total": 2415
      },
      {
        "club_badge_src": null,
        "entry": 6427257,
        "entry_name": "Bring back SkyFF",
        "event_total": 66,
        "has_played": true,
        "id": 51161581,
        "last_rank": 6703,
        "player_name": "Sam Hobart",
        "rank": 4859,
        "rank_sort": 4865,
        "total": 2415
      },
      {
        "club_badge_src": null,
        "entry": 7042253,
        "entry_name": "Sportsball FC",
        "event_total": 40,
        "has_played": true,
        "id": 56620124,
        "last_rank": 1956,
        "player_name": "Ruben Sandanbr\u00e5ten",
        "rank": 4859,
        "rank_sort": 4866,
        "total": 2415
      },
      {
        "club_badge_src": null,
        "entry": 7590933,
        "entry_name": "Thomas F > Thor F",
        "event_total": 61,
        "has_played": true,
        "id": 62183295,
        "last_rank": 5400,
        "player_name": "Danni Markussen",
        "rank": 4859,
        "rank_sort": 4867,
        "total": 2415
      },
      {
        "club_badge_src": "https://fantasy.premierleague.com/gcs/plfpl-production-adobe-approved/plfpl-production/9235415/333b253b-c9cd-484e-adaa-e9631b1ac0e1.png",
        "entry": 9235415,
        "entry_name": "JJ Ballers",
        "event_total": 77,
        "has_played": true,
        "id": 77780781,
        "last_rank": 10720,
        "player_name": "Jyrki Jalava",
        "rank": 4859,
        "rank_sort": 4868,
        "total": 2415
      },
      {
        "club_badge_src": null,
        "entry": 288,
        "entry_name": "M3Richarlison",
        "event_total": 67,
        "has_played": true,
        "id": 1591,
        "last_rank": 7059,
        "player_name": "Matthew Richmond",
        "rank": 4869,
        "rank_sort": 4869,
        "total": 2415
      },
      {
        "club_badge_src": null,
        "entry": 1204,
        "entry_name": "@AeselFC",
        "event_total": 41,
        "has_played": true,
        "id": 6694,
        "last_rank": 2088,
        "player_name": "Simon K",
        "rank": 4869,
        "rank_sort": 4870,
        "total": 2415
      },
      {
        "club_badge_src": "https://fantasy.premierleague.com/gcs/plfpl-production-adobe-approved/plfpl-production/1652/483f51d6-0cbb-4ec4-9069-5168041be2b0.png",
        "entry": 1652,
        "entry_name": "Ange Ball FC",
        "event_total": 68,
        "has_played": true,
        "id": 9195,
        "last_rank": 7375,
        "player_name": "Sal Saadat",
        "rank": 4869,
        "rank_sort": 4871,
        "total": 2415
      },
      {
        "club_badge_src": "https://fantasy.premierleague.com/gcs/plfpl-production-adobe-approved/plfpl-production/3973/e8b8d0d7-8fcf-4d5d-a4ff-7bc05085e044.png",
        "entry": 3973,
        "entry_name": "Goal Diggers FC",
        "event_total": 68,
        "has_played": true,
        "id": 22532,
        "last_rank": 7375,
        "player_name": "Arnold Mawira",
        "rank": 4869,
        "rank_sort": 4872,
        "total": 2415
      },
      {
        "club_badge_src": null,
        "entry": 9592,
        "entry_name": "Amorim`s Army",
        "event_total": 62,
        "has_played": true,
        "id": 56439,
        "last_rank": 5688,
        "player_name": "Gezla Schoonraad",
        "rank": 4869,
        "rank_sort": 4873,
        "total": 2415
      },
      {
        "club_badge_src": "https://fantasy.premierleague.com/gcs/plfpl-production-adobe-approved/plfpl-production/18253/10366cf1-e834-4cbd-8ec5-667010ecd854.png",
        "entry": 18253,
        "entry_name": "The 40-yr-old Virgil",
        "event_total": 66,
        "has_played": true,
        "id": 113501,
        "last_rank": 6752,
        "player_name": "Rob Apollo",
        "rank": 4869,
        "rank_sort": 4874,
        "total": 2415
      },
      {
        "club_badge_src": null,
        "entry": 42243,
        "entry_name": "Rovers #94/95",
        "event_total": 72,
        "has_played": true,
        "id": 270690,
        "last_rank": 8687,
        "player_name": "Jack Loraine",
        "rank": 4869,
        "rank_sort": 4875,
        "total": 2415
      },
      {
        "club_badge_src": null,
        "entry": 54702,
        "entry_name": "Baby Reijnders",
        "event_total": 46,
        "has_played": true,
        "id": 352067,
        "last_rank": 2665,
        "player_name": "Stuart Slater",
        "rank": 4869,
        "rank_sort": 4876,
        "total": 2415
      },
      {
        "club_badge_src": "https://fantasy.premierleague.com/gcs/plfpl-production-adobe-approved/plfpl-production/71308/3044aed7-f5d4-4af8-a909-2498e45687b4.png",
        "entry": 71308,
        "entry_name": "Mollusk FC",
        "event_total": 61,
        "has_played": true,
        "id": 463138,
        "last_rank": 5400,
        "player_name": "Mathias Kangashaka",
        "rank": 4869,
        "rank_sort": 4877,
        "total": 2415
      },
      {
        "club_badge_src": null,
        "entry": 77939,
        "entry_name": "Ndiaye With A Smile",
        "event_total": 71,
        "has_played": true,
        "id": 506689,
        "last_rank": 8382,
        "player_name": "Alexander Lee",
        "rank": 4869,
        "rank_sort": 4878,
        "total": 2415
      },
      {
        "club_badge_src": null,
        "entry": 204788,
        "entry_name": "Old Havertz Kai Hard",
        "event_total": 59,
        "has_played": true,
        "id": 1361122,
        "last_rank": 4954,
        "player_name": "Billy McCann",
        "rank": 4869,
        "rank_sort": 4879,
        "total": 2415
      },
      {
        "club_badge_src": null,
        "entry": 295769,
        "entry_name": "POKA FC",
        "event_total": 58,
        "has_played": true,
        "id": 1975743,
        "last_rank": 4742,
        "player_name": "polis katsiamidis",
        "rank": 4869,
        "rank_sort": 4880,
        "total": 2415
      },
      {
        "club_badge_src": null,
        "entry": 423729,
        "entry_name": "Magnet and Steele",
        "event_total": 49,
        "has_played": true,
        "id": 2839755,
        "last_rank": 3103,
        "player_name": "Brian Whittle",
        "rank": 4869,
        "rank_sort": 4881,
        "total": 2415
      },
      {
        "club_badge_src": "https://fantasy.premierleague.com/gcs/plfpl-production-adobe-approved/plfpl-production/531734/8f0add9f-1c5a-48f0-ae1e-f79039199e7c.png",
        "entry": 531734,
        "entry_name": "atlenik united",
        "event_total": 67,
        "has_played": true,
        "id": 3576420,
        "last_rank": 7014,
        "player_name": "Atle Nikolai Simonsen",
        "rank": 4869,
        "rank_sort": 4882,
        "total": 2415
      },
      {
        "club_badge_src": "https://fantasy.premierleague.com/gcs/plfpl-production-adobe-approved/plfpl-production/617471/2bf447c5-09b8-496d-ad36-89642e730820.png",
        "entry": 617471,
        "entry_name": "Nemesis",
        "event_total": 67,
        "has_played": true,
        "id": 4171935,
        "last_rank": 7000,
        "player_name": "marvin levin",
        "rank": 4869,
        "rank_sort": 4883,
        "total": 2415
      },
      {
        "club_badge_src": "https://fantasy.premierleague.com/gcs/plfpl-production-adobe-approved/plfpl-production/842752/877803e6-5c88-4d29-b0cb-fbf242303664.png",
        "entry": 842752,
        "entry_name": "U know chippy chips",
        "event_total": 71,
        "has_played": true,
        "id": 5774300,
        "last_rank": 8339,
        "player_name": "Dan Rae",
        "rank": 4869,
        "rank_sort": 4884,
        "total": 2415
      },
      {
        "club_badge_src": null,
        "entry": 887648,
        "entry_name": "CHAMPs 2",
        "event_total": 57,
        "has_played": true,
        "id": 6088173,
        "last_rank": 4515,
        "player_name": "Bank Chumpol",
        "rank": 4869,
        "rank_sort": 4885,
        "total": 2415
      },
      {
        "club_badge_src": null,
        "entry": 954236,
        "entry_name": "WoodenSpoonMick",
        "event_total": 74,
        "has_played": true,
        "id": 6574692,
        "last_rank": 9536,
        "player_name": "Michael O-Keeffe",
        "rank": 4869,
        "rank_sort": 4886,
        "total": 2415
      },
      {
        "club_badge_src": null,
        "entry": 973480,
        "entry_name": "ChillogSpill",
        "event_total": 47,
        "has_played": true,
        "id": 6710625,
        "last_rank": 2802,
        "player_name": "Gard Nicolas Rueda Trollskar",
        "rank": 4869,
        "rank_sort": 4887,
        "total": 2415
      },
      {
        "club_badge_src": "https://fantasy.premierleague.com/gcs/plfpl-production-adobe-approved/plfpl-production/989062/7cdc6c62-3485-4419-8a3d-a992bbc43d83.png",
        "entry": 989062,
        "entry_name": "\u0408\u0435\u0440\u043a\u043e\u0432\u0438\u045b \u0408\u0443\u043d\u0430\u0458\u0442\u0435\u0434",
        "event_total": 57,
        "has_played": true,
        "id": 6819835,
        "last_rank": 4515,
        "player_name": "\u041e\u0433\u045a\u0435\u043d \u0414\u0435\u043d\u0447\u0438\u045b",
        "rank": 4869,
        "rank_sort": 4888,
        "total": 2415
      },
      {
        "club_badge_src": "https://fantasy.premierleague.com/gcs/plfpl-production-adobe-approved/plfpl-production/1163387/5d31e896-e340-4a70-99d6-163dccb039ca.png",
        "entry": 1163387,
        "entry_name": "NUKE-UTD\u00ae",
        "event_total": 60,
        "has_played": true,
        "id": 8070445,
        "last_rank": 5173,
        "player_name": "Tanong Mapanya",
        "rank": 4869,
        "rank_sort": 4889,
        "total": 2415
      },
      {
        "club_badge_src": null,
        "entry": 1438013,
        "entry_name": "Xhaga",
        "event_total": 73,
        "has_played": true,
        "id": 10020150,
        "last_rank": 9077,
        "player_name": "Harry Morton",
        "rank": 4869,
        "rank_sort": 4890,
        "total": 2415
      },
      {
        "club_badge_src": null,
        "entry": 1447265,
        "entry_name": "sajad",
        "event_total": 84,
        "has_played": true,
        "id": 10084805,
        "last_rank": 14292,
        "player_name": "love tena",
        "rank": 4869,
        "rank_sort": 4891,
        "total": 2415
      },
      {
        "club_badge_src": "https://fantasy.premierleague.com/gcs/plfpl-production-adobe-approved/plfpl-production/1474063/c0c2c326-0e9e-4ded-b668-2d1e2de19487.png",
        "entry": 1474063,
        "entry_name": "Star Hidia Siuuuu",
        "event_total": 76,
        "has_played": true,
        "id": 10275103,
        "last_rank": 10288,
        "player_name": "Alexandros Stefanos",
        "rank": 4869,
        "rank_sort": 4892,
        "total": 2415
      },
      {
        "club_badge_src": null,
        "entry": 1532004,
        "entry_name": "Brogstars",
        "event_total": 75,
        "has_played": true,
        "id": 10690975,
        "last_rank": 9853,
        "player_name": "Stephen Brogan",
        "rank": 4869,
        "rank_sort": 4893,
        "total": 2415
      },
      {
        "club_badge_src": null,
        "entry": 1775126,
        "entry_name": "Ringos Gringos",
        "event_total": 57,
        "has_played": true,
        "id": 12470340,
        "last_rank": 4570,
        "player_name": "Nikolaj Ring",
        "rank": 4869,
        "rank_sort": 4894,
        "total": 2415
      },
      {
        "club_badge_src": "https://fantasy.premierleague.com/gcs/plfpl-production-adobe-approved/plfpl-production/1801588/8964cbc5-fb8a-4e21-aea0-f098a29bc44d.png",
        "entry": 1801588,
        "entry_name": "Wirtz Case Scenario",
        "event_total": 69,
        "has_played": true,
        "id": 12664769,
        "last_rank": 7676,
        "player_name": "Ananda Rabindranath",
        "rank": 4869,
        "rank_sort": 4895,
        "total": 2415
      },
      {
        "club_badge_src": null,
        "entry": 1908374,
        "entry_name": "Kusan United",
        "event_total": 71,
        "has_played": true,
        "id": 13454069,
        "last_rank": 8484,
        "player_name": "Anna-Cari Gund",
        "rank": 4869,
        "rank_sort": 4896,
        "total": 2415
      },
      {
        "club_badge_src": null,
        "entry": 2364093,
        "entry_name": "MurderOnZidanesFloor",
        "event_total": 46,
        "has_played": true,
        "id": 16874007,
        "last_rank": 2685,
        "player_name": "Ryan Cahill",
        "rank": 4869,
        "rank_sort": 4897,
        "total": 2415
      },
      {
        "club_badge_src": null,
        "entry": 2595026,
        "entry_name": "VAR Wars",
        "event_total": 39,
        "has_played": true,
        "id": 18633816,
        "last_rank": 1856,
        "player_name": "Martin McGrath",
        "rank": 4869,
        "rank_sort": 4898,
        "total": 2415
      },
      {
        "club_badge_src": null,
        "entry": 2695731,
        "entry_name": "Noni your business",
        "event_total": 72,
        "has_played": true,
        "id": 19391145,
        "last_rank": 8687,
        "player_name": "Adam Clark",
        "rank": 4869,
        "rank_sort": 4899,
        "total": 2415
      },
      {
        "club_badge_src": "https://fantasy.premierleague.com/gcs/plfpl-production-adobe-approved/plfpl-production/2815782/99cb651d-da53-40f8-81df-ecacf7b1060a.png",
        "entry": 2815782,
        "entry_name": "Kinder Mbeumo",
        "event_total": 58,
        "has_played": true,
        "id": 20566816,
        "last_rank": 4684,
        "player_name": "Neil Morrison",
        "rank": 4869,
        "rank_sort": 4900,
        "total": 2415
      }
    ]
  }
}