{
  "last_updated_data": "2026-05-24T23:28:17Z",
  "league": {
    "admin_entry": null,
    "closed": false,
    "code_privacy": "p",
    "created": "2025-07-20T23:14:33.933835Z",
    "cup_league": 2815434,
    "has_cup": true,
    "id": 314,
    "league_type": "s",
    "max_entries": null,
    "name": "Overall",
    "rank": null,
    "scoring": "c",
    "start_event": 1
  },
  "new_entries": {
    "has_next": false,
    "page": 1,
    "results": []
  },
  "standings": {
    "has_next": true,
    "page": 1587,
    "results": [
      {
        "club_badge_src": null,
        "entry": 2525990,
        "entry_name": "TINCA UNITED",
        "event_total": 65,
        "has_played": true,
        "id": 18100147,
        "last_rank": 100092,
        "player_name": "Tony Daley",
        "rank": 79254,
        "rank_sort": 79301,
        "total": 2336
      },
      {
        "club_badge_src": null,
        "entry": 2536083,
        "entry_name": "millwall to prem",
        "event_total": 66,
        "has_played": true,
        "id": 18174661,
        "last_rank": 102501,
        "player_name": "Ross McInnes",
        "rank": 79254,
        "rank_sort": 79302,
        "total": 2336
      },
      {
        "club_badge_src": null,
        "entry": 2768703,
        "entry_name": "HOMBOIS",
        "event_total": 74,
        "has_played": true,
        "id": 20200813,
        "last_rank": 124961,
        "player_name": "Keanu Riev",
        "rank": 79254,
        "rank_sort": 79303,
        "total": 2336
      },
      {
        "club_badge_src": null,
        "entry": 2793398,
        "entry_name": "\ufffd",
        "event_total": 69,
        "has_played": true,
        "id": 20395583,
        "last_rank": 110709,
        "player_name": "Mikiyas Betre",
        "rank": 79254,
        "rank_sort": 79304,
        "total": 2336
      },
      {
        "club_badge_src": null,
        "entry": 2996180,
        "entry_name": "Amad yoke",
        "event_total": 68,
        "has_played": true,
        "id": 22036904,
        "last_rank": 107866,
        "player_name": "Albi Larkin",
        "rank": 79254,
        "rank_sort": 79305,
        "total": 2336
      },
      {
        "club_badge_src": null,
        "entry": 3217838,
        "entry_name": "\u0631\u064a\u0627\u0644 \u0645\u062f\u0631\u064a\u062f \ufffd",
        "event_total": 49,
        "has_played": true,
        "id": 23794408,
        "last_rank": 64508,
        "player_name": "\u0639\u0628\u062f\u0627\u0644\u0644\u0647 \u0627\u0644\u0634\u064a\u062e",
        "rank": 79254,
        "rank_sort": 79306,
        "total": 2336
      },
      {
        "club_badge_src": null,
        "entry": 3362277,
        "entry_name": "Havertz Your Way",
        "event_total": 63,
        "has_played": true,
        "id": 24948235,
        "last_rank": 85349,
        "player_name": "Aaron McCabe",
        "rank": 79254,
        "rank_sort": 79307,
        "total": 2336
      },
      {
        "club_badge_src": null,
        "entry": 3447111,
        "entry_name": "Pain in Dias",
        "event_total": 65,
        "has_played": true,
        "id": 25612794,
        "last_rank": 90057,
        "player_name": "Trishul Ballachanda",
        "rank": 79254,
        "rank_sort": 79308,
        "total": 2336
      },
      {
        "club_badge_src": null,
        "entry": 3501135,
        "entry_name": "Kadut_FC",
        "event_total": 64,
        "has_played": true,
        "id": 26044323,
        "last_rank": 87710,
        "player_name": "Moch Rahadian Wicaksono",
        "rank": 79254,
        "rank_sort": 79309,
        "total": 2336
      },
      {
        "club_badge_src": null,
        "entry": 3563114,
        "entry_name": "san azad",
        "event_total": 76,
        "has_played": true,
        "id": 26529905,
        "last_rank": 131599,
        "player_name": "Mhamad Azim",
        "rank": 79254,
        "rank_sort": 79310,
        "total": 2336
      },
      {
        "club_badge_src": null,
        "entry": 3602174,
        "entry_name": "Bottle FC",
        "event_total": 50,
        "has_played": true,
        "id": 26829108,
        "last_rank": 59170,
        "player_name": "Yaya 4040",
        "rank": 79254,
        "rank_sort": 79311,
        "total": 2336
      },
      {
        "club_badge_src": null,
        "entry": 3654976,
        "entry_name": "SAM COYS",
        "event_total": 65,
        "has_played": true,
        "id": 27247836,
        "last_rank": 100092,
        "player_name": "Samuel COYS",
        "rank": 79254,
        "rank_sort": 79312,
        "total": 2336
      },
      {
        "club_badge_src": null,
        "entry": 3662564,
        "entry_name": "FC pagetto24",
        "event_total": 68,
        "has_played": true,
        "id": 27312940,
        "last_rank": 97470,
        "player_name": "Steven Pagett",
        "rank": 79254,
        "rank_sort": 79313,
        "total": 2336
      },
      {
        "club_badge_src": null,
        "entry": 3783498,
        "entry_name": "Golazo y Gazpacho",
        "event_total": 58,
        "has_played": true,
        "id": 28252841,
        "last_rank": 83127,
        "player_name": "Oscar J\u00f6nne",
        "rank": 79254,
        "rank_sort": 79314,
        "total": 2336
      },
      {
        "club_badge_src": "https://fantasy.premierleague.com/gcs/plfpl-production-adobe-approved/plfpl-production/3820822/d45098ff-3ae2-4c7c-8db7-78cd64c6daca.png",
        "entry": 3820822,
        "entry_name": "MladiLukFC",
        "event_total": 65,
        "has_played": true,
        "id": 28576708,
        "last_rank": 100092,
        "player_name": "Momcilo Panic",
        "rank": 79254,
        "rank_sort": 79315,
        "total": 2336
      },
      {
        "club_badge_src": null,
        "entry": 3889226,
        "entry_name": "Massrecruiter FC",
        "event_total": 70,
        "has_played": true,
        "id": 29225518,
        "last_rank": 113400,
        "player_name": "Abhigy Goswami",
        "rank": 79254,
        "rank_sort": 79316,
        "total": 2336
      },
      {
        "club_badge_src": null,
        "entry": 3951411,
        "entry_name": "\u0628\u0627\u0637\u0627\u0627 \u0643\u0631\u062f",
        "event_total": 53,
        "has_played": true,
        "id": 29726557,
        "last_rank": 64422,
        "player_name": "\ud83d\udc4c \ud83d\udc4c",
        "rank": 79254,
        "rank_sort": 79317,
        "total": 2336
      },
      {
        "club_badge_src": null,
        "entry": 4049268,
        "entry_name": "Pique Blinders",
        "event_total": 58,
        "has_played": true,
        "id": 30543192,
        "last_rank": 83127,
        "player_name": "Lee Newman",
        "rank": 79254,
        "rank_sort": 79318,
        "total": 2336
      },
      {
        "club_badge_src": null,
        "entry": 4082088,
        "entry_name": "Students",
        "event_total": 55,
        "has_played": true,
        "id": 30816306,
        "last_rank": 68107,
        "player_name": "Paul Dixon",
        "rank": 79254,
        "rank_sort": 79319,
        "total": 2336
      },
      {
        "club_badge_src": null,
        "entry": 4399265,
        "entry_name": "Sully's Reds",
        "event_total": 78,
        "has_played": true,
        "id": 33454490,
        "last_rank": 125135,
        "player_name": "Suhail Mahmood",
        "rank": 79254,
        "rank_sort": 79320,
        "total": 2336
      },
      {
        "club_badge_src": null,
        "entry": 4655124,
        "entry_name": "BOMBA UNITED",
        "event_total": 66,
        "has_played": true,
        "id": 35624993,
        "last_rank": 92126,
        "player_name": "Ash Patel",
        "rank": 79254,
        "rank_sort": 79321,
        "total": 2336
      },
      {
        "club_badge_src": null,
        "entry": 4817036,
        "entry_name": "Mumbai Mavericks FC",
        "event_total": 67,
        "has_played": true,
        "id": 37092747,
        "last_rank": 105264,
        "player_name": "Rushabh Vora",
        "rank": 79254,
        "rank_sort": 79322,
        "total": 2336
      },
      {
        "club_badge_src": null,
        "entry": 4903882,
        "entry_name": "redallover",
        "event_total": 87,
        "has_played": true,
        "id": 37815858,
        "last_rank": 155068,
        "player_name": "Neville Gabie",
        "rank": 79254,
        "rank_sort": 79323,
        "total": 2336
      },
      {
        "club_badge_src": null,
        "entry": 4955180,
        "entry_name": "van Nistelrooy",
        "event_total": 44,
        "has_played": true,
        "id": 38236935,
        "last_rank": 49301,
        "player_name": "Olof G\u00f6ransson",
        "rank": 79254,
        "rank_sort": 79324,
        "total": 2336
      },
      {
        "club_badge_src": null,
        "entry": 5093200,
        "entry_name": "Change Name",
        "event_total": 45,
        "has_played": true,
        "id": 39365925,
        "last_rank": 57515,
        "player_name": "Tinashe Chitima",
        "rank": 79254,
        "rank_sort": 79325,
        "total": 2336
      },
      {
        "club_badge_src": null,
        "entry": 5108543,
        "entry_name": "CopyYoutube",
        "event_total": 61,
        "has_played": true,
        "id": 39490008,
        "last_rank": 80651,
        "player_name": "Lim Kai",
        "rank": 79254,
        "rank_sort": 79326,
        "total": 2336
      },
      {
        "club_badge_src": "https://fantasy.premierleague.com/gcs/plfpl-production-adobe-approved/plfpl-production/5419026/8a248b08-777f-4e15-863b-69fa4ad8b9fa.png",
        "entry": 5419026,
        "entry_name": "The Morningstars",
        "event_total": 65,
        "has_played": true,
        "id": 42145343,
        "last_rank": 89897,
        "player_name": "Abdurrahman Danzaria",
        "rank": 79254,
        "rank_sort": 79327,
        "total": 2336
      },
      {
        "club_badge_src": null,
        "entry": 5768219,
        "entry_name": "TheGift of the Niall",
        "event_total": 68,
        "has_played": true,
        "id": 45222254,
        "last_rank": 97470,
        "player_name": "Adam Urquhart",
        "rank": 79254,
        "rank_sort": 79328,
        "total": 2336
      },
      {
        "club_badge_src": "https://fantasy.premierleague.com/gcs/plfpl-production-adobe-approved/plfpl-production/6134637/c23f26b4-4a0d-4188-802b-e94a7e426a79.png",
        "entry": 6134637,
        "entry_name": "BarrettFC",
        "event_total": 43,
        "has_played": true,
        "id": 48478834,
        "last_rank": 47812,
        "player_name": "Leanne Barrett",
        "rank": 79254,
        "rank_sort": 79329,
        "total": 2336
      },
      {
        "club_badge_src": null,
        "entry": 6191267,
        "entry_name": "Slott's Liverpool",
        "event_total": 67,
        "has_played": true,
        "id": 48969923,
        "last_rank": 104941,
        "player_name": "Abraham Kene",
        "rank": 79254,
        "rank_sort": 79330,
        "total": 2336
      },
      {
        "club_badge_src": null,
        "entry": 6231327,
        "entry_name": "Gulli FC",
        "event_total": 58,
        "has_played": true,
        "id": 49314851,
        "last_rank": 83127,
        "player_name": "Lars Gulbrandsen",
        "rank": 79254,
        "rank_sort": 79331,
        "total": 2336
      },
      {
        "club_badge_src": null,
        "entry": 6267661,
        "entry_name": "Barmy Arne",
        "event_total": 48,
        "has_played": true,
        "id": 49629314,
        "last_rank": 62812,
        "player_name": "Andrew Bolton",
        "rank": 79254,
        "rank_sort": 79332,
        "total": 2336
      },
      {
        "club_badge_src": null,
        "entry": 6722213,
        "entry_name": "Excalibur",
        "event_total": 48,
        "has_played": true,
        "id": 53800570,
        "last_rank": 62812,
        "player_name": "Merab Shanshashvili",
        "rank": 79254,
        "rank_sort": 79333,
        "total": 2336
      },
      {
        "club_badge_src": null,
        "entry": 7227360,
        "entry_name": "Pending Moderation..",
        "event_total": 64,
        "has_played": true,
        "id": 58390852,
        "last_rank": 97470,
        "player_name": "Nick Wiggans",
        "rank": 79254,
        "rank_sort": 79334,
        "total": 2336
      },
      {
        "club_badge_src": null,
        "entry": 7357768,
        "entry_name": "Hell in Lascelles",
        "event_total": 54,
        "has_played": true,
        "id": 59621271,
        "last_rank": 74395,
        "player_name": "Ben Martin",
        "rank": 79254,
        "rank_sort": 79335,
        "total": 2336
      },
      {
        "club_badge_src": null,
        "entry": 7608571,
        "entry_name": "Square Puddings",
        "event_total": 59,
        "has_played": true,
        "id": 62341674,
        "last_rank": 85349,
        "player_name": "Stephen Tidy",
        "rank": 79254,
        "rank_sort": 79336,
        "total": 2336
      },
      {
        "club_badge_src": null,
        "entry": 7998138,
        "entry_name": "Hluhlui FC",
        "event_total": 74,
        "has_played": true,
        "id": 65866485,
        "last_rank": 102343,
        "player_name": "Hriata Chhangte",
        "rank": 79254,
        "rank_sort": 79337,
        "total": 2336
      },
      {
        "club_badge_src": null,
        "entry": 8979268,
        "entry_name": "Costa Living Crises",
        "event_total": 65,
        "has_played": true,
        "id": 75281859,
        "last_rank": 89897,
        "player_name": "Bhargav Ashok",
        "rank": 79254,
        "rank_sort": 79338,
        "total": 2336
      },
      {
        "club_badge_src": null,
        "entry": 9189926,
        "entry_name": "Madridista",
        "event_total": 53,
        "has_played": true,
        "id": 77334955,
        "last_rank": 72346,
        "player_name": "Ashis Majumder",
        "rank": 79254,
        "rank_sort": 79339,
        "total": 2336
      },
      {
        "club_badge_src": "https://fantasy.premierleague.com/gcs/plfpl-production-adobe-approved/plfpl-production/44900/b7301856-6958-4384-a5f4-270c76078c76.png",
        "entry": 44900,
        "entry_name": "\u0160e\u0161ko Inferno",
        "event_total": 60,
        "has_played": true,
        "id": 287900,
        "last_rank": 78671,
        "player_name": "Ed Commander",
        "rank": 79340,
        "rank_sort": 79340,
        "total": 2336
      },
      {
        "club_badge_src": null,
        "entry": 61033,
        "entry_name": "Burn Baby Burn",
        "event_total": 56,
        "has_played": true,
        "id": 392982,
        "last_rank": 78671,
        "player_name": "Ryan Childs",
        "rank": 79340,
        "rank_sort": 79341,
        "total": 2336
      },
      {
        "club_badge_src": null,
        "entry": 122391,
        "entry_name": "The_Bhoys",
        "event_total": 57,
        "has_played": true,
        "id": 798474,
        "last_rank": 64422,
        "player_name": "Stevie Adam",
        "rank": 79340,
        "rank_sort": 79342,
        "total": 2336
      },
      {
        "club_badge_src": "https://fantasy.premierleague.com/gcs/plfpl-production-adobe-approved/plfpl-production/136129/aa8d29cb-c548-4ffb-a3f9-354bd6be1801.png",
        "entry": 136129,
        "entry_name": "007 FC",
        "event_total": 59,
        "has_played": true,
        "id": 886687,
        "last_rank": 85349,
        "player_name": "Abdoo H. Ameen",
        "rank": 79340,
        "rank_sort": 79343,
        "total": 2336
      },
      {
        "club_badge_src": null,
        "entry": 150773,
        "entry_name": "PurpleHeaded Pokeman",
        "event_total": 75,
        "has_played": true,
        "id": 988958,
        "last_rank": 116351,
        "player_name": "Jason Ghulam",
        "rank": 79340,
        "rank_sort": 79344,
        "total": 2336
      },
      {
        "club_badge_src": null,
        "entry": 185018,
        "entry_name": "Blue_moon",
        "event_total": 62,
        "has_played": true,
        "id": 1221956,
        "last_rank": 83127,
        "player_name": "marvin james",
        "rank": 79340,
        "rank_sort": 79345,
        "total": 2336
      },
      {
        "club_badge_src": "https://fantasy.premierleague.com/gcs/plfpl-production-adobe-approved/plfpl-production/229905/54e3d4b3-bff8-4833-9f35-ec83d81f9c86.png",
        "entry": 229905,
        "entry_name": "Famous last Wirtz",
        "event_total": 72,
        "has_played": true,
        "id": 1529551,
        "last_rank": 107995,
        "player_name": "Dan Finlayson",
        "rank": 79340,
        "rank_sort": 79346,
        "total": 2336
      },
      {
        "club_badge_src": null,
        "entry": 274773,
        "entry_name": "MoyeenulTHEBest",
        "event_total": 69,
        "has_played": true,
        "id": 1828402,
        "last_rank": 100092,
        "player_name": "Md. Moyeenul Islam",
        "rank": 79340,
        "rank_sort": 79347,
        "total": 2336
      },
      {
        "club_badge_src": null,
        "entry": 282518,
        "entry_name": "Delap Dance",
        "event_total": 67,
        "has_played": true,
        "id": 1880513,
        "last_rank": 95063,
        "player_name": "Paul Morris",
        "rank": 79340,
        "rank_sort": 79348,
        "total": 2336
      },
      {
        "club_badge_src": null,
        "entry": 304488,
        "entry_name": "Bulletspiupiu",
        "event_total": 57,
        "has_played": true,
        "id": 2038697,
        "last_rank": 72346,
        "player_name": "Taavi Leetus",
        "rank": 79340,
        "rank_sort": 79349,
        "total": 2336
      },
      {
        "club_badge_src": null,
        "entry": 404360,
        "entry_name": "dorgpoo",
        "event_total": 52,
        "has_played": true,
        "id": 2711323,
        "last_rank": 70276,
        "player_name": "Elliott O'Neal",
        "rank": 79340,
        "rank_sort": 79350,
        "total": 2336
      }
    ]
  }
}