{
  "last_updated_data": "2026-05-24T23:28:17Z",
  "league": {
    "admin_entry": null,
    "closed": false,
    "code_privacy": "p",
    "created": "2025-07-20T23:14:33.933835Z",
    "cup_league": 2815434,
    "has_cup": true,
    "id": 314,
    "league_type": "s",
    "max_entries": null,
    "name": "Overall",
    "rank": null,
    "scoring": "c",
    "start_event": 1
  },
  "new_entries": {
    "has_next": false,
    "page": 1,
    "results": []
  },
  "standings": {
    "has_next": true,
    "page": 1361,
    "results": [
      {
        "club_badge_src": null,
        "entry": 2622450,
        "entry_name": "YoroVisionSonContest",
        "event_total": 62,
        "has_played": true,
        "id": 18843634,
        "last_rank": 79431,
        "player_name": "Alec Gullstr\u00f6m-Hughes",
        "rank": 67829,
        "rank_sort": 68001,
        "total": 2341
      },
      {
        "club_badge_src": null,
        "entry": 2638748,
        "entry_name": "The Magpies",
        "event_total": 53,
        "has_played": true,
        "id": 18965337,
        "last_rank": 61411,
        "player_name": "mister khalid",
        "rank": 67829,
        "rank_sort": 68002,
        "total": 2341
      },
      {
        "club_badge_src": null,
        "entry": 2708179,
        "entry_name": "zou",
        "event_total": 75,
        "has_played": true,
        "id": 19484329,
        "last_rank": 111669,
        "player_name": "Zoubir Bensalem",
        "rank": 67829,
        "rank_sort": 68003,
        "total": 2341
      },
      {
        "club_badge_src": null,
        "entry": 2739967,
        "entry_name": "germolene",
        "event_total": 55,
        "has_played": true,
        "id": 19761616,
        "last_rank": 65163,
        "player_name": "fin gledhill",
        "rank": 67829,
        "rank_sort": 68004,
        "total": 2341
      },
      {
        "club_badge_src": null,
        "entry": 2857719,
        "entry_name": "CSD Catenaccio",
        "event_total": 70,
        "has_played": true,
        "id": 20897251,
        "last_rank": 98436,
        "player_name": "Nicolas Blanco Ayarza",
        "rank": 67829,
        "rank_sort": 68005,
        "total": 2341
      },
      {
        "club_badge_src": null,
        "entry": 2887069,
        "entry_name": "A Little Bit Messi",
        "event_total": 63,
        "has_played": true,
        "id": 21136924,
        "last_rank": 81646,
        "player_name": "Gan Hui Keong",
        "rank": 67829,
        "rank_sort": 68006,
        "total": 2341
      },
      {
        "club_badge_src": null,
        "entry": 2913049,
        "entry_name": "Chukwuemekameehorney",
        "event_total": 43,
        "has_played": true,
        "id": 21351563,
        "last_rank": 45416,
        "player_name": "Thaddeus Barker-Mill",
        "rank": 67829,
        "rank_sort": 68007,
        "total": 2341
      },
      {
        "club_badge_src": null,
        "entry": 2948277,
        "entry_name": "butterflies2.0",
        "event_total": 52,
        "has_played": true,
        "id": 21652405,
        "last_rank": 59813,
        "player_name": "Arnav Khanna",
        "rank": 67829,
        "rank_sort": 68008,
        "total": 2341
      },
      {
        "club_badge_src": null,
        "entry": 2959410,
        "entry_name": "1. FC Union Walker",
        "event_total": 65,
        "has_played": true,
        "id": 21738060,
        "last_rank": 86054,
        "player_name": "Andrew Walker",
        "rank": 67829,
        "rank_sort": 68009,
        "total": 2341
      },
      {
        "club_badge_src": null,
        "entry": 2967455,
        "entry_name": "the thominator",
        "event_total": 55,
        "has_played": true,
        "id": 21801406,
        "last_rank": 65163,
        "player_name": "Thom K\u00f6ster",
        "rank": 67829,
        "rank_sort": 68010,
        "total": 2341
      },
      {
        "club_badge_src": null,
        "entry": 2968591,
        "entry_name": "Brodie's Legends",
        "event_total": 50,
        "has_played": true,
        "id": 21810302,
        "last_rank": 56369,
        "player_name": "pj owens",
        "rank": 67829,
        "rank_sort": 68011,
        "total": 2341
      },
      {
        "club_badge_src": null,
        "entry": 2976476,
        "entry_name": "AP Boys",
        "event_total": 60,
        "has_played": true,
        "id": 21873407,
        "last_rank": 74898,
        "player_name": "Simon Eriksson",
        "rank": 67829,
        "rank_sort": 68012,
        "total": 2341
      },
      {
        "club_badge_src": null,
        "entry": 2989959,
        "entry_name": "bera1.0",
        "event_total": 51,
        "has_played": true,
        "id": 21989160,
        "last_rank": 57857,
        "player_name": "Nikola Beric",
        "rank": 67829,
        "rank_sort": 68013,
        "total": 2341
      },
      {
        "club_badge_src": null,
        "entry": 3000020,
        "entry_name": "worst brom",
        "event_total": 37,
        "has_played": true,
        "id": 22066214,
        "last_rank": 37589,
        "player_name": "Rob Massey",
        "rank": 67829,
        "rank_sort": 68014,
        "total": 2341
      },
      {
        "club_badge_src": null,
        "entry": 3021500,
        "entry_name": "Boshtin 3:16",
        "event_total": 52,
        "has_played": true,
        "id": 22230775,
        "last_rank": 59813,
        "player_name": "Morgan Roberts",
        "rank": 67829,
        "rank_sort": 68015,
        "total": 2341
      },
      {
        "club_badge_src": null,
        "entry": 3056937,
        "entry_name": "surely",
        "event_total": 65,
        "has_played": true,
        "id": 22505927,
        "last_rank": 86735,
        "player_name": "Calvin Walker",
        "rank": 67829,
        "rank_sort": 68016,
        "total": 2341
      },
      {
        "club_badge_src": "https://fantasy.premierleague.com/gcs/plfpl-production-adobe-approved/plfpl-production/3057580/1df035c1-48f0-4451-9537-ad7dc69cc178.png",
        "entry": 3057580,
        "entry_name": "Giroud Sandstorm",
        "event_total": 59,
        "has_played": true,
        "id": 22510834,
        "last_rank": 73038,
        "player_name": "Jake Kerrigan",
        "rank": 67829,
        "rank_sort": 68017,
        "total": 2341
      },
      {
        "club_badge_src": null,
        "entry": 3063357,
        "entry_name": "Le Gunners",
        "event_total": 58,
        "has_played": true,
        "id": 22554367,
        "last_rank": 70985,
        "player_name": "Le Gunners",
        "rank": 67829,
        "rank_sort": 68018,
        "total": 2341
      },
      {
        "club_badge_src": null,
        "entry": 3088232,
        "entry_name": "Cunha Kepa It Digne",
        "event_total": 54,
        "has_played": true,
        "id": 22754411,
        "last_rank": 63390,
        "player_name": "Jake Ijima",
        "rank": 67829,
        "rank_sort": 68019,
        "total": 2341
      },
      {
        "club_badge_src": null,
        "entry": 3147859,
        "entry_name": "paulimo",
        "event_total": 61,
        "has_played": true,
        "id": 23243522,
        "last_rank": 77050,
        "player_name": "Paul Martin",
        "rank": 67829,
        "rank_sort": 68020,
        "total": 2341
      },
      {
        "club_badge_src": "https://fantasy.premierleague.com/gcs/plfpl-production-adobe-approved/plfpl-production/3186860/e7faabcf-1140-4990-a548-e5f0b3281fbc.png",
        "entry": 3186860,
        "entry_name": "Saka Potatoes",
        "event_total": 60,
        "has_played": true,
        "id": 23551225,
        "last_rank": 75139,
        "player_name": "James Moemken",
        "rank": 67829,
        "rank_sort": 68021,
        "total": 2341
      },
      {
        "club_badge_src": null,
        "entry": 3191516,
        "entry_name": "Livin' Saliba Loca",
        "event_total": 57,
        "has_played": true,
        "id": 23587045,
        "last_rank": 68957,
        "player_name": "Sam Ward",
        "rank": 67829,
        "rank_sort": 68022,
        "total": 2341
      },
      {
        "club_badge_src": null,
        "entry": 3221252,
        "entry_name": "Beef Cherki",
        "event_total": 56,
        "has_played": true,
        "id": 23820611,
        "last_rank": 67063,
        "player_name": "Max Smith",
        "rank": 67829,
        "rank_sort": 68023,
        "total": 2341
      },
      {
        "club_badge_src": null,
        "entry": 3246788,
        "entry_name": "\ufffd DIVIZIJA \ufffd",
        "event_total": 69,
        "has_played": true,
        "id": 24019669,
        "last_rank": 95640,
        "player_name": "Dejan Veli\u010dkovi\u0107",
        "rank": 67829,
        "rank_sort": 68024,
        "total": 2341
      },
      {
        "club_badge_src": null,
        "entry": 3249228,
        "entry_name": "Peaky Reijnders",
        "event_total": 48,
        "has_played": true,
        "id": 24039120,
        "last_rank": 53023,
        "player_name": "Sam Ganner",
        "rank": 67829,
        "rank_sort": 68025,
        "total": 2341
      },
      {
        "club_badge_src": null,
        "entry": 3261239,
        "entry_name": "Champions FC",
        "event_total": 58,
        "has_played": true,
        "id": 24131292,
        "last_rank": 70985,
        "player_name": "Ronaldo willie",
        "rank": 67829,
        "rank_sort": 68026,
        "total": 2341
      },
      {
        "club_badge_src": null,
        "entry": 3284208,
        "entry_name": "Higgo's Help",
        "event_total": 39,
        "has_played": true,
        "id": 24310919,
        "last_rank": 40297,
        "player_name": "James Higgins",
        "rank": 67829,
        "rank_sort": 68027,
        "total": 2341
      },
      {
        "club_badge_src": null,
        "entry": 3285444,
        "entry_name": "Ali Mac FC",
        "event_total": 56,
        "has_played": true,
        "id": 24320936,
        "last_rank": 59632,
        "player_name": "Ali McLean",
        "rank": 67829,
        "rank_sort": 68028,
        "total": 2341
      },
      {
        "club_badge_src": null,
        "entry": 3305833,
        "entry_name": "The \u26bd\ufe0f Messi'ahs",
        "event_total": 69,
        "has_played": true,
        "id": 24487126,
        "last_rank": 95890,
        "player_name": "Vivek Gera",
        "rank": 67829,
        "rank_sort": 68029,
        "total": 2341
      },
      {
        "club_badge_src": null,
        "entry": 3338677,
        "entry_name": "haalandaise sauce",
        "event_total": 69,
        "has_played": true,
        "id": 24762201,
        "last_rank": 96374,
        "player_name": "Chris Wilcox",
        "rank": 67829,
        "rank_sort": 68030,
        "total": 2341
      },
      {
        "club_badge_src": null,
        "entry": 3342446,
        "entry_name": "Boomxhakasakamacca",
        "event_total": 52,
        "has_played": true,
        "id": 24792203,
        "last_rank": 60168,
        "player_name": "Chris Worts",
        "rank": 67829,
        "rank_sort": 68031,
        "total": 2341
      },
      {
        "club_badge_src": null,
        "entry": 3399438,
        "entry_name": "\u0141\u0119\u00fcK\u0105m\u00ee\u00e2\u0218q\u00dc\u0105\u00f0\ufffd",
        "event_total": 56,
        "has_played": true,
        "id": 25240498,
        "last_rank": 66848,
        "player_name": "Mohamed Hassan",
        "rank": 67829,
        "rank_sort": 68032,
        "total": 2341
      },
      {
        "club_badge_src": null,
        "entry": 3404003,
        "entry_name": "Change Name",
        "event_total": 54,
        "has_played": true,
        "id": 25275210,
        "last_rank": 63390,
        "player_name": "Kieran Hickey",
        "rank": 67829,
        "rank_sort": 68033,
        "total": 2341
      },
      {
        "club_badge_src": null,
        "entry": 3418648,
        "entry_name": "Rankins 11",
        "event_total": 59,
        "has_played": true,
        "id": 25392965,
        "last_rank": 72815,
        "player_name": "Ruairi Mcmillan",
        "rank": 67829,
        "rank_sort": 68034,
        "total": 2341
      },
      {
        "club_badge_src": null,
        "entry": 3426424,
        "entry_name": "Samchester United",
        "event_total": 42,
        "has_played": true,
        "id": 25453202,
        "last_rank": 44303,
        "player_name": "Sam Swann",
        "rank": 67829,
        "rank_sort": 68035,
        "total": 2341
      },
      {
        "club_badge_src": null,
        "entry": 3437562,
        "entry_name": "Shadow Moon",
        "event_total": 54,
        "has_played": true,
        "id": 25537598,
        "last_rank": 63201,
        "player_name": "Flora Lo",
        "rank": 67829,
        "rank_sort": 68036,
        "total": 2341
      },
      {
        "club_badge_src": "https://fantasy.premierleague.com/gcs/plfpl-production-adobe-approved/plfpl-production/3444668/1fe65d88-9bc7-4ef9-a2b3-33905565776d.png",
        "entry": 3444668,
        "entry_name": "Cobra Kai Havertz",
        "event_total": 74,
        "has_played": true,
        "id": 25593442,
        "last_rank": 108959,
        "player_name": "Prabin Pandey",
        "rank": 67829,
        "rank_sort": 68037,
        "total": 2341
      },
      {
        "club_badge_src": null,
        "entry": 3588647,
        "entry_name": "procrastination utd",
        "event_total": 43,
        "has_played": true,
        "id": 26725720,
        "last_rank": 45416,
        "player_name": "Rhys Thomas",
        "rank": 67829,
        "rank_sort": 68038,
        "total": 2341
      },
      {
        "club_badge_src": null,
        "entry": 3592995,
        "entry_name": "La Vecchia singora",
        "event_total": 45,
        "has_played": true,
        "id": 26759270,
        "last_rank": 48363,
        "player_name": "Fahad Faisal",
        "rank": 67829,
        "rank_sort": 68039,
        "total": 2341
      },
      {
        "club_badge_src": null,
        "entry": 3636702,
        "entry_name": "Slott it home again",
        "event_total": 42,
        "has_played": true,
        "id": 27101773,
        "last_rank": 44048,
        "player_name": "Owen Murphy",
        "rank": 67829,
        "rank_sort": 68040,
        "total": 2341
      },
      {
        "club_badge_src": null,
        "entry": 3638914,
        "entry_name": "Blink 1 Eto'o",
        "event_total": 46,
        "has_played": true,
        "id": 27118808,
        "last_rank": 49880,
        "player_name": "Mark Linstead",
        "rank": 67829,
        "rank_sort": 68041,
        "total": 2341
      },
      {
        "club_badge_src": null,
        "entry": 3653726,
        "entry_name": "AI Team",
        "event_total": 47,
        "has_played": true,
        "id": 27235359,
        "last_rank": 51403,
        "player_name": "Fantasy Football Hub",
        "rank": 67829,
        "rank_sort": 68042,
        "total": 2341
      },
      {
        "club_badge_src": null,
        "entry": 3723063,
        "entry_name": "onemoreride",
        "event_total": 64,
        "has_played": true,
        "id": 27785242,
        "last_rank": 83698,
        "player_name": "Rick Barretto",
        "rank": 67829,
        "rank_sort": 68043,
        "total": 2341
      },
      {
        "club_badge_src": null,
        "entry": 3724406,
        "entry_name": "Cols 11",
        "event_total": 50,
        "has_played": true,
        "id": 27795816,
        "last_rank": 56369,
        "player_name": "Colin Hill",
        "rank": 67829,
        "rank_sort": 68044,
        "total": 2341
      },
      {
        "club_badge_src": null,
        "entry": 3769716,
        "entry_name": "ThE PuNiShEr  8.0",
        "event_total": 52,
        "has_played": true,
        "id": 28146959,
        "last_rank": 60168,
        "player_name": "Apostle Paul",
        "rank": 67829,
        "rank_sort": 68045,
        "total": 2341
      },
      {
        "club_badge_src": "https://fantasy.premierleague.com/gcs/plfpl-production-adobe-approved/plfpl-production/3770488/d96b86e7-3fbc-4ffa-b2e4-33ae4187c0de.png",
        "entry": 3770488,
        "entry_name": "Cucurellavision",
        "event_total": 64,
        "has_played": true,
        "id": 28152931,
        "last_rank": 83698,
        "player_name": "Ricky Fernando",
        "rank": 67829,
        "rank_sort": 68046,
        "total": 2341
      },
      {
        "club_badge_src": null,
        "entry": 3774435,
        "entry_name": "Mido's Megastars",
        "event_total": 62,
        "has_played": true,
        "id": 28182547,
        "last_rank": 79431,
        "player_name": "Alex Lincoln-Antoniou",
        "rank": 67829,
        "rank_sort": 68047,
        "total": 2341
      },
      {
        "club_badge_src": "https://fantasy.premierleague.com/gcs/plfpl-production-adobe-approved/plfpl-production/3786083/dbfd6351-6bf0-4c9b-ae80-5fe14a6f55fa.png",
        "entry": 3786083,
        "entry_name": "Aspen Cape Comrades",
        "event_total": 55,
        "has_played": true,
        "id": 28275965,
        "last_rank": 65163,
        "player_name": "Janne Partanen",
        "rank": 67829,
        "rank_sort": 68048,
        "total": 2341
      },
      {
        "club_badge_src": "https://fantasy.premierleague.com/gcs/plfpl-production-adobe-approved/plfpl-production/3794343/14577e96-3292-4307-a774-36cf03fe8d73.png",
        "entry": 3794343,
        "entry_name": "Your Wirtz Nightmare",
        "event_total": 61,
        "has_played": true,
        "id": 28359461,
        "last_rank": 77258,
        "player_name": "Benjamin Hurley",
        "rank": 67829,
        "rank_sort": 68049,
        "total": 2341
      },
      {
        "club_badge_src": null,
        "entry": 3826585,
        "entry_name": "FC Zitto Zampe",
        "event_total": 50,
        "has_played": true,
        "id": 28623039,
        "last_rank": 56180,
        "player_name": "Mark Hinxman",
        "rank": 67829,
        "rank_sort": 68050,
        "total": 2341
      }
    ]
  }
}