{
  "last_updated_data": "2026-05-24T23:28:17Z",
  "league": {
    "admin_entry": null,
    "closed": false,
    "code_privacy": "p",
    "created": "2025-07-20T23:14:33.933835Z",
    "cup_league": 2815434,
    "has_cup": true,
    "id": 314,
    "league_type": "s",
    "max_entries": null,
    "name": "Overall",
    "rank": null,
    "scoring": "c",
    "start_event": 1
  },
  "new_entries": {
    "has_next": false,
    "page": 1,
    "results": []
  },
  "standings": {
    "has_next": true,
    "page": 1613,
    "results": [
      {
        "club_badge_src": null,
        "entry": 8647660,
        "entry_name": "Sweaty Goals FC",
        "event_total": 62,
        "has_played": true,
        "id": 72062553,
        "last_rank": 93883,
        "player_name": "Tim Hollis",
        "rank": 80241,
        "rank_sort": 80601,
        "total": 2335
      },
      {
        "club_badge_src": null,
        "entry": 8706851,
        "entry_name": "Gordon4s or Gordon1s",
        "event_total": 62,
        "has_played": true,
        "id": 72645156,
        "last_rank": 93883,
        "player_name": "Chris Mathew",
        "rank": 80241,
        "rank_sort": 80602,
        "total": 2335
      },
      {
        "club_badge_src": null,
        "entry": 8802049,
        "entry_name": "Jurgen Lose",
        "event_total": 74,
        "has_played": true,
        "id": 73564614,
        "last_rank": 126948,
        "player_name": "Sheahan Abraham",
        "rank": 80241,
        "rank_sort": 80603,
        "total": 2335
      },
      {
        "club_badge_src": null,
        "entry": 8839265,
        "entry_name": "The Beatles FC",
        "event_total": 59,
        "has_played": true,
        "id": 73922352,
        "last_rank": 86735,
        "player_name": "Zbyn\u011bk V\u00edtek",
        "rank": 80241,
        "rank_sort": 80604,
        "total": 2335
      },
      {
        "club_badge_src": null,
        "entry": 8982834,
        "entry_name": "Tesco McNeil Deal",
        "event_total": 61,
        "has_played": true,
        "id": 75316593,
        "last_rank": 91006,
        "player_name": "Phil Lee",
        "rank": 80241,
        "rank_sort": 80605,
        "total": 2335
      },
      {
        "club_badge_src": null,
        "entry": 9113775,
        "entry_name": "\ufffd FPL",
        "event_total": 51,
        "has_played": true,
        "id": 76586576,
        "last_rank": 61606,
        "player_name": "Trophy FPL",
        "rank": 80241,
        "rank_sort": 80606,
        "total": 2335
      },
      {
        "club_badge_src": null,
        "entry": 9229603,
        "entry_name": "A-Cunha Mateta",
        "event_total": 64,
        "has_played": true,
        "id": 77724202,
        "last_rank": 98436,
        "player_name": "Kerry O'Neill",
        "rank": 80241,
        "rank_sort": 80607,
        "total": 2335
      },
      {
        "club_badge_src": "https://fantasy.premierleague.com/gcs/plfpl-production-adobe-approved/plfpl-production/9437178/19c6dcb4-e060-47c5-8fdd-3837db681f0b.png",
        "entry": 9437178,
        "entry_name": "Change Name",
        "event_total": 50,
        "has_played": true,
        "id": 79728230,
        "last_rank": 67422,
        "player_name": "Ariel Hirchfeld",
        "rank": 80241,
        "rank_sort": 80608,
        "total": 2335
      },
      {
        "club_badge_src": null,
        "entry": 850,
        "entry_name": "Eze come Eze go",
        "event_total": 44,
        "has_played": true,
        "id": 4684,
        "last_rank": 49880,
        "player_name": "Mohamed Adel Awad",
        "rank": 80609,
        "rank_sort": 80609,
        "total": 2335
      },
      {
        "club_badge_src": null,
        "entry": 897,
        "entry_name": "Power Reijnders",
        "event_total": 61,
        "has_played": true,
        "id": 4960,
        "last_rank": 82069,
        "player_name": "Nikola Mihaylov",
        "rank": 80609,
        "rank_sort": 80610,
        "total": 2335
      },
      {
        "club_badge_src": null,
        "entry": 2359,
        "entry_name": "Who's to say",
        "event_total": 67,
        "has_played": true,
        "id": 13159,
        "last_rank": 95890,
        "player_name": "Ed England",
        "rank": 80609,
        "rank_sort": 80611,
        "total": 2335
      },
      {
        "club_badge_src": null,
        "entry": 6239,
        "entry_name": "Zubi-Dubi-D\u00f8\u00f8",
        "event_total": 52,
        "has_played": true,
        "id": 35756,
        "last_rank": 63724,
        "player_name": "Brendan Cotter",
        "rank": 80609,
        "rank_sort": 80612,
        "total": 2335
      },
      {
        "club_badge_src": "https://fantasy.premierleague.com/gcs/plfpl-production-adobe-approved/plfpl-production/12446/33d05ace-70a6-4ef6-a0fa-8843f7ddadbd.png",
        "entry": 12446,
        "entry_name": "TD\u2019s Charvs",
        "event_total": 60,
        "has_played": true,
        "id": 74505,
        "last_rank": 79431,
        "player_name": "Tom Drew",
        "rank": 80609,
        "rank_sort": 80613,
        "total": 2335
      },
      {
        "club_badge_src": null,
        "entry": 17421,
        "entry_name": "Gorkhali Missile\u2705\ufe0f",
        "event_total": 68,
        "has_played": true,
        "id": 108065,
        "last_rank": 109863,
        "player_name": "Pradip Lohani",
        "rank": 80609,
        "rank_sort": 80614,
        "total": 2335
      },
      {
        "club_badge_src": null,
        "entry": 19078,
        "entry_name": "shillaka",
        "event_total": 55,
        "has_played": true,
        "id": 118742,
        "last_rank": 68957,
        "player_name": "Theofanis Constantinou",
        "rank": 80609,
        "rank_sort": 80615,
        "total": 2335
      },
      {
        "club_badge_src": null,
        "entry": 20389,
        "entry_name": "Geeft je van katoen",
        "event_total": 56,
        "has_played": true,
        "id": 127087,
        "last_rank": 80194,
        "player_name": "Bart Schoen",
        "rank": 80609,
        "rank_sort": 80616,
        "total": 2335
      },
      {
        "club_badge_src": null,
        "entry": 25106,
        "entry_name": "Witzerland",
        "event_total": 73,
        "has_played": true,
        "id": 158740,
        "last_rank": 124682,
        "player_name": "Saran P",
        "rank": 80609,
        "rank_sort": 80617,
        "total": 2335
      },
      {
        "club_badge_src": null,
        "entry": 27570,
        "entry_name": "adelol",
        "event_total": 64,
        "has_played": true,
        "id": 174300,
        "last_rank": 98896,
        "player_name": "adel alkhrraz",
        "rank": 80609,
        "rank_sort": 80618,
        "total": 2335
      },
      {
        "club_badge_src": "https://fantasy.premierleague.com/gcs/plfpl-production-adobe-approved/plfpl-production/30268/df6e13bf-c322-43ca-91ac-5b56d6902c3d.png",
        "entry": 30268,
        "entry_name": "A Succulent Lille",
        "event_total": 31,
        "has_played": true,
        "id": 191563,
        "last_rank": 38016,
        "player_name": "Josh Harvey",
        "rank": 80609,
        "rank_sort": 80619,
        "total": 2335
      },
      {
        "club_badge_src": null,
        "entry": 36571,
        "entry_name": "Gansoe FC",
        "event_total": 34,
        "has_played": true,
        "id": 234136,
        "last_rank": 41824,
        "player_name": "Ricardo Kruijssen",
        "rank": 80609,
        "rank_sort": 80620,
        "total": 2335
      },
      {
        "club_badge_src": null,
        "entry": 39486,
        "entry_name": "Wireless Rutter",
        "event_total": 57,
        "has_played": true,
        "id": 253007,
        "last_rank": 82398,
        "player_name": "Tyler Rowe",
        "rank": 80609,
        "rank_sort": 80621,
        "total": 2335
      },
      {
        "club_badge_src": null,
        "entry": 41573,
        "entry_name": "ThS \u2705 1\ufe0f\u20e3",
        "event_total": 50,
        "has_played": true,
        "id": 266366,
        "last_rank": 67695,
        "player_name": "Saoud buMaitha \ud83c\udfa9",
        "rank": 80609,
        "rank_sort": 80622,
        "total": 2335
      },
      {
        "club_badge_src": null,
        "entry": 46760,
        "entry_name": "Mtu Mbaya",
        "event_total": 51,
        "has_played": true,
        "id": 299752,
        "last_rank": 69641,
        "player_name": "Dunstan Mpondo",
        "rank": 80609,
        "rank_sort": 80623,
        "total": 2335
      },
      {
        "club_badge_src": null,
        "entry": 52104,
        "entry_name": "Fatboy Slimikas",
        "event_total": 59,
        "has_played": true,
        "id": 335085,
        "last_rank": 87074,
        "player_name": "Will Buchan",
        "rank": 80609,
        "rank_sort": 80624,
        "total": 2335
      },
      {
        "club_badge_src": null,
        "entry": 53402,
        "entry_name": "ch1rp",
        "event_total": 58,
        "has_played": true,
        "id": 343569,
        "last_rank": 75537,
        "player_name": "Boba Marine",
        "rank": 80609,
        "rank_sort": 80625,
        "total": 2335
      },
      {
        "club_badge_src": "https://fantasy.premierleague.com/gcs/plfpl-production-adobe-approved/plfpl-production/55817/55160c96-ac89-46d6-9065-fe955ec75642.png",
        "entry": 55817,
        "entry_name": "AMAHZOUNE HSM",
        "event_total": 62,
        "has_played": true,
        "id": 359425,
        "last_rank": 84360,
        "player_name": "AMAHZOUNE HSM----",
        "rank": 80609,
        "rank_sort": 80626,
        "total": 2335
      },
      {
        "club_badge_src": "https://fantasy.premierleague.com/gcs/plfpl-production-adobe-approved/plfpl-production/57863/1dd48465-da25-4d9c-95cc-adcb8aab3c38.png",
        "entry": 57863,
        "entry_name": "Virgil Van Maguire",
        "event_total": 37,
        "has_played": true,
        "id": 372757,
        "last_rank": 45927,
        "player_name": "Ed Pinnington",
        "rank": 80609,
        "rank_sort": 80627,
        "total": 2335
      },
      {
        "club_badge_src": null,
        "entry": 63052,
        "entry_name": "Ekitikitaka",
        "event_total": 52,
        "has_played": true,
        "id": 406696,
        "last_rank": 71713,
        "player_name": "Torbj\u00f8rn Lundberg",
        "rank": 80609,
        "rank_sort": 80628,
        "total": 2335
      },
      {
        "club_badge_src": "https://fantasy.premierleague.com/gcs/plfpl-production-adobe-approved/plfpl-production/63615/57d685ba-25c9-45a5-929d-8170304c3287.png",
        "entry": 63615,
        "entry_name": "TangesTofodstacklere",
        "event_total": 62,
        "has_played": true,
        "id": 410493,
        "last_rank": 83934,
        "player_name": "Andreas Tange Rasmussen",
        "rank": 80609,
        "rank_sort": 80629,
        "total": 2335
      },
      {
        "club_badge_src": null,
        "entry": 63743,
        "entry_name": "Respect Man",
        "event_total": 48,
        "has_played": true,
        "id": 411326,
        "last_rank": 64005,
        "player_name": "james kiernan",
        "rank": 80609,
        "rank_sort": 80630,
        "total": 2335
      },
      {
        "club_badge_src": "https://fantasy.premierleague.com/gcs/plfpl-production-adobe-approved/plfpl-production/74777/cc90e32d-b745-4d0b-b671-d77ae0962e3c.png",
        "entry": 74777,
        "entry_name": "Red Nose Reijnders",
        "event_total": 64,
        "has_played": true,
        "id": 486081,
        "last_rank": 99296,
        "player_name": "Andrew Alexander Caruana",
        "rank": 80609,
        "rank_sort": 80631,
        "total": 2335
      },
      {
        "club_badge_src": "https://fantasy.premierleague.com/gcs/plfpl-production-adobe-approved/plfpl-production/79963/fe63468d-a909-487b-920a-11b86329ac29.png",
        "entry": 79963,
        "entry_name": "Mustang Valley",
        "event_total": 64,
        "has_played": true,
        "id": 520263,
        "last_rank": 98896,
        "player_name": "James Povey",
        "rank": 80609,
        "rank_sort": 80632,
        "total": 2335
      },
      {
        "club_badge_src": "https://fantasy.premierleague.com/gcs/plfpl-production-adobe-approved/plfpl-production/99154/2003bcf3-16f8-439c-8683-07f8443785c0.png",
        "entry": 99154,
        "entry_name": "FeeeZo FC",
        "event_total": 47,
        "has_played": true,
        "id": 647319,
        "last_rank": 62223,
        "player_name": "Faisal Alrumaidheen",
        "rank": 80609,
        "rank_sort": 80633,
        "total": 2335
      },
      {
        "club_badge_src": null,
        "entry": 100334,
        "entry_name": "Kalra XI",
        "event_total": 66,
        "has_played": true,
        "id": 654814,
        "last_rank": 93883,
        "player_name": "Ricky Kalra",
        "rank": 80609,
        "rank_sort": 80634,
        "total": 2335
      },
      {
        "club_badge_src": null,
        "entry": 100481,
        "entry_name": "RED DEVILS",
        "event_total": 43,
        "has_played": true,
        "id": 655725,
        "last_rank": 55014,
        "player_name": "Dhruv Gohel",
        "rank": 80609,
        "rank_sort": 80635,
        "total": 2335
      },
      {
        "club_badge_src": null,
        "entry": 106029,
        "entry_name": "Cunhalingus",
        "event_total": 64,
        "has_played": true,
        "id": 691432,
        "last_rank": 88594,
        "player_name": "Sam Eastgate-Brown",
        "rank": 80609,
        "rank_sort": 80636,
        "total": 2335
      },
      {
        "club_badge_src": null,
        "entry": 106131,
        "entry_name": "Back O Da Onion Bag",
        "event_total": 64,
        "has_played": true,
        "id": 692084,
        "last_rank": 98896,
        "player_name": "James Miller",
        "rank": 80609,
        "rank_sort": 80637,
        "total": 2335
      },
      {
        "club_badge_src": null,
        "entry": 112475,
        "entry_name": "Wombert United",
        "event_total": 65,
        "has_played": true,
        "id": 733356,
        "last_rank": 101818,
        "player_name": "Stewart Omand",
        "rank": 80609,
        "rank_sort": 80638,
        "total": 2335
      },
      {
        "club_badge_src": null,
        "entry": 113083,
        "entry_name": "Volodar",
        "event_total": 57,
        "has_played": true,
        "id": 737512,
        "last_rank": 82398,
        "player_name": "Alex Zavodov",
        "rank": 80609,
        "rank_sort": 80639,
        "total": 2335
      },
      {
        "club_badge_src": null,
        "entry": 114416,
        "entry_name": "Santa's Reijnders",
        "event_total": 72,
        "has_played": true,
        "id": 746332,
        "last_rank": 120941,
        "player_name": "Jean-Paul Boertje",
        "rank": 80609,
        "rank_sort": 80640,
        "total": 2335
      },
      {
        "club_badge_src": null,
        "entry": 114679,
        "entry_name": "Yoro Wissa Harry",
        "event_total": 56,
        "has_played": true,
        "id": 748115,
        "last_rank": 71386,
        "player_name": "Matty Gillam",
        "rank": 80609,
        "rank_sort": 80641,
        "total": 2335
      },
      {
        "club_badge_src": "https://fantasy.premierleague.com/gcs/plfpl-production-adobe-approved/plfpl-production/120254/0207cac4-fc2a-49ab-ac1b-5def8970641c.png",
        "entry": 120254,
        "entry_name": "Chelski Stu",
        "event_total": 60,
        "has_played": true,
        "id": 784606,
        "last_rank": 89055,
        "player_name": "Stuart Hall",
        "rank": 80609,
        "rank_sort": 80642,
        "total": 2335
      },
      {
        "club_badge_src": "https://fantasy.premierleague.com/gcs/plfpl-production-adobe-approved/plfpl-production/131291/47f1e6f4-fcc2-4c6c-9eb2-210f1d465071.png",
        "entry": 131291,
        "entry_name": "OhHisNameisDiogo",
        "event_total": 56,
        "has_played": true,
        "id": 855360,
        "last_rank": 79817,
        "player_name": "Lewis Deeley",
        "rank": 80609,
        "rank_sort": 80643,
        "total": 2335
      },
      {
        "club_badge_src": null,
        "entry": 131302,
        "entry_name": "Mztatobey",
        "event_total": 52,
        "has_played": true,
        "id": 855433,
        "last_rank": 71713,
        "player_name": "John Olarinde",
        "rank": 80609,
        "rank_sort": 80644,
        "total": 2335
      },
      {
        "club_badge_src": null,
        "entry": 133402,
        "entry_name": "Noahhehe",
        "event_total": 57,
        "has_played": true,
        "id": 868919,
        "last_rank": 82398,
        "player_name": "Kittitach Metha",
        "rank": 80609,
        "rank_sort": 80645,
        "total": 2335
      },
      {
        "club_badge_src": null,
        "entry": 150412,
        "entry_name": "All the Smallings",
        "event_total": 64,
        "has_played": true,
        "id": 986459,
        "last_rank": 89055,
        "player_name": "Ryan Adams",
        "rank": 80609,
        "rank_sort": 80646,
        "total": 2335
      },
      {
        "club_badge_src": null,
        "entry": 164729,
        "entry_name": "Squidwirtz",
        "event_total": 53,
        "has_played": true,
        "id": 1087258,
        "last_rank": 73975,
        "player_name": "Matt Goh",
        "rank": 80609,
        "rank_sort": 80647,
        "total": 2335
      },
      {
        "club_badge_src": "https://fantasy.premierleague.com/gcs/plfpl-production-adobe-approved/plfpl-production/168166/eb0d5b09-6735-4d8f-8708-7576af93cf92.png",
        "entry": 168166,
        "entry_name": "Gurney XI",
        "event_total": 61,
        "has_played": true,
        "id": 1111537,
        "last_rank": 82069,
        "player_name": "Peter Mcgee",
        "rank": 80609,
        "rank_sort": 80648,
        "total": 2335
      },
      {
        "club_badge_src": null,
        "entry": 176123,
        "entry_name": "The Blues",
        "event_total": 62,
        "has_played": true,
        "id": 1162663,
        "last_rank": 84360,
        "player_name": "Mark Cleverdon",
        "rank": 80609,
        "rank_sort": 80649,
        "total": 2335
      },
      {
        "club_badge_src": null,
        "entry": 197587,
        "entry_name": "Change Name",
        "event_total": 69,
        "has_played": true,
        "id": 1311056,
        "last_rank": 91006,
        "player_name": "Jack Talbot",
        "rank": 80609,
        "rank_sort": 80650,
        "total": 2335
      }
    ]
  }
}