{
  "last_updated_data": "2026-05-24T23:28:17Z",
  "league": {
    "admin_entry": null,
    "closed": false,
    "code_privacy": "p",
    "created": "2025-07-20T23:14:33.933835Z",
    "cup_league": 2815434,
    "has_cup": true,
    "id": 314,
    "league_type": "s",
    "max_entries": null,
    "name": "Overall",
    "rank": null,
    "scoring": "c",
    "start_event": 1
  },
  "new_entries": {
    "has_next": false,
    "page": 1,
    "results": []
  },
  "standings": {
    "has_next": true,
    "page": 1284,
    "results": [
      {
        "club_badge_src": null,
        "entry": 1015670,
        "entry_name": "Piperians",
        "event_total": 58,
        "has_played": true,
        "id": 7026421,
        "last_rank": 66848,
        "player_name": "James Piper",
        "rank": 64123,
        "rank_sort": 64151,
        "total": 2343
      },
      {
        "club_badge_src": null,
        "entry": 1081493,
        "entry_name": "I\u2019m a Gooner",
        "event_total": 59,
        "has_played": true,
        "id": 7488349,
        "last_rank": 68957,
        "player_name": "Luke Oscar",
        "rank": 64123,
        "rank_sort": 64152,
        "total": 2343
      },
      {
        "club_badge_src": "https://fantasy.premierleague.com/gcs/plfpl-production-adobe-approved/plfpl-production/1105654/8463daa4-5f20-45c1-a1db-a5ed915dd7e6.png",
        "entry": 1105654,
        "entry_name": "Stix FC",
        "event_total": 75,
        "has_played": true,
        "id": 7658502,
        "last_rank": 105748,
        "player_name": "Matt Winter",
        "rank": 64123,
        "rank_sort": 64153,
        "total": 2343
      },
      {
        "club_badge_src": null,
        "entry": 1114538,
        "entry_name": "FC Buzau",
        "event_total": 57,
        "has_played": true,
        "id": 7720200,
        "last_rank": 64943,
        "player_name": "Iulian Claudiu",
        "rank": 64123,
        "rank_sort": 64154,
        "total": 2343
      },
      {
        "club_badge_src": "https://fantasy.premierleague.com/gcs/plfpl-production-adobe-approved/plfpl-production/1138597/49872bd4-c19f-4215-aff9-9efe84300073.png",
        "entry": 1138597,
        "entry_name": "\u0627\u0644\u0634\u0644\u0643\u0634",
        "event_total": 42,
        "has_played": true,
        "id": 7892504,
        "last_rank": 41324,
        "player_name": "Amr Khaled",
        "rank": 64123,
        "rank_sort": 64155,
        "total": 2343
      },
      {
        "club_badge_src": null,
        "entry": 1144474,
        "entry_name": "Liverhuddyville",
        "event_total": 69,
        "has_played": true,
        "id": 7933273,
        "last_rank": 90746,
        "player_name": "Andrew Briggs",
        "rank": 64123,
        "rank_sort": 64156,
        "total": 2343
      },
      {
        "club_badge_src": "https://fantasy.premierleague.com/gcs/plfpl-production-adobe-approved/plfpl-production/1181477/f7020988-4bcc-4b16-9763-726c1cf9f8c3.png",
        "entry": 1181477,
        "entry_name": "Slot Machine",
        "event_total": 50,
        "has_played": true,
        "id": 8197371,
        "last_rank": 53023,
        "player_name": "Ryan Griffin",
        "rank": 64123,
        "rank_sort": 64157,
        "total": 2343
      },
      {
        "club_badge_src": "https://fantasy.premierleague.com/gcs/plfpl-production-adobe-approved/plfpl-production/1207367/a3c80b65-e8aa-4e47-8b6a-def28259d8dd.png",
        "entry": 1207367,
        "entry_name": "Simbreze",
        "event_total": 46,
        "has_played": true,
        "id": 8378954,
        "last_rank": 46839,
        "player_name": "Simon Vorlet",
        "rank": 64123,
        "rank_sort": 64158,
        "total": 2343
      },
      {
        "club_badge_src": null,
        "entry": 1268723,
        "entry_name": "Sakamaje",
        "event_total": 61,
        "has_played": true,
        "id": 8815168,
        "last_rank": 72815,
        "player_name": "Kamdili Egenti",
        "rank": 64123,
        "rank_sort": 64159,
        "total": 2343
      },
      {
        "club_badge_src": "https://fantasy.premierleague.com/gcs/plfpl-production-adobe-approved/plfpl-production/1575269/6df7f0bb-ebf0-4f1e-8171-9575dc52b805.png",
        "entry": 1575269,
        "entry_name": "h7amu",
        "event_total": 95,
        "has_played": true,
        "id": 11007444,
        "last_rank": 170539,
        "player_name": "Moohemmeed .",
        "rank": 64123,
        "rank_sort": 64160,
        "total": 2343
      },
      {
        "club_badge_src": "https://fantasy.premierleague.com/gcs/plfpl-production-adobe-approved/plfpl-production/1600219/ece82467-a7eb-445b-981c-e237e0e001e1.png",
        "entry": 1600219,
        "entry_name": "Kempsey Vandals",
        "event_total": 61,
        "has_played": true,
        "id": 11194524,
        "last_rank": 72815,
        "player_name": "Lloyd Cresswell",
        "rank": 64123,
        "rank_sort": 64161,
        "total": 2343
      },
      {
        "club_badge_src": null,
        "entry": 1951001,
        "entry_name": "Whos the Wirtzerd",
        "event_total": 51,
        "has_played": true,
        "id": 13762727,
        "last_rank": 54667,
        "player_name": "Tahshin Mahmud",
        "rank": 64123,
        "rank_sort": 64162,
        "total": 2343
      },
      {
        "club_badge_src": null,
        "entry": 2200825,
        "entry_name": "Ekitiki-taka",
        "event_total": 65,
        "has_played": true,
        "id": 15661868,
        "last_rank": 81211,
        "player_name": "Afraaz Ali",
        "rank": 64123,
        "rank_sort": 64163,
        "total": 2343
      },
      {
        "club_badge_src": null,
        "entry": 2236214,
        "entry_name": "Bhoys",
        "event_total": 67,
        "has_played": true,
        "id": 15930761,
        "last_rank": 86054,
        "player_name": "Elliot Bisland",
        "rank": 64123,
        "rank_sort": 64164,
        "total": 2343
      },
      {
        "club_badge_src": "https://fantasy.premierleague.com/gcs/plfpl-production-adobe-approved/plfpl-production/2282965/16c619ac-a17d-4e76-b239-8c9b471c85a1.png",
        "entry": 2282965,
        "entry_name": "Zubi Zubi Dooooooo",
        "event_total": 42,
        "has_played": true,
        "id": 16280579,
        "last_rank": 41324,
        "player_name": "Hugo Valverde",
        "rank": 64123,
        "rank_sort": 64165,
        "total": 2343
      },
      {
        "club_badge_src": null,
        "entry": 2328136,
        "entry_name": "Boyle-ing Point FC",
        "event_total": 75,
        "has_played": true,
        "id": 16610260,
        "last_rank": 105963,
        "player_name": "Joe Boyle",
        "rank": 64123,
        "rank_sort": 64166,
        "total": 2343
      },
      {
        "club_badge_src": null,
        "entry": 2563614,
        "entry_name": "HjulleFC",
        "event_total": 42,
        "has_played": true,
        "id": 18387878,
        "last_rank": 41324,
        "player_name": "Simon Hjulstr\u00f6m",
        "rank": 64123,
        "rank_sort": 64167,
        "total": 2343
      },
      {
        "club_badge_src": null,
        "entry": 2602620,
        "entry_name": "S-laget",
        "event_total": 54,
        "has_played": true,
        "id": 18693418,
        "last_rank": 59632,
        "player_name": "Kenth Varhaug",
        "rank": 64123,
        "rank_sort": 64168,
        "total": 2343
      },
      {
        "club_badge_src": null,
        "entry": 2612668,
        "entry_name": "Chilli Con C'Arne",
        "event_total": 51,
        "has_played": true,
        "id": 18771526,
        "last_rank": 54667,
        "player_name": "Adam Wilson",
        "rank": 64123,
        "rank_sort": 64169,
        "total": 2343
      },
      {
        "club_badge_src": null,
        "entry": 2738104,
        "entry_name": "Griffo's XI",
        "event_total": 56,
        "has_played": true,
        "id": 19720644,
        "last_rank": 63063,
        "player_name": "Matthew Griffiths",
        "rank": 64123,
        "rank_sort": 64170,
        "total": 2343
      },
      {
        "club_badge_src": null,
        "entry": 3093513,
        "entry_name": "Forever our no. 20",
        "event_total": 65,
        "has_played": true,
        "id": 22799273,
        "last_rank": 81244,
        "player_name": "Afif Haziq",
        "rank": 64123,
        "rank_sort": 64171,
        "total": 2343
      },
      {
        "club_badge_src": null,
        "entry": 3182155,
        "entry_name": "LAPO BABY",
        "event_total": 60,
        "has_played": true,
        "id": 23515043,
        "last_rank": 70757,
        "player_name": "Dah General",
        "rank": 64123,
        "rank_sort": 64172,
        "total": 2343
      },
      {
        "club_badge_src": null,
        "entry": 3202430,
        "entry_name": "The Germinators",
        "event_total": 47,
        "has_played": true,
        "id": 23673646,
        "last_rank": 48363,
        "player_name": "Tobias Krause",
        "rank": 64123,
        "rank_sort": 64173,
        "total": 2343
      },
      {
        "club_badge_src": null,
        "entry": 3323240,
        "entry_name": "WirtzHardPlayHard",
        "event_total": 50,
        "has_played": true,
        "id": 24635429,
        "last_rank": 52759,
        "player_name": "Dan Doherty",
        "rank": 64123,
        "rank_sort": 64174,
        "total": 2343
      },
      {
        "club_badge_src": null,
        "entry": 3332022,
        "entry_name": "Beef Cherki",
        "event_total": 43,
        "has_played": true,
        "id": 24705474,
        "last_rank": 42434,
        "player_name": "Zak Mala",
        "rank": 64123,
        "rank_sort": 64175,
        "total": 2343
      },
      {
        "club_badge_src": null,
        "entry": 3358195,
        "entry_name": "GvardiolsOfTheGalaxy",
        "event_total": 59,
        "has_played": true,
        "id": 24915933,
        "last_rank": 68572,
        "player_name": "Liam Sheehan",
        "rank": 64123,
        "rank_sort": 64176,
        "total": 2343
      },
      {
        "club_badge_src": null,
        "entry": 3493262,
        "entry_name": "Reece's Set Pieces",
        "event_total": 49,
        "has_played": true,
        "id": 25982621,
        "last_rank": 51137,
        "player_name": "Will Smale",
        "rank": 64123,
        "rank_sort": 64177,
        "total": 2343
      },
      {
        "club_badge_src": null,
        "entry": 3550315,
        "entry_name": "nahian",
        "event_total": 85,
        "has_played": true,
        "id": 26431010,
        "last_rank": 136080,
        "player_name": "Nahian Salim",
        "rank": 64123,
        "rank_sort": 64178,
        "total": 2343
      },
      {
        "club_badge_src": null,
        "entry": 3691452,
        "entry_name": "Gordon4s or Gordon1s",
        "event_total": 72,
        "has_played": true,
        "id": 27538994,
        "last_rank": 98073,
        "player_name": "Niall Hannigan",
        "rank": 64123,
        "rank_sort": 64179,
        "total": 2343
      },
      {
        "club_badge_src": null,
        "entry": 3901134,
        "entry_name": "Guccigang",
        "event_total": 51,
        "has_played": true,
        "id": 29325884,
        "last_rank": 54416,
        "player_name": "Katrine Apeland",
        "rank": 64123,
        "rank_sort": 64180,
        "total": 2343
      },
      {
        "club_badge_src": null,
        "entry": 3902541,
        "entry_name": "Holy Boehly \ufffd",
        "event_total": 49,
        "has_played": true,
        "id": 29337213,
        "last_rank": 51220,
        "player_name": "Selwyn Crotz",
        "rank": 64123,
        "rank_sort": 64181,
        "total": 2343
      },
      {
        "club_badge_src": "https://fantasy.premierleague.com/gcs/plfpl-production-adobe-approved/plfpl-production/4033929/73bd83be-7c4d-4bc8-8b17-5e8d27083223.png",
        "entry": 4033929,
        "entry_name": "Ephy\ufffd",
        "event_total": 49,
        "has_played": true,
        "id": 30414601,
        "last_rank": 51220,
        "player_name": "Ephantus Muriuki",
        "rank": 64123,
        "rank_sort": 64182,
        "total": 2343
      },
      {
        "club_badge_src": "https://fantasy.premierleague.com/gcs/plfpl-production-adobe-approved/plfpl-production/4130907/7ab9e2da-989d-4852-8f4c-7f71bd00d265.png",
        "entry": 4130907,
        "entry_name": "AJ Football",
        "event_total": 59,
        "has_played": true,
        "id": 31216247,
        "last_rank": 68957,
        "player_name": "Alex Junior",
        "rank": 64123,
        "rank_sort": 64183,
        "total": 2343
      },
      {
        "club_badge_src": null,
        "entry": 4286449,
        "entry_name": "-pe3j@y-",
        "event_total": 73,
        "has_played": true,
        "id": 32512757,
        "last_rank": 100469,
        "player_name": "Patrick Go",
        "rank": 64123,
        "rank_sort": 64184,
        "total": 2343
      },
      {
        "club_badge_src": null,
        "entry": 4327234,
        "entry_name": "Inter row z",
        "event_total": 47,
        "has_played": true,
        "id": 32842929,
        "last_rank": 48197,
        "player_name": "Nik Plotnikovs",
        "rank": 64123,
        "rank_sort": 64185,
        "total": 2343
      },
      {
        "club_badge_src": null,
        "entry": 4396971,
        "entry_name": "free breakfast",
        "event_total": 56,
        "has_played": true,
        "id": 33434809,
        "last_rank": 63390,
        "player_name": "Dom O'Shea",
        "rank": 64123,
        "rank_sort": 64186,
        "total": 2343
      },
      {
        "club_badge_src": null,
        "entry": 4420769,
        "entry_name": "Yoro Wizzard Harry",
        "event_total": 51,
        "has_played": true,
        "id": 33635437,
        "last_rank": 54667,
        "player_name": "Ross Cavell",
        "rank": 64123,
        "rank_sort": 64187,
        "total": 2343
      },
      {
        "club_badge_src": null,
        "entry": 4581758,
        "entry_name": "Hacunha Matata",
        "event_total": 59,
        "has_played": true,
        "id": 34977651,
        "last_rank": 68957,
        "player_name": "Cameron Pritchard",
        "rank": 64123,
        "rank_sort": 64188,
        "total": 2343
      },
      {
        "club_badge_src": null,
        "entry": 4618970,
        "entry_name": "Occasionally United",
        "event_total": 56,
        "has_played": true,
        "id": 35304411,
        "last_rank": 63390,
        "player_name": "Tom Terrell",
        "rank": 64123,
        "rank_sort": 64189,
        "total": 2343
      },
      {
        "club_badge_src": "https://fantasy.premierleague.com/gcs/plfpl-production-adobe-approved/plfpl-production/4628868/c0ab44ec-b1f2-472f-81e5-faf48f4e42ae.png",
        "entry": 4628868,
        "entry_name": "DJBFC",
        "event_total": 57,
        "has_played": true,
        "id": 35391401,
        "last_rank": 64830,
        "player_name": "Daniel Bowles",
        "rank": 64123,
        "rank_sort": 64190,
        "total": 2343
      },
      {
        "club_badge_src": null,
        "entry": 4701352,
        "entry_name": "Van De Ven Diagrams",
        "event_total": 52,
        "has_played": true,
        "id": 36041573,
        "last_rank": 56047,
        "player_name": "James Worthington",
        "rank": 64123,
        "rank_sort": 64191,
        "total": 2343
      },
      {
        "club_badge_src": null,
        "entry": 4816306,
        "entry_name": "\u0414\u0435\u043b\u0444\u0438\u043d\u0438",
        "event_total": 67,
        "has_played": true,
        "id": 37086975,
        "last_rank": 85932,
        "player_name": "Milos Vanovac",
        "rank": 64123,
        "rank_sort": 64192,
        "total": 2343
      },
      {
        "club_badge_src": null,
        "entry": 4933271,
        "entry_name": "The Bottlemen",
        "event_total": 46,
        "has_played": true,
        "id": 38057296,
        "last_rank": 46660,
        "player_name": "George Lindsey",
        "rank": 64123,
        "rank_sort": 64193,
        "total": 2343
      },
      {
        "club_badge_src": null,
        "entry": 5011207,
        "entry_name": "ATIF",
        "event_total": 29,
        "has_played": true,
        "id": 38697433,
        "last_rank": 26827,
        "player_name": "Atif Shafie",
        "rank": 64123,
        "rank_sort": 64194,
        "total": 2343
      },
      {
        "club_badge_src": null,
        "entry": 5053310,
        "entry_name": "In Dorgu We Trust",
        "event_total": 51,
        "has_played": true,
        "id": 39044619,
        "last_rank": 54494,
        "player_name": "Will Pidge",
        "rank": 64123,
        "rank_sort": 64195,
        "total": 2343
      },
      {
        "club_badge_src": "https://fantasy.premierleague.com/gcs/plfpl-production-adobe-approved/plfpl-production/5338398/d640c47b-3888-4fc7-a991-4609ad210fb3.png",
        "entry": 5338398,
        "entry_name": "Clankers",
        "event_total": 46,
        "has_played": true,
        "id": 41393834,
        "last_rank": 46660,
        "player_name": "Damian Clarke",
        "rank": 64123,
        "rank_sort": 64196,
        "total": 2343
      },
      {
        "club_badge_src": null,
        "entry": 5972985,
        "entry_name": "kase2hard",
        "event_total": 59,
        "has_played": true,
        "id": 47009231,
        "last_rank": 68748,
        "player_name": "Favour Olaosebikan",
        "rank": 64123,
        "rank_sort": 64197,
        "total": 2343
      },
      {
        "club_badge_src": null,
        "entry": 6071324,
        "entry_name": "gvardiolsofthegalaxy",
        "event_total": 70,
        "has_played": true,
        "id": 47925883,
        "last_rank": 93186,
        "player_name": "Tian Dawson-Shenton",
        "rank": 64123,
        "rank_sort": 64198,
        "total": 2343
      },
      {
        "club_badge_src": null,
        "entry": 6235569,
        "entry_name": "gangster allardyce",
        "event_total": 58,
        "has_played": true,
        "id": 49351140,
        "last_rank": 66848,
        "player_name": "Christopher Cook",
        "rank": 64123,
        "rank_sort": 64199,
        "total": 2343
      },
      {
        "club_badge_src": null,
        "entry": 6302240,
        "entry_name": "What this?",
        "event_total": 41,
        "has_played": true,
        "id": 49968606,
        "last_rank": 39784,
        "player_name": "Andy Lam",
        "rank": 64123,
        "rank_sort": 64200,
        "total": 2343
      }
    ]
  }
}