{
  "last_updated_data": "2026-05-24T23:28:17Z",
  "league": {
    "admin_entry": null,
    "closed": false,
    "code_privacy": "p",
    "created": "2025-07-20T23:14:33.933835Z",
    "cup_league": 2815434,
    "has_cup": true,
    "id": 314,
    "league_type": "s",
    "max_entries": null,
    "name": "Overall",
    "rank": null,
    "scoring": "c",
    "start_event": 1
  },
  "new_entries": {
    "has_next": false,
    "page": 1,
    "results": []
  },
  "standings": {
    "has_next": true,
    "page": 1600,
    "results": [
      {
        "club_badge_src": null,
        "entry": 724026,
        "entry_name": "Florian PerWirtz",
        "event_total": 57,
        "has_played": true,
        "id": 4917504,
        "last_rank": 72815,
        "player_name": "Zac Brasher",
        "rank": 79844,
        "rank_sort": 79951,
        "total": 2335
      },
      {
        "club_badge_src": null,
        "entry": 725115,
        "entry_name": "The Lille Mermaids",
        "event_total": 68,
        "has_played": true,
        "id": 4925204,
        "last_rank": 88185,
        "player_name": "Oliver Holmes",
        "rank": 79844,
        "rank_sort": 79952,
        "total": 2335
      },
      {
        "club_badge_src": null,
        "entry": 732682,
        "entry_name": "Newland FC",
        "event_total": 55,
        "has_played": true,
        "id": 4978946,
        "last_rank": 77258,
        "player_name": "Sam Newland",
        "rank": 79844,
        "rank_sort": 79953,
        "total": 2335
      },
      {
        "club_badge_src": null,
        "entry": 736097,
        "entry_name": "Men with Van de Ven",
        "event_total": 62,
        "has_played": true,
        "id": 5004069,
        "last_rank": 93443,
        "player_name": "Andrew Miller",
        "rank": 79844,
        "rank_sort": 79954,
        "total": 2335
      },
      {
        "club_badge_src": null,
        "entry": 740542,
        "entry_name": "L\u00e5rh\u00f8ne",
        "event_total": 64,
        "has_played": true,
        "id": 5035419,
        "last_rank": 98183,
        "player_name": "Simen Kj\u00f8rstad",
        "rank": 79844,
        "rank_sort": 79955,
        "total": 2335
      },
      {
        "club_badge_src": null,
        "entry": 755573,
        "entry_name": "Assassins Crew",
        "event_total": 54,
        "has_played": true,
        "id": 5143953,
        "last_rank": 75139,
        "player_name": "Dariusz Wojciechowski",
        "rank": 79844,
        "rank_sort": 79956,
        "total": 2335
      },
      {
        "club_badge_src": "https://fantasy.premierleague.com/gcs/plfpl-production-adobe-approved/plfpl-production/762538/b1dbcf33-94e8-4583-972f-a5ef06712abc.png",
        "entry": 762538,
        "entry_name": "\u00d8deparfum",
        "event_total": 50,
        "has_played": true,
        "id": 5200223,
        "last_rank": 67063,
        "player_name": "Andrew Mackay",
        "rank": 79844,
        "rank_sort": 79957,
        "total": 2335
      },
      {
        "club_badge_src": null,
        "entry": 797438,
        "entry_name": "Vinedine Vidane",
        "event_total": 41,
        "has_played": true,
        "id": 5458036,
        "last_rank": 51137,
        "player_name": "Vincent Barber-Stones",
        "rank": 79844,
        "rank_sort": 79958,
        "total": 2335
      },
      {
        "club_badge_src": null,
        "entry": 822766,
        "entry_name": "Aribo Starmix",
        "event_total": 76,
        "has_played": true,
        "id": 5634942,
        "last_rank": 132427,
        "player_name": "Joel Henderson",
        "rank": 79844,
        "rank_sort": 79959,
        "total": 2335
      },
      {
        "club_badge_src": null,
        "entry": 826485,
        "entry_name": "Cherki Giblets",
        "event_total": 57,
        "has_played": true,
        "id": 5660687,
        "last_rank": 81420,
        "player_name": "Phil Clayton",
        "rank": 79844,
        "rank_sort": 79960,
        "total": 2335
      },
      {
        "club_badge_src": null,
        "entry": 879076,
        "entry_name": "ITZY PIZZY",
        "event_total": 51,
        "has_played": true,
        "id": 6028104,
        "last_rank": 69323,
        "player_name": "bayu putro bintang",
        "rank": 79844,
        "rank_sort": 79961,
        "total": 2335
      },
      {
        "club_badge_src": null,
        "entry": 902173,
        "entry_name": "The Forest Gumpers",
        "event_total": 40,
        "has_played": true,
        "id": 6198925,
        "last_rank": 49880,
        "player_name": "Jez Baker",
        "rank": 79844,
        "rank_sort": 79962,
        "total": 2335
      },
      {
        "club_badge_src": null,
        "entry": 958925,
        "entry_name": "Fergie's Fledglings",
        "event_total": 55,
        "has_played": true,
        "id": 6607811,
        "last_rank": 77258,
        "player_name": "Kana Nanthakopan",
        "rank": 79844,
        "rank_sort": 79963,
        "total": 2335
      },
      {
        "club_badge_src": null,
        "entry": 981653,
        "entry_name": "chippy chips fc",
        "event_total": 66,
        "has_played": true,
        "id": 6767637,
        "last_rank": 103254,
        "player_name": "sonny Ryan",
        "rank": 79844,
        "rank_sort": 79964,
        "total": 2335
      },
      {
        "club_badge_src": null,
        "entry": 999350,
        "entry_name": "Botman Mcginns",
        "event_total": 58,
        "has_played": true,
        "id": 6907396,
        "last_rank": 83698,
        "player_name": "Isaac Barrios",
        "rank": 79844,
        "rank_sort": 79965,
        "total": 2335
      },
      {
        "club_badge_src": null,
        "entry": 1022277,
        "entry_name": "Cunha keep up?",
        "event_total": 63,
        "has_played": true,
        "id": 7072711,
        "last_rank": 95640,
        "player_name": "Eoin Kavanagh",
        "rank": 79844,
        "rank_sort": 79966,
        "total": 2335
      },
      {
        "club_badge_src": null,
        "entry": 1030959,
        "entry_name": "calebs crew",
        "event_total": 46,
        "has_played": true,
        "id": 7133077,
        "last_rank": 59813,
        "player_name": "Caleb Sanders",
        "rank": 79844,
        "rank_sort": 79967,
        "total": 2335
      },
      {
        "club_badge_src": null,
        "entry": 1031341,
        "entry_name": "Selhurst Soldiers",
        "event_total": 52,
        "has_played": true,
        "id": 7135633,
        "last_rank": 70985,
        "player_name": "Karl G Esteen",
        "rank": 79844,
        "rank_sort": 79968,
        "total": 2335
      },
      {
        "club_badge_src": null,
        "entry": 1038538,
        "entry_name": "Dodlek igracina",
        "event_total": 68,
        "has_played": true,
        "id": 7186863,
        "last_rank": 108689,
        "player_name": "Timy Pezdicek",
        "rank": 79844,
        "rank_sort": 79969,
        "total": 2335
      },
      {
        "club_badge_src": null,
        "entry": 1040522,
        "entry_name": "BAMO",
        "event_total": 66,
        "has_played": true,
        "id": 7200721,
        "last_rank": 103130,
        "player_name": "Bamo Hadi",
        "rank": 79844,
        "rank_sort": 79970,
        "total": 2335
      },
      {
        "club_badge_src": null,
        "entry": 1045267,
        "entry_name": "Wombles United 14",
        "event_total": 52,
        "has_played": true,
        "id": 7233905,
        "last_rank": 70757,
        "player_name": "Jesse Marre",
        "rank": 79844,
        "rank_sort": 79971,
        "total": 2335
      },
      {
        "club_badge_src": null,
        "entry": 1050300,
        "entry_name": "Sparky",
        "event_total": 61,
        "has_played": true,
        "id": 7268685,
        "last_rank": 90746,
        "player_name": "Alyson Sillett",
        "rank": 79844,
        "rank_sort": 79972,
        "total": 2335
      },
      {
        "club_badge_src": null,
        "entry": 1051692,
        "entry_name": "Palmer FC",
        "event_total": 60,
        "has_played": true,
        "id": 7278312,
        "last_rank": 89055,
        "player_name": "Jason Lam",
        "rank": 79844,
        "rank_sort": 79973,
        "total": 2335
      },
      {
        "club_badge_src": null,
        "entry": 1063343,
        "entry_name": "Change Name",
        "event_total": 57,
        "has_played": true,
        "id": 7361177,
        "last_rank": 81646,
        "player_name": "Rory Smith",
        "rank": 79844,
        "rank_sort": 79974,
        "total": 2335
      },
      {
        "club_badge_src": null,
        "entry": 1066591,
        "entry_name": "Ange in the Mirror",
        "event_total": 66,
        "has_played": true,
        "id": 7383799,
        "last_rank": 103130,
        "player_name": "Bj\u00f6rn Wallenius",
        "rank": 79844,
        "rank_sort": 79975,
        "total": 2335
      },
      {
        "club_badge_src": null,
        "entry": 1132134,
        "entry_name": "Ekiticake FC",
        "event_total": 54,
        "has_played": true,
        "id": 7847475,
        "last_rank": 74898,
        "player_name": "Jack Baylis",
        "rank": 79844,
        "rank_sort": 79976,
        "total": 2335
      },
      {
        "club_badge_src": null,
        "entry": 1189211,
        "entry_name": "Haleri",
        "event_total": 75,
        "has_played": true,
        "id": 8251366,
        "last_rank": 129043,
        "player_name": "Kristijan Jurisic",
        "rank": 79844,
        "rank_sort": 79977,
        "total": 2335
      },
      {
        "club_badge_src": "https://fantasy.premierleague.com/gcs/plfpl-production-adobe-approved/plfpl-production/1200839/59ee04fc-bb66-4f44-aad0-bcd5b6c4e709.png",
        "entry": 1200839,
        "entry_name": "Sky blue",
        "event_total": 58,
        "has_played": true,
        "id": 8333228,
        "last_rank": 83534,
        "player_name": "Ghaith Al Hussen",
        "rank": 79844,
        "rank_sort": 79978,
        "total": 2335
      },
      {
        "club_badge_src": null,
        "entry": 1213438,
        "entry_name": "North london...",
        "event_total": 56,
        "has_played": true,
        "id": 8422496,
        "last_rank": 79431,
        "player_name": "Esayas Tesfaye",
        "rank": 79844,
        "rank_sort": 79979,
        "total": 2335
      },
      {
        "club_badge_src": null,
        "entry": 1225714,
        "entry_name": "Something Witty",
        "event_total": 51,
        "has_played": true,
        "id": 8510555,
        "last_rank": 68957,
        "player_name": "Tim Cadbury",
        "rank": 79844,
        "rank_sort": 79980,
        "total": 2335
      },
      {
        "club_badge_src": null,
        "entry": 1226584,
        "entry_name": "Quackers",
        "event_total": 60,
        "has_played": true,
        "id": 8516920,
        "last_rank": 88249,
        "player_name": "Shaz K M",
        "rank": 79844,
        "rank_sort": 79981,
        "total": 2335
      },
      {
        "club_badge_src": null,
        "entry": 1258664,
        "entry_name": "Tosin & Turning",
        "event_total": 59,
        "has_played": true,
        "id": 8742939,
        "last_rank": 86304,
        "player_name": "Charlie Knott",
        "rank": 79844,
        "rank_sort": 79982,
        "total": 2335
      },
      {
        "club_badge_src": null,
        "entry": 1271602,
        "entry_name": "Tumbling Dice FC",
        "event_total": 50,
        "has_played": true,
        "id": 8835500,
        "last_rank": 67063,
        "player_name": "Tomas Fr\u00f6jd",
        "rank": 79844,
        "rank_sort": 79983,
        "total": 2335
      },
      {
        "club_badge_src": null,
        "entry": 1281612,
        "entry_name": "Eggchasers FC",
        "event_total": 46,
        "has_played": true,
        "id": 8905562,
        "last_rank": 59813,
        "player_name": "Dom Webster",
        "rank": 79844,
        "rank_sort": 79984,
        "total": 2335
      },
      {
        "club_badge_src": null,
        "entry": 1288918,
        "entry_name": "Danger 11",
        "event_total": 50,
        "has_played": true,
        "id": 8956406,
        "last_rank": 67063,
        "player_name": "Ritin Gandhi",
        "rank": 79844,
        "rank_sort": 79985,
        "total": 2335
      },
      {
        "club_badge_src": null,
        "entry": 1297061,
        "entry_name": "That's numbelang",
        "event_total": 46,
        "has_played": true,
        "id": 9014667,
        "last_rank": 59535,
        "player_name": "Alex Eggleton",
        "rank": 79844,
        "rank_sort": 79986,
        "total": 2335
      },
      {
        "club_badge_src": null,
        "entry": 1300572,
        "entry_name": "Dango Unch@ined",
        "event_total": 58,
        "has_played": true,
        "id": 9038894,
        "last_rank": 83934,
        "player_name": "Daanyal Agboatwalla",
        "rank": 79844,
        "rank_sort": 79987,
        "total": 2335
      },
      {
        "club_badge_src": null,
        "entry": 1304425,
        "entry_name": "Section19",
        "event_total": 65,
        "has_played": true,
        "id": 9066259,
        "last_rank": 100949,
        "player_name": "david kimberley",
        "rank": 79844,
        "rank_sort": 79988,
        "total": 2335
      },
      {
        "club_badge_src": null,
        "entry": 1349343,
        "entry_name": "Moussa",
        "event_total": 63,
        "has_played": true,
        "id": 9380651,
        "last_rank": 95890,
        "player_name": "Moussa Merini -- --",
        "rank": 79844,
        "rank_sort": 79989,
        "total": 2335
      },
      {
        "club_badge_src": null,
        "entry": 1422905,
        "entry_name": "Haven't got a Kalou",
        "event_total": 69,
        "has_played": true,
        "id": 9909672,
        "last_rank": 111669,
        "player_name": "Eoin Leyden",
        "rank": 79844,
        "rank_sort": 79990,
        "total": 2335
      },
      {
        "club_badge_src": null,
        "entry": 1451639,
        "entry_name": "Los Diablos Amorimos",
        "event_total": 59,
        "has_played": true,
        "id": 10114950,
        "last_rank": 86304,
        "player_name": "Daniel Raudi-S\u00e6tren",
        "rank": 79844,
        "rank_sort": 79991,
        "total": 2335
      },
      {
        "club_badge_src": null,
        "entry": 1455039,
        "entry_name": "Run The Paul Jewells",
        "event_total": 51,
        "has_played": true,
        "id": 10138721,
        "last_rank": 68957,
        "player_name": "Matthew Sercombe",
        "rank": 79844,
        "rank_sort": 79992,
        "total": 2335
      },
      {
        "club_badge_src": null,
        "entry": 1461429,
        "entry_name": "Roberto Maggico",
        "event_total": 46,
        "has_played": true,
        "id": 10186951,
        "last_rank": 59813,
        "player_name": "ian roberts",
        "rank": 79844,
        "rank_sort": 79993,
        "total": 2335
      },
      {
        "club_badge_src": null,
        "entry": 1469287,
        "entry_name": "Brandon\u2019s ballers",
        "event_total": 69,
        "has_played": true,
        "id": 10241344,
        "last_rank": 111405,
        "player_name": "Lee Bedford",
        "rank": 79844,
        "rank_sort": 79994,
        "total": 2335
      },
      {
        "club_badge_src": null,
        "entry": 1474569,
        "entry_name": "The Tattadors",
        "event_total": 61,
        "has_played": true,
        "id": 10278529,
        "last_rank": 91006,
        "player_name": "Michael Walker",
        "rank": 79844,
        "rank_sort": 79995,
        "total": 2335
      },
      {
        "club_badge_src": "https://fantasy.premierleague.com/gcs/plfpl-production-adobe-approved/plfpl-production/1478015/469535b1-b842-41fa-8619-03f34b9833aa.png",
        "entry": 1478015,
        "entry_name": "change game",
        "event_total": 51,
        "has_played": true,
        "id": 10305597,
        "last_rank": 68957,
        "player_name": "Stephen Prunty",
        "rank": 79844,
        "rank_sort": 79996,
        "total": 2335
      },
      {
        "club_badge_src": null,
        "entry": 1480995,
        "entry_name": "Macki",
        "event_total": 77,
        "has_played": true,
        "id": 10326904,
        "last_rank": 136080,
        "player_name": "Jan Peterka",
        "rank": 79844,
        "rank_sort": 79997,
        "total": 2335
      },
      {
        "club_badge_src": null,
        "entry": 1537594,
        "entry_name": "chad1987",
        "event_total": 61,
        "has_played": true,
        "id": 10731072,
        "last_rank": 91006,
        "player_name": "Chadi Makhoul",
        "rank": 79844,
        "rank_sort": 79998,
        "total": 2335
      },
      {
        "club_badge_src": null,
        "entry": 1544682,
        "entry_name": "ESCAPEFROMALCARAZ",
        "event_total": 59,
        "has_played": true,
        "id": 10782156,
        "last_rank": 86054,
        "player_name": "Paul McManus",
        "rank": 79844,
        "rank_sort": 79999,
        "total": 2335
      },
      {
        "club_badge_src": null,
        "entry": 1604571,
        "entry_name": "Champagne De Cordova",
        "event_total": 49,
        "has_played": true,
        "id": 11225839,
        "last_rank": 65475,
        "player_name": "James Paul",
        "rank": 79844,
        "rank_sort": 80000,
        "total": 2335
      }
    ]
  }
}