{
  "last_updated_data": "2026-05-24T23:28:17Z",
  "league": {
    "admin_entry": null,
    "closed": false,
    "code_privacy": "p",
    "created": "2025-07-20T23:14:33.933835Z",
    "cup_league": 2815434,
    "has_cup": true,
    "id": 314,
    "league_type": "s",
    "max_entries": null,
    "name": "Overall",
    "rank": null,
    "scoring": "c",
    "start_event": 1
  },
  "new_entries": {
    "has_next": false,
    "page": 1,
    "results": []
  },
  "standings": {
    "has_next": true,
    "page": 377,
    "results": [
      {
        "club_badge_src": null,
        "entry": 2636705,
        "entry_name": "Rice Rice Baby",
        "event_total": 68,
        "has_played": true,
        "id": 18950084,
        "last_rank": 23522,
        "player_name": "Ayomide Akintunde",
        "rank": 18745,
        "rank_sort": 18801,
        "total": 2382
      },
      {
        "club_badge_src": null,
        "entry": 2730716,
        "entry_name": "Danny's Ducks",
        "event_total": 67,
        "has_played": true,
        "id": 19650772,
        "last_rank": 26230,
        "player_name": "Daniel Gilhooly",
        "rank": 18745,
        "rank_sort": 18802,
        "total": 2382
      },
      {
        "club_badge_src": null,
        "entry": 2930621,
        "entry_name": "Mnare",
        "event_total": 45,
        "has_played": true,
        "id": 21486408,
        "last_rank": 11345,
        "player_name": "Maina Mwas",
        "rank": 18745,
        "rank_sort": 18803,
        "total": 2382
      },
      {
        "club_badge_src": null,
        "entry": 2959768,
        "entry_name": "FCZ",
        "event_total": 62,
        "has_played": true,
        "id": 21740729,
        "last_rank": 21949,
        "player_name": "Magnus Mella",
        "rank": 18745,
        "rank_sort": 18804,
        "total": 2382
      },
      {
        "club_badge_src": null,
        "entry": 3319819,
        "entry_name": "Sand",
        "event_total": 71,
        "has_played": true,
        "id": 24605105,
        "last_rank": 26088,
        "player_name": "Paul C",
        "rank": 18745,
        "rank_sort": 18805,
        "total": 2382
      },
      {
        "club_badge_src": null,
        "entry": 3625262,
        "entry_name": "TZN1964",
        "event_total": 68,
        "has_played": true,
        "id": 27012299,
        "last_rank": 27020,
        "player_name": "Dawid Pi\u0105tek",
        "rank": 18745,
        "rank_sort": 18806,
        "total": 2382
      },
      {
        "club_badge_src": null,
        "entry": 3899458,
        "entry_name": "Growing Baines",
        "event_total": 45,
        "has_played": true,
        "id": 29311720,
        "last_rank": 11419,
        "player_name": "Dominic Townsend",
        "rank": 18745,
        "rank_sort": 18807,
        "total": 2382
      },
      {
        "club_badge_src": null,
        "entry": 4006036,
        "entry_name": "WSD XI",
        "event_total": 59,
        "has_played": true,
        "id": 30177252,
        "last_rank": 19835,
        "player_name": "Sam Elliot",
        "rank": 18745,
        "rank_sort": 18808,
        "total": 2382
      },
      {
        "club_badge_src": null,
        "entry": 4090216,
        "entry_name": "L\u2019Amin Gamal \ufffd",
        "event_total": 67,
        "has_played": true,
        "id": 30881312,
        "last_rank": 26088,
        "player_name": "Youssef Heniedy",
        "rank": 18745,
        "rank_sort": 18809,
        "total": 2382
      },
      {
        "club_badge_src": null,
        "entry": 4149560,
        "entry_name": "joshfpl",
        "event_total": 51,
        "has_played": true,
        "id": 31363452,
        "last_rank": 14496,
        "player_name": "Tyrone Brown",
        "rank": 18745,
        "rank_sort": 18810,
        "total": 2382
      },
      {
        "club_badge_src": null,
        "entry": 4281684,
        "entry_name": "Zirkzee N I Know It!",
        "event_total": 63,
        "has_played": true,
        "id": 32473715,
        "last_rank": 22685,
        "player_name": "Aadam Irfan",
        "rank": 18745,
        "rank_sort": 18811,
        "total": 2382
      },
      {
        "club_badge_src": null,
        "entry": 5097917,
        "entry_name": "KyZu Warriors",
        "event_total": 63,
        "has_played": true,
        "id": 39403157,
        "last_rank": 22830,
        "player_name": "Dafy Rahadi",
        "rank": 18745,
        "rank_sort": 18812,
        "total": 2382
      },
      {
        "club_badge_src": null,
        "entry": 5394793,
        "entry_name": "Kinder Mbeumo",
        "event_total": 65,
        "has_played": true,
        "id": 41943385,
        "last_rank": 21159,
        "player_name": "Kieran Casey",
        "rank": 18745,
        "rank_sort": 18813,
        "total": 2382
      },
      {
        "club_badge_src": "https://fantasy.premierleague.com/gcs/plfpl-production-adobe-approved/plfpl-production/5417496/739d35ff-b266-48cf-91e3-72d77330b0f2.png",
        "entry": 5417496,
        "entry_name": "The Befrienders",
        "event_total": 58,
        "has_played": true,
        "id": 42132643,
        "last_rank": 19103,
        "player_name": "Blaine Collins",
        "rank": 18745,
        "rank_sort": 18814,
        "total": 2382
      },
      {
        "club_badge_src": null,
        "entry": 5465398,
        "entry_name": "los boludos",
        "event_total": 70,
        "has_played": true,
        "id": 42536080,
        "last_rank": 28906,
        "player_name": "Cam DePauli",
        "rank": 18745,
        "rank_sort": 18815,
        "total": 2382
      },
      {
        "club_badge_src": null,
        "entry": 5532011,
        "entry_name": "Syria FPL",
        "event_total": 66,
        "has_played": true,
        "id": 43157521,
        "last_rank": 21949,
        "player_name": "Nabil Al-Refay",
        "rank": 18745,
        "rank_sort": 18816,
        "total": 2382
      },
      {
        "club_badge_src": null,
        "entry": 5563690,
        "entry_name": "Slotty2Hotty",
        "event_total": 47,
        "has_played": true,
        "id": 43437564,
        "last_rank": 12420,
        "player_name": "James kimber",
        "rank": 18745,
        "rank_sort": 18817,
        "total": 2382
      },
      {
        "club_badge_src": null,
        "entry": 5758552,
        "entry_name": "MFPLGA",
        "event_total": 59,
        "has_played": true,
        "id": 45139716,
        "last_rank": 16807,
        "player_name": "Jack Heron",
        "rank": 18745,
        "rank_sort": 18818,
        "total": 2382
      },
      {
        "club_badge_src": null,
        "entry": 5778804,
        "entry_name": "SquidWirtz",
        "event_total": 55,
        "has_played": true,
        "id": 45313547,
        "last_rank": 17078,
        "player_name": "Matthew Buchanan",
        "rank": 18745,
        "rank_sort": 18819,
        "total": 2382
      },
      {
        "club_badge_src": "https://fantasy.premierleague.com/gcs/plfpl-production-adobe-approved/plfpl-production/6205191/4b897691-a663-4d70-acc0-6edbd3c7dbaf.png",
        "entry": 6205191,
        "entry_name": "Interna",
        "event_total": 64,
        "has_played": true,
        "id": 49090125,
        "last_rank": 23522,
        "player_name": "Marko Petrovic",
        "rank": 18745,
        "rank_sort": 18820,
        "total": 2382
      },
      {
        "club_badge_src": null,
        "entry": 6301213,
        "entry_name": "\u0e19\u0e2d\u0e19\u0e21\u0e32",
        "event_total": 63,
        "has_played": true,
        "id": 49957235,
        "last_rank": 22830,
        "player_name": "Tanakit Changpeng",
        "rank": 18745,
        "rank_sort": 18821,
        "total": 2382
      },
      {
        "club_badge_src": null,
        "entry": 6486175,
        "entry_name": "ClintsCommanders",
        "event_total": 65,
        "has_played": true,
        "id": 51699956,
        "last_rank": 24143,
        "player_name": "Benjamin Sampson",
        "rank": 18745,
        "rank_sort": 18822,
        "total": 2382
      },
      {
        "club_badge_src": null,
        "entry": 6500216,
        "entry_name": "Kay",
        "event_total": 60,
        "has_played": true,
        "id": 51823646,
        "last_rank": 20416,
        "player_name": "Kay Kay",
        "rank": 18745,
        "rank_sort": 18823,
        "total": 2382
      },
      {
        "club_badge_src": null,
        "entry": 6729798,
        "entry_name": "Wharto's Winners",
        "event_total": 58,
        "has_played": true,
        "id": 53865351,
        "last_rank": 19103,
        "player_name": "Sean Wharton",
        "rank": 18745,
        "rank_sort": 18824,
        "total": 2382
      },
      {
        "club_badge_src": null,
        "entry": 7026096,
        "entry_name": "TotspursUcl2026",
        "event_total": 49,
        "has_played": true,
        "id": 56448897,
        "last_rank": 13500,
        "player_name": "Mahmoud Salameh",
        "rank": 18745,
        "rank_sort": 18825,
        "total": 2382
      },
      {
        "club_badge_src": null,
        "entry": 7030844,
        "entry_name": "\u4f60\u4eec\u90fd\u662f\u4e66\u5446\u5b50",
        "event_total": 65,
        "has_played": true,
        "id": 56503455,
        "last_rank": 24330,
        "player_name": "Estevan Amoroso",
        "rank": 18745,
        "rank_sort": 18826,
        "total": 2382
      },
      {
        "club_badge_src": null,
        "entry": 7135243,
        "entry_name": "Change Name",
        "event_total": 63,
        "has_played": true,
        "id": 57511025,
        "last_rank": 22830,
        "player_name": "Vamsee K",
        "rank": 18745,
        "rank_sort": 18827,
        "total": 2382
      },
      {
        "club_badge_src": null,
        "entry": 7290477,
        "entry_name": "Elanga Management",
        "event_total": 64,
        "has_played": true,
        "id": 58987555,
        "last_rank": 23656,
        "player_name": "morgan meekley",
        "rank": 18745,
        "rank_sort": 18828,
        "total": 2382
      },
      {
        "club_badge_src": null,
        "entry": 7616660,
        "entry_name": "Siji 11",
        "event_total": 62,
        "has_played": true,
        "id": 62416483,
        "last_rank": 22064,
        "player_name": "Jihad Farraj",
        "rank": 18745,
        "rank_sort": 18829,
        "total": 2382
      },
      {
        "club_badge_src": null,
        "entry": 7809221,
        "entry_name": "ChickenTikkaMoSalah",
        "event_total": 79,
        "has_played": true,
        "id": 64156640,
        "last_rank": 39246,
        "player_name": "Kaan Over",
        "rank": 18745,
        "rank_sort": 18830,
        "total": 2382
      },
      {
        "club_badge_src": null,
        "entry": 8243033,
        "entry_name": "Fogdinho",
        "event_total": 54,
        "has_played": true,
        "id": 68156059,
        "last_rank": 16320,
        "player_name": "Myles Foggon",
        "rank": 18745,
        "rank_sort": 18831,
        "total": 2382
      },
      {
        "club_badge_src": null,
        "entry": 8350141,
        "entry_name": "\u026f\u0250\u01dd\u2534 s,\u1d09\u01ddM",
        "event_total": 52,
        "has_played": true,
        "id": 69203804,
        "last_rank": 15063,
        "player_name": "Wei Li",
        "rank": 18745,
        "rank_sort": 18832,
        "total": 2382
      },
      {
        "club_badge_src": null,
        "entry": 8796832,
        "entry_name": "Boys from Brazil",
        "event_total": 49,
        "has_played": true,
        "id": 73514608,
        "last_rank": 13401,
        "player_name": "John Szpindor",
        "rank": 18745,
        "rank_sort": 18833,
        "total": 2382
      },
      {
        "club_badge_src": null,
        "entry": 9141372,
        "entry_name": "The Phil Mounty",
        "event_total": 55,
        "has_played": true,
        "id": 76857030,
        "last_rank": 17078,
        "player_name": "Martin Madsen",
        "rank": 18745,
        "rank_sort": 18834,
        "total": 2382
      },
      {
        "club_badge_src": null,
        "entry": 14392,
        "entry_name": "Eze Money",
        "event_total": 57,
        "has_played": true,
        "id": 87385,
        "last_rank": 15797,
        "player_name": "Adrian Ruto",
        "rank": 18835,
        "rank_sort": 18835,
        "total": 2382
      },
      {
        "club_badge_src": null,
        "entry": 31393,
        "entry_name": "Red London Cannons",
        "event_total": 66,
        "has_played": true,
        "id": 198976,
        "last_rank": 25330,
        "player_name": "Maciej Piesio",
        "rank": 18835,
        "rank_sort": 18836,
        "total": 2382
      },
      {
        "club_badge_src": null,
        "entry": 43307,
        "entry_name": "Zaky la Win",
        "event_total": 68,
        "has_played": true,
        "id": 277314,
        "last_rank": 27304,
        "player_name": "Isaac Moresi",
        "rank": 18835,
        "rank_sort": 18837,
        "total": 2382
      },
      {
        "club_badge_src": null,
        "entry": 53881,
        "entry_name": "Kinder Mbeumo",
        "event_total": 60,
        "has_played": true,
        "id": 346753,
        "last_rank": 20624,
        "player_name": "Cameron Gordon",
        "rank": 18835,
        "rank_sort": 18838,
        "total": 2382
      },
      {
        "club_badge_src": "https://fantasy.premierleague.com/gcs/plfpl-production-adobe-approved/plfpl-production/71513/a0fbb505-896d-48cd-a756-665e1d2ae5a3.png",
        "entry": 71513,
        "entry_name": "Tabanovacc",
        "event_total": 62,
        "has_played": true,
        "id": 464525,
        "last_rank": 16320,
        "player_name": "Strahinja Uglje\u0161i\u0107",
        "rank": 18835,
        "rank_sort": 18839,
        "total": 2382
      },
      {
        "club_badge_src": null,
        "entry": 108519,
        "entry_name": "(Zirk)ZEE me rollin\u2019",
        "event_total": 56,
        "has_played": true,
        "id": 707491,
        "last_rank": 17802,
        "player_name": "Sebastian Fjose Berg",
        "rank": 18835,
        "rank_sort": 18840,
        "total": 2382
      },
      {
        "club_badge_src": null,
        "entry": 117510,
        "entry_name": "Resovia Calcio",
        "event_total": 64,
        "has_played": true,
        "id": 766997,
        "last_rank": 23656,
        "player_name": "Andrzej Puszkarewicz",
        "rank": 18835,
        "rank_sort": 18841,
        "total": 2382
      },
      {
        "club_badge_src": "https://fantasy.premierleague.com/gcs/plfpl-production-adobe-approved/plfpl-production/151921/30de5c9f-c347-4865-8d47-bee65c29717d.png",
        "entry": 151921,
        "entry_name": "Taskers FC",
        "event_total": 61,
        "has_played": true,
        "id": 996902,
        "last_rank": 21159,
        "player_name": "George Tasker",
        "rank": 18835,
        "rank_sort": 18842,
        "total": 2382
      },
      {
        "club_badge_src": null,
        "entry": 191421,
        "entry_name": "Rooney Tunes",
        "event_total": 62,
        "has_played": true,
        "id": 1267878,
        "last_rank": 16163,
        "player_name": "Sulayman H",
        "rank": 18835,
        "rank_sort": 18843,
        "total": 2382
      },
      {
        "club_badge_src": null,
        "entry": 195985,
        "entry_name": "A Cunha Matata!!!",
        "event_total": 66,
        "has_played": true,
        "id": 1299910,
        "last_rank": 22064,
        "player_name": "Harry Edmonds",
        "rank": 18835,
        "rank_sort": 18844,
        "total": 2382
      },
      {
        "club_badge_src": null,
        "entry": 196643,
        "entry_name": "Dont Baleba word",
        "event_total": 58,
        "has_played": true,
        "id": 1304473,
        "last_rank": 19176,
        "player_name": "Hans-Petter H\u00f8iskar",
        "rank": 18835,
        "rank_sort": 18845,
        "total": 2382
      },
      {
        "club_badge_src": null,
        "entry": 215485,
        "entry_name": "The Icemen",
        "event_total": 65,
        "has_played": true,
        "id": 1433262,
        "last_rank": 18113,
        "player_name": "Daniel Talbot",
        "rank": 18835,
        "rank_sort": 18846,
        "total": 2382
      },
      {
        "club_badge_src": null,
        "entry": 255735,
        "entry_name": "Frimpong Ping Pong",
        "event_total": 74,
        "has_played": true,
        "id": 1700986,
        "last_rank": 28906,
        "player_name": "Lucas Robinson",
        "rank": 18835,
        "rank_sort": 18847,
        "total": 2382
      },
      {
        "club_badge_src": null,
        "entry": 260618,
        "entry_name": "Busby Babes",
        "event_total": 60,
        "has_played": true,
        "id": 1732500,
        "last_rank": 20624,
        "player_name": "Liam Fennell",
        "rank": 18835,
        "rank_sort": 18848,
        "total": 2382
      },
      {
        "club_badge_src": null,
        "entry": 306058,
        "entry_name": "Gadebe's Gang",
        "event_total": 60,
        "has_played": true,
        "id": 2049645,
        "last_rank": 20416,
        "player_name": "Luke Roberts",
        "rank": 18835,
        "rank_sort": 18849,
        "total": 2382
      },
      {
        "club_badge_src": "https://fantasy.premierleague.com/gcs/plfpl-production-adobe-approved/plfpl-production/389570/fc6565a9-cb12-4239-97f6-0216c1969f43.png",
        "entry": 389570,
        "entry_name": "The price is right",
        "event_total": 56,
        "has_played": true,
        "id": 2613236,
        "last_rank": 15164,
        "player_name": "Matt Price",
        "rank": 18835,
        "rank_sort": 18850,
        "total": 2382
      }
    ]
  }
}