{
  "last_updated_data": "2026-05-24T23:28:17Z",
  "league": {
    "admin_entry": null,
    "closed": false,
    "code_privacy": "p",
    "created": "2025-07-20T23:14:33.933835Z",
    "cup_league": 2815434,
    "has_cup": true,
    "id": 314,
    "league_type": "s",
    "max_entries": null,
    "name": "Overall",
    "rank": null,
    "scoring": "c",
    "start_event": 1
  },
  "new_entries": {
    "has_next": false,
    "page": 1,
    "results": []
  },
  "standings": {
    "has_next": true,
    "page": 462,
    "results": [
      {
        "club_badge_src": null,
        "entry": 602537,
        "entry_name": "Machine Gun Skelly",
        "event_total": 63,
        "has_played": true,
        "id": 4066371,
        "last_rank": 27976,
        "player_name": "jonathan ludlam",
        "rank": 22998,
        "rank_sort": 23051,
        "total": 2376
      },
      {
        "club_badge_src": null,
        "entry": 632447,
        "entry_name": "Cole as Ice",
        "event_total": 58,
        "has_played": true,
        "id": 4273477,
        "last_rank": 23522,
        "player_name": "Tim Jones",
        "rank": 22998,
        "rank_sort": 23052,
        "total": 2376
      },
      {
        "club_badge_src": null,
        "entry": 635627,
        "entry_name": "Ctrl Alt DeLigt",
        "event_total": 48,
        "has_played": true,
        "id": 4295729,
        "last_rank": 16320,
        "player_name": "Louis Speller",
        "rank": 22998,
        "rank_sort": 23053,
        "total": 2376
      },
      {
        "club_badge_src": "https://fantasy.premierleague.com/gcs/plfpl-production-adobe-approved/plfpl-production/646800/cc5ef3a8-a787-493f-a938-aa405fb130bf.png",
        "entry": 646800,
        "entry_name": "Wirtz Case Scenario",
        "event_total": 57,
        "has_played": true,
        "id": 4371071,
        "last_rank": 22426,
        "player_name": "Adam Norling",
        "rank": 22998,
        "rank_sort": 23054,
        "total": 2376
      },
      {
        "club_badge_src": "https://fantasy.premierleague.com/gcs/plfpl-production-adobe-approved/plfpl-production/664987/c8836882-1939-4265-869e-3a91f981af4c.png",
        "entry": 664987,
        "entry_name": "RedDhukdhuki",
        "event_total": 75,
        "has_played": true,
        "id": 4495794,
        "last_rank": 36200,
        "player_name": "Muku Da",
        "rank": 22998,
        "rank_sort": 23055,
        "total": 2376
      },
      {
        "club_badge_src": null,
        "entry": 759553,
        "entry_name": "We all follow United",
        "event_total": 59,
        "has_played": true,
        "id": 5176246,
        "last_rank": 24330,
        "player_name": "Keano McKinlay",
        "rank": 22998,
        "rank_sort": 23056,
        "total": 2376
      },
      {
        "club_badge_src": null,
        "entry": 771740,
        "entry_name": "Muvva Farke",
        "event_total": 70,
        "has_played": true,
        "id": 5264900,
        "last_rank": 35619,
        "player_name": "Ryan Woodcock",
        "rank": 22998,
        "rank_sort": 23057,
        "total": 2376
      },
      {
        "club_badge_src": null,
        "entry": 797730,
        "entry_name": "More than a Feeling",
        "event_total": 79,
        "has_played": true,
        "id": 5460047,
        "last_rank": 46547,
        "player_name": "Ben Lau",
        "rank": 22998,
        "rank_sort": 23058,
        "total": 2376
      },
      {
        "club_badge_src": null,
        "entry": 834062,
        "entry_name": "Haters Gonna Hate",
        "event_total": 60,
        "has_played": true,
        "id": 5713192,
        "last_rank": 25172,
        "player_name": "Jeffrey Herrington",
        "rank": 22998,
        "rank_sort": 23059,
        "total": 2376
      },
      {
        "club_badge_src": null,
        "entry": 873455,
        "entry_name": "Dan Burn's Burner",
        "event_total": 62,
        "has_played": true,
        "id": 5988257,
        "last_rank": 23341,
        "player_name": "Owen McKee",
        "rank": 22998,
        "rank_sort": 23060,
        "total": 2376
      },
      {
        "club_badge_src": null,
        "entry": 891484,
        "entry_name": "Noni Chance",
        "event_total": 78,
        "has_played": true,
        "id": 6118815,
        "last_rank": 45714,
        "player_name": "Mike Singfield",
        "rank": 22998,
        "rank_sort": 23061,
        "total": 2376
      },
      {
        "club_badge_src": null,
        "entry": 910919,
        "entry_name": "Aura",
        "event_total": 64,
        "has_played": true,
        "id": 6263275,
        "last_rank": 28906,
        "player_name": "Oliwier Szuchnik",
        "rank": 22998,
        "rank_sort": 23062,
        "total": 2376
      },
      {
        "club_badge_src": null,
        "entry": 995566,
        "entry_name": "Lambton Jaffas",
        "event_total": 61,
        "has_played": true,
        "id": 6871768,
        "last_rank": 22534,
        "player_name": "Dennis Russell",
        "rank": 22998,
        "rank_sort": 23063,
        "total": 2376
      },
      {
        "club_badge_src": null,
        "entry": 1040271,
        "entry_name": "The xG Men",
        "event_total": 55,
        "has_played": true,
        "id": 7198984,
        "last_rank": 18113,
        "player_name": "Andrew Walsh",
        "rank": 22998,
        "rank_sort": 23064,
        "total": 2376
      },
      {
        "club_badge_src": null,
        "entry": 1144087,
        "entry_name": "KS Lublewo",
        "event_total": 54,
        "has_played": true,
        "id": 7930544,
        "last_rank": 20280,
        "player_name": "Czarek Biszewski",
        "rank": 22998,
        "rank_sort": 23065,
        "total": 2376
      },
      {
        "club_badge_src": null,
        "entry": 1269818,
        "entry_name": "Lokve",
        "event_total": 62,
        "has_played": true,
        "id": 8822754,
        "last_rank": 27020,
        "player_name": "Ivan Mucic",
        "rank": 22998,
        "rank_sort": 23066,
        "total": 2376
      },
      {
        "club_badge_src": null,
        "entry": 1309434,
        "entry_name": "AKR FC",
        "event_total": 56,
        "has_played": true,
        "id": 9101771,
        "last_rank": 21949,
        "player_name": "Simon akrill",
        "rank": 22998,
        "rank_sort": 23067,
        "total": 2376
      },
      {
        "club_badge_src": "https://fantasy.premierleague.com/gcs/plfpl-production-adobe-approved/plfpl-production/1359057/79a22fee-4189-49a0-89b5-3f7feac49436.png",
        "entry": 1359057,
        "entry_name": "El Capitano",
        "event_total": 72,
        "has_played": true,
        "id": 9446824,
        "last_rank": 37589,
        "player_name": "Denis Moini",
        "rank": 22998,
        "rank_sort": 23068,
        "total": 2376
      },
      {
        "club_badge_src": null,
        "entry": 1394633,
        "entry_name": "Playing the Slots",
        "event_total": 72,
        "has_played": true,
        "id": 9702208,
        "last_rank": 32751,
        "player_name": "Jav Mann",
        "rank": 22998,
        "rank_sort": 23069,
        "total": 2376
      },
      {
        "club_badge_src": null,
        "entry": 1499568,
        "entry_name": "Barrys Bananas",
        "event_total": 70,
        "has_played": true,
        "id": 10457736,
        "last_rank": 35619,
        "player_name": "Jago Evans",
        "rank": 22998,
        "rank_sort": 23070,
        "total": 2376
      },
      {
        "club_badge_src": null,
        "entry": 1615547,
        "entry_name": "IRONS94",
        "event_total": 60,
        "has_played": true,
        "id": 11304366,
        "last_rank": 21775,
        "player_name": "Dale Waring",
        "rank": 22998,
        "rank_sort": 23071,
        "total": 2376
      },
      {
        "club_badge_src": null,
        "entry": 1639990,
        "entry_name": "Macca\u2019s Boys",
        "event_total": 55,
        "has_played": true,
        "id": 11479878,
        "last_rank": 20983,
        "player_name": "Jason McDine",
        "rank": 22998,
        "rank_sort": 23072,
        "total": 2376
      },
      {
        "club_badge_src": null,
        "entry": 1843379,
        "entry_name": "The Whiteman\ufffd",
        "event_total": 60,
        "has_played": true,
        "id": 12969405,
        "last_rank": 21677,
        "player_name": "FPL Lewi",
        "rank": 22998,
        "rank_sort": 23073,
        "total": 2376
      },
      {
        "club_badge_src": "https://fantasy.premierleague.com/gcs/plfpl-production-adobe-approved/plfpl-production/1852088/d640c975-d64f-43fa-bee3-f5952e3dfdbe.png",
        "entry": 1852088,
        "entry_name": "Once More",
        "event_total": 59,
        "has_played": true,
        "id": 13032754,
        "last_rank": 24475,
        "player_name": "Brian Clarke",
        "rank": 22998,
        "rank_sort": 23074,
        "total": 2376
      },
      {
        "club_badge_src": null,
        "entry": 1853029,
        "entry_name": "MyEkitike",
        "event_total": 66,
        "has_played": true,
        "id": 13039627,
        "last_rank": 31125,
        "player_name": "Sebastian Haugsbakk",
        "rank": 22998,
        "rank_sort": 23075,
        "total": 2376
      },
      {
        "club_badge_src": null,
        "entry": 1910581,
        "entry_name": "m'); DROP TABLE fpl",
        "event_total": 67,
        "has_played": true,
        "id": 13469970,
        "last_rank": 31995,
        "player_name": "Michael Chadwick",
        "rank": 22998,
        "rank_sort": 23076,
        "total": 2376
      },
      {
        "club_badge_src": null,
        "entry": 1956229,
        "entry_name": "K\u00f8llekara United",
        "event_total": 58,
        "has_played": true,
        "id": 13800157,
        "last_rank": 23522,
        "player_name": "Atle Aas",
        "rank": 22998,
        "rank_sort": 23077,
        "total": 2376
      },
      {
        "club_badge_src": null,
        "entry": 1990974,
        "entry_name": "Top Of The Perch",
        "event_total": 53,
        "has_played": true,
        "id": 14066529,
        "last_rank": 19721,
        "player_name": "Harsh Piramal",
        "rank": 22998,
        "rank_sort": 23078,
        "total": 2376
      },
      {
        "club_badge_src": null,
        "entry": 2100925,
        "entry_name": "gond",
        "event_total": 56,
        "has_played": true,
        "id": 14907256,
        "last_rank": 21775,
        "player_name": "Ahmed Elgendy",
        "rank": 22998,
        "rank_sort": 23079,
        "total": 2376
      },
      {
        "club_badge_src": "https://fantasy.premierleague.com/gcs/plfpl-production-adobe-approved/plfpl-production/2170147/66efd459-82ae-4b93-b684-4fb64e19086e.png",
        "entry": 2170147,
        "entry_name": "Saka Potatoes",
        "event_total": 76,
        "has_played": true,
        "id": 15429882,
        "last_rank": 42648,
        "player_name": "Alex Ogden",
        "rank": 22998,
        "rank_sort": 23080,
        "total": 2376
      },
      {
        "club_badge_src": "https://fantasy.premierleague.com/gcs/plfpl-production-adobe-approved/plfpl-production/2193598/7d70ba77-d7ca-4bf0-815b-03b68e925a71.png",
        "entry": 2193598,
        "entry_name": "Livin'  Saliba Loca",
        "event_total": 62,
        "has_played": true,
        "id": 15607350,
        "last_rank": 27020,
        "player_name": "Thomas MICHEL",
        "rank": 22998,
        "rank_sort": 23081,
        "total": 2376
      },
      {
        "club_badge_src": null,
        "entry": 2250334,
        "entry_name": "The Cherki Monkeys",
        "event_total": 57,
        "has_played": true,
        "id": 16035143,
        "last_rank": 22534,
        "player_name": "Declan Hayes",
        "rank": 22998,
        "rank_sort": 23082,
        "total": 2376
      },
      {
        "club_badge_src": null,
        "entry": 2300139,
        "entry_name": "utb",
        "event_total": 55,
        "has_played": true,
        "id": 16405322,
        "last_rank": 20983,
        "player_name": "alex flanagan",
        "rank": 22998,
        "rank_sort": 23083,
        "total": 2376
      },
      {
        "club_badge_src": null,
        "entry": 2314621,
        "entry_name": "I'm a Baleba",
        "event_total": 71,
        "has_played": true,
        "id": 16511246,
        "last_rank": 36624,
        "player_name": "Katie Powell",
        "rank": 22998,
        "rank_sort": 23084,
        "total": 2376
      },
      {
        "club_badge_src": null,
        "entry": 2420166,
        "entry_name": "wirtz love got to do",
        "event_total": 67,
        "has_played": true,
        "id": 17302263,
        "last_rank": 31995,
        "player_name": "Hugh Kenrick",
        "rank": 22998,
        "rank_sort": 23085,
        "total": 2376
      },
      {
        "club_badge_src": null,
        "entry": 2421430,
        "entry_name": "Kodiang FC",
        "event_total": 65,
        "has_played": true,
        "id": 17311660,
        "last_rank": 25902,
        "player_name": "fadsmart 87",
        "rank": 22998,
        "rank_sort": 23086,
        "total": 2376
      },
      {
        "club_badge_src": null,
        "entry": 2500681,
        "entry_name": "Running For Miles",
        "event_total": 74,
        "has_played": true,
        "id": 17905698,
        "last_rank": 40036,
        "player_name": "Miles Howard-Luck",
        "rank": 22998,
        "rank_sort": 23087,
        "total": 2376
      },
      {
        "club_badge_src": null,
        "entry": 2910338,
        "entry_name": "Younes31",
        "event_total": 49,
        "has_played": true,
        "id": 21330463,
        "last_rank": 14370,
        "player_name": "Makria Younes",
        "rank": 22998,
        "rank_sort": 23088,
        "total": 2376
      },
      {
        "club_badge_src": "https://fantasy.premierleague.com/gcs/plfpl-production-adobe-approved/plfpl-production/2944840/f5b75b3e-e396-49d2-8d00-8903adde494b.png",
        "entry": 2944840,
        "entry_name": "Unlucky Ducky",
        "event_total": 70,
        "has_played": true,
        "id": 21608664,
        "last_rank": 35166,
        "player_name": "Steffen Holter",
        "rank": 22998,
        "rank_sort": 23089,
        "total": 2376
      },
      {
        "club_badge_src": null,
        "entry": 2944950,
        "entry_name": "Karang Jahe",
        "event_total": 43,
        "has_played": true,
        "id": 21609484,
        "last_rank": 13401,
        "player_name": "Ruby Halafataz",
        "rank": 22998,
        "rank_sort": 23090,
        "total": 2376
      },
      {
        "club_badge_src": null,
        "entry": 2946352,
        "entry_name": "Jamnapaar FC",
        "event_total": 50,
        "has_played": true,
        "id": 21623926,
        "last_rank": 17585,
        "player_name": "Prateek Goyal",
        "rank": 22998,
        "rank_sort": 23091,
        "total": 2376
      },
      {
        "club_badge_src": null,
        "entry": 3045142,
        "entry_name": "Hva Sch\u00e4r?",
        "event_total": 62,
        "has_played": true,
        "id": 22415963,
        "last_rank": 27020,
        "player_name": "Jacob Greve",
        "rank": 22998,
        "rank_sort": 23092,
        "total": 2376
      },
      {
        "club_badge_src": null,
        "entry": 3047698,
        "entry_name": "Gyok Wan",
        "event_total": 62,
        "has_played": true,
        "id": 22435531,
        "last_rank": 27020,
        "player_name": "Jamie Beattie",
        "rank": 22998,
        "rank_sort": 23093,
        "total": 2376
      },
      {
        "club_badge_src": null,
        "entry": 3214309,
        "entry_name": "Great Craic",
        "event_total": 75,
        "has_played": true,
        "id": 23765015,
        "last_rank": 41324,
        "player_name": "Andy Brookes",
        "rank": 22998,
        "rank_sort": 23094,
        "total": 2376
      },
      {
        "club_badge_src": null,
        "entry": 3406571,
        "entry_name": "Drop it like it Slot",
        "event_total": 48,
        "has_played": true,
        "id": 25297578,
        "last_rank": 16320,
        "player_name": "Abbie Newton",
        "rank": 22998,
        "rank_sort": 23095,
        "total": 2376
      },
      {
        "club_badge_src": null,
        "entry": 3411671,
        "entry_name": "Beef Cherki",
        "event_total": 55,
        "has_played": true,
        "id": 25337100,
        "last_rank": 18113,
        "player_name": "Joe Ellison",
        "rank": 22998,
        "rank_sort": 23096,
        "total": 2376
      },
      {
        "club_badge_src": "https://fantasy.premierleague.com/gcs/plfpl-production-adobe-approved/plfpl-production/3644043/39861a51-c888-4cae-b611-d1f7d21db9be.png",
        "entry": 3644043,
        "entry_name": "Harambee ST\u2b50\ufe0fRS",
        "event_total": 73,
        "has_played": true,
        "id": 27158714,
        "last_rank": 39023,
        "player_name": "Kenneth Kalu",
        "rank": 22998,
        "rank_sort": 23097,
        "total": 2376
      },
      {
        "club_badge_src": null,
        "entry": 3696263,
        "entry_name": "Ctrl Alt DeLigt",
        "event_total": 63,
        "has_played": true,
        "id": 27576385,
        "last_rank": 27976,
        "player_name": "Kyle Abernethy",
        "rank": 22998,
        "rank_sort": 23098,
        "total": 2376
      },
      {
        "club_badge_src": null,
        "entry": 3787690,
        "entry_name": "Theatre of Memes",
        "event_total": 56,
        "has_played": true,
        "id": 28298191,
        "last_rank": 18790,
        "player_name": "Jack Knight",
        "rank": 22998,
        "rank_sort": 23099,
        "total": 2376
      },
      {
        "club_badge_src": null,
        "entry": 3868499,
        "entry_name": "Pablo Marescabar",
        "event_total": 60,
        "has_played": true,
        "id": 29014119,
        "last_rank": 25002,
        "player_name": "Luke Maloney",
        "rank": 22998,
        "rank_sort": 23100,
        "total": 2376
      }
    ]
  }
}