{
  "last_updated_data": "2026-05-24T23:28:17Z",
  "league": {
    "admin_entry": null,
    "closed": false,
    "code_privacy": "p",
    "created": "2025-07-20T23:14:33.933835Z",
    "cup_league": 2815434,
    "has_cup": true,
    "id": 314,
    "league_type": "s",
    "max_entries": null,
    "name": "Overall",
    "rank": null,
    "scoring": "c",
    "start_event": 1
  },
  "new_entries": {
    "has_next": false,
    "page": 1,
    "results": []
  },
  "standings": {
    "has_next": true,
    "page": 621,
    "results": [
      {
        "club_badge_src": null,
        "entry": 4832286,
        "entry_name": "tunarit",
        "event_total": 43,
        "has_played": true,
        "id": 37219629,
        "last_rank": 18691,
        "player_name": "Joona Liikkanen",
        "rank": 30820,
        "rank_sort": 31001,
        "total": 2367
      },
      {
        "club_badge_src": null,
        "entry": 4951860,
        "entry_name": "Make me a Baleba",
        "event_total": 67,
        "has_played": true,
        "id": 38210470,
        "last_rank": 42506,
        "player_name": "Dmitriy Schwarz",
        "rank": 30820,
        "rank_sort": 31002,
        "total": 2367
      },
      {
        "club_badge_src": null,
        "entry": 5015846,
        "entry_name": "Desingerica",
        "event_total": 56,
        "has_played": true,
        "id": 38734288,
        "last_rank": 29578,
        "player_name": "Antonio Koba\u0161",
        "rank": 30820,
        "rank_sort": 31003,
        "total": 2367
      },
      {
        "club_badge_src": null,
        "entry": 5079817,
        "entry_name": "Three Crowns",
        "event_total": 75,
        "has_played": true,
        "id": 39260416,
        "last_rank": 54667,
        "player_name": "Kevin Ralg",
        "rank": 30820,
        "rank_sort": 31004,
        "total": 2367
      },
      {
        "club_badge_src": null,
        "entry": 5218734,
        "entry_name": "Ayew Shaw?",
        "event_total": 63,
        "has_played": true,
        "id": 40433796,
        "last_rank": 37589,
        "player_name": "Martin Mc Manus",
        "rank": 30820,
        "rank_sort": 31005,
        "total": 2367
      },
      {
        "club_badge_src": null,
        "entry": 5344847,
        "entry_name": "ChiXude comeback",
        "event_total": 73,
        "has_played": true,
        "id": 41467145,
        "last_rank": 51220,
        "player_name": "Razin Anaqi",
        "rank": 30820,
        "rank_sort": 31006,
        "total": 2367
      },
      {
        "club_badge_src": null,
        "entry": 5360420,
        "entry_name": "Team Name",
        "event_total": 47,
        "has_played": true,
        "id": 41631751,
        "last_rank": 21775,
        "player_name": "Neil Foster",
        "rank": 30820,
        "rank_sort": 31007,
        "total": 2367
      },
      {
        "club_badge_src": null,
        "entry": 5387751,
        "entry_name": "Show and Tel",
        "event_total": 57,
        "has_played": true,
        "id": 41885469,
        "last_rank": 30503,
        "player_name": "Alex Silver",
        "rank": 30820,
        "rank_sort": 31008,
        "total": 2367
      },
      {
        "club_badge_src": null,
        "entry": 5413503,
        "entry_name": "Sghl",
        "event_total": 49,
        "has_played": true,
        "id": 42099125,
        "last_rank": 23230,
        "player_name": "Sebastien ghislain",
        "rank": 30820,
        "rank_sort": 31009,
        "total": 2367
      },
      {
        "club_badge_src": null,
        "entry": 5555619,
        "entry_name": "Lokomotiv S\u00f6dermalm",
        "event_total": 61,
        "has_played": true,
        "id": 43365179,
        "last_rank": 35166,
        "player_name": "Niklas Nilheim",
        "rank": 30820,
        "rank_sort": 31010,
        "total": 2367
      },
      {
        "club_badge_src": "https://fantasy.premierleague.com/gcs/plfpl-production-adobe-approved/plfpl-production/5600092/af7bc5c3-66d5-4cfe-af22-cf6843e5204c.png",
        "entry": 5600092,
        "entry_name": "Only time will Tel",
        "event_total": 46,
        "has_played": true,
        "id": 43757301,
        "last_rank": 20983,
        "player_name": "jaydon lincoln",
        "rank": 30820,
        "rank_sort": 31011,
        "total": 2367
      },
      {
        "club_badge_src": null,
        "entry": 5688504,
        "entry_name": "Parteys Girls",
        "event_total": 60,
        "has_played": true,
        "id": 44529145,
        "last_rank": 33936,
        "player_name": "Luke Knights",
        "rank": 30820,
        "rank_sort": 31012,
        "total": 2367
      },
      {
        "club_badge_src": null,
        "entry": 5753059,
        "entry_name": "MaradonnaFC",
        "event_total": 64,
        "has_played": true,
        "id": 45092340,
        "last_rank": 38774,
        "player_name": "Donna O-Reilly Higgins",
        "rank": 30820,
        "rank_sort": 31013,
        "total": 2367
      },
      {
        "club_badge_src": null,
        "entry": 5924466,
        "entry_name": "ManchesNem",
        "event_total": 59,
        "has_played": true,
        "id": 46569182,
        "last_rank": 32879,
        "player_name": "Noam Ariely",
        "rank": 30820,
        "rank_sort": 31014,
        "total": 2367
      },
      {
        "club_badge_src": null,
        "entry": 6082518,
        "entry_name": "Any Joel\u2019s a Goal",
        "event_total": 68,
        "has_played": true,
        "id": 48023894,
        "last_rank": 43849,
        "player_name": "Jonathan Pettitt",
        "rank": 30820,
        "rank_sort": 31015,
        "total": 2367
      },
      {
        "club_badge_src": "https://fantasy.premierleague.com/gcs/plfpl-production-adobe-approved/plfpl-production/6083532/884c853f-2b70-4916-b6cd-303bd4d6bac8.png",
        "entry": 6083532,
        "entry_name": "A Team Has No Name",
        "event_total": 61,
        "has_played": true,
        "id": 48032819,
        "last_rank": 35166,
        "player_name": "Andrew Dean",
        "rank": 30820,
        "rank_sort": 31016,
        "total": 2367
      },
      {
        "club_badge_src": null,
        "entry": 6160933,
        "entry_name": "FC Kvitost",
        "event_total": 54,
        "has_played": true,
        "id": 48707018,
        "last_rank": 27770,
        "player_name": "Ingeborg Hodne Bj\u00f8rge",
        "rank": 30820,
        "rank_sort": 31017,
        "total": 2367
      },
      {
        "club_badge_src": null,
        "entry": 6182498,
        "entry_name": "COYS",
        "event_total": 50,
        "has_played": true,
        "id": 48893890,
        "last_rank": 24143,
        "player_name": "Makram Demian",
        "rank": 30820,
        "rank_sort": 31018,
        "total": 2367
      },
      {
        "club_badge_src": null,
        "entry": 6241538,
        "entry_name": "Dablue FC",
        "event_total": 47,
        "has_played": true,
        "id": 49402068,
        "last_rank": 21677,
        "player_name": "Abdulsalam Olaniyan",
        "rank": 30820,
        "rank_sort": 31019,
        "total": 2367
      },
      {
        "club_badge_src": null,
        "entry": 6273460,
        "entry_name": "sergio bisquets",
        "event_total": 48,
        "has_played": true,
        "id": 49677781,
        "last_rank": 22534,
        "player_name": "Ryan Foster",
        "rank": 30820,
        "rank_sort": 31020,
        "total": 2367
      },
      {
        "club_badge_src": null,
        "entry": 6437068,
        "entry_name": "Cole World",
        "event_total": 60,
        "has_played": true,
        "id": 51247624,
        "last_rank": 33936,
        "player_name": "Shane O'Connor",
        "rank": 30820,
        "rank_sort": 31021,
        "total": 2367
      },
      {
        "club_badge_src": null,
        "entry": 6480224,
        "entry_name": "Plumpy Feet",
        "event_total": 60,
        "has_played": true,
        "id": 51647682,
        "last_rank": 34051,
        "player_name": "Sean O -Hanlon",
        "rank": 30820,
        "rank_sort": 31022,
        "total": 2367
      },
      {
        "club_badge_src": "https://fantasy.premierleague.com/gcs/plfpl-production-adobe-approved/plfpl-production/6689007/90a1a602-2263-4629-b9f5-c7210183e53c.png",
        "entry": 6689007,
        "entry_name": "Katawato",
        "event_total": 67,
        "has_played": true,
        "id": 53512117,
        "last_rank": 42648,
        "player_name": "Zeyad Alhorani",
        "rank": 30820,
        "rank_sort": 31023,
        "total": 2367
      },
      {
        "club_badge_src": null,
        "entry": 6788002,
        "entry_name": "Joachim Lowck",
        "event_total": 55,
        "has_played": true,
        "id": 54357072,
        "last_rank": 28609,
        "player_name": "Craig Lock",
        "rank": 30820,
        "rank_sort": 31024,
        "total": 2367
      },
      {
        "club_badge_src": null,
        "entry": 6801850,
        "entry_name": "babeny",
        "event_total": 69,
        "has_played": true,
        "id": 54471945,
        "last_rank": 39784,
        "player_name": "Dawid Wojciechowski",
        "rank": 30820,
        "rank_sort": 31025,
        "total": 2367
      },
      {
        "club_badge_src": null,
        "entry": 6836900,
        "entry_name": "MSC XI",
        "event_total": 66,
        "has_played": true,
        "id": 54767154,
        "last_rank": 41324,
        "player_name": "Aalok Boonlia",
        "rank": 30820,
        "rank_sort": 31026,
        "total": 2367
      },
      {
        "club_badge_src": null,
        "entry": 6928542,
        "entry_name": "saikangwarrior",
        "event_total": 62,
        "has_played": true,
        "id": 55542720,
        "last_rank": 36348,
        "player_name": "Neven Petra",
        "rank": 30820,
        "rank_sort": 31027,
        "total": 2367
      },
      {
        "club_badge_src": null,
        "entry": 6970318,
        "entry_name": "United",
        "event_total": 84,
        "has_played": true,
        "id": 55913188,
        "last_rank": 70651,
        "player_name": "Richard Mews",
        "rank": 30820,
        "rank_sort": 31028,
        "total": 2367
      },
      {
        "club_badge_src": null,
        "entry": 6978948,
        "entry_name": "Egyptian Pleasure Pa",
        "event_total": 52,
        "has_played": true,
        "id": 56005742,
        "last_rank": 25776,
        "player_name": "Michael Grund",
        "rank": 30820,
        "rank_sort": 31029,
        "total": 2367
      },
      {
        "club_badge_src": null,
        "entry": 7062503,
        "entry_name": "Rooney Tunes",
        "event_total": 58,
        "has_played": true,
        "id": 56819154,
        "last_rank": 31747,
        "player_name": "Mohamed Ahmad",
        "rank": 30820,
        "rank_sort": 31030,
        "total": 2367
      },
      {
        "club_badge_src": null,
        "entry": 7119191,
        "entry_name": "Too Many Pork Pies",
        "event_total": 45,
        "has_played": true,
        "id": 57358585,
        "last_rank": 20280,
        "player_name": "Steve Condon",
        "rank": 30820,
        "rank_sort": 31031,
        "total": 2367
      },
      {
        "club_badge_src": null,
        "entry": 7151749,
        "entry_name": "MC All Stars",
        "event_total": 61,
        "has_played": true,
        "id": 57670752,
        "last_rank": 35166,
        "player_name": "Mark Coleman",
        "rank": 30820,
        "rank_sort": 31032,
        "total": 2367
      },
      {
        "club_badge_src": "https://fantasy.premierleague.com/gcs/plfpl-production-adobe-approved/plfpl-production/7251980/7bf6d50d-c12e-4b7d-9fd4-7368f77cf018.png",
        "entry": 7251980,
        "entry_name": "Major League Saka",
        "event_total": 52,
        "has_played": true,
        "id": 58625075,
        "last_rank": 25902,
        "player_name": "Niki Blacksley",
        "rank": 30820,
        "rank_sort": 31033,
        "total": 2367
      },
      {
        "club_badge_src": null,
        "entry": 7386638,
        "entry_name": "Control+Alt+De Ligt",
        "event_total": 46,
        "has_played": true,
        "id": 59887692,
        "last_rank": 21159,
        "player_name": "Rashad Basuki",
        "rank": 30820,
        "rank_sort": 31034,
        "total": 2367
      },
      {
        "club_badge_src": null,
        "entry": 7489227,
        "entry_name": "Helenborough",
        "event_total": 79,
        "has_played": true,
        "id": 61143205,
        "last_rank": 61315,
        "player_name": "Cruella De Mon",
        "rank": 30820,
        "rank_sort": 31035,
        "total": 2367
      },
      {
        "club_badge_src": null,
        "entry": 7535509,
        "entry_name": "It's Coming Home",
        "event_total": 60,
        "has_played": true,
        "id": 61678599,
        "last_rank": 33869,
        "player_name": "Forhad Mubin",
        "rank": 30820,
        "rank_sort": 31036,
        "total": 2367
      },
      {
        "club_badge_src": null,
        "entry": 7710393,
        "entry_name": "Darius' daddys",
        "event_total": 49,
        "has_played": true,
        "id": 63264167,
        "last_rank": 23341,
        "player_name": "Fraser Gillies",
        "rank": 30820,
        "rank_sort": 31037,
        "total": 2367
      },
      {
        "club_badge_src": null,
        "entry": 7849117,
        "entry_name": "Libo",
        "event_total": 69,
        "has_played": true,
        "id": 64524044,
        "last_rank": 45416,
        "player_name": "Anders Liboriussen",
        "rank": 30820,
        "rank_sort": 31038,
        "total": 2367
      },
      {
        "club_badge_src": null,
        "entry": 8041066,
        "entry_name": "Bad Kompany",
        "event_total": 54,
        "has_played": true,
        "id": 66256556,
        "last_rank": 27770,
        "player_name": "Kippy Langat",
        "rank": 30820,
        "rank_sort": 31039,
        "total": 2367
      },
      {
        "club_badge_src": null,
        "entry": 8045228,
        "entry_name": "Stu aint got a Kalou",
        "event_total": 57,
        "has_played": true,
        "id": 66294032,
        "last_rank": 30727,
        "player_name": "Stuart Roberts",
        "rank": 30820,
        "rank_sort": 31040,
        "total": 2367
      },
      {
        "club_badge_src": null,
        "entry": 8629778,
        "entry_name": "Real McCoy",
        "event_total": 73,
        "has_played": true,
        "id": 71885923,
        "last_rank": 51720,
        "player_name": "Oliver McCoy",
        "rank": 30820,
        "rank_sort": 31041,
        "total": 2367
      },
      {
        "club_badge_src": null,
        "entry": 8700570,
        "entry_name": "Vegards 11",
        "event_total": 69,
        "has_played": true,
        "id": 72584609,
        "last_rank": 45714,
        "player_name": "Vegard J\u00f8rgensen",
        "rank": 30820,
        "rank_sort": 31042,
        "total": 2367
      },
      {
        "club_badge_src": null,
        "entry": 9030885,
        "entry_name": "#1",
        "event_total": 67,
        "has_played": true,
        "id": 75778119,
        "last_rank": 42940,
        "player_name": "H\u00e5vard Waage",
        "rank": 30820,
        "rank_sort": 31043,
        "total": 2367
      },
      {
        "club_badge_src": null,
        "entry": 9235390,
        "entry_name": "\u0627\u0644\u0631\u064a\u0633 \u0639\u0645\u0631 \u062d\u0631\u0628",
        "event_total": 70,
        "has_played": true,
        "id": 77780534,
        "last_rank": 46839,
        "player_name": "Yessaad Alla",
        "rank": 30820,
        "rank_sort": 31044,
        "total": 2367
      },
      {
        "club_badge_src": null,
        "entry": 9290506,
        "entry_name": "Munch",
        "event_total": 69,
        "has_played": true,
        "id": 78318539,
        "last_rank": 45252,
        "player_name": "Munraj Kaur Phull",
        "rank": 30820,
        "rank_sort": 31045,
        "total": 2367
      },
      {
        "club_badge_src": null,
        "entry": 9358368,
        "entry_name": "JIM",
        "event_total": 54,
        "has_played": true,
        "id": 78967332,
        "last_rank": 27644,
        "player_name": "gavin donald",
        "rank": 30820,
        "rank_sort": 31046,
        "total": 2367
      },
      {
        "club_badge_src": null,
        "entry": 9422850,
        "entry_name": "AwayFromFPL",
        "event_total": 69,
        "has_played": true,
        "id": 79592948,
        "last_rank": 45182,
        "player_name": "Joseph Merrick",
        "rank": 30820,
        "rank_sort": 31047,
        "total": 2367
      },
      {
        "club_badge_src": null,
        "entry": 10472189,
        "entry_name": "Eze Does It",
        "event_total": 68,
        "has_played": true,
        "id": 88570522,
        "last_rank": 33845,
        "player_name": "Harrison Place",
        "rank": 30820,
        "rank_sort": 31048,
        "total": 2367
      },
      {
        "club_badge_src": null,
        "entry": 10600584,
        "entry_name": "Kamehameha",
        "event_total": 67,
        "has_played": true,
        "id": 89586894,
        "last_rank": 42506,
        "player_name": "Kushagra Rai Nigam",
        "rank": 30820,
        "rank_sort": 31049,
        "total": 2367
      },
      {
        "club_badge_src": null,
        "entry": 818,
        "entry_name": "AC Bella Marmotta",
        "event_total": 72,
        "has_played": true,
        "id": 4520,
        "last_rank": 43849,
        "player_name": "Paul Meahan",
        "rank": 31050,
        "rank_sort": 31050,
        "total": 2367
      }
    ]
  }
}