{
  "last_updated_data": "2026-05-24T23:28:17Z",
  "league": {
    "admin_entry": null,
    "closed": false,
    "code_privacy": "p",
    "created": "2025-07-20T23:14:33.933835Z",
    "cup_league": 2815434,
    "has_cup": true,
    "id": 314,
    "league_type": "s",
    "max_entries": null,
    "name": "Overall",
    "rank": null,
    "scoring": "c",
    "start_event": 1
  },
  "new_entries": {
    "has_next": false,
    "page": 1,
    "results": []
  },
  "standings": {
    "has_next": true,
    "page": 4,
    "results": [
      {
        "club_badge_src": null,
        "entry": 7694187,
        "entry_name": "Beefy Space Raiders",
        "event_total": 53,
        "has_played": true,
        "id": 63119243,
        "last_rank": 109,
        "player_name": "Lisa Tooley",
        "rank": 148,
        "rank_sort": 151,
        "total": 2481
      },
      {
        "club_badge_src": "https://fantasy.premierleague.com/gcs/plfpl-production-adobe-approved/plfpl-production/319097/ff56426d-5597-4855-a12d-5d4b508b704f.png",
        "entry": 319097,
        "entry_name": "But I won on xG",
        "event_total": 66,
        "has_played": true,
        "id": 2138995,
        "last_rank": 181,
        "player_name": "Jack Whaling",
        "rank": 152,
        "rank_sort": 152,
        "total": 2481
      },
      {
        "club_badge_src": null,
        "entry": 2674891,
        "entry_name": "Caulry Celts",
        "event_total": 59,
        "has_played": true,
        "id": 19232472,
        "last_rank": 153,
        "player_name": "Anthony Malone",
        "rank": 152,
        "rank_sort": 153,
        "total": 2481
      },
      {
        "club_badge_src": "https://fantasy.premierleague.com/gcs/plfpl-production-adobe-approved/plfpl-production/4813967/1c1c692f-bc1e-43a6-9dc2-0b438748b70b.png",
        "entry": 4813967,
        "entry_name": "Balloon Dior",
        "event_total": 67,
        "has_played": true,
        "id": 37067971,
        "last_rank": 248,
        "player_name": "Rose Kilbourn",
        "rank": 154,
        "rank_sort": 154,
        "total": 2481
      },
      {
        "club_badge_src": null,
        "entry": 7383149,
        "entry_name": "Fyllingen",
        "event_total": 70,
        "has_played": true,
        "id": 59855572,
        "last_rank": 299,
        "player_name": "Espen Fyllingen",
        "rank": 154,
        "rank_sort": 155,
        "total": 2481
      },
      {
        "club_badge_src": "https://fantasy.premierleague.com/gcs/plfpl-production-adobe-approved/plfpl-production/420804/9fb591fa-9d66-42da-b6c6-4bd103ca602d.png",
        "entry": 420804,
        "entry_name": "Shrewdy V\u00f6ller",
        "event_total": 52,
        "has_played": true,
        "id": 2820141,
        "last_rank": 83,
        "player_name": "Jordan Allan",
        "rank": 156,
        "rank_sort": 156,
        "total": 2481
      },
      {
        "club_badge_src": null,
        "entry": 101386,
        "entry_name": "shahrebale",
        "event_total": 53,
        "has_played": true,
        "id": 661537,
        "last_rank": 115,
        "player_name": "Shahrooz Hozabri",
        "rank": 157,
        "rank_sort": 157,
        "total": 2481
      },
      {
        "club_badge_src": null,
        "entry": 5234028,
        "entry_name": "Spartak Heimdal",
        "event_total": 51,
        "has_played": true,
        "id": 40559194,
        "last_rank": 101,
        "player_name": "Jo Ragnar Tremoen",
        "rank": 158,
        "rank_sort": 158,
        "total": 2480
      },
      {
        "club_badge_src": null,
        "entry": 3937245,
        "entry_name": "Will E Wirtz",
        "event_total": 84,
        "has_played": true,
        "id": 29616440,
        "last_rank": 652,
        "player_name": "Dennis Hans",
        "rank": 159,
        "rank_sort": 159,
        "total": 2480
      },
      {
        "club_badge_src": null,
        "entry": 4821852,
        "entry_name": "The Prey FC",
        "event_total": 57,
        "has_played": true,
        "id": 37132082,
        "last_rank": 142,
        "player_name": "Arab Makinta",
        "rank": 160,
        "rank_sort": 160,
        "total": 2480
      },
      {
        "club_badge_src": null,
        "entry": 490084,
        "entry_name": "Saints11",
        "event_total": 75,
        "has_played": true,
        "id": 3289938,
        "last_rank": 397,
        "player_name": "Ashley Thomas",
        "rank": 161,
        "rank_sort": 161,
        "total": 2480
      },
      {
        "club_badge_src": null,
        "entry": 1761769,
        "entry_name": "Lepron Jems Lejers",
        "event_total": 59,
        "has_played": true,
        "id": 12369886,
        "last_rank": 163,
        "player_name": "\u0627\u0644\u062a\u0647\u0627\u0645\u064a \u0627\u0639\u0644\u064a",
        "rank": 161,
        "rank_sort": 162,
        "total": 2480
      },
      {
        "club_badge_src": null,
        "entry": 881558,
        "entry_name": "MettWirtz & Chesus",
        "event_total": 49,
        "has_played": true,
        "id": 6045516,
        "last_rank": 91,
        "player_name": "Tate Secker",
        "rank": 163,
        "rank_sort": 163,
        "total": 2480
      },
      {
        "club_badge_src": null,
        "entry": 2093854,
        "entry_name": "mo.saqadhi",
        "event_total": 66,
        "has_played": true,
        "id": 14855928,
        "last_rank": 248,
        "player_name": "mohamed Saqadhi",
        "rank": 164,
        "rank_sort": 164,
        "total": 2480
      },
      {
        "club_badge_src": null,
        "entry": 1112601,
        "entry_name": "Net six and chill",
        "event_total": 65,
        "has_played": true,
        "id": 7706846,
        "last_rank": 185,
        "player_name": "samuel martin",
        "rank": 165,
        "rank_sort": 165,
        "total": 2480
      },
      {
        "club_badge_src": "https://fantasy.premierleague.com/gcs/plfpl-production-adobe-approved/plfpl-production/3227946/ab3c10f8-b318-414d-a1f5-551b3f46d2ec.png",
        "entry": 3227946,
        "entry_name": "meshal almutairi",
        "event_total": 66,
        "has_played": true,
        "id": 23872395,
        "last_rank": 197,
        "player_name": "Narcos .",
        "rank": 166,
        "rank_sort": 166,
        "total": 2480
      },
      {
        "club_badge_src": null,
        "entry": 3466874,
        "entry_name": "Boehly Grail",
        "event_total": 60,
        "has_played": true,
        "id": 25772421,
        "last_rank": 179,
        "player_name": "Jordan Corbin",
        "rank": 167,
        "rank_sort": 167,
        "total": 2479
      },
      {
        "club_badge_src": null,
        "entry": 1537509,
        "entry_name": "Total Johnsons",
        "event_total": 66,
        "has_played": true,
        "id": 10730479,
        "last_rank": 259,
        "player_name": "James Brennan",
        "rank": 168,
        "rank_sort": 168,
        "total": 2479
      },
      {
        "club_badge_src": null,
        "entry": 1825135,
        "entry_name": "PepperMinteh",
        "event_total": 63,
        "has_played": true,
        "id": 12836977,
        "last_rank": 211,
        "player_name": "Sam Mcilwaine",
        "rank": 168,
        "rank_sort": 169,
        "total": 2479
      },
      {
        "club_badge_src": "https://fantasy.premierleague.com/gcs/plfpl-production-adobe-approved/plfpl-production/7010388/4f3544f4-be6b-4d64-a4c2-4a084f542b13.png",
        "entry": 7010388,
        "entry_name": "Abana Gold",
        "event_total": 62,
        "has_played": true,
        "id": 56298598,
        "last_rank": 203,
        "player_name": "Chitwa Kamoto",
        "rank": 168,
        "rank_sort": 170,
        "total": 2479
      },
      {
        "club_badge_src": null,
        "entry": 5617969,
        "entry_name": "EC XI",
        "event_total": 62,
        "has_played": true,
        "id": 43913349,
        "last_rank": 203,
        "player_name": "Eoghan Connolly",
        "rank": 171,
        "rank_sort": 171,
        "total": 2479
      },
      {
        "club_badge_src": "https://fantasy.premierleague.com/gcs/plfpl-production-adobe-approved/plfpl-production/3769/7ff2cedf-1a34-4098-be31-0672d441496c.png",
        "entry": 3769,
        "entry_name": "FPL Offbeat Ninja",
        "event_total": 72,
        "has_played": true,
        "id": 21365,
        "last_rank": 293,
        "player_name": "Vincent Praveen Victor",
        "rank": 172,
        "rank_sort": 172,
        "total": 2479
      },
      {
        "club_badge_src": null,
        "entry": 12537,
        "entry_name": "GabbiaDeaney",
        "event_total": 70,
        "has_played": true,
        "id": 75128,
        "last_rank": 266,
        "player_name": "Deane Farrugia",
        "rank": 172,
        "rank_sort": 173,
        "total": 2479
      },
      {
        "club_badge_src": null,
        "entry": 213179,
        "entry_name": "Kloppenheimer",
        "event_total": 62,
        "has_played": true,
        "id": 1418101,
        "last_rank": 135,
        "player_name": "Daniel Ukpong",
        "rank": 174,
        "rank_sort": 174,
        "total": 2479
      },
      {
        "club_badge_src": null,
        "entry": 7849328,
        "entry_name": "Major League Saka",
        "event_total": 58,
        "has_played": true,
        "id": 64526097,
        "last_rank": 172,
        "player_name": "Alex Iliev",
        "rank": 175,
        "rank_sort": 175,
        "total": 2478
      },
      {
        "club_badge_src": null,
        "entry": 2342369,
        "entry_name": "Patras Athletic",
        "event_total": 68,
        "has_played": true,
        "id": 16713531,
        "last_rank": 305,
        "player_name": "Kristian Mbousia",
        "rank": 176,
        "rank_sort": 176,
        "total": 2478
      },
      {
        "club_badge_src": null,
        "entry": 1970322,
        "entry_name": "We used to be giants",
        "event_total": 65,
        "has_played": true,
        "id": 13906295,
        "last_rank": 198,
        "player_name": "Luke Dunne",
        "rank": 177,
        "rank_sort": 177,
        "total": 2478
      },
      {
        "club_badge_src": null,
        "entry": 3066821,
        "entry_name": "Advancemaker",
        "event_total": 50,
        "has_played": true,
        "id": 22581039,
        "last_rank": 110,
        "player_name": "Best Sengsomwongs",
        "rank": 178,
        "rank_sort": 178,
        "total": 2478
      },
      {
        "club_badge_src": null,
        "entry": 2991545,
        "entry_name": "The Clearlake Blues",
        "event_total": 62,
        "has_played": true,
        "id": 22001441,
        "last_rank": 216,
        "player_name": "Bahij Hourani",
        "rank": 179,
        "rank_sort": 179,
        "total": 2478
      },
      {
        "club_badge_src": "https://fantasy.premierleague.com/gcs/plfpl-production-adobe-approved/plfpl-production/134575/32c3f984-14e8-440c-a117-1f12add86644.png",
        "entry": 134575,
        "entry_name": "The20Forever",
        "event_total": 65,
        "has_played": true,
        "id": 876440,
        "last_rank": 203,
        "player_name": "Note TNK",
        "rank": 180,
        "rank_sort": 180,
        "total": 2478
      },
      {
        "club_badge_src": null,
        "entry": 3722198,
        "entry_name": "The Pike is Right",
        "event_total": 62,
        "has_played": true,
        "id": 27778426,
        "last_rank": 216,
        "player_name": "Natalie Pike",
        "rank": 180,
        "rank_sort": 181,
        "total": 2478
      },
      {
        "club_badge_src": null,
        "entry": 4061721,
        "entry_name": "Hukuna Mateta",
        "event_total": 65,
        "has_played": true,
        "id": 30651157,
        "last_rank": 266,
        "player_name": "Matty Greendale",
        "rank": 180,
        "rank_sort": 182,
        "total": 2478
      },
      {
        "club_badge_src": null,
        "entry": 7227910,
        "entry_name": "Howe not to manage",
        "event_total": 63,
        "has_played": true,
        "id": 58395911,
        "last_rank": 227,
        "player_name": "Jack Franklin",
        "rank": 180,
        "rank_sort": 183,
        "total": 2478
      },
      {
        "club_badge_src": "https://fantasy.premierleague.com/gcs/plfpl-production-adobe-approved/plfpl-production/1314154/f607c02c-1cc0-4f58-8b52-aef2e843828a.png",
        "entry": 1314154,
        "entry_name": "Benteke",
        "event_total": 63,
        "has_played": true,
        "id": 9134139,
        "last_rank": 149,
        "player_name": "Erik Voster Solberg",
        "rank": 184,
        "rank_sort": 184,
        "total": 2478
      },
      {
        "club_badge_src": null,
        "entry": 2913609,
        "entry_name": "Omobanke",
        "event_total": 71,
        "has_played": true,
        "id": 21355830,
        "last_rank": 385,
        "player_name": "Omobanke Akinola",
        "rank": 185,
        "rank_sort": 185,
        "total": 2477
      },
      {
        "club_badge_src": null,
        "entry": 6271780,
        "entry_name": "Ty\u00f6v\u00e4en Potkijat",
        "event_total": 67,
        "has_played": true,
        "id": 49663600,
        "last_rank": 307,
        "player_name": "Aleksi Sopanen",
        "rank": 186,
        "rank_sort": 186,
        "total": 2477
      },
      {
        "club_badge_src": null,
        "entry": 2333130,
        "entry_name": "Real Juan",
        "event_total": 56,
        "has_played": true,
        "id": 16646803,
        "last_rank": 163,
        "player_name": "Juan Ameijeiras",
        "rank": 187,
        "rank_sort": 187,
        "total": 2477
      },
      {
        "club_badge_src": null,
        "entry": 25292,
        "entry_name": "Pluto United",
        "event_total": 60,
        "has_played": true,
        "id": 159966,
        "last_rank": 203,
        "player_name": "Emil Bergvall",
        "rank": 188,
        "rank_sort": 188,
        "total": 2477
      },
      {
        "club_badge_src": null,
        "entry": 170043,
        "entry_name": "Boat Toffees",
        "event_total": 59,
        "has_played": true,
        "id": 1123552,
        "last_rank": 193,
        "player_name": "boat cahill",
        "rank": 188,
        "rank_sort": 189,
        "total": 2477
      },
      {
        "club_badge_src": null,
        "entry": 4038290,
        "entry_name": "Sam's Army",
        "event_total": 63,
        "has_played": true,
        "id": 30451983,
        "last_rank": 236,
        "player_name": "Bill Poulton",
        "rank": 188,
        "rank_sort": 190,
        "total": 2477
      },
      {
        "club_badge_src": null,
        "entry": 6782415,
        "entry_name": "Pepper's Grinders",
        "event_total": 70,
        "has_played": true,
        "id": 54310360,
        "last_rank": 364,
        "player_name": "Marie Pepper",
        "rank": 188,
        "rank_sort": 191,
        "total": 2477
      },
      {
        "club_badge_src": null,
        "entry": 5183778,
        "entry_name": "CVGK XI",
        "event_total": 68,
        "has_played": true,
        "id": 40125965,
        "last_rank": 259,
        "player_name": "Charles Knight",
        "rank": 192,
        "rank_sort": 192,
        "total": 2477
      },
      {
        "club_badge_src": null,
        "entry": 7054809,
        "entry_name": "AlexanderTheGreatXI",
        "event_total": 64,
        "has_played": true,
        "id": 56743690,
        "last_rank": 266,
        "player_name": "Alexander Nies",
        "rank": 192,
        "rank_sort": 193,
        "total": 2477
      },
      {
        "club_badge_src": null,
        "entry": 1427619,
        "entry_name": "Tropical FPL - Ryan",
        "event_total": 50,
        "has_played": true,
        "id": 9947287,
        "last_rank": 93,
        "player_name": "Ryan Murray",
        "rank": 194,
        "rank_sort": 194,
        "total": 2477
      },
      {
        "club_badge_src": null,
        "entry": 3048349,
        "entry_name": "FCB Steam",
        "event_total": 68,
        "has_played": true,
        "id": 22440447,
        "last_rank": 208,
        "player_name": "Kieron Hughes",
        "rank": 195,
        "rank_sort": 195,
        "total": 2477
      },
      {
        "club_badge_src": null,
        "entry": 6171681,
        "entry_name": "Richy",
        "event_total": 57,
        "has_played": true,
        "id": 48800530,
        "last_rank": 141,
        "player_name": "Richy Moor",
        "rank": 195,
        "rank_sort": 196,
        "total": 2477
      },
      {
        "club_badge_src": null,
        "entry": 4124354,
        "entry_name": "Purple Perils",
        "event_total": 62,
        "has_played": true,
        "id": 31160935,
        "last_rank": 234,
        "player_name": "Harriet Hughes",
        "rank": 197,
        "rank_sort": 197,
        "total": 2476
      },
      {
        "club_badge_src": null,
        "entry": 21898,
        "entry_name": "FC Bordalen",
        "event_total": 63,
        "has_played": true,
        "id": 137390,
        "last_rank": 200,
        "player_name": "Kjetil Hangeland L\u00f8ining",
        "rank": 198,
        "rank_sort": 198,
        "total": 2476
      },
      {
        "club_badge_src": null,
        "entry": 876610,
        "entry_name": "EZZZ DUBZZZ",
        "event_total": 76,
        "has_played": true,
        "id": 6010036,
        "last_rank": 422,
        "player_name": "Cormac Smolinski",
        "rank": 198,
        "rank_sort": 199,
        "total": 2476
      },
      {
        "club_badge_src": "https://fantasy.premierleague.com/gcs/plfpl-production-adobe-approved/plfpl-production/935628/fb547db7-5e8d-4295-aa66-df3095d185ea.png",
        "entry": 935628,
        "entry_name": "Blue Lock Eleven",
        "event_total": 65,
        "has_played": true,
        "id": 6438725,
        "last_rank": 287,
        "player_name": "Luis Dragonix",
        "rank": 198,
        "rank_sort": 200,
        "total": 2476
      }
    ]
  }
}