{
  "last_updated_data": "2026-05-24T23:28:17Z",
  "league": {
    "admin_entry": null,
    "closed": false,
    "code_privacy": "p",
    "created": "2025-07-20T23:14:33.933835Z",
    "cup_league": 2815434,
    "has_cup": true,
    "id": 314,
    "league_type": "s",
    "max_entries": null,
    "name": "Overall",
    "rank": null,
    "scoring": "c",
    "start_event": 1
  },
  "new_entries": {
    "has_next": false,
    "page": 1,
    "results": []
  },
  "standings": {
    "has_next": true,
    "page": 244,
    "results": [
      {
        "club_badge_src": null,
        "entry": 61518,
        "entry_name": "DC's Allstars",
        "event_total": 69,
        "has_played": true,
        "id": 396244,
        "last_rank": 18691,
        "player_name": "Aaron D'cruz",
        "rank": 12138,
        "rank_sort": 12151,
        "total": 2393
      },
      {
        "club_badge_src": null,
        "entry": 82196,
        "entry_name": "Texas Rangers",
        "event_total": 51,
        "has_played": true,
        "id": 534790,
        "last_rank": 9142,
        "player_name": "Pawe\u0142 Siedlecki",
        "rank": 12138,
        "rank_sort": 12152,
        "total": 2393
      },
      {
        "club_badge_src": "https://fantasy.premierleague.com/gcs/plfpl-production-adobe-approved/plfpl-production/89690/d5f61cf2-aa36-4b6c-9fc0-3398f9e2d5e6.png",
        "entry": 89690,
        "entry_name": "Looney Tunes FC",
        "event_total": 70,
        "has_played": true,
        "id": 585477,
        "last_rank": 19432,
        "player_name": "dheeraj dhillon",
        "rank": 12138,
        "rank_sort": 12153,
        "total": 2393
      },
      {
        "club_badge_src": "https://fantasy.premierleague.com/gcs/plfpl-production-adobe-approved/plfpl-production/92007/e3ee4f3e-21b0-4f81-9aef-208de34b34d5.png",
        "entry": 92007,
        "entry_name": "Action Power",
        "event_total": 77,
        "has_played": true,
        "id": 601118,
        "last_rank": 24857,
        "player_name": "Monthon Napa",
        "rank": 12138,
        "rank_sort": 12154,
        "total": 2393
      },
      {
        "club_badge_src": null,
        "entry": 95587,
        "entry_name": "R.I.P DJ",
        "event_total": 55,
        "has_played": true,
        "id": 624520,
        "last_rank": 10748,
        "player_name": "Jeremy Smith",
        "rank": 12138,
        "rank_sort": 12155,
        "total": 2393
      },
      {
        "club_badge_src": null,
        "entry": 105452,
        "entry_name": "Retirement Home XI",
        "event_total": 60,
        "has_played": true,
        "id": 687779,
        "last_rank": 13257,
        "player_name": "Steve Cartwright",
        "rank": 12138,
        "rank_sort": 12156,
        "total": 2393
      },
      {
        "club_badge_src": null,
        "entry": 106210,
        "entry_name": "TheChosenOne(s)",
        "event_total": 65,
        "has_played": true,
        "id": 692597,
        "last_rank": 16163,
        "player_name": "Eero Sillanp\u00e4\u00e4",
        "rank": 12138,
        "rank_sort": 12157,
        "total": 2393
      },
      {
        "club_badge_src": null,
        "entry": 146602,
        "entry_name": "HaCunha Mateta",
        "event_total": 73,
        "has_played": true,
        "id": 960535,
        "last_rank": 21598,
        "player_name": "Saahil Nana",
        "rank": 12138,
        "rank_sort": 12158,
        "total": 2393
      },
      {
        "club_badge_src": null,
        "entry": 152461,
        "entry_name": "The Highlanders",
        "event_total": 58,
        "has_played": true,
        "id": 1000674,
        "last_rank": 12141,
        "player_name": "Ben Marshall",
        "rank": 12138,
        "rank_sort": 12159,
        "total": 2393
      },
      {
        "club_badge_src": null,
        "entry": 180736,
        "entry_name": "No Pirlo No Party",
        "event_total": 54,
        "has_played": true,
        "id": 1192728,
        "last_rank": 10346,
        "player_name": "Wayne Hitchings",
        "rank": 12138,
        "rank_sort": 12160,
        "total": 2393
      },
      {
        "club_badge_src": null,
        "entry": 181008,
        "entry_name": "Kingdom",
        "event_total": 59,
        "has_played": true,
        "id": 1194499,
        "last_rank": 12705,
        "player_name": "Fahad Bin Nafel",
        "rank": 12138,
        "rank_sort": 12161,
        "total": 2393
      },
      {
        "club_badge_src": null,
        "entry": 186729,
        "entry_name": "Tiny Toon Adventures",
        "event_total": 32,
        "has_played": true,
        "id": 1234207,
        "last_rank": 3902,
        "player_name": "David Emslie",
        "rank": 12138,
        "rank_sort": 12162,
        "total": 2393
      },
      {
        "club_badge_src": null,
        "entry": 194342,
        "entry_name": "DJ Amorim",
        "event_total": 64,
        "has_played": true,
        "id": 1288412,
        "last_rank": 15396,
        "player_name": "Mike Dickens",
        "rank": 12138,
        "rank_sort": 12163,
        "total": 2393
      },
      {
        "club_badge_src": null,
        "entry": 265261,
        "entry_name": "Isak at this game",
        "event_total": 67,
        "has_played": true,
        "id": 1764234,
        "last_rank": 17437,
        "player_name": "Calvin Paffrath",
        "rank": 12138,
        "rank_sort": 12164,
        "total": 2393
      },
      {
        "club_badge_src": null,
        "entry": 281337,
        "entry_name": "Swedish Howe's Mafia",
        "event_total": 73,
        "has_played": true,
        "id": 1872174,
        "last_rank": 21677,
        "player_name": "Kasper B\u00f8dstrup",
        "rank": 12138,
        "rank_sort": 12165,
        "total": 2393
      },
      {
        "club_badge_src": null,
        "entry": 312262,
        "entry_name": "F\u00edllinn \u00ed Herberginu",
        "event_total": 67,
        "has_played": true,
        "id": 2092046,
        "last_rank": 17327,
        "player_name": "Hjalti Gunnlaugur Sk\u00falason",
        "rank": 12138,
        "rank_sort": 12166,
        "total": 2393
      },
      {
        "club_badge_src": "https://fantasy.premierleague.com/gcs/plfpl-production-adobe-approved/plfpl-production/363598/ba05b7a2-ce13-469f-856b-a287da682bdc.png",
        "entry": 363598,
        "entry_name": "Keyboard Warriors",
        "event_total": 64,
        "has_played": true,
        "id": 2433144,
        "last_rank": 15550,
        "player_name": "Jens Bogen",
        "rank": 12138,
        "rank_sort": 12167,
        "total": 2393
      },
      {
        "club_badge_src": null,
        "entry": 368399,
        "entry_name": "Game of Gyokeres",
        "event_total": 60,
        "has_played": true,
        "id": 2465347,
        "last_rank": 13184,
        "player_name": "Dave Sukawaty",
        "rank": 12138,
        "rank_sort": 12168,
        "total": 2393
      },
      {
        "club_badge_src": "https://fantasy.premierleague.com/gcs/plfpl-production-adobe-approved/plfpl-production/412759/404e6003-af29-43c1-aee8-2a96c3dbe49d.png",
        "entry": 412759,
        "entry_name": "go for the bronze",
        "event_total": 56,
        "has_played": true,
        "id": 2767346,
        "last_rank": 11237,
        "player_name": "Harry Not Kane",
        "rank": 12138,
        "rank_sort": 12169,
        "total": 2393
      },
      {
        "club_badge_src": null,
        "entry": 453160,
        "entry_name": "Runners182",
        "event_total": 81,
        "has_played": true,
        "id": 3039822,
        "last_rank": 28726,
        "player_name": "Lukas Tkac",
        "rank": 12138,
        "rank_sort": 12170,
        "total": 2393
      },
      {
        "club_badge_src": null,
        "entry": 474446,
        "entry_name": "Ottoman Empire",
        "event_total": 61,
        "has_played": true,
        "id": 3185137,
        "last_rank": 13821,
        "player_name": "Josh Otto",
        "rank": 12138,
        "rank_sort": 12171,
        "total": 2393
      },
      {
        "club_badge_src": "https://fantasy.premierleague.com/gcs/plfpl-production-adobe-approved/plfpl-production/478255/2ff5c6c5-37ab-4eb1-9bd7-2e652af46d35.png",
        "entry": 478255,
        "entry_name": "Let them fly",
        "event_total": 51,
        "has_played": true,
        "id": 3210683,
        "last_rank": 9142,
        "player_name": "Intisar Nasir",
        "rank": 12138,
        "rank_sort": 12172,
        "total": 2393
      },
      {
        "club_badge_src": "https://fantasy.premierleague.com/gcs/plfpl-production-adobe-approved/plfpl-production/497000/d48d6bd1-91c2-4787-8067-75426e40b1b3.png",
        "entry": 497000,
        "entry_name": "@FPL_Barbossa",
        "event_total": 59,
        "has_played": true,
        "id": 3335820,
        "last_rank": 12705,
        "player_name": "Tom Dollimore",
        "rank": 12138,
        "rank_sort": 12173,
        "total": 2393
      },
      {
        "club_badge_src": null,
        "entry": 525237,
        "entry_name": "Carlos Disciple",
        "event_total": 49,
        "has_played": true,
        "id": 3529819,
        "last_rank": 8382,
        "player_name": "Carl Gustav Wind",
        "rank": 12138,
        "rank_sort": 12174,
        "total": 2393
      },
      {
        "club_badge_src": null,
        "entry": 536224,
        "entry_name": "Vukec",
        "event_total": 68,
        "has_played": true,
        "id": 3608991,
        "last_rank": 18113,
        "player_name": "- Onze -",
        "rank": 12138,
        "rank_sort": 12175,
        "total": 2393
      },
      {
        "club_badge_src": null,
        "entry": 562963,
        "entry_name": "i love soccer",
        "event_total": 72,
        "has_played": true,
        "id": 3789239,
        "last_rank": 20853,
        "player_name": "Jens Hansen",
        "rank": 12138,
        "rank_sort": 12176,
        "total": 2393
      },
      {
        "club_badge_src": null,
        "entry": 575731,
        "entry_name": "Coleman's Mustard",
        "event_total": 63,
        "has_played": true,
        "id": 3874272,
        "last_rank": 14817,
        "player_name": "Fred Clarke",
        "rank": 12138,
        "rank_sort": 12177,
        "total": 2393
      },
      {
        "club_badge_src": null,
        "entry": 600071,
        "entry_name": "Degeneraci",
        "event_total": 78,
        "has_played": true,
        "id": 4048385,
        "last_rank": 25729,
        "player_name": "Damian Repieczko",
        "rank": 12138,
        "rank_sort": 12178,
        "total": 2393
      },
      {
        "club_badge_src": "https://fantasy.premierleague.com/gcs/plfpl-production-adobe-approved/plfpl-production/650531/1ffec6d3-3e4c-47c8-b008-3223f729b024.png",
        "entry": 650531,
        "entry_name": "Bottle Jobs",
        "event_total": 58,
        "has_played": true,
        "id": 4396439,
        "last_rank": 12200,
        "player_name": "Ryan Clarke",
        "rank": 12138,
        "rank_sort": 12179,
        "total": 2393
      },
      {
        "club_badge_src": null,
        "entry": 665432,
        "entry_name": "Watkins Argyle",
        "event_total": 63,
        "has_played": true,
        "id": 4498907,
        "last_rank": 14926,
        "player_name": "Mark Watkins",
        "rank": 12138,
        "rank_sort": 12180,
        "total": 2393
      },
      {
        "club_badge_src": null,
        "entry": 674551,
        "entry_name": "Who's Gordon again?",
        "event_total": 63,
        "has_played": true,
        "id": 4563330,
        "last_rank": 14857,
        "player_name": "Role Adeosun",
        "rank": 12138,
        "rank_sort": 12181,
        "total": 2393
      },
      {
        "club_badge_src": null,
        "entry": 736832,
        "entry_name": "Olly United",
        "event_total": 64,
        "has_played": true,
        "id": 5009187,
        "last_rank": 15452,
        "player_name": "Oliver Bulleid",
        "rank": 12138,
        "rank_sort": 12182,
        "total": 2393
      },
      {
        "club_badge_src": "https://fantasy.premierleague.com/gcs/plfpl-production-adobe-approved/plfpl-production/764759/c054e7a2-6539-4891-bd40-bbdab39a3c6d.png",
        "entry": 764759,
        "entry_name": "Colverstone Athletic",
        "event_total": 67,
        "has_played": true,
        "id": 5215722,
        "last_rank": 17437,
        "player_name": "Jake Spice",
        "rank": 12138,
        "rank_sort": 12183,
        "total": 2393
      },
      {
        "club_badge_src": null,
        "entry": 874600,
        "entry_name": "Ry\u014diki Tenkai",
        "event_total": 60,
        "has_played": true,
        "id": 5996173,
        "last_rank": 13257,
        "player_name": "Luis Donato",
        "rank": 12138,
        "rank_sort": 12184,
        "total": 2393
      },
      {
        "club_badge_src": "https://fantasy.premierleague.com/gcs/plfpl-production-adobe-approved/plfpl-production/951368/4ac5b071-b19f-4d1b-994e-4c92113e79f7.png",
        "entry": 951368,
        "entry_name": "Team Fatality",
        "event_total": 49,
        "has_played": true,
        "id": 6554491,
        "last_rank": 8382,
        "player_name": "Giorgos Mark",
        "rank": 12138,
        "rank_sort": 12185,
        "total": 2393
      },
      {
        "club_badge_src": "https://fantasy.premierleague.com/gcs/plfpl-production-adobe-approved/plfpl-production/960338/0fce5595-ada8-4b42-a9b0-e15bb67b77c3.png",
        "entry": 960338,
        "entry_name": "Gueye Kante",
        "event_total": 55,
        "has_played": true,
        "id": 6617778,
        "last_rank": 10748,
        "player_name": "Euan McNaught",
        "rank": 12138,
        "rank_sort": 12186,
        "total": 2393
      },
      {
        "club_badge_src": null,
        "entry": 1020371,
        "entry_name": "Mamuz FC",
        "event_total": 45,
        "has_played": true,
        "id": 7059373,
        "last_rank": 7059,
        "player_name": "Hannah Ifedime",
        "rank": 12138,
        "rank_sort": 12187,
        "total": 2393
      },
      {
        "club_badge_src": null,
        "entry": 1021216,
        "entry_name": "Bread and Rutter",
        "event_total": 47,
        "has_played": true,
        "id": 7065421,
        "last_rank": 7676,
        "player_name": "Will Croft",
        "rank": 12138,
        "rank_sort": 12188,
        "total": 2393
      },
      {
        "club_badge_src": null,
        "entry": 1032053,
        "entry_name": "BringingZirkzeeBack",
        "event_total": 62,
        "has_played": true,
        "id": 7140552,
        "last_rank": 14292,
        "player_name": "Harley Potter",
        "rank": 12138,
        "rank_sort": 12189,
        "total": 2393
      },
      {
        "club_badge_src": "https://fantasy.premierleague.com/gcs/plfpl-production-adobe-approved/plfpl-production/1054309/6b0f3da1-bba9-4ead-b10d-b43237f97162.png",
        "entry": 1054309,
        "entry_name": "samuelt",
        "event_total": 61,
        "has_played": true,
        "id": 7296617,
        "last_rank": 13754,
        "player_name": "Siripoom Tubtimcharoon",
        "rank": 12138,
        "rank_sort": 12190,
        "total": 2393
      },
      {
        "club_badge_src": null,
        "entry": 1087992,
        "entry_name": "Tottenham Hooligans",
        "event_total": 50,
        "has_played": true,
        "id": 7534855,
        "last_rank": 8718,
        "player_name": "alexander atanasov",
        "rank": 12138,
        "rank_sort": 12191,
        "total": 2393
      },
      {
        "club_badge_src": null,
        "entry": 1240865,
        "entry_name": "Wonder Woman",
        "event_total": 57,
        "has_played": true,
        "id": 8617806,
        "last_rank": 11699,
        "player_name": "Sari S\u00f6derlund",
        "rank": 12138,
        "rank_sort": 12192,
        "total": 2393
      },
      {
        "club_badge_src": null,
        "entry": 1246560,
        "entry_name": "Susucaru Rosso",
        "event_total": 54,
        "has_played": true,
        "id": 8657497,
        "last_rank": 10253,
        "player_name": "Tor Andreasson",
        "rank": 12138,
        "rank_sort": 12193,
        "total": 2393
      },
      {
        "club_badge_src": null,
        "entry": 1426272,
        "entry_name": "Psg",
        "event_total": 59,
        "has_played": true,
        "id": 9937554,
        "last_rank": 12705,
        "player_name": "fidjel moussa",
        "rank": 12138,
        "rank_sort": 12194,
        "total": 2393
      },
      {
        "club_badge_src": null,
        "entry": 1441844,
        "entry_name": "Take your points",
        "event_total": 59,
        "has_played": true,
        "id": 10047107,
        "last_rank": 10720,
        "player_name": "Rob Roche",
        "rank": 12138,
        "rank_sort": 12195,
        "total": 2393
      },
      {
        "club_badge_src": null,
        "entry": 1450448,
        "entry_name": "FCB DUCE",
        "event_total": 64,
        "has_played": true,
        "id": 10106821,
        "last_rank": 15452,
        "player_name": "mirko soldo",
        "rank": 12138,
        "rank_sort": 12196,
        "total": 2393
      },
      {
        "club_badge_src": "https://fantasy.premierleague.com/gcs/plfpl-production-adobe-approved/plfpl-production/1473200/53e3a472-7f92-4cb1-a5e9-e78a074feac4.png",
        "entry": 1473200,
        "entry_name": "Sunderland TID",
        "event_total": 54,
        "has_played": true,
        "id": 10269121,
        "last_rank": 10346,
        "player_name": "Jovan Marinkovic",
        "rank": 12138,
        "rank_sort": 12197,
        "total": 2393
      },
      {
        "club_badge_src": null,
        "entry": 1491375,
        "entry_name": "Back of the Neto",
        "event_total": 71,
        "has_played": true,
        "id": 10400060,
        "last_rank": 20179,
        "player_name": "James Porter Hunt",
        "rank": 12138,
        "rank_sort": 12198,
        "total": 2393
      },
      {
        "club_badge_src": null,
        "entry": 1583156,
        "entry_name": "Unlucky FC",
        "event_total": 58,
        "has_played": true,
        "id": 11064211,
        "last_rank": 12200,
        "player_name": "Benjamin Jeck",
        "rank": 12138,
        "rank_sort": 12199,
        "total": 2393
      },
      {
        "club_badge_src": "https://fantasy.premierleague.com/gcs/plfpl-production-adobe-approved/plfpl-production/1618878/35f0524f-ef8c-4a43-b979-e6cfe9f62187.png",
        "entry": 1618878,
        "entry_name": "C-CBS",
        "event_total": 53,
        "has_played": true,
        "id": 11328434,
        "last_rank": 9885,
        "player_name": "Martin Evans",
        "rank": 12138,
        "rank_sort": 12200,
        "total": 2393
      }
    ]
  }
}