{
  "last_updated_data": "2026-05-24T23:28:17Z",
  "league": {
    "admin_entry": null,
    "closed": false,
    "code_privacy": "p",
    "created": "2025-07-20T23:14:33.933835Z",
    "cup_league": 2815434,
    "has_cup": true,
    "id": 314,
    "league_type": "s",
    "max_entries": null,
    "name": "Overall",
    "rank": null,
    "scoring": "c",
    "start_event": 1
  },
  "new_entries": {
    "has_next": false,
    "page": 1,
    "results": []
  },
  "standings": {
    "has_next": true,
    "page": 895,
    "results": [
      {
        "club_badge_src": null,
        "entry": 666767,
        "entry_name": "zense",
        "event_total": 57,
        "has_played": true,
        "id": 4508225,
        "last_rank": 39585,
        "player_name": "Pithan Ounhasuttiyanon",
        "rank": 44686,
        "rank_sort": 44701,
        "total": 2356
      },
      {
        "club_badge_src": null,
        "entry": 677701,
        "entry_name": "Gloverton",
        "event_total": 69,
        "has_played": true,
        "id": 4585350,
        "last_rank": 57451,
        "player_name": "Alex Glover",
        "rank": 44686,
        "rank_sort": 44702,
        "total": 2356
      },
      {
        "club_badge_src": null,
        "entry": 730093,
        "entry_name": "Amadferit",
        "event_total": 54,
        "has_played": true,
        "id": 4960815,
        "last_rank": 40878,
        "player_name": "Alex Harrison",
        "rank": 44686,
        "rank_sort": 44703,
        "total": 2356
      },
      {
        "club_badge_src": null,
        "entry": 761104,
        "entry_name": "Change Name",
        "event_total": 57,
        "has_played": true,
        "id": 5189154,
        "last_rank": 44882,
        "player_name": "Ethan Young",
        "rank": 44686,
        "rank_sort": 44704,
        "total": 2356
      },
      {
        "club_badge_src": null,
        "entry": 778127,
        "entry_name": "BCFC premier 26/27",
        "event_total": 55,
        "has_played": true,
        "id": 5309607,
        "last_rank": 42225,
        "player_name": "Michael Inns",
        "rank": 44686,
        "rank_sort": 44705,
        "total": 2356
      },
      {
        "club_badge_src": null,
        "entry": 800999,
        "entry_name": "AC MILAN",
        "event_total": 57,
        "has_played": true,
        "id": 5482973,
        "last_rank": 44882,
        "player_name": "Ahmed Omar",
        "rank": 44686,
        "rank_sort": 44706,
        "total": 2356
      },
      {
        "club_badge_src": null,
        "entry": 803513,
        "entry_name": "DerryBerbatov",
        "event_total": 71,
        "has_played": true,
        "id": 5500314,
        "last_rank": 60933,
        "player_name": "Derry O'Leary",
        "rank": 44686,
        "rank_sort": 44707,
        "total": 2356
      },
      {
        "club_badge_src": null,
        "entry": 995294,
        "entry_name": "We'll have a look",
        "event_total": 75,
        "has_played": true,
        "id": 6869194,
        "last_rank": 76474,
        "player_name": "Mikey McCollum",
        "rank": 44686,
        "rank_sort": 44708,
        "total": 2356
      },
      {
        "club_badge_src": null,
        "entry": 1226298,
        "entry_name": "Kinder Mbeumo",
        "event_total": 45,
        "has_played": true,
        "id": 8514769,
        "last_rank": 30361,
        "player_name": "Connor Witton",
        "rank": 44686,
        "rank_sort": 44709,
        "total": 2356
      },
      {
        "club_badge_src": null,
        "entry": 1275512,
        "entry_name": "MurderOnZidanceFloor",
        "event_total": 42,
        "has_played": true,
        "id": 8863032,
        "last_rank": 27438,
        "player_name": "Andrew Ford",
        "rank": 44686,
        "rank_sort": 44710,
        "total": 2356
      },
      {
        "club_badge_src": "https://fantasy.premierleague.com/gcs/plfpl-production-adobe-approved/plfpl-production/1360036/65cea070-4907-47f2-9402-988317025b8d.png",
        "entry": 1360036,
        "entry_name": "Que sera Salah",
        "event_total": 53,
        "has_played": true,
        "id": 9453522,
        "last_rank": 34749,
        "player_name": "Matt Windsor",
        "rank": 44686,
        "rank_sort": 44711,
        "total": 2356
      },
      {
        "club_badge_src": "https://fantasy.premierleague.com/gcs/plfpl-production-adobe-approved/plfpl-production/1371807/4e03665f-3505-4531-95b9-7b7e24423c6c.png",
        "entry": 1371807,
        "entry_name": "TIFREN FC",
        "event_total": 64,
        "has_played": true,
        "id": 9535861,
        "last_rank": 55812,
        "player_name": "Hassan Madhih",
        "rank": 44686,
        "rank_sort": 44712,
        "total": 2356
      },
      {
        "club_badge_src": null,
        "entry": 1508551,
        "entry_name": "Florian Wiwit",
        "event_total": 55,
        "has_played": true,
        "id": 10521279,
        "last_rank": 42225,
        "player_name": "Kevin L",
        "rank": 44686,
        "rank_sort": 44713,
        "total": 2356
      },
      {
        "club_badge_src": null,
        "entry": 1525759,
        "entry_name": "Kinder Mbeumo",
        "event_total": 67,
        "has_played": true,
        "id": 10641763,
        "last_rank": 60933,
        "player_name": "Tom Clancy",
        "rank": 44686,
        "rank_sort": 44714,
        "total": 2356
      },
      {
        "club_badge_src": null,
        "entry": 1573091,
        "entry_name": "Red Bull",
        "event_total": 61,
        "has_played": true,
        "id": 10991958,
        "last_rank": 39510,
        "player_name": "Dawid Czepiela",
        "rank": 44686,
        "rank_sort": 44715,
        "total": 2356
      },
      {
        "club_badge_src": null,
        "entry": 1881874,
        "entry_name": "xambar C 7",
        "event_total": 54,
        "has_played": true,
        "id": 13259678,
        "last_rank": 40878,
        "player_name": "xambar sherwany",
        "rank": 44686,
        "rank_sort": 44716,
        "total": 2356
      },
      {
        "club_badge_src": null,
        "entry": 1993428,
        "entry_name": "Walshy's Wizards",
        "event_total": 60,
        "has_played": true,
        "id": 14085004,
        "last_rank": 43512,
        "player_name": "Patrick Walsh",
        "rank": 44686,
        "rank_sort": 44717,
        "total": 2356
      },
      {
        "club_badge_src": null,
        "entry": 2447877,
        "entry_name": "Budhari",
        "event_total": 57,
        "has_played": true,
        "id": 17507442,
        "last_rank": 34682,
        "player_name": "Yousef Al Fahad",
        "rank": 44686,
        "rank_sort": 44718,
        "total": 2356
      },
      {
        "club_badge_src": "https://fantasy.premierleague.com/gcs/plfpl-production-adobe-approved/plfpl-production/2711790/79bade3c-2550-44e7-85fa-d9e4a6daf775.png",
        "entry": 2711790,
        "entry_name": "AE9",
        "event_total": 52,
        "has_played": true,
        "id": 19511031,
        "last_rank": 33651,
        "player_name": "Abdallah Elshafei",
        "rank": 44686,
        "rank_sort": 44719,
        "total": 2356
      },
      {
        "club_badge_src": null,
        "entry": 2824033,
        "entry_name": "Finch Yanited",
        "event_total": 60,
        "has_played": true,
        "id": 20632696,
        "last_rank": 49368,
        "player_name": "Martin Fincham",
        "rank": 44686,
        "rank_sort": 44720,
        "total": 2356
      },
      {
        "club_badge_src": null,
        "entry": 3368730,
        "entry_name": "Cromer Culture Club",
        "event_total": 61,
        "has_played": true,
        "id": 24998792,
        "last_rank": 50905,
        "player_name": "Eric Anthony",
        "rank": 44686,
        "rank_sort": 44721,
        "total": 2356
      },
      {
        "club_badge_src": null,
        "entry": 3682278,
        "entry_name": "Diza Starz",
        "event_total": 59,
        "has_played": true,
        "id": 27466484,
        "last_rank": 37058,
        "player_name": "Rushdin Desai",
        "rank": 44686,
        "rank_sort": 44722,
        "total": 2356
      },
      {
        "club_badge_src": null,
        "entry": 4161575,
        "entry_name": "B\u00f8kkerskolen",
        "event_total": 58,
        "has_played": true,
        "id": 31464133,
        "last_rank": 46364,
        "player_name": "Knut Kristiansen",
        "rank": 44686,
        "rank_sort": 44723,
        "total": 2356
      },
      {
        "club_badge_src": "https://fantasy.premierleague.com/gcs/plfpl-production-adobe-approved/plfpl-production/4380105/615711e4-c716-4055-b37c-1d039509cb4e.png",
        "entry": 4380105,
        "entry_name": "Pain\u2122",
        "event_total": 69,
        "has_played": true,
        "id": 33285464,
        "last_rank": 64508,
        "player_name": "Suyash Verma",
        "rank": 44686,
        "rank_sort": 44724,
        "total": 2356
      },
      {
        "club_badge_src": null,
        "entry": 4564374,
        "entry_name": "Kings Corners",
        "event_total": 62,
        "has_played": true,
        "id": 34830907,
        "last_rank": 40770,
        "player_name": "Steve Hallam",
        "rank": 44686,
        "rank_sort": 44725,
        "total": 2356
      },
      {
        "club_badge_src": null,
        "entry": 5242942,
        "entry_name": "Braceya Dortmund",
        "event_total": 62,
        "has_played": true,
        "id": 40631864,
        "last_rank": 40770,
        "player_name": "Kevin Bracey",
        "rank": 44686,
        "rank_sort": 44726,
        "total": 2356
      },
      {
        "club_badge_src": null,
        "entry": 5566169,
        "entry_name": "WinNeur14",
        "event_total": 68,
        "has_played": true,
        "id": 43460366,
        "last_rank": 49207,
        "player_name": "Stephan Disneur",
        "rank": 44686,
        "rank_sort": 44727,
        "total": 2356
      },
      {
        "club_badge_src": null,
        "entry": 5693559,
        "entry_name": "BrightBrew",
        "event_total": 43,
        "has_played": true,
        "id": 44572367,
        "last_rank": 24680,
        "player_name": "John H\u00f6rnfeldt",
        "rank": 44686,
        "rank_sort": 44728,
        "total": 2356
      },
      {
        "club_badge_src": null,
        "entry": 5802275,
        "entry_name": "bench warmers",
        "event_total": 57,
        "has_played": true,
        "id": 45519589,
        "last_rank": 44804,
        "player_name": "Connor Strachan",
        "rank": 44686,
        "rank_sort": 44729,
        "total": 2356
      },
      {
        "club_badge_src": null,
        "entry": 6406123,
        "entry_name": "MWFC",
        "event_total": 64,
        "has_played": true,
        "id": 50973540,
        "last_rank": 55812,
        "player_name": "Hamza Patel",
        "rank": 44686,
        "rank_sort": 44730,
        "total": 2356
      },
      {
        "club_badge_src": null,
        "entry": 6681080,
        "entry_name": "Stadium of Light",
        "event_total": 52,
        "has_played": true,
        "id": 53441988,
        "last_rank": 38391,
        "player_name": "Kirill Nesterov",
        "rank": 44686,
        "rank_sort": 44731,
        "total": 2356
      },
      {
        "club_badge_src": null,
        "entry": 6996097,
        "entry_name": "Captainn saywan",
        "event_total": 42,
        "has_played": true,
        "id": 56166117,
        "last_rank": 27438,
        "player_name": "Captainn Saywan",
        "rank": 44686,
        "rank_sort": 44732,
        "total": 2356
      },
      {
        "club_badge_src": null,
        "entry": 7817269,
        "entry_name": "Holy Boehly",
        "event_total": 59,
        "has_played": true,
        "id": 64229709,
        "last_rank": 37058,
        "player_name": "Kelsey Mooney",
        "rank": 44686,
        "rank_sort": 44733,
        "total": 2356
      },
      {
        "club_badge_src": null,
        "entry": 7941254,
        "entry_name": "Da Bears",
        "event_total": 58,
        "has_played": true,
        "id": 65361936,
        "last_rank": 46364,
        "player_name": "Chris Laufenberg",
        "rank": 44686,
        "rank_sort": 44734,
        "total": 2356
      },
      {
        "club_badge_src": null,
        "entry": 7975036,
        "entry_name": "Ghaza forever",
        "event_total": 55,
        "has_played": true,
        "id": 65663354,
        "last_rank": 37134,
        "player_name": "Mohamed Refat",
        "rank": 44686,
        "rank_sort": 44735,
        "total": 2356
      },
      {
        "club_badge_src": "https://fantasy.premierleague.com/gcs/plfpl-production-adobe-approved/plfpl-production/8386597/b4c4b329-7e5d-448a-a7f0-23aab6008da6.png",
        "entry": 8386597,
        "entry_name": "Side Nut",
        "event_total": 59,
        "has_played": true,
        "id": 69554032,
        "last_rank": 42152,
        "player_name": "Donatello Appreciator",
        "rank": 44686,
        "rank_sort": 44736,
        "total": 2356
      },
      {
        "club_badge_src": null,
        "entry": 8388494,
        "entry_name": "Peaky Reijnders",
        "event_total": 64,
        "has_played": true,
        "id": 69572060,
        "last_rank": 49301,
        "player_name": "Lewis Perrett",
        "rank": 44686,
        "rank_sort": 44737,
        "total": 2356
      },
      {
        "club_badge_src": "https://fantasy.premierleague.com/gcs/plfpl-production-adobe-approved/plfpl-production/13429/19dcbc82-d658-42f6-bb75-2c482615fda0.png",
        "entry": 13429,
        "entry_name": "Mega Fun Boys",
        "event_total": 58,
        "has_played": true,
        "id": 81141,
        "last_rank": 35926,
        "player_name": "John Thornfield",
        "rank": 44738,
        "rank_sort": 44738,
        "total": 2356
      },
      {
        "club_badge_src": null,
        "entry": 21702,
        "entry_name": "Anti-Mags XI",
        "event_total": 47,
        "has_played": true,
        "id": 136134,
        "last_rank": 32552,
        "player_name": "Jack Toward",
        "rank": 44738,
        "rank_sort": 44739,
        "total": 2356
      },
      {
        "club_badge_src": "https://fantasy.premierleague.com/gcs/plfpl-production-adobe-approved/plfpl-production/22787/eb63c77b-ba20-4e50-a19c-d57cbcb96967.png",
        "entry": 22787,
        "entry_name": "Sam's XI",
        "event_total": 58,
        "has_played": true,
        "id": 143246,
        "last_rank": 31309,
        "player_name": "Samuel Horlock",
        "rank": 44738,
        "rank_sort": 44740,
        "total": 2356
      },
      {
        "club_badge_src": null,
        "entry": 38356,
        "entry_name": "Suuuuuihail",
        "event_total": 54,
        "has_played": true,
        "id": 245823,
        "last_rank": 35969,
        "player_name": "Suhail Ebrahim",
        "rank": 44738,
        "rank_sort": 44741,
        "total": 2356
      },
      {
        "club_badge_src": "https://fantasy.premierleague.com/gcs/plfpl-production-adobe-approved/plfpl-production/96234/ae77283e-df3a-43fa-b850-9ceefb7ef54f.png",
        "entry": 96234,
        "entry_name": "Royal Madrid FC",
        "event_total": 69,
        "has_played": true,
        "id": 628706,
        "last_rank": 50848,
        "player_name": "muhammad talal",
        "rank": 44738,
        "rank_sort": 44742,
        "total": 2356
      },
      {
        "club_badge_src": "https://fantasy.premierleague.com/gcs/plfpl-production-adobe-approved/plfpl-production/141877/dc735e50-ff8d-473e-a69a-1ebd7b9a1d39.png",
        "entry": 141877,
        "entry_name": "Teeling City Mooses",
        "event_total": 58,
        "has_played": true,
        "id": 927156,
        "last_rank": 40878,
        "player_name": "Daniel Teeling",
        "rank": 44738,
        "rank_sort": 44743,
        "total": 2356
      },
      {
        "club_badge_src": null,
        "entry": 218218,
        "entry_name": "360 noPope",
        "event_total": 63,
        "has_played": true,
        "id": 1451136,
        "last_rank": 47868,
        "player_name": "Tom Scadding",
        "rank": 44738,
        "rank_sort": 44744,
        "total": 2356
      },
      {
        "club_badge_src": null,
        "entry": 526721,
        "entry_name": "ScholsyGoalsy",
        "event_total": 73,
        "has_played": true,
        "id": 3540716,
        "last_rank": 72265,
        "player_name": "James Lofthouse",
        "rank": 44738,
        "rank_sort": 44745,
        "total": 2356
      },
      {
        "club_badge_src": "https://fantasy.premierleague.com/gcs/plfpl-production-adobe-approved/plfpl-production/545602/f2c275b9-bd90-47f2-b06e-cde4aaec4c67.png",
        "entry": 545602,
        "entry_name": "GlasgowsGreen&White",
        "event_total": 45,
        "has_played": true,
        "id": 3671935,
        "last_rank": 30395,
        "player_name": "Allan Duncan",
        "rank": 44738,
        "rank_sort": 44746,
        "total": 2356
      },
      {
        "club_badge_src": null,
        "entry": 584029,
        "entry_name": "Chaplins Chaps",
        "event_total": 55,
        "has_played": true,
        "id": 3930413,
        "last_rank": 42263,
        "player_name": "Lewis Hopes",
        "rank": 44738,
        "rank_sort": 44747,
        "total": 2356
      },
      {
        "club_badge_src": null,
        "entry": 853342,
        "entry_name": "Nano's team",
        "event_total": 74,
        "has_played": true,
        "id": 5849183,
        "last_rank": 40503,
        "player_name": "Omar Ahmed",
        "rank": 44738,
        "rank_sort": 44748,
        "total": 2356
      },
      {
        "club_badge_src": null,
        "entry": 875347,
        "entry_name": "Small Heath Alliance",
        "event_total": 64,
        "has_played": true,
        "id": 6001354,
        "last_rank": 33483,
        "player_name": "Martyn Dennison",
        "rank": 44738,
        "rank_sort": 44749,
        "total": 2356
      },
      {
        "club_badge_src": null,
        "entry": 891573,
        "entry_name": "5quirrel Grip",
        "event_total": 68,
        "has_played": true,
        "id": 6119710,
        "last_rank": 55812,
        "player_name": "Ian Smith",
        "rank": 44738,
        "rank_sort": 44750,
        "total": 2356
      }
    ]
  }
}