{
  "last_updated_data": "2026-05-24T23:28:17Z",
  "league": {
    "admin_entry": null,
    "closed": false,
    "code_privacy": "p",
    "created": "2025-07-20T23:14:33.933835Z",
    "cup_league": 2815434,
    "has_cup": true,
    "id": 314,
    "league_type": "s",
    "max_entries": null,
    "name": "Overall",
    "rank": null,
    "scoring": "c",
    "start_event": 1
  },
  "new_entries": {
    "has_next": false,
    "page": 1,
    "results": []
  },
  "standings": {
    "has_next": true,
    "page": 251,
    "results": [
      {
        "club_badge_src": null,
        "entry": 717742,
        "entry_name": "Wirtz case scenario",
        "event_total": 67,
        "has_played": true,
        "id": 4870127,
        "last_rank": 12940,
        "player_name": "William Thyer",
        "rank": 12493,
        "rank_sort": 12501,
        "total": 2393
      },
      {
        "club_badge_src": null,
        "entry": 956568,
        "entry_name": "Skoghsbury town",
        "event_total": 74,
        "has_played": true,
        "id": 6591018,
        "last_rank": 19904,
        "player_name": "Emanuel Skogh",
        "rank": 12493,
        "rank_sort": 12502,
        "total": 2393
      },
      {
        "club_badge_src": null,
        "entry": 1033758,
        "entry_name": "Hohneck",
        "event_total": 77,
        "has_played": true,
        "id": 7153310,
        "last_rank": 25517,
        "player_name": "Morten Sandvik Hareland",
        "rank": 12493,
        "rank_sort": 12503,
        "total": 2393
      },
      {
        "club_badge_src": null,
        "entry": 1100242,
        "entry_name": "V.V. De Pruimentijd",
        "event_total": 52,
        "has_played": true,
        "id": 7620987,
        "last_rank": 6887,
        "player_name": "Jurian Lier",
        "rank": 12493,
        "rank_sort": 12504,
        "total": 2393
      },
      {
        "club_badge_src": null,
        "entry": 1112490,
        "entry_name": "worldchamp",
        "event_total": 49,
        "has_played": true,
        "id": 7706093,
        "last_rank": 8617,
        "player_name": "Dok rok Cetong",
        "rank": 12493,
        "rank_sort": 12505,
        "total": 2393
      },
      {
        "club_badge_src": null,
        "entry": 1686327,
        "entry_name": "FPL Bruc\u00e9",
        "event_total": 58,
        "has_played": true,
        "id": 11804742,
        "last_rank": 12470,
        "player_name": "Bikash Lingden",
        "rank": 12493,
        "rank_sort": 12506,
        "total": 2393
      },
      {
        "club_badge_src": null,
        "entry": 1842332,
        "entry_name": "Keep it Frank",
        "event_total": 44,
        "has_played": true,
        "id": 12961784,
        "last_rank": 6949,
        "player_name": "Calum Kearney",
        "rank": 12493,
        "rank_sort": 12507,
        "total": 2393
      },
      {
        "club_badge_src": null,
        "entry": 2090591,
        "entry_name": "TouchingSlot",
        "event_total": 56,
        "has_played": true,
        "id": 14832403,
        "last_rank": 11516,
        "player_name": "Niall Butler",
        "rank": 12493,
        "rank_sort": 12508,
        "total": 2393
      },
      {
        "club_badge_src": "https://fantasy.premierleague.com/gcs/plfpl-production-adobe-approved/plfpl-production/2636833/eff49f86-acf8-4bae-9ad6-2f5a186c6cab.png",
        "entry": 2636833,
        "entry_name": "Brownsea Rovers",
        "event_total": 77,
        "has_played": true,
        "id": 18950992,
        "last_rank": 25564,
        "player_name": "David Patterson",
        "rank": 12493,
        "rank_sort": 12509,
        "total": 2393
      },
      {
        "club_badge_src": null,
        "entry": 3640587,
        "entry_name": "2119",
        "event_total": 72,
        "has_played": true,
        "id": 27131896,
        "last_rank": 21450,
        "player_name": "muneer abdulla",
        "rank": 12493,
        "rank_sort": 12510,
        "total": 2393
      },
      {
        "club_badge_src": null,
        "entry": 4767400,
        "entry_name": "Frimpong Ping Pong",
        "event_total": 58,
        "has_played": true,
        "id": 36691928,
        "last_rank": 8925,
        "player_name": "Mohamed Mohamed",
        "rank": 12493,
        "rank_sort": 12511,
        "total": 2393
      },
      {
        "club_badge_src": "https://fantasy.premierleague.com/gcs/plfpl-production-adobe-approved/plfpl-production/6651232/9ca70f4a-d153-486f-9136-332e5c7bbdcf.png",
        "entry": 6651232,
        "entry_name": "Team Ylva",
        "event_total": 64,
        "has_played": true,
        "id": 53172956,
        "last_rank": 15876,
        "player_name": "Ylva Brodtkorb",
        "rank": 12493,
        "rank_sort": 12512,
        "total": 2393
      },
      {
        "club_badge_src": "https://fantasy.premierleague.com/gcs/plfpl-production-adobe-approved/plfpl-production/7125442/5163a0f1-efe1-4010-b66f-0eb88fb40597.png",
        "entry": 7125442,
        "entry_name": "DeeBa F.c",
        "event_total": 67,
        "has_played": true,
        "id": 57417374,
        "last_rank": 15226,
        "player_name": "Ahmed Deeba",
        "rank": 12493,
        "rank_sort": 12513,
        "total": 2393
      },
      {
        "club_badge_src": null,
        "entry": 7355366,
        "entry_name": "Frimpongs giant dong",
        "event_total": 54,
        "has_played": true,
        "id": 59598869,
        "last_rank": 10629,
        "player_name": "Lee Edwards",
        "rank": 12493,
        "rank_sort": 12514,
        "total": 2393
      },
      {
        "club_badge_src": "https://fantasy.premierleague.com/gcs/plfpl-production-adobe-approved/plfpl-production/10704/1c6d1a6f-71b6-458d-906a-3a3b412399ed.png",
        "entry": 10704,
        "entry_name": "Beef Cherki",
        "event_total": 46,
        "has_played": true,
        "id": 63387,
        "last_rank": 6347,
        "player_name": "Harry Lindsay",
        "rank": 12515,
        "rank_sort": 12515,
        "total": 2393
      },
      {
        "club_badge_src": null,
        "entry": 42653,
        "entry_name": "Fear the Beard",
        "event_total": 53,
        "has_played": true,
        "id": 273246,
        "last_rank": 8617,
        "player_name": "Ralph Atallah",
        "rank": 12515,
        "rank_sort": 12516,
        "total": 2393
      },
      {
        "club_badge_src": null,
        "entry": 96268,
        "entry_name": "Dipsta XI",
        "event_total": 46,
        "has_played": true,
        "id": 628945,
        "last_rank": 7567,
        "player_name": "Dips Shah",
        "rank": 12515,
        "rank_sort": 12517,
        "total": 2393
      },
      {
        "club_badge_src": null,
        "entry": 184762,
        "entry_name": "Mayden Heaven",
        "event_total": 64,
        "has_played": true,
        "id": 1220174,
        "last_rank": 13601,
        "player_name": "Neil Franklin",
        "rank": 12515,
        "rank_sort": 12518,
        "total": 2393
      },
      {
        "club_badge_src": null,
        "entry": 213358,
        "entry_name": "richys boys",
        "event_total": 55,
        "has_played": true,
        "id": 1419303,
        "last_rank": 11080,
        "player_name": "richard buckett",
        "rank": 12515,
        "rank_sort": 12519,
        "total": 2393
      },
      {
        "club_badge_src": null,
        "entry": 565091,
        "entry_name": "I'mSorryNicJacksonV3",
        "event_total": 66,
        "has_played": true,
        "id": 3803549,
        "last_rank": 17150,
        "player_name": "Conor Davinson",
        "rank": 12515,
        "rank_sort": 12520,
        "total": 2393
      },
      {
        "club_badge_src": null,
        "entry": 821034,
        "entry_name": "EkiTiki-Taka",
        "event_total": 63,
        "has_played": true,
        "id": 5623062,
        "last_rank": 13033,
        "player_name": "Bart Kloosterboer",
        "rank": 12515,
        "rank_sort": 12521,
        "total": 2393
      },
      {
        "club_badge_src": null,
        "entry": 1034038,
        "entry_name": "Melchester Rovers",
        "event_total": 55,
        "has_played": true,
        "id": 7155317,
        "last_rank": 11080,
        "player_name": "Stuart Shepherd",
        "rank": 12515,
        "rank_sort": 12522,
        "total": 2393
      },
      {
        "club_badge_src": "https://fantasy.premierleague.com/gcs/plfpl-production-adobe-approved/plfpl-production/1049971/659bbc02-f372-44fa-b64f-1493e027ce41.png",
        "entry": 1049971,
        "entry_name": "Christ is king",
        "event_total": 74,
        "has_played": true,
        "id": 7266373,
        "last_rank": 22830,
        "player_name": "S\u00e1muel Emilsson Abrahamsen",
        "rank": 12515,
        "rank_sort": 12523,
        "total": 2393
      },
      {
        "club_badge_src": null,
        "entry": 1382554,
        "entry_name": "AS Valle Sestalle",
        "event_total": 49,
        "has_played": true,
        "id": 9615768,
        "last_rank": 6094,
        "player_name": "Patryk Antosz",
        "rank": 12515,
        "rank_sort": 12524,
        "total": 2393
      },
      {
        "club_badge_src": null,
        "entry": 1812836,
        "entry_name": "guendouz fc",
        "event_total": 62,
        "has_played": true,
        "id": 12747152,
        "last_rank": 12512,
        "player_name": "aoukaba Mohammed sabir",
        "rank": 12515,
        "rank_sort": 12525,
        "total": 2393
      },
      {
        "club_badge_src": null,
        "entry": 1945746,
        "entry_name": "Les Saka 10 piasses",
        "event_total": 48,
        "has_played": true,
        "id": 13725096,
        "last_rank": 6949,
        "player_name": "Alexandre Vienneau",
        "rank": 12515,
        "rank_sort": 12526,
        "total": 2393
      },
      {
        "club_badge_src": null,
        "entry": 2681838,
        "entry_name": "The GOATS are cooked",
        "event_total": 62,
        "has_played": true,
        "id": 19288152,
        "last_rank": 14712,
        "player_name": "Phil Summers",
        "rank": 12515,
        "rank_sort": 12527,
        "total": 2393
      },
      {
        "club_badge_src": null,
        "entry": 2913923,
        "entry_name": "Dr.\ufffd\ufffd\ufffd\ufffd Ramzy",
        "event_total": 48,
        "has_played": true,
        "id": 21358166,
        "last_rank": 6949,
        "player_name": "number one -",
        "rank": 12515,
        "rank_sort": 12528,
        "total": 2393
      },
      {
        "club_badge_src": null,
        "entry": 3646212,
        "entry_name": "Wolverine",
        "event_total": 71,
        "has_played": true,
        "id": 27175673,
        "last_rank": 17802,
        "player_name": "Savio Thomas",
        "rank": 12515,
        "rank_sort": 12529,
        "total": 2393
      },
      {
        "club_badge_src": "https://fantasy.premierleague.com/gcs/plfpl-production-adobe-approved/plfpl-production/3717829/f89dfdfb-4bc4-468d-b49c-d2aa878a28ad.png",
        "entry": 3717829,
        "entry_name": "Athletic BillBailey",
        "event_total": 71,
        "has_played": true,
        "id": 27743991,
        "last_rank": 17848,
        "player_name": "Keith Pettitt",
        "rank": 12515,
        "rank_sort": 12530,
        "total": 2393
      },
      {
        "club_badge_src": null,
        "entry": 4823911,
        "entry_name": "Numpty Dumpty",
        "event_total": 68,
        "has_played": true,
        "id": 37150780,
        "last_rank": 18520,
        "player_name": "Carl Lloyd",
        "rank": 12515,
        "rank_sort": 12531,
        "total": 2393
      },
      {
        "club_badge_src": null,
        "entry": 5265027,
        "entry_name": "Osa",
        "event_total": 69,
        "has_played": true,
        "id": 40807382,
        "last_rank": 19237,
        "player_name": "Eslam Selim",
        "rank": 12515,
        "rank_sort": 12532,
        "total": 2393
      },
      {
        "club_badge_src": "https://fantasy.premierleague.com/gcs/plfpl-production-adobe-approved/plfpl-production/5323123/e6dc9063-6abd-4ce9-aaaa-d733d88f0d5e.png",
        "entry": 5323123,
        "entry_name": "Im \u0160e\u0161ko n I Know It",
        "event_total": 48,
        "has_played": true,
        "id": 41265265,
        "last_rank": 8274,
        "player_name": "Joseph Kirk",
        "rank": 12515,
        "rank_sort": 12533,
        "total": 2393
      },
      {
        "club_badge_src": null,
        "entry": 5971395,
        "entry_name": "Mulau Ulau FC",
        "event_total": 66,
        "has_played": true,
        "id": 46992298,
        "last_rank": 17194,
        "player_name": "Pucca Pro",
        "rank": 12515,
        "rank_sort": 12534,
        "total": 2393
      },
      {
        "club_badge_src": null,
        "entry": 7362293,
        "entry_name": "Lagos FC",
        "event_total": 67,
        "has_played": true,
        "id": 59663278,
        "last_rank": 17878,
        "player_name": "Adetayo Geefaz",
        "rank": 12515,
        "rank_sort": 12535,
        "total": 2393
      },
      {
        "club_badge_src": null,
        "entry": 7362687,
        "entry_name": "For Ferg's Sake",
        "event_total": 58,
        "has_played": true,
        "id": 59666855,
        "last_rank": 10629,
        "player_name": "Ferg Littlejohn",
        "rank": 12515,
        "rank_sort": 12536,
        "total": 2393
      },
      {
        "club_badge_src": "https://fantasy.premierleague.com/gcs/plfpl-production-adobe-approved/plfpl-production/16733/40bfa0f8-1856-4aa4-9280-15aa8a0d562d.png",
        "entry": 16733,
        "entry_name": "Steady Mobs FC",
        "event_total": 64,
        "has_played": true,
        "id": 103533,
        "last_rank": 13629,
        "player_name": "Jim Tayar",
        "rank": 12537,
        "rank_sort": 12537,
        "total": 2393
      },
      {
        "club_badge_src": null,
        "entry": 202671,
        "entry_name": "Enzoholic",
        "event_total": 69,
        "has_played": true,
        "id": 1346044,
        "last_rank": 16598,
        "player_name": "Mohamed Korain",
        "rank": 12537,
        "rank_sort": 12538,
        "total": 2393
      },
      {
        "club_badge_src": null,
        "entry": 313702,
        "entry_name": "One Wally Watkins",
        "event_total": 48,
        "has_played": true,
        "id": 2101894,
        "last_rank": 8283,
        "player_name": "Steve Fennell",
        "rank": 12537,
        "rank_sort": 12539,
        "total": 2393
      },
      {
        "club_badge_src": null,
        "entry": 1125018,
        "entry_name": "\u0e42\u0e0a\u0e04\u0e14\u0e35\u0e21\u0e35\u0e0a\u0e31\u0e22",
        "event_total": 68,
        "has_played": true,
        "id": 7796742,
        "last_rank": 18555,
        "player_name": "Tanapon Rodsawek",
        "rank": 12537,
        "rank_sort": 12540,
        "total": 2393
      },
      {
        "club_badge_src": null,
        "entry": 2541734,
        "entry_name": "50 Shades O'Shea",
        "event_total": 76,
        "has_played": true,
        "id": 18216466,
        "last_rank": 24636,
        "player_name": "Stian Sandaker",
        "rank": 12537,
        "rank_sort": 12541,
        "total": 2393
      },
      {
        "club_badge_src": null,
        "entry": 3723971,
        "entry_name": "Yellow Melons",
        "event_total": 61,
        "has_played": true,
        "id": 27792187,
        "last_rank": 12027,
        "player_name": "Mel Hayman",
        "rank": 12537,
        "rank_sort": 12542,
        "total": 2393
      },
      {
        "club_badge_src": null,
        "entry": 5205476,
        "entry_name": "Onana what's my name",
        "event_total": 59,
        "has_played": true,
        "id": 40317033,
        "last_rank": 11080,
        "player_name": "Kate Adams",
        "rank": 12537,
        "rank_sort": 12543,
        "total": 2393
      },
      {
        "club_badge_src": "https://fantasy.premierleague.com/gcs/plfpl-production-adobe-approved/plfpl-production/5851235/832039cf-73f5-49cb-b849-fa210e0db9c6.png",
        "entry": 5851235,
        "entry_name": "What the Skelly",
        "event_total": 61,
        "has_played": true,
        "id": 45938620,
        "last_rank": 14184,
        "player_name": "Ashleigh McMurtrie",
        "rank": 12537,
        "rank_sort": 12544,
        "total": 2393
      },
      {
        "club_badge_src": "https://fantasy.premierleague.com/gcs/plfpl-production-adobe-approved/plfpl-production/6361646/402d1403-0777-4ca5-8298-52fb5fbae3db.png",
        "entry": 6361646,
        "entry_name": "Victor Moses Lawn",
        "event_total": 63,
        "has_played": true,
        "id": 50581696,
        "last_rank": 15280,
        "player_name": "Shaun Barkus",
        "rank": 12537,
        "rank_sort": 12545,
        "total": 2393
      },
      {
        "club_badge_src": null,
        "entry": 6634162,
        "entry_name": "Stella Rossa \u2764\ufe0f",
        "event_total": 68,
        "has_played": true,
        "id": 53024043,
        "last_rank": 18578,
        "player_name": "Milivoje Nikoli\u0107",
        "rank": 12537,
        "rank_sort": 12546,
        "total": 2393
      },
      {
        "club_badge_src": null,
        "entry": 9144689,
        "entry_name": "ELDAKAK",
        "event_total": 92,
        "has_played": true,
        "id": 76888897,
        "last_rank": 42225,
        "player_name": "Ahmed Eldakak \u2694\ufe0f",
        "rank": 12537,
        "rank_sort": 12547,
        "total": 2393
      },
      {
        "club_badge_src": null,
        "entry": 9339600,
        "entry_name": "peter fc",
        "event_total": 60,
        "has_played": true,
        "id": 78787910,
        "last_rank": 9775,
        "player_name": "peter harrison",
        "rank": 12537,
        "rank_sort": 12548,
        "total": 2393
      },
      {
        "club_badge_src": "https://fantasy.premierleague.com/gcs/plfpl-production-adobe-approved/plfpl-production/98308/08631b25-9da2-4fe5-bb1b-86f25ee55353.png",
        "entry": 98308,
        "entry_name": "Diogoal J.20 FC",
        "event_total": 63,
        "has_played": true,
        "id": 641994,
        "last_rank": 11080,
        "player_name": "Keiran Morris",
        "rank": 12549,
        "rank_sort": 12549,
        "total": 2393
      },
      {
        "club_badge_src": null,
        "entry": 153122,
        "entry_name": "Rossi Italia",
        "event_total": 74,
        "has_played": true,
        "id": 1005424,
        "last_rank": 20038,
        "player_name": "Ross Jones",
        "rank": 12549,
        "rank_sort": 12550,
        "total": 2393
      }
    ]
  }
}