{
  "last_updated_data": "2026-05-24T23:28:17Z",
  "league": {
    "admin_entry": null,
    "closed": false,
    "code_privacy": "p",
    "created": "2025-07-20T23:14:33.933835Z",
    "cup_league": 2815434,
    "has_cup": true,
    "id": 314,
    "league_type": "s",
    "max_entries": null,
    "name": "Overall",
    "rank": null,
    "scoring": "c",
    "start_event": 1
  },
  "new_entries": {
    "has_next": false,
    "page": 1,
    "results": []
  },
  "standings": {
    "has_next": true,
    "page": 765,
    "results": [
      {
        "club_badge_src": null,
        "entry": 820053,
        "entry_name": "Albatross Arsenal",
        "event_total": 69,
        "has_played": true,
        "id": 5616300,
        "last_rank": 49078,
        "player_name": "Albatrossie Arsenal",
        "rank": 38170,
        "rank_sort": 38201,
        "total": 2361
      },
      {
        "club_badge_src": null,
        "entry": 861126,
        "entry_name": "RAED",
        "event_total": 62,
        "has_played": true,
        "id": 5903206,
        "last_rank": 39246,
        "player_name": "RAED ALHARBI",
        "rank": 38170,
        "rank_sort": 38202,
        "total": 2361
      },
      {
        "club_badge_src": "https://fantasy.premierleague.com/gcs/plfpl-production-adobe-approved/plfpl-production/863986/de1a1420-1698-4b02-8fea-5cc860d430ff.png",
        "entry": 863986,
        "entry_name": "PizzaPastaRavioli",
        "event_total": 58,
        "has_played": true,
        "id": 5923058,
        "last_rank": 39510,
        "player_name": "Eric Wellmann",
        "rank": 38170,
        "rank_sort": 38203,
        "total": 2361
      },
      {
        "club_badge_src": null,
        "entry": 875548,
        "entry_name": "NYEKNYOBE FC",
        "event_total": 55,
        "has_played": true,
        "id": 6002680,
        "last_rank": 35867,
        "player_name": "febri irbef",
        "rank": 38170,
        "rank_sort": 38204,
        "total": 2361
      },
      {
        "club_badge_src": null,
        "entry": 960767,
        "entry_name": "zwyci\u0119zca",
        "event_total": 69,
        "has_played": true,
        "id": 6620692,
        "last_rank": 55659,
        "player_name": "Paul Jassal",
        "rank": 38170,
        "rank_sort": 38205,
        "total": 2361
      },
      {
        "club_badge_src": "https://fantasy.premierleague.com/gcs/plfpl-production-adobe-approved/plfpl-production/1013312/10fcf098-6461-4576-be42-8f1fb8f6499e.png",
        "entry": 1013312,
        "entry_name": "Jabberjaw",
        "event_total": 57,
        "has_played": true,
        "id": 7009847,
        "last_rank": 38163,
        "player_name": "Teuku Zaba Alhamda",
        "rank": 38170,
        "rank_sort": 38206,
        "total": 2361
      },
      {
        "club_badge_src": "https://fantasy.premierleague.com/gcs/plfpl-production-adobe-approved/plfpl-production/1203138/be74768d-1cfc-4939-b25e-5480368ce41b.png",
        "entry": 1203138,
        "entry_name": "not a fan-tasy",
        "event_total": 47,
        "has_played": true,
        "id": 8349245,
        "last_rank": 27364,
        "player_name": "Liam Redmond",
        "rank": 38170,
        "rank_sort": 38207,
        "total": 2361
      },
      {
        "club_badge_src": null,
        "entry": 1255063,
        "entry_name": "imadsa",
        "event_total": 60,
        "has_played": true,
        "id": 8716934,
        "last_rank": 42081,
        "player_name": "Aman Anand",
        "rank": 38170,
        "rank_sort": 38208,
        "total": 2361
      },
      {
        "club_badge_src": "https://fantasy.premierleague.com/gcs/plfpl-production-adobe-approved/plfpl-production/1282308/4b935148-3df2-4b03-856b-d74fc1526af0.png",
        "entry": 1282308,
        "entry_name": "Bucko Juniors",
        "event_total": 49,
        "has_played": true,
        "id": 8910391,
        "last_rank": 29279,
        "player_name": "Rob Buckley",
        "rank": 38170,
        "rank_sort": 38209,
        "total": 2361
      },
      {
        "club_badge_src": null,
        "entry": 1339692,
        "entry_name": "Ahh Jeezy Peeps Man",
        "event_total": 63,
        "has_played": true,
        "id": 9314255,
        "last_rank": 46236,
        "player_name": "Jason Fealy",
        "rank": 38170,
        "rank_sort": 38210,
        "total": 2361
      },
      {
        "club_badge_src": null,
        "entry": 1431787,
        "entry_name": "Arne Slot Machine",
        "event_total": 63,
        "has_played": true,
        "id": 9976744,
        "last_rank": 46236,
        "player_name": "Hamish McVie",
        "rank": 38170,
        "rank_sort": 38211,
        "total": 2361
      },
      {
        "club_badge_src": "https://fantasy.premierleague.com/gcs/plfpl-production-adobe-approved/plfpl-production/1536724/f9b171d7-c956-461e-9fef-de888548c123.png",
        "entry": 1536724,
        "entry_name": "#P\u00e6n D\u0113\u00ea $",
        "event_total": 64,
        "has_played": true,
        "id": 10724802,
        "last_rank": 47722,
        "player_name": "Titus Trevor",
        "rank": 38170,
        "rank_sort": 38212,
        "total": 2361
      },
      {
        "club_badge_src": null,
        "entry": 1550289,
        "entry_name": "Sesk0Mtoshiecunha655",
        "event_total": 60,
        "has_played": true,
        "id": 10823976,
        "last_rank": 42081,
        "player_name": "Martin Mccormick",
        "rank": 38170,
        "rank_sort": 38213,
        "total": 2361
      },
      {
        "club_badge_src": null,
        "entry": 1599883,
        "entry_name": "ninja skertles",
        "event_total": 56,
        "has_played": true,
        "id": 11192152,
        "last_rank": 37134,
        "player_name": "mark quirke",
        "rank": 38170,
        "rank_sort": 38214,
        "total": 2361
      },
      {
        "club_badge_src": null,
        "entry": 1666539,
        "entry_name": "Celtic -1",
        "event_total": 73,
        "has_played": true,
        "id": 11667991,
        "last_rank": 62724,
        "player_name": "Ruaidhr\u00ed Mac Aodhagain",
        "rank": 38170,
        "rank_sort": 38215,
        "total": 2361
      },
      {
        "club_badge_src": null,
        "entry": 1738669,
        "entry_name": "bashaaa masr",
        "event_total": 59,
        "has_played": true,
        "id": 12198311,
        "last_rank": 40770,
        "player_name": "Ahmed Basha",
        "rank": 38170,
        "rank_sort": 38216,
        "total": 2361
      },
      {
        "club_badge_src": null,
        "entry": 1899680,
        "entry_name": "ChickenChowMainoo",
        "event_total": 56,
        "has_played": true,
        "id": 13390987,
        "last_rank": 37058,
        "player_name": "Joe Hudson",
        "rank": 38170,
        "rank_sort": 38217,
        "total": 2361
      },
      {
        "club_badge_src": null,
        "entry": 1903716,
        "entry_name": "Struijk N\u2019 Tanaka\u2019S",
        "event_total": 59,
        "has_played": true,
        "id": 13420337,
        "last_rank": 35768,
        "player_name": "Greg Limb",
        "rank": 38170,
        "rank_sort": 38218,
        "total": 2361
      },
      {
        "club_badge_src": null,
        "entry": 1931604,
        "entry_name": "BK Prutt",
        "event_total": 64,
        "has_played": true,
        "id": 13623369,
        "last_rank": 41967,
        "player_name": "David Lundgren",
        "rank": 38170,
        "rank_sort": 38219,
        "total": 2361
      },
      {
        "club_badge_src": null,
        "entry": 2271874,
        "entry_name": "absa10",
        "event_total": 61,
        "has_played": true,
        "id": 16199679,
        "last_rank": 43512,
        "player_name": "\u0639\u0628\u062f\u0627\u0644\u0639\u0632\u064a\u0632 \u0635\u0627\u0644\u062d",
        "rank": 38170,
        "rank_sort": 38220,
        "total": 2361
      },
      {
        "club_badge_src": null,
        "entry": 2372270,
        "entry_name": "Seven",
        "event_total": 56,
        "has_played": true,
        "id": 16935005,
        "last_rank": 37134,
        "player_name": "Midhun Chandran",
        "rank": 38170,
        "rank_sort": 38221,
        "total": 2361
      },
      {
        "club_badge_src": null,
        "entry": 2398750,
        "entry_name": "Esnaidertakling",
        "event_total": 70,
        "has_played": true,
        "id": 17141036,
        "last_rank": 57200,
        "player_name": "H\u00e5kon Ree",
        "rank": 38170,
        "rank_sort": 38222,
        "total": 2361
      },
      {
        "club_badge_src": null,
        "entry": 2476085,
        "entry_name": "YVES SAINT JIDS",
        "event_total": 55,
        "has_played": true,
        "id": 17715509,
        "last_rank": 35926,
        "player_name": "Andre Estrella",
        "rank": 38170,
        "rank_sort": 38223,
        "total": 2361
      },
      {
        "club_badge_src": null,
        "entry": 2585123,
        "entry_name": "Public Enemy",
        "event_total": 54,
        "has_played": true,
        "id": 18557152,
        "last_rank": 34749,
        "player_name": "Choko Primo",
        "rank": 38170,
        "rank_sort": 38224,
        "total": 2361
      },
      {
        "club_badge_src": null,
        "entry": 2955377,
        "entry_name": "Hacunha Mateta",
        "event_total": 77,
        "has_played": true,
        "id": 21706636,
        "last_rank": 70072,
        "player_name": "Adam Anderton",
        "rank": 38170,
        "rank_sort": 38225,
        "total": 2361
      },
      {
        "club_badge_src": null,
        "entry": 2957630,
        "entry_name": "OnceGittenTwiceShy",
        "event_total": 50,
        "has_played": true,
        "id": 21724066,
        "last_rank": 30191,
        "player_name": "Junior Anin",
        "rank": 38170,
        "rank_sort": 38226,
        "total": 2361
      },
      {
        "club_badge_src": null,
        "entry": 3419492,
        "entry_name": "Beto than you",
        "event_total": 61,
        "has_played": true,
        "id": 25399536,
        "last_rank": 38163,
        "player_name": "Conner Horton",
        "rank": 38170,
        "rank_sort": 38227,
        "total": 2361
      },
      {
        "club_badge_src": null,
        "entry": 3572971,
        "entry_name": "\u00d3\u00e1kve\u00f0i\u00f0",
        "event_total": 54,
        "has_played": true,
        "id": 26604939,
        "last_rank": 34749,
        "player_name": "Ragnar Riordan",
        "rank": 38170,
        "rank_sort": 38228,
        "total": 2361
      },
      {
        "club_badge_src": null,
        "entry": 3616946,
        "entry_name": "Twinkletoes",
        "event_total": 71,
        "has_played": true,
        "id": 26946514,
        "last_rank": 58688,
        "player_name": "Ben Leighton",
        "rank": 38170,
        "rank_sort": 38229,
        "total": 2361
      },
      {
        "club_badge_src": "https://fantasy.premierleague.com/gcs/plfpl-production-adobe-approved/plfpl-production/3706403/cc072ad0-d299-4e4a-94a3-6d4a485a2b23.png",
        "entry": 3706403,
        "entry_name": "Dr Eye Run",
        "event_total": 62,
        "has_played": true,
        "id": 27655323,
        "last_rank": 44672,
        "player_name": "oussama benkhelifa",
        "rank": 38170,
        "rank_sort": 38230,
        "total": 2361
      },
      {
        "club_badge_src": null,
        "entry": 3758270,
        "entry_name": "Wittering Forest",
        "event_total": 66,
        "has_played": true,
        "id": 28060071,
        "last_rank": 50848,
        "player_name": "Jonathan Holmes",
        "rank": 38170,
        "rank_sort": 38231,
        "total": 2361
      },
      {
        "club_badge_src": "https://fantasy.premierleague.com/gcs/plfpl-production-adobe-approved/plfpl-production/3825834/645a55d8-7948-436b-bc50-abfec7598b35.png",
        "entry": 3825834,
        "entry_name": "its our year",
        "event_total": 64,
        "has_played": true,
        "id": 28617075,
        "last_rank": 47596,
        "player_name": "David Stephenson",
        "rank": 38170,
        "rank_sort": 38232,
        "total": 2361
      },
      {
        "club_badge_src": null,
        "entry": 3844213,
        "entry_name": "This Season FC",
        "event_total": 46,
        "has_played": true,
        "id": 28809453,
        "last_rank": 26425,
        "player_name": "Pierre Empire",
        "rank": 38170,
        "rank_sort": 38233,
        "total": 2361
      },
      {
        "club_badge_src": "https://fantasy.premierleague.com/gcs/plfpl-production-adobe-approved/plfpl-production/4364128/e16a48d7-9c72-4a44-9ab8-82d52d1fbd31.png",
        "entry": 4364128,
        "entry_name": "AudnedalMemeimperium",
        "event_total": 39,
        "has_played": true,
        "id": 33148912,
        "last_rank": 20678,
        "player_name": "Ole Klungland",
        "rank": 38170,
        "rank_sort": 38234,
        "total": 2361
      },
      {
        "club_badge_src": null,
        "entry": 4407161,
        "entry_name": "By\u0107 Tuz\u0119 Mn\u0105",
        "event_total": 56,
        "has_played": true,
        "id": 33522646,
        "last_rank": 32335,
        "player_name": "Wojtek Tuzinowski",
        "rank": 38170,
        "rank_sort": 38235,
        "total": 2361
      },
      {
        "club_badge_src": null,
        "entry": 4703276,
        "entry_name": "MovesLikeAgger",
        "event_total": 72,
        "has_played": true,
        "id": 36057408,
        "last_rank": 60827,
        "player_name": "Cam Race",
        "rank": 38170,
        "rank_sort": 38236,
        "total": 2361
      },
      {
        "club_badge_src": null,
        "entry": 4957206,
        "entry_name": "Ayoub",
        "event_total": 57,
        "has_played": true,
        "id": 38252911,
        "last_rank": 33483,
        "player_name": "Moh Mess",
        "rank": 38170,
        "rank_sort": 38237,
        "total": 2361
      },
      {
        "club_badge_src": "https://fantasy.premierleague.com/gcs/plfpl-production-adobe-approved/plfpl-production/5509744/412af811-e573-470d-b536-ccd004af52cb.png",
        "entry": 5509744,
        "entry_name": "Nowt nor Summat!",
        "event_total": 61,
        "has_played": true,
        "id": 42944774,
        "last_rank": 43342,
        "player_name": "Stu Bowman",
        "rank": 38170,
        "rank_sort": 38238,
        "total": 2361
      },
      {
        "club_badge_src": null,
        "entry": 5692018,
        "entry_name": "FC Line",
        "event_total": 48,
        "has_played": true,
        "id": 44559175,
        "last_rank": 28273,
        "player_name": "michael line",
        "rank": 38170,
        "rank_sort": 38239,
        "total": 2361
      },
      {
        "club_badge_src": "https://fantasy.premierleague.com/gcs/plfpl-production-adobe-approved/plfpl-production/6347366/40a2e17c-c54b-499d-9f7f-e3b4b775313a.png",
        "entry": 6347366,
        "entry_name": "Lads on Tour\u00e9",
        "event_total": 55,
        "has_played": true,
        "id": 50454447,
        "last_rank": 31236,
        "player_name": "Harsh Vithlani",
        "rank": 38170,
        "rank_sort": 38240,
        "total": 2361
      },
      {
        "club_badge_src": null,
        "entry": 6514277,
        "entry_name": "1st",
        "event_total": 64,
        "has_played": true,
        "id": 51948996,
        "last_rank": 47722,
        "player_name": "\u0639\u0628\u0648\u062f \u0645\u062d\u0645\u0648\u062f",
        "rank": 38170,
        "rank_sort": 38241,
        "total": 2361
      },
      {
        "club_badge_src": null,
        "entry": 6613473,
        "entry_name": "Beb\u00e9",
        "event_total": 52,
        "has_played": true,
        "id": 52843299,
        "last_rank": 28273,
        "player_name": "Chris Nelson",
        "rank": 38170,
        "rank_sort": 38242,
        "total": 2361
      },
      {
        "club_badge_src": null,
        "entry": 6620243,
        "entry_name": "Shaw and Order",
        "event_total": 61,
        "has_played": true,
        "id": 52901938,
        "last_rank": 38163,
        "player_name": "Mayuresh Sawant",
        "rank": 38170,
        "rank_sort": 38243,
        "total": 2361
      },
      {
        "club_badge_src": null,
        "entry": 6765468,
        "entry_name": "Florian SquidWirtz",
        "event_total": 64,
        "has_played": true,
        "id": 54169462,
        "last_rank": 47596,
        "player_name": "Jay Benson",
        "rank": 38170,
        "rank_sort": 38244,
        "total": 2361
      },
      {
        "club_badge_src": null,
        "entry": 6870255,
        "entry_name": "GuzUnited",
        "event_total": 62,
        "has_played": true,
        "id": 55052379,
        "last_rank": 44804,
        "player_name": "gustaf krantz",
        "rank": 38170,
        "rank_sort": 38245,
        "total": 2361
      },
      {
        "club_badge_src": null,
        "entry": 6957282,
        "entry_name": "Channy FC",
        "event_total": 68,
        "has_played": true,
        "id": 55792176,
        "last_rank": 36624,
        "player_name": "Simon Scott",
        "rank": 38170,
        "rank_sort": 38246,
        "total": 2361
      },
      {
        "club_badge_src": null,
        "entry": 7886082,
        "entry_name": "Under My Cucurella",
        "event_total": 77,
        "has_played": true,
        "id": 64859005,
        "last_rank": 55311,
        "player_name": "Paolo Pellegrinelli",
        "rank": 38170,
        "rank_sort": 38247,
        "total": 2361
      },
      {
        "club_badge_src": "https://fantasy.premierleague.com/gcs/plfpl-production-adobe-approved/plfpl-production/8227000/f6642b38-31bb-4a9b-ae6e-e016e040af15.png",
        "entry": 8227000,
        "entry_name": "Ace FC",
        "event_total": 59,
        "has_played": true,
        "id": 67996165,
        "last_rank": 35768,
        "player_name": "Kevin Isco",
        "rank": 38170,
        "rank_sort": 38248,
        "total": 2361
      },
      {
        "club_badge_src": null,
        "entry": 5972,
        "entry_name": "The Krazy Daisies",
        "event_total": 56,
        "has_played": true,
        "id": 34159,
        "last_rank": 28273,
        "player_name": "Owen Gilligan",
        "rank": 38249,
        "rank_sort": 38249,
        "total": 2361
      },
      {
        "club_badge_src": null,
        "entry": 12426,
        "entry_name": "Heavy Up Top",
        "event_total": 57,
        "has_played": true,
        "id": 74357,
        "last_rank": 33582,
        "player_name": "ricky long",
        "rank": 38249,
        "rank_sort": 38250,
        "total": 2361
      }
    ]
  }
}