{
  "last_updated_data": "2026-05-24T23:28:17Z",
  "league": {
    "admin_entry": null,
    "closed": false,
    "code_privacy": "p",
    "created": "2025-07-20T23:14:33.933835Z",
    "cup_league": 2815434,
    "has_cup": true,
    "id": 314,
    "league_type": "s",
    "max_entries": null,
    "name": "Overall",
    "rank": null,
    "scoring": "c",
    "start_event": 1
  },
  "new_entries": {
    "has_next": false,
    "page": 1,
    "results": []
  },
  "standings": {
    "has_next": true,
    "page": 543,
    "results": [
      {
        "club_badge_src": null,
        "entry": 469415,
        "entry_name": "Hakuna Matteta",
        "event_total": 58,
        "has_played": true,
        "id": 3150856,
        "last_rank": 27644,
        "player_name": "Matt Thacker",
        "rank": 27056,
        "rank_sort": 27101,
        "total": 2371
      },
      {
        "club_badge_src": null,
        "entry": 483344,
        "entry_name": "Lightweight City",
        "event_total": 36,
        "has_played": true,
        "id": 3244591,
        "last_rank": 12200,
        "player_name": "Evan Richards",
        "rank": 27056,
        "rank_sort": 27102,
        "total": 2371
      },
      {
        "club_badge_src": null,
        "entry": 484080,
        "entry_name": "Hyrule XI",
        "event_total": 64,
        "has_played": true,
        "id": 3249354,
        "last_rank": 33869,
        "player_name": "Hafsal P",
        "rank": 27056,
        "rank_sort": 27103,
        "total": 2371
      },
      {
        "club_badge_src": null,
        "entry": 507976,
        "entry_name": "Villan Arc",
        "event_total": 45,
        "has_played": true,
        "id": 3409508,
        "last_rank": 17437,
        "player_name": "James Edwardson",
        "rank": 27056,
        "rank_sort": 27104,
        "total": 2371
      },
      {
        "club_badge_src": null,
        "entry": 513723,
        "entry_name": "Barra's Buddies",
        "event_total": 58,
        "has_played": true,
        "id": 3449439,
        "last_rank": 27770,
        "player_name": "Stuart McIntyre",
        "rank": 27056,
        "rank_sort": 27105,
        "total": 2371
      },
      {
        "club_badge_src": null,
        "entry": 571655,
        "entry_name": "Afternoon De Ligt",
        "event_total": 72,
        "has_played": true,
        "id": 3847252,
        "last_rank": 43849,
        "player_name": "Adam Dalton",
        "rank": 27056,
        "rank_sort": 27106,
        "total": 2371
      },
      {
        "club_badge_src": null,
        "entry": 580193,
        "entry_name": "Lallish Bram",
        "event_total": 54,
        "has_played": true,
        "id": 3904289,
        "last_rank": 24143,
        "player_name": "Hamza Hassan",
        "rank": 27056,
        "rank_sort": 27107,
        "total": 2371
      },
      {
        "club_badge_src": "https://fantasy.premierleague.com/gcs/plfpl-production-adobe-approved/plfpl-production/588861/3bd41f22-f34e-42ce-b32a-810c6e7db3d5.png",
        "entry": 588861,
        "entry_name": "Donnarumma Kebab",
        "event_total": 52,
        "has_played": true,
        "id": 3965645,
        "last_rank": 22426,
        "player_name": "Amin Zabolinejad",
        "rank": 27056,
        "rank_sort": 27108,
        "total": 2371
      },
      {
        "club_badge_src": null,
        "entry": 606942,
        "entry_name": "Mu's XI",
        "event_total": 67,
        "has_played": true,
        "id": 4098680,
        "last_rank": 37435,
        "player_name": "Milan Pekec",
        "rank": 27056,
        "rank_sort": 27109,
        "total": 2371
      },
      {
        "club_badge_src": null,
        "entry": 676426,
        "entry_name": "Yemi-nent Threat",
        "event_total": 48,
        "has_played": true,
        "id": 4576486,
        "last_rank": 19721,
        "player_name": "Yemi Ehizele",
        "rank": 27056,
        "rank_sort": 27110,
        "total": 2371
      },
      {
        "club_badge_src": null,
        "entry": 684170,
        "entry_name": "Painter",
        "event_total": 56,
        "has_played": true,
        "id": 4630833,
        "last_rank": 25776,
        "player_name": "Tom Painter",
        "rank": 27056,
        "rank_sort": 27111,
        "total": 2371
      },
      {
        "club_badge_src": "https://fantasy.premierleague.com/gcs/plfpl-production-adobe-approved/plfpl-production/720903/cc1f469d-24c9-4b95-8865-fcc1a6e14202.png",
        "entry": 720903,
        "entry_name": "Fray Bentos Athletic",
        "event_total": 42,
        "has_played": true,
        "id": 4894778,
        "last_rank": 15694,
        "player_name": "Chris Daws",
        "rank": 27056,
        "rank_sort": 27112,
        "total": 2371
      },
      {
        "club_badge_src": null,
        "entry": 799821,
        "entry_name": "top banana",
        "event_total": 63,
        "has_played": true,
        "id": 5474599,
        "last_rank": 32751,
        "player_name": "John O\u2019Reilly",
        "rank": 27056,
        "rank_sort": 27113,
        "total": 2371
      },
      {
        "club_badge_src": null,
        "entry": 800426,
        "entry_name": "Red Engineers",
        "event_total": 58,
        "has_played": true,
        "id": 5478740,
        "last_rank": 27644,
        "player_name": "Nikhil Thakur",
        "rank": 27056,
        "rank_sort": 27114,
        "total": 2371
      },
      {
        "club_badge_src": null,
        "entry": 812149,
        "entry_name": "Mothersoccers FC",
        "event_total": 54,
        "has_played": true,
        "id": 5560730,
        "last_rank": 24143,
        "player_name": "Marco Pingle",
        "rank": 27056,
        "rank_sort": 27115,
        "total": 2371
      },
      {
        "club_badge_src": null,
        "entry": 879065,
        "entry_name": "THIS IS IT!!!!!!",
        "event_total": 58,
        "has_played": true,
        "id": 6028022,
        "last_rank": 27585,
        "player_name": "Dennis Nyika",
        "rank": 27056,
        "rank_sort": 27116,
        "total": 2371
      },
      {
        "club_badge_src": "https://fantasy.premierleague.com/gcs/plfpl-production-adobe-approved/plfpl-production/910231/745b6d76-8a4c-4f23-8933-e964452178a0.png",
        "entry": 910231,
        "entry_name": "Orient Express",
        "event_total": 74,
        "has_played": true,
        "id": 6258293,
        "last_rank": 46660,
        "player_name": "Aleksandar Ivanov",
        "rank": 27056,
        "rank_sort": 27117,
        "total": 2371
      },
      {
        "club_badge_src": null,
        "entry": 932348,
        "entry_name": "Bigfatdoughnut",
        "event_total": 66,
        "has_played": true,
        "id": 6415546,
        "last_rank": 36348,
        "player_name": "Nick Holden",
        "rank": 27056,
        "rank_sort": 27118,
        "total": 2371
      },
      {
        "club_badge_src": null,
        "entry": 944663,
        "entry_name": "Old Havertz Kai Hard",
        "event_total": 78,
        "has_played": true,
        "id": 6506452,
        "last_rank": 53023,
        "player_name": "Jack Reeves",
        "rank": 27056,
        "rank_sort": 27119,
        "total": 2371
      },
      {
        "club_badge_src": "https://fantasy.premierleague.com/gcs/plfpl-production-adobe-approved/plfpl-production/972873/82cf506d-d49e-4b95-b8df-681da85fb5e2.png",
        "entry": 972873,
        "entry_name": "Muggle United",
        "event_total": 68,
        "has_played": true,
        "id": 6706420,
        "last_rank": 38774,
        "player_name": "Callum McBain",
        "rank": 27056,
        "rank_sort": 27120,
        "total": 2371
      },
      {
        "club_badge_src": "https://fantasy.premierleague.com/gcs/plfpl-production-adobe-approved/plfpl-production/988688/78fff46e-93b2-4b18-8c52-c22145bdc5a7.png",
        "entry": 988688,
        "entry_name": "HluksFC",
        "event_total": 73,
        "has_played": true,
        "id": 6817274,
        "last_rank": 45252,
        "player_name": "Mehluko Gina",
        "rank": 27056,
        "rank_sort": 27121,
        "total": 2371
      },
      {
        "club_badge_src": null,
        "entry": 993715,
        "entry_name": "Artificial Intelligo",
        "event_total": 54,
        "has_played": true,
        "id": 6854861,
        "last_rank": 24143,
        "player_name": "Hady Hesham",
        "rank": 27056,
        "rank_sort": 27122,
        "total": 2371
      },
      {
        "club_badge_src": null,
        "entry": 999873,
        "entry_name": "She's an Eze lover",
        "event_total": 70,
        "has_played": true,
        "id": 6911563,
        "last_rank": 41162,
        "player_name": "Tom Morgan",
        "rank": 27056,
        "rank_sort": 27123,
        "total": 2371
      },
      {
        "club_badge_src": null,
        "entry": 1062633,
        "entry_name": "CouldBeWirtz",
        "event_total": 58,
        "has_played": true,
        "id": 7356226,
        "last_rank": 27585,
        "player_name": "Drey Cummings",
        "rank": 27056,
        "rank_sort": 27124,
        "total": 2371
      },
      {
        "club_badge_src": null,
        "entry": 1077982,
        "entry_name": "KaffiKop",
        "event_total": 56,
        "has_played": true,
        "id": 7463943,
        "last_rank": 25729,
        "player_name": "Daniel Brautaset",
        "rank": 27056,
        "rank_sort": 27125,
        "total": 2371
      },
      {
        "club_badge_src": null,
        "entry": 1119212,
        "entry_name": "ez",
        "event_total": 64,
        "has_played": true,
        "id": 7752518,
        "last_rank": 34051,
        "player_name": "Ole Hvass",
        "rank": 27056,
        "rank_sort": 27126,
        "total": 2371
      },
      {
        "club_badge_src": null,
        "entry": 1136537,
        "entry_name": "Goal",
        "event_total": 64,
        "has_played": true,
        "id": 7878185,
        "last_rank": 33936,
        "player_name": "A D",
        "rank": 27056,
        "rank_sort": 27127,
        "total": 2371
      },
      {
        "club_badge_src": null,
        "entry": 1203694,
        "entry_name": "LovelyStuff",
        "event_total": 73,
        "has_played": true,
        "id": 8353161,
        "last_rank": 45416,
        "player_name": "Greg Lewis",
        "rank": 27056,
        "rank_sort": 27128,
        "total": 2371
      },
      {
        "club_badge_src": null,
        "entry": 1216529,
        "entry_name": "MANGS",
        "event_total": 61,
        "has_played": true,
        "id": 8443960,
        "last_rank": 30727,
        "player_name": "Mangs Zou",
        "rank": 27056,
        "rank_sort": 27129,
        "total": 2371
      },
      {
        "club_badge_src": null,
        "entry": 1275419,
        "entry_name": "Lammens and Lime",
        "event_total": 55,
        "has_played": true,
        "id": 8862399,
        "last_rank": 25002,
        "player_name": "Josh Martin",
        "rank": 27056,
        "rank_sort": 27130,
        "total": 2371
      },
      {
        "club_badge_src": null,
        "entry": 1319733,
        "entry_name": "bjirtz",
        "event_total": 65,
        "has_played": true,
        "id": 9173087,
        "last_rank": 35034,
        "player_name": "Magnus Bjorlk",
        "rank": 27056,
        "rank_sort": 27131,
        "total": 2371
      },
      {
        "club_badge_src": null,
        "entry": 1328716,
        "entry_name": "Teal Tigers",
        "event_total": 31,
        "has_played": true,
        "id": 9235552,
        "last_rank": 9942,
        "player_name": "Peter McGonigle",
        "rank": 27056,
        "rank_sort": 27132,
        "total": 2371
      },
      {
        "club_badge_src": "https://fantasy.premierleague.com/gcs/plfpl-production-adobe-approved/plfpl-production/1365622/9ceb1a86-aabe-45b1-be3b-6a2d499b937a.png",
        "entry": 1365622,
        "entry_name": "RMNP FC",
        "event_total": 60,
        "has_played": true,
        "id": 9493254,
        "last_rank": 29688,
        "player_name": "Greg Krause",
        "rank": 27056,
        "rank_sort": 27133,
        "total": 2371
      },
      {
        "club_badge_src": null,
        "entry": 1431364,
        "entry_name": "slot\u2019s golden pot",
        "event_total": 45,
        "has_played": true,
        "id": 9973798,
        "last_rank": 17437,
        "player_name": "Troy Wells",
        "rank": 27056,
        "rank_sort": 27134,
        "total": 2371
      },
      {
        "club_badge_src": null,
        "entry": 1450170,
        "entry_name": "martial arts",
        "event_total": 61,
        "has_played": true,
        "id": 10104959,
        "last_rank": 30727,
        "player_name": "Bobby Ryder",
        "rank": 27056,
        "rank_sort": 27135,
        "total": 2371
      },
      {
        "club_badge_src": null,
        "entry": 1514989,
        "entry_name": "Change Name",
        "event_total": 70,
        "has_played": true,
        "id": 10566578,
        "last_rank": 41162,
        "player_name": "greg fairclough",
        "rank": 27056,
        "rank_sort": 27136,
        "total": 2371
      },
      {
        "club_badge_src": null,
        "entry": 1530571,
        "entry_name": "Only vans Nistelrooy",
        "event_total": 56,
        "has_played": true,
        "id": 10680764,
        "last_rank": 25776,
        "player_name": "Jason Hall",
        "rank": 27056,
        "rank_sort": 27137,
        "total": 2371
      },
      {
        "club_badge_src": null,
        "entry": 1549415,
        "entry_name": "It'sUp4GrabsNow",
        "event_total": 36,
        "has_played": true,
        "id": 10817825,
        "last_rank": 12322,
        "player_name": "Charlie Bryan",
        "rank": 27056,
        "rank_sort": 27138,
        "total": 2371
      },
      {
        "club_badge_src": "https://fantasy.premierleague.com/gcs/plfpl-production-adobe-approved/plfpl-production/1582769/d7250d90-fdcf-42d8-85ba-9c0dc1be3e41.png",
        "entry": 1582769,
        "entry_name": "Cameleon",
        "event_total": 69,
        "has_played": true,
        "id": 11061409,
        "last_rank": 40297,
        "player_name": "adil farahate",
        "rank": 27056,
        "rank_sort": 27139,
        "total": 2371
      },
      {
        "club_badge_src": null,
        "entry": 1616710,
        "entry_name": "The Coach 7",
        "event_total": 53,
        "has_played": true,
        "id": 11312865,
        "last_rank": 23230,
        "player_name": "Alaa Eddin Al Mallah",
        "rank": 27056,
        "rank_sort": 27140,
        "total": 2371
      },
      {
        "club_badge_src": null,
        "entry": 1625987,
        "entry_name": "The Petworth Pintmen",
        "event_total": 55,
        "has_played": true,
        "id": 11380792,
        "last_rank": 25002,
        "player_name": "Darren Claxton",
        "rank": 27056,
        "rank_sort": 27141,
        "total": 2371
      },
      {
        "club_badge_src": null,
        "entry": 1666431,
        "entry_name": "Kokosi",
        "event_total": 51,
        "has_played": true,
        "id": 11667257,
        "last_rank": 21677,
        "player_name": "Marko Karaklic",
        "rank": 27056,
        "rank_sort": 27142,
        "total": 2371
      },
      {
        "club_badge_src": null,
        "entry": 1731033,
        "entry_name": "Jay-Jay Who-Shotcha?",
        "event_total": 65,
        "has_played": true,
        "id": 12141569,
        "last_rank": 35166,
        "player_name": "Luke Hurley",
        "rank": 27056,
        "rank_sort": 27143,
        "total": 2371
      },
      {
        "club_badge_src": null,
        "entry": 1746099,
        "entry_name": "FC Z",
        "event_total": 55,
        "has_played": true,
        "id": 12252653,
        "last_rank": 24897,
        "player_name": "Andr\u00e9 Sandin",
        "rank": 27056,
        "rank_sort": 27144,
        "total": 2371
      },
      {
        "club_badge_src": null,
        "entry": 1810144,
        "entry_name": "Mazzturbate",
        "event_total": 60,
        "has_played": true,
        "id": 12726767,
        "last_rank": 29578,
        "player_name": "Joe Maslen",
        "rank": 27056,
        "rank_sort": 27145,
        "total": 2371
      },
      {
        "club_badge_src": null,
        "entry": 1813928,
        "entry_name": "The Mbeumo Triangle",
        "event_total": 47,
        "has_played": true,
        "id": 12755101,
        "last_rank": 16062,
        "player_name": "Stu lowe",
        "rank": 27056,
        "rank_sort": 27146,
        "total": 2371
      },
      {
        "club_badge_src": null,
        "entry": 1891929,
        "entry_name": "Hammer Time",
        "event_total": 60,
        "has_played": true,
        "id": 13334513,
        "last_rank": 29688,
        "player_name": "Ted Irons",
        "rank": 27056,
        "rank_sort": 27147,
        "total": 2371
      },
      {
        "club_badge_src": "https://fantasy.premierleague.com/gcs/plfpl-production-adobe-approved/plfpl-production/1901914/72520a8b-de7d-40f4-8667-43339450185c.png",
        "entry": 1901914,
        "entry_name": "TaMualaMasPonane",
        "event_total": 54,
        "has_played": true,
        "id": 13407380,
        "last_rank": 24143,
        "player_name": "Filippos Vogiatzis",
        "rank": 27056,
        "rank_sort": 27148,
        "total": 2371
      },
      {
        "club_badge_src": "https://fantasy.premierleague.com/gcs/plfpl-production-adobe-approved/plfpl-production/1997983/a3554616-049d-4633-88f6-6b28d81ce71c.png",
        "entry": 1997983,
        "entry_name": "Nice Lads United",
        "event_total": 55,
        "has_played": true,
        "id": 14119585,
        "last_rank": 25002,
        "player_name": "Hannah Taylor",
        "rank": 27056,
        "rank_sort": 27149,
        "total": 2371
      },
      {
        "club_badge_src": "https://fantasy.premierleague.com/gcs/plfpl-production-adobe-approved/plfpl-production/1999271/d3046dc8-fb9f-4e45-aac8-5f9062c56293.png",
        "entry": 1999271,
        "entry_name": "Stretford Army",
        "event_total": 59,
        "has_played": true,
        "id": 14131145,
        "last_rank": 28726,
        "player_name": "Deepak Ramesh",
        "rank": 27056,
        "rank_sort": 27150,
        "total": 2371
      }
    ]
  }
}