{
  "last_updated_data": "2026-05-24T23:28:17Z",
  "league": {
    "admin_entry": null,
    "closed": false,
    "code_privacy": "p",
    "created": "2025-07-20T23:14:33.933835Z",
    "cup_league": 2815434,
    "has_cup": true,
    "id": 314,
    "league_type": "s",
    "max_entries": null,
    "name": "Overall",
    "rank": null,
    "scoring": "c",
    "start_event": 1
  },
  "new_entries": {
    "has_next": false,
    "page": 1,
    "results": []
  },
  "standings": {
    "has_next": true,
    "page": 1366,
    "results": [
      {
        "club_badge_src": null,
        "entry": 537133,
        "entry_name": "Obi-Wan Iwobi",
        "event_total": 52,
        "has_played": true,
        "id": 3615642,
        "last_rank": 53023,
        "player_name": "Billy Summers",
        "rank": 68171,
        "rank_sort": 68251,
        "total": 2341
      },
      {
        "club_badge_src": null,
        "entry": 539270,
        "entry_name": "Mbeumo or Bust",
        "event_total": 53,
        "has_played": true,
        "id": 3629836,
        "last_rank": 61950,
        "player_name": "Ryan Gardner",
        "rank": 68171,
        "rank_sort": 68252,
        "total": 2341
      },
      {
        "club_badge_src": null,
        "entry": 543093,
        "entry_name": "Baby-faced assassins",
        "event_total": 61,
        "has_played": true,
        "id": 3655144,
        "last_rank": 77676,
        "player_name": "Daniel Eriksson",
        "rank": 68171,
        "rank_sort": 68253,
        "total": 2341
      },
      {
        "club_badge_src": null,
        "entry": 544694,
        "entry_name": "marishka united",
        "event_total": 65,
        "has_played": true,
        "id": 3665779,
        "last_rank": 86735,
        "player_name": "Muhamad Faiz",
        "rank": 68171,
        "rank_sort": 68254,
        "total": 2341
      },
      {
        "club_badge_src": null,
        "entry": 559635,
        "entry_name": "Own Golazo!",
        "event_total": 68,
        "has_played": true,
        "id": 3766377,
        "last_rank": 83934,
        "player_name": "Matt Melcher",
        "rank": 68171,
        "rank_sort": 68255,
        "total": 2341
      },
      {
        "club_badge_src": null,
        "entry": 574940,
        "entry_name": "RasserRasserFrimpong",
        "event_total": 54,
        "has_played": true,
        "id": 3869067,
        "last_rank": 56369,
        "player_name": "Rasmus M\u00f8rck Lange",
        "rank": 68171,
        "rank_sort": 68256,
        "total": 2341
      },
      {
        "club_badge_src": null,
        "entry": 575541,
        "entry_name": "Hacuhna mateta",
        "event_total": 68,
        "has_played": true,
        "id": 3873001,
        "last_rank": 66738,
        "player_name": "Billy O'Reilly",
        "rank": 68171,
        "rank_sort": 68257,
        "total": 2341
      },
      {
        "club_badge_src": "https://fantasy.premierleague.com/gcs/plfpl-production-adobe-approved/plfpl-production/578068/c001dcb2-b7b5-43ad-a599-d5decf4739bb.png",
        "entry": 578068,
        "entry_name": "The Frostians",
        "event_total": 59,
        "has_played": true,
        "id": 3889661,
        "last_rank": 73038,
        "player_name": "Webster Gatsi",
        "rank": 68171,
        "rank_sort": 68258,
        "total": 2341
      },
      {
        "club_badge_src": null,
        "entry": 582014,
        "entry_name": "Cherki Teeth",
        "event_total": 60,
        "has_played": true,
        "id": 3916922,
        "last_rank": 67063,
        "player_name": "Tom Antrobus",
        "rank": 68171,
        "rank_sort": 68259,
        "total": 2341
      },
      {
        "club_badge_src": null,
        "entry": 587629,
        "entry_name": "Endos Game",
        "event_total": 42,
        "has_played": true,
        "id": 3955943,
        "last_rank": 38774,
        "player_name": "Bob Reutter",
        "rank": 68171,
        "rank_sort": 68260,
        "total": 2341
      },
      {
        "club_badge_src": "https://fantasy.premierleague.com/gcs/plfpl-production-adobe-approved/plfpl-production/604950/0a3c3c0f-45f4-47b4-8229-ad0e7ae91426.png",
        "entry": 604950,
        "entry_name": "Lee's Bees",
        "event_total": 61,
        "has_played": true,
        "id": 4084117,
        "last_rank": 77676,
        "player_name": "Lee Clinch",
        "rank": 68171,
        "rank_sort": 68261,
        "total": 2341
      },
      {
        "club_badge_src": null,
        "entry": 611684,
        "entry_name": "Peaky Reijnders",
        "event_total": 51,
        "has_played": true,
        "id": 4133121,
        "last_rank": 58388,
        "player_name": "Roman Thursfield",
        "rank": 68171,
        "rank_sort": 68262,
        "total": 2341
      },
      {
        "club_badge_src": null,
        "entry": 615379,
        "entry_name": "klittelaget",
        "event_total": 63,
        "has_played": true,
        "id": 4158070,
        "last_rank": 81646,
        "player_name": "Vegard Andreassen",
        "rank": 68171,
        "rank_sort": 68263,
        "total": 2341
      },
      {
        "club_badge_src": null,
        "entry": 617338,
        "entry_name": "ThomasTheFrankEngine",
        "event_total": 43,
        "has_played": true,
        "id": 4171072,
        "last_rank": 45416,
        "player_name": "Jack Caller",
        "rank": 68171,
        "rank_sort": 68264,
        "total": 2341
      },
      {
        "club_badge_src": "https://fantasy.premierleague.com/gcs/plfpl-production-adobe-approved/plfpl-production/629139/5e4e9364-7903-4166-b8b8-ca6e5f41bb0e.png",
        "entry": 629139,
        "entry_name": "Old Maldonians AFC",
        "event_total": 62,
        "has_played": true,
        "id": 4251428,
        "last_rank": 79431,
        "player_name": "Julian Shinn",
        "rank": 68171,
        "rank_sort": 68265,
        "total": 2341
      },
      {
        "club_badge_src": "https://fantasy.premierleague.com/gcs/plfpl-production-adobe-approved/plfpl-production/635228/fa2ee224-e118-4d0c-9657-3444eb29738e.png",
        "entry": 635228,
        "entry_name": "Glazers OUT Qatar IN",
        "event_total": 70,
        "has_played": true,
        "id": 4293038,
        "last_rank": 88594,
        "player_name": "Jake Emmett",
        "rank": 68171,
        "rank_sort": 68266,
        "total": 2341
      },
      {
        "club_badge_src": "https://fantasy.premierleague.com/gcs/plfpl-production-adobe-approved/plfpl-production/637609/9fd1514b-a77e-4950-ad65-1803bf25d38a.png",
        "entry": 637609,
        "entry_name": "DAVIDsTEAM",
        "event_total": 68,
        "has_played": true,
        "id": 4309312,
        "last_rank": 83698,
        "player_name": "David Freissl",
        "rank": 68171,
        "rank_sort": 68267,
        "total": 2341
      },
      {
        "club_badge_src": null,
        "entry": 642732,
        "entry_name": "Bamboo",
        "event_total": 63,
        "has_played": true,
        "id": 4343842,
        "last_rank": 81420,
        "player_name": "Matt Wasserberg",
        "rank": 68171,
        "rank_sort": 68268,
        "total": 2341
      },
      {
        "club_badge_src": null,
        "entry": 645387,
        "entry_name": "Yeboaaaaah",
        "event_total": 61,
        "has_played": true,
        "id": 4361457,
        "last_rank": 77676,
        "player_name": "Sam Houlihan",
        "rank": 68171,
        "rank_sort": 68269,
        "total": 2341
      },
      {
        "club_badge_src": "https://fantasy.premierleague.com/gcs/plfpl-production-adobe-approved/plfpl-production/652699/efd0af1b-40fa-4890-ab6b-e88eb5290cc8.png",
        "entry": 652699,
        "entry_name": "Spurselona",
        "event_total": 52,
        "has_played": true,
        "id": 4410982,
        "last_rank": 60168,
        "player_name": "Adrian Maftei",
        "rank": 68171,
        "rank_sort": 68270,
        "total": 2341
      },
      {
        "club_badge_src": "https://fantasy.premierleague.com/gcs/plfpl-production-adobe-approved/plfpl-production/679304/3e559b07-7005-44f5-86db-8ae8d0f97467.png",
        "entry": 679304,
        "entry_name": "Cebulorze",
        "event_total": 61,
        "has_played": true,
        "id": 4596730,
        "last_rank": 68957,
        "player_name": "Jakub \u0141akos",
        "rank": 68171,
        "rank_sort": 68271,
        "total": 2341
      },
      {
        "club_badge_src": null,
        "entry": 687863,
        "entry_name": "SknitsnaDFc",
        "event_total": 64,
        "has_played": true,
        "id": 4656925,
        "last_rank": 83934,
        "player_name": "Lewis Jones",
        "rank": 68171,
        "rank_sort": 68272,
        "total": 2341
      },
      {
        "club_badge_src": null,
        "entry": 693325,
        "entry_name": "Alex10",
        "event_total": 62,
        "has_played": true,
        "id": 4695532,
        "last_rank": 79817,
        "player_name": "Fouad Al Haj",
        "rank": 68171,
        "rank_sort": 68273,
        "total": 2341
      },
      {
        "club_badge_src": null,
        "entry": 714881,
        "entry_name": "Shartinawelly",
        "event_total": 66,
        "has_played": true,
        "id": 4850107,
        "last_rank": 79190,
        "player_name": "anna sam sayce-phillips",
        "rank": 68171,
        "rank_sort": 68274,
        "total": 2341
      },
      {
        "club_badge_src": null,
        "entry": 733317,
        "entry_name": "Kewin G",
        "event_total": 59,
        "has_played": true,
        "id": 4983358,
        "last_rank": 73720,
        "player_name": "Keegan Hepplestone",
        "rank": 68171,
        "rank_sort": 68275,
        "total": 2341
      },
      {
        "club_badge_src": null,
        "entry": 736708,
        "entry_name": "Jack Sparrow",
        "event_total": 56,
        "has_played": true,
        "id": 5008298,
        "last_rank": 67422,
        "player_name": "Alex Boakes",
        "rank": 68171,
        "rank_sort": 68276,
        "total": 2341
      },
      {
        "club_badge_src": null,
        "entry": 745788,
        "entry_name": "A.Wengers assamble",
        "event_total": 53,
        "has_played": true,
        "id": 5073396,
        "last_rank": 61606,
        "player_name": "Stefan Tulinius",
        "rank": 68171,
        "rank_sort": 68277,
        "total": 2341
      },
      {
        "club_badge_src": null,
        "entry": 752655,
        "entry_name": "The Slot Machine",
        "event_total": 55,
        "has_played": true,
        "id": 5121678,
        "last_rank": 65475,
        "player_name": "Evann Morgan",
        "rank": 68171,
        "rank_sort": 68278,
        "total": 2341
      },
      {
        "club_badge_src": null,
        "entry": 753028,
        "entry_name": "Livin\u2019 Saliba Loca",
        "event_total": 77,
        "has_played": true,
        "id": 5124310,
        "last_rank": 117423,
        "player_name": "Craig Rutland",
        "rank": 68171,
        "rank_sort": 68279,
        "total": 2341
      },
      {
        "club_badge_src": null,
        "entry": 772138,
        "entry_name": "Isaked it",
        "event_total": 33,
        "has_played": true,
        "id": 5267674,
        "last_rank": 33147,
        "player_name": "Ruben Rangi",
        "rank": 68171,
        "rank_sort": 68280,
        "total": 2341
      },
      {
        "club_badge_src": null,
        "entry": 818799,
        "entry_name": "11 Divock Origis",
        "event_total": 61,
        "has_played": true,
        "id": 5607544,
        "last_rank": 77258,
        "player_name": "Ian Barnes",
        "rank": 68171,
        "rank_sort": 68281,
        "total": 2341
      },
      {
        "club_badge_src": null,
        "entry": 832784,
        "entry_name": "Anto XI",
        "event_total": 69,
        "has_played": true,
        "id": 5704199,
        "last_rank": 86304,
        "player_name": "Anthony O'Sullivan",
        "rank": 68171,
        "rank_sort": 68282,
        "total": 2341
      },
      {
        "club_badge_src": null,
        "entry": 910983,
        "entry_name": "Ugarte be kidding me",
        "event_total": 58,
        "has_played": true,
        "id": 6263708,
        "last_rank": 70651,
        "player_name": "Jordan Blakemore",
        "rank": 68171,
        "rank_sort": 68283,
        "total": 2341
      },
      {
        "club_badge_src": null,
        "entry": 930259,
        "entry_name": "Vutomi Vultures",
        "event_total": 49,
        "has_played": true,
        "id": 6400813,
        "last_rank": 54667,
        "player_name": "Claire Foster",
        "rank": 68171,
        "rank_sort": 68284,
        "total": 2341
      },
      {
        "club_badge_src": null,
        "entry": 940712,
        "entry_name": "De Zerbi Ball",
        "event_total": 48,
        "has_played": true,
        "id": 6475620,
        "last_rank": 53345,
        "player_name": "Al Stylee",
        "rank": 68171,
        "rank_sort": 68285,
        "total": 2341
      },
      {
        "club_badge_src": null,
        "entry": 959883,
        "entry_name": "Fantastic Cor",
        "event_total": 67,
        "has_played": true,
        "id": 6614590,
        "last_rank": 91006,
        "player_name": "Elliot Jones",
        "rank": 68171,
        "rank_sort": 68286,
        "total": 2341
      },
      {
        "club_badge_src": null,
        "entry": 967121,
        "entry_name": "The Arsene Army",
        "event_total": 59,
        "has_played": true,
        "id": 6665597,
        "last_rank": 73423,
        "player_name": "Tom Roydhouse",
        "rank": 68171,
        "rank_sort": 68287,
        "total": 2341
      },
      {
        "club_badge_src": null,
        "entry": 977365,
        "entry_name": "Tony's Troops",
        "event_total": 64,
        "has_played": true,
        "id": 6737992,
        "last_rank": 84360,
        "player_name": "Tony Cornforth",
        "rank": 68171,
        "rank_sort": 68288,
        "total": 2341
      },
      {
        "club_badge_src": "https://fantasy.premierleague.com/gcs/plfpl-production-adobe-approved/plfpl-production/980498/c0f49d03-c265-47c9-a007-1ae3f4319140.png",
        "entry": 980498,
        "entry_name": "PlsGiveChance",
        "event_total": 63,
        "has_played": true,
        "id": 6759558,
        "last_rank": 81646,
        "player_name": "Mervyn Chua",
        "rank": 68171,
        "rank_sort": 68289,
        "total": 2341
      },
      {
        "club_badge_src": null,
        "entry": 983496,
        "entry_name": "Balotelli-Tubbies",
        "event_total": 59,
        "has_played": true,
        "id": 6780744,
        "last_rank": 65163,
        "player_name": "Shiv Soni-Sadar",
        "rank": 68171,
        "rank_sort": 68290,
        "total": 2341
      },
      {
        "club_badge_src": null,
        "entry": 986039,
        "entry_name": "mourad madani \ufffd",
        "event_total": 30,
        "has_played": true,
        "id": 6798537,
        "last_rank": 29904,
        "player_name": "mourad madani",
        "rank": 68171,
        "rank_sort": 68291,
        "total": 2341
      },
      {
        "club_badge_src": null,
        "entry": 1003235,
        "entry_name": "West Dobric Albion",
        "event_total": 62,
        "has_played": true,
        "id": 6934939,
        "last_rank": 79817,
        "player_name": "Jovica Babic",
        "rank": 68171,
        "rank_sort": 68292,
        "total": 2341
      },
      {
        "club_badge_src": null,
        "entry": 1021536,
        "entry_name": "The Blues FC",
        "event_total": 55,
        "has_played": true,
        "id": 7067581,
        "last_rank": 65475,
        "player_name": "Dabid Trejo",
        "rank": 68171,
        "rank_sort": 68293,
        "total": 2341
      },
      {
        "club_badge_src": null,
        "entry": 1032273,
        "entry_name": "WirtzCaseScenario",
        "event_total": 59,
        "has_played": true,
        "id": 7142047,
        "last_rank": 72815,
        "player_name": "Yani Linden",
        "rank": 68171,
        "rank_sort": 68294,
        "total": 2341
      },
      {
        "club_badge_src": null,
        "entry": 1036977,
        "entry_name": "Dominators",
        "event_total": 56,
        "has_played": true,
        "id": 7175960,
        "last_rank": 67063,
        "player_name": "Conner McArthur",
        "rank": 68171,
        "rank_sort": 68295,
        "total": 2341
      },
      {
        "club_badge_src": "https://fantasy.premierleague.com/gcs/plfpl-production-adobe-approved/plfpl-production/1060285/c2965269-7df0-4338-b6f6-22fd3efd7866.png",
        "entry": 1060285,
        "entry_name": "1",
        "event_total": 62,
        "has_played": true,
        "id": 7338319,
        "last_rank": 79817,
        "player_name": "Lars-Andre Standal",
        "rank": 68171,
        "rank_sort": 68296,
        "total": 2341
      },
      {
        "club_badge_src": null,
        "entry": 1074110,
        "entry_name": "I'm On The OverDelap",
        "event_total": 57,
        "has_played": true,
        "id": 7436195,
        "last_rank": 69323,
        "player_name": "Jack Simpson",
        "rank": 68171,
        "rank_sort": 68297,
        "total": 2341
      },
      {
        "club_badge_src": "https://fantasy.premierleague.com/gcs/plfpl-production-adobe-approved/plfpl-production/1086490/6dea23c4-7d8b-4795-b9c5-8e10c9af4fb0.png",
        "entry": 1086490,
        "entry_name": "GigiDonerkebabaruma",
        "event_total": 53,
        "has_played": true,
        "id": 7524342,
        "last_rank": 61950,
        "player_name": "Theodor Haave",
        "rank": 68171,
        "rank_sort": 68298,
        "total": 2341
      },
      {
        "club_badge_src": null,
        "entry": 1125058,
        "entry_name": "B. M\u00f6nchenFranbach",
        "event_total": 67,
        "has_played": true,
        "id": 7797035,
        "last_rank": 91466,
        "player_name": "Paul Craig",
        "rank": 68171,
        "rank_sort": 68299,
        "total": 2341
      },
      {
        "club_badge_src": null,
        "entry": 1180360,
        "entry_name": "DEAL or NO DEAL",
        "event_total": 66,
        "has_played": true,
        "id": 8189732,
        "last_rank": 89055,
        "player_name": "ivar roeleven",
        "rank": 68171,
        "rank_sort": 68300,
        "total": 2341
      }
    ]
  }
}