{
  "last_updated_data": "2026-05-24T23:28:17Z",
  "league": {
    "admin_entry": null,
    "closed": false,
    "code_privacy": "p",
    "created": "2025-07-20T23:14:33.933835Z",
    "cup_league": 2815434,
    "has_cup": true,
    "id": 314,
    "league_type": "s",
    "max_entries": null,
    "name": "Overall",
    "rank": null,
    "scoring": "c",
    "start_event": 1
  },
  "new_entries": {
    "has_next": false,
    "page": 1,
    "results": []
  },
  "standings": {
    "has_next": true,
    "page": 441,
    "results": [
      {
        "club_badge_src": null,
        "entry": 4592287,
        "entry_name": "Kante Win",
        "event_total": 67,
        "has_played": true,
        "id": 35068863,
        "last_rank": 30503,
        "player_name": "Henry Willis",
        "rank": 21985,
        "rank_sort": 22001,
        "total": 2377
      },
      {
        "club_badge_src": null,
        "entry": 4618510,
        "entry_name": "Release Sancho",
        "event_total": 57,
        "has_played": true,
        "id": 35300679,
        "last_rank": 21609,
        "player_name": "Alex Keelan",
        "rank": 21985,
        "rank_sort": 22002,
        "total": 2377
      },
      {
        "club_badge_src": null,
        "entry": 4860538,
        "entry_name": "MurtaSoccerFC",
        "event_total": 42,
        "has_played": true,
        "id": 37456809,
        "last_rank": 12141,
        "player_name": "Sebastian Murtagh",
        "rank": 21985,
        "rank_sort": 22003,
        "total": 2377
      },
      {
        "club_badge_src": "https://fantasy.premierleague.com/gcs/plfpl-production-adobe-approved/plfpl-production/5020844/c14af684-6713-45fa-b098-e17555de7b28.png",
        "entry": 5020844,
        "entry_name": "Wren&Lyra'sWarriors",
        "event_total": 66,
        "has_played": true,
        "id": 38775065,
        "last_rank": 29495,
        "player_name": "Wren Murphy",
        "rank": 21985,
        "rank_sort": 22004,
        "total": 2377
      },
      {
        "club_badge_src": null,
        "entry": 6264085,
        "entry_name": "Rejdus FC",
        "event_total": 61,
        "has_played": true,
        "id": 49598550,
        "last_rank": 24897,
        "player_name": "Filip Rejda",
        "rank": 21985,
        "rank_sort": 22005,
        "total": 2377
      },
      {
        "club_badge_src": "https://fantasy.premierleague.com/gcs/plfpl-production-adobe-approved/plfpl-production/6468829/5433e6ea-4c0e-4007-8101-3f9086b5d13a.png",
        "entry": 6468829,
        "entry_name": "Kitty Cat Boys",
        "event_total": 66,
        "has_played": true,
        "id": 51540105,
        "last_rank": 25709,
        "player_name": "Nikola Maric",
        "rank": 21985,
        "rank_sort": 22006,
        "total": 2377
      },
      {
        "club_badge_src": null,
        "entry": 7348580,
        "entry_name": "Team Mi",
        "event_total": 59,
        "has_played": true,
        "id": 59532371,
        "last_rank": 23188,
        "player_name": "Lisa Mi Lid",
        "rank": 21985,
        "rank_sort": 22007,
        "total": 2377
      },
      {
        "club_badge_src": null,
        "entry": 7658476,
        "entry_name": "Brown Staines FC",
        "event_total": 71,
        "has_played": true,
        "id": 62792730,
        "last_rank": 34937,
        "player_name": "Lewis Brown",
        "rank": 21985,
        "rank_sort": 22008,
        "total": 2377
      },
      {
        "club_badge_src": null,
        "entry": 8652008,
        "entry_name": "What the skelly",
        "event_total": 85,
        "has_played": true,
        "id": 72107242,
        "last_rank": 54353,
        "player_name": "Daniel Roper",
        "rank": 21985,
        "rank_sort": 22009,
        "total": 2377
      },
      {
        "club_badge_src": null,
        "entry": 5775,
        "entry_name": "++++++++++++++++++++",
        "event_total": 57,
        "has_played": true,
        "id": 32991,
        "last_rank": 21677,
        "player_name": "Yx Guden",
        "rank": 22010,
        "rank_sort": 22010,
        "total": 2377
      },
      {
        "club_badge_src": "https://fantasy.premierleague.com/gcs/plfpl-production-adobe-approved/plfpl-production/66753/ac11b29c-7a4a-40c6-96b1-04e43e736ab7.png",
        "entry": 66753,
        "entry_name": "Joe Rodon Experience",
        "event_total": 54,
        "has_played": true,
        "id": 431785,
        "last_rank": 19432,
        "player_name": "Eryk Ko\u0142odziej",
        "rank": 22010,
        "rank_sort": 22011,
        "total": 2377
      },
      {
        "club_badge_src": null,
        "entry": 117551,
        "entry_name": "German Engineers",
        "event_total": 53,
        "has_played": true,
        "id": 767257,
        "last_rank": 18790,
        "player_name": "Chris Winter",
        "rank": 22010,
        "rank_sort": 22012,
        "total": 2377
      },
      {
        "club_badge_src": null,
        "entry": 144015,
        "entry_name": "GRMFC",
        "event_total": 53,
        "has_played": true,
        "id": 942420,
        "last_rank": 18691,
        "player_name": "Miguel Martins",
        "rank": 22010,
        "rank_sort": 22013,
        "total": 2377
      },
      {
        "club_badge_src": "https://fantasy.premierleague.com/gcs/plfpl-production-adobe-approved/plfpl-production/158611/e22fdd5e-20a1-4a1a-8a36-dad54f8351a9.png",
        "entry": 158611,
        "entry_name": "Onkel Army",
        "event_total": 63,
        "has_played": true,
        "id": 1043766,
        "last_rank": 26631,
        "player_name": "Oskar Bj\u00f8rkmann Jepsen",
        "rank": 22010,
        "rank_sort": 22014,
        "total": 2377
      },
      {
        "club_badge_src": null,
        "entry": 213238,
        "entry_name": "Wirtz of Wisdom",
        "event_total": 57,
        "has_played": true,
        "id": 1418508,
        "last_rank": 21677,
        "player_name": "Kyle Young Lai",
        "rank": 22010,
        "rank_sort": 22015,
        "total": 2377
      },
      {
        "club_badge_src": "https://fantasy.premierleague.com/gcs/plfpl-production-adobe-approved/plfpl-production/253858/3d8b840c-d33a-4afe-942f-769b57c179a6.png",
        "entry": 253858,
        "entry_name": "Fear the Wirtz",
        "event_total": 62,
        "has_played": true,
        "id": 1688652,
        "last_rank": 25729,
        "player_name": "Daryl Tose",
        "rank": 22010,
        "rank_sort": 22016,
        "total": 2377
      },
      {
        "club_badge_src": "https://fantasy.premierleague.com/gcs/plfpl-production-adobe-approved/plfpl-production/315588/24f134f6-1ae8-456c-ad73-6010525e7047.png",
        "entry": 315588,
        "entry_name": "Maxs XI",
        "event_total": 68,
        "has_played": true,
        "id": 2115099,
        "last_rank": 31747,
        "player_name": "Max Popham",
        "rank": 22010,
        "rank_sort": 22017,
        "total": 2377
      },
      {
        "club_badge_src": null,
        "entry": 362609,
        "entry_name": "20 Times",
        "event_total": 51,
        "has_played": true,
        "id": 2426218,
        "last_rank": 17437,
        "player_name": "Owen Thomas",
        "rank": 22010,
        "rank_sort": 22018,
        "total": 2377
      },
      {
        "club_badge_src": null,
        "entry": 366907,
        "entry_name": "Norfolk Enchants",
        "event_total": 58,
        "has_played": true,
        "id": 2455438,
        "last_rank": 22391,
        "player_name": "Ben Allen",
        "rank": 22010,
        "rank_sort": 22019,
        "total": 2377
      },
      {
        "club_badge_src": null,
        "entry": 496223,
        "entry_name": "Schlupptown Dunk",
        "event_total": 65,
        "has_played": true,
        "id": 3330663,
        "last_rank": 28511,
        "player_name": "Mark Cavell",
        "rank": 22010,
        "rank_sort": 22020,
        "total": 2377
      },
      {
        "club_badge_src": null,
        "entry": 551350,
        "entry_name": "Tipsy",
        "event_total": 57,
        "has_played": true,
        "id": 3711027,
        "last_rank": 21775,
        "player_name": "Andreas Lavesson",
        "rank": 22010,
        "rank_sort": 22021,
        "total": 2377
      },
      {
        "club_badge_src": null,
        "entry": 584555,
        "entry_name": "Hurrikane",
        "event_total": 43,
        "has_played": true,
        "id": 3933960,
        "last_rank": 12705,
        "player_name": "Patrick Beachwood",
        "rank": 22010,
        "rank_sort": 22022,
        "total": 2377
      },
      {
        "club_badge_src": null,
        "entry": 610030,
        "entry_name": "Hulk City",
        "event_total": 54,
        "has_played": true,
        "id": 4121108,
        "last_rank": 19432,
        "player_name": "Constantin Zieger",
        "rank": 22010,
        "rank_sort": 22023,
        "total": 2377
      },
      {
        "club_badge_src": "https://fantasy.premierleague.com/gcs/plfpl-production-adobe-approved/plfpl-production/612723/b8c420b0-b9cb-4d5f-aad6-5369e11c6907.png",
        "entry": 612723,
        "entry_name": "Gish Me I\u2019m Irish",
        "event_total": 56,
        "has_played": true,
        "id": 4140189,
        "last_rank": 20888,
        "player_name": "Brent Garner",
        "rank": 22010,
        "rank_sort": 22024,
        "total": 2377
      },
      {
        "club_badge_src": null,
        "entry": 653550,
        "entry_name": "Deckchairs",
        "event_total": 43,
        "has_played": true,
        "id": 4416689,
        "last_rank": 12705,
        "player_name": "Phil Ramsey",
        "rank": 22010,
        "rank_sort": 22025,
        "total": 2377
      },
      {
        "club_badge_src": null,
        "entry": 881407,
        "entry_name": "Jonronto FC",
        "event_total": 52,
        "has_played": true,
        "id": 6044471,
        "last_rank": 17970,
        "player_name": "Jonathan Nguyen",
        "rank": 22010,
        "rank_sort": 22026,
        "total": 2377
      },
      {
        "club_badge_src": null,
        "entry": 950610,
        "entry_name": "bambi lokonga",
        "event_total": 57,
        "has_played": true,
        "id": 6549074,
        "last_rank": 21677,
        "player_name": "Thibo Vervaeke",
        "rank": 22010,
        "rank_sort": 22027,
        "total": 2377
      },
      {
        "club_badge_src": null,
        "entry": 964557,
        "entry_name": "Jo\u00e3o no mercy",
        "event_total": 65,
        "has_played": true,
        "id": 6647522,
        "last_rank": 28517,
        "player_name": "Archie Beach",
        "rank": 22010,
        "rank_sort": 22028,
        "total": 2377
      },
      {
        "club_badge_src": null,
        "entry": 1145568,
        "entry_name": "triple champ",
        "event_total": 53,
        "has_played": true,
        "id": 7942226,
        "last_rank": 18691,
        "player_name": "Callan curtis",
        "rank": 22010,
        "rank_sort": 22029,
        "total": 2377
      },
      {
        "club_badge_src": null,
        "entry": 1236958,
        "entry_name": "C\u00f4te d'Azur",
        "event_total": 48,
        "has_played": true,
        "id": 8589616,
        "last_rank": 15452,
        "player_name": "Aleksandar Zivanovic",
        "rank": 22010,
        "rank_sort": 22030,
        "total": 2377
      },
      {
        "club_badge_src": null,
        "entry": 1251826,
        "entry_name": "Kinder Mbeumo",
        "event_total": 47,
        "has_played": true,
        "id": 8694378,
        "last_rank": 14926,
        "player_name": "Ronan Connolly",
        "rank": 22010,
        "rank_sort": 22031,
        "total": 2377
      },
      {
        "club_badge_src": "https://fantasy.premierleague.com/gcs/plfpl-production-adobe-approved/plfpl-production/1296979/4ee6925e-0f7d-4aa8-8a0b-72a7eab038b0.png",
        "entry": 1296979,
        "entry_name": "A\u00eft Tijjani Reijnder",
        "event_total": 56,
        "has_played": true,
        "id": 9014096,
        "last_rank": 20826,
        "player_name": "Patrick Schleiger",
        "rank": 22010,
        "rank_sort": 22032,
        "total": 2377
      },
      {
        "club_badge_src": null,
        "entry": 1721366,
        "entry_name": "A-Cunha Matata",
        "event_total": 58,
        "has_played": true,
        "id": 12064911,
        "last_rank": 22426,
        "player_name": "Rishi K",
        "rank": 22010,
        "rank_sort": 22033,
        "total": 2377
      },
      {
        "club_badge_src": null,
        "entry": 2391343,
        "entry_name": "Gavs Gunners",
        "event_total": 57,
        "has_played": true,
        "id": 17082107,
        "last_rank": 21628,
        "player_name": "Gavin Thomson",
        "rank": 22010,
        "rank_sort": 22034,
        "total": 2377
      },
      {
        "club_badge_src": "https://fantasy.premierleague.com/gcs/plfpl-production-adobe-approved/plfpl-production/2412280/dc75ad59-9a36-4983-a714-82d7165f196c.png",
        "entry": 2412280,
        "entry_name": "ViperOG's",
        "event_total": 72,
        "has_played": true,
        "id": 17243895,
        "last_rank": 36142,
        "player_name": "Sashen Moodley",
        "rank": 22010,
        "rank_sort": 22035,
        "total": 2377
      },
      {
        "club_badge_src": null,
        "entry": 2447575,
        "entry_name": "Deportivo Dunno",
        "event_total": 46,
        "has_played": true,
        "id": 17505264,
        "last_rank": 14251,
        "player_name": "Martin Grant",
        "rank": 22010,
        "rank_sort": 22036,
        "total": 2377
      },
      {
        "club_badge_src": null,
        "entry": 2732419,
        "entry_name": "Aafaaq FC",
        "event_total": 49,
        "has_played": true,
        "id": 19662976,
        "last_rank": 16062,
        "player_name": "Aafaaq Baabu",
        "rank": 22010,
        "rank_sort": 22037,
        "total": 2377
      },
      {
        "club_badge_src": null,
        "entry": 2804039,
        "entry_name": "KERNOW",
        "event_total": 66,
        "has_played": true,
        "id": 20476777,
        "last_rank": 29522,
        "player_name": "Chris Ead",
        "rank": 22010,
        "rank_sort": 22038,
        "total": 2377
      },
      {
        "club_badge_src": null,
        "entry": 2807130,
        "entry_name": "Fried Reus",
        "event_total": 71,
        "has_played": true,
        "id": 20501053,
        "last_rank": 35034,
        "player_name": "Danny Au-Yeung",
        "rank": 22010,
        "rank_sort": 22039,
        "total": 2377
      },
      {
        "club_badge_src": null,
        "entry": 3061915,
        "entry_name": "MWJ FC",
        "event_total": 52,
        "has_played": true,
        "id": 22543541,
        "last_rank": 18113,
        "player_name": "Tomos Morris-Jones",
        "rank": 22010,
        "rank_sort": 22040,
        "total": 2377
      },
      {
        "club_badge_src": null,
        "entry": 3496635,
        "entry_name": "Ekitekkers FC",
        "event_total": 59,
        "has_played": true,
        "id": 26008894,
        "last_rank": 23230,
        "player_name": "Matt Prior",
        "rank": 22010,
        "rank_sort": 22041,
        "total": 2377
      },
      {
        "club_badge_src": null,
        "entry": 3600806,
        "entry_name": "Mainoo's Men",
        "event_total": 74,
        "has_played": true,
        "id": 26818680,
        "last_rank": 38528,
        "player_name": "Kyle Kerr",
        "rank": 22010,
        "rank_sort": 22042,
        "total": 2377
      },
      {
        "club_badge_src": null,
        "entry": 3665958,
        "entry_name": "Neowave FC",
        "event_total": 67,
        "has_played": true,
        "id": 27339678,
        "last_rank": 30536,
        "player_name": "Charlie Lemaistre",
        "rank": 22010,
        "rank_sort": 22043,
        "total": 2377
      },
      {
        "club_badge_src": null,
        "entry": 3771578,
        "entry_name": "Bazby Babes",
        "event_total": 54,
        "has_played": true,
        "id": 28161190,
        "last_rank": 19544,
        "player_name": "Marc Luiz",
        "rank": 22010,
        "rank_sort": 22044,
        "total": 2377
      },
      {
        "club_badge_src": null,
        "entry": 3928462,
        "entry_name": "Pathetico Madrid",
        "event_total": 68,
        "has_played": true,
        "id": 29544768,
        "last_rank": 31747,
        "player_name": "Daniel Nolan",
        "rank": 22010,
        "rank_sort": 22045,
        "total": 2377
      },
      {
        "club_badge_src": "https://fantasy.premierleague.com/gcs/plfpl-production-adobe-approved/plfpl-production/3953261/8358525d-2c1d-43ca-a914-7025072872a4.png",
        "entry": 3953261,
        "entry_name": "marcus lingard fc",
        "event_total": 55,
        "has_played": true,
        "id": 29741384,
        "last_rank": 20131,
        "player_name": "Alfie mahoney",
        "rank": 22010,
        "rank_sort": 22046,
        "total": 2377
      },
      {
        "club_badge_src": null,
        "entry": 4564924,
        "entry_name": "Jonituren FC",
        "event_total": 69,
        "has_played": true,
        "id": 34835357,
        "last_rank": 32751,
        "player_name": "Joni Turen",
        "rank": 22010,
        "rank_sort": 22047,
        "total": 2377
      },
      {
        "club_badge_src": null,
        "entry": 5253854,
        "entry_name": "Comet",
        "event_total": 69,
        "has_played": true,
        "id": 40719034,
        "last_rank": 32879,
        "player_name": "Margaret Grisdale",
        "rank": 22010,
        "rank_sort": 22048,
        "total": 2377
      },
      {
        "club_badge_src": null,
        "entry": 5387839,
        "entry_name": "Shaw and Order",
        "event_total": 58,
        "has_played": true,
        "id": 41886168,
        "last_rank": 22426,
        "player_name": "Mark Hatherall",
        "rank": 22010,
        "rank_sort": 22049,
        "total": 2377
      },
      {
        "club_badge_src": null,
        "entry": 5456945,
        "entry_name": "Now I'm a Baleba",
        "event_total": 52,
        "has_played": true,
        "id": 42466375,
        "last_rank": 17970,
        "player_name": "Nish Kumar",
        "rank": 22010,
        "rank_sort": 22050,
        "total": 2377
      }
    ]
  }
}