{
  "last_updated_data": "2026-05-24T23:28:17Z",
  "league": {
    "admin_entry": null,
    "closed": false,
    "code_privacy": "p",
    "created": "2025-07-20T23:14:33.933835Z",
    "cup_league": 2815434,
    "has_cup": true,
    "id": 314,
    "league_type": "s",
    "max_entries": null,
    "name": "Overall",
    "rank": null,
    "scoring": "c",
    "start_event": 1
  },
  "new_entries": {
    "has_next": false,
    "page": 1,
    "results": []
  },
  "standings": {
    "has_next": true,
    "page": 1565,
    "results": [
      {
        "club_badge_src": null,
        "entry": 248010,
        "entry_name": "Kroos control",
        "event_total": 61,
        "has_played": true,
        "id": 1650730,
        "last_rank": 88348,
        "player_name": "Rickesh Patel",
        "rank": 78139,
        "rank_sort": 78201,
        "total": 2336
      },
      {
        "club_badge_src": null,
        "entry": 249181,
        "entry_name": "Saka White Rice",
        "event_total": 63,
        "has_played": true,
        "id": 1658289,
        "last_rank": 93443,
        "player_name": "Tommy Coker",
        "rank": 78139,
        "rank_sort": 78202,
        "total": 2336
      },
      {
        "club_badge_src": null,
        "entry": 261667,
        "entry_name": "T\u00f3sok City",
        "event_total": 47,
        "has_played": true,
        "id": 1739490,
        "last_rank": 60168,
        "player_name": "Peter K",
        "rank": 78139,
        "rank_sort": 78203,
        "total": 2336
      },
      {
        "club_badge_src": null,
        "entry": 261988,
        "entry_name": "Boys in the BetoLand",
        "event_total": 41,
        "has_played": true,
        "id": 1741680,
        "last_rank": 50199,
        "player_name": "Nick Jones",
        "rank": 78139,
        "rank_sort": 78204,
        "total": 2336
      },
      {
        "club_badge_src": null,
        "entry": 270596,
        "entry_name": "Afternoon De Ligt",
        "event_total": 69,
        "has_played": true,
        "id": 1800199,
        "last_rank": 109454,
        "player_name": "Ritchie Smith",
        "rank": 78139,
        "rank_sort": 78205,
        "total": 2336
      },
      {
        "club_badge_src": "https://fantasy.premierleague.com/gcs/plfpl-production-adobe-approved/plfpl-production/272976/462840f7-6686-4776-99ac-8195e9a3d816.png",
        "entry": 272976,
        "entry_name": "Triad46HydraulicOil",
        "event_total": 43,
        "has_played": true,
        "id": 1816308,
        "last_rank": 53345,
        "player_name": "James Burrows",
        "rank": 78139,
        "rank_sort": 78206,
        "total": 2336
      },
      {
        "club_badge_src": null,
        "entry": 278162,
        "entry_name": "campur sari",
        "event_total": 57,
        "has_played": true,
        "id": 1851430,
        "last_rank": 79817,
        "player_name": "SI05-HARRY AKHMAD HAFIDZ",
        "rank": 78139,
        "rank_sort": 78207,
        "total": 2336
      },
      {
        "club_badge_src": null,
        "entry": 282313,
        "entry_name": "Charli xGx",
        "event_total": 60,
        "has_played": true,
        "id": 1879085,
        "last_rank": 77258,
        "player_name": "Ross Connolly",
        "rank": 78139,
        "rank_sort": 78208,
        "total": 2336
      },
      {
        "club_badge_src": null,
        "entry": 304989,
        "entry_name": "C\u2019MonBarbiSeskoParty",
        "event_total": 50,
        "has_played": true,
        "id": 2042253,
        "last_rank": 58071,
        "player_name": "Gav Blake",
        "rank": 78139,
        "rank_sort": 78209,
        "total": 2336
      },
      {
        "club_badge_src": "https://fantasy.premierleague.com/gcs/plfpl-production-adobe-approved/plfpl-production/307718/5e43249b-1fa7-4ed2-bb5f-4a0dcffd160c.png",
        "entry": 307718,
        "entry_name": "Rice Rice Baby",
        "event_total": 65,
        "has_played": true,
        "id": 2061036,
        "last_rank": 88594,
        "player_name": "khachig Jabrian",
        "rank": 78139,
        "rank_sort": 78210,
        "total": 2336
      },
      {
        "club_badge_src": null,
        "entry": 320359,
        "entry_name": "FPL MAGPIE",
        "event_total": 63,
        "has_played": true,
        "id": 2147208,
        "last_rank": 83934,
        "player_name": "Hudheyano Allergic \ud83c\uddf0\ud83c\uddea",
        "rank": 78139,
        "rank_sort": 78211,
        "total": 2336
      },
      {
        "club_badge_src": null,
        "entry": 320798,
        "entry_name": "Under my Cucarella",
        "event_total": 49,
        "has_played": true,
        "id": 2150058,
        "last_rank": 63724,
        "player_name": "Zac Johnson",
        "rank": 78139,
        "rank_sort": 78212,
        "total": 2336
      },
      {
        "club_badge_src": null,
        "entry": 328201,
        "entry_name": "LawnDart",
        "event_total": 51,
        "has_played": true,
        "id": 2198761,
        "last_rank": 67422,
        "player_name": "Mansour Shouman",
        "rank": 78139,
        "rank_sort": 78213,
        "total": 2336
      },
      {
        "club_badge_src": null,
        "entry": 328211,
        "entry_name": "GjessMyTeam",
        "event_total": 65,
        "has_played": true,
        "id": 2198821,
        "last_rank": 98896,
        "player_name": "Sebastian Gjessing",
        "rank": 78139,
        "rank_sort": 78214,
        "total": 2336
      },
      {
        "club_badge_src": null,
        "entry": 350546,
        "entry_name": "mazzika fc",
        "event_total": 76,
        "has_played": true,
        "id": 2346484,
        "last_rank": 130566,
        "player_name": "Mazen Tarek",
        "rank": 78139,
        "rank_sort": 78215,
        "total": 2336
      },
      {
        "club_badge_src": "https://fantasy.premierleague.com/gcs/plfpl-production-adobe-approved/plfpl-production/355394/17dde04c-7570-4fe9-826f-69b55f3e1d2e.png",
        "entry": 355394,
        "entry_name": "The Malouda Triangle",
        "event_total": 66,
        "has_played": true,
        "id": 2378454,
        "last_rank": 100949,
        "player_name": "Yusuf Sader",
        "rank": 78139,
        "rank_sort": 78216,
        "total": 2336
      },
      {
        "club_badge_src": null,
        "entry": 360014,
        "entry_name": "\u0414\u043e\u0433\u043e\u0434\u0438\u043d\u0435 \u0443 \u041f\u0440\u0438\u0437\u0440\u0435\u043d\u0443",
        "event_total": 42,
        "has_played": true,
        "id": 2409062,
        "last_rank": 51403,
        "player_name": "\u0421\u0440\u0452\u0430\u043d \u0414\u0430\u0431\u0435\u0442\u0438\u045b",
        "rank": 78139,
        "rank_sort": 78217,
        "total": 2336
      },
      {
        "club_badge_src": null,
        "entry": 369477,
        "entry_name": "FPL Twins",
        "event_total": 66,
        "has_played": true,
        "id": 2472355,
        "last_rank": 91006,
        "player_name": "The FPL Winning Edge",
        "rank": 78139,
        "rank_sort": 78218,
        "total": 2336
      },
      {
        "club_badge_src": null,
        "entry": 377803,
        "entry_name": "PrideOftheNorthEast",
        "event_total": 52,
        "has_played": true,
        "id": 2530967,
        "last_rank": 61606,
        "player_name": "Thomas H\u00f6gberg",
        "rank": 78139,
        "rank_sort": 78219,
        "total": 2336
      },
      {
        "club_badge_src": null,
        "entry": 379620,
        "entry_name": "TeessideTwoSteppers",
        "event_total": 59,
        "has_played": true,
        "id": 2543746,
        "last_rank": 83934,
        "player_name": "Ben Watts",
        "rank": 78139,
        "rank_sort": 78220,
        "total": 2336
      },
      {
        "club_badge_src": null,
        "entry": 380786,
        "entry_name": "JMA Stars",
        "event_total": 58,
        "has_played": true,
        "id": 2552263,
        "last_rank": 82069,
        "player_name": "John Martins Abu",
        "rank": 78139,
        "rank_sort": 78221,
        "total": 2336
      },
      {
        "club_badge_src": null,
        "entry": 388746,
        "entry_name": "Mudge",
        "event_total": 53,
        "has_played": true,
        "id": 2607795,
        "last_rank": 71386,
        "player_name": "Mark Sheehan",
        "rank": 78139,
        "rank_sort": 78222,
        "total": 2336
      },
      {
        "club_badge_src": "https://fantasy.premierleague.com/gcs/plfpl-production-adobe-approved/plfpl-production/421735/cbdcbd4f-1ff9-474b-b69e-1b2a7b90322c.png",
        "entry": 421735,
        "entry_name": "Frimp My Ride",
        "event_total": 58,
        "has_played": true,
        "id": 2826312,
        "last_rank": 82069,
        "player_name": "Nils Mackay",
        "rank": 78139,
        "rank_sort": 78223,
        "total": 2336
      },
      {
        "club_badge_src": null,
        "entry": 424069,
        "entry_name": "ULtiMateZ",
        "event_total": 50,
        "has_played": true,
        "id": 2842212,
        "last_rank": 58071,
        "player_name": "Pawat Chueng",
        "rank": 78139,
        "rank_sort": 78224,
        "total": 2336
      },
      {
        "club_badge_src": null,
        "entry": 432542,
        "entry_name": "Name won't be seen",
        "event_total": 76,
        "has_played": true,
        "id": 2900870,
        "last_rank": 129506,
        "player_name": "Eyal Zfoni",
        "rank": 78139,
        "rank_sort": 78225,
        "total": 2336
      },
      {
        "club_badge_src": "https://fantasy.premierleague.com/gcs/plfpl-production-adobe-approved/plfpl-production/434106/a481d90c-e4d9-457a-80af-d687b747e027.png",
        "entry": 434106,
        "entry_name": "Nael FC",
        "event_total": 48,
        "has_played": true,
        "id": 2911204,
        "last_rank": 61950,
        "player_name": "Ahmad Na'el",
        "rank": 78139,
        "rank_sort": 78226,
        "total": 2336
      },
      {
        "club_badge_src": null,
        "entry": 439729,
        "entry_name": "DH",
        "event_total": 72,
        "has_played": true,
        "id": 2948627,
        "last_rank": 117423,
        "player_name": "Daniel Hall",
        "rank": 78139,
        "rank_sort": 78227,
        "total": 2336
      },
      {
        "club_badge_src": "https://fantasy.premierleague.com/gcs/plfpl-production-adobe-approved/plfpl-production/454394/fc1befec-1641-467e-a275-c781ad90a18e.png",
        "entry": 454394,
        "entry_name": "FOYS",
        "event_total": 63,
        "has_played": true,
        "id": 3048282,
        "last_rank": 93186,
        "player_name": "Frej Wrigley",
        "rank": 78139,
        "rank_sort": 78228,
        "total": 2336
      },
      {
        "club_badge_src": null,
        "entry": 488954,
        "entry_name": "3 score years",
        "event_total": 67,
        "has_played": true,
        "id": 3282431,
        "last_rank": 103978,
        "player_name": "Aaron Fitt-Boyland",
        "rank": 78139,
        "rank_sort": 78229,
        "total": 2336
      },
      {
        "club_badge_src": null,
        "entry": 503293,
        "entry_name": "Artetas",
        "event_total": 53,
        "has_played": true,
        "id": 3378389,
        "last_rank": 71386,
        "player_name": "Josh Grywalski",
        "rank": 78139,
        "rank_sort": 78230,
        "total": 2336
      },
      {
        "club_badge_src": null,
        "entry": 531132,
        "entry_name": "Vybz FC \u2b50\ufe0f\u2b50\ufe0f\u2b50\ufe0f",
        "event_total": 56,
        "has_played": true,
        "id": 3572153,
        "last_rank": 68957,
        "player_name": "Michael Harris",
        "rank": 78139,
        "rank_sort": 78231,
        "total": 2336
      },
      {
        "club_badge_src": null,
        "entry": 539898,
        "entry_name": "DAI FC",
        "event_total": 53,
        "has_played": true,
        "id": 3634063,
        "last_rank": 71386,
        "player_name": "David Griffiths",
        "rank": 78139,
        "rank_sort": 78232,
        "total": 2336
      },
      {
        "club_badge_src": "https://fantasy.premierleague.com/gcs/plfpl-production-adobe-approved/plfpl-production/541014/ce063356-04a9-4969-a1b0-d493b8af7699.png",
        "entry": 541014,
        "entry_name": "Cole as Ice",
        "event_total": 61,
        "has_played": true,
        "id": 3641379,
        "last_rank": 79190,
        "player_name": "Oli Berisha",
        "rank": 78139,
        "rank_sort": 78233,
        "total": 2336
      },
      {
        "club_badge_src": "https://fantasy.premierleague.com/gcs/plfpl-production-adobe-approved/plfpl-production/545714/5e6a4ad4-a422-4942-ad0c-bba559fa417e.png",
        "entry": 545714,
        "entry_name": "Faz Alexandra",
        "event_total": 37,
        "has_played": true,
        "id": 3672664,
        "last_rank": 44048,
        "player_name": "Paul Farrington",
        "rank": 78139,
        "rank_sort": 78234,
        "total": 2336
      },
      {
        "club_badge_src": null,
        "entry": 562125,
        "entry_name": "Baldy's Boys",
        "event_total": 61,
        "has_played": true,
        "id": 3783756,
        "last_rank": 89055,
        "player_name": "James May",
        "rank": 78139,
        "rank_sort": 78235,
        "total": 2336
      },
      {
        "club_badge_src": null,
        "entry": 565742,
        "entry_name": "A Cunha Matata",
        "event_total": 66,
        "has_played": true,
        "id": 3807862,
        "last_rank": 101818,
        "player_name": "Daniel Taylor",
        "rank": 78139,
        "rank_sort": 78236,
        "total": 2336
      },
      {
        "club_badge_src": "https://fantasy.premierleague.com/gcs/plfpl-production-adobe-approved/plfpl-production/569108/cacb143e-5b1b-4b03-8ba8-2796b082c700.png",
        "entry": 569108,
        "entry_name": "Kompos FC",
        "event_total": 67,
        "has_played": true,
        "id": 3830423,
        "last_rank": 93443,
        "player_name": "Christos Kompos",
        "rank": 78139,
        "rank_sort": 78237,
        "total": 2336
      },
      {
        "club_badge_src": null,
        "entry": 571837,
        "entry_name": "IDK FC",
        "event_total": 77,
        "has_played": true,
        "id": 3848455,
        "last_rank": 132758,
        "player_name": "Amandeep Dawan",
        "rank": 78139,
        "rank_sort": 78238,
        "total": 2336
      },
      {
        "club_badge_src": null,
        "entry": 575734,
        "entry_name": "Wirtz Case Scenario",
        "event_total": 59,
        "has_played": true,
        "id": 3874288,
        "last_rank": 84360,
        "player_name": "Leyton Martin",
        "rank": 78139,
        "rank_sort": 78239,
        "total": 2336
      },
      {
        "club_badge_src": null,
        "entry": 590260,
        "entry_name": "Macca's Toy Hammers",
        "event_total": 57,
        "has_played": true,
        "id": 3976105,
        "last_rank": 79817,
        "player_name": "Paul Mackay",
        "rank": 78139,
        "rank_sort": 78240,
        "total": 2336
      },
      {
        "club_badge_src": null,
        "entry": 647940,
        "entry_name": "DLB  Elanga",
        "event_total": 47,
        "has_played": true,
        "id": 4378959,
        "last_rank": 60168,
        "player_name": "Phil Stewart",
        "rank": 78139,
        "rank_sort": 78241,
        "total": 2336
      },
      {
        "club_badge_src": null,
        "entry": 662995,
        "entry_name": "Wirtz Nightmare",
        "event_total": 53,
        "has_played": true,
        "id": 4482060,
        "last_rank": 71386,
        "player_name": "Chris Orford",
        "rank": 78139,
        "rank_sort": 78242,
        "total": 2336
      },
      {
        "club_badge_src": null,
        "entry": 673179,
        "entry_name": "Wisken Squad",
        "event_total": 58,
        "has_played": true,
        "id": 4553759,
        "last_rank": 82398,
        "player_name": "James Wisken",
        "rank": 78139,
        "rank_sort": 78243,
        "total": 2336
      },
      {
        "club_badge_src": null,
        "entry": 689323,
        "entry_name": "Yoro Wizard 'arry",
        "event_total": 64,
        "has_played": true,
        "id": 4667244,
        "last_rank": 95890,
        "player_name": "James Friar",
        "rank": 78139,
        "rank_sort": 78244,
        "total": 2336
      },
      {
        "club_badge_src": null,
        "entry": 717827,
        "entry_name": ".",
        "event_total": 66,
        "has_played": true,
        "id": 4870807,
        "last_rank": 91006,
        "player_name": "Kev Rankin",
        "rank": 78139,
        "rank_sort": 78245,
        "total": 2336
      },
      {
        "club_badge_src": null,
        "entry": 721337,
        "entry_name": "Kettleosaurus",
        "event_total": 74,
        "has_played": true,
        "id": 4898236,
        "last_rank": 111405,
        "player_name": "Charley Kettle",
        "rank": 78139,
        "rank_sort": 78246,
        "total": 2336
      },
      {
        "club_badge_src": null,
        "entry": 733516,
        "entry_name": "Abdelrahman Gamal Fc",
        "event_total": 28,
        "has_played": true,
        "id": 4984755,
        "last_rank": 33147,
        "player_name": "Abdelrhman Gamal",
        "rank": 78139,
        "rank_sort": 78247,
        "total": 2336
      },
      {
        "club_badge_src": null,
        "entry": 735664,
        "entry_name": "San Fran\u015de\u015dko",
        "event_total": 43,
        "has_played": true,
        "id": 5001001,
        "last_rank": 53023,
        "player_name": "Jesper Ericsson",
        "rank": 78139,
        "rank_sort": 78248,
        "total": 2336
      },
      {
        "club_badge_src": null,
        "entry": 738923,
        "entry_name": "Earth wind & Maguire",
        "event_total": 39,
        "has_played": true,
        "id": 5023922,
        "last_rank": 47163,
        "player_name": "George Morgan",
        "rank": 78139,
        "rank_sort": 78249,
        "total": 2336
      },
      {
        "club_badge_src": null,
        "entry": 745372,
        "entry_name": "Upper Gully Goats",
        "event_total": 73,
        "has_played": true,
        "id": 5070515,
        "last_rank": 120438,
        "player_name": "Daniel Bain",
        "rank": 78139,
        "rank_sort": 78250,
        "total": 2336
      }
    ]
  }
}