{
  "last_updated_data": "2026-05-24T23:28:17Z",
  "league": {
    "admin_entry": null,
    "closed": false,
    "code_privacy": "p",
    "created": "2025-07-20T23:14:33.933835Z",
    "cup_league": 2815434,
    "has_cup": true,
    "id": 314,
    "league_type": "s",
    "max_entries": null,
    "name": "Overall",
    "rank": null,
    "scoring": "c",
    "start_event": 1
  },
  "new_entries": {
    "has_next": false,
    "page": 1,
    "results": []
  },
  "standings": {
    "has_next": true,
    "page": 142,
    "results": [
      {
        "club_badge_src": null,
        "entry": 7913579,
        "entry_name": "iLuvRyanGravenberch",
        "event_total": 53,
        "has_played": true,
        "id": 65110841,
        "last_rank": 5528,
        "player_name": "Aadam Ahmed",
        "rank": 7015,
        "rank_sort": 7051,
        "total": 2407
      },
      {
        "club_badge_src": null,
        "entry": 1814,
        "entry_name": "Livin' Yoshida Loca",
        "event_total": 60,
        "has_played": true,
        "id": 10104,
        "last_rank": 7501,
        "player_name": "William Edwards",
        "rank": 7052,
        "rank_sort": 7052,
        "total": 2407
      },
      {
        "club_badge_src": null,
        "entry": 7899,
        "entry_name": "Games gone",
        "event_total": 53,
        "has_played": true,
        "id": 45631,
        "last_rank": 5560,
        "player_name": "joe leary",
        "rank": 7052,
        "rank_sort": 7053,
        "total": 2407
      },
      {
        "club_badge_src": null,
        "entry": 14670,
        "entry_name": "Moves Like Agger",
        "event_total": 62,
        "has_played": true,
        "id": 89239,
        "last_rank": 8234,
        "player_name": "Taylor Carson",
        "rank": 7052,
        "rank_sort": 7054,
        "total": 2407
      },
      {
        "club_badge_src": null,
        "entry": 17666,
        "entry_name": "Bruno Dos Tres",
        "event_total": 62,
        "has_played": true,
        "id": 109653,
        "last_rank": 6887,
        "player_name": "Parth 11",
        "rank": 7052,
        "rank_sort": 7055,
        "total": 2407
      },
      {
        "club_badge_src": null,
        "entry": 29701,
        "entry_name": "USG1912",
        "event_total": 62,
        "has_played": true,
        "id": 187880,
        "last_rank": 6887,
        "player_name": "Federico Roseti",
        "rank": 7052,
        "rank_sort": 7056,
        "total": 2407
      },
      {
        "club_badge_src": null,
        "entry": 30806,
        "entry_name": "Daichi Want Me Baby?",
        "event_total": 70,
        "has_played": true,
        "id": 194992,
        "last_rank": 9711,
        "player_name": "Josh Cornewall-Walker",
        "rank": 7052,
        "rank_sort": 7057,
        "total": 2407
      },
      {
        "club_badge_src": "https://fantasy.premierleague.com/gcs/plfpl-production-adobe-approved/plfpl-production/33239/dcc7dc02-4968-4283-92c7-33530692dec8.png",
        "entry": 33239,
        "entry_name": "Can You Dig It? Saka",
        "event_total": 75,
        "has_played": true,
        "id": 211915,
        "last_rank": 14040,
        "player_name": "Mike Rafone",
        "rank": 7052,
        "rank_sort": 7058,
        "total": 2407
      },
      {
        "club_badge_src": null,
        "entry": 69386,
        "entry_name": "Gyokamole and Nachos",
        "event_total": 51,
        "has_played": true,
        "id": 450020,
        "last_rank": 4155,
        "player_name": "Yazeed Almutairi",
        "rank": 7052,
        "rank_sort": 7059,
        "total": 2407
      },
      {
        "club_badge_src": null,
        "entry": 140416,
        "entry_name": "Thai Frimpong Show",
        "event_total": 59,
        "has_played": true,
        "id": 916941,
        "last_rank": 6061,
        "player_name": "Aaron Bolton",
        "rank": 7052,
        "rank_sort": 7060,
        "total": 2407
      },
      {
        "club_badge_src": "https://fantasy.premierleague.com/gcs/plfpl-production-adobe-approved/plfpl-production/252707/943cf543-5e15-4921-bc07-fd1e45d62fa1.png",
        "entry": 252707,
        "entry_name": "Claytistutas",
        "event_total": 62,
        "has_played": true,
        "id": 1680832,
        "last_rank": 8198,
        "player_name": "James Clayton",
        "rank": 7052,
        "rank_sort": 7061,
        "total": 2407
      },
      {
        "club_badge_src": null,
        "entry": 366029,
        "entry_name": "too eze fc",
        "event_total": 71,
        "has_played": true,
        "id": 2449429,
        "last_rank": 11901,
        "player_name": "david oke",
        "rank": 7052,
        "rank_sort": 7062,
        "total": 2407
      },
      {
        "club_badge_src": "https://fantasy.premierleague.com/gcs/plfpl-production-adobe-approved/plfpl-production/877103/04896dfa-2d3f-4b12-9cd5-08f6675258e8.png",
        "entry": 877103,
        "entry_name": "Mockey vanz",
        "event_total": 53,
        "has_played": true,
        "id": 6013371,
        "last_rank": 5528,
        "player_name": "Mickey vanz",
        "rank": 7052,
        "rank_sort": 7063,
        "total": 2407
      },
      {
        "club_badge_src": null,
        "entry": 1171479,
        "entry_name": "Pass Masters",
        "event_total": 62,
        "has_played": true,
        "id": 8127064,
        "last_rank": 6887,
        "player_name": "Richard Porter",
        "rank": 7052,
        "rank_sort": 7064,
        "total": 2407
      },
      {
        "club_badge_src": null,
        "entry": 1253320,
        "entry_name": "Szob Story",
        "event_total": 75,
        "has_played": true,
        "id": 8704850,
        "last_rank": 14102,
        "player_name": "Steven Pennie",
        "rank": 7052,
        "rank_sort": 7065,
        "total": 2407
      },
      {
        "club_badge_src": null,
        "entry": 1902721,
        "entry_name": "Golden Gooners",
        "event_total": 54,
        "has_played": true,
        "id": 13413203,
        "last_rank": 5820,
        "player_name": "Ali Thompson",
        "rank": 7052,
        "rank_sort": 7066,
        "total": 2407
      },
      {
        "club_badge_src": null,
        "entry": 1967637,
        "entry_name": "JMacAttack",
        "event_total": 60,
        "has_played": true,
        "id": 13885932,
        "last_rank": 7535,
        "player_name": "Iain McLean",
        "rank": 7052,
        "rank_sort": 7067,
        "total": 2407
      },
      {
        "club_badge_src": null,
        "entry": 2288770,
        "entry_name": "MBuenos Dias",
        "event_total": 70,
        "has_played": true,
        "id": 16323011,
        "last_rank": 9711,
        "player_name": "Maas Ricky",
        "rank": 7052,
        "rank_sort": 7068,
        "total": 2407
      },
      {
        "club_badge_src": null,
        "entry": 3163369,
        "entry_name": "NK Soparnik",
        "event_total": 84,
        "has_played": true,
        "id": 23369418,
        "last_rank": 19544,
        "player_name": "Stipan Spaija",
        "rank": 7052,
        "rank_sort": 7069,
        "total": 2407
      },
      {
        "club_badge_src": null,
        "entry": 3230495,
        "entry_name": "ShawManc Redemption",
        "event_total": 72,
        "has_played": true,
        "id": 23892143,
        "last_rank": 12420,
        "player_name": "Ben O'Boyle",
        "rank": 7052,
        "rank_sort": 7070,
        "total": 2407
      },
      {
        "club_badge_src": "https://fantasy.premierleague.com/gcs/plfpl-production-adobe-approved/plfpl-production/3525291/d367360d-77cf-4783-8714-db7e7ff62d38.png",
        "entry": 3525291,
        "entry_name": "McBurnie Fanboy",
        "event_total": 62,
        "has_played": true,
        "id": 26236049,
        "last_rank": 6887,
        "player_name": "Gonzalo Arregui",
        "rank": 7052,
        "rank_sort": 7071,
        "total": 2407
      },
      {
        "club_badge_src": null,
        "entry": 3535568,
        "entry_name": "Malt Whisky Marvels",
        "event_total": 69,
        "has_played": true,
        "id": 26315852,
        "last_rank": 10992,
        "player_name": "Mark Michael",
        "rank": 7052,
        "rank_sort": 7072,
        "total": 2407
      },
      {
        "club_badge_src": null,
        "entry": 3959155,
        "entry_name": "Jaguars",
        "event_total": 55,
        "has_played": true,
        "id": 29787463,
        "last_rank": 5053,
        "player_name": "Manoj Bhatia",
        "rank": 7052,
        "rank_sort": 7073,
        "total": 2407
      },
      {
        "club_badge_src": null,
        "entry": 5518274,
        "entry_name": "Captain James 3",
        "event_total": 84,
        "has_played": true,
        "id": 43026181,
        "last_rank": 19904,
        "player_name": "Burhanuddin Zavery",
        "rank": 7052,
        "rank_sort": 7074,
        "total": 2407
      },
      {
        "club_badge_src": null,
        "entry": 6207518,
        "entry_name": "Drogba Legend FC",
        "event_total": 50,
        "has_played": true,
        "id": 49110418,
        "last_rank": 4866,
        "player_name": "Are Tuft",
        "rank": 7052,
        "rank_sort": 7075,
        "total": 2407
      },
      {
        "club_badge_src": "https://fantasy.premierleague.com/gcs/plfpl-production-adobe-approved/plfpl-production/6212393/6ac413ed-2153-4d40-8887-df9157c24f92.png",
        "entry": 6212393,
        "entry_name": "A Citehh Fc",
        "event_total": 36,
        "has_played": true,
        "id": 49151850,
        "last_rank": 2482,
        "player_name": "Jayden Gray",
        "rank": 7052,
        "rank_sort": 7076,
        "total": 2407
      },
      {
        "club_badge_src": null,
        "entry": 6945412,
        "entry_name": "Stranger Mings",
        "event_total": 61,
        "has_played": true,
        "id": 55687302,
        "last_rank": 7863,
        "player_name": "Anthony Sullivan",
        "rank": 7052,
        "rank_sort": 7077,
        "total": 2407
      },
      {
        "club_badge_src": null,
        "entry": 7945967,
        "entry_name": "BobBrudu",
        "event_total": 39,
        "has_played": true,
        "id": 65403406,
        "last_rank": 2907,
        "player_name": "Bob Brudu",
        "rank": 7052,
        "rank_sort": 7078,
        "total": 2407
      },
      {
        "club_badge_src": null,
        "entry": 8224742,
        "entry_name": "Dominuj\u0105ce Krewety",
        "event_total": 64,
        "has_played": true,
        "id": 67974799,
        "last_rank": 8977,
        "player_name": "Filip Str\u00f3mi\u0142\u0142o",
        "rank": 7052,
        "rank_sort": 7079,
        "total": 2407
      },
      {
        "club_badge_src": "https://fantasy.premierleague.com/gcs/plfpl-production-adobe-approved/plfpl-production/8853934/d8a34d33-e445-43c9-82e4-f80e7aa9ce06.png",
        "entry": 8853934,
        "entry_name": "Blankinho",
        "event_total": 65,
        "has_played": true,
        "id": 74064290,
        "last_rank": 7822,
        "player_name": "Yussof Hosanya",
        "rank": 7052,
        "rank_sort": 7080,
        "total": 2407
      },
      {
        "club_badge_src": null,
        "entry": 8902269,
        "entry_name": "Give it giggsy",
        "event_total": 56,
        "has_played": true,
        "id": 74531510,
        "last_rank": 6333,
        "player_name": "Yehudah Nevies",
        "rank": 7052,
        "rank_sort": 7081,
        "total": 2407
      },
      {
        "club_badge_src": null,
        "entry": 162797,
        "entry_name": "Botman & Robben",
        "event_total": 68,
        "has_played": true,
        "id": 1073344,
        "last_rank": 10556,
        "player_name": "Adam Morris",
        "rank": 7082,
        "rank_sort": 7082,
        "total": 2407
      },
      {
        "club_badge_src": null,
        "entry": 273021,
        "entry_name": "99 Treble Winners",
        "event_total": 58,
        "has_played": true,
        "id": 1816609,
        "last_rank": 5820,
        "player_name": "Oliver Goodison",
        "rank": 7082,
        "rank_sort": 7083,
        "total": 2407
      },
      {
        "club_badge_src": null,
        "entry": 435495,
        "entry_name": "Real fc",
        "event_total": 70,
        "has_played": true,
        "id": 2920327,
        "last_rank": 11516,
        "player_name": "Bryan Luiz",
        "rank": 7082,
        "rank_sort": 7084,
        "total": 2407
      },
      {
        "club_badge_src": null,
        "entry": 679805,
        "entry_name": "Youknowlesthescore",
        "event_total": 66,
        "has_played": true,
        "id": 4600170,
        "last_rank": 9775,
        "player_name": "Martin Knowles",
        "rank": 7082,
        "rank_sort": 7085,
        "total": 2407
      },
      {
        "club_badge_src": null,
        "entry": 813760,
        "entry_name": "Anno Dominik",
        "event_total": 53,
        "has_played": true,
        "id": 5572350,
        "last_rank": 4644,
        "player_name": "Gyula Bartha",
        "rank": 7082,
        "rank_sort": 7086,
        "total": 2407
      },
      {
        "club_badge_src": null,
        "entry": 854192,
        "entry_name": "Kinder Mbeumo",
        "event_total": 69,
        "has_played": true,
        "id": 5855112,
        "last_rank": 10992,
        "player_name": "Jack van de Water",
        "rank": 7082,
        "rank_sort": 7087,
        "total": 2407
      },
      {
        "club_badge_src": null,
        "entry": 925209,
        "entry_name": "Rodri, You Plonker!",
        "event_total": 71,
        "has_played": true,
        "id": 6364822,
        "last_rank": 10151,
        "player_name": "Paul Simpson",
        "rank": 7082,
        "rank_sort": 7088,
        "total": 2407
      },
      {
        "club_badge_src": "https://fantasy.premierleague.com/gcs/plfpl-production-adobe-approved/plfpl-production/1471148/657a3a1f-d5b8-45fe-8817-83d1c1b76d14.png",
        "entry": 1471148,
        "entry_name": "Onion Bag",
        "event_total": 74,
        "has_played": true,
        "id": 10254636,
        "last_rank": 13601,
        "player_name": "Ian Thompson",
        "rank": 7082,
        "rank_sort": 7089,
        "total": 2407
      },
      {
        "club_badge_src": null,
        "entry": 1797135,
        "entry_name": "Gerakari",
        "event_total": 67,
        "has_played": true,
        "id": 12629479,
        "last_rank": 10173,
        "player_name": "Claudia Timm McLady",
        "rank": 7082,
        "rank_sort": 7090,
        "total": 2407
      },
      {
        "club_badge_src": null,
        "entry": 3072730,
        "entry_name": "Pinguball",
        "event_total": 67,
        "has_played": true,
        "id": 22626520,
        "last_rank": 8591,
        "player_name": "Lauri Mattila",
        "rank": 7082,
        "rank_sort": 7091,
        "total": 2407
      },
      {
        "club_badge_src": null,
        "entry": 4779610,
        "entry_name": "Gerard",
        "event_total": 49,
        "has_played": true,
        "id": 36793210,
        "last_rank": 4657,
        "player_name": "Ekene Okafor",
        "rank": 7082,
        "rank_sort": 7092,
        "total": 2407
      },
      {
        "club_badge_src": null,
        "entry": 5010675,
        "entry_name": "JoeJ FC",
        "event_total": 61,
        "has_played": true,
        "id": 38693307,
        "last_rank": 5528,
        "player_name": "Joe Jaturavith",
        "rank": 7082,
        "rank_sort": 7093,
        "total": 2407
      },
      {
        "club_badge_src": "https://fantasy.premierleague.com/gcs/plfpl-production-adobe-approved/plfpl-production/5400370/e7fae4ef-a469-4b9b-8431-91063f070935.png",
        "entry": 5400370,
        "entry_name": "Maro-_-",
        "event_total": 63,
        "has_played": true,
        "id": 41989141,
        "last_rank": 8617,
        "player_name": "Maro Marwan",
        "rank": 7082,
        "rank_sort": 7094,
        "total": 2407
      },
      {
        "club_badge_src": null,
        "entry": 6961107,
        "entry_name": "Wirtz Nightmare",
        "event_total": 69,
        "has_played": true,
        "id": 55826547,
        "last_rank": 10992,
        "player_name": "Bevan Adin",
        "rank": 7082,
        "rank_sort": 7095,
        "total": 2407
      },
      {
        "club_badge_src": null,
        "entry": 6970218,
        "entry_name": "Amorimageddon",
        "event_total": 53,
        "has_played": true,
        "id": 55912085,
        "last_rank": 5560,
        "player_name": "Hassan Hridoy",
        "rank": 7082,
        "rank_sort": 7096,
        "total": 2407
      },
      {
        "club_badge_src": null,
        "entry": 7689547,
        "entry_name": "De g\u00e6ve gutter",
        "event_total": 53,
        "has_played": true,
        "id": 63077539,
        "last_rank": 4644,
        "player_name": "Simon Roesen",
        "rank": 7082,
        "rank_sort": 7097,
        "total": 2407
      },
      {
        "club_badge_src": "https://fantasy.premierleague.com/gcs/plfpl-production-adobe-approved/plfpl-production/8313252/976dc54c-c278-40c6-96b1-7c4b76ad3363.png",
        "entry": 8313252,
        "entry_name": "Randiga ben",
        "event_total": 63,
        "has_played": true,
        "id": 68849733,
        "last_rank": 8591,
        "player_name": "Markus Hlgfeldt",
        "rank": 7082,
        "rank_sort": 7098,
        "total": 2407
      },
      {
        "club_badge_src": null,
        "entry": 8949567,
        "entry_name": "Tentwa FC",
        "event_total": 68,
        "has_played": true,
        "id": 74994885,
        "last_rank": 10462,
        "player_name": "Mutendwa Lumadi",
        "rank": 7082,
        "rank_sort": 7099,
        "total": 2407
      },
      {
        "club_badge_src": null,
        "entry": 35451,
        "entry_name": "QFC.",
        "event_total": 64,
        "has_played": true,
        "id": 226877,
        "last_rank": 9015,
        "player_name": "Kwaku Asafo-Boakye",
        "rank": 7100,
        "rank_sort": 7100,
        "total": 2407
      }
    ]
  }
}