{
  "last_updated_data": "2026-05-24T23:28:17Z",
  "league": {
    "admin_entry": null,
    "closed": false,
    "code_privacy": "p",
    "created": "2025-07-20T23:14:33.933835Z",
    "cup_league": 2815434,
    "has_cup": true,
    "id": 314,
    "league_type": "s",
    "max_entries": null,
    "name": "Overall",
    "rank": null,
    "scoring": "c",
    "start_event": 1
  },
  "new_entries": {
    "has_next": false,
    "page": 1,
    "results": []
  },
  "standings": {
    "has_next": true,
    "page": 877,
    "results": [
      {
        "club_badge_src": null,
        "entry": 1265773,
        "entry_name": "BADMEN",
        "event_total": 62,
        "has_played": true,
        "id": 8794813,
        "last_rank": 51137,
        "player_name": "Jesse Mshana",
        "rank": 43702,
        "rank_sort": 43801,
        "total": 2356
      },
      {
        "club_badge_src": null,
        "entry": 1266346,
        "entry_name": "PF101",
        "event_total": 59,
        "has_played": true,
        "id": 8798788,
        "last_rank": 46660,
        "player_name": "Paul Freeman",
        "rank": 43702,
        "rank_sort": 43802,
        "total": 2356
      },
      {
        "club_badge_src": null,
        "entry": 1281027,
        "entry_name": "chickentikkamosalah",
        "event_total": 68,
        "has_played": true,
        "id": 8901494,
        "last_rank": 61411,
        "player_name": "Ben Ying",
        "rank": 43702,
        "rank_sort": 43803,
        "total": 2356
      },
      {
        "club_badge_src": null,
        "entry": 1328929,
        "entry_name": "Pompey657",
        "event_total": 60,
        "has_played": true,
        "id": 9237033,
        "last_rank": 48363,
        "player_name": "Isaac Thom",
        "rank": 43702,
        "rank_sort": 43804,
        "total": 2356
      },
      {
        "club_badge_src": "https://fantasy.premierleague.com/gcs/plfpl-production-adobe-approved/plfpl-production/1365468/7eba8eef-328b-4ca8-a3ee-b0edba8d8f08.png",
        "entry": 1365468,
        "entry_name": "A Cunha Mateta",
        "event_total": 67,
        "has_played": true,
        "id": 9492220,
        "last_rank": 59813,
        "player_name": "Zach Ferris",
        "rank": 43702,
        "rank_sort": 43805,
        "total": 2356
      },
      {
        "club_badge_src": null,
        "entry": 1386719,
        "entry_name": "KanuFeelIt",
        "event_total": 39,
        "has_played": true,
        "id": 9645173,
        "last_rank": 24143,
        "player_name": "Henry Bridgland",
        "rank": 43702,
        "rank_sort": 43806,
        "total": 2356
      },
      {
        "club_badge_src": null,
        "entry": 1442545,
        "entry_name": "Gugge FC",
        "event_total": 41,
        "has_played": true,
        "id": 10051961,
        "last_rank": 25776,
        "player_name": "Geir Olav Breistein",
        "rank": 43702,
        "rank_sort": 43807,
        "total": 2356
      },
      {
        "club_badge_src": null,
        "entry": 1467055,
        "entry_name": "A Work of Arteta",
        "event_total": 50,
        "has_played": true,
        "id": 10226005,
        "last_rank": 35166,
        "player_name": "Archie Taylor-Salmon",
        "rank": 43702,
        "rank_sort": 43808,
        "total": 2356
      },
      {
        "club_badge_src": null,
        "entry": 1471197,
        "entry_name": "Deki11",
        "event_total": 52,
        "has_played": true,
        "id": 10254980,
        "last_rank": 37435,
        "player_name": "Dejan Rasevic",
        "rank": 43702,
        "rank_sort": 43809,
        "total": 2356
      },
      {
        "club_badge_src": null,
        "entry": 1476426,
        "entry_name": "Hitting and sciring",
        "event_total": 57,
        "has_played": true,
        "id": 10292319,
        "last_rank": 44048,
        "player_name": "Fedor Hutornoy",
        "rank": 43702,
        "rank_sort": 43810,
        "total": 2356
      },
      {
        "club_badge_src": null,
        "entry": 1481518,
        "entry_name": "Frank's Galacticos",
        "event_total": 75,
        "has_played": true,
        "id": 10330866,
        "last_rank": 74787,
        "player_name": "Frank Kamara",
        "rank": 43702,
        "rank_sort": 43811,
        "total": 2356
      },
      {
        "club_badge_src": null,
        "entry": 1504424,
        "entry_name": "Wirtz Case Scenario",
        "event_total": 70,
        "has_played": true,
        "id": 10492035,
        "last_rank": 64943,
        "player_name": "Josh Brown",
        "rank": 43702,
        "rank_sort": 43812,
        "total": 2356
      },
      {
        "club_badge_src": null,
        "entry": 1515441,
        "entry_name": "T",
        "event_total": 69,
        "has_played": true,
        "id": 10569763,
        "last_rank": 63390,
        "player_name": "Tuo Li",
        "rank": 43702,
        "rank_sort": 43813,
        "total": 2356
      },
      {
        "club_badge_src": null,
        "entry": 1539336,
        "entry_name": "Piccalilli Shinpads",
        "event_total": 63,
        "has_played": true,
        "id": 10743371,
        "last_rank": 52853,
        "player_name": "Ed Jones",
        "rank": 43702,
        "rank_sort": 43814,
        "total": 2356
      },
      {
        "club_badge_src": null,
        "entry": 1550105,
        "entry_name": "Salah-vating",
        "event_total": 46,
        "has_played": true,
        "id": 10822698,
        "last_rank": 30727,
        "player_name": "Alan Bright",
        "rank": 43702,
        "rank_sort": 43815,
        "total": 2356
      },
      {
        "club_badge_src": null,
        "entry": 1558317,
        "entry_name": "Bilbao Baggins",
        "event_total": 43,
        "has_played": true,
        "id": 10882242,
        "last_rank": 27644,
        "player_name": "Jon Gough",
        "rank": 43702,
        "rank_sort": 43816,
        "total": 2356
      },
      {
        "club_badge_src": null,
        "entry": 1580711,
        "entry_name": "FC Tang",
        "event_total": 67,
        "has_played": true,
        "id": 11045848,
        "last_rank": 59632,
        "player_name": "M\u00e5ns Tangvald",
        "rank": 43702,
        "rank_sort": 43817,
        "total": 2356
      },
      {
        "club_badge_src": null,
        "entry": 1600235,
        "entry_name": "MARsenal",
        "event_total": 64,
        "has_played": true,
        "id": 11194636,
        "last_rank": 54494,
        "player_name": "Marwan Balubaid",
        "rank": 43702,
        "rank_sort": 43818,
        "total": 2356
      },
      {
        "club_badge_src": null,
        "entry": 1616695,
        "entry_name": "King-Pullen United",
        "event_total": 76,
        "has_played": true,
        "id": 11312732,
        "last_rank": 77258,
        "player_name": "Daniel King",
        "rank": 43702,
        "rank_sort": 43819,
        "total": 2356
      },
      {
        "club_badge_src": null,
        "entry": 1667019,
        "entry_name": "Beef Cherki",
        "event_total": 84,
        "has_played": true,
        "id": 11671438,
        "last_rank": 95890,
        "player_name": "Ryan Verney",
        "rank": 43702,
        "rank_sort": 43820,
        "total": 2356
      },
      {
        "club_badge_src": null,
        "entry": 1703442,
        "entry_name": "Bielsa's Bucket",
        "event_total": 59,
        "has_played": true,
        "id": 11932821,
        "last_rank": 46839,
        "player_name": "Dale Hunt",
        "rank": 43702,
        "rank_sort": 43821,
        "total": 2356
      },
      {
        "club_badge_src": null,
        "entry": 1708699,
        "entry_name": "Juan does Mata",
        "event_total": 56,
        "has_played": true,
        "id": 11971645,
        "last_rank": 42940,
        "player_name": "Rhiannon Raggett",
        "rank": 43702,
        "rank_sort": 43822,
        "total": 2356
      },
      {
        "club_badge_src": null,
        "entry": 1716394,
        "entry_name": "Sacked in the Mornin",
        "event_total": 54,
        "has_played": true,
        "id": 12028083,
        "last_rank": 40036,
        "player_name": "Jani J\u00e4rvinen",
        "rank": 43702,
        "rank_sort": 43823,
        "total": 2356
      },
      {
        "club_badge_src": null,
        "entry": 1718042,
        "entry_name": "Men with van de Ven",
        "event_total": 55,
        "has_played": true,
        "id": 12040337,
        "last_rank": 41324,
        "player_name": "Max Doone",
        "rank": 43702,
        "rank_sort": 43824,
        "total": 2356
      },
      {
        "club_badge_src": null,
        "entry": 1732790,
        "entry_name": "KAROGLAN FC",
        "event_total": 59,
        "has_played": true,
        "id": 12154705,
        "last_rank": 46839,
        "player_name": "Pedro Sarmento",
        "rank": 43702,
        "rank_sort": 43825,
        "total": 2356
      },
      {
        "club_badge_src": null,
        "entry": 1749618,
        "entry_name": "Hamburger Jung",
        "event_total": 72,
        "has_played": true,
        "id": 12278197,
        "last_rank": 68585,
        "player_name": "Robert Geller",
        "rank": 43702,
        "rank_sort": 43826,
        "total": 2356
      },
      {
        "club_badge_src": null,
        "entry": 1760799,
        "entry_name": "Meriam Menangan",
        "event_total": 57,
        "has_played": true,
        "id": 12362772,
        "last_rank": 43849,
        "player_name": "Hendra Husni",
        "rank": 43702,
        "rank_sort": 43827,
        "total": 2356
      },
      {
        "club_badge_src": null,
        "entry": 1766264,
        "entry_name": "MoayadTarawneh",
        "event_total": 50,
        "has_played": true,
        "id": 12406231,
        "last_rank": 35166,
        "player_name": "Moayad Trawneh",
        "rank": 43702,
        "rank_sort": 43828,
        "total": 2356
      },
      {
        "club_badge_src": null,
        "entry": 1906964,
        "entry_name": "Rovers United",
        "event_total": 53,
        "has_played": true,
        "id": 13443755,
        "last_rank": 38774,
        "player_name": "Henrik B\u00e4ck",
        "rank": 43702,
        "rank_sort": 43829,
        "total": 2356
      },
      {
        "club_badge_src": null,
        "entry": 1946781,
        "entry_name": "Don007",
        "event_total": 65,
        "has_played": true,
        "id": 13732374,
        "last_rank": 56099,
        "player_name": "Don Morgan",
        "rank": 43702,
        "rank_sort": 43830,
        "total": 2356
      },
      {
        "club_badge_src": null,
        "entry": 1967812,
        "entry_name": "ChickenTikkaMoSalah",
        "event_total": 69,
        "has_played": true,
        "id": 13887242,
        "last_rank": 63390,
        "player_name": "Cavan Atkinson",
        "rank": 43702,
        "rank_sort": 43831,
        "total": 2356
      },
      {
        "club_badge_src": null,
        "entry": 1968725,
        "entry_name": "SalahMadeTeam",
        "event_total": 58,
        "has_played": true,
        "id": 13894199,
        "last_rank": 45144,
        "player_name": "S P",
        "rank": 43702,
        "rank_sort": 43832,
        "total": 2356
      },
      {
        "club_badge_src": null,
        "entry": 1986370,
        "entry_name": "Ugarte be kidding me",
        "event_total": 52,
        "has_played": true,
        "id": 14031483,
        "last_rank": 37589,
        "player_name": "Ollie Brandon",
        "rank": 43702,
        "rank_sort": 43833,
        "total": 2356
      },
      {
        "club_badge_src": null,
        "entry": 2020452,
        "entry_name": "Chimpos Chumps",
        "event_total": 61,
        "has_played": true,
        "id": 14296621,
        "last_rank": 49607,
        "player_name": "Dan Dollard",
        "rank": 43702,
        "rank_sort": 43834,
        "total": 2356
      },
      {
        "club_badge_src": "https://fantasy.premierleague.com/gcs/plfpl-production-adobe-approved/plfpl-production/2029737/4230888f-564c-4890-a653-f5033b2e6788.png",
        "entry": 2029737,
        "entry_name": "Snoop Udogie Dogg",
        "event_total": 59,
        "has_played": true,
        "id": 14369719,
        "last_rank": 46591,
        "player_name": "Elias Kadri",
        "rank": 43702,
        "rank_sort": 43835,
        "total": 2356
      },
      {
        "club_badge_src": null,
        "entry": 2039367,
        "entry_name": "SPIDERMANU",
        "event_total": 57,
        "has_played": true,
        "id": 14441516,
        "last_rank": 43849,
        "player_name": "Ashley Wood",
        "rank": 43702,
        "rank_sort": 43836,
        "total": 2356
      },
      {
        "club_badge_src": "https://fantasy.premierleague.com/gcs/plfpl-production-adobe-approved/plfpl-production/2129729/4c95f6f2-6311-43ea-b471-0342cdb5e51a.png",
        "entry": 2129729,
        "entry_name": "Plantar Wirtz",
        "event_total": 50,
        "has_played": true,
        "id": 15133590,
        "last_rank": 35166,
        "player_name": "Matt Stone",
        "rank": 43702,
        "rank_sort": 43837,
        "total": 2356
      },
      {
        "club_badge_src": null,
        "entry": 2132650,
        "entry_name": "Gang of 11",
        "event_total": 65,
        "has_played": true,
        "id": 15155172,
        "last_rank": 56180,
        "player_name": "casper dillen",
        "rank": 43702,
        "rank_sort": 43838,
        "total": 2356
      },
      {
        "club_badge_src": null,
        "entry": 2302684,
        "entry_name": "Cool Beans",
        "event_total": 58,
        "has_played": true,
        "id": 16423775,
        "last_rank": 45416,
        "player_name": "Mads J\u00f8rgensen",
        "rank": 43702,
        "rank_sort": 43839,
        "total": 2356
      },
      {
        "club_badge_src": null,
        "entry": 2347079,
        "entry_name": "SAJJAD AQEEL",
        "event_total": 27,
        "has_played": true,
        "id": 16747223,
        "last_rank": 15694,
        "player_name": "SAJJAD ALTURFI",
        "rank": 43702,
        "rank_sort": 43840,
        "total": 2356
      },
      {
        "club_badge_src": null,
        "entry": 2358134,
        "entry_name": "Patience is a virtue",
        "event_total": 95,
        "has_played": true,
        "id": 16826765,
        "last_rank": 126088,
        "player_name": "Juinn Guan Tan",
        "rank": 43702,
        "rank_sort": 43841,
        "total": 2356
      },
      {
        "club_badge_src": null,
        "entry": 2388855,
        "entry_name": "Victor Moses Lawn",
        "event_total": 58,
        "has_played": true,
        "id": 17062987,
        "last_rank": 45416,
        "player_name": "Joshua Coulter",
        "rank": 43702,
        "rank_sort": 43842,
        "total": 2356
      },
      {
        "club_badge_src": null,
        "entry": 2391267,
        "entry_name": "Salahmander",
        "event_total": 72,
        "has_played": true,
        "id": 17081545,
        "last_rank": 61411,
        "player_name": "Terje Kleppe",
        "rank": 43702,
        "rank_sort": 43843,
        "total": 2356
      },
      {
        "club_badge_src": null,
        "entry": 2394194,
        "entry_name": "Howe big?Elanganough",
        "event_total": 53,
        "has_played": true,
        "id": 17103510,
        "last_rank": 38571,
        "player_name": "Sam Hall",
        "rank": 43702,
        "rank_sort": 43844,
        "total": 2356
      },
      {
        "club_badge_src": null,
        "entry": 2409222,
        "entry_name": "Locomotiv Tractor",
        "event_total": 43,
        "has_played": true,
        "id": 17221095,
        "last_rank": 27644,
        "player_name": "Paul Gaught-Allen",
        "rank": 43702,
        "rank_sort": 43845,
        "total": 2356
      },
      {
        "club_badge_src": null,
        "entry": 2424381,
        "entry_name": "Archeezie FC",
        "event_total": 55,
        "has_played": true,
        "id": 17334452,
        "last_rank": 41162,
        "player_name": "Archie Baughan",
        "rank": 43702,
        "rank_sort": 43846,
        "total": 2356
      },
      {
        "club_badge_src": "https://fantasy.premierleague.com/gcs/plfpl-production-adobe-approved/plfpl-production/2429708/669964c6-9f91-4573-9ea2-b4063b067e02.png",
        "entry": 2429708,
        "entry_name": "Wolfpack!",
        "event_total": 56,
        "has_played": true,
        "id": 17373813,
        "last_rank": 42648,
        "player_name": "Ricky Stevens",
        "rank": 43702,
        "rank_sort": 43847,
        "total": 2356
      },
      {
        "club_badge_src": null,
        "entry": 2503615,
        "entry_name": "The Osula Suspects",
        "event_total": 52,
        "has_played": true,
        "id": 17928202,
        "last_rank": 37589,
        "player_name": "Troels Ussing",
        "rank": 43702,
        "rank_sort": 43848,
        "total": 2356
      },
      {
        "club_badge_src": null,
        "entry": 2586980,
        "entry_name": "Riders of Rohan",
        "event_total": 51,
        "has_played": true,
        "id": 18571281,
        "last_rank": 36348,
        "player_name": "Tobe Azikiwe",
        "rank": 43702,
        "rank_sort": 43849,
        "total": 2356
      },
      {
        "club_badge_src": null,
        "entry": 2602760,
        "entry_name": "Lions Den 3.0",
        "event_total": 65,
        "has_played": true,
        "id": 18694559,
        "last_rank": 56369,
        "player_name": "Nitin Menon",
        "rank": 43702,
        "rank_sort": 43850,
        "total": 2356
      }
    ]
  }
}