{
  "last_updated_data": "2026-05-24T23:28:17Z",
  "league": {
    "admin_entry": null,
    "closed": false,
    "code_privacy": "p",
    "created": "2025-07-20T23:14:33.933835Z",
    "cup_league": 2815434,
    "has_cup": true,
    "id": 314,
    "league_type": "s",
    "max_entries": null,
    "name": "Overall",
    "rank": null,
    "scoring": "c",
    "start_event": 1
  },
  "new_entries": {
    "has_next": false,
    "page": 1,
    "results": []
  },
  "standings": {
    "has_next": true,
    "page": 1145,
    "results": [
      {
        "club_badge_src": null,
        "entry": 5624888,
        "entry_name": "Cole's rolls & 'megs",
        "event_total": 53,
        "has_played": true,
        "id": 43972564,
        "last_rank": 51220,
        "player_name": "Nic Brisbourne",
        "rank": 57135,
        "rank_sort": 57201,
        "total": 2347
      },
      {
        "club_badge_src": null,
        "entry": 5657794,
        "entry_name": "VAR FC",
        "event_total": 60,
        "has_played": true,
        "id": 44263298,
        "last_rank": 63201,
        "player_name": "Nicolas Zuluaga",
        "rank": 57135,
        "rank_sort": 57202,
        "total": 2347
      },
      {
        "club_badge_src": null,
        "entry": 5809435,
        "entry_name": "Mbeumtown Rats",
        "event_total": 53,
        "has_played": true,
        "id": 45581385,
        "last_rank": 51220,
        "player_name": "Richard Maddock",
        "rank": 57135,
        "rank_sort": 57203,
        "total": 2347
      },
      {
        "club_badge_src": null,
        "entry": 6059132,
        "entry_name": "DC FC \u2606",
        "event_total": 46,
        "has_played": true,
        "id": 47818550,
        "last_rank": 41324,
        "player_name": "David Currie",
        "rank": 57135,
        "rank_sort": 57204,
        "total": 2347
      },
      {
        "club_badge_src": "https://fantasy.premierleague.com/gcs/plfpl-production-adobe-approved/plfpl-production/6246698/54972f04-01e9-4573-9628-8de07ff7c1f4.png",
        "entry": 6246698,
        "entry_name": "Fully_Doded",
        "event_total": 59,
        "has_played": true,
        "id": 49446416,
        "last_rank": 61606,
        "player_name": "Dode Summerhays",
        "rank": 57135,
        "rank_sort": 57205,
        "total": 2347
      },
      {
        "club_badge_src": null,
        "entry": 6250564,
        "entry_name": "I Can Run & I Can",
        "event_total": 76,
        "has_played": true,
        "id": 49479824,
        "last_rank": 98073,
        "player_name": "Hide With the title \ud83d\ude02",
        "rank": 57135,
        "rank_sort": 57206,
        "total": 2347
      },
      {
        "club_badge_src": null,
        "entry": 6287043,
        "entry_name": "Sakernator FC",
        "event_total": 57,
        "has_played": true,
        "id": 49805164,
        "last_rank": 57776,
        "player_name": "Adam Sakers",
        "rank": 57135,
        "rank_sort": 57207,
        "total": 2347
      },
      {
        "club_badge_src": null,
        "entry": 6425375,
        "entry_name": "TKUTD",
        "event_total": 65,
        "has_played": true,
        "id": 51145084,
        "last_rank": 73038,
        "player_name": "Taz Kapur",
        "rank": 57135,
        "rank_sort": 57208,
        "total": 2347
      },
      {
        "club_badge_src": "https://fantasy.premierleague.com/gcs/plfpl-production-adobe-approved/plfpl-production/6531122/4618b875-26f4-4871-a096-439decd0642d.png",
        "entry": 6531122,
        "entry_name": "Slabhead XI",
        "event_total": 70,
        "has_played": true,
        "id": 52099176,
        "last_rank": 83934,
        "player_name": "Jonny Cannon",
        "rank": 57135,
        "rank_sort": 57209,
        "total": 2347
      },
      {
        "club_badge_src": null,
        "entry": 6660982,
        "entry_name": "Dalot of the Rings",
        "event_total": 57,
        "has_played": true,
        "id": 53265261,
        "last_rank": 58071,
        "player_name": "David Zembsch",
        "rank": 57135,
        "rank_sort": 57210,
        "total": 2347
      },
      {
        "club_badge_src": null,
        "entry": 6710191,
        "entry_name": "Rutter woke nonsense",
        "event_total": 48,
        "has_played": true,
        "id": 53699103,
        "last_rank": 43849,
        "player_name": "Ben Marshall",
        "rank": 57135,
        "rank_sort": 57211,
        "total": 2347
      },
      {
        "club_badge_src": null,
        "entry": 6896851,
        "entry_name": "backstreet moyes",
        "event_total": 44,
        "has_played": true,
        "id": 55278109,
        "last_rank": 38774,
        "player_name": "\u00dalfur Stef\u00e1nsson",
        "rank": 57135,
        "rank_sort": 57212,
        "total": 2347
      },
      {
        "club_badge_src": null,
        "entry": 6921741,
        "entry_name": "Oteifas",
        "event_total": 37,
        "has_played": true,
        "id": 55486400,
        "last_rank": 30536,
        "player_name": "Mohamed Oteifa",
        "rank": 57135,
        "rank_sort": 57213,
        "total": 2347
      },
      {
        "club_badge_src": "https://fantasy.premierleague.com/gcs/plfpl-production-adobe-approved/plfpl-production/6924070/b8ac5089-0a1a-4271-b6c1-6293ee799397.png",
        "entry": 6924070,
        "entry_name": "Pyramids United FC",
        "event_total": 50,
        "has_played": true,
        "id": 55505429,
        "last_rank": 46839,
        "player_name": "David Siha",
        "rank": 57135,
        "rank_sort": 57214,
        "total": 2347
      },
      {
        "club_badge_src": null,
        "entry": 7101682,
        "entry_name": "City TeeVee",
        "event_total": 56,
        "has_played": true,
        "id": 57191559,
        "last_rank": 56180,
        "player_name": "Tim Vrenken",
        "rank": 57135,
        "rank_sort": 57215,
        "total": 2347
      },
      {
        "club_badge_src": null,
        "entry": 7121695,
        "entry_name": "Real Madrid Fc",
        "event_total": 72,
        "has_played": true,
        "id": 57382057,
        "last_rank": 88594,
        "player_name": "Mohammad Jawaheer",
        "rank": 57135,
        "rank_sort": 57216,
        "total": 2347
      },
      {
        "club_badge_src": null,
        "entry": 7358543,
        "entry_name": "Guardians of goals",
        "event_total": 67,
        "has_played": true,
        "id": 59628371,
        "last_rank": 76885,
        "player_name": "Ruth Leuillette",
        "rank": 57135,
        "rank_sort": 57217,
        "total": 2347
      },
      {
        "club_badge_src": null,
        "entry": 7616767,
        "entry_name": "Pure",
        "event_total": 71,
        "has_played": true,
        "id": 62417449,
        "last_rank": 86304,
        "player_name": "Amr Taher",
        "rank": 57135,
        "rank_sort": 57218,
        "total": 2347
      },
      {
        "club_badge_src": null,
        "entry": 7883926,
        "entry_name": "pep.malek",
        "event_total": 67,
        "has_played": true,
        "id": 64839709,
        "last_rank": 76947,
        "player_name": "Mohamad Ali",
        "rank": 57135,
        "rank_sort": 57219,
        "total": 2347
      },
      {
        "club_badge_src": null,
        "entry": 8412914,
        "entry_name": "ThisThatThis",
        "event_total": 60,
        "has_played": true,
        "id": 69798710,
        "last_rank": 63080,
        "player_name": "Joel Ng",
        "rank": 57135,
        "rank_sort": 57220,
        "total": 2347
      },
      {
        "club_badge_src": null,
        "entry": 8429271,
        "entry_name": "prismfc",
        "event_total": 42,
        "has_played": true,
        "id": 69957882,
        "last_rank": 36348,
        "player_name": "Pandu Dewanatha",
        "rank": 57135,
        "rank_sort": 57221,
        "total": 2347
      },
      {
        "club_badge_src": null,
        "entry": 8517923,
        "entry_name": "Red Arsenal Star",
        "event_total": 78,
        "has_played": true,
        "id": 70810434,
        "last_rank": 103054,
        "player_name": "Denis Danevski",
        "rank": 57135,
        "rank_sort": 57222,
        "total": 2347
      },
      {
        "club_badge_src": null,
        "entry": 8529734,
        "entry_name": "\u7d05\u9b54 \u4f86\u5230\u4f86\u4e86(>\ufe4f<)",
        "event_total": 53,
        "has_played": true,
        "id": 70924196,
        "last_rank": 51403,
        "player_name": "CaL Kan",
        "rank": 57135,
        "rank_sort": 57223,
        "total": 2347
      },
      {
        "club_badge_src": null,
        "entry": 8892099,
        "entry_name": "Macabra",
        "event_total": 67,
        "has_played": true,
        "id": 74432019,
        "last_rank": 77050,
        "player_name": "Damien Murray",
        "rank": 57135,
        "rank_sort": 57224,
        "total": 2347
      },
      {
        "club_badge_src": null,
        "entry": 9717866,
        "entry_name": "Klopps and Robbers",
        "event_total": 62,
        "has_played": true,
        "id": 82453385,
        "last_rank": 66848,
        "player_name": "Robert Hales",
        "rank": 57135,
        "rank_sort": 57225,
        "total": 2347
      },
      {
        "club_badge_src": null,
        "entry": 10293921,
        "entry_name": "Jitterbugs",
        "event_total": 55,
        "has_played": true,
        "id": 87167356,
        "last_rank": 54494,
        "player_name": "Jack Otter",
        "rank": 57135,
        "rank_sort": 57226,
        "total": 2347
      },
      {
        "club_badge_src": "https://fantasy.premierleague.com/gcs/plfpl-production-adobe-approved/plfpl-production/1048/d2f23d98-d874-4201-afe5-8a1756df5bfb.png",
        "entry": 1048,
        "entry_name": "Mo Colectors",
        "event_total": 44,
        "has_played": true,
        "id": 5814,
        "last_rank": 38774,
        "player_name": "Daniel Gianni",
        "rank": 57227,
        "rank_sort": 57227,
        "total": 2347
      },
      {
        "club_badge_src": null,
        "entry": 1090,
        "entry_name": "Kinder Mbeumo",
        "event_total": 59,
        "has_played": true,
        "id": 6048,
        "last_rank": 61411,
        "player_name": "Lee Newbould",
        "rank": 57227,
        "rank_sort": 57228,
        "total": 2347
      },
      {
        "club_badge_src": null,
        "entry": 1167,
        "entry_name": "Aert Work",
        "event_total": 70,
        "has_played": true,
        "id": 6476,
        "last_rank": 83534,
        "player_name": "Adam McInerney",
        "rank": 57227,
        "rank_sort": 57229,
        "total": 2347
      },
      {
        "club_badge_src": null,
        "entry": 2769,
        "entry_name": "Alisson Wonderland",
        "event_total": 43,
        "has_played": true,
        "id": 15551,
        "last_rank": 37435,
        "player_name": "Azeem Hoque",
        "rank": 57227,
        "rank_sort": 57230,
        "total": 2347
      },
      {
        "club_badge_src": null,
        "entry": 5315,
        "entry_name": "Choccy Pies",
        "event_total": 55,
        "has_played": true,
        "id": 30295,
        "last_rank": 54494,
        "player_name": "Thomas Sydenham",
        "rank": 57227,
        "rank_sort": 57231,
        "total": 2347
      },
      {
        "club_badge_src": "https://fantasy.premierleague.com/gcs/plfpl-production-adobe-approved/plfpl-production/5394/ea936674-b9ee-422d-b651-2019062c5802.png",
        "entry": 5394,
        "entry_name": "Globetrotters",
        "event_total": 42,
        "has_played": true,
        "id": 30740,
        "last_rank": 36200,
        "player_name": "Marcus Lindholm",
        "rank": 57227,
        "rank_sort": 57232,
        "total": 2347
      },
      {
        "club_badge_src": "https://fantasy.premierleague.com/gcs/plfpl-production-adobe-approved/plfpl-production/6422/4b174770-f1b2-4fff-9ea8-4f260eb66000.png",
        "entry": 6422,
        "entry_name": "Horpeh United",
        "event_total": 55,
        "has_played": true,
        "id": 36844,
        "last_rank": 55014,
        "player_name": "Adeniji Opeyemi",
        "rank": 57227,
        "rank_sort": 57233,
        "total": 2347
      },
      {
        "club_badge_src": "https://fantasy.premierleague.com/gcs/plfpl-production-adobe-approved/plfpl-production/8145/3b5a6b60-3cb9-4293-8981-62d8f994bc0f.png",
        "entry": 8145,
        "entry_name": "The 20 Minuters",
        "event_total": 67,
        "has_played": true,
        "id": 47188,
        "last_rank": 77050,
        "player_name": "John Lloyd",
        "rank": 57227,
        "rank_sort": 57234,
        "total": 2347
      },
      {
        "club_badge_src": null,
        "entry": 9526,
        "entry_name": "Go Sports",
        "event_total": 25,
        "has_played": true,
        "id": 56030,
        "last_rank": 20280,
        "player_name": "Charlotte Currie",
        "rank": 57227,
        "rank_sort": 57235,
        "total": 2347
      },
      {
        "club_badge_src": null,
        "entry": 10269,
        "entry_name": "GentleXI",
        "event_total": 54,
        "has_played": true,
        "id": 60658,
        "last_rank": 52853,
        "player_name": "Colin Brennan",
        "rank": 57227,
        "rank_sort": 57236,
        "total": 2347
      },
      {
        "club_badge_src": null,
        "entry": 12107,
        "entry_name": "Ekitike Taka",
        "event_total": 50,
        "has_played": true,
        "id": 72245,
        "last_rank": 47163,
        "player_name": "Tarren Sidhu",
        "rank": 57227,
        "rank_sort": 57237,
        "total": 2347
      },
      {
        "club_badge_src": null,
        "entry": 13925,
        "entry_name": "Bridgey United",
        "event_total": 71,
        "has_played": true,
        "id": 84344,
        "last_rank": 86054,
        "player_name": "Ben Bridge",
        "rank": 57227,
        "rank_sort": 57238,
        "total": 2347
      },
      {
        "club_badge_src": null,
        "entry": 14780,
        "entry_name": "INVINCIBLE",
        "event_total": 54,
        "has_played": true,
        "id": 90100,
        "last_rank": 52853,
        "player_name": "Adir Shimshi",
        "rank": 57227,
        "rank_sort": 57239,
        "total": 2347
      },
      {
        "club_badge_src": null,
        "entry": 15603,
        "entry_name": "AFC Richmond",
        "event_total": 69,
        "has_played": true,
        "id": 95897,
        "last_rank": 81646,
        "player_name": "Yash Joshi",
        "rank": 57227,
        "rank_sort": 57240,
        "total": 2347
      },
      {
        "club_badge_src": null,
        "entry": 18669,
        "entry_name": "Best Batch Yet",
        "event_total": 64,
        "has_played": true,
        "id": 116170,
        "last_rank": 70651,
        "player_name": "Diarmaid OCearuil",
        "rank": 57227,
        "rank_sort": 57241,
        "total": 2347
      },
      {
        "club_badge_src": null,
        "entry": 20489,
        "entry_name": "Woods Place Hamlets",
        "event_total": 49,
        "has_played": true,
        "id": 127876,
        "last_rank": 45416,
        "player_name": "Darragh McHenry",
        "rank": 57227,
        "rank_sort": 57242,
        "total": 2347
      },
      {
        "club_badge_src": null,
        "entry": 20930,
        "entry_name": "Nine Ten XI",
        "event_total": 70,
        "has_played": true,
        "id": 131059,
        "last_rank": 83934,
        "player_name": "Harry Wilde",
        "rank": 57227,
        "rank_sort": 57243,
        "total": 2347
      },
      {
        "club_badge_src": null,
        "entry": 22206,
        "entry_name": "wawerFB",
        "event_total": 60,
        "has_played": true,
        "id": 139409,
        "last_rank": 63390,
        "player_name": "Rafa\u0142 Kozi\u0144ski",
        "rank": 57227,
        "rank_sort": 57244,
        "total": 2347
      },
      {
        "club_badge_src": null,
        "entry": 24061,
        "entry_name": "Arrizabalagarba",
        "event_total": 69,
        "has_played": true,
        "id": 151783,
        "last_rank": 81312,
        "player_name": "Bj\u00f8rnar Jakobsen",
        "rank": 57227,
        "rank_sort": 57245,
        "total": 2347
      },
      {
        "club_badge_src": "https://fantasy.premierleague.com/gcs/plfpl-production-adobe-approved/plfpl-production/26403/6ffba861-fc3d-46f6-8638-5fe70265d4f2.png",
        "entry": 26403,
        "entry_name": "Blood Sweat & Bees",
        "event_total": 60,
        "has_played": true,
        "id": 166940,
        "last_rank": 63390,
        "player_name": "Andrew Kingston",
        "rank": 57227,
        "rank_sort": 57246,
        "total": 2347
      },
      {
        "club_badge_src": null,
        "entry": 27897,
        "entry_name": "Bruno Dos Tres",
        "event_total": 67,
        "has_played": true,
        "id": 176403,
        "last_rank": 68748,
        "player_name": "Jake Caine",
        "rank": 57227,
        "rank_sort": 57247,
        "total": 2347
      },
      {
        "club_badge_src": "https://fantasy.premierleague.com/gcs/plfpl-production-adobe-approved/plfpl-production/33322/6eb8b38c-407c-40e2-8ff2-910a5f81fab6.png",
        "entry": 33322,
        "entry_name": "Vikingo",
        "event_total": 72,
        "has_played": true,
        "id": 212481,
        "last_rank": 88348,
        "player_name": "Attila Nagy",
        "rank": 57227,
        "rank_sort": 57248,
        "total": 2347
      },
      {
        "club_badge_src": "https://fantasy.premierleague.com/gcs/plfpl-production-adobe-approved/plfpl-production/41967/b4e3d32d-d2b8-4de9-960d-69a6b9bd7579.png",
        "entry": 41967,
        "entry_name": "Al Gore Rhythm",
        "event_total": 61,
        "has_played": true,
        "id": 268916,
        "last_rank": 57857,
        "player_name": "Kenichi Ohmae",
        "rank": 57227,
        "rank_sort": 57249,
        "total": 2347
      },
      {
        "club_badge_src": null,
        "entry": 53413,
        "entry_name": "Shift De ligt",
        "event_total": 64,
        "has_played": true,
        "id": 343636,
        "last_rank": 70757,
        "player_name": "Addis Alemayehu",
        "rank": 57227,
        "rank_sort": 57250,
        "total": 2347
      }
    ]
  }
}