{
  "last_updated_data": "2026-05-24T23:28:17Z",
  "league": {
    "admin_entry": null,
    "closed": false,
    "code_privacy": "p",
    "created": "2025-07-20T23:14:33.933835Z",
    "cup_league": 2815434,
    "has_cup": true,
    "id": 314,
    "league_type": "s",
    "max_entries": null,
    "name": "Overall",
    "rank": null,
    "scoring": "c",
    "start_event": 1
  },
  "new_entries": {
    "has_next": false,
    "page": 1,
    "results": []
  },
  "standings": {
    "has_next": true,
    "page": 1360,
    "results": [
      {
        "club_badge_src": null,
        "entry": 1422617,
        "entry_name": "Worrying Flirtz",
        "event_total": 53,
        "has_played": true,
        "id": 9906476,
        "last_rank": 61411,
        "player_name": "Tony Barnes",
        "rank": 67829,
        "rank_sort": 67951,
        "total": 2341
      },
      {
        "club_badge_src": "https://fantasy.premierleague.com/gcs/plfpl-production-adobe-approved/plfpl-production/1429573/818afbb5-533e-428e-95a9-0505736272d7.png",
        "entry": 1429573,
        "entry_name": "Chengtona",
        "event_total": 31,
        "has_played": true,
        "id": 9961285,
        "last_rank": 30727,
        "player_name": "Simon Cheng",
        "rank": 67829,
        "rank_sort": 67952,
        "total": 2341
      },
      {
        "club_badge_src": null,
        "entry": 1450209,
        "entry_name": "Slot Machine",
        "event_total": 50,
        "has_played": true,
        "id": 10105235,
        "last_rank": 56099,
        "player_name": "Liam Ferreira",
        "rank": 67829,
        "rank_sort": 67953,
        "total": 2341
      },
      {
        "club_badge_src": null,
        "entry": 1482708,
        "entry_name": "Arnes Lot",
        "event_total": 53,
        "has_played": true,
        "id": 10339328,
        "last_rank": 61606,
        "player_name": "Andrew Digby",
        "rank": 67829,
        "rank_sort": 67954,
        "total": 2341
      },
      {
        "club_badge_src": null,
        "entry": 1487601,
        "entry_name": "Nami",
        "event_total": 69,
        "has_played": true,
        "id": 10373698,
        "last_rank": 95890,
        "player_name": "Muhammad Atiquliman Muhamad Nasir",
        "rank": 67829,
        "rank_sort": 67955,
        "total": 2341
      },
      {
        "club_badge_src": null,
        "entry": 1507397,
        "entry_name": "JimFTW YT",
        "event_total": 53,
        "has_played": true,
        "id": 10513152,
        "last_rank": 61606,
        "player_name": "James Lumb",
        "rank": 67829,
        "rank_sort": 67956,
        "total": 2341
      },
      {
        "club_badge_src": null,
        "entry": 1517629,
        "entry_name": "Sakas finger nail",
        "event_total": 53,
        "has_played": true,
        "id": 10585037,
        "last_rank": 61606,
        "player_name": "Evan McCormack",
        "rank": 67829,
        "rank_sort": 67957,
        "total": 2341
      },
      {
        "club_badge_src": null,
        "entry": 1564929,
        "entry_name": "Shido 3",
        "event_total": 48,
        "has_played": true,
        "id": 10932016,
        "last_rank": 53023,
        "player_name": "Shady Attara",
        "rank": 67829,
        "rank_sort": 67958,
        "total": 2341
      },
      {
        "club_badge_src": null,
        "entry": 1578852,
        "entry_name": "Citehh",
        "event_total": 81,
        "has_played": true,
        "id": 11032637,
        "last_rank": 128975,
        "player_name": "Cormac Cowhig",
        "rank": 67829,
        "rank_sort": 67959,
        "total": 2341
      },
      {
        "club_badge_src": null,
        "entry": 1600721,
        "entry_name": "Williams Wanderers",
        "event_total": 58,
        "has_played": true,
        "id": 11198000,
        "last_rank": 70985,
        "player_name": "David Williams",
        "rank": 67829,
        "rank_sort": 67960,
        "total": 2341
      },
      {
        "club_badge_src": null,
        "entry": 1627199,
        "entry_name": "GLACBURGER SV",
        "event_total": 53,
        "has_played": true,
        "id": 11389417,
        "last_rank": 61606,
        "player_name": "Hubert Pi\u0119towski",
        "rank": 67829,
        "rank_sort": 67961,
        "total": 2341
      },
      {
        "club_badge_src": null,
        "entry": 1660004,
        "entry_name": "Chimanuka",
        "event_total": 56,
        "has_played": true,
        "id": 11621998,
        "last_rank": 67063,
        "player_name": "Alexandre Lutz",
        "rank": 67829,
        "rank_sort": 67962,
        "total": 2341
      },
      {
        "club_badge_src": null,
        "entry": 1673723,
        "entry_name": "Spacks",
        "event_total": 33,
        "has_played": true,
        "id": 11717870,
        "last_rank": 32879,
        "player_name": "John Spackman",
        "rank": 67829,
        "rank_sort": 67963,
        "total": 2341
      },
      {
        "club_badge_src": "https://fantasy.premierleague.com/gcs/plfpl-production-adobe-approved/plfpl-production/1681905/56930a68-97d3-4677-a5b2-bc4d55c9fca1.png",
        "entry": 1681905,
        "entry_name": "Kampioen! 2025",
        "event_total": 48,
        "has_played": true,
        "id": 11774043,
        "last_rank": 53023,
        "player_name": "Gurkan C",
        "rank": 67829,
        "rank_sort": 67964,
        "total": 2341
      },
      {
        "club_badge_src": null,
        "entry": 1697507,
        "entry_name": "The Darwinners",
        "event_total": 32,
        "has_played": true,
        "id": 11889671,
        "last_rank": 31620,
        "player_name": "Tony Clough",
        "rank": 67829,
        "rank_sort": 67965,
        "total": 2341
      },
      {
        "club_badge_src": null,
        "entry": 1755263,
        "entry_name": "alaifan",
        "event_total": 41,
        "has_played": true,
        "id": 12322730,
        "last_rank": 42648,
        "player_name": "Abdullah Alaifan",
        "rank": 67829,
        "rank_sort": 67966,
        "total": 2341
      },
      {
        "club_badge_src": null,
        "entry": 1830559,
        "entry_name": "Sunny and me",
        "event_total": 75,
        "has_played": true,
        "id": 12876282,
        "last_rank": 112169,
        "player_name": "Bernard Scully",
        "rank": 67829,
        "rank_sort": 67967,
        "total": 2341
      },
      {
        "club_badge_src": null,
        "entry": 1872189,
        "entry_name": "zxc",
        "event_total": 70,
        "has_played": true,
        "id": 13180563,
        "last_rank": 98183,
        "player_name": "Taqi Tazwar",
        "rank": 67829,
        "rank_sort": 67968,
        "total": 2341
      },
      {
        "club_badge_src": null,
        "entry": 1901570,
        "entry_name": "KamaKamara Chameleon",
        "event_total": 47,
        "has_played": true,
        "id": 13404861,
        "last_rank": 51220,
        "player_name": "Andrew Whittles",
        "rank": 67829,
        "rank_sort": 67969,
        "total": 2341
      },
      {
        "club_badge_src": null,
        "entry": 1910220,
        "entry_name": "Beef Cherki",
        "event_total": 58,
        "has_played": true,
        "id": 13467370,
        "last_rank": 70985,
        "player_name": "Matthew Stanger",
        "rank": 67829,
        "rank_sort": 67970,
        "total": 2341
      },
      {
        "club_badge_src": null,
        "entry": 1910382,
        "entry_name": "Mohamed Ramadan",
        "event_total": 47,
        "has_played": true,
        "id": 13468537,
        "last_rank": 51403,
        "player_name": "Mohamed Ramadan",
        "rank": 67829,
        "rank_sort": 67971,
        "total": 2341
      },
      {
        "club_badge_src": null,
        "entry": 1926168,
        "entry_name": "CHIEF",
        "event_total": 51,
        "has_played": true,
        "id": 13584276,
        "last_rank": 57776,
        "player_name": "Chief Lordlux",
        "rank": 67829,
        "rank_sort": 67972,
        "total": 2341
      },
      {
        "club_badge_src": "https://fantasy.premierleague.com/gcs/plfpl-production-adobe-approved/plfpl-production/1964075/51bb1a20-fc04-4024-8666-23ae331ae43b.png",
        "entry": 1964075,
        "entry_name": "Sagar updated FC",
        "event_total": 52,
        "has_played": true,
        "id": 13858114,
        "last_rank": 59813,
        "player_name": "Sagar Bhandari",
        "rank": 67829,
        "rank_sort": 67973,
        "total": 2341
      },
      {
        "club_badge_src": "https://fantasy.premierleague.com/gcs/plfpl-production-adobe-approved/plfpl-production/1970314/c62da2b6-a0cd-40e3-b500-0cf05ca3a953.png",
        "entry": 1970314,
        "entry_name": "lapskaus",
        "event_total": 51,
        "has_played": true,
        "id": 13906246,
        "last_rank": 58388,
        "player_name": "Sander Berg",
        "rank": 67829,
        "rank_sort": 67974,
        "total": 2341
      },
      {
        "club_badge_src": null,
        "entry": 1990288,
        "entry_name": "Kareem XI",
        "event_total": 54,
        "has_played": true,
        "id": 14061275,
        "last_rank": 63390,
        "player_name": "Kareem Abdelhady",
        "rank": 67829,
        "rank_sort": 67975,
        "total": 2341
      },
      {
        "club_badge_src": null,
        "entry": 2026693,
        "entry_name": "MUFCCNX",
        "event_total": 63,
        "has_played": true,
        "id": 14346952,
        "last_rank": 81646,
        "player_name": "Jutiporn Suwannajan",
        "rank": 67829,
        "rank_sort": 67976,
        "total": 2341
      },
      {
        "club_badge_src": null,
        "entry": 2030726,
        "entry_name": "PrebenFC",
        "event_total": 56,
        "has_played": true,
        "id": 14376804,
        "last_rank": 59632,
        "player_name": "Filip \u00c5kesson",
        "rank": 67829,
        "rank_sort": 67977,
        "total": 2341
      },
      {
        "club_badge_src": null,
        "entry": 2045015,
        "entry_name": "Lasso's Misfits",
        "event_total": 74,
        "has_played": true,
        "id": 14482999,
        "last_rank": 108496,
        "player_name": "Matt Edwards",
        "rank": 67829,
        "rank_sort": 67978,
        "total": 2341
      },
      {
        "club_badge_src": null,
        "entry": 2101583,
        "entry_name": "Tawil",
        "event_total": 48,
        "has_played": true,
        "id": 14913297,
        "last_rank": 53023,
        "player_name": "Joe Tawil",
        "rank": 67829,
        "rank_sort": 67979,
        "total": 2341
      },
      {
        "club_badge_src": "https://fantasy.premierleague.com/gcs/plfpl-production-adobe-approved/plfpl-production/2112369/bf63fc1c-7d14-447b-b350-c3856175df9c.png",
        "entry": 2112369,
        "entry_name": "FC Greyshoes",
        "event_total": 64,
        "has_played": true,
        "id": 14993700,
        "last_rank": 83934,
        "player_name": "Lorna Hughes",
        "rank": 67829,
        "rank_sort": 67980,
        "total": 2341
      },
      {
        "club_badge_src": null,
        "entry": 2113967,
        "entry_name": "Eze Street",
        "event_total": 68,
        "has_played": true,
        "id": 15007182,
        "last_rank": 93443,
        "player_name": "Jack Shardlow",
        "rank": 67829,
        "rank_sort": 67981,
        "total": 2341
      },
      {
        "club_badge_src": null,
        "entry": 2116206,
        "entry_name": "Kanz",
        "event_total": 63,
        "has_played": true,
        "id": 15029960,
        "last_rank": 81646,
        "player_name": "Ali Kanaan",
        "rank": 67829,
        "rank_sort": 67982,
        "total": 2341
      },
      {
        "club_badge_src": null,
        "entry": 2138749,
        "entry_name": "MurderOnZidanesFloor",
        "event_total": 60,
        "has_played": true,
        "id": 15199909,
        "last_rank": 75139,
        "player_name": "Al H",
        "rank": 67829,
        "rank_sort": 67983,
        "total": 2341
      },
      {
        "club_badge_src": null,
        "entry": 2142181,
        "entry_name": "MHQ",
        "event_total": 62,
        "has_played": true,
        "id": 15224880,
        "last_rank": 79431,
        "player_name": "\u0645\u062d\u0645\u062f \u0647\u0632\u0627\u0639 \u0627\u0644\u0647\u0627\u062c\u0631\u064a",
        "rank": 67829,
        "rank_sort": 67984,
        "total": 2341
      },
      {
        "club_badge_src": null,
        "entry": 2179931,
        "entry_name": "CARRAS16",
        "event_total": 51,
        "has_played": true,
        "id": 15503986,
        "last_rank": 58071,
        "player_name": "Jameel Ibrahim",
        "rank": 67829,
        "rank_sort": 67985,
        "total": 2341
      },
      {
        "club_badge_src": null,
        "entry": 2200104,
        "entry_name": "The Elite Orange",
        "event_total": 61,
        "has_played": true,
        "id": 15655971,
        "last_rank": 77258,
        "player_name": "Craig Duncan",
        "rank": 67829,
        "rank_sort": 67986,
        "total": 2341
      },
      {
        "club_badge_src": null,
        "entry": 2222562,
        "entry_name": "Baguette FC",
        "event_total": 59,
        "has_played": true,
        "id": 15829842,
        "last_rank": 73038,
        "player_name": "Thibault JOURDAN",
        "rank": 67829,
        "rank_sort": 67987,
        "total": 2341
      },
      {
        "club_badge_src": null,
        "entry": 2227626,
        "entry_name": "Disco68",
        "event_total": 53,
        "has_played": true,
        "id": 15867779,
        "last_rank": 61315,
        "player_name": "david wray",
        "rank": 67829,
        "rank_sort": 67988,
        "total": 2341
      },
      {
        "club_badge_src": null,
        "entry": 2246485,
        "entry_name": "1st points thenpints",
        "event_total": 64,
        "has_played": true,
        "id": 16005686,
        "last_rank": 83698,
        "player_name": "Charlie Jackson",
        "rank": 67829,
        "rank_sort": 67989,
        "total": 2341
      },
      {
        "club_badge_src": null,
        "entry": 2248859,
        "entry_name": "Simhaaa",
        "event_total": 63,
        "has_played": true,
        "id": 16024582,
        "last_rank": 81420,
        "player_name": "Omer Kerem",
        "rank": 67829,
        "rank_sort": 67990,
        "total": 2341
      },
      {
        "club_badge_src": null,
        "entry": 2251787,
        "entry_name": "PrataKosong FC",
        "event_total": 45,
        "has_played": true,
        "id": 16045567,
        "last_rank": 48363,
        "player_name": "zoolie joe",
        "rank": 67829,
        "rank_sort": 67991,
        "total": 2341
      },
      {
        "club_badge_src": null,
        "entry": 2376272,
        "entry_name": "Wirtz Case Scenario",
        "event_total": 54,
        "has_played": true,
        "id": 16965233,
        "last_rank": 63201,
        "player_name": "Keith Chambe",
        "rank": 67829,
        "rank_sort": 67992,
        "total": 2341
      },
      {
        "club_badge_src": null,
        "entry": 2411409,
        "entry_name": "s\u00f3cioooqu\u00e9s\u00f3ciooo",
        "event_total": 72,
        "has_played": true,
        "id": 17237635,
        "last_rank": 103526,
        "player_name": "Vasco Fernandes",
        "rank": 67829,
        "rank_sort": 67993,
        "total": 2341
      },
      {
        "club_badge_src": null,
        "entry": 2439065,
        "entry_name": "Kolecer",
        "event_total": 52,
        "has_played": true,
        "id": 17442875,
        "last_rank": 59535,
        "player_name": "Christian Wijaya",
        "rank": 67829,
        "rank_sort": 67994,
        "total": 2341
      },
      {
        "club_badge_src": null,
        "entry": 2518775,
        "entry_name": "Bumblebees",
        "event_total": 54,
        "has_played": true,
        "id": 18046905,
        "last_rank": 63390,
        "player_name": "Sagar Gupta",
        "rank": 67829,
        "rank_sort": 67995,
        "total": 2341
      },
      {
        "club_badge_src": null,
        "entry": 2566265,
        "entry_name": "The Rose Chester",
        "event_total": 64,
        "has_played": true,
        "id": 18409128,
        "last_rank": 83934,
        "player_name": "Daniel Lor\u00e5s",
        "rank": 67829,
        "rank_sort": 67996,
        "total": 2341
      },
      {
        "club_badge_src": null,
        "entry": 2573291,
        "entry_name": "Trust The Process?!?",
        "event_total": 66,
        "has_played": true,
        "id": 18465639,
        "last_rank": 88594,
        "player_name": "Nirav Patel",
        "rank": 67829,
        "rank_sort": 67997,
        "total": 2341
      },
      {
        "club_badge_src": "https://fantasy.premierleague.com/gcs/plfpl-production-adobe-approved/plfpl-production/2581274/b7604dec-7d7b-425e-9a00-86c50e7b2156.png",
        "entry": 2581274,
        "entry_name": "Totterers",
        "event_total": 46,
        "has_played": true,
        "id": 18527381,
        "last_rank": 49880,
        "player_name": "Andrew Smith",
        "rank": 67829,
        "rank_sort": 67998,
        "total": 2341
      },
      {
        "club_badge_src": null,
        "entry": 2589099,
        "entry_name": "Pia Oranje",
        "event_total": 63,
        "has_played": true,
        "id": 18587742,
        "last_rank": 81646,
        "player_name": "Witcha Wongsripumtes",
        "rank": 67829,
        "rank_sort": 67999,
        "total": 2341
      },
      {
        "club_badge_src": null,
        "entry": 2608198,
        "entry_name": "A&A FC",
        "event_total": 64,
        "has_played": true,
        "id": 18737465,
        "last_rank": 83698,
        "player_name": "Ugochukwu Ojiegbu",
        "rank": 67829,
        "rank_sort": 68000,
        "total": 2341
      }
    ]
  }
}