{
  "last_updated_data": "2026-05-24T23:28:17Z",
  "league": {
    "admin_entry": null,
    "closed": false,
    "code_privacy": "p",
    "created": "2025-07-20T23:14:33.933835Z",
    "cup_league": 2815434,
    "has_cup": true,
    "id": 314,
    "league_type": "s",
    "max_entries": null,
    "name": "Overall",
    "rank": null,
    "scoring": "c",
    "start_event": 1
  },
  "new_entries": {
    "has_next": false,
    "page": 1,
    "results": []
  },
  "standings": {
    "has_next": true,
    "page": 211,
    "results": [
      {
        "club_badge_src": null,
        "entry": 9173064,
        "entry_name": "#FCKPTN",
        "event_total": 49,
        "has_played": true,
        "id": 77167684,
        "last_rank": 7059,
        "player_name": "Scruffy Lah",
        "rank": 10388,
        "rank_sort": 10501,
        "total": 2397
      },
      {
        "club_badge_src": "https://fantasy.premierleague.com/gcs/plfpl-production-adobe-approved/plfpl-production/9294882/e0203de9-2e29-4935-8c8f-cccf7a91c67d.png",
        "entry": 9294882,
        "entry_name": "Auto-Pick FC",
        "event_total": 61,
        "has_played": true,
        "id": 78360889,
        "last_rank": 11699,
        "player_name": "Ryan Mitchell",
        "rank": 10388,
        "rank_sort": 10502,
        "total": 2397
      },
      {
        "club_badge_src": null,
        "entry": 9326185,
        "entry_name": "Lickeen",
        "event_total": 50,
        "has_played": true,
        "id": 78660616,
        "last_rank": 7375,
        "player_name": "Oscar Erliksson",
        "rank": 10388,
        "rank_sort": 10503,
        "total": 2397
      },
      {
        "club_badge_src": null,
        "entry": 9372190,
        "entry_name": "Could Be Wirtz",
        "event_total": 58,
        "has_played": true,
        "id": 79102569,
        "last_rank": 10346,
        "player_name": "Hiren Ravji",
        "rank": 10388,
        "rank_sort": 10504,
        "total": 2397
      },
      {
        "club_badge_src": null,
        "entry": 9421371,
        "entry_name": "Moneyball",
        "event_total": 60,
        "has_played": true,
        "id": 79578939,
        "last_rank": 11175,
        "player_name": "Thiago -6",
        "rank": 10388,
        "rank_sort": 10505,
        "total": 2397
      },
      {
        "club_badge_src": "https://fantasy.premierleague.com/gcs/plfpl-production-adobe-approved/plfpl-production/2568/9e6d192c-4775-4129-8b7d-27bd79a4676c.png",
        "entry": 2568,
        "entry_name": "OGunners",
        "event_total": 66,
        "has_played": true,
        "id": 14327,
        "last_rank": 12141,
        "player_name": "Leo Thanaphat",
        "rank": 10506,
        "rank_sort": 10506,
        "total": 2397
      },
      {
        "club_badge_src": "https://fantasy.premierleague.com/gcs/plfpl-production-adobe-approved/plfpl-production/4759/38c7ccdc-ecea-4db4-8570-5ca9caf8ee3b.png",
        "entry": 4759,
        "entry_name": "Change Name",
        "event_total": 67,
        "has_played": true,
        "id": 27084,
        "last_rank": 14926,
        "player_name": "Magnus Bielefeldt",
        "rank": 10506,
        "rank_sort": 10507,
        "total": 2397
      },
      {
        "club_badge_src": null,
        "entry": 6672,
        "entry_name": "xP Diplomacy",
        "event_total": 58,
        "has_played": true,
        "id": 38338,
        "last_rank": 8758,
        "player_name": "Andrii Uhlov",
        "rank": 10506,
        "rank_sort": 10508,
        "total": 2397
      },
      {
        "club_badge_src": null,
        "entry": 12555,
        "entry_name": "FC Luckyfootball",
        "event_total": 66,
        "has_played": true,
        "id": 75263,
        "last_rank": 14370,
        "player_name": "Jonas Fougner",
        "rank": 10506,
        "rank_sort": 10509,
        "total": 2397
      },
      {
        "club_badge_src": null,
        "entry": 15793,
        "entry_name": "Dbgw",
        "event_total": 64,
        "has_played": true,
        "id": 97227,
        "last_rank": 11237,
        "player_name": "Mass DL",
        "rank": 10506,
        "rank_sort": 10510,
        "total": 2397
      },
      {
        "club_badge_src": null,
        "entry": 19390,
        "entry_name": "McDreamy\u2764\ufe0f",
        "event_total": 57,
        "has_played": true,
        "id": 120648,
        "last_rank": 8382,
        "player_name": "Andrews Baah",
        "rank": 10506,
        "rank_sort": 10511,
        "total": 2397
      },
      {
        "club_badge_src": null,
        "entry": 29182,
        "entry_name": "cHaNgE nAmE",
        "event_total": 68,
        "has_played": true,
        "id": 184505,
        "last_rank": 13257,
        "player_name": "Tim M",
        "rank": 10506,
        "rank_sort": 10512,
        "total": 2397
      },
      {
        "club_badge_src": null,
        "entry": 29507,
        "entry_name": "Boca's",
        "event_total": 59,
        "has_played": true,
        "id": 186599,
        "last_rank": 10805,
        "player_name": "Gijs Hendriks",
        "rank": 10506,
        "rank_sort": 10513,
        "total": 2397
      },
      {
        "club_badge_src": null,
        "entry": 46568,
        "entry_name": "Doddenham Hotspur",
        "event_total": 67,
        "has_played": true,
        "id": 298517,
        "last_rank": 12705,
        "player_name": "Michael Dodd",
        "rank": 10506,
        "rank_sort": 10514,
        "total": 2397
      },
      {
        "club_badge_src": null,
        "entry": 81068,
        "entry_name": "Kant\u00e9 touch this",
        "event_total": 59,
        "has_played": true,
        "id": 527427,
        "last_rank": 10805,
        "player_name": "\u00deorgils Ari Gu\u00f0mundsson",
        "rank": 10506,
        "rank_sort": 10515,
        "total": 2397
      },
      {
        "club_badge_src": null,
        "entry": 87258,
        "entry_name": "Deerpark FC",
        "event_total": 67,
        "has_played": true,
        "id": 568964,
        "last_rank": 12705,
        "player_name": "Tom\u00e1s O'Malley",
        "rank": 10506,
        "rank_sort": 10516,
        "total": 2397
      },
      {
        "club_badge_src": null,
        "entry": 89694,
        "entry_name": "Milleback Utd",
        "event_total": 60,
        "has_played": true,
        "id": 585501,
        "last_rank": 11345,
        "player_name": "Johan Milleback",
        "rank": 10506,
        "rank_sort": 10517,
        "total": 2397
      },
      {
        "club_badge_src": null,
        "entry": 128368,
        "entry_name": "SL0T IT IN",
        "event_total": 73,
        "has_played": true,
        "id": 836751,
        "last_rank": 18691,
        "player_name": "Jake Morgan",
        "rank": 10506,
        "rank_sort": 10518,
        "total": 2397
      },
      {
        "club_badge_src": "https://fantasy.premierleague.com/gcs/plfpl-production-adobe-approved/plfpl-production/138978/d3727193-2eb9-4bf6-8b7b-8fc530226bd1.png",
        "entry": 138978,
        "entry_name": "BK Kvarnen",
        "event_total": 67,
        "has_played": true,
        "id": 906873,
        "last_rank": 15063,
        "player_name": "Jesper Hagborg Asp",
        "rank": 10506,
        "rank_sort": 10519,
        "total": 2397
      },
      {
        "club_badge_src": null,
        "entry": 143665,
        "entry_name": "50 Schades of Gray",
        "event_total": 73,
        "has_played": true,
        "id": 939984,
        "last_rank": 16062,
        "player_name": "Max Gooding",
        "rank": 10506,
        "rank_sort": 10520,
        "total": 2397
      },
      {
        "club_badge_src": "https://fantasy.premierleague.com/gcs/plfpl-production-adobe-approved/plfpl-production/146554/87bcabb3-f8bd-476a-ba82-46702d7c5a35.png",
        "entry": 146554,
        "entry_name": "Miku",
        "event_total": 65,
        "has_played": true,
        "id": 960207,
        "last_rank": 13821,
        "player_name": "Miku Ohaha",
        "rank": 10506,
        "rank_sort": 10521,
        "total": 2397
      },
      {
        "club_badge_src": null,
        "entry": 165544,
        "entry_name": "The Viktor",
        "event_total": 60,
        "has_played": true,
        "id": 1093058,
        "last_rank": 11345,
        "player_name": "Jesse Potter",
        "rank": 10506,
        "rank_sort": 10522,
        "total": 2397
      },
      {
        "club_badge_src": null,
        "entry": 198539,
        "entry_name": "stinks of goals",
        "event_total": 51,
        "has_played": true,
        "id": 1317517,
        "last_rank": 7761,
        "player_name": "Daniel Stickells",
        "rank": 10506,
        "rank_sort": 10523,
        "total": 2397
      },
      {
        "club_badge_src": null,
        "entry": 315087,
        "entry_name": "barbie dust",
        "event_total": 68,
        "has_played": true,
        "id": 2111585,
        "last_rank": 15694,
        "player_name": "Lawrence P",
        "rank": 10506,
        "rank_sort": 10524,
        "total": 2397
      },
      {
        "club_badge_src": null,
        "entry": 374174,
        "entry_name": "Abo Lilia",
        "event_total": 51,
        "has_played": true,
        "id": 2503793,
        "last_rank": 7676,
        "player_name": "Fareed Zaki",
        "rank": 10506,
        "rank_sort": 10525,
        "total": 2397
      },
      {
        "club_badge_src": "https://fantasy.premierleague.com/gcs/plfpl-production-adobe-approved/plfpl-production/426843/1a1c84db-4998-4ac2-8525-8f1b25eb5f19.png",
        "entry": 426843,
        "entry_name": "Hello down there Jim",
        "event_total": 66,
        "has_played": true,
        "id": 2862046,
        "last_rank": 14370,
        "player_name": "Jack Moran",
        "rank": 10506,
        "rank_sort": 10526,
        "total": 2397
      },
      {
        "club_badge_src": null,
        "entry": 504834,
        "entry_name": "Al-Coholics",
        "event_total": 54,
        "has_played": true,
        "id": 3388569,
        "last_rank": 8854,
        "player_name": "Kamil Panek",
        "rank": 10506,
        "rank_sort": 10527,
        "total": 2397
      },
      {
        "club_badge_src": null,
        "entry": 641375,
        "entry_name": "El Wey",
        "event_total": 47,
        "has_played": true,
        "id": 4334729,
        "last_rank": 5400,
        "player_name": "Thomas Robinson",
        "rank": 10506,
        "rank_sort": 10528,
        "total": 2397
      },
      {
        "club_badge_src": null,
        "entry": 713061,
        "entry_name": "Beef Cherki",
        "event_total": 46,
        "has_played": true,
        "id": 4837350,
        "last_rank": 6194,
        "player_name": "Lee Costelloe",
        "rank": 10506,
        "rank_sort": 10529,
        "total": 2397
      },
      {
        "club_badge_src": null,
        "entry": 734448,
        "entry_name": "Cunha Believe It?",
        "event_total": 68,
        "has_played": true,
        "id": 4991469,
        "last_rank": 13257,
        "player_name": "Max Smith",
        "rank": 10506,
        "rank_sort": 10530,
        "total": 2397
      },
      {
        "club_badge_src": null,
        "entry": 735228,
        "entry_name": "Wildcard Warriors",
        "event_total": 59,
        "has_played": true,
        "id": 4997728,
        "last_rank": 10920,
        "player_name": "mark badgery",
        "rank": 10506,
        "rank_sort": 10531,
        "total": 2397
      },
      {
        "club_badge_src": null,
        "entry": 759756,
        "entry_name": "Minteh Fresh",
        "event_total": 66,
        "has_played": true,
        "id": 5178066,
        "last_rank": 14496,
        "player_name": "Josh Alexander",
        "rank": 10506,
        "rank_sort": 10532,
        "total": 2397
      },
      {
        "club_badge_src": null,
        "entry": 907185,
        "entry_name": "Manchesthair United",
        "event_total": 67,
        "has_played": true,
        "id": 6235896,
        "last_rank": 15063,
        "player_name": "Pete McElhone",
        "rank": 10506,
        "rank_sort": 10533,
        "total": 2397
      },
      {
        "club_badge_src": "https://fantasy.premierleague.com/gcs/plfpl-production-adobe-approved/plfpl-production/929497/8509a5b0-ad77-48e6-b601-f581ea55d93c.png",
        "entry": 929497,
        "entry_name": "\u0190nk\u0254 Yie United",
        "event_total": 65,
        "has_played": true,
        "id": 6395451,
        "last_rank": 11699,
        "player_name": "Owusu Ansah Akoto",
        "rank": 10506,
        "rank_sort": 10534,
        "total": 2397
      },
      {
        "club_badge_src": "https://fantasy.premierleague.com/gcs/plfpl-production-adobe-approved/plfpl-production/984192/c631a580-10f2-42e9-9cdd-57e022aa8fa8.png",
        "entry": 984192,
        "entry_name": "P\u00e5 Tide Med Bytte",
        "event_total": 58,
        "has_played": true,
        "id": 6785589,
        "last_rank": 10346,
        "player_name": "Tobias Elve",
        "rank": 10506,
        "rank_sort": 10535,
        "total": 2397
      },
      {
        "club_badge_src": "https://fantasy.premierleague.com/gcs/plfpl-production-adobe-approved/plfpl-production/1053962/9c330682-c6f5-493a-8c59-3b49493bafbd.png",
        "entry": 1053962,
        "entry_name": "Bruno dos tres",
        "event_total": 36,
        "has_played": true,
        "id": 7294127,
        "last_rank": 3237,
        "player_name": "Magnus Haug",
        "rank": 10506,
        "rank_sort": 10536,
        "total": 2397
      },
      {
        "club_badge_src": "https://fantasy.premierleague.com/gcs/plfpl-production-adobe-approved/plfpl-production/1064276/cecfad59-33fe-4f7a-bf3a-31bc9faf50d0.png",
        "entry": 1064276,
        "entry_name": "Sakapotatoes fc",
        "event_total": 60,
        "has_played": true,
        "id": 7367690,
        "last_rank": 11345,
        "player_name": "Joel Whittaker",
        "rank": 10506,
        "rank_sort": 10537,
        "total": 2397
      },
      {
        "club_badge_src": null,
        "entry": 1118822,
        "entry_name": "MIDGE",
        "event_total": 75,
        "has_played": true,
        "id": 7749875,
        "last_rank": 17437,
        "player_name": "Tyler Midgley",
        "rank": 10506,
        "rank_sort": 10538,
        "total": 2397
      },
      {
        "club_badge_src": null,
        "entry": 1217484,
        "entry_name": "El Tel",
        "event_total": 60,
        "has_played": true,
        "id": 8450904,
        "last_rank": 11345,
        "player_name": "Neil Sweet",
        "rank": 10506,
        "rank_sort": 10539,
        "total": 2397
      },
      {
        "club_badge_src": "https://fantasy.premierleague.com/gcs/plfpl-production-adobe-approved/plfpl-production/1323720/bcb61787-eea3-43a5-9cf3-27b1abe7c384.png",
        "entry": 1323720,
        "entry_name": "cream",
        "event_total": 71,
        "has_played": true,
        "id": 9201127,
        "last_rank": 17358,
        "player_name": "Sean O-Sullivan",
        "rank": 10506,
        "rank_sort": 10540,
        "total": 2397
      },
      {
        "club_badge_src": null,
        "entry": 1334389,
        "entry_name": "Switog\u00f6tter",
        "event_total": 54,
        "has_played": true,
        "id": 9275285,
        "last_rank": 8854,
        "player_name": "S Teban",
        "rank": 10506,
        "rank_sort": 10541,
        "total": 2397
      },
      {
        "club_badge_src": "https://fantasy.premierleague.com/gcs/plfpl-production-adobe-approved/plfpl-production/1373413/f289ed2e-cc38-42e3-98f2-6fff3c4262e4.png",
        "entry": 1373413,
        "entry_name": "LA Crabs",
        "event_total": 71,
        "has_played": true,
        "id": 9547085,
        "last_rank": 12645,
        "player_name": "Kevin Hughes",
        "rank": 10506,
        "rank_sort": 10542,
        "total": 2397
      },
      {
        "club_badge_src": null,
        "entry": 1748215,
        "entry_name": "Poolari",
        "event_total": 69,
        "has_played": true,
        "id": 12267983,
        "last_rank": 16320,
        "player_name": "Valur Viborg",
        "rank": 10506,
        "rank_sort": 10543,
        "total": 2397
      },
      {
        "club_badge_src": null,
        "entry": 2070277,
        "entry_name": "No Bindippers",
        "event_total": 55,
        "has_played": true,
        "id": 14676827,
        "last_rank": 9248,
        "player_name": "Dermot Farquharson",
        "rank": 10506,
        "rank_sort": 10544,
        "total": 2397
      },
      {
        "club_badge_src": "https://fantasy.premierleague.com/gcs/plfpl-production-adobe-approved/plfpl-production/2095626/86ed85e3-6e07-4a3f-a9cc-6e507cd0d33f.png",
        "entry": 2095626,
        "entry_name": "Slurpers",
        "event_total": 64,
        "has_played": true,
        "id": 14868753,
        "last_rank": 11237,
        "player_name": "Thomas Kaufmann",
        "rank": 10506,
        "rank_sort": 10545,
        "total": 2397
      },
      {
        "club_badge_src": null,
        "entry": 2137886,
        "entry_name": "Halla salla saka",
        "event_total": 70,
        "has_played": true,
        "id": 15193717,
        "last_rank": 14370,
        "player_name": "Mohanad eljerbe",
        "rank": 10506,
        "rank_sort": 10546,
        "total": 2397
      },
      {
        "club_badge_src": null,
        "entry": 2165363,
        "entry_name": "not this again",
        "event_total": 54,
        "has_played": true,
        "id": 15393667,
        "last_rank": 8854,
        "player_name": "Jamie Candler",
        "rank": 10506,
        "rank_sort": 10547,
        "total": 2397
      },
      {
        "club_badge_src": null,
        "entry": 2190745,
        "entry_name": "Don'tLookBackElanga",
        "event_total": 67,
        "has_played": true,
        "id": 15586073,
        "last_rank": 12705,
        "player_name": "Kieron Summers",
        "rank": 10506,
        "rank_sort": 10548,
        "total": 2397
      },
      {
        "club_badge_src": null,
        "entry": 2258443,
        "entry_name": "Polska FC",
        "event_total": 70,
        "has_played": true,
        "id": 16099968,
        "last_rank": 14370,
        "player_name": "Przemek Mazurek",
        "rank": 10506,
        "rank_sort": 10549,
        "total": 2397
      },
      {
        "club_badge_src": null,
        "entry": 2324330,
        "entry_name": "Eporkg",
        "event_total": 72,
        "has_played": true,
        "id": 16582570,
        "last_rank": 18270,
        "player_name": "\u00d8yvind Kheradmandi",
        "rank": 10506,
        "rank_sort": 10550,
        "total": 2397
      }
    ]
  }
}