{
  "last_updated_data": "2026-05-24T23:28:17Z",
  "league": {
    "admin_entry": null,
    "closed": false,
    "code_privacy": "p",
    "created": "2025-07-20T23:14:33.933835Z",
    "cup_league": 2815434,
    "has_cup": true,
    "id": 314,
    "league_type": "s",
    "max_entries": null,
    "name": "Overall",
    "rank": null,
    "scoring": "c",
    "start_event": 1
  },
  "new_entries": {
    "has_next": false,
    "page": 1,
    "results": []
  },
  "standings": {
    "has_next": true,
    "page": 322,
    "results": [
      {
        "club_badge_src": null,
        "entry": 6293586,
        "entry_name": "Xabi Chic",
        "event_total": 61,
        "has_played": true,
        "id": 49873224,
        "last_rank": 18029,
        "player_name": "Steve Shantz",
        "rank": 15922,
        "rank_sort": 16051,
        "total": 2386
      },
      {
        "club_badge_src": null,
        "entry": 6300755,
        "entry_name": "Tickle me Olmo",
        "event_total": 63,
        "has_played": true,
        "id": 49952133,
        "last_rank": 19544,
        "player_name": "Steven Varty",
        "rank": 15922,
        "rank_sort": 16052,
        "total": 2386
      },
      {
        "club_badge_src": null,
        "entry": 6361650,
        "entry_name": "Danes se mi nea da",
        "event_total": 41,
        "has_played": true,
        "id": 50581727,
        "last_rank": 8138,
        "player_name": "Tadej Mlinari\u010d",
        "rank": 15922,
        "rank_sort": 16053,
        "total": 2386
      },
      {
        "club_badge_src": "https://fantasy.premierleague.com/gcs/plfpl-production-adobe-approved/plfpl-production/6363955/1eb08e20-1320-45b0-960b-9a0ceac89881.png",
        "entry": 6363955,
        "entry_name": "yoloFC",
        "event_total": 65,
        "has_played": true,
        "id": 50602348,
        "last_rank": 20888,
        "player_name": "Yoosuf Yuman",
        "rank": 15922,
        "rank_sort": 16054,
        "total": 2386
      },
      {
        "club_badge_src": null,
        "entry": 6378350,
        "entry_name": "Wills FC",
        "event_total": 55,
        "has_played": true,
        "id": 50727577,
        "last_rank": 14292,
        "player_name": "Michael Wills",
        "rank": 15922,
        "rank_sort": 16055,
        "total": 2386
      },
      {
        "club_badge_src": null,
        "entry": 6424711,
        "entry_name": "Calafiori Dreamin'",
        "event_total": 57,
        "has_played": true,
        "id": 51138951,
        "last_rank": 15452,
        "player_name": "Daniel Torrenegra",
        "rank": 15922,
        "rank_sort": 16056,
        "total": 2386
      },
      {
        "club_badge_src": "https://fantasy.premierleague.com/gcs/plfpl-production-adobe-approved/plfpl-production/6718765/627d8c50-9c16-4c2b-8991-fdda7f2e60b1.png",
        "entry": 6718765,
        "entry_name": "mid table team",
        "event_total": 79,
        "has_played": true,
        "id": 53771508,
        "last_rank": 34051,
        "player_name": "khalil jaafri",
        "rank": 15922,
        "rank_sort": 16057,
        "total": 2386
      },
      {
        "club_badge_src": null,
        "entry": 6947309,
        "entry_name": "BlouBulle",
        "event_total": 71,
        "has_played": true,
        "id": 55704644,
        "last_rank": 25776,
        "player_name": "Louis Fourie",
        "rank": 15922,
        "rank_sort": 16058,
        "total": 2386
      },
      {
        "club_badge_src": "https://fantasy.premierleague.com/gcs/plfpl-production-adobe-approved/plfpl-production/7072383/67945712-74e8-4134-ab43-790e71577aff.png",
        "entry": 7072383,
        "entry_name": "Tarbosh",
        "event_total": 57,
        "has_played": true,
        "id": 56911303,
        "last_rank": 15550,
        "player_name": "Osama Tarbosh",
        "rank": 15922,
        "rank_sort": 16059,
        "total": 2386
      },
      {
        "club_badge_src": "https://fantasy.premierleague.com/gcs/plfpl-production-adobe-approved/plfpl-production/7160680/3a1647ca-c972-4856-af09-a82a7000b4c1.png",
        "entry": 7160680,
        "entry_name": "HNK Rogovi",
        "event_total": 65,
        "has_played": true,
        "id": 57760162,
        "last_rank": 20983,
        "player_name": "Ivan Rasic",
        "rank": 15922,
        "rank_sort": 16060,
        "total": 2386
      },
      {
        "club_badge_src": null,
        "entry": 7331324,
        "entry_name": "Hakuna Juan Mata",
        "event_total": 52,
        "has_played": true,
        "id": 59370350,
        "last_rank": 12705,
        "player_name": "Adam Long",
        "rank": 15922,
        "rank_sort": 16061,
        "total": 2386
      },
      {
        "club_badge_src": null,
        "entry": 7365383,
        "entry_name": "Meanmachine",
        "event_total": 58,
        "has_played": true,
        "id": 59691755,
        "last_rank": 16163,
        "player_name": "Guus Joosten",
        "rank": 15922,
        "rank_sort": 16062,
        "total": 2386
      },
      {
        "club_badge_src": null,
        "entry": 7411303,
        "entry_name": "No Salah, No Party",
        "event_total": 68,
        "has_played": true,
        "id": 60133750,
        "last_rank": 23341,
        "player_name": "Apichat Jaruanpong",
        "rank": 15922,
        "rank_sort": 16063,
        "total": 2386
      },
      {
        "club_badge_src": null,
        "entry": 7517711,
        "entry_name": "Fossen",
        "event_total": 67,
        "has_played": true,
        "id": 61493254,
        "last_rank": 22534,
        "player_name": "Stian Fossen",
        "rank": 15922,
        "rank_sort": 16064,
        "total": 2386
      },
      {
        "club_badge_src": null,
        "entry": 7567509,
        "entry_name": "In The Plums",
        "event_total": 59,
        "has_played": true,
        "id": 61969815,
        "last_rank": 16807,
        "player_name": "Jack Innes",
        "rank": 15922,
        "rank_sort": 16065,
        "total": 2386
      },
      {
        "club_badge_src": null,
        "entry": 7602335,
        "entry_name": "KANGUKA",
        "event_total": 35,
        "has_played": true,
        "id": 62285814,
        "last_rank": 6194,
        "player_name": "PATRICK BOGOSS",
        "rank": 15922,
        "rank_sort": 16066,
        "total": 2386
      },
      {
        "club_badge_src": null,
        "entry": 7733336,
        "entry_name": "Wherearemykeys",
        "event_total": 50,
        "has_played": true,
        "id": 63471239,
        "last_rank": 11699,
        "player_name": "Matthew Withers",
        "rank": 15922,
        "rank_sort": 16067,
        "total": 2386
      },
      {
        "club_badge_src": null,
        "entry": 7736517,
        "entry_name": "Dubious Selections",
        "event_total": 59,
        "has_played": true,
        "id": 63499880,
        "last_rank": 16729,
        "player_name": "Patrick Dubeck",
        "rank": 15922,
        "rank_sort": 16068,
        "total": 2386
      },
      {
        "club_badge_src": null,
        "entry": 7815450,
        "entry_name": "Soccerblows",
        "event_total": 46,
        "has_played": true,
        "id": 64213181,
        "last_rank": 9853,
        "player_name": "Dane Metcalf",
        "rank": 15922,
        "rank_sort": 16069,
        "total": 2386
      },
      {
        "club_badge_src": null,
        "entry": 7820156,
        "entry_name": "Schade Than Ever",
        "event_total": 66,
        "has_played": true,
        "id": 64256169,
        "last_rank": 21628,
        "player_name": "Yannick Moses",
        "rank": 15922,
        "rank_sort": 16070,
        "total": 2386
      },
      {
        "club_badge_src": null,
        "entry": 7848022,
        "entry_name": "Eddiecutioner",
        "event_total": 64,
        "has_played": true,
        "id": 64513633,
        "last_rank": 20280,
        "player_name": "Jack Murphy",
        "rank": 15922,
        "rank_sort": 16071,
        "total": 2386
      },
      {
        "club_badge_src": null,
        "entry": 7870723,
        "entry_name": "Death and Taxes",
        "event_total": 64,
        "has_played": true,
        "id": 64720080,
        "last_rank": 20179,
        "player_name": "Anthony Flynn",
        "rank": 15922,
        "rank_sort": 16072,
        "total": 2386
      },
      {
        "club_badge_src": "https://fantasy.premierleague.com/gcs/plfpl-production-adobe-approved/plfpl-production/7920065/1103d907-d208-4d45-9783-1194ef34a30f.png",
        "entry": 7920065,
        "entry_name": "Graceland Royals",
        "event_total": 76,
        "has_played": true,
        "id": 65169373,
        "last_rank": 30600,
        "player_name": "Michael Welsh",
        "rank": 15922,
        "rank_sort": 16073,
        "total": 2386
      },
      {
        "club_badge_src": null,
        "entry": 8018177,
        "entry_name": "leeseopretty",
        "event_total": 59,
        "has_played": true,
        "id": 66048688,
        "last_rank": 16729,
        "player_name": "Zachary Hui",
        "rank": 15922,
        "rank_sort": 16074,
        "total": 2386
      },
      {
        "club_badge_src": null,
        "entry": 8184535,
        "entry_name": "Half the world (a)",
        "event_total": 50,
        "has_played": true,
        "id": 67594092,
        "last_rank": 11699,
        "player_name": "Alex Johnson",
        "rank": 15922,
        "rank_sort": 16075,
        "total": 2386
      },
      {
        "club_badge_src": null,
        "entry": 8269793,
        "entry_name": "Janner in the toon",
        "event_total": 61,
        "has_played": true,
        "id": 68412607,
        "last_rank": 18113,
        "player_name": "Ollie Stapleton",
        "rank": 15922,
        "rank_sort": 16076,
        "total": 2386
      },
      {
        "club_badge_src": null,
        "entry": 8277698,
        "entry_name": "Vibes FC",
        "event_total": 88,
        "has_played": true,
        "id": 68487363,
        "last_rank": 45182,
        "player_name": "Ryan Strange",
        "rank": 15922,
        "rank_sort": 16077,
        "total": 2386
      },
      {
        "club_badge_src": null,
        "entry": 8353842,
        "entry_name": "MirrorSignalMalouda",
        "event_total": 53,
        "has_played": true,
        "id": 69238385,
        "last_rank": 13257,
        "player_name": "Laurence Allen Ruthven",
        "rank": 15922,
        "rank_sort": 16078,
        "total": 2386
      },
      {
        "club_badge_src": null,
        "entry": 8391305,
        "entry_name": "Saka Potatoes",
        "event_total": 59,
        "has_played": true,
        "id": 69598285,
        "last_rank": 16807,
        "player_name": "Ben Mollett",
        "rank": 15922,
        "rank_sort": 16079,
        "total": 2386
      },
      {
        "club_badge_src": null,
        "entry": 8438550,
        "entry_name": "gengm3",
        "event_total": 69,
        "has_played": true,
        "id": 70046048,
        "last_rank": 24039,
        "player_name": "Akarasate Jivavisitnont",
        "rank": 15922,
        "rank_sort": 16080,
        "total": 2386
      },
      {
        "club_badge_src": null,
        "entry": 8681581,
        "entry_name": "Pun",
        "event_total": 66,
        "has_played": true,
        "id": 72399914,
        "last_rank": 21677,
        "player_name": "Pun C",
        "rank": 15922,
        "rank_sort": 16081,
        "total": 2386
      },
      {
        "club_badge_src": "https://fantasy.premierleague.com/gcs/plfpl-production-adobe-approved/plfpl-production/8991160/7a04887c-0361-4cef-9078-45afa395d582.png",
        "entry": 8991160,
        "entry_name": "Good Knight FC",
        "event_total": 50,
        "has_played": true,
        "id": 75396014,
        "last_rank": 11699,
        "player_name": "Sam Knight",
        "rank": 15922,
        "rank_sort": 16082,
        "total": 2386
      },
      {
        "club_badge_src": null,
        "entry": 9116248,
        "entry_name": "Bryan Mbumboclaat",
        "event_total": 53,
        "has_played": true,
        "id": 76610699,
        "last_rank": 13132,
        "player_name": "Sabrina F",
        "rank": 15922,
        "rank_sort": 16083,
        "total": 2386
      },
      {
        "club_badge_src": null,
        "entry": 9235929,
        "entry_name": "Scarra ball",
        "event_total": 55,
        "has_played": true,
        "id": 77785845,
        "last_rank": 14370,
        "player_name": "\u00c1ine O Connor",
        "rank": 15922,
        "rank_sort": 16084,
        "total": 2386
      },
      {
        "club_badge_src": null,
        "entry": 9281289,
        "entry_name": "chiefFC",
        "event_total": 63,
        "has_played": true,
        "id": 78228631,
        "last_rank": 19544,
        "player_name": "Ash Bari",
        "rank": 15922,
        "rank_sort": 16085,
        "total": 2386
      },
      {
        "club_badge_src": null,
        "entry": 196,
        "entry_name": "Wrecks Ham",
        "event_total": 60,
        "has_played": true,
        "id": 1081,
        "last_rank": 14857,
        "player_name": "Japesh Seewoopersad",
        "rank": 16086,
        "rank_sort": 16086,
        "total": 2386
      },
      {
        "club_badge_src": "https://fantasy.premierleague.com/gcs/plfpl-production-adobe-approved/plfpl-production/1244/c54647d7-2f0a-4a9b-9af0-c5e55ff7e7ed.png",
        "entry": 1244,
        "entry_name": "HasItEverBeenHome?",
        "event_total": 76,
        "has_played": true,
        "id": 6908,
        "last_rank": 26710,
        "player_name": "Mart -",
        "rank": 16086,
        "rank_sort": 16087,
        "total": 2386
      },
      {
        "club_badge_src": "https://fantasy.premierleague.com/gcs/plfpl-production-adobe-approved/plfpl-production/2181/a504de56-3776-42b9-90ca-58f6d0632cfe.png",
        "entry": 2181,
        "entry_name": "Creedey FC",
        "event_total": 43,
        "has_played": true,
        "id": 12159,
        "last_rank": 7375,
        "player_name": "Kristian Flagstad Kristiansen",
        "rank": 16086,
        "rank_sort": 16088,
        "total": 2386
      },
      {
        "club_badge_src": "https://fantasy.premierleague.com/gcs/plfpl-production-adobe-approved/plfpl-production/2756/745a5794-edf5-4ee2-9ac3-f6bfce2e0a59.png",
        "entry": 2756,
        "entry_name": "BoshKash",
        "event_total": 58,
        "has_played": true,
        "id": 15472,
        "last_rank": 16163,
        "player_name": "Beshoy Adeeb",
        "rank": 16086,
        "rank_sort": 16089,
        "total": 2386
      },
      {
        "club_badge_src": null,
        "entry": 6565,
        "entry_name": "Unathletic Bilbao",
        "event_total": 68,
        "has_played": true,
        "id": 37702,
        "last_rank": 23341,
        "player_name": "Elijah Lawther",
        "rank": 16086,
        "rank_sort": 16090,
        "total": 2386
      },
      {
        "club_badge_src": "https://fantasy.premierleague.com/gcs/plfpl-production-adobe-approved/plfpl-production/20616/09c716a9-06d4-4f83-a647-32b7c91b173f.png",
        "entry": 20616,
        "entry_name": "The Way Of The Ace",
        "event_total": 61,
        "has_played": true,
        "id": 128823,
        "last_rank": 15550,
        "player_name": "Max Soo",
        "rank": 16086,
        "rank_sort": 16091,
        "total": 2386
      },
      {
        "club_badge_src": null,
        "entry": 54515,
        "entry_name": "cheeseheads",
        "event_total": 78,
        "has_played": true,
        "id": 350859,
        "last_rank": 33147,
        "player_name": "AUSTIN QUINN",
        "rank": 16086,
        "rank_sort": 16092,
        "total": 2386
      },
      {
        "club_badge_src": null,
        "entry": 72794,
        "entry_name": "StoneColeStevePalmer",
        "event_total": 59,
        "has_played": true,
        "id": 473092,
        "last_rank": 14292,
        "player_name": "Aman Bains",
        "rank": 16086,
        "rank_sort": 16093,
        "total": 2386
      },
      {
        "club_badge_src": "https://fantasy.premierleague.com/gcs/plfpl-production-adobe-approved/plfpl-production/97788/dbe8f68d-2145-4f01-831d-8ef8c720e407.png",
        "entry": 97788,
        "entry_name": "Van Dijkstra's Algo",
        "event_total": 65,
        "has_played": true,
        "id": 638652,
        "last_rank": 18113,
        "player_name": "Keilan Kenny",
        "rank": 16086,
        "rank_sort": 16094,
        "total": 2386
      },
      {
        "club_badge_src": "https://fantasy.premierleague.com/gcs/plfpl-production-adobe-approved/plfpl-production/106314/cdb472da-3c64-489d-98c1-1b378f8b20b5.png",
        "entry": 106314,
        "entry_name": "The Red Devils",
        "event_total": 60,
        "has_played": true,
        "id": 693262,
        "last_rank": 14926,
        "player_name": "Tom Helyar",
        "rank": 16086,
        "rank_sort": 16095,
        "total": 2386
      },
      {
        "club_badge_src": "https://fantasy.premierleague.com/gcs/plfpl-production-adobe-approved/plfpl-production/109800/aa966ade-db45-403f-993e-e5bfe2fff764.png",
        "entry": 109800,
        "entry_name": "Troll Palmer",
        "event_total": 58,
        "has_played": true,
        "id": 715985,
        "last_rank": 16320,
        "player_name": "James Rollinson",
        "rank": 16086,
        "rank_sort": 16096,
        "total": 2386
      },
      {
        "club_badge_src": "https://fantasy.premierleague.com/gcs/plfpl-production-adobe-approved/plfpl-production/123602/479daade-2766-4e00-a8f2-b6f9f9f651be.png",
        "entry": 123602,
        "entry_name": "Shekkers United",
        "event_total": 60,
        "has_played": true,
        "id": 806215,
        "last_rank": 17437,
        "player_name": "Michael Shek",
        "rank": 16086,
        "rank_sort": 16097,
        "total": 2386
      },
      {
        "club_badge_src": null,
        "entry": 126351,
        "entry_name": "COLPAN",
        "event_total": 69,
        "has_played": true,
        "id": 823876,
        "last_rank": 24330,
        "player_name": "Cengizhan Colpan",
        "rank": 16086,
        "rank_sort": 16098,
        "total": 2386
      },
      {
        "club_badge_src": null,
        "entry": 127798,
        "entry_name": "Biglad_11",
        "event_total": 52,
        "has_played": true,
        "id": 833029,
        "last_rank": 10805,
        "player_name": "George Hardy",
        "rank": 16086,
        "rank_sort": 16099,
        "total": 2386
      },
      {
        "club_badge_src": null,
        "entry": 171563,
        "entry_name": "Billy",
        "event_total": 61,
        "has_played": true,
        "id": 1133327,
        "last_rank": 15550,
        "player_name": "Syed Bilal",
        "rank": 16086,
        "rank_sort": 16100,
        "total": 2386
      }
    ]
  }
}