{
  "last_updated_data": "2026-05-24T23:28:17Z",
  "league": {
    "admin_entry": null,
    "closed": false,
    "code_privacy": "p",
    "created": "2025-07-20T23:14:33.933835Z",
    "cup_league": 2815434,
    "has_cup": true,
    "id": 314,
    "league_type": "s",
    "max_entries": null,
    "name": "Overall",
    "rank": null,
    "scoring": "c",
    "start_event": 1
  },
  "new_entries": {
    "has_next": false,
    "page": 1,
    "results": []
  },
  "standings": {
    "has_next": true,
    "page": 1596,
    "results": [
      {
        "club_badge_src": null,
        "entry": 1897843,
        "entry_name": "JogaBonito3",
        "event_total": 43,
        "has_played": true,
        "id": 13377544,
        "last_rank": 54494,
        "player_name": "Michael Krenn",
        "rank": 79702,
        "rank_sort": 79751,
        "total": 2335
      },
      {
        "club_badge_src": "https://fantasy.premierleague.com/gcs/plfpl-production-adobe-approved/plfpl-production/2004777/ec367911-b791-4f33-b5e1-fddd4f20bdc2.png",
        "entry": 2004777,
        "entry_name": "Shots by Both Sides",
        "event_total": 56,
        "has_played": true,
        "id": 14173791,
        "last_rank": 79431,
        "player_name": "Robin Groen",
        "rank": 79702,
        "rank_sort": 79752,
        "total": 2335
      },
      {
        "club_badge_src": null,
        "entry": 2026269,
        "entry_name": "Livin' Saliba Loca",
        "event_total": 65,
        "has_played": true,
        "id": 14343693,
        "last_rank": 100527,
        "player_name": "Cam Brown",
        "rank": 79702,
        "rank_sort": 79753,
        "total": 2335
      },
      {
        "club_badge_src": null,
        "entry": 2046309,
        "entry_name": "Kinder Mbeumo",
        "event_total": 40,
        "has_played": true,
        "id": 14492578,
        "last_rank": 49880,
        "player_name": "Robert Urquhart",
        "rank": 79702,
        "rank_sort": 79754,
        "total": 2335
      },
      {
        "club_badge_src": null,
        "entry": 2122368,
        "entry_name": "Hall or nothing",
        "event_total": 62,
        "has_played": true,
        "id": 15076664,
        "last_rank": 93186,
        "player_name": "Alex Brown",
        "rank": 79702,
        "rank_sort": 79755,
        "total": 2335
      },
      {
        "club_badge_src": "https://fantasy.premierleague.com/gcs/plfpl-production-adobe-approved/plfpl-production/2197481/7327e095-ebaa-4bf0-853a-80770aa78e1f.png",
        "entry": 2197481,
        "entry_name": "Pepa07",
        "event_total": 48,
        "has_played": true,
        "id": 15636507,
        "last_rank": 63390,
        "player_name": "Josef Ol\u0161ansk\u00fd",
        "rank": 79702,
        "rank_sort": 79756,
        "total": 2335
      },
      {
        "club_badge_src": null,
        "entry": 2246110,
        "entry_name": "Brendan\u2019s Men",
        "event_total": 66,
        "has_played": true,
        "id": 16003086,
        "last_rank": 103254,
        "player_name": "Ryan Purcell",
        "rank": 79702,
        "rank_sort": 79757,
        "total": 2335
      },
      {
        "club_badge_src": null,
        "entry": 2328225,
        "entry_name": "Sin Miedo",
        "event_total": 66,
        "has_played": true,
        "id": 16610858,
        "last_rank": 103254,
        "player_name": "simon connelly",
        "rank": 79702,
        "rank_sort": 79758,
        "total": 2335
      },
      {
        "club_badge_src": null,
        "entry": 2579138,
        "entry_name": "Coach Clement",
        "event_total": 60,
        "has_played": true,
        "id": 18511044,
        "last_rank": 88594,
        "player_name": "Dennis Clement",
        "rank": 79702,
        "rank_sort": 79759,
        "total": 2335
      },
      {
        "club_badge_src": null,
        "entry": 2598490,
        "entry_name": "Ain't No Sonshine",
        "event_total": 74,
        "has_played": true,
        "id": 18661435,
        "last_rank": 125869,
        "player_name": "Archie - Jack Langham",
        "rank": 79702,
        "rank_sort": 79760,
        "total": 2335
      },
      {
        "club_badge_src": null,
        "entry": 2792418,
        "entry_name": "Spectator Mode : On",
        "event_total": 68,
        "has_played": true,
        "id": 20387638,
        "last_rank": 108496,
        "player_name": "Ryan Godinho",
        "rank": 79702,
        "rank_sort": 79761,
        "total": 2335
      },
      {
        "club_badge_src": null,
        "entry": 2823653,
        "entry_name": "champagne superkova",
        "event_total": 60,
        "has_played": true,
        "id": 20629850,
        "last_rank": 88594,
        "player_name": "Louis Jones",
        "rank": 79702,
        "rank_sort": 79762,
        "total": 2335
      },
      {
        "club_badge_src": "https://fantasy.premierleague.com/gcs/plfpl-production-adobe-approved/plfpl-production/2832444/a258cbdb-8e93-4825-b03f-2c501737250e.png",
        "entry": 2832444,
        "entry_name": "Sr. Alfredo",
        "event_total": 57,
        "has_played": true,
        "id": 20697684,
        "last_rank": 81646,
        "player_name": "Sr. Alfredo",
        "rank": 79702,
        "rank_sort": 79763,
        "total": 2335
      },
      {
        "club_badge_src": null,
        "entry": 3025331,
        "entry_name": "Calafioricatiom",
        "event_total": 68,
        "has_played": true,
        "id": 22260047,
        "last_rank": 108959,
        "player_name": "Henrik Schia",
        "rank": 79702,
        "rank_sort": 79764,
        "total": 2335
      },
      {
        "club_badge_src": null,
        "entry": 3034415,
        "entry_name": "X-Men",
        "event_total": 65,
        "has_played": true,
        "id": 22331096,
        "last_rank": 100700,
        "player_name": "Adrian Hough",
        "rank": 79702,
        "rank_sort": 79765,
        "total": 2335
      },
      {
        "club_badge_src": null,
        "entry": 3055069,
        "entry_name": "Pedlo Porro",
        "event_total": 58,
        "has_played": true,
        "id": 22491842,
        "last_rank": 83584,
        "player_name": "Jamie Lowe",
        "rank": 79702,
        "rank_sort": 79766,
        "total": 2335
      },
      {
        "club_badge_src": null,
        "entry": 3102649,
        "entry_name": "Snabba Matty Cash",
        "event_total": 47,
        "has_played": true,
        "id": 22875571,
        "last_rank": 54416,
        "player_name": "Filip Johnson",
        "rank": 79702,
        "rank_sort": 79767,
        "total": 2335
      },
      {
        "club_badge_src": null,
        "entry": 3113688,
        "entry_name": "Kitchen Stove FC",
        "event_total": 65,
        "has_played": true,
        "id": 22977110,
        "last_rank": 100700,
        "player_name": "Brian ODonoghue",
        "rank": 79702,
        "rank_sort": 79768,
        "total": 2335
      },
      {
        "club_badge_src": "https://fantasy.premierleague.com/gcs/plfpl-production-adobe-approved/plfpl-production/3132282/95a0c327-4841-43d2-b00d-3aad81f0dffc.png",
        "entry": 3132282,
        "entry_name": "Magen",
        "event_total": 41,
        "has_played": true,
        "id": 23119896,
        "last_rank": 51403,
        "player_name": "Coach Drew",
        "rank": 79702,
        "rank_sort": 79769,
        "total": 2335
      },
      {
        "club_badge_src": null,
        "entry": 3523068,
        "entry_name": "Bruno's march",
        "event_total": 52,
        "has_played": true,
        "id": 26218955,
        "last_rank": 70651,
        "player_name": "K\u00e1ri Eir\u00edksson",
        "rank": 79702,
        "rank_sort": 79770,
        "total": 2335
      },
      {
        "club_badge_src": null,
        "entry": 3649683,
        "entry_name": "Santa\u2019s Reijnders",
        "event_total": 75,
        "has_played": true,
        "id": 27204326,
        "last_rank": 129205,
        "player_name": "Archie Parker-Buckler",
        "rank": 79702,
        "rank_sort": 79771,
        "total": 2335
      },
      {
        "club_badge_src": null,
        "entry": 3777928,
        "entry_name": "Delap Dancer!",
        "event_total": 65,
        "has_played": true,
        "id": 28209405,
        "last_rank": 100488,
        "player_name": "Zharfan Mohd",
        "rank": 79702,
        "rank_sort": 79772,
        "total": 2335
      },
      {
        "club_badge_src": null,
        "entry": 3853069,
        "entry_name": "\u0647\u0627\u0644\u0627\u0646\u062f",
        "event_total": 47,
        "has_played": true,
        "id": 28884611,
        "last_rank": 61606,
        "player_name": "\u0639\u0645\u0643\u0645 \u0647\u0627\u0644\u0627\u0646\u062f",
        "rank": 79702,
        "rank_sort": 79773,
        "total": 2335
      },
      {
        "club_badge_src": null,
        "entry": 3973855,
        "entry_name": "Dangles",
        "event_total": 62,
        "has_played": true,
        "id": 29907433,
        "last_rank": 93186,
        "player_name": "Ramaldo Lima",
        "rank": 79702,
        "rank_sort": 79774,
        "total": 2335
      },
      {
        "club_badge_src": "https://fantasy.premierleague.com/gcs/plfpl-production-adobe-approved/plfpl-production/4019574/67eabc88-cd95-4ce1-9783-7b49d0f86b39.png",
        "entry": 4019574,
        "entry_name": "Syria",
        "event_total": 59,
        "has_played": true,
        "id": 30294310,
        "last_rank": 86054,
        "player_name": "Abdulgani Kassar",
        "rank": 79702,
        "rank_sort": 79775,
        "total": 2335
      },
      {
        "club_badge_src": null,
        "entry": 4044575,
        "entry_name": "Xhakalackadingdong",
        "event_total": 63,
        "has_played": true,
        "id": 30504657,
        "last_rank": 95890,
        "player_name": "Jack Bailey-Caulfield",
        "rank": 79702,
        "rank_sort": 79776,
        "total": 2335
      },
      {
        "club_badge_src": null,
        "entry": 4062837,
        "entry_name": "Iprefernottospeak",
        "event_total": 59,
        "has_played": true,
        "id": 30660113,
        "last_rank": 86054,
        "player_name": "Ross Duckworth",
        "rank": 79702,
        "rank_sort": 79777,
        "total": 2335
      },
      {
        "club_badge_src": null,
        "entry": 4072553,
        "entry_name": "The Boo Boys",
        "event_total": 64,
        "has_played": true,
        "id": 30739601,
        "last_rank": 98073,
        "player_name": "Ben Smith",
        "rank": 79702,
        "rank_sort": 79778,
        "total": 2335
      },
      {
        "club_badge_src": null,
        "entry": 4080890,
        "entry_name": "The Dancing Dwarfs",
        "event_total": 47,
        "has_played": true,
        "id": 30806701,
        "last_rank": 61411,
        "player_name": "Neill Blessing",
        "rank": 79702,
        "rank_sort": 79779,
        "total": 2335
      },
      {
        "club_badge_src": null,
        "entry": 4146827,
        "entry_name": "SeaBass FC",
        "event_total": 69,
        "has_played": true,
        "id": 31342298,
        "last_rank": 111169,
        "player_name": "Sebastian Jensen",
        "rank": 79702,
        "rank_sort": 79780,
        "total": 2335
      },
      {
        "club_badge_src": null,
        "entry": 4342720,
        "entry_name": "$300 FC",
        "event_total": 57,
        "has_played": true,
        "id": 32974006,
        "last_rank": 81420,
        "player_name": "Christos Matsoukas",
        "rank": 79702,
        "rank_sort": 79781,
        "total": 2335
      },
      {
        "club_badge_src": null,
        "entry": 4385883,
        "entry_name": "Vuncle's 11",
        "event_total": 64,
        "has_played": true,
        "id": 33337440,
        "last_rank": 98183,
        "player_name": "Luke Higgs",
        "rank": 79702,
        "rank_sort": 79782,
        "total": 2335
      },
      {
        "club_badge_src": null,
        "entry": 4397728,
        "entry_name": "Lord of the Mings",
        "event_total": 37,
        "has_played": true,
        "id": 33441213,
        "last_rank": 45252,
        "player_name": "Mattis Eriksen",
        "rank": 79702,
        "rank_sort": 79783,
        "total": 2335
      },
      {
        "club_badge_src": "https://fantasy.premierleague.com/gcs/plfpl-production-adobe-approved/plfpl-production/4413891/224829cf-9f05-4a79-bd55-e83097ee632e.png",
        "entry": 4413891,
        "entry_name": "Maestro Blaster",
        "event_total": 53,
        "has_played": true,
        "id": 33578442,
        "last_rank": 72815,
        "player_name": "Yuri Kirilovsky",
        "rank": 79702,
        "rank_sort": 79784,
        "total": 2335
      },
      {
        "club_badge_src": null,
        "entry": 4561058,
        "entry_name": "Panic at the Sesko",
        "event_total": 56,
        "has_played": true,
        "id": 34804330,
        "last_rank": 79431,
        "player_name": "Martin Calleja Urry",
        "rank": 79702,
        "rank_sort": 79785,
        "total": 2335
      },
      {
        "club_badge_src": null,
        "entry": 4570439,
        "entry_name": "Lord of the Ings",
        "event_total": 63,
        "has_played": true,
        "id": 34879970,
        "last_rank": 95527,
        "player_name": "Alex Cook",
        "rank": 79702,
        "rank_sort": 79786,
        "total": 2335
      },
      {
        "club_badge_src": null,
        "entry": 4629052,
        "entry_name": "Fabrique Belgique",
        "event_total": 44,
        "has_played": true,
        "id": 35393286,
        "last_rank": 56369,
        "player_name": "Aj Rowley",
        "rank": 79702,
        "rank_sort": 79787,
        "total": 2335
      },
      {
        "club_badge_src": null,
        "entry": 4673577,
        "entry_name": "Cunha Dig It Saka",
        "event_total": 53,
        "has_played": true,
        "id": 35800841,
        "last_rank": 72815,
        "player_name": "Vratesh Patel",
        "rank": 79702,
        "rank_sort": 79788,
        "total": 2335
      },
      {
        "club_badge_src": null,
        "entry": 4744037,
        "entry_name": "Change Name",
        "event_total": 48,
        "has_played": true,
        "id": 36502933,
        "last_rank": 63390,
        "player_name": "Peter Hardingham",
        "rank": 79702,
        "rank_sort": 79789,
        "total": 2335
      },
      {
        "club_badge_src": null,
        "entry": 4933723,
        "entry_name": "debruyneless",
        "event_total": 67,
        "has_played": true,
        "id": 38061059,
        "last_rank": 105963,
        "player_name": "darren whittaker",
        "rank": 79702,
        "rank_sort": 79790,
        "total": 2335
      },
      {
        "club_badge_src": null,
        "entry": 4949988,
        "entry_name": "MK Dons United",
        "event_total": 38,
        "has_played": true,
        "id": 38194948,
        "last_rank": 46839,
        "player_name": "Lewis McClinton",
        "rank": 79702,
        "rank_sort": 79791,
        "total": 2335
      },
      {
        "club_badge_src": null,
        "entry": 5113614,
        "entry_name": "Moyes Boys",
        "event_total": 65,
        "has_played": true,
        "id": 39533447,
        "last_rank": 100700,
        "player_name": "Daniel Davey",
        "rank": 79702,
        "rank_sort": 79792,
        "total": 2335
      },
      {
        "club_badge_src": null,
        "entry": 5149944,
        "entry_name": "isak of potatoes",
        "event_total": 51,
        "has_played": true,
        "id": 39842761,
        "last_rank": 68748,
        "player_name": "Chris Firth",
        "rank": 79702,
        "rank_sort": 79793,
        "total": 2335
      },
      {
        "club_badge_src": "https://fantasy.premierleague.com/gcs/plfpl-production-adobe-approved/plfpl-production/5266547/3cb4aa14-0c8e-4b60-9c24-3d385eed71a1.png",
        "entry": 5266547,
        "entry_name": "Persian Panther",
        "event_total": 68,
        "has_played": true,
        "id": 40819079,
        "last_rank": 108689,
        "player_name": "Arash Riazi",
        "rank": 79702,
        "rank_sort": 79794,
        "total": 2335
      },
      {
        "club_badge_src": null,
        "entry": 5279374,
        "entry_name": "Cunha believe it",
        "event_total": 63,
        "has_played": true,
        "id": 40920257,
        "last_rank": 95890,
        "player_name": "Callum Harris",
        "rank": 79702,
        "rank_sort": 79795,
        "total": 2335
      },
      {
        "club_badge_src": null,
        "entry": 5345826,
        "entry_name": "Meus Jogadores",
        "event_total": 61,
        "has_played": true,
        "id": 41477996,
        "last_rank": 90625,
        "player_name": "Mari de FCM",
        "rank": 79702,
        "rank_sort": 79796,
        "total": 2335
      },
      {
        "club_badge_src": null,
        "entry": 5362125,
        "entry_name": "Team Jonny",
        "event_total": 65,
        "has_played": true,
        "id": 41648603,
        "last_rank": 100949,
        "player_name": "Jonny Andersen",
        "rank": 79702,
        "rank_sort": 79797,
        "total": 2335
      },
      {
        "club_badge_src": null,
        "entry": 5476064,
        "entry_name": "jralooooo",
        "event_total": 60,
        "has_played": true,
        "id": 42630560,
        "last_rank": 88348,
        "player_name": "Hassan Abbas",
        "rank": 79702,
        "rank_sort": 79798,
        "total": 2335
      },
      {
        "club_badge_src": null,
        "entry": 5524316,
        "entry_name": "The Slot Thickens",
        "event_total": 58,
        "has_played": true,
        "id": 43080237,
        "last_rank": 83584,
        "player_name": "Daniel MacQuillan",
        "rank": 79702,
        "rank_sort": 79799,
        "total": 2335
      },
      {
        "club_badge_src": null,
        "entry": 5548218,
        "entry_name": "Hansa Stars",
        "event_total": 43,
        "has_played": true,
        "id": 43299092,
        "last_rank": 54667,
        "player_name": "Erik gustavsen Mostue",
        "rank": 79702,
        "rank_sort": 79800,
        "total": 2335
      }
    ]
  }
}