{
  "last_updated_data": "2026-05-24T23:28:17Z",
  "league": {
    "admin_entry": null,
    "closed": false,
    "code_privacy": "p",
    "created": "2025-07-20T23:14:33.933835Z",
    "cup_league": 2815434,
    "has_cup": true,
    "id": 314,
    "league_type": "s",
    "max_entries": null,
    "name": "Overall",
    "rank": null,
    "scoring": "c",
    "start_event": 1
  },
  "new_entries": {
    "has_next": false,
    "page": 1,
    "results": []
  },
  "standings": {
    "has_next": true,
    "page": 245,
    "results": [
      {
        "club_badge_src": null,
        "entry": 1676779,
        "entry_name": "JCU",
        "event_total": 59,
        "has_played": true,
        "id": 11739107,
        "last_rank": 12705,
        "player_name": "Jeff Cho",
        "rank": 12138,
        "rank_sort": 12201,
        "total": 2393
      },
      {
        "club_badge_src": "https://fantasy.premierleague.com/gcs/plfpl-production-adobe-approved/plfpl-production/1680188/4ffac0ff-8f76-4dd5-b5f6-4d267148b487.png",
        "entry": 1680188,
        "entry_name": "TK Hauligans",
        "event_total": 69,
        "has_played": true,
        "id": 11762172,
        "last_rank": 18790,
        "player_name": "John Rawlinson",
        "rank": 12138,
        "rank_sort": 12202,
        "total": 2393
      },
      {
        "club_badge_src": null,
        "entry": 1867377,
        "entry_name": "A-Cunha Mateta",
        "event_total": 57,
        "has_played": true,
        "id": 13144324,
        "last_rank": 11642,
        "player_name": "Deshan Weeraman",
        "rank": 12138,
        "rank_sort": 12203,
        "total": 2393
      },
      {
        "club_badge_src": null,
        "entry": 1886045,
        "entry_name": "\ufffdPALMER_10\ufffd",
        "event_total": 62,
        "has_played": true,
        "id": 13290183,
        "last_rank": 14496,
        "player_name": "PEERASAK HOONTRAGOON",
        "rank": 12138,
        "rank_sort": 12204,
        "total": 2393
      },
      {
        "club_badge_src": null,
        "entry": 1895922,
        "entry_name": "dzimiboyfc",
        "event_total": 72,
        "has_played": true,
        "id": 13363440,
        "last_rank": 21159,
        "player_name": "Simo Mugosa",
        "rank": 12138,
        "rank_sort": 12205,
        "total": 2393
      },
      {
        "club_badge_src": null,
        "entry": 1912749,
        "entry_name": "FK Storbrua",
        "event_total": 60,
        "has_played": true,
        "id": 13485565,
        "last_rank": 13257,
        "player_name": "Yngve Storbrua",
        "rank": 12138,
        "rank_sort": 12206,
        "total": 2393
      },
      {
        "club_badge_src": null,
        "entry": 1920724,
        "entry_name": "Refuel FC",
        "event_total": 45,
        "has_played": true,
        "id": 13544021,
        "last_rank": 7059,
        "player_name": "Jordan Neild",
        "rank": 12138,
        "rank_sort": 12207,
        "total": 2393
      },
      {
        "club_badge_src": null,
        "entry": 1933235,
        "entry_name": "Cole as Ice \ufffd",
        "event_total": 62,
        "has_played": true,
        "id": 13634901,
        "last_rank": 14292,
        "player_name": "Matthew Maher",
        "rank": 12138,
        "rank_sort": 12208,
        "total": 2393
      },
      {
        "club_badge_src": null,
        "entry": 1971698,
        "entry_name": "SalahMadeTeam",
        "event_total": 65,
        "has_played": true,
        "id": 13916396,
        "last_rank": 16062,
        "player_name": "Sudhir Phalthaw",
        "rank": 12138,
        "rank_sort": 12209,
        "total": 2393
      },
      {
        "club_badge_src": "https://fantasy.premierleague.com/gcs/plfpl-production-adobe-approved/plfpl-production/2031133/fed0e471-c23f-442b-9141-f81b69d998e7.png",
        "entry": 2031133,
        "entry_name": "PT team",
        "event_total": 41,
        "has_played": true,
        "id": 14379790,
        "last_rank": 5940,
        "player_name": "Pawe\u0142 Toczko",
        "rank": 12138,
        "rank_sort": 12210,
        "total": 2393
      },
      {
        "club_badge_src": null,
        "entry": 2040311,
        "entry_name": "Change Name",
        "event_total": 57,
        "has_played": true,
        "id": 14448497,
        "last_rank": 11699,
        "player_name": "Jack Branson",
        "rank": 12138,
        "rank_sort": 12211,
        "total": 2393
      },
      {
        "club_badge_src": "https://fantasy.premierleague.com/gcs/plfpl-production-adobe-approved/plfpl-production/2083162/42f4fb3d-5014-4388-bd8a-9b3459ea7592.png",
        "entry": 2083162,
        "entry_name": "Your Wirtz Nightmare",
        "event_total": 57,
        "has_played": true,
        "id": 14777597,
        "last_rank": 11608,
        "player_name": "werner morell",
        "rank": 12138,
        "rank_sort": 12212,
        "total": 2393
      },
      {
        "club_badge_src": null,
        "entry": 2114346,
        "entry_name": "Tottenham's Hotspurs",
        "event_total": 54,
        "has_played": true,
        "id": 15011249,
        "last_rank": 10346,
        "player_name": "Jon Tottenham",
        "rank": 12138,
        "rank_sort": 12213,
        "total": 2393
      },
      {
        "club_badge_src": null,
        "entry": 2166333,
        "entry_name": "In The Drop Zone",
        "event_total": 62,
        "has_played": true,
        "id": 15400750,
        "last_rank": 14292,
        "player_name": "Richard Jones",
        "rank": 12138,
        "rank_sort": 12214,
        "total": 2393
      },
      {
        "club_badge_src": null,
        "entry": 2340508,
        "entry_name": "FC TIWAWA",
        "event_total": 75,
        "has_played": true,
        "id": 16700165,
        "last_rank": 23341,
        "player_name": "Soufiane Ait addi",
        "rank": 12138,
        "rank_sort": 12215,
        "total": 2393
      },
      {
        "club_badge_src": null,
        "entry": 2403915,
        "entry_name": "Kinder Mbeumo",
        "event_total": 61,
        "has_played": true,
        "id": 17182161,
        "last_rank": 13754,
        "player_name": "Kristoffer Jorddal L\u00f8nning",
        "rank": 12138,
        "rank_sort": 12216,
        "total": 2393
      },
      {
        "club_badge_src": "https://fantasy.premierleague.com/gcs/plfpl-production-adobe-approved/plfpl-production/2565647/b66ba27a-a5c3-4350-8a9b-d983e31ed6c9.png",
        "entry": 2565647,
        "entry_name": "WhiteWalker",
        "event_total": 89,
        "has_played": true,
        "id": 18404159,
        "last_rank": 37589,
        "player_name": "Onos Mario Norbert",
        "rank": 12138,
        "rank_sort": 12217,
        "total": 2393
      },
      {
        "club_badge_src": null,
        "entry": 2696194,
        "entry_name": "ZDMP",
        "event_total": 55,
        "has_played": true,
        "id": 19394716,
        "last_rank": 10805,
        "player_name": "Bogdan Milosavljevic",
        "rank": 12138,
        "rank_sort": 12218,
        "total": 2393
      },
      {
        "club_badge_src": "https://fantasy.premierleague.com/gcs/plfpl-production-adobe-approved/plfpl-production/2700343/fd402e9d-397c-46fa-a5ac-ffbd2d1fefe6.png",
        "entry": 2700343,
        "entry_name": "Statpad Merchant FC",
        "event_total": 60,
        "has_played": true,
        "id": 19425209,
        "last_rank": 13257,
        "player_name": "John Sakala",
        "rank": 12138,
        "rank_sort": 12219,
        "total": 2393
      },
      {
        "club_badge_src": "https://fantasy.premierleague.com/gcs/plfpl-production-adobe-approved/plfpl-production/3044473/313292e5-b1b6-4acf-8bb2-5fb423ea0ee0.png",
        "entry": 3044473,
        "entry_name": "Have a Lookman",
        "event_total": 44,
        "has_played": true,
        "id": 22409865,
        "last_rank": 6752,
        "player_name": "Ewan Mason",
        "rank": 12138,
        "rank_sort": 12220,
        "total": 2393
      },
      {
        "club_badge_src": null,
        "entry": 3099115,
        "entry_name": "Team Eriksson",
        "event_total": 70,
        "has_played": true,
        "id": 22848855,
        "last_rank": 19544,
        "player_name": "Daniel Eriksson",
        "rank": 12138,
        "rank_sort": 12221,
        "total": 2393
      },
      {
        "club_badge_src": null,
        "entry": 3100919,
        "entry_name": "Rubber Digne Rapids",
        "event_total": 64,
        "has_played": true,
        "id": 22862613,
        "last_rank": 15550,
        "player_name": "Mollie Radford",
        "rank": 12138,
        "rank_sort": 12222,
        "total": 2393
      },
      {
        "club_badge_src": null,
        "entry": 3130273,
        "entry_name": "Dont know what to do",
        "event_total": 58,
        "has_played": true,
        "id": 23104373,
        "last_rank": 12099,
        "player_name": "Steven Thierie",
        "rank": 12138,
        "rank_sort": 12223,
        "total": 2393
      },
      {
        "club_badge_src": null,
        "entry": 3131472,
        "entry_name": "McKenna FC",
        "event_total": 54,
        "has_played": true,
        "id": 23113508,
        "last_rank": 10288,
        "player_name": "Conor McKenna",
        "rank": 12138,
        "rank_sort": 12224,
        "total": 2393
      },
      {
        "club_badge_src": null,
        "entry": 3173151,
        "entry_name": "Barri FC",
        "event_total": 70,
        "has_played": true,
        "id": 23445324,
        "last_rank": 19544,
        "player_name": "Andrew Walker",
        "rank": 12138,
        "rank_sort": 12225,
        "total": 2393
      },
      {
        "club_badge_src": null,
        "entry": 3199079,
        "entry_name": "Benson Burners FC",
        "event_total": 71,
        "has_played": true,
        "id": 23646993,
        "last_rank": 20179,
        "player_name": "Tawanda Mutsvairo",
        "rank": 12138,
        "rank_sort": 12226,
        "total": 2393
      },
      {
        "club_badge_src": "https://fantasy.premierleague.com/gcs/plfpl-production-adobe-approved/plfpl-production/3238457/4573e708-35d2-4851-b0bb-27a65bd832cf.png",
        "entry": 3238457,
        "entry_name": "Norfolk n Chance FC",
        "event_total": 62,
        "has_played": true,
        "id": 23953416,
        "last_rank": 14370,
        "player_name": "Steve Beal",
        "rank": 12138,
        "rank_sort": 12227,
        "total": 2393
      },
      {
        "club_badge_src": "https://fantasy.premierleague.com/gcs/plfpl-production-adobe-approved/plfpl-production/3355547/159d7430-44d0-4af2-9b77-9d1cc8e0804d.png",
        "entry": 3355547,
        "entry_name": "00Pluto",
        "event_total": 72,
        "has_played": true,
        "id": 24894874,
        "last_rank": 20888,
        "player_name": "Liam Vella",
        "rank": 12138,
        "rank_sort": 12228,
        "total": 2393
      },
      {
        "club_badge_src": null,
        "entry": 3362902,
        "entry_name": "aish sran",
        "event_total": 42,
        "has_played": true,
        "id": 24953170,
        "last_rank": 6265,
        "player_name": "Aish sran",
        "rank": 12138,
        "rank_sort": 12229,
        "total": 2393
      },
      {
        "club_badge_src": null,
        "entry": 3366722,
        "entry_name": "Cunha Believe It",
        "event_total": 48,
        "has_played": true,
        "id": 24982980,
        "last_rank": 8032,
        "player_name": "Charles Heffernan",
        "rank": 12138,
        "rank_sort": 12230,
        "total": 2393
      },
      {
        "club_badge_src": "https://fantasy.premierleague.com/gcs/plfpl-production-adobe-approved/plfpl-production/3444496/5d7483c5-6b4e-45eb-97ce-e327abe1e6bf.png",
        "entry": 3444496,
        "entry_name": "Le Fleur",
        "event_total": 66,
        "has_played": true,
        "id": 25592063,
        "last_rank": 16807,
        "player_name": "Sebastian Telvig",
        "rank": 12138,
        "rank_sort": 12231,
        "total": 2393
      },
      {
        "club_badge_src": null,
        "entry": 3631882,
        "entry_name": "Saka Potatoes",
        "event_total": 60,
        "has_played": true,
        "id": 27064619,
        "last_rank": 13257,
        "player_name": "Antony Polito",
        "rank": 12138,
        "rank_sort": 12232,
        "total": 2393
      },
      {
        "club_badge_src": null,
        "entry": 3731805,
        "entry_name": "Louises Lilywhites",
        "event_total": 59,
        "has_played": true,
        "id": 27854511,
        "last_rank": 12846,
        "player_name": "Louise Kerrigan",
        "rank": 12138,
        "rank_sort": 12233,
        "total": 2393
      },
      {
        "club_badge_src": null,
        "entry": 3869201,
        "entry_name": "Lexstino FC",
        "event_total": 76,
        "has_played": true,
        "id": 29022488,
        "last_rank": 24039,
        "player_name": "Nero Okans",
        "rank": 12138,
        "rank_sort": 12234,
        "total": 2393
      },
      {
        "club_badge_src": null,
        "entry": 3976821,
        "entry_name": "Cunha Believe It?",
        "event_total": 53,
        "has_played": true,
        "id": 29932970,
        "last_rank": 9942,
        "player_name": "Michael Gingell",
        "rank": 12138,
        "rank_sort": 12235,
        "total": 2393
      },
      {
        "club_badge_src": null,
        "entry": 4181004,
        "entry_name": "FC Hetauda",
        "event_total": 68,
        "has_played": true,
        "id": 31630584,
        "last_rank": 18113,
        "player_name": "Sunil Baral",
        "rank": 12138,
        "rank_sort": 12236,
        "total": 2393
      },
      {
        "club_badge_src": null,
        "entry": 4191251,
        "entry_name": "AZB",
        "event_total": 64,
        "has_played": true,
        "id": 31716886,
        "last_rank": 15550,
        "player_name": "Azfar Bassir",
        "rank": 12138,
        "rank_sort": 12237,
        "total": 2393
      },
      {
        "club_badge_src": null,
        "entry": 4571184,
        "entry_name": "THE COMEBACK KID",
        "event_total": 61,
        "has_played": true,
        "id": 34885962,
        "last_rank": 13720,
        "player_name": "Leftheri Katsougiannis",
        "rank": 12138,
        "rank_sort": 12238,
        "total": 2393
      },
      {
        "club_badge_src": null,
        "entry": 4634909,
        "entry_name": "JJ FC",
        "event_total": 64,
        "has_played": true,
        "id": 35443037,
        "last_rank": 15452,
        "player_name": "James Horton",
        "rank": 12138,
        "rank_sort": 12239,
        "total": 2393
      },
      {
        "club_badge_src": null,
        "entry": 4681156,
        "entry_name": "FC Wheel",
        "event_total": 69,
        "has_played": true,
        "id": 35869966,
        "last_rank": 18985,
        "player_name": "M\u00e5ns Wihl",
        "rank": 12138,
        "rank_sort": 12240,
        "total": 2393
      },
      {
        "club_badge_src": null,
        "entry": 4783671,
        "entry_name": "Under my Cucurella",
        "event_total": 60,
        "has_played": true,
        "id": 36825692,
        "last_rank": 13257,
        "player_name": "Dan Jenkins",
        "rank": 12138,
        "rank_sort": 12241,
        "total": 2393
      },
      {
        "club_badge_src": null,
        "entry": 5019013,
        "entry_name": "Clara FC",
        "event_total": 59,
        "has_played": true,
        "id": 38760429,
        "last_rank": 12645,
        "player_name": "Evelina Pettersson",
        "rank": 12138,
        "rank_sort": 12242,
        "total": 2393
      },
      {
        "club_badge_src": null,
        "entry": 5266024,
        "entry_name": "Mbanchester",
        "event_total": 65,
        "has_played": true,
        "id": 40815112,
        "last_rank": 16062,
        "player_name": "Siddhant Sanghavi",
        "rank": 12138,
        "rank_sort": 12243,
        "total": 2393
      },
      {
        "club_badge_src": null,
        "entry": 5286755,
        "entry_name": "Edomae United",
        "event_total": 61,
        "has_played": true,
        "id": 40979003,
        "last_rank": 13821,
        "player_name": "Pattharakorn Kasemsupapun",
        "rank": 12138,
        "rank_sort": 12244,
        "total": 2393
      },
      {
        "club_badge_src": null,
        "entry": 5312791,
        "entry_name": "Fabpool",
        "event_total": 49,
        "has_played": true,
        "id": 41182575,
        "last_rank": 8382,
        "player_name": "Fabian Tan",
        "rank": 12138,
        "rank_sort": 12245,
        "total": 2393
      },
      {
        "club_badge_src": null,
        "entry": 5356837,
        "entry_name": "Bruno's Pen Merchant",
        "event_total": 57,
        "has_played": true,
        "id": 41597394,
        "last_rank": 11699,
        "player_name": "Richard Taylor",
        "rank": 12138,
        "rank_sort": 12246,
        "total": 2393
      },
      {
        "club_badge_src": null,
        "entry": 5993206,
        "entry_name": "Shelbyvillians",
        "event_total": 62,
        "has_played": true,
        "id": 47229886,
        "last_rank": 14370,
        "player_name": "Jamie Hunt",
        "rank": 12138,
        "rank_sort": 12247,
        "total": 2393
      },
      {
        "club_badge_src": null,
        "entry": 6091845,
        "entry_name": "Catch Me If You Can",
        "event_total": 63,
        "has_played": true,
        "id": 48106312,
        "last_rank": 14857,
        "player_name": "Kashish Pal",
        "rank": 12138,
        "rank_sort": 12248,
        "total": 2393
      },
      {
        "club_badge_src": null,
        "entry": 6318891,
        "entry_name": "GloooryGlooory",
        "event_total": 72,
        "has_played": true,
        "id": 50162066,
        "last_rank": 20888,
        "player_name": "Sedir Hataee",
        "rank": 12138,
        "rank_sort": 12249,
        "total": 2393
      },
      {
        "club_badge_src": null,
        "entry": 6347348,
        "entry_name": "SIM ZIMMA",
        "event_total": 54,
        "has_played": true,
        "id": 50454313,
        "last_rank": 10288,
        "player_name": "Simon Semaan",
        "rank": 12138,
        "rank_sort": 12250,
        "total": 2393
      }
    ]
  }
}