{
  "last_updated_data": "2026-05-24T23:28:17Z",
  "league": {
    "admin_entry": null,
    "closed": false,
    "code_privacy": "p",
    "created": "2025-07-20T23:14:33.933835Z",
    "cup_league": 2815434,
    "has_cup": true,
    "id": 314,
    "league_type": "s",
    "max_entries": null,
    "name": "Overall",
    "rank": null,
    "scoring": "c",
    "start_event": 1
  },
  "new_entries": {
    "has_next": false,
    "page": 1,
    "results": []
  },
  "standings": {
    "has_next": true,
    "page": 1659,
    "results": [
      {
        "club_badge_src": null,
        "entry": 3572755,
        "entry_name": "Lukes Lucky 11",
        "event_total": 52,
        "has_played": true,
        "id": 26603273,
        "last_rank": 73720,
        "player_name": "Luke Baldwin",
        "rank": 82714,
        "rank_sort": 82901,
        "total": 2334
      },
      {
        "club_badge_src": null,
        "entry": 3637370,
        "entry_name": "Mumbai City",
        "event_total": 50,
        "has_played": true,
        "id": 27107057,
        "last_rank": 69641,
        "player_name": "Andrew Ballantyne",
        "rank": 82714,
        "rank_sort": 82902,
        "total": 2334
      },
      {
        "club_badge_src": null,
        "entry": 3800812,
        "entry_name": "Ninja Skrtels",
        "event_total": 60,
        "has_played": true,
        "id": 28412709,
        "last_rank": 82069,
        "player_name": "Andre Ubostad",
        "rank": 82714,
        "rank_sort": 82903,
        "total": 2334
      },
      {
        "club_badge_src": null,
        "entry": 3866092,
        "entry_name": "BONGX1",
        "event_total": 52,
        "has_played": true,
        "id": 28989590,
        "last_rank": 73720,
        "player_name": "SAMIK MULLICK",
        "rank": 82714,
        "rank_sort": 82904,
        "total": 2334
      },
      {
        "club_badge_src": null,
        "entry": 3901013,
        "entry_name": "Rutter Woke Nonsense",
        "event_total": 53,
        "has_played": true,
        "id": 29324919,
        "last_rank": 75537,
        "player_name": "Jack Bland",
        "rank": 82714,
        "rank_sort": 82905,
        "total": 2334
      },
      {
        "club_badge_src": null,
        "entry": 3903771,
        "entry_name": "Kroos Control FC",
        "event_total": 60,
        "has_played": true,
        "id": 29346956,
        "last_rank": 91006,
        "player_name": "Gaurav Chaturvedi",
        "rank": 82714,
        "rank_sort": 82906,
        "total": 2334
      },
      {
        "club_badge_src": null,
        "entry": 3913756,
        "entry_name": "FCB",
        "event_total": 51,
        "has_played": true,
        "id": 29427613,
        "last_rank": 71956,
        "player_name": "Djamel Eddine",
        "rank": 82714,
        "rank_sort": 82907,
        "total": 2334
      },
      {
        "club_badge_src": null,
        "entry": 3943276,
        "entry_name": "Wissa'pon a star",
        "event_total": 62,
        "has_played": true,
        "id": 29663457,
        "last_rank": 86735,
        "player_name": "Tristan Barquin",
        "rank": 82714,
        "rank_sort": 82908,
        "total": 2334
      },
      {
        "club_badge_src": null,
        "entry": 4038749,
        "entry_name": "JiJi & RuRi",
        "event_total": 61,
        "has_played": true,
        "id": 30455881,
        "last_rank": 93883,
        "player_name": "keith kwok",
        "rank": 82714,
        "rank_sort": 82909,
        "total": 2334
      },
      {
        "club_badge_src": null,
        "entry": 4054030,
        "entry_name": "Kinder Mbeumo",
        "event_total": 66,
        "has_played": true,
        "id": 30587518,
        "last_rank": 107162,
        "player_name": "Sion Pridmore",
        "rank": 82714,
        "rank_sort": 82910,
        "total": 2334
      },
      {
        "club_badge_src": null,
        "entry": 4095681,
        "entry_name": "Shakers2025",
        "event_total": 48,
        "has_played": true,
        "id": 30924703,
        "last_rank": 65796,
        "player_name": "Neil Tunstall",
        "rank": 82714,
        "rank_sort": 82911,
        "total": 2334
      },
      {
        "club_badge_src": null,
        "entry": 4120451,
        "entry_name": "Livin' La Vardy Loca",
        "event_total": 66,
        "has_played": true,
        "id": 31129097,
        "last_rank": 106763,
        "player_name": "Viren Mistry",
        "rank": 82714,
        "rank_sort": 82912,
        "total": 2334
      },
      {
        "club_badge_src": null,
        "entry": 4191746,
        "entry_name": "MOQ",
        "event_total": 41,
        "has_played": true,
        "id": 31721009,
        "last_rank": 53621,
        "player_name": "MOQ Abdulelah",
        "rank": 82714,
        "rank_sort": 82913,
        "total": 2334
      },
      {
        "club_badge_src": "https://fantasy.premierleague.com/gcs/plfpl-production-adobe-approved/plfpl-production/4210043/2976dd59-73ae-4a99-9f8f-a03570c75d35.png",
        "entry": 4210043,
        "entry_name": "Kuch toh log kahenge",
        "event_total": 72,
        "has_played": true,
        "id": 31875284,
        "last_rank": 124336,
        "player_name": "Benjamin Dsouza",
        "rank": 82714,
        "rank_sort": 82914,
        "total": 2334
      },
      {
        "club_badge_src": null,
        "entry": 4341867,
        "entry_name": "The Ballon Doiye",
        "event_total": 36,
        "has_played": true,
        "id": 32967110,
        "last_rank": 46106,
        "player_name": "Eyal Dorfan",
        "rank": 82714,
        "rank_sort": 82915,
        "total": 2334
      },
      {
        "club_badge_src": null,
        "entry": 4402823,
        "entry_name": "Virgil Allstars",
        "event_total": 68,
        "has_played": true,
        "id": 33486337,
        "last_rank": 101419,
        "player_name": "H\u00e5vard Loftheim",
        "rank": 82714,
        "rank_sort": 82916,
        "total": 2334
      },
      {
        "club_badge_src": null,
        "entry": 4416867,
        "entry_name": "StubbedMiToMa",
        "event_total": 57,
        "has_played": true,
        "id": 33603063,
        "last_rank": 84360,
        "player_name": "Arbaaz Shaik",
        "rank": 82714,
        "rank_sort": 82917,
        "total": 2334
      },
      {
        "club_badge_src": null,
        "entry": 4422787,
        "entry_name": "Kaise Do F C",
        "event_total": 55,
        "has_played": true,
        "id": 33652161,
        "last_rank": 79431,
        "player_name": "Ladeed 04",
        "rank": 82714,
        "rank_sort": 82918,
        "total": 2334
      },
      {
        "club_badge_src": null,
        "entry": 4458554,
        "entry_name": "Bend it like rice",
        "event_total": 71,
        "has_played": true,
        "id": 33965506,
        "last_rank": 120438,
        "player_name": "Magnus Thorsen",
        "rank": 82714,
        "rank_sort": 82919,
        "total": 2334
      },
      {
        "club_badge_src": null,
        "entry": 4465212,
        "entry_name": "Toyyib FC",
        "event_total": 53,
        "has_played": true,
        "id": 34022220,
        "last_rank": 75874,
        "player_name": "Bella ciao",
        "rank": 82714,
        "rank_sort": 82920,
        "total": 2334
      },
      {
        "club_badge_src": null,
        "entry": 4521409,
        "entry_name": "Coutinho que te paso",
        "event_total": 49,
        "has_played": true,
        "id": 34482467,
        "last_rank": 67695,
        "player_name": "Pluyyy malone",
        "rank": 82714,
        "rank_sort": 82921,
        "total": 2334
      },
      {
        "club_badge_src": null,
        "entry": 4574718,
        "entry_name": "Tirakoobka",
        "event_total": 59,
        "has_played": true,
        "id": 34917004,
        "last_rank": 89055,
        "player_name": "Klas Berggren",
        "rank": 82714,
        "rank_sort": 82922,
        "total": 2334
      },
      {
        "club_badge_src": null,
        "entry": 4587869,
        "entry_name": "Maverick",
        "event_total": 48,
        "has_played": true,
        "id": 35030667,
        "last_rank": 58388,
        "player_name": "Kaizad Bhathena",
        "rank": 82714,
        "rank_sort": 82923,
        "total": 2334
      },
      {
        "club_badge_src": "https://fantasy.premierleague.com/gcs/plfpl-production-adobe-approved/plfpl-production/4683605/70a20e31-885a-421f-b8d0-3062371f7477.png",
        "entry": 4683605,
        "entry_name": "Mulhaaland Drive",
        "event_total": 68,
        "has_played": true,
        "id": 35890929,
        "last_rank": 91006,
        "player_name": "\u0393\u03b9\u03b1\u03bd\u03bd\u03b7\u03c2 \u039c\u03b1\u03c1\u03b7\u03c2",
        "rank": 82714,
        "rank_sort": 82924,
        "total": 2334
      },
      {
        "club_badge_src": null,
        "entry": 4715914,
        "entry_name": "Kennys Crackers",
        "event_total": 45,
        "has_played": true,
        "id": 36207999,
        "last_rank": 60462,
        "player_name": "Ken Hyland",
        "rank": 82714,
        "rank_sort": 82925,
        "total": 2334
      },
      {
        "club_badge_src": null,
        "entry": 4748654,
        "entry_name": "Seagullslayers",
        "event_total": 60,
        "has_played": true,
        "id": 36540078,
        "last_rank": 91835,
        "player_name": "Ole Foss Johannesen",
        "rank": 82714,
        "rank_sort": 82926,
        "total": 2334
      },
      {
        "club_badge_src": "https://fantasy.premierleague.com/gcs/plfpl-production-adobe-approved/plfpl-production/4756108/b587f9b4-c71d-41c3-bc2f-f1813956b4a9.png",
        "entry": 4756108,
        "entry_name": "Backstreet Moyes",
        "event_total": 63,
        "has_played": true,
        "id": 36599825,
        "last_rank": 98436,
        "player_name": "R Daniels",
        "rank": 82714,
        "rank_sort": 82927,
        "total": 2334
      },
      {
        "club_badge_src": null,
        "entry": 4801136,
        "entry_name": "Saints",
        "event_total": 56,
        "has_played": true,
        "id": 36965954,
        "last_rank": 82398,
        "player_name": "Andrew Ang",
        "rank": 82714,
        "rank_sort": 82928,
        "total": 2334
      },
      {
        "club_badge_src": "https://fantasy.premierleague.com/gcs/plfpl-production-adobe-approved/plfpl-production/4854997/5878ffeb-6bb1-42d7-b543-95ebf4874a0e.png",
        "entry": 4854997,
        "entry_name": "BadminTao",
        "event_total": 66,
        "has_played": true,
        "id": 37408446,
        "last_rank": 107162,
        "player_name": "Vitharnsak Bhokanandh",
        "rank": 82714,
        "rank_sort": 82929,
        "total": 2334
      },
      {
        "club_badge_src": "https://fantasy.premierleague.com/gcs/plfpl-production-adobe-approved/plfpl-production/4855891/b99ea110-6a08-4bd4-bc0a-82edec47133a.png",
        "entry": 4855891,
        "entry_name": "Amorim's Aape",
        "event_total": 60,
        "has_played": true,
        "id": 37415914,
        "last_rank": 91835,
        "player_name": "Shaad Boltman",
        "rank": 82714,
        "rank_sort": 82930,
        "total": 2334
      },
      {
        "club_badge_src": null,
        "entry": 4865431,
        "entry_name": "You cant Farke there",
        "event_total": 64,
        "has_played": true,
        "id": 37497615,
        "last_rank": 101419,
        "player_name": "Fraser Bales",
        "rank": 82714,
        "rank_sort": 82931,
        "total": 2334
      },
      {
        "club_badge_src": null,
        "entry": 4897218,
        "entry_name": "Villains  F.C.",
        "event_total": 52,
        "has_played": true,
        "id": 37761241,
        "last_rank": 65475,
        "player_name": "lloyd stokes",
        "rank": 82714,
        "rank_sort": 82932,
        "total": 2334
      },
      {
        "club_badge_src": null,
        "entry": 4945018,
        "entry_name": "Piricka Lajos",
        "event_total": 39,
        "has_played": true,
        "id": 38155232,
        "last_rank": 50468,
        "player_name": "Zolt\u00e1n V\u00e9szt\u0151i",
        "rank": 82714,
        "rank_sort": 82933,
        "total": 2334
      },
      {
        "club_badge_src": null,
        "entry": 4982225,
        "entry_name": "Theatre of Bruno",
        "event_total": 64,
        "has_played": true,
        "id": 38459472,
        "last_rank": 102125,
        "player_name": "Marcus Th\u00f6rnqvist",
        "rank": 82714,
        "rank_sort": 82934,
        "total": 2334
      },
      {
        "club_badge_src": null,
        "entry": 5101906,
        "entry_name": "Shiren Sungkem",
        "event_total": 30,
        "has_played": true,
        "id": 39435108,
        "last_rank": 38016,
        "player_name": "Adhy Wicaksono",
        "rank": 82714,
        "rank_sort": 82935,
        "total": 2334
      },
      {
        "club_badge_src": null,
        "entry": 5229420,
        "entry_name": "Clever Boys",
        "event_total": 61,
        "has_played": true,
        "id": 40522053,
        "last_rank": 84360,
        "player_name": "Gavin Kelleher",
        "rank": 82714,
        "rank_sort": 82936,
        "total": 2334
      },
      {
        "club_badge_src": null,
        "entry": 5374749,
        "entry_name": "Alisson al-Gaib",
        "event_total": 53,
        "has_played": true,
        "id": 41770507,
        "last_rank": 75874,
        "player_name": "Luke Sweeney",
        "rank": 82714,
        "rank_sort": 82937,
        "total": 2334
      },
      {
        "club_badge_src": null,
        "entry": 5402013,
        "entry_name": "South Park Rangers",
        "event_total": 67,
        "has_played": true,
        "id": 42003237,
        "last_rank": 109863,
        "player_name": "Johannes Ryds\u00e5",
        "rank": 82714,
        "rank_sort": 82938,
        "total": 2334
      },
      {
        "club_badge_src": "https://fantasy.premierleague.com/gcs/plfpl-production-adobe-approved/plfpl-production/5431462/af3e7a77-f860-410c-b4cd-ca88e6a30db7.png",
        "entry": 5431462,
        "entry_name": "Valar Morghulis",
        "event_total": 57,
        "has_played": true,
        "id": 42248591,
        "last_rank": 84980,
        "player_name": "Arnold Kintu",
        "rank": 82714,
        "rank_sort": 82939,
        "total": 2334
      },
      {
        "club_badge_src": null,
        "entry": 5491113,
        "entry_name": "Rikho",
        "event_total": 79,
        "has_played": true,
        "id": 42767122,
        "last_rank": 147186,
        "player_name": "Mostafa Elrakhawy",
        "rank": 82714,
        "rank_sort": 82940,
        "total": 2334
      },
      {
        "club_badge_src": null,
        "entry": 5494454,
        "entry_name": "LiverPoolNoodle",
        "event_total": 47,
        "has_played": true,
        "id": 42797100,
        "last_rank": 64005,
        "player_name": "Albert Pretorius",
        "rank": 82714,
        "rank_sort": 82941,
        "total": 2334
      },
      {
        "club_badge_src": "https://fantasy.premierleague.com/gcs/plfpl-production-adobe-approved/plfpl-production/5558983/6f5de3e1-a2b2-4277-8445-481d7a9a4a27.png",
        "entry": 5558983,
        "entry_name": "Ciro's Eleven",
        "event_total": 68,
        "has_played": true,
        "id": 43396056,
        "last_rank": 112169,
        "player_name": "Sipan Avsarki",
        "rank": 82714,
        "rank_sort": 82942,
        "total": 2334
      },
      {
        "club_badge_src": null,
        "entry": 5632144,
        "entry_name": "puchy_7",
        "event_total": 54,
        "has_played": true,
        "id": 44035837,
        "last_rank": 77999,
        "player_name": "Ond\u0159ej Puchmajer",
        "rank": 82714,
        "rank_sort": 82943,
        "total": 2334
      },
      {
        "club_badge_src": null,
        "entry": 5682423,
        "entry_name": "Ky9",
        "event_total": 59,
        "has_played": true,
        "id": 44475878,
        "last_rank": 89426,
        "player_name": "Yacine Yacine",
        "rank": 82714,
        "rank_sort": 82944,
        "total": 2334
      },
      {
        "club_badge_src": null,
        "entry": 5746416,
        "entry_name": "jrmy",
        "event_total": 63,
        "has_played": true,
        "id": 45035778,
        "last_rank": 98436,
        "player_name": "Jeremy Maina",
        "rank": 82714,
        "rank_sort": 82945,
        "total": 2334
      },
      {
        "club_badge_src": null,
        "entry": 5753344,
        "entry_name": "Palmersutra FC",
        "event_total": 50,
        "has_played": true,
        "id": 45095220,
        "last_rank": 69641,
        "player_name": "Angad Sandhu",
        "rank": 82714,
        "rank_sort": 82946,
        "total": 2334
      },
      {
        "club_badge_src": "https://fantasy.premierleague.com/gcs/plfpl-production-adobe-approved/plfpl-production/5765772/e5ee177b-dfdc-4b6a-89c3-f703b3781b27.png",
        "entry": 5765772,
        "entry_name": "Hamad",
        "event_total": 50,
        "has_played": true,
        "id": 45201340,
        "last_rank": 54667,
        "player_name": "Hamad Al-Mohammad",
        "rank": 82714,
        "rank_sort": 82947,
        "total": 2334
      },
      {
        "club_badge_src": "https://fantasy.premierleague.com/gcs/plfpl-production-adobe-approved/plfpl-production/5919868/102a9a04-aa49-452f-8f9c-7413362e2e8e.png",
        "entry": 5919868,
        "entry_name": "DEVils",
        "event_total": 52,
        "has_played": true,
        "id": 46528848,
        "last_rank": 73975,
        "player_name": "Deviah NC",
        "rank": 82714,
        "rank_sort": 82948,
        "total": 2334
      },
      {
        "club_badge_src": null,
        "entry": 5931155,
        "entry_name": "The Wallnuts",
        "event_total": 32,
        "has_played": true,
        "id": 46628804,
        "last_rank": 35424,
        "player_name": "mark wallis",
        "rank": 82714,
        "rank_sort": 82949,
        "total": 2334
      },
      {
        "club_badge_src": null,
        "entry": 5944317,
        "entry_name": "MUFC_Gorufu2025",
        "event_total": 60,
        "has_played": true,
        "id": 46747879,
        "last_rank": 91835,
        "player_name": "Nuttawat Suwanrusk",
        "rank": 82714,
        "rank_sort": 82950,
        "total": 2334
      }
    ]
  }
}