{
  "last_updated_data": "2026-05-24T23:28:17Z",
  "league": {
    "admin_entry": null,
    "closed": false,
    "code_privacy": "p",
    "created": "2025-07-20T23:14:33.933835Z",
    "cup_league": 2815434,
    "has_cup": true,
    "id": 314,
    "league_type": "s",
    "max_entries": null,
    "name": "Overall",
    "rank": null,
    "scoring": "c",
    "start_event": 1
  },
  "new_entries": {
    "has_next": false,
    "page": 1,
    "results": []
  },
  "standings": {
    "has_next": true,
    "page": 1384,
    "results": [
      {
        "club_badge_src": null,
        "entry": 3455864,
        "entry_name": "M.B.T",
        "event_total": 63,
        "has_played": true,
        "id": 25684727,
        "last_rank": 83127,
        "player_name": "Abdou khedama",
        "rank": 69090,
        "rank_sort": 69151,
        "total": 2341
      },
      {
        "club_badge_src": null,
        "entry": 3619760,
        "entry_name": "Cantona's Collar",
        "event_total": 68,
        "has_played": true,
        "id": 26968372,
        "last_rank": 94933,
        "player_name": "Maximus Parker",
        "rank": 69090,
        "rank_sort": 69152,
        "total": 2341
      },
      {
        "club_badge_src": null,
        "entry": 3655513,
        "entry_name": "Tribute",
        "event_total": 46,
        "has_played": true,
        "id": 27254176,
        "last_rank": 50848,
        "player_name": "Roger Trudgian",
        "rank": 69090,
        "rank_sort": 69153,
        "total": 2341
      },
      {
        "club_badge_src": null,
        "entry": 3856827,
        "entry_name": "phcsmile",
        "event_total": 60,
        "has_played": true,
        "id": 28915307,
        "last_rank": 76330,
        "player_name": "pragnesh nanji",
        "rank": 69090,
        "rank_sort": 69154,
        "total": 2341
      },
      {
        "club_badge_src": "https://fantasy.premierleague.com/gcs/plfpl-production-adobe-approved/plfpl-production/3928651/1e775bba-f1e6-489a-a3d3-eb30d3ea9516.png",
        "entry": 3928651,
        "entry_name": "West Beach FC",
        "event_total": 94,
        "has_played": true,
        "id": 29546202,
        "last_rank": 177104,
        "player_name": "Chris Mark",
        "rank": 69090,
        "rank_sort": 69155,
        "total": 2341
      },
      {
        "club_badge_src": null,
        "entry": 3928905,
        "entry_name": "Malcs XI",
        "event_total": 53,
        "has_played": true,
        "id": 29548184,
        "last_rank": 55659,
        "player_name": "Ryan Malcolm",
        "rank": 69090,
        "rank_sort": 69156,
        "total": 2341
      },
      {
        "club_badge_src": null,
        "entry": 4218404,
        "entry_name": "Hinde then Humphreys",
        "event_total": 49,
        "has_played": true,
        "id": 31949521,
        "last_rank": 55747,
        "player_name": "Edward Hinde",
        "rank": 69090,
        "rank_sort": 69157,
        "total": 2341
      },
      {
        "club_badge_src": null,
        "entry": 4386582,
        "entry_name": "Stottycakes Rovers",
        "event_total": 66,
        "has_played": true,
        "id": 33343391,
        "last_rank": 90057,
        "player_name": "William Stottor",
        "rank": 69090,
        "rank_sort": 69158,
        "total": 2341
      },
      {
        "club_badge_src": null,
        "entry": 4608784,
        "entry_name": "Dbest",
        "event_total": 34,
        "has_played": true,
        "id": 35214766,
        "last_rank": 34749,
        "player_name": "Daragh Small",
        "rank": 69090,
        "rank_sort": 69159,
        "total": 2341
      },
      {
        "club_badge_src": null,
        "entry": 4697452,
        "entry_name": "Bish Bosh Badgers",
        "event_total": 52,
        "has_played": true,
        "id": 36009642,
        "last_rank": 53952,
        "player_name": "Martin Robinson",
        "rank": 69090,
        "rank_sort": 69160,
        "total": 2341
      },
      {
        "club_badge_src": null,
        "entry": 4732037,
        "entry_name": "A Paquet\u00e1 Ham",
        "event_total": 79,
        "has_played": true,
        "id": 36403174,
        "last_rank": 125135,
        "player_name": "Breda Keogh",
        "rank": 69090,
        "rank_sort": 69161,
        "total": 2341
      },
      {
        "club_badge_src": null,
        "entry": 4752044,
        "entry_name": "Eze does it",
        "event_total": 58,
        "has_played": true,
        "id": 36567381,
        "last_rank": 72265,
        "player_name": "Jasmine Francis",
        "rank": 69090,
        "rank_sort": 69162,
        "total": 2341
      },
      {
        "club_badge_src": "https://fantasy.premierleague.com/gcs/plfpl-production-adobe-approved/plfpl-production/4849354/50c8307b-6f07-4f9c-a87e-6572ecc7937d.png",
        "entry": 4849354,
        "entry_name": "\u0160e\u0161ko Express",
        "event_total": 55,
        "has_played": true,
        "id": 37361159,
        "last_rank": 45927,
        "player_name": "Rory Poyzer",
        "rank": 69090,
        "rank_sort": 69163,
        "total": 2341
      },
      {
        "club_badge_src": null,
        "entry": 4865281,
        "entry_name": "OverloadedDice",
        "event_total": 57,
        "has_played": true,
        "id": 37496285,
        "last_rank": 62429,
        "player_name": "Adam Bromberg",
        "rank": 69090,
        "rank_sort": 69164,
        "total": 2341
      },
      {
        "club_badge_src": null,
        "entry": 4911449,
        "entry_name": "Shed away uh hu",
        "event_total": 56,
        "has_played": true,
        "id": 37876335,
        "last_rank": 68216,
        "player_name": "Ricky Smith",
        "rank": 69090,
        "rank_sort": 69165,
        "total": 2341
      },
      {
        "club_badge_src": null,
        "entry": 4935690,
        "entry_name": "Mascula40",
        "event_total": 92,
        "has_played": true,
        "id": 38079867,
        "last_rank": 169365,
        "player_name": "Raouf Chergui",
        "rank": 69090,
        "rank_sort": 69166,
        "total": 2341
      },
      {
        "club_badge_src": "https://fantasy.premierleague.com/gcs/plfpl-production-adobe-approved/plfpl-production/4947921/98e24474-4f58-4ee0-b83f-933aaf062595.png",
        "entry": 4947921,
        "entry_name": "J\u00e6ja",
        "event_total": 59,
        "has_played": true,
        "id": 38178431,
        "last_rank": 74317,
        "player_name": "J\u00f3hann Bjarkason",
        "rank": 69090,
        "rank_sort": 69167,
        "total": 2341
      },
      {
        "club_badge_src": null,
        "entry": 5003930,
        "entry_name": "Al-Mareboob",
        "event_total": 75,
        "has_played": true,
        "id": 38639027,
        "last_rank": 113400,
        "player_name": "karm singh",
        "rank": 69090,
        "rank_sort": 69168,
        "total": 2341
      },
      {
        "club_badge_src": null,
        "entry": 5120388,
        "entry_name": "Kebab Kings",
        "event_total": 61,
        "has_played": true,
        "id": 39590225,
        "last_rank": 70072,
        "player_name": "Amrit Singh",
        "rank": 69090,
        "rank_sort": 69169,
        "total": 2341
      },
      {
        "club_badge_src": null,
        "entry": 5399009,
        "entry_name": "Yoro Wizard Harry",
        "event_total": 82,
        "has_played": true,
        "id": 41977829,
        "last_rank": 134879,
        "player_name": "Andy Brice",
        "rank": 69090,
        "rank_sort": 69170,
        "total": 2341
      },
      {
        "club_badge_src": "https://fantasy.premierleague.com/gcs/plfpl-production-adobe-approved/plfpl-production/5913963/3f85ffca-c1e1-4b55-a3d3-a6a5962c4110.png",
        "entry": 5913963,
        "entry_name": "I2 Mewtwo",
        "event_total": 63,
        "has_played": true,
        "id": 46475801,
        "last_rank": 82873,
        "player_name": "Soham Ghosh",
        "rank": 69090,
        "rank_sort": 69171,
        "total": 2341
      },
      {
        "club_badge_src": "https://fantasy.premierleague.com/gcs/plfpl-production-adobe-approved/plfpl-production/5947311/bf71ba6f-1c56-488c-ba13-9937ced412ca.png",
        "entry": 5947311,
        "entry_name": "Free Gaza",
        "event_total": 68,
        "has_played": true,
        "id": 46774957,
        "last_rank": 85207,
        "player_name": "Abdullah Abdul Baki",
        "rank": 69090,
        "rank_sort": 69172,
        "total": 2341
      },
      {
        "club_badge_src": null,
        "entry": 5970329,
        "entry_name": "Raya Sunshine",
        "event_total": 59,
        "has_played": true,
        "id": 46980288,
        "last_rank": 74395,
        "player_name": "Andy Peirce",
        "rank": 69090,
        "rank_sort": 69173,
        "total": 2341
      },
      {
        "club_badge_src": null,
        "entry": 6685487,
        "entry_name": "Mohey",
        "event_total": 59,
        "has_played": true,
        "id": 53480445,
        "last_rank": 66057,
        "player_name": "Mohamed Mohey",
        "rank": 69090,
        "rank_sort": 69174,
        "total": 2341
      },
      {
        "club_badge_src": null,
        "entry": 7418303,
        "entry_name": "Game of stones",
        "event_total": 60,
        "has_played": true,
        "id": 60227052,
        "last_rank": 68107,
        "player_name": "Yossef Tarek",
        "rank": 69090,
        "rank_sort": 69175,
        "total": 2341
      },
      {
        "club_badge_src": null,
        "entry": 7870828,
        "entry_name": "swish & flick",
        "event_total": 63,
        "has_played": true,
        "id": 64720995,
        "last_rank": 83127,
        "player_name": "Amy Silva",
        "rank": 69090,
        "rank_sort": 69176,
        "total": 2341
      },
      {
        "club_badge_src": "https://fantasy.premierleague.com/gcs/plfpl-production-adobe-approved/plfpl-production/8466865/6da66dae-b7b1-4105-804d-fbdd2bdafec1.png",
        "entry": 8466865,
        "entry_name": "plavi86",
        "event_total": 71,
        "has_played": true,
        "id": 70315047,
        "last_rank": 102622,
        "player_name": "Matej Nuic",
        "rank": 69090,
        "rank_sort": 69177,
        "total": 2341
      },
      {
        "club_badge_src": null,
        "entry": 8703651,
        "entry_name": "Niki Murija",
        "event_total": 57,
        "has_played": true,
        "id": 72614233,
        "last_rank": 70183,
        "player_name": "Nikola Antonoski",
        "rank": 69090,
        "rank_sort": 69178,
        "total": 2341
      },
      {
        "club_badge_src": "https://fantasy.premierleague.com/gcs/plfpl-production-adobe-approved/plfpl-production/9089591/2a13ef72-751a-4b4b-9103-ee6fe7b4dbac.png",
        "entry": 9089591,
        "entry_name": "Meow Power",
        "event_total": 69,
        "has_played": true,
        "id": 76349235,
        "last_rank": 97305,
        "player_name": "Matt Hodges",
        "rank": 69090,
        "rank_sort": 69179,
        "total": 2341
      },
      {
        "club_badge_src": null,
        "entry": 9157387,
        "entry_name": "HowCunhaSheSlap",
        "event_total": 65,
        "has_played": true,
        "id": 77012582,
        "last_rank": 87541,
        "player_name": "Joshua Sleight",
        "rank": 69090,
        "rank_sort": 69180,
        "total": 2341
      },
      {
        "club_badge_src": null,
        "entry": 9225426,
        "entry_name": "subah #1fan",
        "event_total": 51,
        "has_played": true,
        "id": 77683011,
        "last_rank": 58688,
        "player_name": "Mohammed Alsulaiti",
        "rank": 69090,
        "rank_sort": 69181,
        "total": 2341
      },
      {
        "club_badge_src": null,
        "entry": 3813,
        "entry_name": "Preston",
        "event_total": 74,
        "has_played": true,
        "id": 21624,
        "last_rank": 110416,
        "player_name": "\u05d2\u05d1\u05e8 Etto",
        "rank": 69182,
        "rank_sort": 69182,
        "total": 2341
      },
      {
        "club_badge_src": null,
        "entry": 13047,
        "entry_name": "Bend the knee",
        "event_total": 69,
        "has_played": true,
        "id": 78604,
        "last_rank": 97597,
        "player_name": "Jefta Jawi",
        "rank": 69182,
        "rank_sort": 69183,
        "total": 2341
      },
      {
        "club_badge_src": "https://fantasy.premierleague.com/gcs/plfpl-production-adobe-approved/plfpl-production/15251/b564bd2a-c3ec-4186-a718-7bac388b85ba.png",
        "entry": 15251,
        "entry_name": "Elland Rodon",
        "event_total": 66,
        "has_played": true,
        "id": 93424,
        "last_rank": 90057,
        "player_name": "Robbie Giles",
        "rank": 69182,
        "rank_sort": 69184,
        "total": 2341
      },
      {
        "club_badge_src": null,
        "entry": 29848,
        "entry_name": "Cunhalingus",
        "event_total": 58,
        "has_played": true,
        "id": 188813,
        "last_rank": 64422,
        "player_name": "Joel Bailey",
        "rank": 69182,
        "rank_sort": 69185,
        "total": 2341
      },
      {
        "club_badge_src": null,
        "entry": 31421,
        "entry_name": "Peacock Dreams",
        "event_total": 54,
        "has_played": true,
        "id": 199164,
        "last_rank": 57451,
        "player_name": "Pete Appleby",
        "rank": 69182,
        "rank_sort": 69186,
        "total": 2341
      },
      {
        "club_badge_src": null,
        "entry": 54226,
        "entry_name": "Die Mannschaft",
        "event_total": 48,
        "has_played": true,
        "id": 349037,
        "last_rank": 47722,
        "player_name": "Elliot Mann",
        "rank": 69182,
        "rank_sort": 69187,
        "total": 2341
      },
      {
        "club_badge_src": "https://fantasy.premierleague.com/gcs/plfpl-production-adobe-approved/plfpl-production/118894/0c4770fd-7880-4c5e-a342-4fa620c24f74.png",
        "entry": 118894,
        "entry_name": "mahrez team",
        "event_total": 60,
        "has_played": true,
        "id": 775848,
        "last_rank": 67926,
        "player_name": "Mahrez Ace",
        "rank": 69182,
        "rank_sort": 69188,
        "total": 2341
      },
      {
        "club_badge_src": "https://fantasy.premierleague.com/gcs/plfpl-production-adobe-approved/plfpl-production/123783/69f8b0ea-b9a2-4a49-9608-faf86f1fa253.png",
        "entry": 123783,
        "entry_name": "Oldham Tightly",
        "event_total": 66,
        "has_played": true,
        "id": 807332,
        "last_rank": 90158,
        "player_name": "Luke Burns",
        "rank": 69182,
        "rank_sort": 69189,
        "total": 2341
      },
      {
        "club_badge_src": null,
        "entry": 125229,
        "entry_name": "Elashry 2026",
        "event_total": 62,
        "has_played": true,
        "id": 816731,
        "last_rank": 80877,
        "player_name": "Ahmed Elashry",
        "rank": 69182,
        "rank_sort": 69190,
        "total": 2341
      },
      {
        "club_badge_src": "https://fantasy.premierleague.com/gcs/plfpl-production-adobe-approved/plfpl-production/300315/16bdc94e-95b7-4ac6-90c6-90c82a0df77a.png",
        "entry": 300315,
        "entry_name": "\u0639\u0627\u064a\u0632 \u0645\u0645\u0631 \u0634\u0631\u0641\u064a",
        "event_total": 49,
        "has_played": true,
        "id": 2008699,
        "last_rank": 55865,
        "player_name": "M7Mo0d Ahmed",
        "rank": 69182,
        "rank_sort": 69191,
        "total": 2341
      },
      {
        "club_badge_src": null,
        "entry": 317971,
        "entry_name": "Hangover 96",
        "event_total": 42,
        "has_played": true,
        "id": 2131419,
        "last_rank": 44950,
        "player_name": "John Marshall",
        "rank": 69182,
        "rank_sort": 69192,
        "total": 2341
      },
      {
        "club_badge_src": null,
        "entry": 523517,
        "entry_name": "Pray Your Salah",
        "event_total": 73,
        "has_played": true,
        "id": 3516392,
        "last_rank": 97470,
        "player_name": "iessa hussain",
        "rank": 69182,
        "rank_sort": 69193,
        "total": 2341
      },
      {
        "club_badge_src": null,
        "entry": 544458,
        "entry_name": "Perth Street Rage",
        "event_total": 40,
        "has_played": true,
        "id": 3664179,
        "last_rank": 42225,
        "player_name": "Kenny Cheng",
        "rank": 69182,
        "rank_sort": 69194,
        "total": 2341
      },
      {
        "club_badge_src": null,
        "entry": 545545,
        "entry_name": "s\u01ddlq\u0250\u0287u\u0279n\u0287",
        "event_total": 46,
        "has_played": true,
        "id": 3671529,
        "last_rank": 50772,
        "player_name": "Jon-Emil Steine",
        "rank": 69182,
        "rank_sort": 69195,
        "total": 2341
      },
      {
        "club_badge_src": null,
        "entry": 574495,
        "entry_name": "Northwichian Vics",
        "event_total": 69,
        "has_played": true,
        "id": 3866084,
        "last_rank": 87710,
        "player_name": "Paul Roberts",
        "rank": 69182,
        "rank_sort": 69196,
        "total": 2341
      },
      {
        "club_badge_src": null,
        "entry": 578268,
        "entry_name": "Free Palestine",
        "event_total": 52,
        "has_played": true,
        "id": 3891001,
        "last_rank": 54065,
        "player_name": "\u0646\u062c\u064a\u0628 \u0642\u0627\u0633\u0645\u064a",
        "rank": 69182,
        "rank_sort": 69197,
        "total": 2341
      },
      {
        "club_badge_src": null,
        "entry": 603086,
        "entry_name": "UTFC TS15",
        "event_total": 57,
        "has_played": true,
        "id": 4070459,
        "last_rank": 62724,
        "player_name": "Tanner Stinnett",
        "rank": 69182,
        "rank_sort": 69198,
        "total": 2341
      },
      {
        "club_badge_src": null,
        "entry": 755922,
        "entry_name": "Scholes eats toes",
        "event_total": 61,
        "has_played": true,
        "id": 5146403,
        "last_rank": 70183,
        "player_name": "Andrew Mckenzie",
        "rank": 69182,
        "rank_sort": 69199,
        "total": 2341
      },
      {
        "club_badge_src": null,
        "entry": 770906,
        "entry_name": "Myles ahead of you",
        "event_total": 64,
        "has_played": true,
        "id": 5258996,
        "last_rank": 76474,
        "player_name": "Reuben Morris",
        "rank": 69182,
        "rank_sort": 69200,
        "total": 2341
      }
    ]
  }
}