{
  "last_updated_data": "2026-05-24T23:28:17Z",
  "league": {
    "admin_entry": null,
    "closed": false,
    "code_privacy": "p",
    "created": "2025-07-20T23:14:33.933835Z",
    "cup_league": 2815434,
    "has_cup": true,
    "id": 314,
    "league_type": "s",
    "max_entries": null,
    "name": "Overall",
    "rank": null,
    "scoring": "c",
    "start_event": 1
  },
  "new_entries": {
    "has_next": false,
    "page": 1,
    "results": []
  },
  "standings": {
    "has_next": true,
    "page": 313,
    "results": [
      {
        "club_badge_src": null,
        "entry": 344692,
        "entry_name": "TheeThiE KamiKazE",
        "event_total": 56,
        "has_played": true,
        "id": 2307212,
        "last_rank": 12322,
        "player_name": "TheeThiE Theerayuth",
        "rank": 15581,
        "rank_sort": 15601,
        "total": 2387
      },
      {
        "club_badge_src": "https://fantasy.premierleague.com/gcs/plfpl-production-adobe-approved/plfpl-production/364586/049aca9c-514a-4cb5-b614-97413a9f35fb.png",
        "entry": 364586,
        "entry_name": "RH-Gooners",
        "event_total": 54,
        "has_played": true,
        "id": 2439716,
        "last_rank": 13500,
        "player_name": "Rizwan Hameed",
        "rank": 15581,
        "rank_sort": 15602,
        "total": 2387
      },
      {
        "club_badge_src": null,
        "entry": 427311,
        "entry_name": "Norrtan",
        "event_total": 60,
        "has_played": true,
        "id": 2865604,
        "last_rank": 16959,
        "player_name": "Joakim Palmcrantz",
        "rank": 15581,
        "rank_sort": 15603,
        "total": 2387
      },
      {
        "club_badge_src": null,
        "entry": 442461,
        "entry_name": "RedDevils",
        "event_total": 58,
        "has_played": true,
        "id": 2966623,
        "last_rank": 15797,
        "player_name": "Anirudh Ramachandra",
        "rank": 15581,
        "rank_sort": 15604,
        "total": 2387
      },
      {
        "club_badge_src": null,
        "entry": 491985,
        "entry_name": "FC  Lokomotiv Costco",
        "event_total": 32,
        "has_played": true,
        "id": 3302359,
        "last_rank": 5281,
        "player_name": "Lee Symonds",
        "rank": 15581,
        "rank_sort": 15605,
        "total": 2387
      },
      {
        "club_badge_src": null,
        "entry": 502519,
        "entry_name": "Abdu Team 10",
        "event_total": 66,
        "has_played": true,
        "id": 3373005,
        "last_rank": 21301,
        "player_name": "Abdulgani Noor",
        "rank": 15581,
        "rank_sort": 15606,
        "total": 2387
      },
      {
        "club_badge_src": null,
        "entry": 591395,
        "entry_name": "Mahoi",
        "event_total": 52,
        "has_played": true,
        "id": 3984421,
        "last_rank": 10462,
        "player_name": "Maha --",
        "rank": 15581,
        "rank_sort": 15607,
        "total": 2387
      },
      {
        "club_badge_src": "https://fantasy.premierleague.com/gcs/plfpl-production-adobe-approved/plfpl-production/659283/fcc23f43-4e40-4f18-8e8b-f38bae1f706a.png",
        "entry": 659283,
        "entry_name": "SquidWirtz FC",
        "event_total": 56,
        "has_played": true,
        "id": 4455341,
        "last_rank": 12322,
        "player_name": "Gaara Hawthorne",
        "rank": 15581,
        "rank_sort": 15608,
        "total": 2387
      },
      {
        "club_badge_src": null,
        "entry": 846284,
        "entry_name": "ObywatelMeksyku",
        "event_total": 71,
        "has_played": true,
        "id": 5798510,
        "last_rank": 21949,
        "player_name": "Maciej Pawlik",
        "rank": 15581,
        "rank_sort": 15609,
        "total": 2387
      },
      {
        "club_badge_src": "https://fantasy.premierleague.com/gcs/plfpl-production-adobe-approved/plfpl-production/919565/a3431ded-fe89-4a21-a460-7146e63f0dbd.png",
        "entry": 919565,
        "entry_name": "DaWirtzIsStillToCome",
        "event_total": 47,
        "has_played": true,
        "id": 6323918,
        "last_rank": 10031,
        "player_name": "Earl Mulligan",
        "rank": 15581,
        "rank_sort": 15610,
        "total": 2387
      },
      {
        "club_badge_src": null,
        "entry": 928703,
        "entry_name": "Figure",
        "event_total": 57,
        "has_played": true,
        "id": 6389935,
        "last_rank": 15063,
        "player_name": "\u0110or\u0111e Ili\u0107",
        "rank": 15581,
        "rank_sort": 15611,
        "total": 2387
      },
      {
        "club_badge_src": "https://fantasy.premierleague.com/gcs/plfpl-production-adobe-approved/plfpl-production/990508/e392f036-ea17-4999-943c-bf860b591773.png",
        "entry": 990508,
        "entry_name": "Exploding Gittens!",
        "event_total": 41,
        "has_played": true,
        "id": 6829752,
        "last_rank": 6528,
        "player_name": "Andrew Henning",
        "rank": 15581,
        "rank_sort": 15612,
        "total": 2387
      },
      {
        "club_badge_src": "https://fantasy.premierleague.com/gcs/plfpl-production-adobe-approved/plfpl-production/998672/d979855a-3155-4f7c-930b-45b761f44f90.png",
        "entry": 998672,
        "entry_name": "Grim-Jaws",
        "event_total": 53,
        "has_played": true,
        "id": 6901327,
        "last_rank": 10920,
        "player_name": "Ahmed M Sawy",
        "rank": 15581,
        "rank_sort": 15613,
        "total": 2387
      },
      {
        "club_badge_src": null,
        "entry": 999964,
        "entry_name": "Chingkee",
        "event_total": 61,
        "has_played": true,
        "id": 6912225,
        "last_rank": 17718,
        "player_name": "Murphy Chan",
        "rank": 15581,
        "rank_sort": 15614,
        "total": 2387
      },
      {
        "club_badge_src": null,
        "entry": 1007250,
        "entry_name": "GarmannLeaderLegend",
        "event_total": 52,
        "has_played": true,
        "id": 6963701,
        "last_rank": 12470,
        "player_name": "Trond Garmann",
        "rank": 15581,
        "rank_sort": 15615,
        "total": 2387
      },
      {
        "club_badge_src": "https://fantasy.premierleague.com/gcs/plfpl-production-adobe-approved/plfpl-production/1064849/e3ddf4cc-72fe-4740-bdb5-004a3beb134f.png",
        "entry": 1064849,
        "entry_name": "Average Joe's",
        "event_total": 59,
        "has_played": true,
        "id": 7371641,
        "last_rank": 13821,
        "player_name": "Patrik Orri P\u00e9tursson",
        "rank": 15581,
        "rank_sort": 15616,
        "total": 2387
      },
      {
        "club_badge_src": "https://fantasy.premierleague.com/gcs/plfpl-production-adobe-approved/plfpl-production/1120847/4de78bb2-23cf-43af-8219-8cd260558f84.png",
        "entry": 1120847,
        "entry_name": "K",
        "event_total": 65,
        "has_played": true,
        "id": 7765101,
        "last_rank": 17585,
        "player_name": "Kelvin Seow",
        "rank": 15581,
        "rank_sort": 15617,
        "total": 2387
      },
      {
        "club_badge_src": null,
        "entry": 1187749,
        "entry_name": "AJs",
        "event_total": 41,
        "has_played": true,
        "id": 8241159,
        "last_rank": 7761,
        "player_name": "Arun Joshi",
        "rank": 15581,
        "rank_sort": 15618,
        "total": 2387
      },
      {
        "club_badge_src": null,
        "entry": 1188085,
        "entry_name": "m.alfuraih",
        "event_total": 65,
        "has_played": true,
        "id": 8243515,
        "last_rank": 20147,
        "player_name": "Mohammad Alfuraih",
        "rank": 15581,
        "rank_sort": 15619,
        "total": 2387
      },
      {
        "club_badge_src": null,
        "entry": 1276893,
        "entry_name": "O'Fen\u00f3meno",
        "event_total": 66,
        "has_played": true,
        "id": 8872691,
        "last_rank": 21301,
        "player_name": "Jan-Eirik Laugsand",
        "rank": 15581,
        "rank_sort": 15620,
        "total": 2387
      },
      {
        "club_badge_src": null,
        "entry": 1421821,
        "entry_name": "Allardyce City",
        "event_total": 68,
        "has_played": true,
        "id": 9900022,
        "last_rank": 19721,
        "player_name": "Stu Heaney",
        "rank": 15581,
        "rank_sort": 15621,
        "total": 2387
      },
      {
        "club_badge_src": null,
        "entry": 1538936,
        "entry_name": "Havana Team",
        "event_total": 71,
        "has_played": true,
        "id": 10740593,
        "last_rank": 21949,
        "player_name": "Kamil Mystek",
        "rank": 15581,
        "rank_sort": 15622,
        "total": 2387
      },
      {
        "club_badge_src": null,
        "entry": 1681715,
        "entry_name": "Boom Saka Laka",
        "event_total": 55,
        "has_played": true,
        "id": 11772765,
        "last_rank": 13947,
        "player_name": "Ishaan S",
        "rank": 15581,
        "rank_sort": 15623,
        "total": 2387
      },
      {
        "club_badge_src": null,
        "entry": 1838344,
        "entry_name": "Comme Ci Konsa",
        "event_total": 56,
        "has_played": true,
        "id": 12933044,
        "last_rank": 14604,
        "player_name": "Krishanth Pathmanathan",
        "rank": 15581,
        "rank_sort": 15624,
        "total": 2387
      },
      {
        "club_badge_src": null,
        "entry": 2003936,
        "entry_name": "Endor FC",
        "event_total": 69,
        "has_played": true,
        "id": 14167699,
        "last_rank": 20280,
        "player_name": "Richard Webster",
        "rank": 15581,
        "rank_sort": 15625,
        "total": 2387
      },
      {
        "club_badge_src": "https://fantasy.premierleague.com/gcs/plfpl-production-adobe-approved/plfpl-production/2053414/7969a0b1-5dbc-4ae5-b236-459fa56f9784.png",
        "entry": 2053414,
        "entry_name": "Kambo Junaited",
        "event_total": 71,
        "has_played": true,
        "id": 14545520,
        "last_rank": 21775,
        "player_name": "Harald Ekkjest\u00f8l",
        "rank": 15581,
        "rank_sort": 15626,
        "total": 2387
      },
      {
        "club_badge_src": null,
        "entry": 2186810,
        "entry_name": "Tangerine Kwanza",
        "event_total": 71,
        "has_played": true,
        "id": 15556603,
        "last_rank": 21949,
        "player_name": "Paul Smith",
        "rank": 15581,
        "rank_sort": 15627,
        "total": 2387
      },
      {
        "club_badge_src": null,
        "entry": 2442598,
        "entry_name": "KHABAT JALIL",
        "event_total": 67,
        "has_played": true,
        "id": 17468989,
        "last_rank": 22064,
        "player_name": "khabat jalil",
        "rank": 15581,
        "rank_sort": 15628,
        "total": 2387
      },
      {
        "club_badge_src": null,
        "entry": 2505812,
        "entry_name": "Gursha Ball",
        "event_total": 57,
        "has_played": true,
        "id": 17944768,
        "last_rank": 15063,
        "player_name": "Nathan Yonas",
        "rank": 15581,
        "rank_sort": 15629,
        "total": 2387
      },
      {
        "club_badge_src": null,
        "entry": 2597705,
        "entry_name": "Kiss & Tel",
        "event_total": 69,
        "has_played": true,
        "id": 18655409,
        "last_rank": 23230,
        "player_name": "Chris Langham",
        "rank": 15581,
        "rank_sort": 15630,
        "total": 2387
      },
      {
        "club_badge_src": null,
        "entry": 2824800,
        "entry_name": "champions",
        "event_total": 73,
        "has_played": true,
        "id": 20638398,
        "last_rank": 23341,
        "player_name": "Hamid Rauf",
        "rank": 15581,
        "rank_sort": 15631,
        "total": 2387
      },
      {
        "club_badge_src": "https://fantasy.premierleague.com/gcs/plfpl-production-adobe-approved/plfpl-production/2996185/73c01201-b0b7-480c-b126-de7ffde8fe3e.png",
        "entry": 2996185,
        "entry_name": "Ceri Dalglish XI",
        "event_total": 27,
        "has_played": true,
        "id": 22036961,
        "last_rank": 4186,
        "player_name": "Ceri Theobald",
        "rank": 15581,
        "rank_sort": 15632,
        "total": 2387
      },
      {
        "club_badge_src": null,
        "entry": 3054323,
        "entry_name": "Le Saux Solid Crew",
        "event_total": 60,
        "has_played": true,
        "id": 22486249,
        "last_rank": 17078,
        "player_name": "BJ Christie",
        "rank": 15581,
        "rank_sort": 15633,
        "total": 2387
      },
      {
        "club_badge_src": null,
        "entry": 3062944,
        "entry_name": "sbx",
        "event_total": 68,
        "has_played": true,
        "id": 22551217,
        "last_rank": 19721,
        "player_name": "Andrew Kai Wu",
        "rank": 15581,
        "rank_sort": 15634,
        "total": 2387
      },
      {
        "club_badge_src": null,
        "entry": 3202970,
        "entry_name": "RenFC",
        "event_total": 66,
        "has_played": true,
        "id": 23677917,
        "last_rank": 21301,
        "player_name": "Rene T",
        "rank": 15581,
        "rank_sort": 15635,
        "total": 2387
      },
      {
        "club_badge_src": null,
        "entry": 3291878,
        "entry_name": "Dogz Bawzz",
        "event_total": 67,
        "has_played": true,
        "id": 24373667,
        "last_rank": 18985,
        "player_name": "Mark Dugan",
        "rank": 15581,
        "rank_sort": 15636,
        "total": 2387
      },
      {
        "club_badge_src": null,
        "entry": 3320969,
        "entry_name": "Expected Toulouse \ufffd",
        "event_total": 60,
        "has_played": true,
        "id": 24617244,
        "last_rank": 14370,
        "player_name": "Oliver S",
        "rank": 15581,
        "rank_sort": 15637,
        "total": 2387
      },
      {
        "club_badge_src": null,
        "entry": 3411788,
        "entry_name": "Moves Like Agger",
        "event_total": 60,
        "has_played": true,
        "id": 25338052,
        "last_rank": 14496,
        "player_name": "Carl Johan Vinter",
        "rank": 15581,
        "rank_sort": 15638,
        "total": 2387
      },
      {
        "club_badge_src": null,
        "entry": 3422668,
        "entry_name": "Footy McFootface",
        "event_total": 71,
        "has_played": true,
        "id": 25424029,
        "last_rank": 25172,
        "player_name": "Claire Ramsay",
        "rank": 15581,
        "rank_sort": 15639,
        "total": 2387
      },
      {
        "club_badge_src": "https://fantasy.premierleague.com/gcs/plfpl-production-adobe-approved/plfpl-production/3486173/6a637b12-c6c4-4008-8387-70d5256b0184.png",
        "entry": 3486173,
        "entry_name": "katapultkronan",
        "event_total": 51,
        "has_played": true,
        "id": 25925177,
        "last_rank": 10031,
        "player_name": "Alexander Kronenberg",
        "rank": 15581,
        "rank_sort": 15640,
        "total": 2387
      },
      {
        "club_badge_src": null,
        "entry": 3694618,
        "entry_name": "The White Zlatan",
        "event_total": 57,
        "has_played": true,
        "id": 27563380,
        "last_rank": 12846,
        "player_name": "Eirik Frisnes Wartiainen",
        "rank": 15581,
        "rank_sort": 15641,
        "total": 2387
      },
      {
        "club_badge_src": null,
        "entry": 3808467,
        "entry_name": "Send Nunez",
        "event_total": 66,
        "has_played": true,
        "id": 28475111,
        "last_rank": 18270,
        "player_name": "Ziyadh Cassim",
        "rank": 15581,
        "rank_sort": 15642,
        "total": 2387
      },
      {
        "club_badge_src": null,
        "entry": 4122867,
        "entry_name": "Belmondo",
        "event_total": 57,
        "has_played": true,
        "id": 31148790,
        "last_rank": 15063,
        "player_name": "Stephan Engebretsen",
        "rank": 15581,
        "rank_sort": 15643,
        "total": 2387
      },
      {
        "club_badge_src": null,
        "entry": 4208260,
        "entry_name": "Scaldy Rovers",
        "event_total": 65,
        "has_played": true,
        "id": 31860437,
        "last_rank": 20538,
        "player_name": "Shaun Jordan",
        "rank": 15581,
        "rank_sort": 15644,
        "total": 2387
      },
      {
        "club_badge_src": null,
        "entry": 4761864,
        "entry_name": "Battle of DeBruyne",
        "event_total": 65,
        "has_played": true,
        "id": 36647623,
        "last_rank": 17585,
        "player_name": "Ryan Martin",
        "rank": 15581,
        "rank_sort": 15645,
        "total": 2387
      },
      {
        "club_badge_src": "https://fantasy.premierleague.com/gcs/plfpl-production-adobe-approved/plfpl-production/4803645/fd06cbe2-f5f4-46e4-ad3f-df682f05e27a.png",
        "entry": 4803645,
        "entry_name": "Carrick Control Room",
        "event_total": 68,
        "has_played": true,
        "id": 36985952,
        "last_rank": 19721,
        "player_name": "Will Ingell",
        "rank": 15581,
        "rank_sort": 15646,
        "total": 2387
      },
      {
        "club_badge_src": null,
        "entry": 4974926,
        "entry_name": "Tsirkolino FC",
        "event_total": 66,
        "has_played": true,
        "id": 38401228,
        "last_rank": 20983,
        "player_name": "Nikos Kyriakou",
        "rank": 15581,
        "rank_sort": 15647,
        "total": 2387
      },
      {
        "club_badge_src": null,
        "entry": 5149311,
        "entry_name": "Blackchester united",
        "event_total": 46,
        "has_played": true,
        "id": 39837703,
        "last_rank": 9711,
        "player_name": "Selman Al-Sultan",
        "rank": 15581,
        "rank_sort": 15648,
        "total": 2387
      },
      {
        "club_badge_src": null,
        "entry": 5679901,
        "entry_name": "Sandvikaekspressen",
        "event_total": 65,
        "has_played": true,
        "id": 44454327,
        "last_rank": 20416,
        "player_name": "Merete Myhrstad",
        "rank": 15581,
        "rank_sort": 15649,
        "total": 2387
      },
      {
        "club_badge_src": null,
        "entry": 5736282,
        "entry_name": "The Underchairman",
        "event_total": 71,
        "has_played": true,
        "id": 44942343,
        "last_rank": 25172,
        "player_name": "John Greblick",
        "rank": 15581,
        "rank_sort": 15650,
        "total": 2387
      }
    ]
  }
}