{
  "last_updated_data": "2026-05-24T23:28:17Z",
  "league": {
    "admin_entry": null,
    "closed": false,
    "code_privacy": "p",
    "created": "2025-07-20T23:14:33.933835Z",
    "cup_league": 2815434,
    "has_cup": true,
    "id": 314,
    "league_type": "s",
    "max_entries": null,
    "name": "Overall",
    "rank": null,
    "scoring": "c",
    "start_event": 1
  },
  "new_entries": {
    "has_next": false,
    "page": 1,
    "results": []
  },
  "standings": {
    "has_next": true,
    "page": 91,
    "results": [
      {
        "club_badge_src": null,
        "entry": 5456771,
        "entry_name": "Jack fc",
        "event_total": 67,
        "has_played": true,
        "id": 42464923,
        "last_rank": 6392,
        "player_name": "Danish Abbas",
        "rank": 4442,
        "rank_sort": 4501,
        "total": 2417
      },
      {
        "club_badge_src": null,
        "entry": 5506278,
        "entry_name": "asis86",
        "event_total": 58,
        "has_played": true,
        "id": 42912951,
        "last_rank": 4303,
        "player_name": "Aashish Shilpakar",
        "rank": 4442,
        "rank_sort": 4502,
        "total": 2417
      },
      {
        "club_badge_src": null,
        "entry": 6096678,
        "entry_name": "Ett bil",
        "event_total": 52,
        "has_played": true,
        "id": 48147453,
        "last_rank": 3237,
        "player_name": "John Eriksson",
        "rank": 4442,
        "rank_sort": 4503,
        "total": 2417
      },
      {
        "club_badge_src": null,
        "entry": 6934180,
        "entry_name": "emerald_city_support",
        "event_total": 63,
        "has_played": true,
        "id": 55590650,
        "last_rank": 5400,
        "player_name": "Travis Petersen",
        "rank": 4442,
        "rank_sort": 4504,
        "total": 2417
      },
      {
        "club_badge_src": null,
        "entry": 7168566,
        "entry_name": "Question XI",
        "event_total": 50,
        "has_played": true,
        "id": 57839593,
        "last_rank": 2977,
        "player_name": "Liam Shortall",
        "rank": 4442,
        "rank_sort": 4505,
        "total": 2417
      },
      {
        "club_badge_src": null,
        "entry": 7577064,
        "entry_name": "Luka Magic",
        "event_total": 44,
        "has_played": true,
        "id": 62057074,
        "last_rank": 2174,
        "player_name": "Ronan O'Keeffe",
        "rank": 4442,
        "rank_sort": 4506,
        "total": 2417
      },
      {
        "club_badge_src": null,
        "entry": 8115728,
        "entry_name": "NajafFC",
        "event_total": 66,
        "has_played": true,
        "id": 66947721,
        "last_rank": 6194,
        "player_name": "Ali Al-mudaffer",
        "rank": 4442,
        "rank_sort": 4507,
        "total": 2417
      },
      {
        "club_badge_src": null,
        "entry": 8143802,
        "entry_name": "A&G ir be stuburo",
        "event_total": 56,
        "has_played": true,
        "id": 67210595,
        "last_rank": 3866,
        "player_name": "Rimas Baubonis",
        "rank": 4442,
        "rank_sort": 4508,
        "total": 2417
      },
      {
        "club_badge_src": null,
        "entry": 2378,
        "entry_name": "In the Dorghouse",
        "event_total": 62,
        "has_played": true,
        "id": 13264,
        "last_rank": 5241,
        "player_name": "Omar AR",
        "rank": 4509,
        "rank_sort": 4509,
        "total": 2417
      },
      {
        "club_badge_src": null,
        "entry": 7158,
        "entry_name": "RUINAO CLUB",
        "event_total": 63,
        "has_played": true,
        "id": 41231,
        "last_rank": 4515,
        "player_name": "Brian Ray",
        "rank": 4509,
        "rank_sort": 4510,
        "total": 2417
      },
      {
        "club_badge_src": null,
        "entry": 11787,
        "entry_name": "Blue Moon",
        "event_total": 72,
        "has_played": true,
        "id": 70226,
        "last_rank": 7979,
        "player_name": "Joey Jereb",
        "rank": 4509,
        "rank_sort": 4511,
        "total": 2417
      },
      {
        "club_badge_src": "https://fantasy.premierleague.com/gcs/plfpl-production-adobe-approved/plfpl-production/21445/b20da30b-7ea9-4f63-a348-ad3305673d99.png",
        "entry": 21445,
        "entry_name": "sooner gooners",
        "event_total": 66,
        "has_played": true,
        "id": 134451,
        "last_rank": 6194,
        "player_name": "Mike Ramsay",
        "rank": 4509,
        "rank_sort": 4512,
        "total": 2417
      },
      {
        "club_badge_src": null,
        "entry": 36216,
        "entry_name": "the rice is right",
        "event_total": 69,
        "has_played": true,
        "id": 231809,
        "last_rank": 5940,
        "player_name": "John Duggan",
        "rank": 4509,
        "rank_sort": 4513,
        "total": 2417
      },
      {
        "club_badge_src": null,
        "entry": 65792,
        "entry_name": "Panic at the \u0160e\u0161ko!",
        "event_total": 69,
        "has_played": true,
        "id": 424962,
        "last_rank": 5940,
        "player_name": "Adam Bond",
        "rank": 4509,
        "rank_sort": 4514,
        "total": 2417
      },
      {
        "club_badge_src": null,
        "entry": 111634,
        "entry_name": "FPL Uggla",
        "event_total": 75,
        "has_played": true,
        "id": 727906,
        "last_rank": 9142,
        "player_name": "Simon Hamberg",
        "rank": 4509,
        "rank_sort": 4515,
        "total": 2417
      },
      {
        "club_badge_src": null,
        "entry": 144962,
        "entry_name": "temp",
        "event_total": 56,
        "has_played": true,
        "id": 949146,
        "last_rank": 3866,
        "player_name": "Matthew Hardy",
        "rank": 4509,
        "rank_sort": 4516,
        "total": 2417
      },
      {
        "club_badge_src": null,
        "entry": 151757,
        "entry_name": "Haaland's Kneecap",
        "event_total": 72,
        "has_played": true,
        "id": 995739,
        "last_rank": 8032,
        "player_name": "Paul Myerscough",
        "rank": 4509,
        "rank_sort": 4517,
        "total": 2417
      },
      {
        "club_badge_src": null,
        "entry": 159810,
        "entry_name": "Wirtz Case Scenario",
        "event_total": 64,
        "has_played": true,
        "id": 1052047,
        "last_rank": 5646,
        "player_name": "Connor McDonnell",
        "rank": 4509,
        "rank_sort": 4518,
        "total": 2417
      },
      {
        "club_badge_src": null,
        "entry": 374180,
        "entry_name": "Under My Cucurella",
        "event_total": 64,
        "has_played": true,
        "id": 2503843,
        "last_rank": 5752,
        "player_name": "Ben Stradwick",
        "rank": 4509,
        "rank_sort": 4519,
        "total": 2417
      },
      {
        "club_badge_src": null,
        "entry": 563522,
        "entry_name": "odenkiosken",
        "event_total": 68,
        "has_played": true,
        "id": 3792991,
        "last_rank": 6752,
        "player_name": "Linus Bergstr\u00f6m",
        "rank": 4509,
        "rank_sort": 4520,
        "total": 2417
      },
      {
        "club_badge_src": null,
        "entry": 564478,
        "entry_name": "Schade ole ole",
        "event_total": 63,
        "has_played": true,
        "id": 3799524,
        "last_rank": 4515,
        "player_name": "Dustin Senor",
        "rank": 4509,
        "rank_sort": 4521,
        "total": 2417
      },
      {
        "club_badge_src": "https://fantasy.premierleague.com/gcs/plfpl-production-adobe-approved/plfpl-production/656565/ffda4133-0139-4c2d-aef2-9e7e86ad0cba.png",
        "entry": 656565,
        "entry_name": "Onana\u2019s in Pyjamas",
        "event_total": 56,
        "has_played": true,
        "id": 4437072,
        "last_rank": 3951,
        "player_name": "Tayne Cowden",
        "rank": 4509,
        "rank_sort": 4522,
        "total": 2417
      },
      {
        "club_badge_src": null,
        "entry": 951931,
        "entry_name": "FC Ribster",
        "event_total": 62,
        "has_played": true,
        "id": 6558426,
        "last_rank": 5173,
        "player_name": "Rob Didcock",
        "rank": 4509,
        "rank_sort": 4523,
        "total": 2417
      },
      {
        "club_badge_src": null,
        "entry": 952314,
        "entry_name": "Star Boys FC",
        "event_total": 64,
        "has_played": true,
        "id": 6561205,
        "last_rank": 5752,
        "player_name": "Jean Shikanda",
        "rank": 4509,
        "rank_sort": 4524,
        "total": 2417
      },
      {
        "club_badge_src": null,
        "entry": 1015788,
        "entry_name": "HuntersField FC",
        "event_total": 56,
        "has_played": true,
        "id": 7027271,
        "last_rank": 3257,
        "player_name": "Craig Hunter",
        "rank": 4509,
        "rank_sort": 4525,
        "total": 2417
      },
      {
        "club_badge_src": null,
        "entry": 1017876,
        "entry_name": "Brusm\u00e5let",
        "event_total": 67,
        "has_played": true,
        "id": 7041955,
        "last_rank": 6448,
        "player_name": "Vebj\u00f8rn Sveen",
        "rank": 4509,
        "rank_sort": 4526,
        "total": 2417
      },
      {
        "club_badge_src": null,
        "entry": 1584408,
        "entry_name": "Stranger Mings",
        "event_total": 65,
        "has_played": true,
        "id": 11074973,
        "last_rank": 5904,
        "player_name": "Tom Gates",
        "rank": 4509,
        "rank_sort": 4527,
        "total": 2417
      },
      {
        "club_badge_src": null,
        "entry": 2174718,
        "entry_name": "KHONCHITECTx",
        "event_total": 62,
        "has_played": true,
        "id": 15463777,
        "last_rank": 5173,
        "player_name": "Khon Chitectx",
        "rank": 4509,
        "rank_sort": 4528,
        "total": 2417
      },
      {
        "club_badge_src": null,
        "entry": 2200697,
        "entry_name": "lewanrosski suiiiiii",
        "event_total": 72,
        "has_played": true,
        "id": 15660908,
        "last_rank": 6752,
        "player_name": "Ross Paterson",
        "rank": 4509,
        "rank_sort": 4529,
        "total": 2417
      },
      {
        "club_badge_src": null,
        "entry": 2779236,
        "entry_name": "Tobi FC",
        "event_total": 58,
        "has_played": true,
        "id": 20283572,
        "last_rank": 4358,
        "player_name": "Teodorus Kuntara",
        "rank": 4509,
        "rank_sort": 4530,
        "total": 2417
      },
      {
        "club_badge_src": null,
        "entry": 3012190,
        "entry_name": "M o o N",
        "event_total": 48,
        "has_played": true,
        "id": 22159572,
        "last_rank": 2685,
        "player_name": "Andrew Mahfouz",
        "rank": 4509,
        "rank_sort": 4531,
        "total": 2417
      },
      {
        "club_badge_src": null,
        "entry": 3308170,
        "entry_name": "Cloonacool Cowboys",
        "event_total": 47,
        "has_played": true,
        "id": 24506623,
        "last_rank": 2588,
        "player_name": "james mccarrick",
        "rank": 4509,
        "rank_sort": 4532,
        "total": 2417
      },
      {
        "club_badge_src": null,
        "entry": 3535350,
        "entry_name": "Suiiiii",
        "event_total": 58,
        "has_played": true,
        "id": 26314143,
        "last_rank": 4303,
        "player_name": "Youssef Salah",
        "rank": 4509,
        "rank_sort": 4533,
        "total": 2417
      },
      {
        "club_badge_src": "https://fantasy.premierleague.com/gcs/plfpl-production-adobe-approved/plfpl-production/4427061/7f817458-dfa8-45de-b37a-b907543b4325.png",
        "entry": 4427061,
        "entry_name": "Brat-Wirtz",
        "event_total": 79,
        "has_played": true,
        "id": 33697015,
        "last_rank": 9077,
        "player_name": "Oskar Persson",
        "rank": 4509,
        "rank_sort": 4534,
        "total": 2417
      },
      {
        "club_badge_src": null,
        "entry": 4880923,
        "entry_name": "Wally",
        "event_total": 59,
        "has_played": true,
        "id": 37625924,
        "last_rank": 4570,
        "player_name": "Marwan Wally",
        "rank": 4509,
        "rank_sort": 4535,
        "total": 2417
      },
      {
        "club_badge_src": null,
        "entry": 4976509,
        "entry_name": "Sesko Express",
        "event_total": 71,
        "has_played": true,
        "id": 38413815,
        "last_rank": 6448,
        "player_name": "Jake Moore",
        "rank": 4509,
        "rank_sort": 4536,
        "total": 2417
      },
      {
        "club_badge_src": null,
        "entry": 5358026,
        "entry_name": "Hakuna Metata",
        "event_total": 52,
        "has_played": true,
        "id": 41608877,
        "last_rank": 3302,
        "player_name": "Dani Lannon",
        "rank": 4509,
        "rank_sort": 4537,
        "total": 2417
      },
      {
        "club_badge_src": null,
        "entry": 5607286,
        "entry_name": "SpecialStrikingTeam",
        "event_total": 71,
        "has_played": true,
        "id": 43819740,
        "last_rank": 7676,
        "player_name": "Yanish Arnachellum",
        "rank": 4509,
        "rank_sort": 4538,
        "total": 2417
      },
      {
        "club_badge_src": null,
        "entry": 5763439,
        "entry_name": "Rubble Rovers",
        "event_total": 49,
        "has_played": true,
        "id": 45181817,
        "last_rank": 2870,
        "player_name": "Shaun Stewart",
        "rank": 4509,
        "rank_sort": 4539,
        "total": 2417
      },
      {
        "club_badge_src": null,
        "entry": 6368204,
        "entry_name": "Kinder Mbeumo",
        "event_total": 61,
        "has_played": true,
        "id": 50638582,
        "last_rank": 5011,
        "player_name": "Archibald marre",
        "rank": 4509,
        "rank_sort": 4540,
        "total": 2417
      },
      {
        "club_badge_src": null,
        "entry": 6470856,
        "entry_name": "\u5b9d\u5b9d\u5df4\u58eb",
        "event_total": 60,
        "has_played": true,
        "id": 51557626,
        "last_rank": 4804,
        "player_name": "HaoHui Lin",
        "rank": 4509,
        "rank_sort": 4541,
        "total": 2417
      },
      {
        "club_badge_src": null,
        "entry": 6849650,
        "entry_name": "N\u00f8rgaarding \u00d8degaard",
        "event_total": 72,
        "has_played": true,
        "id": 54876253,
        "last_rank": 8138,
        "player_name": "Lui Bomett",
        "rank": 4509,
        "rank_sort": 4542,
        "total": 2417
      },
      {
        "club_badge_src": null,
        "entry": 7458767,
        "entry_name": "St. Pellegrino",
        "event_total": 51,
        "has_played": true,
        "id": 60749449,
        "last_rank": 3150,
        "player_name": "Matthias Valentin Arensberg",
        "rank": 4509,
        "rank_sort": 4543,
        "total": 2417
      },
      {
        "club_badge_src": null,
        "entry": 8325179,
        "entry_name": "Broellchapai Utd",
        "event_total": 56,
        "has_played": true,
        "id": 68968989,
        "last_rank": 3951,
        "player_name": "Dave Ovens",
        "rank": 4509,
        "rank_sort": 4544,
        "total": 2417
      },
      {
        "club_badge_src": null,
        "entry": 9275447,
        "entry_name": "salah samosas",
        "event_total": 72,
        "has_played": true,
        "id": 78172089,
        "last_rank": 8032,
        "player_name": "Frankie Chong",
        "rank": 4509,
        "rank_sort": 4545,
        "total": 2417
      },
      {
        "club_badge_src": "https://fantasy.premierleague.com/gcs/plfpl-production-adobe-approved/plfpl-production/614/e52aeb27-be89-4ddf-b808-af96ee1e2031.png",
        "entry": 614,
        "entry_name": "Tequila",
        "event_total": 65,
        "has_played": true,
        "id": 3389,
        "last_rank": 6061,
        "player_name": "Sam Codd",
        "rank": 4546,
        "rank_sort": 4546,
        "total": 2417
      },
      {
        "club_badge_src": null,
        "entry": 13497,
        "entry_name": "dimgal",
        "event_total": 71,
        "has_played": true,
        "id": 81573,
        "last_rank": 7761,
        "player_name": "Dimitris Galanis",
        "rank": 4546,
        "rank_sort": 4547,
        "total": 2417
      },
      {
        "club_badge_src": null,
        "entry": 14266,
        "entry_name": "Jesse\u2019s giants",
        "event_total": 65,
        "has_played": true,
        "id": 86555,
        "last_rank": 4930,
        "player_name": "Jesse Wright",
        "rank": 4546,
        "rank_sort": 4548,
        "total": 2417
      },
      {
        "club_badge_src": null,
        "entry": 33861,
        "entry_name": "Do you know Joe?",
        "event_total": 66,
        "has_played": true,
        "id": 216166,
        "last_rank": 5241,
        "player_name": "Levente Agardi",
        "rank": 4546,
        "rank_sort": 4549,
        "total": 2417
      },
      {
        "club_badge_src": null,
        "entry": 37153,
        "entry_name": "Cucurella De Vil",
        "event_total": 62,
        "has_played": true,
        "id": 237929,
        "last_rank": 5281,
        "player_name": "Henry Fisher",
        "rank": 4546,
        "rank_sort": 4550,
        "total": 2417
      }
    ]
  }
}