{
  "last_updated_data": "2026-05-24T23:28:17Z",
  "league": {
    "admin_entry": null,
    "closed": false,
    "code_privacy": "p",
    "created": "2025-07-20T23:14:33.933835Z",
    "cup_league": 2815434,
    "has_cup": true,
    "id": 314,
    "league_type": "s",
    "max_entries": null,
    "name": "Overall",
    "rank": null,
    "scoring": "c",
    "start_event": 1
  },
  "new_entries": {
    "has_next": false,
    "page": 1,
    "results": []
  },
  "standings": {
    "has_next": true,
    "page": 507,
    "results": [
      {
        "club_badge_src": null,
        "entry": 4532,
        "entry_name": "Lukaku Skywalker",
        "event_total": 71,
        "has_played": true,
        "id": 25776,
        "last_rank": 39874,
        "player_name": "Henry Loughlin",
        "rank": 25299,
        "rank_sort": 25301,
        "total": 2373
      },
      {
        "club_badge_src": null,
        "entry": 4693,
        "entry_name": "Fantasy Fenomenon",
        "event_total": 66,
        "has_played": true,
        "id": 26701,
        "last_rank": 33936,
        "player_name": "A M I R",
        "rank": 25299,
        "rank_sort": 25302,
        "total": 2373
      },
      {
        "club_badge_src": "https://fantasy.premierleague.com/gcs/plfpl-production-adobe-approved/plfpl-production/8535/322d95ec-017c-4fac-b5e2-9a9d72356101.png",
        "entry": 8535,
        "entry_name": "Suji Bluewings",
        "event_total": 51,
        "has_played": true,
        "id": 49703,
        "last_rank": 20179,
        "player_name": "Peter Vickerman",
        "rank": 25299,
        "rank_sort": 25303,
        "total": 2373
      },
      {
        "club_badge_src": null,
        "entry": 13571,
        "entry_name": "Set Piece Again OLE",
        "event_total": 72,
        "has_played": true,
        "id": 82069,
        "last_rank": 41162,
        "player_name": "Boldizs\u00e1r N\u00e9meth",
        "rank": 25299,
        "rank_sort": 25304,
        "total": 2373
      },
      {
        "club_badge_src": "https://fantasy.premierleague.com/gcs/plfpl-production-adobe-approved/plfpl-production/14408/1cd9f1dd-5e3f-4f8f-b91a-69d921573a73.png",
        "entry": 14408,
        "entry_name": "Only Anna lick its",
        "event_total": 72,
        "has_played": true,
        "id": 87483,
        "last_rank": 41324,
        "player_name": "Carl Weeks",
        "rank": 25299,
        "rank_sort": 25305,
        "total": 2373
      },
      {
        "club_badge_src": "https://fantasy.premierleague.com/gcs/plfpl-production-adobe-approved/plfpl-production/14633/57ff7532-280b-4482-87f9-90afc2ec7a56.png",
        "entry": 14633,
        "entry_name": "Wirtz Case Scenario",
        "event_total": 58,
        "has_played": true,
        "id": 88988,
        "last_rank": 25902,
        "player_name": "Darren Burns",
        "rank": 25299,
        "rank_sort": 25306,
        "total": 2373
      },
      {
        "club_badge_src": null,
        "entry": 18823,
        "entry_name": "FPL Trader",
        "event_total": 56,
        "has_played": true,
        "id": 117142,
        "last_rank": 24039,
        "player_name": "Paulius Uziela",
        "rank": 25299,
        "rank_sort": 25307,
        "total": 2373
      },
      {
        "club_badge_src": null,
        "entry": 20226,
        "entry_name": "Saka Potatoes",
        "event_total": 66,
        "has_played": true,
        "id": 125989,
        "last_rank": 34051,
        "player_name": "Freddie Preston",
        "rank": 25299,
        "rank_sort": 25308,
        "total": 2373
      },
      {
        "club_badge_src": null,
        "entry": 21143,
        "entry_name": "Sesko Clubcard",
        "event_total": 76,
        "has_played": true,
        "id": 132539,
        "last_rank": 46660,
        "player_name": "John Swarbrick",
        "rank": 25299,
        "rank_sort": 25309,
        "total": 2373
      },
      {
        "club_badge_src": null,
        "entry": 22215,
        "entry_name": "Rutter Woke Nonsense",
        "event_total": 58,
        "has_played": true,
        "id": 139473,
        "last_rank": 25776,
        "player_name": "Daniel Ashworth",
        "rank": 25299,
        "rank_sort": 25310,
        "total": 2373
      },
      {
        "club_badge_src": "https://fantasy.premierleague.com/gcs/plfpl-production-adobe-approved/plfpl-production/23658/2e3f22f6-b334-487a-8369-da4575f96de5.png",
        "entry": 23658,
        "entry_name": "Wilcox FC",
        "event_total": 52,
        "has_played": true,
        "id": 149107,
        "last_rank": 20983,
        "player_name": "Ify Wilcox",
        "rank": 25299,
        "rank_sort": 25311,
        "total": 2373
      },
      {
        "club_badge_src": null,
        "entry": 24535,
        "entry_name": "Electric Elephant",
        "event_total": 45,
        "has_played": true,
        "id": 154897,
        "last_rank": 16062,
        "player_name": "Jim Middleton",
        "rank": 25299,
        "rank_sort": 25312,
        "total": 2373
      },
      {
        "club_badge_src": null,
        "entry": 24955,
        "entry_name": "Charlie's Angels",
        "event_total": 51,
        "has_played": true,
        "id": 157692,
        "last_rank": 17358,
        "player_name": "Charlie Sharp",
        "rank": 25299,
        "rank_sort": 25313,
        "total": 2373
      },
      {
        "club_badge_src": null,
        "entry": 41718,
        "entry_name": "BlameTheSpreadsheet",
        "event_total": 37,
        "has_played": true,
        "id": 267312,
        "last_rank": 11699,
        "player_name": "Chris Swift",
        "rank": 25299,
        "rank_sort": 25314,
        "total": 2373
      },
      {
        "club_badge_src": null,
        "entry": 42840,
        "entry_name": "CouldntGetAnyWirtz",
        "event_total": 65,
        "has_played": true,
        "id": 274401,
        "last_rank": 32879,
        "player_name": "Adam Kite",
        "rank": 25299,
        "rank_sort": 25315,
        "total": 2373
      },
      {
        "club_badge_src": null,
        "entry": 54268,
        "entry_name": "MROIC FC",
        "event_total": 71,
        "has_played": true,
        "id": 349299,
        "last_rank": 39874,
        "player_name": "Joel Piiroinen",
        "rank": 25299,
        "rank_sort": 25316,
        "total": 2373
      },
      {
        "club_badge_src": null,
        "entry": 56507,
        "entry_name": "On My Ederson",
        "event_total": 65,
        "has_played": true,
        "id": 363939,
        "last_rank": 32688,
        "player_name": "Anthony Higenbottam",
        "rank": 25299,
        "rank_sort": 25317,
        "total": 2373
      },
      {
        "club_badge_src": null,
        "entry": 56600,
        "entry_name": "Ahri FC",
        "event_total": 59,
        "has_played": true,
        "id": 364536,
        "last_rank": 26656,
        "player_name": "Ahri Daniels",
        "rank": 25299,
        "rank_sort": 25318,
        "total": 2373
      },
      {
        "club_badge_src": "https://fantasy.premierleague.com/gcs/plfpl-production-adobe-approved/plfpl-production/57254/f1ba619b-3315-4b33-ab75-560d3d234224.png",
        "entry": 57254,
        "entry_name": "Orker ikke",
        "event_total": 66,
        "has_played": true,
        "id": 368824,
        "last_rank": 34051,
        "player_name": "Trond-Vegard Kristiansen",
        "rank": 25299,
        "rank_sort": 25319,
        "total": 2373
      },
      {
        "club_badge_src": null,
        "entry": 59183,
        "entry_name": "Baines on Toast",
        "event_total": 50,
        "has_played": true,
        "id": 381164,
        "last_rank": 19392,
        "player_name": "Dylan Trant",
        "rank": 25299,
        "rank_sort": 25320,
        "total": 2373
      },
      {
        "club_badge_src": null,
        "entry": 60083,
        "entry_name": "Bulkegjengen",
        "event_total": 59,
        "has_played": true,
        "id": 386862,
        "last_rank": 26827,
        "player_name": "G\u00f8ran H\u00e5gensen",
        "rank": 25299,
        "rank_sort": 25321,
        "total": 2373
      },
      {
        "club_badge_src": null,
        "entry": 61005,
        "entry_name": "HumbleFace",
        "event_total": 42,
        "has_played": true,
        "id": 392804,
        "last_rank": 14251,
        "player_name": "Chris Vink",
        "rank": 25299,
        "rank_sort": 25322,
        "total": 2373
      },
      {
        "club_badge_src": null,
        "entry": 64860,
        "entry_name": "Los Azucares FC",
        "event_total": 63,
        "has_played": true,
        "id": 418696,
        "last_rank": 30600,
        "player_name": "Majiyebo Esuga",
        "rank": 25299,
        "rank_sort": 25323,
        "total": 2373
      },
      {
        "club_badge_src": "https://fantasy.premierleague.com/gcs/plfpl-production-adobe-approved/plfpl-production/66409/fbfab223-c195-446b-a238-4e039bd51f1d.png",
        "entry": 66409,
        "entry_name": "DropMeatNotBombs",
        "event_total": 50,
        "has_played": true,
        "id": 429330,
        "last_rank": 19432,
        "player_name": "Robbie Scott",
        "rank": 25299,
        "rank_sort": 25324,
        "total": 2373
      },
      {
        "club_badge_src": null,
        "entry": 66851,
        "entry_name": "John's Team",
        "event_total": 62,
        "has_played": true,
        "id": 432536,
        "last_rank": 29522,
        "player_name": "John Burgess",
        "rank": 25299,
        "rank_sort": 25325,
        "total": 2373
      },
      {
        "club_badge_src": null,
        "entry": 73077,
        "entry_name": "Do Re Mi Fa SoLanKe",
        "event_total": 57,
        "has_played": true,
        "id": 474984,
        "last_rank": 24897,
        "player_name": "Thomas Evans",
        "rank": 25299,
        "rank_sort": 25326,
        "total": 2373
      },
      {
        "club_badge_src": null,
        "entry": 73295,
        "entry_name": "mFitz",
        "event_total": 67,
        "has_played": true,
        "id": 476424,
        "last_rank": 35034,
        "player_name": "Morgan Fitzpatrick",
        "rank": 25299,
        "rank_sort": 25327,
        "total": 2373
      },
      {
        "club_badge_src": null,
        "entry": 81008,
        "entry_name": "Palmer again",
        "event_total": 60,
        "has_played": true,
        "id": 527056,
        "last_rank": 27585,
        "player_name": "Knut Henrik Rolland",
        "rank": 25299,
        "rank_sort": 25328,
        "total": 2373
      },
      {
        "club_badge_src": null,
        "entry": 86412,
        "entry_name": "Tallibann",
        "event_total": 67,
        "has_played": true,
        "id": 563119,
        "last_rank": 35034,
        "player_name": "Ulas Karakas",
        "rank": 25299,
        "rank_sort": 25329,
        "total": 2373
      },
      {
        "club_badge_src": null,
        "entry": 87701,
        "entry_name": "Don Quixote",
        "event_total": 78,
        "has_played": true,
        "id": 572009,
        "last_rank": 50199,
        "player_name": "J V",
        "rank": 25299,
        "rank_sort": 25330,
        "total": 2373
      },
      {
        "club_badge_src": null,
        "entry": 103024,
        "entry_name": "Foxy MEN",
        "event_total": 55,
        "has_played": true,
        "id": 672270,
        "last_rank": 23341,
        "player_name": "Sam Fox",
        "rank": 25299,
        "rank_sort": 25331,
        "total": 2373
      },
      {
        "club_badge_src": null,
        "entry": 116365,
        "entry_name": "Sukittajat",
        "event_total": 59,
        "has_played": true,
        "id": 759684,
        "last_rank": 26827,
        "player_name": "Antti Sokka",
        "rank": 25299,
        "rank_sort": 25332,
        "total": 2373
      },
      {
        "club_badge_src": null,
        "entry": 139780,
        "entry_name": "T\u00eate Arteta",
        "event_total": 56,
        "has_played": true,
        "id": 912512,
        "last_rank": 23990,
        "player_name": "Darren Doyle",
        "rank": 25299,
        "rank_sort": 25333,
        "total": 2373
      },
      {
        "club_badge_src": null,
        "entry": 140098,
        "entry_name": "Yoske",
        "event_total": 58,
        "has_played": true,
        "id": 914734,
        "last_rank": 25902,
        "player_name": "Or Yosefian",
        "rank": 25299,
        "rank_sort": 25334,
        "total": 2373
      },
      {
        "club_badge_src": null,
        "entry": 155136,
        "entry_name": "Shibobo",
        "event_total": 58,
        "has_played": true,
        "id": 1019408,
        "last_rank": 25776,
        "player_name": "Jaco Van Eeden",
        "rank": 25299,
        "rank_sort": 25335,
        "total": 2373
      },
      {
        "club_badge_src": null,
        "entry": 159634,
        "entry_name": "JM",
        "event_total": 59,
        "has_played": true,
        "id": 1050801,
        "last_rank": 26827,
        "player_name": "JM .",
        "rank": 25299,
        "rank_sort": 25336,
        "total": 2373
      },
      {
        "club_badge_src": null,
        "entry": 175915,
        "entry_name": "Kudus Me Gently",
        "event_total": 65,
        "has_played": true,
        "id": 1161332,
        "last_rank": 32879,
        "player_name": "craig benfield",
        "rank": 25299,
        "rank_sort": 25337,
        "total": 2373
      },
      {
        "club_badge_src": null,
        "entry": 179946,
        "entry_name": "APR Utd",
        "event_total": 40,
        "has_played": true,
        "id": 1187445,
        "last_rank": 13132,
        "player_name": "Andri P\u00e1ll R\u00f3bertsson",
        "rank": 25299,
        "rank_sort": 25338,
        "total": 2373
      },
      {
        "club_badge_src": "https://fantasy.premierleague.com/gcs/plfpl-production-adobe-approved/plfpl-production/181550/4fe0847a-f022-49f0-b8d5-2c28f615d95d.png",
        "entry": 181550,
        "entry_name": "Paqueta Crisps",
        "event_total": 66,
        "has_played": true,
        "id": 1198069,
        "last_rank": 34051,
        "player_name": "Isaac Bing",
        "rank": 25299,
        "rank_sort": 25339,
        "total": 2373
      },
      {
        "club_badge_src": null,
        "entry": 182971,
        "entry_name": "ALSALAM",
        "event_total": 38,
        "has_played": true,
        "id": 1207548,
        "last_rank": 12200,
        "player_name": "Ahmad Abdulsalam",
        "rank": 25299,
        "rank_sort": 25340,
        "total": 2373
      },
      {
        "club_badge_src": null,
        "entry": 192812,
        "entry_name": "Busby Babes",
        "event_total": 67,
        "has_played": true,
        "id": 1277777,
        "last_rank": 35166,
        "player_name": "Kristoffer Forsberg",
        "rank": 25299,
        "rank_sort": 25341,
        "total": 2373
      },
      {
        "club_badge_src": "https://fantasy.premierleague.com/gcs/plfpl-production-adobe-approved/plfpl-production/198553/73188458-f074-45a2-bc2b-31d843ef23d9.png",
        "entry": 198553,
        "entry_name": "liggeunderlaget",
        "event_total": 60,
        "has_played": true,
        "id": 1317623,
        "last_rank": 27644,
        "player_name": "Nicolai Halvorsen",
        "rank": 25299,
        "rank_sort": 25342,
        "total": 2373
      },
      {
        "club_badge_src": null,
        "entry": 208915,
        "entry_name": "Legolizard9",
        "event_total": 55,
        "has_played": true,
        "id": 1389211,
        "last_rank": 23341,
        "player_name": "Reece McCreith",
        "rank": 25299,
        "rank_sort": 25343,
        "total": 2373
      },
      {
        "club_badge_src": null,
        "entry": 220330,
        "entry_name": "Mbeumokage",
        "event_total": 52,
        "has_played": true,
        "id": 1465418,
        "last_rank": 20983,
        "player_name": "Muhammed Salih",
        "rank": 25299,
        "rank_sort": 25344,
        "total": 2373
      },
      {
        "club_badge_src": null,
        "entry": 237520,
        "entry_name": "Dancing with Wolves",
        "event_total": 65,
        "has_played": true,
        "id": 1580279,
        "last_rank": 32879,
        "player_name": "Mark O'Donoghue",
        "rank": 25299,
        "rank_sort": 25345,
        "total": 2373
      },
      {
        "club_badge_src": "https://fantasy.premierleague.com/gcs/plfpl-production-adobe-approved/plfpl-production/244505/16fdf7f1-8d51-4fbf-b93f-de5c8d8d9aa4.png",
        "entry": 244505,
        "entry_name": "Samkid",
        "event_total": 60,
        "has_played": true,
        "id": 1627888,
        "last_rank": 27770,
        "player_name": "Samba Sheriff",
        "rank": 25299,
        "rank_sort": 25346,
        "total": 2373
      },
      {
        "club_badge_src": null,
        "entry": 278642,
        "entry_name": "The Redeem Team",
        "event_total": 68,
        "has_played": true,
        "id": 1854551,
        "last_rank": 36142,
        "player_name": "Gil Korin",
        "rank": 25299,
        "rank_sort": 25347,
        "total": 2373
      },
      {
        "club_badge_src": null,
        "entry": 310829,
        "entry_name": "CP10",
        "event_total": 52,
        "has_played": true,
        "id": 2082322,
        "last_rank": 20983,
        "player_name": "Kittayot Aksornwong",
        "rank": 25299,
        "rank_sort": 25348,
        "total": 2373
      },
      {
        "club_badge_src": null,
        "entry": 314272,
        "entry_name": "FC Poor Toe",
        "event_total": 49,
        "has_played": true,
        "id": 2105945,
        "last_rank": 18691,
        "player_name": "Adey Price",
        "rank": 25299,
        "rank_sort": 25349,
        "total": 2373
      },
      {
        "club_badge_src": null,
        "entry": 325954,
        "entry_name": "360NoPope",
        "event_total": 53,
        "has_played": true,
        "id": 2184004,
        "last_rank": 21775,
        "player_name": "Jacob Ackland",
        "rank": 25299,
        "rank_sort": 25350,
        "total": 2373
      }
    ]
  }
}