{
  "last_updated_data": "2026-05-24T23:28:17Z",
  "league": {
    "admin_entry": null,
    "closed": false,
    "code_privacy": "p",
    "created": "2025-07-20T23:14:33.933835Z",
    "cup_league": 2815434,
    "has_cup": true,
    "id": 314,
    "league_type": "s",
    "max_entries": null,
    "name": "Overall",
    "rank": null,
    "scoring": "c",
    "start_event": 1
  },
  "new_entries": {
    "has_next": false,
    "page": 1,
    "results": []
  },
  "standings": {
    "has_next": true,
    "page": 1069,
    "results": [
      {
        "club_badge_src": null,
        "entry": 6204704,
        "entry_name": "Kai Noi",
        "event_total": 53,
        "has_played": true,
        "id": 49085913,
        "last_rank": 41824,
        "player_name": "Jack ZillaR15",
        "rank": 53264,
        "rank_sort": 53401,
        "total": 2350
      },
      {
        "club_badge_src": null,
        "entry": 6271440,
        "entry_name": "AbBoOoD",
        "event_total": 73,
        "has_played": true,
        "id": 49660704,
        "last_rank": 83698,
        "player_name": "Abdelmunem Abu Hazeem",
        "rank": 53264,
        "rank_sort": 53402,
        "total": 2350
      },
      {
        "club_badge_src": null,
        "entry": 6316852,
        "entry_name": "nissefar",
        "event_total": 76,
        "has_played": true,
        "id": 50134405,
        "last_rank": 92126,
        "player_name": "Dan Ketil Kristiansen",
        "rank": 53264,
        "rank_sort": 53403,
        "total": 2350
      },
      {
        "club_badge_src": null,
        "entry": 6368931,
        "entry_name": "Burslem Port Vale",
        "event_total": 45,
        "has_played": true,
        "id": 50645118,
        "last_rank": 36963,
        "player_name": "Chris Hollinshead",
        "rank": 53264,
        "rank_sort": 53404,
        "total": 2350
      },
      {
        "club_badge_src": null,
        "entry": 6411587,
        "entry_name": "IsYourMotherwell",
        "event_total": 72,
        "has_played": true,
        "id": 51022211,
        "last_rank": 82398,
        "player_name": "Ross Thornton",
        "rank": 53264,
        "rank_sort": 53405,
        "total": 2350
      },
      {
        "club_badge_src": null,
        "entry": 6795760,
        "entry_name": "Didzy",
        "event_total": 52,
        "has_played": true,
        "id": 54421719,
        "last_rank": 35424,
        "player_name": "Shane Marry",
        "rank": 53264,
        "rank_sort": 53406,
        "total": 2350
      },
      {
        "club_badge_src": null,
        "entry": 7062913,
        "entry_name": "Gutan",
        "event_total": 60,
        "has_played": true,
        "id": 56822936,
        "last_rank": 51720,
        "player_name": "Tobias K Guddal",
        "rank": 53264,
        "rank_sort": 53407,
        "total": 2350
      },
      {
        "club_badge_src": null,
        "entry": 7257558,
        "entry_name": "Kaiserslaughtern LZR",
        "event_total": 64,
        "has_played": true,
        "id": 58677491,
        "last_rank": 66057,
        "player_name": "Seb Alam",
        "rank": 53264,
        "rank_sort": 53408,
        "total": 2350
      },
      {
        "club_badge_src": null,
        "entry": 7417234,
        "entry_name": "NoahFC",
        "event_total": 60,
        "has_played": true,
        "id": 60212732,
        "last_rank": 51984,
        "player_name": "Noah Bjerklund",
        "rank": 53264,
        "rank_sort": 53409,
        "total": 2350
      },
      {
        "club_badge_src": null,
        "entry": 7823630,
        "entry_name": "mb",
        "event_total": 59,
        "has_played": true,
        "id": 64287991,
        "last_rank": 50468,
        "player_name": "Maa Baa",
        "rank": 53264,
        "rank_sort": 53410,
        "total": 2350
      },
      {
        "club_badge_src": null,
        "entry": 8003422,
        "entry_name": "DiogoalJotaX1",
        "event_total": 55,
        "has_played": true,
        "id": 65915019,
        "last_rank": 50468,
        "player_name": "Shantanu Bhardwaj",
        "rank": 53264,
        "rank_sort": 53411,
        "total": 2350
      },
      {
        "club_badge_src": null,
        "entry": 8351136,
        "entry_name": "I'm back",
        "event_total": 62,
        "has_played": true,
        "id": 69213078,
        "last_rank": 62223,
        "player_name": "Alja\u017e Klobasa",
        "rank": 53264,
        "rank_sort": 53412,
        "total": 2350
      },
      {
        "club_badge_src": null,
        "entry": 8403287,
        "entry_name": "Jacotingham Forest*",
        "event_total": 62,
        "has_played": true,
        "id": 69708682,
        "last_rank": 62429,
        "player_name": "Lionel Jacot",
        "rank": 53264,
        "rank_sort": 53413,
        "total": 2350
      },
      {
        "club_badge_src": null,
        "entry": 8581775,
        "entry_name": "SAIYAARA FC",
        "event_total": 67,
        "has_played": true,
        "id": 71422661,
        "last_rank": 63724,
        "player_name": "Kawthur Soobadur",
        "rank": 53264,
        "rank_sort": 53414,
        "total": 2350
      },
      {
        "club_badge_src": "https://fantasy.premierleague.com/gcs/plfpl-production-adobe-approved/plfpl-production/8598423/5580ac80-b04c-489d-8af5-1e91ed3a0a27.png",
        "entry": 8598423,
        "entry_name": "WislaKrakowGreenwich",
        "event_total": 64,
        "has_played": true,
        "id": 71582551,
        "last_rank": 58688,
        "player_name": "Jakub Siwiec",
        "rank": 53264,
        "rank_sort": 53415,
        "total": 2350
      },
      {
        "club_badge_src": "https://fantasy.premierleague.com/gcs/plfpl-production-adobe-approved/plfpl-production/8618859/191bf1a7-8302-432e-9d23-a9f08fe2b98d.png",
        "entry": 8618859,
        "entry_name": "SHAWshank Deflection",
        "event_total": 67,
        "has_played": true,
        "id": 71781331,
        "last_rank": 71956,
        "player_name": "Jonny Paton",
        "rank": 53264,
        "rank_sort": 53416,
        "total": 2350
      },
      {
        "club_badge_src": null,
        "entry": 8681576,
        "entry_name": "Saka Xhaka Laca Boom",
        "event_total": 52,
        "has_played": true,
        "id": 72399861,
        "last_rank": 40503,
        "player_name": "Nu'maan Muhammad",
        "rank": 53264,
        "rank_sort": 53417,
        "total": 2350
      },
      {
        "club_badge_src": null,
        "entry": 9033547,
        "entry_name": "marco red XI",
        "event_total": 63,
        "has_played": true,
        "id": 75804139,
        "last_rank": 64190,
        "player_name": "Mark Reed",
        "rank": 53264,
        "rank_sort": 53418,
        "total": 2350
      },
      {
        "club_badge_src": null,
        "entry": 9292587,
        "entry_name": "Salahmonriverbay XI",
        "event_total": 65,
        "has_played": true,
        "id": 78338697,
        "last_rank": 60462,
        "player_name": "Mats Pedersen",
        "rank": 53264,
        "rank_sort": 53419,
        "total": 2350
      },
      {
        "club_badge_src": null,
        "entry": 9413257,
        "entry_name": "Neils diamond nights",
        "event_total": 57,
        "has_played": true,
        "id": 79500731,
        "last_rank": 53621,
        "player_name": "Neil Daniel Warren",
        "rank": 53264,
        "rank_sort": 53420,
        "total": 2350
      },
      {
        "club_badge_src": "https://fantasy.premierleague.com/gcs/plfpl-production-adobe-approved/plfpl-production/209/a992e290-69cf-4dd5-8fdc-b5282bf7cd0e.png",
        "entry": 209,
        "entry_name": "Bolivian Airfryer FC",
        "event_total": 63,
        "has_played": true,
        "id": 1152,
        "last_rank": 57200,
        "player_name": "Dylan Murphy",
        "rank": 53421,
        "rank_sort": 53421,
        "total": 2350
      },
      {
        "club_badge_src": null,
        "entry": 388,
        "entry_name": "ClubTropicanaDrinkFC",
        "event_total": 59,
        "has_played": true,
        "id": 2141,
        "last_rank": 50635,
        "player_name": "Will C",
        "rank": 53421,
        "rank_sort": 53422,
        "total": 2350
      },
      {
        "club_badge_src": "https://fantasy.premierleague.com/gcs/plfpl-production-adobe-approved/plfpl-production/5415/783c71e4-61ba-4a49-9f4d-946fdf06cf64.png",
        "entry": 5415,
        "entry_name": "Lil Uzi Vertonghen",
        "event_total": 62,
        "has_played": true,
        "id": 30864,
        "last_rank": 48898,
        "player_name": "Andrew Sullivan",
        "rank": 53421,
        "rank_sort": 53423,
        "total": 2350
      },
      {
        "club_badge_src": null,
        "entry": 8265,
        "entry_name": "FPL Magnifico",
        "event_total": 68,
        "has_played": true,
        "id": 47944,
        "last_rank": 66057,
        "player_name": "Jake Collen",
        "rank": 53421,
        "rank_sort": 53424,
        "total": 2350
      },
      {
        "club_badge_src": null,
        "entry": 10446,
        "entry_name": "Harizzabalaga",
        "event_total": 66,
        "has_played": true,
        "id": 61776,
        "last_rank": 62223,
        "player_name": "Hariz Faesol",
        "rank": 53421,
        "rank_sort": 53425,
        "total": 2350
      },
      {
        "club_badge_src": "https://fantasy.premierleague.com/gcs/plfpl-production-adobe-approved/plfpl-production/13304/618e58b3-7c9f-4792-a717-b30bb649629c.png",
        "entry": 13304,
        "entry_name": "Tuchel 4 Skool",
        "event_total": 46,
        "has_played": true,
        "id": 80293,
        "last_rank": 38016,
        "player_name": "Bob Moodie",
        "rank": 53421,
        "rank_sort": 53426,
        "total": 2350
      },
      {
        "club_badge_src": "https://fantasy.premierleague.com/gcs/plfpl-production-adobe-approved/plfpl-production/18579/bfb3350d-83f2-4a06-b749-26b756bdfbae.png",
        "entry": 18579,
        "entry_name": "Rising Son",
        "event_total": 59,
        "has_played": true,
        "id": 115596,
        "last_rank": 57200,
        "player_name": "Patrik Valent",
        "rank": 53421,
        "rank_sort": 53427,
        "total": 2350
      },
      {
        "club_badge_src": null,
        "entry": 19435,
        "entry_name": "Momosalad",
        "event_total": 56,
        "has_played": true,
        "id": 120920,
        "last_rank": 52357,
        "player_name": "Deepak Talluri",
        "rank": 53421,
        "rank_sort": 53428,
        "total": 2350
      },
      {
        "club_badge_src": "https://fantasy.premierleague.com/gcs/plfpl-production-adobe-approved/plfpl-production/22856/b882e841-3953-4a71-9f9c-0a947bded6c3.png",
        "entry": 22856,
        "entry_name": "NUMBER  1",
        "event_total": 56,
        "has_played": true,
        "id": 143705,
        "last_rank": 46106,
        "player_name": "Ahmed Ashraf",
        "rank": 53421,
        "rank_sort": 53429,
        "total": 2350
      },
      {
        "club_badge_src": null,
        "entry": 35544,
        "entry_name": "Buzza's Babes",
        "event_total": 67,
        "has_played": true,
        "id": 227479,
        "last_rank": 64190,
        "player_name": "Tim Buzaglo",
        "rank": 53421,
        "rank_sort": 53430,
        "total": 2350
      },
      {
        "club_badge_src": "https://fantasy.premierleague.com/gcs/plfpl-production-adobe-approved/plfpl-production/36379/9051ad9f-2c23-4bba-afdf-3b6c4d16779a.png",
        "entry": 36379,
        "entry_name": "Torsk i Tallinn",
        "event_total": 69,
        "has_played": true,
        "id": 232879,
        "last_rank": 67695,
        "player_name": "Filip H\u00f6keroth",
        "rank": 53421,
        "rank_sort": 53431,
        "total": 2350
      },
      {
        "club_badge_src": null,
        "entry": 46694,
        "entry_name": "Catch me if you can",
        "event_total": 44,
        "has_played": true,
        "id": 299326,
        "last_rank": 35768,
        "player_name": "Ayden McKenzie",
        "rank": 53421,
        "rank_sort": 53432,
        "total": 2350
      },
      {
        "club_badge_src": null,
        "entry": 52963,
        "entry_name": "Kabwelah",
        "event_total": 73,
        "has_played": true,
        "id": 340589,
        "last_rank": 75874,
        "player_name": "Kelvin Wambua",
        "rank": 53421,
        "rank_sort": 53433,
        "total": 2350
      },
      {
        "club_badge_src": null,
        "entry": 85270,
        "entry_name": "chickentikkamosalah",
        "event_total": 79,
        "has_played": true,
        "id": 555261,
        "last_rank": 89706,
        "player_name": "Ashton Tan",
        "rank": 53421,
        "rank_sort": 53434,
        "total": 2350
      },
      {
        "club_badge_src": null,
        "entry": 114853,
        "entry_name": "Medhat7",
        "event_total": 91,
        "has_played": true,
        "id": 749332,
        "last_rank": 133827,
        "player_name": "Ahmed Medhat",
        "rank": 53421,
        "rank_sort": 53435,
        "total": 2350
      },
      {
        "club_badge_src": "https://fantasy.premierleague.com/gcs/plfpl-production-adobe-approved/plfpl-production/123753/6ab4283c-6e43-42cb-9408-e49504b14eba.png",
        "entry": 123753,
        "entry_name": "The Odyssey KRT",
        "event_total": 43,
        "has_played": true,
        "id": 807152,
        "last_rank": 34682,
        "player_name": "Ton' Keerati",
        "rank": 53421,
        "rank_sort": 53436,
        "total": 2350
      },
      {
        "club_badge_src": "https://fantasy.premierleague.com/gcs/plfpl-production-adobe-approved/plfpl-production/130933/cc645de6-01ef-47b0-b29f-ebd064a94d10.png",
        "entry": 130933,
        "entry_name": "Inter Musashi",
        "event_total": 63,
        "has_played": true,
        "id": 853124,
        "last_rank": 57001,
        "player_name": "Adam Watson",
        "rank": 53421,
        "rank_sort": 53437,
        "total": 2350
      },
      {
        "club_badge_src": "https://fantasy.premierleague.com/gcs/plfpl-production-adobe-approved/plfpl-production/131231/0157e2bf-8841-40d0-9166-a59ae7ada31c.png",
        "entry": 131231,
        "entry_name": "BeefyMcWhatNow",
        "event_total": 67,
        "has_played": true,
        "id": 854992,
        "last_rank": 71956,
        "player_name": "Veselin Tonev",
        "rank": 53421,
        "rank_sort": 53438,
        "total": 2350
      },
      {
        "club_badge_src": null,
        "entry": 148736,
        "entry_name": "FC BabyShaq",
        "event_total": 56,
        "has_played": true,
        "id": 975060,
        "last_rank": 46106,
        "player_name": "Klemen \u0160turm",
        "rank": 53421,
        "rank_sort": 53439,
        "total": 2350
      },
      {
        "club_badge_src": "https://fantasy.premierleague.com/gcs/plfpl-production-adobe-approved/plfpl-production/163327/a55459ef-8a36-4b45-aa92-edeb89c093bc.png",
        "entry": 163327,
        "entry_name": "Mungo's Militia",
        "event_total": 71,
        "has_played": true,
        "id": 1077180,
        "last_rank": 80465,
        "player_name": "Josh Muir",
        "rank": 53421,
        "rank_sort": 53440,
        "total": 2350
      },
      {
        "club_badge_src": null,
        "entry": 164022,
        "entry_name": "MurderOnZidanesFloor",
        "event_total": 55,
        "has_played": true,
        "id": 1082223,
        "last_rank": 50848,
        "player_name": "Mohammed Omar",
        "rank": 53421,
        "rank_sort": 53441,
        "total": 2350
      },
      {
        "club_badge_src": "https://fantasy.premierleague.com/gcs/plfpl-production-adobe-approved/plfpl-production/167521/44a1dcd8-4bb6-4b1b-a334-af709a2147b7.png",
        "entry": 167521,
        "entry_name": "Rapid Cluj",
        "event_total": 51,
        "has_played": true,
        "id": 1107337,
        "last_rank": 44882,
        "player_name": "Paul Giurculet",
        "rank": 53421,
        "rank_sort": 53442,
        "total": 2350
      },
      {
        "club_badge_src": null,
        "entry": 195637,
        "entry_name": "Matz Sels Sea Shells",
        "event_total": 42,
        "has_played": true,
        "id": 1297429,
        "last_rank": 25330,
        "player_name": "Harry King",
        "rank": 53421,
        "rank_sort": 53443,
        "total": 2350
      },
      {
        "club_badge_src": "https://fantasy.premierleague.com/gcs/plfpl-production-adobe-approved/plfpl-production/216508/2f0323b9-c539-40b2-99df-b4014b8b1d0f.png",
        "entry": 216508,
        "entry_name": "FPL Pig",
        "event_total": 59,
        "has_played": true,
        "id": 1440047,
        "last_rank": 50635,
        "player_name": "FPL Pig",
        "rank": 53421,
        "rank_sort": 53444,
        "total": 2350
      },
      {
        "club_badge_src": null,
        "entry": 229300,
        "entry_name": "Dr Shawiesh",
        "event_total": 52,
        "has_played": true,
        "id": 1525567,
        "last_rank": 35619,
        "player_name": "Mahmoud Shawiesh",
        "rank": 53421,
        "rank_sort": 53445,
        "total": 2350
      },
      {
        "club_badge_src": null,
        "entry": 282854,
        "entry_name": "Finding Tino",
        "event_total": 47,
        "has_played": true,
        "id": 1882883,
        "last_rank": 34458,
        "player_name": "Lee Keeling",
        "rank": 53421,
        "rank_sort": 53446,
        "total": 2350
      },
      {
        "club_badge_src": null,
        "entry": 294450,
        "entry_name": "LAP FC",
        "event_total": 62,
        "has_played": true,
        "id": 1966064,
        "last_rank": 62429,
        "player_name": "Adam Lappage",
        "rank": 53421,
        "rank_sort": 53447,
        "total": 2350
      },
      {
        "club_badge_src": null,
        "entry": 306521,
        "entry_name": "\u0647\u0628\u064a\u062f \u0641\u0627\u0646\u062a\u0632\u064a",
        "event_total": 73,
        "has_played": true,
        "id": 2052766,
        "last_rank": 67695,
        "player_name": "Hossam Mo",
        "rank": 53421,
        "rank_sort": 53448,
        "total": 2350
      },
      {
        "club_badge_src": null,
        "entry": 311557,
        "entry_name": "Pickle Glik",
        "event_total": 51,
        "has_played": true,
        "id": 2087296,
        "last_rank": 34458,
        "player_name": "Rick Tran",
        "rank": 53421,
        "rank_sort": 53449,
        "total": 2350
      },
      {
        "club_badge_src": null,
        "entry": 321725,
        "entry_name": "Calafiori Dreamin'",
        "event_total": 60,
        "has_played": true,
        "id": 2156130,
        "last_rank": 51984,
        "player_name": "Lars Damhuis",
        "rank": 53421,
        "rank_sort": 53450,
        "total": 2350
      }
    ]
  }
}