{
  "last_updated_data": "2026-05-24T23:28:17Z",
  "league": {
    "admin_entry": null,
    "closed": false,
    "code_privacy": "p",
    "created": "2025-07-20T23:14:33.933835Z",
    "cup_league": 2815434,
    "has_cup": true,
    "id": 314,
    "league_type": "s",
    "max_entries": null,
    "name": "Overall",
    "rank": null,
    "scoring": "c",
    "start_event": 1
  },
  "new_entries": {
    "has_next": false,
    "page": 1,
    "results": []
  },
  "standings": {
    "has_next": true,
    "page": 1287,
    "results": [
      {
        "club_badge_src": null,
        "entry": 727797,
        "entry_name": "The Sons of Anarchy",
        "event_total": 43,
        "has_played": true,
        "id": 4944611,
        "last_rank": 42648,
        "player_name": "James Rossington",
        "rank": 64222,
        "rank_sort": 64301,
        "total": 2343
      },
      {
        "club_badge_src": null,
        "entry": 745335,
        "entry_name": "Can U kick it?",
        "event_total": 74,
        "has_played": true,
        "id": 5070270,
        "last_rank": 103254,
        "player_name": "Hywel Lloyd",
        "rank": 64222,
        "rank_sort": 64302,
        "total": 2343
      },
      {
        "club_badge_src": "https://fantasy.premierleague.com/gcs/plfpl-production-adobe-approved/plfpl-production/753435/1d47e1d8-6b9c-4b37-83a0-d8f2d33b8708.png",
        "entry": 753435,
        "entry_name": "Pub Team Utd",
        "event_total": 57,
        "has_played": true,
        "id": 5127258,
        "last_rank": 64943,
        "player_name": "paddy fields",
        "rank": 64222,
        "rank_sort": 64303,
        "total": 2343
      },
      {
        "club_badge_src": null,
        "entry": 755459,
        "entry_name": "bruno dos tres",
        "event_total": 66,
        "has_played": true,
        "id": 5143146,
        "last_rank": 83584,
        "player_name": "Ben Broadhead",
        "rank": 64222,
        "rank_sort": 64304,
        "total": 2343
      },
      {
        "club_badge_src": null,
        "entry": 764109,
        "entry_name": "Fozzies Giants",
        "event_total": 48,
        "has_played": true,
        "id": 5211224,
        "last_rank": 49880,
        "player_name": "andrew forster",
        "rank": 64222,
        "rank_sort": 64305,
        "total": 2343
      },
      {
        "club_badge_src": null,
        "entry": 768080,
        "entry_name": "Big Legend",
        "event_total": 50,
        "has_played": true,
        "id": 5238778,
        "last_rank": 53345,
        "player_name": "Abhishek Tripathi",
        "rank": 64222,
        "rank_sort": 64306,
        "total": 2343
      },
      {
        "club_badge_src": "https://fantasy.premierleague.com/gcs/plfpl-production-adobe-approved/plfpl-production/768518/0d6fbc65-a7d3-4813-b4d4-c6be79bb49bf.png",
        "entry": 768518,
        "entry_name": "Rossoneri",
        "event_total": 52,
        "has_played": true,
        "id": 5241759,
        "last_rank": 56369,
        "player_name": "Nakhle Kafrouni",
        "rank": 64222,
        "rank_sort": 64307,
        "total": 2343
      },
      {
        "club_badge_src": null,
        "entry": 781618,
        "entry_name": "Kartongvin",
        "event_total": 51,
        "has_played": true,
        "id": 5336333,
        "last_rank": 54667,
        "player_name": "PC Olafsson",
        "rank": 64222,
        "rank_sort": 64308,
        "total": 2343
      },
      {
        "club_badge_src": "https://fantasy.premierleague.com/gcs/plfpl-production-adobe-approved/plfpl-production/796821/d4582719-21de-4d85-af2a-346d1182cfd2.png",
        "entry": 796821,
        "entry_name": "Heung-Min Gone",
        "event_total": 39,
        "has_played": true,
        "id": 5453610,
        "last_rank": 37589,
        "player_name": "Jake Rietschel",
        "rank": 64222,
        "rank_sort": 64309,
        "total": 2343
      },
      {
        "club_badge_src": "https://fantasy.premierleague.com/gcs/plfpl-production-adobe-approved/plfpl-production/801775/b7c61586-c453-423e-8115-12a5ed4dadc1.png",
        "entry": 801775,
        "entry_name": "inoT",
        "event_total": 59,
        "has_played": true,
        "id": 5488389,
        "last_rank": 68748,
        "player_name": "Toni Lenarcic",
        "rank": 64222,
        "rank_sort": 64310,
        "total": 2343
      },
      {
        "club_badge_src": null,
        "entry": 807037,
        "entry_name": "Allyania Vladikavkaz",
        "event_total": 55,
        "has_played": true,
        "id": 5524981,
        "last_rank": 61606,
        "player_name": "Alastair Middleton",
        "rank": 64222,
        "rank_sort": 64311,
        "total": 2343
      },
      {
        "club_badge_src": null,
        "entry": 813474,
        "entry_name": "Back Of Your Neto",
        "event_total": 57,
        "has_played": true,
        "id": 5570289,
        "last_rank": 65163,
        "player_name": "marco sampaio",
        "rank": 64222,
        "rank_sort": 64312,
        "total": 2343
      },
      {
        "club_badge_src": "https://fantasy.premierleague.com/gcs/plfpl-production-adobe-approved/plfpl-production/892272/c5e09062-ac32-451c-b32c-ab18e266b52d.png",
        "entry": 892272,
        "entry_name": "Can't Get Any Wirtz",
        "event_total": 75,
        "has_played": true,
        "id": 6126902,
        "last_rank": 105963,
        "player_name": "Bishal Bohara",
        "rank": 64222,
        "rank_sort": 64313,
        "total": 2343
      },
      {
        "club_badge_src": null,
        "entry": 897753,
        "entry_name": "Silliothill FC",
        "event_total": 70,
        "has_played": true,
        "id": 6168075,
        "last_rank": 93186,
        "player_name": "Mark Kelly",
        "rank": 64222,
        "rank_sort": 64314,
        "total": 2343
      },
      {
        "club_badge_src": null,
        "entry": 906562,
        "entry_name": "pique blinders",
        "event_total": 68,
        "has_played": true,
        "id": 6231587,
        "last_rank": 88594,
        "player_name": "shaun miller",
        "rank": 64222,
        "rank_sort": 64315,
        "total": 2343
      },
      {
        "club_badge_src": "https://fantasy.premierleague.com/gcs/plfpl-production-adobe-approved/plfpl-production/920637/1a0ba533-7a7e-4bfe-b98b-b5442c0f0a31.png",
        "entry": 920637,
        "entry_name": "Hydrophobic Penguins",
        "event_total": 71,
        "has_played": true,
        "id": 6331474,
        "last_rank": 95640,
        "player_name": "Richard Bade",
        "rank": 64222,
        "rank_sort": 64316,
        "total": 2343
      },
      {
        "club_badge_src": null,
        "entry": 930120,
        "entry_name": "Natureboyz FC",
        "event_total": 60,
        "has_played": true,
        "id": 6399788,
        "last_rank": 70600,
        "player_name": "Anant Mithal",
        "rank": 64222,
        "rank_sort": 64317,
        "total": 2343
      },
      {
        "club_badge_src": null,
        "entry": 949672,
        "entry_name": "Europa Walls",
        "event_total": 45,
        "has_played": true,
        "id": 6542301,
        "last_rank": 45252,
        "player_name": "Jonathan Ericsson",
        "rank": 64222,
        "rank_sort": 64318,
        "total": 2343
      },
      {
        "club_badge_src": "https://fantasy.premierleague.com/gcs/plfpl-production-adobe-approved/plfpl-production/953486/d80a1e12-240d-499b-87f8-ab9fc19f65c9.png",
        "entry": 953486,
        "entry_name": "Pizz Haul",
        "event_total": 61,
        "has_played": true,
        "id": 6569447,
        "last_rank": 72815,
        "player_name": "Andreas Psaros",
        "rank": 64222,
        "rank_sort": 64319,
        "total": 2343
      },
      {
        "club_badge_src": null,
        "entry": 994851,
        "entry_name": "SalGasFC",
        "event_total": 47,
        "has_played": true,
        "id": 6865272,
        "last_rank": 48197,
        "player_name": "Salam Gasim",
        "rank": 64222,
        "rank_sort": 64320,
        "total": 2343
      },
      {
        "club_badge_src": null,
        "entry": 1014949,
        "entry_name": "FC Attacos",
        "event_total": 74,
        "has_played": true,
        "id": 7021358,
        "last_rank": 103254,
        "player_name": "Olle Andersson",
        "rank": 64222,
        "rank_sort": 64321,
        "total": 2343
      },
      {
        "club_badge_src": null,
        "entry": 1031016,
        "entry_name": "Captain America",
        "event_total": 67,
        "has_played": true,
        "id": 7133474,
        "last_rank": 86054,
        "player_name": "Ko Myo",
        "rank": 64222,
        "rank_sort": 64322,
        "total": 2343
      },
      {
        "club_badge_src": "https://fantasy.premierleague.com/gcs/plfpl-production-adobe-approved/plfpl-production/1073360/fc8baeaf-e48d-4f6d-b494-45192cab07e8.png",
        "entry": 1073360,
        "entry_name": "Above Average",
        "event_total": 52,
        "has_played": true,
        "id": 7430985,
        "last_rank": 56369,
        "player_name": "Josh McMillan",
        "rank": 64222,
        "rank_sort": 64323,
        "total": 2343
      },
      {
        "club_badge_src": null,
        "entry": 1095896,
        "entry_name": "Livin\u2019 Saliba Loca",
        "event_total": 58,
        "has_played": true,
        "id": 7590597,
        "last_rank": 66848,
        "player_name": "Joe Clements",
        "rank": 64222,
        "rank_sort": 64324,
        "total": 2343
      },
      {
        "club_badge_src": null,
        "entry": 1153498,
        "entry_name": "Amorim Me Gently",
        "event_total": 50,
        "has_played": true,
        "id": 7998471,
        "last_rank": 53345,
        "player_name": "Matthew Angsuwarangsi",
        "rank": 64222,
        "rank_sort": 64325,
        "total": 2343
      },
      {
        "club_badge_src": "https://fantasy.premierleague.com/gcs/plfpl-production-adobe-approved/plfpl-production/1158503/ea608728-be49-4145-bdd5-9b082b626a35.png",
        "entry": 1158503,
        "entry_name": "Keeper Punching Good",
        "event_total": 61,
        "has_played": true,
        "id": 8034075,
        "last_rank": 72702,
        "player_name": "Lord Ibk",
        "rank": 64222,
        "rank_sort": 64326,
        "total": 2343
      },
      {
        "club_badge_src": null,
        "entry": 1173421,
        "entry_name": "Brendans Bhoys",
        "event_total": 63,
        "has_played": true,
        "id": 8140771,
        "last_rank": 77258,
        "player_name": "Mitchel Connelly",
        "rank": 64222,
        "rank_sort": 64327,
        "total": 2343
      },
      {
        "club_badge_src": null,
        "entry": 1252126,
        "entry_name": "Dontaines FC",
        "event_total": 50,
        "has_played": true,
        "id": 8696458,
        "last_rank": 52853,
        "player_name": "Ben Jackson",
        "rank": 64222,
        "rank_sort": 64328,
        "total": 2343
      },
      {
        "club_badge_src": null,
        "entry": 1295816,
        "entry_name": "Anelka Skelta",
        "event_total": 68,
        "has_played": true,
        "id": 9005673,
        "last_rank": 88348,
        "player_name": "Jake Lord",
        "rank": 64222,
        "rank_sort": 64329,
        "total": 2343
      },
      {
        "club_badge_src": null,
        "entry": 1314504,
        "entry_name": "Matty Take Your Cash",
        "event_total": 83,
        "has_played": true,
        "id": 9136560,
        "last_rank": 130073,
        "player_name": "Matthew Hickey",
        "rank": 64222,
        "rank_sort": 64330,
        "total": 2343
      },
      {
        "club_badge_src": null,
        "entry": 1392861,
        "entry_name": "Boumsong and Bramble",
        "event_total": 54,
        "has_played": true,
        "id": 9689916,
        "last_rank": 59813,
        "player_name": "James Turpin",
        "rank": 64222,
        "rank_sort": 64331,
        "total": 2343
      },
      {
        "club_badge_src": null,
        "entry": 1441027,
        "entry_name": "Gyafaking FC",
        "event_total": 60,
        "has_played": true,
        "id": 10041451,
        "last_rank": 70985,
        "player_name": "Kingsley Gyang",
        "rank": 64222,
        "rank_sort": 64332,
        "total": 2343
      },
      {
        "club_badge_src": null,
        "entry": 1468024,
        "entry_name": "Sodza96",
        "event_total": 67,
        "has_played": true,
        "id": 10232650,
        "last_rank": 85932,
        "player_name": "Dusan Sokolovic",
        "rank": 64222,
        "rank_sort": 64333,
        "total": 2343
      },
      {
        "club_badge_src": null,
        "entry": 1504526,
        "entry_name": "Haalandaises\u00e5s",
        "event_total": 37,
        "has_played": true,
        "id": 10492723,
        "last_rank": 35166,
        "player_name": "Noel Nevr\u00e9n",
        "rank": 64222,
        "rank_sort": 64334,
        "total": 2343
      },
      {
        "club_badge_src": "https://fantasy.premierleague.com/gcs/plfpl-production-adobe-approved/plfpl-production/1525802/057671ba-2234-422d-a537-c15710e39418.png",
        "entry": 1525802,
        "entry_name": "PSD CHAMPS",
        "event_total": 59,
        "has_played": true,
        "id": 10642074,
        "last_rank": 68957,
        "player_name": "Prateek Sampige",
        "rank": 64222,
        "rank_sort": 64335,
        "total": 2343
      },
      {
        "club_badge_src": null,
        "entry": 1529290,
        "entry_name": "SIUUU",
        "event_total": 70,
        "has_played": true,
        "id": 10670719,
        "last_rank": 93052,
        "player_name": "Gjorgji Filkovski",
        "rank": 64222,
        "rank_sort": 64336,
        "total": 2343
      },
      {
        "club_badge_src": null,
        "entry": 1548056,
        "entry_name": "Cole Storage",
        "event_total": 43,
        "has_played": true,
        "id": 10808099,
        "last_rank": 42506,
        "player_name": "Justin Lim",
        "rank": 64222,
        "rank_sort": 64337,
        "total": 2343
      },
      {
        "club_badge_src": null,
        "entry": 1563865,
        "entry_name": "EntiVictorian FC",
        "event_total": 84,
        "has_played": true,
        "id": 10924033,
        "last_rank": 133328,
        "player_name": "MOHAMED LASHAL",
        "rank": 64222,
        "rank_sort": 64338,
        "total": 2343
      },
      {
        "club_badge_src": null,
        "entry": 1588796,
        "entry_name": "AbuDa",
        "event_total": 53,
        "has_played": true,
        "id": 11107690,
        "last_rank": 58388,
        "player_name": "Abdulrahman .",
        "rank": 64222,
        "rank_sort": 64339,
        "total": 2343
      },
      {
        "club_badge_src": null,
        "entry": 1607526,
        "entry_name": "NO HOPERS",
        "event_total": 66,
        "has_played": true,
        "id": 11247060,
        "last_rank": 83934,
        "player_name": "vinay saxena",
        "rank": 64222,
        "rank_sort": 64340,
        "total": 2343
      },
      {
        "club_badge_src": "https://fantasy.premierleague.com/gcs/plfpl-production-adobe-approved/plfpl-production/1631619/66266b31-2490-491f-b15d-a6b5e6497cb4.png",
        "entry": 1631619,
        "entry_name": "The Gabriels",
        "event_total": 47,
        "has_played": true,
        "id": 11420346,
        "last_rank": 48363,
        "player_name": "Darren Barlow",
        "rank": 64222,
        "rank_sort": 64341,
        "total": 2343
      },
      {
        "club_badge_src": null,
        "entry": 1657039,
        "entry_name": "Thom@s Fr@nk Engine",
        "event_total": 53,
        "has_played": true,
        "id": 11601142,
        "last_rank": 58071,
        "player_name": "clive parsons",
        "rank": 64222,
        "rank_sort": 64342,
        "total": 2343
      },
      {
        "club_badge_src": null,
        "entry": 1668340,
        "entry_name": "Ekitike & Deliver",
        "event_total": 82,
        "has_played": true,
        "id": 11680530,
        "last_rank": 126408,
        "player_name": "Tushar Sabharwal",
        "rank": 64222,
        "rank_sort": 64343,
        "total": 2343
      },
      {
        "club_badge_src": null,
        "entry": 1712847,
        "entry_name": "Dzikie Tapiry",
        "event_total": 66,
        "has_played": true,
        "id": 12001832,
        "last_rank": 83698,
        "player_name": "Pan Marian",
        "rank": 64222,
        "rank_sort": 64344,
        "total": 2343
      },
      {
        "club_badge_src": null,
        "entry": 1756814,
        "entry_name": "AF FPL",
        "event_total": 45,
        "has_played": true,
        "id": 12333802,
        "last_rank": 45416,
        "player_name": "Archie Ferguson",
        "rank": 64222,
        "rank_sort": 64345,
        "total": 2343
      },
      {
        "club_badge_src": "https://fantasy.premierleague.com/gcs/plfpl-production-adobe-approved/plfpl-production/1795438/6d3c3ba2-b32b-4290-b0de-22d3d5bb5aad.png",
        "entry": 1795438,
        "entry_name": "Kinder Mbeumo",
        "event_total": 54,
        "has_played": true,
        "id": 12617131,
        "last_rank": 59813,
        "player_name": "Brooklyn Sykes",
        "rank": 64222,
        "rank_sort": 64346,
        "total": 2343
      },
      {
        "club_badge_src": null,
        "entry": 1803120,
        "entry_name": "EggFriedReus",
        "event_total": 65,
        "has_played": true,
        "id": 12675870,
        "last_rank": 81646,
        "player_name": "Jonathan McKavanagh",
        "rank": 64222,
        "rank_sort": 64347,
        "total": 2343
      },
      {
        "club_badge_src": null,
        "entry": 1806292,
        "entry_name": "VikPer",
        "event_total": 64,
        "has_played": true,
        "id": 12698769,
        "last_rank": 79431,
        "player_name": "Viktor Persson",
        "rank": 64222,
        "rank_sort": 64348,
        "total": 2343
      },
      {
        "club_badge_src": null,
        "entry": 1812997,
        "entry_name": "FergieXI",
        "event_total": 59,
        "has_played": true,
        "id": 12748303,
        "last_rank": 69323,
        "player_name": "Deepanshu Jakhar",
        "rank": 64222,
        "rank_sort": 64349,
        "total": 2343
      },
      {
        "club_badge_src": null,
        "entry": 1827010,
        "entry_name": "LOUIS11",
        "event_total": 57,
        "has_played": true,
        "id": 12850749,
        "last_rank": 64943,
        "player_name": "louis rees",
        "rank": 64222,
        "rank_sort": 64350,
        "total": 2343
      }
    ]
  }
}