{
  "last_updated_data": "2026-05-24T23:28:17Z",
  "league": {
    "admin_entry": null,
    "closed": false,
    "code_privacy": "p",
    "created": "2025-07-20T23:14:33.933835Z",
    "cup_league": 2815434,
    "has_cup": true,
    "id": 314,
    "league_type": "s",
    "max_entries": null,
    "name": "Overall",
    "rank": null,
    "scoring": "c",
    "start_event": 1
  },
  "new_entries": {
    "has_next": false,
    "page": 1,
    "results": []
  },
  "standings": {
    "has_next": true,
    "page": 432,
    "results": [
      {
        "club_badge_src": null,
        "entry": 268040,
        "entry_name": "Its a Cole World",
        "event_total": 65,
        "has_played": true,
        "id": 1783146,
        "last_rank": 27770,
        "player_name": "Arturo Maldonado",
        "rank": 21518,
        "rank_sort": 21551,
        "total": 2378
      },
      {
        "club_badge_src": "https://fantasy.premierleague.com/gcs/plfpl-production-adobe-approved/plfpl-production/275254/1268a383-b96e-4d1a-827b-136052cc2087.png",
        "entry": 275254,
        "entry_name": "Tickle Town",
        "event_total": 60,
        "has_played": true,
        "id": 1831836,
        "last_rank": 23341,
        "player_name": "Tom Kenny",
        "rank": 21518,
        "rank_sort": 21552,
        "total": 2378
      },
      {
        "club_badge_src": null,
        "entry": 340296,
        "entry_name": "Bollgenierna",
        "event_total": 66,
        "has_played": true,
        "id": 2277889,
        "last_rank": 28546,
        "player_name": "Johan Hansson",
        "rank": 21518,
        "rank_sort": 21553,
        "total": 2378
      },
      {
        "club_badge_src": "https://fantasy.premierleague.com/gcs/plfpl-production-adobe-approved/plfpl-production/361210/57653732-47d7-4816-a411-71be81b2c890.png",
        "entry": 361210,
        "entry_name": "7amod FC",
        "event_total": 50,
        "has_played": true,
        "id": 2416955,
        "last_rank": 16320,
        "player_name": "Mohammed Alahdab",
        "rank": 21518,
        "rank_sort": 21554,
        "total": 2378
      },
      {
        "club_badge_src": "https://fantasy.premierleague.com/gcs/plfpl-production-adobe-approved/plfpl-production/372355/ae5e2172-86e7-4545-a32b-0b514e7f063a.png",
        "entry": 372355,
        "entry_name": "Ekitike Taka",
        "event_total": 65,
        "has_played": true,
        "id": 2491364,
        "last_rank": 27770,
        "player_name": "Rio Mortimer",
        "rank": 21518,
        "rank_sort": 21555,
        "total": 2378
      },
      {
        "club_badge_src": null,
        "entry": 382707,
        "entry_name": "Kendallinho FC",
        "event_total": 65,
        "has_played": true,
        "id": 2566277,
        "last_rank": 27976,
        "player_name": "Joe Kendall",
        "rank": 21518,
        "rank_sort": 21556,
        "total": 2378
      },
      {
        "club_badge_src": "https://fantasy.premierleague.com/gcs/plfpl-production-adobe-approved/plfpl-production/439886/7f578d3a-bb79-427c-b0f7-ca21348f29a7.png",
        "entry": 439886,
        "entry_name": "Aj em Jos\u00e9 Mourinho",
        "event_total": 42,
        "has_played": true,
        "id": 2949641,
        "last_rank": 11821,
        "player_name": "Patrik Faskerti",
        "rank": 21518,
        "rank_sort": 21557,
        "total": 2378
      },
      {
        "club_badge_src": "https://fantasy.premierleague.com/gcs/plfpl-production-adobe-approved/plfpl-production/457361/0272071e-bd32-462a-b1ff-bdf100cee74e.png",
        "entry": 457361,
        "entry_name": "Jonesys belters",
        "event_total": 56,
        "has_played": true,
        "id": 3068380,
        "last_rank": 20416,
        "player_name": "Mike Jones",
        "rank": 21518,
        "rank_sort": 21558,
        "total": 2378
      },
      {
        "club_badge_src": null,
        "entry": 466753,
        "entry_name": "Noni your business",
        "event_total": 47,
        "has_played": true,
        "id": 3131854,
        "last_rank": 14496,
        "player_name": "Jack Cook",
        "rank": 21518,
        "rank_sort": 21559,
        "total": 2378
      },
      {
        "club_badge_src": null,
        "entry": 473434,
        "entry_name": "Szob Story",
        "event_total": 77,
        "has_played": true,
        "id": 3178427,
        "last_rank": 41824,
        "player_name": "Liam Rich",
        "rank": 21518,
        "rank_sort": 21560,
        "total": 2378
      },
      {
        "club_badge_src": null,
        "entry": 536502,
        "entry_name": "Bombito Stars",
        "event_total": 63,
        "has_played": true,
        "id": 3610979,
        "last_rank": 25902,
        "player_name": "Arno Baeyens",
        "rank": 21518,
        "rank_sort": 21561,
        "total": 2378
      },
      {
        "club_badge_src": null,
        "entry": 625741,
        "entry_name": "ChipsNSalah",
        "event_total": 70,
        "has_played": true,
        "id": 4228548,
        "last_rank": 32879,
        "player_name": "Declan Quirke",
        "rank": 21518,
        "rank_sort": 21562,
        "total": 2378
      },
      {
        "club_badge_src": null,
        "entry": 693991,
        "entry_name": "LBW",
        "event_total": 58,
        "has_played": true,
        "id": 4700171,
        "last_rank": 21775,
        "player_name": "Dominic Worthington",
        "rank": 21518,
        "rank_sort": 21563,
        "total": 2378
      },
      {
        "club_badge_src": "https://fantasy.premierleague.com/gcs/plfpl-production-adobe-approved/plfpl-production/719129/15e31710-1cba-4794-bd47-73984e3c8042.png",
        "entry": 719129,
        "entry_name": "BeliGavrani",
        "event_total": 52,
        "has_played": true,
        "id": 4880729,
        "last_rank": 14926,
        "player_name": "Bojan Cvijanovic",
        "rank": 21518,
        "rank_sort": 21564,
        "total": 2378
      },
      {
        "club_badge_src": "https://fantasy.premierleague.com/gcs/plfpl-production-adobe-approved/plfpl-production/762422/f225199f-e69a-40ac-a36c-ee07456163a5.png",
        "entry": 762422,
        "entry_name": "Pints & Points",
        "event_total": 64,
        "has_played": true,
        "id": 5199410,
        "last_rank": 26827,
        "player_name": "Luke Chamberlain",
        "rank": 21518,
        "rank_sort": 21565,
        "total": 2378
      },
      {
        "club_badge_src": null,
        "entry": 779373,
        "entry_name": "Bad losers",
        "event_total": 74,
        "has_played": true,
        "id": 5320149,
        "last_rank": 37822,
        "player_name": "Abdallah Hassan",
        "rank": 21518,
        "rank_sort": 21566,
        "total": 2378
      },
      {
        "club_badge_src": null,
        "entry": 835017,
        "entry_name": "Can It Get Any Wirtz",
        "event_total": 60,
        "has_played": true,
        "id": 5719909,
        "last_rank": 20280,
        "player_name": "Joe Nolan",
        "rank": 21518,
        "rank_sort": 21567,
        "total": 2378
      },
      {
        "club_badge_src": null,
        "entry": 898612,
        "entry_name": "Mon",
        "event_total": 58,
        "has_played": true,
        "id": 6174117,
        "last_rank": 18790,
        "player_name": "mina abdelmessih",
        "rank": 21518,
        "rank_sort": 21568,
        "total": 2378
      },
      {
        "club_badge_src": null,
        "entry": 915262,
        "entry_name": "Hotshots",
        "event_total": 64,
        "has_played": true,
        "id": 6293745,
        "last_rank": 23341,
        "player_name": "Charkee Urunanon",
        "rank": 21518,
        "rank_sort": 21569,
        "total": 2378
      },
      {
        "club_badge_src": null,
        "entry": 932555,
        "entry_name": "Gannets & Elks",
        "event_total": 62,
        "has_played": true,
        "id": 6417008,
        "last_rank": 25172,
        "player_name": "Sam Beresford",
        "rank": 21518,
        "rank_sort": 21570,
        "total": 2378
      },
      {
        "club_badge_src": "https://fantasy.premierleague.com/gcs/plfpl-production-adobe-approved/plfpl-production/958809/370d9189-1453-4418-a177-ff72428e7f05.png",
        "entry": 958809,
        "entry_name": "BK Tr\u00e4ben",
        "event_total": 64,
        "has_played": true,
        "id": 6606958,
        "last_rank": 27020,
        "player_name": "Andreas Wahman",
        "rank": 21518,
        "rank_sort": 21571,
        "total": 2378
      },
      {
        "club_badge_src": null,
        "entry": 1087311,
        "entry_name": "YDS",
        "event_total": 63,
        "has_played": true,
        "id": 7530052,
        "last_rank": 26088,
        "player_name": "Eirik Str\u00f8mmen Kl\u00e6vold",
        "rank": 21518,
        "rank_sort": 21572,
        "total": 2378
      },
      {
        "club_badge_src": null,
        "entry": 1223395,
        "entry_name": "Sausage Rohl",
        "event_total": 73,
        "has_played": true,
        "id": 8493622,
        "last_rank": 36624,
        "player_name": "Stephen Marcus",
        "rank": 21518,
        "rank_sort": 21573,
        "total": 2378
      },
      {
        "club_badge_src": "https://fantasy.premierleague.com/gcs/plfpl-production-adobe-approved/plfpl-production/1223800/a2d7a1d4-58e8-4a21-8e4f-c84e89c9155d.png",
        "entry": 1223800,
        "entry_name": "Wirtz XI",
        "event_total": 71,
        "has_played": true,
        "id": 8496689,
        "last_rank": 34458,
        "player_name": "Alex Holmes",
        "rank": 21518,
        "rank_sort": 21574,
        "total": 2378
      },
      {
        "club_badge_src": "https://fantasy.premierleague.com/gcs/plfpl-production-adobe-approved/plfpl-production/1256648/b484904a-083e-43cb-b2a1-8db28cf8b1f6.png",
        "entry": 1256648,
        "entry_name": "bryan mBOOOOOMo",
        "event_total": 60,
        "has_played": true,
        "id": 8729086,
        "last_rank": 23522,
        "player_name": "James Buxto.",
        "rank": 21518,
        "rank_sort": 21575,
        "total": 2378
      },
      {
        "club_badge_src": null,
        "entry": 1299034,
        "entry_name": "Under My Cucurella",
        "event_total": 52,
        "has_played": true,
        "id": 9028232,
        "last_rank": 17585,
        "player_name": "Sean O\u2019Driscoll",
        "rank": 21518,
        "rank_sort": 21576,
        "total": 2378
      },
      {
        "club_badge_src": null,
        "entry": 1328819,
        "entry_name": "CatchUsIfYouCan",
        "event_total": 32,
        "has_played": true,
        "id": 9236257,
        "last_rank": 6448,
        "player_name": "Rowan Hillier",
        "rank": 21518,
        "rank_sort": 21577,
        "total": 2378
      },
      {
        "club_badge_src": null,
        "entry": 1408640,
        "entry_name": "Fat Frank's XI",
        "event_total": 53,
        "has_played": true,
        "id": 9801646,
        "last_rank": 18113,
        "player_name": "Marius Bonnevie",
        "rank": 21518,
        "rank_sort": 21578,
        "total": 2378
      },
      {
        "club_badge_src": null,
        "entry": 1416442,
        "entry_name": "FC KOLO",
        "event_total": 68,
        "has_played": true,
        "id": 9861810,
        "last_rank": 30727,
        "player_name": "Tobias Lindgren",
        "rank": 21518,
        "rank_sort": 21579,
        "total": 2378
      },
      {
        "club_badge_src": "https://fantasy.premierleague.com/gcs/plfpl-production-adobe-approved/plfpl-production/1448050/bd11ca7c-7f52-4f01-8fec-327c690dac5c.png",
        "entry": 1448050,
        "entry_name": "dfgheyugytduj3n",
        "event_total": 49,
        "has_played": true,
        "id": 10090185,
        "last_rank": 15694,
        "player_name": "Robert Walsh",
        "rank": 21518,
        "rank_sort": 21580,
        "total": 2378
      },
      {
        "club_badge_src": "https://fantasy.premierleague.com/gcs/plfpl-production-adobe-approved/plfpl-production/1492356/b8f580cc-5adc-471b-8a8d-1f4c5bc96aa5.png",
        "entry": 1492356,
        "entry_name": "Slack Babbath",
        "event_total": 51,
        "has_played": true,
        "id": 10407060,
        "last_rank": 16959,
        "player_name": "James Young",
        "rank": 21518,
        "rank_sort": 21581,
        "total": 2378
      },
      {
        "club_badge_src": null,
        "entry": 1495024,
        "entry_name": "FPLGod",
        "event_total": 67,
        "has_played": true,
        "id": 10425762,
        "last_rank": 25902,
        "player_name": "Marko Bryan",
        "rank": 21518,
        "rank_sort": 21582,
        "total": 2378
      },
      {
        "club_badge_src": null,
        "entry": 1507762,
        "entry_name": "Grealishious",
        "event_total": 47,
        "has_played": true,
        "id": 10515741,
        "last_rank": 14496,
        "player_name": "Miikka Tamminen",
        "rank": 21518,
        "rank_sort": 21583,
        "total": 2378
      },
      {
        "club_badge_src": null,
        "entry": 1546551,
        "entry_name": "\u0e25\u0e39\u0e01\u0e01\u0e25\u0e21\u0e01\u0e25\u0e21 \u26bd",
        "event_total": 57,
        "has_played": true,
        "id": 10797347,
        "last_rank": 20888,
        "player_name": "i_am GwAnG",
        "rank": 21518,
        "rank_sort": 21584,
        "total": 2378
      },
      {
        "club_badge_src": null,
        "entry": 1682856,
        "entry_name": "Breznans Boys",
        "event_total": 59,
        "has_played": true,
        "id": 11780539,
        "last_rank": 19544,
        "player_name": "Brennan Cate",
        "rank": 21518,
        "rank_sort": 21585,
        "total": 2378
      },
      {
        "club_badge_src": null,
        "entry": 1757649,
        "entry_name": "hsack",
        "event_total": 72,
        "has_played": true,
        "id": 12340021,
        "last_rank": 35424,
        "player_name": "hans Sackl\u00e9n",
        "rank": 21518,
        "rank_sort": 21586,
        "total": 2378
      },
      {
        "club_badge_src": null,
        "entry": 1887763,
        "entry_name": "Ctrl Alt De Laet",
        "event_total": 66,
        "has_played": true,
        "id": 13304040,
        "last_rank": 28546,
        "player_name": "Harry Hallett",
        "rank": 21518,
        "rank_sort": 21587,
        "total": 2378
      },
      {
        "club_badge_src": null,
        "entry": 1961940,
        "entry_name": "Mukzieeeee",
        "event_total": 70,
        "has_played": true,
        "id": 13842298,
        "last_rank": 32879,
        "player_name": "Mukul Sarwal",
        "rank": 21518,
        "rank_sort": 21588,
        "total": 2378
      },
      {
        "club_badge_src": null,
        "entry": 1981090,
        "entry_name": "McGinn and Tonic",
        "event_total": 50,
        "has_played": true,
        "id": 13991257,
        "last_rank": 16163,
        "player_name": "Oscar Furnee Horton",
        "rank": 21518,
        "rank_sort": 21589,
        "total": 2378
      },
      {
        "club_badge_src": null,
        "entry": 2022124,
        "entry_name": "gurunggame",
        "event_total": 39,
        "has_played": true,
        "id": 14308992,
        "last_rank": 10462,
        "player_name": "Gurung Game",
        "rank": 21518,
        "rank_sort": 21590,
        "total": 2378
      },
      {
        "club_badge_src": "https://fantasy.premierleague.com/gcs/plfpl-production-adobe-approved/plfpl-production/2081023/c1dd88a3-d337-43be-9917-8a65f9a6eb88.png",
        "entry": 2081023,
        "entry_name": "(\u25d5\u203f\u25d5\u273f)",
        "event_total": 44,
        "has_played": true,
        "id": 14756847,
        "last_rank": 12846,
        "player_name": "Sam Lee",
        "rank": 21518,
        "rank_sort": 21591,
        "total": 2378
      },
      {
        "club_badge_src": null,
        "entry": 2255313,
        "entry_name": "FPL Team #3",
        "event_total": 60,
        "has_played": true,
        "id": 16076447,
        "last_rank": 23341,
        "player_name": "paul sparacello",
        "rank": 21518,
        "rank_sort": 21592,
        "total": 2378
      },
      {
        "club_badge_src": "https://fantasy.premierleague.com/gcs/plfpl-production-adobe-approved/plfpl-production/2433088/5aaaea68-2a99-4b81-b125-c8bdd1b7274b.png",
        "entry": 2433088,
        "entry_name": "RugelBack Rovers",
        "event_total": 49,
        "has_played": true,
        "id": 17398518,
        "last_rank": 15550,
        "player_name": "H\u00e5kon M\u00f8rtvedt Rugelbak",
        "rank": 21518,
        "rank_sort": 21593,
        "total": 2378
      },
      {
        "club_badge_src": "https://fantasy.premierleague.com/gcs/plfpl-production-adobe-approved/plfpl-production/2520648/4ecf9b82-b77c-46de-8b2b-3012b9f5e2ba.png",
        "entry": 2520648,
        "entry_name": "The Wirtz Nightmare",
        "event_total": 65,
        "has_played": true,
        "id": 18060758,
        "last_rank": 27976,
        "player_name": "Jon Williams",
        "rank": 21518,
        "rank_sort": 21594,
        "total": 2378
      },
      {
        "club_badge_src": null,
        "entry": 2840281,
        "entry_name": "Team Stormark",
        "event_total": 71,
        "has_played": true,
        "id": 20759091,
        "last_rank": 34293,
        "player_name": "Steinar Stormark",
        "rank": 21518,
        "rank_sort": 21595,
        "total": 2378
      },
      {
        "club_badge_src": null,
        "entry": 2917999,
        "entry_name": "Snils FC",
        "event_total": 52,
        "has_played": true,
        "id": 21388558,
        "last_rank": 14926,
        "player_name": "Anton Nilsson",
        "rank": 21518,
        "rank_sort": 21596,
        "total": 2378
      },
      {
        "club_badge_src": null,
        "entry": 3117245,
        "entry_name": "Benjamin Tesco",
        "event_total": 60,
        "has_played": true,
        "id": 23003269,
        "last_rank": 23341,
        "player_name": "Isak Lexert",
        "rank": 21518,
        "rank_sort": 21597,
        "total": 2378
      },
      {
        "club_badge_src": null,
        "entry": 3223256,
        "entry_name": "4-4-Towen",
        "event_total": 52,
        "has_played": true,
        "id": 23835962,
        "last_rank": 17585,
        "player_name": "Tom Owen",
        "rank": 21518,
        "rank_sort": 21598,
        "total": 2378
      },
      {
        "club_badge_src": null,
        "entry": 3292366,
        "entry_name": "Silver Snicks",
        "event_total": 50,
        "has_played": true,
        "id": 24377854,
        "last_rank": 13821,
        "player_name": "Nicolai Walvik Gundersen",
        "rank": 21518,
        "rank_sort": 21599,
        "total": 2378
      },
      {
        "club_badge_src": null,
        "entry": 3323503,
        "entry_name": "Salahside Up",
        "event_total": 43,
        "has_played": true,
        "id": 24637534,
        "last_rank": 12141,
        "player_name": "Liam Mesilio",
        "rank": 21518,
        "rank_sort": 21600,
        "total": 2378
      }
    ]
  }
}