{
  "last_updated_data": "2026-05-24T23:28:17Z",
  "league": {
    "admin_entry": null,
    "closed": false,
    "code_privacy": "p",
    "created": "2025-07-20T23:14:33.933835Z",
    "cup_league": 2815434,
    "has_cup": true,
    "id": 314,
    "league_type": "s",
    "max_entries": null,
    "name": "Overall",
    "rank": null,
    "scoring": "c",
    "start_event": 1
  },
  "new_entries": {
    "has_next": false,
    "page": 1,
    "results": []
  },
  "standings": {
    "has_next": true,
    "page": 1517,
    "results": [
      {
        "club_badge_src": null,
        "entry": 1996121,
        "entry_name": "Loverfools",
        "event_total": 63,
        "has_played": true,
        "id": 14105231,
        "last_rank": 90746,
        "player_name": "LI YU TAN",
        "rank": 75615,
        "rank_sort": 75801,
        "total": 2337
      },
      {
        "club_badge_src": null,
        "entry": 2024905,
        "entry_name": "Annes Diamonds",
        "event_total": 53,
        "has_played": true,
        "id": 14330647,
        "last_rank": 68957,
        "player_name": "Anne Pritchard",
        "rank": 75615,
        "rank_sort": 75802,
        "total": 2337
      },
      {
        "club_badge_src": null,
        "entry": 2029457,
        "entry_name": "Purrfect Catitude",
        "event_total": 66,
        "has_played": true,
        "id": 14367584,
        "last_rank": 98436,
        "player_name": "Jo Moore",
        "rank": 75615,
        "rank_sort": 75803,
        "total": 2337
      },
      {
        "club_badge_src": null,
        "entry": 2055262,
        "entry_name": "Caramel Toffees",
        "event_total": 70,
        "has_played": true,
        "id": 14559092,
        "last_rank": 108959,
        "player_name": "Chris Coxon",
        "rank": 75615,
        "rank_sort": 75804,
        "total": 2337
      },
      {
        "club_badge_src": null,
        "entry": 2059313,
        "entry_name": "Roaring Reds",
        "event_total": 48,
        "has_played": true,
        "id": 14589072,
        "last_rank": 59813,
        "player_name": "Sushrita Chakraborty",
        "rank": 75615,
        "rank_sort": 75805,
        "total": 2337
      },
      {
        "club_badge_src": null,
        "entry": 2060153,
        "entry_name": "Wishful Sinful",
        "event_total": 72,
        "has_played": true,
        "id": 14596196,
        "last_rank": 114169,
        "player_name": "Ian Fleming",
        "rank": 75615,
        "rank_sort": 75806,
        "total": 2337
      },
      {
        "club_badge_src": "https://fantasy.premierleague.com/gcs/plfpl-production-adobe-approved/plfpl-production/2089791/fa40d94e-4b83-4b96-a7b3-ea96e359154a.png",
        "entry": 2089791,
        "entry_name": "Livin' Saliba Loca",
        "event_total": 59,
        "has_played": true,
        "id": 14826571,
        "last_rank": 81646,
        "player_name": "Kaique Rios",
        "rank": 75615,
        "rank_sort": 75807,
        "total": 2337
      },
      {
        "club_badge_src": null,
        "entry": 2102739,
        "entry_name": "no place id radabe",
        "event_total": 65,
        "has_played": true,
        "id": 14921783,
        "last_rank": 95640,
        "player_name": "Nathan Vas",
        "rank": 75615,
        "rank_sort": 75808,
        "total": 2337
      },
      {
        "club_badge_src": null,
        "entry": 2109413,
        "entry_name": "Ribosaurus",
        "event_total": 34,
        "has_played": true,
        "id": 14972421,
        "last_rank": 38774,
        "player_name": "Miroslav Ribic",
        "rank": 75615,
        "rank_sort": 75809,
        "total": 2337
      },
      {
        "club_badge_src": null,
        "entry": 2132571,
        "entry_name": "Show me the Muniz",
        "event_total": 58,
        "has_played": true,
        "id": 15154573,
        "last_rank": 79431,
        "player_name": "Jono Lumb",
        "rank": 75615,
        "rank_sort": 75810,
        "total": 2337
      },
      {
        "club_badge_src": null,
        "entry": 2158658,
        "entry_name": "SG'z",
        "event_total": 59,
        "has_played": true,
        "id": 15345336,
        "last_rank": 81312,
        "player_name": "Daniel Ingham",
        "rank": 75615,
        "rank_sort": 75811,
        "total": 2337
      },
      {
        "club_badge_src": "https://fantasy.premierleague.com/gcs/plfpl-production-adobe-approved/plfpl-production/2169598/8ab43f3d-5005-4836-972e-f9e7f322b00c.png",
        "entry": 2169598,
        "entry_name": "IngsCanOnlyGetBetter",
        "event_total": 51,
        "has_played": true,
        "id": 15425742,
        "last_rank": 65163,
        "player_name": "Dan Meise",
        "rank": 75615,
        "rank_sort": 75812,
        "total": 2337
      },
      {
        "club_badge_src": null,
        "entry": 2179321,
        "entry_name": "Athletico Bilbozo",
        "event_total": 34,
        "has_played": true,
        "id": 15498974,
        "last_rank": 39023,
        "player_name": "James Bostock",
        "rank": 75615,
        "rank_sort": 75813,
        "total": 2337
      },
      {
        "club_badge_src": null,
        "entry": 2197408,
        "entry_name": "Inter Row Z",
        "event_total": 54,
        "has_played": true,
        "id": 15635987,
        "last_rank": 70985,
        "player_name": "Ben Jones",
        "rank": 75615,
        "rank_sort": 75814,
        "total": 2337
      },
      {
        "club_badge_src": null,
        "entry": 2221506,
        "entry_name": "SM united",
        "event_total": 72,
        "has_played": true,
        "id": 15822212,
        "last_rank": 114292,
        "player_name": "Sorasakdi Vechmamontien",
        "rank": 75615,
        "rank_sort": 75815,
        "total": 2337
      },
      {
        "club_badge_src": null,
        "entry": 2253036,
        "entry_name": "\u0627\u0644\u062a\u0631\u0646\u062c\u0627\u0648\u064a",
        "event_total": 57,
        "has_played": true,
        "id": 16058280,
        "last_rank": 77258,
        "player_name": "Hesham Safa",
        "rank": 75615,
        "rank_sort": 75816,
        "total": 2337
      },
      {
        "club_badge_src": null,
        "entry": 2264737,
        "entry_name": "Ribbon Fc",
        "event_total": 68,
        "has_played": true,
        "id": 16147526,
        "last_rank": 103526,
        "player_name": "Jamie Tibbo",
        "rank": 75615,
        "rank_sort": 75817,
        "total": 2337
      },
      {
        "club_badge_src": null,
        "entry": 2320049,
        "entry_name": "Absolutely Fabregas",
        "event_total": 79,
        "has_played": true,
        "id": 16550640,
        "last_rank": 135491,
        "player_name": "Ed Halson",
        "rank": 75615,
        "rank_sort": 75818,
        "total": 2337
      },
      {
        "club_badge_src": "https://fantasy.premierleague.com/gcs/plfpl-production-adobe-approved/plfpl-production/2356294/f046835a-ae77-4c02-ac14-40fcaf906746.png",
        "entry": 2356294,
        "entry_name": "Manchester Reunited",
        "event_total": 52,
        "has_played": true,
        "id": 16813162,
        "last_rank": 67063,
        "player_name": "Aldeyshein Grant",
        "rank": 75615,
        "rank_sort": 75819,
        "total": 2337
      },
      {
        "club_badge_src": "https://fantasy.premierleague.com/gcs/plfpl-production-adobe-approved/plfpl-production/2374224/d6d17ca1-1174-4e07-a11e-6270b8ae92b7.png",
        "entry": 2374224,
        "entry_name": "Hunters Hurricanes",
        "event_total": 50,
        "has_played": true,
        "id": 16949335,
        "last_rank": 63117,
        "player_name": "Ben Hunter",
        "rank": 75615,
        "rank_sort": 75820,
        "total": 2337
      },
      {
        "club_badge_src": null,
        "entry": 2395811,
        "entry_name": "Cesc,Drogs&RocknRoll",
        "event_total": 49,
        "has_played": true,
        "id": 17115340,
        "last_rank": 61606,
        "player_name": "Stefan-Marc Seymour",
        "rank": 75615,
        "rank_sort": 75821,
        "total": 2337
      },
      {
        "club_badge_src": null,
        "entry": 2446052,
        "entry_name": "CITEHHH",
        "event_total": 45,
        "has_played": true,
        "id": 17494293,
        "last_rank": 54667,
        "player_name": "Josh Piveteau",
        "rank": 75615,
        "rank_sort": 75822,
        "total": 2337
      },
      {
        "club_badge_src": null,
        "entry": 2450799,
        "entry_name": "Peeky reijnders",
        "event_total": 54,
        "has_played": true,
        "id": 17528732,
        "last_rank": 70985,
        "player_name": "Robert Rawlinson",
        "rank": 75615,
        "rank_sort": 75823,
        "total": 2337
      },
      {
        "club_badge_src": null,
        "entry": 2464432,
        "entry_name": "Isakstevecook",
        "event_total": 60,
        "has_played": true,
        "id": 17628216,
        "last_rank": 84360,
        "player_name": "David Veum Melleberg",
        "rank": 75615,
        "rank_sort": 75824,
        "total": 2337
      },
      {
        "club_badge_src": null,
        "entry": 2580842,
        "entry_name": "El Loco's",
        "event_total": 61,
        "has_played": true,
        "id": 18524046,
        "last_rank": 86304,
        "player_name": "Alex Bowden",
        "rank": 75615,
        "rank_sort": 75825,
        "total": 2337
      },
      {
        "club_badge_src": "https://fantasy.premierleague.com/gcs/plfpl-production-adobe-approved/plfpl-production/2585371/4e5e5879-659e-45aa-892d-9e91cf1dcc45.png",
        "entry": 2585371,
        "entry_name": "The Hillbillies",
        "event_total": 51,
        "has_played": true,
        "id": 18559052,
        "last_rank": 65163,
        "player_name": "Adrian Hill",
        "rank": 75615,
        "rank_sort": 75826,
        "total": 2337
      },
      {
        "club_badge_src": null,
        "entry": 2597378,
        "entry_name": "Cahill's Have Eyes",
        "event_total": 25,
        "has_played": true,
        "id": 18652812,
        "last_rank": 28726,
        "player_name": "Scott Fernandez",
        "rank": 75615,
        "rank_sort": 75827,
        "total": 2337
      },
      {
        "club_badge_src": null,
        "entry": 2599620,
        "entry_name": "Spitters",
        "event_total": 50,
        "has_played": true,
        "id": 18670107,
        "last_rank": 63390,
        "player_name": "Kent Acott",
        "rank": 75615,
        "rank_sort": 75828,
        "total": 2337
      },
      {
        "club_badge_src": null,
        "entry": 2608589,
        "entry_name": "Gaida11",
        "event_total": 62,
        "has_played": true,
        "id": 18740335,
        "last_rank": 88348,
        "player_name": "Smith Shrestha",
        "rank": 75615,
        "rank_sort": 75829,
        "total": 2337
      },
      {
        "club_badge_src": null,
        "entry": 2685765,
        "entry_name": "Ingen aning",
        "event_total": 62,
        "has_played": true,
        "id": 19317035,
        "last_rank": 89055,
        "player_name": "Filip T\u00f6rner",
        "rank": 75615,
        "rank_sort": 75830,
        "total": 2337
      },
      {
        "club_badge_src": null,
        "entry": 2757866,
        "entry_name": "DokkBeressFC",
        "event_total": 42,
        "has_played": true,
        "id": 20106956,
        "last_rank": 49880,
        "player_name": "Muarfan Mohd",
        "rank": 75615,
        "rank_sort": 75831,
        "total": 2337
      },
      {
        "club_badge_src": null,
        "entry": 2795301,
        "entry_name": "Pane-Arsenal",
        "event_total": 62,
        "has_played": true,
        "id": 20410338,
        "last_rank": 88594,
        "player_name": "Pane Lekov",
        "rank": 75615,
        "rank_sort": 75832,
        "total": 2337
      },
      {
        "club_badge_src": "https://fantasy.premierleague.com/gcs/plfpl-production-adobe-approved/plfpl-production/2805942/db5a5921-40f0-41f5-be55-75f51b332053.png",
        "entry": 2805942,
        "entry_name": "Rice One, Bruvah!",
        "event_total": 68,
        "has_played": true,
        "id": 20491467,
        "last_rank": 103526,
        "player_name": "Peter Tripp",
        "rank": 75615,
        "rank_sort": 75833,
        "total": 2337
      },
      {
        "club_badge_src": "https://fantasy.premierleague.com/gcs/plfpl-production-adobe-approved/plfpl-production/2819930/0ae6d25d-beb4-4d3e-bc84-c53e4b281556.png",
        "entry": 2819930,
        "entry_name": "The Chels",
        "event_total": 62,
        "has_played": true,
        "id": 20600947,
        "last_rank": 88348,
        "player_name": "Haris Bangee",
        "rank": 75615,
        "rank_sort": 75834,
        "total": 2337
      },
      {
        "club_badge_src": null,
        "entry": 2823013,
        "entry_name": "TBL Challenger FC",
        "event_total": 48,
        "has_played": true,
        "id": 20624895,
        "last_rank": 59813,
        "player_name": "BL TEE",
        "rank": 75615,
        "rank_sort": 75835,
        "total": 2337
      },
      {
        "club_badge_src": null,
        "entry": 2823692,
        "entry_name": "Nobbly Bobbly",
        "event_total": 56,
        "has_played": true,
        "id": 20630118,
        "last_rank": 74787,
        "player_name": "Alan Hutchinson",
        "rank": 75615,
        "rank_sort": 75836,
        "total": 2337
      },
      {
        "club_badge_src": null,
        "entry": 2881665,
        "entry_name": "Iceman Warriors",
        "event_total": 51,
        "has_played": true,
        "id": 21095357,
        "last_rank": 65163,
        "player_name": "Andy Kirkpatrick",
        "rank": 75615,
        "rank_sort": 75837,
        "total": 2337
      },
      {
        "club_badge_src": null,
        "entry": 2891725,
        "entry_name": "freixo",
        "event_total": 40,
        "has_played": true,
        "id": 21176111,
        "last_rank": 46839,
        "player_name": "Tom\u00e1s Carapinha",
        "rank": 75615,
        "rank_sort": 75838,
        "total": 2337
      },
      {
        "club_badge_src": null,
        "entry": 2914291,
        "entry_name": "Laing F.C.",
        "event_total": 60,
        "has_played": true,
        "id": 21360907,
        "last_rank": 83934,
        "player_name": "Jack Laing",
        "rank": 75615,
        "rank_sort": 75839,
        "total": 2337
      },
      {
        "club_badge_src": null,
        "entry": 2916176,
        "entry_name": "Chad's Army",
        "event_total": 58,
        "has_played": true,
        "id": 21375138,
        "last_rank": 79817,
        "player_name": "niall mcmahon",
        "rank": 75615,
        "rank_sort": 75840,
        "total": 2337
      },
      {
        "club_badge_src": null,
        "entry": 2918314,
        "entry_name": "Killian me softly",
        "event_total": 32,
        "has_played": true,
        "id": 21390869,
        "last_rank": 36200,
        "player_name": "Killian McGloin",
        "rank": 75615,
        "rank_sort": 75841,
        "total": 2337
      },
      {
        "club_badge_src": null,
        "entry": 2924659,
        "entry_name": "Hacunha Mateta",
        "event_total": 73,
        "has_played": true,
        "id": 21440384,
        "last_rank": 117112,
        "player_name": "Angus Watson",
        "rank": 75615,
        "rank_sort": 75842,
        "total": 2337
      },
      {
        "club_badge_src": "https://fantasy.premierleague.com/gcs/plfpl-production-adobe-approved/plfpl-production/2934694/384f9284-015a-40e6-b826-93593ae836cc.png",
        "entry": 2934694,
        "entry_name": "Dodgy Danes Mandem",
        "event_total": 50,
        "has_played": true,
        "id": 21533500,
        "last_rank": 63724,
        "player_name": "Dane Rozas",
        "rank": 75615,
        "rank_sort": 75843,
        "total": 2337
      },
      {
        "club_badge_src": "https://fantasy.premierleague.com/gcs/plfpl-production-adobe-approved/plfpl-production/2953979/fc4926de-f83b-486d-8df9-0278815607d2.png",
        "entry": 2953979,
        "entry_name": "Respect 2000 \u2605\u2605\u2605\u2605",
        "event_total": 44,
        "has_played": true,
        "id": 21695782,
        "last_rank": 53023,
        "player_name": "Salim Pathan",
        "rank": 75615,
        "rank_sort": 75844,
        "total": 2337
      },
      {
        "club_badge_src": null,
        "entry": 3010055,
        "entry_name": "Dowellys XI",
        "event_total": 60,
        "has_played": true,
        "id": 22143159,
        "last_rank": 83534,
        "player_name": "Ryan McDowell",
        "rank": 75615,
        "rank_sort": 75845,
        "total": 2337
      },
      {
        "club_badge_src": null,
        "entry": 3053615,
        "entry_name": "Cunhalingus",
        "event_total": 55,
        "has_played": true,
        "id": 22480669,
        "last_rank": 64943,
        "player_name": "sam milton",
        "rank": 75615,
        "rank_sort": 75846,
        "total": 2337
      },
      {
        "club_badge_src": null,
        "entry": 3089843,
        "entry_name": "abdullah dwi",
        "event_total": 63,
        "has_played": true,
        "id": 22771525,
        "last_rank": 90746,
        "player_name": "Abood Dwi",
        "rank": 75615,
        "rank_sort": 75847,
        "total": 2337
      },
      {
        "club_badge_src": null,
        "entry": 3149761,
        "entry_name": "Mortenslumber FC",
        "event_total": 61,
        "has_played": true,
        "id": 23258366,
        "last_rank": 86054,
        "player_name": "Neil Mortensen",
        "rank": 75615,
        "rank_sort": 75848,
        "total": 2337
      },
      {
        "club_badge_src": null,
        "entry": 3191737,
        "entry_name": "Underdog",
        "event_total": 66,
        "has_played": true,
        "id": 23588651,
        "last_rank": 98896,
        "player_name": "richard chong",
        "rank": 75615,
        "rank_sort": 75849,
        "total": 2337
      },
      {
        "club_badge_src": null,
        "entry": 3220327,
        "entry_name": "May Stars",
        "event_total": 58,
        "has_played": true,
        "id": 23813561,
        "last_rank": 79431,
        "player_name": "Curtis May",
        "rank": 75615,
        "rank_sort": 75850,
        "total": 2337
      }
    ]
  }
}