{
  "last_updated_data": "2026-05-24T23:28:17Z",
  "league": {
    "admin_entry": null,
    "closed": false,
    "code_privacy": "p",
    "created": "2025-07-20T23:14:33.933835Z",
    "cup_league": 2815434,
    "has_cup": true,
    "id": 314,
    "league_type": "s",
    "max_entries": null,
    "name": "Overall",
    "rank": null,
    "scoring": "c",
    "start_event": 1
  },
  "new_entries": {
    "has_next": false,
    "page": 1,
    "results": []
  },
  "standings": {
    "has_next": true,
    "page": 842,
    "results": [
      {
        "club_badge_src": null,
        "entry": 1462814,
        "entry_name": "Frimpong balls",
        "event_total": 52,
        "has_played": true,
        "id": 10196395,
        "last_rank": 35969,
        "player_name": "Alex Saare",
        "rank": 42027,
        "rank_sort": 42051,
        "total": 2358
      },
      {
        "club_badge_src": null,
        "entry": 1552481,
        "entry_name": "Lyngdal IL",
        "event_total": 63,
        "has_played": true,
        "id": 10839694,
        "last_rank": 44882,
        "player_name": "Stian Sandb\u00e6k",
        "rank": 42027,
        "rank_sort": 42052,
        "total": 2358
      },
      {
        "club_badge_src": null,
        "entry": 2320610,
        "entry_name": "mons_tupe",
        "event_total": 60,
        "has_played": true,
        "id": 16554577,
        "last_rank": 46364,
        "player_name": "Fran Stopic",
        "rank": 42027,
        "rank_sort": 42053,
        "total": 2358
      },
      {
        "club_badge_src": null,
        "entry": 2480128,
        "entry_name": "mate",
        "event_total": 61,
        "has_played": true,
        "id": 17745813,
        "last_rank": 47812,
        "player_name": "Makai Matusa",
        "rank": 42027,
        "rank_sort": 42054,
        "total": 2358
      },
      {
        "club_badge_src": null,
        "entry": 3298728,
        "entry_name": "\u0627\u0644\u0645\u0634\u0637\u0634\u0637 \u062a\u064a\u0645\ufffd",
        "event_total": 70,
        "has_played": true,
        "id": 24430017,
        "last_rank": 62812,
        "player_name": "Sayed Mohmmed",
        "rank": 42027,
        "rank_sort": 42055,
        "total": 2358
      },
      {
        "club_badge_src": null,
        "entry": 3413513,
        "entry_name": "Boom Xhaka Saka",
        "event_total": 63,
        "has_played": true,
        "id": 25352603,
        "last_rank": 50905,
        "player_name": "Alex Tidey",
        "rank": 42027,
        "rank_sort": 42056,
        "total": 2358
      },
      {
        "club_badge_src": null,
        "entry": 4231260,
        "entry_name": "EkiTikiTaka",
        "event_total": 74,
        "has_played": true,
        "id": 32059735,
        "last_rank": 62429,
        "player_name": "Saiesh Naik",
        "rank": 42027,
        "rank_sort": 42057,
        "total": 2358
      },
      {
        "club_badge_src": "https://fantasy.premierleague.com/gcs/plfpl-production-adobe-approved/plfpl-production/4435229/113dca73-ced8-4666-9964-fc839639ad7a.png",
        "entry": 4435229,
        "entry_name": "Singel. Vill ha barn",
        "event_total": 70,
        "has_played": true,
        "id": 33769269,
        "last_rank": 55747,
        "player_name": "Linus Wibring",
        "rank": 42027,
        "rank_sort": 42058,
        "total": 2358
      },
      {
        "club_badge_src": null,
        "entry": 4628070,
        "entry_name": "The Mighty Mallets",
        "event_total": 59,
        "has_played": true,
        "id": 35384704,
        "last_rank": 39585,
        "player_name": "Fergal Dineen",
        "rank": 42027,
        "rank_sort": 42059,
        "total": 2358
      },
      {
        "club_badge_src": null,
        "entry": 5321588,
        "entry_name": "Palmer's Oil XI",
        "event_total": 62,
        "has_played": true,
        "id": 41253236,
        "last_rank": 49368,
        "player_name": "Rory Jenkins",
        "rank": 42027,
        "rank_sort": 42060,
        "total": 2358
      },
      {
        "club_badge_src": null,
        "entry": 5584866,
        "entry_name": "Kinder Mbeumo",
        "event_total": 68,
        "has_played": true,
        "id": 43624068,
        "last_rank": 52461,
        "player_name": "Johaan VB",
        "rank": 42027,
        "rank_sort": 42061,
        "total": 2358
      },
      {
        "club_badge_src": null,
        "entry": 5590378,
        "entry_name": "OKSutden",
        "event_total": 66,
        "has_played": true,
        "id": 43673390,
        "last_rank": 49207,
        "player_name": "Rasmus Demant",
        "rank": 42027,
        "rank_sort": 42062,
        "total": 2358
      },
      {
        "club_badge_src": null,
        "entry": 5617519,
        "entry_name": "YouTube FC",
        "event_total": 63,
        "has_played": true,
        "id": 43909444,
        "last_rank": 50905,
        "player_name": "Cameron Forbes",
        "rank": 42027,
        "rank_sort": 42063,
        "total": 2358
      },
      {
        "club_badge_src": null,
        "entry": 6406505,
        "entry_name": "Bu Thunayan",
        "event_total": 68,
        "has_played": true,
        "id": 50977052,
        "last_rank": 59077,
        "player_name": "Talal AlHatem",
        "rank": 42027,
        "rank_sort": 42064,
        "total": 2358
      },
      {
        "club_badge_src": null,
        "entry": 6527767,
        "entry_name": "Ali Alkaapy",
        "event_total": 47,
        "has_played": true,
        "id": 52069292,
        "last_rank": 30361,
        "player_name": "Ali Alkaapy",
        "rank": 42027,
        "rank_sort": 42065,
        "total": 2358
      },
      {
        "club_badge_src": null,
        "entry": 6861307,
        "entry_name": "Santa's Reijnders",
        "event_total": 62,
        "has_played": true,
        "id": 54975919,
        "last_rank": 43512,
        "player_name": "Travis Maistry",
        "rank": 42027,
        "rank_sort": 42066,
        "total": 2358
      },
      {
        "club_badge_src": null,
        "entry": 7303163,
        "entry_name": "KoolPalmerAndTheGang",
        "event_total": 67,
        "has_played": true,
        "id": 59106120,
        "last_rank": 57515,
        "player_name": "colin divilly",
        "rank": 42027,
        "rank_sort": 42067,
        "total": 2358
      },
      {
        "club_badge_src": null,
        "entry": 7610278,
        "entry_name": "RedAndWhite",
        "event_total": 73,
        "has_played": true,
        "id": 62357384,
        "last_rank": 68216,
        "player_name": "Stephen Wheeler",
        "rank": 42027,
        "rank_sort": 42068,
        "total": 2358
      },
      {
        "club_badge_src": null,
        "entry": 7818387,
        "entry_name": "Easy does it",
        "event_total": 76,
        "has_played": true,
        "id": 64240086,
        "last_rank": 74474,
        "player_name": "Darragh Brennan",
        "rank": 42027,
        "rank_sort": 42069,
        "total": 2358
      },
      {
        "club_badge_src": null,
        "entry": 8482771,
        "entry_name": "VfL Vitalitas",
        "event_total": 72,
        "has_played": true,
        "id": 70467337,
        "last_rank": 65796,
        "player_name": "Agen Sunlight",
        "rank": 42027,
        "rank_sort": 42070,
        "total": 2358
      },
      {
        "club_badge_src": null,
        "entry": 8525006,
        "entry_name": "UNDISPUTED CHAMP",
        "event_total": 66,
        "has_played": true,
        "id": 70879039,
        "last_rank": 55812,
        "player_name": "sam townsend",
        "rank": 42027,
        "rank_sort": 42071,
        "total": 2358
      },
      {
        "club_badge_src": null,
        "entry": 9398363,
        "entry_name": "Endeavour",
        "event_total": 64,
        "has_played": true,
        "id": 79357903,
        "last_rank": 46313,
        "player_name": "Anna Fedorova",
        "rank": 42027,
        "rank_sort": 42072,
        "total": 2358
      },
      {
        "club_badge_src": null,
        "entry": 10216911,
        "entry_name": "Gooti mooti wooti",
        "event_total": 55,
        "has_played": true,
        "id": 86546067,
        "last_rank": 34749,
        "player_name": "Gooti Goot",
        "rank": 42027,
        "rank_sort": 42073,
        "total": 2358
      },
      {
        "club_badge_src": null,
        "entry": 27320,
        "entry_name": "Raging Bulls",
        "event_total": 61,
        "has_played": true,
        "id": 172694,
        "last_rank": 42152,
        "player_name": "Aru Bala",
        "rank": 42074,
        "rank_sort": 42074,
        "total": 2358
      },
      {
        "club_badge_src": null,
        "entry": 206559,
        "entry_name": "Outplayed11",
        "event_total": 56,
        "has_played": true,
        "id": 1372872,
        "last_rank": 35969,
        "player_name": "Oliver Hentschel",
        "rank": 42074,
        "rank_sort": 42075,
        "total": 2358
      },
      {
        "club_badge_src": null,
        "entry": 391618,
        "entry_name": "He Hey Sports",
        "event_total": 60,
        "has_played": true,
        "id": 2626799,
        "last_rank": 40878,
        "player_name": "Daniel Redknap-Neely",
        "rank": 42074,
        "rank_sort": 42076,
        "total": 2358
      },
      {
        "club_badge_src": null,
        "entry": 449801,
        "entry_name": "Absolutely Gy\u00f6kered",
        "event_total": 64,
        "has_played": true,
        "id": 3017832,
        "last_rank": 52561,
        "player_name": "Monty Mohamed",
        "rank": 42074,
        "rank_sort": 42077,
        "total": 2358
      },
      {
        "club_badge_src": "https://fantasy.premierleague.com/gcs/plfpl-production-adobe-approved/plfpl-production/567894/642dda93-6537-444a-b64e-c744ee566c90.png",
        "entry": 567894,
        "entry_name": "Fergie time",
        "event_total": 60,
        "has_played": true,
        "id": 3822250,
        "last_rank": 35926,
        "player_name": "Patrik Kr\u0161\u00e1k",
        "rank": 42074,
        "rank_sort": 42078,
        "total": 2358
      },
      {
        "club_badge_src": null,
        "entry": 616125,
        "entry_name": "Marcus",
        "event_total": 62,
        "has_played": true,
        "id": 4163090,
        "last_rank": 49368,
        "player_name": "Marcus Wood",
        "rank": 42074,
        "rank_sort": 42079,
        "total": 2358
      },
      {
        "club_badge_src": null,
        "entry": 622479,
        "entry_name": "13",
        "event_total": 63,
        "has_played": true,
        "id": 4206689,
        "last_rank": 44950,
        "player_name": "Stuart Greenacre",
        "rank": 42074,
        "rank_sort": 42080,
        "total": 2358
      },
      {
        "club_badge_src": null,
        "entry": 1170778,
        "entry_name": "\u0641\u0627\u062f\u064a \u0639\u0636\u0644\u0627\u062a",
        "event_total": 64,
        "has_played": true,
        "id": 8122181,
        "last_rank": 52522,
        "player_name": "mohamed karam",
        "rank": 42074,
        "rank_sort": 42081,
        "total": 2358
      },
      {
        "club_badge_src": null,
        "entry": 1281110,
        "entry_name": "Rooney tunes",
        "event_total": 61,
        "has_played": true,
        "id": 8902078,
        "last_rank": 37134,
        "player_name": "Fredrik Aldar",
        "rank": 42074,
        "rank_sort": 42082,
        "total": 2358
      },
      {
        "club_badge_src": "https://fantasy.premierleague.com/gcs/plfpl-production-adobe-approved/plfpl-production/1765975/2c4fd3fd-82db-4ad9-8085-22c8cb0c26a0.png",
        "entry": 1765975,
        "entry_name": "Magic's Mescalitos",
        "event_total": 68,
        "has_played": true,
        "id": 12404112,
        "last_rank": 46313,
        "player_name": "Andy Mason",
        "rank": 42074,
        "rank_sort": 42083,
        "total": 2358
      },
      {
        "club_badge_src": null,
        "entry": 1954731,
        "entry_name": "Bream Team",
        "event_total": 51,
        "has_played": true,
        "id": 13789406,
        "last_rank": 30361,
        "player_name": "Yannick Dill",
        "rank": 42074,
        "rank_sort": 42084,
        "total": 2358
      },
      {
        "club_badge_src": null,
        "entry": 2060466,
        "entry_name": "Stokes XI",
        "event_total": 50,
        "has_played": true,
        "id": 14598569,
        "last_rank": 33729,
        "player_name": "Alec Stokes",
        "rank": 42074,
        "rank_sort": 42085,
        "total": 2358
      },
      {
        "club_badge_src": null,
        "entry": 2504337,
        "entry_name": "Backdoorgrabbers",
        "event_total": 73,
        "has_played": true,
        "id": 17933748,
        "last_rank": 54065,
        "player_name": "Robert Lee Teige",
        "rank": 42074,
        "rank_sort": 42086,
        "total": 2358
      },
      {
        "club_badge_src": null,
        "entry": 2660119,
        "entry_name": "Men In Fat",
        "event_total": 76,
        "has_played": true,
        "id": 19121989,
        "last_rank": 74395,
        "player_name": "Loukas Kyriakou",
        "rank": 42074,
        "rank_sort": 42087,
        "total": 2358
      },
      {
        "club_badge_src": "https://fantasy.premierleague.com/gcs/plfpl-production-adobe-approved/plfpl-production/2668563/c57ba83b-b794-4345-94a1-47daf6971acf.png",
        "entry": 2668563,
        "entry_name": "Van Dijk Command",
        "event_total": 68,
        "has_played": true,
        "id": 19185627,
        "last_rank": 59249,
        "player_name": "Noah Leander Saxe",
        "rank": 42074,
        "rank_sort": 42088,
        "total": 2358
      },
      {
        "club_badge_src": null,
        "entry": 2848393,
        "entry_name": "the end",
        "event_total": 62,
        "has_played": true,
        "id": 20824817,
        "last_rank": 43570,
        "player_name": "Ahmed Zakaria",
        "rank": 42074,
        "rank_sort": 42089,
        "total": 2358
      },
      {
        "club_badge_src": null,
        "entry": 3184261,
        "entry_name": "Djuuu",
        "event_total": 80,
        "has_played": true,
        "id": 23531234,
        "last_rank": 66296,
        "player_name": "Nicklas Ringkrans",
        "rank": 42074,
        "rank_sort": 42090,
        "total": 2358
      },
      {
        "club_badge_src": null,
        "entry": 3554236,
        "entry_name": "ZTEK",
        "event_total": 51,
        "has_played": true,
        "id": 26461369,
        "last_rank": 30361,
        "player_name": "Matthew Kissoon",
        "rank": 42074,
        "rank_sort": 42091,
        "total": 2358
      },
      {
        "club_badge_src": null,
        "entry": 4101991,
        "entry_name": "Lallanas in Pyjamas",
        "event_total": 57,
        "has_played": true,
        "id": 30975651,
        "last_rank": 42263,
        "player_name": "Peter Creed",
        "rank": 42074,
        "rank_sort": 42092,
        "total": 2358
      },
      {
        "club_badge_src": null,
        "entry": 4533714,
        "entry_name": "Aimless Wanderers",
        "event_total": 65,
        "has_played": true,
        "id": 34584029,
        "last_rank": 47812,
        "player_name": "Paul Dean",
        "rank": 42074,
        "rank_sort": 42093,
        "total": 2358
      },
      {
        "club_badge_src": null,
        "entry": 4802676,
        "entry_name": "FC Ankara Messi",
        "event_total": 77,
        "has_played": true,
        "id": 36978302,
        "last_rank": 76638,
        "player_name": "Yusuf Jamal",
        "rank": 42074,
        "rank_sort": 42094,
        "total": 2358
      },
      {
        "club_badge_src": null,
        "entry": 5172589,
        "entry_name": "Rojak",
        "event_total": 66,
        "has_played": true,
        "id": 40034356,
        "last_rank": 55812,
        "player_name": "Pei Xiang Ang",
        "rank": 42074,
        "rank_sort": 42095,
        "total": 2358
      },
      {
        "club_badge_src": null,
        "entry": 5316363,
        "entry_name": "MUTONZI YASALAWO",
        "event_total": 51,
        "has_played": true,
        "id": 41211576,
        "last_rank": 34825,
        "player_name": "Xavier Ug",
        "rank": 42074,
        "rank_sort": 42096,
        "total": 2358
      },
      {
        "club_badge_src": null,
        "entry": 5367001,
        "entry_name": "Fireball FC",
        "event_total": 56,
        "has_played": true,
        "id": 41695651,
        "last_rank": 40923,
        "player_name": "Szymon Bialas",
        "rank": 42074,
        "rank_sort": 42097,
        "total": 2358
      },
      {
        "club_badge_src": "https://fantasy.premierleague.com/gcs/plfpl-production-adobe-approved/plfpl-production/5484832/6a045f7c-4cb9-4bb4-86c0-de147a4b539e.png",
        "entry": 5484832,
        "entry_name": "I don\u2019t know",
        "event_total": 57,
        "has_played": true,
        "id": 42709519,
        "last_rank": 42263,
        "player_name": "Ashton Boyland",
        "rank": 42074,
        "rank_sort": 42098,
        "total": 2358
      },
      {
        "club_badge_src": null,
        "entry": 5562969,
        "entry_name": "Saka Potatoes",
        "event_total": 70,
        "has_played": true,
        "id": 43431358,
        "last_rank": 55812,
        "player_name": "Nasar Ijaz",
        "rank": 42074,
        "rank_sort": 42099,
        "total": 2358
      },
      {
        "club_badge_src": null,
        "entry": 5993279,
        "entry_name": "Zubi Doobi Doo",
        "event_total": 52,
        "has_played": true,
        "id": 47230654,
        "last_rank": 36015,
        "player_name": "Kyle Walker",
        "rank": 42074,
        "rank_sort": 42100,
        "total": 2358
      }
    ]
  }
}