{
  "last_updated_data": "2026-05-24T23:28:17Z",
  "league": {
    "admin_entry": null,
    "closed": false,
    "code_privacy": "p",
    "created": "2025-07-20T23:14:33.933835Z",
    "cup_league": 2815434,
    "has_cup": true,
    "id": 314,
    "league_type": "s",
    "max_entries": null,
    "name": "Overall",
    "rank": null,
    "scoring": "c",
    "start_event": 1
  },
  "new_entries": {
    "has_next": false,
    "page": 1,
    "results": []
  },
  "standings": {
    "has_next": true,
    "page": 1446,
    "results": [
      {
        "club_badge_src": null,
        "entry": 5254974,
        "entry_name": "Cold (Palmer) Front",
        "event_total": 61,
        "has_played": true,
        "id": 40728106,
        "last_rank": 73038,
        "player_name": "Craig Thomson",
        "rank": 72012,
        "rank_sort": 72251,
        "total": 2339
      },
      {
        "club_badge_src": null,
        "entry": 5269714,
        "entry_name": "Salahvation Army",
        "event_total": 71,
        "has_played": true,
        "id": 40843630,
        "last_rank": 106763,
        "player_name": "Sharan Bellani",
        "rank": 72012,
        "rank_sort": 72252,
        "total": 2339
      },
      {
        "club_badge_src": null,
        "entry": 5285895,
        "entry_name": "Half Price",
        "event_total": 48,
        "has_played": true,
        "id": 40972003,
        "last_rank": 56180,
        "player_name": "David O'Brien",
        "rank": 72012,
        "rank_sort": 72253,
        "total": 2339
      },
      {
        "club_badge_src": null,
        "entry": 5313326,
        "entry_name": "Charlton Pathetic",
        "event_total": 47,
        "has_played": true,
        "id": 41186504,
        "last_rank": 55014,
        "player_name": "Adam Dobson",
        "rank": 72012,
        "rank_sort": 72254,
        "total": 2339
      },
      {
        "club_badge_src": null,
        "entry": 5327856,
        "entry_name": "Roll the Dyche",
        "event_total": 48,
        "has_played": true,
        "id": 41302737,
        "last_rank": 56708,
        "player_name": "Donal McTeggart",
        "rank": 72012,
        "rank_sort": 72255,
        "total": 2339
      },
      {
        "club_badge_src": "https://fantasy.premierleague.com/gcs/plfpl-production-adobe-approved/plfpl-production/5336643/9544996b-0d2c-417b-beee-ad2fa7ebfa77.png",
        "entry": 5336643,
        "entry_name": "Fife MCMLXXXIV",
        "event_total": 69,
        "has_played": true,
        "id": 41376122,
        "last_rank": 101419,
        "player_name": "Ewen Fildes",
        "rank": 72012,
        "rank_sort": 72256,
        "total": 2339
      },
      {
        "club_badge_src": null,
        "entry": 5404240,
        "entry_name": "Old Havertz Kai Hard",
        "event_total": 62,
        "has_played": true,
        "id": 42021548,
        "last_rank": 84360,
        "player_name": "Jagz Jassal",
        "rank": 72012,
        "rank_sort": 72257,
        "total": 2339
      },
      {
        "club_badge_src": null,
        "entry": 5499150,
        "entry_name": "Glimty blinders",
        "event_total": 63,
        "has_played": true,
        "id": 42846059,
        "last_rank": 86304,
        "player_name": "Anders \u00c5vangen",
        "rank": 72012,
        "rank_sort": 72258,
        "total": 2339
      },
      {
        "club_badge_src": null,
        "entry": 5655374,
        "entry_name": "I\u2019llForgetByNovember",
        "event_total": 63,
        "has_played": true,
        "id": 44242737,
        "last_rank": 86735,
        "player_name": "David Mark",
        "rank": 72012,
        "rank_sort": 72259,
        "total": 2339
      },
      {
        "club_badge_src": null,
        "entry": 5678147,
        "entry_name": "The Unstoppable",
        "event_total": 56,
        "has_played": true,
        "id": 44439109,
        "last_rank": 71386,
        "player_name": "Gladin A",
        "rank": 72012,
        "rank_sort": 72260,
        "total": 2339
      },
      {
        "club_badge_src": null,
        "entry": 5695358,
        "entry_name": "Y si te llama Roman?",
        "event_total": 54,
        "has_played": true,
        "id": 44587946,
        "last_rank": 67422,
        "player_name": "Juan Sconfianza",
        "rank": 72012,
        "rank_sort": 72261,
        "total": 2339
      },
      {
        "club_badge_src": null,
        "entry": 5751895,
        "entry_name": "The Wirtz of times",
        "event_total": 39,
        "has_played": true,
        "id": 45082233,
        "last_rank": 43168,
        "player_name": "Ryan Hislop",
        "rank": 72012,
        "rank_sort": 72262,
        "total": 2339
      },
      {
        "club_badge_src": null,
        "entry": 5756457,
        "entry_name": "MB XI",
        "event_total": 55,
        "has_played": true,
        "id": 45122460,
        "last_rank": 69323,
        "player_name": "Mo Bach",
        "rank": 72012,
        "rank_sort": 72263,
        "total": 2339
      },
      {
        "club_badge_src": null,
        "entry": 5821512,
        "entry_name": "Now I'm a Baleba",
        "event_total": 65,
        "has_played": true,
        "id": 45685734,
        "last_rank": 90625,
        "player_name": "Dave Bannister",
        "rank": 72012,
        "rank_sort": 72264,
        "total": 2339
      },
      {
        "club_badge_src": null,
        "entry": 5835906,
        "entry_name": "Georgie's Best",
        "event_total": 59,
        "has_played": true,
        "id": 45808325,
        "last_rank": 77676,
        "player_name": "Nick Usher",
        "rank": 72012,
        "rank_sort": 72265,
        "total": 2339
      },
      {
        "club_badge_src": null,
        "entry": 5849656,
        "entry_name": "Newey's Old Boys",
        "event_total": 43,
        "has_played": true,
        "id": 45924900,
        "last_rank": 48642,
        "player_name": "Edward Newey",
        "rank": 72012,
        "rank_sort": 72266,
        "total": 2339
      },
      {
        "club_badge_src": null,
        "entry": 5863725,
        "entry_name": "cafiif",
        "event_total": 53,
        "has_played": true,
        "id": 46049651,
        "last_rank": 65475,
        "player_name": "Cafiif Salax",
        "rank": 72012,
        "rank_sort": 72267,
        "total": 2339
      },
      {
        "club_badge_src": null,
        "entry": 5948198,
        "entry_name": "franky united",
        "event_total": 59,
        "has_played": true,
        "id": 46783131,
        "last_rank": 77258,
        "player_name": "Fran Kralev",
        "rank": 72012,
        "rank_sort": 72268,
        "total": 2339
      },
      {
        "club_badge_src": "https://fantasy.premierleague.com/gcs/plfpl-production-adobe-approved/plfpl-production/5957196/a90b5318-c81d-4bfa-b66b-f722956e1155.png",
        "entry": 5957196,
        "entry_name": "Gurnandiniho",
        "event_total": 50,
        "has_played": true,
        "id": 46863035,
        "last_rank": 59813,
        "player_name": "Piers Bremner",
        "rank": 72012,
        "rank_sort": 72269,
        "total": 2339
      },
      {
        "club_badge_src": "https://fantasy.premierleague.com/gcs/plfpl-production-adobe-approved/plfpl-production/6043896/f6b7cb47-b838-4b32-b2ac-2cf69dcb238f.png",
        "entry": 6043896,
        "entry_name": "Pick and Mixford",
        "event_total": 55,
        "has_played": true,
        "id": 47686672,
        "last_rank": 68957,
        "player_name": "Ey\u00fe\u00f3r Arnarsson",
        "rank": 72012,
        "rank_sort": 72270,
        "total": 2339
      },
      {
        "club_badge_src": null,
        "entry": 6051285,
        "entry_name": "Kings of Oblivion",
        "event_total": 49,
        "has_played": true,
        "id": 47751218,
        "last_rank": 57857,
        "player_name": "Adam Frost",
        "rank": 72012,
        "rank_sort": 72271,
        "total": 2339
      },
      {
        "club_badge_src": null,
        "entry": 6081005,
        "entry_name": "the 1",
        "event_total": 38,
        "has_played": true,
        "id": 48010808,
        "last_rank": 41824,
        "player_name": "Stuart Heath",
        "rank": 72012,
        "rank_sort": 72272,
        "total": 2339
      },
      {
        "club_badge_src": "https://fantasy.premierleague.com/gcs/plfpl-production-adobe-approved/plfpl-production/6207225/2d701799-a64d-41c8-808b-59cae749d545.png",
        "entry": 6207225,
        "entry_name": "Red-Nosed Reijnders",
        "event_total": 66,
        "has_played": true,
        "id": 49107820,
        "last_rank": 93883,
        "player_name": "Live Str\u00f8mmen Odden",
        "rank": 72012,
        "rank_sort": 72273,
        "total": 2339
      },
      {
        "club_badge_src": null,
        "entry": 6209793,
        "entry_name": "\u0392\u03a789",
        "event_total": 76,
        "has_played": true,
        "id": 49129806,
        "last_rank": 120941,
        "player_name": "Vaggelis Chatzitoulousis",
        "rank": 72012,
        "rank_sort": 72274,
        "total": 2339
      },
      {
        "club_badge_src": null,
        "entry": 6228781,
        "entry_name": "\u0160eksy and I know it",
        "event_total": 58,
        "has_played": true,
        "id": 49292126,
        "last_rank": 75139,
        "player_name": "Ben Court",
        "rank": 72012,
        "rank_sort": 72275,
        "total": 2339
      },
      {
        "club_badge_src": null,
        "entry": 6244138,
        "entry_name": "Kashmir FC",
        "event_total": 63,
        "has_played": true,
        "id": 49424282,
        "last_rank": 86054,
        "player_name": "Junade Ul-Hussain",
        "rank": 72012,
        "rank_sort": 72276,
        "total": 2339
      },
      {
        "club_badge_src": null,
        "entry": 6265525,
        "entry_name": "ClbTropicanaDrinksFC",
        "event_total": 68,
        "has_played": true,
        "id": 49611204,
        "last_rank": 98436,
        "player_name": "Ben Dunham",
        "rank": 72012,
        "rank_sort": 72277,
        "total": 2339
      },
      {
        "club_badge_src": null,
        "entry": 6327960,
        "entry_name": "Abdul Hibombo",
        "event_total": 64,
        "has_played": true,
        "id": 50278581,
        "last_rank": 88594,
        "player_name": "Simon Hellstr\u00f6m",
        "rank": 72012,
        "rank_sort": 72278,
        "total": 2339
      },
      {
        "club_badge_src": null,
        "entry": 6369785,
        "entry_name": "tom :)",
        "event_total": 45,
        "has_played": true,
        "id": 50652370,
        "last_rank": 51403,
        "player_name": "Thomas kerr",
        "rank": 72012,
        "rank_sort": 72279,
        "total": 2339
      },
      {
        "club_badge_src": null,
        "entry": 6464631,
        "entry_name": "Ma\u010dkoni",
        "event_total": 58,
        "has_played": true,
        "id": 51503419,
        "last_rank": 75139,
        "player_name": "Ur\u0161a Nabernik",
        "rank": 72012,
        "rank_sort": 72280,
        "total": 2339
      },
      {
        "club_badge_src": null,
        "entry": 6608580,
        "entry_name": "Bats Boys",
        "event_total": 64,
        "has_played": true,
        "id": 52796573,
        "last_rank": 88594,
        "player_name": "Darren BATT",
        "rank": 72012,
        "rank_sort": 72281,
        "total": 2339
      },
      {
        "club_badge_src": null,
        "entry": 6622593,
        "entry_name": "Pressure FC",
        "event_total": 47,
        "has_played": true,
        "id": 52922407,
        "last_rank": 55014,
        "player_name": "Zaid Ul",
        "rank": 72012,
        "rank_sort": 72282,
        "total": 2339
      },
      {
        "club_badge_src": null,
        "entry": 6628028,
        "entry_name": "Fernando XI",
        "event_total": 66,
        "has_played": true,
        "id": 52969588,
        "last_rank": 93883,
        "player_name": "Fernando Vald\u00e9s",
        "rank": 72012,
        "rank_sort": 72283,
        "total": 2339
      },
      {
        "club_badge_src": null,
        "entry": 6637651,
        "entry_name": "Stille og rolig",
        "event_total": 66,
        "has_played": true,
        "id": 53055678,
        "last_rank": 83698,
        "player_name": "Even Urnes",
        "rank": 72012,
        "rank_sort": 72284,
        "total": 2339
      },
      {
        "club_badge_src": null,
        "entry": 6669846,
        "entry_name": "Gyok 'n' roll",
        "event_total": 70,
        "has_played": true,
        "id": 53343371,
        "last_rank": 103978,
        "player_name": "Jack Andrews",
        "rank": 72012,
        "rank_sort": 72285,
        "total": 2339
      },
      {
        "club_badge_src": "https://fantasy.premierleague.com/gcs/plfpl-production-adobe-approved/plfpl-production/6686201/3457a935-603e-4611-9497-27a2b58b4be6.png",
        "entry": 6686201,
        "entry_name": "Executives",
        "event_total": 45,
        "has_played": true,
        "id": 53486743,
        "last_rank": 51984,
        "player_name": "Adnan Mirza",
        "rank": 72012,
        "rank_sort": 72286,
        "total": 2339
      },
      {
        "club_badge_src": null,
        "entry": 6732485,
        "entry_name": "Pereira Rocher",
        "event_total": 64,
        "has_played": true,
        "id": 53887811,
        "last_rank": 88594,
        "player_name": "Mehul Karia",
        "rank": 72012,
        "rank_sort": 72287,
        "total": 2339
      },
      {
        "club_badge_src": null,
        "entry": 6737060,
        "entry_name": "Acko FC",
        "event_total": 61,
        "has_played": true,
        "id": 53926984,
        "last_rank": 81420,
        "player_name": "Joe Atkinson",
        "rank": 72012,
        "rank_sort": 72288,
        "total": 2339
      },
      {
        "club_badge_src": null,
        "entry": 6740336,
        "entry_name": "ryan football team",
        "event_total": 73,
        "has_played": true,
        "id": 53954738,
        "last_rank": 111405,
        "player_name": "Ryan Casey",
        "rank": 72012,
        "rank_sort": 72289,
        "total": 2339
      },
      {
        "club_badge_src": null,
        "entry": 6759264,
        "entry_name": "ELFC",
        "event_total": 66,
        "has_played": true,
        "id": 54117089,
        "last_rank": 93443,
        "player_name": "Eleanor Martin",
        "rank": 72012,
        "rank_sort": 72290,
        "total": 2339
      },
      {
        "club_badge_src": null,
        "entry": 6784180,
        "entry_name": "Groove Yamada",
        "event_total": 58,
        "has_played": true,
        "id": 54325136,
        "last_rank": 75537,
        "player_name": "Gareth Langlands",
        "rank": 72012,
        "rank_sort": 72291,
        "total": 2339
      },
      {
        "club_badge_src": null,
        "entry": 6807910,
        "entry_name": "Raya Sunshine",
        "event_total": 88,
        "has_played": true,
        "id": 54522116,
        "last_rank": 160108,
        "player_name": "Lucy Rigby",
        "rank": 72012,
        "rank_sort": 72292,
        "total": 2339
      },
      {
        "club_badge_src": null,
        "entry": 6974884,
        "entry_name": "I'll have a cole 1",
        "event_total": 48,
        "has_played": true,
        "id": 55957752,
        "last_rank": 57001,
        "player_name": "John Tuite",
        "rank": 72012,
        "rank_sort": 72293,
        "total": 2339
      },
      {
        "club_badge_src": null,
        "entry": 6999488,
        "entry_name": "YNWA-11",
        "event_total": 66,
        "has_played": true,
        "id": 56198393,
        "last_rank": 93883,
        "player_name": "Shivay Goyal",
        "rank": 72012,
        "rank_sort": 72294,
        "total": 2339
      },
      {
        "club_badge_src": null,
        "entry": 7069057,
        "entry_name": "Los Porro Hermanos",
        "event_total": 52,
        "has_played": true,
        "id": 56880433,
        "last_rank": 63724,
        "player_name": "Cameron Anderson",
        "rank": 72012,
        "rank_sort": 72295,
        "total": 2339
      },
      {
        "club_badge_src": null,
        "entry": 7098773,
        "entry_name": "Pitlahiv\u00e5rt",
        "event_total": 59,
        "has_played": true,
        "id": 57163794,
        "last_rank": 77676,
        "player_name": "Gard Vetle Hovet",
        "rank": 72012,
        "rank_sort": 72296,
        "total": 2339
      },
      {
        "club_badge_src": null,
        "entry": 7116553,
        "entry_name": "XARSH1LA",
        "event_total": 87,
        "has_played": true,
        "id": 57334182,
        "last_rank": 157171,
        "player_name": "nika kharshiladze",
        "rank": 72012,
        "rank_sort": 72297,
        "total": 2339
      },
      {
        "club_badge_src": null,
        "entry": 7119034,
        "entry_name": "Strange Deelights",
        "event_total": 67,
        "has_played": true,
        "id": 57357123,
        "last_rank": 95890,
        "player_name": "Paul Owen",
        "rank": 72012,
        "rank_sort": 72298,
        "total": 2339
      },
      {
        "club_badge_src": "https://fantasy.premierleague.com/gcs/plfpl-production-adobe-approved/plfpl-production/7151565/e607f332-deeb-4521-b3b7-1a9bb2c7ecbe.png",
        "entry": 7151565,
        "entry_name": "Mile High Club",
        "event_total": 55,
        "has_played": true,
        "id": 57668986,
        "last_rank": 68957,
        "player_name": "Mehdi Henriksen",
        "rank": 72012,
        "rank_sort": 72299,
        "total": 2339
      },
      {
        "club_badge_src": null,
        "entry": 7270981,
        "entry_name": "It can",
        "event_total": 68,
        "has_played": true,
        "id": 58801913,
        "last_rank": 98436,
        "player_name": "Gordon Devlin",
        "rank": 72012,
        "rank_sort": 72300,
        "total": 2339
      }
    ]
  }
}