{
  "last_updated_data": "2026-05-24T23:28:17Z",
  "league": {
    "admin_entry": null,
    "closed": false,
    "code_privacy": "p",
    "created": "2025-07-20T23:14:33.933835Z",
    "cup_league": 2815434,
    "has_cup": true,
    "id": 314,
    "league_type": "s",
    "max_entries": null,
    "name": "Overall",
    "rank": null,
    "scoring": "c",
    "start_event": 1
  },
  "new_entries": {
    "has_next": false,
    "page": 1,
    "results": []
  },
  "standings": {
    "has_next": true,
    "page": 501,
    "results": [
      {
        "club_badge_src": null,
        "entry": 5680225,
        "entry_name": "Martin Scoobimendi",
        "event_total": 59,
        "has_played": true,
        "id": 44457101,
        "last_rank": 22830,
        "player_name": "Steve Sparks",
        "rank": 24936,
        "rank_sort": 25001,
        "total": 2374
      },
      {
        "club_badge_src": null,
        "entry": 5731710,
        "entry_name": "CR7",
        "event_total": 74,
        "has_played": true,
        "id": 44902946,
        "last_rank": 43342,
        "player_name": "trky otb",
        "rank": 24936,
        "rank_sort": 25002,
        "total": 2374
      },
      {
        "club_badge_src": null,
        "entry": 5902391,
        "entry_name": "Sparkys",
        "event_total": 71,
        "has_played": true,
        "id": 46373895,
        "last_rank": 34458,
        "player_name": "Judith James",
        "rank": 24936,
        "rank_sort": 25003,
        "total": 2374
      },
      {
        "club_badge_src": null,
        "entry": 6193298,
        "entry_name": "In Good Palmers",
        "event_total": 82,
        "has_played": true,
        "id": 48987614,
        "last_rank": 55514,
        "player_name": "Hashem Khaled",
        "rank": 24936,
        "rank_sort": 25004,
        "total": 2374
      },
      {
        "club_badge_src": null,
        "entry": 6284620,
        "entry_name": "OgMudStoj",
        "event_total": 55,
        "has_played": true,
        "id": 49780626,
        "last_rank": 22921,
        "player_name": "Sasha Stojanovic",
        "rank": 24936,
        "rank_sort": 25005,
        "total": 2374
      },
      {
        "club_badge_src": "https://fantasy.premierleague.com/gcs/plfpl-production-adobe-approved/plfpl-production/6308221/d6525b22-282d-4861-a32d-dcf167658a7f.png",
        "entry": 6308221,
        "entry_name": "Travis AFC",
        "event_total": 67,
        "has_played": true,
        "id": 50037629,
        "last_rank": 26088,
        "player_name": "Travis Damant",
        "rank": 24936,
        "rank_sort": 25006,
        "total": 2374
      },
      {
        "club_badge_src": null,
        "entry": 6336218,
        "entry_name": "Champions Elect FC",
        "event_total": 82,
        "has_played": true,
        "id": 50359158,
        "last_rank": 48363,
        "player_name": "Bruno da Silva",
        "rank": 24936,
        "rank_sort": 25007,
        "total": 2374
      },
      {
        "club_badge_src": null,
        "entry": 6409380,
        "entry_name": "Fergie Time FC",
        "event_total": 42,
        "has_played": true,
        "id": 51002620,
        "last_rank": 14102,
        "player_name": "Rickie Malmqvist",
        "rank": 24936,
        "rank_sort": 25008,
        "total": 2374
      },
      {
        "club_badge_src": null,
        "entry": 6535410,
        "entry_name": "UWK",
        "event_total": 62,
        "has_played": true,
        "id": 52136921,
        "last_rank": 29199,
        "player_name": "Karim Ahmed",
        "rank": 24936,
        "rank_sort": 25009,
        "total": 2374
      },
      {
        "club_badge_src": null,
        "entry": 6565882,
        "entry_name": "Here we go again",
        "event_total": 72,
        "has_played": true,
        "id": 52408460,
        "last_rank": 40647,
        "player_name": "Niall O'Donoghue",
        "rank": 24936,
        "rank_sort": 25010,
        "total": 2374
      },
      {
        "club_badge_src": null,
        "entry": 6775633,
        "entry_name": "Gal\u00e1cticos",
        "event_total": 65,
        "has_played": true,
        "id": 54253793,
        "last_rank": 32190,
        "player_name": "Jack Lindsay",
        "rank": 24936,
        "rank_sort": 25011,
        "total": 2374
      },
      {
        "club_badge_src": null,
        "entry": 6780333,
        "entry_name": "Jigglos",
        "event_total": 51,
        "has_played": true,
        "id": 54292863,
        "last_rank": 19966,
        "player_name": "Jagdev Basi",
        "rank": 24936,
        "rank_sort": 25012,
        "total": 2374
      },
      {
        "club_badge_src": null,
        "entry": 6794412,
        "entry_name": "Pavel",
        "event_total": 56,
        "has_played": true,
        "id": 54410609,
        "last_rank": 23748,
        "player_name": "Pavel Zdrazil",
        "rank": 24936,
        "rank_sort": 25013,
        "total": 2374
      },
      {
        "club_badge_src": null,
        "entry": 7036884,
        "entry_name": "Pampiniakos F.C. \u2b50\ufe0f",
        "event_total": 68,
        "has_played": true,
        "id": 56566087,
        "last_rank": 31125,
        "player_name": "Ioannis Spanakis",
        "rank": 24936,
        "rank_sort": 25014,
        "total": 2374
      },
      {
        "club_badge_src": null,
        "entry": 7099019,
        "entry_name": "Game of Goals",
        "event_total": 57,
        "has_played": true,
        "id": 57166162,
        "last_rank": 21301,
        "player_name": "Sayak Mitra",
        "rank": 24936,
        "rank_sort": 25015,
        "total": 2374
      },
      {
        "club_badge_src": null,
        "entry": 7227584,
        "entry_name": "\u00d8deparfum",
        "event_total": 47,
        "has_played": true,
        "id": 58392912,
        "last_rank": 17150,
        "player_name": "Dominic Wiyanta",
        "rank": 24936,
        "rank_sort": 25016,
        "total": 2374
      },
      {
        "club_badge_src": null,
        "entry": 7283801,
        "entry_name": "TEAM KENNEX",
        "event_total": 69,
        "has_played": true,
        "id": 58925153,
        "last_rank": 36831,
        "player_name": "Afiq Che",
        "rank": 24936,
        "rank_sort": 25017,
        "total": 2374
      },
      {
        "club_badge_src": null,
        "entry": 7466421,
        "entry_name": "cpofchi",
        "event_total": 42,
        "has_played": true,
        "id": 60848636,
        "last_rank": 14040,
        "player_name": "Chris Penny",
        "rank": 24936,
        "rank_sort": 25018,
        "total": 2374
      },
      {
        "club_badge_src": null,
        "entry": 8361340,
        "entry_name": "Zar i ti sine Braute",
        "event_total": 77,
        "has_played": true,
        "id": 69311205,
        "last_rank": 47163,
        "player_name": "Andrija Dlaka",
        "rank": 24936,
        "rank_sort": 25019,
        "total": 2374
      },
      {
        "club_badge_src": "https://fantasy.premierleague.com/gcs/plfpl-production-adobe-approved/plfpl-production/8389525/5cb6eeab-f5f5-4cea-9e96-fd10d9213fb2.png",
        "entry": 8389525,
        "entry_name": "Sophie\u2019s FPL Squad",
        "event_total": 56,
        "has_played": true,
        "id": 69581669,
        "last_rank": 23748,
        "player_name": "Sophie King",
        "rank": 24936,
        "rank_sort": 25020,
        "total": 2374
      },
      {
        "club_badge_src": null,
        "entry": 9058501,
        "entry_name": "hepdawgs",
        "event_total": 56,
        "has_played": true,
        "id": 76047505,
        "last_rank": 20538,
        "player_name": "Stewart Hepburn",
        "rank": 24936,
        "rank_sort": 25021,
        "total": 2374
      },
      {
        "club_badge_src": null,
        "entry": 9397691,
        "entry_name": "SWFC Without Chansir",
        "event_total": 44,
        "has_played": true,
        "id": 79351436,
        "last_rank": 10920,
        "player_name": "Jacob Belafonte",
        "rank": 24936,
        "rank_sort": 25022,
        "total": 2374
      },
      {
        "club_badge_src": null,
        "entry": 453,
        "entry_name": "Coleminers",
        "event_total": 45,
        "has_played": true,
        "id": 2496,
        "last_rank": 11419,
        "player_name": "Ben Cole",
        "rank": 25023,
        "rank_sort": 25023,
        "total": 2374
      },
      {
        "club_badge_src": "https://fantasy.premierleague.com/gcs/plfpl-production-adobe-approved/plfpl-production/7106/53d7c473-5342-47e3-8ac2-b91127d261b7.png",
        "entry": 7106,
        "entry_name": "Senorimp FC",
        "event_total": 63,
        "has_played": true,
        "id": 40926,
        "last_rank": 30191,
        "player_name": "Imran Fariz",
        "rank": 25023,
        "rank_sort": 25024,
        "total": 2374
      },
      {
        "club_badge_src": null,
        "entry": 7926,
        "entry_name": "Dusty Ballers",
        "event_total": 67,
        "has_played": true,
        "id": 45810,
        "last_rank": 30191,
        "player_name": "Mark Teale",
        "rank": 25023,
        "rank_sort": 25025,
        "total": 2374
      },
      {
        "club_badge_src": "https://fantasy.premierleague.com/gcs/plfpl-production-adobe-approved/plfpl-production/15445/c51bce43-cac7-4009-8a06-6ee2980dd6b7.png",
        "entry": 15445,
        "entry_name": "Mbeumoclaat",
        "event_total": 45,
        "has_played": true,
        "id": 94800,
        "last_rank": 15920,
        "player_name": "Jonathan O Connor",
        "rank": 25023,
        "rank_sort": 25026,
        "total": 2374
      },
      {
        "club_badge_src": null,
        "entry": 29524,
        "entry_name": "Pompey staying up!",
        "event_total": 66,
        "has_played": true,
        "id": 186707,
        "last_rank": 33483,
        "player_name": "James Hockin",
        "rank": 25023,
        "rank_sort": 25027,
        "total": 2374
      },
      {
        "club_badge_src": null,
        "entry": 35158,
        "entry_name": "Moyes Boys",
        "event_total": 53,
        "has_played": true,
        "id": 224898,
        "last_rank": 21486,
        "player_name": "Ian Simpson",
        "rank": 25023,
        "rank_sort": 25028,
        "total": 2374
      },
      {
        "club_badge_src": null,
        "entry": 110841,
        "entry_name": "FC Chall",
        "event_total": 64,
        "has_played": true,
        "id": 722844,
        "last_rank": 27203,
        "player_name": "Chris Challen",
        "rank": 25023,
        "rank_sort": 25029,
        "total": 2374
      },
      {
        "club_badge_src": null,
        "entry": 159327,
        "entry_name": "Haaland it that way",
        "event_total": 62,
        "has_played": true,
        "id": 1048663,
        "last_rank": 22064,
        "player_name": "Jo\u00e3o Marouca",
        "rank": 25023,
        "rank_sort": 25030,
        "total": 2374
      },
      {
        "club_badge_src": null,
        "entry": 201853,
        "entry_name": "Offshore Deserter",
        "event_total": 62,
        "has_played": true,
        "id": 1340382,
        "last_rank": 29279,
        "player_name": "Neil Pinchbeck",
        "rank": 25023,
        "rank_sort": 25031,
        "total": 2374
      },
      {
        "club_badge_src": "https://fantasy.premierleague.com/gcs/plfpl-production-adobe-approved/plfpl-production/226045/690ebb15-84a0-43ff-b115-bf578b8ba09e.png",
        "entry": 226045,
        "entry_name": "Hakuna Mateta",
        "event_total": 57,
        "has_played": true,
        "id": 1503747,
        "last_rank": 24570,
        "player_name": "Marley Harris",
        "rank": 25023,
        "rank_sort": 25032,
        "total": 2374
      },
      {
        "club_badge_src": null,
        "entry": 240577,
        "entry_name": "zamalek",
        "event_total": 68,
        "has_played": true,
        "id": 1601132,
        "last_rank": 35768,
        "player_name": "Aiad Boshra",
        "rank": 25023,
        "rank_sort": 25033,
        "total": 2374
      },
      {
        "club_badge_src": null,
        "entry": 328280,
        "entry_name": "Woops Wonders",
        "event_total": 61,
        "has_played": true,
        "id": 2199266,
        "last_rank": 28348,
        "player_name": "Paul Kirkwood",
        "rank": 25023,
        "rank_sort": 25034,
        "total": 2374
      },
      {
        "club_badge_src": null,
        "entry": 358491,
        "entry_name": "PKC XI",
        "event_total": 71,
        "has_played": true,
        "id": 2398978,
        "last_rank": 39403,
        "player_name": "Pravin Chordia",
        "rank": 25023,
        "rank_sort": 25035,
        "total": 2374
      },
      {
        "club_badge_src": null,
        "entry": 432655,
        "entry_name": "CR7",
        "event_total": 55,
        "has_played": true,
        "id": 2901657,
        "last_rank": 22996,
        "player_name": "Ali Ihsan",
        "rank": 25023,
        "rank_sort": 25036,
        "total": 2374
      },
      {
        "club_badge_src": null,
        "entry": 536309,
        "entry_name": "Endo the line",
        "event_total": 50,
        "has_played": true,
        "id": 3609562,
        "last_rank": 19237,
        "player_name": "Jack Rimmer",
        "rank": 25023,
        "rank_sort": 25037,
        "total": 2374
      },
      {
        "club_badge_src": null,
        "entry": 642067,
        "entry_name": "khaled Gad",
        "event_total": 53,
        "has_played": true,
        "id": 4339379,
        "last_rank": 18475,
        "player_name": "Khaled Gadelrab",
        "rank": 25023,
        "rank_sort": 25038,
        "total": 2374
      },
      {
        "club_badge_src": null,
        "entry": 669258,
        "entry_name": "Too Eze",
        "event_total": 56,
        "has_played": true,
        "id": 4526062,
        "last_rank": 23748,
        "player_name": "Dominic Simpson",
        "rank": 25023,
        "rank_sort": 25039,
        "total": 2374
      },
      {
        "club_badge_src": null,
        "entry": 725679,
        "entry_name": "Morski *",
        "event_total": 72,
        "has_played": true,
        "id": 4929168,
        "last_rank": 40770,
        "player_name": "Rade Cikes",
        "rank": 25023,
        "rank_sort": 25040,
        "total": 2374
      },
      {
        "club_badge_src": null,
        "entry": 980951,
        "entry_name": "Wijnaldum leviosa",
        "event_total": 75,
        "has_played": true,
        "id": 6762634,
        "last_rank": 39403,
        "player_name": "Luke Buras-rees",
        "rank": 25023,
        "rank_sort": 25041,
        "total": 2374
      },
      {
        "club_badge_src": null,
        "entry": 1110329,
        "entry_name": "Bayer Levenshtein",
        "event_total": 45,
        "has_played": true,
        "id": 7691240,
        "last_rank": 15920,
        "player_name": "Matt Williams",
        "rank": 25023,
        "rank_sort": 25042,
        "total": 2374
      },
      {
        "club_badge_src": null,
        "entry": 1133316,
        "entry_name": "Alisson Wonderland",
        "event_total": 69,
        "has_played": true,
        "id": 7855919,
        "last_rank": 32335,
        "player_name": "Daniel Ferraz",
        "rank": 25023,
        "rank_sort": 25043,
        "total": 2374
      },
      {
        "club_badge_src": null,
        "entry": 1324503,
        "entry_name": "2rEuniTed",
        "event_total": 61,
        "has_played": true,
        "id": 9206510,
        "last_rank": 28348,
        "player_name": "Tore Almlid",
        "rank": 25023,
        "rank_sort": 25044,
        "total": 2374
      },
      {
        "club_badge_src": null,
        "entry": 1362743,
        "entry_name": "Bulawayo Bandits",
        "event_total": 63,
        "has_played": true,
        "id": 9472523,
        "last_rank": 30191,
        "player_name": "Channon Zhangazha",
        "rank": 25023,
        "rank_sort": 25045,
        "total": 2374
      },
      {
        "club_badge_src": "https://fantasy.premierleague.com/gcs/plfpl-production-adobe-approved/plfpl-production/1790877/95e32d14-c300-4850-b9d3-81d1c00aefa3.png",
        "entry": 1790877,
        "entry_name": "Cherki-ra Cherki-ra",
        "event_total": 58,
        "has_played": true,
        "id": 12583948,
        "last_rank": 22154,
        "player_name": "Behzad Fancy",
        "rank": 25023,
        "rank_sort": 25046,
        "total": 2374
      },
      {
        "club_badge_src": null,
        "entry": 1854265,
        "entry_name": "Plum FC",
        "event_total": 61,
        "has_played": true,
        "id": 13048595,
        "last_rank": 24570,
        "player_name": "Jon Plumridge",
        "rank": 25023,
        "rank_sort": 25047,
        "total": 2374
      },
      {
        "club_badge_src": null,
        "entry": 1958716,
        "entry_name": "Megaladoner Kebab",
        "event_total": 44,
        "has_played": true,
        "id": 13818152,
        "last_rank": 12940,
        "player_name": "Megan-Taylor Waters",
        "rank": 25023,
        "rank_sort": 25048,
        "total": 2374
      },
      {
        "club_badge_src": null,
        "entry": 1971362,
        "entry_name": "SM Model UTD",
        "event_total": 67,
        "has_played": true,
        "id": 13913958,
        "last_rank": 34578,
        "player_name": "Mohi Hasan Jilani",
        "rank": 25023,
        "rank_sort": 25049,
        "total": 2374
      },
      {
        "club_badge_src": null,
        "entry": 1982022,
        "entry_name": "Haalandaise Sauce",
        "event_total": 53,
        "has_played": true,
        "id": 13999056,
        "last_rank": 21450,
        "player_name": "Nathanial Fudge",
        "rank": 25023,
        "rank_sort": 25050,
        "total": 2374
      }
    ]
  }
}