{
  "last_updated_data": "2026-05-24T23:28:17Z",
  "league": {
    "admin_entry": null,
    "closed": false,
    "code_privacy": "p",
    "created": "2025-07-20T23:14:33.933835Z",
    "cup_league": 2815434,
    "has_cup": true,
    "id": 314,
    "league_type": "s",
    "max_entries": null,
    "name": "Overall",
    "rank": null,
    "scoring": "c",
    "start_event": 1
  },
  "new_entries": {
    "has_next": false,
    "page": 1,
    "results": []
  },
  "standings": {
    "has_next": true,
    "page": 1325,
    "results": [
      {
        "club_badge_src": null,
        "entry": 2973109,
        "entry_name": "Champagne SuperKone",
        "event_total": 57,
        "has_played": true,
        "id": 21845621,
        "last_rank": 66848,
        "player_name": "Archie Cousins",
        "rank": 66017,
        "rank_sort": 66201,
        "total": 2342
      },
      {
        "club_badge_src": null,
        "entry": 2973940,
        "entry_name": "Alisson wonderland",
        "event_total": 63,
        "has_played": true,
        "id": 21852914,
        "last_rank": 79431,
        "player_name": "Ryan Aspinall",
        "rank": 66017,
        "rank_sort": 66202,
        "total": 2342
      },
      {
        "club_badge_src": null,
        "entry": 2983444,
        "entry_name": "D\u00d8",
        "event_total": 41,
        "has_played": true,
        "id": 21936383,
        "last_rank": 41617,
        "player_name": "Daniel \u00d8by",
        "rank": 66017,
        "rank_sort": 66203,
        "total": 2342
      },
      {
        "club_badge_src": null,
        "entry": 2989516,
        "entry_name": "Pong :)",
        "event_total": 60,
        "has_played": true,
        "id": 21985751,
        "last_rank": 73038,
        "player_name": "Kittipong Rueanthip",
        "rank": 66017,
        "rank_sort": 66204,
        "total": 2342
      },
      {
        "club_badge_src": null,
        "entry": 3016906,
        "entry_name": "Beef Cherki",
        "event_total": 76,
        "has_played": true,
        "id": 22195914,
        "last_rank": 111270,
        "player_name": "Nish S",
        "rank": 66017,
        "rank_sort": 66205,
        "total": 2342
      },
      {
        "club_badge_src": null,
        "entry": 3080689,
        "entry_name": "OLAMIPOSI",
        "event_total": 61,
        "has_played": true,
        "id": 22696060,
        "last_rank": 74898,
        "player_name": "olamiposi charles",
        "rank": 66017,
        "rank_sort": 66206,
        "total": 2342
      },
      {
        "club_badge_src": null,
        "entry": 3099479,
        "entry_name": "Canary Kev",
        "event_total": 37,
        "has_played": true,
        "id": 22851557,
        "last_rank": 36200,
        "player_name": "kevin flood",
        "rank": 66017,
        "rank_sort": 66207,
        "total": 2342
      },
      {
        "club_badge_src": "https://fantasy.premierleague.com/gcs/plfpl-production-adobe-approved/plfpl-production/3136050/bb1889c8-e1ab-4809-b947-2d7eed1398e0.png",
        "entry": 3136050,
        "entry_name": "Micj@ger",
        "event_total": 44,
        "has_played": true,
        "id": 23149535,
        "last_rank": 45416,
        "player_name": "Michael Alexander",
        "rank": 66017,
        "rank_sort": 66208,
        "total": 2342
      },
      {
        "club_badge_src": null,
        "entry": 3171084,
        "entry_name": "Slot Machine",
        "event_total": 51,
        "has_played": true,
        "id": 23429211,
        "last_rank": 56708,
        "player_name": "Tommy Udjus",
        "rank": 66017,
        "rank_sort": 66209,
        "total": 2342
      },
      {
        "club_badge_src": null,
        "entry": 3196297,
        "entry_name": "black boys fc",
        "event_total": 55,
        "has_played": true,
        "id": 23625556,
        "last_rank": 63201,
        "player_name": "Aarav Mahajan",
        "rank": 66017,
        "rank_sort": 66210,
        "total": 2342
      },
      {
        "club_badge_src": null,
        "entry": 3358576,
        "entry_name": "Meat pie sausageroll",
        "event_total": 60,
        "has_played": true,
        "id": 24919028,
        "last_rank": 72815,
        "player_name": "michael lowe",
        "rank": 66017,
        "rank_sort": 66211,
        "total": 2342
      },
      {
        "club_badge_src": null,
        "entry": 3367731,
        "entry_name": "GB",
        "event_total": 55,
        "has_played": true,
        "id": 24990958,
        "last_rank": 63390,
        "player_name": "Gregory Busuttil",
        "rank": 66017,
        "rank_sort": 66212,
        "total": 2342
      },
      {
        "club_badge_src": null,
        "entry": 3451616,
        "entry_name": "The Musang King \u2b50\ufe0f\u2b50\ufe0f",
        "event_total": 65,
        "has_played": true,
        "id": 25650321,
        "last_rank": 83934,
        "player_name": "Julian Chong",
        "rank": 66017,
        "rank_sort": 66213,
        "total": 2342
      },
      {
        "club_badge_src": null,
        "entry": 3501894,
        "entry_name": "Tinfootball",
        "event_total": 53,
        "has_played": true,
        "id": 26050315,
        "last_rank": 59813,
        "player_name": "jack pinkney",
        "rank": 66017,
        "rank_sort": 66214,
        "total": 2342
      },
      {
        "club_badge_src": null,
        "entry": 3530480,
        "entry_name": "Norfolk Enchants III",
        "event_total": 41,
        "has_played": true,
        "id": 26276092,
        "last_rank": 41324,
        "player_name": "Sean Hennigan",
        "rank": 66017,
        "rank_sort": 66215,
        "total": 2342
      },
      {
        "club_badge_src": null,
        "entry": 3568350,
        "entry_name": "Mooiboys United",
        "event_total": 71,
        "has_played": true,
        "id": 26569972,
        "last_rank": 98073,
        "player_name": "Wouter de Wijse",
        "rank": 66017,
        "rank_sort": 66216,
        "total": 2342
      },
      {
        "club_badge_src": null,
        "entry": 3585144,
        "entry_name": "Toonali",
        "event_total": 54,
        "has_played": true,
        "id": 26699018,
        "last_rank": 61606,
        "player_name": "Abbie Bolam",
        "rank": 66017,
        "rank_sort": 66217,
        "total": 2342
      },
      {
        "club_badge_src": null,
        "entry": 3599472,
        "entry_name": "Feeling \u00d8degood",
        "event_total": 46,
        "has_played": true,
        "id": 26808486,
        "last_rank": 42434,
        "player_name": "Daniel Leonard",
        "rank": 66017,
        "rank_sort": 66218,
        "total": 2342
      },
      {
        "club_badge_src": null,
        "entry": 3609032,
        "entry_name": "Noah's Arks",
        "event_total": 62,
        "has_played": true,
        "id": 26883998,
        "last_rank": 77258,
        "player_name": "Noah Nathan",
        "rank": 66017,
        "rank_sort": 66219,
        "total": 2342
      },
      {
        "club_badge_src": null,
        "entry": 3613265,
        "entry_name": "Kamo F.C",
        "event_total": 31,
        "has_played": true,
        "id": 26917642,
        "last_rank": 29904,
        "player_name": "T Morihira",
        "rank": 66017,
        "rank_sort": 66220,
        "total": 2342
      },
      {
        "club_badge_src": null,
        "entry": 3617441,
        "entry_name": "skaikru",
        "event_total": 45,
        "has_played": true,
        "id": 26950186,
        "last_rank": 46839,
        "player_name": "shelby BR",
        "rank": 66017,
        "rank_sort": 66221,
        "total": 2342
      },
      {
        "club_badge_src": null,
        "entry": 3618043,
        "entry_name": "Mazin009",
        "event_total": 47,
        "has_played": true,
        "id": 26954820,
        "last_rank": 50199,
        "player_name": "Mazin Al Siyabi",
        "rank": 66017,
        "rank_sort": 66222,
        "total": 2342
      },
      {
        "club_badge_src": null,
        "entry": 3637098,
        "entry_name": "RS9 Tigers",
        "event_total": 66,
        "has_played": true,
        "id": 27104940,
        "last_rank": 86054,
        "player_name": "Rijad Sadikovic",
        "rank": 66017,
        "rank_sort": 66223,
        "total": 2342
      },
      {
        "club_badge_src": null,
        "entry": 3648521,
        "entry_name": "Badmastard",
        "event_total": 46,
        "has_played": true,
        "id": 27195467,
        "last_rank": 48363,
        "player_name": "Simon Birch",
        "rank": 66017,
        "rank_sort": 66224,
        "total": 2342
      },
      {
        "club_badge_src": "https://fantasy.premierleague.com/gcs/plfpl-production-adobe-approved/plfpl-production/3653770/2ea17f42-2869-4f24-aa83-68c6cef3d154.png",
        "entry": 3653770,
        "entry_name": "Bruno's Ballers",
        "event_total": 41,
        "has_played": true,
        "id": 27235715,
        "last_rank": 41324,
        "player_name": "Jake Bla",
        "rank": 66017,
        "rank_sort": 66225,
        "total": 2342
      },
      {
        "club_badge_src": null,
        "entry": 3705443,
        "entry_name": "Tartan Magpies",
        "event_total": 58,
        "has_played": true,
        "id": 27647969,
        "last_rank": 68748,
        "player_name": "Gordon Paul",
        "rank": 66017,
        "rank_sort": 66226,
        "total": 2342
      },
      {
        "club_badge_src": null,
        "entry": 3723930,
        "entry_name": "Ga\u0107elezi",
        "event_total": 61,
        "has_played": true,
        "id": 27791857,
        "last_rank": 75139,
        "player_name": "Bole Ker",
        "rank": 66017,
        "rank_sort": 66227,
        "total": 2342
      },
      {
        "club_badge_src": null,
        "entry": 3731395,
        "entry_name": "Calafiori Dreamin",
        "event_total": 58,
        "has_played": true,
        "id": 27851318,
        "last_rank": 68748,
        "player_name": "Donald Earl",
        "rank": 66017,
        "rank_sort": 66228,
        "total": 2342
      },
      {
        "club_badge_src": "https://fantasy.premierleague.com/gcs/plfpl-production-adobe-approved/plfpl-production/3748982/993d614a-e595-4642-8cc3-e8b354f835df.png",
        "entry": 3748982,
        "entry_name": "Bowen Arrow",
        "event_total": 27,
        "has_played": true,
        "id": 27989120,
        "last_rank": 25902,
        "player_name": "Shaun Plant",
        "rank": 66017,
        "rank_sort": 66229,
        "total": 2342
      },
      {
        "club_badge_src": null,
        "entry": 3767432,
        "entry_name": "Hume Sweet Hume",
        "event_total": 35,
        "has_played": true,
        "id": 28129675,
        "last_rank": 33936,
        "player_name": "Scott Houghton",
        "rank": 66017,
        "rank_sort": 66230,
        "total": 2342
      },
      {
        "club_badge_src": null,
        "entry": 3803480,
        "entry_name": "Shamiry",
        "event_total": 83,
        "has_played": true,
        "id": 28434299,
        "last_rank": 132281,
        "player_name": "Alex Al-Shamiry",
        "rank": 66017,
        "rank_sort": 66231,
        "total": 2342
      },
      {
        "club_badge_src": null,
        "entry": 3841358,
        "entry_name": "Big Saka White Rice",
        "event_total": 67,
        "has_played": true,
        "id": 28773207,
        "last_rank": 89055,
        "player_name": "Harry Swann",
        "rank": 66017,
        "rank_sort": 66232,
        "total": 2342
      },
      {
        "club_badge_src": null,
        "entry": 3958630,
        "entry_name": "Belal",
        "event_total": 72,
        "has_played": true,
        "id": 29783397,
        "last_rank": 100700,
        "player_name": "Belal El Sayed",
        "rank": 66017,
        "rank_sort": 66233,
        "total": 2342
      },
      {
        "club_badge_src": null,
        "entry": 3968411,
        "entry_name": "Mosan FC",
        "event_total": 58,
        "has_played": true,
        "id": 29862138,
        "last_rank": 68957,
        "player_name": "Muhammad Sanusi",
        "rank": 66017,
        "rank_sort": 66234,
        "total": 2342
      },
      {
        "club_badge_src": null,
        "entry": 4004685,
        "entry_name": "Ginger Ninjas 25/26",
        "event_total": 53,
        "has_played": true,
        "id": 30166026,
        "last_rank": 59813,
        "player_name": "Stephen Porter",
        "rank": 66017,
        "rank_sort": 66235,
        "total": 2342
      },
      {
        "club_badge_src": null,
        "entry": 4022380,
        "entry_name": "Mooyong FC.",
        "event_total": 52,
        "has_played": true,
        "id": 30317391,
        "last_rank": 58071,
        "player_name": "Akarawin Lertwattanasak",
        "rank": 66017,
        "rank_sort": 66236,
        "total": 2342
      },
      {
        "club_badge_src": null,
        "entry": 4034514,
        "entry_name": "TemptationHaaland",
        "event_total": 49,
        "has_played": true,
        "id": 30420199,
        "last_rank": 52853,
        "player_name": "Simone Zanolla",
        "rank": 66017,
        "rank_sort": 66237,
        "total": 2342
      },
      {
        "club_badge_src": "https://fantasy.premierleague.com/gcs/plfpl-production-adobe-approved/plfpl-production/4049198/95609288-db94-4054-8e3e-19c6c25c6fdc.png",
        "entry": 4049198,
        "entry_name": "ThePropitiousTrio@8",
        "event_total": 60,
        "has_played": true,
        "id": 30542634,
        "last_rank": 72815,
        "player_name": "Karma Dhendup",
        "rank": 66017,
        "rank_sort": 66238,
        "total": 2342
      },
      {
        "club_badge_src": "https://fantasy.premierleague.com/gcs/plfpl-production-adobe-approved/plfpl-production/4073650/683d7e67-c868-4662-938c-4a28edc18ee2.png",
        "entry": 4073650,
        "entry_name": "Again we're here",
        "event_total": 64,
        "has_played": true,
        "id": 30748910,
        "last_rank": 81420,
        "player_name": "Elisha Khanal",
        "rank": 66017,
        "rank_sort": 66239,
        "total": 2342
      },
      {
        "club_badge_src": null,
        "entry": 4094600,
        "entry_name": "Hato's Heroes",
        "event_total": 35,
        "has_played": true,
        "id": 30916235,
        "last_rank": 34293,
        "player_name": "Shane Denyer",
        "rank": 66017,
        "rank_sort": 66240,
        "total": 2342
      },
      {
        "club_badge_src": null,
        "entry": 4155474,
        "entry_name": "Prolif FC",
        "event_total": 63,
        "has_played": true,
        "id": 31411477,
        "last_rank": 79817,
        "player_name": "Andrei Stojkovski",
        "rank": 66017,
        "rank_sort": 66241,
        "total": 2342
      },
      {
        "club_badge_src": null,
        "entry": 4181770,
        "entry_name": "Assemelbehery",
        "event_total": 58,
        "has_played": true,
        "id": 31637351,
        "last_rank": 68957,
        "player_name": "Assem Elbehery",
        "rank": 66017,
        "rank_sort": 66242,
        "total": 2342
      },
      {
        "club_badge_src": null,
        "entry": 4281585,
        "entry_name": "Lalitpur F.C",
        "event_total": 48,
        "has_played": true,
        "id": 32472949,
        "last_rank": 51403,
        "player_name": "Maanka Limbu",
        "rank": 66017,
        "rank_sort": 66243,
        "total": 2342
      },
      {
        "club_badge_src": null,
        "entry": 4337415,
        "entry_name": "Nickel City FC",
        "event_total": 75,
        "has_played": true,
        "id": 32930650,
        "last_rank": 109454,
        "player_name": "Jim Clancy",
        "rank": 66017,
        "rank_sort": 66244,
        "total": 2342
      },
      {
        "club_badge_src": null,
        "entry": 4394582,
        "entry_name": "Tynans Butchers",
        "event_total": 89,
        "has_played": true,
        "id": 33413640,
        "last_rank": 153596,
        "player_name": "Luke Tynan",
        "rank": 66017,
        "rank_sort": 66245,
        "total": 2342
      },
      {
        "club_badge_src": null,
        "entry": 4495782,
        "entry_name": "Ra\u00e7aVareira",
        "event_total": 57,
        "has_played": true,
        "id": 34271997,
        "last_rank": 66848,
        "player_name": "Leonardo Almeida",
        "rank": 66017,
        "rank_sort": 66246,
        "total": 2342
      },
      {
        "club_badge_src": null,
        "entry": 4513535,
        "entry_name": "AsterialX",
        "event_total": 75,
        "has_played": true,
        "id": 34417512,
        "last_rank": 109454,
        "player_name": "Himanshu Dev",
        "rank": 66017,
        "rank_sort": 66247,
        "total": 2342
      },
      {
        "club_badge_src": null,
        "entry": 4596548,
        "entry_name": "Piqu\u00e9 Blinders",
        "event_total": 57,
        "has_played": true,
        "id": 35106249,
        "last_rank": 67063,
        "player_name": "Daniel Hurst",
        "rank": 66017,
        "rank_sort": 66248,
        "total": 2342
      },
      {
        "club_badge_src": null,
        "entry": 4597464,
        "entry_name": "Tjernkraft",
        "event_total": 58,
        "has_played": true,
        "id": 35113999,
        "last_rank": 68957,
        "player_name": "Jakob Englund",
        "rank": 66017,
        "rank_sort": 66249,
        "total": 2342
      },
      {
        "club_badge_src": null,
        "entry": 4627540,
        "entry_name": "ZOI KAI ZOTA",
        "event_total": 68,
        "has_played": true,
        "id": 35380049,
        "last_rank": 91006,
        "player_name": "John Doe",
        "rank": 66017,
        "rank_sort": 66250,
        "total": 2342
      }
    ]
  }
}