{
  "last_updated_data": "2026-05-24T23:28:17Z",
  "league": {
    "admin_entry": null,
    "closed": false,
    "code_privacy": "p",
    "created": "2025-07-20T23:14:33.933835Z",
    "cup_league": 2815434,
    "has_cup": true,
    "id": 314,
    "league_type": "s",
    "max_entries": null,
    "name": "Overall",
    "rank": null,
    "scoring": "c",
    "start_event": 1
  },
  "new_entries": {
    "has_next": false,
    "page": 1,
    "results": []
  },
  "standings": {
    "has_next": true,
    "page": 1634,
    "results": [
      {
        "club_badge_src": null,
        "entry": 1490129,
        "entry_name": "puk.etg",
        "event_total": 90,
        "has_played": true,
        "id": 10391439,
        "last_rank": 185799,
        "player_name": "Thanabud Samree",
        "rank": 81641,
        "rank_sort": 81651,
        "total": 2335
      },
      {
        "club_badge_src": null,
        "entry": 2202626,
        "entry_name": "Lango6Times",
        "event_total": 65,
        "has_played": true,
        "id": 15675174,
        "last_rank": 83311,
        "player_name": "tony langley",
        "rank": 81641,
        "rank_sort": 81652,
        "total": 2335
      },
      {
        "club_badge_src": null,
        "entry": 2458722,
        "entry_name": "Abhi's Bottler FC",
        "event_total": 65,
        "has_played": true,
        "id": 17586818,
        "last_rank": 92738,
        "player_name": "Abhijith Deth",
        "rank": 81641,
        "rank_sort": 81653,
        "total": 2335
      },
      {
        "club_badge_src": "https://fantasy.premierleague.com/gcs/plfpl-production-adobe-approved/plfpl-production/2708268/98ec8086-ed7f-4147-9761-916875cee7a9.png",
        "entry": 2708268,
        "entry_name": "Saka Potatoes",
        "event_total": 66,
        "has_played": true,
        "id": 19484956,
        "last_rank": 85672,
        "player_name": "Marchello Viglino",
        "rank": 81641,
        "rank_sort": 81654,
        "total": 2335
      },
      {
        "club_badge_src": null,
        "entry": 3140056,
        "entry_name": "HaCunha Matata",
        "event_total": 66,
        "has_played": true,
        "id": 23181175,
        "last_rank": 95281,
        "player_name": "Oliver Williams",
        "rank": 81641,
        "rank_sort": 81655,
        "total": 2335
      },
      {
        "club_badge_src": null,
        "entry": 3161731,
        "entry_name": "Man Chesthair united",
        "event_total": 70,
        "has_played": true,
        "id": 23356699,
        "last_rank": 116658,
        "player_name": "Freddie Clark",
        "rank": 81641,
        "rank_sort": 81656,
        "total": 2335
      },
      {
        "club_badge_src": null,
        "entry": 3343688,
        "entry_name": "Legend XI",
        "event_total": 67,
        "has_played": true,
        "id": 24802303,
        "last_rank": 97786,
        "player_name": "Martin Spalding",
        "rank": 81641,
        "rank_sort": 81657,
        "total": 2335
      },
      {
        "club_badge_src": null,
        "entry": 3881027,
        "entry_name": "7ox_as",
        "event_total": 72,
        "has_played": true,
        "id": 29161341,
        "last_rank": 122603,
        "player_name": "Ahmed Tarig",
        "rank": 81641,
        "rank_sort": 81658,
        "total": 2335
      },
      {
        "club_badge_src": null,
        "entry": 4393467,
        "entry_name": "Ugarte be kidding me",
        "event_total": 78,
        "has_played": true,
        "id": 33401275,
        "last_rank": 128691,
        "player_name": "Rachael Ward",
        "rank": 81641,
        "rank_sort": 81659,
        "total": 2335
      },
      {
        "club_badge_src": null,
        "entry": 4708266,
        "entry_name": "Diogo 20x Champion!",
        "event_total": 57,
        "has_played": true,
        "id": 36108134,
        "last_rank": 74591,
        "player_name": "Jay Saund",
        "rank": 81641,
        "rank_sort": 81660,
        "total": 2335
      },
      {
        "club_badge_src": null,
        "entry": 4863598,
        "entry_name": "Vitinha Turner",
        "event_total": 76,
        "has_played": true,
        "id": 37482165,
        "last_rank": 110949,
        "player_name": "Iuri Lima",
        "rank": 81641,
        "rank_sort": 81661,
        "total": 2335
      },
      {
        "club_badge_src": null,
        "entry": 6607079,
        "entry_name": "sharaf",
        "event_total": 52,
        "has_played": true,
        "id": 52782992,
        "last_rank": 72536,
        "player_name": "Adam Sharaf",
        "rank": 81641,
        "rank_sort": 81662,
        "total": 2335
      },
      {
        "club_badge_src": "https://fantasy.premierleague.com/gcs/plfpl-production-adobe-approved/plfpl-production/279071/72a113b4-7e0e-4d99-88e6-e161b69f5686.png",
        "entry": 279071,
        "entry_name": "Kinder Mbeumo",
        "event_total": 66,
        "has_played": true,
        "id": 1857296,
        "last_rank": 105559,
        "player_name": "Victor Tam",
        "rank": 81663,
        "rank_sort": 81663,
        "total": 2335
      },
      {
        "club_badge_src": "https://fantasy.premierleague.com/gcs/plfpl-production-adobe-approved/plfpl-production/839135/594c624b-cfe9-4ac6-a22e-397b4fb116bf.png",
        "entry": 839135,
        "entry_name": "ALMANNAI FC",
        "event_total": 59,
        "has_played": true,
        "id": 5749306,
        "last_rank": 62939,
        "player_name": "Ali Al Mannai",
        "rank": 81663,
        "rank_sort": 81664,
        "total": 2335
      },
      {
        "club_badge_src": null,
        "entry": 1647274,
        "entry_name": "Let's be Frank!",
        "event_total": 65,
        "has_played": true,
        "id": 11531183,
        "last_rank": 92850,
        "player_name": "Ryan Mills",
        "rank": 81663,
        "rank_sort": 81665,
        "total": 2335
      },
      {
        "club_badge_src": null,
        "entry": 1802454,
        "entry_name": "Arsenal For Ever",
        "event_total": 52,
        "has_played": true,
        "id": 12671017,
        "last_rank": 64677,
        "player_name": "Ahmed Samir",
        "rank": 81663,
        "rank_sort": 81666,
        "total": 2335
      },
      {
        "club_badge_src": null,
        "entry": 2315062,
        "entry_name": "La Ghentoise",
        "event_total": 62,
        "has_played": true,
        "id": 16514380,
        "last_rank": 95321,
        "player_name": "Stijn De Backer",
        "rank": 81663,
        "rank_sort": 81667,
        "total": 2335
      },
      {
        "club_badge_src": null,
        "entry": 3914098,
        "entry_name": "fatche",
        "event_total": 72,
        "has_played": true,
        "id": 29430321,
        "last_rank": 122730,
        "player_name": "fitsum Kebede",
        "rank": 81663,
        "rank_sort": 81668,
        "total": 2335
      },
      {
        "club_badge_src": null,
        "entry": 3924598,
        "entry_name": "Beef Cherki",
        "event_total": 52,
        "has_played": true,
        "id": 29513946,
        "last_rank": 64677,
        "player_name": "Adam Brown",
        "rank": 81663,
        "rank_sort": 81669,
        "total": 2335
      },
      {
        "club_badge_src": "https://fantasy.premierleague.com/gcs/plfpl-production-adobe-approved/plfpl-production/4614822/38b572f8-3edb-4a35-8eb2-049459724aed.png",
        "entry": 4614822,
        "entry_name": "Punt n Run",
        "event_total": 67,
        "has_played": true,
        "id": 35268750,
        "last_rank": 97841,
        "player_name": "Michael Monksfield",
        "rank": 81663,
        "rank_sort": 81670,
        "total": 2335
      },
      {
        "club_badge_src": null,
        "entry": 4994806,
        "entry_name": "Snoopz FC",
        "event_total": 47,
        "has_played": true,
        "id": 38563044,
        "last_rank": 62999,
        "player_name": "Tobi Adelaja",
        "rank": 81663,
        "rank_sort": 81671,
        "total": 2335
      },
      {
        "club_badge_src": "https://fantasy.premierleague.com/gcs/plfpl-production-adobe-approved/plfpl-production/5186953/45555eb4-af39-481d-bc97-82b831bd0518.png",
        "entry": 5186953,
        "entry_name": "Eplandchill",
        "event_total": 70,
        "has_played": true,
        "id": 40153183,
        "last_rank": 105559,
        "player_name": "Richard Jap",
        "rank": 81663,
        "rank_sort": 81672,
        "total": 2335
      },
      {
        "club_badge_src": null,
        "entry": 5997701,
        "entry_name": "Xmas Cherki",
        "event_total": 66,
        "has_played": true,
        "id": 47276787,
        "last_rank": 95281,
        "player_name": "Albert Castile",
        "rank": 81663,
        "rank_sort": 81673,
        "total": 2335
      },
      {
        "club_badge_src": null,
        "entry": 6173208,
        "entry_name": "macrovers",
        "event_total": 54,
        "has_played": true,
        "id": 48813827,
        "last_rank": 76791,
        "player_name": "Gary McDonough",
        "rank": 81663,
        "rank_sort": 81674,
        "total": 2335
      },
      {
        "club_badge_src": null,
        "entry": 7803017,
        "entry_name": "Ta",
        "event_total": 49,
        "has_played": true,
        "id": 64100433,
        "last_rank": 66571,
        "player_name": "Kamil Boche\u0144czak",
        "rank": 81663,
        "rank_sort": 81675,
        "total": 2335
      },
      {
        "club_badge_src": null,
        "entry": 7853905,
        "entry_name": "D.B.11",
        "event_total": 58,
        "has_played": true,
        "id": 64567387,
        "last_rank": 76778,
        "player_name": "Abdo Saeed",
        "rank": 81663,
        "rank_sort": 81676,
        "total": 2335
      },
      {
        "club_badge_src": null,
        "entry": 8397111,
        "entry_name": "senwariker",
        "event_total": 36,
        "has_played": true,
        "id": 69651613,
        "last_rank": 45072,
        "player_name": "Malik Ibrahim",
        "rank": 81663,
        "rank_sort": 81677,
        "total": 2335
      },
      {
        "club_badge_src": "https://fantasy.premierleague.com/gcs/plfpl-production-adobe-approved/plfpl-production/97102/6e29836a-4bd7-4178-b7a0-f0d46f6e6179.png",
        "entry": 97102,
        "entry_name": "Walid GSM",
        "event_total": 71,
        "has_played": true,
        "id": 634235,
        "last_rank": 97841,
        "player_name": "Walid Guessoum",
        "rank": 81678,
        "rank_sort": 81678,
        "total": 2335
      },
      {
        "club_badge_src": "https://fantasy.premierleague.com/gcs/plfpl-production-adobe-approved/plfpl-production/809264/2579c8a7-338c-413c-8b71-815796cc19f9.png",
        "entry": 809264,
        "entry_name": "Twix United",
        "event_total": 70,
        "has_played": true,
        "id": 5540604,
        "last_rank": 116744,
        "player_name": "Laimonas Tirunas",
        "rank": 81678,
        "rank_sort": 81679,
        "total": 2335
      },
      {
        "club_badge_src": null,
        "entry": 3353661,
        "entry_name": "pioterek",
        "event_total": 66,
        "has_played": true,
        "id": 24880255,
        "last_rank": 105608,
        "player_name": "Piotr Maciejewski",
        "rank": 81678,
        "rank_sort": 81680,
        "total": 2335
      },
      {
        "club_badge_src": null,
        "entry": 552639,
        "entry_name": "Red Liverpool",
        "event_total": 63,
        "has_played": true,
        "id": 3719754,
        "last_rank": 78887,
        "player_name": "sherif Joe",
        "rank": 81681,
        "rank_sort": 81681,
        "total": 2335
      },
      {
        "club_badge_src": null,
        "entry": 771365,
        "entry_name": "Class_of_26",
        "event_total": 56,
        "has_played": true,
        "id": 5262311,
        "last_rank": 81121,
        "player_name": "Michael Hancocks",
        "rank": 81681,
        "rank_sort": 81682,
        "total": 2335
      },
      {
        "club_badge_src": null,
        "entry": 1705547,
        "entry_name": "Loz's Legends",
        "event_total": 66,
        "has_played": true,
        "id": 11948134,
        "last_rank": 105618,
        "player_name": "Mark Simmons",
        "rank": 81681,
        "rank_sort": 81683,
        "total": 2335
      },
      {
        "club_badge_src": null,
        "entry": 2110651,
        "entry_name": "Blaugrana",
        "event_total": 50,
        "has_played": true,
        "id": 14981234,
        "last_rank": 61185,
        "player_name": "Sari 7",
        "rank": 81681,
        "rank_sort": 81684,
        "total": 2335
      },
      {
        "club_badge_src": null,
        "entry": 2917848,
        "entry_name": "The B\u00f8degaard",
        "event_total": 60,
        "has_played": true,
        "id": 21387452,
        "last_rank": 81121,
        "player_name": "Liam Arnold",
        "rank": 81681,
        "rank_sort": 81685,
        "total": 2335
      },
      {
        "club_badge_src": null,
        "entry": 3863570,
        "entry_name": "Now I'm a Baleba",
        "event_total": 45,
        "has_played": true,
        "id": 28969203,
        "last_rank": 59422,
        "player_name": "Fizaan Ahmed",
        "rank": 81681,
        "rank_sort": 81686,
        "total": 2335
      },
      {
        "club_badge_src": null,
        "entry": 39928,
        "entry_name": "Womble Army",
        "event_total": 65,
        "has_played": true,
        "id": 255922,
        "last_rank": 74624,
        "player_name": "Paul Sawyer",
        "rank": 81687,
        "rank_sort": 81687,
        "total": 2335
      },
      {
        "club_badge_src": null,
        "entry": 691119,
        "entry_name": "Nunited",
        "event_total": 52,
        "has_played": true,
        "id": 4680145,
        "last_rank": 57670,
        "player_name": "Naser Alanzi",
        "rank": 81687,
        "rank_sort": 81688,
        "total": 2335
      },
      {
        "club_badge_src": null,
        "entry": 766754,
        "entry_name": "The Golden Cockerel",
        "event_total": 48,
        "has_played": true,
        "id": 5229623,
        "last_rank": 64715,
        "player_name": "Kenneth Andersen",
        "rank": 81687,
        "rank_sort": 81689,
        "total": 2335
      },
      {
        "club_badge_src": null,
        "entry": 1080275,
        "entry_name": "Sher's XI",
        "event_total": 55,
        "has_played": true,
        "id": 7479909,
        "last_rank": 78919,
        "player_name": "Mr Ali",
        "rank": 81687,
        "rank_sort": 81690,
        "total": 2335
      },
      {
        "club_badge_src": "https://fantasy.premierleague.com/gcs/plfpl-production-adobe-approved/plfpl-production/1934423/9093c676-d485-44e8-9563-73230a0d322f.png",
        "entry": 1934423,
        "entry_name": "2nd Place Princess",
        "event_total": 59,
        "has_played": true,
        "id": 13643559,
        "last_rank": 88087,
        "player_name": "Jonathan Wadham",
        "rank": 81687,
        "rank_sort": 81691,
        "total": 2335
      },
      {
        "club_badge_src": null,
        "entry": 5370995,
        "entry_name": "Earth Wind & McGuire",
        "event_total": 47,
        "has_played": true,
        "id": 41734267,
        "last_rank": 63010,
        "player_name": "Vanessa McGuire",
        "rank": 81687,
        "rank_sort": 81692,
        "total": 2335
      },
      {
        "club_badge_src": "https://fantasy.premierleague.com/gcs/plfpl-production-adobe-approved/plfpl-production/262704/aa83d355-75c7-4c2e-b8e3-9e500b71cdde.png",
        "entry": 262704,
        "entry_name": "Poundbury Giants",
        "event_total": 63,
        "has_played": true,
        "id": 1746530,
        "last_rank": 78906,
        "player_name": "peter smith",
        "rank": 81693,
        "rank_sort": 81693,
        "total": 2335
      },
      {
        "club_badge_src": null,
        "entry": 733517,
        "entry_name": "Mia San Mia",
        "event_total": 61,
        "has_played": true,
        "id": 4984763,
        "last_rank": 74642,
        "player_name": "Khaldoun Altabtabaie",
        "rank": 81693,
        "rank_sort": 81694,
        "total": 2335
      },
      {
        "club_badge_src": null,
        "entry": 1373339,
        "entry_name": "opal",
        "event_total": 55,
        "has_played": true,
        "id": 9546530,
        "last_rank": 78936,
        "player_name": "Ondrej Palen\u010dar",
        "rank": 81693,
        "rank_sort": 81695,
        "total": 2335
      },
      {
        "club_badge_src": "https://fantasy.premierleague.com/gcs/plfpl-production-adobe-approved/plfpl-production/1751273/46d51d7c-6f10-4acd-ba1b-1f3da4f7e182.png",
        "entry": 1751273,
        "entry_name": "Seiraes****",
        "event_total": 42,
        "has_played": true,
        "id": 12290516,
        "last_rank": 54324,
        "player_name": "andreas parissis",
        "rank": 81693,
        "rank_sort": 81696,
        "total": 2335
      },
      {
        "club_badge_src": null,
        "entry": 2933934,
        "entry_name": "haal@nd",
        "event_total": 63,
        "has_played": true,
        "id": 21525537,
        "last_rank": 97906,
        "player_name": "Ahmed kamal",
        "rank": 81693,
        "rank_sort": 81697,
        "total": 2335
      },
      {
        "club_badge_src": null,
        "entry": 340682,
        "entry_name": "FPLru1n5w33kendz",
        "event_total": 41,
        "has_played": true,
        "id": 2280411,
        "last_rank": 52694,
        "player_name": "James Rowe",
        "rank": 81698,
        "rank_sort": 81698,
        "total": 2335
      },
      {
        "club_badge_src": null,
        "entry": 1490046,
        "entry_name": "@loqer",
        "event_total": 62,
        "has_played": true,
        "id": 10390838,
        "last_rank": 95373,
        "player_name": "Shafizul Ghafar",
        "rank": 81698,
        "rank_sort": 81699,
        "total": 2335
      },
      {
        "club_badge_src": null,
        "entry": 2341566,
        "entry_name": "Riggerpool",
        "event_total": 56,
        "has_played": true,
        "id": 16707731,
        "last_rank": 81154,
        "player_name": "Martin Rigby",
        "rank": 81698,
        "rank_sort": 81700,
        "total": 2335
      }
    ]
  }
}