{
  "last_updated_data": "2026-05-24T23:28:17Z",
  "league": {
    "admin_entry": null,
    "closed": false,
    "code_privacy": "p",
    "created": "2025-07-20T23:14:33.933835Z",
    "cup_league": 2815434,
    "has_cup": true,
    "id": 314,
    "league_type": "s",
    "max_entries": null,
    "name": "Overall",
    "rank": null,
    "scoring": "c",
    "start_event": 1
  },
  "new_entries": {
    "has_next": false,
    "page": 1,
    "results": []
  },
  "standings": {
    "has_next": true,
    "page": 667,
    "results": [
      {
        "club_badge_src": null,
        "entry": 3168744,
        "entry_name": "FC Rudsvik",
        "event_total": 41,
        "has_played": true,
        "id": 23411151,
        "last_rank": 18985,
        "player_name": "Anton Rudsvik",
        "rank": 33186,
        "rank_sort": 33301,
        "total": 2365
      },
      {
        "club_badge_src": null,
        "entry": 3285094,
        "entry_name": "Askham Allstars",
        "event_total": 48,
        "has_played": true,
        "id": 24318219,
        "last_rank": 24330,
        "player_name": "Rene Askham",
        "rank": 33186,
        "rank_sort": 33302,
        "total": 2365
      },
      {
        "club_badge_src": null,
        "entry": 3301051,
        "entry_name": "We All Hate Bolton",
        "event_total": 63,
        "has_played": true,
        "id": 24448985,
        "last_rank": 40297,
        "player_name": "Sean Morrell",
        "rank": 33186,
        "rank_sort": 33303,
        "total": 2365
      },
      {
        "club_badge_src": null,
        "entry": 3341001,
        "entry_name": "Eze come, Eze Go",
        "event_total": 37,
        "has_played": true,
        "id": 24780783,
        "last_rank": 16320,
        "player_name": "Adam Bahou",
        "rank": 33186,
        "rank_sort": 33304,
        "total": 2365
      },
      {
        "club_badge_src": null,
        "entry": 3352554,
        "entry_name": "FOMO XI",
        "event_total": 65,
        "has_played": true,
        "id": 24871706,
        "last_rank": 42940,
        "player_name": "Harshie S",
        "rank": 33186,
        "rank_sort": 33305,
        "total": 2365
      },
      {
        "club_badge_src": null,
        "entry": 3534391,
        "entry_name": "Sti Lud FC",
        "event_total": 68,
        "has_played": true,
        "id": 26306624,
        "last_rank": 46839,
        "player_name": "Andrej Adzic",
        "rank": 33186,
        "rank_sort": 33306,
        "total": 2365
      },
      {
        "club_badge_src": null,
        "entry": 3571486,
        "entry_name": "Caesar Salah'd",
        "event_total": 74,
        "has_played": true,
        "id": 26593779,
        "last_rank": 49880,
        "player_name": "Logan Wright",
        "rank": 33186,
        "rank_sort": 33307,
        "total": 2365
      },
      {
        "club_badge_src": null,
        "entry": 3757692,
        "entry_name": "3FingersofBlueMoon",
        "event_total": 67,
        "has_played": true,
        "id": 28055694,
        "last_rank": 45416,
        "player_name": "Warren Williams",
        "rank": 33186,
        "rank_sort": 33308,
        "total": 2365
      },
      {
        "club_badge_src": null,
        "entry": 3771313,
        "entry_name": "Woohoo!",
        "event_total": 52,
        "has_played": true,
        "id": 28159182,
        "last_rank": 27976,
        "player_name": "Kenneth Woo",
        "rank": 33186,
        "rank_sort": 33309,
        "total": 2365
      },
      {
        "club_badge_src": null,
        "entry": 3794879,
        "entry_name": "3la allah",
        "event_total": 76,
        "has_played": true,
        "id": 28363860,
        "last_rank": 60168,
        "player_name": "Ahmed Mostafa",
        "rank": 33186,
        "rank_sort": 33310,
        "total": 2365
      },
      {
        "club_badge_src": null,
        "entry": 3809971,
        "entry_name": "Rolandinhos",
        "event_total": 57,
        "has_played": true,
        "id": 28487801,
        "last_rank": 33147,
        "player_name": "Henning Roland",
        "rank": 33186,
        "rank_sort": 33311,
        "total": 2365
      },
      {
        "club_badge_src": null,
        "entry": 3810898,
        "entry_name": "Zoc--9",
        "event_total": 48,
        "has_played": true,
        "id": 28495313,
        "last_rank": 20983,
        "player_name": "Milos Andric",
        "rank": 33186,
        "rank_sort": 33312,
        "total": 2365
      },
      {
        "club_badge_src": null,
        "entry": 3857649,
        "entry_name": "I G\u00f6tze no idea",
        "event_total": 68,
        "has_played": true,
        "id": 28921856,
        "last_rank": 46591,
        "player_name": "Enda Martin",
        "rank": 33186,
        "rank_sort": 33313,
        "total": 2365
      },
      {
        "club_badge_src": null,
        "entry": 3880156,
        "entry_name": "Que Miras Bobo",
        "event_total": 64,
        "has_played": true,
        "id": 29154407,
        "last_rank": 36348,
        "player_name": "Abdullah Atia",
        "rank": 33186,
        "rank_sort": 33314,
        "total": 2365
      },
      {
        "club_badge_src": null,
        "entry": 3896718,
        "entry_name": "Espe Amorimmers",
        "event_total": 51,
        "has_played": true,
        "id": 29287849,
        "last_rank": 27020,
        "player_name": "Anders Espe",
        "rank": 33186,
        "rank_sort": 33315,
        "total": 2365
      },
      {
        "club_badge_src": null,
        "entry": 3943805,
        "entry_name": "No Frank No Worries",
        "event_total": 41,
        "has_played": true,
        "id": 29667645,
        "last_rank": 18790,
        "player_name": "Lachlan McDonald",
        "rank": 33186,
        "rank_sort": 33316,
        "total": 2365
      },
      {
        "club_badge_src": null,
        "entry": 4004355,
        "entry_name": "Songys superstarz",
        "event_total": 68,
        "has_played": true,
        "id": 30163258,
        "last_rank": 41162,
        "player_name": "Luke Songaila",
        "rank": 33186,
        "rank_sort": 33317,
        "total": 2365
      },
      {
        "club_badge_src": null,
        "entry": 4024721,
        "entry_name": "SeskoTescoFC",
        "event_total": 47,
        "has_played": true,
        "id": 30336718,
        "last_rank": 23230,
        "player_name": "Seetal Bhambra",
        "rank": 33186,
        "rank_sort": 33318,
        "total": 2365
      },
      {
        "club_badge_src": null,
        "entry": 4029805,
        "entry_name": "JackGPT",
        "event_total": 62,
        "has_played": true,
        "id": 30379258,
        "last_rank": 34051,
        "player_name": "Jack Schofield",
        "rank": 33186,
        "rank_sort": 33319,
        "total": 2365
      },
      {
        "club_badge_src": null,
        "entry": 4033043,
        "entry_name": "ThomasDFrankEngine",
        "event_total": 57,
        "has_played": true,
        "id": 30406494,
        "last_rank": 33147,
        "player_name": "Tommy Muckian",
        "rank": 33186,
        "rank_sort": 33320,
        "total": 2365
      },
      {
        "club_badge_src": "https://fantasy.premierleague.com/gcs/plfpl-production-adobe-approved/plfpl-production/4134285/9ef80f73-b9a9-451a-a54d-c6b0da6c608d.png",
        "entry": 4134285,
        "entry_name": "stay humble eh",
        "event_total": 58,
        "has_played": true,
        "id": 31243183,
        "last_rank": 34293,
        "player_name": "Harrison So",
        "rank": 33186,
        "rank_sort": 33321,
        "total": 2365
      },
      {
        "club_badge_src": "https://fantasy.premierleague.com/gcs/plfpl-production-adobe-approved/plfpl-production/4137823/fdb47442-e8a5-4098-a773-175995ef0c76.png",
        "entry": 4137823,
        "entry_name": "1st",
        "event_total": 51,
        "has_played": true,
        "id": 31271298,
        "last_rank": 27020,
        "player_name": "Domen Poljan\u0161ek",
        "rank": 33186,
        "rank_sort": 33322,
        "total": 2365
      },
      {
        "club_badge_src": "https://fantasy.premierleague.com/gcs/plfpl-production-adobe-approved/plfpl-production/4153123/a9c053b1-7a98-41a1-8d9e-a1152b3d35c7.png",
        "entry": 4153123,
        "entry_name": "MISHMIKUTD",
        "event_total": 76,
        "has_played": true,
        "id": 31391420,
        "last_rank": 59632,
        "player_name": "nikhit fernandes",
        "rank": 33186,
        "rank_sort": 33323,
        "total": 2365
      },
      {
        "club_badge_src": null,
        "entry": 4264282,
        "entry_name": "HaCunha Mateta",
        "event_total": 52,
        "has_played": true,
        "id": 32333402,
        "last_rank": 27976,
        "player_name": "Hemish Chauhan",
        "rank": 33186,
        "rank_sort": 33324,
        "total": 2365
      },
      {
        "club_badge_src": null,
        "entry": 4387668,
        "entry_name": "Wirtz of Wallstreet",
        "event_total": 64,
        "has_played": true,
        "id": 33352554,
        "last_rank": 41617,
        "player_name": "Chris Isles",
        "rank": 33186,
        "rank_sort": 33325,
        "total": 2365
      },
      {
        "club_badge_src": null,
        "entry": 4559913,
        "entry_name": "Mamba",
        "event_total": 44,
        "has_played": true,
        "id": 34795166,
        "last_rank": 21159,
        "player_name": "Zac Robertson",
        "rank": 33186,
        "rank_sort": 33326,
        "total": 2365
      },
      {
        "club_badge_src": null,
        "entry": 4616256,
        "entry_name": "Dnt Look Back Elanga",
        "event_total": 49,
        "has_played": true,
        "id": 35281373,
        "last_rank": 25002,
        "player_name": "James Charlson",
        "rank": 33186,
        "rank_sort": 33327,
        "total": 2365
      },
      {
        "club_badge_src": null,
        "entry": 4641920,
        "entry_name": "Struggle City",
        "event_total": 56,
        "has_played": true,
        "id": 35504143,
        "last_rank": 32190,
        "player_name": "Barnaby Flower",
        "rank": 33186,
        "rank_sort": 33328,
        "total": 2365
      },
      {
        "club_badge_src": null,
        "entry": 4706902,
        "entry_name": "Borussia Teeth",
        "event_total": 73,
        "has_played": true,
        "id": 36094875,
        "last_rank": 54667,
        "player_name": "Steven Carey",
        "rank": 33186,
        "rank_sort": 33329,
        "total": 2365
      },
      {
        "club_badge_src": null,
        "entry": 4716738,
        "entry_name": "Mosalahdosa",
        "event_total": 67,
        "has_played": true,
        "id": 36216718,
        "last_rank": 45714,
        "player_name": "Emil Paul",
        "rank": 33186,
        "rank_sort": 33330,
        "total": 2365
      },
      {
        "club_badge_src": null,
        "entry": 4803790,
        "entry_name": "notWirtzit",
        "event_total": 63,
        "has_played": true,
        "id": 36987047,
        "last_rank": 40297,
        "player_name": "Aarnav Dangarwala",
        "rank": 33186,
        "rank_sort": 33331,
        "total": 2365
      },
      {
        "club_badge_src": null,
        "entry": 4977595,
        "entry_name": "Bruno dos tres",
        "event_total": 37,
        "has_played": true,
        "id": 38422397,
        "last_rank": 13821,
        "player_name": "Luke Tempest",
        "rank": 33186,
        "rank_sort": 33332,
        "total": 2365
      },
      {
        "club_badge_src": null,
        "entry": 4984106,
        "entry_name": "Alba",
        "event_total": 62,
        "has_played": true,
        "id": 38476540,
        "last_rank": 39023,
        "player_name": "Antonio Rocha",
        "rank": 33186,
        "rank_sort": 33333,
        "total": 2365
      },
      {
        "club_badge_src": null,
        "entry": 5035799,
        "entry_name": "Jo\u00e3o Must Be Kidding",
        "event_total": 63,
        "has_played": true,
        "id": 38896309,
        "last_rank": 40036,
        "player_name": "Reece Redman",
        "rank": 33186,
        "rank_sort": 33334,
        "total": 2365
      },
      {
        "club_badge_src": null,
        "entry": 5120042,
        "entry_name": "Al\u00f2ma",
        "event_total": 63,
        "has_played": true,
        "id": 39587331,
        "last_rank": 35034,
        "player_name": "Adeleke Oluwatobiloba",
        "rank": 33186,
        "rank_sort": 33335,
        "total": 2365
      },
      {
        "club_badge_src": "https://fantasy.premierleague.com/gcs/plfpl-production-adobe-approved/plfpl-production/5134008/0a734849-7637-4e8d-94d4-b5beef34c39e.png",
        "entry": 5134008,
        "entry_name": "LendFekirs",
        "event_total": 67,
        "has_played": true,
        "id": 39709021,
        "last_rank": 40036,
        "player_name": "Rahul Prasad",
        "rank": 33186,
        "rank_sort": 33336,
        "total": 2365
      },
      {
        "club_badge_src": null,
        "entry": 5149933,
        "entry_name": "No Europe FC",
        "event_total": 68,
        "has_played": true,
        "id": 39842680,
        "last_rank": 47163,
        "player_name": "Janaum Rao",
        "rank": 33186,
        "rank_sort": 33337,
        "total": 2365
      },
      {
        "club_badge_src": null,
        "entry": 5555557,
        "entry_name": "Ctrl - Alt - De Ligt",
        "event_total": 66,
        "has_played": true,
        "id": 43364629,
        "last_rank": 44048,
        "player_name": "Rohit Shenoy",
        "rank": 33186,
        "rank_sort": 33338,
        "total": 2365
      },
      {
        "club_badge_src": null,
        "entry": 5603951,
        "entry_name": "In \u0160e\u0161ko We Trust",
        "event_total": 65,
        "has_played": true,
        "id": 43790630,
        "last_rank": 42648,
        "player_name": "Luke Silcox",
        "rank": 33186,
        "rank_sort": 33339,
        "total": 2365
      },
      {
        "club_badge_src": null,
        "entry": 5634051,
        "entry_name": "FC Frida",
        "event_total": 31,
        "has_played": true,
        "id": 44053081,
        "last_rank": 12705,
        "player_name": "Frida Hjelde",
        "rank": 33186,
        "rank_sort": 33340,
        "total": 2365
      },
      {
        "club_badge_src": null,
        "entry": 5635608,
        "entry_name": "Champagne Kusanova",
        "event_total": 59,
        "has_played": true,
        "id": 44066947,
        "last_rank": 35166,
        "player_name": "Ollie Hagar",
        "rank": 33186,
        "rank_sort": 33341,
        "total": 2365
      },
      {
        "club_badge_src": null,
        "entry": 5671507,
        "entry_name": "Disko Kongo",
        "event_total": 44,
        "has_played": true,
        "id": 44382137,
        "last_rank": 21159,
        "player_name": "Andreas Timoudas",
        "rank": 33186,
        "rank_sort": 33342,
        "total": 2365
      },
      {
        "club_badge_src": null,
        "entry": 5746062,
        "entry_name": "muslim team",
        "event_total": 68,
        "has_played": true,
        "id": 45032788,
        "last_rank": 47163,
        "player_name": "muslim salman",
        "rank": 33186,
        "rank_sort": 33343,
        "total": 2365
      },
      {
        "club_badge_src": null,
        "entry": 5867518,
        "entry_name": "zubidubizubidubi",
        "event_total": 65,
        "has_played": true,
        "id": 46085017,
        "last_rank": 42648,
        "player_name": "Adeeb Chowdhury",
        "rank": 33186,
        "rank_sort": 33344,
        "total": 2365
      },
      {
        "club_badge_src": null,
        "entry": 5879033,
        "entry_name": "ZFC",
        "event_total": 60,
        "has_played": true,
        "id": 46179223,
        "last_rank": 36348,
        "player_name": "Zaky Wardak",
        "rank": 33186,
        "rank_sort": 33345,
        "total": 2365
      },
      {
        "club_badge_src": null,
        "entry": 5913634,
        "entry_name": "Dav FC",
        "event_total": 66,
        "has_played": true,
        "id": 46472994,
        "last_rank": 44525,
        "player_name": "Will Davidson",
        "rank": 33186,
        "rank_sort": 33346,
        "total": 2365
      },
      {
        "club_badge_src": null,
        "entry": 5930974,
        "entry_name": "Cherry Pickers",
        "event_total": 58,
        "has_played": true,
        "id": 46627133,
        "last_rank": 34293,
        "player_name": "Ben Alston",
        "rank": 33186,
        "rank_sort": 33347,
        "total": 2365
      },
      {
        "club_badge_src": null,
        "entry": 5954072,
        "entry_name": "Football Team \u00c3",
        "event_total": 59,
        "has_played": true,
        "id": 46835447,
        "last_rank": 35166,
        "player_name": "Nilesh Patel",
        "rank": 33186,
        "rank_sort": 33348,
        "total": 2365
      },
      {
        "club_badge_src": null,
        "entry": 6127818,
        "entry_name": "haven't a fatawu",
        "event_total": 53,
        "has_played": true,
        "id": 48418804,
        "last_rank": 28906,
        "player_name": "Shayaan Fanibanda",
        "rank": 33186,
        "rank_sort": 33349,
        "total": 2365
      },
      {
        "club_badge_src": "https://fantasy.premierleague.com/gcs/plfpl-production-adobe-approved/plfpl-production/6280195/63888f66-c57a-437f-984a-74ed999a3461.png",
        "entry": 6280195,
        "entry_name": "Haalandaise S\u00f3s",
        "event_total": 59,
        "has_played": true,
        "id": 49738015,
        "last_rank": 35166,
        "player_name": "D\u00e1vid Lisberg",
        "rank": 33186,
        "rank_sort": 33350,
        "total": 2365
      }
    ]
  }
}