{
  "last_updated_data": "2026-05-24T23:28:17Z",
  "league": {
    "admin_entry": null,
    "closed": false,
    "code_privacy": "p",
    "created": "2025-07-20T23:14:33.933835Z",
    "cup_league": 2815434,
    "has_cup": true,
    "id": 314,
    "league_type": "s",
    "max_entries": null,
    "name": "Overall",
    "rank": null,
    "scoring": "c",
    "start_event": 1
  },
  "new_entries": {
    "has_next": false,
    "page": 1,
    "results": []
  },
  "standings": {
    "has_next": true,
    "page": 57,
    "results": [
      {
        "club_badge_src": null,
        "entry": 868348,
        "entry_name": "Max Attack",
        "event_total": 70,
        "has_played": true,
        "id": 5953193,
        "last_rank": 4704,
        "player_name": "Jeannee Ramos",
        "rank": 2778,
        "rank_sort": 2801,
        "total": 2427
      },
      {
        "club_badge_src": null,
        "entry": 872461,
        "entry_name": "Sky FC",
        "event_total": 72,
        "has_played": true,
        "id": 5981428,
        "last_rank": 5173,
        "player_name": "Jordan Shim",
        "rank": 2778,
        "rank_sort": 2802,
        "total": 2427
      },
      {
        "club_badge_src": null,
        "entry": 891365,
        "entry_name": "FWH",
        "event_total": 51,
        "has_played": true,
        "id": 6117579,
        "last_rank": 1848,
        "player_name": "Frederik Willemoes",
        "rank": 2778,
        "rank_sort": 2803,
        "total": 2427
      },
      {
        "club_badge_src": null,
        "entry": 896801,
        "entry_name": "Han\u00f6hus FC",
        "event_total": 65,
        "has_played": true,
        "id": 6160874,
        "last_rank": 3721,
        "player_name": "Jonathan Tiderman",
        "rank": 2778,
        "rank_sort": 2804,
        "total": 2427
      },
      {
        "club_badge_src": null,
        "entry": 1003946,
        "entry_name": "Obeyno FC",
        "event_total": 84,
        "has_played": true,
        "id": 6939919,
        "last_rank": 8676,
        "player_name": "Gosase Obeyno",
        "rank": 2778,
        "rank_sort": 2805,
        "total": 2427
      },
      {
        "club_badge_src": null,
        "entry": 1007113,
        "entry_name": "Cronis",
        "event_total": 50,
        "has_played": true,
        "id": 6962686,
        "last_rank": 1797,
        "player_name": "Jacob Cronqvist",
        "rank": 2778,
        "rank_sort": 2806,
        "total": 2427
      },
      {
        "club_badge_src": "https://fantasy.premierleague.com/gcs/plfpl-production-adobe-approved/plfpl-production/1852721/59e651e9-3643-4939-979e-5c45ac8010b8.png",
        "entry": 1852721,
        "entry_name": "Gladiators",
        "event_total": 83,
        "has_played": true,
        "id": 13037403,
        "last_rank": 8382,
        "player_name": "islam Elsaid",
        "rank": 2778,
        "rank_sort": 2807,
        "total": 2427
      },
      {
        "club_badge_src": null,
        "entry": 2075621,
        "entry_name": "Salah-vation Army",
        "event_total": 60,
        "has_played": true,
        "id": 14716237,
        "last_rank": 2977,
        "player_name": "Jonny Stowe",
        "rank": 2778,
        "rank_sort": 2808,
        "total": 2427
      },
      {
        "club_badge_src": null,
        "entry": 2135059,
        "entry_name": "McDreamTeam",
        "event_total": 53,
        "has_played": true,
        "id": 15173013,
        "last_rank": 2088,
        "player_name": "Ed McDermott",
        "rank": 2778,
        "rank_sort": 2809,
        "total": 2427
      },
      {
        "club_badge_src": null,
        "entry": 2270252,
        "entry_name": "kuucc",
        "event_total": 65,
        "has_played": true,
        "id": 16187970,
        "last_rank": 3721,
        "player_name": "mm chtioui",
        "rank": 2778,
        "rank_sort": 2810,
        "total": 2427
      },
      {
        "club_badge_src": null,
        "entry": 2566111,
        "entry_name": "Nyholmski Stars",
        "event_total": 59,
        "has_played": true,
        "id": 18407784,
        "last_rank": 2824,
        "player_name": "Jonathan Nyholm",
        "rank": 2778,
        "rank_sort": 2811,
        "total": 2427
      },
      {
        "club_badge_src": null,
        "entry": 3342182,
        "entry_name": "Amber Nectarinos",
        "event_total": 57,
        "has_played": true,
        "id": 24790104,
        "last_rank": 2526,
        "player_name": "Steven Foster",
        "rank": 2778,
        "rank_sort": 2812,
        "total": 2427
      },
      {
        "club_badge_src": null,
        "entry": 3610626,
        "entry_name": "Meez",
        "event_total": 59,
        "has_played": true,
        "id": 26896837,
        "last_rank": 2802,
        "player_name": "Ahmed Motaz",
        "rank": 2778,
        "rank_sort": 2813,
        "total": 2427
      },
      {
        "club_badge_src": null,
        "entry": 3619752,
        "entry_name": "KnowinMeKnowinUZaha",
        "event_total": 66,
        "has_played": true,
        "id": 26968314,
        "last_rank": 3902,
        "player_name": "Ben Williams",
        "rank": 2778,
        "rank_sort": 2814,
        "total": 2427
      },
      {
        "club_badge_src": null,
        "entry": 3733313,
        "entry_name": "Jo\u00e3o Pedro Pascal FC",
        "event_total": 65,
        "has_played": true,
        "id": 27866089,
        "last_rank": 3721,
        "player_name": "Sebastian Jaramillo",
        "rank": 2778,
        "rank_sort": 2815,
        "total": 2427
      },
      {
        "club_badge_src": null,
        "entry": 3865746,
        "entry_name": "The Invincibles",
        "event_total": 65,
        "has_played": true,
        "id": 28986701,
        "last_rank": 3699,
        "player_name": "Alex Harrison",
        "rank": 2778,
        "rank_sort": 2816,
        "total": 2427
      },
      {
        "club_badge_src": null,
        "entry": 5088173,
        "entry_name": "Orford Yeah What",
        "event_total": 74,
        "has_played": true,
        "id": 39326614,
        "last_rank": 5632,
        "player_name": "Glenn Wigley",
        "rank": 2778,
        "rank_sort": 2817,
        "total": 2427
      },
      {
        "club_badge_src": null,
        "entry": 5307438,
        "entry_name": "Ekis United",
        "event_total": 77,
        "has_played": true,
        "id": 41141056,
        "last_rank": 6386,
        "player_name": "Morten Ekanger",
        "rank": 2778,
        "rank_sort": 2818,
        "total": 2427
      },
      {
        "club_badge_src": null,
        "entry": 5494980,
        "entry_name": "Eze Money",
        "event_total": 54,
        "has_played": true,
        "id": 42801990,
        "last_rank": 2170,
        "player_name": "Charlie Beckwith",
        "rank": 2778,
        "rank_sort": 2819,
        "total": 2427
      },
      {
        "club_badge_src": null,
        "entry": 5618917,
        "entry_name": "Wrexham A.F.C.",
        "event_total": 51,
        "has_played": true,
        "id": 43921449,
        "last_rank": 1880,
        "player_name": "Sanzhar Zhakabayev",
        "rank": 2778,
        "rank_sort": 2820,
        "total": 2427
      },
      {
        "club_badge_src": null,
        "entry": 5805520,
        "entry_name": "We need some Leeds",
        "event_total": 84,
        "has_played": true,
        "id": 45547991,
        "last_rank": 8687,
        "player_name": "Nathan Schofield",
        "rank": 2778,
        "rank_sort": 2821,
        "total": 2427
      },
      {
        "club_badge_src": null,
        "entry": 6202040,
        "entry_name": "Shalia's Angels",
        "event_total": 61,
        "has_played": true,
        "id": 49062626,
        "last_rank": 3103,
        "player_name": "Shereen Abedi-Grainger",
        "rank": 2778,
        "rank_sort": 2822,
        "total": 2427
      },
      {
        "club_badge_src": null,
        "entry": 6213462,
        "entry_name": "Kopties",
        "event_total": 62,
        "has_played": true,
        "id": 49160802,
        "last_rank": 3227,
        "player_name": "Edwin Ng",
        "rank": 2778,
        "rank_sort": 2823,
        "total": 2427
      },
      {
        "club_badge_src": "https://fantasy.premierleague.com/gcs/plfpl-production-adobe-approved/plfpl-production/6728241/3c8e95d9-9c6d-46c4-a24b-a04479120933.png",
        "entry": 6728241,
        "entry_name": "\u0627\u0628\u0648 \u0639\u0628\u062f\u0647 \u0627\u0644\u0633\u062e\u0646",
        "event_total": 62,
        "has_played": true,
        "id": 53851554,
        "last_rank": 3257,
        "player_name": "Ahmed Medhat",
        "rank": 2778,
        "rank_sort": 2824,
        "total": 2427
      },
      {
        "club_badge_src": null,
        "entry": 7158226,
        "entry_name": "Rayo Villacano",
        "event_total": 69,
        "has_played": true,
        "id": 57735389,
        "last_rank": 4471,
        "player_name": "Rachael Woodroffe",
        "rank": 2778,
        "rank_sort": 2825,
        "total": 2427
      },
      {
        "club_badge_src": null,
        "entry": 7647357,
        "entry_name": "The Magic Hats",
        "event_total": 43,
        "has_played": true,
        "id": 62692844,
        "last_rank": 1240,
        "player_name": "Philip Maxwell",
        "rank": 2778,
        "rank_sort": 2826,
        "total": 2427
      },
      {
        "club_badge_src": null,
        "entry": 8437605,
        "entry_name": "Bison Parches",
        "event_total": 71,
        "has_played": true,
        "id": 70037283,
        "last_rank": 4918,
        "player_name": "Bison Parches",
        "rank": 2778,
        "rank_sort": 2827,
        "total": 2427
      },
      {
        "club_badge_src": null,
        "entry": 8762083,
        "entry_name": "HeadshouldersNetos",
        "event_total": 67,
        "has_played": true,
        "id": 73178188,
        "last_rank": 4099,
        "player_name": "Sian Donovan",
        "rank": 2778,
        "rank_sort": 2828,
        "total": 2427
      },
      {
        "club_badge_src": "https://fantasy.premierleague.com/gcs/plfpl-production-adobe-approved/plfpl-production/4341/104b2be2-f1c7-41d0-9543-07b6b5f68357.png",
        "entry": 4341,
        "entry_name": "Beef Cherki",
        "event_total": 65,
        "has_played": true,
        "id": 24680,
        "last_rank": 3765,
        "player_name": "Tom O",
        "rank": 2829,
        "rank_sort": 2829,
        "total": 2427
      },
      {
        "club_badge_src": null,
        "entry": 16829,
        "entry_name": "free cash",
        "event_total": 63,
        "has_played": true,
        "id": 104162,
        "last_rank": 3442,
        "player_name": "Matt .",
        "rank": 2829,
        "rank_sort": 2830,
        "total": 2427
      },
      {
        "club_badge_src": "https://fantasy.premierleague.com/gcs/plfpl-production-adobe-approved/plfpl-production/24338/7ea89f08-e6d7-4ee2-90f5-3261e539124e.png",
        "entry": 24338,
        "entry_name": "\u0623\u0646\u0627 \u0627\u0644\u0633\u064a\u062f \u0627\u0644\u0628\u062f\u0648\u064a",
        "event_total": 61,
        "has_played": true,
        "id": 153629,
        "last_rank": 3175,
        "player_name": "Mohamed Abozaid",
        "rank": 2829,
        "rank_sort": 2831,
        "total": 2427
      },
      {
        "club_badge_src": "https://fantasy.premierleague.com/gcs/plfpl-production-adobe-approved/plfpl-production/33631/a6eaf691-67f6-48aa-b5a6-eeaec81b0b5d.png",
        "entry": 33631,
        "entry_name": "Scouting for goals",
        "event_total": 60,
        "has_played": true,
        "id": 214551,
        "last_rank": 2977,
        "player_name": "Brett Rossi",
        "rank": 2829,
        "rank_sort": 2832,
        "total": 2427
      },
      {
        "club_badge_src": null,
        "entry": 44333,
        "entry_name": "DEFCON 2",
        "event_total": 73,
        "has_played": true,
        "id": 284111,
        "last_rank": 5400,
        "player_name": "Adnan Rashid",
        "rank": 2829,
        "rank_sort": 2833,
        "total": 2427
      },
      {
        "club_badge_src": null,
        "entry": 70967,
        "entry_name": "Givitme FC",
        "event_total": 64,
        "has_played": true,
        "id": 460876,
        "last_rank": 2977,
        "player_name": "Patrick Mc Carthy",
        "rank": 2829,
        "rank_sort": 2834,
        "total": 2427
      },
      {
        "club_badge_src": null,
        "entry": 96111,
        "entry_name": "Ryan's XI",
        "event_total": 65,
        "has_played": true,
        "id": 627871,
        "last_rank": 3721,
        "player_name": "Ryan Sheldon",
        "rank": 2829,
        "rank_sort": 2835,
        "total": 2427
      },
      {
        "club_badge_src": "https://fantasy.premierleague.com/gcs/plfpl-production-adobe-approved/plfpl-production/100582/fe78922f-6b58-4805-a302-ada8a24aec3a.png",
        "entry": 100582,
        "entry_name": "Vodka Martinelly VII",
        "event_total": 64,
        "has_played": true,
        "id": 656402,
        "last_rank": 3601,
        "player_name": "Jonathan Attwood",
        "rank": 2829,
        "rank_sort": 2836,
        "total": 2427
      },
      {
        "club_badge_src": null,
        "entry": 122950,
        "entry_name": "Me Myself Ndiaye",
        "event_total": 56,
        "has_played": true,
        "id": 801987,
        "last_rank": 1978,
        "player_name": "Lucas Dunn",
        "rank": 2829,
        "rank_sort": 2837,
        "total": 2427
      },
      {
        "club_badge_src": null,
        "entry": 698305,
        "entry_name": "Papapo",
        "event_total": 58,
        "has_played": true,
        "id": 4730362,
        "last_rank": 2685,
        "player_name": "Mike Sierra",
        "rank": 2829,
        "rank_sort": 2838,
        "total": 2427
      },
      {
        "club_badge_src": null,
        "entry": 801464,
        "entry_name": "Padonga",
        "event_total": 37,
        "has_played": true,
        "id": 5486214,
        "last_rank": 944,
        "player_name": "Mike Tomlinson",
        "rank": 2829,
        "rank_sort": 2839,
        "total": 2427
      },
      {
        "club_badge_src": "https://fantasy.premierleague.com/gcs/plfpl-production-adobe-approved/plfpl-production/1685356/18dd3d7a-70d7-4a87-92d2-3d4a55e6ac82.png",
        "entry": 1685356,
        "entry_name": "No time to Ndiaye",
        "event_total": 64,
        "has_played": true,
        "id": 11797665,
        "last_rank": 3562,
        "player_name": "Julian Hughes",
        "rank": 2829,
        "rank_sort": 2840,
        "total": 2427
      },
      {
        "club_badge_src": "https://fantasy.premierleague.com/gcs/plfpl-production-adobe-approved/plfpl-production/1755105/44c3c118-033f-4e5a-b7ef-b9697801d3f0.png",
        "entry": 1755105,
        "entry_name": "Inevitable FC",
        "event_total": 68,
        "has_played": true,
        "id": 12321581,
        "last_rank": 4358,
        "player_name": "Milito -",
        "rank": 2829,
        "rank_sort": 2841,
        "total": 2427
      },
      {
        "club_badge_src": null,
        "entry": 1785944,
        "entry_name": "Remma SkanDahle FK \u26bd",
        "event_total": 60,
        "has_played": true,
        "id": 12548545,
        "last_rank": 2977,
        "player_name": "Remy Dahle",
        "rank": 2829,
        "rank_sort": 2842,
        "total": 2427
      },
      {
        "club_badge_src": "https://fantasy.premierleague.com/gcs/plfpl-production-adobe-approved/plfpl-production/1872291/3588b79c-eb87-4a8d-9cbf-75ca866a2b6e.png",
        "entry": 1872291,
        "entry_name": "DeeChels",
        "event_total": 46,
        "has_played": true,
        "id": 13181297,
        "last_rank": 1452,
        "player_name": "V R Deepan",
        "rank": 2829,
        "rank_sort": 2843,
        "total": 2427
      },
      {
        "club_badge_src": null,
        "entry": 2617240,
        "entry_name": "Sta$i",
        "event_total": 58,
        "has_played": true,
        "id": 18805570,
        "last_rank": 2685,
        "player_name": "Stanislav Miladinov",
        "rank": 2829,
        "rank_sort": 2844,
        "total": 2427
      },
      {
        "club_badge_src": null,
        "entry": 2849535,
        "entry_name": "Hacunha Matata",
        "event_total": 52,
        "has_played": true,
        "id": 20833759,
        "last_rank": 1601,
        "player_name": "Ryan Teo",
        "rank": 2829,
        "rank_sort": 2845,
        "total": 2427
      },
      {
        "club_badge_src": null,
        "entry": 2891203,
        "entry_name": "Howwood Rangers",
        "event_total": 37,
        "has_played": true,
        "id": 21170511,
        "last_rank": 944,
        "player_name": "Colin Casey",
        "rank": 2829,
        "rank_sort": 2846,
        "total": 2427
      },
      {
        "club_badge_src": null,
        "entry": 3018844,
        "entry_name": "Elsie FC",
        "event_total": 56,
        "has_played": true,
        "id": 22210780,
        "last_rank": 2448,
        "player_name": "Jonathan Miles",
        "rank": 2829,
        "rank_sort": 2847,
        "total": 2427
      },
      {
        "club_badge_src": null,
        "entry": 3128276,
        "entry_name": "ABCDE FC",
        "event_total": 71,
        "has_played": true,
        "id": 23088050,
        "last_rank": 4099,
        "player_name": "Kristian Leirv\u00e5g",
        "rank": 2829,
        "rank_sort": 2848,
        "total": 2427
      },
      {
        "club_badge_src": null,
        "entry": 3165486,
        "entry_name": "Rogers that",
        "event_total": 71,
        "has_played": true,
        "id": 23385745,
        "last_rank": 4954,
        "player_name": "Mark Johnson",
        "rank": 2829,
        "rank_sort": 2849,
        "total": 2427
      },
      {
        "club_badge_src": null,
        "entry": 3309486,
        "entry_name": "Blooter",
        "event_total": 51,
        "has_played": true,
        "id": 24518542,
        "last_rank": 1523,
        "player_name": "Brendan Starkey",
        "rank": 2829,
        "rank_sort": 2850,
        "total": 2427
      }
    ]
  }
}