{
  "last_updated_data": "2026-05-24T23:28:17Z",
  "league": {
    "admin_entry": null,
    "closed": false,
    "code_privacy": "p",
    "created": "2025-07-20T23:14:33.933835Z",
    "cup_league": 2815434,
    "has_cup": true,
    "id": 314,
    "league_type": "s",
    "max_entries": null,
    "name": "Overall",
    "rank": null,
    "scoring": "c",
    "start_event": 1
  },
  "new_entries": {
    "has_next": false,
    "page": 1,
    "results": []
  },
  "standings": {
    "has_next": true,
    "page": 121,
    "results": [
      {
        "club_badge_src": null,
        "entry": 4611363,
        "entry_name": "Montys Blades",
        "event_total": 87,
        "has_played": true,
        "id": 35237157,
        "last_rank": 16567,
        "player_name": "Mark Burroughs",
        "rank": 5994,
        "rank_sort": 6001,
        "total": 2411
      },
      {
        "club_badge_src": "https://fantasy.premierleague.com/gcs/plfpl-production-adobe-approved/plfpl-production/5343844/54d0eafc-9f4d-4ae3-80a0-69dde23fe521.png",
        "entry": 5343844,
        "entry_name": "tej",
        "event_total": 64,
        "has_played": true,
        "id": 41455925,
        "last_rank": 7567,
        "player_name": "Tej Bouguecha",
        "rank": 5994,
        "rank_sort": 6002,
        "total": 2411
      },
      {
        "club_badge_src": null,
        "entry": 5479303,
        "entry_name": "4ever Bowen Bubbles",
        "event_total": 72,
        "has_played": true,
        "id": 42659499,
        "last_rank": 8999,
        "player_name": "Scott Poulton",
        "rank": 5994,
        "rank_sort": 6003,
        "total": 2411
      },
      {
        "club_badge_src": null,
        "entry": 6108618,
        "entry_name": "Temporary",
        "event_total": 67,
        "has_played": true,
        "id": 48251582,
        "last_rank": 7257,
        "player_name": "V4 Victory",
        "rank": 5994,
        "rank_sort": 6004,
        "total": 2411
      },
      {
        "club_badge_src": "https://fantasy.premierleague.com/gcs/plfpl-production-adobe-approved/plfpl-production/12992/77157a73-0f6f-4b5d-9c89-d25a4a115d70.png",
        "entry": 12992,
        "entry_name": "Ekitike-tika FC",
        "event_total": 51,
        "has_played": true,
        "id": 78266,
        "last_rank": 3495,
        "player_name": "Richard Perkins",
        "rank": 6005,
        "rank_sort": 6005,
        "total": 2411
      },
      {
        "club_badge_src": "https://fantasy.premierleague.com/gcs/plfpl-production-adobe-approved/plfpl-production/113716/1cac02b1-a8a8-4e47-820d-3cda4f9111f2.png",
        "entry": 113716,
        "entry_name": "Damien Duff-Man",
        "event_total": 62,
        "has_played": true,
        "id": 741743,
        "last_rank": 5860,
        "player_name": "Ruairi McCann",
        "rank": 6005,
        "rank_sort": 6006,
        "total": 2411
      },
      {
        "club_badge_src": null,
        "entry": 246773,
        "entry_name": "Qu\u00e9 Salah Salah",
        "event_total": 40,
        "has_played": true,
        "id": 1642803,
        "last_rank": 2507,
        "player_name": "Bobby Fatemi",
        "rank": 6005,
        "rank_sort": 6007,
        "total": 2411
      },
      {
        "club_badge_src": "https://fantasy.premierleague.com/gcs/plfpl-production-adobe-approved/plfpl-production/530260/7f2e0b11-a521-4d76-a001-c241e149f717.png",
        "entry": 530260,
        "entry_name": "hanfullachips",
        "event_total": 75,
        "has_played": true,
        "id": 3565971,
        "last_rank": 12056,
        "player_name": "Cathal Hayes",
        "rank": 6005,
        "rank_sort": 6008,
        "total": 2411
      },
      {
        "club_badge_src": "https://fantasy.premierleague.com/gcs/plfpl-production-adobe-approved/plfpl-production/983125/e1857966-2efd-4297-83e4-899e260b0ff4.png",
        "entry": 983125,
        "entry_name": "Amjed United",
        "event_total": 66,
        "has_played": true,
        "id": 6778175,
        "last_rank": 5845,
        "player_name": "Amjed M",
        "rank": 6005,
        "rank_sort": 6009,
        "total": 2411
      },
      {
        "club_badge_src": null,
        "entry": 1917296,
        "entry_name": "Essam",
        "event_total": 59,
        "has_played": true,
        "id": 13518764,
        "last_rank": 6122,
        "player_name": "Essam Mohammed",
        "rank": 6005,
        "rank_sort": 6010,
        "total": 2411
      },
      {
        "club_badge_src": null,
        "entry": 2717341,
        "entry_name": "Belha",
        "event_total": 67,
        "has_played": true,
        "id": 19552027,
        "last_rank": 8638,
        "player_name": "Belhassen Mouelhi",
        "rank": 6005,
        "rank_sort": 6011,
        "total": 2411
      },
      {
        "club_badge_src": "https://fantasy.premierleague.com/gcs/plfpl-production-adobe-approved/plfpl-production/3914136/e8cd175b-3949-4b23-916c-d420cbd0061b.png",
        "entry": 3914136,
        "entry_name": "Non't",
        "event_total": 57,
        "has_played": true,
        "id": 29430590,
        "last_rank": 4668,
        "player_name": "nont arnont",
        "rank": 6005,
        "rank_sort": 6012,
        "total": 2411
      },
      {
        "club_badge_src": null,
        "entry": 6826118,
        "entry_name": "toddys terriers",
        "event_total": 41,
        "has_played": true,
        "id": 54675699,
        "last_rank": 2641,
        "player_name": "Paul Todd",
        "rank": 6005,
        "rank_sort": 6013,
        "total": 2411
      },
      {
        "club_badge_src": "https://fantasy.premierleague.com/gcs/plfpl-production-adobe-approved/plfpl-production/8489061/663e8152-9d1c-4dde-a3ae-59b7694c3816.png",
        "entry": 8489061,
        "entry_name": "Eggerton FC",
        "event_total": 65,
        "has_played": true,
        "id": 70529537,
        "last_rank": 5583,
        "player_name": "Scott McLeod",
        "rank": 6005,
        "rank_sort": 6014,
        "total": 2411
      },
      {
        "club_badge_src": null,
        "entry": 52826,
        "entry_name": "badrmohamed",
        "event_total": 59,
        "has_played": true,
        "id": 339670,
        "last_rank": 4223,
        "player_name": "badr mohamed",
        "rank": 6015,
        "rank_sort": 6015,
        "total": 2411
      },
      {
        "club_badge_src": null,
        "entry": 72466,
        "entry_name": "FC Chicha",
        "event_total": 61,
        "has_played": true,
        "id": 470892,
        "last_rank": 6660,
        "player_name": "Vladimir Brkovic",
        "rank": 6015,
        "rank_sort": 6016,
        "total": 2411
      },
      {
        "club_badge_src": null,
        "entry": 159405,
        "entry_name": "Beast Nach\u00e9",
        "event_total": 77,
        "has_played": true,
        "id": 1049231,
        "last_rank": 13060,
        "player_name": "Jack Mason",
        "rank": 6015,
        "rank_sort": 6017,
        "total": 2411
      },
      {
        "club_badge_src": null,
        "entry": 629145,
        "entry_name": "In Wenger We Trust",
        "event_total": 61,
        "has_played": true,
        "id": 4251469,
        "last_rank": 6660,
        "player_name": "Youssef Amr",
        "rank": 6015,
        "rank_sort": 6018,
        "total": 2411
      },
      {
        "club_badge_src": null,
        "entry": 902162,
        "entry_name": "Leeyton Orient",
        "event_total": 52,
        "has_played": true,
        "id": 6198846,
        "last_rank": 3670,
        "player_name": "Lee Luland",
        "rank": 6015,
        "rank_sort": 6019,
        "total": 2411
      },
      {
        "club_badge_src": null,
        "entry": 3975245,
        "entry_name": "Haggis Hunter",
        "event_total": 48,
        "has_played": true,
        "id": 29919157,
        "last_rank": 3680,
        "player_name": "Jamie Baggley",
        "rank": 6015,
        "rank_sort": 6020,
        "total": 2411
      },
      {
        "club_badge_src": null,
        "entry": 4056862,
        "entry_name": "We are  cherki boys",
        "event_total": 57,
        "has_played": true,
        "id": 30611138,
        "last_rank": 5597,
        "player_name": "simon gage",
        "rank": 6015,
        "rank_sort": 6021,
        "total": 2411
      },
      {
        "club_badge_src": null,
        "entry": 6933369,
        "entry_name": "KM37",
        "event_total": 66,
        "has_played": true,
        "id": 55583916,
        "last_rank": 6970,
        "player_name": "Mukhtar Ayomide",
        "rank": 6015,
        "rank_sort": 6022,
        "total": 2411
      },
      {
        "club_badge_src": "https://fantasy.premierleague.com/gcs/plfpl-production-adobe-approved/plfpl-production/384560/addc2d18-334c-4995-bd37-334e6a2b43cc.png",
        "entry": 384560,
        "entry_name": "Poke Ndiaye",
        "event_total": 65,
        "has_played": true,
        "id": 2579299,
        "last_rank": 5591,
        "player_name": "Ben Shrimpton",
        "rank": 6023,
        "rank_sort": 6023,
        "total": 2411
      },
      {
        "club_badge_src": null,
        "entry": 5126878,
        "entry_name": "Zubi Zubi Zu",
        "event_total": 53,
        "has_played": true,
        "id": 39647423,
        "last_rank": 3839,
        "player_name": "Sandesh Shrestha",
        "rank": 6023,
        "rank_sort": 6024,
        "total": 2411
      },
      {
        "club_badge_src": null,
        "entry": 35689,
        "entry_name": "Netflix and Chillwel",
        "event_total": 63,
        "has_played": true,
        "id": 228439,
        "last_rank": 7292,
        "player_name": "Ben Marland",
        "rank": 6025,
        "rank_sort": 6025,
        "total": 2411
      },
      {
        "club_badge_src": null,
        "entry": 505477,
        "entry_name": "Ugarte Be Kidding Me",
        "event_total": 67,
        "has_played": true,
        "id": 3392749,
        "last_rank": 6127,
        "player_name": "Tom Cutler",
        "rank": 6025,
        "rank_sort": 6026,
        "total": 2411
      },
      {
        "club_badge_src": null,
        "entry": 2451161,
        "entry_name": "Count Doku",
        "event_total": 58,
        "has_played": true,
        "id": 17531489,
        "last_rank": 4899,
        "player_name": "Cian McKenna",
        "rank": 6025,
        "rank_sort": 6027,
        "total": 2411
      },
      {
        "club_badge_src": null,
        "entry": 6238771,
        "entry_name": "Monok FC",
        "event_total": 43,
        "has_played": true,
        "id": 49378328,
        "last_rank": 2932,
        "player_name": "David Bodnar",
        "rank": 6025,
        "rank_sort": 6028,
        "total": 2411
      },
      {
        "club_badge_src": "https://fantasy.premierleague.com/gcs/plfpl-production-adobe-approved/plfpl-production/1284666/360aebe1-ddd9-4209-ae30-726e8b434ce3.png",
        "entry": 1284666,
        "entry_name": "Posset United",
        "event_total": 72,
        "has_played": true,
        "id": 8926700,
        "last_rank": 10697,
        "player_name": "Lawrence Gingell",
        "rank": 6029,
        "rank_sort": 6029,
        "total": 2411
      },
      {
        "club_badge_src": "https://fantasy.premierleague.com/gcs/plfpl-production-adobe-approved/plfpl-production/1000980/da8f5fdf-aeef-4748-85b2-c45eb402bb6d.png",
        "entry": 1000980,
        "entry_name": "Sheryo",
        "event_total": 54,
        "has_played": true,
        "id": 6919326,
        "last_rank": 3371,
        "player_name": "Sherif Safwat",
        "rank": 6030,
        "rank_sort": 6030,
        "total": 2411
      },
      {
        "club_badge_src": null,
        "entry": 8206880,
        "entry_name": "Just Roper to beat",
        "event_total": 61,
        "has_played": true,
        "id": 67805588,
        "last_rank": 6670,
        "player_name": "David Walker",
        "rank": 6031,
        "rank_sort": 6031,
        "total": 2410
      },
      {
        "club_badge_src": null,
        "entry": 6988797,
        "entry_name": "SoViet",
        "event_total": 56,
        "has_played": true,
        "id": 56099524,
        "last_rank": 5377,
        "player_name": "Natthapon Kanoktrakool",
        "rank": 6032,
        "rank_sort": 6032,
        "total": 2410
      },
      {
        "club_badge_src": null,
        "entry": 5282777,
        "entry_name": "Alisson in Wonderlan",
        "event_total": 50,
        "has_played": true,
        "id": 40947410,
        "last_rank": 4039,
        "player_name": "Callum Stubbins",
        "rank": 6033,
        "rank_sort": 6033,
        "total": 2410
      },
      {
        "club_badge_src": null,
        "entry": 581863,
        "entry_name": "Corn on the Kobbie",
        "event_total": 66,
        "has_played": true,
        "id": 3915884,
        "last_rank": 8312,
        "player_name": "Aaron Carvalho",
        "rank": 6034,
        "rank_sort": 6034,
        "total": 2410
      },
      {
        "club_badge_src": null,
        "entry": 1794987,
        "entry_name": "Penat Asyik Menang",
        "event_total": 52,
        "has_played": true,
        "id": 12613856,
        "last_rank": 4471,
        "player_name": "Muhamad Adi Irfan Mohd Azmi",
        "rank": 6034,
        "rank_sort": 6035,
        "total": 2410
      },
      {
        "club_badge_src": null,
        "entry": 7241737,
        "entry_name": "Change Name",
        "event_total": 35,
        "has_played": true,
        "id": 58524417,
        "last_rank": 1956,
        "player_name": "Thomas Lonsdale",
        "rank": 6034,
        "rank_sort": 6036,
        "total": 2410
      },
      {
        "club_badge_src": null,
        "entry": 25173,
        "entry_name": "Temporary",
        "event_total": 76,
        "has_played": true,
        "id": 159214,
        "last_rank": 12594,
        "player_name": "Rune Sarup",
        "rank": 6037,
        "rank_sort": 6037,
        "total": 2410
      },
      {
        "club_badge_src": null,
        "entry": 202521,
        "entry_name": "FeGo",
        "event_total": 66,
        "has_played": true,
        "id": 1344972,
        "last_rank": 8312,
        "player_name": "Mohamed Farrag",
        "rank": 6037,
        "rank_sort": 6038,
        "total": 2410
      },
      {
        "club_badge_src": null,
        "entry": 1998304,
        "entry_name": "The Wolves FC",
        "event_total": 61,
        "has_played": true,
        "id": 14121918,
        "last_rank": 6677,
        "player_name": "Adam Woolf",
        "rank": 6037,
        "rank_sort": 6039,
        "total": 2410
      },
      {
        "club_badge_src": null,
        "entry": 2910729,
        "entry_name": "Wirtz Case Scenario",
        "event_total": 58,
        "has_played": true,
        "id": 21333940,
        "last_rank": 4913,
        "player_name": "alex frampton",
        "rank": 6037,
        "rank_sort": 6040,
        "total": 2410
      },
      {
        "club_badge_src": "https://fantasy.premierleague.com/gcs/plfpl-production-adobe-approved/plfpl-production/106096/d9bfb77b-b4d7-48a6-989b-4e838b895cdc.png",
        "entry": 106096,
        "entry_name": "Abawy",
        "event_total": 66,
        "has_played": true,
        "id": 691865,
        "last_rank": 8339,
        "player_name": "Mustafa Shaker",
        "rank": 6041,
        "rank_sort": 6041,
        "total": 2410
      },
      {
        "club_badge_src": "https://fantasy.premierleague.com/gcs/plfpl-production-adobe-approved/plfpl-production/140077/25f0a54d-f9ea-4a1a-b20b-5b7df1f55c16.png",
        "entry": 140077,
        "entry_name": "Edification Beckons",
        "event_total": 73,
        "has_played": true,
        "id": 914577,
        "last_rank": 11150,
        "player_name": "George Low",
        "rank": 6041,
        "rank_sort": 6042,
        "total": 2410
      },
      {
        "club_badge_src": null,
        "entry": 621016,
        "entry_name": "Bangers",
        "event_total": 56,
        "has_played": true,
        "id": 4196777,
        "last_rank": 5448,
        "player_name": "Damian Angus",
        "rank": 6041,
        "rank_sort": 6043,
        "total": 2410
      },
      {
        "club_badge_src": null,
        "entry": 686435,
        "entry_name": "Corn on the Kobbie",
        "event_total": 49,
        "has_played": true,
        "id": 4646699,
        "last_rank": 3902,
        "player_name": "Malik Sturrup",
        "rank": 6041,
        "rank_sort": 6044,
        "total": 2410
      },
      {
        "club_badge_src": null,
        "entry": 719404,
        "entry_name": "Made in Switzerland",
        "event_total": 41,
        "has_played": true,
        "id": 4883008,
        "last_rank": 2685,
        "player_name": "Kerim Trigg",
        "rank": 6041,
        "rank_sort": 6045,
        "total": 2410
      },
      {
        "club_badge_src": null,
        "entry": 1154391,
        "entry_name": "50 Schade of Gray",
        "event_total": 62,
        "has_played": true,
        "id": 8004993,
        "last_rank": 7000,
        "player_name": "Hannes Ohlander",
        "rank": 6041,
        "rank_sort": 6046,
        "total": 2410
      },
      {
        "club_badge_src": null,
        "entry": 1162530,
        "entry_name": "No Francis Given",
        "event_total": 63,
        "has_played": true,
        "id": 8064353,
        "last_rank": 7333,
        "player_name": "Adam Francis",
        "rank": 6041,
        "rank_sort": 6047,
        "total": 2410
      },
      {
        "club_badge_src": null,
        "entry": 1196406,
        "entry_name": "Lallanas In Pyjamas",
        "event_total": 69,
        "has_played": true,
        "id": 8302156,
        "last_rank": 9484,
        "player_name": "Josh Farnes",
        "rank": 6041,
        "rank_sort": 6048,
        "total": 2410
      },
      {
        "club_badge_src": "https://fantasy.premierleague.com/gcs/plfpl-production-adobe-approved/plfpl-production/1361566/b37077e4-7844-455f-a9e9-1fbcdb64617a.png",
        "entry": 1361566,
        "entry_name": "Park Das Bus",
        "event_total": 66,
        "has_played": true,
        "id": 9464205,
        "last_rank": 8312,
        "player_name": "Susmit Das",
        "rank": 6041,
        "rank_sort": 6049,
        "total": 2410
      },
      {
        "club_badge_src": null,
        "entry": 1568924,
        "entry_name": "Jonesy16",
        "event_total": 58,
        "has_played": true,
        "id": 10960259,
        "last_rank": 5889,
        "player_name": "Jordan jones",
        "rank": 6041,
        "rank_sort": 6050,
        "total": 2410
      }
    ]
  }
}