{
  "last_updated_data": "2026-05-24T23:28:17Z",
  "league": {
    "admin_entry": null,
    "closed": false,
    "code_privacy": "p",
    "created": "2025-07-20T23:14:33.933835Z",
    "cup_league": 2815434,
    "has_cup": true,
    "id": 314,
    "league_type": "s",
    "max_entries": null,
    "name": "Overall",
    "rank": null,
    "scoring": "c",
    "start_event": 1
  },
  "new_entries": {
    "has_next": false,
    "page": 1,
    "results": []
  },
  "standings": {
    "has_next": true,
    "page": 1095,
    "results": [
      {
        "club_badge_src": null,
        "entry": 1732474,
        "entry_name": "Tobby",
        "event_total": 63,
        "has_played": true,
        "id": 12152274,
        "last_rank": 65796,
        "player_name": "Nontapat- Ngokngam-",
        "rank": 54594,
        "rank_sort": 54701,
        "total": 2349
      },
      {
        "club_badge_src": null,
        "entry": 1768559,
        "entry_name": "Tomteboda bk",
        "event_total": 75,
        "has_played": true,
        "id": 12423491,
        "last_rank": 91006,
        "player_name": "Jesper Svensson",
        "rank": 54594,
        "rank_sort": 54702,
        "total": 2349
      },
      {
        "club_badge_src": null,
        "entry": 1824610,
        "entry_name": "Beasty Boys",
        "event_total": 48,
        "has_played": true,
        "id": 12833233,
        "last_rank": 41824,
        "player_name": "Steve Best",
        "rank": 54594,
        "rank_sort": 54703,
        "total": 2349
      },
      {
        "club_badge_src": null,
        "entry": 1826710,
        "entry_name": "ROSTOM",
        "event_total": 67,
        "has_played": true,
        "id": 12848595,
        "last_rank": 73720,
        "player_name": "\u0645\u062d\u0645\u062f \u0631\u0633\u062a\u0645",
        "rank": 54594,
        "rank_sort": 54704,
        "total": 2349
      },
      {
        "club_badge_src": null,
        "entry": 1856969,
        "entry_name": "Bouncebackability",
        "event_total": 44,
        "has_played": true,
        "id": 13068539,
        "last_rank": 36831,
        "player_name": "Craig Richardson",
        "rank": 54594,
        "rank_sort": 54705,
        "total": 2349
      },
      {
        "club_badge_src": null,
        "entry": 1933239,
        "entry_name": "cunha woulda shoulda",
        "event_total": 60,
        "has_played": true,
        "id": 13634932,
        "last_rank": 60168,
        "player_name": "David Anderson",
        "rank": 54594,
        "rank_sort": 54706,
        "total": 2349
      },
      {
        "club_badge_src": null,
        "entry": 1985456,
        "entry_name": "Stingers FC",
        "event_total": 63,
        "has_played": true,
        "id": 14024840,
        "last_rank": 58388,
        "player_name": "Siddhant Prabhu",
        "rank": 54594,
        "rank_sort": 54707,
        "total": 2349
      },
      {
        "club_badge_src": null,
        "entry": 2003835,
        "entry_name": "Kimmich 1",
        "event_total": 68,
        "has_played": true,
        "id": 14166919,
        "last_rank": 75874,
        "player_name": "Seth Ameyaw",
        "rank": 54594,
        "rank_sort": 54708,
        "total": 2349
      },
      {
        "club_badge_src": null,
        "entry": 2137139,
        "entry_name": "ALMHEIRI21",
        "event_total": 60,
        "has_played": true,
        "id": 15188450,
        "last_rank": 59813,
        "player_name": "Abdulla Al Mheiri",
        "rank": 54594,
        "rank_sort": 54709,
        "total": 2349
      },
      {
        "club_badge_src": null,
        "entry": 2194692,
        "entry_name": "FC St Pauli",
        "event_total": 41,
        "has_played": true,
        "id": 15615460,
        "last_rank": 33332,
        "player_name": "Paul Casey",
        "rank": 54594,
        "rank_sort": 54710,
        "total": 2349
      },
      {
        "club_badge_src": null,
        "entry": 2201569,
        "entry_name": "SqueezeMatetas",
        "event_total": 66,
        "has_played": true,
        "id": 15667456,
        "last_rank": 71713,
        "player_name": "Samuel Hamer",
        "rank": 54594,
        "rank_sort": 54711,
        "total": 2349
      },
      {
        "club_badge_src": null,
        "entry": 2204970,
        "entry_name": "Jome United",
        "event_total": 57,
        "has_played": true,
        "id": 15694821,
        "last_rank": 55014,
        "player_name": "Jome Nattachai",
        "rank": 54594,
        "rank_sort": 54712,
        "total": 2349
      },
      {
        "club_badge_src": null,
        "entry": 2212918,
        "entry_name": "Unflushable Turd",
        "event_total": 55,
        "has_played": true,
        "id": 15758772,
        "last_rank": 51984,
        "player_name": "Andy Wilson",
        "rank": 54594,
        "rank_sort": 54713,
        "total": 2349
      },
      {
        "club_badge_src": null,
        "entry": 2231332,
        "entry_name": "Yoro not that Guy",
        "event_total": 64,
        "has_played": true,
        "id": 15895848,
        "last_rank": 52853,
        "player_name": "George Wallace",
        "rank": 54594,
        "rank_sort": 54714,
        "total": 2349
      },
      {
        "club_badge_src": null,
        "entry": 2243384,
        "entry_name": "Grand Cru",
        "event_total": 58,
        "has_played": true,
        "id": 15982840,
        "last_rank": 57001,
        "player_name": "Megan Callahan",
        "rank": 54594,
        "rank_sort": 54715,
        "total": 2349
      },
      {
        "club_badge_src": "https://fantasy.premierleague.com/gcs/plfpl-production-adobe-approved/plfpl-production/2274812/4954c5a9-edf2-464e-a977-b5075b9046c6.png",
        "entry": 2274812,
        "entry_name": "RASSAN CF",
        "event_total": 39,
        "has_played": true,
        "id": 16221094,
        "last_rank": 31236,
        "player_name": "Rasan Ab Zebari",
        "rank": 54594,
        "rank_sort": 54716,
        "total": 2349
      },
      {
        "club_badge_src": null,
        "entry": 2279359,
        "entry_name": "Dream United",
        "event_total": 62,
        "has_played": true,
        "id": 16254234,
        "last_rank": 64005,
        "player_name": "Lee-Jay Lottering",
        "rank": 54594,
        "rank_sort": 54717,
        "total": 2349
      },
      {
        "club_badge_src": null,
        "entry": 2287923,
        "entry_name": "Baines on Toast",
        "event_total": 63,
        "has_played": true,
        "id": 16316929,
        "last_rank": 65796,
        "player_name": "Luke Cummings",
        "rank": 54594,
        "rank_sort": 54718,
        "total": 2349
      },
      {
        "club_badge_src": null,
        "entry": 2299115,
        "entry_name": "MFF FC",
        "event_total": 57,
        "has_played": true,
        "id": 16398030,
        "last_rank": 48642,
        "player_name": "Faizzuden Fauzi",
        "rank": 54594,
        "rank_sort": 54719,
        "total": 2349
      },
      {
        "club_badge_src": null,
        "entry": 2370012,
        "entry_name": "RunnersFC",
        "event_total": 47,
        "has_played": true,
        "id": 16918231,
        "last_rank": 35424,
        "player_name": "Amir Atzmon",
        "rank": 54594,
        "rank_sort": 54720,
        "total": 2349
      },
      {
        "club_badge_src": null,
        "entry": 2515952,
        "entry_name": "Boyka'z",
        "event_total": 67,
        "has_played": true,
        "id": 18025302,
        "last_rank": 73720,
        "player_name": "Ahmad Zeedan",
        "rank": 54594,
        "rank_sort": 54721,
        "total": 2349
      },
      {
        "club_badge_src": "https://fantasy.premierleague.com/gcs/plfpl-production-adobe-approved/plfpl-production/2534139/8e7f7e62-5c83-4fb4-8e1b-5dbde56a7646.png",
        "entry": 2534139,
        "entry_name": "btt",
        "event_total": 72,
        "has_played": true,
        "id": 18160292,
        "last_rank": 84360,
        "player_name": "Akram Omar",
        "rank": 54594,
        "rank_sort": 54722,
        "total": 2349
      },
      {
        "club_badge_src": null,
        "entry": 2567897,
        "entry_name": "central perk",
        "event_total": 66,
        "has_played": true,
        "id": 18421882,
        "last_rank": 71713,
        "player_name": "Shahriar Imon",
        "rank": 54594,
        "rank_sort": 54723,
        "total": 2349
      },
      {
        "club_badge_src": null,
        "entry": 2590641,
        "entry_name": "DeLap Dance",
        "event_total": 62,
        "has_played": true,
        "id": 18599410,
        "last_rank": 64005,
        "player_name": "Daniel Reay",
        "rank": 54594,
        "rank_sort": 54724,
        "total": 2349
      },
      {
        "club_badge_src": null,
        "entry": 2692822,
        "entry_name": "SquidWirtz",
        "event_total": 64,
        "has_played": true,
        "id": 19369527,
        "last_rank": 67695,
        "player_name": "Josh Eagleson",
        "rank": 54594,
        "rank_sort": 54725,
        "total": 2349
      },
      {
        "club_badge_src": null,
        "entry": 2770345,
        "entry_name": "FC Balotelli",
        "event_total": 65,
        "has_played": true,
        "id": 20213213,
        "last_rank": 61950,
        "player_name": "Carl Marcusson",
        "rank": 54594,
        "rank_sort": 54726,
        "total": 2349
      },
      {
        "club_badge_src": null,
        "entry": 2800002,
        "entry_name": "92:48",
        "event_total": 65,
        "has_played": true,
        "id": 20446381,
        "last_rank": 61950,
        "player_name": "Issa Hafi",
        "rank": 54594,
        "rank_sort": 54727,
        "total": 2349
      },
      {
        "club_badge_src": null,
        "entry": 2800161,
        "entry_name": "Dave FC",
        "event_total": 68,
        "has_played": true,
        "id": 20447556,
        "last_rank": 75537,
        "player_name": "David \u010coupek",
        "rank": 54594,
        "rank_sort": 54728,
        "total": 2349
      },
      {
        "club_badge_src": null,
        "entry": 2837096,
        "entry_name": "Gloverfield Town",
        "event_total": 47,
        "has_played": true,
        "id": 20733913,
        "last_rank": 35424,
        "player_name": "George Glover",
        "rank": 54594,
        "rank_sort": 54729,
        "total": 2349
      },
      {
        "club_badge_src": "https://fantasy.premierleague.com/gcs/plfpl-production-adobe-approved/plfpl-production/2925768/457c9585-91f8-49fc-aa18-5b1faeb80d1b.png",
        "entry": 2925768,
        "entry_name": "Today I Feel Gueye",
        "event_total": 60,
        "has_played": true,
        "id": 21448785,
        "last_rank": 53345,
        "player_name": "Garrett Post",
        "rank": 54594,
        "rank_sort": 54730,
        "total": 2349
      },
      {
        "club_badge_src": null,
        "entry": 2948873,
        "entry_name": "Spursy Boys",
        "event_total": 62,
        "has_played": true,
        "id": 21656820,
        "last_rank": 63724,
        "player_name": "Rob Elliott",
        "rank": 54594,
        "rank_sort": 54731,
        "total": 2349
      },
      {
        "club_badge_src": null,
        "entry": 2980413,
        "entry_name": "Amorin the Mood",
        "event_total": 58,
        "has_played": true,
        "id": 21912881,
        "last_rank": 57001,
        "player_name": "John Moore",
        "rank": 54594,
        "rank_sort": 54732,
        "total": 2349
      },
      {
        "club_badge_src": null,
        "entry": 2982536,
        "entry_name": "Reds Revival!!",
        "event_total": 61,
        "has_played": true,
        "id": 21929196,
        "last_rank": 62223,
        "player_name": "andrew lansdell",
        "rank": 54594,
        "rank_sort": 54733,
        "total": 2349
      },
      {
        "club_badge_src": null,
        "entry": 3022108,
        "entry_name": "CucuCucurella",
        "event_total": 58,
        "has_played": true,
        "id": 22235476,
        "last_rank": 57001,
        "player_name": "Janyour Sghayer",
        "rank": 54594,
        "rank_sort": 54734,
        "total": 2349
      },
      {
        "club_badge_src": null,
        "entry": 3080712,
        "entry_name": "DJ Twenty",
        "event_total": 48,
        "has_played": true,
        "id": 22696224,
        "last_rank": 41324,
        "player_name": "Afzal Merali",
        "rank": 54594,
        "rank_sort": 54735,
        "total": 2349
      },
      {
        "club_badge_src": null,
        "entry": 3120422,
        "entry_name": "Tielemans Square",
        "event_total": 64,
        "has_played": true,
        "id": 23027592,
        "last_rank": 67063,
        "player_name": "James Dunning",
        "rank": 54594,
        "rank_sort": 54736,
        "total": 2349
      },
      {
        "club_badge_src": null,
        "entry": 3125614,
        "entry_name": "Les Chevreuils",
        "event_total": 47,
        "has_played": true,
        "id": 23067671,
        "last_rank": 40503,
        "player_name": "J\u00e9r\u00f4me Chollet",
        "rank": 54594,
        "rank_sort": 54737,
        "total": 2349
      },
      {
        "club_badge_src": null,
        "entry": 3145988,
        "entry_name": "ThomasTheFrankEngine",
        "event_total": 63,
        "has_played": true,
        "id": 23228765,
        "last_rank": 65796,
        "player_name": "Sam Sandle",
        "rank": 54594,
        "rank_sort": 54738,
        "total": 2349
      },
      {
        "club_badge_src": null,
        "entry": 3197196,
        "entry_name": "utter woke nonsense",
        "event_total": 56,
        "has_played": true,
        "id": 23632397,
        "last_rank": 53621,
        "player_name": "Steven Monk",
        "rank": 54594,
        "rank_sort": 54739,
        "total": 2349
      },
      {
        "club_badge_src": null,
        "entry": 3219660,
        "entry_name": "Super Hanz FC",
        "event_total": 59,
        "has_played": true,
        "id": 23808528,
        "last_rank": 58388,
        "player_name": "Hannah Bermudez",
        "rank": 54594,
        "rank_sort": 54740,
        "total": 2349
      },
      {
        "club_badge_src": null,
        "entry": 3235237,
        "entry_name": "ahmed6",
        "event_total": 48,
        "has_played": true,
        "id": 23928709,
        "last_rank": 36624,
        "player_name": "Ahmed Enad",
        "rank": 54594,
        "rank_sort": 54741,
        "total": 2349
      },
      {
        "club_badge_src": null,
        "entry": 3242354,
        "entry_name": "Kante Touch This",
        "event_total": 62,
        "has_played": true,
        "id": 23983744,
        "last_rank": 64005,
        "player_name": "Thomas Chesley",
        "rank": 54594,
        "rank_sort": 54742,
        "total": 2349
      },
      {
        "club_badge_src": null,
        "entry": 3271725,
        "entry_name": "Chippy Chip Munchers",
        "event_total": 71,
        "has_played": true,
        "id": 24212264,
        "last_rank": 73038,
        "player_name": "Adam Hammond",
        "rank": 54594,
        "rank_sort": 54743,
        "total": 2349
      },
      {
        "club_badge_src": null,
        "entry": 3285917,
        "entry_name": "Finn",
        "event_total": 64,
        "has_played": true,
        "id": 24324611,
        "last_rank": 67063,
        "player_name": "Temidayo Olaiya",
        "rank": 54594,
        "rank_sort": 54744,
        "total": 2349
      },
      {
        "club_badge_src": null,
        "entry": 3349138,
        "entry_name": "Bayer Neverlosin",
        "event_total": 58,
        "has_played": true,
        "id": 24845052,
        "last_rank": 56708,
        "player_name": "Lee Watton",
        "rank": 54594,
        "rank_sort": 54745,
        "total": 2349
      },
      {
        "club_badge_src": null,
        "entry": 3385331,
        "entry_name": "Maeda money",
        "event_total": 60,
        "has_played": true,
        "id": 25130576,
        "last_rank": 60462,
        "player_name": "Graham Buntain",
        "rank": 54594,
        "rank_sort": 54746,
        "total": 2349
      },
      {
        "club_badge_src": null,
        "entry": 3478185,
        "entry_name": "Academics",
        "event_total": 55,
        "has_played": true,
        "id": 25862440,
        "last_rank": 45714,
        "player_name": "Hans Eliassen",
        "rank": 54594,
        "rank_sort": 54747,
        "total": 2349
      },
      {
        "club_badge_src": null,
        "entry": 3539573,
        "entry_name": "Rodrigo14 \ufffd",
        "event_total": 65,
        "has_played": true,
        "id": 26347119,
        "last_rank": 69323,
        "player_name": "\u015c\u0127\u00ea\u0159\u012ff \u0102S\u0127\u0159\u0103f",
        "rank": 54594,
        "rank_sort": 54748,
        "total": 2349
      },
      {
        "club_badge_src": "https://fantasy.premierleague.com/gcs/plfpl-production-adobe-approved/plfpl-production/3591743/144c1611-ecde-4090-aeaf-a6d9434c25a4.png",
        "entry": 3591743,
        "entry_name": "WE ARE CHAMPIONS",
        "event_total": 66,
        "has_played": true,
        "id": 26749517,
        "last_rank": 71386,
        "player_name": "Mehdi Vaziri",
        "rank": 54594,
        "rank_sort": 54749,
        "total": 2349
      },
      {
        "club_badge_src": null,
        "entry": 3620742,
        "entry_name": "SmogOnTheTyne",
        "event_total": 62,
        "has_played": true,
        "id": 26976312,
        "last_rank": 63390,
        "player_name": "Bryce Marshall",
        "rank": 54594,
        "rank_sort": 54750,
        "total": 2349
      }
    ]
  }
}