{
  "last_updated_data": "2026-05-24T23:28:17Z",
  "league": {
    "admin_entry": null,
    "closed": false,
    "code_privacy": "p",
    "created": "2025-07-20T23:14:33.933835Z",
    "cup_league": 2815434,
    "has_cup": true,
    "id": 314,
    "league_type": "s",
    "max_entries": null,
    "name": "Overall",
    "rank": null,
    "scoring": "c",
    "start_event": 1
  },
  "new_entries": {
    "has_next": false,
    "page": 1,
    "results": []
  },
  "standings": {
    "has_next": true,
    "page": 399,
    "results": [
      {
        "club_badge_src": null,
        "entry": 85036,
        "entry_name": "Baytown United",
        "event_total": 61,
        "has_played": true,
        "id": 553729,
        "last_rank": 22534,
        "player_name": "Phil M",
        "rank": 19880,
        "rank_sort": 19901,
        "total": 2380
      },
      {
        "club_badge_src": "https://fantasy.premierleague.com/gcs/plfpl-production-adobe-approved/plfpl-production/92697/13f8c169-9f68-4359-9228-5e9983de438a.png",
        "entry": 92697,
        "entry_name": "\u271f\u271f",
        "event_total": 70,
        "has_played": true,
        "id": 605751,
        "last_rank": 30600,
        "player_name": "fergie .",
        "rank": 19880,
        "rank_sort": 19902,
        "total": 2380
      },
      {
        "club_badge_src": null,
        "entry": 100048,
        "entry_name": "Hutch's Heroes",
        "event_total": 61,
        "has_played": true,
        "id": 652991,
        "last_rank": 22534,
        "player_name": "Carl Hutchings",
        "rank": 19880,
        "rank_sort": 19903,
        "total": 2380
      },
      {
        "club_badge_src": "https://fantasy.premierleague.com/gcs/plfpl-production-adobe-approved/plfpl-production/100093/efc7316b-f6fb-46f8-b59d-86b2db3ed62a.png",
        "entry": 100093,
        "entry_name": "Nonverbally",
        "event_total": 64,
        "has_played": true,
        "id": 653270,
        "last_rank": 25002,
        "player_name": "ALIAKSEI KOSTIOUKOV",
        "rank": 19880,
        "rank_sort": 19904,
        "total": 2380
      },
      {
        "club_badge_src": null,
        "entry": 115953,
        "entry_name": "Way2Eze",
        "event_total": 67,
        "has_played": true,
        "id": 756903,
        "last_rank": 27770,
        "player_name": "Matt Hollands",
        "rank": 19880,
        "rank_sort": 19905,
        "total": 2380
      },
      {
        "club_badge_src": null,
        "entry": 137994,
        "entry_name": "FSV Miriam 05",
        "event_total": 69,
        "has_played": true,
        "id": 899906,
        "last_rank": 29578,
        "player_name": "Miriam Warburton",
        "rank": 19880,
        "rank_sort": 19906,
        "total": 2380
      },
      {
        "club_badge_src": null,
        "entry": 143409,
        "entry_name": "Bottle Job FC",
        "event_total": 49,
        "has_played": true,
        "id": 938254,
        "last_rank": 14370,
        "player_name": "Tom Henty",
        "rank": 19880,
        "rank_sort": 19907,
        "total": 2380
      },
      {
        "club_badge_src": null,
        "entry": 151763,
        "entry_name": "Lucky dip",
        "event_total": 52,
        "has_played": true,
        "id": 995768,
        "last_rank": 16163,
        "player_name": "Adrian Matthews",
        "rank": 19880,
        "rank_sort": 19908,
        "total": 2380
      },
      {
        "club_badge_src": null,
        "entry": 161835,
        "entry_name": "El Matadonny",
        "event_total": 69,
        "has_played": true,
        "id": 1066411,
        "last_rank": 29688,
        "player_name": "Tomas Tomas",
        "rank": 19880,
        "rank_sort": 19909,
        "total": 2380
      },
      {
        "club_badge_src": null,
        "entry": 171553,
        "entry_name": "JP ball",
        "event_total": 51,
        "has_played": true,
        "id": 1133272,
        "last_rank": 15452,
        "player_name": "Sebastian Lindqvist",
        "rank": 19880,
        "rank_sort": 19910,
        "total": 2380
      },
      {
        "club_badge_src": null,
        "entry": 237460,
        "entry_name": "Lad from Portugal",
        "event_total": 57,
        "has_played": true,
        "id": 1579876,
        "last_rank": 19432,
        "player_name": "Mrinal Mohanka",
        "rank": 19880,
        "rank_sort": 19911,
        "total": 2380
      },
      {
        "club_badge_src": null,
        "entry": 242888,
        "entry_name": "Bomb Squad",
        "event_total": 66,
        "has_played": true,
        "id": 1617331,
        "last_rank": 26827,
        "player_name": "James Smith",
        "rank": 19880,
        "rank_sort": 19912,
        "total": 2380
      },
      {
        "club_badge_src": null,
        "entry": 255294,
        "entry_name": "Fehri",
        "event_total": 76,
        "has_played": true,
        "id": 1698118,
        "last_rank": 37376,
        "player_name": "Fehri Helmi",
        "rank": 19880,
        "rank_sort": 19913,
        "total": 2380
      },
      {
        "club_badge_src": null,
        "entry": 275619,
        "entry_name": "TommyBoy",
        "event_total": 65,
        "has_played": true,
        "id": 1834394,
        "last_rank": 25776,
        "player_name": "Thomas Callahan",
        "rank": 19880,
        "rank_sort": 19914,
        "total": 2380
      },
      {
        "club_badge_src": null,
        "entry": 281115,
        "entry_name": "short back & stompin",
        "event_total": 68,
        "has_played": true,
        "id": 1870646,
        "last_rank": 28609,
        "player_name": "Benjamin Bradshaw",
        "rank": 19880,
        "rank_sort": 19915,
        "total": 2380
      },
      {
        "club_badge_src": null,
        "entry": 287923,
        "entry_name": "Change Name",
        "event_total": 59,
        "has_played": true,
        "id": 1918940,
        "last_rank": 20888,
        "player_name": "Kurtis Faye",
        "rank": 19880,
        "rank_sort": 19916,
        "total": 2380
      },
      {
        "club_badge_src": null,
        "entry": 372917,
        "entry_name": "Zirkzee Me Rolling",
        "event_total": 59,
        "has_played": true,
        "id": 2495126,
        "last_rank": 20983,
        "player_name": "Finlay Gregory",
        "rank": 19880,
        "rank_sort": 19917,
        "total": 2380
      },
      {
        "club_badge_src": null,
        "entry": 501654,
        "entry_name": "Alisson Chains",
        "event_total": 77,
        "has_played": true,
        "id": 3366734,
        "last_rank": 38571,
        "player_name": "alan kehoe",
        "rank": 19880,
        "rank_sort": 19918,
        "total": 2380
      },
      {
        "club_badge_src": "https://fantasy.premierleague.com/gcs/plfpl-production-adobe-approved/plfpl-production/519535/5d0abeee-10cc-4c12-af97-7e9f547e6ac8.png",
        "entry": 519535,
        "entry_name": "R",
        "event_total": 77,
        "has_played": true,
        "id": 3488463,
        "last_rank": 38644,
        "player_name": "Riasat Azim",
        "rank": 19880,
        "rank_sort": 19919,
        "total": 2380
      },
      {
        "club_badge_src": null,
        "entry": 531911,
        "entry_name": "Inter Row Z",
        "event_total": 67,
        "has_played": true,
        "id": 3577728,
        "last_rank": 27976,
        "player_name": "Bilal Ahmed",
        "rank": 19880,
        "rank_sort": 19920,
        "total": 2380
      },
      {
        "club_badge_src": null,
        "entry": 542738,
        "entry_name": "bububu",
        "event_total": 61,
        "has_played": true,
        "id": 3652854,
        "last_rank": 22534,
        "player_name": "Jakub Vojta",
        "rank": 19880,
        "rank_sort": 19921,
        "total": 2380
      },
      {
        "club_badge_src": "https://fantasy.premierleague.com/gcs/plfpl-production-adobe-approved/plfpl-production/583969/2a352415-ed4f-4609-a8c7-c5d846500b0c.png",
        "entry": 583969,
        "entry_name": "Saka White Rice",
        "event_total": 62,
        "has_played": true,
        "id": 3930008,
        "last_rank": 23341,
        "player_name": "Dave S",
        "rank": 19880,
        "rank_sort": 19922,
        "total": 2380
      },
      {
        "club_badge_src": null,
        "entry": 601247,
        "entry_name": "Lil Uzi Wirtz",
        "event_total": 60,
        "has_played": true,
        "id": 4056933,
        "last_rank": 21628,
        "player_name": "Stephen Malone",
        "rank": 19880,
        "rank_sort": 19923,
        "total": 2380
      },
      {
        "club_badge_src": null,
        "entry": 609843,
        "entry_name": "Calafiori Dreamin",
        "event_total": 69,
        "has_played": true,
        "id": 4119786,
        "last_rank": 29688,
        "player_name": "George Haynes",
        "rank": 19880,
        "rank_sort": 19924,
        "total": 2380
      },
      {
        "club_badge_src": "https://fantasy.premierleague.com/gcs/plfpl-production-adobe-approved/plfpl-production/619261/db066fe9-8f6f-4d9a-9b64-dc2ae9a2b6de.png",
        "entry": 619261,
        "entry_name": "Pepperoni Calzone",
        "event_total": 56,
        "has_played": true,
        "id": 4184548,
        "last_rank": 18790,
        "player_name": "Lewis Prangnell",
        "rank": 19880,
        "rank_sort": 19925,
        "total": 2380
      },
      {
        "club_badge_src": null,
        "entry": 739543,
        "entry_name": "1.FC Dirkelbert",
        "event_total": 66,
        "has_played": true,
        "id": 5028269,
        "last_rank": 26827,
        "player_name": "Dirk Engelbert",
        "rank": 19880,
        "rank_sort": 19926,
        "total": 2380
      },
      {
        "club_badge_src": null,
        "entry": 752824,
        "entry_name": "Livin Saliba Loca",
        "event_total": 69,
        "has_played": true,
        "id": 5122844,
        "last_rank": 25729,
        "player_name": "James Wills",
        "rank": 19880,
        "rank_sort": 19927,
        "total": 2380
      },
      {
        "club_badge_src": null,
        "entry": 775020,
        "entry_name": "BlueLions",
        "event_total": 70,
        "has_played": true,
        "id": 5287942,
        "last_rank": 30536,
        "player_name": "Rakesh Krishnan",
        "rank": 19880,
        "rank_sort": 19928,
        "total": 2380
      },
      {
        "club_badge_src": null,
        "entry": 816230,
        "entry_name": "Bestefar Ruth",
        "event_total": 73,
        "has_played": true,
        "id": 5589511,
        "last_rank": 33936,
        "player_name": "Ruth Gimse",
        "rank": 19880,
        "rank_sort": 19929,
        "total": 2380
      },
      {
        "club_badge_src": null,
        "entry": 900037,
        "entry_name": "ribaiaron20",
        "event_total": 57,
        "has_played": true,
        "id": 6184089,
        "last_rank": 19432,
        "player_name": "Aron Ribai",
        "rank": 19880,
        "rank_sort": 19930,
        "total": 2380
      },
      {
        "club_badge_src": null,
        "entry": 932151,
        "entry_name": "Act of Todd",
        "event_total": 65,
        "has_played": true,
        "id": 6414138,
        "last_rank": 25776,
        "player_name": "Kofi Baah",
        "rank": 19880,
        "rank_sort": 19931,
        "total": 2380
      },
      {
        "club_badge_src": "https://fantasy.premierleague.com/gcs/plfpl-production-adobe-approved/plfpl-production/992086/d3e896ee-ce7e-4e34-8ef3-77b86081db7d.png",
        "entry": 992086,
        "entry_name": "Poyraz XI",
        "event_total": 50,
        "has_played": true,
        "id": 6841503,
        "last_rank": 15063,
        "player_name": "Emre Poyraz",
        "rank": 19880,
        "rank_sort": 19932,
        "total": 2380
      },
      {
        "club_badge_src": null,
        "entry": 1007989,
        "entry_name": "Girl team",
        "event_total": 54,
        "has_played": true,
        "id": 6968923,
        "last_rank": 17358,
        "player_name": "Andrea Flateb\u00f8",
        "rank": 19880,
        "rank_sort": 19933,
        "total": 2380
      },
      {
        "club_badge_src": null,
        "entry": 1036083,
        "entry_name": "Bruno Dos Tres",
        "event_total": 56,
        "has_played": true,
        "id": 7169765,
        "last_rank": 18790,
        "player_name": "Joe Malloy",
        "rank": 19880,
        "rank_sort": 19934,
        "total": 2380
      },
      {
        "club_badge_src": null,
        "entry": 1084597,
        "entry_name": "Onana what's my name",
        "event_total": 79,
        "has_played": true,
        "id": 7510599,
        "last_rank": 41101,
        "player_name": "Lennon Woodmass",
        "rank": 19880,
        "rank_sort": 19935,
        "total": 2380
      },
      {
        "club_badge_src": null,
        "entry": 1180831,
        "entry_name": "Obi One Kenobi Nil",
        "event_total": 80,
        "has_played": true,
        "id": 8192952,
        "last_rank": 42648,
        "player_name": "Dilshan Hettiarachchi",
        "rank": 19880,
        "rank_sort": 19936,
        "total": 2380
      },
      {
        "club_badge_src": null,
        "entry": 1204517,
        "entry_name": "thekop - ptit",
        "event_total": 55,
        "has_played": true,
        "id": 8358958,
        "last_rank": 18029,
        "player_name": "NC Duc",
        "rank": 19880,
        "rank_sort": 19937,
        "total": 2380
      },
      {
        "club_badge_src": null,
        "entry": 1274857,
        "entry_name": "Sunde on the Beach",
        "event_total": 63,
        "has_played": true,
        "id": 8858493,
        "last_rank": 23990,
        "player_name": "Magnus Sundberg Heilmann-Clausen",
        "rank": 19880,
        "rank_sort": 19938,
        "total": 2380
      },
      {
        "club_badge_src": null,
        "entry": 1309871,
        "entry_name": "Wataru doing?",
        "event_total": 57,
        "has_played": true,
        "id": 9104742,
        "last_rank": 19432,
        "player_name": "Simon Ramsay",
        "rank": 19880,
        "rank_sort": 19939,
        "total": 2380
      },
      {
        "club_badge_src": null,
        "entry": 1350499,
        "entry_name": "Back on track",
        "event_total": 68,
        "has_played": true,
        "id": 9388613,
        "last_rank": 28609,
        "player_name": "Brian Chan",
        "rank": 19880,
        "rank_sort": 19940,
        "total": 2380
      },
      {
        "club_badge_src": null,
        "entry": 1360676,
        "entry_name": "Slot O'clock",
        "event_total": 55,
        "has_played": true,
        "id": 9457821,
        "last_rank": 18113,
        "player_name": "Edward Dean",
        "rank": 19880,
        "rank_sort": 19941,
        "total": 2380
      },
      {
        "club_badge_src": null,
        "entry": 1389489,
        "entry_name": "goon gang fc",
        "event_total": 69,
        "has_played": true,
        "id": 9665253,
        "last_rank": 29904,
        "player_name": "Angus See",
        "rank": 19880,
        "rank_sort": 19942,
        "total": 2380
      },
      {
        "club_badge_src": null,
        "entry": 1416198,
        "entry_name": "D\u00edddy P\u0105rtey",
        "event_total": 67,
        "has_played": true,
        "id": 9860089,
        "last_rank": 27644,
        "player_name": "Thomas Smith",
        "rank": 19880,
        "rank_sort": 19943,
        "total": 2380
      },
      {
        "club_badge_src": null,
        "entry": 1481929,
        "entry_name": "TooHotspursToHandle",
        "event_total": 56,
        "has_played": true,
        "id": 10333852,
        "last_rank": 16029,
        "player_name": "Helga Kesek",
        "rank": 19880,
        "rank_sort": 19944,
        "total": 2380
      },
      {
        "club_badge_src": null,
        "entry": 1589348,
        "entry_name": "MichielVerh",
        "event_total": 56,
        "has_played": true,
        "id": 11112676,
        "last_rank": 18985,
        "player_name": "Michiel Verheule",
        "rank": 19880,
        "rank_sort": 19945,
        "total": 2380
      },
      {
        "club_badge_src": null,
        "entry": 1700874,
        "entry_name": "MastertheFlow",
        "event_total": 56,
        "has_played": true,
        "id": 11914280,
        "last_rank": 18790,
        "player_name": "Ming Cher Teo",
        "rank": 19880,
        "rank_sort": 19946,
        "total": 2380
      },
      {
        "club_badge_src": null,
        "entry": 1947508,
        "entry_name": "livin' lavia loca!",
        "event_total": 56,
        "has_played": true,
        "id": 13737573,
        "last_rank": 18985,
        "player_name": "Tom Mort",
        "rank": 19880,
        "rank_sort": 19947,
        "total": 2380
      },
      {
        "club_badge_src": null,
        "entry": 1966949,
        "entry_name": "hbm",
        "event_total": 55,
        "has_played": true,
        "id": 13880681,
        "last_rank": 18113,
        "player_name": "Hamad Bakar",
        "rank": 19880,
        "rank_sort": 19948,
        "total": 2380
      },
      {
        "club_badge_src": null,
        "entry": 1982255,
        "entry_name": "Brennan Jerrys",
        "event_total": 65,
        "has_played": true,
        "id": 14000840,
        "last_rank": 25902,
        "player_name": "Jake Murphy",
        "rank": 19880,
        "rank_sort": 19949,
        "total": 2380
      },
      {
        "club_badge_src": "https://fantasy.premierleague.com/gcs/plfpl-production-adobe-approved/plfpl-production/1989988/be70c64c-bbfd-463e-9004-6c4f4da9e428.png",
        "entry": 1989988,
        "entry_name": "FrozenXI",
        "event_total": 70,
        "has_played": true,
        "id": 14059055,
        "last_rank": 30600,
        "player_name": "Ashish Parajuli",
        "rank": 19880,
        "rank_sort": 19950,
        "total": 2380
      }
    ]
  }
}