{
  "last_updated_data": "2026-05-24T23:28:17Z",
  "league": {
    "admin_entry": null,
    "closed": false,
    "code_privacy": "p",
    "created": "2025-07-20T23:14:33.933835Z",
    "cup_league": 2815434,
    "has_cup": true,
    "id": 314,
    "league_type": "s",
    "max_entries": null,
    "name": "Overall",
    "rank": null,
    "scoring": "c",
    "start_event": 1
  },
  "new_entries": {
    "has_next": false,
    "page": 1,
    "results": []
  },
  "standings": {
    "has_next": true,
    "page": 1511,
    "results": [
      {
        "club_badge_src": null,
        "entry": 129676,
        "entry_name": "Ben's Barmy Army",
        "event_total": 69,
        "has_played": true,
        "id": 845121,
        "last_rank": 105963,
        "player_name": "Ben New",
        "rank": 75494,
        "rank_sort": 75501,
        "total": 2337
      },
      {
        "club_badge_src": null,
        "entry": 168354,
        "entry_name": "Jimmyma7",
        "event_total": 39,
        "has_played": true,
        "id": 1112736,
        "last_rank": 45182,
        "player_name": "Jimmy Ma",
        "rank": 75494,
        "rank_sort": 75502,
        "total": 2337
      },
      {
        "club_badge_src": null,
        "entry": 170395,
        "entry_name": "CuCuCubarsi",
        "event_total": 54,
        "has_played": true,
        "id": 1125785,
        "last_rank": 70985,
        "player_name": "Abhinav Sinha",
        "rank": 75494,
        "rank_sort": 75503,
        "total": 2337
      },
      {
        "club_badge_src": "https://fantasy.premierleague.com/gcs/plfpl-production-adobe-approved/plfpl-production/186380/3d8235ef-3db7-48a1-80de-8465a19f47cc.png",
        "entry": 186380,
        "entry_name": "Pique Blinders",
        "event_total": 53,
        "has_played": true,
        "id": 1231742,
        "last_rank": 68624,
        "player_name": "Jack Thorogood",
        "rank": 75494,
        "rank_sort": 75504,
        "total": 2337
      },
      {
        "club_badge_src": "https://fantasy.premierleague.com/gcs/plfpl-production-adobe-approved/plfpl-production/199420/7bdb8c94-e9b4-456e-b6f5-e2545eeebf83.png",
        "entry": 199420,
        "entry_name": "The Maduekening",
        "event_total": 48,
        "has_played": true,
        "id": 1323540,
        "last_rank": 59813,
        "player_name": "Samuel Agosti",
        "rank": 75494,
        "rank_sort": 75505,
        "total": 2337
      },
      {
        "club_badge_src": null,
        "entry": 201491,
        "entry_name": "Holy Boehly",
        "event_total": 53,
        "has_played": true,
        "id": 1337861,
        "last_rank": 68624,
        "player_name": "Jai Kalair",
        "rank": 75494,
        "rank_sort": 75506,
        "total": 2337
      },
      {
        "club_badge_src": null,
        "entry": 218558,
        "entry_name": "nouha nail",
        "event_total": 36,
        "has_played": true,
        "id": 1453443,
        "last_rank": 41324,
        "player_name": "Nouha Nail",
        "rank": 75494,
        "rank_sort": 75507,
        "total": 2337
      },
      {
        "club_badge_src": null,
        "entry": 240985,
        "entry_name": "LosBlancos",
        "event_total": 57,
        "has_played": true,
        "id": 1603958,
        "last_rank": 77258,
        "player_name": "Kristijan Nikolov",
        "rank": 75494,
        "rank_sort": 75508,
        "total": 2337
      },
      {
        "club_badge_src": null,
        "entry": 244602,
        "entry_name": "Levites",
        "event_total": 37,
        "has_played": true,
        "id": 1628527,
        "last_rank": 42648,
        "player_name": "Malcolm Levy",
        "rank": 75494,
        "rank_sort": 75509,
        "total": 2337
      },
      {
        "club_badge_src": null,
        "entry": 296297,
        "entry_name": "Junior Junior Firpo",
        "event_total": 56,
        "has_played": true,
        "id": 1979604,
        "last_rank": 74898,
        "player_name": "Caspar Ramsay",
        "rank": 75494,
        "rank_sort": 75510,
        "total": 2337
      },
      {
        "club_badge_src": null,
        "entry": 306412,
        "entry_name": "Collings Cabana",
        "event_total": 72,
        "has_played": true,
        "id": 2052030,
        "last_rank": 114095,
        "player_name": "James Collings",
        "rank": 75494,
        "rank_sort": 75511,
        "total": 2337
      },
      {
        "club_badge_src": null,
        "entry": 329571,
        "entry_name": "Rolls Rice",
        "event_total": 53,
        "has_played": true,
        "id": 2207682,
        "last_rank": 68748,
        "player_name": "Josh Cowling",
        "rank": 75494,
        "rank_sort": 75512,
        "total": 2337
      },
      {
        "club_badge_src": null,
        "entry": 347557,
        "entry_name": "SpizyHeadFC",
        "event_total": 68,
        "has_played": true,
        "id": 2326343,
        "last_rank": 103130,
        "player_name": "Rapee Dokmaithes",
        "rank": 75494,
        "rank_sort": 75513,
        "total": 2337
      },
      {
        "club_badge_src": "https://fantasy.premierleague.com/gcs/plfpl-production-adobe-approved/plfpl-production/376814/bde3ac64-2149-4ce3-a91f-468064f8d543.png",
        "entry": 376814,
        "entry_name": "Yusless",
        "event_total": 61,
        "has_played": true,
        "id": 2523920,
        "last_rank": 85870,
        "player_name": "yusuf Mehmet",
        "rank": 75494,
        "rank_sort": 75514,
        "total": 2337
      },
      {
        "club_badge_src": null,
        "entry": 404261,
        "entry_name": "Fantasy ka Sultan",
        "event_total": 60,
        "has_played": true,
        "id": 2710644,
        "last_rank": 83584,
        "player_name": "Maiwand Sultan",
        "rank": 75494,
        "rank_sort": 75515,
        "total": 2337
      },
      {
        "club_badge_src": null,
        "entry": 406266,
        "entry_name": "Lapin Agile",
        "event_total": 62,
        "has_played": true,
        "id": 2723930,
        "last_rank": 88249,
        "player_name": "Fredrik Joachim Gjestland",
        "rank": 75494,
        "rank_sort": 75516,
        "total": 2337
      },
      {
        "club_badge_src": null,
        "entry": 437595,
        "entry_name": "SCCR7CIME14",
        "event_total": 69,
        "has_played": true,
        "id": 2934417,
        "last_rank": 105963,
        "player_name": "Simon Colnar",
        "rank": 75494,
        "rank_sort": 75517,
        "total": 2337
      },
      {
        "club_badge_src": null,
        "entry": 502909,
        "entry_name": "Childish Gambruno",
        "event_total": 35,
        "has_played": true,
        "id": 3375691,
        "last_rank": 40036,
        "player_name": "Rajan Upil",
        "rank": 75494,
        "rank_sort": 75518,
        "total": 2337
      },
      {
        "club_badge_src": null,
        "entry": 503598,
        "entry_name": "Lamine Yashmall",
        "event_total": 61,
        "has_played": true,
        "id": 3380379,
        "last_rank": 85932,
        "player_name": "Alastair Calotier",
        "rank": 75494,
        "rank_sort": 75519,
        "total": 2337
      },
      {
        "club_badge_src": null,
        "entry": 527696,
        "entry_name": "\u00der\u00e1hyggjup\u00e9sar",
        "event_total": 48,
        "has_played": true,
        "id": 3547529,
        "last_rank": 59632,
        "player_name": "Thorkell Jonsson",
        "rank": 75494,
        "rank_sort": 75520,
        "total": 2337
      },
      {
        "club_badge_src": null,
        "entry": 565556,
        "entry_name": "MaybethisYear",
        "event_total": 39,
        "has_played": true,
        "id": 3806651,
        "last_rank": 45182,
        "player_name": "nick mordey",
        "rank": 75494,
        "rank_sort": 75521,
        "total": 2337
      },
      {
        "club_badge_src": "https://fantasy.premierleague.com/gcs/plfpl-production-adobe-approved/plfpl-production/620761/0a89851d-7259-49dd-8f57-84a971874cf5.png",
        "entry": 620761,
        "entry_name": "Skyshard",
        "event_total": 64,
        "has_played": true,
        "id": 4195113,
        "last_rank": 93052,
        "player_name": "Imran Nasir",
        "rank": 75494,
        "rank_sort": 75522,
        "total": 2337
      },
      {
        "club_badge_src": "https://fantasy.premierleague.com/gcs/plfpl-production-adobe-approved/plfpl-production/696174/e7114b53-d2d4-4119-8f1d-a236519730b8.png",
        "entry": 696174,
        "entry_name": "Celtic 4.0",
        "event_total": 53,
        "has_played": true,
        "id": 4715345,
        "last_rank": 68624,
        "player_name": "Dan Zacchilli",
        "rank": 75494,
        "rank_sort": 75523,
        "total": 2337
      },
      {
        "club_badge_src": null,
        "entry": 722853,
        "entry_name": "Schwarzensteiger",
        "event_total": 68,
        "has_played": true,
        "id": 4909354,
        "last_rank": 103054,
        "player_name": "Dami\u00e3o Costa",
        "rank": 75494,
        "rank_sort": 75524,
        "total": 2337
      },
      {
        "club_badge_src": null,
        "entry": 756688,
        "entry_name": "Diogo20",
        "event_total": 72,
        "has_played": true,
        "id": 5151715,
        "last_rank": 114574,
        "player_name": "Saeed Borhani",
        "rank": 75494,
        "rank_sort": 75525,
        "total": 2337
      },
      {
        "club_badge_src": null,
        "entry": 822004,
        "entry_name": "tel tel sahur",
        "event_total": 45,
        "has_played": true,
        "id": 5629664,
        "last_rank": 54667,
        "player_name": "Ben Carlin",
        "rank": 75494,
        "rank_sort": 75526,
        "total": 2337
      },
      {
        "club_badge_src": null,
        "entry": 861729,
        "entry_name": "Eager Beavers",
        "event_total": 50,
        "has_played": true,
        "id": 5907455,
        "last_rank": 63201,
        "player_name": "Steven Do",
        "rank": 75494,
        "rank_sort": 75527,
        "total": 2337
      },
      {
        "club_badge_src": null,
        "entry": 944115,
        "entry_name": "Barkman Fremad",
        "event_total": 62,
        "has_played": true,
        "id": 6502614,
        "last_rank": 88249,
        "player_name": "Adrian Barkman",
        "rank": 75494,
        "rank_sort": 75528,
        "total": 2337
      },
      {
        "club_badge_src": null,
        "entry": 944588,
        "entry_name": "Joel Howden",
        "event_total": 57,
        "has_played": true,
        "id": 6505886,
        "last_rank": 77050,
        "player_name": "joe austin",
        "rank": 75494,
        "rank_sort": 75529,
        "total": 2337
      },
      {
        "club_badge_src": null,
        "entry": 982946,
        "entry_name": "Coal & Petrol",
        "event_total": 60,
        "has_played": true,
        "id": 6776994,
        "last_rank": 74787,
        "player_name": "Colin Morrison",
        "rank": 75494,
        "rank_sort": 75530,
        "total": 2337
      },
      {
        "club_badge_src": null,
        "entry": 988220,
        "entry_name": "P4LXY",
        "event_total": 57,
        "has_played": true,
        "id": 6813982,
        "last_rank": 77258,
        "player_name": "Shopon Pal",
        "rank": 75494,
        "rank_sort": 75531,
        "total": 2337
      },
      {
        "club_badge_src": null,
        "entry": 994099,
        "entry_name": "Zari Neville",
        "event_total": 53,
        "has_played": true,
        "id": 6858412,
        "last_rank": 68748,
        "player_name": "Uzair Zari",
        "rank": 75494,
        "rank_sort": 75532,
        "total": 2337
      },
      {
        "club_badge_src": null,
        "entry": 1010087,
        "entry_name": "Slots FC Tigers",
        "event_total": 45,
        "has_played": true,
        "id": 6984795,
        "last_rank": 54667,
        "player_name": "Sean Gray",
        "rank": 75494,
        "rank_sort": 75533,
        "total": 2337
      },
      {
        "club_badge_src": null,
        "entry": 1252401,
        "entry_name": "Kutlesh",
        "event_total": 71,
        "has_played": true,
        "id": 8698360,
        "last_rank": 111270,
        "player_name": "Martin Arsov",
        "rank": 75494,
        "rank_sort": 75534,
        "total": 2337
      },
      {
        "club_badge_src": null,
        "entry": 1404482,
        "entry_name": "404 Goal Not Found",
        "event_total": 50,
        "has_played": true,
        "id": 9772204,
        "last_rank": 63201,
        "player_name": "Daniel Salim",
        "rank": 75494,
        "rank_sort": 75535,
        "total": 2337
      },
      {
        "club_badge_src": null,
        "entry": 1452847,
        "entry_name": "KK",
        "event_total": 70,
        "has_played": true,
        "id": 10123470,
        "last_rank": 108689,
        "player_name": "Nimesh Niroula",
        "rank": 75494,
        "rank_sort": 75536,
        "total": 2337
      },
      {
        "club_badge_src": null,
        "entry": 1611411,
        "entry_name": "CHAMPIONS FC",
        "event_total": 62,
        "has_played": true,
        "id": 11274525,
        "last_rank": 88594,
        "player_name": "Joe Franz",
        "rank": 75494,
        "rank_sort": 75537,
        "total": 2337
      },
      {
        "club_badge_src": "https://fantasy.premierleague.com/gcs/plfpl-production-adobe-approved/plfpl-production/1705987/6e7d7b60-2b96-4d33-b8b1-17237948de33.png",
        "entry": 1705987,
        "entry_name": "Marc Guehi pride",
        "event_total": 87,
        "has_played": true,
        "id": 11951359,
        "last_rank": 163735,
        "player_name": "Peter Newman",
        "rank": 75494,
        "rank_sort": 75538,
        "total": 2337
      },
      {
        "club_badge_src": null,
        "entry": 1959804,
        "entry_name": "Amadness",
        "event_total": 46,
        "has_played": true,
        "id": 13826628,
        "last_rank": 56369,
        "player_name": "tam xixi",
        "rank": 75494,
        "rank_sort": 75539,
        "total": 2337
      },
      {
        "club_badge_src": null,
        "entry": 2032471,
        "entry_name": "It Really is Tram FC",
        "event_total": 57,
        "has_played": true,
        "id": 14389807,
        "last_rank": 77050,
        "player_name": "Jordan Martin",
        "rank": 75494,
        "rank_sort": 75540,
        "total": 2337
      },
      {
        "club_badge_src": null,
        "entry": 2057123,
        "entry_name": "Rani",
        "event_total": 56,
        "has_played": true,
        "id": 14573050,
        "last_rank": 75139,
        "player_name": "Rani Akram",
        "rank": 75494,
        "rank_sort": 75541,
        "total": 2337
      },
      {
        "club_badge_src": null,
        "entry": 2170376,
        "entry_name": "MOODY15\u26bd",
        "event_total": 67,
        "has_played": true,
        "id": 15431821,
        "last_rank": 100700,
        "player_name": "lee Warren",
        "rank": 75494,
        "rank_sort": 75542,
        "total": 2337
      },
      {
        "club_badge_src": null,
        "entry": 2364520,
        "entry_name": "The Konate Kid",
        "event_total": 43,
        "has_played": true,
        "id": 16877167,
        "last_rank": 51220,
        "player_name": "Sam Li",
        "rank": 75494,
        "rank_sort": 75543,
        "total": 2337
      },
      {
        "club_badge_src": "https://fantasy.premierleague.com/gcs/plfpl-production-adobe-approved/plfpl-production/2533391/bbf55e41-77d3-440c-80b5-83ba6b9ea1d2.png",
        "entry": 2533391,
        "entry_name": "CLL FC",
        "event_total": 43,
        "has_played": true,
        "id": 18154496,
        "last_rank": 51137,
        "player_name": "Mariano Paz",
        "rank": 75494,
        "rank_sort": 75544,
        "total": 2337
      },
      {
        "club_badge_src": "https://fantasy.premierleague.com/gcs/plfpl-production-adobe-approved/plfpl-production/2581393/c47b6353-b1ee-4534-b3d5-ccb6df18adae.png",
        "entry": 2581393,
        "entry_name": "The Implication XI",
        "event_total": 68,
        "has_played": true,
        "id": 18528267,
        "last_rank": 103130,
        "player_name": "hUsSaIn aLi",
        "rank": 75494,
        "rank_sort": 75545,
        "total": 2337
      },
      {
        "club_badge_src": null,
        "entry": 2639847,
        "entry_name": "Cigarettes &Gvardiol",
        "event_total": 55,
        "has_played": true,
        "id": 18973217,
        "last_rank": 72815,
        "player_name": "Mark Wilkinson",
        "rank": 75494,
        "rank_sort": 75546,
        "total": 2337
      },
      {
        "club_badge_src": null,
        "entry": 2645218,
        "entry_name": "BPMagic",
        "event_total": 49,
        "has_played": true,
        "id": 19012558,
        "last_rank": 61606,
        "player_name": "Tamas Turi",
        "rank": 75494,
        "rank_sort": 75547,
        "total": 2337
      },
      {
        "club_badge_src": "https://fantasy.premierleague.com/gcs/plfpl-production-adobe-approved/plfpl-production/2702548/97e56181-c1a3-44de-ba69-b86fb672ba9c.png",
        "entry": 2702548,
        "entry_name": "Dubravka Forever",
        "event_total": 55,
        "has_played": true,
        "id": 19441986,
        "last_rank": 72662,
        "player_name": "Andy Weaver",
        "rank": 75494,
        "rank_sort": 75548,
        "total": 2337
      },
      {
        "club_badge_src": null,
        "entry": 2797723,
        "entry_name": "hanging on by a fred",
        "event_total": 59,
        "has_played": true,
        "id": 20429202,
        "last_rank": 81244,
        "player_name": "Percy Williams",
        "rank": 75494,
        "rank_sort": 75549,
        "total": 2337
      },
      {
        "club_badge_src": "https://fantasy.premierleague.com/gcs/plfpl-production-adobe-approved/plfpl-production/2851649/cb6dd047-ed94-4ee3-a381-bf1186ee0769.png",
        "entry": 2851649,
        "entry_name": "Kobbie Wan Kenobi",
        "event_total": 58,
        "has_played": true,
        "id": 20850341,
        "last_rank": 79431,
        "player_name": "owen capewell",
        "rank": 75494,
        "rank_sort": 75550,
        "total": 2337
      }
    ]
  }
}