{
  "last_updated_data": "2026-05-24T23:28:17Z",
  "league": {
    "admin_entry": null,
    "closed": false,
    "code_privacy": "p",
    "created": "2025-07-20T23:14:33.933835Z",
    "cup_league": 2815434,
    "has_cup": true,
    "id": 314,
    "league_type": "s",
    "max_entries": null,
    "name": "Overall",
    "rank": null,
    "scoring": "c",
    "start_event": 1
  },
  "new_entries": {
    "has_next": false,
    "page": 1,
    "results": []
  },
  "standings": {
    "has_next": true,
    "page": 1081,
    "results": [
      {
        "club_badge_src": null,
        "entry": 7596024,
        "entry_name": "B1akr",
        "event_total": 46,
        "has_played": true,
        "id": 62229389,
        "last_rank": 38774,
        "player_name": "A7md -",
        "rank": 53919,
        "rank_sort": 54001,
        "total": 2349
      },
      {
        "club_badge_src": null,
        "entry": 8230682,
        "entry_name": "Ctrl Alt De Laet",
        "event_total": 58,
        "has_played": true,
        "id": 68033115,
        "last_rank": 56180,
        "player_name": "Mohamed Azat",
        "rank": 53919,
        "rank_sort": 54002,
        "total": 2349
      },
      {
        "club_badge_src": null,
        "entry": 8520676,
        "entry_name": "Skattefuften",
        "event_total": 46,
        "has_played": true,
        "id": 70836790,
        "last_rank": 38774,
        "player_name": "Magnus Arneberg-Bauer",
        "rank": 53919,
        "rank_sort": 54003,
        "total": 2349
      },
      {
        "club_badge_src": null,
        "entry": 8534256,
        "entry_name": "Zizou FC",
        "event_total": 52,
        "has_played": true,
        "id": 70967346,
        "last_rank": 46839,
        "player_name": "Prince Mac Mensah",
        "rank": 53919,
        "rank_sort": 54004,
        "total": 2349
      },
      {
        "club_badge_src": null,
        "entry": 8546990,
        "entry_name": "Leeds",
        "event_total": 50,
        "has_played": true,
        "id": 71089271,
        "last_rank": 43786,
        "player_name": "\u0141UKASZ KUBICA",
        "rank": 53919,
        "rank_sort": 54005,
        "total": 2349
      },
      {
        "club_badge_src": null,
        "entry": 8975795,
        "entry_name": "He's got Dalot",
        "event_total": 72,
        "has_played": true,
        "id": 75248160,
        "last_rank": 83498,
        "player_name": "Amir Falcon",
        "rank": 53919,
        "rank_sort": 54006,
        "total": 2349
      },
      {
        "club_badge_src": null,
        "entry": 9009029,
        "entry_name": "H A D",
        "event_total": 37,
        "has_played": true,
        "id": 75567261,
        "last_rank": 28726,
        "player_name": "\u0623\u0628\u0648 \u0627\u0644\u0645\u0647\u0627\u062c\u0631 \u062f\u064a\u0646\u0627\u0631",
        "rank": 53919,
        "rank_sort": 54007,
        "total": 2349
      },
      {
        "club_badge_src": null,
        "entry": 9229531,
        "entry_name": "G\u00e5rden",
        "event_total": 41,
        "has_played": true,
        "id": 77723533,
        "last_rank": 32688,
        "player_name": "Eljar Nasa",
        "rank": 53919,
        "rank_sort": 54008,
        "total": 2349
      },
      {
        "club_badge_src": null,
        "entry": 9418493,
        "entry_name": "Bo.JABER",
        "event_total": 81,
        "has_played": true,
        "id": 79551786,
        "last_rank": 85836,
        "player_name": "ABDULRAHMAN ALAZEMI",
        "rank": 53919,
        "rank_sort": 54009,
        "total": 2349
      },
      {
        "club_badge_src": null,
        "entry": 9880243,
        "entry_name": "FK Sarajevo",
        "event_total": 61,
        "has_played": true,
        "id": 83825477,
        "last_rank": 61411,
        "player_name": "Edin Ferhatovic",
        "rank": 53919,
        "rank_sort": 54010,
        "total": 2349
      },
      {
        "club_badge_src": null,
        "entry": 144,
        "entry_name": "Charli xGX",
        "event_total": 37,
        "has_played": true,
        "id": 798,
        "last_rank": 28726,
        "player_name": "Olly R",
        "rank": 54011,
        "rank_sort": 54011,
        "total": 2349
      },
      {
        "club_badge_src": "https://fantasy.premierleague.com/gcs/plfpl-production-adobe-approved/plfpl-production/683/00feb5da-a1d3-4cf3-a2cf-40c9771c9341.png",
        "entry": 683,
        "entry_name": "Pathetico Madrid",
        "event_total": 52,
        "has_played": true,
        "id": 3768,
        "last_rank": 46660,
        "player_name": "Will Powell",
        "rank": 54011,
        "rank_sort": 54012,
        "total": 2349
      },
      {
        "club_badge_src": null,
        "entry": 1830,
        "entry_name": "Noni your business",
        "event_total": 65,
        "has_played": true,
        "id": 10189,
        "last_rank": 68748,
        "player_name": "Dylan Berger",
        "rank": 54011,
        "rank_sort": 54013,
        "total": 2349
      },
      {
        "club_badge_src": null,
        "entry": 6586,
        "entry_name": "\u0183u\u1d09\u029eu\u1d09\u0265\u0287u\u028dop\u01ddp\u1d09sdn",
        "event_total": 69,
        "has_played": true,
        "id": 37823,
        "last_rank": 77050,
        "player_name": "Ben Crellin",
        "rank": 54011,
        "rank_sort": 54014,
        "total": 2349
      },
      {
        "club_badge_src": "https://fantasy.premierleague.com/gcs/plfpl-production-adobe-approved/plfpl-production/9689/15e0ec64-8379-48ff-be55-1201d751ca23.png",
        "entry": 9689,
        "entry_name": "Enter Shaqiri",
        "event_total": 63,
        "has_played": true,
        "id": 57050,
        "last_rank": 64943,
        "player_name": "Harvey Collis",
        "rank": 54011,
        "rank_sort": 54015,
        "total": 2349
      },
      {
        "club_badge_src": "https://fantasy.premierleague.com/gcs/plfpl-production-adobe-approved/plfpl-production/12055/8ab6b927-c546-4783-8eb2-378657b8b7f5.png",
        "entry": 12055,
        "entry_name": "Alevi FC",
        "event_total": 65,
        "has_played": true,
        "id": 71926,
        "last_rank": 68748,
        "player_name": "Alexander Fredriksson",
        "rank": 54011,
        "rank_sort": 54016,
        "total": 2349
      },
      {
        "club_badge_src": "https://fantasy.premierleague.com/gcs/plfpl-production-adobe-approved/plfpl-production/19480/b750372f-af91-498b-8254-31568c0c726a.png",
        "entry": 19480,
        "entry_name": "Harrythegoat FC",
        "event_total": 67,
        "has_played": true,
        "id": 121190,
        "last_rank": 72662,
        "player_name": "Harrison Whiteman",
        "rank": 54011,
        "rank_sort": 54017,
        "total": 2349
      },
      {
        "club_badge_src": null,
        "entry": 19905,
        "entry_name": "\u0644\u0646 \u062a\u0633\u064a\u0631 \u0644\u0648\u062d\u062f\u0643",
        "event_total": 51,
        "has_played": true,
        "id": 123900,
        "last_rank": 45182,
        "player_name": "\u0627\u0644\u0647\u062f\u0648\u0621 \u0627\u0644\u0635\u0627\u0645\u062a",
        "rank": 54011,
        "rank_sort": 54018,
        "total": 2349
      },
      {
        "club_badge_src": null,
        "entry": 21370,
        "entry_name": "Fergie Pikin",
        "event_total": 45,
        "has_played": true,
        "id": 133972,
        "last_rank": 37435,
        "player_name": "Mz. Nasa",
        "rank": 54011,
        "rank_sort": 54019,
        "total": 2349
      },
      {
        "club_badge_src": null,
        "entry": 32935,
        "entry_name": "Wirtz In Progress",
        "event_total": 53,
        "has_played": true,
        "id": 209778,
        "last_rank": 48363,
        "player_name": "Michael Kenrick",
        "rank": 54011,
        "rank_sort": 54020,
        "total": 2349
      },
      {
        "club_badge_src": null,
        "entry": 36059,
        "entry_name": "Joax",
        "event_total": 62,
        "has_played": true,
        "id": 230763,
        "last_rank": 63201,
        "player_name": "P T",
        "rank": 54011,
        "rank_sort": 54021,
        "total": 2349
      },
      {
        "club_badge_src": null,
        "entry": 52738,
        "entry_name": "Stretford Enders",
        "event_total": 46,
        "has_played": true,
        "id": 339103,
        "last_rank": 38774,
        "player_name": "Shaun Haden",
        "rank": 54011,
        "rank_sort": 54022,
        "total": 2349
      },
      {
        "club_badge_src": null,
        "entry": 56125,
        "entry_name": "Itoidi",
        "event_total": 59,
        "has_played": true,
        "id": 361484,
        "last_rank": 57857,
        "player_name": "Konrad Majer",
        "rank": 54011,
        "rank_sort": 54023,
        "total": 2349
      },
      {
        "club_badge_src": null,
        "entry": 60383,
        "entry_name": "Bornauw In The USA",
        "event_total": 41,
        "has_played": true,
        "id": 388785,
        "last_rank": 33147,
        "player_name": "Joshua Taylor",
        "rank": 54011,
        "rank_sort": 54024,
        "total": 2349
      },
      {
        "club_badge_src": null,
        "entry": 62690,
        "entry_name": "Hall Cunha Mateta",
        "event_total": 60,
        "has_played": true,
        "id": 404227,
        "last_rank": 59632,
        "player_name": "Berik Argimbayev",
        "rank": 54011,
        "rank_sort": 54025,
        "total": 2349
      },
      {
        "club_badge_src": null,
        "entry": 65394,
        "entry_name": "Bruno Dos Tres",
        "event_total": 49,
        "has_played": true,
        "id": 422131,
        "last_rank": 42940,
        "player_name": "David Hobby",
        "rank": 54011,
        "rank_sort": 54026,
        "total": 2349
      },
      {
        "club_badge_src": null,
        "entry": 70240,
        "entry_name": "Mark Ham United",
        "event_total": 60,
        "has_played": true,
        "id": 455977,
        "last_rank": 59632,
        "player_name": "John Markham",
        "rank": 54011,
        "rank_sort": 54027,
        "total": 2349
      },
      {
        "club_badge_src": null,
        "entry": 73838,
        "entry_name": "Maggie City United",
        "event_total": 67,
        "has_played": true,
        "id": 480002,
        "last_rank": 72662,
        "player_name": "Maggie Day",
        "rank": 54011,
        "rank_sort": 54028,
        "total": 2349
      },
      {
        "club_badge_src": null,
        "entry": 75660,
        "entry_name": "Cold World",
        "event_total": 57,
        "has_played": true,
        "id": 491930,
        "last_rank": 55014,
        "player_name": "Aryan Nath",
        "rank": 54011,
        "rank_sort": 54029,
        "total": 2349
      },
      {
        "club_badge_src": null,
        "entry": 76141,
        "entry_name": "SamFrancisco Lemans",
        "event_total": 51,
        "has_played": true,
        "id": 494994,
        "last_rank": 45252,
        "player_name": "Sam Coleman",
        "rank": 54011,
        "rank_sort": 54030,
        "total": 2349
      },
      {
        "club_badge_src": null,
        "entry": 77070,
        "entry_name": "Minhotspur",
        "event_total": 81,
        "has_played": true,
        "id": 500937,
        "last_rank": 106763,
        "player_name": "Tongpakorn Tongkiow",
        "rank": 54011,
        "rank_sort": 54031,
        "total": 2349
      },
      {
        "club_badge_src": null,
        "entry": 84687,
        "entry_name": "TeslaTrivelaTequila",
        "event_total": 61,
        "has_played": true,
        "id": 551407,
        "last_rank": 61411,
        "player_name": "Manoj Jayapprakash",
        "rank": 54011,
        "rank_sort": 54032,
        "total": 2349
      },
      {
        "club_badge_src": null,
        "entry": 100606,
        "entry_name": "Nilan",
        "event_total": 52,
        "has_played": true,
        "id": 656566,
        "last_rank": 46839,
        "player_name": "Niall Dewsbury",
        "rank": 54011,
        "rank_sort": 54033,
        "total": 2349
      },
      {
        "club_badge_src": null,
        "entry": 104855,
        "entry_name": "lisr",
        "event_total": 48,
        "has_played": true,
        "id": 683937,
        "last_rank": 41101,
        "player_name": "youssef Elamraoui",
        "rank": 54011,
        "rank_sort": 54034,
        "total": 2349
      },
      {
        "club_badge_src": null,
        "entry": 111844,
        "entry_name": "Peaky Reijnders",
        "event_total": 72,
        "has_played": true,
        "id": 729225,
        "last_rank": 83934,
        "player_name": "Deio Wood",
        "rank": 54011,
        "rank_sort": 54035,
        "total": 2349
      },
      {
        "club_badge_src": "https://fantasy.premierleague.com/gcs/plfpl-production-adobe-approved/plfpl-production/113438/8c3d10a1-2a3f-4d78-b1a6-85143af027b9.png",
        "entry": 113438,
        "entry_name": "TozaNostra",
        "event_total": 57,
        "has_played": true,
        "id": 739857,
        "last_rank": 54667,
        "player_name": "Svetozar Markovic",
        "rank": 54011,
        "rank_sort": 54036,
        "total": 2349
      },
      {
        "club_badge_src": null,
        "entry": 114335,
        "entry_name": "CWMH",
        "event_total": 40,
        "has_played": true,
        "id": 745798,
        "last_rank": 31747,
        "player_name": "Lee Xi Wen",
        "rank": 54011,
        "rank_sort": 54037,
        "total": 2349
      },
      {
        "club_badge_src": null,
        "entry": 114623,
        "entry_name": "Wirtzit V\u00e4hiss\u00e4",
        "event_total": 52,
        "has_played": true,
        "id": 747745,
        "last_rank": 46660,
        "player_name": "Markku Saarinen",
        "rank": 54011,
        "rank_sort": 54038,
        "total": 2349
      },
      {
        "club_badge_src": null,
        "entry": 115920,
        "entry_name": "TottenFrank FC",
        "event_total": 72,
        "has_played": true,
        "id": 756676,
        "last_rank": 83584,
        "player_name": "Helge Emil Rasmussen",
        "rank": 54011,
        "rank_sort": 54039,
        "total": 2349
      },
      {
        "club_badge_src": null,
        "entry": 116278,
        "entry_name": "AllTheSmallings **",
        "event_total": 75,
        "has_played": true,
        "id": 759103,
        "last_rank": 91006,
        "player_name": "Ryan Davies",
        "rank": 54011,
        "rank_sort": 54040,
        "total": 2349
      },
      {
        "club_badge_src": null,
        "entry": 126271,
        "entry_name": "The Bryce is Right",
        "event_total": 65,
        "has_played": true,
        "id": 823384,
        "last_rank": 68624,
        "player_name": "Bryce Clarke",
        "rank": 54011,
        "rank_sort": 54041,
        "total": 2349
      },
      {
        "club_badge_src": null,
        "entry": 136763,
        "entry_name": "Off is Herr Dibling",
        "event_total": 28,
        "has_played": true,
        "id": 891041,
        "last_rank": 20983,
        "player_name": "Brian Stevens",
        "rank": 54011,
        "rank_sort": 54042,
        "total": 2349
      },
      {
        "club_badge_src": null,
        "entry": 137779,
        "entry_name": "Championship Again",
        "event_total": 68,
        "has_played": true,
        "id": 898353,
        "last_rank": 75139,
        "player_name": "Connor Malone",
        "rank": 54011,
        "rank_sort": 54043,
        "total": 2349
      },
      {
        "club_badge_src": null,
        "entry": 151679,
        "entry_name": "Arsenul FC",
        "event_total": 63,
        "has_played": true,
        "id": 995204,
        "last_rank": 64943,
        "player_name": "GUILLAUME COURTIAL",
        "rank": 54011,
        "rank_sort": 54044,
        "total": 2349
      },
      {
        "club_badge_src": null,
        "entry": 181088,
        "entry_name": "nlb",
        "event_total": 66,
        "has_played": true,
        "id": 1195040,
        "last_rank": 70651,
        "player_name": "Nick LB",
        "rank": 54011,
        "rank_sort": 54045,
        "total": 2349
      },
      {
        "club_badge_src": null,
        "entry": 184539,
        "entry_name": "Bl\u00e5vitt",
        "event_total": 66,
        "has_played": true,
        "id": 1218614,
        "last_rank": 70985,
        "player_name": "Victor Berglind \u00d6rn",
        "rank": 54011,
        "rank_sort": 54046,
        "total": 2349
      },
      {
        "club_badge_src": null,
        "entry": 193505,
        "entry_name": "Eintracht Slotfurt",
        "event_total": 44,
        "has_played": true,
        "id": 1282622,
        "last_rank": 36624,
        "player_name": "Tristan Froats",
        "rank": 54011,
        "rank_sort": 54047,
        "total": 2349
      },
      {
        "club_badge_src": null,
        "entry": 205586,
        "entry_name": "PW4",
        "event_total": 55,
        "has_played": true,
        "id": 1366517,
        "last_rank": 51403,
        "player_name": "Prince Woni",
        "rank": 54011,
        "rank_sort": 54048,
        "total": 2349
      },
      {
        "club_badge_src": null,
        "entry": 208299,
        "entry_name": "Phils boys",
        "event_total": 66,
        "has_played": true,
        "id": 1384822,
        "last_rank": 70757,
        "player_name": "Philipp Hehn",
        "rank": 54011,
        "rank_sort": 54049,
        "total": 2349
      },
      {
        "club_badge_src": "https://fantasy.premierleague.com/gcs/plfpl-production-adobe-approved/plfpl-production/220991/4e4f4f19-8377-44fa-97bd-54e353401d36.png",
        "entry": 220991,
        "entry_name": "el capitano",
        "event_total": 64,
        "has_played": true,
        "id": 1469808,
        "last_rank": 66738,
        "player_name": "Sol Abiodun",
        "rank": 54011,
        "rank_sort": 54050,
        "total": 2349
      }
    ]
  }
}