{
  "last_updated_data": "2026-05-24T23:28:17Z",
  "league": {
    "admin_entry": null,
    "closed": false,
    "code_privacy": "p",
    "created": "2025-07-20T23:14:33.933835Z",
    "cup_league": 2815434,
    "has_cup": true,
    "id": 314,
    "league_type": "s",
    "max_entries": null,
    "name": "Overall",
    "rank": null,
    "scoring": "c",
    "start_event": 1
  },
  "new_entries": {
    "has_next": false,
    "page": 1,
    "results": []
  },
  "standings": {
    "has_next": true,
    "page": 302,
    "results": [
      {
        "club_badge_src": null,
        "entry": 3066028,
        "entry_name": "Definitely BenMee",
        "event_total": 48,
        "has_played": true,
        "id": 22574838,
        "last_rank": 8484,
        "player_name": "Matt Bell",
        "rank": 14986,
        "rank_sort": 15051,
        "total": 2388
      },
      {
        "club_badge_src": null,
        "entry": 3099218,
        "entry_name": "Bazz11",
        "event_total": 70,
        "has_played": true,
        "id": 22849606,
        "last_rank": 23341,
        "player_name": "Abdul Ali",
        "rank": 14986,
        "rank_sort": 15052,
        "total": 2388
      },
      {
        "club_badge_src": null,
        "entry": 3363590,
        "entry_name": "pokerma",
        "event_total": 61,
        "has_played": true,
        "id": 24958600,
        "last_rank": 14496,
        "player_name": "Arnel Helvida",
        "rank": 14986,
        "rank_sort": 15053,
        "total": 2388
      },
      {
        "club_badge_src": null,
        "entry": 3372644,
        "entry_name": "Can't Be Arsed",
        "event_total": 51,
        "has_played": true,
        "id": 25029694,
        "last_rank": 9536,
        "player_name": "Damian Trent",
        "rank": 14986,
        "rank_sort": 15054,
        "total": 2388
      },
      {
        "club_badge_src": null,
        "entry": 3677203,
        "entry_name": "ChickenTikkaMoSalah",
        "event_total": 53,
        "has_played": true,
        "id": 27426641,
        "last_rank": 12322,
        "player_name": "Gareth Davies",
        "rank": 14986,
        "rank_sort": 15055,
        "total": 2388
      },
      {
        "club_badge_src": "https://fantasy.premierleague.com/gcs/plfpl-production-adobe-approved/plfpl-production/3808204/2987c9ec-28f2-4818-92b6-c7f605dcac22.png",
        "entry": 3808204,
        "entry_name": "Batteriveiens Beste",
        "event_total": 65,
        "has_played": true,
        "id": 28473043,
        "last_rank": 16807,
        "player_name": "Erik Moe-Helgesen",
        "rank": 14986,
        "rank_sort": 15056,
        "total": 2388
      },
      {
        "club_badge_src": "https://fantasy.premierleague.com/gcs/plfpl-production-adobe-approved/plfpl-production/3878409/df8d7776-13f0-4c51-95d8-95de46e204b7.png",
        "entry": 3878409,
        "entry_name": "Katsagoal",
        "event_total": 62,
        "has_played": true,
        "id": 29140398,
        "last_rank": 15063,
        "player_name": "Dimitris Katsaounidis",
        "rank": 14986,
        "rank_sort": 15057,
        "total": 2388
      },
      {
        "club_badge_src": null,
        "entry": 3880866,
        "entry_name": "Escrusader",
        "event_total": 69,
        "has_played": true,
        "id": 29160060,
        "last_rank": 19544,
        "player_name": "Kyle Smith",
        "rank": 14986,
        "rank_sort": 15058,
        "total": 2388
      },
      {
        "club_badge_src": null,
        "entry": 4018980,
        "entry_name": "omar l7away",
        "event_total": 67,
        "has_played": true,
        "id": 30288908,
        "last_rank": 21301,
        "player_name": "Omar Bayd",
        "rank": 14986,
        "rank_sort": 15059,
        "total": 2388
      },
      {
        "club_badge_src": null,
        "entry": 4085009,
        "entry_name": "Heron\u2019s Heroes",
        "event_total": 63,
        "has_played": true,
        "id": 30840116,
        "last_rank": 18377,
        "player_name": "Stephen Heron",
        "rank": 14986,
        "rank_sort": 15060,
        "total": 2388
      },
      {
        "club_badge_src": null,
        "entry": 4115292,
        "entry_name": "JLO FC",
        "event_total": 58,
        "has_played": true,
        "id": 31086744,
        "last_rank": 15063,
        "player_name": "Jesper Olsson",
        "rank": 14986,
        "rank_sort": 15061,
        "total": 2388
      },
      {
        "club_badge_src": null,
        "entry": 4481340,
        "entry_name": "Phemy FC",
        "event_total": 52,
        "has_played": true,
        "id": 34154370,
        "last_rank": 10031,
        "player_name": "Oluwafemi Akinwunmi",
        "rank": 14986,
        "rank_sort": 15062,
        "total": 2388
      },
      {
        "club_badge_src": null,
        "entry": 4537769,
        "entry_name": "nivans team",
        "event_total": 53,
        "has_played": true,
        "id": 34617538,
        "last_rank": 12322,
        "player_name": "Nivan Chowattukunnel",
        "rank": 14986,
        "rank_sort": 15063,
        "total": 2388
      },
      {
        "club_badge_src": null,
        "entry": 4688855,
        "entry_name": "Beef Cherki",
        "event_total": 65,
        "has_played": true,
        "id": 35936294,
        "last_rank": 19721,
        "player_name": "Will Maddock",
        "rank": 14986,
        "rank_sort": 15064,
        "total": 2388
      },
      {
        "club_badge_src": null,
        "entry": 4873690,
        "entry_name": "ElDON",
        "event_total": 66,
        "has_played": true,
        "id": 37567671,
        "last_rank": 20538,
        "player_name": "ElDon Romyo",
        "rank": 14986,
        "rank_sort": 15065,
        "total": 2388
      },
      {
        "club_badge_src": null,
        "entry": 4940437,
        "entry_name": "Yngves 11",
        "event_total": 55,
        "has_played": true,
        "id": 38117467,
        "last_rank": 13184,
        "player_name": "Yngve Andreassen",
        "rank": 14986,
        "rank_sort": 15066,
        "total": 2388
      },
      {
        "club_badge_src": null,
        "entry": 5312326,
        "entry_name": "Cunha believe it",
        "event_total": 62,
        "has_played": true,
        "id": 41179031,
        "last_rank": 15063,
        "player_name": "Thomas Southern",
        "rank": 14986,
        "rank_sort": 15067,
        "total": 2388
      },
      {
        "club_badge_src": null,
        "entry": 5391718,
        "entry_name": "Red & White",
        "event_total": 74,
        "has_played": true,
        "id": 41917986,
        "last_rank": 23522,
        "player_name": "Roger Gorham",
        "rank": 14986,
        "rank_sort": 15068,
        "total": 2388
      },
      {
        "club_badge_src": null,
        "entry": 5446518,
        "entry_name": "Real Social Dads",
        "event_total": 62,
        "has_played": true,
        "id": 42379119,
        "last_rank": 17585,
        "player_name": "Simon Bedard",
        "rank": 14986,
        "rank_sort": 15069,
        "total": 2388
      },
      {
        "club_badge_src": null,
        "entry": 6128375,
        "entry_name": "Dream Team",
        "event_total": 86,
        "has_played": true,
        "id": 48423413,
        "last_rank": 40503,
        "player_name": "shahriar alom",
        "rank": 14986,
        "rank_sort": 15070,
        "total": 2388
      },
      {
        "club_badge_src": "https://fantasy.premierleague.com/gcs/plfpl-production-adobe-approved/plfpl-production/6138692/dc90a794-6769-40a1-a625-46b4e698fd63.png",
        "entry": 6138692,
        "entry_name": "Gunners Are Back",
        "event_total": 64,
        "has_played": true,
        "id": 48514408,
        "last_rank": 19103,
        "player_name": "Marius Caia",
        "rank": 14986,
        "rank_sort": 15071,
        "total": 2388
      },
      {
        "club_badge_src": null,
        "entry": 6281089,
        "entry_name": "Starboy Saka",
        "event_total": 66,
        "has_played": true,
        "id": 49746436,
        "last_rank": 17585,
        "player_name": "Donovan Moses",
        "rank": 14986,
        "rank_sort": 15072,
        "total": 2388
      },
      {
        "club_badge_src": null,
        "entry": 6312638,
        "entry_name": "Big Dunc Energy",
        "event_total": 49,
        "has_played": true,
        "id": 50088396,
        "last_rank": 10462,
        "player_name": "Jake Fernandez",
        "rank": 14986,
        "rank_sort": 15073,
        "total": 2388
      },
      {
        "club_badge_src": null,
        "entry": 6358118,
        "entry_name": "Groovy",
        "event_total": 60,
        "has_played": true,
        "id": 50550375,
        "last_rank": 16441,
        "player_name": "Rasmus Andresen",
        "rank": 14986,
        "rank_sort": 15074,
        "total": 2388
      },
      {
        "club_badge_src": null,
        "entry": 6912064,
        "entry_name": "mohamed nabil emara",
        "event_total": 44,
        "has_played": true,
        "id": 55405220,
        "last_rank": 7059,
        "player_name": "mohamed omara",
        "rank": 14986,
        "rank_sort": 15075,
        "total": 2388
      },
      {
        "club_badge_src": "https://fantasy.premierleague.com/gcs/plfpl-production-adobe-approved/plfpl-production/7182992/84a6df54-4365-4d4b-a67d-c7ab0c52a978.png",
        "entry": 7182992,
        "entry_name": "GOKU",
        "event_total": 64,
        "has_played": true,
        "id": 57974053,
        "last_rank": 18985,
        "player_name": "Cammeron David",
        "rank": 14986,
        "rank_sort": 15076,
        "total": 2388
      },
      {
        "club_badge_src": null,
        "entry": 7357865,
        "entry_name": "Usherwood United",
        "event_total": 53,
        "has_played": true,
        "id": 59622211,
        "last_rank": 12420,
        "player_name": "Jonny Usherwood",
        "rank": 14986,
        "rank_sort": 15077,
        "total": 2388
      },
      {
        "club_badge_src": null,
        "entry": 7712735,
        "entry_name": "White Ben Can't Jump",
        "event_total": 51,
        "has_played": true,
        "id": 63285310,
        "last_rank": 11419,
        "player_name": "Jarred Hill",
        "rank": 14986,
        "rank_sort": 15078,
        "total": 2388
      },
      {
        "club_badge_src": null,
        "entry": 7731703,
        "entry_name": "donEladio",
        "event_total": 65,
        "has_played": true,
        "id": 63456403,
        "last_rank": 19835,
        "player_name": "Niek Jonkergouw",
        "rank": 14986,
        "rank_sort": 15079,
        "total": 2388
      },
      {
        "club_badge_src": null,
        "entry": 7906067,
        "entry_name": "Haaland's Revenge",
        "event_total": 53,
        "has_played": true,
        "id": 65041953,
        "last_rank": 12420,
        "player_name": "Amogh Iyer",
        "rank": 14986,
        "rank_sort": 15080,
        "total": 2388
      },
      {
        "club_badge_src": null,
        "entry": 8863016,
        "entry_name": "Underrated",
        "event_total": 68,
        "has_played": true,
        "id": 74152852,
        "last_rank": 18790,
        "player_name": "Pavan Prajapati",
        "rank": 14986,
        "rank_sort": 15081,
        "total": 2388
      },
      {
        "club_badge_src": null,
        "entry": 2851,
        "entry_name": "HarrisStGermain",
        "event_total": 59,
        "has_played": true,
        "id": 16036,
        "last_rank": 15797,
        "player_name": "James Harris",
        "rank": 15082,
        "rank_sort": 15082,
        "total": 2388
      },
      {
        "club_badge_src": null,
        "entry": 7881,
        "entry_name": "Noni Your Business",
        "event_total": 60,
        "has_played": true,
        "id": 45517,
        "last_rank": 14040,
        "player_name": "Luke Thompson",
        "rank": 15082,
        "rank_sort": 15083,
        "total": 2388
      },
      {
        "club_badge_src": null,
        "entry": 12272,
        "entry_name": "Tesco McNeil Deal",
        "event_total": 72,
        "has_played": true,
        "id": 73258,
        "last_rank": 22064,
        "player_name": "Matt Dix",
        "rank": 15082,
        "rank_sort": 15084,
        "total": 2388
      },
      {
        "club_badge_src": "https://fantasy.premierleague.com/gcs/plfpl-production-adobe-approved/plfpl-production/29620/24bcb00d-e830-4e85-9d2c-d1458ce46710.png",
        "entry": 29620,
        "entry_name": "House of Manchester",
        "event_total": 77,
        "has_played": true,
        "id": 187353,
        "last_rank": 26230,
        "player_name": "Charles Hancock",
        "rank": 15082,
        "rank_sort": 15085,
        "total": 2388
      },
      {
        "club_badge_src": "https://fantasy.premierleague.com/gcs/plfpl-production-adobe-approved/plfpl-production/33576/3195c50d-eeec-4c4b-82f1-9eaf59de12e9.png",
        "entry": 33576,
        "entry_name": "Cole Brew",
        "event_total": 63,
        "has_played": true,
        "id": 214188,
        "last_rank": 18377,
        "player_name": "Hussain Samooh",
        "rank": 15082,
        "rank_sort": 15086,
        "total": 2388
      },
      {
        "club_badge_src": null,
        "entry": 33948,
        "entry_name": "ChickenTikkaMoSalah",
        "event_total": 62,
        "has_played": true,
        "id": 216770,
        "last_rank": 15164,
        "player_name": "Tom Jefferson",
        "rank": 15082,
        "rank_sort": 15087,
        "total": 2388
      },
      {
        "club_badge_src": null,
        "entry": 99568,
        "entry_name": "Zidamsgaard",
        "event_total": 65,
        "has_played": true,
        "id": 649981,
        "last_rank": 12200,
        "player_name": "Joe Paterson",
        "rank": 15082,
        "rank_sort": 15088,
        "total": 2388
      },
      {
        "club_badge_src": "https://fantasy.premierleague.com/gcs/plfpl-production-adobe-approved/plfpl-production/131025/f94df724-233f-4a35-aeb3-f1c1ac6bc468.png",
        "entry": 131025,
        "entry_name": "Yoro Wissa Harry",
        "event_total": 59,
        "has_played": true,
        "id": 853705,
        "last_rank": 15797,
        "player_name": "Ryan Brady",
        "rank": 15082,
        "rank_sort": 15089,
        "total": 2388
      },
      {
        "club_badge_src": null,
        "entry": 135164,
        "entry_name": "Famous Last Wirtz",
        "event_total": 66,
        "has_played": true,
        "id": 880148,
        "last_rank": 15063,
        "player_name": "Matt Eaglefield",
        "rank": 15082,
        "rank_sort": 15090,
        "total": 2388
      },
      {
        "club_badge_src": "https://fantasy.premierleague.com/gcs/plfpl-production-adobe-approved/plfpl-production/185291/3260173b-048e-4f88-bbe7-42dd4ad29cd7.png",
        "entry": 185291,
        "entry_name": "Pequeninos do Jockey",
        "event_total": 68,
        "has_played": true,
        "id": 1223927,
        "last_rank": 16320,
        "player_name": "Henrik Presteg\u00e5rd",
        "rank": 15082,
        "rank_sort": 15091,
        "total": 2388
      },
      {
        "club_badge_src": null,
        "entry": 187309,
        "entry_name": "CFC",
        "event_total": 61,
        "has_played": true,
        "id": 1238406,
        "last_rank": 17150,
        "player_name": "David Murray",
        "rank": 15082,
        "rank_sort": 15092,
        "total": 2388
      },
      {
        "club_badge_src": null,
        "entry": 189126,
        "entry_name": "Rub'n'Amor'em",
        "event_total": 43,
        "has_played": true,
        "id": 1251738,
        "last_rank": 8234,
        "player_name": "Dimitris Christofi",
        "rank": 15082,
        "rank_sort": 15093,
        "total": 2388
      },
      {
        "club_badge_src": null,
        "entry": 274392,
        "entry_name": "Free Philistines",
        "event_total": 67,
        "has_played": true,
        "id": 1825843,
        "last_rank": 18377,
        "player_name": "\ud83c\uddf5\ud83c\uddf8free palestine \ud83c\uddf5\ud83c\uddf8",
        "rank": 15082,
        "rank_sort": 15094,
        "total": 2388
      },
      {
        "club_badge_src": null,
        "entry": 292596,
        "entry_name": "Electric 11",
        "event_total": 75,
        "has_played": true,
        "id": 1952491,
        "last_rank": 28150,
        "player_name": "Dave Burley",
        "rank": 15082,
        "rank_sort": 15095,
        "total": 2388
      },
      {
        "club_badge_src": null,
        "entry": 561061,
        "entry_name": "KV",
        "event_total": 66,
        "has_played": true,
        "id": 3776517,
        "last_rank": 17718,
        "player_name": "Kornpong Vantanasiri",
        "rank": 15082,
        "rank_sort": 15096,
        "total": 2388
      },
      {
        "club_badge_src": null,
        "entry": 618590,
        "entry_name": "Flaggorithm United",
        "event_total": 67,
        "has_played": true,
        "id": 4179715,
        "last_rank": 21159,
        "player_name": "Espen Flaglien",
        "rank": 15082,
        "rank_sort": 15097,
        "total": 2388
      },
      {
        "club_badge_src": null,
        "entry": 644214,
        "entry_name": "Isidor\u2019s Bane*****",
        "event_total": 66,
        "has_played": true,
        "id": 4353654,
        "last_rank": 20624,
        "player_name": "Jamie Rabbitts",
        "rank": 15082,
        "rank_sort": 15098,
        "total": 2388
      },
      {
        "club_badge_src": null,
        "entry": 725542,
        "entry_name": "The Incredibles",
        "event_total": 59,
        "has_played": true,
        "id": 4928163,
        "last_rank": 13401,
        "player_name": "Miguel Alegre",
        "rank": 15082,
        "rank_sort": 15099,
        "total": 2388
      },
      {
        "club_badge_src": null,
        "entry": 751446,
        "entry_name": "Red & White Wizards",
        "event_total": 66,
        "has_played": true,
        "id": 5113069,
        "last_rank": 17585,
        "player_name": "Jona Clark",
        "rank": 15082,
        "rank_sort": 15100,
        "total": 2388
      }
    ]
  }
}