{
  "last_updated_data": "2026-05-24T23:28:17Z",
  "league": {
    "admin_entry": null,
    "closed": false,
    "code_privacy": "p",
    "created": "2025-07-20T23:14:33.933835Z",
    "cup_league": 2815434,
    "has_cup": true,
    "id": 314,
    "league_type": "s",
    "max_entries": null,
    "name": "Overall",
    "rank": null,
    "scoring": "c",
    "start_event": 1
  },
  "new_entries": {
    "has_next": false,
    "page": 1,
    "results": []
  },
  "standings": {
    "has_next": true,
    "page": 372,
    "results": [
      {
        "club_badge_src": null,
        "entry": 3875554,
        "entry_name": "Botman Begins",
        "event_total": 63,
        "has_played": true,
        "id": 29110379,
        "last_rank": 22534,
        "player_name": "Craig Swinhoe",
        "rank": 18428,
        "rank_sort": 18551,
        "total": 2382
      },
      {
        "club_badge_src": "https://fantasy.premierleague.com/gcs/plfpl-production-adobe-approved/plfpl-production/3971899/116a4557-fc17-420f-b030-85e0bf69951f.png",
        "entry": 3971899,
        "entry_name": "Cantyball FC",
        "event_total": 66,
        "has_played": true,
        "id": 29891118,
        "last_rank": 25172,
        "player_name": "Seamus O'Brien",
        "rank": 18428,
        "rank_sort": 18552,
        "total": 2382
      },
      {
        "club_badge_src": null,
        "entry": 4163145,
        "entry_name": "Give Me Some Kudus \ufffd",
        "event_total": 54,
        "has_played": true,
        "id": 31480301,
        "last_rank": 16039,
        "player_name": "Eleri Territt",
        "rank": 18428,
        "rank_sort": 18553,
        "total": 2382
      },
      {
        "club_badge_src": null,
        "entry": 4191264,
        "entry_name": "b\u00f6lle",
        "event_total": 51,
        "has_played": true,
        "id": 31716991,
        "last_rank": 12141,
        "player_name": "Oliver perholm",
        "rank": 18428,
        "rank_sort": 18554,
        "total": 2382
      },
      {
        "club_badge_src": null,
        "entry": 4195363,
        "entry_name": "Boom Saka Laka",
        "event_total": 82,
        "has_played": true,
        "id": 31752941,
        "last_rank": 42648,
        "player_name": "Zolt\u00e1n Pr\u00e1gai",
        "rank": 18428,
        "rank_sort": 18555,
        "total": 2382
      },
      {
        "club_badge_src": null,
        "entry": 4265556,
        "entry_name": "Kishti Mhu",
        "event_total": 52,
        "has_played": true,
        "id": 32343862,
        "last_rank": 14926,
        "player_name": "Boti M",
        "rank": 18428,
        "rank_sort": 18556,
        "total": 2382
      },
      {
        "club_badge_src": null,
        "entry": 4376012,
        "entry_name": "Kinder Mbeumo",
        "event_total": 51,
        "has_played": true,
        "id": 33250598,
        "last_rank": 14370,
        "player_name": "Adam Scarr",
        "rank": 18428,
        "rank_sort": 18557,
        "total": 2382
      },
      {
        "club_badge_src": null,
        "entry": 4492657,
        "entry_name": "sigma03",
        "event_total": 59,
        "has_played": true,
        "id": 34246429,
        "last_rank": 19544,
        "player_name": "Pravendra Patel",
        "rank": 18428,
        "rank_sort": 18558,
        "total": 2382
      },
      {
        "club_badge_src": null,
        "entry": 4621426,
        "entry_name": "unathletic club",
        "event_total": 62,
        "has_played": true,
        "id": 35325290,
        "last_rank": 21775,
        "player_name": "Mikael Nyg\u00e5rd",
        "rank": 18428,
        "rank_sort": 18559,
        "total": 2382
      },
      {
        "club_badge_src": null,
        "entry": 4624171,
        "entry_name": "TooSeskoForMyShirt",
        "event_total": 55,
        "has_played": true,
        "id": 35351491,
        "last_rank": 16729,
        "player_name": "David Flavin",
        "rank": 18428,
        "rank_sort": 18560,
        "total": 2382
      },
      {
        "club_badge_src": null,
        "entry": 4730318,
        "entry_name": "Mel\u00f8ychine FC",
        "event_total": 43,
        "has_played": true,
        "id": 36382494,
        "last_rank": 10263,
        "player_name": "H\u00e5kon Mel\u00f8ysund",
        "rank": 18428,
        "rank_sort": 18561,
        "total": 2382
      },
      {
        "club_badge_src": "https://fantasy.premierleague.com/gcs/plfpl-production-adobe-approved/plfpl-production/4734851/c293959f-cb5d-4ced-b99d-3d04c5ce3df9.png",
        "entry": 4734851,
        "entry_name": "Sandal Villa",
        "event_total": 70,
        "has_played": true,
        "id": 36428965,
        "last_rank": 28609,
        "player_name": "Joe Chawner",
        "rank": 18428,
        "rank_sort": 18562,
        "total": 2382
      },
      {
        "club_badge_src": null,
        "entry": 4910281,
        "entry_name": "HaCunha Matata",
        "event_total": 51,
        "has_played": true,
        "id": 37867077,
        "last_rank": 14292,
        "player_name": "Th\u00e9o Riat",
        "rank": 18428,
        "rank_sort": 18563,
        "total": 2382
      },
      {
        "club_badge_src": null,
        "entry": 4968729,
        "entry_name": "Gus's Greats",
        "event_total": 87,
        "has_played": true,
        "id": 38345528,
        "last_rank": 49572,
        "player_name": "Wendy Jones",
        "rank": 18428,
        "rank_sort": 18564,
        "total": 2382
      },
      {
        "club_badge_src": null,
        "entry": 4999822,
        "entry_name": "Arne's Angels",
        "event_total": 38,
        "has_played": true,
        "id": 38606420,
        "last_rank": 8382,
        "player_name": "Colin Healy",
        "rank": 18428,
        "rank_sort": 18565,
        "total": 2382
      },
      {
        "club_badge_src": null,
        "entry": 5098339,
        "entry_name": "bo waleed",
        "event_total": 69,
        "has_played": true,
        "id": 39406579,
        "last_rank": 27585,
        "player_name": "rumaih alrumaih",
        "rank": 18428,
        "rank_sort": 18566,
        "total": 2382
      },
      {
        "club_badge_src": null,
        "entry": 5242176,
        "entry_name": "CHEvEGOv",
        "event_total": 35,
        "has_played": true,
        "id": 40625875,
        "last_rank": 7450,
        "player_name": "Ibrahim Habib",
        "rank": 18428,
        "rank_sort": 18567,
        "total": 2382
      },
      {
        "club_badge_src": null,
        "entry": 5394876,
        "entry_name": "Baksus",
        "event_total": 64,
        "has_played": true,
        "id": 41944147,
        "last_rank": 23230,
        "player_name": "Martin Visslund",
        "rank": 18428,
        "rank_sort": 18568,
        "total": 2382
      },
      {
        "club_badge_src": null,
        "entry": 5483452,
        "entry_name": "Rovers FC",
        "event_total": 60,
        "has_played": true,
        "id": 42696718,
        "last_rank": 20179,
        "player_name": "Thomas Emilsson",
        "rank": 18428,
        "rank_sort": 18569,
        "total": 2382
      },
      {
        "club_badge_src": null,
        "entry": 5507354,
        "entry_name": "Increase Depay G4p",
        "event_total": 62,
        "has_played": true,
        "id": 42923656,
        "last_rank": 21775,
        "player_name": "Harry Eames",
        "rank": 18428,
        "rank_sort": 18570,
        "total": 2382
      },
      {
        "club_badge_src": "https://fantasy.premierleague.com/gcs/plfpl-production-adobe-approved/plfpl-production/5524442/ec505265-afbe-4ca3-8fdb-3bb36ecac3bc.png",
        "entry": 5524442,
        "entry_name": "wirtz your head at",
        "event_total": 77,
        "has_played": true,
        "id": 43081331,
        "last_rank": 36624,
        "player_name": "Adrian Mills",
        "rank": 18428,
        "rank_sort": 18571,
        "total": 2382
      },
      {
        "club_badge_src": null,
        "entry": 5587377,
        "entry_name": "Blues in the Alps",
        "event_total": 46,
        "has_played": true,
        "id": 43647308,
        "last_rank": 11699,
        "player_name": "Lukas Berger",
        "rank": 18428,
        "rank_sort": 18572,
        "total": 2382
      },
      {
        "club_badge_src": null,
        "entry": 5603987,
        "entry_name": "Solhem",
        "event_total": 58,
        "has_played": true,
        "id": 43790925,
        "last_rank": 18790,
        "player_name": "Kalle Berner",
        "rank": 18428,
        "rank_sort": 18573,
        "total": 2382
      },
      {
        "club_badge_src": null,
        "entry": 5682941,
        "entry_name": "The Devil's Peak",
        "event_total": 60,
        "has_played": true,
        "id": 44481180,
        "last_rank": 20280,
        "player_name": "Gary James Smith",
        "rank": 18428,
        "rank_sort": 18574,
        "total": 2382
      },
      {
        "club_badge_src": null,
        "entry": 5743353,
        "entry_name": "BOPPIE",
        "event_total": 67,
        "has_played": true,
        "id": 45009734,
        "last_rank": 25729,
        "player_name": "Greg Zetler",
        "rank": 18428,
        "rank_sort": 18575,
        "total": 2382
      },
      {
        "club_badge_src": null,
        "entry": 6038556,
        "entry_name": "shandy bass",
        "event_total": 61,
        "has_played": true,
        "id": 47640524,
        "last_rank": 20983,
        "player_name": "Reuben Mzera",
        "rank": 18428,
        "rank_sort": 18576,
        "total": 2382
      },
      {
        "club_badge_src": null,
        "entry": 6045832,
        "entry_name": "Brucio Dortmund",
        "event_total": 63,
        "has_played": true,
        "id": 47703309,
        "last_rank": 22685,
        "player_name": "Bruce Henson",
        "rank": 18428,
        "rank_sort": 18577,
        "total": 2382
      },
      {
        "club_badge_src": null,
        "entry": 6080088,
        "entry_name": "Mcsauce FC",
        "event_total": 43,
        "has_played": true,
        "id": 48003017,
        "last_rank": 10346,
        "player_name": "Shane McKenna",
        "rank": 18428,
        "rank_sort": 18578,
        "total": 2382
      },
      {
        "club_badge_src": null,
        "entry": 6083350,
        "entry_name": "Smack Milenkovic Up",
        "event_total": 59,
        "has_played": true,
        "id": 48031261,
        "last_rank": 19432,
        "player_name": "Conor O'Kane",
        "rank": 18428,
        "rank_sort": 18579,
        "total": 2382
      },
      {
        "club_badge_src": null,
        "entry": 6366953,
        "entry_name": "layson",
        "event_total": 68,
        "has_played": true,
        "id": 50628023,
        "last_rank": 26827,
        "player_name": "ilyes anan",
        "rank": 18428,
        "rank_sort": 18580,
        "total": 2382
      },
      {
        "club_badge_src": null,
        "entry": 6436672,
        "entry_name": "alsairafi",
        "event_total": 65,
        "has_played": true,
        "id": 51243649,
        "last_rank": 24143,
        "player_name": "abdullah alsairafi",
        "rank": 18428,
        "rank_sort": 18581,
        "total": 2382
      },
      {
        "club_badge_src": null,
        "entry": 6456230,
        "entry_name": "Sirius Ballerz",
        "event_total": 76,
        "has_played": true,
        "id": 51419847,
        "last_rank": 35034,
        "player_name": "Sirus Vig",
        "rank": 18428,
        "rank_sort": 18582,
        "total": 2382
      },
      {
        "club_badge_src": null,
        "entry": 6540551,
        "entry_name": "MarathonMen",
        "event_total": 58,
        "has_played": true,
        "id": 52183640,
        "last_rank": 18790,
        "player_name": "richard lee",
        "rank": 18428,
        "rank_sort": 18583,
        "total": 2382
      },
      {
        "club_badge_src": null,
        "entry": 6857539,
        "entry_name": "rossoneri \u26ab\ufe0f\ufffd",
        "event_total": 56,
        "has_played": true,
        "id": 54943947,
        "last_rank": 17437,
        "player_name": "Faisal Alkandari",
        "rank": 18428,
        "rank_sort": 18584,
        "total": 2382
      },
      {
        "club_badge_src": null,
        "entry": 6932915,
        "entry_name": "Mucus Phlegmb\u00e9l\u00e9",
        "event_total": 66,
        "has_played": true,
        "id": 55580218,
        "last_rank": 24897,
        "player_name": "Calvin Small",
        "rank": 18428,
        "rank_sort": 18585,
        "total": 2382
      },
      {
        "club_badge_src": null,
        "entry": 6946946,
        "entry_name": "Lakad Matatag",
        "event_total": 74,
        "has_played": true,
        "id": 55701492,
        "last_rank": 32661,
        "player_name": "Koong V.",
        "rank": 18428,
        "rank_sort": 18586,
        "total": 2382
      },
      {
        "club_badge_src": null,
        "entry": 7045900,
        "entry_name": "Not like Reading...",
        "event_total": 53,
        "has_played": true,
        "id": 56657374,
        "last_rank": 15550,
        "player_name": "Ollie Crossfield",
        "rank": 18428,
        "rank_sort": 18587,
        "total": 2382
      },
      {
        "club_badge_src": null,
        "entry": 7219382,
        "entry_name": "Engelske levemaend",
        "event_total": 59,
        "has_played": true,
        "id": 58316462,
        "last_rank": 19544,
        "player_name": "Thomas Noergaard",
        "rank": 18428,
        "rank_sort": 18588,
        "total": 2382
      },
      {
        "club_badge_src": null,
        "entry": 7238451,
        "entry_name": "Salalalalalalalah",
        "event_total": 67,
        "has_played": true,
        "id": 58494075,
        "last_rank": 25776,
        "player_name": "Mia Nestaker Hagen",
        "rank": 18428,
        "rank_sort": 18589,
        "total": 2382
      },
      {
        "club_badge_src": null,
        "entry": 7265756,
        "entry_name": "More Scorgasms",
        "event_total": 58,
        "has_played": true,
        "id": 58754080,
        "last_rank": 18985,
        "player_name": "Michael Hinton",
        "rank": 18428,
        "rank_sort": 18590,
        "total": 2382
      },
      {
        "club_badge_src": null,
        "entry": 7372585,
        "entry_name": "Insolvence",
        "event_total": 43,
        "has_played": true,
        "id": 59758456,
        "last_rank": 10346,
        "player_name": "Marek Val\u00e1\u0161ek",
        "rank": 18428,
        "rank_sort": 18591,
        "total": 2382
      },
      {
        "club_badge_src": null,
        "entry": 7609954,
        "entry_name": "Varley's Vanguards",
        "event_total": 35,
        "has_played": true,
        "id": 62354291,
        "last_rank": 7333,
        "player_name": "Jordan Vincent",
        "rank": 18428,
        "rank_sort": 18592,
        "total": 2382
      },
      {
        "club_badge_src": null,
        "entry": 7733287,
        "entry_name": "itchIsak",
        "event_total": 63,
        "has_played": true,
        "id": 63470775,
        "last_rank": 22534,
        "player_name": "Lewis King",
        "rank": 18428,
        "rank_sort": 18593,
        "total": 2382
      },
      {
        "club_badge_src": null,
        "entry": 7751257,
        "entry_name": "huntersw",
        "event_total": 39,
        "has_played": true,
        "id": 63632246,
        "last_rank": 8758,
        "player_name": "Hunter Simkin",
        "rank": 18428,
        "rank_sort": 18594,
        "total": 2382
      },
      {
        "club_badge_src": null,
        "entry": 7776749,
        "entry_name": "FPL Xtra",
        "event_total": 59,
        "has_played": true,
        "id": 63863704,
        "last_rank": 19544,
        "player_name": "FPL Xtra",
        "rank": 18428,
        "rank_sort": 18595,
        "total": 2382
      },
      {
        "club_badge_src": null,
        "entry": 8278936,
        "entry_name": "R9_rio",
        "event_total": 61,
        "has_played": true,
        "id": 68499158,
        "last_rank": 20983,
        "player_name": "Jijonath K",
        "rank": 18428,
        "rank_sort": 18596,
        "total": 2382
      },
      {
        "club_badge_src": null,
        "entry": 8384064,
        "entry_name": "The might temple",
        "event_total": 67,
        "has_played": true,
        "id": 69529710,
        "last_rank": 25902,
        "player_name": "Colin O Sullivan",
        "rank": 18428,
        "rank_sort": 18597,
        "total": 2382
      },
      {
        "club_badge_src": null,
        "entry": 8434845,
        "entry_name": "JuicedUpFC",
        "event_total": 64,
        "has_played": true,
        "id": 70011368,
        "last_rank": 23230,
        "player_name": "Hassan Shaaban",
        "rank": 18428,
        "rank_sort": 18598,
        "total": 2382
      },
      {
        "club_badge_src": null,
        "entry": 8886223,
        "entry_name": "One Slot Wonder",
        "event_total": 50,
        "has_played": true,
        "id": 74375123,
        "last_rank": 13821,
        "player_name": "Johan J\u00f6nsson",
        "rank": 18428,
        "rank_sort": 18599,
        "total": 2382
      },
      {
        "club_badge_src": null,
        "entry": 8917327,
        "entry_name": "Shaolin Soccer",
        "event_total": 56,
        "has_played": true,
        "id": 74676918,
        "last_rank": 17437,
        "player_name": "Andrew Shao",
        "rank": 18428,
        "rank_sort": 18600,
        "total": 2382
      }
    ]
  }
}