{
  "last_updated_data": "2026-05-24T23:28:17Z",
  "league": {
    "admin_entry": null,
    "closed": false,
    "code_privacy": "p",
    "created": "2025-07-20T23:14:33.933835Z",
    "cup_league": 2815434,
    "has_cup": true,
    "id": 314,
    "league_type": "s",
    "max_entries": null,
    "name": "Overall",
    "rank": null,
    "scoring": "c",
    "start_event": 1
  },
  "new_entries": {
    "has_next": false,
    "page": 1,
    "results": []
  },
  "standings": {
    "has_next": true,
    "page": 626,
    "results": [
      {
        "club_badge_src": null,
        "entry": 7787956,
        "entry_name": "Alan She/Her",
        "event_total": 59,
        "has_played": true,
        "id": 63965093,
        "last_rank": 28726,
        "player_name": "Miska Peltonen",
        "rank": 31050,
        "rank_sort": 31251,
        "total": 2367
      },
      {
        "club_badge_src": null,
        "entry": 7809864,
        "entry_name": "Holy",
        "event_total": 51,
        "has_played": true,
        "id": 64162415,
        "last_rank": 25330,
        "player_name": "faruq Siddiqi",
        "rank": 31050,
        "rank_sort": 31252,
        "total": 2367
      },
      {
        "club_badge_src": "https://fantasy.premierleague.com/gcs/plfpl-production-adobe-approved/plfpl-production/7841780/656ac0a1-14f8-4f5d-aecb-5cae50f60e22.png",
        "entry": 7841780,
        "entry_name": "Inevitable",
        "event_total": 52,
        "has_played": true,
        "id": 64457131,
        "last_rank": 26088,
        "player_name": "Samson Berhanu",
        "rank": 31050,
        "rank_sort": 31253,
        "total": 2367
      },
      {
        "club_badge_src": null,
        "entry": 8055707,
        "entry_name": "FC Amalun Dhakkaanan",
        "event_total": 57,
        "has_played": true,
        "id": 66388973,
        "last_rank": 30957,
        "player_name": "Hussain Hafeez",
        "rank": 31050,
        "rank_sort": 31254,
        "total": 2367
      },
      {
        "club_badge_src": null,
        "entry": 8169167,
        "entry_name": "Notthewirtzteam",
        "event_total": 52,
        "has_played": true,
        "id": 67446754,
        "last_rank": 26230,
        "player_name": "Conor Quinlan",
        "rank": 31050,
        "rank_sort": 31255,
        "total": 2367
      },
      {
        "club_badge_src": null,
        "entry": 8393311,
        "entry_name": "Raya of Light",
        "event_total": 63,
        "has_played": true,
        "id": 69616741,
        "last_rank": 37822,
        "player_name": "Sasha Minchin",
        "rank": 31050,
        "rank_sort": 31256,
        "total": 2367
      },
      {
        "club_badge_src": null,
        "entry": 8783843,
        "entry_name": "North Bank Highbury",
        "event_total": 53,
        "has_played": true,
        "id": 73388952,
        "last_rank": 26827,
        "player_name": "Chris Gloyne",
        "rank": 31050,
        "rank_sort": 31257,
        "total": 2367
      },
      {
        "club_badge_src": null,
        "entry": 8892981,
        "entry_name": "raj3et 9weya",
        "event_total": 35,
        "has_played": true,
        "id": 74440627,
        "last_rank": 13947,
        "player_name": "\u0627\u0647\u064a\u0627 \u0627\u0647\u064a\u0627",
        "rank": 31050,
        "rank_sort": 31258,
        "total": 2367
      },
      {
        "club_badge_src": null,
        "entry": 9290640,
        "entry_name": "Allez Servette",
        "event_total": 45,
        "has_played": true,
        "id": 78319890,
        "last_rank": 20416,
        "player_name": "Sean Cockerham",
        "rank": 31050,
        "rank_sort": 31259,
        "total": 2367
      },
      {
        "club_badge_src": null,
        "entry": 9403503,
        "entry_name": "Seanny Boo",
        "event_total": 64,
        "has_played": true,
        "id": 79406917,
        "last_rank": 38774,
        "player_name": "Sean Atkinson",
        "rank": 31050,
        "rank_sort": 31260,
        "total": 2367
      },
      {
        "club_badge_src": null,
        "entry": 9439779,
        "entry_name": "Mohammed2030",
        "event_total": 60,
        "has_played": true,
        "id": 79753191,
        "last_rank": 34293,
        "player_name": "Abu revan Alotaibi",
        "rank": 31050,
        "rank_sort": 31261,
        "total": 2367
      },
      {
        "club_badge_src": null,
        "entry": 3969,
        "entry_name": "Odegaard of Honour",
        "event_total": 63,
        "has_played": true,
        "id": 22511,
        "last_rank": 33147,
        "player_name": "Mateja Dini\u0107",
        "rank": 31262,
        "rank_sort": 31262,
        "total": 2367
      },
      {
        "club_badge_src": null,
        "entry": 6961,
        "entry_name": "FPL Ashwin",
        "event_total": 67,
        "has_played": true,
        "id": 40059,
        "last_rank": 43168,
        "player_name": "Zul Ashwin",
        "rank": 31262,
        "rank_sort": 31263,
        "total": 2367
      },
      {
        "club_badge_src": null,
        "entry": 17181,
        "entry_name": "Kabayan FC",
        "event_total": 60,
        "has_played": true,
        "id": 106505,
        "last_rank": 29904,
        "player_name": "Budhi Nugraha",
        "rank": 31262,
        "rank_sort": 31264,
        "total": 2367
      },
      {
        "club_badge_src": null,
        "entry": 19415,
        "entry_name": "Sent em to \u0160e\u0161ko",
        "event_total": 42,
        "has_played": true,
        "id": 120796,
        "last_rank": 18270,
        "player_name": "Jaylen Martin",
        "rank": 31262,
        "rank_sort": 31265,
        "total": 2367
      },
      {
        "club_badge_src": null,
        "entry": 21026,
        "entry_name": "7a9s utvalgte",
        "event_total": 55,
        "has_played": true,
        "id": 131724,
        "last_rank": 28906,
        "player_name": "Christian Aras Shuany",
        "rank": 31262,
        "rank_sort": 31266,
        "total": 2367
      },
      {
        "club_badge_src": null,
        "entry": 36915,
        "entry_name": "Ayew Ready?",
        "event_total": 56,
        "has_played": true,
        "id": 236382,
        "last_rank": 30060,
        "player_name": "Vedant Bihani",
        "rank": 31262,
        "rank_sort": 31267,
        "total": 2367
      },
      {
        "club_badge_src": null,
        "entry": 38972,
        "entry_name": "DumasDrunk",
        "event_total": 64,
        "has_played": true,
        "id": 249813,
        "last_rank": 39023,
        "player_name": "Kristijan Pervan",
        "rank": 31262,
        "rank_sort": 31268,
        "total": 2367
      },
      {
        "club_badge_src": null,
        "entry": 39972,
        "entry_name": "Dundulajka",
        "event_total": 52,
        "has_played": true,
        "id": 256201,
        "last_rank": 26230,
        "player_name": "Mladen Petrovic",
        "rank": 31262,
        "rank_sort": 31269,
        "total": 2367
      },
      {
        "club_badge_src": "https://fantasy.premierleague.com/gcs/plfpl-production-adobe-approved/plfpl-production/67560/04fe725c-32c7-46f8-8b28-997ac3d3d100.png",
        "entry": 67560,
        "entry_name": "ZS Chmurki Barlinek",
        "event_total": 63,
        "has_played": true,
        "id": 437442,
        "last_rank": 37822,
        "player_name": "Radek Ku\u017ami\u0144ski",
        "rank": 31262,
        "rank_sort": 31270,
        "total": 2367
      },
      {
        "club_badge_src": null,
        "entry": 71394,
        "entry_name": "Glossop Gladiators",
        "event_total": 59,
        "has_played": true,
        "id": 463725,
        "last_rank": 28906,
        "player_name": "Daniel Gray",
        "rank": 31262,
        "rank_sort": 31271,
        "total": 2367
      },
      {
        "club_badge_src": null,
        "entry": 74050,
        "entry_name": "Haalandaise Sauce",
        "event_total": 50,
        "has_played": true,
        "id": 481373,
        "last_rank": 24570,
        "player_name": "Paul Sotiriou",
        "rank": 31262,
        "rank_sort": 31272,
        "total": 2367
      },
      {
        "club_badge_src": null,
        "entry": 102292,
        "entry_name": "Eatz FC",
        "event_total": 41,
        "has_played": true,
        "id": 667415,
        "last_rank": 17718,
        "player_name": "Etai B",
        "rank": 31262,
        "rank_sort": 31273,
        "total": 2367
      },
      {
        "club_badge_src": null,
        "entry": 103921,
        "entry_name": "Sarasota Sabres",
        "event_total": 67,
        "has_played": true,
        "id": 678009,
        "last_rank": 43168,
        "player_name": "Mattin Biglari",
        "rank": 31262,
        "rank_sort": 31274,
        "total": 2367
      },
      {
        "club_badge_src": null,
        "entry": 112645,
        "entry_name": "Omar Baba",
        "event_total": 61,
        "has_played": true,
        "id": 734521,
        "last_rank": 35619,
        "player_name": "Cameron Quinn",
        "rank": 31262,
        "rank_sort": 31275,
        "total": 2367
      },
      {
        "club_badge_src": null,
        "entry": 123923,
        "entry_name": "Inspire a Generation",
        "event_total": 36,
        "has_played": true,
        "id": 808250,
        "last_rank": 14496,
        "player_name": "Jack Beadle",
        "rank": 31262,
        "rank_sort": 31276,
        "total": 2367
      },
      {
        "club_badge_src": null,
        "entry": 130315,
        "entry_name": "Forever Young",
        "event_total": 59,
        "has_played": true,
        "id": 849178,
        "last_rank": 25002,
        "player_name": "Phil Marshall",
        "rank": 31262,
        "rank_sort": 31277,
        "total": 2367
      },
      {
        "club_badge_src": null,
        "entry": 141930,
        "entry_name": "Walking in Memphis",
        "event_total": 58,
        "has_played": true,
        "id": 927537,
        "last_rank": 32190,
        "player_name": "Conor O'Carroll-Lolait",
        "rank": 31262,
        "rank_sort": 31278,
        "total": 2367
      },
      {
        "club_badge_src": null,
        "entry": 160858,
        "entry_name": "De Neve Learn",
        "event_total": 58,
        "has_played": true,
        "id": 1059455,
        "last_rank": 32335,
        "player_name": "Jack Lucas",
        "rank": 31262,
        "rank_sort": 31279,
        "total": 2367
      },
      {
        "club_badge_src": "https://fantasy.premierleague.com/gcs/plfpl-production-adobe-approved/plfpl-production/169499/7618b79d-b8f0-405a-9e9d-5bc66e790018.png",
        "entry": 169499,
        "entry_name": "Wirtz Case",
        "event_total": 65,
        "has_played": true,
        "id": 1120079,
        "last_rank": 40297,
        "player_name": "Martin Grew",
        "rank": 31262,
        "rank_sort": 31280,
        "total": 2367
      },
      {
        "club_badge_src": null,
        "entry": 197622,
        "entry_name": "Random",
        "event_total": 64,
        "has_played": true,
        "id": 1311285,
        "last_rank": 39023,
        "player_name": "Kittipop Tantiwongsakorn",
        "rank": 31262,
        "rank_sort": 31281,
        "total": 2367
      },
      {
        "club_badge_src": null,
        "entry": 217960,
        "entry_name": "Stay Humble Eh",
        "event_total": 72,
        "has_played": true,
        "id": 1449443,
        "last_rank": 50468,
        "player_name": "Radosav M",
        "rank": 31262,
        "rank_sort": 31282,
        "total": 2367
      },
      {
        "club_badge_src": null,
        "entry": 232040,
        "entry_name": "Bck9squad",
        "event_total": 59,
        "has_played": true,
        "id": 1543781,
        "last_rank": 28906,
        "player_name": "Mateusz Beczkowiak",
        "rank": 31262,
        "rank_sort": 31283,
        "total": 2367
      },
      {
        "club_badge_src": null,
        "entry": 245015,
        "entry_name": "Shan tandoori",
        "event_total": 51,
        "has_played": true,
        "id": 1631306,
        "last_rank": 25436,
        "player_name": "Greg Fallon",
        "rank": 31262,
        "rank_sort": 31284,
        "total": 2367
      },
      {
        "club_badge_src": "https://fantasy.premierleague.com/gcs/plfpl-production-adobe-approved/plfpl-production/250549/7e0c3dd3-dd5d-4b34-b536-9e9b21154202.png",
        "entry": 250549,
        "entry_name": "R\u00f8dgata Oldboys",
        "event_total": 67,
        "has_played": true,
        "id": 1666982,
        "last_rank": 42940,
        "player_name": "Morten Askildsen Storrusten",
        "rank": 31262,
        "rank_sort": 31285,
        "total": 2367
      },
      {
        "club_badge_src": null,
        "entry": 251522,
        "entry_name": "Andy\u2019s Angels",
        "event_total": 45,
        "has_played": true,
        "id": 1673283,
        "last_rank": 20179,
        "player_name": "Andrew Kyle",
        "rank": 31262,
        "rank_sort": 31286,
        "total": 2367
      },
      {
        "club_badge_src": null,
        "entry": 288953,
        "entry_name": "Saving Private Raya",
        "event_total": 52,
        "has_played": true,
        "id": 1926085,
        "last_rank": 22685,
        "player_name": "Olexiy Smischenko",
        "rank": 31262,
        "rank_sort": 31287,
        "total": 2367
      },
      {
        "club_badge_src": "https://fantasy.premierleague.com/gcs/plfpl-production-adobe-approved/plfpl-production/289331/5ba46b30-dcbe-439d-8c2c-283ba815ed50.png",
        "entry": 289331,
        "entry_name": "Heaven Eze Halfpipe",
        "event_total": 71,
        "has_played": true,
        "id": 1928655,
        "last_rank": 42940,
        "player_name": "Eliott Benoist",
        "rank": 31262,
        "rank_sort": 31288,
        "total": 2367
      },
      {
        "club_badge_src": null,
        "entry": 352404,
        "entry_name": "Rutter Woke Nonsense",
        "event_total": 61,
        "has_played": true,
        "id": 2358645,
        "last_rank": 30957,
        "player_name": "Joe Speller",
        "rank": 31262,
        "rank_sort": 31289,
        "total": 2367
      },
      {
        "club_badge_src": null,
        "entry": 360437,
        "entry_name": "Roll With It",
        "event_total": 65,
        "has_played": true,
        "id": 2411889,
        "last_rank": 40297,
        "player_name": "Spen Truscott",
        "rank": 31262,
        "rank_sort": 31290,
        "total": 2367
      },
      {
        "club_badge_src": null,
        "entry": 362940,
        "entry_name": "Major Threat",
        "event_total": 61,
        "has_played": true,
        "id": 2428559,
        "last_rank": 30957,
        "player_name": "Ian Major",
        "rank": 31262,
        "rank_sort": 31291,
        "total": 2367
      },
      {
        "club_badge_src": "https://fantasy.premierleague.com/gcs/plfpl-production-adobe-approved/plfpl-production/383215/bc64a719-8754-4821-b486-23c46b104a5b.png",
        "entry": 383215,
        "entry_name": "FranknSon's  Monster",
        "event_total": 61,
        "has_played": true,
        "id": 2569900,
        "last_rank": 26710,
        "player_name": "Tim Hill",
        "rank": 31262,
        "rank_sort": 31292,
        "total": 2367
      },
      {
        "club_badge_src": null,
        "entry": 392671,
        "entry_name": "How I Met Your Mata",
        "event_total": 66,
        "has_played": true,
        "id": 2633780,
        "last_rank": 41824,
        "player_name": "Rasmus Johnsson",
        "rank": 31262,
        "rank_sort": 31293,
        "total": 2367
      },
      {
        "club_badge_src": null,
        "entry": 412489,
        "entry_name": "Godfrey11",
        "event_total": 64,
        "has_played": true,
        "id": 2765600,
        "last_rank": 34293,
        "player_name": "William Godfrey",
        "rank": 31262,
        "rank_sort": 31294,
        "total": 2367
      },
      {
        "club_badge_src": null,
        "entry": 437697,
        "entry_name": "markmeatsix91",
        "event_total": 59,
        "has_played": true,
        "id": 2935130,
        "last_rank": 33332,
        "player_name": "Mark Leslie",
        "rank": 31262,
        "rank_sort": 31295,
        "total": 2367
      },
      {
        "club_badge_src": null,
        "entry": 464064,
        "entry_name": "Only Dans",
        "event_total": 64,
        "has_played": true,
        "id": 3112760,
        "last_rank": 39023,
        "player_name": "Daniel Driver",
        "rank": 31262,
        "rank_sort": 31296,
        "total": 2367
      },
      {
        "club_badge_src": null,
        "entry": 468862,
        "entry_name": "HELLBALL",
        "event_total": 52,
        "has_played": true,
        "id": 3146793,
        "last_rank": 22685,
        "player_name": "Simon Hide",
        "rank": 31262,
        "rank_sort": 31297,
        "total": 2367
      },
      {
        "club_badge_src": "https://fantasy.premierleague.com/gcs/plfpl-production-adobe-approved/plfpl-production/484259/4eb57d70-b087-4f58-90b9-ca1572f00143.png",
        "entry": 484259,
        "entry_name": "mathiasstampe",
        "event_total": 62,
        "has_played": true,
        "id": 3250509,
        "last_rank": 31995,
        "player_name": "Mathias Stampe",
        "rank": 31262,
        "rank_sort": 31298,
        "total": 2367
      },
      {
        "club_badge_src": null,
        "entry": 508373,
        "entry_name": "Bayern Bru",
        "event_total": 59,
        "has_played": true,
        "id": 3412466,
        "last_rank": 33332,
        "player_name": "James Ashmore",
        "rank": 31262,
        "rank_sort": 31299,
        "total": 2367
      },
      {
        "club_badge_src": null,
        "entry": 515340,
        "entry_name": "Beto Call Saul",
        "event_total": 69,
        "has_played": true,
        "id": 3460048,
        "last_rank": 40036,
        "player_name": "Josh Grant",
        "rank": 31262,
        "rank_sort": 31300,
        "total": 2367
      }
    ]
  }
}