{
  "last_updated_data": "2026-05-24T23:28:17Z",
  "league": {
    "admin_entry": null,
    "closed": false,
    "code_privacy": "p",
    "created": "2025-07-20T23:14:33.933835Z",
    "cup_league": 2815434,
    "has_cup": true,
    "id": 314,
    "league_type": "s",
    "max_entries": null,
    "name": "Overall",
    "rank": null,
    "scoring": "c",
    "start_event": 1
  },
  "new_entries": {
    "has_next": false,
    "page": 1,
    "results": []
  },
  "standings": {
    "has_next": true,
    "page": 642,
    "results": [
      {
        "club_badge_src": null,
        "entry": 7321598,
        "entry_name": "GUNNERS",
        "event_total": 56,
        "has_played": true,
        "id": 59278935,
        "last_rank": 30727,
        "player_name": "Hasan Miah",
        "rank": 31853,
        "rank_sort": 32051,
        "total": 2366
      },
      {
        "club_badge_src": null,
        "entry": 7347399,
        "entry_name": "Man U 2008",
        "event_total": 64,
        "has_played": true,
        "id": 59521339,
        "last_rank": 40036,
        "player_name": "Sean Khan-On",
        "rank": 31853,
        "rank_sort": 32052,
        "total": 2366
      },
      {
        "club_badge_src": null,
        "entry": 7387471,
        "entry_name": "Chelsea fc",
        "event_total": 30,
        "has_played": true,
        "id": 59895754,
        "last_rank": 11642,
        "player_name": "Danijel Djuric",
        "rank": 31853,
        "rank_sort": 32053,
        "total": 2366
      },
      {
        "club_badge_src": null,
        "entry": 7459093,
        "entry_name": "Ctrl Alt De Ligt",
        "event_total": 57,
        "has_played": true,
        "id": 60753890,
        "last_rank": 31620,
        "player_name": "Darren Morris",
        "rank": 31853,
        "rank_sort": 32054,
        "total": 2366
      },
      {
        "club_badge_src": null,
        "entry": 7496573,
        "entry_name": "Salahfornia Gurlz",
        "event_total": 69,
        "has_played": true,
        "id": 61236555,
        "last_rank": 46660,
        "player_name": "Owen Guillot",
        "rank": 31853,
        "rank_sort": 32055,
        "total": 2366
      },
      {
        "club_badge_src": null,
        "entry": 7522433,
        "entry_name": "Boca Boys",
        "event_total": 59,
        "has_played": true,
        "id": 61550775,
        "last_rank": 34051,
        "player_name": "Richard Gordon",
        "rank": 31853,
        "rank_sort": 32056,
        "total": 2366
      },
      {
        "club_badge_src": "https://fantasy.premierleague.com/gcs/plfpl-production-adobe-approved/plfpl-production/7555103/2f807bfe-30c9-461c-b855-dce31b18981b.png",
        "entry": 7555103,
        "entry_name": "Team Inno",
        "event_total": 55,
        "has_played": true,
        "id": 61858294,
        "last_rank": 29688,
        "player_name": "Innocent Madzonga",
        "rank": 31853,
        "rank_sort": 32057,
        "total": 2366
      },
      {
        "club_badge_src": null,
        "entry": 7572082,
        "entry_name": "Ctrl Alt Deegan",
        "event_total": 59,
        "has_played": true,
        "id": 62011275,
        "last_rank": 34293,
        "player_name": "Brendan Deegan",
        "rank": 31853,
        "rank_sort": 32058,
        "total": 2366
      },
      {
        "club_badge_src": null,
        "entry": 7574718,
        "entry_name": "Ahly 74",
        "event_total": 55,
        "has_played": true,
        "id": 62035132,
        "last_rank": 29688,
        "player_name": "Mostafa Ashraf",
        "rank": 31853,
        "rank_sort": 32059,
        "total": 2366
      },
      {
        "club_badge_src": null,
        "entry": 7576545,
        "entry_name": "FNN22",
        "event_total": 55,
        "has_played": true,
        "id": 62052392,
        "last_rank": 29688,
        "player_name": "Mahmoud Abd Elhay",
        "rank": 31853,
        "rank_sort": 32060,
        "total": 2366
      },
      {
        "club_badge_src": null,
        "entry": 7700308,
        "entry_name": "North Sarr",
        "event_total": 42,
        "has_played": true,
        "id": 63173756,
        "last_rank": 18790,
        "player_name": "Oliver Haddad",
        "rank": 31853,
        "rank_sort": 32061,
        "total": 2366
      },
      {
        "club_badge_src": null,
        "entry": 7797065,
        "entry_name": "Zayeds XI",
        "event_total": 64,
        "has_played": true,
        "id": 64046826,
        "last_rank": 39874,
        "player_name": "Zayed Hashimi",
        "rank": 31853,
        "rank_sort": 32062,
        "total": 2366
      },
      {
        "club_badge_src": "https://fantasy.premierleague.com/gcs/plfpl-production-adobe-approved/plfpl-production/7810029/e6c199b2-c50e-478b-94e9-c5f9ae2a1b01.png",
        "entry": 7810029,
        "entry_name": "Offensive Team Name",
        "event_total": 69,
        "has_played": true,
        "id": 64163887,
        "last_rank": 46660,
        "player_name": "Kathryn Lang",
        "rank": 31853,
        "rank_sort": 32063,
        "total": 2366
      },
      {
        "club_badge_src": "https://fantasy.premierleague.com/gcs/plfpl-production-adobe-approved/plfpl-production/7975366/8ad72909-c09c-47e1-8bfd-f8fc6c5ec2b7.png",
        "entry": 7975366,
        "entry_name": "DropitlikeitsTott",
        "event_total": 59,
        "has_played": true,
        "id": 65666171,
        "last_rank": 33936,
        "player_name": "jax wolfe",
        "rank": 31853,
        "rank_sort": 32064,
        "total": 2366
      },
      {
        "club_badge_src": "https://fantasy.premierleague.com/gcs/plfpl-production-adobe-approved/plfpl-production/8072346/95aa2424-b549-4e41-80df-33782edaa6a6.png",
        "entry": 8072346,
        "entry_name": "St\u00f8l i beina FK",
        "event_total": 55,
        "has_played": true,
        "id": 66543584,
        "last_rank": 29522,
        "player_name": "Thomas Nielsen",
        "rank": 31853,
        "rank_sort": 32065,
        "total": 2366
      },
      {
        "club_badge_src": null,
        "entry": 8453770,
        "entry_name": "Abu naif",
        "event_total": 69,
        "has_played": true,
        "id": 70190510,
        "last_rank": 46839,
        "player_name": "Faisal Al Jhani",
        "rank": 31853,
        "rank_sort": 32066,
        "total": 2366
      },
      {
        "club_badge_src": null,
        "entry": 8614120,
        "entry_name": "pauldinho",
        "event_total": 59,
        "has_played": true,
        "id": 71734159,
        "last_rank": 33936,
        "player_name": "Paula Nasuta",
        "rank": 31853,
        "rank_sort": 32067,
        "total": 2366
      },
      {
        "club_badge_src": null,
        "entry": 8784095,
        "entry_name": "Voodoo Magico",
        "event_total": 64,
        "has_played": true,
        "id": 73391366,
        "last_rank": 39816,
        "player_name": "James Loftus",
        "rank": 31853,
        "rank_sort": 32068,
        "total": 2366
      },
      {
        "club_badge_src": null,
        "entry": 8821873,
        "entry_name": "FC Shiv",
        "event_total": 53,
        "has_played": true,
        "id": 73754290,
        "last_rank": 27770,
        "player_name": "Shivam Sheth",
        "rank": 31853,
        "rank_sort": 32069,
        "total": 2366
      },
      {
        "club_badge_src": null,
        "entry": 8879788,
        "entry_name": "Frimpingpong",
        "event_total": 44,
        "has_played": true,
        "id": 74312811,
        "last_rank": 20416,
        "player_name": "Antoine Leonard",
        "rank": 31853,
        "rank_sort": 32070,
        "total": 2366
      },
      {
        "club_badge_src": "https://fantasy.premierleague.com/gcs/plfpl-production-adobe-approved/plfpl-production/8953058/2ef3eed1-b1d0-461c-8535-859059007216.png",
        "entry": 8953058,
        "entry_name": "DFC",
        "event_total": 51,
        "has_played": true,
        "id": 75029320,
        "last_rank": 25902,
        "player_name": "Daniel Zohar",
        "rank": 31853,
        "rank_sort": 32071,
        "total": 2366
      },
      {
        "club_badge_src": null,
        "entry": 8970338,
        "entry_name": "Hakuna Matata",
        "event_total": 61,
        "has_played": true,
        "id": 75195756,
        "last_rank": 36142,
        "player_name": "Reevandra Kumar",
        "rank": 31853,
        "rank_sort": 32072,
        "total": 2366
      },
      {
        "club_badge_src": null,
        "entry": 8992893,
        "entry_name": "Isak-tually winning",
        "event_total": 61,
        "has_played": true,
        "id": 75412843,
        "last_rank": 36200,
        "player_name": "Matthew Brandon",
        "rank": 31853,
        "rank_sort": 32073,
        "total": 2366
      },
      {
        "club_badge_src": null,
        "entry": 9274551,
        "entry_name": "GTX",
        "event_total": 37,
        "has_played": true,
        "id": 78163197,
        "last_rank": 15694,
        "player_name": "Graham Thurlow",
        "rank": 31853,
        "rank_sort": 32074,
        "total": 2366
      },
      {
        "club_badge_src": null,
        "entry": 9293658,
        "entry_name": "Oakland J's",
        "event_total": 80,
        "has_played": true,
        "id": 78349109,
        "last_rank": 57776,
        "player_name": "Jermaine Bromfield",
        "rank": 31853,
        "rank_sort": 32075,
        "total": 2366
      },
      {
        "club_badge_src": null,
        "entry": 9431627,
        "entry_name": "Micheal Antonia",
        "event_total": 67,
        "has_played": true,
        "id": 79675716,
        "last_rank": 43786,
        "player_name": "Antonia Willis",
        "rank": 31853,
        "rank_sort": 32076,
        "total": 2366
      },
      {
        "club_badge_src": null,
        "entry": 9440657,
        "entry_name": "shen",
        "event_total": 55,
        "has_played": true,
        "id": 79761491,
        "last_rank": 29904,
        "player_name": "UnKown -",
        "rank": 31853,
        "rank_sort": 32077,
        "total": 2366
      },
      {
        "club_badge_src": null,
        "entry": 9450891,
        "entry_name": "rjfc",
        "event_total": 45,
        "has_played": true,
        "id": 79856567,
        "last_rank": 20888,
        "player_name": "r j",
        "rank": 31853,
        "rank_sort": 32078,
        "total": 2366
      },
      {
        "club_badge_src": "https://fantasy.premierleague.com/gcs/plfpl-production-adobe-approved/plfpl-production/9453905/8bfd18c2-4f52-4cc3-9d55-113d4d5f4906.png",
        "entry": 9453905,
        "entry_name": "JohnWick",
        "event_total": 39,
        "has_played": true,
        "id": 79884612,
        "last_rank": 16959,
        "player_name": "Victor Ez First Team",
        "rank": 31853,
        "rank_sort": 32079,
        "total": 2366
      },
      {
        "club_badge_src": "https://fantasy.premierleague.com/gcs/plfpl-production-adobe-approved/plfpl-production/280/15f6ba5e-741c-4fa3-922e-ccca1f9b3841.png",
        "entry": 280,
        "entry_name": "Club Burgge KV",
        "event_total": 55,
        "has_played": true,
        "id": 1550,
        "last_rank": 25902,
        "player_name": "Adam Burge",
        "rank": 32080,
        "rank_sort": 32080,
        "total": 2366
      },
      {
        "club_badge_src": null,
        "entry": 1007,
        "entry_name": "WYNCOLL XI",
        "event_total": 60,
        "has_played": true,
        "id": 5583,
        "last_rank": 30727,
        "player_name": "James Wyncoll",
        "rank": 32080,
        "rank_sort": 32081,
        "total": 2366
      },
      {
        "club_badge_src": null,
        "entry": 1112,
        "entry_name": "Walker's Wombats",
        "event_total": 61,
        "has_played": true,
        "id": 6168,
        "last_rank": 31747,
        "player_name": "Ross Walker",
        "rank": 32080,
        "rank_sort": 32082,
        "total": 2366
      },
      {
        "club_badge_src": null,
        "entry": 4987,
        "entry_name": "Gro\u00df Negligence",
        "event_total": 53,
        "has_played": true,
        "id": 28391,
        "last_rank": 24143,
        "player_name": "Tamlyn Singh",
        "rank": 32080,
        "rank_sort": 32083,
        "total": 2366
      },
      {
        "club_badge_src": null,
        "entry": 7112,
        "entry_name": "Change Name FC",
        "event_total": 57,
        "has_played": true,
        "id": 40961,
        "last_rank": 27770,
        "player_name": "Ituah Omole",
        "rank": 32080,
        "rank_sort": 32084,
        "total": 2366
      },
      {
        "club_badge_src": "https://fantasy.premierleague.com/gcs/plfpl-production-adobe-approved/plfpl-production/7270/dfe95b7f-5227-423e-b1ed-e3f59cadecae.png",
        "entry": 7270,
        "entry_name": "Limpton Gators",
        "event_total": 52,
        "has_played": true,
        "id": 41890,
        "last_rank": 23341,
        "player_name": "Andy Regent",
        "rank": 32080,
        "rank_sort": 32085,
        "total": 2366
      },
      {
        "club_badge_src": "https://fantasy.premierleague.com/gcs/plfpl-production-adobe-approved/plfpl-production/17869/fe084fe1-a5fa-4464-859c-0832b777658d.png",
        "entry": 17869,
        "entry_name": "Dos Sound Machine",
        "event_total": 67,
        "has_played": true,
        "id": 110964,
        "last_rank": 38644,
        "player_name": "Hayden Ferguson",
        "rank": 32080,
        "rank_sort": 32086,
        "total": 2366
      },
      {
        "club_badge_src": "https://fantasy.premierleague.com/gcs/plfpl-production-adobe-approved/plfpl-production/18005/ece28aae-4958-40d0-9447-877dca859bea.png",
        "entry": 18005,
        "entry_name": "Foppatofflorna",
        "event_total": 40,
        "has_played": true,
        "id": 111876,
        "last_rank": 17585,
        "player_name": "Johan Forsberg",
        "rank": 32080,
        "rank_sort": 32087,
        "total": 2366
      },
      {
        "club_badge_src": null,
        "entry": 20584,
        "entry_name": "RH9",
        "event_total": 58,
        "has_played": true,
        "id": 128565,
        "last_rank": 32751,
        "player_name": "Dylan Goldsmith",
        "rank": 32080,
        "rank_sort": 32088,
        "total": 2366
      },
      {
        "club_badge_src": "https://fantasy.premierleague.com/gcs/plfpl-production-adobe-approved/plfpl-production/25687/a9f970ba-6b3a-4490-9c2c-7e5974c257cf.png",
        "entry": 25687,
        "entry_name": "Rickle Picks",
        "event_total": 67,
        "has_played": true,
        "id": 162486,
        "last_rank": 38774,
        "player_name": "Zoran Kiralj",
        "rank": 32080,
        "rank_sort": 32089,
        "total": 2366
      },
      {
        "club_badge_src": null,
        "entry": 29945,
        "entry_name": "Scankie Frarry",
        "event_total": 58,
        "has_played": true,
        "id": 189433,
        "last_rank": 33147,
        "player_name": "Scott Moule",
        "rank": 32080,
        "rank_sort": 32090,
        "total": 2366
      },
      {
        "club_badge_src": null,
        "entry": 35027,
        "entry_name": "Squadron XI",
        "event_total": 59,
        "has_played": true,
        "id": 224009,
        "last_rank": 29688,
        "player_name": "Mr Sulaimon A",
        "rank": 32080,
        "rank_sort": 32091,
        "total": 2366
      },
      {
        "club_badge_src": null,
        "entry": 35206,
        "entry_name": "Sanky Legends",
        "event_total": 67,
        "has_played": true,
        "id": 225224,
        "last_rank": 44048,
        "player_name": "Sankalp Arora",
        "rank": 32080,
        "rank_sort": 32092,
        "total": 2366
      },
      {
        "club_badge_src": "https://fantasy.premierleague.com/gcs/plfpl-production-adobe-approved/plfpl-production/35397/cfcbacd2-1a38-4248-83ac-54f084ef3717.png",
        "entry": 35397,
        "entry_name": "I Beg Your Pardew",
        "event_total": 60,
        "has_played": true,
        "id": 226507,
        "last_rank": 35424,
        "player_name": "Adam Hatwell",
        "rank": 32080,
        "rank_sort": 32093,
        "total": 2366
      },
      {
        "club_badge_src": "https://fantasy.premierleague.com/gcs/plfpl-production-adobe-approved/plfpl-production/36326/81eb3b07-7185-4382-b607-c26608ce7ab2.png",
        "entry": 36326,
        "entry_name": "Neville Wears Prada",
        "event_total": 69,
        "has_played": true,
        "id": 232513,
        "last_rank": 47163,
        "player_name": "neeraj korada",
        "rank": 32080,
        "rank_sort": 32094,
        "total": 2366
      },
      {
        "club_badge_src": null,
        "entry": 41832,
        "entry_name": "E4 Hit Squad",
        "event_total": 62,
        "has_played": true,
        "id": 268027,
        "last_rank": 37822,
        "player_name": "Carl Hansson",
        "rank": 32080,
        "rank_sort": 32095,
        "total": 2366
      },
      {
        "club_badge_src": null,
        "entry": 48335,
        "entry_name": "The Jolly Rogers",
        "event_total": 52,
        "has_played": true,
        "id": 310349,
        "last_rank": 26827,
        "player_name": "Grant W",
        "rank": 32080,
        "rank_sort": 32096,
        "total": 2366
      },
      {
        "club_badge_src": null,
        "entry": 52759,
        "entry_name": "Drago's XI",
        "event_total": 64,
        "has_played": true,
        "id": 339252,
        "last_rank": 35166,
        "player_name": "Andrew Mitchell",
        "rank": 32080,
        "rank_sort": 32097,
        "total": 2366
      },
      {
        "club_badge_src": null,
        "entry": 55233,
        "entry_name": "goggEEE",
        "event_total": 52,
        "has_played": true,
        "id": 355522,
        "last_rank": 27020,
        "player_name": "G\u00f6ran Klasson",
        "rank": 32080,
        "rank_sort": 32098,
        "total": 2366
      },
      {
        "club_badge_src": null,
        "entry": 63253,
        "entry_name": "Ziutki FC",
        "event_total": 55,
        "has_played": true,
        "id": 408061,
        "last_rank": 25902,
        "player_name": "J\u00f3zef Kania",
        "rank": 32080,
        "rank_sort": 32099,
        "total": 2366
      },
      {
        "club_badge_src": null,
        "entry": 71222,
        "entry_name": "Fuj",
        "event_total": 69,
        "has_played": true,
        "id": 462562,
        "last_rank": 47163,
        "player_name": "Ivan Juri\u0107",
        "rank": 32080,
        "rank_sort": 32100,
        "total": 2366
      }
    ]
  }
}