{
  "last_updated_data": "2026-05-24T23:28:17Z",
  "league": {
    "admin_entry": null,
    "closed": false,
    "code_privacy": "p",
    "created": "2025-07-20T23:14:33.933835Z",
    "cup_league": 2815434,
    "has_cup": true,
    "id": 314,
    "league_type": "s",
    "max_entries": null,
    "name": "Overall",
    "rank": null,
    "scoring": "c",
    "start_event": 1
  },
  "new_entries": {
    "has_next": false,
    "page": 1,
    "results": []
  },
  "standings": {
    "has_next": true,
    "page": 1495,
    "results": [
      {
        "club_badge_src": null,
        "entry": 3211558,
        "entry_name": "Szob Story",
        "event_total": 53,
        "has_played": true,
        "id": 23744009,
        "last_rank": 67926,
        "player_name": "Sam Carpenter",
        "rank": 74579,
        "rank_sort": 74701,
        "total": 2338
      },
      {
        "club_badge_src": null,
        "entry": 3230374,
        "entry_name": "Wheres URE Isak Gone",
        "event_total": 64,
        "has_played": true,
        "id": 23891271,
        "last_rank": 82398,
        "player_name": "Paul Wasilkowski",
        "rank": 74579,
        "rank_sort": 74702,
        "total": 2338
      },
      {
        "club_badge_src": null,
        "entry": 3270915,
        "entry_name": "A GRAND OLD TEAM",
        "event_total": 48,
        "has_played": true,
        "id": 24206106,
        "last_rank": 58911,
        "player_name": "Lee Weightman",
        "rank": 74579,
        "rank_sort": 74703,
        "total": 2338
      },
      {
        "club_badge_src": null,
        "entry": 3346966,
        "entry_name": "bmq",
        "event_total": 66,
        "has_played": true,
        "id": 24828105,
        "last_rank": 97305,
        "player_name": "Tony Sopranos",
        "rank": 74579,
        "rank_sort": 74704,
        "total": 2338
      },
      {
        "club_badge_src": null,
        "entry": 3387805,
        "entry_name": "\u0627\u0644\u062c\u0648\u0648\u0631\u064a",
        "event_total": 63,
        "has_played": true,
        "id": 25149785,
        "last_rank": 89055,
        "player_name": "Omer Nadal",
        "rank": 74579,
        "rank_sort": 74705,
        "total": 2338
      },
      {
        "club_badge_src": null,
        "entry": 3403996,
        "entry_name": "The Cesc Pistols",
        "event_total": 52,
        "has_played": true,
        "id": 25275162,
        "last_rank": 58688,
        "player_name": "Matt Jones",
        "rank": 74579,
        "rank_sort": 74706,
        "total": 2338
      },
      {
        "club_badge_src": null,
        "entry": 3406911,
        "entry_name": "E-honda fc",
        "event_total": 64,
        "has_played": true,
        "id": 25300208,
        "last_rank": 91466,
        "player_name": "Mark Beard",
        "rank": 74579,
        "rank_sort": 74707,
        "total": 2338
      },
      {
        "club_badge_src": null,
        "entry": 3531226,
        "entry_name": "MICHUUUUU",
        "event_total": 53,
        "has_played": true,
        "id": 26281859,
        "last_rank": 67926,
        "player_name": "Charlie Rees",
        "rank": 74579,
        "rank_sort": 74708,
        "total": 2338
      },
      {
        "club_badge_src": null,
        "entry": 3559279,
        "entry_name": "Muggles",
        "event_total": 69,
        "has_played": true,
        "id": 26500389,
        "last_rank": 104388,
        "player_name": "Jalal Nachat",
        "rank": 74579,
        "rank_sort": 74709,
        "total": 2338
      },
      {
        "club_badge_src": null,
        "entry": 3571282,
        "entry_name": "Wet Spam",
        "event_total": 49,
        "has_played": true,
        "id": 26592269,
        "last_rank": 53621,
        "player_name": "Stephen Emerson",
        "rank": 74579,
        "rank_sort": 74710,
        "total": 2338
      },
      {
        "club_badge_src": null,
        "entry": 3574860,
        "entry_name": "Rice and Peas",
        "event_total": 42,
        "has_played": true,
        "id": 26619382,
        "last_rank": 49078,
        "player_name": "Carlos beade",
        "rank": 74579,
        "rank_sort": 74711,
        "total": 2338
      },
      {
        "club_badge_src": null,
        "entry": 3588286,
        "entry_name": "Helg\u00f8ya FK",
        "event_total": 30,
        "has_played": true,
        "id": 26723111,
        "last_rank": 33332,
        "player_name": "\u00c5dne Stai",
        "rank": 74579,
        "rank_sort": 74712,
        "total": 2338
      },
      {
        "club_badge_src": "https://fantasy.premierleague.com/gcs/plfpl-production-adobe-approved/plfpl-production/3620823/76bffbce-a6b4-4fde-a3df-2c0488304e72.png",
        "entry": 3620823,
        "entry_name": "Still Jam b4 Cream",
        "event_total": 72,
        "has_played": true,
        "id": 26976955,
        "last_rank": 112591,
        "player_name": "Rebecca Doswell",
        "rank": 74579,
        "rank_sort": 74713,
        "total": 2338
      },
      {
        "club_badge_src": "https://fantasy.premierleague.com/gcs/plfpl-production-adobe-approved/plfpl-production/3646538/302708d1-0756-449b-9a04-b261892f0bb7.png",
        "entry": 3646538,
        "entry_name": "Blaugrana",
        "event_total": 69,
        "has_played": true,
        "id": 27179129,
        "last_rank": 93883,
        "player_name": "Arahman Jameel",
        "rank": 74579,
        "rank_sort": 74714,
        "total": 2338
      },
      {
        "club_badge_src": null,
        "entry": 3724361,
        "entry_name": "Scapa Special",
        "event_total": 62,
        "has_played": true,
        "id": 27795398,
        "last_rank": 87350,
        "player_name": "Gregor Matheson",
        "rank": 74579,
        "rank_sort": 74715,
        "total": 2338
      },
      {
        "club_badge_src": null,
        "entry": 3778008,
        "entry_name": "No Guts No Glazers",
        "event_total": 46,
        "has_played": true,
        "id": 28210031,
        "last_rank": 55514,
        "player_name": "Ali M",
        "rank": 74579,
        "rank_sort": 74716,
        "total": 2338
      },
      {
        "club_badge_src": null,
        "entry": 3805275,
        "entry_name": "Sydenham Hill XI",
        "event_total": 70,
        "has_played": true,
        "id": 28449453,
        "last_rank": 107702,
        "player_name": "Jonathan Lord",
        "rank": 74579,
        "rank_sort": 74717,
        "total": 2338
      },
      {
        "club_badge_src": null,
        "entry": 3825900,
        "entry_name": "ACE",
        "event_total": 59,
        "has_played": true,
        "id": 28617574,
        "last_rank": 71713,
        "player_name": "isreal musa",
        "rank": 74579,
        "rank_sort": 74718,
        "total": 2338
      },
      {
        "club_badge_src": null,
        "entry": 3864271,
        "entry_name": "omar juventus",
        "event_total": 38,
        "has_played": true,
        "id": 28974920,
        "last_rank": 43342,
        "player_name": "Fc Juventus",
        "rank": 74579,
        "rank_sort": 74719,
        "total": 2338
      },
      {
        "club_badge_src": null,
        "entry": 3868398,
        "entry_name": "Hajduk Split",
        "event_total": 52,
        "has_played": true,
        "id": 29012979,
        "last_rank": 58688,
        "player_name": "Dragan Pehar",
        "rank": 74579,
        "rank_sort": 74720,
        "total": 2338
      },
      {
        "club_badge_src": null,
        "entry": 3908979,
        "entry_name": "Senior Gathuu fc",
        "event_total": 52,
        "has_played": true,
        "id": 29388797,
        "last_rank": 58688,
        "player_name": "Leo Gabriel",
        "rank": 74579,
        "rank_sort": 74721,
        "total": 2338
      },
      {
        "club_badge_src": "https://fantasy.premierleague.com/gcs/plfpl-production-adobe-approved/plfpl-production/3951322/385150e0-271d-4d1c-a37d-bd70cd84c52b.png",
        "entry": 3951322,
        "entry_name": "TicoCracks",
        "event_total": 82,
        "has_played": true,
        "id": 29725891,
        "last_rank": 144179,
        "player_name": "Arnoldo Villalobos",
        "rank": 74579,
        "rank_sort": 74722,
        "total": 2338
      },
      {
        "club_badge_src": null,
        "entry": 4136537,
        "entry_name": "maybuh",
        "event_total": 62,
        "has_played": true,
        "id": 31261021,
        "last_rank": 77676,
        "player_name": "Karl Condon",
        "rank": 74579,
        "rank_sort": 74723,
        "total": 2338
      },
      {
        "club_badge_src": null,
        "entry": 4169941,
        "entry_name": "Garnacho with cheese",
        "event_total": 79,
        "has_played": true,
        "id": 31536263,
        "last_rank": 134505,
        "player_name": "George Leonard",
        "rank": 74579,
        "rank_sort": 74724,
        "total": 2338
      },
      {
        "club_badge_src": null,
        "entry": 4180953,
        "entry_name": "ComeOnYouReds",
        "event_total": 77,
        "has_played": true,
        "id": 31629994,
        "last_rank": 115421,
        "player_name": "Richard Jones",
        "rank": 74579,
        "rank_sort": 74725,
        "total": 2338
      },
      {
        "club_badge_src": null,
        "entry": 4212319,
        "entry_name": "Bayer Never-Losin",
        "event_total": 68,
        "has_played": true,
        "id": 31894324,
        "last_rank": 101818,
        "player_name": "Maharshi Doshi",
        "rank": 74579,
        "rank_sort": 74726,
        "total": 2338
      },
      {
        "club_badge_src": null,
        "entry": 4238321,
        "entry_name": "MPR FC",
        "event_total": 51,
        "has_played": true,
        "id": 32119419,
        "last_rank": 57001,
        "player_name": "Max Brookes-Parry",
        "rank": 74579,
        "rank_sort": 74727,
        "total": 2338
      },
      {
        "club_badge_src": null,
        "entry": 4260714,
        "entry_name": "I Wanna",
        "event_total": 48,
        "has_played": true,
        "id": 32304542,
        "last_rank": 58688,
        "player_name": "Marcus Barrios",
        "rank": 74579,
        "rank_sort": 74728,
        "total": 2338
      },
      {
        "club_badge_src": null,
        "entry": 4280057,
        "entry_name": "Placeholder Name",
        "event_total": 65,
        "has_played": true,
        "id": 32460522,
        "last_rank": 94537,
        "player_name": "Robert Beasley",
        "rank": 74579,
        "rank_sort": 74729,
        "total": 2338
      },
      {
        "club_badge_src": null,
        "entry": 4287306,
        "entry_name": "\u0160e\u0161ko Finest",
        "event_total": 73,
        "has_played": true,
        "id": 32519535,
        "last_rank": 103526,
        "player_name": "Darren Daly",
        "rank": 74579,
        "rank_sort": 74730,
        "total": 2338
      },
      {
        "club_badge_src": null,
        "entry": 4368392,
        "entry_name": "Hulk Shogun",
        "event_total": 46,
        "has_played": true,
        "id": 33185401,
        "last_rank": 55311,
        "player_name": "Joe Wonnacott",
        "rank": 74579,
        "rank_sort": 74731,
        "total": 2338
      },
      {
        "club_badge_src": null,
        "entry": 4496158,
        "entry_name": "AQSA FLOOD",
        "event_total": 56,
        "has_played": true,
        "id": 34274935,
        "last_rank": 73975,
        "player_name": "Yusuf KANDIL",
        "rank": 74579,
        "rank_sort": 74732,
        "total": 2338
      },
      {
        "club_badge_src": null,
        "entry": 4554519,
        "entry_name": "Liam Delap Dance",
        "event_total": 47,
        "has_played": true,
        "id": 34752327,
        "last_rank": 50468,
        "player_name": "Charlie Anderson",
        "rank": 74579,
        "rank_sort": 74733,
        "total": 2338
      },
      {
        "club_badge_src": null,
        "entry": 4702075,
        "entry_name": "Why are you Gu\u00e9hi ?",
        "event_total": 50,
        "has_played": true,
        "id": 36047624,
        "last_rank": 62617,
        "player_name": "Abdelrahman Wael",
        "rank": 74579,
        "rank_sort": 74734,
        "total": 2338
      },
      {
        "club_badge_src": null,
        "entry": 4780772,
        "entry_name": "Shooting Stars",
        "event_total": 61,
        "has_played": true,
        "id": 36802938,
        "last_rank": 84980,
        "player_name": "James Franco",
        "rank": 74579,
        "rank_sort": 74735,
        "total": 2338
      },
      {
        "club_badge_src": null,
        "entry": 4962066,
        "entry_name": "A10",
        "event_total": 58,
        "has_played": true,
        "id": 38292081,
        "last_rank": 77676,
        "player_name": "Alex Jones",
        "rank": 74579,
        "rank_sort": 74736,
        "total": 2338
      },
      {
        "club_badge_src": null,
        "entry": 4966445,
        "entry_name": "Khairy Team",
        "event_total": 63,
        "has_played": true,
        "id": 38327321,
        "last_rank": 89706,
        "player_name": "Ahmed Khairy",
        "rank": 74579,
        "rank_sort": 74737,
        "total": 2338
      },
      {
        "club_badge_src": null,
        "entry": 5084432,
        "entry_name": "football not saka",
        "event_total": 62,
        "has_played": true,
        "id": 39296675,
        "last_rank": 87541,
        "player_name": "Theo Gibbs",
        "rank": 74579,
        "rank_sort": 74738,
        "total": 2338
      },
      {
        "club_badge_src": "https://fantasy.premierleague.com/gcs/plfpl-production-adobe-approved/plfpl-production/5236909/7c3e737a-abce-4934-8e5a-0458ebe3d05e.png",
        "entry": 5236909,
        "entry_name": "Willingham Wanderers",
        "event_total": 66,
        "has_played": true,
        "id": 40583053,
        "last_rank": 96777,
        "player_name": "Andrew Clarke",
        "rank": 74579,
        "rank_sort": 74739,
        "total": 2338
      },
      {
        "club_badge_src": null,
        "entry": 5319256,
        "entry_name": "Corvinos Korvar",
        "event_total": 53,
        "has_played": true,
        "id": 41234781,
        "last_rank": 67926,
        "player_name": "johan \u00d6stholm",
        "rank": 74579,
        "rank_sort": 74740,
        "total": 2338
      },
      {
        "club_badge_src": "https://fantasy.premierleague.com/gcs/plfpl-production-adobe-approved/plfpl-production/5396834/d26fe1fe-a9ca-41cd-9478-415a6d81b34d.png",
        "entry": 5396834,
        "entry_name": "The Boehly Trinity",
        "event_total": 54,
        "has_played": true,
        "id": 41960163,
        "last_rank": 69907,
        "player_name": "Dany King",
        "rank": 74579,
        "rank_sort": 74741,
        "total": 2338
      },
      {
        "club_badge_src": null,
        "entry": 5424536,
        "entry_name": "Uppa Towen",
        "event_total": 56,
        "has_played": true,
        "id": 42191221,
        "last_rank": 58071,
        "player_name": "Jamie Warren",
        "rank": 74579,
        "rank_sort": 74742,
        "total": 2338
      },
      {
        "club_badge_src": null,
        "entry": 5470522,
        "entry_name": "sH3w4z0nlyXI",
        "event_total": 58,
        "has_played": true,
        "id": 42582423,
        "last_rank": 78244,
        "player_name": "Alex Tomkinson",
        "rank": 74579,
        "rank_sort": 74743,
        "total": 2338
      },
      {
        "club_badge_src": null,
        "entry": 5491627,
        "entry_name": "Lisan al-kaib",
        "event_total": 53,
        "has_played": true,
        "id": 42771866,
        "last_rank": 60462,
        "player_name": "Venkat Aashiq",
        "rank": 74579,
        "rank_sort": 74744,
        "total": 2338
      },
      {
        "club_badge_src": null,
        "entry": 5543746,
        "entry_name": "KaReeYuNai",
        "event_total": 58,
        "has_played": true,
        "id": 43260363,
        "last_rank": 78244,
        "player_name": "Phiset Sri",
        "rank": 74579,
        "rank_sort": 74745,
        "total": 2338
      },
      {
        "club_badge_src": null,
        "entry": 5632040,
        "entry_name": "Malchester Rovers",
        "event_total": 59,
        "has_played": true,
        "id": 44034887,
        "last_rank": 80465,
        "player_name": "Malcolm Connelly",
        "rank": 74579,
        "rank_sort": 74746,
        "total": 2338
      },
      {
        "club_badge_src": "https://fantasy.premierleague.com/gcs/plfpl-production-adobe-approved/plfpl-production/5884677/ce05c8d3-5753-45b3-a11e-6085168a55c4.png",
        "entry": 5884677,
        "entry_name": "bo3zoz",
        "event_total": 58,
        "has_played": true,
        "id": 46225775,
        "last_rank": 78244,
        "player_name": "BoAzoz Basha",
        "rank": 74579,
        "rank_sort": 74747,
        "total": 2338
      },
      {
        "club_badge_src": null,
        "entry": 5918890,
        "entry_name": "Flis",
        "event_total": 73,
        "has_played": true,
        "id": 46520073,
        "last_rank": 115421,
        "player_name": "Peter \u00c4mtvall",
        "rank": 74579,
        "rank_sort": 74748,
        "total": 2338
      },
      {
        "club_badge_src": null,
        "entry": 5967236,
        "entry_name": "ASSI THE CAT",
        "event_total": 62,
        "has_played": true,
        "id": 46950818,
        "last_rank": 87074,
        "player_name": "Nadav Arditi",
        "rank": 74579,
        "rank_sort": 74749,
        "total": 2338
      },
      {
        "club_badge_src": "https://fantasy.premierleague.com/gcs/plfpl-production-adobe-approved/plfpl-production/6254490/b1233b66-b3da-470e-b669-666ab96376be.png",
        "entry": 6254490,
        "entry_name": "tv\u00e4ttbj\u00f6rnarna FC",
        "event_total": 47,
        "has_played": true,
        "id": 49513780,
        "last_rank": 56369,
        "player_name": "Richard Kuhl",
        "rank": 74579,
        "rank_sort": 74750,
        "total": 2338
      }
    ]
  }
}