{
  "last_updated_data": "2026-05-24T23:28:17Z",
  "league": {
    "admin_entry": null,
    "closed": false,
    "code_privacy": "p",
    "created": "2025-07-20T23:14:33.933835Z",
    "cup_league": 2815434,
    "has_cup": true,
    "id": 314,
    "league_type": "s",
    "max_entries": null,
    "name": "Overall",
    "rank": null,
    "scoring": "c",
    "start_event": 1
  },
  "new_entries": {
    "has_next": false,
    "page": 1,
    "results": []
  },
  "standings": {
    "has_next": true,
    "page": 1323,
    "results": [
      {
        "club_badge_src": null,
        "entry": 836805,
        "entry_name": "Los Chidos",
        "event_total": 32,
        "has_played": true,
        "id": 5732435,
        "last_rank": 30727,
        "player_name": "Luis Cota",
        "rank": 66017,
        "rank_sort": 66101,
        "total": 2342
      },
      {
        "club_badge_src": "https://fantasy.premierleague.com/gcs/plfpl-production-adobe-approved/plfpl-production/853369/98ea9a50-df7f-43df-91d2-dd066cd6f6a3.png",
        "entry": 853369,
        "entry_name": "Sausage Roll",
        "event_total": 50,
        "has_played": true,
        "id": 5849355,
        "last_rank": 54667,
        "player_name": "Paul Egan",
        "rank": 66017,
        "rank_sort": 66102,
        "total": 2342
      },
      {
        "club_badge_src": null,
        "entry": 871730,
        "entry_name": "Ubi Kenobi",
        "event_total": 59,
        "has_played": true,
        "id": 5976480,
        "last_rank": 70985,
        "player_name": "Uda Elfidz",
        "rank": 66017,
        "rank_sort": 66103,
        "total": 2342
      },
      {
        "club_badge_src": null,
        "entry": 877017,
        "entry_name": "Itchy Ballack",
        "event_total": 48,
        "has_played": true,
        "id": 6012800,
        "last_rank": 51403,
        "player_name": "James Winter",
        "rank": 66017,
        "rank_sort": 66104,
        "total": 2342
      },
      {
        "club_badge_src": null,
        "entry": 892651,
        "entry_name": "From Gatchina",
        "event_total": 55,
        "has_played": true,
        "id": 6130809,
        "last_rank": 63724,
        "player_name": "Dmitriy Alekseev",
        "rank": 66017,
        "rank_sort": 66105,
        "total": 2342
      },
      {
        "club_badge_src": "https://fantasy.premierleague.com/gcs/plfpl-production-adobe-approved/plfpl-production/919808/77b351c0-3740-4525-86a4-42618ac876e8.png",
        "entry": 919808,
        "entry_name": "FC Ultra Legends",
        "event_total": 66,
        "has_played": true,
        "id": 6325636,
        "last_rank": 86054,
        "player_name": "Steve Altaf",
        "rank": 66017,
        "rank_sort": 66106,
        "total": 2342
      },
      {
        "club_badge_src": "https://fantasy.premierleague.com/gcs/plfpl-production-adobe-approved/plfpl-production/940524/6004d3ea-0228-4a88-a10b-b234d66ea556.png",
        "entry": 940524,
        "entry_name": "TikkaMoSalah",
        "event_total": 51,
        "has_played": true,
        "id": 6473996,
        "last_rank": 56099,
        "player_name": "Simen Vedvik",
        "rank": 66017,
        "rank_sort": 66107,
        "total": 2342
      },
      {
        "club_badge_src": null,
        "entry": 946696,
        "entry_name": "Change Name",
        "event_total": 59,
        "has_played": true,
        "id": 6520592,
        "last_rank": 70757,
        "player_name": "George Shuttleworth",
        "rank": 66017,
        "rank_sort": 66108,
        "total": 2342
      },
      {
        "club_badge_src": "https://fantasy.premierleague.com/gcs/plfpl-production-adobe-approved/plfpl-production/953999/5167a0cd-525d-40ba-8460-2bec76501bec.png",
        "entry": 953999,
        "entry_name": "Place holder",
        "event_total": 49,
        "has_played": true,
        "id": 6573058,
        "last_rank": 53023,
        "player_name": "Matt Alexander",
        "rank": 66017,
        "rank_sort": 66109,
        "total": 2342
      },
      {
        "club_badge_src": "https://fantasy.premierleague.com/gcs/plfpl-production-adobe-approved/plfpl-production/956216/fe22bc0a-a38a-454b-b503-f5b9772ccb11.png",
        "entry": 956216,
        "entry_name": "Zinedine Kilbane",
        "event_total": 55,
        "has_played": true,
        "id": 6588532,
        "last_rank": 63390,
        "player_name": "Martin Mee",
        "rank": 66017,
        "rank_sort": 66110,
        "total": 2342
      },
      {
        "club_badge_src": "https://fantasy.premierleague.com/gcs/plfpl-production-adobe-approved/plfpl-production/982030/afc6ae2d-6b17-49b3-9254-00cbcd71111b.png",
        "entry": 982030,
        "entry_name": "Arnold who?",
        "event_total": 63,
        "has_played": true,
        "id": 6770240,
        "last_rank": 79190,
        "player_name": "Saif Emad",
        "rank": 66017,
        "rank_sort": 66111,
        "total": 2342
      },
      {
        "club_badge_src": null,
        "entry": 990953,
        "entry_name": "Pom United",
        "event_total": 50,
        "has_played": true,
        "id": 6832831,
        "last_rank": 54416,
        "player_name": "Tom Hales",
        "rank": 66017,
        "rank_sort": 66112,
        "total": 2342
      },
      {
        "club_badge_src": null,
        "entry": 991677,
        "entry_name": "Wirtz Bumps",
        "event_total": 58,
        "has_played": true,
        "id": 6837824,
        "last_rank": 68957,
        "player_name": "Will Freer",
        "rank": 66017,
        "rank_sort": 66113,
        "total": 2342
      },
      {
        "club_badge_src": "https://fantasy.premierleague.com/gcs/plfpl-production-adobe-approved/plfpl-production/1004948/238f91f9-78dc-416a-8a66-b0953454ec01.png",
        "entry": 1004948,
        "entry_name": "PiGeOnS FC \u2606\u2606\u2606",
        "event_total": 51,
        "has_played": true,
        "id": 6947058,
        "last_rank": 56099,
        "player_name": "Stephen Lyons",
        "rank": 66017,
        "rank_sort": 66114,
        "total": 2342
      },
      {
        "club_badge_src": null,
        "entry": 1014923,
        "entry_name": "Anfield Glory",
        "event_total": 67,
        "has_played": true,
        "id": 7021182,
        "last_rank": 88348,
        "player_name": "Alex Sun",
        "rank": 66017,
        "rank_sort": 66115,
        "total": 2342
      },
      {
        "club_badge_src": null,
        "entry": 1016153,
        "entry_name": "Ollieball FC",
        "event_total": 47,
        "has_played": true,
        "id": 7029823,
        "last_rank": 49880,
        "player_name": "Tim Raines",
        "rank": 66017,
        "rank_sort": 66116,
        "total": 2342
      },
      {
        "club_badge_src": null,
        "entry": 1028145,
        "entry_name": "What\u2019s Rob Holding?",
        "event_total": 44,
        "has_played": true,
        "id": 7113533,
        "last_rank": 45252,
        "player_name": "Daniel Moffatt",
        "rank": 66017,
        "rank_sort": 66117,
        "total": 2342
      },
      {
        "club_badge_src": "https://fantasy.premierleague.com/gcs/plfpl-production-adobe-approved/plfpl-production/1038872/32a7e98e-7afb-4099-a066-c63e8c1abac5.png",
        "entry": 1038872,
        "entry_name": "KevinDeKing_FC",
        "event_total": 45,
        "has_played": true,
        "id": 7189230,
        "last_rank": 46839,
        "player_name": "Amaresh H",
        "rank": 66017,
        "rank_sort": 66118,
        "total": 2342
      },
      {
        "club_badge_src": null,
        "entry": 1076190,
        "entry_name": "Van Dijk",
        "event_total": 66,
        "has_played": true,
        "id": 7451423,
        "last_rank": 85932,
        "player_name": "Oliver Manion",
        "rank": 66017,
        "rank_sort": 66119,
        "total": 2342
      },
      {
        "club_badge_src": null,
        "entry": 1086201,
        "entry_name": "Hall the Way",
        "event_total": 55,
        "has_played": true,
        "id": 7522362,
        "last_rank": 63390,
        "player_name": "martin hall",
        "rank": 66017,
        "rank_sort": 66120,
        "total": 2342
      },
      {
        "club_badge_src": null,
        "entry": 1103211,
        "entry_name": "Cheese and O'Nien",
        "event_total": 47,
        "has_played": true,
        "id": 7641652,
        "last_rank": 50199,
        "player_name": "Tom Costello",
        "rank": 66017,
        "rank_sort": 66121,
        "total": 2342
      },
      {
        "club_badge_src": null,
        "entry": 1118541,
        "entry_name": "Balon 'nee",
        "event_total": 51,
        "has_played": true,
        "id": 7747944,
        "last_rank": 56369,
        "player_name": "Jimmy Rainford",
        "rank": 66017,
        "rank_sort": 66122,
        "total": 2342
      },
      {
        "club_badge_src": null,
        "entry": 1196254,
        "entry_name": "FC Son",
        "event_total": 50,
        "has_played": true,
        "id": 8300917,
        "last_rank": 54667,
        "player_name": "Michal Son",
        "rank": 66017,
        "rank_sort": 66123,
        "total": 2342
      },
      {
        "club_badge_src": null,
        "entry": 1224404,
        "entry_name": "Livin\u2019 Saliba Loca",
        "event_total": 66,
        "has_played": true,
        "id": 8501450,
        "last_rank": 86304,
        "player_name": "Jaishal Chauhan",
        "rank": 66017,
        "rank_sort": 66124,
        "total": 2342
      },
      {
        "club_badge_src": null,
        "entry": 1226361,
        "entry_name": "yaser ali",
        "event_total": 57,
        "has_played": true,
        "id": 8515312,
        "last_rank": 67063,
        "player_name": "\u0634\u0648\u0634\u0639 \u0627\u0644\u0639\u0627\u0644\u0645\u064a",
        "rank": 66017,
        "rank_sort": 66125,
        "total": 2342
      },
      {
        "club_badge_src": null,
        "entry": 1230688,
        "entry_name": "Matz Sels Sea Shells",
        "event_total": 64,
        "has_played": true,
        "id": 8545662,
        "last_rank": 72702,
        "player_name": "Matt Tallis",
        "rank": 66017,
        "rank_sort": 66126,
        "total": 2342
      },
      {
        "club_badge_src": "https://fantasy.premierleague.com/gcs/plfpl-production-adobe-approved/plfpl-production/1245091/6ddd0b60-3a6b-496a-899e-e5ede7a21b33.png",
        "entry": 1245091,
        "entry_name": "BILL K",
        "event_total": 77,
        "has_played": true,
        "id": 8647263,
        "last_rank": 115057,
        "player_name": "Bill M",
        "rank": 66017,
        "rank_sort": 66127,
        "total": 2342
      },
      {
        "club_badge_src": null,
        "entry": 1248676,
        "entry_name": "Twin 1 Toon",
        "event_total": 70,
        "has_played": true,
        "id": 8672066,
        "last_rank": 95640,
        "player_name": "Richard Ives",
        "rank": 66017,
        "rank_sort": 66128,
        "total": 2342
      },
      {
        "club_badge_src": null,
        "entry": 1255125,
        "entry_name": "Could Be Wirtz",
        "event_total": 55,
        "has_played": true,
        "id": 8717422,
        "last_rank": 63201,
        "player_name": "Petra \u00c5berg",
        "rank": 66017,
        "rank_sort": 66129,
        "total": 2342
      },
      {
        "club_badge_src": null,
        "entry": 1255342,
        "entry_name": "AS Kula",
        "event_total": 58,
        "has_played": true,
        "id": 8718900,
        "last_rank": 68957,
        "player_name": "Daniel Kulvik",
        "rank": 66017,
        "rank_sort": 66130,
        "total": 2342
      },
      {
        "club_badge_src": null,
        "entry": 1262091,
        "entry_name": "Leftfield Back",
        "event_total": 47,
        "has_played": true,
        "id": 8767700,
        "last_rank": 49880,
        "player_name": "Mike Best",
        "rank": 66017,
        "rank_sort": 66131,
        "total": 2342
      },
      {
        "club_badge_src": null,
        "entry": 1269763,
        "entry_name": "SweatyTanaka\u2019s",
        "event_total": 76,
        "has_played": true,
        "id": 8822355,
        "last_rank": 111405,
        "player_name": "The Pitch Invader",
        "rank": 66017,
        "rank_sort": 66132,
        "total": 2342
      },
      {
        "club_badge_src": null,
        "entry": 1279642,
        "entry_name": "Gittens Rich",
        "event_total": 63,
        "has_played": true,
        "id": 8891933,
        "last_rank": 79190,
        "player_name": "Darren Aiken",
        "rank": 66017,
        "rank_sort": 66133,
        "total": 2342
      },
      {
        "club_badge_src": null,
        "entry": 1291581,
        "entry_name": "BK Brallan",
        "event_total": 56,
        "has_played": true,
        "id": 8974975,
        "last_rank": 64943,
        "player_name": "Axel Lindgren",
        "rank": 66017,
        "rank_sort": 66134,
        "total": 2342
      },
      {
        "club_badge_src": null,
        "entry": 1295304,
        "entry_name": "Anismadrid",
        "event_total": 55,
        "has_played": true,
        "id": 9002114,
        "last_rank": 63390,
        "player_name": "Anas Tina",
        "rank": 66017,
        "rank_sort": 66135,
        "total": 2342
      },
      {
        "club_badge_src": null,
        "entry": 1308345,
        "entry_name": "\u0644\u0627 \u0627\u062d\u0628 \u0634\u064a\u0627",
        "event_total": 47,
        "has_played": true,
        "id": 9094036,
        "last_rank": 49691,
        "player_name": "Yusuf Ali",
        "rank": 66017,
        "rank_sort": 66136,
        "total": 2342
      },
      {
        "club_badge_src": null,
        "entry": 1312633,
        "entry_name": "\u00af\\_(\u30c4)_/\u00af",
        "event_total": 60,
        "has_played": true,
        "id": 9123816,
        "last_rank": 72815,
        "player_name": "Mohammed Adam",
        "rank": 66017,
        "rank_sort": 66137,
        "total": 2342
      },
      {
        "club_badge_src": null,
        "entry": 1343539,
        "entry_name": "Haven't Got A Kalou",
        "event_total": 55,
        "has_played": true,
        "id": 9341039,
        "last_rank": 63390,
        "player_name": "Dom Norris",
        "rank": 66017,
        "rank_sort": 66138,
        "total": 2342
      },
      {
        "club_badge_src": null,
        "entry": 1424129,
        "entry_name": "Defend Defend Defend",
        "event_total": 54,
        "has_played": true,
        "id": 9920789,
        "last_rank": 61950,
        "player_name": "Dhiren Haria",
        "rank": 66017,
        "rank_sort": 66139,
        "total": 2342
      },
      {
        "club_badge_src": null,
        "entry": 1453086,
        "entry_name": "Drogba FC",
        "event_total": 48,
        "has_played": true,
        "id": 10125120,
        "last_rank": 51137,
        "player_name": "Ezzeldin Aly",
        "rank": 66017,
        "rank_sort": 66140,
        "total": 2342
      },
      {
        "club_badge_src": null,
        "entry": 1473685,
        "entry_name": "Under My Cucurella",
        "event_total": 59,
        "has_played": true,
        "id": 10272412,
        "last_rank": 70985,
        "player_name": "Michael Norris",
        "rank": 66017,
        "rank_sort": 66141,
        "total": 2342
      },
      {
        "club_badge_src": "https://fantasy.premierleague.com/gcs/plfpl-production-adobe-approved/plfpl-production/1501836/bca79c41-a187-487f-8745-bca470a5c8e8.png",
        "entry": 1501836,
        "entry_name": "Iain't got a clue",
        "event_total": 57,
        "has_played": true,
        "id": 10473779,
        "last_rank": 67063,
        "player_name": "Iain McKellar",
        "rank": 66017,
        "rank_sort": 66142,
        "total": 2342
      },
      {
        "club_badge_src": null,
        "entry": 1520124,
        "entry_name": "Viktory Is All",
        "event_total": 54,
        "has_played": true,
        "id": 10602465,
        "last_rank": 61411,
        "player_name": "Martyn Davies",
        "rank": 66017,
        "rank_sort": 66143,
        "total": 2342
      },
      {
        "club_badge_src": "https://fantasy.premierleague.com/gcs/plfpl-production-adobe-approved/plfpl-production/1569448/07e6b612-c757-4108-bea8-6c0453b8944c.png",
        "entry": 1569448,
        "entry_name": "Reece's Pieces",
        "event_total": 53,
        "has_played": true,
        "id": 10963993,
        "last_rank": 59632,
        "player_name": "Reece Clark",
        "rank": 66017,
        "rank_sort": 66144,
        "total": 2342
      },
      {
        "club_badge_src": null,
        "entry": 1574804,
        "entry_name": "Soliga Budvars",
        "event_total": 57,
        "has_played": true,
        "id": 11004186,
        "last_rank": 67422,
        "player_name": "Oliver Runesson",
        "rank": 66017,
        "rank_sort": 66145,
        "total": 2342
      },
      {
        "club_badge_src": null,
        "entry": 1575088,
        "entry_name": "Dorgu the Explorer",
        "event_total": 59,
        "has_played": true,
        "id": 11006196,
        "last_rank": 70651,
        "player_name": "Advait Thaker",
        "rank": 66017,
        "rank_sort": 66146,
        "total": 2342
      },
      {
        "club_badge_src": "https://fantasy.premierleague.com/gcs/plfpl-production-adobe-approved/plfpl-production/1689632/ec10db3d-42ae-4ca3-a423-f257b1ed37c3.png",
        "entry": 1689632,
        "entry_name": "jebemisetacno",
        "event_total": 53,
        "has_played": true,
        "id": 11828231,
        "last_rank": 59813,
        "player_name": "Mitar \u010curovi\u0107",
        "rank": 66017,
        "rank_sort": 66147,
        "total": 2342
      },
      {
        "club_badge_src": null,
        "entry": 1724655,
        "entry_name": "Karl T",
        "event_total": 69,
        "has_played": true,
        "id": 12093830,
        "last_rank": 93186,
        "player_name": "Karl Tyas",
        "rank": 66017,
        "rank_sort": 66148,
        "total": 2342
      },
      {
        "club_badge_src": "https://fantasy.premierleague.com/gcs/plfpl-production-adobe-approved/plfpl-production/1749885/264ab089-bfc1-4563-8464-84c7951a1110.png",
        "entry": 1749885,
        "entry_name": "Tukkerpool FC",
        "event_total": 55,
        "has_played": true,
        "id": 12280175,
        "last_rank": 63390,
        "player_name": "Kevin Bokdam",
        "rank": 66017,
        "rank_sort": 66149,
        "total": 2342
      },
      {
        "club_badge_src": "https://fantasy.premierleague.com/gcs/plfpl-production-adobe-approved/plfpl-production/1755903/ca0dce44-6648-4178-a1fb-f1eae1cf35bc.png",
        "entry": 1755903,
        "entry_name": "King of Champions",
        "event_total": 56,
        "has_played": true,
        "id": 12327401,
        "last_rank": 65163,
        "player_name": "Boulinot Jeannot",
        "rank": 66017,
        "rank_sort": 66150,
        "total": 2342
      }
    ]
  }
}