{
  "last_updated_data": "2026-05-24T23:28:17Z",
  "league": {
    "admin_entry": null,
    "closed": false,
    "code_privacy": "p",
    "created": "2025-07-20T23:14:33.933835Z",
    "cup_league": 2815434,
    "has_cup": true,
    "id": 314,
    "league_type": "s",
    "max_entries": null,
    "name": "Overall",
    "rank": null,
    "scoring": "c",
    "start_event": 1
  },
  "new_entries": {
    "has_next": false,
    "page": 1,
    "results": []
  },
  "standings": {
    "has_next": true,
    "page": 1422,
    "results": [
      {
        "club_badge_src": null,
        "entry": 4463766,
        "entry_name": "Mad-eye Muniz xi",
        "event_total": 61,
        "has_played": true,
        "id": 34008927,
        "last_rank": 71713,
        "player_name": "Elliot Apcar",
        "rank": 70970,
        "rank_sort": 71051,
        "total": 2340
      },
      {
        "club_badge_src": null,
        "entry": 4652794,
        "entry_name": "Toto Rakan",
        "event_total": 50,
        "has_played": true,
        "id": 35599369,
        "last_rank": 59170,
        "player_name": "rmah 11",
        "rank": 70970,
        "rank_sort": 71052,
        "total": 2340
      },
      {
        "club_badge_src": "https://fantasy.premierleague.com/gcs/plfpl-production-adobe-approved/plfpl-production/4731168/e63b56df-5b5a-4d80-aa89-c7d8946ee458.png",
        "entry": 4731168,
        "entry_name": "Hala madrid",
        "event_total": 60,
        "has_played": true,
        "id": 36393211,
        "last_rank": 78575,
        "player_name": "Abel Solomon",
        "rank": 70970,
        "rank_sort": 71053,
        "total": 2340
      },
      {
        "club_badge_src": null,
        "entry": 4768495,
        "entry_name": "Mohammed Alrughaib",
        "event_total": 65,
        "has_played": true,
        "id": 36700639,
        "last_rank": 71956,
        "player_name": "Mohammed Alragheeb",
        "rank": 70970,
        "rank_sort": 71054,
        "total": 2340
      },
      {
        "club_badge_src": null,
        "entry": 4884022,
        "entry_name": "Money Muniz",
        "event_total": 68,
        "has_played": true,
        "id": 37652808,
        "last_rank": 97305,
        "player_name": "Jeremy Haw",
        "rank": 70970,
        "rank_sort": 71055,
        "total": 2340
      },
      {
        "club_badge_src": null,
        "entry": 4955660,
        "entry_name": "ROYAL FANTASY F.C",
        "event_total": 61,
        "has_played": true,
        "id": 38240823,
        "last_rank": 72145,
        "player_name": "Istiak Hasan Ratul",
        "rank": 70970,
        "rank_sort": 71056,
        "total": 2340
      },
      {
        "club_badge_src": null,
        "entry": 5258722,
        "entry_name": "A Date With Destiny",
        "event_total": 44,
        "has_played": true,
        "id": 40757057,
        "last_rank": 49301,
        "player_name": "Mike Seymour",
        "rank": 70970,
        "rank_sort": 71057,
        "total": 2340
      },
      {
        "club_badge_src": null,
        "entry": 5355062,
        "entry_name": "Not Messi Around SC",
        "event_total": 59,
        "has_played": true,
        "id": 41579887,
        "last_rank": 76474,
        "player_name": "willis wang",
        "rank": 70970,
        "rank_sort": 71058,
        "total": 2340
      },
      {
        "club_badge_src": null,
        "entry": 5361884,
        "entry_name": "\ufffdA\u2022li\u2022verp\u00a4.\u00a4l\ufffd",
        "event_total": 43,
        "has_played": true,
        "id": 41646189,
        "last_rank": 47812,
        "player_name": "Ali Rockaya",
        "rank": 70970,
        "rank_sort": 71059,
        "total": 2340
      },
      {
        "club_badge_src": null,
        "entry": 5405299,
        "entry_name": "cuhnamada",
        "event_total": 62,
        "has_played": true,
        "id": 42030585,
        "last_rank": 83018,
        "player_name": "Trevor Egan",
        "rank": 70970,
        "rank_sort": 71060,
        "total": 2340
      },
      {
        "club_badge_src": null,
        "entry": 5467373,
        "entry_name": "Counterpart",
        "event_total": 53,
        "has_played": true,
        "id": 42552561,
        "last_rank": 64422,
        "player_name": "Izecson Cruz",
        "rank": 70970,
        "rank_sort": 71061,
        "total": 2340
      },
      {
        "club_badge_src": null,
        "entry": 6208246,
        "entry_name": "Nordstrand Rovers",
        "event_total": 59,
        "has_played": true,
        "id": 49116731,
        "last_rank": 76474,
        "player_name": "Stian Andorsen",
        "rank": 70970,
        "rank_sort": 71062,
        "total": 2340
      },
      {
        "club_badge_src": null,
        "entry": 6275354,
        "entry_name": "Ring Them Bells",
        "event_total": 61,
        "has_played": true,
        "id": 49693947,
        "last_rank": 72145,
        "player_name": "Jerry Lepine",
        "rank": 70970,
        "rank_sort": 71063,
        "total": 2340
      },
      {
        "club_badge_src": null,
        "entry": 6311949,
        "entry_name": "Wanchope of the Pops",
        "event_total": 63,
        "has_played": true,
        "id": 50080603,
        "last_rank": 76128,
        "player_name": "Matt Ralphs",
        "rank": 70970,
        "rank_sort": 71064,
        "total": 2340
      },
      {
        "club_badge_src": null,
        "entry": 6938544,
        "entry_name": "Ctrl Alt De Ligt",
        "event_total": 69,
        "has_played": true,
        "id": 55628265,
        "last_rank": 99806,
        "player_name": "Amir Hamza",
        "rank": 70970,
        "rank_sort": 71065,
        "total": 2340
      },
      {
        "club_badge_src": null,
        "entry": 6942115,
        "entry_name": "Hakuna Mateta",
        "event_total": 50,
        "has_played": true,
        "id": 55659215,
        "last_rank": 35424,
        "player_name": "Russell Vernon",
        "rank": 70970,
        "rank_sort": 71066,
        "total": 2340
      },
      {
        "club_badge_src": null,
        "entry": 7011826,
        "entry_name": "Forza Farioli",
        "event_total": 63,
        "has_played": true,
        "id": 56312042,
        "last_rank": 85207,
        "player_name": "Jason Wiedijk",
        "rank": 70970,
        "rank_sort": 71067,
        "total": 2340
      },
      {
        "club_badge_src": null,
        "entry": 7062135,
        "entry_name": "Zubi Dubi Doo",
        "event_total": 60,
        "has_played": true,
        "id": 56815852,
        "last_rank": 62429,
        "player_name": "Bond K",
        "rank": 70970,
        "rank_sort": 71068,
        "total": 2340
      },
      {
        "club_badge_src": null,
        "entry": 7292546,
        "entry_name": "Ahuja FC",
        "event_total": 68,
        "has_played": true,
        "id": 59006795,
        "last_rank": 97305,
        "player_name": "Aditya Ahuja",
        "rank": 70970,
        "rank_sort": 71069,
        "total": 2340
      },
      {
        "club_badge_src": null,
        "entry": 7395221,
        "entry_name": "SH3",
        "event_total": 63,
        "has_played": true,
        "id": 59969586,
        "last_rank": 67926,
        "player_name": "Saad Alshathri",
        "rank": 70970,
        "rank_sort": 71070,
        "total": 2340
      },
      {
        "club_badge_src": null,
        "entry": 7423516,
        "entry_name": "Gyok The Casbah",
        "event_total": 52,
        "has_played": true,
        "id": 60285171,
        "last_rank": 62724,
        "player_name": "Charlie Burton",
        "rank": 70970,
        "rank_sort": 71071,
        "total": 2340
      },
      {
        "club_badge_src": null,
        "entry": 7573766,
        "entry_name": "Head Shot FC",
        "event_total": 70,
        "has_played": true,
        "id": 62026657,
        "last_rank": 102501,
        "player_name": "Shahjada Shahnewaj",
        "rank": 70970,
        "rank_sort": 71072,
        "total": 2340
      },
      {
        "club_badge_src": null,
        "entry": 7637369,
        "entry_name": "MaguireMode",
        "event_total": 63,
        "has_played": true,
        "id": 62602238,
        "last_rank": 85207,
        "player_name": "Shakil Ali",
        "rank": 70970,
        "rank_sort": 71073,
        "total": 2340
      },
      {
        "club_badge_src": null,
        "entry": 7814852,
        "entry_name": "chelsawe",
        "event_total": 65,
        "has_played": true,
        "id": 64207723,
        "last_rank": 90057,
        "player_name": "mina manasa",
        "rank": 70970,
        "rank_sort": 71074,
        "total": 2340
      },
      {
        "club_badge_src": null,
        "entry": 8083856,
        "entry_name": "iceiceice",
        "event_total": 54,
        "has_played": true,
        "id": 66650964,
        "last_rank": 66296,
        "player_name": "iceiceice natta",
        "rank": 70970,
        "rank_sort": 71075,
        "total": 2340
      },
      {
        "club_badge_src": "https://fantasy.premierleague.com/gcs/plfpl-production-adobe-approved/plfpl-production/8345591/6b2125ef-c427-4616-9cf1-d863882d4def.png",
        "entry": 8345591,
        "entry_name": "B \u018f \u00c6 \u00d1 W \u00ce \u0145 \u0110 \u00c5 \u00a7\u015e",
        "event_total": 49,
        "has_played": true,
        "id": 69161322,
        "last_rank": 57451,
        "player_name": "Robert Kyshenia",
        "rank": 70970,
        "rank_sort": 71076,
        "total": 2340
      },
      {
        "club_badge_src": null,
        "entry": 9048895,
        "entry_name": "me and ronaldo >",
        "event_total": 57,
        "has_played": true,
        "id": 75954020,
        "last_rank": 64319,
        "player_name": "KING OTTO",
        "rank": 70970,
        "rank_sort": 71077,
        "total": 2340
      },
      {
        "club_badge_src": null,
        "entry": 9123257,
        "entry_name": "DexI PiCZ",
        "event_total": 50,
        "has_played": true,
        "id": 76680087,
        "last_rank": 52357,
        "player_name": "Steva Jovanovic",
        "rank": 70970,
        "rank_sort": 71078,
        "total": 2340
      },
      {
        "club_badge_src": null,
        "entry": 4497,
        "entry_name": "HB11",
        "event_total": 60,
        "has_played": true,
        "id": 25572,
        "last_rank": 70183,
        "player_name": "Himesh Bhatt",
        "rank": 71079,
        "rank_sort": 71079,
        "total": 2340
      },
      {
        "club_badge_src": null,
        "entry": 7228,
        "entry_name": "Van de Udogie",
        "event_total": 56,
        "has_played": true,
        "id": 41652,
        "last_rank": 70183,
        "player_name": "Kanlee Ebator",
        "rank": 71079,
        "rank_sort": 71080,
        "total": 2340
      },
      {
        "club_badge_src": null,
        "entry": 28521,
        "entry_name": "Gal\u00e1cticos",
        "event_total": 73,
        "has_played": true,
        "id": 180341,
        "last_rank": 99959,
        "player_name": "Mohammed Hany",
        "rank": 71079,
        "rank_sort": 71081,
        "total": 2340
      },
      {
        "club_badge_src": null,
        "entry": 81702,
        "entry_name": "I DontWannaChargeDJ",
        "event_total": 52,
        "has_played": true,
        "id": 531508,
        "last_rank": 62724,
        "player_name": "David O Neill",
        "rank": 71079,
        "rank_sort": 71082,
        "total": 2340
      },
      {
        "club_badge_src": null,
        "entry": 85472,
        "entry_name": "It Doesn't Mata FC",
        "event_total": 61,
        "has_played": true,
        "id": 556675,
        "last_rank": 80877,
        "player_name": "Robert Bevan",
        "rank": 71079,
        "rank_sort": 71083,
        "total": 2340
      },
      {
        "club_badge_src": null,
        "entry": 94766,
        "entry_name": "Rutter Woke Nonsense",
        "event_total": 73,
        "has_played": true,
        "id": 619213,
        "last_rank": 99959,
        "player_name": "Dan Slater-",
        "rank": 71079,
        "rank_sort": 71084,
        "total": 2340
      },
      {
        "club_badge_src": null,
        "entry": 152798,
        "entry_name": "Ronaldinhoes",
        "event_total": 66,
        "has_played": true,
        "id": 1003063,
        "last_rank": 74166,
        "player_name": "Ethan Cross",
        "rank": 71079,
        "rank_sort": 71085,
        "total": 2340
      },
      {
        "club_badge_src": null,
        "entry": 157847,
        "entry_name": "555",
        "event_total": 67,
        "has_played": true,
        "id": 1038564,
        "last_rank": 95063,
        "player_name": "Uncle Moo",
        "rank": 71079,
        "rank_sort": 71086,
        "total": 2340
      },
      {
        "club_badge_src": "https://fantasy.premierleague.com/gcs/plfpl-production-adobe-approved/plfpl-production/185401/5caf06e7-dc47-4f37-b7a8-a744871bc374.png",
        "entry": 185401,
        "entry_name": "Harmony",
        "event_total": 68,
        "has_played": true,
        "id": 1224694,
        "last_rank": 87541,
        "player_name": "Ayman Harmony",
        "rank": 71079,
        "rank_sort": 71087,
        "total": 2340
      },
      {
        "club_badge_src": null,
        "entry": 211880,
        "entry_name": "Sporting Lesbion",
        "event_total": 61,
        "has_played": true,
        "id": 1409379,
        "last_rank": 80877,
        "player_name": "Gabriel Colyer",
        "rank": 71079,
        "rank_sort": 71088,
        "total": 2340
      },
      {
        "club_badge_src": null,
        "entry": 298887,
        "entry_name": "KOLLO RAYE7",
        "event_total": 57,
        "has_played": true,
        "id": 1998583,
        "last_rank": 64422,
        "player_name": "Abdelrahman Magdy",
        "rank": 71079,
        "rank_sort": 71089,
        "total": 2340
      },
      {
        "club_badge_src": null,
        "entry": 328082,
        "entry_name": "The Diouf is on fire",
        "event_total": 53,
        "has_played": true,
        "id": 2197969,
        "last_rank": 64508,
        "player_name": "Hallam Walker",
        "rank": 71079,
        "rank_sort": 71090,
        "total": 2340
      },
      {
        "club_badge_src": null,
        "entry": 335759,
        "entry_name": "3-peaters",
        "event_total": 62,
        "has_played": true,
        "id": 2248096,
        "last_rank": 74317,
        "player_name": "Greg Alves",
        "rank": 71079,
        "rank_sort": 71091,
        "total": 2340
      },
      {
        "club_badge_src": null,
        "entry": 378856,
        "entry_name": "Kara5ana fc",
        "event_total": 54,
        "has_played": true,
        "id": 2538315,
        "last_rank": 66380,
        "player_name": "zezo mustafa",
        "rank": 71079,
        "rank_sort": 71092,
        "total": 2340
      },
      {
        "club_badge_src": "https://fantasy.premierleague.com/gcs/plfpl-production-adobe-approved/plfpl-production/381023/ec50e4c5-7dc3-4ecd-ae7d-861709c683fc.png",
        "entry": 381023,
        "entry_name": "Gimbah FC",
        "event_total": 60,
        "has_played": true,
        "id": 2554018,
        "last_rank": 70183,
        "player_name": "Nafees Rawoot",
        "rank": 71079,
        "rank_sort": 71093,
        "total": 2340
      },
      {
        "club_badge_src": null,
        "entry": 466565,
        "entry_name": "In Expectation",
        "event_total": 68,
        "has_played": true,
        "id": 3130397,
        "last_rank": 97470,
        "player_name": "Dan Cornford",
        "rank": 71079,
        "rank_sort": 71094,
        "total": 2340
      },
      {
        "club_badge_src": null,
        "entry": 475558,
        "entry_name": "Petesam Team",
        "event_total": 64,
        "has_played": true,
        "id": 3192485,
        "last_rank": 62429,
        "player_name": "Krzysztof Nowakowski",
        "rank": 71079,
        "rank_sort": 71095,
        "total": 2340
      },
      {
        "club_badge_src": null,
        "entry": 515675,
        "entry_name": "Royal Tenenbaums",
        "event_total": 50,
        "has_played": true,
        "id": 3462196,
        "last_rank": 52461,
        "player_name": "Shayan Tariq",
        "rank": 71079,
        "rank_sort": 71096,
        "total": 2340
      },
      {
        "club_badge_src": null,
        "entry": 586237,
        "entry_name": "Grintaa",
        "event_total": 68,
        "has_played": true,
        "id": 3945215,
        "last_rank": 87710,
        "player_name": "Youssef Korraa",
        "rank": 71079,
        "rank_sort": 71097,
        "total": 2340
      },
      {
        "club_badge_src": null,
        "entry": 590161,
        "entry_name": "Bruno, dos, tres",
        "event_total": 64,
        "has_played": true,
        "id": 3975393,
        "last_rank": 78575,
        "player_name": "Tanav Makol",
        "rank": 71079,
        "rank_sort": 71098,
        "total": 2340
      },
      {
        "club_badge_src": null,
        "entry": 595832,
        "entry_name": "Sir Rory Reid",
        "event_total": 50,
        "has_played": true,
        "id": 4016990,
        "last_rank": 52461,
        "player_name": "Rory Reid",
        "rank": 71079,
        "rank_sort": 71099,
        "total": 2340
      },
      {
        "club_badge_src": "https://fantasy.premierleague.com/gcs/plfpl-production-adobe-approved/plfpl-production/628644/e980f7f8-de5c-4a41-8ca1-7b7b93cc4100.png",
        "entry": 628644,
        "entry_name": "Sporting Abeergut",
        "event_total": 64,
        "has_played": true,
        "id": 4248074,
        "last_rank": 78575,
        "player_name": "Gary Bennett",
        "rank": 71079,
        "rank_sort": 71100,
        "total": 2340
      }
    ]
  }
}