{
  "last_updated_data": "2026-05-24T23:28:17Z",
  "league": {
    "admin_entry": null,
    "closed": false,
    "code_privacy": "p",
    "created": "2025-07-20T23:14:33.933835Z",
    "cup_league": 2815434,
    "has_cup": true,
    "id": 314,
    "league_type": "s",
    "max_entries": null,
    "name": "Overall",
    "rank": null,
    "scoring": "c",
    "start_event": 1
  },
  "new_entries": {
    "has_next": false,
    "page": 1,
    "results": []
  },
  "standings": {
    "has_next": true,
    "page": 659,
    "results": [
      {
        "club_badge_src": null,
        "entry": 52047,
        "entry_name": "Menchaster City",
        "event_total": 75,
        "has_played": true,
        "id": 334730,
        "last_rank": 57743,
        "player_name": "Peter Nott",
        "rank": 32898,
        "rank_sort": 32901,
        "total": 2365
      },
      {
        "club_badge_src": "https://fantasy.premierleague.com/gcs/plfpl-production-adobe-approved/plfpl-production/70117/d49e3726-30ed-4c19-9a8a-10f601c8878c.png",
        "entry": 70117,
        "entry_name": "Gl\u00f6ck14",
        "event_total": 63,
        "has_played": true,
        "id": 455155,
        "last_rank": 39816,
        "player_name": "Mishal Maleque",
        "rank": 32898,
        "rank_sort": 32902,
        "total": 2365
      },
      {
        "club_badge_src": null,
        "entry": 153801,
        "entry_name": "Kingsland FC",
        "event_total": 56,
        "has_played": true,
        "id": 1010156,
        "last_rank": 31556,
        "player_name": "James Ellis",
        "rank": 32898,
        "rank_sort": 32903,
        "total": 2365
      },
      {
        "club_badge_src": "https://fantasy.premierleague.com/gcs/plfpl-production-adobe-approved/plfpl-production/155844/02070fbb-0de2-48dd-82b4-c7261831451c.png",
        "entry": 155844,
        "entry_name": "Could be Wirtz",
        "event_total": 62,
        "has_played": true,
        "id": 1024571,
        "last_rank": 38528,
        "player_name": "Will Parsons",
        "rank": 32898,
        "rank_sort": 32904,
        "total": 2365
      },
      {
        "club_badge_src": "https://fantasy.premierleague.com/gcs/plfpl-production-adobe-approved/plfpl-production/253230/32958950-d66f-4b63-bea5-283144b416f4.png",
        "entry": 253230,
        "entry_name": "AFC Chippy Chips",
        "event_total": 49,
        "has_played": true,
        "id": 1684249,
        "last_rank": 25002,
        "player_name": "Bryce Morgan",
        "rank": 32898,
        "rank_sort": 32905,
        "total": 2365
      },
      {
        "club_badge_src": null,
        "entry": 360636,
        "entry_name": "21 Times",
        "event_total": 63,
        "has_played": true,
        "id": 2413198,
        "last_rank": 39874,
        "player_name": "Ryan Coburn",
        "rank": 32898,
        "rank_sort": 32906,
        "total": 2365
      },
      {
        "club_badge_src": null,
        "entry": 386994,
        "entry_name": "Please Colback Later",
        "event_total": 67,
        "has_played": true,
        "id": 2596162,
        "last_rank": 45252,
        "player_name": "Brendan Budd",
        "rank": 32898,
        "rank_sort": 32907,
        "total": 2365
      },
      {
        "club_badge_src": "https://fantasy.premierleague.com/gcs/plfpl-production-adobe-approved/plfpl-production/401801/45147f2d-88f3-489a-a653-7f2f439222bc.png",
        "entry": 401801,
        "entry_name": "Sir FC",
        "event_total": 43,
        "has_played": true,
        "id": 2694229,
        "last_rank": 20280,
        "player_name": "Abdullah AL-Ghassani",
        "rank": 32898,
        "rank_sort": 32908,
        "total": 2365
      },
      {
        "club_badge_src": null,
        "entry": 409073,
        "entry_name": "This Time (Again) XI",
        "event_total": 65,
        "has_played": true,
        "id": 2743161,
        "last_rank": 42648,
        "player_name": "graham pycroft",
        "rank": 32898,
        "rank_sort": 32909,
        "total": 2365
      },
      {
        "club_badge_src": null,
        "entry": 648476,
        "entry_name": "Jtmayo",
        "event_total": 66,
        "has_played": true,
        "id": 4382581,
        "last_rank": 43849,
        "player_name": "John Togher",
        "rank": 32898,
        "rank_sort": 32910,
        "total": 2365
      },
      {
        "club_badge_src": null,
        "entry": 669058,
        "entry_name": "FCGB",
        "event_total": 61,
        "has_played": true,
        "id": 4524677,
        "last_rank": 37376,
        "player_name": "Grant Beckwith",
        "rank": 32898,
        "rank_sort": 32911,
        "total": 2365
      },
      {
        "club_badge_src": null,
        "entry": 674129,
        "entry_name": "Mo \ufffd FC",
        "event_total": 46,
        "has_played": true,
        "id": 4560376,
        "last_rank": 22534,
        "player_name": "-- Mohamed Khaled --",
        "rank": 32898,
        "rank_sort": 32912,
        "total": 2365
      },
      {
        "club_badge_src": null,
        "entry": 898537,
        "entry_name": "Mbeumo's Cunha-ing",
        "event_total": 62,
        "has_played": true,
        "id": 6173586,
        "last_rank": 38571,
        "player_name": "Jenish Shah",
        "rank": 32898,
        "rank_sort": 32913,
        "total": 2365
      },
      {
        "club_badge_src": null,
        "entry": 954702,
        "entry_name": "\u0627\u0644\u0639\u0646\u062a\u064a\u0644",
        "event_total": 49,
        "has_played": true,
        "id": 6577932,
        "last_rank": 25002,
        "player_name": "ahmed samy",
        "rank": 32898,
        "rank_sort": 32914,
        "total": 2365
      },
      {
        "club_badge_src": null,
        "entry": 1040480,
        "entry_name": "Alba fc",
        "event_total": 58,
        "has_played": true,
        "id": 7200437,
        "last_rank": 34051,
        "player_name": "James harker",
        "rank": 32898,
        "rank_sort": 32915,
        "total": 2365
      },
      {
        "club_badge_src": null,
        "entry": 1187993,
        "entry_name": "Mohamed",
        "event_total": 50,
        "has_played": true,
        "id": 8242862,
        "last_rank": 25902,
        "player_name": "Mohamed Roma",
        "rank": 32898,
        "rank_sort": 32916,
        "total": 2365
      },
      {
        "club_badge_src": "https://fantasy.premierleague.com/gcs/plfpl-production-adobe-approved/plfpl-production/1252462/2f540caf-ac52-4531-a088-dde28a711bab.png",
        "entry": 1252462,
        "entry_name": "BK Warriors",
        "event_total": 63,
        "has_played": true,
        "id": 8698757,
        "last_rank": 39816,
        "player_name": "Bastian Kristensen",
        "rank": 32898,
        "rank_sort": 32917,
        "total": 2365
      },
      {
        "club_badge_src": "https://fantasy.premierleague.com/gcs/plfpl-production-adobe-approved/plfpl-production/1281025/2b6b184b-88d3-4e10-9e3b-89093142ddcb.png",
        "entry": 1281025,
        "entry_name": "Purple Reign",
        "event_total": 52,
        "has_played": true,
        "id": 8901475,
        "last_rank": 27585,
        "player_name": "Stephen John",
        "rank": 32898,
        "rank_sort": 32918,
        "total": 2365
      },
      {
        "club_badge_src": null,
        "entry": 1549163,
        "entry_name": "Bruno FC",
        "event_total": 55,
        "has_played": true,
        "id": 10816058,
        "last_rank": 26631,
        "player_name": "Bruno Pinheiro",
        "rank": 32898,
        "rank_sort": 32919,
        "total": 2365
      },
      {
        "club_badge_src": null,
        "entry": 1680471,
        "entry_name": "Mark's Team",
        "event_total": 51,
        "has_played": true,
        "id": 11764141,
        "last_rank": 26710,
        "player_name": "Mark Buchanan",
        "rank": 32898,
        "rank_sort": 32920,
        "total": 2365
      },
      {
        "club_badge_src": null,
        "entry": 1785464,
        "entry_name": "Horuce strely",
        "event_total": 68,
        "has_played": true,
        "id": 12544982,
        "last_rank": 46591,
        "player_name": "Miroslav Richtar\u010d\u00edk",
        "rank": 32898,
        "rank_sort": 32921,
        "total": 2365
      },
      {
        "club_badge_src": null,
        "entry": 2040243,
        "entry_name": "Jacko's Army",
        "event_total": 51,
        "has_played": true,
        "id": 14448001,
        "last_rank": 26827,
        "player_name": "Jackson Shorrocks",
        "rank": 32898,
        "rank_sort": 32922,
        "total": 2365
      },
      {
        "club_badge_src": null,
        "entry": 2114391,
        "entry_name": "All Hail King Julien",
        "event_total": 53,
        "has_played": true,
        "id": 15011721,
        "last_rank": 28546,
        "player_name": "Govind Kapiyarat",
        "rank": 32898,
        "rank_sort": 32923,
        "total": 2365
      },
      {
        "club_badge_src": "https://fantasy.premierleague.com/gcs/plfpl-production-adobe-approved/plfpl-production/2519689/65f2db7e-f548-485e-a5ee-51317b99e622.png",
        "entry": 2519689,
        "entry_name": "lar.bi_",
        "event_total": 56,
        "has_played": true,
        "id": 18053530,
        "last_rank": 31747,
        "player_name": "Caleb Adjei-Larbi",
        "rank": 32898,
        "rank_sort": 32924,
        "total": 2365
      },
      {
        "club_badge_src": null,
        "entry": 2870353,
        "entry_name": "Usrano govno",
        "event_total": 49,
        "has_played": true,
        "id": 20998581,
        "last_rank": 25002,
        "player_name": "Nikola Milardovic",
        "rank": 32898,
        "rank_sort": 32925,
        "total": 2365
      },
      {
        "club_badge_src": null,
        "entry": 3057748,
        "entry_name": "Rubber Kingy Rapids",
        "event_total": 62,
        "has_played": true,
        "id": 22512080,
        "last_rank": 38774,
        "player_name": "Alex King",
        "rank": 32898,
        "rank_sort": 32926,
        "total": 2365
      },
      {
        "club_badge_src": null,
        "entry": 3294521,
        "entry_name": "Real Monstad",
        "event_total": 85,
        "has_played": true,
        "id": 24395852,
        "last_rank": 77258,
        "player_name": "Sindre Monstad",
        "rank": 32898,
        "rank_sort": 32927,
        "total": 2365
      },
      {
        "club_badge_src": null,
        "entry": 3331176,
        "entry_name": "\u041c\u043d\u041b\u043e\u0448\u0438\u0442\u0435FC",
        "event_total": 46,
        "has_played": true,
        "id": 24698825,
        "last_rank": 22391,
        "player_name": "Georgi Bozov",
        "rank": 32898,
        "rank_sort": 32928,
        "total": 2365
      },
      {
        "club_badge_src": null,
        "entry": 3472717,
        "entry_name": "Fergeens",
        "event_total": 53,
        "has_played": true,
        "id": 25818400,
        "last_rank": 28546,
        "player_name": "Ferg Gallagher",
        "rank": 32898,
        "rank_sort": 32929,
        "total": 2365
      },
      {
        "club_badge_src": null,
        "entry": 3554924,
        "entry_name": "Half Glass Fullkrug",
        "event_total": 53,
        "has_played": true,
        "id": 26466751,
        "last_rank": 28546,
        "player_name": "Liam Heddle",
        "rank": 32898,
        "rank_sort": 32930,
        "total": 2365
      },
      {
        "club_badge_src": null,
        "entry": 3647962,
        "entry_name": "Gurney XI",
        "event_total": 76,
        "has_played": true,
        "id": 27191174,
        "last_rank": 59496,
        "player_name": "Stew Gurney",
        "rank": 32898,
        "rank_sort": 32931,
        "total": 2365
      },
      {
        "club_badge_src": null,
        "entry": 4187671,
        "entry_name": "AMZ United",
        "event_total": 80,
        "has_played": true,
        "id": 31686276,
        "last_rank": 66848,
        "player_name": "ahmad hasaouneh",
        "rank": 32898,
        "rank_sort": 32932,
        "total": 2365
      },
      {
        "club_badge_src": null,
        "entry": 4450950,
        "entry_name": "Fiorentina Turner",
        "event_total": 66,
        "has_played": true,
        "id": 33901243,
        "last_rank": 43786,
        "player_name": "Robbie Harper",
        "rank": 32898,
        "rank_sort": 32933,
        "total": 2365
      },
      {
        "club_badge_src": null,
        "entry": 4510039,
        "entry_name": "FOOOD CHAAAIN",
        "event_total": 43,
        "has_played": true,
        "id": 34388911,
        "last_rank": 20280,
        "player_name": "Yousuf Khan",
        "rank": 32898,
        "rank_sort": 32934,
        "total": 2365
      },
      {
        "club_badge_src": null,
        "entry": 4529491,
        "entry_name": "Monts Mancs",
        "event_total": 65,
        "has_played": true,
        "id": 34548766,
        "last_rank": 42506,
        "player_name": "Phil Montgomery",
        "rank": 32898,
        "rank_sort": 32935,
        "total": 2365
      },
      {
        "club_badge_src": null,
        "entry": 4905143,
        "entry_name": "braZIL",
        "event_total": 44,
        "has_played": true,
        "id": 37825964,
        "last_rank": 20983,
        "player_name": "Zac Filmer",
        "rank": 32898,
        "rank_sort": 32936,
        "total": 2365
      },
      {
        "club_badge_src": null,
        "entry": 5236763,
        "entry_name": "HB",
        "event_total": 55,
        "has_played": true,
        "id": 40581853,
        "last_rank": 30600,
        "player_name": "Harvey Byun",
        "rank": 32898,
        "rank_sort": 32937,
        "total": 2365
      },
      {
        "club_badge_src": null,
        "entry": 5254863,
        "entry_name": "pela.premier",
        "event_total": 64,
        "has_played": true,
        "id": 40727188,
        "last_rank": 41162,
        "player_name": "Martin Avenda\u00f1o",
        "rank": 32898,
        "rank_sort": 32938,
        "total": 2365
      },
      {
        "club_badge_src": null,
        "entry": 5539932,
        "entry_name": "On Top Idah World",
        "event_total": 38,
        "has_played": true,
        "id": 43226577,
        "last_rank": 16807,
        "player_name": "Eoghan Gallagher",
        "rank": 32898,
        "rank_sort": 32939,
        "total": 2365
      },
      {
        "club_badge_src": null,
        "entry": 5655717,
        "entry_name": "Earth Wind Maguire",
        "event_total": 66,
        "has_played": true,
        "id": 44245533,
        "last_rank": 43849,
        "player_name": "Matt Leak",
        "rank": 32898,
        "rank_sort": 32940,
        "total": 2365
      },
      {
        "club_badge_src": null,
        "entry": 5703511,
        "entry_name": "Escape from Victory",
        "event_total": 71,
        "has_played": true,
        "id": 44657680,
        "last_rank": 51137,
        "player_name": "David Dolan",
        "rank": 32898,
        "rank_sort": 32941,
        "total": 2365
      },
      {
        "club_badge_src": null,
        "entry": 5905547,
        "entry_name": "paigo",
        "event_total": 38,
        "has_played": true,
        "id": 46400779,
        "last_rank": 16807,
        "player_name": "Daigo Moriwake",
        "rank": 32898,
        "rank_sort": 32942,
        "total": 2365
      },
      {
        "club_badge_src": null,
        "entry": 5957880,
        "entry_name": "xabi",
        "event_total": 63,
        "has_played": true,
        "id": 46869154,
        "last_rank": 39816,
        "player_name": "Emil Kuokkanen",
        "rank": 32898,
        "rank_sort": 32943,
        "total": 2365
      },
      {
        "club_badge_src": "https://fantasy.premierleague.com/gcs/plfpl-production-adobe-approved/plfpl-production/5958632/59cc70d0-2976-4336-b04e-e817bf376852.png",
        "entry": 5958632,
        "entry_name": "Dalla",
        "event_total": 59,
        "has_played": true,
        "id": 46875666,
        "last_rank": 34969,
        "player_name": "Abdullahi Ali",
        "rank": 32898,
        "rank_sort": 32944,
        "total": 2365
      },
      {
        "club_badge_src": null,
        "entry": 6197368,
        "entry_name": "ClassOnGrass",
        "event_total": 49,
        "has_played": true,
        "id": 49022507,
        "last_rank": 24857,
        "player_name": "Alex Gregson",
        "rank": 32898,
        "rank_sort": 32945,
        "total": 2365
      },
      {
        "club_badge_src": "https://fantasy.premierleague.com/gcs/plfpl-production-adobe-approved/plfpl-production/6267724/22792f66-6bb7-444b-b858-3c210139b2de.png",
        "entry": 6267724,
        "entry_name": "Mainoo Event",
        "event_total": 43,
        "has_played": true,
        "id": 49629845,
        "last_rank": 20179,
        "player_name": "Esra \u00c1rnason",
        "rank": 32898,
        "rank_sort": 32946,
        "total": 2365
      },
      {
        "club_badge_src": "https://fantasy.premierleague.com/gcs/plfpl-production-adobe-approved/plfpl-production/6280017/b6bae676-6b29-4f36-a878-7479b3f15e79.png",
        "entry": 6280017,
        "entry_name": "Young Leinster",
        "event_total": 64,
        "has_played": true,
        "id": 49736178,
        "last_rank": 41162,
        "player_name": "Ben Bradley",
        "rank": 32898,
        "rank_sort": 32947,
        "total": 2365
      },
      {
        "club_badge_src": null,
        "entry": 6632502,
        "entry_name": "Goofy Goobers",
        "event_total": 51,
        "has_played": true,
        "id": 53009492,
        "last_rank": 26710,
        "player_name": "Celina Worraker",
        "rank": 32898,
        "rank_sort": 32948,
        "total": 2365
      },
      {
        "club_badge_src": null,
        "entry": 6752419,
        "entry_name": "Noni Ya Business",
        "event_total": 70,
        "has_played": true,
        "id": 54057995,
        "last_rank": 49691,
        "player_name": "Ruairi Biollo",
        "rank": 32898,
        "rank_sort": 32949,
        "total": 2365
      },
      {
        "club_badge_src": null,
        "entry": 7089798,
        "entry_name": "Bruno4Lunch",
        "event_total": 63,
        "has_played": true,
        "id": 57079627,
        "last_rank": 39816,
        "player_name": "Andrew Wagstaff",
        "rank": 32898,
        "rank_sort": 32950,
        "total": 2365
      }
    ]
  }
}