{
  "last_updated_data": "2026-05-24T23:28:17Z",
  "league": {
    "admin_entry": null,
    "closed": false,
    "code_privacy": "p",
    "created": "2025-07-20T23:14:33.933835Z",
    "cup_league": 2815434,
    "has_cup": true,
    "id": 314,
    "league_type": "s",
    "max_entries": null,
    "name": "Overall",
    "rank": null,
    "scoring": "c",
    "start_event": 1
  },
  "new_entries": {
    "has_next": false,
    "page": 1,
    "results": []
  },
  "standings": {
    "has_next": true,
    "page": 569,
    "results": [
      {
        "club_badge_src": null,
        "entry": 1358305,
        "entry_name": "Not Isakly Sure",
        "event_total": 67,
        "has_played": true,
        "id": 9441654,
        "last_rank": 29688,
        "player_name": "Luke Tirimacco",
        "rank": 28336,
        "rank_sort": 28401,
        "total": 2370
      },
      {
        "club_badge_src": null,
        "entry": 1444054,
        "entry_name": "Chelsea",
        "event_total": 45,
        "has_played": true,
        "id": 10062463,
        "last_rank": 18270,
        "player_name": "mohammed hassan",
        "rank": 28336,
        "rank_sort": 28402,
        "total": 2370
      },
      {
        "club_badge_src": null,
        "entry": 1444567,
        "entry_name": "Meat Maestros",
        "event_total": 37,
        "has_played": true,
        "id": 10066018,
        "last_rank": 13401,
        "player_name": "Maksim Sadeghi",
        "rank": 28336,
        "rank_sort": 28403,
        "total": 2370
      },
      {
        "club_badge_src": null,
        "entry": 1513150,
        "entry_name": "Sam WINchesters",
        "event_total": 71,
        "has_played": true,
        "id": 10553588,
        "last_rank": 44303,
        "player_name": "Philip Kullstr\u00f6m",
        "rank": 28336,
        "rank_sort": 28404,
        "total": 2370
      },
      {
        "club_badge_src": "https://fantasy.premierleague.com/gcs/plfpl-production-adobe-approved/plfpl-production/1570599/e8a45dc8-e2cb-47df-b8b0-71246986e736.png",
        "entry": 1570599,
        "entry_name": "MalKings",
        "event_total": 41,
        "has_played": true,
        "id": 10973764,
        "last_rank": 15797,
        "player_name": "Michael Malkin",
        "rank": 28336,
        "rank_sort": 28405,
        "total": 2370
      },
      {
        "club_badge_src": null,
        "entry": 1596425,
        "entry_name": "Emadinho",
        "event_total": 56,
        "has_played": true,
        "id": 11167518,
        "last_rank": 27203,
        "player_name": "3emad Mohamed",
        "rank": 28336,
        "rank_sort": 28406,
        "total": 2370
      },
      {
        "club_badge_src": null,
        "entry": 1678227,
        "entry_name": "EKITIKE'S DLVRY SRVC",
        "event_total": 68,
        "has_played": true,
        "id": 11748985,
        "last_rank": 40503,
        "player_name": "Arsehole Wenger",
        "rank": 28336,
        "rank_sort": 28407,
        "total": 2370
      },
      {
        "club_badge_src": null,
        "entry": 1815748,
        "entry_name": "Spiritual Honesty",
        "event_total": 54,
        "has_played": true,
        "id": 12768500,
        "last_rank": 18790,
        "player_name": "Matityahu Aharon Manor",
        "rank": 28336,
        "rank_sort": 28408,
        "total": 2370
      },
      {
        "club_badge_src": null,
        "entry": 1956178,
        "entry_name": "DaviD",
        "event_total": 62,
        "has_played": true,
        "id": 13799781,
        "last_rank": 28546,
        "player_name": "VIJAI VASANNTHAN",
        "rank": 28336,
        "rank_sort": 28409,
        "total": 2370
      },
      {
        "club_badge_src": "https://fantasy.premierleague.com/gcs/plfpl-production-adobe-approved/plfpl-production/1976172/de7279c5-437e-4c0a-8f64-e22c2d52b487.png",
        "entry": 1976172,
        "entry_name": "Curl up Ndiaye",
        "event_total": 52,
        "has_played": true,
        "id": 13949333,
        "last_rank": 23656,
        "player_name": "Thom Martin",
        "rank": 28336,
        "rank_sort": 28410,
        "total": 2370
      },
      {
        "club_badge_src": null,
        "entry": 2001561,
        "entry_name": "daddy dyl",
        "event_total": 64,
        "has_played": true,
        "id": 14150237,
        "last_rank": 30957,
        "player_name": "Dylan Taylor",
        "rank": 28336,
        "rank_sort": 28411,
        "total": 2370
      },
      {
        "club_badge_src": null,
        "entry": 2006429,
        "entry_name": "Mad For It",
        "event_total": 43,
        "has_played": true,
        "id": 14185982,
        "last_rank": 17150,
        "player_name": "Sam Wood",
        "rank": 28336,
        "rank_sort": 28412,
        "total": 2370
      },
      {
        "club_badge_src": null,
        "entry": 2013354,
        "entry_name": "Jozymandias",
        "event_total": 59,
        "has_played": true,
        "id": 14237270,
        "last_rank": 26088,
        "player_name": "youssef chahbi",
        "rank": 28336,
        "rank_sort": 28413,
        "total": 2370
      },
      {
        "club_badge_src": null,
        "entry": 2092673,
        "entry_name": "Bali Social Club",
        "event_total": 54,
        "has_played": true,
        "id": 14847523,
        "last_rank": 18691,
        "player_name": "Omar Baziz",
        "rank": 28336,
        "rank_sort": 28414,
        "total": 2370
      },
      {
        "club_badge_src": null,
        "entry": 2144416,
        "entry_name": "Till I Collapse",
        "event_total": 65,
        "has_played": true,
        "id": 15241574,
        "last_rank": 31995,
        "player_name": "Andrew Hargreaves",
        "rank": 28336,
        "rank_sort": 28415,
        "total": 2370
      },
      {
        "club_badge_src": null,
        "entry": 2296935,
        "entry_name": "Your be alright FC",
        "event_total": 74,
        "has_played": true,
        "id": 16382136,
        "last_rank": 48642,
        "player_name": "Peter Bainbridge",
        "rank": 28336,
        "rank_sort": 28416,
        "total": 2370
      },
      {
        "club_badge_src": null,
        "entry": 2411472,
        "entry_name": "Big Bad Balls",
        "event_total": 59,
        "has_played": true,
        "id": 17238070,
        "last_rank": 26088,
        "player_name": "neil beighton",
        "rank": 28336,
        "rank_sort": 28417,
        "total": 2370
      },
      {
        "club_badge_src": null,
        "entry": 2498776,
        "entry_name": "Back of the Beto",
        "event_total": 71,
        "has_played": true,
        "id": 17890849,
        "last_rank": 39023,
        "player_name": "Harry Davis",
        "rank": 28336,
        "rank_sort": 28418,
        "total": 2370
      },
      {
        "club_badge_src": "https://fantasy.premierleague.com/gcs/plfpl-production-adobe-approved/plfpl-production/2555254/369f3aeb-59a8-4291-8e2b-e765aaee671b.png",
        "entry": 2555254,
        "entry_name": "AmorinOUT",
        "event_total": 61,
        "has_played": true,
        "id": 18322583,
        "last_rank": 27976,
        "player_name": "Joakim Kvamvold",
        "rank": 28336,
        "rank_sort": 28419,
        "total": 2370
      },
      {
        "club_badge_src": null,
        "entry": 2795976,
        "entry_name": "Take My Breath (A)",
        "event_total": 70,
        "has_played": true,
        "id": 20415519,
        "last_rank": 43168,
        "player_name": "Joe Sutton",
        "rank": 28336,
        "rank_sort": 28420,
        "total": 2370
      },
      {
        "club_badge_src": null,
        "entry": 2873414,
        "entry_name": "Trillionaire _tfk",
        "event_total": 42,
        "has_played": true,
        "id": 21025764,
        "last_rank": 16441,
        "player_name": "Tichaona Kamushinda",
        "rank": 28336,
        "rank_sort": 28421,
        "total": 2370
      },
      {
        "club_badge_src": null,
        "entry": 2941070,
        "entry_name": "Fortuna FC",
        "event_total": 73,
        "has_played": true,
        "id": 21580861,
        "last_rank": 47417,
        "player_name": "Jhovid Kurnia Tan",
        "rank": 28336,
        "rank_sort": 28422,
        "total": 2370
      },
      {
        "club_badge_src": null,
        "entry": 2969434,
        "entry_name": "Toffee FC",
        "event_total": 63,
        "has_played": true,
        "id": 21816995,
        "last_rank": 34458,
        "player_name": "James Norquoy",
        "rank": 28336,
        "rank_sort": 28423,
        "total": 2370
      },
      {
        "club_badge_src": null,
        "entry": 3063411,
        "entry_name": "Wassim030killer",
        "event_total": 43,
        "has_played": true,
        "id": 22554774,
        "last_rank": 17150,
        "player_name": "Wassim El Mourabit",
        "rank": 28336,
        "rank_sort": 28424,
        "total": 2370
      },
      {
        "club_badge_src": null,
        "entry": 3066341,
        "entry_name": "Gyok and Roll",
        "event_total": 69,
        "has_played": true,
        "id": 22577227,
        "last_rank": 41824,
        "player_name": "David Upton",
        "rank": 28336,
        "rank_sort": 28425,
        "total": 2370
      },
      {
        "club_badge_src": null,
        "entry": 3130577,
        "entry_name": "Soccer FC",
        "event_total": 50,
        "has_played": true,
        "id": 23106638,
        "last_rank": 22064,
        "player_name": "James McGhie",
        "rank": 28336,
        "rank_sort": 28426,
        "total": 2370
      },
      {
        "club_badge_src": null,
        "entry": 3203146,
        "entry_name": "Pumpkinsy",
        "event_total": 63,
        "has_played": true,
        "id": 23679142,
        "last_rank": 34458,
        "player_name": "Marcin Oliwa",
        "rank": 28336,
        "rank_sort": 28427,
        "total": 2370
      },
      {
        "club_badge_src": "https://fantasy.premierleague.com/gcs/plfpl-production-adobe-approved/plfpl-production/3211835/2bbf2052-62e9-4ece-9235-743d5d7ddb5f.png",
        "entry": 3211835,
        "entry_name": "Twanga",
        "event_total": 73,
        "has_played": true,
        "id": 23746176,
        "last_rank": 47417,
        "player_name": "Brayan Nguru",
        "rank": 28336,
        "rank_sort": 28428,
        "total": 2370
      },
      {
        "club_badge_src": null,
        "entry": 3282126,
        "entry_name": "Shenzhen F.C.",
        "event_total": 50,
        "has_played": true,
        "id": 24294622,
        "last_rank": 22064,
        "player_name": "Jianzhong Chen",
        "rank": 28336,
        "rank_sort": 28429,
        "total": 2370
      },
      {
        "club_badge_src": null,
        "entry": 3292446,
        "entry_name": "Everton",
        "event_total": 58,
        "has_played": true,
        "id": 24378466,
        "last_rank": 29071,
        "player_name": "Laith Alsamarraie",
        "rank": 28336,
        "rank_sort": 28430,
        "total": 2370
      },
      {
        "club_badge_src": null,
        "entry": 3346307,
        "entry_name": "Boom Xhakalaka",
        "event_total": 66,
        "has_played": true,
        "id": 24822752,
        "last_rank": 33147,
        "player_name": "Dayle Johnson",
        "rank": 28336,
        "rank_sort": 28431,
        "total": 2370
      },
      {
        "club_badge_src": null,
        "entry": 3409447,
        "entry_name": "McGinn & Tonic",
        "event_total": 53,
        "has_played": true,
        "id": 25319933,
        "last_rank": 24475,
        "player_name": "Jamie Simmons",
        "rank": 28336,
        "rank_sort": 28432,
        "total": 2370
      },
      {
        "club_badge_src": null,
        "entry": 3409559,
        "entry_name": "SmelsLikeAteenSpirit",
        "event_total": 66,
        "has_played": true,
        "id": 25320816,
        "last_rank": 33147,
        "player_name": "Ateen Patel",
        "rank": 28336,
        "rank_sort": 28433,
        "total": 2370
      },
      {
        "club_badge_src": null,
        "entry": 3411698,
        "entry_name": "FPL & Coffee",
        "event_total": 64,
        "has_played": true,
        "id": 25337314,
        "last_rank": 35619,
        "player_name": "Marcus Adams",
        "rank": 28336,
        "rank_sort": 28434,
        "total": 2370
      },
      {
        "club_badge_src": null,
        "entry": 3446834,
        "entry_name": "Yonezawa Blues Club",
        "event_total": 68,
        "has_played": true,
        "id": 25610564,
        "last_rank": 40503,
        "player_name": "ajib aji",
        "rank": 28336,
        "rank_sort": 28435,
        "total": 2370
      },
      {
        "club_badge_src": null,
        "entry": 3701018,
        "entry_name": "Bruno's Magic",
        "event_total": 60,
        "has_played": true,
        "id": 27613621,
        "last_rank": 31125,
        "player_name": "Shay Porter",
        "rank": 28336,
        "rank_sort": 28436,
        "total": 2370
      },
      {
        "club_badge_src": "https://fantasy.premierleague.com/gcs/plfpl-production-adobe-approved/plfpl-production/3807766/02e66833-fe31-4ab4-9662-3a9c2c934196.png",
        "entry": 3807766,
        "entry_name": "\u00d8h My Gaard",
        "event_total": 67,
        "has_played": true,
        "id": 28469489,
        "last_rank": 39246,
        "player_name": "Eshaan Sosale",
        "rank": 28336,
        "rank_sort": 28437,
        "total": 2370
      },
      {
        "club_badge_src": null,
        "entry": 3877919,
        "entry_name": "Alaw 11",
        "event_total": 53,
        "has_played": true,
        "id": 29136646,
        "last_rank": 24330,
        "player_name": "George Bramham",
        "rank": 28336,
        "rank_sort": 28438,
        "total": 2370
      },
      {
        "club_badge_src": null,
        "entry": 3882608,
        "entry_name": "JoggingBow",
        "event_total": 55,
        "has_played": true,
        "id": 29173869,
        "last_rank": 22685,
        "player_name": "Sebastian Rafdal",
        "rank": 28336,
        "rank_sort": 28439,
        "total": 2370
      },
      {
        "club_badge_src": null,
        "entry": 4105378,
        "entry_name": "FC Slang",
        "event_total": 52,
        "has_played": true,
        "id": 31002485,
        "last_rank": 23656,
        "player_name": "Kim-Andre Slang",
        "rank": 28336,
        "rank_sort": 28440,
        "total": 2370
      },
      {
        "club_badge_src": null,
        "entry": 4147183,
        "entry_name": "Mr.  X",
        "event_total": 68,
        "has_played": true,
        "id": 31345131,
        "last_rank": 40503,
        "player_name": "Emad Eldin",
        "rank": 28336,
        "rank_sort": 28441,
        "total": 2370
      },
      {
        "club_badge_src": null,
        "entry": 4170239,
        "entry_name": "Cunha believe it",
        "event_total": 67,
        "has_played": true,
        "id": 31538793,
        "last_rank": 39246,
        "player_name": "John Turner",
        "rank": 28336,
        "rank_sort": 28442,
        "total": 2370
      },
      {
        "club_badge_src": "https://fantasy.premierleague.com/gcs/plfpl-production-adobe-approved/plfpl-production/4193868/4bf1a18f-3c99-4906-b733-15f74c5cbe83.png",
        "entry": 4193868,
        "entry_name": "Old Shrimp Eyes XI",
        "event_total": 54,
        "has_played": true,
        "id": 31740522,
        "last_rank": 25330,
        "player_name": "Daniel Lees",
        "rank": 28336,
        "rank_sort": 28443,
        "total": 2370
      },
      {
        "club_badge_src": null,
        "entry": 4315133,
        "entry_name": "Ahmed abdou",
        "event_total": 39,
        "has_played": true,
        "id": 32744989,
        "last_rank": 14668,
        "player_name": "ahmed elhendy",
        "rank": 28336,
        "rank_sort": 28444,
        "total": 2370
      },
      {
        "club_badge_src": null,
        "entry": 4337946,
        "entry_name": "RodLiddlesYoungOnes",
        "event_total": 54,
        "has_played": true,
        "id": 32935087,
        "last_rank": 25330,
        "player_name": "Sean Nicholson",
        "rank": 28336,
        "rank_sort": 28445,
        "total": 2370
      },
      {
        "club_badge_src": null,
        "entry": 4403691,
        "entry_name": "Number 1",
        "event_total": 68,
        "has_played": true,
        "id": 33493503,
        "last_rank": 40503,
        "player_name": "A Rambo",
        "rank": 28336,
        "rank_sort": 28446,
        "total": 2370
      },
      {
        "club_badge_src": null,
        "entry": 4692699,
        "entry_name": "McGinn & Tonic",
        "event_total": 55,
        "has_played": true,
        "id": 35969636,
        "last_rank": 26230,
        "player_name": "Callum Devlin",
        "rank": 28336,
        "rank_sort": 28447,
        "total": 2370
      },
      {
        "club_badge_src": "https://fantasy.premierleague.com/gcs/plfpl-production-adobe-approved/plfpl-production/4728284/567f1270-e198-4020-9a51-4ce3aefcecbb.png",
        "entry": 4728284,
        "entry_name": "Titanic Combo",
        "event_total": 61,
        "has_played": true,
        "id": 36357819,
        "last_rank": 32190,
        "player_name": "Ian Napier",
        "rank": 28336,
        "rank_sort": 28448,
        "total": 2370
      },
      {
        "club_badge_src": null,
        "entry": 4858388,
        "entry_name": "MurderOnZidanesFloor",
        "event_total": 68,
        "has_played": true,
        "id": 37437875,
        "last_rank": 35166,
        "player_name": "P\u00e5l Aasgaard",
        "rank": 28336,
        "rank_sort": 28449,
        "total": 2370
      },
      {
        "club_badge_src": null,
        "entry": 4997309,
        "entry_name": "Blues your daddy?",
        "event_total": 66,
        "has_played": true,
        "id": 38586472,
        "last_rank": 33147,
        "player_name": "Joshua Adeife",
        "rank": 28336,
        "rank_sort": 28450,
        "total": 2370
      }
    ]
  }
}