{
  "last_updated_data": "2026-05-24T23:28:17Z",
  "league": {
    "admin_entry": null,
    "closed": false,
    "code_privacy": "p",
    "created": "2025-07-20T23:14:33.933835Z",
    "cup_league": 2815434,
    "has_cup": true,
    "id": 314,
    "league_type": "s",
    "max_entries": null,
    "name": "Overall",
    "rank": null,
    "scoring": "c",
    "start_event": 1
  },
  "new_entries": {
    "has_next": false,
    "page": 1,
    "results": []
  },
  "standings": {
    "has_next": true,
    "page": 1076,
    "results": [
      {
        "club_badge_src": null,
        "entry": 563473,
        "entry_name": "BIGGEST LOSERS",
        "event_total": 57,
        "has_played": true,
        "id": 3792660,
        "last_rank": 54244,
        "player_name": "Elliott Bastow",
        "rank": 53746,
        "rank_sort": 53751,
        "total": 2350
      },
      {
        "club_badge_src": "https://fantasy.premierleague.com/gcs/plfpl-production-adobe-approved/plfpl-production/854079/815d8e4e-7977-470c-bf1c-d30138ea2b21.png",
        "entry": 854079,
        "entry_name": "\u0627\u062d\u0645\u062f \u0627\u0644\u0645\u0647\u0646\u062f\u0633",
        "event_total": 41,
        "has_played": true,
        "id": 5854340,
        "last_rank": 32586,
        "player_name": "Ahmed Saleh",
        "rank": 53746,
        "rank_sort": 53752,
        "total": 2350
      },
      {
        "club_badge_src": null,
        "entry": 958417,
        "entry_name": "HERO ZLITEN",
        "event_total": 59,
        "has_played": true,
        "id": 6604082,
        "last_rank": 44982,
        "player_name": "FCB LY",
        "rank": 53746,
        "rank_sort": 53753,
        "total": 2350
      },
      {
        "club_badge_src": null,
        "entry": 1053320,
        "entry_name": "abu elwaleed",
        "event_total": 60,
        "has_played": true,
        "id": 7289708,
        "last_rank": 59370,
        "player_name": "Haitam Arabiya",
        "rank": 53746,
        "rank_sort": 53754,
        "total": 2350
      },
      {
        "club_badge_src": null,
        "entry": 1070106,
        "entry_name": "Squidwirtz",
        "event_total": 67,
        "has_played": true,
        "id": 7408224,
        "last_rank": 72495,
        "player_name": "Jake Spackman",
        "rank": 53746,
        "rank_sort": 53755,
        "total": 2350
      },
      {
        "club_badge_src": null,
        "entry": 1380106,
        "entry_name": "HTN",
        "event_total": 54,
        "has_played": true,
        "id": 9593605,
        "last_rank": 43637,
        "player_name": "Hamad AlNafisi",
        "rank": 53746,
        "rank_sort": 53756,
        "total": 2350
      },
      {
        "club_badge_src": null,
        "entry": 2214925,
        "entry_name": "Catalonia",
        "event_total": 61,
        "has_played": true,
        "id": 15773715,
        "last_rank": 54218,
        "player_name": "othman Alamiri",
        "rank": 53746,
        "rank_sort": 53757,
        "total": 2350
      },
      {
        "club_badge_src": null,
        "entry": 2243791,
        "entry_name": "Harrison Fraud",
        "event_total": 61,
        "has_played": true,
        "id": 15985849,
        "last_rank": 54181,
        "player_name": "Oliver Nottley",
        "rank": 53746,
        "rank_sort": 53758,
        "total": 2350
      },
      {
        "club_badge_src": null,
        "entry": 2290997,
        "entry_name": "RAMDANE JSK RM",
        "event_total": 52,
        "has_played": true,
        "id": 16339180,
        "last_rank": 40959,
        "player_name": "Ramdane Jsk RM",
        "rank": 53746,
        "rank_sort": 53759,
        "total": 2350
      },
      {
        "club_badge_src": null,
        "entry": 2466151,
        "entry_name": "ahmed yahea",
        "event_total": 57,
        "has_played": true,
        "id": 17640822,
        "last_rank": 47950,
        "player_name": "ahmed yahia",
        "rank": 53746,
        "rank_sort": 53760,
        "total": 2350
      },
      {
        "club_badge_src": null,
        "entry": 2789312,
        "entry_name": "Clever 11",
        "event_total": 68,
        "has_played": true,
        "id": 20364210,
        "last_rank": 66487,
        "player_name": "Zain Khan",
        "rank": 53746,
        "rank_sort": 53761,
        "total": 2350
      },
      {
        "club_badge_src": null,
        "entry": 3045569,
        "entry_name": "Blackcastle",
        "event_total": 52,
        "has_played": true,
        "id": 22419395,
        "last_rank": 46454,
        "player_name": "mick kelly",
        "rank": 53746,
        "rank_sort": 53762,
        "total": 2350
      },
      {
        "club_badge_src": null,
        "entry": 3075625,
        "entry_name": "here we go  again",
        "event_total": 61,
        "has_played": true,
        "id": 22655307,
        "last_rank": 54218,
        "player_name": "courage Kofi",
        "rank": 53746,
        "rank_sort": 53763,
        "total": 2350
      },
      {
        "club_badge_src": null,
        "entry": 3819591,
        "entry_name": "7T",
        "event_total": 55,
        "has_played": true,
        "id": 28566113,
        "last_rank": 45007,
        "player_name": "Hatem Alnmlah",
        "rank": 53746,
        "rank_sort": 53764,
        "total": 2350
      },
      {
        "club_badge_src": null,
        "entry": 4070069,
        "entry_name": "Stein p\u00e5 Stein",
        "event_total": 40,
        "has_played": true,
        "id": 30719389,
        "last_rank": 31459,
        "player_name": "Bjarte Kirkevik",
        "rank": 53746,
        "rank_sort": 53765,
        "total": 2350
      },
      {
        "club_badge_src": null,
        "entry": 5350403,
        "entry_name": "cr7 the goat",
        "event_total": 69,
        "has_played": true,
        "id": 41528529,
        "last_rank": 76730,
        "player_name": "Az Aziz",
        "rank": 53746,
        "rank_sort": 53766,
        "total": 2350
      },
      {
        "club_badge_src": null,
        "entry": 5964461,
        "entry_name": "Bruno Dos Tres",
        "event_total": 54,
        "has_played": true,
        "id": 46926556,
        "last_rank": 38425,
        "player_name": "David Spear",
        "rank": 53746,
        "rank_sort": 53767,
        "total": 2350
      },
      {
        "club_badge_src": "https://fantasy.premierleague.com/gcs/plfpl-production-adobe-approved/plfpl-production/6600209/d476b72b-c0af-439a-a0ef-4c1bd3f5d71d.png",
        "entry": 6600209,
        "entry_name": "Dubs in 38",
        "event_total": 60,
        "has_played": true,
        "id": 52722466,
        "last_rank": 52603,
        "player_name": "Logan Roy",
        "rank": 53746,
        "rank_sort": 53768,
        "total": 2350
      },
      {
        "club_badge_src": null,
        "entry": 8093500,
        "entry_name": "San Utd",
        "event_total": 79,
        "has_played": true,
        "id": 66740521,
        "last_rank": 90229,
        "player_name": "Agus Sanusi",
        "rank": 53746,
        "rank_sort": 53769,
        "total": 2350
      },
      {
        "club_badge_src": null,
        "entry": 8141,
        "entry_name": "\u0627\u0644\u0641\u064a\u0644\u0633\u0648\u0641",
        "event_total": 66,
        "has_played": true,
        "id": 47170,
        "last_rank": 70471,
        "player_name": "Hady Abdallah",
        "rank": 53770,
        "rank_sort": 53770,
        "total": 2350
      },
      {
        "club_badge_src": null,
        "entry": 86959,
        "entry_name": "yamany",
        "event_total": 77,
        "has_played": true,
        "id": 566917,
        "last_rank": 68351,
        "player_name": "Mohamed Yamany",
        "rank": 53770,
        "rank_sort": 53771,
        "total": 2350
      },
      {
        "club_badge_src": null,
        "entry": 430751,
        "entry_name": "CombebyArsemyLord",
        "event_total": 59,
        "has_played": true,
        "id": 2888982,
        "last_rank": 57636,
        "player_name": "Shaun Brown",
        "rank": 53770,
        "rank_sort": 53772,
        "total": 2350
      },
      {
        "club_badge_src": null,
        "entry": 606845,
        "entry_name": "Craggy Island FC",
        "event_total": 58,
        "has_played": true,
        "id": 4097905,
        "last_rank": 55957,
        "player_name": "Kevin Shiel",
        "rank": 53770,
        "rank_sort": 53773,
        "total": 2350
      },
      {
        "club_badge_src": null,
        "entry": 672204,
        "entry_name": "MR 21",
        "event_total": 63,
        "has_played": true,
        "id": 4546840,
        "last_rank": 64656,
        "player_name": "Ramy Ahmed",
        "rank": 53770,
        "rank_sort": 53774,
        "total": 2350
      },
      {
        "club_badge_src": null,
        "entry": 1523170,
        "entry_name": "it's who we are mate",
        "event_total": 62,
        "has_played": true,
        "id": 10623604,
        "last_rank": 62958,
        "player_name": "Mike Walker",
        "rank": 53770,
        "rank_sort": 53775,
        "total": 2350
      },
      {
        "club_badge_src": null,
        "entry": 1633196,
        "entry_name": "Mike Rotch Burns FC",
        "event_total": 56,
        "has_played": true,
        "id": 11431536,
        "last_rank": 46454,
        "player_name": "Liam Wright",
        "rank": 53770,
        "rank_sort": 53776,
        "total": 2350
      },
      {
        "club_badge_src": null,
        "entry": 1918579,
        "entry_name": "Sele\u00e7\u00e3o",
        "event_total": 40,
        "has_played": true,
        "id": 13528490,
        "last_rank": 31471,
        "player_name": "Andrew Dick-Pires",
        "rank": 53770,
        "rank_sort": 53777,
        "total": 2350
      },
      {
        "club_badge_src": null,
        "entry": 2092600,
        "entry_name": "Jon Snow",
        "event_total": 59,
        "has_played": true,
        "id": 14847011,
        "last_rank": 45007,
        "player_name": "Zain Ezz",
        "rank": 53770,
        "rank_sort": 53778,
        "total": 2350
      },
      {
        "club_badge_src": null,
        "entry": 2141555,
        "entry_name": "\u0627\u0628\u0648 \u0645\u062d\u0645\u062f \u0648\u0633\u0644\u064a\u0645",
        "event_total": 69,
        "has_played": true,
        "id": 15220270,
        "last_rank": 61087,
        "player_name": "\u0645\u0635\u0637\u0641\u0649 \u0645\u062d\u0645\u062f \u062a\u0648\u0641\u064a\u0642",
        "rank": 53770,
        "rank_sort": 53779,
        "total": 2350
      },
      {
        "club_badge_src": null,
        "entry": 3002782,
        "entry_name": "Not yet",
        "event_total": 49,
        "has_played": true,
        "id": 22087107,
        "last_rank": 42327,
        "player_name": "Will Cosgrave",
        "rank": 53770,
        "rank_sort": 53780,
        "total": 2350
      },
      {
        "club_badge_src": "https://fantasy.premierleague.com/gcs/plfpl-production-adobe-approved/plfpl-production/3969967/9b5453e7-f030-48a4-8760-8954774a14ef.png",
        "entry": 3969967,
        "entry_name": "OrtensFavoriter",
        "event_total": 60,
        "has_played": true,
        "id": 29874865,
        "last_rank": 52632,
        "player_name": "Martin Saffo",
        "rank": 53770,
        "rank_sort": 53781,
        "total": 2350
      },
      {
        "club_badge_src": null,
        "entry": 4403666,
        "entry_name": "2Stefan",
        "event_total": 73,
        "has_played": true,
        "id": 33493321,
        "last_rank": 76730,
        "player_name": "Stefan Radosavljevic",
        "rank": 53770,
        "rank_sort": 53782,
        "total": 2350
      },
      {
        "club_badge_src": null,
        "entry": 6803875,
        "entry_name": "Bish Bash Kosh",
        "event_total": 56,
        "has_played": true,
        "id": 54488687,
        "last_rank": 52653,
        "player_name": "Luka Koshionis",
        "rank": 53770,
        "rank_sort": 53783,
        "total": 2350
      },
      {
        "club_badge_src": null,
        "entry": 7749299,
        "entry_name": "The Demeter",
        "event_total": 66,
        "has_played": true,
        "id": 63614685,
        "last_rank": 70493,
        "player_name": "Martin Grace",
        "rank": 53770,
        "rank_sort": 53784,
        "total": 2350
      },
      {
        "club_badge_src": null,
        "entry": 115392,
        "entry_name": "Manchester Mayhem",
        "event_total": 72,
        "has_played": true,
        "id": 753101,
        "last_rank": 66518,
        "player_name": "Josh Visser",
        "rank": 53785,
        "rank_sort": 53785,
        "total": 2350
      },
      {
        "club_badge_src": "https://fantasy.premierleague.com/gcs/plfpl-production-adobe-approved/plfpl-production/200437/3c79fb6e-2812-46c9-8ad5-11d1b1f1ec16.png",
        "entry": 200437,
        "entry_name": "Newton Heath Divils",
        "event_total": 68,
        "has_played": true,
        "id": 1330630,
        "last_rank": 66546,
        "player_name": "Eoin Morrissey",
        "rank": 53785,
        "rank_sort": 53786,
        "total": 2350
      },
      {
        "club_badge_src": null,
        "entry": 261880,
        "entry_name": "Backa, Saka & Cracka",
        "event_total": 48,
        "has_played": true,
        "id": 1740933,
        "last_rank": 41003,
        "player_name": "Frankie Cowd",
        "rank": 53785,
        "rank_sort": 53787,
        "total": 2350
      },
      {
        "club_badge_src": null,
        "entry": 420041,
        "entry_name": "\u0160e\u0161ko Lotus",
        "event_total": 68,
        "has_played": true,
        "id": 2815109,
        "last_rank": 74591,
        "player_name": "Sydney S",
        "rank": 53785,
        "rank_sort": 53788,
        "total": 2350
      },
      {
        "club_badge_src": null,
        "entry": 585253,
        "entry_name": "Change Name",
        "event_total": 59,
        "has_played": true,
        "id": 3938658,
        "last_rank": 57652,
        "player_name": "Andy weir",
        "rank": 53785,
        "rank_sort": 53789,
        "total": 2350
      },
      {
        "club_badge_src": null,
        "entry": 610415,
        "entry_name": "Livin La Liga Vida",
        "event_total": 67,
        "has_played": true,
        "id": 4123952,
        "last_rank": 64656,
        "player_name": "Linda Maguire",
        "rank": 53785,
        "rank_sort": 53790,
        "total": 2350
      },
      {
        "club_badge_src": null,
        "entry": 1030110,
        "entry_name": "Ouest-Side",
        "event_total": 72,
        "has_played": true,
        "id": 7127143,
        "last_rank": 83340,
        "player_name": "Marc Daniel Jean Jacques",
        "rank": 53785,
        "rank_sort": 53791,
        "total": 2350
      },
      {
        "club_badge_src": "https://fantasy.premierleague.com/gcs/plfpl-production-adobe-approved/plfpl-production/1235740/0348accc-b80a-47cc-a6b6-76f5e3848175.png",
        "entry": 1235740,
        "entry_name": "\u0643\u062a\u064a\u0628\u0629 \u0627\u0644\u0627\u0639\u062f\u0627\u0645",
        "event_total": 43,
        "has_played": true,
        "id": 8581191,
        "last_rank": 34885,
        "player_name": "Mohamed Dengar",
        "rank": 53785,
        "rank_sort": 53792,
        "total": 2350
      },
      {
        "club_badge_src": null,
        "entry": 1416355,
        "entry_name": "ToonBarmy",
        "event_total": 47,
        "has_played": true,
        "id": 9861200,
        "last_rank": 39731,
        "player_name": "Rob Fraser",
        "rank": 53785,
        "rank_sort": 53793,
        "total": 2350
      },
      {
        "club_badge_src": null,
        "entry": 1781175,
        "entry_name": "Nidhal",
        "event_total": 69,
        "has_played": true,
        "id": 12514157,
        "last_rank": 68460,
        "player_name": "Nidhal Sliti",
        "rank": 53785,
        "rank_sort": 53794,
        "total": 2350
      },
      {
        "club_badge_src": null,
        "entry": 2130052,
        "entry_name": "\u0635\u0644\u064a \u0639\u0644\u064a \u0627\u0644\u0646\u0628\u064a \u0648\u062a\u0628\u0633\u0645",
        "event_total": 63,
        "has_played": true,
        "id": 15136209,
        "last_rank": 51013,
        "player_name": "Zeka Matara",
        "rank": 53785,
        "rank_sort": 53795,
        "total": 2350
      },
      {
        "club_badge_src": null,
        "entry": 3578884,
        "entry_name": "\u0628\u0648\u0646\u062f\u0642\u0627\u0646\u064a",
        "event_total": 74,
        "has_played": true,
        "id": 26650616,
        "last_rank": 78852,
        "player_name": "brahim touil",
        "rank": 53785,
        "rank_sort": 53796,
        "total": 2350
      },
      {
        "club_badge_src": null,
        "entry": 5614820,
        "entry_name": "To Dare is To Dear",
        "event_total": 56,
        "has_played": true,
        "id": 43885542,
        "last_rank": 52653,
        "player_name": "Melvin Reuben",
        "rank": 53785,
        "rank_sort": 53797,
        "total": 2350
      },
      {
        "club_badge_src": null,
        "entry": 6537231,
        "entry_name": "Westy's Chelsea Chop",
        "event_total": 62,
        "has_played": true,
        "id": 52153179,
        "last_rank": 55932,
        "player_name": "Jack Westcott",
        "rank": 53785,
        "rank_sort": 53798,
        "total": 2350
      },
      {
        "club_badge_src": null,
        "entry": 6902205,
        "entry_name": "Zamroneya FC",
        "event_total": 59,
        "has_played": true,
        "id": 55322575,
        "last_rank": 45034,
        "player_name": "Omar Adel",
        "rank": 53785,
        "rank_sort": 53799,
        "total": 2350
      },
      {
        "club_badge_src": "https://fantasy.premierleague.com/gcs/plfpl-production-adobe-approved/plfpl-production/6944769/09b5d6cc-10da-4d32-94ed-0d58d1944edc.png",
        "entry": 6944769,
        "entry_name": "SUPER FC",
        "event_total": 53,
        "has_played": true,
        "id": 55681754,
        "last_rank": 37256,
        "player_name": "Bakr Taher",
        "rank": 53785,
        "rank_sort": 53800,
        "total": 2350
      }
    ]
  }
}