{
  "last_updated_data": "2026-05-24T23:28:17Z",
  "league": {
    "admin_entry": null,
    "closed": false,
    "code_privacy": "p",
    "created": "2025-07-20T23:14:33.933835Z",
    "cup_league": 2815434,
    "has_cup": true,
    "id": 314,
    "league_type": "s",
    "max_entries": null,
    "name": "Overall",
    "rank": null,
    "scoring": "c",
    "start_event": 1
  },
  "new_entries": {
    "has_next": false,
    "page": 1,
    "results": []
  },
  "standings": {
    "has_next": true,
    "page": 1164,
    "results": [
      {
        "club_badge_src": null,
        "entry": 1540359,
        "entry_name": "07cantona 07",
        "event_total": 64,
        "has_played": true,
        "id": 10750671,
        "last_rank": 71713,
        "player_name": "Jan Rognstad Larsen",
        "rank": 58067,
        "rank_sort": 58151,
        "total": 2347
      },
      {
        "club_badge_src": null,
        "entry": 1542046,
        "entry_name": "Jolly Rogers",
        "event_total": 60,
        "has_played": true,
        "id": 10762577,
        "last_rank": 57001,
        "player_name": "Jay Joshi",
        "rank": 58067,
        "rank_sort": 58152,
        "total": 2347
      },
      {
        "club_badge_src": null,
        "entry": 1551995,
        "entry_name": "Joe fantasy team 25",
        "event_total": 42,
        "has_played": true,
        "id": 10836240,
        "last_rank": 37058,
        "player_name": "Joe Ronald",
        "rank": 58067,
        "rank_sort": 58153,
        "total": 2347
      },
      {
        "club_badge_src": null,
        "entry": 1603764,
        "entry_name": "EscapeFromAlcaraz",
        "event_total": 54,
        "has_played": true,
        "id": 11220087,
        "last_rank": 53837,
        "player_name": "Harry Rothwell",
        "rank": 58067,
        "rank_sort": 58154,
        "total": 2347
      },
      {
        "club_badge_src": null,
        "entry": 1643608,
        "entry_name": "pogz",
        "event_total": 57,
        "has_played": true,
        "id": 11505516,
        "last_rank": 58688,
        "player_name": "Mohamed Ashraf",
        "rank": 58067,
        "rank_sort": 58155,
        "total": 2347
      },
      {
        "club_badge_src": null,
        "entry": 1755306,
        "entry_name": "Joao Pedro Neto",
        "event_total": 71,
        "has_played": true,
        "id": 12323076,
        "last_rank": 77676,
        "player_name": "Jamie Thompson",
        "rank": 58067,
        "rank_sort": 58156,
        "total": 2347
      },
      {
        "club_badge_src": null,
        "entry": 1856624,
        "entry_name": "Sussybacca",
        "event_total": 75,
        "has_played": true,
        "id": 13066073,
        "last_rank": 96777,
        "player_name": "Mathias Pettersen",
        "rank": 58067,
        "rank_sort": 58157,
        "total": 2347
      },
      {
        "club_badge_src": null,
        "entry": 2011966,
        "entry_name": "alhamdulillah",
        "event_total": 62,
        "has_played": true,
        "id": 14227113,
        "last_rank": 53023,
        "player_name": "Abdalle Mohamud",
        "rank": 58067,
        "rank_sort": 58158,
        "total": 2347
      },
      {
        "club_badge_src": null,
        "entry": 2037325,
        "entry_name": "HipsDontSzoboszlai",
        "event_total": 59,
        "has_played": true,
        "id": 14426581,
        "last_rank": 62223,
        "player_name": "Lyndon Harper",
        "rank": 58067,
        "rank_sort": 58159,
        "total": 2347
      },
      {
        "club_badge_src": null,
        "entry": 2218325,
        "entry_name": "Real Penetrators",
        "event_total": 65,
        "has_played": true,
        "id": 15798891,
        "last_rank": 64943,
        "player_name": "Miika Reinikainen",
        "rank": 58067,
        "rank_sort": 58160,
        "total": 2347
      },
      {
        "club_badge_src": null,
        "entry": 2248679,
        "entry_name": "SuperStars",
        "event_total": 40,
        "has_played": true,
        "id": 16023227,
        "last_rank": 34578,
        "player_name": "Abdullah Damon",
        "rank": 58067,
        "rank_sort": 58161,
        "total": 2347
      },
      {
        "club_badge_src": null,
        "entry": 2285127,
        "entry_name": "Ryan Munich",
        "event_total": 67,
        "has_played": true,
        "id": 16296323,
        "last_rank": 69641,
        "player_name": "Ryan Salsano",
        "rank": 58067,
        "rank_sort": 58162,
        "total": 2347
      },
      {
        "club_badge_src": null,
        "entry": 2378104,
        "entry_name": "BK Bakslag",
        "event_total": 65,
        "has_played": true,
        "id": 16979684,
        "last_rank": 73975,
        "player_name": "Erik Rankeskog",
        "rank": 58067,
        "rank_sort": 58163,
        "total": 2347
      },
      {
        "club_badge_src": null,
        "entry": 2406706,
        "entry_name": "Atl\u00e9tico de ChrisT",
        "event_total": 57,
        "has_played": true,
        "id": 17202664,
        "last_rank": 58911,
        "player_name": "Chris Thomas",
        "rank": 58067,
        "rank_sort": 58164,
        "total": 2347
      },
      {
        "club_badge_src": null,
        "entry": 2409884,
        "entry_name": "UTB",
        "event_total": 79,
        "has_played": true,
        "id": 17225947,
        "last_rank": 107485,
        "player_name": "Scott Allison",
        "rank": 58067,
        "rank_sort": 58165,
        "total": 2347
      },
      {
        "club_badge_src": null,
        "entry": 2574646,
        "entry_name": "Mdezsi10",
        "event_total": 54,
        "has_played": true,
        "id": 18476417,
        "last_rank": 47417,
        "player_name": "Dezs\u0151 M\u00e1th\u00e9",
        "rank": 58067,
        "rank_sort": 58166,
        "total": 2347
      },
      {
        "club_badge_src": null,
        "entry": 2578242,
        "entry_name": "Kinder Mbuemo",
        "event_total": 70,
        "has_played": true,
        "id": 18503940,
        "last_rank": 84731,
        "player_name": "Benjamin Elliott",
        "rank": 58067,
        "rank_sort": 58167,
        "total": 2347
      },
      {
        "club_badge_src": null,
        "entry": 2587855,
        "entry_name": "feliznabylad",
        "event_total": 36,
        "has_played": true,
        "id": 18578172,
        "last_rank": 26230,
        "player_name": "Hannes Skugghall",
        "rank": 58067,
        "rank_sort": 58168,
        "total": 2347
      },
      {
        "club_badge_src": null,
        "entry": 2616631,
        "entry_name": "Sesko meal deal",
        "event_total": 58,
        "has_played": true,
        "id": 18801118,
        "last_rank": 60671,
        "player_name": "Andrew Petts",
        "rank": 58067,
        "rank_sort": 58169,
        "total": 2347
      },
      {
        "club_badge_src": null,
        "entry": 2646408,
        "entry_name": "The Real Slim Brady",
        "event_total": 67,
        "has_played": true,
        "id": 19021215,
        "last_rank": 77999,
        "player_name": "Gary Eales",
        "rank": 58067,
        "rank_sort": 58170,
        "total": 2347
      },
      {
        "club_badge_src": null,
        "entry": 2710215,
        "entry_name": "SarrWars ROT Djedi",
        "event_total": 57,
        "has_played": true,
        "id": 19499415,
        "last_rank": 51984,
        "player_name": "George Scrutton",
        "rank": 58067,
        "rank_sort": 58171,
        "total": 2347
      },
      {
        "club_badge_src": null,
        "entry": 2719604,
        "entry_name": "kopperdal",
        "event_total": 58,
        "has_played": true,
        "id": 19569324,
        "last_rank": 60827,
        "player_name": "Petter Kopperdal",
        "rank": 58067,
        "rank_sort": 58172,
        "total": 2347
      },
      {
        "club_badge_src": null,
        "entry": 2766627,
        "entry_name": "Dimosios Ypallilos",
        "event_total": 65,
        "has_played": true,
        "id": 20185191,
        "last_rank": 65475,
        "player_name": "Panagiotis Chrysanthou",
        "rank": 58067,
        "rank_sort": 58173,
        "total": 2347
      },
      {
        "club_badge_src": null,
        "entry": 2848105,
        "entry_name": "ravat fc",
        "event_total": 60,
        "has_played": true,
        "id": 20822615,
        "last_rank": 64190,
        "player_name": "ibrahim ravat",
        "rank": 58067,
        "rank_sort": 58174,
        "total": 2347
      },
      {
        "club_badge_src": null,
        "entry": 2988170,
        "entry_name": "The Konate Kid",
        "event_total": 60,
        "has_played": true,
        "id": 21975174,
        "last_rank": 64190,
        "player_name": "Kristian Solaru",
        "rank": 58067,
        "rank_sort": 58175,
        "total": 2347
      },
      {
        "club_badge_src": null,
        "entry": 3011453,
        "entry_name": "Reijnders Keepers",
        "event_total": 50,
        "has_played": true,
        "id": 22153729,
        "last_rank": 47417,
        "player_name": "Stuart Cozens",
        "rank": 58067,
        "rank_sort": 58176,
        "total": 2347
      },
      {
        "club_badge_src": "https://fantasy.premierleague.com/gcs/plfpl-production-adobe-approved/plfpl-production/3033409/5fefe7bd-1d2a-4491-8caf-d3f2e440e127.png",
        "entry": 3033409,
        "entry_name": "Super",
        "event_total": 40,
        "has_played": true,
        "id": 22323116,
        "last_rank": 34578,
        "player_name": "Benjamin Guillouche",
        "rank": 58067,
        "rank_sort": 58177,
        "total": 2347
      },
      {
        "club_badge_src": null,
        "entry": 3082186,
        "entry_name": "islem kabir",
        "event_total": 61,
        "has_played": true,
        "id": 22707511,
        "last_rank": 58388,
        "player_name": "Islem Kabir",
        "rank": 58067,
        "rank_sort": 58178,
        "total": 2347
      },
      {
        "club_badge_src": null,
        "entry": 3142107,
        "entry_name": "Calhame FC",
        "event_total": 33,
        "has_played": true,
        "id": 23197666,
        "last_rank": 27304,
        "player_name": "Niall Bonner",
        "rank": 58067,
        "rank_sort": 58179,
        "total": 2347
      },
      {
        "club_badge_src": null,
        "entry": 3173165,
        "entry_name": "Change Name",
        "event_total": 53,
        "has_played": true,
        "id": 23445422,
        "last_rank": 52205,
        "player_name": "Aidan Briggs",
        "rank": 58067,
        "rank_sort": 58180,
        "total": 2347
      },
      {
        "club_badge_src": null,
        "entry": 3242148,
        "entry_name": "Kai Hard",
        "event_total": 55,
        "has_played": true,
        "id": 23982176,
        "last_rank": 55311,
        "player_name": "Carmen Hill",
        "rank": 58067,
        "rank_sort": 58181,
        "total": 2347
      },
      {
        "club_badge_src": null,
        "entry": 3281914,
        "entry_name": "SuarezMunchOnLadsBak",
        "event_total": 48,
        "has_played": true,
        "id": 24292987,
        "last_rank": 44804,
        "player_name": "Sebastian F",
        "rank": 58067,
        "rank_sort": 58182,
        "total": 2347
      },
      {
        "club_badge_src": null,
        "entry": 3456256,
        "entry_name": "Rugrats",
        "event_total": 59,
        "has_played": true,
        "id": 25688320,
        "last_rank": 62223,
        "player_name": "Ben Glynn",
        "rank": 58067,
        "rank_sort": 58183,
        "total": 2347
      },
      {
        "club_badge_src": null,
        "entry": 3502905,
        "entry_name": "Laspito's",
        "event_total": 67,
        "has_played": true,
        "id": 26058166,
        "last_rank": 78244,
        "player_name": "Maxim Janssens",
        "rank": 58067,
        "rank_sort": 58184,
        "total": 2347
      },
      {
        "club_badge_src": null,
        "entry": 3735596,
        "entry_name": "Fantasy FC",
        "event_total": 66,
        "has_played": true,
        "id": 27883911,
        "last_rank": 76128,
        "player_name": "Chisom Abasifreke",
        "rank": 58067,
        "rank_sort": 58185,
        "total": 2347
      },
      {
        "club_badge_src": null,
        "entry": 3766285,
        "entry_name": "CuhnaMatata",
        "event_total": 57,
        "has_played": true,
        "id": 28121297,
        "last_rank": 58911,
        "player_name": "Paritesh Sharma",
        "rank": 58067,
        "rank_sort": 58186,
        "total": 2347
      },
      {
        "club_badge_src": null,
        "entry": 3791681,
        "entry_name": "Cole World",
        "event_total": 76,
        "has_played": true,
        "id": 28335743,
        "last_rank": 98896,
        "player_name": "Shane Maartens",
        "rank": 58067,
        "rank_sort": 58187,
        "total": 2347
      },
      {
        "club_badge_src": null,
        "entry": 3886662,
        "entry_name": "Zubimental FC",
        "event_total": 53,
        "has_played": true,
        "id": 29205545,
        "last_rank": 51984,
        "player_name": "bilaal choudhury",
        "rank": 58067,
        "rank_sort": 58188,
        "total": 2347
      },
      {
        "club_badge_src": null,
        "entry": 3898003,
        "entry_name": "Viktorious Gy\u00f6kerede",
        "event_total": 62,
        "has_played": true,
        "id": 29298025,
        "last_rank": 67695,
        "player_name": "Anders Asheim",
        "rank": 58067,
        "rank_sort": 58189,
        "total": 2347
      },
      {
        "club_badge_src": null,
        "entry": 3946971,
        "entry_name": "Blue Moons",
        "event_total": 67,
        "has_played": true,
        "id": 29691975,
        "last_rank": 78244,
        "player_name": "Tigho Y",
        "rank": 58067,
        "rank_sort": 58190,
        "total": 2347
      },
      {
        "club_badge_src": "https://fantasy.premierleague.com/gcs/plfpl-production-adobe-approved/plfpl-production/4491486/784eff2a-0830-4b28-86e8-448031cbcde6.png",
        "entry": 4491486,
        "entry_name": "thewinnertakesitall",
        "event_total": 62,
        "has_played": true,
        "id": 34236764,
        "last_rank": 53345,
        "player_name": "Bj\u00f8rn Sl\u00e5tta",
        "rank": 58067,
        "rank_sort": 58191,
        "total": 2347
      },
      {
        "club_badge_src": null,
        "entry": 4597645,
        "entry_name": "Wazza Rocks",
        "event_total": 66,
        "has_played": true,
        "id": 35116009,
        "last_rank": 75874,
        "player_name": "Abhishek Pande",
        "rank": 58067,
        "rank_sort": 58192,
        "total": 2347
      },
      {
        "club_badge_src": null,
        "entry": 4609542,
        "entry_name": "NoniYourBusiness",
        "event_total": 60,
        "has_played": true,
        "id": 35221506,
        "last_rank": 57001,
        "player_name": "Ainsley Stone",
        "rank": 58067,
        "rank_sort": 58193,
        "total": 2347
      },
      {
        "club_badge_src": "https://fantasy.premierleague.com/gcs/plfpl-production-adobe-approved/plfpl-production/4716012/e0e0069b-7902-4673-bfcd-74a9cb668037.png",
        "entry": 4716012,
        "entry_name": "I'm a baleba",
        "event_total": 65,
        "has_played": true,
        "id": 36209155,
        "last_rank": 73975,
        "player_name": "Steven Vallance",
        "rank": 58067,
        "rank_sort": 58194,
        "total": 2347
      },
      {
        "club_badge_src": null,
        "entry": 4876942,
        "entry_name": "EBFC",
        "event_total": 70,
        "has_played": true,
        "id": 37594009,
        "last_rank": 67422,
        "player_name": "Lizzie Berry",
        "rank": 58067,
        "rank_sort": 58195,
        "total": 2347
      },
      {
        "club_badge_src": null,
        "entry": 4920052,
        "entry_name": "CWoodfortheTrees",
        "event_total": 51,
        "has_played": true,
        "id": 37949290,
        "last_rank": 49078,
        "player_name": "David Hipwell",
        "rank": 58067,
        "rank_sort": 58196,
        "total": 2347
      },
      {
        "club_badge_src": null,
        "entry": 5010396,
        "entry_name": "Murad FC",
        "event_total": 84,
        "has_played": true,
        "id": 38691124,
        "last_rank": 121383,
        "player_name": "Ahmad Almurad",
        "rank": 58067,
        "rank_sort": 58197,
        "total": 2347
      },
      {
        "club_badge_src": null,
        "entry": 5107119,
        "entry_name": "KRATOS FC",
        "event_total": 45,
        "has_played": true,
        "id": 39477905,
        "last_rank": 40647,
        "player_name": "David Ram",
        "rank": 58067,
        "rank_sort": 58198,
        "total": 2347
      },
      {
        "club_badge_src": null,
        "entry": 5178437,
        "entry_name": "QPR123",
        "event_total": 57,
        "has_played": true,
        "id": 40082001,
        "last_rank": 58911,
        "player_name": "Eskil Walnum",
        "rank": 58067,
        "rank_sort": 58199,
        "total": 2347
      },
      {
        "club_badge_src": null,
        "entry": 5463563,
        "entry_name": "The ManCUNHA way",
        "event_total": 64,
        "has_played": true,
        "id": 42520943,
        "last_rank": 71713,
        "player_name": "Kerron Lambert",
        "rank": 58067,
        "rank_sort": 58200,
        "total": 2347
      }
    ]
  }
}