{
  "last_updated_data": "2026-05-24T23:28:17Z",
  "league": {
    "admin_entry": null,
    "closed": false,
    "code_privacy": "p",
    "created": "2025-07-20T23:14:33.933835Z",
    "cup_league": 2815434,
    "has_cup": true,
    "id": 314,
    "league_type": "s",
    "max_entries": null,
    "name": "Overall",
    "rank": null,
    "scoring": "c",
    "start_event": 1
  },
  "new_entries": {
    "has_next": false,
    "page": 1,
    "results": []
  },
  "standings": {
    "has_next": true,
    "page": 975,
    "results": [
      {
        "club_badge_src": null,
        "entry": 313099,
        "entry_name": "Billy The Badger FC",
        "event_total": 57,
        "has_played": true,
        "id": 2097782,
        "last_rank": 43168,
        "player_name": "Richard Wood",
        "rank": 48669,
        "rank_sort": 48701,
        "total": 2353
      },
      {
        "club_badge_src": null,
        "entry": 343881,
        "entry_name": "MSG XI",
        "event_total": 72,
        "has_played": true,
        "id": 2301422,
        "last_rank": 67695,
        "player_name": "Maninder Goraya",
        "rank": 48669,
        "rank_sort": 48702,
        "total": 2353
      },
      {
        "club_badge_src": null,
        "entry": 355646,
        "entry_name": "Negara FC",
        "event_total": 56,
        "has_played": true,
        "id": 2380112,
        "last_rank": 47596,
        "player_name": "Noel Negara",
        "rank": 48669,
        "rank_sort": 48703,
        "total": 2353
      },
      {
        "club_badge_src": null,
        "entry": 358103,
        "entry_name": "Good on paper . . .",
        "event_total": 51,
        "has_played": true,
        "id": 2396400,
        "last_rank": 35619,
        "player_name": "Deborah Langham",
        "rank": 48669,
        "rank_sort": 48704,
        "total": 2353
      },
      {
        "club_badge_src": "https://fantasy.premierleague.com/gcs/plfpl-production-adobe-approved/plfpl-production/400060/45a597db-051e-4848-9f68-c0bce513d36b.png",
        "entry": 400060,
        "entry_name": "Royal Team \ufffd",
        "event_total": 54,
        "has_played": true,
        "id": 2682562,
        "last_rank": 39246,
        "player_name": "Mohamed A. Deif",
        "rank": 48669,
        "rank_sort": 48705,
        "total": 2353
      },
      {
        "club_badge_src": null,
        "entry": 423720,
        "entry_name": "winner",
        "event_total": 46,
        "has_played": true,
        "id": 2839694,
        "last_rank": 34578,
        "player_name": "Andrew Bairstow",
        "rank": 48669,
        "rank_sort": 48706,
        "total": 2353
      },
      {
        "club_badge_src": "https://fantasy.premierleague.com/gcs/plfpl-production-adobe-approved/plfpl-production/439590/45174c2d-06dc-42c4-8ce3-c6a50e30bc52.png",
        "entry": 439590,
        "entry_name": "FPLliott",
        "event_total": 62,
        "has_played": true,
        "id": 2947725,
        "last_rank": 57200,
        "player_name": "Paul Elliott",
        "rank": 48669,
        "rank_sort": 48707,
        "total": 2353
      },
      {
        "club_badge_src": null,
        "entry": 455573,
        "entry_name": "Atkins Villa",
        "event_total": 60,
        "has_played": true,
        "id": 3056354,
        "last_rank": 47417,
        "player_name": "James Atkins",
        "rank": 48669,
        "rank_sort": 48708,
        "total": 2353
      },
      {
        "club_badge_src": null,
        "entry": 462909,
        "entry_name": "Change Name",
        "event_total": 63,
        "has_played": true,
        "id": 3105142,
        "last_rank": 58688,
        "player_name": "Toby Elliott",
        "rank": 48669,
        "rank_sort": 48709,
        "total": 2353
      },
      {
        "club_badge_src": "https://fantasy.premierleague.com/gcs/plfpl-production-adobe-approved/plfpl-production/471284/e83989c0-46ef-40c1-93c1-120d46057851.png",
        "entry": 471284,
        "entry_name": "The invisibles \ufffd",
        "event_total": 69,
        "has_played": true,
        "id": 3163931,
        "last_rank": 62223,
        "player_name": "Max Steinbock",
        "rank": 48669,
        "rank_sort": 48710,
        "total": 2353
      },
      {
        "club_badge_src": null,
        "entry": 474426,
        "entry_name": "Gy\u00f6k Tuah",
        "event_total": 58,
        "has_played": true,
        "id": 3184994,
        "last_rank": 44525,
        "player_name": "Luis Morton",
        "rank": 48669,
        "rank_sort": 48711,
        "total": 2353
      },
      {
        "club_badge_src": null,
        "entry": 479568,
        "entry_name": "Cap_Maged",
        "event_total": 67,
        "has_played": true,
        "id": 3219472,
        "last_rank": 51720,
        "player_name": "Ahmed Maged",
        "rank": 48669,
        "rank_sort": 48712,
        "total": 2353
      },
      {
        "club_badge_src": null,
        "entry": 490164,
        "entry_name": "Dan the man",
        "event_total": 67,
        "has_played": true,
        "id": 3290453,
        "last_rank": 65796,
        "player_name": "dan Howarth pryce",
        "rank": 48669,
        "rank_sort": 48713,
        "total": 2353
      },
      {
        "club_badge_src": null,
        "entry": 527148,
        "entry_name": "WELLZY FC",
        "event_total": 56,
        "has_played": true,
        "id": 3543722,
        "last_rank": 47596,
        "player_name": "charlie wells",
        "rank": 48669,
        "rank_sort": 48714,
        "total": 2353
      },
      {
        "club_badge_src": "https://fantasy.premierleague.com/gcs/plfpl-production-adobe-approved/plfpl-production/679458/50ed3452-2ef6-414c-9539-80389b92321b.png",
        "entry": 679458,
        "entry_name": "N12 FC",
        "event_total": 68,
        "has_played": true,
        "id": 4597814,
        "last_rank": 67695,
        "player_name": "Punil Shah",
        "rank": 48669,
        "rank_sort": 48715,
        "total": 2353
      },
      {
        "club_badge_src": null,
        "entry": 688912,
        "entry_name": "Los Porro Hermanos",
        "event_total": 43,
        "has_played": true,
        "id": 4664354,
        "last_rank": 31125,
        "player_name": "Tannan Groenewald",
        "rank": 48669,
        "rank_sort": 48716,
        "total": 2353
      },
      {
        "club_badge_src": null,
        "entry": 719151,
        "entry_name": "What the Skelly",
        "event_total": 61,
        "has_played": true,
        "id": 4880939,
        "last_rank": 55514,
        "player_name": "Tim O'Dwyer",
        "rank": 48669,
        "rank_sort": 48717,
        "total": 2353
      },
      {
        "club_badge_src": null,
        "entry": 724817,
        "entry_name": "Reigning Repeater",
        "event_total": 67,
        "has_played": true,
        "id": 4923049,
        "last_rank": 58388,
        "player_name": "Andrew Smith",
        "rank": 48669,
        "rank_sort": 48718,
        "total": 2353
      },
      {
        "club_badge_src": null,
        "entry": 736086,
        "entry_name": "The B Dizzles",
        "event_total": 60,
        "has_played": true,
        "id": 5003990,
        "last_rank": 53837,
        "player_name": "Brad Senior",
        "rank": 48669,
        "rank_sort": 48719,
        "total": 2353
      },
      {
        "club_badge_src": null,
        "entry": 792893,
        "entry_name": "DonoPalmer",
        "event_total": 51,
        "has_played": true,
        "id": 5426121,
        "last_rank": 35619,
        "player_name": "Donal O'Brien",
        "rank": 48669,
        "rank_sort": 48720,
        "total": 2353
      },
      {
        "club_badge_src": null,
        "entry": 831105,
        "entry_name": "Life of Bryan",
        "event_total": 70,
        "has_played": true,
        "id": 5692682,
        "last_rank": 64005,
        "player_name": "Devang Patel",
        "rank": 48669,
        "rank_sort": 48721,
        "total": 2353
      },
      {
        "club_badge_src": null,
        "entry": 919079,
        "entry_name": "Route One Merchants",
        "event_total": 64,
        "has_played": true,
        "id": 6320404,
        "last_rank": 53345,
        "player_name": "Ollie Poulton",
        "rank": 48669,
        "rank_sort": 48722,
        "total": 2353
      },
      {
        "club_badge_src": null,
        "entry": 947808,
        "entry_name": "Holy Boehly",
        "event_total": 67,
        "has_played": true,
        "id": 6528626,
        "last_rank": 58688,
        "player_name": "Brendan Acfield",
        "rank": 48669,
        "rank_sort": 48723,
        "total": 2353
      },
      {
        "club_badge_src": null,
        "entry": 952477,
        "entry_name": "TheSwingkings",
        "event_total": 68,
        "has_played": true,
        "id": 6562356,
        "last_rank": 67063,
        "player_name": "Martin Thrane Pedersen",
        "rank": 48669,
        "rank_sort": 48724,
        "total": 2353
      },
      {
        "club_badge_src": null,
        "entry": 955690,
        "entry_name": "Brookside",
        "event_total": 64,
        "has_played": true,
        "id": 6584829,
        "last_rank": 53345,
        "player_name": "Craig Brooks",
        "rank": 48669,
        "rank_sort": 48725,
        "total": 2353
      },
      {
        "club_badge_src": null,
        "entry": 980172,
        "entry_name": "You Shall Not Pass!",
        "event_total": 58,
        "has_played": true,
        "id": 6757329,
        "last_rank": 50635,
        "player_name": "Joe Bennett",
        "rank": 48669,
        "rank_sort": 48726,
        "total": 2353
      },
      {
        "club_badge_src": null,
        "entry": 1002948,
        "entry_name": "Gazans",
        "event_total": 70,
        "has_played": true,
        "id": 6932978,
        "last_rank": 56708,
        "player_name": "Qais Shawwa",
        "rank": 48669,
        "rank_sort": 48727,
        "total": 2353
      },
      {
        "club_badge_src": null,
        "entry": 1016178,
        "entry_name": "Daddy\u2019sLittleGittens",
        "event_total": 50,
        "has_played": true,
        "id": 7029997,
        "last_rank": 29904,
        "player_name": "Joonas Bragge",
        "rank": 48669,
        "rank_sort": 48728,
        "total": 2353
      },
      {
        "club_badge_src": null,
        "entry": 1092573,
        "entry_name": "The Mighty Boots",
        "event_total": 64,
        "has_played": true,
        "id": 7567041,
        "last_rank": 47163,
        "player_name": "rich edwards",
        "rank": 48669,
        "rank_sort": 48729,
        "total": 2353
      },
      {
        "club_badge_src": null,
        "entry": 1098015,
        "entry_name": "\u017derka",
        "event_total": 70,
        "has_played": true,
        "id": 7605417,
        "last_rank": 56708,
        "player_name": "minja glumac",
        "rank": 48669,
        "rank_sort": 48730,
        "total": 2353
      },
      {
        "club_badge_src": "https://fantasy.premierleague.com/gcs/plfpl-production-adobe-approved/plfpl-production/1098547/c6129170-872c-46dc-81dd-4de958edd3e8.png",
        "entry": 1098547,
        "entry_name": "MCSVN_Pep Pham 92",
        "event_total": 67,
        "has_played": true,
        "id": 7609125,
        "last_rank": 58688,
        "player_name": "\u0110AT GREALISH",
        "rank": 48669,
        "rank_sort": 48731,
        "total": 2353
      },
      {
        "club_badge_src": null,
        "entry": 1230172,
        "entry_name": "Snowman United",
        "event_total": 61,
        "has_played": true,
        "id": 8541885,
        "last_rank": 55514,
        "player_name": "Mark Barry",
        "rank": 48669,
        "rank_sort": 48732,
        "total": 2353
      },
      {
        "club_badge_src": null,
        "entry": 1329094,
        "entry_name": "Ghetto East FC",
        "event_total": 65,
        "has_played": true,
        "id": 9238175,
        "last_rank": 55311,
        "player_name": "Rumen Georgiev",
        "rank": 48669,
        "rank_sort": 48733,
        "total": 2353
      },
      {
        "club_badge_src": null,
        "entry": 1345188,
        "entry_name": "Beasley Babes",
        "event_total": 60,
        "has_played": true,
        "id": 9352384,
        "last_rank": 53345,
        "player_name": "Matt Beasley",
        "rank": 48669,
        "rank_sort": 48734,
        "total": 2353
      },
      {
        "club_badge_src": null,
        "entry": 1365344,
        "entry_name": "AbuTurki FC",
        "event_total": 77,
        "has_played": true,
        "id": 9491337,
        "last_rank": 87350,
        "player_name": "Sultan Bin Turki",
        "rank": 48669,
        "rank_sort": 48735,
        "total": 2353
      },
      {
        "club_badge_src": null,
        "entry": 1382387,
        "entry_name": "DoomWalker",
        "event_total": 67,
        "has_played": true,
        "id": 9614570,
        "last_rank": 65796,
        "player_name": "Abhirup Ghosh",
        "rank": 48669,
        "rank_sort": 48736,
        "total": 2353
      },
      {
        "club_badge_src": null,
        "entry": 1390801,
        "entry_name": "Thierry Henry",
        "event_total": 61,
        "has_played": true,
        "id": 9675563,
        "last_rank": 48898,
        "player_name": "Borislav Banchev",
        "rank": 48669,
        "rank_sort": 48737,
        "total": 2353
      },
      {
        "club_badge_src": "https://fantasy.premierleague.com/gcs/plfpl-production-adobe-approved/plfpl-production/1398844/4cec15d8-1ae0-4283-af53-3e3bf33a0ada.png",
        "entry": 1398844,
        "entry_name": "Arterorist",
        "event_total": 65,
        "has_played": true,
        "id": 9732029,
        "last_rank": 62429,
        "player_name": "Jami Vahtera",
        "rank": 48669,
        "rank_sort": 48738,
        "total": 2353
      },
      {
        "club_badge_src": "https://fantasy.premierleague.com/gcs/plfpl-production-adobe-approved/plfpl-production/1413080/c4cb40fc-3b08-406e-a408-76dea62510ad.png",
        "entry": 1413080,
        "entry_name": "Vavilol",
        "event_total": 57,
        "has_played": true,
        "id": 9833751,
        "last_rank": 42940,
        "player_name": "Mykhailo Vavilov",
        "rank": 48669,
        "rank_sort": 48739,
        "total": 2353
      },
      {
        "club_badge_src": null,
        "entry": 1478451,
        "entry_name": "Iwobi Wan Kanobi",
        "event_total": 65,
        "has_played": true,
        "id": 10308814,
        "last_rank": 55311,
        "player_name": "Jorgen Tungvag",
        "rank": 48669,
        "rank_sort": 48740,
        "total": 2353
      },
      {
        "club_badge_src": null,
        "entry": 1480778,
        "entry_name": "Bogarde of Honour",
        "event_total": 68,
        "has_played": true,
        "id": 10324985,
        "last_rank": 60168,
        "player_name": "Joe Dowd",
        "rank": 48669,
        "rank_sort": 48741,
        "total": 2353
      },
      {
        "club_badge_src": null,
        "entry": 1496864,
        "entry_name": "Smacs FC",
        "event_total": 72,
        "has_played": true,
        "id": 10438694,
        "last_rank": 67695,
        "player_name": "Barry Monaghan",
        "rank": 48669,
        "rank_sort": 48742,
        "total": 2353
      },
      {
        "club_badge_src": null,
        "entry": 1602923,
        "entry_name": "YOU RE A WISSA HARRY",
        "event_total": 66,
        "has_played": true,
        "id": 11213614,
        "last_rank": 50199,
        "player_name": "Andrei Radu",
        "rank": 48669,
        "rank_sort": 48743,
        "total": 2353
      },
      {
        "club_badge_src": null,
        "entry": 1605510,
        "entry_name": "Snoop Udogie Dogg",
        "event_total": 50,
        "has_played": true,
        "id": 11232418,
        "last_rank": 39403,
        "player_name": "Lenny Weber",
        "rank": 48669,
        "rank_sort": 48744,
        "total": 2353
      },
      {
        "club_badge_src": null,
        "entry": 1628787,
        "entry_name": "How Dalot can you go",
        "event_total": 49,
        "has_played": true,
        "id": 11400459,
        "last_rank": 33332,
        "player_name": "Matthew Mayer",
        "rank": 48669,
        "rank_sort": 48745,
        "total": 2353
      },
      {
        "club_badge_src": null,
        "entry": 1689940,
        "entry_name": "Thanks for donating",
        "event_total": 52,
        "has_played": true,
        "id": 11830379,
        "last_rank": 41967,
        "player_name": "Tyking Atte",
        "rank": 48669,
        "rank_sort": 48746,
        "total": 2353
      },
      {
        "club_badge_src": null,
        "entry": 1726752,
        "entry_name": "Amorim\u2019s better XI",
        "event_total": 70,
        "has_played": true,
        "id": 12109211,
        "last_rank": 71956,
        "player_name": "Chris Sargeant",
        "rank": 48669,
        "rank_sort": 48747,
        "total": 2353
      },
      {
        "club_badge_src": null,
        "entry": 1738241,
        "entry_name": "Phil Me Once",
        "event_total": 73,
        "has_played": true,
        "id": 12194983,
        "last_rank": 61950,
        "player_name": "Anirudh Srivastava",
        "rank": 48669,
        "rank_sort": 48748,
        "total": 2353
      },
      {
        "club_badge_src": null,
        "entry": 1801412,
        "entry_name": "Vitor Hugo FC",
        "event_total": 58,
        "has_played": true,
        "id": 12663263,
        "last_rank": 50468,
        "player_name": "V\u00edtor Hugo Coelho",
        "rank": 48669,
        "rank_sort": 48749,
        "total": 2353
      },
      {
        "club_badge_src": null,
        "entry": 1915178,
        "entry_name": "FortuneFavoursTheOld",
        "event_total": 65,
        "has_played": true,
        "id": 13503225,
        "last_rank": 62223,
        "player_name": "Stephen Wells",
        "rank": 48669,
        "rank_sort": 48750,
        "total": 2353
      }
    ]
  }
}