{
  "last_updated_data": "2026-05-24T23:28:17Z",
  "league": {
    "admin_entry": null,
    "closed": false,
    "code_privacy": "p",
    "created": "2025-07-20T23:14:33.933835Z",
    "cup_league": 2815434,
    "has_cup": true,
    "id": 314,
    "league_type": "s",
    "max_entries": null,
    "name": "Overall",
    "rank": null,
    "scoring": "c",
    "start_event": 1
  },
  "new_entries": {
    "has_next": false,
    "page": 1,
    "results": []
  },
  "standings": {
    "has_next": true,
    "page": 1658,
    "results": [
      {
        "club_badge_src": null,
        "entry": 1725789,
        "entry_name": "Miller's Killers",
        "event_total": 40,
        "has_played": true,
        "id": 12102295,
        "last_rank": 51984,
        "player_name": "Chris Miller",
        "rank": 82714,
        "rank_sort": 82851,
        "total": 2334
      },
      {
        "club_badge_src": null,
        "entry": 1727166,
        "entry_name": "\u0644\u0641 \u0648\u0627\u0631\u062c\u0639 \u062a\u0627\u0646\u064a",
        "event_total": 80,
        "has_played": true,
        "id": 12112380,
        "last_rank": 150077,
        "player_name": "F Pl",
        "rank": 82714,
        "rank_sort": 82852,
        "total": 2334
      },
      {
        "club_badge_src": null,
        "entry": 1736713,
        "entry_name": "Reece's Set Pieces",
        "event_total": 64,
        "has_played": true,
        "id": 12183911,
        "last_rank": 91466,
        "player_name": "James Berry",
        "rank": 82714,
        "rank_sort": 82853,
        "total": 2334
      },
      {
        "club_badge_src": null,
        "entry": 1789426,
        "entry_name": "Roy DeCuyper&Hayley",
        "event_total": 42,
        "has_played": true,
        "id": 12573572,
        "last_rank": 48642,
        "player_name": "John Taylor",
        "rank": 82714,
        "rank_sort": 82854,
        "total": 2334
      },
      {
        "club_badge_src": null,
        "entry": 1792191,
        "entry_name": "Y.Mohamed",
        "event_total": 68,
        "has_played": true,
        "id": 12593533,
        "last_rank": 101419,
        "player_name": "yuossif Mohammed",
        "rank": 82714,
        "rank_sort": 82855,
        "total": 2334
      },
      {
        "club_badge_src": null,
        "entry": 1807415,
        "entry_name": "Jack\u2019s XI",
        "event_total": 63,
        "has_played": true,
        "id": 12706884,
        "last_rank": 98896,
        "player_name": "Jack Myat",
        "rank": 82714,
        "rank_sort": 82856,
        "total": 2334
      },
      {
        "club_badge_src": "https://fantasy.premierleague.com/gcs/plfpl-production-adobe-approved/plfpl-production/1830129/bc408aaa-ad93-40de-8e59-09fee569b231.png",
        "entry": 1830129,
        "entry_name": "I only ever buy Rice",
        "event_total": 68,
        "has_played": true,
        "id": 12873217,
        "last_rank": 112169,
        "player_name": "Christopher Sutton",
        "rank": 82714,
        "rank_sort": 82857,
        "total": 2334
      },
      {
        "club_badge_src": null,
        "entry": 1840649,
        "entry_name": "Zivaniya Zirkzee",
        "event_total": 64,
        "has_played": true,
        "id": 12949758,
        "last_rank": 101818,
        "player_name": "Berke Chidam",
        "rank": 82714,
        "rank_sort": 82858,
        "total": 2334
      },
      {
        "club_badge_src": null,
        "entry": 1920773,
        "entry_name": "Uncle Declan's Rice",
        "event_total": 62,
        "has_played": true,
        "id": 13544368,
        "last_rank": 96374,
        "player_name": "Joshun Halil",
        "rank": 82714,
        "rank_sort": 82859,
        "total": 2334
      },
      {
        "club_badge_src": "https://fantasy.premierleague.com/gcs/plfpl-production-adobe-approved/plfpl-production/1968707/f07aa352-123f-4924-a77f-816b850c760c.png",
        "entry": 1968707,
        "entry_name": "Back Post Cross",
        "event_total": 51,
        "has_played": true,
        "id": 13894060,
        "last_rank": 71956,
        "player_name": "Jason Cross",
        "rank": 82714,
        "rank_sort": 82860,
        "total": 2334
      },
      {
        "club_badge_src": null,
        "entry": 1990140,
        "entry_name": "Robert Sanchez Out",
        "event_total": 79,
        "has_played": true,
        "id": 14060189,
        "last_rank": 132758,
        "player_name": "Lesedi Mokoena",
        "rank": 82714,
        "rank_sort": 82861,
        "total": 2334
      },
      {
        "club_badge_src": null,
        "entry": 2019305,
        "entry_name": "Sporting Eeyore",
        "event_total": 41,
        "has_played": true,
        "id": 14287214,
        "last_rank": 53023,
        "player_name": "Laurie White",
        "rank": 82714,
        "rank_sort": 82862,
        "total": 2334
      },
      {
        "club_badge_src": null,
        "entry": 2060612,
        "entry_name": "3mirh stars",
        "event_total": 59,
        "has_played": true,
        "id": 14599624,
        "last_rank": 88348,
        "player_name": "Mohamed Ahmed",
        "rank": 82714,
        "rank_sort": 82863,
        "total": 2334
      },
      {
        "club_badge_src": null,
        "entry": 2076682,
        "entry_name": "Wirtz Nightmare",
        "event_total": 50,
        "has_played": true,
        "id": 14724070,
        "last_rank": 69641,
        "player_name": "Giancarlo Gabbiadini",
        "rank": 82714,
        "rank_sort": 82864,
        "total": 2334
      },
      {
        "club_badge_src": null,
        "entry": 2093203,
        "entry_name": "Chili con Kane",
        "event_total": 55,
        "has_played": true,
        "id": 14851273,
        "last_rank": 79817,
        "player_name": "J AAkesson",
        "rank": 82714,
        "rank_sort": 82865,
        "total": 2334
      },
      {
        "club_badge_src": null,
        "entry": 2094839,
        "entry_name": "InTheNameOfTheWeeMan",
        "event_total": 60,
        "has_played": true,
        "id": 14862957,
        "last_rank": 82069,
        "player_name": "Mark Fleming",
        "rank": 82714,
        "rank_sort": 82866,
        "total": 2334
      },
      {
        "club_badge_src": null,
        "entry": 2119116,
        "entry_name": "VaatMan",
        "event_total": 73,
        "has_played": true,
        "id": 15052289,
        "last_rank": 126408,
        "player_name": "Kalou Lama",
        "rank": 82714,
        "rank_sort": 82867,
        "total": 2334
      },
      {
        "club_badge_src": "https://fantasy.premierleague.com/gcs/plfpl-production-adobe-approved/plfpl-production/2122107/2913f006-db96-467d-8c76-d2dda7995840.png",
        "entry": 2122107,
        "entry_name": "Carloskickaballs",
        "event_total": 60,
        "has_played": true,
        "id": 15074659,
        "last_rank": 82069,
        "player_name": "David Crowther",
        "rank": 82714,
        "rank_sort": 82868,
        "total": 2334
      },
      {
        "club_badge_src": "https://fantasy.premierleague.com/gcs/plfpl-production-adobe-approved/plfpl-production/2122656/24937e11-2314-437e-9751-73cf80abf3a2.png",
        "entry": 2122656,
        "entry_name": "GiftigeLinks",
        "event_total": 55,
        "has_played": true,
        "id": 15078880,
        "last_rank": 80194,
        "player_name": "Frej Langager",
        "rank": 82714,
        "rank_sort": 82869,
        "total": 2334
      },
      {
        "club_badge_src": null,
        "entry": 2157770,
        "entry_name": "Red Dragons",
        "event_total": 42,
        "has_played": true,
        "id": 15338745,
        "last_rank": 55514,
        "player_name": "Priyank Nitendra",
        "rank": 82714,
        "rank_sort": 82870,
        "total": 2334
      },
      {
        "club_badge_src": null,
        "entry": 2194215,
        "entry_name": "RIO MAN",
        "event_total": 77,
        "has_played": true,
        "id": 15611964,
        "last_rank": 139917,
        "player_name": "Fahad Muktar",
        "rank": 82714,
        "rank_sort": 82871,
        "total": 2334
      },
      {
        "club_badge_src": null,
        "entry": 2208431,
        "entry_name": "ABOVE YOU",
        "event_total": 34,
        "has_played": true,
        "id": 15725480,
        "last_rank": 43342,
        "player_name": "Caleb Onyenezido",
        "rank": 82714,
        "rank_sort": 82872,
        "total": 2334
      },
      {
        "club_badge_src": "https://fantasy.premierleague.com/gcs/plfpl-production-adobe-approved/plfpl-production/2213614/7fb6c408-8ada-4535-9a3d-c469145a1af1.png",
        "entry": 2213614,
        "entry_name": "Blackstar FPL",
        "event_total": 60,
        "has_played": true,
        "id": 15763832,
        "last_rank": 91466,
        "player_name": "rick smith",
        "rank": 82714,
        "rank_sort": 82873,
        "total": 2334
      },
      {
        "club_badge_src": null,
        "entry": 2250843,
        "entry_name": "Change Name",
        "event_total": 59,
        "has_played": true,
        "id": 16038736,
        "last_rank": 88594,
        "player_name": "Aaron Brown",
        "rank": 82714,
        "rank_sort": 82874,
        "total": 2334
      },
      {
        "club_badge_src": null,
        "entry": 2274066,
        "entry_name": "Tays 11",
        "event_total": 74,
        "has_played": true,
        "id": 16215647,
        "last_rank": 130073,
        "player_name": "Paul Taylor",
        "rank": 82714,
        "rank_sort": 82875,
        "total": 2334
      },
      {
        "club_badge_src": null,
        "entry": 2276505,
        "entry_name": "jo\u00ebls fieldmen",
        "event_total": 69,
        "has_played": true,
        "id": 16233467,
        "last_rank": 115421,
        "player_name": "Alex Faubel",
        "rank": 82714,
        "rank_sort": 82876,
        "total": 2334
      },
      {
        "club_badge_src": null,
        "entry": 2419235,
        "entry_name": "\u0160K Petrova Ves",
        "event_total": 55,
        "has_played": true,
        "id": 17294933,
        "last_rank": 80194,
        "player_name": "Marek V\u00e9py",
        "rank": 82714,
        "rank_sort": 82877,
        "total": 2334
      },
      {
        "club_badge_src": "https://fantasy.premierleague.com/gcs/plfpl-production-adobe-approved/plfpl-production/2470147/c5a4a1da-d4e6-48cf-8a6d-57d37804bb9d.png",
        "entry": 2470147,
        "entry_name": "City4Ever",
        "event_total": 58,
        "has_played": true,
        "id": 17670895,
        "last_rank": 77676,
        "player_name": "Alex Ruskov",
        "rank": 82714,
        "rank_sort": 82878,
        "total": 2334
      },
      {
        "club_badge_src": "https://fantasy.premierleague.com/gcs/plfpl-production-adobe-approved/plfpl-production/2589222/e913498c-8a53-41fc-b9b5-6f37d157d424.png",
        "entry": 2589222,
        "entry_name": "Good kid Man city",
        "event_total": 60,
        "has_played": true,
        "id": 18588708,
        "last_rank": 82069,
        "player_name": "Abhinav raghavan",
        "rank": 82714,
        "rank_sort": 82879,
        "total": 2334
      },
      {
        "club_badge_src": "https://fantasy.premierleague.com/gcs/plfpl-production-adobe-approved/plfpl-production/2618247/bf3aea86-0910-4c60-8d59-0f123faaf9b7.png",
        "entry": 2618247,
        "entry_name": "Arsenal",
        "event_total": 62,
        "has_played": true,
        "id": 18813118,
        "last_rank": 96777,
        "player_name": "Khalid Khodier",
        "rank": 82714,
        "rank_sort": 82880,
        "total": 2334
      },
      {
        "club_badge_src": null,
        "entry": 2684990,
        "entry_name": "Anyone 4 a Bijol",
        "event_total": 59,
        "has_played": true,
        "id": 19311089,
        "last_rank": 79431,
        "player_name": "Henry Veigas",
        "rank": 82714,
        "rank_sort": 82881,
        "total": 2334
      },
      {
        "club_badge_src": "https://fantasy.premierleague.com/gcs/plfpl-production-adobe-approved/plfpl-production/2734458/7b41572b-4771-4972-9a92-0fb60a7af632.png",
        "entry": 2734458,
        "entry_name": "Klopptimus Primetime",
        "event_total": 65,
        "has_played": true,
        "id": 19677830,
        "last_rank": 93883,
        "player_name": "Dean Webley",
        "rank": 82714,
        "rank_sort": 82882,
        "total": 2334
      },
      {
        "club_badge_src": null,
        "entry": 2785468,
        "entry_name": "Bullslayers",
        "event_total": 64,
        "has_played": true,
        "id": 20335086,
        "last_rank": 101818,
        "player_name": "Anmol Agarwal",
        "rank": 82714,
        "rank_sort": 82883,
        "total": 2334
      },
      {
        "club_badge_src": null,
        "entry": 2785748,
        "entry_name": "Jayo Pedro",
        "event_total": 60,
        "has_played": true,
        "id": 20337190,
        "last_rank": 82069,
        "player_name": "Jason Doyle",
        "rank": 82714,
        "rank_sort": 82884,
        "total": 2334
      },
      {
        "club_badge_src": null,
        "entry": 2829502,
        "entry_name": "GalaCastletroy",
        "event_total": 56,
        "has_played": true,
        "id": 20675350,
        "last_rank": 82069,
        "player_name": "Stephen Nolan",
        "rank": 82714,
        "rank_sort": 82885,
        "total": 2334
      },
      {
        "club_badge_src": null,
        "entry": 2833847,
        "entry_name": "Ipswich Glory",
        "event_total": 42,
        "has_played": true,
        "id": 20708282,
        "last_rank": 55311,
        "player_name": "Leif Inge Gruner",
        "rank": 82714,
        "rank_sort": 82886,
        "total": 2334
      },
      {
        "club_badge_src": null,
        "entry": 3013006,
        "entry_name": "Net six and chill",
        "event_total": 54,
        "has_played": true,
        "id": 22165979,
        "last_rank": 77999,
        "player_name": "Vishal Mistry",
        "rank": 82714,
        "rank_sort": 82887,
        "total": 2334
      },
      {
        "club_badge_src": null,
        "entry": 3122052,
        "entry_name": "Ballon D\u2019orgu XI",
        "event_total": 64,
        "has_played": true,
        "id": 23039913,
        "last_rank": 101818,
        "player_name": "Harry Hannam",
        "rank": 82714,
        "rank_sort": 82889,
        "total": 2334
      },
      {
        "club_badge_src": null,
        "entry": 3167189,
        "entry_name": "Ekitike taka",
        "event_total": 45,
        "has_played": true,
        "id": 23399061,
        "last_rank": 59535,
        "player_name": "Simen Espedal",
        "rank": 82714,
        "rank_sort": 82890,
        "total": 2334
      },
      {
        "club_badge_src": "https://fantasy.premierleague.com/gcs/plfpl-production-adobe-approved/plfpl-production/3223799/04ee9926-3ea3-489a-b315-241b27646adb.png",
        "entry": 3223799,
        "entry_name": "Richy club de futbol",
        "event_total": 70,
        "has_played": true,
        "id": 23840123,
        "last_rank": 95890,
        "player_name": "Hugo Adams",
        "rank": 82714,
        "rank_sort": 82891,
        "total": 2334
      },
      {
        "club_badge_src": null,
        "entry": 3285704,
        "entry_name": "The Young Ones",
        "event_total": 55,
        "has_played": true,
        "id": 24322941,
        "last_rank": 80194,
        "player_name": "Pete Young",
        "rank": 82714,
        "rank_sort": 82892,
        "total": 2334
      },
      {
        "club_badge_src": null,
        "entry": 3313919,
        "entry_name": "6791United",
        "event_total": 58,
        "has_played": true,
        "id": 24553425,
        "last_rank": 87074,
        "player_name": "Solveig Kvame",
        "rank": 82714,
        "rank_sort": 82893,
        "total": 2334
      },
      {
        "club_badge_src": null,
        "entry": 3347430,
        "entry_name": "\u0627\u0644\u062d\u0646\u0627\u064a\u0643\u0629",
        "event_total": 96,
        "has_played": true,
        "id": 24831806,
        "last_rank": 212137,
        "player_name": "Omar Sheref",
        "rank": 82714,
        "rank_sort": 82894,
        "total": 2334
      },
      {
        "club_badge_src": null,
        "entry": 3361427,
        "entry_name": "Gold & Black Attack",
        "event_total": 65,
        "has_played": true,
        "id": 24941662,
        "last_rank": 93883,
        "player_name": "Andrew Dodd",
        "rank": 82714,
        "rank_sort": 82895,
        "total": 2334
      },
      {
        "club_badge_src": null,
        "entry": 3371762,
        "entry_name": "Sidunited**",
        "event_total": 54,
        "has_played": true,
        "id": 25022829,
        "last_rank": 77999,
        "player_name": "Siddharth Mehra",
        "rank": 82714,
        "rank_sort": 82896,
        "total": 2334
      },
      {
        "club_badge_src": null,
        "entry": 3482989,
        "entry_name": "Pink Harbour",
        "event_total": 51,
        "has_played": true,
        "id": 25899415,
        "last_rank": 71713,
        "player_name": "Hampus Wallin",
        "rank": 82714,
        "rank_sort": 82897,
        "total": 2334
      },
      {
        "club_badge_src": null,
        "entry": 3522545,
        "entry_name": "Peaky Reijnders",
        "event_total": 70,
        "has_played": true,
        "id": 26215034,
        "last_rank": 118343,
        "player_name": "Luke Whiteling",
        "rank": 82714,
        "rank_sort": 82898,
        "total": 2334
      },
      {
        "club_badge_src": null,
        "entry": 3541184,
        "entry_name": "Non Bottler FC",
        "event_total": 46,
        "has_played": true,
        "id": 26359391,
        "last_rank": 62223,
        "player_name": "Emmanuel BDBOY Mgbemena",
        "rank": 82714,
        "rank_sort": 82899,
        "total": 2334
      },
      {
        "club_badge_src": null,
        "entry": 3547196,
        "entry_name": "38 ukers helvete",
        "event_total": 69,
        "has_played": true,
        "id": 26406725,
        "last_rank": 115057,
        "player_name": "Andreas Bjerkeseth",
        "rank": 82714,
        "rank_sort": 82900,
        "total": 2334
      }
    ]
  }
}