{
  "last_updated_data": "2026-05-24T23:28:17Z",
  "league": {
    "admin_entry": null,
    "closed": false,
    "code_privacy": "p",
    "created": "2025-07-20T23:14:33.933835Z",
    "cup_league": 2815434,
    "has_cup": true,
    "id": 314,
    "league_type": "s",
    "max_entries": null,
    "name": "Overall",
    "rank": null,
    "scoring": "c",
    "start_event": 1
  },
  "new_entries": {
    "has_next": false,
    "page": 1,
    "results": []
  },
  "standings": {
    "has_next": true,
    "page": 747,
    "results": [
      {
        "club_badge_src": null,
        "entry": 6534412,
        "entry_name": "KIOI GUNNERS X",
        "event_total": 60,
        "has_played": true,
        "id": 52128319,
        "last_rank": 41030,
        "player_name": "Kensuke Noda",
        "rank": 37301,
        "rank_sort": 37301,
        "total": 2362
      },
      {
        "club_badge_src": null,
        "entry": 942339,
        "entry_name": "Bowen 747",
        "event_total": 36,
        "has_played": true,
        "id": 6489460,
        "last_rank": 17950,
        "player_name": "Stephen Edwards",
        "rank": 37302,
        "rank_sort": 37302,
        "total": 2362
      },
      {
        "club_badge_src": null,
        "entry": 8460589,
        "entry_name": "Fela Kuti",
        "event_total": 58,
        "has_played": true,
        "id": 70254939,
        "last_rank": 38506,
        "player_name": "Janine Parsons",
        "rank": 37303,
        "rank_sort": 37303,
        "total": 2361
      },
      {
        "club_badge_src": null,
        "entry": 3103342,
        "entry_name": "Gun Goddess",
        "event_total": 75,
        "has_played": true,
        "id": 22880647,
        "last_rank": 64732,
        "player_name": "Miss Fortune",
        "rank": 37304,
        "rank_sort": 37304,
        "total": 2361
      },
      {
        "club_badge_src": null,
        "entry": 6921635,
        "entry_name": "rice and shine",
        "event_total": 43,
        "has_played": true,
        "id": 55485526,
        "last_rank": 23139,
        "player_name": "Peter Ruberto",
        "rank": 37305,
        "rank_sort": 37305,
        "total": 2361
      },
      {
        "club_badge_src": "https://fantasy.premierleague.com/gcs/plfpl-production-adobe-approved/plfpl-production/596792/3946fdc1-a12c-4740-bb92-3f8f4e80524b.png",
        "entry": 596792,
        "entry_name": "Vancouver FC",
        "event_total": 77,
        "has_played": true,
        "id": 4024141,
        "last_rank": 68556,
        "player_name": "James Long",
        "rank": 37306,
        "rank_sort": 37306,
        "total": 2361
      },
      {
        "club_badge_src": null,
        "entry": 2851053,
        "entry_name": "Mesma",
        "event_total": 57,
        "has_played": true,
        "id": 20845637,
        "last_rank": 37314,
        "player_name": "Mario Me\u0161trovi\u0107",
        "rank": 37306,
        "rank_sort": 37307,
        "total": 2361
      },
      {
        "club_badge_src": null,
        "entry": 8982020,
        "entry_name": "Marty FC",
        "event_total": 70,
        "has_played": true,
        "id": 75308628,
        "last_rank": 49532,
        "player_name": "Martine Yttervik",
        "rank": 37306,
        "rank_sort": 37308,
        "total": 2361
      },
      {
        "club_badge_src": null,
        "entry": 3003120,
        "entry_name": "FC Z",
        "event_total": 40,
        "has_played": true,
        "id": 22089746,
        "last_rank": 20814,
        "player_name": "Markus Anderberg",
        "rank": 37309,
        "rank_sort": 37309,
        "total": 2361
      },
      {
        "club_badge_src": null,
        "entry": 3433146,
        "entry_name": "Bigsxc",
        "event_total": 75,
        "has_played": true,
        "id": 25504162,
        "last_rank": 64760,
        "player_name": "Kurt Maclennan",
        "rank": 37309,
        "rank_sort": 37310,
        "total": 2361
      },
      {
        "club_badge_src": null,
        "entry": 3999989,
        "entry_name": "Hakuna Fatawu",
        "event_total": 58,
        "has_played": true,
        "id": 30126793,
        "last_rank": 38519,
        "player_name": "Rob Hughes",
        "rank": 37309,
        "rank_sort": 37311,
        "total": 2361
      },
      {
        "club_badge_src": null,
        "entry": 4886207,
        "entry_name": "Dynamo FC",
        "event_total": 74,
        "has_played": true,
        "id": 37671033,
        "last_rank": 63042,
        "player_name": "Antonio Vargas",
        "rank": 37309,
        "rank_sort": 37312,
        "total": 2361
      },
      {
        "club_badge_src": null,
        "entry": 6025815,
        "entry_name": "GuardianofLAGalaxyXI",
        "event_total": 65,
        "has_played": true,
        "id": 47528704,
        "last_rank": 48057,
        "player_name": "Liam Geoghegan",
        "rank": 37309,
        "rank_sort": 37313,
        "total": 2361
      },
      {
        "club_badge_src": null,
        "entry": 138441,
        "entry_name": "Only Kruls n Horses",
        "event_total": 80,
        "has_played": true,
        "id": 903130,
        "last_rank": 74691,
        "player_name": "Josh Sartini",
        "rank": 37314,
        "rank_sort": 37314,
        "total": 2361
      },
      {
        "club_badge_src": null,
        "entry": 389032,
        "entry_name": "Oi No Professionals",
        "event_total": 60,
        "has_played": true,
        "id": 2609663,
        "last_rank": 41073,
        "player_name": "Luke Shaw",
        "rank": 37314,
        "rank_sort": 37315,
        "total": 2361
      },
      {
        "club_badge_src": null,
        "entry": 794547,
        "entry_name": "5 yard box",
        "event_total": 55,
        "has_played": true,
        "id": 5437601,
        "last_rank": 34910,
        "player_name": "Owen Harper",
        "rank": 37314,
        "rank_sort": 37316,
        "total": 2361
      },
      {
        "club_badge_src": null,
        "entry": 2467608,
        "entry_name": "TheHighs&Dalots",
        "event_total": 43,
        "has_played": true,
        "id": 17651727,
        "last_rank": 23164,
        "player_name": "Julian Tong",
        "rank": 37314,
        "rank_sort": 37317,
        "total": 2361
      },
      {
        "club_badge_src": null,
        "entry": 2598878,
        "entry_name": "Lil Uzi Wirtz FC",
        "event_total": 46,
        "has_played": true,
        "id": 18664338,
        "last_rank": 25709,
        "player_name": "Brad Carter",
        "rank": 37314,
        "rank_sort": 37318,
        "total": 2361
      },
      {
        "club_badge_src": null,
        "entry": 3285183,
        "entry_name": "the big steppers XI",
        "event_total": 56,
        "has_played": true,
        "id": 24318904,
        "last_rank": 36110,
        "player_name": "Ahmed Hamed",
        "rank": 37314,
        "rank_sort": 37319,
        "total": 2361
      },
      {
        "club_badge_src": null,
        "entry": 4612194,
        "entry_name": "Gunners N' Roses",
        "event_total": 36,
        "has_played": true,
        "id": 35244276,
        "last_rank": 17960,
        "player_name": "Steve Dugdale",
        "rank": 37314,
        "rank_sort": 37320,
        "total": 2361
      },
      {
        "club_badge_src": null,
        "entry": 6977923,
        "entry_name": "heagney fc",
        "event_total": 45,
        "has_played": true,
        "id": 55993939,
        "last_rank": 24812,
        "player_name": "John Heagney",
        "rank": 37314,
        "rank_sort": 37321,
        "total": 2361
      },
      {
        "club_badge_src": null,
        "entry": 8753,
        "entry_name": "major league saka",
        "event_total": 72,
        "has_played": true,
        "id": 51071,
        "last_rank": 59475,
        "player_name": "Darragh Cremins",
        "rank": 37322,
        "rank_sort": 37322,
        "total": 2361
      },
      {
        "club_badge_src": null,
        "entry": 91299,
        "entry_name": "Change Name",
        "event_total": 64,
        "has_played": true,
        "id": 596253,
        "last_rank": 46547,
        "player_name": "Leigh Manns",
        "rank": 37322,
        "rank_sort": 37323,
        "total": 2361
      },
      {
        "club_badge_src": null,
        "entry": 383207,
        "entry_name": "Shaw ate Dalot",
        "event_total": 38,
        "has_played": true,
        "id": 2569840,
        "last_rank": 19392,
        "player_name": "Bill Mitcham",
        "rank": 37322,
        "rank_sort": 37324,
        "total": 2361
      },
      {
        "club_badge_src": "https://fantasy.premierleague.com/gcs/plfpl-production-adobe-approved/plfpl-production/997292/e385cdd0-5323-43a2-bb49-c5e641b1e179.png",
        "entry": 997292,
        "entry_name": "Higijeni\u010dari",
        "event_total": 69,
        "has_played": true,
        "id": 6888743,
        "last_rank": 54380,
        "player_name": "Denis Juraga",
        "rank": 37322,
        "rank_sort": 37325,
        "total": 2361
      },
      {
        "club_badge_src": "https://fantasy.premierleague.com/gcs/plfpl-production-adobe-approved/plfpl-production/1725722/b7454a88-273e-4012-83df-fb51b3b04261.png",
        "entry": 1725722,
        "entry_name": "Salahmander FC",
        "event_total": 52,
        "has_played": true,
        "id": 12101773,
        "last_rank": 31556,
        "player_name": "Adam Roe",
        "rank": 37322,
        "rank_sort": 37326,
        "total": 2361
      },
      {
        "club_badge_src": null,
        "entry": 2688134,
        "entry_name": "Floor is Lavia",
        "event_total": 56,
        "has_played": true,
        "id": 19334453,
        "last_rank": 36142,
        "player_name": "Jef Van den Dries",
        "rank": 37322,
        "rank_sort": 37327,
        "total": 2361
      },
      {
        "club_badge_src": null,
        "entry": 2867191,
        "entry_name": "BFC",
        "event_total": 58,
        "has_played": true,
        "id": 20970542,
        "last_rank": 29475,
        "player_name": "Mahir Ahmed",
        "rank": 37322,
        "rank_sort": 37328,
        "total": 2361
      },
      {
        "club_badge_src": null,
        "entry": 4471714,
        "entry_name": "Twelfth Man",
        "event_total": 47,
        "has_played": true,
        "id": 34076102,
        "last_rank": 26656,
        "player_name": "Alex Roy",
        "rank": 37322,
        "rank_sort": 37329,
        "total": 2361
      },
      {
        "club_badge_src": null,
        "entry": 4791938,
        "entry_name": "rennie",
        "event_total": 43,
        "has_played": true,
        "id": 36891855,
        "last_rank": 23188,
        "player_name": "Kyle Rennie",
        "rank": 37322,
        "rank_sort": 37330,
        "total": 2361
      },
      {
        "club_badge_src": "https://fantasy.premierleague.com/gcs/plfpl-production-adobe-approved/plfpl-production/5206181/81262ebe-4a63-42ff-adf2-0a26d7d7c39f.png",
        "entry": 5206181,
        "entry_name": "Uzumak!\u2122\u2713",
        "event_total": 72,
        "has_played": true,
        "id": 40322890,
        "last_rank": 59535,
        "player_name": "collo Kimari",
        "rank": 37322,
        "rank_sort": 37331,
        "total": 2361
      },
      {
        "club_badge_src": null,
        "entry": 7194299,
        "entry_name": "Bend it like Beckham",
        "event_total": 49,
        "has_played": true,
        "id": 58080081,
        "last_rank": 28546,
        "player_name": "Subin Rooney",
        "rank": 37322,
        "rank_sort": 37332,
        "total": 2361
      },
      {
        "club_badge_src": null,
        "entry": 7929673,
        "entry_name": "Ice Ice Palmer",
        "event_total": 37,
        "has_played": true,
        "id": 65255709,
        "last_rank": 18655,
        "player_name": "Satbir Singh",
        "rank": 37322,
        "rank_sort": 37333,
        "total": 2361
      },
      {
        "club_badge_src": null,
        "entry": 8239322,
        "entry_name": "Molo",
        "event_total": 59,
        "has_played": true,
        "id": 68118151,
        "last_rank": 39816,
        "player_name": "Fizzy Molo",
        "rank": 37322,
        "rank_sort": 37334,
        "total": 2361
      },
      {
        "club_badge_src": null,
        "entry": 9000593,
        "entry_name": "Ask Chat GPT FC",
        "event_total": 53,
        "has_played": true,
        "id": 75486268,
        "last_rank": 32647,
        "player_name": "Cole Lindsey",
        "rank": 37322,
        "rank_sort": 37335,
        "total": 2361
      },
      {
        "club_badge_src": null,
        "entry": 9229510,
        "entry_name": "Abv",
        "event_total": 79,
        "has_played": true,
        "id": 77723330,
        "last_rank": 72622,
        "player_name": "Kosio Petrov",
        "rank": 37322,
        "rank_sort": 37336,
        "total": 2361
      },
      {
        "club_badge_src": null,
        "entry": 3677,
        "entry_name": "Brown Floaters",
        "event_total": 57,
        "has_played": true,
        "id": 20851,
        "last_rank": 37325,
        "player_name": "Oliver Brown",
        "rank": 37337,
        "rank_sort": 37337,
        "total": 2361
      },
      {
        "club_badge_src": null,
        "entry": 40329,
        "entry_name": "Team Thomas",
        "event_total": 67,
        "has_played": true,
        "id": 258553,
        "last_rank": 51099,
        "player_name": "Thomas Borgelioen",
        "rank": 37337,
        "rank_sort": 37338,
        "total": 2361
      },
      {
        "club_badge_src": null,
        "entry": 169002,
        "entry_name": "Cosmic Raiders",
        "event_total": 44,
        "has_played": true,
        "id": 1116896,
        "last_rank": 24039,
        "player_name": "Terry O Callaghan",
        "rank": 37337,
        "rank_sort": 37339,
        "total": 2361
      },
      {
        "club_badge_src": null,
        "entry": 524673,
        "entry_name": "1919",
        "event_total": 76,
        "has_played": true,
        "id": 3525357,
        "last_rank": 66738,
        "player_name": "Ademir Omercehajic",
        "rank": 37337,
        "rank_sort": 37340,
        "total": 2361
      },
      {
        "club_badge_src": null,
        "entry": 884130,
        "entry_name": "Smpjtr",
        "event_total": 58,
        "has_played": true,
        "id": 6063491,
        "last_rank": 38542,
        "player_name": "Elian Mugerli",
        "rank": 37337,
        "rank_sort": 37341,
        "total": 2361
      },
      {
        "club_badge_src": "https://fantasy.premierleague.com/gcs/plfpl-production-adobe-approved/plfpl-production/1606555/16244079-9a01-4967-9d08-0e5e595276a8.png",
        "entry": 1606555,
        "entry_name": "Luke Not Shaw",
        "event_total": 53,
        "has_played": true,
        "id": 11240185,
        "last_rank": 28517,
        "player_name": "Luke Basevi",
        "rank": 37337,
        "rank_sort": 37342,
        "total": 2361
      },
      {
        "club_badge_src": null,
        "entry": 1911319,
        "entry_name": "GizmoFC",
        "event_total": 35,
        "has_played": true,
        "id": 13475200,
        "last_rank": 17358,
        "player_name": "Leigh Poulter",
        "rank": 37337,
        "rank_sort": 37343,
        "total": 2361
      },
      {
        "club_badge_src": null,
        "entry": 2016624,
        "entry_name": "SMB",
        "event_total": 53,
        "has_played": true,
        "id": 14266688,
        "last_rank": 32751,
        "player_name": "Salem AlBreiki",
        "rank": 37337,
        "rank_sort": 37344,
        "total": 2361
      },
      {
        "club_badge_src": null,
        "entry": 2034620,
        "entry_name": "Change Name",
        "event_total": 57,
        "has_played": true,
        "id": 14405631,
        "last_rank": 37435,
        "player_name": "Ellis Edwards",
        "rank": 37337,
        "rank_sort": 37345,
        "total": 2361
      },
      {
        "club_badge_src": "https://fantasy.premierleague.com/gcs/plfpl-production-adobe-approved/plfpl-production/2840597/1dc0b8b1-dc8e-4ba3-b589-ef16565772ab.png",
        "entry": 2840597,
        "entry_name": "Lemmings FC",
        "event_total": 56,
        "has_played": true,
        "id": 20761464,
        "last_rank": 36142,
        "player_name": "Tom Stacey",
        "rank": 37337,
        "rank_sort": 37346,
        "total": 2361
      },
      {
        "club_badge_src": null,
        "entry": 2979386,
        "entry_name": "Ricestafari FC",
        "event_total": 86,
        "has_played": true,
        "id": 21904805,
        "last_rank": 88154,
        "player_name": "Zak Sandfird",
        "rank": 37337,
        "rank_sort": 37347,
        "total": 2361
      },
      {
        "club_badge_src": null,
        "entry": 3444071,
        "entry_name": "naTTooTTan",
        "event_total": 46,
        "has_played": true,
        "id": 25588638,
        "last_rank": 25776,
        "player_name": "Natto Ottan",
        "rank": 37337,
        "rank_sort": 37348,
        "total": 2361
      },
      {
        "club_badge_src": null,
        "entry": 3449372,
        "entry_name": "The Oompaloompas",
        "event_total": 53,
        "has_played": true,
        "id": 25632579,
        "last_rank": 28532,
        "player_name": "\u00d8yvind Alsvik",
        "rank": 37337,
        "rank_sort": 37349,
        "total": 2361
      },
      {
        "club_badge_src": null,
        "entry": 3548836,
        "entry_name": "BigDunc",
        "event_total": 59,
        "has_played": true,
        "id": 26419554,
        "last_rank": 39770,
        "player_name": "Daniel MacSweeney",
        "rank": 37337,
        "rank_sort": 37350,
        "total": 2361
      }
    ]
  }
}