{
  "last_updated_data": "2026-05-24T23:28:17Z",
  "league": {
    "admin_entry": null,
    "closed": false,
    "code_privacy": "p",
    "created": "2025-07-20T23:14:33.933835Z",
    "cup_league": 2815434,
    "has_cup": true,
    "id": 314,
    "league_type": "s",
    "max_entries": null,
    "name": "Overall",
    "rank": null,
    "scoring": "c",
    "start_event": 1
  },
  "new_entries": {
    "has_next": false,
    "page": 1,
    "results": []
  },
  "standings": {
    "has_next": true,
    "page": 285,
    "results": [
      {
        "club_badge_src": null,
        "entry": 3089951,
        "entry_name": "Spinut United",
        "event_total": 62,
        "has_played": true,
        "id": 22772346,
        "last_rank": 16675,
        "player_name": "Ivan Batisti\u0107",
        "rank": 14183,
        "rank_sort": 14201,
        "total": 2389
      },
      {
        "club_badge_src": null,
        "entry": 3219368,
        "entry_name": "Ha-Cunha-Matata",
        "event_total": 48,
        "has_played": true,
        "id": 23806274,
        "last_rank": 9536,
        "player_name": "v33h K",
        "rank": 14183,
        "rank_sort": 14202,
        "total": 2389
      },
      {
        "club_badge_src": null,
        "entry": 3279002,
        "entry_name": "Mount up top",
        "event_total": 44,
        "has_played": true,
        "id": 24269736,
        "last_rank": 8032,
        "player_name": "Rudraksh Singh Shekhawat",
        "rank": 14183,
        "rank_sort": 14203,
        "total": 2389
      },
      {
        "club_badge_src": null,
        "entry": 3811796,
        "entry_name": "Ice Cold INNit",
        "event_total": 49,
        "has_played": true,
        "id": 28502644,
        "last_rank": 9853,
        "player_name": "Sid V",
        "rank": 14183,
        "rank_sort": 14204,
        "total": 2389
      },
      {
        "club_badge_src": null,
        "entry": 4056474,
        "entry_name": "Pique Boo",
        "event_total": 64,
        "has_played": true,
        "id": 30607863,
        "last_rank": 18029,
        "player_name": "Daniel Berry",
        "rank": 14183,
        "rank_sort": 14205,
        "total": 2389
      },
      {
        "club_badge_src": "https://fantasy.premierleague.com/gcs/plfpl-production-adobe-approved/plfpl-production/5793967/f0268c7c-a9cc-429d-ba42-ca0cfc0b2c44.png",
        "entry": 5793967,
        "entry_name": "The Moaning Myrtles",
        "event_total": 53,
        "has_played": true,
        "id": 45446762,
        "last_rank": 11699,
        "player_name": "Billie Mayers",
        "rank": 14183,
        "rank_sort": 14206,
        "total": 2389
      },
      {
        "club_badge_src": null,
        "entry": 5877205,
        "entry_name": "Baby its Cole outsid",
        "event_total": 64,
        "has_played": true,
        "id": 46164430,
        "last_rank": 17989,
        "player_name": "Tim Tian",
        "rank": 14183,
        "rank_sort": 14207,
        "total": 2389
      },
      {
        "club_badge_src": null,
        "entry": 5882261,
        "entry_name": "Bronny James FC",
        "event_total": 69,
        "has_played": true,
        "id": 46206148,
        "last_rank": 21628,
        "player_name": "Jaime Ojeda",
        "rank": 14183,
        "rank_sort": 14208,
        "total": 2389
      },
      {
        "club_badge_src": null,
        "entry": 6647523,
        "entry_name": "Max Rebo Band",
        "event_total": 63,
        "has_played": true,
        "id": 53140871,
        "last_rank": 17327,
        "player_name": "Alex Francis",
        "rank": 14183,
        "rank_sort": 14209,
        "total": 2389
      },
      {
        "club_badge_src": null,
        "entry": 7156596,
        "entry_name": "ratfacemcdougall",
        "event_total": 56,
        "has_played": true,
        "id": 57719130,
        "last_rank": 13153,
        "player_name": "Liam OConnell",
        "rank": 14183,
        "rank_sort": 14210,
        "total": 2389
      },
      {
        "club_badge_src": null,
        "entry": 7838644,
        "entry_name": "HWJ",
        "event_total": 68,
        "has_played": true,
        "id": 64429498,
        "last_rank": 20853,
        "player_name": "Henrikka Wang Jacobsen",
        "rank": 14183,
        "rank_sort": 14211,
        "total": 2389
      },
      {
        "club_badge_src": null,
        "entry": 9198126,
        "entry_name": "Greg Bellotti",
        "event_total": 94,
        "has_played": true,
        "id": 77415566,
        "last_rank": 49572,
        "player_name": "Greg Bellotti",
        "rank": 14183,
        "rank_sort": 14212,
        "total": 2389
      },
      {
        "club_badge_src": null,
        "entry": 9416171,
        "entry_name": "Herbs  & Spices",
        "event_total": 60,
        "has_played": true,
        "id": 79529025,
        "last_rank": 15396,
        "player_name": "Aled Lewis",
        "rank": 14183,
        "rank_sort": 14213,
        "total": 2389
      },
      {
        "club_badge_src": null,
        "entry": 1072,
        "entry_name": "Artisterna",
        "event_total": 64,
        "has_played": true,
        "id": 5947,
        "last_rank": 18029,
        "player_name": "Joacim Lengroth",
        "rank": 14214,
        "rank_sort": 14214,
        "total": 2389
      },
      {
        "club_badge_src": "https://fantasy.premierleague.com/gcs/plfpl-production-adobe-approved/plfpl-production/11176/0bbb1bfc-6383-4cb0-8eb1-9831036c1b73.png",
        "entry": 11176,
        "entry_name": "Abuzaid",
        "event_total": 57,
        "has_played": true,
        "id": 66347,
        "last_rank": 13754,
        "player_name": "Ahmed Abuzaid",
        "rank": 14214,
        "rank_sort": 14215,
        "total": 2389
      },
      {
        "club_badge_src": null,
        "entry": 12304,
        "entry_name": "eddie team",
        "event_total": 73,
        "has_played": true,
        "id": 73490,
        "last_rank": 24832,
        "player_name": "Eddie-Joe Robinson",
        "rank": 14214,
        "rank_sort": 14216,
        "total": 2389
      },
      {
        "club_badge_src": null,
        "entry": 13977,
        "entry_name": "Brandon Club",
        "event_total": 57,
        "has_played": true,
        "id": 84671,
        "last_rank": 13754,
        "player_name": "Brandon Evans",
        "rank": 14214,
        "rank_sort": 14217,
        "total": 2389
      },
      {
        "club_badge_src": null,
        "entry": 20749,
        "entry_name": "Kane's Gambit",
        "event_total": 61,
        "has_played": true,
        "id": 129773,
        "last_rank": 16163,
        "player_name": "Florin Kerezsy",
        "rank": 14214,
        "rank_sort": 14218,
        "total": 2389
      },
      {
        "club_badge_src": null,
        "entry": 27146,
        "entry_name": "vindar",
        "event_total": 72,
        "has_played": true,
        "id": 171597,
        "last_rank": 24039,
        "player_name": "Vidar Myrer",
        "rank": 14214,
        "rank_sort": 14219,
        "total": 2389
      },
      {
        "club_badge_src": null,
        "entry": 46135,
        "entry_name": "BarcelOmagh",
        "event_total": 71,
        "has_played": true,
        "id": 295845,
        "last_rank": 23188,
        "player_name": "Ryan Carroll",
        "rank": 14214,
        "rank_sort": 14220,
        "total": 2389
      },
      {
        "club_badge_src": null,
        "entry": 49667,
        "entry_name": "Emery Christmas",
        "event_total": 70,
        "has_played": true,
        "id": 319282,
        "last_rank": 22426,
        "player_name": "Oliver Bright",
        "rank": 14214,
        "rank_sort": 14221,
        "total": 2389
      },
      {
        "club_badge_src": null,
        "entry": 53787,
        "entry_name": "Kinder Mbeumo",
        "event_total": 42,
        "has_played": true,
        "id": 346107,
        "last_rank": 7333,
        "player_name": "Ryan Shatwell",
        "rank": 14214,
        "rank_sort": 14222,
        "total": 2389
      },
      {
        "club_badge_src": null,
        "entry": 60840,
        "entry_name": "Lane Lions",
        "event_total": 68,
        "has_played": true,
        "id": 391732,
        "last_rank": 20853,
        "player_name": "Liam Herridge",
        "rank": 14214,
        "rank_sort": 14223,
        "total": 2389
      },
      {
        "club_badge_src": "https://fantasy.premierleague.com/gcs/plfpl-production-adobe-approved/plfpl-production/65144/ff38014d-e7c8-483f-ac56-8eafb54df32e.png",
        "entry": 65144,
        "entry_name": "Matthew James Rhead",
        "event_total": 42,
        "has_played": true,
        "id": 420476,
        "last_rank": 7375,
        "player_name": "Jack D",
        "rank": 14214,
        "rank_sort": 14224,
        "total": 2389
      },
      {
        "club_badge_src": null,
        "entry": 70914,
        "entry_name": "First the Wirtz",
        "event_total": 72,
        "has_played": true,
        "id": 460531,
        "last_rank": 24039,
        "player_name": "Liam Ritchie",
        "rank": 14214,
        "rank_sort": 14225,
        "total": 2389
      },
      {
        "club_badge_src": null,
        "entry": 73060,
        "entry_name": "Kaohsiung killers",
        "event_total": 64,
        "has_played": true,
        "id": 474875,
        "last_rank": 18113,
        "player_name": "mark bardner",
        "rank": 14214,
        "rank_sort": 14226,
        "total": 2389
      },
      {
        "club_badge_src": null,
        "entry": 87921,
        "entry_name": "Martin's",
        "event_total": 60,
        "has_played": true,
        "id": 573557,
        "last_rank": 15452,
        "player_name": "Martin Balogh",
        "rank": 14214,
        "rank_sort": 14227,
        "total": 2389
      },
      {
        "club_badge_src": null,
        "entry": 100171,
        "entry_name": "Lange innkast",
        "event_total": 70,
        "has_played": true,
        "id": 653748,
        "last_rank": 22534,
        "player_name": "Mats Aas Furulund",
        "rank": 14214,
        "rank_sort": 14228,
        "total": 2389
      },
      {
        "club_badge_src": null,
        "entry": 102632,
        "entry_name": "Yoro Wissa Harry",
        "event_total": 68,
        "has_played": true,
        "id": 669648,
        "last_rank": 20888,
        "player_name": "Matt Fitzsimons",
        "rank": 14214,
        "rank_sort": 14229,
        "total": 2389
      },
      {
        "club_badge_src": null,
        "entry": 115572,
        "entry_name": "R\u00faben Amorim",
        "event_total": 68,
        "has_played": true,
        "id": 754282,
        "last_rank": 20888,
        "player_name": "R\u00faben Amorim",
        "rank": 14214,
        "rank_sort": 14230,
        "total": 2389
      },
      {
        "club_badge_src": null,
        "entry": 144705,
        "entry_name": "Free Palestine",
        "event_total": 58,
        "has_played": true,
        "id": 947358,
        "last_rank": 12141,
        "player_name": "Francis Stuart",
        "rank": 14214,
        "rank_sort": 14231,
        "total": 2389
      },
      {
        "club_badge_src": null,
        "entry": 168360,
        "entry_name": "Hairy Maguire",
        "event_total": 66,
        "has_played": true,
        "id": 1112770,
        "last_rank": 19544,
        "player_name": "Darko Stankovic",
        "rank": 14214,
        "rank_sort": 14232,
        "total": 2389
      },
      {
        "club_badge_src": null,
        "entry": 176086,
        "entry_name": "Alisson Wonderland",
        "event_total": 71,
        "has_played": true,
        "id": 1162426,
        "last_rank": 23188,
        "player_name": "John Mallon",
        "rank": 14214,
        "rank_sort": 14233,
        "total": 2389
      },
      {
        "club_badge_src": "https://fantasy.premierleague.com/gcs/plfpl-production-adobe-approved/plfpl-production/181094/2dccddd8-9ff7-46cd-ac69-9bdf9696fac5.png",
        "entry": 181094,
        "entry_name": "FC Styles",
        "event_total": 67,
        "has_played": true,
        "id": 1195080,
        "last_rank": 17311,
        "player_name": "Bobby Styles",
        "rank": 14214,
        "rank_sort": 14234,
        "total": 2389
      },
      {
        "club_badge_src": null,
        "entry": 181451,
        "entry_name": "Red Barons",
        "event_total": 60,
        "has_played": true,
        "id": 1197416,
        "last_rank": 15550,
        "player_name": "Marco Blaga",
        "rank": 14214,
        "rank_sort": 14235,
        "total": 2389
      },
      {
        "club_badge_src": "https://fantasy.premierleague.com/gcs/plfpl-production-adobe-approved/plfpl-production/182232/54b2c797-f00b-4628-8faa-2d1e31ee4879.png",
        "entry": 182232,
        "entry_name": "Tiki Taka FC",
        "event_total": 69,
        "has_played": true,
        "id": 1202531,
        "last_rank": 21677,
        "player_name": "Benard Misheck",
        "rank": 14214,
        "rank_sort": 14236,
        "total": 2389
      },
      {
        "club_badge_src": null,
        "entry": 184175,
        "entry_name": "Bobs Back",
        "event_total": 49,
        "has_played": true,
        "id": 1216122,
        "last_rank": 9942,
        "player_name": "Danny Eldridge",
        "rank": 14214,
        "rank_sort": 14237,
        "total": 2389
      },
      {
        "club_badge_src": null,
        "entry": 190437,
        "entry_name": "RR FC",
        "event_total": 63,
        "has_played": true,
        "id": 1261079,
        "last_rank": 17585,
        "player_name": "sedi ropaj",
        "rank": 14214,
        "rank_sort": 14238,
        "total": 2389
      },
      {
        "club_badge_src": null,
        "entry": 211779,
        "entry_name": "REDFERN RUGDEALERS",
        "event_total": 64,
        "has_played": true,
        "id": 1408668,
        "last_rank": 18029,
        "player_name": "Lucas McGrath",
        "rank": 14214,
        "rank_sort": 14239,
        "total": 2389
      },
      {
        "club_badge_src": "https://fantasy.premierleague.com/gcs/plfpl-production-adobe-approved/plfpl-production/239908/9bcecc90-05a6-46f2-b599-0f8c94e218fa.png",
        "entry": 239908,
        "entry_name": "Nyossim_S2",
        "event_total": 50,
        "has_played": true,
        "id": 1596565,
        "last_rank": 10346,
        "player_name": "T Kanokogy",
        "rank": 14214,
        "rank_sort": 14240,
        "total": 2389
      },
      {
        "club_badge_src": null,
        "entry": 251843,
        "entry_name": "JTR",
        "event_total": 63,
        "has_played": true,
        "id": 1675314,
        "last_rank": 17437,
        "player_name": "Joe Thomas-Round",
        "rank": 14214,
        "rank_sort": 14241,
        "total": 2389
      },
      {
        "club_badge_src": "https://fantasy.premierleague.com/gcs/plfpl-production-adobe-approved/plfpl-production/288381/d1fad6ef-e249-481a-8510-26e39b25e8d3.png",
        "entry": 288381,
        "entry_name": "El HOSKA",
        "event_total": 57,
        "has_played": true,
        "id": 1922128,
        "last_rank": 13821,
        "player_name": "Med ridha Khraifi",
        "rank": 14214,
        "rank_sort": 14242,
        "total": 2389
      },
      {
        "club_badge_src": null,
        "entry": 303721,
        "entry_name": "Zirkzee & I know it",
        "event_total": 60,
        "has_played": true,
        "id": 2033189,
        "last_rank": 15396,
        "player_name": "Nikhil Ganguly",
        "rank": 14214,
        "rank_sort": 14243,
        "total": 2389
      },
      {
        "club_badge_src": null,
        "entry": 349882,
        "entry_name": "Tottn\u00e4sham spurs",
        "event_total": 45,
        "has_played": true,
        "id": 2341787,
        "last_rank": 8382,
        "player_name": "Folke Petr\u00e9",
        "rank": 14214,
        "rank_sort": 14244,
        "total": 2389
      },
      {
        "club_badge_src": null,
        "entry": 357875,
        "entry_name": "Machu67",
        "event_total": 61,
        "has_played": true,
        "id": 2394916,
        "last_rank": 16163,
        "player_name": "Matthew Lee Young",
        "rank": 14214,
        "rank_sort": 14245,
        "total": 2389
      },
      {
        "club_badge_src": null,
        "entry": 372271,
        "entry_name": "Sentai FC",
        "event_total": 69,
        "has_played": true,
        "id": 2490823,
        "last_rank": 21677,
        "player_name": "Bright 42512",
        "rank": 14214,
        "rank_sort": 14246,
        "total": 2389
      },
      {
        "club_badge_src": null,
        "entry": 375014,
        "entry_name": "pathetico madrd",
        "event_total": 59,
        "has_played": true,
        "id": 2510399,
        "last_rank": 14926,
        "player_name": "Jack Briggs",
        "rank": 14214,
        "rank_sort": 14247,
        "total": 2389
      },
      {
        "club_badge_src": null,
        "entry": 383606,
        "entry_name": "Blink-1 Eto'o",
        "event_total": 63,
        "has_played": true,
        "id": 2572655,
        "last_rank": 17437,
        "player_name": "Alastair Mckeown",
        "rank": 14214,
        "rank_sort": 14248,
        "total": 2389
      },
      {
        "club_badge_src": "https://fantasy.premierleague.com/gcs/plfpl-production-adobe-approved/plfpl-production/384305/92d621f7-acd1-45b8-8ac1-1dd0d3d855a2.png",
        "entry": 384305,
        "entry_name": "Super Saints",
        "event_total": 48,
        "has_played": true,
        "id": 2577467,
        "last_rank": 9644,
        "player_name": "Jamie Allen",
        "rank": 14214,
        "rank_sort": 14249,
        "total": 2389
      },
      {
        "club_badge_src": null,
        "entry": 431776,
        "entry_name": "PEP XI",
        "event_total": 53,
        "has_played": true,
        "id": 2895796,
        "last_rank": 11699,
        "player_name": "Humaidi Alsanad",
        "rank": 14214,
        "rank_sort": 14250,
        "total": 2389
      }
    ]
  }
}