{
  "last_updated_data": "2026-05-24T23:28:17Z",
  "league": {
    "admin_entry": null,
    "closed": false,
    "code_privacy": "p",
    "created": "2025-07-20T23:14:33.933835Z",
    "cup_league": 2815434,
    "has_cup": true,
    "id": 314,
    "league_type": "s",
    "max_entries": null,
    "name": "Overall",
    "rank": null,
    "scoring": "c",
    "start_event": 1
  },
  "new_entries": {
    "has_next": false,
    "page": 1,
    "results": []
  },
  "standings": {
    "has_next": true,
    "page": 520,
    "results": [
      {
        "club_badge_src": null,
        "entry": 807081,
        "entry_name": "Zamalkay Ana",
        "event_total": 65,
        "has_played": true,
        "id": 5525284,
        "last_rank": 29333,
        "player_name": "mohamed Awad",
        "rank": 25942,
        "rank_sort": 25951,
        "total": 2373
      },
      {
        "club_badge_src": null,
        "entry": 1010811,
        "entry_name": "Kapitan Planeta FC",
        "event_total": 60,
        "has_played": true,
        "id": 6991051,
        "last_rank": 24680,
        "player_name": "Grzesiek Szuleta",
        "rank": 25942,
        "rank_sort": 25952,
        "total": 2373
      },
      {
        "club_badge_src": null,
        "entry": 1434237,
        "entry_name": "Yoro Wissa Harry",
        "event_total": 58,
        "has_played": true,
        "id": 9993818,
        "last_rank": 23039,
        "player_name": "Jake Brown",
        "rank": 25942,
        "rank_sort": 25953,
        "total": 2373
      },
      {
        "club_badge_src": null,
        "entry": 1478907,
        "entry_name": "Double Champ",
        "event_total": 57,
        "has_played": true,
        "id": 10312003,
        "last_rank": 19237,
        "player_name": "Dean Evans",
        "rank": 25942,
        "rank_sort": 25954,
        "total": 2373
      },
      {
        "club_badge_src": null,
        "entry": 1664164,
        "entry_name": "Hodiri",
        "event_total": 64,
        "has_played": true,
        "id": 11651481,
        "last_rank": 32531,
        "player_name": "Karim Hodiri",
        "rank": 25942,
        "rank_sort": 25955,
        "total": 2373
      },
      {
        "club_badge_src": null,
        "entry": 1670071,
        "entry_name": "GAME ON!",
        "event_total": 65,
        "has_played": true,
        "id": 11692774,
        "last_rank": 29333,
        "player_name": "Phyllis Maher",
        "rank": 25942,
        "rank_sort": 25956,
        "total": 2373
      },
      {
        "club_badge_src": "https://fantasy.premierleague.com/gcs/plfpl-production-adobe-approved/plfpl-production/1817310/2c3461da-d006-4ac1-99f0-604c88aa127b.png",
        "entry": 1817310,
        "entry_name": "Exotic Executioners",
        "event_total": 75,
        "has_played": true,
        "id": 12779897,
        "last_rank": 46313,
        "player_name": "Bryan Mac Millan",
        "rank": 25942,
        "rank_sort": 25957,
        "total": 2373
      },
      {
        "club_badge_src": null,
        "entry": 2876895,
        "entry_name": "Gunnerz",
        "event_total": 55,
        "has_played": true,
        "id": 21058880,
        "last_rank": 20727,
        "player_name": "Marwan Dahab",
        "rank": 25942,
        "rank_sort": 25958,
        "total": 2373
      },
      {
        "club_badge_src": null,
        "entry": 3361403,
        "entry_name": "Of That Ilk",
        "event_total": 75,
        "has_played": true,
        "id": 24941490,
        "last_rank": 40647,
        "player_name": "Ilkan Mehmet",
        "rank": 25942,
        "rank_sort": 25959,
        "total": 2373
      },
      {
        "club_badge_src": null,
        "entry": 3681004,
        "entry_name": "Chumps",
        "event_total": 58,
        "has_played": true,
        "id": 27456071,
        "last_rank": 23039,
        "player_name": "Peter Taylor",
        "rank": 25942,
        "rank_sort": 25960,
        "total": 2373
      },
      {
        "club_badge_src": null,
        "entry": 3905124,
        "entry_name": "Rice Rice Baby",
        "event_total": 60,
        "has_played": true,
        "id": 29358033,
        "last_rank": 28425,
        "player_name": "Callum Gall",
        "rank": 25942,
        "rank_sort": 25961,
        "total": 2373
      },
      {
        "club_badge_src": null,
        "entry": 4127471,
        "entry_name": "Ha55aan_036",
        "event_total": 61,
        "has_played": true,
        "id": 31188623,
        "last_rank": 29369,
        "player_name": "hassaan yousaf",
        "rank": 25942,
        "rank_sort": 25962,
        "total": 2373
      },
      {
        "club_badge_src": null,
        "entry": 4357898,
        "entry_name": "Taking it Eze",
        "event_total": 55,
        "has_played": true,
        "id": 33096835,
        "last_rank": 23904,
        "player_name": "Andrei Vukicevic",
        "rank": 25942,
        "rank_sort": 25963,
        "total": 2373
      },
      {
        "club_badge_src": null,
        "entry": 4370164,
        "entry_name": "TebeFC",
        "event_total": 63,
        "has_played": true,
        "id": 33200374,
        "last_rank": 27402,
        "player_name": "Tebe Safarudin212",
        "rank": 25942,
        "rank_sort": 25964,
        "total": 2373
      },
      {
        "club_badge_src": null,
        "entry": 4710122,
        "entry_name": "Sometimes Maybe Good",
        "event_total": 59,
        "has_played": true,
        "id": 36133977,
        "last_rank": 23820,
        "player_name": "Liam Gosnel",
        "rank": 25942,
        "rank_sort": 25965,
        "total": 2373
      },
      {
        "club_badge_src": null,
        "entry": 4744189,
        "entry_name": "Van Disney",
        "event_total": 69,
        "has_played": true,
        "id": 36504116,
        "last_rank": 33582,
        "player_name": "Muhammed Rabeeh C P",
        "rank": 25942,
        "rank_sort": 25966,
        "total": 2373
      },
      {
        "club_badge_src": null,
        "entry": 5227672,
        "entry_name": "Tsinat",
        "event_total": 73,
        "has_played": true,
        "id": 40507913,
        "last_rank": 38340,
        "player_name": "Tsinat Welde",
        "rank": 25942,
        "rank_sort": 25967,
        "total": 2373
      },
      {
        "club_badge_src": null,
        "entry": 5600221,
        "entry_name": "Now I'm a Baleba",
        "event_total": 67,
        "has_played": true,
        "id": 43758356,
        "last_rank": 35969,
        "player_name": "Ryan Fish",
        "rank": 25942,
        "rank_sort": 25968,
        "total": 2373
      },
      {
        "club_badge_src": null,
        "entry": 6080113,
        "entry_name": "Moyes Towelettes",
        "event_total": 31,
        "has_played": true,
        "id": 48003210,
        "last_rank": 9412,
        "player_name": "fred kumlin",
        "rank": 25942,
        "rank_sort": 25969,
        "total": 2373
      },
      {
        "club_badge_src": null,
        "entry": 6197293,
        "entry_name": "\u0160e\u0161ko Clubcard",
        "event_total": 49,
        "has_played": true,
        "id": 49021923,
        "last_rank": 19279,
        "player_name": "Susan Powell",
        "rank": 25942,
        "rank_sort": 25970,
        "total": 2373
      },
      {
        "club_badge_src": null,
        "entry": 6229882,
        "entry_name": "Saul GoodMan",
        "event_total": 49,
        "has_played": true,
        "id": 49302312,
        "last_rank": 19318,
        "player_name": "Mohamed Adel",
        "rank": 25942,
        "rank_sort": 25971,
        "total": 2373
      },
      {
        "club_badge_src": null,
        "entry": 6605757,
        "entry_name": "Borussia Teeth",
        "event_total": 63,
        "has_played": true,
        "id": 52771576,
        "last_rank": 31404,
        "player_name": "Assad Shakoor",
        "rank": 25942,
        "rank_sort": 25972,
        "total": 2373
      },
      {
        "club_badge_src": null,
        "entry": 9339328,
        "entry_name": "Set Piece FC",
        "event_total": 33,
        "has_played": true,
        "id": 78785273,
        "last_rank": 10209,
        "player_name": "Daniel Rosen",
        "rank": 25942,
        "rank_sort": 25973,
        "total": 2373
      },
      {
        "club_badge_src": null,
        "entry": 250899,
        "entry_name": "No Pants No Party",
        "event_total": 70,
        "has_played": true,
        "id": 1669258,
        "last_rank": 26425,
        "player_name": "Stephen O'Dowd",
        "rank": 25974,
        "rank_sort": 25974,
        "total": 2373
      },
      {
        "club_badge_src": "https://fantasy.premierleague.com/gcs/plfpl-production-adobe-approved/plfpl-production/289122/65c9a7dd-cce3-4ab2-9ca0-caee919a96a3.png",
        "entry": 289122,
        "entry_name": "AFC Nivains",
        "event_total": 58,
        "has_played": true,
        "id": 1927213,
        "last_rank": 26541,
        "player_name": "Nevin Sommer",
        "rank": 25974,
        "rank_sort": 25975,
        "total": 2373
      },
      {
        "club_badge_src": null,
        "entry": 422049,
        "entry_name": "FC Barsenalona",
        "event_total": 51,
        "has_played": true,
        "id": 2828414,
        "last_rank": 17894,
        "player_name": "Rutger Boonstra",
        "rank": 25974,
        "rank_sort": 25976,
        "total": 2373
      },
      {
        "club_badge_src": "https://fantasy.premierleague.com/gcs/plfpl-production-adobe-approved/plfpl-production/491106/946ee208-2d7d-41f9-bb50-b9be67975bf1.png",
        "entry": 491106,
        "entry_name": "Samchester City",
        "event_total": 55,
        "has_played": true,
        "id": 3296545,
        "last_rank": 23904,
        "player_name": "Sam Pearson",
        "rank": 25974,
        "rank_sort": 25977,
        "total": 2373
      },
      {
        "club_badge_src": "https://fantasy.premierleague.com/gcs/plfpl-production-adobe-approved/plfpl-production/524886/eb3350c1-b2cc-40a7-b59a-38dc19d07e7a.png",
        "entry": 524886,
        "entry_name": "The Chairman",
        "event_total": 35,
        "has_played": true,
        "id": 3527098,
        "last_rank": 9412,
        "player_name": "Mick Smith",
        "rank": 25974,
        "rank_sort": 25978,
        "total": 2373
      },
      {
        "club_badge_src": null,
        "entry": 648323,
        "entry_name": "x11",
        "event_total": 65,
        "has_played": true,
        "id": 4381560,
        "last_rank": 33729,
        "player_name": "David Schofield",
        "rank": 25974,
        "rank_sort": 25979,
        "total": 2373
      },
      {
        "club_badge_src": null,
        "entry": 1147573,
        "entry_name": "****",
        "event_total": 55,
        "has_played": true,
        "id": 7956656,
        "last_rank": 20747,
        "player_name": "Jordanna Smith",
        "rank": 25974,
        "rank_sort": 25980,
        "total": 2373
      },
      {
        "club_badge_src": null,
        "entry": 1181613,
        "entry_name": "wmelad fc",
        "event_total": 77,
        "has_played": true,
        "id": 8198349,
        "last_rank": 43444,
        "player_name": "Wael Milad",
        "rank": 25974,
        "rank_sort": 25981,
        "total": 2373
      },
      {
        "club_badge_src": null,
        "entry": 1805937,
        "entry_name": "LUCKBOX FC",
        "event_total": 69,
        "has_played": true,
        "id": 12696116,
        "last_rank": 33695,
        "player_name": "Melvin Chang",
        "rank": 25974,
        "rank_sort": 25982,
        "total": 2373
      },
      {
        "club_badge_src": null,
        "entry": 2524394,
        "entry_name": "The wirtz team Here",
        "event_total": 35,
        "has_played": true,
        "id": 18088495,
        "last_rank": 9412,
        "player_name": "Ian Owen",
        "rank": 25974,
        "rank_sort": 25983,
        "total": 2373
      },
      {
        "club_badge_src": null,
        "entry": 3170605,
        "entry_name": "FELFEL",
        "event_total": 49,
        "has_played": true,
        "id": 23425550,
        "last_rank": 19318,
        "player_name": "Felo Armia",
        "rank": 25974,
        "rank_sort": 25984,
        "total": 2373
      },
      {
        "club_badge_src": null,
        "entry": 3230681,
        "entry_name": "Fr7's Team",
        "event_total": 69,
        "has_played": true,
        "id": 23893514,
        "last_rank": 38425,
        "player_name": "Ahmed Farah",
        "rank": 25974,
        "rank_sort": 25985,
        "total": 2373
      },
      {
        "club_badge_src": null,
        "entry": 4394728,
        "entry_name": "Wayne Chooney",
        "event_total": 70,
        "has_played": true,
        "id": 33415200,
        "last_rank": 39673,
        "player_name": "Luke Morris",
        "rank": 25974,
        "rank_sort": 25986,
        "total": 2373
      },
      {
        "club_badge_src": null,
        "entry": 4498690,
        "entry_name": "Ctrl+Alt+De Ligt",
        "event_total": 67,
        "has_played": true,
        "id": 34295459,
        "last_rank": 35998,
        "player_name": "ivan wahyudi",
        "rank": 25974,
        "rank_sort": 25987,
        "total": 2373
      },
      {
        "club_badge_src": "https://fantasy.premierleague.com/gcs/plfpl-production-adobe-approved/plfpl-production/4579115/67f6c5fc-0588-4137-a3bd-1c3ee234cf23.png",
        "entry": 4579115,
        "entry_name": "Uptown Frank",
        "event_total": 64,
        "has_played": true,
        "id": 34955187,
        "last_rank": 28425,
        "player_name": "Sam Davison Jenkins",
        "rank": 25974,
        "rank_sort": 25988,
        "total": 2373
      },
      {
        "club_badge_src": "https://fantasy.premierleague.com/gcs/plfpl-production-adobe-approved/plfpl-production/4580294/75ebf574-0fb3-4cca-8b8a-961ad95ed968.png",
        "entry": 4580294,
        "entry_name": "Burger_Patties",
        "event_total": 40,
        "has_played": true,
        "id": 34965172,
        "last_rank": 13662,
        "player_name": "Patrick McCarthy",
        "rank": 25974,
        "rank_sort": 25989,
        "total": 2373
      },
      {
        "club_badge_src": null,
        "entry": 5613791,
        "entry_name": "Jan Mayen FK",
        "event_total": 70,
        "has_played": true,
        "id": 43876705,
        "last_rank": 39673,
        "player_name": "Marius Selbekk",
        "rank": 25974,
        "rank_sort": 25990,
        "total": 2373
      },
      {
        "club_badge_src": "https://fantasy.premierleague.com/gcs/plfpl-production-adobe-approved/plfpl-production/5705422/db04c609-9e0e-460a-bebe-45bee08c172b.png",
        "entry": 5705422,
        "entry_name": "Why Did I Do This Ag",
        "event_total": 53,
        "has_played": true,
        "id": 44674031,
        "last_rank": 22309,
        "player_name": "Vinay Puri",
        "rank": 25974,
        "rank_sort": 25991,
        "total": 2373
      },
      {
        "club_badge_src": null,
        "entry": 6627186,
        "entry_name": "Let me be Frank",
        "event_total": 49,
        "has_played": true,
        "id": 52962306,
        "last_rank": 19332,
        "player_name": "Peter hutton",
        "rank": 25974,
        "rank_sort": 25992,
        "total": 2373
      },
      {
        "club_badge_src": null,
        "entry": 6935669,
        "entry_name": "#18",
        "event_total": 79,
        "has_played": true,
        "id": 55603377,
        "last_rank": 46364,
        "player_name": "Thinesh Manokaran",
        "rank": 25974,
        "rank_sort": 25993,
        "total": 2373
      },
      {
        "club_badge_src": null,
        "entry": 8078166,
        "entry_name": "Bring Back Baker",
        "event_total": 63,
        "has_played": true,
        "id": 66597593,
        "last_rank": 27438,
        "player_name": "Jamie Stoj",
        "rank": 25974,
        "rank_sort": 25994,
        "total": 2373
      },
      {
        "club_badge_src": null,
        "entry": 8222315,
        "entry_name": "Bacon San\u00e9",
        "event_total": 43,
        "has_played": true,
        "id": 67952364,
        "last_rank": 15356,
        "player_name": "Brandon Jackson",
        "rank": 25974,
        "rank_sort": 25995,
        "total": 2373
      },
      {
        "club_badge_src": null,
        "entry": 9281781,
        "entry_name": "Massimou\u2019s club",
        "event_total": 55,
        "has_played": true,
        "id": 78233419,
        "last_rank": 23904,
        "player_name": "logsier Logsier",
        "rank": 25974,
        "rank_sort": 25996,
        "total": 2373
      },
      {
        "club_badge_src": null,
        "entry": 121509,
        "entry_name": "Citizen Kane",
        "event_total": 69,
        "has_played": true,
        "id": 792805,
        "last_rank": 33729,
        "player_name": "Rofiqul Islam Masum",
        "rank": 25997,
        "rank_sort": 25997,
        "total": 2373
      },
      {
        "club_badge_src": null,
        "entry": 197450,
        "entry_name": "Tids FC",
        "event_total": 56,
        "has_played": true,
        "id": 1310103,
        "last_rank": 24757,
        "player_name": "Jordan Riddle",
        "rank": 25997,
        "rank_sort": 25998,
        "total": 2373
      },
      {
        "club_badge_src": null,
        "entry": 311385,
        "entry_name": "M10ssi",
        "event_total": 66,
        "has_played": true,
        "id": 2086128,
        "last_rank": 34796,
        "player_name": "Salman Almutairi",
        "rank": 25997,
        "rank_sort": 25999,
        "total": 2373
      },
      {
        "club_badge_src": null,
        "entry": 467158,
        "entry_name": "Power Reijnders",
        "event_total": 50,
        "has_played": true,
        "id": 3134742,
        "last_rank": 20065,
        "player_name": "Rithwik Rao",
        "rank": 25997,
        "rank_sort": 26000,
        "total": 2373
      }
    ]
  }
}