{
  "last_updated_data": "2026-05-24T23:28:17Z",
  "league": {
    "admin_entry": null,
    "closed": false,
    "code_privacy": "p",
    "created": "2025-07-20T23:14:33.933835Z",
    "cup_league": 2815434,
    "has_cup": true,
    "id": 314,
    "league_type": "s",
    "max_entries": null,
    "name": "Overall",
    "rank": null,
    "scoring": "c",
    "start_event": 1
  },
  "new_entries": {
    "has_next": false,
    "page": 1,
    "results": []
  },
  "standings": {
    "has_next": true,
    "page": 1006,
    "results": [
      {
        "club_badge_src": null,
        "entry": 179829,
        "entry_name": "Rutter Woke Nonsense",
        "event_total": 72,
        "has_played": true,
        "id": 1186656,
        "last_rank": 69323,
        "player_name": "Jackson Li",
        "rank": 50229,
        "rank_sort": 50251,
        "total": 2352
      },
      {
        "club_badge_src": null,
        "entry": 194695,
        "entry_name": "BlueRay FC",
        "event_total": 76,
        "has_played": true,
        "id": 1290886,
        "last_rank": 87074,
        "player_name": "Weerapong Wongkittikul",
        "rank": 50229,
        "rank_sort": 50252,
        "total": 2352
      },
      {
        "club_badge_src": null,
        "entry": 222551,
        "entry_name": "Joeldinho FC",
        "event_total": 60,
        "has_played": true,
        "id": 1480360,
        "last_rank": 55514,
        "player_name": "Joey Carbone",
        "rank": 50229,
        "rank_sort": 50253,
        "total": 2352
      },
      {
        "club_badge_src": null,
        "entry": 249013,
        "entry_name": "APTX4869",
        "event_total": 53,
        "has_played": true,
        "id": 1657194,
        "last_rank": 39246,
        "player_name": "Ayoub Sassi",
        "rank": 50229,
        "rank_sort": 50254,
        "total": 2352
      },
      {
        "club_badge_src": "https://fantasy.premierleague.com/gcs/plfpl-production-adobe-approved/plfpl-production/265108/97c116b3-4a9a-41a1-81ed-0290e645b037.png",
        "entry": 265108,
        "entry_name": "SpringPoke",
        "event_total": 59,
        "has_played": true,
        "id": 1763199,
        "last_rank": 53837,
        "player_name": "Khin Su Mon",
        "rank": 50229,
        "rank_sort": 50255,
        "total": 2352
      },
      {
        "club_badge_src": null,
        "entry": 274905,
        "entry_name": "Arsenal",
        "event_total": 64,
        "has_played": true,
        "id": 1829321,
        "last_rank": 62429,
        "player_name": "Number One",
        "rank": 50229,
        "rank_sort": 50256,
        "total": 2352
      },
      {
        "club_badge_src": null,
        "entry": 278715,
        "entry_name": "Madagascar FC",
        "event_total": 59,
        "has_played": true,
        "id": 1855009,
        "last_rank": 53621,
        "player_name": "Mohd Shyukor",
        "rank": 50229,
        "rank_sort": 50257,
        "total": 2352
      },
      {
        "club_badge_src": null,
        "entry": 283014,
        "entry_name": "NAD POPRZECZK\u0104",
        "event_total": 70,
        "has_played": true,
        "id": 1884003,
        "last_rank": 65163,
        "player_name": "Krzysiek K",
        "rank": 50229,
        "rank_sort": 50258,
        "total": 2352
      },
      {
        "club_badge_src": null,
        "entry": 291767,
        "entry_name": "Paq Street Boys",
        "event_total": 77,
        "has_played": true,
        "id": 1946336,
        "last_rank": 79817,
        "player_name": "Louisa Bebb",
        "rank": 50229,
        "rank_sort": 50259,
        "total": 2352
      },
      {
        "club_badge_src": null,
        "entry": 306985,
        "entry_name": "KresVit",
        "event_total": 58,
        "has_played": true,
        "id": 2055927,
        "last_rank": 52205,
        "player_name": "Vitali Kresik",
        "rank": 50229,
        "rank_sort": 50260,
        "total": 2352
      },
      {
        "club_badge_src": "https://fantasy.premierleague.com/gcs/plfpl-production-adobe-approved/plfpl-production/318146/ca63fa6a-1e7b-486a-9f6e-7f4500d2c1d8.png",
        "entry": 318146,
        "entry_name": "Invincible XI",
        "event_total": 45,
        "has_played": true,
        "id": 2132561,
        "last_rank": 34682,
        "player_name": "Mubarak Apena",
        "rank": 50229,
        "rank_sort": 50261,
        "total": 2352
      },
      {
        "club_badge_src": null,
        "entry": 334403,
        "entry_name": "Charli xGx",
        "event_total": 54,
        "has_played": true,
        "id": 2239302,
        "last_rank": 40503,
        "player_name": "Mats T\u00f8njum",
        "rank": 50229,
        "rank_sort": 50262,
        "total": 2352
      },
      {
        "club_badge_src": null,
        "entry": 370188,
        "entry_name": "oooh Kevin de bruyne",
        "event_total": 55,
        "has_played": true,
        "id": 2477139,
        "last_rank": 47722,
        "player_name": "omar ibrahim",
        "rank": 50229,
        "rank_sort": 50263,
        "total": 2352
      },
      {
        "club_badge_src": "https://fantasy.premierleague.com/gcs/plfpl-production-adobe-approved/plfpl-production/383950/bb60a17e-f01f-4b65-bb0a-5d3fda0b031c.png",
        "entry": 383950,
        "entry_name": "JumpersForGoalposts",
        "event_total": 60,
        "has_played": true,
        "id": 2575027,
        "last_rank": 55311,
        "player_name": "Chris Smith",
        "rank": 50229,
        "rank_sort": 50264,
        "total": 2352
      },
      {
        "club_badge_src": null,
        "entry": 410891,
        "entry_name": "Forza Milan",
        "event_total": 57,
        "has_played": true,
        "id": 2755016,
        "last_rank": 44525,
        "player_name": "Hussein Moshref",
        "rank": 50229,
        "rank_sort": 50265,
        "total": 2352
      },
      {
        "club_badge_src": null,
        "entry": 446536,
        "entry_name": "Glockeres",
        "event_total": 65,
        "has_played": true,
        "id": 2995066,
        "last_rank": 64005,
        "player_name": "Abdurahman Haji",
        "rank": 50229,
        "rank_sort": 50266,
        "total": 2352
      },
      {
        "club_badge_src": null,
        "entry": 482845,
        "entry_name": "Barito putera fc",
        "event_total": 57,
        "has_played": true,
        "id": 3241318,
        "last_rank": 50635,
        "player_name": "Muhammad Rahmat",
        "rank": 50229,
        "rank_sort": 50267,
        "total": 2352
      },
      {
        "club_badge_src": null,
        "entry": 532870,
        "entry_name": "Make Lammenade",
        "event_total": 57,
        "has_played": true,
        "id": 3584980,
        "last_rank": 50635,
        "player_name": "Yaseen Al-Hilali",
        "rank": 50229,
        "rank_sort": 50268,
        "total": 2352
      },
      {
        "club_badge_src": null,
        "entry": 535171,
        "entry_name": "P. VIGGY FC",
        "event_total": 73,
        "has_played": true,
        "id": 3601961,
        "last_rank": 71713,
        "player_name": "Pritpal Vig",
        "rank": 50229,
        "rank_sort": 50269,
        "total": 2352
      },
      {
        "club_badge_src": null,
        "entry": 540616,
        "entry_name": "RexRodney",
        "event_total": 58,
        "has_played": true,
        "id": 3638735,
        "last_rank": 52205,
        "player_name": "Morten \u00d8vreb\u00f8",
        "rank": 50229,
        "rank_sort": 50270,
        "total": 2352
      },
      {
        "club_badge_src": "https://fantasy.premierleague.com/gcs/plfpl-production-adobe-approved/plfpl-production/568736/3b197d73-9914-402d-af47-bb3687e1dc15.png",
        "entry": 568736,
        "entry_name": "Zeus FC",
        "event_total": 66,
        "has_played": true,
        "id": 3827928,
        "last_rank": 58688,
        "player_name": "Kay Ademuz",
        "rank": 50229,
        "rank_sort": 50271,
        "total": 2352
      },
      {
        "club_badge_src": "https://fantasy.premierleague.com/gcs/plfpl-production-adobe-approved/plfpl-production/573798/80a66d71-e3a0-4027-9d0a-6545716ceed6.png",
        "entry": 573798,
        "entry_name": "Somehow Survived 17",
        "event_total": 41,
        "has_played": true,
        "id": 3861552,
        "last_rank": 26230,
        "player_name": "Mike Domnik",
        "rank": 50229,
        "rank_sort": 50272,
        "total": 2352
      },
      {
        "club_badge_src": null,
        "entry": 590474,
        "entry_name": "Big Divock  FC",
        "event_total": 68,
        "has_played": true,
        "id": 3977674,
        "last_rank": 61950,
        "player_name": "Liam Fraher",
        "rank": 50229,
        "rank_sort": 50273,
        "total": 2352
      },
      {
        "club_badge_src": null,
        "entry": 612864,
        "entry_name": "Sneckythistle",
        "event_total": 59,
        "has_played": true,
        "id": 4141096,
        "last_rank": 53621,
        "player_name": "Al Grant",
        "rank": 50229,
        "rank_sort": 50274,
        "total": 2352
      },
      {
        "club_badge_src": null,
        "entry": 637682,
        "entry_name": "Dynamo Rays",
        "event_total": 70,
        "has_played": true,
        "id": 4309816,
        "last_rank": 51403,
        "player_name": "Ray Points",
        "rank": 50229,
        "rank_sort": 50275,
        "total": 2352
      },
      {
        "club_badge_src": null,
        "entry": 644815,
        "entry_name": "tanatino",
        "event_total": 45,
        "has_played": true,
        "id": 4357597,
        "last_rank": 30060,
        "player_name": "Tena Emad",
        "rank": 50229,
        "rank_sort": 50276,
        "total": 2352
      },
      {
        "club_badge_src": null,
        "entry": 647965,
        "entry_name": "Birkastan Lions",
        "event_total": 49,
        "has_played": true,
        "id": 4379133,
        "last_rank": 39403,
        "player_name": "Patrik Raune",
        "rank": 50229,
        "rank_sort": 50277,
        "total": 2352
      },
      {
        "club_badge_src": null,
        "entry": 656952,
        "entry_name": "Red.light",
        "event_total": 52,
        "has_played": true,
        "id": 4439676,
        "last_rank": 43444,
        "player_name": "red light",
        "rank": 50229,
        "rank_sort": 50278,
        "total": 2352
      },
      {
        "club_badge_src": null,
        "entry": 677966,
        "entry_name": "YNWA",
        "event_total": 68,
        "has_played": true,
        "id": 4587175,
        "last_rank": 69323,
        "player_name": "Andrew Almeida",
        "rank": 50229,
        "rank_sort": 50279,
        "total": 2352
      },
      {
        "club_badge_src": null,
        "entry": 729738,
        "entry_name": "Trumps",
        "event_total": 59,
        "has_played": true,
        "id": 4958340,
        "last_rank": 47417,
        "player_name": "Kurt Goodwin",
        "rank": 50229,
        "rank_sort": 50280,
        "total": 2352
      },
      {
        "club_badge_src": "https://fantasy.premierleague.com/gcs/plfpl-production-adobe-approved/plfpl-production/731506/51270274-3406-488e-a997-59013981b437.png",
        "entry": 731506,
        "entry_name": "ObiWanBissaka",
        "event_total": 78,
        "has_played": true,
        "id": 4970741,
        "last_rank": 82398,
        "player_name": "Hugo Mattisson",
        "rank": 50229,
        "rank_sort": 50281,
        "total": 2352
      },
      {
        "club_badge_src": null,
        "entry": 784384,
        "entry_name": "James FC",
        "event_total": 55,
        "has_played": true,
        "id": 5358088,
        "last_rank": 41617,
        "player_name": "James Ilott",
        "rank": 50229,
        "rank_sort": 50282,
        "total": 2352
      },
      {
        "club_badge_src": null,
        "entry": 799129,
        "entry_name": "Hatters1up",
        "event_total": 65,
        "has_played": true,
        "id": 5469772,
        "last_rank": 64190,
        "player_name": "Steve Cutler",
        "rank": 50229,
        "rank_sort": 50283,
        "total": 2352
      },
      {
        "club_badge_src": "https://fantasy.premierleague.com/gcs/plfpl-production-adobe-approved/plfpl-production/814031/9fed1dd2-4dee-4e20-8c81-a547b81cd542.png",
        "entry": 814031,
        "entry_name": "Palhinha Colada",
        "event_total": 55,
        "has_played": true,
        "id": 5574235,
        "last_rank": 41824,
        "player_name": "Lukas Makris",
        "rank": 50229,
        "rank_sort": 50284,
        "total": 2352
      },
      {
        "club_badge_src": null,
        "entry": 850212,
        "entry_name": "Wirtz Case Scenario",
        "event_total": 82,
        "has_played": true,
        "id": 5827580,
        "last_rank": 101818,
        "player_name": "Krish Krishnabala",
        "rank": 50229,
        "rank_sort": 50285,
        "total": 2352
      },
      {
        "club_badge_src": null,
        "entry": 887630,
        "entry_name": "Haukkarin Hurjat",
        "event_total": 57,
        "has_played": true,
        "id": 6088040,
        "last_rank": 39023,
        "player_name": "Pekka Ruususaari",
        "rank": 50229,
        "rank_sort": 50286,
        "total": 2352
      },
      {
        "club_badge_src": null,
        "entry": 900483,
        "entry_name": "CapriSon",
        "event_total": 61,
        "has_played": true,
        "id": 6187241,
        "last_rank": 57001,
        "player_name": "jens christian Eriksen",
        "rank": 50229,
        "rank_sort": 50287,
        "total": 2352
      },
      {
        "club_badge_src": null,
        "entry": 905271,
        "entry_name": "Squashies FC",
        "event_total": 55,
        "has_played": true,
        "id": 6221728,
        "last_rank": 47596,
        "player_name": "Alex Stead",
        "rank": 50229,
        "rank_sort": 50288,
        "total": 2352
      },
      {
        "club_badge_src": null,
        "entry": 943663,
        "entry_name": "numbers don't lie",
        "event_total": 68,
        "has_played": true,
        "id": 6499450,
        "last_rank": 69641,
        "player_name": "Priyabrata Ratha",
        "rank": 50229,
        "rank_sort": 50289,
        "total": 2352
      },
      {
        "club_badge_src": "https://fantasy.premierleague.com/gcs/plfpl-production-adobe-approved/plfpl-production/961889/0b8ca5d6-2957-4c18-bf08-ba17c0f334b6.png",
        "entry": 961889,
        "entry_name": "hala madrid",
        "event_total": 71,
        "has_played": true,
        "id": 6628629,
        "last_rank": 76330,
        "player_name": "SABITH XABI",
        "rank": 50229,
        "rank_sort": 50290,
        "total": 2352
      },
      {
        "club_badge_src": null,
        "entry": 1021995,
        "entry_name": "NORDANS MANNAR",
        "event_total": 58,
        "has_played": true,
        "id": 7070774,
        "last_rank": 52205,
        "player_name": "Linus Nordstedt",
        "rank": 50229,
        "rank_sort": 50291,
        "total": 2352
      },
      {
        "club_badge_src": "https://fantasy.premierleague.com/gcs/plfpl-production-adobe-approved/plfpl-production/1084224/f879eb2f-99da-42e3-8f30-a211e719eb3c.png",
        "entry": 1084224,
        "entry_name": "Beto on Barry",
        "event_total": 67,
        "has_played": true,
        "id": 7507536,
        "last_rank": 67695,
        "player_name": "matty follis",
        "rank": 50229,
        "rank_sort": 50292,
        "total": 2352
      },
      {
        "club_badge_src": null,
        "entry": 1092818,
        "entry_name": "Gothenburg Goons",
        "event_total": 71,
        "has_played": true,
        "id": 7568728,
        "last_rank": 75874,
        "player_name": "Robbie Urquhart",
        "rank": 50229,
        "rank_sort": 50293,
        "total": 2352
      },
      {
        "club_badge_src": null,
        "entry": 1125555,
        "entry_name": "Dakkakk",
        "event_total": 60,
        "has_played": true,
        "id": 7800471,
        "last_rank": 48642,
        "player_name": "abdullah aldakak",
        "rank": 50229,
        "rank_sort": 50294,
        "total": 2352
      },
      {
        "club_badge_src": null,
        "entry": 1383742,
        "entry_name": "Ayew Kidding Mee?",
        "event_total": 58,
        "has_played": true,
        "id": 9624118,
        "last_rank": 51984,
        "player_name": "Marton Varga",
        "rank": 50229,
        "rank_sort": 50295,
        "total": 2352
      },
      {
        "club_badge_src": null,
        "entry": 1422613,
        "entry_name": "Bobberteers",
        "event_total": 42,
        "has_played": true,
        "id": 9906432,
        "last_rank": 31236,
        "player_name": "Robin Hoogeveen",
        "rank": 50229,
        "rank_sort": 50296,
        "total": 2352
      },
      {
        "club_badge_src": null,
        "entry": 1433293,
        "entry_name": "Ferrari S.p.A. 1939",
        "event_total": 66,
        "has_played": true,
        "id": 9987265,
        "last_rank": 58688,
        "player_name": "Abdulrahman Al Swayeh",
        "rank": 50229,
        "rank_sort": 50297,
        "total": 2352
      },
      {
        "club_badge_src": "https://fantasy.premierleague.com/gcs/plfpl-production-adobe-approved/plfpl-production/1478423/39118a65-3b07-45f3-b74b-2036a31a3fcc.png",
        "entry": 1478423,
        "entry_name": "\ufffdDarawesh\ufffd",
        "event_total": 81,
        "has_played": true,
        "id": 10308605,
        "last_rank": 99806,
        "player_name": "Moutaz Imam",
        "rank": 50229,
        "rank_sort": 50298,
        "total": 2352
      },
      {
        "club_badge_src": null,
        "entry": 1563693,
        "entry_name": "AC Ildiavolo",
        "event_total": 52,
        "has_played": true,
        "id": 10922686,
        "last_rank": 43342,
        "player_name": "ELIAS VILLASMIL",
        "rank": 50229,
        "rank_sort": 50299,
        "total": 2352
      },
      {
        "club_badge_src": null,
        "entry": 1574615,
        "entry_name": "OFGA FC",
        "event_total": 43,
        "has_played": true,
        "id": 11002860,
        "last_rank": 28150,
        "player_name": "omar fathi",
        "rank": 50229,
        "rank_sort": 50300,
        "total": 2352
      }
    ]
  }
}