{
  "last_updated_data": "2026-05-24T23:28:17Z",
  "league": {
    "admin_entry": null,
    "closed": false,
    "code_privacy": "p",
    "created": "2025-07-20T23:14:33.933835Z",
    "cup_league": 2815434,
    "has_cup": true,
    "id": 314,
    "league_type": "s",
    "max_entries": null,
    "name": "Overall",
    "rank": null,
    "scoring": "c",
    "start_event": 1
  },
  "new_entries": {
    "has_next": false,
    "page": 1,
    "results": []
  },
  "standings": {
    "has_next": true,
    "page": 751,
    "results": [
      {
        "club_badge_src": null,
        "entry": 568873,
        "entry_name": "Racing Santander",
        "event_total": 56,
        "has_played": true,
        "id": 3828856,
        "last_rank": 36200,
        "player_name": "Paul MacWard",
        "rank": 37444,
        "rank_sort": 37501,
        "total": 2361
      },
      {
        "club_badge_src": null,
        "entry": 571924,
        "entry_name": "FCSB",
        "event_total": 67,
        "has_played": true,
        "id": 3849038,
        "last_rank": 51403,
        "player_name": "Voion Alexandru",
        "rank": 37444,
        "rank_sort": 37502,
        "total": 2361
      },
      {
        "club_badge_src": "https://fantasy.premierleague.com/gcs/plfpl-production-adobe-approved/plfpl-production/573914/17b96575-eddc-4e37-b260-a7ad4943be9d.png",
        "entry": 573914,
        "entry_name": "Lindisfarne FC",
        "event_total": 54,
        "has_played": true,
        "id": 3862280,
        "last_rank": 34051,
        "player_name": "Erlend Arnekleiv",
        "rank": 37444,
        "rank_sort": 37503,
        "total": 2361
      },
      {
        "club_badge_src": null,
        "entry": 611462,
        "entry_name": "Glasgow is green",
        "event_total": 77,
        "has_played": true,
        "id": 4131539,
        "last_rank": 69323,
        "player_name": "Kit M",
        "rank": 37444,
        "rank_sort": 37504,
        "total": 2361
      },
      {
        "club_badge_src": null,
        "entry": 620003,
        "entry_name": "Maybank Tangerines",
        "event_total": 50,
        "has_played": true,
        "id": 4189930,
        "last_rank": 29688,
        "player_name": "Steven Seear",
        "rank": 37444,
        "rank_sort": 37505,
        "total": 2361
      },
      {
        "club_badge_src": null,
        "entry": 634061,
        "entry_name": "The Peaky Hammers",
        "event_total": 69,
        "has_played": true,
        "id": 4285098,
        "last_rank": 54494,
        "player_name": "Santiago Dassen",
        "rank": 37444,
        "rank_sort": 37506,
        "total": 2361
      },
      {
        "club_badge_src": null,
        "entry": 649304,
        "entry_name": "Palmer Sutra",
        "event_total": 66,
        "has_played": true,
        "id": 4388151,
        "last_rank": 49880,
        "player_name": "Andreas Levendi",
        "rank": 37444,
        "rank_sort": 37507,
        "total": 2361
      },
      {
        "club_badge_src": null,
        "entry": 664996,
        "entry_name": "Forza 01",
        "event_total": 49,
        "has_played": true,
        "id": 4495864,
        "last_rank": 28726,
        "player_name": "Robert Edge",
        "rank": 37444,
        "rank_sort": 37508,
        "total": 2361
      },
      {
        "club_badge_src": null,
        "entry": 742431,
        "entry_name": "Alateam",
        "event_total": 63,
        "has_played": true,
        "id": 5049888,
        "last_rank": 45416,
        "player_name": "Minh Tri Pham",
        "rank": 37444,
        "rank_sort": 37509,
        "total": 2361
      },
      {
        "club_badge_src": null,
        "entry": 745959,
        "entry_name": "Pukki Blinders",
        "event_total": 51,
        "has_played": true,
        "id": 5074570,
        "last_rank": 30727,
        "player_name": "Harry West",
        "rank": 37444,
        "rank_sort": 37510,
        "total": 2361
      },
      {
        "club_badge_src": null,
        "entry": 763567,
        "entry_name": "NumberOne",
        "event_total": 66,
        "has_played": true,
        "id": 5207495,
        "last_rank": 49880,
        "player_name": "Andrii Kravchenko",
        "rank": 37444,
        "rank_sort": 37511,
        "total": 2361
      },
      {
        "club_badge_src": null,
        "entry": 767171,
        "entry_name": "BeetleJuice",
        "event_total": 51,
        "has_played": true,
        "id": 5232551,
        "last_rank": 30600,
        "player_name": "Reece Robinson",
        "rank": 37444,
        "rank_sort": 37512,
        "total": 2361
      },
      {
        "club_badge_src": null,
        "entry": 787081,
        "entry_name": "Brydonias",
        "event_total": 64,
        "has_played": true,
        "id": 5380570,
        "last_rank": 46839,
        "player_name": "Alan Brydon",
        "rank": 37444,
        "rank_sort": 37513,
        "total": 2361
      },
      {
        "club_badge_src": null,
        "entry": 797095,
        "entry_name": "YANITED",
        "event_total": 52,
        "has_played": true,
        "id": 5455573,
        "last_rank": 31747,
        "player_name": "jesus Zavala Zavala",
        "rank": 37444,
        "rank_sort": 37514,
        "total": 2361
      },
      {
        "club_badge_src": "https://fantasy.premierleague.com/gcs/plfpl-production-adobe-approved/plfpl-production/842903/416674dc-0c2a-461e-b896-52e90b0c0453.png",
        "entry": 842903,
        "entry_name": "Top of the Slot's",
        "event_total": 51,
        "has_played": true,
        "id": 5775313,
        "last_rank": 30727,
        "player_name": "Will Offer",
        "rank": 37444,
        "rank_sort": 37515,
        "total": 2361
      },
      {
        "club_badge_src": null,
        "entry": 891594,
        "entry_name": "Wirtz Donut",
        "event_total": 56,
        "has_played": true,
        "id": 6119955,
        "last_rank": 36142,
        "player_name": "Brien Hendershott",
        "rank": 37444,
        "rank_sort": 37516,
        "total": 2361
      },
      {
        "club_badge_src": null,
        "entry": 912117,
        "entry_name": "C\u1ee7 h\u00e0nh",
        "event_total": 71,
        "has_played": true,
        "id": 6271723,
        "last_rank": 57857,
        "player_name": "Giang Nguyen",
        "rank": 37444,
        "rank_sort": 37517,
        "total": 2361
      },
      {
        "club_badge_src": null,
        "entry": 927814,
        "entry_name": "Marching On Together",
        "event_total": 48,
        "has_played": true,
        "id": 6383104,
        "last_rank": 27770,
        "player_name": "Andy Lawson",
        "rank": 37444,
        "rank_sort": 37518,
        "total": 2361
      },
      {
        "club_badge_src": "https://fantasy.premierleague.com/gcs/plfpl-production-adobe-approved/plfpl-production/930040/3141a880-dce4-488a-abb1-fee84c9058c7.png",
        "entry": 930040,
        "entry_name": "Taribo West AFC",
        "event_total": 51,
        "has_played": true,
        "id": 6399233,
        "last_rank": 30727,
        "player_name": "Terry Bloomfield",
        "rank": 37444,
        "rank_sort": 37519,
        "total": 2361
      },
      {
        "club_badge_src": "https://fantasy.premierleague.com/gcs/plfpl-production-adobe-approved/plfpl-production/941597/37cc0d09-c77d-4bde-8621-a3c44226b42b.png",
        "entry": 941597,
        "entry_name": "Robson Kanu XI",
        "event_total": 70,
        "has_played": true,
        "id": 6483127,
        "last_rank": 56180,
        "player_name": "Daniel Robinson",
        "rank": 37444,
        "rank_sort": 37520,
        "total": 2361
      },
      {
        "club_badge_src": null,
        "entry": 949354,
        "entry_name": "Chop at the knees",
        "event_total": 53,
        "has_played": true,
        "id": 6540058,
        "last_rank": 32879,
        "player_name": "Ronald Smolinski",
        "rank": 37444,
        "rank_sort": 37521,
        "total": 2361
      },
      {
        "club_badge_src": null,
        "entry": 961272,
        "entry_name": "Kanjac",
        "event_total": 69,
        "has_played": true,
        "id": 6624288,
        "last_rank": 54416,
        "player_name": "Jagor Cota",
        "rank": 37444,
        "rank_sort": 37522,
        "total": 2361
      },
      {
        "club_badge_src": null,
        "entry": 967571,
        "entry_name": "Bowie & the Boys",
        "event_total": 66,
        "has_played": true,
        "id": 6668768,
        "last_rank": 49880,
        "player_name": "Colin Clark",
        "rank": 37444,
        "rank_sort": 37523,
        "total": 2361
      },
      {
        "club_badge_src": "https://fantasy.premierleague.com/gcs/plfpl-production-adobe-approved/plfpl-production/969313/42a06ace-43b8-4137-a6a4-9314cae05923.png",
        "entry": 969313,
        "entry_name": "Massudinhos",
        "event_total": 63,
        "has_played": true,
        "id": 6680737,
        "last_rank": 45252,
        "player_name": "Diogo Pulqurio",
        "rank": 37444,
        "rank_sort": 37524,
        "total": 2361
      },
      {
        "club_badge_src": null,
        "entry": 984346,
        "entry_name": "Mbeumoester Cunhited",
        "event_total": 65,
        "has_played": true,
        "id": 6786613,
        "last_rank": 48197,
        "player_name": "Gustav \u00c5berg",
        "rank": 37444,
        "rank_sort": 37525,
        "total": 2361
      },
      {
        "club_badge_src": "https://fantasy.premierleague.com/gcs/plfpl-production-adobe-approved/plfpl-production/985948/29bdcb36-14c8-4fbf-812d-16e92ae70af0.png",
        "entry": 985948,
        "entry_name": "One Piece",
        "event_total": 59,
        "has_played": true,
        "id": 6797932,
        "last_rank": 39874,
        "player_name": "Fikri Aldy",
        "rank": 37444,
        "rank_sort": 37526,
        "total": 2361
      },
      {
        "club_badge_src": "https://fantasy.premierleague.com/gcs/plfpl-production-adobe-approved/plfpl-production/1101759/ff9d2a78-75e3-4519-a5c0-8b2d85d3bb5d.png",
        "entry": 1101759,
        "entry_name": "Hammarslund Hobos",
        "event_total": 59,
        "has_played": true,
        "id": 7631546,
        "last_rank": 40036,
        "player_name": "Henrik B\u00e4ckman",
        "rank": 37444,
        "rank_sort": 37527,
        "total": 2361
      },
      {
        "club_badge_src": null,
        "entry": 1112512,
        "entry_name": "Kudos to Kudus",
        "event_total": 60,
        "has_played": true,
        "id": 7706240,
        "last_rank": 41324,
        "player_name": "Jake Waldron",
        "rank": 37444,
        "rank_sort": 37528,
        "total": 2361
      },
      {
        "club_badge_src": null,
        "entry": 1120536,
        "entry_name": "Insurmountables",
        "event_total": 54,
        "has_played": true,
        "id": 7762975,
        "last_rank": 34051,
        "player_name": "Mario Prce",
        "rank": 37444,
        "rank_sort": 37529,
        "total": 2361
      },
      {
        "club_badge_src": null,
        "entry": 1155093,
        "entry_name": "spleiselaget",
        "event_total": 56,
        "has_played": true,
        "id": 8009772,
        "last_rank": 36624,
        "player_name": "Martin Nesv\u00e5g",
        "rank": 37444,
        "rank_sort": 37530,
        "total": 2361
      },
      {
        "club_badge_src": "https://fantasy.premierleague.com/gcs/plfpl-production-adobe-approved/plfpl-production/1191827/42015dce-5300-424d-8cb9-db1315e71168.png",
        "entry": 1191827,
        "entry_name": "A Cunha Mateta.",
        "event_total": 66,
        "has_played": true,
        "id": 8269418,
        "last_rank": 49880,
        "player_name": "Max Bidlake",
        "rank": 37444,
        "rank_sort": 37531,
        "total": 2361
      },
      {
        "club_badge_src": null,
        "entry": 1238561,
        "entry_name": "Mullet City",
        "event_total": 60,
        "has_played": true,
        "id": 8601012,
        "last_rank": 41324,
        "player_name": "Michael Charmer",
        "rank": 37444,
        "rank_sort": 37532,
        "total": 2361
      },
      {
        "club_badge_src": null,
        "entry": 1248014,
        "entry_name": "Whiting Army",
        "event_total": 54,
        "has_played": true,
        "id": 8667548,
        "last_rank": 34051,
        "player_name": "Geo Whiting",
        "rank": 37444,
        "rank_sort": 37533,
        "total": 2361
      },
      {
        "club_badge_src": null,
        "entry": 1270881,
        "entry_name": "The Frank Engine",
        "event_total": 66,
        "has_played": true,
        "id": 8830200,
        "last_rank": 49691,
        "player_name": "Kieran Cowlishaw",
        "rank": 37444,
        "rank_sort": 37534,
        "total": 2361
      },
      {
        "club_badge_src": null,
        "entry": 1276964,
        "entry_name": "Touchdown",
        "event_total": 62,
        "has_played": true,
        "id": 8873212,
        "last_rank": 44048,
        "player_name": "Lee Payne",
        "rank": 37444,
        "rank_sort": 37535,
        "total": 2361
      },
      {
        "club_badge_src": null,
        "entry": 1293490,
        "entry_name": "Goi\u00e1s Ultras XI",
        "event_total": 68,
        "has_played": true,
        "id": 8988696,
        "last_rank": 52853,
        "player_name": "Matt Sears-Black",
        "rank": 37444,
        "rank_sort": 37536,
        "total": 2361
      },
      {
        "club_badge_src": null,
        "entry": 1307676,
        "entry_name": "London Monarchs",
        "event_total": 60,
        "has_played": true,
        "id": 9089183,
        "last_rank": 41324,
        "player_name": "Jason Langridge",
        "rank": 37444,
        "rank_sort": 37537,
        "total": 2361
      },
      {
        "club_badge_src": null,
        "entry": 1315227,
        "entry_name": "Clivs",
        "event_total": 55,
        "has_played": true,
        "id": 9141559,
        "last_rank": 35166,
        "player_name": "Connor Livermore",
        "rank": 37444,
        "rank_sort": 37538,
        "total": 2361
      },
      {
        "club_badge_src": null,
        "entry": 1322674,
        "entry_name": "Darwin's Evolution",
        "event_total": 57,
        "has_played": true,
        "id": 9193886,
        "last_rank": 37435,
        "player_name": "Benjamin svahn",
        "rank": 37444,
        "rank_sort": 37539,
        "total": 2361
      },
      {
        "club_badge_src": null,
        "entry": 1390779,
        "entry_name": "Team \u00d8ssi",
        "event_total": 56,
        "has_played": true,
        "id": 9675404,
        "last_rank": 36348,
        "player_name": "\u00d8ystein Hole",
        "rank": 37444,
        "rank_sort": 37540,
        "total": 2361
      },
      {
        "club_badge_src": "https://fantasy.premierleague.com/gcs/plfpl-production-adobe-approved/plfpl-production/1410098/e838c7ba-79dd-4184-b597-9a54e386ade8.png",
        "entry": 1410098,
        "entry_name": "FTFC Gunners",
        "event_total": 48,
        "has_played": true,
        "id": 9811795,
        "last_rank": 27770,
        "player_name": "Steve Langridge",
        "rank": 37444,
        "rank_sort": 37541,
        "total": 2361
      },
      {
        "club_badge_src": null,
        "entry": 1422696,
        "entry_name": "TPM FC",
        "event_total": 59,
        "has_played": true,
        "id": 9907434,
        "last_rank": 39874,
        "player_name": "Thomas Marshal",
        "rank": 37444,
        "rank_sort": 37542,
        "total": 2361
      },
      {
        "club_badge_src": null,
        "entry": 1432925,
        "entry_name": "Rocket Surgeon",
        "event_total": 67,
        "has_played": true,
        "id": 9984733,
        "last_rank": 51403,
        "player_name": "Josh Sluman",
        "rank": 37444,
        "rank_sort": 37543,
        "total": 2361
      },
      {
        "club_badge_src": null,
        "entry": 1447627,
        "entry_name": "Liverpool4Life",
        "event_total": 70,
        "has_played": true,
        "id": 10087336,
        "last_rank": 56369,
        "player_name": "Franco Ferraro",
        "rank": 37444,
        "rank_sort": 37544,
        "total": 2361
      },
      {
        "club_badge_src": "https://fantasy.premierleague.com/gcs/plfpl-production-adobe-approved/plfpl-production/1464988/0284d2b7-0aac-4cf3-adff-d687fc73f409.png",
        "entry": 1464988,
        "entry_name": "Cant Stop The Phelan",
        "event_total": 61,
        "has_played": true,
        "id": 10211627,
        "last_rank": 42506,
        "player_name": "Jack Allen",
        "rank": 37444,
        "rank_sort": 37545,
        "total": 2361
      },
      {
        "club_badge_src": null,
        "entry": 1469702,
        "entry_name": "mohamad.m10",
        "event_total": 37,
        "has_played": true,
        "id": 10244629,
        "last_rank": 18790,
        "player_name": "mohamad mlsi",
        "rank": 37444,
        "rank_sort": 37546,
        "total": 2361
      },
      {
        "club_badge_src": null,
        "entry": 1491637,
        "entry_name": "JP United",
        "event_total": 38,
        "has_played": true,
        "id": 10401884,
        "last_rank": 19544,
        "player_name": "John Petter Volds\u00e6ter",
        "rank": 37444,
        "rank_sort": 37547,
        "total": 2361
      },
      {
        "club_badge_src": "https://fantasy.premierleague.com/gcs/plfpl-production-adobe-approved/plfpl-production/1565810/30318c1e-ab4e-46e4-9eec-d901640a6018.png",
        "entry": 1565810,
        "entry_name": "Diallo or Nothing",
        "event_total": 66,
        "has_played": true,
        "id": 10938242,
        "last_rank": 49880,
        "player_name": "ionas apostolakis",
        "rank": 37444,
        "rank_sort": 37548,
        "total": 2361
      },
      {
        "club_badge_src": null,
        "entry": 1577471,
        "entry_name": "Tesco McNeil Deal",
        "event_total": 52,
        "has_played": true,
        "id": 11022927,
        "last_rank": 31995,
        "player_name": "Bradley Jackson",
        "rank": 37444,
        "rank_sort": 37549,
        "total": 2361
      },
      {
        "club_badge_src": null,
        "entry": 1587497,
        "entry_name": "CarefulWatUWissaFor",
        "event_total": 63,
        "has_played": true,
        "id": 11098334,
        "last_rank": 45416,
        "player_name": "Austin Koff",
        "rank": 37444,
        "rank_sort": 37550,
        "total": 2361
      }
    ]
  }
}