{
  "last_updated_data": "2026-05-24T23:28:17Z",
  "league": {
    "admin_entry": null,
    "closed": false,
    "code_privacy": "p",
    "created": "2025-07-20T23:14:33.933835Z",
    "cup_league": 2815434,
    "has_cup": true,
    "id": 314,
    "league_type": "s",
    "max_entries": null,
    "name": "Overall",
    "rank": null,
    "scoring": "c",
    "start_event": 1
  },
  "new_entries": {
    "has_next": false,
    "page": 1,
    "results": []
  },
  "standings": {
    "has_next": true,
    "page": 1025,
    "results": [
      {
        "club_badge_src": null,
        "entry": 4654464,
        "entry_name": "fafafooey",
        "event_total": 73,
        "has_played": true,
        "id": 35617853,
        "last_rank": 81312,
        "player_name": "Harry Young",
        "rank": 51004,
        "rank_sort": 51201,
        "total": 2351
      },
      {
        "club_badge_src": null,
        "entry": 4689707,
        "entry_name": "The Thunders",
        "event_total": 82,
        "has_played": true,
        "id": 35944093,
        "last_rank": 103254,
        "player_name": "Andr\u00e9 Gr\u00f8nnings",
        "rank": 51004,
        "rank_sort": 51202,
        "total": 2351
      },
      {
        "club_badge_src": null,
        "entry": 4765613,
        "entry_name": "OliEmi FC",
        "event_total": 50,
        "has_played": true,
        "id": 36677372,
        "last_rank": 41162,
        "player_name": "Jonathan Shields",
        "rank": 51004,
        "rank_sort": 51203,
        "total": 2351
      },
      {
        "club_badge_src": null,
        "entry": 4800571,
        "entry_name": "asmyde",
        "event_total": 62,
        "has_played": true,
        "id": 36961254,
        "last_rank": 59813,
        "player_name": "Isa Bucheery",
        "rank": 51004,
        "rank_sort": 51204,
        "total": 2351
      },
      {
        "club_badge_src": null,
        "entry": 4902513,
        "entry_name": "soulfly",
        "event_total": 74,
        "has_played": true,
        "id": 37804775,
        "last_rank": 84360,
        "player_name": "M Syafiq",
        "rank": 51004,
        "rank_sort": 51205,
        "total": 2351
      },
      {
        "club_badge_src": null,
        "entry": 4952591,
        "entry_name": "Bob dungi squad",
        "event_total": 52,
        "has_played": true,
        "id": 38216324,
        "last_rank": 43849,
        "player_name": "hamidu abdallah",
        "rank": 51004,
        "rank_sort": 51206,
        "total": 2351
      },
      {
        "club_badge_src": null,
        "entry": 5045633,
        "entry_name": "The Titans",
        "event_total": 44,
        "has_played": true,
        "id": 38975566,
        "last_rank": 34051,
        "player_name": "Malcolm Barker",
        "rank": 51004,
        "rank_sort": 51207,
        "total": 2351
      },
      {
        "club_badge_src": null,
        "entry": 5075716,
        "entry_name": "SR Royals",
        "event_total": 66,
        "has_played": true,
        "id": 39227343,
        "last_rank": 66848,
        "player_name": "Shivam Ramchandani",
        "rank": 51004,
        "rank_sort": 51208,
        "total": 2351
      },
      {
        "club_badge_src": null,
        "entry": 5180355,
        "entry_name": "The Best 20",
        "event_total": 72,
        "has_played": true,
        "id": 40097911,
        "last_rank": 79190,
        "player_name": "Emma Gerbich",
        "rank": 51004,
        "rank_sort": 51209,
        "total": 2351
      },
      {
        "club_badge_src": null,
        "entry": 5231342,
        "entry_name": "\u0627\u0644\u062c\u0646\u0631\u0627\u0644 \u062c\u0644\u062d\u0629",
        "event_total": 51,
        "has_played": true,
        "id": 40537522,
        "last_rank": 42940,
        "player_name": "Ahmed Hadra",
        "rank": 51004,
        "rank_sort": 51210,
        "total": 2351
      },
      {
        "club_badge_src": null,
        "entry": 5251453,
        "entry_name": "Eze Money",
        "event_total": 72,
        "has_played": true,
        "id": 40700081,
        "last_rank": 79431,
        "player_name": "James Plackett",
        "rank": 51004,
        "rank_sort": 51211,
        "total": 2351
      },
      {
        "club_badge_src": null,
        "entry": 5297846,
        "entry_name": "\u9ad8\u7cd5\u776a\u818fGOAL",
        "event_total": 57,
        "has_played": true,
        "id": 41066246,
        "last_rank": 51403,
        "player_name": "Lau Man",
        "rank": 51004,
        "rank_sort": 51212,
        "total": 2351
      },
      {
        "club_badge_src": "https://fantasy.premierleague.com/gcs/plfpl-production-adobe-approved/plfpl-production/5456980/bf3bbf1e-4404-4341-af9b-6b960731600c.png",
        "entry": 5456980,
        "entry_name": "Heukgoo Abba",
        "event_total": 42,
        "has_played": true,
        "id": 42466639,
        "last_rank": 31747,
        "player_name": "David Kim",
        "rank": 51004,
        "rank_sort": 51213,
        "total": 2351
      },
      {
        "club_badge_src": null,
        "entry": 5494661,
        "entry_name": "Piti",
        "event_total": 64,
        "has_played": true,
        "id": 42799106,
        "last_rank": 63201,
        "player_name": "piti phetkrut",
        "rank": 51004,
        "rank_sort": 51214,
        "total": 2351
      },
      {
        "club_badge_src": null,
        "entry": 5555207,
        "entry_name": "Harry Cant Swim",
        "event_total": 55,
        "has_played": true,
        "id": 43361598,
        "last_rank": 48363,
        "player_name": "Harry Sayers",
        "rank": 51004,
        "rank_sort": 51215,
        "total": 2351
      },
      {
        "club_badge_src": null,
        "entry": 5578249,
        "entry_name": "atika atikawa",
        "event_total": 56,
        "has_played": true,
        "id": 43564960,
        "last_rank": 49880,
        "player_name": "Mayyah Aziz",
        "rank": 51004,
        "rank_sort": 51216,
        "total": 2351
      },
      {
        "club_badge_src": "https://fantasy.premierleague.com/gcs/plfpl-production-adobe-approved/plfpl-production/5633408/56b45d9a-d338-4879-b850-e46d21c4543f.png",
        "entry": 5633408,
        "entry_name": "SomeOneScore",
        "event_total": 69,
        "has_played": true,
        "id": 44047225,
        "last_rank": 64943,
        "player_name": "Adam Grant",
        "rank": 51004,
        "rank_sort": 51217,
        "total": 2351
      },
      {
        "club_badge_src": null,
        "entry": 5635107,
        "entry_name": "Average Stu's",
        "event_total": 68,
        "has_played": true,
        "id": 44062490,
        "last_rank": 70985,
        "player_name": "Stuart Baillie",
        "rank": 51004,
        "rank_sort": 51218,
        "total": 2351
      },
      {
        "club_badge_src": null,
        "entry": 5653990,
        "entry_name": "Always Gunners-up",
        "event_total": 65,
        "has_played": true,
        "id": 44230891,
        "last_rank": 64830,
        "player_name": "Ruth Earnshaw",
        "rank": 51004,
        "rank_sort": 51219,
        "total": 2351
      },
      {
        "club_badge_src": null,
        "entry": 5707093,
        "entry_name": "Reece's Set Pieces",
        "event_total": 54,
        "has_played": true,
        "id": 44689184,
        "last_rank": 46660,
        "player_name": "Ross Medley",
        "rank": 51004,
        "rank_sort": 51220,
        "total": 2351
      },
      {
        "club_badge_src": "https://fantasy.premierleague.com/gcs/plfpl-production-adobe-approved/plfpl-production/5794161/4669c40f-585e-4262-a0e2-e710ed1a4c3c.png",
        "entry": 5794161,
        "entry_name": "Fantasy Flyerz",
        "event_total": 63,
        "has_played": true,
        "id": 45448460,
        "last_rank": 61606,
        "player_name": "Philip Marshal Xavier",
        "rank": 51004,
        "rank_sort": 51221,
        "total": 2351
      },
      {
        "club_badge_src": null,
        "entry": 5808176,
        "entry_name": "Delap of DeGods",
        "event_total": 49,
        "has_played": true,
        "id": 45570823,
        "last_rank": 39874,
        "player_name": "Dan Mills",
        "rank": 51004,
        "rank_sort": 51222,
        "total": 2351
      },
      {
        "club_badge_src": null,
        "entry": 5828594,
        "entry_name": "pseftes",
        "event_total": 58,
        "has_played": true,
        "id": 45746110,
        "last_rank": 53023,
        "player_name": "Nasos Dabi",
        "rank": 51004,
        "rank_sort": 51223,
        "total": 2351
      },
      {
        "club_badge_src": null,
        "entry": 5998207,
        "entry_name": "Maeda Meal of It",
        "event_total": 61,
        "has_played": true,
        "id": 47282128,
        "last_rank": 58071,
        "player_name": "Sam Clelland",
        "rank": 51004,
        "rank_sort": 51224,
        "total": 2351
      },
      {
        "club_badge_src": null,
        "entry": 6031016,
        "entry_name": "Pablos Bandidos",
        "event_total": 61,
        "has_played": true,
        "id": 47575203,
        "last_rank": 58071,
        "player_name": "Jens Mikkelsen",
        "rank": 51004,
        "rank_sort": 51225,
        "total": 2351
      },
      {
        "club_badge_src": "https://fantasy.premierleague.com/gcs/plfpl-production-adobe-approved/plfpl-production/6043249/c1b9c1a1-9a14-4636-a65b-d8a00aff9985.png",
        "entry": 6043249,
        "entry_name": "Wirtz Case Scenario",
        "event_total": 69,
        "has_played": true,
        "id": 47680882,
        "last_rank": 72815,
        "player_name": "Jacob Farquhar",
        "rank": 51004,
        "rank_sort": 51226,
        "total": 2351
      },
      {
        "club_badge_src": "https://fantasy.premierleague.com/gcs/plfpl-production-adobe-approved/plfpl-production/6213501/25be37d7-1a45-4ec3-acdb-acb6c8800256.png",
        "entry": 6213501,
        "entry_name": "DJ Tom Hill United",
        "event_total": 44,
        "has_played": true,
        "id": 49161129,
        "last_rank": 34051,
        "player_name": "Tom Hill",
        "rank": 51004,
        "rank_sort": 51227,
        "total": 2351
      },
      {
        "club_badge_src": null,
        "entry": 6223573,
        "entry_name": "Hugo Ekit In Ya",
        "event_total": 68,
        "has_played": true,
        "id": 49246854,
        "last_rank": 70757,
        "player_name": "Gary Whelan",
        "rank": 51004,
        "rank_sort": 51228,
        "total": 2351
      },
      {
        "club_badge_src": null,
        "entry": 6282785,
        "entry_name": "Draumali\u00f0 \u00d6lfusins",
        "event_total": 56,
        "has_played": true,
        "id": 49762961,
        "last_rank": 49880,
        "player_name": "J\u00f3n L\u00e1rus Stef\u00e1nsson",
        "rank": 51004,
        "rank_sort": 51229,
        "total": 2351
      },
      {
        "club_badge_src": null,
        "entry": 6313807,
        "entry_name": "Ho\u0161i z Blekf\u00edldu ***",
        "event_total": 57,
        "has_played": true,
        "id": 50100596,
        "last_rank": 51220,
        "player_name": "Mat\u00fa\u0161 Lazov\u00fd",
        "rank": 51004,
        "rank_sort": 51230,
        "total": 2351
      },
      {
        "club_badge_src": null,
        "entry": 6326879,
        "entry_name": "mikrs magicians",
        "event_total": 62,
        "has_played": true,
        "id": 50266178,
        "last_rank": 59813,
        "player_name": "Mike Stamper",
        "rank": 51004,
        "rank_sort": 51231,
        "total": 2351
      },
      {
        "club_badge_src": null,
        "entry": 6378311,
        "entry_name": "Sammons Sorcerers",
        "event_total": 31,
        "has_played": true,
        "id": 50727213,
        "last_rank": 21775,
        "player_name": "Shaun Bannigan",
        "rank": 51004,
        "rank_sort": 51232,
        "total": 2351
      },
      {
        "club_badge_src": null,
        "entry": 6460596,
        "entry_name": "The Abundance XI",
        "event_total": 82,
        "has_played": true,
        "id": 51465762,
        "last_rank": 103017,
        "player_name": "Vatsal Gandhi",
        "rank": 51004,
        "rank_sort": 51233,
        "total": 2351
      },
      {
        "club_badge_src": null,
        "entry": 6510540,
        "entry_name": "WM DONS",
        "event_total": 46,
        "has_played": true,
        "id": 51915326,
        "last_rank": 36348,
        "player_name": "Matt Joyce",
        "rank": 51004,
        "rank_sort": 51234,
        "total": 2351
      },
      {
        "club_badge_src": null,
        "entry": 6537827,
        "entry_name": "donaghadee",
        "event_total": 50,
        "has_played": true,
        "id": 52158405,
        "last_rank": 41324,
        "player_name": "R W",
        "rank": 51004,
        "rank_sort": 51235,
        "total": 2351
      },
      {
        "club_badge_src": null,
        "entry": 6540524,
        "entry_name": "Santas Reijndeers",
        "event_total": 42,
        "has_played": true,
        "id": 52183404,
        "last_rank": 31747,
        "player_name": "James Broughton",
        "rank": 51004,
        "rank_sort": 51236,
        "total": 2351
      },
      {
        "club_badge_src": "https://fantasy.premierleague.com/gcs/plfpl-production-adobe-approved/plfpl-production/6542853/c1544c25-6901-489e-9b5b-959db952b556.png",
        "entry": 6542853,
        "entry_name": "ENDO DAYS",
        "event_total": 52,
        "has_played": true,
        "id": 52203990,
        "last_rank": 44048,
        "player_name": "Michael Sund",
        "rank": 51004,
        "rank_sort": 51237,
        "total": 2351
      },
      {
        "club_badge_src": null,
        "entry": 6725724,
        "entry_name": "Sir Fenger",
        "event_total": 46,
        "has_played": true,
        "id": 53830264,
        "last_rank": 36348,
        "player_name": "Fenger Gr\u00f8n",
        "rank": 51004,
        "rank_sort": 51238,
        "total": 2351
      },
      {
        "club_badge_src": null,
        "entry": 6829546,
        "entry_name": "Cunha Libre",
        "event_total": 66,
        "has_played": true,
        "id": 54704344,
        "last_rank": 66848,
        "player_name": "Andrew Carasco",
        "rank": 51004,
        "rank_sort": 51239,
        "total": 2351
      },
      {
        "club_badge_src": null,
        "entry": 7226432,
        "entry_name": "Peaceful Eze Feeling",
        "event_total": 69,
        "has_played": true,
        "id": 58382033,
        "last_rank": 72815,
        "player_name": "Tim Marlow",
        "rank": 51004,
        "rank_sort": 51240,
        "total": 2351
      },
      {
        "club_badge_src": null,
        "entry": 7453386,
        "entry_name": "Jet2Holidays United",
        "event_total": 67,
        "has_played": true,
        "id": 60678774,
        "last_rank": 68748,
        "player_name": "Vladimir Milanov",
        "rank": 51004,
        "rank_sort": 51241,
        "total": 2351
      },
      {
        "club_badge_src": null,
        "entry": 7559310,
        "entry_name": "Zuza team",
        "event_total": 61,
        "has_played": true,
        "id": 61895865,
        "last_rank": 58071,
        "player_name": "Zuzanna Grej\u0107",
        "rank": 51004,
        "rank_sort": 51242,
        "total": 2351
      },
      {
        "club_badge_src": null,
        "entry": 7609203,
        "entry_name": "MohAlghamdi8",
        "event_total": 65,
        "has_played": true,
        "id": 62347394,
        "last_rank": 64943,
        "player_name": "Mohammed Alghamdi",
        "rank": 51004,
        "rank_sort": 51243,
        "total": 2351
      },
      {
        "club_badge_src": null,
        "entry": 7728185,
        "entry_name": "Below this? you suck",
        "event_total": 68,
        "has_played": true,
        "id": 63424795,
        "last_rank": 70757,
        "player_name": "Ragnar Nilhag",
        "rank": 51004,
        "rank_sort": 51244,
        "total": 2351
      },
      {
        "club_badge_src": null,
        "entry": 7748200,
        "entry_name": "Lloris The Hounds",
        "event_total": 42,
        "has_played": true,
        "id": 63604875,
        "last_rank": 31747,
        "player_name": "David Kargas",
        "rank": 51004,
        "rank_sort": 51245,
        "total": 2351
      },
      {
        "club_badge_src": null,
        "entry": 7749132,
        "entry_name": "Mohamed Ai",
        "event_total": 66,
        "has_played": true,
        "id": 63613261,
        "last_rank": 67063,
        "player_name": "Shaun Hutchinson",
        "rank": 51004,
        "rank_sort": 51246,
        "total": 2351
      },
      {
        "club_badge_src": null,
        "entry": 7769486,
        "entry_name": "A Cunha Mateta",
        "event_total": 56,
        "has_played": true,
        "id": 63798352,
        "last_rank": 49691,
        "player_name": "ger quain",
        "rank": 51004,
        "rank_sort": 51247,
        "total": 2351
      },
      {
        "club_badge_src": "https://fantasy.premierleague.com/gcs/plfpl-production-adobe-approved/plfpl-production/7772473/4d254c13-f496-416a-a9cc-2b8855330d54.png",
        "entry": 7772473,
        "entry_name": "EZ club",
        "event_total": 71,
        "has_played": true,
        "id": 63825211,
        "last_rank": 77050,
        "player_name": "Ezzedine Med",
        "rank": 51004,
        "rank_sort": 51248,
        "total": 2351
      },
      {
        "club_badge_src": null,
        "entry": 7783894,
        "entry_name": "Zubi Doobi Doo",
        "event_total": 68,
        "has_played": true,
        "id": 63928911,
        "last_rank": 70651,
        "player_name": "James H",
        "rank": 51004,
        "rank_sort": 51249,
        "total": 2351
      },
      {
        "club_badge_src": null,
        "entry": 7797271,
        "entry_name": "Bowen 747",
        "event_total": 59,
        "has_played": true,
        "id": 64048693,
        "last_rank": 54667,
        "player_name": "Nessa Bollard",
        "rank": 51004,
        "rank_sort": 51250,
        "total": 2351
      }
    ]
  }
}