{
  "last_updated_data": "2026-05-24T23:28:17Z",
  "league": {
    "admin_entry": null,
    "closed": false,
    "code_privacy": "p",
    "created": "2025-07-20T23:14:33.933835Z",
    "cup_league": 2815434,
    "has_cup": true,
    "id": 314,
    "league_type": "s",
    "max_entries": null,
    "name": "Overall",
    "rank": null,
    "scoring": "c",
    "start_event": 1
  },
  "new_entries": {
    "has_next": false,
    "page": 1,
    "results": []
  },
  "standings": {
    "has_next": true,
    "page": 1177,
    "results": [
      {
        "club_badge_src": null,
        "entry": 9270080,
        "entry_name": "Mosheqs",
        "event_total": 28,
        "has_played": true,
        "id": 78118910,
        "last_rank": 23230,
        "player_name": "Ibra Omondi",
        "rank": 58754,
        "rank_sort": 58801,
        "total": 2346
      },
      {
        "club_badge_src": null,
        "entry": 16177,
        "entry_name": "Molly Hotspur",
        "event_total": 45,
        "has_played": true,
        "id": 99765,
        "last_rank": 41162,
        "player_name": "Alex Holmes",
        "rank": 58802,
        "rank_sort": 58802,
        "total": 2346
      },
      {
        "club_badge_src": null,
        "entry": 35980,
        "entry_name": "Under My Cucurella",
        "event_total": 48,
        "has_played": true,
        "id": 230260,
        "last_rank": 45252,
        "player_name": "Alfie Robertson",
        "rank": 58802,
        "rank_sort": 58803,
        "total": 2346
      },
      {
        "club_badge_src": null,
        "entry": 90350,
        "entry_name": "ohcl united",
        "event_total": 46,
        "has_played": true,
        "id": 589855,
        "last_rank": 42648,
        "player_name": "o hcl",
        "rank": 58802,
        "rank_sort": 58804,
        "total": 2346
      },
      {
        "club_badge_src": null,
        "entry": 95992,
        "entry_name": "Don'tLookBackElanga",
        "event_total": 51,
        "has_played": true,
        "id": 627121,
        "last_rank": 49880,
        "player_name": "Sam Palmer",
        "rank": 58802,
        "rank_sort": 58805,
        "total": 2346
      },
      {
        "club_badge_src": null,
        "entry": 118954,
        "entry_name": "Bowen 737",
        "event_total": 71,
        "has_played": true,
        "id": 776219,
        "last_rank": 79027,
        "player_name": "Henry Wetherell",
        "rank": 58802,
        "rank_sort": 58806,
        "total": 2346
      },
      {
        "club_badge_src": null,
        "entry": 138403,
        "entry_name": "leo",
        "event_total": 49,
        "has_played": true,
        "id": 902858,
        "last_rank": 46839,
        "player_name": "leon .",
        "rank": 58802,
        "rank_sort": 58807,
        "total": 2346
      },
      {
        "club_badge_src": null,
        "entry": 160702,
        "entry_name": "\u2764\ufe0fDiogoal\ufffd\ufe0f",
        "event_total": 58,
        "has_played": true,
        "id": 1058367,
        "last_rank": 61315,
        "player_name": "Yu Ze Toh",
        "rank": 58802,
        "rank_sort": 58808,
        "total": 2346
      },
      {
        "club_badge_src": null,
        "entry": 209480,
        "entry_name": "@paulgallant3675",
        "event_total": 67,
        "has_played": true,
        "id": 1393088,
        "last_rank": 79079,
        "player_name": "Jake Moran",
        "rank": 58802,
        "rank_sort": 58809,
        "total": 2346
      },
      {
        "club_badge_src": null,
        "entry": 364555,
        "entry_name": "ColdRainyNightInPalm",
        "event_total": 55,
        "has_played": true,
        "id": 2439470,
        "last_rank": 56069,
        "player_name": "Harry Mou",
        "rank": 58802,
        "rank_sort": 58810,
        "total": 2346
      },
      {
        "club_badge_src": null,
        "entry": 366452,
        "entry_name": "ThomastheFrankEngine",
        "event_total": 70,
        "has_played": true,
        "id": 2452252,
        "last_rank": 86304,
        "player_name": "Shaun Alderson",
        "rank": 58802,
        "rank_sort": 58811,
        "total": 2346
      },
      {
        "club_badge_src": null,
        "entry": 372557,
        "entry_name": "Power Renijnders",
        "event_total": 69,
        "has_played": true,
        "id": 2492728,
        "last_rank": 83698,
        "player_name": "Viktor Thorlacius",
        "rank": 58802,
        "rank_sort": 58812,
        "total": 2346
      },
      {
        "club_badge_src": "https://fantasy.premierleague.com/gcs/plfpl-production-adobe-approved/plfpl-production/380335/1e656b12-3560-4536-a50c-94751b01e2de.png",
        "entry": 380335,
        "entry_name": "Flopperes",
        "event_total": 70,
        "has_played": true,
        "id": 2548913,
        "last_rank": 85932,
        "player_name": "Arvid Samuelsson",
        "rank": 58802,
        "rank_sort": 58813,
        "total": 2346
      },
      {
        "club_badge_src": null,
        "entry": 419815,
        "entry_name": "Blues",
        "event_total": 72,
        "has_played": true,
        "id": 2813634,
        "last_rank": 90625,
        "player_name": "Amal Tharakan",
        "rank": 58802,
        "rank_sort": 58814,
        "total": 2346
      },
      {
        "club_badge_src": null,
        "entry": 461748,
        "entry_name": "PURE 5",
        "event_total": 48,
        "has_played": true,
        "id": 3097447,
        "last_rank": 45416,
        "player_name": "Faheem Hyder",
        "rank": 58802,
        "rank_sort": 58815,
        "total": 2346
      },
      {
        "club_badge_src": null,
        "entry": 486741,
        "entry_name": "Gunners 2004",
        "event_total": 55,
        "has_played": true,
        "id": 3267706,
        "last_rank": 56369,
        "player_name": "Ahmed Draz",
        "rank": 58802,
        "rank_sort": 58816,
        "total": 2346
      },
      {
        "club_badge_src": null,
        "entry": 491232,
        "entry_name": "Kanon IF",
        "event_total": 71,
        "has_played": true,
        "id": 3297392,
        "last_rank": 78997,
        "player_name": "William Wid\u00e9n",
        "rank": 58802,
        "rank_sort": 58817,
        "total": 2346
      },
      {
        "club_badge_src": null,
        "entry": 505414,
        "entry_name": "Alisson Wonderland",
        "event_total": 69,
        "has_played": true,
        "id": 3392339,
        "last_rank": 83534,
        "player_name": "Isaac Molouba",
        "rank": 58802,
        "rank_sort": 58818,
        "total": 2346
      },
      {
        "club_badge_src": null,
        "entry": 510170,
        "entry_name": "Under My Cucurella",
        "event_total": 56,
        "has_played": true,
        "id": 3425737,
        "last_rank": 57857,
        "player_name": "Sam Wiggins",
        "rank": 58802,
        "rank_sort": 58819,
        "total": 2346
      },
      {
        "club_badge_src": null,
        "entry": 535059,
        "entry_name": "FC Bambukas",
        "event_total": 50,
        "has_played": true,
        "id": 3601215,
        "last_rank": 48197,
        "player_name": "Giedrius Meskauskas",
        "rank": 58802,
        "rank_sort": 58820,
        "total": 2346
      },
      {
        "club_badge_src": null,
        "entry": 557549,
        "entry_name": "Stitched up",
        "event_total": 53,
        "has_played": true,
        "id": 3752241,
        "last_rank": 52759,
        "player_name": "Nigel Groom",
        "rank": 58802,
        "rank_sort": 58821,
        "total": 2346
      },
      {
        "club_badge_src": null,
        "entry": 638254,
        "entry_name": "FPL KIT",
        "event_total": 37,
        "has_played": true,
        "id": 4313634,
        "last_rank": 31747,
        "player_name": "Marcus Andersson",
        "rank": 58802,
        "rank_sort": 58822,
        "total": 2346
      },
      {
        "club_badge_src": null,
        "entry": 659286,
        "entry_name": "Est\u00e8ve Zissou",
        "event_total": 50,
        "has_played": true,
        "id": 4455358,
        "last_rank": 48197,
        "player_name": "Louis Cross",
        "rank": 58802,
        "rank_sort": 58823,
        "total": 2346
      },
      {
        "club_badge_src": null,
        "entry": 682011,
        "entry_name": "we'll have a look",
        "event_total": 43,
        "has_played": true,
        "id": 4615656,
        "last_rank": 38774,
        "player_name": "Jack Anderson",
        "rank": 58802,
        "rank_sort": 58824,
        "total": 2346
      },
      {
        "club_badge_src": null,
        "entry": 711130,
        "entry_name": "rising ballers",
        "event_total": 67,
        "has_played": true,
        "id": 4823206,
        "last_rank": 79079,
        "player_name": "gabriel githua",
        "rank": 58802,
        "rank_sort": 58825,
        "total": 2346
      },
      {
        "club_badge_src": null,
        "entry": 713895,
        "entry_name": "Bumble Cherki",
        "event_total": 64,
        "has_played": true,
        "id": 4843238,
        "last_rank": 72702,
        "player_name": "Nigel Corlett",
        "rank": 58802,
        "rank_sort": 58826,
        "total": 2346
      },
      {
        "club_badge_src": null,
        "entry": 721701,
        "entry_name": "Kinder Mbeumo",
        "event_total": 56,
        "has_played": true,
        "id": 4901049,
        "last_rank": 58071,
        "player_name": "Josh Goodier",
        "rank": 58802,
        "rank_sort": 58827,
        "total": 2346
      },
      {
        "club_badge_src": null,
        "entry": 733007,
        "entry_name": "Anelka Skelter",
        "event_total": 38,
        "has_played": true,
        "id": 4981229,
        "last_rank": 32879,
        "player_name": "Robert Rispin",
        "rank": 58802,
        "rank_sort": 58828,
        "total": 2346
      },
      {
        "club_badge_src": null,
        "entry": 748744,
        "entry_name": "I baleba can fly",
        "event_total": 60,
        "has_played": true,
        "id": 5094059,
        "last_rank": 64830,
        "player_name": "Jake Pickering",
        "rank": 58802,
        "rank_sort": 58829,
        "total": 2346
      },
      {
        "club_badge_src": null,
        "entry": 818588,
        "entry_name": "No Kane No Gain",
        "event_total": 59,
        "has_played": true,
        "id": 5606106,
        "last_rank": 63201,
        "player_name": "Kristos Tajdari",
        "rank": 58802,
        "rank_sort": 58830,
        "total": 2346
      },
      {
        "club_badge_src": null,
        "entry": 820756,
        "entry_name": "PalmerFC",
        "event_total": 69,
        "has_played": true,
        "id": 5621101,
        "last_rank": 83584,
        "player_name": "Edy Haleblian",
        "rank": 58802,
        "rank_sort": 58831,
        "total": 2346
      },
      {
        "club_badge_src": null,
        "entry": 834771,
        "entry_name": "Fray Bentos",
        "event_total": 55,
        "has_played": true,
        "id": 5718192,
        "last_rank": 56180,
        "player_name": "Michael Copeland",
        "rank": 58802,
        "rank_sort": 58832,
        "total": 2346
      },
      {
        "club_badge_src": "https://fantasy.premierleague.com/gcs/plfpl-production-adobe-approved/plfpl-production/841406/d7912263-ef3c-45d6-bf7d-4fa51f5be0fe.png",
        "entry": 841406,
        "entry_name": "Ludde United",
        "event_total": 61,
        "has_played": true,
        "id": 5764899,
        "last_rank": 67063,
        "player_name": "Kjetil Mehlum",
        "rank": 58802,
        "rank_sort": 58833,
        "total": 2346
      },
      {
        "club_badge_src": null,
        "entry": 864731,
        "entry_name": "Marsangdi-Daraudi",
        "event_total": 39,
        "has_played": true,
        "id": 5928116,
        "last_rank": 33936,
        "player_name": "\u0938\u0948\u0932\u0947\u0938 \u0905\u0927\u093f\u0915\u093e\u0930\u0940",
        "rank": 58802,
        "rank_sort": 58834,
        "total": 2346
      },
      {
        "club_badge_src": null,
        "entry": 935056,
        "entry_name": "Heaven De Bruyne",
        "event_total": 81,
        "has_played": true,
        "id": 6434724,
        "last_rank": 114169,
        "player_name": "Shuvojit Majumder",
        "rank": 58802,
        "rank_sort": 58835,
        "total": 2346
      },
      {
        "club_badge_src": null,
        "entry": 998104,
        "entry_name": "JVB FC",
        "event_total": 59,
        "has_played": true,
        "id": 6896239,
        "last_rank": 63201,
        "player_name": "Jai Baid",
        "rank": 58802,
        "rank_sort": 58836,
        "total": 2346
      },
      {
        "club_badge_src": null,
        "entry": 1006493,
        "entry_name": "Jonathan",
        "event_total": 57,
        "has_played": true,
        "id": 6958248,
        "last_rank": 59813,
        "player_name": "Jonathan S\u00f8rensen",
        "rank": 58802,
        "rank_sort": 58837,
        "total": 2346
      },
      {
        "club_badge_src": null,
        "entry": 1082115,
        "entry_name": "Sir Juan Rydinho",
        "event_total": 57,
        "has_played": true,
        "id": 7492795,
        "last_rank": 59535,
        "player_name": "Johan Rydberg",
        "rank": 58802,
        "rank_sort": 58838,
        "total": 2346
      },
      {
        "club_badge_src": null,
        "entry": 1149672,
        "entry_name": "George'",
        "event_total": 64,
        "has_played": true,
        "id": 7971334,
        "last_rank": 72815,
        "player_name": "george Ayman",
        "rank": 58802,
        "rank_sort": 58839,
        "total": 2346
      },
      {
        "club_badge_src": null,
        "entry": 1380722,
        "entry_name": "fc bubs",
        "event_total": 52,
        "has_played": true,
        "id": 9600282,
        "last_rank": 51403,
        "player_name": "Luke McFadden",
        "rank": 58802,
        "rank_sort": 58840,
        "total": 2346
      },
      {
        "club_badge_src": null,
        "entry": 1536712,
        "entry_name": "Kinder Mbeumo",
        "event_total": 53,
        "has_played": true,
        "id": 10724721,
        "last_rank": 52853,
        "player_name": "Dan Philip Sund",
        "rank": 58802,
        "rank_sort": 58841,
        "total": 2346
      },
      {
        "club_badge_src": null,
        "entry": 1637326,
        "entry_name": "Team Green",
        "event_total": 74,
        "has_played": true,
        "id": 11460599,
        "last_rank": 95527,
        "player_name": "Nikolay Ivanov",
        "rank": 58802,
        "rank_sort": 58842,
        "total": 2346
      },
      {
        "club_badge_src": null,
        "entry": 2085562,
        "entry_name": "Eze Cook Rice",
        "event_total": 46,
        "has_played": true,
        "id": 14795139,
        "last_rank": 42648,
        "player_name": "Michael Armitage",
        "rank": 58802,
        "rank_sort": 58843,
        "total": 2346
      },
      {
        "club_badge_src": null,
        "entry": 2109997,
        "entry_name": "Retro Rovers FC",
        "event_total": 54,
        "has_played": true,
        "id": 14976519,
        "last_rank": 54667,
        "player_name": "Matt Jeffrey",
        "rank": 58802,
        "rank_sort": 58844,
        "total": 2346
      },
      {
        "club_badge_src": null,
        "entry": 2138793,
        "entry_name": "Full Metal Jackson",
        "event_total": 68,
        "has_played": true,
        "id": 15200218,
        "last_rank": 81420,
        "player_name": "Pavlos Chris",
        "rank": 58802,
        "rank_sort": 58845,
        "total": 2346
      },
      {
        "club_badge_src": null,
        "entry": 2171896,
        "entry_name": "Zukeke",
        "event_total": 30,
        "has_played": true,
        "id": 15443017,
        "last_rank": 25002,
        "player_name": "Zukeke EPL",
        "rank": 58802,
        "rank_sort": 58846,
        "total": 2346
      },
      {
        "club_badge_src": null,
        "entry": 2294264,
        "entry_name": "wgftfpls",
        "event_total": 62,
        "has_played": true,
        "id": 16362735,
        "last_rank": 68748,
        "player_name": "Neil Falzon",
        "rank": 58802,
        "rank_sort": 58847,
        "total": 2346
      },
      {
        "club_badge_src": null,
        "entry": 2323175,
        "entry_name": "Robins Reliants",
        "event_total": 64,
        "has_played": true,
        "id": 16574083,
        "last_rank": 72702,
        "player_name": "Robin Middleton",
        "rank": 58802,
        "rank_sort": 58848,
        "total": 2346
      },
      {
        "club_badge_src": null,
        "entry": 2339635,
        "entry_name": "NoDevilsAllowedHere",
        "event_total": 51,
        "has_played": true,
        "id": 16693839,
        "last_rank": 49691,
        "player_name": "Edvard Stueflotten",
        "rank": 58802,
        "rank_sort": 58849,
        "total": 2346
      },
      {
        "club_badge_src": null,
        "entry": 2408466,
        "entry_name": "Meera FC",
        "event_total": 49,
        "has_played": true,
        "id": 17215469,
        "last_rank": 46547,
        "player_name": "olatunji akinsanya",
        "rank": 58802,
        "rank_sort": 58850,
        "total": 2346
      }
    ]
  }
}