{
  "last_updated_data": "2026-05-24T23:28:17Z",
  "league": {
    "admin_entry": null,
    "closed": false,
    "code_privacy": "p",
    "created": "2025-07-20T23:14:33.933835Z",
    "cup_league": 2815434,
    "has_cup": true,
    "id": 314,
    "league_type": "s",
    "max_entries": null,
    "name": "Overall",
    "rank": null,
    "scoring": "c",
    "start_event": 1
  },
  "new_entries": {
    "has_next": false,
    "page": 1,
    "results": []
  },
  "standings": {
    "has_next": true,
    "page": 476,
    "results": [
      {
        "club_badge_src": null,
        "entry": 2932689,
        "entry_name": "conn55",
        "event_total": 61,
        "has_played": true,
        "id": 21506083,
        "last_rank": 26827,
        "player_name": "Brian Connor",
        "rank": 23655,
        "rank_sort": 23751,
        "total": 2375
      },
      {
        "club_badge_src": null,
        "entry": 2933198,
        "entry_name": "Tips XI",
        "event_total": 60,
        "has_played": true,
        "id": 21514202,
        "last_rank": 25729,
        "player_name": "Tom Fehervari",
        "rank": 23655,
        "rank_sort": 23752,
        "total": 2375
      },
      {
        "club_badge_src": null,
        "entry": 2962109,
        "entry_name": "Doug Town",
        "event_total": 67,
        "has_played": true,
        "id": 21759461,
        "last_rank": 32879,
        "player_name": "Adam Deegan",
        "rank": 23655,
        "rank_sort": 23753,
        "total": 2375
      },
      {
        "club_badge_src": null,
        "entry": 3049567,
        "entry_name": "Haji 99",
        "event_total": 50,
        "has_played": true,
        "id": 22450016,
        "last_rank": 18113,
        "player_name": "Hagy Rashuo",
        "rank": 23655,
        "rank_sort": 23754,
        "total": 2375
      },
      {
        "club_badge_src": null,
        "entry": 3083570,
        "entry_name": "Big City 1978",
        "event_total": 39,
        "has_played": true,
        "id": 22718059,
        "last_rank": 11699,
        "player_name": "Simen Mathiassen",
        "rank": 23655,
        "rank_sort": 23755,
        "total": 2375
      },
      {
        "club_badge_src": null,
        "entry": 3102337,
        "entry_name": "Team Alex",
        "event_total": 60,
        "has_played": true,
        "id": 22873220,
        "last_rank": 25776,
        "player_name": "Aleksander Kvinnesland",
        "rank": 23655,
        "rank_sort": 23756,
        "total": 2375
      },
      {
        "club_badge_src": null,
        "entry": 3245529,
        "entry_name": "shi's electric \ufffd",
        "event_total": 60,
        "has_played": true,
        "id": 24009552,
        "last_rank": 25902,
        "player_name": "Scott Clitheroe",
        "rank": 23655,
        "rank_sort": 23757,
        "total": 2375
      },
      {
        "club_badge_src": null,
        "entry": 3305916,
        "entry_name": "3mk",
        "event_total": 51,
        "has_played": true,
        "id": 24487771,
        "last_rank": 18985,
        "player_name": "\u0623\u0646\u064a\u0633 \u0648\u0632\u064a\u0631 \u0627\u0644\u0634\u0628\u0627\u0628 \u0648\u0627\u0644\u0631\u064a\u0627\u0636\u0629",
        "rank": 23655,
        "rank_sort": 23758,
        "total": 2375
      },
      {
        "club_badge_src": null,
        "entry": 3376475,
        "entry_name": "Rishi\u2019s Bad Boys",
        "event_total": 53,
        "has_played": true,
        "id": 25061333,
        "last_rank": 20280,
        "player_name": "Rishi Shah",
        "rank": 23655,
        "rank_sort": 23759,
        "total": 2375
      },
      {
        "club_badge_src": null,
        "entry": 3388966,
        "entry_name": "No-Rules",
        "event_total": 61,
        "has_played": true,
        "id": 25158840,
        "last_rank": 26827,
        "player_name": "Dominik Str\u00e1nsk\u00fd",
        "rank": 23655,
        "rank_sort": 23760,
        "total": 2375
      },
      {
        "club_badge_src": null,
        "entry": 3455000,
        "entry_name": "FC Disco Volante",
        "event_total": 31,
        "has_played": true,
        "id": 25677846,
        "last_rank": 8382,
        "player_name": "Paul Kelly",
        "rank": 23655,
        "rank_sort": 23761,
        "total": 2375
      },
      {
        "club_badge_src": null,
        "entry": 3539950,
        "entry_name": "Bobs Barmy Army",
        "event_total": 71,
        "has_played": true,
        "id": 26349960,
        "last_rank": 37589,
        "player_name": "Bob Eames",
        "rank": 23655,
        "rank_sort": 23762,
        "total": 2375
      },
      {
        "club_badge_src": null,
        "entry": 3678260,
        "entry_name": "Boca Seniors",
        "event_total": 68,
        "has_played": true,
        "id": 27434869,
        "last_rank": 34051,
        "player_name": "Nick Penman",
        "rank": 23655,
        "rank_sort": 23763,
        "total": 2375
      },
      {
        "club_badge_src": null,
        "entry": 3729636,
        "entry_name": "Happy Ending",
        "event_total": 57,
        "has_played": true,
        "id": 27837763,
        "last_rank": 23522,
        "player_name": "Parimal Neupane",
        "rank": 23655,
        "rank_sort": 23764,
        "total": 2375
      },
      {
        "club_badge_src": "https://fantasy.premierleague.com/gcs/plfpl-production-adobe-approved/plfpl-production/3783327/02e6613e-00e8-4b1a-a3f9-9067eb7b60c3.png",
        "entry": 3783327,
        "entry_name": "Half the world (a)",
        "event_total": 59,
        "has_played": true,
        "id": 28251500,
        "last_rank": 25002,
        "player_name": "Adam Bibby",
        "rank": 23655,
        "rank_sort": 23765,
        "total": 2375
      },
      {
        "club_badge_src": null,
        "entry": 3865623,
        "entry_name": "Frennings FC",
        "event_total": 60,
        "has_played": true,
        "id": 28985720,
        "last_rank": 25729,
        "player_name": "Else Frenning",
        "rank": 23655,
        "rank_sort": 23766,
        "total": 2375
      },
      {
        "club_badge_src": null,
        "entry": 3874370,
        "entry_name": "Brat Summerville",
        "event_total": 66,
        "has_played": true,
        "id": 29092740,
        "last_rank": 31620,
        "player_name": "Beth Langston",
        "rank": 23655,
        "rank_sort": 23767,
        "total": 2375
      },
      {
        "club_badge_src": null,
        "entry": 4036561,
        "entry_name": "Aries FC",
        "event_total": 61,
        "has_played": true,
        "id": 30437330,
        "last_rank": 26656,
        "player_name": "Rungnapa Poonsawat",
        "rank": 23655,
        "rank_sort": 23768,
        "total": 2375
      },
      {
        "club_badge_src": null,
        "entry": 4044715,
        "entry_name": "Cucurella De Vil",
        "event_total": 66,
        "has_played": true,
        "id": 30505781,
        "last_rank": 31556,
        "player_name": "Aled Thomas",
        "rank": 23655,
        "rank_sort": 23769,
        "total": 2375
      },
      {
        "club_badge_src": null,
        "entry": 4067917,
        "entry_name": "30 hours",
        "event_total": 62,
        "has_played": true,
        "id": 30701744,
        "last_rank": 27644,
        "player_name": "Abraham Shodiya",
        "rank": 23655,
        "rank_sort": 23770,
        "total": 2375
      },
      {
        "club_badge_src": null,
        "entry": 4103185,
        "entry_name": "Botman Begins",
        "event_total": 63,
        "has_played": true,
        "id": 30985032,
        "last_rank": 28609,
        "player_name": "Glenn Sijtsma",
        "rank": 23655,
        "rank_sort": 23771,
        "total": 2375
      },
      {
        "club_badge_src": null,
        "entry": 4145025,
        "entry_name": "Wengerballin'",
        "event_total": 69,
        "has_played": true,
        "id": 31328339,
        "last_rank": 35034,
        "player_name": "Stanley Umeweni",
        "rank": 23655,
        "rank_sort": 23772,
        "total": 2375
      },
      {
        "club_badge_src": null,
        "entry": 4170762,
        "entry_name": "keeman",
        "event_total": 59,
        "has_played": true,
        "id": 31543400,
        "last_rank": 25002,
        "player_name": "Dan WIlson",
        "rank": 23655,
        "rank_sort": 23773,
        "total": 2375
      },
      {
        "club_badge_src": null,
        "entry": 4192342,
        "entry_name": "OFK Aran\u0111elovac 1979",
        "event_total": 46,
        "has_played": true,
        "id": 31727974,
        "last_rank": 15550,
        "player_name": "\u0402\u043e\u0440\u0452\u0435 \u0418\u0432\u043e\u0432\u0438\u045b",
        "rank": 23655,
        "rank_sort": 23774,
        "total": 2375
      },
      {
        "club_badge_src": null,
        "entry": 4376726,
        "entry_name": "Varun2508",
        "event_total": 65,
        "has_played": true,
        "id": 33256600,
        "last_rank": 30727,
        "player_name": "Varun Kumar",
        "rank": 23655,
        "rank_sort": 23775,
        "total": 2375
      },
      {
        "club_badge_src": null,
        "entry": 4394529,
        "entry_name": "Wirtz the matter?",
        "event_total": 57,
        "has_played": true,
        "id": 33413030,
        "last_rank": 23522,
        "player_name": "Owen Davis",
        "rank": 23655,
        "rank_sort": 23776,
        "total": 2375
      },
      {
        "club_badge_src": null,
        "entry": 4628997,
        "entry_name": "\u00c6mbel united",
        "event_total": 59,
        "has_played": true,
        "id": 35392687,
        "last_rank": 24897,
        "player_name": "Anne-Kristin Amble",
        "rank": 23655,
        "rank_sort": 23777,
        "total": 2375
      },
      {
        "club_badge_src": null,
        "entry": 4737411,
        "entry_name": "Grace & Decorum FC",
        "event_total": 73,
        "has_played": true,
        "id": 36449516,
        "last_rank": 39874,
        "player_name": "Jake Reid",
        "rank": 23655,
        "rank_sort": 23778,
        "total": 2375
      },
      {
        "club_badge_src": null,
        "entry": 4815276,
        "entry_name": "The Wirtz Of Times",
        "event_total": 72,
        "has_played": true,
        "id": 37078852,
        "last_rank": 38571,
        "player_name": "Rob Hedley",
        "rank": 23655,
        "rank_sort": 23779,
        "total": 2375
      },
      {
        "club_badge_src": null,
        "entry": 4820629,
        "entry_name": "Hulkamania FC",
        "event_total": 54,
        "has_played": true,
        "id": 37122073,
        "last_rank": 20888,
        "player_name": "Finan Johns",
        "rank": 23655,
        "rank_sort": 23780,
        "total": 2375
      },
      {
        "club_badge_src": "https://fantasy.premierleague.com/gcs/plfpl-production-adobe-approved/plfpl-production/4831244/90cc63d3-30f0-4af2-a8db-1969703d0140.png",
        "entry": 4831244,
        "entry_name": "Terminator",
        "event_total": 58,
        "has_played": true,
        "id": 37210290,
        "last_rank": 24143,
        "player_name": "Mohammad Hussein",
        "rank": 23655,
        "rank_sort": 23781,
        "total": 2375
      },
      {
        "club_badge_src": null,
        "entry": 4880330,
        "entry_name": "Beef Cherki",
        "event_total": 75,
        "has_played": true,
        "id": 37621265,
        "last_rank": 37344,
        "player_name": "Sabreen Elbakri",
        "rank": 23655,
        "rank_sort": 23782,
        "total": 2375
      },
      {
        "club_badge_src": null,
        "entry": 5025704,
        "entry_name": "Hump's Heroes 3.0",
        "event_total": 58,
        "has_played": true,
        "id": 38814646,
        "last_rank": 23965,
        "player_name": "Tom Humphries",
        "rank": 23655,
        "rank_sort": 23783,
        "total": 2375
      },
      {
        "club_badge_src": null,
        "entry": 5059175,
        "entry_name": "Delap of honour",
        "event_total": 68,
        "has_played": true,
        "id": 39092858,
        "last_rank": 34051,
        "player_name": "Tyler Weed",
        "rank": 23655,
        "rank_sort": 23784,
        "total": 2375
      },
      {
        "club_badge_src": null,
        "entry": 5115613,
        "entry_name": "No Messi-ing Around",
        "event_total": 58,
        "has_played": true,
        "id": 39550145,
        "last_rank": 24143,
        "player_name": "Mitchell Winter",
        "rank": 23655,
        "rank_sort": 23785,
        "total": 2375
      },
      {
        "club_badge_src": null,
        "entry": 5156237,
        "entry_name": "Eternals",
        "event_total": 61,
        "has_played": true,
        "id": 39896113,
        "last_rank": 26710,
        "player_name": "Harsh Pandey",
        "rank": 23655,
        "rank_sort": 23786,
        "total": 2375
      },
      {
        "club_badge_src": null,
        "entry": 5228913,
        "entry_name": "The A Team",
        "event_total": 77,
        "has_played": true,
        "id": 40517980,
        "last_rank": 39874,
        "player_name": "Omar Atta",
        "rank": 23655,
        "rank_sort": 23787,
        "total": 2375
      },
      {
        "club_badge_src": null,
        "entry": 5307983,
        "entry_name": "MNA",
        "event_total": 64,
        "has_played": true,
        "id": 41145387,
        "last_rank": 29578,
        "player_name": "Muhammad Noor Aliyas",
        "rank": 23655,
        "rank_sort": 23788,
        "total": 2375
      },
      {
        "club_badge_src": null,
        "entry": 5346799,
        "entry_name": "Cole Parmo",
        "event_total": 53,
        "has_played": true,
        "id": 41488652,
        "last_rank": 20147,
        "player_name": "Rachael Futo",
        "rank": 23655,
        "rank_sort": 23789,
        "total": 2375
      },
      {
        "club_badge_src": null,
        "entry": 5366837,
        "entry_name": "albinhop06",
        "event_total": 62,
        "has_played": true,
        "id": 41694091,
        "last_rank": 27644,
        "player_name": "Albin Hermansson",
        "rank": 23655,
        "rank_sort": 23790,
        "total": 2375
      },
      {
        "club_badge_src": null,
        "entry": 5587700,
        "entry_name": "wandys team",
        "event_total": 84,
        "has_played": true,
        "id": 43650054,
        "last_rank": 56180,
        "player_name": "Will Andrews",
        "rank": 23655,
        "rank_sort": 23791,
        "total": 2375
      },
      {
        "club_badge_src": "https://fantasy.premierleague.com/gcs/plfpl-production-adobe-approved/plfpl-production/5672614/4150e04b-af1c-46d1-b55d-fe4d50cd0b3e.png",
        "entry": 5672614,
        "entry_name": "The Dark City",
        "event_total": 79,
        "has_played": true,
        "id": 44391430,
        "last_rank": 48363,
        "player_name": "Emad Mohamed",
        "rank": 23655,
        "rank_sort": 23792,
        "total": 2375
      },
      {
        "club_badge_src": null,
        "entry": 5691918,
        "entry_name": "Tibou Em Fc",
        "event_total": 80,
        "has_played": true,
        "id": 44558360,
        "last_rank": 49691,
        "player_name": "Barry Em",
        "rank": 23655,
        "rank_sort": 23793,
        "total": 2375
      },
      {
        "club_badge_src": null,
        "entry": 5754977,
        "entry_name": "Beliteam",
        "event_total": 50,
        "has_played": true,
        "id": 45110117,
        "last_rank": 18029,
        "player_name": "Nedzad Fakic",
        "rank": 23655,
        "rank_sort": 23794,
        "total": 2375
      },
      {
        "club_badge_src": null,
        "entry": 5792765,
        "entry_name": "The Johnstons",
        "event_total": 50,
        "has_played": true,
        "id": 45435973,
        "last_rank": 18113,
        "player_name": "Paul Cronin",
        "rank": 23655,
        "rank_sort": 23795,
        "total": 2375
      },
      {
        "club_badge_src": null,
        "entry": 6154681,
        "entry_name": "The Zany XI",
        "event_total": 61,
        "has_played": true,
        "id": 48653306,
        "last_rank": 26710,
        "player_name": "Xander Verplancke",
        "rank": 23655,
        "rank_sort": 23796,
        "total": 2375
      },
      {
        "club_badge_src": null,
        "entry": 6235236,
        "entry_name": "LexyWinsFpl",
        "event_total": 67,
        "has_played": true,
        "id": 49348421,
        "last_rank": 32751,
        "player_name": "Alexis Canter",
        "rank": 23655,
        "rank_sort": 23797,
        "total": 2375
      },
      {
        "club_badge_src": null,
        "entry": 6374929,
        "entry_name": "HaCunha Mateta",
        "event_total": 58,
        "has_played": true,
        "id": 50697423,
        "last_rank": 24143,
        "player_name": "Rhys Hawkins",
        "rank": 23655,
        "rank_sort": 23798,
        "total": 2375
      },
      {
        "club_badge_src": null,
        "entry": 6427699,
        "entry_name": "Acca Dacca Atacca",
        "event_total": 62,
        "has_played": true,
        "id": 51165323,
        "last_rank": 27770,
        "player_name": "Francisco Gomes",
        "rank": 23655,
        "rank_sort": 23799,
        "total": 2375
      },
      {
        "club_badge_src": null,
        "entry": 6446219,
        "entry_name": "Cherki Dinner",
        "event_total": 38,
        "has_played": true,
        "id": 51328907,
        "last_rank": 11175,
        "player_name": "Tom Wiggetts",
        "rank": 23655,
        "rank_sort": 23800,
        "total": 2375
      }
    ]
  }
}