{
  "last_updated_data": "2026-05-24T23:28:17Z",
  "league": {
    "admin_entry": null,
    "closed": false,
    "code_privacy": "p",
    "created": "2025-07-20T23:14:33.933835Z",
    "cup_league": 2815434,
    "has_cup": true,
    "id": 314,
    "league_type": "s",
    "max_entries": null,
    "name": "Overall",
    "rank": null,
    "scoring": "c",
    "start_event": 1
  },
  "new_entries": {
    "has_next": false,
    "page": 1,
    "results": []
  },
  "standings": {
    "has_next": true,
    "page": 1199,
    "results": [
      {
        "club_badge_src": null,
        "entry": 1528427,
        "entry_name": "Calculated Risk FC",
        "event_total": 70,
        "has_played": true,
        "id": 10662286,
        "last_rank": 87074,
        "player_name": "Jonathan Tan",
        "rank": 59812,
        "rank_sort": 59901,
        "total": 2346
      },
      {
        "club_badge_src": null,
        "entry": 1533542,
        "entry_name": "Farke the Bus",
        "event_total": 61,
        "has_played": true,
        "id": 10701791,
        "last_rank": 67695,
        "player_name": "Tom Norman",
        "rank": 59812,
        "rank_sort": 59902,
        "total": 2346
      },
      {
        "club_badge_src": null,
        "entry": 1586696,
        "entry_name": "Aidan's Allstars",
        "event_total": 60,
        "has_played": true,
        "id": 11092533,
        "last_rank": 65796,
        "player_name": "Aidan Curwen",
        "rank": 59812,
        "rank_sort": 59903,
        "total": 2346
      },
      {
        "club_badge_src": null,
        "entry": 1651962,
        "entry_name": "Dapson fc 2",
        "event_total": 61,
        "has_played": true,
        "id": 11565571,
        "last_rank": 67695,
        "player_name": "Dapson Switch",
        "rank": 59812,
        "rank_sort": 59904,
        "total": 2346
      },
      {
        "club_badge_src": null,
        "entry": 1722002,
        "entry_name": "The Salahmanders",
        "event_total": 61,
        "has_played": true,
        "id": 12069611,
        "last_rank": 67926,
        "player_name": "Eddie Rawle",
        "rank": 59812,
        "rank_sort": 59905,
        "total": 2346
      },
      {
        "club_badge_src": null,
        "entry": 1825334,
        "entry_name": "Viktorious Secret",
        "event_total": 51,
        "has_played": true,
        "id": 12838438,
        "last_rank": 44525,
        "player_name": "Sanjay Shah",
        "rank": 59812,
        "rank_sort": 59906,
        "total": 2346
      },
      {
        "club_badge_src": null,
        "entry": 1845387,
        "entry_name": "Gabriel Fartnsmelli",
        "event_total": 45,
        "has_played": true,
        "id": 12984300,
        "last_rank": 41967,
        "player_name": "Callum MacPhee",
        "rank": 59812,
        "rank_sort": 59907,
        "total": 2346
      },
      {
        "club_badge_src": null,
        "entry": 1861450,
        "entry_name": "Al Hariffa",
        "event_total": 67,
        "has_played": true,
        "id": 13101542,
        "last_rank": 80465,
        "player_name": "Ahmed Abdelgalil",
        "rank": 59812,
        "rank_sort": 59908,
        "total": 2346
      },
      {
        "club_badge_src": null,
        "entry": 1883845,
        "entry_name": "\u0161ampioni",
        "event_total": 51,
        "has_played": true,
        "id": 13273971,
        "last_rank": 50468,
        "player_name": "Bogdan Jocic",
        "rank": 59812,
        "rank_sort": 59909,
        "total": 2346
      },
      {
        "club_badge_src": null,
        "entry": 1999340,
        "entry_name": "Tette",
        "event_total": 43,
        "has_played": true,
        "id": 14131954,
        "last_rank": 34458,
        "player_name": "Argiris Tetteris",
        "rank": 59812,
        "rank_sort": 59910,
        "total": 2346
      },
      {
        "club_badge_src": null,
        "entry": 2025096,
        "entry_name": "WhatsDeStoryCalafori",
        "event_total": 69,
        "has_played": true,
        "id": 14332464,
        "last_rank": 84980,
        "player_name": "Brian Gallagher",
        "rank": 59812,
        "rank_sort": 59911,
        "total": 2346
      },
      {
        "club_badge_src": "https://fantasy.premierleague.com/gcs/plfpl-production-adobe-approved/plfpl-production/2095801/30f39bf1-371c-4e44-94d7-55a4f51de338.png",
        "entry": 2095801,
        "entry_name": "Wirtz Case Scenario",
        "event_total": 61,
        "has_played": true,
        "id": 14870037,
        "last_rank": 53345,
        "player_name": "Megan Roper",
        "rank": 59812,
        "rank_sort": 59912,
        "total": 2346
      },
      {
        "club_badge_src": null,
        "entry": 2192848,
        "entry_name": "Yes nDidi FC",
        "event_total": 60,
        "has_played": true,
        "id": 15601630,
        "last_rank": 65796,
        "player_name": "Daniel Lacey",
        "rank": 59812,
        "rank_sort": 59913,
        "total": 2346
      },
      {
        "club_badge_src": "https://fantasy.premierleague.com/gcs/plfpl-production-adobe-approved/plfpl-production/2257369/948f24e2-81f6-435f-9f7b-4af9bc69c3a1.png",
        "entry": 2257369,
        "entry_name": "Eagle Heights FC",
        "event_total": 69,
        "has_played": true,
        "id": 16092370,
        "last_rank": 75537,
        "player_name": "Adom Nuamah",
        "rank": 59812,
        "rank_sort": 59914,
        "total": 2346
      },
      {
        "club_badge_src": null,
        "entry": 2287665,
        "entry_name": "HAMSTERinDAwhip",
        "event_total": 60,
        "has_played": true,
        "id": 16315031,
        "last_rank": 58688,
        "player_name": "kamran lawrence",
        "rank": 59812,
        "rank_sort": 59915,
        "total": 2346
      },
      {
        "club_badge_src": "https://fantasy.premierleague.com/gcs/plfpl-production-adobe-approved/plfpl-production/2339263/599d09ae-595c-41ea-ae99-7181aa08023c.png",
        "entry": 2339263,
        "entry_name": "Lion o'Island 87",
        "event_total": 44,
        "has_played": true,
        "id": 16691254,
        "last_rank": 40647,
        "player_name": "Marcel Albuquerque",
        "rank": 59812,
        "rank_sort": 59916,
        "total": 2346
      },
      {
        "club_badge_src": null,
        "entry": 2356550,
        "entry_name": "No more blanks",
        "event_total": 64,
        "has_played": true,
        "id": 16815104,
        "last_rank": 65796,
        "player_name": "Sam Leung",
        "rank": 59812,
        "rank_sort": 59917,
        "total": 2346
      },
      {
        "club_badge_src": null,
        "entry": 2501686,
        "entry_name": "Bruno Dos Tres",
        "event_total": 68,
        "has_played": true,
        "id": 17913381,
        "last_rank": 82664,
        "player_name": "Cian Taylor",
        "rank": 59812,
        "rank_sort": 59918,
        "total": 2346
      },
      {
        "club_badge_src": "https://fantasy.premierleague.com/gcs/plfpl-production-adobe-approved/plfpl-production/2564298/248cf2fd-0850-40f8-b7aa-0f4183c59c0c.png",
        "entry": 2564298,
        "entry_name": "Sambal",
        "event_total": 55,
        "has_played": true,
        "id": 18393278,
        "last_rank": 57200,
        "player_name": "Sam Silvrants",
        "rank": 59812,
        "rank_sort": 59919,
        "total": 2346
      },
      {
        "club_badge_src": null,
        "entry": 2631377,
        "entry_name": "Spurminator",
        "event_total": 49,
        "has_played": true,
        "id": 18910905,
        "last_rank": 47596,
        "player_name": "Henning Christensen",
        "rank": 59812,
        "rank_sort": 59920,
        "total": 2346
      },
      {
        "club_badge_src": null,
        "entry": 2636752,
        "entry_name": "California Calamari",
        "event_total": 53,
        "has_played": true,
        "id": 18950405,
        "last_rank": 47417,
        "player_name": "Prakhar Chandra",
        "rank": 59812,
        "rank_sort": 59921,
        "total": 2346
      },
      {
        "club_badge_src": null,
        "entry": 2712826,
        "entry_name": "Mr Flik shot",
        "event_total": 56,
        "has_played": true,
        "id": 19518444,
        "last_rank": 51984,
        "player_name": "Abdo Yasser",
        "rank": 59812,
        "rank_sort": 59922,
        "total": 2346
      },
      {
        "club_badge_src": null,
        "entry": 2758641,
        "entry_name": "Mind the Gap",
        "event_total": 57,
        "has_played": true,
        "id": 20118133,
        "last_rank": 60168,
        "player_name": "Tom Norton",
        "rank": 59812,
        "rank_sort": 59923,
        "total": 2346
      },
      {
        "club_badge_src": null,
        "entry": 2775415,
        "entry_name": "ROSHAN11",
        "event_total": 68,
        "has_played": true,
        "id": 20254101,
        "last_rank": 82069,
        "player_name": "Roshan Karki",
        "rank": 59812,
        "rank_sort": 59924,
        "total": 2346
      },
      {
        "club_badge_src": null,
        "entry": 2853781,
        "entry_name": "cooldude",
        "event_total": 74,
        "has_played": true,
        "id": 20866768,
        "last_rank": 96777,
        "player_name": "Jack Kobain",
        "rank": 59812,
        "rank_sort": 59925,
        "total": 2346
      },
      {
        "club_badge_src": null,
        "entry": 3004644,
        "entry_name": "Palmer-Sutra",
        "event_total": 61,
        "has_played": true,
        "id": 22101401,
        "last_rank": 67926,
        "player_name": "Bruce Keltie",
        "rank": 59812,
        "rank_sort": 59926,
        "total": 2346
      },
      {
        "club_badge_src": "https://fantasy.premierleague.com/gcs/plfpl-production-adobe-approved/plfpl-production/3097447/cd52829e-3928-459d-9ae5-13b71d7b2c09.png",
        "entry": 3097447,
        "entry_name": "CD Cannavis",
        "event_total": 46,
        "has_played": true,
        "id": 22829301,
        "last_rank": 43342,
        "player_name": "Nicol\u00e1s Cannav\u00f3",
        "rank": 59812,
        "rank_sort": 59927,
        "total": 2346
      },
      {
        "club_badge_src": null,
        "entry": 3132640,
        "entry_name": "The Originals 1878",
        "event_total": 62,
        "has_played": true,
        "id": 23122796,
        "last_rank": 69907,
        "player_name": "Phil Reece",
        "rank": 59812,
        "rank_sort": 59928,
        "total": 2346
      },
      {
        "club_badge_src": null,
        "entry": 3141878,
        "entry_name": "van de Kj\u00e6rast",
        "event_total": 66,
        "has_played": true,
        "id": 23195951,
        "last_rank": 69323,
        "player_name": "H\u00e5vard Tveit",
        "rank": 59812,
        "rank_sort": 59929,
        "total": 2346
      },
      {
        "club_badge_src": null,
        "entry": 3265377,
        "entry_name": "A.Yeptho",
        "event_total": 72,
        "has_played": true,
        "id": 24162415,
        "last_rank": 91835,
        "player_name": "anguka yeptho",
        "rank": 59812,
        "rank_sort": 59930,
        "total": 2346
      },
      {
        "club_badge_src": "https://fantasy.premierleague.com/gcs/plfpl-production-adobe-approved/plfpl-production/3286460/53fc8b6a-b87e-41d2-b598-dfde6c04f91e.png",
        "entry": 3286460,
        "entry_name": "Sigmaboi",
        "event_total": 66,
        "has_played": true,
        "id": 24328815,
        "last_rank": 78244,
        "player_name": "Ziggy McAleavy",
        "rank": 59812,
        "rank_sort": 59931,
        "total": 2346
      },
      {
        "club_badge_src": null,
        "entry": 3327314,
        "entry_name": "Obi Wan Kenobi Nil",
        "event_total": 41,
        "has_played": true,
        "id": 24668491,
        "last_rank": 36963,
        "player_name": "Cameron Allen",
        "rank": 59812,
        "rank_sort": 59932,
        "total": 2346
      },
      {
        "club_badge_src": null,
        "entry": 3385221,
        "entry_name": "Badragon",
        "event_total": 73,
        "has_played": true,
        "id": 25129699,
        "last_rank": 94778,
        "player_name": "Ahmad Badran",
        "rank": 59812,
        "rank_sort": 59933,
        "total": 2346
      },
      {
        "club_badge_src": null,
        "entry": 3430062,
        "entry_name": "Dalry County",
        "event_total": 63,
        "has_played": true,
        "id": 25480452,
        "last_rank": 71956,
        "player_name": "Anthony Jolliffe",
        "rank": 59812,
        "rank_sort": 59934,
        "total": 2346
      },
      {
        "club_badge_src": "https://fantasy.premierleague.com/gcs/plfpl-production-adobe-approved/plfpl-production/3443753/63f254a7-237f-4737-ad56-6d34eef2b8f3.png",
        "entry": 3443753,
        "entry_name": "Paella Boyz",
        "event_total": 55,
        "has_played": true,
        "id": 25586207,
        "last_rank": 57200,
        "player_name": "Levan Tsulaia",
        "rank": 59812,
        "rank_sort": 59935,
        "total": 2346
      },
      {
        "club_badge_src": null,
        "entry": 3451628,
        "entry_name": "Wilson 11",
        "event_total": 68,
        "has_played": true,
        "id": 25650431,
        "last_rank": 73423,
        "player_name": "Kieran Wilson",
        "rank": 59812,
        "rank_sort": 59936,
        "total": 2346
      },
      {
        "club_badge_src": null,
        "entry": 3512693,
        "entry_name": "Armatki",
        "event_total": 36,
        "has_played": true,
        "id": 26137782,
        "last_rank": 31309,
        "player_name": "Pawel Bajon",
        "rank": 59812,
        "rank_sort": 59937,
        "total": 2346
      },
      {
        "club_badge_src": null,
        "entry": 3581769,
        "entry_name": "Granan",
        "event_total": 54,
        "has_played": true,
        "id": 26672979,
        "last_rank": 55514,
        "player_name": "Henke G",
        "rank": 59812,
        "rank_sort": 59938,
        "total": 2346
      },
      {
        "club_badge_src": null,
        "entry": 3584156,
        "entry_name": "Teagan",
        "event_total": 65,
        "has_played": true,
        "id": 26691355,
        "last_rank": 75874,
        "player_name": "Teagan Torrey",
        "rank": 59812,
        "rank_sort": 59939,
        "total": 2346
      },
      {
        "club_badge_src": null,
        "entry": 3695628,
        "entry_name": "Spirit of the Booze",
        "event_total": 84,
        "has_played": true,
        "id": 27571448,
        "last_rank": 112169,
        "player_name": "Jack Palmer",
        "rank": 59812,
        "rank_sort": 59940,
        "total": 2346
      },
      {
        "club_badge_src": null,
        "entry": 4148213,
        "entry_name": "Dreams Can't Be Buy",
        "event_total": 69,
        "has_played": true,
        "id": 31353067,
        "last_rank": 75874,
        "player_name": "Bret Matera",
        "rank": 59812,
        "rank_sort": 59941,
        "total": 2346
      },
      {
        "club_badge_src": null,
        "entry": 4409249,
        "entry_name": "Shefs Shamrocks",
        "event_total": 50,
        "has_played": true,
        "id": 33540076,
        "last_rank": 49078,
        "player_name": "Sharief O'Connor",
        "rank": 59812,
        "rank_sort": 59942,
        "total": 2346
      },
      {
        "club_badge_src": null,
        "entry": 4636308,
        "entry_name": "AA11",
        "event_total": 66,
        "has_played": true,
        "id": 35454957,
        "last_rank": 78244,
        "player_name": "Abdullah Alharbi",
        "rank": 59812,
        "rank_sort": 59943,
        "total": 2346
      },
      {
        "club_badge_src": null,
        "entry": 4645212,
        "entry_name": "Charli xGx",
        "event_total": 72,
        "has_played": true,
        "id": 35533413,
        "last_rank": 65163,
        "player_name": "Alex Storey",
        "rank": 59812,
        "rank_sort": 59944,
        "total": 2346
      },
      {
        "club_badge_src": null,
        "entry": 4766704,
        "entry_name": "NoMoreMr.NiceGueye",
        "event_total": 72,
        "has_played": true,
        "id": 36686294,
        "last_rank": 82069,
        "player_name": "Zac Evans",
        "rank": 59812,
        "rank_sort": 59945,
        "total": 2346
      },
      {
        "club_badge_src": null,
        "entry": 4810671,
        "entry_name": "FC Kopstootje",
        "event_total": 56,
        "has_played": true,
        "id": 37041731,
        "last_rank": 51984,
        "player_name": "Taco Grondsma",
        "rank": 59812,
        "rank_sort": 59946,
        "total": 2346
      },
      {
        "club_badge_src": null,
        "entry": 4950739,
        "entry_name": "Super Bock",
        "event_total": 48,
        "has_played": true,
        "id": 38200902,
        "last_rank": 45927,
        "player_name": "Adrian Wright",
        "rank": 59812,
        "rank_sort": 59947,
        "total": 2346
      },
      {
        "club_badge_src": null,
        "entry": 4987562,
        "entry_name": "Philsquad",
        "event_total": 64,
        "has_played": true,
        "id": 38504254,
        "last_rank": 65796,
        "player_name": "Phillip Wisdom",
        "rank": 59812,
        "rank_sort": 59948,
        "total": 2346
      },
      {
        "club_badge_src": null,
        "entry": 5007274,
        "entry_name": "It's Complicated XI",
        "event_total": 31,
        "has_played": true,
        "id": 38665913,
        "last_rank": 26345,
        "player_name": "Archie Avery",
        "rank": 59812,
        "rank_sort": 59949,
        "total": 2346
      },
      {
        "club_badge_src": null,
        "entry": 5036520,
        "entry_name": "A C  Minia",
        "event_total": 70,
        "has_played": true,
        "id": 38901981,
        "last_rank": 87074,
        "player_name": "Ali Galal",
        "rank": 59812,
        "rank_sort": 59950,
        "total": 2346
      }
    ]
  }
}