{
  "last_updated_data": "2026-05-24T23:28:17Z",
  "league": {
    "admin_entry": null,
    "closed": false,
    "code_privacy": "p",
    "created": "2025-07-20T23:14:33.933835Z",
    "cup_league": 2815434,
    "has_cup": true,
    "id": 314,
    "league_type": "s",
    "max_entries": null,
    "name": "Overall",
    "rank": null,
    "scoring": "c",
    "start_event": 1
  },
  "new_entries": {
    "has_next": false,
    "page": 1,
    "results": []
  },
  "standings": {
    "has_next": true,
    "page": 521,
    "results": [
      {
        "club_badge_src": null,
        "entry": 514915,
        "entry_name": "arman",
        "event_total": 45,
        "has_played": true,
        "id": 3457284,
        "last_rank": 16639,
        "player_name": "Arman Yousif",
        "rank": 25997,
        "rank_sort": 26001,
        "total": 2373
      },
      {
        "club_badge_src": "https://fantasy.premierleague.com/gcs/plfpl-production-adobe-approved/plfpl-production/823242/ca8255ec-9bed-451a-8079-f3cc7dc0bd60.png",
        "entry": 823242,
        "entry_name": "Salah Seleem",
        "event_total": 70,
        "has_played": true,
        "id": 5638218,
        "last_rank": 30325,
        "player_name": "Salah Seleem",
        "rank": 25997,
        "rank_sort": 26002,
        "total": 2373
      },
      {
        "club_badge_src": null,
        "entry": 1944901,
        "entry_name": "amigos",
        "event_total": 61,
        "has_played": true,
        "id": 13719123,
        "last_rank": 25613,
        "player_name": "Marwan Sallam",
        "rank": 25997,
        "rank_sort": 26003,
        "total": 2373
      },
      {
        "club_badge_src": null,
        "entry": 2509051,
        "entry_name": "Sesko club card",
        "event_total": 66,
        "has_played": true,
        "id": 17969341,
        "last_rank": 30395,
        "player_name": "Endaf Owens",
        "rank": 25997,
        "rank_sort": 26004,
        "total": 2373
      },
      {
        "club_badge_src": null,
        "entry": 2631687,
        "entry_name": "Big Trifle Energy",
        "event_total": 54,
        "has_played": true,
        "id": 18913227,
        "last_rank": 23101,
        "player_name": "Tim Gardner",
        "rank": 25997,
        "rank_sort": 26005,
        "total": 2373
      },
      {
        "club_badge_src": null,
        "entry": 2902390,
        "entry_name": "stay humble eh?",
        "event_total": 53,
        "has_played": true,
        "id": 21269382,
        "last_rank": 19318,
        "player_name": "Vinesh Chavda",
        "rank": 25997,
        "rank_sort": 26006,
        "total": 2373
      },
      {
        "club_badge_src": null,
        "entry": 4591404,
        "entry_name": "Talent in da house",
        "event_total": 43,
        "has_played": true,
        "id": 35060997,
        "last_rank": 15356,
        "player_name": "Skirmantas Tomkevicius",
        "rank": 25997,
        "rank_sort": 26007,
        "total": 2373
      },
      {
        "club_badge_src": null,
        "entry": 4827007,
        "entry_name": "This is too Eze",
        "event_total": 68,
        "has_played": true,
        "id": 37175714,
        "last_rank": 37236,
        "player_name": "Chad Jackson",
        "rank": 25997,
        "rank_sort": 26008,
        "total": 2373
      },
      {
        "club_badge_src": null,
        "entry": 4971756,
        "entry_name": "MFC",
        "event_total": 75,
        "has_played": true,
        "id": 38374967,
        "last_rank": 40878,
        "player_name": "Mark Steele",
        "rank": 25997,
        "rank_sort": 26009,
        "total": 2373
      },
      {
        "club_badge_src": null,
        "entry": 5550327,
        "entry_name": "HakunaMitoma",
        "event_total": 62,
        "has_played": true,
        "id": 43318251,
        "last_rank": 26541,
        "player_name": "Jamie Ellwood",
        "rank": 25997,
        "rank_sort": 26010,
        "total": 2373
      },
      {
        "club_badge_src": "https://fantasy.premierleague.com/gcs/plfpl-production-adobe-approved/plfpl-production/6317784/d78ff297-3263-4af2-8468-8460ff8098be.png",
        "entry": 6317784,
        "entry_name": "Scew Crew",
        "event_total": 75,
        "has_played": true,
        "id": 50145570,
        "last_rank": 46432,
        "player_name": "Nick Tuzov",
        "rank": 25997,
        "rank_sort": 26011,
        "total": 2373
      },
      {
        "club_badge_src": null,
        "entry": 95769,
        "entry_name": "Fr\u00f8ysland FC",
        "event_total": 62,
        "has_played": true,
        "id": 625679,
        "last_rank": 26554,
        "player_name": "Odin Fr\u00f8ysland",
        "rank": 26012,
        "rank_sort": 26012,
        "total": 2373
      },
      {
        "club_badge_src": null,
        "entry": 512876,
        "entry_name": "GT 1",
        "event_total": 55,
        "has_played": true,
        "id": 3443792,
        "last_rank": 23919,
        "player_name": "Garry T.",
        "rank": 26012,
        "rank_sort": 26013,
        "total": 2373
      },
      {
        "club_badge_src": null,
        "entry": 1121606,
        "entry_name": "Ayew Serious?",
        "event_total": 61,
        "has_played": true,
        "id": 7770429,
        "last_rank": 25633,
        "player_name": "Vladislav Kryuchkov",
        "rank": 26012,
        "rank_sort": 26014,
        "total": 2373
      },
      {
        "club_badge_src": null,
        "entry": 1211966,
        "entry_name": "WirtzDStoryMornGlory",
        "event_total": 60,
        "has_played": true,
        "id": 8412222,
        "last_rank": 24735,
        "player_name": "Gerry Boyle",
        "rank": 26012,
        "rank_sort": 26015,
        "total": 2373
      },
      {
        "club_badge_src": null,
        "entry": 1573899,
        "entry_name": "El Jefe\u2019s dealers",
        "event_total": 62,
        "has_played": true,
        "id": 10997706,
        "last_rank": 30433,
        "player_name": "Nnamdi Vincent-Otiono",
        "rank": 26012,
        "rank_sort": 26016,
        "total": 2373
      },
      {
        "club_badge_src": null,
        "entry": 2188776,
        "entry_name": "Back of the Neto",
        "event_total": 61,
        "has_played": true,
        "id": 15571192,
        "last_rank": 22309,
        "player_name": "Ben Wash",
        "rank": 26012,
        "rank_sort": 26017,
        "total": 2373
      },
      {
        "club_badge_src": null,
        "entry": 2602526,
        "entry_name": "I've seen THEM given",
        "event_total": 63,
        "has_played": true,
        "id": 18692603,
        "last_rank": 31459,
        "player_name": "Ken Royall",
        "rank": 26012,
        "rank_sort": 26018,
        "total": 2373
      },
      {
        "club_badge_src": null,
        "entry": 2603245,
        "entry_name": "nobby's nuts",
        "event_total": 63,
        "has_played": true,
        "id": 18698613,
        "last_rank": 27480,
        "player_name": "Andrew Stewart",
        "rank": 26012,
        "rank_sort": 26019,
        "total": 2373
      },
      {
        "club_badge_src": null,
        "entry": 3667636,
        "entry_name": "S\u00e3o Powello FC",
        "event_total": 50,
        "has_played": true,
        "id": 27352544,
        "last_rank": 17265,
        "player_name": "Lewis Powell",
        "rank": 26012,
        "rank_sort": 26020,
        "total": 2373
      },
      {
        "club_badge_src": null,
        "entry": 6504379,
        "entry_name": "Count Doku",
        "event_total": 59,
        "has_played": true,
        "id": 51860797,
        "last_rank": 27499,
        "player_name": "Earl Pelicia",
        "rank": 26012,
        "rank_sort": 26021,
        "total": 2373
      },
      {
        "club_badge_src": "https://fantasy.premierleague.com/gcs/plfpl-production-adobe-approved/plfpl-production/6337/8c59e17b-ad81-41df-8cf6-d603bbe9c978.png",
        "entry": 6337,
        "entry_name": "\u0106wiara z R\u00f3\u017calem",
        "event_total": 64,
        "has_played": true,
        "id": 36340,
        "last_rank": 28476,
        "player_name": "Przemyslaw Ostrowski",
        "rank": 26022,
        "rank_sort": 26022,
        "total": 2373
      },
      {
        "club_badge_src": "https://fantasy.premierleague.com/gcs/plfpl-production-adobe-approved/plfpl-production/396936/c5447752-9654-4936-96f2-12a936a9004b.png",
        "entry": 396936,
        "entry_name": "\u062d\u0645\u0648\u0643\u0634\u0647",
        "event_total": 59,
        "has_played": true,
        "id": 2661752,
        "last_rank": 27499,
        "player_name": "Maro Mohamed",
        "rank": 26022,
        "rank_sort": 26023,
        "total": 2373
      },
      {
        "club_badge_src": null,
        "entry": 867774,
        "entry_name": "kajaeb",
        "event_total": 68,
        "has_played": true,
        "id": 5949334,
        "last_rank": 37264,
        "player_name": "Punya Insa-ardpon",
        "rank": 26022,
        "rank_sort": 26024,
        "total": 2373
      },
      {
        "club_badge_src": null,
        "entry": 4383418,
        "entry_name": "Dead Awake \ufffd",
        "event_total": 51,
        "has_played": true,
        "id": 33316920,
        "last_rank": 20782,
        "player_name": "mohamed alrihema",
        "rank": 26022,
        "rank_sort": 26025,
        "total": 2373
      },
      {
        "club_badge_src": null,
        "entry": 6297771,
        "entry_name": "w53",
        "event_total": 67,
        "has_played": true,
        "id": 49918316,
        "last_rank": 31459,
        "player_name": "alwaqas alfazari",
        "rank": 26022,
        "rank_sort": 26026,
        "total": 2373
      },
      {
        "club_badge_src": null,
        "entry": 8568127,
        "entry_name": "Gun",
        "event_total": 52,
        "has_played": true,
        "id": 71293162,
        "last_rank": 21569,
        "player_name": "Habtamu Semeneh",
        "rank": 26022,
        "rank_sort": 26027,
        "total": 2373
      },
      {
        "club_badge_src": null,
        "entry": 87636,
        "entry_name": "KinkyPressureFc ****",
        "event_total": 55,
        "has_played": true,
        "id": 571570,
        "last_rank": 20790,
        "player_name": "David Buckley",
        "rank": 26028,
        "rank_sort": 26028,
        "total": 2373
      },
      {
        "club_badge_src": null,
        "entry": 1407267,
        "entry_name": "Pink Lemonade",
        "event_total": 61,
        "has_played": true,
        "id": 9791792,
        "last_rank": 19332,
        "player_name": "Adam Gregersen",
        "rank": 26028,
        "rank_sort": 26029,
        "total": 2373
      },
      {
        "club_badge_src": "https://fantasy.premierleague.com/gcs/plfpl-production-adobe-approved/plfpl-production/572663/140b7ccd-558a-478f-880e-9dfab4a37dfe.png",
        "entry": 572663,
        "entry_name": "\u2664",
        "event_total": 60,
        "has_played": true,
        "id": 3854054,
        "last_rank": 28485,
        "player_name": "Bj\u00f8rnar Bergan",
        "rank": 26030,
        "rank_sort": 26030,
        "total": 2373
      },
      {
        "club_badge_src": null,
        "entry": 876615,
        "entry_name": "Stranger Mings",
        "event_total": 53,
        "has_played": true,
        "id": 6010069,
        "last_rank": 19345,
        "player_name": "Fraser Carswell",
        "rank": 26030,
        "rank_sort": 26031,
        "total": 2373
      },
      {
        "club_badge_src": null,
        "entry": 5302020,
        "entry_name": "Saka potatoes",
        "event_total": 55,
        "has_played": true,
        "id": 41098893,
        "last_rank": 23944,
        "player_name": "Mark Bird",
        "rank": 26030,
        "rank_sort": 26032,
        "total": 2373
      },
      {
        "club_badge_src": null,
        "entry": 192157,
        "entry_name": "Saka'n these Nutz",
        "event_total": 55,
        "has_played": true,
        "id": 1273079,
        "last_rank": 23945,
        "player_name": "Tord Bredal",
        "rank": 26033,
        "rank_sort": 26033,
        "total": 2373
      },
      {
        "club_badge_src": "https://fantasy.premierleague.com/gcs/plfpl-production-adobe-approved/plfpl-production/756892/55489610-4c7d-42e9-b5a1-adfe9ee46e08.png",
        "entry": 756892,
        "entry_name": "Nute G\u00fcn(dogan)ray",
        "event_total": 53,
        "has_played": true,
        "id": 5153176,
        "last_rank": 16659,
        "player_name": "George Vivian",
        "rank": 26034,
        "rank_sort": 26034,
        "total": 2373
      },
      {
        "club_badge_src": null,
        "entry": 2049816,
        "entry_name": "El-3wagez 3\ufffd\ufffd\ufffd",
        "event_total": 52,
        "has_played": true,
        "id": 14518471,
        "last_rank": 21578,
        "player_name": "Abdullah Gebril",
        "rank": 26034,
        "rank_sort": 26035,
        "total": 2373
      },
      {
        "club_badge_src": null,
        "entry": 2775401,
        "entry_name": "Ali bennoua",
        "event_total": 44,
        "has_played": true,
        "id": 20253972,
        "last_rank": 16017,
        "player_name": "Alilo Ben",
        "rank": 26034,
        "rank_sort": 26036,
        "total": 2373
      },
      {
        "club_badge_src": null,
        "entry": 458253,
        "entry_name": "Power Reijnders",
        "event_total": 65,
        "has_played": true,
        "id": 3074213,
        "last_rank": 25674,
        "player_name": "Shady Walid",
        "rank": 26037,
        "rank_sort": 26037,
        "total": 2373
      },
      {
        "club_badge_src": null,
        "entry": 3026554,
        "entry_name": "old street veterans",
        "event_total": 44,
        "has_played": true,
        "id": 22269641,
        "last_rank": 16018,
        "player_name": "Kevan Richardson",
        "rank": 26037,
        "rank_sort": 26038,
        "total": 2373
      },
      {
        "club_badge_src": null,
        "entry": 6915678,
        "entry_name": "Polar bear united",
        "event_total": 63,
        "has_played": true,
        "id": 55436171,
        "last_rank": 23948,
        "player_name": "Aoife Moriarty",
        "rank": 26039,
        "rank_sort": 26039,
        "total": 2373
      },
      {
        "club_badge_src": null,
        "entry": 18998,
        "entry_name": "blonde",
        "event_total": 69,
        "has_played": true,
        "id": 118249,
        "last_rank": 33803,
        "player_name": "Michael Ware",
        "rank": 26040,
        "rank_sort": 26040,
        "total": 2373
      },
      {
        "club_badge_src": null,
        "entry": 62189,
        "entry_name": "Pathtonowhere",
        "event_total": 68,
        "has_played": true,
        "id": 400748,
        "last_rank": 32616,
        "player_name": "Tobias Arvidsson",
        "rank": 26040,
        "rank_sort": 26041,
        "total": 2373
      },
      {
        "club_badge_src": null,
        "entry": 3041037,
        "entry_name": "Negroni Rovers",
        "event_total": 63,
        "has_played": true,
        "id": 22383515,
        "last_rank": 27530,
        "player_name": "Phil Guest",
        "rank": 26040,
        "rank_sort": 26042,
        "total": 2373
      },
      {
        "club_badge_src": null,
        "entry": 3146431,
        "entry_name": "Alisson Blunderland",
        "event_total": 62,
        "has_played": true,
        "id": 23232172,
        "last_rank": 30473,
        "player_name": "Ross Carter",
        "rank": 26043,
        "rank_sort": 26043,
        "total": 2373
      },
      {
        "club_badge_src": null,
        "entry": 3603250,
        "entry_name": "Ezellers",
        "event_total": 53,
        "has_played": true,
        "id": 26837905,
        "last_rank": 19352,
        "player_name": "Mark Otis",
        "rank": 26044,
        "rank_sort": 26044,
        "total": 2373
      },
      {
        "club_badge_src": null,
        "entry": 6279300,
        "entry_name": "ThomasTheFrankEngine",
        "event_total": 69,
        "has_played": true,
        "id": 49729545,
        "last_rank": 38508,
        "player_name": "Darren Revill",
        "rank": 26045,
        "rank_sort": 26045,
        "total": 2372
      },
      {
        "club_badge_src": null,
        "entry": 3779885,
        "entry_name": "My Team",
        "event_total": 52,
        "has_played": true,
        "id": 28224667,
        "last_rank": 21584,
        "player_name": "Stephen Macharia",
        "rank": 26046,
        "rank_sort": 26046,
        "total": 2372
      },
      {
        "club_badge_src": null,
        "entry": 3372605,
        "entry_name": "Premium United",
        "event_total": 75,
        "has_played": true,
        "id": 25029383,
        "last_rank": 46513,
        "player_name": "Keith Holland",
        "rank": 26047,
        "rank_sort": 26047,
        "total": 2372
      },
      {
        "club_badge_src": null,
        "entry": 5517566,
        "entry_name": "Wirtz Case Scenario",
        "event_total": 47,
        "has_played": true,
        "id": 43019841,
        "last_rank": 17956,
        "player_name": "Kieran Lloyd",
        "rank": 26048,
        "rank_sort": 26048,
        "total": 2372
      },
      {
        "club_badge_src": null,
        "entry": 1071891,
        "entry_name": "That's All Vokes",
        "event_total": 53,
        "has_played": true,
        "id": 7420669,
        "last_rank": 22356,
        "player_name": "Lewis Pryce",
        "rank": 26049,
        "rank_sort": 26049,
        "total": 2372
      },
      {
        "club_badge_src": null,
        "entry": 2698796,
        "entry_name": "Doku Doku Goose",
        "event_total": 82,
        "has_played": true,
        "id": 19413797,
        "last_rank": 57699,
        "player_name": "Luke Lynch",
        "rank": 26049,
        "rank_sort": 26050,
        "total": 2372
      }
    ]
  }
}