{
  "last_updated_data": "2026-05-24T23:28:17Z",
  "league": {
    "admin_entry": null,
    "closed": false,
    "code_privacy": "p",
    "created": "2025-07-20T23:14:33.933835Z",
    "cup_league": 2815434,
    "has_cup": true,
    "id": 314,
    "league_type": "s",
    "max_entries": null,
    "name": "Overall",
    "rank": null,
    "scoring": "c",
    "start_event": 1
  },
  "new_entries": {
    "has_next": false,
    "page": 1,
    "results": []
  },
  "standings": {
    "has_next": true,
    "page": 238,
    "results": [
      {
        "club_badge_src": null,
        "entry": 3017056,
        "entry_name": "Stoppable on his day",
        "event_total": 62,
        "has_played": true,
        "id": 22197034,
        "last_rank": 13947,
        "player_name": "Mike Mulgrew",
        "rank": 11796,
        "rank_sort": 11851,
        "total": 2394
      },
      {
        "club_badge_src": null,
        "entry": 3124016,
        "entry_name": "XP United",
        "event_total": 57,
        "has_played": true,
        "id": 23055085,
        "last_rank": 11237,
        "player_name": "Rex Yung",
        "rank": 11796,
        "rank_sort": 11852,
        "total": 2394
      },
      {
        "club_badge_src": null,
        "entry": 3317432,
        "entry_name": "nenugalimas mykolas",
        "event_total": 33,
        "has_played": true,
        "id": 24582137,
        "last_rank": 3257,
        "player_name": "Mykolas Petraitis",
        "rank": 11796,
        "rank_sort": 11853,
        "total": 2394
      },
      {
        "club_badge_src": null,
        "entry": 3321562,
        "entry_name": "Amad for it",
        "event_total": 58,
        "has_played": true,
        "id": 24621992,
        "last_rank": 11821,
        "player_name": "Michael Mills",
        "rank": 11796,
        "rank_sort": 11854,
        "total": 2394
      },
      {
        "club_badge_src": null,
        "entry": 3357033,
        "entry_name": "Change Name",
        "event_total": 62,
        "has_played": true,
        "id": 24906616,
        "last_rank": 11699,
        "player_name": "7Oct -",
        "rank": 11796,
        "rank_sort": 11855,
        "total": 2394
      },
      {
        "club_badge_src": null,
        "entry": 3530854,
        "entry_name": "Adams Athletic",
        "event_total": 60,
        "has_played": true,
        "id": 26278941,
        "last_rank": 12705,
        "player_name": "Heather Bailey",
        "rank": 11796,
        "rank_sort": 11856,
        "total": 2394
      },
      {
        "club_badge_src": null,
        "entry": 3562163,
        "entry_name": "FeedTheHorse",
        "event_total": 41,
        "has_played": true,
        "id": 26522622,
        "last_rank": 5752,
        "player_name": "Matt Horsley",
        "rank": 11796,
        "rank_sort": 11857,
        "total": 2394
      },
      {
        "club_badge_src": null,
        "entry": 3568408,
        "entry_name": "It\u2019s a lottery",
        "event_total": 44,
        "has_played": true,
        "id": 26570401,
        "last_rank": 6448,
        "player_name": "Nick Jarvis",
        "rank": 11796,
        "rank_sort": 11858,
        "total": 2394
      },
      {
        "club_badge_src": null,
        "entry": 4094593,
        "entry_name": "Fat mugs",
        "event_total": 64,
        "has_played": true,
        "id": 30916180,
        "last_rank": 14926,
        "player_name": "Josh Upfield",
        "rank": 11796,
        "rank_sort": 11859,
        "total": 2394
      },
      {
        "club_badge_src": null,
        "entry": 4118297,
        "entry_name": "Burns Baby Burns",
        "event_total": 59,
        "has_played": true,
        "id": 31111958,
        "last_rank": 12322,
        "player_name": "Alex Davey",
        "rank": 11796,
        "rank_sort": 11860,
        "total": 2394
      },
      {
        "club_badge_src": null,
        "entry": 4240583,
        "entry_name": "Alfaruq Maad",
        "event_total": 57,
        "has_played": true,
        "id": 32138723,
        "last_rank": 11345,
        "player_name": "Alfaruq Maad",
        "rank": 11796,
        "rank_sort": 11861,
        "total": 2394
      },
      {
        "club_badge_src": null,
        "entry": 4353219,
        "entry_name": "sohail",
        "event_total": 63,
        "has_played": true,
        "id": 33058949,
        "last_rank": 14292,
        "player_name": "Sohail Hussam",
        "rank": 11796,
        "rank_sort": 11862,
        "total": 2394
      },
      {
        "club_badge_src": null,
        "entry": 4457809,
        "entry_name": "Stranger Mings",
        "event_total": 54,
        "has_played": true,
        "id": 33959514,
        "last_rank": 10031,
        "player_name": "Stu Hughes",
        "rank": 11796,
        "rank_sort": 11863,
        "total": 2394
      },
      {
        "club_badge_src": null,
        "entry": 4496652,
        "entry_name": "HaCunhaMatata",
        "event_total": 61,
        "has_played": true,
        "id": 34278937,
        "last_rank": 13401,
        "player_name": "Craig Rampersad",
        "rank": 11796,
        "rank_sort": 11864,
        "total": 2394
      },
      {
        "club_badge_src": null,
        "entry": 4641237,
        "entry_name": "Gonna_Win",
        "event_total": 56,
        "has_played": true,
        "id": 35498390,
        "last_rank": 10920,
        "player_name": "Alex Tololeski",
        "rank": 11796,
        "rank_sort": 11865,
        "total": 2394
      },
      {
        "club_badge_src": null,
        "entry": 4650469,
        "entry_name": "KDB:s angels",
        "event_total": 60,
        "has_played": true,
        "id": 35579105,
        "last_rank": 12846,
        "player_name": "Marcus Store",
        "rank": 11796,
        "rank_sort": 11866,
        "total": 2394
      },
      {
        "club_badge_src": null,
        "entry": 4877327,
        "entry_name": "Don'tLookBackElanga",
        "event_total": 59,
        "has_played": true,
        "id": 37597074,
        "last_rank": 10346,
        "player_name": "Adam Farrow",
        "rank": 11796,
        "rank_sort": 11867,
        "total": 2394
      },
      {
        "club_badge_src": null,
        "entry": 5118503,
        "entry_name": "ultra chmicha",
        "event_total": 66,
        "has_played": true,
        "id": 39574124,
        "last_rank": 16062,
        "player_name": "Soufiane Hannouch",
        "rank": 11796,
        "rank_sort": 11868,
        "total": 2394
      },
      {
        "club_badge_src": "https://fantasy.premierleague.com/gcs/plfpl-production-adobe-approved/plfpl-production/5256946/35421ba2-7db1-424a-b92f-caf1e60cbdcf.png",
        "entry": 5256946,
        "entry_name": "Cunha Commanders",
        "event_total": 65,
        "has_played": true,
        "id": 40743405,
        "last_rank": 13257,
        "player_name": "Dale Neish",
        "rank": 11796,
        "rank_sort": 11869,
        "total": 2394
      },
      {
        "club_badge_src": null,
        "entry": 5614534,
        "entry_name": "I Won-a-Ton",
        "event_total": 51,
        "has_played": true,
        "id": 43883147,
        "last_rank": 8718,
        "player_name": "Sophia Liu",
        "rank": 11796,
        "rank_sort": 11870,
        "total": 2394
      },
      {
        "club_badge_src": null,
        "entry": 5647770,
        "entry_name": "Greens",
        "event_total": 68,
        "has_played": true,
        "id": 44178159,
        "last_rank": 17437,
        "player_name": "Ondrej Pavlik",
        "rank": 11796,
        "rank_sort": 11871,
        "total": 2394
      },
      {
        "club_badge_src": null,
        "entry": 6146219,
        "entry_name": "Longstone United",
        "event_total": 76,
        "has_played": true,
        "id": 48579645,
        "last_rank": 23341,
        "player_name": "Thomas Langenstein",
        "rank": 11796,
        "rank_sort": 11872,
        "total": 2394
      },
      {
        "club_badge_src": null,
        "entry": 6169707,
        "entry_name": "YG_WoF",
        "event_total": 61,
        "has_played": true,
        "id": 48783422,
        "last_rank": 13401,
        "player_name": "Youssef Khaled",
        "rank": 11796,
        "rank_sort": 11873,
        "total": 2394
      },
      {
        "club_badge_src": null,
        "entry": 6259871,
        "entry_name": "CopenhagenSuperstar",
        "event_total": 45,
        "has_played": true,
        "id": 49561004,
        "last_rank": 6839,
        "player_name": "Joachim Hancke",
        "rank": 11796,
        "rank_sort": 11874,
        "total": 2394
      },
      {
        "club_badge_src": null,
        "entry": 6469303,
        "entry_name": "Todocampistos",
        "event_total": 58,
        "has_played": true,
        "id": 51544164,
        "last_rank": 11642,
        "player_name": "Marek Szuminski",
        "rank": 11796,
        "rank_sort": 11875,
        "total": 2394
      },
      {
        "club_badge_src": null,
        "entry": 6483904,
        "entry_name": "Tiempo muerto",
        "event_total": 64,
        "has_played": true,
        "id": 51680007,
        "last_rank": 14832,
        "player_name": "Jure Buri\u0107",
        "rank": 11796,
        "rank_sort": 11876,
        "total": 2394
      },
      {
        "club_badge_src": null,
        "entry": 6692862,
        "entry_name": "Specials",
        "event_total": 63,
        "has_played": true,
        "id": 53546053,
        "last_rank": 14496,
        "player_name": "Chris Butler",
        "rank": 11796,
        "rank_sort": 11877,
        "total": 2394
      },
      {
        "club_badge_src": null,
        "entry": 6845074,
        "entry_name": "Cunha Mateta",
        "event_total": 74,
        "has_played": true,
        "id": 54836600,
        "last_rank": 18790,
        "player_name": "Jamie Brooks",
        "rank": 11796,
        "rank_sort": 11878,
        "total": 2394
      },
      {
        "club_badge_src": null,
        "entry": 6924213,
        "entry_name": "FC Ongdre",
        "event_total": 61,
        "has_played": true,
        "id": 55506624,
        "last_rank": 13401,
        "player_name": "Andre Ong",
        "rank": 11796,
        "rank_sort": 11879,
        "total": 2394
      },
      {
        "club_badge_src": null,
        "entry": 7027400,
        "entry_name": "Fahmy FC",
        "event_total": 64,
        "has_played": true,
        "id": 56463131,
        "last_rank": 12705,
        "player_name": "Karim Fahmy",
        "rank": 11796,
        "rank_sort": 11880,
        "total": 2394
      },
      {
        "club_badge_src": "https://fantasy.premierleague.com/gcs/plfpl-production-adobe-approved/plfpl-production/7066013/6262dd98-2419-4780-b8e1-3c208b73cbb4.png",
        "entry": 7066013,
        "entry_name": "Beef Cherki",
        "event_total": 52,
        "has_played": true,
        "id": 56851905,
        "last_rank": 9248,
        "player_name": "Lewis Elliott",
        "rank": 11796,
        "rank_sort": 11881,
        "total": 2394
      },
      {
        "club_badge_src": null,
        "entry": 7560778,
        "entry_name": "Flintoffees",
        "event_total": 57,
        "has_played": true,
        "id": 61908953,
        "last_rank": 11175,
        "player_name": "Calum Flintoff",
        "rank": 11796,
        "rank_sort": 11882,
        "total": 2394
      },
      {
        "club_badge_src": null,
        "entry": 7568127,
        "entry_name": "dzigibau",
        "event_total": 77,
        "has_played": true,
        "id": 61975266,
        "last_rank": 24143,
        "player_name": "Savic Slaven",
        "rank": 11796,
        "rank_sort": 11883,
        "total": 2394
      },
      {
        "club_badge_src": null,
        "entry": 7647814,
        "entry_name": "Chewys XI",
        "event_total": 59,
        "has_played": true,
        "id": 62697048,
        "last_rank": 12200,
        "player_name": "Matthew O' Neill",
        "rank": 11796,
        "rank_sort": 11884,
        "total": 2394
      },
      {
        "club_badge_src": null,
        "entry": 7812296,
        "entry_name": "AFC Ozymandias",
        "event_total": 66,
        "has_played": true,
        "id": 64184399,
        "last_rank": 16163,
        "player_name": "Ognjen Mandi\u0107",
        "rank": 11796,
        "rank_sort": 11885,
        "total": 2394
      },
      {
        "club_badge_src": null,
        "entry": 7904664,
        "entry_name": "Guns N' Rosses",
        "event_total": 63,
        "has_played": true,
        "id": 65029457,
        "last_rank": 14496,
        "player_name": "Jos\u00e9 Ross",
        "rank": 11796,
        "rank_sort": 11886,
        "total": 2394
      },
      {
        "club_badge_src": null,
        "entry": 7905130,
        "entry_name": "\u00c7aesar\ufffd",
        "event_total": 66,
        "has_played": true,
        "id": 65033472,
        "last_rank": 16163,
        "player_name": "Mahmoud Mostafa",
        "rank": 11796,
        "rank_sort": 11887,
        "total": 2394
      },
      {
        "club_badge_src": null,
        "entry": 8017038,
        "entry_name": "AwayTheLadsXI",
        "event_total": 65,
        "has_played": true,
        "id": 66038648,
        "last_rank": 13257,
        "player_name": "Darren Taylor",
        "rank": 11796,
        "rank_sort": 11888,
        "total": 2394
      },
      {
        "club_badge_src": "https://fantasy.premierleague.com/gcs/plfpl-production-adobe-approved/plfpl-production/8044091/7704dd10-bb35-44df-b4b1-c940b1930e83.png",
        "entry": 8044091,
        "entry_name": "Austin 3:16",
        "event_total": 59,
        "has_played": true,
        "id": 66283813,
        "last_rank": 12200,
        "player_name": "Mohammed Bushnaq",
        "rank": 11796,
        "rank_sort": 11889,
        "total": 2394
      },
      {
        "club_badge_src": null,
        "entry": 8086565,
        "entry_name": "Vic city",
        "event_total": 57,
        "has_played": true,
        "id": 66676474,
        "last_rank": 9536,
        "player_name": "Eskil Sundar",
        "rank": 11796,
        "rank_sort": 11890,
        "total": 2394
      },
      {
        "club_badge_src": null,
        "entry": 8551635,
        "entry_name": "FC Karposh",
        "event_total": 65,
        "has_played": true,
        "id": 71134264,
        "last_rank": 13257,
        "player_name": "Ana S",
        "rank": 11796,
        "rank_sort": 11891,
        "total": 2394
      },
      {
        "club_badge_src": null,
        "entry": 8591162,
        "entry_name": "Sweet Salah'tude",
        "event_total": 56,
        "has_played": true,
        "id": 71512943,
        "last_rank": 10805,
        "player_name": "Michael Edelstein",
        "rank": 11796,
        "rank_sort": 11892,
        "total": 2394
      },
      {
        "club_badge_src": null,
        "entry": 8803813,
        "entry_name": "The Slazenger Challe",
        "event_total": 69,
        "has_played": true,
        "id": 73581569,
        "last_rank": 18113,
        "player_name": "shane deasy",
        "rank": 11796,
        "rank_sort": 11893,
        "total": 2394
      },
      {
        "club_badge_src": null,
        "entry": 8842524,
        "entry_name": "brimpnation",
        "event_total": 65,
        "has_played": true,
        "id": 73954315,
        "last_rank": 15694,
        "player_name": "Fredrik krag Brun",
        "rank": 11796,
        "rank_sort": 11894,
        "total": 2394
      },
      {
        "club_badge_src": null,
        "entry": 8842895,
        "entry_name": "OggeZ",
        "event_total": 35,
        "has_played": true,
        "id": 73957787,
        "last_rank": 4394,
        "player_name": "Oskar Zetterlund",
        "rank": 11796,
        "rank_sort": 11895,
        "total": 2394
      },
      {
        "club_badge_src": null,
        "entry": 9302897,
        "entry_name": "icecreamdead",
        "event_total": 70,
        "has_played": true,
        "id": 78437488,
        "last_rank": 18985,
        "player_name": "Chartchai Chantanakajornfung",
        "rank": 11796,
        "rank_sort": 11896,
        "total": 2394
      },
      {
        "club_badge_src": null,
        "entry": 294,
        "entry_name": "Currywirtz",
        "event_total": 66,
        "has_played": true,
        "id": 1625,
        "last_rank": 11699,
        "player_name": "Lee Mott",
        "rank": 11897,
        "rank_sort": 11897,
        "total": 2394
      },
      {
        "club_badge_src": null,
        "entry": 7515,
        "entry_name": "Fraudiola Busters",
        "event_total": 70,
        "has_played": true,
        "id": 43339,
        "last_rank": 16320,
        "player_name": "Brandon Ong",
        "rank": 11897,
        "rank_sort": 11898,
        "total": 2394
      },
      {
        "club_badge_src": null,
        "entry": 7893,
        "entry_name": "ELHALFAWY FC",
        "event_total": 66,
        "has_played": true,
        "id": 45591,
        "last_rank": 16441,
        "player_name": "Ahmed Gamall--",
        "rank": 11897,
        "rank_sort": 11899,
        "total": 2394
      },
      {
        "club_badge_src": null,
        "entry": 8228,
        "entry_name": "FC Deported",
        "event_total": 60,
        "has_played": true,
        "id": 47711,
        "last_rank": 12940,
        "player_name": "Michael Chappell",
        "rank": 11897,
        "rank_sort": 11900,
        "total": 2394
      }
    ]
  }
}