{
  "last_updated_data": "2026-05-24T23:28:17Z",
  "league": {
    "admin_entry": null,
    "closed": false,
    "code_privacy": "p",
    "created": "2025-07-20T23:14:33.933835Z",
    "cup_league": 2815434,
    "has_cup": true,
    "id": 314,
    "league_type": "s",
    "max_entries": null,
    "name": "Overall",
    "rank": null,
    "scoring": "c",
    "start_event": 1
  },
  "new_entries": {
    "has_next": false,
    "page": 1,
    "results": []
  },
  "standings": {
    "has_next": true,
    "page": 497,
    "results": [
      {
        "club_badge_src": null,
        "entry": 8647440,
        "entry_name": "Haytham Fc",
        "event_total": 78,
        "has_played": true,
        "id": 72060325,
        "last_rank": 48119,
        "player_name": "Haytham Saleh",
        "rank": 24632,
        "rank_sort": 24801,
        "total": 2374
      },
      {
        "club_badge_src": null,
        "entry": 9279738,
        "entry_name": "Pickfords' garage",
        "event_total": 58,
        "has_played": true,
        "id": 78213314,
        "last_rank": 21775,
        "player_name": "Hayden Cruickshank",
        "rank": 24632,
        "rank_sort": 24802,
        "total": 2374
      },
      {
        "club_badge_src": null,
        "entry": 9363206,
        "entry_name": "Lapimaa FC",
        "event_total": 58,
        "has_played": true,
        "id": 79014292,
        "last_rank": 25002,
        "player_name": "Tarmo Kuuder",
        "rank": 24632,
        "rank_sort": 24803,
        "total": 2374
      },
      {
        "club_badge_src": "https://fantasy.premierleague.com/gcs/plfpl-production-adobe-approved/plfpl-production/1079/66999718-3563-47d9-b403-198cc43d8017.png",
        "entry": 1079,
        "entry_name": "Petr Cech Yourself",
        "event_total": 55,
        "has_played": true,
        "id": 5987,
        "last_rank": 22426,
        "player_name": "Chris Wade",
        "rank": 24804,
        "rank_sort": 24804,
        "total": 2374
      },
      {
        "club_badge_src": null,
        "entry": 1233,
        "entry_name": "EzeWin",
        "event_total": 78,
        "has_played": true,
        "id": 6844,
        "last_rank": 48363,
        "player_name": "Frederik Andersen",
        "rank": 24804,
        "rank_sort": 24805,
        "total": 2374
      },
      {
        "club_badge_src": null,
        "entry": 1965,
        "entry_name": "For Beto or Wirtz",
        "event_total": 46,
        "has_played": true,
        "id": 10957,
        "last_rank": 16163,
        "player_name": "David Harris",
        "rank": 24804,
        "rank_sort": 24806,
        "total": 2374
      },
      {
        "club_badge_src": null,
        "entry": 3830,
        "entry_name": "bajnokerko",
        "event_total": 67,
        "has_played": true,
        "id": 21719,
        "last_rank": 34293,
        "player_name": "Erik Bajnok",
        "rank": 24804,
        "rank_sort": 24807,
        "total": 2374
      },
      {
        "club_badge_src": null,
        "entry": 19325,
        "entry_name": "Eddie\u2019s Eleven",
        "event_total": 54,
        "has_played": true,
        "id": 120253,
        "last_rank": 18985,
        "player_name": "Eddie Ross",
        "rank": 24804,
        "rank_sort": 24808,
        "total": 2374
      },
      {
        "club_badge_src": null,
        "entry": 19846,
        "entry_name": "Guns",
        "event_total": 64,
        "has_played": true,
        "id": 123522,
        "last_rank": 27020,
        "player_name": "Seppo V",
        "rank": 24804,
        "rank_sort": 24809,
        "total": 2374
      },
      {
        "club_badge_src": null,
        "entry": 20866,
        "entry_name": "Red Djed Redemption",
        "event_total": 56,
        "has_played": true,
        "id": 130585,
        "last_rank": 20179,
        "player_name": "Harry Devine",
        "rank": 24804,
        "rank_sort": 24810,
        "total": 2374
      },
      {
        "club_badge_src": null,
        "entry": 20878,
        "entry_name": "Pain in Dias",
        "event_total": 70,
        "has_played": true,
        "id": 130671,
        "last_rank": 28609,
        "player_name": "Alistair Munro",
        "rank": 24804,
        "rank_sort": 24811,
        "total": 2374
      },
      {
        "club_badge_src": null,
        "entry": 40372,
        "entry_name": "Smoked Meats",
        "event_total": 58,
        "has_played": true,
        "id": 258835,
        "last_rank": 25172,
        "player_name": "Blake Cargill",
        "rank": 24804,
        "rank_sort": 24812,
        "total": 2374
      },
      {
        "club_badge_src": null,
        "entry": 49242,
        "entry_name": "Krul Runnings",
        "event_total": 56,
        "has_played": true,
        "id": 316477,
        "last_rank": 20416,
        "player_name": "Ruairi McGlinchey",
        "rank": 24804,
        "rank_sort": 24813,
        "total": 2374
      },
      {
        "club_badge_src": null,
        "entry": 63269,
        "entry_name": "LCK FC",
        "event_total": 61,
        "has_played": true,
        "id": 408175,
        "last_rank": 27976,
        "player_name": "Alvin Liew",
        "rank": 24804,
        "rank_sort": 24814,
        "total": 2374
      },
      {
        "club_badge_src": null,
        "entry": 70247,
        "entry_name": "The Rice Girls",
        "event_total": 65,
        "has_played": true,
        "id": 456023,
        "last_rank": 32190,
        "player_name": "Liam Watters",
        "rank": 24804,
        "rank_sort": 24815,
        "total": 2374
      },
      {
        "club_badge_src": null,
        "entry": 90805,
        "entry_name": "Mcmillz Fc",
        "event_total": 64,
        "has_played": true,
        "id": 592954,
        "last_rank": 31125,
        "player_name": "Robert McMillan",
        "rank": 24804,
        "rank_sort": 24816,
        "total": 2374
      },
      {
        "club_badge_src": null,
        "entry": 92937,
        "entry_name": "FC Koen*",
        "event_total": 49,
        "has_played": true,
        "id": 607349,
        "last_rank": 18377,
        "player_name": "Koen te Riele",
        "rank": 24804,
        "rank_sort": 24817,
        "total": 2374
      },
      {
        "club_badge_src": "https://fantasy.premierleague.com/gcs/plfpl-production-adobe-approved/plfpl-production/96726/34e81fb1-c8b7-4aa4-909c-0e886ef93393.png",
        "entry": 96726,
        "entry_name": "Abu Azooz",
        "event_total": 65,
        "has_played": true,
        "id": 631853,
        "last_rank": 27976,
        "player_name": "Abdullah Almusharraf",
        "rank": 24804,
        "rank_sort": 24818,
        "total": 2374
      },
      {
        "club_badge_src": null,
        "entry": 130471,
        "entry_name": "DontlookbackinAgger",
        "event_total": 65,
        "has_played": true,
        "id": 850176,
        "last_rank": 32190,
        "player_name": "Andy Davies",
        "rank": 24804,
        "rank_sort": 24819,
        "total": 2374
      },
      {
        "club_badge_src": null,
        "entry": 152405,
        "entry_name": "Gakpo Be Kidding Me",
        "event_total": 63,
        "has_played": true,
        "id": 1000259,
        "last_rank": 29578,
        "player_name": "Darragh Glynn",
        "rank": 24804,
        "rank_sort": 24820,
        "total": 2374
      },
      {
        "club_badge_src": null,
        "entry": 176999,
        "entry_name": "A Cunha Mateta",
        "event_total": 80,
        "has_played": true,
        "id": 1168317,
        "last_rank": 51220,
        "player_name": "Joseph Manning",
        "rank": 24804,
        "rank_sort": 24821,
        "total": 2374
      },
      {
        "club_badge_src": null,
        "entry": 191775,
        "entry_name": "Musab FC",
        "event_total": 64,
        "has_played": true,
        "id": 1270354,
        "last_rank": 27020,
        "player_name": "Musab Mohammed",
        "rank": 24804,
        "rank_sort": 24822,
        "total": 2374
      },
      {
        "club_badge_src": null,
        "entry": 195692,
        "entry_name": "Wirtz Behaviour",
        "event_total": 56,
        "has_played": true,
        "id": 1297805,
        "last_rank": 23341,
        "player_name": "Cameron Mato",
        "rank": 24804,
        "rank_sort": 24823,
        "total": 2374
      },
      {
        "club_badge_src": "https://fantasy.premierleague.com/gcs/plfpl-production-adobe-approved/plfpl-production/204947/7a108cbc-1dee-42af-b935-bdcdbec22dbb.png",
        "entry": 204947,
        "entry_name": "How 2 Train Dr\u0103gu\u0219in",
        "event_total": 62,
        "has_played": true,
        "id": 1362214,
        "last_rank": 29071,
        "player_name": "Mark Bonner",
        "rank": 24804,
        "rank_sort": 24824,
        "total": 2374
      },
      {
        "club_badge_src": null,
        "entry": 265845,
        "entry_name": "Pique name",
        "event_total": 75,
        "has_played": true,
        "id": 1768342,
        "last_rank": 44525,
        "player_name": "Dougie Knight",
        "rank": 24804,
        "rank_sort": 24825,
        "total": 2374
      },
      {
        "club_badge_src": null,
        "entry": 332174,
        "entry_name": "Father of One",
        "event_total": 67,
        "has_played": true,
        "id": 2224789,
        "last_rank": 34458,
        "player_name": "Adrian Kukawka",
        "rank": 24804,
        "rank_sort": 24826,
        "total": 2374
      },
      {
        "club_badge_src": null,
        "entry": 335651,
        "entry_name": "mohamad nasrdine",
        "event_total": 57,
        "has_played": true,
        "id": 2247390,
        "last_rank": 21159,
        "player_name": "Kassem Naserdine",
        "rank": 24804,
        "rank_sort": 24827,
        "total": 2374
      },
      {
        "club_badge_src": null,
        "entry": 346337,
        "entry_name": "Dodgy Keeper",
        "event_total": 55,
        "has_played": true,
        "id": 2318279,
        "last_rank": 22830,
        "player_name": "Andrew Pearce",
        "rank": 24804,
        "rank_sort": 24828,
        "total": 2374
      },
      {
        "club_badge_src": null,
        "entry": 354906,
        "entry_name": "Mo.hamed",
        "event_total": 52,
        "has_played": true,
        "id": 2375194,
        "last_rank": 20624,
        "player_name": "MO Hamed",
        "rank": 24804,
        "rank_sort": 24829,
        "total": 2374
      },
      {
        "club_badge_src": null,
        "entry": 378765,
        "entry_name": "Rafael United",
        "event_total": 62,
        "has_played": true,
        "id": 2537683,
        "last_rank": 28906,
        "player_name": "Richard Hollingworth",
        "rank": 24804,
        "rank_sort": 24830,
        "total": 2374
      },
      {
        "club_badge_src": "https://fantasy.premierleague.com/gcs/plfpl-production-adobe-approved/plfpl-production/415620/6dadfad3-0bff-4ed1-ac29-786d99ff9dc8.png",
        "entry": 415620,
        "entry_name": "Huzilat",
        "event_total": 59,
        "has_played": true,
        "id": 2786237,
        "last_rank": 22534,
        "player_name": "Othmane Dh",
        "rank": 24804,
        "rank_sort": 24831,
        "total": 2374
      },
      {
        "club_badge_src": null,
        "entry": 423434,
        "entry_name": "Foobah",
        "event_total": 50,
        "has_played": true,
        "id": 2837614,
        "last_rank": 18985,
        "player_name": "Joonas Virtanen",
        "rank": 24804,
        "rank_sort": 24832,
        "total": 2374
      },
      {
        "club_badge_src": null,
        "entry": 459909,
        "entry_name": "Back of the Neto",
        "event_total": 61,
        "has_played": true,
        "id": 3085216,
        "last_rank": 27976,
        "player_name": "Dara Liffey",
        "rank": 24804,
        "rank_sort": 24833,
        "total": 2374
      },
      {
        "club_badge_src": null,
        "entry": 465071,
        "entry_name": "The Trawler",
        "event_total": 51,
        "has_played": true,
        "id": 3119956,
        "last_rank": 19835,
        "player_name": "Rick Laxton",
        "rank": 24804,
        "rank_sort": 24834,
        "total": 2374
      },
      {
        "club_badge_src": null,
        "entry": 513128,
        "entry_name": "Pain in Dias",
        "event_total": 62,
        "has_played": true,
        "id": 3445499,
        "last_rank": 29071,
        "player_name": "Daryl Atkinson",
        "rank": 24804,
        "rank_sort": 24835,
        "total": 2374
      },
      {
        "club_badge_src": null,
        "entry": 516373,
        "entry_name": "moderate FC",
        "event_total": 69,
        "has_played": true,
        "id": 3466806,
        "last_rank": 31995,
        "player_name": "S H",
        "rank": 24804,
        "rank_sort": 24836,
        "total": 2374
      },
      {
        "club_badge_src": "https://fantasy.premierleague.com/gcs/plfpl-production-adobe-approved/plfpl-production/517680/e434f23c-4c3e-42b6-8400-b8cf41798a65.png",
        "entry": 517680,
        "entry_name": "Jarin oppipojat",
        "event_total": 49,
        "has_played": true,
        "id": 3475649,
        "last_rank": 15694,
        "player_name": "Heimo-Pekka Laakso",
        "rank": 24804,
        "rank_sort": 24837,
        "total": 2374
      },
      {
        "club_badge_src": null,
        "entry": 540761,
        "entry_name": "Goal of Duty",
        "event_total": 58,
        "has_played": true,
        "id": 3639681,
        "last_rank": 21949,
        "player_name": "Marcus Evans",
        "rank": 24804,
        "rank_sort": 24838,
        "total": 2374
      },
      {
        "club_badge_src": null,
        "entry": 583834,
        "entry_name": "Que Diogolazo",
        "event_total": 69,
        "has_played": true,
        "id": 3929080,
        "last_rank": 36831,
        "player_name": "Pasha Sher",
        "rank": 24804,
        "rank_sort": 24839,
        "total": 2374
      },
      {
        "club_badge_src": null,
        "entry": 600616,
        "entry_name": "Jappie\u2019s Jongens",
        "event_total": 61,
        "has_played": true,
        "id": 4052409,
        "last_rank": 28150,
        "player_name": "Jasper Man",
        "rank": 24804,
        "rank_sort": 24840,
        "total": 2374
      },
      {
        "club_badge_src": null,
        "entry": 627860,
        "entry_name": "Ossie's Dream",
        "event_total": 64,
        "has_played": true,
        "id": 4242688,
        "last_rank": 31125,
        "player_name": "Scott Beaumont",
        "rank": 24804,
        "rank_sort": 24841,
        "total": 2374
      },
      {
        "club_badge_src": "https://fantasy.premierleague.com/gcs/plfpl-production-adobe-approved/plfpl-production/787243/e8df56cb-5bab-4542-888c-68dcb7378656.png",
        "entry": 787243,
        "entry_name": "Wirtz Episode Ever.",
        "event_total": 47,
        "has_played": true,
        "id": 5381882,
        "last_rank": 14496,
        "player_name": "Liang Song",
        "rank": 24804,
        "rank_sort": 24842,
        "total": 2374
      },
      {
        "club_badge_src": null,
        "entry": 804475,
        "entry_name": "Katena\u010do",
        "event_total": 59,
        "has_played": true,
        "id": 5506980,
        "last_rank": 26230,
        "player_name": "Denis \u0160trok",
        "rank": 24804,
        "rank_sort": 24843,
        "total": 2374
      },
      {
        "club_badge_src": null,
        "entry": 838638,
        "entry_name": "Frimpong Ping Pong",
        "event_total": 61,
        "has_played": true,
        "id": 5745768,
        "last_rank": 24330,
        "player_name": "Matthew Tok",
        "rank": 24804,
        "rank_sort": 24844,
        "total": 2374
      },
      {
        "club_badge_src": null,
        "entry": 923232,
        "entry_name": "God Did!",
        "event_total": 60,
        "has_played": true,
        "id": 6350033,
        "last_rank": 23522,
        "player_name": "Hannes Mtemasonjo",
        "rank": 24804,
        "rank_sort": 24845,
        "total": 2374
      },
      {
        "club_badge_src": null,
        "entry": 940972,
        "entry_name": "Wakanda",
        "event_total": 78,
        "has_played": true,
        "id": 6477855,
        "last_rank": 48898,
        "player_name": "Eric Katani",
        "rank": 24804,
        "rank_sort": 24846,
        "total": 2374
      },
      {
        "club_badge_src": null,
        "entry": 977311,
        "entry_name": "\u2026\u2026\u2026\u2026\u2026\u2026\u2026\u2026\u2026\u2026\u2026 Dan Beer",
        "event_total": 64,
        "has_played": true,
        "id": 6737623,
        "last_rank": 30957,
        "player_name": "Dan Beer",
        "rank": 24804,
        "rank_sort": 24847,
        "total": 2374
      },
      {
        "club_badge_src": null,
        "entry": 1035515,
        "entry_name": "Mikkarar FC",
        "event_total": 84,
        "has_played": true,
        "id": 7165386,
        "last_rank": 58688,
        "player_name": "Hedinn Michelsen",
        "rank": 24804,
        "rank_sort": 24848,
        "total": 2374
      },
      {
        "club_badge_src": null,
        "entry": 1073373,
        "entry_name": "Saka Potatoes",
        "event_total": 63,
        "has_played": true,
        "id": 7431082,
        "last_rank": 30191,
        "player_name": "Cameron Goodway",
        "rank": 24804,
        "rank_sort": 24849,
        "total": 2374
      },
      {
        "club_badge_src": null,
        "entry": 1112103,
        "entry_name": "T Hotspurs",
        "event_total": 58,
        "has_played": true,
        "id": 7703381,
        "last_rank": 25436,
        "player_name": "Andy Turner",
        "rank": 24804,
        "rank_sort": 24850,
        "total": 2374
      }
    ]
  }
}