{
  "last_updated_data": "2026-05-24T23:28:17Z",
  "league": {
    "admin_entry": null,
    "closed": false,
    "code_privacy": "p",
    "created": "2025-07-20T23:14:33.933835Z",
    "cup_league": 2815434,
    "has_cup": true,
    "id": 314,
    "league_type": "s",
    "max_entries": null,
    "name": "Overall",
    "rank": null,
    "scoring": "c",
    "start_event": 1
  },
  "new_entries": {
    "has_next": false,
    "page": 1,
    "results": []
  },
  "standings": {
    "has_next": true,
    "page": 596,
    "results": [
      {
        "club_badge_src": null,
        "entry": 4043957,
        "entry_name": "Howe you doin ?",
        "event_total": 33,
        "has_played": true,
        "id": 30499421,
        "last_rank": 12141,
        "player_name": "Thelma Henry",
        "rank": 29735,
        "rank_sort": 29751,
        "total": 2368
      },
      {
        "club_badge_src": "https://fantasy.premierleague.com/gcs/plfpl-production-adobe-approved/plfpl-production/4736465/ee312319-8e21-464f-967d-1658136e105c.png",
        "entry": 4736465,
        "entry_name": "saka potatoes",
        "event_total": 65,
        "has_played": true,
        "id": 36441915,
        "last_rank": 38644,
        "player_name": "Rosie Stock",
        "rank": 29735,
        "rank_sort": 29752,
        "total": 2368
      },
      {
        "club_badge_src": "https://fantasy.premierleague.com/gcs/plfpl-production-adobe-approved/plfpl-production/5056742/f0ee61f5-ca78-4fa8-a1db-0a242c84c1d6.png",
        "entry": 5056742,
        "entry_name": "lord cashington",
        "event_total": 60,
        "has_played": true,
        "id": 39072660,
        "last_rank": 32661,
        "player_name": "Lee Ducharme",
        "rank": 29735,
        "rank_sort": 29753,
        "total": 2368
      },
      {
        "club_badge_src": null,
        "entry": 5162049,
        "entry_name": "DanSCFC1863",
        "event_total": 29,
        "has_played": true,
        "id": 39946480,
        "last_rank": 10263,
        "player_name": "Daniel Walklate",
        "rank": 29735,
        "rank_sort": 29754,
        "total": 2368
      },
      {
        "club_badge_src": null,
        "entry": 5262600,
        "entry_name": "Tufte IL",
        "event_total": 52,
        "has_played": true,
        "id": 40787860,
        "last_rank": 24897,
        "player_name": "Joakim Reinertsen",
        "rank": 29735,
        "rank_sort": 29755,
        "total": 2368
      },
      {
        "club_badge_src": null,
        "entry": 5761378,
        "entry_name": "Squishmallow Squad",
        "event_total": 71,
        "has_played": true,
        "id": 45164526,
        "last_rank": 46534,
        "player_name": "Matilda Brannan",
        "rank": 29735,
        "rank_sort": 29756,
        "total": 2368
      },
      {
        "club_badge_src": null,
        "entry": 5812202,
        "entry_name": "FC Furbo",
        "event_total": 66,
        "has_played": true,
        "id": 45605792,
        "last_rank": 39874,
        "player_name": "Simon Rydstedt",
        "rank": 29735,
        "rank_sort": 29757,
        "total": 2368
      },
      {
        "club_badge_src": null,
        "entry": 6669042,
        "entry_name": "Earth Wind Maguire",
        "event_total": 51,
        "has_played": true,
        "id": 53336647,
        "last_rank": 23973,
        "player_name": "Cait Smith",
        "rank": 29735,
        "rank_sort": 29758,
        "total": 2368
      },
      {
        "club_badge_src": "https://fantasy.premierleague.com/gcs/plfpl-production-adobe-approved/plfpl-production/7192239/a5e44759-364d-4014-9237-0a77b7feb81b.png",
        "entry": 7192239,
        "entry_name": "Invincible",
        "event_total": 66,
        "has_played": true,
        "id": 58060774,
        "last_rank": 39770,
        "player_name": "Ismail Machhoub",
        "rank": 29735,
        "rank_sort": 29759,
        "total": 2368
      },
      {
        "club_badge_src": "https://fantasy.premierleague.com/gcs/plfpl-production-adobe-approved/plfpl-production/7297235/ef904009-4dab-4387-8d05-20b8392b2d21.png",
        "entry": 7297235,
        "entry_name": "Ava FC",
        "event_total": 63,
        "has_played": true,
        "id": 59050494,
        "last_rank": 36142,
        "player_name": "Ava Fenemore",
        "rank": 29735,
        "rank_sort": 29760,
        "total": 2368
      },
      {
        "club_badge_src": null,
        "entry": 7568574,
        "entry_name": "Bruno Dos Tres",
        "event_total": 64,
        "has_played": true,
        "id": 61979340,
        "last_rank": 37344,
        "player_name": "Libby Johnson",
        "rank": 29735,
        "rank_sort": 29761,
        "total": 2368
      },
      {
        "club_badge_src": "https://fantasy.premierleague.com/gcs/plfpl-production-adobe-approved/plfpl-production/9394424/374cb455-32f9-4ed8-b752-fba182ad8b16.png",
        "entry": 9394424,
        "entry_name": "parsa.2000",
        "event_total": 69,
        "has_played": true,
        "id": 79320278,
        "last_rank": 38528,
        "player_name": "Parsa Yahoo",
        "rank": 29735,
        "rank_sort": 29762,
        "total": 2368
      },
      {
        "club_badge_src": null,
        "entry": 3460,
        "entry_name": "Ozark",
        "event_total": 87,
        "has_played": true,
        "id": 19600,
        "last_rank": 75139,
        "player_name": "Mary Zhukovskaya",
        "rank": 29763,
        "rank_sort": 29763,
        "total": 2368
      },
      {
        "club_badge_src": null,
        "entry": 89179,
        "entry_name": "cannons crew",
        "event_total": 58,
        "has_played": true,
        "id": 582127,
        "last_rank": 30536,
        "player_name": "Adam Munro",
        "rank": 29763,
        "rank_sort": 29764,
        "total": 2368
      },
      {
        "club_badge_src": "https://fantasy.premierleague.com/gcs/plfpl-production-adobe-approved/plfpl-production/116738/1f3d2b45-f2da-49ad-853c-05a392a32f81.png",
        "entry": 116738,
        "entry_name": "STAN's squad",
        "event_total": 64,
        "has_played": true,
        "id": 762097,
        "last_rank": 37435,
        "player_name": "chiheb belhouchet",
        "rank": 29763,
        "rank_sort": 29765,
        "total": 2368
      },
      {
        "club_badge_src": null,
        "entry": 122114,
        "entry_name": "Los Porros Hermanos",
        "event_total": 60,
        "has_played": true,
        "id": 796691,
        "last_rank": 32879,
        "player_name": "Ivar Berglund",
        "rank": 29763,
        "rank_sort": 29766,
        "total": 2368
      },
      {
        "club_badge_src": null,
        "entry": 243526,
        "entry_name": "Pjanic at the Disco",
        "event_total": 56,
        "has_played": true,
        "id": 1621581,
        "last_rank": 28726,
        "player_name": "Carl Trevena",
        "rank": 29763,
        "rank_sort": 29767,
        "total": 2368
      },
      {
        "club_badge_src": null,
        "entry": 244633,
        "entry_name": "Murderonzidanesfloor",
        "event_total": 47,
        "has_played": true,
        "id": 1628753,
        "last_rank": 20888,
        "player_name": "Callum Grantham",
        "rank": 29763,
        "rank_sort": 29768,
        "total": 2368
      },
      {
        "club_badge_src": null,
        "entry": 256311,
        "entry_name": "Galacticos",
        "event_total": 56,
        "has_played": true,
        "id": 1704711,
        "last_rank": 28726,
        "player_name": "Karol Czajka",
        "rank": 29763,
        "rank_sort": 29769,
        "total": 2368
      },
      {
        "club_badge_src": "https://fantasy.premierleague.com/gcs/plfpl-production-adobe-approved/plfpl-production/258846/f94ec59c-dece-41f0-81b3-c94ff2dc62da.png",
        "entry": 258846,
        "entry_name": "Cl\u00efck \u2074",
        "event_total": 60,
        "has_played": true,
        "id": 1721074,
        "last_rank": 32688,
        "player_name": "Jason Tan",
        "rank": 29763,
        "rank_sort": 29770,
        "total": 2368
      },
      {
        "club_badge_src": null,
        "entry": 377585,
        "entry_name": "Tekkerslovakia",
        "event_total": 49,
        "has_played": true,
        "id": 2529334,
        "last_rank": 22534,
        "player_name": "Phil Macy",
        "rank": 29763,
        "rank_sort": 29771,
        "total": 2368
      },
      {
        "club_badge_src": null,
        "entry": 389405,
        "entry_name": "360nopope",
        "event_total": 42,
        "has_played": true,
        "id": 2612141,
        "last_rank": 17358,
        "player_name": "Samuel Gillbanks",
        "rank": 29763,
        "rank_sort": 29772,
        "total": 2368
      },
      {
        "club_badge_src": null,
        "entry": 394428,
        "entry_name": "Cfcfer12",
        "event_total": 38,
        "has_played": true,
        "id": 2645162,
        "last_rank": 14926,
        "player_name": "Yash Mody",
        "rank": 29763,
        "rank_sort": 29773,
        "total": 2368
      },
      {
        "club_badge_src": "https://fantasy.premierleague.com/gcs/plfpl-production-adobe-approved/plfpl-production/423611/e653bcc9-d80a-4ab1-bba2-0a7fc7994012.png",
        "entry": 423611,
        "entry_name": "Sergej's Squadron",
        "event_total": 47,
        "has_played": true,
        "id": 2838927,
        "last_rank": 20826,
        "player_name": "joseph carr",
        "rank": 29763,
        "rank_sort": 29774,
        "total": 2368
      },
      {
        "club_badge_src": null,
        "entry": 438862,
        "entry_name": "Are you Cold?",
        "event_total": 48,
        "has_played": true,
        "id": 2942883,
        "last_rank": 21628,
        "player_name": "Arvid Sammels",
        "rank": 29763,
        "rank_sort": 29775,
        "total": 2368
      },
      {
        "club_badge_src": null,
        "entry": 443208,
        "entry_name": "Tom and Jerry",
        "event_total": 55,
        "has_played": true,
        "id": 2971551,
        "last_rank": 27644,
        "player_name": "AMIL KADIRIC",
        "rank": 29763,
        "rank_sort": 29776,
        "total": 2368
      },
      {
        "club_badge_src": null,
        "entry": 470216,
        "entry_name": "Dalai Palmer",
        "event_total": 63,
        "has_played": true,
        "id": 3156412,
        "last_rank": 36142,
        "player_name": "Olly Maggs",
        "rank": 29763,
        "rank_sort": 29777,
        "total": 2368
      },
      {
        "club_badge_src": null,
        "entry": 485328,
        "entry_name": "To Haaland Back",
        "event_total": 57,
        "has_played": true,
        "id": 3257646,
        "last_rank": 29522,
        "player_name": "Frazer Wardhaugh",
        "rank": 29763,
        "rank_sort": 29778,
        "total": 2368
      },
      {
        "club_badge_src": null,
        "entry": 535476,
        "entry_name": "Wirtz Case Scenario",
        "event_total": 52,
        "has_played": true,
        "id": 3604024,
        "last_rank": 24857,
        "player_name": "Shaun Love",
        "rank": 29763,
        "rank_sort": 29779,
        "total": 2368
      },
      {
        "club_badge_src": null,
        "entry": 538901,
        "entry_name": "Baby Reijnders",
        "event_total": 50,
        "has_played": true,
        "id": 3627447,
        "last_rank": 23230,
        "player_name": "Nathan Gallagher",
        "rank": 29763,
        "rank_sort": 29780,
        "total": 2368
      },
      {
        "club_badge_src": null,
        "entry": 543762,
        "entry_name": "Red Calne Devils",
        "event_total": 43,
        "has_played": true,
        "id": 3659539,
        "last_rank": 18113,
        "player_name": "Wayne Sheehan",
        "rank": 29763,
        "rank_sort": 29781,
        "total": 2368
      },
      {
        "club_badge_src": null,
        "entry": 575970,
        "entry_name": "AQ FC",
        "event_total": 70,
        "has_played": true,
        "id": 3875815,
        "last_rank": 45144,
        "player_name": "Anh Qu\u00e2n \u0110inh",
        "rank": 29763,
        "rank_sort": 29782,
        "total": 2368
      },
      {
        "club_badge_src": null,
        "entry": 619361,
        "entry_name": "Cunha believe it",
        "event_total": 55,
        "has_played": true,
        "id": 4185261,
        "last_rank": 23990,
        "player_name": "Vlad Jones",
        "rank": 29763,
        "rank_sort": 29783,
        "total": 2368
      },
      {
        "club_badge_src": "https://fantasy.premierleague.com/gcs/plfpl-production-adobe-approved/plfpl-production/691908/bc63e1df-1ae0-4f1b-a509-fd1863f3376f.png",
        "entry": 691908,
        "entry_name": "Bryan",
        "event_total": 58,
        "has_played": true,
        "id": 4685692,
        "last_rank": 30600,
        "player_name": "Oluwatosin Olafusi",
        "rank": 29763,
        "rank_sort": 29784,
        "total": 2368
      },
      {
        "club_badge_src": null,
        "entry": 798568,
        "entry_name": "Napoli 87",
        "event_total": 52,
        "has_played": true,
        "id": 5465831,
        "last_rank": 24857,
        "player_name": "Anton Danielsson",
        "rank": 29763,
        "rank_sort": 29785,
        "total": 2368
      },
      {
        "club_badge_src": null,
        "entry": 827326,
        "entry_name": "Men with Ven",
        "event_total": 54,
        "has_played": true,
        "id": 5666401,
        "last_rank": 26710,
        "player_name": "Daragh Robinson",
        "rank": 29763,
        "rank_sort": 29786,
        "total": 2368
      },
      {
        "club_badge_src": null,
        "entry": 922703,
        "entry_name": "AllyPally FC",
        "event_total": 56,
        "has_played": true,
        "id": 6346130,
        "last_rank": 28726,
        "player_name": "Alex Dakhnovskyy",
        "rank": 29763,
        "rank_sort": 29787,
        "total": 2368
      },
      {
        "club_badge_src": null,
        "entry": 947930,
        "entry_name": "ChampagneSuperRovers",
        "event_total": 89,
        "has_played": true,
        "id": 6529598,
        "last_rank": 79079,
        "player_name": "Lee Jenkins",
        "rank": 29763,
        "rank_sort": 29788,
        "total": 2368
      },
      {
        "club_badge_src": null,
        "entry": 1339033,
        "entry_name": "Satics",
        "event_total": 39,
        "has_played": true,
        "id": 9309782,
        "last_rank": 15550,
        "player_name": "Satvir Bains",
        "rank": 29763,
        "rank_sort": 29789,
        "total": 2368
      },
      {
        "club_badge_src": null,
        "entry": 1365922,
        "entry_name": "JayFC",
        "event_total": 56,
        "has_played": true,
        "id": 9495380,
        "last_rank": 28726,
        "player_name": "Jennard John",
        "rank": 29763,
        "rank_sort": 29790,
        "total": 2368
      },
      {
        "club_badge_src": null,
        "entry": 1498133,
        "entry_name": "Zryw Kretlewo",
        "event_total": 52,
        "has_played": true,
        "id": 10447704,
        "last_rank": 24832,
        "player_name": "Tomasz Opowicz",
        "rank": 29763,
        "rank_sort": 29791,
        "total": 2368
      },
      {
        "club_badge_src": null,
        "entry": 1502782,
        "entry_name": "AL  \u0639NTABLY \u2728",
        "event_total": 58,
        "has_played": true,
        "id": 10480385,
        "last_rank": 30727,
        "player_name": "Mostafa AL-AntabLy",
        "rank": 29763,
        "rank_sort": 29792,
        "total": 2368
      },
      {
        "club_badge_src": "https://fantasy.premierleague.com/gcs/plfpl-production-adobe-approved/plfpl-production/1666952/f0998c83-c821-4381-a4a1-486d95a3417a.png",
        "entry": 1666952,
        "entry_name": "ODC",
        "event_total": 31,
        "has_played": true,
        "id": 11670933,
        "last_rank": 11237,
        "player_name": "tiago frade",
        "rank": 29763,
        "rank_sort": 29793,
        "total": 2368
      },
      {
        "club_badge_src": "https://fantasy.premierleague.com/gcs/plfpl-production-adobe-approved/plfpl-production/1671487/eb928bed-7fa9-4978-8024-cae977330ffc.png",
        "entry": 1671487,
        "entry_name": "Mazharjrs",
        "event_total": 39,
        "has_played": true,
        "id": 11702556,
        "last_rank": 15550,
        "player_name": "Mohamed Mazhar",
        "rank": 29763,
        "rank_sort": 29794,
        "total": 2368
      },
      {
        "club_badge_src": null,
        "entry": 1760308,
        "entry_name": "1911",
        "event_total": 59,
        "has_played": true,
        "id": 12359219,
        "last_rank": 31620,
        "player_name": "Mohamed Adel",
        "rank": 29763,
        "rank_sort": 29795,
        "total": 2368
      },
      {
        "club_badge_src": null,
        "entry": 1920967,
        "entry_name": "Power Reijnders",
        "event_total": 67,
        "has_played": true,
        "id": 13545749,
        "last_rank": 41073,
        "player_name": "Danny Charlesworth",
        "rank": 29763,
        "rank_sort": 29796,
        "total": 2368
      },
      {
        "club_badge_src": null,
        "entry": 1983396,
        "entry_name": "Mousa",
        "event_total": 49,
        "has_played": true,
        "id": 14009433,
        "last_rank": 22534,
        "player_name": "Hadeer Mawoed",
        "rank": 29763,
        "rank_sort": 29797,
        "total": 2368
      },
      {
        "club_badge_src": "https://fantasy.premierleague.com/gcs/plfpl-production-adobe-approved/plfpl-production/2243591/dcbeeeb1-44c2-4531-ad0c-413f19f7b76f.png",
        "entry": 2243591,
        "entry_name": "Martial Mathers",
        "event_total": 72,
        "has_played": true,
        "id": 15984280,
        "last_rank": 48363,
        "player_name": "Thomas Dodes",
        "rank": 29763,
        "rank_sort": 29798,
        "total": 2368
      },
      {
        "club_badge_src": null,
        "entry": 2312359,
        "entry_name": "ChickenTikkaMusiala",
        "event_total": 44,
        "has_played": true,
        "id": 16494640,
        "last_rank": 18790,
        "player_name": "Oscar Braun",
        "rank": 29763,
        "rank_sort": 29799,
        "total": 2368
      },
      {
        "club_badge_src": null,
        "entry": 3800368,
        "entry_name": "Hume Alone",
        "event_total": 77,
        "has_played": true,
        "id": 28408925,
        "last_rank": 56369,
        "player_name": "Josh Glover",
        "rank": 29763,
        "rank_sort": 29800,
        "total": 2368
      }
    ]
  }
}