{
  "last_updated_data": "2026-05-24T23:28:17Z",
  "league": {
    "admin_entry": null,
    "closed": false,
    "code_privacy": "p",
    "created": "2025-07-20T23:14:33.933835Z",
    "cup_league": 2815434,
    "has_cup": true,
    "id": 314,
    "league_type": "s",
    "max_entries": null,
    "name": "Overall",
    "rank": null,
    "scoring": "c",
    "start_event": 1
  },
  "new_entries": {
    "has_next": false,
    "page": 1,
    "results": []
  },
  "standings": {
    "has_next": true,
    "page": 280,
    "results": [
      {
        "club_badge_src": null,
        "entry": 2752367,
        "entry_name": "Youssef Ak",
        "event_total": 55,
        "has_played": true,
        "id": 20011792,
        "last_rank": 10462,
        "player_name": "Youssef Ak",
        "rank": 13901,
        "rank_sort": 13951,
        "total": 2390
      },
      {
        "club_badge_src": null,
        "entry": 2826223,
        "entry_name": "FrkHemstads XI",
        "event_total": 58,
        "has_played": true,
        "id": 20649463,
        "last_rank": 9942,
        "player_name": "Karine Hemstad",
        "rank": 13901,
        "rank_sort": 13952,
        "total": 2390
      },
      {
        "club_badge_src": null,
        "entry": 2832660,
        "entry_name": "goteam",
        "event_total": 58,
        "has_played": true,
        "id": 20699326,
        "last_rank": 14040,
        "player_name": "Image Paudel",
        "rank": 13901,
        "rank_sort": 13953,
        "total": 2390
      },
      {
        "club_badge_src": null,
        "entry": 2862242,
        "entry_name": "The Slot Machine",
        "event_total": 67,
        "has_played": true,
        "id": 20931772,
        "last_rank": 19721,
        "player_name": "Ryan Eastwood",
        "rank": 13901,
        "rank_sort": 13954,
        "total": 2390
      },
      {
        "club_badge_src": null,
        "entry": 3035420,
        "entry_name": "Bag of Kadioglue",
        "event_total": 45,
        "has_played": true,
        "id": 22339526,
        "last_rank": 8198,
        "player_name": "John Baldwin",
        "rank": 13901,
        "rank_sort": 13955,
        "total": 2390
      },
      {
        "club_badge_src": null,
        "entry": 3237373,
        "entry_name": "Thanks for the cash",
        "event_total": 62,
        "has_played": true,
        "id": 23944976,
        "last_rank": 16441,
        "player_name": "Jason Kermeen",
        "rank": 13901,
        "rank_sort": 13956,
        "total": 2390
      },
      {
        "club_badge_src": null,
        "entry": 3254747,
        "entry_name": "Creme de la Prem",
        "event_total": 67,
        "has_played": true,
        "id": 24081790,
        "last_rank": 19904,
        "player_name": "Samuel Mulligan",
        "rank": 13901,
        "rank_sort": 13957,
        "total": 2390
      },
      {
        "club_badge_src": null,
        "entry": 3385068,
        "entry_name": "96alrubaie",
        "event_total": 83,
        "has_played": true,
        "id": 25128458,
        "last_rank": 29904,
        "player_name": "ahmed fareed",
        "rank": 13901,
        "rank_sort": 13958,
        "total": 2390
      },
      {
        "club_badge_src": null,
        "entry": 3641746,
        "entry_name": "Mog Adana Traore",
        "event_total": 66,
        "has_played": true,
        "id": 27140967,
        "last_rank": 19176,
        "player_name": "Jordan Benitez",
        "rank": 13901,
        "rank_sort": 13959,
        "total": 2390
      },
      {
        "club_badge_src": null,
        "entry": 3822000,
        "entry_name": "Kull",
        "event_total": 66,
        "has_played": true,
        "id": 28586053,
        "last_rank": 16320,
        "player_name": "\u00d8istein Kulleseid",
        "rank": 13901,
        "rank_sort": 13960,
        "total": 2390
      },
      {
        "club_badge_src": null,
        "entry": 3895289,
        "entry_name": "x_arsenal",
        "event_total": 65,
        "has_played": true,
        "id": 29275427,
        "last_rank": 18377,
        "player_name": "XxX arsenal",
        "rank": 13901,
        "rank_sort": 13961,
        "total": 2390
      },
      {
        "club_badge_src": null,
        "entry": 3924208,
        "entry_name": "Rosa plus hvit",
        "event_total": 68,
        "has_played": true,
        "id": 29510971,
        "last_rank": 20416,
        "player_name": "Shan Ohlsson",
        "rank": 13901,
        "rank_sort": 13962,
        "total": 2390
      },
      {
        "club_badge_src": null,
        "entry": 3979242,
        "entry_name": "Albieswinners",
        "event_total": 59,
        "has_played": true,
        "id": 29952866,
        "last_rank": 12322,
        "player_name": "Albert Pasha",
        "rank": 13901,
        "rank_sort": 13963,
        "total": 2390
      },
      {
        "club_badge_src": null,
        "entry": 4083814,
        "entry_name": "Kinder Mbeumo",
        "event_total": 65,
        "has_played": true,
        "id": 30830542,
        "last_rank": 15694,
        "player_name": "Callum Chubb",
        "rank": 13901,
        "rank_sort": 13964,
        "total": 2390
      },
      {
        "club_badge_src": null,
        "entry": 4403672,
        "entry_name": "Wirtz Case Scenario",
        "event_total": 67,
        "has_played": true,
        "id": 33493375,
        "last_rank": 19835,
        "player_name": "Kevin O'Neill",
        "rank": 13901,
        "rank_sort": 13965,
        "total": 2390
      },
      {
        "club_badge_src": null,
        "entry": 4993374,
        "entry_name": "power Reijnders",
        "event_total": 57,
        "has_played": true,
        "id": 38551155,
        "last_rank": 11345,
        "player_name": "Veral Nandha",
        "rank": 13901,
        "rank_sort": 13966,
        "total": 2390
      },
      {
        "club_badge_src": null,
        "entry": 5027354,
        "entry_name": "Wirtz So Bad",
        "event_total": 61,
        "has_played": true,
        "id": 38828049,
        "last_rank": 15797,
        "player_name": "Gary White",
        "rank": 13901,
        "rank_sort": 13967,
        "total": 2390
      },
      {
        "club_badge_src": null,
        "entry": 5659032,
        "entry_name": "Ne\u010diho 11",
        "event_total": 68,
        "has_played": true,
        "id": 44274093,
        "last_rank": 20538,
        "player_name": "Vojt\u011bch Ne\u010das",
        "rank": 13901,
        "rank_sort": 13968,
        "total": 2390
      },
      {
        "club_badge_src": null,
        "entry": 5667224,
        "entry_name": "MenBlevDuSpurgt 4.0",
        "event_total": 45,
        "has_played": true,
        "id": 44342961,
        "last_rank": 8198,
        "player_name": "Viktor Gjerstrup Paulsen",
        "rank": 13901,
        "rank_sort": 13969,
        "total": 2390
      },
      {
        "club_badge_src": null,
        "entry": 5703103,
        "entry_name": "Maximum Steve",
        "event_total": 57,
        "has_played": true,
        "id": 44654161,
        "last_rank": 13401,
        "player_name": "Paul Gonzalez",
        "rank": 13901,
        "rank_sort": 13970,
        "total": 2390
      },
      {
        "club_badge_src": null,
        "entry": 5787072,
        "entry_name": "VAZON XI",
        "event_total": 67,
        "has_played": true,
        "id": 45383666,
        "last_rank": 16959,
        "player_name": "Fabian Vazon",
        "rank": 13901,
        "rank_sort": 13971,
        "total": 2390
      },
      {
        "club_badge_src": null,
        "entry": 5853681,
        "entry_name": "Mbeumo No. 5",
        "event_total": 63,
        "has_played": true,
        "id": 45960970,
        "last_rank": 16959,
        "player_name": "Michael Cooper",
        "rank": 13901,
        "rank_sort": 13972,
        "total": 2390
      },
      {
        "club_badge_src": null,
        "entry": 5932945,
        "entry_name": "The Baba Yaga",
        "event_total": 59,
        "has_played": true,
        "id": 46644777,
        "last_rank": 14604,
        "player_name": "Yash Batra",
        "rank": 13901,
        "rank_sort": 13973,
        "total": 2390
      },
      {
        "club_badge_src": null,
        "entry": 5971609,
        "entry_name": "Corn on the Kobbie",
        "event_total": 70,
        "has_played": true,
        "id": 46994565,
        "last_rank": 22064,
        "player_name": "Olly Green",
        "rank": 13901,
        "rank_sort": 13974,
        "total": 2390
      },
      {
        "club_badge_src": null,
        "entry": 5977459,
        "entry_name": "TBone",
        "event_total": 49,
        "has_played": true,
        "id": 47057788,
        "last_rank": 9711,
        "player_name": "Tyrone Deery",
        "rank": 13901,
        "rank_sort": 13975,
        "total": 2390
      },
      {
        "club_badge_src": null,
        "entry": 6104879,
        "entry_name": "Nece Rom u koprive",
        "event_total": 51,
        "has_played": true,
        "id": 48219288,
        "last_rank": 8854,
        "player_name": "Renato Smijulj",
        "rank": 13901,
        "rank_sort": 13976,
        "total": 2390
      },
      {
        "club_badge_src": null,
        "entry": 6514503,
        "entry_name": "Enter Team Name",
        "event_total": 58,
        "has_played": true,
        "id": 51950889,
        "last_rank": 14040,
        "player_name": "K M",
        "rank": 13901,
        "rank_sort": 13977,
        "total": 2390
      },
      {
        "club_badge_src": null,
        "entry": 6707366,
        "entry_name": "Barnes fc",
        "event_total": 68,
        "has_played": true,
        "id": 53674910,
        "last_rank": 20538,
        "player_name": "Hylton Barnes",
        "rank": 13901,
        "rank_sort": 13978,
        "total": 2390
      },
      {
        "club_badge_src": null,
        "entry": 6890626,
        "entry_name": "AlHajyiat F.C.",
        "event_total": 58,
        "has_played": true,
        "id": 55225617,
        "last_rank": 14040,
        "player_name": "Salman Al Marwani",
        "rank": 13901,
        "rank_sort": 13979,
        "total": 2390
      },
      {
        "club_badge_src": null,
        "entry": 6909193,
        "entry_name": "FC Charno",
        "event_total": 60,
        "has_played": true,
        "id": 55381229,
        "last_rank": 15063,
        "player_name": "Charnj Bedyal",
        "rank": 13901,
        "rank_sort": 13980,
        "total": 2390
      },
      {
        "club_badge_src": null,
        "entry": 7016684,
        "entry_name": "KissMyDekiFC",
        "event_total": 62,
        "has_played": true,
        "id": 56356852,
        "last_rank": 16441,
        "player_name": "Matt Bolton",
        "rank": 13901,
        "rank_sort": 13981,
        "total": 2390
      },
      {
        "club_badge_src": null,
        "entry": 7144586,
        "entry_name": "Supa Strikers",
        "event_total": 64,
        "has_played": true,
        "id": 57600082,
        "last_rank": 17718,
        "player_name": "Jason Cohen",
        "rank": 13901,
        "rank_sort": 13982,
        "total": 2390
      },
      {
        "club_badge_src": "https://fantasy.premierleague.com/gcs/plfpl-production-adobe-approved/plfpl-production/7536241/7f960696-3d9a-49bb-8eef-14f6525c3434.png",
        "entry": 7536241,
        "entry_name": "Shaolin Soccer",
        "event_total": 62,
        "has_played": true,
        "id": 61685207,
        "last_rank": 13947,
        "player_name": "Shadi Hirori",
        "rank": 13901,
        "rank_sort": 13983,
        "total": 2390
      },
      {
        "club_badge_src": null,
        "entry": 7649298,
        "entry_name": "West street united",
        "event_total": 58,
        "has_played": true,
        "id": 62710788,
        "last_rank": 14040,
        "player_name": "Chris Brock",
        "rank": 13901,
        "rank_sort": 13984,
        "total": 2390
      },
      {
        "club_badge_src": null,
        "entry": 7944903,
        "entry_name": "Rinse Dem",
        "event_total": 68,
        "has_played": true,
        "id": 65394097,
        "last_rank": 20280,
        "player_name": "B Thorne",
        "rank": 13901,
        "rank_sort": 13985,
        "total": 2390
      },
      {
        "club_badge_src": null,
        "entry": 8087571,
        "entry_name": "Winning XI",
        "event_total": 69,
        "has_played": true,
        "id": 66685610,
        "last_rank": 21159,
        "player_name": "Bright Yamoah",
        "rank": 13901,
        "rank_sort": 13986,
        "total": 2390
      },
      {
        "club_badge_src": null,
        "entry": 8199101,
        "entry_name": "\u0627\u0644\u062f\u0643\u062a\u0648\u0631",
        "event_total": 59,
        "has_played": true,
        "id": 67732240,
        "last_rank": 14604,
        "player_name": "Kas7 Kas7",
        "rank": 13901,
        "rank_sort": 13987,
        "total": 2390
      },
      {
        "club_badge_src": null,
        "entry": 9410419,
        "entry_name": "Pioneer",
        "event_total": 65,
        "has_played": true,
        "id": 79473154,
        "last_rank": 18270,
        "player_name": "Fahim Nur Shakil",
        "rank": 13901,
        "rank_sort": 13988,
        "total": 2390
      },
      {
        "club_badge_src": null,
        "entry": 3157,
        "entry_name": "Rodallega Bombs",
        "event_total": 64,
        "has_played": true,
        "id": 17818,
        "last_rank": 17718,
        "player_name": "Stefan Court",
        "rank": 13989,
        "rank_sort": 13989,
        "total": 2390
      },
      {
        "club_badge_src": null,
        "entry": 16803,
        "entry_name": "Kinder Mbeumo",
        "event_total": 71,
        "has_played": true,
        "id": 103993,
        "last_rank": 19835,
        "player_name": "Sam Dwyer",
        "rank": 13989,
        "rank_sort": 13990,
        "total": 2390
      },
      {
        "club_badge_src": null,
        "entry": 24713,
        "entry_name": "Unatheltico Madrid",
        "event_total": 72,
        "has_played": true,
        "id": 156036,
        "last_rank": 20538,
        "player_name": "James Gater",
        "rank": 13989,
        "rank_sort": 13991,
        "total": 2390
      },
      {
        "club_badge_src": null,
        "entry": 25551,
        "entry_name": "Expected Toulouse",
        "event_total": 60,
        "has_played": true,
        "id": 161621,
        "last_rank": 15164,
        "player_name": "Ash H",
        "rank": 13989,
        "rank_sort": 13992,
        "total": 2390
      },
      {
        "club_badge_src": null,
        "entry": 34446,
        "entry_name": "HaCunhaMateta",
        "event_total": 68,
        "has_played": true,
        "id": 220012,
        "last_rank": 17718,
        "player_name": "Josh Herron",
        "rank": 13989,
        "rank_sort": 13993,
        "total": 2390
      },
      {
        "club_badge_src": null,
        "entry": 39476,
        "entry_name": "Nationala Angliei",
        "event_total": 77,
        "has_played": true,
        "id": 252947,
        "last_rank": 24475,
        "player_name": "Cosmin Curuliuc",
        "rank": 13989,
        "rank_sort": 13994,
        "total": 2390
      },
      {
        "club_badge_src": "https://fantasy.premierleague.com/gcs/plfpl-production-adobe-approved/plfpl-production/44047/10fb639d-fda9-4bf6-a1ca-b801d1dc1f31.png",
        "entry": 44047,
        "entry_name": "25/26League champion",
        "event_total": 60,
        "has_played": true,
        "id": 282204,
        "last_rank": 15164,
        "player_name": "Zac Sparrow",
        "rank": 13989,
        "rank_sort": 13995,
        "total": 2390
      },
      {
        "club_badge_src": "https://fantasy.premierleague.com/gcs/plfpl-production-adobe-approved/plfpl-production/45653/161cb653-c11a-49b6-8faf-0ef2440bd9d8.png",
        "entry": 45653,
        "entry_name": "Cali-fornals-cation",
        "event_total": 64,
        "has_played": true,
        "id": 292857,
        "last_rank": 12705,
        "player_name": "Adam Keenor",
        "rank": 13989,
        "rank_sort": 13996,
        "total": 2390
      },
      {
        "club_badge_src": null,
        "entry": 53507,
        "entry_name": "team",
        "event_total": 67,
        "has_played": true,
        "id": 344269,
        "last_rank": 17078,
        "player_name": "Gabriel Reece",
        "rank": 13989,
        "rank_sort": 13997,
        "total": 2390
      },
      {
        "club_badge_src": null,
        "entry": 67763,
        "entry_name": "Bouncebackability",
        "event_total": 66,
        "has_played": true,
        "id": 438816,
        "last_rank": 16441,
        "player_name": "Craig Johnson",
        "rank": 13989,
        "rank_sort": 13998,
        "total": 2390
      },
      {
        "club_badge_src": null,
        "entry": 149287,
        "entry_name": "ADRIANNNNNNNNNNNNNNN",
        "event_total": 68,
        "has_played": true,
        "id": 978772,
        "last_rank": 17718,
        "player_name": "Chee Au",
        "rank": 13989,
        "rank_sort": 13999,
        "total": 2390
      },
      {
        "club_badge_src": null,
        "entry": 151244,
        "entry_name": "Walker\u2019s Runners",
        "event_total": 60,
        "has_played": true,
        "id": 992187,
        "last_rank": 9142,
        "player_name": "Will Walker",
        "rank": 13989,
        "rank_sort": 14000,
        "total": 2390
      }
    ]
  }
}