{
  "last_updated_data": "2026-05-24T23:28:17Z",
  "league": {
    "admin_entry": null,
    "closed": false,
    "code_privacy": "p",
    "created": "2025-07-20T23:14:33.933835Z",
    "cup_league": 2815434,
    "has_cup": true,
    "id": 314,
    "league_type": "s",
    "max_entries": null,
    "name": "Overall",
    "rank": null,
    "scoring": "c",
    "start_event": 1
  },
  "new_entries": {
    "has_next": false,
    "page": 1,
    "results": []
  },
  "standings": {
    "has_next": true,
    "page": 991,
    "results": [
      {
        "club_badge_src": null,
        "entry": 690394,
        "entry_name": "L\u00f6w Island",
        "event_total": 65,
        "has_played": true,
        "id": 4674795,
        "last_rank": 63201,
        "player_name": "Matt Collins",
        "rank": 49425,
        "rank_sort": 49501,
        "total": 2352
      },
      {
        "club_badge_src": "https://fantasy.premierleague.com/gcs/plfpl-production-adobe-approved/plfpl-production/706244/76a85906-a1a8-482a-ba45-aff89128cf0d.png",
        "entry": 706244,
        "entry_name": "Diabolical 11",
        "event_total": 46,
        "has_played": true,
        "id": 4786371,
        "last_rank": 35034,
        "player_name": "Dean Bartley",
        "rank": 49425,
        "rank_sort": 49502,
        "total": 2352
      },
      {
        "club_badge_src": null,
        "entry": 723958,
        "entry_name": "Day FC",
        "event_total": 54,
        "has_played": true,
        "id": 4916956,
        "last_rank": 45252,
        "player_name": "Thomas Day",
        "rank": 49425,
        "rank_sort": 49503,
        "total": 2352
      },
      {
        "club_badge_src": null,
        "entry": 749404,
        "entry_name": "Utd City Rovers FC",
        "event_total": 51,
        "has_played": true,
        "id": 5098736,
        "last_rank": 41324,
        "player_name": "Lee Barker",
        "rank": 49425,
        "rank_sort": 49504,
        "total": 2352
      },
      {
        "club_badge_src": null,
        "entry": 778294,
        "entry_name": "FantaCITY",
        "event_total": 44,
        "has_played": true,
        "id": 5310926,
        "last_rank": 32879,
        "player_name": "Kieran Barnes",
        "rank": 49425,
        "rank_sort": 49505,
        "total": 2352
      },
      {
        "club_badge_src": null,
        "entry": 791039,
        "entry_name": "Show me the mane",
        "event_total": 61,
        "has_played": true,
        "id": 5413041,
        "last_rank": 56708,
        "player_name": "Ben McCullagh",
        "rank": 49425,
        "rank_sort": 49506,
        "total": 2352
      },
      {
        "club_badge_src": null,
        "entry": 809153,
        "entry_name": "Spearmint Rhino",
        "event_total": 46,
        "has_played": true,
        "id": 5539714,
        "last_rank": 35034,
        "player_name": "Charles Glanzer",
        "rank": 49425,
        "rank_sort": 49507,
        "total": 2352
      },
      {
        "club_badge_src": null,
        "entry": 845875,
        "entry_name": "Yoro Wizard Harry",
        "event_total": 53,
        "has_played": true,
        "id": 5795698,
        "last_rank": 38644,
        "player_name": "bobby bobby merriman",
        "rank": 49425,
        "rank_sort": 49508,
        "total": 2352
      },
      {
        "club_badge_src": null,
        "entry": 865657,
        "entry_name": "Cuzcuz FC",
        "event_total": 52,
        "has_played": true,
        "id": 5934476,
        "last_rank": 42648,
        "player_name": "Fernando Ungaro",
        "rank": 49425,
        "rank_sort": 49509,
        "total": 2352
      },
      {
        "club_badge_src": null,
        "entry": 886726,
        "entry_name": "Mr. Miyagi",
        "event_total": 63,
        "has_played": true,
        "id": 6081834,
        "last_rank": 59813,
        "player_name": "Bader Raji",
        "rank": 49425,
        "rank_sort": 49510,
        "total": 2352
      },
      {
        "club_badge_src": null,
        "entry": 897134,
        "entry_name": "Atl\u00e9tico Madrass",
        "event_total": 48,
        "has_played": true,
        "id": 6163297,
        "last_rank": 37589,
        "player_name": "Victor Stjernstr\u00f6m",
        "rank": 49425,
        "rank_sort": 49511,
        "total": 2352
      },
      {
        "club_badge_src": null,
        "entry": 920077,
        "entry_name": "Ha-Cunha Mateta",
        "event_total": 46,
        "has_played": true,
        "id": 6327550,
        "last_rank": 35166,
        "player_name": "Ben Netherway",
        "rank": 49425,
        "rank_sort": 49512,
        "total": 2352
      },
      {
        "club_badge_src": "https://fantasy.premierleague.com/gcs/plfpl-production-adobe-approved/plfpl-production/949564/39f9251b-1b7a-4bb6-b0a9-ccc94e12a354.png",
        "entry": 949564,
        "entry_name": "VL's XI (25-26)",
        "event_total": 81,
        "has_played": true,
        "id": 6541547,
        "last_rank": 98011,
        "player_name": "VLplfantasy .",
        "rank": 49425,
        "rank_sort": 49513,
        "total": 2352
      },
      {
        "club_badge_src": null,
        "entry": 960097,
        "entry_name": "bwfc",
        "event_total": 59,
        "has_played": true,
        "id": 6616098,
        "last_rank": 53023,
        "player_name": "Thomas Fitzpatrick",
        "rank": 49425,
        "rank_sort": 49514,
        "total": 2352
      },
      {
        "club_badge_src": null,
        "entry": 961746,
        "entry_name": "Be Safe Be Lucky",
        "event_total": 62,
        "has_played": true,
        "id": 6627596,
        "last_rank": 58071,
        "player_name": "Sam Brooks",
        "rank": 49425,
        "rank_sort": 49515,
        "total": 2352
      },
      {
        "club_badge_src": null,
        "entry": 968271,
        "entry_name": "We'll Have a Look FC",
        "event_total": 68,
        "has_played": true,
        "id": 6673496,
        "last_rank": 68748,
        "player_name": "Gareth Chendlik",
        "rank": 49425,
        "rank_sort": 49516,
        "total": 2352
      },
      {
        "club_badge_src": null,
        "entry": 970033,
        "entry_name": "Gooner enjoyer",
        "event_total": 56,
        "has_played": true,
        "id": 6685864,
        "last_rank": 48197,
        "player_name": "Lenny Brandon",
        "rank": 49425,
        "rank_sort": 49517,
        "total": 2352
      },
      {
        "club_badge_src": "https://fantasy.premierleague.com/gcs/plfpl-production-adobe-approved/plfpl-production/991732/f6f154e7-56e5-40ac-9a07-26d200a49057.png",
        "entry": 991732,
        "entry_name": "UNLUCKY",
        "event_total": 47,
        "has_played": true,
        "id": 6838287,
        "last_rank": 36348,
        "player_name": "Abdullah Alshehab",
        "rank": 49425,
        "rank_sort": 49518,
        "total": 2352
      },
      {
        "club_badge_src": "https://fantasy.premierleague.com/gcs/plfpl-production-adobe-approved/plfpl-production/995137/31011934-c13b-4488-ac0b-5f6b8eb2509f.png",
        "entry": 995137,
        "entry_name": "P\u00e4tsi Playboys",
        "event_total": 49,
        "has_played": true,
        "id": 6867802,
        "last_rank": 39023,
        "player_name": "Albin P\u00e4tsi",
        "rank": 49425,
        "rank_sort": 49519,
        "total": 2352
      },
      {
        "club_badge_src": null,
        "entry": 1010431,
        "entry_name": "9/11",
        "event_total": 76,
        "has_played": true,
        "id": 6987925,
        "last_rank": 86054,
        "player_name": "Noa Viduka",
        "rank": 49425,
        "rank_sort": 49520,
        "total": 2352
      },
      {
        "club_badge_src": null,
        "entry": 1022565,
        "entry_name": "Pietarin Veteraanit",
        "event_total": 64,
        "has_played": true,
        "id": 7074684,
        "last_rank": 61606,
        "player_name": "Samuli Nyk\u00e4nen",
        "rank": 49425,
        "rank_sort": 49521,
        "total": 2352
      },
      {
        "club_badge_src": null,
        "entry": 1033928,
        "entry_name": "We go again",
        "event_total": 44,
        "has_played": true,
        "id": 7154500,
        "last_rank": 32879,
        "player_name": "Tim Berridge",
        "rank": 49425,
        "rank_sort": 49522,
        "total": 2352
      },
      {
        "club_badge_src": null,
        "entry": 1035969,
        "entry_name": "De Trafford Arms",
        "event_total": 54,
        "has_played": true,
        "id": 7168982,
        "last_rank": 45416,
        "player_name": "Ted Hayes",
        "rank": 49425,
        "rank_sort": 49523,
        "total": 2352
      },
      {
        "club_badge_src": null,
        "entry": 1046395,
        "entry_name": "GiroudSandstorm",
        "event_total": 47,
        "has_played": true,
        "id": 7241773,
        "last_rank": 36200,
        "player_name": "Luka Salecic",
        "rank": 49425,
        "rank_sort": 49524,
        "total": 2352
      },
      {
        "club_badge_src": null,
        "entry": 1046496,
        "entry_name": "RubberDigneRapids",
        "event_total": 54,
        "has_played": true,
        "id": 7242478,
        "last_rank": 45416,
        "player_name": "Tahmid Rahman",
        "rank": 49425,
        "rank_sort": 49525,
        "total": 2352
      },
      {
        "club_badge_src": null,
        "entry": 1069544,
        "entry_name": "Botman Forever",
        "event_total": 58,
        "has_played": true,
        "id": 7404346,
        "last_rank": 51403,
        "player_name": "Daniel Rutherford",
        "rank": 49425,
        "rank_sort": 49526,
        "total": 2352
      },
      {
        "club_badge_src": null,
        "entry": 1073979,
        "entry_name": "HaderStadigSterling",
        "event_total": 62,
        "has_played": true,
        "id": 7435269,
        "last_rank": 58071,
        "player_name": "Carl Urioste",
        "rank": 49425,
        "rank_sort": 49527,
        "total": 2352
      },
      {
        "club_badge_src": null,
        "entry": 1083493,
        "entry_name": "Ba-Ha",
        "event_total": 69,
        "has_played": true,
        "id": 7502322,
        "last_rank": 70757,
        "player_name": "Abdullah Alhamdan",
        "rank": 49425,
        "rank_sort": 49528,
        "total": 2352
      },
      {
        "club_badge_src": "https://fantasy.premierleague.com/gcs/plfpl-production-adobe-approved/plfpl-production/1093939/800b63cd-cdd8-4641-b8cf-0fca66984b7e.png",
        "entry": 1093939,
        "entry_name": "Wirtz Case Scenario",
        "event_total": 60,
        "has_played": true,
        "id": 7576594,
        "last_rank": 54667,
        "player_name": "Jamie Hughes",
        "rank": 49425,
        "rank_sort": 49529,
        "total": 2352
      },
      {
        "club_badge_src": null,
        "entry": 1094773,
        "entry_name": "Wirtz nightmare",
        "event_total": 67,
        "has_played": true,
        "id": 7582464,
        "last_rank": 67063,
        "player_name": "George Shrimpton",
        "rank": 49425,
        "rank_sort": 49530,
        "total": 2352
      },
      {
        "club_badge_src": null,
        "entry": 1098466,
        "entry_name": "Zidane y Pavones",
        "event_total": 59,
        "has_played": true,
        "id": 7608551,
        "last_rank": 53023,
        "player_name": "Naim Kabalan",
        "rank": 49425,
        "rank_sort": 49531,
        "total": 2352
      },
      {
        "club_badge_src": null,
        "entry": 1099325,
        "entry_name": "Could be Wirtz",
        "event_total": 57,
        "has_played": true,
        "id": 7614550,
        "last_rank": 49691,
        "player_name": "Tom Barnett",
        "rank": 49425,
        "rank_sort": 49532,
        "total": 2352
      },
      {
        "club_badge_src": null,
        "entry": 1104229,
        "entry_name": "Delap Dancers",
        "event_total": 57,
        "has_played": true,
        "id": 7648707,
        "last_rank": 49880,
        "player_name": "Andrew Dowie",
        "rank": 49425,
        "rank_sort": 49533,
        "total": 2352
      },
      {
        "club_badge_src": null,
        "entry": 1124010,
        "entry_name": "MUF",
        "event_total": 60,
        "has_played": true,
        "id": 7789423,
        "last_rank": 55014,
        "player_name": "OsaMa MagDy",
        "rank": 49425,
        "rank_sort": 49534,
        "total": 2352
      },
      {
        "club_badge_src": null,
        "entry": 1137848,
        "entry_name": "WatchYourStepanenko",
        "event_total": 67,
        "has_played": true,
        "id": 7887268,
        "last_rank": 67063,
        "player_name": "Louis Hrebeniak",
        "rank": 49425,
        "rank_sort": 49535,
        "total": 2352
      },
      {
        "club_badge_src": null,
        "entry": 1162015,
        "entry_name": "FC \u00d6rtis",
        "event_total": 59,
        "has_played": true,
        "id": 8060726,
        "last_rank": 53023,
        "player_name": "Oscar \u00d6rtenholm",
        "rank": 49425,
        "rank_sort": 49536,
        "total": 2352
      },
      {
        "club_badge_src": null,
        "entry": 1162729,
        "entry_name": "Top Bananas",
        "event_total": 69,
        "has_played": true,
        "id": 8065737,
        "last_rank": 70757,
        "player_name": "Ross Samson",
        "rank": 49425,
        "rank_sort": 49537,
        "total": 2352
      },
      {
        "club_badge_src": null,
        "entry": 1172762,
        "entry_name": "Snoop Udogie Dogg",
        "event_total": 44,
        "has_played": true,
        "id": 8136005,
        "last_rank": 32751,
        "player_name": "James Beer",
        "rank": 49425,
        "rank_sort": 49538,
        "total": 2352
      },
      {
        "club_badge_src": null,
        "entry": 1181765,
        "entry_name": "KAKA' Freedom",
        "event_total": 60,
        "has_played": true,
        "id": 8199342,
        "last_rank": 54667,
        "player_name": "kiattisak tanormsab",
        "rank": 49425,
        "rank_sort": 49539,
        "total": 2352
      },
      {
        "club_badge_src": "https://fantasy.premierleague.com/gcs/plfpl-production-adobe-approved/plfpl-production/1210670/888400cb-34a2-4afd-b6e8-a8799ffb37e1.png",
        "entry": 1210670,
        "entry_name": "Lando's Landing",
        "event_total": 68,
        "has_played": true,
        "id": 8402961,
        "last_rank": 68957,
        "player_name": "Martin Kanka",
        "rank": 49425,
        "rank_sort": 49540,
        "total": 2352
      },
      {
        "club_badge_src": null,
        "entry": 1232740,
        "entry_name": "Bijol & end all",
        "event_total": 60,
        "has_played": true,
        "id": 8560289,
        "last_rank": 54494,
        "player_name": "Vidar Ulvestad",
        "rank": 49425,
        "rank_sort": 49541,
        "total": 2352
      },
      {
        "club_badge_src": null,
        "entry": 1294758,
        "entry_name": "\u0639\u0646\u0627\u062f",
        "event_total": 40,
        "has_played": true,
        "id": 8998401,
        "last_rank": 28906,
        "player_name": "\u0639\u0646\u0627\u062f \u0639\u0646\u0627\u062f",
        "rank": 49425,
        "rank_sort": 49542,
        "total": 2352
      },
      {
        "club_badge_src": null,
        "entry": 1302275,
        "entry_name": "Mengvoeders United",
        "event_total": 49,
        "has_played": true,
        "id": 9050864,
        "last_rank": 38774,
        "player_name": "Frederik Wynant",
        "rank": 49425,
        "rank_sort": 49543,
        "total": 2352
      },
      {
        "club_badge_src": null,
        "entry": 1306652,
        "entry_name": "Herbies Heroes",
        "event_total": 52,
        "has_played": true,
        "id": 9082111,
        "last_rank": 42648,
        "player_name": "James Hermon",
        "rank": 49425,
        "rank_sort": 49544,
        "total": 2352
      },
      {
        "club_badge_src": null,
        "entry": 1327427,
        "entry_name": "mid",
        "event_total": 59,
        "has_played": true,
        "id": 9226857,
        "last_rank": 52853,
        "player_name": "Jacek Mirek",
        "rank": 49425,
        "rank_sort": 49545,
        "total": 2352
      },
      {
        "club_badge_src": null,
        "entry": 1353398,
        "entry_name": "Lizard Wizard",
        "event_total": 50,
        "has_played": true,
        "id": 9408414,
        "last_rank": 40036,
        "player_name": "Will S",
        "rank": 49425,
        "rank_sort": 49546,
        "total": 2352
      },
      {
        "club_badge_src": null,
        "entry": 1375133,
        "entry_name": "Let's NOT Talk FPL",
        "event_total": 61,
        "has_played": true,
        "id": 9559060,
        "last_rank": 56369,
        "player_name": "Andy Lam",
        "rank": 49425,
        "rank_sort": 49547,
        "total": 2352
      },
      {
        "club_badge_src": "https://fantasy.premierleague.com/gcs/plfpl-production-adobe-approved/plfpl-production/1386575/76737550-2a7e-44a0-beb6-d4c92d02db55.png",
        "entry": 1386575,
        "entry_name": "Change Name",
        "event_total": 70,
        "has_played": true,
        "id": 9644219,
        "last_rank": 73038,
        "player_name": "Hugh Hamilton",
        "rank": 49425,
        "rank_sort": 49548,
        "total": 2352
      },
      {
        "club_badge_src": "https://fantasy.premierleague.com/gcs/plfpl-production-adobe-approved/plfpl-production/1485008/ed6c3cd6-42a9-42bf-8fa2-7d1edbcd9708.png",
        "entry": 1485008,
        "entry_name": "Whiskey Blinders",
        "event_total": 63,
        "has_played": true,
        "id": 10355571,
        "last_rank": 59632,
        "player_name": "Panagiotis Michael",
        "rank": 49425,
        "rank_sort": 49549,
        "total": 2352
      },
      {
        "club_badge_src": "https://fantasy.premierleague.com/gcs/plfpl-production-adobe-approved/plfpl-production/1505384/c57accfc-b61d-471f-8fd0-edf07e31e697.png",
        "entry": 1505384,
        "entry_name": "Luke Shawarma",
        "event_total": 41,
        "has_played": true,
        "id": 10498708,
        "last_rank": 29578,
        "player_name": "Lucas Ewing",
        "rank": 49425,
        "rank_sort": 49550,
        "total": 2352
      }
    ]
  }
}