{
  "last_updated_data": "2026-05-24T23:28:17Z",
  "league": {
    "admin_entry": null,
    "closed": false,
    "code_privacy": "p",
    "created": "2025-07-20T23:14:33.933835Z",
    "cup_league": 2815434,
    "has_cup": true,
    "id": 314,
    "league_type": "s",
    "max_entries": null,
    "name": "Overall",
    "rank": null,
    "scoring": "c",
    "start_event": 1
  },
  "new_entries": {
    "has_next": false,
    "page": 1,
    "results": []
  },
  "standings": {
    "has_next": true,
    "page": 392,
    "results": [
      {
        "club_badge_src": null,
        "entry": 3582407,
        "entry_name": "Los Conejos",
        "event_total": 56,
        "has_played": true,
        "id": 26677820,
        "last_rank": 18377,
        "player_name": "Isack Berg",
        "rank": 19468,
        "rank_sort": 19551,
        "total": 2381
      },
      {
        "club_badge_src": null,
        "entry": 3814773,
        "entry_name": "1stTimeWasSooNice FC",
        "event_total": 54,
        "has_played": true,
        "id": 28526910,
        "last_rank": 17078,
        "player_name": "Joe Taylor",
        "rank": 19468,
        "rank_sort": 19552,
        "total": 2381
      },
      {
        "club_badge_src": null,
        "entry": 4013043,
        "entry_name": "my dream xi",
        "event_total": 65,
        "has_played": true,
        "id": 30239296,
        "last_rank": 21949,
        "player_name": "Raj Ghemo",
        "rank": 19468,
        "rank_sort": 19553,
        "total": 2381
      },
      {
        "club_badge_src": null,
        "entry": 4044748,
        "entry_name": "How I Met Your Mata",
        "event_total": 70,
        "has_played": true,
        "id": 30506061,
        "last_rank": 26088,
        "player_name": "Yusuf Turk",
        "rank": 19468,
        "rank_sort": 19554,
        "total": 2381
      },
      {
        "club_badge_src": "https://fantasy.premierleague.com/gcs/plfpl-production-adobe-approved/plfpl-production/4054815/732bf8f2-2fe8-4268-9a1c-8f4a21c45648.png",
        "entry": 4054815,
        "entry_name": "Liverdeadpool",
        "event_total": 65,
        "has_played": true,
        "id": 30593992,
        "last_rank": 25330,
        "player_name": "Jo\u00e3o Paulo Fonseca",
        "rank": 19468,
        "rank_sort": 19555,
        "total": 2381
      },
      {
        "club_badge_src": null,
        "entry": 4165404,
        "entry_name": "Szemi",
        "event_total": 42,
        "has_played": true,
        "id": 31498942,
        "last_rank": 10556,
        "player_name": "P\u00e9ter N\u00e9meth",
        "rank": 19468,
        "rank_sort": 19556,
        "total": 2381
      },
      {
        "club_badge_src": null,
        "entry": 4199168,
        "entry_name": "Lil Uzi Wirtz",
        "event_total": 56,
        "has_played": true,
        "id": 31784978,
        "last_rank": 18377,
        "player_name": "Fergal Swaine",
        "rank": 19468,
        "rank_sort": 19557,
        "total": 2381
      },
      {
        "club_badge_src": null,
        "entry": 4215481,
        "entry_name": "Sir Durex Ferguson",
        "event_total": 71,
        "has_played": true,
        "id": 31924319,
        "last_rank": 30957,
        "player_name": "Namay Dudeja",
        "rank": 19468,
        "rank_sort": 19558,
        "total": 2381
      },
      {
        "club_badge_src": null,
        "entry": 4216754,
        "entry_name": "Real Mayohnnaise",
        "event_total": 67,
        "has_played": true,
        "id": 31934649,
        "last_rank": 27020,
        "player_name": "Matthew Mayoh",
        "rank": 19468,
        "rank_sort": 19559,
        "total": 2381
      },
      {
        "club_badge_src": null,
        "entry": 4418766,
        "entry_name": "Twenty3",
        "event_total": 47,
        "has_played": true,
        "id": 33618826,
        "last_rank": 12940,
        "player_name": "Irfan Patel",
        "rank": 19468,
        "rank_sort": 19560,
        "total": 2381
      },
      {
        "club_badge_src": null,
        "entry": 4751345,
        "entry_name": "Chupapi Mu\u00f1a\u00f1o Fc",
        "event_total": 65,
        "has_played": true,
        "id": 36561734,
        "last_rank": 25002,
        "player_name": "Oscar Seguin",
        "rank": 19468,
        "rank_sort": 19561,
        "total": 2381
      },
      {
        "club_badge_src": null,
        "entry": 4860044,
        "entry_name": "Artful Dodgerz",
        "event_total": 64,
        "has_played": true,
        "id": 37452001,
        "last_rank": 24475,
        "player_name": "Guma Andrew",
        "rank": 19468,
        "rank_sort": 19562,
        "total": 2381
      },
      {
        "club_badge_src": null,
        "entry": 4863256,
        "entry_name": "RC BARMY ARMY",
        "event_total": 71,
        "has_played": true,
        "id": 37479412,
        "last_rank": 27020,
        "player_name": "Rob Cruikshank",
        "rank": 19468,
        "rank_sort": 19563,
        "total": 2381
      },
      {
        "club_badge_src": null,
        "entry": 5289009,
        "entry_name": "Spuddersfield Town",
        "event_total": 71,
        "has_played": true,
        "id": 40996781,
        "last_rank": 26827,
        "player_name": "Andy Tate",
        "rank": 19468,
        "rank_sort": 19564,
        "total": 2381
      },
      {
        "club_badge_src": null,
        "entry": 5459680,
        "entry_name": "Don't give me hope.",
        "event_total": 79,
        "has_played": true,
        "id": 42489212,
        "last_rank": 35166,
        "player_name": "Christian Halstead",
        "rank": 19468,
        "rank_sort": 19565,
        "total": 2381
      },
      {
        "club_badge_src": "https://fantasy.premierleague.com/gcs/plfpl-production-adobe-approved/plfpl-production/5510679/faa023c7-7310-4818-a4ba-670f75b248c4.png",
        "entry": 5510679,
        "entry_name": "I'm A Baleba",
        "event_total": 52,
        "has_played": true,
        "id": 42952965,
        "last_rank": 13401,
        "player_name": "Liam Canning",
        "rank": 19468,
        "rank_sort": 19566,
        "total": 2381
      },
      {
        "club_badge_src": "https://fantasy.premierleague.com/gcs/plfpl-production-adobe-approved/plfpl-production/6297118/78584382-456e-4ae6-9857-331348b289d8.png",
        "entry": 6297118,
        "entry_name": "DevilsHereWeGoFC!",
        "event_total": 57,
        "has_played": true,
        "id": 49911507,
        "last_rank": 18985,
        "player_name": "Praneet Singh",
        "rank": 19468,
        "rank_sort": 19567,
        "total": 2381
      },
      {
        "club_badge_src": null,
        "entry": 6354219,
        "entry_name": "Give it a Sheikh",
        "event_total": 80,
        "has_played": true,
        "id": 50516343,
        "last_rank": 41617,
        "player_name": "George M",
        "rank": 19468,
        "rank_sort": 19568,
        "total": 2381
      },
      {
        "club_badge_src": null,
        "entry": 6405562,
        "entry_name": "Glory Hunter",
        "event_total": 64,
        "has_played": true,
        "id": 50968668,
        "last_rank": 24330,
        "player_name": "William Wan",
        "rank": 19468,
        "rank_sort": 19569,
        "total": 2381
      },
      {
        "club_badge_src": null,
        "entry": 6749496,
        "entry_name": "We A\u00eft - We Nourishd",
        "event_total": 55,
        "has_played": true,
        "id": 54033260,
        "last_rank": 17718,
        "player_name": "Brian Obioma-Gabriel",
        "rank": 19468,
        "rank_sort": 19570,
        "total": 2381
      },
      {
        "club_badge_src": null,
        "entry": 6809825,
        "entry_name": "Edwards' Eleven",
        "event_total": 56,
        "has_played": true,
        "id": 54537921,
        "last_rank": 18377,
        "player_name": "Michael Edwards",
        "rank": 19468,
        "rank_sort": 19571,
        "total": 2381
      },
      {
        "club_badge_src": "https://fantasy.premierleague.com/gcs/plfpl-production-adobe-approved/plfpl-production/6871015/c934ce5e-7bd3-4de8-bf9f-65a97108b506.png",
        "entry": 6871015,
        "entry_name": "Dynamo",
        "event_total": 75,
        "has_played": true,
        "id": 55058821,
        "last_rank": 35424,
        "player_name": "agent Li\u0161iak",
        "rank": 19468,
        "rank_sort": 19572,
        "total": 2381
      },
      {
        "club_badge_src": null,
        "entry": 7018199,
        "entry_name": "Zinedine Zinal",
        "event_total": 45,
        "has_played": true,
        "id": 56370967,
        "last_rank": 11901,
        "player_name": "Gillian Bruchez",
        "rank": 19468,
        "rank_sort": 19573,
        "total": 2381
      },
      {
        "club_badge_src": null,
        "entry": 7174338,
        "entry_name": "Bottler FC",
        "event_total": 77,
        "has_played": true,
        "id": 57893640,
        "last_rank": 37435,
        "player_name": "Khang Hoang",
        "rank": 19468,
        "rank_sort": 19574,
        "total": 2381
      },
      {
        "club_badge_src": null,
        "entry": 7336706,
        "entry_name": "Ala\u2019s stars",
        "event_total": 51,
        "has_played": true,
        "id": 59420866,
        "last_rank": 15164,
        "player_name": "Alicja Hooper",
        "rank": 19468,
        "rank_sort": 19575,
        "total": 2381
      },
      {
        "club_badge_src": null,
        "entry": 7399794,
        "entry_name": "Zirkzee & I know It!",
        "event_total": 60,
        "has_played": true,
        "id": 60012247,
        "last_rank": 18113,
        "player_name": "Mohammed Bapu",
        "rank": 19468,
        "rank_sort": 19576,
        "total": 2381
      },
      {
        "club_badge_src": null,
        "entry": 7537706,
        "entry_name": "Upton Park UTD",
        "event_total": 64,
        "has_played": true,
        "id": 61698959,
        "last_rank": 21159,
        "player_name": "Raju J5 Rahman",
        "rank": 19468,
        "rank_sort": 19577,
        "total": 2381
      },
      {
        "club_badge_src": null,
        "entry": 8544757,
        "entry_name": "Gillatasary****",
        "event_total": 67,
        "has_played": true,
        "id": 71067885,
        "last_rank": 27203,
        "player_name": "Marc Gill",
        "rank": 19468,
        "rank_sort": 19578,
        "total": 2381
      },
      {
        "club_badge_src": null,
        "entry": 8682122,
        "entry_name": "FPL Mihajlo",
        "event_total": 70,
        "has_played": true,
        "id": 72405318,
        "last_rank": 25902,
        "player_name": "Miha Smigoc",
        "rank": 19468,
        "rank_sort": 19579,
        "total": 2381
      },
      {
        "club_badge_src": null,
        "entry": 8720105,
        "entry_name": "Salah-d Fingers",
        "event_total": 61,
        "has_played": true,
        "id": 72774984,
        "last_rank": 22154,
        "player_name": "Abbie Williams",
        "rank": 19468,
        "rank_sort": 19580,
        "total": 2381
      },
      {
        "club_badge_src": null,
        "entry": 9115611,
        "entry_name": "Dubious XI",
        "event_total": 59,
        "has_played": true,
        "id": 76604648,
        "last_rank": 20538,
        "player_name": "Andy Stahl",
        "rank": 19468,
        "rank_sort": 19581,
        "total": 2381
      },
      {
        "club_badge_src": null,
        "entry": 9157686,
        "entry_name": "Goalkeres",
        "event_total": 78,
        "has_played": true,
        "id": 77015459,
        "last_rank": 39023,
        "player_name": "Jeroen Zeverijn",
        "rank": 19468,
        "rank_sort": 19582,
        "total": 2381
      },
      {
        "club_badge_src": null,
        "entry": 1229,
        "entry_name": "NotMikeDeanForever",
        "event_total": 52,
        "has_played": true,
        "id": 6828,
        "last_rank": 15876,
        "player_name": "Matt Russell",
        "rank": 19583,
        "rank_sort": 19583,
        "total": 2381
      },
      {
        "club_badge_src": null,
        "entry": 17679,
        "entry_name": "Magic Mousinho",
        "event_total": 57,
        "has_played": true,
        "id": 109737,
        "last_rank": 19176,
        "player_name": "Adam Tungatt",
        "rank": 19583,
        "rank_sort": 19584,
        "total": 2381
      },
      {
        "club_badge_src": null,
        "entry": 27216,
        "entry_name": "Ste Haden XI",
        "event_total": 63,
        "has_played": true,
        "id": 172034,
        "last_rank": 20538,
        "player_name": "John Flanagan",
        "rank": 19583,
        "rank_sort": 19585,
        "total": 2381
      },
      {
        "club_badge_src": null,
        "entry": 34814,
        "entry_name": "$n\u00a3ak\u00a5 FC",
        "event_total": 54,
        "has_played": true,
        "id": 222562,
        "last_rank": 17194,
        "player_name": "Coach MAKES",
        "rank": 19583,
        "rank_sort": 19586,
        "total": 2381
      },
      {
        "club_badge_src": null,
        "entry": 42861,
        "entry_name": "Qimal FC",
        "event_total": 64,
        "has_played": true,
        "id": 274543,
        "last_rank": 21301,
        "player_name": "Ikmal Zainuddin",
        "rank": 19583,
        "rank_sort": 19587,
        "total": 2381
      },
      {
        "club_badge_src": "https://fantasy.premierleague.com/gcs/plfpl-production-adobe-approved/plfpl-production/49014/a79e0533-bb83-4b66-af87-ba659795f692.png",
        "entry": 49014,
        "entry_name": "Not Gonna Be Eze",
        "event_total": 66,
        "has_played": true,
        "id": 314956,
        "last_rank": 26345,
        "player_name": "Stefan-Ionut Moroi",
        "rank": 19583,
        "rank_sort": 19588,
        "total": 2381
      },
      {
        "club_badge_src": null,
        "entry": 56098,
        "entry_name": "Wirtz case scenario",
        "event_total": 75,
        "has_played": true,
        "id": 361302,
        "last_rank": 31125,
        "player_name": "M 7 M D Abuelgasim",
        "rank": 19583,
        "rank_sort": 19589,
        "total": 2381
      },
      {
        "club_badge_src": "https://fantasy.premierleague.com/gcs/plfpl-production-adobe-approved/plfpl-production/81876/589711b9-0455-4f73-8648-e36a3512452f.png",
        "entry": 81876,
        "entry_name": "Seattle Saunders",
        "event_total": 68,
        "has_played": true,
        "id": 532648,
        "last_rank": 28150,
        "player_name": "Daniel Saunders",
        "rank": 19583,
        "rank_sort": 19590,
        "total": 2381
      },
      {
        "club_badge_src": null,
        "entry": 137309,
        "entry_name": "Maxs XI",
        "event_total": 55,
        "has_played": true,
        "id": 894952,
        "last_rank": 15164,
        "player_name": "Maximilian Beard",
        "rank": 19583,
        "rank_sort": 19591,
        "total": 2381
      },
      {
        "club_badge_src": "https://fantasy.premierleague.com/gcs/plfpl-production-adobe-approved/plfpl-production/151599/35fcbd53-deda-4e85-a54d-59ddd763e957.png",
        "entry": 151599,
        "entry_name": "Wirtz case scenario!",
        "event_total": 67,
        "has_played": true,
        "id": 994649,
        "last_rank": 27364,
        "player_name": "AJ Jnr",
        "rank": 19583,
        "rank_sort": 19592,
        "total": 2381
      },
      {
        "club_badge_src": null,
        "entry": 201727,
        "entry_name": "Mood",
        "event_total": 60,
        "has_played": true,
        "id": 1339492,
        "last_rank": 21392,
        "player_name": "SA Mood",
        "rank": 19583,
        "rank_sort": 19593,
        "total": 2381
      },
      {
        "club_badge_src": "https://fantasy.premierleague.com/gcs/plfpl-production-adobe-approved/plfpl-production/237703/ac08f8d7-230a-48f1-b8af-b078a22ec772.png",
        "entry": 237703,
        "entry_name": "MizerukiChallenge2.0",
        "event_total": 51,
        "has_played": true,
        "id": 1581473,
        "last_rank": 15226,
        "player_name": "\u041f\u0435\u0442\u044a\u0440 \u0418\u043b\u0438\u0435\u0432",
        "rank": 19583,
        "rank_sort": 19594,
        "total": 2381
      },
      {
        "club_badge_src": null,
        "entry": 261889,
        "entry_name": "Pique BOO",
        "event_total": 71,
        "has_played": true,
        "id": 1740982,
        "last_rank": 27020,
        "player_name": "Joe Wiltosz",
        "rank": 19583,
        "rank_sort": 19595,
        "total": 2381
      },
      {
        "club_badge_src": null,
        "entry": 281279,
        "entry_name": "\u0628\u0648\u0631\u0633\u0639\u064a\u062f",
        "event_total": 47,
        "has_played": true,
        "id": 1871760,
        "last_rank": 13033,
        "player_name": "Mohamed Fekry",
        "rank": 19583,
        "rank_sort": 19596,
        "total": 2381
      },
      {
        "club_badge_src": null,
        "entry": 378155,
        "entry_name": "Jo\u00e3o to save a life",
        "event_total": 67,
        "has_played": true,
        "id": 2533416,
        "last_rank": 23656,
        "player_name": "Ross Ayling",
        "rank": 19583,
        "rank_sort": 19597,
        "total": 2381
      },
      {
        "club_badge_src": null,
        "entry": 393033,
        "entry_name": "Los Porro Hermanos",
        "event_total": 64,
        "has_played": true,
        "id": 2636116,
        "last_rank": 21159,
        "player_name": "Robert McCall",
        "rank": 19583,
        "rank_sort": 19598,
        "total": 2381
      },
      {
        "club_badge_src": null,
        "entry": 393583,
        "entry_name": "Diabetico Madrid",
        "event_total": 65,
        "has_played": true,
        "id": 2639675,
        "last_rank": 25517,
        "player_name": "Adam Birch",
        "rank": 19583,
        "rank_sort": 19599,
        "total": 2381
      },
      {
        "club_badge_src": null,
        "entry": 417529,
        "entry_name": "ErroltileDysfunction",
        "event_total": 55,
        "has_played": true,
        "id": 2798836,
        "last_rank": 15164,
        "player_name": "Sam Sartori",
        "rank": 19583,
        "rank_sort": 19600,
        "total": 2381
      }
    ]
  }
}