{
  "last_updated_data": "2026-05-24T23:28:17Z",
  "league": {
    "admin_entry": null,
    "closed": false,
    "code_privacy": "p",
    "created": "2025-07-20T23:14:33.933835Z",
    "cup_league": 2815434,
    "has_cup": true,
    "id": 314,
    "league_type": "s",
    "max_entries": null,
    "name": "Overall",
    "rank": null,
    "scoring": "c",
    "start_event": 1
  },
  "new_entries": {
    "has_next": false,
    "page": 1,
    "results": []
  },
  "standings": {
    "has_next": true,
    "page": 557,
    "results": [
      {
        "club_badge_src": null,
        "entry": 1466230,
        "entry_name": "Macan boys \ufffd\u26aa\ufe0f",
        "event_total": 52,
        "has_played": true,
        "id": 10220271,
        "last_rank": 23089,
        "player_name": "Aleksandar Mladenovic",
        "rank": 27795,
        "rank_sort": 27801,
        "total": 2371
      },
      {
        "club_badge_src": null,
        "entry": 1571313,
        "entry_name": "Ajax Trees",
        "event_total": 58,
        "has_played": true,
        "id": 10979462,
        "last_rank": 28466,
        "player_name": "Jon Blondel",
        "rank": 27795,
        "rank_sort": 27802,
        "total": 2371
      },
      {
        "club_badge_src": null,
        "entry": 2272487,
        "entry_name": "Goal Diggers",
        "event_total": 56,
        "has_played": true,
        "id": 16204135,
        "last_rank": 20038,
        "player_name": "Ranjit Adhikari",
        "rank": 27795,
        "rank_sort": 27803,
        "total": 2371
      },
      {
        "club_badge_src": null,
        "entry": 3282711,
        "entry_name": "League Winner FC",
        "event_total": 56,
        "has_played": true,
        "id": 24299199,
        "last_rank": 26554,
        "player_name": "Mazin Yassen",
        "rank": 27795,
        "rank_sort": 27804,
        "total": 2371
      },
      {
        "club_badge_src": null,
        "entry": 3308548,
        "entry_name": "\u30ad\u30f3\u30b0\u30b5\u30c3\u30ab\u30fc",
        "event_total": 78,
        "has_played": true,
        "id": 24510584,
        "last_rank": 47920,
        "player_name": "Edward Chong",
        "rank": 27795,
        "rank_sort": 27805,
        "total": 2371
      },
      {
        "club_badge_src": null,
        "entry": 4224561,
        "entry_name": "Kinder Mbuemo",
        "event_total": 55,
        "has_played": true,
        "id": 32003521,
        "last_rank": 25633,
        "player_name": "Cameron Wiggett",
        "rank": 27795,
        "rank_sort": 27806,
        "total": 2371
      },
      {
        "club_badge_src": null,
        "entry": 6093161,
        "entry_name": "MOT_25/26",
        "event_total": 44,
        "has_played": true,
        "id": 48117288,
        "last_rank": 17265,
        "player_name": "Tor Magne Aanonli",
        "rank": 27795,
        "rank_sort": 27807,
        "total": 2371
      },
      {
        "club_badge_src": null,
        "entry": 6226250,
        "entry_name": "Biggie Smallbones",
        "event_total": 43,
        "has_played": true,
        "id": 49269740,
        "last_rank": 14184,
        "player_name": "matthew curtis",
        "rank": 27795,
        "rank_sort": 27808,
        "total": 2371
      },
      {
        "club_badge_src": null,
        "entry": 6689526,
        "entry_name": "FPL Nelly",
        "event_total": 57,
        "has_played": true,
        "id": 53516829,
        "last_rank": 23904,
        "player_name": "Adrian Campfield",
        "rank": 27795,
        "rank_sort": 27809,
        "total": 2371
      },
      {
        "club_badge_src": null,
        "entry": 7835620,
        "entry_name": "Kinder Mbeumo",
        "event_total": 50,
        "has_played": true,
        "id": 64399290,
        "last_rank": 21545,
        "player_name": "Jamie Townsend",
        "rank": 27795,
        "rank_sort": 27810,
        "total": 2371
      },
      {
        "club_badge_src": null,
        "entry": 8569279,
        "entry_name": "Baker Street Boys",
        "event_total": 56,
        "has_played": true,
        "id": 71303966,
        "last_rank": 23089,
        "player_name": "Mela Abba",
        "rank": 27795,
        "rank_sort": 27811,
        "total": 2371
      },
      {
        "club_badge_src": null,
        "entry": 8964287,
        "entry_name": "Henchmen",
        "event_total": 63,
        "has_played": true,
        "id": 75136867,
        "last_rank": 29393,
        "player_name": "Lauri Iso-Mustaj\u00e4rvi",
        "rank": 27795,
        "rank_sort": 27812,
        "total": 2371
      },
      {
        "club_badge_src": null,
        "entry": 9020764,
        "entry_name": "FPL MYSTERIO",
        "event_total": 52,
        "has_played": true,
        "id": 75679619,
        "last_rank": 23101,
        "player_name": "Ren\u00e9e D'Ambrosio",
        "rank": 27795,
        "rank_sort": 27813,
        "total": 2371
      },
      {
        "club_badge_src": null,
        "entry": 507923,
        "entry_name": "chefA",
        "event_total": 79,
        "has_played": true,
        "id": 3409116,
        "last_rank": 49407,
        "player_name": "Alaa Almasri",
        "rank": 27814,
        "rank_sort": 27814,
        "total": 2371
      },
      {
        "club_badge_src": null,
        "entry": 768285,
        "entry_name": "Captain Hindsight",
        "event_total": 61,
        "has_played": true,
        "id": 5240185,
        "last_rank": 27480,
        "player_name": "Johnny Breen",
        "rank": 27814,
        "rank_sort": 27815,
        "total": 2371
      },
      {
        "club_badge_src": null,
        "entry": 1063225,
        "entry_name": "Gigolobrian",
        "event_total": 49,
        "has_played": true,
        "id": 7360362,
        "last_rank": 20782,
        "player_name": "Waleed Alfaris",
        "rank": 27814,
        "rank_sort": 27816,
        "total": 2371
      },
      {
        "club_badge_src": null,
        "entry": 1351182,
        "entry_name": "Curry30",
        "event_total": 58,
        "has_played": true,
        "id": 9393316,
        "last_rank": 28476,
        "player_name": "KC Koh",
        "rank": 27814,
        "rank_sort": 27817,
        "total": 2371
      },
      {
        "club_badge_src": "https://fantasy.premierleague.com/gcs/plfpl-production-adobe-approved/plfpl-production/1752827/ca5fc3a9-826e-493c-acb4-dd4018884970.png",
        "entry": 1752827,
        "entry_name": "FREE PALESTINE!!!",
        "event_total": 54,
        "has_played": true,
        "id": 12303245,
        "last_rank": 24770,
        "player_name": "Sir Sheikh Q\ud83c\uddf5\ud83c\uddf8",
        "rank": 27814,
        "rank_sort": 27818,
        "total": 2371
      },
      {
        "club_badge_src": null,
        "entry": 2213662,
        "entry_name": "Mostafa Sharaa",
        "event_total": 68,
        "has_played": true,
        "id": 15764166,
        "last_rank": 39716,
        "player_name": "Mostafa Shara3",
        "rank": 27814,
        "rank_sort": 27819,
        "total": 2371
      },
      {
        "club_badge_src": "https://fantasy.premierleague.com/gcs/plfpl-production-adobe-approved/plfpl-production/2873454/006bf7b7-8e64-4562-ac75-5ee4416093c6.png",
        "entry": 2873454,
        "entry_name": "frukteliten",
        "event_total": 83,
        "has_played": true,
        "id": 21026071,
        "last_rank": 43512,
        "player_name": "William Persson",
        "rank": 27814,
        "rank_sort": 27820,
        "total": 2371
      },
      {
        "club_badge_src": "https://fantasy.premierleague.com/gcs/plfpl-production-adobe-approved/plfpl-production/3847698/936825f1-5b0a-48f8-a52a-00ef081a9845.png",
        "entry": 3847698,
        "entry_name": "Astosi United FC",
        "event_total": 54,
        "has_played": true,
        "id": 28841083,
        "last_rank": 15972,
        "player_name": "Tommy Lund",
        "rank": 27814,
        "rank_sort": 27821,
        "total": 2371
      },
      {
        "club_badge_src": null,
        "entry": 4225498,
        "entry_name": "chutzpah",
        "event_total": 55,
        "has_played": true,
        "id": 32011968,
        "last_rank": 25653,
        "player_name": "zaia hnamte",
        "rank": 27814,
        "rank_sort": 27822,
        "total": 2371
      },
      {
        "club_badge_src": null,
        "entry": 4806657,
        "entry_name": "MO_SHAHIN",
        "event_total": 70,
        "has_played": true,
        "id": 37009709,
        "last_rank": 37189,
        "player_name": "mohamed shahin",
        "rank": 27814,
        "rank_sort": 27823,
        "total": 2371
      },
      {
        "club_badge_src": null,
        "entry": 5007726,
        "entry_name": "Fantasy Team",
        "event_total": 69,
        "has_played": true,
        "id": 38669489,
        "last_rank": 40976,
        "player_name": "Hero Oreh",
        "rank": 27814,
        "rank_sort": 27824,
        "total": 2371
      },
      {
        "club_badge_src": null,
        "entry": 7650327,
        "entry_name": "killer beez\ufffd",
        "event_total": 54,
        "has_played": true,
        "id": 62719880,
        "last_rank": 21545,
        "player_name": "el mago",
        "rank": 27814,
        "rank_sort": 27825,
        "total": 2371
      },
      {
        "club_badge_src": null,
        "entry": 8675444,
        "entry_name": "liverpool",
        "event_total": 64,
        "has_played": true,
        "id": 72340046,
        "last_rank": 34849,
        "player_name": "Yousef El Tahan",
        "rank": 27814,
        "rank_sort": 27826,
        "total": 2371
      },
      {
        "club_badge_src": "https://fantasy.premierleague.com/gcs/plfpl-production-adobe-approved/plfpl-production/10075/faed88d0-c006-4da1-a059-6446f23a09ef.png",
        "entry": 10075,
        "entry_name": "DontLookBackElanga",
        "event_total": 66,
        "has_played": true,
        "id": 59479,
        "last_rank": 32586,
        "player_name": "Matthew Stephen",
        "rank": 27827,
        "rank_sort": 27827,
        "total": 2371
      },
      {
        "club_badge_src": null,
        "entry": 89871,
        "entry_name": "Onanarama",
        "event_total": 72,
        "has_played": true,
        "id": 586645,
        "last_rank": 39716,
        "player_name": "Tim Simon",
        "rank": 27827,
        "rank_sort": 27828,
        "total": 2371
      },
      {
        "club_badge_src": null,
        "entry": 395997,
        "entry_name": "Abra Dubravka",
        "event_total": 56,
        "has_played": true,
        "id": 2655634,
        "last_rank": 17257,
        "player_name": "isaac large",
        "rank": 27827,
        "rank_sort": 27829,
        "total": 2371
      },
      {
        "club_badge_src": null,
        "entry": 500853,
        "entry_name": "Vibes > Points",
        "event_total": 73,
        "has_played": true,
        "id": 3361249,
        "last_rank": 40976,
        "player_name": "Farewell Lads",
        "rank": 27827,
        "rank_sort": 27830,
        "total": 2371
      },
      {
        "club_badge_src": "https://fantasy.premierleague.com/gcs/plfpl-production-adobe-approved/plfpl-production/1878870/b61cd58a-dac7-4c12-9a33-1d1c5ff1d0ae.png",
        "entry": 1878870,
        "entry_name": "Antony\ufffd",
        "event_total": 72,
        "has_played": true,
        "id": 13236112,
        "last_rank": 26512,
        "player_name": "Mohammed Wissam",
        "rank": 27827,
        "rank_sort": 27831,
        "total": 2371
      },
      {
        "club_badge_src": null,
        "entry": 1945201,
        "entry_name": "Kansai852",
        "event_total": 56,
        "has_played": true,
        "id": 13721230,
        "last_rank": 26576,
        "player_name": "kan sai",
        "rank": 27827,
        "rank_sort": 27832,
        "total": 2371
      },
      {
        "club_badge_src": null,
        "entry": 3128754,
        "entry_name": "Hacunha mateta",
        "event_total": 81,
        "has_played": true,
        "id": 23091979,
        "last_rank": 59370,
        "player_name": "Dhruv Deshpande",
        "rank": 27827,
        "rank_sort": 27833,
        "total": 2371
      },
      {
        "club_badge_src": "https://fantasy.premierleague.com/gcs/plfpl-production-adobe-approved/plfpl-production/3452104/79f79a84-f194-4e00-94f2-f79b466cf77c.png",
        "entry": 3452104,
        "entry_name": "ANTI6O7LOBISTA!!!!",
        "event_total": 66,
        "has_played": true,
        "id": 25654231,
        "last_rank": 32586,
        "player_name": "Naif Badrah",
        "rank": 27827,
        "rank_sort": 27834,
        "total": 2371
      },
      {
        "club_badge_src": null,
        "entry": 4378802,
        "entry_name": "Hebo",
        "event_total": 56,
        "has_played": true,
        "id": 33274450,
        "last_rank": 26576,
        "player_name": "Henning Bolme",
        "rank": 27827,
        "rank_sort": 27835,
        "total": 2371
      },
      {
        "club_badge_src": null,
        "entry": 5784569,
        "entry_name": "Wirtz Case Scenario",
        "event_total": 57,
        "has_played": true,
        "id": 45362682,
        "last_rank": 23930,
        "player_name": "Ho Lee Sheet",
        "rank": 27827,
        "rank_sort": 27836,
        "total": 2371
      },
      {
        "club_badge_src": null,
        "entry": 7100749,
        "entry_name": "Jackoson2000",
        "event_total": 70,
        "has_played": true,
        "id": 57182683,
        "last_rank": 42314,
        "player_name": "Jack Burvill",
        "rank": 27827,
        "rank_sort": 27837,
        "total": 2371
      },
      {
        "club_badge_src": null,
        "entry": 8122912,
        "entry_name": "FC Bayern",
        "event_total": 68,
        "has_played": true,
        "id": 67015457,
        "last_rank": 30418,
        "player_name": "Ronny Malivanchuk",
        "rank": 27827,
        "rank_sort": 27838,
        "total": 2371
      },
      {
        "club_badge_src": null,
        "entry": 86581,
        "entry_name": "No More Mr Rice Guy",
        "event_total": 62,
        "has_played": true,
        "id": 564306,
        "last_rank": 28480,
        "player_name": "Karl Gorin",
        "rank": 27839,
        "rank_sort": 27839,
        "total": 2371
      },
      {
        "club_badge_src": null,
        "entry": 443389,
        "entry_name": "Win Or Go Home",
        "event_total": 62,
        "has_played": true,
        "id": 2972719,
        "last_rank": 24770,
        "player_name": "Tal Maimon",
        "rank": 27839,
        "rank_sort": 27840,
        "total": 2371
      },
      {
        "club_badge_src": null,
        "entry": 972648,
        "entry_name": "Mr David James",
        "event_total": 45,
        "has_played": true,
        "id": 6704901,
        "last_rank": 17936,
        "player_name": "Rush Nadim",
        "rank": 27839,
        "rank_sort": 27841,
        "total": 2371
      },
      {
        "club_badge_src": "https://fantasy.premierleague.com/gcs/plfpl-production-adobe-approved/plfpl-production/4064747/eb8499a2-51fb-4c63-b31e-4e43c31d2a92.png",
        "entry": 4064747,
        "entry_name": "Team Yego",
        "event_total": 87,
        "has_played": true,
        "id": 30676109,
        "last_rank": 70493,
        "player_name": "Allan Kiptoo",
        "rank": 27839,
        "rank_sort": 27842,
        "total": 2371
      },
      {
        "club_badge_src": null,
        "entry": 227749,
        "entry_name": "Jorge.Kidsada",
        "event_total": 83,
        "has_played": true,
        "id": 1514962,
        "last_rank": 62974,
        "player_name": "Jorge Kidsada",
        "rank": 27843,
        "rank_sort": 27843,
        "total": 2371
      },
      {
        "club_badge_src": null,
        "entry": 723204,
        "entry_name": "Battle* Gal\u00e1cticos",
        "event_total": 38,
        "has_played": true,
        "id": 4911796,
        "last_rank": 13685,
        "player_name": "Chris Battle",
        "rank": 27843,
        "rank_sort": 27844,
        "total": 2371
      },
      {
        "club_badge_src": null,
        "entry": 1158942,
        "entry_name": "Costa Del Kop DJ20",
        "event_total": 55,
        "has_played": true,
        "id": 8037896,
        "last_rank": 25673,
        "player_name": "Nilesh Patel",
        "rank": 27843,
        "rank_sort": 27845,
        "total": 2371
      },
      {
        "club_badge_src": null,
        "entry": 2250524,
        "entry_name": "The Boyz Are Bak SL",
        "event_total": 52,
        "has_played": true,
        "id": 16036511,
        "last_rank": 23123,
        "player_name": "Les Rhodes",
        "rank": 27843,
        "rank_sort": 27846,
        "total": 2371
      },
      {
        "club_badge_src": null,
        "entry": 2377830,
        "entry_name": "Grishy Bears",
        "event_total": 63,
        "has_played": true,
        "id": 16977601,
        "last_rank": 33792,
        "player_name": "Lars L\u00e6rum",
        "rank": 27843,
        "rank_sort": 27847,
        "total": 2371
      },
      {
        "club_badge_src": null,
        "entry": 2387508,
        "entry_name": "Palmer Chameleon",
        "event_total": 59,
        "has_played": true,
        "id": 17053054,
        "last_rank": 29443,
        "player_name": "Matt McInnes",
        "rank": 27843,
        "rank_sort": 27848,
        "total": 2371
      },
      {
        "club_badge_src": "https://fantasy.premierleague.com/gcs/plfpl-production-adobe-approved/plfpl-production/2394861/85936474-4a9e-4031-9f32-355d8b0caa33.png",
        "entry": 2394861,
        "entry_name": "Chispinator",
        "event_total": 58,
        "has_played": true,
        "id": 17108322,
        "last_rank": 24787,
        "player_name": "Alexis Socas",
        "rank": 27843,
        "rank_sort": 27849,
        "total": 2371
      },
      {
        "club_badge_src": null,
        "entry": 3412615,
        "entry_name": "Papes Princes",
        "event_total": 48,
        "has_played": true,
        "id": 25344375,
        "last_rank": 14790,
        "player_name": "David Prince",
        "rank": 27843,
        "rank_sort": 27850,
        "total": 2371
      }
    ]
  }
}