{
  "last_updated_data": "2026-05-24T23:28:17Z",
  "league": {
    "admin_entry": null,
    "closed": false,
    "code_privacy": "p",
    "created": "2025-07-20T23:14:33.933835Z",
    "cup_league": 2815434,
    "has_cup": true,
    "id": 314,
    "league_type": "s",
    "max_entries": null,
    "name": "Overall",
    "rank": null,
    "scoring": "c",
    "start_event": 1
  },
  "new_entries": {
    "has_next": false,
    "page": 1,
    "results": []
  },
  "standings": {
    "has_next": true,
    "page": 306,
    "results": [
      {
        "club_badge_src": null,
        "entry": 2963968,
        "entry_name": "Steinbek",
        "event_total": 60,
        "has_played": true,
        "id": 21773846,
        "last_rank": 14210,
        "player_name": "WR FS",
        "rank": 15247,
        "rank_sort": 15251,
        "total": 2388
      },
      {
        "club_badge_src": null,
        "entry": 2767504,
        "entry_name": "Favourite",
        "event_total": 53,
        "has_played": true,
        "id": 20191735,
        "last_rank": 12583,
        "player_name": "Olasunkanmi Dominic",
        "rank": 15252,
        "rank_sort": 15252,
        "total": 2388
      },
      {
        "club_badge_src": null,
        "entry": 6993054,
        "entry_name": "COYB",
        "event_total": 67,
        "has_played": true,
        "id": 56138668,
        "last_rank": 16015,
        "player_name": "Mac McArdle",
        "rank": 15253,
        "rank_sort": 15253,
        "total": 2388
      },
      {
        "club_badge_src": null,
        "entry": 8186476,
        "entry_name": "Slot Machine",
        "event_total": 72,
        "has_played": true,
        "id": 67612039,
        "last_rank": 22347,
        "player_name": "Sajith Dukhi",
        "rank": 15253,
        "rank_sort": 15254,
        "total": 2388
      },
      {
        "club_badge_src": null,
        "entry": 5259150,
        "entry_name": "The Nohopers",
        "event_total": 61,
        "has_played": true,
        "id": 40760252,
        "last_rank": 17293,
        "player_name": "James McDavitt",
        "rank": 15255,
        "rank_sort": 15255,
        "total": 2387
      },
      {
        "club_badge_src": null,
        "entry": 4030881,
        "entry_name": "Losing the Slot",
        "event_total": 51,
        "has_played": true,
        "id": 30388170,
        "last_rank": 11585,
        "player_name": "Pat Foley",
        "rank": 15256,
        "rank_sort": 15256,
        "total": 2387
      },
      {
        "club_badge_src": null,
        "entry": 7859085,
        "entry_name": "kinder mbeumo",
        "event_total": 50,
        "has_played": true,
        "id": 64614625,
        "last_rank": 11138,
        "player_name": "Noah Brown",
        "rank": 15257,
        "rank_sort": 15257,
        "total": 2387
      },
      {
        "club_badge_src": null,
        "entry": 684782,
        "entry_name": "Jay United",
        "event_total": 69,
        "has_played": true,
        "id": 4635033,
        "last_rank": 23150,
        "player_name": "jay charnock",
        "rank": 15258,
        "rank_sort": 15258,
        "total": 2387
      },
      {
        "club_badge_src": null,
        "entry": 5729951,
        "entry_name": "NoMessi",
        "event_total": 56,
        "has_played": true,
        "id": 44887930,
        "last_rank": 14234,
        "player_name": "Sne Ngema",
        "rank": 15258,
        "rank_sort": 15259,
        "total": 2387
      },
      {
        "club_badge_src": null,
        "entry": 7637856,
        "entry_name": "Eggys Euphoric",
        "event_total": 49,
        "has_played": true,
        "id": 62606699,
        "last_rank": 10704,
        "player_name": "Andy Eggleton",
        "rank": 15258,
        "rank_sort": 15260,
        "total": 2387
      },
      {
        "club_badge_src": null,
        "entry": 150423,
        "entry_name": "HaCunhaMateta",
        "event_total": 56,
        "has_played": true,
        "id": 986534,
        "last_rank": 14251,
        "player_name": "Nehaan Hafiz",
        "rank": 15261,
        "rank_sort": 15261,
        "total": 2387
      },
      {
        "club_badge_src": null,
        "entry": 340717,
        "entry_name": "Delapagos Islands",
        "event_total": 46,
        "has_played": true,
        "id": 2280631,
        "last_rank": 9448,
        "player_name": "Ammar Hafizji",
        "rank": 15261,
        "rank_sort": 15262,
        "total": 2387
      },
      {
        "club_badge_src": "https://fantasy.premierleague.com/gcs/plfpl-production-adobe-approved/plfpl-production/1502399/9b6cd0ce-acc5-470c-ba3e-7fd7547e4a50.png",
        "entry": 1502399,
        "entry_name": "Nanami 73 FC",
        "event_total": 61,
        "has_played": true,
        "id": 10477696,
        "last_rank": 17304,
        "player_name": "Tahiru Korah",
        "rank": 15261,
        "rank_sort": 15263,
        "total": 2387
      },
      {
        "club_badge_src": "https://fantasy.premierleague.com/gcs/plfpl-production-adobe-approved/plfpl-production/2101844/08ead066-678e-47ba-a7f6-b3a0d629bcdf.png",
        "entry": 2101844,
        "entry_name": "Big Vinnies Boys",
        "event_total": 74,
        "has_played": true,
        "id": 14915219,
        "last_rank": 27546,
        "player_name": "VINCENT CHAMBERLAIN",
        "rank": 15261,
        "rank_sort": 15264,
        "total": 2387
      },
      {
        "club_badge_src": null,
        "entry": 2247844,
        "entry_name": "HSG",
        "event_total": 43,
        "has_played": true,
        "id": 16017182,
        "last_rank": 8320,
        "player_name": "Harun Garcha",
        "rank": 15261,
        "rank_sort": 15265,
        "total": 2387
      },
      {
        "club_badge_src": null,
        "entry": 3378723,
        "entry_name": "Paul M",
        "event_total": 57,
        "has_played": true,
        "id": 25079006,
        "last_rank": 14809,
        "player_name": "Paul Mouhtis",
        "rank": 15261,
        "rank_sort": 15266,
        "total": 2387
      },
      {
        "club_badge_src": null,
        "entry": 5735679,
        "entry_name": "Ndidii Partey",
        "event_total": 77,
        "has_played": true,
        "id": 44937152,
        "last_rank": 30494,
        "player_name": "Jake Trainor",
        "rank": 15261,
        "rank_sort": 15267,
        "total": 2387
      },
      {
        "club_badge_src": null,
        "entry": 6287783,
        "entry_name": "Cwmbelan Cash Cows",
        "event_total": 63,
        "has_played": true,
        "id": 49812462,
        "last_rank": 18655,
        "player_name": "Wyn Griffiths",
        "rank": 15261,
        "rank_sort": 15268,
        "total": 2387
      },
      {
        "club_badge_src": null,
        "entry": 8980268,
        "entry_name": "Treble Makers",
        "event_total": 41,
        "has_played": true,
        "id": 75291633,
        "last_rank": 7604,
        "player_name": "Firoz Khan",
        "rank": 15261,
        "rank_sort": 15269,
        "total": 2387
      },
      {
        "club_badge_src": null,
        "entry": 9457357,
        "entry_name": "Pullatyt\u00f6t",
        "event_total": 58,
        "has_played": true,
        "id": 79916866,
        "last_rank": 15388,
        "player_name": "Aino Melchy",
        "rank": 15261,
        "rank_sort": 15270,
        "total": 2387
      },
      {
        "club_badge_src": null,
        "entry": 201137,
        "entry_name": "Solsidan FC",
        "event_total": 42,
        "has_played": true,
        "id": 1335469,
        "last_rank": 7979,
        "player_name": "Peter \u00c5berg",
        "rank": 15271,
        "rank_sort": 15271,
        "total": 2387
      },
      {
        "club_badge_src": null,
        "entry": 362217,
        "entry_name": "The_Kop_enD",
        "event_total": 64,
        "has_played": true,
        "id": 2423617,
        "last_rank": 19392,
        "player_name": "Theeraphat Panichakarn",
        "rank": 15271,
        "rank_sort": 15272,
        "total": 2387
      },
      {
        "club_badge_src": null,
        "entry": 936308,
        "entry_name": "RXI",
        "event_total": 65,
        "has_played": true,
        "id": 6443548,
        "last_rank": 20116,
        "player_name": "Rees Colgan",
        "rank": 15271,
        "rank_sort": 15273,
        "total": 2387
      },
      {
        "club_badge_src": null,
        "entry": 1294468,
        "entry_name": "STUCKINTHEVANDIJK",
        "event_total": 54,
        "has_played": true,
        "id": 8996337,
        "last_rank": 13153,
        "player_name": "Brian O Keeffe",
        "rank": 15271,
        "rank_sort": 15274,
        "total": 2387
      },
      {
        "club_badge_src": null,
        "entry": 1496057,
        "entry_name": "Professor X-I",
        "event_total": 63,
        "has_played": true,
        "id": 10432970,
        "last_rank": 18655,
        "player_name": "Jake Marshman",
        "rank": 15271,
        "rank_sort": 15275,
        "total": 2387
      },
      {
        "club_badge_src": "https://fantasy.premierleague.com/gcs/plfpl-production-adobe-approved/plfpl-production/2016665/6a8eeb90-c6c7-44f5-9ff2-12289f13bf65.png",
        "entry": 2016665,
        "entry_name": "Ed's At The Wheel",
        "event_total": 75,
        "has_played": true,
        "id": 14267001,
        "last_rank": 28517,
        "player_name": "Edward Colley",
        "rank": 15271,
        "rank_sort": 15276,
        "total": 2387
      },
      {
        "club_badge_src": null,
        "entry": 2343102,
        "entry_name": "Kitchen FC",
        "event_total": 60,
        "has_played": true,
        "id": 16718781,
        "last_rank": 16675,
        "player_name": "Caroline Greene",
        "rank": 15271,
        "rank_sort": 15277,
        "total": 2387
      },
      {
        "club_badge_src": null,
        "entry": 2565750,
        "entry_name": "VI \u00c4R KUNGAR",
        "event_total": 57,
        "has_played": true,
        "id": 18404987,
        "last_rank": 14809,
        "player_name": "Edvin Sallander Hellman",
        "rank": 15271,
        "rank_sort": 15278,
        "total": 2387
      },
      {
        "club_badge_src": null,
        "entry": 3533444,
        "entry_name": "The NettieHoneyballs",
        "event_total": 61,
        "has_played": true,
        "id": 26299318,
        "last_rank": 17358,
        "player_name": "Ylva Br\u00e5ten",
        "rank": 15271,
        "rank_sort": 15279,
        "total": 2387
      },
      {
        "club_badge_src": null,
        "entry": 4492610,
        "entry_name": "Some Men",
        "event_total": 69,
        "has_played": true,
        "id": 34245963,
        "last_rank": 23188,
        "player_name": "Ryan Tatham",
        "rank": 15271,
        "rank_sort": 15280,
        "total": 2387
      },
      {
        "club_badge_src": null,
        "entry": 4863136,
        "entry_name": "Selecao Kenneth",
        "event_total": 60,
        "has_played": true,
        "id": 37478388,
        "last_rank": 16729,
        "player_name": "Kenneth Gjelstrup S\u00f8rensen",
        "rank": 15271,
        "rank_sort": 15281,
        "total": 2387
      },
      {
        "club_badge_src": null,
        "entry": 5239124,
        "entry_name": "Esso Tigers FC",
        "event_total": 57,
        "has_played": true,
        "id": 40601097,
        "last_rank": 14857,
        "player_name": "Okorie Esso",
        "rank": 15271,
        "rank_sort": 15282,
        "total": 2387
      },
      {
        "club_badge_src": null,
        "entry": 6826230,
        "entry_name": "Uttaru menn",
        "event_total": 60,
        "has_played": true,
        "id": 54676684,
        "last_rank": 16668,
        "player_name": "Salmundur Bech",
        "rank": 15271,
        "rank_sort": 15283,
        "total": 2387
      },
      {
        "club_badge_src": null,
        "entry": 7631648,
        "entry_name": "Sky Blue's",
        "event_total": 69,
        "has_played": true,
        "id": 62550332,
        "last_rank": 23230,
        "player_name": "Jon Byrne",
        "rank": 15271,
        "rank_sort": 15284,
        "total": 2387
      },
      {
        "club_badge_src": null,
        "entry": 9074628,
        "entry_name": "Fez",
        "event_total": 75,
        "has_played": true,
        "id": 76203317,
        "last_rank": 28517,
        "player_name": "Miroslav Rakovic",
        "rank": 15271,
        "rank_sort": 15285,
        "total": 2387
      },
      {
        "club_badge_src": null,
        "entry": 45175,
        "entry_name": "Gitte 1",
        "event_total": 60,
        "has_played": true,
        "id": 289720,
        "last_rank": 16675,
        "player_name": "Nicolai Bisgaard Holst",
        "rank": 15286,
        "rank_sort": 15286,
        "total": 2387
      },
      {
        "club_badge_src": null,
        "entry": 107916,
        "entry_name": "Lilywhites",
        "event_total": 48,
        "has_played": true,
        "id": 703598,
        "last_rank": 10263,
        "player_name": "Ali McQuillan",
        "rank": 15286,
        "rank_sort": 15287,
        "total": 2387
      },
      {
        "club_badge_src": null,
        "entry": 170883,
        "entry_name": "Teddy's Team",
        "event_total": 76,
        "has_played": true,
        "id": 1128946,
        "last_rank": 29522,
        "player_name": "Teddy Fleming",
        "rank": 15286,
        "rank_sort": 15288,
        "total": 2387
      },
      {
        "club_badge_src": null,
        "entry": 192360,
        "entry_name": "No Haaland",
        "event_total": 55,
        "has_played": true,
        "id": 1274513,
        "last_rank": 13821,
        "player_name": "Mahmudur Rahman Fahim",
        "rank": 15286,
        "rank_sort": 15289,
        "total": 2387
      },
      {
        "club_badge_src": "https://fantasy.premierleague.com/gcs/plfpl-production-adobe-approved/plfpl-production/279698/e48cc05e-88f9-490e-9133-62c6bc8deda9.png",
        "entry": 279698,
        "entry_name": "You Already Know",
        "event_total": 74,
        "has_played": true,
        "id": 1861544,
        "last_rank": 27557,
        "player_name": "Leon Bosco",
        "rank": 15286,
        "rank_sort": 15290,
        "total": 2387
      },
      {
        "club_badge_src": null,
        "entry": 335326,
        "entry_name": "Brad's boys",
        "event_total": 57,
        "has_played": true,
        "id": 2245321,
        "last_rank": 14926,
        "player_name": "Brad Bamford",
        "rank": 15286,
        "rank_sort": 15291,
        "total": 2387
      },
      {
        "club_badge_src": null,
        "entry": 349507,
        "entry_name": "Reijnders Keepers",
        "event_total": 66,
        "has_played": true,
        "id": 2339286,
        "last_rank": 20888,
        "player_name": "Eshaan Jena-Das",
        "rank": 15286,
        "rank_sort": 15292,
        "total": 2387
      },
      {
        "club_badge_src": null,
        "entry": 398560,
        "entry_name": "Frankly the best",
        "event_total": 38,
        "has_played": true,
        "id": 2672744,
        "last_rank": 6752,
        "player_name": "Matthew Coppen",
        "rank": 15286,
        "rank_sort": 15293,
        "total": 2387
      },
      {
        "club_badge_src": null,
        "entry": 551486,
        "entry_name": "Game Set and Snatch",
        "event_total": 62,
        "has_played": true,
        "id": 3711966,
        "last_rank": 17989,
        "player_name": "Liam Peers",
        "rank": 15286,
        "rank_sort": 15294,
        "total": 2387
      },
      {
        "club_badge_src": null,
        "entry": 714554,
        "entry_name": "Game of Throw-Ins",
        "event_total": 49,
        "has_played": true,
        "id": 4847804,
        "last_rank": 10805,
        "player_name": "Ed Moss",
        "rank": 15286,
        "rank_sort": 15295,
        "total": 2387
      },
      {
        "club_badge_src": null,
        "entry": 1135421,
        "entry_name": "Aight Youri",
        "event_total": 47,
        "has_played": true,
        "id": 7870514,
        "last_rank": 9942,
        "player_name": "Youri Dernovo\u00ef",
        "rank": 15286,
        "rank_sort": 15296,
        "total": 2387
      },
      {
        "club_badge_src": null,
        "entry": 1295992,
        "entry_name": "She of Mann",
        "event_total": 68,
        "has_played": true,
        "id": 9006959,
        "last_rank": 22426,
        "player_name": "Miriam Namayanja",
        "rank": 15286,
        "rank_sort": 15297,
        "total": 2387
      },
      {
        "club_badge_src": null,
        "entry": 1317075,
        "entry_name": "Duguid To Be True",
        "event_total": 49,
        "has_played": true,
        "id": 9154550,
        "last_rank": 10711,
        "player_name": "Ross Duguid",
        "rank": 15286,
        "rank_sort": 15298,
        "total": 2387
      },
      {
        "club_badge_src": null,
        "entry": 1412588,
        "entry_name": "Average Lads",
        "event_total": 64,
        "has_played": true,
        "id": 9830291,
        "last_rank": 19432,
        "player_name": "Ricky Amato",
        "rank": 15286,
        "rank_sort": 15299,
        "total": 2387
      },
      {
        "club_badge_src": null,
        "entry": 1429009,
        "entry_name": "AFC Raymond Quaza",
        "event_total": 63,
        "has_played": true,
        "id": 9957325,
        "last_rank": 16039,
        "player_name": "alex norman",
        "rank": 15286,
        "rank_sort": 15300,
        "total": 2387
      }
    ]
  }
}