{
  "last_updated_data": "2026-05-24T23:28:17Z",
  "league": {
    "admin_entry": null,
    "closed": false,
    "code_privacy": "p",
    "created": "2025-07-20T23:14:33.933835Z",
    "cup_league": 2815434,
    "has_cup": true,
    "id": 314,
    "league_type": "s",
    "max_entries": null,
    "name": "Overall",
    "rank": null,
    "scoring": "c",
    "start_event": 1
  },
  "new_entries": {
    "has_next": false,
    "page": 1,
    "results": []
  },
  "standings": {
    "has_next": true,
    "page": 96,
    "results": [
      {
        "club_badge_src": null,
        "entry": 4122757,
        "entry_name": "Miladi FC",
        "event_total": 65,
        "has_played": true,
        "id": 31147868,
        "last_rank": 6194,
        "player_name": "Craig O'Connor",
        "rank": 4713,
        "rank_sort": 4751,
        "total": 2416
      },
      {
        "club_badge_src": null,
        "entry": 4163815,
        "entry_name": "Midnight OWQ",
        "event_total": 72,
        "has_played": true,
        "id": 31485992,
        "last_rank": 7059,
        "player_name": "ROCCO THE 5TH",
        "rank": 4713,
        "rank_sort": 4752,
        "total": 2416
      },
      {
        "club_badge_src": null,
        "entry": 4166445,
        "entry_name": "Dyngbaggarna",
        "event_total": 51,
        "has_played": true,
        "id": 31507437,
        "last_rank": 3302,
        "player_name": "Joel T",
        "rank": 4713,
        "rank_sort": 4753,
        "total": 2416
      },
      {
        "club_badge_src": null,
        "entry": 4664524,
        "entry_name": "S\u00f8rine Supersol",
        "event_total": 73,
        "has_played": true,
        "id": 35726181,
        "last_rank": 8758,
        "player_name": "Elisabeth Myrer",
        "rank": 4713,
        "rank_sort": 4754,
        "total": 2416
      },
      {
        "club_badge_src": null,
        "entry": 5145427,
        "entry_name": "Wirtz Nightmare FC",
        "event_total": 65,
        "has_played": true,
        "id": 39805455,
        "last_rank": 5173,
        "player_name": "Liam Jopson",
        "rank": 4713,
        "rank_sort": 4755,
        "total": 2416
      },
      {
        "club_badge_src": null,
        "entry": 5800947,
        "entry_name": "Bonnybridge Bilbao",
        "event_total": 70,
        "has_played": true,
        "id": 45507333,
        "last_rank": 7676,
        "player_name": "John Fusco",
        "rank": 4713,
        "rank_sort": 4756,
        "total": 2416
      },
      {
        "club_badge_src": null,
        "entry": 6429198,
        "entry_name": "MO2811",
        "event_total": 44,
        "has_played": true,
        "id": 51178266,
        "last_rank": 2328,
        "player_name": "Mohamed Abdelsamad",
        "rank": 4713,
        "rank_sort": 4757,
        "total": 2416
      },
      {
        "club_badge_src": null,
        "entry": 7088103,
        "entry_name": "cynicalzaza",
        "event_total": 62,
        "has_played": true,
        "id": 57063494,
        "last_rank": 5400,
        "player_name": "Edgar Owyeong",
        "rank": 4713,
        "rank_sort": 4758,
        "total": 2416
      },
      {
        "club_badge_src": null,
        "entry": 8954732,
        "entry_name": "L\u00f8b nu bare dybt man",
        "event_total": 82,
        "has_played": true,
        "id": 75045319,
        "last_rank": 12608,
        "player_name": "Jonas Thorsen",
        "rank": 4713,
        "rank_sort": 4759,
        "total": 2416
      },
      {
        "club_badge_src": null,
        "entry": 9371675,
        "entry_name": "coa",
        "event_total": 69,
        "has_played": true,
        "id": 79097561,
        "last_rank": 7375,
        "player_name": "Aca Vasiljevic",
        "rank": 4713,
        "rank_sort": 4760,
        "total": 2416
      },
      {
        "club_badge_src": null,
        "entry": 14986,
        "entry_name": "BunchOfLouzas",
        "event_total": 61,
        "has_played": true,
        "id": 91580,
        "last_rank": 5281,
        "player_name": "Stuart Brant",
        "rank": 4761,
        "rank_sort": 4761,
        "total": 2416
      },
      {
        "club_badge_src": null,
        "entry": 29941,
        "entry_name": "FPL Legend",
        "event_total": 70,
        "has_played": true,
        "id": 189412,
        "last_rank": 6528,
        "player_name": "ADRI RAZAM",
        "rank": 4761,
        "rank_sort": 4762,
        "total": 2416
      },
      {
        "club_badge_src": null,
        "entry": 32205,
        "entry_name": "Umijece moguceg",
        "event_total": 57,
        "has_played": true,
        "id": 204727,
        "last_rank": 4394,
        "player_name": "Vinko Knezovic",
        "rank": 4761,
        "rank_sort": 4763,
        "total": 2416
      },
      {
        "club_badge_src": null,
        "entry": 127786,
        "entry_name": "joshywoshy",
        "event_total": 53,
        "has_played": true,
        "id": 832949,
        "last_rank": 3627,
        "player_name": "Joshua Bowman",
        "rank": 4761,
        "rank_sort": 4764,
        "total": 2416
      },
      {
        "club_badge_src": null,
        "entry": 178615,
        "entry_name": "?? Kapetan Marko ??",
        "event_total": 61,
        "has_played": true,
        "id": 1178818,
        "last_rank": 5281,
        "player_name": "Marko Srdarevi\u0107",
        "rank": 4761,
        "rank_sort": 4765,
        "total": 2416
      },
      {
        "club_badge_src": "https://fantasy.premierleague.com/gcs/plfpl-production-adobe-approved/plfpl-production/190225/edb7f722-3ef2-48ea-811c-289c389b5064.png",
        "entry": 190225,
        "entry_name": "A\u2663\ufe0fA\u2764\ufe0f",
        "event_total": 66,
        "has_played": true,
        "id": 1259558,
        "last_rank": 6528,
        "player_name": "Fragkiskos Kanellopoulos",
        "rank": 4761,
        "rank_sort": 4766,
        "total": 2416
      },
      {
        "club_badge_src": "https://fantasy.premierleague.com/gcs/plfpl-production-adobe-approved/plfpl-production/214633/041016d5-3a30-48ad-aa44-19d5e43459b2.png",
        "entry": 214633,
        "entry_name": "CFirst",
        "event_total": 50,
        "has_played": true,
        "id": 1427772,
        "last_rank": 2588,
        "player_name": "Pongsakorn Jadyankhad",
        "rank": 4761,
        "rank_sort": 4767,
        "total": 2416
      },
      {
        "club_badge_src": null,
        "entry": 247351,
        "entry_name": "ChickenDinner",
        "event_total": 62,
        "has_played": true,
        "id": 1646483,
        "last_rank": 5528,
        "player_name": "Richard Hampson",
        "rank": 4761,
        "rank_sort": 4768,
        "total": 2416
      },
      {
        "club_badge_src": "https://fantasy.premierleague.com/gcs/plfpl-production-adobe-approved/plfpl-production/466562/e0277c86-4a2d-4dd8-a149-8167c1a5342b.png",
        "entry": 466562,
        "entry_name": "The Tuesday Club",
        "event_total": 62,
        "has_played": true,
        "id": 3130376,
        "last_rank": 4570,
        "player_name": "Robin Smid",
        "rank": 4761,
        "rank_sort": 4769,
        "total": 2416
      },
      {
        "club_badge_src": null,
        "entry": 1330300,
        "entry_name": "Team Jota",
        "event_total": 65,
        "has_played": true,
        "id": 9246633,
        "last_rank": 5241,
        "player_name": "Jan Fredheim",
        "rank": 4761,
        "rank_sort": 4770,
        "total": 2416
      },
      {
        "club_badge_src": null,
        "entry": 1661139,
        "entry_name": "Anas Hawlere\ufffd\u2708\ufe0f",
        "event_total": 67,
        "has_played": true,
        "id": 11630033,
        "last_rank": 6839,
        "player_name": "Anas Diyar",
        "rank": 4761,
        "rank_sort": 4771,
        "total": 2416
      },
      {
        "club_badge_src": null,
        "entry": 2509660,
        "entry_name": "its gonna get Messi",
        "event_total": 60,
        "has_played": true,
        "id": 17975473,
        "last_rank": 5011,
        "player_name": "Peter Teasdale",
        "rank": 4761,
        "rank_sort": 4772,
        "total": 2416
      },
      {
        "club_badge_src": null,
        "entry": 2655164,
        "entry_name": "Hurricane Show",
        "event_total": 59,
        "has_played": true,
        "id": 19085662,
        "last_rank": 3951,
        "player_name": "Michal Nowak",
        "rank": 4761,
        "rank_sort": 4773,
        "total": 2416
      },
      {
        "club_badge_src": null,
        "entry": 3526873,
        "entry_name": "Mukka FC",
        "event_total": 66,
        "has_played": true,
        "id": 26248067,
        "last_rank": 6579,
        "player_name": "Marcus Berry",
        "rank": 4761,
        "rank_sort": 4774,
        "total": 2416
      },
      {
        "club_badge_src": null,
        "entry": 3639820,
        "entry_name": "ACEs Team",
        "event_total": 55,
        "has_played": true,
        "id": 27125928,
        "last_rank": 3951,
        "player_name": "Nitish Jonchhe",
        "rank": 4761,
        "rank_sort": 4775,
        "total": 2416
      },
      {
        "club_badge_src": null,
        "entry": 4363373,
        "entry_name": "Jons Boot Boyz \u2b50\ufe0f\u2b50\ufe0f",
        "event_total": 61,
        "has_played": true,
        "id": 33142680,
        "last_rank": 5281,
        "player_name": "Jonathan hall",
        "rank": 4761,
        "rank_sort": 4776,
        "total": 2416
      },
      {
        "club_badge_src": null,
        "entry": 4440084,
        "entry_name": "Pink Pony Klopp",
        "event_total": 57,
        "has_played": true,
        "id": 33809641,
        "last_rank": 4394,
        "player_name": "Daniel Willoughby",
        "rank": 4761,
        "rank_sort": 4777,
        "total": 2416
      },
      {
        "club_badge_src": null,
        "entry": 4950773,
        "entry_name": "nniwar22",
        "event_total": 61,
        "has_played": true,
        "id": 38201195,
        "last_rank": 4358,
        "player_name": "Niwar Jihad",
        "rank": 4761,
        "rank_sort": 4778,
        "total": 2416
      },
      {
        "club_badge_src": null,
        "entry": 5163911,
        "entry_name": "Gunchester",
        "event_total": 67,
        "has_played": true,
        "id": 39962012,
        "last_rank": 5688,
        "player_name": "Ben Barton",
        "rank": 4761,
        "rank_sort": 4779,
        "total": 2416
      },
      {
        "club_badge_src": null,
        "entry": 5861727,
        "entry_name": "FAC FC",
        "event_total": 59,
        "has_played": true,
        "id": 46031445,
        "last_rank": 4804,
        "player_name": "Fon Anselm",
        "rank": 4761,
        "rank_sort": 4780,
        "total": 2416
      },
      {
        "club_badge_src": "https://fantasy.premierleague.com/gcs/plfpl-production-adobe-approved/plfpl-production/6916772/1c98b991-ab39-4d1b-a7e8-686e9c63c32d.png",
        "entry": 6916772,
        "entry_name": "Laal Shaitaan",
        "event_total": 61,
        "has_played": true,
        "id": 55445097,
        "last_rank": 4358,
        "player_name": "Udit Khera",
        "rank": 4761,
        "rank_sort": 4781,
        "total": 2416
      },
      {
        "club_badge_src": null,
        "entry": 7209396,
        "entry_name": "Supacell",
        "event_total": 62,
        "has_played": true,
        "id": 58221710,
        "last_rank": 4570,
        "player_name": "Emmanuel Eze",
        "rank": 4761,
        "rank_sort": 4782,
        "total": 2416
      },
      {
        "club_badge_src": "https://fantasy.premierleague.com/gcs/plfpl-production-adobe-approved/plfpl-production/7224822/357d115e-eb68-4d5e-b32d-cd27a6e74f80.png",
        "entry": 7224822,
        "entry_name": "Partick Monkeys",
        "event_total": 53,
        "has_played": true,
        "id": 58367287,
        "last_rank": 3007,
        "player_name": "Craig McGlashan",
        "rank": 4761,
        "rank_sort": 4783,
        "total": 2416
      },
      {
        "club_badge_src": "https://fantasy.premierleague.com/gcs/plfpl-production-adobe-approved/plfpl-production/7655037/eca34df2-c235-4bcd-ae1f-fb0b3f15c08c.png",
        "entry": 7655037,
        "entry_name": "Jo\u00e3o pedro",
        "event_total": 60,
        "has_played": true,
        "id": 62761564,
        "last_rank": 5011,
        "player_name": "Daniel Furke",
        "rank": 4761,
        "rank_sort": 4784,
        "total": 2416
      },
      {
        "club_badge_src": null,
        "entry": 7757991,
        "entry_name": "Bossshhhhhh",
        "event_total": 48,
        "has_played": true,
        "id": 63695054,
        "last_rank": 2907,
        "player_name": "Jordan Carlton",
        "rank": 4761,
        "rank_sort": 4785,
        "total": 2416
      },
      {
        "club_badge_src": null,
        "entry": 8661758,
        "entry_name": "Amorim Baaalllllllll",
        "event_total": 78,
        "has_played": true,
        "id": 72206485,
        "last_rank": 10992,
        "player_name": "Kobbie Mainoo",
        "rank": 4761,
        "rank_sort": 4786,
        "total": 2416
      },
      {
        "club_badge_src": "https://fantasy.premierleague.com/gcs/plfpl-production-adobe-approved/plfpl-production/1097/f783eded-9d94-49be-857f-3c79ec8591b1.png",
        "entry": 1097,
        "entry_name": "Sir Alaa Abdelaal.",
        "event_total": 67,
        "has_played": true,
        "id": 6106,
        "last_rank": 5792,
        "player_name": "Mohamed Haniiii 10",
        "rank": 4787,
        "rank_sort": 4787,
        "total": 2416
      },
      {
        "club_badge_src": "https://fantasy.premierleague.com/gcs/plfpl-production-adobe-approved/plfpl-production/2106/01301835-c986-4fb0-904d-821be9b34903.png",
        "entry": 2106,
        "entry_name": "Skatorna101",
        "event_total": 58,
        "has_played": true,
        "id": 11750,
        "last_rank": 3765,
        "player_name": "Lars Thor\u00e9n",
        "rank": 4787,
        "rank_sort": 4788,
        "total": 2416
      },
      {
        "club_badge_src": null,
        "entry": 4598,
        "entry_name": "Me, myself, Ndiaye",
        "event_total": 67,
        "has_played": true,
        "id": 26148,
        "last_rank": 6887,
        "player_name": "Paul McFarlane",
        "rank": 4787,
        "rank_sort": 4789,
        "total": 2416
      },
      {
        "club_badge_src": null,
        "entry": 80784,
        "entry_name": "FPL Oskar",
        "event_total": 65,
        "has_played": true,
        "id": 525573,
        "last_rank": 5281,
        "player_name": "Oskar B\u00e5rtvedt-Payne",
        "rank": 4787,
        "rank_sort": 4790,
        "total": 2416
      },
      {
        "club_badge_src": null,
        "entry": 175944,
        "entry_name": "You Belong With KDB",
        "event_total": 59,
        "has_played": true,
        "id": 1161531,
        "last_rank": 4000,
        "player_name": "Jordan Crane",
        "rank": 4787,
        "rank_sort": 4791,
        "total": 2416
      },
      {
        "club_badge_src": null,
        "entry": 199875,
        "entry_name": "Dimcims",
        "event_total": 76,
        "has_played": true,
        "id": 1326630,
        "last_rank": 8382,
        "player_name": "Michael C",
        "rank": 4787,
        "rank_sort": 4792,
        "total": 2416
      },
      {
        "club_badge_src": null,
        "entry": 273410,
        "entry_name": "Liverpool fc",
        "event_total": 64,
        "has_played": true,
        "id": 1819247,
        "last_rank": 5011,
        "player_name": "mustafa hafiz",
        "rank": 4787,
        "rank_sort": 4793,
        "total": 2416
      },
      {
        "club_badge_src": null,
        "entry": 303703,
        "entry_name": "Puzinator",
        "event_total": 68,
        "has_played": true,
        "id": 2033066,
        "last_rank": 7257,
        "player_name": "Artem Slobodchikov",
        "rank": 4787,
        "rank_sort": 4794,
        "total": 2416
      },
      {
        "club_badge_src": "https://fantasy.premierleague.com/gcs/plfpl-production-adobe-approved/plfpl-production/374165/67777b18-e887-4812-952c-5a9222a02c68.png",
        "entry": 374165,
        "entry_name": "SFE008",
        "event_total": 77,
        "has_played": true,
        "id": 2503732,
        "last_rank": 8925,
        "player_name": "S. Farrugia",
        "rank": 4787,
        "rank_sort": 4795,
        "total": 2416
      },
      {
        "club_badge_src": null,
        "entry": 454554,
        "entry_name": "Stev Forever",
        "event_total": 70,
        "has_played": true,
        "id": 3049457,
        "last_rank": 7863,
        "player_name": "Steve Mason",
        "rank": 4787,
        "rank_sort": 4796,
        "total": 2416
      },
      {
        "club_badge_src": "https://fantasy.premierleague.com/gcs/plfpl-production-adobe-approved/plfpl-production/781549/b8587412-d539-4c7c-862e-40ec82666c6b.png",
        "entry": 781549,
        "entry_name": "Wirtzchaftswunder",
        "event_total": 72,
        "has_played": true,
        "id": 5335874,
        "last_rank": 8552,
        "player_name": "Daniel Monks",
        "rank": 4787,
        "rank_sort": 4797,
        "total": 2416
      },
      {
        "club_badge_src": "https://fantasy.premierleague.com/gcs/plfpl-production-adobe-approved/plfpl-production/958999/646cb1a0-74b9-4db6-b344-e2997810a1cf.png",
        "entry": 958999,
        "entry_name": "DropItLikeItsSlot",
        "event_total": 63,
        "has_played": true,
        "id": 6608345,
        "last_rank": 5752,
        "player_name": "Jamie Geraghty",
        "rank": 4787,
        "rank_sort": 4798,
        "total": 2416
      },
      {
        "club_badge_src": "https://fantasy.premierleague.com/gcs/plfpl-production-adobe-approved/plfpl-production/1528721/66bc26ff-c066-4b21-be6a-61ecdc731750.png",
        "entry": 1528721,
        "entry_name": "Gvardiol of Galaxy",
        "event_total": 59,
        "has_played": true,
        "id": 10665185,
        "last_rank": 3302,
        "player_name": "YY Lee",
        "rank": 4787,
        "rank_sort": 4799,
        "total": 2416
      },
      {
        "club_badge_src": null,
        "entry": 1728709,
        "entry_name": "Mount Rushworth",
        "event_total": 56,
        "has_played": true,
        "id": 12124212,
        "last_rank": 3462,
        "player_name": "Earl Cubby",
        "rank": 4787,
        "rank_sort": 4800,
        "total": 2416
      }
    ]
  }
}