{
  "last_updated_data": "2026-05-24T23:28:17Z",
  "league": {
    "admin_entry": null,
    "closed": false,
    "code_privacy": "p",
    "created": "2025-07-20T23:14:33.933835Z",
    "cup_league": 2815434,
    "has_cup": true,
    "id": 314,
    "league_type": "s",
    "max_entries": null,
    "name": "Overall",
    "rank": null,
    "scoring": "c",
    "start_event": 1
  },
  "new_entries": {
    "has_next": false,
    "page": 1,
    "results": []
  },
  "standings": {
    "has_next": true,
    "page": 1223,
    "results": [
      {
        "club_badge_src": null,
        "entry": 874255,
        "entry_name": "pro city pros",
        "event_total": 66,
        "has_played": true,
        "id": 5993779,
        "last_rank": 79817,
        "player_name": "Robbie Hostetler",
        "rank": 60996,
        "rank_sort": 61101,
        "total": 2345
      },
      {
        "club_badge_src": null,
        "entry": 885100,
        "entry_name": "MoFC",
        "event_total": 49,
        "has_played": true,
        "id": 6070214,
        "last_rank": 48363,
        "player_name": "Moez Solis",
        "rank": 60996,
        "rank_sort": 61102,
        "total": 2345
      },
      {
        "club_badge_src": null,
        "entry": 895532,
        "entry_name": "CluelessAussie",
        "event_total": 61,
        "has_played": true,
        "id": 6151989,
        "last_rank": 69641,
        "player_name": "Tim Barber",
        "rank": 60996,
        "rank_sort": 61103,
        "total": 2345
      },
      {
        "club_badge_src": null,
        "entry": 902903,
        "entry_name": "Kinder Mbeumo",
        "event_total": 67,
        "has_played": true,
        "id": 6204007,
        "last_rank": 81312,
        "player_name": "Josh Cook",
        "rank": 60996,
        "rank_sort": 61104,
        "total": 2345
      },
      {
        "club_badge_src": null,
        "entry": 908560,
        "entry_name": "Thomas No Party",
        "event_total": 52,
        "has_played": true,
        "id": 6245804,
        "last_rank": 53345,
        "player_name": "Ollie Binion",
        "rank": 60996,
        "rank_sort": 61105,
        "total": 2345
      },
      {
        "club_badge_src": "https://fantasy.premierleague.com/gcs/plfpl-production-adobe-approved/plfpl-production/931027/cb4809ac-28ce-47e7-a62a-4866465a5ba8.png",
        "entry": 931027,
        "entry_name": "fc1738",
        "event_total": 59,
        "has_played": true,
        "id": 6406249,
        "last_rank": 65163,
        "player_name": "Jesse Jnr",
        "rank": 60996,
        "rank_sort": 61106,
        "total": 2345
      },
      {
        "club_badge_src": null,
        "entry": 931037,
        "entry_name": "Bens Boys",
        "event_total": 51,
        "has_played": true,
        "id": 6406331,
        "last_rank": 51720,
        "player_name": "Ben Marshall",
        "rank": 60996,
        "rank_sort": 61107,
        "total": 2345
      },
      {
        "club_badge_src": null,
        "entry": 947309,
        "entry_name": "Sometime",
        "event_total": 64,
        "has_played": true,
        "id": 6524983,
        "last_rank": 75139,
        "player_name": "michael mayhew",
        "rank": 60996,
        "rank_sort": 61108,
        "total": 2345
      },
      {
        "club_badge_src": null,
        "entry": 969518,
        "entry_name": "CPD Llandegla",
        "event_total": 74,
        "has_played": true,
        "id": 6682191,
        "last_rank": 99296,
        "player_name": "Jac Hughes",
        "rank": 60996,
        "rank_sort": 61109,
        "total": 2345
      },
      {
        "club_badge_src": null,
        "entry": 1010860,
        "entry_name": "Stang ut",
        "event_total": 68,
        "has_played": true,
        "id": 6991471,
        "last_rank": 83934,
        "player_name": "H\u00e5kon Runsj\u00f8",
        "rank": 60996,
        "rank_sort": 61110,
        "total": 2345
      },
      {
        "club_badge_src": null,
        "entry": 1054063,
        "entry_name": "Tonali Time Fc",
        "event_total": 52,
        "has_played": true,
        "id": 7294849,
        "last_rank": 53345,
        "player_name": "Ben Thompson",
        "rank": 60996,
        "rank_sort": 61111,
        "total": 2345
      },
      {
        "club_badge_src": null,
        "entry": 1073785,
        "entry_name": "Kroupi Crawlies",
        "event_total": 45,
        "has_played": true,
        "id": 7433933,
        "last_rank": 42940,
        "player_name": "Harry Price",
        "rank": 60996,
        "rank_sort": 61112,
        "total": 2345
      },
      {
        "club_badge_src": "https://fantasy.premierleague.com/gcs/plfpl-production-adobe-approved/plfpl-production/1105392/2cef1944-3124-4cae-ad10-5f307044233e.png",
        "entry": 1105392,
        "entry_name": "Bluzeri",
        "event_total": 41,
        "has_played": true,
        "id": 7656646,
        "last_rank": 37822,
        "player_name": "Neven Slajhert",
        "rank": 60996,
        "rank_sort": 61113,
        "total": 2345
      },
      {
        "club_badge_src": "https://fantasy.premierleague.com/gcs/plfpl-production-adobe-approved/plfpl-production/1116690/803bbc47-5d8c-4c87-93f1-80a99bac101e.png",
        "entry": 1116690,
        "entry_name": "Dead Payet Society",
        "event_total": 52,
        "has_played": true,
        "id": 7735173,
        "last_rank": 53345,
        "player_name": "Keith Loo",
        "rank": 60996,
        "rank_sort": 61114,
        "total": 2345
      },
      {
        "club_badge_src": null,
        "entry": 1142304,
        "entry_name": "Garfield United",
        "event_total": 56,
        "has_played": true,
        "id": 7918294,
        "last_rank": 59813,
        "player_name": "Timo Karvinen",
        "rank": 60996,
        "rank_sort": 61115,
        "total": 2345
      },
      {
        "club_badge_src": "https://fantasy.premierleague.com/gcs/plfpl-production-adobe-approved/plfpl-production/1143553/1085aafe-73ee-4a48-9eae-f4a260ea58f1.png",
        "entry": 1143553,
        "entry_name": "BAM BAM BAM",
        "event_total": 66,
        "has_played": true,
        "id": 7926896,
        "last_rank": 79817,
        "player_name": "Resul Turan",
        "rank": 60996,
        "rank_sort": 61116,
        "total": 2345
      },
      {
        "club_badge_src": null,
        "entry": 1159541,
        "entry_name": "Abu The Great.",
        "event_total": 54,
        "has_played": true,
        "id": 8042987,
        "last_rank": 57001,
        "player_name": "Kaniel Outis",
        "rank": 60996,
        "rank_sort": 61117,
        "total": 2345
      },
      {
        "club_badge_src": null,
        "entry": 1168360,
        "entry_name": "Lost Galacticos",
        "event_total": 52,
        "has_played": true,
        "id": 8105135,
        "last_rank": 53345,
        "player_name": "Vinay Venkat",
        "rank": 60996,
        "rank_sort": 61118,
        "total": 2345
      },
      {
        "club_badge_src": null,
        "entry": 1170939,
        "entry_name": "The Dusty Road",
        "event_total": 44,
        "has_played": true,
        "id": 8123322,
        "last_rank": 41617,
        "player_name": "Gary Jones",
        "rank": 60996,
        "rank_sort": 61119,
        "total": 2345
      },
      {
        "club_badge_src": null,
        "entry": 1177762,
        "entry_name": "Bradley Badbola",
        "event_total": 69,
        "has_played": true,
        "id": 8171829,
        "last_rank": 86304,
        "player_name": "Raghav Sharma",
        "rank": 60996,
        "rank_sort": 61120,
        "total": 2345
      },
      {
        "club_badge_src": null,
        "entry": 1192397,
        "entry_name": "Senkuu",
        "event_total": 52,
        "has_played": true,
        "id": 8273281,
        "last_rank": 53345,
        "player_name": "Marouane kalkoz",
        "rank": 60996,
        "rank_sort": 61121,
        "total": 2345
      },
      {
        "club_badge_src": null,
        "entry": 1251839,
        "entry_name": "D\u00e6 \u00e6 jabbn\u00e5 s\u00e5 dr\u00e6ge",
        "event_total": 64,
        "has_played": true,
        "id": 8694463,
        "last_rank": 75139,
        "player_name": "Nils Arne Lindaas",
        "rank": 60996,
        "rank_sort": 61122,
        "total": 2345
      },
      {
        "club_badge_src": "https://fantasy.premierleague.com/gcs/plfpl-production-adobe-approved/plfpl-production/1258177/46a6e6ea-7ab7-4307-a933-a1e129339168.png",
        "entry": 1258177,
        "entry_name": "Mbuemo Number 5",
        "event_total": 63,
        "has_played": true,
        "id": 8739627,
        "last_rank": 65163,
        "player_name": "Ben Lowes",
        "rank": 60996,
        "rank_sort": 61123,
        "total": 2345
      },
      {
        "club_badge_src": null,
        "entry": 1258431,
        "entry_name": "Stretfordend89",
        "event_total": 81,
        "has_played": true,
        "id": 8741329,
        "last_rank": 117423,
        "player_name": "Jamie Jackson",
        "rank": 60996,
        "rank_sort": 61124,
        "total": 2345
      },
      {
        "club_badge_src": null,
        "entry": 1265816,
        "entry_name": "TheWirtzIsYetToCome",
        "event_total": 77,
        "has_played": true,
        "id": 8795108,
        "last_rank": 107162,
        "player_name": "Daniel Gleissner-Broom",
        "rank": 60996,
        "rank_sort": 61125,
        "total": 2345
      },
      {
        "club_badge_src": null,
        "entry": 1268911,
        "entry_name": "Gunnersaurus",
        "event_total": 55,
        "has_played": true,
        "id": 8816456,
        "last_rank": 58388,
        "player_name": "Geoff Douse",
        "rank": 60996,
        "rank_sort": 61126,
        "total": 2345
      },
      {
        "club_badge_src": null,
        "entry": 1277434,
        "entry_name": "Sorry Nic Jackson",
        "event_total": 65,
        "has_played": true,
        "id": 8876576,
        "last_rank": 68748,
        "player_name": "Zac Paterson",
        "rank": 60996,
        "rank_sort": 61127,
        "total": 2345
      },
      {
        "club_badge_src": null,
        "entry": 1295168,
        "entry_name": "Breach of Bale",
        "event_total": 61,
        "has_played": true,
        "id": 9001178,
        "last_rank": 69323,
        "player_name": "Andrew McIlvenny",
        "rank": 60996,
        "rank_sort": 61128,
        "total": 2345
      },
      {
        "club_badge_src": null,
        "entry": 1335414,
        "entry_name": "On Amad One",
        "event_total": 74,
        "has_played": true,
        "id": 9282468,
        "last_rank": 98896,
        "player_name": "Jake Higginbottom",
        "rank": 60996,
        "rank_sort": 61129,
        "total": 2345
      },
      {
        "club_badge_src": null,
        "entry": 1338124,
        "entry_name": "automatismos",
        "event_total": 60,
        "has_played": true,
        "id": 9303520,
        "last_rank": 59813,
        "player_name": "Jo\u00e3o Mendes",
        "rank": 60996,
        "rank_sort": 61130,
        "total": 2345
      },
      {
        "club_badge_src": null,
        "entry": 1382724,
        "entry_name": "Susana FC",
        "event_total": 56,
        "has_played": true,
        "id": 9616953,
        "last_rank": 60168,
        "player_name": "Steven S",
        "rank": 60996,
        "rank_sort": 61131,
        "total": 2345
      },
      {
        "club_badge_src": null,
        "entry": 1396139,
        "entry_name": "Saka Potatoes",
        "event_total": 55,
        "has_played": true,
        "id": 9712883,
        "last_rank": 58388,
        "player_name": "Will Smith",
        "rank": 60996,
        "rank_sort": 61132,
        "total": 2345
      },
      {
        "club_badge_src": null,
        "entry": 1406189,
        "entry_name": "Sevas Sljive",
        "event_total": 50,
        "has_played": true,
        "id": 9784339,
        "last_rank": 50199,
        "player_name": "Antonio Kordic",
        "rank": 60996,
        "rank_sort": 61133,
        "total": 2345
      },
      {
        "club_badge_src": null,
        "entry": 1466136,
        "entry_name": "Ruben Svartes Knif",
        "event_total": 54,
        "has_played": true,
        "id": 10219609,
        "last_rank": 56708,
        "player_name": "Jonas Norstr\u00f6m",
        "rank": 60996,
        "rank_sort": 61134,
        "total": 2345
      },
      {
        "club_badge_src": "https://fantasy.premierleague.com/gcs/plfpl-production-adobe-approved/plfpl-production/1475984/9945801b-23ff-4fa3-8409-79b32ebd02af.png",
        "entry": 1475984,
        "entry_name": "Szefscy",
        "event_total": 31,
        "has_played": true,
        "id": 10288813,
        "last_rank": 27203,
        "player_name": "Marcin Szewczyk",
        "rank": 60996,
        "rank_sort": 61135,
        "total": 2345
      },
      {
        "club_badge_src": null,
        "entry": 1491076,
        "entry_name": "LCFD",
        "event_total": 67,
        "has_played": true,
        "id": 10398014,
        "last_rank": 82398,
        "player_name": "Luke Daly",
        "rank": 60996,
        "rank_sort": 61136,
        "total": 2345
      },
      {
        "club_badge_src": null,
        "entry": 1577919,
        "entry_name": "Bergboms gubbar",
        "event_total": 53,
        "has_played": true,
        "id": 11026095,
        "last_rank": 55014,
        "player_name": "Tom Bergbom",
        "rank": 60996,
        "rank_sort": 61137,
        "total": 2345
      },
      {
        "club_badge_src": null,
        "entry": 1591020,
        "entry_name": "Vett & Ekitik\u00e9",
        "event_total": 42,
        "has_played": true,
        "id": 11124946,
        "last_rank": 38774,
        "player_name": "Theo Andersson",
        "rank": 60996,
        "rank_sort": 61138,
        "total": 2345
      },
      {
        "club_badge_src": "https://fantasy.premierleague.com/gcs/plfpl-production-adobe-approved/plfpl-production/1615322/809671dc-9dbe-4a01-aca5-a01e31b48380.png",
        "entry": 1615322,
        "entry_name": "Livin' Saliba Loca",
        "event_total": 51,
        "has_played": true,
        "id": 11302664,
        "last_rank": 51720,
        "player_name": "Jessica Swaryczewska",
        "rank": 60996,
        "rank_sort": 61139,
        "total": 2345
      },
      {
        "club_badge_src": "https://fantasy.premierleague.com/gcs/plfpl-production-adobe-approved/plfpl-production/1654323/6a8c5631-150c-43c9-a02e-d74c6b90ee52.png",
        "entry": 1654323,
        "entry_name": "Red Devils",
        "event_total": 84,
        "has_played": true,
        "id": 11582082,
        "last_rank": 126948,
        "player_name": "Philip Patrick",
        "rank": 60996,
        "rank_sort": 61140,
        "total": 2345
      },
      {
        "club_badge_src": null,
        "entry": 1659698,
        "entry_name": "Winners FC",
        "event_total": 69,
        "has_played": true,
        "id": 11619824,
        "last_rank": 86735,
        "player_name": "Tigo Harrison",
        "rank": 60996,
        "rank_sort": 61141,
        "total": 2345
      },
      {
        "club_badge_src": null,
        "entry": 1685691,
        "entry_name": "One Slot Wonder",
        "event_total": 66,
        "has_played": true,
        "id": 11799979,
        "last_rank": 70985,
        "player_name": "Jonathan Kemp",
        "rank": 60996,
        "rank_sort": 61142,
        "total": 2345
      },
      {
        "club_badge_src": null,
        "entry": 1743374,
        "entry_name": "seki",
        "event_total": 67,
        "has_played": true,
        "id": 12232831,
        "last_rank": 81420,
        "player_name": "Szymon Sekunda",
        "rank": 60996,
        "rank_sort": 61143,
        "total": 2345
      },
      {
        "club_badge_src": "https://fantasy.premierleague.com/gcs/plfpl-production-adobe-approved/plfpl-production/1776676/4751a1ee-b56a-48fe-95c3-c2bb8b8a40a5.png",
        "entry": 1776676,
        "entry_name": "Red Machine",
        "event_total": 46,
        "has_played": true,
        "id": 12481531,
        "last_rank": 43849,
        "player_name": "Mark Tyndale",
        "rank": 60996,
        "rank_sort": 61144,
        "total": 2345
      },
      {
        "club_badge_src": null,
        "entry": 1784027,
        "entry_name": "T Piddy",
        "event_total": 44,
        "has_played": true,
        "id": 12534424,
        "last_rank": 41617,
        "player_name": "Soroosh Ghodrat",
        "rank": 60996,
        "rank_sort": 61145,
        "total": 2345
      },
      {
        "club_badge_src": "https://fantasy.premierleague.com/gcs/plfpl-production-adobe-approved/plfpl-production/1797596/e6b629c2-9617-4867-94b2-b22d0a43fb78.png",
        "entry": 1797596,
        "entry_name": "Rice Rice Baby",
        "event_total": 55,
        "has_played": true,
        "id": 12632948,
        "last_rank": 58388,
        "player_name": "Ahmed Fakhfakh",
        "rank": 60996,
        "rank_sort": 61146,
        "total": 2345
      },
      {
        "club_badge_src": null,
        "entry": 1798732,
        "entry_name": "Ult Squad",
        "event_total": 52,
        "has_played": true,
        "id": 12641127,
        "last_rank": 53621,
        "player_name": "Ricardo Josephs",
        "rank": 60996,
        "rank_sort": 61147,
        "total": 2345
      },
      {
        "club_badge_src": null,
        "entry": 1806189,
        "entry_name": "Freddie Ful-Kr\u00fceger",
        "event_total": 69,
        "has_played": true,
        "id": 12697974,
        "last_rank": 86054,
        "player_name": "Oliver Rampton",
        "rank": 60996,
        "rank_sort": 61148,
        "total": 2345
      },
      {
        "club_badge_src": null,
        "entry": 1912822,
        "entry_name": "Simons x1",
        "event_total": 91,
        "has_played": true,
        "id": 13486127,
        "last_rank": 149245,
        "player_name": "Simon Poulton",
        "rank": 60996,
        "rank_sort": 61149,
        "total": 2345
      },
      {
        "club_badge_src": null,
        "entry": 1937814,
        "entry_name": "Numpties",
        "event_total": 40,
        "has_played": true,
        "id": 13667645,
        "last_rank": 36624,
        "player_name": "Norry Mcallister",
        "rank": 60996,
        "rank_sort": 61150,
        "total": 2345
      }
    ]
  }
}