{
  "last_updated_data": "2026-05-24T23:28:17Z",
  "league": {
    "admin_entry": null,
    "closed": false,
    "code_privacy": "p",
    "created": "2025-07-20T23:14:33.933835Z",
    "cup_league": 2815434,
    "has_cup": true,
    "id": 314,
    "league_type": "s",
    "max_entries": null,
    "name": "Overall",
    "rank": null,
    "scoring": "c",
    "start_event": 1
  },
  "new_entries": {
    "has_next": false,
    "page": 1,
    "results": []
  },
  "standings": {
    "has_next": true,
    "page": 1237,
    "results": [
      {
        "club_badge_src": null,
        "entry": 2520815,
        "entry_name": "Your Wirtz Nightmare",
        "event_total": 56,
        "has_played": true,
        "id": 18061982,
        "last_rank": 53621,
        "player_name": "Anuj Bajaria",
        "rank": 61708,
        "rank_sort": 61801,
        "total": 2345
      },
      {
        "club_badge_src": null,
        "entry": 2524857,
        "entry_name": "kardo",
        "event_total": 61,
        "has_played": true,
        "id": 18091870,
        "last_rank": 70072,
        "player_name": "sarias subhdam",
        "rank": 61708,
        "rank_sort": 61802,
        "total": 2345
      },
      {
        "club_badge_src": null,
        "entry": 2603619,
        "entry_name": "Brahim FC",
        "event_total": 68,
        "has_played": true,
        "id": 18701509,
        "last_rank": 76128,
        "player_name": "Jamil Kahwagi",
        "rank": 61708,
        "rank_sort": 61803,
        "total": 2345
      },
      {
        "club_badge_src": null,
        "entry": 2696930,
        "entry_name": "Hozzie Bhoys",
        "event_total": 68,
        "has_played": true,
        "id": 19400021,
        "last_rank": 85349,
        "player_name": "Barry Mullin",
        "rank": 61708,
        "rank_sort": 61804,
        "total": 2345
      },
      {
        "club_badge_src": null,
        "entry": 2704980,
        "entry_name": "Z E Y A D",
        "event_total": 51,
        "has_played": true,
        "id": 19460334,
        "last_rank": 52205,
        "player_name": "Mr minus",
        "rank": 61708,
        "rank_sort": 61805,
        "total": 2345
      },
      {
        "club_badge_src": null,
        "entry": 2965445,
        "entry_name": "Arne's Slot machines",
        "event_total": 55,
        "has_played": true,
        "id": 21785490,
        "last_rank": 59077,
        "player_name": "Brian Carroll",
        "rank": 61708,
        "rank_sort": 61806,
        "total": 2345
      },
      {
        "club_badge_src": null,
        "entry": 2978160,
        "entry_name": "F.Atassi",
        "event_total": 59,
        "has_played": true,
        "id": 21891587,
        "last_rank": 66200,
        "player_name": "Firas Atassi",
        "rank": 61708,
        "rank_sort": 61807,
        "total": 2345
      },
      {
        "club_badge_src": "https://fantasy.premierleague.com/gcs/plfpl-production-adobe-approved/plfpl-production/3053797/e917f46c-e6f6-46dd-b26a-32281065570f.png",
        "entry": 3053797,
        "entry_name": "bivalve bros",
        "event_total": 63,
        "has_played": true,
        "id": 22482049,
        "last_rank": 73975,
        "player_name": "Geo Anc",
        "rank": 61708,
        "rank_sort": 61808,
        "total": 2345
      },
      {
        "club_badge_src": null,
        "entry": 3149953,
        "entry_name": "MenPlayingWithBalls",
        "event_total": 62,
        "has_played": true,
        "id": 23259938,
        "last_rank": 72145,
        "player_name": "Will Firth",
        "rank": 61708,
        "rank_sort": 61809,
        "total": 2345
      },
      {
        "club_badge_src": null,
        "entry": 3206287,
        "entry_name": "Cold as Cole",
        "event_total": 58,
        "has_played": true,
        "id": 23703198,
        "last_rank": 64190,
        "player_name": "socrates yiannakou",
        "rank": 61708,
        "rank_sort": 61810,
        "total": 2345
      },
      {
        "club_badge_src": null,
        "entry": 3257808,
        "entry_name": "mohammed",
        "event_total": 47,
        "has_played": true,
        "id": 24105277,
        "last_rank": 46313,
        "player_name": "Mohammed S",
        "rank": 61708,
        "rank_sort": 61811,
        "total": 2345
      },
      {
        "club_badge_src": null,
        "entry": 3272233,
        "entry_name": "Mamador das Trevas",
        "event_total": 55,
        "has_played": true,
        "id": 24216238,
        "last_rank": 58688,
        "player_name": "Mario Ramos",
        "rank": 61708,
        "rank_sort": 61812,
        "total": 2345
      },
      {
        "club_badge_src": null,
        "entry": 3374847,
        "entry_name": "FplExpert005",
        "event_total": 75,
        "has_played": true,
        "id": 25048836,
        "last_rank": 102125,
        "player_name": "Sonam Tobgay",
        "rank": 61708,
        "rank_sort": 61813,
        "total": 2345
      },
      {
        "club_badge_src": null,
        "entry": 3410024,
        "entry_name": "pheasant pluckers",
        "event_total": 46,
        "has_played": true,
        "id": 25324420,
        "last_rank": 44804,
        "player_name": "Chris Brocklehurst",
        "rank": 61708,
        "rank_sort": 61814,
        "total": 2345
      },
      {
        "club_badge_src": null,
        "entry": 3471927,
        "entry_name": "DJOLIBA AC",
        "event_total": 62,
        "has_played": true,
        "id": 25812263,
        "last_rank": 56708,
        "player_name": "Guaye Daffe",
        "rank": 61708,
        "rank_sort": 61815,
        "total": 2345
      },
      {
        "club_badge_src": null,
        "entry": 3596439,
        "entry_name": "Schaboszczaki",
        "event_total": 62,
        "has_played": true,
        "id": 26785068,
        "last_rank": 64190,
        "player_name": "Maciek Chabko",
        "rank": 61708,
        "rank_sort": 61816,
        "total": 2345
      },
      {
        "club_badge_src": null,
        "entry": 3621193,
        "entry_name": "Duffys Dreamers",
        "event_total": 61,
        "has_played": true,
        "id": 26979977,
        "last_rank": 70072,
        "player_name": "Lawrence Singhal",
        "rank": 61708,
        "rank_sort": 61817,
        "total": 2345
      },
      {
        "club_badge_src": null,
        "entry": 3655688,
        "entry_name": "mondoyot",
        "event_total": 44,
        "has_played": true,
        "id": 27256225,
        "last_rank": 42152,
        "player_name": "Arief Kordun",
        "rank": 61708,
        "rank_sort": 61818,
        "total": 2345
      },
      {
        "club_badge_src": null,
        "entry": 3805654,
        "entry_name": "Solanke\u2019s scorgasm",
        "event_total": 42,
        "has_played": true,
        "id": 28452516,
        "last_rank": 39510,
        "player_name": "Angus Dickens",
        "rank": 61708,
        "rank_sort": 61819,
        "total": 2345
      },
      {
        "club_badge_src": null,
        "entry": 3810813,
        "entry_name": "redeem team",
        "event_total": 48,
        "has_played": true,
        "id": 28494645,
        "last_rank": 47722,
        "player_name": "Anand Modi",
        "rank": 61708,
        "rank_sort": 61820,
        "total": 2345
      },
      {
        "club_badge_src": null,
        "entry": 3821926,
        "entry_name": "GOON FC",
        "event_total": 51,
        "has_played": true,
        "id": 28585436,
        "last_rank": 52357,
        "player_name": "Luben Simeonov",
        "rank": 61708,
        "rank_sort": 61821,
        "total": 2345
      },
      {
        "club_badge_src": "https://fantasy.premierleague.com/gcs/plfpl-production-adobe-approved/plfpl-production/3961319/91f638d3-95f1-48b4-b5e0-6ec290a67596.png",
        "entry": 3961319,
        "entry_name": "FC Bushpig",
        "event_total": 64,
        "has_played": true,
        "id": 29804657,
        "last_rank": 67926,
        "player_name": "Anthony Horton",
        "rank": 61708,
        "rank_sort": 61822,
        "total": 2345
      },
      {
        "club_badge_src": null,
        "entry": 3980365,
        "entry_name": "Raya Jama",
        "event_total": 59,
        "has_played": true,
        "id": 29962082,
        "last_rank": 51984,
        "player_name": "Sam Johnston",
        "rank": 61708,
        "rank_sort": 61823,
        "total": 2345
      },
      {
        "club_badge_src": null,
        "entry": 4364487,
        "entry_name": "Leadbeatters legends",
        "event_total": 67,
        "has_played": true,
        "id": 33151882,
        "last_rank": 65796,
        "player_name": "Sam leadbeatter",
        "rank": 61708,
        "rank_sort": 61824,
        "total": 2345
      },
      {
        "club_badge_src": null,
        "entry": 4382574,
        "entry_name": "Young Boys",
        "event_total": 55,
        "has_played": true,
        "id": 33309229,
        "last_rank": 58911,
        "player_name": "A. Muizz Ahmed",
        "rank": 61708,
        "rank_sort": 61825,
        "total": 2345
      },
      {
        "club_badge_src": null,
        "entry": 4477500,
        "entry_name": "Chapter11 FC-----",
        "event_total": 82,
        "has_played": true,
        "id": 34123141,
        "last_rank": 109863,
        "player_name": "Bryce Beckford",
        "rank": 61708,
        "rank_sort": 61826,
        "total": 2345
      },
      {
        "club_badge_src": null,
        "entry": 4615279,
        "entry_name": "BBC in the box",
        "event_total": 70,
        "has_played": true,
        "id": 35272795,
        "last_rank": 89897,
        "player_name": "Dhruvin Kapasi",
        "rank": 61708,
        "rank_sort": 61827,
        "total": 2345
      },
      {
        "club_badge_src": null,
        "entry": 4670434,
        "entry_name": "Sorry Nic Jackson",
        "event_total": 56,
        "has_played": true,
        "id": 35775135,
        "last_rank": 60671,
        "player_name": "Mike Webber",
        "rank": 61708,
        "rank_sort": 61828,
        "total": 2345
      },
      {
        "club_badge_src": null,
        "entry": 4691425,
        "entry_name": "Sesko Express",
        "event_total": 68,
        "has_played": true,
        "id": 35958855,
        "last_rank": 76128,
        "player_name": "Finn Costello O'Reilly",
        "rank": 61708,
        "rank_sort": 61829,
        "total": 2345
      },
      {
        "club_badge_src": null,
        "entry": 4773981,
        "entry_name": "NEW ERA FC",
        "event_total": 76,
        "has_played": true,
        "id": 36747638,
        "last_rank": 94537,
        "player_name": "Mahir Faisal",
        "rank": 61708,
        "rank_sort": 61830,
        "total": 2345
      },
      {
        "club_badge_src": null,
        "entry": 5392701,
        "entry_name": "ZOOM FC",
        "event_total": 76,
        "has_played": true,
        "id": 41926026,
        "last_rank": 104388,
        "player_name": "Tommy Zoom",
        "rank": 61708,
        "rank_sort": 61831,
        "total": 2345
      },
      {
        "club_badge_src": null,
        "entry": 5823539,
        "entry_name": "Jackie's Army",
        "event_total": 64,
        "has_played": true,
        "id": 45703043,
        "last_rank": 60462,
        "player_name": "T\u00e1rlach Russell",
        "rank": 61708,
        "rank_sort": 61832,
        "total": 2345
      },
      {
        "club_badge_src": null,
        "entry": 6084477,
        "entry_name": "Gitten The Goal!",
        "event_total": 66,
        "has_played": true,
        "id": 48041215,
        "last_rank": 71956,
        "player_name": "James Doherty",
        "rank": 61708,
        "rank_sort": 61833,
        "total": 2345
      },
      {
        "club_badge_src": null,
        "entry": 6216155,
        "entry_name": "Simply The Best",
        "event_total": 53,
        "has_played": true,
        "id": 49183528,
        "last_rank": 55659,
        "player_name": "Matthew Batchelor",
        "rank": 61708,
        "rank_sort": 61834,
        "total": 2345
      },
      {
        "club_badge_src": null,
        "entry": 6365415,
        "entry_name": "Troms\u00f8 United",
        "event_total": 64,
        "has_played": true,
        "id": 50614973,
        "last_rank": 76128,
        "player_name": "Halgrim Lorentsen",
        "rank": 61708,
        "rank_sort": 61835,
        "total": 2345
      },
      {
        "club_badge_src": null,
        "entry": 6474167,
        "entry_name": "Timbojones",
        "event_total": 71,
        "has_played": true,
        "id": 51588850,
        "last_rank": 92332,
        "player_name": "Timmy Molloy",
        "rank": 61708,
        "rank_sort": 61836,
        "total": 2345
      },
      {
        "club_badge_src": null,
        "entry": 6493706,
        "entry_name": "Reese's Pieces",
        "event_total": 52,
        "has_played": true,
        "id": 51766222,
        "last_rank": 53837,
        "player_name": "Ian Plant",
        "rank": 61708,
        "rank_sort": 61837,
        "total": 2345
      },
      {
        "club_badge_src": null,
        "entry": 6609705,
        "entry_name": "Cyril The Hedgehog",
        "event_total": 44,
        "has_played": true,
        "id": 52807427,
        "last_rank": 42081,
        "player_name": "Paul Barlow",
        "rank": 61708,
        "rank_sort": 61838,
        "total": 2345
      },
      {
        "club_badge_src": null,
        "entry": 6818173,
        "entry_name": "Tequila Mockingbird",
        "event_total": 69,
        "has_played": true,
        "id": 54607828,
        "last_rank": 87541,
        "player_name": "Greg Bruce",
        "rank": 61708,
        "rank_sort": 61839,
        "total": 2345
      },
      {
        "club_badge_src": null,
        "entry": 6900656,
        "entry_name": "MOIL FC",
        "event_total": 73,
        "has_played": true,
        "id": 55309452,
        "last_rank": 97096,
        "player_name": "Faaris Habib",
        "rank": 61708,
        "rank_sort": 61840,
        "total": 2345
      },
      {
        "club_badge_src": null,
        "entry": 6995693,
        "entry_name": "langleys heros",
        "event_total": 61,
        "has_played": true,
        "id": 56162432,
        "last_rank": 69907,
        "player_name": "Justin Langley",
        "rank": 61708,
        "rank_sort": 61841,
        "total": 2345
      },
      {
        "club_badge_src": null,
        "entry": 7295718,
        "entry_name": "Redz_",
        "event_total": 69,
        "has_played": true,
        "id": 59036457,
        "last_rank": 87541,
        "player_name": "Ayo Adesuyi",
        "rank": 61708,
        "rank_sort": 61842,
        "total": 2345
      },
      {
        "club_badge_src": null,
        "entry": 7604178,
        "entry_name": "BACK TO BACK CHAMP",
        "event_total": 42,
        "has_played": true,
        "id": 62302399,
        "last_rank": 39510,
        "player_name": "Hamza Dipcharima",
        "rank": 61708,
        "rank_sort": 61843,
        "total": 2345
      },
      {
        "club_badge_src": null,
        "entry": 7704187,
        "entry_name": "nizar 02",
        "event_total": 51,
        "has_played": true,
        "id": 63208709,
        "last_rank": 52357,
        "player_name": "khattar Nizar",
        "rank": 61708,
        "rank_sort": 61844,
        "total": 2345
      },
      {
        "club_badge_src": null,
        "entry": 7768304,
        "entry_name": "caynte",
        "event_total": 64,
        "has_played": true,
        "id": 63787643,
        "last_rank": 76330,
        "player_name": "Caynte ciiro",
        "rank": 61708,
        "rank_sort": 61845,
        "total": 2345
      },
      {
        "club_badge_src": null,
        "entry": 8353125,
        "entry_name": "Shawshank Redemption",
        "event_total": 56,
        "has_played": true,
        "id": 69231496,
        "last_rank": 60462,
        "player_name": "Fahad Al-Barwani",
        "rank": 61708,
        "rank_sort": 61846,
        "total": 2345
      },
      {
        "club_badge_src": null,
        "entry": 8358552,
        "entry_name": "Corner FC",
        "event_total": 56,
        "has_played": true,
        "id": 69284123,
        "last_rank": 53837,
        "player_name": "Priyanthan Praba",
        "rank": 61708,
        "rank_sort": 61847,
        "total": 2345
      },
      {
        "club_badge_src": null,
        "entry": 8484217,
        "entry_name": "Goonerskeres FC",
        "event_total": 48,
        "has_played": true,
        "id": 70481914,
        "last_rank": 47722,
        "player_name": "Harfandi Tonote",
        "rank": 61708,
        "rank_sort": 61848,
        "total": 2345
      },
      {
        "club_badge_src": "https://fantasy.premierleague.com/gcs/plfpl-production-adobe-approved/plfpl-production/8624717/47a4ea9f-18ef-4370-a17c-27787e7d7781.png",
        "entry": 8624717,
        "entry_name": "hambaka",
        "event_total": 84,
        "has_played": true,
        "id": 71836811,
        "last_rank": 115760,
        "player_name": "Omar Remah",
        "rank": 61708,
        "rank_sort": 61849,
        "total": 2345
      },
      {
        "club_badge_src": null,
        "entry": 8720246,
        "entry_name": "All Star Reds",
        "event_total": 71,
        "has_played": true,
        "id": 72776327,
        "last_rank": 92332,
        "player_name": "Gary Hamilton",
        "rank": 61708,
        "rank_sort": 61850,
        "total": 2345
      }
    ]
  }
}