{
  "last_updated_data": "2026-05-24T23:28:17Z",
  "league": {
    "admin_entry": null,
    "closed": false,
    "code_privacy": "p",
    "created": "2025-07-20T23:14:33.933835Z",
    "cup_league": 2815434,
    "has_cup": true,
    "id": 314,
    "league_type": "s",
    "max_entries": null,
    "name": "Overall",
    "rank": null,
    "scoring": "c",
    "start_event": 1
  },
  "new_entries": {
    "has_next": false,
    "page": 1,
    "results": []
  },
  "standings": {
    "has_next": true,
    "page": 169,
    "results": [
      {
        "club_badge_src": null,
        "entry": 7146272,
        "entry_name": "Ekitik\u00e9-Taka",
        "event_total": 65,
        "has_played": true,
        "id": 57617292,
        "last_rank": 9402,
        "player_name": "Jake Lawrenson",
        "rank": 8395,
        "rank_sort": 8401,
        "total": 2403
      },
      {
        "club_badge_src": null,
        "entry": 1289014,
        "entry_name": "Heltene",
        "event_total": 66,
        "has_played": true,
        "id": 8957071,
        "last_rank": 9806,
        "player_name": "Cato Eidsv\u00e5g",
        "rank": 8402,
        "rank_sort": 8402,
        "total": 2403
      },
      {
        "club_badge_src": "https://fantasy.premierleague.com/gcs/plfpl-production-adobe-approved/plfpl-production/3663651/99d70306-9948-47d3-9d50-9b474bb46d89.png",
        "entry": 3663651,
        "entry_name": "Ginger Whizzes",
        "event_total": 74,
        "has_played": true,
        "id": 27321576,
        "last_rank": 15972,
        "player_name": "Jonny Morton",
        "rank": 8402,
        "rank_sort": 8403,
        "total": 2403
      },
      {
        "club_badge_src": null,
        "entry": 5137307,
        "entry_name": "Dazzlers",
        "event_total": 52,
        "has_played": true,
        "id": 39736702,
        "last_rank": 6365,
        "player_name": "Darren Hill",
        "rank": 8402,
        "rank_sort": 8404,
        "total": 2403
      },
      {
        "club_badge_src": null,
        "entry": 9546,
        "entry_name": "Champions of Europe",
        "event_total": 57,
        "has_played": true,
        "id": 56153,
        "last_rank": 6656,
        "player_name": "Kye Rozasty",
        "rank": 8405,
        "rank_sort": 8405,
        "total": 2403
      },
      {
        "club_badge_src": null,
        "entry": 63162,
        "entry_name": "Dilligaf",
        "event_total": 58,
        "has_played": true,
        "id": 407434,
        "last_rank": 6970,
        "player_name": "Darren Liew",
        "rank": 8405,
        "rank_sort": 8406,
        "total": 2403
      },
      {
        "club_badge_src": "https://fantasy.premierleague.com/gcs/plfpl-production-adobe-approved/plfpl-production/247007/9e446098-c1e8-4978-9d96-51798719fe86.png",
        "entry": 247007,
        "entry_name": "Bones' Boys",
        "event_total": 52,
        "has_played": true,
        "id": 1644261,
        "last_rank": 5362,
        "player_name": "Steve Stone",
        "rank": 8405,
        "rank_sort": 8407,
        "total": 2403
      },
      {
        "club_badge_src": null,
        "entry": 201912,
        "entry_name": "WataruDoingLeo",
        "event_total": 57,
        "has_played": true,
        "id": 1340783,
        "last_rank": 6663,
        "player_name": "Simon O'Connor",
        "rank": 8408,
        "rank_sort": 8408,
        "total": 2403
      },
      {
        "club_badge_src": null,
        "entry": 545182,
        "entry_name": "Skrymir",
        "event_total": 56,
        "has_played": true,
        "id": 3669079,
        "last_rank": 5362,
        "player_name": "Oddvar Halvorsen",
        "rank": 8408,
        "rank_sort": 8409,
        "total": 2403
      },
      {
        "club_badge_src": null,
        "entry": 3936770,
        "entry_name": "Vaulen Tigers",
        "event_total": 64,
        "has_played": true,
        "id": 29612618,
        "last_rank": 9047,
        "player_name": "Kenneth Berge-Sch\u00f8ld",
        "rank": 8410,
        "rank_sort": 8410,
        "total": 2403
      },
      {
        "club_badge_src": null,
        "entry": 7733672,
        "entry_name": "Muffers FC",
        "event_total": 35,
        "has_played": true,
        "id": 63474190,
        "last_rank": 2390,
        "player_name": "Daithi Tracey",
        "rank": 8410,
        "rank_sort": 8411,
        "total": 2403
      },
      {
        "club_badge_src": null,
        "entry": 6861935,
        "entry_name": "Ali ALMOBARAK",
        "event_total": 59,
        "has_played": true,
        "id": 54981269,
        "last_rank": 7294,
        "player_name": "ALI ALMOBARAK",
        "rank": 8412,
        "rank_sort": 8412,
        "total": 2403
      },
      {
        "club_badge_src": null,
        "entry": 102319,
        "entry_name": "Haribo FC",
        "event_total": 64,
        "has_played": true,
        "id": 667589,
        "last_rank": 7584,
        "player_name": "Niall Bray",
        "rank": 8413,
        "rank_sort": 8413,
        "total": 2403
      },
      {
        "club_badge_src": "https://fantasy.premierleague.com/gcs/plfpl-production-adobe-approved/plfpl-production/1215573/1d079003-0284-4267-ace9-db1e78bd53f6.png",
        "entry": 1215573,
        "entry_name": "Smoldering Blade",
        "event_total": 69,
        "has_played": true,
        "id": 8437297,
        "last_rank": 13115,
        "player_name": "Alexander Nikolov",
        "rank": 8413,
        "rank_sort": 8414,
        "total": 2403
      },
      {
        "club_badge_src": null,
        "entry": 2800459,
        "entry_name": "Ahmed iuvpo",
        "event_total": 61,
        "has_played": true,
        "id": 20449711,
        "last_rank": 9439,
        "player_name": "United AHMed",
        "rank": 8413,
        "rank_sort": 8415,
        "total": 2403
      },
      {
        "club_badge_src": null,
        "entry": 2785461,
        "entry_name": "John\u2019s Johns",
        "event_total": 57,
        "has_played": true,
        "id": 20335017,
        "last_rank": 4682,
        "player_name": "Chris Jenkins",
        "rank": 8416,
        "rank_sort": 8416,
        "total": 2403
      },
      {
        "club_badge_src": "https://fantasy.premierleague.com/gcs/plfpl-production-adobe-approved/plfpl-production/789610/1ddd63d2-c466-4532-ab0e-a53a9c1e3934.png",
        "entry": 789610,
        "entry_name": "Backstreet Moyes",
        "event_total": 65,
        "has_played": true,
        "id": 5401878,
        "last_rank": 11132,
        "player_name": "Andrew Coventry",
        "rank": 8417,
        "rank_sort": 8417,
        "total": 2403
      },
      {
        "club_badge_src": null,
        "entry": 1695574,
        "entry_name": "Smilez",
        "event_total": 65,
        "has_played": true,
        "id": 11875719,
        "last_rank": 6669,
        "player_name": "\u0e40\u0e01\u0e35\u0e22\u0e23\u0e15\u0e34\u0e28\u0e31\u0e01\u0e14\u0e34\u0e4c \u0e08\u0e34\u0e15\u0e23\u0e4c\u0e40\u0e17\u0e35\u0e48\u0e22\u0e07",
        "rank": 8418,
        "rank_sort": 8418,
        "total": 2403
      },
      {
        "club_badge_src": null,
        "entry": 1947792,
        "entry_name": "Moff@ beef",
        "event_total": 47,
        "has_played": true,
        "id": 13739583,
        "last_rank": 5125,
        "player_name": "Mark Ewing",
        "rank": 8419,
        "rank_sort": 8419,
        "total": 2402
      },
      {
        "club_badge_src": null,
        "entry": 3734048,
        "entry_name": "ahmad10",
        "event_total": 56,
        "has_played": true,
        "id": 27871955,
        "last_rank": 7587,
        "player_name": "Ahmad Shngaliii",
        "rank": 8420,
        "rank_sort": 8420,
        "total": 2402
      },
      {
        "club_badge_src": null,
        "entry": 470693,
        "entry_name": "JB Sports",
        "event_total": 60,
        "has_played": true,
        "id": 3159808,
        "last_rank": 9077,
        "player_name": "Jonas Bruusgaard",
        "rank": 8421,
        "rank_sort": 8421,
        "total": 2402
      },
      {
        "club_badge_src": null,
        "entry": 2713776,
        "entry_name": "Pepe's Palookas",
        "event_total": 67,
        "has_played": true,
        "id": 19525789,
        "last_rank": 12099,
        "player_name": "ed rozkydal",
        "rank": 8421,
        "rank_sort": 8422,
        "total": 2402
      },
      {
        "club_badge_src": null,
        "entry": 3260432,
        "entry_name": "VVP28",
        "event_total": 69,
        "has_played": true,
        "id": 24125196,
        "last_rank": 13153,
        "player_name": "Victor Venger-Pedersen",
        "rank": 8421,
        "rank_sort": 8423,
        "total": 2402
      },
      {
        "club_badge_src": null,
        "entry": 4751740,
        "entry_name": "Slot-O-Holic",
        "event_total": 51,
        "has_played": true,
        "id": 36564920,
        "last_rank": 6146,
        "player_name": "Anil B",
        "rank": 8421,
        "rank_sort": 8424,
        "total": 2402
      },
      {
        "club_badge_src": null,
        "entry": 6341993,
        "entry_name": "MY WIEFFER!",
        "event_total": 68,
        "has_played": true,
        "id": 50409017,
        "last_rank": 12594,
        "player_name": "Tom Burley",
        "rank": 8421,
        "rank_sort": 8425,
        "total": 2402
      },
      {
        "club_badge_src": null,
        "entry": 6402123,
        "entry_name": "WBACL",
        "event_total": 70,
        "has_played": true,
        "id": 50938379,
        "last_rank": 13710,
        "player_name": "James Evans",
        "rank": 8421,
        "rank_sort": 8426,
        "total": 2402
      },
      {
        "club_badge_src": null,
        "entry": 6426694,
        "entry_name": "ECCO City Greens \u26bd\ufe0f",
        "event_total": 46,
        "has_played": true,
        "id": 51156645,
        "last_rank": 4918,
        "player_name": "Cyril O' Rakgetho",
        "rank": 8421,
        "rank_sort": 8427,
        "total": 2402
      },
      {
        "club_badge_src": null,
        "entry": 6979089,
        "entry_name": "Turkish De ligt",
        "event_total": 65,
        "has_played": true,
        "id": 56007399,
        "last_rank": 11136,
        "player_name": "James Yilmaz",
        "rank": 8421,
        "rank_sort": 8428,
        "total": 2402
      },
      {
        "club_badge_src": null,
        "entry": 75113,
        "entry_name": "Palmergeddon",
        "event_total": 77,
        "has_played": true,
        "id": 488342,
        "last_rank": 18029,
        "player_name": "Jamie Dempster",
        "rank": 8429,
        "rank_sort": 8429,
        "total": 2402
      },
      {
        "club_badge_src": null,
        "entry": 976308,
        "entry_name": "Sleetpojk",
        "event_total": 62,
        "has_played": true,
        "id": 6730539,
        "last_rank": 9853,
        "player_name": "Sebastian Furu",
        "rank": 8429,
        "rank_sort": 8430,
        "total": 2402
      },
      {
        "club_badge_src": null,
        "entry": 1357841,
        "entry_name": "Hossam Hassan",
        "event_total": 45,
        "has_played": true,
        "id": 9438555,
        "last_rank": 4704,
        "player_name": "Hossam Hassan",
        "rank": 8429,
        "rank_sort": 8431,
        "total": 2402
      },
      {
        "club_badge_src": "https://fantasy.premierleague.com/gcs/plfpl-production-adobe-approved/plfpl-production/1728896/a9682a87-34a8-4fa2-b527-1ce835e2b97c.png",
        "entry": 1728896,
        "entry_name": "403 Forbidden",
        "event_total": 58,
        "has_played": true,
        "id": 12125694,
        "last_rank": 8320,
        "player_name": "Gareth Broomhall",
        "rank": 8429,
        "rank_sort": 8432,
        "total": 2402
      },
      {
        "club_badge_src": null,
        "entry": 2553117,
        "entry_name": "Heroes FC",
        "event_total": 52,
        "has_played": true,
        "id": 18306110,
        "last_rank": 6392,
        "player_name": "Ole-Martin Axelsen",
        "rank": 8429,
        "rank_sort": 8433,
        "total": 2402
      },
      {
        "club_badge_src": null,
        "entry": 6923161,
        "entry_name": "Wallahi FC",
        "event_total": 60,
        "has_played": true,
        "id": 55497844,
        "last_rank": 9062,
        "player_name": "Gil Santos",
        "rank": 8429,
        "rank_sort": 8434,
        "total": 2402
      },
      {
        "club_badge_src": null,
        "entry": 7240675,
        "entry_name": "Champions 2026/27",
        "event_total": 53,
        "has_played": true,
        "id": 58514689,
        "last_rank": 6687,
        "player_name": "Asantesana Kayawa",
        "rank": 8429,
        "rank_sort": 8435,
        "total": 2402
      },
      {
        "club_badge_src": null,
        "entry": 8411932,
        "entry_name": "Ouch, That Wirtz",
        "event_total": 59,
        "has_played": true,
        "id": 69789361,
        "last_rank": 8687,
        "player_name": "Matt Whittaker",
        "rank": 8429,
        "rank_sort": 8436,
        "total": 2402
      },
      {
        "club_badge_src": null,
        "entry": 9480021,
        "entry_name": "Gola\u00dfo",
        "event_total": 42,
        "has_played": true,
        "id": 80118047,
        "last_rank": 4062,
        "player_name": "Omar Mohammed",
        "rank": 8429,
        "rank_sort": 8437,
        "total": 2402
      },
      {
        "club_badge_src": null,
        "entry": 52160,
        "entry_name": "Ctrl Alt DeLigt",
        "event_total": 71,
        "has_played": true,
        "id": 335439,
        "last_rank": 12109,
        "player_name": "Nigel O Brien",
        "rank": 8438,
        "rank_sort": 8438,
        "total": 2402
      },
      {
        "club_badge_src": null,
        "entry": 80763,
        "entry_name": "I Am A Football Team",
        "event_total": 74,
        "has_played": true,
        "id": 525442,
        "last_rank": 16163,
        "player_name": "Edd Straw",
        "rank": 8438,
        "rank_sort": 8439,
        "total": 2402
      },
      {
        "club_badge_src": null,
        "entry": 85873,
        "entry_name": "Lou's your daddy",
        "event_total": 58,
        "has_played": true,
        "id": 559439,
        "last_rank": 8312,
        "player_name": "Louis Hickman",
        "rank": 8438,
        "rank_sort": 8440,
        "total": 2402
      },
      {
        "club_badge_src": null,
        "entry": 228257,
        "entry_name": "Proper",
        "event_total": 78,
        "has_played": true,
        "id": 1518377,
        "last_rank": 18691,
        "player_name": "Robin Schr\u00f8der",
        "rank": 8438,
        "rank_sort": 8441,
        "total": 2402
      },
      {
        "club_badge_src": null,
        "entry": 285192,
        "entry_name": "Long Arms of the Law",
        "event_total": 67,
        "has_played": true,
        "id": 1899335,
        "last_rank": 12109,
        "player_name": "James Warburton",
        "rank": 8438,
        "rank_sort": 8442,
        "total": 2402
      },
      {
        "club_badge_src": null,
        "entry": 599483,
        "entry_name": "fred KAK",
        "event_total": 61,
        "has_played": true,
        "id": 4043834,
        "last_rank": 9484,
        "player_name": "Yannick Maes",
        "rank": 8438,
        "rank_sort": 8443,
        "total": 2402
      },
      {
        "club_badge_src": null,
        "entry": 729737,
        "entry_name": "Athletic Morbs",
        "event_total": 50,
        "has_played": true,
        "id": 4958329,
        "last_rank": 5904,
        "player_name": "George Farr",
        "rank": 8438,
        "rank_sort": 8444,
        "total": 2402
      },
      {
        "club_badge_src": null,
        "entry": 845864,
        "entry_name": "samstrike",
        "event_total": 56,
        "has_played": true,
        "id": 5795625,
        "last_rank": 7625,
        "player_name": "Samson Aynalem",
        "rank": 8438,
        "rank_sort": 8445,
        "total": 2402
      },
      {
        "club_badge_src": null,
        "entry": 1209174,
        "entry_name": "Saka La Rouge",
        "event_total": 48,
        "has_played": true,
        "id": 8392405,
        "last_rank": 5386,
        "player_name": "Dan Wiles",
        "rank": 8438,
        "rank_sort": 8446,
        "total": 2402
      },
      {
        "club_badge_src": null,
        "entry": 2645951,
        "entry_name": "Spirit of the Booze",
        "event_total": 61,
        "has_played": true,
        "id": 19017892,
        "last_rank": 9459,
        "player_name": "Tom Clark",
        "rank": 8438,
        "rank_sort": 8447,
        "total": 2402
      },
      {
        "club_badge_src": null,
        "entry": 2892628,
        "entry_name": "essence xi",
        "event_total": 52,
        "has_played": true,
        "id": 21185761,
        "last_rank": 6386,
        "player_name": "big nii",
        "rank": 8438,
        "rank_sort": 8448,
        "total": 2402
      },
      {
        "club_badge_src": "https://fantasy.premierleague.com/gcs/plfpl-production-adobe-approved/plfpl-production/2915239/9bab572e-9aec-46bd-ac9a-84019c21eea1.png",
        "entry": 2915239,
        "entry_name": "EKWUEME FC",
        "event_total": 73,
        "has_played": true,
        "id": 21368106,
        "last_rank": 15416,
        "player_name": "derick obi",
        "rank": 8438,
        "rank_sort": 8449,
        "total": 2402
      },
      {
        "club_badge_src": null,
        "entry": 2927137,
        "entry_name": "f.alahamy",
        "event_total": 69,
        "has_played": true,
        "id": 21459574,
        "last_rank": 13257,
        "player_name": "\u0627\u0628\u0648\u0641\u0627\u0637\u0645\u0629 \u0627\u0644\u0634\u0627\u0645\u064a",
        "rank": 8438,
        "rank_sort": 8450,
        "total": 2402
      }
    ]
  }
}