{
  "last_updated_data": "2026-05-24T23:28:17Z",
  "league": {
    "admin_entry": null,
    "closed": false,
    "code_privacy": "p",
    "created": "2025-07-20T23:14:33.933835Z",
    "cup_league": 2815434,
    "has_cup": true,
    "id": 314,
    "league_type": "s",
    "max_entries": null,
    "name": "Overall",
    "rank": null,
    "scoring": "c",
    "start_event": 1
  },
  "new_entries": {
    "has_next": false,
    "page": 1,
    "results": []
  },
  "standings": {
    "has_next": true,
    "page": 589,
    "results": [
      {
        "club_badge_src": null,
        "entry": 16106,
        "entry_name": "Rice Rice Baby",
        "event_total": 66,
        "has_played": true,
        "id": 99300,
        "last_rank": 39246,
        "player_name": "Niall Miskell",
        "rank": 29400,
        "rank_sort": 29401,
        "total": 2369
      },
      {
        "club_badge_src": null,
        "entry": 26722,
        "entry_name": "SaajFC",
        "event_total": 66,
        "has_played": true,
        "id": 168965,
        "last_rank": 39403,
        "player_name": "Saajid Ali",
        "rank": 29400,
        "rank_sort": 29402,
        "total": 2369
      },
      {
        "club_badge_src": "https://fantasy.premierleague.com/gcs/plfpl-production-adobe-approved/plfpl-production/39107/dc7a4313-e864-45de-80b6-dffc324b9543.png",
        "entry": 39107,
        "entry_name": "Barendrecht Bears",
        "event_total": 51,
        "has_played": true,
        "id": 250660,
        "last_rank": 23522,
        "player_name": "Mark Baars",
        "rank": 29400,
        "rank_sort": 29403,
        "total": 2369
      },
      {
        "club_badge_src": null,
        "entry": 41259,
        "entry_name": "Mounting to the top",
        "event_total": 64,
        "has_played": true,
        "id": 264369,
        "last_rank": 32190,
        "player_name": "Devansh Chandgothia",
        "rank": 29400,
        "rank_sort": 29404,
        "total": 2369
      },
      {
        "club_badge_src": null,
        "entry": 43234,
        "entry_name": "3-5-2 Party Girl",
        "event_total": 73,
        "has_played": true,
        "id": 276849,
        "last_rank": 42940,
        "player_name": "Michael Mason",
        "rank": 29400,
        "rank_sort": 29405,
        "total": 2369
      },
      {
        "club_badge_src": null,
        "entry": 51403,
        "entry_name": "Bassey's Big Ballers",
        "event_total": 56,
        "has_played": true,
        "id": 330606,
        "last_rank": 28273,
        "player_name": "FPL Janek",
        "rank": 29400,
        "rank_sort": 29406,
        "total": 2369
      },
      {
        "club_badge_src": "https://fantasy.premierleague.com/gcs/plfpl-production-adobe-approved/plfpl-production/52483/729d031f-1745-4b02-a53b-3b1f0f3a2416.png",
        "entry": 52483,
        "entry_name": "Pique Blinders",
        "event_total": 44,
        "has_played": true,
        "id": 337479,
        "last_rank": 15797,
        "player_name": "Braden Hale",
        "rank": 29400,
        "rank_sort": 29407,
        "total": 2369
      },
      {
        "club_badge_src": null,
        "entry": 54188,
        "entry_name": "I Think I De Zerb",
        "event_total": 65,
        "has_played": true,
        "id": 348776,
        "last_rank": 33332,
        "player_name": "Muhammad Fa\u2019iz Mahomed",
        "rank": 29400,
        "rank_sort": 29408,
        "total": 2369
      },
      {
        "club_badge_src": null,
        "entry": 65059,
        "entry_name": "FC Dvori\u010dani",
        "event_total": 36,
        "has_played": true,
        "id": 419953,
        "last_rank": 13500,
        "player_name": "Lino Mali\u0161a",
        "rank": 29400,
        "rank_sort": 29409,
        "total": 2369
      },
      {
        "club_badge_src": null,
        "entry": 66364,
        "entry_name": "Yang Dynasty",
        "event_total": 60,
        "has_played": true,
        "id": 429014,
        "last_rank": 28150,
        "player_name": "Steven Yang",
        "rank": 29400,
        "rank_sort": 29410,
        "total": 2369
      },
      {
        "club_badge_src": null,
        "entry": 93967,
        "entry_name": "Matz sels sea shells",
        "event_total": 61,
        "has_played": true,
        "id": 614072,
        "last_rank": 33332,
        "player_name": "Austin Roe",
        "rank": 29400,
        "rank_sort": 29411,
        "total": 2369
      },
      {
        "club_badge_src": "https://fantasy.premierleague.com/gcs/plfpl-production-adobe-approved/plfpl-production/141155/db8f0dba-6436-4113-91dd-2dbdfe31e240.png",
        "entry": 141155,
        "entry_name": "RobboKop",
        "event_total": 64,
        "has_played": true,
        "id": 922150,
        "last_rank": 32190,
        "player_name": "John Butler",
        "rank": 29400,
        "rank_sort": 29412,
        "total": 2369
      },
      {
        "club_badge_src": null,
        "entry": 145953,
        "entry_name": "Goal Diggers",
        "event_total": 57,
        "has_played": true,
        "id": 955999,
        "last_rank": 28906,
        "player_name": "Shivam Dhawan",
        "rank": 29400,
        "rank_sort": 29413,
        "total": 2369
      },
      {
        "club_badge_src": null,
        "entry": 147007,
        "entry_name": "FC Fricks",
        "event_total": 68,
        "has_played": true,
        "id": 963229,
        "last_rank": 41967,
        "player_name": "Hugo Granja",
        "rank": 29400,
        "rank_sort": 29414,
        "total": 2369
      },
      {
        "club_badge_src": null,
        "entry": 181844,
        "entry_name": "Jack Wheelchair",
        "event_total": 59,
        "has_played": true,
        "id": 1199982,
        "last_rank": 26710,
        "player_name": "Mason Earl",
        "rank": 29400,
        "rank_sort": 29415,
        "total": 2369
      },
      {
        "club_badge_src": "https://fantasy.premierleague.com/gcs/plfpl-production-adobe-approved/plfpl-production/188456/d48511a1-a8e4-4da3-b7a8-5c5e78dca686.png",
        "entry": 188456,
        "entry_name": "Thorarensen",
        "event_total": 67,
        "has_played": true,
        "id": 1246826,
        "last_rank": 40647,
        "player_name": "Hilmar Th. Petursson",
        "rank": 29400,
        "rank_sort": 29416,
        "total": 2369
      },
      {
        "club_badge_src": null,
        "entry": 254964,
        "entry_name": "It could be Wirtz",
        "event_total": 68,
        "has_played": true,
        "id": 1695971,
        "last_rank": 36624,
        "player_name": "Michael Giles",
        "rank": 29400,
        "rank_sort": 29417,
        "total": 2369
      },
      {
        "club_badge_src": null,
        "entry": 299316,
        "entry_name": "SirNzar",
        "event_total": 50,
        "has_played": true,
        "id": 2001615,
        "last_rank": 22921,
        "player_name": "Nizar Ali",
        "rank": 29400,
        "rank_sort": 29418,
        "total": 2369
      },
      {
        "club_badge_src": null,
        "entry": 310917,
        "entry_name": "case of the monchis",
        "event_total": 67,
        "has_played": true,
        "id": 2082925,
        "last_rank": 35619,
        "player_name": "Andrew Mennie",
        "rank": 29400,
        "rank_sort": 29419,
        "total": 2369
      },
      {
        "club_badge_src": null,
        "entry": 327675,
        "entry_name": "Klopp\u2019s Legacy",
        "event_total": 56,
        "has_played": true,
        "id": 2195319,
        "last_rank": 24475,
        "player_name": "Leon Cardoso",
        "rank": 29400,
        "rank_sort": 29420,
        "total": 2369
      },
      {
        "club_badge_src": null,
        "entry": 354687,
        "entry_name": "Burn Baby Burn",
        "event_total": 58,
        "has_played": true,
        "id": 2373732,
        "last_rank": 26230,
        "player_name": "Ray Lovell",
        "rank": 29400,
        "rank_sort": 29421,
        "total": 2369
      },
      {
        "club_badge_src": "https://fantasy.premierleague.com/gcs/plfpl-production-adobe-approved/plfpl-production/385614/8e1b049b-0466-4a7c-bd62-f36955576b76.png",
        "entry": 385614,
        "entry_name": "ZZ",
        "event_total": 64,
        "has_played": true,
        "id": 2586786,
        "last_rank": 32190,
        "player_name": "Z Phan",
        "rank": 29400,
        "rank_sort": 29422,
        "total": 2369
      },
      {
        "club_badge_src": "https://fantasy.premierleague.com/gcs/plfpl-production-adobe-approved/plfpl-production/400628/febc7295-3542-4368-9a8c-4efd5246c8ac.png",
        "entry": 400628,
        "entry_name": "Kon-Ekitik\u00e9",
        "event_total": 57,
        "has_played": true,
        "id": 2686489,
        "last_rank": 29071,
        "player_name": "Mats Christensen",
        "rank": 29400,
        "rank_sort": 29423,
        "total": 2369
      },
      {
        "club_badge_src": null,
        "entry": 478193,
        "entry_name": "what am i doing",
        "event_total": 81,
        "has_played": true,
        "id": 3210285,
        "last_rank": 62223,
        "player_name": "Joel Lishman",
        "rank": 29400,
        "rank_sort": 29424,
        "total": 2369
      },
      {
        "club_badge_src": null,
        "entry": 525229,
        "entry_name": "The Wirtz of Wisdom",
        "event_total": 56,
        "has_played": true,
        "id": 3529769,
        "last_rank": 28273,
        "player_name": "Ethan Hillier",
        "rank": 29400,
        "rank_sort": 29425,
        "total": 2369
      },
      {
        "club_badge_src": "https://fantasy.premierleague.com/gcs/plfpl-production-adobe-approved/plfpl-production/532816/f8a08e1a-e1e1-46cb-a37f-d190f7b1aee8.png",
        "entry": 532816,
        "entry_name": "Wes Brownsyndrome",
        "event_total": 63,
        "has_played": true,
        "id": 3584564,
        "last_rank": 31125,
        "player_name": "A N",
        "rank": 29400,
        "rank_sort": 29426,
        "total": 2369
      },
      {
        "club_badge_src": "https://fantasy.premierleague.com/gcs/plfpl-production-adobe-approved/plfpl-production/617598/d7a72cd4-ee69-4d24-8754-3c219989dde6.png",
        "entry": 617598,
        "entry_name": "Omelette Du Fromage",
        "event_total": 61,
        "has_played": true,
        "id": 4172771,
        "last_rank": 29071,
        "player_name": "Sapar Max",
        "rank": 29400,
        "rank_sort": 29427,
        "total": 2369
      },
      {
        "club_badge_src": null,
        "entry": 689296,
        "entry_name": "It\u2019s coming home",
        "event_total": 68,
        "has_played": true,
        "id": 4667067,
        "last_rank": 36831,
        "player_name": "Fahad Rabie",
        "rank": 29400,
        "rank_sort": 29428,
        "total": 2369
      },
      {
        "club_badge_src": "https://fantasy.premierleague.com/gcs/plfpl-production-adobe-approved/plfpl-production/692274/fdb16562-5ae1-4078-b0fe-4c948aa13440.png",
        "entry": 692274,
        "entry_name": "The Real Slim Brady",
        "event_total": 70,
        "has_played": true,
        "id": 4688252,
        "last_rank": 44672,
        "player_name": "Lee Ward",
        "rank": 29400,
        "rank_sort": 29429,
        "total": 2369
      },
      {
        "club_badge_src": null,
        "entry": 720575,
        "entry_name": "Rachid frpls",
        "event_total": 57,
        "has_played": true,
        "id": 4892362,
        "last_rank": 25330,
        "player_name": "rachid ajjelal",
        "rank": 29400,
        "rank_sort": 29430,
        "total": 2369
      },
      {
        "club_badge_src": null,
        "entry": 727949,
        "entry_name": "ThomasTheFrankEngine",
        "event_total": 63,
        "has_played": true,
        "id": 4945675,
        "last_rank": 35424,
        "player_name": "Tom Drew",
        "rank": 29400,
        "rank_sort": 29431,
        "total": 2369
      },
      {
        "club_badge_src": null,
        "entry": 733796,
        "entry_name": "For Beto or Wirtz",
        "event_total": 68,
        "has_played": true,
        "id": 4986762,
        "last_rank": 41824,
        "player_name": "Brendan Carr",
        "rank": 29400,
        "rank_sort": 29432,
        "total": 2369
      },
      {
        "club_badge_src": null,
        "entry": 772446,
        "entry_name": "siimply kay",
        "event_total": 56,
        "has_played": true,
        "id": 5269764,
        "last_rank": 28273,
        "player_name": "Kwanele Nxumalo",
        "rank": 29400,
        "rank_sort": 29433,
        "total": 2369
      },
      {
        "club_badge_src": "https://fantasy.premierleague.com/gcs/plfpl-production-adobe-approved/plfpl-production/889681/f7ac71f2-431d-4e80-8287-831b244d0660.png",
        "entry": 889681,
        "entry_name": "Ahmed Medo",
        "event_total": 44,
        "has_played": true,
        "id": 6102609,
        "last_rank": 18520,
        "player_name": "Ahmed Mohamed",
        "rank": 29400,
        "rank_sort": 29434,
        "total": 2369
      },
      {
        "club_badge_src": null,
        "entry": 943609,
        "entry_name": "SAMpdoria",
        "event_total": 60,
        "has_played": true,
        "id": 6499068,
        "last_rank": 32335,
        "player_name": "Sam Caton",
        "rank": 29400,
        "rank_sort": 29435,
        "total": 2369
      },
      {
        "club_badge_src": null,
        "entry": 980959,
        "entry_name": "chomoloko Fc",
        "event_total": 59,
        "has_played": true,
        "id": 6762687,
        "last_rank": 31309,
        "player_name": "Tirthesh Parbutee",
        "rank": 29400,
        "rank_sort": 29436,
        "total": 2369
      },
      {
        "club_badge_src": "https://fantasy.premierleague.com/gcs/plfpl-production-adobe-approved/plfpl-production/1096364/2af07b3d-0819-4879-88ce-fe18188cd5a2.png",
        "entry": 1096364,
        "entry_name": "Mindless Thuggery",
        "event_total": 41,
        "has_played": true,
        "id": 7593834,
        "last_rank": 16512,
        "player_name": "Luis Robertson",
        "rank": 29400,
        "rank_sort": 29437,
        "total": 2369
      },
      {
        "club_badge_src": null,
        "entry": 1157799,
        "entry_name": "A.Wengers Assemble",
        "event_total": 75,
        "has_played": true,
        "id": 8028411,
        "last_rank": 45927,
        "player_name": "Liam The Human",
        "rank": 29400,
        "rank_sort": 29438,
        "total": 2369
      },
      {
        "club_badge_src": null,
        "entry": 1342064,
        "entry_name": "Brunited We Fall",
        "event_total": 68,
        "has_played": true,
        "id": 9331059,
        "last_rank": 41824,
        "player_name": "Timothy Thamrun",
        "rank": 29400,
        "rank_sort": 29439,
        "total": 2369
      },
      {
        "club_badge_src": null,
        "entry": 1406530,
        "entry_name": "cillian",
        "event_total": 50,
        "has_played": true,
        "id": 9786719,
        "last_rank": 22921,
        "player_name": "Cillian Flynn",
        "rank": 29400,
        "rank_sort": 29440,
        "total": 2369
      },
      {
        "club_badge_src": null,
        "entry": 1428551,
        "entry_name": "Archers FC",
        "event_total": 63,
        "has_played": true,
        "id": 9954071,
        "last_rank": 35867,
        "player_name": "Lee Williams",
        "rank": 29400,
        "rank_sort": 29441,
        "total": 2369
      },
      {
        "club_badge_src": null,
        "entry": 1439187,
        "entry_name": "Woodchoppers FC",
        "event_total": 61,
        "has_played": true,
        "id": 10028534,
        "last_rank": 33483,
        "player_name": "Bart Bloemers",
        "rank": 29400,
        "rank_sort": 29442,
        "total": 2369
      },
      {
        "club_badge_src": null,
        "entry": 1471863,
        "entry_name": "NotTrying",
        "event_total": 65,
        "has_played": true,
        "id": 10259872,
        "last_rank": 38163,
        "player_name": "Kamel Singh",
        "rank": 29400,
        "rank_sort": 29443,
        "total": 2369
      },
      {
        "club_badge_src": null,
        "entry": 1497081,
        "entry_name": "Lads on Tour\u00e9\u2b50\u2b50\u2b50",
        "event_total": 67,
        "has_played": true,
        "id": 10440216,
        "last_rank": 35424,
        "player_name": "Kash Subramaniam",
        "rank": 29400,
        "rank_sort": 29444,
        "total": 2369
      },
      {
        "club_badge_src": null,
        "entry": 1515450,
        "entry_name": "KrafthBeer",
        "event_total": 51,
        "has_played": true,
        "id": 10569833,
        "last_rank": 23748,
        "player_name": "Ruairi O Sullivan",
        "rank": 29400,
        "rank_sort": 29445,
        "total": 2369
      },
      {
        "club_badge_src": null,
        "entry": 1702862,
        "entry_name": "Raw\u2019ah",
        "event_total": 57,
        "has_played": true,
        "id": 11928695,
        "last_rank": 29071,
        "player_name": "Mendos Dauda",
        "rank": 29400,
        "rank_sort": 29446,
        "total": 2369
      },
      {
        "club_badge_src": null,
        "entry": 1731209,
        "entry_name": "United",
        "event_total": 75,
        "has_played": true,
        "id": 12142966,
        "last_rank": 45927,
        "player_name": "Moeed Irfan",
        "rank": 29400,
        "rank_sort": 29447,
        "total": 2369
      },
      {
        "club_badge_src": null,
        "entry": 1732636,
        "entry_name": "Champion of 2026",
        "event_total": 48,
        "has_played": true,
        "id": 12153490,
        "last_rank": 21301,
        "player_name": "Jay Khan",
        "rank": 29400,
        "rank_sort": 29448,
        "total": 2369
      },
      {
        "club_badge_src": null,
        "entry": 1976124,
        "entry_name": "Mavericks",
        "event_total": 56,
        "has_played": true,
        "id": 13948977,
        "last_rank": 28273,
        "player_name": "Seif Barakat",
        "rank": 29400,
        "rank_sort": 29449,
        "total": 2369
      },
      {
        "club_badge_src": null,
        "entry": 2177381,
        "entry_name": "Retro Winners",
        "event_total": 67,
        "has_played": true,
        "id": 15484616,
        "last_rank": 35619,
        "player_name": "Onyedikachukwu Okpala",
        "rank": 29400,
        "rank_sort": 29450,
        "total": 2369
      }
    ]
  }
}