{
  "last_updated_data": "2026-05-24T23:28:17Z",
  "league": {
    "admin_entry": null,
    "closed": false,
    "code_privacy": "p",
    "created": "2025-07-20T23:14:33.933835Z",
    "cup_league": 2815434,
    "has_cup": true,
    "id": 314,
    "league_type": "s",
    "max_entries": null,
    "name": "Overall",
    "rank": null,
    "scoring": "c",
    "start_event": 1
  },
  "new_entries": {
    "has_next": false,
    "page": 1,
    "results": []
  },
  "standings": {
    "has_next": true,
    "page": 1652,
    "results": [
      {
        "club_badge_src": null,
        "entry": 3026961,
        "entry_name": "Charli xGx",
        "event_total": 41,
        "has_played": true,
        "id": 22272599,
        "last_rank": 46839,
        "player_name": "Emily Hallinan",
        "rank": 82364,
        "rank_sort": 82551,
        "total": 2334
      },
      {
        "club_badge_src": null,
        "entry": 3052325,
        "entry_name": "Zubi dooby doooo!!!!",
        "event_total": 50,
        "has_played": true,
        "id": 22470882,
        "last_rank": 69323,
        "player_name": "R R",
        "rank": 82364,
        "rank_sort": 82552,
        "total": 2334
      },
      {
        "club_badge_src": null,
        "entry": 3089556,
        "entry_name": "\u00a1no pass-ar\u00e1n!",
        "event_total": 56,
        "has_played": true,
        "id": 22769061,
        "last_rank": 81646,
        "player_name": "Shruti Iyer",
        "rank": 82364,
        "rank_sort": 82553,
        "total": 2334
      },
      {
        "club_badge_src": null,
        "entry": 3099512,
        "entry_name": "Nicky\u2019s XI",
        "event_total": 57,
        "has_played": true,
        "id": 22851782,
        "last_rank": 84360,
        "player_name": "Nicky Braund-Smith",
        "rank": 82364,
        "rank_sort": 82554,
        "total": 2334
      },
      {
        "club_badge_src": "https://fantasy.premierleague.com/gcs/plfpl-production-adobe-approved/plfpl-production/3133215/75f4dec3-d610-4fcf-ac9c-7654a15b749c.png",
        "entry": 3133215,
        "entry_name": "Los Blancos FC",
        "event_total": 61,
        "has_played": true,
        "id": 23127284,
        "last_rank": 93883,
        "player_name": "Samuel Tejada",
        "rank": 82364,
        "rank_sort": 82555,
        "total": 2334
      },
      {
        "club_badge_src": "https://fantasy.premierleague.com/gcs/plfpl-production-adobe-approved/plfpl-production/3135191/0835cc80-e79e-481f-a55c-a7d3a3598edd.png",
        "entry": 3135191,
        "entry_name": "TheWirtzIsYetToCome",
        "event_total": 66,
        "has_played": true,
        "id": 23142757,
        "last_rank": 106259,
        "player_name": "Roshan Malla",
        "rank": 82364,
        "rank_sort": 82556,
        "total": 2334
      },
      {
        "club_badge_src": null,
        "entry": 3138509,
        "entry_name": "Stillinga? De ligt.",
        "event_total": 61,
        "has_played": true,
        "id": 23168946,
        "last_rank": 93883,
        "player_name": "Ole Andreas B\u00f8rnes",
        "rank": 82364,
        "rank_sort": 82557,
        "total": 2334
      },
      {
        "club_badge_src": "https://fantasy.premierleague.com/gcs/plfpl-production-adobe-approved/plfpl-production/3168176/365377fe-1eff-4dc8-a682-6235da268293.png",
        "entry": 3168176,
        "entry_name": "super J's",
        "event_total": 46,
        "has_played": true,
        "id": 23406786,
        "last_rank": 61606,
        "player_name": "Josh Soutar",
        "rank": 82364,
        "rank_sort": 82558,
        "total": 2334
      },
      {
        "club_badge_src": null,
        "entry": 3181165,
        "entry_name": "Beef Cherki",
        "event_total": 43,
        "has_played": true,
        "id": 23507137,
        "last_rank": 56708,
        "player_name": "Jake Niland",
        "rank": 82364,
        "rank_sort": 82559,
        "total": 2334
      },
      {
        "club_badge_src": null,
        "entry": 3186591,
        "entry_name": "Arsenal F\u00a9",
        "event_total": 49,
        "has_played": true,
        "id": 23549226,
        "last_rank": 67422,
        "player_name": "Adam Mcnamara",
        "rank": 82364,
        "rank_sort": 82560,
        "total": 2334
      },
      {
        "club_badge_src": null,
        "entry": 3211166,
        "entry_name": "GG Eze Mid FC",
        "event_total": 65,
        "has_played": true,
        "id": 23741112,
        "last_rank": 93186,
        "player_name": "Casey Van Dijk",
        "rank": 82364,
        "rank_sort": 82561,
        "total": 2334
      },
      {
        "club_badge_src": null,
        "entry": 3235960,
        "entry_name": "This Is Anfield",
        "event_total": 62,
        "has_played": true,
        "id": 23934258,
        "last_rank": 96374,
        "player_name": "Nick Clewlow",
        "rank": 82364,
        "rank_sort": 82562,
        "total": 2334
      },
      {
        "club_badge_src": "https://fantasy.premierleague.com/gcs/plfpl-production-adobe-approved/plfpl-production/3275555/e8f57816-7a80-4ef5-8ab9-20aba18845be.png",
        "entry": 3275555,
        "entry_name": "RexhiFC",
        "event_total": 64,
        "has_played": true,
        "id": 24242538,
        "last_rank": 100949,
        "player_name": "Sergio B",
        "rank": 82364,
        "rank_sort": 82563,
        "total": 2334
      },
      {
        "club_badge_src": null,
        "entry": 3366604,
        "entry_name": "Liverpoulpos",
        "event_total": 72,
        "has_played": true,
        "id": 24982075,
        "last_rank": 123422,
        "player_name": "Ian Kuffer",
        "rank": 82364,
        "rank_sort": 82564,
        "total": 2334
      },
      {
        "club_badge_src": null,
        "entry": 3402587,
        "entry_name": "Mo with the Flo",
        "event_total": 61,
        "has_played": true,
        "id": 25264454,
        "last_rank": 93883,
        "player_name": "Daniel Oueijan",
        "rank": 82364,
        "rank_sort": 82565,
        "total": 2334
      },
      {
        "club_badge_src": null,
        "entry": 3460860,
        "entry_name": "Machine Gun Skelly",
        "event_total": 62,
        "has_played": true,
        "id": 25725283,
        "last_rank": 95890,
        "player_name": "Sean Cao",
        "rank": 82364,
        "rank_sort": 82566,
        "total": 2334
      },
      {
        "club_badge_src": "https://fantasy.premierleague.com/gcs/plfpl-production-adobe-approved/plfpl-production/3466311/b731f683-ab85-44eb-963a-dcff66ad66ee.png",
        "entry": 3466311,
        "entry_name": "The Chiefs",
        "event_total": 75,
        "has_played": true,
        "id": 25768174,
        "last_rank": 132427,
        "player_name": "Nick Croft",
        "rank": 82364,
        "rank_sort": 82567,
        "total": 2334
      },
      {
        "club_badge_src": null,
        "entry": 3481473,
        "entry_name": "Power Reijnders",
        "event_total": 71,
        "has_played": true,
        "id": 25887983,
        "last_rank": 120438,
        "player_name": "H\u00e5kon Liab\u00f8",
        "rank": 82364,
        "rank_sort": 82568,
        "total": 2334
      },
      {
        "club_badge_src": null,
        "entry": 3547207,
        "entry_name": "SuperBoy79",
        "event_total": 68,
        "has_played": true,
        "id": 26406804,
        "last_rank": 100949,
        "player_name": "Djamel Zerari",
        "rank": 82364,
        "rank_sort": 82569,
        "total": 2334
      },
      {
        "club_badge_src": null,
        "entry": 3553290,
        "entry_name": "New Kompany",
        "event_total": 57,
        "has_played": true,
        "id": 26453935,
        "last_rank": 84360,
        "player_name": "Edwin Brooks",
        "rank": 82364,
        "rank_sort": 82570,
        "total": 2334
      },
      {
        "club_badge_src": null,
        "entry": 3578508,
        "entry_name": "Froots Fc",
        "event_total": 64,
        "has_played": true,
        "id": 26647574,
        "last_rank": 100949,
        "player_name": "Chris Maule",
        "rank": 82364,
        "rank_sort": 82571,
        "total": 2334
      },
      {
        "club_badge_src": null,
        "entry": 3626568,
        "entry_name": "GoingMerry FC",
        "event_total": 58,
        "has_played": true,
        "id": 27022541,
        "last_rank": 77258,
        "player_name": "raynor harris",
        "rank": 82364,
        "rank_sort": 82572,
        "total": 2334
      },
      {
        "club_badge_src": null,
        "entry": 3627456,
        "entry_name": "bulb17",
        "event_total": 53,
        "has_played": true,
        "id": 27029472,
        "last_rank": 75537,
        "player_name": "Garth Arnold",
        "rank": 82364,
        "rank_sort": 82573,
        "total": 2334
      },
      {
        "club_badge_src": null,
        "entry": 3641208,
        "entry_name": "Henry's Hotspurs",
        "event_total": 44,
        "has_played": true,
        "id": 27136720,
        "last_rank": 58388,
        "player_name": "dan yuill",
        "rank": 82364,
        "rank_sort": 82574,
        "total": 2334
      },
      {
        "club_badge_src": null,
        "entry": 3681526,
        "entry_name": "Taygon 11",
        "event_total": 75,
        "has_played": true,
        "id": 27460290,
        "last_rank": 133328,
        "player_name": "Darren Lawrence",
        "rank": 82364,
        "rank_sort": 82575,
        "total": 2334
      },
      {
        "club_badge_src": "https://fantasy.premierleague.com/gcs/plfpl-production-adobe-approved/plfpl-production/3695749/7f9b2d7b-8e48-418e-bb06-5e3bf19c798d.png",
        "entry": 3695749,
        "entry_name": "Mawell's XI",
        "event_total": 68,
        "has_played": true,
        "id": 27572362,
        "last_rank": 112591,
        "player_name": "Maxwell Langheld",
        "rank": 82364,
        "rank_sort": 82576,
        "total": 2334
      },
      {
        "club_badge_src": null,
        "entry": 3748358,
        "entry_name": "Apolds Raude",
        "event_total": 38,
        "has_played": true,
        "id": 27984479,
        "last_rank": 48642,
        "player_name": "Johs Apold",
        "rank": 82364,
        "rank_sort": 82577,
        "total": 2334
      },
      {
        "club_badge_src": "https://fantasy.premierleague.com/gcs/plfpl-production-adobe-approved/plfpl-production/3859566/4b984934-92aa-4f6a-8811-63a73ebfc276.png",
        "entry": 3859566,
        "entry_name": "Glynn&Tonic",
        "event_total": 60,
        "has_played": true,
        "id": 28937434,
        "last_rank": 91466,
        "player_name": "Sean Glynn",
        "rank": 82364,
        "rank_sort": 82578,
        "total": 2334
      },
      {
        "club_badge_src": "https://fantasy.premierleague.com/gcs/plfpl-production-adobe-approved/plfpl-production/3865111/878d41de-5d5c-499d-a3ed-92365ff8eaa2.png",
        "entry": 3865111,
        "entry_name": "Ping Frimpong United",
        "event_total": 51,
        "has_played": true,
        "id": 28981589,
        "last_rank": 71386,
        "player_name": "Adam Davies",
        "rank": 82364,
        "rank_sort": 82579,
        "total": 2334
      },
      {
        "club_badge_src": null,
        "entry": 3912815,
        "entry_name": "Here We Go\u26bd\ufffd\ufe0f",
        "event_total": 52,
        "has_played": true,
        "id": 29419234,
        "last_rank": 65163,
        "player_name": "5alid Mo",
        "rank": 82364,
        "rank_sort": 82580,
        "total": 2334
      },
      {
        "club_badge_src": null,
        "entry": 3924483,
        "entry_name": "When Harry met Salah",
        "event_total": 59,
        "has_played": true,
        "id": 29513079,
        "last_rank": 89055,
        "player_name": "Ivkovic Filip",
        "rank": 82364,
        "rank_sort": 82581,
        "total": 2334
      },
      {
        "club_badge_src": null,
        "entry": 3930379,
        "entry_name": "Eze-Goan XI",
        "event_total": 60,
        "has_played": true,
        "id": 29559850,
        "last_rank": 81646,
        "player_name": "Ian Rodrigues",
        "rank": 82364,
        "rank_sort": 82582,
        "total": 2334
      },
      {
        "club_badge_src": null,
        "entry": 3938880,
        "entry_name": "uptown Dunk",
        "event_total": 70,
        "has_played": true,
        "id": 29629165,
        "last_rank": 117423,
        "player_name": "Max Cassar",
        "rank": 82364,
        "rank_sort": 82583,
        "total": 2334
      },
      {
        "club_badge_src": null,
        "entry": 3997955,
        "entry_name": "Real Rapperswil",
        "event_total": 66,
        "has_played": true,
        "id": 30109562,
        "last_rank": 106763,
        "player_name": "Marco L\u00f6ffel Diaz",
        "rank": 82364,
        "rank_sort": 82584,
        "total": 2334
      },
      {
        "club_badge_src": null,
        "entry": 4011568,
        "entry_name": "EzeHeadland",
        "event_total": 67,
        "has_played": true,
        "id": 30227103,
        "last_rank": 109454,
        "player_name": "Matteo Sheppard",
        "rank": 82364,
        "rank_sort": 82585,
        "total": 2334
      },
      {
        "club_badge_src": null,
        "entry": 4022002,
        "entry_name": "Pep's Powerpuff Girl",
        "event_total": 64,
        "has_played": true,
        "id": 30314225,
        "last_rank": 90746,
        "player_name": "Julie Robins",
        "rank": 82364,
        "rank_sort": 82586,
        "total": 2334
      },
      {
        "club_badge_src": null,
        "entry": 4041859,
        "entry_name": "MatetaMateta",
        "event_total": 60,
        "has_played": true,
        "id": 30482162,
        "last_rank": 91006,
        "player_name": "Josh Cummins",
        "rank": 82364,
        "rank_sort": 82587,
        "total": 2334
      },
      {
        "club_badge_src": null,
        "entry": 4047321,
        "entry_name": "Hanky Solanke",
        "event_total": 56,
        "has_played": true,
        "id": 30527218,
        "last_rank": 82069,
        "player_name": "Amanda Taylor",
        "rank": 82364,
        "rank_sort": 82588,
        "total": 2334
      },
      {
        "club_badge_src": null,
        "entry": 4057258,
        "entry_name": "Bella Ciao",
        "event_total": 34,
        "has_played": true,
        "id": 30614416,
        "last_rank": 42940,
        "player_name": "Roluaha Fanchun",
        "rank": 82364,
        "rank_sort": 82589,
        "total": 2334
      },
      {
        "club_badge_src": null,
        "entry": 4075134,
        "entry_name": "Back of the Neto",
        "event_total": 44,
        "has_played": true,
        "id": 30760901,
        "last_rank": 58388,
        "player_name": "jonny greener",
        "rank": 82364,
        "rank_sort": 82590,
        "total": 2334
      },
      {
        "club_badge_src": null,
        "entry": 4101036,
        "entry_name": "Sheffield Thursday",
        "event_total": 58,
        "has_played": true,
        "id": 30967977,
        "last_rank": 86304,
        "player_name": "Finian Mc Carthy",
        "rank": 82364,
        "rank_sort": 82591,
        "total": 2334
      },
      {
        "club_badge_src": null,
        "entry": 4120291,
        "entry_name": "Al's Assassins",
        "event_total": 56,
        "has_played": true,
        "id": 31127797,
        "last_rank": 82069,
        "player_name": "Alun Smith",
        "rank": 82364,
        "rank_sort": 82592,
        "total": 2334
      },
      {
        "club_badge_src": null,
        "entry": 4154441,
        "entry_name": "Shresea FC",
        "event_total": 63,
        "has_played": true,
        "id": 31402262,
        "last_rank": 98896,
        "player_name": "Shreejan Shrestha",
        "rank": 82364,
        "rank_sort": 82593,
        "total": 2334
      },
      {
        "club_badge_src": "https://fantasy.premierleague.com/gcs/plfpl-production-adobe-approved/plfpl-production/4167085/34f09fe8-b18c-4285-a34d-db2832cfd6bb.png",
        "entry": 4167085,
        "entry_name": "The Slot Machine",
        "event_total": 65,
        "has_played": true,
        "id": 31512816,
        "last_rank": 104388,
        "player_name": "Kishan Jogia",
        "rank": 82364,
        "rank_sort": 82594,
        "total": 2334
      },
      {
        "club_badge_src": null,
        "entry": 4179237,
        "entry_name": "The Wright Reggies",
        "event_total": 60,
        "has_played": true,
        "id": 31614646,
        "last_rank": 91466,
        "player_name": "Adam Wright",
        "rank": 82364,
        "rank_sort": 82595,
        "total": 2334
      },
      {
        "club_badge_src": null,
        "entry": 4242127,
        "entry_name": "#YesToSesko",
        "event_total": 58,
        "has_played": true,
        "id": 32151432,
        "last_rank": 77258,
        "player_name": "Michael Colbert",
        "rank": 82364,
        "rank_sort": 82596,
        "total": 2334
      },
      {
        "club_badge_src": null,
        "entry": 4286696,
        "entry_name": "silmatkiisinnepain",
        "event_total": 45,
        "has_played": true,
        "id": 32514689,
        "last_rank": 60168,
        "player_name": "jani-petteri kuntala",
        "rank": 82364,
        "rank_sort": 82597,
        "total": 2334
      },
      {
        "club_badge_src": null,
        "entry": 4312668,
        "entry_name": "LjungsFPL",
        "event_total": 62,
        "has_played": true,
        "id": 32725399,
        "last_rank": 95640,
        "player_name": "Alexander Ljunggren",
        "rank": 82364,
        "rank_sort": 82598,
        "total": 2334
      },
      {
        "club_badge_src": null,
        "entry": 4353091,
        "entry_name": "Neville wears Prada",
        "event_total": 50,
        "has_played": true,
        "id": 33057294,
        "last_rank": 69323,
        "player_name": "Ambrose Ferrick",
        "rank": 82364,
        "rank_sort": 82599,
        "total": 2334
      },
      {
        "club_badge_src": null,
        "entry": 4378408,
        "entry_name": "Melchester Rovers",
        "event_total": 62,
        "has_played": true,
        "id": 33270925,
        "last_rank": 86304,
        "player_name": "David Carrie",
        "rank": 82364,
        "rank_sort": 82600,
        "total": 2334
      }
    ]
  }
}