{
  "last_updated_data": "2026-05-24T23:28:17Z",
  "league": {
    "admin_entry": null,
    "closed": false,
    "code_privacy": "p",
    "created": "2025-07-20T23:14:33.933835Z",
    "cup_league": 2815434,
    "has_cup": true,
    "id": 314,
    "league_type": "s",
    "max_entries": null,
    "name": "Overall",
    "rank": null,
    "scoring": "c",
    "start_event": 1
  },
  "new_entries": {
    "has_next": false,
    "page": 1,
    "results": []
  },
  "standings": {
    "has_next": true,
    "page": 857,
    "results": [
      {
        "club_badge_src": null,
        "entry": 4485575,
        "entry_name": "Ward Round Wanderers",
        "event_total": 62,
        "has_played": true,
        "id": 34188921,
        "last_rank": 50468,
        "player_name": "Dara Coker",
        "rank": 42632,
        "rank_sort": 42801,
        "total": 2357
      },
      {
        "club_badge_src": "https://fantasy.premierleague.com/gcs/plfpl-production-adobe-approved/plfpl-production/4490358/ef92347e-2f87-4315-827d-a224e6e38d46.png",
        "entry": 4490358,
        "entry_name": "TRUST THE PROCESS V",
        "event_total": 68,
        "has_played": true,
        "id": 34227694,
        "last_rank": 59813,
        "player_name": "Jermaine Alexander",
        "rank": 42632,
        "rank_sort": 42802,
        "total": 2357
      },
      {
        "club_badge_src": "https://fantasy.premierleague.com/gcs/plfpl-production-adobe-approved/plfpl-production/4500612/c2122fca-cbd1-4d03-8c01-c8a0c1b32fdd.png",
        "entry": 4500612,
        "entry_name": "Beef Cherki",
        "event_total": 67,
        "has_played": true,
        "id": 34311313,
        "last_rank": 51403,
        "player_name": "Scott Mellors",
        "rank": 42632,
        "rank_sort": 42803,
        "total": 2357
      },
      {
        "club_badge_src": null,
        "entry": 4522107,
        "entry_name": "Soccer FC",
        "event_total": 67,
        "has_played": true,
        "id": 34488170,
        "last_rank": 51403,
        "player_name": "Brian Nicolls",
        "rank": 42632,
        "rank_sort": 42804,
        "total": 2357
      },
      {
        "club_badge_src": null,
        "entry": 4588419,
        "entry_name": "MMS ZENICA",
        "event_total": 53,
        "has_played": true,
        "id": 35035241,
        "last_rank": 37589,
        "player_name": "Damir Dula\u0161",
        "rank": 42632,
        "rank_sort": 42805,
        "total": 2357
      },
      {
        "club_badge_src": null,
        "entry": 4589197,
        "entry_name": "Hill dicky dockers",
        "event_total": 44,
        "has_played": true,
        "id": 35042077,
        "last_rank": 27976,
        "player_name": "Eden Schiller",
        "rank": 42632,
        "rank_sort": 42806,
        "total": 2357
      },
      {
        "club_badge_src": null,
        "entry": 4618034,
        "entry_name": "T\u00f8pp b\u0153\u0127!y",
        "event_total": 61,
        "has_played": true,
        "id": 35296384,
        "last_rank": 42401,
        "player_name": "piztop pitiporn",
        "rank": 42632,
        "rank_sort": 42807,
        "total": 2357
      },
      {
        "club_badge_src": null,
        "entry": 4639542,
        "entry_name": "G\u2019s Gal\u00e1cticos",
        "event_total": 73,
        "has_played": true,
        "id": 35482208,
        "last_rank": 69641,
        "player_name": "Graham King",
        "rank": 42632,
        "rank_sort": 42808,
        "total": 2357
      },
      {
        "club_badge_src": null,
        "entry": 4655113,
        "entry_name": "THE LAST WUN \ufffd",
        "event_total": 35,
        "has_played": true,
        "id": 35624878,
        "last_rank": 20416,
        "player_name": "ice daniel",
        "rank": 42632,
        "rank_sort": 42809,
        "total": 2357
      },
      {
        "club_badge_src": null,
        "entry": 4688462,
        "entry_name": "HangitintheLovren",
        "event_total": 68,
        "has_played": true,
        "id": 35932994,
        "last_rank": 59632,
        "player_name": "Luc Forde",
        "rank": 42632,
        "rank_sort": 42810,
        "total": 2357
      },
      {
        "club_badge_src": null,
        "entry": 4720847,
        "entry_name": "Ell You Eff See x",
        "event_total": 71,
        "has_played": true,
        "id": 36267690,
        "last_rank": 65163,
        "player_name": "Matty James",
        "rank": 42632,
        "rank_sort": 42811,
        "total": 2357
      },
      {
        "club_badge_src": "https://fantasy.premierleague.com/gcs/plfpl-production-adobe-approved/plfpl-production/4909512/f3cd491d-107f-4e77-8dde-e6e38bb1984a.png",
        "entry": 4909512,
        "entry_name": "Atanda Fc",
        "event_total": 64,
        "has_played": true,
        "id": 37860844,
        "last_rank": 53345,
        "player_name": "Muideen Yusuf",
        "rank": 42632,
        "rank_sort": 42812,
        "total": 2357
      },
      {
        "club_badge_src": null,
        "entry": 4970953,
        "entry_name": "Netflix FC",
        "event_total": 69,
        "has_played": true,
        "id": 38366568,
        "last_rank": 61606,
        "player_name": "Marc Teo",
        "rank": 42632,
        "rank_sort": 42813,
        "total": 2357
      },
      {
        "club_badge_src": null,
        "entry": 4975858,
        "entry_name": "Toliya United",
        "event_total": 51,
        "has_played": true,
        "id": 38408790,
        "last_rank": 35034,
        "player_name": "Haruna Lawan",
        "rank": 42632,
        "rank_sort": 42814,
        "total": 2357
      },
      {
        "club_badge_src": null,
        "entry": 4994860,
        "entry_name": "Channel 4 News team",
        "event_total": 60,
        "has_played": true,
        "id": 38563492,
        "last_rank": 47163,
        "player_name": "Chad Croot",
        "rank": 42632,
        "rank_sort": 42815,
        "total": 2357
      },
      {
        "club_badge_src": null,
        "entry": 5002618,
        "entry_name": "E7 FC",
        "event_total": 67,
        "has_played": true,
        "id": 38628331,
        "last_rank": 57857,
        "player_name": "Kam Hass",
        "rank": 42632,
        "rank_sort": 42816,
        "total": 2357
      },
      {
        "club_badge_src": null,
        "entry": 5091254,
        "entry_name": "SNUS FC",
        "event_total": 50,
        "has_played": true,
        "id": 39350678,
        "last_rank": 34293,
        "player_name": "Aleksandar Susnjar",
        "rank": 42632,
        "rank_sort": 42817,
        "total": 2357
      },
      {
        "club_badge_src": null,
        "entry": 5180203,
        "entry_name": "Ayaan-7-",
        "event_total": 50,
        "has_played": true,
        "id": 40096754,
        "last_rank": 34293,
        "player_name": "Ayaan Issac Newton",
        "rank": 42632,
        "rank_sort": 42818,
        "total": 2357
      },
      {
        "club_badge_src": null,
        "entry": 5281110,
        "entry_name": "estee",
        "event_total": 64,
        "has_played": true,
        "id": 40933926,
        "last_rank": 53023,
        "player_name": "Sonam Tobgay",
        "rank": 42632,
        "rank_sort": 42819,
        "total": 2357
      },
      {
        "club_badge_src": "https://fantasy.premierleague.com/gcs/plfpl-production-adobe-approved/plfpl-production/5320487/93f861aa-00ba-416d-823d-4df977f1daa7.png",
        "entry": 5320487,
        "entry_name": "Can't stop the Gy\u00f6k",
        "event_total": 68,
        "has_played": true,
        "id": 41244496,
        "last_rank": 60168,
        "player_name": "John Dand",
        "rank": 42632,
        "rank_sort": 42820,
        "total": 2357
      },
      {
        "club_badge_src": null,
        "entry": 5351687,
        "entry_name": "FC Titans",
        "event_total": 28,
        "has_played": true,
        "id": 41542790,
        "last_rank": 15797,
        "player_name": "Harsh Srivastava",
        "rank": 42632,
        "rank_sort": 42821,
        "total": 2357
      },
      {
        "club_badge_src": null,
        "entry": 5354839,
        "entry_name": "startelva fr\u00e5n juni",
        "event_total": 44,
        "has_played": true,
        "id": 41577202,
        "last_rank": 27976,
        "player_name": "Olivia Borg",
        "rank": 42632,
        "rank_sort": 42822,
        "total": 2357
      },
      {
        "club_badge_src": null,
        "entry": 5508394,
        "entry_name": "pro fc",
        "event_total": 44,
        "has_played": true,
        "id": 42932866,
        "last_rank": 27644,
        "player_name": "Promise Chukwu",
        "rank": 42632,
        "rank_sort": 42823,
        "total": 2357
      },
      {
        "club_badge_src": null,
        "entry": 5556491,
        "entry_name": "TameDybala",
        "event_total": 55,
        "has_played": true,
        "id": 43372863,
        "last_rank": 40036,
        "player_name": "Pedro Ferreira",
        "rank": 42632,
        "rank_sort": 42824,
        "total": 2357
      },
      {
        "club_badge_src": null,
        "entry": 5605216,
        "entry_name": "KOH",
        "event_total": 65,
        "has_played": true,
        "id": 43801554,
        "last_rank": 55014,
        "player_name": "Sitthisak Namkham",
        "rank": 42632,
        "rank_sort": 42825,
        "total": 2357
      },
      {
        "club_badge_src": null,
        "entry": 5738577,
        "entry_name": "Why Ayew Running",
        "event_total": 63,
        "has_played": true,
        "id": 44963615,
        "last_rank": 51720,
        "player_name": "Zach Pathmanathan",
        "rank": 42632,
        "rank_sort": 42826,
        "total": 2357
      },
      {
        "club_badge_src": null,
        "entry": 5819392,
        "entry_name": "Delap Dance",
        "event_total": 77,
        "has_played": true,
        "id": 45666860,
        "last_rank": 77676,
        "player_name": "Dan Martin",
        "rank": 42632,
        "rank_sort": 42827,
        "total": 2357
      },
      {
        "club_badge_src": null,
        "entry": 5828384,
        "entry_name": "Bo_Omar",
        "event_total": 62,
        "has_played": true,
        "id": 45743951,
        "last_rank": 50199,
        "player_name": "Khaled Jamal",
        "rank": 42632,
        "rank_sort": 42828,
        "total": 2357
      },
      {
        "club_badge_src": null,
        "entry": 5955770,
        "entry_name": "top of the klopps",
        "event_total": 63,
        "has_played": true,
        "id": 46850325,
        "last_rank": 51403,
        "player_name": "Danny Watson",
        "rank": 42632,
        "rank_sort": 42829,
        "total": 2357
      },
      {
        "club_badge_src": null,
        "entry": 6014557,
        "entry_name": "Milky's Magicians",
        "event_total": 59,
        "has_played": true,
        "id": 47427298,
        "last_rank": 45416,
        "player_name": "Michael Roberts",
        "rank": 42632,
        "rank_sort": 42830,
        "total": 2357
      },
      {
        "club_badge_src": null,
        "entry": 6017260,
        "entry_name": "Change Name",
        "event_total": 60,
        "has_played": true,
        "id": 47451094,
        "last_rank": 47417,
        "player_name": "Benjamin Unsworth",
        "rank": 42632,
        "rank_sort": 42831,
        "total": 2357
      },
      {
        "club_badge_src": null,
        "entry": 6017266,
        "entry_name": "Me, Myself, Ndiaye",
        "event_total": 44,
        "has_played": true,
        "id": 47451150,
        "last_rank": 27976,
        "player_name": "Tom McPhee",
        "rank": 42632,
        "rank_sort": 42832,
        "total": 2357
      },
      {
        "club_badge_src": null,
        "entry": 6049048,
        "entry_name": "BenchWarmers United",
        "event_total": 70,
        "has_played": true,
        "id": 47731160,
        "last_rank": 56369,
        "player_name": "Mayank Thanvi",
        "rank": 42632,
        "rank_sort": 42833,
        "total": 2357
      },
      {
        "club_badge_src": null,
        "entry": 6219587,
        "entry_name": "Amigo Fc",
        "event_total": 46,
        "has_played": true,
        "id": 49213119,
        "last_rank": 29688,
        "player_name": "Abdulhamid Ibrahim",
        "rank": 42632,
        "rank_sort": 42834,
        "total": 2357
      },
      {
        "club_badge_src": null,
        "entry": 6220310,
        "entry_name": "Mcsauce united",
        "event_total": 43,
        "has_played": true,
        "id": 49219299,
        "last_rank": 23230,
        "player_name": "Ryan Metcalfe",
        "rank": 42632,
        "rank_sort": 42835,
        "total": 2357
      },
      {
        "club_badge_src": null,
        "entry": 6229190,
        "entry_name": "TPFC",
        "event_total": 62,
        "has_played": true,
        "id": 49295921,
        "last_rank": 50199,
        "player_name": "Thomas Parkes",
        "rank": 42632,
        "rank_sort": 42836,
        "total": 2357
      },
      {
        "club_badge_src": "https://fantasy.premierleague.com/gcs/plfpl-production-adobe-approved/plfpl-production/6267863/9fb6ee95-1785-4f8b-9b40-a967cb21f372.png",
        "entry": 6267863,
        "entry_name": "tasteslikepromotion",
        "event_total": 48,
        "has_played": true,
        "id": 49631003,
        "last_rank": 31995,
        "player_name": "Amy Caine",
        "rank": 42632,
        "rank_sort": 42837,
        "total": 2357
      },
      {
        "club_badge_src": null,
        "entry": 6271963,
        "entry_name": "Skeie",
        "event_total": 68,
        "has_played": true,
        "id": 49665118,
        "last_rank": 59535,
        "player_name": "Fredrik Skeie-Langenes",
        "rank": 42632,
        "rank_sort": 42838,
        "total": 2357
      },
      {
        "club_badge_src": null,
        "entry": 6396752,
        "entry_name": "FC Left Curve",
        "event_total": 48,
        "has_played": true,
        "id": 50890813,
        "last_rank": 27770,
        "player_name": "Miikka Kaihovaara",
        "rank": 42632,
        "rank_sort": 42839,
        "total": 2357
      },
      {
        "club_badge_src": null,
        "entry": 6417338,
        "entry_name": "ArildFC",
        "event_total": 60,
        "has_played": true,
        "id": 51074195,
        "last_rank": 46839,
        "player_name": "Arild Magnussen",
        "rank": 42632,
        "rank_sort": 42840,
        "total": 2357
      },
      {
        "club_badge_src": null,
        "entry": 6438778,
        "entry_name": "Dark Horses",
        "event_total": 73,
        "has_played": true,
        "id": 51263025,
        "last_rank": 68957,
        "player_name": "Stuart Turner",
        "rank": 42632,
        "rank_sort": 42841,
        "total": 2357
      },
      {
        "club_badge_src": null,
        "entry": 6443199,
        "entry_name": "Da highs and Dalots",
        "event_total": 67,
        "has_played": true,
        "id": 51302359,
        "last_rank": 58388,
        "player_name": "Zainali Varteji",
        "rank": 42632,
        "rank_sort": 42842,
        "total": 2357
      },
      {
        "club_badge_src": "https://fantasy.premierleague.com/gcs/plfpl-production-adobe-approved/plfpl-production/6559642/79838399-6ca1-47ee-b163-2ef1bb99f52a.png",
        "entry": 6559642,
        "entry_name": "Change Name",
        "event_total": 53,
        "has_played": true,
        "id": 52352893,
        "last_rank": 37822,
        "player_name": "Connor bones",
        "rank": 42632,
        "rank_sort": 42843,
        "total": 2357
      },
      {
        "club_badge_src": null,
        "entry": 6562191,
        "entry_name": "Carles Pudol",
        "event_total": 78,
        "has_played": true,
        "id": 52375605,
        "last_rank": 79431,
        "player_name": "Matthew Wallace",
        "rank": 42632,
        "rank_sort": 42844,
        "total": 2357
      },
      {
        "club_badge_src": "https://fantasy.premierleague.com/gcs/plfpl-production-adobe-approved/plfpl-production/6579437/6da13fe5-306b-4555-be91-f4b9b5e93f98.png",
        "entry": 6579437,
        "entry_name": "placeholder",
        "event_total": 66,
        "has_played": true,
        "id": 52537744,
        "last_rank": 56099,
        "player_name": "Gergely Harmad\u00e1s",
        "rank": 42632,
        "rank_sort": 42845,
        "total": 2357
      },
      {
        "club_badge_src": null,
        "entry": 6839375,
        "entry_name": "Goal Diggers",
        "event_total": 82,
        "has_played": true,
        "id": 54788174,
        "last_rank": 89426,
        "player_name": "Tochukwu Teco-Benson",
        "rank": 42632,
        "rank_sort": 42846,
        "total": 2357
      },
      {
        "club_badge_src": "https://fantasy.premierleague.com/gcs/plfpl-production-adobe-approved/plfpl-production/6923926/8bbfbd0d-c8e1-4687-a97d-189ad482e074.png",
        "entry": 6923926,
        "entry_name": "Stevie Squad",
        "event_total": 52,
        "has_played": true,
        "id": 55504100,
        "last_rank": 36831,
        "player_name": "Abhijith K Kutty",
        "rank": 42632,
        "rank_sort": 42847,
        "total": 2357
      },
      {
        "club_badge_src": null,
        "entry": 7054884,
        "entry_name": "Lord of the Ings",
        "event_total": 67,
        "has_played": true,
        "id": 56744466,
        "last_rank": 58071,
        "player_name": "Neil Mackay",
        "rank": 42632,
        "rank_sort": 42848,
        "total": 2357
      },
      {
        "club_badge_src": "https://fantasy.premierleague.com/gcs/plfpl-production-adobe-approved/plfpl-production/7059356/a5f22d77-0253-47ab-96da-8b04c5fecae2.png",
        "entry": 7059356,
        "entry_name": "Haaland & Seek",
        "event_total": 66,
        "has_played": true,
        "id": 56788536,
        "last_rank": 49691,
        "player_name": "George White",
        "rank": 42632,
        "rank_sort": 42849,
        "total": 2357
      },
      {
        "club_badge_src": null,
        "entry": 7145188,
        "entry_name": "Me, Myself, Unai",
        "event_total": 69,
        "has_played": true,
        "id": 57606350,
        "last_rank": 61606,
        "player_name": "Samuel Newman",
        "rank": 42632,
        "rank_sort": 42850,
        "total": 2357
      }
    ]
  }
}