{
  "last_updated_data": "2026-05-24T23:28:17Z",
  "league": {
    "admin_entry": null,
    "closed": false,
    "code_privacy": "p",
    "created": "2025-07-20T23:14:33.933835Z",
    "cup_league": 2815434,
    "has_cup": true,
    "id": 314,
    "league_type": "s",
    "max_entries": null,
    "name": "Overall",
    "rank": null,
    "scoring": "c",
    "start_event": 1
  },
  "new_entries": {
    "has_next": false,
    "page": 1,
    "results": []
  },
  "standings": {
    "has_next": true,
    "page": 1544,
    "results": [
      {
        "club_badge_src": null,
        "entry": 119729,
        "entry_name": "beckers boys",
        "event_total": 66,
        "has_played": true,
        "id": 781153,
        "last_rank": 89897,
        "player_name": "Ben Johnson",
        "rank": 77140,
        "rank_sort": 77151,
        "total": 2337
      },
      {
        "club_badge_src": null,
        "entry": 135159,
        "entry_name": "Acostic\u2019s",
        "event_total": 75,
        "has_played": true,
        "id": 880117,
        "last_rank": 113400,
        "player_name": "Manny Anko",
        "rank": 77140,
        "rank_sort": 77152,
        "total": 2337
      },
      {
        "club_badge_src": null,
        "entry": 145343,
        "entry_name": "Kosiarze",
        "event_total": 33,
        "has_played": true,
        "id": 951803,
        "last_rank": 38391,
        "player_name": "Adam Machalica",
        "rank": 77140,
        "rank_sort": 77153,
        "total": 2337
      },
      {
        "club_badge_src": null,
        "entry": 175838,
        "entry_name": "Marouane's team",
        "event_total": 64,
        "has_played": true,
        "id": 1160841,
        "last_rank": 85349,
        "player_name": "Marouane Benyehya --",
        "rank": 77140,
        "rank_sort": 77154,
        "total": 2337
      },
      {
        "club_badge_src": null,
        "entry": 241271,
        "entry_name": "MohamedTeam11",
        "event_total": 75,
        "has_played": true,
        "id": 1605900,
        "last_rank": 92126,
        "player_name": "Mohamed Albawwab",
        "rank": 77140,
        "rank_sort": 77155,
        "total": 2337
      },
      {
        "club_badge_src": null,
        "entry": 363362,
        "entry_name": "Wirtz Case Scenario",
        "event_total": 69,
        "has_played": true,
        "id": 2431504,
        "last_rank": 97470,
        "player_name": "Ricardo Buckton",
        "rank": 77140,
        "rank_sort": 77156,
        "total": 2337
      },
      {
        "club_badge_src": "https://fantasy.premierleague.com/gcs/plfpl-production-adobe-approved/plfpl-production/390828/026744c5-3800-4e1d-8944-e33392179445.png",
        "entry": 390828,
        "entry_name": "Pot\u0119\u017cne Gorgony",
        "event_total": 70,
        "has_played": true,
        "id": 2621582,
        "last_rank": 99959,
        "player_name": "Sebastian Lange",
        "rank": 77140,
        "rank_sort": 77157,
        "total": 2337
      },
      {
        "club_badge_src": null,
        "entry": 416620,
        "entry_name": "27 Son Tshe",
        "event_total": 64,
        "has_played": true,
        "id": 2792749,
        "last_rank": 94933,
        "player_name": "Sonam Tshering",
        "rank": 77140,
        "rank_sort": 77158,
        "total": 2337
      },
      {
        "club_badge_src": null,
        "entry": 438065,
        "entry_name": "Thomas Frank Engine",
        "event_total": 63,
        "has_played": true,
        "id": 2937563,
        "last_rank": 92602,
        "player_name": "Alan Horowitz",
        "rank": 77140,
        "rank_sort": 77159,
        "total": 2337
      },
      {
        "club_badge_src": null,
        "entry": 455240,
        "entry_name": "The Famous",
        "event_total": 58,
        "has_played": true,
        "id": 3054036,
        "last_rank": 80465,
        "player_name": "Craig Wilson",
        "rank": 77140,
        "rank_sort": 77160,
        "total": 2337
      },
      {
        "club_badge_src": null,
        "entry": 485870,
        "entry_name": "BK Flagg",
        "event_total": 54,
        "has_played": true,
        "id": 3261644,
        "last_rank": 64422,
        "player_name": "Andreas M\u00e5rtensson",
        "rank": 77140,
        "rank_sort": 77161,
        "total": 2337
      },
      {
        "club_badge_src": null,
        "entry": 493236,
        "entry_name": "Shaw ate dalot",
        "event_total": 69,
        "has_played": true,
        "id": 3310922,
        "last_rank": 97470,
        "player_name": "Harry Jeffery",
        "rank": 77140,
        "rank_sort": 77162,
        "total": 2337
      },
      {
        "club_badge_src": "https://fantasy.premierleague.com/gcs/plfpl-production-adobe-approved/plfpl-production/560282/04a51e32-ad2f-44c0-aa56-f49860e5bf69.png",
        "entry": 560282,
        "entry_name": "Jon Snow's XI",
        "event_total": 52,
        "has_played": true,
        "id": 3771309,
        "last_rank": 60933,
        "player_name": "Neil Taylor",
        "rank": 77140,
        "rank_sort": 77163,
        "total": 2337
      },
      {
        "club_badge_src": null,
        "entry": 565075,
        "entry_name": "Sporting Neerland",
        "event_total": 54,
        "has_played": true,
        "id": 3803444,
        "last_rank": 64422,
        "player_name": "Kevin De Vrieze",
        "rank": 77140,
        "rank_sort": 77164,
        "total": 2337
      },
      {
        "club_badge_src": null,
        "entry": 674602,
        "entry_name": "Will Still be there",
        "event_total": 59,
        "has_played": true,
        "id": 4563694,
        "last_rank": 83127,
        "player_name": "Laurence Chesworth",
        "rank": 77140,
        "rank_sort": 77165,
        "total": 2337
      },
      {
        "club_badge_src": null,
        "entry": 692953,
        "entry_name": "Nav FC",
        "event_total": 67,
        "has_played": true,
        "id": 4693020,
        "last_rank": 92126,
        "player_name": "Nav 0914",
        "rank": 77140,
        "rank_sort": 77166,
        "total": 2337
      },
      {
        "club_badge_src": "https://fantasy.premierleague.com/gcs/plfpl-production-adobe-approved/plfpl-production/734187/570c1ef8-3ffd-464c-9efc-d04f1f37164e.png",
        "entry": 734187,
        "entry_name": "Onana What's My Name",
        "event_total": 38,
        "has_played": true,
        "id": 4989517,
        "last_rank": 44950,
        "player_name": "Shane Charles",
        "rank": 77140,
        "rank_sort": 77167,
        "total": 2337
      },
      {
        "club_badge_src": null,
        "entry": 741761,
        "entry_name": "Seafield",
        "event_total": 49,
        "has_played": true,
        "id": 5045083,
        "last_rank": 62812,
        "player_name": "Will Burrell",
        "rank": 77140,
        "rank_sort": 77168,
        "total": 2337
      },
      {
        "club_badge_src": null,
        "entry": 758551,
        "entry_name": "The Slot Thickens",
        "event_total": 56,
        "has_played": true,
        "id": 5167364,
        "last_rank": 68216,
        "player_name": "Joel Tempest-Routledge",
        "rank": 77140,
        "rank_sort": 77169,
        "total": 2337
      },
      {
        "club_badge_src": null,
        "entry": 874496,
        "entry_name": "\u0627\u0644\u0637\u0648\u0641\u0627\u0646",
        "event_total": 60,
        "has_played": true,
        "id": 5995431,
        "last_rank": 76474,
        "player_name": "Khaled Alshikh",
        "rank": 77140,
        "rank_sort": 77170,
        "total": 2337
      },
      {
        "club_badge_src": null,
        "entry": 891325,
        "entry_name": "odd scousers",
        "event_total": 51,
        "has_played": true,
        "id": 6117149,
        "last_rank": 66380,
        "player_name": "Odd Lillehagen",
        "rank": 77140,
        "rank_sort": 77171,
        "total": 2337
      },
      {
        "club_badge_src": null,
        "entry": 909689,
        "entry_name": "jeremy pingpong",
        "event_total": 53,
        "has_played": true,
        "id": 6253889,
        "last_rank": 70276,
        "player_name": "Shyaw Shyaw",
        "rank": 77140,
        "rank_sort": 77172,
        "total": 2337
      },
      {
        "club_badge_src": null,
        "entry": 1000004,
        "entry_name": "Liverchange",
        "event_total": 67,
        "has_played": true,
        "id": 6912498,
        "last_rank": 82873,
        "player_name": "Endre Naterstad",
        "rank": 77140,
        "rank_sort": 77173,
        "total": 2337
      },
      {
        "club_badge_src": null,
        "entry": 1059658,
        "entry_name": "Mix-ups",
        "event_total": 78,
        "has_played": true,
        "id": 7333594,
        "last_rank": 134879,
        "player_name": "Shahzil Minallah",
        "rank": 77140,
        "rank_sort": 77174,
        "total": 2337
      },
      {
        "club_badge_src": null,
        "entry": 1079387,
        "entry_name": "Tiri berk team",
        "event_total": 45,
        "has_played": true,
        "id": 7473824,
        "last_rank": 49301,
        "player_name": "Sifo Chai",
        "rank": 77140,
        "rank_sort": 77175,
        "total": 2337
      },
      {
        "club_badge_src": "https://fantasy.premierleague.com/gcs/plfpl-production-adobe-approved/plfpl-production/1112916/8a542355-5990-498a-811c-47c1395cf00d.png",
        "entry": 1112916,
        "entry_name": "Star City \u26a1\ufe0f",
        "event_total": 51,
        "has_played": true,
        "id": 7708995,
        "last_rank": 66447,
        "player_name": "Abdulla Firushan",
        "rank": 77140,
        "rank_sort": 77176,
        "total": 2337
      },
      {
        "club_badge_src": null,
        "entry": 1234417,
        "entry_name": "Cunha Mateta",
        "event_total": 52,
        "has_played": true,
        "id": 8571997,
        "last_rank": 68294,
        "player_name": "cian roe",
        "rank": 77140,
        "rank_sort": 77177,
        "total": 2337
      },
      {
        "club_badge_src": null,
        "entry": 1242259,
        "entry_name": "Alpompoo",
        "event_total": 34,
        "has_played": true,
        "id": 8627384,
        "last_rank": 39650,
        "player_name": "Haytham Saad",
        "rank": 77140,
        "rank_sort": 77178,
        "total": 2337
      },
      {
        "club_badge_src": "https://fantasy.premierleague.com/gcs/plfpl-production-adobe-approved/plfpl-production/1283262/437e398b-228e-488a-8025-157c81d0d57e.png",
        "entry": 1283262,
        "entry_name": "You Just Got Kaned",
        "event_total": 49,
        "has_played": true,
        "id": 8917003,
        "last_rank": 62812,
        "player_name": "Ellis Hill",
        "rank": 77140,
        "rank_sort": 77179,
        "total": 2337
      },
      {
        "club_badge_src": null,
        "entry": 1292125,
        "entry_name": "KinderMbeumo",
        "event_total": 62,
        "has_played": true,
        "id": 8978753,
        "last_rank": 80781,
        "player_name": "Kiano Poole",
        "rank": 77140,
        "rank_sort": 77180,
        "total": 2337
      },
      {
        "club_badge_src": "https://fantasy.premierleague.com/gcs/plfpl-production-adobe-approved/plfpl-production/1296564/3ddaf693-8fd0-42fa-b1a0-38c1860992d9.png",
        "entry": 1296564,
        "entry_name": "Derachi",
        "event_total": 76,
        "has_played": true,
        "id": 9011027,
        "last_rank": 116216,
        "player_name": "Davor Pilji\u0107",
        "rank": 77140,
        "rank_sort": 77181,
        "total": 2337
      },
      {
        "club_badge_src": null,
        "entry": 1306556,
        "entry_name": "RC FC",
        "event_total": 57,
        "has_played": true,
        "id": 9081454,
        "last_rank": 70072,
        "player_name": "Robbie Csimbala",
        "rank": 77140,
        "rank_sort": 77182,
        "total": 2337
      },
      {
        "club_badge_src": "https://fantasy.premierleague.com/gcs/plfpl-production-adobe-approved/plfpl-production/1325672/5ff9ef23-5da8-45f2-9645-fcc5d1fc5d58.png",
        "entry": 1325672,
        "entry_name": "Fpl_\u6681..YURIE.Dz",
        "event_total": 67,
        "has_played": true,
        "id": 9214788,
        "last_rank": 102501,
        "player_name": "Ayoub Bouzekria",
        "rank": 77140,
        "rank_sort": 77183,
        "total": 2337
      },
      {
        "club_badge_src": "https://fantasy.premierleague.com/gcs/plfpl-production-adobe-approved/plfpl-production/1540810/1c61a5f4-aeb5-4d7e-80c7-6bd53a8d64a7.png",
        "entry": 1540810,
        "entry_name": "Kick Some Balls",
        "event_total": 56,
        "has_played": true,
        "id": 10753910,
        "last_rank": 76638,
        "player_name": "Marianna Zsoldos",
        "rank": 77140,
        "rank_sort": 77184,
        "total": 2337
      },
      {
        "club_badge_src": null,
        "entry": 1924213,
        "entry_name": "World needs bad men",
        "event_total": 56,
        "has_played": true,
        "id": 13570383,
        "last_rank": 76574,
        "player_name": "worldNeedBadMen Mugabo",
        "rank": 77140,
        "rank_sort": 77185,
        "total": 2337
      },
      {
        "club_badge_src": null,
        "entry": 2015230,
        "entry_name": "Arteta Ball",
        "event_total": 54,
        "has_played": true,
        "id": 14256295,
        "last_rank": 64422,
        "player_name": "Richard Roberts",
        "rank": 77140,
        "rank_sort": 77186,
        "total": 2337
      },
      {
        "club_badge_src": null,
        "entry": 2036209,
        "entry_name": "Ponduskameratene",
        "event_total": 62,
        "has_played": true,
        "id": 14417420,
        "last_rank": 80781,
        "player_name": "Syver Ole Garmo",
        "rank": 77140,
        "rank_sort": 77187,
        "total": 2337
      },
      {
        "club_badge_src": null,
        "entry": 2640078,
        "entry_name": "ADRIANO",
        "event_total": 45,
        "has_played": true,
        "id": 18974843,
        "last_rank": 55812,
        "player_name": "adriano saad",
        "rank": 77140,
        "rank_sort": 77188,
        "total": 2337
      },
      {
        "club_badge_src": null,
        "entry": 2680161,
        "entry_name": "All eyes on Sudan \u2665\ufe0f",
        "event_total": 49,
        "has_played": true,
        "id": 19275857,
        "last_rank": 62812,
        "player_name": "Ali suliman",
        "rank": 77140,
        "rank_sort": 77189,
        "total": 2337
      },
      {
        "club_badge_src": null,
        "entry": 2965358,
        "entry_name": "Fc Seamu",
        "event_total": 81,
        "has_played": true,
        "id": 21784749,
        "last_rank": 131442,
        "player_name": "Max M",
        "rank": 77140,
        "rank_sort": 77190,
        "total": 2337
      },
      {
        "club_badge_src": null,
        "entry": 3021534,
        "entry_name": "67",
        "event_total": 84,
        "has_played": true,
        "id": 22231043,
        "last_rank": 155068,
        "player_name": "haakon hansteensen",
        "rank": 77140,
        "rank_sort": 77191,
        "total": 2337
      },
      {
        "club_badge_src": "https://fantasy.premierleague.com/gcs/plfpl-production-adobe-approved/plfpl-production/3333186/79380de1-d072-4571-a80a-bf9748c18a4e.png",
        "entry": 3333186,
        "entry_name": "Marry Haguire",
        "event_total": 56,
        "has_played": true,
        "id": 24714693,
        "last_rank": 68216,
        "player_name": "Felix Lysg\u00e5rd",
        "rank": 77140,
        "rank_sort": 77192,
        "total": 2337
      },
      {
        "club_badge_src": null,
        "entry": 3362338,
        "entry_name": "Golden Gekkos",
        "event_total": 41,
        "has_played": true,
        "id": 24948707,
        "last_rank": 43444,
        "player_name": "Terje Leknes",
        "rank": 77140,
        "rank_sort": 77193,
        "total": 2337
      },
      {
        "club_badge_src": null,
        "entry": 3493718,
        "entry_name": "Tutti Frutti",
        "event_total": 44,
        "has_played": true,
        "id": 25986110,
        "last_rank": 42081,
        "player_name": "Potato Potiti",
        "rank": 77140,
        "rank_sort": 77194,
        "total": 2337
      },
      {
        "club_badge_src": null,
        "entry": 3874426,
        "entry_name": "GHOST",
        "event_total": 73,
        "has_played": true,
        "id": 29093591,
        "last_rank": 97305,
        "player_name": "Asbj\u00f8rn Een",
        "rank": 77140,
        "rank_sort": 77195,
        "total": 2337
      },
      {
        "club_badge_src": null,
        "entry": 3911026,
        "entry_name": "Top Notch",
        "event_total": 38,
        "has_played": true,
        "id": 29405041,
        "last_rank": 44982,
        "player_name": "Papi Naftalie",
        "rank": 77140,
        "rank_sort": 77196,
        "total": 2337
      },
      {
        "club_badge_src": "https://fantasy.premierleague.com/gcs/plfpl-production-adobe-approved/plfpl-production/4226768/dea55cd3-464d-465e-9573-212c6f65e193.png",
        "entry": 4226768,
        "entry_name": "Silill City",
        "event_total": 56,
        "has_played": true,
        "id": 32022875,
        "last_rank": 68216,
        "player_name": "Herman S. Mydland",
        "rank": 77140,
        "rank_sort": 77197,
        "total": 2337
      },
      {
        "club_badge_src": null,
        "entry": 4258052,
        "entry_name": "Marauding Gooners",
        "event_total": 43,
        "has_played": true,
        "id": 32282499,
        "last_rank": 46236,
        "player_name": "Chris Copson",
        "rank": 77140,
        "rank_sort": 77198,
        "total": 2337
      },
      {
        "club_badge_src": "https://fantasy.premierleague.com/gcs/plfpl-production-adobe-approved/plfpl-production/4415495/67e465f5-3421-4262-9d9d-618c5f437b2e.png",
        "entry": 4415495,
        "entry_name": "lads on toure",
        "event_total": 66,
        "has_played": true,
        "id": 33591858,
        "last_rank": 90057,
        "player_name": "Alexei Chase-McCarthy",
        "rank": 77140,
        "rank_sort": 77199,
        "total": 2337
      },
      {
        "club_badge_src": null,
        "entry": 4593605,
        "entry_name": "JogaBonito",
        "event_total": 69,
        "has_played": true,
        "id": 35080002,
        "last_rank": 107866,
        "player_name": "Ali Nawaz",
        "rank": 77140,
        "rank_sort": 77200,
        "total": 2337
      }
    ]
  }
}