{
  "last_updated_data": "2026-05-24T23:28:17Z",
  "league": {
    "admin_entry": null,
    "closed": false,
    "code_privacy": "p",
    "created": "2025-07-20T23:14:33.933835Z",
    "cup_league": 2815434,
    "has_cup": true,
    "id": 314,
    "league_type": "s",
    "max_entries": null,
    "name": "Overall",
    "rank": null,
    "scoring": "c",
    "start_event": 1
  },
  "new_entries": {
    "has_next": false,
    "page": 1,
    "results": []
  },
  "standings": {
    "has_next": true,
    "page": 917,
    "results": [
      {
        "club_badge_src": null,
        "entry": 53645,
        "entry_name": "Pingur FC",
        "event_total": 63,
        "has_played": true,
        "id": 345160,
        "last_rank": 55311,
        "player_name": "Per Joachim Bixo",
        "rank": 45787,
        "rank_sort": 45801,
        "total": 2355
      },
      {
        "club_badge_src": "https://fantasy.premierleague.com/gcs/plfpl-production-adobe-approved/plfpl-production/65561/d8972eb3-4d8d-4c8a-9e58-f339901b0d9a.png",
        "entry": 65561,
        "entry_name": "Zirkzee Zquad",
        "event_total": 56,
        "has_played": true,
        "id": 423348,
        "last_rank": 44672,
        "player_name": "Joshua Joseph",
        "rank": 45787,
        "rank_sort": 45802,
        "total": 2355
      },
      {
        "club_badge_src": null,
        "entry": 65678,
        "entry_name": "Rolling Stones",
        "event_total": 63,
        "has_played": true,
        "id": 424175,
        "last_rank": 55311,
        "player_name": "Aaron Butcher",
        "rank": 45787,
        "rank_sort": 45803,
        "total": 2355
      },
      {
        "club_badge_src": null,
        "entry": 95414,
        "entry_name": "ItchIsak",
        "event_total": 58,
        "has_played": true,
        "id": 623462,
        "last_rank": 41617,
        "player_name": "Aidan Mchugh",
        "rank": 45787,
        "rank_sort": 45804,
        "total": 2355
      },
      {
        "club_badge_src": null,
        "entry": 108447,
        "entry_name": "Hmzy",
        "event_total": 57,
        "has_played": true,
        "id": 707038,
        "last_rank": 46106,
        "player_name": "Ham Ze",
        "rank": 45787,
        "rank_sort": 45805,
        "total": 2355
      },
      {
        "club_badge_src": null,
        "entry": 110985,
        "entry_name": "Moor Than a Team",
        "event_total": 67,
        "has_played": true,
        "id": 723746,
        "last_rank": 55311,
        "player_name": "Pawan DUBAL",
        "rank": 45787,
        "rank_sort": 45806,
        "total": 2355
      },
      {
        "club_badge_src": "https://fantasy.premierleague.com/gcs/plfpl-production-adobe-approved/plfpl-production/138722/f713dd06-93e4-4b8b-bf3a-13c59ddb6235.png",
        "entry": 138722,
        "entry_name": "The Dragons",
        "event_total": 64,
        "has_played": true,
        "id": 905082,
        "last_rank": 57001,
        "player_name": "Abdelfatah Mohamed",
        "rank": 45787,
        "rank_sort": 45807,
        "total": 2355
      },
      {
        "club_badge_src": null,
        "entry": 143128,
        "entry_name": "Reece's Pieces",
        "event_total": 56,
        "has_played": true,
        "id": 936301,
        "last_rank": 38774,
        "player_name": "Freddy Sternberg",
        "rank": 45787,
        "rank_sort": 45808,
        "total": 2355
      },
      {
        "club_badge_src": null,
        "entry": 150708,
        "entry_name": "Matchpoint91",
        "event_total": 66,
        "has_played": true,
        "id": 988513,
        "last_rank": 60462,
        "player_name": "Zozo Tete",
        "rank": 45787,
        "rank_sort": 45809,
        "total": 2355
      },
      {
        "club_badge_src": null,
        "entry": 174140,
        "entry_name": "Cloughie\u2019s Miracles",
        "event_total": 49,
        "has_played": true,
        "id": 1149963,
        "last_rank": 31125,
        "player_name": "james segal",
        "rank": 45787,
        "rank_sort": 45810,
        "total": 2355
      },
      {
        "club_badge_src": null,
        "entry": 180909,
        "entry_name": "Baby Reijnders",
        "event_total": 54,
        "has_played": true,
        "id": 1193859,
        "last_rank": 36831,
        "player_name": "Fergus Rowland",
        "rank": 45787,
        "rank_sort": 45811,
        "total": 2355
      },
      {
        "club_badge_src": "https://fantasy.premierleague.com/gcs/plfpl-production-adobe-approved/plfpl-production/186943/1403a338-946a-41a0-bdf2-ef3185d43283.png",
        "entry": 186943,
        "entry_name": "\uff36\uff45\uff4e\uff44\uff45\uff54\uff54\uff41",
        "event_total": 67,
        "has_played": true,
        "id": 1235737,
        "last_rank": 55311,
        "player_name": "Brian Desnoes",
        "rank": 45787,
        "rank_sort": 45812,
        "total": 2355
      },
      {
        "club_badge_src": "https://fantasy.premierleague.com/gcs/plfpl-production-adobe-approved/plfpl-production/198872/025f5c7e-eada-4329-8905-529b32dc84bf.png",
        "entry": 198872,
        "entry_name": "TeamBuFu",
        "event_total": 59,
        "has_played": true,
        "id": 1319802,
        "last_rank": 49078,
        "player_name": "Vegard Simonsen",
        "rank": 45787,
        "rank_sort": 45813,
        "total": 2355
      },
      {
        "club_badge_src": null,
        "entry": 214452,
        "entry_name": "No Mercy",
        "event_total": 63,
        "has_played": true,
        "id": 1426594,
        "last_rank": 48898,
        "player_name": "Yousef Alnaama",
        "rank": 45787,
        "rank_sort": 45814,
        "total": 2355
      },
      {
        "club_badge_src": "https://fantasy.premierleague.com/gcs/plfpl-production-adobe-approved/plfpl-production/228350/8ae4ee0e-937c-4980-8972-a0f3b818b6ed.png",
        "entry": 228350,
        "entry_name": "bags & beers",
        "event_total": 64,
        "has_played": true,
        "id": 1519034,
        "last_rank": 57001,
        "player_name": "Ashley Norris",
        "rank": 45787,
        "rank_sort": 45815,
        "total": 2355
      },
      {
        "club_badge_src": null,
        "entry": 233103,
        "entry_name": "Citra City",
        "event_total": 52,
        "has_played": true,
        "id": 1550942,
        "last_rank": 29904,
        "player_name": "Jon Wright",
        "rank": 45787,
        "rank_sort": 45816,
        "total": 2355
      },
      {
        "club_badge_src": null,
        "entry": 240851,
        "entry_name": "\u0160e\u0161ko meal deal",
        "event_total": 37,
        "has_played": true,
        "id": 1603032,
        "last_rank": 23656,
        "player_name": "Paddy Galligan",
        "rank": 45787,
        "rank_sort": 45817,
        "total": 2355
      },
      {
        "club_badge_src": "https://fantasy.premierleague.com/gcs/plfpl-production-adobe-approved/plfpl-production/275366/79a2a442-9cd9-46d7-a02c-0927575a62eb.png",
        "entry": 275366,
        "entry_name": "AFC Chuvo$",
        "event_total": 63,
        "has_played": true,
        "id": 1832606,
        "last_rank": 48898,
        "player_name": "Poramet Suriyaa",
        "rank": 45787,
        "rank_sort": 45818,
        "total": 2355
      },
      {
        "club_badge_src": null,
        "entry": 286354,
        "entry_name": "Fear The Wirtz",
        "event_total": 39,
        "has_played": true,
        "id": 1907681,
        "last_rank": 25436,
        "player_name": "Simon O'Connell",
        "rank": 45787,
        "rank_sort": 45819,
        "total": 2355
      },
      {
        "club_badge_src": "https://fantasy.premierleague.com/gcs/plfpl-production-adobe-approved/plfpl-production/289397/a644f3cc-7152-4861-b9cb-17333d3a9072.png",
        "entry": 289397,
        "entry_name": "Mountside Mashers",
        "event_total": 59,
        "has_played": true,
        "id": 1929100,
        "last_rank": 48898,
        "player_name": "Sarah Kristo",
        "rank": 45787,
        "rank_sort": 45820,
        "total": 2355
      },
      {
        "club_badge_src": null,
        "entry": 312257,
        "entry_name": "Mr Sitter",
        "event_total": 59,
        "has_played": true,
        "id": 2092020,
        "last_rank": 43168,
        "player_name": "Ryan Walker",
        "rank": 45787,
        "rank_sort": 45821,
        "total": 2355
      },
      {
        "club_badge_src": "https://fantasy.premierleague.com/gcs/plfpl-production-adobe-approved/plfpl-production/333338/4031600e-9c17-4c8a-b322-3d479adc3d82.png",
        "entry": 333338,
        "entry_name": "ChampionsOfTheWorld",
        "event_total": 62,
        "has_played": true,
        "id": 2232444,
        "last_rank": 47163,
        "player_name": "Aaron Rohlfing",
        "rank": 45787,
        "rank_sort": 45822,
        "total": 2355
      },
      {
        "club_badge_src": null,
        "entry": 339853,
        "entry_name": "HaCunha Mateta",
        "event_total": 66,
        "has_played": true,
        "id": 2274992,
        "last_rank": 60671,
        "player_name": "Alex Lee",
        "rank": 45787,
        "rank_sort": 45823,
        "total": 2355
      },
      {
        "club_badge_src": null,
        "entry": 352981,
        "entry_name": "Zubi or not Zubi",
        "event_total": 61,
        "has_played": true,
        "id": 2362427,
        "last_rank": 51984,
        "player_name": "Sam B",
        "rank": 45787,
        "rank_sort": 45824,
        "total": 2355
      },
      {
        "club_badge_src": null,
        "entry": 355226,
        "entry_name": "WHOATEALLDEPAYS",
        "event_total": 63,
        "has_played": true,
        "id": 2377354,
        "last_rank": 55311,
        "player_name": "Adam Grove",
        "rank": 45787,
        "rank_sort": 45825,
        "total": 2355
      },
      {
        "club_badge_src": null,
        "entry": 377084,
        "entry_name": "Campiones",
        "event_total": 53,
        "has_played": true,
        "id": 2525834,
        "last_rank": 40647,
        "player_name": "Danny Rowlands",
        "rank": 45787,
        "rank_sort": 45826,
        "total": 2355
      },
      {
        "club_badge_src": null,
        "entry": 390085,
        "entry_name": "Become My Goats",
        "event_total": 68,
        "has_played": true,
        "id": 2616664,
        "last_rank": 64190,
        "player_name": "Robert Lein",
        "rank": 45787,
        "rank_sort": 45827,
        "total": 2355
      },
      {
        "club_badge_src": null,
        "entry": 400590,
        "entry_name": "COSIEDZIEJEPRZERAZA",
        "event_total": 66,
        "has_played": true,
        "id": 2686231,
        "last_rank": 60671,
        "player_name": "Jakub Adamczak",
        "rank": 45787,
        "rank_sort": 45828,
        "total": 2355
      },
      {
        "club_badge_src": null,
        "entry": 405898,
        "entry_name": "MurderOnZidanesFloor",
        "event_total": 52,
        "has_played": true,
        "id": 2721475,
        "last_rank": 39403,
        "player_name": "Nicholas Christian Decaprivano",
        "rank": 45787,
        "rank_sort": 45829,
        "total": 2355
      },
      {
        "club_badge_src": "https://fantasy.premierleague.com/gcs/plfpl-production-adobe-approved/plfpl-production/412976/bdd7903c-e325-4ad1-bf78-be957137b828.png",
        "entry": 412976,
        "entry_name": "Rorys11",
        "event_total": 49,
        "has_played": true,
        "id": 2768776,
        "last_rank": 35768,
        "player_name": "Rory A",
        "rank": 45787,
        "rank_sort": 45830,
        "total": 2355
      },
      {
        "club_badge_src": null,
        "entry": 449865,
        "entry_name": "Hwanging to the left",
        "event_total": 68,
        "has_played": true,
        "id": 3018265,
        "last_rank": 57001,
        "player_name": "Jacob Gold",
        "rank": 45787,
        "rank_sort": 45831,
        "total": 2355
      },
      {
        "club_badge_src": null,
        "entry": 463149,
        "entry_name": "Tight Arsenal",
        "event_total": 55,
        "has_played": true,
        "id": 3106718,
        "last_rank": 43342,
        "player_name": "James McElroy",
        "rank": 45787,
        "rank_sort": 45832,
        "total": 2355
      },
      {
        "club_badge_src": null,
        "entry": 579304,
        "entry_name": "Talk wirtzy to me",
        "event_total": 65,
        "has_played": true,
        "id": 3897892,
        "last_rank": 58911,
        "player_name": "Alex Petty",
        "rank": 45787,
        "rank_sort": 45833,
        "total": 2355
      },
      {
        "club_badge_src": "https://fantasy.premierleague.com/gcs/plfpl-production-adobe-approved/plfpl-production/664295/dd3c4db1-7990-4e04-9c52-e5680f776d49.png",
        "entry": 664295,
        "entry_name": "Cheadle Brook",
        "event_total": 55,
        "has_played": true,
        "id": 4491069,
        "last_rank": 43342,
        "player_name": "Ray Bullen",
        "rank": 45787,
        "rank_sort": 45834,
        "total": 2355
      },
      {
        "club_badge_src": null,
        "entry": 674835,
        "entry_name": "Ho gayi bhai ho gayi",
        "event_total": 66,
        "has_played": true,
        "id": 4565376,
        "last_rank": 60671,
        "player_name": "Krish Sharma",
        "rank": 45787,
        "rank_sort": 45835,
        "total": 2355
      },
      {
        "club_badge_src": null,
        "entry": 733622,
        "entry_name": "Jasco0o",
        "event_total": 60,
        "has_played": true,
        "id": 4985512,
        "last_rank": 50635,
        "player_name": "Mostafa Gouda",
        "rank": 45787,
        "rank_sort": 45836,
        "total": 2355
      },
      {
        "club_badge_src": null,
        "entry": 777887,
        "entry_name": "Pistol Chalice",
        "event_total": 62,
        "has_played": true,
        "id": 5307795,
        "last_rank": 53837,
        "player_name": "Joe Jackson",
        "rank": 45787,
        "rank_sort": 45837,
        "total": 2355
      },
      {
        "club_badge_src": null,
        "entry": 790068,
        "entry_name": "Blues",
        "event_total": 60,
        "has_played": true,
        "id": 5405665,
        "last_rank": 39023,
        "player_name": "Danis Imamovic",
        "rank": 45787,
        "rank_sort": 45838,
        "total": 2355
      },
      {
        "club_badge_src": null,
        "entry": 796965,
        "entry_name": "I could do Wirtz",
        "event_total": 51,
        "has_played": true,
        "id": 5454627,
        "last_rank": 38163,
        "player_name": "Charlie Richmond",
        "rank": 45787,
        "rank_sort": 45839,
        "total": 2355
      },
      {
        "club_badge_src": "https://fantasy.premierleague.com/gcs/plfpl-production-adobe-approved/plfpl-production/803815/adb3d045-6569-452f-899b-9f37ef4b39a9.png",
        "entry": 803815,
        "entry_name": "Ekitike-takka",
        "event_total": 47,
        "has_played": true,
        "id": 5502376,
        "last_rank": 33332,
        "player_name": "Aidan Lee",
        "rank": 45787,
        "rank_sort": 45840,
        "total": 2355
      },
      {
        "club_badge_src": null,
        "entry": 812022,
        "entry_name": "Mbeumo Town Rats",
        "event_total": 48,
        "has_played": true,
        "id": 5559877,
        "last_rank": 34578,
        "player_name": "Andrew Lenihan",
        "rank": 45787,
        "rank_sort": 45841,
        "total": 2355
      },
      {
        "club_badge_src": null,
        "entry": 886209,
        "entry_name": "Bobbans BK",
        "event_total": 73,
        "has_played": true,
        "id": 6078195,
        "last_rank": 65796,
        "player_name": "Johan Olanders",
        "rank": 45787,
        "rank_sort": 45842,
        "total": 2355
      },
      {
        "club_badge_src": null,
        "entry": 894210,
        "entry_name": "A C MILAN",
        "event_total": 67,
        "has_played": true,
        "id": 6142554,
        "last_rank": 62429,
        "player_name": "Hasan Alajmi",
        "rank": 45787,
        "rank_sort": 45843,
        "total": 2355
      },
      {
        "club_badge_src": null,
        "entry": 919323,
        "entry_name": "Atishbaaz",
        "event_total": 67,
        "has_played": true,
        "id": 6322153,
        "last_rank": 55311,
        "player_name": "Atishay Jain",
        "rank": 45787,
        "rank_sort": 45844,
        "total": 2355
      },
      {
        "club_badge_src": null,
        "entry": 951414,
        "entry_name": "Ghostbusters",
        "event_total": 78,
        "has_played": true,
        "id": 6554808,
        "last_rank": 84731,
        "player_name": "Antonio Bogovic",
        "rank": 45787,
        "rank_sort": 45845,
        "total": 2355
      },
      {
        "club_badge_src": null,
        "entry": 1014089,
        "entry_name": "Aldous Major",
        "event_total": 61,
        "has_played": true,
        "id": 7015260,
        "last_rank": 51984,
        "player_name": "St\u00e5le Thorsen",
        "rank": 45787,
        "rank_sort": 45846,
        "total": 2355
      },
      {
        "club_badge_src": "https://fantasy.premierleague.com/gcs/plfpl-production-adobe-approved/plfpl-production/1015797/fd511c4e-bad7-44ad-a015-4b734bd4d687.png",
        "entry": 1015797,
        "entry_name": "St Lizzy",
        "event_total": 58,
        "has_played": true,
        "id": 7027326,
        "last_rank": 47722,
        "player_name": "Stefan Ebanks",
        "rank": 45787,
        "rank_sort": 45847,
        "total": 2355
      },
      {
        "club_badge_src": null,
        "entry": 1025420,
        "entry_name": "Valhalla",
        "event_total": 56,
        "has_played": true,
        "id": 7094402,
        "last_rank": 39023,
        "player_name": "Deividas Malzinskas",
        "rank": 45787,
        "rank_sort": 45848,
        "total": 2355
      },
      {
        "club_badge_src": null,
        "entry": 1093412,
        "entry_name": "Fc Perecile",
        "event_total": 68,
        "has_played": true,
        "id": 7572898,
        "last_rank": 63724,
        "player_name": "Tomek Kaczmarski",
        "rank": 45787,
        "rank_sort": 45849,
        "total": 2355
      },
      {
        "club_badge_src": null,
        "entry": 1173220,
        "entry_name": "An ecumenical matter",
        "event_total": 66,
        "has_played": true,
        "id": 8139185,
        "last_rank": 60462,
        "player_name": "Matt Johnson",
        "rank": 45787,
        "rank_sort": 45850,
        "total": 2355
      }
    ]
  }
}