{
  "last_updated_data": "2026-05-24T23:28:17Z",
  "league": {
    "admin_entry": null,
    "closed": false,
    "code_privacy": "p",
    "created": "2025-07-20T23:14:33.933835Z",
    "cup_league": 2815434,
    "has_cup": true,
    "id": 314,
    "league_type": "s",
    "max_entries": null,
    "name": "Overall",
    "rank": null,
    "scoring": "c",
    "start_event": 1
  },
  "new_entries": {
    "has_next": false,
    "page": 1,
    "results": []
  },
  "standings": {
    "has_next": true,
    "page": 548,
    "results": [
      {
        "club_badge_src": null,
        "entry": 3159702,
        "entry_name": "Anedde United",
        "event_total": 52,
        "has_played": true,
        "id": 23340768,
        "last_rank": 22685,
        "player_name": "Anette Hest\u00e5s",
        "rank": 27246,
        "rank_sort": 27351,
        "total": 2371
      },
      {
        "club_badge_src": null,
        "entry": 3228187,
        "entry_name": "DSV",
        "event_total": 61,
        "has_played": true,
        "id": 23874470,
        "last_rank": 30957,
        "player_name": "Daniel O'Brien",
        "rank": 27246,
        "rank_sort": 27352,
        "total": 2371
      },
      {
        "club_badge_src": null,
        "entry": 3283474,
        "entry_name": "Forever 20!",
        "event_total": 57,
        "has_played": true,
        "id": 24305110,
        "last_rank": 23341,
        "player_name": "marlan soliar",
        "rank": 27246,
        "rank_sort": 27353,
        "total": 2371
      },
      {
        "club_badge_src": null,
        "entry": 3291909,
        "entry_name": "HaalandGlobeTrotters",
        "event_total": 51,
        "has_played": true,
        "id": 24373938,
        "last_rank": 21949,
        "player_name": "Matthew Brown",
        "rank": 27246,
        "rank_sort": 27354,
        "total": 2371
      },
      {
        "club_badge_src": null,
        "entry": 3362206,
        "entry_name": "Oches bhoys",
        "event_total": 64,
        "has_played": true,
        "id": 24947672,
        "last_rank": 34293,
        "player_name": "tom mchale",
        "rank": 27246,
        "rank_sort": 27355,
        "total": 2371
      },
      {
        "club_badge_src": null,
        "entry": 3390371,
        "entry_name": "B\u00d8 BALLERS",
        "event_total": 58,
        "has_played": true,
        "id": 25169617,
        "last_rank": 27976,
        "player_name": "Marcus Austevik B\u00f8",
        "rank": 27246,
        "rank_sort": 27356,
        "total": 2371
      },
      {
        "club_badge_src": null,
        "entry": 3549519,
        "entry_name": "VAR-tificial FC",
        "event_total": 67,
        "has_played": true,
        "id": 26424855,
        "last_rank": 32879,
        "player_name": "The Machine",
        "rank": 27246,
        "rank_sort": 27357,
        "total": 2371
      },
      {
        "club_badge_src": null,
        "entry": 3669443,
        "entry_name": "Radio BraBra",
        "event_total": 69,
        "has_played": true,
        "id": 27366371,
        "last_rank": 40036,
        "player_name": "Michelle Fairgrieve",
        "rank": 27246,
        "rank_sort": 27358,
        "total": 2371
      },
      {
        "club_badge_src": null,
        "entry": 3911127,
        "entry_name": "We\u2019ll have a Lookman",
        "event_total": 53,
        "has_played": true,
        "id": 29405931,
        "last_rank": 20179,
        "player_name": "Dylan Wallace",
        "rank": 27246,
        "rank_sort": 27359,
        "total": 2371
      },
      {
        "club_badge_src": null,
        "entry": 3927387,
        "entry_name": "Row Z FC",
        "event_total": 75,
        "has_played": true,
        "id": 29536280,
        "last_rank": 48197,
        "player_name": "Kevin Ryan",
        "rank": 27246,
        "rank_sort": 27360,
        "total": 2371
      },
      {
        "club_badge_src": null,
        "entry": 3955170,
        "entry_name": "Toonali FC",
        "event_total": 63,
        "has_played": true,
        "id": 29756562,
        "last_rank": 33147,
        "player_name": "Andrew Sutton",
        "rank": 27246,
        "rank_sort": 27361,
        "total": 2371
      },
      {
        "club_badge_src": "https://fantasy.premierleague.com/gcs/plfpl-production-adobe-approved/plfpl-production/4179631/6ed77955-fd1f-4112-ad19-191b80230994.png",
        "entry": 4179631,
        "entry_name": "Zubi-doobidoo",
        "event_total": 70,
        "has_played": true,
        "id": 31618019,
        "last_rank": 41101,
        "player_name": "James Lumsden",
        "rank": 27246,
        "rank_sort": 27362,
        "total": 2371
      },
      {
        "club_badge_src": null,
        "entry": 4195233,
        "entry_name": "Sanoczanka",
        "event_total": 73,
        "has_played": true,
        "id": 31751857,
        "last_rank": 45416,
        "player_name": "Przemek Soja",
        "rank": 27246,
        "rank_sort": 27363,
        "total": 2371
      },
      {
        "club_badge_src": "https://fantasy.premierleague.com/gcs/plfpl-production-adobe-approved/plfpl-production/4227933/4a59526a-2378-4e6e-9133-f6074f9f534e.png",
        "entry": 4227933,
        "entry_name": "Newton Heath LYR FC",
        "event_total": 58,
        "has_played": true,
        "id": 32032430,
        "last_rank": 27976,
        "player_name": "Jaakko Pesola",
        "rank": 27246,
        "rank_sort": 27364,
        "total": 2371
      },
      {
        "club_badge_src": null,
        "entry": 4382004,
        "entry_name": "Sesko",
        "event_total": 66,
        "has_played": true,
        "id": 33302428,
        "last_rank": 36348,
        "player_name": "Vishan Habeeb",
        "rank": 27246,
        "rank_sort": 27365,
        "total": 2371
      },
      {
        "club_badge_src": null,
        "entry": 4447374,
        "entry_name": "Perri Perri Stach-er",
        "event_total": 63,
        "has_played": true,
        "id": 33871249,
        "last_rank": 33147,
        "player_name": "Kyle Dixon",
        "rank": 27246,
        "rank_sort": 27366,
        "total": 2371
      },
      {
        "club_badge_src": null,
        "entry": 4551714,
        "entry_name": "Kiss my Tzimas",
        "event_total": 48,
        "has_played": true,
        "id": 34729884,
        "last_rank": 19721,
        "player_name": "Adam Michalakis",
        "rank": 27246,
        "rank_sort": 27367,
        "total": 2371
      },
      {
        "club_badge_src": null,
        "entry": 4645016,
        "entry_name": "Wanderers",
        "event_total": 76,
        "has_played": true,
        "id": 35531741,
        "last_rank": 49691,
        "player_name": "George Saunders",
        "rank": 27246,
        "rank_sort": 27368,
        "total": 2371
      },
      {
        "club_badge_src": null,
        "entry": 4655166,
        "entry_name": "murderonzidanesfloor",
        "event_total": 67,
        "has_played": true,
        "id": 35625455,
        "last_rank": 32879,
        "player_name": "joe palmer",
        "rank": 27246,
        "rank_sort": 27369,
        "total": 2371
      },
      {
        "club_badge_src": null,
        "entry": 4861973,
        "entry_name": "Change Name",
        "event_total": 69,
        "has_played": true,
        "id": 37468568,
        "last_rank": 35166,
        "player_name": "Brad Gardner",
        "rank": 27246,
        "rank_sort": 27370,
        "total": 2371
      },
      {
        "club_badge_src": null,
        "entry": 4990405,
        "entry_name": "Smashpotatoes",
        "event_total": 55,
        "has_played": true,
        "id": 38527356,
        "last_rank": 25172,
        "player_name": "Tomi Salonen",
        "rank": 27246,
        "rank_sort": 27371,
        "total": 2371
      },
      {
        "club_badge_src": null,
        "entry": 5117792,
        "entry_name": "bruno fernanch",
        "event_total": 67,
        "has_played": true,
        "id": 39568274,
        "last_rank": 37435,
        "player_name": "Peng Kai Heng",
        "rank": 27246,
        "rank_sort": 27372,
        "total": 2371
      },
      {
        "club_badge_src": null,
        "entry": 5125610,
        "entry_name": "boca seniors",
        "event_total": 65,
        "has_played": true,
        "id": 39636964,
        "last_rank": 35424,
        "player_name": "Amrit Anand",
        "rank": 27246,
        "rank_sort": 27373,
        "total": 2371
      },
      {
        "club_badge_src": null,
        "entry": 5202935,
        "entry_name": "Inter Nolan",
        "event_total": 65,
        "has_played": true,
        "id": 40295446,
        "last_rank": 35166,
        "player_name": "Tony Nolan",
        "rank": 27246,
        "rank_sort": 27374,
        "total": 2371
      },
      {
        "club_badge_src": "https://fantasy.premierleague.com/gcs/plfpl-production-adobe-approved/plfpl-production/5277195/1c35eca5-b31d-4c66-b307-be82934c9a94.png",
        "entry": 5277195,
        "entry_name": "Wilford Wanderers",
        "event_total": 60,
        "has_played": true,
        "id": 40903048,
        "last_rank": 29688,
        "player_name": "Adam Harrison",
        "rank": 27246,
        "rank_sort": 27375,
        "total": 2371
      },
      {
        "club_badge_src": null,
        "entry": 5410008,
        "entry_name": "Koko yacob",
        "event_total": 33,
        "has_played": true,
        "id": 42069874,
        "last_rank": 10920,
        "player_name": "koko yacob",
        "rank": 27246,
        "rank_sort": 27376,
        "total": 2371
      },
      {
        "club_badge_src": null,
        "entry": 5609925,
        "entry_name": "FUSK AB",
        "event_total": 52,
        "has_played": true,
        "id": 43842758,
        "last_rank": 22685,
        "player_name": "Jack Jonsson",
        "rank": 27246,
        "rank_sort": 27377,
        "total": 2371
      },
      {
        "club_badge_src": null,
        "entry": 5613104,
        "entry_name": "Black stars",
        "event_total": 84,
        "has_played": true,
        "id": 43870215,
        "last_rank": 63201,
        "player_name": "Hakeem .M",
        "rank": 27246,
        "rank_sort": 27378,
        "total": 2371
      },
      {
        "club_badge_src": null,
        "entry": 5663427,
        "entry_name": "Chame Nange",
        "event_total": 61,
        "has_played": true,
        "id": 44310826,
        "last_rank": 30957,
        "player_name": "Thomas Cooper",
        "rank": 27246,
        "rank_sort": 27379,
        "total": 2371
      },
      {
        "club_badge_src": null,
        "entry": 5667447,
        "entry_name": "Morris 11",
        "event_total": 75,
        "has_played": true,
        "id": 44344810,
        "last_rank": 48197,
        "player_name": "Mauricio Goncalves",
        "rank": 27246,
        "rank_sort": 27380,
        "total": 2371
      },
      {
        "club_badge_src": null,
        "entry": 5671163,
        "entry_name": "Halta gubbar",
        "event_total": 74,
        "has_played": true,
        "id": 44379360,
        "last_rank": 47163,
        "player_name": "Jonas Rathje",
        "rank": 27246,
        "rank_sort": 27381,
        "total": 2371
      },
      {
        "club_badge_src": null,
        "entry": 5782168,
        "entry_name": "Horacio Team",
        "event_total": 49,
        "has_played": true,
        "id": 45342103,
        "last_rank": 20416,
        "player_name": "Martin Horak",
        "rank": 27246,
        "rank_sort": 27382,
        "total": 2371
      },
      {
        "club_badge_src": null,
        "entry": 5998587,
        "entry_name": "Himmelsbl\u00e5a p\u00e5garna",
        "event_total": 56,
        "has_played": true,
        "id": 47285891,
        "last_rank": 26088,
        "player_name": "Leopold Karling",
        "rank": 27246,
        "rank_sort": 27383,
        "total": 2371
      },
      {
        "club_badge_src": null,
        "entry": 6057388,
        "entry_name": "Change Name",
        "event_total": 53,
        "has_played": true,
        "id": 47803218,
        "last_rank": 23341,
        "player_name": "Tom Sly",
        "rank": 27246,
        "rank_sort": 27384,
        "total": 2371
      },
      {
        "club_badge_src": null,
        "entry": 6143783,
        "entry_name": "Far From Trouble",
        "event_total": 59,
        "has_played": true,
        "id": 48558436,
        "last_rank": 28726,
        "player_name": "Simon McLoughlin",
        "rank": 27246,
        "rank_sort": 27385,
        "total": 2371
      },
      {
        "club_badge_src": null,
        "entry": 6144314,
        "entry_name": "Strange Brew",
        "event_total": 52,
        "has_played": true,
        "id": 48563136,
        "last_rank": 19544,
        "player_name": "Brendan Lynch",
        "rank": 27246,
        "rank_sort": 27386,
        "total": 2371
      },
      {
        "club_badge_src": "https://fantasy.premierleague.com/gcs/plfpl-production-adobe-approved/plfpl-production/6191771/1f7832e5-0820-45ec-8c52-38f95887da24.png",
        "entry": 6191771,
        "entry_name": "Lordship",
        "event_total": 43,
        "has_played": true,
        "id": 48974416,
        "last_rank": 16320,
        "player_name": "Miles Obare",
        "rank": 27246,
        "rank_sort": 27387,
        "total": 2371
      },
      {
        "club_badge_src": null,
        "entry": 6273059,
        "entry_name": "Kopacze",
        "event_total": 66,
        "has_played": true,
        "id": 49674311,
        "last_rank": 36624,
        "player_name": "Marcin Gospodarek",
        "rank": 27246,
        "rank_sort": 27388,
        "total": 2371
      },
      {
        "club_badge_src": null,
        "entry": 6377951,
        "entry_name": "One Tchouam\u00e9ni",
        "event_total": 70,
        "has_played": true,
        "id": 50724068,
        "last_rank": 36200,
        "player_name": "Nathan Heslop",
        "rank": 27246,
        "rank_sort": 27389,
        "total": 2371
      },
      {
        "club_badge_src": null,
        "entry": 6650736,
        "entry_name": "MaccatheAlpaca",
        "event_total": 57,
        "has_played": true,
        "id": 53168600,
        "last_rank": 23341,
        "player_name": "Mark McEvoy",
        "rank": 27246,
        "rank_sort": 27390,
        "total": 2371
      },
      {
        "club_badge_src": null,
        "entry": 6709255,
        "entry_name": "Outer Milan FC",
        "event_total": 73,
        "has_played": true,
        "id": 53691153,
        "last_rank": 45416,
        "player_name": "Jack Threlfall",
        "rank": 27246,
        "rank_sort": 27391,
        "total": 2371
      },
      {
        "club_badge_src": null,
        "entry": 6747791,
        "entry_name": "Tassori FC",
        "event_total": 66,
        "has_played": true,
        "id": 54019006,
        "last_rank": 31747,
        "player_name": "Sasha Tassori",
        "rank": 27246,
        "rank_sort": 27392,
        "total": 2371
      },
      {
        "club_badge_src": null,
        "entry": 6886425,
        "entry_name": "Gyokores Prime",
        "event_total": 36,
        "has_played": true,
        "id": 55190583,
        "last_rank": 12420,
        "player_name": "Abdullah Aljuwaisri",
        "rank": 27246,
        "rank_sort": 27393,
        "total": 2371
      },
      {
        "club_badge_src": null,
        "entry": 6898226,
        "entry_name": "North Troy",
        "event_total": 57,
        "has_played": true,
        "id": 55289658,
        "last_rank": 27020,
        "player_name": "Petar Smilevski",
        "rank": 27246,
        "rank_sort": 27394,
        "total": 2371
      },
      {
        "club_badge_src": null,
        "entry": 7031555,
        "entry_name": "Gullgutta",
        "event_total": 61,
        "has_played": true,
        "id": 56511384,
        "last_rank": 26827,
        "player_name": "Ole Jorgen Nordahl",
        "rank": 27246,
        "rank_sort": 27395,
        "total": 2371
      },
      {
        "club_badge_src": null,
        "entry": 7192177,
        "entry_name": "CFC",
        "event_total": 60,
        "has_played": true,
        "id": 58060213,
        "last_rank": 29904,
        "player_name": "Tino Chimanikire",
        "rank": 27246,
        "rank_sort": 27396,
        "total": 2371
      },
      {
        "club_badge_src": null,
        "entry": 7229423,
        "entry_name": "Egg Fried Reus",
        "event_total": 67,
        "has_played": true,
        "id": 58410083,
        "last_rank": 37589,
        "player_name": "mihir hombalkar",
        "rank": 27246,
        "rank_sort": 27397,
        "total": 2371
      },
      {
        "club_badge_src": null,
        "entry": 7312660,
        "entry_name": "Rush",
        "event_total": 73,
        "has_played": true,
        "id": 59195249,
        "last_rank": 45252,
        "player_name": "Russell Omotayo",
        "rank": 27246,
        "rank_sort": 27398,
        "total": 2371
      },
      {
        "club_badge_src": null,
        "entry": 7544530,
        "entry_name": "Gerrard",
        "event_total": 65,
        "has_played": true,
        "id": 61762288,
        "last_rank": 30727,
        "player_name": "Ahmed Sultan",
        "rank": 27246,
        "rank_sort": 27399,
        "total": 2371
      },
      {
        "club_badge_src": null,
        "entry": 7703040,
        "entry_name": "edstein",
        "event_total": 69,
        "has_played": true,
        "id": 63198420,
        "last_rank": 40503,
        "player_name": "Edvard Myhr",
        "rank": 27246,
        "rank_sort": 27400,
        "total": 2371
      }
    ]
  }
}