{
  "last_updated_data": "2026-05-24T23:28:17Z",
  "league": {
    "admin_entry": null,
    "closed": false,
    "code_privacy": "p",
    "created": "2025-07-20T23:14:33.933835Z",
    "cup_league": 2815434,
    "has_cup": true,
    "id": 314,
    "league_type": "s",
    "max_entries": null,
    "name": "Overall",
    "rank": null,
    "scoring": "c",
    "start_event": 1
  },
  "new_entries": {
    "has_next": false,
    "page": 1,
    "results": []
  },
  "standings": {
    "has_next": true,
    "page": 834,
    "results": [
      {
        "club_badge_src": null,
        "entry": 1309804,
        "entry_name": "Rice Rice Baby",
        "event_total": 70,
        "has_played": true,
        "id": 9104297,
        "last_rank": 55014,
        "player_name": "Alex Greenfield",
        "rank": 41573,
        "rank_sort": 41651,
        "total": 2358
      },
      {
        "club_badge_src": null,
        "entry": 1376038,
        "entry_name": "Victory Delap",
        "event_total": 63,
        "has_played": true,
        "id": 9565297,
        "last_rank": 38774,
        "player_name": "Arly Kamholtz",
        "rank": 41573,
        "rank_sort": 41652,
        "total": 2358
      },
      {
        "club_badge_src": "https://fantasy.premierleague.com/gcs/plfpl-production-adobe-approved/plfpl-production/1392303/81e8c000-4135-4b3e-8eb8-f01ae593ceff.png",
        "entry": 1392303,
        "entry_name": "Hendendo 64",
        "event_total": 49,
        "has_played": true,
        "id": 9686002,
        "last_rank": 31995,
        "player_name": "Sam Jourdan",
        "rank": 41573,
        "rank_sort": 41653,
        "total": 2358
      },
      {
        "club_badge_src": null,
        "entry": 1403327,
        "entry_name": "\u674e\u8169Singh",
        "event_total": 66,
        "has_played": true,
        "id": 9764173,
        "last_rank": 55014,
        "player_name": "Marcus Tan",
        "rank": 41573,
        "rank_sort": 41654,
        "total": 2358
      },
      {
        "club_badge_src": null,
        "entry": 1476782,
        "entry_name": "HurSomHavertz",
        "event_total": 39,
        "has_played": true,
        "id": 10295337,
        "last_rank": 22685,
        "player_name": "Marcus Nordin",
        "rank": 41573,
        "rank_sort": 41655,
        "total": 2358
      },
      {
        "club_badge_src": null,
        "entry": 1539376,
        "entry_name": "Ottolini FC",
        "event_total": 42,
        "has_played": true,
        "id": 10743649,
        "last_rank": 25330,
        "player_name": "Gail beath",
        "rank": 41573,
        "rank_sort": 41656,
        "total": 2358
      },
      {
        "club_badge_src": null,
        "entry": 1545959,
        "entry_name": "kalobiralo11",
        "event_total": 60,
        "has_played": true,
        "id": 10793155,
        "last_rank": 45927,
        "player_name": "Madan Regmi",
        "rank": 41573,
        "rank_sort": 41657,
        "total": 2358
      },
      {
        "club_badge_src": null,
        "entry": 1774253,
        "entry_name": "Sharrocks 11",
        "event_total": 61,
        "has_played": true,
        "id": 12464042,
        "last_rank": 47417,
        "player_name": "Nathan Sharrock",
        "rank": 41573,
        "rank_sort": 41658,
        "total": 2358
      },
      {
        "club_badge_src": null,
        "entry": 1806208,
        "entry_name": "Darlow FC",
        "event_total": 61,
        "has_played": true,
        "id": 12698114,
        "last_rank": 46839,
        "player_name": "Sam Darlow",
        "rank": 41573,
        "rank_sort": 41659,
        "total": 2358
      },
      {
        "club_badge_src": null,
        "entry": 1826948,
        "entry_name": "Gy\u00f6 drive me keresy",
        "event_total": 67,
        "has_played": true,
        "id": 12850304,
        "last_rank": 50199,
        "player_name": "Jake Lampert",
        "rank": 41573,
        "rank_sort": 41660,
        "total": 2358
      },
      {
        "club_badge_src": null,
        "entry": 1910317,
        "entry_name": "Strand Heaven",
        "event_total": 58,
        "has_played": true,
        "id": 13468070,
        "last_rank": 43168,
        "player_name": "Bjarte Grindheim",
        "rank": 41573,
        "rank_sort": 41661,
        "total": 2358
      },
      {
        "club_badge_src": null,
        "entry": 1929844,
        "entry_name": "Ali Ahmed Fantasy",
        "event_total": 70,
        "has_played": true,
        "id": 13610878,
        "last_rank": 61950,
        "player_name": "Ali Ahmed",
        "rank": 41573,
        "rank_sort": 41662,
        "total": 2358
      },
      {
        "club_badge_src": null,
        "entry": 2043772,
        "entry_name": "Everybody Wirtz",
        "event_total": 64,
        "has_played": true,
        "id": 14473818,
        "last_rank": 45714,
        "player_name": "Matt Thompson",
        "rank": 41573,
        "rank_sort": 41663,
        "total": 2358
      },
      {
        "club_badge_src": "https://fantasy.premierleague.com/gcs/plfpl-production-adobe-approved/plfpl-production/2121436/f2b1b97a-e3e2-4b33-98c1-a9a50678a823.png",
        "entry": 2121436,
        "entry_name": "vonchester usydow",
        "event_total": 64,
        "has_played": true,
        "id": 15069625,
        "last_rank": 45714,
        "player_name": "William von Sydow",
        "rank": 41573,
        "rank_sort": 41664,
        "total": 2358
      },
      {
        "club_badge_src": null,
        "entry": 2135419,
        "entry_name": "PiLa La MakaLatasi",
        "event_total": 65,
        "has_played": true,
        "id": 15175778,
        "last_rank": 53621,
        "player_name": "Salum Kajuna",
        "rank": 41573,
        "rank_sort": 41665,
        "total": 2358
      },
      {
        "club_badge_src": null,
        "entry": 2161203,
        "entry_name": "Rayan Ready",
        "event_total": 60,
        "has_played": true,
        "id": 15363644,
        "last_rank": 45714,
        "player_name": "Gustaf Lembre",
        "rank": 41573,
        "rank_sort": 41666,
        "total": 2358
      },
      {
        "club_badge_src": null,
        "entry": 2182543,
        "entry_name": "Cold Palmer",
        "event_total": 69,
        "has_played": true,
        "id": 15524321,
        "last_rank": 60168,
        "player_name": "Davin Hong",
        "rank": 41573,
        "rank_sort": 41667,
        "total": 2358
      },
      {
        "club_badge_src": null,
        "entry": 2187270,
        "entry_name": "Cunha Believe It?",
        "event_total": 66,
        "has_played": true,
        "id": 15560002,
        "last_rank": 55311,
        "player_name": "Jed Phillips",
        "rank": 41573,
        "rank_sort": 41668,
        "total": 2358
      },
      {
        "club_badge_src": "https://fantasy.premierleague.com/gcs/plfpl-production-adobe-approved/plfpl-production/2254753/e4a0c687-c69e-4148-a13e-0e65b00c4585.png",
        "entry": 2254753,
        "entry_name": "Big Bad Birds",
        "event_total": 55,
        "has_played": true,
        "id": 16072343,
        "last_rank": 39246,
        "player_name": "Patricio Campbell",
        "rank": 41573,
        "rank_sort": 41669,
        "total": 2358
      },
      {
        "club_badge_src": null,
        "entry": 2294635,
        "entry_name": "Bobbylon5",
        "event_total": 50,
        "has_played": true,
        "id": 16365390,
        "last_rank": 33332,
        "player_name": "Joakim Fredriksen",
        "rank": 41573,
        "rank_sort": 41670,
        "total": 2358
      },
      {
        "club_badge_src": null,
        "entry": 2361413,
        "entry_name": "Teinebakken IF",
        "event_total": 70,
        "has_played": true,
        "id": 16852866,
        "last_rank": 61606,
        "player_name": "Mikael Meland",
        "rank": 41573,
        "rank_sort": 41671,
        "total": 2358
      },
      {
        "club_badge_src": null,
        "entry": 2379684,
        "entry_name": "Helmers h\u00e4star",
        "event_total": 55,
        "has_played": true,
        "id": 16992000,
        "last_rank": 39023,
        "player_name": "Patrik Helmersson",
        "rank": 41573,
        "rank_sort": 41672,
        "total": 2358
      },
      {
        "club_badge_src": null,
        "entry": 2383012,
        "entry_name": "Fk Ni\u0161",
        "event_total": 65,
        "has_played": true,
        "id": 17017043,
        "last_rank": 53621,
        "player_name": "And Din",
        "rank": 41573,
        "rank_sort": 41673,
        "total": 2358
      },
      {
        "club_badge_src": null,
        "entry": 2406113,
        "entry_name": "Udogie Boogie",
        "event_total": 64,
        "has_played": true,
        "id": 17198249,
        "last_rank": 51720,
        "player_name": "Daniel Jackson",
        "rank": 41573,
        "rank_sort": 41674,
        "total": 2358
      },
      {
        "club_badge_src": "https://fantasy.premierleague.com/gcs/plfpl-production-adobe-approved/plfpl-production/2432325/37e28e6f-38e3-4a9e-a3fd-c1f8cbf51ff8.png",
        "entry": 2432325,
        "entry_name": "Just Like Heaven",
        "event_total": 62,
        "has_played": true,
        "id": 17392878,
        "last_rank": 48898,
        "player_name": "Elliot Jones",
        "rank": 41573,
        "rank_sort": 41675,
        "total": 2358
      },
      {
        "club_badge_src": null,
        "entry": 2493964,
        "entry_name": "Shan's Red Devils",
        "event_total": 72,
        "has_played": true,
        "id": 17854855,
        "last_rank": 58388,
        "player_name": "Shanil Vaghela",
        "rank": 41573,
        "rank_sort": 41676,
        "total": 2358
      },
      {
        "club_badge_src": null,
        "entry": 2693442,
        "entry_name": "Fastest Delap",
        "event_total": 60,
        "has_played": true,
        "id": 19374026,
        "last_rank": 45714,
        "player_name": "Jack Colman",
        "rank": 41573,
        "rank_sort": 41677,
        "total": 2358
      },
      {
        "club_badge_src": null,
        "entry": 2705464,
        "entry_name": "INEOS FC",
        "event_total": 67,
        "has_played": true,
        "id": 19464011,
        "last_rank": 57001,
        "player_name": "Ralph Szakacs",
        "rank": 41573,
        "rank_sort": 41678,
        "total": 2358
      },
      {
        "club_badge_src": null,
        "entry": 2851336,
        "entry_name": "Bring Me The Horizon",
        "event_total": 60,
        "has_played": true,
        "id": 20847984,
        "last_rank": 45927,
        "player_name": "Biwesh Gurung",
        "rank": 41573,
        "rank_sort": 41679,
        "total": 2358
      },
      {
        "club_badge_src": null,
        "entry": 2896731,
        "entry_name": "doyon",
        "event_total": 44,
        "has_played": true,
        "id": 21224293,
        "last_rank": 27304,
        "player_name": "Calle Doyon",
        "rank": 41573,
        "rank_sort": 41680,
        "total": 2358
      },
      {
        "club_badge_src": null,
        "entry": 3087863,
        "entry_name": "Rice \u2018n\u2019 Shine",
        "event_total": 41,
        "has_played": true,
        "id": 22751205,
        "last_rank": 24475,
        "player_name": "Harry Wilson",
        "rank": 41573,
        "rank_sort": 41681,
        "total": 2358
      },
      {
        "club_badge_src": null,
        "entry": 3152239,
        "entry_name": "Keens as Mustard",
        "event_total": 62,
        "has_played": true,
        "id": 23279804,
        "last_rank": 48898,
        "player_name": "Chris Keens",
        "rank": 41573,
        "rank_sort": 41682,
        "total": 2358
      },
      {
        "club_badge_src": null,
        "entry": 3234075,
        "entry_name": "Saka Spuds",
        "event_total": 65,
        "has_played": true,
        "id": 23919673,
        "last_rank": 53621,
        "player_name": "Owen Hay",
        "rank": 41573,
        "rank_sort": 41683,
        "total": 2358
      },
      {
        "club_badge_src": null,
        "entry": 3242345,
        "entry_name": "Boom Xhaka Laka",
        "event_total": 60,
        "has_played": true,
        "id": 23983675,
        "last_rank": 45714,
        "player_name": "Dominic Cooke",
        "rank": 41573,
        "rank_sort": 41684,
        "total": 2358
      },
      {
        "club_badge_src": null,
        "entry": 3265484,
        "entry_name": "The Tigres",
        "event_total": 58,
        "has_played": true,
        "id": 24163174,
        "last_rank": 43168,
        "player_name": "Tony Abreu",
        "rank": 41573,
        "rank_sort": 41685,
        "total": 2358
      },
      {
        "club_badge_src": null,
        "entry": 3290610,
        "entry_name": "AL AIN DNA",
        "event_total": 57,
        "has_played": true,
        "id": 24363291,
        "last_rank": 41824,
        "player_name": "AlAin DNA",
        "rank": 41573,
        "rank_sort": 41686,
        "total": 2358
      },
      {
        "club_badge_src": "https://fantasy.premierleague.com/gcs/plfpl-production-adobe-approved/plfpl-production/3361071/0691c4da-773e-46e0-a0d9-5c721432b076.png",
        "entry": 3361071,
        "entry_name": "Aidahar 2.0",
        "event_total": 66,
        "has_played": true,
        "id": 24938831,
        "last_rank": 48642,
        "player_name": "Evgenii Tsimerman",
        "rank": 41573,
        "rank_sort": 41687,
        "total": 2358
      },
      {
        "club_badge_src": null,
        "entry": 3457979,
        "entry_name": "Kell Plan FC",
        "event_total": 54,
        "has_played": true,
        "id": 25702336,
        "last_rank": 38016,
        "player_name": "steven kell",
        "rank": 41573,
        "rank_sort": 41688,
        "total": 2358
      },
      {
        "club_badge_src": "https://fantasy.premierleague.com/gcs/plfpl-production-adobe-approved/plfpl-production/3518588/83a57928-f90d-4250-8eb9-8d42d3bfc9d7.png",
        "entry": 3518588,
        "entry_name": "FC Bax",
        "event_total": 36,
        "has_played": true,
        "id": 26184473,
        "last_rank": 20538,
        "player_name": "Alexander Baxevanis",
        "rank": 41573,
        "rank_sort": 41689,
        "total": 2358
      },
      {
        "club_badge_src": null,
        "entry": 3731417,
        "entry_name": "Elanga Issues",
        "event_total": 60,
        "has_played": true,
        "id": 27851493,
        "last_rank": 45416,
        "player_name": "Kristian Martin",
        "rank": 41573,
        "rank_sort": 41690,
        "total": 2358
      },
      {
        "club_badge_src": null,
        "entry": 3744545,
        "entry_name": "skrrt",
        "event_total": 68,
        "has_played": true,
        "id": 27953304,
        "last_rank": 58388,
        "player_name": "mathias b\u00f8hn-lie",
        "rank": 41573,
        "rank_sort": 41691,
        "total": 2358
      },
      {
        "club_badge_src": null,
        "entry": 3772492,
        "entry_name": "TEE",
        "event_total": 52,
        "has_played": true,
        "id": 28167868,
        "last_rank": 30957,
        "player_name": "TEE TANG",
        "rank": 41573,
        "rank_sort": 41692,
        "total": 2358
      },
      {
        "club_badge_src": null,
        "entry": 3849500,
        "entry_name": "XhakaLacaSaka Booms",
        "event_total": 49,
        "has_played": true,
        "id": 28855755,
        "last_rank": 31995,
        "player_name": "Joshua Martin",
        "rank": 41573,
        "rank_sort": 41693,
        "total": 2358
      },
      {
        "club_badge_src": null,
        "entry": 3858213,
        "entry_name": "\u00d8ksfjord IL",
        "event_total": 69,
        "has_played": true,
        "id": 28926632,
        "last_rank": 60168,
        "player_name": "Olav Johansen",
        "rank": 41573,
        "rank_sort": 41694,
        "total": 2358
      },
      {
        "club_badge_src": null,
        "entry": 3913988,
        "entry_name": "Team JB",
        "event_total": 66,
        "has_played": true,
        "id": 29429468,
        "last_rank": 55311,
        "player_name": "Johnny Brand",
        "rank": 41573,
        "rank_sort": 41695,
        "total": 2358
      },
      {
        "club_badge_src": null,
        "entry": 3941298,
        "entry_name": "L\u00f8ten FC",
        "event_total": 65,
        "has_played": true,
        "id": 29648044,
        "last_rank": 47163,
        "player_name": "Benjamin Loudini",
        "rank": 41573,
        "rank_sort": 41696,
        "total": 2358
      },
      {
        "club_badge_src": null,
        "entry": 3949365,
        "entry_name": "Gy\u00f6k + White = Egg",
        "event_total": 56,
        "has_played": true,
        "id": 29710764,
        "last_rank": 40503,
        "player_name": "Zachary Warmath",
        "rank": 41573,
        "rank_sort": 41697,
        "total": 2358
      },
      {
        "club_badge_src": null,
        "entry": 4014398,
        "entry_name": "Saka Potatoes",
        "event_total": 52,
        "has_played": true,
        "id": 30251176,
        "last_rank": 35619,
        "player_name": "Henry Levey",
        "rank": 41573,
        "rank_sort": 41698,
        "total": 2358
      },
      {
        "club_badge_src": null,
        "entry": 4024863,
        "entry_name": "Merida's Magic 11",
        "event_total": 60,
        "has_played": true,
        "id": 30337908,
        "last_rank": 45927,
        "player_name": "Lorraine Kenny",
        "rank": 41573,
        "rank_sort": 41699,
        "total": 2358
      },
      {
        "club_badge_src": null,
        "entry": 4031772,
        "entry_name": "DMT FC",
        "event_total": 68,
        "has_played": true,
        "id": 30395477,
        "last_rank": 51720,
        "player_name": "Amine DMT",
        "rank": 41573,
        "rank_sort": 41700,
        "total": 2358
      }
    ]
  }
}