{
  "last_updated_data": "2026-05-24T23:28:17Z",
  "league": {
    "admin_entry": null,
    "closed": false,
    "code_privacy": "p",
    "created": "2025-07-20T23:14:33.933835Z",
    "cup_league": 2815434,
    "has_cup": true,
    "id": 314,
    "league_type": "s",
    "max_entries": null,
    "name": "Overall",
    "rank": null,
    "scoring": "c",
    "start_event": 1
  },
  "new_entries": {
    "has_next": false,
    "page": 1,
    "results": []
  },
  "standings": {
    "has_next": true,
    "page": 389,
    "results": [
      {
        "club_badge_src": null,
        "entry": 2391086,
        "entry_name": "Gakpocalypse Now",
        "event_total": 49,
        "has_played": true,
        "id": 17080222,
        "last_rank": 13821,
        "player_name": "Preben Vigsnes",
        "rank": 19319,
        "rank_sort": 19401,
        "total": 2381
      },
      {
        "club_badge_src": null,
        "entry": 2587378,
        "entry_name": "gg",
        "event_total": 74,
        "has_played": true,
        "id": 18574471,
        "last_rank": 34051,
        "player_name": "Gergely Jenofi",
        "rank": 19319,
        "rank_sort": 19402,
        "total": 2381
      },
      {
        "club_badge_src": null,
        "entry": 2614758,
        "entry_name": "Ozzy FC",
        "event_total": 62,
        "has_played": true,
        "id": 18787117,
        "last_rank": 19544,
        "player_name": "Luke Porter",
        "rank": 19319,
        "rank_sort": 19403,
        "total": 2381
      },
      {
        "club_badge_src": null,
        "entry": 2769020,
        "entry_name": "Sauar25",
        "event_total": 37,
        "has_played": true,
        "id": 20203206,
        "last_rank": 8484,
        "player_name": "William Sauar",
        "rank": 19319,
        "rank_sort": 19404,
        "total": 2381
      },
      {
        "club_badge_src": null,
        "entry": 2805754,
        "entry_name": "Ntatsi FC",
        "event_total": 60,
        "has_played": true,
        "id": 20489909,
        "last_rank": 20888,
        "player_name": "Alexi Mantatzis",
        "rank": 19319,
        "rank_sort": 19405,
        "total": 2381
      },
      {
        "club_badge_src": null,
        "entry": 2811115,
        "entry_name": "Bringing Cescy Back",
        "event_total": 55,
        "has_played": true,
        "id": 20531850,
        "last_rank": 17437,
        "player_name": "Isaac Wirth",
        "rank": 19319,
        "rank_sort": 19406,
        "total": 2381
      },
      {
        "club_badge_src": null,
        "entry": 2881045,
        "entry_name": "He\u2019sTooSeskoForHisSh",
        "event_total": 67,
        "has_played": true,
        "id": 21090629,
        "last_rank": 23341,
        "player_name": "Diane Deme",
        "rank": 19319,
        "rank_sort": 19407,
        "total": 2381
      },
      {
        "club_badge_src": null,
        "entry": 2894461,
        "entry_name": "Wirtz Nightmare",
        "event_total": 69,
        "has_played": true,
        "id": 21204911,
        "last_rank": 28546,
        "player_name": "Dhruv Saboo",
        "rank": 19319,
        "rank_sort": 19408,
        "total": 2381
      },
      {
        "club_badge_src": null,
        "entry": 2928534,
        "entry_name": "helt killer",
        "event_total": 69,
        "has_played": true,
        "id": 21470310,
        "last_rank": 24897,
        "player_name": "Thoai Do",
        "rank": 19319,
        "rank_sort": 19409,
        "total": 2381
      },
      {
        "club_badge_src": null,
        "entry": 2999953,
        "entry_name": "Auto Glazer Repair",
        "event_total": 61,
        "has_played": true,
        "id": 22065716,
        "last_rank": 21775,
        "player_name": "Zoe Thornton",
        "rank": 19319,
        "rank_sort": 19410,
        "total": 2381
      },
      {
        "club_badge_src": null,
        "entry": 3006335,
        "entry_name": "Onanas in Pyjamas",
        "event_total": 44,
        "has_played": true,
        "id": 22114415,
        "last_rank": 11237,
        "player_name": "Umer Javed",
        "rank": 19319,
        "rank_sort": 19411,
        "total": 2381
      },
      {
        "club_badge_src": null,
        "entry": 3055563,
        "entry_name": "Slotting Goals",
        "event_total": 63,
        "has_played": true,
        "id": 22495507,
        "last_rank": 23341,
        "player_name": "Brian Jensen",
        "rank": 19319,
        "rank_sort": 19412,
        "total": 2381
      },
      {
        "club_badge_src": null,
        "entry": 3096519,
        "entry_name": "Pep Fraudiola",
        "event_total": 42,
        "has_played": true,
        "id": 22822262,
        "last_rank": 10462,
        "player_name": "Tomas Vrielink",
        "rank": 19319,
        "rank_sort": 19413,
        "total": 2381
      },
      {
        "club_badge_src": "https://fantasy.premierleague.com/gcs/plfpl-production-adobe-approved/plfpl-production/3191815/f779efc2-f7af-4225-89f6-66e23596bca7.png",
        "entry": 3191815,
        "entry_name": "Class of 99",
        "event_total": 57,
        "has_played": true,
        "id": 23589245,
        "last_rank": 18985,
        "player_name": "Md Rajib Rayhan",
        "rank": 19319,
        "rank_sort": 19414,
        "total": 2381
      },
      {
        "club_badge_src": "https://fantasy.premierleague.com/gcs/plfpl-production-adobe-approved/plfpl-production/3194745/cc643c0b-62ba-43bb-8ebc-99a4c66f5f05.png",
        "entry": 3194745,
        "entry_name": "F\u00e4lleben",
        "event_total": 63,
        "has_played": true,
        "id": 23613318,
        "last_rank": 23522,
        "player_name": "Joacim Holm",
        "rank": 19319,
        "rank_sort": 19415,
        "total": 2381
      },
      {
        "club_badge_src": null,
        "entry": 3342940,
        "entry_name": "Soccer FC",
        "event_total": 73,
        "has_played": true,
        "id": 24796341,
        "last_rank": 32751,
        "player_name": "Lee Burford",
        "rank": 19319,
        "rank_sort": 19416,
        "total": 2381
      },
      {
        "club_badge_src": null,
        "entry": 3488390,
        "entry_name": "Marad\u00f6na BK",
        "event_total": 43,
        "has_played": true,
        "id": 25942268,
        "last_rank": 10920,
        "player_name": "Jakob Zetterstr\u00f6m",
        "rank": 19319,
        "rank_sort": 19417,
        "total": 2381
      },
      {
        "club_badge_src": null,
        "entry": 3535174,
        "entry_name": "Premier Leeds",
        "event_total": 65,
        "has_played": true,
        "id": 26312649,
        "last_rank": 25002,
        "player_name": "Nathan Cramb",
        "rank": 19319,
        "rank_sort": 19418,
        "total": 2381
      },
      {
        "club_badge_src": null,
        "entry": 3608390,
        "entry_name": "neekonjancha",
        "event_total": 56,
        "has_played": true,
        "id": 26878755,
        "last_rank": 18270,
        "player_name": "Arjun B Raj",
        "rank": 19319,
        "rank_sort": 19419,
        "total": 2381
      },
      {
        "club_badge_src": null,
        "entry": 3903688,
        "entry_name": "Allen\u2019s Openers",
        "event_total": 47,
        "has_played": true,
        "id": 29346285,
        "last_rank": 12705,
        "player_name": "Paul Allen",
        "rank": 19319,
        "rank_sort": 19420,
        "total": 2381
      },
      {
        "club_badge_src": null,
        "entry": 3959916,
        "entry_name": "Shawley Not",
        "event_total": 51,
        "has_played": true,
        "id": 29793571,
        "last_rank": 14926,
        "player_name": "Martin Smith",
        "rank": 19319,
        "rank_sort": 19421,
        "total": 2381
      },
      {
        "club_badge_src": null,
        "entry": 3976846,
        "entry_name": "Inter Woko",
        "event_total": 49,
        "has_played": true,
        "id": 29933189,
        "last_rank": 13947,
        "player_name": "Joe Walker",
        "rank": 19319,
        "rank_sort": 19422,
        "total": 2381
      },
      {
        "club_badge_src": null,
        "entry": 4048123,
        "entry_name": "Rozzy Athletic",
        "event_total": 51,
        "has_played": true,
        "id": 30534064,
        "last_rank": 15063,
        "player_name": "Kevin Rowsell",
        "rank": 19319,
        "rank_sort": 19423,
        "total": 2381
      },
      {
        "club_badge_src": null,
        "entry": 4203862,
        "entry_name": "Ajax Trees Down",
        "event_total": 61,
        "has_played": true,
        "id": 31823389,
        "last_rank": 21949,
        "player_name": "Jamie Whittington",
        "rank": 19319,
        "rank_sort": 19424,
        "total": 2381
      },
      {
        "club_badge_src": null,
        "entry": 4222928,
        "entry_name": "FC Melho",
        "event_total": 67,
        "has_played": true,
        "id": 31990222,
        "last_rank": 27020,
        "player_name": "Ahmed ahmed",
        "rank": 19319,
        "rank_sort": 19425,
        "total": 2381
      },
      {
        "club_badge_src": null,
        "entry": 4305714,
        "entry_name": "FC Lunk",
        "event_total": 60,
        "has_played": true,
        "id": 32667989,
        "last_rank": 21159,
        "player_name": "Fredrik Lundgren",
        "rank": 19319,
        "rank_sort": 19426,
        "total": 2381
      },
      {
        "club_badge_src": null,
        "entry": 4311367,
        "entry_name": "Pint&Paquet\u00e1 Packet",
        "event_total": 68,
        "has_played": true,
        "id": 32713663,
        "last_rank": 27770,
        "player_name": "Elliott Keeling",
        "rank": 19319,
        "rank_sort": 19427,
        "total": 2381
      },
      {
        "club_badge_src": null,
        "entry": 4317838,
        "entry_name": "\u0631\u0645\u0636\u0627\u0646 \u0645\u062d\u0645\u062f",
        "event_total": 48,
        "has_played": true,
        "id": 32766711,
        "last_rank": 13500,
        "player_name": "Ramadan Mohamed El Arganteny",
        "rank": 19319,
        "rank_sort": 19428,
        "total": 2381
      },
      {
        "club_badge_src": null,
        "entry": 4403196,
        "entry_name": "Disposable Heroes",
        "event_total": 64,
        "has_played": true,
        "id": 33489281,
        "last_rank": 20983,
        "player_name": "Sahil Uttam",
        "rank": 19319,
        "rank_sort": 19429,
        "total": 2381
      },
      {
        "club_badge_src": null,
        "entry": 4405096,
        "entry_name": "Obi Wan Kenobi Six",
        "event_total": 50,
        "has_played": true,
        "id": 33505303,
        "last_rank": 14496,
        "player_name": "Gavin Sneddon",
        "rank": 19319,
        "rank_sort": 19430,
        "total": 2381
      },
      {
        "club_badge_src": "https://fantasy.premierleague.com/gcs/plfpl-production-adobe-approved/plfpl-production/4547492/a2238d1e-e06d-4581-9d7b-91d0384af648.png",
        "entry": 4547492,
        "entry_name": "Bottlepool Crumble",
        "event_total": 65,
        "has_played": true,
        "id": 34695471,
        "last_rank": 21775,
        "player_name": "Ste McGreal",
        "rank": 19319,
        "rank_sort": 19431,
        "total": 2381
      },
      {
        "club_badge_src": "https://fantasy.premierleague.com/gcs/plfpl-production-adobe-approved/plfpl-production/4733752/95b653ee-6d8c-498b-a9b8-e5132bcbe093.png",
        "entry": 4733752,
        "entry_name": "Hesham FC",
        "event_total": 52,
        "has_played": true,
        "id": 36420122,
        "last_rank": 15694,
        "player_name": "Hesham Abu Elenien",
        "rank": 19319,
        "rank_sort": 19432,
        "total": 2381
      },
      {
        "club_badge_src": null,
        "entry": 4883052,
        "entry_name": "Bowens Twins",
        "event_total": 48,
        "has_played": true,
        "id": 37644665,
        "last_rank": 13500,
        "player_name": "Jacob Lawrence",
        "rank": 19319,
        "rank_sort": 19433,
        "total": 2381
      },
      {
        "club_badge_src": null,
        "entry": 4951466,
        "entry_name": "Eze k\u2019Ibe ya",
        "event_total": 64,
        "has_played": true,
        "id": 38207276,
        "last_rank": 24330,
        "player_name": "Sima Nwanne",
        "rank": 19319,
        "rank_sort": 19434,
        "total": 2381
      },
      {
        "club_badge_src": null,
        "entry": 4981567,
        "entry_name": "Dice Rollers",
        "event_total": 59,
        "has_played": true,
        "id": 38454286,
        "last_rank": 17437,
        "player_name": "Ben Brookes",
        "rank": 19319,
        "rank_sort": 19435,
        "total": 2381
      },
      {
        "club_badge_src": null,
        "entry": 4983308,
        "entry_name": "Charli xGx",
        "event_total": 59,
        "has_played": true,
        "id": 38470183,
        "last_rank": 17437,
        "player_name": "Andrew O'Donnell",
        "rank": 19319,
        "rank_sort": 19436,
        "total": 2381
      },
      {
        "club_badge_src": null,
        "entry": 4987044,
        "entry_name": "Change Name",
        "event_total": 75,
        "has_played": true,
        "id": 38500197,
        "last_rank": 30727,
        "player_name": "Mihran Choudhury",
        "rank": 19319,
        "rank_sort": 19437,
        "total": 2381
      },
      {
        "club_badge_src": null,
        "entry": 4990283,
        "entry_name": "Reece and Release",
        "event_total": 69,
        "has_played": true,
        "id": 38526375,
        "last_rank": 28609,
        "player_name": "Emil Dal",
        "rank": 19319,
        "rank_sort": 19438,
        "total": 2381
      },
      {
        "club_badge_src": null,
        "entry": 5268622,
        "entry_name": "Jose M.",
        "event_total": 60,
        "has_played": true,
        "id": 40835323,
        "last_rank": 21159,
        "player_name": "Arseniy Zigangirov",
        "rank": 19319,
        "rank_sort": 19439,
        "total": 2381
      },
      {
        "club_badge_src": null,
        "entry": 5270280,
        "entry_name": "udogi3 style",
        "event_total": 49,
        "has_played": true,
        "id": 40847963,
        "last_rank": 13754,
        "player_name": "Fredrik Havn\u00e5s",
        "rank": 19319,
        "rank_sort": 19440,
        "total": 2381
      },
      {
        "club_badge_src": null,
        "entry": 5332848,
        "entry_name": "G.A.S",
        "event_total": 63,
        "has_played": true,
        "id": 41343335,
        "last_rank": 23341,
        "player_name": "Juha Tuomi",
        "rank": 19319,
        "rank_sort": 19441,
        "total": 2381
      },
      {
        "club_badge_src": null,
        "entry": 5343722,
        "entry_name": "Testigos de Palmer",
        "event_total": 74,
        "has_played": true,
        "id": 41454370,
        "last_rank": 33936,
        "player_name": "Eduardo Brandt",
        "rank": 19319,
        "rank_sort": 19442,
        "total": 2381
      },
      {
        "club_badge_src": null,
        "entry": 5696905,
        "entry_name": "Clapham Irons",
        "event_total": 60,
        "has_played": true,
        "id": 44601724,
        "last_rank": 21159,
        "player_name": "Babloo Ramamurthy",
        "rank": 19319,
        "rank_sort": 19443,
        "total": 2381
      },
      {
        "club_badge_src": null,
        "entry": 5905145,
        "entry_name": "Gib Hammered",
        "event_total": 55,
        "has_played": true,
        "id": 46397182,
        "last_rank": 17585,
        "player_name": "Ian Felice",
        "rank": 19319,
        "rank_sort": 19444,
        "total": 2381
      },
      {
        "club_badge_src": null,
        "entry": 5982340,
        "entry_name": "Grabbatasaray",
        "event_total": 50,
        "has_played": true,
        "id": 47109501,
        "last_rank": 14292,
        "player_name": "Emil Rostedt",
        "rank": 19319,
        "rank_sort": 19445,
        "total": 2381
      },
      {
        "club_badge_src": null,
        "entry": 6009676,
        "entry_name": "The Highs and Dalots",
        "event_total": 52,
        "has_played": true,
        "id": 47383946,
        "last_rank": 15550,
        "player_name": "Jordi Serra",
        "rank": 19319,
        "rank_sort": 19446,
        "total": 2381
      },
      {
        "club_badge_src": null,
        "entry": 6066302,
        "entry_name": "UEFA Champs",
        "event_total": 64,
        "has_played": true,
        "id": 47880996,
        "last_rank": 24330,
        "player_name": "Peter Riddell Carre",
        "rank": 19319,
        "rank_sort": 19447,
        "total": 2381
      },
      {
        "club_badge_src": null,
        "entry": 6197833,
        "entry_name": "pintalo de amarillo",
        "event_total": 45,
        "has_played": true,
        "id": 49026607,
        "last_rank": 11901,
        "player_name": "Jayden Westmoreland",
        "rank": 19319,
        "rank_sort": 19448,
        "total": 2381
      },
      {
        "club_badge_src": "https://fantasy.premierleague.com/gcs/plfpl-production-adobe-approved/plfpl-production/6348218/80787887-eadb-4c99-a3a1-7f69eeeb6141.png",
        "entry": 6348218,
        "entry_name": "Broadside FC",
        "event_total": 53,
        "has_played": true,
        "id": 50461747,
        "last_rank": 16163,
        "player_name": "Chris Broad",
        "rank": 19319,
        "rank_sort": 19449,
        "total": 2381
      },
      {
        "club_badge_src": null,
        "entry": 6392218,
        "entry_name": "Mainoo Leny Sabki",
        "event_total": 63,
        "has_played": true,
        "id": 50849469,
        "last_rank": 23341,
        "player_name": "Ninad Singh",
        "rank": 19319,
        "rank_sort": 19450,
        "total": 2381
      }
    ]
  }
}