{
  "last_updated_data": "2026-05-24T23:28:17Z",
  "league": {
    "admin_entry": null,
    "closed": false,
    "code_privacy": "p",
    "created": "2025-07-20T23:14:33.933835Z",
    "cup_league": 2815434,
    "has_cup": true,
    "id": 314,
    "league_type": "s",
    "max_entries": null,
    "name": "Overall",
    "rank": null,
    "scoring": "c",
    "start_event": 1
  },
  "new_entries": {
    "has_next": false,
    "page": 1,
    "results": []
  },
  "standings": {
    "has_next": true,
    "page": 1294,
    "results": [
      {
        "club_badge_src": null,
        "entry": 1192887,
        "entry_name": "Gy\u00f6keres To Impress",
        "event_total": 61,
        "has_played": true,
        "id": 8276686,
        "last_rank": 65163,
        "player_name": "Kyle Malec",
        "rank": 64538,
        "rank_sort": 64651,
        "total": 2343
      },
      {
        "club_badge_src": "https://fantasy.premierleague.com/gcs/plfpl-production-adobe-approved/plfpl-production/1202506/d4f4cb43-c367-4157-a913-a9b6a4499e18.png",
        "entry": 1202506,
        "entry_name": "ThomasTheFrankEngine",
        "event_total": 58,
        "has_played": true,
        "id": 8344799,
        "last_rank": 67422,
        "player_name": "coran bevan",
        "rank": 64538,
        "rank_sort": 64652,
        "total": 2343
      },
      {
        "club_badge_src": "https://fantasy.premierleague.com/gcs/plfpl-production-adobe-approved/plfpl-production/1206373/6e4a29ca-b73e-453b-ae20-aeb4eb05becd.png",
        "entry": 1206373,
        "entry_name": "Peaky Reijnders",
        "event_total": 58,
        "has_played": true,
        "id": 8372050,
        "last_rank": 59632,
        "player_name": "Ryan Madge",
        "rank": 64538,
        "rank_sort": 64653,
        "total": 2343
      },
      {
        "club_badge_src": null,
        "entry": 1212119,
        "entry_name": "REDMOONSUN",
        "event_total": 71,
        "has_played": true,
        "id": 8413304,
        "last_rank": 95890,
        "player_name": "Rabin Rijal",
        "rank": 64538,
        "rank_sort": 64654,
        "total": 2343
      },
      {
        "club_badge_src": null,
        "entry": 1235496,
        "entry_name": "Adriatic Athletic",
        "event_total": 62,
        "has_played": true,
        "id": 8579479,
        "last_rank": 75537,
        "player_name": "Michelle Hambleton",
        "rank": 64538,
        "rank_sort": 64655,
        "total": 2343
      },
      {
        "club_badge_src": null,
        "entry": 1284056,
        "entry_name": "GDL Hadjimatheou",
        "event_total": 57,
        "has_played": true,
        "id": 8922500,
        "last_rank": 64830,
        "player_name": "Michalis Chatzimatthaiou",
        "rank": 64538,
        "rank_sort": 64656,
        "total": 2343
      },
      {
        "club_badge_src": null,
        "entry": 1287738,
        "entry_name": "Gy\u00f6k Tuah",
        "event_total": 64,
        "has_played": true,
        "id": 8948217,
        "last_rank": 79817,
        "player_name": "Fergus Wilson",
        "rank": 64538,
        "rank_sort": 64657,
        "total": 2343
      },
      {
        "club_badge_src": null,
        "entry": 1299850,
        "entry_name": "Best team on paper",
        "event_total": 64,
        "has_played": true,
        "id": 9033861,
        "last_rank": 70985,
        "player_name": "Joseph Nicholson",
        "rank": 64538,
        "rank_sort": 64658,
        "total": 2343
      },
      {
        "club_badge_src": "https://fantasy.premierleague.com/gcs/plfpl-production-adobe-approved/plfpl-production/1303613/0a6387bd-7bdc-4601-af55-860a102c5383.png",
        "entry": 1303613,
        "entry_name": "De Nette Jongens",
        "event_total": 61,
        "has_played": true,
        "id": 9060382,
        "last_rank": 73423,
        "player_name": "Koen Vrielink",
        "rank": 64538,
        "rank_sort": 64659,
        "total": 2343
      },
      {
        "club_badge_src": "https://fantasy.premierleague.com/gcs/plfpl-production-adobe-approved/plfpl-production/1397017/f4c57a79-8af4-4b42-860f-7c1dcd9f83e0.png",
        "entry": 1397017,
        "entry_name": "Kingofb\ufffdoiz",
        "event_total": 55,
        "has_played": true,
        "id": 9719102,
        "last_rank": 54667,
        "player_name": "Simeon Chigozie",
        "rank": 64538,
        "rank_sort": 64660,
        "total": 2343
      },
      {
        "club_badge_src": null,
        "entry": 1400289,
        "entry_name": "The Stretford Enders",
        "event_total": 64,
        "has_played": true,
        "id": 9742407,
        "last_rank": 79817,
        "player_name": "Paul Crook",
        "rank": 64538,
        "rank_sort": 64661,
        "total": 2343
      },
      {
        "club_badge_src": "https://fantasy.premierleague.com/gcs/plfpl-production-adobe-approved/plfpl-production/1408859/583badf0-55c9-42b7-8e3b-752fb0927596.png",
        "entry": 1408859,
        "entry_name": "Mo Nouveau",
        "event_total": 61,
        "has_played": true,
        "id": 9803177,
        "last_rank": 73423,
        "player_name": "Simon Kaye",
        "rank": 64538,
        "rank_sort": 64662,
        "total": 2343
      },
      {
        "club_badge_src": "https://fantasy.premierleague.com/gcs/plfpl-production-adobe-approved/plfpl-production/1424731/8b50c640-bd6d-435d-86f8-4c37880f08a1.png",
        "entry": 1424731,
        "entry_name": "Slot drop",
        "event_total": 51,
        "has_played": true,
        "id": 9926396,
        "last_rank": 55311,
        "player_name": "Paul Swarbrick",
        "rank": 64538,
        "rank_sort": 64663,
        "total": 2343
      },
      {
        "club_badge_src": null,
        "entry": 1444255,
        "entry_name": "Gadbriel Magalh\u00e3es",
        "event_total": 51,
        "has_played": true,
        "id": 10063869,
        "last_rank": 48363,
        "player_name": "James Gadd",
        "rank": 64538,
        "rank_sort": 64664,
        "total": 2343
      },
      {
        "club_badge_src": null,
        "entry": 1542610,
        "entry_name": "7mada\u261d\ufe0f",
        "event_total": 42,
        "has_played": true,
        "id": 10767253,
        "last_rank": 41617,
        "player_name": "Mohamed -Hamdy",
        "rank": 64538,
        "rank_sort": 64665,
        "total": 2343
      },
      {
        "club_badge_src": null,
        "entry": 1576779,
        "entry_name": "Restored",
        "event_total": 62,
        "has_played": true,
        "id": 11018044,
        "last_rank": 75139,
        "player_name": "Louise Good",
        "rank": 64538,
        "rank_sort": 64666,
        "total": 2343
      },
      {
        "club_badge_src": null,
        "entry": 1593055,
        "entry_name": "Onana Wirtz My Name",
        "event_total": 66,
        "has_played": true,
        "id": 11140763,
        "last_rank": 75139,
        "player_name": "ABDUL KHAN",
        "rank": 64538,
        "rank_sort": 64667,
        "total": 2343
      },
      {
        "club_badge_src": null,
        "entry": 1597080,
        "entry_name": "Any Griezmann?",
        "event_total": 52,
        "has_played": true,
        "id": 11172215,
        "last_rank": 49880,
        "player_name": "Jack French",
        "rank": 64538,
        "rank_sort": 64668,
        "total": 2343
      },
      {
        "club_badge_src": null,
        "entry": 1599708,
        "entry_name": "itchisac",
        "event_total": 61,
        "has_played": true,
        "id": 11190934,
        "last_rank": 73423,
        "player_name": "Philip Heywood",
        "rank": 64538,
        "rank_sort": 64669,
        "total": 2343
      },
      {
        "club_badge_src": null,
        "entry": 1684123,
        "entry_name": "Senandung Damai",
        "event_total": 67,
        "has_played": true,
        "id": 11789274,
        "last_rank": 86735,
        "player_name": "Rocks D Xebec",
        "rank": 64538,
        "rank_sort": 64670,
        "total": 2343
      },
      {
        "club_badge_src": "https://fantasy.premierleague.com/gcs/plfpl-production-adobe-approved/plfpl-production/1707253/fd02d90a-2574-4e72-9e14-3ea5e4dee354.png",
        "entry": 1707253,
        "entry_name": "Minus Kha FC",
        "event_total": 58,
        "has_played": true,
        "id": 11960829,
        "last_rank": 67063,
        "player_name": "Shadman Sakib Apurba",
        "rank": 64538,
        "rank_sort": 64671,
        "total": 2343
      },
      {
        "club_badge_src": "https://fantasy.premierleague.com/gcs/plfpl-production-adobe-approved/plfpl-production/1712126/adc02bc0-b9f6-436e-8bae-d644cb0a66e5.png",
        "entry": 1712126,
        "entry_name": "Ekitike Backwards",
        "event_total": 52,
        "has_played": true,
        "id": 11996628,
        "last_rank": 56708,
        "player_name": "Niki Caruana",
        "rank": 64538,
        "rank_sort": 64672,
        "total": 2343
      },
      {
        "club_badge_src": null,
        "entry": 1716700,
        "entry_name": "I'm a Baleba",
        "event_total": 37,
        "has_played": true,
        "id": 12030498,
        "last_rank": 35424,
        "player_name": "Ben Isaacs",
        "rank": 64538,
        "rank_sort": 64673,
        "total": 2343
      },
      {
        "club_badge_src": null,
        "entry": 1725282,
        "entry_name": "badfellas",
        "event_total": 53,
        "has_played": true,
        "id": 12098519,
        "last_rank": 58071,
        "player_name": "Dimitris Varsamis",
        "rank": 64538,
        "rank_sort": 64674,
        "total": 2343
      },
      {
        "club_badge_src": null,
        "entry": 1764294,
        "entry_name": "SOCCER 101",
        "event_total": 67,
        "has_played": true,
        "id": 12390273,
        "last_rank": 86304,
        "player_name": "El Skipo",
        "rank": 64538,
        "rank_sort": 64675,
        "total": 2343
      },
      {
        "club_badge_src": null,
        "entry": 1777875,
        "entry_name": "Beef Cherki",
        "event_total": 53,
        "has_played": true,
        "id": 12490164,
        "last_rank": 58388,
        "player_name": "Will Ives",
        "rank": 64538,
        "rank_sort": 64676,
        "total": 2343
      },
      {
        "club_badge_src": null,
        "entry": 1834042,
        "entry_name": "Isak, back and crack",
        "event_total": 52,
        "has_played": true,
        "id": 12901660,
        "last_rank": 56708,
        "player_name": "Rob McNeil",
        "rank": 64538,
        "rank_sort": 64677,
        "total": 2343
      },
      {
        "club_badge_src": null,
        "entry": 1838887,
        "entry_name": "Castle Gunners",
        "event_total": 50,
        "has_played": true,
        "id": 12936992,
        "last_rank": 53621,
        "player_name": "Marcus Le Doux",
        "rank": 64538,
        "rank_sort": 64678,
        "total": 2343
      },
      {
        "club_badge_src": null,
        "entry": 1848708,
        "entry_name": "Change Name",
        "event_total": 40,
        "has_played": true,
        "id": 13008437,
        "last_rank": 39023,
        "player_name": "Jayden Jagga",
        "rank": 64538,
        "rank_sort": 64679,
        "total": 2343
      },
      {
        "club_badge_src": null,
        "entry": 1862073,
        "entry_name": "Fam\u00edlia Serafim FC",
        "event_total": 58,
        "has_played": true,
        "id": 13106218,
        "last_rank": 67422,
        "player_name": "Marcos Vinicius Severino",
        "rank": 64538,
        "rank_sort": 64680,
        "total": 2343
      },
      {
        "club_badge_src": null,
        "entry": 1879463,
        "entry_name": "Tactical Slot",
        "event_total": 51,
        "has_played": true,
        "id": 13241515,
        "last_rank": 48197,
        "player_name": "Nicholas Rall",
        "rank": 64538,
        "rank_sort": 64681,
        "total": 2343
      },
      {
        "club_badge_src": "https://fantasy.premierleague.com/gcs/plfpl-production-adobe-approved/plfpl-production/1986721/26342b6f-0c50-4271-9740-1dad146b06e9.png",
        "entry": 1986721,
        "entry_name": "Dance Off Bro",
        "event_total": 70,
        "has_played": true,
        "id": 14034147,
        "last_rank": 83934,
        "player_name": "Ben Curling",
        "rank": 64538,
        "rank_sort": 64682,
        "total": 2343
      },
      {
        "club_badge_src": "https://fantasy.premierleague.com/gcs/plfpl-production-adobe-approved/plfpl-production/2066282/cdb83120-56be-44ca-8138-ca2816ea057e.png",
        "entry": 2066282,
        "entry_name": "BeckerTheNet",
        "event_total": 36,
        "has_played": true,
        "id": 14646593,
        "last_rank": 34293,
        "player_name": "Chris Waring",
        "rank": 64538,
        "rank_sort": 64683,
        "total": 2343
      },
      {
        "club_badge_src": null,
        "entry": 2075629,
        "entry_name": "Change Name",
        "event_total": 56,
        "has_played": true,
        "id": 14716292,
        "last_rank": 63724,
        "player_name": "Lucas Allen",
        "rank": 64538,
        "rank_sort": 64684,
        "total": 2343
      },
      {
        "club_badge_src": "https://fantasy.premierleague.com/gcs/plfpl-production-adobe-approved/plfpl-production/2127536/f2ce960b-4bde-43c1-a12a-c06669fcdf9b.png",
        "entry": 2127536,
        "entry_name": "ye jo baray baray fc",
        "event_total": 52,
        "has_played": true,
        "id": 15117192,
        "last_rank": 49880,
        "player_name": "Zaid Mela",
        "rank": 64538,
        "rank_sort": 64685,
        "total": 2343
      },
      {
        "club_badge_src": null,
        "entry": 2149208,
        "entry_name": "Hailee United",
        "event_total": 65,
        "has_played": true,
        "id": 15276390,
        "last_rank": 81646,
        "player_name": "Kelvin Yeung",
        "rank": 64538,
        "rank_sort": 64686,
        "total": 2343
      },
      {
        "club_badge_src": "https://fantasy.premierleague.com/gcs/plfpl-production-adobe-approved/plfpl-production/2154969/ca0ac4e5-06e6-4af0-9be1-62f4564e454f.png",
        "entry": 2154969,
        "entry_name": "Cuakpolozo",
        "event_total": 57,
        "has_played": true,
        "id": 15318260,
        "last_rank": 65163,
        "player_name": "hadzli hamdan",
        "rank": 64538,
        "rank_sort": 64687,
        "total": 2343
      },
      {
        "club_badge_src": null,
        "entry": 2192682,
        "entry_name": "Parameters",
        "event_total": 60,
        "has_played": true,
        "id": 15600426,
        "last_rank": 63390,
        "player_name": "Paramdeep Khangura",
        "rank": 64538,
        "rank_sort": 64688,
        "total": 2343
      },
      {
        "club_badge_src": "https://fantasy.premierleague.com/gcs/plfpl-production-adobe-approved/plfpl-production/2257989/603137b7-94f3-40d9-a305-adfb8c0c1b2c.png",
        "entry": 2257989,
        "entry_name": "IsYoursGold?",
        "event_total": 59,
        "has_played": true,
        "id": 16096708,
        "last_rank": 68748,
        "player_name": "R\u00f6gnvar Gr\u00e9tarsson",
        "rank": 64538,
        "rank_sort": 64689,
        "total": 2343
      },
      {
        "club_badge_src": null,
        "entry": 2277000,
        "entry_name": "D-dooog",
        "event_total": 74,
        "has_played": true,
        "id": 16236958,
        "last_rank": 103254,
        "player_name": "Daniel Sj\u00e5stad",
        "rank": 64538,
        "rank_sort": 64690,
        "total": 2343
      },
      {
        "club_badge_src": null,
        "entry": 2278514,
        "entry_name": "Luvlee Kupatee",
        "event_total": 70,
        "has_played": true,
        "id": 16248029,
        "last_rank": 93186,
        "player_name": "Anders Eriksen",
        "rank": 64538,
        "rank_sort": 64691,
        "total": 2343
      },
      {
        "club_badge_src": null,
        "entry": 2454638,
        "entry_name": "Cucu 4 Cold Cole",
        "event_total": 68,
        "has_played": true,
        "id": 17556936,
        "last_rank": 88594,
        "player_name": "Lynds Maco",
        "rank": 64538,
        "rank_sort": 64692,
        "total": 2343
      },
      {
        "club_badge_src": null,
        "entry": 2484224,
        "entry_name": "\u0627\u062d\u0630\u0631\u2026\u0648\u0642\u0648\u0641 \u0645\u062a\u0643\u0631\u0631",
        "event_total": 68,
        "has_played": true,
        "id": 17776620,
        "last_rank": 88594,
        "player_name": "Ahmed Yosri",
        "rank": 64538,
        "rank_sort": 64693,
        "total": 2343
      },
      {
        "club_badge_src": "https://fantasy.premierleague.com/gcs/plfpl-production-adobe-approved/plfpl-production/2524775/3e464ae8-547b-4fbd-a0eb-5e396f42fc3f.png",
        "entry": 2524775,
        "entry_name": "Myttryggs XI",
        "event_total": 48,
        "has_played": true,
        "id": 18091264,
        "last_rank": 49880,
        "player_name": "Esaias Englander",
        "rank": 64538,
        "rank_sort": 64694,
        "total": 2343
      },
      {
        "club_badge_src": null,
        "entry": 2552323,
        "entry_name": "Tartan Tornadoes",
        "event_total": 59,
        "has_played": true,
        "id": 18299950,
        "last_rank": 68957,
        "player_name": "Shawn Watson",
        "rank": 64538,
        "rank_sort": 64695,
        "total": 2343
      },
      {
        "club_badge_src": null,
        "entry": 2604116,
        "entry_name": "Brede N Butter",
        "event_total": 60,
        "has_played": true,
        "id": 18705370,
        "last_rank": 63201,
        "player_name": "Sam Mead",
        "rank": 64538,
        "rank_sort": 64696,
        "total": 2343
      },
      {
        "club_badge_src": null,
        "entry": 2609770,
        "entry_name": "Colewill Win It",
        "event_total": 63,
        "has_played": true,
        "id": 18749411,
        "last_rank": 77258,
        "player_name": "Noud van der Klooster",
        "rank": 64538,
        "rank_sort": 64697,
        "total": 2343
      },
      {
        "club_badge_src": null,
        "entry": 2613982,
        "entry_name": "Dubimendi",
        "event_total": 60,
        "has_played": true,
        "id": 18781465,
        "last_rank": 71386,
        "player_name": "Adam Davies",
        "rank": 64538,
        "rank_sort": 64698,
        "total": 2343
      },
      {
        "club_badge_src": null,
        "entry": 2617983,
        "entry_name": "Calafiorication",
        "event_total": 46,
        "has_played": true,
        "id": 18811124,
        "last_rank": 47163,
        "player_name": "Jennifer Sanderson",
        "rank": 64538,
        "rank_sort": 64699,
        "total": 2343
      },
      {
        "club_badge_src": null,
        "entry": 2666308,
        "entry_name": "saroyee xi",
        "event_total": 49,
        "has_played": true,
        "id": 19168516,
        "last_rank": 51403,
        "player_name": "Saleh Al Saroyee",
        "rank": 64538,
        "rank_sort": 64700,
        "total": 2343
      }
    ]
  }
}