{
  "last_updated_data": "2026-05-24T23:28:17Z",
  "league": {
    "admin_entry": null,
    "closed": false,
    "code_privacy": "p",
    "created": "2025-07-20T23:14:33.933835Z",
    "cup_league": 2815434,
    "has_cup": true,
    "id": 314,
    "league_type": "s",
    "max_entries": null,
    "name": "Overall",
    "rank": null,
    "scoring": "c",
    "start_event": 1
  },
  "new_entries": {
    "has_next": false,
    "page": 1,
    "results": []
  },
  "standings": {
    "has_next": true,
    "page": 65,
    "results": [
      {
        "club_badge_src": null,
        "entry": 2109752,
        "entry_name": "dani dubs",
        "event_total": 50,
        "has_played": true,
        "id": 14974783,
        "last_rank": 2062,
        "player_name": "Dani Sousa",
        "rank": 3201,
        "rank_sort": 3201,
        "total": 2424
      },
      {
        "club_badge_src": null,
        "entry": 9293199,
        "entry_name": "nene szn",
        "event_total": 48,
        "has_played": true,
        "id": 78344667,
        "last_rank": 1848,
        "player_name": "ne.ne -",
        "rank": 3201,
        "rank_sort": 3202,
        "total": 2424
      },
      {
        "club_badge_src": null,
        "entry": 6521048,
        "entry_name": "Machest\ufffd\ufe0f",
        "event_total": 62,
        "has_played": true,
        "id": 52009127,
        "last_rank": 3689,
        "player_name": "Winning it again",
        "rank": 3203,
        "rank_sort": 3203,
        "total": 2424
      },
      {
        "club_badge_src": "https://fantasy.premierleague.com/gcs/plfpl-production-adobe-approved/plfpl-production/320944/22a6829a-c862-4131-b454-9dac84d48cdd.png",
        "entry": 320944,
        "entry_name": "A Cunha Mateta",
        "event_total": 63,
        "has_played": true,
        "id": 2151018,
        "last_rank": 3853,
        "player_name": "Emeka Odogwu",
        "rank": 3204,
        "rank_sort": 3204,
        "total": 2424
      },
      {
        "club_badge_src": null,
        "entry": 2137698,
        "entry_name": "Cunha Believe it?",
        "event_total": 72,
        "has_played": true,
        "id": 15192403,
        "last_rank": 5884,
        "player_name": "Ibrahim Qasim",
        "rank": 3204,
        "rank_sort": 3205,
        "total": 2424
      },
      {
        "club_badge_src": null,
        "entry": 2629642,
        "entry_name": "saka potatoes",
        "event_total": 54,
        "has_played": true,
        "id": 18897656,
        "last_rank": 2526,
        "player_name": "Flynn Daly",
        "rank": 3204,
        "rank_sort": 3206,
        "total": 2424
      },
      {
        "club_badge_src": null,
        "entry": 2911034,
        "entry_name": "Houlton Wanderers",
        "event_total": 72,
        "has_played": true,
        "id": 21336222,
        "last_rank": 5884,
        "player_name": "Joe Houlton",
        "rank": 3204,
        "rank_sort": 3207,
        "total": 2424
      },
      {
        "club_badge_src": null,
        "entry": 5411225,
        "entry_name": "Darlo reserves",
        "event_total": 65,
        "has_played": true,
        "id": 42079976,
        "last_rank": 4253,
        "player_name": "Stephen Abbott",
        "rank": 3204,
        "rank_sort": 3208,
        "total": 2424
      },
      {
        "club_badge_src": "https://fantasy.premierleague.com/gcs/plfpl-production-adobe-approved/plfpl-production/10974/e10d5fc1-4814-44f8-8b39-590ec25cfb6d.png",
        "entry": 10974,
        "entry_name": "MacawoniyiCheese",
        "event_total": 73,
        "has_played": true,
        "id": 65043,
        "last_rank": 6154,
        "player_name": "Joachim Klock Hagen",
        "rank": 3209,
        "rank_sort": 3209,
        "total": 2424
      },
      {
        "club_badge_src": null,
        "entry": 314586,
        "entry_name": "Everybody Wirtz",
        "event_total": 57,
        "has_played": true,
        "id": 2108122,
        "last_rank": 2952,
        "player_name": "James May",
        "rank": 3209,
        "rank_sort": 3210,
        "total": 2424
      },
      {
        "club_badge_src": null,
        "entry": 704386,
        "entry_name": "Holy Boehly",
        "event_total": 56,
        "has_played": true,
        "id": 4773287,
        "last_rank": 2824,
        "player_name": "Ben Philips",
        "rank": 3209,
        "rank_sort": 3211,
        "total": 2424
      },
      {
        "club_badge_src": null,
        "entry": 911359,
        "entry_name": "Elanga Management",
        "event_total": 54,
        "has_played": true,
        "id": 6266368,
        "last_rank": 2553,
        "player_name": "Daryl Midford",
        "rank": 3209,
        "rank_sort": 3212,
        "total": 2424
      },
      {
        "club_badge_src": null,
        "entry": 2894707,
        "entry_name": "Jel\u00f8y Hammers \u2692\ufe0f",
        "event_total": 70,
        "has_played": true,
        "id": 21207618,
        "last_rank": 5386,
        "player_name": "Richard Aas",
        "rank": 3209,
        "rank_sort": 3213,
        "total": 2424
      },
      {
        "club_badge_src": null,
        "entry": 3008812,
        "entry_name": "Bambis Bees Afc",
        "event_total": 49,
        "has_played": true,
        "id": 22133726,
        "last_rank": 1978,
        "player_name": "James Bamgbose",
        "rank": 3209,
        "rank_sort": 3214,
        "total": 2424
      },
      {
        "club_badge_src": null,
        "entry": 3735649,
        "entry_name": "4 out of 5 aint bad.",
        "event_total": 67,
        "has_played": true,
        "id": 27884313,
        "last_rank": 4687,
        "player_name": "John Harrison",
        "rank": 3209,
        "rank_sort": 3215,
        "total": 2424
      },
      {
        "club_badge_src": null,
        "entry": 3929152,
        "entry_name": "West Jam United",
        "event_total": 68,
        "has_played": true,
        "id": 29550120,
        "last_rank": 4954,
        "player_name": "Jamison Driskill",
        "rank": 3209,
        "rank_sort": 3216,
        "total": 2424
      },
      {
        "club_badge_src": null,
        "entry": 5197979,
        "entry_name": "Under my Cucurella",
        "event_total": 58,
        "has_played": true,
        "id": 40249163,
        "last_rank": 3066,
        "player_name": "Sarab Sahni",
        "rank": 3209,
        "rank_sort": 3217,
        "total": 2424
      },
      {
        "club_badge_src": null,
        "entry": 5689842,
        "entry_name": "Amber Army",
        "event_total": 66,
        "has_played": true,
        "id": 44540841,
        "last_rank": 4471,
        "player_name": "Sam Gisby",
        "rank": 3209,
        "rank_sort": 3218,
        "total": 2424
      },
      {
        "club_badge_src": null,
        "entry": 6636499,
        "entry_name": "Obi wan bissaka",
        "event_total": 67,
        "has_played": true,
        "id": 53045508,
        "last_rank": 4704,
        "player_name": "Thomas Orwell",
        "rank": 3209,
        "rank_sort": 3219,
        "total": 2424
      },
      {
        "club_badge_src": null,
        "entry": 7733004,
        "entry_name": "Ode Habits Kai Hard",
        "event_total": 69,
        "has_played": true,
        "id": 63468110,
        "last_rank": 5126,
        "player_name": "Travis Pereira",
        "rank": 3209,
        "rank_sort": 3220,
        "total": 2424
      },
      {
        "club_badge_src": "https://fantasy.premierleague.com/gcs/plfpl-production-adobe-approved/plfpl-production/8195442/561ca2ca-72c7-4a29-b965-a060935e0c96.png",
        "entry": 8195442,
        "entry_name": "Ginger From Sweden",
        "event_total": 55,
        "has_played": true,
        "id": 67697549,
        "last_rank": 2665,
        "player_name": "Ben Kinner",
        "rank": 3209,
        "rank_sort": 3221,
        "total": 2424
      },
      {
        "club_badge_src": "https://fantasy.premierleague.com/gcs/plfpl-production-adobe-approved/plfpl-production/2036/e3b567d4-dde8-499f-9067-f9351e379671.png",
        "entry": 2036,
        "entry_name": "Kludens xGuder",
        "event_total": 65,
        "has_played": true,
        "id": 11356,
        "last_rank": 4270,
        "player_name": "Ludvig F\u00f8hns",
        "rank": 3222,
        "rank_sort": 3222,
        "total": 2424
      },
      {
        "club_badge_src": null,
        "entry": 3589,
        "entry_name": "Jibby",
        "event_total": 66,
        "has_played": true,
        "id": 20348,
        "last_rank": 4465,
        "player_name": "Chaipat Treekittinurak",
        "rank": 3222,
        "rank_sort": 3223,
        "total": 2424
      },
      {
        "club_badge_src": "https://fantasy.premierleague.com/gcs/plfpl-production-adobe-approved/plfpl-production/4788/95b9bfb9-fd9b-47fc-8636-4a5cc95ca419.png",
        "entry": 4788,
        "entry_name": "DeLap Dance",
        "event_total": 78,
        "has_played": true,
        "id": 27250,
        "last_rank": 7592,
        "player_name": "Atul Raghunathan",
        "rank": 3222,
        "rank_sort": 3224,
        "total": 2424
      },
      {
        "club_badge_src": null,
        "entry": 14346,
        "entry_name": "Wirtz Nightmare",
        "event_total": 57,
        "has_played": true,
        "id": 87090,
        "last_rank": 2977,
        "player_name": "Harry Lee",
        "rank": 3222,
        "rank_sort": 3225,
        "total": 2424
      },
      {
        "club_badge_src": null,
        "entry": 16986,
        "entry_name": "Corn on the Kobbie",
        "event_total": 68,
        "has_played": true,
        "id": 105196,
        "last_rank": 4918,
        "player_name": "Adam O'Shea",
        "rank": 3222,
        "rank_sort": 3226,
        "total": 2424
      },
      {
        "club_badge_src": null,
        "entry": 42687,
        "entry_name": "matslat",
        "event_total": 71,
        "has_played": true,
        "id": 273457,
        "last_rank": 5646,
        "player_name": "Matthew Slater",
        "rank": 3222,
        "rank_sort": 3227,
        "total": 2424
      },
      {
        "club_badge_src": null,
        "entry": 49424,
        "entry_name": "Watery Farts FC",
        "event_total": 69,
        "has_played": true,
        "id": 317707,
        "last_rank": 5147,
        "player_name": "Tomas O Neill",
        "rank": 3222,
        "rank_sort": 3228,
        "total": 2424
      },
      {
        "club_badge_src": null,
        "entry": 72071,
        "entry_name": "Good Team on Paper",
        "event_total": 52,
        "has_played": true,
        "id": 468259,
        "last_rank": 2280,
        "player_name": "Michael Henderson",
        "rank": 3222,
        "rank_sort": 3229,
        "total": 2424
      },
      {
        "club_badge_src": null,
        "entry": 83373,
        "entry_name": "Francenal",
        "event_total": 41,
        "has_played": true,
        "id": 542600,
        "last_rank": 1294,
        "player_name": "Aapo Stenfors",
        "rank": 3222,
        "rank_sort": 3230,
        "total": 2424
      },
      {
        "club_badge_src": "https://fantasy.premierleague.com/gcs/plfpl-production-adobe-approved/plfpl-production/89449/85321d79-c610-4379-bf8e-705b15f198ef.png",
        "entry": 89449,
        "entry_name": "Paula FC",
        "event_total": 73,
        "has_played": true,
        "id": 583912,
        "last_rank": 6194,
        "player_name": "Pauline Akinselure",
        "rank": 3222,
        "rank_sort": 3231,
        "total": 2424
      },
      {
        "club_badge_src": null,
        "entry": 155695,
        "entry_name": "The Romford Pele",
        "event_total": 63,
        "has_played": true,
        "id": 1023461,
        "last_rank": 3902,
        "player_name": "Paul Fursman",
        "rank": 3222,
        "rank_sort": 3232,
        "total": 2424
      },
      {
        "club_badge_src": null,
        "entry": 160924,
        "entry_name": "Fateh H",
        "event_total": 58,
        "has_played": true,
        "id": 1059934,
        "last_rank": 3079,
        "player_name": "fateh Abd",
        "rank": 3222,
        "rank_sort": 3233,
        "total": 2424
      },
      {
        "club_badge_src": null,
        "entry": 211001,
        "entry_name": "Croatia Cemehovec",
        "event_total": 71,
        "has_played": true,
        "id": 1403369,
        "last_rank": 5632,
        "player_name": "Jure Salamuni\u0107",
        "rank": 3222,
        "rank_sort": 3234,
        "total": 2424
      },
      {
        "club_badge_src": null,
        "entry": 220691,
        "entry_name": "FC BUG",
        "event_total": 63,
        "has_played": true,
        "id": 1467821,
        "last_rank": 3866,
        "player_name": "Bug Hung",
        "rank": 3222,
        "rank_sort": 3235,
        "total": 2424
      },
      {
        "club_badge_src": "https://fantasy.premierleague.com/gcs/plfpl-production-adobe-approved/plfpl-production/504578/327d5e6a-dd3c-4e3a-9b33-1fd2c0314d7a.png",
        "entry": 504578,
        "entry_name": "NYALE FC",
        "event_total": 54,
        "has_played": true,
        "id": 3386911,
        "last_rank": 2553,
        "player_name": "Nyasha Murangariri",
        "rank": 3222,
        "rank_sort": 3236,
        "total": 2424
      },
      {
        "club_badge_src": null,
        "entry": 685401,
        "entry_name": "Salatmaisl\u00f8k",
        "event_total": 59,
        "has_played": true,
        "id": 4639384,
        "last_rank": 3257,
        "player_name": "Andreas Moklev Tollevsen",
        "rank": 3222,
        "rank_sort": 3237,
        "total": 2424
      },
      {
        "club_badge_src": null,
        "entry": 953587,
        "entry_name": "Burnden Aces",
        "event_total": 63,
        "has_played": true,
        "id": 6570141,
        "last_rank": 3866,
        "player_name": "Elias Jalkling",
        "rank": 3222,
        "rank_sort": 3238,
        "total": 2424
      },
      {
        "club_badge_src": null,
        "entry": 987207,
        "entry_name": "Old Havertz Kai Hard",
        "event_total": 62,
        "has_played": true,
        "id": 6806848,
        "last_rank": 3721,
        "player_name": "Graham Harris",
        "rank": 3222,
        "rank_sort": 3239,
        "total": 2424
      },
      {
        "club_badge_src": null,
        "entry": 1495166,
        "entry_name": "Procrastination FC",
        "event_total": 46,
        "has_played": true,
        "id": 10426686,
        "last_rank": 1668,
        "player_name": "Paul Burnett",
        "rank": 3222,
        "rank_sort": 3240,
        "total": 2424
      },
      {
        "club_badge_src": "https://fantasy.premierleague.com/gcs/plfpl-production-adobe-approved/plfpl-production/1513783/dd662a80-3eeb-4875-ad35-f014c33ae0a1.png",
        "entry": 1513783,
        "entry_name": "Breadcake FC",
        "event_total": 61,
        "has_played": true,
        "id": 10558045,
        "last_rank": 3528,
        "player_name": "Matt Edwards",
        "rank": 3222,
        "rank_sort": 3241,
        "total": 2424
      },
      {
        "club_badge_src": null,
        "entry": 1862858,
        "entry_name": "Vucicu pederu",
        "event_total": 60,
        "has_played": true,
        "id": 13111713,
        "last_rank": 2802,
        "player_name": "Luka Grbic",
        "rank": 3222,
        "rank_sort": 3242,
        "total": 2424
      },
      {
        "club_badge_src": null,
        "entry": 1908668,
        "entry_name": "Sesko Extra",
        "event_total": 32,
        "has_played": true,
        "id": 13456159,
        "last_rank": 842,
        "player_name": "Stuart Ingham",
        "rank": 3222,
        "rank_sort": 3243,
        "total": 2424
      },
      {
        "club_badge_src": null,
        "entry": 2654004,
        "entry_name": "Think of London",
        "event_total": 66,
        "has_played": true,
        "id": 19077086,
        "last_rank": 4515,
        "player_name": "Adam Mandelson",
        "rank": 3222,
        "rank_sort": 3244,
        "total": 2424
      },
      {
        "club_badge_src": "https://fantasy.premierleague.com/gcs/plfpl-production-adobe-approved/plfpl-production/3249480/15c48127-0f1d-4ba9-9eed-2e17bb83841b.png",
        "entry": 3249480,
        "entry_name": "Elchemist FC",
        "event_total": 50,
        "has_played": true,
        "id": 24040981,
        "last_rank": 2068,
        "player_name": "The Elchemist",
        "rank": 3222,
        "rank_sort": 3245,
        "total": 2424
      },
      {
        "club_badge_src": null,
        "entry": 3470484,
        "entry_name": "Kinder Mbeumo",
        "event_total": 47,
        "has_played": true,
        "id": 25800726,
        "last_rank": 1797,
        "player_name": "Matthew Dickety",
        "rank": 3222,
        "rank_sort": 3246,
        "total": 2424
      },
      {
        "club_badge_src": null,
        "entry": 3540512,
        "entry_name": "Sleivskudd United",
        "event_total": 76,
        "has_played": true,
        "id": 26354253,
        "last_rank": 7014,
        "player_name": "Joachim Hermansen",
        "rank": 3222,
        "rank_sort": 3247,
        "total": 2424
      },
      {
        "club_badge_src": "https://fantasy.premierleague.com/gcs/plfpl-production-adobe-approved/plfpl-production/3667749/b3018aa5-f1b3-48d9-abe5-b33baa8aac5f.png",
        "entry": 3667749,
        "entry_name": "Search & Destroy",
        "event_total": 59,
        "has_played": true,
        "id": 27353418,
        "last_rank": 3302,
        "player_name": "Aran Basel",
        "rank": 3222,
        "rank_sort": 3248,
        "total": 2424
      },
      {
        "club_badge_src": null,
        "entry": 3998870,
        "entry_name": "Bri",
        "event_total": 75,
        "has_played": true,
        "id": 30117022,
        "last_rank": 6687,
        "player_name": "Brianna Pappalardo",
        "rank": 3222,
        "rank_sort": 3249,
        "total": 2424
      },
      {
        "club_badge_src": null,
        "entry": 4034319,
        "entry_name": "Kings United",
        "event_total": 65,
        "has_played": true,
        "id": 30418687,
        "last_rank": 4270,
        "player_name": "Simon Okkels",
        "rank": 3222,
        "rank_sort": 3250,
        "total": 2424
      }
    ]
  }
}