{
  "last_updated_data": "2026-05-24T23:28:17Z",
  "league": {
    "admin_entry": null,
    "closed": false,
    "code_privacy": "p",
    "created": "2025-07-20T23:14:33.933835Z",
    "cup_league": 2815434,
    "has_cup": true,
    "id": 314,
    "league_type": "s",
    "max_entries": null,
    "name": "Overall",
    "rank": null,
    "scoring": "c",
    "start_event": 1
  },
  "new_entries": {
    "has_next": false,
    "page": 1,
    "results": []
  },
  "standings": {
    "has_next": true,
    "page": 1374,
    "results": [
      {
        "club_badge_src": null,
        "entry": 2475593,
        "entry_name": "Under My Cucurella",
        "event_total": 75,
        "has_played": true,
        "id": 17711748,
        "last_rank": 112169,
        "player_name": "James Crossman",
        "rank": 68496,
        "rank_sort": 68651,
        "total": 2341
      },
      {
        "club_badge_src": null,
        "entry": 2477321,
        "entry_name": "M.S.G",
        "event_total": 57,
        "has_played": true,
        "id": 17724863,
        "last_rank": 61950,
        "player_name": "Michael Tadrous",
        "rank": 68496,
        "rank_sort": 68652,
        "total": 2341
      },
      {
        "club_badge_src": null,
        "entry": 2517759,
        "entry_name": "Palhinha Colada",
        "event_total": 60,
        "has_played": true,
        "id": 18039285,
        "last_rank": 75874,
        "player_name": "Luca Rungasamy",
        "rank": 68496,
        "rank_sort": 68653,
        "total": 2341
      },
      {
        "club_badge_src": null,
        "entry": 2551136,
        "entry_name": "Bayer Lamberkusen",
        "event_total": 52,
        "has_played": true,
        "id": 18290798,
        "last_rank": 46839,
        "player_name": "David Lambe",
        "rank": 68496,
        "rank_sort": 68654,
        "total": 2341
      },
      {
        "club_badge_src": null,
        "entry": 2639825,
        "entry_name": "Pole Position",
        "event_total": 62,
        "has_played": true,
        "id": 18973068,
        "last_rank": 63390,
        "player_name": "christian eriksson",
        "rank": 68496,
        "rank_sort": 68655,
        "total": 2341
      },
      {
        "club_badge_src": null,
        "entry": 2652727,
        "entry_name": "Binary Points FC",
        "event_total": 50,
        "has_played": true,
        "id": 19067866,
        "last_rank": 50199,
        "player_name": "\u09a6\u09c7\u09b2\u09cb\u09df\u09be\u09b0 \u09b9\u09cb\u09b8\u09c7\u09a8",
        "rank": 68496,
        "rank_sort": 68656,
        "total": 2341
      },
      {
        "club_badge_src": "https://fantasy.premierleague.com/gcs/plfpl-production-adobe-approved/plfpl-production/2677678/08692000-b631-469a-8ee2-866b5098c72e.png",
        "entry": 2677678,
        "entry_name": "The Bowden Babes",
        "event_total": 52,
        "has_played": true,
        "id": 19256780,
        "last_rank": 53345,
        "player_name": "Sam Bowden",
        "rank": 68496,
        "rank_sort": 68657,
        "total": 2341
      },
      {
        "club_badge_src": null,
        "entry": 2741801,
        "entry_name": "HERE WE GO",
        "event_total": 60,
        "has_played": true,
        "id": 19795939,
        "last_rank": 75874,
        "player_name": "Saud Alsharif",
        "rank": 68496,
        "rank_sort": 68658,
        "total": 2341
      },
      {
        "club_badge_src": null,
        "entry": 2752179,
        "entry_name": "Liverp\u00e5l",
        "event_total": 68,
        "has_played": true,
        "id": 20008394,
        "last_rank": 84360,
        "player_name": "P\u00e5l Arne Falk-L\u00f8vvik",
        "rank": 68496,
        "rank_sort": 68659,
        "total": 2341
      },
      {
        "club_badge_src": null,
        "entry": 2781595,
        "entry_name": "LeBles",
        "event_total": 59,
        "has_played": true,
        "id": 20303764,
        "last_rank": 73720,
        "player_name": "Bles Mbukude",
        "rank": 68496,
        "rank_sort": 68660,
        "total": 2341
      },
      {
        "club_badge_src": null,
        "entry": 2796978,
        "entry_name": "ChickenTikkaMoSalah",
        "event_total": 59,
        "has_played": true,
        "id": 20423414,
        "last_rank": 57857,
        "player_name": "Brian williamson",
        "rank": 68496,
        "rank_sort": 68661,
        "total": 2341
      },
      {
        "club_badge_src": null,
        "entry": 2811680,
        "entry_name": "CAB",
        "event_total": 46,
        "has_played": true,
        "id": 20536047,
        "last_rank": 50468,
        "player_name": "CAB Malek Souabni",
        "rank": 68496,
        "rank_sort": 68662,
        "total": 2341
      },
      {
        "club_badge_src": null,
        "entry": 3018586,
        "entry_name": "Red Nosed Reijnders",
        "event_total": 66,
        "has_played": true,
        "id": 22208772,
        "last_rank": 79817,
        "player_name": "Sean Teague",
        "rank": 68496,
        "rank_sort": 68663,
        "total": 2341
      },
      {
        "club_badge_src": null,
        "entry": 3040871,
        "entry_name": "Thomas Frank Engine",
        "event_total": 54,
        "has_played": true,
        "id": 22382200,
        "last_rank": 63724,
        "player_name": "Charlie Gooch",
        "rank": 68496,
        "rank_sort": 68664,
        "total": 2341
      },
      {
        "club_badge_src": null,
        "entry": 3088785,
        "entry_name": "LFC_NY",
        "event_total": 51,
        "has_played": true,
        "id": 22760781,
        "last_rank": 58688,
        "player_name": "Roshan Gauchan",
        "rank": 68496,
        "rank_sort": 68665,
        "total": 2341
      },
      {
        "club_badge_src": null,
        "entry": 3137874,
        "entry_name": "SureshFC",
        "event_total": 61,
        "has_played": true,
        "id": 23163965,
        "last_rank": 77999,
        "player_name": "Suresh Rai",
        "rank": 68496,
        "rank_sort": 68666,
        "total": 2341
      },
      {
        "club_badge_src": null,
        "entry": 3152424,
        "entry_name": "Rock \u2018n\u2019 Raul Sarr",
        "event_total": 58,
        "has_played": true,
        "id": 23281280,
        "last_rank": 71713,
        "player_name": "Tim Spriggs",
        "rank": 68496,
        "rank_sort": 68667,
        "total": 2341
      },
      {
        "club_badge_src": null,
        "entry": 3159190,
        "entry_name": "190 IF",
        "event_total": 61,
        "has_played": true,
        "id": 23335477,
        "last_rank": 77999,
        "player_name": "Philip Diber",
        "rank": 68496,
        "rank_sort": 68668,
        "total": 2341
      },
      {
        "club_badge_src": null,
        "entry": 3283294,
        "entry_name": "\u0e1e\u0e48\u0e2d\u0e2a\u0e49\u0e21\u0e2a\u0e49\u0e21 \u0e40\u0e2d\u0e1f\u0e0b\u0e35",
        "event_total": 55,
        "has_played": true,
        "id": 24303759,
        "last_rank": 65796,
        "player_name": "Kumpol Prommai",
        "rank": 68496,
        "rank_sort": 68669,
        "total": 2341
      },
      {
        "club_badge_src": null,
        "entry": 3354033,
        "entry_name": "Inspectah Dec",
        "event_total": 70,
        "has_played": true,
        "id": 24883096,
        "last_rank": 99296,
        "player_name": "Justi Raudys",
        "rank": 68496,
        "rank_sort": 68670,
        "total": 2341
      },
      {
        "club_badge_src": null,
        "entry": 3354762,
        "entry_name": "Wolstanton Vale",
        "event_total": 56,
        "has_played": true,
        "id": 24888817,
        "last_rank": 67926,
        "player_name": "Mitch Blaise",
        "rank": 68496,
        "rank_sort": 68671,
        "total": 2341
      },
      {
        "club_badge_src": null,
        "entry": 3423403,
        "entry_name": "SWEET NEKTA L",
        "event_total": 58,
        "has_played": true,
        "id": 25429634,
        "last_rank": 71386,
        "player_name": "Frederick Frank Junior Ansah",
        "rank": 68496,
        "rank_sort": 68672,
        "total": 2341
      },
      {
        "club_badge_src": null,
        "entry": 3448153,
        "entry_name": "Doggo",
        "event_total": 56,
        "has_played": true,
        "id": 25621224,
        "last_rank": 67422,
        "player_name": "Simon Hindmarch",
        "rank": 68496,
        "rank_sort": 68673,
        "total": 2341
      },
      {
        "club_badge_src": null,
        "entry": 3460626,
        "entry_name": "kera2w",
        "event_total": 68,
        "has_played": true,
        "id": 25723500,
        "last_rank": 93883,
        "player_name": "amr elsayed",
        "rank": 68496,
        "rank_sort": 68674,
        "total": 2341
      },
      {
        "club_badge_src": null,
        "entry": 3462580,
        "entry_name": "THOR Ragnarok",
        "event_total": 64,
        "has_played": true,
        "id": 25738552,
        "last_rank": 84731,
        "player_name": "Jhafan Her",
        "rank": 68496,
        "rank_sort": 68675,
        "total": 2341
      },
      {
        "club_badge_src": null,
        "entry": 3507221,
        "entry_name": "Mbeumo No.5",
        "event_total": 57,
        "has_played": true,
        "id": 26091477,
        "last_rank": 69641,
        "player_name": "Pontus Allingg\u00e5rd",
        "rank": 68496,
        "rank_sort": 68676,
        "total": 2341
      },
      {
        "club_badge_src": null,
        "entry": 3555241,
        "entry_name": "Legia & Radomiak",
        "event_total": 59,
        "has_played": true,
        "id": 26469550,
        "last_rank": 73720,
        "player_name": "Rafa\u0142 Ol\u0119dzki",
        "rank": 68496,
        "rank_sort": 68677,
        "total": 2341
      },
      {
        "club_badge_src": "https://fantasy.premierleague.com/gcs/plfpl-production-adobe-approved/plfpl-production/3640295/090a0a07-0ac4-4300-a270-33f0df398f8a.png",
        "entry": 3640295,
        "entry_name": "Arsenal Invincible\u2019s",
        "event_total": 57,
        "has_played": true,
        "id": 27129626,
        "last_rank": 69641,
        "player_name": "Yiannos Ataliotis",
        "rank": 68496,
        "rank_sort": 68678,
        "total": 2341
      },
      {
        "club_badge_src": null,
        "entry": 3645585,
        "entry_name": "Operacija2025",
        "event_total": 59,
        "has_played": true,
        "id": 27170597,
        "last_rank": 73720,
        "player_name": "Sanjin Bjelic",
        "rank": 68496,
        "rank_sort": 68679,
        "total": 2341
      },
      {
        "club_badge_src": null,
        "entry": 3659211,
        "entry_name": "Thunder FC",
        "event_total": 77,
        "has_played": true,
        "id": 27286431,
        "last_rank": 118654,
        "player_name": "Ahmad Aminu",
        "rank": 68496,
        "rank_sort": 68680,
        "total": 2341
      },
      {
        "club_badge_src": null,
        "entry": 3756221,
        "entry_name": "Macloor united",
        "event_total": 60,
        "has_played": true,
        "id": 28044324,
        "last_rank": 76128,
        "player_name": "Paul Macleod",
        "rank": 68496,
        "rank_sort": 68681,
        "total": 2341
      },
      {
        "club_badge_src": null,
        "entry": 3759485,
        "entry_name": "Ollenzy.y.y",
        "event_total": 51,
        "has_played": true,
        "id": 28070094,
        "last_rank": 58688,
        "player_name": "ollenz.y.y scout",
        "rank": 68496,
        "rank_sort": 68682,
        "total": 2341
      },
      {
        "club_badge_src": null,
        "entry": 3782502,
        "entry_name": "Teamku",
        "event_total": 72,
        "has_played": true,
        "id": 28245206,
        "last_rank": 104712,
        "player_name": "Team Ku",
        "rank": 68496,
        "rank_sort": 68683,
        "total": 2341
      },
      {
        "club_badge_src": null,
        "entry": 3891033,
        "entry_name": "nt | FC",
        "event_total": 37,
        "has_played": true,
        "id": 29240374,
        "last_rank": 32879,
        "player_name": "David Annan",
        "rank": 68496,
        "rank_sort": 68684,
        "total": 2341
      },
      {
        "club_badge_src": null,
        "entry": 3984332,
        "entry_name": "Fr\u00e6kke Frikadeller",
        "event_total": 68,
        "has_played": true,
        "id": 29996048,
        "last_rank": 94255,
        "player_name": "Anders Lund Schwanenfl\u00fcgel",
        "rank": 68496,
        "rank_sort": 68685,
        "total": 2341
      },
      {
        "club_badge_src": "https://fantasy.premierleague.com/gcs/plfpl-production-adobe-approved/plfpl-production/3986213/46d9efaf-2915-4e88-8f8e-c555119387b7.png",
        "entry": 3986213,
        "entry_name": "Stevoo FC",
        "event_total": 65,
        "has_played": true,
        "id": 30011669,
        "last_rank": 77676,
        "player_name": "Stephen Babafemi",
        "rank": 68496,
        "rank_sort": 68686,
        "total": 2341
      },
      {
        "club_badge_src": null,
        "entry": 4066511,
        "entry_name": "Bevy",
        "event_total": 46,
        "has_played": true,
        "id": 30690310,
        "last_rank": 50468,
        "player_name": "Ryan Beveridge",
        "rank": 68496,
        "rank_sort": 68687,
        "total": 2341
      },
      {
        "club_badge_src": null,
        "entry": 4092569,
        "entry_name": "Whatever man",
        "event_total": 70,
        "has_played": true,
        "id": 30900044,
        "last_rank": 99296,
        "player_name": "Folmer Bjerre",
        "rank": 68496,
        "rank_sort": 68688,
        "total": 2341
      },
      {
        "club_badge_src": null,
        "entry": 4103534,
        "entry_name": "VoLdeMorTz",
        "event_total": 57,
        "has_played": true,
        "id": 30987889,
        "last_rank": 69641,
        "player_name": "Lord Voldemortz",
        "rank": 68496,
        "rank_sort": 68689,
        "total": 2341
      },
      {
        "club_badge_src": null,
        "entry": 4115657,
        "entry_name": "Obi 1 Kenobi 0",
        "event_total": 54,
        "has_played": true,
        "id": 31090805,
        "last_rank": 64005,
        "player_name": "Joseph Mari",
        "rank": 68496,
        "rank_sort": 68690,
        "total": 2341
      },
      {
        "club_badge_src": null,
        "entry": 4134149,
        "entry_name": "Havertzsakarice",
        "event_total": 51,
        "has_played": true,
        "id": 31242150,
        "last_rank": 58388,
        "player_name": "Andrew Oldale",
        "rank": 68496,
        "rank_sort": 68691,
        "total": 2341
      },
      {
        "club_badge_src": null,
        "entry": 4167920,
        "entry_name": "Joninho",
        "event_total": 56,
        "has_played": true,
        "id": 31519635,
        "last_rank": 67695,
        "player_name": "Jon Oscar Njerve",
        "rank": 68496,
        "rank_sort": 68692,
        "total": 2341
      },
      {
        "club_badge_src": null,
        "entry": 4172674,
        "entry_name": "Mucho Gusto Mafioso",
        "event_total": 43,
        "has_played": true,
        "id": 31559503,
        "last_rank": 45927,
        "player_name": "Steve Bond",
        "rank": 68496,
        "rank_sort": 68693,
        "total": 2341
      },
      {
        "club_badge_src": null,
        "entry": 4268111,
        "entry_name": "Power Reijnders",
        "event_total": 58,
        "has_played": true,
        "id": 32364516,
        "last_rank": 71713,
        "player_name": "Matt Moody",
        "rank": 68496,
        "rank_sort": 68694,
        "total": 2341
      },
      {
        "club_badge_src": null,
        "entry": 4300891,
        "entry_name": "Artist",
        "event_total": 60,
        "has_played": true,
        "id": 32629480,
        "last_rank": 75874,
        "player_name": "Pi ka Chu",
        "rank": 68496,
        "rank_sort": 68695,
        "total": 2341
      },
      {
        "club_badge_src": null,
        "entry": 4318976,
        "entry_name": "ScoobyNandoz",
        "event_total": 61,
        "has_played": true,
        "id": 32776097,
        "last_rank": 77999,
        "player_name": "Matty Keane",
        "rank": 68496,
        "rank_sort": 68696,
        "total": 2341
      },
      {
        "club_badge_src": null,
        "entry": 4417339,
        "entry_name": "GG United",
        "event_total": 69,
        "has_played": true,
        "id": 33607107,
        "last_rank": 96777,
        "player_name": "At K",
        "rank": 68496,
        "rank_sort": 68697,
        "total": 2341
      },
      {
        "club_badge_src": null,
        "entry": 4432197,
        "entry_name": "HoweYouRemindMe",
        "event_total": 73,
        "has_played": true,
        "id": 33744115,
        "last_rank": 107485,
        "player_name": "Daniel McCallion",
        "rank": 68496,
        "rank_sort": 68698,
        "total": 2341
      },
      {
        "club_badge_src": "https://fantasy.premierleague.com/gcs/plfpl-production-adobe-approved/plfpl-production/4432623/aac99027-a62a-48a3-a332-9681069f7544.png",
        "entry": 4432623,
        "entry_name": "Kafs United",
        "event_total": 67,
        "has_played": true,
        "id": 33747526,
        "last_rank": 91835,
        "player_name": "Parsu Kafley",
        "rank": 68496,
        "rank_sort": 68699,
        "total": 2341
      },
      {
        "club_badge_src": null,
        "entry": 4442047,
        "entry_name": "Not Isakly Sure",
        "event_total": 67,
        "has_played": true,
        "id": 33826022,
        "last_rank": 72815,
        "player_name": "Duarte Tost\u00e3o",
        "rank": 68496,
        "rank_sort": 68700,
        "total": 2341
      }
    ]
  }
}