{
  "last_updated_data": "2026-05-24T23:28:17Z",
  "league": {
    "admin_entry": null,
    "closed": false,
    "code_privacy": "p",
    "created": "2025-07-20T23:14:33.933835Z",
    "cup_league": 2815434,
    "has_cup": true,
    "id": 314,
    "league_type": "s",
    "max_entries": null,
    "name": "Overall",
    "rank": null,
    "scoring": "c",
    "start_event": 1
  },
  "new_entries": {
    "has_next": false,
    "page": 1,
    "results": []
  },
  "standings": {
    "has_next": true,
    "page": 162,
    "results": [
      {
        "club_badge_src": null,
        "entry": 591170,
        "entry_name": "Kinder Mbeumo",
        "event_total": 70,
        "has_played": true,
        "id": 3982802,
        "last_rank": 13033,
        "player_name": "Sharif Khan",
        "rank": 8049,
        "rank_sort": 8051,
        "total": 2404
      },
      {
        "club_badge_src": "https://fantasy.premierleague.com/gcs/plfpl-production-adobe-approved/plfpl-production/941407/b484d170-445a-46d2-8231-e78d0644c987.png",
        "entry": 941407,
        "entry_name": "RSHD FC",
        "event_total": 66,
        "has_played": true,
        "id": 6481508,
        "last_rank": 9402,
        "player_name": "Rashed Bushwareb",
        "rank": 8049,
        "rank_sort": 8052,
        "total": 2404
      },
      {
        "club_badge_src": null,
        "entry": 2248919,
        "entry_name": "MoferefereFC",
        "event_total": 62,
        "has_played": true,
        "id": 16024985,
        "last_rank": 7891,
        "player_name": "Naledi Bopape",
        "rank": 8049,
        "rank_sort": 8053,
        "total": 2404
      },
      {
        "club_badge_src": null,
        "entry": 3300412,
        "entry_name": "SNAKE \ufffdFC",
        "event_total": 73,
        "has_played": true,
        "id": 24443891,
        "last_rank": 14746,
        "player_name": "Collins Agyemang",
        "rank": 8049,
        "rank_sort": 8054,
        "total": 2404
      },
      {
        "club_badge_src": "https://fantasy.premierleague.com/gcs/plfpl-production-adobe-approved/plfpl-production/3660533/d8d4380a-3739-44b5-82dd-b5ee3255d95b.png",
        "entry": 3660533,
        "entry_name": "Omega",
        "event_total": 50,
        "has_played": true,
        "id": 27296639,
        "last_rank": 5597,
        "player_name": "Bikesh Awale",
        "rank": 8049,
        "rank_sort": 8055,
        "total": 2404
      },
      {
        "club_badge_src": "https://fantasy.premierleague.com/gcs/plfpl-production-adobe-approved/plfpl-production/4486280/d88d53ae-0644-4f48-9ca0-3501d3122c92.png",
        "entry": 4486280,
        "entry_name": "FC Kick Fascism Out",
        "event_total": 53,
        "has_played": true,
        "id": 34194570,
        "last_rank": 6365,
        "player_name": "Eddy Dorrian",
        "rank": 8049,
        "rank_sort": 8056,
        "total": 2404
      },
      {
        "club_badge_src": "https://fantasy.premierleague.com/gcs/plfpl-production-adobe-approved/plfpl-production/4813888/1ac69e93-2d86-4399-8cef-692f250ac5d1.png",
        "entry": 4813888,
        "entry_name": "Kasi Chance 4.0",
        "event_total": 71,
        "has_played": true,
        "id": 37067320,
        "last_rank": 13653,
        "player_name": "Vincent Pillai",
        "rank": 8049,
        "rank_sort": 8057,
        "total": 2404
      },
      {
        "club_badge_src": "https://fantasy.premierleague.com/gcs/plfpl-production-adobe-approved/plfpl-production/6451471/1d6b7cf9-4435-4835-93c7-9585252df7fc.png",
        "entry": 6451471,
        "entry_name": "Yuen Long Mbeumo",
        "event_total": 63,
        "has_played": true,
        "id": 51375249,
        "last_rank": 9806,
        "player_name": "bryan chen",
        "rank": 8049,
        "rank_sort": 8058,
        "total": 2404
      },
      {
        "club_badge_src": null,
        "entry": 6949409,
        "entry_name": "Ugarte Be Kidding Me",
        "event_total": 50,
        "has_played": true,
        "id": 55722695,
        "last_rank": 5597,
        "player_name": "Michael Edwards",
        "rank": 8049,
        "rank_sort": 8059,
        "total": 2404
      },
      {
        "club_badge_src": "https://fantasy.premierleague.com/gcs/plfpl-production-adobe-approved/plfpl-production/8367653/c66a3f72-7679-4187-93a0-ae360c2ea042.png",
        "entry": 8367653,
        "entry_name": "Maradona XI",
        "event_total": 70,
        "has_played": true,
        "id": 69372332,
        "last_rank": 9382,
        "player_name": "Diego Maradona",
        "rank": 8049,
        "rank_sort": 8060,
        "total": 2404
      },
      {
        "club_badge_src": null,
        "entry": 269714,
        "entry_name": "The Konate Kid",
        "event_total": 63,
        "has_played": true,
        "id": 1794330,
        "last_rank": 9819,
        "player_name": "Zakk Pybis",
        "rank": 8061,
        "rank_sort": 8061,
        "total": 2404
      },
      {
        "club_badge_src": "https://fantasy.premierleague.com/gcs/plfpl-production-adobe-approved/plfpl-production/272058/a9f3fb1f-b1cc-4533-ac72-6b6362339b56.png",
        "entry": 272058,
        "entry_name": "DZXI",
        "event_total": 51,
        "has_played": true,
        "id": 1810046,
        "last_rank": 4015,
        "player_name": "Daniel Zawila",
        "rank": 8061,
        "rank_sort": 8062,
        "total": 2404
      },
      {
        "club_badge_src": "https://fantasy.premierleague.com/gcs/plfpl-production-adobe-approved/plfpl-production/900032/3e1c1520-8cc1-4bd5-a44e-08b8296049dc.png",
        "entry": 900032,
        "entry_name": "Achtung Baby",
        "event_total": 45,
        "has_played": true,
        "id": 6184058,
        "last_rank": 4452,
        "player_name": "Steve Kamboukos",
        "rank": 8061,
        "rank_sort": 8063,
        "total": 2404
      },
      {
        "club_badge_src": "https://fantasy.premierleague.com/gcs/plfpl-production-adobe-approved/plfpl-production/1031363/7a0a49e9-e634-4097-82ce-e0e0b6acd0ab.png",
        "entry": 1031363,
        "entry_name": "CARAPILS FC",
        "event_total": 50,
        "has_played": true,
        "id": 7135793,
        "last_rank": 4673,
        "player_name": "Mathias Fontaine",
        "rank": 8061,
        "rank_sort": 8064,
        "total": 2404
      },
      {
        "club_badge_src": null,
        "entry": 1296372,
        "entry_name": "Not too Xabi",
        "event_total": 64,
        "has_played": true,
        "id": 9009633,
        "last_rank": 10221,
        "player_name": "Thomas Gonzalez",
        "rank": 8061,
        "rank_sort": 8065,
        "total": 2404
      },
      {
        "club_badge_src": null,
        "entry": 1308305,
        "entry_name": "Stingers' Stallions",
        "event_total": 66,
        "has_played": true,
        "id": 9093765,
        "last_rank": 9412,
        "player_name": "Ray Hegarty",
        "rank": 8061,
        "rank_sort": 8066,
        "total": 2404
      },
      {
        "club_badge_src": null,
        "entry": 3081216,
        "entry_name": "\u00c5JA",
        "event_total": 53,
        "has_played": true,
        "id": 22699992,
        "last_rank": 5356,
        "player_name": "Odd H\u00f8vik",
        "rank": 8061,
        "rank_sort": 8067,
        "total": 2404
      },
      {
        "club_badge_src": null,
        "entry": 3259688,
        "entry_name": "jimmy",
        "event_total": 61,
        "has_played": true,
        "id": 24119508,
        "last_rank": 9028,
        "player_name": "oussama zemouri 1996",
        "rank": 8061,
        "rank_sort": 8068,
        "total": 2404
      },
      {
        "club_badge_src": null,
        "entry": 6932168,
        "entry_name": "Ekitike Taka Futbol",
        "event_total": 51,
        "has_played": true,
        "id": 55573328,
        "last_rank": 5870,
        "player_name": "J Macan",
        "rank": 8061,
        "rank_sort": 8069,
        "total": 2404
      },
      {
        "club_badge_src": "https://fantasy.premierleague.com/gcs/plfpl-production-adobe-approved/plfpl-production/31680/efef7641-890e-4718-bf04-e45bbcb39ee0.png",
        "entry": 31680,
        "entry_name": "Real Harjunmaas",
        "event_total": 60,
        "has_played": true,
        "id": 200984,
        "last_rank": 7289,
        "player_name": "Oscar Harjunmaa",
        "rank": 8070,
        "rank_sort": 8070,
        "total": 2404
      },
      {
        "club_badge_src": null,
        "entry": 1722347,
        "entry_name": "nsafi",
        "event_total": 55,
        "has_played": true,
        "id": 12072282,
        "last_rank": 5870,
        "player_name": "nazeeh safi",
        "rank": 8070,
        "rank_sort": 8071,
        "total": 2404
      },
      {
        "club_badge_src": "https://fantasy.premierleague.com/gcs/plfpl-production-adobe-approved/plfpl-production/354103/da6a449d-85b1-4321-99d4-7f6074d9d647.png",
        "entry": 354103,
        "entry_name": "McNeil Before Zod",
        "event_total": 69,
        "has_played": true,
        "id": 2369857,
        "last_rank": 12563,
        "player_name": "Stephen Mullan",
        "rank": 8072,
        "rank_sort": 8072,
        "total": 2404
      },
      {
        "club_badge_src": null,
        "entry": 2417748,
        "entry_name": "\u010cech mate",
        "event_total": 60,
        "has_played": true,
        "id": 17283794,
        "last_rank": 8658,
        "player_name": "David Bradshaw",
        "rank": 8072,
        "rank_sort": 8073,
        "total": 2404
      },
      {
        "club_badge_src": null,
        "entry": 3741257,
        "entry_name": "Hanging on by a Fred",
        "event_total": 58,
        "has_played": true,
        "id": 27927849,
        "last_rank": 7933,
        "player_name": "Michael Wade",
        "rank": 8072,
        "rank_sort": 8074,
        "total": 2404
      },
      {
        "club_badge_src": null,
        "entry": 914208,
        "entry_name": "AssafMUFC",
        "event_total": 82,
        "has_played": true,
        "id": 6286331,
        "last_rank": 20782,
        "player_name": "ali assaf",
        "rank": 8075,
        "rank_sort": 8075,
        "total": 2404
      },
      {
        "club_badge_src": null,
        "entry": 94778,
        "entry_name": "Gyok \u2018n roller",
        "event_total": 41,
        "has_played": true,
        "id": 619287,
        "last_rank": 3682,
        "player_name": "Harry Godden",
        "rank": 8076,
        "rank_sort": 8076,
        "total": 2404
      },
      {
        "club_badge_src": null,
        "entry": 806260,
        "entry_name": "Wile E Kayode",
        "event_total": 70,
        "has_played": true,
        "id": 5519350,
        "last_rank": 13112,
        "player_name": "Michael O'Mara",
        "rank": 8076,
        "rank_sort": 8077,
        "total": 2404
      },
      {
        "club_badge_src": null,
        "entry": 3203371,
        "entry_name": "15.",
        "event_total": 68,
        "has_played": true,
        "id": 23680774,
        "last_rank": 10239,
        "player_name": "abo Mishare",
        "rank": 8078,
        "rank_sort": 8078,
        "total": 2404
      },
      {
        "club_badge_src": "https://fantasy.premierleague.com/gcs/plfpl-production-adobe-approved/plfpl-production/7741111/470a3217-e82a-47b5-a410-fdb964c3a2f7.png",
        "entry": 7741111,
        "entry_name": "Lakers_Dream_FC",
        "event_total": 64,
        "has_played": true,
        "id": 63540927,
        "last_rank": 8664,
        "player_name": "lisa akers",
        "rank": 8078,
        "rank_sort": 8079,
        "total": 2404
      },
      {
        "club_badge_src": null,
        "entry": 365707,
        "entry_name": "FC Yabu",
        "event_total": 49,
        "has_played": true,
        "id": 2447347,
        "last_rank": 5375,
        "player_name": "Danniel Beltran",
        "rank": 8080,
        "rank_sort": 8080,
        "total": 2404
      },
      {
        "club_badge_src": null,
        "entry": 317972,
        "entry_name": "dunkep\u00e5",
        "event_total": 71,
        "has_played": true,
        "id": 2131413,
        "last_rank": 11578,
        "player_name": "Johannes St\u00f8rkersen",
        "rank": 8081,
        "rank_sort": 8081,
        "total": 2404
      },
      {
        "club_badge_src": null,
        "entry": 161219,
        "entry_name": "Skita&spy samtidigt",
        "event_total": 59,
        "has_played": true,
        "id": 1062011,
        "last_rank": 6987,
        "player_name": "Pontus Weghammar",
        "rank": 8082,
        "rank_sort": 8082,
        "total": 2404
      },
      {
        "club_badge_src": null,
        "entry": 857438,
        "entry_name": "Gunnersaurus Rex",
        "event_total": 51,
        "has_played": true,
        "id": 5877445,
        "last_rank": 5881,
        "player_name": "Gurpreet Bajwa",
        "rank": 8083,
        "rank_sort": 8083,
        "total": 2403
      },
      {
        "club_badge_src": "https://fantasy.premierleague.com/gcs/plfpl-production-adobe-approved/plfpl-production/5699963/9b535acb-e6bf-46a8-a81c-47c8bca9de2b.png",
        "entry": 5699963,
        "entry_name": "DRDOORINHO",
        "event_total": 69,
        "has_played": true,
        "id": 44627485,
        "last_rank": 12589,
        "player_name": "Nader Elsayed",
        "rank": 8084,
        "rank_sort": 8084,
        "total": 2403
      },
      {
        "club_badge_src": null,
        "entry": 5796070,
        "entry_name": "Give Me Some Kudus",
        "event_total": 60,
        "has_played": true,
        "id": 45464730,
        "last_rank": 8670,
        "player_name": "Mark Burnett",
        "rank": 8085,
        "rank_sort": 8085,
        "total": 2403
      },
      {
        "club_badge_src": null,
        "entry": 4633663,
        "entry_name": "AI Supercomputer",
        "event_total": 43,
        "has_played": true,
        "id": 35432525,
        "last_rank": 4047,
        "player_name": "Stewart Thompson",
        "rank": 8086,
        "rank_sort": 8086,
        "total": 2403
      },
      {
        "club_badge_src": null,
        "entry": 9186878,
        "entry_name": "Respectfully FC",
        "event_total": 73,
        "has_played": true,
        "id": 77304658,
        "last_rank": 14832,
        "player_name": "Sam Nilsen",
        "rank": 8086,
        "rank_sort": 8087,
        "total": 2403
      },
      {
        "club_badge_src": null,
        "entry": 264603,
        "entry_name": "Better Call Salah",
        "event_total": 60,
        "has_played": true,
        "id": 1759650,
        "last_rank": 8676,
        "player_name": "Ryan Fernand",
        "rank": 8088,
        "rank_sort": 8088,
        "total": 2403
      },
      {
        "club_badge_src": "https://fantasy.premierleague.com/gcs/plfpl-production-adobe-approved/plfpl-production/787644/12cfc95d-22ef-494a-8fe5-6a7649fdd2f4.png",
        "entry": 787644,
        "entry_name": "West Ham United",
        "event_total": 58,
        "has_played": true,
        "id": 5385204,
        "last_rank": 7949,
        "player_name": "Dillon Bettess",
        "rank": 8088,
        "rank_sort": 8089,
        "total": 2403
      },
      {
        "club_badge_src": null,
        "entry": 903880,
        "entry_name": "11 SAS",
        "event_total": 54,
        "has_played": true,
        "id": 6210836,
        "last_rank": 6677,
        "player_name": "Himal Rana",
        "rank": 8088,
        "rank_sort": 8090,
        "total": 2403
      },
      {
        "club_badge_src": null,
        "entry": 1619583,
        "entry_name": "#LiamOut",
        "event_total": 81,
        "has_played": true,
        "id": 11333423,
        "last_rank": 20109,
        "player_name": "Max Kalikow",
        "rank": 8088,
        "rank_sort": 8091,
        "total": 2403
      },
      {
        "club_badge_src": null,
        "entry": 3050616,
        "entry_name": "Kinder Mbeumo",
        "event_total": 62,
        "has_played": true,
        "id": 22457866,
        "last_rank": 9484,
        "player_name": "Charlie Thomas",
        "rank": 8088,
        "rank_sort": 8092,
        "total": 2403
      },
      {
        "club_badge_src": null,
        "entry": 3784034,
        "entry_name": "Edward\u2019s dads Dumbos",
        "event_total": 62,
        "has_played": true,
        "id": 28257101,
        "last_rank": 9459,
        "player_name": "Paul Jefferys",
        "rank": 8088,
        "rank_sort": 8093,
        "total": 2403
      },
      {
        "club_badge_src": null,
        "entry": 6239198,
        "entry_name": "The Mighty Dale",
        "event_total": 66,
        "has_played": true,
        "id": 49382130,
        "last_rank": 11175,
        "player_name": "Innes Roy",
        "rank": 8088,
        "rank_sort": 8094,
        "total": 2403
      },
      {
        "club_badge_src": null,
        "entry": 6374770,
        "entry_name": "Fpl Raptor",
        "event_total": 50,
        "has_played": true,
        "id": 50696083,
        "last_rank": 5632,
        "player_name": "john doe",
        "rank": 8088,
        "rank_sort": 8095,
        "total": 2403
      },
      {
        "club_badge_src": null,
        "entry": 9133808,
        "entry_name": "Milito FC",
        "event_total": 66,
        "has_played": true,
        "id": 76783431,
        "last_rank": 11142,
        "player_name": "MILTON M NTEMBE",
        "rank": 8088,
        "rank_sort": 8096,
        "total": 2403
      },
      {
        "club_badge_src": null,
        "entry": 2170,
        "entry_name": "Blurton FC",
        "event_total": 55,
        "has_played": true,
        "id": 12100,
        "last_rank": 7014,
        "player_name": "Lee Maddison",
        "rank": 8097,
        "rank_sort": 8097,
        "total": 2403
      },
      {
        "club_badge_src": null,
        "entry": 117942,
        "entry_name": "NUMERO BRUNO",
        "event_total": 63,
        "has_played": true,
        "id": 769765,
        "last_rank": 9885,
        "player_name": "Alfred Kajl\u00f6v",
        "rank": 8097,
        "rank_sort": 8098,
        "total": 2403
      },
      {
        "club_badge_src": null,
        "entry": 196827,
        "entry_name": "Roxtown Rovers",
        "event_total": 51,
        "has_played": true,
        "id": 1305793,
        "last_rank": 5940,
        "player_name": "Oisin Hession",
        "rank": 8097,
        "rank_sort": 8099,
        "total": 2403
      },
      {
        "club_badge_src": null,
        "entry": 252500,
        "entry_name": "Karsenal",
        "event_total": 71,
        "has_played": true,
        "id": 1679512,
        "last_rank": 13720,
        "player_name": "Karst van Doorn",
        "rank": 8097,
        "rank_sort": 8100,
        "total": 2403
      }
    ]
  }
}