{
  "last_updated_data": "2026-05-24T23:28:17Z",
  "league": {
    "admin_entry": null,
    "closed": false,
    "code_privacy": "p",
    "created": "2025-07-20T23:14:33.933835Z",
    "cup_league": 2815434,
    "has_cup": true,
    "id": 314,
    "league_type": "s",
    "max_entries": null,
    "name": "Overall",
    "rank": null,
    "scoring": "c",
    "start_event": 1
  },
  "new_entries": {
    "has_next": false,
    "page": 1,
    "results": []
  },
  "standings": {
    "has_next": true,
    "page": 1561,
    "results": [
      {
        "club_badge_src": null,
        "entry": 3913930,
        "entry_name": "shahen",
        "event_total": 80,
        "has_played": true,
        "id": 29429040,
        "last_rank": 142439,
        "player_name": "Ahmed Shahen",
        "rank": 77757,
        "rank_sort": 78001,
        "total": 2336
      },
      {
        "club_badge_src": null,
        "entry": 3941265,
        "entry_name": "Obi Wan - Kenobi Nil",
        "event_total": 55,
        "has_played": true,
        "id": 29647816,
        "last_rank": 74898,
        "player_name": "Jack Mcgeough",
        "rank": 77757,
        "rank_sort": 78002,
        "total": 2336
      },
      {
        "club_badge_src": null,
        "entry": 3942300,
        "entry_name": "Longmans Lads",
        "event_total": 63,
        "has_played": true,
        "id": 29655793,
        "last_rank": 93443,
        "player_name": "Andrew Longman",
        "rank": 77757,
        "rank_sort": 78003,
        "total": 2336
      },
      {
        "club_badge_src": null,
        "entry": 3947879,
        "entry_name": "Dirk Digglers",
        "event_total": 36,
        "has_played": true,
        "id": 29698967,
        "last_rank": 42648,
        "player_name": "Matt Harper",
        "rank": 77757,
        "rank_sort": 78004,
        "total": 2336
      },
      {
        "club_badge_src": null,
        "entry": 3951947,
        "entry_name": "Farkeng Hostile",
        "event_total": 55,
        "has_played": true,
        "id": 29730753,
        "last_rank": 75139,
        "player_name": "Sean McComish",
        "rank": 77757,
        "rank_sort": 78005,
        "total": 2336
      },
      {
        "club_badge_src": null,
        "entry": 3958997,
        "entry_name": "Paq Is Free",
        "event_total": 57,
        "has_played": true,
        "id": 29786208,
        "last_rank": 79431,
        "player_name": "Cody Ho",
        "rank": 77757,
        "rank_sort": 78006,
        "total": 2336
      },
      {
        "club_badge_src": null,
        "entry": 3999162,
        "entry_name": "What Is Rob Holding",
        "event_total": 63,
        "has_played": true,
        "id": 30119314,
        "last_rank": 93443,
        "player_name": "Timmi Kolias",
        "rank": 77757,
        "rank_sort": 78007,
        "total": 2336
      },
      {
        "club_badge_src": null,
        "entry": 4030029,
        "entry_name": "Alemania Mariadorf",
        "event_total": 63,
        "has_played": true,
        "id": 30381059,
        "last_rank": 92973,
        "player_name": "Til Schultheiss",
        "rank": 77757,
        "rank_sort": 78008,
        "total": 2336
      },
      {
        "club_badge_src": null,
        "entry": 4041610,
        "entry_name": "Benjamin Sesko",
        "event_total": 53,
        "has_played": true,
        "id": 30480075,
        "last_rank": 70757,
        "player_name": "Sebastian Bernhard Titlestad",
        "rank": 77757,
        "rank_sort": 78009,
        "total": 2336
      },
      {
        "club_badge_src": null,
        "entry": 4055621,
        "entry_name": "Cherkin' Me Off",
        "event_total": 55,
        "has_played": true,
        "id": 30600731,
        "last_rank": 74898,
        "player_name": "Archie Hase",
        "rank": 77757,
        "rank_sort": 78010,
        "total": 2336
      },
      {
        "club_badge_src": "https://fantasy.premierleague.com/gcs/plfpl-production-adobe-approved/plfpl-production/4094163/7d1a089a-497d-4132-97b4-53c911fe3533.png",
        "entry": 4094163,
        "entry_name": "Zirkzee n I know it",
        "event_total": 52,
        "has_played": true,
        "id": 30912791,
        "last_rank": 68957,
        "player_name": "Rao Ibrahim Khan",
        "rank": 77757,
        "rank_sort": 78011,
        "total": 2336
      },
      {
        "club_badge_src": null,
        "entry": 4104599,
        "entry_name": "40 year old Virgil",
        "event_total": 55,
        "has_played": true,
        "id": 30996311,
        "last_rank": 75139,
        "player_name": "Colleen Theis",
        "rank": 77757,
        "rank_sort": 78012,
        "total": 2336
      },
      {
        "club_badge_src": null,
        "entry": 4139845,
        "entry_name": "lichtensteinfc",
        "event_total": 49,
        "has_played": true,
        "id": 31286898,
        "last_rank": 63390,
        "player_name": "Dovi Lichtenstein",
        "rank": 77757,
        "rank_sort": 78013,
        "total": 2336
      },
      {
        "club_badge_src": null,
        "entry": 4147491,
        "entry_name": "ApexFC",
        "event_total": 49,
        "has_played": true,
        "id": 31347498,
        "last_rank": 63201,
        "player_name": "Alfie Sharpe",
        "rank": 77757,
        "rank_sort": 78014,
        "total": 2336
      },
      {
        "club_badge_src": null,
        "entry": 4162341,
        "entry_name": "Seychelleshobo",
        "event_total": 70,
        "has_played": true,
        "id": 31473467,
        "last_rank": 111669,
        "player_name": "Simon Houareau",
        "rank": 77757,
        "rank_sort": 78015,
        "total": 2336
      },
      {
        "club_badge_src": null,
        "entry": 4197855,
        "entry_name": "The Slot Machine",
        "event_total": 58,
        "has_played": true,
        "id": 31774306,
        "last_rank": 81646,
        "player_name": "Shane Daly",
        "rank": 77757,
        "rank_sort": 78016,
        "total": 2336
      },
      {
        "club_badge_src": null,
        "entry": 4225052,
        "entry_name": "abdelrahman",
        "event_total": 57,
        "has_played": true,
        "id": 32007589,
        "last_rank": 79079,
        "player_name": "Abdelrahman Badwi",
        "rank": 77757,
        "rank_sort": 78017,
        "total": 2336
      },
      {
        "club_badge_src": "https://fantasy.premierleague.com/gcs/plfpl-production-adobe-approved/plfpl-production/4228924/70876deb-8d81-464c-9709-2e5d3cd1e11b.png",
        "entry": 4228924,
        "entry_name": "Die Mannschaft",
        "event_total": 42,
        "has_played": true,
        "id": 32040755,
        "last_rank": 51720,
        "player_name": "Garry Jones",
        "rank": 77757,
        "rank_sort": 78018,
        "total": 2336
      },
      {
        "club_badge_src": null,
        "entry": 4233793,
        "entry_name": "Twice As Nice",
        "event_total": 47,
        "has_played": true,
        "id": 32081297,
        "last_rank": 59813,
        "player_name": "Patrick Nwoga",
        "rank": 77757,
        "rank_sort": 78019,
        "total": 2336
      },
      {
        "club_badge_src": null,
        "entry": 4252277,
        "entry_name": "JesusPiecesAndFeces",
        "event_total": 57,
        "has_played": true,
        "id": 32234925,
        "last_rank": 79431,
        "player_name": "Dare Rolfe",
        "rank": 77757,
        "rank_sort": 78020,
        "total": 2336
      },
      {
        "club_badge_src": null,
        "entry": 4256735,
        "entry_name": "Grehan's Golazzos",
        "event_total": 51,
        "has_played": true,
        "id": 32271801,
        "last_rank": 67063,
        "player_name": "Adam Grehan",
        "rank": 77757,
        "rank_sort": 78021,
        "total": 2336
      },
      {
        "club_badge_src": "https://fantasy.premierleague.com/gcs/plfpl-production-adobe-approved/plfpl-production/4268653/2e8018f0-b1e7-46ca-bef3-9fbda18518cb.png",
        "entry": 4268653,
        "entry_name": "Khan\u2019t catch me",
        "event_total": 49,
        "has_played": true,
        "id": 32368905,
        "last_rank": 63390,
        "player_name": "Wajeeh Khan",
        "rank": 77757,
        "rank_sort": 78022,
        "total": 2336
      },
      {
        "club_badge_src": null,
        "entry": 4282890,
        "entry_name": "The Eh-Team",
        "event_total": 64,
        "has_played": true,
        "id": 32483478,
        "last_rank": 95890,
        "player_name": "Sarah Polley",
        "rank": 77757,
        "rank_sort": 78023,
        "total": 2336
      },
      {
        "club_badge_src": null,
        "entry": 4290842,
        "entry_name": "We Played Weller",
        "event_total": 48,
        "has_played": true,
        "id": 32547694,
        "last_rank": 61606,
        "player_name": "Liam Feely",
        "rank": 77757,
        "rank_sort": 78024,
        "total": 2336
      },
      {
        "club_badge_src": null,
        "entry": 4332581,
        "entry_name": "Champagne Khusanova",
        "event_total": 48,
        "has_played": true,
        "id": 32888375,
        "last_rank": 61315,
        "player_name": "Hayden Young",
        "rank": 77757,
        "rank_sort": 78025,
        "total": 2336
      },
      {
        "club_badge_src": null,
        "entry": 4364081,
        "entry_name": "Change Name",
        "event_total": 67,
        "has_played": true,
        "id": 33148492,
        "last_rank": 103526,
        "player_name": "Bradley Tapp",
        "rank": 77757,
        "rank_sort": 78026,
        "total": 2336
      },
      {
        "club_badge_src": null,
        "entry": 4388561,
        "entry_name": "Mushy Peas FC",
        "event_total": 61,
        "has_played": true,
        "id": 33359838,
        "last_rank": 88594,
        "player_name": "Murray Gracie",
        "rank": 77757,
        "rank_sort": 78027,
        "total": 2336
      },
      {
        "club_badge_src": null,
        "entry": 4493838,
        "entry_name": "Dr-01",
        "event_total": 58,
        "has_played": true,
        "id": 34255964,
        "last_rank": 81646,
        "player_name": "Mohamed Fekry",
        "rank": 77757,
        "rank_sort": 78028,
        "total": 2336
      },
      {
        "club_badge_src": null,
        "entry": 4501280,
        "entry_name": "Alakent\u00e4n Arteta",
        "event_total": 39,
        "has_played": true,
        "id": 34316865,
        "last_rank": 46839,
        "player_name": "Daniel Louvo",
        "rank": 77757,
        "rank_sort": 78029,
        "total": 2336
      },
      {
        "club_badge_src": null,
        "entry": 4518579,
        "entry_name": "COYG",
        "event_total": 53,
        "has_played": true,
        "id": 34459016,
        "last_rank": 70985,
        "player_name": "Emmett Kiely",
        "rank": 77757,
        "rank_sort": 78030,
        "total": 2336
      },
      {
        "club_badge_src": null,
        "entry": 4522112,
        "entry_name": "Pazza Inter ANALa",
        "event_total": 59,
        "has_played": true,
        "id": 34488215,
        "last_rank": 83698,
        "player_name": "Jon Jon",
        "rank": 77757,
        "rank_sort": 78031,
        "total": 2336
      },
      {
        "club_badge_src": null,
        "entry": 4544643,
        "entry_name": "NO Ledge\ufffd",
        "event_total": 50,
        "has_played": true,
        "id": 34672913,
        "last_rank": 65163,
        "player_name": "A Stewart",
        "rank": 77757,
        "rank_sort": 78032,
        "total": 2336
      },
      {
        "club_badge_src": null,
        "entry": 4601300,
        "entry_name": "Scandalous Scandies",
        "event_total": 62,
        "has_played": true,
        "id": 35150243,
        "last_rank": 91006,
        "player_name": "Max Bergstrom",
        "rank": 77757,
        "rank_sort": 78033,
        "total": 2336
      },
      {
        "club_badge_src": null,
        "entry": 4603123,
        "entry_name": "Kompany Policy",
        "event_total": 55,
        "has_played": true,
        "id": 35166038,
        "last_rank": 74787,
        "player_name": "Adam Perfect",
        "rank": 77757,
        "rank_sort": 78034,
        "total": 2336
      },
      {
        "club_badge_src": null,
        "entry": 4681816,
        "entry_name": "Looney Toons",
        "event_total": 64,
        "has_played": true,
        "id": 35875409,
        "last_rank": 95527,
        "player_name": "Ruben Evensen",
        "rank": 77757,
        "rank_sort": 78035,
        "total": 2336
      },
      {
        "club_badge_src": null,
        "entry": 4757721,
        "entry_name": "Nate the Great",
        "event_total": 61,
        "has_played": true,
        "id": 36612982,
        "last_rank": 88594,
        "player_name": "nathan veltom",
        "rank": 77757,
        "rank_sort": 78036,
        "total": 2336
      },
      {
        "club_badge_src": null,
        "entry": 4788319,
        "entry_name": "Thomohawks **",
        "event_total": 77,
        "has_played": true,
        "id": 36862577,
        "last_rank": 132198,
        "player_name": "Nic Thompson",
        "rank": 77757,
        "rank_sort": 78037,
        "total": 2336
      },
      {
        "club_badge_src": null,
        "entry": 4795243,
        "entry_name": "TPartridge21",
        "event_total": 67,
        "has_played": true,
        "id": 36918741,
        "last_rank": 103254,
        "player_name": "Toby Partridge",
        "rank": 77757,
        "rank_sort": 78038,
        "total": 2336
      },
      {
        "club_badge_src": null,
        "entry": 4815365,
        "entry_name": "AFC Newtown",
        "event_total": 46,
        "has_played": true,
        "id": 37079544,
        "last_rank": 58071,
        "player_name": "Mohsin Seth",
        "rank": 77757,
        "rank_sort": 78039,
        "total": 2336
      },
      {
        "club_badge_src": null,
        "entry": 4878983,
        "entry_name": "Chicken Tika MoSalah",
        "event_total": 41,
        "has_played": true,
        "id": 37610388,
        "last_rank": 50199,
        "player_name": "Bradley Mulhall",
        "rank": 77757,
        "rank_sort": 78040,
        "total": 2336
      },
      {
        "club_badge_src": null,
        "entry": 4892592,
        "entry_name": "Weah aye",
        "event_total": 61,
        "has_played": true,
        "id": 37723240,
        "last_rank": 88348,
        "player_name": "Anthony Cumiskey",
        "rank": 77757,
        "rank_sort": 78041,
        "total": 2336
      },
      {
        "club_badge_src": null,
        "entry": 4897089,
        "entry_name": "Odegaardians Galaxy",
        "event_total": 48,
        "has_played": true,
        "id": 37760187,
        "last_rank": 61950,
        "player_name": "Eric Kusno",
        "rank": 77757,
        "rank_sort": 78042,
        "total": 2336
      },
      {
        "club_badge_src": null,
        "entry": 4939462,
        "entry_name": "Operators FC",
        "event_total": 54,
        "has_played": true,
        "id": 38109668,
        "last_rank": 73423,
        "player_name": "Aaron Appiah Kubi",
        "rank": 77757,
        "rank_sort": 78043,
        "total": 2336
      },
      {
        "club_badge_src": "https://fantasy.premierleague.com/gcs/plfpl-production-adobe-approved/plfpl-production/4967744/8c2ed9da-8e20-44b5-8ed7-5aabdeb244de.png",
        "entry": 4967744,
        "entry_name": "IMSE Patron",
        "event_total": 66,
        "has_played": true,
        "id": 38337564,
        "last_rank": 100572,
        "player_name": "Hassan Hamed",
        "rank": 77757,
        "rank_sort": 78044,
        "total": 2336
      },
      {
        "club_badge_src": null,
        "entry": 5131586,
        "entry_name": "Vigi Utd",
        "event_total": 59,
        "has_played": true,
        "id": 39688432,
        "last_rank": 83934,
        "player_name": "Victor Westerlund",
        "rank": 77757,
        "rank_sort": 78045,
        "total": 2336
      },
      {
        "club_badge_src": null,
        "entry": 5141200,
        "entry_name": "giersen tricky reds",
        "event_total": 74,
        "has_played": true,
        "id": 39770469,
        "last_rank": 123422,
        "player_name": "giersen lad",
        "rank": 77757,
        "rank_sort": 78046,
        "total": 2336
      },
      {
        "club_badge_src": null,
        "entry": 5153198,
        "entry_name": "Beef Cherki",
        "event_total": 68,
        "has_played": true,
        "id": 39869771,
        "last_rank": 105963,
        "player_name": "Tom Beadle",
        "rank": 77757,
        "rank_sort": 78047,
        "total": 2336
      },
      {
        "club_badge_src": null,
        "entry": 5154392,
        "entry_name": "Glenficas U23s",
        "event_total": 53,
        "has_played": true,
        "id": 39880367,
        "last_rank": 70985,
        "player_name": "Sam Cook",
        "rank": 77757,
        "rank_sort": 78048,
        "total": 2336
      },
      {
        "club_badge_src": null,
        "entry": 5303136,
        "entry_name": "Haalandaise Sauce",
        "event_total": 59,
        "has_played": true,
        "id": 41107532,
        "last_rank": 83934,
        "player_name": "Spencer Tencza",
        "rank": 77757,
        "rank_sort": 78049,
        "total": 2336
      },
      {
        "club_badge_src": "https://fantasy.premierleague.com/gcs/plfpl-production-adobe-approved/plfpl-production/5360932/13de154e-6a46-4c73-9f6c-1062c618b6c2.png",
        "entry": 5360932,
        "entry_name": "Georgie Best FC",
        "event_total": 70,
        "has_played": true,
        "id": 41636824,
        "last_rank": 111270,
        "player_name": "George Gently",
        "rank": 77757,
        "rank_sort": 78050,
        "total": 2336
      }
    ]
  }
}