{
  "last_updated_data": "2026-05-24T23:28:17Z",
  "league": {
    "admin_entry": null,
    "closed": false,
    "code_privacy": "p",
    "created": "2025-07-20T23:14:33.933835Z",
    "cup_league": 2815434,
    "has_cup": true,
    "id": 314,
    "league_type": "s",
    "max_entries": null,
    "name": "Overall",
    "rank": null,
    "scoring": "c",
    "start_event": 1
  },
  "new_entries": {
    "has_next": false,
    "page": 1,
    "results": []
  },
  "standings": {
    "has_next": true,
    "page": 611,
    "results": [
      {
        "club_badge_src": null,
        "entry": 2411912,
        "entry_name": "FreshPrinceOfBallard",
        "event_total": 52,
        "has_played": true,
        "id": 17241281,
        "last_rank": 22154,
        "player_name": "barry wallace",
        "rank": 30465,
        "rank_sort": 30501,
        "total": 2368
      },
      {
        "club_badge_src": null,
        "entry": 2783540,
        "entry_name": "ARM (LFC TH)",
        "event_total": 67,
        "has_played": true,
        "id": 20320002,
        "last_rank": 36963,
        "player_name": "Arm wannachai",
        "rank": 30465,
        "rank_sort": 30502,
        "total": 2368
      },
      {
        "club_badge_src": null,
        "entry": 2943757,
        "entry_name": "Tiki Taka FC",
        "event_total": 51,
        "has_played": true,
        "id": 21600692,
        "last_rank": 24570,
        "player_name": "Taran Wason",
        "rank": 30465,
        "rank_sort": 30503,
        "total": 2368
      },
      {
        "club_badge_src": "https://fantasy.premierleague.com/gcs/plfpl-production-adobe-approved/plfpl-production/2976210/8d953d9f-d420-42df-b1d6-3b0d916cfe94.png",
        "entry": 2976210,
        "entry_name": "Forever our No.20",
        "event_total": 60,
        "has_played": true,
        "id": 21870669,
        "last_rank": 28906,
        "player_name": "Luke Sokhal",
        "rank": 30465,
        "rank_sort": 30504,
        "total": 2368
      },
      {
        "club_badge_src": null,
        "entry": 3320772,
        "entry_name": "On Porro'd Time",
        "event_total": 61,
        "has_played": true,
        "id": 24615616,
        "last_rank": 34578,
        "player_name": "Ryan Clifford",
        "rank": 30465,
        "rank_sort": 30505,
        "total": 2368
      },
      {
        "club_badge_src": null,
        "entry": 3330717,
        "entry_name": "Beef Cherki",
        "event_total": 66,
        "has_played": true,
        "id": 24695173,
        "last_rank": 40770,
        "player_name": "Ahmad Sharif",
        "rank": 30465,
        "rank_sort": 30506,
        "total": 2368
      },
      {
        "club_badge_src": null,
        "entry": 3453487,
        "entry_name": "Pick Your Own Team",
        "event_total": 52,
        "has_played": true,
        "id": 25665901,
        "last_rank": 25517,
        "player_name": "Jack Walton",
        "rank": 30465,
        "rank_sort": 30507,
        "total": 2368
      },
      {
        "club_badge_src": null,
        "entry": 3669340,
        "entry_name": "Famecesgoal",
        "event_total": 73,
        "has_played": true,
        "id": 27365563,
        "last_rank": 44672,
        "player_name": "Fame Nitinun",
        "rank": 30465,
        "rank_sort": 30508,
        "total": 2368
      },
      {
        "club_badge_src": null,
        "entry": 3884161,
        "entry_name": "Kew Krawlers",
        "event_total": 64,
        "has_played": true,
        "id": 29185976,
        "last_rank": 29071,
        "player_name": "Wei Chan",
        "rank": 30465,
        "rank_sort": 30509,
        "total": 2368
      },
      {
        "club_badge_src": null,
        "entry": 4007848,
        "entry_name": "Klarna Ouf FC",
        "event_total": 53,
        "has_played": true,
        "id": 30192113,
        "last_rank": 26425,
        "player_name": "Orfeas Koidis",
        "rank": 30465,
        "rank_sort": 30510,
        "total": 2368
      },
      {
        "club_badge_src": "https://fantasy.premierleague.com/gcs/plfpl-production-adobe-approved/plfpl-production/4048487/5ca889ed-590d-402f-a706-7bc56560e952.png",
        "entry": 4048487,
        "entry_name": "San Diego Ironworks",
        "event_total": 68,
        "has_played": true,
        "id": 30536937,
        "last_rank": 43444,
        "player_name": "Paul Marshall",
        "rank": 30465,
        "rank_sort": 30511,
        "total": 2368
      },
      {
        "club_badge_src": null,
        "entry": 4230078,
        "entry_name": "Bridgewater 66",
        "event_total": 52,
        "has_played": true,
        "id": 32050096,
        "last_rank": 18985,
        "player_name": "Phil McNulty",
        "rank": 30465,
        "rank_sort": 30512,
        "total": 2368
      },
      {
        "club_badge_src": "https://fantasy.premierleague.com/gcs/plfpl-production-adobe-approved/plfpl-production/4251887/0d3b0998-856c-4eff-a689-ccbc11c3f3ee.png",
        "entry": 4251887,
        "entry_name": "Benjamin Tesco",
        "event_total": 49,
        "has_played": true,
        "id": 32231765,
        "last_rank": 22996,
        "player_name": "Max Tully",
        "rank": 30465,
        "rank_sort": 30513,
        "total": 2368
      },
      {
        "club_badge_src": null,
        "entry": 4546825,
        "entry_name": "SuLTan",
        "event_total": 50,
        "has_played": true,
        "id": 34690252,
        "last_rank": 20624,
        "player_name": "suLTan AloTaibi",
        "rank": 30465,
        "rank_sort": 30514,
        "total": 2368
      },
      {
        "club_badge_src": "https://fantasy.premierleague.com/gcs/plfpl-production-adobe-approved/plfpl-production/4580574/ecb9eac0-a42b-4654-8a9f-be0377656df7.png",
        "entry": 4580574,
        "entry_name": "Kiranto FT",
        "event_total": 53,
        "has_played": true,
        "id": 34967531,
        "last_rank": 26425,
        "player_name": "Shakiran Saffini",
        "rank": 30465,
        "rank_sort": 30515,
        "total": 2368
      },
      {
        "club_badge_src": null,
        "entry": 4672650,
        "entry_name": "Total Football Club",
        "event_total": 84,
        "has_played": true,
        "id": 35793304,
        "last_rank": 55311,
        "player_name": "Jim Rijks",
        "rank": 30465,
        "rank_sort": 30516,
        "total": 2368
      },
      {
        "club_badge_src": null,
        "entry": 4773971,
        "entry_name": "The Juggernauts",
        "event_total": 65,
        "has_played": true,
        "id": 36747544,
        "last_rank": 34578,
        "player_name": "Ramit Sethi",
        "rank": 30465,
        "rank_sort": 30517,
        "total": 2368
      },
      {
        "club_badge_src": "https://fantasy.premierleague.com/gcs/plfpl-production-adobe-approved/plfpl-production/4819025/9a6a16e9-1321-428f-bada-27f4d6a54dcd.png",
        "entry": 4819025,
        "entry_name": "TA3TACHT FC",
        "event_total": 46,
        "has_played": true,
        "id": 37109112,
        "last_rank": 20678,
        "player_name": "BRAHIM CJ",
        "rank": 30465,
        "rank_sort": 30518,
        "total": 2368
      },
      {
        "club_badge_src": null,
        "entry": 4949992,
        "entry_name": "Ha Ha Land",
        "event_total": 62,
        "has_played": true,
        "id": 38194995,
        "last_rank": 35768,
        "player_name": "James Rendall",
        "rank": 30465,
        "rank_sort": 30519,
        "total": 2368
      },
      {
        "club_badge_src": null,
        "entry": 5184945,
        "entry_name": "M\u00fcller Reus",
        "event_total": 57,
        "has_played": true,
        "id": 40135941,
        "last_rank": 30276,
        "player_name": "Thomas Jones",
        "rank": 30465,
        "rank_sort": 30520,
        "total": 2368
      },
      {
        "club_badge_src": null,
        "entry": 5248111,
        "entry_name": "Back of the Neto",
        "event_total": 50,
        "has_played": true,
        "id": 40673599,
        "last_rank": 20624,
        "player_name": "Richard Smith",
        "rank": 30465,
        "rank_sort": 30521,
        "total": 2368
      },
      {
        "club_badge_src": null,
        "entry": 5277006,
        "entry_name": "Just Mo with the Flo",
        "event_total": 54,
        "has_played": true,
        "id": 40901537,
        "last_rank": 23656,
        "player_name": "Simon Hardy",
        "rank": 30465,
        "rank_sort": 30522,
        "total": 2368
      },
      {
        "club_badge_src": null,
        "entry": 5806916,
        "entry_name": "green wellies",
        "event_total": 51,
        "has_played": true,
        "id": 45560147,
        "last_rank": 24636,
        "player_name": "cillian finn",
        "rank": 30465,
        "rank_sort": 30523,
        "total": 2368
      },
      {
        "club_badge_src": null,
        "entry": 5993451,
        "entry_name": "RammerSpartan",
        "event_total": 65,
        "has_played": true,
        "id": 47232364,
        "last_rank": 39510,
        "player_name": "Gus Konstantakos",
        "rank": 30465,
        "rank_sort": 30524,
        "total": 2368
      },
      {
        "club_badge_src": null,
        "entry": 6377422,
        "entry_name": "The Wee Red Boat",
        "event_total": 86,
        "has_played": true,
        "id": 50719616,
        "last_rank": 65475,
        "player_name": "Ewan DK",
        "rank": 30465,
        "rank_sort": 30525,
        "total": 2368
      },
      {
        "club_badge_src": null,
        "entry": 6397637,
        "entry_name": "Mollyball",
        "event_total": 56,
        "has_played": true,
        "id": 50899066,
        "last_rank": 29279,
        "player_name": "Lee Molland",
        "rank": 30465,
        "rank_sort": 30526,
        "total": 2368
      },
      {
        "club_badge_src": null,
        "entry": 6899184,
        "entry_name": "Ha-cunha Matata",
        "event_total": 55,
        "has_played": true,
        "id": 55297339,
        "last_rank": 24570,
        "player_name": "Timothy Cheng",
        "rank": 30465,
        "rank_sort": 30527,
        "total": 2368
      },
      {
        "club_badge_src": null,
        "entry": 7221209,
        "entry_name": "Super Saiyan FC",
        "event_total": 64,
        "has_played": true,
        "id": 58333581,
        "last_rank": 38267,
        "player_name": "Jamie Dwyers",
        "rank": 30465,
        "rank_sort": 30528,
        "total": 2368
      },
      {
        "club_badge_src": null,
        "entry": 7958813,
        "entry_name": "Rainbow Rhythms",
        "event_total": 71,
        "has_played": true,
        "id": 65519926,
        "last_rank": 47596,
        "player_name": "Daniel Whitehouse",
        "rank": 30465,
        "rank_sort": 30529,
        "total": 2368
      },
      {
        "club_badge_src": null,
        "entry": 8400155,
        "entry_name": "The Millers FPL",
        "event_total": 62,
        "has_played": true,
        "id": 69679210,
        "last_rank": 27020,
        "player_name": "Ben Calder",
        "rank": 30465,
        "rank_sort": 30530,
        "total": 2368
      },
      {
        "club_badge_src": null,
        "entry": 8675848,
        "entry_name": "Gibbo FC",
        "event_total": 62,
        "has_played": true,
        "id": 72343969,
        "last_rank": 35867,
        "player_name": "Michael Gibbs",
        "rank": 30465,
        "rank_sort": 30531,
        "total": 2368
      },
      {
        "club_badge_src": null,
        "entry": 9066603,
        "entry_name": "Now Im a Baleba",
        "event_total": 52,
        "has_played": true,
        "id": 76125519,
        "last_rank": 22154,
        "player_name": "Ollie Carey",
        "rank": 30465,
        "rank_sort": 30532,
        "total": 2368
      },
      {
        "club_badge_src": null,
        "entry": 23576,
        "entry_name": "Mody",
        "event_total": 57,
        "has_played": true,
        "id": 148536,
        "last_rank": 22921,
        "player_name": "Ahmed mostafa",
        "rank": 30533,
        "rank_sort": 30533,
        "total": 2368
      },
      {
        "club_badge_src": null,
        "entry": 26790,
        "entry_name": "Boca Seniors",
        "event_total": 63,
        "has_played": true,
        "id": 169377,
        "last_rank": 37134,
        "player_name": "Emil Bj\u00f6rkkvist",
        "rank": 30533,
        "rank_sort": 30534,
        "total": 2368
      },
      {
        "club_badge_src": null,
        "entry": 29789,
        "entry_name": "Rozjebcy",
        "event_total": 54,
        "has_played": true,
        "id": 188413,
        "last_rank": 23748,
        "player_name": "Dutch Schaefer",
        "rank": 30533,
        "rank_sort": 30535,
        "total": 2368
      },
      {
        "club_badge_src": "https://fantasy.premierleague.com/gcs/plfpl-production-adobe-approved/plfpl-production/150595/6e726b3c-b885-4736-9986-9ea0eecdae37.png",
        "entry": 150595,
        "entry_name": "FC nelo",
        "event_total": 53,
        "has_played": true,
        "id": 987718,
        "last_rank": 26425,
        "player_name": "Jesper Sj\u00f6berg",
        "rank": 30533,
        "rank_sort": 30536,
        "total": 2368
      },
      {
        "club_badge_src": "https://fantasy.premierleague.com/gcs/plfpl-production-adobe-approved/plfpl-production/152980/aafec544-7b1b-4670-8df0-55718d89a094.png",
        "entry": 152980,
        "entry_name": "The Ups!de \u2b07\ufe0f V5",
        "event_total": 73,
        "has_played": true,
        "id": 1004410,
        "last_rank": 44804,
        "player_name": "Yaseen Samsodien",
        "rank": 30533,
        "rank_sort": 30537,
        "total": 2368
      },
      {
        "club_badge_src": null,
        "entry": 188091,
        "entry_name": "Yellow Bellies",
        "event_total": 68,
        "has_played": true,
        "id": 1244133,
        "last_rank": 38267,
        "player_name": "Justin Dickinson",
        "rank": 30533,
        "rank_sort": 30538,
        "total": 2368
      },
      {
        "club_badge_src": "https://fantasy.premierleague.com/gcs/plfpl-production-adobe-approved/plfpl-production/303770/a567488a-a0e6-4d4f-8d5a-d1bad16a0f59.png",
        "entry": 303770,
        "entry_name": "\ufffdAppiiinnnn\ufffd",
        "event_total": 65,
        "has_played": true,
        "id": 2033543,
        "last_rank": 34682,
        "player_name": "hichem antabli",
        "rank": 30533,
        "rank_sort": 30539,
        "total": 2368
      },
      {
        "club_badge_src": null,
        "entry": 346545,
        "entry_name": "v\u00f6r\u00e5bonden",
        "event_total": 78,
        "has_played": true,
        "id": 2319635,
        "last_rank": 58911,
        "player_name": "Troy Byman",
        "rank": 30533,
        "rank_sort": 30540,
        "total": 2368
      },
      {
        "club_badge_src": null,
        "entry": 431424,
        "entry_name": "The Burn Identity",
        "event_total": 60,
        "has_played": true,
        "id": 2893363,
        "last_rank": 33651,
        "player_name": "Luke Fullagar",
        "rank": 30533,
        "rank_sort": 30541,
        "total": 2368
      },
      {
        "club_badge_src": "https://fantasy.premierleague.com/gcs/plfpl-production-adobe-approved/plfpl-production/438491/71cc8fb8-5c16-4ca3-a739-484c169e0bd3.png",
        "entry": 438491,
        "entry_name": "7ndqisback",
        "event_total": 62,
        "has_played": true,
        "id": 2940405,
        "last_rank": 35926,
        "player_name": "Duc Quynh Nguyen",
        "rank": 30533,
        "rank_sort": 30542,
        "total": 2368
      },
      {
        "club_badge_src": null,
        "entry": 565049,
        "entry_name": "Bowen 747",
        "event_total": 73,
        "has_played": true,
        "id": 3803280,
        "last_rank": 50772,
        "player_name": "Lucas Winter",
        "rank": 30533,
        "rank_sort": 30543,
        "total": 2368
      },
      {
        "club_badge_src": null,
        "entry": 597458,
        "entry_name": "I'm Amad Lad",
        "event_total": 57,
        "has_played": true,
        "id": 4028970,
        "last_rank": 26230,
        "player_name": "Joshua Tan",
        "rank": 30533,
        "rank_sort": 30544,
        "total": 2368
      },
      {
        "club_badge_src": null,
        "entry": 777440,
        "entry_name": "Amad Fer It",
        "event_total": 60,
        "has_played": true,
        "id": 5304731,
        "last_rank": 29199,
        "player_name": "Gary Frances McLaughlin",
        "rank": 30533,
        "rank_sort": 30545,
        "total": 2368
      },
      {
        "club_badge_src": null,
        "entry": 810111,
        "entry_name": "Gerry Hatrick",
        "event_total": 69,
        "has_played": true,
        "id": 5546591,
        "last_rank": 34578,
        "player_name": "Doug Bonn",
        "rank": 30533,
        "rank_sort": 30546,
        "total": 2368
      },
      {
        "club_badge_src": null,
        "entry": 1037456,
        "entry_name": "\u062c\u0632\u0627\u0626\u0631\u064a \u0648 \u0623\u0641\u062a\u062e\u0631",
        "event_total": 71,
        "has_played": true,
        "id": 7179303,
        "last_rank": 36831,
        "player_name": "\u0648\u0644\u064a\u062f \u0635\u0627\u062f\u0642\u064a",
        "rank": 30533,
        "rank_sort": 30547,
        "total": 2368
      },
      {
        "club_badge_src": "https://fantasy.premierleague.com/gcs/plfpl-production-adobe-approved/plfpl-production/1153049/9e9f4a44-f4bd-4433-9713-d0f06ae169e9.png",
        "entry": 1153049,
        "entry_name": "Hakuna Matata \u2605\u2605\u2605",
        "event_total": 59,
        "has_played": true,
        "id": 7995332,
        "last_rank": 32437,
        "player_name": "Borna Plentaj",
        "rank": 30533,
        "rank_sort": 30548,
        "total": 2368
      },
      {
        "club_badge_src": null,
        "entry": 1249250,
        "entry_name": "john o riordan",
        "event_total": 60,
        "has_played": true,
        "id": 8676064,
        "last_rank": 25436,
        "player_name": "John O'Riordan",
        "rank": 30533,
        "rank_sort": 30549,
        "total": 2368
      },
      {
        "club_badge_src": "https://fantasy.premierleague.com/gcs/plfpl-production-adobe-approved/plfpl-production/1300931/6cac0d3e-2cb7-45f7-9cdf-550ba691c4d4.png",
        "entry": 1300931,
        "entry_name": "Los Porro Hermanos",
        "event_total": 68,
        "has_played": true,
        "id": 9041431,
        "last_rank": 43512,
        "player_name": "Dimitris Skafidas",
        "rank": 30533,
        "rank_sort": 30550,
        "total": 2368
      }
    ]
  }
}