{
  "last_updated_data": "2026-05-24T23:28:17Z",
  "league": {
    "admin_entry": null,
    "closed": false,
    "code_privacy": "p",
    "created": "2025-07-20T23:14:33.933835Z",
    "cup_league": 2815434,
    "has_cup": true,
    "id": 314,
    "league_type": "s",
    "max_entries": null,
    "name": "Overall",
    "rank": null,
    "scoring": "c",
    "start_event": 1
  },
  "new_entries": {
    "has_next": false,
    "page": 1,
    "results": []
  },
  "standings": {
    "has_next": true,
    "page": 1320,
    "results": [
      {
        "club_badge_src": null,
        "entry": 2409139,
        "entry_name": "Holy Cinema",
        "event_total": 50,
        "has_played": true,
        "id": 17220506,
        "last_rank": 54667,
        "player_name": "Bjorgvin Atli Juliusson",
        "rank": 65898,
        "rank_sort": 65951,
        "total": 2342
      },
      {
        "club_badge_src": null,
        "entry": 2415054,
        "entry_name": "Livin Lavia Loca",
        "event_total": 51,
        "has_played": true,
        "id": 17263964,
        "last_rank": 56369,
        "player_name": "James Fitzgerald",
        "rank": 65898,
        "rank_sort": 65952,
        "total": 2342
      },
      {
        "club_badge_src": null,
        "entry": 2420437,
        "entry_name": "Henriks disipler",
        "event_total": 52,
        "has_played": true,
        "id": 17304260,
        "last_rank": 58071,
        "player_name": "Henrik Hole",
        "rank": 65898,
        "rank_sort": 65953,
        "total": 2342
      },
      {
        "club_badge_src": "https://fantasy.premierleague.com/gcs/plfpl-production-adobe-approved/plfpl-production/2500874/313519a4-5f56-425b-9ca2-c1bbdc571904.png",
        "entry": 2500874,
        "entry_name": "FiveHundredNiiilllll",
        "event_total": 64,
        "has_played": true,
        "id": 17907171,
        "last_rank": 81646,
        "player_name": "Kevin Millar",
        "rank": 65898,
        "rank_sort": 65954,
        "total": 2342
      },
      {
        "club_badge_src": null,
        "entry": 2585717,
        "entry_name": "Goat",
        "event_total": 60,
        "has_played": true,
        "id": 18561701,
        "last_rank": 72638,
        "player_name": "Elias Therkelsen",
        "rank": 65898,
        "rank_sort": 65955,
        "total": 2342
      },
      {
        "club_badge_src": null,
        "entry": 2742674,
        "entry_name": "stayed humble",
        "event_total": 58,
        "has_played": true,
        "id": 19810715,
        "last_rank": 68624,
        "player_name": "Kevin Khuu",
        "rank": 65898,
        "rank_sort": 65956,
        "total": 2342
      },
      {
        "club_badge_src": null,
        "entry": 2774149,
        "entry_name": "Practical Gyokers",
        "event_total": 66,
        "has_played": true,
        "id": 20244496,
        "last_rank": 85932,
        "player_name": "Nathan Scott",
        "rank": 65898,
        "rank_sort": 65957,
        "total": 2342
      },
      {
        "club_badge_src": null,
        "entry": 2832901,
        "entry_name": "GooningFC",
        "event_total": 56,
        "has_played": true,
        "id": 20701151,
        "last_rank": 64943,
        "player_name": "Tommy Williams",
        "rank": 65898,
        "rank_sort": 65958,
        "total": 2342
      },
      {
        "club_badge_src": null,
        "entry": 2858619,
        "entry_name": "the Slotfather",
        "event_total": 55,
        "has_played": true,
        "id": 20904207,
        "last_rank": 63080,
        "player_name": "Aleksander Klepp",
        "rank": 65898,
        "rank_sort": 65959,
        "total": 2342
      },
      {
        "club_badge_src": "https://fantasy.premierleague.com/gcs/plfpl-production-adobe-approved/plfpl-production/3048880/7f07b8f1-fc8c-4437-8eb6-e35a4cc20899.png",
        "entry": 3048880,
        "entry_name": "Hagravens",
        "event_total": 48,
        "has_played": true,
        "id": 22444361,
        "last_rank": 51403,
        "player_name": "Chaitanya Prabhu Gaonkar",
        "rank": 65898,
        "rank_sort": 65960,
        "total": 2342
      },
      {
        "club_badge_src": "https://fantasy.premierleague.com/gcs/plfpl-production-adobe-approved/plfpl-production/3152143/f8845a89-e2d0-4441-9061-1c3fa021b15a.png",
        "entry": 3152143,
        "entry_name": "The Gritty Kitties",
        "event_total": 49,
        "has_played": true,
        "id": 23279102,
        "last_rank": 52853,
        "player_name": "Kit Karunaratne",
        "rank": 65898,
        "rank_sort": 65961,
        "total": 2342
      },
      {
        "club_badge_src": null,
        "entry": 3272983,
        "entry_name": "\u00d8de to Rice",
        "event_total": 58,
        "has_played": true,
        "id": 24221881,
        "last_rank": 68624,
        "player_name": "Sarah Armstrong",
        "rank": 65898,
        "rank_sort": 65962,
        "total": 2342
      },
      {
        "club_badge_src": null,
        "entry": 3445143,
        "entry_name": "\u0e41\u0e21\u0e19\u0e22\u0e39 \u0e2b\u0e49\u0e32\u0e1e\u0e31\u0e25\u0e25\u0e25!!",
        "event_total": 55,
        "has_played": true,
        "id": 25597244,
        "last_rank": 63080,
        "player_name": "sum xxx",
        "rank": 65898,
        "rank_sort": 65963,
        "total": 2342
      },
      {
        "club_badge_src": null,
        "entry": 3732840,
        "entry_name": "Bearrussia Dortmund",
        "event_total": 74,
        "has_played": true,
        "id": 27862480,
        "last_rank": 106259,
        "player_name": "Michael Gainsborough-Adam",
        "rank": 65898,
        "rank_sort": 65964,
        "total": 2342
      },
      {
        "club_badge_src": null,
        "entry": 3766271,
        "entry_name": "walid n1",
        "event_total": 51,
        "has_played": true,
        "id": 28121187,
        "last_rank": 56369,
        "player_name": "Walid Wb23",
        "rank": 65898,
        "rank_sort": 65965,
        "total": 2342
      },
      {
        "club_badge_src": "https://fantasy.premierleague.com/gcs/plfpl-production-adobe-approved/plfpl-production/3794186/bb26e1ea-7f51-4c8b-ae9d-a55c8a797095.png",
        "entry": 3794186,
        "entry_name": "xG AI fc",
        "event_total": 62,
        "has_played": true,
        "id": 28358089,
        "last_rank": 77050,
        "player_name": "Adam Huatorpet",
        "rank": 65898,
        "rank_sort": 65966,
        "total": 2342
      },
      {
        "club_badge_src": null,
        "entry": 3800251,
        "entry_name": "My Turn to Win",
        "event_total": 69,
        "has_played": true,
        "id": 28407989,
        "last_rank": 93186,
        "player_name": "Alan Wallace",
        "rank": 65898,
        "rank_sort": 65967,
        "total": 2342
      },
      {
        "club_badge_src": null,
        "entry": 3802487,
        "entry_name": "Forever BowenBubbles",
        "event_total": 76,
        "has_played": true,
        "id": 28426251,
        "last_rank": 111669,
        "player_name": "Neil Holmes",
        "rank": 65898,
        "rank_sort": 65968,
        "total": 2342
      },
      {
        "club_badge_src": null,
        "entry": 3876261,
        "entry_name": "Bhadain Boys FC",
        "event_total": 62,
        "has_played": true,
        "id": 29121057,
        "last_rank": 76947,
        "player_name": "Rishon Bhadain",
        "rank": 65898,
        "rank_sort": 65969,
        "total": 2342
      },
      {
        "club_badge_src": null,
        "entry": 3928716,
        "entry_name": "Baby Reijnder",
        "event_total": 59,
        "has_played": true,
        "id": 29546690,
        "last_rank": 70651,
        "player_name": "Myles Ryan",
        "rank": 65898,
        "rank_sort": 65970,
        "total": 2342
      },
      {
        "club_badge_src": null,
        "entry": 3967492,
        "entry_name": "TGH",
        "event_total": 69,
        "has_played": true,
        "id": 29854706,
        "last_rank": 83534,
        "player_name": "Thor Gunnar Hegrestad",
        "rank": 65898,
        "rank_sort": 65971,
        "total": 2342
      },
      {
        "club_badge_src": null,
        "entry": 3972622,
        "entry_name": "London Rastafarians",
        "event_total": 59,
        "has_played": true,
        "id": 29896986,
        "last_rank": 70757,
        "player_name": "Russell Bryan",
        "rank": 65898,
        "rank_sort": 65972,
        "total": 2342
      },
      {
        "club_badge_src": null,
        "entry": 4138684,
        "entry_name": "Hulk H\u00f8jlund",
        "event_total": 34,
        "has_played": true,
        "id": 31277978,
        "last_rank": 32751,
        "player_name": "Jack B",
        "rank": 65898,
        "rank_sort": 65973,
        "total": 2342
      },
      {
        "club_badge_src": null,
        "entry": 4141505,
        "entry_name": "Warra Trophy AFC",
        "event_total": 50,
        "has_played": true,
        "id": 31300522,
        "last_rank": 54494,
        "player_name": "Alex Hsi",
        "rank": 65898,
        "rank_sort": 65974,
        "total": 2342
      },
      {
        "club_badge_src": null,
        "entry": 4213924,
        "entry_name": "Earth Wind & Maguire",
        "event_total": 84,
        "has_played": true,
        "id": 31907893,
        "last_rank": 136080,
        "player_name": "Owen Mullock",
        "rank": 65898,
        "rank_sort": 65975,
        "total": 2342
      },
      {
        "club_badge_src": null,
        "entry": 4432149,
        "entry_name": "Harchester United",
        "event_total": 56,
        "has_played": true,
        "id": 33743692,
        "last_rank": 64830,
        "player_name": "Thomas McPartland",
        "rank": 65898,
        "rank_sort": 65976,
        "total": 2342
      },
      {
        "club_badge_src": null,
        "entry": 4761190,
        "entry_name": "Paqueta crisps",
        "event_total": 56,
        "has_played": true,
        "id": 36642231,
        "last_rank": 64777,
        "player_name": "Lauren Crisp",
        "rank": 65898,
        "rank_sort": 65977,
        "total": 2342
      },
      {
        "club_badge_src": null,
        "entry": 4777206,
        "entry_name": "Ballyhackers",
        "event_total": 58,
        "has_played": true,
        "id": 36773905,
        "last_rank": 68624,
        "player_name": "Jeff Nelson",
        "rank": 65898,
        "rank_sort": 65978,
        "total": 2342
      },
      {
        "club_badge_src": null,
        "entry": 4989366,
        "entry_name": "Sofaman United",
        "event_total": 48,
        "has_played": true,
        "id": 38518870,
        "last_rank": 51220,
        "player_name": "Andrew Jones",
        "rank": 65898,
        "rank_sort": 65979,
        "total": 2342
      },
      {
        "club_badge_src": null,
        "entry": 5056457,
        "entry_name": "Peeping \ufffd",
        "event_total": 67,
        "has_played": true,
        "id": 39070401,
        "last_rank": 88348,
        "player_name": "Tre Yearwood",
        "rank": 65898,
        "rank_sort": 65980,
        "total": 2342
      },
      {
        "club_badge_src": "https://fantasy.premierleague.com/gcs/plfpl-production-adobe-approved/plfpl-production/5089784/831cc28d-c103-45af-a68f-342d85f0022b.png",
        "entry": 5089784,
        "entry_name": "WCFC",
        "event_total": 49,
        "has_played": true,
        "id": 39339196,
        "last_rank": 52853,
        "player_name": "Jubal Yennie",
        "rank": 65898,
        "rank_sort": 65981,
        "total": 2342
      },
      {
        "club_badge_src": null,
        "entry": 5196407,
        "entry_name": "TBD",
        "event_total": 67,
        "has_played": true,
        "id": 40234245,
        "last_rank": 88594,
        "player_name": "Risto Aho",
        "rank": 65898,
        "rank_sort": 65982,
        "total": 2342
      },
      {
        "club_badge_src": null,
        "entry": 5364966,
        "entry_name": "Ole's at the wheel",
        "event_total": 34,
        "has_played": true,
        "id": 41675786,
        "last_rank": 32688,
        "player_name": "Ole Marius Waaler",
        "rank": 65898,
        "rank_sort": 65983,
        "total": 2342
      },
      {
        "club_badge_src": null,
        "entry": 5365081,
        "entry_name": "aliali",
        "event_total": 45,
        "has_played": true,
        "id": 41676941,
        "last_rank": 46660,
        "player_name": "Ali Aziz",
        "rank": 65898,
        "rank_sort": 65984,
        "total": 2342
      },
      {
        "club_badge_src": null,
        "entry": 5379242,
        "entry_name": "Shankhill Skinhead",
        "event_total": 52,
        "has_played": true,
        "id": 41813692,
        "last_rank": 57857,
        "player_name": "Euan C-M",
        "rank": 65898,
        "rank_sort": 65985,
        "total": 2342
      },
      {
        "club_badge_src": null,
        "entry": 5509080,
        "entry_name": "Vrijthof Primrose",
        "event_total": 48,
        "has_played": true,
        "id": 42938948,
        "last_rank": 51220,
        "player_name": "Jamie Robertson",
        "rank": 65898,
        "rank_sort": 65986,
        "total": 2342
      },
      {
        "club_badge_src": null,
        "entry": 5610461,
        "entry_name": "Richaroos",
        "event_total": 44,
        "has_played": true,
        "id": 43847226,
        "last_rank": 45416,
        "player_name": "Richard Atkins",
        "rank": 65898,
        "rank_sort": 65987,
        "total": 2342
      },
      {
        "club_badge_src": null,
        "entry": 5732210,
        "entry_name": "Notachance Forrest",
        "event_total": 66,
        "has_played": true,
        "id": 44907309,
        "last_rank": 86304,
        "player_name": "Thomas Sheppard",
        "rank": 65898,
        "rank_sort": 65988,
        "total": 2342
      },
      {
        "club_badge_src": null,
        "entry": 5753515,
        "entry_name": "The Warriors",
        "event_total": 50,
        "has_played": true,
        "id": 45097021,
        "last_rank": 54362,
        "player_name": "Carolyn hopps",
        "rank": 65898,
        "rank_sort": 65989,
        "total": 2342
      },
      {
        "club_badge_src": null,
        "entry": 5827102,
        "entry_name": "Reece's XI Pieces",
        "event_total": 82,
        "has_played": true,
        "id": 45732920,
        "last_rank": 116953,
        "player_name": "Reece Imbert",
        "rank": 65898,
        "rank_sort": 65990,
        "total": 2342
      },
      {
        "club_badge_src": null,
        "entry": 5848119,
        "entry_name": "Of Rice and Ben",
        "event_total": 50,
        "has_played": true,
        "id": 45912358,
        "last_rank": 54416,
        "player_name": "Daniel Refaat",
        "rank": 65898,
        "rank_sort": 65991,
        "total": 2342
      },
      {
        "club_badge_src": "https://fantasy.premierleague.com/gcs/plfpl-production-adobe-approved/plfpl-production/5879499/c09b5370-835e-4a0e-a960-4190b82eb4da.png",
        "entry": 5879499,
        "entry_name": "CA Brothers",
        "event_total": 61,
        "has_played": true,
        "id": 46182975,
        "last_rank": 75139,
        "player_name": "Roman Orbodoev",
        "rank": 65898,
        "rank_sort": 65992,
        "total": 2342
      },
      {
        "club_badge_src": null,
        "entry": 5950277,
        "entry_name": "sassafrass",
        "event_total": 50,
        "has_played": true,
        "id": 46801578,
        "last_rank": 54416,
        "player_name": "Roy Jitsakula",
        "rank": 65898,
        "rank_sort": 65993,
        "total": 2342
      },
      {
        "club_badge_src": null,
        "entry": 5982578,
        "entry_name": "Paul016",
        "event_total": 58,
        "has_played": true,
        "id": 47112231,
        "last_rank": 68748,
        "player_name": "Paul Musau",
        "rank": 65898,
        "rank_sort": 65994,
        "total": 2342
      },
      {
        "club_badge_src": null,
        "entry": 5997528,
        "entry_name": "Danso On The Ceiling",
        "event_total": 51,
        "has_played": true,
        "id": 47274963,
        "last_rank": 56180,
        "player_name": "Tom Simcox",
        "rank": 65898,
        "rank_sort": 65995,
        "total": 2342
      },
      {
        "club_badge_src": null,
        "entry": 6027209,
        "entry_name": "mags team",
        "event_total": 52,
        "has_played": true,
        "id": 47540905,
        "last_rank": 58071,
        "player_name": "Max Bailey",
        "rank": 65898,
        "rank_sort": 65996,
        "total": 2342
      },
      {
        "club_badge_src": null,
        "entry": 6134142,
        "entry_name": "corn on the kobbie",
        "event_total": 54,
        "has_played": true,
        "id": 48474583,
        "last_rank": 61606,
        "player_name": "Joe Brooks",
        "rank": 65898,
        "rank_sort": 65997,
        "total": 2342
      },
      {
        "club_badge_src": null,
        "entry": 6172872,
        "entry_name": "Seskoal Healing",
        "event_total": 62,
        "has_played": true,
        "id": 48811072,
        "last_rank": 76947,
        "player_name": "Synn\u00f8ve Sletta",
        "rank": 65898,
        "rank_sort": 65998,
        "total": 2342
      },
      {
        "club_badge_src": null,
        "entry": 6202823,
        "entry_name": "arsenatlas",
        "event_total": 82,
        "has_played": true,
        "id": 49069459,
        "last_rank": 128975,
        "player_name": "TENGYU ZHANG",
        "rank": 65898,
        "rank_sort": 65999,
        "total": 2342
      },
      {
        "club_badge_src": null,
        "entry": 6215456,
        "entry_name": "GoalajideBT",
        "event_total": 57,
        "has_played": true,
        "id": 49177717,
        "last_rank": 66848,
        "player_name": "Nived Kalliyath",
        "rank": 65898,
        "rank_sort": 66000,
        "total": 2342
      }
    ]
  }
}