{
  "last_updated_data": "2026-05-24T23:28:17Z",
  "league": {
    "admin_entry": null,
    "closed": false,
    "code_privacy": "p",
    "created": "2025-07-20T23:14:33.933835Z",
    "cup_league": 2815434,
    "has_cup": true,
    "id": 314,
    "league_type": "s",
    "max_entries": null,
    "name": "Overall",
    "rank": null,
    "scoring": "c",
    "start_event": 1
  },
  "new_entries": {
    "has_next": false,
    "page": 1,
    "results": []
  },
  "standings": {
    "has_next": true,
    "page": 889,
    "results": [
      {
        "club_badge_src": null,
        "entry": 27753,
        "entry_name": "Ballers FC",
        "event_total": 56,
        "has_played": true,
        "id": 175464,
        "last_rank": 33147,
        "player_name": "Vinoth Navaratnam",
        "rank": 44391,
        "rank_sort": 44401,
        "total": 2356
      },
      {
        "club_badge_src": "https://fantasy.premierleague.com/gcs/plfpl-production-adobe-approved/plfpl-production/34667/4cab5cb9-3803-4364-b798-52bd7ac0d554.png",
        "entry": 34667,
        "entry_name": "Ukraine",
        "event_total": 67,
        "has_played": true,
        "id": 221573,
        "last_rank": 53621,
        "player_name": "Maksym Patramanskyi",
        "rank": 44391,
        "rank_sort": 44402,
        "total": 2356
      },
      {
        "club_badge_src": null,
        "entry": 37317,
        "entry_name": "tameside 49rs",
        "event_total": 69,
        "has_played": true,
        "id": 239001,
        "last_rank": 63724,
        "player_name": "Ian Rooney",
        "rank": 44391,
        "rank_sort": 44403,
        "total": 2356
      },
      {
        "club_badge_src": null,
        "entry": 38736,
        "entry_name": "Kinder Mbeumo",
        "event_total": 66,
        "has_played": true,
        "id": 248329,
        "last_rank": 51984,
        "player_name": "Samarth Kapoor",
        "rank": 44391,
        "rank_sort": 44404,
        "total": 2356
      },
      {
        "club_badge_src": null,
        "entry": 44612,
        "entry_name": "Cricky's Crew",
        "event_total": 62,
        "has_played": true,
        "id": 285936,
        "last_rank": 51984,
        "player_name": "Oran McKee",
        "rank": 44391,
        "rank_sort": 44405,
        "total": 2356
      },
      {
        "club_badge_src": null,
        "entry": 58758,
        "entry_name": "Eze Come Eze Go",
        "event_total": 57,
        "has_played": true,
        "id": 378442,
        "last_rank": 44672,
        "player_name": "Parth Gokhale",
        "rank": 44391,
        "rank_sort": 44406,
        "total": 2356
      },
      {
        "club_badge_src": "https://fantasy.premierleague.com/gcs/plfpl-production-adobe-approved/plfpl-production/115432/5753f8f1-fef3-4623-bd2a-9e309bbc7ee8.png",
        "entry": 115432,
        "entry_name": "D.I.Y. County",
        "event_total": 68,
        "has_played": true,
        "id": 753332,
        "last_rank": 62223,
        "player_name": "Kerry Hodgson",
        "rank": 44391,
        "rank_sort": 44407,
        "total": 2356
      },
      {
        "club_badge_src": "https://fantasy.premierleague.com/gcs/plfpl-production-adobe-approved/plfpl-production/139997/fb9bd99f-b76f-43f6-a5ed-2acc3a23bcc1.png",
        "entry": 139997,
        "entry_name": "Wirtz Up?!",
        "event_total": 58,
        "has_played": true,
        "id": 913991,
        "last_rank": 46106,
        "player_name": "Mohamed Unais",
        "rank": 44391,
        "rank_sort": 44408,
        "total": 2356
      },
      {
        "club_badge_src": null,
        "entry": 195988,
        "entry_name": "TY1.0 FC",
        "event_total": 57,
        "has_played": true,
        "id": 1299929,
        "last_rank": 34293,
        "player_name": "Tom Yates",
        "rank": 44391,
        "rank_sort": 44409,
        "total": 2356
      },
      {
        "club_badge_src": null,
        "entry": 224728,
        "entry_name": "Total Saka might",
        "event_total": 64,
        "has_played": true,
        "id": 1494943,
        "last_rank": 48898,
        "player_name": "David O'Keefe",
        "rank": 44391,
        "rank_sort": 44410,
        "total": 2356
      },
      {
        "club_badge_src": null,
        "entry": 244609,
        "entry_name": "Thoros's Top Knot",
        "event_total": 48,
        "has_played": true,
        "id": 1628588,
        "last_rank": 33483,
        "player_name": "Nick Watkins",
        "rank": 44391,
        "rank_sort": 44411,
        "total": 2356
      },
      {
        "club_badge_src": null,
        "entry": 265378,
        "entry_name": "Shaw Mee the Man\u00e9",
        "event_total": 79,
        "has_played": true,
        "id": 1765056,
        "last_rank": 84980,
        "player_name": "Bryan Yee",
        "rank": 44391,
        "rank_sort": 44412,
        "total": 2356
      },
      {
        "club_badge_src": null,
        "entry": 274998,
        "entry_name": "Hacunha  mateta",
        "event_total": 49,
        "has_played": true,
        "id": 1829997,
        "last_rank": 34578,
        "player_name": "Jeffrey Preest",
        "rank": 44391,
        "rank_sort": 44413,
        "total": 2356
      },
      {
        "club_badge_src": null,
        "entry": 278173,
        "entry_name": "SHOOTERS",
        "event_total": 77,
        "has_played": true,
        "id": 1851511,
        "last_rank": 63724,
        "player_name": "Omar Magdy",
        "rank": 44391,
        "rank_sort": 44414,
        "total": 2356
      },
      {
        "club_badge_src": null,
        "entry": 311609,
        "entry_name": "JaxP",
        "event_total": 62,
        "has_played": true,
        "id": 2087646,
        "last_rank": 45927,
        "player_name": "Manik Sharma",
        "rank": 44391,
        "rank_sort": 44415,
        "total": 2356
      },
      {
        "club_badge_src": null,
        "entry": 326987,
        "entry_name": "I\u2019m Lost for Wirtz",
        "event_total": 54,
        "has_played": true,
        "id": 2190810,
        "last_rank": 35619,
        "player_name": "Milesh Patel",
        "rank": 44391,
        "rank_sort": 44416,
        "total": 2356
      },
      {
        "club_badge_src": null,
        "entry": 377074,
        "entry_name": "UA 07 \u267e\ufe0f",
        "event_total": 44,
        "has_played": true,
        "id": 2525769,
        "last_rank": 29199,
        "player_name": "Ahmed Bahy Gado",
        "rank": 44391,
        "rank_sort": 44417,
        "total": 2356
      },
      {
        "club_badge_src": "https://fantasy.premierleague.com/gcs/plfpl-production-adobe-approved/plfpl-production/426911/59a3c26d-0576-4550-bac3-24d746be6128.png",
        "entry": 426911,
        "entry_name": "merkabold",
        "event_total": 53,
        "has_played": true,
        "id": 2862564,
        "last_rank": 34458,
        "player_name": "Ariel Amit\ud83c\uddee\ud83c\uddf1",
        "rank": 44391,
        "rank_sort": 44418,
        "total": 2356
      },
      {
        "club_badge_src": "https://fantasy.premierleague.com/gcs/plfpl-production-adobe-approved/plfpl-production/435040/30fa243b-bf79-4327-8f59-762d2378728a.png",
        "entry": 435040,
        "entry_name": "Essex Boys",
        "event_total": 67,
        "has_played": true,
        "id": 2917321,
        "last_rank": 60671,
        "player_name": "Nikola Peric",
        "rank": 44391,
        "rank_sort": 44419,
        "total": 2356
      },
      {
        "club_badge_src": "https://fantasy.premierleague.com/gcs/plfpl-production-adobe-approved/plfpl-production/489821/f78bb02d-b817-4294-80f5-1cae641ffb92.png",
        "entry": 489821,
        "entry_name": "GMZ",
        "event_total": 41,
        "has_played": true,
        "id": 3288267,
        "last_rank": 26345,
        "player_name": "Ammar Alhoumidy",
        "rank": 44391,
        "rank_sort": 44420,
        "total": 2356
      },
      {
        "club_badge_src": null,
        "entry": 537950,
        "entry_name": "KenKliff",
        "event_total": 74,
        "has_played": true,
        "id": 3621256,
        "last_rank": 65475,
        "player_name": "Kenneth Kliff",
        "rank": 44391,
        "rank_sort": 44421,
        "total": 2356
      },
      {
        "club_badge_src": null,
        "entry": 559727,
        "entry_name": "Packet oss",
        "event_total": 65,
        "has_played": true,
        "id": 3767097,
        "last_rank": 50468,
        "player_name": "neal chandarana",
        "rank": 44391,
        "rank_sort": 44422,
        "total": 2356
      },
      {
        "club_badge_src": "https://fantasy.premierleague.com/gcs/plfpl-production-adobe-approved/plfpl-production/574634/d8593388-0538-4360-8c41-7d41dd8de3e8.png",
        "entry": 574634,
        "entry_name": "Chelsea FC",
        "event_total": 58,
        "has_played": true,
        "id": 3867020,
        "last_rank": 35424,
        "player_name": "Mohammed Oyon",
        "rank": 44391,
        "rank_sort": 44423,
        "total": 2356
      },
      {
        "club_badge_src": null,
        "entry": 597791,
        "entry_name": "Maradona's Left Hand",
        "event_total": 59,
        "has_played": true,
        "id": 4031409,
        "last_rank": 41824,
        "player_name": "Jamie Ledgeway",
        "rank": 44391,
        "rank_sort": 44424,
        "total": 2356
      },
      {
        "club_badge_src": null,
        "entry": 597795,
        "entry_name": "Gyok Tuah",
        "event_total": 66,
        "has_played": true,
        "id": 4031441,
        "last_rank": 58071,
        "player_name": "shawn mitaki",
        "rank": 44391,
        "rank_sort": 44425,
        "total": 2356
      },
      {
        "club_badge_src": "https://fantasy.premierleague.com/gcs/plfpl-production-adobe-approved/plfpl-production/598409/b1958b84-98db-4e29-b69c-df55543760c7.png",
        "entry": 598409,
        "entry_name": "Wirtz bald?",
        "event_total": 59,
        "has_played": true,
        "id": 4035874,
        "last_rank": 41824,
        "player_name": "Stefan Hechl",
        "rank": 44391,
        "rank_sort": 44426,
        "total": 2356
      },
      {
        "club_badge_src": "https://fantasy.premierleague.com/gcs/plfpl-production-adobe-approved/plfpl-production/618135/42245eec-fff5-4c1a-97b8-8af808554915.png",
        "entry": 618135,
        "entry_name": "Amorimmers",
        "event_total": 74,
        "has_played": true,
        "id": 4176340,
        "last_rank": 65796,
        "player_name": "Andrew Conlon",
        "rank": 44391,
        "rank_sort": 44427,
        "total": 2356
      },
      {
        "club_badge_src": null,
        "entry": 620440,
        "entry_name": "Birdiet\u00e5get",
        "event_total": 66,
        "has_played": true,
        "id": 4192807,
        "last_rank": 58911,
        "player_name": "Fredrik Norman",
        "rank": 44391,
        "rank_sort": 44428,
        "total": 2356
      },
      {
        "club_badge_src": null,
        "entry": 640166,
        "entry_name": "ChasingGreenArrows",
        "event_total": 52,
        "has_played": true,
        "id": 4326464,
        "last_rank": 38016,
        "player_name": "James Miller",
        "rank": 44391,
        "rank_sort": 44429,
        "total": 2356
      },
      {
        "club_badge_src": null,
        "entry": 689362,
        "entry_name": "Red$ United",
        "event_total": 58,
        "has_played": true,
        "id": 4667504,
        "last_rank": 46106,
        "player_name": "Uttam Tomar",
        "rank": 44391,
        "rank_sort": 44430,
        "total": 2356
      },
      {
        "club_badge_src": "https://fantasy.premierleague.com/gcs/plfpl-production-adobe-approved/plfpl-production/706441/5f8782c1-e1b9-44d7-9270-e8f78295b9a5.png",
        "entry": 706441,
        "entry_name": "A Hugo \u03c4\u03c3\u03bf\u03c5\u03c4\u03c3\u03bf\u03cd\u03bd\u03b9",
        "event_total": 62,
        "has_played": true,
        "id": 4787770,
        "last_rank": 45927,
        "player_name": "Chris Katsifis",
        "rank": 44391,
        "rank_sort": 44431,
        "total": 2356
      },
      {
        "club_badge_src": "https://fantasy.premierleague.com/gcs/plfpl-production-adobe-approved/plfpl-production/734681/f5f1cecd-b27f-498b-9399-e07ed293ab71.png",
        "entry": 734681,
        "entry_name": "The Great Messinho",
        "event_total": 61,
        "has_played": true,
        "id": 4993301,
        "last_rank": 50635,
        "player_name": "Ben Taylor",
        "rank": 44391,
        "rank_sort": 44432,
        "total": 2356
      },
      {
        "club_badge_src": null,
        "entry": 769514,
        "entry_name": "Billy Batal Eldawry",
        "event_total": 55,
        "has_played": true,
        "id": 5249310,
        "last_rank": 36348,
        "player_name": "Youssef Elbialy",
        "rank": 44391,
        "rank_sort": 44433,
        "total": 2356
      },
      {
        "club_badge_src": "https://fantasy.premierleague.com/gcs/plfpl-production-adobe-approved/plfpl-production/772367/a4d90721-78e4-4b18-baf1-3932959fccc6.png",
        "entry": 772367,
        "entry_name": "\u0627\u0644\u0645\u062a\u0631 \u0641\u0649 \u0627\u0644\u0642\u0644\u0628 \ufffd",
        "event_total": 57,
        "has_played": true,
        "id": 5269226,
        "last_rank": 39246,
        "player_name": "akram ismail",
        "rank": 44391,
        "rank_sort": 44434,
        "total": 2356
      },
      {
        "club_badge_src": null,
        "entry": 815205,
        "entry_name": "SaoirsedonPhalaistin",
        "event_total": 69,
        "has_played": true,
        "id": 5582333,
        "last_rank": 63724,
        "player_name": "Shane Daly",
        "rank": 44391,
        "rank_sort": 44435,
        "total": 2356
      },
      {
        "club_badge_src": "https://fantasy.premierleague.com/gcs/plfpl-production-adobe-approved/plfpl-production/833875/54183a7c-2a88-4d0d-be06-38844025306a.png",
        "entry": 833875,
        "entry_name": "Sons of bench",
        "event_total": 58,
        "has_played": true,
        "id": 5711883,
        "last_rank": 45927,
        "player_name": "Emil Eng\u00f8",
        "rank": 44391,
        "rank_sort": 44436,
        "total": 2356
      },
      {
        "club_badge_src": null,
        "entry": 860307,
        "entry_name": "Zava",
        "event_total": 70,
        "has_played": true,
        "id": 5897410,
        "last_rank": 51403,
        "player_name": "Craig Hall",
        "rank": 44391,
        "rank_sort": 44437,
        "total": 2356
      },
      {
        "club_badge_src": null,
        "entry": 992837,
        "entry_name": "Liverpoolas",
        "event_total": 41,
        "has_played": true,
        "id": 6847747,
        "last_rank": 26425,
        "player_name": "Stavros Georgiadis",
        "rank": 44391,
        "rank_sort": 44438,
        "total": 2356
      },
      {
        "club_badge_src": "https://fantasy.premierleague.com/gcs/plfpl-production-adobe-approved/plfpl-production/1069611/308d7ce1-22a5-482f-a173-f9b8a8d37a12.png",
        "entry": 1069611,
        "entry_name": "Power Team",
        "event_total": 60,
        "has_played": true,
        "id": 7404793,
        "last_rank": 43168,
        "player_name": "Nikola Milkov",
        "rank": 44391,
        "rank_sort": 44439,
        "total": 2356
      },
      {
        "club_badge_src": null,
        "entry": 1069702,
        "entry_name": "gorf gang",
        "event_total": 61,
        "has_played": true,
        "id": 7405424,
        "last_rank": 50635,
        "player_name": "Geoffrey Denis",
        "rank": 44391,
        "rank_sort": 44440,
        "total": 2356
      },
      {
        "club_badge_src": null,
        "entry": 1070160,
        "entry_name": "Wirtz in Progress",
        "event_total": 64,
        "has_played": true,
        "id": 7408645,
        "last_rank": 42940,
        "player_name": "Hiren Bhojani",
        "rank": 44391,
        "rank_sort": 44441,
        "total": 2356
      },
      {
        "club_badge_src": null,
        "entry": 1079326,
        "entry_name": "JLB Credit",
        "event_total": 54,
        "has_played": true,
        "id": 7473398,
        "last_rank": 35619,
        "player_name": "Ethan Solomon",
        "rank": 44391,
        "rank_sort": 44442,
        "total": 2356
      },
      {
        "club_badge_src": null,
        "entry": 1107164,
        "entry_name": "\u2122\u266a\u266a\u00b6\u2192HsinQui\u00b0X\u2190",
        "event_total": 62,
        "has_played": true,
        "id": 7668967,
        "last_rank": 40036,
        "player_name": "Yessine Bahroun",
        "rank": 44391,
        "rank_sort": 44443,
        "total": 2356
      },
      {
        "club_badge_src": "https://fantasy.premierleague.com/gcs/plfpl-production-adobe-approved/plfpl-production/1119647/1fd0da80-521f-4ca5-ab42-7d86d82bcd7c.png",
        "entry": 1119647,
        "entry_name": "Jo\u00e3oBreaker",
        "event_total": 68,
        "has_played": true,
        "id": 7756135,
        "last_rank": 48363,
        "player_name": "rhys hughes",
        "rank": 44391,
        "rank_sort": 44444,
        "total": 2356
      },
      {
        "club_badge_src": null,
        "entry": 1120321,
        "entry_name": "NavzZz 21 FC",
        "event_total": 60,
        "has_played": true,
        "id": 7761547,
        "last_rank": 49078,
        "player_name": "Navendran Moodley",
        "rank": 44391,
        "rank_sort": 44445,
        "total": 2356
      },
      {
        "club_badge_src": null,
        "entry": 1255216,
        "entry_name": "blues",
        "event_total": 72,
        "has_played": true,
        "id": 8718069,
        "last_rank": 69641,
        "player_name": "Guy Megidash",
        "rank": 44391,
        "rank_sort": 44446,
        "total": 2356
      },
      {
        "club_badge_src": null,
        "entry": 1281851,
        "entry_name": "\u0627\u0644\u0646\u0635\u0631 \u0644\u063a\u0632\u0629 \ufffd",
        "event_total": 64,
        "has_played": true,
        "id": 8907259,
        "last_rank": 48898,
        "player_name": "doctor fantasy \u270c\ufe0f\ud83c\uddf5\ud83c\uddf8",
        "rank": 44391,
        "rank_sort": 44447,
        "total": 2356
      },
      {
        "club_badge_src": null,
        "entry": 1290965,
        "entry_name": "Porro1OutFrTheHomies",
        "event_total": 68,
        "has_played": true,
        "id": 8970696,
        "last_rank": 62429,
        "player_name": "Scott Ellis",
        "rank": 44391,
        "rank_sort": 44448,
        "total": 2356
      },
      {
        "club_badge_src": "https://fantasy.premierleague.com/gcs/plfpl-production-adobe-approved/plfpl-production/1332141/ccc525c2-e01e-4b75-a4c6-3a8ad8f4f5af.png",
        "entry": 1332141,
        "entry_name": "Kaka",
        "event_total": 49,
        "has_played": true,
        "id": 9259283,
        "last_rank": 30060,
        "player_name": "Theo Zetterholm",
        "rank": 44391,
        "rank_sort": 44449,
        "total": 2356
      },
      {
        "club_badge_src": null,
        "entry": 1422045,
        "entry_name": "Curnell Sanders KFC",
        "event_total": 66,
        "has_played": true,
        "id": 9901586,
        "last_rank": 58911,
        "player_name": "Dylan Curnell",
        "rank": 44391,
        "rank_sort": 44450,
        "total": 2356
      }
    ]
  }
}