{
  "last_updated_data": "2026-05-24T23:28:17Z",
  "league": {
    "admin_entry": null,
    "closed": false,
    "code_privacy": "p",
    "created": "2025-07-20T23:14:33.933835Z",
    "cup_league": 2815434,
    "has_cup": true,
    "id": 314,
    "league_type": "s",
    "max_entries": null,
    "name": "Overall",
    "rank": null,
    "scoring": "c",
    "start_event": 1
  },
  "new_entries": {
    "has_next": false,
    "page": 1,
    "results": []
  },
  "standings": {
    "has_next": true,
    "page": 1549,
    "results": [
      {
        "club_badge_src": null,
        "entry": 459552,
        "entry_name": "Curry Wirtz",
        "event_total": 56,
        "has_played": true,
        "id": 3082896,
        "last_rank": 76791,
        "player_name": "Daniel Henshall",
        "rank": 77401,
        "rank_sort": 77401,
        "total": 2337
      },
      {
        "club_badge_src": null,
        "entry": 560454,
        "entry_name": "Kinder Mbuemo",
        "event_total": 57,
        "has_played": true,
        "id": 3772492,
        "last_rank": 70493,
        "player_name": "Sebastian Aam",
        "rank": 77401,
        "rank_sort": 77402,
        "total": 2337
      },
      {
        "club_badge_src": null,
        "entry": 775106,
        "entry_name": "magni_Fiko",
        "event_total": 52,
        "has_played": true,
        "id": 5288576,
        "last_rank": 61157,
        "player_name": "Filip Tegovski",
        "rank": 77401,
        "rank_sort": 77403,
        "total": 2337
      },
      {
        "club_badge_src": "https://fantasy.premierleague.com/gcs/plfpl-production-adobe-approved/plfpl-production/827269/b4aa040e-ae09-4d0d-a156-23cf10e2d8d7.png",
        "entry": 827269,
        "entry_name": "Ekitika and Rice",
        "event_total": 79,
        "has_played": true,
        "id": 5666016,
        "last_rank": 125633,
        "player_name": "Sameer Aboobaker",
        "rank": 77401,
        "rank_sort": 77404,
        "total": 2337
      },
      {
        "club_badge_src": "https://fantasy.premierleague.com/gcs/plfpl-production-adobe-approved/plfpl-production/888379/a68d1557-9c39-46c0-8950-3971efa828d1.png",
        "entry": 888379,
        "entry_name": "MyZurenaDotCom",
        "event_total": 64,
        "has_played": true,
        "id": 6093353,
        "last_rank": 95303,
        "player_name": "Nigel Smith",
        "rank": 77401,
        "rank_sort": 77405,
        "total": 2337
      },
      {
        "club_badge_src": null,
        "entry": 990500,
        "entry_name": "red army",
        "event_total": 42,
        "has_played": true,
        "id": 6829699,
        "last_rank": 51056,
        "player_name": "Caroline Little",
        "rank": 77401,
        "rank_sort": 77406,
        "total": 2337
      },
      {
        "club_badge_src": null,
        "entry": 1386607,
        "entry_name": "Expected Toulouse",
        "event_total": 55,
        "has_played": true,
        "id": 9644431,
        "last_rank": 66559,
        "player_name": "Mike Gosney",
        "rank": 77401,
        "rank_sort": 77407,
        "total": 2337
      },
      {
        "club_badge_src": null,
        "entry": 1545630,
        "entry_name": "2 glasses of milk",
        "event_total": 50,
        "has_played": true,
        "id": 10790559,
        "last_rank": 64705,
        "player_name": "Patrick Coleman",
        "rank": 77401,
        "rank_sort": 77408,
        "total": 2337
      },
      {
        "club_badge_src": "https://fantasy.premierleague.com/gcs/plfpl-production-adobe-approved/plfpl-production/1730348/c958a866-305c-40e6-8f00-649ba7bdafca.png",
        "entry": 1730348,
        "entry_name": "\u00d8de to Joy",
        "event_total": 72,
        "has_played": true,
        "id": 12136451,
        "last_rank": 105529,
        "player_name": "Guilherme Xavier",
        "rank": 77401,
        "rank_sort": 77409,
        "total": 2337
      },
      {
        "club_badge_src": null,
        "entry": 2027812,
        "entry_name": "Florian Weirds",
        "event_total": 61,
        "has_played": true,
        "id": 14355279,
        "last_rank": 88053,
        "player_name": "C B",
        "rank": 77401,
        "rank_sort": 77410,
        "total": 2337
      },
      {
        "club_badge_src": null,
        "entry": 2445248,
        "entry_name": "M\u00f3\u00f2 H\u00fcss",
        "event_total": 52,
        "has_played": true,
        "id": 17488514,
        "last_rank": 61157,
        "player_name": "Mohamed Hussein",
        "rank": 77401,
        "rank_sort": 77411,
        "total": 2337
      },
      {
        "club_badge_src": null,
        "entry": 2628494,
        "entry_name": "Rwanda FC",
        "event_total": 74,
        "has_played": true,
        "id": 18888481,
        "last_rank": 111032,
        "player_name": "Geoffrey Mwenda",
        "rank": 77401,
        "rank_sort": 77412,
        "total": 2337
      },
      {
        "club_badge_src": null,
        "entry": 2927694,
        "entry_name": "Ish's 11",
        "event_total": 64,
        "has_played": true,
        "id": 21463899,
        "last_rank": 85730,
        "player_name": "Ismail Khan",
        "rank": 77401,
        "rank_sort": 77413,
        "total": 2337
      },
      {
        "club_badge_src": null,
        "entry": 5301636,
        "entry_name": "Team solo",
        "event_total": 49,
        "has_played": true,
        "id": 41095843,
        "last_rank": 62989,
        "player_name": "Sean OLoughlin",
        "rank": 77401,
        "rank_sort": 77414,
        "total": 2337
      },
      {
        "club_badge_src": null,
        "entry": 5600009,
        "entry_name": "Delph & Safety",
        "event_total": 75,
        "has_played": true,
        "id": 43756518,
        "last_rank": 92780,
        "player_name": "David Cunningham",
        "rank": 77401,
        "rank_sort": 77415,
        "total": 2337
      },
      {
        "club_badge_src": null,
        "entry": 6358364,
        "entry_name": "fc huwdu",
        "event_total": 62,
        "has_played": true,
        "id": 50552993,
        "last_rank": 90423,
        "player_name": "karol michalak",
        "rank": 77401,
        "rank_sort": 77416,
        "total": 2337
      },
      {
        "club_badge_src": null,
        "entry": 7260724,
        "entry_name": "Stevie's Wonders",
        "event_total": 63,
        "has_played": true,
        "id": 58706585,
        "last_rank": 83364,
        "player_name": "Stephen Fee",
        "rank": 77401,
        "rank_sort": 77417,
        "total": 2337
      },
      {
        "club_badge_src": null,
        "entry": 7989655,
        "entry_name": "WearesobackUnited",
        "event_total": 99,
        "has_played": true,
        "id": 65791555,
        "last_rank": 198226,
        "player_name": "Heri Pacific",
        "rank": 77401,
        "rank_sort": 77418,
        "total": 2337
      },
      {
        "club_badge_src": null,
        "entry": 8985201,
        "entry_name": "worstwirtz11",
        "event_total": 50,
        "has_played": true,
        "id": 75339248,
        "last_rank": 64677,
        "player_name": "Nehali Doshi",
        "rank": 77401,
        "rank_sort": 77419,
        "total": 2337
      },
      {
        "club_badge_src": null,
        "entry": 62861,
        "entry_name": "Livin Saliba Loca",
        "event_total": 63,
        "has_played": true,
        "id": 405403,
        "last_rank": 92882,
        "player_name": "Elias Fridh",
        "rank": 77420,
        "rank_sort": 77420,
        "total": 2337
      },
      {
        "club_badge_src": null,
        "entry": 626166,
        "entry_name": "We'll Have A Lookman",
        "event_total": 65,
        "has_played": true,
        "id": 4231428,
        "last_rank": 88053,
        "player_name": "Tom Warren",
        "rank": 77420,
        "rank_sort": 77421,
        "total": 2337
      },
      {
        "club_badge_src": null,
        "entry": 1008253,
        "entry_name": "Liverpool",
        "event_total": 42,
        "has_played": true,
        "id": 6970769,
        "last_rank": 39731,
        "player_name": "\u0639\u0635\u0627\u0645 \u0645\u062d\u0645\u0648\u062f",
        "rank": 77420,
        "rank_sort": 77422,
        "total": 2337
      },
      {
        "club_badge_src": null,
        "entry": 1023472,
        "entry_name": "Stranger Teams",
        "event_total": 51,
        "has_played": true,
        "id": 7080939,
        "last_rank": 59410,
        "player_name": "Alex Schumacher-Wood",
        "rank": 77420,
        "rank_sort": 77423,
        "total": 2337
      },
      {
        "club_badge_src": null,
        "entry": 1164533,
        "entry_name": "\u0627\u0644\u0645\u0627\u0643\u0628\u0627\u064a\u0633 \ufffd",
        "event_total": 58,
        "has_played": true,
        "id": 8078355,
        "last_rank": 81137,
        "player_name": "Mahmoud Abed",
        "rank": 77420,
        "rank_sort": 77424,
        "total": 2337
      },
      {
        "club_badge_src": null,
        "entry": 1459454,
        "entry_name": "Toto FC",
        "event_total": 57,
        "has_played": true,
        "id": 10173067,
        "last_rank": 78906,
        "player_name": "Gustavo Silva",
        "rank": 77420,
        "rank_sort": 77425,
        "total": 2337
      },
      {
        "club_badge_src": null,
        "entry": 1685781,
        "entry_name": "Mshazi FC",
        "event_total": 57,
        "has_played": true,
        "id": 11800642,
        "last_rank": 78906,
        "player_name": "Vukani Nzuza",
        "rank": 77420,
        "rank_sort": 77426,
        "total": 2337
      },
      {
        "club_badge_src": null,
        "entry": 5887399,
        "entry_name": "Over the Gordon Hill",
        "event_total": 58,
        "has_played": true,
        "id": 46247677,
        "last_rank": 81121,
        "player_name": "Darren Da Costa",
        "rank": 77420,
        "rank_sort": 77427,
        "total": 2337
      },
      {
        "club_badge_src": null,
        "entry": 6508865,
        "entry_name": "Abual3ez",
        "event_total": 35,
        "has_played": true,
        "id": 51900399,
        "last_rank": 41017,
        "player_name": "Motaz alhebs",
        "rank": 77420,
        "rank_sort": 77428,
        "total": 2337
      },
      {
        "club_badge_src": "https://fantasy.premierleague.com/gcs/plfpl-production-adobe-approved/plfpl-production/8212817/d870339e-3bd8-4b1a-a789-161bd5552298.png",
        "entry": 8212817,
        "entry_name": "Sir Anas Aqel",
        "event_total": 57,
        "has_played": true,
        "id": 67862723,
        "last_rank": 70514,
        "player_name": "Anas Aqel",
        "rank": 77420,
        "rank_sort": 77429,
        "total": 2337
      },
      {
        "club_badge_src": null,
        "entry": 8255196,
        "entry_name": "Slumdog Mignolet",
        "event_total": 59,
        "has_played": true,
        "id": 68273999,
        "last_rank": 74624,
        "player_name": "Amit Bhayani",
        "rank": 77420,
        "rank_sort": 77430,
        "total": 2337
      },
      {
        "club_badge_src": null,
        "entry": 8899985,
        "entry_name": "Pique blinder",
        "event_total": 52,
        "has_played": true,
        "id": 74509048,
        "last_rank": 68495,
        "player_name": "Rob May",
        "rank": 77420,
        "rank_sort": 77431,
        "total": 2337
      },
      {
        "club_badge_src": null,
        "entry": 667033,
        "entry_name": "Topten",
        "event_total": 68,
        "has_played": true,
        "id": 4510101,
        "last_rank": 95337,
        "player_name": "George foster",
        "rank": 77432,
        "rank_sort": 77432,
        "total": 2337
      },
      {
        "club_badge_src": null,
        "entry": 2399629,
        "entry_name": "Ajax Trees Down",
        "event_total": 56,
        "has_played": true,
        "id": 17150294,
        "last_rank": 61172,
        "player_name": "Fred Sivers",
        "rank": 77432,
        "rank_sort": 77433,
        "total": 2337
      },
      {
        "club_badge_src": null,
        "entry": 2955083,
        "entry_name": "Ek9 Football Club",
        "event_total": 39,
        "has_played": true,
        "id": 21704445,
        "last_rank": 46497,
        "player_name": "Rafidi Muadi",
        "rank": 77432,
        "rank_sort": 77434,
        "total": 2337
      },
      {
        "club_badge_src": null,
        "entry": 5925392,
        "entry_name": "odkhvv afc",
        "event_total": 48,
        "has_played": true,
        "id": 46577003,
        "last_rank": 61190,
        "player_name": "odhvv afc",
        "rank": 77432,
        "rank_sort": 77435,
        "total": 2337
      },
      {
        "club_badge_src": null,
        "entry": 6619230,
        "entry_name": "Nebuchadnezzar",
        "event_total": 59,
        "has_played": true,
        "id": 52893122,
        "last_rank": 74624,
        "player_name": "Neo Broadhead",
        "rank": 77432,
        "rank_sort": 77436,
        "total": 2337
      },
      {
        "club_badge_src": null,
        "entry": 6667921,
        "entry_name": "ManU",
        "event_total": 77,
        "has_played": true,
        "id": 53326904,
        "last_rank": 132028,
        "player_name": "Amin My",
        "rank": 77432,
        "rank_sort": 77437,
        "total": 2337
      },
      {
        "club_badge_src": null,
        "entry": 6839504,
        "entry_name": "\u0639\u0645\u0648\u0631\u064a",
        "event_total": 64,
        "has_played": true,
        "id": 54789287,
        "last_rank": 85762,
        "player_name": "Omar Alatshan",
        "rank": 77432,
        "rank_sort": 77438,
        "total": 2337
      },
      {
        "club_badge_src": null,
        "entry": 6898346,
        "entry_name": "Wirtz-el Gummich",
        "event_total": 53,
        "has_played": true,
        "id": 55290624,
        "last_rank": 70530,
        "player_name": "Daniel Hayden",
        "rank": 77432,
        "rank_sort": 77439,
        "total": 2337
      },
      {
        "club_badge_src": null,
        "entry": 7279106,
        "entry_name": "\u0174\u0104\u0147\u0118\u011a\u015e \u00c8\u0145\u0174\u0118J\u0114 03",
        "event_total": 57,
        "has_played": true,
        "id": 58880710,
        "last_rank": 55969,
        "player_name": "Wanees Mohammed",
        "rank": 77432,
        "rank_sort": 77440,
        "total": 2337
      },
      {
        "club_badge_src": "https://fantasy.premierleague.com/gcs/plfpl-production-adobe-approved/plfpl-production/10334/7b401f20-0646-4a72-af66-75681f60be0d.png",
        "entry": 10334,
        "entry_name": "Fighting Mongooses",
        "event_total": 71,
        "has_played": true,
        "id": 61076,
        "last_rank": 92882,
        "player_name": "Shane Fryer",
        "rank": 77441,
        "rank_sort": 77441,
        "total": 2337
      },
      {
        "club_badge_src": null,
        "entry": 1062538,
        "entry_name": "GingeFC",
        "event_total": 51,
        "has_played": true,
        "id": 7355507,
        "last_rank": 66596,
        "player_name": "Samuel Price",
        "rank": 77441,
        "rank_sort": 77442,
        "total": 2337
      },
      {
        "club_badge_src": "https://fantasy.premierleague.com/gcs/plfpl-production-adobe-approved/plfpl-production/2695836/d682eddf-bace-4e06-8d94-0bdfa9befc64.png",
        "entry": 2695836,
        "entry_name": "Ian's Wheels",
        "event_total": 58,
        "has_played": true,
        "id": 19391973,
        "last_rank": 72569,
        "player_name": "Ian Oconnell",
        "rank": 77441,
        "rank_sort": 77443,
        "total": 2337
      },
      {
        "club_badge_src": null,
        "entry": 3621532,
        "entry_name": "Omar hegzooo",
        "event_total": 56,
        "has_played": true,
        "id": 26982557,
        "last_rank": 61185,
        "player_name": "Omar Hegazy",
        "rank": 77441,
        "rank_sort": 77444,
        "total": 2337
      },
      {
        "club_badge_src": null,
        "entry": 4511675,
        "entry_name": "\u0622\u0644 \u0634\u0640\u0640\u0640\u0648\u062f\u0627\u0631\u064a\u0640\u0640\u0640\u0640\u0640\u0640\u0647",
        "event_total": 67,
        "has_played": true,
        "id": 34402266,
        "last_rank": 92890,
        "player_name": "Beshoy Edward",
        "rank": 77441,
        "rank_sort": 77445,
        "total": 2337
      },
      {
        "club_badge_src": null,
        "entry": 8112236,
        "entry_name": "BDR",
        "event_total": 61,
        "has_played": true,
        "id": 66914895,
        "last_rank": 70518,
        "player_name": "Bader Alkous",
        "rank": 77441,
        "rank_sort": 77446,
        "total": 2337
      },
      {
        "club_badge_src": null,
        "entry": 8918892,
        "entry_name": "RED DEVILS FC\ufffd\u26bd",
        "event_total": 68,
        "has_played": true,
        "id": 74692168,
        "last_rank": 85762,
        "player_name": "Ginay L",
        "rank": 77441,
        "rank_sort": 77447,
        "total": 2337
      },
      {
        "club_badge_src": null,
        "entry": 175315,
        "entry_name": "Pop_goal",
        "event_total": 64,
        "has_played": true,
        "id": 1157514,
        "last_rank": 95358,
        "player_name": "Dean Lee",
        "rank": 77448,
        "rank_sort": 77448,
        "total": 2337
      },
      {
        "club_badge_src": null,
        "entry": 1739688,
        "entry_name": "Heebes FC",
        "event_total": 76,
        "has_played": true,
        "id": 12205665,
        "last_rank": 128822,
        "player_name": "Ahmed Ayman",
        "rank": 77448,
        "rank_sort": 77449,
        "total": 2337
      },
      {
        "club_badge_src": "https://fantasy.premierleague.com/gcs/plfpl-production-adobe-approved/plfpl-production/3275089/9d04136f-afdb-46b0-bacc-b4e165ac9ab7.png",
        "entry": 3275089,
        "entry_name": "\"MN3M\"!!97!!",
        "event_total": 66,
        "has_played": true,
        "id": 24239025,
        "last_rank": 90452,
        "player_name": "Menam Sayed",
        "rank": 77448,
        "rank_sort": 77450,
        "total": 2337
      }
    ]
  }
}