{
  "last_updated_data": "2026-05-24T23:28:17Z",
  "league": {
    "admin_entry": null,
    "closed": false,
    "code_privacy": "p",
    "created": "2025-07-20T23:14:33.933835Z",
    "cup_league": 2815434,
    "has_cup": true,
    "id": 314,
    "league_type": "s",
    "max_entries": null,
    "name": "Overall",
    "rank": null,
    "scoring": "c",
    "start_event": 1
  },
  "new_entries": {
    "has_next": false,
    "page": 1,
    "results": []
  },
  "standings": {
    "has_next": true,
    "page": 1011,
    "results": [
      {
        "club_badge_src": null,
        "entry": 7571266,
        "entry_name": "Huuhaa",
        "event_total": 46,
        "has_played": true,
        "id": 62003819,
        "last_rank": 35867,
        "player_name": "Kari Paukku",
        "rank": 50372,
        "rank_sort": 50501,
        "total": 2352
      },
      {
        "club_badge_src": null,
        "entry": 7668331,
        "entry_name": "GoonerKiki",
        "event_total": 59,
        "has_played": true,
        "id": 62885709,
        "last_rank": 53952,
        "player_name": "Kiera Crowie",
        "rank": 50372,
        "rank_sort": 50502,
        "total": 2352
      },
      {
        "club_badge_src": null,
        "entry": 8177780,
        "entry_name": "AR13",
        "event_total": 70,
        "has_played": true,
        "id": 67530434,
        "last_rank": 74166,
        "player_name": "Arun Roy",
        "rank": 50372,
        "rank_sort": 50503,
        "total": 2352
      },
      {
        "club_badge_src": null,
        "entry": 8501925,
        "entry_name": "L\u00e4dit",
        "event_total": 48,
        "has_played": true,
        "id": 70656169,
        "last_rank": 38267,
        "player_name": "Samuel Timonen",
        "rank": 50372,
        "rank_sort": 50504,
        "total": 2352
      },
      {
        "club_badge_src": null,
        "entry": 8939014,
        "entry_name": "LUFC",
        "event_total": 60,
        "has_played": true,
        "id": 74891973,
        "last_rank": 55659,
        "player_name": "Jason Tierney",
        "rank": 50372,
        "rank_sort": 50505,
        "total": 2352
      },
      {
        "club_badge_src": null,
        "entry": 9207925,
        "entry_name": "AI FC",
        "event_total": 70,
        "has_played": true,
        "id": 77512736,
        "last_rank": 65796,
        "player_name": "Fynn Simister",
        "rank": 50372,
        "rank_sort": 50506,
        "total": 2352
      },
      {
        "club_badge_src": null,
        "entry": 9212226,
        "entry_name": "Sukie",
        "event_total": 64,
        "has_played": true,
        "id": 77555215,
        "last_rank": 62617,
        "player_name": "Sue Botha",
        "rank": 50372,
        "rank_sort": 50507,
        "total": 2352
      },
      {
        "club_badge_src": "https://fantasy.premierleague.com/gcs/plfpl-production-adobe-approved/plfpl-production/395/ea09ad67-bd24-445e-bb7c-ffb43da28392.png",
        "entry": 395,
        "entry_name": "Diamond Dogs",
        "event_total": 48,
        "has_played": true,
        "id": 2180,
        "last_rank": 38340,
        "player_name": "Toby Buist",
        "rank": 50508,
        "rank_sort": 50508,
        "total": 2352
      },
      {
        "club_badge_src": null,
        "entry": 7597,
        "entry_name": "CantGetWirtzThanThis",
        "event_total": 69,
        "has_played": true,
        "id": 43805,
        "last_rank": 72265,
        "player_name": "Matthew Eziashi",
        "rank": 50508,
        "rank_sort": 50509,
        "total": 2352
      },
      {
        "club_badge_src": null,
        "entry": 9151,
        "entry_name": "Uncrowned Kings",
        "event_total": 58,
        "has_played": true,
        "id": 53668,
        "last_rank": 52357,
        "player_name": "Tega Kay",
        "rank": 50508,
        "rank_sort": 50510,
        "total": 2352
      },
      {
        "club_badge_src": null,
        "entry": 11017,
        "entry_name": "CPR",
        "event_total": 55,
        "has_played": true,
        "id": 65313,
        "last_rank": 47812,
        "player_name": "Chris Gough",
        "rank": 50508,
        "rank_sort": 50511,
        "total": 2352
      },
      {
        "club_badge_src": null,
        "entry": 19820,
        "entry_name": "Pororo",
        "event_total": 65,
        "has_played": true,
        "id": 123350,
        "last_rank": 57358,
        "player_name": "Charles Li",
        "rank": 50508,
        "rank_sort": 50512,
        "total": 2352
      },
      {
        "club_badge_src": null,
        "entry": 31790,
        "entry_name": "Szobosslads",
        "event_total": 55,
        "has_played": true,
        "id": 201746,
        "last_rank": 42081,
        "player_name": "Matt Wadsworth",
        "rank": 50508,
        "rank_sort": 50513,
        "total": 2352
      },
      {
        "club_badge_src": null,
        "entry": 41295,
        "entry_name": "Goal Diggers",
        "event_total": 61,
        "has_played": true,
        "id": 264602,
        "last_rank": 50772,
        "player_name": "Saagar Seth",
        "rank": 50508,
        "rank_sort": 50514,
        "total": 2352
      },
      {
        "club_badge_src": null,
        "entry": 56273,
        "entry_name": "Team Supreme",
        "event_total": 68,
        "has_played": true,
        "id": 362445,
        "last_rank": 55514,
        "player_name": "Michael Norris",
        "rank": 50508,
        "rank_sort": 50515,
        "total": 2352
      },
      {
        "club_badge_src": "https://fantasy.premierleague.com/gcs/plfpl-production-adobe-approved/plfpl-production/64458/6536c7b7-1ace-46bb-b47b-7ded44ba1769.png",
        "entry": 64458,
        "entry_name": "L.A. Toepunters",
        "event_total": 40,
        "has_played": true,
        "id": 416036,
        "last_rank": 29333,
        "player_name": "Dave Bridgeman",
        "rank": 50508,
        "rank_sort": 50516,
        "total": 2352
      },
      {
        "club_badge_src": null,
        "entry": 122232,
        "entry_name": "A-TEAM",
        "event_total": 72,
        "has_played": true,
        "id": 797464,
        "last_rank": 78244,
        "player_name": "Aston Viegas",
        "rank": 50508,
        "rank_sort": 50517,
        "total": 2352
      },
      {
        "club_badge_src": null,
        "entry": 132281,
        "entry_name": "Not gonna win",
        "event_total": 47,
        "has_played": true,
        "id": 861729,
        "last_rank": 37134,
        "player_name": "Archie Fairclough",
        "rank": 50508,
        "rank_sort": 50518,
        "total": 2352
      },
      {
        "club_badge_src": null,
        "entry": 147394,
        "entry_name": "Blue Nose Reijnders",
        "event_total": 56,
        "has_played": true,
        "id": 965944,
        "last_rank": 38163,
        "player_name": "James Eisinger",
        "rank": 50508,
        "rank_sort": 50519,
        "total": 2352
      },
      {
        "club_badge_src": "https://fantasy.premierleague.com/gcs/plfpl-production-adobe-approved/plfpl-production/171143/c15de8b1-6f91-4ef8-9dba-cb09e685a7df.png",
        "entry": 171143,
        "entry_name": "Pr\u00f6\u00e7h\u00f1\u00f8st",
        "event_total": 70,
        "has_played": true,
        "id": 1130652,
        "last_rank": 74317,
        "player_name": "Kevin Njagi",
        "rank": 50508,
        "rank_sort": 50520,
        "total": 2352
      },
      {
        "club_badge_src": "https://fantasy.premierleague.com/gcs/plfpl-production-adobe-approved/plfpl-production/213813/a7db137a-a878-4ca6-a6d6-256e7a277624.png",
        "entry": 213813,
        "entry_name": "Patin Tempoyok",
        "event_total": 67,
        "has_played": true,
        "id": 1422371,
        "last_rank": 67695,
        "player_name": "HA SHELBY",
        "rank": 50508,
        "rank_sort": 50521,
        "total": 2352
      },
      {
        "club_badge_src": null,
        "entry": 246514,
        "entry_name": "Marvellous",
        "event_total": 66,
        "has_played": true,
        "id": 1641141,
        "last_rank": 59077,
        "player_name": "Martin Harris",
        "rank": 50508,
        "rank_sort": 50522,
        "total": 2352
      },
      {
        "club_badge_src": null,
        "entry": 253568,
        "entry_name": "scoties gunz",
        "event_total": 59,
        "has_played": true,
        "id": 1686580,
        "last_rank": 53837,
        "player_name": "Scott Rutherford",
        "rank": 50508,
        "rank_sort": 50523,
        "total": 2352
      },
      {
        "club_badge_src": null,
        "entry": 272294,
        "entry_name": "Yorooooo Family",
        "event_total": 55,
        "has_played": true,
        "id": 1811632,
        "last_rank": 47868,
        "player_name": "Owen Dawes",
        "rank": 50508,
        "rank_sort": 50524,
        "total": 2352
      },
      {
        "club_badge_src": null,
        "entry": 277264,
        "entry_name": "S A U D\u2122",
        "event_total": 52,
        "has_played": true,
        "id": 1845494,
        "last_rank": 43512,
        "player_name": "Saud AL Saud",
        "rank": 50508,
        "rank_sort": 50525,
        "total": 2352
      },
      {
        "club_badge_src": null,
        "entry": 333729,
        "entry_name": "#NoBelgium",
        "event_total": 62,
        "has_played": true,
        "id": 2234947,
        "last_rank": 52357,
        "player_name": "Sti Str",
        "rank": 50508,
        "rank_sort": 50526,
        "total": 2352
      },
      {
        "club_badge_src": null,
        "entry": 408373,
        "entry_name": "Pain In the Dias",
        "event_total": 55,
        "has_played": true,
        "id": 2738552,
        "last_rank": 41967,
        "player_name": "ANDY LITHERLAND",
        "rank": 50508,
        "rank_sort": 50527,
        "total": 2352
      },
      {
        "club_badge_src": "https://fantasy.premierleague.com/gcs/plfpl-production-adobe-approved/plfpl-production/415633/411f2bc0-dd71-49cb-8776-7f614491b68f.png",
        "entry": 415633,
        "entry_name": "FC Dill D\u00f6e",
        "event_total": 61,
        "has_played": true,
        "id": 2786322,
        "last_rank": 57451,
        "player_name": "Joe Caudwell",
        "rank": 50508,
        "rank_sort": 50528,
        "total": 2352
      },
      {
        "club_badge_src": "https://fantasy.premierleague.com/gcs/plfpl-production-adobe-approved/plfpl-production/455113/afd6d01d-6ac6-44fa-a403-5417d2a9a384.png",
        "entry": 455113,
        "entry_name": "Ahly 74",
        "event_total": 72,
        "has_played": true,
        "id": 3053175,
        "last_rank": 62429,
        "player_name": "Alaa Atef",
        "rank": 50508,
        "rank_sort": 50529,
        "total": 2352
      },
      {
        "club_badge_src": null,
        "entry": 557492,
        "entry_name": "CoreS",
        "event_total": 67,
        "has_played": true,
        "id": 3751865,
        "last_rank": 60827,
        "player_name": "Shady SaSa",
        "rank": 50508,
        "rank_sort": 50530,
        "total": 2352
      },
      {
        "club_badge_src": null,
        "entry": 624865,
        "entry_name": "Amusing Pun FC",
        "event_total": 65,
        "has_played": true,
        "id": 4222625,
        "last_rank": 57358,
        "player_name": "Adam Worman",
        "rank": 50508,
        "rank_sort": 50531,
        "total": 2352
      },
      {
        "club_badge_src": null,
        "entry": 684495,
        "entry_name": "Magichand",
        "event_total": 60,
        "has_played": true,
        "id": 4633038,
        "last_rank": 55747,
        "player_name": "Ton Thanawut",
        "rank": 50508,
        "rank_sort": 50532,
        "total": 2352
      },
      {
        "club_badge_src": null,
        "entry": 708720,
        "entry_name": "Neville Wears Prada",
        "event_total": 76,
        "has_played": true,
        "id": 4803764,
        "last_rank": 87710,
        "player_name": "Stu Priestley",
        "rank": 50508,
        "rank_sort": 50533,
        "total": 2352
      },
      {
        "club_badge_src": null,
        "entry": 708932,
        "entry_name": "TadeX",
        "event_total": 66,
        "has_played": true,
        "id": 4805663,
        "last_rank": 66296,
        "player_name": "Tade\u00e1\u0161 Tomek",
        "rank": 50508,
        "rank_sort": 50534,
        "total": 2352
      },
      {
        "club_badge_src": "https://fantasy.premierleague.com/gcs/plfpl-production-adobe-approved/plfpl-production/734764/f634f09e-07eb-452b-a1c6-ab9c12d765d7.png",
        "entry": 734764,
        "entry_name": "NemesisFC",
        "event_total": 64,
        "has_played": true,
        "id": 4993967,
        "last_rank": 62617,
        "player_name": "Craig Prins",
        "rank": 50508,
        "rank_sort": 50535,
        "total": 2352
      },
      {
        "club_badge_src": null,
        "entry": 757756,
        "entry_name": "Kai Hard",
        "event_total": 57,
        "has_played": true,
        "id": 5161292,
        "last_rank": 44804,
        "player_name": "Benjamin Hodges",
        "rank": 50508,
        "rank_sort": 50536,
        "total": 2352
      },
      {
        "club_badge_src": null,
        "entry": 819499,
        "entry_name": "Ball Busters",
        "event_total": 54,
        "has_played": true,
        "id": 5612443,
        "last_rank": 35768,
        "player_name": "Sedki Ben Salem",
        "rank": 50508,
        "rank_sort": 50537,
        "total": 2352
      },
      {
        "club_badge_src": null,
        "entry": 894869,
        "entry_name": "Slumdog Mignolet",
        "event_total": 67,
        "has_played": true,
        "id": 6147181,
        "last_rank": 68216,
        "player_name": "John Murray",
        "rank": 50508,
        "rank_sort": 50538,
        "total": 2352
      },
      {
        "club_badge_src": "https://fantasy.premierleague.com/gcs/plfpl-production-adobe-approved/plfpl-production/939040/92820cc2-ed41-4bc3-8026-5945af12ab48.png",
        "entry": 939040,
        "entry_name": "Kinder Mbeumo",
        "event_total": 57,
        "has_played": true,
        "id": 6463045,
        "last_rank": 44804,
        "player_name": "Donal McGoran",
        "rank": 50508,
        "rank_sort": 50539,
        "total": 2352
      },
      {
        "club_badge_src": null,
        "entry": 1005505,
        "entry_name": "Great Victors",
        "event_total": 46,
        "has_played": true,
        "id": 6950851,
        "last_rank": 35926,
        "player_name": "Jai Shanghvi",
        "rank": 50508,
        "rank_sort": 50540,
        "total": 2352
      },
      {
        "club_badge_src": null,
        "entry": 1140169,
        "entry_name": "Whykings Vikings",
        "event_total": 50,
        "has_played": true,
        "id": 7903487,
        "last_rank": 40832,
        "player_name": "Tom Matthewson",
        "rank": 50508,
        "rank_sort": 50541,
        "total": 2352
      },
      {
        "club_badge_src": null,
        "entry": 1146182,
        "entry_name": "Cucu for Coco Puffs",
        "event_total": 77,
        "has_played": true,
        "id": 7946927,
        "last_rank": 71956,
        "player_name": "Baillie McLean",
        "rank": 50508,
        "rank_sort": 50542,
        "total": 2352
      },
      {
        "club_badge_src": null,
        "entry": 1204158,
        "entry_name": "Ramen reigns",
        "event_total": 45,
        "has_played": true,
        "id": 8356401,
        "last_rank": 34749,
        "player_name": "Soubir Samadder",
        "rank": 50508,
        "rank_sort": 50543,
        "total": 2352
      },
      {
        "club_badge_src": null,
        "entry": 1250560,
        "entry_name": "GyoGunners",
        "event_total": 57,
        "has_played": true,
        "id": 8685337,
        "last_rank": 44804,
        "player_name": "Mile Balatunovic",
        "rank": 50508,
        "rank_sort": 50544,
        "total": 2352
      },
      {
        "club_badge_src": null,
        "entry": 1300893,
        "entry_name": "Neville Wears Prada",
        "event_total": 69,
        "has_played": true,
        "id": 9041148,
        "last_rank": 72145,
        "player_name": "Craig Brook",
        "rank": 50508,
        "rank_sort": 50545,
        "total": 2352
      },
      {
        "club_badge_src": null,
        "entry": 1353718,
        "entry_name": "Giroud Sandstorm",
        "event_total": 31,
        "has_played": true,
        "id": 9410641,
        "last_rank": 15876,
        "player_name": "Vitor Boa",
        "rank": 50508,
        "rank_sort": 50546,
        "total": 2352
      },
      {
        "club_badge_src": "https://fantasy.premierleague.com/gcs/plfpl-production-adobe-approved/plfpl-production/1386078/466e4029-9347-435b-b542-76e55e6048a4.png",
        "entry": 1386078,
        "entry_name": "The Little Shjuicers",
        "event_total": 72,
        "has_played": true,
        "id": 9640690,
        "last_rank": 70072,
        "player_name": "Ed Vanderlee",
        "rank": 50508,
        "rank_sort": 50547,
        "total": 2352
      },
      {
        "club_badge_src": null,
        "entry": 1408568,
        "entry_name": "Ugabuga",
        "event_total": 66,
        "has_played": true,
        "id": 9801164,
        "last_rank": 52205,
        "player_name": "Eric Lim",
        "rank": 50508,
        "rank_sort": 50548,
        "total": 2352
      },
      {
        "club_badge_src": null,
        "entry": 1473161,
        "entry_name": "zagrep\u010danski bluesi",
        "event_total": 52,
        "has_played": true,
        "id": 10268858,
        "last_rank": 33483,
        "player_name": "Mislav Znidaric",
        "rank": 50508,
        "rank_sort": 50549,
        "total": 2352
      },
      {
        "club_badge_src": null,
        "entry": 2014487,
        "entry_name": "Ali Alkhateeb",
        "event_total": 79,
        "has_played": true,
        "id": 14249531,
        "last_rank": 94537,
        "player_name": "Ali Alkhateeb",
        "rank": 50508,
        "rank_sort": 50550,
        "total": 2352
      }
    ]
  }
}