{
  "last_updated_data": "2026-05-24T23:28:17Z",
  "league": {
    "admin_entry": null,
    "closed": false,
    "code_privacy": "p",
    "created": "2025-07-20T23:14:33.933835Z",
    "cup_league": 2815434,
    "has_cup": true,
    "id": 314,
    "league_type": "s",
    "max_entries": null,
    "name": "Overall",
    "rank": null,
    "scoring": "c",
    "start_event": 1
  },
  "new_entries": {
    "has_next": false,
    "page": 1,
    "results": []
  },
  "standings": {
    "has_next": true,
    "page": 979,
    "results": [
      {
        "club_badge_src": null,
        "entry": 3338628,
        "entry_name": "Chels",
        "event_total": 48,
        "has_played": true,
        "id": 24761793,
        "last_rank": 37134,
        "player_name": "Nico George",
        "rank": 48822,
        "rank_sort": 48901,
        "total": 2353
      },
      {
        "club_badge_src": null,
        "entry": 3377420,
        "entry_name": "Abra Dubravka",
        "event_total": 51,
        "has_played": true,
        "id": 25068913,
        "last_rank": 40770,
        "player_name": "matthew graham",
        "rank": 48822,
        "rank_sort": 48902,
        "total": 2353
      },
      {
        "club_badge_src": null,
        "entry": 3516518,
        "entry_name": "Machine Kelly Skelly",
        "event_total": 72,
        "has_played": true,
        "id": 26167888,
        "last_rank": 76330,
        "player_name": "Andrew Bragg",
        "rank": 48822,
        "rank_sort": 48903,
        "total": 2353
      },
      {
        "club_badge_src": "https://fantasy.premierleague.com/gcs/plfpl-production-adobe-approved/plfpl-production/3956142/90b5ef7d-5d65-400d-8c57-434ff4b280c2.png",
        "entry": 3956142,
        "entry_name": "GGMU",
        "event_total": 56,
        "has_played": true,
        "id": 29764083,
        "last_rank": 47722,
        "player_name": "Sunit Vaidya",
        "rank": 48822,
        "rank_sort": 48904,
        "total": 2353
      },
      {
        "club_badge_src": null,
        "entry": 3983970,
        "entry_name": "The Wombles",
        "event_total": 45,
        "has_played": true,
        "id": 29993187,
        "last_rank": 33483,
        "player_name": "Greg Thorpe",
        "rank": 48822,
        "rank_sort": 48905,
        "total": 2353
      },
      {
        "club_badge_src": null,
        "entry": 4406749,
        "entry_name": "Liam Delapdancer",
        "event_total": 55,
        "has_played": true,
        "id": 33519284,
        "last_rank": 40647,
        "player_name": "Jack Moss",
        "rank": 48822,
        "rank_sort": 48906,
        "total": 2353
      },
      {
        "club_badge_src": null,
        "entry": 4640839,
        "entry_name": "Palmer Violets",
        "event_total": 68,
        "has_played": true,
        "id": 35494945,
        "last_rank": 67926,
        "player_name": "Jake Sheldon",
        "rank": 48822,
        "rank_sort": 48907,
        "total": 2353
      },
      {
        "club_badge_src": null,
        "entry": 4658183,
        "entry_name": "RICH FC",
        "event_total": 79,
        "has_played": true,
        "id": 35659242,
        "last_rank": 82664,
        "player_name": "Tuyizere Richrd",
        "rank": 48822,
        "rank_sort": 48908,
        "total": 2353
      },
      {
        "club_badge_src": null,
        "entry": 4660296,
        "entry_name": "Ultras_87",
        "event_total": 59,
        "has_played": true,
        "id": 35683297,
        "last_rank": 52357,
        "player_name": "Vladimir Matijevic",
        "rank": 48822,
        "rank_sort": 48909,
        "total": 2353
      },
      {
        "club_badge_src": null,
        "entry": 5241749,
        "entry_name": "Habib alkhabbz",
        "event_total": 65,
        "has_played": true,
        "id": 40622399,
        "last_rank": 55514,
        "player_name": "habib khabbaz",
        "rank": 48822,
        "rank_sort": 48910,
        "total": 2353
      },
      {
        "club_badge_src": null,
        "entry": 5248933,
        "entry_name": "Battered Sausages",
        "event_total": 77,
        "has_played": true,
        "id": 40680026,
        "last_rank": 77676,
        "player_name": "Gary Farrell",
        "rank": 48822,
        "rank_sort": 48911,
        "total": 2353
      },
      {
        "club_badge_src": null,
        "entry": 5555315,
        "entry_name": "Saka Potatoes",
        "event_total": 33,
        "has_played": true,
        "id": 43362559,
        "last_rank": 19176,
        "player_name": "Jasbinder Ball",
        "rank": 48822,
        "rank_sort": 48912,
        "total": 2353
      },
      {
        "club_badge_src": null,
        "entry": 5557095,
        "entry_name": "\u043f\u0430\u0458\u043a\u0435\u0442\u043e\u0432\u0438 \u0437\u043c\u0430\u0458\u0435\u0432\u0438",
        "event_total": 67,
        "has_played": true,
        "id": 43378306,
        "last_rank": 66057,
        "player_name": "Luka Pajic",
        "rank": 48822,
        "rank_sort": 48913,
        "total": 2353
      },
      {
        "club_badge_src": null,
        "entry": 5603403,
        "entry_name": "King Salah",
        "event_total": 54,
        "has_played": true,
        "id": 43785940,
        "last_rank": 34458,
        "player_name": "Salah Salah",
        "rank": 48822,
        "rank_sort": 48914,
        "total": 2353
      },
      {
        "club_badge_src": null,
        "entry": 5733831,
        "entry_name": "Hakuna Mateta",
        "event_total": 50,
        "has_played": true,
        "id": 44921058,
        "last_rank": 34458,
        "player_name": "Joseph Ozemoya",
        "rank": 48822,
        "rank_sort": 48915,
        "total": 2353
      },
      {
        "club_badge_src": null,
        "entry": 6029784,
        "entry_name": "YeezY",
        "event_total": 56,
        "has_played": true,
        "id": 47564444,
        "last_rank": 47596,
        "player_name": "Miytesh Subbiah",
        "rank": 48822,
        "rank_sort": 48916,
        "total": 2353
      },
      {
        "club_badge_src": null,
        "entry": 6102926,
        "entry_name": "Brej\u00e3o FC",
        "event_total": 67,
        "has_played": true,
        "id": 48200870,
        "last_rank": 66200,
        "player_name": "Tiago Duarte",
        "rank": 48822,
        "rank_sort": 48917,
        "total": 2353
      },
      {
        "club_badge_src": null,
        "entry": 6118048,
        "entry_name": "Beef Cherki",
        "event_total": 60,
        "has_played": true,
        "id": 48332939,
        "last_rank": 53621,
        "player_name": "Eddie East",
        "rank": 48822,
        "rank_sort": 48918,
        "total": 2353
      },
      {
        "club_badge_src": null,
        "entry": 6177171,
        "entry_name": "Tobi FC",
        "event_total": 97,
        "has_played": true,
        "id": 48848012,
        "last_rank": 143804,
        "player_name": "Tobi Oriola",
        "rank": 48822,
        "rank_sort": 48919,
        "total": 2353
      },
      {
        "club_badge_src": null,
        "entry": 6339327,
        "entry_name": "Divock of Ages",
        "event_total": 57,
        "has_played": true,
        "id": 50386117,
        "last_rank": 48898,
        "player_name": "inno van den Berg",
        "rank": 48822,
        "rank_sort": 48920,
        "total": 2353
      },
      {
        "club_badge_src": null,
        "entry": 6386319,
        "entry_name": "DYING WISH",
        "event_total": 39,
        "has_played": true,
        "id": 50797886,
        "last_rank": 27364,
        "player_name": "farhaan hanif",
        "rank": 48822,
        "rank_sort": 48921,
        "total": 2353
      },
      {
        "club_badge_src": "https://fantasy.premierleague.com/gcs/plfpl-production-adobe-approved/plfpl-production/6460923/bbd7d80a-b29a-4d7f-b88d-0e7706f1dca4.png",
        "entry": 6460923,
        "entry_name": "Ctrl+Alt+Deligt",
        "event_total": 36,
        "has_played": true,
        "id": 51469105,
        "last_rank": 24680,
        "player_name": "Shawn Nyaribari",
        "rank": 48822,
        "rank_sort": 48922,
        "total": 2353
      },
      {
        "club_badge_src": null,
        "entry": 6621743,
        "entry_name": "RiskItForTheBiscuit",
        "event_total": 65,
        "has_played": true,
        "id": 52914941,
        "last_rank": 62617,
        "player_name": "Robin Haugen",
        "rank": 48822,
        "rank_sort": 48923,
        "total": 2353
      },
      {
        "club_badge_src": "https://fantasy.premierleague.com/gcs/plfpl-production-adobe-approved/plfpl-production/6710238/0149d3f7-2608-4e11-b6f1-bee197ac8ebb.png",
        "entry": 6710238,
        "entry_name": "Lil Uzi Wirtz",
        "event_total": 67,
        "has_played": true,
        "id": 53699538,
        "last_rank": 58911,
        "player_name": "Nawaaz Hassim",
        "rank": 48822,
        "rank_sort": 48924,
        "total": 2353
      },
      {
        "club_badge_src": null,
        "entry": 6873665,
        "entry_name": "lord_zola",
        "event_total": 69,
        "has_played": true,
        "id": 55081561,
        "last_rank": 69907,
        "player_name": "Zelalem Abebe",
        "rank": 48822,
        "rank_sort": 48925,
        "total": 2353
      },
      {
        "club_badge_src": null,
        "entry": 6971897,
        "entry_name": "Hegarteam",
        "event_total": 52,
        "has_played": true,
        "id": 55928513,
        "last_rank": 42081,
        "player_name": "Keelan Hegarty",
        "rank": 48822,
        "rank_sort": 48926,
        "total": 2353
      },
      {
        "club_badge_src": null,
        "entry": 7108596,
        "entry_name": "BankStreetBoys",
        "event_total": 75,
        "has_played": true,
        "id": 57258937,
        "last_rank": 73975,
        "player_name": "Adedamola Victor Adesina",
        "rank": 48822,
        "rank_sort": 48927,
        "total": 2353
      },
      {
        "club_badge_src": null,
        "entry": 7129329,
        "entry_name": "Don Jarbys XI",
        "event_total": 61,
        "has_played": true,
        "id": 57453820,
        "last_rank": 55014,
        "player_name": "Jonny Darbyshire",
        "rank": 48822,
        "rank_sort": 48928,
        "total": 2353
      },
      {
        "club_badge_src": null,
        "entry": 7399102,
        "entry_name": "Lunden",
        "event_total": 64,
        "has_played": true,
        "id": 60005919,
        "last_rank": 60671,
        "player_name": "Filip Lund\u00e9n",
        "rank": 48822,
        "rank_sort": 48929,
        "total": 2353
      },
      {
        "club_badge_src": null,
        "entry": 7959830,
        "entry_name": "Angelo FC",
        "event_total": 39,
        "has_played": true,
        "id": 65529005,
        "last_rank": 27402,
        "player_name": "Ayoonwi Numfor",
        "rank": 48822,
        "rank_sort": 48930,
        "total": 2353
      },
      {
        "club_badge_src": null,
        "entry": 8034346,
        "entry_name": "Bcowlfbkfksknf",
        "event_total": 49,
        "has_played": true,
        "id": 66194752,
        "last_rank": 38163,
        "player_name": "chris chan",
        "rank": 48822,
        "rank_sort": 48931,
        "total": 2353
      },
      {
        "club_badge_src": null,
        "entry": 8289712,
        "entry_name": "O.O.S FC",
        "event_total": 49,
        "has_played": true,
        "id": 68602415,
        "last_rank": 38267,
        "player_name": "Oreoluwa Olufowobi",
        "rank": 48822,
        "rank_sort": 48932,
        "total": 2353
      },
      {
        "club_badge_src": null,
        "entry": 8515209,
        "entry_name": "Alpha Romero",
        "event_total": 52,
        "has_played": true,
        "id": 70784922,
        "last_rank": 42081,
        "player_name": "Jack O'Reilly",
        "rank": 48822,
        "rank_sort": 48933,
        "total": 2353
      },
      {
        "club_badge_src": null,
        "entry": 8636913,
        "entry_name": "Squidwirtz",
        "event_total": 57,
        "has_played": true,
        "id": 71956637,
        "last_rank": 49078,
        "player_name": "Jake Thurlow",
        "rank": 48822,
        "rank_sort": 48934,
        "total": 2353
      },
      {
        "club_badge_src": null,
        "entry": 8803476,
        "entry_name": "Ali",
        "event_total": 51,
        "has_played": true,
        "id": 73578254,
        "last_rank": 40832,
        "player_name": "Ali Raad",
        "rank": 48822,
        "rank_sort": 48935,
        "total": 2353
      },
      {
        "club_badge_src": null,
        "entry": 8989154,
        "entry_name": "Udinese Away",
        "event_total": 66,
        "has_played": true,
        "id": 75377080,
        "last_rank": 57200,
        "player_name": "Claudio Madotto",
        "rank": 48822,
        "rank_sort": 48936,
        "total": 2353
      },
      {
        "club_badge_src": null,
        "entry": 9095369,
        "entry_name": "Razbigboss",
        "event_total": 66,
        "has_played": true,
        "id": 76405977,
        "last_rank": 57001,
        "player_name": "amir razin",
        "rank": 48822,
        "rank_sort": 48937,
        "total": 2353
      },
      {
        "club_badge_src": "https://fantasy.premierleague.com/gcs/plfpl-production-adobe-approved/plfpl-production/9452621/387111e6-54ec-4cfd-9e75-110798dff280.png",
        "entry": 9452621,
        "entry_name": "King El3ba",
        "event_total": 63,
        "has_played": true,
        "id": 79872727,
        "last_rank": 58911,
        "player_name": "Abdo Ragab",
        "rank": 48822,
        "rank_sort": 48938,
        "total": 2353
      },
      {
        "club_badge_src": null,
        "entry": 13968,
        "entry_name": "Amr",
        "event_total": 60,
        "has_played": true,
        "id": 84612,
        "last_rank": 47722,
        "player_name": "Amr Gamal",
        "rank": 48939,
        "rank_sort": 48939,
        "total": 2353
      },
      {
        "club_badge_src": null,
        "entry": 18867,
        "entry_name": "BelVNPlayboy",
        "event_total": 56,
        "has_played": true,
        "id": 117422,
        "last_rank": 36963,
        "player_name": "Nart Bach",
        "rank": 48939,
        "rank_sort": 48940,
        "total": 2353
      },
      {
        "club_badge_src": null,
        "entry": 25337,
        "entry_name": "Pek and Chips",
        "event_total": 50,
        "has_played": true,
        "id": 160259,
        "last_rank": 39510,
        "player_name": "alan storey",
        "rank": 48939,
        "rank_sort": 48941,
        "total": 2353
      },
      {
        "club_badge_src": "https://fantasy.premierleague.com/gcs/plfpl-production-adobe-approved/plfpl-production/32256/8b92836a-fe58-40db-abb5-1d5adb23fc6b.png",
        "entry": 32256,
        "entry_name": "Marescapone sauce",
        "event_total": 81,
        "has_played": true,
        "id": 205102,
        "last_rank": 78244,
        "player_name": "james bugler",
        "rank": 48939,
        "rank_sort": 48942,
        "total": 2353
      },
      {
        "club_badge_src": "https://fantasy.premierleague.com/gcs/plfpl-production-adobe-approved/plfpl-production/46345/a1bfa680-5d5e-4ac4-952e-7ebb15bd03f0.png",
        "entry": 46345,
        "entry_name": "Tea and Busquets",
        "event_total": 59,
        "has_played": true,
        "id": 297121,
        "last_rank": 51984,
        "player_name": "Callum Bailey",
        "rank": 48939,
        "rank_sort": 48943,
        "total": 2353
      },
      {
        "club_badge_src": null,
        "entry": 47120,
        "entry_name": "67 Filmon XI",
        "event_total": 74,
        "has_played": true,
        "id": 302169,
        "last_rank": 50199,
        "player_name": "Filmon Belay",
        "rank": 48939,
        "rank_sort": 48944,
        "total": 2353
      },
      {
        "club_badge_src": null,
        "entry": 68791,
        "entry_name": "FPL Deekay",
        "event_total": 55,
        "has_played": true,
        "id": 445841,
        "last_rank": 46236,
        "player_name": "Dakalo Tshikumbana",
        "rank": 48939,
        "rank_sort": 48945,
        "total": 2353
      },
      {
        "club_badge_src": null,
        "entry": 76728,
        "entry_name": "Al\u00ebshka",
        "event_total": 59,
        "has_played": true,
        "id": 498764,
        "last_rank": 52461,
        "player_name": "Alexey Efimov",
        "rank": 48939,
        "rank_sort": 48946,
        "total": 2353
      },
      {
        "club_badge_src": null,
        "entry": 84319,
        "entry_name": "Waters FC",
        "event_total": 59,
        "has_played": true,
        "id": 548985,
        "last_rank": 52461,
        "player_name": "Samuel Waters",
        "rank": 48939,
        "rank_sort": 48947,
        "total": 2353
      },
      {
        "club_badge_src": null,
        "entry": 106342,
        "entry_name": "Nutela Plazma",
        "event_total": 82,
        "has_played": true,
        "id": 693429,
        "last_rank": 99959,
        "player_name": "Stefan Miric",
        "rank": 48939,
        "rank_sort": 48948,
        "total": 2353
      },
      {
        "club_badge_src": null,
        "entry": 116152,
        "entry_name": "Lever's XI",
        "event_total": 55,
        "has_played": true,
        "id": 758257,
        "last_rank": 40770,
        "player_name": "Mitchell Lever",
        "rank": 48939,
        "rank_sort": 48949,
        "total": 2353
      },
      {
        "club_badge_src": "https://fantasy.premierleague.com/gcs/plfpl-production-adobe-approved/plfpl-production/138408/5320ff34-bd72-4b10-ae1e-f8198d0f9823.png",
        "entry": 138408,
        "entry_name": "al3rab",
        "event_total": 45,
        "has_played": true,
        "id": 902890,
        "last_rank": 33695,
        "player_name": "\u0645\u062d\u0645\u062f \u0627\u0628\u0648 \u0635\u0641\u0627\u0621",
        "rank": 48939,
        "rank_sort": 48950,
        "total": 2353
      }
    ]
  }
}