{
  "last_updated_data": "2026-05-24T23:28:17Z",
  "league": {
    "admin_entry": null,
    "closed": false,
    "code_privacy": "p",
    "created": "2025-07-20T23:14:33.933835Z",
    "cup_league": 2815434,
    "has_cup": true,
    "id": 314,
    "league_type": "s",
    "max_entries": null,
    "name": "Overall",
    "rank": null,
    "scoring": "c",
    "start_event": 1
  },
  "new_entries": {
    "has_next": false,
    "page": 1,
    "results": []
  },
  "standings": {
    "has_next": true,
    "page": 40,
    "results": [
      {
        "club_badge_src": null,
        "entry": 7494167,
        "entry_name": "SlotKlopp FC",
        "event_total": 45,
        "has_played": true,
        "id": 61206490,
        "last_rank": 967,
        "player_name": "Ridwaan Salie",
        "rank": 1949,
        "rank_sort": 1951,
        "total": 2435
      },
      {
        "club_badge_src": null,
        "entry": 8696241,
        "entry_name": "Djorsenal",
        "event_total": 64,
        "has_played": true,
        "id": 72542530,
        "last_rank": 2491,
        "player_name": "Djordje Vukadinovic",
        "rank": 1949,
        "rank_sort": 1952,
        "total": 2435
      },
      {
        "club_badge_src": null,
        "entry": 4172844,
        "entry_name": "Silva's XI",
        "event_total": 60,
        "has_played": true,
        "id": 31560906,
        "last_rank": 2045,
        "player_name": "Aronne Da Silva",
        "rank": 1953,
        "rank_sort": 1953,
        "total": 2435
      },
      {
        "club_badge_src": null,
        "entry": 39095,
        "entry_name": "Slotts Tots",
        "event_total": 67,
        "has_played": true,
        "id": 250592,
        "last_rank": 2930,
        "player_name": "Erik Forsgren",
        "rank": 1954,
        "rank_sort": 1954,
        "total": 2435
      },
      {
        "club_badge_src": null,
        "entry": 2946510,
        "entry_name": "LAWAK GAMING",
        "event_total": 66,
        "has_played": true,
        "id": 21627513,
        "last_rank": 2784,
        "player_name": "Lordvren .",
        "rank": 1954,
        "rank_sort": 1955,
        "total": 2435
      },
      {
        "club_badge_src": null,
        "entry": 38561,
        "entry_name": "JABAWALK",
        "event_total": 62,
        "has_played": true,
        "id": 247164,
        "last_rank": 2266,
        "player_name": "Dan Viravith",
        "rank": 1956,
        "rank_sort": 1956,
        "total": 2435
      },
      {
        "club_badge_src": null,
        "entry": 6653627,
        "entry_name": "wes.",
        "event_total": 54,
        "has_played": true,
        "id": 53196037,
        "last_rank": 1221,
        "player_name": "D T B 10 Mujalli",
        "rank": 1957,
        "rank_sort": 1957,
        "total": 2435
      },
      {
        "club_badge_src": "https://fantasy.premierleague.com/gcs/plfpl-production-adobe-approved/plfpl-production/6218272/d679b97c-3671-428d-9649-8d2795a7cb4b.png",
        "entry": 6218272,
        "entry_name": "Lend me a Yoro",
        "event_total": 42,
        "has_played": true,
        "id": 49201357,
        "last_rank": 814,
        "player_name": "Daniel Oshea",
        "rank": 1958,
        "rank_sort": 1958,
        "total": 2434
      },
      {
        "club_badge_src": null,
        "entry": 519036,
        "entry_name": "Michele Mchele",
        "event_total": 52,
        "has_played": true,
        "id": 3484953,
        "last_rank": 1351,
        "player_name": "Amo Kibz",
        "rank": 1959,
        "rank_sort": 1959,
        "total": 2434
      },
      {
        "club_badge_src": null,
        "entry": 4324004,
        "entry_name": "Celery....Celery",
        "event_total": 78,
        "has_played": true,
        "id": 32816805,
        "last_rank": 4036,
        "player_name": "stefan gloyn",
        "rank": 1960,
        "rank_sort": 1960,
        "total": 2434
      },
      {
        "club_badge_src": null,
        "entry": 8762433,
        "entry_name": "Pickled Cirkin",
        "event_total": 58,
        "has_played": true,
        "id": 73181588,
        "last_rank": 1848,
        "player_name": "Ross Wilson",
        "rank": 1960,
        "rank_sort": 1961,
        "total": 2434
      },
      {
        "club_badge_src": null,
        "entry": 2505619,
        "entry_name": "Chels Vision 2030",
        "event_total": 64,
        "has_played": true,
        "id": 17943300,
        "last_rank": 2513,
        "player_name": "Shuo Huang",
        "rank": 1962,
        "rank_sort": 1962,
        "total": 2434
      },
      {
        "club_badge_src": null,
        "entry": 5086682,
        "entry_name": "This Star of England",
        "event_total": 60,
        "has_played": true,
        "id": 39314661,
        "last_rank": 2062,
        "player_name": "Sean Done",
        "rank": 1962,
        "rank_sort": 1963,
        "total": 2434
      },
      {
        "club_badge_src": null,
        "entry": 1995780,
        "entry_name": "Zimmeh",
        "event_total": 69,
        "has_played": true,
        "id": 14102733,
        "last_rank": 3224,
        "player_name": "Nicolai Zimmer",
        "rank": 1964,
        "rank_sort": 1964,
        "total": 2434
      },
      {
        "club_badge_src": null,
        "entry": 2844002,
        "entry_name": "Buy High Sell Low",
        "event_total": 84,
        "has_played": true,
        "id": 20789549,
        "last_rank": 6384,
        "player_name": "Chen Zhang",
        "rank": 1964,
        "rank_sort": 1965,
        "total": 2434
      },
      {
        "club_badge_src": null,
        "entry": 44628,
        "entry_name": "Bringin Zirkzee Back",
        "event_total": 57,
        "has_played": true,
        "id": 286048,
        "last_rank": 1753,
        "player_name": "Alex Agar",
        "rank": 1966,
        "rank_sort": 1966,
        "total": 2434
      },
      {
        "club_badge_src": null,
        "entry": 163650,
        "entry_name": "men vs moyes",
        "event_total": 69,
        "has_played": true,
        "id": 1079527,
        "last_rank": 3257,
        "player_name": "Mackenzie Carroll",
        "rank": 1966,
        "rank_sort": 1967,
        "total": 2434
      },
      {
        "club_badge_src": null,
        "entry": 242375,
        "entry_name": "Bowen Arrow",
        "event_total": 81,
        "has_played": true,
        "id": 1613474,
        "last_rank": 5627,
        "player_name": "Liam Wyle",
        "rank": 1966,
        "rank_sort": 1968,
        "total": 2434
      },
      {
        "club_badge_src": null,
        "entry": 5848457,
        "entry_name": "Gaand",
        "event_total": 73,
        "has_played": true,
        "id": 45915231,
        "last_rank": 3848,
        "player_name": "TEJAS VERMA",
        "rank": 1966,
        "rank_sort": 1969,
        "total": 2434
      },
      {
        "club_badge_src": null,
        "entry": 8923146,
        "entry_name": "Iwobi Wan-Kenobi",
        "event_total": 67,
        "has_played": true,
        "id": 74734059,
        "last_rank": 2399,
        "player_name": "John Dean",
        "rank": 1966,
        "rank_sort": 1970,
        "total": 2434
      },
      {
        "club_badge_src": null,
        "entry": 26175,
        "entry_name": "Lola\u2019s Theme",
        "event_total": 68,
        "has_played": true,
        "id": 165495,
        "last_rank": 3079,
        "player_name": "James Ingram",
        "rank": 1971,
        "rank_sort": 1971,
        "total": 2434
      },
      {
        "club_badge_src": null,
        "entry": 115249,
        "entry_name": "StoneColeStevePalmer",
        "event_total": 69,
        "has_played": true,
        "id": 752107,
        "last_rank": 3237,
        "player_name": "Richard Vlaicu",
        "rank": 1971,
        "rank_sort": 1972,
        "total": 2434
      },
      {
        "club_badge_src": "https://fantasy.premierleague.com/gcs/plfpl-production-adobe-approved/plfpl-production/214536/be7a3860-598d-460f-af3c-aa42ff279e33.png",
        "entry": 214536,
        "entry_name": "Winside",
        "event_total": 60,
        "has_played": true,
        "id": 1427144,
        "last_rank": 2068,
        "player_name": "Josiah Francis",
        "rank": 1971,
        "rank_sort": 1973,
        "total": 2434
      },
      {
        "club_badge_src": null,
        "entry": 304434,
        "entry_name": "Battle Scarles",
        "event_total": 69,
        "has_played": true,
        "id": 2038294,
        "last_rank": 3257,
        "player_name": "Louis Ingram",
        "rank": 1971,
        "rank_sort": 1974,
        "total": 2434
      },
      {
        "club_badge_src": "https://fantasy.premierleague.com/gcs/plfpl-production-adobe-approved/plfpl-production/630167/6dcc40b4-5d8e-4305-8873-101bb53f9fdb.png",
        "entry": 630167,
        "entry_name": "Sir Alex Murderson",
        "event_total": 33,
        "has_played": true,
        "id": 4258351,
        "last_rank": 503,
        "player_name": "J vB",
        "rank": 1971,
        "rank_sort": 1975,
        "total": 2434
      },
      {
        "club_badge_src": null,
        "entry": 785981,
        "entry_name": "Live and let Ndiaye",
        "event_total": 59,
        "has_played": true,
        "id": 5371463,
        "last_rank": 1961,
        "player_name": "Hannes F\u00f6lster",
        "rank": 1971,
        "rank_sort": 1976,
        "total": 2434
      },
      {
        "club_badge_src": null,
        "entry": 893056,
        "entry_name": "Sir-Saeed",
        "event_total": 70,
        "has_played": true,
        "id": 6134341,
        "last_rank": 3408,
        "player_name": "Saeed Ali",
        "rank": 1971,
        "rank_sort": 1977,
        "total": 2434
      },
      {
        "club_badge_src": null,
        "entry": 1059626,
        "entry_name": "Aboelghit",
        "event_total": 59,
        "has_played": true,
        "id": 7333354,
        "last_rank": 2009,
        "player_name": "Mahmoud Aboelghit",
        "rank": 1971,
        "rank_sort": 1978,
        "total": 2434
      },
      {
        "club_badge_src": null,
        "entry": 1062045,
        "entry_name": "Kamala 6.0",
        "event_total": 71,
        "has_played": true,
        "id": 7352076,
        "last_rank": 3520,
        "player_name": "Victor Soon",
        "rank": 1971,
        "rank_sort": 1979,
        "total": 2434
      },
      {
        "club_badge_src": null,
        "entry": 1090311,
        "entry_name": "This Is the One",
        "event_total": 85,
        "has_played": true,
        "id": 7551173,
        "last_rank": 6752,
        "player_name": "Philip McGrath",
        "rank": 1971,
        "rank_sort": 1980,
        "total": 2434
      },
      {
        "club_badge_src": null,
        "entry": 1150322,
        "entry_name": "Cobbys 11",
        "event_total": 55,
        "has_played": true,
        "id": 7975931,
        "last_rank": 1609,
        "player_name": "Mark Webb",
        "rank": 1971,
        "rank_sort": 1981,
        "total": 2434
      },
      {
        "club_badge_src": null,
        "entry": 1454395,
        "entry_name": "Npotk pattan",
        "event_total": 71,
        "has_played": true,
        "id": 10134241,
        "last_rank": 3562,
        "player_name": "Ansar Zoghlami",
        "rank": 1971,
        "rank_sort": 1982,
        "total": 2434
      },
      {
        "club_badge_src": null,
        "entry": 2151924,
        "entry_name": "Tovfefe",
        "event_total": 61,
        "has_played": true,
        "id": 15295935,
        "last_rank": 2189,
        "player_name": "TJ Avallone",
        "rank": 1971,
        "rank_sort": 1983,
        "total": 2434
      },
      {
        "club_badge_src": null,
        "entry": 2401237,
        "entry_name": "Taking the Mik",
        "event_total": 58,
        "has_played": true,
        "id": 17162257,
        "last_rank": 1880,
        "player_name": "Alex Deehan",
        "rank": 1971,
        "rank_sort": 1984,
        "total": 2434
      },
      {
        "club_badge_src": null,
        "entry": 2476226,
        "entry_name": "Haaland heros",
        "event_total": 60,
        "has_played": true,
        "id": 17716579,
        "last_rank": 2088,
        "player_name": "David Bradders",
        "rank": 1971,
        "rank_sort": 1985,
        "total": 2434
      },
      {
        "club_badge_src": null,
        "entry": 2779534,
        "entry_name": "rossiboys",
        "event_total": 65,
        "has_played": true,
        "id": 20286209,
        "last_rank": 2651,
        "player_name": "Jonatan Ros\u00e9n",
        "rank": 1971,
        "rank_sort": 1986,
        "total": 2434
      },
      {
        "club_badge_src": null,
        "entry": 3098023,
        "entry_name": "Bergli's Eleven",
        "event_total": 56,
        "has_played": true,
        "id": 22833757,
        "last_rank": 1668,
        "player_name": "Aleksander Bergli Eriksen",
        "rank": 1971,
        "rank_sort": 1987,
        "total": 2434
      },
      {
        "club_badge_src": null,
        "entry": 3340290,
        "entry_name": "Leny Euro",
        "event_total": 51,
        "has_played": true,
        "id": 24775089,
        "last_rank": 1065,
        "player_name": "Fiachra Lennon",
        "rank": 1971,
        "rank_sort": 1988,
        "total": 2434
      },
      {
        "club_badge_src": null,
        "entry": 3654357,
        "entry_name": "Grande FC",
        "event_total": 61,
        "has_played": true,
        "id": 27240714,
        "last_rank": 2174,
        "player_name": "Jarno Groote",
        "rank": 1971,
        "rank_sort": 1989,
        "total": 2434
      },
      {
        "club_badge_src": null,
        "entry": 3773037,
        "entry_name": "\u010cuje Dop",
        "event_total": 55,
        "has_played": true,
        "id": 28171876,
        "last_rank": 1601,
        "player_name": "Antonio Jurjevic",
        "rank": 1971,
        "rank_sort": 1990,
        "total": 2434
      },
      {
        "club_badge_src": null,
        "entry": 5007360,
        "entry_name": "Net Six and Chill",
        "event_total": 69,
        "has_played": true,
        "id": 38666614,
        "last_rank": 3237,
        "player_name": "Thomas Croston",
        "rank": 1971,
        "rank_sort": 1991,
        "total": 2434
      },
      {
        "club_badge_src": null,
        "entry": 5467383,
        "entry_name": "SBL FC",
        "event_total": 61,
        "has_played": true,
        "id": 42552648,
        "last_rank": 2189,
        "player_name": "Saleh Binladin",
        "rank": 1971,
        "rank_sort": 1992,
        "total": 2434
      },
      {
        "club_badge_src": null,
        "entry": 5830889,
        "entry_name": "Va Va Voom",
        "event_total": 57,
        "has_played": true,
        "id": 45766250,
        "last_rank": 1773,
        "player_name": "Kallum Baker",
        "rank": 1971,
        "rank_sort": 1993,
        "total": 2434
      },
      {
        "club_badge_src": null,
        "entry": 6157832,
        "entry_name": "Abdo",
        "event_total": 51,
        "has_played": true,
        "id": 48680548,
        "last_rank": 1302,
        "player_name": "abdou La",
        "rank": 1971,
        "rank_sort": 1994,
        "total": 2434
      },
      {
        "club_badge_src": null,
        "entry": 6889156,
        "entry_name": "Auto pick",
        "event_total": 61,
        "has_played": true,
        "id": 55213265,
        "last_rank": 2189,
        "player_name": "David Furze",
        "rank": 1971,
        "rank_sort": 1995,
        "total": 2434
      },
      {
        "club_badge_src": "https://fantasy.premierleague.com/gcs/plfpl-production-adobe-approved/plfpl-production/7302147/a1258339-712d-4e20-9163-870c7bff7d4b.png",
        "entry": 7302147,
        "entry_name": "Scholes' Law",
        "event_total": 72,
        "has_played": true,
        "id": 59096273,
        "last_rank": 3699,
        "player_name": "Yashwardhan Aeren",
        "rank": 1971,
        "rank_sort": 1996,
        "total": 2434
      },
      {
        "club_badge_src": null,
        "entry": 8326145,
        "entry_name": "The Averys",
        "event_total": 68,
        "has_played": true,
        "id": 68977953,
        "last_rank": 3103,
        "player_name": "scott maclean",
        "rank": 1971,
        "rank_sort": 1997,
        "total": 2434
      },
      {
        "club_badge_src": null,
        "entry": 8697866,
        "entry_name": "Once Red, Always Red",
        "event_total": 56,
        "has_played": true,
        "id": 72558286,
        "last_rank": 1668,
        "player_name": "Qian Cheng",
        "rank": 1971,
        "rank_sort": 1998,
        "total": 2434
      },
      {
        "club_badge_src": null,
        "entry": 9434060,
        "entry_name": "HiBa",
        "event_total": 39,
        "has_played": true,
        "id": 79698774,
        "last_rank": 710,
        "player_name": "Krb Ultra",
        "rank": 1971,
        "rank_sort": 1999,
        "total": 2434
      },
      {
        "club_badge_src": "https://fantasy.premierleague.com/gcs/plfpl-production-adobe-approved/plfpl-production/323/5426344c-a17a-4a06-8852-e720e020a4be.png",
        "entry": 323,
        "entry_name": "Bobb's Your Uncle",
        "event_total": 54,
        "has_played": true,
        "id": 1784,
        "last_rank": 1510,
        "player_name": "Louie Easton",
        "rank": 2000,
        "rank_sort": 2000,
        "total": 2434
      }
    ]
  }
}