{
  "last_updated_data": "2026-05-24T23:28:17Z",
  "league": {
    "admin_entry": null,
    "closed": false,
    "code_privacy": "p",
    "created": "2025-07-20T23:14:33.933835Z",
    "cup_league": 2815434,
    "has_cup": true,
    "id": 314,
    "league_type": "s",
    "max_entries": null,
    "name": "Overall",
    "rank": null,
    "scoring": "c",
    "start_event": 1
  },
  "new_entries": {
    "has_next": false,
    "page": 1,
    "results": []
  },
  "standings": {
    "has_next": true,
    "page": 811,
    "results": [
      {
        "club_badge_src": null,
        "entry": 149599,
        "entry_name": "CR700 Kilos",
        "event_total": 32,
        "has_played": true,
        "id": 980911,
        "last_rank": 17150,
        "player_name": "Gamu Marashanye",
        "rank": 40485,
        "rank_sort": 40501,
        "total": 2359
      },
      {
        "club_badge_src": null,
        "entry": 181590,
        "entry_name": "Team Pav 838043",
        "event_total": 71,
        "has_played": true,
        "id": 1198319,
        "last_rank": 55311,
        "player_name": "Pav Randhawa",
        "rank": 40485,
        "rank_sort": 40502,
        "total": 2359
      },
      {
        "club_badge_src": null,
        "entry": 200135,
        "entry_name": "Lewis-Saka BOMBA",
        "event_total": 59,
        "has_played": true,
        "id": 1328473,
        "last_rank": 43342,
        "player_name": "Patrik Nygaard",
        "rank": 40485,
        "rank_sort": 40503,
        "total": 2359
      },
      {
        "club_badge_src": null,
        "entry": 225110,
        "entry_name": "FC Bastu",
        "event_total": 65,
        "has_played": true,
        "id": 1497487,
        "last_rank": 52357,
        "player_name": "Lauri Wesander",
        "rank": 40485,
        "rank_sort": 40504,
        "total": 2359
      },
      {
        "club_badge_src": null,
        "entry": 235070,
        "entry_name": "Reece's set-pieces",
        "event_total": 67,
        "has_played": true,
        "id": 1564128,
        "last_rank": 55014,
        "player_name": "Aidan Granville",
        "rank": 40485,
        "rank_sort": 40505,
        "total": 2359
      },
      {
        "club_badge_src": null,
        "entry": 255847,
        "entry_name": "Die Mannschaft",
        "event_total": 52,
        "has_played": true,
        "id": 1701710,
        "last_rank": 30060,
        "player_name": "Vetle Olsen",
        "rank": 40485,
        "rank_sort": 40506,
        "total": 2359
      },
      {
        "club_badge_src": null,
        "entry": 389238,
        "entry_name": "Dentuzeiro",
        "event_total": 54,
        "has_played": true,
        "id": 2611031,
        "last_rank": 32190,
        "player_name": "Daniel Cordeiro",
        "rank": 40485,
        "rank_sort": 40507,
        "total": 2359
      },
      {
        "club_badge_src": null,
        "entry": 392543,
        "entry_name": "Mancho",
        "event_total": 67,
        "has_played": true,
        "id": 2632854,
        "last_rank": 55514,
        "player_name": "Manar Ali",
        "rank": 40485,
        "rank_sort": 40508,
        "total": 2359
      },
      {
        "club_badge_src": null,
        "entry": 422945,
        "entry_name": "The VAR-y Best",
        "event_total": 67,
        "has_played": true,
        "id": 2834251,
        "last_rank": 55014,
        "player_name": "Stephen Coffey",
        "rank": 40485,
        "rank_sort": 40509,
        "total": 2359
      },
      {
        "club_badge_src": null,
        "entry": 430633,
        "entry_name": "Matterpool",
        "event_total": 72,
        "has_played": true,
        "id": 2888197,
        "last_rank": 64005,
        "player_name": "Matthew Eakins",
        "rank": 40485,
        "rank_sort": 40510,
        "total": 2359
      },
      {
        "club_badge_src": null,
        "entry": 467520,
        "entry_name": "ABDULRAHMAN OTHMAN",
        "event_total": 52,
        "has_played": true,
        "id": 3137303,
        "last_rank": 30060,
        "player_name": "Free Palestine",
        "rank": 40485,
        "rank_sort": 40511,
        "total": 2359
      },
      {
        "club_badge_src": null,
        "entry": 546836,
        "entry_name": "SandeFC",
        "event_total": 51,
        "has_played": true,
        "id": 3680146,
        "last_rank": 29071,
        "player_name": "Stig Jone Sande",
        "rank": 40485,
        "rank_sort": 40512,
        "total": 2359
      },
      {
        "club_badge_src": "https://fantasy.premierleague.com/gcs/plfpl-production-adobe-approved/plfpl-production/569527/0c13a1bd-2436-4c26-9e61-a0e6fcf89a46.png",
        "entry": 569527,
        "entry_name": "mosalahdaar - *20* -",
        "event_total": 51,
        "has_played": true,
        "id": 3833197,
        "last_rank": 29071,
        "player_name": "Faham Rafiq",
        "rank": 40485,
        "rank_sort": 40513,
        "total": 2359
      },
      {
        "club_badge_src": null,
        "entry": 570121,
        "entry_name": "AAthletico Madras",
        "event_total": 59,
        "has_played": true,
        "id": 3837122,
        "last_rank": 38016,
        "player_name": "alastair ash",
        "rank": 40485,
        "rank_sort": 40514,
        "total": 2359
      },
      {
        "club_badge_src": null,
        "entry": 576387,
        "entry_name": "Victor Moses Lawn",
        "event_total": 59,
        "has_played": true,
        "id": 3878550,
        "last_rank": 38016,
        "player_name": "Bradley Gauntlett",
        "rank": 40485,
        "rank_sort": 40515,
        "total": 2359
      },
      {
        "club_badge_src": null,
        "entry": 578368,
        "entry_name": "kherbt Selm FC",
        "event_total": 65,
        "has_played": true,
        "id": 3891659,
        "last_rank": 51984,
        "player_name": "Jamil Cherri",
        "rank": 40485,
        "rank_sort": 40516,
        "total": 2359
      },
      {
        "club_badge_src": "https://fantasy.premierleague.com/gcs/plfpl-production-adobe-approved/plfpl-production/614080/9aa2d0b3-1360-4e58-b59b-d0a6da28d9d3.png",
        "entry": 614080,
        "entry_name": "Kinder Mbeumo",
        "event_total": 49,
        "has_played": true,
        "id": 4149396,
        "last_rank": 27203,
        "player_name": "Geoffrey Britton",
        "rank": 40485,
        "rank_sort": 40517,
        "total": 2359
      },
      {
        "club_badge_src": "https://fantasy.premierleague.com/gcs/plfpl-production-adobe-approved/plfpl-production/621665/22e2757d-2c11-49ea-a854-94dd7d3c712d.png",
        "entry": 621665,
        "entry_name": "lawizyfc",
        "event_total": 68,
        "has_played": true,
        "id": 4201179,
        "last_rank": 57001,
        "player_name": "Ajo Idris",
        "rank": 40485,
        "rank_sort": 40518,
        "total": 2359
      },
      {
        "club_badge_src": null,
        "entry": 634286,
        "entry_name": "Expensive Sauce!",
        "event_total": 58,
        "has_played": true,
        "id": 4286566,
        "last_rank": 41967,
        "player_name": "Kevin Baber",
        "rank": 40485,
        "rank_sort": 40519,
        "total": 2359
      },
      {
        "club_badge_src": null,
        "entry": 648067,
        "entry_name": "Hedgehog Rovers",
        "event_total": 65,
        "has_played": true,
        "id": 4379802,
        "last_rank": 52357,
        "player_name": "Paul Anderson",
        "rank": 40485,
        "rank_sort": 40520,
        "total": 2359
      },
      {
        "club_badge_src": null,
        "entry": 674346,
        "entry_name": "Aston La Vista Baby",
        "event_total": 66,
        "has_played": true,
        "id": 4561902,
        "last_rank": 53837,
        "player_name": "Andrew Medlicott",
        "rank": 40485,
        "rank_sort": 40521,
        "total": 2359
      },
      {
        "club_badge_src": "https://fantasy.premierleague.com/gcs/plfpl-production-adobe-approved/plfpl-production/700014/c04a133a-82ee-4df2-8ec9-c503bbb6bc04.png",
        "entry": 700014,
        "entry_name": "Reillys Raiders",
        "event_total": 71,
        "has_played": true,
        "id": 4742326,
        "last_rank": 55311,
        "player_name": "Gavin Reilly",
        "rank": 40485,
        "rank_sort": 40522,
        "total": 2359
      },
      {
        "club_badge_src": null,
        "entry": 750302,
        "entry_name": "40's & False 9's",
        "event_total": 69,
        "has_played": true,
        "id": 5105090,
        "last_rank": 58071,
        "player_name": "Toby Hufhand",
        "rank": 40485,
        "rank_sort": 40523,
        "total": 2359
      },
      {
        "club_badge_src": null,
        "entry": 755191,
        "entry_name": "Kinder Mbeumo",
        "event_total": 67,
        "has_played": true,
        "id": 5141300,
        "last_rank": 55659,
        "player_name": "Nathan Witter",
        "rank": 40485,
        "rank_sort": 40524,
        "total": 2359
      },
      {
        "club_badge_src": "https://fantasy.premierleague.com/gcs/plfpl-production-adobe-approved/plfpl-production/761793/52d0e34b-cee2-4bca-a3f8-0339f61adb9e.png",
        "entry": 761793,
        "entry_name": "Pique Blinders",
        "event_total": 49,
        "has_played": true,
        "id": 5194738,
        "last_rank": 31236,
        "player_name": "Tristan Peck",
        "rank": 40485,
        "rank_sort": 40525,
        "total": 2359
      },
      {
        "club_badge_src": null,
        "entry": 764176,
        "entry_name": "Wirtz Team Ever",
        "event_total": 57,
        "has_played": true,
        "id": 5211660,
        "last_rank": 40647,
        "player_name": "Mike Bickerdike",
        "rank": 40485,
        "rank_sort": 40526,
        "total": 2359
      },
      {
        "club_badge_src": null,
        "entry": 768359,
        "entry_name": "FPL FC",
        "event_total": 75,
        "has_played": true,
        "id": 5240678,
        "last_rank": 69641,
        "player_name": "Daniel McShane",
        "rank": 40485,
        "rank_sort": 40527,
        "total": 2359
      },
      {
        "club_badge_src": "https://fantasy.premierleague.com/gcs/plfpl-production-adobe-approved/plfpl-production/803175/a748c73c-fcc9-4ff3-9be3-6ea6d70ef8e0.png",
        "entry": 803175,
        "entry_name": "Orifiss",
        "event_total": 54,
        "has_played": true,
        "id": 5498040,
        "last_rank": 36963,
        "player_name": "Kyle Humphries",
        "rank": 40485,
        "rank_sort": 40528,
        "total": 2359
      },
      {
        "club_badge_src": null,
        "entry": 824165,
        "entry_name": "Bollerups Klubhus",
        "event_total": 49,
        "has_played": true,
        "id": 5644589,
        "last_rank": 31236,
        "player_name": "Markus Bollerup",
        "rank": 40485,
        "rank_sort": 40529,
        "total": 2359
      },
      {
        "club_badge_src": null,
        "entry": 848141,
        "entry_name": "Wissapon A Sarr",
        "event_total": 72,
        "has_played": true,
        "id": 5812857,
        "last_rank": 56708,
        "player_name": "Matthew Gentle",
        "rank": 40485,
        "rank_sort": 40530,
        "total": 2359
      },
      {
        "club_badge_src": null,
        "entry": 861415,
        "entry_name": "\u4e0b\u4e00\u7ad9\uff1a\u732a\u809dsomething",
        "event_total": 77,
        "has_played": true,
        "id": 5905347,
        "last_rank": 65796,
        "player_name": "\u4f60\u7684\u6797\u9ec4 -\ufe0f",
        "rank": 40485,
        "rank_sort": 40531,
        "total": 2359
      },
      {
        "club_badge_src": null,
        "entry": 925882,
        "entry_name": "Spartak Rossco",
        "event_total": 64,
        "has_played": true,
        "id": 6369686,
        "last_rank": 50468,
        "player_name": "Ross Paterson",
        "rank": 40485,
        "rank_sort": 40532,
        "total": 2359
      },
      {
        "club_badge_src": null,
        "entry": 942879,
        "entry_name": "Palmergeddon",
        "event_total": 68,
        "has_played": true,
        "id": 6493923,
        "last_rank": 56369,
        "player_name": "Charlie Aldred",
        "rank": 40485,
        "rank_sort": 40533,
        "total": 2359
      },
      {
        "club_badge_src": null,
        "entry": 997689,
        "entry_name": "\u0627\u0644\u0645\u0644\u0643\u0647 \u0632\u0648\u064a\u0627",
        "event_total": 55,
        "has_played": true,
        "id": 6892469,
        "last_rank": 33332,
        "player_name": "fpl ehab24-25",
        "rank": 40485,
        "rank_sort": 40534,
        "total": 2359
      },
      {
        "club_badge_src": null,
        "entry": 1019137,
        "entry_name": "Garden of  Eden",
        "event_total": 59,
        "has_played": true,
        "id": 7050744,
        "last_rank": 43342,
        "player_name": "alex byrne",
        "rank": 40485,
        "rank_sort": 40535,
        "total": 2359
      },
      {
        "club_badge_src": null,
        "entry": 1023798,
        "entry_name": "Waj",
        "event_total": 56,
        "has_played": true,
        "id": 7083207,
        "last_rank": 39246,
        "player_name": "Wajeeh Dmg",
        "rank": 40485,
        "rank_sort": 40536,
        "total": 2359
      },
      {
        "club_badge_src": null,
        "entry": 1028063,
        "entry_name": "Kepa Arrizabangla",
        "event_total": 59,
        "has_played": true,
        "id": 7112987,
        "last_rank": 43168,
        "player_name": "P Saktivel",
        "rank": 40485,
        "rank_sort": 40537,
        "total": 2359
      },
      {
        "club_badge_src": null,
        "entry": 1037216,
        "entry_name": "Saints PTL",
        "event_total": 61,
        "has_played": true,
        "id": 7177692,
        "last_rank": 46106,
        "player_name": "James Pengelly",
        "rank": 40485,
        "rank_sort": 40538,
        "total": 2359
      },
      {
        "club_badge_src": null,
        "entry": 1046614,
        "entry_name": "MCI",
        "event_total": 46,
        "has_played": true,
        "id": 7243333,
        "last_rank": 21159,
        "player_name": "anis family",
        "rank": 40485,
        "rank_sort": 40539,
        "total": 2359
      },
      {
        "club_badge_src": null,
        "entry": 1087434,
        "entry_name": "LM10",
        "event_total": 69,
        "has_played": true,
        "id": 7530910,
        "last_rank": 58911,
        "player_name": "Rakib Muhin",
        "rank": 40485,
        "rank_sort": 40540,
        "total": 2359
      },
      {
        "club_badge_src": "https://fantasy.premierleague.com/gcs/plfpl-production-adobe-approved/plfpl-production/1092039/b4506082-cd9c-4188-a4c8-b61eff49166b.png",
        "entry": 1092039,
        "entry_name": "StillNoKarius :(",
        "event_total": 76,
        "has_played": true,
        "id": 7563253,
        "last_rank": 71956,
        "player_name": "Lukas Hofer",
        "rank": 40485,
        "rank_sort": 40541,
        "total": 2359
      },
      {
        "club_badge_src": null,
        "entry": 1111026,
        "entry_name": "Uncle JJ",
        "event_total": 58,
        "has_played": true,
        "id": 7696079,
        "last_rank": 36831,
        "player_name": "Jonathan Ho",
        "rank": 40485,
        "rank_sort": 40542,
        "total": 2359
      },
      {
        "club_badge_src": null,
        "entry": 1127809,
        "entry_name": "Livajini Apostoli",
        "event_total": 48,
        "has_played": true,
        "id": 7816138,
        "last_rank": 30191,
        "player_name": "Nikola Dobrijevic",
        "rank": 40485,
        "rank_sort": 40543,
        "total": 2359
      },
      {
        "club_badge_src": null,
        "entry": 1230348,
        "entry_name": "Frankofile dr\u00f8mme",
        "event_total": 67,
        "has_played": true,
        "id": 8543197,
        "last_rank": 55514,
        "player_name": "Jens Kock",
        "rank": 40485,
        "rank_sort": 40544,
        "total": 2359
      },
      {
        "club_badge_src": null,
        "entry": 1263449,
        "entry_name": "Turkish de Ligt",
        "event_total": 48,
        "has_played": true,
        "id": 8778486,
        "last_rank": 30191,
        "player_name": "Errol Ibrahim",
        "rank": 40485,
        "rank_sort": 40545,
        "total": 2359
      },
      {
        "club_badge_src": null,
        "entry": 1284843,
        "entry_name": "Yoro Wissa Harry",
        "event_total": 75,
        "has_played": true,
        "id": 8927869,
        "last_rank": 69641,
        "player_name": "Dan Healey",
        "rank": 40485,
        "rank_sort": 40546,
        "total": 2359
      },
      {
        "club_badge_src": "https://fantasy.premierleague.com/gcs/plfpl-production-adobe-approved/plfpl-production/1304460/377d2884-deee-4832-973f-4ed4b58ddff7.png",
        "entry": 1304460,
        "entry_name": "Gooly's Gang",
        "event_total": 70,
        "has_played": true,
        "id": 9066501,
        "last_rank": 60462,
        "player_name": "Craig Gilhooly",
        "rank": 40485,
        "rank_sort": 40547,
        "total": 2359
      },
      {
        "club_badge_src": null,
        "entry": 1321534,
        "entry_name": "FC R\u00f8a",
        "event_total": 71,
        "has_played": true,
        "id": 9185963,
        "last_rank": 62429,
        "player_name": "Eirik Wraal",
        "rank": 40485,
        "rank_sort": 40548,
        "total": 2359
      },
      {
        "club_badge_src": null,
        "entry": 1346363,
        "entry_name": "Hanif United",
        "event_total": 59,
        "has_played": true,
        "id": 9360434,
        "last_rank": 43168,
        "player_name": "Dzaky Abdul Hanif",
        "rank": 40485,
        "rank_sort": 40549,
        "total": 2359
      },
      {
        "club_badge_src": null,
        "entry": 1485366,
        "entry_name": "100-gubbarna",
        "event_total": 65,
        "has_played": true,
        "id": 10358135,
        "last_rank": 52205,
        "player_name": "Vilgot Mattsson",
        "rank": 40485,
        "rank_sort": 40550,
        "total": 2359
      }
    ]
  }
}