{
  "last_updated_data": "2026-05-24T23:28:17Z",
  "league": {
    "admin_entry": null,
    "closed": false,
    "code_privacy": "p",
    "created": "2025-07-20T23:14:33.933835Z",
    "cup_league": 2815434,
    "has_cup": true,
    "id": 314,
    "league_type": "s",
    "max_entries": null,
    "name": "Overall",
    "rank": null,
    "scoring": "c",
    "start_event": 1
  },
  "new_entries": {
    "has_next": false,
    "page": 1,
    "results": []
  },
  "standings": {
    "has_next": true,
    "page": 1216,
    "results": [
      {
        "club_badge_src": null,
        "entry": 814472,
        "entry_name": "\u5348\u591c\u6c7d\u7b1b",
        "event_total": 63,
        "has_played": true,
        "id": 5577236,
        "last_rank": 72815,
        "player_name": "Jie Ceng",
        "rank": 60651,
        "rank_sort": 60751,
        "total": 2345
      },
      {
        "club_badge_src": null,
        "entry": 840367,
        "entry_name": "Red Devil NY",
        "event_total": 58,
        "has_played": true,
        "id": 5757756,
        "last_rank": 63201,
        "player_name": "jamie axford",
        "rank": 60651,
        "rank_sort": 60752,
        "total": 2345
      },
      {
        "club_badge_src": null,
        "entry": 869335,
        "entry_name": "TM Rovers",
        "event_total": 60,
        "has_played": true,
        "id": 5960011,
        "last_rank": 66738,
        "player_name": "Tommy McQueen",
        "rank": 60651,
        "rank_sort": 60753,
        "total": 2345
      },
      {
        "club_badge_src": null,
        "entry": 896876,
        "entry_name": "Golden Nuggets FC",
        "event_total": 66,
        "has_played": true,
        "id": 6161425,
        "last_rank": 79431,
        "player_name": "Hoang Nguyen",
        "rank": 60651,
        "rank_sort": 60754,
        "total": 2345
      },
      {
        "club_badge_src": null,
        "entry": 905804,
        "entry_name": "\u0627\u0644\u062b\u064f\u0646\u0627\u0626\u064a \u0627\u0644\u062d\u062f\u064a\u062b",
        "event_total": 65,
        "has_played": true,
        "id": 6225749,
        "last_rank": 77050,
        "player_name": "Ahmad Wahid",
        "rank": 60651,
        "rank_sort": 60755,
        "total": 2345
      },
      {
        "club_badge_src": "https://fantasy.premierleague.com/gcs/plfpl-production-adobe-approved/plfpl-production/916104/9ba60c09-a95d-4bc0-a94a-c9799cd24347.png",
        "entry": 916104,
        "entry_name": "Kanar\u010dki izpod Borla",
        "event_total": 46,
        "has_played": true,
        "id": 6299588,
        "last_rank": 43849,
        "player_name": "Nino Koletnik",
        "rank": 60651,
        "rank_sort": 60756,
        "total": 2345
      },
      {
        "club_badge_src": null,
        "entry": 926630,
        "entry_name": "Zippy FC",
        "event_total": 57,
        "has_played": true,
        "id": 6374901,
        "last_rank": 61950,
        "player_name": "Lee Champion",
        "rank": 60651,
        "rank_sort": 60757,
        "total": 2345
      },
      {
        "club_badge_src": null,
        "entry": 931163,
        "entry_name": "Show me the Man\u00e9",
        "event_total": 44,
        "has_played": true,
        "id": 6407251,
        "last_rank": 41162,
        "player_name": "Kieran Hedley-Carverhill",
        "rank": 60651,
        "rank_sort": 60758,
        "total": 2345
      },
      {
        "club_badge_src": "https://fantasy.premierleague.com/gcs/plfpl-production-adobe-approved/plfpl-production/937885/5d1404f6-2781-40c6-b96d-20c65ce5524b.png",
        "entry": 937885,
        "entry_name": "Thundergunder",
        "event_total": 45,
        "has_played": true,
        "id": 6455025,
        "last_rank": 42940,
        "player_name": "Petter Gundersen",
        "rank": 60651,
        "rank_sort": 60759,
        "total": 2345
      },
      {
        "club_badge_src": null,
        "entry": 939778,
        "entry_name": "Endo the Line",
        "event_total": 57,
        "has_played": true,
        "id": 6468239,
        "last_rank": 61258,
        "player_name": "Nicholas Bergius",
        "rank": 60651,
        "rank_sort": 60760,
        "total": 2345
      },
      {
        "club_badge_src": null,
        "entry": 956302,
        "entry_name": "Kinder Mbueno",
        "event_total": 47,
        "has_played": true,
        "id": 6589137,
        "last_rank": 45416,
        "player_name": "Jason Taylor",
        "rank": 60651,
        "rank_sort": 60761,
        "total": 2345
      },
      {
        "club_badge_src": null,
        "entry": 960715,
        "entry_name": "The Floor is Lavia",
        "event_total": 59,
        "has_played": true,
        "id": 6620355,
        "last_rank": 64777,
        "player_name": "Andrew Hogg",
        "rank": 60651,
        "rank_sort": 60762,
        "total": 2345
      },
      {
        "club_badge_src": null,
        "entry": 967092,
        "entry_name": "ThomasTheFrankEngine",
        "event_total": 56,
        "has_played": true,
        "id": 6665399,
        "last_rank": 59535,
        "player_name": "George de Noronha",
        "rank": 60651,
        "rank_sort": 60763,
        "total": 2345
      },
      {
        "club_badge_src": null,
        "entry": 977420,
        "entry_name": "Balotelli-Tubbies",
        "event_total": 52,
        "has_played": true,
        "id": 6738356,
        "last_rank": 41101,
        "player_name": "Aiden Le Saint",
        "rank": 60651,
        "rank_sort": 60764,
        "total": 2345
      },
      {
        "club_badge_src": null,
        "entry": 1135963,
        "entry_name": "Ekitike u and I know",
        "event_total": 45,
        "has_played": true,
        "id": 7874214,
        "last_rank": 42506,
        "player_name": "Alex Deakin",
        "rank": 60651,
        "rank_sort": 60765,
        "total": 2345
      },
      {
        "club_badge_src": null,
        "entry": 1153281,
        "entry_name": "Joshua's Starboys",
        "event_total": 47,
        "has_played": true,
        "id": 7996952,
        "last_rank": 45252,
        "player_name": "Joshua Lal",
        "rank": 60651,
        "rank_sort": 60766,
        "total": 2345
      },
      {
        "club_badge_src": null,
        "entry": 1164120,
        "entry_name": "Godfish23 FC",
        "event_total": 72,
        "has_played": true,
        "id": 8075544,
        "last_rank": 93052,
        "player_name": "Jake Kiddell",
        "rank": 60651,
        "rank_sort": 60767,
        "total": 2345
      },
      {
        "club_badge_src": "https://fantasy.premierleague.com/gcs/plfpl-production-adobe-approved/plfpl-production/1187246/1689e147-15b2-4fd5-8aa7-9ab3ff4d14f2.png",
        "entry": 1187246,
        "entry_name": "Rujisnik",
        "event_total": 56,
        "has_played": true,
        "id": 8237575,
        "last_rank": 59632,
        "player_name": "Djordje Djordjevic",
        "rank": 60651,
        "rank_sort": 60768,
        "total": 2345
      },
      {
        "club_badge_src": null,
        "entry": 1207074,
        "entry_name": "McNeil Deal",
        "event_total": 36,
        "has_played": true,
        "id": 8376961,
        "last_rank": 31620,
        "player_name": "Calum MacGregor",
        "rank": 60651,
        "rank_sort": 60769,
        "total": 2345
      },
      {
        "club_badge_src": null,
        "entry": 1219873,
        "entry_name": "Man city power",
        "event_total": 69,
        "has_played": true,
        "id": 8469312,
        "last_rank": 86304,
        "player_name": "HANEEF SHEKH",
        "rank": 60651,
        "rank_sort": 60770,
        "total": 2345
      },
      {
        "club_badge_src": null,
        "entry": 1224497,
        "entry_name": "Batang Pinoy FC",
        "event_total": 64,
        "has_played": true,
        "id": 8502098,
        "last_rank": 75139,
        "player_name": "Alexander Losbanes",
        "rank": 60651,
        "rank_sort": 60771,
        "total": 2345
      },
      {
        "club_badge_src": null,
        "entry": 1240678,
        "entry_name": "Le Zebre",
        "event_total": 41,
        "has_played": true,
        "id": 8616447,
        "last_rank": 37589,
        "player_name": "Mario Benic",
        "rank": 60651,
        "rank_sort": 60772,
        "total": 2345
      },
      {
        "club_badge_src": null,
        "entry": 1269976,
        "entry_name": "Never in Doughty",
        "event_total": 43,
        "has_played": true,
        "id": 8823805,
        "last_rank": 40036,
        "player_name": "Simon Smith",
        "rank": 60651,
        "rank_sort": 60773,
        "total": 2345
      },
      {
        "club_badge_src": null,
        "entry": 1290924,
        "entry_name": "Stranger Ings",
        "event_total": 65,
        "has_played": true,
        "id": 8970393,
        "last_rank": 77258,
        "player_name": "Gary Honda",
        "rank": 60651,
        "rank_sort": 60774,
        "total": 2345
      },
      {
        "club_badge_src": null,
        "entry": 1329955,
        "entry_name": "WirtzYet",
        "event_total": 60,
        "has_played": true,
        "id": 9244277,
        "last_rank": 66738,
        "player_name": "Luke Wilson",
        "rank": 60651,
        "rank_sort": 60775,
        "total": 2345
      },
      {
        "club_badge_src": null,
        "entry": 1340786,
        "entry_name": "\u00d8defans",
        "event_total": 45,
        "has_played": true,
        "id": 9321680,
        "last_rank": 42648,
        "player_name": "Anthony Mackey",
        "rank": 60651,
        "rank_sort": 60776,
        "total": 2345
      },
      {
        "club_badge_src": "https://fantasy.premierleague.com/gcs/plfpl-production-adobe-approved/plfpl-production/1344649/839a28bf-d9b7-4ea8-ace6-0837cfc47b75.png",
        "entry": 1344649,
        "entry_name": "Sir Thusalot",
        "event_total": 71,
        "has_played": true,
        "id": 9348702,
        "last_rank": 90625,
        "player_name": "Adam Naglik",
        "rank": 60651,
        "rank_sort": 60777,
        "total": 2345
      },
      {
        "club_badge_src": null,
        "entry": 1351885,
        "entry_name": "chicolito",
        "event_total": 45,
        "has_played": true,
        "id": 9398071,
        "last_rank": 42648,
        "player_name": "Katarina Hellner",
        "rank": 60651,
        "rank_sort": 60778,
        "total": 2345
      },
      {
        "club_badge_src": null,
        "entry": 1370172,
        "entry_name": "Wirtz Case Scenario",
        "event_total": 69,
        "has_played": true,
        "id": 9524455,
        "last_rank": 86054,
        "player_name": "Karam Singh",
        "rank": 60651,
        "rank_sort": 60779,
        "total": 2345
      },
      {
        "club_badge_src": null,
        "entry": 1386921,
        "entry_name": "Hosha!",
        "event_total": 53,
        "has_played": true,
        "id": 9646585,
        "last_rank": 54667,
        "player_name": "Kelvin Low",
        "rank": 60651,
        "rank_sort": 60780,
        "total": 2345
      },
      {
        "club_badge_src": null,
        "entry": 1440420,
        "entry_name": "Wokestone Invicta",
        "event_total": 63,
        "has_played": true,
        "id": 10037203,
        "last_rank": 73038,
        "player_name": "Ryan Taylor",
        "rank": 60651,
        "rank_sort": 60781,
        "total": 2345
      },
      {
        "club_badge_src": null,
        "entry": 1503091,
        "entry_name": "Mcginn Tonic FC",
        "event_total": 59,
        "has_played": true,
        "id": 10482620,
        "last_rank": 65163,
        "player_name": "Lars Dhooghe",
        "rank": 60651,
        "rank_sort": 60782,
        "total": 2345
      },
      {
        "club_badge_src": null,
        "entry": 1505961,
        "entry_name": "Taking The Mykolenko",
        "event_total": 72,
        "has_played": true,
        "id": 10502813,
        "last_rank": 93186,
        "player_name": "Gabriel Bohm",
        "rank": 60651,
        "rank_sort": 60783,
        "total": 2345
      },
      {
        "club_badge_src": "https://fantasy.premierleague.com/gcs/plfpl-production-adobe-approved/plfpl-production/1526952/ff74d04e-f64c-4e23-ae0b-86ce39f09e8c.png",
        "entry": 1526952,
        "entry_name": "Two Bissaka",
        "event_total": 41,
        "has_played": true,
        "id": 10650131,
        "last_rank": 37435,
        "player_name": "Shawn Chia Wei En",
        "rank": 60651,
        "rank_sort": 60784,
        "total": 2345
      },
      {
        "club_badge_src": null,
        "entry": 1550873,
        "entry_name": "Gregsta",
        "event_total": 71,
        "has_played": true,
        "id": 10828001,
        "last_rank": 91006,
        "player_name": "Gregsta Veale",
        "rank": 60651,
        "rank_sort": 60785,
        "total": 2345
      },
      {
        "club_badge_src": null,
        "entry": 1551065,
        "entry_name": "Beef Cherki",
        "event_total": 54,
        "has_played": true,
        "id": 10829422,
        "last_rank": 56708,
        "player_name": "Ricardo Cruz Farah",
        "rank": 60651,
        "rank_sort": 60786,
        "total": 2345
      },
      {
        "club_badge_src": null,
        "entry": 1552558,
        "entry_name": "Bacon San\u00e9",
        "event_total": 63,
        "has_played": true,
        "id": 10840281,
        "last_rank": 64830,
        "player_name": "Sophie Rodger",
        "rank": 60651,
        "rank_sort": 60787,
        "total": 2345
      },
      {
        "club_badge_src": null,
        "entry": 1561533,
        "entry_name": "Bryan Munich",
        "event_total": 43,
        "has_played": true,
        "id": 10906959,
        "last_rank": 40036,
        "player_name": "Stephen Thornton",
        "rank": 60651,
        "rank_sort": 60788,
        "total": 2345
      },
      {
        "club_badge_src": "https://fantasy.premierleague.com/gcs/plfpl-production-adobe-approved/plfpl-production/1578016/3bcdf792-7ffd-42a9-ae5b-11f0c9b94f31.png",
        "entry": 1578016,
        "entry_name": "Perfect View FC",
        "event_total": 59,
        "has_played": true,
        "id": 11026761,
        "last_rank": 64943,
        "player_name": "Espen FauskoJohansen",
        "rank": 60651,
        "rank_sort": 60789,
        "total": 2345
      },
      {
        "club_badge_src": null,
        "entry": 1581838,
        "entry_name": "yanited",
        "event_total": 47,
        "has_played": true,
        "id": 11054382,
        "last_rank": 45416,
        "player_name": "Connor Bower",
        "rank": 60651,
        "rank_sort": 60790,
        "total": 2345
      },
      {
        "club_badge_src": null,
        "entry": 1627384,
        "entry_name": "SlothySeconds",
        "event_total": 67,
        "has_played": true,
        "id": 11390772,
        "last_rank": 81420,
        "player_name": "Aidan McGovern",
        "rank": 60651,
        "rank_sort": 60791,
        "total": 2345
      },
      {
        "club_badge_src": null,
        "entry": 1658631,
        "entry_name": "Speedy All Starz",
        "event_total": 78,
        "has_played": true,
        "id": 11612472,
        "last_rank": 108959,
        "player_name": "Quinton Pachonic",
        "rank": 60651,
        "rank_sort": 60792,
        "total": 2345
      },
      {
        "club_badge_src": null,
        "entry": 1661760,
        "entry_name": "HaCunha Matata",
        "event_total": 61,
        "has_played": true,
        "id": 11634321,
        "last_rank": 68748,
        "player_name": "Jake Hall",
        "rank": 60651,
        "rank_sort": 60793,
        "total": 2345
      },
      {
        "club_badge_src": null,
        "entry": 1664722,
        "entry_name": "I'm not Takai",
        "event_total": 60,
        "has_played": true,
        "id": 11655319,
        "last_rank": 66848,
        "player_name": "Eskil Wilgodt",
        "rank": 60651,
        "rank_sort": 60794,
        "total": 2345
      },
      {
        "club_badge_src": null,
        "entry": 1701220,
        "entry_name": "Frankly Kudus",
        "event_total": 74,
        "has_played": true,
        "id": 11916705,
        "last_rank": 98896,
        "player_name": "DONALD BAREH",
        "rank": 60651,
        "rank_sort": 60795,
        "total": 2345
      },
      {
        "club_badge_src": null,
        "entry": 1722866,
        "entry_name": "Livin' Saliba Loca",
        "event_total": 70,
        "has_played": true,
        "id": 12077659,
        "last_rank": 88594,
        "player_name": "Ian Simons",
        "rank": 60651,
        "rank_sort": 60796,
        "total": 2345
      },
      {
        "club_badge_src": null,
        "entry": 1740247,
        "entry_name": "Mango Lassi",
        "event_total": 66,
        "has_played": true,
        "id": 12209744,
        "last_rank": 79190,
        "player_name": "Zaid Khan",
        "rank": 60651,
        "rank_sort": 60797,
        "total": 2345
      },
      {
        "club_badge_src": null,
        "entry": 1754790,
        "entry_name": "The Likely Lads",
        "event_total": 58,
        "has_played": true,
        "id": 12319306,
        "last_rank": 63390,
        "player_name": "Andreas Dipo-Zimmermann",
        "rank": 60651,
        "rank_sort": 60798,
        "total": 2345
      },
      {
        "club_badge_src": null,
        "entry": 1783842,
        "entry_name": "Gullit the dogs out",
        "event_total": 60,
        "has_played": true,
        "id": 12533127,
        "last_rank": 66848,
        "player_name": "Ewan Barnet",
        "rank": 60651,
        "rank_sort": 60799,
        "total": 2345
      },
      {
        "club_badge_src": null,
        "entry": 1849526,
        "entry_name": "Juninho's guns",
        "event_total": 45,
        "has_played": true,
        "id": 13014447,
        "last_rank": 42648,
        "player_name": "Filip Jun\u00e1\u0161ek",
        "rank": 60651,
        "rank_sort": 60800,
        "total": 2345
      }
    ]
  }
}