{
  "last_updated_data": "2026-05-24T23:28:17Z",
  "league": {
    "admin_entry": null,
    "closed": false,
    "code_privacy": "p",
    "created": "2025-07-20T23:14:33.933835Z",
    "cup_league": 2815434,
    "has_cup": true,
    "id": 314,
    "league_type": "s",
    "max_entries": null,
    "name": "Overall",
    "rank": null,
    "scoring": "c",
    "start_event": 1
  },
  "new_entries": {
    "has_next": false,
    "page": 1,
    "results": []
  },
  "standings": {
    "has_next": true,
    "page": 854,
    "results": [
      {
        "club_badge_src": null,
        "entry": 54853,
        "entry_name": "ManChestHair United",
        "event_total": 64,
        "has_played": true,
        "id": 353020,
        "last_rank": 53345,
        "player_name": "Jo Lorentzen",
        "rank": 42632,
        "rank_sort": 42651,
        "total": 2357
      },
      {
        "club_badge_src": null,
        "entry": 57460,
        "entry_name": "Steamed Hamez",
        "event_total": 62,
        "has_played": true,
        "id": 370157,
        "last_rank": 50199,
        "player_name": "James Edgar",
        "rank": 42632,
        "rank_sort": 42652,
        "total": 2357
      },
      {
        "club_badge_src": null,
        "entry": 59206,
        "entry_name": "KalousHeroes",
        "event_total": 63,
        "has_played": true,
        "id": 381301,
        "last_rank": 51720,
        "player_name": "constantin wolf",
        "rank": 42632,
        "rank_sort": 42653,
        "total": 2357
      },
      {
        "club_badge_src": null,
        "entry": 74322,
        "entry_name": "Gergen Press",
        "event_total": 53,
        "has_played": true,
        "id": 483076,
        "last_rank": 32879,
        "player_name": "Luqman Sylla",
        "rank": 42632,
        "rank_sort": 42654,
        "total": 2357
      },
      {
        "club_badge_src": null,
        "entry": 80661,
        "entry_name": "Ben's Barmy Army",
        "event_total": 65,
        "has_played": true,
        "id": 524759,
        "last_rank": 48197,
        "player_name": "Ben Ingram",
        "rank": 42632,
        "rank_sort": 42655,
        "total": 2357
      },
      {
        "club_badge_src": null,
        "entry": 85342,
        "entry_name": "\u2191You Guys Are Good\u2191",
        "event_total": 62,
        "has_played": true,
        "id": 555785,
        "last_rank": 49880,
        "player_name": "Scott Smerdon",
        "rank": 42632,
        "rank_sort": 42656,
        "total": 2357
      },
      {
        "club_badge_src": "https://fantasy.premierleague.com/gcs/plfpl-production-adobe-approved/plfpl-production/86705/5e589cb8-6235-46df-9b6e-bdf5cb0897fe.png",
        "entry": 86705,
        "entry_name": "HamBakka",
        "event_total": 56,
        "has_played": true,
        "id": 565143,
        "last_rank": 41617,
        "player_name": "Abdelrahman Ashraf",
        "rank": 42632,
        "rank_sort": 42657,
        "total": 2357
      },
      {
        "club_badge_src": null,
        "entry": 88605,
        "entry_name": "Bisons FC",
        "event_total": 59,
        "has_played": true,
        "id": 578228,
        "last_rank": 45252,
        "player_name": "Jaak Gerbich",
        "rank": 42632,
        "rank_sort": 42658,
        "total": 2357
      },
      {
        "club_badge_src": "https://fantasy.premierleague.com/gcs/plfpl-production-adobe-approved/plfpl-production/108583/bbb10b83-34a1-426c-966b-20ccb636f115.png",
        "entry": 108583,
        "entry_name": "Owls",
        "event_total": 69,
        "has_played": true,
        "id": 707903,
        "last_rank": 61950,
        "player_name": "Anh Qu\u00e2n L\u00ea V\u0103n",
        "rank": 42632,
        "rank_sort": 42659,
        "total": 2357
      },
      {
        "club_badge_src": null,
        "entry": 112092,
        "entry_name": "FPL Beard",
        "event_total": 48,
        "has_played": true,
        "id": 730812,
        "last_rank": 27770,
        "player_name": "Ollie GOAT",
        "rank": 42632,
        "rank_sort": 42660,
        "total": 2357
      },
      {
        "club_badge_src": null,
        "entry": 117232,
        "entry_name": "Give it to Big Sam",
        "event_total": 51,
        "has_played": true,
        "id": 765239,
        "last_rank": 35424,
        "player_name": "Alan White",
        "rank": 42632,
        "rank_sort": 42661,
        "total": 2357
      },
      {
        "club_badge_src": null,
        "entry": 122771,
        "entry_name": "Manbuemo United",
        "event_total": 61,
        "has_played": true,
        "id": 800875,
        "last_rank": 48642,
        "player_name": "asri suhaili",
        "rank": 42632,
        "rank_sort": 42662,
        "total": 2357
      },
      {
        "club_badge_src": null,
        "entry": 127266,
        "entry_name": "Super Leeds",
        "event_total": 66,
        "has_played": true,
        "id": 829709,
        "last_rank": 49880,
        "player_name": "Tommy Gausvik",
        "rank": 42632,
        "rank_sort": 42663,
        "total": 2357
      },
      {
        "club_badge_src": null,
        "entry": 135185,
        "entry_name": "Almond",
        "event_total": 70,
        "has_played": true,
        "id": 880292,
        "last_rank": 63390,
        "player_name": "Carl almond",
        "rank": 42632,
        "rank_sort": 42664,
        "total": 2357
      },
      {
        "club_badge_src": null,
        "entry": 140055,
        "entry_name": "Sele\u00e7\u00e3o Gunner",
        "event_total": 65,
        "has_played": true,
        "id": 914418,
        "last_rank": 55014,
        "player_name": "Jaseem BK",
        "rank": 42632,
        "rank_sort": 42665,
        "total": 2357
      },
      {
        "club_badge_src": null,
        "entry": 165580,
        "entry_name": "WrobsonTeam",
        "event_total": 62,
        "has_played": true,
        "id": 1093319,
        "last_rank": 44048,
        "player_name": "Bartlomiej Wr\u00f3blewski",
        "rank": 42632,
        "rank_sort": 42666,
        "total": 2357
      },
      {
        "club_badge_src": null,
        "entry": 182500,
        "entry_name": "Blyatiful",
        "event_total": 67,
        "has_played": true,
        "id": 1204367,
        "last_rank": 57857,
        "player_name": "Dejan Jovanovi\u0107",
        "rank": 42632,
        "rank_sort": 42667,
        "total": 2357
      },
      {
        "club_badge_src": null,
        "entry": 196576,
        "entry_name": "Itchyballs FC",
        "event_total": 57,
        "has_played": true,
        "id": 1303998,
        "last_rank": 37589,
        "player_name": "Pranav Batra",
        "rank": 42632,
        "rank_sort": 42668,
        "total": 2357
      },
      {
        "club_badge_src": "https://fantasy.premierleague.com/gcs/plfpl-production-adobe-approved/plfpl-production/200290/0db804cd-3b3d-4847-92c0-a6125c1c5c4d.png",
        "entry": 200290,
        "entry_name": "Arne Slot Machine",
        "event_total": 55,
        "has_played": true,
        "id": 1329579,
        "last_rank": 40297,
        "player_name": "Charlie Eadle",
        "rank": 42632,
        "rank_sort": 42669,
        "total": 2357
      },
      {
        "club_badge_src": null,
        "entry": 212577,
        "entry_name": "champboy 18",
        "event_total": 50,
        "has_played": true,
        "id": 1414116,
        "last_rank": 34293,
        "player_name": "Tenzin Kalden",
        "rank": 42632,
        "rank_sort": 42670,
        "total": 2357
      },
      {
        "club_badge_src": "https://fantasy.premierleague.com/gcs/plfpl-production-adobe-approved/plfpl-production/227270/26fbca20-c4c9-44e9-ac31-2a0088768781.png",
        "entry": 227270,
        "entry_name": "Pure Clever Name Utd",
        "event_total": 65,
        "has_played": true,
        "id": 1511764,
        "last_rank": 48197,
        "player_name": "Aidan Kelly",
        "rank": 42632,
        "rank_sort": 42671,
        "total": 2357
      },
      {
        "club_badge_src": null,
        "entry": 265810,
        "entry_name": "Let's go boys",
        "event_total": 62,
        "has_played": true,
        "id": 1768087,
        "last_rank": 43849,
        "player_name": "Yassir B",
        "rank": 42632,
        "rank_sort": 42672,
        "total": 2357
      },
      {
        "club_badge_src": "https://fantasy.premierleague.com/gcs/plfpl-production-adobe-approved/plfpl-production/292637/3c49555b-d881-4d69-a947-337a444af68d.png",
        "entry": 292637,
        "entry_name": "that ain't enough",
        "event_total": 74,
        "has_played": true,
        "id": 1952809,
        "last_rank": 71386,
        "player_name": "Hussam J",
        "rank": 42632,
        "rank_sort": 42673,
        "total": 2357
      },
      {
        "club_badge_src": null,
        "entry": 302691,
        "entry_name": "Champagne superKova",
        "event_total": 64,
        "has_played": true,
        "id": 2025783,
        "last_rank": 52759,
        "player_name": "Hannes Bern\u00e9li",
        "rank": 42632,
        "rank_sort": 42674,
        "total": 2357
      },
      {
        "club_badge_src": null,
        "entry": 328019,
        "entry_name": "Kroos Kontrol",
        "event_total": 27,
        "has_played": true,
        "id": 2197562,
        "last_rank": 12705,
        "player_name": "Arman Darbar",
        "rank": 42632,
        "rank_sort": 42675,
        "total": 2357
      },
      {
        "club_badge_src": null,
        "entry": 331053,
        "entry_name": "VIP FC",
        "event_total": 47,
        "has_played": true,
        "id": 2217428,
        "last_rank": 30957,
        "player_name": "Adam Farid",
        "rank": 42632,
        "rank_sort": 42676,
        "total": 2357
      },
      {
        "club_badge_src": null,
        "entry": 346808,
        "entry_name": "Slots Right In",
        "event_total": 61,
        "has_played": true,
        "id": 2321395,
        "last_rank": 48642,
        "player_name": "Richard Lawson",
        "rank": 42632,
        "rank_sort": 42677,
        "total": 2357
      },
      {
        "club_badge_src": null,
        "entry": 357826,
        "entry_name": "Ahmed Soler",
        "event_total": 68,
        "has_played": true,
        "id": 2394600,
        "last_rank": 53023,
        "player_name": "Ahmed Enzi",
        "rank": 42632,
        "rank_sort": 42678,
        "total": 2357
      },
      {
        "club_badge_src": null,
        "entry": 404708,
        "entry_name": "Hevntokt",
        "event_total": 63,
        "has_played": true,
        "id": 2713565,
        "last_rank": 45416,
        "player_name": "Eirik Barosen Antonsen",
        "rank": 42632,
        "rank_sort": 42679,
        "total": 2357
      },
      {
        "club_badge_src": "https://fantasy.premierleague.com/gcs/plfpl-production-adobe-approved/plfpl-production/416988/4b78a448-88f8-4a41-960e-b0dcbbe22332.png",
        "entry": 416988,
        "entry_name": "The Champ",
        "event_total": 59,
        "has_played": true,
        "id": 2795272,
        "last_rank": 45714,
        "player_name": "Anthony Hardingham",
        "rank": 42632,
        "rank_sort": 42680,
        "total": 2357
      },
      {
        "club_badge_src": null,
        "entry": 428591,
        "entry_name": "K\u00e4ttslinge FF",
        "event_total": 63,
        "has_played": true,
        "id": 2874636,
        "last_rank": 51220,
        "player_name": "Erik Aronen",
        "rank": 42632,
        "rank_sort": 42681,
        "total": 2357
      },
      {
        "club_badge_src": null,
        "entry": 442124,
        "entry_name": "ary mohamed",
        "event_total": 51,
        "has_played": true,
        "id": 2964445,
        "last_rank": 35166,
        "player_name": "Ary Pl",
        "rank": 42632,
        "rank_sort": 42682,
        "total": 2357
      },
      {
        "club_badge_src": "https://fantasy.premierleague.com/gcs/plfpl-production-adobe-approved/plfpl-production/442245/cfeb116d-0ac2-4cf4-8914-10776a957684.png",
        "entry": 442245,
        "entry_name": "Saka For Love",
        "event_total": 66,
        "has_played": true,
        "id": 2965242,
        "last_rank": 56369,
        "player_name": "Akshat Bhat",
        "rank": 42632,
        "rank_sort": 42683,
        "total": 2357
      },
      {
        "club_badge_src": "https://fantasy.premierleague.com/gcs/plfpl-production-adobe-approved/plfpl-production/444351/d9ddaee7-16b9-4c66-b0ba-53ca47dea4e4.png",
        "entry": 444351,
        "entry_name": "next season FC",
        "event_total": 69,
        "has_played": true,
        "id": 2979602,
        "last_rank": 61950,
        "player_name": "Harry Landau",
        "rank": 42632,
        "rank_sort": 42684,
        "total": 2357
      },
      {
        "club_badge_src": null,
        "entry": 510183,
        "entry_name": "Mets",
        "event_total": 61,
        "has_played": true,
        "id": 3425829,
        "last_rank": 42648,
        "player_name": "metin halliday",
        "rank": 42632,
        "rank_sort": 42685,
        "total": 2357
      },
      {
        "club_badge_src": null,
        "entry": 554141,
        "entry_name": "\u2022Siuuuu\u2022",
        "event_total": 57,
        "has_played": true,
        "id": 3729643,
        "last_rank": 42940,
        "player_name": "Ziad Elkafoury",
        "rank": 42632,
        "rank_sort": 42686,
        "total": 2357
      },
      {
        "club_badge_src": null,
        "entry": 568075,
        "entry_name": "haCunha Mateta",
        "event_total": 69,
        "has_played": true,
        "id": 3823478,
        "last_rank": 54494,
        "player_name": "David Uwawah",
        "rank": 42632,
        "rank_sort": 42687,
        "total": 2357
      },
      {
        "club_badge_src": null,
        "entry": 592465,
        "entry_name": "Saka Potatoes",
        "event_total": 53,
        "has_played": true,
        "id": 3992166,
        "last_rank": 32879,
        "player_name": "Marc Billins",
        "rank": 42632,
        "rank_sort": 42688,
        "total": 2357
      },
      {
        "club_badge_src": null,
        "entry": 640028,
        "entry_name": "Scotty2Hotty",
        "event_total": 59,
        "has_played": true,
        "id": 4325566,
        "last_rank": 45416,
        "player_name": "Paul Scott",
        "rank": 42632,
        "rank_sort": 42689,
        "total": 2357
      },
      {
        "club_badge_src": null,
        "entry": 680711,
        "entry_name": "The Golden Boys",
        "event_total": 69,
        "has_played": true,
        "id": 4606450,
        "last_rank": 61950,
        "player_name": "Jacob Lawrence",
        "rank": 42632,
        "rank_sort": 42690,
        "total": 2357
      },
      {
        "club_badge_src": null,
        "entry": 698612,
        "entry_name": "Coquelin or Ball",
        "event_total": 68,
        "has_played": true,
        "id": 4732476,
        "last_rank": 60168,
        "player_name": "Nathan Hollingsworth",
        "rank": 42632,
        "rank_sort": 42691,
        "total": 2357
      },
      {
        "club_badge_src": "https://fantasy.premierleague.com/gcs/plfpl-production-adobe-approved/plfpl-production/705764/bc6ad846-22c7-41bf-bec4-46fc3981fc10.png",
        "entry": 705764,
        "entry_name": "Deportivo Mykonella",
        "event_total": 46,
        "has_played": true,
        "id": 4782990,
        "last_rank": 29904,
        "player_name": "Andreas Ioannides",
        "rank": 42632,
        "rank_sort": 42692,
        "total": 2357
      },
      {
        "club_badge_src": null,
        "entry": 709477,
        "entry_name": "Gy\u00f6keredet",
        "event_total": 65,
        "has_played": true,
        "id": 4810266,
        "last_rank": 55014,
        "player_name": "J\u00f8rgen Sand Johansen",
        "rank": 42632,
        "rank_sort": 42693,
        "total": 2357
      },
      {
        "club_badge_src": null,
        "entry": 729193,
        "entry_name": "The Serial Killer",
        "event_total": 69,
        "has_played": true,
        "id": 4954421,
        "last_rank": 61411,
        "player_name": "yosri herz",
        "rank": 42632,
        "rank_sort": 42694,
        "total": 2357
      },
      {
        "club_badge_src": null,
        "entry": 754860,
        "entry_name": "HeScoresForWestHam",
        "event_total": 62,
        "has_played": true,
        "id": 5138841,
        "last_rank": 49691,
        "player_name": "Ed Ed",
        "rank": 42632,
        "rank_sort": 42695,
        "total": 2357
      },
      {
        "club_badge_src": null,
        "entry": 779582,
        "entry_name": "Coal Pawmer",
        "event_total": 62,
        "has_played": true,
        "id": 5321849,
        "last_rank": 49691,
        "player_name": "Iain Wright",
        "rank": 42632,
        "rank_sort": 42696,
        "total": 2357
      },
      {
        "club_badge_src": null,
        "entry": 843303,
        "entry_name": "Tescos Finest",
        "event_total": 48,
        "has_played": true,
        "id": 5778042,
        "last_rank": 32190,
        "player_name": "Fionnan Mcgoldrick",
        "rank": 42632,
        "rank_sort": 42697,
        "total": 2357
      },
      {
        "club_badge_src": null,
        "entry": 845708,
        "entry_name": "Fire Force 3.0",
        "event_total": 64,
        "has_played": true,
        "id": 5794546,
        "last_rank": 46839,
        "player_name": "Jordan Gayle",
        "rank": 42632,
        "rank_sort": 42698,
        "total": 2357
      },
      {
        "club_badge_src": null,
        "entry": 854981,
        "entry_name": "Couldn'tGetAnyWirtz",
        "event_total": 59,
        "has_played": true,
        "id": 5860446,
        "last_rank": 45182,
        "player_name": "Morgan Golding",
        "rank": 42632,
        "rank_sort": 42699,
        "total": 2357
      },
      {
        "club_badge_src": null,
        "entry": 888424,
        "entry_name": "Roar FC",
        "event_total": 61,
        "has_played": true,
        "id": 6093668,
        "last_rank": 48642,
        "player_name": "Roar Botnevik",
        "rank": 42632,
        "rank_sort": 42700,
        "total": 2357
      }
    ]
  }
}