{
  "last_updated_data": "2026-05-24T23:28:17Z",
  "league": {
    "admin_entry": null,
    "closed": false,
    "code_privacy": "p",
    "created": "2025-07-20T23:14:33.933835Z",
    "cup_league": 2815434,
    "has_cup": true,
    "id": 314,
    "league_type": "s",
    "max_entries": null,
    "name": "Overall",
    "rank": null,
    "scoring": "c",
    "start_event": 1
  },
  "new_entries": {
    "has_next": false,
    "page": 1,
    "results": []
  },
  "standings": {
    "has_next": true,
    "page": 1343,
    "results": [
      {
        "club_badge_src": null,
        "entry": 358968,
        "entry_name": "Shatner's Bassoons",
        "event_total": 54,
        "has_played": true,
        "id": 2402178,
        "last_rank": 55311,
        "player_name": "Ash Chain",
        "rank": 67076,
        "rank_sort": 67101,
        "total": 2342
      },
      {
        "club_badge_src": null,
        "entry": 371908,
        "entry_name": "Fearless",
        "event_total": 49,
        "has_played": true,
        "id": 2488439,
        "last_rank": 53952,
        "player_name": "Jimoh Omeiza",
        "rank": 67076,
        "rank_sort": 67102,
        "total": 2342
      },
      {
        "club_badge_src": "https://fantasy.premierleague.com/gcs/plfpl-production-adobe-approved/plfpl-production/375172/b845b65b-4088-42c0-b9b8-3069e36866a7.png",
        "entry": 375172,
        "entry_name": "Don'tLookBackElanga",
        "event_total": 64,
        "has_played": true,
        "id": 2511533,
        "last_rank": 73975,
        "player_name": "Matthew Hoskins",
        "rank": 67076,
        "rank_sort": 67103,
        "total": 2342
      },
      {
        "club_badge_src": null,
        "entry": 378641,
        "entry_name": "14",
        "event_total": 57,
        "has_played": true,
        "id": 2536821,
        "last_rank": 68107,
        "player_name": "R K",
        "rank": 67076,
        "rank_sort": 67104,
        "total": 2342
      },
      {
        "club_badge_src": null,
        "entry": 379221,
        "entry_name": "Santas Reijnders",
        "event_total": 63,
        "has_played": true,
        "id": 2540862,
        "last_rank": 71956,
        "player_name": "Sigve Stubbene",
        "rank": 67076,
        "rank_sort": 67105,
        "total": 2342
      },
      {
        "club_badge_src": null,
        "entry": 379527,
        "entry_name": "Game of Stones",
        "event_total": 60,
        "has_played": true,
        "id": 2543087,
        "last_rank": 74166,
        "player_name": "Daniel Cawthorn",
        "rank": 67076,
        "rank_sort": 67106,
        "total": 2342
      },
      {
        "club_badge_src": null,
        "entry": 386083,
        "entry_name": "Lee Guan",
        "event_total": 66,
        "has_played": true,
        "id": 2590054,
        "last_rank": 69641,
        "player_name": "Cian McCullagh",
        "rank": 67076,
        "rank_sort": 67107,
        "total": 2342
      },
      {
        "club_badge_src": "https://fantasy.premierleague.com/gcs/plfpl-production-adobe-approved/plfpl-production/400771/dc820847-e1a5-45f3-baf2-fb68d3836517.png",
        "entry": 400771,
        "entry_name": "Can\u2019t Get You",
        "event_total": 58,
        "has_played": true,
        "id": 2687510,
        "last_rank": 62429,
        "player_name": "Graeme Aird",
        "rank": 67076,
        "rank_sort": 67108,
        "total": 2342
      },
      {
        "club_badge_src": "https://fantasy.premierleague.com/gcs/plfpl-production-adobe-approved/plfpl-production/408141/38841604-6b7a-492c-8c55-47ae5705bed7.png",
        "entry": 408141,
        "entry_name": "Bianco Rosso",
        "event_total": 45,
        "has_played": true,
        "id": 2736989,
        "last_rank": 47722,
        "player_name": "Houssem Bk",
        "rank": 67076,
        "rank_sort": 67109,
        "total": 2342
      },
      {
        "club_badge_src": null,
        "entry": 415985,
        "entry_name": "Honeym",
        "event_total": 40,
        "has_played": true,
        "id": 2788627,
        "last_rank": 40832,
        "player_name": "Jonas Finnby",
        "rank": 67076,
        "rank_sort": 67110,
        "total": 2342
      },
      {
        "club_badge_src": null,
        "entry": 419718,
        "entry_name": "The Horn of Goals",
        "event_total": 56,
        "has_played": true,
        "id": 2813024,
        "last_rank": 66057,
        "player_name": "Abdi Nur",
        "rank": 67076,
        "rank_sort": 67111,
        "total": 2342
      },
      {
        "club_badge_src": null,
        "entry": 422092,
        "entry_name": "Legends11",
        "event_total": 73,
        "has_played": true,
        "id": 2828692,
        "last_rank": 104712,
        "player_name": "Richard Howley",
        "rank": 67076,
        "rank_sort": 67112,
        "total": 2342
      },
      {
        "club_badge_src": "https://fantasy.premierleague.com/gcs/plfpl-production-adobe-approved/plfpl-production/428496/08a15188-4fe3-47a9-a67b-3899c7ccd99f.png",
        "entry": 428496,
        "entry_name": "Kramasha",
        "event_total": 42,
        "has_played": true,
        "id": 2874003,
        "last_rank": 38163,
        "player_name": "Aadarshawww 007",
        "rank": 67076,
        "rank_sort": 67113,
        "total": 2342
      },
      {
        "club_badge_src": null,
        "entry": 453073,
        "entry_name": "Team abc",
        "event_total": 67,
        "has_played": true,
        "id": 3039291,
        "last_rank": 71713,
        "player_name": "Daniel Ribeiro",
        "rank": 67076,
        "rank_sort": 67114,
        "total": 2342
      },
      {
        "club_badge_src": null,
        "entry": 476385,
        "entry_name": "Forever 20",
        "event_total": 57,
        "has_played": true,
        "id": 3197799,
        "last_rank": 68107,
        "player_name": "Joe Diton",
        "rank": 67076,
        "rank_sort": 67115,
        "total": 2342
      },
      {
        "club_badge_src": null,
        "entry": 556960,
        "entry_name": "Lovers United",
        "event_total": 47,
        "has_played": true,
        "id": 3748390,
        "last_rank": 44672,
        "player_name": "Reyard Abrahams",
        "rank": 67076,
        "rank_sort": 67116,
        "total": 2342
      },
      {
        "club_badge_src": "https://fantasy.premierleague.com/gcs/plfpl-production-adobe-approved/plfpl-production/567608/b03b5ca1-0045-4f38-b0e3-d747b02916b3.png",
        "entry": 567608,
        "entry_name": "The Yankees",
        "event_total": 62,
        "has_played": true,
        "id": 3820286,
        "last_rank": 78440,
        "player_name": "Yacoub AL",
        "rank": 67076,
        "rank_sort": 67117,
        "total": 2342
      },
      {
        "club_badge_src": null,
        "entry": 593705,
        "entry_name": "FC Rade",
        "event_total": 72,
        "has_played": true,
        "id": 4001248,
        "last_rank": 102343,
        "player_name": "Stefan Radesic",
        "rank": 67076,
        "rank_sort": 67118,
        "total": 2342
      },
      {
        "club_badge_src": null,
        "entry": 626087,
        "entry_name": "paNiek voetbal",
        "event_total": 46,
        "has_played": true,
        "id": 4230913,
        "last_rank": 49207,
        "player_name": "Niek Kokhuis",
        "rank": 67076,
        "rank_sort": 67119,
        "total": 2342
      },
      {
        "club_badge_src": null,
        "entry": 654552,
        "entry_name": "The Flaw is Lavia",
        "event_total": 57,
        "has_played": true,
        "id": 4423483,
        "last_rank": 68107,
        "player_name": "Alex Smith",
        "rank": 67076,
        "rank_sort": 67120,
        "total": 2342
      },
      {
        "club_badge_src": null,
        "entry": 664043,
        "entry_name": "MantisFootKillers!",
        "event_total": 63,
        "has_played": true,
        "id": 4489318,
        "last_rank": 80651,
        "player_name": "Lionel Henry",
        "rank": 67076,
        "rank_sort": 67121,
        "total": 2342
      },
      {
        "club_badge_src": null,
        "entry": 669088,
        "entry_name": "FC Claptonite",
        "event_total": 65,
        "has_played": true,
        "id": 4524881,
        "last_rank": 67695,
        "player_name": "Maurits Sillem",
        "rank": 67076,
        "rank_sort": 67122,
        "total": 2342
      },
      {
        "club_badge_src": null,
        "entry": 670205,
        "entry_name": "Sean's Team",
        "event_total": 62,
        "has_played": true,
        "id": 4532767,
        "last_rank": 78440,
        "player_name": "Sean Allsop",
        "rank": 67076,
        "rank_sort": 67123,
        "total": 2342
      },
      {
        "club_badge_src": "https://fantasy.premierleague.com/gcs/plfpl-production-adobe-approved/plfpl-production/690289/1a4693b4-1c07-47ac-a99b-70ee7dddd872.png",
        "entry": 690289,
        "entry_name": "Cobra Kai Havertz",
        "event_total": 70,
        "has_played": true,
        "id": 4674062,
        "last_rank": 97305,
        "player_name": "Colm Ryan",
        "rank": 67076,
        "rank_sort": 67124,
        "total": 2342
      },
      {
        "club_badge_src": null,
        "entry": 707648,
        "entry_name": "Charaf",
        "event_total": 56,
        "has_played": true,
        "id": 4796068,
        "last_rank": 58688,
        "player_name": "Charaf eddine Ghemari",
        "rank": 67076,
        "rank_sort": 67125,
        "total": 2342
      },
      {
        "club_badge_src": null,
        "entry": 765378,
        "entry_name": "Le Fe\u00e9-t of Magic",
        "event_total": 58,
        "has_played": true,
        "id": 5220125,
        "last_rank": 62429,
        "player_name": "Jonathan Scott",
        "rank": 67076,
        "rank_sort": 67126,
        "total": 2342
      },
      {
        "club_badge_src": "https://fantasy.premierleague.com/gcs/plfpl-production-adobe-approved/plfpl-production/782550/c9a1430f-fd19-46b4-8491-ad1e64bbf41b.png",
        "entry": 782550,
        "entry_name": "Yanimal Yanited",
        "event_total": 59,
        "has_played": true,
        "id": 5342791,
        "last_rank": 72145,
        "player_name": "Sir Ashworth",
        "rank": 67076,
        "rank_sort": 67127,
        "total": 2342
      },
      {
        "club_badge_src": null,
        "entry": 789822,
        "entry_name": "D-FENS",
        "event_total": 35,
        "has_played": true,
        "id": 5403647,
        "last_rank": 34682,
        "player_name": "Karl Coventry",
        "rank": 67076,
        "rank_sort": 67128,
        "total": 2342
      },
      {
        "club_badge_src": null,
        "entry": 797863,
        "entry_name": "wetboyz fc",
        "event_total": 55,
        "has_played": true,
        "id": 5460997,
        "last_rank": 57200,
        "player_name": "Chris White",
        "rank": 67076,
        "rank_sort": 67129,
        "total": 2342
      },
      {
        "club_badge_src": null,
        "entry": 842520,
        "entry_name": "hanna hazzan",
        "event_total": 45,
        "has_played": true,
        "id": 5772679,
        "last_rank": 47596,
        "player_name": "Hanna Hazzan",
        "rank": 67076,
        "rank_sort": 67130,
        "total": 2342
      },
      {
        "club_badge_src": null,
        "entry": 969545,
        "entry_name": "Super Frank",
        "event_total": 61,
        "has_played": true,
        "id": 6682400,
        "last_rank": 76330,
        "player_name": "Pangeran Muda",
        "rank": 67076,
        "rank_sort": 67131,
        "total": 2342
      },
      {
        "club_badge_src": null,
        "entry": 997348,
        "entry_name": "PepTeam",
        "event_total": 53,
        "has_played": true,
        "id": 6889306,
        "last_rank": 60827,
        "player_name": "Saud 19",
        "rank": 67076,
        "rank_sort": 67132,
        "total": 2342
      },
      {
        "club_badge_src": null,
        "entry": 1011522,
        "entry_name": "Frimping pong",
        "event_total": 50,
        "has_played": true,
        "id": 6996738,
        "last_rank": 55659,
        "player_name": "Ollie Hawkins",
        "rank": 67076,
        "rank_sort": 67133,
        "total": 2342
      },
      {
        "club_badge_src": "https://fantasy.premierleague.com/gcs/plfpl-production-adobe-approved/plfpl-production/1058627/5ceffa82-6331-47fc-866d-f2b5e32af8c6.png",
        "entry": 1058627,
        "entry_name": "Arjun",
        "event_total": 46,
        "has_played": true,
        "id": 7326334,
        "last_rank": 49207,
        "player_name": "Biplav Karki",
        "rank": 67076,
        "rank_sort": 67134,
        "total": 2342
      },
      {
        "club_badge_src": null,
        "entry": 1061811,
        "entry_name": "Manny's legends",
        "event_total": 56,
        "has_played": true,
        "id": 7350370,
        "last_rank": 66296,
        "player_name": "Manandeep Singh Madaan",
        "rank": 67076,
        "rank_sort": 67135,
        "total": 2342
      },
      {
        "club_badge_src": null,
        "entry": 1074677,
        "entry_name": "The Blues",
        "event_total": 72,
        "has_played": true,
        "id": 7440133,
        "last_rank": 101818,
        "player_name": "Connor Hurley",
        "rank": 67076,
        "rank_sort": 67136,
        "total": 2342
      },
      {
        "club_badge_src": null,
        "entry": 1131117,
        "entry_name": "Juventus",
        "event_total": 63,
        "has_played": true,
        "id": 7840029,
        "last_rank": 80465,
        "player_name": "Nas Nwachinemelu",
        "rank": 67076,
        "rank_sort": 67137,
        "total": 2342
      },
      {
        "club_badge_src": "https://fantasy.premierleague.com/gcs/plfpl-production-adobe-approved/plfpl-production/1131477/c72634f7-1e56-4213-8e63-1168b2a93b8c.png",
        "entry": 1131477,
        "entry_name": "Fantastic Mr. Ox",
        "event_total": 64,
        "has_played": true,
        "id": 7842926,
        "last_rank": 73975,
        "player_name": "Tom Dunne",
        "rank": 67076,
        "rank_sort": 67138,
        "total": 2342
      },
      {
        "club_badge_src": "https://fantasy.premierleague.com/gcs/plfpl-production-adobe-approved/plfpl-production/1136527/5596299c-14da-49fb-844e-6308697def7f.png",
        "entry": 1136527,
        "entry_name": "Gemini_2112",
        "event_total": 56,
        "has_played": true,
        "id": 7878112,
        "last_rank": 66057,
        "player_name": "Safwan Hafiiiz",
        "rank": 67076,
        "rank_sort": 67139,
        "total": 2342
      },
      {
        "club_badge_src": null,
        "entry": 1159149,
        "entry_name": "ARDIUS_PMA",
        "event_total": 60,
        "has_played": true,
        "id": 8039667,
        "last_rank": 74166,
        "player_name": "Pat Wasan",
        "rank": 67076,
        "rank_sort": 67140,
        "total": 2342
      },
      {
        "club_badge_src": null,
        "entry": 1197465,
        "entry_name": "Baggie Boys",
        "event_total": 66,
        "has_played": true,
        "id": 8309642,
        "last_rank": 78244,
        "player_name": "Keith Clarke",
        "rank": 67076,
        "rank_sort": 67141,
        "total": 2342
      },
      {
        "club_badge_src": null,
        "entry": 1249764,
        "entry_name": "we8w4tford",
        "event_total": 38,
        "has_played": true,
        "id": 8679603,
        "last_rank": 38163,
        "player_name": "Ian Washington",
        "rank": 67076,
        "rank_sort": 67142,
        "total": 2342
      },
      {
        "club_badge_src": "https://fantasy.premierleague.com/gcs/plfpl-production-adobe-approved/plfpl-production/1331981/732fe42d-8d88-4e00-9f59-5bd8c469ea71.png",
        "entry": 1331981,
        "entry_name": "A Rainbow, Pictured",
        "event_total": 67,
        "has_played": true,
        "id": 9258176,
        "last_rank": 89897,
        "player_name": "Brendan O'Sullivan",
        "rank": 67076,
        "rank_sort": 67143,
        "total": 2342
      },
      {
        "club_badge_src": null,
        "entry": 1341960,
        "entry_name": "RH9",
        "event_total": 37,
        "has_played": true,
        "id": 9330363,
        "last_rank": 37058,
        "player_name": "Rick Hamilton",
        "rank": 67076,
        "rank_sort": 67144,
        "total": 2342
      },
      {
        "club_badge_src": null,
        "entry": 1362058,
        "entry_name": "Toss Mo Salah",
        "event_total": 49,
        "has_played": true,
        "id": 9467738,
        "last_rank": 53952,
        "player_name": "Kenny Freeman",
        "rank": 67076,
        "rank_sort": 67145,
        "total": 2342
      },
      {
        "club_badge_src": "https://fantasy.premierleague.com/gcs/plfpl-production-adobe-approved/plfpl-production/1362448/1163d8ab-ab68-41ab-8658-a908e2f8ce25.png",
        "entry": 1362448,
        "entry_name": "Riverman",
        "event_total": 66,
        "has_played": true,
        "id": 9470411,
        "last_rank": 87350,
        "player_name": "Richard Beckman",
        "rank": 67076,
        "rank_sort": 67146,
        "total": 2342
      },
      {
        "club_badge_src": null,
        "entry": 1449457,
        "entry_name": "Yazeed2010",
        "event_total": 58,
        "has_played": true,
        "id": 10099939,
        "last_rank": 70072,
        "player_name": "Yazeed alsogheer",
        "rank": 67076,
        "rank_sort": 67147,
        "total": 2342
      },
      {
        "club_badge_src": null,
        "entry": 1472733,
        "entry_name": "G\u00f6k It to the Limit",
        "event_total": 62,
        "has_played": true,
        "id": 10266023,
        "last_rank": 62223,
        "player_name": "David Adolfsson",
        "rank": 67076,
        "rank_sort": 67148,
        "total": 2342
      },
      {
        "club_badge_src": null,
        "entry": 1489938,
        "entry_name": "Oi Saks",
        "event_total": 39,
        "has_played": true,
        "id": 10390086,
        "last_rank": 39510,
        "player_name": "Luke DeFrance",
        "rank": 67076,
        "rank_sort": 67149,
        "total": 2342
      },
      {
        "club_badge_src": null,
        "entry": 1519123,
        "entry_name": "Can U Dig It? Saka",
        "event_total": 66,
        "has_played": true,
        "id": 10595492,
        "last_rank": 78244,
        "player_name": "Nick Fox",
        "rank": 67076,
        "rank_sort": 67150,
        "total": 2342
      }
    ]
  }
}