{
  "last_updated_data": "2026-05-24T23:28:17Z",
  "league": {
    "admin_entry": null,
    "closed": false,
    "code_privacy": "p",
    "created": "2025-07-20T23:14:33.933835Z",
    "cup_league": 2815434,
    "has_cup": true,
    "id": 314,
    "league_type": "s",
    "max_entries": null,
    "name": "Overall",
    "rank": null,
    "scoring": "c",
    "start_event": 1
  },
  "new_entries": {
    "has_next": false,
    "page": 1,
    "results": []
  },
  "standings": {
    "has_next": true,
    "page": 1456,
    "results": [
      {
        "club_badge_src": null,
        "entry": 5487458,
        "entry_name": "ruby tuesdays",
        "event_total": 67,
        "has_played": true,
        "id": 42734721,
        "last_rank": 96777,
        "player_name": "Simon Palmer",
        "rank": 72579,
        "rank_sort": 72751,
        "total": 2339
      },
      {
        "club_badge_src": "https://fantasy.premierleague.com/gcs/plfpl-production-adobe-approved/plfpl-production/5563480/56a93b64-fb71-41e9-b0a7-b2d0bdd75601.png",
        "entry": 5563480,
        "entry_name": "Don'tLookBackElanga",
        "event_total": 65,
        "has_played": true,
        "id": 43435664,
        "last_rank": 91835,
        "player_name": "Tim Watts",
        "rank": 72579,
        "rank_sort": 72752,
        "total": 2339
      },
      {
        "club_badge_src": null,
        "entry": 5625401,
        "entry_name": "Ali be back COYH",
        "event_total": 43,
        "has_played": true,
        "id": 43976972,
        "last_rank": 49207,
        "player_name": "Ian Gooderham",
        "rank": 72579,
        "rank_sort": 72753,
        "total": 2339
      },
      {
        "club_badge_src": null,
        "entry": 5687352,
        "entry_name": "Brod_na_Savi",
        "event_total": 53,
        "has_played": true,
        "id": 44519414,
        "last_rank": 58688,
        "player_name": "Vid Zeba",
        "rank": 72579,
        "rank_sort": 72754,
        "total": 2339
      },
      {
        "club_badge_src": null,
        "entry": 5810161,
        "entry_name": "Jacks breath",
        "event_total": 50,
        "has_played": true,
        "id": 45587670,
        "last_rank": 60671,
        "player_name": "Denny Zekaj",
        "rank": 72579,
        "rank_sort": 72755,
        "total": 2339
      },
      {
        "club_badge_src": null,
        "entry": 5816166,
        "entry_name": "Bummer Ballers",
        "event_total": 52,
        "has_played": true,
        "id": 45639163,
        "last_rank": 64190,
        "player_name": "Tommy Ferrara",
        "rank": 72579,
        "rank_sort": 72756,
        "total": 2339
      },
      {
        "club_badge_src": null,
        "entry": 5876895,
        "entry_name": "Saka's army",
        "event_total": 59,
        "has_played": true,
        "id": 46162059,
        "last_rank": 69641,
        "player_name": "Ishaq Khan",
        "rank": 72579,
        "rank_sort": 72757,
        "total": 2339
      },
      {
        "club_badge_src": null,
        "entry": 5984522,
        "entry_name": "Team Totenskinke",
        "event_total": 49,
        "has_played": true,
        "id": 47132538,
        "last_rank": 58688,
        "player_name": "Harald Bjune",
        "rank": 72579,
        "rank_sort": 72758,
        "total": 2339
      },
      {
        "club_badge_src": null,
        "entry": 5991561,
        "entry_name": "Mbeunos Aires",
        "event_total": 76,
        "has_played": true,
        "id": 47212471,
        "last_rank": 120941,
        "player_name": "Lubinoo Malik",
        "rank": 72579,
        "rank_sort": 72759,
        "total": 2339
      },
      {
        "club_badge_src": null,
        "entry": 6172499,
        "entry_name": "Mound of Pudding",
        "event_total": 49,
        "has_played": true,
        "id": 48807818,
        "last_rank": 59077,
        "player_name": "Doug Stanley",
        "rank": 72579,
        "rank_sort": 72760,
        "total": 2339
      },
      {
        "club_badge_src": null,
        "entry": 6173993,
        "entry_name": "Mackem Mad Dogs",
        "event_total": 71,
        "has_played": true,
        "id": 48820504,
        "last_rank": 107485,
        "player_name": "Michael Liddle",
        "rank": 72579,
        "rank_sort": 72761,
        "total": 2339
      },
      {
        "club_badge_src": null,
        "entry": 6369300,
        "entry_name": "Atletico Bolorbaos",
        "event_total": 61,
        "has_played": true,
        "id": 50648339,
        "last_rank": 82873,
        "player_name": "C T",
        "rank": 72579,
        "rank_sort": 72762,
        "total": 2339
      },
      {
        "club_badge_src": null,
        "entry": 6383865,
        "entry_name": "Flight delayed 2.0",
        "event_total": 50,
        "has_played": true,
        "id": 50777190,
        "last_rank": 60671,
        "player_name": "Matt Boyles",
        "rank": 72579,
        "rank_sort": 72763,
        "total": 2339
      },
      {
        "club_badge_src": null,
        "entry": 6401292,
        "entry_name": "Yoro Wissa'd Harry",
        "event_total": 68,
        "has_played": true,
        "id": 50931106,
        "last_rank": 98896,
        "player_name": "Enda Merritt",
        "rank": 72579,
        "rank_sort": 72764,
        "total": 2339
      },
      {
        "club_badge_src": null,
        "entry": 6420129,
        "entry_name": "Mi Babis",
        "event_total": 65,
        "has_played": true,
        "id": 51099260,
        "last_rank": 91835,
        "player_name": "Lisa Crombleholme",
        "rank": 72579,
        "rank_sort": 72765,
        "total": 2339
      },
      {
        "club_badge_src": null,
        "entry": 6447020,
        "entry_name": "Wehbe",
        "event_total": 59,
        "has_played": true,
        "id": 51336095,
        "last_rank": 69641,
        "player_name": "Tarek Wehbe",
        "rank": 72579,
        "rank_sort": 72766,
        "total": 2339
      },
      {
        "club_badge_src": "https://fantasy.premierleague.com/gcs/plfpl-production-adobe-approved/plfpl-production/6478710/76afd864-2718-4d20-b26c-253854100467.png",
        "entry": 6478710,
        "entry_name": "Amorims Debug Devils",
        "event_total": 76,
        "has_played": true,
        "id": 51633992,
        "last_rank": 121705,
        "player_name": "Jean de Bruyn",
        "rank": 72579,
        "rank_sort": 72767,
        "total": 2339
      },
      {
        "club_badge_src": null,
        "entry": 6522967,
        "entry_name": "69",
        "event_total": 53,
        "has_played": true,
        "id": 52026088,
        "last_rank": 58388,
        "player_name": "Dylan Hopkins",
        "rank": 72579,
        "rank_sort": 72768,
        "total": 2339
      },
      {
        "club_badge_src": null,
        "entry": 6600867,
        "entry_name": "Im Trying Honest",
        "event_total": 39,
        "has_played": true,
        "id": 52728147,
        "last_rank": 43342,
        "player_name": "Ryan Oneill",
        "rank": 72579,
        "rank_sort": 72769,
        "total": 2339
      },
      {
        "club_badge_src": null,
        "entry": 6749504,
        "entry_name": "Machine Gun Skelly",
        "event_total": 63,
        "has_played": true,
        "id": 54033316,
        "last_rank": 87074,
        "player_name": "Junaid Aghey",
        "rank": 72579,
        "rank_sort": 72770,
        "total": 2339
      },
      {
        "club_badge_src": null,
        "entry": 6885651,
        "entry_name": "Daniellooo",
        "event_total": 61,
        "has_played": true,
        "id": 55184014,
        "last_rank": 73720,
        "player_name": "Daniel George",
        "rank": 72579,
        "rank_sort": 72771,
        "total": 2339
      },
      {
        "club_badge_src": null,
        "entry": 6958858,
        "entry_name": "KUET La Teligatians",
        "event_total": 69,
        "has_played": true,
        "id": 55806512,
        "last_rank": 101818,
        "player_name": "Arif Ahamed Mithun",
        "rank": 72579,
        "rank_sort": 72772,
        "total": 2339
      },
      {
        "club_badge_src": null,
        "entry": 6962252,
        "entry_name": "Victor Moses Lawn",
        "event_total": 58,
        "has_played": true,
        "id": 55836976,
        "last_rank": 67695,
        "player_name": "Luke Boatwright",
        "rank": 72579,
        "rank_sort": 72773,
        "total": 2339
      },
      {
        "club_badge_src": null,
        "entry": 7060450,
        "entry_name": "Crouch Potato",
        "event_total": 64,
        "has_played": true,
        "id": 56799709,
        "last_rank": 89706,
        "player_name": "Will Mumby",
        "rank": 72579,
        "rank_sort": 72774,
        "total": 2339
      },
      {
        "club_badge_src": null,
        "entry": 7113526,
        "entry_name": "Pep Fraudiola",
        "event_total": 71,
        "has_played": true,
        "id": 57305363,
        "last_rank": 86735,
        "player_name": "Dhanessh Mahendran",
        "rank": 72579,
        "rank_sort": 72775,
        "total": 2339
      },
      {
        "club_badge_src": null,
        "entry": 7120262,
        "entry_name": "Quendon United",
        "event_total": 66,
        "has_played": true,
        "id": 57368481,
        "last_rank": 84731,
        "player_name": "Joe Gamse",
        "rank": 72579,
        "rank_sort": 72776,
        "total": 2339
      },
      {
        "club_badge_src": null,
        "entry": 7129142,
        "entry_name": "Art-eta FC",
        "event_total": 66,
        "has_played": true,
        "id": 57452083,
        "last_rank": 94255,
        "player_name": "Sadek Awwad",
        "rank": 72579,
        "rank_sort": 72777,
        "total": 2339
      },
      {
        "club_badge_src": null,
        "entry": 7316923,
        "entry_name": "Haalcoholic XI FC",
        "event_total": 67,
        "has_played": true,
        "id": 59235119,
        "last_rank": 96374,
        "player_name": "Sumeeth Muraleedharan",
        "rank": 72579,
        "rank_sort": 72778,
        "total": 2339
      },
      {
        "club_badge_src": null,
        "entry": 7321404,
        "entry_name": "Cunha Believe It",
        "event_total": 64,
        "has_played": true,
        "id": 59277126,
        "last_rank": 89055,
        "player_name": "Bj\u00f8rn-Martin Nordby",
        "rank": 72579,
        "rank_sort": 72779,
        "total": 2339
      },
      {
        "club_badge_src": null,
        "entry": 7605502,
        "entry_name": "East's Beasts",
        "event_total": 45,
        "has_played": true,
        "id": 62314167,
        "last_rank": 52205,
        "player_name": "Jack Eastgate",
        "rank": 72579,
        "rank_sort": 72780,
        "total": 2339
      },
      {
        "club_badge_src": null,
        "entry": 7662396,
        "entry_name": "Kaufmann's beste",
        "event_total": 55,
        "has_played": true,
        "id": 62829241,
        "last_rank": 70072,
        "player_name": "Andreas Heskestad",
        "rank": 72579,
        "rank_sort": 72781,
        "total": 2339
      },
      {
        "club_badge_src": "https://fantasy.premierleague.com/gcs/plfpl-production-adobe-approved/plfpl-production/7819546/1268e297-48e2-4e18-8ed0-2aeef95405fa.png",
        "entry": 7819546,
        "entry_name": "Akash",
        "event_total": 63,
        "has_played": true,
        "id": 64250519,
        "last_rank": 87074,
        "player_name": "Akash I1",
        "rank": 72579,
        "rank_sort": 72782,
        "total": 2339
      },
      {
        "club_badge_src": null,
        "entry": 7840763,
        "entry_name": "ChatGP's Team",
        "event_total": 49,
        "has_played": true,
        "id": 64448124,
        "last_rank": 58688,
        "player_name": "Gary Pyne",
        "rank": 72579,
        "rank_sort": 72783,
        "total": 2339
      },
      {
        "club_badge_src": null,
        "entry": 7878982,
        "entry_name": "best_team",
        "event_total": 52,
        "has_played": true,
        "id": 64795322,
        "last_rank": 43757,
        "player_name": "Raman Shekho",
        "rank": 72579,
        "rank_sort": 72784,
        "total": 2339
      },
      {
        "club_badge_src": null,
        "entry": 8044806,
        "entry_name": "Hotel? Thiago",
        "event_total": 51,
        "has_played": true,
        "id": 66290297,
        "last_rank": 62429,
        "player_name": "connor heath",
        "rank": 72579,
        "rank_sort": 72785,
        "total": 2339
      },
      {
        "club_badge_src": null,
        "entry": 8082440,
        "entry_name": "mustfa",
        "event_total": 71,
        "has_played": true,
        "id": 66638027,
        "last_rank": 107485,
        "player_name": "MUSTFA Maythem",
        "rank": 72579,
        "rank_sort": 72786,
        "total": 2339
      },
      {
        "club_badge_src": null,
        "entry": 8118558,
        "entry_name": "ETM Rezerwy",
        "event_total": 67,
        "has_played": true,
        "id": 66974238,
        "last_rank": 96777,
        "player_name": "Piotr Sobczyk",
        "rank": 72579,
        "rank_sort": 72787,
        "total": 2339
      },
      {
        "club_badge_src": null,
        "entry": 8268277,
        "entry_name": "G'dayFC",
        "event_total": 73,
        "has_played": true,
        "id": 68398034,
        "last_rank": 112591,
        "player_name": "Vinay S",
        "rank": 72579,
        "rank_sort": 72788,
        "total": 2339
      },
      {
        "club_badge_src": null,
        "entry": 8309195,
        "entry_name": "jel moguce",
        "event_total": 72,
        "has_played": true,
        "id": 68806972,
        "last_rank": 110416,
        "player_name": "Ivan \u0160alinovi\u0107",
        "rank": 72579,
        "rank_sort": 72789,
        "total": 2339
      },
      {
        "club_badge_src": "https://fantasy.premierleague.com/gcs/plfpl-production-adobe-approved/plfpl-production/8403060/484fb8ba-fe54-45de-93b9-29199d421650.png",
        "entry": 8403060,
        "entry_name": "Rov1875",
        "event_total": 68,
        "has_played": true,
        "id": 69706549,
        "last_rank": 99596,
        "player_name": "Remi Hilstad",
        "rank": 72579,
        "rank_sort": 72790,
        "total": 2339
      },
      {
        "club_badge_src": null,
        "entry": 8658801,
        "entry_name": "3oka",
        "event_total": 59,
        "has_played": true,
        "id": 72177026,
        "last_rank": 69641,
        "player_name": "Abdrahman oka",
        "rank": 72579,
        "rank_sort": 72791,
        "total": 2339
      },
      {
        "club_badge_src": null,
        "entry": 8965185,
        "entry_name": "WakefieldWonders",
        "event_total": 59,
        "has_played": true,
        "id": 75145449,
        "last_rank": 78244,
        "player_name": "Aisha Bhamji",
        "rank": 72579,
        "rank_sort": 72792,
        "total": 2339
      },
      {
        "club_badge_src": null,
        "entry": 9002322,
        "entry_name": "buy high play low",
        "event_total": 58,
        "has_played": true,
        "id": 75502907,
        "last_rank": 75537,
        "player_name": "Juuso E",
        "rank": 72579,
        "rank_sort": 72793,
        "total": 2339
      },
      {
        "club_badge_src": null,
        "entry": 9248314,
        "entry_name": "Retired FC",
        "event_total": 50,
        "has_played": true,
        "id": 77906034,
        "last_rank": 53621,
        "player_name": "Kano Owoblow",
        "rank": 72579,
        "rank_sort": 72794,
        "total": 2339
      },
      {
        "club_badge_src": null,
        "entry": 9350343,
        "entry_name": "Dark sister",
        "event_total": 68,
        "has_played": true,
        "id": 78890708,
        "last_rank": 89426,
        "player_name": "Sona Khadka",
        "rank": 72579,
        "rank_sort": 72795,
        "total": 2339
      },
      {
        "club_badge_src": null,
        "entry": 4179,
        "entry_name": "Don\u2019tLookBackElanga",
        "event_total": 54,
        "has_played": true,
        "id": 23728,
        "last_rank": 68216,
        "player_name": "Ryan Nicholson",
        "rank": 72796,
        "rank_sort": 72796,
        "total": 2339
      },
      {
        "club_badge_src": null,
        "entry": 5391,
        "entry_name": "The Kinky Kens",
        "event_total": 72,
        "has_played": true,
        "id": 30724,
        "last_rank": 89426,
        "player_name": "Ben neville",
        "rank": 72796,
        "rank_sort": 72797,
        "total": 2339
      },
      {
        "club_badge_src": null,
        "entry": 12853,
        "entry_name": "Luton Town FC",
        "event_total": 63,
        "has_played": true,
        "id": 77322,
        "last_rank": 78244,
        "player_name": "Liam Cawley",
        "rank": 72796,
        "rank_sort": 72798,
        "total": 2339
      },
      {
        "club_badge_src": null,
        "entry": 29703,
        "entry_name": "mclarenwolf",
        "event_total": 63,
        "has_played": true,
        "id": 187885,
        "last_rank": 87541,
        "player_name": "Nikko M",
        "rank": 72796,
        "rank_sort": 72799,
        "total": 2339
      },
      {
        "club_badge_src": null,
        "entry": 35763,
        "entry_name": "Atletico del Central",
        "event_total": 57,
        "has_played": true,
        "id": 228928,
        "last_rank": 74166,
        "player_name": "Alan Stewart",
        "rank": 72796,
        "rank_sort": 72800,
        "total": 2339
      }
    ]
  }
}