{
  "last_updated_data": "2026-05-24T23:28:17Z",
  "league": {
    "admin_entry": null,
    "closed": false,
    "code_privacy": "p",
    "created": "2025-07-20T23:14:33.933835Z",
    "cup_league": 2815434,
    "has_cup": true,
    "id": 314,
    "league_type": "s",
    "max_entries": null,
    "name": "Overall",
    "rank": null,
    "scoring": "c",
    "start_event": 1
  },
  "new_entries": {
    "has_next": false,
    "page": 1,
    "results": []
  },
  "standings": {
    "has_next": true,
    "page": 1012,
    "results": [
      {
        "club_badge_src": null,
        "entry": 2191533,
        "entry_name": "The Farmer V4",
        "event_total": 48,
        "has_played": true,
        "id": 15591880,
        "last_rank": 38340,
        "player_name": "rmiqi hamza",
        "rank": 50508,
        "rank_sort": 50551,
        "total": 2352
      },
      {
        "club_badge_src": null,
        "entry": 2247347,
        "entry_name": "Arteta-minator",
        "event_total": 47,
        "has_played": true,
        "id": 16012731,
        "last_rank": 37134,
        "player_name": "Arpan Sur",
        "rank": 50508,
        "rank_sort": 50552,
        "total": 2352
      },
      {
        "club_badge_src": "https://fantasy.premierleague.com/gcs/plfpl-production-adobe-approved/plfpl-production/2375606/5c91606f-9573-4e89-ad98-b7b71fcbb1cb.png",
        "entry": 2375606,
        "entry_name": "KLUWUT AND THE GANK",
        "event_total": 54,
        "has_played": true,
        "id": 16959710,
        "last_rank": 46364,
        "player_name": "Rezca Arasta",
        "rank": 50508,
        "rank_sort": 50553,
        "total": 2352
      },
      {
        "club_badge_src": "https://fantasy.premierleague.com/gcs/plfpl-production-adobe-approved/plfpl-production/2468209/ce840885-8028-4e73-9be8-4663902a890a.png",
        "entry": 2468209,
        "entry_name": "On Morrison\u2019s Van",
        "event_total": 59,
        "has_played": true,
        "id": 17656351,
        "last_rank": 47722,
        "player_name": "Mark Bennett",
        "rank": 50508,
        "rank_sort": 50554,
        "total": 2352
      },
      {
        "club_badge_src": null,
        "entry": 2538364,
        "entry_name": "T\u00e4ystuho",
        "event_total": 62,
        "has_played": true,
        "id": 18191514,
        "last_rank": 59170,
        "player_name": "Joni Set\u00e4l\u00e4",
        "rank": 50508,
        "rank_sort": 50555,
        "total": 2352
      },
      {
        "club_badge_src": null,
        "entry": 2591303,
        "entry_name": "Running Out Of Wirtz",
        "event_total": 57,
        "has_played": true,
        "id": 18604680,
        "last_rank": 44672,
        "player_name": "Danny Yong",
        "rank": 50508,
        "rank_sort": 50556,
        "total": 2352
      },
      {
        "club_badge_src": null,
        "entry": 2847352,
        "entry_name": "Blakey fc",
        "event_total": 57,
        "has_played": true,
        "id": 20816707,
        "last_rank": 50848,
        "player_name": "Declan Blake",
        "rank": 50508,
        "rank_sort": 50557,
        "total": 2352
      },
      {
        "club_badge_src": null,
        "entry": 3015700,
        "entry_name": "Wonderkid FC",
        "event_total": 65,
        "has_played": true,
        "id": 22186677,
        "last_rank": 57358,
        "player_name": "Arziad Moraby",
        "rank": 50508,
        "rank_sort": 50558,
        "total": 2352
      },
      {
        "club_badge_src": null,
        "entry": 3164645,
        "entry_name": "OLE BALL",
        "event_total": 70,
        "has_played": true,
        "id": 23379205,
        "last_rank": 74317,
        "player_name": "Arjan Singh",
        "rank": 50508,
        "rank_sort": 50559,
        "total": 2352
      },
      {
        "club_badge_src": null,
        "entry": 3164795,
        "entry_name": "uchiha dz",
        "event_total": 83,
        "has_played": true,
        "id": 23380342,
        "last_rank": 94537,
        "player_name": "soufiane bk",
        "rank": 50508,
        "rank_sort": 50560,
        "total": 2352
      },
      {
        "club_badge_src": null,
        "entry": 3331343,
        "entry_name": "The Greenback Boogie",
        "event_total": 63,
        "has_played": true,
        "id": 24700132,
        "last_rank": 53952,
        "player_name": "Ferdinant Otieno",
        "rank": 50508,
        "rank_sort": 50561,
        "total": 2352
      },
      {
        "club_badge_src": null,
        "entry": 3430663,
        "entry_name": "Club Penguin",
        "event_total": 64,
        "has_played": true,
        "id": 25485062,
        "last_rank": 62724,
        "player_name": "Josh Poulter",
        "rank": 50508,
        "rank_sort": 50562,
        "total": 2352
      },
      {
        "club_badge_src": null,
        "entry": 3587444,
        "entry_name": "The Dirty Divers",
        "event_total": 48,
        "has_played": true,
        "id": 26716573,
        "last_rank": 38340,
        "player_name": "Paul Robinson",
        "rank": 50508,
        "rank_sort": 50563,
        "total": 2352
      },
      {
        "club_badge_src": null,
        "entry": 3660172,
        "entry_name": "football widow fc",
        "event_total": 56,
        "has_played": true,
        "id": 27293862,
        "last_rank": 49301,
        "player_name": "Jennifer O\u2019Donnell",
        "rank": 50508,
        "rank_sort": 50564,
        "total": 2352
      },
      {
        "club_badge_src": null,
        "entry": 3725571,
        "entry_name": "RubemAmowin",
        "event_total": 47,
        "has_played": true,
        "id": 27806429,
        "last_rank": 37134,
        "player_name": "Alejandro Casta\u00f1eda",
        "rank": 50508,
        "rank_sort": 50565,
        "total": 2352
      },
      {
        "club_badge_src": null,
        "entry": 3733028,
        "entry_name": "Don\u2019t farke this up",
        "event_total": 52,
        "has_played": true,
        "id": 27863872,
        "last_rank": 43512,
        "player_name": "Declan Dowling",
        "rank": 50508,
        "rank_sort": 50566,
        "total": 2352
      },
      {
        "club_badge_src": null,
        "entry": 3775786,
        "entry_name": "Paso esta vez",
        "event_total": 60,
        "has_played": true,
        "id": 28193014,
        "last_rank": 49207,
        "player_name": "Rafa Chayo",
        "rank": 50508,
        "rank_sort": 50567,
        "total": 2352
      },
      {
        "club_badge_src": null,
        "entry": 3887190,
        "entry_name": "Rahim",
        "event_total": 41,
        "has_played": true,
        "id": 29209654,
        "last_rank": 26425,
        "player_name": "Rahim Ramji",
        "rank": 50508,
        "rank_sort": 50568,
        "total": 2352
      },
      {
        "club_badge_src": "https://fantasy.premierleague.com/gcs/plfpl-production-adobe-approved/plfpl-production/3897323/4863178d-e8ca-42dd-99d9-a930e80bd799.png",
        "entry": 3897323,
        "entry_name": "The Damned United",
        "event_total": 44,
        "has_played": true,
        "id": 29292611,
        "last_rank": 29199,
        "player_name": "Jake Moule",
        "rank": 50508,
        "rank_sort": 50569,
        "total": 2352
      },
      {
        "club_badge_src": null,
        "entry": 3902050,
        "entry_name": "Al-Yaal Buuti",
        "event_total": 40,
        "has_played": true,
        "id": 29333397,
        "last_rank": 29279,
        "player_name": "Arnout Ruiter",
        "rank": 50508,
        "rank_sort": 50570,
        "total": 2352
      },
      {
        "club_badge_src": null,
        "entry": 3974823,
        "entry_name": "Team Turtles",
        "event_total": 66,
        "has_played": true,
        "id": 29915652,
        "last_rank": 52205,
        "player_name": "Svein Eriksen",
        "rank": 50508,
        "rank_sort": 50571,
        "total": 2352
      },
      {
        "club_badge_src": "https://fantasy.premierleague.com/gcs/plfpl-production-adobe-approved/plfpl-production/4068442/8221b7ee-f4bd-43b3-96b0-164f982f070e.png",
        "entry": 4068442,
        "entry_name": "WayneRuby",
        "event_total": 53,
        "has_played": true,
        "id": 30706043,
        "last_rank": 44882,
        "player_name": "Robert Meseha",
        "rank": 50508,
        "rank_sort": 50572,
        "total": 2352
      },
      {
        "club_badge_src": null,
        "entry": 4359043,
        "entry_name": "dksl",
        "event_total": 47,
        "has_played": true,
        "id": 33106256,
        "last_rank": 37058,
        "player_name": "Kugan Vadiveloo",
        "rank": 50508,
        "rank_sort": 50573,
        "total": 2352
      },
      {
        "club_badge_src": null,
        "entry": 4474842,
        "entry_name": "Trousers called dave",
        "event_total": 65,
        "has_played": true,
        "id": 34101549,
        "last_rank": 64422,
        "player_name": "John Davies",
        "rank": 50508,
        "rank_sort": 50574,
        "total": 2352
      },
      {
        "club_badge_src": null,
        "entry": 5027575,
        "entry_name": "Viktor's Vikings",
        "event_total": 45,
        "has_played": true,
        "id": 38829873,
        "last_rank": 34749,
        "player_name": "Mark Tureck",
        "rank": 50508,
        "rank_sort": 50575,
        "total": 2352
      },
      {
        "club_badge_src": null,
        "entry": 5182033,
        "entry_name": "Spetsury-Hall-99",
        "event_total": 69,
        "has_played": true,
        "id": 40111426,
        "last_rank": 64319,
        "player_name": "Christoforos Vassiliades",
        "rank": 50508,
        "rank_sort": 50576,
        "total": 2352
      },
      {
        "club_badge_src": "https://fantasy.premierleague.com/gcs/plfpl-production-adobe-approved/plfpl-production/5628250/cc94cdcd-1c3e-423e-b3f3-52099d9dc749.png",
        "entry": 5628250,
        "entry_name": "AEK Athens F.C.",
        "event_total": 74,
        "has_played": true,
        "id": 44001778,
        "last_rank": 82398,
        "player_name": "Nikos Ribo",
        "rank": 50508,
        "rank_sort": 50577,
        "total": 2352
      },
      {
        "club_badge_src": null,
        "entry": 5698409,
        "entry_name": "Padaivas",
        "event_total": 59,
        "has_played": true,
        "id": 44614253,
        "last_rank": 53952,
        "player_name": "\u03a0\u03b1\u03bd\u03c4\u03b5\u03bb\u03ae\u03c2 \u0391\u03ca\u03b2\u03b1\u03c4\u03af\u03b4\u03b7\u03c2",
        "rank": 50508,
        "rank_sort": 50578,
        "total": 2352
      },
      {
        "club_badge_src": null,
        "entry": 6091926,
        "entry_name": "USRO FC",
        "event_total": 77,
        "has_played": true,
        "id": 48106970,
        "last_rank": 90057,
        "player_name": "Sanny Samudra",
        "rank": 50508,
        "rank_sort": 50579,
        "total": 2352
      },
      {
        "club_badge_src": null,
        "entry": 6420355,
        "entry_name": "Bovs Ballers",
        "event_total": 56,
        "has_played": true,
        "id": 51101243,
        "last_rank": 49368,
        "player_name": "Neil Botham",
        "rank": 50508,
        "rank_sort": 50580,
        "total": 2352
      },
      {
        "club_badge_src": null,
        "entry": 6569284,
        "entry_name": "skandar",
        "event_total": 60,
        "has_played": true,
        "id": 52439252,
        "last_rank": 55747,
        "player_name": "Nasro Techno",
        "rank": 50508,
        "rank_sort": 50581,
        "total": 2352
      },
      {
        "club_badge_src": null,
        "entry": 6644480,
        "entry_name": "Barry Saint-Germain",
        "event_total": 75,
        "has_played": true,
        "id": 53114978,
        "last_rank": 84980,
        "player_name": "Simon G",
        "rank": 50508,
        "rank_sort": 50582,
        "total": 2352
      },
      {
        "club_badge_src": "https://fantasy.premierleague.com/gcs/plfpl-production-adobe-approved/plfpl-production/6833060/172fba5e-b6ba-48c9-87c2-3f2ebdaf0cdf.png",
        "entry": 6833060,
        "entry_name": "CHRIS SC",
        "event_total": 73,
        "has_played": true,
        "id": 54735048,
        "last_rank": 80781,
        "player_name": "CHRIS JOKONYA",
        "rank": 50508,
        "rank_sort": 50583,
        "total": 2352
      },
      {
        "club_badge_src": null,
        "entry": 6970972,
        "entry_name": "BOSSMAO",
        "event_total": 48,
        "has_played": true,
        "id": 55919976,
        "last_rank": 38340,
        "player_name": "Sayma Krataithong",
        "rank": 50508,
        "rank_sort": 50584,
        "total": 2352
      },
      {
        "club_badge_src": null,
        "entry": 7090970,
        "entry_name": "Fulhamma in den",
        "event_total": 47,
        "has_played": true,
        "id": 57090469,
        "last_rank": 32437,
        "player_name": "Fredrik Granebring",
        "rank": 50508,
        "rank_sort": 50585,
        "total": 2352
      },
      {
        "club_badge_src": null,
        "entry": 7326075,
        "entry_name": "A-Stars",
        "event_total": 57,
        "has_played": true,
        "id": 59321106,
        "last_rank": 50848,
        "player_name": "Asaph Anyula",
        "rank": 50508,
        "rank_sort": 50586,
        "total": 2352
      },
      {
        "club_badge_src": null,
        "entry": 7907551,
        "entry_name": "Big Mami FC",
        "event_total": 56,
        "has_played": true,
        "id": 65055233,
        "last_rank": 49368,
        "player_name": "pdt bankz",
        "rank": 50508,
        "rank_sort": 50587,
        "total": 2352
      },
      {
        "club_badge_src": null,
        "entry": 7959343,
        "entry_name": "Fc Barcelone",
        "event_total": 59,
        "has_played": true,
        "id": 65524572,
        "last_rank": 54065,
        "player_name": "Hareth Mohammed",
        "rank": 50508,
        "rank_sort": 50588,
        "total": 2352
      },
      {
        "club_badge_src": null,
        "entry": 7973241,
        "entry_name": "Jarrod's Bowen Arrow",
        "event_total": 61,
        "has_played": true,
        "id": 65646976,
        "last_rank": 44672,
        "player_name": "Ben Calder",
        "rank": 50508,
        "rank_sort": 50589,
        "total": 2352
      },
      {
        "club_badge_src": "https://fantasy.premierleague.com/gcs/plfpl-production-adobe-approved/plfpl-production/7974056/20df65f1-3636-422f-b09c-ce7b4fbbff5d.png",
        "entry": 7974056,
        "entry_name": "Monchos United FC",
        "event_total": 59,
        "has_played": true,
        "id": 65654543,
        "last_rank": 54065,
        "player_name": "Luis Duarte",
        "rank": 50508,
        "rank_sort": 50590,
        "total": 2352
      },
      {
        "club_badge_src": null,
        "entry": 8103396,
        "entry_name": "YNWA",
        "event_total": 52,
        "has_played": true,
        "id": 66832629,
        "last_rank": 33483,
        "player_name": "Brendan mcfeely",
        "rank": 50508,
        "rank_sort": 50591,
        "total": 2352
      },
      {
        "club_badge_src": null,
        "entry": 8515194,
        "entry_name": "Big D",
        "event_total": 81,
        "has_played": true,
        "id": 70784793,
        "last_rank": 80194,
        "player_name": "Dant\u00e9 Snyman",
        "rank": 50508,
        "rank_sort": 50592,
        "total": 2352
      },
      {
        "club_badge_src": null,
        "entry": 8676693,
        "entry_name": "sammyharfo",
        "event_total": 51,
        "has_played": true,
        "id": 72352455,
        "last_rank": 37058,
        "player_name": "Samuel harford",
        "rank": 50508,
        "rank_sort": 50593,
        "total": 2352
      },
      {
        "club_badge_src": null,
        "entry": 8868325,
        "entry_name": "15.04.1982.",
        "event_total": 63,
        "has_played": true,
        "id": 74202910,
        "last_rank": 60933,
        "player_name": "Milo\u0161 Ljiljani\u0107 KO",
        "rank": 50508,
        "rank_sort": 50594,
        "total": 2352
      },
      {
        "club_badge_src": null,
        "entry": 9230613,
        "entry_name": "Saka Punch",
        "event_total": 67,
        "has_played": true,
        "id": 77733957,
        "last_rank": 68107,
        "player_name": "Chilasa Mutale",
        "rank": 50508,
        "rank_sort": 50595,
        "total": 2352
      },
      {
        "club_badge_src": "https://fantasy.premierleague.com/gcs/plfpl-production-adobe-approved/plfpl-production/5496/2132d310-1f25-4550-abfb-4886cfba8e23.png",
        "entry": 5496,
        "entry_name": "Fella's XI",
        "event_total": 49,
        "has_played": true,
        "id": 31341,
        "last_rank": 34749,
        "player_name": "Dan H",
        "rank": 50596,
        "rank_sort": 50596,
        "total": 2352
      },
      {
        "club_badge_src": "https://fantasy.premierleague.com/gcs/plfpl-production-adobe-approved/plfpl-production/20279/45c36c46-9ccf-4e48-a3b2-e1e62ee33ad3.png",
        "entry": 20279,
        "entry_name": "Bots detected",
        "event_total": 47,
        "has_played": true,
        "id": 126349,
        "last_rank": 37189,
        "player_name": "Brian Moseti",
        "rank": 50596,
        "rank_sort": 50597,
        "total": 2352
      },
      {
        "club_badge_src": null,
        "entry": 55027,
        "entry_name": "Mighty Bantams",
        "event_total": 51,
        "has_played": true,
        "id": 354163,
        "last_rank": 37058,
        "player_name": "Andy Gudgeon",
        "rank": 50596,
        "rank_sort": 50598,
        "total": 2352
      },
      {
        "club_badge_src": null,
        "entry": 90396,
        "entry_name": "Expect Toulouse",
        "event_total": 52,
        "has_played": true,
        "id": 590184,
        "last_rank": 33582,
        "player_name": "Adam Nutt",
        "rank": 50596,
        "rank_sort": 50599,
        "total": 2352
      },
      {
        "club_badge_src": null,
        "entry": 101685,
        "entry_name": "TheoMelo Fc",
        "event_total": 57,
        "has_played": true,
        "id": 663459,
        "last_rank": 50905,
        "player_name": "Theo Melo",
        "rank": 50596,
        "rank_sort": 50600,
        "total": 2352
      }
    ]
  }
}