{
  "last_updated_data": "2026-05-24T23:28:17Z",
  "league": {
    "admin_entry": null,
    "closed": false,
    "code_privacy": "p",
    "created": "2025-07-20T23:14:33.933835Z",
    "cup_league": 2815434,
    "has_cup": true,
    "id": 314,
    "league_type": "s",
    "max_entries": null,
    "name": "Overall",
    "rank": null,
    "scoring": "c",
    "start_event": 1
  },
  "new_entries": {
    "has_next": false,
    "page": 1,
    "results": []
  },
  "standings": {
    "has_next": true,
    "page": 1573,
    "results": [
      {
        "club_badge_src": null,
        "entry": 1315456,
        "entry_name": "Elmtarawy",
        "event_total": 75,
        "has_played": true,
        "id": 9143089,
        "last_rank": 127384,
        "player_name": "Adam Elmtarawy",
        "rank": 78481,
        "rank_sort": 78601,
        "total": 2336
      },
      {
        "club_badge_src": null,
        "entry": 1355516,
        "entry_name": "Bowen Green Arrow",
        "event_total": 66,
        "has_played": true,
        "id": 9422694,
        "last_rank": 101818,
        "player_name": "Brady Leserman",
        "rank": 78481,
        "rank_sort": 78602,
        "total": 2336
      },
      {
        "club_badge_src": null,
        "entry": 1379973,
        "entry_name": "He's Having Gittens",
        "event_total": 71,
        "has_played": true,
        "id": 9592690,
        "last_rank": 115421,
        "player_name": "Craig Logan",
        "rank": 78481,
        "rank_sort": 78603,
        "total": 2336
      },
      {
        "club_badge_src": null,
        "entry": 1397064,
        "entry_name": "Stats in Stellies",
        "event_total": 59,
        "has_played": true,
        "id": 9719424,
        "last_rank": 75537,
        "player_name": "Ebrahim Lockhat",
        "rank": 78481,
        "rank_sort": 78604,
        "total": 2336
      },
      {
        "club_badge_src": "https://fantasy.premierleague.com/gcs/plfpl-production-adobe-approved/plfpl-production/1417542/23a128aa-0990-433d-a5ff-dcaf3b15a88d.png",
        "entry": 1417542,
        "entry_name": "Big Benz (\u0e07'\u0300-'\u0301)\u0e07",
        "event_total": 52,
        "has_played": true,
        "id": 9869609,
        "last_rank": 69641,
        "player_name": "Szabolcs Varga",
        "rank": 78481,
        "rank_sort": 78605,
        "total": 2336
      },
      {
        "club_badge_src": null,
        "entry": 1421855,
        "entry_name": "Change Name",
        "event_total": 67,
        "has_played": true,
        "id": 9900255,
        "last_rank": 104388,
        "player_name": "Jordan Harber",
        "rank": 78481,
        "rank_sort": 78606,
        "total": 2336
      },
      {
        "club_badge_src": null,
        "entry": 1458218,
        "entry_name": "Sympatyczne Bulbaski",
        "event_total": 58,
        "has_played": true,
        "id": 10162423,
        "last_rank": 72815,
        "player_name": "Mateusz M",
        "rank": 78481,
        "rank_sort": 78607,
        "total": 2336
      },
      {
        "club_badge_src": null,
        "entry": 1516721,
        "entry_name": "Santi Gerzorla",
        "event_total": 60,
        "has_played": true,
        "id": 10578818,
        "last_rank": 77676,
        "player_name": "H\u00e5kon Eliassen",
        "rank": 78481,
        "rank_sort": 78608,
        "total": 2336
      },
      {
        "club_badge_src": null,
        "entry": 1579629,
        "entry_name": "Andy's Nuts",
        "event_total": 66,
        "has_played": true,
        "id": 11038201,
        "last_rank": 91466,
        "player_name": "Andrew Chavkin",
        "rank": 78481,
        "rank_sort": 78609,
        "total": 2336
      },
      {
        "club_badge_src": null,
        "entry": 1618208,
        "entry_name": "Team dementov",
        "event_total": 56,
        "has_played": true,
        "id": 11323596,
        "last_rank": 77676,
        "player_name": "Radoslav Kost",
        "rank": 78481,
        "rank_sort": 78610,
        "total": 2336
      },
      {
        "club_badge_src": "https://fantasy.premierleague.com/gcs/plfpl-production-adobe-approved/plfpl-production/1661582/262eb6c4-07fb-4a69-9290-537eb820e2d3.png",
        "entry": 1661582,
        "entry_name": "Sir Gareth Southgate",
        "event_total": 48,
        "has_played": true,
        "id": 11633103,
        "last_rank": 62223,
        "player_name": "George Stevens",
        "rank": 78481,
        "rank_sort": 78611,
        "total": 2336
      },
      {
        "club_badge_src": null,
        "entry": 1771390,
        "entry_name": "Bowen 747",
        "event_total": 65,
        "has_played": true,
        "id": 12443609,
        "last_rank": 98896,
        "player_name": "YBG Bushy",
        "rank": 78481,
        "rank_sort": 78612,
        "total": 2336
      },
      {
        "club_badge_src": null,
        "entry": 1818058,
        "entry_name": "Tidyverse Wanderers",
        "event_total": 51,
        "has_played": true,
        "id": 12785338,
        "last_rank": 67422,
        "player_name": "Sergio M",
        "rank": 78481,
        "rank_sort": 78613,
        "total": 2336
      },
      {
        "club_badge_src": "https://fantasy.premierleague.com/gcs/plfpl-production-adobe-approved/plfpl-production/1886318/c7870b02-27f1-48b7-8ec8-83e1681bc6fc.png",
        "entry": 1886318,
        "entry_name": "R\u00e6vholt",
        "event_total": 58,
        "has_played": true,
        "id": 13292124,
        "last_rank": 73423,
        "player_name": "H\u00e5kon Falldalen",
        "rank": 78481,
        "rank_sort": 78614,
        "total": 2336
      },
      {
        "club_badge_src": null,
        "entry": 1963864,
        "entry_name": "Never In Doubt.",
        "event_total": 61,
        "has_played": true,
        "id": 13856580,
        "last_rank": 79190,
        "player_name": "Pradip Khadka",
        "rank": 78481,
        "rank_sort": 78615,
        "total": 2336
      },
      {
        "club_badge_src": null,
        "entry": 1979216,
        "entry_name": "Wirtz Class",
        "event_total": 68,
        "has_played": true,
        "id": 13972925,
        "last_rank": 107162,
        "player_name": "Josh Malinowski",
        "rank": 78481,
        "rank_sort": 78616,
        "total": 2336
      },
      {
        "club_badge_src": null,
        "entry": 2048826,
        "entry_name": "Cigs, Beers, Paquet\u00e1",
        "event_total": 48,
        "has_played": true,
        "id": 14511115,
        "last_rank": 62429,
        "player_name": "Chris Nweze",
        "rank": 78481,
        "rank_sort": 78617,
        "total": 2336
      },
      {
        "club_badge_src": null,
        "entry": 2217426,
        "entry_name": "Sodanke",
        "event_total": 63,
        "has_played": true,
        "id": 15792272,
        "last_rank": 83934,
        "player_name": "George Hall",
        "rank": 78481,
        "rank_sort": 78618,
        "total": 2336
      },
      {
        "club_badge_src": null,
        "entry": 2261542,
        "entry_name": "ndiaye for the badge",
        "event_total": 60,
        "has_played": true,
        "id": 16123951,
        "last_rank": 87074,
        "player_name": "Sam Copland",
        "rank": 78481,
        "rank_sort": 78619,
        "total": 2336
      },
      {
        "club_badge_src": "https://fantasy.premierleague.com/gcs/plfpl-production-adobe-approved/plfpl-production/2397374/32d8da9d-2f68-4181-8d33-a51ed327bdac.png",
        "entry": 2397374,
        "entry_name": "Net Six and Chill",
        "event_total": 72,
        "has_played": true,
        "id": 17127095,
        "last_rank": 95890,
        "player_name": "Peter Speight",
        "rank": 78481,
        "rank_sort": 78620,
        "total": 2336
      },
      {
        "club_badge_src": null,
        "entry": 2420691,
        "entry_name": "Deutsch's_Dreamers",
        "event_total": 68,
        "has_played": true,
        "id": 17306113,
        "last_rank": 96374,
        "player_name": "Matt D",
        "rank": 78481,
        "rank_sort": 78621,
        "total": 2336
      },
      {
        "club_badge_src": null,
        "entry": 2422213,
        "entry_name": "lugaloochians 14",
        "event_total": 61,
        "has_played": true,
        "id": 17318074,
        "last_rank": 79817,
        "player_name": "Isaac Adediran",
        "rank": 78481,
        "rank_sort": 78622,
        "total": 2336
      },
      {
        "club_badge_src": null,
        "entry": 2465509,
        "entry_name": "chrollo",
        "event_total": 45,
        "has_played": true,
        "id": 17636189,
        "last_rank": 57200,
        "player_name": "Jaydon Owens",
        "rank": 78481,
        "rank_sort": 78623,
        "total": 2336
      },
      {
        "club_badge_src": null,
        "entry": 2530686,
        "entry_name": "BJ DOG",
        "event_total": 42,
        "has_played": true,
        "id": 18134200,
        "last_rank": 45714,
        "player_name": "Jon Essex",
        "rank": 78481,
        "rank_sort": 78624,
        "total": 2336
      },
      {
        "club_badge_src": "https://fantasy.premierleague.com/gcs/plfpl-production-adobe-approved/plfpl-production/2554787/b3f4e5ee-2ffc-43d1-a97c-1e4094c7b2f0.png",
        "entry": 2554787,
        "entry_name": "Kinder Mbeumo",
        "event_total": 70,
        "has_played": true,
        "id": 18318975,
        "last_rank": 112169,
        "player_name": "Stephen Clark",
        "rank": 78481,
        "rank_sort": 78625,
        "total": 2336
      },
      {
        "club_badge_src": null,
        "entry": 2565517,
        "entry_name": "Winx",
        "event_total": 58,
        "has_played": true,
        "id": 18403165,
        "last_rank": 82069,
        "player_name": "Matt Slack",
        "rank": 78481,
        "rank_sort": 78626,
        "total": 2336
      },
      {
        "club_badge_src": "https://fantasy.premierleague.com/gcs/plfpl-production-adobe-approved/plfpl-production/2571509/1de1a66a-e6f3-4db6-aabd-6c56529a92d2.png",
        "entry": 2571509,
        "entry_name": "PoloniaGunners",
        "event_total": 39,
        "has_played": true,
        "id": 18451716,
        "last_rank": 47417,
        "player_name": "Tomasz Kurdziel",
        "rank": 78481,
        "rank_sort": 78627,
        "total": 2336
      },
      {
        "club_badge_src": null,
        "entry": 2589607,
        "entry_name": "Saka Khan",
        "event_total": 50,
        "has_played": true,
        "id": 18591545,
        "last_rank": 65796,
        "player_name": "Cerith White",
        "rank": 78481,
        "rank_sort": 78628,
        "total": 2336
      },
      {
        "club_badge_src": null,
        "entry": 2670944,
        "entry_name": "A Cuhna Mateta",
        "event_total": 39,
        "has_played": true,
        "id": 19203405,
        "last_rank": 47417,
        "player_name": "David Killeen",
        "rank": 78481,
        "rank_sort": 78629,
        "total": 2336
      },
      {
        "club_badge_src": null,
        "entry": 2676488,
        "entry_name": "PSV Wellington Place",
        "event_total": 57,
        "has_played": true,
        "id": 19246086,
        "last_rank": 80194,
        "player_name": "Paul Swift",
        "rank": 78481,
        "rank_sort": 78630,
        "total": 2336
      },
      {
        "club_badge_src": null,
        "entry": 2765029,
        "entry_name": "Ctrl Alt De Ligt",
        "event_total": 55,
        "has_played": true,
        "id": 20172975,
        "last_rank": 75537,
        "player_name": "August Fred\u00f8",
        "rank": 78481,
        "rank_sort": 78631,
        "total": 2336
      },
      {
        "club_badge_src": null,
        "entry": 2776189,
        "entry_name": "Hakuna Mateta",
        "event_total": 70,
        "has_played": true,
        "id": 20260139,
        "last_rank": 112591,
        "player_name": "Callum Davies",
        "rank": 78481,
        "rank_sort": 78632,
        "total": 2336
      },
      {
        "club_badge_src": null,
        "entry": 2779721,
        "entry_name": "nbtobby",
        "event_total": 52,
        "has_played": true,
        "id": 20287588,
        "last_rank": 69641,
        "player_name": "NB Tobby",
        "rank": 78481,
        "rank_sort": 78633,
        "total": 2336
      },
      {
        "club_badge_src": "https://fantasy.premierleague.com/gcs/plfpl-production-adobe-approved/plfpl-production/2780661/8e29044f-d269-46cb-bcb0-84d2b3e26bd4.png",
        "entry": 2780661,
        "entry_name": "Hulksters Be Trippin",
        "event_total": 57,
        "has_played": true,
        "id": 20296538,
        "last_rank": 79817,
        "player_name": "Alan Deegan",
        "rank": 78481,
        "rank_sort": 78634,
        "total": 2336
      },
      {
        "club_badge_src": "https://fantasy.premierleague.com/gcs/plfpl-production-adobe-approved/plfpl-production/2813809/7984870f-80be-468e-a5b9-64915f0f48fa.png",
        "entry": 2813809,
        "entry_name": "Djalil team",
        "event_total": 57,
        "has_played": true,
        "id": 20552087,
        "last_rank": 79817,
        "player_name": "Djalil Nasri",
        "rank": 78481,
        "rank_sort": 78635,
        "total": 2336
      },
      {
        "club_badge_src": null,
        "entry": 2823826,
        "entry_name": "Theatre of screams",
        "event_total": 63,
        "has_played": true,
        "id": 20631099,
        "last_rank": 94255,
        "player_name": "Vignesh Chandran",
        "rank": 78481,
        "rank_sort": 78636,
        "total": 2336
      },
      {
        "club_badge_src": null,
        "entry": 2834805,
        "entry_name": "Mekn\u00e8s red men \ufffd",
        "event_total": 77,
        "has_played": true,
        "id": 20715999,
        "last_rank": 133328,
        "player_name": "Ismail kherisse \ud83c\uddf2\ud83c\udde6\ud83c\uddf5\ud83c\uddf8",
        "rank": 78481,
        "rank_sort": 78637,
        "total": 2336
      },
      {
        "club_badge_src": null,
        "entry": 2837246,
        "entry_name": "AbraDubravka",
        "event_total": 39,
        "has_played": true,
        "id": 20735070,
        "last_rank": 47417,
        "player_name": "Martin Jenkins",
        "rank": 78481,
        "rank_sort": 78638,
        "total": 2336
      },
      {
        "club_badge_src": "https://fantasy.premierleague.com/gcs/plfpl-production-adobe-approved/plfpl-production/2875787/e7f6889c-85c1-4de6-9e9f-e566a125218c.png",
        "entry": 2875787,
        "entry_name": "StellaRossa",
        "event_total": 48,
        "has_played": true,
        "id": 21047370,
        "last_rank": 61950,
        "player_name": "ivan kovacevic",
        "rank": 78481,
        "rank_sort": 78639,
        "total": 2336
      },
      {
        "club_badge_src": "https://fantasy.premierleague.com/gcs/plfpl-production-adobe-approved/plfpl-production/2889986/742537e5-5c8d-431f-9395-b0ca3f096b35.png",
        "entry": 2889986,
        "entry_name": "mo essam",
        "event_total": 65,
        "has_played": true,
        "id": 21160322,
        "last_rank": 99296,
        "player_name": "Mohamed Essam",
        "rank": 78481,
        "rank_sort": 78640,
        "total": 2336
      },
      {
        "club_badge_src": null,
        "entry": 2901459,
        "entry_name": "Ctrl Alt De Ligt",
        "event_total": 76,
        "has_played": true,
        "id": 21262278,
        "last_rank": 129043,
        "player_name": "Phillip Warh\u00f8i",
        "rank": 78481,
        "rank_sort": 78641,
        "total": 2336
      },
      {
        "club_badge_src": null,
        "entry": 2977641,
        "entry_name": "PF Juventus",
        "event_total": 72,
        "has_played": true,
        "id": 21885750,
        "last_rank": 117112,
        "player_name": "Jos Tre",
        "rank": 78481,
        "rank_sort": 78642,
        "total": 2336
      },
      {
        "club_badge_src": null,
        "entry": 3046470,
        "entry_name": "GadekarSankyy",
        "event_total": 63,
        "has_played": true,
        "id": 22426186,
        "last_rank": 93883,
        "player_name": "sanket gadekar",
        "rank": 78481,
        "rank_sort": 78643,
        "total": 2336
      },
      {
        "club_badge_src": null,
        "entry": 3155151,
        "entry_name": "Zubi-dubi-doo",
        "event_total": 58,
        "has_played": true,
        "id": 23302763,
        "last_rank": 82069,
        "player_name": "Aidan Barton",
        "rank": 78481,
        "rank_sort": 78644,
        "total": 2336
      },
      {
        "club_badge_src": null,
        "entry": 3162339,
        "entry_name": "Dalot of Trouble",
        "event_total": 78,
        "has_played": true,
        "id": 23361496,
        "last_rank": 137086,
        "player_name": "Ray O'Mahony",
        "rank": 78481,
        "rank_sort": 78645,
        "total": 2336
      },
      {
        "club_badge_src": null,
        "entry": 3191321,
        "entry_name": "VR Team",
        "event_total": 50,
        "has_played": true,
        "id": 23585569,
        "last_rank": 57857,
        "player_name": "Ricardo Santos",
        "rank": 78481,
        "rank_sort": 78646,
        "total": 2336
      },
      {
        "club_badge_src": null,
        "entry": 3206189,
        "entry_name": "ALL STAR \u2b50\u2728\ufffd",
        "event_total": 53,
        "has_played": true,
        "id": 23702453,
        "last_rank": 71956,
        "player_name": "samuel fatoba",
        "rank": 78481,
        "rank_sort": 78647,
        "total": 2336
      },
      {
        "club_badge_src": "https://fantasy.premierleague.com/gcs/plfpl-production-adobe-approved/plfpl-production/3240427/84777240-06ed-4c34-884f-bbb676ab512b.png",
        "entry": 3240427,
        "entry_name": "De Gy\u00f6k Knight Rises",
        "event_total": 62,
        "has_played": true,
        "id": 23968573,
        "last_rank": 82069,
        "player_name": "John Ferguson",
        "rank": 78481,
        "rank_sort": 78648,
        "total": 2336
      },
      {
        "club_badge_src": "https://fantasy.premierleague.com/gcs/plfpl-production-adobe-approved/plfpl-production/3267869/bf98c243-2ecf-45a5-a3b6-28cbae3a5e1d.png",
        "entry": 3267869,
        "entry_name": "Hakuna Matata",
        "event_total": 67,
        "has_played": true,
        "id": 24182768,
        "last_rank": 104388,
        "player_name": "Tesi Latu",
        "rank": 78481,
        "rank_sort": 78649,
        "total": 2336
      },
      {
        "club_badge_src": null,
        "entry": 3278394,
        "entry_name": "THE RED FORCE25/26",
        "event_total": 47,
        "has_played": true,
        "id": 24264841,
        "last_rank": 46660,
        "player_name": "Syivester Lim",
        "rank": 78481,
        "rank_sort": 78650,
        "total": 2336
      }
    ]
  }
}