{
  "last_updated_data": "2026-05-24T23:28:17Z",
  "league": {
    "admin_entry": null,
    "closed": false,
    "code_privacy": "p",
    "created": "2025-07-20T23:14:33.933835Z",
    "cup_league": 2815434,
    "has_cup": true,
    "id": 314,
    "league_type": "s",
    "max_entries": null,
    "name": "Overall",
    "rank": null,
    "scoring": "c",
    "start_event": 1
  },
  "new_entries": {
    "has_next": false,
    "page": 1,
    "results": []
  },
  "standings": {
    "has_next": true,
    "page": 746,
    "results": [
      {
        "club_badge_src": null,
        "entry": 3055753,
        "entry_name": "Cocomelon FC",
        "event_total": 65,
        "has_played": true,
        "id": 22496978,
        "last_rank": 42293,
        "player_name": "Brian Kori",
        "rank": 37244,
        "rank_sort": 37251,
        "total": 2362
      },
      {
        "club_badge_src": null,
        "entry": 3435172,
        "entry_name": "THE-A-TEAM",
        "event_total": 61,
        "has_played": true,
        "id": 25519544,
        "last_rank": 42314,
        "player_name": "Melvin Mutembo",
        "rank": 37244,
        "rank_sort": 37252,
        "total": 2362
      },
      {
        "club_badge_src": null,
        "entry": 3740836,
        "entry_name": "White Ben Can't Jump",
        "event_total": 68,
        "has_played": true,
        "id": 27924623,
        "last_rank": 46432,
        "player_name": "R N",
        "rank": 37244,
        "rank_sort": 37253,
        "total": 2362
      },
      {
        "club_badge_src": null,
        "entry": 3905809,
        "entry_name": "Harcama Limiti",
        "event_total": 65,
        "has_played": true,
        "id": 29363473,
        "last_rank": 47950,
        "player_name": "\u00c7a\u011fatay Uysal",
        "rank": 37244,
        "rank_sort": 37254,
        "total": 2362
      },
      {
        "club_badge_src": null,
        "entry": 4371568,
        "entry_name": "McWinner",
        "event_total": 72,
        "has_played": true,
        "id": 33212109,
        "last_rank": 59335,
        "player_name": "Dan McDermott",
        "rank": 37244,
        "rank_sort": 37255,
        "total": 2362
      },
      {
        "club_badge_src": "https://fantasy.premierleague.com/gcs/plfpl-production-adobe-approved/plfpl-production/4401545/e8cc33ee-d6f7-4664-a6c0-ca6430eec3b1.png",
        "entry": 4401545,
        "entry_name": "Gagging 4 Amorim",
        "event_total": 65,
        "has_played": true,
        "id": 33474997,
        "last_rank": 42263,
        "player_name": "Wee Li Wong",
        "rank": 37244,
        "rank_sort": 37256,
        "total": 2362
      },
      {
        "club_badge_src": null,
        "entry": 8060160,
        "entry_name": "Racing Goonerfam",
        "event_total": 86,
        "has_played": true,
        "id": 66429486,
        "last_rank": 78782,
        "player_name": "Matthew Annoni",
        "rank": 37244,
        "rank_sort": 37257,
        "total": 2362
      },
      {
        "club_badge_src": null,
        "entry": 8806785,
        "entry_name": "LMF",
        "event_total": 59,
        "has_played": true,
        "id": 73610468,
        "last_rank": 30395,
        "player_name": "Tony Chung",
        "rank": 37244,
        "rank_sort": 37258,
        "total": 2362
      },
      {
        "club_badge_src": null,
        "entry": 1875,
        "entry_name": "Jessheimgutta",
        "event_total": 71,
        "has_played": true,
        "id": 10450,
        "last_rank": 45007,
        "player_name": "Endre Stakvik",
        "rank": 37259,
        "rank_sort": 37259,
        "total": 2362
      },
      {
        "club_badge_src": null,
        "entry": 63628,
        "entry_name": "Thomas the Frank Eng",
        "event_total": 52,
        "has_played": true,
        "id": 410568,
        "last_rank": 23919,
        "player_name": "Jason Guy",
        "rank": 37259,
        "rank_sort": 37260,
        "total": 2362
      },
      {
        "club_badge_src": null,
        "entry": 426129,
        "entry_name": "LksBrzu\u015bnik",
        "event_total": 66,
        "has_played": true,
        "id": 2856742,
        "last_rank": 38448,
        "player_name": "Grzegorz Howaniec",
        "rank": 37259,
        "rank_sort": 37261,
        "total": 2362
      },
      {
        "club_badge_src": null,
        "entry": 587892,
        "entry_name": "Claret  & Blue Army",
        "event_total": 47,
        "has_played": true,
        "id": 3958018,
        "last_rank": 26576,
        "player_name": "Michael Bowker",
        "rank": 37259,
        "rank_sort": 37262,
        "total": 2362
      },
      {
        "club_badge_src": null,
        "entry": 995480,
        "entry_name": "Bashir Al madani",
        "event_total": 48,
        "has_played": true,
        "id": 6870911,
        "last_rank": 23930,
        "player_name": "Bashir Al_madani",
        "rank": 37259,
        "rank_sort": 37263,
        "total": 2362
      },
      {
        "club_badge_src": null,
        "entry": 1233093,
        "entry_name": "Pepperoni",
        "event_total": 40,
        "has_played": true,
        "id": 8562762,
        "last_rank": 20782,
        "player_name": "Jose Manuel Hernaiz",
        "rank": 37259,
        "rank_sort": 37264,
        "total": 2362
      },
      {
        "club_badge_src": null,
        "entry": 2123852,
        "entry_name": "Upsheflew\u2026.",
        "event_total": 68,
        "has_played": true,
        "id": 15087618,
        "last_rank": 40959,
        "player_name": "MICK LALLY",
        "rank": 37259,
        "rank_sort": 37265,
        "total": 2362
      },
      {
        "club_badge_src": null,
        "entry": 4304293,
        "entry_name": "50 Shades of Bruno",
        "event_total": 60,
        "has_played": true,
        "id": 32656639,
        "last_rank": 40986,
        "player_name": "Shea McAleer",
        "rank": 37259,
        "rank_sort": 37266,
        "total": 2362
      },
      {
        "club_badge_src": null,
        "entry": 7155554,
        "entry_name": "Taambdi Chaambdi",
        "event_total": 64,
        "has_played": true,
        "id": 57708872,
        "last_rank": 46454,
        "player_name": "Akash Tewari",
        "rank": 37259,
        "rank_sort": 37267,
        "total": 2362
      },
      {
        "club_badge_src": "https://fantasy.premierleague.com/gcs/plfpl-production-adobe-approved/plfpl-production/8354941/c3feeb34-b745-42cd-a3ae-90ca2cccab8a.png",
        "entry": 8354941,
        "entry_name": "Selaocovic",
        "event_total": 53,
        "has_played": true,
        "id": 69249040,
        "last_rank": 32586,
        "player_name": "Selaocoe Motsabi",
        "rank": 37259,
        "rank_sort": 37268,
        "total": 2362
      },
      {
        "club_badge_src": null,
        "entry": 8473571,
        "entry_name": "Sutty united",
        "event_total": 58,
        "has_played": true,
        "id": 70378780,
        "last_rank": 38469,
        "player_name": "Craig Sutton",
        "rank": 37259,
        "rank_sort": 37269,
        "total": 2362
      },
      {
        "club_badge_src": null,
        "entry": 190724,
        "entry_name": "Thad Castle",
        "event_total": 78,
        "has_played": true,
        "id": 1263079,
        "last_rank": 70493,
        "player_name": "Sam W",
        "rank": 37270,
        "rank_sort": 37270,
        "total": 2362
      },
      {
        "club_badge_src": null,
        "entry": 1260247,
        "entry_name": "Toon Army",
        "event_total": 64,
        "has_played": true,
        "id": 8754198,
        "last_rank": 36031,
        "player_name": "Igor Ilievski",
        "rank": 37270,
        "rank_sort": 37271,
        "total": 2362
      },
      {
        "club_badge_src": "https://fantasy.premierleague.com/gcs/plfpl-production-adobe-approved/plfpl-production/1363658/a9f46678-2420-493d-8eed-2769a389532c.png",
        "entry": 1363658,
        "entry_name": "THANGTHONG PPFC.",
        "event_total": 57,
        "has_played": true,
        "id": 9479907,
        "last_rank": 32598,
        "player_name": "Parunyoo Thangthong",
        "rank": 37270,
        "rank_sort": 37272,
        "total": 2362
      },
      {
        "club_badge_src": null,
        "entry": 1717772,
        "entry_name": "Saka Time",
        "event_total": 52,
        "has_played": true,
        "id": 12038407,
        "last_rank": 31480,
        "player_name": "Sophie Dalton",
        "rank": 37270,
        "rank_sort": 37273,
        "total": 2362
      },
      {
        "club_badge_src": null,
        "entry": 1890662,
        "entry_name": "Agun Fc",
        "event_total": 65,
        "has_played": true,
        "id": 13325355,
        "last_rank": 48000,
        "player_name": "Mahfujur Rahman Limaz",
        "rank": 37270,
        "rank_sort": 37274,
        "total": 2362
      },
      {
        "club_badge_src": null,
        "entry": 4198985,
        "entry_name": "Jeanstonians",
        "event_total": 60,
        "has_played": true,
        "id": 31783488,
        "last_rank": 41003,
        "player_name": "Will Jeans",
        "rank": 37270,
        "rank_sort": 37275,
        "total": 2362
      },
      {
        "club_badge_src": "https://fantasy.premierleague.com/gcs/plfpl-production-adobe-approved/plfpl-production/238035/ab8356c5-c228-4a16-b4e4-fe98b8bea28e.png",
        "entry": 238035,
        "entry_name": "Winners FC",
        "event_total": 36,
        "has_played": true,
        "id": 1583638,
        "last_rank": 13107,
        "player_name": "Amr Saleh",
        "rank": 37276,
        "rank_sort": 37276,
        "total": 2362
      },
      {
        "club_badge_src": "https://fantasy.premierleague.com/gcs/plfpl-production-adobe-approved/plfpl-production/612767/07eacbce-c790-4d42-a327-0aaea52f2710.png",
        "entry": 612767,
        "entry_name": "OMONOIA 29M",
        "event_total": 54,
        "has_played": true,
        "id": 4140476,
        "last_rank": 29443,
        "player_name": "michalis charalampous",
        "rank": 37276,
        "rank_sort": 37277,
        "total": 2362
      },
      {
        "club_badge_src": "https://fantasy.premierleague.com/gcs/plfpl-production-adobe-approved/plfpl-production/1590502/986d7fdb-3d15-46c9-83c8-d1de3e2742cb.png",
        "entry": 1590502,
        "entry_name": "DoesntGetMuchWirtz",
        "event_total": 57,
        "has_played": true,
        "id": 11121282,
        "last_rank": 37276,
        "player_name": "Peter Gibbons",
        "rank": 37276,
        "rank_sort": 37278,
        "total": 2362
      },
      {
        "club_badge_src": null,
        "entry": 2017250,
        "entry_name": "Jesus Rice Superstar",
        "event_total": 57,
        "has_played": true,
        "id": 14271459,
        "last_rank": 32604,
        "player_name": "Jamie Giles",
        "rank": 37276,
        "rank_sort": 37279,
        "total": 2362
      },
      {
        "club_badge_src": null,
        "entry": 4960040,
        "entry_name": "Nemesis",
        "event_total": 62,
        "has_played": true,
        "id": 38275422,
        "last_rank": 43695,
        "player_name": "Am Godzillah",
        "rank": 37276,
        "rank_sort": 37280,
        "total": 2362
      },
      {
        "club_badge_src": "https://fantasy.premierleague.com/gcs/plfpl-production-adobe-approved/plfpl-production/75245/cbe5c900-0c20-4c9c-9a4e-85cf20232847.png",
        "entry": 75245,
        "entry_name": "\u0641\u0648\u0631\u0645\u0627\u064a\u0643\u0627",
        "event_total": 63,
        "has_played": true,
        "id": 489197,
        "last_rank": 39740,
        "player_name": "\u0641\u0648\u0631\u0645\u0627\u064a\u0643\u0627 \u0641\u0648\u0631\u0645\u0627\u064a\u0643\u0627",
        "rank": 37281,
        "rank_sort": 37281,
        "total": 2362
      },
      {
        "club_badge_src": null,
        "entry": 883744,
        "entry_name": "Ramps Yardie",
        "event_total": 69,
        "has_played": true,
        "id": 6060788,
        "last_rank": 54304,
        "player_name": "Ferdy Nard",
        "rank": 37281,
        "rank_sort": 37282,
        "total": 2362
      },
      {
        "club_badge_src": null,
        "entry": 1358587,
        "entry_name": "Trotters Independent",
        "event_total": 64,
        "has_played": true,
        "id": 9443600,
        "last_rank": 46490,
        "player_name": "Mihajlo Zivanovic",
        "rank": 37281,
        "rank_sort": 37283,
        "total": 2362
      },
      {
        "club_badge_src": null,
        "entry": 1880322,
        "entry_name": "Fodeeen",
        "event_total": 57,
        "has_played": true,
        "id": 13248322,
        "last_rank": 37291,
        "player_name": "Fodil kdr",
        "rank": 37281,
        "rank_sort": 37284,
        "total": 2362
      },
      {
        "club_badge_src": null,
        "entry": 2370824,
        "entry_name": "PG Tips",
        "event_total": 53,
        "has_played": true,
        "id": 16924183,
        "last_rank": 32613,
        "player_name": "Paul Gowers",
        "rank": 37281,
        "rank_sort": 37285,
        "total": 2362
      },
      {
        "club_badge_src": null,
        "entry": 9169486,
        "entry_name": "DOW",
        "event_total": 39,
        "has_played": true,
        "id": 77132149,
        "last_rank": 20095,
        "player_name": "Hasan Aldow",
        "rank": 37281,
        "rank_sort": 37286,
        "total": 2362
      },
      {
        "club_badge_src": "https://fantasy.premierleague.com/gcs/plfpl-production-adobe-approved/plfpl-production/322704/88101678-3a90-4bea-9653-deedbda8d0d9.png",
        "entry": 322704,
        "entry_name": "JayBees",
        "event_total": 34,
        "has_played": true,
        "id": 2162485,
        "last_rank": 16663,
        "player_name": "Jan B\u00fceler",
        "rank": 37287,
        "rank_sort": 37287,
        "total": 2362
      },
      {
        "club_badge_src": null,
        "entry": 525768,
        "entry_name": "uHaveFailedThisCity",
        "event_total": 53,
        "has_played": true,
        "id": 3533849,
        "last_rank": 28496,
        "player_name": "Arrow Reis",
        "rank": 37287,
        "rank_sort": 37288,
        "total": 2362
      },
      {
        "club_badge_src": "https://fantasy.premierleague.com/gcs/plfpl-production-adobe-approved/plfpl-production/565914/decb4341-668c-4a69-bb99-570afc891793.png",
        "entry": 565914,
        "entry_name": "pl nico cfc",
        "event_total": 74,
        "has_played": true,
        "id": 3809018,
        "last_rank": 49492,
        "player_name": "Nicolas Bernabo",
        "rank": 37287,
        "rank_sort": 37289,
        "total": 2362
      },
      {
        "club_badge_src": null,
        "entry": 4152101,
        "entry_name": "Zirkzee & I Know It",
        "event_total": 70,
        "has_played": true,
        "id": 31383393,
        "last_rank": 49499,
        "player_name": "Shaun McGrath",
        "rank": 37287,
        "rank_sort": 37290,
        "total": 2362
      },
      {
        "club_badge_src": null,
        "entry": 8137827,
        "entry_name": "Assassins",
        "event_total": 43,
        "has_played": true,
        "id": 67154233,
        "last_rank": 23133,
        "player_name": "Ntando Dhlamini",
        "rank": 37287,
        "rank_sort": 37291,
        "total": 2362
      },
      {
        "club_badge_src": "https://fantasy.premierleague.com/gcs/plfpl-production-adobe-approved/plfpl-production/213895/120a2186-9d81-4b11-b751-ee3ffa3329bd.png",
        "entry": 213895,
        "entry_name": "CalBob XI",
        "event_total": 58,
        "has_played": true,
        "id": 1422927,
        "last_rank": 29454,
        "player_name": "Callum Ross",
        "rank": 37292,
        "rank_sort": 37292,
        "total": 2362
      },
      {
        "club_badge_src": null,
        "entry": 247217,
        "entry_name": "AmnatLFC",
        "event_total": 70,
        "has_played": true,
        "id": 1645610,
        "last_rank": 43701,
        "player_name": "Amnat Warahapaitoon",
        "rank": 37292,
        "rank_sort": 37293,
        "total": 2362
      },
      {
        "club_badge_src": "https://fantasy.premierleague.com/gcs/plfpl-production-adobe-approved/plfpl-production/301314/163f589b-2f36-4277-ba5f-12f0f7ed33b1.png",
        "entry": 301314,
        "entry_name": "BA BOYS FC",
        "event_total": 63,
        "has_played": true,
        "id": 2015854,
        "last_rank": 34894,
        "player_name": "living Trust-\ud83c\uddfa\ud83c\uddec",
        "rank": 37292,
        "rank_sort": 37294,
        "total": 2362
      },
      {
        "club_badge_src": null,
        "entry": 5434066,
        "entry_name": "The Daisydod Massive",
        "event_total": 65,
        "has_played": true,
        "id": 42271374,
        "last_rank": 42367,
        "player_name": "Daisy Bawn",
        "rank": 37292,
        "rank_sort": 37295,
        "total": 2362
      },
      {
        "club_badge_src": null,
        "entry": 6113951,
        "entry_name": "Ahmed",
        "event_total": 60,
        "has_played": true,
        "id": 48297769,
        "last_rank": 36070,
        "player_name": "Ahmed Matar",
        "rank": 37296,
        "rank_sort": 37296,
        "total": 2362
      },
      {
        "club_badge_src": null,
        "entry": 1151328,
        "entry_name": "Ultragin",
        "event_total": 64,
        "has_played": true,
        "id": 7982903,
        "last_rank": 36073,
        "player_name": "Awad Ibrahim",
        "rank": 37297,
        "rank_sort": 37297,
        "total": 2362
      },
      {
        "club_badge_src": null,
        "entry": 1368890,
        "entry_name": "abdullah sh.ebrahim",
        "event_total": 73,
        "has_played": true,
        "id": 9515706,
        "last_rank": 37294,
        "player_name": "abdullah sh.ebrahim",
        "rank": 37297,
        "rank_sort": 37298,
        "total": 2362
      },
      {
        "club_badge_src": null,
        "entry": 8086906,
        "entry_name": "Kinder Mbuemo",
        "event_total": 58,
        "has_played": true,
        "id": 66679584,
        "last_rank": 38504,
        "player_name": "Henry Nguyen",
        "rank": 37299,
        "rank_sort": 37299,
        "total": 2362
      },
      {
        "club_badge_src": null,
        "entry": 1737899,
        "entry_name": "Lykkmarka Rovers",
        "event_total": 62,
        "has_played": true,
        "id": 12192509,
        "last_rank": 43722,
        "player_name": "P\u00e5l Skogli",
        "rank": 37300,
        "rank_sort": 37300,
        "total": 2362
      }
    ]
  }
}