{
  "last_updated_data": "2026-05-24T23:28:17Z",
  "league": {
    "admin_entry": null,
    "closed": false,
    "code_privacy": "p",
    "created": "2025-07-20T23:14:33.933835Z",
    "cup_league": 2815434,
    "has_cup": true,
    "id": 314,
    "league_type": "s",
    "max_entries": null,
    "name": "Overall",
    "rank": null,
    "scoring": "c",
    "start_event": 1
  },
  "new_entries": {
    "has_next": false,
    "page": 1,
    "results": []
  },
  "standings": {
    "has_next": true,
    "page": 16,
    "results": [
      {
        "club_badge_src": null,
        "entry": 246936,
        "entry_name": "Niki Naka",
        "event_total": 61,
        "has_played": true,
        "id": 1643818,
        "last_rank": 825,
        "player_name": "Nick S",
        "rank": 750,
        "rank_sort": 751,
        "total": 2453
      },
      {
        "club_badge_src": "https://fantasy.premierleague.com/gcs/plfpl-production-adobe-approved/plfpl-production/707817/930105fc-7e85-46b7-8d20-c0523a797b63.png",
        "entry": 707817,
        "entry_name": "\u7d10\u5361\u7d20\u5c0f\u92fc\u70ae",
        "event_total": 67,
        "has_played": true,
        "id": 4797192,
        "last_rank": 1121,
        "player_name": "\u8d85\u4ed4 \u975a",
        "rank": 750,
        "rank_sort": 752,
        "total": 2453
      },
      {
        "club_badge_src": null,
        "entry": 1349841,
        "entry_name": "To me, to you.",
        "event_total": 78,
        "has_played": true,
        "id": 9384017,
        "last_rank": 1978,
        "player_name": "Bradley Treagust",
        "rank": 750,
        "rank_sort": 753,
        "total": 2453
      },
      {
        "club_badge_src": "https://fantasy.premierleague.com/gcs/plfpl-production-adobe-approved/plfpl-production/1403497/0f40810c-9c71-4a5e-94aa-1db88a6b220f.png",
        "entry": 1403497,
        "entry_name": "Winliam34",
        "event_total": 58,
        "has_played": true,
        "id": 9765328,
        "last_rank": 704,
        "player_name": "Thammanoon Rattanamusik",
        "rank": 750,
        "rank_sort": 754,
        "total": 2453
      },
      {
        "club_badge_src": null,
        "entry": 1652359,
        "entry_name": "Animals",
        "event_total": 57,
        "has_played": true,
        "id": 11568321,
        "last_rank": 665,
        "player_name": "Dima Melikidze",
        "rank": 750,
        "rank_sort": 755,
        "total": 2453
      },
      {
        "club_badge_src": null,
        "entry": 2467362,
        "entry_name": "MLT Crisis Actor XI",
        "event_total": 63,
        "has_played": true,
        "id": 17649713,
        "last_rank": 922,
        "player_name": "Archie Bland",
        "rank": 750,
        "rank_sort": 756,
        "total": 2453
      },
      {
        "club_badge_src": "https://fantasy.premierleague.com/gcs/plfpl-production-adobe-approved/plfpl-production/2483448/6739bf51-b8e5-4709-9b47-eb535e94d763.png",
        "entry": 2483448,
        "entry_name": "Victorem FC",
        "event_total": 66,
        "has_played": true,
        "id": 17770782,
        "last_rank": 1065,
        "player_name": "Henrik Qureshi",
        "rank": 750,
        "rank_sort": 757,
        "total": 2453
      },
      {
        "club_badge_src": null,
        "entry": 3163492,
        "entry_name": "9 medelstora r\u00e4kor",
        "event_total": 63,
        "has_played": true,
        "id": 23370340,
        "last_rank": 926,
        "player_name": "Johan Brodin",
        "rank": 750,
        "rank_sort": 758,
        "total": 2453
      },
      {
        "club_badge_src": null,
        "entry": 7086363,
        "entry_name": "ABZ",
        "event_total": 76,
        "has_played": true,
        "id": 57046987,
        "last_rank": 1752,
        "player_name": "abdul saeed",
        "rank": 750,
        "rank_sort": 759,
        "total": 2453
      },
      {
        "club_badge_src": "https://fantasy.premierleague.com/gcs/plfpl-production-adobe-approved/plfpl-production/9332228/1481cebb-9912-41f6-995a-e9237a1a64fe.png",
        "entry": 9332228,
        "entry_name": "Very Riiice I Liiike",
        "event_total": 65,
        "has_played": true,
        "id": 78718233,
        "last_rank": 1031,
        "player_name": "Tom Courtney",
        "rank": 750,
        "rank_sort": 760,
        "total": 2453
      },
      {
        "club_badge_src": null,
        "entry": 393068,
        "entry_name": "Jose Mourinho",
        "event_total": 64,
        "has_played": true,
        "id": 2636333,
        "last_rank": 782,
        "player_name": "Shan Shangh",
        "rank": 761,
        "rank_sort": 761,
        "total": 2453
      },
      {
        "club_badge_src": null,
        "entry": 616891,
        "entry_name": "Faabergs farligste",
        "event_total": 54,
        "has_played": true,
        "id": 4168170,
        "last_rank": 573,
        "player_name": "H\u00e5vard R\u00f8nning",
        "rank": 761,
        "rank_sort": 762,
        "total": 2453
      },
      {
        "club_badge_src": null,
        "entry": 1404335,
        "entry_name": "Will Still's FM Save",
        "event_total": 63,
        "has_played": true,
        "id": 9771184,
        "last_rank": 748,
        "player_name": "Alex Williams",
        "rank": 761,
        "rank_sort": 763,
        "total": 2453
      },
      {
        "club_badge_src": null,
        "entry": 6609205,
        "entry_name": "KuduShudaWuda FC",
        "event_total": 49,
        "has_played": true,
        "id": 52802815,
        "last_rank": 443,
        "player_name": "Tom\u00e1s OhOist\u00edn",
        "rank": 761,
        "rank_sort": 764,
        "total": 2453
      },
      {
        "club_badge_src": null,
        "entry": 8633667,
        "entry_name": "Maybe Next Year",
        "event_total": 48,
        "has_played": true,
        "id": 71923601,
        "last_rank": 412,
        "player_name": "Joseph McGivney",
        "rank": 761,
        "rank_sort": 765,
        "total": 2453
      },
      {
        "club_badge_src": null,
        "entry": 240875,
        "entry_name": "Penwortham FC",
        "event_total": 61,
        "has_played": true,
        "id": 1603195,
        "last_rank": 848,
        "player_name": "Roger Monk",
        "rank": 766,
        "rank_sort": 766,
        "total": 2453
      },
      {
        "club_badge_src": "https://fantasy.premierleague.com/gcs/plfpl-production-adobe-approved/plfpl-production/370547/e5e12f6f-f66e-45c9-af11-f25f5c76bbcb.png",
        "entry": 370547,
        "entry_name": "Deadly Dalmanians",
        "event_total": 62,
        "has_played": true,
        "id": 2479561,
        "last_rank": 904,
        "player_name": "Curtis Chapman",
        "rank": 766,
        "rank_sort": 767,
        "total": 2453
      },
      {
        "club_badge_src": "https://fantasy.premierleague.com/gcs/plfpl-production-adobe-approved/plfpl-production/1130410/23291802-1e4f-494c-b21a-6830fe0cecab.png",
        "entry": 1130410,
        "entry_name": "Michael Scofield",
        "event_total": 55,
        "has_played": true,
        "id": 7835010,
        "last_rank": 609,
        "player_name": "Ziad Alrefaey",
        "rank": 766,
        "rank_sort": 768,
        "total": 2453
      },
      {
        "club_badge_src": null,
        "entry": 5182403,
        "entry_name": "Roronoa Zoro",
        "event_total": 58,
        "has_played": true,
        "id": 40114567,
        "last_rank": 727,
        "player_name": "Michael Michaelides",
        "rank": 766,
        "rank_sort": 769,
        "total": 2453
      },
      {
        "club_badge_src": null,
        "entry": 7809411,
        "entry_name": "This is my year FC",
        "event_total": 62,
        "has_played": true,
        "id": 64158412,
        "last_rank": 896,
        "player_name": "Leon Greenland",
        "rank": 766,
        "rank_sort": 770,
        "total": 2453
      },
      {
        "club_badge_src": "https://fantasy.premierleague.com/gcs/plfpl-production-adobe-approved/plfpl-production/137964/1c015f8f-edf6-44ea-b0db-eebcd644aaf1.png",
        "entry": 137964,
        "entry_name": "Winter is HAALAND\u2744\ufe0f\u26a1",
        "event_total": 50,
        "has_played": true,
        "id": 899699,
        "last_rank": 468,
        "player_name": "Christos Karei",
        "rank": 771,
        "rank_sort": 771,
        "total": 2453
      },
      {
        "club_badge_src": "https://fantasy.premierleague.com/gcs/plfpl-production-adobe-approved/plfpl-production/4218979/566fbcb0-d64e-42e3-a3b5-4901dd7733e7.png",
        "entry": 4218979,
        "entry_name": "Miami 11",
        "event_total": 60,
        "has_played": true,
        "id": 31954193,
        "last_rank": 647,
        "player_name": "Joe English",
        "rank": 771,
        "rank_sort": 772,
        "total": 2453
      },
      {
        "club_badge_src": null,
        "entry": 589267,
        "entry_name": "Horzach out of form",
        "event_total": 76,
        "has_played": true,
        "id": 3968697,
        "last_rank": 1825,
        "player_name": "Sveti Miklavz",
        "rank": 773,
        "rank_sort": 773,
        "total": 2453
      },
      {
        "club_badge_src": null,
        "entry": 3350685,
        "entry_name": "RuBEN Amorim fc",
        "event_total": 67,
        "has_played": true,
        "id": 24857183,
        "last_rank": 963,
        "player_name": "Ben English",
        "rank": 773,
        "rank_sort": 774,
        "total": 2453
      },
      {
        "club_badge_src": null,
        "entry": 7926239,
        "entry_name": "Kabidindi FC",
        "event_total": 58,
        "has_played": true,
        "id": 65225046,
        "last_rank": 587,
        "player_name": "Ikenna Ike-Agbo",
        "rank": 773,
        "rank_sort": 775,
        "total": 2453
      },
      {
        "club_badge_src": null,
        "entry": 14539,
        "entry_name": "Notex FC",
        "event_total": 68,
        "has_played": true,
        "id": 88344,
        "last_rank": 1219,
        "player_name": "Apichat Kanokyodtawee",
        "rank": 776,
        "rank_sort": 776,
        "total": 2453
      },
      {
        "club_badge_src": null,
        "entry": 3968608,
        "entry_name": "zlatangurra",
        "event_total": 68,
        "has_played": true,
        "id": 29863793,
        "last_rank": 1220,
        "player_name": "Gustav Th\u00f6rn",
        "rank": 777,
        "rank_sort": 777,
        "total": 2453
      },
      {
        "club_badge_src": "https://fantasy.premierleague.com/gcs/plfpl-production-adobe-approved/plfpl-production/4508832/92ac6ee1-54f5-4322-a682-de895f004538.png",
        "entry": 4508832,
        "entry_name": "BacunaMateta-Gol2 FC",
        "event_total": 54,
        "has_played": true,
        "id": 34379149,
        "last_rank": 588,
        "player_name": "Enrique Daulerio",
        "rank": 777,
        "rank_sort": 778,
        "total": 2453
      },
      {
        "club_badge_src": null,
        "entry": 5661953,
        "entry_name": "Final Cutts XI",
        "event_total": 58,
        "has_played": true,
        "id": 44298364,
        "last_rank": 740,
        "player_name": "Shaun Cutts",
        "rank": 779,
        "rank_sort": 779,
        "total": 2452
      },
      {
        "club_badge_src": null,
        "entry": 1734963,
        "entry_name": "Earth Wind & Maguire",
        "event_total": 64,
        "has_played": true,
        "id": 12171226,
        "last_rank": 1018,
        "player_name": "Mih\u00e1ly Bug\u00e1r",
        "rank": 780,
        "rank_sort": 780,
        "total": 2452
      },
      {
        "club_badge_src": null,
        "entry": 3161163,
        "entry_name": "MainooYourBusiness",
        "event_total": 69,
        "has_played": true,
        "id": 23352132,
        "last_rank": 1062,
        "player_name": "Vlad Maskin",
        "rank": 781,
        "rank_sort": 781,
        "total": 2452
      },
      {
        "club_badge_src": null,
        "entry": 111912,
        "entry_name": "Burts Bottle Jobs",
        "event_total": 63,
        "has_played": true,
        "id": 729657,
        "last_rank": 980,
        "player_name": "Louie Burton",
        "rank": 782,
        "rank_sort": 782,
        "total": 2452
      },
      {
        "club_badge_src": null,
        "entry": 304119,
        "entry_name": "Son's Son",
        "event_total": 59,
        "has_played": true,
        "id": 2036055,
        "last_rank": 791,
        "player_name": "Sehwan Chun",
        "rank": 782,
        "rank_sort": 783,
        "total": 2452
      },
      {
        "club_badge_src": null,
        "entry": 429419,
        "entry_name": "Broilers",
        "event_total": 60,
        "has_played": true,
        "id": 2880147,
        "last_rank": 825,
        "player_name": "Tarjei Amundsen",
        "rank": 782,
        "rank_sort": 784,
        "total": 2452
      },
      {
        "club_badge_src": "https://fantasy.premierleague.com/gcs/plfpl-production-adobe-approved/plfpl-production/635399/87953821-3b4a-421f-be9a-d2af45c59d5c.png",
        "entry": 635399,
        "entry_name": "Win",
        "event_total": 70,
        "has_played": true,
        "id": 4294173,
        "last_rank": 1358,
        "player_name": "Jackson Helms",
        "rank": 782,
        "rank_sort": 785,
        "total": 2452
      },
      {
        "club_badge_src": null,
        "entry": 700135,
        "entry_name": "De Nilssons",
        "event_total": 68,
        "has_played": true,
        "id": 4743240,
        "last_rank": 1240,
        "player_name": "Jakob Nilsson",
        "rank": 782,
        "rank_sort": 786,
        "total": 2452
      },
      {
        "club_badge_src": null,
        "entry": 1146422,
        "entry_name": "Anything Goes",
        "event_total": 60,
        "has_played": true,
        "id": 7948627,
        "last_rank": 820,
        "player_name": "Mary Kerr",
        "rank": 782,
        "rank_sort": 787,
        "total": 2452
      },
      {
        "club_badge_src": null,
        "entry": 1307564,
        "entry_name": "Hewittj1",
        "event_total": 65,
        "has_played": true,
        "id": 9088415,
        "last_rank": 1079,
        "player_name": "James Hewitt",
        "rank": 782,
        "rank_sort": 788,
        "total": 2452
      },
      {
        "club_badge_src": null,
        "entry": 1929965,
        "entry_name": "ManJester United",
        "event_total": 56,
        "has_played": true,
        "id": 13611686,
        "last_rank": 665,
        "player_name": "David King",
        "rank": 782,
        "rank_sort": 789,
        "total": 2452
      },
      {
        "club_badge_src": null,
        "entry": 1982442,
        "entry_name": "VN United",
        "event_total": 55,
        "has_played": true,
        "id": 14002285,
        "last_rank": 633,
        "player_name": "Victor N\u00e5vik",
        "rank": 782,
        "rank_sort": 790,
        "total": 2452
      },
      {
        "club_badge_src": null,
        "entry": 2030907,
        "entry_name": "All Welwyn Good",
        "event_total": 67,
        "has_played": true,
        "id": 14378077,
        "last_rank": 1190,
        "player_name": "Matt Lyle",
        "rank": 782,
        "rank_sort": 791,
        "total": 2452
      },
      {
        "club_badge_src": null,
        "entry": 2530695,
        "entry_name": "Mind The Gap",
        "event_total": 55,
        "has_played": true,
        "id": 18134261,
        "last_rank": 633,
        "player_name": "Jasper Ning",
        "rank": 782,
        "rank_sort": 792,
        "total": 2452
      },
      {
        "club_badge_src": null,
        "entry": 6017653,
        "entry_name": "Lambda T4a",
        "event_total": 61,
        "has_played": true,
        "id": 47455098,
        "last_rank": 879,
        "player_name": "O O",
        "rank": 782,
        "rank_sort": 793,
        "total": 2452
      },
      {
        "club_badge_src": null,
        "entry": 7946105,
        "entry_name": "draftalchemy",
        "event_total": 73,
        "has_played": true,
        "id": 65404669,
        "last_rank": 1601,
        "player_name": "draft alchemy",
        "rank": 782,
        "rank_sort": 794,
        "total": 2452
      },
      {
        "club_badge_src": null,
        "entry": 8900316,
        "entry_name": "FC Banterlona",
        "event_total": 77,
        "has_played": true,
        "id": 74512450,
        "last_rank": 1961,
        "player_name": "Lee Horsley",
        "rank": 782,
        "rank_sort": 795,
        "total": 2452
      },
      {
        "club_badge_src": null,
        "entry": 10050,
        "entry_name": "Nates Mates",
        "event_total": 66,
        "has_played": true,
        "id": 59324,
        "last_rank": 1152,
        "player_name": "Nate Sports",
        "rank": 796,
        "rank_sort": 796,
        "total": 2452
      },
      {
        "club_badge_src": null,
        "entry": 14640,
        "entry_name": "MassFC",
        "event_total": 60,
        "has_played": true,
        "id": 89028,
        "last_rank": 825,
        "player_name": "Knowledge 096",
        "rank": 796,
        "rank_sort": 797,
        "total": 2452
      },
      {
        "club_badge_src": null,
        "entry": 451154,
        "entry_name": "AngelldiBrage",
        "event_total": 75,
        "has_played": true,
        "id": 3026846,
        "last_rank": 1797,
        "player_name": "Brage Angell",
        "rank": 796,
        "rank_sort": 798,
        "total": 2452
      },
      {
        "club_badge_src": null,
        "entry": 736878,
        "entry_name": "Bruno Dos Tres",
        "event_total": 68,
        "has_played": true,
        "id": 5009500,
        "last_rank": 1031,
        "player_name": "George Couzens",
        "rank": 796,
        "rank_sort": 799,
        "total": 2452
      },
      {
        "club_badge_src": "https://fantasy.premierleague.com/gcs/plfpl-production-adobe-approved/plfpl-production/812671/ccc58321-adc8-47df-91dd-1ad1f865ddd3.png",
        "entry": 812671,
        "entry_name": "Hotel Calafiori",
        "event_total": 55,
        "has_played": true,
        "id": 5564382,
        "last_rank": 633,
        "player_name": "Ben Payne",
        "rank": 796,
        "rank_sort": 800,
        "total": 2452
      }
    ]
  }
}