{
  "last_updated_data": "2026-05-24T23:28:17Z",
  "league": {
    "admin_entry": null,
    "closed": false,
    "code_privacy": "p",
    "created": "2025-07-20T23:14:33.933835Z",
    "cup_league": 2815434,
    "has_cup": true,
    "id": 314,
    "league_type": "s",
    "max_entries": null,
    "name": "Overall",
    "rank": null,
    "scoring": "c",
    "start_event": 1
  },
  "new_entries": {
    "has_next": false,
    "page": 1,
    "results": []
  },
  "standings": {
    "has_next": true,
    "page": 391,
    "results": [
      {
        "club_badge_src": null,
        "entry": 299186,
        "entry_name": "Bovril Ball",
        "event_total": 54,
        "has_played": true,
        "id": 2000709,
        "last_rank": 16959,
        "player_name": "Lewis Simpson",
        "rank": 19468,
        "rank_sort": 19501,
        "total": 2381
      },
      {
        "club_badge_src": null,
        "entry": 319886,
        "entry_name": "Green Army",
        "event_total": 67,
        "has_played": true,
        "id": 2144138,
        "last_rank": 23522,
        "player_name": "Jon Carter",
        "rank": 19468,
        "rank_sort": 19502,
        "total": 2381
      },
      {
        "club_badge_src": "https://fantasy.premierleague.com/gcs/plfpl-production-adobe-approved/plfpl-production/323547/8503c742-36ee-42f7-bde4-c31b99412bd8.png",
        "entry": 323547,
        "entry_name": "Traktor FC",
        "event_total": 62,
        "has_played": true,
        "id": 2168200,
        "last_rank": 22685,
        "player_name": "Jozef Nalevanko",
        "rank": 19468,
        "rank_sort": 19503,
        "total": 2381
      },
      {
        "club_badge_src": null,
        "entry": 393407,
        "entry_name": "Standwelbeck",
        "event_total": 43,
        "has_played": true,
        "id": 2638561,
        "last_rank": 10805,
        "player_name": "Jacob Griffin",
        "rank": 19468,
        "rank_sort": 19504,
        "total": 2381
      },
      {
        "club_badge_src": null,
        "entry": 451433,
        "entry_name": "Team Details",
        "event_total": 60,
        "has_played": true,
        "id": 3028639,
        "last_rank": 15452,
        "player_name": "Alex Babut",
        "rank": 19468,
        "rank_sort": 19505,
        "total": 2381
      },
      {
        "club_badge_src": null,
        "entry": 490933,
        "entry_name": "Peaky Reijnders",
        "event_total": 66,
        "has_played": true,
        "id": 3295425,
        "last_rank": 22685,
        "player_name": "Frederik Henneberg",
        "rank": 19468,
        "rank_sort": 19506,
        "total": 2381
      },
      {
        "club_badge_src": null,
        "entry": 510425,
        "entry_name": "LUSTROUS SILVA",
        "event_total": 66,
        "has_played": true,
        "id": 3427491,
        "last_rank": 26230,
        "player_name": "Paul Waite",
        "rank": 19468,
        "rank_sort": 19507,
        "total": 2381
      },
      {
        "club_badge_src": null,
        "entry": 534552,
        "entry_name": "Blues",
        "event_total": 55,
        "has_played": true,
        "id": 3597593,
        "last_rank": 17718,
        "player_name": "Ali Alkaabi",
        "rank": 19468,
        "rank_sort": 19508,
        "total": 2381
      },
      {
        "club_badge_src": null,
        "entry": 582517,
        "entry_name": "Class on grass",
        "event_total": 54,
        "has_played": true,
        "id": 3920252,
        "last_rank": 17078,
        "player_name": "Ethan Ainscough",
        "rank": 19468,
        "rank_sort": 19509,
        "total": 2381
      },
      {
        "club_badge_src": null,
        "entry": 584847,
        "entry_name": "Guti\u2019s Real Deals",
        "event_total": 63,
        "has_played": true,
        "id": 3935870,
        "last_rank": 23656,
        "player_name": "Lee Beecroft",
        "rank": 19468,
        "rank_sort": 19510,
        "total": 2381
      },
      {
        "club_badge_src": "https://fantasy.premierleague.com/gcs/plfpl-production-adobe-approved/plfpl-production/586612/a829ecdd-431c-4794-8a38-1f6b893f1479.png",
        "entry": 586612,
        "entry_name": "Sticky Toffees",
        "event_total": 63,
        "has_played": true,
        "id": 3948106,
        "last_rank": 23522,
        "player_name": "Paul Crook",
        "rank": 19468,
        "rank_sort": 19511,
        "total": 2381
      },
      {
        "club_badge_src": null,
        "entry": 696007,
        "entry_name": "2 Girls Wan-Bissaka",
        "event_total": 58,
        "has_played": true,
        "id": 4714196,
        "last_rank": 19544,
        "player_name": "Scott Ross",
        "rank": 19468,
        "rank_sort": 19512,
        "total": 2381
      },
      {
        "club_badge_src": null,
        "entry": 703687,
        "entry_name": "\u0160e\u0161ko clubcard",
        "event_total": 63,
        "has_played": true,
        "id": 4768391,
        "last_rank": 23230,
        "player_name": "Sam Bundy",
        "rank": 19468,
        "rank_sort": 19513,
        "total": 2381
      },
      {
        "club_badge_src": "https://fantasy.premierleague.com/gcs/plfpl-production-adobe-approved/plfpl-production/716632/62a0f930-2eeb-4887-a8f8-821f53fe5fac.png",
        "entry": 716632,
        "entry_name": "Pranoy Kurian's 11",
        "event_total": 69,
        "has_played": true,
        "id": 4862403,
        "last_rank": 25002,
        "player_name": "Pranoy Kurian",
        "rank": 19468,
        "rank_sort": 19514,
        "total": 2381
      },
      {
        "club_badge_src": null,
        "entry": 748517,
        "entry_name": "Clearlygoingtolose",
        "event_total": 57,
        "has_played": true,
        "id": 5092541,
        "last_rank": 19103,
        "player_name": "Faye Battye",
        "rank": 19468,
        "rank_sort": 19515,
        "total": 2381
      },
      {
        "club_badge_src": null,
        "entry": 765003,
        "entry_name": "rees in pieces",
        "event_total": 74,
        "has_played": true,
        "id": 5217459,
        "last_rank": 34051,
        "player_name": "joel aby mathew",
        "rank": 19468,
        "rank_sort": 19516,
        "total": 2381
      },
      {
        "club_badge_src": null,
        "entry": 796400,
        "entry_name": "Kubbelia United",
        "event_total": 69,
        "has_played": true,
        "id": 5450425,
        "last_rank": 28906,
        "player_name": "Thomas Wickstr\u00f8m",
        "rank": 19468,
        "rank_sort": 19517,
        "total": 2381
      },
      {
        "club_badge_src": null,
        "entry": 909423,
        "entry_name": "Pep a pig",
        "event_total": 53,
        "has_played": true,
        "id": 6251956,
        "last_rank": 13821,
        "player_name": "Eric Lunt",
        "rank": 19468,
        "rank_sort": 19518,
        "total": 2381
      },
      {
        "club_badge_src": null,
        "entry": 926493,
        "entry_name": "Let Unai Sort Em Out",
        "event_total": 77,
        "has_played": true,
        "id": 6373895,
        "last_rank": 33147,
        "player_name": "Reis Clarke",
        "rank": 19468,
        "rank_sort": 19519,
        "total": 2381
      },
      {
        "club_badge_src": null,
        "entry": 980033,
        "entry_name": "Bowen 747",
        "event_total": 59,
        "has_played": true,
        "id": 6756375,
        "last_rank": 17585,
        "player_name": "Bailey Cole",
        "rank": 19468,
        "rank_sort": 19520,
        "total": 2381
      },
      {
        "club_badge_src": null,
        "entry": 1010454,
        "entry_name": "Simple Man",
        "event_total": 68,
        "has_played": true,
        "id": 6988149,
        "last_rank": 28150,
        "player_name": "Bogdan Katrych",
        "rank": 19468,
        "rank_sort": 19521,
        "total": 2381
      },
      {
        "club_badge_src": null,
        "entry": 1015157,
        "entry_name": "Camembert FC",
        "event_total": 58,
        "has_played": true,
        "id": 7022813,
        "last_rank": 16959,
        "player_name": "Nico Nico",
        "rank": 19468,
        "rank_sort": 19522,
        "total": 2381
      },
      {
        "club_badge_src": null,
        "entry": 1039634,
        "entry_name": "Badr2030",
        "event_total": 64,
        "has_played": true,
        "id": 7194587,
        "last_rank": 24475,
        "player_name": "Badr Al-mhmode",
        "rank": 19468,
        "rank_sort": 19523,
        "total": 2381
      },
      {
        "club_badge_src": null,
        "entry": 1096431,
        "entry_name": "FC Bosnas K\u00e4llare",
        "event_total": 64,
        "has_played": true,
        "id": 7594307,
        "last_rank": 21159,
        "player_name": "Henrik Stromlund",
        "rank": 19468,
        "rank_sort": 19524,
        "total": 2381
      },
      {
        "club_badge_src": null,
        "entry": 1122078,
        "entry_name": "Alisson Chains",
        "event_total": 43,
        "has_played": true,
        "id": 7773929,
        "last_rank": 11034,
        "player_name": "Leon Galic",
        "rank": 19468,
        "rank_sort": 19525,
        "total": 2381
      },
      {
        "club_badge_src": "https://fantasy.premierleague.com/gcs/plfpl-production-adobe-approved/plfpl-production/1173640/0e82aebc-7855-4d5a-b825-82336e6964cb.png",
        "entry": 1173640,
        "entry_name": "Neroazzuro",
        "event_total": 71,
        "has_played": true,
        "id": 8142336,
        "last_rank": 27020,
        "player_name": "Mirko Bingulac",
        "rank": 19468,
        "rank_sort": 19526,
        "total": 2381
      },
      {
        "club_badge_src": null,
        "entry": 1202074,
        "entry_name": "Catch me if you Kane",
        "event_total": 59,
        "has_played": true,
        "id": 8341794,
        "last_rank": 17585,
        "player_name": "Daniel Baalbaki",
        "rank": 19468,
        "rank_sort": 19527,
        "total": 2381
      },
      {
        "club_badge_src": null,
        "entry": 1384221,
        "entry_name": "ThomasTheFrankEngine",
        "event_total": 60,
        "has_played": true,
        "id": 9627385,
        "last_rank": 21159,
        "player_name": "Sam Burke",
        "rank": 19468,
        "rank_sort": 19528,
        "total": 2381
      },
      {
        "club_badge_src": null,
        "entry": 1406543,
        "entry_name": "Seven Nil",
        "event_total": 57,
        "has_played": true,
        "id": 9786806,
        "last_rank": 16320,
        "player_name": "Bups Kalkat",
        "rank": 19468,
        "rank_sort": 19529,
        "total": 2381
      },
      {
        "club_badge_src": null,
        "entry": 1558926,
        "entry_name": "Real Madras",
        "event_total": 62,
        "has_played": true,
        "id": 10886892,
        "last_rank": 16702,
        "player_name": "John Davis",
        "rank": 19468,
        "rank_sort": 19530,
        "total": 2381
      },
      {
        "club_badge_src": null,
        "entry": 1577823,
        "entry_name": "3-6-9",
        "event_total": 55,
        "has_played": true,
        "id": 11025404,
        "last_rank": 14926,
        "player_name": "Sou HL",
        "rank": 19468,
        "rank_sort": 19531,
        "total": 2381
      },
      {
        "club_badge_src": null,
        "entry": 1801651,
        "entry_name": "VARsenal Dreams",
        "event_total": 65,
        "has_played": true,
        "id": 12665192,
        "last_rank": 21949,
        "player_name": "Siddarth Raghunathan",
        "rank": 19468,
        "rank_sort": 19532,
        "total": 2381
      },
      {
        "club_badge_src": null,
        "entry": 1881290,
        "entry_name": "Sick (Dan) Burn",
        "event_total": 64,
        "has_played": true,
        "id": 13255410,
        "last_rank": 24330,
        "player_name": "Andrew Thompson",
        "rank": 19468,
        "rank_sort": 19533,
        "total": 2381
      },
      {
        "club_badge_src": "https://fantasy.premierleague.com/gcs/plfpl-production-adobe-approved/plfpl-production/1939109/56e4841b-16af-47ae-b677-ce77d5247477.png",
        "entry": 1939109,
        "entry_name": "Saitama",
        "event_total": 58,
        "has_played": true,
        "id": 13677451,
        "last_rank": 19835,
        "player_name": "Steve Ducrocq",
        "rank": 19468,
        "rank_sort": 19534,
        "total": 2381
      },
      {
        "club_badge_src": "https://fantasy.premierleague.com/gcs/plfpl-production-adobe-approved/plfpl-production/1989534/5bdd90d5-85a1-4b98-91df-e38672a24197.png",
        "entry": 1989534,
        "entry_name": "Bouza FC",
        "event_total": 64,
        "has_played": true,
        "id": 14055664,
        "last_rank": 24143,
        "player_name": "Jassem Bouzayen",
        "rank": 19468,
        "rank_sort": 19535,
        "total": 2381
      },
      {
        "club_badge_src": null,
        "entry": 2096088,
        "entry_name": "Jamie Fc",
        "event_total": 62,
        "has_played": true,
        "id": 14872169,
        "last_rank": 19721,
        "player_name": "James Munyiri",
        "rank": 19468,
        "rank_sort": 19536,
        "total": 2381
      },
      {
        "club_badge_src": "https://fantasy.premierleague.com/gcs/plfpl-production-adobe-approved/plfpl-production/2364355/d1810ca2-012e-4e67-b733-668c3838fbeb.png",
        "entry": 2364355,
        "entry_name": "Derby Dreamers",
        "event_total": 67,
        "has_played": true,
        "id": 16875963,
        "last_rank": 27203,
        "player_name": "Dave Dolman",
        "rank": 19468,
        "rank_sort": 19537,
        "total": 2381
      },
      {
        "club_badge_src": null,
        "entry": 2639112,
        "entry_name": "Team FPL 25-26",
        "event_total": 62,
        "has_played": true,
        "id": 18968002,
        "last_rank": 22830,
        "player_name": "Sayak Das",
        "rank": 19468,
        "rank_sort": 19538,
        "total": 2381
      },
      {
        "club_badge_src": "https://fantasy.premierleague.com/gcs/plfpl-production-adobe-approved/plfpl-production/2784046/f961403c-7678-4ce1-a370-99f60639ec6d.png",
        "entry": 2784046,
        "entry_name": "High Valley FC",
        "event_total": 45,
        "has_played": true,
        "id": 20323915,
        "last_rank": 10031,
        "player_name": "Simon Lindgren",
        "rank": 19468,
        "rank_sort": 19539,
        "total": 2381
      },
      {
        "club_badge_src": null,
        "entry": 2809587,
        "entry_name": "Speakmanager",
        "event_total": 67,
        "has_played": true,
        "id": 20520154,
        "last_rank": 27020,
        "player_name": "Paul Speakman",
        "rank": 19468,
        "rank_sort": 19540,
        "total": 2381
      },
      {
        "club_badge_src": "https://fantasy.premierleague.com/gcs/plfpl-production-adobe-approved/plfpl-production/2855761/0be1cbbe-5749-402f-9f9e-5355e23dd173.png",
        "entry": 2855761,
        "entry_name": "T500",
        "event_total": 59,
        "has_played": true,
        "id": 20882186,
        "last_rank": 20416,
        "player_name": "Yuliyan Velikov",
        "rank": 19468,
        "rank_sort": 19541,
        "total": 2381
      },
      {
        "club_badge_src": null,
        "entry": 2874568,
        "entry_name": "Maguireamaniacs",
        "event_total": 52,
        "has_played": true,
        "id": 21034988,
        "last_rank": 15797,
        "player_name": "Scott Barrows",
        "rank": 19468,
        "rank_sort": 19542,
        "total": 2381
      },
      {
        "club_badge_src": "https://fantasy.premierleague.com/gcs/plfpl-production-adobe-approved/plfpl-production/3116637/4357269f-480f-48df-ad54-e77882905867.png",
        "entry": 3116637,
        "entry_name": "SawhneyFC",
        "event_total": 55,
        "has_played": true,
        "id": 22998789,
        "last_rank": 17585,
        "player_name": "Gautam Sawhney",
        "rank": 19468,
        "rank_sort": 19543,
        "total": 2381
      },
      {
        "club_badge_src": null,
        "entry": 3157634,
        "entry_name": "WonItAll",
        "event_total": 29,
        "has_played": true,
        "id": 23323473,
        "last_rank": 5011,
        "player_name": "George Weatherhead",
        "rank": 19468,
        "rank_sort": 19544,
        "total": 2381
      },
      {
        "club_badge_src": null,
        "entry": 3230082,
        "entry_name": "OKAY10",
        "event_total": 58,
        "has_played": true,
        "id": 23888990,
        "last_rank": 19721,
        "player_name": "\u0623\u0648\u0633 \u0627\u0644\u063a\u0627\u0628\u0631\u064a",
        "rank": 19468,
        "rank_sort": 19545,
        "total": 2381
      },
      {
        "club_badge_src": null,
        "entry": 3232527,
        "entry_name": "Meow Pedro",
        "event_total": 64,
        "has_played": true,
        "id": 23907616,
        "last_rank": 24475,
        "player_name": "Alex Kutscher",
        "rank": 19468,
        "rank_sort": 19546,
        "total": 2381
      },
      {
        "club_badge_src": "https://fantasy.premierleague.com/gcs/plfpl-production-adobe-approved/plfpl-production/3292750/2632df1b-70e0-4b34-a905-463458593a7f.png",
        "entry": 3292750,
        "entry_name": "Red Devils",
        "event_total": 72,
        "has_played": true,
        "id": 24380958,
        "last_rank": 32190,
        "player_name": "Khaled Yousry",
        "rank": 19468,
        "rank_sort": 19547,
        "total": 2381
      },
      {
        "club_badge_src": null,
        "entry": 3322919,
        "entry_name": "Livin Saliba Loca",
        "event_total": 59,
        "has_played": true,
        "id": 24632771,
        "last_rank": 20280,
        "player_name": "Alex Howman",
        "rank": 19468,
        "rank_sort": 19548,
        "total": 2381
      },
      {
        "club_badge_src": null,
        "entry": 3433461,
        "entry_name": "Ahmad Malik",
        "event_total": 43,
        "has_played": true,
        "id": 25506591,
        "last_rank": 10992,
        "player_name": "Ahmad Malik",
        "rank": 19468,
        "rank_sort": 19549,
        "total": 2381
      },
      {
        "club_badge_src": null,
        "entry": 3566772,
        "entry_name": "Pearso's Underdogs",
        "event_total": 51,
        "has_played": true,
        "id": 26558111,
        "last_rank": 15164,
        "player_name": "Daniel Pearse",
        "rank": 19468,
        "rank_sort": 19550,
        "total": 2381
      }
    ]
  }
}