{
  "last_updated_data": "2026-05-24T23:28:17Z",
  "league": {
    "admin_entry": null,
    "closed": false,
    "code_privacy": "p",
    "created": "2025-07-20T23:14:33.933835Z",
    "cup_league": 2815434,
    "has_cup": true,
    "id": 314,
    "league_type": "s",
    "max_entries": null,
    "name": "Overall",
    "rank": null,
    "scoring": "c",
    "start_event": 1
  },
  "new_entries": {
    "has_next": false,
    "page": 1,
    "results": []
  },
  "standings": {
    "has_next": true,
    "page": 762,
    "results": [
      {
        "club_badge_src": null,
        "entry": 8458510,
        "entry_name": "Tuoyo",
        "event_total": 84,
        "has_played": true,
        "id": 70234995,
        "last_rank": 84980,
        "player_name": "tuoyo daibo",
        "rank": 37897,
        "rank_sort": 38051,
        "total": 2361
      },
      {
        "club_badge_src": null,
        "entry": 8473370,
        "entry_name": "D",
        "event_total": 54,
        "has_played": true,
        "id": 70376827,
        "last_rank": 34458,
        "player_name": "Daniel Aju",
        "rank": 37897,
        "rank_sort": 38052,
        "total": 2361
      },
      {
        "club_badge_src": null,
        "entry": 8882200,
        "entry_name": "Gilmour Girls",
        "event_total": 76,
        "has_played": true,
        "id": 74335965,
        "last_rank": 67063,
        "player_name": "aideen roberts",
        "rank": 37897,
        "rank_sort": 38053,
        "total": 2361
      },
      {
        "club_badge_src": null,
        "entry": 9140084,
        "entry_name": "Verykokos FC",
        "event_total": 69,
        "has_played": true,
        "id": 76844556,
        "last_rank": 55014,
        "player_name": "Silje Waitz",
        "rank": 37897,
        "rank_sort": 38054,
        "total": 2361
      },
      {
        "club_badge_src": null,
        "entry": 9343076,
        "entry_name": "Change Name",
        "event_total": 64,
        "has_played": true,
        "id": 78821865,
        "last_rank": 47417,
        "player_name": "Adrian Escudero-Genc",
        "rank": 37897,
        "rank_sort": 38055,
        "total": 2361
      },
      {
        "club_badge_src": null,
        "entry": 7192,
        "entry_name": "lallana del ray",
        "event_total": 70,
        "has_played": true,
        "id": 41432,
        "last_rank": 50468,
        "player_name": "Adam Razzano",
        "rank": 38056,
        "rank_sort": 38056,
        "total": 2361
      },
      {
        "club_badge_src": null,
        "entry": 8583,
        "entry_name": "Ha",
        "event_total": 52,
        "has_played": true,
        "id": 49988,
        "last_rank": 24330,
        "player_name": "Joseph Colliass",
        "rank": 38056,
        "rank_sort": 38057,
        "total": 2361
      },
      {
        "club_badge_src": "https://fantasy.premierleague.com/gcs/plfpl-production-adobe-approved/plfpl-production/22623/f4338fc6-6f5f-4fe8-aa99-afbf152366bb.png",
        "entry": 22623,
        "entry_name": "Fire at Will",
        "event_total": 64,
        "has_played": true,
        "id": 142139,
        "last_rank": 41824,
        "player_name": "Will Davies",
        "rank": 38056,
        "rank_sort": 38058,
        "total": 2361
      },
      {
        "club_badge_src": null,
        "entry": 28086,
        "entry_name": "Anderson FC",
        "event_total": 60,
        "has_played": true,
        "id": 177618,
        "last_rank": 41967,
        "player_name": "Everton Anderson",
        "rank": 38056,
        "rank_sort": 38059,
        "total": 2361
      },
      {
        "club_badge_src": null,
        "entry": 30472,
        "entry_name": "P\u00c5A FC",
        "event_total": 65,
        "has_played": true,
        "id": 192853,
        "last_rank": 43168,
        "player_name": "Patric \u00c5gren Axner",
        "rank": 38056,
        "rank_sort": 38060,
        "total": 2361
      },
      {
        "club_badge_src": null,
        "entry": 37231,
        "entry_name": "Renshaw FC",
        "event_total": 60,
        "has_played": true,
        "id": 238442,
        "last_rank": 36831,
        "player_name": "Tyler Renshaw",
        "rank": 38056,
        "rank_sort": 38061,
        "total": 2361
      },
      {
        "club_badge_src": null,
        "entry": 60928,
        "entry_name": "Mhannatito",
        "event_total": 64,
        "has_played": true,
        "id": 392286,
        "last_rank": 36624,
        "player_name": "Omar Mhanna-",
        "rank": 38056,
        "rank_sort": 38062,
        "total": 2361
      },
      {
        "club_badge_src": null,
        "entry": 64028,
        "entry_name": "robbo2025",
        "event_total": 81,
        "has_played": true,
        "id": 413199,
        "last_rank": 77676,
        "player_name": "Richard Robinson",
        "rank": 38056,
        "rank_sort": 38063,
        "total": 2361
      },
      {
        "club_badge_src": null,
        "entry": 80395,
        "entry_name": "Adrenalan Junkies",
        "event_total": 64,
        "has_played": true,
        "id": 523076,
        "last_rank": 47417,
        "player_name": "Alan Hunt",
        "rank": 38056,
        "rank_sort": 38064,
        "total": 2361
      },
      {
        "club_badge_src": null,
        "entry": 115813,
        "entry_name": "Nuno Mendes No Party",
        "event_total": 63,
        "has_played": true,
        "id": 755943,
        "last_rank": 46106,
        "player_name": "Luke Byrne",
        "rank": 38056,
        "rank_sort": 38065,
        "total": 2361
      },
      {
        "club_badge_src": null,
        "entry": 120397,
        "entry_name": "FC Rogers",
        "event_total": 61,
        "has_played": true,
        "id": 785547,
        "last_rank": 43342,
        "player_name": "Roger Hansen",
        "rank": 38056,
        "rank_sort": 38066,
        "total": 2361
      },
      {
        "club_badge_src": null,
        "entry": 121668,
        "entry_name": "West\u2019s Champions",
        "event_total": 52,
        "has_played": true,
        "id": 793835,
        "last_rank": 32335,
        "player_name": "Harry West",
        "rank": 38056,
        "rank_sort": 38067,
        "total": 2361
      },
      {
        "club_badge_src": "https://fantasy.premierleague.com/gcs/plfpl-production-adobe-approved/plfpl-production/124381/b090e3bc-0407-4403-a840-e3c0ee27faef.png",
        "entry": 124381,
        "entry_name": "Italian Invasion",
        "event_total": 67,
        "has_played": true,
        "id": 811285,
        "last_rank": 51984,
        "player_name": "Tomasz \u0141ab\u0119dzki",
        "rank": 38056,
        "rank_sort": 38068,
        "total": 2361
      },
      {
        "club_badge_src": null,
        "entry": 125405,
        "entry_name": "The Incredibles",
        "event_total": 58,
        "has_played": true,
        "id": 817862,
        "last_rank": 34458,
        "player_name": "Robert Slyne",
        "rank": 38056,
        "rank_sort": 38069,
        "total": 2361
      },
      {
        "club_badge_src": null,
        "entry": 129577,
        "entry_name": "No Kane, No Gain",
        "event_total": 54,
        "has_played": true,
        "id": 844513,
        "last_rank": 34578,
        "player_name": "Ahmed Hamed",
        "rank": 38056,
        "rank_sort": 38070,
        "total": 2361
      },
      {
        "club_badge_src": null,
        "entry": 153433,
        "entry_name": "Madridista7",
        "event_total": 68,
        "has_played": true,
        "id": 1007586,
        "last_rank": 47417,
        "player_name": "saoud rahmati",
        "rank": 38056,
        "rank_sort": 38071,
        "total": 2361
      },
      {
        "club_badge_src": null,
        "entry": 195095,
        "entry_name": "FC Beercelona",
        "event_total": 68,
        "has_played": true,
        "id": 1293642,
        "last_rank": 47163,
        "player_name": "Guillermo Chevez",
        "rank": 38056,
        "rank_sort": 38072,
        "total": 2361
      },
      {
        "club_badge_src": null,
        "entry": 196879,
        "entry_name": "Guginators",
        "event_total": 65,
        "has_played": true,
        "id": 1306174,
        "last_rank": 43168,
        "player_name": "Taran Sanghera",
        "rank": 38056,
        "rank_sort": 38073,
        "total": 2361
      },
      {
        "club_badge_src": null,
        "entry": 213875,
        "entry_name": "Shep Guardiola",
        "event_total": 53,
        "has_played": true,
        "id": 1422788,
        "last_rank": 33332,
        "player_name": "Matt Sheppee",
        "rank": 38056,
        "rank_sort": 38074,
        "total": 2361
      },
      {
        "club_badge_src": null,
        "entry": 221780,
        "entry_name": "troopsoftroods",
        "event_total": 80,
        "has_played": true,
        "id": 1475093,
        "last_rank": 53023,
        "player_name": "Trudy K",
        "rank": 38056,
        "rank_sort": 38075,
        "total": 2361
      },
      {
        "club_badge_src": "https://fantasy.premierleague.com/gcs/plfpl-production-adobe-approved/plfpl-production/247535/4dcb9e10-c5b0-469d-a84f-fd989eb3c216.png",
        "entry": 247535,
        "entry_name": "Don'tLookBackElanga",
        "event_total": 61,
        "has_played": true,
        "id": 1647667,
        "last_rank": 43342,
        "player_name": "Matty Lovatt",
        "rank": 38056,
        "rank_sort": 38076,
        "total": 2361
      },
      {
        "club_badge_src": null,
        "entry": 282806,
        "entry_name": "Wirtz case scenario",
        "event_total": 45,
        "has_played": true,
        "id": 1882557,
        "last_rank": 25002,
        "player_name": "Josh Baldwin",
        "rank": 38056,
        "rank_sort": 38077,
        "total": 2361
      },
      {
        "club_badge_src": "https://fantasy.premierleague.com/gcs/plfpl-production-adobe-approved/plfpl-production/318356/a68c8487-8ef6-47ee-8602-cb0273ad8136.png",
        "entry": 318356,
        "entry_name": "H\u00f6nsg\u00e5rdens IF",
        "event_total": 57,
        "has_played": true,
        "id": 2134002,
        "last_rank": 33147,
        "player_name": "Mathias Zetterlund",
        "rank": 38056,
        "rank_sort": 38078,
        "total": 2361
      },
      {
        "club_badge_src": null,
        "entry": 324524,
        "entry_name": "Win win win",
        "event_total": 82,
        "has_played": true,
        "id": 2174611,
        "last_rank": 56099,
        "player_name": "William Stokkendahl",
        "rank": 38056,
        "rank_sort": 38079,
        "total": 2361
      },
      {
        "club_badge_src": null,
        "entry": 352124,
        "entry_name": "Burden717",
        "event_total": 73,
        "has_played": true,
        "id": 2356813,
        "last_rank": 55311,
        "player_name": "Pat Farrell",
        "rank": 38056,
        "rank_sort": 38080,
        "total": 2361
      },
      {
        "club_badge_src": null,
        "entry": 373675,
        "entry_name": "Everybody Wirtz.",
        "event_total": 58,
        "has_played": true,
        "id": 2500197,
        "last_rank": 34458,
        "player_name": "dave hartley",
        "rank": 38056,
        "rank_sort": 38081,
        "total": 2361
      },
      {
        "club_badge_src": null,
        "entry": 473985,
        "entry_name": "FC RM CH",
        "event_total": 56,
        "has_played": true,
        "id": 3182181,
        "last_rank": 32190,
        "player_name": "Mido Madridista",
        "rank": 38056,
        "rank_sort": 38082,
        "total": 2361
      },
      {
        "club_badge_src": "https://fantasy.premierleague.com/gcs/plfpl-production-adobe-approved/plfpl-production/477023/7241004b-59a1-44d5-b4c4-62789dab0d45.png",
        "entry": 477023,
        "entry_name": "Blink 1-Eto'o",
        "event_total": 51,
        "has_played": true,
        "id": 3201980,
        "last_rank": 31236,
        "player_name": "Matthew Rawlinson",
        "rank": 38056,
        "rank_sort": 38083,
        "total": 2361
      },
      {
        "club_badge_src": null,
        "entry": 521205,
        "entry_name": "Enter Team Name",
        "event_total": 60,
        "has_played": true,
        "id": 3500241,
        "last_rank": 36831,
        "player_name": "Andy Biddulph",
        "rank": 38056,
        "rank_sort": 38084,
        "total": 2361
      },
      {
        "club_badge_src": "https://fantasy.premierleague.com/gcs/plfpl-production-adobe-approved/plfpl-production/562298/0847a682-2134-48dc-b6eb-b5d48c0ac108.png",
        "entry": 562298,
        "entry_name": "Aston Vanilla",
        "event_total": 44,
        "has_played": true,
        "id": 3784927,
        "last_rank": 24475,
        "player_name": "Alan Smith",
        "rank": 38056,
        "rank_sort": 38085,
        "total": 2361
      },
      {
        "club_badge_src": null,
        "entry": 574099,
        "entry_name": "nat gonna lose",
        "event_total": 56,
        "has_played": true,
        "id": 3863509,
        "last_rank": 36831,
        "player_name": "Nathan France",
        "rank": 38056,
        "rank_sort": 38086,
        "total": 2361
      },
      {
        "club_badge_src": "https://fantasy.premierleague.com/gcs/plfpl-production-adobe-approved/plfpl-production/580169/2835f5d9-f9be-4fa1-a1f3-1d890fdd9cb7.png",
        "entry": 580169,
        "entry_name": "Gyok-A-Doodle-Doo",
        "event_total": 49,
        "has_played": true,
        "id": 3904115,
        "last_rank": 29071,
        "player_name": "Oakley Bromfield",
        "rank": 38056,
        "rank_sort": 38087,
        "total": 2361
      },
      {
        "club_badge_src": null,
        "entry": 621063,
        "entry_name": "NoMercy",
        "event_total": 70,
        "has_played": true,
        "id": 4197095,
        "last_rank": 57200,
        "player_name": "AL-HASANI-999 .",
        "rank": 38056,
        "rank_sort": 38088,
        "total": 2361
      },
      {
        "club_badge_src": null,
        "entry": 633040,
        "entry_name": "Stranger Mings",
        "event_total": 52,
        "has_played": true,
        "id": 4277648,
        "last_rank": 32335,
        "player_name": "Jake Foxford",
        "rank": 38056,
        "rank_sort": 38089,
        "total": 2361
      },
      {
        "club_badge_src": null,
        "entry": 652312,
        "entry_name": "Wha",
        "event_total": 60,
        "has_played": true,
        "id": 4408365,
        "last_rank": 36831,
        "player_name": "John Cullinane",
        "rank": 38056,
        "rank_sort": 38090,
        "total": 2361
      },
      {
        "club_badge_src": "https://fantasy.premierleague.com/gcs/plfpl-production-adobe-approved/plfpl-production/695659/8d6ceb79-c526-487f-b0c7-fda6f2f4bd6b.png",
        "entry": 695659,
        "entry_name": "Foxes never quit",
        "event_total": 48,
        "has_played": true,
        "id": 4711765,
        "last_rank": 28348,
        "player_name": "Mario Norac",
        "rank": 38056,
        "rank_sort": 38091,
        "total": 2361
      },
      {
        "club_badge_src": null,
        "entry": 702652,
        "entry_name": "A7",
        "event_total": 53,
        "has_played": true,
        "id": 4761138,
        "last_rank": 33483,
        "player_name": "Ali Husain",
        "rank": 38056,
        "rank_sort": 38092,
        "total": 2361
      },
      {
        "club_badge_src": null,
        "entry": 774115,
        "entry_name": "Cushty's Dreamers",
        "event_total": 62,
        "has_played": true,
        "id": 5281651,
        "last_rank": 39246,
        "player_name": "Paul R",
        "rank": 38056,
        "rank_sort": 38093,
        "total": 2361
      },
      {
        "club_badge_src": "https://fantasy.premierleague.com/gcs/plfpl-production-adobe-approved/plfpl-production/779287/868f7833-0179-44dc-ae6a-77c9462ffdcb.png",
        "entry": 779287,
        "entry_name": "FC Turtelona",
        "event_total": 66,
        "has_played": true,
        "id": 5319432,
        "last_rank": 44525,
        "player_name": "Stefan Stefanov",
        "rank": 38056,
        "rank_sort": 38094,
        "total": 2361
      },
      {
        "club_badge_src": null,
        "entry": 853473,
        "entry_name": "Bayer Neverlusen",
        "event_total": 65,
        "has_played": true,
        "id": 5850155,
        "last_rank": 48642,
        "player_name": "Plamen Peev",
        "rank": 38056,
        "rank_sort": 38095,
        "total": 2361
      },
      {
        "club_badge_src": null,
        "entry": 866205,
        "entry_name": "Yod_manu",
        "event_total": 62,
        "has_played": true,
        "id": 5938227,
        "last_rank": 39023,
        "player_name": "Pongsanath Chinvipas",
        "rank": 38056,
        "rank_sort": 38096,
        "total": 2361
      },
      {
        "club_badge_src": null,
        "entry": 913183,
        "entry_name": "Changys XI",
        "event_total": 70,
        "has_played": true,
        "id": 6279134,
        "last_rank": 57200,
        "player_name": "jack chang",
        "rank": 38056,
        "rank_sort": 38097,
        "total": 2361
      },
      {
        "club_badge_src": null,
        "entry": 1092443,
        "entry_name": "HDV225",
        "event_total": 44,
        "has_played": true,
        "id": 7566151,
        "last_rank": 21301,
        "player_name": "Taffy Thomas",
        "rank": 38056,
        "rank_sort": 38098,
        "total": 2361
      },
      {
        "club_badge_src": "https://fantasy.premierleague.com/gcs/plfpl-production-adobe-approved/plfpl-production/1095947/baeaad14-9b64-4177-8de6-dd89d19f7856.png",
        "entry": 1095947,
        "entry_name": "Wataru doing?",
        "event_total": 67,
        "has_played": true,
        "id": 7590942,
        "last_rank": 51984,
        "player_name": "John Madrazo",
        "rank": 38056,
        "rank_sort": 38099,
        "total": 2361
      },
      {
        "club_badge_src": null,
        "entry": 1097257,
        "entry_name": "Kinder Mbeumo",
        "event_total": 59,
        "has_played": true,
        "id": 7600026,
        "last_rank": 35619,
        "player_name": "Aman Essa",
        "rank": 38056,
        "rank_sort": 38100,
        "total": 2361
      }
    ]
  }
}