{
  "last_updated_data": "2026-05-24T23:28:17Z",
  "league": {
    "admin_entry": null,
    "closed": false,
    "code_privacy": "p",
    "created": "2025-07-20T23:14:33.933835Z",
    "cup_league": 2815434,
    "has_cup": true,
    "id": 314,
    "league_type": "s",
    "max_entries": null,
    "name": "Overall",
    "rank": null,
    "scoring": "c",
    "start_event": 1
  },
  "new_entries": {
    "has_next": false,
    "page": 1,
    "results": []
  },
  "standings": {
    "has_next": true,
    "page": 448,
    "results": [
      {
        "club_badge_src": null,
        "entry": 3451561,
        "entry_name": "Chippy Chips",
        "event_total": 67,
        "has_played": true,
        "id": 25649905,
        "last_rank": 30727,
        "player_name": "Josh Wong",
        "rank": 22247,
        "rank_sort": 22351,
        "total": 2377
      },
      {
        "club_badge_src": null,
        "entry": 3456848,
        "entry_name": "An odd XI",
        "event_total": 65,
        "has_played": true,
        "id": 25693118,
        "last_rank": 28906,
        "player_name": "Odd Inge Aas",
        "rank": 22247,
        "rank_sort": 22352,
        "total": 2377
      },
      {
        "club_badge_src": null,
        "entry": 3743779,
        "entry_name": "Hazem IV",
        "event_total": 43,
        "has_played": true,
        "id": 27947453,
        "last_rank": 12705,
        "player_name": "Mohamed Hazem",
        "rank": 22247,
        "rank_sort": 22353,
        "total": 2377
      },
      {
        "club_badge_src": null,
        "entry": 3761306,
        "entry_name": "Mind the Gakpo",
        "event_total": 65,
        "has_played": true,
        "id": 28083561,
        "last_rank": 28906,
        "player_name": "Manu Vides",
        "rank": 22247,
        "rank_sort": 22354,
        "total": 2377
      },
      {
        "club_badge_src": null,
        "entry": 3767623,
        "entry_name": "lee fc",
        "event_total": 65,
        "has_played": true,
        "id": 28131161,
        "last_rank": 28609,
        "player_name": "leo Udebu",
        "rank": 22247,
        "rank_sort": 22355,
        "total": 2377
      },
      {
        "club_badge_src": "https://fantasy.premierleague.com/gcs/plfpl-production-adobe-approved/plfpl-production/3882723/5bda4fdf-5bd4-4d01-958f-26bfb648f343.png",
        "entry": 3882723,
        "entry_name": "x zrake",
        "event_total": 49,
        "has_played": true,
        "id": 29174723,
        "last_rank": 13821,
        "player_name": "Mladen Ragu\u017e",
        "rank": 22247,
        "rank_sort": 22356,
        "total": 2377
      },
      {
        "club_badge_src": null,
        "entry": 3898760,
        "entry_name": "Talib haje",
        "event_total": 61,
        "has_played": true,
        "id": 29303902,
        "last_rank": 25172,
        "player_name": "talib haje",
        "rank": 22247,
        "rank_sort": 22357,
        "total": 2377
      },
      {
        "club_badge_src": null,
        "entry": 3908820,
        "entry_name": "Yoro Wissa Harry",
        "event_total": 54,
        "has_played": true,
        "id": 29387604,
        "last_rank": 19835,
        "player_name": "Gregour Carr",
        "rank": 22247,
        "rank_sort": 22358,
        "total": 2377
      },
      {
        "club_badge_src": null,
        "entry": 3993677,
        "entry_name": "The Cream Chargers",
        "event_total": 71,
        "has_played": true,
        "id": 30073773,
        "last_rank": 35166,
        "player_name": "Chris Stott",
        "rank": 22247,
        "rank_sort": 22359,
        "total": 2377
      },
      {
        "club_badge_src": null,
        "entry": 4055482,
        "entry_name": "Finn united",
        "event_total": 71,
        "has_played": true,
        "id": 30599579,
        "last_rank": 35424,
        "player_name": "Andrew whitton",
        "rank": 22247,
        "rank_sort": 22360,
        "total": 2377
      },
      {
        "club_badge_src": null,
        "entry": 4095956,
        "entry_name": "Necher",
        "event_total": 50,
        "has_played": true,
        "id": 30926870,
        "last_rank": 16959,
        "player_name": "necher bkar",
        "rank": 22247,
        "rank_sort": 22361,
        "total": 2377
      },
      {
        "club_badge_src": null,
        "entry": 4136783,
        "entry_name": "ozziethemaniac",
        "event_total": 69,
        "has_played": true,
        "id": 31263201,
        "last_rank": 33147,
        "player_name": "Oscar Texeira",
        "rank": 22247,
        "rank_sort": 22362,
        "total": 2377
      },
      {
        "club_badge_src": null,
        "entry": 4203499,
        "entry_name": "Palmer Violets",
        "event_total": 69,
        "has_played": true,
        "id": 31820575,
        "last_rank": 33147,
        "player_name": "Elliott Montague",
        "rank": 22247,
        "rank_sort": 22363,
        "total": 2377
      },
      {
        "club_badge_src": null,
        "entry": 4208791,
        "entry_name": "Patraix",
        "event_total": 57,
        "has_played": true,
        "id": 31864846,
        "last_rank": 21949,
        "player_name": "Diane Millar",
        "rank": 22247,
        "rank_sort": 22364,
        "total": 2377
      },
      {
        "club_badge_src": null,
        "entry": 4429974,
        "entry_name": "MostWanted FC",
        "event_total": 69,
        "has_played": true,
        "id": 33722184,
        "last_rank": 33147,
        "player_name": "Tsegaye T.",
        "rank": 22247,
        "rank_sort": 22365,
        "total": 2377
      },
      {
        "club_badge_src": "https://fantasy.premierleague.com/gcs/plfpl-production-adobe-approved/plfpl-production/4511325/40bfa38f-c5b4-47ff-875f-81a2ffd9dcc8.png",
        "entry": 4511325,
        "entry_name": "\u0391\u03a0\u039f\u0395\u039b\u039b\u0391\u03a3",
        "event_total": 67,
        "has_played": true,
        "id": 34399511,
        "last_rank": 30957,
        "player_name": "Sakis Athanasiou",
        "rank": 22247,
        "rank_sort": 22366,
        "total": 2377
      },
      {
        "club_badge_src": null,
        "entry": 4641872,
        "entry_name": "Coach Harry's XI",
        "event_total": 61,
        "has_played": true,
        "id": 35503700,
        "last_rank": 21775,
        "player_name": "Harry Lambert",
        "rank": 22247,
        "rank_sort": 22367,
        "total": 2377
      },
      {
        "club_badge_src": null,
        "entry": 4755754,
        "entry_name": "Go with the Flo",
        "event_total": 54,
        "has_played": true,
        "id": 36597031,
        "last_rank": 19544,
        "player_name": "Carl Oliver",
        "rank": 22247,
        "rank_sort": 22368,
        "total": 2377
      },
      {
        "club_badge_src": null,
        "entry": 4908793,
        "entry_name": "Mara Donna",
        "event_total": 72,
        "has_played": true,
        "id": 37855227,
        "last_rank": 31747,
        "player_name": "Donna Hunter",
        "rank": 22247,
        "rank_sort": 22369,
        "total": 2377
      },
      {
        "club_badge_src": null,
        "entry": 4913679,
        "entry_name": "Milby The Terrible",
        "event_total": 71,
        "has_played": true,
        "id": 37895507,
        "last_rank": 35424,
        "player_name": "Nick Woodward",
        "rank": 22247,
        "rank_sort": 22370,
        "total": 2377
      },
      {
        "club_badge_src": null,
        "entry": 5378317,
        "entry_name": "FPL DON",
        "event_total": 57,
        "has_played": true,
        "id": 41804879,
        "last_rank": 21949,
        "player_name": "Toby Barratt",
        "rank": 22247,
        "rank_sort": 22371,
        "total": 2377
      },
      {
        "club_badge_src": null,
        "entry": 5615110,
        "entry_name": "Coca Gola",
        "event_total": 60,
        "has_played": true,
        "id": 43887954,
        "last_rank": 20888,
        "player_name": "Misbah Shamim",
        "rank": 22247,
        "rank_sort": 22372,
        "total": 2377
      },
      {
        "club_badge_src": null,
        "entry": 5658287,
        "entry_name": "Re-tired",
        "event_total": 60,
        "has_played": true,
        "id": 44267679,
        "last_rank": 24330,
        "player_name": "Ah Chiang",
        "rank": 22247,
        "rank_sort": 22373,
        "total": 2377
      },
      {
        "club_badge_src": "https://fantasy.premierleague.com/gcs/plfpl-production-adobe-approved/plfpl-production/5826764/91c83b5b-e8f2-46dd-abd1-3203e7462956.png",
        "entry": 5826764,
        "entry_name": "Ghoulkeepers",
        "event_total": 82,
        "has_played": true,
        "id": 45730122,
        "last_rank": 43849,
        "player_name": "Robert Brau\u0142a",
        "rank": 22247,
        "rank_sort": 22374,
        "total": 2377
      },
      {
        "club_badge_src": null,
        "entry": 6148377,
        "entry_name": "\u79fb\u52d5\u8b77\u7d1a\u7dda",
        "event_total": 56,
        "has_played": true,
        "id": 48598665,
        "last_rank": 20983,
        "player_name": "Mere Wong",
        "rank": 22247,
        "rank_sort": 22375,
        "total": 2377
      },
      {
        "club_badge_src": null,
        "entry": 6192402,
        "entry_name": "Athletico Freer",
        "event_total": 51,
        "has_played": true,
        "id": 48979873,
        "last_rank": 17585,
        "player_name": "Josh Freer",
        "rank": 22247,
        "rank_sort": 22376,
        "total": 2377
      },
      {
        "club_badge_src": null,
        "entry": 6262508,
        "entry_name": "Bloke FC",
        "event_total": 66,
        "has_played": true,
        "id": 49584725,
        "last_rank": 29688,
        "player_name": "Michael Winstanley",
        "rank": 22247,
        "rank_sort": 22377,
        "total": 2377
      },
      {
        "club_badge_src": null,
        "entry": 6567860,
        "entry_name": "Liverdogs",
        "event_total": 52,
        "has_played": true,
        "id": 52425954,
        "last_rank": 18113,
        "player_name": "Neil Lister",
        "rank": 22247,
        "rank_sort": 22378,
        "total": 2377
      },
      {
        "club_badge_src": "https://fantasy.premierleague.com/gcs/plfpl-production-adobe-approved/plfpl-production/6704777/1e9d27c7-e57d-45ca-8162-05cb2f2377b1.png",
        "entry": 6704777,
        "entry_name": "winters wonders",
        "event_total": 59,
        "has_played": true,
        "id": 53650328,
        "last_rank": 23341,
        "player_name": "Charlotte Tweed",
        "rank": 22247,
        "rank_sort": 22379,
        "total": 2377
      },
      {
        "club_badge_src": null,
        "entry": 6945968,
        "entry_name": "Kopitiam Asiong",
        "event_total": 69,
        "has_played": true,
        "id": 55692178,
        "last_rank": 33147,
        "player_name": "Joshua Nalom Parasian",
        "rank": 22247,
        "rank_sort": 22380,
        "total": 2377
      },
      {
        "club_badge_src": null,
        "entry": 6995534,
        "entry_name": "Top Tip",
        "event_total": 69,
        "has_played": true,
        "id": 56161033,
        "last_rank": 33332,
        "player_name": "Euan Macfarlane",
        "rank": 22247,
        "rank_sort": 22381,
        "total": 2377
      },
      {
        "club_badge_src": null,
        "entry": 7120471,
        "entry_name": "Gal\u00e1cticos FC",
        "event_total": 65,
        "has_played": true,
        "id": 57370539,
        "last_rank": 25002,
        "player_name": "Nathan Fong",
        "rank": 22247,
        "rank_sort": 22382,
        "total": 2377
      },
      {
        "club_badge_src": null,
        "entry": 7140362,
        "entry_name": "akustik FC",
        "event_total": 66,
        "has_played": true,
        "id": 57558214,
        "last_rank": 29688,
        "player_name": "Gabriel L",
        "rank": 22247,
        "rank_sort": 22383,
        "total": 2377
      },
      {
        "club_badge_src": null,
        "entry": 7185791,
        "entry_name": "raya sunshine",
        "event_total": 61,
        "has_played": true,
        "id": 58000408,
        "last_rank": 25172,
        "player_name": "Izzy McLees",
        "rank": 22247,
        "rank_sort": 22384,
        "total": 2377
      },
      {
        "club_badge_src": null,
        "entry": 7250012,
        "entry_name": "IGATEAM",
        "event_total": 49,
        "has_played": true,
        "id": 58604855,
        "last_rank": 16320,
        "player_name": "Szymon Wr\u00f3bel",
        "rank": 22247,
        "rank_sort": 22385,
        "total": 2377
      },
      {
        "club_badge_src": null,
        "entry": 7596675,
        "entry_name": "Anyone but Forest",
        "event_total": 71,
        "has_played": true,
        "id": 62235047,
        "last_rank": 35424,
        "player_name": "John Featherstone",
        "rank": 22247,
        "rank_sort": 22386,
        "total": 2377
      },
      {
        "club_badge_src": null,
        "entry": 7620577,
        "entry_name": "Palmer Power XI",
        "event_total": 82,
        "has_played": true,
        "id": 62452165,
        "last_rank": 50468,
        "player_name": "Mohammed Goat",
        "rank": 22247,
        "rank_sort": 22387,
        "total": 2377
      },
      {
        "club_badge_src": null,
        "entry": 7751593,
        "entry_name": "Gunner Finish 2nd",
        "event_total": 50,
        "has_played": true,
        "id": 63635158,
        "last_rank": 16959,
        "player_name": "Armaan Ali",
        "rank": 22247,
        "rank_sort": 22388,
        "total": 2377
      },
      {
        "club_badge_src": null,
        "entry": 8222656,
        "entry_name": "Napolitanci",
        "event_total": 87,
        "has_played": true,
        "id": 67955498,
        "last_rank": 57776,
        "player_name": "Petar Rakonjac",
        "rank": 22247,
        "rank_sort": 22389,
        "total": 2377
      },
      {
        "club_badge_src": null,
        "entry": 8327864,
        "entry_name": "\u0160e\u0161ko Express",
        "event_total": 55,
        "has_played": true,
        "id": 68994141,
        "last_rank": 20416,
        "player_name": "Liam Jeffrey",
        "rank": 22247,
        "rank_sort": 22390,
        "total": 2377
      },
      {
        "club_badge_src": null,
        "entry": 8347102,
        "entry_name": "Palmerham and Cheese",
        "event_total": 64,
        "has_played": true,
        "id": 69175364,
        "last_rank": 24143,
        "player_name": "John-Jo Parkinson-Allsopp",
        "rank": 22247,
        "rank_sort": 22391,
        "total": 2377
      },
      {
        "club_badge_src": null,
        "entry": 8514349,
        "entry_name": "Schlupptown Dunk",
        "event_total": 65,
        "has_played": true,
        "id": 70776770,
        "last_rank": 28906,
        "player_name": "Keaton Lawrence",
        "rank": 22247,
        "rank_sort": 22392,
        "total": 2377
      },
      {
        "club_badge_src": null,
        "entry": 9288015,
        "entry_name": "egebedreennstianifpl",
        "event_total": 65,
        "has_played": true,
        "id": 78294194,
        "last_rank": 25002,
        "player_name": "Peder Andreas Torgersen \u00d8yre",
        "rank": 22247,
        "rank_sort": 22393,
        "total": 2377
      },
      {
        "club_badge_src": null,
        "entry": 9435090,
        "entry_name": "beef cherki",
        "event_total": 56,
        "has_played": true,
        "id": 79708434,
        "last_rank": 18113,
        "player_name": "Ian Lim",
        "rank": 22247,
        "rank_sort": 22394,
        "total": 2377
      },
      {
        "club_badge_src": null,
        "entry": 929,
        "entry_name": "rafaisthebosphorus",
        "event_total": 50,
        "has_played": true,
        "id": 5140,
        "last_rank": 17078,
        "player_name": "Matthew Robb",
        "rank": 22395,
        "rank_sort": 22395,
        "total": 2377
      },
      {
        "club_badge_src": null,
        "entry": 1433,
        "entry_name": "FC Bersan",
        "event_total": 55,
        "has_played": true,
        "id": 7968,
        "last_rank": 20416,
        "player_name": "Elias Eklund",
        "rank": 22395,
        "rank_sort": 22396,
        "total": 2377
      },
      {
        "club_badge_src": null,
        "entry": 7637,
        "entry_name": "HazTown Rovers",
        "event_total": 59,
        "has_played": true,
        "id": 44051,
        "last_rank": 20416,
        "player_name": "Harry Adams",
        "rank": 22395,
        "rank_sort": 22397,
        "total": 2377
      },
      {
        "club_badge_src": "https://fantasy.premierleague.com/gcs/plfpl-production-adobe-approved/plfpl-production/11426/9dc22f9c-4b72-435c-b546-b6a6cdc194c0.png",
        "entry": 11426,
        "entry_name": "Maccabi Cmboy",
        "event_total": 64,
        "has_played": true,
        "id": 67928,
        "last_rank": 28150,
        "player_name": "Efraim Glatt",
        "rank": 22395,
        "rank_sort": 22398,
        "total": 2377
      },
      {
        "club_badge_src": null,
        "entry": 12188,
        "entry_name": "smith rowe your boat",
        "event_total": 68,
        "has_played": true,
        "id": 72739,
        "last_rank": 24143,
        "player_name": "liam Doyle",
        "rank": 22395,
        "rank_sort": 22399,
        "total": 2377
      },
      {
        "club_badge_src": null,
        "entry": 21096,
        "entry_name": "Vicario Dibley",
        "event_total": 74,
        "has_played": true,
        "id": 132222,
        "last_rank": 34293,
        "player_name": "Bryan Clarke",
        "rank": 22395,
        "rank_sort": 22400,
        "total": 2377
      }
    ]
  }
}