{
  "last_updated_data": "2026-05-24T23:28:17Z",
  "league": {
    "admin_entry": null,
    "closed": false,
    "code_privacy": "p",
    "created": "2025-07-20T23:14:33.933835Z",
    "cup_league": 2815434,
    "has_cup": true,
    "id": 314,
    "league_type": "s",
    "max_entries": null,
    "name": "Overall",
    "rank": null,
    "scoring": "c",
    "start_event": 1
  },
  "new_entries": {
    "has_next": false,
    "page": 1,
    "results": []
  },
  "standings": {
    "has_next": true,
    "page": 1553,
    "results": [
      {
        "club_badge_src": null,
        "entry": 5541709,
        "entry_name": "Reiss Lightning",
        "event_total": 58,
        "has_played": true,
        "id": 43242326,
        "last_rank": 81420,
        "player_name": "Jack Mulcahy",
        "rank": 77557,
        "rank_sort": 77601,
        "total": 2336
      },
      {
        "club_badge_src": null,
        "entry": 5922624,
        "entry_name": "Wissa hardknock life",
        "event_total": 59,
        "has_played": true,
        "id": 46553038,
        "last_rank": 83534,
        "player_name": "Lloyd Hackett",
        "rank": 77557,
        "rank_sort": 77602,
        "total": 2336
      },
      {
        "club_badge_src": null,
        "entry": 6239992,
        "entry_name": "FC Paranhos",
        "event_total": 39,
        "has_played": true,
        "id": 49388990,
        "last_rank": 46591,
        "player_name": "Jorge Marques",
        "rank": 77557,
        "rank_sort": 77603,
        "total": 2336
      },
      {
        "club_badge_src": null,
        "entry": 6475616,
        "entry_name": "BladesOnTour",
        "event_total": 62,
        "has_played": true,
        "id": 51602629,
        "last_rank": 90565,
        "player_name": "Zak Heywood",
        "rank": 77557,
        "rank_sort": 77604,
        "total": 2336
      },
      {
        "club_badge_src": null,
        "entry": 6730457,
        "entry_name": "Mbuemzzzz FC",
        "event_total": 51,
        "has_played": true,
        "id": 53870829,
        "last_rank": 66848,
        "player_name": "Solomon R",
        "rank": 77557,
        "rank_sort": 77605,
        "total": 2336
      },
      {
        "club_badge_src": "https://fantasy.premierleague.com/gcs/plfpl-production-adobe-approved/plfpl-production/7238101/c7033b46-d4c3-48cd-b76d-804866b2c6c2.png",
        "entry": 7238101,
        "entry_name": "Ant's in their pants",
        "event_total": 72,
        "has_played": true,
        "id": 58490875,
        "last_rank": 117112,
        "player_name": "Anthony Coyne",
        "rank": 77557,
        "rank_sort": 77606,
        "total": 2336
      },
      {
        "club_badge_src": null,
        "entry": 7354975,
        "entry_name": "Cate Expectations",
        "event_total": 56,
        "has_played": true,
        "id": 59595158,
        "last_rank": 77050,
        "player_name": "Cate Fuggle",
        "rank": 77557,
        "rank_sort": 77607,
        "total": 2336
      },
      {
        "club_badge_src": "https://fantasy.premierleague.com/gcs/plfpl-production-adobe-approved/plfpl-production/7368893/fc9810f7-0a7e-445a-a966-82316d383272.png",
        "entry": 7368893,
        "entry_name": "Bekkestua Bulldogs",
        "event_total": 85,
        "has_played": true,
        "id": 59724498,
        "last_rank": 159745,
        "player_name": "Adam Berg",
        "rank": 77557,
        "rank_sort": 77608,
        "total": 2336
      },
      {
        "club_badge_src": null,
        "entry": 7562117,
        "entry_name": "Ali",
        "event_total": 70,
        "has_played": true,
        "id": 61920910,
        "last_rank": 111203,
        "player_name": "Fru Stomphert",
        "rank": 77557,
        "rank_sort": 77609,
        "total": 2336
      },
      {
        "club_badge_src": null,
        "entry": 8135597,
        "entry_name": "HamsikOfIt",
        "event_total": 49,
        "has_played": true,
        "id": 67133498,
        "last_rank": 63201,
        "player_name": "Patrick Hinchcliffe",
        "rank": 77557,
        "rank_sort": 77610,
        "total": 2336
      },
      {
        "club_badge_src": null,
        "entry": 8340025,
        "entry_name": "Maverick",
        "event_total": 57,
        "has_played": true,
        "id": 69108586,
        "last_rank": 79190,
        "player_name": "Levi Ackerman",
        "rank": 77557,
        "rank_sort": 77611,
        "total": 2336
      },
      {
        "club_badge_src": null,
        "entry": 9147503,
        "entry_name": "Trane",
        "event_total": 28,
        "has_played": true,
        "id": 76916053,
        "last_rank": 32751,
        "player_name": "Jarand Trane Skadsem",
        "rank": 77557,
        "rank_sort": 77612,
        "total": 2336
      },
      {
        "club_badge_src": null,
        "entry": 9287029,
        "entry_name": "Whit FC",
        "event_total": 64,
        "has_played": true,
        "id": 78284498,
        "last_rank": 95640,
        "player_name": "Charles Owusu",
        "rank": 77557,
        "rank_sort": 77613,
        "total": 2336
      },
      {
        "club_badge_src": null,
        "entry": 10708018,
        "entry_name": "Gunners",
        "event_total": 76,
        "has_played": true,
        "id": 90454328,
        "last_rank": 129205,
        "player_name": "Saleh Al-Ghunaim",
        "rank": 77557,
        "rank_sort": 77614,
        "total": 2336
      },
      {
        "club_badge_src": null,
        "entry": 2239,
        "entry_name": "FC RAM",
        "event_total": 55,
        "has_played": true,
        "id": 12491,
        "last_rank": 75139,
        "player_name": "Ram Radia",
        "rank": 77615,
        "rank_sort": 77615,
        "total": 2336
      },
      {
        "club_badge_src": null,
        "entry": 2502,
        "entry_name": "cant get any wirtz",
        "event_total": 21,
        "has_played": true,
        "id": 13957,
        "last_rank": 25902,
        "player_name": "Sam Millar",
        "rank": 77615,
        "rank_sort": 77616,
        "total": 2336
      },
      {
        "club_badge_src": null,
        "entry": 17006,
        "entry_name": "allin",
        "event_total": 59,
        "has_played": true,
        "id": 105334,
        "last_rank": 83934,
        "player_name": "Einar Eimhjellen",
        "rank": 77615,
        "rank_sort": 77617,
        "total": 2336
      },
      {
        "club_badge_src": null,
        "entry": 36876,
        "entry_name": "Noni your business",
        "event_total": 38,
        "has_played": true,
        "id": 236131,
        "last_rank": 45416,
        "player_name": "Joey D",
        "rank": 77615,
        "rank_sort": 77618,
        "total": 2336
      },
      {
        "club_badge_src": "https://fantasy.premierleague.com/gcs/plfpl-production-adobe-approved/plfpl-production/38959/93ae435b-8107-45a0-bfe3-049ddf6e5284.png",
        "entry": 38959,
        "entry_name": "I need a Schmidt",
        "event_total": 62,
        "has_played": true,
        "id": 249737,
        "last_rank": 90524,
        "player_name": "Joshua Brompton",
        "rank": 77615,
        "rank_sort": 77619,
        "total": 2336
      },
      {
        "club_badge_src": null,
        "entry": 62475,
        "entry_name": "Placeholder FC",
        "event_total": 42,
        "has_played": true,
        "id": 402738,
        "last_rank": 51403,
        "player_name": "Maurice McCole",
        "rank": 77615,
        "rank_sort": 77620,
        "total": 2336
      },
      {
        "club_badge_src": null,
        "entry": 96246,
        "entry_name": "Banksy",
        "event_total": 74,
        "has_played": true,
        "id": 628794,
        "last_rank": 122988,
        "player_name": "Euan Banks",
        "rank": 77615,
        "rank_sort": 77621,
        "total": 2336
      },
      {
        "club_badge_src": null,
        "entry": 128391,
        "entry_name": "Flo And Steady",
        "event_total": 59,
        "has_played": true,
        "id": 836904,
        "last_rank": 74787,
        "player_name": "Calum Elder",
        "rank": 77615,
        "rank_sort": 77622,
        "total": 2336
      },
      {
        "club_badge_src": null,
        "entry": 133992,
        "entry_name": "Wirtz Case Scenario",
        "event_total": 66,
        "has_played": true,
        "id": 872707,
        "last_rank": 100572,
        "player_name": "Dewi Townley",
        "rank": 77615,
        "rank_sort": 77623,
        "total": 2336
      },
      {
        "club_badge_src": "https://fantasy.premierleague.com/gcs/plfpl-production-adobe-approved/plfpl-production/135391/d9321319-79ac-4022-89a8-442ba756a1f1.png",
        "entry": 135391,
        "entry_name": "Ladotelli",
        "event_total": 68,
        "has_played": true,
        "id": 881611,
        "last_rank": 105963,
        "player_name": "Viktor Pettersson",
        "rank": 77615,
        "rank_sort": 77624,
        "total": 2336
      },
      {
        "club_badge_src": "https://fantasy.premierleague.com/gcs/plfpl-production-adobe-approved/plfpl-production/159275/dc1ca0d2-c1ae-40dc-9e2a-dd0011756ea3.png",
        "entry": 159275,
        "entry_name": "Cherry On Top AFC",
        "event_total": 62,
        "has_played": true,
        "id": 1048304,
        "last_rank": 90746,
        "player_name": "Aaron Clifford",
        "rank": 77615,
        "rank_sort": 77625,
        "total": 2336
      },
      {
        "club_badge_src": null,
        "entry": 177240,
        "entry_name": "wirtz of them all",
        "event_total": 30,
        "has_played": true,
        "id": 1169826,
        "last_rank": 35166,
        "player_name": "Jude Hogg",
        "rank": 77615,
        "rank_sort": 77626,
        "total": 2336
      },
      {
        "club_badge_src": null,
        "entry": 209096,
        "entry_name": "\u00d8DearGod",
        "event_total": 69,
        "has_played": true,
        "id": 1390419,
        "last_rank": 108567,
        "player_name": "Jack Banks",
        "rank": 77615,
        "rank_sort": 77627,
        "total": 2336
      },
      {
        "club_badge_src": null,
        "entry": 226858,
        "entry_name": "Gadoussa <3",
        "event_total": 59,
        "has_played": true,
        "id": 1509065,
        "last_rank": 83584,
        "player_name": "Anouar Daki",
        "rank": 77615,
        "rank_sort": 77628,
        "total": 2336
      },
      {
        "club_badge_src": null,
        "entry": 250724,
        "entry_name": "Hatrick Hero",
        "event_total": 54,
        "has_played": true,
        "id": 1668103,
        "last_rank": 72815,
        "player_name": "Malcolm Mains",
        "rank": 77615,
        "rank_sort": 77629,
        "total": 2336
      },
      {
        "club_badge_src": "https://fantasy.premierleague.com/gcs/plfpl-production-adobe-approved/plfpl-production/291362/8464b5c1-96d9-45a0-9534-555f1c459a39.png",
        "entry": 291362,
        "entry_name": "Uzzi for the Stars",
        "event_total": 44,
        "has_played": true,
        "id": 1943401,
        "last_rank": 54494,
        "player_name": "Uzair Ismail",
        "rank": 77615,
        "rank_sort": 77630,
        "total": 2336
      },
      {
        "club_badge_src": "https://fantasy.premierleague.com/gcs/plfpl-production-adobe-approved/plfpl-production/314178/11e5268f-288a-4308-8beb-1733f8661690.png",
        "entry": 314178,
        "entry_name": "Slayla",
        "event_total": 21,
        "has_played": true,
        "id": 2105307,
        "last_rank": 25902,
        "player_name": "Laila McEwan",
        "rank": 77615,
        "rank_sort": 77631,
        "total": 2336
      },
      {
        "club_badge_src": null,
        "entry": 326441,
        "entry_name": "Cherki Breaky Heart",
        "event_total": 34,
        "has_played": true,
        "id": 2187276,
        "last_rank": 40036,
        "player_name": "Owen Walsh",
        "rank": 77615,
        "rank_sort": 77632,
        "total": 2336
      },
      {
        "club_badge_src": null,
        "entry": 343260,
        "entry_name": "Chill Town FC",
        "event_total": 58,
        "has_played": true,
        "id": 2297384,
        "last_rank": 81420,
        "player_name": "Alex Charlton",
        "rank": 77615,
        "rank_sort": 77633,
        "total": 2336
      },
      {
        "club_badge_src": null,
        "entry": 365937,
        "entry_name": "Bryan Munich",
        "event_total": 45,
        "has_played": true,
        "id": 2448810,
        "last_rank": 56369,
        "player_name": "Thomas Clark",
        "rank": 77615,
        "rank_sort": 77634,
        "total": 2336
      },
      {
        "club_badge_src": null,
        "entry": 482935,
        "entry_name": "Lil Uzi Vertonghen",
        "event_total": 53,
        "has_played": true,
        "id": 3241901,
        "last_rank": 70985,
        "player_name": "Ed Hindle",
        "rank": 77615,
        "rank_sort": 77635,
        "total": 2336
      },
      {
        "club_badge_src": null,
        "entry": 498207,
        "entry_name": "Paranoids Androids78",
        "event_total": 60,
        "has_played": true,
        "id": 3343858,
        "last_rank": 86304,
        "player_name": "Artur Ryl",
        "rank": 77615,
        "rank_sort": 77636,
        "total": 2336
      },
      {
        "club_badge_src": null,
        "entry": 527345,
        "entry_name": "Bana",
        "event_total": 62,
        "has_played": true,
        "id": 3545064,
        "last_rank": 90746,
        "player_name": "Bana Bana",
        "rank": 77615,
        "rank_sort": 77637,
        "total": 2336
      },
      {
        "club_badge_src": null,
        "entry": 556356,
        "entry_name": "Allison Wonderland",
        "event_total": 57,
        "has_played": true,
        "id": 3744333,
        "last_rank": 78997,
        "player_name": "Ebrahim Fakier",
        "rank": 77615,
        "rank_sort": 77638,
        "total": 2336
      },
      {
        "club_badge_src": null,
        "entry": 593536,
        "entry_name": "Bunch of Hunts",
        "event_total": 76,
        "has_played": true,
        "id": 3999961,
        "last_rank": 129043,
        "player_name": "Dom Hunt",
        "rank": 77615,
        "rank_sort": 77639,
        "total": 2336
      },
      {
        "club_badge_src": null,
        "entry": 679254,
        "entry_name": "Aribo Tangfastics",
        "event_total": 38,
        "has_played": true,
        "id": 4596395,
        "last_rank": 45252,
        "player_name": "Lewis Gilpin",
        "rank": 77615,
        "rank_sort": 77640,
        "total": 2336
      },
      {
        "club_badge_src": null,
        "entry": 718463,
        "entry_name": "Backstreet Moyes",
        "event_total": 62,
        "has_played": true,
        "id": 4875654,
        "last_rank": 90746,
        "player_name": "Sam Green",
        "rank": 77615,
        "rank_sort": 77641,
        "total": 2336
      },
      {
        "club_badge_src": null,
        "entry": 745903,
        "entry_name": "Weakest Link Round 5",
        "event_total": 62,
        "has_played": true,
        "id": 5074188,
        "last_rank": 90565,
        "player_name": "Michael McAdam",
        "rank": 77615,
        "rank_sort": 77642,
        "total": 2336
      },
      {
        "club_badge_src": null,
        "entry": 942554,
        "entry_name": "Real Madridlesbrough",
        "event_total": 53,
        "has_played": true,
        "id": 6491333,
        "last_rank": 70985,
        "player_name": "Ryan Threadgill",
        "rank": 77615,
        "rank_sort": 77643,
        "total": 2336
      },
      {
        "club_badge_src": null,
        "entry": 945877,
        "entry_name": "Minority Laporte",
        "event_total": 67,
        "has_played": true,
        "id": 6514974,
        "last_rank": 103130,
        "player_name": "Peter Jackson",
        "rank": 77615,
        "rank_sort": 77644,
        "total": 2336
      },
      {
        "club_badge_src": null,
        "entry": 1161779,
        "entry_name": "Harry Maguire FC",
        "event_total": 62,
        "has_played": true,
        "id": 8059048,
        "last_rank": 90746,
        "player_name": "Njaal Arntsen",
        "rank": 77615,
        "rank_sort": 77645,
        "total": 2336
      },
      {
        "club_badge_src": null,
        "entry": 1262726,
        "entry_name": "count doku",
        "event_total": 61,
        "has_played": true,
        "id": 8773009,
        "last_rank": 88249,
        "player_name": "Joakim Brunvall",
        "rank": 77615,
        "rank_sort": 77646,
        "total": 2336
      },
      {
        "club_badge_src": null,
        "entry": 1262821,
        "entry_name": "Mbeumo or Bust",
        "event_total": 73,
        "has_played": true,
        "id": 8773783,
        "last_rank": 120438,
        "player_name": "Craig Don",
        "rank": 77615,
        "rank_sort": 77647,
        "total": 2336
      },
      {
        "club_badge_src": null,
        "entry": 1310404,
        "entry_name": "Palmer Llama",
        "event_total": 72,
        "has_played": true,
        "id": 9108470,
        "last_rank": 117423,
        "player_name": "Adam Sayers",
        "rank": 77615,
        "rank_sort": 77648,
        "total": 2336
      },
      {
        "club_badge_src": null,
        "entry": 1324081,
        "entry_name": "GyokeresHive FC",
        "event_total": 55,
        "has_played": true,
        "id": 9203615,
        "last_rank": 75139,
        "player_name": "Abbaas Aslam",
        "rank": 77615,
        "rank_sort": 77649,
        "total": 2336
      },
      {
        "club_badge_src": null,
        "entry": 1339020,
        "entry_name": "Reece's Set Pieces",
        "event_total": 39,
        "has_played": true,
        "id": 9309702,
        "last_rank": 46839,
        "player_name": "Jonathon Leesing",
        "rank": 77615,
        "rank_sort": 77650,
        "total": 2336
      }
    ]
  }
}