{
  "last_updated_data": "2026-05-24T23:28:17Z",
  "league": {
    "admin_entry": null,
    "closed": false,
    "code_privacy": "p",
    "created": "2025-07-20T23:14:33.933835Z",
    "cup_league": 2815434,
    "has_cup": true,
    "id": 314,
    "league_type": "s",
    "max_entries": null,
    "name": "Overall",
    "rank": null,
    "scoring": "c",
    "start_event": 1
  },
  "new_entries": {
    "has_next": false,
    "page": 1,
    "results": []
  },
  "standings": {
    "has_next": true,
    "page": 1044,
    "results": [
      {
        "club_badge_src": null,
        "entry": 7787949,
        "entry_name": "Me, Myself Ndiaye",
        "event_total": 59,
        "has_played": true,
        "id": 63965022,
        "last_rank": 43512,
        "player_name": "Christopher Mark Hearsey",
        "rank": 52125,
        "rank_sort": 52151,
        "total": 2351
      },
      {
        "club_badge_src": null,
        "entry": 9206325,
        "entry_name": "No One Likes Us",
        "event_total": 62,
        "has_played": true,
        "id": 77497090,
        "last_rank": 54134,
        "player_name": "Greig Allen",
        "rank": 52125,
        "rank_sort": 52152,
        "total": 2351
      },
      {
        "club_badge_src": null,
        "entry": 9254469,
        "entry_name": "Barnstoneworth Utd",
        "event_total": 66,
        "has_played": true,
        "id": 77966104,
        "last_rank": 61004,
        "player_name": "Wayne Haigh",
        "rank": 52125,
        "rank_sort": 52153,
        "total": 2351
      },
      {
        "club_badge_src": null,
        "entry": 12451,
        "entry_name": "Cole World",
        "event_total": 77,
        "has_played": true,
        "id": 74542,
        "last_rank": 83127,
        "player_name": "Varick Rajayogan",
        "rank": 52154,
        "rank_sort": 52154,
        "total": 2351
      },
      {
        "club_badge_src": null,
        "entry": 60208,
        "entry_name": "Gross busters",
        "event_total": 68,
        "has_played": true,
        "id": 387668,
        "last_rank": 50848,
        "player_name": "Dixie Dean",
        "rank": 52154,
        "rank_sort": 52155,
        "total": 2351
      },
      {
        "club_badge_src": "https://fantasy.premierleague.com/gcs/plfpl-production-adobe-approved/plfpl-production/141215/d5f52a01-74ab-4864-a279-27d563252746.png",
        "entry": 141215,
        "entry_name": "Moe's Tavernier",
        "event_total": 73,
        "has_played": true,
        "id": 922556,
        "last_rank": 66380,
        "player_name": "Andy Rigmand",
        "rank": 52154,
        "rank_sort": 52156,
        "total": 2351
      },
      {
        "club_badge_src": "https://fantasy.premierleague.com/gcs/plfpl-production-adobe-approved/plfpl-production/240784/b992ff9d-d7be-4ec5-ac42-3b4b14c5f5f9.png",
        "entry": 240784,
        "entry_name": "SixtyNiners",
        "event_total": 54,
        "has_played": true,
        "id": 1602580,
        "last_rank": 47950,
        "player_name": "Benjamin Lin",
        "rank": 52154,
        "rank_sort": 52157,
        "total": 2351
      },
      {
        "club_badge_src": "https://fantasy.premierleague.com/gcs/plfpl-production-adobe-approved/plfpl-production/322615/4f981e4e-75e1-48c2-9cd0-09897c10b360.png",
        "entry": 322615,
        "entry_name": "OMG POGBACK AGAIN",
        "event_total": 62,
        "has_played": true,
        "id": 2161905,
        "last_rank": 54181,
        "player_name": "Bruce Crisp",
        "rank": 52154,
        "rank_sort": 52158,
        "total": 2351
      },
      {
        "club_badge_src": null,
        "entry": 614984,
        "entry_name": "\u0641\u0631\u064a\u0645\u0628\u064a\u0646\u062c \u0628\u0648\u0646\u062c",
        "event_total": 64,
        "has_played": true,
        "id": 4155411,
        "last_rank": 64603,
        "player_name": "Anas Rabie",
        "rank": 52154,
        "rank_sort": 52159,
        "total": 2351
      },
      {
        "club_badge_src": null,
        "entry": 643574,
        "entry_name": "Thomas FC",
        "event_total": 46,
        "has_played": true,
        "id": 4349416,
        "last_rank": 32552,
        "player_name": "Thomas Zakaria",
        "rank": 52154,
        "rank_sort": 52160,
        "total": 2351
      },
      {
        "club_badge_src": null,
        "entry": 869941,
        "entry_name": "aRdBestXI",
        "event_total": 74,
        "has_played": true,
        "id": 5964119,
        "last_rank": 53837,
        "player_name": "Ard nithipitigan",
        "rank": 52154,
        "rank_sort": 52161,
        "total": 2351
      },
      {
        "club_badge_src": "https://fantasy.premierleague.com/gcs/plfpl-production-adobe-approved/plfpl-production/882707/cb1ed709-2a8d-4ed1-927b-8ee74360fc28.png",
        "entry": 882707,
        "entry_name": "pap tt (\u25cfY\u25cf)",
        "event_total": 69,
        "has_played": true,
        "id": 6053638,
        "last_rank": 46236,
        "player_name": "Anton Dharmawan",
        "rank": 52154,
        "rank_sort": 52162,
        "total": 2351
      },
      {
        "club_badge_src": null,
        "entry": 1452122,
        "entry_name": "rimontada",
        "event_total": 62,
        "has_played": true,
        "id": 10118416,
        "last_rank": 54181,
        "player_name": "Khalil Ess",
        "rank": 52154,
        "rank_sort": 52163,
        "total": 2351
      },
      {
        "club_badge_src": null,
        "entry": 3262433,
        "entry_name": "vteco",
        "event_total": 35,
        "has_played": true,
        "id": 24140277,
        "last_rank": 25633,
        "player_name": "Jakub Pl\u00e1\u0161ek",
        "rank": 52154,
        "rank_sort": 52164,
        "total": 2351
      },
      {
        "club_badge_src": null,
        "entry": 3504020,
        "entry_name": "FC RSGL",
        "event_total": 51,
        "has_played": true,
        "id": 26066737,
        "last_rank": 43637,
        "player_name": "Bojan Stojkovic",
        "rank": 52154,
        "rank_sort": 52165,
        "total": 2351
      },
      {
        "club_badge_src": null,
        "entry": 3776701,
        "entry_name": "Raiders",
        "event_total": 61,
        "has_played": true,
        "id": 28199784,
        "last_rank": 59335,
        "player_name": "Saleh S",
        "rank": 52154,
        "rank_sort": 52166,
        "total": 2351
      },
      {
        "club_badge_src": "https://fantasy.premierleague.com/gcs/plfpl-production-adobe-approved/plfpl-production/4684793/49d433cf-5bd9-46ea-a3e5-0a1587266d14.png",
        "entry": 4684793,
        "entry_name": "Megamind",
        "event_total": 54,
        "has_played": true,
        "id": 35901086,
        "last_rank": 47950,
        "player_name": "Tiago Afonso",
        "rank": 52154,
        "rank_sort": 52167,
        "total": 2351
      },
      {
        "club_badge_src": null,
        "entry": 4721744,
        "entry_name": "chelsea fc",
        "event_total": 60,
        "has_played": true,
        "id": 36278374,
        "last_rank": 57596,
        "player_name": "Wassim Yasri",
        "rank": 52154,
        "rank_sort": 52168,
        "total": 2351
      },
      {
        "club_badge_src": null,
        "entry": 4818784,
        "entry_name": "Pacific Northeast",
        "event_total": 59,
        "has_played": true,
        "id": 37107119,
        "last_rank": 55902,
        "player_name": "Bob Gilmour",
        "rank": 52154,
        "rank_sort": 52169,
        "total": 2351
      },
      {
        "club_badge_src": null,
        "entry": 5102260,
        "entry_name": "Tantari FC",
        "event_total": 57,
        "has_played": true,
        "id": 39438155,
        "last_rank": 52632,
        "player_name": "Shahrizlan Rafi",
        "rank": 52154,
        "rank_sort": 52170,
        "total": 2351
      },
      {
        "club_badge_src": "https://fantasy.premierleague.com/gcs/plfpl-production-adobe-approved/plfpl-production/5403607/9b9422cf-6ab0-4647-98a3-09e902d535da.png",
        "entry": 5403607,
        "entry_name": "Riccardo Cauliflower",
        "event_total": 61,
        "has_played": true,
        "id": 42016484,
        "last_rank": 59335,
        "player_name": "Karolis Adams",
        "rank": 52154,
        "rank_sort": 52171,
        "total": 2351
      },
      {
        "club_badge_src": null,
        "entry": 5696166,
        "entry_name": "Stop Gyok and roll",
        "event_total": 46,
        "has_played": true,
        "id": 44594802,
        "last_rank": 32552,
        "player_name": "Daniel coltman",
        "rank": 52154,
        "rank_sort": 52172,
        "total": 2351
      },
      {
        "club_badge_src": "https://fantasy.premierleague.com/gcs/plfpl-production-adobe-approved/plfpl-production/6312704/666490e2-c938-4e4e-b205-f8ac1ed43cc6.png",
        "entry": 6312704,
        "entry_name": "Long Live PSR",
        "event_total": 60,
        "has_played": true,
        "id": 50088981,
        "last_rank": 50956,
        "player_name": "Tom Brooks",
        "rank": 52154,
        "rank_sort": 52173,
        "total": 2351
      },
      {
        "club_badge_src": null,
        "entry": 6349040,
        "entry_name": "ABBAS ADAM \ufffd",
        "event_total": 57,
        "has_played": true,
        "id": 50469636,
        "last_rank": 40878,
        "player_name": "Isa Aliyu",
        "rank": 52154,
        "rank_sort": 52174,
        "total": 2351
      },
      {
        "club_badge_src": null,
        "entry": 7624516,
        "entry_name": "nasoriFc",
        "event_total": 74,
        "has_played": true,
        "id": 62487324,
        "last_rank": 60933,
        "player_name": "Na Fazany",
        "rank": 52154,
        "rank_sort": 52175,
        "total": 2351
      },
      {
        "club_badge_src": "https://fantasy.premierleague.com/gcs/plfpl-production-adobe-approved/plfpl-production/8503340/1571dd4c-e20a-470b-85aa-ad11733f6761.png",
        "entry": 8503340,
        "entry_name": "WilloMagicXI",
        "event_total": 57,
        "has_played": true,
        "id": 70670071,
        "last_rank": 52603,
        "player_name": "Andrew Wilson",
        "rank": 52154,
        "rank_sort": 52176,
        "total": 2351
      },
      {
        "club_badge_src": null,
        "entry": 8975994,
        "entry_name": "\u0633\u064a\u0631\u0627\u0645\u064a\u0643\u0627",
        "event_total": 48,
        "has_played": true,
        "id": 75250038,
        "last_rank": 34825,
        "player_name": "semsem soliman",
        "rank": 52154,
        "rank_sort": 52177,
        "total": 2351
      },
      {
        "club_badge_src": null,
        "entry": 15395,
        "entry_name": "WhatdaFC",
        "event_total": 55,
        "has_played": true,
        "id": 94451,
        "last_rank": 43637,
        "player_name": "Derek Zappia",
        "rank": 52178,
        "rank_sort": 52178,
        "total": 2351
      },
      {
        "club_badge_src": null,
        "entry": 46006,
        "entry_name": "OG Avengers FC",
        "event_total": 48,
        "has_played": true,
        "id": 295061,
        "last_rank": 39673,
        "player_name": "Omer Ahmed",
        "rank": 52178,
        "rank_sort": 52179,
        "total": 2351
      },
      {
        "club_badge_src": null,
        "entry": 85276,
        "entry_name": "Kobbie MyGoat",
        "event_total": 54,
        "has_played": true,
        "id": 555298,
        "last_rank": 47982,
        "player_name": "Jarrod Thomas",
        "rank": 52178,
        "rank_sort": 52180,
        "total": 2351
      },
      {
        "club_badge_src": "https://fantasy.premierleague.com/gcs/plfpl-production-adobe-approved/plfpl-production/259574/22f41dd1-c4f4-46d2-b087-c75ad807257a.png",
        "entry": 259574,
        "entry_name": "Visca el Bar\u00e7a",
        "event_total": 59,
        "has_played": true,
        "id": 1725849,
        "last_rank": 43607,
        "player_name": "Moustafa Nabil",
        "rank": 52178,
        "rank_sort": 52181,
        "total": 2351
      },
      {
        "club_badge_src": null,
        "entry": 262269,
        "entry_name": "Main Street Dribbler",
        "event_total": 59,
        "has_played": true,
        "id": 1743615,
        "last_rank": 49442,
        "player_name": "Baiju Sadhwani",
        "rank": 52178,
        "rank_sort": 52182,
        "total": 2351
      },
      {
        "club_badge_src": null,
        "entry": 455246,
        "entry_name": "1Q",
        "event_total": 51,
        "has_played": true,
        "id": 3054074,
        "last_rank": 43657,
        "player_name": "Alex Lee",
        "rank": 52178,
        "rank_sort": 52183,
        "total": 2351
      },
      {
        "club_badge_src": null,
        "entry": 655711,
        "entry_name": "Fave Hive",
        "event_total": 62,
        "has_played": true,
        "id": 4431334,
        "last_rank": 54218,
        "player_name": "Favour Ndata",
        "rank": 52178,
        "rank_sort": 52184,
        "total": 2351
      },
      {
        "club_badge_src": null,
        "entry": 674046,
        "entry_name": "Partick Christle",
        "event_total": 61,
        "has_played": true,
        "id": 4559754,
        "last_rank": 52603,
        "player_name": "Chris Andrews",
        "rank": 52178,
        "rank_sort": 52185,
        "total": 2351
      },
      {
        "club_badge_src": null,
        "entry": 871585,
        "entry_name": "Zubi Zubi Doo",
        "event_total": 44,
        "has_played": true,
        "id": 5975452,
        "last_rank": 34874,
        "player_name": "David Livingstone",
        "rank": 52178,
        "rank_sort": 52186,
        "total": 2351
      },
      {
        "club_badge_src": "https://fantasy.premierleague.com/gcs/plfpl-production-adobe-approved/plfpl-production/3789392/31a1e580-5404-44dd-80f0-bc1639263045.png",
        "entry": 3789392,
        "entry_name": "Prince El layaly",
        "event_total": 68,
        "has_played": true,
        "id": 28312284,
        "last_rank": 64603,
        "player_name": "Ahmed Maher",
        "rank": 52178,
        "rank_sort": 52187,
        "total": 2351
      },
      {
        "club_badge_src": null,
        "entry": 3877635,
        "entry_name": "Slot the Difference",
        "event_total": 44,
        "has_played": true,
        "id": 29134336,
        "last_rank": 34864,
        "player_name": "Iain Sawbridge",
        "rank": 52178,
        "rank_sort": 52188,
        "total": 2351
      },
      {
        "club_badge_src": null,
        "entry": 4888573,
        "entry_name": "Mido team",
        "event_total": 71,
        "has_played": true,
        "id": 37690258,
        "last_rank": 70355,
        "player_name": "Mohamed Ehab",
        "rank": 52178,
        "rank_sort": 52189,
        "total": 2351
      },
      {
        "club_badge_src": null,
        "entry": 5067077,
        "entry_name": "Blackwell Bellies",
        "event_total": 57,
        "has_played": true,
        "id": 39157216,
        "last_rank": 46432,
        "player_name": "Thomas Goldwater",
        "rank": 52178,
        "rank_sort": 52190,
        "total": 2351
      },
      {
        "club_badge_src": null,
        "entry": 5513767,
        "entry_name": "The Winners v2.0",
        "event_total": 71,
        "has_played": true,
        "id": 42982990,
        "last_rank": 70414,
        "player_name": "Kim Hagerup-Magnussen",
        "rank": 52178,
        "rank_sort": 52191,
        "total": 2351
      },
      {
        "club_badge_src": null,
        "entry": 5823154,
        "entry_name": "redemption fc",
        "event_total": 68,
        "has_played": true,
        "id": 45699799,
        "last_rank": 64603,
        "player_name": "Mo Younis",
        "rank": 52178,
        "rank_sort": 52192,
        "total": 2351
      },
      {
        "club_badge_src": null,
        "entry": 5828584,
        "entry_name": "I'm Shaw Yoro Onana",
        "event_total": 67,
        "has_played": true,
        "id": 45746009,
        "last_rank": 70446,
        "player_name": "Jake OBrien",
        "rank": 52178,
        "rank_sort": 52193,
        "total": 2351
      },
      {
        "club_badge_src": null,
        "entry": 8327975,
        "entry_name": "Blackwell Bellies",
        "event_total": 53,
        "has_played": true,
        "id": 68995138,
        "last_rank": 46454,
        "player_name": "chris goldwater",
        "rank": 52178,
        "rank_sort": 52194,
        "total": 2351
      },
      {
        "club_badge_src": null,
        "entry": 8528197,
        "entry_name": "Kesa tee Wizards",
        "event_total": 65,
        "has_played": true,
        "id": 70909410,
        "last_rank": 66487,
        "player_name": "Andre Tammeorg",
        "rank": 52178,
        "rank_sort": 52195,
        "total": 2351
      },
      {
        "club_badge_src": null,
        "entry": 9353629,
        "entry_name": "Project Ndeba",
        "event_total": 68,
        "has_played": true,
        "id": 78921642,
        "last_rank": 64603,
        "player_name": "steve mutaboba",
        "rank": 52178,
        "rank_sort": 52196,
        "total": 2351
      },
      {
        "club_badge_src": null,
        "entry": 61214,
        "entry_name": "ITFC 2026",
        "event_total": 52,
        "has_played": true,
        "id": 394215,
        "last_rank": 34849,
        "player_name": "Ole Morten Byremo",
        "rank": 52197,
        "rank_sort": 52197,
        "total": 2351
      },
      {
        "club_badge_src": null,
        "entry": 175706,
        "entry_name": "Waddos XI",
        "event_total": 53,
        "has_played": true,
        "id": 1159992,
        "last_rank": 46468,
        "player_name": "Marc Wadsworth",
        "rank": 52197,
        "rank_sort": 52198,
        "total": 2351
      },
      {
        "club_badge_src": null,
        "entry": 658666,
        "entry_name": "SHOW ME DE MANEEEEEE",
        "event_total": 56,
        "has_played": true,
        "id": 4451113,
        "last_rank": 51035,
        "player_name": "Patrick Hawley",
        "rank": 52197,
        "rank_sort": 52199,
        "total": 2351
      },
      {
        "club_badge_src": null,
        "entry": 763094,
        "entry_name": "Brendan Todgers",
        "event_total": 30,
        "has_played": true,
        "id": 5204254,
        "last_rank": 21569,
        "player_name": "George Poul",
        "rank": 52197,
        "rank_sort": 52200,
        "total": 2351
      }
    ]
  }
}