{
  "last_updated_data": "2026-05-24T23:28:17Z",
  "league": {
    "admin_entry": null,
    "closed": false,
    "code_privacy": "p",
    "created": "2025-07-20T23:14:33.933835Z",
    "cup_league": 2815434,
    "has_cup": true,
    "id": 314,
    "league_type": "s",
    "max_entries": null,
    "name": "Overall",
    "rank": null,
    "scoring": "c",
    "start_event": 1
  },
  "new_entries": {
    "has_next": false,
    "page": 1,
    "results": []
  },
  "standings": {
    "has_next": true,
    "page": 690,
    "results": [
      {
        "club_badge_src": null,
        "entry": 8677464,
        "entry_name": "Kinder Mbeumo",
        "event_total": 78,
        "has_played": true,
        "id": 72359764,
        "last_rank": 65796,
        "player_name": "Mohamed Gadain",
        "rank": 34242,
        "rank_sort": 34451,
        "total": 2364
      },
      {
        "club_badge_src": null,
        "entry": 8749945,
        "entry_name": "100% Serena\u2019s Team",
        "event_total": 49,
        "has_played": true,
        "id": 73062965,
        "last_rank": 26088,
        "player_name": "Serena Abel",
        "rank": 34242,
        "rank_sort": 34452,
        "total": 2364
      },
      {
        "club_badge_src": "https://fantasy.premierleague.com/gcs/plfpl-production-adobe-approved/plfpl-production/8881613/458c4d97-f890-421b-90d2-71cdff05b5e7.png",
        "entry": 8881613,
        "entry_name": "NEXCITY",
        "event_total": 68,
        "has_played": true,
        "id": 74330387,
        "last_rank": 48642,
        "player_name": "Chinedu Ogbogu",
        "rank": 34242,
        "rank_sort": 34453,
        "total": 2364
      },
      {
        "club_badge_src": null,
        "entry": 9116348,
        "entry_name": "Los Porros Hermanos",
        "event_total": 49,
        "has_played": true,
        "id": 76611643,
        "last_rank": 26088,
        "player_name": "Travis Chambers",
        "rank": 34242,
        "rank_sort": 34454,
        "total": 2364
      },
      {
        "club_badge_src": null,
        "entry": 5617,
        "entry_name": "boing boing baggies",
        "event_total": 54,
        "has_played": true,
        "id": 32041,
        "last_rank": 31125,
        "player_name": "Lisa Williams",
        "rank": 34455,
        "rank_sort": 34455,
        "total": 2364
      },
      {
        "club_badge_src": null,
        "entry": 21191,
        "entry_name": "Loosecannons",
        "event_total": 52,
        "has_played": true,
        "id": 132829,
        "last_rank": 29071,
        "player_name": "Scott Forrest",
        "rank": 34455,
        "rank_sort": 34456,
        "total": 2364
      },
      {
        "club_badge_src": null,
        "entry": 39259,
        "entry_name": "BackoftheNeto",
        "event_total": 60,
        "has_played": true,
        "id": 251580,
        "last_rank": 33147,
        "player_name": "Waqar Hussain",
        "rank": 34455,
        "rank_sort": 34457,
        "total": 2364
      },
      {
        "club_badge_src": null,
        "entry": 63440,
        "entry_name": "We play with balls",
        "event_total": 46,
        "has_played": true,
        "id": 409332,
        "last_rank": 20416,
        "player_name": "Jake Russell",
        "rank": 34455,
        "rank_sort": 34458,
        "total": 2364
      },
      {
        "club_badge_src": null,
        "entry": 65608,
        "entry_name": "Lingardium Leviosa",
        "event_total": 59,
        "has_played": true,
        "id": 423689,
        "last_rank": 36624,
        "player_name": "Maks Szyma\u0144ski",
        "rank": 34455,
        "rank_sort": 34459,
        "total": 2364
      },
      {
        "club_badge_src": "https://fantasy.premierleague.com/gcs/plfpl-production-adobe-approved/plfpl-production/77017/9bd2653a-5a5d-491d-af98-b69c7e2f53ae.png",
        "entry": 77017,
        "entry_name": "Jo\u00e3oh My God",
        "event_total": 56,
        "has_played": true,
        "id": 500620,
        "last_rank": 33332,
        "player_name": "Li Shen",
        "rank": 34455,
        "rank_sort": 34460,
        "total": 2364
      },
      {
        "club_badge_src": "https://fantasy.premierleague.com/gcs/plfpl-production-adobe-approved/plfpl-production/77548/6f438491-f12e-4192-921e-d34463bd67c6.png",
        "entry": 77548,
        "entry_name": "404",
        "event_total": 57,
        "has_played": true,
        "id": 504060,
        "last_rank": 34578,
        "player_name": "Marius Torgersen",
        "rank": 34455,
        "rank_sort": 34461,
        "total": 2364
      },
      {
        "club_badge_src": null,
        "entry": 77680,
        "entry_name": "Devdas",
        "event_total": 66,
        "has_played": true,
        "id": 504915,
        "last_rank": 40297,
        "player_name": "SRK -",
        "rank": 34455,
        "rank_sort": 34462,
        "total": 2364
      },
      {
        "club_badge_src": null,
        "entry": 82149,
        "entry_name": "Abood Mahroozi",
        "event_total": 69,
        "has_played": true,
        "id": 534460,
        "last_rank": 44303,
        "player_name": "Abood Benny",
        "rank": 34455,
        "rank_sort": 34463,
        "total": 2364
      },
      {
        "club_badge_src": null,
        "entry": 85226,
        "entry_name": "Ginger ninjas",
        "event_total": 51,
        "has_played": true,
        "id": 554961,
        "last_rank": 28150,
        "player_name": "gerard o connell",
        "rank": 34455,
        "rank_sort": 34464,
        "total": 2364
      },
      {
        "club_badge_src": "https://fantasy.premierleague.com/gcs/plfpl-production-adobe-approved/plfpl-production/87985/a5884e85-aea4-4988-889b-f391116005ec.png",
        "entry": 87985,
        "entry_name": "The Champion",
        "event_total": 60,
        "has_played": true,
        "id": 573988,
        "last_rank": 38016,
        "player_name": "Mohammad AlBasata",
        "rank": 34455,
        "rank_sort": 34465,
        "total": 2364
      },
      {
        "club_badge_src": "https://fantasy.premierleague.com/gcs/plfpl-production-adobe-approved/plfpl-production/107785/8fdeb64a-99d3-4124-bd35-e95046d4bde7.png",
        "entry": 107785,
        "entry_name": "mid table finish",
        "event_total": 67,
        "has_played": true,
        "id": 702788,
        "last_rank": 47417,
        "player_name": "Shahriar Aumi Chowdhury",
        "rank": 34455,
        "rank_sort": 34466,
        "total": 2364
      },
      {
        "club_badge_src": null,
        "entry": 121654,
        "entry_name": "Havig&S\u00f8nn",
        "event_total": 59,
        "has_played": true,
        "id": 793751,
        "last_rank": 31995,
        "player_name": "Christian Havig",
        "rank": 34455,
        "rank_sort": 34467,
        "total": 2364
      },
      {
        "club_badge_src": null,
        "entry": 130781,
        "entry_name": "Fiorentina Turner",
        "event_total": 70,
        "has_played": true,
        "id": 852139,
        "last_rank": 45416,
        "player_name": "Dean Morrow",
        "rank": 34455,
        "rank_sort": 34468,
        "total": 2364
      },
      {
        "club_badge_src": null,
        "entry": 138648,
        "entry_name": "Williams XI",
        "event_total": 67,
        "has_played": true,
        "id": 904587,
        "last_rank": 41324,
        "player_name": "Rhys Williams",
        "rank": 34455,
        "rank_sort": 34469,
        "total": 2364
      },
      {
        "club_badge_src": null,
        "entry": 148302,
        "entry_name": "Grotto",
        "event_total": 58,
        "has_played": true,
        "id": 972071,
        "last_rank": 30957,
        "player_name": "Grotto w Startraku",
        "rank": 34455,
        "rank_sort": 34470,
        "total": 2364
      },
      {
        "club_badge_src": null,
        "entry": 179617,
        "entry_name": "toonxxl",
        "event_total": 66,
        "has_played": true,
        "id": 1185279,
        "last_rank": 45927,
        "player_name": "Vimuktipune Nattakit",
        "rank": 34455,
        "rank_sort": 34471,
        "total": 2364
      },
      {
        "club_badge_src": null,
        "entry": 245356,
        "entry_name": "Are you winning, Son",
        "event_total": 76,
        "has_played": true,
        "id": 1633538,
        "last_rank": 62223,
        "player_name": "Matt Skibicki",
        "rank": 34455,
        "rank_sort": 34472,
        "total": 2364
      },
      {
        "club_badge_src": null,
        "entry": 271179,
        "entry_name": "Hakuna Mateta",
        "event_total": 59,
        "has_played": true,
        "id": 1804094,
        "last_rank": 31747,
        "player_name": "Benjamin John",
        "rank": 34455,
        "rank_sort": 34473,
        "total": 2364
      },
      {
        "club_badge_src": null,
        "entry": 357104,
        "entry_name": "Yanited",
        "event_total": 69,
        "has_played": true,
        "id": 2389781,
        "last_rank": 50468,
        "player_name": "Yannick Schipper",
        "rank": 34455,
        "rank_sort": 34474,
        "total": 2364
      },
      {
        "club_badge_src": null,
        "entry": 390531,
        "entry_name": "Stubbsaldinho",
        "event_total": 72,
        "has_played": true,
        "id": 2619634,
        "last_rank": 48642,
        "player_name": "Seann Stubbs",
        "rank": 34455,
        "rank_sort": 34475,
        "total": 2364
      },
      {
        "club_badge_src": null,
        "entry": 435850,
        "entry_name": "FC Siuuuuuuuuuuu",
        "event_total": 52,
        "has_played": true,
        "id": 2922659,
        "last_rank": 25172,
        "player_name": "Mohamed taha Chouikh",
        "rank": 34455,
        "rank_sort": 34476,
        "total": 2364
      },
      {
        "club_badge_src": null,
        "entry": 449552,
        "entry_name": "Top of the Mops",
        "event_total": 72,
        "has_played": true,
        "id": 3016184,
        "last_rank": 48363,
        "player_name": "Henry Myatt",
        "rank": 34455,
        "rank_sort": 34477,
        "total": 2364
      },
      {
        "club_badge_src": null,
        "entry": 485736,
        "entry_name": "LiveFastNdiayeLast",
        "event_total": 66,
        "has_played": true,
        "id": 3260619,
        "last_rank": 40297,
        "player_name": "Kaylen Behari",
        "rank": 34455,
        "rank_sort": 34478,
        "total": 2364
      },
      {
        "club_badge_src": null,
        "entry": 528453,
        "entry_name": "saber",
        "event_total": 64,
        "has_played": true,
        "id": 3552898,
        "last_rank": 43168,
        "player_name": "Muhd Saber",
        "rank": 34455,
        "rank_sort": 34479,
        "total": 2364
      },
      {
        "club_badge_src": null,
        "entry": 545284,
        "entry_name": "Pjani\u0107 At The Isco",
        "event_total": 65,
        "has_played": true,
        "id": 3669770,
        "last_rank": 38774,
        "player_name": "Ant Giannaccini",
        "rank": 34455,
        "rank_sort": 34480,
        "total": 2364
      },
      {
        "club_badge_src": null,
        "entry": 545287,
        "entry_name": "Danso's FrankFurter",
        "event_total": 61,
        "has_played": true,
        "id": 3669789,
        "last_rank": 39246,
        "player_name": "Luke Holmes",
        "rank": 34455,
        "rank_sort": 34481,
        "total": 2364
      },
      {
        "club_badge_src": "https://fantasy.premierleague.com/gcs/plfpl-production-adobe-approved/plfpl-production/553487/901a8cbd-f353-4098-92b9-338386f0d2b2.png",
        "entry": 553487,
        "entry_name": "SOUD",
        "event_total": 52,
        "has_played": true,
        "id": 3725318,
        "last_rank": 29071,
        "player_name": "abdallah so'ud",
        "rank": 34455,
        "rank_sort": 34482,
        "total": 2364
      },
      {
        "club_badge_src": null,
        "entry": 611476,
        "entry_name": "Xabi Chic",
        "event_total": 60,
        "has_played": true,
        "id": 4131648,
        "last_rank": 33147,
        "player_name": "Kevin Sheil",
        "rank": 34455,
        "rank_sort": 34483,
        "total": 2364
      },
      {
        "club_badge_src": null,
        "entry": 620883,
        "entry_name": "Al_Sa3ayda Team",
        "event_total": 61,
        "has_played": true,
        "id": 4195928,
        "last_rank": 39246,
        "player_name": "Mohamed Ahmed",
        "rank": 34455,
        "rank_sort": 34484,
        "total": 2364
      },
      {
        "club_badge_src": "https://fantasy.premierleague.com/gcs/plfpl-production-adobe-approved/plfpl-production/629561/86549268-d50a-4eb9-95b9-23b21eab089e.png",
        "entry": 629561,
        "entry_name": "Big Nick Energy",
        "event_total": 73,
        "has_played": true,
        "id": 4254213,
        "last_rank": 56708,
        "player_name": "Matthew Jordan",
        "rank": 34455,
        "rank_sort": 34485,
        "total": 2364
      },
      {
        "club_badge_src": null,
        "entry": 720335,
        "entry_name": "Murph's Smurphs",
        "event_total": 70,
        "has_played": true,
        "id": 4890514,
        "last_rank": 51720,
        "player_name": "Conor Murphy",
        "rank": 34455,
        "rank_sort": 34486,
        "total": 2364
      },
      {
        "club_badge_src": "https://fantasy.premierleague.com/gcs/plfpl-production-adobe-approved/plfpl-production/795654/2a6088cb-ee2a-485b-b570-3bea28cf6732.png",
        "entry": 795654,
        "entry_name": "Trash United",
        "event_total": 64,
        "has_played": true,
        "id": 5445326,
        "last_rank": 43168,
        "player_name": "Ambrose Chan",
        "rank": 34455,
        "rank_sort": 34487,
        "total": 2364
      },
      {
        "club_badge_src": null,
        "entry": 799604,
        "entry_name": "Chilean Champ \u2b50\ufe0f\u2b50\ufe0f\u2b50\ufe0f",
        "event_total": 45,
        "has_played": true,
        "id": 5473057,
        "last_rank": 22685,
        "player_name": "Alan Tupper",
        "rank": 34455,
        "rank_sort": 34488,
        "total": 2364
      },
      {
        "club_badge_src": "https://fantasy.premierleague.com/gcs/plfpl-production-adobe-approved/plfpl-production/838629/ba53d1ec-963b-4696-af88-e033f3c77086.png",
        "entry": 838629,
        "entry_name": "Frogbert Football",
        "event_total": 75,
        "has_played": true,
        "id": 5745705,
        "last_rank": 60168,
        "player_name": "Robert Vickery",
        "rank": 34455,
        "rank_sort": 34489,
        "total": 2364
      },
      {
        "club_badge_src": null,
        "entry": 847594,
        "entry_name": "Expected Toulouse",
        "event_total": 56,
        "has_played": true,
        "id": 5809115,
        "last_rank": 33332,
        "player_name": "Keith Campbell",
        "rank": 34455,
        "rank_sort": 34490,
        "total": 2364
      },
      {
        "club_badge_src": "https://fantasy.premierleague.com/gcs/plfpl-production-adobe-approved/plfpl-production/854766/142920b4-a79f-41f2-a2b6-f5218464e339.png",
        "entry": 854766,
        "entry_name": "PaPa_Bless",
        "event_total": 61,
        "has_played": true,
        "id": 5858969,
        "last_rank": 39246,
        "player_name": "Ammarj dhan",
        "rank": 34455,
        "rank_sort": 34491,
        "total": 2364
      },
      {
        "club_badge_src": "https://fantasy.premierleague.com/gcs/plfpl-production-adobe-approved/plfpl-production/857006/f5274b47-e768-4bce-b688-91c40e722b0b.png",
        "entry": 857006,
        "entry_name": "The Finished\u0627\u0644\u0645\u064f\u0646\u062a\u0647\u064a",
        "event_total": 68,
        "has_played": true,
        "id": 5874387,
        "last_rank": 48898,
        "player_name": "Khaled Elsehily",
        "rank": 34455,
        "rank_sort": 34492,
        "total": 2364
      },
      {
        "club_badge_src": null,
        "entry": 870900,
        "entry_name": "firefly25",
        "event_total": 68,
        "has_played": true,
        "id": 5970756,
        "last_rank": 42940,
        "player_name": "Kishore padigireddy",
        "rank": 34455,
        "rank_sort": 34493,
        "total": 2364
      },
      {
        "club_badge_src": null,
        "entry": 881985,
        "entry_name": "Gunners",
        "event_total": 62,
        "has_played": true,
        "id": 6048527,
        "last_rank": 35424,
        "player_name": "Mohamed Farouk",
        "rank": 34455,
        "rank_sort": 34494,
        "total": 2364
      },
      {
        "club_badge_src": null,
        "entry": 882292,
        "entry_name": "Mebounds",
        "event_total": 58,
        "has_played": true,
        "id": 6050669,
        "last_rank": 35619,
        "player_name": "D C",
        "rank": 34455,
        "rank_sort": 34495,
        "total": 2364
      },
      {
        "club_badge_src": null,
        "entry": 905552,
        "entry_name": "FC Bergcelona",
        "event_total": 68,
        "has_played": true,
        "id": 6223969,
        "last_rank": 48642,
        "player_name": "Jonathan Berg",
        "rank": 34455,
        "rank_sort": 34496,
        "total": 2364
      },
      {
        "club_badge_src": null,
        "entry": 918632,
        "entry_name": "Palmer's Project",
        "event_total": 60,
        "has_played": true,
        "id": 6317348,
        "last_rank": 38016,
        "player_name": "Reece Bowling",
        "rank": 34455,
        "rank_sort": 34497,
        "total": 2364
      },
      {
        "club_badge_src": null,
        "entry": 977514,
        "entry_name": "TSUBASA FC",
        "event_total": 69,
        "has_played": true,
        "id": 6739028,
        "last_rank": 50468,
        "player_name": "EST. 2015",
        "rank": 34455,
        "rank_sort": 34498,
        "total": 2364
      },
      {
        "club_badge_src": null,
        "entry": 985040,
        "entry_name": "Dubia ad Bonam",
        "event_total": 76,
        "has_played": true,
        "id": 6791490,
        "last_rank": 61950,
        "player_name": "Evan A.W",
        "rank": 34455,
        "rank_sort": 34499,
        "total": 2364
      },
      {
        "club_badge_src": null,
        "entry": 993566,
        "entry_name": "Benzemaaaaaaaa",
        "event_total": 67,
        "has_played": true,
        "id": 6853560,
        "last_rank": 41324,
        "player_name": "Ivan Ivanov",
        "rank": 34455,
        "rank_sort": 34500,
        "total": 2364
      }
    ]
  }
}