{
  "last_updated_data": "2026-05-24T23:28:17Z",
  "league": {
    "admin_entry": null,
    "closed": false,
    "code_privacy": "p",
    "created": "2025-07-20T23:14:33.933835Z",
    "cup_league": 2815434,
    "has_cup": true,
    "id": 314,
    "league_type": "s",
    "max_entries": null,
    "name": "Overall",
    "rank": null,
    "scoring": "c",
    "start_event": 1
  },
  "new_entries": {
    "has_next": false,
    "page": 1,
    "results": []
  },
  "standings": {
    "has_next": true,
    "page": 1433,
    "results": [
      {
        "club_badge_src": null,
        "entry": 4403321,
        "entry_name": "Nausii",
        "event_total": 69,
        "has_played": true,
        "id": 33490323,
        "last_rank": 90625,
        "player_name": "Iver N\u00e5s",
        "rank": 71517,
        "rank_sort": 71601,
        "total": 2339
      },
      {
        "club_badge_src": "https://fantasy.premierleague.com/gcs/plfpl-production-adobe-approved/plfpl-production/4587983/207e0b1d-b6d4-4287-84be-aca9894c066c.png",
        "entry": 4587983,
        "entry_name": "Squirtle Squad",
        "event_total": 51,
        "has_played": true,
        "id": 35031704,
        "last_rank": 61315,
        "player_name": "Bradley Rowlatt",
        "rank": 71517,
        "rank_sort": 71602,
        "total": 2339
      },
      {
        "club_badge_src": null,
        "entry": 4615976,
        "entry_name": "utter woke nonsense",
        "event_total": 65,
        "has_played": true,
        "id": 35279014,
        "last_rank": 90565,
        "player_name": "Sid Nearchou",
        "rank": 71517,
        "rank_sort": 71603,
        "total": 2339
      },
      {
        "club_badge_src": null,
        "entry": 4660721,
        "entry_name": "Raven",
        "event_total": 66,
        "has_played": true,
        "id": 35687961,
        "last_rank": 93008,
        "player_name": "Raven Chin",
        "rank": 71517,
        "rank_sort": 71604,
        "total": 2339
      },
      {
        "club_badge_src": null,
        "entry": 4671523,
        "entry_name": "Dropit like its Slot",
        "event_total": 60,
        "has_played": true,
        "id": 35784117,
        "last_rank": 79431,
        "player_name": "Ali Ajwani",
        "rank": 71517,
        "rank_sort": 71605,
        "total": 2339
      },
      {
        "club_badge_src": null,
        "entry": 4754172,
        "entry_name": "Bronze Age",
        "event_total": 57,
        "has_played": true,
        "id": 36584449,
        "last_rank": 72815,
        "player_name": "Lisa Townsend",
        "rank": 71517,
        "rank_sort": 71606,
        "total": 2339
      },
      {
        "club_badge_src": null,
        "entry": 5051313,
        "entry_name": "NelsTee",
        "event_total": 32,
        "has_played": true,
        "id": 39028008,
        "last_rank": 33869,
        "player_name": "Tanya Mateta",
        "rank": 71517,
        "rank_sort": 71607,
        "total": 2339
      },
      {
        "club_badge_src": null,
        "entry": 5068632,
        "entry_name": "Stuck In The Mudryk",
        "event_total": 71,
        "has_played": true,
        "id": 39169498,
        "last_rank": 105748,
        "player_name": "Kieran Mallon",
        "rank": 71517,
        "rank_sort": 71608,
        "total": 2339
      },
      {
        "club_badge_src": null,
        "entry": 5080796,
        "entry_name": "Starsenal7!",
        "event_total": 55,
        "has_played": true,
        "id": 39267841,
        "last_rank": 68748,
        "player_name": "Joey Vito",
        "rank": 71517,
        "rank_sort": 71609,
        "total": 2339
      },
      {
        "club_badge_src": null,
        "entry": 5209080,
        "entry_name": "Team",
        "event_total": 50,
        "has_played": true,
        "id": 40346890,
        "last_rank": 59813,
        "player_name": "Naadir M",
        "rank": 71517,
        "rank_sort": 71610,
        "total": 2339
      },
      {
        "club_badge_src": null,
        "entry": 5440094,
        "entry_name": "Change Name",
        "event_total": 58,
        "has_played": true,
        "id": 42325262,
        "last_rank": 74898,
        "player_name": "Hamza Khan",
        "rank": 71517,
        "rank_sort": 71611,
        "total": 2339
      },
      {
        "club_badge_src": "https://fantasy.premierleague.com/gcs/plfpl-production-adobe-approved/plfpl-production/5620059/a1eddbf7-6af7-405b-a211-0df3904e9003.png",
        "entry": 5620059,
        "entry_name": "Here Comes the Son",
        "event_total": 61,
        "has_played": true,
        "id": 43931341,
        "last_rank": 81312,
        "player_name": "Sam Matthews",
        "rank": 71517,
        "rank_sort": 71612,
        "total": 2339
      },
      {
        "club_badge_src": null,
        "entry": 5751405,
        "entry_name": "Buffmans",
        "event_total": 58,
        "has_played": true,
        "id": 45078054,
        "last_rank": 74898,
        "player_name": "Linus Bj\u00f6rkdahl",
        "rank": 71517,
        "rank_sort": 71613,
        "total": 2339
      },
      {
        "club_badge_src": "https://fantasy.premierleague.com/gcs/plfpl-production-adobe-approved/plfpl-production/5767301/3a06c281-92a8-400b-8bb7-d9a6e88ee437.png",
        "entry": 5767301,
        "entry_name": "SF Bears",
        "event_total": 64,
        "has_played": true,
        "id": 45214594,
        "last_rank": 88594,
        "player_name": "Bair Dorzhiev",
        "rank": 71517,
        "rank_sort": 71614,
        "total": 2339
      },
      {
        "club_badge_src": null,
        "entry": 5824825,
        "entry_name": "Fulham Pani\u00f3wki",
        "event_total": 54,
        "has_played": true,
        "id": 45713810,
        "last_rank": 66848,
        "player_name": "Maciej Bocia\u0144ski",
        "rank": 71517,
        "rank_sort": 71615,
        "total": 2339
      },
      {
        "club_badge_src": "https://fantasy.premierleague.com/gcs/plfpl-production-adobe-approved/plfpl-production/6017911/41babc94-2387-4570-8376-2efb81c4d313.png",
        "entry": 6017911,
        "entry_name": "Geir AS",
        "event_total": 70,
        "has_played": true,
        "id": 47457652,
        "last_rank": 103526,
        "player_name": "asgeir v\u00e5gen",
        "rank": 71517,
        "rank_sort": 71616,
        "total": 2339
      },
      {
        "club_badge_src": null,
        "entry": 6020687,
        "entry_name": "Auma",
        "event_total": 51,
        "has_played": true,
        "id": 47483146,
        "last_rank": 61315,
        "player_name": "Lars Hovde Nord\u00e5s",
        "rank": 71517,
        "rank_sort": 71617,
        "total": 2339
      },
      {
        "club_badge_src": "https://fantasy.premierleague.com/gcs/plfpl-production-adobe-approved/plfpl-production/6073187/29995a36-561e-49a0-8286-7a55ed0e0ba7.png",
        "entry": 6073187,
        "entry_name": "Don'tLookBackElanga",
        "event_total": 68,
        "has_played": true,
        "id": 47942201,
        "last_rank": 97968,
        "player_name": "Rob Stanger",
        "rank": 71517,
        "rank_sort": 71618,
        "total": 2339
      },
      {
        "club_badge_src": null,
        "entry": 6085986,
        "entry_name": "Vertically Gifted FC",
        "event_total": 48,
        "has_played": true,
        "id": 48054500,
        "last_rank": 56369,
        "player_name": "Louis Adams",
        "rank": 71517,
        "rank_sort": 71619,
        "total": 2339
      },
      {
        "club_badge_src": null,
        "entry": 6091881,
        "entry_name": "Condons Canadians",
        "event_total": 51,
        "has_played": true,
        "id": 48106590,
        "last_rank": 61606,
        "player_name": "Will Condon",
        "rank": 71517,
        "rank_sort": 71620,
        "total": 2339
      },
      {
        "club_badge_src": "https://fantasy.premierleague.com/gcs/plfpl-production-adobe-approved/plfpl-production/6212990/e89f9992-a85d-4b27-981b-6498b516f597.png",
        "entry": 6212990,
        "entry_name": "EDPfangirl",
        "event_total": 44,
        "has_played": true,
        "id": 49156854,
        "last_rank": 49880,
        "player_name": "\u00d8ystein Thomsen",
        "rank": 71517,
        "rank_sort": 71621,
        "total": 2339
      },
      {
        "club_badge_src": null,
        "entry": 6225821,
        "entry_name": "matthewwoo923",
        "event_total": 58,
        "has_played": true,
        "id": 49266143,
        "last_rank": 74898,
        "player_name": "Martin Kivlehan",
        "rank": 71517,
        "rank_sort": 71622,
        "total": 2339
      },
      {
        "club_badge_src": null,
        "entry": 6270854,
        "entry_name": "Honolulu Wednesday",
        "event_total": 75,
        "has_played": true,
        "id": 49656048,
        "last_rank": 117112,
        "player_name": "Thomas Cousins",
        "rank": 71517,
        "rank_sort": 71623,
        "total": 2339
      },
      {
        "club_badge_src": null,
        "entry": 6284685,
        "entry_name": "Turn on De Ligt",
        "event_total": 63,
        "has_played": true,
        "id": 49781218,
        "last_rank": 86054,
        "player_name": "Nathan Adekoya",
        "rank": 71517,
        "rank_sort": 71624,
        "total": 2339
      },
      {
        "club_badge_src": null,
        "entry": 6296026,
        "entry_name": "Riki Tiki Tavi",
        "event_total": 63,
        "has_played": true,
        "id": 49899317,
        "last_rank": 85932,
        "player_name": "John Neal",
        "rank": 71517,
        "rank_sort": 71625,
        "total": 2339
      },
      {
        "club_badge_src": null,
        "entry": 6362708,
        "entry_name": "The Mask of Porro",
        "event_total": 67,
        "has_played": true,
        "id": 50591147,
        "last_rank": 95464,
        "player_name": "William Atkin",
        "rank": 71517,
        "rank_sort": 71626,
        "total": 2339
      },
      {
        "club_badge_src": "https://fantasy.premierleague.com/gcs/plfpl-production-adobe-approved/plfpl-production/6431102/d29ba720-c638-4293-ac61-f7331005815b.png",
        "entry": 6431102,
        "entry_name": "AnkleBreakers",
        "event_total": 61,
        "has_played": true,
        "id": 51194915,
        "last_rank": 72638,
        "player_name": "Miko\u0142aj Pi\u0119tak",
        "rank": 71517,
        "rank_sort": 71627,
        "total": 2339
      },
      {
        "club_badge_src": null,
        "entry": 6447055,
        "entry_name": "Rebin Ismael",
        "event_total": 80,
        "has_played": true,
        "id": 51336397,
        "last_rank": 132427,
        "player_name": "Rebin Ismael",
        "rank": 71517,
        "rank_sort": 71628,
        "total": 2339
      },
      {
        "club_badge_src": null,
        "entry": 6462144,
        "entry_name": "The Purple Cobras",
        "event_total": 64,
        "has_played": true,
        "id": 51480876,
        "last_rank": 88154,
        "player_name": "Luke Halliwell",
        "rank": 71517,
        "rank_sort": 71629,
        "total": 2339
      },
      {
        "club_badge_src": null,
        "entry": 6485992,
        "entry_name": "Go with the Flo",
        "event_total": 68,
        "has_played": true,
        "id": 51698353,
        "last_rank": 98183,
        "player_name": "James Gibbard",
        "rank": 71517,
        "rank_sort": 71630,
        "total": 2339
      },
      {
        "club_badge_src": null,
        "entry": 6697845,
        "entry_name": "Game of Throw-ins",
        "event_total": 39,
        "has_played": true,
        "id": 53589905,
        "last_rank": 42648,
        "player_name": "Kristian McDonald",
        "rank": 71517,
        "rank_sort": 71631,
        "total": 2339
      },
      {
        "club_badge_src": null,
        "entry": 6755082,
        "entry_name": "The A Team",
        "event_total": 56,
        "has_played": true,
        "id": 54081158,
        "last_rank": 70757,
        "player_name": "Ayushi Lodaria",
        "rank": 71517,
        "rank_sort": 71632,
        "total": 2339
      },
      {
        "club_badge_src": null,
        "entry": 6983071,
        "entry_name": "Seadogs",
        "event_total": 57,
        "has_played": true,
        "id": 56046922,
        "last_rank": 72702,
        "player_name": "Andy Eaton",
        "rank": 71517,
        "rank_sort": 71633,
        "total": 2339
      },
      {
        "club_badge_src": null,
        "entry": 7052897,
        "entry_name": "Adaaaa!!! FC",
        "event_total": 73,
        "has_played": true,
        "id": 56725306,
        "last_rank": 111669,
        "player_name": "Kutasha Chanda",
        "rank": 71517,
        "rank_sort": 71634,
        "total": 2339
      },
      {
        "club_badge_src": "https://fantasy.premierleague.com/gcs/plfpl-production-adobe-approved/plfpl-production/7240481/93c4413f-e2db-485a-9190-746ba5c0f985.png",
        "entry": 7240481,
        "entry_name": "The Greyhounds",
        "event_total": 60,
        "has_played": true,
        "id": 58512847,
        "last_rank": 79190,
        "player_name": "Miguel Rodrigues",
        "rank": 71517,
        "rank_sort": 71635,
        "total": 2339
      },
      {
        "club_badge_src": null,
        "entry": 7288676,
        "entry_name": "tiramizu",
        "event_total": 46,
        "has_played": true,
        "id": 58970802,
        "last_rank": 53023,
        "player_name": "Daniel Grudniewicz",
        "rank": 71517,
        "rank_sort": 71636,
        "total": 2339
      },
      {
        "club_badge_src": null,
        "entry": 7378312,
        "entry_name": "Joe",
        "event_total": 53,
        "has_played": true,
        "id": 59810977,
        "last_rank": 64830,
        "player_name": "Joe Killip",
        "rank": 71517,
        "rank_sort": 71637,
        "total": 2339
      },
      {
        "club_badge_src": null,
        "entry": 7580930,
        "entry_name": "Saka Potatoes",
        "event_total": 50,
        "has_played": true,
        "id": 62091844,
        "last_rank": 59632,
        "player_name": "Dafydd Cale",
        "rank": 71517,
        "rank_sort": 71638,
        "total": 2339
      },
      {
        "club_badge_src": null,
        "entry": 7681341,
        "entry_name": "davewontmiss",
        "event_total": 74,
        "has_played": true,
        "id": 63003216,
        "last_rank": 114574,
        "player_name": "David Nkpaji",
        "rank": 71517,
        "rank_sort": 71639,
        "total": 2339
      },
      {
        "club_badge_src": null,
        "entry": 7683105,
        "entry_name": "Bruno Dos Tres",
        "event_total": 66,
        "has_played": true,
        "id": 63019027,
        "last_rank": 93186,
        "player_name": "Dave Henderson",
        "rank": 71517,
        "rank_sort": 71640,
        "total": 2339
      },
      {
        "club_badge_src": null,
        "entry": 7748307,
        "entry_name": "Kevin de bridges",
        "event_total": 59,
        "has_played": true,
        "id": 63605857,
        "last_rank": 77050,
        "player_name": "Shane Bridges",
        "rank": 71517,
        "rank_sort": 71641,
        "total": 2339
      },
      {
        "club_badge_src": null,
        "entry": 7822288,
        "entry_name": "Onana what\u2019s my name",
        "event_total": 46,
        "has_played": true,
        "id": 64275637,
        "last_rank": 53023,
        "player_name": "Hillary T",
        "rank": 71517,
        "rank_sort": 71642,
        "total": 2339
      },
      {
        "club_badge_src": null,
        "entry": 7825955,
        "entry_name": "FCP",
        "event_total": 54,
        "has_played": true,
        "id": 64308820,
        "last_rank": 67063,
        "player_name": "Andreas Papamichail",
        "rank": 71517,
        "rank_sort": 71643,
        "total": 2339
      },
      {
        "club_badge_src": null,
        "entry": 8742398,
        "entry_name": "Take It Eze",
        "event_total": 64,
        "has_played": true,
        "id": 72990768,
        "last_rank": 88185,
        "player_name": "Sam Kelly",
        "rank": 71517,
        "rank_sort": 71644,
        "total": 2339
      },
      {
        "club_badge_src": null,
        "entry": 8868858,
        "entry_name": "Blaikburn Rovers",
        "event_total": 72,
        "has_played": true,
        "id": 74208011,
        "last_rank": 108452,
        "player_name": "Grace Blaiklock",
        "rank": 71517,
        "rank_sort": 71645,
        "total": 2339
      },
      {
        "club_badge_src": null,
        "entry": 9010479,
        "entry_name": "Dunc \u2018n\u2019 Disorderly",
        "event_total": 52,
        "has_played": true,
        "id": 75581233,
        "last_rank": 63390,
        "player_name": "Codger Scott",
        "rank": 71517,
        "rank_sort": 71646,
        "total": 2339
      },
      {
        "club_badge_src": null,
        "entry": 9146784,
        "entry_name": "MollBall FC",
        "event_total": 65,
        "has_played": true,
        "id": 76909128,
        "last_rank": 90565,
        "player_name": "Noah Molloy",
        "rank": 71517,
        "rank_sort": 71647,
        "total": 2339
      },
      {
        "club_badge_src": null,
        "entry": 9254595,
        "entry_name": "Punjab Kings",
        "event_total": 74,
        "has_played": true,
        "id": 77967358,
        "last_rank": 114055,
        "player_name": "Reubens Gosal",
        "rank": 71517,
        "rank_sort": 71648,
        "total": 2339
      },
      {
        "club_badge_src": null,
        "entry": 9262376,
        "entry_name": "The Gonzolution",
        "event_total": 67,
        "has_played": true,
        "id": 78043556,
        "last_rank": 95464,
        "player_name": "Mark Hughes",
        "rank": 71517,
        "rank_sort": 71649,
        "total": 2339
      },
      {
        "club_badge_src": null,
        "entry": 9277567,
        "entry_name": "Jimmy",
        "event_total": 58,
        "has_played": true,
        "id": 78192333,
        "last_rank": 75139,
        "player_name": "Achraf El",
        "rank": 71517,
        "rank_sort": 71650,
        "total": 2339
      }
    ]
  }
}