{
  "last_updated_data": "2026-05-24T23:28:17Z",
  "league": {
    "admin_entry": null,
    "closed": false,
    "code_privacy": "p",
    "created": "2025-07-20T23:14:33.933835Z",
    "cup_league": 2815434,
    "has_cup": true,
    "id": 314,
    "league_type": "s",
    "max_entries": null,
    "name": "Overall",
    "rank": null,
    "scoring": "c",
    "start_event": 1
  },
  "new_entries": {
    "has_next": false,
    "page": 1,
    "results": []
  },
  "standings": {
    "has_next": true,
    "page": 708,
    "results": [
      {
        "club_badge_src": null,
        "entry": 10643054,
        "entry_name": "Leyetune FC",
        "event_total": 56,
        "has_played": true,
        "id": 89928297,
        "last_rank": 34051,
        "player_name": "Andy Olaleye",
        "rank": 35108,
        "rank_sort": 35351,
        "total": 2363
      },
      {
        "club_badge_src": null,
        "entry": 2261,
        "entry_name": "ChickenTikkaMoSalah",
        "event_total": 59,
        "has_played": true,
        "id": 12603,
        "last_rank": 37589,
        "player_name": "Brad Constable",
        "rank": 35352,
        "rank_sort": 35352,
        "total": 2363
      },
      {
        "club_badge_src": null,
        "entry": 4851,
        "entry_name": "Mainooism",
        "event_total": 66,
        "has_played": true,
        "id": 27606,
        "last_rank": 47163,
        "player_name": "Mads Vesterby",
        "rank": 35352,
        "rank_sort": 35353,
        "total": 2363
      },
      {
        "club_badge_src": null,
        "entry": 7160,
        "entry_name": "Beef Cherki",
        "event_total": 67,
        "has_played": true,
        "id": 41244,
        "last_rank": 42648,
        "player_name": "Harley Butcher",
        "rank": 35352,
        "rank_sort": 35354,
        "total": 2363
      },
      {
        "club_badge_src": null,
        "entry": 7642,
        "entry_name": "Oposky",
        "event_total": 40,
        "has_played": true,
        "id": 44094,
        "last_rank": 19721,
        "player_name": "Akesode Opeyemi",
        "rank": 35352,
        "rank_sort": 35355,
        "total": 2363
      },
      {
        "club_badge_src": null,
        "entry": 11669,
        "entry_name": "AA",
        "event_total": 64,
        "has_played": true,
        "id": 69448,
        "last_rank": 38774,
        "player_name": "Ahmed Ashraf",
        "rank": 35352,
        "rank_sort": 35356,
        "total": 2363
      },
      {
        "club_badge_src": "https://fantasy.premierleague.com/gcs/plfpl-production-adobe-approved/plfpl-production/14691/28f9d3ff-7183-4de5-99ad-a8d5bf00a481.png",
        "entry": 14691,
        "entry_name": "TSquare Picks",
        "event_total": 51,
        "has_played": true,
        "id": 89415,
        "last_rank": 29071,
        "player_name": "Tinsae Teku",
        "rank": 35352,
        "rank_sort": 35357,
        "total": 2363
      },
      {
        "club_badge_src": null,
        "entry": 15009,
        "entry_name": "Blue Lock",
        "event_total": 68,
        "has_played": true,
        "id": 91743,
        "last_rank": 50199,
        "player_name": "Mayowa Olukotun",
        "rank": 35352,
        "rank_sort": 35358,
        "total": 2363
      },
      {
        "club_badge_src": null,
        "entry": 15743,
        "entry_name": "Haalandaise Sauce",
        "event_total": 46,
        "has_played": true,
        "id": 96878,
        "last_rank": 24143,
        "player_name": "Andrea Malavisi",
        "rank": 35352,
        "rank_sort": 35359,
        "total": 2363
      },
      {
        "club_badge_src": null,
        "entry": 17534,
        "entry_name": "Fred from desire",
        "event_total": 60,
        "has_played": true,
        "id": 108792,
        "last_rank": 38644,
        "player_name": "Antoni \u0141anocha",
        "rank": 35352,
        "rank_sort": 35360,
        "total": 2363
      },
      {
        "club_badge_src": "https://fantasy.premierleague.com/gcs/plfpl-production-adobe-approved/plfpl-production/18362/17b0c2c8-6b48-416f-a065-955a50e6de1f.png",
        "entry": 18362,
        "entry_name": "Nolsey's Skitz XI",
        "event_total": 72,
        "has_played": true,
        "id": 114216,
        "last_rank": 56180,
        "player_name": "Aidy Gilroy",
        "rank": 35352,
        "rank_sort": 35361,
        "total": 2363
      },
      {
        "club_badge_src": null,
        "entry": 23227,
        "entry_name": "Sagachristos FC",
        "event_total": 57,
        "has_played": true,
        "id": 146189,
        "last_rank": 35424,
        "player_name": "Ayomide Abiola",
        "rank": 35352,
        "rank_sort": 35362,
        "total": 2363
      },
      {
        "club_badge_src": null,
        "entry": 29349,
        "entry_name": "Expected Toulouse",
        "event_total": 44,
        "has_played": true,
        "id": 185555,
        "last_rank": 22685,
        "player_name": "Mikkel Evensen",
        "rank": 35352,
        "rank_sort": 35363,
        "total": 2363
      },
      {
        "club_badge_src": null,
        "entry": 32521,
        "entry_name": "Sieka Przysieki",
        "event_total": 68,
        "has_played": true,
        "id": 206923,
        "last_rank": 44048,
        "player_name": "Tomasz Musia\u0142",
        "rank": 35352,
        "rank_sort": 35364,
        "total": 2363
      },
      {
        "club_badge_src": "https://fantasy.premierleague.com/gcs/plfpl-production-adobe-approved/plfpl-production/34799/802fe952-9e9d-4cd9-88a0-ea3c478d8868.png",
        "entry": 34799,
        "entry_name": "0Skill100Luck",
        "event_total": 61,
        "has_played": true,
        "id": 222457,
        "last_rank": 34969,
        "player_name": "Henry Mintzberg",
        "rank": 35352,
        "rank_sort": 35365,
        "total": 2363
      },
      {
        "club_badge_src": null,
        "entry": 35355,
        "entry_name": "stake bake",
        "event_total": 41,
        "has_played": true,
        "id": 226229,
        "last_rank": 20416,
        "player_name": "Sam McLean",
        "rank": 35352,
        "rank_sort": 35366,
        "total": 2363
      },
      {
        "club_badge_src": "https://fantasy.premierleague.com/gcs/plfpl-production-adobe-approved/plfpl-production/35948/80d84916-fcb8-496c-9f3b-c72227f60b45.png",
        "entry": 35948,
        "entry_name": "SRT Team",
        "event_total": 49,
        "has_played": true,
        "id": 230062,
        "last_rank": 27020,
        "player_name": "Michael Sierotowicz",
        "rank": 35352,
        "rank_sort": 35367,
        "total": 2363
      },
      {
        "club_badge_src": "https://fantasy.premierleague.com/gcs/plfpl-production-adobe-approved/plfpl-production/39065/884f7af6-0886-4713-b67e-3c7685e8ec51.png",
        "entry": 39065,
        "entry_name": "Running Wild",
        "event_total": 55,
        "has_played": true,
        "id": 250406,
        "last_rank": 33147,
        "player_name": "Free Guy",
        "rank": 35352,
        "rank_sort": 35368,
        "total": 2363
      },
      {
        "club_badge_src": null,
        "entry": 42098,
        "entry_name": "Team Hancock",
        "event_total": 43,
        "has_played": true,
        "id": 269785,
        "last_rank": 21949,
        "player_name": "Joanna Hancock",
        "rank": 35352,
        "rank_sort": 35369,
        "total": 2363
      },
      {
        "club_badge_src": null,
        "entry": 44506,
        "entry_name": "FC SoulJa",
        "event_total": 67,
        "has_played": true,
        "id": 285246,
        "last_rank": 48642,
        "player_name": "Mihir Upasani",
        "rank": 35352,
        "rank_sort": 35370,
        "total": 2363
      },
      {
        "club_badge_src": null,
        "entry": 49940,
        "entry_name": "Tadja United",
        "event_total": 71,
        "has_played": true,
        "id": 321076,
        "last_rank": 54494,
        "player_name": "Adi Pandey",
        "rank": 35352,
        "rank_sort": 35371,
        "total": 2363
      },
      {
        "club_badge_src": null,
        "entry": 51411,
        "entry_name": "How ya like me Thiaw",
        "event_total": 70,
        "has_played": true,
        "id": 330654,
        "last_rank": 52853,
        "player_name": "Edward Thompson",
        "rank": 35352,
        "rank_sort": 35372,
        "total": 2363
      },
      {
        "club_badge_src": null,
        "entry": 54597,
        "entry_name": "I\u2019mBringin\u0160e\u0161koBack",
        "event_total": 73,
        "has_played": true,
        "id": 351390,
        "last_rank": 51403,
        "player_name": "Christoffer Johnsen",
        "rank": 35352,
        "rank_sort": 35373,
        "total": 2363
      },
      {
        "club_badge_src": null,
        "entry": 56491,
        "entry_name": "Kante Blues",
        "event_total": 54,
        "has_played": true,
        "id": 363832,
        "last_rank": 27770,
        "player_name": "FPL Kante",
        "rank": 35352,
        "rank_sort": 35374,
        "total": 2363
      },
      {
        "club_badge_src": null,
        "entry": 60429,
        "entry_name": "cunhafeeltheluv2nite",
        "event_total": 66,
        "has_played": true,
        "id": 389066,
        "last_rank": 41324,
        "player_name": "Andrew Moore",
        "rank": 35352,
        "rank_sort": 35375,
        "total": 2363
      },
      {
        "club_badge_src": null,
        "entry": 60617,
        "entry_name": "Kante go on lik this",
        "event_total": 50,
        "has_played": true,
        "id": 390275,
        "last_rank": 27770,
        "player_name": "Joe Stevens",
        "rank": 35352,
        "rank_sort": 35376,
        "total": 2363
      },
      {
        "club_badge_src": "https://fantasy.premierleague.com/gcs/plfpl-production-adobe-approved/plfpl-production/65693/9e8d9265-62a8-4140-973a-1b7b54f32b76.png",
        "entry": 65693,
        "entry_name": "TwoFeeTheNai",
        "event_total": 66,
        "has_played": true,
        "id": 424294,
        "last_rank": 41324,
        "player_name": "Riyaad Davids",
        "rank": 35352,
        "rank_sort": 35377,
        "total": 2363
      },
      {
        "club_badge_src": null,
        "entry": 69513,
        "entry_name": "kurt-simons",
        "event_total": 49,
        "has_played": true,
        "id": 450951,
        "last_rank": 27020,
        "player_name": "Andreas str\u00f6mberg",
        "rank": 35352,
        "rank_sort": 35378,
        "total": 2363
      },
      {
        "club_badge_src": "https://fantasy.premierleague.com/gcs/plfpl-production-adobe-approved/plfpl-production/86159/93a93a14-dd4c-446f-937e-b911fe64aed1.png",
        "entry": 86159,
        "entry_name": "SERI BANDI FC",
        "event_total": 52,
        "has_played": true,
        "id": 561404,
        "last_rank": 29904,
        "player_name": "Gesta Francorum",
        "rank": 35352,
        "rank_sort": 35379,
        "total": 2363
      },
      {
        "club_badge_src": null,
        "entry": 90053,
        "entry_name": "Fantasy Champ 25/26",
        "event_total": 60,
        "has_played": true,
        "id": 587867,
        "last_rank": 39023,
        "player_name": "Gerry Lianos",
        "rank": 35352,
        "rank_sort": 35380,
        "total": 2363
      },
      {
        "club_badge_src": null,
        "entry": 98298,
        "entry_name": "Gudleiks Knotter",
        "event_total": 63,
        "has_played": true,
        "id": 641937,
        "last_rank": 42940,
        "player_name": "Konrad Hagen",
        "rank": 35352,
        "rank_sort": 35381,
        "total": 2363
      },
      {
        "club_badge_src": null,
        "entry": 99533,
        "entry_name": "Beef Cherki",
        "event_total": 58,
        "has_played": true,
        "id": 649746,
        "last_rank": 36624,
        "player_name": "Timur Tashpulatov",
        "rank": 35352,
        "rank_sort": 35382,
        "total": 2363
      },
      {
        "club_badge_src": null,
        "entry": 112172,
        "entry_name": "Toobies R\u00f6vg\u00e4ng",
        "event_total": 55,
        "has_played": true,
        "id": 731334,
        "last_rank": 32688,
        "player_name": "Tobias Andersson",
        "rank": 35352,
        "rank_sort": 35383,
        "total": 2363
      },
      {
        "club_badge_src": "https://fantasy.premierleague.com/gcs/plfpl-production-adobe-approved/plfpl-production/127280/7ee9a088-c6cd-49ac-8b6d-42c14e217c73.png",
        "entry": 127280,
        "entry_name": "Baltimore City",
        "event_total": 53,
        "has_played": true,
        "id": 829797,
        "last_rank": 30727,
        "player_name": "Jon Ekedahl",
        "rank": 35352,
        "rank_sort": 35384,
        "total": 2363
      },
      {
        "club_badge_src": null,
        "entry": 133384,
        "entry_name": "King's Landing",
        "event_total": 62,
        "has_played": true,
        "id": 868805,
        "last_rank": 41324,
        "player_name": "Hatim SAADI",
        "rank": 35352,
        "rank_sort": 35385,
        "total": 2363
      },
      {
        "club_badge_src": null,
        "entry": 136021,
        "entry_name": "Lancers",
        "event_total": 64,
        "has_played": true,
        "id": 885902,
        "last_rank": 43849,
        "player_name": "Marko Jelovic",
        "rank": 35352,
        "rank_sort": 35386,
        "total": 2363
      },
      {
        "club_badge_src": "https://fantasy.premierleague.com/gcs/plfpl-production-adobe-approved/plfpl-production/138254/1bcd9e4d-bd94-417d-8718-4e688c451c1b.png",
        "entry": 138254,
        "entry_name": "Palmer Again Ole Ole",
        "event_total": 63,
        "has_played": true,
        "id": 901786,
        "last_rank": 42506,
        "player_name": "Finn Webber",
        "rank": 35352,
        "rank_sort": 35387,
        "total": 2363
      },
      {
        "club_badge_src": null,
        "entry": 139802,
        "entry_name": "Elanga Management",
        "event_total": 61,
        "has_played": true,
        "id": 912656,
        "last_rank": 40297,
        "player_name": "William Gray",
        "rank": 35352,
        "rank_sort": 35388,
        "total": 2363
      },
      {
        "club_badge_src": "https://fantasy.premierleague.com/gcs/plfpl-production-adobe-approved/plfpl-production/143229/5b1fa445-3285-4dc7-92cf-e8ad7541c6fd.png",
        "entry": 143229,
        "entry_name": "Butterhook",
        "event_total": 57,
        "has_played": true,
        "id": 937026,
        "last_rank": 35424,
        "player_name": "Ricky Stephens",
        "rank": 35352,
        "rank_sort": 35389,
        "total": 2363
      },
      {
        "club_badge_src": null,
        "entry": 143969,
        "entry_name": "VV21",
        "event_total": 39,
        "has_played": true,
        "id": 942091,
        "last_rank": 19103,
        "player_name": "Visha Thines",
        "rank": 35352,
        "rank_sort": 35390,
        "total": 2363
      },
      {
        "club_badge_src": "https://fantasy.premierleague.com/gcs/plfpl-production-adobe-approved/plfpl-production/153494/e1dcab04-3931-4d94-8ae7-29f84180bae7.png",
        "entry": 153494,
        "entry_name": "Kinder United",
        "event_total": 63,
        "has_played": true,
        "id": 1008005,
        "last_rank": 37435,
        "player_name": "Stephen Coughlan",
        "rank": 35352,
        "rank_sort": 35391,
        "total": 2363
      },
      {
        "club_badge_src": null,
        "entry": 158304,
        "entry_name": "FathyAsil \ufffd",
        "event_total": 53,
        "has_played": true,
        "id": 1041701,
        "last_rank": 26827,
        "player_name": "Abo Selim",
        "rank": 35352,
        "rank_sort": 35392,
        "total": 2363
      },
      {
        "club_badge_src": null,
        "entry": 158797,
        "entry_name": "Eze Come Eze Go",
        "event_total": 50,
        "has_played": true,
        "id": 1045008,
        "last_rank": 24143,
        "player_name": "William Macaulay",
        "rank": 35352,
        "rank_sort": 35393,
        "total": 2363
      },
      {
        "club_badge_src": null,
        "entry": 159932,
        "entry_name": "That's hit the Slot",
        "event_total": 36,
        "has_played": true,
        "id": 1052932,
        "last_rank": 16959,
        "player_name": "Rob Stott",
        "rank": 35352,
        "rank_sort": 35394,
        "total": 2363
      },
      {
        "club_badge_src": null,
        "entry": 167858,
        "entry_name": "5 In The Morning",
        "event_total": 58,
        "has_played": true,
        "id": 1109543,
        "last_rank": 31747,
        "player_name": "Peter McElroy",
        "rank": 35352,
        "rank_sort": 35395,
        "total": 2363
      },
      {
        "club_badge_src": null,
        "entry": 179930,
        "entry_name": "Hairyson",
        "event_total": 74,
        "has_played": true,
        "id": 1187305,
        "last_rank": 60168,
        "player_name": "Harrison Moulton",
        "rank": 35352,
        "rank_sort": 35396,
        "total": 2363
      },
      {
        "club_badge_src": null,
        "entry": 193434,
        "entry_name": "Mudryk & Morty",
        "event_total": 50,
        "has_played": true,
        "id": 1282114,
        "last_rank": 27770,
        "player_name": "Stuart Smeed",
        "rank": 35352,
        "rank_sort": 35397,
        "total": 2363
      },
      {
        "club_badge_src": "https://fantasy.premierleague.com/gcs/plfpl-production-adobe-approved/plfpl-production/198667/c6839c5f-7d3c-4e3d-bfec-aeada51efe4f.png",
        "entry": 198667,
        "entry_name": "Cold Palm Her",
        "event_total": 73,
        "has_played": true,
        "id": 1318387,
        "last_rank": 57857,
        "player_name": "Pavel Vejvalka",
        "rank": 35352,
        "rank_sort": 35398,
        "total": 2363
      },
      {
        "club_badge_src": "https://fantasy.premierleague.com/gcs/plfpl-production-adobe-approved/plfpl-production/203693/5c48c965-8468-45ec-b46e-c82924f16150.png",
        "entry": 203693,
        "entry_name": "NWA",
        "event_total": 62,
        "has_played": true,
        "id": 1353423,
        "last_rank": 36348,
        "player_name": "Armand Naris",
        "rank": 35352,
        "rank_sort": 35399,
        "total": 2363
      },
      {
        "club_badge_src": null,
        "entry": 214391,
        "entry_name": "Bowen Arrows",
        "event_total": 75,
        "has_played": true,
        "id": 1426202,
        "last_rank": 61606,
        "player_name": "Vince Rowley",
        "rank": 35352,
        "rank_sort": 35400,
        "total": 2363
      }
    ]
  }
}