{
  "last_updated_data": "2026-05-24T23:28:17Z",
  "league": {
    "admin_entry": null,
    "closed": false,
    "code_privacy": "p",
    "created": "2025-07-20T23:14:33.933835Z",
    "cup_league": 2815434,
    "has_cup": true,
    "id": 314,
    "league_type": "s",
    "max_entries": null,
    "name": "Overall",
    "rank": null,
    "scoring": "c",
    "start_event": 1
  },
  "new_entries": {
    "has_next": false,
    "page": 1,
    "results": []
  },
  "standings": {
    "has_next": true,
    "page": 1649,
    "results": [
      {
        "club_badge_src": null,
        "entry": 169423,
        "entry_name": "Old is gold",
        "event_total": 63,
        "has_played": true,
        "id": 1119605,
        "last_rank": 88594,
        "player_name": "chris harper",
        "rank": 82364,
        "rank_sort": 82401,
        "total": 2334
      },
      {
        "club_badge_src": null,
        "entry": 172485,
        "entry_name": "mehdFC",
        "event_total": 80,
        "has_played": true,
        "id": 1139272,
        "last_rank": 150077,
        "player_name": "Mehdi Challandes",
        "rank": 82364,
        "rank_sort": 82402,
        "total": 2334
      },
      {
        "club_badge_src": null,
        "entry": 193999,
        "entry_name": "\u017duvies pir\u0161teliai",
        "event_total": 70,
        "has_played": true,
        "id": 1286056,
        "last_rank": 117915,
        "player_name": "Po Vilas",
        "rank": 82364,
        "rank_sort": 82403,
        "total": 2334
      },
      {
        "club_badge_src": null,
        "entry": 194866,
        "entry_name": "Cunha matata",
        "event_total": 56,
        "has_played": true,
        "id": 1292049,
        "last_rank": 81646,
        "player_name": "Ludde Andersson",
        "rank": 82364,
        "rank_sort": 82404,
        "total": 2334
      },
      {
        "club_badge_src": null,
        "entry": 197407,
        "entry_name": "Shosha team",
        "event_total": 43,
        "has_played": true,
        "id": 1309799,
        "last_rank": 56708,
        "player_name": "Mostafa Shosha",
        "rank": 82364,
        "rank_sort": 82405,
        "total": 2334
      },
      {
        "club_badge_src": null,
        "entry": 206915,
        "entry_name": "Mohamed Hesham",
        "event_total": 56,
        "has_played": true,
        "id": 1375311,
        "last_rank": 81646,
        "player_name": "Mohamed Hesham",
        "rank": 82364,
        "rank_sort": 82406,
        "total": 2334
      },
      {
        "club_badge_src": null,
        "entry": 206932,
        "entry_name": "Tree Hill Ravens",
        "event_total": 63,
        "has_played": true,
        "id": 1375418,
        "last_rank": 98436,
        "player_name": "Kyle Hakkarainen",
        "rank": 82364,
        "rank_sort": 82407,
        "total": 2334
      },
      {
        "club_badge_src": null,
        "entry": 210836,
        "entry_name": "CHRISTian > MOSQUEra",
        "event_total": 54,
        "has_played": true,
        "id": 1402242,
        "last_rank": 68957,
        "player_name": "Ethan Cosgrove",
        "rank": 82364,
        "rank_sort": 82408,
        "total": 2334
      },
      {
        "club_badge_src": null,
        "entry": 212321,
        "entry_name": "kevin",
        "event_total": 75,
        "has_played": true,
        "id": 1412427,
        "last_rank": 133827,
        "player_name": "Kevin Kacvinsky",
        "rank": 82364,
        "rank_sort": 82409,
        "total": 2334
      },
      {
        "club_badge_src": null,
        "entry": 214195,
        "entry_name": "Ha-Cunha Matata",
        "event_total": 65,
        "has_played": true,
        "id": 1424937,
        "last_rank": 103526,
        "player_name": "Andrew Hayes",
        "rank": 82364,
        "rank_sort": 82410,
        "total": 2334
      },
      {
        "club_badge_src": "https://fantasy.premierleague.com/gcs/plfpl-production-adobe-approved/plfpl-production/221231/f2fa7c34-e401-41a1-9acc-bcf238d3a640.png",
        "entry": 221231,
        "entry_name": "Wirtz Nightmare",
        "event_total": 40,
        "has_played": true,
        "id": 1471397,
        "last_rank": 51720,
        "player_name": "Jack Kinsey",
        "rank": 82364,
        "rank_sort": 82411,
        "total": 2334
      },
      {
        "club_badge_src": null,
        "entry": 236549,
        "entry_name": "Game of Throw-Ins",
        "event_total": 59,
        "has_played": true,
        "id": 1573846,
        "last_rank": 88594,
        "player_name": "Joona Karjala",
        "rank": 82364,
        "rank_sort": 82412,
        "total": 2334
      },
      {
        "club_badge_src": null,
        "entry": 259617,
        "entry_name": "WHU Tang Clan",
        "event_total": 53,
        "has_played": true,
        "id": 1726133,
        "last_rank": 75874,
        "player_name": "Yekonia Manibe",
        "rank": 82364,
        "rank_sort": 82413,
        "total": 2334
      },
      {
        "club_badge_src": "https://fantasy.premierleague.com/gcs/plfpl-production-adobe-approved/plfpl-production/263873/76804ea3-e676-41d8-b947-a4fb9af3b107.png",
        "entry": 263873,
        "entry_name": "First The Wirtz",
        "event_total": 63,
        "has_played": true,
        "id": 1754600,
        "last_rank": 88594,
        "player_name": "Joe Marini",
        "rank": 82364,
        "rank_sort": 82414,
        "total": 2334
      },
      {
        "club_badge_src": "https://fantasy.premierleague.com/gcs/plfpl-production-adobe-approved/plfpl-production/265517/fc549d9a-f946-4e61-b4a4-ecf16b9ad3d6.png",
        "entry": 265517,
        "entry_name": "AndLeedsWillGoMad",
        "event_total": 68,
        "has_played": true,
        "id": 1766024,
        "last_rank": 112169,
        "player_name": "Matthew Nash",
        "rank": 82364,
        "rank_sort": 82415,
        "total": 2334
      },
      {
        "club_badge_src": null,
        "entry": 272464,
        "entry_name": "Deeney in a bottle",
        "event_total": 68,
        "has_played": true,
        "id": 1812790,
        "last_rank": 112591,
        "player_name": "Jacob Walker",
        "rank": 82364,
        "rank_sort": 82416,
        "total": 2334
      },
      {
        "club_badge_src": null,
        "entry": 315164,
        "entry_name": "Vinotinto901",
        "event_total": 54,
        "has_played": true,
        "id": 2112131,
        "last_rank": 68957,
        "player_name": "Paul Velasco",
        "rank": 82364,
        "rank_sort": 82417,
        "total": 2334
      },
      {
        "club_badge_src": null,
        "entry": 329360,
        "entry_name": "Ctrl+Alt+DeLigt",
        "event_total": 75,
        "has_played": true,
        "id": 2206295,
        "last_rank": 133328,
        "player_name": "Seamus Murnane",
        "rank": 82364,
        "rank_sort": 82418,
        "total": 2334
      },
      {
        "club_badge_src": null,
        "entry": 341949,
        "entry_name": "Man-ish United",
        "event_total": 66,
        "has_played": true,
        "id": 2288752,
        "last_rank": 105963,
        "player_name": "Manish Bhat",
        "rank": 82364,
        "rank_sort": 82419,
        "total": 2334
      },
      {
        "club_badge_src": null,
        "entry": 348257,
        "entry_name": "DarkArtFC_V2",
        "event_total": 64,
        "has_played": true,
        "id": 2331071,
        "last_rank": 100949,
        "player_name": "Weerapong Wisawarungruangkij",
        "rank": 82364,
        "rank_sort": 82420,
        "total": 2334
      },
      {
        "club_badge_src": null,
        "entry": 358207,
        "entry_name": "Raya Nephew",
        "event_total": 57,
        "has_played": true,
        "id": 2397124,
        "last_rank": 83934,
        "player_name": "Joel Antoni-Harman",
        "rank": 82364,
        "rank_sort": 82421,
        "total": 2334
      },
      {
        "club_badge_src": null,
        "entry": 371097,
        "entry_name": "ELQADY",
        "event_total": 38,
        "has_played": true,
        "id": 2483182,
        "last_rank": 48642,
        "player_name": "mohamed samy",
        "rank": 82364,
        "rank_sort": 82422,
        "total": 2334
      },
      {
        "club_badge_src": null,
        "entry": 375450,
        "entry_name": "The floor is Lavia",
        "event_total": 66,
        "has_played": true,
        "id": 2513697,
        "last_rank": 106763,
        "player_name": "Will Norman",
        "rank": 82364,
        "rank_sort": 82423,
        "total": 2334
      },
      {
        "club_badge_src": null,
        "entry": 407898,
        "entry_name": "Deep Learning",
        "event_total": 73,
        "has_played": true,
        "id": 2735427,
        "last_rank": 126088,
        "player_name": "Brian LaMothe",
        "rank": 82364,
        "rank_sort": 82424,
        "total": 2334
      },
      {
        "club_badge_src": "https://fantasy.premierleague.com/gcs/plfpl-production-adobe-approved/plfpl-production/430371/730aff19-e8e9-4cdc-bcef-dbaaf23d70ba.png",
        "entry": 430371,
        "entry_name": "Mongoh\u00f8ns",
        "event_total": 49,
        "has_played": true,
        "id": 2886449,
        "last_rank": 59813,
        "player_name": "Noah Vigdal",
        "rank": 82364,
        "rank_sort": 82425,
        "total": 2334
      },
      {
        "club_badge_src": null,
        "entry": 434580,
        "entry_name": "Beef Cherki",
        "event_total": 53,
        "has_played": true,
        "id": 2914330,
        "last_rank": 75139,
        "player_name": "James Watts",
        "rank": 82364,
        "rank_sort": 82426,
        "total": 2334
      },
      {
        "club_badge_src": null,
        "entry": 441437,
        "entry_name": "Matthias FC",
        "event_total": 66,
        "has_played": true,
        "id": 2959852,
        "last_rank": 106763,
        "player_name": "Matthias Brincat",
        "rank": 82364,
        "rank_sort": 82427,
        "total": 2334
      },
      {
        "club_badge_src": "https://fantasy.premierleague.com/gcs/plfpl-production-adobe-approved/plfpl-production/462796/002aa8aa-412a-4620-889b-df2e8655eae4.png",
        "entry": 462796,
        "entry_name": "Mixa",
        "event_total": 59,
        "has_played": true,
        "id": 3104411,
        "last_rank": 88594,
        "player_name": "Mihajlo Markov",
        "rank": 82364,
        "rank_sort": 82428,
        "total": 2334
      },
      {
        "club_badge_src": null,
        "entry": 470202,
        "entry_name": "Schar Wars",
        "event_total": 59,
        "has_played": true,
        "id": 3156329,
        "last_rank": 89055,
        "player_name": "Christopher Campbell",
        "rank": 82364,
        "rank_sort": 82429,
        "total": 2334
      },
      {
        "club_badge_src": null,
        "entry": 476776,
        "entry_name": "Lille-str\u00f8m SK",
        "event_total": 51,
        "has_played": true,
        "id": 3200336,
        "last_rank": 71386,
        "player_name": "Robert James Str\u00f8m",
        "rank": 82364,
        "rank_sort": 82430,
        "total": 2334
      },
      {
        "club_badge_src": "https://fantasy.premierleague.com/gcs/plfpl-production-adobe-approved/plfpl-production/484158/7314b994-9151-40b4-8b6c-cc0f900ee4cd.png",
        "entry": 484158,
        "entry_name": "March of the Dead",
        "event_total": 58,
        "has_played": true,
        "id": 3249851,
        "last_rank": 86304,
        "player_name": "Ben Thompson",
        "rank": 82364,
        "rank_sort": 82431,
        "total": 2334
      },
      {
        "club_badge_src": "https://fantasy.premierleague.com/gcs/plfpl-production-adobe-approved/plfpl-production/484730/e44504d4-2ac5-4a58-90d7-f69ba6a911c1.png",
        "entry": 484730,
        "entry_name": "Eze Come Eze Go 3.0",
        "event_total": 47,
        "has_played": true,
        "id": 3253664,
        "last_rank": 63724,
        "player_name": "Jamie Downing",
        "rank": 82364,
        "rank_sort": 82432,
        "total": 2334
      },
      {
        "club_badge_src": null,
        "entry": 496915,
        "entry_name": "Haalandaise sauce",
        "event_total": 58,
        "has_played": true,
        "id": 3335271,
        "last_rank": 86735,
        "player_name": "Ainsley Pearce",
        "rank": 82364,
        "rank_sort": 82433,
        "total": 2334
      },
      {
        "club_badge_src": null,
        "entry": 502824,
        "entry_name": "Major League Saka",
        "event_total": 60,
        "has_played": true,
        "id": 3375068,
        "last_rank": 91006,
        "player_name": "Matthew Bellamy",
        "rank": 82364,
        "rank_sort": 82434,
        "total": 2334
      },
      {
        "club_badge_src": null,
        "entry": 507078,
        "entry_name": "Escape to Viktory",
        "event_total": 42,
        "has_played": true,
        "id": 3403454,
        "last_rank": 55014,
        "player_name": "Mark Stuart",
        "rank": 82364,
        "rank_sort": 82435,
        "total": 2334
      },
      {
        "club_badge_src": null,
        "entry": 507148,
        "entry_name": "ThomasTheFrankEngine",
        "event_total": 57,
        "has_played": true,
        "id": 3403918,
        "last_rank": 75139,
        "player_name": "Taylor Adkins",
        "rank": 82364,
        "rank_sort": 82436,
        "total": 2334
      },
      {
        "club_badge_src": null,
        "entry": 513485,
        "entry_name": "Change Name",
        "event_total": 59,
        "has_played": true,
        "id": 3447856,
        "last_rank": 89055,
        "player_name": "Charlie Bolton",
        "rank": 82364,
        "rank_sort": 82437,
        "total": 2334
      },
      {
        "club_badge_src": null,
        "entry": 525564,
        "entry_name": "\u9ea6\u8feaMoola\u5229\u5179\u667a",
        "event_total": 56,
        "has_played": true,
        "id": 3532288,
        "last_rank": 82069,
        "player_name": "tik\u00e9\u53f6\u5229\u5179\u667ay YTK",
        "rank": 82364,
        "rank_sort": 82438,
        "total": 2334
      },
      {
        "club_badge_src": null,
        "entry": 540106,
        "entry_name": "Chiddlesbrough",
        "event_total": 68,
        "has_played": true,
        "id": 3635407,
        "last_rank": 112169,
        "player_name": "Ryan Chidley",
        "rank": 82364,
        "rank_sort": 82439,
        "total": 2334
      },
      {
        "club_badge_src": null,
        "entry": 553923,
        "entry_name": "Arne you glad",
        "event_total": 56,
        "has_played": true,
        "id": 3728224,
        "last_rank": 81646,
        "player_name": "Matthew Costigan",
        "rank": 82364,
        "rank_sort": 82440,
        "total": 2334
      },
      {
        "club_badge_src": null,
        "entry": 558374,
        "entry_name": "Uppi FC",
        "event_total": 74,
        "has_played": true,
        "id": 3757800,
        "last_rank": 130566,
        "player_name": "\u00c1g\u00fast \u00c1sgr\u00edmsson",
        "rank": 82364,
        "rank_sort": 82441,
        "total": 2334
      },
      {
        "club_badge_src": "https://fantasy.premierleague.com/gcs/plfpl-production-adobe-approved/plfpl-production/574967/3a2cd7d4-4261-4dcb-b4c9-bc0e7695254b.png",
        "entry": 574967,
        "entry_name": "Crocodile Wanderers",
        "event_total": 53,
        "has_played": true,
        "id": 3869256,
        "last_rank": 67063,
        "player_name": "Mick Mead",
        "rank": 82364,
        "rank_sort": 82442,
        "total": 2334
      },
      {
        "club_badge_src": "https://fantasy.premierleague.com/gcs/plfpl-production-adobe-approved/plfpl-production/583724/d66ff7a7-3dec-4810-8b41-d2248c53ec97.png",
        "entry": 583724,
        "entry_name": "Arne's Slot Machine",
        "event_total": 68,
        "has_played": true,
        "id": 3928330,
        "last_rank": 112169,
        "player_name": "Keith Moore",
        "rank": 82364,
        "rank_sort": 82443,
        "total": 2334
      },
      {
        "club_badge_src": null,
        "entry": 594948,
        "entry_name": "Howe2 train a magpie",
        "event_total": 48,
        "has_played": true,
        "id": 4010425,
        "last_rank": 65475,
        "player_name": "Robert Jefferson",
        "rank": 82364,
        "rank_sort": 82444,
        "total": 2334
      },
      {
        "club_badge_src": null,
        "entry": 599168,
        "entry_name": "Beat Delap Record",
        "event_total": 55,
        "has_played": true,
        "id": 4041453,
        "last_rank": 79431,
        "player_name": "Will Wallis",
        "rank": 82364,
        "rank_sort": 82445,
        "total": 2334
      },
      {
        "club_badge_src": null,
        "entry": 601390,
        "entry_name": "The Keithy Growlers",
        "event_total": 61,
        "has_played": true,
        "id": 4057960,
        "last_rank": 93443,
        "player_name": "Luke Seddon",
        "rank": 82364,
        "rank_sort": 82446,
        "total": 2334
      },
      {
        "club_badge_src": null,
        "entry": 607611,
        "entry_name": "no kane no gain",
        "event_total": 66,
        "has_played": true,
        "id": 4103465,
        "last_rank": 106259,
        "player_name": "Liam Pavcic",
        "rank": 82364,
        "rank_sort": 82447,
        "total": 2334
      },
      {
        "club_badge_src": null,
        "entry": 683201,
        "entry_name": "McLovin FC",
        "event_total": 70,
        "has_played": true,
        "id": 4623989,
        "last_rank": 117112,
        "player_name": "Mark Becker",
        "rank": 82364,
        "rank_sort": 82448,
        "total": 2334
      },
      {
        "club_badge_src": "https://fantasy.premierleague.com/gcs/plfpl-production-adobe-approved/plfpl-production/685184/dcd5b443-bf4e-4545-83fe-8b68d435eba8.png",
        "entry": 685184,
        "entry_name": "Parezanske Torine",
        "event_total": 51,
        "has_played": true,
        "id": 4637897,
        "last_rank": 71713,
        "player_name": "Kosta Pavlovi\u0107",
        "rank": 82364,
        "rank_sort": 82449,
        "total": 2334
      },
      {
        "club_badge_src": null,
        "entry": 687223,
        "entry_name": "Cullen's Cowboys",
        "event_total": 52,
        "has_played": true,
        "id": 4652401,
        "last_rank": 65163,
        "player_name": "Rob Cullen",
        "rank": 82364,
        "rank_sort": 82450,
        "total": 2334
      }
    ]
  }
}