{
  "last_updated_data": "2026-05-24T23:28:17Z",
  "league": {
    "admin_entry": null,
    "closed": false,
    "code_privacy": "p",
    "created": "2025-07-20T23:14:33.933835Z",
    "cup_league": 2815434,
    "has_cup": true,
    "id": 314,
    "league_type": "s",
    "max_entries": null,
    "name": "Overall",
    "rank": null,
    "scoring": "c",
    "start_event": 1
  },
  "new_entries": {
    "has_next": false,
    "page": 1,
    "results": []
  },
  "standings": {
    "has_next": true,
    "page": 1064,
    "results": [
      {
        "club_badge_src": null,
        "entry": 1985395,
        "entry_name": "Paris et emol",
        "event_total": 52,
        "has_played": true,
        "id": 14024359,
        "last_rank": 45927,
        "player_name": "Paris Desouza Guillot",
        "rank": 53036,
        "rank_sort": 53151,
        "total": 2350
      },
      {
        "club_badge_src": null,
        "entry": 2003429,
        "entry_name": "Kinder Mbeumo",
        "event_total": 58,
        "has_played": true,
        "id": 14164056,
        "last_rank": 54667,
        "player_name": "Jack Marcroft",
        "rank": 53036,
        "rank_sort": 53152,
        "total": 2350
      },
      {
        "club_badge_src": null,
        "entry": 2090414,
        "entry_name": "Mayer Fc",
        "event_total": 66,
        "has_played": true,
        "id": 14831072,
        "last_rank": 68748,
        "player_name": "Nikolai Mayer",
        "rank": 53036,
        "rank_sort": 53153,
        "total": 2350
      },
      {
        "club_badge_src": null,
        "entry": 2184726,
        "entry_name": "KartalFC2025",
        "event_total": 65,
        "has_played": true,
        "id": 15540938,
        "last_rank": 60168,
        "player_name": "Mert Genc",
        "rank": 53036,
        "rank_sort": 53154,
        "total": 2350
      },
      {
        "club_badge_src": null,
        "entry": 2231012,
        "entry_name": "Paul's deep",
        "event_total": 54,
        "has_played": true,
        "id": 15893490,
        "last_rank": 48898,
        "player_name": "Paul Wai",
        "rank": 53036,
        "rank_sort": 53155,
        "total": 2350
      },
      {
        "club_badge_src": null,
        "entry": 2277379,
        "entry_name": "Lech Pozna\u0144",
        "event_total": 53,
        "has_played": true,
        "id": 16239704,
        "last_rank": 47417,
        "player_name": "Lukasz Marciniak",
        "rank": 53036,
        "rank_sort": 53156,
        "total": 2350
      },
      {
        "club_badge_src": null,
        "entry": 2357491,
        "entry_name": "Oz Seagulls",
        "event_total": 62,
        "has_played": true,
        "id": 16822137,
        "last_rank": 62429,
        "player_name": "Marc Phillips",
        "rank": 53036,
        "rank_sort": 53157,
        "total": 2350
      },
      {
        "club_badge_src": null,
        "entry": 2458579,
        "entry_name": "Team Autodraft",
        "event_total": 50,
        "has_played": true,
        "id": 17585762,
        "last_rank": 43168,
        "player_name": "Ian Kendall",
        "rank": 53036,
        "rank_sort": 53158,
        "total": 2350
      },
      {
        "club_badge_src": "https://fantasy.premierleague.com/gcs/plfpl-production-adobe-approved/plfpl-production/2466813/6ce45684-9441-4af5-bb6a-ce957eae7ceb.png",
        "entry": 2466813,
        "entry_name": "ahmed ben abdelaziz",
        "event_total": 58,
        "has_played": true,
        "id": 17645731,
        "last_rank": 55311,
        "player_name": "ahmed ben abdelaziz",
        "rank": 53036,
        "rank_sort": 53159,
        "total": 2350
      },
      {
        "club_badge_src": null,
        "entry": 2515596,
        "entry_name": "Pep A Pig",
        "event_total": 69,
        "has_played": true,
        "id": 18022729,
        "last_rank": 75537,
        "player_name": "Oisin Rehill",
        "rank": 53036,
        "rank_sort": 53160,
        "total": 2350
      },
      {
        "club_badge_src": null,
        "entry": 2522864,
        "entry_name": "\u0627\u0644\u0639\u0645 \u0633\u0631\u0631\u0646\u062c\u0647 \u261d\ufffd",
        "event_total": 56,
        "has_played": true,
        "id": 18077195,
        "last_rank": 52205,
        "player_name": "Islam Mohamed",
        "rank": 53036,
        "rank_sort": 53161,
        "total": 2350
      },
      {
        "club_badge_src": null,
        "entry": 2606578,
        "entry_name": "Ballon D'oh",
        "event_total": 56,
        "has_played": true,
        "id": 18723990,
        "last_rank": 51984,
        "player_name": "Andrew Rowell",
        "rank": 53036,
        "rank_sort": 53162,
        "total": 2350
      },
      {
        "club_badge_src": null,
        "entry": 2607093,
        "entry_name": "Fantasy",
        "event_total": 54,
        "has_played": true,
        "id": 18728038,
        "last_rank": 42940,
        "player_name": "Ezzeldin Azzam",
        "rank": 53036,
        "rank_sort": 53163,
        "total": 2350
      },
      {
        "club_badge_src": null,
        "entry": 2632311,
        "entry_name": "ZWZWZW",
        "event_total": 71,
        "has_played": true,
        "id": 18917761,
        "last_rank": 70757,
        "player_name": "Arsenal Gonna Win",
        "rank": 53036,
        "rank_sort": 53164,
        "total": 2350
      },
      {
        "club_badge_src": null,
        "entry": 2645672,
        "entry_name": "Chins Army x2",
        "event_total": 60,
        "has_played": true,
        "id": 19015844,
        "last_rank": 58688,
        "player_name": "Tomas Dickens",
        "rank": 53036,
        "rank_sort": 53165,
        "total": 2350
      },
      {
        "club_badge_src": null,
        "entry": 2668177,
        "entry_name": "Snoop Udogie Dogg",
        "event_total": 61,
        "has_played": true,
        "id": 19182772,
        "last_rank": 53345,
        "player_name": "Max France",
        "rank": 53036,
        "rank_sort": 53166,
        "total": 2350
      },
      {
        "club_badge_src": null,
        "entry": 2689634,
        "entry_name": "RobsHoldingChrisWood",
        "event_total": 61,
        "has_played": true,
        "id": 19345687,
        "last_rank": 46839,
        "player_name": "Stanley Jones",
        "rank": 53036,
        "rank_sort": 53167,
        "total": 2350
      },
      {
        "club_badge_src": "https://fantasy.premierleague.com/gcs/plfpl-production-adobe-approved/plfpl-production/2709963/f9a36f4e-2840-4e2b-b165-53418f56cec6.png",
        "entry": 2709963,
        "entry_name": "Cherryfield United",
        "event_total": 69,
        "has_played": true,
        "id": 19497629,
        "last_rank": 75537,
        "player_name": "David Foran",
        "rank": 53036,
        "rank_sort": 53168,
        "total": 2350
      },
      {
        "club_badge_src": null,
        "entry": 2714868,
        "entry_name": "Udogie $tyl\u20ac",
        "event_total": 67,
        "has_played": true,
        "id": 19533842,
        "last_rank": 71713,
        "player_name": "Josh Donnelly",
        "rank": 53036,
        "rank_sort": 53169,
        "total": 2350
      },
      {
        "club_badge_src": "https://fantasy.premierleague.com/gcs/plfpl-production-adobe-approved/plfpl-production/2739342/13100ecd-a27c-4b50-8e7d-011d81d3ce64.png",
        "entry": 2739342,
        "entry_name": "Mvan22 (c)",
        "event_total": 68,
        "has_played": true,
        "id": 19746216,
        "last_rank": 65163,
        "player_name": "Kevin Robinson",
        "rank": 53036,
        "rank_sort": 53170,
        "total": 2350
      },
      {
        "club_badge_src": "https://fantasy.premierleague.com/gcs/plfpl-production-adobe-approved/plfpl-production/2744197/edf05d10-fc7f-4945-9d63-84783007fe1a.png",
        "entry": 2744197,
        "entry_name": "Dales Delta Ducks",
        "event_total": 57,
        "has_played": true,
        "id": 19840462,
        "last_rank": 53023,
        "player_name": "Jonathon Dale",
        "rank": 53036,
        "rank_sort": 53171,
        "total": 2350
      },
      {
        "club_badge_src": "https://fantasy.premierleague.com/gcs/plfpl-production-adobe-approved/plfpl-production/2793401/6ee591a1-0d21-40a9-9768-acfc8c22640d.png",
        "entry": 2793401,
        "entry_name": "Bottle Job",
        "event_total": 57,
        "has_played": true,
        "id": 20395609,
        "last_rank": 53621,
        "player_name": "Olly Hepburn",
        "rank": 53036,
        "rank_sort": 53172,
        "total": 2350
      },
      {
        "club_badge_src": null,
        "entry": 2841770,
        "entry_name": "RedFantasy",
        "event_total": 61,
        "has_played": true,
        "id": 20770542,
        "last_rank": 60462,
        "player_name": "Nikolaj Thorsen",
        "rank": 53036,
        "rank_sort": 53173,
        "total": 2350
      },
      {
        "club_badge_src": null,
        "entry": 2842327,
        "entry_name": "Pjanic! At The Disco",
        "event_total": 54,
        "has_played": true,
        "id": 20774626,
        "last_rank": 48898,
        "player_name": "Tom Kennard",
        "rank": 53036,
        "rank_sort": 53174,
        "total": 2350
      },
      {
        "club_badge_src": null,
        "entry": 2852568,
        "entry_name": "You Are My Son-Shine",
        "event_total": 54,
        "has_played": true,
        "id": 20857482,
        "last_rank": 48363,
        "player_name": "John Coughlin",
        "rank": 53036,
        "rank_sort": 53175,
        "total": 2350
      },
      {
        "club_badge_src": null,
        "entry": 2915328,
        "entry_name": "Matt's XI",
        "event_total": 59,
        "has_played": true,
        "id": 21368771,
        "last_rank": 49691,
        "player_name": "Matt Turner",
        "rank": 53036,
        "rank_sort": 53176,
        "total": 2350
      },
      {
        "club_badge_src": null,
        "entry": 2997312,
        "entry_name": "BraxnOli",
        "event_total": 67,
        "has_played": true,
        "id": 22045674,
        "last_rank": 71713,
        "player_name": "warren noble",
        "rank": 53036,
        "rank_sort": 53177,
        "total": 2350
      },
      {
        "club_badge_src": null,
        "entry": 3107376,
        "entry_name": "ryan",
        "event_total": 64,
        "has_played": true,
        "id": 22916499,
        "last_rank": 64943,
        "player_name": "Ryan Dale",
        "rank": 53036,
        "rank_sort": 53178,
        "total": 2350
      },
      {
        "club_badge_src": null,
        "entry": 3179178,
        "entry_name": "Ra7im",
        "event_total": 68,
        "has_played": true,
        "id": 23492083,
        "last_rank": 73720,
        "player_name": "--Ra7im-- --- free Palestine ---",
        "rank": 53036,
        "rank_sort": 53179,
        "total": 2350
      },
      {
        "club_badge_src": null,
        "entry": 3226651,
        "entry_name": "DobsonTwins",
        "event_total": 59,
        "has_played": true,
        "id": 23862228,
        "last_rank": 49880,
        "player_name": "Louis M",
        "rank": 53036,
        "rank_sort": 53180,
        "total": 2350
      },
      {
        "club_badge_src": null,
        "entry": 3289262,
        "entry_name": "The Segun Syndicate",
        "event_total": 67,
        "has_played": true,
        "id": 24352283,
        "last_rank": 71713,
        "player_name": "Segun Miracle",
        "rank": 53036,
        "rank_sort": 53181,
        "total": 2350
      },
      {
        "club_badge_src": null,
        "entry": 3306142,
        "entry_name": "stevechester united",
        "event_total": 49,
        "has_played": true,
        "id": 24489589,
        "last_rank": 31747,
        "player_name": "steven baraka",
        "rank": 53036,
        "rank_sort": 53182,
        "total": 2350
      },
      {
        "club_badge_src": "https://fantasy.premierleague.com/gcs/plfpl-production-adobe-approved/plfpl-production/3426814/3dce427d-51b2-4b14-838d-9ebd94c8f68b.png",
        "entry": 3426814,
        "entry_name": "T\u00e5ra & pess",
        "event_total": 62,
        "has_played": true,
        "id": 25456083,
        "last_rank": 55014,
        "player_name": "Ronny Stromseth",
        "rank": 53036,
        "rank_sort": 53183,
        "total": 2350
      },
      {
        "club_badge_src": null,
        "entry": 3469242,
        "entry_name": "Basking Ait-Nouri",
        "event_total": 50,
        "has_played": true,
        "id": 25791152,
        "last_rank": 37589,
        "player_name": "Paul Johnson",
        "rank": 53036,
        "rank_sort": 53184,
        "total": 2350
      },
      {
        "club_badge_src": null,
        "entry": 3488137,
        "entry_name": "P.G.",
        "event_total": 59,
        "has_played": true,
        "id": 25940368,
        "last_rank": 57001,
        "player_name": "Petar Genchev",
        "rank": 53036,
        "rank_sort": 53185,
        "total": 2350
      },
      {
        "club_badge_src": null,
        "entry": 3494695,
        "entry_name": "Mickey mouse",
        "event_total": 52,
        "has_played": true,
        "id": 25993857,
        "last_rank": 40297,
        "player_name": "mike watts",
        "rank": 53036,
        "rank_sort": 53186,
        "total": 2350
      },
      {
        "club_badge_src": null,
        "entry": 3551062,
        "entry_name": "HNK LJUBLJANA",
        "event_total": 48,
        "has_played": true,
        "id": 26436814,
        "last_rank": 40297,
        "player_name": "Stjepan \u0160imunovi\u0107",
        "rank": 53036,
        "rank_sort": 53187,
        "total": 2350
      },
      {
        "club_badge_src": null,
        "entry": 3642706,
        "entry_name": "Wizzle Rovers",
        "event_total": 54,
        "has_played": true,
        "id": 27148529,
        "last_rank": 48642,
        "player_name": "Will Coultas",
        "rank": 53036,
        "rank_sort": 53188,
        "total": 2350
      },
      {
        "club_badge_src": null,
        "entry": 3655704,
        "entry_name": "Piroetechnics",
        "event_total": 52,
        "has_played": true,
        "id": 27256434,
        "last_rank": 40297,
        "player_name": "Tom Greenwood",
        "rank": 53036,
        "rank_sort": 53189,
        "total": 2350
      },
      {
        "club_badge_src": null,
        "entry": 3741112,
        "entry_name": "I sak Balls",
        "event_total": 52,
        "has_played": true,
        "id": 27926715,
        "last_rank": 45927,
        "player_name": "cameron plank",
        "rank": 53036,
        "rank_sort": 53190,
        "total": 2350
      },
      {
        "club_badge_src": null,
        "entry": 3764957,
        "entry_name": "maglovski14",
        "event_total": 67,
        "has_played": true,
        "id": 28111253,
        "last_rank": 71713,
        "player_name": "Toni Maglovski",
        "rank": 53036,
        "rank_sort": 53191,
        "total": 2350
      },
      {
        "club_badge_src": "https://fantasy.premierleague.com/gcs/plfpl-production-adobe-approved/plfpl-production/3783470/e02d84c1-6b6a-4d16-9b31-a713679cd6fb.png",
        "entry": 3783470,
        "entry_name": "Kaboi FC",
        "event_total": 65,
        "has_played": true,
        "id": 28252623,
        "last_rank": 67695,
        "player_name": "Mat Dann",
        "rank": 53036,
        "rank_sort": 53192,
        "total": 2350
      },
      {
        "club_badge_src": null,
        "entry": 3794925,
        "entry_name": "Chyko\u2650",
        "event_total": 58,
        "has_played": true,
        "id": 28364254,
        "last_rank": 55311,
        "player_name": "Chyko- Donald",
        "rank": 53036,
        "rank_sort": 53193,
        "total": 2350
      },
      {
        "club_badge_src": null,
        "entry": 3820106,
        "entry_name": "Gyok \u2018n\u2019 Roll FC",
        "event_total": 71,
        "has_played": true,
        "id": 28570234,
        "last_rank": 80194,
        "player_name": "Rohan Giblin",
        "rank": 53036,
        "rank_sort": 53194,
        "total": 2350
      },
      {
        "club_badge_src": "https://fantasy.premierleague.com/gcs/plfpl-production-adobe-approved/plfpl-production/3828321/5f74eedd-d313-4eed-b771-99a7d5888877.png",
        "entry": 3828321,
        "entry_name": "Slot Machine",
        "event_total": 70,
        "has_played": true,
        "id": 28636994,
        "last_rank": 69323,
        "player_name": "Matthew Birt",
        "rank": 53036,
        "rank_sort": 53195,
        "total": 2350
      },
      {
        "club_badge_src": null,
        "entry": 3872637,
        "entry_name": "Rory's Foxes",
        "event_total": 63,
        "has_played": true,
        "id": 29067306,
        "last_rank": 64005,
        "player_name": "Chris Oakes",
        "rank": 53036,
        "rank_sort": 53196,
        "total": 2350
      },
      {
        "club_badge_src": "https://fantasy.premierleague.com/gcs/plfpl-production-adobe-approved/plfpl-production/3882530/12101c24-41dd-43d7-99ec-40a700f235a7.png",
        "entry": 3882530,
        "entry_name": "Boca Seniors FC",
        "event_total": 61,
        "has_played": true,
        "id": 29173253,
        "last_rank": 60462,
        "player_name": "Erik Fjellberg",
        "rank": 53036,
        "rank_sort": 53197,
        "total": 2350
      },
      {
        "club_badge_src": null,
        "entry": 3894443,
        "entry_name": "No hope Hotspurs",
        "event_total": 38,
        "has_played": true,
        "id": 29268712,
        "last_rank": 29071,
        "player_name": "Joseph O'Gorman",
        "rank": 53036,
        "rank_sort": 53198,
        "total": 2350
      },
      {
        "club_badge_src": null,
        "entry": 3920275,
        "entry_name": "MH Dons",
        "event_total": 67,
        "has_played": true,
        "id": 29478959,
        "last_rank": 71713,
        "player_name": "Mark Hanson",
        "rank": 53036,
        "rank_sort": 53199,
        "total": 2350
      },
      {
        "club_badge_src": null,
        "entry": 3969541,
        "entry_name": "Goti Goto",
        "event_total": 64,
        "has_played": true,
        "id": 29871283,
        "last_rank": 65475,
        "player_name": "Ishmael Sesay",
        "rank": 53036,
        "rank_sort": 53200,
        "total": 2350
      }
    ]
  }
}