{
  "last_updated_data": "2026-05-24T23:28:17Z",
  "league": {
    "admin_entry": null,
    "closed": false,
    "code_privacy": "p",
    "created": "2025-07-20T23:14:33.933835Z",
    "cup_league": 2815434,
    "has_cup": true,
    "id": 314,
    "league_type": "s",
    "max_entries": null,
    "name": "Overall",
    "rank": null,
    "scoring": "c",
    "start_event": 1
  },
  "new_entries": {
    "has_next": false,
    "page": 1,
    "results": []
  },
  "standings": {
    "has_next": true,
    "page": 1222,
    "results": [
      {
        "club_badge_src": null,
        "entry": 246358,
        "entry_name": "Wirtz Case Scenario",
        "event_total": 76,
        "has_played": true,
        "id": 1640140,
        "last_rank": 103526,
        "player_name": "Darnell van Wyk",
        "rank": 60996,
        "rank_sort": 61051,
        "total": 2345
      },
      {
        "club_badge_src": null,
        "entry": 257401,
        "entry_name": "bendabawwl",
        "event_total": 52,
        "has_played": true,
        "id": 1711807,
        "last_rank": 53621,
        "player_name": "Benjamin Aw",
        "rank": 60996,
        "rank_sort": 61052,
        "total": 2345
      },
      {
        "club_badge_src": null,
        "entry": 258524,
        "entry_name": "amadness",
        "event_total": 50,
        "has_played": true,
        "id": 1719046,
        "last_rank": 44048,
        "player_name": "Milan Kapczynski",
        "rank": 60996,
        "rank_sort": 61053,
        "total": 2345
      },
      {
        "club_badge_src": null,
        "entry": 277180,
        "entry_name": "Sokoto Red Seaweed",
        "event_total": 33,
        "has_played": true,
        "id": 1844938,
        "last_rank": 28609,
        "player_name": "D E",
        "rank": 60996,
        "rank_sort": 61054,
        "total": 2345
      },
      {
        "club_badge_src": null,
        "entry": 282735,
        "entry_name": "King Cobra",
        "event_total": 54,
        "has_played": true,
        "id": 1882058,
        "last_rank": 56708,
        "player_name": "The King",
        "rank": 60996,
        "rank_sort": 61055,
        "total": 2345
      },
      {
        "club_badge_src": "https://fantasy.premierleague.com/gcs/plfpl-production-adobe-approved/plfpl-production/299909/d26bc394-a176-4681-bb5a-8ef3ad08dd5f.png",
        "entry": 299909,
        "entry_name": "AFK Donside",
        "event_total": 59,
        "has_played": true,
        "id": 2005783,
        "last_rank": 65475,
        "player_name": "Brian Geddes",
        "rank": 60996,
        "rank_sort": 61056,
        "total": 2345
      },
      {
        "club_badge_src": "https://fantasy.premierleague.com/gcs/plfpl-production-adobe-approved/plfpl-production/300528/528ee29f-e47a-4ec5-9dce-87799127f51d.png",
        "entry": 300528,
        "entry_name": "Zubi Snacks",
        "event_total": 64,
        "has_played": true,
        "id": 2010245,
        "last_rank": 67063,
        "player_name": "Nikul\u00e1s Gu\u00f0nason",
        "rank": 60996,
        "rank_sort": 61057,
        "total": 2345
      },
      {
        "club_badge_src": null,
        "entry": 307127,
        "entry_name": "Chicho FC",
        "event_total": 65,
        "has_played": true,
        "id": 2056892,
        "last_rank": 68957,
        "player_name": "italo rubini",
        "rank": 60996,
        "rank_sort": 61058,
        "total": 2345
      },
      {
        "club_badge_src": null,
        "entry": 317498,
        "entry_name": "Swede Dreams",
        "event_total": 61,
        "has_played": true,
        "id": 2128185,
        "last_rank": 68957,
        "player_name": "G\u00f6ran Eliasson",
        "rank": 60996,
        "rank_sort": 61059,
        "total": 2345
      },
      {
        "club_badge_src": null,
        "entry": 333481,
        "entry_name": "Mind the Gap",
        "event_total": 60,
        "has_played": true,
        "id": 2233366,
        "last_rank": 67063,
        "player_name": "Sola Masha",
        "rank": 60996,
        "rank_sort": 61060,
        "total": 2345
      },
      {
        "club_badge_src": "https://fantasy.premierleague.com/gcs/plfpl-production-adobe-approved/plfpl-production/335135/caed2dc6-a841-43f1-aa9b-7cbcab45b0e3.png",
        "entry": 335135,
        "entry_name": "\u0160e\u0161k'O ffender",
        "event_total": 65,
        "has_played": true,
        "id": 2244031,
        "last_rank": 77676,
        "player_name": "Aditya Sarwate",
        "rank": 60996,
        "rank_sort": 61061,
        "total": 2345
      },
      {
        "club_badge_src": null,
        "entry": 338657,
        "entry_name": "Sighmohn United",
        "event_total": 48,
        "has_played": true,
        "id": 2267211,
        "last_rank": 41324,
        "player_name": "Sighmohn Ellis",
        "rank": 60996,
        "rank_sort": 61062,
        "total": 2345
      },
      {
        "club_badge_src": null,
        "entry": 343034,
        "entry_name": "Skizoman",
        "event_total": 55,
        "has_played": true,
        "id": 2295915,
        "last_rank": 58388,
        "player_name": "Moha Otirit",
        "rank": 60996,
        "rank_sort": 61063,
        "total": 2345
      },
      {
        "club_badge_src": null,
        "entry": 343385,
        "entry_name": "Kudus Is Javanese",
        "event_total": 33,
        "has_played": true,
        "id": 2298201,
        "last_rank": 28906,
        "player_name": "Meli Ani",
        "rank": 60996,
        "rank_sort": 61064,
        "total": 2345
      },
      {
        "club_badge_src": null,
        "entry": 350572,
        "entry_name": "We Have A Dream",
        "event_total": 55,
        "has_played": true,
        "id": 2346674,
        "last_rank": 58388,
        "player_name": "Stewart Moreland",
        "rank": 60996,
        "rank_sort": 61065,
        "total": 2345
      },
      {
        "club_badge_src": null,
        "entry": 351427,
        "entry_name": "Consolation Goals",
        "event_total": 60,
        "has_played": true,
        "id": 2352348,
        "last_rank": 59813,
        "player_name": "Brian Meier",
        "rank": 60996,
        "rank_sort": 61066,
        "total": 2345
      },
      {
        "club_badge_src": null,
        "entry": 363443,
        "entry_name": "Mbeumo >>> Your team",
        "event_total": 57,
        "has_played": true,
        "id": 2432086,
        "last_rank": 61606,
        "player_name": "Navyan Siddiqui",
        "rank": 60996,
        "rank_sort": 61067,
        "total": 2345
      },
      {
        "club_badge_src": "https://fantasy.premierleague.com/gcs/plfpl-production-adobe-approved/plfpl-production/387141/30ed7094-3288-462f-b1bf-f11929f89ec6.png",
        "entry": 387141,
        "entry_name": "Kancha Hang FC",
        "event_total": 79,
        "has_played": true,
        "id": 2597095,
        "last_rank": 112169,
        "player_name": "Santosh Rai",
        "rank": 60996,
        "rank_sort": 61068,
        "total": 2345
      },
      {
        "club_badge_src": "https://fantasy.premierleague.com/gcs/plfpl-production-adobe-approved/plfpl-production/424375/ceb10129-a4bc-4efa-bc7c-85a10e4c1d6c.png",
        "entry": 424375,
        "entry_name": "Deadly Leadley XI",
        "event_total": 49,
        "has_played": true,
        "id": 2844195,
        "last_rank": 48642,
        "player_name": "Stuart Leadley",
        "rank": 60996,
        "rank_sort": 61069,
        "total": 2345
      },
      {
        "club_badge_src": "https://fantasy.premierleague.com/gcs/plfpl-production-adobe-approved/plfpl-production/442180/a412d0d9-581c-4955-8656-93aef02478ba.png",
        "entry": 442180,
        "entry_name": "SmashTheState",
        "event_total": 52,
        "has_played": true,
        "id": 2964809,
        "last_rank": 53345,
        "player_name": "justin phillips",
        "rank": 60996,
        "rank_sort": 61070,
        "total": 2345
      },
      {
        "club_badge_src": null,
        "entry": 499909,
        "entry_name": "\u0641\u0627\u0631\u0633 \u0627\u0644\u063a\u0631\u0628\u064a\u0629",
        "event_total": 48,
        "has_played": true,
        "id": 3355074,
        "last_rank": 47163,
        "player_name": "merza yousif",
        "rank": 60996,
        "rank_sort": 61071,
        "total": 2345
      },
      {
        "club_badge_src": null,
        "entry": 515570,
        "entry_name": "Lelouch",
        "event_total": 60,
        "has_played": true,
        "id": 3461524,
        "last_rank": 66848,
        "player_name": "Ravi Prinshu",
        "rank": 60996,
        "rank_sort": 61072,
        "total": 2345
      },
      {
        "club_badge_src": null,
        "entry": 530958,
        "entry_name": "Aidans 11",
        "event_total": 57,
        "has_played": true,
        "id": 3570902,
        "last_rank": 54667,
        "player_name": "Allan Mcinnes",
        "rank": 60996,
        "rank_sort": 61073,
        "total": 2345
      },
      {
        "club_badge_src": null,
        "entry": 543429,
        "entry_name": "Yoro Wissa Harry",
        "event_total": 72,
        "has_played": true,
        "id": 3657351,
        "last_rank": 93443,
        "player_name": "Conor McCluskey",
        "rank": 60996,
        "rank_sort": 61074,
        "total": 2345
      },
      {
        "club_badge_src": null,
        "entry": 547200,
        "entry_name": "All leeds aren't we",
        "event_total": 64,
        "has_played": true,
        "id": 3682721,
        "last_rank": 75139,
        "player_name": "carl platts",
        "rank": 60996,
        "rank_sort": 61075,
        "total": 2345
      },
      {
        "club_badge_src": "https://fantasy.premierleague.com/gcs/plfpl-production-adobe-approved/plfpl-production/564403/f5efc9fd-f28a-4e92-9bab-25813d9493b4.png",
        "entry": 564403,
        "entry_name": "La Primera",
        "event_total": 61,
        "has_played": true,
        "id": 3799017,
        "last_rank": 69323,
        "player_name": "Brayon Rodriguez",
        "rank": 60996,
        "rank_sort": 61076,
        "total": 2345
      },
      {
        "club_badge_src": "https://fantasy.premierleague.com/gcs/plfpl-production-adobe-approved/plfpl-production/566725/6dea5c9d-83ad-4a44-ab47-650b6b1282bf.png",
        "entry": 566725,
        "entry_name": "Pheasant Pluckers",
        "event_total": 60,
        "has_played": true,
        "id": 3814358,
        "last_rank": 59813,
        "player_name": "Marc B",
        "rank": 60996,
        "rank_sort": 61077,
        "total": 2345
      },
      {
        "club_badge_src": null,
        "entry": 568206,
        "entry_name": "FleetwoodMacAllister",
        "event_total": 60,
        "has_played": true,
        "id": 3824392,
        "last_rank": 59813,
        "player_name": "Jefferson Gunter",
        "rank": 60996,
        "rank_sort": 61078,
        "total": 2345
      },
      {
        "club_badge_src": null,
        "entry": 586726,
        "entry_name": "Bruno's Boiz",
        "event_total": 69,
        "has_played": true,
        "id": 3948924,
        "last_rank": 77258,
        "player_name": "George Lavender",
        "rank": 60996,
        "rank_sort": 61079,
        "total": 2345
      },
      {
        "club_badge_src": null,
        "entry": 586929,
        "entry_name": "Enter the Dragusin",
        "event_total": 43,
        "has_played": true,
        "id": 3950421,
        "last_rank": 40297,
        "player_name": "James Beard",
        "rank": 60996,
        "rank_sort": 61080,
        "total": 2345
      },
      {
        "club_badge_src": null,
        "entry": 593559,
        "entry_name": "Calvin Clyne",
        "event_total": 57,
        "has_played": true,
        "id": 4000133,
        "last_rank": 61950,
        "player_name": "Sameer Ahmad",
        "rank": 60996,
        "rank_sort": 61081,
        "total": 2345
      },
      {
        "club_badge_src": null,
        "entry": 605764,
        "entry_name": "Spiderpigs",
        "event_total": 53,
        "has_played": true,
        "id": 4090136,
        "last_rank": 54667,
        "player_name": "Per Lindstrom",
        "rank": 60996,
        "rank_sort": 61082,
        "total": 2345
      },
      {
        "club_badge_src": null,
        "entry": 618740,
        "entry_name": "verbuggin",
        "event_total": 69,
        "has_played": true,
        "id": 4180804,
        "last_rank": 86735,
        "player_name": "Jack Clipston",
        "rank": 60996,
        "rank_sort": 61083,
        "total": 2345
      },
      {
        "club_badge_src": null,
        "entry": 641221,
        "entry_name": "Stairway to Brennan",
        "event_total": 73,
        "has_played": true,
        "id": 4333660,
        "last_rank": 85932,
        "player_name": "George Glasscock",
        "rank": 60996,
        "rank_sort": 61084,
        "total": 2345
      },
      {
        "club_badge_src": null,
        "entry": 665073,
        "entry_name": "BayerNeverLosin'",
        "event_total": 66,
        "has_played": true,
        "id": 4496392,
        "last_rank": 79817,
        "player_name": "Kamran Zafar",
        "rank": 60996,
        "rank_sort": 61085,
        "total": 2345
      },
      {
        "club_badge_src": null,
        "entry": 668796,
        "entry_name": "Tokyo Tangerines",
        "event_total": 41,
        "has_played": true,
        "id": 4522805,
        "last_rank": 37822,
        "player_name": "Christopher Reilly",
        "rank": 60996,
        "rank_sort": 61086,
        "total": 2345
      },
      {
        "club_badge_src": "https://fantasy.premierleague.com/gcs/plfpl-production-adobe-approved/plfpl-production/676930/68db4a51-1d99-4c94-b495-eb40c3c55121.png",
        "entry": 676930,
        "entry_name": "Deutscher Kumpel",
        "event_total": 49,
        "has_played": true,
        "id": 4580048,
        "last_rank": 48642,
        "player_name": "Jan Teichelman",
        "rank": 60996,
        "rank_sort": 61087,
        "total": 2345
      },
      {
        "club_badge_src": null,
        "entry": 680100,
        "entry_name": "JeffreyJeff FC",
        "event_total": 47,
        "has_played": true,
        "id": 4602269,
        "last_rank": 45714,
        "player_name": "Jeffrey Obiri",
        "rank": 60996,
        "rank_sort": 61088,
        "total": 2345
      },
      {
        "club_badge_src": null,
        "entry": 702521,
        "entry_name": "flames",
        "event_total": 54,
        "has_played": true,
        "id": 4760228,
        "last_rank": 56708,
        "player_name": "Simon Nicholson",
        "rank": 60996,
        "rank_sort": 61089,
        "total": 2345
      },
      {
        "club_badge_src": null,
        "entry": 710870,
        "entry_name": "B_P_layers Players",
        "event_total": 34,
        "has_played": true,
        "id": 4821195,
        "last_rank": 29904,
        "player_name": "Ben Player",
        "rank": 60996,
        "rank_sort": 61090,
        "total": 2345
      },
      {
        "club_badge_src": null,
        "entry": 726826,
        "entry_name": "Matethar Baertford",
        "event_total": 72,
        "has_played": true,
        "id": 4937580,
        "last_rank": 93443,
        "player_name": "Lothar Baert",
        "rank": 60996,
        "rank_sort": 61091,
        "total": 2345
      },
      {
        "club_badge_src": null,
        "entry": 731986,
        "entry_name": "Sal",
        "event_total": 75,
        "has_played": true,
        "id": 4974087,
        "last_rank": 90625,
        "player_name": "Sal Stevens-Holmyard",
        "rank": 60996,
        "rank_sort": 61092,
        "total": 2345
      },
      {
        "club_badge_src": "https://fantasy.premierleague.com/gcs/plfpl-production-adobe-approved/plfpl-production/737553/4e060c3e-9214-4de5-9664-fe25770ea7b2.png",
        "entry": 737553,
        "entry_name": "Polandball",
        "event_total": 62,
        "has_played": true,
        "id": 5014177,
        "last_rank": 71386,
        "player_name": "Stefan B",
        "rank": 60996,
        "rank_sort": 61093,
        "total": 2345
      },
      {
        "club_badge_src": null,
        "entry": 739042,
        "entry_name": "FC Korvm\u00e4starna",
        "event_total": 64,
        "has_played": true,
        "id": 5024753,
        "last_rank": 67063,
        "player_name": "Markus Wiklund",
        "rank": 60996,
        "rank_sort": 61094,
        "total": 2345
      },
      {
        "club_badge_src": null,
        "entry": 740807,
        "entry_name": "Goonology",
        "event_total": 56,
        "has_played": true,
        "id": 5037471,
        "last_rank": 60168,
        "player_name": "Nikita Nikitov",
        "rank": 60996,
        "rank_sort": 61095,
        "total": 2345
      },
      {
        "club_badge_src": "https://fantasy.premierleague.com/gcs/plfpl-production-adobe-approved/plfpl-production/773984/95be1e85-dbb2-4bd8-b833-e4d0ddfdddb9.png",
        "entry": 773984,
        "entry_name": "TBWIN FC",
        "event_total": 65,
        "has_played": true,
        "id": 5280748,
        "last_rank": 77258,
        "player_name": "Tom Baldwin",
        "rank": 60996,
        "rank_sort": 61096,
        "total": 2345
      },
      {
        "club_badge_src": null,
        "entry": 776565,
        "entry_name": "oGees",
        "event_total": 62,
        "has_played": true,
        "id": 5298691,
        "last_rank": 71386,
        "player_name": "Yaw Korankye-Adjei",
        "rank": 60996,
        "rank_sort": 61097,
        "total": 2345
      },
      {
        "club_badge_src": null,
        "entry": 793115,
        "entry_name": "The Shy Teds",
        "event_total": 65,
        "has_played": true,
        "id": 5427649,
        "last_rank": 77676,
        "player_name": "John Ellis",
        "rank": 60996,
        "rank_sort": 61098,
        "total": 2345
      },
      {
        "club_badge_src": null,
        "entry": 809771,
        "entry_name": "Werner Takes It All",
        "event_total": 53,
        "has_played": true,
        "id": 5544148,
        "last_rank": 55014,
        "player_name": "catherine jones",
        "rank": 60996,
        "rank_sort": 61099,
        "total": 2345
      },
      {
        "club_badge_src": null,
        "entry": 872625,
        "entry_name": "pole calmer",
        "event_total": 62,
        "has_played": true,
        "id": 5982568,
        "last_rank": 70985,
        "player_name": "Senbo Li",
        "rank": 60996,
        "rank_sort": 61100,
        "total": 2345
      }
    ]
  }
}