{
  "last_updated_data": "2026-05-24T23:28:17Z",
  "league": {
    "admin_entry": null,
    "closed": false,
    "code_privacy": "p",
    "created": "2025-07-20T23:14:33.933835Z",
    "cup_league": 2815434,
    "has_cup": true,
    "id": 314,
    "league_type": "s",
    "max_entries": null,
    "name": "Overall",
    "rank": null,
    "scoring": "c",
    "start_event": 1
  },
  "new_entries": {
    "has_next": false,
    "page": 1,
    "results": []
  },
  "standings": {
    "has_next": true,
    "page": 1623,
    "results": [
      {
        "club_badge_src": null,
        "entry": 6242497,
        "entry_name": "Super Stags",
        "event_total": 68,
        "has_played": true,
        "id": 49410405,
        "last_rank": 99296,
        "player_name": "Dave Bestwick",
        "rank": 80913,
        "rank_sort": 81101,
        "total": 2335
      },
      {
        "club_badge_src": null,
        "entry": 6304466,
        "entry_name": "The Konat\u00e9 Kid",
        "event_total": 56,
        "has_played": true,
        "id": 49994167,
        "last_rank": 80465,
        "player_name": "Steph Whitmore",
        "rank": 80913,
        "rank_sort": 81102,
        "total": 2335
      },
      {
        "club_badge_src": null,
        "entry": 6323215,
        "entry_name": "Ode to the Mets",
        "event_total": 63,
        "has_played": true,
        "id": 50222421,
        "last_rank": 97096,
        "player_name": "Nayeem Quraishi",
        "rank": 80913,
        "rank_sort": 81103,
        "total": 2335
      },
      {
        "club_badge_src": null,
        "entry": 6503546,
        "entry_name": "Humble Until Haalang",
        "event_total": 73,
        "has_played": true,
        "id": 51853485,
        "last_rank": 124682,
        "player_name": "Kathlyn Xu",
        "rank": 80913,
        "rank_sort": 81104,
        "total": 2335
      },
      {
        "club_badge_src": null,
        "entry": 6553791,
        "entry_name": "The UnBalebables",
        "event_total": 49,
        "has_played": true,
        "id": 52300887,
        "last_rank": 66057,
        "player_name": "Tommy Conroy",
        "rank": 80913,
        "rank_sort": 81105,
        "total": 2335
      },
      {
        "club_badge_src": null,
        "entry": 6799476,
        "entry_name": "Saving Private Bryan",
        "event_total": 57,
        "has_played": true,
        "id": 54451925,
        "last_rank": 82664,
        "player_name": "Cawley Cox",
        "rank": 80913,
        "rank_sort": 81106,
        "total": 2335
      },
      {
        "club_badge_src": null,
        "entry": 6941934,
        "entry_name": "BUCARAMS",
        "event_total": 60,
        "has_played": true,
        "id": 55657625,
        "last_rank": 89426,
        "player_name": "Santiago Adolfo Bucaram",
        "rank": 80913,
        "rank_sort": 81107,
        "total": 2335
      },
      {
        "club_badge_src": null,
        "entry": 7047994,
        "entry_name": "ForeverBowenBubbles",
        "event_total": 55,
        "has_played": true,
        "id": 56678036,
        "last_rank": 69323,
        "player_name": "Matthew Firmin",
        "rank": 80913,
        "rank_sort": 81108,
        "total": 2335
      },
      {
        "club_badge_src": null,
        "entry": 7109951,
        "entry_name": "TS5",
        "event_total": 59,
        "has_played": true,
        "id": 57271690,
        "last_rank": 87350,
        "player_name": "Beluchi Chigbo-Okeke",
        "rank": 80913,
        "rank_sort": 81109,
        "total": 2335
      },
      {
        "club_badge_src": null,
        "entry": 7243392,
        "entry_name": "2 FPL Wins In Dalot",
        "event_total": 67,
        "has_played": true,
        "id": 58539797,
        "last_rank": 106763,
        "player_name": "Justin Tong",
        "rank": 80913,
        "rank_sort": 81110,
        "total": 2335
      },
      {
        "club_badge_src": null,
        "entry": 7336472,
        "entry_name": "#\ufffd_h_M",
        "event_total": 36,
        "has_played": true,
        "id": 59418650,
        "last_rank": 44804,
        "player_name": "Mohammed Algaily",
        "rank": 80913,
        "rank_sort": 81111,
        "total": 2335
      },
      {
        "club_badge_src": null,
        "entry": 7415509,
        "entry_name": "Chansiring it",
        "event_total": 69,
        "has_played": true,
        "id": 60189799,
        "last_rank": 112591,
        "player_name": "jamie allen",
        "rank": 80913,
        "rank_sort": 81112,
        "total": 2335
      },
      {
        "club_badge_src": null,
        "entry": 7474502,
        "entry_name": "is yours gold?",
        "event_total": 53,
        "has_played": true,
        "id": 60952827,
        "last_rank": 73975,
        "player_name": "Rashed Al Naimi",
        "rank": 80913,
        "rank_sort": 81113,
        "total": 2335
      },
      {
        "club_badge_src": null,
        "entry": 7522605,
        "entry_name": "hadji khr",
        "event_total": 58,
        "has_played": true,
        "id": 61552824,
        "last_rank": 85207,
        "player_name": "Hadji Khr",
        "rank": 80913,
        "rank_sort": 81114,
        "total": 2335
      },
      {
        "club_badge_src": null,
        "entry": 7539096,
        "entry_name": "Laty\u00f3Braty\u00f3k",
        "event_total": 55,
        "has_played": true,
        "id": 61711779,
        "last_rank": 77676,
        "player_name": "Patrik Harlacher",
        "rank": 80913,
        "rank_sort": 81115,
        "total": 2335
      },
      {
        "club_badge_src": "https://fantasy.premierleague.com/gcs/plfpl-production-adobe-approved/plfpl-production/7592526/5eb0614a-e526-43c2-962d-fea56a6fc9f4.png",
        "entry": 7592526,
        "entry_name": "HEHEHEHE",
        "event_total": 66,
        "has_played": true,
        "id": 62197547,
        "last_rank": 94255,
        "player_name": "Ademu Akhigbe",
        "rank": 80913,
        "rank_sort": 81116,
        "total": 2335
      },
      {
        "club_badge_src": null,
        "entry": 8041667,
        "entry_name": "Barmy Bantams",
        "event_total": 68,
        "has_played": true,
        "id": 66261785,
        "last_rank": 99296,
        "player_name": "Jonathan Conner",
        "rank": 80913,
        "rank_sort": 81117,
        "total": 2335
      },
      {
        "club_badge_src": null,
        "entry": 8064492,
        "entry_name": "Change Name",
        "event_total": 65,
        "has_played": true,
        "id": 66470498,
        "last_rank": 101818,
        "player_name": "Veli Christo",
        "rank": 80913,
        "rank_sort": 81118,
        "total": 2335
      },
      {
        "club_badge_src": "https://fantasy.premierleague.com/gcs/plfpl-production-adobe-approved/plfpl-production/8371318/5da0e98b-cdde-45cf-997d-8abe8427d937.png",
        "entry": 8371318,
        "entry_name": "Manacor Originals",
        "event_total": 61,
        "has_played": true,
        "id": 69407288,
        "last_rank": 92126,
        "player_name": "Ian Harper",
        "rank": 80913,
        "rank_sort": 81119,
        "total": 2335
      },
      {
        "club_badge_src": "https://fantasy.premierleague.com/gcs/plfpl-production-adobe-approved/plfpl-production/8387139/b637dfd3-9406-4909-93f8-70ac90d0dbd5.png",
        "entry": 8387139,
        "entry_name": "Capitano Jey",
        "event_total": 64,
        "has_played": true,
        "id": 69559262,
        "last_rank": 89426,
        "player_name": "Jawhar Abdisalam",
        "rank": 80913,
        "rank_sort": 81120,
        "total": 2335
      },
      {
        "club_badge_src": null,
        "entry": 8393301,
        "entry_name": "I'm a Baleba",
        "event_total": 71,
        "has_played": true,
        "id": 69616624,
        "last_rank": 106259,
        "player_name": "Haziq Khairyll",
        "rank": 80913,
        "rank_sort": 81121,
        "total": 2335
      },
      {
        "club_badge_src": "https://fantasy.premierleague.com/gcs/plfpl-production-adobe-approved/plfpl-production/8500066/55c438fb-f4e6-4bb3-abab-69ae326d080a.png",
        "entry": 8500066,
        "entry_name": "Yelnats to Riches",
        "event_total": 73,
        "has_played": true,
        "id": 70638303,
        "last_rank": 124336,
        "player_name": "Hubert Ignas",
        "rank": 80913,
        "rank_sort": 81122,
        "total": 2335
      },
      {
        "club_badge_src": null,
        "entry": 8515049,
        "entry_name": "MGFC",
        "event_total": 50,
        "has_played": true,
        "id": 70783392,
        "last_rank": 67926,
        "player_name": "Mike George",
        "rank": 80913,
        "rank_sort": 81123,
        "total": 2335
      },
      {
        "club_badge_src": null,
        "entry": 8530869,
        "entry_name": "KFC 2.0",
        "event_total": 61,
        "has_played": true,
        "id": 70935409,
        "last_rank": 82069,
        "player_name": "P K",
        "rank": 80913,
        "rank_sort": 81124,
        "total": 2335
      },
      {
        "club_badge_src": null,
        "entry": 8683177,
        "entry_name": "552",
        "event_total": 69,
        "has_played": true,
        "id": 72415908,
        "last_rank": 112591,
        "player_name": "Mohamed Rizwaan",
        "rank": 80913,
        "rank_sort": 81125,
        "total": 2335
      },
      {
        "club_badge_src": null,
        "entry": 9127000,
        "entry_name": "Pitch Black FC",
        "event_total": 70,
        "has_played": true,
        "id": 76717181,
        "last_rank": 115421,
        "player_name": "Gary Tan",
        "rank": 80913,
        "rank_sort": 81126,
        "total": 2335
      },
      {
        "club_badge_src": null,
        "entry": 9385102,
        "entry_name": "RAK AllStars",
        "event_total": 57,
        "has_played": true,
        "id": 79230491,
        "last_rank": 82664,
        "player_name": "John Ewart",
        "rank": 80913,
        "rank_sort": 81127,
        "total": 2335
      },
      {
        "club_badge_src": null,
        "entry": 1932,
        "entry_name": "Kinder Mbuemo",
        "event_total": 66,
        "has_played": true,
        "id": 10773,
        "last_rank": 104941,
        "player_name": "Steven Quercia-Smale",
        "rank": 81128,
        "rank_sort": 81128,
        "total": 2335
      },
      {
        "club_badge_src": null,
        "entry": 4800,
        "entry_name": "Buyako Saka",
        "event_total": 42,
        "has_played": true,
        "id": 27324,
        "last_rank": 47596,
        "player_name": "Ryan Choong",
        "rank": 81128,
        "rank_sort": 81129,
        "total": 2335
      },
      {
        "club_badge_src": "https://fantasy.premierleague.com/gcs/plfpl-production-adobe-approved/plfpl-production/7589/9ccb801f-ce29-4970-8aab-0df73349d103.png",
        "entry": 7589,
        "entry_name": "Spnut13",
        "event_total": 67,
        "has_played": true,
        "id": 43756,
        "last_rank": 96777,
        "player_name": "Supanut Sujitamornpan",
        "rank": 81128,
        "rank_sort": 81130,
        "total": 2335
      },
      {
        "club_badge_src": null,
        "entry": 8301,
        "entry_name": "Gyok In My Lap",
        "event_total": 68,
        "has_played": true,
        "id": 48170,
        "last_rank": 99596,
        "player_name": "Shrii Parab",
        "rank": 81128,
        "rank_sort": 81131,
        "total": 2335
      },
      {
        "club_badge_src": "https://fantasy.premierleague.com/gcs/plfpl-production-adobe-approved/plfpl-production/11587/16818780-a6ca-40c4-b0f7-b9399cab1859.png",
        "entry": 11587,
        "entry_name": "I wear Liverpool PJs",
        "event_total": 63,
        "has_played": true,
        "id": 68951,
        "last_rank": 77999,
        "player_name": "Lewis Caddick",
        "rank": 81128,
        "rank_sort": 81132,
        "total": 2335
      },
      {
        "club_badge_src": null,
        "entry": 16615,
        "entry_name": "C.R.E.A.M",
        "event_total": 56,
        "has_played": true,
        "id": 102734,
        "last_rank": 71956,
        "player_name": "Franklin Ratemo",
        "rank": 81128,
        "rank_sort": 81133,
        "total": 2335
      },
      {
        "club_badge_src": null,
        "entry": 18966,
        "entry_name": "Gav's Gunners",
        "event_total": 66,
        "has_played": true,
        "id": 118048,
        "last_rank": 104941,
        "player_name": "Gav Riley",
        "rank": 81128,
        "rank_sort": 81134,
        "total": 2335
      },
      {
        "club_badge_src": null,
        "entry": 36905,
        "entry_name": "Powerpuffpinglorna",
        "event_total": 68,
        "has_played": true,
        "id": 236302,
        "last_rank": 99596,
        "player_name": "Hampus Savolainen",
        "rank": 81128,
        "rank_sort": 81135,
        "total": 2335
      },
      {
        "club_badge_src": null,
        "entry": 42776,
        "entry_name": "Gooners Ghost",
        "event_total": 49,
        "has_played": true,
        "id": 274013,
        "last_rank": 65796,
        "player_name": "Robert Schad",
        "rank": 81128,
        "rank_sort": 81136,
        "total": 2335
      },
      {
        "club_badge_src": null,
        "entry": 50711,
        "entry_name": "Have It (a)",
        "event_total": 56,
        "has_played": true,
        "id": 326177,
        "last_rank": 80465,
        "player_name": "Dan Hambury",
        "rank": 81128,
        "rank_sort": 81137,
        "total": 2335
      },
      {
        "club_badge_src": null,
        "entry": 51194,
        "entry_name": "Hendawy\u270c\ufe0f",
        "event_total": 68,
        "has_played": true,
        "id": 329241,
        "last_rank": 99596,
        "player_name": "Abdallah Hendawy",
        "rank": 81128,
        "rank_sort": 81138,
        "total": 2335
      },
      {
        "club_badge_src": null,
        "entry": 54646,
        "entry_name": "clerk fruits **",
        "event_total": 49,
        "has_played": true,
        "id": 351713,
        "last_rank": 58911,
        "player_name": "joe Clarke",
        "rank": 81128,
        "rank_sort": 81139,
        "total": 2335
      },
      {
        "club_badge_src": "https://fantasy.premierleague.com/gcs/plfpl-production-adobe-approved/plfpl-production/55305/0c377143-af22-4714-91f5-5a5ed1c9a9d3.png",
        "entry": 55305,
        "entry_name": "Rumba med G\u00fcndogan",
        "event_total": 50,
        "has_played": true,
        "id": 355967,
        "last_rank": 68107,
        "player_name": "Thomas Berntsen",
        "rank": 81128,
        "rank_sort": 81140,
        "total": 2335
      },
      {
        "club_badge_src": null,
        "entry": 57310,
        "entry_name": "Sch\u00e4rPoint",
        "event_total": 55,
        "has_played": true,
        "id": 369183,
        "last_rank": 78244,
        "player_name": "Frode \u00d8yerhamn",
        "rank": 81128,
        "rank_sort": 81141,
        "total": 2335
      },
      {
        "club_badge_src": null,
        "entry": 67740,
        "entry_name": "Inners FC",
        "event_total": 67,
        "has_played": true,
        "id": 438652,
        "last_rank": 97096,
        "player_name": "Harry Inman",
        "rank": 81128,
        "rank_sort": 81142,
        "total": 2335
      },
      {
        "club_badge_src": null,
        "entry": 70750,
        "entry_name": "Ghettolenny FC",
        "event_total": 74,
        "has_played": true,
        "id": 459444,
        "last_rank": 115421,
        "player_name": "Benjamin Kayankarn",
        "rank": 81128,
        "rank_sort": 81143,
        "total": 2335
      },
      {
        "club_badge_src": null,
        "entry": 86100,
        "entry_name": "ThomastheFrankEngine",
        "event_total": 59,
        "has_played": true,
        "id": 560997,
        "last_rank": 69641,
        "player_name": "Mark Ridgway",
        "rank": 81128,
        "rank_sort": 81144,
        "total": 2335
      },
      {
        "club_badge_src": null,
        "entry": 89683,
        "entry_name": "Ekitike Taka",
        "event_total": 56,
        "has_played": true,
        "id": 585429,
        "last_rank": 71956,
        "player_name": "Danny Revell",
        "rank": 81128,
        "rank_sort": 81145,
        "total": 2335
      },
      {
        "club_badge_src": "https://fantasy.premierleague.com/gcs/plfpl-production-adobe-approved/plfpl-production/100436/b35764c5-dc18-451b-b017-be00370b7841.png",
        "entry": 100436,
        "entry_name": "Xmas9",
        "event_total": 55,
        "has_played": true,
        "id": 655442,
        "last_rank": 78440,
        "player_name": "Hieu Le",
        "rank": 81128,
        "rank_sort": 81146,
        "total": 2335
      },
      {
        "club_badge_src": "https://fantasy.premierleague.com/gcs/plfpl-production-adobe-approved/plfpl-production/123529/1a23039e-7229-479f-b9c9-eeba4d01a950.png",
        "entry": 123529,
        "entry_name": "LOS BLANCOS C.F",
        "event_total": 58,
        "has_played": true,
        "id": 805731,
        "last_rank": 75874,
        "player_name": "Adrian Rupar",
        "rank": 81128,
        "rank_sort": 81147,
        "total": 2335
      },
      {
        "club_badge_src": null,
        "entry": 130547,
        "entry_name": "Welsh Wonders",
        "event_total": 63,
        "has_played": true,
        "id": 850662,
        "last_rank": 87350,
        "player_name": "James Hughes",
        "rank": 81128,
        "rank_sort": 81148,
        "total": 2335
      },
      {
        "club_badge_src": null,
        "entry": 161158,
        "entry_name": "Stroke My Chris Wood",
        "event_total": 71,
        "has_played": true,
        "id": 1061577,
        "last_rank": 86735,
        "player_name": "Oliver Leen",
        "rank": 81128,
        "rank_sort": 81149,
        "total": 2335
      },
      {
        "club_badge_src": "https://fantasy.premierleague.com/gcs/plfpl-production-adobe-approved/plfpl-production/174073/48f1ea01-271f-494e-95e8-2063bb6f2c41.png",
        "entry": 174073,
        "entry_name": "Akatsuki XI",
        "event_total": 52,
        "has_played": true,
        "id": 1149524,
        "last_rank": 72145,
        "player_name": "Malcolm X",
        "rank": 81128,
        "rank_sort": 81150,
        "total": 2335
      }
    ]
  }
}