{
  "last_updated_data": "2026-05-24T23:28:17Z",
  "league": {
    "admin_entry": null,
    "closed": false,
    "code_privacy": "p",
    "created": "2025-07-20T23:14:33.933835Z",
    "cup_league": 2815434,
    "has_cup": true,
    "id": 314,
    "league_type": "s",
    "max_entries": null,
    "name": "Overall",
    "rank": null,
    "scoring": "c",
    "start_event": 1
  },
  "new_entries": {
    "has_next": false,
    "page": 1,
    "results": []
  },
  "standings": {
    "has_next": true,
    "page": 1013,
    "results": [
      {
        "club_badge_src": null,
        "entry": 112557,
        "entry_name": "Gyo boom",
        "event_total": 65,
        "has_played": true,
        "id": 733922,
        "last_rank": 64508,
        "player_name": "Patrik Cizek",
        "rank": 50596,
        "rank_sort": 50601,
        "total": 2352
      },
      {
        "club_badge_src": null,
        "entry": 125325,
        "entry_name": "Sayed Ezzat",
        "event_total": 74,
        "has_played": true,
        "id": 817342,
        "last_rank": 66200,
        "player_name": "Sayed Ezzat",
        "rank": 50596,
        "rank_sort": 50602,
        "total": 2352
      },
      {
        "club_badge_src": null,
        "entry": 131437,
        "entry_name": "Fergie Time",
        "event_total": 52,
        "has_played": true,
        "id": 856297,
        "last_rank": 43512,
        "player_name": "Ethan Hoile",
        "rank": 50596,
        "rank_sort": 50603,
        "total": 2352
      },
      {
        "club_badge_src": "https://fantasy.premierleague.com/gcs/plfpl-production-adobe-approved/plfpl-production/149257/6821b992-b48f-4cc8-897a-1ee81fef31de.png",
        "entry": 149257,
        "entry_name": "Gunners",
        "event_total": 63,
        "has_played": true,
        "id": 978574,
        "last_rank": 54065,
        "player_name": "Aland Yaseen",
        "rank": 50596,
        "rank_sort": 50604,
        "total": 2352
      },
      {
        "club_badge_src": null,
        "entry": 208499,
        "entry_name": "HighwayA19 Revisited",
        "event_total": 66,
        "has_played": true,
        "id": 1386251,
        "last_rank": 66380,
        "player_name": "Darren Mulloy",
        "rank": 50596,
        "rank_sort": 50605,
        "total": 2352
      },
      {
        "club_badge_src": null,
        "entry": 226086,
        "entry_name": "Azab",
        "event_total": 67,
        "has_played": true,
        "id": 1504010,
        "last_rank": 47596,
        "player_name": "abdo azab",
        "rank": 50596,
        "rank_sort": 50606,
        "total": 2352
      },
      {
        "club_badge_src": null,
        "entry": 233209,
        "entry_name": "MARSILIA",
        "event_total": 53,
        "has_played": true,
        "id": 1551644,
        "last_rank": 44982,
        "player_name": "ILyes Nouioua",
        "rank": 50596,
        "rank_sort": 50607,
        "total": 2352
      },
      {
        "club_badge_src": "https://fantasy.premierleague.com/gcs/plfpl-production-adobe-approved/plfpl-production/283913/2e3cb9c3-fd35-42b8-97e3-ccc43eeaffdd.png",
        "entry": 283913,
        "entry_name": "Cywa",
        "event_total": 56,
        "has_played": true,
        "id": 1890284,
        "last_rank": 49301,
        "player_name": "Michal Cywka",
        "rank": 50596,
        "rank_sort": 50608,
        "total": 2352
      },
      {
        "club_badge_src": "https://fantasy.premierleague.com/gcs/plfpl-production-adobe-approved/plfpl-production/291161/dc6ea6c5-c54f-4f27-8769-9e6e580f6c57.png",
        "entry": 291161,
        "entry_name": "#YNWA",
        "event_total": 61,
        "has_played": true,
        "id": 1941934,
        "last_rank": 57451,
        "player_name": "Fattah Shalabi",
        "rank": 50596,
        "rank_sort": 50609,
        "total": 2352
      },
      {
        "club_badge_src": null,
        "entry": 464583,
        "entry_name": "Wirtz Nightmare",
        "event_total": 60,
        "has_played": true,
        "id": 3116271,
        "last_rank": 55812,
        "player_name": "Max Rees",
        "rank": 50596,
        "rank_sort": 50610,
        "total": 2352
      },
      {
        "club_badge_src": null,
        "entry": 468118,
        "entry_name": "Lucastle United",
        "event_total": 52,
        "has_played": true,
        "id": 3141502,
        "last_rank": 33582,
        "player_name": "Lucas Bernhardsson",
        "rank": 50596,
        "rank_sort": 50611,
        "total": 2352
      },
      {
        "club_badge_src": "https://fantasy.premierleague.com/gcs/plfpl-production-adobe-approved/plfpl-production/501024/fc6c65fd-c539-4705-a112-e5666ae4435d.png",
        "entry": 501024,
        "entry_name": "Saka Potatoes",
        "event_total": 59,
        "has_played": true,
        "id": 3362394,
        "last_rank": 47812,
        "player_name": "Craig Gilder",
        "rank": 50596,
        "rank_sort": 50612,
        "total": 2352
      },
      {
        "club_badge_src": "https://fantasy.premierleague.com/gcs/plfpl-production-adobe-approved/plfpl-production/540993/b82bae9d-cde8-45e8-89d7-50e89f8260d4.png",
        "entry": 540993,
        "entry_name": "Wake up",
        "event_total": 50,
        "has_played": true,
        "id": 3641235,
        "last_rank": 40878,
        "player_name": "daoud lotfi daoud lotfi",
        "rank": 50596,
        "rank_sort": 50613,
        "total": 2352
      },
      {
        "club_badge_src": "https://fantasy.premierleague.com/gcs/plfpl-production-adobe-approved/plfpl-production/624901/677a951f-8a92-4ef5-aba3-cd7939f55b4c.png",
        "entry": 624901,
        "entry_name": "Marmalade Madness",
        "event_total": 59,
        "has_played": true,
        "id": 4222871,
        "last_rank": 53952,
        "player_name": "Jonathan Worsley",
        "rank": 50596,
        "rank_sort": 50614,
        "total": 2352
      },
      {
        "club_badge_src": null,
        "entry": 689185,
        "entry_name": "RIP JOTA",
        "event_total": 52,
        "has_played": true,
        "id": 4666249,
        "last_rank": 33582,
        "player_name": "Jo\u00e3o Wick",
        "rank": 50596,
        "rank_sort": 50615,
        "total": 2352
      },
      {
        "club_badge_src": null,
        "entry": 745379,
        "entry_name": "Hoof hearted",
        "event_total": 47,
        "has_played": true,
        "id": 5070563,
        "last_rank": 37134,
        "player_name": "Tore Dahlin",
        "rank": 50596,
        "rank_sort": 50616,
        "total": 2352
      },
      {
        "club_badge_src": null,
        "entry": 798123,
        "entry_name": "Alsager Valiants",
        "event_total": 50,
        "has_played": true,
        "id": 5462804,
        "last_rank": 40878,
        "player_name": "Luke Smith",
        "rank": 50596,
        "rank_sort": 50617,
        "total": 2352
      },
      {
        "club_badge_src": null,
        "entry": 816212,
        "entry_name": "Lexeleven",
        "event_total": 72,
        "has_played": true,
        "id": 5589386,
        "last_rank": 70183,
        "player_name": "Alexa George",
        "rank": 50596,
        "rank_sort": 50618,
        "total": 2352
      },
      {
        "club_badge_src": null,
        "entry": 869677,
        "entry_name": "UgarteBeJoking",
        "event_total": 62,
        "has_played": true,
        "id": 5962307,
        "last_rank": 52461,
        "player_name": "Ashkan Bayat",
        "rank": 50596,
        "rank_sort": 50619,
        "total": 2352
      },
      {
        "club_badge_src": null,
        "entry": 993144,
        "entry_name": "Ingvaldos",
        "event_total": 68,
        "has_played": true,
        "id": 6850164,
        "last_rank": 70276,
        "player_name": "Irwin Ingvaldsen",
        "rank": 50596,
        "rank_sort": 50620,
        "total": 2352
      },
      {
        "club_badge_src": null,
        "entry": 1247083,
        "entry_name": "\ufffdBoMbA",
        "event_total": 64,
        "has_played": true,
        "id": 8661134,
        "last_rank": 62812,
        "player_name": "Mo atef",
        "rank": 50596,
        "rank_sort": 50621,
        "total": 2352
      },
      {
        "club_badge_src": null,
        "entry": 1289162,
        "entry_name": "Palmer Enthusiast.",
        "event_total": 55,
        "has_played": true,
        "id": 8958155,
        "last_rank": 47868,
        "player_name": "Robel Yacob",
        "rank": 50596,
        "rank_sort": 50622,
        "total": 2352
      },
      {
        "club_badge_src": null,
        "entry": 1310865,
        "entry_name": "Erky utd",
        "event_total": 63,
        "has_played": true,
        "id": 9111602,
        "last_rank": 54065,
        "player_name": "Erik Karlsson",
        "rank": 50596,
        "rank_sort": 50623,
        "total": 2352
      },
      {
        "club_badge_src": null,
        "entry": 1324523,
        "entry_name": "The Outlaw",
        "event_total": 66,
        "has_played": true,
        "id": 9206637,
        "last_rank": 66296,
        "player_name": "Abdulrahman Alhassan",
        "rank": 50596,
        "rank_sort": 50624,
        "total": 2352
      },
      {
        "club_badge_src": null,
        "entry": 1637895,
        "entry_name": "BN FC",
        "event_total": 53,
        "has_played": true,
        "id": 11464665,
        "last_rank": 39585,
        "player_name": "Nigel kirkham",
        "rank": 50596,
        "rank_sort": 50625,
        "total": 2352
      },
      {
        "club_badge_src": null,
        "entry": 1687691,
        "entry_name": "Totti",
        "event_total": 76,
        "has_played": true,
        "id": 11814253,
        "last_rank": 70072,
        "player_name": "akram basha",
        "rank": 50596,
        "rank_sort": 50626,
        "total": 2352
      },
      {
        "club_badge_src": null,
        "entry": 2049440,
        "entry_name": "Elemaraty\u26a0\ufe0f",
        "event_total": 45,
        "has_played": true,
        "id": 14515686,
        "last_rank": 34796,
        "player_name": "Elemratye --",
        "rank": 50596,
        "rank_sort": 50627,
        "total": 2352
      },
      {
        "club_badge_src": null,
        "entry": 2127329,
        "entry_name": "bruno, dos, tres",
        "event_total": 93,
        "has_played": true,
        "id": 15115579,
        "last_rank": 134720,
        "player_name": "Henrik Moen",
        "rank": 50596,
        "rank_sort": 50628,
        "total": 2352
      },
      {
        "club_badge_src": null,
        "entry": 2147245,
        "entry_name": "Ba\u00aecA Za\u00a5eD",
        "event_total": 55,
        "has_played": true,
        "id": 15262169,
        "last_rank": 42152,
        "player_name": "Zayed Al-aiwi",
        "rank": 50596,
        "rank_sort": 50629,
        "total": 2352
      },
      {
        "club_badge_src": null,
        "entry": 2248964,
        "entry_name": "#REF! Do Something",
        "event_total": 65,
        "has_played": true,
        "id": 16025298,
        "last_rank": 57358,
        "player_name": "Martin Krastev",
        "rank": 50596,
        "rank_sort": 50630,
        "total": 2352
      },
      {
        "club_badge_src": null,
        "entry": 2342675,
        "entry_name": "Taking it Eze",
        "event_total": 65,
        "has_played": true,
        "id": 16715779,
        "last_rank": 50772,
        "player_name": "Rush Raniga",
        "rank": 50596,
        "rank_sort": 50631,
        "total": 2352
      },
      {
        "club_badge_src": null,
        "entry": 4038242,
        "entry_name": "Gibbelibb",
        "event_total": 41,
        "has_played": true,
        "id": 30451527,
        "last_rank": 30325,
        "player_name": "Eirik Norum",
        "rank": 50596,
        "rank_sort": 50632,
        "total": 2352
      },
      {
        "club_badge_src": null,
        "entry": 4106100,
        "entry_name": "Toppurinn",
        "event_total": 81,
        "has_played": true,
        "id": 31008119,
        "last_rank": 100092,
        "player_name": "Einar \u00de\u00f3r Sigur\u00f0sson",
        "rank": 50596,
        "rank_sort": 50633,
        "total": 2352
      },
      {
        "club_badge_src": null,
        "entry": 4184119,
        "entry_name": "Fev Army",
        "event_total": 53,
        "has_played": true,
        "id": 31657154,
        "last_rank": 39585,
        "player_name": "geoff peaden",
        "rank": 50596,
        "rank_sort": 50634,
        "total": 2352
      },
      {
        "club_badge_src": "https://fantasy.premierleague.com/gcs/plfpl-production-adobe-approved/plfpl-production/4196713/51b6a1c0-2a02-41c7-8102-2528e85ccd3f.png",
        "entry": 4196713,
        "entry_name": "Suns of Pitches",
        "event_total": 40,
        "has_played": true,
        "id": 31764004,
        "last_rank": 29369,
        "player_name": "Aaren Busuttil",
        "rank": 50596,
        "rank_sort": 50635,
        "total": 2352
      },
      {
        "club_badge_src": null,
        "entry": 4321822,
        "entry_name": "Frank Lampowered",
        "event_total": 46,
        "has_played": true,
        "id": 32799335,
        "last_rank": 35969,
        "player_name": "Jake Alderson",
        "rank": 50596,
        "rank_sort": 50636,
        "total": 2352
      },
      {
        "club_badge_src": null,
        "entry": 4325479,
        "entry_name": "Baldy\u2019s Ballers",
        "event_total": 62,
        "has_played": true,
        "id": 32828608,
        "last_rank": 52461,
        "player_name": "Richard Gosling",
        "rank": 50596,
        "rank_sort": 50637,
        "total": 2352
      },
      {
        "club_badge_src": null,
        "entry": 4621919,
        "entry_name": "Sung Jin-woo",
        "event_total": 61,
        "has_played": true,
        "id": 35329336,
        "last_rank": 50772,
        "player_name": "Abdullah Ali",
        "rank": 50596,
        "rank_sort": 50638,
        "total": 2352
      },
      {
        "club_badge_src": "https://fantasy.premierleague.com/gcs/plfpl-production-adobe-approved/plfpl-production/4713846/1f0a63d3-72b1-4bc7-9d8a-443a66d35c86.png",
        "entry": 4713846,
        "entry_name": "Oracle FC",
        "event_total": 63,
        "has_played": true,
        "id": 36181761,
        "last_rank": 61004,
        "player_name": "Ayedun Abdullateef",
        "rank": 50596,
        "rank_sort": 50639,
        "total": 2352
      },
      {
        "club_badge_src": null,
        "entry": 6883883,
        "entry_name": "Guayaquil gal\u00e1cticos",
        "event_total": 68,
        "has_played": true,
        "id": 55168863,
        "last_rank": 70276,
        "player_name": "Ryan McGuire",
        "rank": 50596,
        "rank_sort": 50640,
        "total": 2352
      },
      {
        "club_badge_src": null,
        "entry": 7517514,
        "entry_name": "DarkMillonsi",
        "event_total": 42,
        "has_played": true,
        "id": 61490953,
        "last_rank": 27402,
        "player_name": "Mark Dillon",
        "rank": 50596,
        "rank_sort": 50641,
        "total": 2352
      },
      {
        "club_badge_src": null,
        "entry": 7849767,
        "entry_name": "Romero & Juliet",
        "event_total": 57,
        "has_played": true,
        "id": 64530274,
        "last_rank": 44804,
        "player_name": "Joseph Bignall",
        "rank": 50596,
        "rank_sort": 50642,
        "total": 2352
      },
      {
        "club_badge_src": null,
        "entry": 8703167,
        "entry_name": "Dinho squad",
        "event_total": 44,
        "has_played": true,
        "id": 72609600,
        "last_rank": 33695,
        "player_name": "Dinho M",
        "rank": 50596,
        "rank_sort": 50643,
        "total": 2352
      },
      {
        "club_badge_src": null,
        "entry": 8902642,
        "entry_name": "The Z Team",
        "event_total": 63,
        "has_played": true,
        "id": 74535083,
        "last_rank": 54065,
        "player_name": "Zulqar Hashmi",
        "rank": 50596,
        "rank_sort": 50644,
        "total": 2352
      },
      {
        "club_badge_src": null,
        "entry": 18558,
        "entry_name": "Sewell\u2019s Old Boys",
        "event_total": 58,
        "has_played": true,
        "id": 115467,
        "last_rank": 52522,
        "player_name": "Andy Sewell",
        "rank": 50645,
        "rank_sort": 50645,
        "total": 2352
      },
      {
        "club_badge_src": null,
        "entry": 69985,
        "entry_name": "El Champo",
        "event_total": 64,
        "has_played": true,
        "id": 454221,
        "last_rank": 55812,
        "player_name": "Luke O Halloran",
        "rank": 50645,
        "rank_sort": 50646,
        "total": 2352
      },
      {
        "club_badge_src": null,
        "entry": 83685,
        "entry_name": "seaseeseasiders",
        "event_total": 64,
        "has_played": true,
        "id": 544728,
        "last_rank": 55812,
        "player_name": "Mark Foulds",
        "rank": 50645,
        "rank_sort": 50647,
        "total": 2352
      },
      {
        "club_badge_src": "https://fantasy.premierleague.com/gcs/plfpl-production-adobe-approved/plfpl-production/97489/95464185-e517-4208-a330-13f1f16f6e7a.png",
        "entry": 97489,
        "entry_name": "\ufffdDiogo_Jota\ufffd",
        "event_total": 59,
        "has_played": true,
        "id": 636723,
        "last_rank": 54134,
        "player_name": "\u0413\u0435\u043e\u0440\u0433\u0438 \u0413\u0435\u0440\u0433\u043e\u0432",
        "rank": 50645,
        "rank_sort": 50648,
        "total": 2352
      },
      {
        "club_badge_src": null,
        "entry": 245571,
        "entry_name": "Arsenal",
        "event_total": 55,
        "has_played": true,
        "id": 1634978,
        "last_rank": 47920,
        "player_name": "Ahmed Sabry",
        "rank": 50645,
        "rank_sort": 50649,
        "total": 2352
      },
      {
        "club_badge_src": null,
        "entry": 266440,
        "entry_name": "Athletico United",
        "event_total": 46,
        "has_played": true,
        "id": 1772331,
        "last_rank": 31404,
        "player_name": "Phil Longfellow",
        "rank": 50645,
        "rank_sort": 50650,
        "total": 2352
      }
    ]
  }
}