{
  "last_updated_data": "2026-05-24T23:28:17Z",
  "league": {
    "admin_entry": null,
    "closed": false,
    "code_privacy": "p",
    "created": "2025-07-20T23:14:33.933835Z",
    "cup_league": 2815434,
    "has_cup": true,
    "id": 314,
    "league_type": "s",
    "max_entries": null,
    "name": "Overall",
    "rank": null,
    "scoring": "c",
    "start_event": 1
  },
  "new_entries": {
    "has_next": false,
    "page": 1,
    "results": []
  },
  "standings": {
    "has_next": true,
    "page": 1327,
    "results": [
      {
        "club_badge_src": null,
        "entry": 6623008,
        "entry_name": "Groon Army",
        "event_total": 48,
        "has_played": true,
        "id": 52926132,
        "last_rank": 51220,
        "player_name": "Tom Grew",
        "rank": 66017,
        "rank_sort": 66301,
        "total": 2342
      },
      {
        "club_badge_src": null,
        "entry": 6637661,
        "entry_name": "Sunnu11",
        "event_total": 52,
        "has_played": true,
        "id": 53055750,
        "last_rank": 57857,
        "player_name": "Jake Abdilla",
        "rank": 66017,
        "rank_sort": 66302,
        "total": 2342
      },
      {
        "club_badge_src": null,
        "entry": 6672659,
        "entry_name": "Cold",
        "event_total": 51,
        "has_played": true,
        "id": 53367993,
        "last_rank": 56180,
        "player_name": "David Pewtner",
        "rank": 66017,
        "rank_sort": 66303,
        "total": 2342
      },
      {
        "club_badge_src": null,
        "entry": 6787719,
        "entry_name": "Shovlin Boys",
        "event_total": 56,
        "has_played": true,
        "id": 54354764,
        "last_rank": 65475,
        "player_name": "Declan Shovlin",
        "rank": 66017,
        "rank_sort": 66304,
        "total": 2342
      },
      {
        "club_badge_src": null,
        "entry": 6858934,
        "entry_name": "Gareth Southgate",
        "event_total": 72,
        "has_played": true,
        "id": 54955664,
        "last_rank": 100949,
        "player_name": "Daniel Carson",
        "rank": 66017,
        "rank_sort": 66305,
        "total": 2342
      },
      {
        "club_badge_src": null,
        "entry": 6903905,
        "entry_name": "kristofer",
        "event_total": 58,
        "has_played": true,
        "id": 55336934,
        "last_rank": 68957,
        "player_name": "Krist\u00f3fer J\u00f3n \u00c6gisson",
        "rank": 66017,
        "rank_sort": 66306,
        "total": 2342
      },
      {
        "club_badge_src": "https://fantasy.premierleague.com/gcs/plfpl-production-adobe-approved/plfpl-production/6925886/a983eb7d-48b2-401f-9fb6-81eb144457c4.png",
        "entry": 6925886,
        "entry_name": "Take the W",
        "event_total": 38,
        "has_played": true,
        "id": 55520733,
        "last_rank": 37589,
        "player_name": "Wildo Almiron",
        "rank": 66017,
        "rank_sort": 66307,
        "total": 2342
      },
      {
        "club_badge_src": null,
        "entry": 6927070,
        "entry_name": "GoonSquad",
        "event_total": 68,
        "has_played": true,
        "id": 55530542,
        "last_rank": 91006,
        "player_name": "GuiLUX -",
        "rank": 66017,
        "rank_sort": 66308,
        "total": 2342
      },
      {
        "club_badge_src": null,
        "entry": 6959503,
        "entry_name": "FC Kuusisto",
        "event_total": 63,
        "has_played": true,
        "id": 55812119,
        "last_rank": 79431,
        "player_name": "Emil Kurki",
        "rank": 66017,
        "rank_sort": 66309,
        "total": 2342
      },
      {
        "club_badge_src": null,
        "entry": 7042834,
        "entry_name": "Piddlehinton AFC",
        "event_total": 56,
        "has_played": true,
        "id": 56625663,
        "last_rank": 65163,
        "player_name": "Lachlan Gilbert",
        "rank": 66017,
        "rank_sort": 66310,
        "total": 2342
      },
      {
        "club_badge_src": null,
        "entry": 7070889,
        "entry_name": "drHeisenberg",
        "event_total": 37,
        "has_played": true,
        "id": 56897633,
        "last_rank": 36348,
        "player_name": "hakuna matata",
        "rank": 66017,
        "rank_sort": 66311,
        "total": 2342
      },
      {
        "club_badge_src": null,
        "entry": 7113125,
        "entry_name": "Botman & Robin",
        "event_total": 51,
        "has_played": true,
        "id": 57301428,
        "last_rank": 56369,
        "player_name": "David Sanderson",
        "rank": 66017,
        "rank_sort": 66312,
        "total": 2342
      },
      {
        "club_badge_src": null,
        "entry": 7157374,
        "entry_name": "Kinder Mbeumo",
        "event_total": 72,
        "has_played": true,
        "id": 57726754,
        "last_rank": 100700,
        "player_name": "Craig Cassidy",
        "rank": 66017,
        "rank_sort": 66313,
        "total": 2342
      },
      {
        "club_badge_src": null,
        "entry": 7165578,
        "entry_name": "Fisherstown Blues",
        "event_total": 52,
        "has_played": true,
        "id": 57811256,
        "last_rank": 58071,
        "player_name": "Barry Prendergast",
        "rank": 66017,
        "rank_sort": 66314,
        "total": 2342
      },
      {
        "club_badge_src": null,
        "entry": 7187052,
        "entry_name": "Groove Kamada",
        "event_total": 51,
        "has_played": true,
        "id": 58012725,
        "last_rank": 56708,
        "player_name": "James Gross",
        "rank": 66017,
        "rank_sort": 66315,
        "total": 2342
      },
      {
        "club_badge_src": null,
        "entry": 7238892,
        "entry_name": "Pink Pony Club",
        "event_total": 49,
        "has_played": true,
        "id": 58498285,
        "last_rank": 53023,
        "player_name": "Stephen Kirwan",
        "rank": 66017,
        "rank_sort": 66316,
        "total": 2342
      },
      {
        "club_badge_src": null,
        "entry": 7270635,
        "entry_name": "Sub Standard",
        "event_total": 57,
        "has_played": true,
        "id": 58798825,
        "last_rank": 67063,
        "player_name": "William Blackstone Whines",
        "rank": 66017,
        "rank_sort": 66317,
        "total": 2342
      },
      {
        "club_badge_src": null,
        "entry": 7312319,
        "entry_name": "Paid in Full Points",
        "event_total": 62,
        "has_played": true,
        "id": 59192183,
        "last_rank": 77050,
        "player_name": "Ade Caprio",
        "rank": 66017,
        "rank_sort": 66318,
        "total": 2342
      },
      {
        "club_badge_src": null,
        "entry": 7521168,
        "entry_name": "Blink 1 Eto'o",
        "event_total": 55,
        "has_played": true,
        "id": 61535885,
        "last_rank": 63390,
        "player_name": "Alex Alves Khan",
        "rank": 66017,
        "rank_sort": 66319,
        "total": 2342
      },
      {
        "club_badge_src": null,
        "entry": 7572363,
        "entry_name": "Arteta's Bottega",
        "event_total": 56,
        "has_played": true,
        "id": 62013993,
        "last_rank": 64943,
        "player_name": "Guy T",
        "rank": 66017,
        "rank_sort": 66320,
        "total": 2342
      },
      {
        "club_badge_src": null,
        "entry": 7634492,
        "entry_name": "Scouting For Goals",
        "event_total": 51,
        "has_played": true,
        "id": 62576282,
        "last_rank": 56099,
        "player_name": "Adam George",
        "rank": 66017,
        "rank_sort": 66321,
        "total": 2342
      },
      {
        "club_badge_src": null,
        "entry": 7889080,
        "entry_name": "GCD's",
        "event_total": 55,
        "has_played": true,
        "id": 64885909,
        "last_rank": 63390,
        "player_name": "Gabriel Constantino",
        "rank": 66017,
        "rank_sort": 66322,
        "total": 2342
      },
      {
        "club_badge_src": null,
        "entry": 8108197,
        "entry_name": "Zubi Zubi Doo",
        "event_total": 72,
        "has_played": true,
        "id": 66877088,
        "last_rank": 100949,
        "player_name": "Ankit Rai",
        "rank": 66017,
        "rank_sort": 66323,
        "total": 2342
      },
      {
        "club_badge_src": null,
        "entry": 8282346,
        "entry_name": "Gunner Gooner",
        "event_total": 66,
        "has_played": true,
        "id": 68530791,
        "last_rank": 86304,
        "player_name": "Saravanan Santhirarajan",
        "rank": 66017,
        "rank_sort": 66324,
        "total": 2342
      },
      {
        "club_badge_src": null,
        "entry": 8306541,
        "entry_name": "45",
        "event_total": 71,
        "has_played": true,
        "id": 68778826,
        "last_rank": 98073,
        "player_name": "Dimitrije Selken",
        "rank": 66017,
        "rank_sort": 66325,
        "total": 2342
      },
      {
        "club_badge_src": null,
        "entry": 8465475,
        "entry_name": "1of1s",
        "event_total": 60,
        "has_played": true,
        "id": 70302046,
        "last_rank": 72815,
        "player_name": "Amarie Szn",
        "rank": 66017,
        "rank_sort": 66326,
        "total": 2342
      },
      {
        "club_badge_src": null,
        "entry": 8467075,
        "entry_name": "Invincibles X1",
        "event_total": 60,
        "has_played": true,
        "id": 70316990,
        "last_rank": 73038,
        "player_name": "Gaurav Suri",
        "rank": 66017,
        "rank_sort": 66327,
        "total": 2342
      },
      {
        "club_badge_src": null,
        "entry": 8560951,
        "entry_name": "Peaky Reijnders",
        "event_total": 65,
        "has_played": true,
        "id": 71224232,
        "last_rank": 83934,
        "player_name": "ryan farrelly",
        "rank": 66017,
        "rank_sort": 66328,
        "total": 2342
      },
      {
        "club_badge_src": null,
        "entry": 8678232,
        "entry_name": "Waa Sanchaba",
        "event_total": 66,
        "has_played": true,
        "id": 72367328,
        "last_rank": 85870,
        "player_name": "Sulayman Drammeh",
        "rank": 66017,
        "rank_sort": 66329,
        "total": 2342
      },
      {
        "club_badge_src": null,
        "entry": 8990711,
        "entry_name": "Matty",
        "event_total": 68,
        "has_played": true,
        "id": 75391944,
        "last_rank": 91006,
        "player_name": "Matty Evans",
        "rank": 66017,
        "rank_sort": 66330,
        "total": 2342
      },
      {
        "club_badge_src": null,
        "entry": 9031467,
        "entry_name": "Damolu",
        "event_total": 66,
        "has_played": true,
        "id": 75783784,
        "last_rank": 86304,
        "player_name": "Olumide Abioye",
        "rank": 66017,
        "rank_sort": 66331,
        "total": 2342
      },
      {
        "club_badge_src": null,
        "entry": 9065472,
        "entry_name": "Uddy Rangers \u2b50\ufe0f\u2b50\ufe0f\u2b50\ufe0f",
        "event_total": 54,
        "has_played": true,
        "id": 76114895,
        "last_rank": 61411,
        "player_name": "Jonny Brown",
        "rank": 66017,
        "rank_sort": 66332,
        "total": 2342
      },
      {
        "club_badge_src": null,
        "entry": 9151331,
        "entry_name": "Mighty Martinez",
        "event_total": 75,
        "has_played": true,
        "id": 76953713,
        "last_rank": 108689,
        "player_name": "Ardi Rexhepi",
        "rank": 66017,
        "rank_sort": 66333,
        "total": 2342
      },
      {
        "club_badge_src": null,
        "entry": 9271462,
        "entry_name": "Zillyfool",
        "event_total": 47,
        "has_played": true,
        "id": 78132665,
        "last_rank": 49880,
        "player_name": "Sid Wallis",
        "rank": 66017,
        "rank_sort": 66334,
        "total": 2342
      },
      {
        "club_badge_src": null,
        "entry": 9303701,
        "entry_name": "Real Cheddington",
        "event_total": 29,
        "has_played": true,
        "id": 78444856,
        "last_rank": 27770,
        "player_name": "Rob Winn",
        "rank": 66017,
        "rank_sort": 66335,
        "total": 2342
      },
      {
        "club_badge_src": null,
        "entry": 9330743,
        "entry_name": "Suzuki",
        "event_total": 60,
        "has_played": true,
        "id": 78704114,
        "last_rank": 73038,
        "player_name": "\u0641\u0627\u0631\u0633 \u0627\u0644\u0642\u062d\u0637\u0627\u0646\u064a",
        "rank": 66017,
        "rank_sort": 66336,
        "total": 2342
      },
      {
        "club_badge_src": null,
        "entry": 9428874,
        "entry_name": "UTFR",
        "event_total": 60,
        "has_played": true,
        "id": 79649986,
        "last_rank": 72702,
        "player_name": "SHADY BASED",
        "rank": 66017,
        "rank_sort": 66337,
        "total": 2342
      },
      {
        "club_badge_src": null,
        "entry": 1899,
        "entry_name": "L'Pidge FC",
        "event_total": 58,
        "has_played": true,
        "id": 10589,
        "last_rank": 69323,
        "player_name": "Luke Pidge",
        "rank": 66338,
        "rank_sort": 66338,
        "total": 2342
      },
      {
        "club_badge_src": null,
        "entry": 6450,
        "entry_name": "Turnerpool",
        "event_total": 57,
        "has_played": true,
        "id": 37017,
        "last_rank": 59535,
        "player_name": "Jack Turner",
        "rank": 66338,
        "rank_sort": 66339,
        "total": 2342
      },
      {
        "club_badge_src": null,
        "entry": 8166,
        "entry_name": "Oppies",
        "event_total": 70,
        "has_played": true,
        "id": 47325,
        "last_rank": 95890,
        "player_name": "Alvin .",
        "rank": 66338,
        "rank_sort": 66340,
        "total": 2342
      },
      {
        "club_badge_src": null,
        "entry": 8465,
        "entry_name": "Trepinho Gaucho",
        "event_total": 61,
        "has_played": true,
        "id": 49234,
        "last_rank": 75537,
        "player_name": "Jared Babb",
        "rank": 66338,
        "rank_sort": 66341,
        "total": 2342
      },
      {
        "club_badge_src": "https://fantasy.premierleague.com/gcs/plfpl-production-adobe-approved/plfpl-production/11759/d5c86aa9-1695-46ba-a9b9-01052f784719.png",
        "entry": 11759,
        "entry_name": "Tick Tick Mbuemo",
        "event_total": 61,
        "has_played": true,
        "id": 70029,
        "last_rank": 74898,
        "player_name": "Joe O Mahony",
        "rank": 66338,
        "rank_sort": 66342,
        "total": 2342
      },
      {
        "club_badge_src": null,
        "entry": 14361,
        "entry_name": "Arjester United",
        "event_total": 70,
        "has_played": true,
        "id": 87181,
        "last_rank": 95890,
        "player_name": "Arjan Tiwana",
        "rank": 66338,
        "rank_sort": 66343,
        "total": 2342
      },
      {
        "club_badge_src": null,
        "entry": 16340,
        "entry_name": "Sons of La Masia",
        "event_total": 53,
        "has_played": true,
        "id": 100879,
        "last_rank": 52853,
        "player_name": "Martin Cederqvist",
        "rank": 66338,
        "rank_sort": 66344,
        "total": 2342
      },
      {
        "club_badge_src": null,
        "entry": 16564,
        "entry_name": "Volkswagen Recharge",
        "event_total": 57,
        "has_played": true,
        "id": 102389,
        "last_rank": 59813,
        "player_name": "Komba Mattia",
        "rank": 66338,
        "rank_sort": 66345,
        "total": 2342
      },
      {
        "club_badge_src": null,
        "entry": 17014,
        "entry_name": "Alwaystop",
        "event_total": 60,
        "has_played": true,
        "id": 105393,
        "last_rank": 65163,
        "player_name": "Error 101",
        "rank": 66338,
        "rank_sort": 66346,
        "total": 2342
      },
      {
        "club_badge_src": null,
        "entry": 18031,
        "entry_name": "WanBis IsAll ItTakes",
        "event_total": 62,
        "has_played": true,
        "id": 112050,
        "last_rank": 77258,
        "player_name": "Peter Brooks",
        "rank": 66338,
        "rank_sort": 66347,
        "total": 2342
      },
      {
        "club_badge_src": null,
        "entry": 24136,
        "entry_name": "Slotsatthekop",
        "event_total": 56,
        "has_played": true,
        "id": 152277,
        "last_rank": 65475,
        "player_name": "Barry Cahill",
        "rank": 66338,
        "rank_sort": 66348,
        "total": 2342
      },
      {
        "club_badge_src": null,
        "entry": 26728,
        "entry_name": "Hudson Hotspur",
        "event_total": 49,
        "has_played": true,
        "id": 169000,
        "last_rank": 53023,
        "player_name": "Phillip Hudson",
        "rank": 66338,
        "rank_sort": 66349,
        "total": 2342
      },
      {
        "club_badge_src": null,
        "entry": 27356,
        "entry_name": "Kako",
        "event_total": 62,
        "has_played": true,
        "id": 172925,
        "last_rank": 77258,
        "player_name": "Oreen Salman",
        "rank": 66338,
        "rank_sort": 66350,
        "total": 2342
      }
    ]
  }
}