{
  "last_updated_data": "2026-05-24T23:28:17Z",
  "league": {
    "admin_entry": null,
    "closed": false,
    "code_privacy": "p",
    "created": "2025-07-20T23:14:33.933835Z",
    "cup_league": 2815434,
    "has_cup": true,
    "id": 314,
    "league_type": "s",
    "max_entries": null,
    "name": "Overall",
    "rank": null,
    "scoring": "c",
    "start_event": 1
  },
  "new_entries": {
    "has_next": false,
    "page": 1,
    "results": []
  },
  "standings": {
    "has_next": true,
    "page": 182,
    "results": [
      {
        "club_badge_src": null,
        "entry": 72536,
        "entry_name": "ChickenTikka MoSalah",
        "event_total": 56,
        "has_played": true,
        "id": 471362,
        "last_rank": 8234,
        "player_name": "Pedro Gon\u00e7alves",
        "rank": 9042,
        "rank_sort": 9051,
        "total": 2401
      },
      {
        "club_badge_src": null,
        "entry": 150397,
        "entry_name": "Wirtz Case Scenario",
        "event_total": 49,
        "has_played": true,
        "id": 986355,
        "last_rank": 4155,
        "player_name": "Ewan Gillon",
        "rank": 9042,
        "rank_sort": 9052,
        "total": 2401
      },
      {
        "club_badge_src": null,
        "entry": 179651,
        "entry_name": "Change Name",
        "event_total": 64,
        "has_played": true,
        "id": 1185493,
        "last_rank": 11516,
        "player_name": "Wahi Azalie",
        "rank": 9042,
        "rank_sort": 9053,
        "total": 2401
      },
      {
        "club_badge_src": null,
        "entry": 337561,
        "entry_name": "JC FC",
        "event_total": 67,
        "has_played": true,
        "id": 2259870,
        "last_rank": 10992,
        "player_name": "john cummins",
        "rank": 9042,
        "rank_sort": 9054,
        "total": 2401
      },
      {
        "club_badge_src": null,
        "entry": 612202,
        "entry_name": "deepAlphaXV",
        "event_total": 63,
        "has_played": true,
        "id": 4136583,
        "last_rank": 9311,
        "player_name": "J P N",
        "rank": 9042,
        "rank_sort": 9055,
        "total": 2401
      },
      {
        "club_badge_src": null,
        "entry": 682359,
        "entry_name": "No totti no party",
        "event_total": 78,
        "has_played": true,
        "id": 4618084,
        "last_rank": 14496,
        "player_name": "Shashank Gupta",
        "rank": 9042,
        "rank_sort": 9056,
        "total": 2401
      },
      {
        "club_badge_src": null,
        "entry": 831307,
        "entry_name": "Sexy Gonzales",
        "event_total": 71,
        "has_played": true,
        "id": 5694021,
        "last_rank": 15164,
        "player_name": "Atli Freyr G\u00edslason",
        "rank": 9042,
        "rank_sort": 9057,
        "total": 2401
      },
      {
        "club_badge_src": "https://fantasy.premierleague.com/gcs/plfpl-production-adobe-approved/plfpl-production/1308394/78c9b89a-4058-427a-85fd-e878e0ea1bfc.png",
        "entry": 1308394,
        "entry_name": "Steves Shooters",
        "event_total": 53,
        "has_played": true,
        "id": 9094449,
        "last_rank": 7193,
        "player_name": "Kawiti Allen Tana",
        "rank": 9042,
        "rank_sort": 9058,
        "total": 2401
      },
      {
        "club_badge_src": "https://fantasy.premierleague.com/gcs/plfpl-production-adobe-approved/plfpl-production/1887506/99df3ccd-4d68-4083-ab8d-92e8d799b74e.png",
        "entry": 1887506,
        "entry_name": "FC Zartageya",
        "event_total": 67,
        "has_played": true,
        "id": 13302175,
        "last_rank": 10920,
        "player_name": "Omar Ozil",
        "rank": 9042,
        "rank_sort": 9059,
        "total": 2401
      },
      {
        "club_badge_src": null,
        "entry": 1967633,
        "entry_name": "Jurangmangu, 2023",
        "event_total": 65,
        "has_played": true,
        "id": 13885888,
        "last_rank": 11901,
        "player_name": "Relegia Adi Pangestu",
        "rank": 9042,
        "rank_sort": 9060,
        "total": 2401
      },
      {
        "club_badge_src": null,
        "entry": 2609979,
        "entry_name": "Better Call Sa\u00fal",
        "event_total": 68,
        "has_played": true,
        "id": 18750986,
        "last_rank": 11419,
        "player_name": "Sahand Fescharakifard",
        "rank": 9042,
        "rank_sort": 9061,
        "total": 2401
      },
      {
        "club_badge_src": null,
        "entry": 2902082,
        "entry_name": "Chappa Chappa Cherki",
        "event_total": 68,
        "has_played": true,
        "id": 21267047,
        "last_rank": 13558,
        "player_name": "Preet Doshi",
        "rank": 9042,
        "rank_sort": 9062,
        "total": 2401
      },
      {
        "club_badge_src": null,
        "entry": 3046398,
        "entry_name": "Coldish",
        "event_total": 71,
        "has_played": true,
        "id": 22425686,
        "last_rank": 15226,
        "player_name": "Bram Wiering",
        "rank": 9042,
        "rank_sort": 9063,
        "total": 2401
      },
      {
        "club_badge_src": null,
        "entry": 3479341,
        "entry_name": "Lundefuglen",
        "event_total": 58,
        "has_played": true,
        "id": 25871442,
        "last_rank": 7501,
        "player_name": "Simon Lunde",
        "rank": 9042,
        "rank_sort": 9064,
        "total": 2401
      },
      {
        "club_badge_src": "https://fantasy.premierleague.com/gcs/plfpl-production-adobe-approved/plfpl-production/4127839/30ff973a-dbbe-4349-918a-02a410be9c74.png",
        "entry": 4127839,
        "entry_name": "Vanilla Team Name",
        "event_total": 74,
        "has_played": true,
        "id": 31191751,
        "last_rank": 14370,
        "player_name": "Paul Fernandes",
        "rank": 9042,
        "rank_sort": 9065,
        "total": 2401
      },
      {
        "club_badge_src": null,
        "entry": 5656222,
        "entry_name": "Schling Dings",
        "event_total": 48,
        "has_played": true,
        "id": 44249899,
        "last_rank": 5820,
        "player_name": "Keith McLaughlin",
        "rank": 9042,
        "rank_sort": 9066,
        "total": 2401
      },
      {
        "club_badge_src": "https://fantasy.premierleague.com/gcs/plfpl-production-adobe-approved/plfpl-production/6005588/07a797b4-be3d-45ee-905d-0318228c08ea.png",
        "entry": 6005588,
        "entry_name": "Toone7",
        "event_total": 71,
        "has_played": true,
        "id": 47347788,
        "last_rank": 15226,
        "player_name": "hendry ap",
        "rank": 9042,
        "rank_sort": 9067,
        "total": 2401
      },
      {
        "club_badge_src": null,
        "entry": 6389034,
        "entry_name": "Skjalg FC",
        "event_total": 59,
        "has_played": true,
        "id": 50821394,
        "last_rank": 9350,
        "player_name": "Skjalg Are Lyngstad",
        "rank": 9042,
        "rank_sort": 9068,
        "total": 2401
      },
      {
        "club_badge_src": null,
        "entry": 8246106,
        "entry_name": "Keane on a Title",
        "event_total": 64,
        "has_played": true,
        "id": 68186739,
        "last_rank": 9711,
        "player_name": "Rohan Date",
        "rank": 9042,
        "rank_sort": 9069,
        "total": 2401
      },
      {
        "club_badge_src": null,
        "entry": 8502085,
        "entry_name": "HORLORLADE FC",
        "event_total": 60,
        "has_played": true,
        "id": 70657730,
        "last_rank": 8198,
        "player_name": "AbdulQayyum AbdulQadir",
        "rank": 9042,
        "rank_sort": 9070,
        "total": 2401
      },
      {
        "club_badge_src": null,
        "entry": 8952320,
        "entry_name": "Florian wirtz",
        "event_total": 72,
        "has_played": true,
        "id": 75022230,
        "last_rank": 13500,
        "player_name": "liverpool Fc",
        "rank": 9042,
        "rank_sort": 9071,
        "total": 2401
      },
      {
        "club_badge_src": null,
        "entry": 53712,
        "entry_name": "under pressure",
        "event_total": 67,
        "has_played": true,
        "id": 345601,
        "last_rank": 13033,
        "player_name": "aan y",
        "rank": 9072,
        "rank_sort": 9072,
        "total": 2401
      },
      {
        "club_badge_src": null,
        "entry": 103239,
        "entry_name": "Wirtz schaffen das!",
        "event_total": 37,
        "has_played": true,
        "id": 673699,
        "last_rank": 3482,
        "player_name": "Quinten Fung",
        "rank": 9072,
        "rank_sort": 9073,
        "total": 2401
      },
      {
        "club_badge_src": null,
        "entry": 221035,
        "entry_name": "Peaky Blinders",
        "event_total": 58,
        "has_played": true,
        "id": 1470094,
        "last_rank": 7535,
        "player_name": "Dominik Plizga",
        "rank": 9072,
        "rank_sort": 9074,
        "total": 2401
      },
      {
        "club_badge_src": null,
        "entry": 338736,
        "entry_name": "iAbdulrhman",
        "event_total": 58,
        "has_played": true,
        "id": 2267724,
        "last_rank": 9015,
        "player_name": "Abdulrhman \u064b",
        "rank": 9072,
        "rank_sort": 9075,
        "total": 2401
      },
      {
        "club_badge_src": null,
        "entry": 458805,
        "entry_name": "FPL Wingnut",
        "event_total": 74,
        "has_played": true,
        "id": 3077963,
        "last_rank": 14604,
        "player_name": "Steven Barber",
        "rank": 9072,
        "rank_sort": 9076,
        "total": 2401
      },
      {
        "club_badge_src": null,
        "entry": 607643,
        "entry_name": "Sesko Clubcard *",
        "event_total": 49,
        "has_played": true,
        "id": 4103712,
        "last_rank": 6094,
        "player_name": "Merryn Collins",
        "rank": 9072,
        "rank_sort": 9077,
        "total": 2401
      },
      {
        "club_badge_src": null,
        "entry": 746700,
        "entry_name": "Juventus",
        "event_total": 56,
        "has_played": true,
        "id": 5079856,
        "last_rank": 8260,
        "player_name": "Volodymyr Rymar",
        "rank": 9072,
        "rank_sort": 9078,
        "total": 2401
      },
      {
        "club_badge_src": null,
        "entry": 806655,
        "entry_name": "Tema Boys",
        "event_total": 57,
        "has_played": true,
        "id": 5522382,
        "last_rank": 8617,
        "player_name": "Yaw Oduro",
        "rank": 9072,
        "rank_sort": 9079,
        "total": 2401
      },
      {
        "club_badge_src": null,
        "entry": 898871,
        "entry_name": "New Order",
        "event_total": 64,
        "has_played": true,
        "id": 6175876,
        "last_rank": 11536,
        "player_name": "Austin Lowe",
        "rank": 9072,
        "rank_sort": 9080,
        "total": 2401
      },
      {
        "club_badge_src": null,
        "entry": 1098842,
        "entry_name": "Crew Of Stars",
        "event_total": 65,
        "has_played": true,
        "id": 7611153,
        "last_rank": 11999,
        "player_name": "Julian Draxler",
        "rank": 9072,
        "rank_sort": 9081,
        "total": 2401
      },
      {
        "club_badge_src": "https://fantasy.premierleague.com/gcs/plfpl-production-adobe-approved/plfpl-production/1813973/4470231b-68c3-44f9-a419-5900a1ddded2.png",
        "entry": 1813973,
        "entry_name": "Dinamo Didi",
        "event_total": 67,
        "has_played": true,
        "id": 12755539,
        "last_rank": 12995,
        "player_name": "Derrick Ward",
        "rank": 9072,
        "rank_sort": 9082,
        "total": 2401
      },
      {
        "club_badge_src": null,
        "entry": 2049422,
        "entry_name": "Bad To The Bowen",
        "event_total": 65,
        "has_played": true,
        "id": 14515557,
        "last_rank": 11999,
        "player_name": "Thomas Ashton",
        "rank": 9072,
        "rank_sort": 9083,
        "total": 2401
      },
      {
        "club_badge_src": null,
        "entry": 2076637,
        "entry_name": "UrDefenceIsTerrified",
        "event_total": 59,
        "has_played": true,
        "id": 14723737,
        "last_rank": 7863,
        "player_name": "GER CORRIGAN",
        "rank": 9072,
        "rank_sort": 9084,
        "total": 2401
      },
      {
        "club_badge_src": "https://fantasy.premierleague.com/gcs/plfpl-production-adobe-approved/plfpl-production/2886771/da60a047-6d82-4e14-8339-195a75941788.png",
        "entry": 2886771,
        "entry_name": "AR TEAM",
        "event_total": 86,
        "has_played": true,
        "id": 21134728,
        "last_rank": 22921,
        "player_name": "Ahmed Raafat",
        "rank": 9072,
        "rank_sort": 9085,
        "total": 2401
      },
      {
        "club_badge_src": null,
        "entry": 3213254,
        "entry_name": "CherkiFC",
        "event_total": 59,
        "has_played": true,
        "id": 23756904,
        "last_rank": 9311,
        "player_name": "Yann Griffiths",
        "rank": 9072,
        "rank_sort": 9086,
        "total": 2401
      },
      {
        "club_badge_src": null,
        "entry": 3581728,
        "entry_name": "Champusham",
        "event_total": 71,
        "has_played": true,
        "id": 26672652,
        "last_rank": 15280,
        "player_name": "Mauricio Calderon",
        "rank": 9072,
        "rank_sort": 9087,
        "total": 2401
      },
      {
        "club_badge_src": null,
        "entry": 5151793,
        "entry_name": "armaty",
        "event_total": 62,
        "has_played": true,
        "id": 39858152,
        "last_rank": 10629,
        "player_name": "Adrian Kurkowski",
        "rank": 9072,
        "rank_sort": 9088,
        "total": 2401
      },
      {
        "club_badge_src": null,
        "entry": 6261697,
        "entry_name": "Boom Xhaka Laka",
        "event_total": 54,
        "has_played": true,
        "id": 49577281,
        "last_rank": 7547,
        "player_name": "matthew evans",
        "rank": 9072,
        "rank_sort": 9089,
        "total": 2401
      },
      {
        "club_badge_src": null,
        "entry": 6780090,
        "entry_name": "Win Dalot",
        "event_total": 42,
        "has_played": true,
        "id": 54290841,
        "last_rank": 4431,
        "player_name": "Mahamed G",
        "rank": 9072,
        "rank_sort": 9090,
        "total": 2401
      },
      {
        "club_badge_src": "https://fantasy.premierleague.com/gcs/plfpl-production-adobe-approved/plfpl-production/302/3830642c-1550-4631-a83f-d7d14eb98083.png",
        "entry": 302,
        "entry_name": "Gers Gal\u00e1cticos",
        "event_total": 60,
        "has_played": true,
        "id": 1671,
        "last_rank": 8260,
        "player_name": "Zander Rutherford",
        "rank": 9091,
        "rank_sort": 9091,
        "total": 2401
      },
      {
        "club_badge_src": null,
        "entry": 13757,
        "entry_name": "FF Javanicus",
        "event_total": 58,
        "has_played": true,
        "id": 83260,
        "last_rank": 7547,
        "player_name": "Indra Alfiandi",
        "rank": 9091,
        "rank_sort": 9092,
        "total": 2401
      },
      {
        "club_badge_src": null,
        "entry": 57360,
        "entry_name": "Ask Gyok",
        "event_total": 63,
        "has_played": true,
        "id": 369507,
        "last_rank": 9382,
        "player_name": "Lekan Adio",
        "rank": 9091,
        "rank_sort": 9093,
        "total": 2401
      },
      {
        "club_badge_src": null,
        "entry": 92222,
        "entry_name": "Amorins army",
        "event_total": 69,
        "has_played": true,
        "id": 602579,
        "last_rank": 11999,
        "player_name": "lee pryce",
        "rank": 9091,
        "rank_sort": 9094,
        "total": 2401
      },
      {
        "club_badge_src": "https://fantasy.premierleague.com/gcs/plfpl-production-adobe-approved/plfpl-production/150010/1a9b970a-9a12-484c-ad27-c2cca81e51b9.png",
        "entry": 150010,
        "entry_name": "Ekitekno bangers",
        "event_total": 66,
        "has_played": true,
        "id": 983650,
        "last_rank": 12512,
        "player_name": "Rowan Walker",
        "rank": 9091,
        "rank_sort": 9095,
        "total": 2401
      },
      {
        "club_badge_src": "https://fantasy.premierleague.com/gcs/plfpl-production-adobe-approved/plfpl-production/267209/9a296249-4d0e-4aa5-bcc6-dd52f76f0e64.png",
        "entry": 267209,
        "entry_name": "shark team",
        "event_total": 62,
        "has_played": true,
        "id": 1777565,
        "last_rank": 10629,
        "player_name": "Ulrik Framstad",
        "rank": 9091,
        "rank_sort": 9096,
        "total": 2401
      },
      {
        "club_badge_src": null,
        "entry": 594981,
        "entry_name": "Nice Areola",
        "event_total": 68,
        "has_played": true,
        "id": 4010684,
        "last_rank": 11516,
        "player_name": "Callum Russell",
        "rank": 9091,
        "rank_sort": 9097,
        "total": 2401
      },
      {
        "club_badge_src": "https://fantasy.premierleague.com/gcs/plfpl-production-adobe-approved/plfpl-production/893064/eef27299-b88c-4811-8025-209fdc4b6056.png",
        "entry": 893064,
        "entry_name": "The Eleven",
        "event_total": 54,
        "has_played": true,
        "id": 6134394,
        "last_rank": 5313,
        "player_name": "Mayank Sikarwar",
        "rank": 9091,
        "rank_sort": 9098,
        "total": 2401
      },
      {
        "club_badge_src": null,
        "entry": 2415741,
        "entry_name": "T\u00e5rn\u00e5sen Bingo",
        "event_total": 54,
        "has_played": true,
        "id": 17268931,
        "last_rank": 6347,
        "player_name": "Thomas Hanssen",
        "rank": 9091,
        "rank_sort": 9099,
        "total": 2401
      },
      {
        "club_badge_src": "https://fantasy.premierleague.com/gcs/plfpl-production-adobe-approved/plfpl-production/2452779/7df9abf6-e542-4ed6-97f2-96840c48e3c1.png",
        "entry": 2452779,
        "entry_name": "Smyki",
        "event_total": 61,
        "has_played": true,
        "id": 17543250,
        "last_rank": 8617,
        "player_name": "Igor Ka\u0142wak",
        "rank": 9091,
        "rank_sort": 9100,
        "total": 2401
      }
    ]
  }
}