{
  "last_updated_data": "2026-05-24T23:28:17Z",
  "league": {
    "admin_entry": null,
    "closed": false,
    "code_privacy": "p",
    "created": "2025-07-20T23:14:33.933835Z",
    "cup_league": 2815434,
    "has_cup": true,
    "id": 314,
    "league_type": "s",
    "max_entries": null,
    "name": "Overall",
    "rank": null,
    "scoring": "c",
    "start_event": 1
  },
  "new_entries": {
    "has_next": false,
    "page": 1,
    "results": []
  },
  "standings": {
    "has_next": true,
    "page": 484,
    "results": [
      {
        "club_badge_src": null,
        "entry": 1643817,
        "entry_name": "Gonna win the mug",
        "event_total": 46,
        "has_played": true,
        "id": 11506973,
        "last_rank": 15876,
        "player_name": "Giuseppe Carmine",
        "rank": 24098,
        "rank_sort": 24151,
        "total": 2375
      },
      {
        "club_badge_src": "https://fantasy.premierleague.com/gcs/plfpl-production-adobe-approved/plfpl-production/1707684/7c4e09ff-1cce-4b6c-97c1-02c6607cb2fc.png",
        "entry": 1707684,
        "entry_name": "FC Nambahu",
        "event_total": 62,
        "has_played": true,
        "id": 11963987,
        "last_rank": 24475,
        "player_name": "Jackson T Nambahu",
        "rank": 24098,
        "rank_sort": 24152,
        "total": 2375
      },
      {
        "club_badge_src": null,
        "entry": 1769272,
        "entry_name": "Wirtz of Wisdom",
        "event_total": 65,
        "has_played": true,
        "id": 12428544,
        "last_rank": 27203,
        "player_name": "Scott Newton",
        "rank": 24098,
        "rank_sort": 24153,
        "total": 2375
      },
      {
        "club_badge_src": null,
        "entry": 2001694,
        "entry_name": "Winner akfk 1",
        "event_total": 59,
        "has_played": true,
        "id": 14151197,
        "last_rank": 25436,
        "player_name": "Amr Yhya",
        "rank": 24098,
        "rank_sort": 24154,
        "total": 2375
      },
      {
        "club_badge_src": null,
        "entry": 2071747,
        "entry_name": "Pukki Blinders",
        "event_total": 59,
        "has_played": true,
        "id": 14688234,
        "last_rank": 25436,
        "player_name": "Tonito Slim",
        "rank": 24098,
        "rank_sort": 24155,
        "total": 2375
      },
      {
        "club_badge_src": "https://fantasy.premierleague.com/gcs/plfpl-production-adobe-approved/plfpl-production/2197601/b1803bcc-8a33-456c-a13a-666c67f7a730.png",
        "entry": 2197601,
        "entry_name": "Metobo",
        "event_total": 67,
        "has_played": true,
        "id": 15637409,
        "last_rank": 33483,
        "player_name": "Franklin Gichaba",
        "rank": 24098,
        "rank_sort": 24156,
        "total": 2375
      },
      {
        "club_badge_src": null,
        "entry": 2281153,
        "entry_name": "ZOGHHH",
        "event_total": 55,
        "has_played": true,
        "id": 16267346,
        "last_rank": 19103,
        "player_name": "Youssef Zoghlami",
        "rank": 24098,
        "rank_sort": 24157,
        "total": 2375
      },
      {
        "club_badge_src": null,
        "entry": 2386967,
        "entry_name": "Tikka Mo Salah",
        "event_total": 59,
        "has_played": true,
        "id": 17049086,
        "last_rank": 25330,
        "player_name": "Trond-Gunnar Salvesen",
        "rank": 24098,
        "rank_sort": 24158,
        "total": 2375
      },
      {
        "club_badge_src": null,
        "entry": 2573215,
        "entry_name": "On Porro'd Time",
        "event_total": 66,
        "has_played": true,
        "id": 18465060,
        "last_rank": 27976,
        "player_name": "Sam Taylor",
        "rank": 24098,
        "rank_sort": 24159,
        "total": 2375
      },
      {
        "club_badge_src": null,
        "entry": 2643110,
        "entry_name": "PPB_CT",
        "event_total": 61,
        "has_played": true,
        "id": 18997153,
        "last_rank": 27304,
        "player_name": "Padam Bhattarai",
        "rank": 24098,
        "rank_sort": 24160,
        "total": 2375
      },
      {
        "club_badge_src": null,
        "entry": 2674823,
        "entry_name": "Musah's\ufffd united",
        "event_total": 55,
        "has_played": true,
        "id": 19231955,
        "last_rank": 22154,
        "player_name": "Musa musa",
        "rank": 24098,
        "rank_sort": 24161,
        "total": 2375
      },
      {
        "club_badge_src": null,
        "entry": 2825324,
        "entry_name": "Bowen Arrow",
        "event_total": 57,
        "has_played": true,
        "id": 20642428,
        "last_rank": 23748,
        "player_name": "Lucas Jefferson",
        "rank": 24098,
        "rank_sort": 24162,
        "total": 2375
      },
      {
        "club_badge_src": null,
        "entry": 2989437,
        "entry_name": "Jimmie",
        "event_total": 64,
        "has_played": true,
        "id": 21985138,
        "last_rank": 30191,
        "player_name": "Mohamed Mohamed Gamal Tawfik",
        "rank": 24098,
        "rank_sort": 24163,
        "total": 2375
      },
      {
        "club_badge_src": null,
        "entry": 3039199,
        "entry_name": "Dzeko & the Bunnymen",
        "event_total": 56,
        "has_played": true,
        "id": 22369336,
        "last_rank": 19835,
        "player_name": "Scott Waters",
        "rank": 24098,
        "rank_sort": 24164,
        "total": 2375
      },
      {
        "club_badge_src": null,
        "entry": 3171027,
        "entry_name": "Rimsmeden",
        "event_total": 65,
        "has_played": true,
        "id": 23428797,
        "last_rank": 31125,
        "player_name": "Stefan G\u00f6ransson",
        "rank": 24098,
        "rank_sort": 24165,
        "total": 2375
      },
      {
        "club_badge_src": null,
        "entry": 3352113,
        "entry_name": "Out on Bale",
        "event_total": 41,
        "has_played": true,
        "id": 24868301,
        "last_rank": 10992,
        "player_name": "Tony Harper",
        "rank": 24098,
        "rank_sort": 24166,
        "total": 2375
      },
      {
        "club_badge_src": null,
        "entry": 3664637,
        "entry_name": "Imperium",
        "event_total": 66,
        "has_played": true,
        "id": 27329344,
        "last_rank": 28150,
        "player_name": "Ridwan Bakare",
        "rank": 24098,
        "rank_sort": 24167,
        "total": 2375
      },
      {
        "club_badge_src": null,
        "entry": 3784075,
        "entry_name": "SamTheHam",
        "event_total": 74,
        "has_played": true,
        "id": 28257413,
        "last_rank": 41824,
        "player_name": "Sam Burrows",
        "rank": 24098,
        "rank_sort": 24168,
        "total": 2375
      },
      {
        "club_badge_src": "https://fantasy.premierleague.com/gcs/plfpl-production-adobe-approved/plfpl-production/3890824/6119887f-9450-4bb4-b9f7-ccf981c9c195.png",
        "entry": 3890824,
        "entry_name": "Visions of Elanga",
        "event_total": 50,
        "has_played": true,
        "id": 29238677,
        "last_rank": 18377,
        "player_name": "Devon Johnson",
        "rank": 24098,
        "rank_sort": 24169,
        "total": 2375
      },
      {
        "club_badge_src": null,
        "entry": 3927719,
        "entry_name": "NightShift Posse",
        "event_total": 60,
        "has_played": true,
        "id": 29538945,
        "last_rank": 26230,
        "player_name": "Ryan Harvey",
        "rank": 24098,
        "rank_sort": 24170,
        "total": 2375
      },
      {
        "club_badge_src": "https://fantasy.premierleague.com/gcs/plfpl-production-adobe-approved/plfpl-production/4175554/f770ed53-8297-4c4b-9357-3944074d7bcf.png",
        "entry": 4175554,
        "entry_name": "Me Vs Points",
        "event_total": 66,
        "has_played": true,
        "id": 31583355,
        "last_rank": 32335,
        "player_name": "Prasiddha Karki",
        "rank": 24098,
        "rank_sort": 24171,
        "total": 2375
      },
      {
        "club_badge_src": null,
        "entry": 4219172,
        "entry_name": "The Rod Squad",
        "event_total": 72,
        "has_played": true,
        "id": 31955756,
        "last_rank": 39023,
        "player_name": "Eoghan Walshe",
        "rank": 24098,
        "rank_sort": 24172,
        "total": 2375
      },
      {
        "club_badge_src": null,
        "entry": 4668443,
        "entry_name": "KINGAYOMIPO",
        "event_total": 51,
        "has_played": true,
        "id": 35758761,
        "last_rank": 19237,
        "player_name": "Ayomipo Gidado",
        "rank": 24098,
        "rank_sort": 24173,
        "total": 2375
      },
      {
        "club_badge_src": null,
        "entry": 4673340,
        "entry_name": "a_ozodov",
        "event_total": 83,
        "has_played": true,
        "id": 35798941,
        "last_rank": 55514,
        "player_name": "Ahrorbek Ozodov",
        "rank": 24098,
        "rank_sort": 24174,
        "total": 2375
      },
      {
        "club_badge_src": "https://fantasy.premierleague.com/gcs/plfpl-production-adobe-approved/plfpl-production/4709033/5b324e47-8446-4326-bc33-65af7a2448fb.png",
        "entry": 4709033,
        "entry_name": "Sliced Tomato Ted",
        "event_total": 59,
        "has_played": true,
        "id": 36117737,
        "last_rank": 25436,
        "player_name": "Colin Duggan",
        "rank": 24098,
        "rank_sort": 24175,
        "total": 2375
      },
      {
        "club_badge_src": null,
        "entry": 4888038,
        "entry_name": "Delap Dance",
        "event_total": 76,
        "has_played": true,
        "id": 37685987,
        "last_rank": 44525,
        "player_name": "Harry Overman",
        "rank": 24098,
        "rank_sort": 24176,
        "total": 2375
      },
      {
        "club_badge_src": null,
        "entry": 4918851,
        "entry_name": "Smail tbs",
        "event_total": 60,
        "has_played": true,
        "id": 37939383,
        "last_rank": 26425,
        "player_name": "Smail TBS",
        "rank": 24098,
        "rank_sort": 24177,
        "total": 2375
      },
      {
        "club_badge_src": null,
        "entry": 4974671,
        "entry_name": "Norfolk Fifteen",
        "event_total": 42,
        "has_played": true,
        "id": 38399256,
        "last_rank": 11419,
        "player_name": "Chris Troise",
        "rank": 24098,
        "rank_sort": 24178,
        "total": 2375
      },
      {
        "club_badge_src": null,
        "entry": 5011067,
        "entry_name": "BEBETTO FC",
        "event_total": 73,
        "has_played": true,
        "id": 38696334,
        "last_rank": 35619,
        "player_name": "Ezeora Daniel",
        "rank": 24098,
        "rank_sort": 24179,
        "total": 2375
      },
      {
        "club_badge_src": null,
        "entry": 5038940,
        "entry_name": "Begoo Aughhh * *",
        "event_total": 60,
        "has_played": true,
        "id": 38921637,
        "last_rank": 22830,
        "player_name": "kam s",
        "rank": 24098,
        "rank_sort": 24180,
        "total": 2375
      },
      {
        "club_badge_src": null,
        "entry": 5228104,
        "entry_name": "mtynts",
        "event_total": 59,
        "has_played": true,
        "id": 40511515,
        "last_rank": 25436,
        "player_name": "abdulellah khalid",
        "rank": 24098,
        "rank_sort": 24181,
        "total": 2375
      },
      {
        "club_badge_src": null,
        "entry": 5285398,
        "entry_name": "There we go again",
        "event_total": 60,
        "has_played": true,
        "id": 40968174,
        "last_rank": 26345,
        "player_name": "Katrin Guven",
        "rank": 24098,
        "rank_sort": 24182,
        "total": 2375
      },
      {
        "club_badge_src": null,
        "entry": 5463526,
        "entry_name": "Y alharbi",
        "event_total": 68,
        "has_played": true,
        "id": 42520663,
        "last_rank": 30060,
        "player_name": "Yousef Alharbi",
        "rank": 24098,
        "rank_sort": 24183,
        "total": 2375
      },
      {
        "club_badge_src": null,
        "entry": 5489665,
        "entry_name": "Ekitike it Easy",
        "event_total": 56,
        "has_played": true,
        "id": 42754554,
        "last_rank": 19835,
        "player_name": "Faisal Alshawoosh",
        "rank": 24098,
        "rank_sort": 24184,
        "total": 2375
      },
      {
        "club_badge_src": null,
        "entry": 5667784,
        "entry_name": "Sakalakaboomboom",
        "event_total": 56,
        "has_played": true,
        "id": 44347742,
        "last_rank": 19835,
        "player_name": "Chris Feathers",
        "rank": 24098,
        "rank_sort": 24185,
        "total": 2375
      },
      {
        "club_badge_src": null,
        "entry": 5685447,
        "entry_name": "Havertz Your Way",
        "event_total": 72,
        "has_played": true,
        "id": 44503366,
        "last_rank": 39023,
        "player_name": "Mihikaa Adlakha",
        "rank": 24098,
        "rank_sort": 24186,
        "total": 2375
      },
      {
        "club_badge_src": null,
        "entry": 6370664,
        "entry_name": "HRM UNited",
        "event_total": 74,
        "has_played": true,
        "id": 50660028,
        "last_rank": 41967,
        "player_name": "Vilhj\u00e1lmur Haraldsson",
        "rank": 24098,
        "rank_sort": 24187,
        "total": 2375
      },
      {
        "club_badge_src": null,
        "entry": 6440591,
        "entry_name": "Blitz FC",
        "event_total": 43,
        "has_played": true,
        "id": 51278906,
        "last_rank": 14148,
        "player_name": "glen yosa",
        "rank": 24098,
        "rank_sort": 24188,
        "total": 2375
      },
      {
        "club_badge_src": null,
        "entry": 6450893,
        "entry_name": "Holy Boehly FC",
        "event_total": 67,
        "has_played": true,
        "id": 51370303,
        "last_rank": 33332,
        "player_name": "Timmy Zammit Lupi",
        "rank": 24098,
        "rank_sort": 24189,
        "total": 2375
      },
      {
        "club_badge_src": null,
        "entry": 6617427,
        "entry_name": "In Memory of LB",
        "event_total": 53,
        "has_played": true,
        "id": 52877678,
        "last_rank": 20624,
        "player_name": "Adam Bailey",
        "rank": 24098,
        "rank_sort": 24190,
        "total": 2375
      },
      {
        "club_badge_src": null,
        "entry": 7021343,
        "entry_name": "Peaky Reijnders",
        "event_total": 62,
        "has_played": true,
        "id": 56400123,
        "last_rank": 28273,
        "player_name": "Andy Whittle",
        "rank": 24098,
        "rank_sort": 24191,
        "total": 2375
      },
      {
        "club_badge_src": "https://fantasy.premierleague.com/gcs/plfpl-production-adobe-approved/plfpl-production/7534540/83426813-5e3d-452f-9333-50f778d62995.png",
        "entry": 7534540,
        "entry_name": "De Beauvoir Ruudboi",
        "event_total": 59,
        "has_played": true,
        "id": 61669789,
        "last_rank": 25436,
        "player_name": "James Thompson",
        "rank": 24098,
        "rank_sort": 24192,
        "total": 2375
      },
      {
        "club_badge_src": "https://fantasy.premierleague.com/gcs/plfpl-production-adobe-approved/plfpl-production/7725503/2e9d953f-301b-44b5-b109-5d49b12354d2.png",
        "entry": 7725503,
        "entry_name": "Loch Lomond Loopers",
        "event_total": 77,
        "has_played": true,
        "id": 63400412,
        "last_rank": 40503,
        "player_name": "bill roth",
        "rank": 24098,
        "rank_sort": 24193,
        "total": 2375
      },
      {
        "club_badge_src": null,
        "entry": 8160389,
        "entry_name": "Rendaliniho",
        "event_total": 64,
        "has_played": true,
        "id": 67365166,
        "last_rank": 26230,
        "player_name": "Emil Rendal",
        "rank": 24098,
        "rank_sort": 24194,
        "total": 2375
      },
      {
        "club_badge_src": null,
        "entry": 8309884,
        "entry_name": "Twiipe",
        "event_total": 67,
        "has_played": true,
        "id": 68814175,
        "last_rank": 33483,
        "player_name": "Carl L\u00f6fgren",
        "rank": 24098,
        "rank_sort": 24195,
        "total": 2375
      },
      {
        "club_badge_src": null,
        "entry": 8372703,
        "entry_name": "McFratmmm",
        "event_total": 53,
        "has_played": true,
        "id": 69420549,
        "last_rank": 20624,
        "player_name": "Fred Ringrose",
        "rank": 24098,
        "rank_sort": 24196,
        "total": 2375
      },
      {
        "club_badge_src": null,
        "entry": 8430658,
        "entry_name": "Hotspurs",
        "event_total": 67,
        "has_played": true,
        "id": 69971262,
        "last_rank": 29071,
        "player_name": "Sjur Gjeraker",
        "rank": 24098,
        "rank_sort": 24197,
        "total": 2375
      },
      {
        "club_badge_src": null,
        "entry": 8916132,
        "entry_name": "Ammar khalid",
        "event_total": 61,
        "has_played": true,
        "id": 74665819,
        "last_rank": 27304,
        "player_name": "\u0639\u0645\u0627\u0631 \u062e\u0627\u0644\u062f",
        "rank": 24098,
        "rank_sort": 24198,
        "total": 2375
      },
      {
        "club_badge_src": null,
        "entry": 13347,
        "entry_name": "Howells FC",
        "event_total": 69,
        "has_played": true,
        "id": 80569,
        "last_rank": 27203,
        "player_name": "James Howells",
        "rank": 24199,
        "rank_sort": 24199,
        "total": 2375
      },
      {
        "club_badge_src": null,
        "entry": 14059,
        "entry_name": "Silva Lining",
        "event_total": 60,
        "has_played": true,
        "id": 85200,
        "last_rank": 22921,
        "player_name": "Sagar Reddy",
        "rank": 24199,
        "rank_sort": 24200,
        "total": 2375
      }
    ]
  }
}