{
  "last_updated_data": "2026-05-24T23:28:17Z",
  "league": {
    "admin_entry": null,
    "closed": false,
    "code_privacy": "p",
    "created": "2025-07-20T23:14:33.933835Z",
    "cup_league": 2815434,
    "has_cup": true,
    "id": 314,
    "league_type": "s",
    "max_entries": null,
    "name": "Overall",
    "rank": null,
    "scoring": "c",
    "start_event": 1
  },
  "new_entries": {
    "has_next": false,
    "page": 1,
    "results": []
  },
  "standings": {
    "has_next": true,
    "page": 1288,
    "results": [
      {
        "club_badge_src": null,
        "entry": 1897436,
        "entry_name": "Skamst\u00f8tet",
        "event_total": 60,
        "has_played": true,
        "id": 13374557,
        "last_rank": 70757,
        "player_name": "Martin Fauskanger L\u00f8berg",
        "rank": 64222,
        "rank_sort": 64351,
        "total": 2343
      },
      {
        "club_badge_src": null,
        "entry": 1905812,
        "entry_name": "Dashiki",
        "event_total": 58,
        "has_played": true,
        "id": 13435473,
        "last_rank": 66848,
        "player_name": "Erik Nestorovic",
        "rank": 64222,
        "rank_sort": 64352,
        "total": 2343
      },
      {
        "club_badge_src": null,
        "entry": 1916016,
        "entry_name": "Dude where's michah?",
        "event_total": 57,
        "has_played": true,
        "id": 13509411,
        "last_rank": 65163,
        "player_name": "Raheese Tempest-Mitchell",
        "rank": 64222,
        "rank_sort": 64353,
        "total": 2343
      },
      {
        "club_badge_src": null,
        "entry": 1925066,
        "entry_name": "Bowen to win",
        "event_total": 72,
        "has_played": true,
        "id": 13576513,
        "last_rank": 98183,
        "player_name": "Nathan Podmore",
        "rank": 64222,
        "rank_sort": 64354,
        "total": 2343
      },
      {
        "club_badge_src": null,
        "entry": 1999163,
        "entry_name": "Machine Gun Skelly",
        "event_total": 66,
        "has_played": true,
        "id": 14129914,
        "last_rank": 83584,
        "player_name": "Archie Broadbent",
        "rank": 64222,
        "rank_sort": 64355,
        "total": 2343
      },
      {
        "club_badge_src": null,
        "entry": 2087148,
        "entry_name": "Wirtz of Wisdom",
        "event_total": 47,
        "has_played": true,
        "id": 14807379,
        "last_rank": 48197,
        "player_name": "Florian Ward",
        "rank": 64222,
        "rank_sort": 64356,
        "total": 2343
      },
      {
        "club_badge_src": null,
        "entry": 2134173,
        "entry_name": "Defcons galore",
        "event_total": 58,
        "has_played": true,
        "id": 15166530,
        "last_rank": 66738,
        "player_name": "Priyankan Biswas",
        "rank": 64222,
        "rank_sort": 64357,
        "total": 2343
      },
      {
        "club_badge_src": "https://fantasy.premierleague.com/gcs/plfpl-production-adobe-approved/plfpl-production/2164628/1ee1a0a8-9a80-41c0-ba42-18013ffaa84d.png",
        "entry": 2164628,
        "entry_name": "ALL3rG ready",
        "event_total": 62,
        "has_played": true,
        "id": 15388201,
        "last_rank": 74787,
        "player_name": "Robin Thakurdin",
        "rank": 64222,
        "rank_sort": 64358,
        "total": 2343
      },
      {
        "club_badge_src": "https://fantasy.premierleague.com/gcs/plfpl-production-adobe-approved/plfpl-production/2172833/3e08bfcd-1481-4bdf-8095-2953a3e44c45.png",
        "entry": 2172833,
        "entry_name": "Purple Ice",
        "event_total": 72,
        "has_played": true,
        "id": 15449901,
        "last_rank": 98183,
        "player_name": "Basil Ibrahim",
        "rank": 64222,
        "rank_sort": 64359,
        "total": 2343
      },
      {
        "club_badge_src": null,
        "entry": 2237853,
        "entry_name": "Major League Saka",
        "event_total": 50,
        "has_played": true,
        "id": 15942562,
        "last_rank": 53023,
        "player_name": "Eugene Wong",
        "rank": 64222,
        "rank_sort": 64360,
        "total": 2343
      },
      {
        "club_badge_src": null,
        "entry": 2242529,
        "entry_name": "RickiRage",
        "event_total": 41,
        "has_played": true,
        "id": 15976739,
        "last_rank": 40036,
        "player_name": "ricki dalitz",
        "rank": 64222,
        "rank_sort": 64361,
        "total": 2343
      },
      {
        "club_badge_src": null,
        "entry": 2252581,
        "entry_name": "Send Town",
        "event_total": 68,
        "has_played": true,
        "id": 16053440,
        "last_rank": 88594,
        "player_name": "Gaz White",
        "rank": 64222,
        "rank_sort": 64362,
        "total": 2343
      },
      {
        "club_badge_src": null,
        "entry": 2255283,
        "entry_name": "Juventus",
        "event_total": 57,
        "has_played": true,
        "id": 16076224,
        "last_rank": 65475,
        "player_name": "Maks Taranov",
        "rank": 64222,
        "rank_sort": 64363,
        "total": 2343
      },
      {
        "club_badge_src": null,
        "entry": 2266914,
        "entry_name": "Kinder Mbeumo",
        "event_total": 60,
        "has_played": true,
        "id": 16163558,
        "last_rank": 70985,
        "player_name": "Paul Delany",
        "rank": 64222,
        "rank_sort": 64364,
        "total": 2343
      },
      {
        "club_badge_src": null,
        "entry": 2282543,
        "entry_name": "PalmermyHand",
        "event_total": 76,
        "has_played": true,
        "id": 16277417,
        "last_rank": 108452,
        "player_name": "Mo Fiidshe",
        "rank": 64222,
        "rank_sort": 64365,
        "total": 2343
      },
      {
        "club_badge_src": null,
        "entry": 2292899,
        "entry_name": "The Amorim Dream",
        "event_total": 62,
        "has_played": true,
        "id": 16353037,
        "last_rank": 66738,
        "player_name": "Mohammad Alshatti",
        "rank": 64222,
        "rank_sort": 64366,
        "total": 2343
      },
      {
        "club_badge_src": null,
        "entry": 2313980,
        "entry_name": "Definitely Zubimendi",
        "event_total": 52,
        "has_played": true,
        "id": 16506556,
        "last_rank": 56180,
        "player_name": "Ben Griffiths",
        "rank": 64222,
        "rank_sort": 64367,
        "total": 2343
      },
      {
        "club_badge_src": null,
        "entry": 2386795,
        "entry_name": "Reggae Boyz",
        "event_total": 29,
        "has_played": true,
        "id": 17047830,
        "last_rank": 26827,
        "player_name": "Mr Abeezy",
        "rank": 64222,
        "rank_sort": 64368,
        "total": 2343
      },
      {
        "club_badge_src": null,
        "entry": 2390095,
        "entry_name": "Chewventus",
        "event_total": 59,
        "has_played": true,
        "id": 17072817,
        "last_rank": 68624,
        "player_name": "Chewie Stevenson",
        "rank": 64222,
        "rank_sort": 64369,
        "total": 2343
      },
      {
        "club_badge_src": null,
        "entry": 2404075,
        "entry_name": "High Fliers",
        "event_total": 64,
        "has_played": true,
        "id": 17183354,
        "last_rank": 78997,
        "player_name": "Aleksandar Rankovi\u0107",
        "rank": 64222,
        "rank_sort": 64370,
        "total": 2343
      },
      {
        "club_badge_src": null,
        "entry": 2432966,
        "entry_name": "Alobaidi",
        "event_total": 55,
        "has_played": true,
        "id": 17397636,
        "last_rank": 61606,
        "player_name": "Ali Laith",
        "rank": 64222,
        "rank_sort": 64371,
        "total": 2343
      },
      {
        "club_badge_src": null,
        "entry": 2441699,
        "entry_name": "brahim",
        "event_total": 80,
        "has_played": true,
        "id": 17462331,
        "last_rank": 120941,
        "player_name": "Br\u00e3h\u00efm Mgh\u00e3r\u00ef",
        "rank": 64222,
        "rank_sort": 64372,
        "total": 2343
      },
      {
        "club_badge_src": null,
        "entry": 2461158,
        "entry_name": "Pretty to watch",
        "event_total": 63,
        "has_played": true,
        "id": 17604398,
        "last_rank": 77258,
        "player_name": "Ben Starr",
        "rank": 64222,
        "rank_sort": 64373,
        "total": 2343
      },
      {
        "club_badge_src": null,
        "entry": 2526125,
        "entry_name": "ilyesmsd",
        "event_total": 59,
        "has_played": true,
        "id": 18101108,
        "last_rank": 68748,
        "player_name": "Ilyes Messadi",
        "rank": 64222,
        "rank_sort": 64374,
        "total": 2343
      },
      {
        "club_badge_src": "https://fantasy.premierleague.com/gcs/plfpl-production-adobe-approved/plfpl-production/2554752/c9c3cbf9-86b2-4d9a-8da4-285b23314fb4.png",
        "entry": 2554752,
        "entry_name": "Hus/hotell/Slot",
        "event_total": 55,
        "has_played": true,
        "id": 18318710,
        "last_rank": 61315,
        "player_name": "Narve Wilsgaard",
        "rank": 64222,
        "rank_sort": 64375,
        "total": 2343
      },
      {
        "club_badge_src": null,
        "entry": 2629859,
        "entry_name": "Beef Cherki",
        "event_total": 69,
        "has_played": true,
        "id": 18899490,
        "last_rank": 91006,
        "player_name": "Joshua Robinson",
        "rank": 64222,
        "rank_sort": 64376,
        "total": 2343
      },
      {
        "club_badge_src": null,
        "entry": 2711432,
        "entry_name": "Honey's Angels",
        "event_total": 65,
        "has_played": true,
        "id": 19508422,
        "last_rank": 81646,
        "player_name": "Michael Burke",
        "rank": 64222,
        "rank_sort": 64377,
        "total": 2343
      },
      {
        "club_badge_src": null,
        "entry": 2730986,
        "entry_name": "CF DARBI",
        "event_total": 49,
        "has_played": true,
        "id": 19652744,
        "last_rank": 51403,
        "player_name": "Shaafici Shafinho",
        "rank": 64222,
        "rank_sort": 64378,
        "total": 2343
      },
      {
        "club_badge_src": null,
        "entry": 2750555,
        "entry_name": "Tuna team",
        "event_total": 50,
        "has_played": true,
        "id": 19979510,
        "last_rank": 52853,
        "player_name": "Tuan Nghia Vu",
        "rank": 64222,
        "rank_sort": 64379,
        "total": 2343
      },
      {
        "club_badge_src": null,
        "entry": 2768256,
        "entry_name": "Palmer My Hand",
        "event_total": 60,
        "has_played": true,
        "id": 20197353,
        "last_rank": 70985,
        "player_name": "Luke Farrell",
        "rank": 64222,
        "rank_sort": 64380,
        "total": 2343
      },
      {
        "club_badge_src": "https://fantasy.premierleague.com/gcs/plfpl-production-adobe-approved/plfpl-production/2827358/6f04dc07-23c1-4645-b8ac-33a2133ad7af.png",
        "entry": 2827358,
        "entry_name": "RWAMUTASYA FC",
        "event_total": 53,
        "has_played": true,
        "id": 20657927,
        "last_rank": 58071,
        "player_name": "kihango solutions ltd",
        "rank": 64222,
        "rank_sort": 64381,
        "total": 2343
      },
      {
        "club_badge_src": null,
        "entry": 2834783,
        "entry_name": "Morata XI",
        "event_total": 45,
        "has_played": true,
        "id": 20715829,
        "last_rank": 45416,
        "player_name": "Nils Andersson",
        "rank": 64222,
        "rank_sort": 64382,
        "total": 2343
      },
      {
        "club_badge_src": null,
        "entry": 2838796,
        "entry_name": "Paper Hands",
        "event_total": 66,
        "has_played": true,
        "id": 20746934,
        "last_rank": 83698,
        "player_name": "Erik Holmstr\u00f6m",
        "rank": 64222,
        "rank_sort": 64383,
        "total": 2343
      },
      {
        "club_badge_src": null,
        "entry": 2865427,
        "entry_name": "\u00f8de toilette",
        "event_total": 56,
        "has_played": true,
        "id": 20957005,
        "last_rank": 63201,
        "player_name": "Jacob Wiberg",
        "rank": 64222,
        "rank_sort": 64384,
        "total": 2343
      },
      {
        "club_badge_src": null,
        "entry": 2962779,
        "entry_name": "Old Havertz Kai Hard",
        "event_total": 68,
        "has_played": true,
        "id": 21764773,
        "last_rank": 88348,
        "player_name": "Ky Evans-Beale",
        "rank": 64222,
        "rank_sort": 64385,
        "total": 2343
      },
      {
        "club_badge_src": null,
        "entry": 2964184,
        "entry_name": "Ezri Kabsa",
        "event_total": 64,
        "has_played": true,
        "id": 21775453,
        "last_rank": 79431,
        "player_name": "Samad Chowdhury",
        "rank": 64222,
        "rank_sort": 64386,
        "total": 2343
      },
      {
        "club_badge_src": null,
        "entry": 2978364,
        "entry_name": "p\u018e\u2534IN\u2229 NMOp \u018epIS\u0500\u2229",
        "event_total": 69,
        "has_played": true,
        "id": 21893742,
        "last_rank": 90565,
        "player_name": "Paul Cooke",
        "rank": 64222,
        "rank_sort": 64387,
        "total": 2343
      },
      {
        "club_badge_src": null,
        "entry": 2991513,
        "entry_name": "NCFC",
        "event_total": 70,
        "has_played": true,
        "id": 22001193,
        "last_rank": 93443,
        "player_name": "Niall Cave",
        "rank": 64222,
        "rank_sort": 64388,
        "total": 2343
      },
      {
        "club_badge_src": null,
        "entry": 3000593,
        "entry_name": "Eze does it...",
        "event_total": 50,
        "has_played": true,
        "id": 22070530,
        "last_rank": 46591,
        "player_name": "Conn Byrne",
        "rank": 64222,
        "rank_sort": 64389,
        "total": 2343
      },
      {
        "club_badge_src": null,
        "entry": 3007098,
        "entry_name": "DJ's Dodgers",
        "event_total": 46,
        "has_played": true,
        "id": 22120708,
        "last_rank": 46839,
        "player_name": "Adrian Williams",
        "rank": 64222,
        "rank_sort": 64390,
        "total": 2343
      },
      {
        "club_badge_src": null,
        "entry": 3044492,
        "entry_name": "Sprek IL",
        "event_total": 35,
        "has_played": true,
        "id": 22409987,
        "last_rank": 32879,
        "player_name": "Daniel Bech",
        "rank": 64222,
        "rank_sort": 64391,
        "total": 2343
      },
      {
        "club_badge_src": null,
        "entry": 3049829,
        "entry_name": "Onana a titular",
        "event_total": 51,
        "has_played": true,
        "id": 22451941,
        "last_rank": 54416,
        "player_name": "Duarte Pontes",
        "rank": 64222,
        "rank_sort": 64392,
        "total": 2343
      },
      {
        "club_badge_src": null,
        "entry": 3075334,
        "entry_name": "Palmer Violet",
        "event_total": 59,
        "has_played": true,
        "id": 22651621,
        "last_rank": 68957,
        "player_name": "Amy Italiano",
        "rank": 64222,
        "rank_sort": 64393,
        "total": 2343
      },
      {
        "club_badge_src": null,
        "entry": 3140685,
        "entry_name": "BrunonononoFC",
        "event_total": 58,
        "has_played": true,
        "id": 23186090,
        "last_rank": 67063,
        "player_name": "Nakul Kakkar",
        "rank": 64222,
        "rank_sort": 64394,
        "total": 2343
      },
      {
        "club_badge_src": null,
        "entry": 3172572,
        "entry_name": "IcniVaD",
        "event_total": 58,
        "has_played": true,
        "id": 23440758,
        "last_rank": 66738,
        "player_name": "Michel Angelo",
        "rank": 64222,
        "rank_sort": 64395,
        "total": 2343
      },
      {
        "club_badge_src": null,
        "entry": 3271125,
        "entry_name": "Milo Dinosaur",
        "event_total": 69,
        "has_played": true,
        "id": 24207655,
        "last_rank": 90625,
        "player_name": "Ezzami Ellias",
        "rank": 64222,
        "rank_sort": 64396,
        "total": 2343
      },
      {
        "club_badge_src": null,
        "entry": 3282036,
        "entry_name": "panel Beaters",
        "event_total": 60,
        "has_played": true,
        "id": 24293925,
        "last_rank": 70757,
        "player_name": "Spencer Prior",
        "rank": 64222,
        "rank_sort": 64397,
        "total": 2343
      },
      {
        "club_badge_src": null,
        "entry": 3288096,
        "entry_name": "Nikalilah",
        "event_total": 77,
        "has_played": true,
        "id": 24342371,
        "last_rank": 111669,
        "player_name": "DR J",
        "rank": 64222,
        "rank_sort": 64398,
        "total": 2343
      },
      {
        "club_badge_src": null,
        "entry": 3291608,
        "entry_name": "Tellcyco 15",
        "event_total": 70,
        "has_played": true,
        "id": 24371446,
        "last_rank": 93186,
        "player_name": "Tellcy Paul",
        "rank": 64222,
        "rank_sort": 64399,
        "total": 2343
      },
      {
        "club_badge_src": null,
        "entry": 3307155,
        "entry_name": "Tim o Walis",
        "event_total": 74,
        "has_played": true,
        "id": 24497802,
        "last_rank": 103254,
        "player_name": "ian rogers",
        "rank": 64222,
        "rank_sort": 64400,
        "total": 2343
      }
    ]
  }
}