{
  "last_updated_data": "2026-05-24T23:28:17Z",
  "league": {
    "admin_entry": null,
    "closed": false,
    "code_privacy": "p",
    "created": "2025-07-20T23:14:33.933835Z",
    "cup_league": 2815434,
    "has_cup": true,
    "id": 314,
    "league_type": "s",
    "max_entries": null,
    "name": "Overall",
    "rank": null,
    "scoring": "c",
    "start_event": 1
  },
  "new_entries": {
    "has_next": false,
    "page": 1,
    "results": []
  },
  "standings": {
    "has_next": true,
    "page": 55,
    "results": [
      {
        "club_badge_src": null,
        "entry": 1823847,
        "entry_name": "YC",
        "event_total": 66,
        "has_played": true,
        "id": 12827697,
        "last_rank": 3103,
        "player_name": "Yeet Chien Tan",
        "rank": 2683,
        "rank_sort": 2701,
        "total": 2428
      },
      {
        "club_badge_src": null,
        "entry": 2063136,
        "entry_name": "CF Porto",
        "event_total": 59,
        "has_played": true,
        "id": 14618997,
        "last_rank": 2685,
        "player_name": "Christian Forde",
        "rank": 2683,
        "rank_sort": 2702,
        "total": 2428
      },
      {
        "club_badge_src": null,
        "entry": 2290210,
        "entry_name": "victor ledgerlof",
        "event_total": 66,
        "has_played": true,
        "id": 16333488,
        "last_rank": 3721,
        "player_name": "Lawrence Bibby",
        "rank": 2683,
        "rank_sort": 2703,
        "total": 2428
      },
      {
        "club_badge_src": null,
        "entry": 2329599,
        "entry_name": "Half the World (A)",
        "event_total": 66,
        "has_played": true,
        "id": 16620778,
        "last_rank": 3103,
        "player_name": "Hugo Corin",
        "rank": 2683,
        "rank_sort": 2704,
        "total": 2428
      },
      {
        "club_badge_src": "https://fantasy.premierleague.com/gcs/plfpl-production-adobe-approved/plfpl-production/2392591/79894092-746f-4ddb-8427-7dae41f327d2.png",
        "entry": 2392591,
        "entry_name": "BogeyPoints",
        "event_total": 66,
        "has_played": true,
        "id": 17091321,
        "last_rank": 3765,
        "player_name": "Marius Lunde",
        "rank": 2683,
        "rank_sort": 2705,
        "total": 2428
      },
      {
        "club_badge_src": null,
        "entry": 2836994,
        "entry_name": "Hell In Lascelles",
        "event_total": 68,
        "has_played": true,
        "id": 20733124,
        "last_rank": 4099,
        "player_name": "Jacob Halsall",
        "rank": 2683,
        "rank_sort": 2706,
        "total": 2428
      },
      {
        "club_badge_src": null,
        "entry": 4032248,
        "entry_name": "Denavat",
        "event_total": 52,
        "has_played": true,
        "id": 30399275,
        "last_rank": 1856,
        "player_name": "Janne Kippola",
        "rank": 2683,
        "rank_sort": 2707,
        "total": 2428
      },
      {
        "club_badge_src": null,
        "entry": 4512694,
        "entry_name": "Bruno Reverse",
        "event_total": 61,
        "has_played": true,
        "id": 34410628,
        "last_rank": 2418,
        "player_name": "Craig Hirst",
        "rank": 2683,
        "rank_sort": 2708,
        "total": 2428
      },
      {
        "club_badge_src": null,
        "entry": 4849479,
        "entry_name": "ZM",
        "event_total": 58,
        "has_played": true,
        "id": 37362206,
        "last_rank": 2088,
        "player_name": "Mohamed Abdallah",
        "rank": 2683,
        "rank_sort": 2709,
        "total": 2428
      },
      {
        "club_badge_src": null,
        "entry": 5333992,
        "entry_name": "that's a paddlin'",
        "event_total": 67,
        "has_played": true,
        "id": 41352522,
        "last_rank": 3902,
        "player_name": "Guz Samra",
        "rank": 2683,
        "rank_sort": 2710,
        "total": 2428
      },
      {
        "club_badge_src": null,
        "entry": 5555411,
        "entry_name": "XOXO",
        "event_total": 72,
        "has_played": true,
        "id": 43363381,
        "last_rank": 4954,
        "player_name": "Nitin Belhekar",
        "rank": 2683,
        "rank_sort": 2711,
        "total": 2428
      },
      {
        "club_badge_src": null,
        "entry": 5775242,
        "entry_name": "Walter E. Wirtz",
        "event_total": 64,
        "has_played": true,
        "id": 45281350,
        "last_rank": 2824,
        "player_name": "Jesse Fox",
        "rank": 2683,
        "rank_sort": 2712,
        "total": 2428
      },
      {
        "club_badge_src": null,
        "entry": 6096298,
        "entry_name": "Hacunha Mateta FC",
        "event_total": 70,
        "has_played": true,
        "id": 48143907,
        "last_rank": 4515,
        "player_name": "Nishan Thapa",
        "rank": 2683,
        "rank_sort": 2713,
        "total": 2428
      },
      {
        "club_badge_src": null,
        "entry": 7248748,
        "entry_name": "What\u2019s Rob Holding",
        "event_total": 72,
        "has_played": true,
        "id": 58592248,
        "last_rank": 4954,
        "player_name": "Jordan Yaxley",
        "rank": 2683,
        "rank_sort": 2714,
        "total": 2428
      },
      {
        "club_badge_src": null,
        "entry": 33031,
        "entry_name": "Spenerbah\u00e7e SK",
        "event_total": 58,
        "has_played": true,
        "id": 210447,
        "last_rank": 2088,
        "player_name": "Spencer Clarke-Stafford",
        "rank": 2715,
        "rank_sort": 2715,
        "total": 2428
      },
      {
        "club_badge_src": null,
        "entry": 345538,
        "entry_name": "alberts chippy",
        "event_total": 61,
        "has_played": true,
        "id": 2313025,
        "last_rank": 3007,
        "player_name": "Tony richardson",
        "rank": 2715,
        "rank_sort": 2716,
        "total": 2428
      },
      {
        "club_badge_src": null,
        "entry": 357403,
        "entry_name": "RUDES FC",
        "event_total": 68,
        "has_played": true,
        "id": 2391783,
        "last_rank": 4186,
        "player_name": "Luka Rudan",
        "rank": 2715,
        "rank_sort": 2717,
        "total": 2428
      },
      {
        "club_badge_src": "https://fantasy.premierleague.com/gcs/plfpl-production-adobe-approved/plfpl-production/554223/767290af-d99d-4173-a28e-3639b87221dd.png",
        "entry": 554223,
        "entry_name": "Rothesay Town",
        "event_total": 59,
        "has_played": true,
        "id": 3730182,
        "last_rank": 2731,
        "player_name": "David Lewis",
        "rank": 2715,
        "rank_sort": 2718,
        "total": 2428
      },
      {
        "club_badge_src": null,
        "entry": 639427,
        "entry_name": "I Baleba Can Fly",
        "event_total": 59,
        "has_played": true,
        "id": 4321458,
        "last_rank": 2731,
        "player_name": "Mohammed Jawad",
        "rank": 2715,
        "rank_sort": 2719,
        "total": 2428
      },
      {
        "club_badge_src": "https://fantasy.premierleague.com/gcs/plfpl-production-adobe-approved/plfpl-production/645527/e87091a1-a2db-46c1-8a6e-f6d1b3a18af3.png",
        "entry": 645527,
        "entry_name": "Analni Komandosi III",
        "event_total": 58,
        "has_played": true,
        "id": 4362389,
        "last_rank": 2112,
        "player_name": "Zvonimir Blasko",
        "rank": 2715,
        "rank_sort": 2720,
        "total": 2428
      },
      {
        "club_badge_src": null,
        "entry": 649464,
        "entry_name": "Stone Cole Palmer",
        "event_total": 65,
        "has_played": true,
        "id": 4389234,
        "last_rank": 3007,
        "player_name": "Neil Trotter",
        "rank": 2715,
        "rank_sort": 2721,
        "total": 2428
      },
      {
        "club_badge_src": null,
        "entry": 672091,
        "entry_name": "Come back is coming",
        "event_total": 68,
        "has_played": true,
        "id": 4546068,
        "last_rank": 4155,
        "player_name": "Yauheni Minchuk",
        "rank": 2715,
        "rank_sort": 2722,
        "total": 2428
      },
      {
        "club_badge_src": "https://fantasy.premierleague.com/gcs/plfpl-production-adobe-approved/plfpl-production/905951/417cd09c-45e1-46b2-815a-ebcc4504af79.png",
        "entry": 905951,
        "entry_name": "ZARATEAM",
        "event_total": 77,
        "has_played": true,
        "id": 6226754,
        "last_rank": 5173,
        "player_name": "Anton Delchev",
        "rank": 2715,
        "rank_sort": 2723,
        "total": 2428
      },
      {
        "club_badge_src": "https://fantasy.premierleague.com/gcs/plfpl-production-adobe-approved/plfpl-production/1097041/8cbc8989-b2e1-449c-8451-2a28c389f665.png",
        "entry": 1097041,
        "entry_name": "Life Aquatic Zug",
        "event_total": 60,
        "has_played": true,
        "id": 7598535,
        "last_rank": 2891,
        "player_name": "Steve Lamarra",
        "rank": 2715,
        "rank_sort": 2724,
        "total": 2428
      },
      {
        "club_badge_src": "https://fantasy.premierleague.com/gcs/plfpl-production-adobe-approved/plfpl-production/1796018/b1482d4c-9307-4815-8744-1fdc05f79bd5.png",
        "entry": 1796018,
        "entry_name": "Natta",
        "event_total": 54,
        "has_played": true,
        "id": 12621193,
        "last_rank": 1712,
        "player_name": "Nattawut Saichan",
        "rank": 2715,
        "rank_sort": 2725,
        "total": 2428
      },
      {
        "club_badge_src": null,
        "entry": 2100626,
        "entry_name": "Charli xGx",
        "event_total": 58,
        "has_played": true,
        "id": 14904874,
        "last_rank": 2112,
        "player_name": "Seamus Hennigan",
        "rank": 2715,
        "rank_sort": 2726,
        "total": 2428
      },
      {
        "club_badge_src": null,
        "entry": 2182866,
        "entry_name": "typp\u00f6ne",
        "event_total": 63,
        "has_played": true,
        "id": 15526684,
        "last_rank": 3302,
        "player_name": "Tuomas Aro-Koivisto",
        "rank": 2715,
        "rank_sort": 2727,
        "total": 2428
      },
      {
        "club_badge_src": null,
        "entry": 2426398,
        "entry_name": "LEVSKI_1914",
        "event_total": 70,
        "has_played": true,
        "id": 17349468,
        "last_rank": 4570,
        "player_name": "Venzislav Todorov",
        "rank": 2715,
        "rank_sort": 2728,
        "total": 2428
      },
      {
        "club_badge_src": null,
        "entry": 2712696,
        "entry_name": "citizens 25",
        "event_total": 64,
        "has_played": true,
        "id": 19517473,
        "last_rank": 3462,
        "player_name": "Trond Wifstad",
        "rank": 2715,
        "rank_sort": 2729,
        "total": 2428
      },
      {
        "club_badge_src": null,
        "entry": 3456775,
        "entry_name": "Jamreidxi",
        "event_total": 72,
        "has_played": true,
        "id": 25692556,
        "last_rank": 5011,
        "player_name": "Joe Reid",
        "rank": 2715,
        "rank_sort": 2730,
        "total": 2428
      },
      {
        "club_badge_src": null,
        "entry": 3735958,
        "entry_name": "Wonga Warriors",
        "event_total": 65,
        "has_played": true,
        "id": 27886734,
        "last_rank": 3627,
        "player_name": "Jack Pawson",
        "rank": 2715,
        "rank_sort": 2731,
        "total": 2428
      },
      {
        "club_badge_src": null,
        "entry": 4158155,
        "entry_name": "SHIHAS CHELSEA",
        "event_total": 82,
        "has_played": true,
        "id": 31433832,
        "last_rank": 6528,
        "player_name": "Shihas Mvr",
        "rank": 2715,
        "rank_sort": 2732,
        "total": 2428
      },
      {
        "club_badge_src": null,
        "entry": 4524234,
        "entry_name": "Mbuemotown Rats",
        "event_total": 43,
        "has_played": true,
        "id": 34505500,
        "last_rank": 1209,
        "player_name": "Jack Byrne",
        "rank": 2715,
        "rank_sort": 2733,
        "total": 2428
      },
      {
        "club_badge_src": null,
        "entry": 7384534,
        "entry_name": "LUNDSTRAM",
        "event_total": 68,
        "has_played": true,
        "id": 59868303,
        "last_rank": 4186,
        "player_name": "Med El Ferrag",
        "rank": 2715,
        "rank_sort": 2734,
        "total": 2428
      },
      {
        "club_badge_src": null,
        "entry": 169698,
        "entry_name": "Kan FC",
        "event_total": 49,
        "has_played": true,
        "id": 1121381,
        "last_rank": 1096,
        "player_name": "Vince Kan",
        "rank": 2735,
        "rank_sort": 2735,
        "total": 2428
      },
      {
        "club_badge_src": null,
        "entry": 877481,
        "entry_name": "Flying Puddlestomper",
        "event_total": 68,
        "has_played": true,
        "id": 6016003,
        "last_rank": 3462,
        "player_name": "Jason Bell",
        "rank": 2735,
        "rank_sort": 2736,
        "total": 2428
      },
      {
        "club_badge_src": null,
        "entry": 1059939,
        "entry_name": "Hulk",
        "event_total": 66,
        "has_played": true,
        "id": 7335562,
        "last_rank": 3175,
        "player_name": "Nawaf Fahad",
        "rank": 2735,
        "rank_sort": 2737,
        "total": 2428
      },
      {
        "club_badge_src": null,
        "entry": 1464539,
        "entry_name": "Kinder Mbuemo",
        "event_total": 57,
        "has_played": true,
        "id": 10208496,
        "last_rank": 2482,
        "player_name": "Lukas Holtz",
        "rank": 2735,
        "rank_sort": 2738,
        "total": 2428
      },
      {
        "club_badge_src": null,
        "entry": 1529858,
        "entry_name": "Howay The Lads",
        "event_total": 59,
        "has_played": true,
        "id": 10675777,
        "last_rank": 2762,
        "player_name": "Richard Collins",
        "rank": 2735,
        "rank_sort": 2739,
        "total": 2428
      },
      {
        "club_badge_src": "https://fantasy.premierleague.com/gcs/plfpl-production-adobe-approved/plfpl-production/1793958/73776bd8-ce1d-4e9c-82f3-4270baa92293.png",
        "entry": 1793958,
        "entry_name": "Riders of Rohan",
        "event_total": 49,
        "has_played": true,
        "id": 12606357,
        "last_rank": 1656,
        "player_name": "Rohan Ubhi",
        "rank": 2735,
        "rank_sort": 2740,
        "total": 2428
      },
      {
        "club_badge_src": null,
        "entry": 2170710,
        "entry_name": "Amarry",
        "event_total": 63,
        "has_played": true,
        "id": 15434295,
        "last_rank": 3331,
        "player_name": "Prakash G",
        "rank": 2735,
        "rank_sort": 2741,
        "total": 2428
      },
      {
        "club_badge_src": null,
        "entry": 3158456,
        "entry_name": "Eze Come Eze Go",
        "event_total": 43,
        "has_played": true,
        "id": 23329864,
        "last_rank": 1212,
        "player_name": "Dylan Donnelly",
        "rank": 2735,
        "rank_sort": 2742,
        "total": 2428
      },
      {
        "club_badge_src": null,
        "entry": 4922169,
        "entry_name": "Berry Good Boys",
        "event_total": 69,
        "has_played": true,
        "id": 37966113,
        "last_rank": 4394,
        "player_name": "Jamie Berryman",
        "rank": 2735,
        "rank_sort": 2743,
        "total": 2428
      },
      {
        "club_badge_src": null,
        "entry": 5032499,
        "entry_name": "United Ajerland",
        "event_total": 57,
        "has_played": true,
        "id": 38869618,
        "last_rank": 2027,
        "player_name": "Caomh\u00e1n \u00d3 Braon\u00e1in",
        "rank": 2735,
        "rank_sort": 2744,
        "total": 2428
      },
      {
        "club_badge_src": null,
        "entry": 6298786,
        "entry_name": "Rub of the Green",
        "event_total": 50,
        "has_played": true,
        "id": 49929733,
        "last_rank": 1734,
        "player_name": "Aaron Cundelan",
        "rank": 2735,
        "rank_sort": 2745,
        "total": 2428
      },
      {
        "club_badge_src": null,
        "entry": 7257780,
        "entry_name": "Kalasbrallorna",
        "event_total": 65,
        "has_played": true,
        "id": 58679456,
        "last_rank": 3648,
        "player_name": "Jonas Kalas",
        "rank": 2735,
        "rank_sort": 2746,
        "total": 2428
      },
      {
        "club_badge_src": null,
        "entry": 7605973,
        "entry_name": "FC Hankarinne",
        "event_total": 76,
        "has_played": true,
        "id": 62318694,
        "last_rank": 6061,
        "player_name": "Elias Merikanto",
        "rank": 2735,
        "rank_sort": 2747,
        "total": 2428
      },
      {
        "club_badge_src": null,
        "entry": 349721,
        "entry_name": "Northern Monkeys",
        "event_total": 69,
        "has_played": true,
        "id": 2340674,
        "last_rank": 4431,
        "player_name": "Mark Exton",
        "rank": 2748,
        "rank_sort": 2748,
        "total": 2428
      },
      {
        "club_badge_src": null,
        "entry": 963320,
        "entry_name": "Damlupin",
        "event_total": 63,
        "has_played": true,
        "id": 6638699,
        "last_rank": 3350,
        "player_name": "Damian \u0141upi\u0144ski",
        "rank": 2748,
        "rank_sort": 2749,
        "total": 2428
      },
      {
        "club_badge_src": "https://fantasy.premierleague.com/gcs/plfpl-production-adobe-approved/plfpl-production/1242090/cd5cd450-cf24-4907-9686-f3c1a406e872.png",
        "entry": 1242090,
        "entry_name": "Frimpong & Prosper",
        "event_total": 72,
        "has_played": true,
        "id": 8626182,
        "last_rank": 4205,
        "player_name": "Catherine Cardus",
        "rank": 2748,
        "rank_sort": 2750,
        "total": 2428
      }
    ]
  }
}