{
  "last_updated_data": "2026-05-24T23:28:17Z",
  "league": {
    "admin_entry": null,
    "closed": false,
    "code_privacy": "p",
    "created": "2025-07-20T23:14:33.933835Z",
    "cup_league": 2815434,
    "has_cup": true,
    "id": 314,
    "league_type": "s",
    "max_entries": null,
    "name": "Overall",
    "rank": null,
    "scoring": "c",
    "start_event": 1
  },
  "new_entries": {
    "has_next": false,
    "page": 1,
    "results": []
  },
  "standings": {
    "has_next": true,
    "page": 466,
    "results": [
      {
        "club_badge_src": null,
        "entry": 5368925,
        "entry_name": "The Sandy Loulous",
        "event_total": 58,
        "has_played": true,
        "id": 41714415,
        "last_rank": 20416,
        "player_name": "Sandra Himberg",
        "rank": 23151,
        "rank_sort": 23251,
        "total": 2376
      },
      {
        "club_badge_src": null,
        "entry": 5472887,
        "entry_name": "ADEWO",
        "event_total": 87,
        "has_played": true,
        "id": 42603028,
        "last_rank": 60168,
        "player_name": "Andrew Wheeler-Omiunu",
        "rank": 23151,
        "rank_sort": 23252,
        "total": 2376
      },
      {
        "club_badge_src": null,
        "entry": 5623601,
        "entry_name": "All About Luck",
        "event_total": 64,
        "has_played": true,
        "id": 43961636,
        "last_rank": 25172,
        "player_name": "christopher O'Sullivan",
        "rank": 23151,
        "rank_sort": 23253,
        "total": 2376
      },
      {
        "club_badge_src": null,
        "entry": 5707403,
        "entry_name": "Tamim",
        "event_total": 80,
        "has_played": true,
        "id": 44691753,
        "last_rank": 48363,
        "player_name": "Tamim Alshabaan",
        "rank": 23151,
        "rank_sort": 23254,
        "total": 2376
      },
      {
        "club_badge_src": null,
        "entry": 5732916,
        "entry_name": "Ctrl Alt de Ligt",
        "event_total": 67,
        "has_played": true,
        "id": 44913363,
        "last_rank": 27976,
        "player_name": "Joe Parker",
        "rank": 23151,
        "rank_sort": 23255,
        "total": 2376
      },
      {
        "club_badge_src": "https://fantasy.premierleague.com/gcs/plfpl-production-adobe-approved/plfpl-production/5774380/703c42de-0628-415c-a4e4-10696fc83386.png",
        "entry": 5774380,
        "entry_name": "The Butcher",
        "event_total": 73,
        "has_played": true,
        "id": 45273843,
        "last_rank": 38774,
        "player_name": "Tobi Faniran",
        "rank": 23151,
        "rank_sort": 23256,
        "total": 2376
      },
      {
        "club_badge_src": "https://fantasy.premierleague.com/gcs/plfpl-production-adobe-approved/plfpl-production/5811902/7a969d44-ca29-44c3-bc40-1001bd575bd0.png",
        "entry": 5811902,
        "entry_name": "Too Eze",
        "event_total": 52,
        "has_played": true,
        "id": 45603243,
        "last_rank": 19103,
        "player_name": "Massimo Santucci",
        "rank": 23151,
        "rank_sort": 23257,
        "total": 2376
      },
      {
        "club_badge_src": null,
        "entry": 5853555,
        "entry_name": "Bruno FC",
        "event_total": 56,
        "has_played": true,
        "id": 45959567,
        "last_rank": 22064,
        "player_name": "Uzair Amirat",
        "rank": 23151,
        "rank_sort": 23258,
        "total": 2376
      },
      {
        "club_badge_src": null,
        "entry": 5927707,
        "entry_name": "Sunshine @ UTD",
        "event_total": 66,
        "has_played": true,
        "id": 46597671,
        "last_rank": 27020,
        "player_name": "Sunny Bajracharya",
        "rank": 23151,
        "rank_sort": 23259,
        "total": 2376
      },
      {
        "club_badge_src": null,
        "entry": 6089400,
        "entry_name": "Harvey AI Elliott",
        "event_total": 53,
        "has_played": true,
        "id": 48084602,
        "last_rank": 19721,
        "player_name": "Bradley Lindsay",
        "rank": 23151,
        "rank_sort": 23260,
        "total": 2376
      },
      {
        "club_badge_src": "https://fantasy.premierleague.com/gcs/plfpl-production-adobe-approved/plfpl-production/6114192/d526be38-7aff-497d-97b5-18a8b0f6623a.png",
        "entry": 6114192,
        "entry_name": "RealMenWearOrange",
        "event_total": 70,
        "has_played": true,
        "id": 48299841,
        "last_rank": 35768,
        "player_name": "Harald Noorland",
        "rank": 23151,
        "rank_sort": 23261,
        "total": 2376
      },
      {
        "club_badge_src": null,
        "entry": 6325151,
        "entry_name": "Maccas Yakkas",
        "event_total": 65,
        "has_played": true,
        "id": 50245622,
        "last_rank": 26088,
        "player_name": "Jack Mcandrew",
        "rank": 23151,
        "rank_sort": 23262,
        "total": 2376
      },
      {
        "club_badge_src": null,
        "entry": 6326061,
        "entry_name": "Corn on the Kobbie",
        "event_total": 59,
        "has_played": true,
        "id": 50256350,
        "last_rank": 24475,
        "player_name": "Jan Weinert",
        "rank": 23151,
        "rank_sort": 23263,
        "total": 2376
      },
      {
        "club_badge_src": null,
        "entry": 6876240,
        "entry_name": "SE GUCCI",
        "event_total": 65,
        "has_played": true,
        "id": 55103542,
        "last_rank": 26088,
        "player_name": "Sabin Shrestha",
        "rank": 23151,
        "rank_sort": 23264,
        "total": 2376
      },
      {
        "club_badge_src": "https://fantasy.premierleague.com/gcs/plfpl-production-adobe-approved/plfpl-production/6950545/86265cb9-53f1-479e-9432-fd9ec9937721.png",
        "entry": 6950545,
        "entry_name": "Frimpingpong",
        "event_total": 63,
        "has_played": true,
        "id": 55732479,
        "last_rank": 28150,
        "player_name": "Sebastian Gaik",
        "rank": 23151,
        "rank_sort": 23265,
        "total": 2376
      },
      {
        "club_badge_src": null,
        "entry": 7006072,
        "entry_name": "Double Pivots",
        "event_total": 64,
        "has_played": true,
        "id": 56259261,
        "last_rank": 25002,
        "player_name": "Rifayat Dhrubo",
        "rank": 23151,
        "rank_sort": 23266,
        "total": 2376
      },
      {
        "club_badge_src": null,
        "entry": 7581894,
        "entry_name": "Nansana Ganda",
        "event_total": 49,
        "has_played": true,
        "id": 62100624,
        "last_rank": 17078,
        "player_name": "Ako ka Witboi",
        "rank": 23151,
        "rank_sort": 23267,
        "total": 2376
      },
      {
        "club_badge_src": null,
        "entry": 7689899,
        "entry_name": "Cool FC",
        "event_total": 64,
        "has_played": true,
        "id": 63080757,
        "last_rank": 28906,
        "player_name": "Josh Lucas",
        "rank": 23151,
        "rank_sort": 23268,
        "total": 2376
      },
      {
        "club_badge_src": null,
        "entry": 7937091,
        "entry_name": "Munroe FC",
        "event_total": 61,
        "has_played": true,
        "id": 65325050,
        "last_rank": 26230,
        "player_name": "Lindsay Ley Munroe",
        "rank": 23151,
        "rank_sort": 23269,
        "total": 2376
      },
      {
        "club_badge_src": null,
        "entry": 8174083,
        "entry_name": "The Golden Ballers",
        "event_total": 68,
        "has_played": true,
        "id": 67494202,
        "last_rank": 33147,
        "player_name": "Tom Winstone",
        "rank": 23151,
        "rank_sort": 23270,
        "total": 2376
      },
      {
        "club_badge_src": null,
        "entry": 8296885,
        "entry_name": "abdullah",
        "event_total": 60,
        "has_played": true,
        "id": 68676967,
        "last_rank": 18790,
        "player_name": "abdullah S",
        "rank": 23151,
        "rank_sort": 23271,
        "total": 2376
      },
      {
        "club_badge_src": "https://fantasy.premierleague.com/gcs/plfpl-production-adobe-approved/plfpl-production/8300337/a7bf0334-7608-488c-afef-8bd0d4745028.png",
        "entry": 8300337,
        "entry_name": "Power Rangers",
        "event_total": 52,
        "has_played": true,
        "id": 68713538,
        "last_rank": 19103,
        "player_name": "Athi Graik",
        "rank": 23151,
        "rank_sort": 23272,
        "total": 2376
      },
      {
        "club_badge_src": null,
        "entry": 9140522,
        "entry_name": "Erling can't pass",
        "event_total": 60,
        "has_played": true,
        "id": 76848801,
        "last_rank": 25330,
        "player_name": "Ryan Purcell",
        "rank": 23151,
        "rank_sort": 23273,
        "total": 2376
      },
      {
        "club_badge_src": null,
        "entry": 9182188,
        "entry_name": "Corn on the Kobbe",
        "event_total": 68,
        "has_played": true,
        "id": 77257792,
        "last_rank": 28906,
        "player_name": "James Newall",
        "rank": 23151,
        "rank_sort": 23274,
        "total": 2376
      },
      {
        "club_badge_src": "https://fantasy.premierleague.com/gcs/plfpl-production-adobe-approved/plfpl-production/1458/59f96667-7eff-4544-bbf0-65797c424d5c.png",
        "entry": 1458,
        "entry_name": "Glass City FC",
        "event_total": 57,
        "has_played": true,
        "id": 8114,
        "last_rank": 16959,
        "player_name": "Simen Skogheim",
        "rank": 23275,
        "rank_sort": 23275,
        "total": 2376
      },
      {
        "club_badge_src": null,
        "entry": 9443,
        "entry_name": "DragonAit-Nouri",
        "event_total": 50,
        "has_played": true,
        "id": 55522,
        "last_rank": 10805,
        "player_name": "Connor Teanby",
        "rank": 23275,
        "rank_sort": 23276,
        "total": 2376
      },
      {
        "club_badge_src": null,
        "entry": 11114,
        "entry_name": "Kai Me a River",
        "event_total": 53,
        "has_played": true,
        "id": 65952,
        "last_rank": 19904,
        "player_name": "Haralampos Karatzas",
        "rank": 23275,
        "rank_sort": 23277,
        "total": 2376
      },
      {
        "club_badge_src": null,
        "entry": 11440,
        "entry_name": "\u4eba\u751f\u82e5\u53ea\u5982\u521d\u89c1 \u6b22\u8fce\u4e0b\u4e2a\u5012\u9709\u86cb",
        "event_total": 40,
        "has_played": true,
        "id": 68009,
        "last_rank": 10102,
        "player_name": "Conan Joe",
        "rank": 23275,
        "rank_sort": 23278,
        "total": 2376
      },
      {
        "club_badge_src": null,
        "entry": 16649,
        "entry_name": "Premier XI",
        "event_total": 56,
        "has_played": true,
        "id": 102963,
        "last_rank": 16163,
        "player_name": "Akshit Gupta",
        "rank": 23275,
        "rank_sort": 23279,
        "total": 2376
      },
      {
        "club_badge_src": "https://fantasy.premierleague.com/gcs/plfpl-production-adobe-approved/plfpl-production/34423/78fc8525-6384-48ec-ad8d-1996441bef91.png",
        "entry": 34423,
        "entry_name": "\u269c\ufe0f\u0627\u0644\u0642\u0627\u0633\u064a\u269c\ufe0f",
        "event_total": 67,
        "has_played": true,
        "id": 219880,
        "last_rank": 20983,
        "player_name": "Houssem Ben younes",
        "rank": 23275,
        "rank_sort": 23280,
        "total": 2376
      },
      {
        "club_badge_src": null,
        "entry": 43393,
        "entry_name": "9 Ball United",
        "event_total": 61,
        "has_played": true,
        "id": 277883,
        "last_rank": 22830,
        "player_name": "9 Ball United",
        "rank": 23275,
        "rank_sort": 23281,
        "total": 2376
      },
      {
        "club_badge_src": null,
        "entry": 49545,
        "entry_name": "ANS BG STS",
        "event_total": 67,
        "has_played": true,
        "id": 318517,
        "last_rank": 28150,
        "player_name": "ANS BG",
        "rank": 23275,
        "rank_sort": 23282,
        "total": 2376
      },
      {
        "club_badge_src": null,
        "entry": 53300,
        "entry_name": "RC Frouz",
        "event_total": 65,
        "has_played": true,
        "id": 342878,
        "last_rank": 26230,
        "player_name": "Sebastien Lienhardt",
        "rank": 23275,
        "rank_sort": 23283,
        "total": 2376
      },
      {
        "club_badge_src": null,
        "entry": 53427,
        "entry_name": "HaCunha Mateta",
        "event_total": 79,
        "has_played": true,
        "id": 343721,
        "last_rank": 36348,
        "player_name": "Kris Bozinovski",
        "rank": 23275,
        "rank_sort": 23284,
        "total": 2376
      },
      {
        "club_badge_src": "https://fantasy.premierleague.com/gcs/plfpl-production-adobe-approved/plfpl-production/62670/ec1718c6-0913-4120-9576-cad9291cf2dc.png",
        "entry": 62670,
        "entry_name": "Me, Myself, Ndiaye",
        "event_total": 43,
        "has_played": true,
        "id": 404093,
        "last_rank": 13558,
        "player_name": "alex riddell",
        "rank": 23275,
        "rank_sort": 23285,
        "total": 2376
      },
      {
        "club_badge_src": null,
        "entry": 72620,
        "entry_name": "Zubi Dubi Doooo",
        "event_total": 56,
        "has_played": true,
        "id": 471909,
        "last_rank": 16320,
        "player_name": "\u00c1si Thor",
        "rank": 23275,
        "rank_sort": 23286,
        "total": 2376
      },
      {
        "club_badge_src": null,
        "entry": 104336,
        "entry_name": "Doofs Utd FC",
        "event_total": 71,
        "has_played": true,
        "id": 680640,
        "last_rank": 36831,
        "player_name": "Jonny Du Feu",
        "rank": 23275,
        "rank_sort": 23287,
        "total": 2376
      },
      {
        "club_badge_src": "https://fantasy.premierleague.com/gcs/plfpl-production-adobe-approved/plfpl-production/105890/b52e056e-1bd6-4c5d-937f-eba431863e3c.png",
        "entry": 105890,
        "entry_name": "NA_K@M0NR1t",
        "event_total": 64,
        "has_played": true,
        "id": 690547,
        "last_rank": 29199,
        "player_name": "Kamonrit Sompimpa",
        "rank": 23275,
        "rank_sort": 23288,
        "total": 2376
      },
      {
        "club_badge_src": null,
        "entry": 124155,
        "entry_name": "fab team",
        "event_total": 77,
        "has_played": true,
        "id": 809789,
        "last_rank": 39246,
        "player_name": "Ivan Y",
        "rank": 23275,
        "rank_sort": 23289,
        "total": 2376
      },
      {
        "club_badge_src": null,
        "entry": 149397,
        "entry_name": "Al Ahli",
        "event_total": 55,
        "has_played": true,
        "id": 979532,
        "last_rank": 18377,
        "player_name": "Mo Ahlwi",
        "rank": 23275,
        "rank_sort": 23290,
        "total": 2376
      },
      {
        "club_badge_src": null,
        "entry": 163335,
        "entry_name": "Noni your business",
        "event_total": 57,
        "has_played": true,
        "id": 1077235,
        "last_rank": 22921,
        "player_name": "Zane Swanson",
        "rank": 23275,
        "rank_sort": 23291,
        "total": 2376
      },
      {
        "club_badge_src": null,
        "entry": 166358,
        "entry_name": "Ak\u00e9bakken",
        "event_total": 63,
        "has_played": true,
        "id": 1099073,
        "last_rank": 24143,
        "player_name": "Mathias Eiks\u00e5",
        "rank": 23275,
        "rank_sort": 23292,
        "total": 2376
      },
      {
        "club_badge_src": null,
        "entry": 246050,
        "entry_name": "Aote FPL.",
        "event_total": 64,
        "has_played": true,
        "id": 1638179,
        "last_rank": 29199,
        "player_name": "Aote Wutthichai",
        "rank": 23275,
        "rank_sort": 23293,
        "total": 2376
      },
      {
        "club_badge_src": null,
        "entry": 248693,
        "entry_name": "Major League Saka",
        "event_total": 59,
        "has_played": true,
        "id": 1655153,
        "last_rank": 24570,
        "player_name": "Jerrod Elliot",
        "rank": 23275,
        "rank_sort": 23294,
        "total": 2376
      },
      {
        "club_badge_src": null,
        "entry": 256239,
        "entry_name": "HaCunha Mateta",
        "event_total": 71,
        "has_played": true,
        "id": 1704234,
        "last_rank": 27976,
        "player_name": "knut r\u00f8nning",
        "rank": 23275,
        "rank_sort": 23295,
        "total": 2376
      },
      {
        "club_badge_src": null,
        "entry": 264868,
        "entry_name": "FC KEK",
        "event_total": 61,
        "has_played": true,
        "id": 1761497,
        "last_rank": 22830,
        "player_name": "Karim Menouer",
        "rank": 23275,
        "rank_sort": 23296,
        "total": 2376
      },
      {
        "club_badge_src": "https://fantasy.premierleague.com/gcs/plfpl-production-adobe-approved/plfpl-production/279325/3f809ca9-37ae-4dd7-9482-e33b1b309c7f.png",
        "entry": 279325,
        "entry_name": "the silva lining",
        "event_total": 75,
        "has_played": true,
        "id": 1858932,
        "last_rank": 41824,
        "player_name": "Jason Lim",
        "rank": 23275,
        "rank_sort": 23297,
        "total": 2376
      },
      {
        "club_badge_src": null,
        "entry": 322491,
        "entry_name": "Club de Amigos",
        "event_total": 62,
        "has_played": true,
        "id": 2161121,
        "last_rank": 23656,
        "player_name": "Lukasz Dzien",
        "rank": 23275,
        "rank_sort": 23298,
        "total": 2376
      },
      {
        "club_badge_src": null,
        "entry": 368093,
        "entry_name": "Van de Ventricles",
        "event_total": 72,
        "has_played": true,
        "id": 2463296,
        "last_rank": 38163,
        "player_name": "HN Simms",
        "rank": 23275,
        "rank_sort": 23299,
        "total": 2376
      },
      {
        "club_badge_src": null,
        "entry": 381944,
        "entry_name": "Saka Potatoes",
        "event_total": 66,
        "has_played": true,
        "id": 2560875,
        "last_rank": 27020,
        "player_name": "Graham Woolcock",
        "rank": 23275,
        "rank_sort": 23300,
        "total": 2376
      }
    ]
  }
}