{
  "last_updated_data": "2026-05-24T23:28:17Z",
  "league": {
    "admin_entry": null,
    "closed": false,
    "code_privacy": "p",
    "created": "2025-07-20T23:14:33.933835Z",
    "cup_league": 2815434,
    "has_cup": true,
    "id": 314,
    "league_type": "s",
    "max_entries": null,
    "name": "Overall",
    "rank": null,
    "scoring": "c",
    "start_event": 1
  },
  "new_entries": {
    "has_next": false,
    "page": 1,
    "results": []
  },
  "standings": {
    "has_next": true,
    "page": 17,
    "results": [
      {
        "club_badge_src": null,
        "entry": 1060028,
        "entry_name": "Sheffield Saturday",
        "event_total": 66,
        "has_played": true,
        "id": 7336251,
        "last_rank": 1152,
        "player_name": "Kemari Hypolite",
        "rank": 796,
        "rank_sort": 801,
        "total": 2452
      },
      {
        "club_badge_src": "https://fantasy.premierleague.com/gcs/plfpl-production-adobe-approved/plfpl-production/2290040/ab2353e0-fd22-4a20-be46-dce5a7b86619.png",
        "entry": 2290040,
        "entry_name": "Consorts of Radahn",
        "event_total": 47,
        "has_played": true,
        "id": 16332208,
        "last_rank": 328,
        "player_name": "Kalem Boyle",
        "rank": 796,
        "rank_sort": 802,
        "total": 2452
      },
      {
        "club_badge_src": "https://fantasy.premierleague.com/gcs/plfpl-production-adobe-approved/plfpl-production/3600242/4888b1a2-33b1-47c3-b351-f54c27205068.png",
        "entry": 3600242,
        "entry_name": "Wolvesofwinterfell",
        "event_total": 66,
        "has_played": true,
        "id": 26814380,
        "last_rank": 936,
        "player_name": "Mohammed Hafez",
        "rank": 796,
        "rank_sort": 803,
        "total": 2452
      },
      {
        "club_badge_src": "https://fantasy.premierleague.com/gcs/plfpl-production-adobe-approved/plfpl-production/9096/0447f99a-c4f0-4de5-8d03-beb296a79357.png",
        "entry": 9096,
        "entry_name": "The False 9",
        "event_total": 61,
        "has_played": true,
        "id": 53290,
        "last_rank": 904,
        "player_name": "Ameet Shah",
        "rank": 804,
        "rank_sort": 804,
        "total": 2452
      },
      {
        "club_badge_src": null,
        "entry": 11197,
        "entry_name": "Jicky",
        "event_total": 75,
        "has_played": true,
        "id": 66469,
        "last_rank": 1465,
        "player_name": "Paolo Suksai",
        "rank": 804,
        "rank_sort": 805,
        "total": 2452
      },
      {
        "club_badge_src": null,
        "entry": 37862,
        "entry_name": "Forever Ashley Young",
        "event_total": 51,
        "has_played": true,
        "id": 242597,
        "last_rank": 519,
        "player_name": "Dmitri Howell",
        "rank": 804,
        "rank_sort": 806,
        "total": 2452
      },
      {
        "club_badge_src": "https://fantasy.premierleague.com/gcs/plfpl-production-adobe-approved/plfpl-production/131532/1bd83a83-bd2b-4ee2-a740-2b3b0c278b92.png",
        "entry": 131532,
        "entry_name": "In the Mudryk",
        "event_total": 71,
        "has_played": true,
        "id": 856906,
        "last_rank": 1478,
        "player_name": "Connor Allen",
        "rank": 804,
        "rank_sort": 807,
        "total": 2452
      },
      {
        "club_badge_src": null,
        "entry": 188979,
        "entry_name": "No Bruno no gain",
        "event_total": 54,
        "has_played": true,
        "id": 1250634,
        "last_rank": 609,
        "player_name": "Micha\u0142 FPL",
        "rank": 804,
        "rank_sort": 808,
        "total": 2452
      },
      {
        "club_badge_src": null,
        "entry": 593568,
        "entry_name": "Let me be Frank 26",
        "event_total": 66,
        "has_played": true,
        "id": 4000203,
        "last_rank": 944,
        "player_name": "loukas dourambeis",
        "rank": 804,
        "rank_sort": 809,
        "total": 2452
      },
      {
        "club_badge_src": null,
        "entry": 716458,
        "entry_name": "Who0pi",
        "event_total": 56,
        "has_played": true,
        "id": 4861188,
        "last_rank": 686,
        "player_name": "Adin Sehovic",
        "rank": 804,
        "rank_sort": 810,
        "total": 2452
      },
      {
        "club_badge_src": null,
        "entry": 1327104,
        "entry_name": "Maverick",
        "event_total": 69,
        "has_played": true,
        "id": 9224577,
        "last_rank": 1330,
        "player_name": "Oskar Nyman",
        "rank": 804,
        "rank_sort": 811,
        "total": 2452
      },
      {
        "club_badge_src": null,
        "entry": 1767218,
        "entry_name": "Mad Hatters",
        "event_total": 55,
        "has_played": true,
        "id": 12413783,
        "last_rank": 641,
        "player_name": "Linda Oates",
        "rank": 804,
        "rank_sort": 812,
        "total": 2452
      },
      {
        "club_badge_src": null,
        "entry": 3912241,
        "entry_name": "Zahi goal",
        "event_total": 53,
        "has_played": true,
        "id": 29414721,
        "last_rank": 580,
        "player_name": "Zahi Eljozi",
        "rank": 804,
        "rank_sort": 813,
        "total": 2452
      },
      {
        "club_badge_src": null,
        "entry": 6525720,
        "entry_name": "Gondor United",
        "event_total": 64,
        "has_played": true,
        "id": 52050896,
        "last_rank": 842,
        "player_name": "Joel Davies",
        "rank": 804,
        "rank_sort": 814,
        "total": 2452
      },
      {
        "club_badge_src": null,
        "entry": 214213,
        "entry_name": "Drinkebeek FC",
        "event_total": 93,
        "has_played": true,
        "id": 1425050,
        "last_rank": 4431,
        "player_name": "Tristan Lemmet",
        "rank": 815,
        "rank_sort": 815,
        "total": 2452
      },
      {
        "club_badge_src": null,
        "entry": 2790437,
        "entry_name": "AKRAM FC",
        "event_total": 66,
        "has_played": true,
        "id": 20372744,
        "last_rank": 1168,
        "player_name": "Selmi Akram",
        "rank": 815,
        "rank_sort": 816,
        "total": 2452
      },
      {
        "club_badge_src": null,
        "entry": 3484400,
        "entry_name": "El joooo",
        "event_total": 52,
        "has_played": true,
        "id": 25910252,
        "last_rank": 556,
        "player_name": "Yousef Elqattan",
        "rank": 815,
        "rank_sort": 817,
        "total": 2452
      },
      {
        "club_badge_src": null,
        "entry": 7917665,
        "entry_name": "Republica De La Boca",
        "event_total": 74,
        "has_played": true,
        "id": 65148209,
        "last_rank": 1689,
        "player_name": "Vicente Sturtridge",
        "rank": 815,
        "rank_sort": 818,
        "total": 2452
      },
      {
        "club_badge_src": null,
        "entry": 50431,
        "entry_name": "Saka Spuds",
        "event_total": 54,
        "has_played": true,
        "id": 324372,
        "last_rank": 487,
        "player_name": "Cam MacFadyen",
        "rank": 819,
        "rank_sort": 819,
        "total": 2452
      },
      {
        "club_badge_src": null,
        "entry": 376465,
        "entry_name": "Hakuna Mateta",
        "event_total": 62,
        "has_played": true,
        "id": 2521306,
        "last_rank": 963,
        "player_name": "Daniel Smith",
        "rank": 819,
        "rank_sort": 820,
        "total": 2452
      },
      {
        "club_badge_src": null,
        "entry": 3658182,
        "entry_name": "Udogie me",
        "event_total": 51,
        "has_played": true,
        "id": 27278537,
        "last_rank": 526,
        "player_name": "Abishanth Ramachandran",
        "rank": 819,
        "rank_sort": 821,
        "total": 2452
      },
      {
        "club_badge_src": null,
        "entry": 6420128,
        "entry_name": "Peaky blinders",
        "event_total": 75,
        "has_played": true,
        "id": 51099248,
        "last_rank": 1486,
        "player_name": "Konstantin Kutsarov",
        "rank": 819,
        "rank_sort": 822,
        "total": 2452
      },
      {
        "club_badge_src": null,
        "entry": 1281633,
        "entry_name": "Champions Elite",
        "event_total": 70,
        "has_played": true,
        "id": 8905696,
        "last_rank": 1426,
        "player_name": "Tony Dawe",
        "rank": 823,
        "rank_sort": 823,
        "total": 2452
      },
      {
        "club_badge_src": null,
        "entry": 464293,
        "entry_name": "R3D",
        "event_total": 63,
        "has_played": true,
        "id": 3114277,
        "last_rank": 809,
        "player_name": "R3D GG",
        "rank": 824,
        "rank_sort": 824,
        "total": 2452
      },
      {
        "club_badge_src": null,
        "entry": 3041204,
        "entry_name": "Stairway to Heaven",
        "event_total": 63,
        "has_played": true,
        "id": 22384801,
        "last_rank": 1016,
        "player_name": "Amittai Samuel",
        "rank": 825,
        "rank_sort": 825,
        "total": 2452
      },
      {
        "club_badge_src": "https://fantasy.premierleague.com/gcs/plfpl-production-adobe-approved/plfpl-production/673327/8cb889cf-0d84-46f7-99b7-717c411f9c42.png",
        "entry": 673327,
        "entry_name": "shipoftheseus",
        "event_total": 40,
        "has_played": true,
        "id": 4554807,
        "last_rank": 224,
        "player_name": "Richard Evans",
        "rank": 826,
        "rank_sort": 826,
        "total": 2452
      },
      {
        "club_badge_src": null,
        "entry": 356910,
        "entry_name": "TJP95",
        "event_total": 66,
        "has_played": true,
        "id": 2388433,
        "last_rank": 1175,
        "player_name": "Tom Pearson",
        "rank": 827,
        "rank_sort": 827,
        "total": 2451
      },
      {
        "club_badge_src": "https://fantasy.premierleague.com/gcs/plfpl-production-adobe-approved/plfpl-production/2757007/512cffa9-4b90-4874-94c2-5e3391e0c395.png",
        "entry": 2757007,
        "entry_name": "Red-Nosed Reijnders",
        "event_total": 67,
        "has_played": true,
        "id": 20093394,
        "last_rank": 1224,
        "player_name": "Alex Vickery",
        "rank": 828,
        "rank_sort": 828,
        "total": 2451
      },
      {
        "club_badge_src": null,
        "entry": 436693,
        "entry_name": "KING FRANK",
        "event_total": 55,
        "has_played": true,
        "id": 2928418,
        "last_rank": 665,
        "player_name": "Franklyn Ugwu",
        "rank": 829,
        "rank_sort": 829,
        "total": 2451
      },
      {
        "club_badge_src": null,
        "entry": 942161,
        "entry_name": "GT11",
        "event_total": 58,
        "has_played": true,
        "id": 6487941,
        "last_rank": 782,
        "player_name": "Gaurav Tophakhane",
        "rank": 829,
        "rank_sort": 830,
        "total": 2451
      },
      {
        "club_badge_src": null,
        "entry": 1072585,
        "entry_name": "Game of Throw-ins",
        "event_total": 80,
        "has_played": true,
        "id": 7425543,
        "last_rank": 2418,
        "player_name": "Dan McCann",
        "rank": 829,
        "rank_sort": 831,
        "total": 2451
      },
      {
        "club_badge_src": "https://fantasy.premierleague.com/gcs/plfpl-production-adobe-approved/plfpl-production/258388/ab5b9f0c-f1f1-4c9c-b384-e6480eb16536.png",
        "entry": 258388,
        "entry_name": "No Salah FC",
        "event_total": 56,
        "has_played": true,
        "id": 1718175,
        "last_rank": 710,
        "player_name": "Edwin Olivier",
        "rank": 832,
        "rank_sort": 832,
        "total": 2451
      },
      {
        "club_badge_src": "https://fantasy.premierleague.com/gcs/plfpl-production-adobe-approved/plfpl-production/488174/01e3415e-7384-4f4d-bd35-00272b36467f.png",
        "entry": 488174,
        "entry_name": "Harribo",
        "event_total": 69,
        "has_played": true,
        "id": 3277226,
        "last_rank": 1372,
        "player_name": "Yordan Samardzhiyski",
        "rank": 832,
        "rank_sort": 833,
        "total": 2451
      },
      {
        "club_badge_src": "https://fantasy.premierleague.com/gcs/plfpl-production-adobe-approved/plfpl-production/602909/6af3594a-08db-4553-85a5-ed717e7fe2c3.png",
        "entry": 602909,
        "entry_name": "Hakuna Mateta",
        "event_total": 66,
        "has_played": true,
        "id": 4069118,
        "last_rank": 1190,
        "player_name": "Matthew D",
        "rank": 832,
        "rank_sort": 834,
        "total": 2451
      },
      {
        "club_badge_src": null,
        "entry": 1825454,
        "entry_name": "All Luck No Skill",
        "event_total": 66,
        "has_played": true,
        "id": 12839336,
        "last_rank": 1182,
        "player_name": "Jimmy Stapes",
        "rank": 832,
        "rank_sort": 835,
        "total": 2451
      },
      {
        "club_badge_src": null,
        "entry": 3348097,
        "entry_name": "Silva Linings",
        "event_total": 56,
        "has_played": true,
        "id": 24836983,
        "last_rank": 704,
        "player_name": "Brett Norman",
        "rank": 832,
        "rank_sort": 836,
        "total": 2451
      },
      {
        "club_badge_src": null,
        "entry": 3804899,
        "entry_name": "Change Name",
        "event_total": 68,
        "has_played": true,
        "id": 28446251,
        "last_rank": 1302,
        "player_name": "Jack Winstanley",
        "rank": 832,
        "rank_sort": 837,
        "total": 2451
      },
      {
        "club_badge_src": null,
        "entry": 4280816,
        "entry_name": "FC Irn-bru",
        "event_total": 67,
        "has_played": true,
        "id": 32466610,
        "last_rank": 1240,
        "player_name": "Stu Dickson",
        "rank": 832,
        "rank_sort": 838,
        "total": 2451
      },
      {
        "club_badge_src": null,
        "entry": 963,
        "entry_name": "The Malouda Triangle",
        "event_total": 66,
        "has_played": true,
        "id": 5334,
        "last_rank": 980,
        "player_name": "BigMan Bakar",
        "rank": 839,
        "rank_sort": 839,
        "total": 2451
      },
      {
        "club_badge_src": null,
        "entry": 2935,
        "entry_name": "Wirtz Kept Secret",
        "event_total": 55,
        "has_played": true,
        "id": 16525,
        "last_rank": 535,
        "player_name": "Jack Tallentire",
        "rank": 839,
        "rank_sort": 840,
        "total": 2451
      },
      {
        "club_badge_src": null,
        "entry": 39657,
        "entry_name": "Band of Thieves",
        "event_total": 66,
        "has_played": true,
        "id": 254126,
        "last_rank": 980,
        "player_name": "James Dean",
        "rank": 839,
        "rank_sort": 841,
        "total": 2451
      },
      {
        "club_badge_src": null,
        "entry": 97896,
        "entry_name": "Deportivo Placomu\u00f1a",
        "event_total": 67,
        "has_played": true,
        "id": 639373,
        "last_rank": 1263,
        "player_name": "Anastasis Vidalis",
        "rank": 839,
        "rank_sort": 842,
        "total": 2451
      },
      {
        "club_badge_src": null,
        "entry": 211121,
        "entry_name": "Pending Moderation",
        "event_total": 61,
        "has_played": true,
        "id": 1404182,
        "last_rank": 951,
        "player_name": "Ross Curtis",
        "rank": 839,
        "rank_sort": 843,
        "total": 2451
      },
      {
        "club_badge_src": null,
        "entry": 241238,
        "entry_name": "One Man Arne",
        "event_total": 52,
        "has_played": true,
        "id": 1605673,
        "last_rank": 458,
        "player_name": "Alex Mulholland",
        "rank": 839,
        "rank_sort": 844,
        "total": 2451
      },
      {
        "club_badge_src": null,
        "entry": 515728,
        "entry_name": "Ally",
        "event_total": 59,
        "has_played": true,
        "id": 3462552,
        "last_rank": 660,
        "player_name": "Ally Christodoulou",
        "rank": 839,
        "rank_sort": 845,
        "total": 2451
      },
      {
        "club_badge_src": null,
        "entry": 725403,
        "entry_name": "Octagon Switzerland",
        "event_total": 66,
        "has_played": true,
        "id": 4927191,
        "last_rank": 1203,
        "player_name": "Alex DS",
        "rank": 839,
        "rank_sort": 846,
        "total": 2451
      },
      {
        "club_badge_src": "https://fantasy.premierleague.com/gcs/plfpl-production-adobe-approved/plfpl-production/800409/fe654694-3822-468c-9769-b9cc856e7097.png",
        "entry": 800409,
        "entry_name": "Ugarte Be Kidding Me",
        "event_total": 70,
        "has_played": true,
        "id": 5478623,
        "last_rank": 1465,
        "player_name": "Peter Kirwan",
        "rank": 839,
        "rank_sort": 847,
        "total": 2451
      },
      {
        "club_badge_src": null,
        "entry": 4055195,
        "entry_name": "Pattavikorn",
        "event_total": 70,
        "has_played": true,
        "id": 30597058,
        "last_rank": 1182,
        "player_name": "Jon R\u00f8mmen",
        "rank": 839,
        "rank_sort": 848,
        "total": 2451
      },
      {
        "club_badge_src": null,
        "entry": 7641193,
        "entry_name": "Renshaw Renegades",
        "event_total": 57,
        "has_played": true,
        "id": 62636513,
        "last_rank": 762,
        "player_name": "Angus Coleman",
        "rank": 839,
        "rank_sort": 849,
        "total": 2451
      },
      {
        "club_badge_src": "https://fantasy.premierleague.com/gcs/plfpl-production-adobe-approved/plfpl-production/187040/e11ef7da-ccd9-40f7-89ba-0503db364bab.png",
        "entry": 187040,
        "entry_name": "CyberKlopp",
        "event_total": 74,
        "has_played": true,
        "id": 1236426,
        "last_rank": 1190,
        "player_name": "Dennis Johansson",
        "rank": 850,
        "rank_sort": 850,
        "total": 2451
      }
    ]
  }
}