{
  "last_updated_data": "2026-05-24T23:28:17Z",
  "league": {
    "admin_entry": null,
    "closed": false,
    "code_privacy": "p",
    "created": "2025-07-20T23:14:33.933835Z",
    "cup_league": 2815434,
    "has_cup": true,
    "id": 314,
    "league_type": "s",
    "max_entries": null,
    "name": "Overall",
    "rank": null,
    "scoring": "c",
    "start_event": 1
  },
  "new_entries": {
    "has_next": false,
    "page": 1,
    "results": []
  },
  "standings": {
    "has_next": true,
    "page": 228,
    "results": [
      {
        "club_badge_src": null,
        "entry": 7745179,
        "entry_name": "Yorkie's Bambinos",
        "event_total": 55,
        "has_played": true,
        "id": 63577625,
        "last_rank": 9845,
        "player_name": "Lois York",
        "rank": 11243,
        "rank_sort": 11351,
        "total": 2395
      },
      {
        "club_badge_src": "https://fantasy.premierleague.com/gcs/plfpl-production-adobe-approved/plfpl-production/7856787/3fe04fd3-a109-4c64-95e8-47b6f341fe7a.png",
        "entry": 7856787,
        "entry_name": "Entourage",
        "event_total": 60,
        "has_played": true,
        "id": 64593767,
        "last_rank": 12322,
        "player_name": "Diego Diaz Abad",
        "rank": 11243,
        "rank_sort": 11352,
        "total": 2395
      },
      {
        "club_badge_src": null,
        "entry": 8242916,
        "entry_name": "yok yoki",
        "event_total": 65,
        "has_played": true,
        "id": 68154977,
        "last_rank": 14926,
        "player_name": "Yok Yoki",
        "rank": 11243,
        "rank_sort": 11353,
        "total": 2395
      },
      {
        "club_badge_src": null,
        "entry": 8261095,
        "entry_name": "HaalandGlobetrotters",
        "event_total": 77,
        "has_played": true,
        "id": 68329922,
        "last_rank": 23164,
        "player_name": "Michael Down",
        "rank": 11243,
        "rank_sort": 11354,
        "total": 2395
      },
      {
        "club_badge_src": null,
        "entry": 8278637,
        "entry_name": "Obi 1 Kenobi 0",
        "event_total": 56,
        "has_played": true,
        "id": 68496328,
        "last_rank": 10462,
        "player_name": "Chloe Austin",
        "rank": 11243,
        "rank_sort": 11355,
        "total": 2395
      },
      {
        "club_badge_src": null,
        "entry": 8544057,
        "entry_name": "\ufffd till I die",
        "event_total": 59,
        "has_played": true,
        "id": 71061006,
        "last_rank": 11608,
        "player_name": "Brenin Wood",
        "rank": 11243,
        "rank_sort": 11356,
        "total": 2395
      },
      {
        "club_badge_src": null,
        "entry": 8554029,
        "entry_name": "Tommy",
        "event_total": 62,
        "has_played": true,
        "id": 71158240,
        "last_rank": 13184,
        "player_name": "Thomas Martin",
        "rank": 11243,
        "rank_sort": 11357,
        "total": 2395
      },
      {
        "club_badge_src": null,
        "entry": 8755967,
        "entry_name": "Kisuke",
        "event_total": 62,
        "has_played": true,
        "id": 73119931,
        "last_rank": 13184,
        "player_name": "Dave Kimani",
        "rank": 11243,
        "rank_sort": 11358,
        "total": 2395
      },
      {
        "club_badge_src": null,
        "entry": 8784939,
        "entry_name": "ChickenTikkaMoSalah",
        "event_total": 57,
        "has_played": true,
        "id": 73399313,
        "last_rank": 10748,
        "player_name": "Ben Timms",
        "rank": 11243,
        "rank_sort": 11359,
        "total": 2395
      },
      {
        "club_badge_src": null,
        "entry": 8834986,
        "entry_name": "Artekkas",
        "event_total": 62,
        "has_played": true,
        "id": 73881062,
        "last_rank": 13184,
        "player_name": "Ben Franklin",
        "rank": 11243,
        "rank_sort": 11360,
        "total": 2395
      },
      {
        "club_badge_src": null,
        "entry": 8860518,
        "entry_name": "Det sp\u00f8rs",
        "event_total": 44,
        "has_played": true,
        "id": 74128061,
        "last_rank": 6194,
        "player_name": "Brage Sandmoen",
        "rank": 11243,
        "rank_sort": 11361,
        "total": 2395
      },
      {
        "club_badge_src": null,
        "entry": 8960376,
        "entry_name": "xG Machina",
        "event_total": 71,
        "has_played": true,
        "id": 75099491,
        "last_rank": 18691,
        "player_name": "Fpl Gptvpro",
        "rank": 11243,
        "rank_sort": 11362,
        "total": 2395
      },
      {
        "club_badge_src": null,
        "entry": 9388482,
        "entry_name": "Bruno\u2019s Banter XI",
        "event_total": 76,
        "has_played": true,
        "id": 79263035,
        "last_rank": 22426,
        "player_name": "Yahya Ahmd",
        "rank": 11243,
        "rank_sort": 11363,
        "total": 2395
      },
      {
        "club_badge_src": null,
        "entry": 529,
        "entry_name": "Goatlinton",
        "event_total": 53,
        "has_played": true,
        "id": 2917,
        "last_rank": 9142,
        "player_name": "Matthew Scott",
        "rank": 11364,
        "rank_sort": 11364,
        "total": 2395
      },
      {
        "club_badge_src": null,
        "entry": 720,
        "entry_name": "Kinder Mbeumo",
        "event_total": 49,
        "has_played": true,
        "id": 3976,
        "last_rank": 7761,
        "player_name": "Subhan Yaqub",
        "rank": 11364,
        "rank_sort": 11365,
        "total": 2395
      },
      {
        "club_badge_src": null,
        "entry": 4097,
        "entry_name": "VIGI FC",
        "event_total": 49,
        "has_played": true,
        "id": 23253,
        "last_rank": 6448,
        "player_name": "Lewis Vigilante",
        "rank": 11364,
        "rank_sort": 11366,
        "total": 2395
      },
      {
        "club_badge_src": null,
        "entry": 7323,
        "entry_name": "Full Bodied FC",
        "event_total": 64,
        "has_played": true,
        "id": 42193,
        "last_rank": 14496,
        "player_name": "Vino Suresh",
        "rank": 11364,
        "rank_sort": 11367,
        "total": 2395
      },
      {
        "club_badge_src": "https://fantasy.premierleague.com/gcs/plfpl-production-adobe-approved/plfpl-production/11167/a1d08be5-ca56-4b80-ab62-3287a3eeaca0.png",
        "entry": 11167,
        "entry_name": "Men with Ven",
        "event_total": 64,
        "has_played": true,
        "id": 66284,
        "last_rank": 12200,
        "player_name": "Jordan Fiveash",
        "rank": 11364,
        "rank_sort": 11368,
        "total": 2395
      },
      {
        "club_badge_src": null,
        "entry": 12553,
        "entry_name": "Oskar Van Hattum F.C",
        "event_total": 65,
        "has_played": true,
        "id": 75236,
        "last_rank": 12705,
        "player_name": "Shane White",
        "rank": 11364,
        "rank_sort": 11369,
        "total": 2395
      },
      {
        "club_badge_src": null,
        "entry": 14029,
        "entry_name": "Torp of the League",
        "event_total": 54,
        "has_played": true,
        "id": 85004,
        "last_rank": 8032,
        "player_name": "Matt Hall",
        "rank": 11364,
        "rank_sort": 11370,
        "total": 2395
      },
      {
        "club_badge_src": null,
        "entry": 20739,
        "entry_name": "Haalandaise Sauce",
        "event_total": 57,
        "has_played": true,
        "id": 129693,
        "last_rank": 10748,
        "player_name": "Dave Munn",
        "rank": 11364,
        "rank_sort": 11371,
        "total": 2395
      },
      {
        "club_badge_src": null,
        "entry": 50285,
        "entry_name": "Come on you greens",
        "event_total": 44,
        "has_played": true,
        "id": 323432,
        "last_rank": 6194,
        "player_name": "Andrew Ray",
        "rank": 11364,
        "rank_sort": 11372,
        "total": 2395
      },
      {
        "club_badge_src": null,
        "entry": 58363,
        "entry_name": "Chicken Tika Mo Sala",
        "event_total": 55,
        "has_played": true,
        "id": 375933,
        "last_rank": 10031,
        "player_name": "Jon Sparrow",
        "rank": 11364,
        "rank_sort": 11373,
        "total": 2395
      },
      {
        "club_badge_src": "https://fantasy.premierleague.com/gcs/plfpl-production-adobe-approved/plfpl-production/66473/67296d6c-7269-4066-9b96-96871150bf4d.png",
        "entry": 66473,
        "entry_name": "Etel\u00e4-KePS",
        "event_total": 58,
        "has_played": true,
        "id": 429789,
        "last_rank": 11237,
        "player_name": "Jani Pasma",
        "rank": 11364,
        "rank_sort": 11374,
        "total": 2395
      },
      {
        "club_badge_src": null,
        "entry": 96036,
        "entry_name": "Alisson Sunderland",
        "event_total": 65,
        "has_played": true,
        "id": 627400,
        "last_rank": 12705,
        "player_name": "Vasu Shan",
        "rank": 11364,
        "rank_sort": 11375,
        "total": 2395
      },
      {
        "club_badge_src": "https://fantasy.premierleague.com/gcs/plfpl-production-adobe-approved/plfpl-production/100632/5302d864-66cf-44ed-8f0b-6b874d466f45.png",
        "entry": 100632,
        "entry_name": "Zubi, or not Zubi",
        "event_total": 65,
        "has_played": true,
        "id": 656730,
        "last_rank": 14857,
        "player_name": "George Light",
        "rank": 11364,
        "rank_sort": 11376,
        "total": 2395
      },
      {
        "club_badge_src": "https://fantasy.premierleague.com/gcs/plfpl-production-adobe-approved/plfpl-production/120479/9415798d-73eb-4850-a9a6-61215b02fadb.png",
        "entry": 120479,
        "entry_name": "Murphy's",
        "event_total": 66,
        "has_played": true,
        "id": 786100,
        "last_rank": 13257,
        "player_name": "Viktor Pfeifer",
        "rank": 11364,
        "rank_sort": 11377,
        "total": 2395
      },
      {
        "club_badge_src": null,
        "entry": 146663,
        "entry_name": "There we land",
        "event_total": 59,
        "has_played": true,
        "id": 960935,
        "last_rank": 11821,
        "player_name": "jack mckinney",
        "rank": 11364,
        "rank_sort": 11378,
        "total": 2395
      },
      {
        "club_badge_src": null,
        "entry": 159972,
        "entry_name": "Games_gone",
        "event_total": 72,
        "has_played": true,
        "id": 1053202,
        "last_rank": 19721,
        "player_name": "Arvindh Bharathi Kumaresan",
        "rank": 11364,
        "rank_sort": 11379,
        "total": 2395
      },
      {
        "club_badge_src": null,
        "entry": 161767,
        "entry_name": "Hirst>Delap",
        "event_total": 50,
        "has_played": true,
        "id": 1065945,
        "last_rank": 8138,
        "player_name": "Kevin Seymour",
        "rank": 11364,
        "rank_sort": 11380,
        "total": 2395
      },
      {
        "club_badge_src": null,
        "entry": 167658,
        "entry_name": "eMZet FPL",
        "event_total": 65,
        "has_played": true,
        "id": 1108271,
        "last_rank": 15063,
        "player_name": "Marcin Ziemla\u0144ski",
        "rank": 11364,
        "rank_sort": 11381,
        "total": 2395
      },
      {
        "club_badge_src": null,
        "entry": 196138,
        "entry_name": "Charli xGx",
        "event_total": 51,
        "has_played": true,
        "id": 1300931,
        "last_rank": 8382,
        "player_name": "Tom Hall",
        "rank": 11364,
        "rank_sort": 11382,
        "total": 2395
      },
      {
        "club_badge_src": "https://fantasy.premierleague.com/gcs/plfpl-production-adobe-approved/plfpl-production/200853/696926c1-d661-4375-98f7-a6cec18093bf.png",
        "entry": 200853,
        "entry_name": "Atl\u00e8tico Aboudi",
        "event_total": 61,
        "has_played": true,
        "id": 1333571,
        "last_rank": 10805,
        "player_name": "Abdessamad Maaroufi",
        "rank": 11364,
        "rank_sort": 11383,
        "total": 2395
      },
      {
        "club_badge_src": null,
        "entry": 207135,
        "entry_name": "Kinder Mbeumo",
        "event_total": 57,
        "has_played": true,
        "id": 1376727,
        "last_rank": 10805,
        "player_name": "Stian Thorsen",
        "rank": 11364,
        "rank_sort": 11384,
        "total": 2395
      },
      {
        "club_badge_src": "https://fantasy.premierleague.com/gcs/plfpl-production-adobe-approved/plfpl-production/229502/09652609-4401-47ce-bfd8-37c603290d4d.png",
        "entry": 229502,
        "entry_name": "Ky\u00f6kereSuigetsu",
        "event_total": 63,
        "has_played": true,
        "id": 1526904,
        "last_rank": 11699,
        "player_name": "Ozayr Delair",
        "rank": 11364,
        "rank_sort": 11385,
        "total": 2395
      },
      {
        "club_badge_src": null,
        "entry": 238187,
        "entry_name": "The Konat\u00e9 Kid",
        "event_total": 53,
        "has_played": true,
        "id": 1584639,
        "last_rank": 7676,
        "player_name": "Jac Ob",
        "rank": 11364,
        "rank_sort": 11386,
        "total": 2395
      },
      {
        "club_badge_src": "https://fantasy.premierleague.com/gcs/plfpl-production-adobe-approved/plfpl-production/299327/ce4057be-5b7b-41aa-a341-39adbc9a345e.png",
        "entry": 299327,
        "entry_name": "Pique Blinders",
        "event_total": 65,
        "has_played": true,
        "id": 2001687,
        "last_rank": 12705,
        "player_name": "Leigh Bennett",
        "rank": 11364,
        "rank_sort": 11387,
        "total": 2395
      },
      {
        "club_badge_src": null,
        "entry": 310711,
        "entry_name": "'The Irons'",
        "event_total": 62,
        "has_played": true,
        "id": 2081486,
        "last_rank": 13257,
        "player_name": "Will Warbey",
        "rank": 11364,
        "rank_sort": 11388,
        "total": 2395
      },
      {
        "club_badge_src": null,
        "entry": 367832,
        "entry_name": "Aasen Intimvask",
        "event_total": 61,
        "has_played": true,
        "id": 2461602,
        "last_rank": 12705,
        "player_name": "Jakob Hoem Aasen",
        "rank": 11364,
        "rank_sort": 11389,
        "total": 2395
      },
      {
        "club_badge_src": null,
        "entry": 401885,
        "entry_name": "Tour de Frank",
        "event_total": 65,
        "has_played": true,
        "id": 2694760,
        "last_rank": 12645,
        "player_name": "Jakob Zavala Fahlberg",
        "rank": 11364,
        "rank_sort": 11390,
        "total": 2395
      },
      {
        "club_badge_src": null,
        "entry": 410049,
        "entry_name": "kinder mbeumo",
        "event_total": 74,
        "has_played": true,
        "id": 2749542,
        "last_rank": 20983,
        "player_name": "Henry Walton",
        "rank": 11364,
        "rank_sort": 11391,
        "total": 2395
      },
      {
        "club_badge_src": null,
        "entry": 443413,
        "entry_name": "Viktornado",
        "event_total": 57,
        "has_played": true,
        "id": 2972888,
        "last_rank": 10920,
        "player_name": "Viktor Nordstr\u00f6m",
        "rank": 11364,
        "rank_sort": 11392,
        "total": 2395
      },
      {
        "club_badge_src": "https://fantasy.premierleague.com/gcs/plfpl-production-adobe-approved/plfpl-production/493556/12a0436e-f95e-4ed1-bd53-292ca55de3c7.png",
        "entry": 493556,
        "entry_name": "Scallywags Utd",
        "event_total": 56,
        "has_played": true,
        "id": 3313035,
        "last_rank": 10556,
        "player_name": "Sam Welham",
        "rank": 11364,
        "rank_sort": 11393,
        "total": 2395
      },
      {
        "club_badge_src": null,
        "entry": 563879,
        "entry_name": "Wirtz Case Scenario",
        "event_total": 48,
        "has_played": true,
        "id": 3795419,
        "last_rank": 7450,
        "player_name": "Vaughn Smith",
        "rank": 11364,
        "rank_sort": 11394,
        "total": 2395
      },
      {
        "club_badge_src": null,
        "entry": 566395,
        "entry_name": "Patti Saint-Germain",
        "event_total": 57,
        "has_played": true,
        "id": 3812143,
        "last_rank": 10920,
        "player_name": "Andy Pattison",
        "rank": 11364,
        "rank_sort": 11395,
        "total": 2395
      },
      {
        "club_badge_src": null,
        "entry": 682774,
        "entry_name": "Palmer Violets",
        "event_total": 66,
        "has_played": true,
        "id": 4620975,
        "last_rank": 15550,
        "player_name": "Alex Yeldham",
        "rank": 11364,
        "rank_sort": 11396,
        "total": 2395
      },
      {
        "club_badge_src": "https://fantasy.premierleague.com/gcs/plfpl-production-adobe-approved/plfpl-production/810212/dc55af07-09f1-4dbe-8902-1d9fda1023ba.png",
        "entry": 810212,
        "entry_name": "piso1502",
        "event_total": 61,
        "has_played": true,
        "id": 5547278,
        "last_rank": 12705,
        "player_name": "Javier Brice\u00f1o",
        "rank": 11364,
        "rank_sort": 11397,
        "total": 2395
      },
      {
        "club_badge_src": "https://fantasy.premierleague.com/gcs/plfpl-production-adobe-approved/plfpl-production/847246/3e51ba94-6870-4c1a-98f4-08392128daed.png",
        "entry": 847246,
        "entry_name": "Maverick FC",
        "event_total": 54,
        "has_played": true,
        "id": 5806079,
        "last_rank": 8032,
        "player_name": "avinash shetty",
        "rank": 11364,
        "rank_sort": 11398,
        "total": 2395
      },
      {
        "club_badge_src": "https://fantasy.premierleague.com/gcs/plfpl-production-adobe-approved/plfpl-production/854437/459a8849-6bf9-4d14-bd0b-59937c9baf75.png",
        "entry": 854437,
        "entry_name": "Fantasy noob",
        "event_total": 64,
        "has_played": true,
        "id": 5856731,
        "last_rank": 14370,
        "player_name": "Tareq Salah",
        "rank": 11364,
        "rank_sort": 11399,
        "total": 2395
      },
      {
        "club_badge_src": null,
        "entry": 1022578,
        "entry_name": "We are doomed wawaw",
        "event_total": 64,
        "has_played": true,
        "id": 7074780,
        "last_rank": 14370,
        "player_name": "Lee Beecroft",
        "rank": 11364,
        "rank_sort": 11400,
        "total": 2395
      }
    ]
  }
}