{
  "last_updated_data": "2026-05-24T23:28:17Z",
  "league": {
    "admin_entry": null,
    "closed": false,
    "code_privacy": "p",
    "created": "2025-07-20T23:14:33.933835Z",
    "cup_league": 2815434,
    "has_cup": true,
    "id": 314,
    "league_type": "s",
    "max_entries": null,
    "name": "Overall",
    "rank": null,
    "scoring": "c",
    "start_event": 1
  },
  "new_entries": {
    "has_next": false,
    "page": 1,
    "results": []
  },
  "standings": {
    "has_next": true,
    "page": 130,
    "results": [
      {
        "club_badge_src": null,
        "entry": 3573536,
        "entry_name": "Neville Wears Prada",
        "event_total": 62,
        "has_played": true,
        "id": 26609273,
        "last_rank": 7450,
        "player_name": "James Cunnane",
        "rank": 6413,
        "rank_sort": 6451,
        "total": 2409
      },
      {
        "club_badge_src": null,
        "entry": 3727160,
        "entry_name": "Rors scores",
        "event_total": 62,
        "has_played": true,
        "id": 27818591,
        "last_rank": 6154,
        "player_name": "Rory Sheret",
        "rank": 6413,
        "rank_sort": 6452,
        "total": 2409
      },
      {
        "club_badge_src": null,
        "entry": 3929726,
        "entry_name": "Ballers FC",
        "event_total": 60,
        "has_played": true,
        "id": 29554649,
        "last_rank": 6839,
        "player_name": "Faisal Al-Hitmi",
        "rank": 6413,
        "rank_sort": 6453,
        "total": 2409
      },
      {
        "club_badge_src": "https://fantasy.premierleague.com/gcs/plfpl-production-adobe-approved/plfpl-production/3972647/85f1470a-4fe3-4d2c-8a19-bfd14719c811.png",
        "entry": 3972647,
        "entry_name": "Sabsi FC",
        "event_total": 61,
        "has_played": true,
        "id": 29897202,
        "last_rank": 7014,
        "player_name": "Shirazi Sabsi",
        "rank": 6413,
        "rank_sort": 6454,
        "total": 2409
      },
      {
        "club_badge_src": null,
        "entry": 4074569,
        "entry_name": "D.I.V.O.R.C.E.F.C",
        "event_total": 60,
        "has_played": true,
        "id": 30756375,
        "last_rank": 6839,
        "player_name": "joe parkes",
        "rank": 6413,
        "rank_sort": 6455,
        "total": 2409
      },
      {
        "club_badge_src": null,
        "entry": 4118626,
        "entry_name": "FC Breskvica",
        "event_total": 53,
        "has_played": true,
        "id": 31114545,
        "last_rank": 5011,
        "player_name": "Marko Tutavac",
        "rank": 6413,
        "rank_sort": 6456,
        "total": 2409
      },
      {
        "club_badge_src": null,
        "entry": 4238267,
        "entry_name": "Machine Gun Skelly",
        "event_total": 49,
        "has_played": true,
        "id": 32118995,
        "last_rank": 4155,
        "player_name": "Sam Luxton",
        "rank": 6413,
        "rank_sort": 6457,
        "total": 2409
      },
      {
        "club_badge_src": null,
        "entry": 4414499,
        "entry_name": "Kinder Mbeumo",
        "event_total": 56,
        "has_played": true,
        "id": 33583604,
        "last_rank": 4742,
        "player_name": "Luke Hughes",
        "rank": 6413,
        "rank_sort": 6458,
        "total": 2409
      },
      {
        "club_badge_src": null,
        "entry": 4676352,
        "entry_name": "Eel-mountain",
        "event_total": 68,
        "has_played": true,
        "id": 35825285,
        "last_rank": 9644,
        "player_name": "Tommy Fors",
        "rank": 6413,
        "rank_sort": 6459,
        "total": 2409
      },
      {
        "club_badge_src": null,
        "entry": 4781038,
        "entry_name": "JVardysHavingASpaDay",
        "event_total": 66,
        "has_played": true,
        "id": 36805050,
        "last_rank": 7375,
        "player_name": "Matthew Hales",
        "rank": 6413,
        "rank_sort": 6460,
        "total": 2409
      },
      {
        "club_badge_src": null,
        "entry": 5132573,
        "entry_name": "Pikkantilope IL",
        "event_total": 58,
        "has_played": true,
        "id": 39696724,
        "last_rank": 5173,
        "player_name": "Tarjei Lervik",
        "rank": 6413,
        "rank_sort": 6461,
        "total": 2409
      },
      {
        "club_badge_src": null,
        "entry": 5138767,
        "entry_name": "Serengeti Boy'z FC",
        "event_total": 59,
        "has_played": true,
        "id": 39749254,
        "last_rank": 6579,
        "player_name": "alfred shaba",
        "rank": 6413,
        "rank_sort": 6462,
        "total": 2409
      },
      {
        "club_badge_src": null,
        "entry": 5517432,
        "entry_name": "My Thierno To Win",
        "event_total": 44,
        "has_played": true,
        "id": 43018705,
        "last_rank": 3331,
        "player_name": "callum howard",
        "rank": 6413,
        "rank_sort": 6463,
        "total": 2409
      },
      {
        "club_badge_src": null,
        "entry": 5521569,
        "entry_name": "PromisKudus Girl",
        "event_total": 57,
        "has_played": true,
        "id": 43056307,
        "last_rank": 6011,
        "player_name": "Max Mercadal",
        "rank": 6413,
        "rank_sort": 6464,
        "total": 2409
      },
      {
        "club_badge_src": null,
        "entry": 5752211,
        "entry_name": "To eze",
        "event_total": 48,
        "has_played": true,
        "id": 45084778,
        "last_rank": 3951,
        "player_name": "Jack Findlay",
        "rank": 6413,
        "rank_sort": 6465,
        "total": 2409
      },
      {
        "club_badge_src": null,
        "entry": 6113997,
        "entry_name": "Burnzpine FC",
        "event_total": 59,
        "has_played": true,
        "id": 48298176,
        "last_rank": 6448,
        "player_name": "Suyash Yadav",
        "rank": 6413,
        "rank_sort": 6466,
        "total": 2409
      },
      {
        "club_badge_src": null,
        "entry": 6575771,
        "entry_name": "Saka Potatoes",
        "event_total": 61,
        "has_played": true,
        "id": 52502337,
        "last_rank": 7141,
        "player_name": "Warsame Farhaan",
        "rank": 6413,
        "rank_sort": 6467,
        "total": 2409
      },
      {
        "club_badge_src": null,
        "entry": 6917338,
        "entry_name": "Chesco Gunners",
        "event_total": 59,
        "has_played": true,
        "id": 55449654,
        "last_rank": 6528,
        "player_name": "Josh Zeloyle",
        "rank": 6413,
        "rank_sort": 6468,
        "total": 2409
      },
      {
        "club_badge_src": null,
        "entry": 7057350,
        "entry_name": "Eintracht Frankfwort",
        "event_total": 70,
        "has_played": true,
        "id": 56768591,
        "last_rank": 10462,
        "player_name": "John Blezard",
        "rank": 6413,
        "rank_sort": 6469,
        "total": 2409
      },
      {
        "club_badge_src": null,
        "entry": 7140754,
        "entry_name": "Allan",
        "event_total": 46,
        "has_played": true,
        "id": 57561880,
        "last_rank": 2977,
        "player_name": "George Allan",
        "rank": 6413,
        "rank_sort": 6470,
        "total": 2409
      },
      {
        "club_badge_src": null,
        "entry": 8122401,
        "entry_name": "Keir Palmer",
        "event_total": 60,
        "has_played": true,
        "id": 67010784,
        "last_rank": 6839,
        "player_name": "Oscar Johnson",
        "rank": 6413,
        "rank_sort": 6471,
        "total": 2409
      },
      {
        "club_badge_src": null,
        "entry": 8184419,
        "entry_name": "SubwirtzExpectations",
        "event_total": 48,
        "has_played": true,
        "id": 67592958,
        "last_rank": 3902,
        "player_name": "Alfie Cardwell-Brown",
        "rank": 6413,
        "rank_sort": 6472,
        "total": 2409
      },
      {
        "club_badge_src": null,
        "entry": 8426345,
        "entry_name": "free tanaka",
        "event_total": 35,
        "has_played": true,
        "id": 69930208,
        "last_rank": 2112,
        "player_name": "hadrian curreem",
        "rank": 6413,
        "rank_sort": 6473,
        "total": 2409
      },
      {
        "club_badge_src": null,
        "entry": 7652,
        "entry_name": "Curse of flanny",
        "event_total": 66,
        "has_played": true,
        "id": 44140,
        "last_rank": 7450,
        "player_name": "John Flanagan",
        "rank": 6474,
        "rank_sort": 6474,
        "total": 2409
      },
      {
        "club_badge_src": null,
        "entry": 8270,
        "entry_name": "Zevasco FC",
        "event_total": 64,
        "has_played": true,
        "id": 47987,
        "last_rank": 6839,
        "player_name": "Jose Vasconcelos",
        "rank": 6474,
        "rank_sort": 6475,
        "total": 2409
      },
      {
        "club_badge_src": null,
        "entry": 10816,
        "entry_name": "Masta Squad",
        "event_total": 67,
        "has_played": true,
        "id": 64065,
        "last_rank": 9248,
        "player_name": "Marcin Kaczorowski",
        "rank": 6474,
        "rank_sort": 6476,
        "total": 2409
      },
      {
        "club_badge_src": null,
        "entry": 35165,
        "entry_name": "Cunha pass me a beer",
        "event_total": 72,
        "has_played": true,
        "id": 224945,
        "last_rank": 11419,
        "player_name": "Richard Greenhough",
        "rank": 6474,
        "rank_sort": 6477,
        "total": 2409
      },
      {
        "club_badge_src": null,
        "entry": 47025,
        "entry_name": "TeAmLeo",
        "event_total": 61,
        "has_played": true,
        "id": 301536,
        "last_rank": 7193,
        "player_name": "Kaau Patla",
        "rank": 6474,
        "rank_sort": 6478,
        "total": 2409
      },
      {
        "club_badge_src": null,
        "entry": 54082,
        "entry_name": "BabaIQ",
        "event_total": 72,
        "has_played": true,
        "id": 348046,
        "last_rank": 11345,
        "player_name": "Daniel Duggan",
        "rank": 6474,
        "rank_sort": 6479,
        "total": 2409
      },
      {
        "club_badge_src": "https://fantasy.premierleague.com/gcs/plfpl-production-adobe-approved/plfpl-production/62606/fcafd1b6-01e0-4bdc-99c0-4c7991089122.png",
        "entry": 62606,
        "entry_name": "MM FC",
        "event_total": 61,
        "has_played": true,
        "id": 403653,
        "last_rank": 7141,
        "player_name": "Muhd Meor",
        "rank": 6474,
        "rank_sort": 6480,
        "total": 2409
      },
      {
        "club_badge_src": null,
        "entry": 69428,
        "entry_name": "Yippee-Ki-Yay MF",
        "event_total": 58,
        "has_played": true,
        "id": 450333,
        "last_rank": 6305,
        "player_name": "Benon Iwko",
        "rank": 6474,
        "rank_sort": 6481,
        "total": 2409
      },
      {
        "club_badge_src": "https://fantasy.premierleague.com/gcs/plfpl-production-adobe-approved/plfpl-production/71104/76c2d214-fbe0-493e-9b76-2443e13f16b6.png",
        "entry": 71104,
        "entry_name": "Des Boops",
        "event_total": 59,
        "has_played": true,
        "id": 461783,
        "last_rank": 6579,
        "player_name": "Jack Chandler",
        "rank": 6474,
        "rank_sort": 6482,
        "total": 2409
      },
      {
        "club_badge_src": "https://fantasy.premierleague.com/gcs/plfpl-production-adobe-approved/plfpl-production/72548/4cf766a1-4d6e-4be7-9a1d-2129015c4c2c.png",
        "entry": 72548,
        "entry_name": "Mia San Mia",
        "event_total": 61,
        "has_played": true,
        "id": 471438,
        "last_rank": 7141,
        "player_name": "Nikola Bogi\u0107evi\u0107",
        "rank": 6474,
        "rank_sort": 6483,
        "total": 2409
      },
      {
        "club_badge_src": null,
        "entry": 88496,
        "entry_name": "it can",
        "event_total": 42,
        "has_played": true,
        "id": 577505,
        "last_rank": 3026,
        "player_name": "Ed Slade",
        "rank": 6474,
        "rank_sort": 6484,
        "total": 2409
      },
      {
        "club_badge_src": null,
        "entry": 114794,
        "entry_name": "JoelyBurger",
        "event_total": 51,
        "has_played": true,
        "id": 748913,
        "last_rank": 3079,
        "player_name": "Joel Forthun",
        "rank": 6474,
        "rank_sort": 6485,
        "total": 2409
      },
      {
        "club_badge_src": null,
        "entry": 172878,
        "entry_name": "Est\u00eawow",
        "event_total": 66,
        "has_played": true,
        "id": 1141781,
        "last_rank": 8925,
        "player_name": "Varun Khanna",
        "rank": 6474,
        "rank_sort": 6486,
        "total": 2409
      },
      {
        "club_badge_src": null,
        "entry": 212605,
        "entry_name": "are you ake?",
        "event_total": 63,
        "has_played": true,
        "id": 1414310,
        "last_rank": 6448,
        "player_name": "Ryan Johnston",
        "rank": 6474,
        "rank_sort": 6487,
        "total": 2409
      },
      {
        "club_badge_src": null,
        "entry": 216961,
        "entry_name": "Spiro FC",
        "event_total": 64,
        "has_played": true,
        "id": 1442985,
        "last_rank": 8198,
        "player_name": "Dan Spiro",
        "rank": 6474,
        "rank_sort": 6488,
        "total": 2409
      },
      {
        "club_badge_src": "https://fantasy.premierleague.com/gcs/plfpl-production-adobe-approved/plfpl-production/220504/8a39212a-7424-4b10-862d-1da76667e34f.png",
        "entry": 220504,
        "entry_name": "Obi Wan-Gandalf",
        "event_total": 67,
        "has_played": true,
        "id": 1466544,
        "last_rank": 9142,
        "player_name": "Oluwapamilerin Adeyemi",
        "rank": 6474,
        "rank_sort": 6489,
        "total": 2409
      },
      {
        "club_badge_src": null,
        "entry": 274078,
        "entry_name": "Eze like Sunday morn",
        "event_total": 66,
        "has_played": true,
        "id": 1823778,
        "last_rank": 8925,
        "player_name": "Jordan Poole",
        "rank": 6474,
        "rank_sort": 6490,
        "total": 2409
      },
      {
        "club_badge_src": "https://fantasy.premierleague.com/gcs/plfpl-production-adobe-approved/plfpl-production/397040/2c0653f6-169f-4f5f-bb13-fbe130fa0bfc.png",
        "entry": 397040,
        "entry_name": "Raya sunshine",
        "event_total": 61,
        "has_played": true,
        "id": 2662403,
        "last_rank": 7141,
        "player_name": "Liam Winton",
        "rank": 6474,
        "rank_sort": 6491,
        "total": 2409
      },
      {
        "club_badge_src": "https://fantasy.premierleague.com/gcs/plfpl-production-adobe-approved/plfpl-production/458713/e3bac6e2-3903-4ca6-9e5d-fcd7fbee6e6d.png",
        "entry": 458713,
        "entry_name": "bbl",
        "event_total": 63,
        "has_played": true,
        "id": 3077348,
        "last_rank": 7822,
        "player_name": "Arun Swaminathan",
        "rank": 6474,
        "rank_sort": 6492,
        "total": 2409
      },
      {
        "club_badge_src": "https://fantasy.premierleague.com/gcs/plfpl-production-adobe-approved/plfpl-production/513625/bb6443e0-c51b-40c7-ac8b-01216b61bd8d.png",
        "entry": 513625,
        "entry_name": "The Flying Dutchman",
        "event_total": 63,
        "has_played": true,
        "id": 3448795,
        "last_rank": 6528,
        "player_name": "Sean van Buiten",
        "rank": 6474,
        "rank_sort": 6493,
        "total": 2409
      },
      {
        "club_badge_src": null,
        "entry": 552587,
        "entry_name": "SlotMachines",
        "event_total": 42,
        "has_played": true,
        "id": 3719377,
        "last_rank": 3026,
        "player_name": "sumbo sola-ilori",
        "rank": 6474,
        "rank_sort": 6494,
        "total": 2409
      },
      {
        "club_badge_src": null,
        "entry": 567375,
        "entry_name": "United\u2019s Dinosaur",
        "event_total": 60,
        "has_played": true,
        "id": 3818695,
        "last_rank": 6839,
        "player_name": "Bharat Batra",
        "rank": 6474,
        "rank_sort": 6495,
        "total": 2409
      },
      {
        "club_badge_src": null,
        "entry": 654779,
        "entry_name": "We are Leeds",
        "event_total": 58,
        "has_played": true,
        "id": 4425052,
        "last_rank": 6305,
        "player_name": "we are leeds everyone hates us",
        "rank": 6474,
        "rank_sort": 6496,
        "total": 2409
      },
      {
        "club_badge_src": null,
        "entry": 661743,
        "entry_name": "do it again",
        "event_total": 64,
        "has_played": true,
        "id": 4472771,
        "last_rank": 8198,
        "player_name": "Dave Moxon",
        "rank": 6474,
        "rank_sort": 6497,
        "total": 2409
      },
      {
        "club_badge_src": "https://fantasy.premierleague.com/gcs/plfpl-production-adobe-approved/plfpl-production/674703/3830ff27-965b-430b-b80d-0e1244c6c15e.png",
        "entry": 674703,
        "entry_name": "D\u0363oherty\u2019s Dribblers",
        "event_total": 62,
        "has_played": true,
        "id": 4564401,
        "last_rank": 7501,
        "player_name": "Preben Mathieu-Bjerke",
        "rank": 6474,
        "rank_sort": 6498,
        "total": 2409
      },
      {
        "club_badge_src": null,
        "entry": 684383,
        "entry_name": "Isak at this",
        "event_total": 50,
        "has_played": true,
        "id": 4632282,
        "last_rank": 3601,
        "player_name": "Will Brotherton",
        "rank": 6474,
        "rank_sort": 6499,
        "total": 2409
      },
      {
        "club_badge_src": null,
        "entry": 689923,
        "entry_name": "HaCunha Matata",
        "event_total": 56,
        "has_played": true,
        "id": 4671527,
        "last_rank": 4804,
        "player_name": "Ray Sigala",
        "rank": 6474,
        "rank_sort": 6500,
        "total": 2409
      }
    ]
  }
}