{
  "last_updated_data": "2026-05-24T23:28:17Z",
  "league": {
    "admin_entry": null,
    "closed": false,
    "code_privacy": "p",
    "created": "2025-07-20T23:14:33.933835Z",
    "cup_league": 2815434,
    "has_cup": true,
    "id": 314,
    "league_type": "s",
    "max_entries": null,
    "name": "Overall",
    "rank": null,
    "scoring": "c",
    "start_event": 1
  },
  "new_entries": {
    "has_next": false,
    "page": 1,
    "results": []
  },
  "standings": {
    "has_next": true,
    "page": 846,
    "results": [
      {
        "club_badge_src": null,
        "entry": 5170706,
        "entry_name": "Blue Ball",
        "event_total": 48,
        "has_played": true,
        "id": 40018684,
        "last_rank": 31556,
        "player_name": "S B",
        "rank": 42238,
        "rank_sort": 42251,
        "total": 2357
      },
      {
        "club_badge_src": null,
        "entry": 5644597,
        "entry_name": "Dropouts XI",
        "event_total": 70,
        "has_played": true,
        "id": 44148706,
        "last_rank": 63117,
        "player_name": "Nazeem Marlie",
        "rank": 42238,
        "rank_sort": 42252,
        "total": 2357
      },
      {
        "club_badge_src": null,
        "entry": 5841300,
        "entry_name": "Eki-Tea-Cake",
        "event_total": 46,
        "has_played": true,
        "id": 45853781,
        "last_rank": 29522,
        "player_name": "Oliver Windle",
        "rank": 42238,
        "rank_sort": 42253,
        "total": 2357
      },
      {
        "club_badge_src": null,
        "entry": 6736717,
        "entry_name": "Agbadou-dou-dou",
        "event_total": 75,
        "has_played": true,
        "id": 53923919,
        "last_rank": 72622,
        "player_name": "Will Goucher",
        "rank": 42238,
        "rank_sort": 42254,
        "total": 2357
      },
      {
        "club_badge_src": null,
        "entry": 8497808,
        "entry_name": "Awakcupukakak",
        "event_total": 75,
        "has_played": true,
        "id": 70616041,
        "last_rank": 72613,
        "player_name": "Jericho Situmorang",
        "rank": 42238,
        "rank_sort": 42255,
        "total": 2357
      },
      {
        "club_badge_src": null,
        "entry": 9273019,
        "entry_name": "Udogie House",
        "event_total": 51,
        "has_played": true,
        "id": 78148097,
        "last_rank": 34969,
        "player_name": "Jack Rowlett",
        "rank": 42238,
        "rank_sort": 42256,
        "total": 2357
      },
      {
        "club_badge_src": "https://fantasy.premierleague.com/gcs/plfpl-production-adobe-approved/plfpl-production/4044/378123af-4b2d-4668-98f6-ef51aab1d159.png",
        "entry": 4044,
        "entry_name": "Syrex",
        "event_total": 80,
        "has_played": true,
        "id": 22941,
        "last_rank": 83584,
        "player_name": "Arjun Mahara",
        "rank": 42257,
        "rank_sort": 42257,
        "total": 2357
      },
      {
        "club_badge_src": "https://fantasy.premierleague.com/gcs/plfpl-production-adobe-approved/plfpl-production/38229/42ac1bd3-9026-4df1-894c-a77e4b4e01b9.png",
        "entry": 38229,
        "entry_name": "Kinder Mbeumo",
        "event_total": 58,
        "has_played": true,
        "id": 245005,
        "last_rank": 43849,
        "player_name": "Jonas Nordqvist",
        "rank": 42257,
        "rank_sort": 42258,
        "total": 2357
      },
      {
        "club_badge_src": null,
        "entry": 43747,
        "entry_name": "Sumner\u2019s Supernovas",
        "event_total": 69,
        "has_played": true,
        "id": 280209,
        "last_rank": 61220,
        "player_name": "Luke Sumner",
        "rank": 42257,
        "rank_sort": 42259,
        "total": 2357
      },
      {
        "club_badge_src": null,
        "entry": 125786,
        "entry_name": "Ok, \u00e9n gang til, da",
        "event_total": 51,
        "has_played": true,
        "id": 820337,
        "last_rank": 35034,
        "player_name": "Magnus Muri Nygren",
        "rank": 42257,
        "rank_sort": 42260,
        "total": 2357
      },
      {
        "club_badge_src": null,
        "entry": 440465,
        "entry_name": "arsenhotspurs",
        "event_total": 49,
        "has_played": true,
        "id": 2953373,
        "last_rank": 32688,
        "player_name": "yas zyzz",
        "rank": 42257,
        "rank_sort": 42261,
        "total": 2357
      },
      {
        "club_badge_src": null,
        "entry": 809020,
        "entry_name": "FC Slabheed",
        "event_total": 57,
        "has_played": true,
        "id": 5538780,
        "last_rank": 42401,
        "player_name": "Cammy Bowden",
        "rank": 42257,
        "rank_sort": 42262,
        "total": 2357
      },
      {
        "club_badge_src": null,
        "entry": 1060998,
        "entry_name": "Los Locos",
        "event_total": 58,
        "has_played": true,
        "id": 7344329,
        "last_rank": 43786,
        "player_name": "Brad Ronald",
        "rank": 42257,
        "rank_sort": 42263,
        "total": 2357
      },
      {
        "club_badge_src": null,
        "entry": 1254174,
        "entry_name": "Saka problems",
        "event_total": 45,
        "has_played": true,
        "id": 8710829,
        "last_rank": 28609,
        "player_name": "Klaus Broe \u00d8stergaard",
        "rank": 42257,
        "rank_sort": 42264,
        "total": 2357
      },
      {
        "club_badge_src": null,
        "entry": 1322195,
        "entry_name": "FC AJ",
        "event_total": 64,
        "has_played": true,
        "id": 9190544,
        "last_rank": 52759,
        "player_name": "Adam James",
        "rank": 42257,
        "rank_sort": 42265,
        "total": 2357
      },
      {
        "club_badge_src": null,
        "entry": 2021190,
        "entry_name": "Pafos fc",
        "event_total": 62,
        "has_played": true,
        "id": 14302111,
        "last_rank": 49607,
        "player_name": "marios charalambous",
        "rank": 42257,
        "rank_sort": 42266,
        "total": 2357
      },
      {
        "club_badge_src": null,
        "entry": 2336522,
        "entry_name": "Acos Fellas",
        "event_total": 58,
        "has_played": true,
        "id": 16671322,
        "last_rank": 43757,
        "player_name": "Sam Acton",
        "rank": 42257,
        "rank_sort": 42267,
        "total": 2357
      },
      {
        "club_badge_src": null,
        "entry": 2399278,
        "entry_name": "Noni your business",
        "event_total": 59,
        "has_played": true,
        "id": 17147280,
        "last_rank": 45182,
        "player_name": "Qhawe Makaula",
        "rank": 42257,
        "rank_sort": 42268,
        "total": 2357
      },
      {
        "club_badge_src": null,
        "entry": 2593577,
        "entry_name": "RFB",
        "event_total": 51,
        "has_played": true,
        "id": 18622333,
        "last_rank": 35034,
        "player_name": "Mark Redding",
        "rank": 42257,
        "rank_sort": 42269,
        "total": 2357
      },
      {
        "club_badge_src": null,
        "entry": 3018138,
        "entry_name": "Muad Deckers",
        "event_total": 75,
        "has_played": true,
        "id": 22205398,
        "last_rank": 72638,
        "player_name": "Connor Love",
        "rank": 42257,
        "rank_sort": 42270,
        "total": 2357
      },
      {
        "club_badge_src": null,
        "entry": 3081174,
        "entry_name": "uncleDEE MEN",
        "event_total": 58,
        "has_played": true,
        "id": 22699647,
        "last_rank": 43786,
        "player_name": "adebola shode",
        "rank": 42257,
        "rank_sort": 42271,
        "total": 2357
      },
      {
        "club_badge_src": null,
        "entry": 3451752,
        "entry_name": "Ronaldolover75",
        "event_total": 47,
        "has_played": true,
        "id": 25651453,
        "last_rank": 30600,
        "player_name": "Louis Collison",
        "rank": 42257,
        "rank_sort": 42272,
        "total": 2357
      },
      {
        "club_badge_src": null,
        "entry": 3972064,
        "entry_name": "Call of Diouf-ty",
        "event_total": 79,
        "has_played": true,
        "id": 29892435,
        "last_rank": 81244,
        "player_name": "Danny Magri",
        "rank": 42257,
        "rank_sort": 42273,
        "total": 2357
      },
      {
        "club_badge_src": null,
        "entry": 4070277,
        "entry_name": "Kai me a river",
        "event_total": 63,
        "has_played": true,
        "id": 30721049,
        "last_rank": 51137,
        "player_name": "Dan Thomas",
        "rank": 42257,
        "rank_sort": 42274,
        "total": 2357
      },
      {
        "club_badge_src": null,
        "entry": 4255391,
        "entry_name": "Selam",
        "event_total": 78,
        "has_played": true,
        "id": 32260771,
        "last_rank": 79190,
        "player_name": "Osman Ibrahim",
        "rank": 42257,
        "rank_sort": 42275,
        "total": 2357
      },
      {
        "club_badge_src": "https://fantasy.premierleague.com/gcs/plfpl-production-adobe-approved/plfpl-production/6181282/7c034289-ee41-4b29-81dc-30c974c5366b.png",
        "entry": 6181282,
        "entry_name": "The highs and Dalots",
        "event_total": 39,
        "has_played": true,
        "id": 48883682,
        "last_rank": 23230,
        "player_name": "Adrian Januarie",
        "rank": 42257,
        "rank_sort": 42276,
        "total": 2357
      },
      {
        "club_badge_src": null,
        "entry": 6709114,
        "entry_name": "C.A",
        "event_total": 55,
        "has_played": true,
        "id": 53689795,
        "last_rank": 39874,
        "player_name": "Cameron Obrey",
        "rank": 42257,
        "rank_sort": 42277,
        "total": 2357
      },
      {
        "club_badge_src": null,
        "entry": 6925326,
        "entry_name": "Mainoo Event",
        "event_total": 56,
        "has_played": true,
        "id": 55516113,
        "last_rank": 41162,
        "player_name": "Ian Markwei",
        "rank": 42257,
        "rank_sort": 42278,
        "total": 2357
      },
      {
        "club_badge_src": "https://fantasy.premierleague.com/gcs/plfpl-production-adobe-approved/plfpl-production/7125911/c0a6b764-ba47-4f68-816f-a97c9880497a.png",
        "entry": 7125911,
        "entry_name": "#39",
        "event_total": 64,
        "has_played": true,
        "id": 57421815,
        "last_rank": 52759,
        "player_name": "Fidel Agedi",
        "rank": 42257,
        "rank_sort": 42279,
        "total": 2357
      },
      {
        "club_badge_src": null,
        "entry": 7226376,
        "entry_name": "mosalah143",
        "event_total": 57,
        "has_played": true,
        "id": 58381499,
        "last_rank": 42401,
        "player_name": "Luke Williams",
        "rank": 42257,
        "rank_sort": 42280,
        "total": 2357
      },
      {
        "club_badge_src": null,
        "entry": 7471905,
        "entry_name": "Soda Pop Squad",
        "event_total": 63,
        "has_played": true,
        "id": 60920106,
        "last_rank": 51220,
        "player_name": "Rizal Anwardeen",
        "rank": 42257,
        "rank_sort": 42281,
        "total": 2357
      },
      {
        "club_badge_src": null,
        "entry": 8352702,
        "entry_name": "yes billy",
        "event_total": 51,
        "has_played": true,
        "id": 69227729,
        "last_rank": 35034,
        "player_name": "\u654f \u8ba1",
        "rank": 42257,
        "rank_sort": 42282,
        "total": 2357
      },
      {
        "club_badge_src": null,
        "entry": 8382967,
        "entry_name": "Cleere Cut",
        "event_total": 67,
        "has_played": true,
        "id": 69519069,
        "last_rank": 57776,
        "player_name": "Damian Cleere",
        "rank": 42257,
        "rank_sort": 42283,
        "total": 2357
      },
      {
        "club_badge_src": null,
        "entry": 8535879,
        "entry_name": "FOOTBALL!!! YEAH!!!!",
        "event_total": 56,
        "has_played": true,
        "id": 70983049,
        "last_rank": 41162,
        "player_name": "Rob HIll",
        "rank": 42257,
        "rank_sort": 42284,
        "total": 2357
      },
      {
        "club_badge_src": null,
        "entry": 9054706,
        "entry_name": "Roll the Dyche",
        "event_total": 39,
        "has_played": true,
        "id": 76010874,
        "last_rank": 23230,
        "player_name": "Dan Lewis",
        "rank": 42257,
        "rank_sort": 42285,
        "total": 2357
      },
      {
        "club_badge_src": null,
        "entry": 9329209,
        "entry_name": "Alfie Athletic",
        "event_total": 57,
        "has_played": true,
        "id": 78689393,
        "last_rank": 42434,
        "player_name": "Natalie Greenwood",
        "rank": 42257,
        "rank_sort": 42286,
        "total": 2357
      },
      {
        "club_badge_src": "https://fantasy.premierleague.com/gcs/plfpl-production-adobe-approved/plfpl-production/3660/744f33c1-6438-4989-af52-e298f906df3b.png",
        "entry": 3660,
        "entry_name": "Where's Wenger?",
        "event_total": 55,
        "has_played": true,
        "id": 20761,
        "last_rank": 39816,
        "player_name": "Ashkar Asraf",
        "rank": 42287,
        "rank_sort": 42287,
        "total": 2357
      },
      {
        "club_badge_src": null,
        "entry": 10371,
        "entry_name": "Carlito's Way",
        "event_total": 53,
        "has_played": true,
        "id": 61314,
        "last_rank": 37435,
        "player_name": "Carla Qvarnstrom",
        "rank": 42287,
        "rank_sort": 42288,
        "total": 2357
      },
      {
        "club_badge_src": "https://fantasy.premierleague.com/gcs/plfpl-production-adobe-approved/plfpl-production/22710/081ad1b1-6e0d-4f76-a2b4-2cea8a2e7ce1.png",
        "entry": 22710,
        "entry_name": "G.Michael\u2019s Tackle",
        "event_total": 57,
        "has_played": true,
        "id": 142716,
        "last_rank": 42648,
        "player_name": "Iain McLean",
        "rank": 42287,
        "rank_sort": 42289,
        "total": 2357
      },
      {
        "club_badge_src": null,
        "entry": 75458,
        "entry_name": "Yoro wizard Lenny",
        "event_total": 73,
        "has_played": true,
        "id": 490578,
        "last_rank": 68624,
        "player_name": "Leo Slaney",
        "rank": 42287,
        "rank_sort": 42290,
        "total": 2357
      },
      {
        "club_badge_src": null,
        "entry": 84938,
        "entry_name": "Bad Ebening",
        "event_total": 76,
        "has_played": true,
        "id": 553078,
        "last_rank": 74787,
        "player_name": "James Young",
        "rank": 42287,
        "rank_sort": 42291,
        "total": 2357
      },
      {
        "club_badge_src": null,
        "entry": 105474,
        "entry_name": "SpeedyGoSalah",
        "event_total": 62,
        "has_played": true,
        "id": 687904,
        "last_rank": 49607,
        "player_name": "Maren Eliassen",
        "rank": 42287,
        "rank_sort": 42292,
        "total": 2357
      },
      {
        "club_badge_src": null,
        "entry": 161510,
        "entry_name": "A little shuffle FC",
        "event_total": 52,
        "has_played": true,
        "id": 1064118,
        "last_rank": 36200,
        "player_name": "Josh Hanley",
        "rank": 42287,
        "rank_sort": 42293,
        "total": 2357
      },
      {
        "club_badge_src": null,
        "entry": 181573,
        "entry_name": "Couchpotatoe",
        "event_total": 40,
        "has_played": true,
        "id": 1198214,
        "last_rank": 24143,
        "player_name": "Andreas Penz",
        "rank": 42287,
        "rank_sort": 42294,
        "total": 2357
      },
      {
        "club_badge_src": null,
        "entry": 182432,
        "entry_name": "Listen, Fair Play",
        "event_total": 63,
        "has_played": true,
        "id": 1203893,
        "last_rank": 51137,
        "player_name": "Nick FitzGerald",
        "rank": 42287,
        "rank_sort": 42295,
        "total": 2357
      },
      {
        "club_badge_src": null,
        "entry": 236057,
        "entry_name": "Kulman Pallo",
        "event_total": 65,
        "has_played": true,
        "id": 1570661,
        "last_rank": 54494,
        "player_name": "Eetu Komulainen",
        "rank": 42287,
        "rank_sort": 42296,
        "total": 2357
      },
      {
        "club_badge_src": null,
        "entry": 287609,
        "entry_name": "Struijk a Pose",
        "event_total": 25,
        "has_played": true,
        "id": 1916712,
        "last_rank": 13720,
        "player_name": "Bobby Fuller",
        "rank": 42287,
        "rank_sort": 42297,
        "total": 2357
      },
      {
        "club_badge_src": null,
        "entry": 347718,
        "entry_name": "Mladi Radnik 012",
        "event_total": 52,
        "has_played": true,
        "id": 2327424,
        "last_rank": 36348,
        "player_name": "Milo\u0161 Sreji\u0107",
        "rank": 42287,
        "rank_sort": 42298,
        "total": 2357
      },
      {
        "club_badge_src": "https://fantasy.premierleague.com/gcs/plfpl-production-adobe-approved/plfpl-production/383288/f1a97486-62ba-449e-bd72-8eea57cf4e7e.png",
        "entry": 383288,
        "entry_name": "lost_cule",
        "event_total": 80,
        "has_played": true,
        "id": 2570405,
        "last_rank": 83584,
        "player_name": "Christian Romero",
        "rank": 42287,
        "rank_sort": 42299,
        "total": 2357
      },
      {
        "club_badge_src": null,
        "entry": 429884,
        "entry_name": "Hugo's boss",
        "event_total": 58,
        "has_played": true,
        "id": 2883228,
        "last_rank": 43786,
        "player_name": "Sam Sellars",
        "rank": 42287,
        "rank_sort": 42300,
        "total": 2357
      }
    ]
  }
}