{
  "last_updated_data": "2026-05-24T23:28:17Z",
  "league": {
    "admin_entry": null,
    "closed": false,
    "code_privacy": "p",
    "created": "2025-07-20T23:14:33.933835Z",
    "cup_league": 2815434,
    "has_cup": true,
    "id": 314,
    "league_type": "s",
    "max_entries": null,
    "name": "Overall",
    "rank": null,
    "scoring": "c",
    "start_event": 1
  },
  "new_entries": {
    "has_next": false,
    "page": 1,
    "results": []
  },
  "standings": {
    "has_next": true,
    "page": 1052,
    "results": [
      {
        "club_badge_src": null,
        "entry": 644163,
        "entry_name": "Reformed",
        "event_total": 64,
        "has_played": true,
        "id": 4353306,
        "last_rank": 64830,
        "player_name": "Tony Buck",
        "rank": 52470,
        "rank_sort": 52551,
        "total": 2350
      },
      {
        "club_badge_src": null,
        "entry": 666416,
        "entry_name": "MCFC OK",
        "event_total": 50,
        "has_played": true,
        "id": 4505771,
        "last_rank": 42648,
        "player_name": "Leo Larsson Kock",
        "rank": 52470,
        "rank_sort": 52552,
        "total": 2350
      },
      {
        "club_badge_src": null,
        "entry": 674407,
        "entry_name": "CLXDE",
        "event_total": 84,
        "has_played": true,
        "id": 4562327,
        "last_rank": 100527,
        "player_name": "arminas navikas",
        "rank": 52470,
        "rank_sort": 52553,
        "total": 2350
      },
      {
        "club_badge_src": null,
        "entry": 715319,
        "entry_name": "Enzo Le Thr\u00e9e Points",
        "event_total": 35,
        "has_played": true,
        "id": 4853153,
        "last_rank": 25776,
        "player_name": "Philip Smith",
        "rank": 52470,
        "rank_sort": 52554,
        "total": 2350
      },
      {
        "club_badge_src": null,
        "entry": 733257,
        "entry_name": "Petzon Rovers",
        "event_total": 45,
        "has_played": true,
        "id": 4982948,
        "last_rank": 36348,
        "player_name": "Petter Riedel",
        "rank": 52470,
        "rank_sort": 52555,
        "total": 2350
      },
      {
        "club_badge_src": null,
        "entry": 741123,
        "entry_name": "Shoulda WHUda Coulda",
        "event_total": 68,
        "has_played": true,
        "id": 5039930,
        "last_rank": 73038,
        "player_name": "Colin Hall",
        "rank": 52470,
        "rank_sort": 52556,
        "total": 2350
      },
      {
        "club_badge_src": null,
        "entry": 744014,
        "entry_name": "Barca",
        "event_total": 48,
        "has_played": true,
        "id": 5061046,
        "last_rank": 40036,
        "player_name": "Craig Fernandes",
        "rank": 52470,
        "rank_sort": 52557,
        "total": 2350
      },
      {
        "club_badge_src": null,
        "entry": 753351,
        "entry_name": "Noble Games Allowed",
        "event_total": 61,
        "has_played": true,
        "id": 5126568,
        "last_rank": 59813,
        "player_name": "Tara Hulbert",
        "rank": 52470,
        "rank_sort": 52558,
        "total": 2350
      },
      {
        "club_badge_src": null,
        "entry": 757757,
        "entry_name": "MF Sarr Boy",
        "event_total": 63,
        "has_played": true,
        "id": 5161298,
        "last_rank": 63390,
        "player_name": "Nathan Separovic",
        "rank": 52470,
        "rank_sort": 52559,
        "total": 2350
      },
      {
        "club_badge_src": null,
        "entry": 758587,
        "entry_name": "Mesut & Tie FC",
        "event_total": 66,
        "has_played": true,
        "id": 5167637,
        "last_rank": 68957,
        "player_name": "Jamie Corps",
        "rank": 52470,
        "rank_sort": 52560,
        "total": 2350
      },
      {
        "club_badge_src": null,
        "entry": 780665,
        "entry_name": "Kingswood Blues",
        "event_total": 48,
        "has_played": true,
        "id": 5329802,
        "last_rank": 39874,
        "player_name": "Arun Shankar",
        "rank": 52470,
        "rank_sort": 52561,
        "total": 2350
      },
      {
        "club_badge_src": null,
        "entry": 838341,
        "entry_name": "Abbepool FC",
        "event_total": 56,
        "has_played": true,
        "id": 5743586,
        "last_rank": 51137,
        "player_name": "Albin Gr\u00f6nqvist",
        "rank": 52470,
        "rank_sort": 52562,
        "total": 2350
      },
      {
        "club_badge_src": null,
        "entry": 859959,
        "entry_name": "FulHamandEgg",
        "event_total": 88,
        "has_played": true,
        "id": 5895086,
        "last_rank": 123908,
        "player_name": "Andy Miller",
        "rank": 52470,
        "rank_sort": 52563,
        "total": 2350
      },
      {
        "club_badge_src": "https://fantasy.premierleague.com/gcs/plfpl-production-adobe-approved/plfpl-production/879321/b941822d-677b-40ad-9719-316ee28d6beb.png",
        "entry": 879321,
        "entry_name": "Fc Karakalpakstan",
        "event_total": 71,
        "has_played": true,
        "id": 6029815,
        "last_rank": 79190,
        "player_name": "Shaykhnadjimaddin Abatov",
        "rank": 52470,
        "rank_sort": 52564,
        "total": 2350
      },
      {
        "club_badge_src": "https://fantasy.premierleague.com/gcs/plfpl-production-adobe-approved/plfpl-production/910216/d78a2a06-2d66-4211-b005-bd8b6d78d2c6.png",
        "entry": 910216,
        "entry_name": "Ha Cunha Mateta",
        "event_total": 58,
        "has_played": true,
        "id": 6258127,
        "last_rank": 54667,
        "player_name": "Wojciech \u015awistu\u0144",
        "rank": 52470,
        "rank_sort": 52565,
        "total": 2350
      },
      {
        "club_badge_src": "https://fantasy.premierleague.com/gcs/plfpl-production-adobe-approved/plfpl-production/918891/db05266f-d50c-4792-be80-43370d0deeba.png",
        "entry": 918891,
        "entry_name": "Goelball Gorillas FC",
        "event_total": 82,
        "has_played": true,
        "id": 6319067,
        "last_rank": 105748,
        "player_name": "Aryan Goel",
        "rank": 52470,
        "rank_sort": 52566,
        "total": 2350
      },
      {
        "club_badge_src": null,
        "entry": 931653,
        "entry_name": "Villans 2",
        "event_total": 45,
        "has_played": true,
        "id": 6410669,
        "last_rank": 36624,
        "player_name": "Robert Smith",
        "rank": 52470,
        "rank_sort": 52567,
        "total": 2350
      },
      {
        "club_badge_src": "https://fantasy.premierleague.com/gcs/plfpl-production-adobe-approved/plfpl-production/990321/98d3f7ae-a8d1-4aec-9e67-269c1d209ec1.png",
        "entry": 990321,
        "entry_name": "Go Kerez Fc",
        "event_total": 54,
        "has_played": true,
        "id": 6828482,
        "last_rank": 48363,
        "player_name": "Gary Swift",
        "rank": 52470,
        "rank_sort": 52568,
        "total": 2350
      },
      {
        "club_badge_src": null,
        "entry": 994768,
        "entry_name": "Equalizer",
        "event_total": 55,
        "has_played": true,
        "id": 6864518,
        "last_rank": 49691,
        "player_name": "Nirmal Joy",
        "rank": 52470,
        "rank_sort": 52569,
        "total": 2350
      },
      {
        "club_badge_src": null,
        "entry": 1007109,
        "entry_name": "Lassegubbar",
        "event_total": 64,
        "has_played": true,
        "id": 6962654,
        "last_rank": 65163,
        "player_name": "Jonathan Lengyel",
        "rank": 52470,
        "rank_sort": 52570,
        "total": 2350
      },
      {
        "club_badge_src": "https://fantasy.premierleague.com/gcs/plfpl-production-adobe-approved/plfpl-production/1022524/5124eb54-a937-4354-9be7-126ca7ffec13.png",
        "entry": 1022524,
        "entry_name": "HoneyDionDrenaBeljo",
        "event_total": 69,
        "has_played": true,
        "id": 7074379,
        "last_rank": 74898,
        "player_name": "Hrvoje Ten\u0161ek",
        "rank": 52470,
        "rank_sort": 52571,
        "total": 2350
      },
      {
        "club_badge_src": null,
        "entry": 1054715,
        "entry_name": "Anis Hakimi",
        "event_total": 72,
        "has_played": true,
        "id": 7299349,
        "last_rank": 81646,
        "player_name": "Anis Hakimi",
        "rank": 52470,
        "rank_sort": 52572,
        "total": 2350
      },
      {
        "club_badge_src": null,
        "entry": 1063633,
        "entry_name": "We're all winners",
        "event_total": 67,
        "has_played": true,
        "id": 7363161,
        "last_rank": 70757,
        "player_name": "Matt L",
        "rank": 52470,
        "rank_sort": 52573,
        "total": 2350
      },
      {
        "club_badge_src": null,
        "entry": 1087415,
        "entry_name": "Let's get physical",
        "event_total": 45,
        "has_played": true,
        "id": 7530753,
        "last_rank": 36348,
        "player_name": "Phil Bean",
        "rank": 52470,
        "rank_sort": 52574,
        "total": 2350
      },
      {
        "club_badge_src": null,
        "entry": 1168489,
        "entry_name": "Twadebayor",
        "event_total": 48,
        "has_played": true,
        "id": 8106058,
        "last_rank": 39874,
        "player_name": "Espen Baustad Tveit",
        "rank": 52470,
        "rank_sort": 52575,
        "total": 2350
      },
      {
        "club_badge_src": null,
        "entry": 1207404,
        "entry_name": "Rashad FC",
        "event_total": 73,
        "has_played": true,
        "id": 8379205,
        "last_rank": 83698,
        "player_name": "Ahmed Rashad",
        "rank": 52470,
        "rank_sort": 52576,
        "total": 2350
      },
      {
        "club_badge_src": null,
        "entry": 1215426,
        "entry_name": "The Best 11",
        "event_total": 58,
        "has_played": true,
        "id": 8436252,
        "last_rank": 54494,
        "player_name": "Jashu Pun",
        "rank": 52470,
        "rank_sort": 52577,
        "total": 2350
      },
      {
        "club_badge_src": null,
        "entry": 1219240,
        "entry_name": "The Green Army",
        "event_total": 64,
        "has_played": true,
        "id": 8464625,
        "last_rank": 64943,
        "player_name": "Seb Dungan",
        "rank": 52470,
        "rank_sort": 52578,
        "total": 2350
      },
      {
        "club_badge_src": null,
        "entry": 1239907,
        "entry_name": "Kinder Mbuemo",
        "event_total": 67,
        "has_played": true,
        "id": 8611139,
        "last_rank": 70651,
        "player_name": "Lee Bickers",
        "rank": 52470,
        "rank_sort": 52579,
        "total": 2350
      },
      {
        "club_badge_src": null,
        "entry": 1263638,
        "entry_name": "Jawhara",
        "event_total": 49,
        "has_played": true,
        "id": 8779756,
        "last_rank": 41162,
        "player_name": "fati E28larabi",
        "rank": 52470,
        "rank_sort": 52580,
        "total": 2350
      },
      {
        "club_badge_src": "https://fantasy.premierleague.com/gcs/plfpl-production-adobe-approved/plfpl-production/1273206/d96d60b9-8749-401c-9b41-f95b5940032f.png",
        "entry": 1273206,
        "entry_name": "\u0416\u0410\u0411\u0410-\u0413\u0410\u0414\u042e\u041a\u0410",
        "event_total": 71,
        "has_played": true,
        "id": 8846741,
        "last_rank": 79431,
        "player_name": "Vasyl Koval",
        "rank": 52470,
        "rank_sort": 52581,
        "total": 2350
      },
      {
        "club_badge_src": null,
        "entry": 1288264,
        "entry_name": "Ben's White Powder",
        "event_total": 67,
        "has_played": true,
        "id": 8951862,
        "last_rank": 70757,
        "player_name": "Joe Silvester",
        "rank": 52470,
        "rank_sort": 52582,
        "total": 2350
      },
      {
        "club_badge_src": null,
        "entry": 1307928,
        "entry_name": "NightmareStage",
        "event_total": 53,
        "has_played": true,
        "id": 9091072,
        "last_rank": 46839,
        "player_name": "Daniel Bo\u017eac",
        "rank": 52470,
        "rank_sort": 52583,
        "total": 2350
      },
      {
        "club_badge_src": "https://fantasy.premierleague.com/gcs/plfpl-production-adobe-approved/plfpl-production/1309151/95c73a5b-a9aa-4c23-a18f-15499fd25342.png",
        "entry": 1309151,
        "entry_name": "Iwobi-Wan Kenobi",
        "event_total": 45,
        "has_played": true,
        "id": 9099876,
        "last_rank": 36348,
        "player_name": "Harvey Kenningley",
        "rank": 52470,
        "rank_sort": 52584,
        "total": 2350
      },
      {
        "club_badge_src": null,
        "entry": 1319146,
        "entry_name": "Hot Tub Pub Machine",
        "event_total": 57,
        "has_played": true,
        "id": 9168892,
        "last_rank": 53345,
        "player_name": "Chris Strivens",
        "rank": 52470,
        "rank_sort": 52585,
        "total": 2350
      },
      {
        "club_badge_src": null,
        "entry": 1321718,
        "entry_name": "YAK FC",
        "event_total": 57,
        "has_played": true,
        "id": 9187259,
        "last_rank": 52759,
        "player_name": "Eyong Oforbi",
        "rank": 52470,
        "rank_sort": 52586,
        "total": 2350
      },
      {
        "club_badge_src": null,
        "entry": 1339240,
        "entry_name": "\u039bKR\u039b\u0392 FC",
        "event_total": 46,
        "has_played": true,
        "id": 9311204,
        "last_rank": 37589,
        "player_name": "MO AKRAB",
        "rank": 52470,
        "rank_sort": 52587,
        "total": 2350
      },
      {
        "club_badge_src": null,
        "entry": 1350345,
        "entry_name": "NB",
        "event_total": 67,
        "has_played": true,
        "id": 9387511,
        "last_rank": 70757,
        "player_name": "Nathan Barnes",
        "rank": 52470,
        "rank_sort": 52588,
        "total": 2350
      },
      {
        "club_badge_src": null,
        "entry": 1351161,
        "entry_name": "RobbeniHo",
        "event_total": 49,
        "has_played": true,
        "id": 9393183,
        "last_rank": 41162,
        "player_name": "NJY ng",
        "rank": 52470,
        "rank_sort": 52589,
        "total": 2350
      },
      {
        "club_badge_src": null,
        "entry": 1359716,
        "entry_name": "saka potatoes",
        "event_total": 52,
        "has_played": true,
        "id": 9451347,
        "last_rank": 45416,
        "player_name": "Mark Broom",
        "rank": 52470,
        "rank_sort": 52590,
        "total": 2350
      },
      {
        "club_badge_src": null,
        "entry": 1433262,
        "entry_name": "No Eye Deer",
        "event_total": 55,
        "has_played": true,
        "id": 9987031,
        "last_rank": 49880,
        "player_name": "Matt Harrington",
        "rank": 52470,
        "rank_sort": 52591,
        "total": 2350
      },
      {
        "club_badge_src": null,
        "entry": 1467484,
        "entry_name": "A7A GAMING",
        "event_total": 76,
        "has_played": true,
        "id": 10228971,
        "last_rank": 90565,
        "player_name": "Yousef Hassan",
        "rank": 52470,
        "rank_sort": 52592,
        "total": 2350
      },
      {
        "club_badge_src": null,
        "entry": 1472476,
        "entry_name": "Las Oste Lasane",
        "event_total": 52,
        "has_played": true,
        "id": 10264159,
        "last_rank": 45252,
        "player_name": "H\u00e5kon Weider",
        "rank": 52470,
        "rank_sort": 52593,
        "total": 2350
      },
      {
        "club_badge_src": null,
        "entry": 1481887,
        "entry_name": "Gwarfly",
        "event_total": 62,
        "has_played": true,
        "id": 10333520,
        "last_rank": 61315,
        "player_name": "Darren Pierce",
        "rank": 52470,
        "rank_sort": 52594,
        "total": 2350
      },
      {
        "club_badge_src": null,
        "entry": 1520280,
        "entry_name": "FC Oppermann",
        "event_total": 56,
        "has_played": true,
        "id": 10603567,
        "last_rank": 51403,
        "player_name": "Peter Helverskov",
        "rank": 52470,
        "rank_sort": 52595,
        "total": 2350
      },
      {
        "club_badge_src": null,
        "entry": 1556327,
        "entry_name": "Tewatia Tribute Act",
        "event_total": 62,
        "has_played": true,
        "id": 10866933,
        "last_rank": 54494,
        "player_name": "Rajat Patidar",
        "rank": 52470,
        "rank_sort": 52596,
        "total": 2350
      },
      {
        "club_badge_src": "https://fantasy.premierleague.com/gcs/plfpl-production-adobe-approved/plfpl-production/1572685/76517fdc-cfad-42f4-96f7-6be9cd744413.png",
        "entry": 1572685,
        "entry_name": "Yahia Takieddine",
        "event_total": 59,
        "has_played": true,
        "id": 10989051,
        "last_rank": 56180,
        "player_name": "Yahia Djalab",
        "rank": 52470,
        "rank_sort": 52597,
        "total": 2350
      },
      {
        "club_badge_src": null,
        "entry": 1597198,
        "entry_name": "Just common sence!!!",
        "event_total": 69,
        "has_played": true,
        "id": 11173045,
        "last_rank": 75139,
        "player_name": "Jo-Inge Rudolfsen",
        "rank": 52470,
        "rank_sort": 52598,
        "total": 2350
      },
      {
        "club_badge_src": "https://fantasy.premierleague.com/gcs/plfpl-production-adobe-approved/plfpl-production/1614967/e2e21715-595b-4111-a131-0ed5cf9b1786.png",
        "entry": 1614967,
        "entry_name": "newton heath fc",
        "event_total": 62,
        "has_played": true,
        "id": 11300188,
        "last_rank": 61411,
        "player_name": "Dimitar Pavlov",
        "rank": 52470,
        "rank_sort": 52599,
        "total": 2350
      },
      {
        "club_badge_src": null,
        "entry": 1626753,
        "entry_name": "Max Team Bass",
        "event_total": 53,
        "has_played": true,
        "id": 11386190,
        "last_rank": 46839,
        "player_name": "Owain Bass",
        "rank": 52470,
        "rank_sort": 52600,
        "total": 2350
      }
    ]
  }
}