{
  "last_updated_data": "2026-05-24T23:28:17Z",
  "league": {
    "admin_entry": null,
    "closed": false,
    "code_privacy": "p",
    "created": "2025-07-20T23:14:33.933835Z",
    "cup_league": 2815434,
    "has_cup": true,
    "id": 314,
    "league_type": "s",
    "max_entries": null,
    "name": "Overall",
    "rank": null,
    "scoring": "c",
    "start_event": 1
  },
  "new_entries": {
    "has_next": false,
    "page": 1,
    "results": []
  },
  "standings": {
    "has_next": true,
    "page": 817,
    "results": [
      {
        "club_badge_src": null,
        "entry": 7482027,
        "entry_name": "the tash crew",
        "event_total": 69,
        "has_played": true,
        "id": 61049254,
        "last_rank": 59291,
        "player_name": "Niall Whitehead",
        "rank": 40778,
        "rank_sort": 40801,
        "total": 2359
      },
      {
        "club_badge_src": null,
        "entry": 9418792,
        "entry_name": "SIR KIRAN",
        "event_total": 67,
        "has_played": true,
        "id": 79554637,
        "last_rank": 55865,
        "player_name": "Kiran Magar",
        "rank": 40778,
        "rank_sort": 40802,
        "total": 2359
      },
      {
        "club_badge_src": null,
        "entry": 9814,
        "entry_name": "Hans",
        "event_total": 73,
        "has_played": true,
        "id": 57856,
        "last_rank": 59249,
        "player_name": "Sam Berry",
        "rank": 40803,
        "rank_sort": 40803,
        "total": 2359
      },
      {
        "club_badge_src": null,
        "entry": 67419,
        "entry_name": "Er Law \u00e5 v\u00e6re Best",
        "event_total": 72,
        "has_played": true,
        "id": 436499,
        "last_rank": 57515,
        "player_name": "chris michael olsen",
        "rank": 40803,
        "rank_sort": 40804,
        "total": 2359
      },
      {
        "club_badge_src": null,
        "entry": 153824,
        "entry_name": "FC KAMIL",
        "event_total": 56,
        "has_played": true,
        "id": 1010320,
        "last_rank": 34825,
        "player_name": "Kamil Marczewski",
        "rank": 40803,
        "rank_sort": 40805,
        "total": 2359
      },
      {
        "club_badge_src": null,
        "entry": 168485,
        "entry_name": "Old Havertz Kai Hard",
        "event_total": 47,
        "has_played": true,
        "id": 1113552,
        "last_rank": 29411,
        "player_name": "Kieran Knight",
        "rank": 40803,
        "rank_sort": 40806,
        "total": 2359
      },
      {
        "club_badge_src": null,
        "entry": 376939,
        "entry_name": "Ralhilli",
        "event_total": 64,
        "has_played": true,
        "id": 2524825,
        "last_rank": 44982,
        "player_name": "Raed Al-Hilli",
        "rank": 40803,
        "rank_sort": 40807,
        "total": 2359
      },
      {
        "club_badge_src": null,
        "entry": 764354,
        "entry_name": "Bryan Mbueno",
        "event_total": 51,
        "has_played": true,
        "id": 5212939,
        "last_rank": 29369,
        "player_name": "Adam Luqman",
        "rank": 40803,
        "rank_sort": 40808,
        "total": 2359
      },
      {
        "club_badge_src": null,
        "entry": 1214756,
        "entry_name": "bashy Palmer",
        "event_total": 62,
        "has_played": true,
        "id": 8431631,
        "last_rank": 42263,
        "player_name": "Ashley Barrett",
        "rank": 40803,
        "rank_sort": 40809,
        "total": 2359
      },
      {
        "club_badge_src": null,
        "entry": 1217131,
        "entry_name": "AA",
        "event_total": 61,
        "has_played": true,
        "id": 8448229,
        "last_rank": 46432,
        "player_name": "Jakub Duleba",
        "rank": 40803,
        "rank_sort": 40810,
        "total": 2359
      },
      {
        "club_badge_src": "https://fantasy.premierleague.com/gcs/plfpl-production-adobe-approved/plfpl-production/1390509/2e00125d-a7f4-4994-bfbb-eedce22eb3df.png",
        "entry": 1390509,
        "entry_name": "U\u2b50S\u2b50M\u2b50A",
        "event_total": 75,
        "has_played": true,
        "id": 9673450,
        "last_rank": 70355,
        "player_name": "Merouane Daoud",
        "rank": 40803,
        "rank_sort": 40811,
        "total": 2359
      },
      {
        "club_badge_src": null,
        "entry": 2006959,
        "entry_name": "Visions of Paddy",
        "event_total": 38,
        "has_played": true,
        "id": 14189867,
        "last_rank": 21545,
        "player_name": "Patrick Devitt",
        "rank": 40803,
        "rank_sort": 40812,
        "total": 2359
      },
      {
        "club_badge_src": null,
        "entry": 2703004,
        "entry_name": "Woking Hotspurs",
        "event_total": 56,
        "has_played": true,
        "id": 19445570,
        "last_rank": 39673,
        "player_name": "Nick Daunt",
        "rank": 40803,
        "rank_sort": 40813,
        "total": 2359
      },
      {
        "club_badge_src": null,
        "entry": 2865666,
        "entry_name": "NoManUnited",
        "event_total": 56,
        "has_played": true,
        "id": 20958817,
        "last_rank": 34825,
        "player_name": "Sanket SINHA",
        "rank": 40803,
        "rank_sort": 40814,
        "total": 2359
      },
      {
        "club_badge_src": null,
        "entry": 4843522,
        "entry_name": "Sligeach F.C",
        "event_total": 55,
        "has_played": true,
        "id": 37312393,
        "last_rank": 33729,
        "player_name": "Darragh Jones",
        "rank": 40803,
        "rank_sort": 40815,
        "total": 2359
      },
      {
        "club_badge_src": null,
        "entry": 4906547,
        "entry_name": "Fayed",
        "event_total": 65,
        "has_played": true,
        "id": 37837002,
        "last_rank": 46364,
        "player_name": "Mostafa Fayed",
        "rank": 40803,
        "rank_sort": 40816,
        "total": 2359
      },
      {
        "club_badge_src": null,
        "entry": 6337843,
        "entry_name": "xdodo15",
        "event_total": 60,
        "has_played": true,
        "id": 50373452,
        "last_rank": 44982,
        "player_name": "Daniel Kobza",
        "rank": 40803,
        "rank_sort": 40817,
        "total": 2359
      },
      {
        "club_badge_src": null,
        "entry": 9866,
        "entry_name": "CoIoIeI Getafe",
        "event_total": 79,
        "has_played": true,
        "id": 58176,
        "last_rank": 62874,
        "player_name": "Ioan Davies",
        "rank": 40818,
        "rank_sort": 40818,
        "total": 2359
      },
      {
        "club_badge_src": null,
        "entry": 72772,
        "entry_name": "Looks Good On Paper",
        "event_total": 59,
        "has_played": true,
        "id": 472957,
        "last_rank": 38448,
        "player_name": "John E Veasey",
        "rank": 40818,
        "rank_sort": 40819,
        "total": 2359
      },
      {
        "club_badge_src": null,
        "entry": 118555,
        "entry_name": "FC Hollywood",
        "event_total": 68,
        "has_played": true,
        "id": 773711,
        "last_rank": 44950,
        "player_name": "Oussema Alimi",
        "rank": 40818,
        "rank_sort": 40820,
        "total": 2359
      },
      {
        "club_badge_src": null,
        "entry": 144237,
        "entry_name": "Montreal Albion",
        "event_total": 54,
        "has_played": true,
        "id": 944017,
        "last_rank": 32576,
        "player_name": "David Williams",
        "rank": 40818,
        "rank_sort": 40821,
        "total": 2359
      },
      {
        "club_badge_src": null,
        "entry": 221450,
        "entry_name": "Harimau Malayang",
        "event_total": 62,
        "has_played": true,
        "id": 1472855,
        "last_rank": 32531,
        "player_name": "Coach Lin",
        "rank": 40818,
        "rank_sort": 40822,
        "total": 2359
      },
      {
        "club_badge_src": null,
        "entry": 262500,
        "entry_name": "Falcon Heavy FC",
        "event_total": 50,
        "has_played": true,
        "id": 1745166,
        "last_rank": 32598,
        "player_name": "Simon Shilundeni",
        "rank": 40818,
        "rank_sort": 40823,
        "total": 2359
      },
      {
        "club_badge_src": null,
        "entry": 277394,
        "entry_name": "Braino Fernandes",
        "event_total": 61,
        "has_played": true,
        "id": 1846350,
        "last_rank": 35998,
        "player_name": "Mohamed Osama",
        "rank": 40818,
        "rank_sort": 40824,
        "total": 2359
      },
      {
        "club_badge_src": null,
        "entry": 287034,
        "entry_name": "ads lads",
        "event_total": 84,
        "has_played": true,
        "id": 1912636,
        "last_rank": 90359,
        "player_name": "Aadil Parwaiz",
        "rank": 40818,
        "rank_sort": 40825,
        "total": 2359
      },
      {
        "club_badge_src": null,
        "entry": 302535,
        "entry_name": "Ahmed",
        "event_total": 58,
        "has_played": true,
        "id": 2024662,
        "last_rank": 37211,
        "player_name": "Ahmed Tamer",
        "rank": 40818,
        "rank_sort": 40826,
        "total": 2359
      },
      {
        "club_badge_src": "https://fantasy.premierleague.com/gcs/plfpl-production-adobe-approved/plfpl-production/449878/ebf37c6a-9fe4-46da-b955-e6fc971c4de1.png",
        "entry": 449878,
        "entry_name": "Ghassan omar",
        "event_total": 47,
        "has_played": true,
        "id": 3018347,
        "last_rank": 25633,
        "player_name": "Ghassan Bn shaban",
        "rank": 40818,
        "rank_sort": 40827,
        "total": 2359
      },
      {
        "club_badge_src": null,
        "entry": 494757,
        "entry_name": "STAKKEN FC",
        "event_total": 56,
        "has_played": true,
        "id": 3320989,
        "last_rank": 34849,
        "player_name": "Didrik Wolff Vatle",
        "rank": 40818,
        "rank_sort": 40828,
        "total": 2359
      },
      {
        "club_badge_src": null,
        "entry": 668129,
        "entry_name": "Santas reijnders",
        "event_total": 43,
        "has_played": true,
        "id": 4517980,
        "last_rank": 25653,
        "player_name": "Siri \u00d8rn",
        "rank": 40818,
        "rank_sort": 40829,
        "total": 2359
      },
      {
        "club_badge_src": null,
        "entry": 812420,
        "entry_name": "Nizness as Usual",
        "event_total": 71,
        "has_played": true,
        "id": 5562621,
        "last_rank": 62939,
        "player_name": "Nizar Naamani",
        "rank": 40818,
        "rank_sort": 40830,
        "total": 2359
      },
      {
        "club_badge_src": null,
        "entry": 824983,
        "entry_name": "Mad T",
        "event_total": 54,
        "has_played": true,
        "id": 5650218,
        "last_rank": 37236,
        "player_name": "Turki Alotaibi",
        "rank": 40818,
        "rank_sort": 40831,
        "total": 2359
      },
      {
        "club_badge_src": "https://fantasy.premierleague.com/gcs/plfpl-production-adobe-approved/plfpl-production/953787/7fac339a-ede1-466a-9ee6-0d6ca4a676a5.png",
        "entry": 953787,
        "entry_name": "JOY BOYS \u2620\ufe0e\ufe0e",
        "event_total": 50,
        "has_played": true,
        "id": 6571552,
        "last_rank": 28466,
        "player_name": "Rahim D\u2022Hamdane",
        "rank": 40818,
        "rank_sort": 40832,
        "total": 2359
      },
      {
        "club_badge_src": "https://fantasy.premierleague.com/gcs/plfpl-production-adobe-approved/plfpl-production/1009673/bf4c53af-f2d9-454e-b16d-e53d1d402af6.png",
        "entry": 1009673,
        "entry_name": "RayaSunshiiine",
        "event_total": 65,
        "has_played": true,
        "id": 6981330,
        "last_rank": 52632,
        "player_name": "Paul Cunningham",
        "rank": 40818,
        "rank_sort": 40833,
        "total": 2359
      },
      {
        "club_badge_src": "https://fantasy.premierleague.com/gcs/plfpl-production-adobe-approved/plfpl-production/1119594/1e9602f3-be79-45d4-8625-a7cc61b1e2d2.png",
        "entry": 1119594,
        "entry_name": "Goal Hunters FC",
        "event_total": 55,
        "has_played": true,
        "id": 7755684,
        "last_rank": 38448,
        "player_name": "Jeremy Silwal",
        "rank": 40818,
        "rank_sort": 40834,
        "total": 2359
      },
      {
        "club_badge_src": null,
        "entry": 1426981,
        "entry_name": "Anti Jekpot2 Club",
        "event_total": 59,
        "has_played": true,
        "id": 9942524,
        "last_rank": 43657,
        "player_name": "Carter Tyler",
        "rank": 40818,
        "rank_sort": 40835,
        "total": 2359
      },
      {
        "club_badge_src": "https://fantasy.premierleague.com/gcs/plfpl-production-adobe-approved/plfpl-production/2098347/205c9398-6c3a-4e50-9996-cfd40c2c1ff4.png",
        "entry": 2098347,
        "entry_name": "el3aq",
        "event_total": 56,
        "has_played": true,
        "id": 14888441,
        "last_rank": 26512,
        "player_name": "Karim Hassan",
        "rank": 40818,
        "rank_sort": 40836,
        "total": 2359
      },
      {
        "club_badge_src": null,
        "entry": 2699886,
        "entry_name": "McTominators",
        "event_total": 62,
        "has_played": true,
        "id": 19421828,
        "last_rank": 47950,
        "player_name": "Wiggo Wein\u00f6",
        "rank": 40818,
        "rank_sort": 40837,
        "total": 2359
      },
      {
        "club_badge_src": null,
        "entry": 2835956,
        "entry_name": "Here We Gy\u00f6",
        "event_total": 49,
        "has_played": true,
        "id": 20725058,
        "last_rank": 31471,
        "player_name": "Micha\u0142 Konieczny",
        "rank": 40818,
        "rank_sort": 40838,
        "total": 2359
      },
      {
        "club_badge_src": null,
        "entry": 2921094,
        "entry_name": "De Hensynsl\u00f8se",
        "event_total": 41,
        "has_played": true,
        "id": 21413514,
        "last_rank": 20775,
        "player_name": "H\u00e5vard Albinussen",
        "rank": 40818,
        "rank_sort": 40839,
        "total": 2359
      },
      {
        "club_badge_src": "https://fantasy.premierleague.com/gcs/plfpl-production-adobe-approved/plfpl-production/2988460/aed3d3b1-0d5f-481f-8e52-0dee201dee1d.png",
        "entry": 2988460,
        "entry_name": "CrestmgFC",
        "event_total": 66,
        "has_played": true,
        "id": 21977399,
        "last_rank": 54244,
        "player_name": "Gopi Crestamang",
        "rank": 40818,
        "rank_sort": 40840,
        "total": 2359
      },
      {
        "club_badge_src": null,
        "entry": 3618614,
        "entry_name": "The Royals",
        "event_total": 68,
        "has_played": true,
        "id": 26959214,
        "last_rank": 34749,
        "player_name": "John Nicholson",
        "rank": 40818,
        "rank_sort": 40841,
        "total": 2359
      },
      {
        "club_badge_src": null,
        "entry": 5383705,
        "entry_name": "FC Demons",
        "event_total": 60,
        "has_played": true,
        "id": 41851859,
        "last_rank": 39650,
        "player_name": "Jae Lee",
        "rank": 40818,
        "rank_sort": 40842,
        "total": 2359
      },
      {
        "club_badge_src": null,
        "entry": 5666100,
        "entry_name": "Logics FC",
        "event_total": 74,
        "has_played": true,
        "id": 44333524,
        "last_rank": 61087,
        "player_name": "Wilson Logics",
        "rank": 40818,
        "rank_sort": 40843,
        "total": 2359
      },
      {
        "club_badge_src": null,
        "entry": 5716527,
        "entry_name": "I've made history",
        "event_total": 34,
        "has_played": true,
        "id": 44772476,
        "last_rank": 18612,
        "player_name": "Saud Moh",
        "rank": 40818,
        "rank_sort": 40844,
        "total": 2359
      },
      {
        "club_badge_src": null,
        "entry": 5894273,
        "entry_name": "cules CF",
        "event_total": 57,
        "has_played": true,
        "id": 46303580,
        "last_rank": 36015,
        "player_name": "Prachin Pokhrel",
        "rank": 40818,
        "rank_sort": 40845,
        "total": 2359
      },
      {
        "club_badge_src": null,
        "entry": 7207664,
        "entry_name": "Hakuna Mateta",
        "event_total": 54,
        "has_played": true,
        "id": 58204437,
        "last_rank": 37256,
        "player_name": "James Fisher",
        "rank": 40818,
        "rank_sort": 40846,
        "total": 2359
      },
      {
        "club_badge_src": null,
        "entry": 7304685,
        "entry_name": "Rice Rice Baby",
        "event_total": 52,
        "has_played": true,
        "id": 59121408,
        "last_rank": 30418,
        "player_name": "Jarryd Haynes",
        "rank": 40818,
        "rank_sort": 40847,
        "total": 2359
      },
      {
        "club_badge_src": null,
        "entry": 8810409,
        "entry_name": "Top5",
        "event_total": 44,
        "has_played": true,
        "id": 73645177,
        "last_rank": 26554,
        "player_name": "Cal Don-Moore",
        "rank": 40818,
        "rank_sort": 40848,
        "total": 2359
      },
      {
        "club_badge_src": "https://fantasy.premierleague.com/gcs/plfpl-production-adobe-approved/plfpl-production/275837/4a67a095-b280-4f5a-bc44-9d718b09cf33.png",
        "entry": 275837,
        "entry_name": "HaCunha Matata",
        "event_total": 59,
        "has_played": true,
        "id": 1835857,
        "last_rank": 43657,
        "player_name": "J\u00f3n V\u00ed\u00f0ir \u00deorvaldsson",
        "rank": 40849,
        "rank_sort": 40849,
        "total": 2359
      },
      {
        "club_badge_src": null,
        "entry": 573096,
        "entry_name": "Not Again",
        "event_total": 68,
        "has_played": true,
        "id": 3856945,
        "last_rank": 51013,
        "player_name": "Malcolm scott",
        "rank": 40849,
        "rank_sort": 40850,
        "total": 2359
      }
    ]
  }
}