{
  "last_updated_data": "2026-05-24T23:28:17Z",
  "league": {
    "admin_entry": null,
    "closed": false,
    "code_privacy": "p",
    "created": "2025-07-20T23:14:33.933835Z",
    "cup_league": 2815434,
    "has_cup": true,
    "id": 314,
    "league_type": "s",
    "max_entries": null,
    "name": "Overall",
    "rank": null,
    "scoring": "c",
    "start_event": 1
  },
  "new_entries": {
    "has_next": false,
    "page": 1,
    "results": []
  },
  "standings": {
    "has_next": true,
    "page": 1214,
    "results": [
      {
        "club_badge_src": null,
        "entry": 1802,
        "entry_name": "Bruno Dos Tres",
        "event_total": 69,
        "has_played": true,
        "id": 10036,
        "last_rank": 85932,
        "player_name": "Adnan Ghafoor",
        "rank": 60651,
        "rank_sort": 60651,
        "total": 2345
      },
      {
        "club_badge_src": "https://fantasy.premierleague.com/gcs/plfpl-production-adobe-approved/plfpl-production/2501/d2afa015-7993-4d75-8fc4-11f719907cc5.png",
        "entry": 2501,
        "entry_name": "Gunners",
        "event_total": 49,
        "has_played": true,
        "id": 13951,
        "last_rank": 48363,
        "player_name": "Karim Amin",
        "rank": 60651,
        "rank_sort": 60652,
        "total": 2345
      },
      {
        "club_badge_src": "https://fantasy.premierleague.com/gcs/plfpl-production-adobe-approved/plfpl-production/2965/1f8f5551-a97e-4c4d-9c16-39754a5078ea.png",
        "entry": 2965,
        "entry_name": "Tieron Nobody",
        "event_total": 61,
        "has_played": true,
        "id": 16706,
        "last_rank": 68748,
        "player_name": "Trond Hauso Hansen",
        "rank": 60651,
        "rank_sort": 60653,
        "total": 2345
      },
      {
        "club_badge_src": null,
        "entry": 4007,
        "entry_name": "Cash is King",
        "event_total": 67,
        "has_played": true,
        "id": 22733,
        "last_rank": 81646,
        "player_name": "Simon Griffiths",
        "rank": 60651,
        "rank_sort": 60654,
        "total": 2345
      },
      {
        "club_badge_src": "https://fantasy.premierleague.com/gcs/plfpl-production-adobe-approved/plfpl-production/7867/6130449e-bf9b-4df2-84c8-34e28d0532d1.png",
        "entry": 7867,
        "entry_name": "The Constant Gardner",
        "event_total": 65,
        "has_played": true,
        "id": 45422,
        "last_rank": 77258,
        "player_name": "Jack Henry Norris",
        "rank": 60651,
        "rank_sort": 60655,
        "total": 2345
      },
      {
        "club_badge_src": null,
        "entry": 11207,
        "entry_name": "Got mainoo shoes on",
        "event_total": 66,
        "has_played": true,
        "id": 66537,
        "last_rank": 79431,
        "player_name": "David Vaughan",
        "rank": 60651,
        "rank_sort": 60656,
        "total": 2345
      },
      {
        "club_badge_src": "https://fantasy.premierleague.com/gcs/plfpl-production-adobe-approved/plfpl-production/11333/77994abf-bbbb-490e-8a08-2c86f7a2721b.png",
        "entry": 11333,
        "entry_name": "JushinThundrKluivert",
        "event_total": 52,
        "has_played": true,
        "id": 67327,
        "last_rank": 53345,
        "player_name": "Conor O'Loughlin",
        "rank": 60651,
        "rank_sort": 60657,
        "total": 2345
      },
      {
        "club_badge_src": "https://fantasy.premierleague.com/gcs/plfpl-production-adobe-approved/plfpl-production/13035/7cbfc034-4529-454f-b711-1dc211f12120.png",
        "entry": 13035,
        "entry_name": "The ReD DeViLs",
        "event_total": 56,
        "has_played": true,
        "id": 78522,
        "last_rank": 59632,
        "player_name": "Gaurav Gharge",
        "rank": 60651,
        "rank_sort": 60658,
        "total": 2345
      },
      {
        "club_badge_src": null,
        "entry": 13987,
        "entry_name": "Miami Weiss",
        "event_total": 57,
        "has_played": true,
        "id": 84739,
        "last_rank": 54416,
        "player_name": "Jordan Neary",
        "rank": 60651,
        "rank_sort": 60659,
        "total": 2345
      },
      {
        "club_badge_src": null,
        "entry": 15164,
        "entry_name": "AMOSCR7 FC",
        "event_total": 66,
        "has_played": true,
        "id": 92808,
        "last_rank": 79190,
        "player_name": "Amos Chan",
        "rank": 60651,
        "rank_sort": 60660,
        "total": 2345
      },
      {
        "club_badge_src": null,
        "entry": 18178,
        "entry_name": "The Wirtz Case",
        "event_total": 40,
        "has_played": true,
        "id": 113015,
        "last_rank": 36348,
        "player_name": "Leon Altherr",
        "rank": 60651,
        "rank_sort": 60661,
        "total": 2345
      },
      {
        "club_badge_src": null,
        "entry": 21106,
        "entry_name": "Rapido",
        "event_total": 65,
        "has_played": true,
        "id": 132289,
        "last_rank": 76947,
        "player_name": "Nick Fincher",
        "rank": 60651,
        "rank_sort": 60662,
        "total": 2345
      },
      {
        "club_badge_src": null,
        "entry": 22451,
        "entry_name": "She Sels Sanctuary",
        "event_total": 59,
        "has_played": true,
        "id": 140980,
        "last_rank": 64943,
        "player_name": "David Conibear",
        "rank": 60651,
        "rank_sort": 60663,
        "total": 2345
      },
      {
        "club_badge_src": null,
        "entry": 23452,
        "entry_name": "The Piano Dentists",
        "event_total": 52,
        "has_played": true,
        "id": 147704,
        "last_rank": 53023,
        "player_name": "Wayne Robinson",
        "rank": 60651,
        "rank_sort": 60664,
        "total": 2345
      },
      {
        "club_badge_src": null,
        "entry": 24629,
        "entry_name": "Clan Clyne",
        "event_total": 56,
        "has_played": true,
        "id": 155498,
        "last_rank": 59632,
        "player_name": "Alan Clyne",
        "rank": 60651,
        "rank_sort": 60665,
        "total": 2345
      },
      {
        "club_badge_src": null,
        "entry": 26436,
        "entry_name": "Adam's Allstars",
        "event_total": 59,
        "has_played": true,
        "id": 167166,
        "last_rank": 64943,
        "player_name": "Adam Hopcroft",
        "rank": 60651,
        "rank_sort": 60666,
        "total": 2345
      },
      {
        "club_badge_src": null,
        "entry": 28603,
        "entry_name": "Botman Begins",
        "event_total": 60,
        "has_played": true,
        "id": 180833,
        "last_rank": 66848,
        "player_name": "Emmet McLoughlin",
        "rank": 60651,
        "rank_sort": 60667,
        "total": 2345
      },
      {
        "club_badge_src": null,
        "entry": 29198,
        "entry_name": "Red red wijn",
        "event_total": 49,
        "has_played": true,
        "id": 184599,
        "last_rank": 48197,
        "player_name": "Luke Venn",
        "rank": 60651,
        "rank_sort": 60668,
        "total": 2345
      },
      {
        "club_badge_src": null,
        "entry": 31940,
        "entry_name": "NutNBP.",
        "event_total": 57,
        "has_played": true,
        "id": 202818,
        "last_rank": 61411,
        "player_name": "Nut NBP.",
        "rank": 60651,
        "rank_sort": 60669,
        "total": 2345
      },
      {
        "club_badge_src": null,
        "entry": 37422,
        "entry_name": "Kotvy",
        "event_total": 53,
        "has_played": true,
        "id": 239704,
        "last_rank": 54667,
        "player_name": "Marek Sladek",
        "rank": 60651,
        "rank_sort": 60670,
        "total": 2345
      },
      {
        "club_badge_src": null,
        "entry": 40094,
        "entry_name": "Are you Amad?",
        "event_total": 47,
        "has_played": true,
        "id": 257041,
        "last_rank": 45416,
        "player_name": "Nikola Djuric",
        "rank": 60651,
        "rank_sort": 60671,
        "total": 2345
      },
      {
        "club_badge_src": null,
        "entry": 42865,
        "entry_name": "Motta",
        "event_total": 46,
        "has_played": true,
        "id": 274568,
        "last_rank": 44048,
        "player_name": "Matthias Imsland",
        "rank": 60651,
        "rank_sort": 60672,
        "total": 2345
      },
      {
        "club_badge_src": null,
        "entry": 42985,
        "entry_name": "Y Nada Mas",
        "event_total": 63,
        "has_played": true,
        "id": 275310,
        "last_rank": 73038,
        "player_name": "Yarden Hevroni",
        "rank": 60651,
        "rank_sort": 60673,
        "total": 2345
      },
      {
        "club_badge_src": null,
        "entry": 43903,
        "entry_name": "DJ Enmanuel Live",
        "event_total": 51,
        "has_played": true,
        "id": 281257,
        "last_rank": 51403,
        "player_name": "Enmanuel Chacin",
        "rank": 60651,
        "rank_sort": 60674,
        "total": 2345
      },
      {
        "club_badge_src": null,
        "entry": 44371,
        "entry_name": "Red Djed Redemption",
        "event_total": 58,
        "has_played": true,
        "id": 284363,
        "last_rank": 63390,
        "player_name": "Aaron Morley",
        "rank": 60651,
        "rank_sort": 60675,
        "total": 2345
      },
      {
        "club_badge_src": null,
        "entry": 48660,
        "entry_name": "davranfc",
        "event_total": 55,
        "has_played": true,
        "id": 312589,
        "last_rank": 58071,
        "player_name": "S Davran",
        "rank": 60651,
        "rank_sort": 60676,
        "total": 2345
      },
      {
        "club_badge_src": null,
        "entry": 51835,
        "entry_name": "The Backstreet Moyes",
        "event_total": 68,
        "has_played": true,
        "id": 333339,
        "last_rank": 83698,
        "player_name": "Adam Bailey",
        "rank": 60651,
        "rank_sort": 60677,
        "total": 2345
      },
      {
        "club_badge_src": null,
        "entry": 52174,
        "entry_name": "Bowen Arrow",
        "event_total": 46,
        "has_played": true,
        "id": 335529,
        "last_rank": 44048,
        "player_name": "Dev\u00e1lier Wouda",
        "rank": 60651,
        "rank_sort": 60678,
        "total": 2345
      },
      {
        "club_badge_src": null,
        "entry": 61363,
        "entry_name": "Man Chesthair United",
        "event_total": 54,
        "has_played": true,
        "id": 395232,
        "last_rank": 56369,
        "player_name": "Harry James",
        "rank": 60651,
        "rank_sort": 60679,
        "total": 2345
      },
      {
        "club_badge_src": null,
        "entry": 66048,
        "entry_name": "Mockett Madness",
        "event_total": 44,
        "has_played": true,
        "id": 426745,
        "last_rank": 41162,
        "player_name": "Charlie Mockett",
        "rank": 60651,
        "rank_sort": 60680,
        "total": 2345
      },
      {
        "club_badge_src": null,
        "entry": 79075,
        "entry_name": "Matz Sels Sea Shells",
        "event_total": 53,
        "has_played": true,
        "id": 514186,
        "last_rank": 54667,
        "player_name": "Ryan Stevens",
        "rank": 60651,
        "rank_sort": 60681,
        "total": 2345
      },
      {
        "club_badge_src": null,
        "entry": 85201,
        "entry_name": "Finding Neco",
        "event_total": 53,
        "has_played": true,
        "id": 554799,
        "last_rank": 54667,
        "player_name": "Chris Wakefield",
        "rank": 60651,
        "rank_sort": 60682,
        "total": 2345
      },
      {
        "club_badge_src": null,
        "entry": 94317,
        "entry_name": "McGinn & Tonic",
        "event_total": 48,
        "has_played": true,
        "id": 616263,
        "last_rank": 46660,
        "player_name": "Alex Johansson",
        "rank": 60651,
        "rank_sort": 60683,
        "total": 2345
      },
      {
        "club_badge_src": null,
        "entry": 106500,
        "entry_name": "Itfc pl 26/27",
        "event_total": 55,
        "has_played": true,
        "id": 694433,
        "last_rank": 57857,
        "player_name": "Kieran K",
        "rank": 60651,
        "rank_sort": 60684,
        "total": 2345
      },
      {
        "club_badge_src": null,
        "entry": 106883,
        "entry_name": "You Best Not Miss",
        "event_total": 68,
        "has_played": true,
        "id": 696840,
        "last_rank": 83934,
        "player_name": "Ciaran Sharp",
        "rank": 60651,
        "rank_sort": 60685,
        "total": 2345
      },
      {
        "club_badge_src": null,
        "entry": 107013,
        "entry_name": "Ziddy FC",
        "event_total": 61,
        "has_played": true,
        "id": 697667,
        "last_rank": 68748,
        "player_name": "Zidane Hadi",
        "rank": 60651,
        "rank_sort": 60686,
        "total": 2345
      },
      {
        "club_badge_src": null,
        "entry": 111472,
        "entry_name": "Ekitike Masala",
        "event_total": 41,
        "has_played": true,
        "id": 726845,
        "last_rank": 37822,
        "player_name": "Joseph Gilligan",
        "rank": 60651,
        "rank_sort": 60687,
        "total": 2345
      },
      {
        "club_badge_src": null,
        "entry": 116758,
        "entry_name": "Quorn Flakes",
        "event_total": 46,
        "has_played": true,
        "id": 762220,
        "last_rank": 43849,
        "player_name": "FPL Burbles",
        "rank": 60651,
        "rank_sort": 60688,
        "total": 2345
      },
      {
        "club_badge_src": null,
        "entry": 132597,
        "entry_name": "rUtter Woke Nonsense",
        "event_total": 53,
        "has_played": true,
        "id": 863731,
        "last_rank": 48197,
        "player_name": "Edgen Teng",
        "rank": 60651,
        "rank_sort": 60689,
        "total": 2345
      },
      {
        "club_badge_src": "https://fantasy.premierleague.com/gcs/plfpl-production-adobe-approved/plfpl-production/136029/17d11896-e300-478f-a28c-dfc4a9bc360a.png",
        "entry": 136029,
        "entry_name": "\u0631\u0627\u0643\u0628 \u0627\u0644\u062f\u0648\u0631\u064a",
        "event_total": 74,
        "has_played": true,
        "id": 885957,
        "last_rank": 98436,
        "player_name": "Yosuf Gamal",
        "rank": 60651,
        "rank_sort": 60690,
        "total": 2345
      },
      {
        "club_badge_src": null,
        "entry": 157078,
        "entry_name": "Cl_oSe12",
        "event_total": 48,
        "has_played": true,
        "id": 1033232,
        "last_rank": 46839,
        "player_name": "Ratanasorn Dhirachartpaet",
        "rank": 60651,
        "rank_sort": 60691,
        "total": 2345
      },
      {
        "club_badge_src": "https://fantasy.premierleague.com/gcs/plfpl-production-adobe-approved/plfpl-production/161535/bc9c43eb-0f09-466f-b66f-f30073be7f37.png",
        "entry": 161535,
        "entry_name": "Slotty 2 Hotty",
        "event_total": 62,
        "has_played": true,
        "id": 1064299,
        "last_rank": 70651,
        "player_name": "Oliver Tribe",
        "rank": 60651,
        "rank_sort": 60692,
        "total": 2345
      },
      {
        "club_badge_src": null,
        "entry": 172778,
        "entry_name": "Frankliniesta",
        "event_total": 55,
        "has_played": true,
        "id": 1141135,
        "last_rank": 58071,
        "player_name": "Chris Franklin",
        "rank": 60651,
        "rank_sort": 60693,
        "total": 2345
      },
      {
        "club_badge_src": null,
        "entry": 172993,
        "entry_name": "H\u00f6p\u00f6Army",
        "event_total": 72,
        "has_played": true,
        "id": 1142540,
        "last_rank": 93443,
        "player_name": "Urho Huhtam\u00e4ki",
        "rank": 60651,
        "rank_sort": 60694,
        "total": 2345
      },
      {
        "club_badge_src": "https://fantasy.premierleague.com/gcs/plfpl-production-adobe-approved/plfpl-production/179581/4325abe1-6178-4ee8-ad6d-9d949b458009.png",
        "entry": 179581,
        "entry_name": "sultaaan",
        "event_total": 61,
        "has_played": true,
        "id": 1185043,
        "last_rank": 68957,
        "player_name": "sultan alyahyaei",
        "rank": 60651,
        "rank_sort": 60695,
        "total": 2345
      },
      {
        "club_badge_src": null,
        "entry": 182117,
        "entry_name": "Amr fahem",
        "event_total": 57,
        "has_played": true,
        "id": 1201787,
        "last_rank": 61606,
        "player_name": "\u0639\u0645\u0648\u0631 -",
        "rank": 60651,
        "rank_sort": 60696,
        "total": 2345
      },
      {
        "club_badge_src": null,
        "entry": 193360,
        "entry_name": "One Of A Kind",
        "event_total": 45,
        "has_played": true,
        "id": 1281602,
        "last_rank": 42506,
        "player_name": "Mohamed Gamal",
        "rank": 60651,
        "rank_sort": 60697,
        "total": 2345
      },
      {
        "club_badge_src": "https://fantasy.premierleague.com/gcs/plfpl-production-adobe-approved/plfpl-production/204656/91d4c27d-e914-4a52-b714-667635f7c859.png",
        "entry": 204656,
        "entry_name": "Real Madrid",
        "event_total": 69,
        "has_played": true,
        "id": 1360258,
        "last_rank": 86304,
        "player_name": "Waleed Ehab",
        "rank": 60651,
        "rank_sort": 60698,
        "total": 2345
      },
      {
        "club_badge_src": null,
        "entry": 204687,
        "entry_name": "Jockey",
        "event_total": 52,
        "has_played": true,
        "id": 1360467,
        "last_rank": 53023,
        "player_name": "Mustafa Abd EL-Mohsien",
        "rank": 60651,
        "rank_sort": 60699,
        "total": 2345
      },
      {
        "club_badge_src": null,
        "entry": 206053,
        "entry_name": "Hill Dicky Ultras",
        "event_total": 55,
        "has_played": true,
        "id": 1369587,
        "last_rank": 57857,
        "player_name": "Patrick Hounslea",
        "rank": 60651,
        "rank_sort": 60700,
        "total": 2345
      }
    ]
  }
}