{
  "last_updated_data": "2026-05-24T23:28:17Z",
  "league": {
    "admin_entry": null,
    "closed": false,
    "code_privacy": "p",
    "created": "2025-07-20T23:14:33.933835Z",
    "cup_league": 2815434,
    "has_cup": true,
    "id": 314,
    "league_type": "s",
    "max_entries": null,
    "name": "Overall",
    "rank": null,
    "scoring": "c",
    "start_event": 1
  },
  "new_entries": {
    "has_next": false,
    "page": 1,
    "results": []
  },
  "standings": {
    "has_next": true,
    "page": 1302,
    "results": [
      {
        "club_badge_src": null,
        "entry": 6311843,
        "entry_name": "arsenal",
        "event_total": 62,
        "has_played": true,
        "id": 50079352,
        "last_rank": 74898,
        "player_name": "Kirill Bigai",
        "rank": 64833,
        "rank_sort": 65051,
        "total": 2343
      },
      {
        "club_badge_src": null,
        "entry": 6332990,
        "entry_name": "I M FPL",
        "event_total": 55,
        "has_played": true,
        "id": 50331644,
        "last_rank": 61950,
        "player_name": "Angelo Ruggeri",
        "rank": 64833,
        "rank_sort": 65052,
        "total": 2343
      },
      {
        "club_badge_src": null,
        "entry": 6371232,
        "entry_name": "Pikachu",
        "event_total": 58,
        "has_played": true,
        "id": 50665103,
        "last_rank": 67063,
        "player_name": "Despina Spanakou",
        "rank": 64833,
        "rank_sort": 65053,
        "total": 2343
      },
      {
        "club_badge_src": null,
        "entry": 6386472,
        "entry_name": "Mbecko",
        "event_total": 75,
        "has_played": true,
        "id": 50799218,
        "last_rank": 107162,
        "player_name": "Bec A",
        "rank": 64833,
        "rank_sort": 65054,
        "total": 2343
      },
      {
        "club_badge_src": null,
        "entry": 6435153,
        "entry_name": "Happy Hornet",
        "event_total": 57,
        "has_played": true,
        "id": 51230293,
        "last_rank": 65796,
        "player_name": "Chris Hicks",
        "rank": 64833,
        "rank_sort": 65055,
        "total": 2343
      },
      {
        "club_badge_src": null,
        "entry": 6455655,
        "entry_name": "Fouad",
        "event_total": 30,
        "has_played": true,
        "id": 51413749,
        "last_rank": 28273,
        "player_name": "Fouad Mohsen",
        "rank": 64833,
        "rank_sort": 65056,
        "total": 2343
      },
      {
        "club_badge_src": null,
        "entry": 6493455,
        "entry_name": "Apotekarinn",
        "event_total": 70,
        "has_played": true,
        "id": 51764026,
        "last_rank": 75139,
        "player_name": "Johann Gunnar Jonsson",
        "rank": 64833,
        "rank_sort": 65057,
        "total": 2343
      },
      {
        "club_badge_src": null,
        "entry": 6541401,
        "entry_name": "Daydreamers",
        "event_total": 63,
        "has_played": true,
        "id": 52191176,
        "last_rank": 77999,
        "player_name": "Liam Bird",
        "rank": 64833,
        "rank_sort": 65058,
        "total": 2343
      },
      {
        "club_badge_src": null,
        "entry": 6673398,
        "entry_name": "Blancos",
        "event_total": 49,
        "has_played": true,
        "id": 53374761,
        "last_rank": 45714,
        "player_name": "Pawe\u0142 Tr\u0119da",
        "rank": 64833,
        "rank_sort": 65059,
        "total": 2343
      },
      {
        "club_badge_src": null,
        "entry": 6724302,
        "entry_name": "Kalmars r\u00f6da br\u00f6der",
        "event_total": 61,
        "has_played": true,
        "id": 53818266,
        "last_rank": 73038,
        "player_name": "Anton Nilsson",
        "rank": 64833,
        "rank_sort": 65060,
        "total": 2343
      },
      {
        "club_badge_src": null,
        "entry": 6754700,
        "entry_name": "Fifitata",
        "event_total": 51,
        "has_played": true,
        "id": 54077799,
        "last_rank": 55311,
        "player_name": "Tsvetelina Todorova",
        "rank": 64833,
        "rank_sort": 65061,
        "total": 2343
      },
      {
        "club_badge_src": null,
        "entry": 6786796,
        "entry_name": "ellebellebajs en",
        "event_total": 67,
        "has_played": true,
        "id": 54346937,
        "last_rank": 86054,
        "player_name": "Elias \u00d6stlund",
        "rank": 64833,
        "rank_sort": 65062,
        "total": 2343
      },
      {
        "club_badge_src": null,
        "entry": 6807366,
        "entry_name": "Paloma City",
        "event_total": 72,
        "has_played": true,
        "id": 54517546,
        "last_rank": 79431,
        "player_name": "Dimitris Tsompanidis",
        "rank": 64833,
        "rank_sort": 65063,
        "total": 2343
      },
      {
        "club_badge_src": null,
        "entry": 6877574,
        "entry_name": "Got 21 Sesco's to go",
        "event_total": 64,
        "has_played": true,
        "id": 55115051,
        "last_rank": 80194,
        "player_name": "Ian Mcentee",
        "rank": 64833,
        "rank_sort": 65064,
        "total": 2343
      },
      {
        "club_badge_src": null,
        "entry": 6989126,
        "entry_name": "FC Farcelona",
        "event_total": 65,
        "has_played": true,
        "id": 56102383,
        "last_rank": 64943,
        "player_name": "Josh Moser",
        "rank": 64833,
        "rank_sort": 65065,
        "total": 2343
      },
      {
        "club_badge_src": null,
        "entry": 7164773,
        "entry_name": "Ampadu-du-du",
        "event_total": 52,
        "has_played": true,
        "id": 57803351,
        "last_rank": 50199,
        "player_name": "Scott Cruikshank",
        "rank": 64833,
        "rank_sort": 65066,
        "total": 2343
      },
      {
        "club_badge_src": null,
        "entry": 7380790,
        "entry_name": "Earth,Wind & Maguire",
        "event_total": 57,
        "has_played": true,
        "id": 59833974,
        "last_rank": 58388,
        "player_name": "Nathan Cameron",
        "rank": 64833,
        "rank_sort": 65067,
        "total": 2343
      },
      {
        "club_badge_src": null,
        "entry": 7454582,
        "entry_name": "Ah here get in d box",
        "event_total": 70,
        "has_played": true,
        "id": 60694684,
        "last_rank": 94537,
        "player_name": "Declan Gilhooly",
        "rank": 64833,
        "rank_sort": 65068,
        "total": 2343
      },
      {
        "club_badge_src": null,
        "entry": 7523428,
        "entry_name": "Under my Cucurella",
        "event_total": 72,
        "has_played": true,
        "id": 61562246,
        "last_rank": 89055,
        "player_name": "Nikola Kondic",
        "rank": 64833,
        "rank_sort": 65069,
        "total": 2343
      },
      {
        "club_badge_src": null,
        "entry": 7535483,
        "entry_name": "Sloan Ranger",
        "event_total": 74,
        "has_played": true,
        "id": 61678372,
        "last_rank": 104712,
        "player_name": "Steven Sloan",
        "rank": 64833,
        "rank_sort": 65070,
        "total": 2343
      },
      {
        "club_badge_src": null,
        "entry": 7596948,
        "entry_name": "Drumdee United",
        "event_total": 60,
        "has_played": true,
        "id": 62237379,
        "last_rank": 71386,
        "player_name": "Allan Drummond",
        "rank": 64833,
        "rank_sort": 65071,
        "total": 2343
      },
      {
        "club_badge_src": "https://fantasy.premierleague.com/gcs/plfpl-production-adobe-approved/plfpl-production/7619303/e52c2614-937e-4706-bce6-728e3f6b3c1e.png",
        "entry": 7619303,
        "entry_name": "Soham10",
        "event_total": 70,
        "has_played": true,
        "id": 62440702,
        "last_rank": 94255,
        "player_name": "Soham Spidey10",
        "rank": 64833,
        "rank_sort": 65072,
        "total": 2343
      },
      {
        "club_badge_src": "https://fantasy.premierleague.com/gcs/plfpl-production-adobe-approved/plfpl-production/7687009/2c75ab2b-6588-4057-94f4-55b437c41d48.png",
        "entry": 7687009,
        "entry_name": "ASTROHTX",
        "event_total": 61,
        "has_played": true,
        "id": 63054446,
        "last_rank": 65475,
        "player_name": "Jose Grimaldo",
        "rank": 64833,
        "rank_sort": 65073,
        "total": 2343
      },
      {
        "club_badge_src": "https://fantasy.premierleague.com/gcs/plfpl-production-adobe-approved/plfpl-production/7688440/36bb4ca1-498e-4e41-b798-6fb290b6fdfd.png",
        "entry": 7688440,
        "entry_name": "Stargirl",
        "event_total": 66,
        "has_played": true,
        "id": 63067525,
        "last_rank": 84731,
        "player_name": "Ini Pirisola",
        "rank": 64833,
        "rank_sort": 65074,
        "total": 2343
      },
      {
        "club_badge_src": null,
        "entry": 7789044,
        "entry_name": "Peaky Princ",
        "event_total": 42,
        "has_played": true,
        "id": 63974807,
        "last_rank": 41824,
        "player_name": "Dario Princip",
        "rank": 64833,
        "rank_sort": 65075,
        "total": 2343
      },
      {
        "club_badge_src": null,
        "entry": 7798355,
        "entry_name": "maximum 20 character",
        "event_total": 65,
        "has_played": true,
        "id": 64058431,
        "last_rank": 82398,
        "player_name": "shane obrien",
        "rank": 64833,
        "rank_sort": 65076,
        "total": 2343
      },
      {
        "club_badge_src": "https://fantasy.premierleague.com/gcs/plfpl-production-adobe-approved/plfpl-production/7817312/5f70fe21-1073-48f9-a9a8-4b9f0b1c27e4.png",
        "entry": 7817312,
        "entry_name": "el_pistolero",
        "event_total": 58,
        "has_played": true,
        "id": 64230053,
        "last_rank": 60168,
        "player_name": "Eslam Allam",
        "rank": 64833,
        "rank_sort": 65077,
        "total": 2343
      },
      {
        "club_badge_src": null,
        "entry": 7822183,
        "entry_name": "tiernooo",
        "event_total": 35,
        "has_played": true,
        "id": 64274656,
        "last_rank": 28906,
        "player_name": "Ciaran Tiernan",
        "rank": 64833,
        "rank_sort": 65078,
        "total": 2343
      },
      {
        "club_badge_src": null,
        "entry": 8108793,
        "entry_name": "Beastie Moyes",
        "event_total": 50,
        "has_played": true,
        "id": 66882743,
        "last_rank": 53345,
        "player_name": "Rob Smith",
        "rank": 64833,
        "rank_sort": 65079,
        "total": 2343
      },
      {
        "club_badge_src": null,
        "entry": 8242409,
        "entry_name": "Pajacerka AF",
        "event_total": 83,
        "has_played": true,
        "id": 68149873,
        "last_rank": 130073,
        "player_name": "Mateusz Danieluk",
        "rank": 64833,
        "rank_sort": 65080,
        "total": 2343
      },
      {
        "club_badge_src": null,
        "entry": 8374177,
        "entry_name": "Hakuna Mateta",
        "event_total": 57,
        "has_played": true,
        "id": 69434926,
        "last_rank": 65475,
        "player_name": "Farida Khuzema",
        "rank": 64833,
        "rank_sort": 65081,
        "total": 2343
      },
      {
        "club_badge_src": null,
        "entry": 8580430,
        "entry_name": "Copsey's Red Army",
        "event_total": 52,
        "has_played": true,
        "id": 71409950,
        "last_rank": 50199,
        "player_name": "Ben Copsey",
        "rank": 64833,
        "rank_sort": 65082,
        "total": 2343
      },
      {
        "club_badge_src": null,
        "entry": 8665267,
        "entry_name": "THE BALD FRAUDS",
        "event_total": 69,
        "has_played": true,
        "id": 72241238,
        "last_rank": 90746,
        "player_name": "Nick Froud",
        "rank": 64833,
        "rank_sort": 65083,
        "total": 2343
      },
      {
        "club_badge_src": null,
        "entry": 8947272,
        "entry_name": "QPR Rejects",
        "event_total": 70,
        "has_played": true,
        "id": 74972452,
        "last_rank": 83698,
        "player_name": "Jonathan Penny",
        "rank": 64833,
        "rank_sort": 65084,
        "total": 2343
      },
      {
        "club_badge_src": "https://fantasy.premierleague.com/gcs/plfpl-production-adobe-approved/plfpl-production/9106804/91b6c550-1f0f-4205-99cc-14c8631198a3.png",
        "entry": 9106804,
        "entry_name": "Mohamed Mounier",
        "event_total": 81,
        "has_played": true,
        "id": 76518346,
        "last_rank": 123908,
        "player_name": "Mohammed AL-Temimi",
        "rank": 64833,
        "rank_sort": 65085,
        "total": 2343
      },
      {
        "club_badge_src": null,
        "entry": 9275957,
        "entry_name": "V1CT0RY",
        "event_total": 67,
        "has_played": true,
        "id": 78176858,
        "last_rank": 87074,
        "player_name": "Mager Zakaria",
        "rank": 64833,
        "rank_sort": 65086,
        "total": 2343
      },
      {
        "club_badge_src": null,
        "entry": 9389905,
        "entry_name": "Brennan Jerry's",
        "event_total": 73,
        "has_played": true,
        "id": 79276509,
        "last_rank": 101419,
        "player_name": "Eric Matthews",
        "rank": 64833,
        "rank_sort": 65087,
        "total": 2343
      },
      {
        "club_badge_src": null,
        "entry": 10396555,
        "entry_name": "za",
        "event_total": 73,
        "has_played": true,
        "id": 87976620,
        "last_rank": 91006,
        "player_name": "za ba",
        "rank": 64833,
        "rank_sort": 65088,
        "total": 2343
      },
      {
        "club_badge_src": "https://fantasy.premierleague.com/gcs/plfpl-production-adobe-approved/plfpl-production/155/6f994201-8e07-4fb5-a5c6-5a43af584ef8.png",
        "entry": 155,
        "entry_name": "FPLChris21",
        "event_total": 59,
        "has_played": true,
        "id": 855,
        "last_rank": 55014,
        "player_name": "Chris Davey",
        "rank": 65089,
        "rank_sort": 65089,
        "total": 2343
      },
      {
        "club_badge_src": "https://fantasy.premierleague.com/gcs/plfpl-production-adobe-approved/plfpl-production/5594/22c781d5-2aed-4018-9ca9-35ff624cc111.png",
        "entry": 5594,
        "entry_name": "Crni#7",
        "event_total": 60,
        "has_played": true,
        "id": 31907,
        "last_rank": 63724,
        "player_name": "Marko Zipan\u010di\u0107",
        "rank": 65089,
        "rank_sort": 65090,
        "total": 2343
      },
      {
        "club_badge_src": null,
        "entry": 8850,
        "entry_name": "Hongankolistelijat",
        "event_total": 60,
        "has_played": true,
        "id": 51679,
        "last_rank": 64005,
        "player_name": "Joel Haara",
        "rank": 65089,
        "rank_sort": 65091,
        "total": 2343
      },
      {
        "club_badge_src": null,
        "entry": 17470,
        "entry_name": "De Zerbing of better",
        "event_total": 64,
        "has_played": true,
        "id": 108379,
        "last_rank": 80465,
        "player_name": "Stewart bruce",
        "rank": 65089,
        "rank_sort": 65092,
        "total": 2343
      },
      {
        "club_badge_src": "https://fantasy.premierleague.com/gcs/plfpl-production-adobe-approved/plfpl-production/19186/c44011ea-945f-486c-80be-33b44770bdf8.png",
        "entry": 19186,
        "entry_name": "Gudang Senjata",
        "event_total": 66,
        "has_played": true,
        "id": 119397,
        "last_rank": 84731,
        "player_name": "Fajrul Azhar",
        "rank": 65089,
        "rank_sort": 65093,
        "total": 2343
      },
      {
        "club_badge_src": null,
        "entry": 20023,
        "entry_name": "Class on Grass",
        "event_total": 59,
        "has_played": true,
        "id": 124650,
        "last_rank": 62223,
        "player_name": "Fraser Mckinney",
        "rank": 65089,
        "rank_sort": 65094,
        "total": 2343
      },
      {
        "club_badge_src": null,
        "entry": 22098,
        "entry_name": "Change Name",
        "event_total": 75,
        "has_played": true,
        "id": 138717,
        "last_rank": 96777,
        "player_name": "Jack Warnes",
        "rank": 65089,
        "rank_sort": 65095,
        "total": 2343
      },
      {
        "club_badge_src": null,
        "entry": 22938,
        "entry_name": "LuckyEleven",
        "event_total": 58,
        "has_played": true,
        "id": 144250,
        "last_rank": 60462,
        "player_name": "Rohit SVS",
        "rank": 65089,
        "rank_sort": 65096,
        "total": 2343
      },
      {
        "club_badge_src": null,
        "entry": 23581,
        "entry_name": "Sons of the Harvey",
        "event_total": 58,
        "has_played": true,
        "id": 148561,
        "last_rank": 60168,
        "player_name": "Richard Hinton",
        "rank": 65089,
        "rank_sort": 65097,
        "total": 2343
      },
      {
        "club_badge_src": "https://fantasy.premierleague.com/gcs/plfpl-production-adobe-approved/plfpl-production/25743/f5f999ef-a625-4337-be24-f33d0d2081f5.png",
        "entry": 25743,
        "entry_name": "Glashoch Rangers",
        "event_total": 47,
        "has_played": true,
        "id": 162821,
        "last_rank": 49078,
        "player_name": "Oliver V\u00f6lker",
        "rank": 65089,
        "rank_sort": 65098,
        "total": 2343
      },
      {
        "club_badge_src": null,
        "entry": 26462,
        "entry_name": "Hear About Simon",
        "event_total": 52,
        "has_played": true,
        "id": 167316,
        "last_rank": 57200,
        "player_name": "Paul Wildsmith",
        "rank": 65089,
        "rank_sort": 65099,
        "total": 2343
      },
      {
        "club_badge_src": null,
        "entry": 26625,
        "entry_name": "To be confirmed",
        "event_total": 42,
        "has_played": true,
        "id": 168336,
        "last_rank": 41967,
        "player_name": "Anthony Sharp",
        "rank": 65089,
        "rank_sort": 65100,
        "total": 2343
      }
    ]
  }
}