{
  "last_updated_data": "2026-05-24T23:28:17Z",
  "league": {
    "admin_entry": null,
    "closed": false,
    "code_privacy": "p",
    "created": "2025-07-20T23:14:33.933835Z",
    "cup_league": 2815434,
    "has_cup": true,
    "id": 314,
    "league_type": "s",
    "max_entries": null,
    "name": "Overall",
    "rank": null,
    "scoring": "c",
    "start_event": 1
  },
  "new_entries": {
    "has_next": false,
    "page": 1,
    "results": []
  },
  "standings": {
    "has_next": true,
    "page": 1503,
    "results": [
      {
        "club_badge_src": null,
        "entry": 6633800,
        "entry_name": "Gvardiolsofthegalaxy",
        "event_total": 68,
        "has_played": true,
        "id": 53020771,
        "last_rank": 92471,
        "player_name": "Tanatswa Gomana",
        "rank": 75034,
        "rank_sort": 75101,
        "total": 2338
      },
      {
        "club_badge_src": "https://fantasy.premierleague.com/gcs/plfpl-production-adobe-approved/plfpl-production/6780259/5cc7c530-7f12-4cd0-bafb-2477b2e79619.png",
        "entry": 6780259,
        "entry_name": "\u0631\u0627\u0633 \u0628\u0635\u0644",
        "event_total": 59,
        "has_played": true,
        "id": 54292232,
        "last_rank": 80877,
        "player_name": "kribi med amin",
        "rank": 75034,
        "rank_sort": 75102,
        "total": 2338
      },
      {
        "club_badge_src": null,
        "entry": 8112662,
        "entry_name": "Grumps",
        "event_total": 54,
        "has_played": true,
        "id": 66918841,
        "last_rank": 70276,
        "player_name": "Neil Benham",
        "rank": 75034,
        "rank_sort": 75103,
        "total": 2338
      },
      {
        "club_badge_src": null,
        "entry": 8145097,
        "entry_name": "calma calma!",
        "event_total": 57,
        "has_played": true,
        "id": 67223187,
        "last_rank": 68107,
        "player_name": "Benard Nzoka",
        "rank": 75034,
        "rank_sort": 75104,
        "total": 2338
      },
      {
        "club_badge_src": null,
        "entry": 8160457,
        "entry_name": "Barrow united",
        "event_total": 68,
        "has_played": true,
        "id": 67365777,
        "last_rank": 92471,
        "player_name": "Eva Barrow",
        "rank": 75034,
        "rank_sort": 75105,
        "total": 2338
      },
      {
        "club_badge_src": null,
        "entry": 8210604,
        "entry_name": "Bowen 747",
        "event_total": 56,
        "has_played": true,
        "id": 67841849,
        "last_rank": 66296,
        "player_name": "Neil M",
        "rank": 75034,
        "rank_sort": 75106,
        "total": 2338
      },
      {
        "club_badge_src": null,
        "entry": 8601554,
        "entry_name": "\u0627\u0644\u0627\u0645\u0644",
        "event_total": 48,
        "has_played": true,
        "id": 71612934,
        "last_rank": 59249,
        "player_name": "Mohamed eldnmo Mohamed khaled",
        "rank": 75034,
        "rank_sort": 75107,
        "total": 2338
      },
      {
        "club_badge_src": null,
        "entry": 8817238,
        "entry_name": "Franksenstein",
        "event_total": 48,
        "has_played": true,
        "id": 73709929,
        "last_rank": 59291,
        "player_name": "Andrew Franks",
        "rank": 75034,
        "rank_sort": 75108,
        "total": 2338
      },
      {
        "club_badge_src": null,
        "entry": 9078787,
        "entry_name": "Man city",
        "event_total": 60,
        "has_played": true,
        "id": 76243985,
        "last_rank": 66200,
        "player_name": "\u0645\u0646\u062a\u0638\u0631 \u0639\u0632\u064a\u0632",
        "rank": 75034,
        "rank_sort": 75109,
        "total": 2338
      },
      {
        "club_badge_src": null,
        "entry": 9099520,
        "entry_name": "Womble Wonders",
        "event_total": 50,
        "has_played": true,
        "id": 76447294,
        "last_rank": 62812,
        "player_name": "James Patten",
        "rank": 75034,
        "rank_sort": 75110,
        "total": 2338
      },
      {
        "club_badge_src": null,
        "entry": 9407466,
        "entry_name": "Socks off",
        "event_total": 57,
        "has_played": true,
        "id": 79444306,
        "last_rank": 76474,
        "player_name": "Adrian Kvalevaag \u00d8ygarden",
        "rank": 75034,
        "rank_sort": 75111,
        "total": 2338
      },
      {
        "club_badge_src": null,
        "entry": 21869,
        "entry_name": "yesyestryp",
        "event_total": 62,
        "has_played": true,
        "id": 137209,
        "last_rank": 70183,
        "player_name": "BornTO Win",
        "rank": 75112,
        "rank_sort": 75112,
        "total": 2338
      },
      {
        "club_badge_src": "https://fantasy.premierleague.com/gcs/plfpl-production-adobe-approved/plfpl-production/34411/26ca4da3-2f29-46ed-bcfa-b9d0a2575fe8.png",
        "entry": 34411,
        "entry_name": "paulazo",
        "event_total": 73,
        "has_played": true,
        "id": 219783,
        "last_rank": 105137,
        "player_name": "Paul Arvind",
        "rank": 75112,
        "rank_sort": 75113,
        "total": 2338
      },
      {
        "club_badge_src": null,
        "entry": 52198,
        "entry_name": "M\u00d9A 3 SOLO",
        "event_total": 53,
        "has_played": true,
        "id": 335677,
        "last_rank": 68294,
        "player_name": "Anh Huy \u00e0",
        "rank": 75112,
        "rank_sort": 75114,
        "total": 2338
      },
      {
        "club_badge_src": null,
        "entry": 52827,
        "entry_name": "bowen arrow",
        "event_total": 66,
        "has_played": true,
        "id": 339677,
        "last_rank": 97687,
        "player_name": "Zak Birch",
        "rank": 75112,
        "rank_sort": 75115,
        "total": 2338
      },
      {
        "club_badge_src": null,
        "entry": 62794,
        "entry_name": "Kroos Control",
        "event_total": 65,
        "has_played": true,
        "id": 404940,
        "last_rank": 76474,
        "player_name": "Tom France",
        "rank": 75112,
        "rank_sort": 75116,
        "total": 2338
      },
      {
        "club_badge_src": "https://fantasy.premierleague.com/gcs/plfpl-production-adobe-approved/plfpl-production/130800/6e5eadf8-9b7b-4621-bddf-1cf4d3a785f9.png",
        "entry": 130800,
        "entry_name": "AcapPedro",
        "event_total": 52,
        "has_played": true,
        "id": 852252,
        "last_rank": 66380,
        "player_name": "Acap Palmer",
        "rank": 75112,
        "rank_sort": 75117,
        "total": 2338
      },
      {
        "club_badge_src": null,
        "entry": 152318,
        "entry_name": "Defend The Box",
        "event_total": 54,
        "has_played": true,
        "id": 999677,
        "last_rank": 70355,
        "player_name": "Richard Evans",
        "rank": 75112,
        "rank_sort": 75118,
        "total": 2338
      },
      {
        "club_badge_src": null,
        "entry": 204004,
        "entry_name": "SlipperyCat",
        "event_total": 64,
        "has_played": true,
        "id": 1355646,
        "last_rank": 83018,
        "player_name": "Konrad Mau",
        "rank": 75112,
        "rank_sort": 75119,
        "total": 2338
      },
      {
        "club_badge_src": "https://fantasy.premierleague.com/gcs/plfpl-production-adobe-approved/plfpl-production/231050/ebf20e53-ec3d-4971-adf6-5c6f80cd6412.png",
        "entry": 231050,
        "entry_name": "No Vardy No Partey",
        "event_total": 59,
        "has_played": true,
        "id": 1537167,
        "last_rank": 80965,
        "player_name": "Lee McEneaney",
        "rank": 75112,
        "rank_sort": 75120,
        "total": 2338
      },
      {
        "club_badge_src": null,
        "entry": 239485,
        "entry_name": "Kenneth's 11",
        "event_total": 56,
        "has_played": true,
        "id": 1593627,
        "last_rank": 74474,
        "player_name": "Ollie James",
        "rank": 75112,
        "rank_sort": 75121,
        "total": 2338
      },
      {
        "club_badge_src": "https://fantasy.premierleague.com/gcs/plfpl-production-adobe-approved/plfpl-production/298356/389d019d-29fe-4689-a632-50554610e0d3.png",
        "entry": 298356,
        "entry_name": "FPL Roro",
        "event_total": 60,
        "has_played": true,
        "id": 1994748,
        "last_rank": 83127,
        "player_name": "Robert Geruschkat",
        "rank": 75112,
        "rank_sort": 75122,
        "total": 2338
      },
      {
        "club_badge_src": null,
        "entry": 394764,
        "entry_name": "Arteta masterclass",
        "event_total": 56,
        "has_played": true,
        "id": 2647439,
        "last_rank": 74395,
        "player_name": "Robert Coleman",
        "rank": 75112,
        "rank_sort": 75123,
        "total": 2338
      },
      {
        "club_badge_src": "https://fantasy.premierleague.com/gcs/plfpl-production-adobe-approved/plfpl-production/665752/04cd528a-55e2-4d62-a9b3-51a48bc556eb.png",
        "entry": 665752,
        "entry_name": "LetGodSortEmOut FC",
        "event_total": 73,
        "has_played": true,
        "id": 4501139,
        "last_rank": 105264,
        "player_name": "D.J. Crawford",
        "rank": 75112,
        "rank_sort": 75125,
        "total": 2338
      },
      {
        "club_badge_src": null,
        "entry": 811768,
        "entry_name": "Poljavnice City",
        "event_total": 71,
        "has_played": true,
        "id": 5558065,
        "last_rank": 100092,
        "player_name": "Sandro Zec",
        "rank": 75112,
        "rank_sort": 75126,
        "total": 2338
      },
      {
        "club_badge_src": null,
        "entry": 984509,
        "entry_name": "Wirtzthepoint!",
        "event_total": 38,
        "has_played": true,
        "id": 6787718,
        "last_rank": 38391,
        "player_name": "Greg Newby",
        "rank": 75112,
        "rank_sort": 75127,
        "total": 2338
      },
      {
        "club_badge_src": null,
        "entry": 1039165,
        "entry_name": "2 Sesko 4this Shirt",
        "event_total": 69,
        "has_played": true,
        "id": 7191284,
        "last_rank": 105370,
        "player_name": "Suraj Kumar",
        "rank": 75112,
        "rank_sort": 75128,
        "total": 2338
      },
      {
        "club_badge_src": null,
        "entry": 1077260,
        "entry_name": "Olly's Army",
        "event_total": 72,
        "has_played": true,
        "id": 7458942,
        "last_rank": 102622,
        "player_name": "tommy stafford",
        "rank": 75112,
        "rank_sort": 75129,
        "total": 2338
      },
      {
        "club_badge_src": null,
        "entry": 1088821,
        "entry_name": "Class On Grass",
        "event_total": 49,
        "has_played": true,
        "id": 7540648,
        "last_rank": 61004,
        "player_name": "Filip Karasmanakis",
        "rank": 75112,
        "rank_sort": 75130,
        "total": 2338
      },
      {
        "club_badge_src": null,
        "entry": 1239996,
        "entry_name": "GoTyme Slay Queens",
        "event_total": 40,
        "has_played": true,
        "id": 8611781,
        "last_rank": 46406,
        "player_name": "Tommy Nel",
        "rank": 75112,
        "rank_sort": 75131,
        "total": 2338
      },
      {
        "club_badge_src": null,
        "entry": 1301996,
        "entry_name": "UnRealMiddRed",
        "event_total": 61,
        "has_played": true,
        "id": 9048936,
        "last_rank": 76574,
        "player_name": "Ryan Johnson",
        "rank": 75112,
        "rank_sort": 75132,
        "total": 2338
      },
      {
        "club_badge_src": null,
        "entry": 1413367,
        "entry_name": "Stattena Brewing",
        "event_total": 73,
        "has_played": true,
        "id": 9835828,
        "last_rank": 94933,
        "player_name": "Filberth Karlsson",
        "rank": 75112,
        "rank_sort": 75133,
        "total": 2338
      },
      {
        "club_badge_src": null,
        "entry": 1454781,
        "entry_name": "Marching On Together",
        "event_total": 57,
        "has_played": true,
        "id": 10136946,
        "last_rank": 68294,
        "player_name": "Tim Pamphilon",
        "rank": 75112,
        "rank_sort": 75134,
        "total": 2338
      },
      {
        "club_badge_src": null,
        "entry": 1536326,
        "entry_name": "Hello Sailor",
        "event_total": 63,
        "has_played": true,
        "id": 10721893,
        "last_rank": 90229,
        "player_name": "Gary Colclough",
        "rank": 75112,
        "rank_sort": 75135,
        "total": 2338
      },
      {
        "club_badge_src": null,
        "entry": 1603519,
        "entry_name": "abol3bbas",
        "event_total": 62,
        "has_played": true,
        "id": 11218337,
        "last_rank": 87885,
        "player_name": "Hussam Abbas",
        "rank": 75112,
        "rank_sort": 75136,
        "total": 2338
      },
      {
        "club_badge_src": "https://fantasy.premierleague.com/gcs/plfpl-production-adobe-approved/plfpl-production/1684323/253a5624-416a-44e3-9d83-06d53e376b70.png",
        "entry": 1684323,
        "entry_name": "The Blueprint FC",
        "event_total": 43,
        "has_played": true,
        "id": 11790642,
        "last_rank": 44950,
        "player_name": "Shreyas Bhat",
        "rank": 75112,
        "rank_sort": 75137,
        "total": 2338
      },
      {
        "club_badge_src": null,
        "entry": 1819367,
        "entry_name": "Baggers FC",
        "event_total": 64,
        "has_played": true,
        "id": 12794794,
        "last_rank": 74317,
        "player_name": "Claire Donald",
        "rank": 75112,
        "rank_sort": 75138,
        "total": 2338
      },
      {
        "club_badge_src": null,
        "entry": 1937276,
        "entry_name": "Goldenball2",
        "event_total": 47,
        "has_played": true,
        "id": 13663861,
        "last_rank": 57557,
        "player_name": "Cameron Stuart",
        "rank": 75112,
        "rank_sort": 75139,
        "total": 2338
      },
      {
        "club_badge_src": null,
        "entry": 1982706,
        "entry_name": "\u062a\u0632\u0647",
        "event_total": 57,
        "has_played": true,
        "id": 14004251,
        "last_rank": 76638,
        "player_name": "CR 7",
        "rank": 75112,
        "rank_sort": 75140,
        "total": 2338
      },
      {
        "club_badge_src": null,
        "entry": 1985901,
        "entry_name": "Teleftaios",
        "event_total": 61,
        "has_played": true,
        "id": 14028116,
        "last_rank": 76474,
        "player_name": "Vasilis Natsios",
        "rank": 75112,
        "rank_sort": 75141,
        "total": 2338
      },
      {
        "club_badge_src": null,
        "entry": 2000453,
        "entry_name": "Ctrl Alt deLigt",
        "event_total": 46,
        "has_played": true,
        "id": 14141883,
        "last_rank": 55865,
        "player_name": "Tony DJ",
        "rank": 75112,
        "rank_sort": 75142,
        "total": 2338
      },
      {
        "club_badge_src": null,
        "entry": 2160431,
        "entry_name": "midooo",
        "event_total": 31,
        "has_played": true,
        "id": 15358092,
        "last_rank": 34849,
        "player_name": "Mido Elsayed",
        "rank": 75112,
        "rank_sort": 75143,
        "total": 2338
      },
      {
        "club_badge_src": null,
        "entry": 2389866,
        "entry_name": "Kladdenavn",
        "event_total": 76,
        "has_played": true,
        "id": 17071029,
        "last_rank": 102501,
        "player_name": "Eirik Langeland",
        "rank": 75112,
        "rank_sort": 75144,
        "total": 2338
      },
      {
        "club_badge_src": null,
        "entry": 2710362,
        "entry_name": "Top mashaly",
        "event_total": 59,
        "has_played": true,
        "id": 19500503,
        "last_rank": 80965,
        "player_name": "abdalla mashaly",
        "rank": 75112,
        "rank_sort": 75145,
        "total": 2338
      },
      {
        "club_badge_src": null,
        "entry": 2811313,
        "entry_name": "Battered Spuds",
        "event_total": 58,
        "has_played": true,
        "id": 20533314,
        "last_rank": 70276,
        "player_name": "Travis Gauvin",
        "rank": 75112,
        "rank_sort": 75146,
        "total": 2338
      },
      {
        "club_badge_src": null,
        "entry": 2825522,
        "entry_name": "Ingram XI",
        "event_total": 65,
        "has_played": true,
        "id": 20643995,
        "last_rank": 85487,
        "player_name": "Connor Ingram",
        "rank": 75112,
        "rank_sort": 75147,
        "total": 2338
      },
      {
        "club_badge_src": null,
        "entry": 3029455,
        "entry_name": "K.H",
        "event_total": 83,
        "has_played": true,
        "id": 22291314,
        "last_rank": 134720,
        "player_name": "Khaled Hassan",
        "rank": 75112,
        "rank_sort": 75148,
        "total": 2338
      },
      {
        "club_badge_src": null,
        "entry": 3256537,
        "entry_name": "DontLookBack Elanga!",
        "event_total": 71,
        "has_played": true,
        "id": 24095560,
        "last_rank": 110709,
        "player_name": "Dan Wade",
        "rank": 75112,
        "rank_sort": 75149,
        "total": 2338
      },
      {
        "club_badge_src": null,
        "entry": 3421656,
        "entry_name": "Skibbidi Hojlund",
        "event_total": 69,
        "has_played": true,
        "id": 25416256,
        "last_rank": 85207,
        "player_name": "shakib ullah",
        "rank": 75112,
        "rank_sort": 75150,
        "total": 2338
      }
    ]
  }
}