{
  "last_updated_data": "2026-05-24T23:28:17Z",
  "league": {
    "admin_entry": null,
    "closed": false,
    "code_privacy": "p",
    "created": "2025-07-20T23:14:33.933835Z",
    "cup_league": 2815434,
    "has_cup": true,
    "id": 314,
    "league_type": "s",
    "max_entries": null,
    "name": "Overall",
    "rank": null,
    "scoring": "c",
    "start_event": 1
  },
  "new_entries": {
    "has_next": false,
    "page": 1,
    "results": []
  },
  "standings": {
    "has_next": true,
    "page": 359,
    "results": [
      {
        "club_badge_src": null,
        "entry": 32105,
        "entry_name": "The Underdogs",
        "event_total": 66,
        "has_played": true,
        "id": 204002,
        "last_rank": 24143,
        "player_name": "Daniel Curtis",
        "rank": 17890,
        "rank_sort": 17901,
        "total": 2383
      },
      {
        "club_badge_src": null,
        "entry": 38249,
        "entry_name": "AllezAllezAllez",
        "event_total": 64,
        "has_played": true,
        "id": 245125,
        "last_rank": 19432,
        "player_name": "George Saada",
        "rank": 17890,
        "rank_sort": 17902,
        "total": 2383
      },
      {
        "club_badge_src": null,
        "entry": 41428,
        "entry_name": "up the chels",
        "event_total": 63,
        "has_played": true,
        "id": 265431,
        "last_rank": 18691,
        "player_name": "Archie Hurst",
        "rank": 17890,
        "rank_sort": 17903,
        "total": 2383
      },
      {
        "club_badge_src": null,
        "entry": 47211,
        "entry_name": "Bozzons tricky lads",
        "event_total": 66,
        "has_played": true,
        "id": 302760,
        "last_rank": 24143,
        "player_name": "Filip Andersson",
        "rank": 17890,
        "rank_sort": 17904,
        "total": 2383
      },
      {
        "club_badge_src": null,
        "entry": 53203,
        "entry_name": "Carshalton athletic",
        "event_total": 52,
        "has_played": true,
        "id": 342228,
        "last_rank": 14496,
        "player_name": "Samuel Pearson",
        "rank": 17890,
        "rank_sort": 17905,
        "total": 2383
      },
      {
        "club_badge_src": "https://fantasy.premierleague.com/gcs/plfpl-production-adobe-approved/plfpl-production/54682/d4d953c2-a836-49f1-8521-edcae803908d.png",
        "entry": 54682,
        "entry_name": "The Biggest",
        "event_total": 51,
        "has_played": true,
        "id": 351939,
        "last_rank": 11699,
        "player_name": "Cian Robinson",
        "rank": 17890,
        "rank_sort": 17906,
        "total": 2383
      },
      {
        "club_badge_src": null,
        "entry": 55763,
        "entry_name": "mo97",
        "event_total": 56,
        "has_played": true,
        "id": 359064,
        "last_rank": 14370,
        "player_name": "M7md 77",
        "rank": 17890,
        "rank_sort": 17907,
        "total": 2383
      },
      {
        "club_badge_src": "https://fantasy.premierleague.com/gcs/plfpl-production-adobe-approved/plfpl-production/67135/49f4a234-9175-4aa1-acd6-64729b9b5412.png",
        "entry": 67135,
        "entry_name": "JAYJAY O' \u015aLATER",
        "event_total": 67,
        "has_played": true,
        "id": 434575,
        "last_rank": 21775,
        "player_name": "Zaid Patel",
        "rank": 17890,
        "rank_sort": 17908,
        "total": 2383
      },
      {
        "club_badge_src": "https://fantasy.premierleague.com/gcs/plfpl-production-adobe-approved/plfpl-production/74201/9ae32cae-7ca0-42ae-8949-4f8dc8833746.png",
        "entry": 74201,
        "entry_name": "zhyar",
        "event_total": 69,
        "has_played": true,
        "id": 482329,
        "last_rank": 26710,
        "player_name": "Zhyar Hamza",
        "rank": 17890,
        "rank_sort": 17909,
        "total": 2383
      },
      {
        "club_badge_src": "https://fantasy.premierleague.com/gcs/plfpl-production-adobe-approved/plfpl-production/74442/40ce77ab-af47-404f-99b0-60da9d042c0b.png",
        "entry": 74442,
        "entry_name": "FC Baby Bat",
        "event_total": 53,
        "has_played": true,
        "id": 483853,
        "last_rank": 12705,
        "player_name": "Igor Andrejevic",
        "rank": 17890,
        "rank_sort": 17910,
        "total": 2383
      },
      {
        "club_badge_src": null,
        "entry": 76072,
        "entry_name": "Beef Cherki",
        "event_total": 66,
        "has_played": true,
        "id": 494544,
        "last_rank": 20983,
        "player_name": "Cayden Bugg",
        "rank": 17890,
        "rank_sort": 17911,
        "total": 2383
      },
      {
        "club_badge_src": null,
        "entry": 78499,
        "entry_name": "Roll the Dyche",
        "event_total": 56,
        "has_played": true,
        "id": 510395,
        "last_rank": 14370,
        "player_name": "Jamie Haskins",
        "rank": 17890,
        "rank_sort": 17912,
        "total": 2383
      },
      {
        "club_badge_src": null,
        "entry": 81947,
        "entry_name": "Matz sels seashells",
        "event_total": 47,
        "has_played": true,
        "id": 533140,
        "last_rank": 11821,
        "player_name": "Louie Grindley",
        "rank": 17890,
        "rank_sort": 17913,
        "total": 2383
      },
      {
        "club_badge_src": null,
        "entry": 92289,
        "entry_name": "Power Reijnders",
        "event_total": 51,
        "has_played": true,
        "id": 603046,
        "last_rank": 11699,
        "player_name": "JG Hollyoake",
        "rank": 17890,
        "rank_sort": 17914,
        "total": 2383
      },
      {
        "club_badge_src": null,
        "entry": 140334,
        "entry_name": "jb fc",
        "event_total": 65,
        "has_played": true,
        "id": 916381,
        "last_rank": 20179,
        "player_name": "Jamie Barr",
        "rank": 17890,
        "rank_sort": 17915,
        "total": 2383
      },
      {
        "club_badge_src": null,
        "entry": 164309,
        "entry_name": "Terms & Conditions",
        "event_total": 55,
        "has_played": true,
        "id": 1084253,
        "last_rank": 16320,
        "player_name": "M M",
        "rank": 17890,
        "rank_sort": 17916,
        "total": 2383
      },
      {
        "club_badge_src": null,
        "entry": 174325,
        "entry_name": "Bunged",
        "event_total": 67,
        "has_played": true,
        "id": 1151146,
        "last_rank": 21677,
        "player_name": "Cyrus Vaghaiwala",
        "rank": 17890,
        "rank_sort": 17917,
        "total": 2383
      },
      {
        "club_badge_src": null,
        "entry": 203067,
        "entry_name": "Palmer d'Or",
        "event_total": 53,
        "has_played": true,
        "id": 1348879,
        "last_rank": 14926,
        "player_name": "Glen Parker",
        "rank": 17890,
        "rank_sort": 17918,
        "total": 2383
      },
      {
        "club_badge_src": null,
        "entry": 252045,
        "entry_name": "Grim Reaper",
        "event_total": 53,
        "has_played": true,
        "id": 1676613,
        "last_rank": 15063,
        "player_name": "Samiul Alam",
        "rank": 17890,
        "rank_sort": 17919,
        "total": 2383
      },
      {
        "club_badge_src": null,
        "entry": 284675,
        "entry_name": "Wirtz Case Scenario",
        "event_total": 72,
        "has_played": true,
        "id": 1895672,
        "last_rank": 29688,
        "player_name": "Ben Harrington",
        "rank": 17890,
        "rank_sort": 17920,
        "total": 2383
      },
      {
        "club_badge_src": null,
        "entry": 307593,
        "entry_name": "Dirty Dutchmen",
        "event_total": 58,
        "has_played": true,
        "id": 2060170,
        "last_rank": 18270,
        "player_name": "Money Mags",
        "rank": 17890,
        "rank_sort": 17921,
        "total": 2383
      },
      {
        "club_badge_src": "https://fantasy.premierleague.com/gcs/plfpl-production-adobe-approved/plfpl-production/310534/8baaae81-fc9a-49d3-8e9e-446e712d9750.png",
        "entry": 310534,
        "entry_name": "SpionKopite",
        "event_total": 62,
        "has_played": true,
        "id": 2080289,
        "last_rank": 18113,
        "player_name": "zan moe",
        "rank": 17890,
        "rank_sort": 17922,
        "total": 2383
      },
      {
        "club_badge_src": null,
        "entry": 333684,
        "entry_name": "Tutti Frutti",
        "event_total": 54,
        "has_played": true,
        "id": 2234640,
        "last_rank": 13257,
        "player_name": "Thomas Andr\u00e9 Gudbrandsen",
        "rank": 17890,
        "rank_sort": 17923,
        "total": 2383
      },
      {
        "club_badge_src": null,
        "entry": 347282,
        "entry_name": "Can't Get Any Wirtz",
        "event_total": 48,
        "has_played": true,
        "id": 2324565,
        "last_rank": 12322,
        "player_name": "James Turton",
        "rank": 17890,
        "rank_sort": 17924,
        "total": 2383
      },
      {
        "club_badge_src": null,
        "entry": 392143,
        "entry_name": "ReijnderStoneCowboy",
        "event_total": 64,
        "has_played": true,
        "id": 2630160,
        "last_rank": 19432,
        "player_name": "steve crofts",
        "rank": 17890,
        "rank_sort": 17925,
        "total": 2383
      },
      {
        "club_badge_src": null,
        "entry": 431172,
        "entry_name": "Harsh FC",
        "event_total": 61,
        "has_played": true,
        "id": 2891718,
        "last_rank": 17437,
        "player_name": "Harsh Mehta",
        "rank": 17890,
        "rank_sort": 17926,
        "total": 2383
      },
      {
        "club_badge_src": null,
        "entry": 509244,
        "entry_name": "\ufffd Dinosaurs \ufffd",
        "event_total": 59,
        "has_played": true,
        "id": 3419080,
        "last_rank": 18985,
        "player_name": "Yoshi Tryba",
        "rank": 17890,
        "rank_sort": 17927,
        "total": 2383
      },
      {
        "club_badge_src": null,
        "entry": 577973,
        "entry_name": "Baksuz United",
        "event_total": 53,
        "has_played": true,
        "id": 3889044,
        "last_rank": 15063,
        "player_name": "Ivan Budimir",
        "rank": 17890,
        "rank_sort": 17928,
        "total": 2383
      },
      {
        "club_badge_src": "https://fantasy.premierleague.com/gcs/plfpl-production-adobe-approved/plfpl-production/592196/ed7d3aa4-2519-41cb-84bf-c961ccc64e19.png",
        "entry": 592196,
        "entry_name": "YaYaGunners",
        "event_total": 55,
        "has_played": true,
        "id": 3990217,
        "last_rank": 13821,
        "player_name": "Daks Op",
        "rank": 17890,
        "rank_sort": 17929,
        "total": 2383
      },
      {
        "club_badge_src": null,
        "entry": 652951,
        "entry_name": "TuttoBene",
        "event_total": 59,
        "has_played": true,
        "id": 4412683,
        "last_rank": 16163,
        "player_name": "jj boss",
        "rank": 17890,
        "rank_sort": 17930,
        "total": 2383
      },
      {
        "club_badge_src": "https://fantasy.premierleague.com/gcs/plfpl-production-adobe-approved/plfpl-production/682344/b29b2cf9-9578-4eef-b54c-a8d26a8dc37e.png",
        "entry": 682344,
        "entry_name": "LIVERBAL",
        "event_total": 60,
        "has_played": true,
        "id": 4617972,
        "last_rank": 16807,
        "player_name": "Bal\u00e1zs Hetei",
        "rank": 17890,
        "rank_sort": 17931,
        "total": 2383
      },
      {
        "club_badge_src": null,
        "entry": 693807,
        "entry_name": "Reece\u2019s (in) Pieces",
        "event_total": 60,
        "has_played": true,
        "id": 4698850,
        "last_rank": 19544,
        "player_name": "Zayd \u2800",
        "rank": 17890,
        "rank_sort": 17932,
        "total": 2383
      },
      {
        "club_badge_src": null,
        "entry": 777626,
        "entry_name": "DEFCONtivo La Coruna",
        "event_total": 50,
        "has_played": true,
        "id": 5305982,
        "last_rank": 13401,
        "player_name": "Josh Wildman",
        "rank": 17890,
        "rank_sort": 17933,
        "total": 2383
      },
      {
        "club_badge_src": null,
        "entry": 839259,
        "entry_name": "Odobert With Me",
        "event_total": 56,
        "has_played": true,
        "id": 5750125,
        "last_rank": 16959,
        "player_name": "Alex Mitchell",
        "rank": 17890,
        "rank_sort": 17934,
        "total": 2383
      },
      {
        "club_badge_src": null,
        "entry": 877799,
        "entry_name": "Tikka Mo Salah",
        "event_total": 76,
        "has_played": true,
        "id": 6018248,
        "last_rank": 33869,
        "player_name": "Jason N",
        "rank": 17890,
        "rank_sort": 17935,
        "total": 2383
      },
      {
        "club_badge_src": null,
        "entry": 880166,
        "entry_name": "Sweetpiece FC.",
        "event_total": 65,
        "has_played": true,
        "id": 6035794,
        "last_rank": 23522,
        "player_name": "Nuwaswong Teetiparivat",
        "rank": 17890,
        "rank_sort": 17936,
        "total": 2383
      },
      {
        "club_badge_src": null,
        "entry": 929610,
        "entry_name": "Hazelnutters FC",
        "event_total": 62,
        "has_played": true,
        "id": 6396243,
        "last_rank": 20983,
        "player_name": "Matt Hazelwood",
        "rank": 17890,
        "rank_sort": 17937,
        "total": 2383
      },
      {
        "club_badge_src": "https://fantasy.premierleague.com/gcs/plfpl-production-adobe-approved/plfpl-production/1092495/ff04bd07-b654-493c-a267-8546ebeb8c45.png",
        "entry": 1092495,
        "entry_name": "Wirtzkrieg Bop",
        "event_total": 64,
        "has_played": true,
        "id": 7566513,
        "last_rank": 19432,
        "player_name": "Simon Duncan",
        "rank": 17890,
        "rank_sort": 17938,
        "total": 2383
      },
      {
        "club_badge_src": null,
        "entry": 1101436,
        "entry_name": "Enter Team Name",
        "event_total": 51,
        "has_played": true,
        "id": 7629314,
        "last_rank": 13947,
        "player_name": "Felix Dennison",
        "rank": 17890,
        "rank_sort": 17939,
        "total": 2383
      },
      {
        "club_badge_src": null,
        "entry": 1128523,
        "entry_name": "I Never Finish First",
        "event_total": 70,
        "has_played": true,
        "id": 7821264,
        "last_rank": 27644,
        "player_name": "Tom Baker",
        "rank": 17890,
        "rank_sort": 17940,
        "total": 2383
      },
      {
        "club_badge_src": null,
        "entry": 1200979,
        "entry_name": "LK Dons",
        "event_total": 54,
        "has_played": true,
        "id": 8334220,
        "last_rank": 15550,
        "player_name": "Liam King",
        "rank": 17890,
        "rank_sort": 17941,
        "total": 2383
      },
      {
        "club_badge_src": "https://fantasy.premierleague.com/gcs/plfpl-production-adobe-approved/plfpl-production/1232604/6e12aad0-e7dd-46d9-b698-79eda60e7751.png",
        "entry": 1232604,
        "entry_name": "FC Kamel\u00e5s\u00e5",
        "event_total": 55,
        "has_played": true,
        "id": 8559292,
        "last_rank": 16320,
        "player_name": "Fredrik Harboe",
        "rank": 17890,
        "rank_sort": 17942,
        "total": 2383
      },
      {
        "club_badge_src": null,
        "entry": 1261112,
        "entry_name": "Woj's Wanderers",
        "event_total": 67,
        "has_played": true,
        "id": 8760122,
        "last_rank": 21775,
        "player_name": "James Wojcik",
        "rank": 17890,
        "rank_sort": 17943,
        "total": 2383
      },
      {
        "club_badge_src": null,
        "entry": 1327989,
        "entry_name": "Sky Full of Sparkes",
        "event_total": 74,
        "has_played": true,
        "id": 9230724,
        "last_rank": 27585,
        "player_name": "Tom Sparkes",
        "rank": 17890,
        "rank_sort": 17944,
        "total": 2383
      },
      {
        "club_badge_src": "https://fantasy.premierleague.com/gcs/plfpl-production-adobe-approved/plfpl-production/1399803/374807d1-c16b-450c-9443-2b850f6eb3d6.png",
        "entry": 1399803,
        "entry_name": "K1000",
        "event_total": 57,
        "has_played": true,
        "id": 9738979,
        "last_rank": 14926,
        "player_name": "Kamil Elkhoury",
        "rank": 17890,
        "rank_sort": 17945,
        "total": 2383
      },
      {
        "club_badge_src": "https://fantasy.premierleague.com/gcs/plfpl-production-adobe-approved/plfpl-production/1404597/18cf59c9-6290-4558-8085-55e957b3f1de.png",
        "entry": 1404597,
        "entry_name": "\u2728Pep\ufffd",
        "event_total": 54,
        "has_played": true,
        "id": 9773034,
        "last_rank": 15797,
        "player_name": "Ahmed Mohamed Abdalkarim \ud83c\uddf8\ud83c\udde9",
        "rank": 17890,
        "rank_sort": 17946,
        "total": 2383
      },
      {
        "club_badge_src": null,
        "entry": 1425806,
        "entry_name": "1. FC Kalinov",
        "event_total": 69,
        "has_played": true,
        "id": 9934358,
        "last_rank": 27020,
        "player_name": "Peter Grajciar",
        "rank": 17890,
        "rank_sort": 17947,
        "total": 2383
      },
      {
        "club_badge_src": null,
        "entry": 1464949,
        "entry_name": "Eze Come, Eze Go",
        "event_total": 53,
        "has_played": true,
        "id": 10211351,
        "last_rank": 15063,
        "player_name": "Oliver Reed",
        "rank": 17890,
        "rank_sort": 17948,
        "total": 2383
      },
      {
        "club_badge_src": null,
        "entry": 1501372,
        "entry_name": "\u00cdslenskt sl\u00fa\u00f0ur",
        "event_total": 52,
        "has_played": true,
        "id": 10470472,
        "last_rank": 14604,
        "player_name": "\u00cdvar Benjam\u00ednsson",
        "rank": 17890,
        "rank_sort": 17949,
        "total": 2383
      },
      {
        "club_badge_src": null,
        "entry": 1556103,
        "entry_name": "Bruno Ball Nandes",
        "event_total": 60,
        "has_played": true,
        "id": 10865393,
        "last_rank": 19544,
        "player_name": "Ballbaball Jatutan",
        "rank": 17890,
        "rank_sort": 17950,
        "total": 2383
      }
    ]
  }
}