{
  "last_updated_data": "2026-05-24T23:28:17Z",
  "league": {
    "admin_entry": null,
    "closed": false,
    "code_privacy": "p",
    "created": "2025-07-20T23:14:33.933835Z",
    "cup_league": 2815434,
    "has_cup": true,
    "id": 314,
    "league_type": "s",
    "max_entries": null,
    "name": "Overall",
    "rank": null,
    "scoring": "c",
    "start_event": 1
  },
  "new_entries": {
    "has_next": false,
    "page": 1,
    "results": []
  },
  "standings": {
    "has_next": true,
    "page": 309,
    "results": [
      {
        "club_badge_src": null,
        "entry": 3341637,
        "entry_name": "Lil Uzi Wirtz",
        "event_total": 57,
        "has_played": true,
        "id": 24785844,
        "last_rank": 14926,
        "player_name": "Jad Jaili",
        "rank": 15317,
        "rank_sort": 15401,
        "total": 2387
      },
      {
        "club_badge_src": null,
        "entry": 3466025,
        "entry_name": "Tielemans Square",
        "event_total": 58,
        "has_played": true,
        "id": 25765891,
        "last_rank": 15452,
        "player_name": "Joe Senior",
        "rank": 15317,
        "rank_sort": 15402,
        "total": 2387
      },
      {
        "club_badge_src": null,
        "entry": 3478452,
        "entry_name": "ComeOnYouGunners",
        "event_total": 64,
        "has_played": true,
        "id": 25864530,
        "last_rank": 19432,
        "player_name": "nikolas yiatrou",
        "rank": 15317,
        "rank_sort": 15403,
        "total": 2387
      },
      {
        "club_badge_src": "https://fantasy.premierleague.com/gcs/plfpl-production-adobe-approved/plfpl-production/3502439/319f4981-3450-478c-91e7-1f2ea0e834ec.png",
        "entry": 3502439,
        "entry_name": "Palagraco_4",
        "event_total": 62,
        "has_played": true,
        "id": 26054492,
        "last_rank": 18029,
        "player_name": "Paolo Gracin",
        "rank": 15317,
        "rank_sort": 15404,
        "total": 2387
      },
      {
        "club_badge_src": null,
        "entry": 3534757,
        "entry_name": "Meat Puppets",
        "event_total": 61,
        "has_played": true,
        "id": 26309452,
        "last_rank": 17358,
        "player_name": "Peter Keyzers",
        "rank": 15317,
        "rank_sort": 15405,
        "total": 2387
      },
      {
        "club_badge_src": "https://fantasy.premierleague.com/gcs/plfpl-production-adobe-approved/plfpl-production/3554130/2a9a0929-80a2-4cef-8b93-017bb0fc311a.png",
        "entry": 3554130,
        "entry_name": "Snow Kids\ufffd",
        "event_total": 78,
        "has_played": true,
        "id": 26460569,
        "last_rank": 31995,
        "player_name": "Jordan Kinathan",
        "rank": 15317,
        "rank_sort": 15406,
        "total": 2387
      },
      {
        "club_badge_src": null,
        "entry": 3563838,
        "entry_name": "GustaDantonsLanterns",
        "event_total": 62,
        "has_played": true,
        "id": 26535672,
        "last_rank": 18113,
        "player_name": "Jake Burslem",
        "rank": 15317,
        "rank_sort": 15407,
        "total": 2387
      },
      {
        "club_badge_src": null,
        "entry": 3693059,
        "entry_name": "The Blues",
        "event_total": 64,
        "has_played": true,
        "id": 27551436,
        "last_rank": 19544,
        "player_name": "William Andersson",
        "rank": 15317,
        "rank_sort": 15408,
        "total": 2387
      },
      {
        "club_badge_src": null,
        "entry": 3752217,
        "entry_name": "James Bolshevik IV",
        "event_total": 70,
        "has_played": true,
        "id": 28014121,
        "last_rank": 24143,
        "player_name": "William Ouellette",
        "rank": 15317,
        "rank_sort": 15409,
        "total": 2387
      },
      {
        "club_badge_src": null,
        "entry": 3954775,
        "entry_name": "King Mo",
        "event_total": 69,
        "has_played": true,
        "id": 29752964,
        "last_rank": 23230,
        "player_name": "Eisa Ashraf",
        "rank": 15317,
        "rank_sort": 15410,
        "total": 2387
      },
      {
        "club_badge_src": null,
        "entry": 3982762,
        "entry_name": "Vicks FPL",
        "event_total": 65,
        "has_played": true,
        "id": 29981767,
        "last_rank": 20179,
        "player_name": "Ollie Vickery",
        "rank": 15317,
        "rank_sort": 15411,
        "total": 2387
      },
      {
        "club_badge_src": null,
        "entry": 3997945,
        "entry_name": "Patatas Bravas",
        "event_total": 64,
        "has_played": true,
        "id": 30109490,
        "last_rank": 19544,
        "player_name": "Tom Croth",
        "rank": 15317,
        "rank_sort": 15412,
        "total": 2387
      },
      {
        "club_badge_src": null,
        "entry": 4097009,
        "entry_name": "Calafiori Dreamin",
        "event_total": 58,
        "has_played": true,
        "id": 30935340,
        "last_rank": 15452,
        "player_name": "Nick Lai",
        "rank": 15317,
        "rank_sort": 15413,
        "total": 2387
      },
      {
        "club_badge_src": null,
        "entry": 4121707,
        "entry_name": "Shameless Coleman",
        "event_total": 53,
        "has_played": true,
        "id": 31139189,
        "last_rank": 12705,
        "player_name": "Peter Wynn-Jones",
        "rank": 15317,
        "rank_sort": 15414,
        "total": 2387
      },
      {
        "club_badge_src": "https://fantasy.premierleague.com/gcs/plfpl-production-adobe-approved/plfpl-production/4207549/422f8574-51c0-421c-8a79-c9dce4c9e592.png",
        "entry": 4207549,
        "entry_name": "Akilex",
        "event_total": 51,
        "has_played": true,
        "id": 31854165,
        "last_rank": 11699,
        "player_name": "Elijah Alade",
        "rank": 15317,
        "rank_sort": 15415,
        "total": 2387
      },
      {
        "club_badge_src": null,
        "entry": 4288343,
        "entry_name": "We Play Weller",
        "event_total": 48,
        "has_played": true,
        "id": 32527898,
        "last_rank": 10346,
        "player_name": "Liam Feely",
        "rank": 15317,
        "rank_sort": 15416,
        "total": 2387
      },
      {
        "club_badge_src": null,
        "entry": 4337761,
        "entry_name": "Ollie Golightly",
        "event_total": 59,
        "has_played": true,
        "id": 32933491,
        "last_rank": 16062,
        "player_name": "Chris Jackson",
        "rank": 15317,
        "rank_sort": 15417,
        "total": 2387
      },
      {
        "club_badge_src": null,
        "entry": 4360444,
        "entry_name": "Tamjai_Plane",
        "event_total": 67,
        "has_played": true,
        "id": 33117794,
        "last_rank": 21677,
        "player_name": "Gary Au",
        "rank": 15317,
        "rank_sort": 15418,
        "total": 2387
      },
      {
        "club_badge_src": null,
        "entry": 4393277,
        "entry_name": "The Invertibles",
        "event_total": 69,
        "has_played": true,
        "id": 33399673,
        "last_rank": 23188,
        "player_name": "Jayant Ganju",
        "rank": 15317,
        "rank_sort": 15419,
        "total": 2387
      },
      {
        "club_badge_src": null,
        "entry": 4625291,
        "entry_name": "Pocket Meats",
        "event_total": 70,
        "has_played": true,
        "id": 35361117,
        "last_rank": 23990,
        "player_name": "Alex Head",
        "rank": 15317,
        "rank_sort": 15420,
        "total": 2387
      },
      {
        "club_badge_src": null,
        "entry": 4625905,
        "entry_name": "Mbeumodus Operandi",
        "event_total": 54,
        "has_played": true,
        "id": 35366353,
        "last_rank": 13257,
        "player_name": "John Wallwork",
        "rank": 15317,
        "rank_sort": 15421,
        "total": 2387
      },
      {
        "club_badge_src": null,
        "entry": 4632011,
        "entry_name": "For Beto, For Wirtz",
        "event_total": 68,
        "has_played": true,
        "id": 35418541,
        "last_rank": 22534,
        "player_name": "Ollie Pink",
        "rank": 15317,
        "rank_sort": 15422,
        "total": 2387
      },
      {
        "club_badge_src": null,
        "entry": 4745767,
        "entry_name": "TKRQ8",
        "event_total": 42,
        "has_played": true,
        "id": 36516434,
        "last_rank": 8032,
        "player_name": "Talal Alrasheedi",
        "rank": 15317,
        "rank_sort": 15423,
        "total": 2387
      },
      {
        "club_badge_src": null,
        "entry": 4899224,
        "entry_name": "C By West",
        "event_total": 57,
        "has_played": true,
        "id": 37777921,
        "last_rank": 14857,
        "player_name": "Jim Oscarson",
        "rank": 15317,
        "rank_sort": 15424,
        "total": 2387
      },
      {
        "club_badge_src": null,
        "entry": 4914751,
        "entry_name": "Cucurella Academy",
        "event_total": 64,
        "has_played": true,
        "id": 37905231,
        "last_rank": 19544,
        "player_name": "Vasil Tsvetkov",
        "rank": 15317,
        "rank_sort": 15425,
        "total": 2387
      },
      {
        "club_badge_src": null,
        "entry": 4996398,
        "entry_name": "Ha-Cunha Matata",
        "event_total": 48,
        "has_played": true,
        "id": 38579258,
        "last_rank": 10346,
        "player_name": "Gareth Wong",
        "rank": 15317,
        "rank_sort": 15426,
        "total": 2387
      },
      {
        "club_badge_src": null,
        "entry": 5101348,
        "entry_name": "Teerapol Gogogo",
        "event_total": 72,
        "has_played": true,
        "id": 39430564,
        "last_rank": 25776,
        "player_name": "Teerapol Udomvej",
        "rank": 15317,
        "rank_sort": 15427,
        "total": 2387
      },
      {
        "club_badge_src": null,
        "entry": 5204705,
        "entry_name": "\u00a360m down the drain",
        "event_total": 51,
        "has_played": true,
        "id": 40309895,
        "last_rank": 11699,
        "player_name": "Gary Townsend",
        "rank": 15317,
        "rank_sort": 15428,
        "total": 2387
      },
      {
        "club_badge_src": null,
        "entry": 5295123,
        "entry_name": "Goal diggers",
        "event_total": 75,
        "has_played": true,
        "id": 41044381,
        "last_rank": 28546,
        "player_name": "Fabian Zuzic",
        "rank": 15317,
        "rank_sort": 15429,
        "total": 2387
      },
      {
        "club_badge_src": null,
        "entry": 5577273,
        "entry_name": "Far Far North FC",
        "event_total": 70,
        "has_played": true,
        "id": 43556371,
        "last_rank": 24330,
        "player_name": "Rory Paterson",
        "rank": 15317,
        "rank_sort": 15430,
        "total": 2387
      },
      {
        "club_badge_src": null,
        "entry": 5578538,
        "entry_name": "More Cheese Please",
        "event_total": 40,
        "has_played": true,
        "id": 43567515,
        "last_rank": 7375,
        "player_name": "david hancock",
        "rank": 15317,
        "rank_sort": 15431,
        "total": 2387
      },
      {
        "club_badge_src": null,
        "entry": 5668854,
        "entry_name": "Luca Brasi FC",
        "event_total": 61,
        "has_played": true,
        "id": 44358418,
        "last_rank": 17437,
        "player_name": "Erik Tollersrud Vanem",
        "rank": 15317,
        "rank_sort": 15432,
        "total": 2387
      },
      {
        "club_badge_src": null,
        "entry": 5792488,
        "entry_name": "P\u00e5 Fot IK",
        "event_total": 59,
        "has_played": true,
        "id": 45433249,
        "last_rank": 16163,
        "player_name": "H\u00e5vard Svendsen",
        "rank": 15317,
        "rank_sort": 15433,
        "total": 2387
      },
      {
        "club_badge_src": null,
        "entry": 5795926,
        "entry_name": "PW Genius",
        "event_total": 61,
        "has_played": true,
        "id": 45463560,
        "last_rank": 17327,
        "player_name": "Piers Winton",
        "rank": 15317,
        "rank_sort": 15434,
        "total": 2387
      },
      {
        "club_badge_src": null,
        "entry": 6207794,
        "entry_name": "Willow Town",
        "event_total": 57,
        "has_played": true,
        "id": 49112848,
        "last_rank": 15063,
        "player_name": "Robert Rhodes",
        "rank": 15317,
        "rank_sort": 15435,
        "total": 2387
      },
      {
        "club_badge_src": null,
        "entry": 6252717,
        "entry_name": "AL or Nothing",
        "event_total": 67,
        "has_played": true,
        "id": 49498270,
        "last_rank": 21775,
        "player_name": "Al Black",
        "rank": 15317,
        "rank_sort": 15436,
        "total": 2387
      },
      {
        "club_badge_src": null,
        "entry": 6309188,
        "entry_name": "Holgates of Hell",
        "event_total": 59,
        "has_played": true,
        "id": 50048281,
        "last_rank": 13754,
        "player_name": "Cam Allen",
        "rank": 15317,
        "rank_sort": 15437,
        "total": 2387
      },
      {
        "club_badge_src": null,
        "entry": 6314114,
        "entry_name": "PadelFC",
        "event_total": 62,
        "has_played": true,
        "id": 50103699,
        "last_rank": 18113,
        "player_name": "Syed Ali",
        "rank": 15317,
        "rank_sort": 15438,
        "total": 2387
      },
      {
        "club_badge_src": null,
        "entry": 6453003,
        "entry_name": "Pass The Baton",
        "event_total": 57,
        "has_played": true,
        "id": 51388666,
        "last_rank": 14926,
        "player_name": "David Tomlins",
        "rank": 15317,
        "rank_sort": 15439,
        "total": 2387
      },
      {
        "club_badge_src": null,
        "entry": 6511293,
        "entry_name": "tmcla fc",
        "event_total": 60,
        "has_played": true,
        "id": 51922394,
        "last_rank": 16807,
        "player_name": "Tom McLaughlin",
        "rank": 15317,
        "rank_sort": 15440,
        "total": 2387
      },
      {
        "club_badge_src": null,
        "entry": 6709602,
        "entry_name": "Shadow",
        "event_total": 42,
        "has_played": true,
        "id": 53694280,
        "last_rank": 8138,
        "player_name": "-shadow Alabsi--",
        "rank": 15317,
        "rank_sort": 15441,
        "total": 2387
      },
      {
        "club_badge_src": null,
        "entry": 6731363,
        "entry_name": "A Thousand Milners",
        "event_total": 60,
        "has_played": true,
        "id": 53878334,
        "last_rank": 16807,
        "player_name": "Jonny Neville",
        "rank": 15317,
        "rank_sort": 15442,
        "total": 2387
      },
      {
        "club_badge_src": null,
        "entry": 6781276,
        "entry_name": "Zuba zuba zuba",
        "event_total": 65,
        "has_played": true,
        "id": 54300675,
        "last_rank": 20179,
        "player_name": "Vaibhav Kumar",
        "rank": 15317,
        "rank_sort": 15443,
        "total": 2387
      },
      {
        "club_badge_src": null,
        "entry": 6801103,
        "entry_name": "Mordor",
        "event_total": 66,
        "has_played": true,
        "id": 54465328,
        "last_rank": 20983,
        "player_name": "J\u00f8rgen Svarstad",
        "rank": 15317,
        "rank_sort": 15444,
        "total": 2387
      },
      {
        "club_badge_src": null,
        "entry": 6820431,
        "entry_name": "BonZo",
        "event_total": 58,
        "has_played": true,
        "id": 54627723,
        "last_rank": 15452,
        "player_name": "Eviatar Schory",
        "rank": 15317,
        "rank_sort": 15445,
        "total": 2387
      },
      {
        "club_badge_src": null,
        "entry": 6866204,
        "entry_name": "Jimbo's 11",
        "event_total": 56,
        "has_played": true,
        "id": 55018192,
        "last_rank": 14370,
        "player_name": "Naazhim Behra",
        "rank": 15317,
        "rank_sort": 15446,
        "total": 2387
      },
      {
        "club_badge_src": null,
        "entry": 6911224,
        "entry_name": "Calm Down Its Soccer",
        "event_total": 66,
        "has_played": true,
        "id": 55398211,
        "last_rank": 20888,
        "player_name": "Drew Hentz",
        "rank": 15317,
        "rank_sort": 15447,
        "total": 2387
      },
      {
        "club_badge_src": null,
        "entry": 7051410,
        "entry_name": "Roll with A\u00eft",
        "event_total": 68,
        "has_played": true,
        "id": 56711178,
        "last_rank": 22376,
        "player_name": "Andy Malpas",
        "rank": 15317,
        "rank_sort": 15448,
        "total": 2387
      },
      {
        "club_badge_src": "https://fantasy.premierleague.com/gcs/plfpl-production-adobe-approved/plfpl-production/7070017/64be2654-a973-442d-a7ca-57ff840e0b7c.png",
        "entry": 7070017,
        "entry_name": "Gy\u00f6k and Roll",
        "event_total": 59,
        "has_played": true,
        "id": 56889366,
        "last_rank": 16163,
        "player_name": "Brandon Wilkes",
        "rank": 15317,
        "rank_sort": 15449,
        "total": 2387
      },
      {
        "club_badge_src": null,
        "entry": 7078321,
        "entry_name": "Vodka Juniors",
        "event_total": 42,
        "has_played": true,
        "id": 56968947,
        "last_rank": 7979,
        "player_name": "Santiago Arroyo",
        "rank": 15317,
        "rank_sort": 15450,
        "total": 2387
      }
    ]
  }
}