{
  "last_updated_data": "2026-05-24T23:28:17Z",
  "league": {
    "admin_entry": null,
    "closed": false,
    "code_privacy": "p",
    "created": "2025-07-20T23:14:33.933835Z",
    "cup_league": 2815434,
    "has_cup": true,
    "id": 314,
    "league_type": "s",
    "max_entries": null,
    "name": "Overall",
    "rank": null,
    "scoring": "c",
    "start_event": 1
  },
  "new_entries": {
    "has_next": false,
    "page": 1,
    "results": []
  },
  "standings": {
    "has_next": true,
    "page": 456,
    "results": [
      {
        "club_badge_src": null,
        "entry": 8462989,
        "entry_name": "Portugeese FC",
        "event_total": 44,
        "has_played": true,
        "id": 70278021,
        "last_rank": 13699,
        "player_name": "Stephen Hutchinson",
        "rank": 22748,
        "rank_sort": 22751,
        "total": 2376
      },
      {
        "club_badge_src": null,
        "entry": 9404048,
        "entry_name": "zift",
        "event_total": 36,
        "has_played": true,
        "id": 79412164,
        "last_rank": 9838,
        "player_name": "Marwan Gamil",
        "rank": 22748,
        "rank_sort": 22752,
        "total": 2376
      },
      {
        "club_badge_src": null,
        "entry": 139385,
        "entry_name": "chompsy",
        "event_total": 51,
        "has_played": true,
        "id": 909689,
        "last_rank": 17970,
        "player_name": "Harvey Mcallister",
        "rank": 22753,
        "rank_sort": 22753,
        "total": 2376
      },
      {
        "club_badge_src": null,
        "entry": 857056,
        "entry_name": "Pirondi FC",
        "event_total": 58,
        "has_played": true,
        "id": 5874727,
        "last_rank": 23164,
        "player_name": "Martin Donoso",
        "rank": 22753,
        "rank_sort": 22754,
        "total": 2376
      },
      {
        "club_badge_src": null,
        "entry": 3262421,
        "entry_name": "Bad at FPL",
        "event_total": 56,
        "has_played": true,
        "id": 24140181,
        "last_rank": 21609,
        "player_name": "Christian Turner",
        "rank": 22753,
        "rank_sort": 22755,
        "total": 2376
      },
      {
        "club_badge_src": "https://fantasy.premierleague.com/gcs/plfpl-production-adobe-approved/plfpl-production/287610/16bcd5df-61da-45b3-9994-9159fe5b4150.png",
        "entry": 287610,
        "entry_name": "Change name",
        "event_total": 38,
        "has_played": true,
        "id": 1916722,
        "last_rank": 10720,
        "player_name": "Thomas Edwards",
        "rank": 22756,
        "rank_sort": 22756,
        "total": 2376
      },
      {
        "club_badge_src": null,
        "entry": 442466,
        "entry_name": "The Wirtz Locker",
        "event_total": 55,
        "has_played": true,
        "id": 2966663,
        "last_rank": 20826,
        "player_name": "Matt Smith",
        "rank": 22756,
        "rank_sort": 22757,
        "total": 2376
      },
      {
        "club_badge_src": null,
        "entry": 447684,
        "entry_name": "Maximum 20 character",
        "event_total": 54,
        "has_played": true,
        "id": 3003150,
        "last_rank": 20116,
        "player_name": "Peter Heery",
        "rank": 22756,
        "rank_sort": 22758,
        "total": 2376
      },
      {
        "club_badge_src": null,
        "entry": 682544,
        "entry_name": "BigRed",
        "event_total": 77,
        "has_played": true,
        "id": 4619347,
        "last_rank": 43733,
        "player_name": "Sean Reddy",
        "rank": 22756,
        "rank_sort": 22759,
        "total": 2376
      },
      {
        "club_badge_src": null,
        "entry": 700051,
        "entry_name": "Evans Above",
        "event_total": 42,
        "has_played": true,
        "id": 4742602,
        "last_rank": 12608,
        "player_name": "Jack Lang",
        "rank": 22756,
        "rank_sort": 22760,
        "total": 2376
      },
      {
        "club_badge_src": null,
        "entry": 750208,
        "entry_name": "Les \u00e9lus de Haugan",
        "event_total": 69,
        "has_played": true,
        "id": 5104409,
        "last_rank": 33827,
        "player_name": "Tor Morten Haugan",
        "rank": 22756,
        "rank_sort": 22761,
        "total": 2376
      },
      {
        "club_badge_src": null,
        "entry": 2841797,
        "entry_name": "R4 FPL",
        "event_total": 51,
        "has_played": true,
        "id": 20770731,
        "last_rank": 17989,
        "player_name": "AFC R4",
        "rank": 22756,
        "rank_sort": 22762,
        "total": 2376
      },
      {
        "club_badge_src": null,
        "entry": 3295099,
        "entry_name": "Miley High Club",
        "event_total": 55,
        "has_played": true,
        "id": 24400445,
        "last_rank": 20853,
        "player_name": "Daniel Harmison",
        "rank": 22756,
        "rank_sort": 22763,
        "total": 2376
      },
      {
        "club_badge_src": "https://fantasy.premierleague.com/gcs/plfpl-production-adobe-approved/plfpl-production/7719926/a6f89e31-c724-4465-9241-f12d3a073a86.png",
        "entry": 7719926,
        "entry_name": "Ctrl Alt Defeat",
        "event_total": 57,
        "has_played": true,
        "id": 63350313,
        "last_rank": 22391,
        "player_name": "Ryan Walker",
        "rank": 22756,
        "rank_sort": 22764,
        "total": 2376
      },
      {
        "club_badge_src": null,
        "entry": 9413903,
        "entry_name": "Cody\u2019s Concrete 11",
        "event_total": 57,
        "has_played": true,
        "id": 79507022,
        "last_rank": 22358,
        "player_name": "Cody Loines",
        "rank": 22756,
        "rank_sort": 22765,
        "total": 2376
      },
      {
        "club_badge_src": null,
        "entry": 55583,
        "entry_name": "Zz",
        "event_total": 51,
        "has_played": true,
        "id": 357875,
        "last_rank": 17970,
        "player_name": "R S",
        "rank": 22766,
        "rank_sort": 22766,
        "total": 2376
      },
      {
        "club_badge_src": null,
        "entry": 178130,
        "entry_name": "Min Su Octopi",
        "event_total": 53,
        "has_played": true,
        "id": 1175609,
        "last_rank": 19376,
        "player_name": "Anisa Banian",
        "rank": 22766,
        "rank_sort": 22767,
        "total": 2376
      },
      {
        "club_badge_src": "https://fantasy.premierleague.com/gcs/plfpl-production-adobe-approved/plfpl-production/340202/97aff53c-e2df-43f5-8c22-f74eebd3cde9.png",
        "entry": 340202,
        "entry_name": "Unai's Villians",
        "event_total": 60,
        "has_played": true,
        "id": 2277257,
        "last_rank": 21598,
        "player_name": "Brian Enright",
        "rank": 22766,
        "rank_sort": 22768,
        "total": 2376
      },
      {
        "club_badge_src": null,
        "entry": 465002,
        "entry_name": "Calafiorication",
        "event_total": 43,
        "has_played": true,
        "id": 3119441,
        "last_rank": 13184,
        "player_name": "Hugo Angberg",
        "rank": 22766,
        "rank_sort": 22769,
        "total": 2376
      },
      {
        "club_badge_src": null,
        "entry": 484391,
        "entry_name": "Iwobi Wan-Kenobi",
        "event_total": 61,
        "has_played": true,
        "id": 3251378,
        "last_rank": 25729,
        "player_name": "Zak White",
        "rank": 22766,
        "rank_sort": 22770,
        "total": 2376
      },
      {
        "club_badge_src": null,
        "entry": 742160,
        "entry_name": "Hokoyo Boys",
        "event_total": 66,
        "has_played": true,
        "id": 5047953,
        "last_rank": 30503,
        "player_name": "Byron Passaportis",
        "rank": 22766,
        "rank_sort": 22771,
        "total": 2376
      },
      {
        "club_badge_src": null,
        "entry": 1725389,
        "entry_name": "mudryk ballondor",
        "event_total": 44,
        "has_played": true,
        "id": 12099364,
        "last_rank": 13754,
        "player_name": "Aydin Ahmed",
        "rank": 22766,
        "rank_sort": 22772,
        "total": 2376
      },
      {
        "club_badge_src": null,
        "entry": 1839702,
        "entry_name": "\u0627\u0644\u0634\u0628\u0627\u0628\ufffd",
        "event_total": 60,
        "has_played": true,
        "id": 12942912,
        "last_rank": 24857,
        "player_name": "\u062d\u0633\u064a\u0646 \u0627\u0644\u0645\u0627\u062c\u062f",
        "rank": 22766,
        "rank_sort": 22773,
        "total": 2376
      },
      {
        "club_badge_src": null,
        "entry": 3067632,
        "entry_name": "kenni23",
        "event_total": 49,
        "has_played": true,
        "id": 22587408,
        "last_rank": 16675,
        "player_name": "Kenni Wincott",
        "rank": 22766,
        "rank_sort": 22774,
        "total": 2376
      },
      {
        "club_badge_src": null,
        "entry": 5147626,
        "entry_name": "Nathybharey \ufffd",
        "event_total": 75,
        "has_played": true,
        "id": 39823617,
        "last_rank": 41162,
        "player_name": "Nathy Bharey",
        "rank": 22766,
        "rank_sort": 22775,
        "total": 2376
      },
      {
        "club_badge_src": null,
        "entry": 5240392,
        "entry_name": "Emirates strikes bac",
        "event_total": 47,
        "has_played": true,
        "id": 40611640,
        "last_rank": 15452,
        "player_name": "Shivan Patel",
        "rank": 22766,
        "rank_sort": 22776,
        "total": 2376
      },
      {
        "club_badge_src": null,
        "entry": 5282014,
        "entry_name": "Stonaldoughnuts",
        "event_total": 64,
        "has_played": true,
        "id": 40941288,
        "last_rank": 28546,
        "player_name": "James Stonnell",
        "rank": 22766,
        "rank_sort": 22777,
        "total": 2376
      },
      {
        "club_badge_src": null,
        "entry": 5428900,
        "entry_name": "In Enzo We Trust",
        "event_total": 66,
        "has_played": true,
        "id": 42227362,
        "last_rank": 30503,
        "player_name": "Sean ONeill",
        "rank": 22766,
        "rank_sort": 22778,
        "total": 2376
      },
      {
        "club_badge_src": null,
        "entry": 5657239,
        "entry_name": "United road\u2764\ufe0f",
        "event_total": 78,
        "has_played": true,
        "id": 44258395,
        "last_rank": 45126,
        "player_name": "Shabil Mohiyudheen",
        "rank": 22766,
        "rank_sort": 22779,
        "total": 2376
      },
      {
        "club_badge_src": null,
        "entry": 6173601,
        "entry_name": "OmieUrHomie",
        "event_total": 40,
        "has_played": true,
        "id": 48817215,
        "last_rank": 11642,
        "player_name": "Omar Adel",
        "rank": 22766,
        "rank_sort": 22780,
        "total": 2376
      },
      {
        "club_badge_src": null,
        "entry": 6628857,
        "entry_name": "Palmer",
        "event_total": 59,
        "has_played": true,
        "id": 52977038,
        "last_rank": 23990,
        "player_name": "Miro Rantanen",
        "rank": 22766,
        "rank_sort": 22781,
        "total": 2376
      },
      {
        "club_badge_src": null,
        "entry": 7117750,
        "entry_name": "Fantastique",
        "event_total": 47,
        "has_played": true,
        "id": 57345202,
        "last_rank": 15416,
        "player_name": "Iain White",
        "rank": 22766,
        "rank_sort": 22782,
        "total": 2376
      },
      {
        "club_badge_src": null,
        "entry": 7663224,
        "entry_name": "A Challenging Frank",
        "event_total": 42,
        "has_played": true,
        "id": 62836957,
        "last_rank": 12645,
        "player_name": "Harry Perkins",
        "rank": 22766,
        "rank_sort": 22783,
        "total": 2376
      },
      {
        "club_badge_src": null,
        "entry": 8205591,
        "entry_name": "J.Hoves Vittnen",
        "event_total": 47,
        "has_played": true,
        "id": 67793181,
        "last_rank": 15416,
        "player_name": "Viktor Lundstr\u00f6m",
        "rank": 22766,
        "rank_sort": 22784,
        "total": 2376
      },
      {
        "club_badge_src": null,
        "entry": 8574494,
        "entry_name": "M\u00f3\u00f4\u00f6\u00f2\u00f8\u00f8stafa",
        "event_total": 39,
        "has_played": true,
        "id": 71353315,
        "last_rank": 11175,
        "player_name": "M\u00f3\u00f4\u00f6\u00f2\u00f5\u014d\u00f8st\u00e0f\u00e4 T\u00e9\u00ea\u00e8\u00eb\u0113fa\u00e0",
        "rank": 22766,
        "rank_sort": 22785,
        "total": 2376
      },
      {
        "club_badge_src": null,
        "entry": 9025473,
        "entry_name": "Alaska United",
        "event_total": 77,
        "has_played": true,
        "id": 75725598,
        "last_rank": 43757,
        "player_name": "Melissa Gomez",
        "rank": 22766,
        "rank_sort": 22786,
        "total": 2376
      },
      {
        "club_badge_src": null,
        "entry": 11249,
        "entry_name": "Wirtz Case Scenario",
        "event_total": 52,
        "has_played": true,
        "id": 66803,
        "last_rank": 18790,
        "player_name": "Lennie Peoples",
        "rank": 22787,
        "rank_sort": 22787,
        "total": 2376
      },
      {
        "club_badge_src": null,
        "entry": 70088,
        "entry_name": "Kinder mbuemo",
        "event_total": 60,
        "has_played": true,
        "id": 454945,
        "last_rank": 24832,
        "player_name": "Yussuf Ahmed",
        "rank": 22787,
        "rank_sort": 22788,
        "total": 2376
      },
      {
        "club_badge_src": null,
        "entry": 92548,
        "entry_name": ".",
        "event_total": 62,
        "has_played": true,
        "id": 604802,
        "last_rank": 26827,
        "player_name": "Elliot King",
        "rank": 22787,
        "rank_sort": 22789,
        "total": 2376
      },
      {
        "club_badge_src": null,
        "entry": 98278,
        "entry_name": "Seven Nation Arne",
        "event_total": 59,
        "has_played": true,
        "id": 641814,
        "last_rank": 20826,
        "player_name": "Oscar Burnett",
        "rank": 22787,
        "rank_sort": 22790,
        "total": 2376
      },
      {
        "club_badge_src": null,
        "entry": 185467,
        "entry_name": "A Hickey Situation",
        "event_total": 43,
        "has_played": true,
        "id": 1225170,
        "last_rank": 13184,
        "player_name": "Charlie Hart",
        "rank": 22787,
        "rank_sort": 22791,
        "total": 2376
      },
      {
        "club_badge_src": null,
        "entry": 429831,
        "entry_name": "bayern boru",
        "event_total": 60,
        "has_played": true,
        "id": 2882884,
        "last_rank": 24897,
        "player_name": "James O\u2019Donnell",
        "rank": 22787,
        "rank_sort": 22792,
        "total": 2376
      },
      {
        "club_badge_src": null,
        "entry": 562535,
        "entry_name": "Yellow Sub Machine",
        "event_total": 67,
        "has_played": true,
        "id": 3786425,
        "last_rank": 31620,
        "player_name": "Jacob Yellow",
        "rank": 22787,
        "rank_sort": 22793,
        "total": 2376
      },
      {
        "club_badge_src": null,
        "entry": 637332,
        "entry_name": "HwangCunhaMateta",
        "event_total": 55,
        "has_played": true,
        "id": 4307433,
        "last_rank": 20853,
        "player_name": "Benjamin de Geest",
        "rank": 22787,
        "rank_sort": 22794,
        "total": 2376
      },
      {
        "club_badge_src": null,
        "entry": 814177,
        "entry_name": "KJFC",
        "event_total": 62,
        "has_played": true,
        "id": 5575247,
        "last_rank": 26710,
        "player_name": "Kane Fuller",
        "rank": 22787,
        "rank_sort": 22795,
        "total": 2376
      },
      {
        "club_badge_src": null,
        "entry": 817578,
        "entry_name": "Lenny's 11",
        "event_total": 55,
        "has_played": true,
        "id": 5598874,
        "last_rank": 20983,
        "player_name": "Ruair\u00ed Lenaghan",
        "rank": 22787,
        "rank_sort": 22796,
        "total": 2376
      },
      {
        "club_badge_src": null,
        "entry": 1088557,
        "entry_name": "You're taking Le Tis",
        "event_total": 70,
        "has_played": true,
        "id": 7538815,
        "last_rank": 35034,
        "player_name": "Ryan Mahon",
        "rank": 22787,
        "rank_sort": 22797,
        "total": 2376
      },
      {
        "club_badge_src": null,
        "entry": 1514503,
        "entry_name": "Dev",
        "event_total": 79,
        "has_played": true,
        "id": 10563153,
        "last_rank": 46547,
        "player_name": "Emil Solnik",
        "rank": 22787,
        "rank_sort": 22798,
        "total": 2376
      },
      {
        "club_badge_src": null,
        "entry": 1619959,
        "entry_name": "Theboydonegood",
        "event_total": 40,
        "has_played": true,
        "id": 11336165,
        "last_rank": 11642,
        "player_name": "Mark Shapland",
        "rank": 22787,
        "rank_sort": 22799,
        "total": 2376
      },
      {
        "club_badge_src": null,
        "entry": 1763606,
        "entry_name": "New job fc",
        "event_total": 48,
        "has_played": true,
        "id": 12383919,
        "last_rank": 16062,
        "player_name": "Ashley Ward",
        "rank": 22787,
        "rank_sort": 22800,
        "total": 2376
      }
    ]
  }
}