{
  "last_updated_data": "2026-05-24T23:28:17Z",
  "league": {
    "admin_entry": null,
    "closed": false,
    "code_privacy": "p",
    "created": "2025-07-20T23:14:33.933835Z",
    "cup_league": 2815434,
    "has_cup": true,
    "id": 314,
    "league_type": "s",
    "max_entries": null,
    "name": "Overall",
    "rank": null,
    "scoring": "c",
    "start_event": 1
  },
  "new_entries": {
    "has_next": false,
    "page": 1,
    "results": []
  },
  "standings": {
    "has_next": true,
    "page": 1156,
    "results": [
      {
        "club_badge_src": null,
        "entry": 3575020,
        "entry_name": "George",
        "event_total": 59,
        "has_played": true,
        "id": 26620626,
        "last_rank": 61606,
        "player_name": "George Townson",
        "rank": 57566,
        "rank_sort": 57751,
        "total": 2347
      },
      {
        "club_badge_src": null,
        "entry": 3604313,
        "entry_name": "Kinder Mbeumo",
        "event_total": 68,
        "has_played": true,
        "id": 26846272,
        "last_rank": 79431,
        "player_name": "yasin hammad",
        "rank": 57566,
        "rank_sort": 57752,
        "total": 2347
      },
      {
        "club_badge_src": null,
        "entry": 3631289,
        "entry_name": "CornerTakenQuickly",
        "event_total": 51,
        "has_played": true,
        "id": 27059782,
        "last_rank": 42648,
        "player_name": "Paul Downey",
        "rank": 57566,
        "rank_sort": 57753,
        "total": 2347
      },
      {
        "club_badge_src": null,
        "entry": 3644639,
        "entry_name": "hikkkkjhh",
        "event_total": 56,
        "has_played": true,
        "id": 27163189,
        "last_rank": 49880,
        "player_name": "Tom Senogles",
        "rank": 57566,
        "rank_sort": 57754,
        "total": 2347
      },
      {
        "club_badge_src": null,
        "entry": 3808120,
        "entry_name": "Nameless",
        "event_total": 58,
        "has_played": true,
        "id": 28472386,
        "last_rank": 60168,
        "player_name": "Chucky Chucky",
        "rank": 57566,
        "rank_sort": 57755,
        "total": 2347
      },
      {
        "club_badge_src": null,
        "entry": 3847786,
        "entry_name": "MAZ1",
        "event_total": 64,
        "has_played": true,
        "id": 28841775,
        "last_rank": 70985,
        "player_name": "Mohamed Azwan",
        "rank": 57566,
        "rank_sort": 57756,
        "total": 2347
      },
      {
        "club_badge_src": null,
        "entry": 3931270,
        "entry_name": "Cesc and The City",
        "event_total": 67,
        "has_played": true,
        "id": 29567155,
        "last_rank": 76947,
        "player_name": "Camilo Albornoz",
        "rank": 57566,
        "rank_sort": 57757,
        "total": 2347
      },
      {
        "club_badge_src": null,
        "entry": 3935956,
        "entry_name": "Shart Verbruggen",
        "event_total": 59,
        "has_played": true,
        "id": 29606176,
        "last_rank": 61950,
        "player_name": "Callum Tulley",
        "rank": 57566,
        "rank_sort": 57758,
        "total": 2347
      },
      {
        "club_badge_src": null,
        "entry": 4011868,
        "entry_name": "Real H\u00e5pl\u00f8s",
        "event_total": 59,
        "has_played": true,
        "id": 30229590,
        "last_rank": 61950,
        "player_name": "Yngve Austegard",
        "rank": 57566,
        "rank_sort": 57759,
        "total": 2347
      },
      {
        "club_badge_src": null,
        "entry": 4030947,
        "entry_name": "Gy\u00f6keres & Co.",
        "event_total": 68,
        "has_played": true,
        "id": 30388735,
        "last_rank": 79431,
        "player_name": "Markus Eriksson",
        "rank": 57566,
        "rank_sort": 57760,
        "total": 2347
      },
      {
        "club_badge_src": null,
        "entry": 4068299,
        "entry_name": "ELSOOOS\ufffd",
        "event_total": 59,
        "has_played": true,
        "id": 30704881,
        "last_rank": 61950,
        "player_name": "Mustafa Hassan",
        "rank": 57566,
        "rank_sort": 57761,
        "total": 2347
      },
      {
        "club_badge_src": null,
        "entry": 4091757,
        "entry_name": "Lord of the Haalands",
        "event_total": 51,
        "has_played": true,
        "id": 30893545,
        "last_rank": 48197,
        "player_name": "Eduardo Barrera",
        "rank": 57566,
        "rank_sort": 57762,
        "total": 2347
      },
      {
        "club_badge_src": null,
        "entry": 4100984,
        "entry_name": "Obi wan kenobi",
        "event_total": 71,
        "has_played": true,
        "id": 30967597,
        "last_rank": 86304,
        "player_name": "Obiefuna Chukwuebuka",
        "rank": 57566,
        "rank_sort": 57763,
        "total": 2347
      },
      {
        "club_badge_src": null,
        "entry": 4134606,
        "entry_name": "karim",
        "event_total": 46,
        "has_played": true,
        "id": 31245633,
        "last_rank": 41617,
        "player_name": "KARIM Osama",
        "rank": 57566,
        "rank_sort": 57764,
        "total": 2347
      },
      {
        "club_badge_src": null,
        "entry": 4191311,
        "entry_name": "Cunhalingus",
        "event_total": 60,
        "has_played": true,
        "id": 31717365,
        "last_rank": 56369,
        "player_name": "Jacob Robinson",
        "rank": 57566,
        "rank_sort": 57765,
        "total": 2347
      },
      {
        "club_badge_src": null,
        "entry": 4223798,
        "entry_name": "roti or rice?",
        "event_total": 64,
        "has_played": true,
        "id": 31997231,
        "last_rank": 63201,
        "player_name": "Ming Rui Chan",
        "rank": 57566,
        "rank_sort": 57766,
        "total": 2347
      },
      {
        "club_badge_src": null,
        "entry": 4235970,
        "entry_name": "Big Baldy Bryan's XI",
        "event_total": 56,
        "has_played": true,
        "id": 32099117,
        "last_rank": 56708,
        "player_name": "George Paterson",
        "rank": 57566,
        "rank_sort": 57767,
        "total": 2347
      },
      {
        "club_badge_src": null,
        "entry": 4249358,
        "entry_name": "Beef Cherki",
        "event_total": 51,
        "has_played": true,
        "id": 32211825,
        "last_rank": 48642,
        "player_name": "Jai Kohli",
        "rank": 57566,
        "rank_sort": 57768,
        "total": 2347
      },
      {
        "club_badge_src": null,
        "entry": 4292114,
        "entry_name": "Lavia Loca",
        "event_total": 58,
        "has_played": true,
        "id": 32558076,
        "last_rank": 60168,
        "player_name": "Gage Boyle",
        "rank": 57566,
        "rank_sort": 57769,
        "total": 2347
      },
      {
        "club_badge_src": null,
        "entry": 4313901,
        "entry_name": "El Rey de copas",
        "event_total": 57,
        "has_played": true,
        "id": 32735202,
        "last_rank": 58388,
        "player_name": "Andr\u00e9s Escobar",
        "rank": 57566,
        "rank_sort": 57770,
        "total": 2347
      },
      {
        "club_badge_src": "https://fantasy.premierleague.com/gcs/plfpl-production-adobe-approved/plfpl-production/4475782/55cffd28-ccf2-493c-a151-f8f580cd25bf.png",
        "entry": 4475782,
        "entry_name": "Opta Prats",
        "event_total": 56,
        "has_played": true,
        "id": 34109176,
        "last_rank": 56369,
        "player_name": "Adrian Khan",
        "rank": 57566,
        "rank_sort": 57771,
        "total": 2347
      },
      {
        "club_badge_src": null,
        "entry": 4484418,
        "entry_name": "Ward-Prowse FC",
        "event_total": 38,
        "has_played": true,
        "id": 34179392,
        "last_rank": 31995,
        "player_name": "Jack Moeller",
        "rank": 57566,
        "rank_sort": 57772,
        "total": 2347
      },
      {
        "club_badge_src": null,
        "entry": 4504812,
        "entry_name": "Roll_with_it",
        "event_total": 55,
        "has_played": true,
        "id": 34345700,
        "last_rank": 55014,
        "player_name": "John Smith",
        "rank": 57566,
        "rank_sort": 57773,
        "total": 2347
      },
      {
        "club_badge_src": null,
        "entry": 4521963,
        "entry_name": "FC KAMBAL",
        "event_total": 69,
        "has_played": true,
        "id": 34486935,
        "last_rank": 73038,
        "player_name": "Alsaeed Kambal",
        "rank": 57566,
        "rank_sort": 57774,
        "total": 2347
      },
      {
        "club_badge_src": null,
        "entry": 4536277,
        "entry_name": "Paulash FC",
        "event_total": 69,
        "has_played": true,
        "id": 34605162,
        "last_rank": 81646,
        "player_name": "Paul Augoye",
        "rank": 57566,
        "rank_sort": 57775,
        "total": 2347
      },
      {
        "club_badge_src": null,
        "entry": 4586987,
        "entry_name": "15th in the League",
        "event_total": 62,
        "has_played": true,
        "id": 35023187,
        "last_rank": 67063,
        "player_name": "Sorien Pandit",
        "rank": 57566,
        "rank_sort": 57776,
        "total": 2347
      },
      {
        "club_badge_src": "https://fantasy.premierleague.com/gcs/plfpl-production-adobe-approved/plfpl-production/4587972/cb2987fb-43d9-49bf-b9e2-6c242b8aaf77.png",
        "entry": 4587972,
        "entry_name": "Le Master",
        "event_total": 56,
        "has_played": true,
        "id": 35031593,
        "last_rank": 56708,
        "player_name": "Xhefri Beqiri",
        "rank": 57566,
        "rank_sort": 57777,
        "total": 2347
      },
      {
        "club_badge_src": null,
        "entry": 4643060,
        "entry_name": "Eggs",
        "event_total": 63,
        "has_played": true,
        "id": 35515047,
        "last_rank": 69323,
        "player_name": "Nuha Tabassum",
        "rank": 57566,
        "rank_sort": 57778,
        "total": 2347
      },
      {
        "club_badge_src": null,
        "entry": 4673094,
        "entry_name": "Nesjspiel",
        "event_total": 51,
        "has_played": true,
        "id": 35796959,
        "last_rank": 42648,
        "player_name": "Andreas Nesje",
        "rank": 57566,
        "rank_sort": 57779,
        "total": 2347
      },
      {
        "club_badge_src": null,
        "entry": 4674033,
        "entry_name": "Madani",
        "event_total": 63,
        "has_played": true,
        "id": 35804585,
        "last_rank": 68957,
        "player_name": "Faisal Almadani",
        "rank": 57566,
        "rank_sort": 57780,
        "total": 2347
      },
      {
        "club_badge_src": null,
        "entry": 4737845,
        "entry_name": "Great Kanes",
        "event_total": 69,
        "has_played": true,
        "id": 36452865,
        "last_rank": 73038,
        "player_name": "Joel Gonzalez",
        "rank": 57566,
        "rank_sort": 57781,
        "total": 2347
      },
      {
        "club_badge_src": "https://fantasy.premierleague.com/gcs/plfpl-production-adobe-approved/plfpl-production/4795307/ee02d477-e951-48cb-b95e-db031228ebb5.png",
        "entry": 4795307,
        "entry_name": "The Big Gy\u00f6ksi",
        "event_total": 41,
        "has_played": true,
        "id": 36919223,
        "last_rank": 35619,
        "player_name": "Phillip Macey",
        "rank": 57566,
        "rank_sort": 57782,
        "total": 2347
      },
      {
        "club_badge_src": null,
        "entry": 4926588,
        "entry_name": "Zoladinho FC",
        "event_total": 65,
        "has_played": true,
        "id": 38001245,
        "last_rank": 73720,
        "player_name": "Zoladinho Returns",
        "rank": 57566,
        "rank_sort": 57783,
        "total": 2347
      },
      {
        "club_badge_src": null,
        "entry": 4986672,
        "entry_name": "FC Chewy Chewy",
        "event_total": 62,
        "has_played": true,
        "id": 38497328,
        "last_rank": 67422,
        "player_name": "Chew Yi",
        "rank": 57566,
        "rank_sort": 57784,
        "total": 2347
      },
      {
        "club_badge_src": null,
        "entry": 4998574,
        "entry_name": "SWIFTIE FC",
        "event_total": 53,
        "has_played": true,
        "id": 38596586,
        "last_rank": 51403,
        "player_name": "Nathalie Toft",
        "rank": 57566,
        "rank_sort": 57785,
        "total": 2347
      },
      {
        "club_badge_src": "https://fantasy.premierleague.com/gcs/plfpl-production-adobe-approved/plfpl-production/5011585/c37673a2-af94-4ae1-abd0-448d54703054.png",
        "entry": 5011585,
        "entry_name": "Lil Uzi Wirtz",
        "event_total": 49,
        "has_played": true,
        "id": 38700405,
        "last_rank": 39874,
        "player_name": "Joshua Tucker",
        "rank": 57566,
        "rank_sort": 57786,
        "total": 2347
      },
      {
        "club_badge_src": "https://fantasy.premierleague.com/gcs/plfpl-production-adobe-approved/plfpl-production/5021819/11d11566-d1de-4465-b156-5cc78712c459.png",
        "entry": 5021819,
        "entry_name": "Gravy chip",
        "event_total": 63,
        "has_played": true,
        "id": 38783239,
        "last_rank": 69323,
        "player_name": "Stewart Campbell",
        "rank": 57566,
        "rank_sort": 57787,
        "total": 2347
      },
      {
        "club_badge_src": null,
        "entry": 5082554,
        "entry_name": "ZiNoU",
        "event_total": 66,
        "has_played": true,
        "id": 39281839,
        "last_rank": 75139,
        "player_name": "Zino Bouguern",
        "rank": 57566,
        "rank_sort": 57788,
        "total": 2347
      },
      {
        "club_badge_src": null,
        "entry": 5165742,
        "entry_name": "Bornaux to be wild",
        "event_total": 52,
        "has_played": true,
        "id": 39977006,
        "last_rank": 50468,
        "player_name": "James Crawfurd-Porter",
        "rank": 57566,
        "rank_sort": 57789,
        "total": 2347
      },
      {
        "club_badge_src": null,
        "entry": 5184727,
        "entry_name": "The Biscuit Dunkers",
        "event_total": 59,
        "has_played": true,
        "id": 40134160,
        "last_rank": 61950,
        "player_name": "Animesh Jaiswal",
        "rank": 57566,
        "rank_sort": 57790,
        "total": 2347
      },
      {
        "club_badge_src": null,
        "entry": 5205245,
        "entry_name": "R R",
        "event_total": 45,
        "has_played": true,
        "id": 40314950,
        "last_rank": 40297,
        "player_name": "shak kamal",
        "rank": 57566,
        "rank_sort": 57791,
        "total": 2347
      },
      {
        "club_badge_src": null,
        "entry": 5205600,
        "entry_name": "yanited",
        "event_total": 41,
        "has_played": true,
        "id": 40318045,
        "last_rank": 35166,
        "player_name": "Sam Lloyd",
        "rank": 57566,
        "rank_sort": 57792,
        "total": 2347
      },
      {
        "club_badge_src": null,
        "entry": 5240385,
        "entry_name": "50 SHADES OF MESSI",
        "event_total": 72,
        "has_played": true,
        "id": 40611581,
        "last_rank": 88594,
        "player_name": "Neo Modiba",
        "rank": 57566,
        "rank_sort": 57793,
        "total": 2347
      },
      {
        "club_badge_src": null,
        "entry": 5281700,
        "entry_name": "Livin\u2019 Saliba Loca",
        "event_total": 73,
        "has_played": true,
        "id": 40938747,
        "last_rank": 91466,
        "player_name": "Eren Kanizi",
        "rank": 57566,
        "rank_sort": 57794,
        "total": 2347
      },
      {
        "club_badge_src": null,
        "entry": 5367419,
        "entry_name": "Stevie Gihad",
        "event_total": 57,
        "has_played": true,
        "id": 41699578,
        "last_rank": 58388,
        "player_name": "Charlie Allen",
        "rank": 57566,
        "rank_sort": 57795,
        "total": 2347
      },
      {
        "club_badge_src": null,
        "entry": 5378579,
        "entry_name": "Game of Throw-ins",
        "event_total": 65,
        "has_played": true,
        "id": 41807398,
        "last_rank": 73423,
        "player_name": "Chris Loftus",
        "rank": 57566,
        "rank_sort": 57796,
        "total": 2347
      },
      {
        "club_badge_src": null,
        "entry": 5383247,
        "entry_name": "Defoe not ChatGPT",
        "event_total": 57,
        "has_played": true,
        "id": 41848138,
        "last_rank": 58388,
        "player_name": "Ben Stoneman",
        "rank": 57566,
        "rank_sort": 57797,
        "total": 2347
      },
      {
        "club_badge_src": null,
        "entry": 5433750,
        "entry_name": "chicken chow mainoo",
        "event_total": 56,
        "has_played": true,
        "id": 42268610,
        "last_rank": 56708,
        "player_name": "Chris Matthews",
        "rank": 57566,
        "rank_sort": 57798,
        "total": 2347
      },
      {
        "club_badge_src": "https://fantasy.premierleague.com/gcs/plfpl-production-adobe-approved/plfpl-production/5447984/06b7b18c-c725-4100-b02e-2e0188756817.png",
        "entry": 5447984,
        "entry_name": "FPL All Stars",
        "event_total": 63,
        "has_played": true,
        "id": 42391134,
        "last_rank": 68957,
        "player_name": "Greg Peters",
        "rank": 57566,
        "rank_sort": 57799,
        "total": 2347
      },
      {
        "club_badge_src": null,
        "entry": 5487824,
        "entry_name": "Luffy Returns",
        "event_total": 60,
        "has_played": true,
        "id": 42738044,
        "last_rank": 63390,
        "player_name": "Gavin C",
        "rank": 57566,
        "rank_sort": 57800,
        "total": 2347
      }
    ]
  }
}