{
  "last_updated_data": "2026-05-24T23:28:17Z",
  "league": {
    "admin_entry": null,
    "closed": false,
    "code_privacy": "p",
    "created": "2025-07-20T23:14:33.933835Z",
    "cup_league": 2815434,
    "has_cup": true,
    "id": 314,
    "league_type": "s",
    "max_entries": null,
    "name": "Overall",
    "rank": null,
    "scoring": "c",
    "start_event": 1
  },
  "new_entries": {
    "has_next": false,
    "page": 1,
    "results": []
  },
  "standings": {
    "has_next": true,
    "page": 796,
    "results": [
      {
        "club_badge_src": null,
        "entry": 8711324,
        "entry_name": "Greijnders",
        "event_total": 71,
        "has_played": true,
        "id": 72688904,
        "last_rank": 61315,
        "player_name": "Tim Olenowski",
        "rank": 39718,
        "rank_sort": 39751,
        "total": 2359
      },
      {
        "club_badge_src": null,
        "entry": 12286,
        "entry_name": "Smashed Potatoes",
        "event_total": 55,
        "has_played": true,
        "id": 73356,
        "last_rank": 37435,
        "player_name": "Gareth Doherty",
        "rank": 39752,
        "rank_sort": 39752,
        "total": 2359
      },
      {
        "club_badge_src": null,
        "entry": 41074,
        "entry_name": "ChelseaFC1905",
        "event_total": 71,
        "has_played": true,
        "id": 263242,
        "last_rank": 61315,
        "player_name": "Carlos Segovia Santacruz",
        "rank": 39752,
        "rank_sort": 39753,
        "total": 2359
      },
      {
        "club_badge_src": null,
        "entry": 79714,
        "entry_name": "Olimpia on fire",
        "event_total": 60,
        "has_played": true,
        "id": 518532,
        "last_rank": 43742,
        "player_name": "Bartosz Sk\u00f3rski",
        "rank": 39752,
        "rank_sort": 39754,
        "total": 2359
      },
      {
        "club_badge_src": null,
        "entry": 90661,
        "entry_name": "Flamin hot Chidos",
        "event_total": 61,
        "has_played": true,
        "id": 591958,
        "last_rank": 45182,
        "player_name": "Jon Bolin",
        "rank": 39752,
        "rank_sort": 39755,
        "total": 2359
      },
      {
        "club_badge_src": "https://fantasy.premierleague.com/gcs/plfpl-production-adobe-approved/plfpl-production/154613/27b21265-c166-4089-9d75-3bb2af56082c.png",
        "entry": 154613,
        "entry_name": "Konnerud Raijders",
        "event_total": 66,
        "has_played": true,
        "id": 1015759,
        "last_rank": 46547,
        "player_name": "Anders Wam Bjerkeseth",
        "rank": 39752,
        "rank_sort": 39756,
        "total": 2359
      },
      {
        "club_badge_src": "https://fantasy.premierleague.com/gcs/plfpl-production-adobe-approved/plfpl-production/193450/0d152d0e-5b6f-4a48-a558-4f54d71ca097.png",
        "entry": 193450,
        "entry_name": "SISI",
        "event_total": 53,
        "has_played": true,
        "id": 1282227,
        "last_rank": 34969,
        "player_name": "Em\u012bls Birka",
        "rank": 39752,
        "rank_sort": 39757,
        "total": 2359
      },
      {
        "club_badge_src": null,
        "entry": 208828,
        "entry_name": "Goldenidis Team",
        "event_total": 87,
        "has_played": true,
        "id": 1388599,
        "last_rank": 95640,
        "player_name": "Panagiotis Chrisochoidis",
        "rank": 39752,
        "rank_sort": 39758,
        "total": 2359
      },
      {
        "club_badge_src": null,
        "entry": 290464,
        "entry_name": "Saka My Luck",
        "event_total": 65,
        "has_played": true,
        "id": 1936861,
        "last_rank": 45182,
        "player_name": "John Hayrat",
        "rank": 39752,
        "rank_sort": 39759,
        "total": 2359
      },
      {
        "club_badge_src": null,
        "entry": 384646,
        "entry_name": "THEFINALBOSS",
        "event_total": 45,
        "has_played": true,
        "id": 2579922,
        "last_rank": 26656,
        "player_name": "THE FINALBOSS",
        "rank": 39752,
        "rank_sort": 39760,
        "total": 2359
      },
      {
        "club_badge_src": null,
        "entry": 393343,
        "entry_name": "Baildon Rovers",
        "event_total": 43,
        "has_played": true,
        "id": 2638139,
        "last_rank": 25002,
        "player_name": "James Hall",
        "rank": 39752,
        "rank_sort": 39761,
        "total": 2359
      },
      {
        "club_badge_src": "https://fantasy.premierleague.com/gcs/plfpl-production-adobe-approved/plfpl-production/399326/a8947ddd-51a1-46e2-acc6-ea41413bb8db.png",
        "entry": 399326,
        "entry_name": "Declan Ritz Cracker",
        "event_total": 60,
        "has_played": true,
        "id": 2677736,
        "last_rank": 43849,
        "player_name": "Ethan de Foubert",
        "rank": 39752,
        "rank_sort": 39762,
        "total": 2359
      },
      {
        "club_badge_src": null,
        "entry": 431619,
        "entry_name": "The Brain Supreme",
        "event_total": 58,
        "has_played": true,
        "id": 2894745,
        "last_rank": 41324,
        "player_name": "Mark Brain",
        "rank": 39752,
        "rank_sort": 39763,
        "total": 2359
      },
      {
        "club_badge_src": "https://fantasy.premierleague.com/gcs/plfpl-production-adobe-approved/plfpl-production/465755/a9f069b9-8dc6-4c43-aace-be7876f24912.png",
        "entry": 465755,
        "entry_name": "Tommo's XI",
        "event_total": 53,
        "has_played": true,
        "id": 3124720,
        "last_rank": 35166,
        "player_name": "Thomas Banks",
        "rank": 39752,
        "rank_sort": 39764,
        "total": 2359
      },
      {
        "club_badge_src": null,
        "entry": 481730,
        "entry_name": "Fc kekke",
        "event_total": 36,
        "has_played": true,
        "id": 3234023,
        "last_rank": 19544,
        "player_name": "Shahin Nourozian",
        "rank": 39752,
        "rank_sort": 39765,
        "total": 2359
      },
      {
        "club_badge_src": null,
        "entry": 545869,
        "entry_name": "mantasfc",
        "event_total": 50,
        "has_played": true,
        "id": 3673709,
        "last_rank": 31556,
        "player_name": "Bernardo Silva",
        "rank": 39752,
        "rank_sort": 39766,
        "total": 2359
      },
      {
        "club_badge_src": null,
        "entry": 583250,
        "entry_name": "North Bank FC",
        "event_total": 50,
        "has_played": true,
        "id": 3925108,
        "last_rank": 31747,
        "player_name": "Tor Harald Ihme",
        "rank": 39752,
        "rank_sort": 39767,
        "total": 2359
      },
      {
        "club_badge_src": null,
        "entry": 669411,
        "entry_name": "Tuchel for School 2",
        "event_total": 55,
        "has_played": true,
        "id": 4527212,
        "last_rank": 37435,
        "player_name": "jimmy ingman",
        "rank": 39752,
        "rank_sort": 39768,
        "total": 2359
      },
      {
        "club_badge_src": null,
        "entry": 700163,
        "entry_name": "Change Name FC",
        "event_total": 79,
        "has_played": true,
        "id": 4743482,
        "last_rank": 76947,
        "player_name": "Tao Ong",
        "rank": 39752,
        "rank_sort": 39769,
        "total": 2359
      },
      {
        "club_badge_src": "https://fantasy.premierleague.com/gcs/plfpl-production-adobe-approved/plfpl-production/914434/cb14419e-d900-413b-933e-09fc1b54e558.png",
        "entry": 914434,
        "entry_name": "Make-A-Wish FC",
        "event_total": 65,
        "has_played": true,
        "id": 6287908,
        "last_rank": 51112,
        "player_name": "Clary Walker",
        "rank": 39752,
        "rank_sort": 39770,
        "total": 2359
      },
      {
        "club_badge_src": "https://fantasy.premierleague.com/gcs/plfpl-production-adobe-approved/plfpl-production/917898/b35bb7a0-7240-4fa6-a417-cc3294a3f023.png",
        "entry": 917898,
        "entry_name": "RyRy",
        "event_total": 58,
        "has_played": true,
        "id": 6312173,
        "last_rank": 41324,
        "player_name": "Ryan Sutherland",
        "rank": 39752,
        "rank_sort": 39771,
        "total": 2359
      },
      {
        "club_badge_src": null,
        "entry": 1123971,
        "entry_name": "JAV 11",
        "event_total": 47,
        "has_played": true,
        "id": 7789134,
        "last_rank": 28726,
        "player_name": "Javed Tariq",
        "rank": 39752,
        "rank_sort": 39772,
        "total": 2359
      },
      {
        "club_badge_src": null,
        "entry": 1173318,
        "entry_name": "BallyFinn\u2b50\u2b50\u2b50\u2b50\u2b50",
        "event_total": 60,
        "has_played": true,
        "id": 8139937,
        "last_rank": 43849,
        "player_name": "martin kane",
        "rank": 39752,
        "rank_sort": 39773,
        "total": 2359
      },
      {
        "club_badge_src": null,
        "entry": 1200396,
        "entry_name": "Mougiwara",
        "event_total": 53,
        "has_played": true,
        "id": 8330124,
        "last_rank": 35034,
        "player_name": "davide mattia",
        "rank": 39752,
        "rank_sort": 39774,
        "total": 2359
      },
      {
        "club_badge_src": null,
        "entry": 1251673,
        "entry_name": "Damses drenge",
        "event_total": 37,
        "has_played": true,
        "id": 8693310,
        "last_rank": 20179,
        "player_name": "Rasmus Vinding",
        "rank": 39752,
        "rank_sort": 39775,
        "total": 2359
      },
      {
        "club_badge_src": null,
        "entry": 1300830,
        "entry_name": "Kinder Mbeumo",
        "event_total": 56,
        "has_played": true,
        "id": 9040712,
        "last_rank": 38774,
        "player_name": "Gee Kan",
        "rank": 39752,
        "rank_sort": 39776,
        "total": 2359
      },
      {
        "club_badge_src": null,
        "entry": 1327370,
        "entry_name": "I\u2019m a Baleba",
        "event_total": 68,
        "has_played": true,
        "id": 9226463,
        "last_rank": 56069,
        "player_name": "Kieran Hurley",
        "rank": 39752,
        "rank_sort": 39777,
        "total": 2359
      },
      {
        "club_badge_src": null,
        "entry": 1398754,
        "entry_name": "XG fc",
        "event_total": 55,
        "has_played": true,
        "id": 9731394,
        "last_rank": 37435,
        "player_name": "Xavier Groenewaldt",
        "rank": 39752,
        "rank_sort": 39778,
        "total": 2359
      },
      {
        "club_badge_src": null,
        "entry": 1412982,
        "entry_name": "Mexican Mags",
        "event_total": 52,
        "has_played": true,
        "id": 9833065,
        "last_rank": 33869,
        "player_name": "Alex Gardner",
        "rank": 39752,
        "rank_sort": 39779,
        "total": 2359
      },
      {
        "club_badge_src": "https://fantasy.premierleague.com/gcs/plfpl-production-adobe-approved/plfpl-production/1496567/e5b179b9-3599-401b-9906-0ccd971acd86.png",
        "entry": 1496567,
        "entry_name": "Mulenge FC",
        "event_total": 37,
        "has_played": true,
        "id": 10436560,
        "last_rank": 17327,
        "player_name": "Feelyk costa",
        "rank": 39752,
        "rank_sort": 39780,
        "total": 2359
      },
      {
        "club_badge_src": "https://fantasy.premierleague.com/gcs/plfpl-production-adobe-approved/plfpl-production/1507303/3b579356-64d4-4eab-b537-5bedbdf7b04d.png",
        "entry": 1507303,
        "entry_name": "Tallisdinho",
        "event_total": 54,
        "has_played": true,
        "id": 10512514,
        "last_rank": 36200,
        "player_name": "Deacon Tallis",
        "rank": 39752,
        "rank_sort": 39781,
        "total": 2359
      },
      {
        "club_badge_src": null,
        "entry": 1595206,
        "entry_name": "Man United 4 Evra",
        "event_total": 49,
        "has_played": true,
        "id": 11158034,
        "last_rank": 30727,
        "player_name": "Bong Yoon",
        "rank": 39752,
        "rank_sort": 39782,
        "total": 2359
      },
      {
        "club_badge_src": "https://fantasy.premierleague.com/gcs/plfpl-production-adobe-approved/plfpl-production/1713019/cf4be894-1f40-4458-98c3-c9d7538e0c4d.png",
        "entry": 1713019,
        "entry_name": "Kinder Mbeumo",
        "event_total": 70,
        "has_played": true,
        "id": 12003096,
        "last_rank": 59496,
        "player_name": "Treon Kabisi",
        "rank": 39752,
        "rank_sort": 39783,
        "total": 2359
      },
      {
        "club_badge_src": null,
        "entry": 1829347,
        "entry_name": "nandomandos",
        "event_total": 80,
        "has_played": true,
        "id": 12867499,
        "last_rank": 78997,
        "player_name": "Leon Kyriacou",
        "rank": 39752,
        "rank_sort": 39784,
        "total": 2359
      },
      {
        "club_badge_src": null,
        "entry": 2005088,
        "entry_name": "The Rams",
        "event_total": 65,
        "has_played": true,
        "id": 14176067,
        "last_rank": 51220,
        "player_name": "Nathan Whitehead",
        "rank": 39752,
        "rank_sort": 39785,
        "total": 2359
      },
      {
        "club_badge_src": null,
        "entry": 2082070,
        "entry_name": "Mackems are back",
        "event_total": 63,
        "has_played": true,
        "id": 14767582,
        "last_rank": 48119,
        "player_name": "john robson",
        "rank": 39752,
        "rank_sort": 39786,
        "total": 2359
      },
      {
        "club_badge_src": null,
        "entry": 2206323,
        "entry_name": "Wirtz Team ever",
        "event_total": 74,
        "has_played": true,
        "id": 15707024,
        "last_rank": 66738,
        "player_name": "Allan MT",
        "rank": 39752,
        "rank_sort": 39787,
        "total": 2359
      },
      {
        "club_badge_src": null,
        "entry": 2553259,
        "entry_name": "The Kop",
        "event_total": 57,
        "has_played": true,
        "id": 18307212,
        "last_rank": 40036,
        "player_name": "ziad shallouf",
        "rank": 39752,
        "rank_sort": 39788,
        "total": 2359
      },
      {
        "club_badge_src": null,
        "entry": 2624419,
        "entry_name": "Set and Regret",
        "event_total": 56,
        "has_played": true,
        "id": 18858523,
        "last_rank": 38774,
        "player_name": "Nick G",
        "rank": 39752,
        "rank_sort": 39789,
        "total": 2359
      },
      {
        "club_badge_src": "https://fantasy.premierleague.com/gcs/plfpl-production-adobe-approved/plfpl-production/2659285/b1f67086-dfa0-49f7-8436-b4ae52730c9f.png",
        "entry": 2659285,
        "entry_name": "Reececentrum",
        "event_total": 62,
        "has_played": true,
        "id": 19116024,
        "last_rank": 46591,
        "player_name": "Max Nilsson",
        "rank": 39752,
        "rank_sort": 39790,
        "total": 2359
      },
      {
        "club_badge_src": null,
        "entry": 2751543,
        "entry_name": "JesusIsARed",
        "event_total": 45,
        "has_played": true,
        "id": 19997315,
        "last_rank": 26827,
        "player_name": "David Hobbs",
        "rank": 39752,
        "rank_sort": 39791,
        "total": 2359
      },
      {
        "club_badge_src": null,
        "entry": 2934458,
        "entry_name": "Better Call Mikel",
        "event_total": 58,
        "has_played": true,
        "id": 21531746,
        "last_rank": 41324,
        "player_name": "Max Sheff",
        "rank": 39752,
        "rank_sort": 39792,
        "total": 2359
      },
      {
        "club_badge_src": null,
        "entry": 3023199,
        "entry_name": "better djed than red",
        "event_total": 39,
        "has_played": true,
        "id": 22243853,
        "last_rank": 21775,
        "player_name": "Gary Sanders",
        "rank": 39752,
        "rank_sort": 39793,
        "total": 2359
      },
      {
        "club_badge_src": null,
        "entry": 3134846,
        "entry_name": "Qubic torture",
        "event_total": 55,
        "has_played": true,
        "id": 23139962,
        "last_rank": 37589,
        "player_name": "Michal Pavolka",
        "rank": 39752,
        "rank_sort": 39794,
        "total": 2359
      },
      {
        "club_badge_src": null,
        "entry": 3328315,
        "entry_name": "ManSTRESSter United",
        "event_total": 55,
        "has_played": true,
        "id": 24676459,
        "last_rank": 32688,
        "player_name": "George M001",
        "rank": 39752,
        "rank_sort": 39795,
        "total": 2359
      },
      {
        "club_badge_src": null,
        "entry": 3337658,
        "entry_name": "Zubi-Doobi-Doo",
        "event_total": 75,
        "has_played": true,
        "id": 24753851,
        "last_rank": 68957,
        "player_name": "Eliza Reece",
        "rank": 39752,
        "rank_sort": 39796,
        "total": 2359
      },
      {
        "club_badge_src": null,
        "entry": 3493124,
        "entry_name": "Gyokamole",
        "event_total": 69,
        "has_played": true,
        "id": 25981574,
        "last_rank": 57776,
        "player_name": "Charlie Belcher",
        "rank": 39752,
        "rank_sort": 39797,
        "total": 2359
      },
      {
        "club_badge_src": null,
        "entry": 3635152,
        "entry_name": "\u2660\ufe0e\u2665\ufe0eG\u2022J\u030c\u00d8\u0198\u20ac\u0158\u2022ES\u25c6\u2663\ufe0e",
        "event_total": 46,
        "has_played": true,
        "id": 27089796,
        "last_rank": 27770,
        "player_name": "Luka Srdarevic",
        "rank": 39752,
        "rank_sort": 39798,
        "total": 2359
      },
      {
        "club_badge_src": null,
        "entry": 3790880,
        "entry_name": "e6y_6apaHa",
        "event_total": 81,
        "has_played": true,
        "id": 28325496,
        "last_rank": 81211,
        "player_name": "Ivan Kim",
        "rank": 39752,
        "rank_sort": 39799,
        "total": 2359
      },
      {
        "club_badge_src": null,
        "entry": 3818300,
        "entry_name": "Wakil Sekolah",
        "event_total": 51,
        "has_played": true,
        "id": 28555633,
        "last_rank": 32879,
        "player_name": "Haris Adib",
        "rank": 39752,
        "rank_sort": 39800,
        "total": 2359
      }
    ]
  }
}