{
  "last_updated_data": "2026-05-24T23:28:17Z",
  "league": {
    "admin_entry": null,
    "closed": false,
    "code_privacy": "p",
    "created": "2025-07-20T23:14:33.933835Z",
    "cup_league": 2815434,
    "has_cup": true,
    "id": 314,
    "league_type": "s",
    "max_entries": null,
    "name": "Overall",
    "rank": null,
    "scoring": "c",
    "start_event": 1
  },
  "new_entries": {
    "has_next": false,
    "page": 1,
    "results": []
  },
  "standings": {
    "has_next": true,
    "page": 934,
    "results": [
      {
        "club_badge_src": null,
        "entry": 4471249,
        "entry_name": "VHN",
        "event_total": 46,
        "has_played": true,
        "id": 34072210,
        "last_rank": 32879,
        "player_name": "Anton Guo",
        "rank": 46464,
        "rank_sort": 46651,
        "total": 2354
      },
      {
        "club_badge_src": null,
        "entry": 4573772,
        "entry_name": "Leeds by Example",
        "event_total": 68,
        "has_played": true,
        "id": 34909054,
        "last_rank": 64943,
        "player_name": "G Milli",
        "rank": 46464,
        "rank_sort": 46652,
        "total": 2354
      },
      {
        "club_badge_src": null,
        "entry": 4613534,
        "entry_name": "Blauwvinger",
        "event_total": 41,
        "has_played": true,
        "id": 35257078,
        "last_rank": 27770,
        "player_name": "Thomas Bonhof",
        "rank": 46464,
        "rank_sort": 46653,
        "total": 2354
      },
      {
        "club_badge_src": null,
        "entry": 4680997,
        "entry_name": "Saifypants001",
        "event_total": 56,
        "has_played": true,
        "id": 35868313,
        "last_rank": 45416,
        "player_name": "Saify Pants",
        "rank": 46464,
        "rank_sort": 46654,
        "total": 2354
      },
      {
        "club_badge_src": "https://fantasy.premierleague.com/gcs/plfpl-production-adobe-approved/plfpl-production/4731041/4874bdd8-be76-41b7-83b0-ed1ec593798f.png",
        "entry": 4731041,
        "entry_name": "Champignones",
        "event_total": 61,
        "has_played": true,
        "id": 36391624,
        "last_rank": 53023,
        "player_name": "Alasdair Champion",
        "rank": 46464,
        "rank_sort": 46655,
        "total": 2354
      },
      {
        "club_badge_src": null,
        "entry": 4764461,
        "entry_name": "The Fen\u00f4meno",
        "event_total": 57,
        "has_played": true,
        "id": 36668436,
        "last_rank": 46839,
        "player_name": "Christos Vayonitis",
        "rank": 46464,
        "rank_sort": 46656,
        "total": 2354
      },
      {
        "club_badge_src": null,
        "entry": 4819673,
        "entry_name": "Dream Team",
        "event_total": 52,
        "has_played": true,
        "id": 37114347,
        "last_rank": 39816,
        "player_name": "Didier How Yin Fat",
        "rank": 46464,
        "rank_sort": 46657,
        "total": 2354
      },
      {
        "club_badge_src": null,
        "entry": 4847486,
        "entry_name": "Minteh Toothpaste",
        "event_total": 45,
        "has_played": true,
        "id": 37345270,
        "last_rank": 31747,
        "player_name": "Juben S",
        "rank": 46464,
        "rank_sort": 46658,
        "total": 2354
      },
      {
        "club_badge_src": null,
        "entry": 4887229,
        "entry_name": "A Cunha Mathata",
        "event_total": 87,
        "has_played": true,
        "id": 37679415,
        "last_rank": 108959,
        "player_name": "Liam Walker",
        "rank": 46464,
        "rank_sort": 46659,
        "total": 2354
      },
      {
        "club_badge_src": null,
        "entry": 4897677,
        "entry_name": "KyllingP\u00e5Badebold FC",
        "event_total": 66,
        "has_played": true,
        "id": 37765043,
        "last_rank": 61606,
        "player_name": "Malte Tofte-Hansen",
        "rank": 46464,
        "rank_sort": 46660,
        "total": 2354
      },
      {
        "club_badge_src": null,
        "entry": 4983245,
        "entry_name": "Apbergetultras",
        "event_total": 37,
        "has_played": true,
        "id": 38469704,
        "last_rank": 24039,
        "player_name": "Eric Blom",
        "rank": 46464,
        "rank_sort": 46661,
        "total": 2354
      },
      {
        "club_badge_src": "https://fantasy.premierleague.com/gcs/plfpl-production-adobe-approved/plfpl-production/5051167/7fabde79-e609-460a-bad5-f536b068e485.png",
        "entry": 5051167,
        "entry_name": "Balooon",
        "event_total": 68,
        "has_played": true,
        "id": 39026788,
        "last_rank": 64943,
        "player_name": "Dainis Ulans",
        "rank": 46464,
        "rank_sort": 46662,
        "total": 2354
      },
      {
        "club_badge_src": null,
        "entry": 5079852,
        "entry_name": "chol kendrick",
        "event_total": 66,
        "has_played": true,
        "id": 39260677,
        "last_rank": 61411,
        "player_name": "Bor Town FC",
        "rank": 46464,
        "rank_sort": 46663,
        "total": 2354
      },
      {
        "club_badge_src": null,
        "entry": 5113650,
        "entry_name": "The Champ is Here \ufffd",
        "event_total": 45,
        "has_played": true,
        "id": 39533725,
        "last_rank": 31620,
        "player_name": "\u062c\u064a\u0628 \u0627\u0644\u0635\u062f\u0627\u0631\u0629 \u0648\u0644\u0643 --",
        "rank": 46464,
        "rank_sort": 46664,
        "total": 2354
      },
      {
        "club_badge_src": null,
        "entry": 5261686,
        "entry_name": "Wibbles Wobble",
        "event_total": 57,
        "has_played": true,
        "id": 40780533,
        "last_rank": 46660,
        "player_name": "Paddy Savage",
        "rank": 46464,
        "rank_sort": 46665,
        "total": 2354
      },
      {
        "club_badge_src": null,
        "entry": 5370741,
        "entry_name": "Of Rice and Men",
        "event_total": 57,
        "has_played": true,
        "id": 41731792,
        "last_rank": 41162,
        "player_name": "Morgan Durbridge",
        "rank": 46464,
        "rank_sort": 46666,
        "total": 2354
      },
      {
        "club_badge_src": null,
        "entry": 5465219,
        "entry_name": "manutd",
        "event_total": 55,
        "has_played": true,
        "id": 42534461,
        "last_rank": 44048,
        "player_name": "Rashed alrashed",
        "rank": 46464,
        "rank_sort": 46667,
        "total": 2354
      },
      {
        "club_badge_src": null,
        "entry": 5530740,
        "entry_name": "Villainous",
        "event_total": 54,
        "has_played": true,
        "id": 43144854,
        "last_rank": 42648,
        "player_name": "Simon Mallinson",
        "rank": 46464,
        "rank_sort": 46668,
        "total": 2354
      },
      {
        "club_badge_src": null,
        "entry": 5552277,
        "entry_name": "Dinfarsa",
        "event_total": 47,
        "has_played": true,
        "id": 43335613,
        "last_rank": 34051,
        "player_name": "Nali Ismail",
        "rank": 46464,
        "rank_sort": 46669,
        "total": 2354
      },
      {
        "club_badge_src": null,
        "entry": 5556210,
        "entry_name": "NDoye Boly Wood",
        "event_total": 54,
        "has_played": true,
        "id": 43370431,
        "last_rank": 42506,
        "player_name": "Andy Brown",
        "rank": 46464,
        "rank_sort": 46670,
        "total": 2354
      },
      {
        "club_badge_src": null,
        "entry": 5632126,
        "entry_name": "heia bul",
        "event_total": 60,
        "has_played": true,
        "id": 44035693,
        "last_rank": 51220,
        "player_name": "Eivind Alsaker",
        "rank": 46464,
        "rank_sort": 46671,
        "total": 2354
      },
      {
        "club_badge_src": null,
        "entry": 5683899,
        "entry_name": "Sesko Dancing",
        "event_total": 79,
        "has_played": true,
        "id": 44490259,
        "last_rank": 88348,
        "player_name": "Pj Harley",
        "rank": 46464,
        "rank_sort": 46672,
        "total": 2354
      },
      {
        "club_badge_src": null,
        "entry": 5734070,
        "entry_name": "The Djedi Knights",
        "event_total": 42,
        "has_played": true,
        "id": 44923101,
        "last_rank": 28726,
        "player_name": "Steve Bainbridge",
        "rank": 46464,
        "rank_sort": 46673,
        "total": 2354
      },
      {
        "club_badge_src": null,
        "entry": 5781763,
        "entry_name": "Lip & Sip",
        "event_total": 61,
        "has_played": true,
        "id": 45338667,
        "last_rank": 52738,
        "player_name": "Jesper Koutelo",
        "rank": 46464,
        "rank_sort": 46674,
        "total": 2354
      },
      {
        "club_badge_src": null,
        "entry": 5783673,
        "entry_name": "Calfiornication",
        "event_total": 32,
        "has_played": true,
        "id": 45354596,
        "last_rank": 20280,
        "player_name": "Matthew Sealine",
        "rank": 46464,
        "rank_sort": 46675,
        "total": 2354
      },
      {
        "club_badge_src": null,
        "entry": 5787008,
        "entry_name": "Stranger MingS",
        "event_total": 69,
        "has_played": true,
        "id": 45383143,
        "last_rank": 66848,
        "player_name": "Dee Keshwara",
        "rank": 46464,
        "rank_sort": 46676,
        "total": 2354
      },
      {
        "club_badge_src": null,
        "entry": 5796735,
        "entry_name": "Farrenderry FC",
        "event_total": 63,
        "has_played": true,
        "id": 45470556,
        "last_rank": 56369,
        "player_name": "Michael Kelly",
        "rank": 46464,
        "rank_sort": 46677,
        "total": 2354
      },
      {
        "club_badge_src": null,
        "entry": 6078196,
        "entry_name": "Supafly Sanj",
        "event_total": 67,
        "has_played": true,
        "id": 47986384,
        "last_rank": 63201,
        "player_name": "Sanjiv Rajan",
        "rank": 46464,
        "rank_sort": 46678,
        "total": 2354
      },
      {
        "club_badge_src": "https://fantasy.premierleague.com/gcs/plfpl-production-adobe-approved/plfpl-production/6087609/b206a284-69ff-4843-b0e5-bc163e46479b.png",
        "entry": 6087609,
        "entry_name": "666e\u0161ko",
        "event_total": 91,
        "has_played": true,
        "id": 48069087,
        "last_rank": 120103,
        "player_name": "Martin Petkovski",
        "rank": 46464,
        "rank_sort": 46679,
        "total": 2354
      },
      {
        "club_badge_src": null,
        "entry": 6112769,
        "entry_name": "Pemalang Flame",
        "event_total": 65,
        "has_played": true,
        "id": 48287529,
        "last_rank": 59813,
        "player_name": "Aditya Nugroho",
        "rank": 46464,
        "rank_sort": 46680,
        "total": 2354
      },
      {
        "club_badge_src": null,
        "entry": 6120392,
        "entry_name": "Knicks",
        "event_total": 59,
        "has_played": true,
        "id": 48353604,
        "last_rank": 49691,
        "player_name": "Emmanuel H",
        "rank": 46464,
        "rank_sort": 46681,
        "total": 2354
      },
      {
        "club_badge_src": "https://fantasy.premierleague.com/gcs/plfpl-production-adobe-approved/plfpl-production/6215939/52efe52a-3ed6-4c35-8001-64a79af3a89b.png",
        "entry": 6215939,
        "entry_name": "poompr",
        "event_total": 54,
        "has_played": true,
        "id": 49181762,
        "last_rank": 42506,
        "player_name": "osama alzhrani",
        "rank": 46464,
        "rank_sort": 46682,
        "total": 2354
      },
      {
        "club_badge_src": null,
        "entry": 6277723,
        "entry_name": "Boys of quadruple",
        "event_total": 53,
        "has_played": true,
        "id": 49715111,
        "last_rank": 41324,
        "player_name": "Shivam Deb",
        "rank": 46464,
        "rank_sort": 46683,
        "total": 2354
      },
      {
        "club_badge_src": null,
        "entry": 6280083,
        "entry_name": "Chippy Chips",
        "event_total": 59,
        "has_played": true,
        "id": 49736810,
        "last_rank": 49691,
        "player_name": "Thomas Chow",
        "rank": 46464,
        "rank_sort": 46684,
        "total": 2354
      },
      {
        "club_badge_src": null,
        "entry": 6285711,
        "entry_name": "The Potagers",
        "event_total": 60,
        "has_played": true,
        "id": 49790902,
        "last_rank": 51403,
        "player_name": "Kate Wyatt",
        "rank": 46464,
        "rank_sort": 46685,
        "total": 2354
      },
      {
        "club_badge_src": null,
        "entry": 6296441,
        "entry_name": "Swamp Donkeys",
        "event_total": 55,
        "has_played": true,
        "id": 49903980,
        "last_rank": 43757,
        "player_name": "Michael O'Donnell Fitzgerald",
        "rank": 46464,
        "rank_sort": 46686,
        "total": 2354
      },
      {
        "club_badge_src": null,
        "entry": 6313031,
        "entry_name": "chrisvulicdestroyer",
        "event_total": 71,
        "has_played": true,
        "id": 50092384,
        "last_rank": 70757,
        "player_name": "Steven Nguyen",
        "rank": 46464,
        "rank_sort": 46687,
        "total": 2354
      },
      {
        "club_badge_src": null,
        "entry": 6345841,
        "entry_name": "S Club Neves",
        "event_total": 67,
        "has_played": true,
        "id": 50441672,
        "last_rank": 63390,
        "player_name": "Emma Williams",
        "rank": 46464,
        "rank_sort": 46688,
        "total": 2354
      },
      {
        "club_badge_src": null,
        "entry": 6360283,
        "entry_name": "Wataru on about",
        "event_total": 54,
        "has_played": true,
        "id": 50569961,
        "last_rank": 42506,
        "player_name": "Rory Macrow",
        "rank": 46464,
        "rank_sort": 46689,
        "total": 2354
      },
      {
        "club_badge_src": "https://fantasy.premierleague.com/gcs/plfpl-production-adobe-approved/plfpl-production/6424877/2531be37-c43b-4104-90e0-5718fb345ca8.png",
        "entry": 6424877,
        "entry_name": "Mickchester Utd",
        "event_total": 66,
        "has_played": true,
        "id": 51140487,
        "last_rank": 61315,
        "player_name": "Michael Martin",
        "rank": 46464,
        "rank_sort": 46690,
        "total": 2354
      },
      {
        "club_badge_src": null,
        "entry": 6429622,
        "entry_name": "aintgotakalou",
        "event_total": 68,
        "has_played": true,
        "id": 51181967,
        "last_rank": 64830,
        "player_name": "Harry Phillips",
        "rank": 46464,
        "rank_sort": 46691,
        "total": 2354
      },
      {
        "club_badge_src": null,
        "entry": 6515008,
        "entry_name": "Baby Reijnders",
        "event_total": 59,
        "has_played": true,
        "id": 51955247,
        "last_rank": 49691,
        "player_name": "Eric Dupree",
        "rank": 46464,
        "rank_sort": 46692,
        "total": 2354
      },
      {
        "club_badge_src": null,
        "entry": 6515260,
        "entry_name": "Labubu",
        "event_total": 61,
        "has_played": true,
        "id": 51957514,
        "last_rank": 53023,
        "player_name": "Ini Oni",
        "rank": 46464,
        "rank_sort": 46693,
        "total": 2354
      },
      {
        "club_badge_src": "https://fantasy.premierleague.com/gcs/plfpl-production-adobe-approved/plfpl-production/6649729/b66e4ec7-6a07-45de-b019-971777d455f0.png",
        "entry": 6649729,
        "entry_name": "The Allfather",
        "event_total": 69,
        "has_played": true,
        "id": 53160075,
        "last_rank": 67063,
        "player_name": "Toheeb Yusuf",
        "rank": 46464,
        "rank_sort": 46694,
        "total": 2354
      },
      {
        "club_badge_src": null,
        "entry": 6727149,
        "entry_name": "Hmmmm!!!!",
        "event_total": 70,
        "has_played": true,
        "id": 53842145,
        "last_rank": 68748,
        "player_name": "Leresh Naidoo",
        "rank": 46464,
        "rank_sort": 46695,
        "total": 2354
      },
      {
        "club_badge_src": null,
        "entry": 6747625,
        "entry_name": "Burds FC",
        "event_total": 42,
        "has_played": true,
        "id": 54017588,
        "last_rank": 28906,
        "player_name": "Justin Burden",
        "rank": 46464,
        "rank_sort": 46696,
        "total": 2354
      },
      {
        "club_badge_src": null,
        "entry": 6770559,
        "entry_name": "1st place taken",
        "event_total": 66,
        "has_played": true,
        "id": 54211393,
        "last_rank": 61950,
        "player_name": "Fouad Abubakar Ibrahim",
        "rank": 46464,
        "rank_sort": 46697,
        "total": 2354
      },
      {
        "club_badge_src": null,
        "entry": 6773688,
        "entry_name": "FPL AI TEAM",
        "event_total": 59,
        "has_played": true,
        "id": 54237474,
        "last_rank": 49880,
        "player_name": "Likem Tsogbe",
        "rank": 46464,
        "rank_sort": 46698,
        "total": 2354
      },
      {
        "club_badge_src": null,
        "entry": 6810410,
        "entry_name": "SvampeBobb FirKant\u00e9",
        "event_total": 54,
        "has_played": true,
        "id": 54542645,
        "last_rank": 42648,
        "player_name": "Christian Rossow",
        "rank": 46464,
        "rank_sort": 46699,
        "total": 2354
      },
      {
        "club_badge_src": null,
        "entry": 6832581,
        "entry_name": "PurpIe Ake",
        "event_total": 62,
        "has_played": true,
        "id": 54730600,
        "last_rank": 54494,
        "player_name": "James Martin",
        "rank": 46464,
        "rank_sort": 46700,
        "total": 2354
      }
    ]
  }
}