{
  "last_updated_data": "2026-05-24T23:28:17Z",
  "league": {
    "admin_entry": null,
    "closed": false,
    "code_privacy": "p",
    "created": "2025-07-20T23:14:33.933835Z",
    "cup_league": 2815434,
    "has_cup": true,
    "id": 314,
    "league_type": "s",
    "max_entries": null,
    "name": "Overall",
    "rank": null,
    "scoring": "c",
    "start_event": 1
  },
  "new_entries": {
    "has_next": false,
    "page": 1,
    "results": []
  },
  "standings": {
    "has_next": true,
    "page": 1437,
    "results": [
      {
        "club_badge_src": null,
        "entry": 1887048,
        "entry_name": "Yorkshire's Finest",
        "event_total": 32,
        "has_played": true,
        "id": 13298767,
        "last_rank": 34051,
        "player_name": "Simon Hawkshaw",
        "rank": 71654,
        "rank_sort": 71801,
        "total": 2339
      },
      {
        "club_badge_src": null,
        "entry": 1888234,
        "entry_name": "UpsideDownHead",
        "event_total": 64,
        "has_played": true,
        "id": 13307417,
        "last_rank": 88594,
        "player_name": "Rob Watkins",
        "rank": 71654,
        "rank_sort": 71802,
        "total": 2339
      },
      {
        "club_badge_src": null,
        "entry": 1916351,
        "entry_name": "Fc Testosteron",
        "event_total": 46,
        "has_played": true,
        "id": 13511799,
        "last_rank": 53023,
        "player_name": "\u0141ukasz Nowicki",
        "rank": 71654,
        "rank_sort": 71803,
        "total": 2339
      },
      {
        "club_badge_src": "https://fantasy.premierleague.com/gcs/plfpl-production-adobe-approved/plfpl-production/1925294/00198a98-5e1f-4abc-b94b-e5254a777e8c.png",
        "entry": 1925294,
        "entry_name": "Shadow XI",
        "event_total": 59,
        "has_played": true,
        "id": 13578032,
        "last_rank": 77258,
        "player_name": "Mohammad Fatajo",
        "rank": 71654,
        "rank_sort": 71804,
        "total": 2339
      },
      {
        "club_badge_src": null,
        "entry": 1943796,
        "entry_name": "Javed's XI",
        "event_total": 68,
        "has_played": true,
        "id": 13711249,
        "last_rank": 98183,
        "player_name": "Javed Ahmed",
        "rank": 71654,
        "rank_sort": 71805,
        "total": 2339
      },
      {
        "club_badge_src": null,
        "entry": 1957771,
        "entry_name": "Ex-OES",
        "event_total": 47,
        "has_played": true,
        "id": 13811325,
        "last_rank": 54667,
        "player_name": "Haja Vajid",
        "rank": 71654,
        "rank_sort": 71806,
        "total": 2339
      },
      {
        "club_badge_src": null,
        "entry": 1990678,
        "entry_name": "maxitis100",
        "event_total": 67,
        "has_played": true,
        "id": 14064189,
        "last_rank": 95890,
        "player_name": "Kyriakos Amerikanoy",
        "rank": 71654,
        "rank_sort": 71807,
        "total": 2339
      },
      {
        "club_badge_src": null,
        "entry": 2051418,
        "entry_name": "Amorim Shot",
        "event_total": 76,
        "has_played": true,
        "id": 14530491,
        "last_rank": 119948,
        "player_name": "Nino Kanathanavanich",
        "rank": 71654,
        "rank_sort": 71808,
        "total": 2339
      },
      {
        "club_badge_src": null,
        "entry": 2093950,
        "entry_name": "Stupid Punts",
        "event_total": 57,
        "has_played": true,
        "id": 14856637,
        "last_rank": 72815,
        "player_name": "Steven Dalton",
        "rank": 71654,
        "rank_sort": 71809,
        "total": 2339
      },
      {
        "club_badge_src": "https://fantasy.premierleague.com/gcs/plfpl-production-adobe-approved/plfpl-production/2108454/735b6b0b-a36f-45ab-9bea-829e86335a4e.png",
        "entry": 2108454,
        "entry_name": "Zac Chili's",
        "event_total": 81,
        "has_played": true,
        "id": 14964238,
        "last_rank": 111203,
        "player_name": "Ahmed Zaki",
        "rank": 71654,
        "rank_sort": 71810,
        "total": 2339
      },
      {
        "club_badge_src": null,
        "entry": 2121616,
        "entry_name": "Green Dragons",
        "event_total": 77,
        "has_played": true,
        "id": 15070960,
        "last_rank": 123422,
        "player_name": "Jim Dinneen",
        "rank": 71654,
        "rank_sort": 71811,
        "total": 2339
      },
      {
        "club_badge_src": "https://fantasy.premierleague.com/gcs/plfpl-production-adobe-approved/plfpl-production/2128410/2d7669d6-838d-4aa6-9347-f576407863d5.png",
        "entry": 2128410,
        "entry_name": "Team Sylhet",
        "event_total": 53,
        "has_played": true,
        "id": 15123633,
        "last_rank": 65163,
        "player_name": "Mydul Haque",
        "rank": 71654,
        "rank_sort": 71812,
        "total": 2339
      },
      {
        "club_badge_src": null,
        "entry": 2128688,
        "entry_name": "Enter Team Name",
        "event_total": 66,
        "has_played": true,
        "id": 15125722,
        "last_rank": 93443,
        "player_name": "Shin L",
        "rank": 71654,
        "rank_sort": 71813,
        "total": 2339
      },
      {
        "club_badge_src": null,
        "entry": 2187263,
        "entry_name": "Francimor FC",
        "event_total": 67,
        "has_played": true,
        "id": 15559952,
        "last_rank": 95640,
        "player_name": "Franti\u0161ek Pavl\u00ed\u010dek",
        "rank": 71654,
        "rank_sort": 71814,
        "total": 2339
      },
      {
        "club_badge_src": null,
        "entry": 2220424,
        "entry_name": "Shoulders of Giants",
        "event_total": 52,
        "has_played": true,
        "id": 15814427,
        "last_rank": 63117,
        "player_name": "Steph Smith",
        "rank": 71654,
        "rank_sort": 71815,
        "total": 2339
      },
      {
        "club_badge_src": null,
        "entry": 2248635,
        "entry_name": "\u2713 Mostafa",
        "event_total": 76,
        "has_played": true,
        "id": 16022906,
        "last_rank": 120941,
        "player_name": "mostafa mohamed",
        "rank": 71654,
        "rank_sort": 71816,
        "total": 2339
      },
      {
        "club_badge_src": null,
        "entry": 2275104,
        "entry_name": "Psykuut",
        "event_total": 53,
        "has_played": true,
        "id": 16223217,
        "last_rank": 64830,
        "player_name": "Geert De Bleser",
        "rank": 71654,
        "rank_sort": 71817,
        "total": 2339
      },
      {
        "club_badge_src": null,
        "entry": 2280981,
        "entry_name": "That\u2019s Amorim",
        "event_total": 57,
        "has_played": true,
        "id": 16266051,
        "last_rank": 72815,
        "player_name": "David Askew",
        "rank": 71654,
        "rank_sort": 71818,
        "total": 2339
      },
      {
        "club_badge_src": null,
        "entry": 2297861,
        "entry_name": "Change Name",
        "event_total": 68,
        "has_played": true,
        "id": 16388899,
        "last_rank": 98183,
        "player_name": "Logan Capeling",
        "rank": 71654,
        "rank_sort": 71819,
        "total": 2339
      },
      {
        "club_badge_src": null,
        "entry": 2350213,
        "entry_name": "alswarij",
        "event_total": 68,
        "has_played": true,
        "id": 16769463,
        "last_rank": 98183,
        "player_name": "Bader Alswarij",
        "rank": 71654,
        "rank_sort": 71820,
        "total": 2339
      },
      {
        "club_badge_src": null,
        "entry": 2430523,
        "entry_name": "Bearwood Baggies",
        "event_total": 51,
        "has_played": true,
        "id": 17379723,
        "last_rank": 61606,
        "player_name": "conor poole",
        "rank": 71654,
        "rank_sort": 71821,
        "total": 2339
      },
      {
        "club_badge_src": null,
        "entry": 2439826,
        "entry_name": "Average Joe's",
        "event_total": 73,
        "has_played": true,
        "id": 17448554,
        "last_rank": 111405,
        "player_name": "Joe Gibbins",
        "rank": 71654,
        "rank_sort": 71822,
        "total": 2339
      },
      {
        "club_badge_src": null,
        "entry": 2441248,
        "entry_name": "Brutus, Eto'o",
        "event_total": 55,
        "has_played": true,
        "id": 17459034,
        "last_rank": 68748,
        "player_name": "Ishaan Kapoor",
        "rank": 71654,
        "rank_sort": 71823,
        "total": 2339
      },
      {
        "club_badge_src": null,
        "entry": 2444327,
        "entry_name": "Marshalls Misfits",
        "event_total": 49,
        "has_played": true,
        "id": 17481809,
        "last_rank": 58071,
        "player_name": "STEVEN MARSHALL",
        "rank": 71654,
        "rank_sort": 71824,
        "total": 2339
      },
      {
        "club_badge_src": null,
        "entry": 2485975,
        "entry_name": "FENerbahce",
        "event_total": 54,
        "has_played": true,
        "id": 17789543,
        "last_rank": 66848,
        "player_name": "Ed Bateson",
        "rank": 71654,
        "rank_sort": 71825,
        "total": 2339
      },
      {
        "club_badge_src": null,
        "entry": 2491532,
        "entry_name": "No hope",
        "event_total": 52,
        "has_played": true,
        "id": 17836939,
        "last_rank": 63390,
        "player_name": "Paul Fogarty",
        "rank": 71654,
        "rank_sort": 71826,
        "total": 2339
      },
      {
        "club_badge_src": null,
        "entry": 2494463,
        "entry_name": "Anelka Skelter",
        "event_total": 72,
        "has_played": true,
        "id": 17858739,
        "last_rank": 108452,
        "player_name": "Ryan Armstrong",
        "rank": 71654,
        "rank_sort": 71827,
        "total": 2339
      },
      {
        "club_badge_src": null,
        "entry": 2504227,
        "entry_name": "Bruno, Dos, Tres",
        "event_total": 67,
        "has_played": true,
        "id": 17932901,
        "last_rank": 95890,
        "player_name": "Alfie Glover",
        "rank": 71654,
        "rank_sort": 71828,
        "total": 2339
      },
      {
        "club_badge_src": null,
        "entry": 2549297,
        "entry_name": "gygfc",
        "event_total": 66,
        "has_played": true,
        "id": 18274961,
        "last_rank": 93443,
        "player_name": "Matthew Portilla",
        "rank": 71654,
        "rank_sort": 71829,
        "total": 2339
      },
      {
        "club_badge_src": null,
        "entry": 2558663,
        "entry_name": "Come Digne With Mee",
        "event_total": 55,
        "has_played": true,
        "id": 18349190,
        "last_rank": 68957,
        "player_name": "Elliot Atkinson",
        "rank": 71654,
        "rank_sort": 71830,
        "total": 2339
      },
      {
        "club_badge_src": null,
        "entry": 2596299,
        "entry_name": "Marcos XI",
        "event_total": 49,
        "has_played": true,
        "id": 18644004,
        "last_rank": 58071,
        "player_name": "Mark Carr",
        "rank": 71654,
        "rank_sort": 71831,
        "total": 2339
      },
      {
        "club_badge_src": null,
        "entry": 2645358,
        "entry_name": "nadjib",
        "event_total": 61,
        "has_played": true,
        "id": 19013574,
        "last_rank": 81646,
        "player_name": "nadjib mekkaoui",
        "rank": 71654,
        "rank_sort": 71832,
        "total": 2339
      },
      {
        "club_badge_src": null,
        "entry": 2713320,
        "entry_name": "oldman",
        "event_total": 63,
        "has_played": true,
        "id": 19522259,
        "last_rank": 86304,
        "player_name": "Timur Sakalousky",
        "rank": 71654,
        "rank_sort": 71833,
        "total": 2339
      },
      {
        "club_badge_src": null,
        "entry": 2769547,
        "entry_name": "Super Pollos",
        "event_total": 68,
        "has_played": true,
        "id": 20207140,
        "last_rank": 98436,
        "player_name": "Juan Briseno",
        "rank": 71654,
        "rank_sort": 71834,
        "total": 2339
      },
      {
        "club_badge_src": null,
        "entry": 2790608,
        "entry_name": "Saka Sauce",
        "event_total": 72,
        "has_played": true,
        "id": 20374053,
        "last_rank": 108496,
        "player_name": "Georgia Freeland",
        "rank": 71654,
        "rank_sort": 71835,
        "total": 2339
      },
      {
        "club_badge_src": null,
        "entry": 2800614,
        "entry_name": "West Ham in Disguise",
        "event_total": 63,
        "has_played": true,
        "id": 20450849,
        "last_rank": 86304,
        "player_name": "Charlie Mills",
        "rank": 71654,
        "rank_sort": 71836,
        "total": 2339
      },
      {
        "club_badge_src": null,
        "entry": 2834004,
        "entry_name": "DALLEN FC",
        "event_total": 49,
        "has_played": true,
        "id": 20709468,
        "last_rank": 58388,
        "player_name": "Daniel Allen",
        "rank": 71654,
        "rank_sort": 71837,
        "total": 2339
      },
      {
        "club_badge_src": null,
        "entry": 2847247,
        "entry_name": "The Gy\u00f6at's 11",
        "event_total": 62,
        "has_played": true,
        "id": 20815812,
        "last_rank": 83934,
        "player_name": "Brett Whyburd",
        "rank": 71654,
        "rank_sort": 71838,
        "total": 2339
      },
      {
        "club_badge_src": null,
        "entry": 2928267,
        "entry_name": "Minteh Fresh",
        "event_total": 68,
        "has_played": true,
        "id": 21468163,
        "last_rank": 88249,
        "player_name": "Alfie Baeza-Collis",
        "rank": 71654,
        "rank_sort": 71839,
        "total": 2339
      },
      {
        "club_badge_src": null,
        "entry": 3006004,
        "entry_name": "Thomas Frankenstein",
        "event_total": 43,
        "has_played": true,
        "id": 22111697,
        "last_rank": 48363,
        "player_name": "Jesper Hj\u00f8rnevik",
        "rank": 71654,
        "rank_sort": 71840,
        "total": 2339
      },
      {
        "club_badge_src": null,
        "entry": 3012632,
        "entry_name": "Chahine Gu",
        "event_total": 51,
        "has_played": true,
        "id": 22162969,
        "last_rank": 61606,
        "player_name": "Chahine Gu",
        "rank": 71654,
        "rank_sort": 71841,
        "total": 2339
      },
      {
        "club_badge_src": null,
        "entry": 3020011,
        "entry_name": "Barrels Boys",
        "event_total": 68,
        "has_played": true,
        "id": 22219661,
        "last_rank": 98183,
        "player_name": "Jack Wedlake",
        "rank": 71654,
        "rank_sort": 71842,
        "total": 2339
      },
      {
        "club_badge_src": null,
        "entry": 3038525,
        "entry_name": "Fyrglimtet United",
        "event_total": 47,
        "has_played": true,
        "id": 22364010,
        "last_rank": 54667,
        "player_name": "Inge Selven",
        "rank": 71654,
        "rank_sort": 71843,
        "total": 2339
      },
      {
        "club_badge_src": null,
        "entry": 3066374,
        "entry_name": "Timation",
        "event_total": 60,
        "has_played": true,
        "id": 22577468,
        "last_rank": 79190,
        "player_name": "Timi Oyedeji",
        "rank": 71654,
        "rank_sort": 71844,
        "total": 2339
      },
      {
        "club_badge_src": null,
        "entry": 3068278,
        "entry_name": "Lallana Del Rey",
        "event_total": 54,
        "has_played": true,
        "id": 22592298,
        "last_rank": 67063,
        "player_name": "Teodor Nihtianov",
        "rank": 71654,
        "rank_sort": 71845,
        "total": 2339
      },
      {
        "club_badge_src": null,
        "entry": 3071668,
        "entry_name": "Haalandaise Sauce",
        "event_total": 64,
        "has_played": true,
        "id": 22618437,
        "last_rank": 88348,
        "player_name": "Adam Hill",
        "rank": 71654,
        "rank_sort": 71846,
        "total": 2339
      },
      {
        "club_badge_src": null,
        "entry": 3093143,
        "entry_name": "Dons FC",
        "event_total": 61,
        "has_played": true,
        "id": 22796499,
        "last_rank": 81420,
        "player_name": "Jay Hulse",
        "rank": 71654,
        "rank_sort": 71847,
        "total": 2339
      },
      {
        "club_badge_src": null,
        "entry": 3103267,
        "entry_name": "Flop City FC",
        "event_total": 66,
        "has_played": true,
        "id": 22880113,
        "last_rank": 93443,
        "player_name": "Michael Zumbo",
        "rank": 71654,
        "rank_sort": 71848,
        "total": 2339
      },
      {
        "club_badge_src": null,
        "entry": 3115997,
        "entry_name": "Cunha Matata",
        "event_total": 66,
        "has_played": true,
        "id": 22994177,
        "last_rank": 93443,
        "player_name": "Galvin Dhaliwal",
        "rank": 71654,
        "rank_sort": 71849,
        "total": 2339
      },
      {
        "club_badge_src": null,
        "entry": 3123372,
        "entry_name": "How I Nmecha Mother",
        "event_total": 70,
        "has_played": true,
        "id": 23050114,
        "last_rank": 103526,
        "player_name": "Daniel Murphy",
        "rank": 71654,
        "rank_sort": 71850,
        "total": 2339
      }
    ]
  }
}