{
  "last_updated_data": "2026-05-24T23:28:17Z",
  "league": {
    "admin_entry": null,
    "closed": false,
    "code_privacy": "p",
    "created": "2025-07-20T23:14:33.933835Z",
    "cup_league": 2815434,
    "has_cup": true,
    "id": 314,
    "league_type": "s",
    "max_entries": null,
    "name": "Overall",
    "rank": null,
    "scoring": "c",
    "start_event": 1
  },
  "new_entries": {
    "has_next": false,
    "page": 1,
    "results": []
  },
  "standings": {
    "has_next": true,
    "page": 850,
    "results": [
      {
        "club_badge_src": null,
        "entry": 865558,
        "entry_name": "Gopp FC",
        "event_total": 85,
        "has_played": true,
        "id": 5933804,
        "last_rank": 95890,
        "player_name": "Panuwat S.",
        "rank": 42358,
        "rank_sort": 42451,
        "total": 2357
      },
      {
        "club_badge_src": "https://fantasy.premierleague.com/gcs/plfpl-production-adobe-approved/plfpl-production/897733/08071a70-4674-4d14-9310-21f44b493f69.png",
        "entry": 897733,
        "entry_name": "The Jap Attack",
        "event_total": 64,
        "has_played": true,
        "id": 6167930,
        "last_rank": 52853,
        "player_name": "Bill Martin",
        "rank": 42358,
        "rank_sort": 42452,
        "total": 2357
      },
      {
        "club_badge_src": null,
        "entry": 906817,
        "entry_name": "Sammy F.C.",
        "event_total": 47,
        "has_played": true,
        "id": 6233378,
        "last_rank": 30536,
        "player_name": "Alonge Samuel Opeyemi",
        "rank": 42358,
        "rank_sort": 42453,
        "total": 2357
      },
      {
        "club_badge_src": null,
        "entry": 907892,
        "entry_name": "Change Name",
        "event_total": 88,
        "has_played": true,
        "id": 6240956,
        "last_rank": 103978,
        "player_name": "Sam Wicks",
        "rank": 42358,
        "rank_sort": 42454,
        "total": 2357
      },
      {
        "club_badge_src": null,
        "entry": 957347,
        "entry_name": "EtLag",
        "event_total": 42,
        "has_played": true,
        "id": 6596546,
        "last_rank": 25729,
        "player_name": "Magnus Nygaard",
        "rank": 42358,
        "rank_sort": 42455,
        "total": 2357
      },
      {
        "club_badge_src": null,
        "entry": 964198,
        "entry_name": "Nilsen United",
        "event_total": 49,
        "has_played": true,
        "id": 6645021,
        "last_rank": 32879,
        "player_name": "J\u00f8rgen Nilsen",
        "rank": 42358,
        "rank_sort": 42456,
        "total": 2357
      },
      {
        "club_badge_src": "https://fantasy.premierleague.com/gcs/plfpl-production-adobe-approved/plfpl-production/966149/63216349-c1f6-426b-8048-dceac037593a.png",
        "entry": 966149,
        "entry_name": "Howes he done that",
        "event_total": 68,
        "has_played": true,
        "id": 6658841,
        "last_rank": 59496,
        "player_name": "Frank Cottam",
        "rank": 42358,
        "rank_sort": 42457,
        "total": 2357
      },
      {
        "club_badge_src": null,
        "entry": 1000437,
        "entry_name": "Cold Rg",
        "event_total": 53,
        "has_played": true,
        "id": 6915527,
        "last_rank": 37435,
        "player_name": "Sarabjeet Singh",
        "rank": 42358,
        "rank_sort": 42458,
        "total": 2357
      },
      {
        "club_badge_src": "https://fantasy.premierleague.com/gcs/plfpl-production-adobe-approved/plfpl-production/1037288/b547c9a2-8b8b-4170-b846-f122c064cc7a.png",
        "entry": 1037288,
        "entry_name": "Wodehouse Wombats",
        "event_total": 35,
        "has_played": true,
        "id": 7178169,
        "last_rank": 20179,
        "player_name": "CJ Williams",
        "rank": 42358,
        "rank_sort": 42459,
        "total": 2357
      },
      {
        "club_badge_src": null,
        "entry": 1041361,
        "entry_name": "FC Sarhiri Jr",
        "event_total": 60,
        "has_played": true,
        "id": 7206475,
        "last_rank": 46839,
        "player_name": "Jawhar Sarhiri",
        "rank": 42358,
        "rank_sort": 42460,
        "total": 2357
      },
      {
        "club_badge_src": null,
        "entry": 1045628,
        "entry_name": "Wirtz case scenario",
        "event_total": 57,
        "has_played": true,
        "id": 7236419,
        "last_rank": 42648,
        "player_name": "Alex Hamilton",
        "rank": 42358,
        "rank_sort": 42461,
        "total": 2357
      },
      {
        "club_badge_src": null,
        "entry": 1055885,
        "entry_name": "pawko",
        "event_total": 48,
        "has_played": true,
        "id": 7307332,
        "last_rank": 31747,
        "player_name": "Pawe\u0142 Stachula",
        "rank": 42358,
        "rank_sort": 42462,
        "total": 2357
      },
      {
        "club_badge_src": null,
        "entry": 1086969,
        "entry_name": "Fitzy\u2019s Fledglings",
        "event_total": 67,
        "has_played": true,
        "id": 7527743,
        "last_rank": 57776,
        "player_name": "Corey Fitzpatrick",
        "rank": 42358,
        "rank_sort": 42463,
        "total": 2357
      },
      {
        "club_badge_src": null,
        "entry": 1095132,
        "entry_name": "PsyCo",
        "event_total": 51,
        "has_played": true,
        "id": 7584992,
        "last_rank": 35166,
        "player_name": "Sai Pranav",
        "rank": 42358,
        "rank_sort": 42464,
        "total": 2357
      },
      {
        "club_badge_src": null,
        "entry": 1121655,
        "entry_name": "BurgXI",
        "event_total": 48,
        "has_played": true,
        "id": 7770778,
        "last_rank": 31620,
        "player_name": "Morgan Burgess",
        "rank": 42358,
        "rank_sort": 42465,
        "total": 2357
      },
      {
        "club_badge_src": null,
        "entry": 1142744,
        "entry_name": "HerewegoagainFFS",
        "event_total": 59,
        "has_played": true,
        "id": 7921278,
        "last_rank": 45416,
        "player_name": "Gavin Brett",
        "rank": 42358,
        "rank_sort": 42466,
        "total": 2357
      },
      {
        "club_badge_src": "https://fantasy.premierleague.com/gcs/plfpl-production-adobe-approved/plfpl-production/1145782/811bab76-73a3-4f80-a14b-a420d420697f.png",
        "entry": 1145782,
        "entry_name": "Surprise Package",
        "event_total": 62,
        "has_played": true,
        "id": 7943992,
        "last_rank": 49691,
        "player_name": "Nigel King",
        "rank": 42358,
        "rank_sort": 42467,
        "total": 2357
      },
      {
        "club_badge_src": null,
        "entry": 1158615,
        "entry_name": "Argyle Green",
        "event_total": 40,
        "has_played": true,
        "id": 8035030,
        "last_rank": 24143,
        "player_name": "David Pearce",
        "rank": 42358,
        "rank_sort": 42468,
        "total": 2357
      },
      {
        "club_badge_src": null,
        "entry": 1204824,
        "entry_name": "G\u00e4llinge BK",
        "event_total": 65,
        "has_played": true,
        "id": 8361171,
        "last_rank": 54494,
        "player_name": "Rasmus Olsson",
        "rank": 42358,
        "rank_sort": 42469,
        "total": 2357
      },
      {
        "club_badge_src": null,
        "entry": 1207528,
        "entry_name": "Che My Name",
        "event_total": 41,
        "has_played": true,
        "id": 8380036,
        "last_rank": 25002,
        "player_name": "Jonny Swain",
        "rank": 42358,
        "rank_sort": 42470,
        "total": 2357
      },
      {
        "club_badge_src": null,
        "entry": 1269652,
        "entry_name": "Delap of Honour",
        "event_total": 40,
        "has_played": true,
        "id": 8821596,
        "last_rank": 24143,
        "player_name": "Will Beardsmore",
        "rank": 42358,
        "rank_sort": 42471,
        "total": 2357
      },
      {
        "club_badge_src": null,
        "entry": 1286908,
        "entry_name": "Mivers United",
        "event_total": 61,
        "has_played": true,
        "id": 8942375,
        "last_rank": 48119,
        "player_name": "Magnus Iversen",
        "rank": 42358,
        "rank_sort": 42472,
        "total": 2357
      },
      {
        "club_badge_src": null,
        "entry": 1290784,
        "entry_name": "LadsOnToure",
        "event_total": 80,
        "has_played": true,
        "id": 8969439,
        "last_rank": 83584,
        "player_name": "Reid Paterson",
        "rank": 42358,
        "rank_sort": 42473,
        "total": 2357
      },
      {
        "club_badge_src": null,
        "entry": 1299650,
        "entry_name": "Isaknix",
        "event_total": 61,
        "has_played": true,
        "id": 9032506,
        "last_rank": 48119,
        "player_name": "Baba Hunis",
        "rank": 42358,
        "rank_sort": 42474,
        "total": 2357
      },
      {
        "club_badge_src": null,
        "entry": 1308665,
        "entry_name": "Intellectuals",
        "event_total": 47,
        "has_played": true,
        "id": 9096464,
        "last_rank": 30727,
        "player_name": "Rehan Saleem",
        "rank": 42358,
        "rank_sort": 42475,
        "total": 2357
      },
      {
        "club_badge_src": null,
        "entry": 1402032,
        "entry_name": "MIDTABLE MAFIA",
        "event_total": 73,
        "has_played": true,
        "id": 9754955,
        "last_rank": 68624,
        "player_name": "Liam Smith",
        "rank": 42358,
        "rank_sort": 42476,
        "total": 2357
      },
      {
        "club_badge_src": null,
        "entry": 1416817,
        "entry_name": "las cucarachas",
        "event_total": 68,
        "has_played": true,
        "id": 9864512,
        "last_rank": 59496,
        "player_name": "seb random",
        "rank": 42358,
        "rank_sort": 42477,
        "total": 2357
      },
      {
        "club_badge_src": null,
        "entry": 1447834,
        "entry_name": "\u0e40\u0e08\u0e49\u0e32\u0e1e\u0e23\u0e30\u0e22\u0e32 FC",
        "event_total": 52,
        "has_played": true,
        "id": 10088716,
        "last_rank": 36624,
        "player_name": "Weeraphat Nonphatya",
        "rank": 42358,
        "rank_sort": 42478,
        "total": 2357
      },
      {
        "club_badge_src": "https://fantasy.premierleague.com/gcs/plfpl-production-adobe-approved/plfpl-production/1458454/284540c5-112c-439e-a865-0251f1217498.png",
        "entry": 1458454,
        "entry_name": "Stifflers United",
        "event_total": 75,
        "has_played": true,
        "id": 10164466,
        "last_rank": 73423,
        "player_name": "Kian Liddy",
        "rank": 42358,
        "rank_sort": 42479,
        "total": 2357
      },
      {
        "club_badge_src": null,
        "entry": 1601709,
        "entry_name": "Samvirkelaget Fc",
        "event_total": 43,
        "has_played": true,
        "id": 11204980,
        "last_rank": 26827,
        "player_name": "Kristoffer Dahlum",
        "rank": 42358,
        "rank_sort": 42480,
        "total": 2357
      },
      {
        "club_badge_src": null,
        "entry": 1602974,
        "entry_name": "Whitt's Picks",
        "event_total": 68,
        "has_played": true,
        "id": 11213966,
        "last_rank": 59535,
        "player_name": "Matt Whitty",
        "rank": 42358,
        "rank_sort": 42481,
        "total": 2357
      },
      {
        "club_badge_src": null,
        "entry": 1735949,
        "entry_name": "OK Fluid",
        "event_total": 60,
        "has_played": true,
        "id": 12178259,
        "last_rank": 46839,
        "player_name": "OK Lau",
        "rank": 42358,
        "rank_sort": 42482,
        "total": 2357
      },
      {
        "club_badge_src": null,
        "entry": 1740489,
        "entry_name": "Team badboy 25/26",
        "event_total": 60,
        "has_played": true,
        "id": 12211516,
        "last_rank": 46839,
        "player_name": "Badboy Bjorn",
        "rank": 42358,
        "rank_sort": 42483,
        "total": 2357
      },
      {
        "club_badge_src": null,
        "entry": 1752329,
        "entry_name": "Henry\u2019s FC",
        "event_total": 65,
        "has_played": true,
        "id": 12298604,
        "last_rank": 54667,
        "player_name": "Henry Obiefuna",
        "rank": 42358,
        "rank_sort": 42484,
        "total": 2357
      },
      {
        "club_badge_src": null,
        "entry": 1754746,
        "entry_name": "PF",
        "event_total": 63,
        "has_played": true,
        "id": 12319000,
        "last_rank": 51403,
        "player_name": "Ifiok Flex",
        "rank": 42358,
        "rank_sort": 42485,
        "total": 2357
      },
      {
        "club_badge_src": null,
        "entry": 1757175,
        "entry_name": "Rowell FC",
        "event_total": 83,
        "has_played": true,
        "id": 12336371,
        "last_rank": 91006,
        "player_name": "James Rowell",
        "rank": 42358,
        "rank_sort": 42486,
        "total": 2357
      },
      {
        "club_badge_src": null,
        "entry": 1760325,
        "entry_name": "siiiiiiiuuuuuuuuuuuu",
        "event_total": 60,
        "has_played": true,
        "id": 12359338,
        "last_rank": 46839,
        "player_name": "Roberto Leotta",
        "rank": 42358,
        "rank_sort": 42487,
        "total": 2357
      },
      {
        "club_badge_src": null,
        "entry": 1800580,
        "entry_name": "frallan",
        "event_total": 59,
        "has_played": true,
        "id": 12655877,
        "last_rank": 45416,
        "player_name": "Franke Gustafsson",
        "rank": 42358,
        "rank_sort": 42488,
        "total": 2357
      },
      {
        "club_badge_src": null,
        "entry": 1834482,
        "entry_name": "The butcher",
        "event_total": 66,
        "has_played": true,
        "id": 12904834,
        "last_rank": 56369,
        "player_name": "Sid Ali",
        "rank": 42358,
        "rank_sort": 42489,
        "total": 2357
      },
      {
        "club_badge_src": null,
        "entry": 1838643,
        "entry_name": "KungFu Pandas",
        "event_total": 67,
        "has_played": true,
        "id": 12935294,
        "last_rank": 51137,
        "player_name": "Nikki Albesa",
        "rank": 42358,
        "rank_sort": 42490,
        "total": 2357
      },
      {
        "club_badge_src": null,
        "entry": 1843717,
        "entry_name": "Minion  F.C",
        "event_total": 48,
        "has_played": true,
        "id": 12971980,
        "last_rank": 31747,
        "player_name": "Theo Ballantyne",
        "rank": 42358,
        "rank_sort": 42491,
        "total": 2357
      },
      {
        "club_badge_src": null,
        "entry": 1853463,
        "entry_name": "No Mbeuno",
        "event_total": 40,
        "has_played": true,
        "id": 13042811,
        "last_rank": 24330,
        "player_name": "John McBride",
        "rank": 42358,
        "rank_sort": 42492,
        "total": 2357
      },
      {
        "club_badge_src": "https://fantasy.premierleague.com/gcs/plfpl-production-adobe-approved/plfpl-production/1949135/8b92f269-df33-43b5-ac68-2d9caa5ab81d.png",
        "entry": 1949135,
        "entry_name": "Wirtz Case Scenario",
        "event_total": 57,
        "has_played": true,
        "id": 13749045,
        "last_rank": 42506,
        "player_name": "Faheem Osmani",
        "rank": 42358,
        "rank_sort": 42493,
        "total": 2357
      },
      {
        "club_badge_src": null,
        "entry": 1992405,
        "entry_name": "Rutter Woke Nonsense",
        "event_total": 47,
        "has_played": true,
        "id": 14077447,
        "last_rank": 30957,
        "player_name": "peadar mcguckian",
        "rank": 42358,
        "rank_sort": 42494,
        "total": 2357
      },
      {
        "club_badge_src": null,
        "entry": 2012586,
        "entry_name": "Mohamed Hamdy",
        "event_total": 49,
        "has_played": true,
        "id": 14231710,
        "last_rank": 32879,
        "player_name": "Mohamed Hamdy",
        "rank": 42358,
        "rank_sort": 42495,
        "total": 2357
      },
      {
        "club_badge_src": null,
        "entry": 2018263,
        "entry_name": "Fc",
        "event_total": 67,
        "has_played": true,
        "id": 14278976,
        "last_rank": 58071,
        "player_name": "Ali Khaled",
        "rank": 42358,
        "rank_sort": 42496,
        "total": 2357
      },
      {
        "club_badge_src": null,
        "entry": 2027751,
        "entry_name": "Blue Blood",
        "event_total": 61,
        "has_played": true,
        "id": 14354821,
        "last_rank": 48363,
        "player_name": "Andrew Ehab",
        "rank": 42358,
        "rank_sort": 42497,
        "total": 2357
      },
      {
        "club_badge_src": null,
        "entry": 2054168,
        "entry_name": "pato fc 2",
        "event_total": 51,
        "has_played": true,
        "id": 14551080,
        "last_rank": 35424,
        "player_name": "Patrice Cave",
        "rank": 42358,
        "rank_sort": 42498,
        "total": 2357
      },
      {
        "club_badge_src": null,
        "entry": 2099492,
        "entry_name": "Gods No 9",
        "event_total": 47,
        "has_played": true,
        "id": 14896754,
        "last_rank": 30727,
        "player_name": "Jenny leech",
        "rank": 42358,
        "rank_sort": 42499,
        "total": 2357
      },
      {
        "club_badge_src": null,
        "entry": 2142597,
        "entry_name": "Palmersan Cheese",
        "event_total": 42,
        "has_played": true,
        "id": 15227959,
        "last_rank": 25902,
        "player_name": "Alfie Hall",
        "rank": 42358,
        "rank_sort": 42500,
        "total": 2357
      }
    ]
  }
}