{
  "last_updated_data": "2026-05-24T23:28:17Z",
  "league": {
    "admin_entry": null,
    "closed": false,
    "code_privacy": "p",
    "created": "2025-07-20T23:14:33.933835Z",
    "cup_league": 2815434,
    "has_cup": true,
    "id": 314,
    "league_type": "s",
    "max_entries": null,
    "name": "Overall",
    "rank": null,
    "scoring": "c",
    "start_event": 1
  },
  "new_entries": {
    "has_next": false,
    "page": 1,
    "results": []
  },
  "standings": {
    "has_next": true,
    "page": 68,
    "results": [
      {
        "club_badge_src": null,
        "entry": 2584051,
        "entry_name": "FC Ko\u0144",
        "event_total": 54,
        "has_played": true,
        "id": 18549039,
        "last_rank": 2665,
        "player_name": "Andrej \u017dibrek",
        "rank": 3350,
        "rank_sort": 3351,
        "total": 2423
      },
      {
        "club_badge_src": null,
        "entry": 3811951,
        "entry_name": "Major League Saka",
        "event_total": 70,
        "has_played": true,
        "id": 28503890,
        "last_rank": 5632,
        "player_name": "Aaron Sinclair-Day",
        "rank": 3350,
        "rank_sort": 3352,
        "total": 2423
      },
      {
        "club_badge_src": null,
        "entry": 5252798,
        "entry_name": "K.Imbuenacho",
        "event_total": 55,
        "has_played": true,
        "id": 40710617,
        "last_rank": 2802,
        "player_name": "Ignacio Vallejo",
        "rank": 3350,
        "rank_sort": 3353,
        "total": 2423
      },
      {
        "club_badge_src": null,
        "entry": 5426557,
        "entry_name": "Ashley\u2019s XI",
        "event_total": 67,
        "has_played": true,
        "id": 42207986,
        "last_rank": 4930,
        "player_name": "Ashley Swainn",
        "rank": 3350,
        "rank_sort": 3354,
        "total": 2423
      },
      {
        "club_badge_src": null,
        "entry": 5697978,
        "entry_name": "Makaveli's 2",
        "event_total": 63,
        "has_played": true,
        "id": 44610643,
        "last_rank": 4062,
        "player_name": "Nemanja Cosic",
        "rank": 3350,
        "rank_sort": 3355,
        "total": 2423
      },
      {
        "club_badge_src": null,
        "entry": 7408395,
        "entry_name": "Beef Cherki",
        "event_total": 62,
        "has_played": true,
        "id": 60096031,
        "last_rank": 3866,
        "player_name": "Riku Kurppa",
        "rank": 3350,
        "rank_sort": 3356,
        "total": 2423
      },
      {
        "club_badge_src": "https://fantasy.premierleague.com/gcs/plfpl-production-adobe-approved/plfpl-production/9335974/af22f654-eb40-4fc5-a22f-3cd056c373ad.png",
        "entry": 9335974,
        "entry_name": "FC Raffo",
        "event_total": 62,
        "has_played": true,
        "id": 78753074,
        "last_rank": 3866,
        "player_name": "Gaetano Di Tavi",
        "rank": 3350,
        "rank_sort": 3357,
        "total": 2423
      },
      {
        "club_badge_src": null,
        "entry": 360,
        "entry_name": "5 Big Mbeumos",
        "event_total": 67,
        "has_played": true,
        "id": 1990,
        "last_rank": 4930,
        "player_name": "Andrew Aston",
        "rank": 3358,
        "rank_sort": 3358,
        "total": 2423
      },
      {
        "club_badge_src": null,
        "entry": 4546,
        "entry_name": "Pauer Rangers",
        "event_total": 70,
        "has_played": true,
        "id": 25856,
        "last_rank": 5646,
        "player_name": "Brad Fellows",
        "rank": 3358,
        "rank_sort": 3359,
        "total": 2423
      },
      {
        "club_badge_src": null,
        "entry": 11204,
        "entry_name": "Power Reijnders",
        "event_total": 64,
        "has_played": true,
        "id": 66512,
        "last_rank": 4303,
        "player_name": "Mark S",
        "rank": 3358,
        "rank_sort": 3360,
        "total": 2423
      },
      {
        "club_badge_src": null,
        "entry": 15757,
        "entry_name": "Finding Pogba FC",
        "event_total": 62,
        "has_played": true,
        "id": 96962,
        "last_rank": 3902,
        "player_name": "Conor Soden",
        "rank": 3358,
        "rank_sort": 3361,
        "total": 2423
      },
      {
        "club_badge_src": null,
        "entry": 23517,
        "entry_name": "ThomasTheFrankEngine",
        "event_total": 75,
        "has_played": true,
        "id": 148136,
        "last_rank": 7000,
        "player_name": "Aaron King",
        "rank": 3358,
        "rank_sort": 3362,
        "total": 2423
      },
      {
        "club_badge_src": null,
        "entry": 59746,
        "entry_name": "Moneyball",
        "event_total": 58,
        "has_played": true,
        "id": 384709,
        "last_rank": 3257,
        "player_name": "Oliver V.S",
        "rank": 3358,
        "rank_sort": 3363,
        "total": 2423
      },
      {
        "club_badge_src": "https://fantasy.premierleague.com/gcs/plfpl-production-adobe-approved/plfpl-production/80527/f8810e8f-5b6c-4ba8-9c7f-119b323303b9.png",
        "entry": 80527,
        "entry_name": "Pattaya FC",
        "event_total": 59,
        "has_played": true,
        "id": 523909,
        "last_rank": 3391,
        "player_name": "Andrius Podzeckas",
        "rank": 3358,
        "rank_sort": 3364,
        "total": 2423
      },
      {
        "club_badge_src": null,
        "entry": 89786,
        "entry_name": "Bam Chiki Bam Bam",
        "event_total": 61,
        "has_played": true,
        "id": 586099,
        "last_rank": 3721,
        "player_name": "Sumesh Sude",
        "rank": 3358,
        "rank_sort": 3365,
        "total": 2423
      },
      {
        "club_badge_src": null,
        "entry": 122324,
        "entry_name": "Bangladesh CF",
        "event_total": 63,
        "has_played": true,
        "id": 798029,
        "last_rank": 4047,
        "player_name": "Rezwan Shultan",
        "rank": 3358,
        "rank_sort": 3366,
        "total": 2423
      },
      {
        "club_badge_src": null,
        "entry": 125422,
        "entry_name": "Mind UTD",
        "event_total": 46,
        "has_played": true,
        "id": 817972,
        "last_rank": 1773,
        "player_name": "ANAWAT TANKASEM",
        "rank": 3358,
        "rank_sort": 3367,
        "total": 2423
      },
      {
        "club_badge_src": null,
        "entry": 128935,
        "entry_name": "BRADYBALL",
        "event_total": 66,
        "has_played": true,
        "id": 840413,
        "last_rank": 4704,
        "player_name": "Brady J",
        "rank": 3358,
        "rank_sort": 3368,
        "total": 2423
      },
      {
        "club_badge_src": "https://fantasy.premierleague.com/gcs/plfpl-production-adobe-approved/plfpl-production/151399/e9a1b623-4da4-44dc-9937-751081f2f3ab.png",
        "entry": 151399,
        "entry_name": "BaddaDan",
        "event_total": 56,
        "has_played": true,
        "id": 993271,
        "last_rank": 2952,
        "player_name": "Dan Ronald Lokk",
        "rank": 3358,
        "rank_sort": 3369,
        "total": 2423
      },
      {
        "club_badge_src": "https://fantasy.premierleague.com/gcs/plfpl-production-adobe-approved/plfpl-production/183155/cabe1b5a-47ce-4e1e-8be9-6cc8caa0d427.png",
        "entry": 183155,
        "entry_name": "ItKanteGoOnLikeThis",
        "event_total": 69,
        "has_played": true,
        "id": 1208806,
        "last_rank": 5400,
        "player_name": "Harry Butler",
        "rank": 3358,
        "rank_sort": 3370,
        "total": 2423
      },
      {
        "club_badge_src": "https://fantasy.premierleague.com/gcs/plfpl-production-adobe-approved/plfpl-production/222512/89a691b2-c151-4065-8840-089b8d29b7b9.png",
        "entry": 222512,
        "entry_name": "Rabs Rovers",
        "event_total": 69,
        "has_played": true,
        "id": 1480096,
        "last_rank": 5400,
        "player_name": "Paul Binney",
        "rank": 3358,
        "rank_sort": 3371,
        "total": 2423
      },
      {
        "club_badge_src": "https://fantasy.premierleague.com/gcs/plfpl-production-adobe-approved/plfpl-production/222758/0571aa0a-77f0-4b08-8d97-58e5bb36cdbb.png",
        "entry": 222758,
        "entry_name": "kenquaza",
        "event_total": 56,
        "has_played": true,
        "id": 1481727,
        "last_rank": 2977,
        "player_name": "Kenny Lim",
        "rank": 3358,
        "rank_sort": 3372,
        "total": 2423
      },
      {
        "club_badge_src": null,
        "entry": 234513,
        "entry_name": "FC laat je likken",
        "event_total": 67,
        "has_played": true,
        "id": 1560466,
        "last_rank": 4930,
        "player_name": "Quintin Van Der Voort",
        "rank": 3358,
        "rank_sort": 3373,
        "total": 2423
      },
      {
        "club_badge_src": "https://fantasy.premierleague.com/gcs/plfpl-production-adobe-approved/plfpl-production/524746/653ab68d-8c80-4fdb-8a0e-9ad8d74da5b4.png",
        "entry": 524746,
        "entry_name": "Mbuemagic+Cunhatics",
        "event_total": 40,
        "has_played": true,
        "id": 3525941,
        "last_rank": 1302,
        "player_name": "Christian Hauen",
        "rank": 3358,
        "rank_sort": 3374,
        "total": 2423
      },
      {
        "club_badge_src": "https://fantasy.premierleague.com/gcs/plfpl-production-adobe-approved/plfpl-production/547436/f1fd9da6-5c00-49c0-8682-e99c500f4b90.png",
        "entry": 547436,
        "entry_name": "Bondedrengene",
        "event_total": 63,
        "has_played": true,
        "id": 3684251,
        "last_rank": 4062,
        "player_name": "Jonas Friis Kj\u00e6r",
        "rank": 3358,
        "rank_sort": 3375,
        "total": 2423
      },
      {
        "club_badge_src": "https://fantasy.premierleague.com/gcs/plfpl-production-adobe-approved/plfpl-production/565832/203c6f4e-73cf-403d-8c7e-b722c8bdf7e0.png",
        "entry": 565832,
        "entry_name": "Amad for it",
        "event_total": 50,
        "has_played": true,
        "id": 3808469,
        "last_rank": 2174,
        "player_name": "Chris Lloyd",
        "rank": 3358,
        "rank_sort": 3376,
        "total": 2423
      },
      {
        "club_badge_src": null,
        "entry": 620671,
        "entry_name": "Palmer Violets",
        "event_total": 61,
        "has_played": true,
        "id": 4194490,
        "last_rank": 3699,
        "player_name": "Zack Tyler",
        "rank": 3358,
        "rank_sort": 3377,
        "total": 2423
      },
      {
        "club_badge_src": "https://fantasy.premierleague.com/gcs/plfpl-production-adobe-approved/plfpl-production/629768/755e0b84-3b3d-4512-a8f1-da2beaff1dd1.png",
        "entry": 629768,
        "entry_name": "Mattchester Allstars",
        "event_total": 66,
        "has_played": true,
        "id": 4255606,
        "last_rank": 4704,
        "player_name": "Matt Welsher",
        "rank": 3358,
        "rank_sort": 3378,
        "total": 2423
      },
      {
        "club_badge_src": "https://fantasy.premierleague.com/gcs/plfpl-production-adobe-approved/plfpl-production/636449/f6da67d9-e0b5-45a8-a946-e26fa36d85c4.png",
        "entry": 636449,
        "entry_name": "Josh's Staffs",
        "event_total": 47,
        "has_played": true,
        "id": 4301279,
        "last_rank": 1853,
        "player_name": "Joshua Armitage",
        "rank": 3358,
        "rank_sort": 3379,
        "total": 2423
      },
      {
        "club_badge_src": null,
        "entry": 1372611,
        "entry_name": "GAJNINTO",
        "event_total": 57,
        "has_played": true,
        "id": 9541514,
        "last_rank": 3066,
        "player_name": "Marshall Shrestha",
        "rank": 3358,
        "rank_sort": 3380,
        "total": 2423
      },
      {
        "club_badge_src": null,
        "entry": 1523992,
        "entry_name": "Lucky AF",
        "event_total": 57,
        "has_played": true,
        "id": 10629363,
        "last_rank": 3079,
        "player_name": "Jamie Yeung",
        "rank": 3358,
        "rank_sort": 3381,
        "total": 2423
      },
      {
        "club_badge_src": null,
        "entry": 1558753,
        "entry_name": "Bergvall Street",
        "event_total": 56,
        "has_played": true,
        "id": 10885321,
        "last_rank": 2977,
        "player_name": "Apoorv Agrawal",
        "rank": 3358,
        "rank_sort": 3382,
        "total": 2423
      },
      {
        "club_badge_src": "https://fantasy.premierleague.com/gcs/plfpl-production-adobe-approved/plfpl-production/1725093/af9684ca-7352-4aef-ba17-b00efc01b38a.png",
        "entry": 1725093,
        "entry_name": "SHAREF",
        "event_total": 74,
        "has_played": true,
        "id": 12097157,
        "last_rank": 6752,
        "player_name": "SHAREF ANWAR",
        "rank": 3358,
        "rank_sort": 3383,
        "total": 2423
      },
      {
        "club_badge_src": null,
        "entry": 1764968,
        "entry_name": "KJ",
        "event_total": 52,
        "has_played": true,
        "id": 12396775,
        "last_rank": 2418,
        "player_name": "Khalid Al Ali",
        "rank": 3358,
        "rank_sort": 3384,
        "total": 2423
      },
      {
        "club_badge_src": null,
        "entry": 1858534,
        "entry_name": "Why Do I Bother",
        "event_total": 82,
        "has_played": true,
        "id": 13080130,
        "last_rank": 9459,
        "player_name": "Alexander Cryer",
        "rank": 3358,
        "rank_sort": 3385,
        "total": 2423
      },
      {
        "club_badge_src": "https://fantasy.premierleague.com/gcs/plfpl-production-adobe-approved/plfpl-production/2236960/0341ce61-5b8d-48cd-ae08-a6d55f4485bb.png",
        "entry": 2236960,
        "entry_name": "TsReelTalk",
        "event_total": 58,
        "has_played": true,
        "id": 15936090,
        "last_rank": 3237,
        "player_name": "Tayyib Mahmood",
        "rank": 3358,
        "rank_sort": 3386,
        "total": 2423
      },
      {
        "club_badge_src": null,
        "entry": 2450966,
        "entry_name": "Two Silver Stars",
        "event_total": 56,
        "has_played": true,
        "id": 17530084,
        "last_rank": 2952,
        "player_name": "Gareth Williams",
        "rank": 3358,
        "rank_sort": 3387,
        "total": 2423
      },
      {
        "club_badge_src": null,
        "entry": 2648104,
        "entry_name": "Luke's XI",
        "event_total": 54,
        "has_played": true,
        "id": 19033588,
        "last_rank": 2651,
        "player_name": "Luke Farrant",
        "rank": 3358,
        "rank_sort": 3388,
        "total": 2423
      },
      {
        "club_badge_src": null,
        "entry": 2692514,
        "entry_name": "Tinners Terrors",
        "event_total": 48,
        "has_played": true,
        "id": 19367252,
        "last_rank": 1961,
        "player_name": "Christopher Tinley",
        "rank": 3358,
        "rank_sort": 3389,
        "total": 2423
      },
      {
        "club_badge_src": null,
        "entry": 2747290,
        "entry_name": "the best",
        "event_total": 72,
        "has_played": true,
        "id": 19910661,
        "last_rank": 6194,
        "player_name": "Syafiq J",
        "rank": 3358,
        "rank_sort": 3390,
        "total": 2423
      },
      {
        "club_badge_src": null,
        "entry": 2862276,
        "entry_name": "cAk\u00e9 by the ocean",
        "event_total": 69,
        "has_played": true,
        "id": 20932045,
        "last_rank": 5400,
        "player_name": "Ahmed Alshehabi",
        "rank": 3358,
        "rank_sort": 3391,
        "total": 2423
      },
      {
        "club_badge_src": null,
        "entry": 2971345,
        "entry_name": "Ute av Drift",
        "event_total": 65,
        "has_played": true,
        "id": 21831830,
        "last_rank": 4488,
        "player_name": "Frank Ruben Bratland",
        "rank": 3358,
        "rank_sort": 3392,
        "total": 2423
      },
      {
        "club_badge_src": null,
        "entry": 3258101,
        "entry_name": "Ballingarry FC",
        "event_total": 40,
        "has_played": true,
        "id": 24107498,
        "last_rank": 1291,
        "player_name": "Damian O Donoghue",
        "rank": 3358,
        "rank_sort": 3393,
        "total": 2423
      },
      {
        "club_badge_src": null,
        "entry": 3345868,
        "entry_name": "Elborn's Strollers",
        "event_total": 52,
        "has_played": true,
        "id": 24819206,
        "last_rank": 2448,
        "player_name": "Andrew Elborn",
        "rank": 3358,
        "rank_sort": 3394,
        "total": 2423
      },
      {
        "club_badge_src": null,
        "entry": 3574252,
        "entry_name": "La G's",
        "event_total": 64,
        "has_played": true,
        "id": 26614774,
        "last_rank": 4303,
        "player_name": "Joe Spray",
        "rank": 3358,
        "rank_sort": 3395,
        "total": 2423
      },
      {
        "club_badge_src": "https://fantasy.premierleague.com/gcs/plfpl-production-adobe-approved/plfpl-production/4116205/89a149ed-72cb-4d3f-aa1e-215aec87d2ae.png",
        "entry": 4116205,
        "entry_name": "Biffs frie menn",
        "event_total": 59,
        "has_played": true,
        "id": 31095160,
        "last_rank": 3391,
        "player_name": "Jorgen Thorvaldsen",
        "rank": 3358,
        "rank_sort": 3396,
        "total": 2423
      },
      {
        "club_badge_src": null,
        "entry": 4379884,
        "entry_name": "Living Saliba Loca",
        "event_total": 68,
        "has_played": true,
        "id": 33283643,
        "last_rank": 5173,
        "player_name": "Laurence Pogue",
        "rank": 3358,
        "rank_sort": 3397,
        "total": 2423
      },
      {
        "club_badge_src": "https://fantasy.premierleague.com/gcs/plfpl-production-adobe-approved/plfpl-production/4658586/924d6e2d-72bf-4dba-908d-f4ca79525a7f.png",
        "entry": 4658586,
        "entry_name": "winners",
        "event_total": 65,
        "has_played": true,
        "id": 35663616,
        "last_rank": 4515,
        "player_name": "Alaa Miled",
        "rank": 3358,
        "rank_sort": 3398,
        "total": 2423
      },
      {
        "club_badge_src": "https://fantasy.premierleague.com/gcs/plfpl-production-adobe-approved/plfpl-production/4680065/681cf119-7a12-4942-82c2-2b6b5668ab44.png",
        "entry": 4680065,
        "entry_name": "Awfington Rovers",
        "event_total": 63,
        "has_played": true,
        "id": 35858496,
        "last_rank": 4062,
        "player_name": "Fred Fox",
        "rank": 3358,
        "rank_sort": 3399,
        "total": 2423
      },
      {
        "club_badge_src": null,
        "entry": 5217988,
        "entry_name": "Delap Dance",
        "event_total": 63,
        "has_played": true,
        "id": 40427145,
        "last_rank": 4047,
        "player_name": "Steven Chapman",
        "rank": 3358,
        "rank_sort": 3400,
        "total": 2423
      }
    ]
  }
}