{
  "last_updated_data": "2026-05-24T23:28:17Z",
  "league": {
    "admin_entry": null,
    "closed": false,
    "code_privacy": "p",
    "created": "2025-07-20T23:14:33.933835Z",
    "cup_league": 2815434,
    "has_cup": true,
    "id": 314,
    "league_type": "s",
    "max_entries": null,
    "name": "Overall",
    "rank": null,
    "scoring": "c",
    "start_event": 1
  },
  "new_entries": {
    "has_next": false,
    "page": 1,
    "results": []
  },
  "standings": {
    "has_next": true,
    "page": 1198,
    "results": [
      {
        "club_badge_src": null,
        "entry": 295315,
        "entry_name": "Change Name",
        "event_total": 68,
        "has_played": true,
        "id": 1972463,
        "last_rank": 82664,
        "player_name": "William Howe",
        "rank": 59812,
        "rank_sort": 59851,
        "total": 2346
      },
      {
        "club_badge_src": null,
        "entry": 298349,
        "entry_name": "Maverick",
        "event_total": 38,
        "has_played": true,
        "id": 1994693,
        "last_rank": 33582,
        "player_name": "Valentine Kpodo",
        "rank": 59812,
        "rank_sort": 59852,
        "total": 2346
      },
      {
        "club_badge_src": null,
        "entry": 307504,
        "entry_name": "KLB",
        "event_total": 46,
        "has_played": true,
        "id": 2059530,
        "last_rank": 43342,
        "player_name": "Kasper Loft Bligaard",
        "rank": 59812,
        "rank_sort": 59853,
        "total": 2346
      },
      {
        "club_badge_src": null,
        "entry": 327950,
        "entry_name": "Draft 183",
        "event_total": 55,
        "has_played": true,
        "id": 2197132,
        "last_rank": 50468,
        "player_name": "Joe Dunderdale",
        "rank": 59812,
        "rank_sort": 59854,
        "total": 2346
      },
      {
        "club_badge_src": null,
        "entry": 373077,
        "entry_name": "Slow Joe's",
        "event_total": 61,
        "has_played": true,
        "id": 2496147,
        "last_rank": 67695,
        "player_name": "Joe Wilson",
        "rank": 59812,
        "rank_sort": 59855,
        "total": 2346
      },
      {
        "club_badge_src": null,
        "entry": 381972,
        "entry_name": "Russell Sprouts",
        "event_total": 53,
        "has_played": true,
        "id": 2561052,
        "last_rank": 53837,
        "player_name": "Aaron Russell",
        "rank": 59812,
        "rank_sort": 59856,
        "total": 2346
      },
      {
        "club_badge_src": null,
        "entry": 390904,
        "entry_name": "Average Joes",
        "event_total": 55,
        "has_played": true,
        "id": 2622108,
        "last_rank": 57200,
        "player_name": "Jordan Preston",
        "rank": 59812,
        "rank_sort": 59857,
        "total": 2346
      },
      {
        "club_badge_src": null,
        "entry": 403289,
        "entry_name": "The VARminators",
        "event_total": 69,
        "has_played": true,
        "id": 2704252,
        "last_rank": 84980,
        "player_name": "Nishan Bhatta",
        "rank": 59812,
        "rank_sort": 59858,
        "total": 2346
      },
      {
        "club_badge_src": null,
        "entry": 408794,
        "entry_name": "Gal\u00e1cticos",
        "event_total": 64,
        "has_played": true,
        "id": 2741313,
        "last_rank": 58388,
        "player_name": "Liam Denham",
        "rank": 59812,
        "rank_sort": 59859,
        "total": 2346
      },
      {
        "club_badge_src": null,
        "entry": 435434,
        "entry_name": "FC Kriegsmen",
        "event_total": 64,
        "has_played": true,
        "id": 2919911,
        "last_rank": 73975,
        "player_name": "Thijs Krijgsman Van Spangenberg",
        "rank": 59812,
        "rank_sort": 59860,
        "total": 2346
      },
      {
        "club_badge_src": "https://fantasy.premierleague.com/gcs/plfpl-production-adobe-approved/plfpl-production/453246/07056467-efc4-4776-995b-add26c33c90d.png",
        "entry": 453246,
        "entry_name": "3obad number 1",
        "event_total": 72,
        "has_played": true,
        "id": 3040407,
        "last_rank": 91835,
        "player_name": "Abdullah alaa",
        "rank": 59812,
        "rank_sort": 59861,
        "total": 2346
      },
      {
        "club_badge_src": null,
        "entry": 551045,
        "entry_name": "The Teflon Dons",
        "event_total": 71,
        "has_played": true,
        "id": 3709002,
        "last_rank": 71386,
        "player_name": "Luke Barnbrook",
        "rank": 59812,
        "rank_sort": 59862,
        "total": 2346
      },
      {
        "club_badge_src": null,
        "entry": 590429,
        "entry_name": "\u0160tanfa\u010di CF",
        "event_total": 60,
        "has_played": true,
        "id": 3977347,
        "last_rank": 66200,
        "player_name": "Luka Kalan",
        "rank": 59812,
        "rank_sort": 59863,
        "total": 2346
      },
      {
        "club_badge_src": null,
        "entry": 600987,
        "entry_name": "Ajerinho",
        "event_total": 62,
        "has_played": true,
        "id": 4055107,
        "last_rank": 69907,
        "player_name": "Andreas St\u00f8le-Hansen",
        "rank": 59812,
        "rank_sort": 59864,
        "total": 2346
      },
      {
        "club_badge_src": null,
        "entry": 626408,
        "entry_name": "WoT 96",
        "event_total": 74,
        "has_played": true,
        "id": 4233048,
        "last_rank": 87074,
        "player_name": "Bruce Thompson",
        "rank": 59812,
        "rank_sort": 59865,
        "total": 2346
      },
      {
        "club_badge_src": "https://fantasy.premierleague.com/gcs/plfpl-production-adobe-approved/plfpl-production/633234/ba669158-7298-405b-b862-c7bd1bb806c9.png",
        "entry": 633234,
        "entry_name": "DorisBollar",
        "event_total": 64,
        "has_played": true,
        "id": 4279002,
        "last_rank": 65796,
        "player_name": "Leo Diez",
        "rank": 59812,
        "rank_sort": 59866,
        "total": 2346
      },
      {
        "club_badge_src": null,
        "entry": 648940,
        "entry_name": "Rich Frosted",
        "event_total": 60,
        "has_played": true,
        "id": 4385795,
        "last_rank": 58688,
        "player_name": "Joel Timsman",
        "rank": 59812,
        "rank_sort": 59867,
        "total": 2346
      },
      {
        "club_badge_src": null,
        "entry": 659106,
        "entry_name": "AllMistakesAreMyOwn",
        "event_total": 50,
        "has_played": true,
        "id": 4454111,
        "last_rank": 37822,
        "player_name": "Luke Northern",
        "rank": 59812,
        "rank_sort": 59868,
        "total": 2346
      },
      {
        "club_badge_src": null,
        "entry": 705974,
        "entry_name": "Balding FC",
        "event_total": 72,
        "has_played": true,
        "id": 4784479,
        "last_rank": 82398,
        "player_name": "James Haley",
        "rank": 59812,
        "rank_sort": 59869,
        "total": 2346
      },
      {
        "club_badge_src": null,
        "entry": 714580,
        "entry_name": "Machine Gun Skelly",
        "event_total": 58,
        "has_played": true,
        "id": 4847984,
        "last_rank": 62429,
        "player_name": "Henry Walker",
        "rank": 59812,
        "rank_sort": 59870,
        "total": 2346
      },
      {
        "club_badge_src": null,
        "entry": 736531,
        "entry_name": "Runaldinho",
        "event_total": 54,
        "has_played": true,
        "id": 5007054,
        "last_rank": 48898,
        "player_name": "Rune Danielsen",
        "rank": 59812,
        "rank_sort": 59871,
        "total": 2346
      },
      {
        "club_badge_src": null,
        "entry": 756400,
        "entry_name": "Under my Cucurella",
        "event_total": 54,
        "has_played": true,
        "id": 5149741,
        "last_rank": 55514,
        "player_name": "John Hayes",
        "rank": 59812,
        "rank_sort": 59872,
        "total": 2346
      },
      {
        "club_badge_src": null,
        "entry": 762335,
        "entry_name": "Chip DC and Mark FC",
        "event_total": 63,
        "has_played": true,
        "id": 5198813,
        "last_rank": 71956,
        "player_name": "ian laurie",
        "rank": 59812,
        "rank_sort": 59873,
        "total": 2346
      },
      {
        "club_badge_src": "https://fantasy.premierleague.com/gcs/plfpl-production-adobe-approved/plfpl-production/789686/c9daf9ff-562c-4ad0-8a95-4d3269f718cd.png",
        "entry": 789686,
        "entry_name": "Dalai Tama**",
        "event_total": 60,
        "has_played": true,
        "id": 5402491,
        "last_rank": 66057,
        "player_name": "Vladimir Cvijovic",
        "rank": 59812,
        "rank_sort": 59874,
        "total": 2346
      },
      {
        "club_badge_src": null,
        "entry": 794495,
        "entry_name": "NotTheWirst",
        "event_total": 69,
        "has_played": true,
        "id": 5437238,
        "last_rank": 83934,
        "player_name": "Grant Wales",
        "rank": 59812,
        "rank_sort": 59875,
        "total": 2346
      },
      {
        "club_badge_src": null,
        "entry": 804116,
        "entry_name": "FC BAABU",
        "event_total": 65,
        "has_played": true,
        "id": 5504517,
        "last_rank": 67695,
        "player_name": "Aafaaq Saeed",
        "rank": 59812,
        "rank_sort": 59876,
        "total": 2346
      },
      {
        "club_badge_src": "https://fantasy.premierleague.com/gcs/plfpl-production-adobe-approved/plfpl-production/807606/5dcb59f4-f413-4960-a95d-4ea5cabb9399.png",
        "entry": 807606,
        "entry_name": "Delap and Tickle",
        "event_total": 33,
        "has_played": true,
        "id": 5528915,
        "last_rank": 28273,
        "player_name": "Luke Churchill",
        "rank": 59812,
        "rank_sort": 59877,
        "total": 2346
      },
      {
        "club_badge_src": "https://fantasy.premierleague.com/gcs/plfpl-production-adobe-approved/plfpl-production/823088/bb50a3d1-c768-429c-8118-fabb86ce54e3.png",
        "entry": 823088,
        "entry_name": "Ealthawadi",
        "event_total": 66,
        "has_played": true,
        "id": 5637136,
        "last_rank": 78244,
        "player_name": "\u0627\u0628\u0631\u0627\u0647\u064a\u0645 \u0627\u0644\u0630\u0648\u0627\u062f\u064a",
        "rank": 59812,
        "rank_sort": 59878,
        "total": 2346
      },
      {
        "club_badge_src": null,
        "entry": 827452,
        "entry_name": "stoney fc",
        "event_total": 67,
        "has_played": true,
        "id": 5667302,
        "last_rank": 80465,
        "player_name": "victor ibarbo",
        "rank": 59812,
        "rank_sort": 59879,
        "total": 2346
      },
      {
        "club_badge_src": null,
        "entry": 827929,
        "entry_name": "Just can\u2019t get Diouf",
        "event_total": 65,
        "has_played": true,
        "id": 5670622,
        "last_rank": 76128,
        "player_name": "Shane Burke",
        "rank": 59812,
        "rank_sort": 59880,
        "total": 2346
      },
      {
        "club_badge_src": null,
        "entry": 862478,
        "entry_name": "GyksZubiMoody FC",
        "event_total": 46,
        "has_played": true,
        "id": 5912537,
        "last_rank": 43342,
        "player_name": "Timi Moody",
        "rank": 59812,
        "rank_sort": 59881,
        "total": 2346
      },
      {
        "club_badge_src": null,
        "entry": 879163,
        "entry_name": "Bentekkers FC",
        "event_total": 68,
        "has_played": true,
        "id": 6028730,
        "last_rank": 82664,
        "player_name": "Ben Prentice",
        "rank": 59812,
        "rank_sort": 59882,
        "total": 2346
      },
      {
        "club_badge_src": "https://fantasy.premierleague.com/gcs/plfpl-production-adobe-approved/plfpl-production/907237/33620c20-dd50-432b-82d2-90cd3bdb010b.png",
        "entry": 907237,
        "entry_name": "FURY_the_TOXIC",
        "event_total": 66,
        "has_played": true,
        "id": 6236271,
        "last_rank": 78244,
        "player_name": "Hussein Karaki",
        "rank": 59812,
        "rank_sort": 59883,
        "total": 2346
      },
      {
        "club_badge_src": null,
        "entry": 914272,
        "entry_name": "Livipool",
        "event_total": 57,
        "has_played": true,
        "id": 6286775,
        "last_rank": 53621,
        "player_name": "Marcus Anderson",
        "rank": 59812,
        "rank_sort": 59884,
        "total": 2346
      },
      {
        "club_badge_src": null,
        "entry": 924348,
        "entry_name": "Llanishen Bluebirds",
        "event_total": 68,
        "has_played": true,
        "id": 6358641,
        "last_rank": 73720,
        "player_name": "Matthew Scanlon",
        "rank": 59812,
        "rank_sort": 59885,
        "total": 2346
      },
      {
        "club_badge_src": null,
        "entry": 928374,
        "entry_name": "PL Mania",
        "event_total": 60,
        "has_played": true,
        "id": 6387387,
        "last_rank": 65796,
        "player_name": "Merethe Framnes Steinsb\u00f8",
        "rank": 59812,
        "rank_sort": 59886,
        "total": 2346
      },
      {
        "club_badge_src": null,
        "entry": 928827,
        "entry_name": "LeoKotsio",
        "event_total": 58,
        "has_played": true,
        "id": 6390765,
        "last_rank": 55311,
        "player_name": "Constantinos Charalambous",
        "rank": 59812,
        "rank_sort": 59887,
        "total": 2346
      },
      {
        "club_badge_src": null,
        "entry": 979684,
        "entry_name": "The Communists",
        "event_total": 63,
        "has_played": true,
        "id": 6753938,
        "last_rank": 71386,
        "player_name": "B B",
        "rank": 59812,
        "rank_sort": 59888,
        "total": 2346
      },
      {
        "club_badge_src": null,
        "entry": 1017756,
        "entry_name": "Olaniyi",
        "event_total": 65,
        "has_played": true,
        "id": 7041137,
        "last_rank": 67695,
        "player_name": "Olaniyi Oluwasegun",
        "rank": 59812,
        "rank_sort": 59889,
        "total": 2346
      },
      {
        "club_badge_src": null,
        "entry": 1022994,
        "entry_name": "visca bar\u00e7a",
        "event_total": 56,
        "has_played": true,
        "id": 7077666,
        "last_rank": 58911,
        "player_name": "Ahmed Elsayed",
        "rank": 59812,
        "rank_sort": 59890,
        "total": 2346
      },
      {
        "club_badge_src": null,
        "entry": 1085990,
        "entry_name": "TagerVadManHavertz",
        "event_total": 61,
        "has_played": true,
        "id": 7520858,
        "last_rank": 60168,
        "player_name": "Anders Englin",
        "rank": 59812,
        "rank_sort": 59891,
        "total": 2346
      },
      {
        "club_badge_src": null,
        "entry": 1115262,
        "entry_name": "Merimiessolmu",
        "event_total": 55,
        "has_played": true,
        "id": 7725114,
        "last_rank": 57358,
        "player_name": "Mikko Rauma",
        "rank": 59812,
        "rank_sort": 59892,
        "total": 2346
      },
      {
        "club_badge_src": null,
        "entry": 1138467,
        "entry_name": "No MerCi",
        "event_total": 68,
        "has_played": true,
        "id": 7891585,
        "last_rank": 82398,
        "player_name": "Karim Elhousieny",
        "rank": 59812,
        "rank_sort": 59893,
        "total": 2346
      },
      {
        "club_badge_src": null,
        "entry": 1328130,
        "entry_name": "Holy Gyokamoly",
        "event_total": 47,
        "has_played": true,
        "id": 9231670,
        "last_rank": 44672,
        "player_name": "Neil Broughton",
        "rank": 59812,
        "rank_sort": 59894,
        "total": 2346
      },
      {
        "club_badge_src": null,
        "entry": 1346462,
        "entry_name": "Dimas JT",
        "event_total": 49,
        "has_played": true,
        "id": 9361089,
        "last_rank": 47596,
        "player_name": "Dmytro Chumakov",
        "rank": 59812,
        "rank_sort": 59895,
        "total": 2346
      },
      {
        "club_badge_src": "https://fantasy.premierleague.com/gcs/plfpl-production-adobe-approved/plfpl-production/1377828/9f5added-2a0e-4537-a9c4-a413e7abcd54.png",
        "entry": 1377828,
        "entry_name": "Bayer Neverlusen",
        "event_total": 58,
        "has_played": true,
        "id": 9577734,
        "last_rank": 62223,
        "player_name": "Hakaishin Bangzz",
        "rank": 59812,
        "rank_sort": 59896,
        "total": 2346
      },
      {
        "club_badge_src": null,
        "entry": 1426351,
        "entry_name": "Shelby",
        "event_total": 71,
        "has_played": true,
        "id": 9938097,
        "last_rank": 80194,
        "player_name": "Daniel Ndirangu",
        "rank": 59812,
        "rank_sort": 59897,
        "total": 2346
      },
      {
        "club_badge_src": null,
        "entry": 1433032,
        "entry_name": "Sorry Nic Jackson",
        "event_total": 63,
        "has_played": true,
        "id": 9985447,
        "last_rank": 71956,
        "player_name": "Karl Fawcett",
        "rank": 59812,
        "rank_sort": 59898,
        "total": 2346
      },
      {
        "club_badge_src": "https://fantasy.premierleague.com/gcs/plfpl-production-adobe-approved/plfpl-production/1437922/c24e5bbf-30da-42f1-9ad7-4ab250b5f58f.png",
        "entry": 1437922,
        "entry_name": "Minhoca F.C.",
        "event_total": 71,
        "has_played": true,
        "id": 10019461,
        "last_rank": 80194,
        "player_name": "David Soares",
        "rank": 59812,
        "rank_sort": 59899,
        "total": 2346
      },
      {
        "club_badge_src": null,
        "entry": 1508117,
        "entry_name": "Gibber\u2019s Galacticos",
        "event_total": 62,
        "has_played": true,
        "id": 10518219,
        "last_rank": 61950,
        "player_name": "Sam Gribben",
        "rank": 59812,
        "rank_sort": 59900,
        "total": 2346
      }
    ]
  }
}