{
  "last_updated_data": "2026-05-24T23:28:17Z",
  "league": {
    "admin_entry": null,
    "closed": false,
    "code_privacy": "p",
    "created": "2025-07-20T23:14:33.933835Z",
    "cup_league": 2815434,
    "has_cup": true,
    "id": 314,
    "league_type": "s",
    "max_entries": null,
    "name": "Overall",
    "rank": null,
    "scoring": "c",
    "start_event": 1
  },
  "new_entries": {
    "has_next": false,
    "page": 1,
    "results": []
  },
  "standings": {
    "has_next": true,
    "page": 952,
    "results": [
      {
        "club_badge_src": null,
        "entry": 871963,
        "entry_name": "LCFCMarti-anInvasion",
        "event_total": 63,
        "has_played": true,
        "id": 5978088,
        "last_rank": 57557,
        "player_name": "Paul Watson",
        "rank": 47547,
        "rank_sort": 47551,
        "total": 2354
      },
      {
        "club_badge_src": "https://fantasy.premierleague.com/gcs/plfpl-production-adobe-approved/plfpl-production/894159/0a37107a-2bf9-4273-b071-25d08a176e8b.png",
        "entry": 894159,
        "entry_name": "Shidane FC",
        "event_total": 58,
        "has_played": true,
        "id": 6142203,
        "last_rank": 49368,
        "player_name": "Mursyidan Aziz",
        "rank": 47547,
        "rank_sort": 47552,
        "total": 2354
      },
      {
        "club_badge_src": null,
        "entry": 960923,
        "entry_name": "Slot Machine",
        "event_total": 66,
        "has_played": true,
        "id": 6621767,
        "last_rank": 62724,
        "player_name": "Glenn Derbyshire",
        "rank": 47547,
        "rank_sort": 47553,
        "total": 2354
      },
      {
        "club_badge_src": null,
        "entry": 984763,
        "entry_name": "Optimus Prime",
        "event_total": 58,
        "has_played": true,
        "id": 6789531,
        "last_rank": 38340,
        "player_name": "Andri Krissetiyono",
        "rank": 47547,
        "rank_sort": 47554,
        "total": 2354
      },
      {
        "club_badge_src": null,
        "entry": 995057,
        "entry_name": "Jurrien Tinder",
        "event_total": 71,
        "has_played": true,
        "id": 6867043,
        "last_rank": 64422,
        "player_name": "Christian Aldridge",
        "rank": 47547,
        "rank_sort": 47555,
        "total": 2354
      },
      {
        "club_badge_src": "https://fantasy.premierleague.com/gcs/plfpl-production-adobe-approved/plfpl-production/1025764/a19e1c24-1a7c-4e21-9cb6-5b9874e2f998.png",
        "entry": 1025764,
        "entry_name": "Fpl_Aura",
        "event_total": 75,
        "has_played": true,
        "id": 7096824,
        "last_rank": 72346,
        "player_name": "Franky Khanuja",
        "rank": 47547,
        "rank_sort": 47556,
        "total": 2354
      },
      {
        "club_badge_src": null,
        "entry": 1199524,
        "entry_name": "jrdnns ez win",
        "event_total": 63,
        "has_played": true,
        "id": 8324078,
        "last_rank": 39510,
        "player_name": "Jordan mcmullan",
        "rank": 47547,
        "rank_sort": 47557,
        "total": 2354
      },
      {
        "club_badge_src": null,
        "entry": 1292350,
        "entry_name": "Broncos",
        "event_total": 66,
        "has_played": true,
        "id": 8980314,
        "last_rank": 55747,
        "player_name": "Hashem H",
        "rank": 47547,
        "rank_sort": 47558,
        "total": 2354
      },
      {
        "club_badge_src": "https://fantasy.premierleague.com/gcs/plfpl-production-adobe-approved/plfpl-production/1462747/69b7ab1e-09ec-47d3-bb31-666ccd82a96b.png",
        "entry": 1462747,
        "entry_name": "Vardys Brexit Escape",
        "event_total": 58,
        "has_played": true,
        "id": 10195965,
        "last_rank": 49407,
        "player_name": "James McElvenney",
        "rank": 47547,
        "rank_sort": 47559,
        "total": 2354
      },
      {
        "club_badge_src": "https://fantasy.premierleague.com/gcs/plfpl-production-adobe-approved/plfpl-production/1513473/44b166f6-9903-498e-8ddf-2086a1b66d66.png",
        "entry": 1513473,
        "entry_name": "Better Call Salah",
        "event_total": 60,
        "has_played": true,
        "id": 10555873,
        "last_rank": 46313,
        "player_name": "Piotr Jasiak",
        "rank": 47547,
        "rank_sort": 47560,
        "total": 2354
      },
      {
        "club_badge_src": null,
        "entry": 1605052,
        "entry_name": "Dutch Wall",
        "event_total": 40,
        "has_played": true,
        "id": 11229200,
        "last_rank": 20727,
        "player_name": "mike zethof",
        "rank": 47547,
        "rank_sort": 47561,
        "total": 2354
      },
      {
        "club_badge_src": null,
        "entry": 1617088,
        "entry_name": "Jimbob Athletic",
        "event_total": 49,
        "has_played": true,
        "id": 11315596,
        "last_rank": 37236,
        "player_name": "JAMES CRAGG",
        "rank": 47547,
        "rank_sort": 47562,
        "total": 2354
      },
      {
        "club_badge_src": "https://fantasy.premierleague.com/gcs/plfpl-production-adobe-approved/plfpl-production/1701802/584f473f-f15d-40a9-b039-1cde28ac0c32.png",
        "entry": 1701802,
        "entry_name": "Gomez",
        "event_total": 52,
        "has_played": true,
        "id": 11920951,
        "last_rank": 35969,
        "player_name": "\u062f\u0648\u0627\u0631 \u0627\u0644\u0638\u0644\u0645\u0647",
        "rank": 47547,
        "rank_sort": 47563,
        "total": 2354
      },
      {
        "club_badge_src": null,
        "entry": 1709648,
        "entry_name": "FPL\u2606Kalla",
        "event_total": 74,
        "has_played": true,
        "id": 11978613,
        "last_rank": 70276,
        "player_name": "Kyle Oliphant",
        "rank": 47547,
        "rank_sort": 47564,
        "total": 2354
      },
      {
        "club_badge_src": null,
        "entry": 2802746,
        "entry_name": "Picks Paps United",
        "event_total": 56,
        "has_played": true,
        "id": 20467012,
        "last_rank": 40878,
        "player_name": "Richard Pickup",
        "rank": 47547,
        "rank_sort": 47565,
        "total": 2354
      },
      {
        "club_badge_src": null,
        "entry": 3407971,
        "entry_name": "City Butchers",
        "event_total": 55,
        "has_played": true,
        "id": 25308656,
        "last_rank": 45007,
        "player_name": "Benyoucef Mouadh",
        "rank": 47547,
        "rank_sort": 47566,
        "total": 2354
      },
      {
        "club_badge_src": "https://fantasy.premierleague.com/gcs/plfpl-production-adobe-approved/plfpl-production/3632690/2b3dcf9a-8463-4f10-9f7a-5676b8479750.png",
        "entry": 3632690,
        "entry_name": "NydeligFlott",
        "event_total": 46,
        "has_played": true,
        "id": 27070898,
        "last_rank": 33729,
        "player_name": "Julie Haugland Henriksen",
        "rank": 47547,
        "rank_sort": 47567,
        "total": 2354
      },
      {
        "club_badge_src": null,
        "entry": 3763168,
        "entry_name": "ChickenTikkaMoSalah",
        "event_total": 56,
        "has_played": true,
        "id": 28097841,
        "last_rank": 40878,
        "player_name": "Charlie Pascal",
        "rank": 47547,
        "rank_sort": 47568,
        "total": 2354
      },
      {
        "club_badge_src": null,
        "entry": 3886384,
        "entry_name": "Spurs4ever",
        "event_total": 71,
        "has_played": true,
        "id": 29203415,
        "last_rank": 72407,
        "player_name": "Olav Bj\u00f8rn\u00e5s",
        "rank": 47547,
        "rank_sort": 47569,
        "total": 2354
      },
      {
        "club_badge_src": "https://fantasy.premierleague.com/gcs/plfpl-production-adobe-approved/plfpl-production/4083766/dc7c533f-a608-4831-a614-1fc67c9be409.png",
        "entry": 4083766,
        "entry_name": "Ugarte Be Kidding Me",
        "event_total": 57,
        "has_played": true,
        "id": 30830147,
        "last_rank": 42225,
        "player_name": "Dion Moodley",
        "rank": 47547,
        "rank_sort": 47570,
        "total": 2354
      },
      {
        "club_badge_src": null,
        "entry": 4631702,
        "entry_name": "Mostafa Khalil",
        "event_total": 45,
        "has_played": true,
        "id": 35415984,
        "last_rank": 32552,
        "player_name": "Mostafa Khalil",
        "rank": 47547,
        "rank_sort": 47571,
        "total": 2354
      },
      {
        "club_badge_src": null,
        "entry": 5476782,
        "entry_name": "FC Bruno",
        "event_total": 57,
        "has_played": true,
        "id": 42636770,
        "last_rank": 42225,
        "player_name": "Sondre Sollied",
        "rank": 47547,
        "rank_sort": 47572,
        "total": 2354
      },
      {
        "club_badge_src": null,
        "entry": 5599993,
        "entry_name": "Zaheer Sesko fc",
        "event_total": 57,
        "has_played": true,
        "id": 43756368,
        "last_rank": 47868,
        "player_name": "ABDIRASHID Martinez",
        "rank": 47547,
        "rank_sort": 47573,
        "total": 2354
      },
      {
        "club_badge_src": null,
        "entry": 6273494,
        "entry_name": "THE END",
        "event_total": 46,
        "has_played": true,
        "id": 49678080,
        "last_rank": 33695,
        "player_name": "Mostafa Ben yahya",
        "rank": 47547,
        "rank_sort": 47574,
        "total": 2354
      },
      {
        "club_badge_src": null,
        "entry": 6990885,
        "entry_name": "Ctrl Alt DeLigt",
        "event_total": 66,
        "has_played": true,
        "id": 56118933,
        "last_rank": 62874,
        "player_name": "Sindre Svadberg",
        "rank": 47547,
        "rank_sort": 47575,
        "total": 2354
      },
      {
        "club_badge_src": null,
        "entry": 7642372,
        "entry_name": "Change Name FC",
        "event_total": 49,
        "has_played": true,
        "id": 62646736,
        "last_rank": 37211,
        "player_name": "Joe Knott",
        "rank": 47547,
        "rank_sort": 47576,
        "total": 2354
      },
      {
        "club_badge_src": null,
        "entry": 8712344,
        "entry_name": "blloodykoivu",
        "event_total": 81,
        "has_played": true,
        "id": 72698653,
        "last_rank": 60671,
        "player_name": "Bloody Koivu",
        "rank": 47547,
        "rank_sort": 47577,
        "total": 2354
      },
      {
        "club_badge_src": null,
        "entry": 8961154,
        "entry_name": "yousef",
        "event_total": 65,
        "has_played": true,
        "id": 75107005,
        "last_rank": 61045,
        "player_name": "Youssef ashraf",
        "rank": 47547,
        "rank_sort": 47578,
        "total": 2354
      },
      {
        "club_badge_src": "https://fantasy.premierleague.com/gcs/plfpl-production-adobe-approved/plfpl-production/42023/bf0bd56b-c890-491c-a214-681b1ffbe8b2.png",
        "entry": 42023,
        "entry_name": "TODAK FC",
        "event_total": 60,
        "has_played": true,
        "id": 269278,
        "last_rank": 52561,
        "player_name": "MRIEZAL KAMARUZAMAN",
        "rank": 47579,
        "rank_sort": 47579,
        "total": 2354
      },
      {
        "club_badge_src": null,
        "entry": 150021,
        "entry_name": "Onana's in Pyjamas",
        "event_total": 53,
        "has_played": true,
        "id": 983738,
        "last_rank": 42293,
        "player_name": "Liam Woodrow",
        "rank": 47579,
        "rank_sort": 47580,
        "total": 2354
      },
      {
        "club_badge_src": null,
        "entry": 519464,
        "entry_name": "Tick \ufffd",
        "event_total": 63,
        "has_played": true,
        "id": 3487983,
        "last_rank": 57596,
        "player_name": "Ololade Mingle",
        "rank": 47579,
        "rank_sort": 47581,
        "total": 2354
      },
      {
        "club_badge_src": null,
        "entry": 555112,
        "entry_name": "Waves",
        "event_total": 55,
        "has_played": true,
        "id": 3736190,
        "last_rank": 39673,
        "player_name": "Kristian Lorentzen",
        "rank": 47579,
        "rank_sort": 47582,
        "total": 2354
      },
      {
        "club_badge_src": null,
        "entry": 1091340,
        "entry_name": "Beckstars",
        "event_total": 67,
        "has_played": true,
        "id": 7558462,
        "last_rank": 57515,
        "player_name": "Michael Beckett",
        "rank": 47579,
        "rank_sort": 47583,
        "total": 2354
      },
      {
        "club_badge_src": null,
        "entry": 1795374,
        "entry_name": "Wings FC",
        "event_total": 66,
        "has_played": true,
        "id": 12616660,
        "last_rank": 62874,
        "player_name": "Kate Randell",
        "rank": 47579,
        "rank_sort": 47584,
        "total": 2354
      },
      {
        "club_badge_src": null,
        "entry": 2073406,
        "entry_name": "Yor_Forger",
        "event_total": 60,
        "has_played": true,
        "id": 14700241,
        "last_rank": 46406,
        "player_name": "yor forger",
        "rank": 47579,
        "rank_sort": 47585,
        "total": 2354
      },
      {
        "club_badge_src": null,
        "entry": 2902272,
        "entry_name": "Falcons",
        "event_total": 75,
        "has_played": true,
        "id": 21268510,
        "last_rank": 57358,
        "player_name": "Schone Divekar",
        "rank": 47579,
        "rank_sort": 47586,
        "total": 2354
      },
      {
        "club_badge_src": null,
        "entry": 2953620,
        "entry_name": "McGinn and Tonic",
        "event_total": 48,
        "has_played": true,
        "id": 21693085,
        "last_rank": 36015,
        "player_name": "Geoff Hackett",
        "rank": 47579,
        "rank_sort": 47587,
        "total": 2354
      },
      {
        "club_badge_src": null,
        "entry": 3261364,
        "entry_name": "Pian UTD",
        "event_total": 53,
        "has_played": true,
        "id": 24132236,
        "last_rank": 42263,
        "player_name": "Pian Woraton",
        "rank": 47579,
        "rank_sort": 47588,
        "total": 2354
      },
      {
        "club_badge_src": "https://fantasy.premierleague.com/gcs/plfpl-production-adobe-approved/plfpl-production/3357831/b4d3c064-66fc-4ed3-9c5f-d5b55ff0dd4e.png",
        "entry": 3357831,
        "entry_name": "QuitYourJibbaJabba",
        "event_total": 88,
        "has_played": true,
        "id": 24913102,
        "last_rank": 113553,
        "player_name": "Alex Fitzpatrick",
        "rank": 47579,
        "rank_sort": 47589,
        "total": 2354
      },
      {
        "club_badge_src": "https://fantasy.premierleague.com/gcs/plfpl-production-adobe-approved/plfpl-production/3411435/6f45b932-9322-43d2-9d12-e2bdd6190917.png",
        "entry": 3411435,
        "entry_name": "cunha dig it sucker!",
        "event_total": 65,
        "has_played": true,
        "id": 25335324,
        "last_rank": 61045,
        "player_name": "Danny Buglione",
        "rank": 47579,
        "rank_sort": 47590,
        "total": 2354
      },
      {
        "club_badge_src": null,
        "entry": 4714407,
        "entry_name": "Halaan",
        "event_total": 68,
        "has_played": true,
        "id": 36188611,
        "last_rank": 66487,
        "player_name": "Moaz Mohamed",
        "rank": 47579,
        "rank_sort": 47591,
        "total": 2354
      },
      {
        "club_badge_src": "https://fantasy.premierleague.com/gcs/plfpl-production-adobe-approved/plfpl-production/6360568/e5b362e5-13a4-4024-bb87-e2f728113dca.png",
        "entry": 6360568,
        "entry_name": "Sentiong United",
        "event_total": 76,
        "has_played": true,
        "id": 50572485,
        "last_rank": 83127,
        "player_name": "Anugrah Murraya",
        "rank": 47579,
        "rank_sort": 47592,
        "total": 2354
      },
      {
        "club_badge_src": null,
        "entry": 6720313,
        "entry_name": "EasyMoney",
        "event_total": 50,
        "has_played": true,
        "id": 53784335,
        "last_rank": 38391,
        "player_name": "Yannick Emilien Helfenstein",
        "rank": 47579,
        "rank_sort": 47593,
        "total": 2354
      },
      {
        "club_badge_src": null,
        "entry": 7479499,
        "entry_name": "Eslam99",
        "event_total": 68,
        "has_played": true,
        "id": 61016142,
        "last_rank": 59291,
        "player_name": "Eslam Shaban",
        "rank": 47579,
        "rank_sort": 47594,
        "total": 2354
      },
      {
        "club_badge_src": null,
        "entry": 8941113,
        "entry_name": "Omar's",
        "event_total": 73,
        "has_played": true,
        "id": 74912075,
        "last_rank": 68351,
        "player_name": "Omar Fathy",
        "rank": 47579,
        "rank_sort": 47595,
        "total": 2354
      },
      {
        "club_badge_src": null,
        "entry": 9345784,
        "entry_name": "Fotballjomfrua",
        "event_total": 47,
        "has_played": true,
        "id": 78847488,
        "last_rank": 30395,
        "player_name": "Tone Nilsen",
        "rank": 47579,
        "rank_sort": 47596,
        "total": 2354
      },
      {
        "club_badge_src": null,
        "entry": 118601,
        "entry_name": "RRRRRR-",
        "event_total": 67,
        "has_played": true,
        "id": 774001,
        "last_rank": 57451,
        "player_name": "Ken How",
        "rank": 47597,
        "rank_sort": 47597,
        "total": 2354
      },
      {
        "club_badge_src": null,
        "entry": 198336,
        "entry_name": "The Numskulls",
        "event_total": 67,
        "has_played": true,
        "id": 1316182,
        "last_rank": 57557,
        "player_name": "Richard Barnes",
        "rank": 47597,
        "rank_sort": 47598,
        "total": 2354
      },
      {
        "club_badge_src": null,
        "entry": 292744,
        "entry_name": "Game of Stones",
        "event_total": 71,
        "has_played": true,
        "id": 1953590,
        "last_rank": 57557,
        "player_name": "Daniel Kitchen",
        "rank": 47597,
        "rank_sort": 47599,
        "total": 2354
      },
      {
        "club_badge_src": null,
        "entry": 626970,
        "entry_name": "Back of the Neto",
        "event_total": 52,
        "has_played": true,
        "id": 4236801,
        "last_rank": 40986,
        "player_name": "Connor Stoddart",
        "rank": 47597,
        "rank_sort": 47600,
        "total": 2354
      }
    ]
  }
}