{
  "last_updated_data": "2026-05-24T23:28:17Z",
  "league": {
    "admin_entry": null,
    "closed": false,
    "code_privacy": "p",
    "created": "2025-07-20T23:14:33.933835Z",
    "cup_league": 2815434,
    "has_cup": true,
    "id": 314,
    "league_type": "s",
    "max_entries": null,
    "name": "Overall",
    "rank": null,
    "scoring": "c",
    "start_event": 1
  },
  "new_entries": {
    "has_next": false,
    "page": 1,
    "results": []
  },
  "standings": {
    "has_next": true,
    "page": 232,
    "results": [
      {
        "club_badge_src": null,
        "entry": 7860783,
        "entry_name": "Sloooom22",
        "event_total": 67,
        "has_played": true,
        "id": 64630240,
        "last_rank": 16512,
        "player_name": "Salman Alharbi",
        "rank": 11502,
        "rank_sort": 11551,
        "total": 2395
      },
      {
        "club_badge_src": null,
        "entry": 8307104,
        "entry_name": "nambawan ft",
        "event_total": 56,
        "has_played": true,
        "id": 68784667,
        "last_rank": 10600,
        "player_name": "Fahim Mohamad",
        "rank": 11502,
        "rank_sort": 11552,
        "total": 2395
      },
      {
        "club_badge_src": null,
        "entry": 8665776,
        "entry_name": "nonzino",
        "event_total": 70,
        "has_played": true,
        "id": 72246264,
        "last_rank": 15694,
        "player_name": "Emil Stava",
        "rank": 11502,
        "rank_sort": 11553,
        "total": 2395
      },
      {
        "club_badge_src": null,
        "entry": 2888,
        "entry_name": "Nsr",
        "event_total": 64,
        "has_played": true,
        "id": 16250,
        "last_rank": 12470,
        "player_name": "Naser Alsanat",
        "rank": 11554,
        "rank_sort": 11554,
        "total": 2395
      },
      {
        "club_badge_src": null,
        "entry": 26461,
        "entry_name": "Hamburglars FC",
        "event_total": 49,
        "has_played": true,
        "id": 167301,
        "last_rank": 6614,
        "player_name": "tom ham",
        "rank": 11554,
        "rank_sort": 11555,
        "total": 2395
      },
      {
        "club_badge_src": null,
        "entry": 33719,
        "entry_name": "Kaido",
        "event_total": 69,
        "has_played": true,
        "id": 215173,
        "last_rank": 15226,
        "player_name": "Abdulrahman alghamdi",
        "rank": 11554,
        "rank_sort": 11556,
        "total": 2395
      },
      {
        "club_badge_src": null,
        "entry": 63923,
        "entry_name": "ExpectedToulouse",
        "event_total": 71,
        "has_played": true,
        "id": 412504,
        "last_rank": 16320,
        "player_name": "Rogier Deelstra",
        "rank": 11554,
        "rank_sort": 11557,
        "total": 2395
      },
      {
        "club_badge_src": null,
        "entry": 76099,
        "entry_name": "76099",
        "event_total": 53,
        "has_played": true,
        "id": 494717,
        "last_rank": 9382,
        "player_name": "Matthew CY Chan",
        "rank": 11554,
        "rank_sort": 11558,
        "total": 2395
      },
      {
        "club_badge_src": "https://fantasy.premierleague.com/gcs/plfpl-production-adobe-approved/plfpl-production/87649/c7e7b91c-efdf-4fbf-83f0-88b376776c4d.png",
        "entry": 87649,
        "entry_name": "Fariolismo",
        "event_total": 59,
        "has_played": true,
        "id": 571653,
        "last_rank": 10151,
        "player_name": "Jo\u00e3o Miranda",
        "rank": 11554,
        "rank_sort": 11559,
        "total": 2395
      },
      {
        "club_badge_src": "https://fantasy.premierleague.com/gcs/plfpl-production-adobe-approved/plfpl-production/120315/af7db138-1b78-45df-8a93-13c7d65eb8ea.png",
        "entry": 120315,
        "entry_name": "Todd Boehly",
        "event_total": 65,
        "has_played": true,
        "id": 785006,
        "last_rank": 12995,
        "player_name": "Bari Satrio",
        "rank": 11554,
        "rank_sort": 11560,
        "total": 2395
      },
      {
        "club_badge_src": "https://fantasy.premierleague.com/gcs/plfpl-production-adobe-approved/plfpl-production/186549/e5780fba-7660-4d74-9332-7d8b5686ba97.png",
        "entry": 186549,
        "entry_name": "From Bad to Wirtz",
        "event_total": 50,
        "has_played": true,
        "id": 1232967,
        "last_rank": 8260,
        "player_name": "Jason Shepherd-Abdullah",
        "rank": 11554,
        "rank_sort": 11561,
        "total": 2395
      },
      {
        "club_badge_src": null,
        "entry": 215683,
        "entry_name": "JMRB",
        "event_total": 65,
        "has_played": true,
        "id": 1434545,
        "last_rank": 12940,
        "player_name": "Jon Bailey",
        "rank": 11554,
        "rank_sort": 11562,
        "total": 2395
      },
      {
        "club_badge_src": null,
        "entry": 504921,
        "entry_name": "Live And Let Ndiaye",
        "event_total": 50,
        "has_played": true,
        "id": 3389125,
        "last_rank": 6927,
        "player_name": "Vicky Gore",
        "rank": 11554,
        "rank_sort": 11563,
        "total": 2395
      },
      {
        "club_badge_src": null,
        "entry": 661457,
        "entry_name": "Prime Citeh",
        "event_total": 60,
        "has_played": true,
        "id": 4470762,
        "last_rank": 12512,
        "player_name": "Ray Ntukz",
        "rank": 11554,
        "rank_sort": 11564,
        "total": 2395
      },
      {
        "club_badge_src": null,
        "entry": 663349,
        "entry_name": "Mo_Mostafa84",
        "event_total": 79,
        "has_played": true,
        "id": 4484514,
        "last_rank": 25330,
        "player_name": "Mohamed Mostafa",
        "rank": 11554,
        "rank_sort": 11565,
        "total": 2395
      },
      {
        "club_badge_src": "https://fantasy.premierleague.com/gcs/plfpl-production-adobe-approved/plfpl-production/1327273/83f65f51-96d3-42ca-9470-4c7636261522.png",
        "entry": 1327273,
        "entry_name": "The Mathletes",
        "event_total": 53,
        "has_played": true,
        "id": 9225785,
        "last_rank": 9382,
        "player_name": "Tom Meechan",
        "rank": 11554,
        "rank_sort": 11566,
        "total": 2395
      },
      {
        "club_badge_src": null,
        "entry": 1522373,
        "entry_name": "gagok putih",
        "event_total": 70,
        "has_played": true,
        "id": 10618110,
        "last_rank": 18555,
        "player_name": "seluar londeh",
        "rank": 11554,
        "rank_sort": 11567,
        "total": 2395
      },
      {
        "club_badge_src": null,
        "entry": 2320633,
        "entry_name": "The Wonder Stuff",
        "event_total": 63,
        "has_played": true,
        "id": 16554737,
        "last_rank": 14148,
        "player_name": "Ged Foster",
        "rank": 11554,
        "rank_sort": 11568,
        "total": 2395
      },
      {
        "club_badge_src": null,
        "entry": 2408181,
        "entry_name": "konta",
        "event_total": 54,
        "has_played": true,
        "id": 17213403,
        "last_rank": 8234,
        "player_name": "Mohammed Konta",
        "rank": 11554,
        "rank_sort": 11569,
        "total": 2395
      },
      {
        "club_badge_src": null,
        "entry": 2935158,
        "entry_name": "Work Life Balance",
        "event_total": 75,
        "has_played": true,
        "id": 21536935,
        "last_rank": 22154,
        "player_name": "D G",
        "rank": 11554,
        "rank_sort": 11570,
        "total": 2395
      },
      {
        "club_badge_src": null,
        "entry": 3020543,
        "entry_name": "Saka4Pain",
        "event_total": 67,
        "has_played": true,
        "id": 22223571,
        "last_rank": 16567,
        "player_name": "Oliver Kraft",
        "rank": 11554,
        "rank_sort": 11571,
        "total": 2395
      },
      {
        "club_badge_src": null,
        "entry": 3040798,
        "entry_name": "Crouch potato",
        "event_total": 82,
        "has_played": true,
        "id": 22381672,
        "last_rank": 28150,
        "player_name": "Archie Davis",
        "rank": 11554,
        "rank_sort": 11572,
        "total": 2395
      },
      {
        "club_badge_src": null,
        "entry": 3766281,
        "entry_name": "Haven\u2019t Got A Kalou",
        "event_total": 64,
        "has_played": true,
        "id": 28121273,
        "last_rank": 14668,
        "player_name": "Danny Cain",
        "rank": 11554,
        "rank_sort": 11573,
        "total": 2395
      },
      {
        "club_badge_src": null,
        "entry": 3960681,
        "entry_name": "Florian Sqirtz",
        "event_total": 68,
        "has_played": true,
        "id": 29799722,
        "last_rank": 17194,
        "player_name": "Hugh O'Hara",
        "rank": 11554,
        "rank_sort": 11574,
        "total": 2395
      },
      {
        "club_badge_src": null,
        "entry": 4567572,
        "entry_name": "I Will Win FPL",
        "event_total": 48,
        "has_played": true,
        "id": 34856591,
        "last_rank": 6333,
        "player_name": "kush shah",
        "rank": 11554,
        "rank_sort": 11575,
        "total": 2395
      },
      {
        "club_badge_src": null,
        "entry": 5781056,
        "entry_name": "The Highs and Dalots",
        "event_total": 54,
        "has_played": true,
        "id": 45332559,
        "last_rank": 9792,
        "player_name": "Kyle Reeves",
        "rank": 11554,
        "rank_sort": 11576,
        "total": 2395
      },
      {
        "club_badge_src": null,
        "entry": 7031120,
        "entry_name": "8111 Fluro FC",
        "event_total": 64,
        "has_played": true,
        "id": 56506501,
        "last_rank": 14712,
        "player_name": "Darren Price",
        "rank": 11554,
        "rank_sort": 11577,
        "total": 2395
      },
      {
        "club_badge_src": null,
        "entry": 7560562,
        "entry_name": "Bu_Yousef",
        "event_total": 63,
        "has_played": true,
        "id": 61906994,
        "last_rank": 11957,
        "player_name": "Abdullh Aldukheil",
        "rank": 11554,
        "rank_sort": 11578,
        "total": 2395
      },
      {
        "club_badge_src": null,
        "entry": 1625,
        "entry_name": "Nine cans of ravioli",
        "event_total": 55,
        "has_played": true,
        "id": 9044,
        "last_rank": 7237,
        "player_name": "Henri Salo",
        "rank": 11579,
        "rank_sort": 11579,
        "total": 2395
      },
      {
        "club_badge_src": null,
        "entry": 489331,
        "entry_name": "Back of the Neto",
        "event_total": 73,
        "has_played": true,
        "id": 3285013,
        "last_rank": 17848,
        "player_name": "James Cosgrove",
        "rank": 11579,
        "rank_sort": 11580,
        "total": 2395
      },
      {
        "club_badge_src": "https://fantasy.premierleague.com/gcs/plfpl-production-adobe-approved/plfpl-production/611152/dfa9e270-4233-4346-a3e0-2cd222788fe0.png",
        "entry": 611152,
        "entry_name": "Vinterkrigerne",
        "event_total": 56,
        "has_played": true,
        "id": 4129281,
        "last_rank": 10629,
        "player_name": "Bj\u00f8rn Corneliussen",
        "rank": 11579,
        "rank_sort": 11581,
        "total": 2395
      },
      {
        "club_badge_src": null,
        "entry": 663985,
        "entry_name": "SUPERSONIC CITY",
        "event_total": 68,
        "has_played": true,
        "id": 4488924,
        "last_rank": 14712,
        "player_name": "Barry Nyman",
        "rank": 11579,
        "rank_sort": 11582,
        "total": 2395
      },
      {
        "club_badge_src": null,
        "entry": 792865,
        "entry_name": "Soccer PM",
        "event_total": 59,
        "has_played": true,
        "id": 5425927,
        "last_rank": 12027,
        "player_name": "Andy Sowerby",
        "rank": 11579,
        "rank_sort": 11583,
        "total": 2395
      },
      {
        "club_badge_src": null,
        "entry": 803516,
        "entry_name": "aless army",
        "event_total": 58,
        "has_played": true,
        "id": 5500339,
        "last_rank": 11482,
        "player_name": "alessio solazzo",
        "rank": 11579,
        "rank_sort": 11584,
        "total": 2395
      },
      {
        "club_badge_src": null,
        "entry": 869380,
        "entry_name": "COQUE",
        "event_total": 69,
        "has_played": true,
        "id": 5960318,
        "last_rank": 15280,
        "player_name": "DUY TRAN",
        "rank": 11579,
        "rank_sort": 11585,
        "total": 2395
      },
      {
        "club_badge_src": null,
        "entry": 1318520,
        "entry_name": "Cohen Out",
        "event_total": 69,
        "has_played": true,
        "id": 9164438,
        "last_rank": 15280,
        "player_name": "Ben Horridge",
        "rank": 11579,
        "rank_sort": 11586,
        "total": 2395
      },
      {
        "club_badge_src": null,
        "entry": 3289718,
        "entry_name": "SUKHUMVIT FC",
        "event_total": 66,
        "has_played": true,
        "id": 24355938,
        "last_rank": 13601,
        "player_name": "Abhidev Rajkhowa",
        "rank": 11579,
        "rank_sort": 11587,
        "total": 2395
      },
      {
        "club_badge_src": "https://fantasy.premierleague.com/gcs/plfpl-production-adobe-approved/plfpl-production/3586867/18b252ec-1ebe-405f-8501-d8b0dde085b9.png",
        "entry": 3586867,
        "entry_name": "The B Team",
        "event_total": 64,
        "has_played": true,
        "id": 26712335,
        "last_rank": 8925,
        "player_name": "Liz Sherwin",
        "rank": 11579,
        "rank_sort": 11588,
        "total": 2395
      },
      {
        "club_badge_src": null,
        "entry": 3811804,
        "entry_name": "Ndiaye 4 3 Points",
        "event_total": 50,
        "has_played": true,
        "id": 28502706,
        "last_rank": 8274,
        "player_name": "Emile Akram",
        "rank": 11579,
        "rank_sort": 11589,
        "total": 2395
      },
      {
        "club_badge_src": null,
        "entry": 4883376,
        "entry_name": "The Moyes Are Back",
        "event_total": 63,
        "has_played": true,
        "id": 37647287,
        "last_rank": 14171,
        "player_name": "Kieran Jones",
        "rank": 11579,
        "rank_sort": 11590,
        "total": 2395
      },
      {
        "club_badge_src": null,
        "entry": 6041655,
        "entry_name": "Cunha Feel The Love",
        "event_total": 55,
        "has_played": true,
        "id": 47666971,
        "last_rank": 10173,
        "player_name": "Dan Dunbar",
        "rank": 11579,
        "rank_sort": 11591,
        "total": 2395
      },
      {
        "club_badge_src": "https://fantasy.premierleague.com/gcs/plfpl-production-adobe-approved/plfpl-production/6556452/311d6c7f-12c5-44e0-9a32-9201bce8f35c.png",
        "entry": 6556452,
        "entry_name": "CARASAL",
        "event_total": 63,
        "has_played": true,
        "id": 52324424,
        "last_rank": 14171,
        "player_name": "Abdallah Hama",
        "rank": 11579,
        "rank_sort": 11592,
        "total": 2395
      },
      {
        "club_badge_src": null,
        "entry": 7699233,
        "entry_name": "Bracia33",
        "event_total": 65,
        "has_played": true,
        "id": 63164250,
        "last_rank": 15319,
        "player_name": "Voltrex Pietruszka",
        "rank": 11579,
        "rank_sort": 11593,
        "total": 2395
      },
      {
        "club_badge_src": null,
        "entry": 7993695,
        "entry_name": "United Till The END",
        "event_total": 52,
        "has_played": true,
        "id": 65827322,
        "last_rank": 9028,
        "player_name": "Arijit Pal",
        "rank": 11579,
        "rank_sort": 11594,
        "total": 2395
      },
      {
        "club_badge_src": "https://fantasy.premierleague.com/gcs/plfpl-production-adobe-approved/plfpl-production/65351/15d5e3a2-3fdc-4c1b-881b-4646e12846a8.png",
        "entry": 65351,
        "entry_name": "Goats Galore FC",
        "event_total": 65,
        "has_played": true,
        "id": 421856,
        "last_rank": 11058,
        "player_name": "Edward Tinton",
        "rank": 11595,
        "rank_sort": 11595,
        "total": 2395
      },
      {
        "club_badge_src": null,
        "entry": 92862,
        "entry_name": "Team Gazza",
        "event_total": 54,
        "has_played": true,
        "id": 606843,
        "last_rank": 8274,
        "player_name": "\u00d8ivind Andersen",
        "rank": 11595,
        "rank_sort": 11596,
        "total": 2395
      },
      {
        "club_badge_src": "https://fantasy.premierleague.com/gcs/plfpl-production-adobe-approved/plfpl-production/253193/f007390d-b7a4-4d75-a10f-f42cc74f86f5.png",
        "entry": 253193,
        "entry_name": "Sesko Clubcard",
        "event_total": 49,
        "has_played": true,
        "id": 1684010,
        "last_rank": 7920,
        "player_name": "Rob De La Rue",
        "rank": 11595,
        "rank_sort": 11597,
        "total": 2395
      },
      {
        "club_badge_src": null,
        "entry": 273110,
        "entry_name": "93:20",
        "event_total": 62,
        "has_played": true,
        "id": 1817221,
        "last_rank": 11536,
        "player_name": "\u041c\u0438\u0459\u0430\u043d \u0414\u0435\u043b\u0438\u045b",
        "rank": 11595,
        "rank_sort": 11598,
        "total": 2395
      },
      {
        "club_badge_src": "https://fantasy.premierleague.com/gcs/plfpl-production-adobe-approved/plfpl-production/274812/68cbfee8-62d7-4d10-a964-12d260a35dce.png",
        "entry": 274812,
        "entry_name": "49, UNBEATEN",
        "event_total": 71,
        "has_played": true,
        "id": 1828693,
        "last_rank": 16598,
        "player_name": "Ahmed Yousfi",
        "rank": 11595,
        "rank_sort": 11599,
        "total": 2395
      },
      {
        "club_badge_src": null,
        "entry": 400810,
        "entry_name": "\u00d8de parfum",
        "event_total": 57,
        "has_played": true,
        "id": 2687777,
        "last_rank": 11104,
        "player_name": "Tijmen van der Baan",
        "rank": 11595,
        "rank_sort": 11600,
        "total": 2395
      }
    ]
  }
}