{
  "last_updated_data": "2026-05-24T23:28:17Z",
  "league": {
    "admin_entry": null,
    "closed": false,
    "code_privacy": "p",
    "created": "2025-07-20T23:14:33.933835Z",
    "cup_league": 2815434,
    "has_cup": true,
    "id": 314,
    "league_type": "s",
    "max_entries": null,
    "name": "Overall",
    "rank": null,
    "scoring": "c",
    "start_event": 1
  },
  "new_entries": {
    "has_next": false,
    "page": 1,
    "results": []
  },
  "standings": {
    "has_next": true,
    "page": 1431,
    "results": [
      {
        "club_badge_src": null,
        "entry": 6447546,
        "entry_name": "Minkia 46",
        "event_total": 68,
        "has_played": true,
        "id": 51340796,
        "last_rank": 98011,
        "player_name": "Gabriele Tasco",
        "rank": 71468,
        "rank_sort": 71501,
        "total": 2339
      },
      {
        "club_badge_src": null,
        "entry": 6492357,
        "entry_name": "Cleverley Dunne",
        "event_total": 52,
        "has_played": true,
        "id": 51754464,
        "last_rank": 63117,
        "player_name": "Si Grant",
        "rank": 71468,
        "rank_sort": 71502,
        "total": 2339
      },
      {
        "club_badge_src": null,
        "entry": 6494799,
        "entry_name": "shush",
        "event_total": 64,
        "has_played": true,
        "id": 51775928,
        "last_rank": 88185,
        "player_name": "Mahdi Murshid",
        "rank": 71468,
        "rank_sort": 71503,
        "total": 2339
      },
      {
        "club_badge_src": null,
        "entry": 6554661,
        "entry_name": "The Bantam Menace",
        "event_total": 33,
        "has_played": true,
        "id": 52308559,
        "last_rank": 35034,
        "player_name": "Eddie Crabtree",
        "rank": 71468,
        "rank_sort": 71504,
        "total": 2339
      },
      {
        "club_badge_src": null,
        "entry": 6764200,
        "entry_name": "Blue Boys 77",
        "event_total": 63,
        "has_played": true,
        "id": 54159040,
        "last_rank": 86054,
        "player_name": "Lucy Stocks",
        "rank": 71468,
        "rank_sort": 71505,
        "total": 2339
      },
      {
        "club_badge_src": null,
        "entry": 6914903,
        "entry_name": "Assasinate Ragers",
        "event_total": 55,
        "has_played": true,
        "id": 55429950,
        "last_rank": 68748,
        "player_name": "Nate Rager",
        "rank": 71468,
        "rank_sort": 71506,
        "total": 2339
      },
      {
        "club_badge_src": null,
        "entry": 7031683,
        "entry_name": "default",
        "event_total": 36,
        "has_played": true,
        "id": 56512854,
        "last_rank": 38644,
        "player_name": "M I",
        "rank": 71468,
        "rank_sort": 71507,
        "total": 2339
      },
      {
        "club_badge_src": null,
        "entry": 7124197,
        "entry_name": "In Bih",
        "event_total": 49,
        "has_played": true,
        "id": 57405646,
        "last_rank": 57705,
        "player_name": "Thibaut Paeshuys",
        "rank": 71468,
        "rank_sort": 71508,
        "total": 2339
      },
      {
        "club_badge_src": null,
        "entry": 7211328,
        "entry_name": "GUFO CLUB",
        "event_total": 68,
        "has_played": true,
        "id": 58240882,
        "last_rank": 98073,
        "player_name": "Youssef Bl",
        "rank": 71468,
        "rank_sort": 71509,
        "total": 2339
      },
      {
        "club_badge_src": "https://fantasy.premierleague.com/gcs/plfpl-production-adobe-approved/plfpl-production/7315263/d1620ece-9024-43f9-84f7-ca45904ad581.png",
        "entry": 7315263,
        "entry_name": "Fish & Chips F.C",
        "event_total": 51,
        "has_played": true,
        "id": 59219465,
        "last_rank": 61411,
        "player_name": "Kimani Waiyaki",
        "rank": 71468,
        "rank_sort": 71510,
        "total": 2339
      },
      {
        "club_badge_src": null,
        "entry": 7616051,
        "entry_name": "Look out for Lastri",
        "event_total": 59,
        "has_played": true,
        "id": 62411071,
        "last_rank": 76947,
        "player_name": "Luke Astri",
        "rank": 71468,
        "rank_sort": 71511,
        "total": 2339
      },
      {
        "club_badge_src": null,
        "entry": 7647711,
        "entry_name": "Third Dangree Burn",
        "event_total": 70,
        "has_played": true,
        "id": 62696114,
        "last_rank": 103254,
        "player_name": "James Rainbow",
        "rank": 71468,
        "rank_sort": 71512,
        "total": 2339
      },
      {
        "club_badge_src": null,
        "entry": 7828160,
        "entry_name": "Lil Uzi Wirtz",
        "event_total": 70,
        "has_played": true,
        "id": 64328673,
        "last_rank": 103017,
        "player_name": "Miqdam Mollah",
        "rank": 71468,
        "rank_sort": 71513,
        "total": 2339
      },
      {
        "club_badge_src": "https://fantasy.premierleague.com/gcs/plfpl-production-adobe-approved/plfpl-production/8307486/d88cb26d-3e64-486b-909b-784725c61399.png",
        "entry": 8307486,
        "entry_name": "Some Might Score",
        "event_total": 56,
        "has_played": true,
        "id": 68788719,
        "last_rank": 70651,
        "player_name": "Daniel Evans",
        "rank": 71468,
        "rank_sort": 71514,
        "total": 2339
      },
      {
        "club_badge_src": null,
        "entry": 8787733,
        "entry_name": "vasha fc",
        "event_total": 68,
        "has_played": true,
        "id": 73426061,
        "last_rank": 98011,
        "player_name": "Simon shashava",
        "rank": 71468,
        "rank_sort": 71515,
        "total": 2339
      },
      {
        "club_badge_src": null,
        "entry": 10768961,
        "entry_name": "Ekitikka Masala",
        "event_total": 57,
        "has_played": true,
        "id": 90950648,
        "last_rank": 64777,
        "player_name": "Amirul Rasyid Lasiman",
        "rank": 71468,
        "rank_sort": 71516,
        "total": 2339
      },
      {
        "club_badge_src": "https://fantasy.premierleague.com/gcs/plfpl-production-adobe-approved/plfpl-production/11785/7b3efb13-8647-44b0-ae68-14db7bf81aa6.png",
        "entry": 11785,
        "entry_name": "Beef Cherki",
        "event_total": 63,
        "has_played": true,
        "id": 70214,
        "last_rank": 86304,
        "player_name": "Tom Bowman",
        "rank": 71517,
        "rank_sort": 71517,
        "total": 2339
      },
      {
        "club_badge_src": "https://fantasy.premierleague.com/gcs/plfpl-production-adobe-approved/plfpl-production/64400/aae1f2f7-25ad-4dd3-a1fc-c1af6b543c1d.png",
        "entry": 64400,
        "entry_name": "Abanoub Ebrahim",
        "event_total": 39,
        "has_played": true,
        "id": 415655,
        "last_rank": 42648,
        "player_name": "Abanoub Ebrahim",
        "rank": 71517,
        "rank_sort": 71518,
        "total": 2339
      },
      {
        "club_badge_src": null,
        "entry": 78769,
        "entry_name": "Harry's Hornets",
        "event_total": 50,
        "has_played": true,
        "id": 512137,
        "last_rank": 59813,
        "player_name": "Mark Jones",
        "rank": 71517,
        "rank_sort": 71519,
        "total": 2339
      },
      {
        "club_badge_src": null,
        "entry": 93400,
        "entry_name": "Empire Wirtz Back",
        "event_total": 38,
        "has_played": true,
        "id": 610380,
        "last_rank": 41324,
        "player_name": "Joe Ellis-Davies",
        "rank": 71517,
        "rank_sort": 71520,
        "total": 2339
      },
      {
        "club_badge_src": null,
        "entry": 128281,
        "entry_name": "piro",
        "event_total": 57,
        "has_played": true,
        "id": 836166,
        "last_rank": 73038,
        "player_name": "Abhijeet Rawal",
        "rank": 71517,
        "rank_sort": 71521,
        "total": 2339
      },
      {
        "club_badge_src": null,
        "entry": 150488,
        "entry_name": "Zubi dooby doo",
        "event_total": 55,
        "has_played": true,
        "id": 986990,
        "last_rank": 68585,
        "player_name": "Jade Johnson",
        "rank": 71517,
        "rank_sort": 71522,
        "total": 2339
      },
      {
        "club_badge_src": null,
        "entry": 156278,
        "entry_name": "louies team",
        "event_total": 43,
        "has_played": true,
        "id": 1027690,
        "last_rank": 48067,
        "player_name": "Louie Wickens",
        "rank": 71517,
        "rank_sort": 71523,
        "total": 2339
      },
      {
        "club_badge_src": null,
        "entry": 204116,
        "entry_name": "Beer Kelleher",
        "event_total": 64,
        "has_played": true,
        "id": 1356457,
        "last_rank": 88185,
        "player_name": "Joe Sampson",
        "rank": 71517,
        "rank_sort": 71524,
        "total": 2339
      },
      {
        "club_badge_src": "https://fantasy.premierleague.com/gcs/plfpl-production-adobe-approved/plfpl-production/235720/db674289-9541-4d7a-9671-dfaeed8ce766.png",
        "entry": 235720,
        "entry_name": "MR Og\u0142uch",
        "event_total": 33,
        "has_played": true,
        "id": 1568446,
        "last_rank": 35034,
        "player_name": "Konrad Poreda",
        "rank": 71517,
        "rank_sort": 71525,
        "total": 2339
      },
      {
        "club_badge_src": null,
        "entry": 245981,
        "entry_name": "TheBottlers",
        "event_total": 65,
        "has_played": true,
        "id": 1637740,
        "last_rank": 91006,
        "player_name": "Adityaputra Dewantara",
        "rank": 71517,
        "rank_sort": 71526,
        "total": 2339
      },
      {
        "club_badge_src": null,
        "entry": 246720,
        "entry_name": "Valid",
        "event_total": 52,
        "has_played": true,
        "id": 1642483,
        "last_rank": 63390,
        "player_name": "\u0635\u0627\u0644\u062d \u0627\u0644\u0631\u0648\u064a\u0644\u064a",
        "rank": 71517,
        "rank_sort": 71527,
        "total": 2339
      },
      {
        "club_badge_src": null,
        "entry": 272840,
        "entry_name": "United We Fail",
        "event_total": 60,
        "has_played": true,
        "id": 1815386,
        "last_rank": 79190,
        "player_name": "Jon Branfield",
        "rank": 71517,
        "rank_sort": 71528,
        "total": 2339
      },
      {
        "club_badge_src": null,
        "entry": 277372,
        "entry_name": "Paras joukkue EU",
        "event_total": 50,
        "has_played": true,
        "id": 1846203,
        "last_rank": 59535,
        "player_name": "Joonas Tuomola",
        "rank": 71517,
        "rank_sort": 71529,
        "total": 2339
      },
      {
        "club_badge_src": "https://fantasy.premierleague.com/gcs/plfpl-production-adobe-approved/plfpl-production/299279/ccd29b02-fa0c-4db2-b75e-1fb5e158d704.png",
        "entry": 299279,
        "entry_name": "Harchester United FC",
        "event_total": 58,
        "has_played": true,
        "id": 2001351,
        "last_rank": 74787,
        "player_name": "Joey Halwax",
        "rank": 71517,
        "rank_sort": 71530,
        "total": 2339
      },
      {
        "club_badge_src": null,
        "entry": 303929,
        "entry_name": "Camacho FC",
        "event_total": 48,
        "has_played": true,
        "id": 2034680,
        "last_rank": 56369,
        "player_name": "Ahmed Kamal",
        "rank": 71517,
        "rank_sort": 71531,
        "total": 2339
      },
      {
        "club_badge_src": null,
        "entry": 325168,
        "entry_name": "Russom kids",
        "event_total": 53,
        "has_played": true,
        "id": 2178860,
        "last_rank": 64943,
        "player_name": "Russom Mebrahtu",
        "rank": 71517,
        "rank_sort": 71532,
        "total": 2339
      },
      {
        "club_badge_src": null,
        "entry": 341742,
        "entry_name": "All the Small**ings",
        "event_total": 77,
        "has_played": true,
        "id": 2287395,
        "last_rank": 122988,
        "player_name": "Joe Campbell",
        "rank": 71517,
        "rank_sort": 71533,
        "total": 2339
      },
      {
        "club_badge_src": null,
        "entry": 368422,
        "entry_name": "cheeky divers",
        "event_total": 64,
        "has_played": true,
        "id": 2465503,
        "last_rank": 88348,
        "player_name": "Gabe Rodriguez",
        "rank": 71517,
        "rank_sort": 71534,
        "total": 2339
      },
      {
        "club_badge_src": null,
        "entry": 369420,
        "entry_name": "Stach in the Box",
        "event_total": 69,
        "has_played": true,
        "id": 2471980,
        "last_rank": 100527,
        "player_name": "Louis Peluso-White",
        "rank": 71517,
        "rank_sort": 71535,
        "total": 2339
      },
      {
        "club_badge_src": null,
        "entry": 422423,
        "entry_name": "HaCunhaMateta",
        "event_total": 58,
        "has_played": true,
        "id": 2830894,
        "last_rank": 74898,
        "player_name": "Cathal McMahon",
        "rank": 71517,
        "rank_sort": 71536,
        "total": 2339
      },
      {
        "club_badge_src": null,
        "entry": 428940,
        "entry_name": "Hansi Flick",
        "event_total": 44,
        "has_played": true,
        "id": 2876996,
        "last_rank": 49691,
        "player_name": "Hussain Salman",
        "rank": 71517,
        "rank_sort": 71537,
        "total": 2339
      },
      {
        "club_badge_src": null,
        "entry": 473211,
        "entry_name": "magan",
        "event_total": 61,
        "has_played": true,
        "id": 3176955,
        "last_rank": 81312,
        "player_name": "Ahmed Magan",
        "rank": 71517,
        "rank_sort": 71538,
        "total": 2339
      },
      {
        "club_badge_src": null,
        "entry": 481687,
        "entry_name": "Mehmeti Bolognese",
        "event_total": 69,
        "has_played": true,
        "id": 3233728,
        "last_rank": 100572,
        "player_name": "Courtney Meacham",
        "rank": 71517,
        "rank_sort": 71539,
        "total": 2339
      },
      {
        "club_badge_src": null,
        "entry": 543284,
        "entry_name": "La Masia",
        "event_total": 68,
        "has_played": true,
        "id": 3656417,
        "last_rank": 98011,
        "player_name": "Nicholas Thomsen",
        "rank": 71517,
        "rank_sort": 71540,
        "total": 2339
      },
      {
        "club_badge_src": null,
        "entry": 546780,
        "entry_name": "KSM",
        "event_total": 70,
        "has_played": true,
        "id": 3679782,
        "last_rank": 103130,
        "player_name": "Grzegorz Chilla",
        "rank": 71517,
        "rank_sort": 71541,
        "total": 2339
      },
      {
        "club_badge_src": null,
        "entry": 631536,
        "entry_name": "Change Name",
        "event_total": 69,
        "has_played": true,
        "id": 4267373,
        "last_rank": 90625,
        "player_name": "Cam Graham",
        "rank": 71517,
        "rank_sort": 71542,
        "total": 2339
      },
      {
        "club_badge_src": null,
        "entry": 702386,
        "entry_name": "yubi's",
        "event_total": 55,
        "has_played": true,
        "id": 4759256,
        "last_rank": 68624,
        "player_name": "yoav henig",
        "rank": 71517,
        "rank_sort": 71543,
        "total": 2339
      },
      {
        "club_badge_src": null,
        "entry": 715611,
        "entry_name": "Jon Park Rangers",
        "event_total": 54,
        "has_played": true,
        "id": 4855168,
        "last_rank": 66738,
        "player_name": "Jon Alkskog",
        "rank": 71517,
        "rank_sort": 71544,
        "total": 2339
      },
      {
        "club_badge_src": null,
        "entry": 740395,
        "entry_name": "Bruno Dos Tres",
        "event_total": 49,
        "has_played": true,
        "id": 5034323,
        "last_rank": 58071,
        "player_name": "Aled James",
        "rank": 71517,
        "rank_sort": 71545,
        "total": 2339
      },
      {
        "club_badge_src": null,
        "entry": 740628,
        "entry_name": "The Wirtz Locker",
        "event_total": 52,
        "has_played": true,
        "id": 5036076,
        "last_rank": 63080,
        "player_name": "Elliot Fathers",
        "rank": 71517,
        "rank_sort": 71546,
        "total": 2339
      },
      {
        "club_badge_src": null,
        "entry": 774217,
        "entry_name": "Madawakey wakey",
        "event_total": 58,
        "has_played": true,
        "id": 5282336,
        "last_rank": 74741,
        "player_name": "Oscar Ayress",
        "rank": 71517,
        "rank_sort": 71547,
        "total": 2339
      },
      {
        "club_badge_src": null,
        "entry": 805012,
        "entry_name": "SuperDons1988",
        "event_total": 71,
        "has_played": true,
        "id": 5510658,
        "last_rank": 105818,
        "player_name": "Tony Bainbridge",
        "rank": 71517,
        "rank_sort": 71548,
        "total": 2339
      },
      {
        "club_badge_src": "https://fantasy.premierleague.com/gcs/plfpl-production-adobe-approved/plfpl-production/910933/0558ef68-4d5b-4cad-803b-210a2cee1ab6.png",
        "entry": 910933,
        "entry_name": "Sakapotatoes",
        "event_total": 70,
        "has_played": true,
        "id": 6263383,
        "last_rank": 93052,
        "player_name": "Eduin Boater Latimer",
        "rank": 71517,
        "rank_sort": 71549,
        "total": 2339
      },
      {
        "club_badge_src": null,
        "entry": 950513,
        "entry_name": "I Voted for Kudus",
        "event_total": 62,
        "has_played": true,
        "id": 6548384,
        "last_rank": 83534,
        "player_name": "Matthew Colquhoun",
        "rank": 71517,
        "rank_sort": 71550,
        "total": 2339
      }
    ]
  }
}