{
  "last_updated_data": "2026-05-24T23:28:17Z",
  "league": {
    "admin_entry": null,
    "closed": false,
    "code_privacy": "p",
    "created": "2025-07-20T23:14:33.933835Z",
    "cup_league": 2815434,
    "has_cup": true,
    "id": 314,
    "league_type": "s",
    "max_entries": null,
    "name": "Overall",
    "rank": null,
    "scoring": "c",
    "start_event": 1
  },
  "new_entries": {
    "has_next": false,
    "page": 1,
    "results": []
  },
  "standings": {
    "has_next": true,
    "page": 247,
    "results": [
      {
        "club_badge_src": null,
        "entry": 315929,
        "entry_name": "Gordons Dry",
        "event_total": 66,
        "has_played": true,
        "id": 2117405,
        "last_rank": 14370,
        "player_name": "Torstein Langset",
        "rank": 12272,
        "rank_sort": 12301,
        "total": 2393
      },
      {
        "club_badge_src": null,
        "entry": 373749,
        "entry_name": "Skelly's heroes",
        "event_total": 49,
        "has_played": true,
        "id": 2500751,
        "last_rank": 8484,
        "player_name": "Tom Searle",
        "rank": 12272,
        "rank_sort": 12302,
        "total": 2393
      },
      {
        "club_badge_src": null,
        "entry": 385433,
        "entry_name": "Obi Wan Kenobi Nil",
        "event_total": 59,
        "has_played": true,
        "id": 2585489,
        "last_rank": 10748,
        "player_name": "Ross Atkinson",
        "rank": 12272,
        "rank_sort": 12303,
        "total": 2393
      },
      {
        "club_badge_src": null,
        "entry": 402824,
        "entry_name": "Pain in Diaz",
        "event_total": 64,
        "has_played": true,
        "id": 2701125,
        "last_rank": 13257,
        "player_name": "Joe Knight",
        "rank": 12272,
        "rank_sort": 12304,
        "total": 2393
      },
      {
        "club_badge_src": null,
        "entry": 435729,
        "entry_name": "Big C.F.C",
        "event_total": 47,
        "has_played": true,
        "id": 2921871,
        "last_rank": 7761,
        "player_name": "ian caines",
        "rank": 12272,
        "rank_sort": 12305,
        "total": 2393
      },
      {
        "club_badge_src": null,
        "entry": 469208,
        "entry_name": "Ginger Princes",
        "event_total": 61,
        "has_played": true,
        "id": 3149291,
        "last_rank": 11699,
        "player_name": "Will Foulkes",
        "rank": 12272,
        "rank_sort": 12306,
        "total": 2393
      },
      {
        "club_badge_src": null,
        "entry": 594098,
        "entry_name": "Dangler FC",
        "event_total": 64,
        "has_played": true,
        "id": 4004115,
        "last_rank": 15550,
        "player_name": "Jared Jarecki",
        "rank": 12272,
        "rank_sort": 12307,
        "total": 2393
      },
      {
        "club_badge_src": "https://fantasy.premierleague.com/gcs/plfpl-production-adobe-approved/plfpl-production/625088/9f4eff50-e694-4b88-bb70-6ec02b525f25.png",
        "entry": 625088,
        "entry_name": "Van De Vengeance",
        "event_total": 68,
        "has_played": true,
        "id": 4224127,
        "last_rank": 18029,
        "player_name": "iano ranking",
        "rank": 12272,
        "rank_sort": 12308,
        "total": 2393
      },
      {
        "club_badge_src": null,
        "entry": 668136,
        "entry_name": "Wernham Hogg",
        "event_total": 67,
        "has_played": true,
        "id": 4518033,
        "last_rank": 14926,
        "player_name": "Steve Marsh",
        "rank": 12272,
        "rank_sort": 12309,
        "total": 2393
      },
      {
        "club_badge_src": null,
        "entry": 719152,
        "entry_name": "Fiat 80-66",
        "event_total": 43,
        "has_played": true,
        "id": 4880946,
        "last_rank": 6409,
        "player_name": "Garikayi Marangwanda",
        "rank": 12272,
        "rank_sort": 12310,
        "total": 2393
      },
      {
        "club_badge_src": "https://fantasy.premierleague.com/gcs/plfpl-production-adobe-approved/plfpl-production/730201/4f5fa5b9-ff03-4de5-a5ee-64522f87c401.png",
        "entry": 730201,
        "entry_name": "Silvera Surfers",
        "event_total": 71,
        "has_played": true,
        "id": 4961574,
        "last_rank": 20280,
        "player_name": "Dan Gunn",
        "rank": 12272,
        "rank_sort": 12311,
        "total": 2393
      },
      {
        "club_badge_src": null,
        "entry": 741290,
        "entry_name": "Schar wars",
        "event_total": 60,
        "has_played": true,
        "id": 5041254,
        "last_rank": 13184,
        "player_name": "Eoghan Hoban",
        "rank": 12272,
        "rank_sort": 12312,
        "total": 2393
      },
      {
        "club_badge_src": "https://fantasy.premierleague.com/gcs/plfpl-production-adobe-approved/plfpl-production/848021/90279775-31c4-4565-91c1-c9cc5d4024b4.png",
        "entry": 848021,
        "entry_name": "Ctrl Alt De Ligt",
        "event_total": 72,
        "has_played": true,
        "id": 5812044,
        "last_rank": 21159,
        "player_name": "Andrew Seng",
        "rank": 12272,
        "rank_sort": 12313,
        "total": 2393
      },
      {
        "club_badge_src": null,
        "entry": 904358,
        "entry_name": "Ra5awy",
        "event_total": 33,
        "has_played": true,
        "id": 6214218,
        "last_rank": 4186,
        "player_name": "Ahmed Hesham",
        "rank": 12272,
        "rank_sort": 12314,
        "total": 2393
      },
      {
        "club_badge_src": null,
        "entry": 912372,
        "entry_name": "IF Honkapojkarna",
        "event_total": 47,
        "has_played": true,
        "id": 6273505,
        "last_rank": 7761,
        "player_name": "Simon Honkala",
        "rank": 12272,
        "rank_sort": 12315,
        "total": 2393
      },
      {
        "club_badge_src": null,
        "entry": 1006901,
        "entry_name": "Gradac City",
        "event_total": 71,
        "has_played": true,
        "id": 6961145,
        "last_rank": 20179,
        "player_name": "Tomislav Vidovi\u0107",
        "rank": 12272,
        "rank_sort": 12316,
        "total": 2393
      },
      {
        "club_badge_src": "https://fantasy.premierleague.com/gcs/plfpl-production-adobe-approved/plfpl-production/1009842/37c499da-482a-4515-8d13-a92ce860f4ff.png",
        "entry": 1009842,
        "entry_name": "Zirkzee Me Rollin'",
        "event_total": 63,
        "has_played": true,
        "id": 6982703,
        "last_rank": 14926,
        "player_name": "Jack Ryan",
        "rank": 12272,
        "rank_sort": 12317,
        "total": 2393
      },
      {
        "club_badge_src": "https://fantasy.premierleague.com/gcs/plfpl-production-adobe-approved/plfpl-production/1042269/9eb207b6-2e83-4737-8409-9cb0bddee8b4.png",
        "entry": 1042269,
        "entry_name": "The Invincibles 49",
        "event_total": 65,
        "has_played": true,
        "id": 7212772,
        "last_rank": 16320,
        "player_name": "Sulaiman Alzamel",
        "rank": 12272,
        "rank_sort": 12318,
        "total": 2393
      },
      {
        "club_badge_src": null,
        "entry": 1081701,
        "entry_name": "Pukki Blinders",
        "event_total": 61,
        "has_played": true,
        "id": 7489806,
        "last_rank": 13947,
        "player_name": "Archie M",
        "rank": 12272,
        "rank_sort": 12319,
        "total": 2393
      },
      {
        "club_badge_src": null,
        "entry": 1197453,
        "entry_name": "Alisson Wonderland",
        "event_total": 59,
        "has_played": true,
        "id": 8309554,
        "last_rank": 12846,
        "player_name": "Elliot Steele",
        "rank": 12272,
        "rank_sort": 12320,
        "total": 2393
      },
      {
        "club_badge_src": null,
        "entry": 1233493,
        "entry_name": "The Floor is Lavia",
        "event_total": 59,
        "has_played": true,
        "id": 8565620,
        "last_rank": 12846,
        "player_name": "Lloyd S",
        "rank": 12272,
        "rank_sort": 12321,
        "total": 2393
      },
      {
        "club_badge_src": null,
        "entry": 1295659,
        "entry_name": "Apush_blahlbahblah\ufffd",
        "event_total": 59,
        "has_played": true,
        "id": 9004560,
        "last_rank": 12645,
        "player_name": "Kwabena Dankwah",
        "rank": 12272,
        "rank_sort": 12322,
        "total": 2393
      },
      {
        "club_badge_src": "https://fantasy.premierleague.com/gcs/plfpl-production-adobe-approved/plfpl-production/1295996/f90d3c76-7cf2-4c80-90cb-1496b9391a05.png",
        "entry": 1295996,
        "entry_name": "Marley United",
        "event_total": 64,
        "has_played": true,
        "id": 9006984,
        "last_rank": 15550,
        "player_name": "Marley Marley",
        "rank": 12272,
        "rank_sort": 12323,
        "total": 2393
      },
      {
        "club_badge_src": null,
        "entry": 1401270,
        "entry_name": "to Viktor the spoils",
        "event_total": 49,
        "has_played": true,
        "id": 9749607,
        "last_rank": 8382,
        "player_name": "Tim Thorne",
        "rank": 12272,
        "rank_sort": 12324,
        "total": 2393
      },
      {
        "club_badge_src": null,
        "entry": 1427277,
        "entry_name": "AS 11",
        "event_total": 63,
        "has_played": true,
        "id": 9944792,
        "last_rank": 15063,
        "player_name": "Nimesh Patel",
        "rank": 12272,
        "rank_sort": 12325,
        "total": 2393
      },
      {
        "club_badge_src": null,
        "entry": 1503365,
        "entry_name": "Pain in Dias",
        "event_total": 65,
        "has_played": true,
        "id": 10484505,
        "last_rank": 13821,
        "player_name": "Jason Hooley",
        "rank": 12272,
        "rank_sort": 12326,
        "total": 2393
      },
      {
        "club_badge_src": null,
        "entry": 1565395,
        "entry_name": "peaky reijnders",
        "event_total": 52,
        "has_played": true,
        "id": 10935355,
        "last_rank": 9644,
        "player_name": "archiebold --",
        "rank": 12272,
        "rank_sort": 12327,
        "total": 2393
      },
      {
        "club_badge_src": "https://fantasy.premierleague.com/gcs/plfpl-production-adobe-approved/plfpl-production/1596919/dea818bb-966d-4c54-9e78-ef93be77784c.png",
        "entry": 1596919,
        "entry_name": "Azamawy",
        "event_total": 72,
        "has_played": true,
        "id": 11171007,
        "last_rank": 21159,
        "player_name": "Kareem Azzam",
        "rank": 12272,
        "rank_sort": 12328,
        "total": 2393
      },
      {
        "club_badge_src": null,
        "entry": 1602263,
        "entry_name": "Charli xGx",
        "event_total": 56,
        "has_played": true,
        "id": 11208883,
        "last_rank": 11345,
        "player_name": "Chris Finlay",
        "rank": 12272,
        "rank_sort": 12329,
        "total": 2393
      },
      {
        "club_badge_src": null,
        "entry": 1642127,
        "entry_name": "NALDO FC.",
        "event_total": 51,
        "has_played": true,
        "id": 11495187,
        "last_rank": 9311,
        "player_name": "Renaldo Adams",
        "rank": 12272,
        "rank_sort": 12330,
        "total": 2393
      },
      {
        "club_badge_src": null,
        "entry": 1653553,
        "entry_name": "Se\u00f1or Rashford (C)",
        "event_total": 66,
        "has_played": true,
        "id": 11576718,
        "last_rank": 16959,
        "player_name": "Dave Knight",
        "rank": 12272,
        "rank_sort": 12331,
        "total": 2393
      },
      {
        "club_badge_src": null,
        "entry": 1726103,
        "entry_name": "aaaaaaa",
        "event_total": 50,
        "has_played": true,
        "id": 12104574,
        "last_rank": 8854,
        "player_name": "Moh1302 1302",
        "rank": 12272,
        "rank_sort": 12332,
        "total": 2393
      },
      {
        "club_badge_src": null,
        "entry": 1779413,
        "entry_name": "\u0644\u0648\u0627\u0621 \u0627\u0644\u0628\u0631\u0627\u0621 \u0625\u0628\u0646 \u0645\u0627\u0644\u0643",
        "event_total": 65,
        "has_played": true,
        "id": 12501332,
        "last_rank": 16062,
        "player_name": "Jod basten",
        "rank": 12272,
        "rank_sort": 12333,
        "total": 2393
      },
      {
        "club_badge_src": null,
        "entry": 1924494,
        "entry_name": "Justin Baleba",
        "event_total": 52,
        "has_played": true,
        "id": 13572408,
        "last_rank": 9644,
        "player_name": "Anil Patel",
        "rank": 12272,
        "rank_sort": 12334,
        "total": 2393
      },
      {
        "club_badge_src": null,
        "entry": 2081370,
        "entry_name": "The Flying Kwok Team",
        "event_total": 58,
        "has_played": true,
        "id": 14760360,
        "last_rank": 12322,
        "player_name": "Siu Kwok Ng",
        "rank": 12272,
        "rank_sort": 12335,
        "total": 2393
      },
      {
        "club_badge_src": null,
        "entry": 2230317,
        "entry_name": "Pimmys Legends",
        "event_total": 53,
        "has_played": true,
        "id": 15888415,
        "last_rank": 10031,
        "player_name": "james Darcy",
        "rank": 12272,
        "rank_sort": 12336,
        "total": 2393
      },
      {
        "club_badge_src": null,
        "entry": 2354014,
        "entry_name": "IkkoRang",
        "event_total": 64,
        "has_played": true,
        "id": 16796790,
        "last_rank": 13257,
        "player_name": "Pawandip Singh",
        "rank": 12272,
        "rank_sort": 12337,
        "total": 2393
      },
      {
        "club_badge_src": null,
        "entry": 2372373,
        "entry_name": "Chaduvukondi Firstuu",
        "event_total": 72,
        "has_played": true,
        "id": 16935751,
        "last_rank": 20983,
        "player_name": "Shravanth Mandava",
        "rank": 12272,
        "rank_sort": 12338,
        "total": 2393
      },
      {
        "club_badge_src": null,
        "entry": 2557671,
        "entry_name": "Brana",
        "event_total": 68,
        "has_played": true,
        "id": 18341535,
        "last_rank": 18270,
        "player_name": "Mihajlo Mihajlovic",
        "rank": 12272,
        "rank_sort": 12339,
        "total": 2393
      },
      {
        "club_badge_src": null,
        "entry": 2584159,
        "entry_name": "Neville Wears Prada",
        "event_total": 76,
        "has_played": true,
        "id": 18549866,
        "last_rank": 24039,
        "player_name": "Manpreet Dyal",
        "rank": 12272,
        "rank_sort": 12340,
        "total": 2393
      },
      {
        "club_badge_src": null,
        "entry": 2763962,
        "entry_name": "TERAZ WYGRAM FC",
        "event_total": 51,
        "has_played": true,
        "id": 20164606,
        "last_rank": 9248,
        "player_name": "\u25a0 Jacek Andrzejewski \u25a0",
        "rank": 12272,
        "rank_sort": 12341,
        "total": 2393
      },
      {
        "club_badge_src": null,
        "entry": 3059281,
        "entry_name": "Ugarte Hold and Give",
        "event_total": 59,
        "has_played": true,
        "id": 22523625,
        "last_rank": 12846,
        "player_name": "Matthew Byrne",
        "rank": 12272,
        "rank_sort": 12342,
        "total": 2393
      },
      {
        "club_badge_src": "https://fantasy.premierleague.com/gcs/plfpl-production-adobe-approved/plfpl-production/3415604/e55182de-7db8-4148-b416-0d82f0a3f340.png",
        "entry": 3415604,
        "entry_name": "Memento Mori",
        "event_total": 66,
        "has_played": true,
        "id": 25369455,
        "last_rank": 16729,
        "player_name": "Stuart Lockyer",
        "rank": 12272,
        "rank_sort": 12343,
        "total": 2393
      },
      {
        "club_badge_src": null,
        "entry": 3591665,
        "entry_name": "Yonkers",
        "event_total": 52,
        "has_played": true,
        "id": 26748895,
        "last_rank": 9711,
        "player_name": "Eden Bager",
        "rank": 12272,
        "rank_sort": 12344,
        "total": 2393
      },
      {
        "club_badge_src": null,
        "entry": 3602216,
        "entry_name": "Redchamps20",
        "event_total": 63,
        "has_played": true,
        "id": 26829424,
        "last_rank": 12705,
        "player_name": "Srijan Hazra",
        "rank": 12272,
        "rank_sort": 12345,
        "total": 2393
      },
      {
        "club_badge_src": "https://fantasy.premierleague.com/gcs/plfpl-production-adobe-approved/plfpl-production/3813195/4127d057-cfdc-4b05-bbe1-5179df5a7130.png",
        "entry": 3813195,
        "entry_name": "Unai for an Eye",
        "event_total": 65,
        "has_played": true,
        "id": 28514083,
        "last_rank": 16320,
        "player_name": "Nic Thatcher",
        "rank": 12272,
        "rank_sort": 12346,
        "total": 2393
      },
      {
        "club_badge_src": null,
        "entry": 3815226,
        "entry_name": "Hasses Sega Gubbar",
        "event_total": 57,
        "has_played": true,
        "id": 28530574,
        "last_rank": 11821,
        "player_name": "Ola Olsson Possfelt",
        "rank": 12272,
        "rank_sort": 12347,
        "total": 2393
      },
      {
        "club_badge_src": null,
        "entry": 3928060,
        "entry_name": "BIG MEG",
        "event_total": 69,
        "has_played": true,
        "id": 29541506,
        "last_rank": 16163,
        "player_name": "Megha Mind",
        "rank": 12272,
        "rank_sort": 12348,
        "total": 2393
      },
      {
        "club_badge_src": null,
        "entry": 3988075,
        "entry_name": "All That Matters",
        "event_total": 52,
        "has_played": true,
        "id": 30026804,
        "last_rank": 9644,
        "player_name": "Matt Rayfield",
        "rank": 12272,
        "rank_sort": 12349,
        "total": 2393
      },
      {
        "club_badge_src": null,
        "entry": 4262496,
        "entry_name": "mafesi",
        "event_total": 59,
        "has_played": true,
        "id": 32318911,
        "last_rank": 12846,
        "player_name": "teodor levkov",
        "rank": 12272,
        "rank_sort": 12350,
        "total": 2393
      }
    ]
  }
}