{
  "last_updated_data": "2026-05-24T23:28:17Z",
  "league": {
    "admin_entry": null,
    "closed": false,
    "code_privacy": "p",
    "created": "2025-07-20T23:14:33.933835Z",
    "cup_league": 2815434,
    "has_cup": true,
    "id": 314,
    "league_type": "s",
    "max_entries": null,
    "name": "Overall",
    "rank": null,
    "scoring": "c",
    "start_event": 1
  },
  "new_entries": {
    "has_next": false,
    "page": 1,
    "results": []
  },
  "standings": {
    "has_next": true,
    "page": 76,
    "results": [
      {
        "club_badge_src": null,
        "entry": 1046190,
        "entry_name": "Salah Hasan",
        "event_total": 57,
        "has_played": true,
        "id": 7240322,
        "last_rank": 3442,
        "player_name": "salah hasan",
        "rank": 3738,
        "rank_sort": 3751,
        "total": 2421
      },
      {
        "club_badge_src": null,
        "entry": 1430878,
        "entry_name": "tn",
        "event_total": 81,
        "has_played": true,
        "id": 9970426,
        "last_rank": 9885,
        "player_name": "Naphat Santiworanart",
        "rank": 3738,
        "rank_sort": 3752,
        "total": 2421
      },
      {
        "club_badge_src": null,
        "entry": 1986772,
        "entry_name": "Berg James",
        "event_total": 70,
        "has_played": true,
        "id": 14034496,
        "last_rank": 5173,
        "player_name": "Berg James",
        "rank": 3738,
        "rank_sort": 3753,
        "total": 2421
      },
      {
        "club_badge_src": "https://fantasy.premierleague.com/gcs/plfpl-production-adobe-approved/plfpl-production/2209907/f1a6f03c-2021-40fe-8dd7-6c498ea5def8.png",
        "entry": 2209907,
        "entry_name": "Budu\u0107nost Titograd",
        "event_total": 71,
        "has_played": true,
        "id": 15736519,
        "last_rank": 6448,
        "player_name": "Rade Zec",
        "rank": 3738,
        "rank_sort": 3754,
        "total": 2421
      },
      {
        "club_badge_src": null,
        "entry": 2305176,
        "entry_name": "Bachir belkhir",
        "event_total": 67,
        "has_played": true,
        "id": 16442141,
        "last_rank": 5498,
        "player_name": "bachir mouloudia",
        "rank": 3738,
        "rank_sort": 3755,
        "total": 2421
      },
      {
        "club_badge_src": null,
        "entry": 2610552,
        "entry_name": "Marcus Trashford MBE",
        "event_total": 44,
        "has_played": true,
        "id": 18755375,
        "last_rank": 1797,
        "player_name": "K L",
        "rank": 3738,
        "rank_sort": 3756,
        "total": 2421
      },
      {
        "club_badge_src": null,
        "entry": 2614889,
        "entry_name": "kais18",
        "event_total": 63,
        "has_played": true,
        "id": 18788053,
        "last_rank": 4488,
        "player_name": "kais haddaji",
        "rank": 3738,
        "rank_sort": 3757,
        "total": 2421
      },
      {
        "club_badge_src": null,
        "entry": 2638911,
        "entry_name": "King Of Fantasy",
        "event_total": 58,
        "has_played": true,
        "id": 18966526,
        "last_rank": 3601,
        "player_name": "Bhum Chuasuwan",
        "rank": 3738,
        "rank_sort": 3758,
        "total": 2421
      },
      {
        "club_badge_src": "https://fantasy.premierleague.com/gcs/plfpl-production-adobe-approved/plfpl-production/3722207/ba4b44cb-42a4-415d-bcde-2371cb356803.png",
        "entry": 3722207,
        "entry_name": "Notnakol",
        "event_total": 59,
        "has_played": true,
        "id": 27778508,
        "last_rank": 3765,
        "player_name": "Anton Kolomoiets",
        "rank": 3738,
        "rank_sort": 3759,
        "total": 2421
      },
      {
        "club_badge_src": null,
        "entry": 3959717,
        "entry_name": "GaruGaru F.C",
        "event_total": 76,
        "has_played": true,
        "id": 29792033,
        "last_rank": 7979,
        "player_name": "Zaid Azman 105157",
        "rank": 3738,
        "rank_sort": 3760,
        "total": 2421
      },
      {
        "club_badge_src": null,
        "entry": 4760568,
        "entry_name": "no gamble no future",
        "event_total": 63,
        "has_played": true,
        "id": 36637187,
        "last_rank": 4570,
        "player_name": "Aatu Miettinen",
        "rank": 3738,
        "rank_sort": 3761,
        "total": 2421
      },
      {
        "club_badge_src": null,
        "entry": 4829904,
        "entry_name": "Where's the bloke?",
        "event_total": 75,
        "has_played": true,
        "id": 37199505,
        "last_rank": 7592,
        "player_name": "Lee Dixon",
        "rank": 3738,
        "rank_sort": 3762,
        "total": 2421
      },
      {
        "club_badge_src": null,
        "entry": 5729812,
        "entry_name": "ibra team",
        "event_total": 68,
        "has_played": true,
        "id": 44886771,
        "last_rank": 4742,
        "player_name": "Ibrahim A",
        "rank": 3738,
        "rank_sort": 3763,
        "total": 2421
      },
      {
        "club_badge_src": null,
        "entry": 5922267,
        "entry_name": "Olympique H\u00f6gstorp",
        "event_total": 62,
        "has_played": true,
        "id": 46549846,
        "last_rank": 3562,
        "player_name": "Hampus Geijersson",
        "rank": 3738,
        "rank_sort": 3764,
        "total": 2421
      },
      {
        "club_badge_src": null,
        "entry": 6157818,
        "entry_name": "Kinder Mbuemo",
        "event_total": 60,
        "has_played": true,
        "id": 48680426,
        "last_rank": 3951,
        "player_name": "Kieran Willis",
        "rank": 3738,
        "rank_sort": 3765,
        "total": 2421
      },
      {
        "club_badge_src": null,
        "entry": 7032536,
        "entry_name": "Ballers",
        "event_total": 60,
        "has_played": true,
        "id": 56521891,
        "last_rank": 3951,
        "player_name": "Endee Anaehobi",
        "rank": 3738,
        "rank_sort": 3766,
        "total": 2421
      },
      {
        "club_badge_src": null,
        "entry": 7445810,
        "entry_name": "Chicko's Warriors",
        "event_total": 62,
        "has_played": true,
        "id": 60579404,
        "last_rank": 3562,
        "player_name": "Johnny Chick",
        "rank": 3738,
        "rank_sort": 3767,
        "total": 2421
      },
      {
        "club_badge_src": null,
        "entry": 7488980,
        "entry_name": "Bruno > \u00d8degaard",
        "event_total": 60,
        "has_played": true,
        "id": 61139884,
        "last_rank": 3951,
        "player_name": "Aidan Lillis",
        "rank": 3738,
        "rank_sort": 3768,
        "total": 2421
      },
      {
        "club_badge_src": null,
        "entry": 13684,
        "entry_name": "Gimme Darwin",
        "event_total": 55,
        "has_played": true,
        "id": 82779,
        "last_rank": 3103,
        "player_name": "Peetu Rajala",
        "rank": 3769,
        "rank_sort": 3769,
        "total": 2421
      },
      {
        "club_badge_src": null,
        "entry": 22963,
        "entry_name": "Ramsej XI",
        "event_total": 68,
        "has_played": true,
        "id": 144414,
        "last_rank": 5792,
        "player_name": "Jesmar Grech",
        "rank": 3769,
        "rank_sort": 3770,
        "total": 2421
      },
      {
        "club_badge_src": null,
        "entry": 62304,
        "entry_name": "Midtable Mediocrity",
        "event_total": 53,
        "has_played": true,
        "id": 401508,
        "last_rank": 2891,
        "player_name": "Craig Herbertson",
        "rank": 3769,
        "rank_sort": 3771,
        "total": 2421
      },
      {
        "club_badge_src": null,
        "entry": 79579,
        "entry_name": "Wirtz case scenario",
        "event_total": 62,
        "has_played": true,
        "id": 517611,
        "last_rank": 4394,
        "player_name": "conor mcdonnell",
        "rank": 3769,
        "rank_sort": 3772,
        "total": 2421
      },
      {
        "club_badge_src": "https://fantasy.premierleague.com/gcs/plfpl-production-adobe-approved/plfpl-production/89232/11694ee1-fdef-465a-8694-2fc82de455eb.png",
        "entry": 89232,
        "entry_name": "Monty's Mandem",
        "event_total": 70,
        "has_played": true,
        "id": 582480,
        "last_rank": 5241,
        "player_name": "nathan montague",
        "rank": 3769,
        "rank_sort": 3773,
        "total": 2421
      },
      {
        "club_badge_src": null,
        "entry": 140131,
        "entry_name": "Ugarte Be Kidding Me",
        "event_total": 63,
        "has_played": true,
        "id": 914974,
        "last_rank": 3765,
        "player_name": "Lauritz St\u00f8l\u00e5s",
        "rank": 3769,
        "rank_sort": 3774,
        "total": 2421
      },
      {
        "club_badge_src": null,
        "entry": 380824,
        "entry_name": "MynkChesters United",
        "event_total": 54,
        "has_played": true,
        "id": 2552542,
        "last_rank": 3007,
        "player_name": "Mayank Badjatya",
        "rank": 3769,
        "rank_sort": 3775,
        "total": 2421
      },
      {
        "club_badge_src": null,
        "entry": 522969,
        "entry_name": "Hampshire_Saints",
        "event_total": 53,
        "has_played": true,
        "id": 3512549,
        "last_rank": 2891,
        "player_name": "Alex Wavell",
        "rank": 3769,
        "rank_sort": 3776,
        "total": 2421
      },
      {
        "club_badge_src": null,
        "entry": 572941,
        "entry_name": "The Shotters",
        "event_total": 67,
        "has_played": true,
        "id": 3855915,
        "last_rank": 5498,
        "player_name": "Brandon R",
        "rank": 3769,
        "rank_sort": 3777,
        "total": 2421
      },
      {
        "club_badge_src": null,
        "entry": 596214,
        "entry_name": "BoomSakaLaka",
        "event_total": 68,
        "has_played": true,
        "id": 4019842,
        "last_rank": 5752,
        "player_name": "George Crafts",
        "rank": 3769,
        "rank_sort": 3778,
        "total": 2421
      },
      {
        "club_badge_src": null,
        "entry": 599450,
        "entry_name": "Simba XI",
        "event_total": 66,
        "has_played": true,
        "id": 4043598,
        "last_rank": 4358,
        "player_name": "Sanjay Assarpota",
        "rank": 3769,
        "rank_sort": 3779,
        "total": 2421
      },
      {
        "club_badge_src": null,
        "entry": 618140,
        "entry_name": "VVDs Nuts",
        "event_total": 67,
        "has_played": true,
        "id": 4176376,
        "last_rank": 5498,
        "player_name": "Charley Horn",
        "rank": 3769,
        "rank_sort": 3780,
        "total": 2421
      },
      {
        "club_badge_src": null,
        "entry": 1183437,
        "entry_name": "ChickenTikka MoSalah",
        "event_total": 54,
        "has_played": true,
        "id": 8211026,
        "last_rank": 3007,
        "player_name": "Paul Jesty",
        "rank": 3769,
        "rank_sort": 3781,
        "total": 2421
      },
      {
        "club_badge_src": null,
        "entry": 1666938,
        "entry_name": "Jay's Eleven",
        "event_total": 66,
        "has_played": true,
        "id": 11670818,
        "last_rank": 4358,
        "player_name": "Jay Patton",
        "rank": 3769,
        "rank_sort": 3782,
        "total": 2421
      },
      {
        "club_badge_src": null,
        "entry": 1840337,
        "entry_name": "FC Romano",
        "event_total": 68,
        "has_played": true,
        "id": 12947563,
        "last_rank": 5792,
        "player_name": "Roma Samoilenko",
        "rank": 3769,
        "rank_sort": 3783,
        "total": 2421
      },
      {
        "club_badge_src": null,
        "entry": 2132659,
        "entry_name": "Elon Musk<Elon Seppe",
        "event_total": 59,
        "has_played": true,
        "id": 15155252,
        "last_rank": 3765,
        "player_name": "Venni Salonen",
        "rank": 3769,
        "rank_sort": 3784,
        "total": 2421
      },
      {
        "club_badge_src": null,
        "entry": 2298972,
        "entry_name": "Ralifornia Dreamin\u2019",
        "event_total": 65,
        "has_played": true,
        "id": 16397000,
        "last_rank": 5053,
        "player_name": "Rasmus S\u00e4tterstr\u00f6m",
        "rank": 3769,
        "rank_sort": 3785,
        "total": 2421
      },
      {
        "club_badge_src": null,
        "entry": 2916333,
        "entry_name": "Bili \u010diku",
        "event_total": 69,
        "has_played": true,
        "id": 21376385,
        "last_rank": 5940,
        "player_name": "Tihomir Petrovic",
        "rank": 3769,
        "rank_sort": 3786,
        "total": 2421
      },
      {
        "club_badge_src": null,
        "entry": 3212250,
        "entry_name": "Whats Rob Holding?",
        "event_total": 41,
        "has_played": true,
        "id": 23749265,
        "last_rank": 1563,
        "player_name": "Daniel Murphy",
        "rank": 3769,
        "rank_sort": 3787,
        "total": 2421
      },
      {
        "club_badge_src": null,
        "entry": 3412506,
        "entry_name": "FUBAR FC",
        "event_total": 84,
        "has_played": true,
        "id": 25343536,
        "last_rank": 11345,
        "player_name": "Harvey Hudson",
        "rank": 3769,
        "rank_sort": 3788,
        "total": 2421
      },
      {
        "club_badge_src": null,
        "entry": 3771679,
        "entry_name": "Shakeys",
        "event_total": 62,
        "has_played": true,
        "id": 28161925,
        "last_rank": 4358,
        "player_name": "Mathias Yap",
        "rank": 3769,
        "rank_sort": 3789,
        "total": 2421
      },
      {
        "club_badge_src": null,
        "entry": 4958226,
        "entry_name": "Havik FC",
        "event_total": 69,
        "has_played": true,
        "id": 38261200,
        "last_rank": 5011,
        "player_name": "Even Havik",
        "rank": 3769,
        "rank_sort": 3790,
        "total": 2421
      },
      {
        "club_badge_src": null,
        "entry": 5510903,
        "entry_name": "Kinder Mbuemo",
        "event_total": 69,
        "has_played": true,
        "id": 42955183,
        "last_rank": 5940,
        "player_name": "Tiggz .",
        "rank": 3769,
        "rank_sort": 3791,
        "total": 2421
      },
      {
        "club_badge_src": null,
        "entry": 5769987,
        "entry_name": "Rodgers Academy",
        "event_total": 59,
        "has_played": true,
        "id": 45237198,
        "last_rank": 3150,
        "player_name": "Tauriq Mohidin",
        "rank": 3769,
        "rank_sort": 3792,
        "total": 2421
      },
      {
        "club_badge_src": null,
        "entry": 5797253,
        "entry_name": "Blue Flag",
        "event_total": 76,
        "has_played": true,
        "id": 45474928,
        "last_rank": 8138,
        "player_name": "Ian Jackson",
        "rank": 3769,
        "rank_sort": 3793,
        "total": 2421
      },
      {
        "club_badge_src": null,
        "entry": 7520363,
        "entry_name": "Team Pedro",
        "event_total": 68,
        "has_played": true,
        "id": 61526198,
        "last_rank": 4804,
        "player_name": "Tom Pedrazzini",
        "rank": 3769,
        "rank_sort": 3794,
        "total": 2421
      },
      {
        "club_badge_src": null,
        "entry": 8347396,
        "entry_name": "Kanakas",
        "event_total": 67,
        "has_played": true,
        "id": 69178126,
        "last_rank": 5528,
        "player_name": "H\u00e5vard Karlsaune",
        "rank": 3769,
        "rank_sort": 3795,
        "total": 2421
      },
      {
        "club_badge_src": null,
        "entry": 56885,
        "entry_name": "That Team",
        "event_total": 71,
        "has_played": true,
        "id": 366425,
        "last_rank": 6614,
        "player_name": "Ryan Nissen",
        "rank": 3796,
        "rank_sort": 3796,
        "total": 2421
      },
      {
        "club_badge_src": "https://fantasy.premierleague.com/gcs/plfpl-production-adobe-approved/plfpl-production/78659/df7b8204-3bd6-43f6-8056-6b2a580b74a7.png",
        "entry": 78659,
        "entry_name": "Sezon Odkupienia.",
        "event_total": 64,
        "has_played": true,
        "id": 511428,
        "last_rank": 3302,
        "player_name": "Tomasz Kowalik",
        "rank": 3796,
        "rank_sort": 3797,
        "total": 2421
      },
      {
        "club_badge_src": null,
        "entry": 119420,
        "entry_name": "Polish Beast",
        "event_total": 70,
        "has_played": true,
        "id": 779170,
        "last_rank": 5241,
        "player_name": "Dawid Wi\u015bniewski",
        "rank": 3796,
        "rank_sort": 3798,
        "total": 2421
      },
      {
        "club_badge_src": null,
        "entry": 120001,
        "entry_name": "Structor Geom\u00f8lje",
        "event_total": 57,
        "has_played": true,
        "id": 782936,
        "last_rank": 2824,
        "player_name": "Sindre Vaksvik",
        "rank": 3796,
        "rank_sort": 3799,
        "total": 2421
      },
      {
        "club_badge_src": null,
        "entry": 265532,
        "entry_name": "Shiregeriatric",
        "event_total": 67,
        "has_played": true,
        "id": 1766137,
        "last_rank": 5560,
        "player_name": "michael udberg",
        "rank": 3796,
        "rank_sort": 3800,
        "total": 2421
      }
    ]
  }
}