{
  "last_updated_data": "2026-05-24T23:28:17Z",
  "league": {
    "admin_entry": null,
    "closed": false,
    "code_privacy": "p",
    "created": "2025-07-20T23:14:33.933835Z",
    "cup_league": 2815434,
    "has_cup": true,
    "id": 314,
    "league_type": "s",
    "max_entries": null,
    "name": "Overall",
    "rank": null,
    "scoring": "c",
    "start_event": 1
  },
  "new_entries": {
    "has_next": false,
    "page": 1,
    "results": []
  },
  "standings": {
    "has_next": true,
    "page": 832,
    "results": [
      {
        "club_badge_src": null,
        "entry": 6611933,
        "entry_name": "The Frimpong Song",
        "event_total": 50,
        "has_played": true,
        "id": 52828720,
        "last_rank": 33147,
        "player_name": "David Wiltshire",
        "rank": 41339,
        "rank_sort": 41551,
        "total": 2358
      },
      {
        "club_badge_src": null,
        "entry": 6878904,
        "entry_name": "Bench Warmers United",
        "event_total": 53,
        "has_played": true,
        "id": 55126081,
        "last_rank": 36624,
        "player_name": "Peter Gillies",
        "rank": 41339,
        "rank_sort": 41552,
        "total": 2358
      },
      {
        "club_badge_src": "https://fantasy.premierleague.com/gcs/plfpl-production-adobe-approved/plfpl-production/7190647/33b31d8e-6f30-478b-be3d-ea58c441430c.png",
        "entry": 7190647,
        "entry_name": "Inter City Firm",
        "event_total": 74,
        "has_played": true,
        "id": 58045883,
        "last_rank": 61239,
        "player_name": "Jack Barr",
        "rank": 41339,
        "rank_sort": 41553,
        "total": 2358
      },
      {
        "club_badge_src": null,
        "entry": 7212129,
        "entry_name": "CoolSideOfThePillow",
        "event_total": 54,
        "has_played": true,
        "id": 58248244,
        "last_rank": 37822,
        "player_name": "Chris Davies",
        "rank": 41339,
        "rank_sort": 41554,
        "total": 2358
      },
      {
        "club_badge_src": null,
        "entry": 7500152,
        "entry_name": "NoIdea",
        "event_total": 45,
        "has_played": true,
        "id": 61280387,
        "last_rank": 27976,
        "player_name": "Bj\u00f6rn Sundkvist",
        "rank": 41339,
        "rank_sort": 41555,
        "total": 2358
      },
      {
        "club_badge_src": null,
        "entry": 7641818,
        "entry_name": "The Lecky Siders",
        "event_total": 53,
        "has_played": true,
        "id": 62641862,
        "last_rank": 36348,
        "player_name": "Ste Everett",
        "rank": 41339,
        "rank_sort": 41556,
        "total": 2358
      },
      {
        "club_badge_src": "https://fantasy.premierleague.com/gcs/plfpl-production-adobe-approved/plfpl-production/7871606/05a6fd3a-d398-4fd9-adfa-3dc249c65990.png",
        "entry": 7871606,
        "entry_name": "L\u2019ed Le King\u2b50\ufe0f \u2b50\ufe0f \u2b50\ufe0f",
        "event_total": 65,
        "has_played": true,
        "id": 64728265,
        "last_rank": 46839,
        "player_name": "Ed Herman",
        "rank": 41339,
        "rank_sort": 41557,
        "total": 2358
      },
      {
        "club_badge_src": null,
        "entry": 7882307,
        "entry_name": "tjc1993",
        "event_total": 67,
        "has_played": true,
        "id": 64824887,
        "last_rank": 49880,
        "player_name": "Tiago Costa",
        "rank": 41339,
        "rank_sort": 41558,
        "total": 2358
      },
      {
        "club_badge_src": null,
        "entry": 7971441,
        "entry_name": "MUJTABA",
        "event_total": 62,
        "has_played": true,
        "id": 65631116,
        "last_rank": 48197,
        "player_name": "mujtaba wael",
        "rank": 41339,
        "rank_sort": 41559,
        "total": 2358
      },
      {
        "club_badge_src": null,
        "entry": 7998484,
        "entry_name": "FreshPrinceOfPalmer",
        "event_total": 64,
        "has_played": true,
        "id": 65869448,
        "last_rank": 51720,
        "player_name": "Grigory Lunyakov",
        "rank": 41339,
        "rank_sort": 41560,
        "total": 2358
      },
      {
        "club_badge_src": null,
        "entry": 8012076,
        "entry_name": "ThomasTheFrankEngine",
        "event_total": 67,
        "has_played": true,
        "id": 65993480,
        "last_rank": 56369,
        "player_name": "Harrison Crosby",
        "rank": 41339,
        "rank_sort": 41561,
        "total": 2358
      },
      {
        "club_badge_src": null,
        "entry": 8062305,
        "entry_name": "Jolly Watkins",
        "event_total": 50,
        "has_played": true,
        "id": 66449777,
        "last_rank": 33147,
        "player_name": "Molly Sutton",
        "rank": 41339,
        "rank_sort": 41562,
        "total": 2358
      },
      {
        "club_badge_src": null,
        "entry": 8124521,
        "entry_name": "the unction",
        "event_total": 77,
        "has_played": true,
        "id": 67030469,
        "last_rank": 75537,
        "player_name": "Amiel Kumar",
        "rank": 41339,
        "rank_sort": 41563,
        "total": 2358
      },
      {
        "club_badge_src": null,
        "entry": 8319000,
        "entry_name": "Taormina FC",
        "event_total": 69,
        "has_played": true,
        "id": 68909570,
        "last_rank": 59813,
        "player_name": "Chris Bartlett",
        "rank": 41339,
        "rank_sort": 41564,
        "total": 2358
      },
      {
        "club_badge_src": null,
        "entry": 8587516,
        "entry_name": "sane7",
        "event_total": 64,
        "has_played": true,
        "id": 71477505,
        "last_rank": 51720,
        "player_name": "Upuzi Tu fc",
        "rank": 41339,
        "rank_sort": 41565,
        "total": 2358
      },
      {
        "club_badge_src": null,
        "entry": 8935535,
        "entry_name": "Oaklands Otspurs fc",
        "event_total": 50,
        "has_played": true,
        "id": 74857739,
        "last_rank": 32879,
        "player_name": "Dave Reynolds",
        "rank": 41339,
        "rank_sort": 41566,
        "total": 2358
      },
      {
        "club_badge_src": null,
        "entry": 8991661,
        "entry_name": "Road to 1st",
        "event_total": 61,
        "has_played": true,
        "id": 75401006,
        "last_rank": 47163,
        "player_name": "AhMeD MaLiK",
        "rank": 41339,
        "rank_sort": 41567,
        "total": 2358
      },
      {
        "club_badge_src": null,
        "entry": 9045905,
        "entry_name": "Tombrown FC",
        "event_total": 51,
        "has_played": true,
        "id": 75924952,
        "last_rank": 34051,
        "player_name": "Wiredu Samuel",
        "rank": 41339,
        "rank_sort": 41568,
        "total": 2358
      },
      {
        "club_badge_src": null,
        "entry": 9210415,
        "entry_name": "Baile de Munique",
        "event_total": 62,
        "has_played": true,
        "id": 77536948,
        "last_rank": 48642,
        "player_name": "Miguel Martins",
        "rank": 41339,
        "rank_sort": 41569,
        "total": 2358
      },
      {
        "club_badge_src": null,
        "entry": 9480102,
        "entry_name": "Shijo Team",
        "event_total": 59,
        "has_played": true,
        "id": 80118785,
        "last_rank": 44048,
        "player_name": "SHIJO JOSEPH",
        "rank": 41339,
        "rank_sort": 41570,
        "total": 2358
      },
      {
        "club_badge_src": null,
        "entry": 10033670,
        "entry_name": "Catch me if you can",
        "event_total": 63,
        "has_played": true,
        "id": 85090970,
        "last_rank": 38571,
        "player_name": "Agozirim Ukpai",
        "rank": 41339,
        "rank_sort": 41571,
        "total": 2358
      },
      {
        "club_badge_src": null,
        "entry": 10560029,
        "entry_name": "Barrysboys",
        "event_total": 65,
        "has_played": true,
        "id": 89266508,
        "last_rank": 46839,
        "player_name": "Andrew Pritchard",
        "rank": 41339,
        "rank_sort": 41572,
        "total": 2358
      },
      {
        "club_badge_src": null,
        "entry": 1274,
        "entry_name": "Wirtz in progress",
        "event_total": 65,
        "has_played": true,
        "id": 7079,
        "last_rank": 47163,
        "player_name": "Kong DataFPL",
        "rank": 41573,
        "rank_sort": 41573,
        "total": 2358
      },
      {
        "club_badge_src": null,
        "entry": 2878,
        "entry_name": "Blades to glory",
        "event_total": 58,
        "has_played": true,
        "id": 16190,
        "last_rank": 37822,
        "player_name": "Chris Scully",
        "rank": 41573,
        "rank_sort": 41574,
        "total": 2358
      },
      {
        "club_badge_src": null,
        "entry": 4257,
        "entry_name": "Siickawy",
        "event_total": 66,
        "has_played": true,
        "id": 24180,
        "last_rank": 48642,
        "player_name": "Abdelrahman Elnaggar",
        "rank": 41573,
        "rank_sort": 41575,
        "total": 2358
      },
      {
        "club_badge_src": null,
        "entry": 8115,
        "entry_name": "Kylian the name of",
        "event_total": 50,
        "has_played": true,
        "id": 46996,
        "last_rank": 33332,
        "player_name": "Alex Hemmings",
        "rank": 41573,
        "rank_sort": 41576,
        "total": 2358
      },
      {
        "club_badge_src": null,
        "entry": 11718,
        "entry_name": "2nd is the new 4th",
        "event_total": 64,
        "has_played": true,
        "id": 69761,
        "last_rank": 51984,
        "player_name": "No Name",
        "rank": 41573,
        "rank_sort": 41577,
        "total": 2358
      },
      {
        "club_badge_src": null,
        "entry": 23665,
        "entry_name": "Varteig  Kicks",
        "event_total": 60,
        "has_played": true,
        "id": 149149,
        "last_rank": 40297,
        "player_name": "Christoffer Stensholt",
        "rank": 41573,
        "rank_sort": 41578,
        "total": 2358
      },
      {
        "club_badge_src": null,
        "entry": 25817,
        "entry_name": "CoysN17",
        "event_total": 65,
        "has_played": true,
        "id": 163297,
        "last_rank": 53345,
        "player_name": "sindre myklebostad",
        "rank": 41573,
        "rank_sort": 41579,
        "total": 2358
      },
      {
        "club_badge_src": "https://fantasy.premierleague.com/gcs/plfpl-production-adobe-approved/plfpl-production/28486/c9f726ad-f6b7-4953-8b3b-5edcc51b0074.png",
        "entry": 28486,
        "entry_name": "Delap Dancer",
        "event_total": 68,
        "has_played": true,
        "id": 180118,
        "last_rank": 58688,
        "player_name": "Paul Drewery",
        "rank": 41573,
        "rank_sort": 41580,
        "total": 2358
      },
      {
        "club_badge_src": null,
        "entry": 43554,
        "entry_name": "Kaputspor",
        "event_total": 64,
        "has_played": true,
        "id": 278933,
        "last_rank": 51720,
        "player_name": "Emre G\u00fcnd\u00fcz",
        "rank": 41573,
        "rank_sort": 41581,
        "total": 2358
      },
      {
        "club_badge_src": null,
        "entry": 44483,
        "entry_name": "Emils Engle",
        "event_total": 56,
        "has_played": true,
        "id": 285083,
        "last_rank": 35424,
        "player_name": "Emil Kristensen",
        "rank": 41573,
        "rank_sort": 41582,
        "total": 2358
      },
      {
        "club_badge_src": null,
        "entry": 48676,
        "entry_name": "Boots on the Moon",
        "event_total": 62,
        "has_played": true,
        "id": 312701,
        "last_rank": 48898,
        "player_name": "Bernard Price",
        "rank": 41573,
        "rank_sort": 41583,
        "total": 2358
      },
      {
        "club_badge_src": null,
        "entry": 48686,
        "entry_name": "Igor Biscan",
        "event_total": 60,
        "has_played": true,
        "id": 312772,
        "last_rank": 45927,
        "player_name": "bradley compton-bearne",
        "rank": 41573,
        "rank_sort": 41584,
        "total": 2358
      },
      {
        "club_badge_src": null,
        "entry": 50745,
        "entry_name": "Roy Kent",
        "event_total": 67,
        "has_played": true,
        "id": 326399,
        "last_rank": 50199,
        "player_name": "Stephen Schmitt",
        "rank": 41573,
        "rank_sort": 41585,
        "total": 2358
      },
      {
        "club_badge_src": null,
        "entry": 60906,
        "entry_name": "Wollmar United",
        "event_total": 57,
        "has_played": true,
        "id": 392150,
        "last_rank": 36624,
        "player_name": "Per-\u00c5ke Franklind",
        "rank": 41573,
        "rank_sort": 41586,
        "total": 2358
      },
      {
        "club_badge_src": null,
        "entry": 63870,
        "entry_name": "Rhythm of Van Dijk",
        "event_total": 60,
        "has_played": true,
        "id": 412163,
        "last_rank": 45927,
        "player_name": "Chris Gordon",
        "rank": 41573,
        "rank_sort": 41587,
        "total": 2358
      },
      {
        "club_badge_src": null,
        "entry": 69895,
        "entry_name": "Stoops Tigers",
        "event_total": 63,
        "has_played": true,
        "id": 453626,
        "last_rank": 50199,
        "player_name": "Leon Colley",
        "rank": 41573,
        "rank_sort": 41588,
        "total": 2358
      },
      {
        "club_badge_src": null,
        "entry": 70438,
        "entry_name": "Palmer violets",
        "event_total": 62,
        "has_played": true,
        "id": 457407,
        "last_rank": 48642,
        "player_name": "Nat Ahmed",
        "rank": 41573,
        "rank_sort": 41589,
        "total": 2358
      },
      {
        "club_badge_src": null,
        "entry": 96555,
        "entry_name": "Flamin Hot Chidos",
        "event_total": 64,
        "has_played": true,
        "id": 630758,
        "last_rank": 51403,
        "player_name": "Stephen Woods",
        "rank": 41573,
        "rank_sort": 41590,
        "total": 2358
      },
      {
        "club_badge_src": null,
        "entry": 103676,
        "entry_name": "Jojo's Lawds",
        "event_total": 63,
        "has_played": true,
        "id": 676452,
        "last_rank": 44303,
        "player_name": "Jonathan Burns",
        "rank": 41573,
        "rank_sort": 41591,
        "total": 2358
      },
      {
        "club_badge_src": null,
        "entry": 108734,
        "entry_name": "NoVardyNoParty",
        "event_total": 27,
        "has_played": true,
        "id": 708902,
        "last_rank": 12322,
        "player_name": "Arek Strza\u0142ka",
        "rank": 41573,
        "rank_sort": 41592,
        "total": 2358
      },
      {
        "club_badge_src": null,
        "entry": 109858,
        "entry_name": "Declane Rice",
        "event_total": 70,
        "has_played": true,
        "id": 716374,
        "last_rank": 54667,
        "player_name": "Oliver Lane",
        "rank": 41573,
        "rank_sort": 41593,
        "total": 2358
      },
      {
        "club_badge_src": null,
        "entry": 123775,
        "entry_name": "Mr Brobbey",
        "event_total": 39,
        "has_played": true,
        "id": 807282,
        "last_rank": 22830,
        "player_name": "Guy Wellington",
        "rank": 41573,
        "rank_sort": 41594,
        "total": 2358
      },
      {
        "club_badge_src": null,
        "entry": 124384,
        "entry_name": "Unpredictables",
        "event_total": 52,
        "has_played": true,
        "id": 811307,
        "last_rank": 30957,
        "player_name": "Sashendran Pathmanathan",
        "rank": 41573,
        "rank_sort": 41595,
        "total": 2358
      },
      {
        "club_badge_src": null,
        "entry": 128191,
        "entry_name": "Adha'a",
        "event_total": 36,
        "has_played": true,
        "id": 835577,
        "last_rank": 17585,
        "player_name": "Abdikadir Adan Omar",
        "rank": 41573,
        "rank_sort": 41596,
        "total": 2358
      },
      {
        "club_badge_src": null,
        "entry": 132170,
        "entry_name": "Pinky and De Bruyne",
        "event_total": 65,
        "has_played": true,
        "id": 861025,
        "last_rank": 53621,
        "player_name": "James Smith",
        "rank": 41573,
        "rank_sort": 41597,
        "total": 2358
      },
      {
        "club_badge_src": null,
        "entry": 135027,
        "entry_name": "Bowen's on Fire",
        "event_total": 57,
        "has_played": true,
        "id": 879298,
        "last_rank": 41617,
        "player_name": "alex ladbrook",
        "rank": 41573,
        "rank_sort": 41598,
        "total": 2358
      },
      {
        "club_badge_src": null,
        "entry": 178832,
        "entry_name": "Prison FC",
        "event_total": 75,
        "has_played": true,
        "id": 1180206,
        "last_rank": 63724,
        "player_name": "Grant Schwartz",
        "rank": 41573,
        "rank_sort": 41599,
        "total": 2358
      },
      {
        "club_badge_src": "https://fantasy.premierleague.com/gcs/plfpl-production-adobe-approved/plfpl-production/193669/2411b326-067a-4fb8-aa93-cbf7cba6c77b.png",
        "entry": 193669,
        "entry_name": "Los Porro Hermanos",
        "event_total": 49,
        "has_played": true,
        "id": 1283781,
        "last_rank": 31995,
        "player_name": "Lleyton Harris",
        "rank": 41573,
        "rank_sort": 41600,
        "total": 2358
      }
    ]
  }
}