{
  "last_updated_data": "2026-05-24T23:28:17Z",
  "league": {
    "admin_entry": null,
    "closed": false,
    "code_privacy": "p",
    "created": "2025-07-20T23:14:33.933835Z",
    "cup_league": 2815434,
    "has_cup": true,
    "id": 314,
    "league_type": "s",
    "max_entries": null,
    "name": "Overall",
    "rank": null,
    "scoring": "c",
    "start_event": 1
  },
  "new_entries": {
    "has_next": false,
    "page": 1,
    "results": []
  },
  "standings": {
    "has_next": true,
    "page": 463,
    "results": [
      {
        "club_badge_src": null,
        "entry": 3971520,
        "entry_name": "BALABELO",
        "event_total": 58,
        "has_played": true,
        "id": 29888054,
        "last_rank": 23341,
        "player_name": "Abdullah Bulbul",
        "rank": 22998,
        "rank_sort": 23101,
        "total": 2376
      },
      {
        "club_badge_src": null,
        "entry": 3976380,
        "entry_name": "Team Henke",
        "event_total": 76,
        "has_played": true,
        "id": 29928607,
        "last_rank": 37589,
        "player_name": "Henrik Maartensson",
        "rank": 22998,
        "rank_sort": 23102,
        "total": 2376
      },
      {
        "club_badge_src": null,
        "entry": 4238582,
        "entry_name": "Rainbow Dragon",
        "event_total": 66,
        "has_played": true,
        "id": 32122019,
        "last_rank": 26827,
        "player_name": "Captain Malau",
        "rank": 22998,
        "rank_sort": 23103,
        "total": 2376
      },
      {
        "club_badge_src": null,
        "entry": 4403459,
        "entry_name": "Mbuemo No. 5",
        "event_total": 67,
        "has_played": true,
        "id": 33491503,
        "last_rank": 31995,
        "player_name": "Ollie Norton",
        "rank": 22998,
        "rank_sort": 23104,
        "total": 2376
      },
      {
        "club_badge_src": null,
        "entry": 4599153,
        "entry_name": "Give Me Some Kudus",
        "event_total": 54,
        "has_played": true,
        "id": 35128628,
        "last_rank": 20416,
        "player_name": "Tom Morris",
        "rank": 22998,
        "rank_sort": 23105,
        "total": 2376
      },
      {
        "club_badge_src": null,
        "entry": 4599474,
        "entry_name": "Kobbie and Paste",
        "event_total": 45,
        "has_played": true,
        "id": 35131317,
        "last_rank": 12200,
        "player_name": "Ed Howes",
        "rank": 22998,
        "rank_sort": 23106,
        "total": 2376
      },
      {
        "club_badge_src": null,
        "entry": 4623950,
        "entry_name": "Peca me naterao",
        "event_total": 74,
        "has_played": true,
        "id": 35349673,
        "last_rank": 35166,
        "player_name": "Dejan Boskov",
        "rank": 22998,
        "rank_sort": 23107,
        "total": 2376
      },
      {
        "club_badge_src": null,
        "entry": 4653527,
        "entry_name": "Bilbao Baggins",
        "event_total": 70,
        "has_played": true,
        "id": 35607487,
        "last_rank": 35034,
        "player_name": "Gabriella Cooper",
        "rank": 22998,
        "rank_sort": 23108,
        "total": 2376
      },
      {
        "club_badge_src": null,
        "entry": 4660576,
        "entry_name": "Kingston Town",
        "event_total": 70,
        "has_played": true,
        "id": 35686300,
        "last_rank": 35034,
        "player_name": "John Kingston",
        "rank": 22998,
        "rank_sort": 23109,
        "total": 2376
      },
      {
        "club_badge_src": null,
        "entry": 4692446,
        "entry_name": "Kinder Mbeumo",
        "event_total": 63,
        "has_played": true,
        "id": 35967515,
        "last_rank": 27770,
        "player_name": "jake Gibson",
        "rank": 22998,
        "rank_sort": 23110,
        "total": 2376
      },
      {
        "club_badge_src": "https://fantasy.premierleague.com/gcs/plfpl-production-adobe-approved/plfpl-production/4701891/77d69a83-a917-470a-8377-5f614afd286d.png",
        "entry": 4701891,
        "entry_name": "ShaSha Blues",
        "event_total": 55,
        "has_played": true,
        "id": 36046108,
        "last_rank": 21301,
        "player_name": "Nasuha Arbain",
        "rank": 22998,
        "rank_sort": 23111,
        "total": 2376
      },
      {
        "club_badge_src": null,
        "entry": 4724868,
        "entry_name": "The Mechanic",
        "event_total": 38,
        "has_played": true,
        "id": 36316573,
        "last_rank": 9142,
        "player_name": "Mark Etiebet",
        "rank": 22998,
        "rank_sort": 23112,
        "total": 2376
      },
      {
        "club_badge_src": null,
        "entry": 4755268,
        "entry_name": "The Bashers",
        "event_total": 69,
        "has_played": true,
        "id": 36593259,
        "last_rank": 34293,
        "player_name": "Benjamin Warburton",
        "rank": 22998,
        "rank_sort": 23113,
        "total": 2376
      },
      {
        "club_badge_src": null,
        "entry": 4853273,
        "entry_name": "Champagne supernova",
        "event_total": 66,
        "has_played": true,
        "id": 37394054,
        "last_rank": 30957,
        "player_name": "louise Cafferkey",
        "rank": 22998,
        "rank_sort": 23114,
        "total": 2376
      },
      {
        "club_badge_src": null,
        "entry": 4898426,
        "entry_name": "Baldar Move",
        "event_total": 75,
        "has_played": true,
        "id": 37771302,
        "last_rank": 41324,
        "player_name": "Ibrahim Abdelrazek",
        "rank": 22998,
        "rank_sort": 23115,
        "total": 2376
      },
      {
        "club_badge_src": null,
        "entry": 4942847,
        "entry_name": "AvtoBUM Kocevje",
        "event_total": 55,
        "has_played": true,
        "id": 38137950,
        "last_rank": 21159,
        "player_name": "Goran Nimac",
        "rank": 22998,
        "rank_sort": 23116,
        "total": 2376
      },
      {
        "club_badge_src": null,
        "entry": 4946174,
        "entry_name": "Igwe Ocholi",
        "event_total": 56,
        "has_played": true,
        "id": 38164469,
        "last_rank": 21949,
        "player_name": "Le Loup Noir",
        "rank": 22998,
        "rank_sort": 23117,
        "total": 2376
      },
      {
        "club_badge_src": null,
        "entry": 4946710,
        "entry_name": "Hacunha Mateta",
        "event_total": 46,
        "has_played": true,
        "id": 38168835,
        "last_rank": 12705,
        "player_name": "Mark McCoy",
        "rank": 22998,
        "rank_sort": 23118,
        "total": 2376
      },
      {
        "club_badge_src": null,
        "entry": 4966686,
        "entry_name": "Vaikdb",
        "event_total": 78,
        "has_played": true,
        "id": 38329372,
        "last_rank": 45416,
        "player_name": "Vaibhav Garg",
        "rank": 22998,
        "rank_sort": 23119,
        "total": 2376
      },
      {
        "club_badge_src": "https://fantasy.premierleague.com/gcs/plfpl-production-adobe-approved/plfpl-production/4999495/81b9b3f2-582b-4f9e-8571-1fabae5a4961.png",
        "entry": 4999495,
        "entry_name": "reddon united",
        "event_total": 61,
        "has_played": true,
        "id": 38603829,
        "last_rank": 26088,
        "player_name": "Red Sg",
        "rank": 22998,
        "rank_sort": 23120,
        "total": 2376
      },
      {
        "club_badge_src": null,
        "entry": 5100827,
        "entry_name": "LETO SUBUK",
        "event_total": 65,
        "has_played": true,
        "id": 39426398,
        "last_rank": 29904,
        "player_name": "Pessi Penaldo",
        "rank": 22998,
        "rank_sort": 23121,
        "total": 2376
      },
      {
        "club_badge_src": null,
        "entry": 5186584,
        "entry_name": "Tequila Son-set",
        "event_total": 62,
        "has_played": true,
        "id": 40150108,
        "last_rank": 27020,
        "player_name": "CJ Egalite",
        "rank": 22998,
        "rank_sort": 23122,
        "total": 2376
      },
      {
        "club_badge_src": null,
        "entry": 5288526,
        "entry_name": "PEPSTRADAMUS",
        "event_total": 56,
        "has_played": true,
        "id": 40993034,
        "last_rank": 18691,
        "player_name": "Matej Stauffacher",
        "rank": 22998,
        "rank_sort": 23123,
        "total": 2376
      },
      {
        "club_badge_src": null,
        "entry": 5490784,
        "entry_name": "The Burn Identity",
        "event_total": 58,
        "has_played": true,
        "id": 42764249,
        "last_rank": 23341,
        "player_name": "David Baker",
        "rank": 22998,
        "rank_sort": 23124,
        "total": 2376
      },
      {
        "club_badge_src": null,
        "entry": 5499649,
        "entry_name": "Dogsen (\u2b50\ufe0f)",
        "event_total": 42,
        "has_played": true,
        "id": 42850852,
        "last_rank": 12940,
        "player_name": "Adam Linders",
        "rank": 22998,
        "rank_sort": 23125,
        "total": 2376
      },
      {
        "club_badge_src": null,
        "entry": 5509173,
        "entry_name": "HanSolo",
        "event_total": 57,
        "has_played": true,
        "id": 42939781,
        "last_rank": 22685,
        "player_name": "Han Wee",
        "rank": 22998,
        "rank_sort": 23126,
        "total": 2376
      },
      {
        "club_badge_src": null,
        "entry": 5607836,
        "entry_name": "NewEra",
        "event_total": 61,
        "has_played": true,
        "id": 43824358,
        "last_rank": 26088,
        "player_name": "Zs. Bazsi",
        "rank": 22998,
        "rank_sort": 23127,
        "total": 2376
      },
      {
        "club_badge_src": null,
        "entry": 5747399,
        "entry_name": "pep rally",
        "event_total": 47,
        "has_played": true,
        "id": 45044158,
        "last_rank": 15797,
        "player_name": "Austin Sheppard",
        "rank": 22998,
        "rank_sort": 23128,
        "total": 2376
      },
      {
        "club_badge_src": null,
        "entry": 5807791,
        "entry_name": "patronens p\u00e5gar",
        "event_total": 60,
        "has_played": true,
        "id": 45567578,
        "last_rank": 25002,
        "player_name": "Patrick Velasco",
        "rank": 22998,
        "rank_sort": 23129,
        "total": 2376
      },
      {
        "club_badge_src": null,
        "entry": 5946642,
        "entry_name": "No salah this year",
        "event_total": 47,
        "has_played": true,
        "id": 46769006,
        "last_rank": 15694,
        "player_name": "Hani Tabet",
        "rank": 22998,
        "rank_sort": 23130,
        "total": 2376
      },
      {
        "club_badge_src": null,
        "entry": 6049226,
        "entry_name": "Allisson Wonderland",
        "event_total": 63,
        "has_played": true,
        "id": 47732712,
        "last_rank": 27770,
        "player_name": "Suhail Alam",
        "rank": 22998,
        "rank_sort": 23131,
        "total": 2376
      },
      {
        "club_badge_src": null,
        "entry": 6060687,
        "entry_name": "\u0160e\u0161ko Meal Deal",
        "event_total": 64,
        "has_played": true,
        "id": 47832008,
        "last_rank": 25002,
        "player_name": "Mina Shafik",
        "rank": 22998,
        "rank_sort": 23132,
        "total": 2376
      },
      {
        "club_badge_src": null,
        "entry": 6263401,
        "entry_name": "Isak's Gone",
        "event_total": 64,
        "has_played": true,
        "id": 49592545,
        "last_rank": 28726,
        "player_name": "Adam Cooper",
        "rank": 22998,
        "rank_sort": 23133,
        "total": 2376
      },
      {
        "club_badge_src": null,
        "entry": 6306089,
        "entry_name": "ASFC",
        "event_total": 70,
        "has_played": true,
        "id": 50013089,
        "last_rank": 35166,
        "player_name": "Abhimanyu Shah",
        "rank": 22998,
        "rank_sort": 23134,
        "total": 2376
      },
      {
        "club_badge_src": null,
        "entry": 6376866,
        "entry_name": "From Bad to Wirtz",
        "event_total": 69,
        "has_played": true,
        "id": 50714675,
        "last_rank": 29688,
        "player_name": "Jamie Coe",
        "rank": 22998,
        "rank_sort": 23135,
        "total": 2376
      },
      {
        "club_badge_src": null,
        "entry": 6524134,
        "entry_name": "GuacaSaka",
        "event_total": 66,
        "has_played": true,
        "id": 52036599,
        "last_rank": 30957,
        "player_name": "Ethan DS",
        "rank": 22998,
        "rank_sort": 23136,
        "total": 2376
      },
      {
        "club_badge_src": null,
        "entry": 6628516,
        "entry_name": "Invader FC",
        "event_total": 73,
        "has_played": true,
        "id": 52973864,
        "last_rank": 38774,
        "player_name": "Hamza Omar",
        "rank": 22998,
        "rank_sort": 23137,
        "total": 2376
      },
      {
        "club_badge_src": null,
        "entry": 6668032,
        "entry_name": "Anfield's Angels",
        "event_total": 65,
        "has_played": true,
        "id": 53327792,
        "last_rank": 25776,
        "player_name": "Toni Kylm\u00e4maa",
        "rank": 22998,
        "rank_sort": 23138,
        "total": 2376
      },
      {
        "club_badge_src": null,
        "entry": 6686603,
        "entry_name": "Doumbia, My Lord",
        "event_total": 45,
        "has_played": true,
        "id": 53490164,
        "last_rank": 14496,
        "player_name": "Craig Tanner",
        "rank": 22998,
        "rank_sort": 23139,
        "total": 2376
      },
      {
        "club_badge_src": null,
        "entry": 6710186,
        "entry_name": "Dunk & Disorderly",
        "event_total": 65,
        "has_played": true,
        "id": 53699058,
        "last_rank": 29522,
        "player_name": "Jamie Forshaw",
        "rank": 22998,
        "rank_sort": 23140,
        "total": 2376
      },
      {
        "club_badge_src": null,
        "entry": 6733456,
        "entry_name": "Sky-team91",
        "event_total": 69,
        "has_played": true,
        "id": 53896133,
        "last_rank": 34051,
        "player_name": "Kent Are T\u00f8mmervik",
        "rank": 22998,
        "rank_sort": 23141,
        "total": 2376
      },
      {
        "club_badge_src": null,
        "entry": 6775703,
        "entry_name": "The Engine Room",
        "event_total": 70,
        "has_played": true,
        "id": 54254364,
        "last_rank": 35166,
        "player_name": "Lindon Coombs",
        "rank": 22998,
        "rank_sort": 23142,
        "total": 2376
      },
      {
        "club_badge_src": null,
        "entry": 6803064,
        "entry_name": "Jay Riemenschneider",
        "event_total": 47,
        "has_played": true,
        "id": 54482113,
        "last_rank": 15694,
        "player_name": "Oyvind Herrebroden",
        "rank": 22998,
        "rank_sort": 23143,
        "total": 2376
      },
      {
        "club_badge_src": null,
        "entry": 6895311,
        "entry_name": "Island breeze",
        "event_total": 44,
        "has_played": true,
        "id": 55265106,
        "last_rank": 11642,
        "player_name": "Joe Forsyth",
        "rank": 22998,
        "rank_sort": 23144,
        "total": 2376
      },
      {
        "club_badge_src": "https://fantasy.premierleague.com/gcs/plfpl-production-adobe-approved/plfpl-production/6898364/da0e31cd-fc98-4afd-ab41-6cc3d3f26e0a.png",
        "entry": 6898364,
        "entry_name": "Dynamo FC",
        "event_total": 54,
        "has_played": true,
        "id": 55290770,
        "last_rank": 20416,
        "player_name": "Andrei Kazlouski",
        "rank": 22998,
        "rank_sort": 23145,
        "total": 2376
      },
      {
        "club_badge_src": null,
        "entry": 6950354,
        "entry_name": "Everton till Ndiaye",
        "event_total": 44,
        "has_played": true,
        "id": 55730853,
        "last_rank": 13821,
        "player_name": "Rose Farbrother",
        "rank": 22998,
        "rank_sort": 23146,
        "total": 2376
      },
      {
        "club_badge_src": null,
        "entry": 8285026,
        "entry_name": "Zubi Zubi-Doo",
        "event_total": 61,
        "has_played": true,
        "id": 68556396,
        "last_rank": 25902,
        "player_name": "Jack May",
        "rank": 22998,
        "rank_sort": 23147,
        "total": 2376
      },
      {
        "club_badge_src": null,
        "entry": 8289733,
        "entry_name": "Expected Toulouse",
        "event_total": 50,
        "has_played": true,
        "id": 68602612,
        "last_rank": 17585,
        "player_name": "Peter Fry",
        "rank": 22998,
        "rank_sort": 23148,
        "total": 2376
      },
      {
        "club_badge_src": null,
        "entry": 8471848,
        "entry_name": "Eze Come Eze Go",
        "event_total": 62,
        "has_played": true,
        "id": 70362462,
        "last_rank": 23341,
        "player_name": "Andy Dyke",
        "rank": 22998,
        "rank_sort": 23149,
        "total": 2376
      },
      {
        "club_badge_src": null,
        "entry": 9199117,
        "entry_name": "Bunnys best",
        "event_total": 55,
        "has_played": true,
        "id": 77425213,
        "last_rank": 20853,
        "player_name": "amanda farbrother",
        "rank": 22998,
        "rank_sort": 23150,
        "total": 2376
      }
    ]
  }
}