{
  "last_updated_data": "2026-05-24T23:28:17Z",
  "league": {
    "admin_entry": null,
    "closed": false,
    "code_privacy": "p",
    "created": "2025-07-20T23:14:33.933835Z",
    "cup_league": 2815434,
    "has_cup": true,
    "id": 314,
    "league_type": "s",
    "max_entries": null,
    "name": "Overall",
    "rank": null,
    "scoring": "c",
    "start_event": 1
  },
  "new_entries": {
    "has_next": false,
    "page": 1,
    "results": []
  },
  "standings": {
    "has_next": true,
    "page": 400,
    "results": [
      {
        "club_badge_src": null,
        "entry": 1990384,
        "entry_name": "tomertheboy",
        "event_total": 56,
        "has_played": true,
        "id": 14061964,
        "last_rank": 18691,
        "player_name": "tomer baram",
        "rank": 19880,
        "rank_sort": 19951,
        "total": 2380
      },
      {
        "club_badge_src": "https://fantasy.premierleague.com/gcs/plfpl-production-adobe-approved/plfpl-production/1990688/b6427225-6335-4779-aba1-245b0dc880e3.png",
        "entry": 1990688,
        "entry_name": "Ekitikitaka",
        "event_total": 58,
        "has_played": true,
        "id": 14064289,
        "last_rank": 20280,
        "player_name": "Tibi Barna",
        "rank": 19880,
        "rank_sort": 19952,
        "total": 2380
      },
      {
        "club_badge_src": "https://fantasy.premierleague.com/gcs/plfpl-production-adobe-approved/plfpl-production/1991638/f8e173a3-28e1-4da1-bd4f-ff0453231c0e.png",
        "entry": 1991638,
        "entry_name": "ChickenTikkaMoSalah",
        "event_total": 57,
        "has_played": true,
        "id": 14071785,
        "last_rank": 19432,
        "player_name": "Brendan McCrea",
        "rank": 19880,
        "rank_sort": 19953,
        "total": 2380
      },
      {
        "club_badge_src": null,
        "entry": 2014522,
        "entry_name": "AAA\ufffdAAA",
        "event_total": 69,
        "has_played": true,
        "id": 14249978,
        "last_rank": 29578,
        "player_name": "Lyndon Lee",
        "rank": 19880,
        "rank_sort": 19954,
        "total": 2380
      },
      {
        "club_badge_src": null,
        "entry": 2075823,
        "entry_name": "11 left feet",
        "event_total": 50,
        "has_played": true,
        "id": 14717818,
        "last_rank": 14926,
        "player_name": "Alex Donoyou",
        "rank": 19880,
        "rank_sort": 19955,
        "total": 2380
      },
      {
        "club_badge_src": null,
        "entry": 2133353,
        "entry_name": "Hardly Athletic",
        "event_total": 62,
        "has_played": true,
        "id": 15160501,
        "last_rank": 23188,
        "player_name": "Jack Scanlon",
        "rank": 19880,
        "rank_sort": 19956,
        "total": 2380
      },
      {
        "club_badge_src": null,
        "entry": 2146053,
        "entry_name": "The doliz",
        "event_total": 55,
        "has_played": true,
        "id": 15253581,
        "last_rank": 17989,
        "player_name": "Eyal Dulitzky",
        "rank": 19880,
        "rank_sort": 19957,
        "total": 2380
      },
      {
        "club_badge_src": null,
        "entry": 2169904,
        "entry_name": "Hit",
        "event_total": 68,
        "has_played": true,
        "id": 15428098,
        "last_rank": 28726,
        "player_name": "Stefan Heijtlager",
        "rank": 19880,
        "rank_sort": 19958,
        "total": 2380
      },
      {
        "club_badge_src": "https://fantasy.premierleague.com/gcs/plfpl-production-adobe-approved/plfpl-production/2210488/238766a9-36d4-44ff-b1f1-04a9b45cdcc3.png",
        "entry": 2210488,
        "entry_name": "Eust to this",
        "event_total": 65,
        "has_played": true,
        "id": 15740708,
        "last_rank": 25902,
        "player_name": "Angus Barrow",
        "rank": 19880,
        "rank_sort": 19959,
        "total": 2380
      },
      {
        "club_badge_src": null,
        "entry": 2291309,
        "entry_name": "Mestarietsiv\u00e4Peppune",
        "event_total": 64,
        "has_played": true,
        "id": 16341515,
        "last_rank": 24897,
        "player_name": "Aku Kuikka",
        "rank": 19880,
        "rank_sort": 19960,
        "total": 2380
      },
      {
        "club_badge_src": null,
        "entry": 2457365,
        "entry_name": "Guad Squad",
        "event_total": 53,
        "has_played": true,
        "id": 17576887,
        "last_rank": 16959,
        "player_name": "Matthew Guadagnini",
        "rank": 19880,
        "rank_sort": 19961,
        "total": 2380
      },
      {
        "club_badge_src": null,
        "entry": 2818411,
        "entry_name": "Offside FC",
        "event_total": 58,
        "has_played": true,
        "id": 20586779,
        "last_rank": 20280,
        "player_name": "SAISH HATKAR",
        "rank": 19880,
        "rank_sort": 19962,
        "total": 2380
      },
      {
        "club_badge_src": null,
        "entry": 2825588,
        "entry_name": "Beef Cherki",
        "event_total": 67,
        "has_played": true,
        "id": 20644506,
        "last_rank": 27585,
        "player_name": "Clarence Ngai",
        "rank": 19880,
        "rank_sort": 19963,
        "total": 2380
      },
      {
        "club_badge_src": "https://fantasy.premierleague.com/gcs/plfpl-production-adobe-approved/plfpl-production/2886462/d945f657-488a-49e0-8070-819f8d45679e.png",
        "entry": 2886462,
        "entry_name": "dsquad25",
        "event_total": 55,
        "has_played": true,
        "id": 21132340,
        "last_rank": 18029,
        "player_name": "Tage Kristoffersen",
        "rank": 19880,
        "rank_sort": 19964,
        "total": 2380
      },
      {
        "club_badge_src": null,
        "entry": 2939669,
        "entry_name": "green harmony",
        "event_total": 47,
        "has_played": true,
        "id": 21570353,
        "last_rank": 13257,
        "player_name": "stmundip estehmanis",
        "rank": 19880,
        "rank_sort": 19965,
        "total": 2380
      },
      {
        "club_badge_src": "https://fantasy.premierleague.com/gcs/plfpl-production-adobe-approved/plfpl-production/3051493/4b161810-3e9d-4679-bb33-2c73261975e4.png",
        "entry": 3051493,
        "entry_name": "Ramiros FC",
        "event_total": 63,
        "has_played": true,
        "id": 22464499,
        "last_rank": 24039,
        "player_name": "Miguel Caria",
        "rank": 19880,
        "rank_sort": 19966,
        "total": 2380
      },
      {
        "club_badge_src": null,
        "entry": 3278816,
        "entry_name": "Mookrata",
        "event_total": 67,
        "has_played": true,
        "id": 24268251,
        "last_rank": 27644,
        "player_name": "Thanachart Jaikhaeng",
        "rank": 19880,
        "rank_sort": 19967,
        "total": 2380
      },
      {
        "club_badge_src": null,
        "entry": 3310056,
        "entry_name": "Rich Tea FC",
        "event_total": 62,
        "has_played": true,
        "id": 24523126,
        "last_rank": 23188,
        "player_name": "John Spreag",
        "rank": 19880,
        "rank_sort": 19968,
        "total": 2380
      },
      {
        "club_badge_src": null,
        "entry": 3310078,
        "entry_name": "Nederlaget",
        "event_total": 52,
        "has_played": true,
        "id": 24523276,
        "last_rank": 16163,
        "player_name": "Kathrine Killingland",
        "rank": 19880,
        "rank_sort": 19969,
        "total": 2380
      },
      {
        "club_badge_src": "https://fantasy.premierleague.com/gcs/plfpl-production-adobe-approved/plfpl-production/3415760/78111b27-0edb-48c7-a35e-6e7a89d5930e.png",
        "entry": 3415760,
        "entry_name": "Sabali Futbol Club",
        "event_total": 59,
        "has_played": true,
        "id": 25370623,
        "last_rank": 20983,
        "player_name": "Daniel Chikonzero",
        "rank": 19880,
        "rank_sort": 19970,
        "total": 2380
      },
      {
        "club_badge_src": "https://fantasy.premierleague.com/gcs/plfpl-production-adobe-approved/plfpl-production/3551744/e695c167-0ab5-46df-9872-274042ab4316.png",
        "entry": 3551744,
        "entry_name": "Wirtz Kept Secret FC",
        "event_total": 71,
        "has_played": true,
        "id": 26442182,
        "last_rank": 31620,
        "player_name": "Nkululeko Mthiyane",
        "rank": 19880,
        "rank_sort": 19971,
        "total": 2380
      },
      {
        "club_badge_src": null,
        "entry": 3664239,
        "entry_name": "Enzo Enzo Enzo",
        "event_total": 64,
        "has_played": true,
        "id": 27326147,
        "last_rank": 24857,
        "player_name": "Mikkel Bjerregaard",
        "rank": 19880,
        "rank_sort": 19972,
        "total": 2380
      },
      {
        "club_badge_src": null,
        "entry": 3854052,
        "entry_name": "\u0633\u0627\u0647\u0631",
        "event_total": 62,
        "has_played": true,
        "id": 28892544,
        "last_rank": 23341,
        "player_name": "Saher Tarek",
        "rank": 19880,
        "rank_sort": 19973,
        "total": 2380
      },
      {
        "club_badge_src": null,
        "entry": 3882849,
        "entry_name": "Casemiracle",
        "event_total": 69,
        "has_played": true,
        "id": 29175632,
        "last_rank": 29578,
        "player_name": "Edvin Bonn",
        "rank": 19880,
        "rank_sort": 19974,
        "total": 2380
      },
      {
        "club_badge_src": null,
        "entry": 3913577,
        "entry_name": "Haven't got a Kalou",
        "event_total": 71,
        "has_played": true,
        "id": 29426159,
        "last_rank": 31620,
        "player_name": "Ryan Smith",
        "rank": 19880,
        "rank_sort": 19975,
        "total": 2380
      },
      {
        "club_badge_src": null,
        "entry": 4006287,
        "entry_name": "Wirtz Nightmare",
        "event_total": 60,
        "has_played": true,
        "id": 30179493,
        "last_rank": 21628,
        "player_name": "Rajesh Patel",
        "rank": 19880,
        "rank_sort": 19976,
        "total": 2380
      },
      {
        "club_badge_src": "https://fantasy.premierleague.com/gcs/plfpl-production-adobe-approved/plfpl-production/4100788/5bff3b0d-5824-4c1f-9de5-7afb2fcd25a8.png",
        "entry": 4100788,
        "entry_name": "CQ Strikers",
        "event_total": 72,
        "has_played": true,
        "id": 30966007,
        "last_rank": 32688,
        "player_name": "Danny Voss",
        "rank": 19880,
        "rank_sort": 19977,
        "total": 2380
      },
      {
        "club_badge_src": null,
        "entry": 4192703,
        "entry_name": "\u041e\u0424\u041a \u0410\u0440\u0430\u043d\u0452\u0435\u043b\u043e\u0432\u0430\u0446 1979",
        "event_total": 46,
        "has_played": true,
        "id": 31730995,
        "last_rank": 12705,
        "player_name": "Djordje Ivovic",
        "rank": 19880,
        "rank_sort": 19978,
        "total": 2380
      },
      {
        "club_badge_src": null,
        "entry": 4239441,
        "entry_name": "Can't Get Any Wirtz",
        "event_total": 59,
        "has_played": true,
        "id": 32129059,
        "last_rank": 20888,
        "player_name": "Michael Lovell",
        "rank": 19880,
        "rank_sort": 19979,
        "total": 2380
      },
      {
        "club_badge_src": "https://fantasy.premierleague.com/gcs/plfpl-production-adobe-approved/plfpl-production/4277594/10215dae-1b55-49cf-890a-7cf827a132cc.png",
        "entry": 4277594,
        "entry_name": "Topbins",
        "event_total": 84,
        "has_played": true,
        "id": 32440594,
        "last_rank": 48197,
        "player_name": "Alastair Gouwland",
        "rank": 19880,
        "rank_sort": 19980,
        "total": 2380
      },
      {
        "club_badge_src": null,
        "entry": 4337892,
        "entry_name": "Geiri-Smart",
        "event_total": 56,
        "has_played": true,
        "id": 32934601,
        "last_rank": 18985,
        "player_name": "\u00c1sgeir \u00c1sgeirsson",
        "rank": 19880,
        "rank_sort": 19981,
        "total": 2380
      },
      {
        "club_badge_src": null,
        "entry": 4594131,
        "entry_name": "SaberLKY",
        "event_total": 69,
        "has_played": true,
        "id": 35084380,
        "last_rank": 29688,
        "player_name": "Kai Yung Lee",
        "rank": 19880,
        "rank_sort": 19982,
        "total": 2380
      },
      {
        "club_badge_src": null,
        "entry": 4634398,
        "entry_name": "we'll have a look",
        "event_total": 44,
        "has_played": true,
        "id": 35438675,
        "last_rank": 11699,
        "player_name": "Eleanor Leaver",
        "rank": 19880,
        "rank_sort": 19983,
        "total": 2380
      },
      {
        "club_badge_src": null,
        "entry": 4836146,
        "entry_name": "Game of Stones",
        "event_total": 60,
        "has_played": true,
        "id": 37251523,
        "last_rank": 21628,
        "player_name": "Gavin Williams",
        "rank": 19880,
        "rank_sort": 19984,
        "total": 2380
      },
      {
        "club_badge_src": null,
        "entry": 5102042,
        "entry_name": "Butterfly Collector",
        "event_total": 49,
        "has_played": true,
        "id": 39436217,
        "last_rank": 14370,
        "player_name": "Paul McBride",
        "rank": 19880,
        "rank_sort": 19985,
        "total": 2380
      },
      {
        "club_badge_src": "https://fantasy.premierleague.com/gcs/plfpl-production-adobe-approved/plfpl-production/5222119/db0d3d4a-3b32-48db-984e-2bbbc7e576ee.png",
        "entry": 5222119,
        "entry_name": "Babar's Black Sheep",
        "event_total": 68,
        "has_played": true,
        "id": 40462073,
        "last_rank": 28609,
        "player_name": "Saad Khan",
        "rank": 19880,
        "rank_sort": 19986,
        "total": 2380
      },
      {
        "club_badge_src": null,
        "entry": 5430110,
        "entry_name": "Jazeera",
        "event_total": 50,
        "has_played": true,
        "id": 42237460,
        "last_rank": 15063,
        "player_name": "Man City",
        "rank": 19880,
        "rank_sort": 19987,
        "total": 2380
      },
      {
        "club_badge_src": null,
        "entry": 5480871,
        "entry_name": "Konyil FC",
        "event_total": 58,
        "has_played": true,
        "id": 42673313,
        "last_rank": 20280,
        "player_name": "Kurnia Purwanto",
        "rank": 19880,
        "rank_sort": 19988,
        "total": 2380
      },
      {
        "club_badge_src": null,
        "entry": 5498070,
        "entry_name": "Brighton to europe",
        "event_total": 69,
        "has_played": true,
        "id": 42836567,
        "last_rank": 29578,
        "player_name": "Timofey Efimov",
        "rank": 19880,
        "rank_sort": 19989,
        "total": 2380
      },
      {
        "club_badge_src": null,
        "entry": 5887663,
        "entry_name": "Flip",
        "event_total": 53,
        "has_played": true,
        "id": 46249798,
        "last_rank": 16807,
        "player_name": "Philip Tai",
        "rank": 19880,
        "rank_sort": 19990,
        "total": 2380
      },
      {
        "club_badge_src": null,
        "entry": 5962474,
        "entry_name": "Mozell & gullvafler",
        "event_total": 57,
        "has_played": true,
        "id": 46909135,
        "last_rank": 19432,
        "player_name": "Mikkel Brandsnes",
        "rank": 19880,
        "rank_sort": 19991,
        "total": 2380
      },
      {
        "club_badge_src": "https://fantasy.premierleague.com/gcs/plfpl-production-adobe-approved/plfpl-production/6109156/f18f26fd-4b73-4c79-b98b-50f721bf479c.png",
        "entry": 6109156,
        "entry_name": "Rodney's Plonkers",
        "event_total": 48,
        "has_played": true,
        "id": 48256294,
        "last_rank": 13821,
        "player_name": "Nic Morgan",
        "rank": 19880,
        "rank_sort": 19992,
        "total": 2380
      },
      {
        "club_badge_src": null,
        "entry": 6219610,
        "entry_name": "Shiyogi United",
        "event_total": 61,
        "has_played": true,
        "id": 49213303,
        "last_rank": 22534,
        "player_name": "Mr. Bops",
        "rank": 19880,
        "rank_sort": 19993,
        "total": 2380
      },
      {
        "club_badge_src": null,
        "entry": 6381456,
        "entry_name": "TeamAce",
        "event_total": 56,
        "has_played": true,
        "id": 50755116,
        "last_rank": 18691,
        "player_name": "Naimul Alam",
        "rank": 19880,
        "rank_sort": 19994,
        "total": 2380
      },
      {
        "club_badge_src": null,
        "entry": 6478155,
        "entry_name": "StorOtto",
        "event_total": 64,
        "has_played": true,
        "id": 51628208,
        "last_rank": 24897,
        "player_name": "Janne Ottosson",
        "rank": 19880,
        "rank_sort": 19995,
        "total": 2380
      },
      {
        "club_badge_src": null,
        "entry": 6495686,
        "entry_name": "MicroChip3",
        "event_total": 64,
        "has_played": true,
        "id": 51783674,
        "last_rank": 25002,
        "player_name": "Christian Brox-Nilsen",
        "rank": 19880,
        "rank_sort": 19996,
        "total": 2380
      },
      {
        "club_badge_src": null,
        "entry": 6519634,
        "entry_name": "Overland FC",
        "event_total": 50,
        "has_played": true,
        "id": 51996693,
        "last_rank": 14857,
        "player_name": "Martin Elias",
        "rank": 19880,
        "rank_sort": 19997,
        "total": 2380
      },
      {
        "club_badge_src": null,
        "entry": 6533694,
        "entry_name": "Al Van de Ven de Von",
        "event_total": 55,
        "has_played": true,
        "id": 52121984,
        "last_rank": 18113,
        "player_name": "Al von Staats",
        "rank": 19880,
        "rank_sort": 19998,
        "total": 2380
      },
      {
        "club_badge_src": null,
        "entry": 6594134,
        "entry_name": "\u97e9\u5c11\u503c\u5f97\u4e00\u4e2a\u51a0\u519b",
        "event_total": 69,
        "has_played": true,
        "id": 52668184,
        "last_rank": 29688,
        "player_name": "C Tang",
        "rank": 19880,
        "rank_sort": 19999,
        "total": 2380
      },
      {
        "club_badge_src": null,
        "entry": 6893170,
        "entry_name": "Nice Plumbs",
        "event_total": 75,
        "has_played": true,
        "id": 55246809,
        "last_rank": 36348,
        "player_name": "Kevin Plumb",
        "rank": 19880,
        "rank_sort": 20000,
        "total": 2380
      }
    ]
  }
}