{
  "last_updated_data": "2026-05-24T23:28:17Z",
  "league": {
    "admin_entry": null,
    "closed": false,
    "code_privacy": "p",
    "created": "2025-07-20T23:14:33.933835Z",
    "cup_league": 2815434,
    "has_cup": true,
    "id": 314,
    "league_type": "s",
    "max_entries": null,
    "name": "Overall",
    "rank": null,
    "scoring": "c",
    "start_event": 1
  },
  "new_entries": {
    "has_next": false,
    "page": 1,
    "results": []
  },
  "standings": {
    "has_next": true,
    "page": 1206,
    "results": [
      {
        "club_badge_src": null,
        "entry": 2757078,
        "entry_name": "Bilbao Baggins",
        "event_total": 59,
        "has_played": true,
        "id": 20094564,
        "last_rank": 64508,
        "player_name": "Tom Fitzpatrick",
        "rank": 60211,
        "rank_sort": 60251,
        "total": 2346
      },
      {
        "club_badge_src": "https://fantasy.premierleague.com/gcs/plfpl-production-adobe-approved/plfpl-production/2792824/ce678d3c-2240-4e51-9cf9-1e4c3186ea98.png",
        "entry": 2792824,
        "entry_name": "Scarborough Spurs",
        "event_total": 49,
        "has_played": true,
        "id": 20390611,
        "last_rank": 47812,
        "player_name": "Chris York",
        "rank": 60211,
        "rank_sort": 60252,
        "total": 2346
      },
      {
        "club_badge_src": null,
        "entry": 2797631,
        "entry_name": "BratsethFC",
        "event_total": 58,
        "has_played": true,
        "id": 20428488,
        "last_rank": 55747,
        "player_name": "Tommy Bratseth",
        "rank": 60211,
        "rank_sort": 60253,
        "total": 2346
      },
      {
        "club_badge_src": null,
        "entry": 2975449,
        "entry_name": "wirtz on the rocks",
        "event_total": 51,
        "has_played": true,
        "id": 21864737,
        "last_rank": 34578,
        "player_name": "Casper Johansen",
        "rank": 60211,
        "rank_sort": 60254,
        "total": 2346
      },
      {
        "club_badge_src": null,
        "entry": 3235300,
        "entry_name": "DeLigtHouseFamily",
        "event_total": 52,
        "has_played": true,
        "id": 23929212,
        "last_rank": 46313,
        "player_name": "Ieuan Bevan",
        "rank": 60211,
        "rank_sort": 60255,
        "total": 2346
      },
      {
        "club_badge_src": null,
        "entry": 3266653,
        "entry_name": "Emirates Fortress",
        "event_total": 54,
        "has_played": true,
        "id": 24173088,
        "last_rank": 49301,
        "player_name": "Francois Fugere",
        "rank": 60211,
        "rank_sort": 60256,
        "total": 2346
      },
      {
        "club_badge_src": null,
        "entry": 3460598,
        "entry_name": "Strujik Of Genius",
        "event_total": 69,
        "has_played": true,
        "id": 25723297,
        "last_rank": 76474,
        "player_name": "Emily Shaw",
        "rank": 60211,
        "rank_sort": 60257,
        "total": 2346
      },
      {
        "club_badge_src": null,
        "entry": 3770266,
        "entry_name": "abcde fc",
        "event_total": 64,
        "has_played": true,
        "id": 28151247,
        "last_rank": 66296,
        "player_name": "Saamir Gehani",
        "rank": 60211,
        "rank_sort": 60258,
        "total": 2346
      },
      {
        "club_badge_src": null,
        "entry": 3805848,
        "entry_name": "Uptown Dunk",
        "event_total": 66,
        "has_played": true,
        "id": 28454119,
        "last_rank": 70183,
        "player_name": "James Andrew",
        "rank": 60211,
        "rank_sort": 60259,
        "total": 2346
      },
      {
        "club_badge_src": null,
        "entry": 3838024,
        "entry_name": "MurderonZidanesfloor",
        "event_total": 82,
        "has_played": true,
        "id": 28731426,
        "last_rank": 119402,
        "player_name": "Stuart McGregor",
        "rank": 60211,
        "rank_sort": 60260,
        "total": 2346
      },
      {
        "club_badge_src": null,
        "entry": 3878609,
        "entry_name": "Bruno Dos Tres",
        "event_total": 84,
        "has_played": true,
        "id": 29142316,
        "last_rank": 124961,
        "player_name": "Leon Safo-Antwi",
        "rank": 60211,
        "rank_sort": 60261,
        "total": 2346
      },
      {
        "club_badge_src": null,
        "entry": 3883364,
        "entry_name": "Alisson Wonderland",
        "event_total": 45,
        "has_played": true,
        "id": 29179594,
        "last_rank": 32437,
        "player_name": "Alison Halliday",
        "rank": 60211,
        "rank_sort": 60262,
        "total": 2346
      },
      {
        "club_badge_src": null,
        "entry": 4115018,
        "entry_name": "Cantona FC",
        "event_total": 60,
        "has_played": true,
        "id": 31083881,
        "last_rank": 66296,
        "player_name": "Stian-Andre Michelsen",
        "rank": 60211,
        "rank_sort": 60263,
        "total": 2346
      },
      {
        "club_badge_src": null,
        "entry": 4195722,
        "entry_name": "GyokeresGunners",
        "event_total": 68,
        "has_played": true,
        "id": 31755818,
        "last_rank": 74166,
        "player_name": "Javed Farooqi",
        "rank": 60211,
        "rank_sort": 60264,
        "total": 2346
      },
      {
        "club_badge_src": null,
        "entry": 5249128,
        "entry_name": "YD",
        "event_total": 64,
        "has_played": true,
        "id": 40681536,
        "last_rank": 66296,
        "player_name": "Yaser Aldosari",
        "rank": 60211,
        "rank_sort": 60265,
        "total": 2346
      },
      {
        "club_badge_src": "https://fantasy.premierleague.com/gcs/plfpl-production-adobe-approved/plfpl-production/5290767/86b9b2eb-dc8b-496a-8ea1-6b513098f725.png",
        "entry": 5290767,
        "entry_name": "JaGle PPN",
        "event_total": 43,
        "has_played": true,
        "id": 41010372,
        "last_rank": 39650,
        "player_name": "JaGle PP",
        "rank": 60211,
        "rank_sort": 60266,
        "total": 2346
      },
      {
        "club_badge_src": null,
        "entry": 5375477,
        "entry_name": "\u0410\u0422\u0410\u041b\u0410\u041d\u0422\u0410 \u0412\u0415\u041b\u041e\u040b\u0418",
        "event_total": 71,
        "has_played": true,
        "id": 41777484,
        "last_rank": 72145,
        "player_name": "Uros Nedeljkovic",
        "rank": 60211,
        "rank_sort": 60267,
        "total": 2346
      },
      {
        "club_badge_src": null,
        "entry": 5552259,
        "entry_name": "The Butchers",
        "event_total": 66,
        "has_played": true,
        "id": 43335414,
        "last_rank": 70072,
        "player_name": "Shuhab Miah",
        "rank": 60211,
        "rank_sort": 60268,
        "total": 2346
      },
      {
        "club_badge_src": null,
        "entry": 6028371,
        "entry_name": "Szopenfeldziarz Degr",
        "event_total": 55,
        "has_played": true,
        "id": 47551079,
        "last_rank": 50848,
        "player_name": "Szopenfeldziarz Thegrejt",
        "rank": 60211,
        "rank_sort": 60269,
        "total": 2346
      },
      {
        "club_badge_src": null,
        "entry": 6296760,
        "entry_name": "Moin Moin FC",
        "event_total": 56,
        "has_played": true,
        "id": 49907349,
        "last_rank": 59077,
        "player_name": "Jan Cordes",
        "rank": 60211,
        "rank_sort": 60270,
        "total": 2346
      },
      {
        "club_badge_src": null,
        "entry": 6407452,
        "entry_name": "Fawzzi Till 90+",
        "event_total": 61,
        "has_played": true,
        "id": 50985275,
        "last_rank": 47596,
        "player_name": "Mohamed Fawzzi",
        "rank": 60211,
        "rank_sort": 60271,
        "total": 2346
      },
      {
        "club_badge_src": null,
        "entry": 6578130,
        "entry_name": "RICE RICE BABY",
        "event_total": 58,
        "has_played": true,
        "id": 52525580,
        "last_rank": 55747,
        "player_name": "Matthew Templeton",
        "rank": 60211,
        "rank_sort": 60272,
        "total": 2346
      },
      {
        "club_badge_src": null,
        "entry": 6790333,
        "entry_name": "A E O M",
        "event_total": 57,
        "has_played": true,
        "id": 54376620,
        "last_rank": 54065,
        "player_name": "M T",
        "rank": 60211,
        "rank_sort": 60273,
        "total": 2346
      },
      {
        "club_badge_src": null,
        "entry": 8007260,
        "entry_name": "Lau and order",
        "event_total": 48,
        "has_played": true,
        "id": 65948966,
        "last_rank": 46406,
        "player_name": "Laurence Leeke",
        "rank": 60211,
        "rank_sort": 60274,
        "total": 2346
      },
      {
        "club_badge_src": null,
        "entry": 8975310,
        "entry_name": "Sakilan FC",
        "event_total": 68,
        "has_played": true,
        "id": 75243573,
        "last_rank": 83018,
        "player_name": "Hasmida Herman",
        "rank": 60211,
        "rank_sort": 60275,
        "total": 2346
      },
      {
        "club_badge_src": null,
        "entry": 20899,
        "entry_name": "Cinosterz",
        "event_total": 51,
        "has_played": true,
        "id": 130829,
        "last_rank": 44882,
        "player_name": "Ameer Syarafie",
        "rank": 60276,
        "rank_sort": 60276,
        "total": 2346
      },
      {
        "club_badge_src": null,
        "entry": 81163,
        "entry_name": "time will Tel",
        "event_total": 66,
        "has_played": true,
        "id": 528042,
        "last_rank": 78575,
        "player_name": "Ross OMalley",
        "rank": 60276,
        "rank_sort": 60277,
        "total": 2346
      },
      {
        "club_badge_src": null,
        "entry": 114974,
        "entry_name": "Hala Madrid",
        "event_total": 55,
        "has_played": true,
        "id": 750192,
        "last_rank": 50905,
        "player_name": "Ahmed Alaa",
        "rank": 60276,
        "rank_sort": 60278,
        "total": 2346
      },
      {
        "club_badge_src": null,
        "entry": 141407,
        "entry_name": "Mathys Tel Aviv",
        "event_total": 58,
        "has_played": true,
        "id": 923874,
        "last_rank": 55812,
        "player_name": "James Khoo",
        "rank": 60276,
        "rank_sort": 60279,
        "total": 2346
      },
      {
        "club_badge_src": null,
        "entry": 157831,
        "entry_name": "Dragon United",
        "event_total": 64,
        "has_played": true,
        "id": 1038457,
        "last_rank": 66380,
        "player_name": "Dragan Mitev",
        "rank": 60276,
        "rank_sort": 60280,
        "total": 2346
      },
      {
        "club_badge_src": null,
        "entry": 236741,
        "entry_name": "Kinder Mbeumo",
        "event_total": 65,
        "has_played": true,
        "id": 1575091,
        "last_rank": 76638,
        "player_name": "James Doe",
        "rank": 60276,
        "rank_sort": 60281,
        "total": 2346
      },
      {
        "club_badge_src": null,
        "entry": 358125,
        "entry_name": "Can't Get Any Wirtz",
        "event_total": 64,
        "has_played": true,
        "id": 2396547,
        "last_rank": 74474,
        "player_name": "Jake Pascoe",
        "rank": 60276,
        "rank_sort": 60282,
        "total": 2346
      },
      {
        "club_badge_src": null,
        "entry": 383959,
        "entry_name": "Puffs XI kings",
        "event_total": 51,
        "has_played": true,
        "id": 2575098,
        "last_rank": 44950,
        "player_name": "Sandro Rebelo",
        "rank": 60276,
        "rank_sort": 60283,
        "total": 2346
      },
      {
        "club_badge_src": null,
        "entry": 442778,
        "entry_name": "Leeds Hynos",
        "event_total": 64,
        "has_played": true,
        "id": 2968709,
        "last_rank": 66380,
        "player_name": "Jonny Hynes",
        "rank": 60276,
        "rank_sort": 60284,
        "total": 2346
      },
      {
        "club_badge_src": "https://fantasy.premierleague.com/gcs/plfpl-production-adobe-approved/plfpl-production/447824/e824d28b-fe9c-4451-a6c6-77234e16e813.png",
        "entry": 447824,
        "entry_name": "The Special KKs",
        "event_total": 64,
        "has_played": true,
        "id": 3004121,
        "last_rank": 66296,
        "player_name": "Alan Couper",
        "rank": 60276,
        "rank_sort": 60285,
        "total": 2346
      },
      {
        "club_badge_src": null,
        "entry": 514687,
        "entry_name": "Red army team",
        "event_total": 59,
        "has_played": true,
        "id": 3455758,
        "last_rank": 50848,
        "player_name": "mohamed amine saadi",
        "rank": 60276,
        "rank_sort": 60286,
        "total": 2346
      },
      {
        "club_badge_src": null,
        "entry": 557993,
        "entry_name": "Cash Money",
        "event_total": 56,
        "has_played": true,
        "id": 3755217,
        "last_rank": 59291,
        "player_name": "Ollie Johnson",
        "rank": 60276,
        "rank_sort": 60287,
        "total": 2346
      },
      {
        "club_badge_src": "https://fantasy.premierleague.com/gcs/plfpl-production-adobe-approved/plfpl-production/605222/b8c4686f-68ca-4971-938d-79359eff7b87.png",
        "entry": 605222,
        "entry_name": "HMS VICTORY",
        "event_total": 65,
        "has_played": true,
        "id": 4086096,
        "last_rank": 76638,
        "player_name": "Andrew Warry",
        "rank": 60276,
        "rank_sort": 60288,
        "total": 2346
      },
      {
        "club_badge_src": null,
        "entry": 654088,
        "entry_name": "ThomasTheFrankEngine",
        "event_total": 60,
        "has_played": true,
        "id": 4420262,
        "last_rank": 59249,
        "player_name": "Luke Wilson",
        "rank": 60276,
        "rank_sort": 60289,
        "total": 2346
      },
      {
        "club_badge_src": null,
        "entry": 702264,
        "entry_name": "FC TayTay",
        "event_total": 57,
        "has_played": true,
        "id": 4758399,
        "last_rank": 42081,
        "player_name": "Mark Taylor",
        "rank": 60276,
        "rank_sort": 60290,
        "total": 2346
      },
      {
        "club_badge_src": null,
        "entry": 731414,
        "entry_name": "Chillys XI",
        "event_total": 58,
        "has_played": true,
        "id": 4970129,
        "last_rank": 62874,
        "player_name": "Josh Chilvers",
        "rank": 60276,
        "rank_sort": 60291,
        "total": 2346
      },
      {
        "club_badge_src": "https://fantasy.premierleague.com/gcs/plfpl-production-adobe-approved/plfpl-production/876811/04f3e56e-7176-409c-8406-1b473c00631f.png",
        "entry": 876811,
        "entry_name": "kitiket",
        "event_total": 64,
        "has_played": true,
        "id": 6011405,
        "last_rank": 59170,
        "player_name": "Alex Rysiukevich",
        "rank": 60276,
        "rank_sort": 60292,
        "total": 2346
      },
      {
        "club_badge_src": null,
        "entry": 952902,
        "entry_name": "Wis FC",
        "event_total": 52,
        "has_played": true,
        "id": 6565389,
        "last_rank": 46364,
        "player_name": "Wister Wu",
        "rank": 60276,
        "rank_sort": 60293,
        "total": 2346
      },
      {
        "club_badge_src": "https://fantasy.premierleague.com/gcs/plfpl-production-adobe-approved/plfpl-production/1520883/b7c7511a-5051-4a25-886f-a57399af49f1.png",
        "entry": 1520883,
        "entry_name": "ARSENALEWIS FC",
        "event_total": 77,
        "has_played": true,
        "id": 10607769,
        "last_rank": 105137,
        "player_name": "David Lewis",
        "rank": 60276,
        "rank_sort": 60294,
        "total": 2346
      },
      {
        "club_badge_src": "https://fantasy.premierleague.com/gcs/plfpl-production-adobe-approved/plfpl-production/1616143/7a015394-e3a8-4e6c-bdd7-289762a63222.png",
        "entry": 1616143,
        "entry_name": "Do your Wirtz",
        "event_total": 72,
        "has_played": true,
        "id": 11308629,
        "last_rank": 83018,
        "player_name": "Jason Notley",
        "rank": 60276,
        "rank_sort": 60295,
        "total": 2346
      },
      {
        "club_badge_src": "https://fantasy.premierleague.com/gcs/plfpl-production-adobe-approved/plfpl-production/1665678/6163354f-a73d-4142-a179-8f7c93a71202.png",
        "entry": 1665678,
        "entry_name": "BD PFL",
        "event_total": 55,
        "has_played": true,
        "id": 11662048,
        "last_rank": 57557,
        "player_name": "Badawi M",
        "rank": 60276,
        "rank_sort": 60296,
        "total": 2346
      },
      {
        "club_badge_src": null,
        "entry": 1672257,
        "entry_name": "l3alamii \ufffd",
        "event_total": 70,
        "has_played": true,
        "id": 11707710,
        "last_rank": 78671,
        "player_name": "ouss ama",
        "rank": 60276,
        "rank_sort": 60297,
        "total": 2346
      },
      {
        "club_badge_src": null,
        "entry": 1700251,
        "entry_name": "Babiker",
        "event_total": 52,
        "has_played": true,
        "id": 11909732,
        "last_rank": 52561,
        "player_name": "Abdalaziz Babiker",
        "rank": 60276,
        "rank_sort": 60298,
        "total": 2346
      },
      {
        "club_badge_src": null,
        "entry": 1865470,
        "entry_name": "Yeboah constrictor",
        "event_total": 62,
        "has_played": true,
        "id": 13130602,
        "last_rank": 62812,
        "player_name": "Malcolm MacLeod",
        "rank": 60276,
        "rank_sort": 60299,
        "total": 2346
      },
      {
        "club_badge_src": null,
        "entry": 2607261,
        "entry_name": "#7 Down the Wing",
        "event_total": 66,
        "has_played": true,
        "id": 18729693,
        "last_rank": 70276,
        "player_name": "Joshua Fricker",
        "rank": 60276,
        "rank_sort": 60300,
        "total": 2346
      }
    ]
  }
}