{
  "last_updated_data": "2026-05-24T23:28:17Z",
  "league": {
    "admin_entry": null,
    "closed": false,
    "code_privacy": "p",
    "created": "2025-07-20T23:14:33.933835Z",
    "cup_league": 2815434,
    "has_cup": true,
    "id": 314,
    "league_type": "s",
    "max_entries": null,
    "name": "Overall",
    "rank": null,
    "scoring": "c",
    "start_event": 1
  },
  "new_entries": {
    "has_next": false,
    "page": 1,
    "results": []
  },
  "standings": {
    "has_next": true,
    "page": 628,
    "results": [
      {
        "club_badge_src": null,
        "entry": 2119670,
        "entry_name": "FC PALMEIRAS",
        "event_total": 66,
        "has_played": true,
        "id": 15056407,
        "last_rank": 31747,
        "player_name": "Francisco Bordalo",
        "rank": 31262,
        "rank_sort": 31351,
        "total": 2367
      },
      {
        "club_badge_src": null,
        "entry": 2231350,
        "entry_name": "Viking Line United",
        "event_total": 65,
        "has_played": true,
        "id": 15895968,
        "last_rank": 40503,
        "player_name": "Emil H\u00e4gerstrand-Mattsson",
        "rank": 31262,
        "rank_sort": 31352,
        "total": 2367
      },
      {
        "club_badge_src": null,
        "entry": 2510518,
        "entry_name": "55AK",
        "event_total": 76,
        "has_played": true,
        "id": 17985000,
        "last_rank": 56180,
        "player_name": "Sak Ayub",
        "rank": 31262,
        "rank_sort": 31353,
        "total": 2367
      },
      {
        "club_badge_src": null,
        "entry": 2542027,
        "entry_name": "Salahd for lunch",
        "event_total": 39,
        "has_played": true,
        "id": 18218666,
        "last_rank": 16441,
        "player_name": "Logan Sanders",
        "rank": 31262,
        "rank_sort": 31354,
        "total": 2367
      },
      {
        "club_badge_src": null,
        "entry": 2586605,
        "entry_name": "Straight Outta Cunha",
        "event_total": 59,
        "has_played": true,
        "id": 18568454,
        "last_rank": 33483,
        "player_name": "Andr\u00e9 Bissmark",
        "rank": 31262,
        "rank_sort": 31355,
        "total": 2367
      },
      {
        "club_badge_src": null,
        "entry": 2682761,
        "entry_name": "hussam abu saleem",
        "event_total": 58,
        "has_played": true,
        "id": 19294910,
        "last_rank": 27976,
        "player_name": "hosam abusaleem",
        "rank": 31262,
        "rank_sort": 31356,
        "total": 2367
      },
      {
        "club_badge_src": null,
        "entry": 3148259,
        "entry_name": "Hubner",
        "event_total": 78,
        "has_played": true,
        "id": 23246621,
        "last_rank": 53345,
        "player_name": "Richard McDermott",
        "rank": 31262,
        "rank_sort": 31357,
        "total": 2367
      },
      {
        "club_badge_src": "https://fantasy.premierleague.com/gcs/plfpl-production-adobe-approved/plfpl-production/3234421/63dddf9f-cd50-4fd4-82af-6654dd038712.png",
        "entry": 3234421,
        "entry_name": "BleakIsCheeks",
        "event_total": 44,
        "has_played": true,
        "id": 23922210,
        "last_rank": 19904,
        "player_name": "max -",
        "rank": 31262,
        "rank_sort": 31358,
        "total": 2367
      },
      {
        "club_badge_src": null,
        "entry": 3235561,
        "entry_name": "Not last FC",
        "event_total": 41,
        "has_played": true,
        "id": 23931144,
        "last_rank": 17585,
        "player_name": "Matt Child",
        "rank": 31262,
        "rank_sort": 31359,
        "total": 2367
      },
      {
        "club_badge_src": null,
        "entry": 3298935,
        "entry_name": "Fair Play",
        "event_total": 67,
        "has_played": true,
        "id": 24431722,
        "last_rank": 37589,
        "player_name": "Nathavut Sivapornpunlerd",
        "rank": 31262,
        "rank_sort": 31360,
        "total": 2367
      },
      {
        "club_badge_src": null,
        "entry": 3465182,
        "entry_name": "All In The Cabinet",
        "event_total": 62,
        "has_played": true,
        "id": 25759197,
        "last_rank": 36831,
        "player_name": "Yuv Dhingra",
        "rank": 31262,
        "rank_sort": 31361,
        "total": 2367
      },
      {
        "club_badge_src": null,
        "entry": 3582988,
        "entry_name": "Mraz Utd",
        "event_total": 62,
        "has_played": true,
        "id": 26682114,
        "last_rank": 31995,
        "player_name": "Jason Davies",
        "rank": 31262,
        "rank_sort": 31362,
        "total": 2367
      },
      {
        "club_badge_src": "https://fantasy.premierleague.com/gcs/plfpl-production-adobe-approved/plfpl-production/3638631/3a22e8ab-4359-48d5-930d-2ac4915e2e2b.png",
        "entry": 3638631,
        "entry_name": "Ry\u016bjin Jakka",
        "event_total": 49,
        "has_played": true,
        "id": 27116687,
        "last_rank": 23656,
        "player_name": "El Sabio",
        "rank": 31262,
        "rank_sort": 31363,
        "total": 2367
      },
      {
        "club_badge_src": null,
        "entry": 3758101,
        "entry_name": "UD Las Palsmahs",
        "event_total": 57,
        "has_played": true,
        "id": 28058861,
        "last_rank": 27020,
        "player_name": "Cosme Martinez",
        "rank": 31262,
        "rank_sort": 31364,
        "total": 2367
      },
      {
        "club_badge_src": null,
        "entry": 3810461,
        "entry_name": "Boys in the BetoLand",
        "event_total": 54,
        "has_played": true,
        "id": 28491758,
        "last_rank": 28150,
        "player_name": "Christopher Mckeown",
        "rank": 31262,
        "rank_sort": 31365,
        "total": 2367
      },
      {
        "club_badge_src": null,
        "entry": 3876064,
        "entry_name": "Coles Palmer",
        "event_total": 64,
        "has_played": true,
        "id": 29118254,
        "last_rank": 34293,
        "player_name": "Jack Coles",
        "rank": 31262,
        "rank_sort": 31366,
        "total": 2367
      },
      {
        "club_badge_src": null,
        "entry": 3956106,
        "entry_name": "All or Nothing",
        "event_total": 56,
        "has_played": true,
        "id": 29763688,
        "last_rank": 29904,
        "player_name": "Bavisanth Thayarooban",
        "rank": 31262,
        "rank_sort": 31367,
        "total": 2367
      },
      {
        "club_badge_src": null,
        "entry": 3977805,
        "entry_name": "What is the Mata?",
        "event_total": 51,
        "has_played": true,
        "id": 29941024,
        "last_rank": 25330,
        "player_name": "Desmond Gomes",
        "rank": 31262,
        "rank_sort": 31368,
        "total": 2367
      },
      {
        "club_badge_src": null,
        "entry": 3988312,
        "entry_name": "Park Da Pulis Bus",
        "event_total": 72,
        "has_played": true,
        "id": 30028805,
        "last_rank": 50199,
        "player_name": "James Goodwin",
        "rank": 31262,
        "rank_sort": 31369,
        "total": 2367
      },
      {
        "club_badge_src": null,
        "entry": 4102918,
        "entry_name": "Corn on the Kobbie",
        "event_total": 57,
        "has_played": true,
        "id": 30982837,
        "last_rank": 27020,
        "player_name": "Bailey Hewitt",
        "rank": 31262,
        "rank_sort": 31370,
        "total": 2367
      },
      {
        "club_badge_src": null,
        "entry": 4187474,
        "entry_name": "SPEcial EleVN",
        "event_total": 72,
        "has_played": true,
        "id": 31684707,
        "last_rank": 50468,
        "player_name": "Wanbok Shylla",
        "rank": 31262,
        "rank_sort": 31371,
        "total": 2367
      },
      {
        "club_badge_src": "https://fantasy.premierleague.com/gcs/plfpl-production-adobe-approved/plfpl-production/4193268/cce43aa1-6bb3-4179-80e2-b37035dc4ae1.png",
        "entry": 4193268,
        "entry_name": "Rehan XI",
        "event_total": 58,
        "has_played": true,
        "id": 31735700,
        "last_rank": 31995,
        "player_name": "Muhammad Mostafa",
        "rank": 31262,
        "rank_sort": 31372,
        "total": 2367
      },
      {
        "club_badge_src": "https://fantasy.premierleague.com/gcs/plfpl-production-adobe-approved/plfpl-production/4214342/df036d72-4172-4016-a12c-b059119eb3f8.png",
        "entry": 4214342,
        "entry_name": "AC San Vito",
        "event_total": 55,
        "has_played": true,
        "id": 31912307,
        "last_rank": 28906,
        "player_name": "Lee James Reeson",
        "rank": 31262,
        "rank_sort": 31373,
        "total": 2367
      },
      {
        "club_badge_src": null,
        "entry": 4274979,
        "entry_name": "Gunnars",
        "event_total": 54,
        "has_played": true,
        "id": 32420213,
        "last_rank": 28150,
        "player_name": "Ahmed elmatbouly",
        "rank": 31262,
        "rank_sort": 31374,
        "total": 2367
      },
      {
        "club_badge_src": null,
        "entry": 4409637,
        "entry_name": "Gabrielter Skelter",
        "event_total": 64,
        "has_played": true,
        "id": 33543268,
        "last_rank": 34293,
        "player_name": "Chris Harris",
        "rank": 31262,
        "rank_sort": 31375,
        "total": 2367
      },
      {
        "club_badge_src": null,
        "entry": 4761023,
        "entry_name": "Colestevao",
        "event_total": 51,
        "has_played": true,
        "id": 36640747,
        "last_rank": 21949,
        "player_name": "kevin mullins",
        "rank": 31262,
        "rank_sort": 31376,
        "total": 2367
      },
      {
        "club_badge_src": null,
        "entry": 4820703,
        "entry_name": "24/7",
        "event_total": 64,
        "has_played": true,
        "id": 37122708,
        "last_rank": 34293,
        "player_name": "Dipesh Shrestha",
        "rank": 31262,
        "rank_sort": 31377,
        "total": 2367
      },
      {
        "club_badge_src": null,
        "entry": 4944419,
        "entry_name": "EzeLikeSundayMorning",
        "event_total": 29,
        "has_played": true,
        "id": 38150417,
        "last_rank": 10992,
        "player_name": "Coleman Smith",
        "rank": 31262,
        "rank_sort": 31378,
        "total": 2367
      },
      {
        "club_badge_src": "https://fantasy.premierleague.com/gcs/plfpl-production-adobe-approved/plfpl-production/5017588/25fcae63-94bf-4f6f-9c80-a62927e4cf10.png",
        "entry": 5017588,
        "entry_name": "Shirare",
        "event_total": 50,
        "has_played": true,
        "id": 38749084,
        "last_rank": 24475,
        "player_name": "Jake Clayton",
        "rank": 31262,
        "rank_sort": 31379,
        "total": 2367
      },
      {
        "club_badge_src": null,
        "entry": 5230701,
        "entry_name": "Colecuts",
        "event_total": 49,
        "has_played": true,
        "id": 40532482,
        "last_rank": 17437,
        "player_name": "Mychal Turpin",
        "rank": 31262,
        "rank_sort": 31380,
        "total": 2367
      },
      {
        "club_badge_src": null,
        "entry": 5275906,
        "entry_name": "Fox XI",
        "event_total": 61,
        "has_played": true,
        "id": 40892749,
        "last_rank": 35619,
        "player_name": "Samuel Fox",
        "rank": 31262,
        "rank_sort": 31381,
        "total": 2367
      },
      {
        "club_badge_src": null,
        "entry": 5287857,
        "entry_name": "Rislaa's 11",
        "event_total": 58,
        "has_played": true,
        "id": 40987672,
        "last_rank": 32190,
        "player_name": "Filip Rislaa",
        "rank": 31262,
        "rank_sort": 31382,
        "total": 2367
      },
      {
        "club_badge_src": "https://fantasy.premierleague.com/gcs/plfpl-production-adobe-approved/plfpl-production/5443316/9892ac35-ef3c-4e97-b1ae-4ea6769b7a1f.png",
        "entry": 5443316,
        "entry_name": "RNGD Tedweenie",
        "event_total": 58,
        "has_played": true,
        "id": 42351681,
        "last_rank": 32190,
        "player_name": "Edward Grant",
        "rank": 31262,
        "rank_sort": 31383,
        "total": 2367
      },
      {
        "club_badge_src": null,
        "entry": 5542660,
        "entry_name": "Miracle invoker",
        "event_total": 66,
        "has_played": true,
        "id": 43250609,
        "last_rank": 36348,
        "player_name": "Nnamdi E",
        "rank": 31262,
        "rank_sort": 31384,
        "total": 2367
      },
      {
        "club_badge_src": null,
        "entry": 5548386,
        "entry_name": "Haalandaise Sauce",
        "event_total": 66,
        "has_played": true,
        "id": 43300531,
        "last_rank": 36624,
        "player_name": "Luke Cowper",
        "rank": 31262,
        "rank_sort": 31385,
        "total": 2367
      },
      {
        "club_badge_src": null,
        "entry": 5646920,
        "entry_name": "$uper &trikers",
        "event_total": 65,
        "has_played": true,
        "id": 44170844,
        "last_rank": 40503,
        "player_name": "Elvis Pereira",
        "rank": 31262,
        "rank_sort": 31386,
        "total": 2367
      },
      {
        "club_badge_src": null,
        "entry": 5849869,
        "entry_name": "FC Aconda",
        "event_total": 68,
        "has_played": true,
        "id": 45926645,
        "last_rank": 34051,
        "player_name": "Alexander Kvikne",
        "rank": 31262,
        "rank_sort": 31387,
        "total": 2367
      },
      {
        "club_badge_src": null,
        "entry": 5891207,
        "entry_name": "Bit o craic FC",
        "event_total": 64,
        "has_played": true,
        "id": 46278622,
        "last_rank": 39246,
        "player_name": "Paul Williams",
        "rank": 31262,
        "rank_sort": 31388,
        "total": 2367
      },
      {
        "club_badge_src": null,
        "entry": 5992583,
        "entry_name": "TOZ FC",
        "event_total": 75,
        "has_played": true,
        "id": 47223249,
        "last_rank": 54667,
        "player_name": "Chris Torrence",
        "rank": 31262,
        "rank_sort": 31389,
        "total": 2367
      },
      {
        "club_badge_src": null,
        "entry": 6104566,
        "entry_name": "Shaw & Order",
        "event_total": 86,
        "has_played": true,
        "id": 48216440,
        "last_rank": 75139,
        "player_name": "Camilla Magnus",
        "rank": 31262,
        "rank_sort": 31390,
        "total": 2367
      },
      {
        "club_badge_src": null,
        "entry": 6139057,
        "entry_name": "FC Twente Benson",
        "event_total": 43,
        "has_played": true,
        "id": 48517626,
        "last_rank": 18985,
        "player_name": "Eamonn McGuinness",
        "rank": 31262,
        "rank_sort": 31391,
        "total": 2367
      },
      {
        "club_badge_src": null,
        "entry": 6150819,
        "entry_name": "Crispycalimari",
        "event_total": 56,
        "has_played": true,
        "id": 48620390,
        "last_rank": 26088,
        "player_name": "Calista Tan",
        "rank": 31262,
        "rank_sort": 31392,
        "total": 2367
      },
      {
        "club_badge_src": null,
        "entry": 6291556,
        "entry_name": "oluaye1.",
        "event_total": 62,
        "has_played": true,
        "id": 49852165,
        "last_rank": 36624,
        "player_name": "Agba Awo",
        "rank": 31262,
        "rank_sort": 31393,
        "total": 2367
      },
      {
        "club_badge_src": null,
        "entry": 6456700,
        "entry_name": "The Unbearables",
        "event_total": 79,
        "has_played": true,
        "id": 51424480,
        "last_rank": 55014,
        "player_name": "Ryan Platt",
        "rank": 31262,
        "rank_sort": 31394,
        "total": 2367
      },
      {
        "club_badge_src": null,
        "entry": 6493447,
        "entry_name": "Gooner or Later",
        "event_total": 58,
        "has_played": true,
        "id": 51763956,
        "last_rank": 31620,
        "player_name": "Rohin Gossain",
        "rank": 31262,
        "rank_sort": 31395,
        "total": 2367
      },
      {
        "club_badge_src": null,
        "entry": 6698162,
        "entry_name": "Change Name",
        "event_total": 67,
        "has_played": true,
        "id": 53592714,
        "last_rank": 43168,
        "player_name": "Philip Hauge",
        "rank": 31262,
        "rank_sort": 31396,
        "total": 2367
      },
      {
        "club_badge_src": null,
        "entry": 6795775,
        "entry_name": "K Dog's Dogs",
        "event_total": 45,
        "has_played": true,
        "id": 54421847,
        "last_rank": 20538,
        "player_name": "Kieran Smith",
        "rank": 31262,
        "rank_sort": 31397,
        "total": 2367
      },
      {
        "club_badge_src": null,
        "entry": 6892394,
        "entry_name": "Shimanskit",
        "event_total": 60,
        "has_played": true,
        "id": 55240400,
        "last_rank": 29904,
        "player_name": "Joni H\u00e4pp\u00f6l\u00e4",
        "rank": 31262,
        "rank_sort": 31398,
        "total": 2367
      },
      {
        "club_badge_src": null,
        "entry": 7357761,
        "entry_name": "Ballieballer",
        "event_total": 50,
        "has_played": true,
        "id": 59621193,
        "last_rank": 24330,
        "player_name": "Michael Hansen",
        "rank": 31262,
        "rank_sort": 31399,
        "total": 2367
      },
      {
        "club_badge_src": null,
        "entry": 7854245,
        "entry_name": "The Differentials",
        "event_total": 57,
        "has_played": true,
        "id": 64570468,
        "last_rank": 31125,
        "player_name": "Vysakh Sreekumar",
        "rank": 31262,
        "rank_sort": 31400,
        "total": 2367
      }
    ]
  }
}