{
  "last_updated_data": "2026-05-24T23:28:17Z",
  "league": {
    "admin_entry": null,
    "closed": false,
    "code_privacy": "p",
    "created": "2025-07-20T23:14:33.933835Z",
    "cup_league": 2815434,
    "has_cup": true,
    "id": 314,
    "league_type": "s",
    "max_entries": null,
    "name": "Overall",
    "rank": null,
    "scoring": "c",
    "start_event": 1
  },
  "new_entries": {
    "has_next": false,
    "page": 1,
    "results": []
  },
  "standings": {
    "has_next": true,
    "page": 563,
    "results": [
      {
        "club_badge_src": null,
        "entry": 3639779,
        "entry_name": "Return of the Djedi",
        "event_total": 53,
        "has_played": true,
        "id": 27125634,
        "last_rank": 24039,
        "player_name": "Alex Yesson",
        "rank": 27990,
        "rank_sort": 28101,
        "total": 2370
      },
      {
        "club_badge_src": null,
        "entry": 3661654,
        "entry_name": "FC Lyskespark",
        "event_total": 48,
        "has_played": true,
        "id": 27305327,
        "last_rank": 20179,
        "player_name": "Kristian Goks\u00f8yr",
        "rank": 27990,
        "rank_sort": 28102,
        "total": 2370
      },
      {
        "club_badge_src": null,
        "entry": 3684250,
        "entry_name": "What da Skelly",
        "event_total": 63,
        "has_played": true,
        "id": 27483047,
        "last_rank": 33936,
        "player_name": "Kyle Miller",
        "rank": 27990,
        "rank_sort": 28103,
        "total": 2370
      },
      {
        "club_badge_src": null,
        "entry": 3720341,
        "entry_name": "Duke of Weddington",
        "event_total": 55,
        "has_played": true,
        "id": 27763868,
        "last_rank": 25729,
        "player_name": "Steve Brown",
        "rank": 27990,
        "rank_sort": 28104,
        "total": 2370
      },
      {
        "club_badge_src": null,
        "entry": 3742341,
        "entry_name": "Bringin Zirkzee Back",
        "event_total": 55,
        "has_played": true,
        "id": 27936216,
        "last_rank": 25776,
        "player_name": "Sam Liles",
        "rank": 27990,
        "rank_sort": 28105,
        "total": 2370
      },
      {
        "club_badge_src": null,
        "entry": 3771904,
        "entry_name": "phil palmer",
        "event_total": 60,
        "has_played": true,
        "id": 28163545,
        "last_rank": 30600,
        "player_name": "Bautista Ladoux",
        "rank": 27990,
        "rank_sort": 28106,
        "total": 2370
      },
      {
        "club_badge_src": null,
        "entry": 3931862,
        "entry_name": "Harold",
        "event_total": 60,
        "has_played": true,
        "id": 29571920,
        "last_rank": 30727,
        "player_name": "richard pooley",
        "rank": 27990,
        "rank_sort": 28107,
        "total": 2370
      },
      {
        "club_badge_src": "https://fantasy.premierleague.com/gcs/plfpl-production-adobe-approved/plfpl-production/3988414/b9807ab6-c019-49a9-8c8f-21271b1f5a3c.png",
        "entry": 3988414,
        "entry_name": "Diktatoren",
        "event_total": 63,
        "has_played": true,
        "id": 30029662,
        "last_rank": 33936,
        "player_name": "Kristian \u00d8yen",
        "rank": 27990,
        "rank_sort": 28108,
        "total": 2370
      },
      {
        "club_badge_src": null,
        "entry": 3997100,
        "entry_name": "Glazer's Gulag",
        "event_total": 65,
        "has_played": true,
        "id": 30102607,
        "last_rank": 36348,
        "player_name": "Lucas Brown",
        "rank": 27990,
        "rank_sort": 28109,
        "total": 2370
      },
      {
        "club_badge_src": null,
        "entry": 4128458,
        "entry_name": "Eze Does It",
        "event_total": 59,
        "has_played": true,
        "id": 31196622,
        "last_rank": 29578,
        "player_name": "Daniel Whyatt",
        "rank": 27990,
        "rank_sort": 28110,
        "total": 2370
      },
      {
        "club_badge_src": null,
        "entry": 4245596,
        "entry_name": "VXVI",
        "event_total": 62,
        "has_played": true,
        "id": 32179887,
        "last_rank": 32879,
        "player_name": "Shreejan Shrestha",
        "rank": 27990,
        "rank_sort": 28111,
        "total": 2370
      },
      {
        "club_badge_src": null,
        "entry": 4360925,
        "entry_name": "RJ FC",
        "event_total": 77,
        "has_played": true,
        "id": 33121954,
        "last_rank": 52853,
        "player_name": "Regan Jowers",
        "rank": 27990,
        "rank_sort": 28112,
        "total": 2370
      },
      {
        "club_badge_src": null,
        "entry": 4427037,
        "entry_name": "PA PA PA PowerVARsey",
        "event_total": 59,
        "has_played": true,
        "id": 33696760,
        "last_rank": 29522,
        "player_name": "Saravana Prakash",
        "rank": 27990,
        "rank_sort": 28113,
        "total": 2370
      },
      {
        "club_badge_src": null,
        "entry": 4498203,
        "entry_name": "Calafiori Dreamin",
        "event_total": 73,
        "has_played": true,
        "id": 34291553,
        "last_rank": 46660,
        "player_name": "Christian Stene",
        "rank": 27990,
        "rank_sort": 28114,
        "total": 2370
      },
      {
        "club_badge_src": null,
        "entry": 4579620,
        "entry_name": "FPL hacker",
        "event_total": 30,
        "has_played": true,
        "id": 34959510,
        "last_rank": 9942,
        "player_name": "Sonam Choden Tenzin",
        "rank": 27990,
        "rank_sort": 28115,
        "total": 2370
      },
      {
        "club_badge_src": null,
        "entry": 4668376,
        "entry_name": "Drop It Like It'Slot",
        "event_total": 69,
        "has_played": true,
        "id": 35758229,
        "last_rank": 41324,
        "player_name": "Kelvin Komduur",
        "rank": 27990,
        "rank_sort": 28116,
        "total": 2370
      },
      {
        "club_badge_src": null,
        "entry": 4701484,
        "entry_name": "COYSken",
        "event_total": 57,
        "has_played": true,
        "id": 36042678,
        "last_rank": 27770,
        "player_name": "Kenson Angga",
        "rank": 27990,
        "rank_sort": 28117,
        "total": 2370
      },
      {
        "club_badge_src": null,
        "entry": 4838777,
        "entry_name": "Bolstaos",
        "event_total": 66,
        "has_played": true,
        "id": 37273433,
        "last_rank": 37435,
        "player_name": "Erik Bolstad",
        "rank": 27990,
        "rank_sort": 28118,
        "total": 2370
      },
      {
        "club_badge_src": null,
        "entry": 4848688,
        "entry_name": "Yes, again..",
        "event_total": 54,
        "has_played": true,
        "id": 37355602,
        "last_rank": 25002,
        "player_name": "Ranajoy Sen",
        "rank": 27990,
        "rank_sort": 28119,
        "total": 2370
      },
      {
        "club_badge_src": "https://fantasy.premierleague.com/gcs/plfpl-production-adobe-approved/plfpl-production/4886108/5559f3a1-a697-4d1b-ae18-4a50a07bf174.png",
        "entry": 4886108,
        "entry_name": "Lunch & Affection",
        "event_total": 67,
        "has_played": true,
        "id": 37670245,
        "last_rank": 38571,
        "player_name": "James Smart",
        "rank": 27990,
        "rank_sort": 28120,
        "total": 2370
      },
      {
        "club_badge_src": null,
        "entry": 5135475,
        "entry_name": "Best losers",
        "event_total": 51,
        "has_played": true,
        "id": 39721206,
        "last_rank": 22534,
        "player_name": "Velts K",
        "rank": 27990,
        "rank_sort": 28121,
        "total": 2370
      },
      {
        "club_badge_src": null,
        "entry": 5157760,
        "entry_name": "Jesse Lingardinho fc",
        "event_total": 45,
        "has_played": true,
        "id": 39909065,
        "last_rank": 17989,
        "player_name": "Kiri Higuchi",
        "rank": 27990,
        "rank_sort": 28122,
        "total": 2370
      },
      {
        "club_badge_src": null,
        "entry": 5234808,
        "entry_name": "DycheBags",
        "event_total": 74,
        "has_played": true,
        "id": 40565834,
        "last_rank": 48084,
        "player_name": "Will Palmquist",
        "rank": 27990,
        "rank_sort": 28123,
        "total": 2370
      },
      {
        "club_badge_src": null,
        "entry": 5278570,
        "entry_name": "Saffa",
        "event_total": 59,
        "has_played": true,
        "id": 40913878,
        "last_rank": 29688,
        "player_name": "Willem Van Jaarsveldt",
        "rank": 27990,
        "rank_sort": 28124,
        "total": 2370
      },
      {
        "club_badge_src": null,
        "entry": 5356083,
        "entry_name": "FFY Red Devils",
        "event_total": 78,
        "has_played": true,
        "id": 41589703,
        "last_rank": 54416,
        "player_name": "Kel Cheung",
        "rank": 27990,
        "rank_sort": 28125,
        "total": 2370
      },
      {
        "club_badge_src": null,
        "entry": 5356912,
        "entry_name": "Byrne Baby Byrne****",
        "event_total": 66,
        "has_played": true,
        "id": 41598060,
        "last_rank": 37589,
        "player_name": "Daniel Byrne",
        "rank": 27990,
        "rank_sort": 28126,
        "total": 2370
      },
      {
        "club_badge_src": null,
        "entry": 5382222,
        "entry_name": "Olly FC",
        "event_total": 51,
        "has_played": true,
        "id": 41839767,
        "last_rank": 22391,
        "player_name": "James carl Challoner",
        "rank": 27990,
        "rank_sort": 28127,
        "total": 2370
      },
      {
        "club_badge_src": null,
        "entry": 5385505,
        "entry_name": "Silva Lining",
        "event_total": 46,
        "has_played": true,
        "id": 41866942,
        "last_rank": 18691,
        "player_name": "David H",
        "rank": 27990,
        "rank_sort": 28128,
        "total": 2370
      },
      {
        "club_badge_src": null,
        "entry": 5424152,
        "entry_name": "Zubi or not Zubi",
        "event_total": 62,
        "has_played": true,
        "id": 42188067,
        "last_rank": 32879,
        "player_name": "Peter Johnson",
        "rank": 27990,
        "rank_sort": 28129,
        "total": 2370
      },
      {
        "club_badge_src": null,
        "entry": 5573202,
        "entry_name": "Boat To Bolivia",
        "event_total": 60,
        "has_played": true,
        "id": 43521466,
        "last_rank": 30536,
        "player_name": "Mike Williams",
        "rank": 27990,
        "rank_sort": 28130,
        "total": 2370
      },
      {
        "club_badge_src": null,
        "entry": 5623602,
        "entry_name": "O.G",
        "event_total": 60,
        "has_played": true,
        "id": 43961646,
        "last_rank": 30727,
        "player_name": "Oliver Gilmore",
        "rank": 27990,
        "rank_sort": 28131,
        "total": 2370
      },
      {
        "club_badge_src": "https://fantasy.premierleague.com/gcs/plfpl-production-adobe-approved/plfpl-production/5634833/904cf35b-fb16-4146-8b4e-8bf55755b531.png",
        "entry": 5634833,
        "entry_name": "KAPS FC",
        "event_total": 56,
        "has_played": true,
        "id": 44060172,
        "last_rank": 23230,
        "player_name": "Dhruv Kapur",
        "rank": 27990,
        "rank_sort": 28132,
        "total": 2370
      },
      {
        "club_badge_src": null,
        "entry": 5679435,
        "entry_name": "Sack Jimcoes",
        "event_total": 56,
        "has_played": true,
        "id": 44450374,
        "last_rank": 26827,
        "player_name": "jack simcoe",
        "rank": 27990,
        "rank_sort": 28133,
        "total": 2370
      },
      {
        "club_badge_src": "https://fantasy.premierleague.com/gcs/plfpl-production-adobe-approved/plfpl-production/5729516/ac280972-9b7a-4e3a-a977-af29c97ff565.png",
        "entry": 5729516,
        "entry_name": "Red Reign",
        "event_total": 63,
        "has_played": true,
        "id": 44884314,
        "last_rank": 34051,
        "player_name": "Kevin Broadbent",
        "rank": 27990,
        "rank_sort": 28134,
        "total": 2370
      },
      {
        "club_badge_src": null,
        "entry": 5769613,
        "entry_name": "Claret & Blue",
        "event_total": 60,
        "has_played": true,
        "id": 45234107,
        "last_rank": 30727,
        "player_name": "Martin Gilmore",
        "rank": 27990,
        "rank_sort": 28135,
        "total": 2370
      },
      {
        "club_badge_src": "https://fantasy.premierleague.com/gcs/plfpl-production-adobe-approved/plfpl-production/5842872/1785adb9-48e9-4a72-bb43-3da20025d7ba.png",
        "entry": 5842872,
        "entry_name": "aLi the winner",
        "event_total": 57,
        "has_played": true,
        "id": 45866986,
        "last_rank": 27644,
        "player_name": "Ali24X .",
        "rank": 27990,
        "rank_sort": 28136,
        "total": 2370
      },
      {
        "club_badge_src": null,
        "entry": 5989841,
        "entry_name": "Ctrl Alt De Ligt",
        "event_total": 63,
        "has_played": true,
        "id": 47193972,
        "last_rank": 33936,
        "player_name": "Bj\u00f8rnar Pedersen",
        "rank": 27990,
        "rank_sort": 28137,
        "total": 2370
      },
      {
        "club_badge_src": null,
        "entry": 6032244,
        "entry_name": "DynamoLand",
        "event_total": 63,
        "has_played": true,
        "id": 47585712,
        "last_rank": 34051,
        "player_name": "sam muttdon",
        "rank": 27990,
        "rank_sort": 28138,
        "total": 2370
      },
      {
        "club_badge_src": null,
        "entry": 6123296,
        "entry_name": "Cucurella De Vil",
        "event_total": 46,
        "has_played": true,
        "id": 48379076,
        "last_rank": 18790,
        "player_name": "G Langford",
        "rank": 27990,
        "rank_sort": 28139,
        "total": 2370
      },
      {
        "club_badge_src": null,
        "entry": 6256055,
        "entry_name": "TEAM CAMO",
        "event_total": 38,
        "has_played": true,
        "id": 49527524,
        "last_rank": 13821,
        "player_name": "Casper Mortensen",
        "rank": 27990,
        "rank_sort": 28140,
        "total": 2370
      },
      {
        "club_badge_src": null,
        "entry": 6264395,
        "entry_name": "Wirtz Nightmare",
        "event_total": 58,
        "has_played": true,
        "id": 49601327,
        "last_rank": 28546,
        "player_name": "Tony Thorsell",
        "rank": 27990,
        "rank_sort": 28141,
        "total": 2370
      },
      {
        "club_badge_src": null,
        "entry": 6269248,
        "entry_name": "Eddie's Angels",
        "event_total": 62,
        "has_played": true,
        "id": 49642579,
        "last_rank": 32751,
        "player_name": "Edward Andrewes",
        "rank": 27990,
        "rank_sort": 28142,
        "total": 2370
      },
      {
        "club_badge_src": "https://fantasy.premierleague.com/gcs/plfpl-production-adobe-approved/plfpl-production/6283767/eb487710-d7bc-4177-8820-4065c1322e84.png",
        "entry": 6283767,
        "entry_name": "Saka White Rice",
        "event_total": 57,
        "has_played": true,
        "id": 49772286,
        "last_rank": 27770,
        "player_name": "Barry Whittle",
        "rank": 27990,
        "rank_sort": 28143,
        "total": 2370
      },
      {
        "club_badge_src": null,
        "entry": 6330497,
        "entry_name": "FP FC",
        "event_total": 61,
        "has_played": true,
        "id": 50307385,
        "last_rank": 31747,
        "player_name": "Marwan Al Banna",
        "rank": 27990,
        "rank_sort": 28144,
        "total": 2370
      },
      {
        "club_badge_src": null,
        "entry": 6406873,
        "entry_name": "30 bomb",
        "event_total": 87,
        "has_played": true,
        "id": 50980336,
        "last_rank": 71386,
        "player_name": "Caslav Mirjanic",
        "rank": 27990,
        "rank_sort": 28145,
        "total": 2370
      },
      {
        "club_badge_src": null,
        "entry": 6409843,
        "entry_name": "Charli xGx",
        "event_total": 42,
        "has_played": true,
        "id": 51006509,
        "last_rank": 16320,
        "player_name": "Tom McGrath",
        "rank": 27990,
        "rank_sort": 28146,
        "total": 2370
      },
      {
        "club_badge_src": null,
        "entry": 6465881,
        "entry_name": "Palmer Violets",
        "event_total": 58,
        "has_played": true,
        "id": 51514578,
        "last_rank": 28609,
        "player_name": "Ash Gaskell",
        "rank": 27990,
        "rank_sort": 28147,
        "total": 2370
      },
      {
        "club_badge_src": null,
        "entry": 6471213,
        "entry_name": "What\u2019s Rob Holding",
        "event_total": 56,
        "has_played": true,
        "id": 51560643,
        "last_rank": 27020,
        "player_name": "Michael Sharkey",
        "rank": 27990,
        "rank_sort": 28148,
        "total": 2370
      },
      {
        "club_badge_src": "https://fantasy.premierleague.com/gcs/plfpl-production-adobe-approved/plfpl-production/6512073/0a8a461d-960f-4af7-af9d-1f2d8e7dc56b.png",
        "entry": 6512073,
        "entry_name": "Moyes Will Be Moyes",
        "event_total": 67,
        "has_played": true,
        "id": 51928988,
        "last_rank": 38644,
        "player_name": "Laurentiu Simion",
        "rank": 27990,
        "rank_sort": 28149,
        "total": 2370
      },
      {
        "club_badge_src": null,
        "entry": 6513962,
        "entry_name": "Delap of Honour",
        "event_total": 42,
        "has_played": true,
        "id": 51946088,
        "last_rank": 16163,
        "player_name": "Ethan Nightingale",
        "rank": 27990,
        "rank_sort": 28150,
        "total": 2370
      }
    ]
  }
}