{
  "last_updated_data": "2026-05-24T23:28:17Z",
  "league": {
    "admin_entry": null,
    "closed": false,
    "code_privacy": "p",
    "created": "2025-07-20T23:14:33.933835Z",
    "cup_league": 2815434,
    "has_cup": true,
    "id": 314,
    "league_type": "s",
    "max_entries": null,
    "name": "Overall",
    "rank": null,
    "scoring": "c",
    "start_event": 1
  },
  "new_entries": {
    "has_next": false,
    "page": 1,
    "results": []
  },
  "standings": {
    "has_next": true,
    "page": 758,
    "results": [
      {
        "club_badge_src": null,
        "entry": 5188651,
        "entry_name": "Invincible Empire",
        "event_total": 90,
        "has_played": true,
        "id": 40167726,
        "last_rank": 98896,
        "player_name": "Sriram Sameer",
        "rank": 37683,
        "rank_sort": 37851,
        "total": 2361
      },
      {
        "club_badge_src": null,
        "entry": 5235226,
        "entry_name": "ABDI777",
        "event_total": 70,
        "has_played": true,
        "id": 40569272,
        "last_rank": 56180,
        "player_name": "elmehdi abdi",
        "rank": 37683,
        "rank_sort": 37852,
        "total": 2361
      },
      {
        "club_badge_src": null,
        "entry": 5307253,
        "entry_name": "Acewhizzy",
        "event_total": 57,
        "has_played": true,
        "id": 41139692,
        "last_rank": 37435,
        "player_name": "Oguntusin Oluwasorefunmi",
        "rank": 37683,
        "rank_sort": 37853,
        "total": 2361
      },
      {
        "club_badge_src": null,
        "entry": 5410502,
        "entry_name": "Power Reijnders",
        "event_total": 60,
        "has_played": true,
        "id": 42073987,
        "last_rank": 41617,
        "player_name": "Jonny Smith",
        "rank": 37683,
        "rank_sort": 37854,
        "total": 2361
      },
      {
        "club_badge_src": null,
        "entry": 5416713,
        "entry_name": "Cat and the Hatters",
        "event_total": 76,
        "has_played": true,
        "id": 42126057,
        "last_rank": 59496,
        "player_name": "Andrew Lavery",
        "rank": 37683,
        "rank_sort": 37855,
        "total": 2361
      },
      {
        "club_badge_src": null,
        "entry": 5616132,
        "entry_name": "Sisportsnews",
        "event_total": 55,
        "has_played": true,
        "id": 43896633,
        "last_rank": 35424,
        "player_name": "simon collins",
        "rank": 37683,
        "rank_sort": 37856,
        "total": 2361
      },
      {
        "club_badge_src": null,
        "entry": 5706256,
        "entry_name": "Gizmo's Prima Donars",
        "event_total": 54,
        "has_played": true,
        "id": 44681895,
        "last_rank": 34051,
        "player_name": "Suleman Hafeji",
        "rank": 37683,
        "rank_sort": 37857,
        "total": 2361
      },
      {
        "club_badge_src": null,
        "entry": 5734538,
        "entry_name": "Raiwin Maximus",
        "event_total": 78,
        "has_played": true,
        "id": 44927237,
        "last_rank": 71386,
        "player_name": "Raiwin Maximus",
        "rank": 37683,
        "rank_sort": 37858,
        "total": 2361
      },
      {
        "club_badge_src": null,
        "entry": 5812538,
        "entry_name": "Dunk Those Busquets",
        "event_total": 46,
        "has_played": true,
        "id": 45608650,
        "last_rank": 26088,
        "player_name": "Joe Stephenson",
        "rank": 37683,
        "rank_sort": 37859,
        "total": 2361
      },
      {
        "club_badge_src": null,
        "entry": 5864671,
        "entry_name": "free palastine",
        "event_total": 65,
        "has_played": true,
        "id": 46061287,
        "last_rank": 48363,
        "player_name": "Mohammad mostafa",
        "rank": 37683,
        "rank_sort": 37860,
        "total": 2361
      },
      {
        "club_badge_src": null,
        "entry": 5994283,
        "entry_name": "Kinder Mbuemo",
        "event_total": 72,
        "has_played": true,
        "id": 47240999,
        "last_rank": 59535,
        "player_name": "Rhys Minchin",
        "rank": 37683,
        "rank_sort": 37861,
        "total": 2361
      },
      {
        "club_badge_src": null,
        "entry": 6024371,
        "entry_name": "W\u2019em Only Warmin\u2019 Up",
        "event_total": 58,
        "has_played": true,
        "id": 47516039,
        "last_rank": 39023,
        "player_name": "Tony Stanger",
        "rank": 37683,
        "rank_sort": 37862,
        "total": 2361
      },
      {
        "club_badge_src": null,
        "entry": 6026592,
        "entry_name": "U\u017em\u00e1mdomapoh\u00e1rek",
        "event_total": 47,
        "has_played": true,
        "id": 47535399,
        "last_rank": 27020,
        "player_name": "Vojt\u011bch Cichra",
        "rank": 37683,
        "rank_sort": 37863,
        "total": 2361
      },
      {
        "club_badge_src": null,
        "entry": 6095793,
        "entry_name": "Leban",
        "event_total": 56,
        "has_played": true,
        "id": 48139657,
        "last_rank": 36348,
        "player_name": "Leban Mohamed",
        "rank": 37683,
        "rank_sort": 37864,
        "total": 2361
      },
      {
        "club_badge_src": null,
        "entry": 6134810,
        "entry_name": "Bigmans Baw Bags",
        "event_total": 67,
        "has_played": true,
        "id": 48480436,
        "last_rank": 51720,
        "player_name": "Dave Holgate",
        "rank": 37683,
        "rank_sort": 37865,
        "total": 2361
      },
      {
        "club_badge_src": null,
        "entry": 6247784,
        "entry_name": "Butts Meadow F.C",
        "event_total": 59,
        "has_played": true,
        "id": 49456094,
        "last_rank": 40297,
        "player_name": "Tom Map",
        "rank": 37683,
        "rank_sort": 37866,
        "total": 2361
      },
      {
        "club_badge_src": null,
        "entry": 6261581,
        "entry_name": "FC Schulke 04",
        "event_total": 44,
        "has_played": true,
        "id": 49576261,
        "last_rank": 24330,
        "player_name": "Chris Schulkins",
        "rank": 37683,
        "rank_sort": 37867,
        "total": 2361
      },
      {
        "club_badge_src": null,
        "entry": 6342964,
        "entry_name": "ManCheeseter United",
        "event_total": 56,
        "has_played": true,
        "id": 50417514,
        "last_rank": 36200,
        "player_name": "Sam Egan",
        "rank": 37683,
        "rank_sort": 37868,
        "total": 2361
      },
      {
        "club_badge_src": null,
        "entry": 6399546,
        "entry_name": "King Kevin Maher XI",
        "event_total": 65,
        "has_played": true,
        "id": 50915768,
        "last_rank": 48642,
        "player_name": "Sam R",
        "rank": 37683,
        "rank_sort": 37869,
        "total": 2361
      },
      {
        "club_badge_src": null,
        "entry": 6507837,
        "entry_name": "HooliganFC",
        "event_total": 60,
        "has_played": true,
        "id": 51891312,
        "last_rank": 41324,
        "player_name": "Ananthasit K.",
        "rank": 37683,
        "rank_sort": 37870,
        "total": 2361
      },
      {
        "club_badge_src": null,
        "entry": 6538959,
        "entry_name": "Granola and shiii",
        "event_total": 60,
        "has_played": true,
        "id": 52168296,
        "last_rank": 41324,
        "player_name": "Chibuzor Mark",
        "rank": 37683,
        "rank_sort": 37871,
        "total": 2361
      },
      {
        "club_badge_src": "https://fantasy.premierleague.com/gcs/plfpl-production-adobe-approved/plfpl-production/6605914/e19f5709-17be-4548-ab52-61c5c3664dcc.png",
        "entry": 6605914,
        "entry_name": "The Auld Dubliners",
        "event_total": 68,
        "has_played": true,
        "id": 52772919,
        "last_rank": 53023,
        "player_name": "Brad Camilleri",
        "rank": 37683,
        "rank_sort": 37872,
        "total": 2361
      },
      {
        "club_badge_src": null,
        "entry": 6711746,
        "entry_name": "volare !!",
        "event_total": 58,
        "has_played": true,
        "id": 53712392,
        "last_rank": 39023,
        "player_name": "El Puto Amo -",
        "rank": 37683,
        "rank_sort": 37873,
        "total": 2361
      },
      {
        "club_badge_src": null,
        "entry": 6715499,
        "entry_name": "Paddythinaikos",
        "event_total": 63,
        "has_played": true,
        "id": 53743875,
        "last_rank": 45416,
        "player_name": "Paddy Fleming",
        "rank": 37683,
        "rank_sort": 37874,
        "total": 2361
      },
      {
        "club_badge_src": null,
        "entry": 6868003,
        "entry_name": "Zubi Zubi Doo",
        "event_total": 66,
        "has_played": true,
        "id": 55033231,
        "last_rank": 44048,
        "player_name": "Saba Dekeersschieter",
        "rank": 37683,
        "rank_sort": 37875,
        "total": 2361
      },
      {
        "club_badge_src": null,
        "entry": 6934739,
        "entry_name": "AmorimOut",
        "event_total": 72,
        "has_played": true,
        "id": 55595477,
        "last_rank": 59632,
        "player_name": "Mohamed Adli",
        "rank": 37683,
        "rank_sort": 37876,
        "total": 2361
      },
      {
        "club_badge_src": "https://fantasy.premierleague.com/gcs/plfpl-production-adobe-approved/plfpl-production/7002730/23bf0295-e404-47f2-aba5-0a8541e51902.png",
        "entry": 7002730,
        "entry_name": "Massaman\u00e9 Curry",
        "event_total": 66,
        "has_played": true,
        "id": 56228507,
        "last_rank": 44048,
        "player_name": "Jack Hutchinson",
        "rank": 37683,
        "rank_sort": 37877,
        "total": 2361
      },
      {
        "club_badge_src": null,
        "entry": 7022060,
        "entry_name": "Anton's XI",
        "event_total": 56,
        "has_played": true,
        "id": 56406832,
        "last_rank": 36200,
        "player_name": "Anton Simmons",
        "rank": 37683,
        "rank_sort": 37878,
        "total": 2361
      },
      {
        "club_badge_src": null,
        "entry": 7062670,
        "entry_name": "Anettes Ballgutter",
        "event_total": 66,
        "has_played": true,
        "id": 56820778,
        "last_rank": 50199,
        "player_name": "Anette Hanssen",
        "rank": 37683,
        "rank_sort": 37879,
        "total": 2361
      },
      {
        "club_badge_src": null,
        "entry": 7088042,
        "entry_name": "Hellberg's heroes",
        "event_total": 67,
        "has_played": true,
        "id": 57062904,
        "last_rank": 51220,
        "player_name": "Andy Dobson",
        "rank": 37683,
        "rank_sort": 37880,
        "total": 2361
      },
      {
        "club_badge_src": null,
        "entry": 7372829,
        "entry_name": "El Riskawy",
        "event_total": 73,
        "has_played": true,
        "id": 59760772,
        "last_rank": 61950,
        "player_name": "Youssef Hassan",
        "rank": 37683,
        "rank_sort": 37881,
        "total": 2361
      },
      {
        "club_badge_src": null,
        "entry": 7376578,
        "entry_name": "Elli9004",
        "event_total": 56,
        "has_played": true,
        "id": 59794960,
        "last_rank": 36624,
        "player_name": "Robin Ellis",
        "rank": 37683,
        "rank_sort": 37882,
        "total": 2361
      },
      {
        "club_badge_src": null,
        "entry": 7494406,
        "entry_name": "PuyolP\u0101ntsDown",
        "event_total": 36,
        "has_played": true,
        "id": 61209515,
        "last_rank": 18270,
        "player_name": "Huzaifa Bhayat",
        "rank": 37683,
        "rank_sort": 37883,
        "total": 2361
      },
      {
        "club_badge_src": null,
        "entry": 7759007,
        "entry_name": "The Big Tarkowski",
        "event_total": 73,
        "has_played": true,
        "id": 63704204,
        "last_rank": 48119,
        "player_name": "Christian Karlsson",
        "rank": 37683,
        "rank_sort": 37884,
        "total": 2361
      },
      {
        "club_badge_src": null,
        "entry": 7889799,
        "entry_name": "KF Tirana",
        "event_total": 45,
        "has_played": true,
        "id": 64892584,
        "last_rank": 25172,
        "player_name": "Leon Cani",
        "rank": 37683,
        "rank_sort": 37885,
        "total": 2361
      },
      {
        "club_badge_src": null,
        "entry": 8094669,
        "entry_name": "Reece Lightning",
        "event_total": 48,
        "has_played": true,
        "id": 66751085,
        "last_rank": 27976,
        "player_name": "Nick Gulliver",
        "rank": 37683,
        "rank_sort": 37886,
        "total": 2361
      },
      {
        "club_badge_src": null,
        "entry": 8432823,
        "entry_name": "slev",
        "event_total": 62,
        "has_played": true,
        "id": 69992622,
        "last_rank": 38774,
        "player_name": "Rob Slevin",
        "rank": 37683,
        "rank_sort": 37887,
        "total": 2361
      },
      {
        "club_badge_src": null,
        "entry": 8606835,
        "entry_name": "KM10",
        "event_total": 71,
        "has_played": true,
        "id": 71664031,
        "last_rank": 58388,
        "player_name": "Johnny Calkov",
        "rank": 37683,
        "rank_sort": 37888,
        "total": 2361
      },
      {
        "club_badge_src": null,
        "entry": 8626322,
        "entry_name": "Tricky Trees",
        "event_total": 59,
        "has_played": true,
        "id": 71852294,
        "last_rank": 40297,
        "player_name": "Ben Nickerson",
        "rank": 37683,
        "rank_sort": 37889,
        "total": 2361
      },
      {
        "club_badge_src": "https://fantasy.premierleague.com/gcs/plfpl-production-adobe-approved/plfpl-production/8643213/935d4065-a1cf-44f3-a712-0395bbb4ee93.png",
        "entry": 8643213,
        "entry_name": "Robert Lull FC",
        "event_total": 52,
        "has_played": true,
        "id": 72018560,
        "last_rank": 32190,
        "player_name": "Robert Laul",
        "rank": 37683,
        "rank_sort": 37890,
        "total": 2361
      },
      {
        "club_badge_src": null,
        "entry": 8698840,
        "entry_name": "Parachute Payments",
        "event_total": 59,
        "has_played": true,
        "id": 72567665,
        "last_rank": 40297,
        "player_name": "Jeremy Rampling",
        "rank": 37683,
        "rank_sort": 37891,
        "total": 2361
      },
      {
        "club_badge_src": null,
        "entry": 8714960,
        "entry_name": "GOOD LAUNDRY",
        "event_total": 81,
        "has_played": true,
        "id": 72724559,
        "last_rank": 77258,
        "player_name": "Wayan Prema Pawitra",
        "rank": 37683,
        "rank_sort": 37892,
        "total": 2361
      },
      {
        "club_badge_src": null,
        "entry": 8785042,
        "entry_name": "FC Spuget",
        "event_total": 50,
        "has_played": true,
        "id": 73400347,
        "last_rank": 30060,
        "player_name": "Oskari Korander",
        "rank": 37683,
        "rank_sort": 37893,
        "total": 2361
      },
      {
        "club_badge_src": null,
        "entry": 8824835,
        "entry_name": "AAA",
        "event_total": 61,
        "has_played": true,
        "id": 73783292,
        "last_rank": 42940,
        "player_name": "Anders Aasland",
        "rank": 37683,
        "rank_sort": 37894,
        "total": 2361
      },
      {
        "club_badge_src": null,
        "entry": 9006026,
        "entry_name": "Free Misha",
        "event_total": 48,
        "has_played": true,
        "id": 75538502,
        "last_rank": 27976,
        "player_name": "Bob Smith",
        "rank": 37683,
        "rank_sort": 37895,
        "total": 2361
      },
      {
        "club_badge_src": null,
        "entry": 9241941,
        "entry_name": "Rest Ham",
        "event_total": 66,
        "has_played": true,
        "id": 77844506,
        "last_rank": 49880,
        "player_name": "Ethan Payne",
        "rank": 37683,
        "rank_sort": 37896,
        "total": 2361
      },
      {
        "club_badge_src": null,
        "entry": 439,
        "entry_name": "Lights Kamara Action",
        "event_total": 39,
        "has_played": true,
        "id": 2423,
        "last_rank": 20624,
        "player_name": "Liam Evans",
        "rank": 37897,
        "rank_sort": 37897,
        "total": 2361
      },
      {
        "club_badge_src": null,
        "entry": 8812,
        "entry_name": "Geordie Club",
        "event_total": 60,
        "has_played": true,
        "id": 51432,
        "last_rank": 36624,
        "player_name": "Park Howdy",
        "rank": 37897,
        "rank_sort": 37898,
        "total": 2361
      },
      {
        "club_badge_src": "https://fantasy.premierleague.com/gcs/plfpl-production-adobe-approved/plfpl-production/9412/15ae0345-5995-4c6f-ac11-ad7b788c9e17.png",
        "entry": 9412,
        "entry_name": "Ctrl+Alt+DeLigt",
        "event_total": 72,
        "has_played": true,
        "id": 55322,
        "last_rank": 60462,
        "player_name": "Ankit Aakash Dwivedi",
        "rank": 37897,
        "rank_sort": 37899,
        "total": 2361
      },
      {
        "club_badge_src": "https://fantasy.premierleague.com/gcs/plfpl-production-adobe-approved/plfpl-production/10798/ad9da437-4ed0-4631-965b-94d68b2c814b.png",
        "entry": 10798,
        "entry_name": "Reece\u2019s Set Pieces",
        "event_total": 52,
        "has_played": true,
        "id": 63949,
        "last_rank": 31995,
        "player_name": "Alex Beal",
        "rank": 37897,
        "rank_sort": 37900,
        "total": 2361
      }
    ]
  }
}