{
  "last_updated_data": "2026-05-24T23:28:17Z",
  "league": {
    "admin_entry": null,
    "closed": false,
    "code_privacy": "p",
    "created": "2025-07-20T23:14:33.933835Z",
    "cup_league": 2815434,
    "has_cup": true,
    "id": 314,
    "league_type": "s",
    "max_entries": null,
    "name": "Overall",
    "rank": null,
    "scoring": "c",
    "start_event": 1
  },
  "new_entries": {
    "has_next": false,
    "page": 1,
    "results": []
  },
  "standings": {
    "has_next": true,
    "page": 831,
    "results": [
      {
        "club_badge_src": null,
        "entry": 3787780,
        "entry_name": "Stress FC",
        "event_total": 57,
        "has_played": true,
        "id": 28298866,
        "last_rank": 41824,
        "player_name": "inderpal singh",
        "rank": 41339,
        "rank_sort": 41501,
        "total": 2358
      },
      {
        "club_badge_src": null,
        "entry": 3790069,
        "entry_name": "The Rawson Boys",
        "event_total": 56,
        "has_played": true,
        "id": 28318005,
        "last_rank": 40297,
        "player_name": "Paul Rawson",
        "rank": 41339,
        "rank_sort": 41502,
        "total": 2358
      },
      {
        "club_badge_src": null,
        "entry": 3847720,
        "entry_name": "Premiere IX",
        "event_total": 62,
        "has_played": true,
        "id": 28841247,
        "last_rank": 48197,
        "player_name": "Nendi Tjandera",
        "rank": 41339,
        "rank_sort": 41503,
        "total": 2358
      },
      {
        "club_badge_src": null,
        "entry": 3925959,
        "entry_name": "Tesco McNeil Deal",
        "event_total": 50,
        "has_played": true,
        "id": 29525080,
        "last_rank": 32879,
        "player_name": "Kieran Longmore 2",
        "rank": 41339,
        "rank_sort": 41504,
        "total": 2358
      },
      {
        "club_badge_src": "https://fantasy.premierleague.com/gcs/plfpl-production-adobe-approved/plfpl-production/3954917/151d89bb-712c-4001-b9d0-c71fff1b3914.png",
        "entry": 3954917,
        "entry_name": "Wataru doin Endo",
        "event_total": 67,
        "has_played": true,
        "id": 29754238,
        "last_rank": 56708,
        "player_name": "Matt Clarke",
        "rank": 41339,
        "rank_sort": 41505,
        "total": 2358
      },
      {
        "club_badge_src": null,
        "entry": 4001286,
        "entry_name": "Bald Fraud",
        "event_total": 49,
        "has_played": true,
        "id": 30137562,
        "last_rank": 31995,
        "player_name": "Tom Leech",
        "rank": 41339,
        "rank_sort": 41506,
        "total": 2358
      },
      {
        "club_badge_src": null,
        "entry": 4035735,
        "entry_name": "noni your business",
        "event_total": 62,
        "has_played": true,
        "id": 30430344,
        "last_rank": 48642,
        "player_name": "Jack Faherty",
        "rank": 41339,
        "rank_sort": 41507,
        "total": 2358
      },
      {
        "club_badge_src": null,
        "entry": 4048556,
        "entry_name": "Kinder Mbeumo",
        "event_total": 61,
        "has_played": true,
        "id": 30537490,
        "last_rank": 41324,
        "player_name": "Bradley C",
        "rank": 41339,
        "rank_sort": 41508,
        "total": 2358
      },
      {
        "club_badge_src": null,
        "entry": 4075242,
        "entry_name": "WhenGabiMetSali(ba)",
        "event_total": 65,
        "has_played": true,
        "id": 30761783,
        "last_rank": 52759,
        "player_name": "Joe Baden-Powell",
        "rank": 41339,
        "rank_sort": 41509,
        "total": 2358
      },
      {
        "club_badge_src": "https://fantasy.premierleague.com/gcs/plfpl-production-adobe-approved/plfpl-production/4076300/8d2cbf27-33ac-4312-9703-4914df681833.png",
        "entry": 4076300,
        "entry_name": "reds",
        "event_total": 62,
        "has_played": true,
        "id": 30770243,
        "last_rank": 48119,
        "player_name": "Jere \u00c4ij\u00e4l\u00e4",
        "rank": 41339,
        "rank_sort": 41510,
        "total": 2358
      },
      {
        "club_badge_src": null,
        "entry": 4137978,
        "entry_name": "SanctionedUserName",
        "event_total": 48,
        "has_played": true,
        "id": 31272550,
        "last_rank": 30957,
        "player_name": "Theodore Zimmer",
        "rank": 41339,
        "rank_sort": 41511,
        "total": 2358
      },
      {
        "club_badge_src": null,
        "entry": 4160422,
        "entry_name": "Madridista",
        "event_total": 35,
        "has_played": true,
        "id": 31453504,
        "last_rank": 19721,
        "player_name": "George Elias",
        "rank": 41339,
        "rank_sort": 41512,
        "total": 2358
      },
      {
        "club_badge_src": null,
        "entry": 4290428,
        "entry_name": "Gunst for Glory",
        "event_total": 48,
        "has_played": true,
        "id": 32544479,
        "last_rank": 30957,
        "player_name": "Florian Gunst",
        "rank": 41339,
        "rank_sort": 41513,
        "total": 2358
      },
      {
        "club_badge_src": null,
        "entry": 4303346,
        "entry_name": "Pierre Schoeman at10",
        "event_total": 47,
        "has_played": true,
        "id": 32649054,
        "last_rank": 29904,
        "player_name": "Jack Cullen Draper",
        "rank": 41339,
        "rank_sort": 41514,
        "total": 2358
      },
      {
        "club_badge_src": null,
        "entry": 4328221,
        "entry_name": "\u041a\u0430\u0440\u043b\u0443\u043a\u043e\u0432\u043e \u0423\u043e\u043d\u0434\u044a\u0440\u044a\u0440\u0441",
        "event_total": 71,
        "has_played": true,
        "id": 32850802,
        "last_rank": 63724,
        "player_name": "Daniel Pavlov",
        "rank": 41339,
        "rank_sort": 41515,
        "total": 2358
      },
      {
        "club_badge_src": null,
        "entry": 4363809,
        "entry_name": "Ha'way the lads!",
        "event_total": 66,
        "has_played": true,
        "id": 33146169,
        "last_rank": 55014,
        "player_name": "Jordan Philliskirk",
        "rank": 41339,
        "rank_sort": 41516,
        "total": 2358
      },
      {
        "club_badge_src": null,
        "entry": 4364640,
        "entry_name": "One man two cups",
        "event_total": 67,
        "has_played": true,
        "id": 33153082,
        "last_rank": 56369,
        "player_name": "ben grave",
        "rank": 41339,
        "rank_sort": 41517,
        "total": 2358
      },
      {
        "club_badge_src": null,
        "entry": 4393707,
        "entry_name": "Daniel Amokachi",
        "event_total": 65,
        "has_played": true,
        "id": 33403251,
        "last_rank": 52853,
        "player_name": "Shaun Tyndall",
        "rank": 41339,
        "rank_sort": 41518,
        "total": 2358
      },
      {
        "club_badge_src": "https://fantasy.premierleague.com/gcs/plfpl-production-adobe-approved/plfpl-production/4483294/d9266808-ec45-4221-a23e-cf2983bda8d8.png",
        "entry": 4483294,
        "entry_name": "Arsenal Neum",
        "event_total": 59,
        "has_played": true,
        "id": 34170348,
        "last_rank": 44048,
        "player_name": "Mario Konjevod",
        "rank": 41339,
        "rank_sort": 41519,
        "total": 2358
      },
      {
        "club_badge_src": null,
        "entry": 4495912,
        "entry_name": "Sterbz FC",
        "event_total": 39,
        "has_played": true,
        "id": 34273059,
        "last_rank": 22685,
        "player_name": "Peter Sterbenz",
        "rank": 41339,
        "rank_sort": 41520,
        "total": 2358
      },
      {
        "club_badge_src": null,
        "entry": 4510822,
        "entry_name": "\u0627\u0646\u0627 \u0627\u0644\u0628\u0627\u0628\u0627",
        "event_total": 46,
        "has_played": true,
        "id": 34395280,
        "last_rank": 29071,
        "player_name": "Ebrahim Khaskia",
        "rank": 41339,
        "rank_sort": 41521,
        "total": 2358
      },
      {
        "club_badge_src": null,
        "entry": 4562702,
        "entry_name": "We will win Dalot",
        "event_total": 58,
        "has_played": true,
        "id": 34817424,
        "last_rank": 42648,
        "player_name": "Jason Leung",
        "rank": 41339,
        "rank_sort": 41522,
        "total": 2358
      },
      {
        "club_badge_src": null,
        "entry": 4563890,
        "entry_name": "Chewyrumballs",
        "event_total": 57,
        "has_played": true,
        "id": 34826958,
        "last_rank": 41162,
        "player_name": "Michael Choi",
        "rank": 41339,
        "rank_sort": 41523,
        "total": 2358
      },
      {
        "club_badge_src": null,
        "entry": 4564405,
        "entry_name": "Unsullied 11",
        "event_total": 72,
        "has_played": true,
        "id": 34831139,
        "last_rank": 65163,
        "player_name": "Rahul Adapa",
        "rank": 41339,
        "rank_sort": 41524,
        "total": 2358
      },
      {
        "club_badge_src": null,
        "entry": 4565014,
        "entry_name": "Brunos Boys",
        "event_total": 74,
        "has_played": true,
        "id": 34836034,
        "last_rank": 68748,
        "player_name": "Ross Mackay",
        "rank": 41339,
        "rank_sort": 41525,
        "total": 2358
      },
      {
        "club_badge_src": null,
        "entry": 4576934,
        "entry_name": "The Gentlemen",
        "event_total": 57,
        "has_played": true,
        "id": 34936639,
        "last_rank": 41324,
        "player_name": "James Mann",
        "rank": 41339,
        "rank_sort": 41526,
        "total": 2358
      },
      {
        "club_badge_src": null,
        "entry": 4579464,
        "entry_name": "Amexpectations",
        "event_total": 35,
        "has_played": true,
        "id": 34958295,
        "last_rank": 19721,
        "player_name": "Michael R Anderson",
        "rank": 41339,
        "rank_sort": 41527,
        "total": 2358
      },
      {
        "club_badge_src": null,
        "entry": 4587141,
        "entry_name": "Tsimitation of Life",
        "event_total": 58,
        "has_played": true,
        "id": 35024513,
        "last_rank": 42940,
        "player_name": "Joe Swainson",
        "rank": 41339,
        "rank_sort": 41528,
        "total": 2358
      },
      {
        "club_badge_src": null,
        "entry": 4636527,
        "entry_name": "kuluseXI",
        "event_total": 72,
        "has_played": true,
        "id": 35456899,
        "last_rank": 64830,
        "player_name": "Olle Ivarsson",
        "rank": 41339,
        "rank_sort": 41529,
        "total": 2358
      },
      {
        "club_badge_src": null,
        "entry": 4657330,
        "entry_name": "The warriors",
        "event_total": 56,
        "has_played": true,
        "id": 35649522,
        "last_rank": 35166,
        "player_name": "Adel Emad",
        "rank": 41339,
        "rank_sort": 41530,
        "total": 2358
      },
      {
        "club_badge_src": null,
        "entry": 4725718,
        "entry_name": "Arnoldo",
        "event_total": 67,
        "has_played": true,
        "id": 36326362,
        "last_rank": 56708,
        "player_name": "Arnold Bugigz",
        "rank": 41339,
        "rank_sort": 41531,
        "total": 2358
      },
      {
        "club_badge_src": "https://fantasy.premierleague.com/gcs/plfpl-production-adobe-approved/plfpl-production/4749888/9720bcee-2514-4a78-b524-60200a8faf47.png",
        "entry": 4749888,
        "entry_name": "Devilfilf",
        "event_total": 57,
        "has_played": true,
        "id": 36550009,
        "last_rank": 41617,
        "player_name": "Andy Roberts",
        "rank": 41339,
        "rank_sort": 41532,
        "total": 2358
      },
      {
        "club_badge_src": null,
        "entry": 4959461,
        "entry_name": "Rubens r\u00f6da rubiner",
        "event_total": 56,
        "has_played": true,
        "id": 38270941,
        "last_rank": 40297,
        "player_name": "Fredrik Dalsmyr",
        "rank": 41339,
        "rank_sort": 41533,
        "total": 2358
      },
      {
        "club_badge_src": null,
        "entry": 5208247,
        "entry_name": "Dingos",
        "event_total": 63,
        "has_played": true,
        "id": 40340130,
        "last_rank": 50468,
        "player_name": "Randi Merethe Rogstad",
        "rank": 41339,
        "rank_sort": 41534,
        "total": 2358
      },
      {
        "club_badge_src": null,
        "entry": 5224790,
        "entry_name": "Man utd Danilo",
        "event_total": 59,
        "has_played": true,
        "id": 40484265,
        "last_rank": 38774,
        "player_name": "Danilo Pe\u0161i\u0107",
        "rank": 41339,
        "rank_sort": 41535,
        "total": 2358
      },
      {
        "club_badge_src": null,
        "entry": 5286561,
        "entry_name": "change name",
        "event_total": 57,
        "has_played": true,
        "id": 40977396,
        "last_rank": 41324,
        "player_name": "Jago McGuinness-Smith",
        "rank": 41339,
        "rank_sort": 41536,
        "total": 2358
      },
      {
        "club_badge_src": null,
        "entry": 5407334,
        "entry_name": "Ifemikz FC",
        "event_total": 75,
        "has_played": true,
        "id": 42047380,
        "last_rank": 70985,
        "player_name": "Michael Asomba",
        "rank": 41339,
        "rank_sort": 41537,
        "total": 2358
      },
      {
        "club_badge_src": null,
        "entry": 5509099,
        "entry_name": "Yamal Sells Avon",
        "event_total": 50,
        "has_played": true,
        "id": 42939121,
        "last_rank": 28726,
        "player_name": "Connor Ward",
        "rank": 41339,
        "rank_sort": 41538,
        "total": 2358
      },
      {
        "club_badge_src": null,
        "entry": 5579939,
        "entry_name": "Gr\u00f6nsvart Express",
        "event_total": 65,
        "has_played": true,
        "id": 43579580,
        "last_rank": 46839,
        "player_name": "William Lagerqvist",
        "rank": 41339,
        "rank_sort": 41539,
        "total": 2358
      },
      {
        "club_badge_src": null,
        "entry": 5679307,
        "entry_name": "Poundland Pundeh",
        "event_total": 53,
        "has_played": true,
        "id": 44449282,
        "last_rank": 31747,
        "player_name": "Aaron Gian",
        "rank": 41339,
        "rank_sort": 41540,
        "total": 2358
      },
      {
        "club_badge_src": null,
        "entry": 5782178,
        "entry_name": "lisbon lions",
        "event_total": 54,
        "has_played": true,
        "id": 45342178,
        "last_rank": 37822,
        "player_name": "Gary Heffernan",
        "rank": 41339,
        "rank_sort": 41541,
        "total": 2358
      },
      {
        "club_badge_src": null,
        "entry": 6042833,
        "entry_name": "Anish FC",
        "event_total": 63,
        "has_played": true,
        "id": 47677302,
        "last_rank": 50199,
        "player_name": "Anish Shrestha",
        "rank": 41339,
        "rank_sort": 41542,
        "total": 2358
      },
      {
        "club_badge_src": null,
        "entry": 6124980,
        "entry_name": "Yassapro7788",
        "event_total": 59,
        "has_played": true,
        "id": 48394057,
        "last_rank": 44303,
        "player_name": "Jasmin Ademovic",
        "rank": 41339,
        "rank_sort": 41543,
        "total": 2358
      },
      {
        "club_badge_src": null,
        "entry": 6133897,
        "entry_name": "MacAwoniyi Cheese",
        "event_total": 78,
        "has_played": true,
        "id": 48472502,
        "last_rank": 68624,
        "player_name": "Aidan MacDonald",
        "rank": 41339,
        "rank_sort": 41544,
        "total": 2358
      },
      {
        "club_badge_src": null,
        "entry": 6191784,
        "entry_name": "Athletico Pathetico",
        "event_total": 49,
        "has_played": true,
        "id": 48974517,
        "last_rank": 32190,
        "player_name": "Stuart Jones",
        "rank": 41339,
        "rank_sort": 41545,
        "total": 2358
      },
      {
        "club_badge_src": null,
        "entry": 6236181,
        "entry_name": "Hakuna Mateta",
        "event_total": 47,
        "has_played": true,
        "id": 49356327,
        "last_rank": 29904,
        "player_name": "Michael Ross",
        "rank": 41339,
        "rank_sort": 41546,
        "total": 2358
      },
      {
        "club_badge_src": "https://fantasy.premierleague.com/gcs/plfpl-production-adobe-approved/plfpl-production/6261383/5772ecdf-33bd-482c-839f-5080a723db23.png",
        "entry": 6261383,
        "entry_name": "LivLaughLoveramento",
        "event_total": 78,
        "has_played": true,
        "id": 49574492,
        "last_rank": 77676,
        "player_name": "Scott Laight",
        "rank": 41339,
        "rank_sort": 41547,
        "total": 2358
      },
      {
        "club_badge_src": null,
        "entry": 6332730,
        "entry_name": "nonojvaistfumer",
        "event_total": 65,
        "has_played": true,
        "id": 50329314,
        "last_rank": 53345,
        "player_name": "Adrien Tripod",
        "rank": 41339,
        "rank_sort": 41548,
        "total": 2358
      },
      {
        "club_badge_src": null,
        "entry": 6408714,
        "entry_name": "Reigning Champs",
        "event_total": 44,
        "has_played": true,
        "id": 50996462,
        "last_rank": 27203,
        "player_name": "Dafydd Jones",
        "rank": 41339,
        "rank_sort": 41549,
        "total": 2358
      },
      {
        "club_badge_src": null,
        "entry": 6416943,
        "entry_name": "Redburn Rovers",
        "event_total": 60,
        "has_played": true,
        "id": 51070678,
        "last_rank": 45252,
        "player_name": "Soo NSH",
        "rank": 41339,
        "rank_sort": 41550,
        "total": 2358
      }
    ]
  }
}