{
  "last_updated_data": "2026-05-24T23:28:17Z",
  "league": {
    "admin_entry": null,
    "closed": false,
    "code_privacy": "p",
    "created": "2025-07-20T23:14:33.933835Z",
    "cup_league": 2815434,
    "has_cup": true,
    "id": 314,
    "league_type": "s",
    "max_entries": null,
    "name": "Overall",
    "rank": null,
    "scoring": "c",
    "start_event": 1
  },
  "new_entries": {
    "has_next": false,
    "page": 1,
    "results": []
  },
  "standings": {
    "has_next": true,
    "page": 1002,
    "results": [
      {
        "club_badge_src": null,
        "entry": 223753,
        "entry_name": "Soiled mule",
        "event_total": 57,
        "has_played": true,
        "id": 1488415,
        "last_rank": 50199,
        "player_name": "Daniel Hutchings",
        "rank": 50020,
        "rank_sort": 50051,
        "total": 2352
      },
      {
        "club_badge_src": null,
        "entry": 230819,
        "entry_name": "LadfromPortugal#20",
        "event_total": 58,
        "has_played": true,
        "id": 1535626,
        "last_rank": 45714,
        "player_name": "Shourya malik",
        "rank": 50020,
        "rank_sort": 50052,
        "total": 2352
      },
      {
        "club_badge_src": "https://fantasy.premierleague.com/gcs/plfpl-production-adobe-approved/plfpl-production/243013/d34134d2-592e-4e1d-ac82-1c7059a999bd.png",
        "entry": 243013,
        "entry_name": "Midnight S\u00f8n",
        "event_total": 59,
        "has_played": true,
        "id": 1618222,
        "last_rank": 47163,
        "player_name": "Alex Hefel",
        "rank": 50020,
        "rank_sort": 50053,
        "total": 2352
      },
      {
        "club_badge_src": null,
        "entry": 243223,
        "entry_name": "Tebi su Man\u00e9",
        "event_total": 59,
        "has_played": true,
        "id": 1619661,
        "last_rank": 47163,
        "player_name": "Marko Raseta",
        "rank": 50020,
        "rank_sort": 50054,
        "total": 2352
      },
      {
        "club_badge_src": null,
        "entry": 251459,
        "entry_name": "Thunder",
        "event_total": 29,
        "has_played": true,
        "id": 1672882,
        "last_rank": 19904,
        "player_name": "Mohammed Adam",
        "rank": 50020,
        "rank_sort": 50055,
        "total": 2352
      },
      {
        "club_badge_src": null,
        "entry": 258644,
        "entry_name": "FFS Not Again",
        "event_total": 47,
        "has_played": true,
        "id": 1719784,
        "last_rank": 36831,
        "player_name": "Kevin Curran",
        "rank": 50020,
        "rank_sort": 50056,
        "total": 2352
      },
      {
        "club_badge_src": null,
        "entry": 264764,
        "entry_name": "NoWayItsJai",
        "event_total": 64,
        "has_played": true,
        "id": 1760763,
        "last_rank": 54667,
        "player_name": "Jai Dulat",
        "rank": 50020,
        "rank_sort": 50057,
        "total": 2352
      },
      {
        "club_badge_src": null,
        "entry": 293558,
        "entry_name": "Kinder Mbeumo",
        "event_total": 44,
        "has_played": true,
        "id": 1959646,
        "last_rank": 33332,
        "player_name": "Dara O'Brien",
        "rank": 50020,
        "rank_sort": 50058,
        "total": 2352
      },
      {
        "club_badge_src": "https://fantasy.premierleague.com/gcs/plfpl-production-adobe-approved/plfpl-production/297985/893322a1-e384-41fd-ac6c-f16ff109f894.png",
        "entry": 297985,
        "entry_name": "TheKickers",
        "event_total": 52,
        "has_played": true,
        "id": 1991933,
        "last_rank": 42940,
        "player_name": "Chris Ovens",
        "rank": 50020,
        "rank_sort": 50059,
        "total": 2352
      },
      {
        "club_badge_src": null,
        "entry": 319411,
        "entry_name": "Keep It Simple",
        "event_total": 65,
        "has_played": true,
        "id": 2141054,
        "last_rank": 64190,
        "player_name": "James Chapple",
        "rank": 50020,
        "rank_sort": 50060,
        "total": 2352
      },
      {
        "club_badge_src": "https://fantasy.premierleague.com/gcs/plfpl-production-adobe-approved/plfpl-production/321772/b732b488-cab2-4904-aa6a-2a26b27a3fce.png",
        "entry": 321772,
        "entry_name": "The Konate Kid",
        "event_total": 62,
        "has_played": true,
        "id": 2156452,
        "last_rank": 58688,
        "player_name": "James Cornish",
        "rank": 50020,
        "rank_sort": 50061,
        "total": 2352
      },
      {
        "club_badge_src": "https://fantasy.premierleague.com/gcs/plfpl-production-adobe-approved/plfpl-production/376153/5ecac0bc-c1dc-4c05-b476-1a10f6d436fb.png",
        "entry": 376153,
        "entry_name": "SupaStrikas",
        "event_total": 72,
        "has_played": true,
        "id": 2518970,
        "last_rank": 69323,
        "player_name": "Luka G",
        "rank": 50020,
        "rank_sort": 50062,
        "total": 2352
      },
      {
        "club_badge_src": null,
        "entry": 453819,
        "entry_name": "Crampton fc",
        "event_total": 65,
        "has_played": true,
        "id": 3044172,
        "last_rank": 64005,
        "player_name": "Alex Crampton",
        "rank": 50020,
        "rank_sort": 50063,
        "total": 2352
      },
      {
        "club_badge_src": null,
        "entry": 455474,
        "entry_name": "Omdals Squad",
        "event_total": 65,
        "has_played": true,
        "id": 3055678,
        "last_rank": 64005,
        "player_name": "Eivind Omdal",
        "rank": 50020,
        "rank_sort": 50064,
        "total": 2352
      },
      {
        "club_badge_src": null,
        "entry": 491025,
        "entry_name": "Groundsman*",
        "event_total": 41,
        "has_played": true,
        "id": 3296041,
        "last_rank": 29904,
        "player_name": "Frederick Struijlaert",
        "rank": 50020,
        "rank_sort": 50065,
        "total": 2352
      },
      {
        "club_badge_src": "https://fantasy.premierleague.com/gcs/plfpl-production-adobe-approved/plfpl-production/494780/5f120363-a392-419d-9623-5c345a1a4b14.png",
        "entry": 494780,
        "entry_name": "Moraine's Mauraders",
        "event_total": 63,
        "has_played": true,
        "id": 3321139,
        "last_rank": 53345,
        "player_name": "Debbie Redman",
        "rank": 50020,
        "rank_sort": 50066,
        "total": 2352
      },
      {
        "club_badge_src": null,
        "entry": 503326,
        "entry_name": "Wirtz case scenario",
        "event_total": 68,
        "has_played": true,
        "id": 3378605,
        "last_rank": 61606,
        "player_name": "Josh Dunstan",
        "rank": 50020,
        "rank_sort": 50067,
        "total": 2352
      },
      {
        "club_badge_src": null,
        "entry": 520636,
        "entry_name": "Blue Lions",
        "event_total": 52,
        "has_played": true,
        "id": 3496303,
        "last_rank": 37822,
        "player_name": "Yazeed Alnabit",
        "rank": 50020,
        "rank_sort": 50068,
        "total": 2352
      },
      {
        "club_badge_src": "https://fantasy.premierleague.com/gcs/plfpl-production-adobe-approved/plfpl-production/602456/ac6a10ea-f185-4e2f-835d-a1654fae9a9b.png",
        "entry": 602456,
        "entry_name": "FPL MAJOR",
        "event_total": 70,
        "has_played": true,
        "id": 4065772,
        "last_rank": 72815,
        "player_name": "Major Stingo",
        "rank": 50020,
        "rank_sort": 50069,
        "total": 2352
      },
      {
        "club_badge_src": null,
        "entry": 609083,
        "entry_name": "\u0648\u0627\u062d\u062f \u0645\u0646 \u0627\u0644\u0646\u0627\u0633",
        "event_total": 48,
        "has_played": true,
        "id": 4114210,
        "last_rank": 33147,
        "player_name": "Omar Soliman",
        "rank": 50020,
        "rank_sort": 50070,
        "total": 2352
      },
      {
        "club_badge_src": null,
        "entry": 609796,
        "entry_name": "Fronk's Donks",
        "event_total": 52,
        "has_played": true,
        "id": 4119470,
        "last_rank": 37435,
        "player_name": "Ben Franklin",
        "rank": 50020,
        "rank_sort": 50071,
        "total": 2352
      },
      {
        "club_badge_src": null,
        "entry": 627282,
        "entry_name": "Could be Wirtz",
        "event_total": 67,
        "has_played": true,
        "id": 4238893,
        "last_rank": 67695,
        "player_name": "James Smith",
        "rank": 50020,
        "rank_sort": 50072,
        "total": 2352
      },
      {
        "club_badge_src": null,
        "entry": 635308,
        "entry_name": "Ruben in Diass",
        "event_total": 62,
        "has_played": true,
        "id": 4293583,
        "last_rank": 58388,
        "player_name": "Mark Flekken met de F",
        "rank": 50020,
        "rank_sort": 50073,
        "total": 2352
      },
      {
        "club_badge_src": "https://fantasy.premierleague.com/gcs/plfpl-production-adobe-approved/plfpl-production/639149/ba5447e2-0da7-4414-b16b-e0a7433c3514.png",
        "entry": 639149,
        "entry_name": "Thistle Grubbers",
        "event_total": 64,
        "has_played": true,
        "id": 4319600,
        "last_rank": 62223,
        "player_name": "David Gilmour",
        "rank": 50020,
        "rank_sort": 50074,
        "total": 2352
      },
      {
        "club_badge_src": null,
        "entry": 656780,
        "entry_name": "WAWAW F.C.",
        "event_total": 65,
        "has_played": true,
        "id": 4438554,
        "last_rank": 64005,
        "player_name": "Ashley Cox",
        "rank": 50020,
        "rank_sort": 50075,
        "total": 2352
      },
      {
        "club_badge_src": null,
        "entry": 702031,
        "entry_name": "Del la Cruise",
        "event_total": 47,
        "has_played": true,
        "id": 4756829,
        "last_rank": 36831,
        "player_name": "Graeme Thomson",
        "rank": 50020,
        "rank_sort": 50076,
        "total": 2352
      },
      {
        "club_badge_src": "https://fantasy.premierleague.com/gcs/plfpl-production-adobe-approved/plfpl-production/704527/ff210cec-720e-4d21-91f0-86f66dd83015.png",
        "entry": 704527,
        "entry_name": "Slot Game",
        "event_total": 63,
        "has_played": true,
        "id": 4774283,
        "last_rank": 60462,
        "player_name": "Chris Tsui",
        "rank": 50020,
        "rank_sort": 50077,
        "total": 2352
      },
      {
        "club_badge_src": null,
        "entry": 727580,
        "entry_name": "Flopsy",
        "event_total": 55,
        "has_played": true,
        "id": 4943084,
        "last_rank": 47163,
        "player_name": "Alain Verschaeren",
        "rank": 50020,
        "rank_sort": 50078,
        "total": 2352
      },
      {
        "club_badge_src": "https://fantasy.premierleague.com/gcs/plfpl-production-adobe-approved/plfpl-production/736852/b58478a1-03cc-4b72-8c0e-95f9e1e44e6c.png",
        "entry": 736852,
        "entry_name": "twenty and six",
        "event_total": 41,
        "has_played": true,
        "id": 5009336,
        "last_rank": 30060,
        "player_name": "Mark Wild",
        "rank": 50020,
        "rank_sort": 50079,
        "total": 2352
      },
      {
        "club_badge_src": null,
        "entry": 739669,
        "entry_name": "Sweetnam UTD",
        "event_total": 56,
        "has_played": true,
        "id": 5029160,
        "last_rank": 48898,
        "player_name": "Andrew Sweetnam",
        "rank": 50020,
        "rank_sort": 50080,
        "total": 2352
      },
      {
        "club_badge_src": null,
        "entry": 759926,
        "entry_name": "BEST HAM",
        "event_total": 56,
        "has_played": true,
        "id": 5179479,
        "last_rank": 48898,
        "player_name": "Omar Nasser",
        "rank": 50020,
        "rank_sort": 50081,
        "total": 2352
      },
      {
        "club_badge_src": null,
        "entry": 854406,
        "entry_name": "Nomoretimetoola",
        "event_total": 60,
        "has_played": true,
        "id": 5856517,
        "last_rank": 55311,
        "player_name": "J W",
        "rank": 50020,
        "rank_sort": 50082,
        "total": 2352
      },
      {
        "club_badge_src": null,
        "entry": 856324,
        "entry_name": "Who let the Dorg out",
        "event_total": 58,
        "has_played": true,
        "id": 5869687,
        "last_rank": 51403,
        "player_name": "Marc Song",
        "rank": 50020,
        "rank_sort": 50083,
        "total": 2352
      },
      {
        "club_badge_src": "https://fantasy.premierleague.com/gcs/plfpl-production-adobe-approved/plfpl-production/857396/36182c85-b904-46e2-9fc0-c589fdcd1e1b.png",
        "entry": 857396,
        "entry_name": "Cherokee Point 5.0",
        "event_total": 53,
        "has_played": true,
        "id": 5877134,
        "last_rank": 44525,
        "player_name": "mark owens",
        "rank": 50020,
        "rank_sort": 50084,
        "total": 2352
      },
      {
        "club_badge_src": null,
        "entry": 887678,
        "entry_name": "ObywatelGC",
        "event_total": 59,
        "has_played": true,
        "id": 6088406,
        "last_rank": 46839,
        "player_name": "Eugeniusz Ciak",
        "rank": 50020,
        "rank_sort": 50085,
        "total": 2352
      },
      {
        "club_badge_src": null,
        "entry": 889991,
        "entry_name": "Warnock's Wanderers",
        "event_total": 62,
        "has_played": true,
        "id": 6104725,
        "last_rank": 58911,
        "player_name": "Matthew Horler",
        "rank": 50020,
        "rank_sort": 50086,
        "total": 2352
      },
      {
        "club_badge_src": null,
        "entry": 907871,
        "entry_name": "#20",
        "event_total": 53,
        "has_played": true,
        "id": 6240803,
        "last_rank": 44303,
        "player_name": "Prithak Subedi",
        "rank": 50020,
        "rank_sort": 50087,
        "total": 2352
      },
      {
        "club_badge_src": null,
        "entry": 908318,
        "entry_name": "Sakafewcoldones",
        "event_total": 49,
        "has_played": true,
        "id": 6244053,
        "last_rank": 34293,
        "player_name": "Haydan Bowman",
        "rank": 50020,
        "rank_sort": 50088,
        "total": 2352
      },
      {
        "club_badge_src": null,
        "entry": 931802,
        "entry_name": "Haaland Village",
        "event_total": 55,
        "has_played": true,
        "id": 6411683,
        "last_rank": 47163,
        "player_name": "Jesse Yap",
        "rank": 50020,
        "rank_sort": 50089,
        "total": 2352
      },
      {
        "club_badge_src": "https://fantasy.premierleague.com/gcs/plfpl-production-adobe-approved/plfpl-production/943302/0e2a3aaf-1025-4165-8049-ed0bfd6ac202.png",
        "entry": 943302,
        "entry_name": "AMG LEGENDS",
        "event_total": 60,
        "has_played": true,
        "id": 6496831,
        "last_rank": 55311,
        "player_name": "Abdoolrahman MG",
        "rank": 50020,
        "rank_sort": 50090,
        "total": 2352
      },
      {
        "club_badge_src": "https://fantasy.premierleague.com/gcs/plfpl-production-adobe-approved/plfpl-production/943560/480fb13f-406d-4e85-8f88-0d64a185d191.png",
        "entry": 943560,
        "entry_name": "I'd Radebe Leeds",
        "event_total": 73,
        "has_played": true,
        "id": 6498680,
        "last_rank": 79431,
        "player_name": "Ross Holmes",
        "rank": 50020,
        "rank_sort": 50091,
        "total": 2352
      },
      {
        "club_badge_src": null,
        "entry": 963469,
        "entry_name": "The Normal Ones",
        "event_total": 59,
        "has_played": true,
        "id": 6639758,
        "last_rank": 53621,
        "player_name": "Michael Denny",
        "rank": 50020,
        "rank_sort": 50092,
        "total": 2352
      },
      {
        "club_badge_src": null,
        "entry": 1022910,
        "entry_name": "Fryer's Flops",
        "event_total": 32,
        "has_played": true,
        "id": 7077088,
        "last_rank": 21949,
        "player_name": "Rob Fryer",
        "rank": 50020,
        "rank_sort": 50093,
        "total": 2352
      },
      {
        "club_badge_src": "https://fantasy.premierleague.com/gcs/plfpl-production-adobe-approved/plfpl-production/1043716/3ed6a345-0bce-4a62-8326-910dbab23f00.png",
        "entry": 1043716,
        "entry_name": "What's Rob Holding",
        "event_total": 70,
        "has_played": true,
        "id": 7222865,
        "last_rank": 65475,
        "player_name": "Jonnie Morgan",
        "rank": 50020,
        "rank_sort": 50094,
        "total": 2352
      },
      {
        "club_badge_src": null,
        "entry": 1050350,
        "entry_name": "Backstreet Moyes",
        "event_total": 72,
        "has_played": true,
        "id": 7269064,
        "last_rank": 77258,
        "player_name": "James Frost",
        "rank": 50020,
        "rank_sort": 50095,
        "total": 2352
      },
      {
        "club_badge_src": null,
        "entry": 1053253,
        "entry_name": "Superbstreetlights",
        "event_total": 65,
        "has_played": true,
        "id": 7289228,
        "last_rank": 56369,
        "player_name": "Philip Houghton",
        "rank": 50020,
        "rank_sort": 50096,
        "total": 2352
      },
      {
        "club_badge_src": null,
        "entry": 1065583,
        "entry_name": "Atomski Mravi",
        "event_total": 57,
        "has_played": true,
        "id": 7376777,
        "last_rank": 50468,
        "player_name": "Mladen Dragicevic",
        "rank": 50020,
        "rank_sort": 50097,
        "total": 2352
      },
      {
        "club_badge_src": "https://fantasy.premierleague.com/gcs/plfpl-production-adobe-approved/plfpl-production/1110003/1a6042c8-1f9f-4228-9eef-324515a57217.png",
        "entry": 1110003,
        "entry_name": "No Mbeumo",
        "event_total": 52,
        "has_played": true,
        "id": 7688899,
        "last_rank": 37822,
        "player_name": "James Suttie",
        "rank": 50020,
        "rank_sort": 50098,
        "total": 2352
      },
      {
        "club_badge_src": null,
        "entry": 1113305,
        "entry_name": "JEHAD FC",
        "event_total": 66,
        "has_played": true,
        "id": 7711690,
        "last_rank": 58388,
        "player_name": "Jehad Mari",
        "rank": 50020,
        "rank_sort": 50099,
        "total": 2352
      },
      {
        "club_badge_src": null,
        "entry": 1165536,
        "entry_name": "Hakan \u0160ukurac",
        "event_total": 63,
        "has_played": true,
        "id": 8085229,
        "last_rank": 60462,
        "player_name": "Nikola Bekavac",
        "rank": 50020,
        "rank_sort": 50100,
        "total": 2352
      }
    ]
  }
}