{
  "last_updated_data": "2026-05-24T23:28:17Z",
  "league": {
    "admin_entry": null,
    "closed": false,
    "code_privacy": "p",
    "created": "2025-07-20T23:14:33.933835Z",
    "cup_league": 2815434,
    "has_cup": true,
    "id": 314,
    "league_type": "s",
    "max_entries": null,
    "name": "Overall",
    "rank": null,
    "scoring": "c",
    "start_event": 1
  },
  "new_entries": {
    "has_next": false,
    "page": 1,
    "results": []
  },
  "standings": {
    "has_next": true,
    "page": 1493,
    "results": [
      {
        "club_badge_src": null,
        "entry": 109133,
        "entry_name": "Return of Chamakh",
        "event_total": 52,
        "has_played": true,
        "id": 711479,
        "last_rank": 58388,
        "player_name": "Phil Edwardes",
        "rank": 74579,
        "rank_sort": 74601,
        "total": 2338
      },
      {
        "club_badge_src": "https://fantasy.premierleague.com/gcs/plfpl-production-adobe-approved/plfpl-production/113585/175e594c-f45d-42f9-9e33-e0170d0b2ca9.png",
        "entry": 113585,
        "entry_name": "Oskars Warriors",
        "event_total": 53,
        "has_played": true,
        "id": 740811,
        "last_rank": 67926,
        "player_name": "Oskar Hog\u00e9us",
        "rank": 74579,
        "rank_sort": 74602,
        "total": 2338
      },
      {
        "club_badge_src": "https://fantasy.premierleague.com/gcs/plfpl-production-adobe-approved/plfpl-production/126249/62814b12-f7d9-4e8d-b402-62e90aa8690a.png",
        "entry": 126249,
        "entry_name": "wee jobe",
        "event_total": 66,
        "has_played": true,
        "id": 823244,
        "last_rank": 96777,
        "player_name": "Andy Beaton",
        "rank": 74579,
        "rank_sort": 74603,
        "total": 2338
      },
      {
        "club_badge_src": null,
        "entry": 127419,
        "entry_name": "Kant\u00e9 Catch Me",
        "event_total": 54,
        "has_played": true,
        "id": 830680,
        "last_rank": 62223,
        "player_name": "Lee Head",
        "rank": 74579,
        "rank_sort": 74604,
        "total": 2338
      },
      {
        "club_badge_src": null,
        "entry": 130517,
        "entry_name": "Kacip Halus",
        "event_total": 39,
        "has_played": true,
        "id": 850470,
        "last_rank": 44804,
        "player_name": "Epul Cemat",
        "rank": 74579,
        "rank_sort": 74605,
        "total": 2338
      },
      {
        "club_badge_src": null,
        "entry": 133794,
        "entry_name": "ONYEKACHIUTD",
        "event_total": 59,
        "has_played": true,
        "id": 871408,
        "last_rank": 71386,
        "player_name": "prosper onyekachi",
        "rank": 74579,
        "rank_sort": 74606,
        "total": 2338
      },
      {
        "club_badge_src": null,
        "entry": 135395,
        "entry_name": "Wanxox BSSE FT",
        "event_total": 39,
        "has_played": true,
        "id": 881635,
        "last_rank": 44804,
        "player_name": "Azwan Aziz",
        "rank": 74579,
        "rank_sort": 74607,
        "total": 2338
      },
      {
        "club_badge_src": null,
        "entry": 144900,
        "entry_name": "Swedish Scouse Mafia",
        "event_total": 68,
        "has_played": true,
        "id": 948708,
        "last_rank": 91835,
        "player_name": "Victor Sigfridson",
        "rank": 74579,
        "rank_sort": 74608,
        "total": 2338
      },
      {
        "club_badge_src": null,
        "entry": 145733,
        "entry_name": "Jetset Janitors",
        "event_total": 60,
        "has_played": true,
        "id": 954514,
        "last_rank": 82664,
        "player_name": "Roar Waage",
        "rank": 74579,
        "rank_sort": 74609,
        "total": 2338
      },
      {
        "club_badge_src": null,
        "entry": 151087,
        "entry_name": "Foo XI",
        "event_total": 51,
        "has_played": true,
        "id": 991103,
        "last_rank": 50199,
        "player_name": "Anthony Foo",
        "rank": 74579,
        "rank_sort": 74610,
        "total": 2338
      },
      {
        "club_badge_src": null,
        "entry": 188982,
        "entry_name": "Blunderbolts*",
        "event_total": 56,
        "has_played": true,
        "id": 1250658,
        "last_rank": 73975,
        "player_name": "Kavir Pillay",
        "rank": 74579,
        "rank_sort": 74611,
        "total": 2338
      },
      {
        "club_badge_src": null,
        "entry": 207385,
        "entry_name": "FORCA INTER",
        "event_total": 75,
        "has_played": true,
        "id": 1378428,
        "last_rank": 109863,
        "player_name": "Darko Majetic",
        "rank": 74579,
        "rank_sort": 74612,
        "total": 2338
      },
      {
        "club_badge_src": "https://fantasy.premierleague.com/gcs/plfpl-production-adobe-approved/plfpl-production/211613/56ecc188-646a-4aca-8cc0-b3fb8b36f540.png",
        "entry": 211613,
        "entry_name": "Essi4444",
        "event_total": 50,
        "has_played": true,
        "id": 1407541,
        "last_rank": 55311,
        "player_name": "Ismaeel Mohammadi",
        "rank": 74579,
        "rank_sort": 74613,
        "total": 2338
      },
      {
        "club_badge_src": null,
        "entry": 213573,
        "entry_name": "Raya Sunshine",
        "event_total": 71,
        "has_played": true,
        "id": 1420754,
        "last_rank": 109863,
        "player_name": "Shane McDonnell",
        "rank": 74579,
        "rank_sort": 74614,
        "total": 2338
      },
      {
        "club_badge_src": null,
        "entry": 221280,
        "entry_name": "Wenger In",
        "event_total": 58,
        "has_played": true,
        "id": 1471713,
        "last_rank": 69323,
        "player_name": "Eduard Mouget",
        "rank": 74579,
        "rank_sort": 74615,
        "total": 2338
      },
      {
        "club_badge_src": "https://fantasy.premierleague.com/gcs/plfpl-production-adobe-approved/plfpl-production/224820/1f600833-aa7a-408e-972e-b2e4318ca882.png",
        "entry": 224820,
        "entry_name": "Tea and Busquets",
        "event_total": 55,
        "has_played": true,
        "id": 1495535,
        "last_rank": 56708,
        "player_name": "Alan B",
        "rank": 74579,
        "rank_sort": 74616,
        "total": 2338
      },
      {
        "club_badge_src": null,
        "entry": 234985,
        "entry_name": "Los Che",
        "event_total": 42,
        "has_played": true,
        "id": 1563577,
        "last_rank": 49207,
        "player_name": "Salik Warsi",
        "rank": 74579,
        "rank_sort": 74617,
        "total": 2338
      },
      {
        "club_badge_src": null,
        "entry": 236690,
        "entry_name": "Die Avkiranschaft",
        "event_total": 53,
        "has_played": true,
        "id": 1574772,
        "last_rank": 67926,
        "player_name": "Timur Avkiran",
        "rank": 74579,
        "rank_sort": 74618,
        "total": 2338
      },
      {
        "club_badge_src": "https://fantasy.premierleague.com/gcs/plfpl-production-adobe-approved/plfpl-production/291811/86e8eb59-03c0-465f-baad-4f1615913996.png",
        "entry": 291811,
        "entry_name": "Phuket Athletic",
        "event_total": 57,
        "has_played": true,
        "id": 1946641,
        "last_rank": 76330,
        "player_name": "David Weale",
        "rank": 74579,
        "rank_sort": 74619,
        "total": 2338
      },
      {
        "club_badge_src": null,
        "entry": 319822,
        "entry_name": "Breaking Bad-iashile",
        "event_total": 60,
        "has_played": true,
        "id": 2143721,
        "last_rank": 82664,
        "player_name": "Dennis Johansson Str\u00f6mberg",
        "rank": 74579,
        "rank_sort": 74620,
        "total": 2338
      },
      {
        "club_badge_src": null,
        "entry": 430008,
        "entry_name": "First and Wirtz",
        "event_total": 57,
        "has_played": true,
        "id": 2884075,
        "last_rank": 67063,
        "player_name": "Hanatsi Asghedom",
        "rank": 74579,
        "rank_sort": 74621,
        "total": 2338
      },
      {
        "club_badge_src": null,
        "entry": 485491,
        "entry_name": "Tom Hewitt FC",
        "event_total": 42,
        "has_played": true,
        "id": 3258827,
        "last_rank": 43168,
        "player_name": "Tom Hewitt",
        "rank": 74579,
        "rank_sort": 74622,
        "total": 2338
      },
      {
        "club_badge_src": null,
        "entry": 509052,
        "entry_name": "Tricky Reds",
        "event_total": 59,
        "has_played": true,
        "id": 3417588,
        "last_rank": 71713,
        "player_name": "Connor Potter",
        "rank": 74579,
        "rank_sort": 74623,
        "total": 2338
      },
      {
        "club_badge_src": null,
        "entry": 512658,
        "entry_name": "Cunha Believe It",
        "event_total": 63,
        "has_played": true,
        "id": 3442392,
        "last_rank": 89426,
        "player_name": "Nick Jones",
        "rank": 74579,
        "rank_sort": 74624,
        "total": 2338
      },
      {
        "club_badge_src": "https://fantasy.premierleague.com/gcs/plfpl-production-adobe-approved/plfpl-production/575383/aaad71de-4257-438d-a794-a4cd10535a69.png",
        "entry": 575383,
        "entry_name": "Name Still Coming",
        "event_total": 63,
        "has_played": true,
        "id": 3871983,
        "last_rank": 89426,
        "player_name": "Sir Marcus McAlmont GBE",
        "rank": 74579,
        "rank_sort": 74625,
        "total": 2338
      },
      {
        "club_badge_src": null,
        "entry": 610850,
        "entry_name": "Var you serious?",
        "event_total": 76,
        "has_played": true,
        "id": 4127148,
        "last_rank": 112169,
        "player_name": "Gareth Hibbert",
        "rank": 74579,
        "rank_sort": 74626,
        "total": 2338
      },
      {
        "club_badge_src": null,
        "entry": 620741,
        "entry_name": "The Balloon Door",
        "event_total": 67,
        "has_played": true,
        "id": 4194966,
        "last_rank": 99596,
        "player_name": "Peter Duerden",
        "rank": 74579,
        "rank_sort": 74627,
        "total": 2338
      },
      {
        "club_badge_src": null,
        "entry": 625390,
        "entry_name": "Robs Xl",
        "event_total": 68,
        "has_played": true,
        "id": 4226147,
        "last_rank": 102125,
        "player_name": "Robert Hutchins",
        "rank": 74579,
        "rank_sort": 74628,
        "total": 2338
      },
      {
        "club_badge_src": "https://fantasy.premierleague.com/gcs/plfpl-production-adobe-approved/plfpl-production/637579/41ef5dec-c9b9-40b7-819d-5eb0dbbbc4c2.png",
        "entry": 637579,
        "entry_name": "Always Sonnie",
        "event_total": 55,
        "has_played": true,
        "id": 4309115,
        "last_rank": 71713,
        "player_name": "Jess Pongrass",
        "rank": 74579,
        "rank_sort": 74629,
        "total": 2338
      },
      {
        "club_badge_src": null,
        "entry": 663997,
        "entry_name": "Team Torget",
        "event_total": 71,
        "has_played": true,
        "id": 4489003,
        "last_rank": 98896,
        "player_name": "Kjetil Torget",
        "rank": 74579,
        "rank_sort": 74630,
        "total": 2338
      },
      {
        "club_badge_src": "https://fantasy.premierleague.com/gcs/plfpl-production-adobe-approved/plfpl-production/678589/ac4ec409-9b02-4475-92d7-82b720d45b35.png",
        "entry": 678589,
        "entry_name": "Northern Thunder",
        "event_total": 68,
        "has_played": true,
        "id": 4591710,
        "last_rank": 101818,
        "player_name": "Antti H\u00e4nninen",
        "rank": 74579,
        "rank_sort": 74631,
        "total": 2338
      },
      {
        "club_badge_src": null,
        "entry": 691862,
        "entry_name": "William Gunn FC",
        "event_total": 59,
        "has_played": true,
        "id": 4685338,
        "last_rank": 80465,
        "player_name": "Patrick Atkinson",
        "rank": 74579,
        "rank_sort": 74632,
        "total": 2338
      },
      {
        "club_badge_src": null,
        "entry": 720396,
        "entry_name": "Henrik Wettermark",
        "event_total": 64,
        "has_played": true,
        "id": 4890981,
        "last_rank": 91835,
        "player_name": "Henrik Wettermark",
        "rank": 74579,
        "rank_sort": 74633,
        "total": 2338
      },
      {
        "club_badge_src": null,
        "entry": 727084,
        "entry_name": "HaCunha Mateta",
        "event_total": 61,
        "has_played": true,
        "id": 4939585,
        "last_rank": 84980,
        "player_name": "Dominic Hagerty",
        "rank": 74579,
        "rank_sort": 74634,
        "total": 2338
      },
      {
        "club_badge_src": "https://fantasy.premierleague.com/gcs/plfpl-production-adobe-approved/plfpl-production/747391/e6561df4-3d91-4f5a-8665-6d6f4ec6620c.png",
        "entry": 747391,
        "entry_name": "Tyros Olympus",
        "event_total": 69,
        "has_played": true,
        "id": 5084661,
        "last_rank": 104712,
        "player_name": "David Long",
        "rank": 74579,
        "rank_sort": 74635,
        "total": 2338
      },
      {
        "club_badge_src": null,
        "entry": 785540,
        "entry_name": "StigO",
        "event_total": 71,
        "has_played": true,
        "id": 5367835,
        "last_rank": 109863,
        "player_name": "Stig Ove N\u00e6ss",
        "rank": 74579,
        "rank_sort": 74636,
        "total": 2338
      },
      {
        "club_badge_src": null,
        "entry": 789632,
        "entry_name": "Dreamclub fc",
        "event_total": 56,
        "has_played": true,
        "id": 5402082,
        "last_rank": 74166,
        "player_name": "Abubakar Sadeeq",
        "rank": 74579,
        "rank_sort": 74637,
        "total": 2338
      },
      {
        "club_badge_src": null,
        "entry": 797634,
        "entry_name": "Seagulls @ Sardines",
        "event_total": 63,
        "has_played": true,
        "id": 5459383,
        "last_rank": 89426,
        "player_name": "David See",
        "rank": 74579,
        "rank_sort": 74638,
        "total": 2338
      },
      {
        "club_badge_src": "https://fantasy.premierleague.com/gcs/plfpl-production-adobe-approved/plfpl-production/831682/8094c001-155f-477e-8fc1-b4b5bec2bf02.png",
        "entry": 831682,
        "entry_name": "D'jappa\u2728",
        "event_total": 64,
        "has_played": true,
        "id": 5696566,
        "last_rank": 91835,
        "player_name": "Yessine Cherif --",
        "rank": 74579,
        "rank_sort": 74639,
        "total": 2338
      },
      {
        "club_badge_src": "https://fantasy.premierleague.com/gcs/plfpl-production-adobe-approved/plfpl-production/832765/af0a3656-3597-4d2c-a7e0-78dfdd8ca9bb.png",
        "entry": 832765,
        "entry_name": "CloverCannonFC",
        "event_total": 68,
        "has_played": true,
        "id": 5704072,
        "last_rank": 101419,
        "player_name": "James McQueenie",
        "rank": 74579,
        "rank_sort": 74640,
        "total": 2338
      },
      {
        "club_badge_src": "https://fantasy.premierleague.com/gcs/plfpl-production-adobe-approved/plfpl-production/908459/89cfc6a7-9413-4ea4-9cc7-223195143a83.png",
        "entry": 908459,
        "entry_name": "FC Rice & Saka",
        "event_total": 69,
        "has_played": true,
        "id": 6245046,
        "last_rank": 103978,
        "player_name": "Arwin Lor\u00e9n",
        "rank": 74579,
        "rank_sort": 74641,
        "total": 2338
      },
      {
        "club_badge_src": "https://fantasy.premierleague.com/gcs/plfpl-production-adobe-approved/plfpl-production/946444/d3436f9f-967f-458a-884a-9b000b1271f7.png",
        "entry": 946444,
        "entry_name": "FC Fish",
        "event_total": 61,
        "has_played": true,
        "id": 6518827,
        "last_rank": 84980,
        "player_name": "Kev Fisher",
        "rank": 74579,
        "rank_sort": 74642,
        "total": 2338
      },
      {
        "club_badge_src": null,
        "entry": 971572,
        "entry_name": "Enter Team Name",
        "event_total": 76,
        "has_played": true,
        "id": 6697398,
        "last_rank": 112169,
        "player_name": "Jan Martin Eriksen",
        "rank": 74579,
        "rank_sort": 74643,
        "total": 2338
      },
      {
        "club_badge_src": null,
        "entry": 975485,
        "entry_name": "The Konate Kid",
        "event_total": 50,
        "has_played": true,
        "id": 6724493,
        "last_rank": 62223,
        "player_name": "Alex Clift",
        "rank": 74579,
        "rank_sort": 74644,
        "total": 2338
      },
      {
        "club_badge_src": "https://fantasy.premierleague.com/gcs/plfpl-production-adobe-approved/plfpl-production/1005935/8dd68c8e-1179-49f6-bf71-334e51f70fdc.png",
        "entry": 1005935,
        "entry_name": "Halamishmish's fc",
        "event_total": 53,
        "has_played": true,
        "id": 6953829,
        "last_rank": 67926,
        "player_name": "shahar Halamish",
        "rank": 74579,
        "rank_sort": 74645,
        "total": 2338
      },
      {
        "club_badge_src": null,
        "entry": 1006924,
        "entry_name": "Holy Boehly",
        "event_total": 54,
        "has_played": true,
        "id": 6961305,
        "last_rank": 69907,
        "player_name": "Peter Thomsen",
        "rank": 74579,
        "rank_sort": 74646,
        "total": 2338
      },
      {
        "club_badge_src": null,
        "entry": 1057596,
        "entry_name": "Pegasus 41",
        "event_total": 41,
        "has_played": true,
        "id": 7319128,
        "last_rank": 47596,
        "player_name": "David Scott",
        "rank": 74579,
        "rank_sort": 74647,
        "total": 2338
      },
      {
        "club_badge_src": null,
        "entry": 1078918,
        "entry_name": "Fab Punks",
        "event_total": 63,
        "has_played": true,
        "id": 7470487,
        "last_rank": 89426,
        "player_name": "Rufus T Firefly",
        "rank": 74579,
        "rank_sort": 74648,
        "total": 2338
      },
      {
        "club_badge_src": null,
        "entry": 1095627,
        "entry_name": "YiiiHaaa",
        "event_total": 67,
        "has_played": true,
        "id": 7588516,
        "last_rank": 99596,
        "player_name": "Scott Preston",
        "rank": 74579,
        "rank_sort": 74649,
        "total": 2338
      },
      {
        "club_badge_src": null,
        "entry": 1109727,
        "entry_name": "She Wore",
        "event_total": 55,
        "has_played": true,
        "id": 7686823,
        "last_rank": 71956,
        "player_name": "Jez Shaw",
        "rank": 74579,
        "rank_sort": 74650,
        "total": 2338
      }
    ]
  }
}