{
  "last_updated_data": "2026-05-24T23:28:17Z",
  "league": {
    "admin_entry": null,
    "closed": false,
    "code_privacy": "p",
    "created": "2025-07-20T23:14:33.933835Z",
    "cup_league": 2815434,
    "has_cup": true,
    "id": 314,
    "league_type": "s",
    "max_entries": null,
    "name": "Overall",
    "rank": null,
    "scoring": "c",
    "start_event": 1
  },
  "new_entries": {
    "has_next": false,
    "page": 1,
    "results": []
  },
  "standings": {
    "has_next": true,
    "page": 544,
    "results": [
      {
        "club_badge_src": null,
        "entry": 2000809,
        "entry_name": "*Insert humour here",
        "event_total": 57,
        "has_played": true,
        "id": 14144540,
        "last_rank": 26827,
        "player_name": "Jamie Manson",
        "rank": 27056,
        "rank_sort": 27151,
        "total": 2371
      },
      {
        "club_badge_src": null,
        "entry": 2009525,
        "entry_name": "Naaiers FC",
        "event_total": 68,
        "has_played": true,
        "id": 14209089,
        "last_rank": 38774,
        "player_name": "Emile Van Vollenhoven",
        "rank": 27056,
        "rank_sort": 27152,
        "total": 2371
      },
      {
        "club_badge_src": "https://fantasy.premierleague.com/gcs/plfpl-production-adobe-approved/plfpl-production/2148905/91ae8cbf-2826-450f-b447-927d4fb85568.png",
        "entry": 2148905,
        "entry_name": "World Champions FC",
        "event_total": 63,
        "has_played": true,
        "id": 15274216,
        "last_rank": 33147,
        "player_name": "Peter Bokango",
        "rank": 27056,
        "rank_sort": 27153,
        "total": 2371
      },
      {
        "club_badge_src": null,
        "entry": 2197470,
        "entry_name": "Blink-1 Eto'o",
        "event_total": 70,
        "has_played": true,
        "id": 15636427,
        "last_rank": 41324,
        "player_name": "Josh Evans",
        "rank": 27056,
        "rank_sort": 27154,
        "total": 2371
      },
      {
        "club_badge_src": null,
        "entry": 2198143,
        "entry_name": "St Chad's XI",
        "event_total": 51,
        "has_played": true,
        "id": 15641433,
        "last_rank": 21775,
        "player_name": "Chad Tew",
        "rank": 27056,
        "rank_sort": 27155,
        "total": 2371
      },
      {
        "club_badge_src": null,
        "entry": 2224701,
        "entry_name": "\u062e\u0631\u0628\u0627\u0646\u0647",
        "event_total": 60,
        "has_played": true,
        "id": 15846625,
        "last_rank": 29688,
        "player_name": "Youssef Eldeep",
        "rank": 27056,
        "rank_sort": 27156,
        "total": 2371
      },
      {
        "club_badge_src": null,
        "entry": 2233806,
        "entry_name": "Lindern Holding",
        "event_total": 58,
        "has_played": true,
        "id": 15913718,
        "last_rank": 27770,
        "player_name": "Jacob Horn",
        "rank": 27056,
        "rank_sort": 27157,
        "total": 2371
      },
      {
        "club_badge_src": null,
        "entry": 2282014,
        "entry_name": "Tesco McNeil Deal",
        "event_total": 61,
        "has_played": true,
        "id": 16273398,
        "last_rank": 30536,
        "player_name": "Theo Hazlewood",
        "rank": 27056,
        "rank_sort": 27158,
        "total": 2371
      },
      {
        "club_badge_src": null,
        "entry": 2295925,
        "entry_name": "La Remontada Squad",
        "event_total": 67,
        "has_played": true,
        "id": 16374723,
        "last_rank": 37435,
        "player_name": "David Uldry",
        "rank": 27056,
        "rank_sort": 27159,
        "total": 2371
      },
      {
        "club_badge_src": "https://fantasy.premierleague.com/gcs/plfpl-production-adobe-approved/plfpl-production/2329670/78808eb2-3b0d-4660-910f-46131718d0c1.png",
        "entry": 2329670,
        "entry_name": "Mitaka Hoops",
        "event_total": 65,
        "has_played": true,
        "id": 16621296,
        "last_rank": 35166,
        "player_name": "Nathan McAllister",
        "rank": 27056,
        "rank_sort": 27160,
        "total": 2371
      },
      {
        "club_badge_src": null,
        "entry": 2428974,
        "entry_name": "Don't Forget me",
        "event_total": 56,
        "has_played": true,
        "id": 17368462,
        "last_rank": 25776,
        "player_name": "Lysandros Ioannou",
        "rank": 27056,
        "rank_sort": 27161,
        "total": 2371
      },
      {
        "club_badge_src": null,
        "entry": 2476656,
        "entry_name": "Merry Tenables",
        "event_total": 48,
        "has_played": true,
        "id": 17719850,
        "last_rank": 19544,
        "player_name": "Chris Edis",
        "rank": 27056,
        "rank_sort": 27162,
        "total": 2371
      },
      {
        "club_badge_src": null,
        "entry": 2683609,
        "entry_name": "Dynasty FC",
        "event_total": 68,
        "has_played": true,
        "id": 19301095,
        "last_rank": 38644,
        "player_name": "David Jennings",
        "rank": 27056,
        "rank_sort": 27163,
        "total": 2371
      },
      {
        "club_badge_src": null,
        "entry": 2819364,
        "entry_name": "Me, Myself, Ndiaye",
        "event_total": 73,
        "has_played": true,
        "id": 20596008,
        "last_rank": 45252,
        "player_name": "Grace Ellison-Cagna",
        "rank": 27056,
        "rank_sort": 27164,
        "total": 2371
      },
      {
        "club_badge_src": "https://fantasy.premierleague.com/gcs/plfpl-production-adobe-approved/plfpl-production/2836217/22db7caf-89dd-47b2-9ce5-5b2d1adc8b81.png",
        "entry": 2836217,
        "entry_name": "Slovan",
        "event_total": 61,
        "has_played": true,
        "id": 20727117,
        "last_rank": 30600,
        "player_name": "Rastislav Bil",
        "rank": 27056,
        "rank_sort": 27165,
        "total": 2371
      },
      {
        "club_badge_src": null,
        "entry": 2842850,
        "entry_name": "Citizen FC",
        "event_total": 68,
        "has_played": true,
        "id": 20778707,
        "last_rank": 38644,
        "player_name": "Shoumik Khan",
        "rank": 27056,
        "rank_sort": 27166,
        "total": 2371
      },
      {
        "club_badge_src": "https://fantasy.premierleague.com/gcs/plfpl-production-adobe-approved/plfpl-production/3029127/bc490991-4475-4c4f-bfad-ec5bcac3004d.png",
        "entry": 3029127,
        "entry_name": "Dave's big boned XI",
        "event_total": 62,
        "has_played": true,
        "id": 22288856,
        "last_rank": 31747,
        "player_name": "David Cardona",
        "rank": 27056,
        "rank_sort": 27167,
        "total": 2371
      },
      {
        "club_badge_src": null,
        "entry": 3077196,
        "entry_name": "YerMaw",
        "event_total": 69,
        "has_played": true,
        "id": 22669431,
        "last_rank": 39874,
        "player_name": "Hamish Maclellan",
        "rank": 27056,
        "rank_sort": 27168,
        "total": 2371
      },
      {
        "club_badge_src": null,
        "entry": 3095425,
        "entry_name": "Clinical n Caras box",
        "event_total": 80,
        "has_played": true,
        "id": 22813607,
        "last_rank": 56069,
        "player_name": "Louis Hatt",
        "rank": 27056,
        "rank_sort": 27169,
        "total": 2371
      },
      {
        "club_badge_src": null,
        "entry": 3166281,
        "entry_name": "fanatic fc",
        "event_total": 55,
        "has_played": true,
        "id": 23391900,
        "last_rank": 25002,
        "player_name": "Stephen Mwangi",
        "rank": 27056,
        "rank_sort": 27170,
        "total": 2371
      },
      {
        "club_badge_src": "https://fantasy.premierleague.com/gcs/plfpl-production-adobe-approved/plfpl-production/3230778/14e7bb59-1ba1-42df-b8e1-85ffb7a1668e.png",
        "entry": 3230778,
        "entry_name": "Chabanga Elites",
        "event_total": 52,
        "has_played": true,
        "id": 23894223,
        "last_rank": 22685,
        "player_name": "Morris Muriungi",
        "rank": 27056,
        "rank_sort": 27171,
        "total": 2371
      },
      {
        "club_badge_src": null,
        "entry": 3271585,
        "entry_name": "#LondonisblueWC",
        "event_total": 53,
        "has_played": true,
        "id": 24211147,
        "last_rank": 23522,
        "player_name": "Nicholas Williamson",
        "rank": 27056,
        "rank_sort": 27172,
        "total": 2371
      },
      {
        "club_badge_src": null,
        "entry": 3295562,
        "entry_name": "Mbeumo my name",
        "event_total": 75,
        "has_played": true,
        "id": 24404225,
        "last_rank": 48197,
        "player_name": "Bethan Clancy",
        "rank": 27056,
        "rank_sort": 27173,
        "total": 2371
      },
      {
        "club_badge_src": "https://fantasy.premierleague.com/gcs/plfpl-production-adobe-approved/plfpl-production/3415278/14503f90-8727-45d5-b35e-e23dc4b943e7.png",
        "entry": 3415278,
        "entry_name": "Top of the Slots",
        "event_total": 58,
        "has_played": true,
        "id": 25366853,
        "last_rank": 24039,
        "player_name": "Greig Orrell",
        "rank": 27056,
        "rank_sort": 27174,
        "total": 2371
      },
      {
        "club_badge_src": null,
        "entry": 3448357,
        "entry_name": "Frustrated 11",
        "event_total": 51,
        "has_played": true,
        "id": 25622814,
        "last_rank": 21775,
        "player_name": "Shubhadip Das",
        "rank": 27056,
        "rank_sort": 27175,
        "total": 2371
      },
      {
        "club_badge_src": null,
        "entry": 3517470,
        "entry_name": "Eze Money",
        "event_total": 75,
        "has_played": true,
        "id": 26175297,
        "last_rank": 48084,
        "player_name": "Ian Wilkins",
        "rank": 27056,
        "rank_sort": 27176,
        "total": 2371
      },
      {
        "club_badge_src": null,
        "entry": 3555561,
        "entry_name": "BirGorkhali",
        "event_total": 62,
        "has_played": true,
        "id": 26472118,
        "last_rank": 31620,
        "player_name": "laba pyakurel",
        "rank": 27056,
        "rank_sort": 27177,
        "total": 2371
      },
      {
        "club_badge_src": null,
        "entry": 3595711,
        "entry_name": "Dipakalypse",
        "event_total": 71,
        "has_played": true,
        "id": 26779689,
        "last_rank": 42506,
        "player_name": "Dipak Pokhrel",
        "rank": 27056,
        "rank_sort": 27178,
        "total": 2371
      },
      {
        "club_badge_src": null,
        "entry": 3618015,
        "entry_name": "How Dalot can you go",
        "event_total": 38,
        "has_played": true,
        "id": 26954606,
        "last_rank": 13401,
        "player_name": "Owen Wilson",
        "rank": 27056,
        "rank_sort": 27179,
        "total": 2371
      },
      {
        "club_badge_src": null,
        "entry": 3687441,
        "entry_name": "Vitamin C",
        "event_total": 57,
        "has_played": true,
        "id": 27508037,
        "last_rank": 27020,
        "player_name": "Djamel Eddine",
        "rank": 27056,
        "rank_sort": 27180,
        "total": 2371
      },
      {
        "club_badge_src": null,
        "entry": 3744719,
        "entry_name": "//ZubiMendiTeam",
        "event_total": 42,
        "has_played": true,
        "id": 27954581,
        "last_rank": 15452,
        "player_name": "Kevin Jin",
        "rank": 27056,
        "rank_sort": 27181,
        "total": 2371
      },
      {
        "club_badge_src": null,
        "entry": 3757790,
        "entry_name": "Tekkerslovakia",
        "event_total": 57,
        "has_played": true,
        "id": 28056474,
        "last_rank": 26827,
        "player_name": "Ed Polak",
        "rank": 27056,
        "rank_sort": 27182,
        "total": 2371
      },
      {
        "club_badge_src": "https://fantasy.premierleague.com/gcs/plfpl-production-adobe-approved/plfpl-production/3762346/02ce5b16-e780-44e7-9134-aeb7bbdd5f4d.png",
        "entry": 3762346,
        "entry_name": "pe\u2022ynwa\u2022s",
        "event_total": 28,
        "has_played": true,
        "id": 28091262,
        "last_rank": 8758,
        "player_name": "Pe\u0111a Stepanovi\u0107",
        "rank": 27056,
        "rank_sort": 27183,
        "total": 2371
      },
      {
        "club_badge_src": null,
        "entry": 3821343,
        "entry_name": "Oll Stars",
        "event_total": 55,
        "has_played": true,
        "id": 28580699,
        "last_rank": 25002,
        "player_name": "Ollie Kells",
        "rank": 27056,
        "rank_sort": 27184,
        "total": 2371
      },
      {
        "club_badge_src": null,
        "entry": 3871476,
        "entry_name": "Laurie of Arabia",
        "event_total": 63,
        "has_played": true,
        "id": 29050269,
        "last_rank": 32688,
        "player_name": "Laurie Robson",
        "rank": 27056,
        "rank_sort": 27185,
        "total": 2371
      },
      {
        "club_badge_src": "https://fantasy.premierleague.com/gcs/plfpl-production-adobe-approved/plfpl-production/3947644/e66070f5-5fb6-4093-8a1d-96a4ab068fa0.png",
        "entry": 3947644,
        "entry_name": "AC Morron",
        "event_total": 60,
        "has_played": true,
        "id": 29697113,
        "last_rank": 29578,
        "player_name": "Harry Illingworth-Pawson",
        "rank": 27056,
        "rank_sort": 27186,
        "total": 2371
      },
      {
        "club_badge_src": null,
        "entry": 3968529,
        "entry_name": "Van de Vinder",
        "event_total": 52,
        "has_played": true,
        "id": 29863134,
        "last_rank": 22426,
        "player_name": "Sofus Hansen Wrisberg",
        "rank": 27056,
        "rank_sort": 27187,
        "total": 2371
      },
      {
        "club_badge_src": null,
        "entry": 4039102,
        "entry_name": "Salih Heimir",
        "event_total": 48,
        "has_played": true,
        "id": 30458836,
        "last_rank": 19544,
        "player_name": "Ari Magn\u00fas",
        "rank": 27056,
        "rank_sort": 27188,
        "total": 2371
      },
      {
        "club_badge_src": null,
        "entry": 4117460,
        "entry_name": "Barry Can't Score",
        "event_total": 46,
        "has_played": true,
        "id": 31105071,
        "last_rank": 18113,
        "player_name": "John Greenhough",
        "rank": 27056,
        "rank_sort": 27189,
        "total": 2371
      },
      {
        "club_badge_src": null,
        "entry": 4154352,
        "entry_name": "StacksFC",
        "event_total": 54,
        "has_played": true,
        "id": 31401449,
        "last_rank": 24330,
        "player_name": "Omololu Ajao",
        "rank": 27056,
        "rank_sort": 27190,
        "total": 2371
      },
      {
        "club_badge_src": null,
        "entry": 4195342,
        "entry_name": "Kasteball IF",
        "event_total": 74,
        "has_played": true,
        "id": 31752782,
        "last_rank": 46660,
        "player_name": "Harald M\u00f8lmen-Nertun",
        "rank": 27056,
        "rank_sort": 27191,
        "total": 2371
      },
      {
        "club_badge_src": null,
        "entry": 4288418,
        "entry_name": "Farke the Bus",
        "event_total": 50,
        "has_played": true,
        "id": 32528512,
        "last_rank": 20888,
        "player_name": "Matt Chapman",
        "rank": 27056,
        "rank_sort": 27192,
        "total": 2371
      },
      {
        "club_badge_src": null,
        "entry": 4292594,
        "entry_name": "Nameless",
        "event_total": 65,
        "has_played": true,
        "id": 32561931,
        "last_rank": 35166,
        "player_name": "Old Git",
        "rank": 27056,
        "rank_sort": 27193,
        "total": 2371
      },
      {
        "club_badge_src": null,
        "entry": 4380145,
        "entry_name": "GOONA BOTTLE IT",
        "event_total": 67,
        "has_played": true,
        "id": 33285840,
        "last_rank": 37589,
        "player_name": "Jack Samson",
        "rank": 27056,
        "rank_sort": 27194,
        "total": 2371
      },
      {
        "club_badge_src": "https://fantasy.premierleague.com/gcs/plfpl-production-adobe-approved/plfpl-production/4425548/e390486b-30e5-43de-9d35-c8ba082b039e.png",
        "entry": 4425548,
        "entry_name": "Shetaaaaan",
        "event_total": 34,
        "has_played": true,
        "id": 33682139,
        "last_rank": 11237,
        "player_name": "Andrew Albert",
        "rank": 27056,
        "rank_sort": 27195,
        "total": 2371
      },
      {
        "club_badge_src": null,
        "entry": 4435559,
        "entry_name": "Kicker Conspirac1sts",
        "event_total": 58,
        "has_played": true,
        "id": 33772065,
        "last_rank": 27644,
        "player_name": "Rich Maskell",
        "rank": 27056,
        "rank_sort": 27196,
        "total": 2371
      },
      {
        "club_badge_src": null,
        "entry": 4517647,
        "entry_name": "Kasongoo Yeyee",
        "event_total": 32,
        "has_played": true,
        "id": 34451085,
        "last_rank": 10346,
        "player_name": "Ahmed Hassan",
        "rank": 27056,
        "rank_sort": 27197,
        "total": 2371
      },
      {
        "club_badge_src": null,
        "entry": 4626817,
        "entry_name": "Grexham Rangers",
        "event_total": 75,
        "has_played": true,
        "id": 35373961,
        "last_rank": 48197,
        "player_name": "Greg White",
        "rank": 27056,
        "rank_sort": 27198,
        "total": 2371
      },
      {
        "club_badge_src": null,
        "entry": 4758564,
        "entry_name": "White Hart Pain",
        "event_total": 52,
        "has_played": true,
        "id": 36620057,
        "last_rank": 22685,
        "player_name": "Sam Tester",
        "rank": 27056,
        "rank_sort": 27199,
        "total": 2371
      },
      {
        "club_badge_src": null,
        "entry": 4838171,
        "entry_name": "Nicks FC",
        "event_total": 64,
        "has_played": true,
        "id": 37268361,
        "last_rank": 34051,
        "player_name": "Nikhil Khatu",
        "rank": 27056,
        "rank_sort": 27200,
        "total": 2371
      }
    ]
  }
}