{
  "last_updated_data": "2026-05-24T23:28:17Z",
  "league": {
    "admin_entry": null,
    "closed": false,
    "code_privacy": "p",
    "created": "2025-07-20T23:14:33.933835Z",
    "cup_league": 2815434,
    "has_cup": true,
    "id": 314,
    "league_type": "s",
    "max_entries": null,
    "name": "Overall",
    "rank": null,
    "scoring": "c",
    "start_event": 1
  },
  "new_entries": {
    "has_next": false,
    "page": 1,
    "results": []
  },
  "standings": {
    "has_next": true,
    "page": 1153,
    "results": [
      {
        "club_badge_src": null,
        "entry": 206467,
        "entry_name": "\u00a38 a pint?",
        "event_total": 39,
        "has_played": true,
        "id": 1372260,
        "last_rank": 33147,
        "player_name": "Jay. Smith",
        "rank": 57566,
        "rank_sort": 57601,
        "total": 2347
      },
      {
        "club_badge_src": "https://fantasy.premierleague.com/gcs/plfpl-production-adobe-approved/plfpl-production/207261/ee68272d-7227-4113-b4cd-2832dcdb9e3c.png",
        "entry": 207261,
        "entry_name": "Opp i ringa!",
        "event_total": 71,
        "has_played": true,
        "id": 1377580,
        "last_rank": 86054,
        "player_name": "Jonas Myhre",
        "rank": 57566,
        "rank_sort": 57602,
        "total": 2347
      },
      {
        "club_badge_src": null,
        "entry": 208279,
        "entry_name": "FC kkt tomu rozumiem",
        "event_total": 64,
        "has_played": true,
        "id": 1384688,
        "last_rank": 70985,
        "player_name": "Michal Doktor",
        "rank": 57566,
        "rank_sort": 57603,
        "total": 2347
      },
      {
        "club_badge_src": null,
        "entry": 225633,
        "entry_name": "Obi Wan Chidobi",
        "event_total": 65,
        "has_played": true,
        "id": 1500949,
        "last_rank": 73423,
        "player_name": "Brandon Stater",
        "rank": 57566,
        "rank_sort": 57604,
        "total": 2347
      },
      {
        "club_badge_src": "https://fantasy.premierleague.com/gcs/plfpl-production-adobe-approved/plfpl-production/236553/f74b437f-ea58-4b53-8b6c-c010689f3c85.png",
        "entry": 236553,
        "entry_name": "PrawnSandwichBrigade",
        "event_total": 61,
        "has_played": true,
        "id": 1573875,
        "last_rank": 65475,
        "player_name": "Jon Berry",
        "rank": 57566,
        "rank_sort": 57605,
        "total": 2347
      },
      {
        "club_badge_src": null,
        "entry": 244696,
        "entry_name": "What's Scott To Like",
        "event_total": 51,
        "has_played": true,
        "id": 1629178,
        "last_rank": 48898,
        "player_name": "Hamish Scott",
        "rank": 57566,
        "rank_sort": 57606,
        "total": 2347
      },
      {
        "club_badge_src": null,
        "entry": 248381,
        "entry_name": "Jur\u00e1sek Park",
        "event_total": 60,
        "has_played": true,
        "id": 1653172,
        "last_rank": 63390,
        "player_name": "Callum Sutch",
        "rank": 57566,
        "rank_sort": 57607,
        "total": 2347
      },
      {
        "club_badge_src": null,
        "entry": 282519,
        "entry_name": "Bowen 747",
        "event_total": 44,
        "has_played": true,
        "id": 1880519,
        "last_rank": 39023,
        "player_name": "Luke Miles",
        "rank": 57566,
        "rank_sort": 57608,
        "total": 2347
      },
      {
        "club_badge_src": null,
        "entry": 285348,
        "entry_name": "Saka Potatoes",
        "event_total": 52,
        "has_played": true,
        "id": 1900460,
        "last_rank": 50199,
        "player_name": "Michael Webster",
        "rank": 57566,
        "rank_sort": 57609,
        "total": 2347
      },
      {
        "club_badge_src": null,
        "entry": 308641,
        "entry_name": "Jacob's Greased Hogg",
        "event_total": 83,
        "has_played": true,
        "id": 2067326,
        "last_rank": 118343,
        "player_name": "Steve Woodward",
        "rank": 57566,
        "rank_sort": 57610,
        "total": 2347
      },
      {
        "club_badge_src": null,
        "entry": 320442,
        "entry_name": "Hussein Tarhini",
        "event_total": 61,
        "has_played": true,
        "id": 2147726,
        "last_rank": 65163,
        "player_name": "Hussein Tarhini",
        "rank": 57566,
        "rank_sort": 57611,
        "total": 2347
      },
      {
        "club_badge_src": null,
        "entry": 328718,
        "entry_name": "Art",
        "event_total": 50,
        "has_played": true,
        "id": 2202091,
        "last_rank": 46839,
        "player_name": "Battal 18",
        "rank": 57566,
        "rank_sort": 57612,
        "total": 2347
      },
      {
        "club_badge_src": "https://fantasy.premierleague.com/gcs/plfpl-production-adobe-approved/plfpl-production/352989/45c08e0d-0055-480d-95e4-1db33385384f.png",
        "entry": 352989,
        "entry_name": "Forever 20 YNWA",
        "event_total": 48,
        "has_played": true,
        "id": 2362472,
        "last_rank": 44303,
        "player_name": "Robert Ketchum",
        "rank": 57566,
        "rank_sort": 57613,
        "total": 2347
      },
      {
        "club_badge_src": "https://fantasy.premierleague.com/gcs/plfpl-production-adobe-approved/plfpl-production/360039/cba1b208-a1ba-4f28-9bd7-769da9deaa19.png",
        "entry": 360039,
        "entry_name": "Rice to the Occasion",
        "event_total": 66,
        "has_played": true,
        "id": 2409214,
        "last_rank": 67063,
        "player_name": "Harry Brickell",
        "rank": 57566,
        "rank_sort": 57614,
        "total": 2347
      },
      {
        "club_badge_src": "https://fantasy.premierleague.com/gcs/plfpl-production-adobe-approved/plfpl-production/375674/c2c613cd-f7dc-4131-a929-618c854da0a1.png",
        "entry": 375674,
        "entry_name": "Conor Coatesy",
        "event_total": 60,
        "has_played": true,
        "id": 2515379,
        "last_rank": 56369,
        "player_name": "Alex Coates",
        "rank": 57566,
        "rank_sort": 57615,
        "total": 2347
      },
      {
        "club_badge_src": null,
        "entry": 392561,
        "entry_name": "Albox Whites",
        "event_total": 78,
        "has_played": true,
        "id": 2632985,
        "last_rank": 104388,
        "player_name": "Graham White",
        "rank": 57566,
        "rank_sort": 57616,
        "total": 2347
      },
      {
        "club_badge_src": "https://fantasy.premierleague.com/gcs/plfpl-production-adobe-approved/plfpl-production/401176/04447ccf-ede0-4cca-8540-bede66690c62.png",
        "entry": 401176,
        "entry_name": "Idontbottle",
        "event_total": 59,
        "has_played": true,
        "id": 2690131,
        "last_rank": 54667,
        "player_name": "Jovan Ong",
        "rank": 57566,
        "rank_sort": 57617,
        "total": 2347
      },
      {
        "club_badge_src": null,
        "entry": 412233,
        "entry_name": "El Galacticos",
        "event_total": 54,
        "has_played": true,
        "id": 2763970,
        "last_rank": 53621,
        "player_name": "Atle Pedersen",
        "rank": 57566,
        "rank_sort": 57618,
        "total": 2347
      },
      {
        "club_badge_src": null,
        "entry": 416615,
        "entry_name": "Sonshine",
        "event_total": 57,
        "has_played": true,
        "id": 2792725,
        "last_rank": 58688,
        "player_name": "Shaneil Davda",
        "rank": 57566,
        "rank_sort": 57619,
        "total": 2347
      },
      {
        "club_badge_src": "https://fantasy.premierleague.com/gcs/plfpl-production-adobe-approved/plfpl-production/418249/df30f3ac-e457-4fa6-a056-fd358e84c16b.png",
        "entry": 418249,
        "entry_name": "atd",
        "event_total": 59,
        "has_played": true,
        "id": 2803432,
        "last_rank": 54667,
        "player_name": "usman mumtaz",
        "rank": 57566,
        "rank_sort": 57620,
        "total": 2347
      },
      {
        "club_badge_src": null,
        "entry": 438173,
        "entry_name": "El Caudillo",
        "event_total": 58,
        "has_played": true,
        "id": 2938281,
        "last_rank": 60168,
        "player_name": "Luke Wells",
        "rank": 57566,
        "rank_sort": 57621,
        "total": 2347
      },
      {
        "club_badge_src": null,
        "entry": 448274,
        "entry_name": "DeLitchy",
        "event_total": 31,
        "has_played": true,
        "id": 3007206,
        "last_rank": 25172,
        "player_name": "Fawaz Dhaferi",
        "rank": 57566,
        "rank_sort": 57622,
        "total": 2347
      },
      {
        "club_badge_src": null,
        "entry": 454258,
        "entry_name": "Peaky Reijnders",
        "event_total": 37,
        "has_played": true,
        "id": 3047363,
        "last_rank": 31125,
        "player_name": "Sulayman Dawood",
        "rank": 57566,
        "rank_sort": 57623,
        "total": 2347
      },
      {
        "club_badge_src": null,
        "entry": 471227,
        "entry_name": "Kyrie FC",
        "event_total": 50,
        "has_played": true,
        "id": 3163536,
        "last_rank": 47417,
        "player_name": "Hazieq Eiman",
        "rank": 57566,
        "rank_sort": 57624,
        "total": 2347
      },
      {
        "club_badge_src": null,
        "entry": 473346,
        "entry_name": "mo2",
        "event_total": 59,
        "has_played": true,
        "id": 3177858,
        "last_rank": 61950,
        "player_name": "Momen Alshaer",
        "rank": 57566,
        "rank_sort": 57625,
        "total": 2347
      },
      {
        "club_badge_src": null,
        "entry": 480340,
        "entry_name": "Hacunha Mateta",
        "event_total": 71,
        "has_played": true,
        "id": 3224881,
        "last_rank": 86304,
        "player_name": "Jack Wickson",
        "rank": 57566,
        "rank_sort": 57626,
        "total": 2347
      },
      {
        "club_badge_src": null,
        "entry": 485395,
        "entry_name": "fpl_rafeeq7",
        "event_total": 52,
        "has_played": true,
        "id": 3258130,
        "last_rank": 50199,
        "player_name": "Rafeeq Butler",
        "rank": 57566,
        "rank_sort": 57627,
        "total": 2347
      },
      {
        "club_badge_src": null,
        "entry": 491178,
        "entry_name": "IVORY TOAST",
        "event_total": 61,
        "has_played": true,
        "id": 3297016,
        "last_rank": 65796,
        "player_name": "James Welsh",
        "rank": 57566,
        "rank_sort": 57628,
        "total": 2347
      },
      {
        "club_badge_src": null,
        "entry": 494522,
        "entry_name": "F.C Loop Club",
        "event_total": 68,
        "has_played": true,
        "id": 3319313,
        "last_rank": 79817,
        "player_name": "Damjan Donchev",
        "rank": 57566,
        "rank_sort": 57629,
        "total": 2347
      },
      {
        "club_badge_src": null,
        "entry": 502399,
        "entry_name": "trash",
        "event_total": 54,
        "has_played": true,
        "id": 3372205,
        "last_rank": 53345,
        "player_name": "liam daly",
        "rank": 57566,
        "rank_sort": 57630,
        "total": 2347
      },
      {
        "club_badge_src": null,
        "entry": 504412,
        "entry_name": "VAR Wars",
        "event_total": 66,
        "has_played": true,
        "id": 3385822,
        "last_rank": 75537,
        "player_name": "Thomas Prangnell",
        "rank": 57566,
        "rank_sort": 57631,
        "total": 2347
      },
      {
        "club_badge_src": null,
        "entry": 505975,
        "entry_name": "Serbian Newcastle",
        "event_total": 56,
        "has_played": true,
        "id": 3396029,
        "last_rank": 56369,
        "player_name": "Bojan Milosevic",
        "rank": 57566,
        "rank_sort": 57632,
        "total": 2347
      },
      {
        "club_badge_src": null,
        "entry": 521265,
        "entry_name": "Wirtz year yet",
        "event_total": 62,
        "has_played": true,
        "id": 3500661,
        "last_rank": 67422,
        "player_name": "Alex Grayson",
        "rank": 57566,
        "rank_sort": 57633,
        "total": 2347
      },
      {
        "club_badge_src": null,
        "entry": 530935,
        "entry_name": "FC Rockies",
        "event_total": 75,
        "has_played": true,
        "id": 3570737,
        "last_rank": 95890,
        "player_name": "Philip Temn\u00e6s",
        "rank": 57566,
        "rank_sort": 57634,
        "total": 2347
      },
      {
        "club_badge_src": null,
        "entry": 551448,
        "entry_name": "HaCunha Matata",
        "event_total": 67,
        "has_played": true,
        "id": 3711701,
        "last_rank": 77676,
        "player_name": "Iyabona Mazosiwe",
        "rank": 57566,
        "rank_sort": 57635,
        "total": 2347
      },
      {
        "club_badge_src": "https://fantasy.premierleague.com/gcs/plfpl-production-adobe-approved/plfpl-production/600208/90d57529-eae2-4c87-9a41-bdf2d511a793.png",
        "entry": 600208,
        "entry_name": "Saliba FC",
        "event_total": 61,
        "has_played": true,
        "id": 4049453,
        "last_rank": 65475,
        "player_name": "Warol Kojty\u0142a",
        "rank": 57566,
        "rank_sort": 57636,
        "total": 2347
      },
      {
        "club_badge_src": null,
        "entry": 600955,
        "entry_name": "wirtz comes to wirtz",
        "event_total": 55,
        "has_played": true,
        "id": 4054869,
        "last_rank": 48363,
        "player_name": "weijie tay",
        "rank": 57566,
        "rank_sort": 57637,
        "total": 2347
      },
      {
        "club_badge_src": "https://fantasy.premierleague.com/gcs/plfpl-production-adobe-approved/plfpl-production/602902/21e3c769-318d-4b9f-8262-cac641b62531.png",
        "entry": 602902,
        "entry_name": "Dirty Leeds",
        "event_total": 84,
        "has_played": true,
        "id": 4069060,
        "last_rank": 120438,
        "player_name": "Mark Slater",
        "rank": 57566,
        "rank_sort": 57638,
        "total": 2347
      },
      {
        "club_badge_src": null,
        "entry": 613472,
        "entry_name": "Gilbo Baggins",
        "event_total": 60,
        "has_played": true,
        "id": 4145135,
        "last_rank": 63724,
        "player_name": "Paul Gilbert",
        "rank": 57566,
        "rank_sort": 57639,
        "total": 2347
      },
      {
        "club_badge_src": null,
        "entry": 614039,
        "entry_name": "Myrveien Dream Team",
        "event_total": 73,
        "has_played": true,
        "id": 4149116,
        "last_rank": 91006,
        "player_name": "Len H\u00e5var Thomassen",
        "rank": 57566,
        "rank_sort": 57640,
        "total": 2347
      },
      {
        "club_badge_src": null,
        "entry": 622145,
        "entry_name": "Wirtz Nightmare",
        "event_total": 68,
        "has_played": true,
        "id": 4204366,
        "last_rank": 79817,
        "player_name": "Toby Cox",
        "rank": 57566,
        "rank_sort": 57641,
        "total": 2347
      },
      {
        "club_badge_src": null,
        "entry": 648676,
        "entry_name": "Beercelona",
        "event_total": 54,
        "has_played": true,
        "id": 4383954,
        "last_rank": 53345,
        "player_name": "alan browne",
        "rank": 57566,
        "rank_sort": 57642,
        "total": 2347
      },
      {
        "club_badge_src": null,
        "entry": 671475,
        "entry_name": "Servette Palace",
        "event_total": 56,
        "has_played": true,
        "id": 4541723,
        "last_rank": 56369,
        "player_name": "Theo David",
        "rank": 57566,
        "rank_sort": 57643,
        "total": 2347
      },
      {
        "club_badge_src": null,
        "entry": 688111,
        "entry_name": "Control Alt De Ligt",
        "event_total": 58,
        "has_played": true,
        "id": 4658602,
        "last_rank": 60168,
        "player_name": "Steven Gilburn",
        "rank": 57566,
        "rank_sort": 57644,
        "total": 2347
      },
      {
        "club_badge_src": "https://fantasy.premierleague.com/gcs/plfpl-production-adobe-approved/plfpl-production/745186/2ff717c4-6add-4f32-954b-9fb0871b5e82.png",
        "entry": 745186,
        "entry_name": "Trafalgar D.Law",
        "event_total": 54,
        "has_played": true,
        "id": 5069210,
        "last_rank": 53345,
        "player_name": "David Peter",
        "rank": 57566,
        "rank_sort": 57645,
        "total": 2347
      },
      {
        "club_badge_src": null,
        "entry": 762017,
        "entry_name": "Shiver me Timber",
        "event_total": 60,
        "has_played": true,
        "id": 5196537,
        "last_rank": 63390,
        "player_name": "Alex Bromham",
        "rank": 57566,
        "rank_sort": 57646,
        "total": 2347
      },
      {
        "club_badge_src": null,
        "entry": 776916,
        "entry_name": "Audacity FC",
        "event_total": 66,
        "has_played": true,
        "id": 5301118,
        "last_rank": 75537,
        "player_name": "Zohair Mazhar",
        "rank": 57566,
        "rank_sort": 57647,
        "total": 2347
      },
      {
        "club_badge_src": null,
        "entry": 804152,
        "entry_name": "Toonami",
        "event_total": 60,
        "has_played": true,
        "id": 5504757,
        "last_rank": 56369,
        "player_name": "Richard F",
        "rank": 57566,
        "rank_sort": 57648,
        "total": 2347
      },
      {
        "club_badge_src": null,
        "entry": 812545,
        "entry_name": "Face Palmers",
        "event_total": 62,
        "has_played": true,
        "id": 5563497,
        "last_rank": 67063,
        "player_name": "Nick Brown",
        "rank": 57566,
        "rank_sort": 57649,
        "total": 2347
      },
      {
        "club_badge_src": null,
        "entry": 862991,
        "entry_name": "Earth,Wind & Maguire",
        "event_total": 50,
        "has_played": true,
        "id": 5916174,
        "last_rank": 47163,
        "player_name": "Sam Powell",
        "rank": 57566,
        "rank_sort": 57650,
        "total": 2347
      }
    ]
  }
}