{
  "last_updated_data": "2026-05-24T23:28:17Z",
  "league": {
    "admin_entry": null,
    "closed": false,
    "code_privacy": "p",
    "created": "2025-07-20T23:14:33.933835Z",
    "cup_league": 2815434,
    "has_cup": true,
    "id": 314,
    "league_type": "s",
    "max_entries": null,
    "name": "Overall",
    "rank": null,
    "scoring": "c",
    "start_event": 1
  },
  "new_entries": {
    "has_next": false,
    "page": 1,
    "results": []
  },
  "standings": {
    "has_next": true,
    "page": 695,
    "results": [
      {
        "club_badge_src": null,
        "entry": 6265142,
        "entry_name": "Butler's Babes",
        "event_total": 62,
        "has_played": true,
        "id": 49607735,
        "last_rank": 40647,
        "player_name": "Elaine Butler",
        "rank": 34599,
        "rank_sort": 34701,
        "total": 2364
      },
      {
        "club_badge_src": null,
        "entry": 6372163,
        "entry_name": "Gordonsalive11",
        "event_total": 48,
        "has_played": true,
        "id": 50673113,
        "last_rank": 25436,
        "player_name": "Adrian Parkinson",
        "rank": 34599,
        "rank_sort": 34702,
        "total": 2364
      },
      {
        "club_badge_src": null,
        "entry": 6574696,
        "entry_name": "Ale Madrid",
        "event_total": 48,
        "has_played": true,
        "id": 52491312,
        "last_rank": 25330,
        "player_name": "Rhys Ford",
        "rank": 34599,
        "rank_sort": 34703,
        "total": 2364
      },
      {
        "club_badge_src": null,
        "entry": 6711284,
        "entry_name": "Pain in dias",
        "event_total": 71,
        "has_played": true,
        "id": 53708505,
        "last_rank": 53621,
        "player_name": "Sugan S",
        "rank": 34599,
        "rank_sort": 34704,
        "total": 2364
      },
      {
        "club_badge_src": null,
        "entry": 6806492,
        "entry_name": "Full Send",
        "event_total": 62,
        "has_played": true,
        "id": 54510263,
        "last_rank": 30957,
        "player_name": "Barry Gallagher",
        "rank": 34599,
        "rank_sort": 34705,
        "total": 2364
      },
      {
        "club_badge_src": "https://fantasy.premierleague.com/gcs/plfpl-production-adobe-approved/plfpl-production/7158380/19c73959-e56f-40b1-bdba-9f8721466485.png",
        "entry": 7158380,
        "entry_name": "Fc Merlo",
        "event_total": 65,
        "has_played": true,
        "id": 57736877,
        "last_rank": 44672,
        "player_name": "Hallgr\u00edmur Ingi \u00d3lafsson",
        "rank": 34599,
        "rank_sort": 34706,
        "total": 2364
      },
      {
        "club_badge_src": null,
        "entry": 7175987,
        "entry_name": "Sammy FC",
        "event_total": 69,
        "has_played": true,
        "id": 57908709,
        "last_rank": 50635,
        "player_name": "Samuel Frimpong",
        "rank": 34599,
        "rank_sort": 34707,
        "total": 2364
      },
      {
        "club_badge_src": null,
        "entry": 7622093,
        "entry_name": "Ray-Al Madrid",
        "event_total": 44,
        "has_played": true,
        "id": 62465628,
        "last_rank": 19103,
        "player_name": "Raymond Chan",
        "rank": 34599,
        "rank_sort": 34708,
        "total": 2364
      },
      {
        "club_badge_src": null,
        "entry": 7980001,
        "entry_name": "Coolie Powerhouse",
        "event_total": 64,
        "has_played": true,
        "id": 65707403,
        "last_rank": 37822,
        "player_name": "Vikinho V",
        "rank": 34599,
        "rank_sort": 34709,
        "total": 2364
      },
      {
        "club_badge_src": null,
        "entry": 8155683,
        "entry_name": "AbuHLaL96",
        "event_total": 69,
        "has_played": true,
        "id": 67321552,
        "last_rank": 44303,
        "player_name": "Abdullah AbuHilal",
        "rank": 34599,
        "rank_sort": 34710,
        "total": 2364
      },
      {
        "club_badge_src": null,
        "entry": 8606471,
        "entry_name": "Karoball",
        "event_total": 72,
        "has_played": true,
        "id": 71660445,
        "last_rank": 42940,
        "player_name": "Karoline Falch-Monsen",
        "rank": 34599,
        "rank_sort": 34711,
        "total": 2364
      },
      {
        "club_badge_src": null,
        "entry": 8636061,
        "entry_name": "Jeremie PingPong",
        "event_total": 56,
        "has_played": true,
        "id": 71948029,
        "last_rank": 29071,
        "player_name": "Robbie Flanders",
        "rank": 34599,
        "rank_sort": 34712,
        "total": 2364
      },
      {
        "club_badge_src": null,
        "entry": 8799354,
        "entry_name": "Nivesh",
        "event_total": 40,
        "has_played": true,
        "id": 73538781,
        "last_rank": 19176,
        "player_name": "Nivesh pothan",
        "rank": 34599,
        "rank_sort": 34713,
        "total": 2364
      },
      {
        "club_badge_src": null,
        "entry": 9027617,
        "entry_name": "Marmoush w season",
        "event_total": 40,
        "has_played": true,
        "id": 75746379,
        "last_rank": 19103,
        "player_name": "Milan De Lausnay",
        "rank": 34599,
        "rank_sort": 34714,
        "total": 2364
      },
      {
        "club_badge_src": null,
        "entry": 9080945,
        "entry_name": "Who Ate All Depays?",
        "event_total": 74,
        "has_played": true,
        "id": 76265270,
        "last_rank": 58688,
        "player_name": "Siddharth Dey",
        "rank": 34599,
        "rank_sort": 34715,
        "total": 2364
      },
      {
        "club_badge_src": null,
        "entry": 8405,
        "entry_name": "Too Mane Men",
        "event_total": 46,
        "has_played": true,
        "id": 48839,
        "last_rank": 23820,
        "player_name": "Benjamin Lund",
        "rank": 34716,
        "rank_sort": 34716,
        "total": 2364
      },
      {
        "club_badge_src": null,
        "entry": 9152,
        "entry_name": "Eze mode gutt\u00e6r",
        "event_total": 65,
        "has_played": true,
        "id": 53672,
        "last_rank": 39403,
        "player_name": "J\u00f8rgen Tvetene",
        "rank": 34716,
        "rank_sort": 34717,
        "total": 2364
      },
      {
        "club_badge_src": "https://fantasy.premierleague.com/gcs/plfpl-production-adobe-approved/plfpl-production/13864/c44c04ac-d890-4411-8f6e-662ccb219470.png",
        "entry": 13864,
        "entry_name": "SS 10x Vini \ufffd",
        "event_total": 44,
        "has_played": true,
        "id": 83953,
        "last_rank": 19176,
        "player_name": "Aljaz Tisler",
        "rank": 34716,
        "rank_sort": 34718,
        "total": 2364
      },
      {
        "club_badge_src": null,
        "entry": 30841,
        "entry_name": "Me, myself, Ndiaye",
        "event_total": 53,
        "has_played": true,
        "id": 195224,
        "last_rank": 26345,
        "player_name": "Lynsey Albison",
        "rank": 34716,
        "rank_sort": 34719,
        "total": 2364
      },
      {
        "club_badge_src": "https://fantasy.premierleague.com/gcs/plfpl-production-adobe-approved/plfpl-production/38436/224b4b5c-2b70-45c7-bb85-2967aa48e52f.png",
        "entry": 38436,
        "entry_name": "Qussai team",
        "event_total": 56,
        "has_played": true,
        "id": 246324,
        "last_rank": 29199,
        "player_name": "Qussai Gassan",
        "rank": 34716,
        "rank_sort": 34720,
        "total": 2364
      },
      {
        "club_badge_src": null,
        "entry": 73353,
        "entry_name": "RAMMY'S LEGENDS",
        "event_total": 58,
        "has_played": true,
        "id": 476801,
        "last_rank": 27203,
        "player_name": "Andy Ramskill",
        "rank": 34716,
        "rank_sort": 34721,
        "total": 2364
      },
      {
        "club_badge_src": null,
        "entry": 75227,
        "entry_name": "London Is Blue",
        "event_total": 64,
        "has_played": true,
        "id": 489072,
        "last_rank": 43168,
        "player_name": "Cameron Magsamen",
        "rank": 34716,
        "rank_sort": 34722,
        "total": 2364
      },
      {
        "club_badge_src": null,
        "entry": 83282,
        "entry_name": "Desert Hawks",
        "event_total": 69,
        "has_played": true,
        "id": 542001,
        "last_rank": 44672,
        "player_name": "Faris Abachi",
        "rank": 34716,
        "rank_sort": 34723,
        "total": 2364
      },
      {
        "club_badge_src": null,
        "entry": 85861,
        "entry_name": "Blink 1-Eto\u2019o",
        "event_total": 83,
        "has_played": true,
        "id": 559353,
        "last_rank": 75139,
        "player_name": "Ashvir Pather",
        "rank": 34716,
        "rank_sort": 34724,
        "total": 2364
      },
      {
        "club_badge_src": "https://fantasy.premierleague.com/gcs/plfpl-production-adobe-approved/plfpl-production/124494/670cfb51-2e01-49cd-a087-8ea7f87aead3.png",
        "entry": 124494,
        "entry_name": "iMusty",
        "event_total": 48,
        "has_played": true,
        "id": 812007,
        "last_rank": 22154,
        "player_name": "Mustafa adnani",
        "rank": 34716,
        "rank_sort": 34725,
        "total": 2364
      },
      {
        "club_badge_src": null,
        "entry": 126793,
        "entry_name": "Seamus Goalman",
        "event_total": 72,
        "has_played": true,
        "id": 826684,
        "last_rank": 55514,
        "player_name": "Rob Jones",
        "rank": 34716,
        "rank_sort": 34726,
        "total": 2364
      },
      {
        "club_badge_src": null,
        "entry": 132943,
        "entry_name": "Blancos Pilchowice",
        "event_total": 50,
        "has_played": true,
        "id": 865943,
        "last_rank": 23748,
        "player_name": "Marcin Polak",
        "rank": 34716,
        "rank_sort": 34727,
        "total": 2364
      },
      {
        "club_badge_src": null,
        "entry": 145644,
        "entry_name": "Majja FC",
        "event_total": 57,
        "has_played": true,
        "id": 953876,
        "last_rank": 30060,
        "player_name": "Ramarao T",
        "rank": 34716,
        "rank_sort": 34728,
        "total": 2364
      },
      {
        "club_badge_src": null,
        "entry": 176501,
        "entry_name": "KAER MORHEN***",
        "event_total": 55,
        "has_played": true,
        "id": 1165144,
        "last_rank": 28273,
        "player_name": "Piotr Soko\u0142owski",
        "rank": 34716,
        "rank_sort": 34729,
        "total": 2364
      },
      {
        "club_badge_src": null,
        "entry": 188794,
        "entry_name": "Madridist",
        "event_total": 64,
        "has_played": true,
        "id": 1249237,
        "last_rank": 38163,
        "player_name": "Rinat Shambulov",
        "rank": 34716,
        "rank_sort": 34730,
        "total": 2364
      },
      {
        "club_badge_src": null,
        "entry": 269910,
        "entry_name": "StoneColeStevePalmer",
        "event_total": 60,
        "has_played": true,
        "id": 1795706,
        "last_rank": 33483,
        "player_name": "Pieter EDWARDS",
        "rank": 34716,
        "rank_sort": 34731,
        "total": 2364
      },
      {
        "club_badge_src": null,
        "entry": 346334,
        "entry_name": "Project Matteo",
        "event_total": 64,
        "has_played": true,
        "id": 2318252,
        "last_rank": 43444,
        "player_name": "Matteo Smith",
        "rank": 34716,
        "rank_sort": 34732,
        "total": 2364
      },
      {
        "club_badge_src": null,
        "entry": 479782,
        "entry_name": "Unathletico Madrid",
        "event_total": 66,
        "has_played": true,
        "id": 3221058,
        "last_rank": 40647,
        "player_name": "Peter Simcock",
        "rank": 34716,
        "rank_sort": 34733,
        "total": 2364
      },
      {
        "club_badge_src": null,
        "entry": 485996,
        "entry_name": "TWO Ts",
        "event_total": 67,
        "has_played": true,
        "id": 3262541,
        "last_rank": 41967,
        "player_name": "Ted Tinks",
        "rank": 34716,
        "rank_sort": 34734,
        "total": 2364
      },
      {
        "club_badge_src": null,
        "entry": 596453,
        "entry_name": "M\u00e5ltorka BK",
        "event_total": 71,
        "has_played": true,
        "id": 4021560,
        "last_rank": 53952,
        "player_name": "Hampus Wester",
        "rank": 34716,
        "rank_sort": 34735,
        "total": 2364
      },
      {
        "club_badge_src": null,
        "entry": 612246,
        "entry_name": "Peaky Reijnders",
        "event_total": 51,
        "has_played": true,
        "id": 4136862,
        "last_rank": 24570,
        "player_name": "Sindre D Fiske",
        "rank": 34716,
        "rank_sort": 34736,
        "total": 2364
      },
      {
        "club_badge_src": null,
        "entry": 771845,
        "entry_name": "Bantam Menace",
        "event_total": 72,
        "has_played": true,
        "id": 5265645,
        "last_rank": 48898,
        "player_name": "Jonathan Pickard",
        "rank": 34716,
        "rank_sort": 34737,
        "total": 2364
      },
      {
        "club_badge_src": null,
        "entry": 786768,
        "entry_name": "Pro Evolution Saka",
        "event_total": 66,
        "has_played": true,
        "id": 5378009,
        "last_rank": 46106,
        "player_name": "Steffan Rees",
        "rank": 34716,
        "rank_sort": 34738,
        "total": 2364
      },
      {
        "club_badge_src": "https://fantasy.premierleague.com/gcs/plfpl-production-adobe-approved/plfpl-production/791029/1deaee2a-5f0b-4cad-8361-399bed1addbd.png",
        "entry": 791029,
        "entry_name": "Behemoth FC",
        "event_total": 54,
        "has_played": true,
        "id": 5412980,
        "last_rank": 27304,
        "player_name": "Graham Smith",
        "rank": 34716,
        "rank_sort": 34739,
        "total": 2364
      },
      {
        "club_badge_src": null,
        "entry": 845643,
        "entry_name": "T-Bron",
        "event_total": 67,
        "has_played": true,
        "id": 5794108,
        "last_rank": 41967,
        "player_name": "Taha Patel",
        "rank": 34716,
        "rank_sort": 34740,
        "total": 2364
      },
      {
        "club_badge_src": "https://fantasy.premierleague.com/gcs/plfpl-production-adobe-approved/plfpl-production/860199/2f9e3d1e-0fc4-4589-a457-ee565476ff4f.png",
        "entry": 860199,
        "entry_name": "Crystal Pulis",
        "event_total": 49,
        "has_played": true,
        "id": 5896699,
        "last_rank": 26425,
        "player_name": "Joona Jantunen",
        "rank": 34716,
        "rank_sort": 34741,
        "total": 2364
      },
      {
        "club_badge_src": null,
        "entry": 868670,
        "entry_name": "Fire Fc",
        "event_total": 60,
        "has_played": true,
        "id": 5955408,
        "last_rank": 38267,
        "player_name": "Abd Alsamd Alazab",
        "rank": 34716,
        "rank_sort": 34742,
        "total": 2364
      },
      {
        "club_badge_src": null,
        "entry": 992315,
        "entry_name": "Que Salah Salah",
        "event_total": 70,
        "has_played": true,
        "id": 6843561,
        "last_rank": 45714,
        "player_name": "Kai Bhandari",
        "rank": 34716,
        "rank_sort": 34743,
        "total": 2364
      },
      {
        "club_badge_src": null,
        "entry": 1017364,
        "entry_name": "Here we go again",
        "event_total": 59,
        "has_played": true,
        "id": 7038248,
        "last_rank": 32190,
        "player_name": "Adam Thurston",
        "rank": 34716,
        "rank_sort": 34744,
        "total": 2364
      },
      {
        "club_badge_src": null,
        "entry": 1111182,
        "entry_name": "Harka7801 Top Team",
        "event_total": 58,
        "has_played": true,
        "id": 7697137,
        "last_rank": 35867,
        "player_name": "Harka Jang Limbu",
        "rank": 34716,
        "rank_sort": 34745,
        "total": 2364
      },
      {
        "club_badge_src": "https://fantasy.premierleague.com/gcs/plfpl-production-adobe-approved/plfpl-production/1152859/c5eb4b5d-5712-4f23-b234-69facab15991.png",
        "entry": 1152859,
        "entry_name": "SNapDragons",
        "event_total": 66,
        "has_played": true,
        "id": 7994014,
        "last_rank": 40647,
        "player_name": "Vikram Parthan",
        "rank": 34716,
        "rank_sort": 34746,
        "total": 2364
      },
      {
        "club_badge_src": null,
        "entry": 1188117,
        "entry_name": "Ezugbo- Nwobi FC",
        "event_total": 77,
        "has_played": true,
        "id": 8243742,
        "last_rank": 50468,
        "player_name": "IFEANYI EZUGBO-NWOBI",
        "rank": 34716,
        "rank_sort": 34747,
        "total": 2364
      },
      {
        "club_badge_src": null,
        "entry": 1501000,
        "entry_name": "Trampek",
        "event_total": 63,
        "has_played": true,
        "id": 10467776,
        "last_rank": 42081,
        "player_name": "Ariel Zenek",
        "rank": 34716,
        "rank_sort": 34748,
        "total": 2364
      },
      {
        "club_badge_src": "https://fantasy.premierleague.com/gcs/plfpl-production-adobe-approved/plfpl-production/1557910/b58fe767-4a7d-4a0a-b168-19d3af8ee0c0.png",
        "entry": 1557910,
        "entry_name": "Chkn Timbers \u2b50\u2b50\u2b50\u2b50",
        "event_total": 57,
        "has_played": true,
        "id": 10879301,
        "last_rank": 34578,
        "player_name": "Ahmed El-Roby",
        "rank": 34716,
        "rank_sort": 34749,
        "total": 2364
      },
      {
        "club_badge_src": null,
        "entry": 1577079,
        "entry_name": "Bella Thiaw",
        "event_total": 71,
        "has_played": true,
        "id": 11020189,
        "last_rank": 47596,
        "player_name": "James Martin",
        "rank": 34716,
        "rank_sort": 34750,
        "total": 2364
      }
    ]
  }
}