{
  "last_updated_data": "2026-05-24T23:28:17Z",
  "league": {
    "admin_entry": null,
    "closed": false,
    "code_privacy": "p",
    "created": "2025-07-20T23:14:33.933835Z",
    "cup_league": 2815434,
    "has_cup": true,
    "id": 314,
    "league_type": "s",
    "max_entries": null,
    "name": "Overall",
    "rank": null,
    "scoring": "c",
    "start_event": 1
  },
  "new_entries": {
    "has_next": false,
    "page": 1,
    "results": []
  },
  "standings": {
    "has_next": true,
    "page": 256,
    "results": [
      {
        "club_badge_src": null,
        "entry": 110162,
        "entry_name": "Fruit Reijnders",
        "event_total": 59,
        "has_played": true,
        "id": 718436,
        "last_rank": 13257,
        "player_name": "Michael Williams",
        "rank": 12742,
        "rank_sort": 12751,
        "total": 2392
      },
      {
        "club_badge_src": "https://fantasy.premierleague.com/gcs/plfpl-production-adobe-approved/plfpl-production/116495/7061976e-093a-4490-9e11-5e43f43dc941.png",
        "entry": 116495,
        "entry_name": "Scarborough Athletic",
        "event_total": 57,
        "has_played": true,
        "id": 760558,
        "last_rank": 12200,
        "player_name": "Raymond Nordahl",
        "rank": 12742,
        "rank_sort": 12752,
        "total": 2392
      },
      {
        "club_badge_src": null,
        "entry": 145022,
        "entry_name": "Mal2queZ",
        "event_total": 59,
        "has_played": true,
        "id": 949545,
        "last_rank": 13401,
        "player_name": "Koratat Teachalerdthawornkun",
        "rank": 12742,
        "rank_sort": 12753,
        "total": 2392
      },
      {
        "club_badge_src": "https://fantasy.premierleague.com/gcs/plfpl-production-adobe-approved/plfpl-production/160164/b07a59a7-757a-4b60-b125-f61ffb841032.png",
        "entry": 160164,
        "entry_name": "GAIS",
        "event_total": 80,
        "has_played": true,
        "id": 1054546,
        "last_rank": 28546,
        "player_name": "Jesper Osterberg",
        "rank": 12742,
        "rank_sort": 12754,
        "total": 2392
      },
      {
        "club_badge_src": "https://fantasy.premierleague.com/gcs/plfpl-production-adobe-approved/plfpl-production/162657/44e04779-6a04-46f3-a544-ac1708f6a762.png",
        "entry": 162657,
        "entry_name": "Lifes a pitch",
        "event_total": 67,
        "has_played": true,
        "id": 1072351,
        "last_rank": 18113,
        "player_name": "Andrew Baker",
        "rank": 12742,
        "rank_sort": 12755,
        "total": 2392
      },
      {
        "club_badge_src": null,
        "entry": 165186,
        "entry_name": "Onwards & forwards",
        "event_total": 48,
        "has_played": true,
        "id": 1090491,
        "last_rank": 8382,
        "player_name": "nick herisse",
        "rank": 12742,
        "rank_sort": 12756,
        "total": 2392
      },
      {
        "club_badge_src": null,
        "entry": 167345,
        "entry_name": "HeskeyMakesIt5",
        "event_total": 62,
        "has_played": true,
        "id": 1106132,
        "last_rank": 15063,
        "player_name": "Tom Hopkins",
        "rank": 12742,
        "rank_sort": 12757,
        "total": 2392
      },
      {
        "club_badge_src": null,
        "entry": 178789,
        "entry_name": "Martian11FC",
        "event_total": 64,
        "has_played": true,
        "id": 1179939,
        "last_rank": 13821,
        "player_name": "Martin Gan",
        "rank": 12742,
        "rank_sort": 12758,
        "total": 2392
      },
      {
        "club_badge_src": null,
        "entry": 183808,
        "entry_name": "Staarmannen",
        "event_total": 52,
        "has_played": true,
        "id": 1213529,
        "last_rank": 9885,
        "player_name": "Jim Kleine Staarman",
        "rank": 12742,
        "rank_sort": 12759,
        "total": 2392
      },
      {
        "club_badge_src": "https://fantasy.premierleague.com/gcs/plfpl-production-adobe-approved/plfpl-production/191492/005a7baf-7e39-4377-8d45-2b6621d5a412.png",
        "entry": 191492,
        "entry_name": "At least, I'm above:",
        "event_total": 59,
        "has_played": true,
        "id": 1268363,
        "last_rank": 13401,
        "player_name": "Tahir Chaudhri",
        "rank": 12742,
        "rank_sort": 12760,
        "total": 2392
      },
      {
        "club_badge_src": null,
        "entry": 212521,
        "entry_name": "habibi fc",
        "event_total": 67,
        "has_played": true,
        "id": 1413750,
        "last_rank": 18029,
        "player_name": "Abbas Hameed",
        "rank": 12742,
        "rank_sort": 12761,
        "total": 2392
      },
      {
        "club_badge_src": null,
        "entry": 239854,
        "entry_name": "DropItLikeItsSlot",
        "event_total": 32,
        "has_played": true,
        "id": 1596203,
        "last_rank": 4155,
        "player_name": "James Lang",
        "rank": 12742,
        "rank_sort": 12762,
        "total": 2392
      },
      {
        "club_badge_src": null,
        "entry": 253004,
        "entry_name": "beef cherki",
        "event_total": 67,
        "has_played": true,
        "id": 1682779,
        "last_rank": 18377,
        "player_name": "Happy Agbeleola",
        "rank": 12742,
        "rank_sort": 12763,
        "total": 2392
      },
      {
        "club_badge_src": null,
        "entry": 336829,
        "entry_name": "FC inham",
        "event_total": 51,
        "has_played": true,
        "id": 2255032,
        "last_rank": 7979,
        "player_name": "Luuk van den Beuken",
        "rank": 12742,
        "rank_sort": 12764,
        "total": 2392
      },
      {
        "club_badge_src": null,
        "entry": 463570,
        "entry_name": "Victor Moses Lawn",
        "event_total": 60,
        "has_played": true,
        "id": 3109475,
        "last_rank": 11699,
        "player_name": "Henry Cooper",
        "rank": 12742,
        "rank_sort": 12765,
        "total": 2392
      },
      {
        "club_badge_src": "https://fantasy.premierleague.com/gcs/plfpl-production-adobe-approved/plfpl-production/464885/7e42f223-d2fa-4672-a8fc-62bad0895709.png",
        "entry": 464885,
        "entry_name": "Better@Deathlists\u2620\ufe0f",
        "event_total": 62,
        "has_played": true,
        "id": 3118576,
        "last_rank": 14926,
        "player_name": "Simon Cobden",
        "rank": 12742,
        "rank_sort": 12766,
        "total": 2392
      },
      {
        "club_badge_src": "https://fantasy.premierleague.com/gcs/plfpl-production-adobe-approved/plfpl-production/488798/3f4b59c8-5868-4d67-b616-e844c53ce607.png",
        "entry": 488798,
        "entry_name": "Keep Up F.C",
        "event_total": 56,
        "has_played": true,
        "id": 3281357,
        "last_rank": 11901,
        "player_name": "Patrick Williams",
        "rank": 12742,
        "rank_sort": 12767,
        "total": 2392
      },
      {
        "club_badge_src": null,
        "entry": 523282,
        "entry_name": "Dolly Destructiva",
        "event_total": 63,
        "has_played": true,
        "id": 3514767,
        "last_rank": 15550,
        "player_name": "Patrik Kilpilampi",
        "rank": 12742,
        "rank_sort": 12768,
        "total": 2392
      },
      {
        "club_badge_src": null,
        "entry": 580538,
        "entry_name": "Ekitiki taka touzani",
        "event_total": 49,
        "has_played": true,
        "id": 3906716,
        "last_rank": 8854,
        "player_name": "Tom Van Eck",
        "rank": 12742,
        "rank_sort": 12769,
        "total": 2392
      },
      {
        "club_badge_src": null,
        "entry": 580866,
        "entry_name": "suderton",
        "event_total": 55,
        "has_played": true,
        "id": 3908871,
        "last_rank": 11419,
        "player_name": "Steven Southern",
        "rank": 12742,
        "rank_sort": 12770,
        "total": 2392
      },
      {
        "club_badge_src": "https://fantasy.premierleague.com/gcs/plfpl-production-adobe-approved/plfpl-production/622670/353c6531-8bc1-4ef0-8d73-5c379411ebd7.png",
        "entry": 622670,
        "entry_name": "Merenga",
        "event_total": 63,
        "has_played": true,
        "id": 4207987,
        "last_rank": 15694,
        "player_name": "Wissam Barake",
        "rank": 12742,
        "rank_sort": 12771,
        "total": 2392
      },
      {
        "club_badge_src": null,
        "entry": 633031,
        "entry_name": "Timmo",
        "event_total": 63,
        "has_played": true,
        "id": 4277583,
        "last_rank": 15694,
        "player_name": "Anders Tangen",
        "rank": 12742,
        "rank_sort": 12772,
        "total": 2392
      },
      {
        "club_badge_src": null,
        "entry": 653766,
        "entry_name": "Championez",
        "event_total": 61,
        "has_played": true,
        "id": 4418130,
        "last_rank": 12200,
        "player_name": "Tony Woodcock",
        "rank": 12742,
        "rank_sort": 12773,
        "total": 2392
      },
      {
        "club_badge_src": "https://fantasy.premierleague.com/gcs/plfpl-production-adobe-approved/plfpl-production/709225/0b786747-cada-4eae-9555-a53cf39ae288.png",
        "entry": 709225,
        "entry_name": "JJC FC",
        "event_total": 55,
        "has_played": true,
        "id": 4808121,
        "last_rank": 9536,
        "player_name": "Jonathan Chard",
        "rank": 12742,
        "rank_sort": 12774,
        "total": 2392
      },
      {
        "club_badge_src": null,
        "entry": 716318,
        "entry_name": "The ball boys",
        "event_total": 57,
        "has_played": true,
        "id": 4860178,
        "last_rank": 10346,
        "player_name": "Arya Etebarian",
        "rank": 12742,
        "rank_sort": 12775,
        "total": 2392
      },
      {
        "club_badge_src": null,
        "entry": 733066,
        "entry_name": "Cuties",
        "event_total": 62,
        "has_played": true,
        "id": 4981652,
        "last_rank": 15063,
        "player_name": "Curtis Fogle",
        "rank": 12742,
        "rank_sort": 12776,
        "total": 2392
      },
      {
        "club_badge_src": null,
        "entry": 738972,
        "entry_name": "Slim FC",
        "event_total": 76,
        "has_played": true,
        "id": 5024273,
        "last_rank": 24897,
        "player_name": "Dan Wood",
        "rank": 12742,
        "rank_sort": 12777,
        "total": 2392
      },
      {
        "club_badge_src": null,
        "entry": 780290,
        "entry_name": "konatebwirtzthan utd",
        "event_total": 68,
        "has_played": true,
        "id": 5327168,
        "last_rank": 16062,
        "player_name": "Carlos Miranda",
        "rank": 12742,
        "rank_sort": 12778,
        "total": 2392
      },
      {
        "club_badge_src": null,
        "entry": 826234,
        "entry_name": "No Man Is An H\u00f8jlund",
        "event_total": 60,
        "has_played": true,
        "id": 5658927,
        "last_rank": 11699,
        "player_name": "Cleavon Tan",
        "rank": 12742,
        "rank_sort": 12779,
        "total": 2392
      },
      {
        "club_badge_src": null,
        "entry": 859918,
        "entry_name": "2082/03/28",
        "event_total": 65,
        "has_played": true,
        "id": 5894780,
        "last_rank": 16807,
        "player_name": "Gaurab Shreesh",
        "rank": 12742,
        "rank_sort": 12780,
        "total": 2392
      },
      {
        "club_badge_src": null,
        "entry": 869710,
        "entry_name": "Implication FC",
        "event_total": 58,
        "has_played": true,
        "id": 5962572,
        "last_rank": 12846,
        "player_name": "Greg Doherty",
        "rank": 12742,
        "rank_sort": 12781,
        "total": 2392
      },
      {
        "club_badge_src": "https://fantasy.premierleague.com/gcs/plfpl-production-adobe-approved/plfpl-production/875675/198e3aec-1f41-428b-9f74-414f3402aaed.png",
        "entry": 875675,
        "entry_name": "I See Red",
        "event_total": 58,
        "has_played": true,
        "id": 6003570,
        "last_rank": 12846,
        "player_name": "Edward Lee",
        "rank": 12742,
        "rank_sort": 12782,
        "total": 2392
      },
      {
        "club_badge_src": null,
        "entry": 953274,
        "entry_name": "XifundoFC",
        "event_total": 48,
        "has_played": true,
        "id": 6567985,
        "last_rank": 8484,
        "player_name": "Chifundo Tenthani",
        "rank": 12742,
        "rank_sort": 12783,
        "total": 2392
      },
      {
        "club_badge_src": null,
        "entry": 1036722,
        "entry_name": "Stenersen FC",
        "event_total": 50,
        "has_played": true,
        "id": 7174166,
        "last_rank": 9142,
        "player_name": "Mathias Stenersen",
        "rank": 12742,
        "rank_sort": 12784,
        "total": 2392
      },
      {
        "club_badge_src": null,
        "entry": 1117558,
        "entry_name": "Fc Cold Palmer",
        "event_total": 65,
        "has_played": true,
        "id": 7741160,
        "last_rank": 16807,
        "player_name": "Kim Handeland",
        "rank": 12742,
        "rank_sort": 12785,
        "total": 2392
      },
      {
        "club_badge_src": null,
        "entry": 1124430,
        "entry_name": "Beef Cherki",
        "event_total": 58,
        "has_played": true,
        "id": 7792572,
        "last_rank": 12846,
        "player_name": "callum byron",
        "rank": 12742,
        "rank_sort": 12786,
        "total": 2392
      },
      {
        "club_badge_src": null,
        "entry": 1299093,
        "entry_name": "OMAS FC",
        "event_total": 66,
        "has_played": true,
        "id": 9028637,
        "last_rank": 14926,
        "player_name": "kazeem Sulyman",
        "rank": 12742,
        "rank_sort": 12787,
        "total": 2392
      },
      {
        "club_badge_src": null,
        "entry": 1307539,
        "entry_name": "Bayern Nerlosin",
        "event_total": 42,
        "has_played": true,
        "id": 9088240,
        "last_rank": 6448,
        "player_name": "Brendan Spooner",
        "rank": 12742,
        "rank_sort": 12788,
        "total": 2392
      },
      {
        "club_badge_src": null,
        "entry": 1368931,
        "entry_name": "Nasi Putih",
        "event_total": 49,
        "has_played": true,
        "id": 9516004,
        "last_rank": 8854,
        "player_name": "Nasi Putih",
        "rank": 12742,
        "rank_sort": 12789,
        "total": 2392
      },
      {
        "club_badge_src": null,
        "entry": 1376517,
        "entry_name": "Black Pearl",
        "event_total": 66,
        "has_played": true,
        "id": 9568620,
        "last_rank": 14926,
        "player_name": "Adnan Adil",
        "rank": 12742,
        "rank_sort": 12790,
        "total": 2392
      },
      {
        "club_badge_src": "https://fantasy.premierleague.com/gcs/plfpl-production-adobe-approved/plfpl-production/1412877/365bf6ac-c9ea-4a55-9b78-2796b4bc8022.png",
        "entry": 1412877,
        "entry_name": "Jaybirds",
        "event_total": 65,
        "has_played": true,
        "id": 9832367,
        "last_rank": 16959,
        "player_name": "Jeroen Boersma",
        "rank": 12742,
        "rank_sort": 12791,
        "total": 2392
      },
      {
        "club_badge_src": null,
        "entry": 1412881,
        "entry_name": "Snoop Udogie Dogg",
        "event_total": 65,
        "has_played": true,
        "id": 9832397,
        "last_rank": 16959,
        "player_name": "William Terjesen",
        "rank": 12742,
        "rank_sort": 12792,
        "total": 2392
      },
      {
        "club_badge_src": null,
        "entry": 1487813,
        "entry_name": "Squeaky Bum Time",
        "event_total": 58,
        "has_played": true,
        "id": 10375214,
        "last_rank": 12846,
        "player_name": "Chris Ursu",
        "rank": 12742,
        "rank_sort": 12793,
        "total": 2392
      },
      {
        "club_badge_src": null,
        "entry": 1604698,
        "entry_name": "Better Call Shams",
        "event_total": 61,
        "has_played": true,
        "id": 11226722,
        "last_rank": 14496,
        "player_name": "Shams Atef",
        "rank": 12742,
        "rank_sort": 12794,
        "total": 2392
      },
      {
        "club_badge_src": null,
        "entry": 1639923,
        "entry_name": "Hayward o Hyd",
        "event_total": 65,
        "has_played": true,
        "id": 11479411,
        "last_rank": 16807,
        "player_name": "Jake Hayward",
        "rank": 12742,
        "rank_sort": 12795,
        "total": 2392
      },
      {
        "club_badge_src": null,
        "entry": 1692306,
        "entry_name": "How I Nmecha Mother",
        "event_total": 53,
        "has_played": true,
        "id": 11852202,
        "last_rank": 8718,
        "player_name": "Thomas Heppell",
        "rank": 12742,
        "rank_sort": 12796,
        "total": 2392
      },
      {
        "club_badge_src": null,
        "entry": 1706767,
        "entry_name": "redeem team",
        "event_total": 59,
        "has_played": true,
        "id": 11957186,
        "last_rank": 13500,
        "player_name": "Joel Macfarlane",
        "rank": 12742,
        "rank_sort": 12797,
        "total": 2392
      },
      {
        "club_badge_src": null,
        "entry": 1757264,
        "entry_name": "Pangea",
        "event_total": 65,
        "has_played": true,
        "id": 12337026,
        "last_rank": 14370,
        "player_name": "Jordan Wolverson O'Reilly",
        "rank": 12742,
        "rank_sort": 12798,
        "total": 2392
      },
      {
        "club_badge_src": null,
        "entry": 1847769,
        "entry_name": "houchen's headers",
        "event_total": 69,
        "has_played": true,
        "id": 13001735,
        "last_rank": 19544,
        "player_name": "Alec Nicholls",
        "rank": 12742,
        "rank_sort": 12799,
        "total": 2392
      },
      {
        "club_badge_src": null,
        "entry": 1949273,
        "entry_name": "Pure Control FC",
        "event_total": 68,
        "has_played": true,
        "id": 13750149,
        "last_rank": 18985,
        "player_name": "Eric Farronato",
        "rank": 12742,
        "rank_sort": 12800,
        "total": 2392
      }
    ]
  }
}