{
  "last_updated_data": "2026-05-24T23:28:17Z",
  "league": {
    "admin_entry": null,
    "closed": false,
    "code_privacy": "p",
    "created": "2025-07-20T23:14:33.933835Z",
    "cup_league": 2815434,
    "has_cup": true,
    "id": 314,
    "league_type": "s",
    "max_entries": null,
    "name": "Overall",
    "rank": null,
    "scoring": "c",
    "start_event": 1
  },
  "new_entries": {
    "has_next": false,
    "page": 1,
    "results": []
  },
  "standings": {
    "has_next": true,
    "page": 1454,
    "results": [
      {
        "club_badge_src": null,
        "entry": 813613,
        "entry_name": "Beef Cherki",
        "event_total": 67,
        "has_played": true,
        "id": 5571290,
        "last_rank": 97096,
        "player_name": "Martin Cross",
        "rank": 72579,
        "rank_sort": 72651,
        "total": 2339
      },
      {
        "club_badge_src": null,
        "entry": 817204,
        "entry_name": "Only Time Will Tel",
        "event_total": 55,
        "has_played": true,
        "id": 5596335,
        "last_rank": 69907,
        "player_name": "Callum Dimmock",
        "rank": 72579,
        "rank_sort": 72652,
        "total": 2339
      },
      {
        "club_badge_src": "https://fantasy.premierleague.com/gcs/plfpl-production-adobe-approved/plfpl-production/829414/6bb4733a-3948-497d-8bba-26f6c72589a4.png",
        "entry": 829414,
        "entry_name": "Mile High United",
        "event_total": 55,
        "has_played": true,
        "id": 5681042,
        "last_rank": 62223,
        "player_name": "Bennett Thompson",
        "rank": 72579,
        "rank_sort": 72653,
        "total": 2339
      },
      {
        "club_badge_src": null,
        "entry": 831113,
        "entry_name": "Wirtz Up",
        "event_total": 52,
        "has_played": true,
        "id": 5692735,
        "last_rank": 56708,
        "player_name": "Jia rong Wong",
        "rank": 72579,
        "rank_sort": 72654,
        "total": 2339
      },
      {
        "club_badge_src": null,
        "entry": 832747,
        "entry_name": "Howe Noto Elangatain",
        "event_total": 59,
        "has_played": true,
        "id": 5703928,
        "last_rank": 77999,
        "player_name": "Thomas Plummer",
        "rank": 72579,
        "rank_sort": 72655,
        "total": 2339
      },
      {
        "club_badge_src": null,
        "entry": 868584,
        "entry_name": "GAT KDA !",
        "event_total": 23,
        "has_played": true,
        "id": 5954846,
        "last_rank": 22064,
        "player_name": "Youssef Tawfeek",
        "rank": 72579,
        "rank_sort": 72656,
        "total": 2339
      },
      {
        "club_badge_src": null,
        "entry": 928526,
        "entry_name": "Kaladin Stormblessed",
        "event_total": 57,
        "has_played": true,
        "id": 6388662,
        "last_rank": 73975,
        "player_name": "Pratul Karki",
        "rank": 72579,
        "rank_sort": 72657,
        "total": 2339
      },
      {
        "club_badge_src": null,
        "entry": 937263,
        "entry_name": "The Tatars",
        "event_total": 65,
        "has_played": true,
        "id": 6450586,
        "last_rank": 92126,
        "player_name": "beiatin cadir",
        "rank": 72579,
        "rank_sort": 72658,
        "total": 2339
      },
      {
        "club_badge_src": null,
        "entry": 943948,
        "entry_name": "\u269c\ufe0fM\u0101dar\u0101\u269c\ufe0f",
        "event_total": 58,
        "has_played": true,
        "id": 6501454,
        "last_rank": 76128,
        "player_name": "saoudi aymene",
        "rank": 72579,
        "rank_sort": 72659,
        "total": 2339
      },
      {
        "club_badge_src": null,
        "entry": 947268,
        "entry_name": "Vigilante",
        "event_total": 53,
        "has_played": true,
        "id": 6524694,
        "last_rank": 66057,
        "player_name": "yos3 totti",
        "rank": 72579,
        "rank_sort": 72660,
        "total": 2339
      },
      {
        "club_badge_src": "https://fantasy.premierleague.com/gcs/plfpl-production-adobe-approved/plfpl-production/979212/887f21b8-7b14-4a45-9c3e-6959da5626d2.png",
        "entry": 979212,
        "entry_name": "1990s style",
        "event_total": 79,
        "has_played": true,
        "id": 6750657,
        "last_rank": 106763,
        "player_name": "Vahid Vahdat",
        "rank": 72579,
        "rank_sort": 72661,
        "total": 2339
      },
      {
        "club_badge_src": null,
        "entry": 986155,
        "entry_name": "Guffeligufguf",
        "event_total": 55,
        "has_played": true,
        "id": 6799339,
        "last_rank": 69907,
        "player_name": "Frederik S\u00f8rensen",
        "rank": 72579,
        "rank_sort": 72662,
        "total": 2339
      },
      {
        "club_badge_src": null,
        "entry": 1026098,
        "entry_name": "WissaPonAStar",
        "event_total": 54,
        "has_played": true,
        "id": 7099134,
        "last_rank": 67926,
        "player_name": "Jack Alexander",
        "rank": 72579,
        "rank_sort": 72663,
        "total": 2339
      },
      {
        "club_badge_src": "https://fantasy.premierleague.com/gcs/plfpl-production-adobe-approved/plfpl-production/1068059/7710f7a0-f303-44b8-ac9a-fee9eb277068.png",
        "entry": 1068059,
        "entry_name": "manAFutd",
        "event_total": 68,
        "has_played": true,
        "id": 7394013,
        "last_rank": 99596,
        "player_name": "Manaf I. Ahmed",
        "rank": 72579,
        "rank_sort": 72664,
        "total": 2339
      },
      {
        "club_badge_src": null,
        "entry": 1079369,
        "entry_name": "Wasters Wall FC",
        "event_total": 57,
        "has_played": true,
        "id": 7473695,
        "last_rank": 73975,
        "player_name": "Daragh Fitzgerald",
        "rank": 72579,
        "rank_sort": 72665,
        "total": 2339
      },
      {
        "club_badge_src": "https://fantasy.premierleague.com/gcs/plfpl-production-adobe-approved/plfpl-production/1083395/e852e19c-88ba-4a69-ad55-a77eb9dab548.png",
        "entry": 1083395,
        "entry_name": "Dark Arts FC",
        "event_total": 56,
        "has_played": true,
        "id": 7501650,
        "last_rank": 56708,
        "player_name": "Kerim Koc",
        "rank": 72579,
        "rank_sort": 72666,
        "total": 2339
      },
      {
        "club_badge_src": null,
        "entry": 1137982,
        "entry_name": "The Lindley Massive",
        "event_total": 51,
        "has_played": true,
        "id": 7888209,
        "last_rank": 62429,
        "player_name": "Louis Langfield",
        "rank": 72579,
        "rank_sort": 72667,
        "total": 2339
      },
      {
        "club_badge_src": null,
        "entry": 1162466,
        "entry_name": "OnlyOneUnited",
        "event_total": 40,
        "has_played": true,
        "id": 8063919,
        "last_rank": 44672,
        "player_name": "Chris Greenlees",
        "rank": 72579,
        "rank_sort": 72668,
        "total": 2339
      },
      {
        "club_badge_src": "https://fantasy.premierleague.com/gcs/plfpl-production-adobe-approved/plfpl-production/1236099/7b272a97-2514-4aad-a8bd-f1aac7a6312a.png",
        "entry": 1236099,
        "entry_name": "Westwood Warriors",
        "event_total": 64,
        "has_played": true,
        "id": 8583664,
        "last_rank": 71386,
        "player_name": "RICHARD KEDDIE",
        "rank": 72579,
        "rank_sort": 72669,
        "total": 2339
      },
      {
        "club_badge_src": null,
        "entry": 1261876,
        "entry_name": "Fc Gabson",
        "event_total": 65,
        "has_played": true,
        "id": 8765928,
        "last_rank": 92126,
        "player_name": "Magdalena Mucha",
        "rank": 72579,
        "rank_sort": 72670,
        "total": 2339
      },
      {
        "club_badge_src": null,
        "entry": 1323090,
        "entry_name": "Champion is here",
        "event_total": 57,
        "has_played": true,
        "id": 9196761,
        "last_rank": 65796,
        "player_name": "juned ahmed",
        "rank": 72579,
        "rank_sort": 72671,
        "total": 2339
      },
      {
        "club_badge_src": null,
        "entry": 1325695,
        "entry_name": "Justice for Sam Lunt",
        "event_total": 60,
        "has_played": true,
        "id": 9214938,
        "last_rank": 80465,
        "player_name": "Kieran Toher",
        "rank": 72579,
        "rank_sort": 72672,
        "total": 2339
      },
      {
        "club_badge_src": null,
        "entry": 1328664,
        "entry_name": "Florian Sqwritz",
        "event_total": 58,
        "has_played": true,
        "id": 9235187,
        "last_rank": 76128,
        "player_name": "Felix Wild",
        "rank": 72579,
        "rank_sort": 72673,
        "total": 2339
      },
      {
        "club_badge_src": null,
        "entry": 1348446,
        "entry_name": "Ramos FC",
        "event_total": 49,
        "has_played": true,
        "id": 9374676,
        "last_rank": 58911,
        "player_name": "Daniel Ramos",
        "rank": 72579,
        "rank_sort": 72674,
        "total": 2339
      },
      {
        "club_badge_src": "https://fantasy.premierleague.com/gcs/plfpl-production-adobe-approved/plfpl-production/1352908/0118da47-ddbf-452c-b02f-569383fd334e.png",
        "entry": 1352908,
        "entry_name": "On my way",
        "event_total": 68,
        "has_played": true,
        "id": 9405131,
        "last_rank": 89426,
        "player_name": "KDB 10",
        "rank": 72579,
        "rank_sort": 72675,
        "total": 2339
      },
      {
        "club_badge_src": null,
        "entry": 1366449,
        "entry_name": "DeeCee FC",
        "event_total": 60,
        "has_played": true,
        "id": 9498981,
        "last_rank": 71386,
        "player_name": "Dhanyaraam C.",
        "rank": 72579,
        "rank_sort": 72676,
        "total": 2339
      },
      {
        "club_badge_src": null,
        "entry": 1398437,
        "entry_name": "GAZA",
        "event_total": 67,
        "has_played": true,
        "id": 9729155,
        "last_rank": 86735,
        "player_name": "M Y --",
        "rank": 72579,
        "rank_sort": 72677,
        "total": 2339
      },
      {
        "club_badge_src": "https://fantasy.premierleague.com/gcs/plfpl-production-adobe-approved/plfpl-production/1402111/1c8a90a0-10a6-40a2-a97b-8f9a3ce53161.png",
        "entry": 1402111,
        "entry_name": "FC Diaboli",
        "event_total": 62,
        "has_played": true,
        "id": 9755539,
        "last_rank": 84360,
        "player_name": "Fakhrul Mokti",
        "rank": 72579,
        "rank_sort": 72678,
        "total": 2339
      },
      {
        "club_badge_src": null,
        "entry": 1422947,
        "entry_name": "D@mi@ B@trisya FC",
        "event_total": 65,
        "has_played": true,
        "id": 9910078,
        "last_rank": 82398,
        "player_name": "Adam Firmino",
        "rank": 72579,
        "rank_sort": 72679,
        "total": 2339
      },
      {
        "club_badge_src": "https://fantasy.premierleague.com/gcs/plfpl-production-adobe-approved/plfpl-production/1423857/c301333c-f3ac-4119-bf96-638ee94dd351.png",
        "entry": 1423857,
        "entry_name": "Mungo Jerry",
        "event_total": 60,
        "has_played": true,
        "id": 9918281,
        "last_rank": 80465,
        "player_name": "Tom Leadbetter",
        "rank": 72579,
        "rank_sort": 72680,
        "total": 2339
      },
      {
        "club_badge_src": "https://fantasy.premierleague.com/gcs/plfpl-production-adobe-approved/plfpl-production/1438415/a6ecb27a-f7d0-4edc-b919-cbdea4bf5b22.png",
        "entry": 1438415,
        "entry_name": "RealDovrebro",
        "event_total": 67,
        "has_played": true,
        "id": 10022981,
        "last_rank": 68957,
        "player_name": "Per Johan Brun",
        "rank": 72579,
        "rank_sort": 72681,
        "total": 2339
      },
      {
        "club_badge_src": "https://fantasy.premierleague.com/gcs/plfpl-production-adobe-approved/plfpl-production/1466758/ce440a34-b503-4433-b471-107a730b2f52.png",
        "entry": 1466758,
        "entry_name": "Bayer Neverlusen'",
        "event_total": 68,
        "has_played": true,
        "id": 10223930,
        "last_rank": 89426,
        "player_name": "Sam Mein",
        "rank": 72579,
        "rank_sort": 72682,
        "total": 2339
      },
      {
        "club_badge_src": null,
        "entry": 1649370,
        "entry_name": "Chennai28",
        "event_total": 54,
        "has_played": true,
        "id": 11546606,
        "last_rank": 67926,
        "player_name": "Aqshay Chandramouli",
        "rank": 72579,
        "rank_sort": 72683,
        "total": 2339
      },
      {
        "club_badge_src": null,
        "entry": 1651690,
        "entry_name": "Kroos Control",
        "event_total": 57,
        "has_played": true,
        "id": 11563685,
        "last_rank": 73975,
        "player_name": "Brian Anthony",
        "rank": 72579,
        "rank_sort": 72684,
        "total": 2339
      },
      {
        "club_badge_src": null,
        "entry": 1767881,
        "entry_name": "Shu 42",
        "event_total": 64,
        "has_played": true,
        "id": 12418657,
        "last_rank": 89426,
        "player_name": "Vladimir Suvakovic",
        "rank": 72579,
        "rank_sort": 72685,
        "total": 2339
      },
      {
        "club_badge_src": null,
        "entry": 1793853,
        "entry_name": "\u0627\u0644\u0628\u0631\u0648\u0641",
        "event_total": 72,
        "has_played": true,
        "id": 12605572,
        "last_rank": 109863,
        "player_name": "EL.Prof Eslam",
        "rank": 72579,
        "rank_sort": 72686,
        "total": 2339
      },
      {
        "club_badge_src": null,
        "entry": 1797638,
        "entry_name": "Boca Seniors",
        "event_total": 35,
        "has_played": true,
        "id": 12633261,
        "last_rank": 38267,
        "player_name": "Robert Cameron",
        "rank": 72579,
        "rank_sort": 72687,
        "total": 2339
      },
      {
        "club_badge_src": null,
        "entry": 1871905,
        "entry_name": "Borussia",
        "event_total": 62,
        "has_played": true,
        "id": 13178528,
        "last_rank": 84980,
        "player_name": "Manu Merino",
        "rank": 72579,
        "rank_sort": 72688,
        "total": 2339
      },
      {
        "club_badge_src": "https://fantasy.premierleague.com/gcs/plfpl-production-adobe-approved/plfpl-production/1978494/3373c3cd-e676-4d86-b4cc-dd3dd24609ce.png",
        "entry": 1978494,
        "entry_name": "Tactical Masterclass",
        "event_total": 64,
        "has_played": true,
        "id": 13967531,
        "last_rank": 89897,
        "player_name": "Mighael Klaase",
        "rank": 72579,
        "rank_sort": 72689,
        "total": 2339
      },
      {
        "club_badge_src": null,
        "entry": 2056506,
        "entry_name": "spurs",
        "event_total": 36,
        "has_played": true,
        "id": 14568378,
        "last_rank": 39246,
        "player_name": "Ethan Eakins",
        "rank": 72579,
        "rank_sort": 72690,
        "total": 2339
      },
      {
        "club_badge_src": null,
        "entry": 2059570,
        "entry_name": "Mighty Red",
        "event_total": 60,
        "has_played": true,
        "id": 14591332,
        "last_rank": 80465,
        "player_name": "Jeremy Choo",
        "rank": 72579,
        "rank_sort": 72691,
        "total": 2339
      },
      {
        "club_badge_src": null,
        "entry": 2099062,
        "entry_name": "KDB forever",
        "event_total": 77,
        "has_played": true,
        "id": 14893732,
        "last_rank": 124682,
        "player_name": "Harish M",
        "rank": 72579,
        "rank_sort": 72692,
        "total": 2339
      },
      {
        "club_badge_src": "https://fantasy.premierleague.com/gcs/plfpl-production-adobe-approved/plfpl-production/2128516/79755106-c3cc-4b2b-9a0d-8fe689431c00.png",
        "entry": 2128516,
        "entry_name": "Fantasy",
        "event_total": 84,
        "has_played": true,
        "id": 15124417,
        "last_rank": 147186,
        "player_name": "Malose Phahle",
        "rank": 72579,
        "rank_sort": 72693,
        "total": 2339
      },
      {
        "club_badge_src": null,
        "entry": 2174542,
        "entry_name": "Hotel? Thiago",
        "event_total": 82,
        "has_played": true,
        "id": 15462496,
        "last_rank": 126948,
        "player_name": "Stephen Lucas",
        "rank": 72579,
        "rank_sort": 72694,
        "total": 2339
      },
      {
        "club_badge_src": "https://fantasy.premierleague.com/gcs/plfpl-production-adobe-approved/plfpl-production/2313742/2bdc6a76-1d3d-4c92-b485-1f43de905d20.png",
        "entry": 2313742,
        "entry_name": "Pappu Pager",
        "event_total": 49,
        "has_played": true,
        "id": 16504840,
        "last_rank": 58911,
        "player_name": "Devesh Singh",
        "rank": 72579,
        "rank_sort": 72695,
        "total": 2339
      },
      {
        "club_badge_src": null,
        "entry": 2314444,
        "entry_name": "Micharazo Fc",
        "event_total": 76,
        "has_played": true,
        "id": 16509974,
        "last_rank": 109863,
        "player_name": "Simon Octane",
        "rank": 72579,
        "rank_sort": 72696,
        "total": 2339
      },
      {
        "club_badge_src": "https://fantasy.premierleague.com/gcs/plfpl-production-adobe-approved/plfpl-production/2383130/b21ec44f-2f5d-423a-806c-a91229c5f919.png",
        "entry": 2383130,
        "entry_name": "Mosjisto",
        "event_total": 61,
        "has_played": true,
        "id": 17017923,
        "last_rank": 73423,
        "player_name": "Jack Mainnie",
        "rank": 72579,
        "rank_sort": 72697,
        "total": 2339
      },
      {
        "club_badge_src": null,
        "entry": 2474663,
        "entry_name": "Rashed alneyadi",
        "event_total": 45,
        "has_played": true,
        "id": 17704965,
        "last_rank": 52205,
        "player_name": "Rashed Alneyadi",
        "rank": 72579,
        "rank_sort": 72698,
        "total": 2339
      },
      {
        "club_badge_src": "https://fantasy.premierleague.com/gcs/plfpl-production-adobe-approved/plfpl-production/2479323/2f55a06b-6c04-4637-9a26-40cc5e882ffe.png",
        "entry": 2479323,
        "entry_name": "Mohamadeus",
        "event_total": 57,
        "has_played": true,
        "id": 17739795,
        "last_rank": 65796,
        "player_name": "Amadeus Haag",
        "rank": 72579,
        "rank_sort": 72699,
        "total": 2339
      },
      {
        "club_badge_src": null,
        "entry": 2504580,
        "entry_name": "dayem fc",
        "event_total": 54,
        "has_played": true,
        "id": 17935588,
        "last_rank": 67926,
        "player_name": "Ahmed Dayem",
        "rank": 72579,
        "rank_sort": 72700,
        "total": 2339
      }
    ]
  }
}