{
  "last_updated_data": "2026-05-24T23:28:17Z",
  "league": {
    "admin_entry": null,
    "closed": false,
    "code_privacy": "p",
    "created": "2025-07-20T23:14:33.933835Z",
    "cup_league": 2815434,
    "has_cup": true,
    "id": 314,
    "league_type": "s",
    "max_entries": null,
    "name": "Overall",
    "rank": null,
    "scoring": "c",
    "start_event": 1
  },
  "new_entries": {
    "has_next": false,
    "page": 1,
    "results": []
  },
  "standings": {
    "has_next": true,
    "page": 1202,
    "results": [
      {
        "club_badge_src": null,
        "entry": 1996649,
        "entry_name": "Will FC",
        "event_total": 56,
        "has_played": true,
        "id": 14109571,
        "last_rank": 45927,
        "player_name": "Will Battye",
        "rank": 59982,
        "rank_sort": 60051,
        "total": 2346
      },
      {
        "club_badge_src": "https://fantasy.premierleague.com/gcs/plfpl-production-adobe-approved/plfpl-production/2035249/62fc66c2-9a9f-4ac4-a5d3-e9d9e7881641.png",
        "entry": 2035249,
        "entry_name": "The Invincibles",
        "event_total": 72,
        "has_played": true,
        "id": 14410098,
        "last_rank": 82664,
        "player_name": "Darren Benson",
        "rank": 59982,
        "rank_sort": 60052,
        "total": 2346
      },
      {
        "club_badge_src": null,
        "entry": 2053531,
        "entry_name": "Stay Beautif\u00fcllkrug",
        "event_total": 52,
        "has_played": true,
        "id": 14546378,
        "last_rank": 52357,
        "player_name": "Stephen Cole",
        "rank": 59982,
        "rank_sort": 60053,
        "total": 2346
      },
      {
        "club_badge_src": null,
        "entry": 2065583,
        "entry_name": "aCunha Matata",
        "event_total": 48,
        "has_played": true,
        "id": 14641481,
        "last_rank": 46236,
        "player_name": "Tom Passmore",
        "rank": 59982,
        "rank_sort": 60054,
        "total": 2346
      },
      {
        "club_badge_src": "https://fantasy.premierleague.com/gcs/plfpl-production-adobe-approved/plfpl-production/2190578/6496c27d-6d0e-4d85-82c8-01397ff3282c.png",
        "entry": 2190578,
        "entry_name": "Haps",
        "event_total": 66,
        "has_played": true,
        "id": 15584871,
        "last_rank": 78440,
        "player_name": "Malte J\u00f8rgensen",
        "rank": 59982,
        "rank_sort": 60055,
        "total": 2346
      },
      {
        "club_badge_src": null,
        "entry": 2260837,
        "entry_name": "Jumbo Whiffy",
        "event_total": 46,
        "has_played": true,
        "id": 16118883,
        "last_rank": 43444,
        "player_name": "simon graney",
        "rank": 59982,
        "rank_sort": 60056,
        "total": 2346
      },
      {
        "club_badge_src": null,
        "entry": 2385338,
        "entry_name": "Kinder Mbeumo",
        "event_total": 48,
        "has_played": true,
        "id": 17034863,
        "last_rank": 46236,
        "player_name": "Sam Kenny",
        "rank": 59982,
        "rank_sort": 60057,
        "total": 2346
      },
      {
        "club_badge_src": null,
        "entry": 2405597,
        "entry_name": "Piano2",
        "event_total": 60,
        "has_played": true,
        "id": 17194438,
        "last_rank": 66200,
        "player_name": "phil woods",
        "rank": 59982,
        "rank_sort": 60058,
        "total": 2346
      },
      {
        "club_badge_src": null,
        "entry": 2412075,
        "entry_name": "Toad Hall FC",
        "event_total": 47,
        "has_played": true,
        "id": 17242432,
        "last_rank": 44672,
        "player_name": "Daniel Wells",
        "rank": 59982,
        "rank_sort": 60059,
        "total": 2346
      },
      {
        "club_badge_src": null,
        "entry": 2624317,
        "entry_name": "Dynamo Drago",
        "event_total": 61,
        "has_played": true,
        "id": 18857752,
        "last_rank": 53621,
        "player_name": "Ivar Schmidt",
        "rank": 59982,
        "rank_sort": 60060,
        "total": 2346
      },
      {
        "club_badge_src": null,
        "entry": 2712992,
        "entry_name": "Eleven All Stars",
        "event_total": 61,
        "has_played": true,
        "id": 19519747,
        "last_rank": 67422,
        "player_name": "Collen CollyMarn",
        "rank": 59982,
        "rank_sort": 60061,
        "total": 2346
      },
      {
        "club_badge_src": null,
        "entry": 2822984,
        "entry_name": "Pending Moderation",
        "event_total": 58,
        "has_played": true,
        "id": 20624679,
        "last_rank": 62429,
        "player_name": "John Dowling",
        "rank": 59982,
        "rank_sort": 60062,
        "total": 2346
      },
      {
        "club_badge_src": "https://fantasy.premierleague.com/gcs/plfpl-production-adobe-approved/plfpl-production/2939887/1ad71c1d-9214-4d0d-9c66-38b028ff7560.png",
        "entry": 2939887,
        "entry_name": "Gunnerish",
        "event_total": 62,
        "has_played": true,
        "id": 21571914,
        "last_rank": 62429,
        "player_name": "ishtiake chowdhury",
        "rank": 59982,
        "rank_sort": 60063,
        "total": 2346
      },
      {
        "club_badge_src": null,
        "entry": 2976422,
        "entry_name": "Wombats AFC",
        "event_total": 54,
        "has_played": true,
        "id": 21872735,
        "last_rank": 55659,
        "player_name": "Chris Laidlaw",
        "rank": 59982,
        "rank_sort": 60064,
        "total": 2346
      },
      {
        "club_badge_src": null,
        "entry": 3019407,
        "entry_name": "Potato Princes",
        "event_total": 59,
        "has_played": true,
        "id": 22215100,
        "last_rank": 64319,
        "player_name": "Tommy Simpson",
        "rank": 59982,
        "rank_sort": 60065,
        "total": 2346
      },
      {
        "club_badge_src": null,
        "entry": 3036365,
        "entry_name": "LEKH",
        "event_total": 66,
        "has_played": true,
        "id": 22347015,
        "last_rank": 69907,
        "player_name": "Chandra Thapa",
        "rank": 59982,
        "rank_sort": 60066,
        "total": 2346
      },
      {
        "club_badge_src": null,
        "entry": 3084420,
        "entry_name": "fcmili",
        "event_total": 73,
        "has_played": true,
        "id": 22724913,
        "last_rank": 94537,
        "player_name": "Milad Khaleghimanesh",
        "rank": 59982,
        "rank_sort": 60067,
        "total": 2346
      },
      {
        "club_badge_src": null,
        "entry": 3169487,
        "entry_name": "Led Tasso",
        "event_total": 75,
        "has_played": true,
        "id": 23416825,
        "last_rank": 99596,
        "player_name": "Khaled Nagy",
        "rank": 59982,
        "rank_sort": 60068,
        "total": 2346
      },
      {
        "club_badge_src": null,
        "entry": 3177270,
        "entry_name": "DP.Mansion",
        "event_total": 44,
        "has_played": true,
        "id": 23477363,
        "last_rank": 40770,
        "player_name": "Alberto Daccach",
        "rank": 59982,
        "rank_sort": 60069,
        "total": 2346
      },
      {
        "club_badge_src": null,
        "entry": 3189967,
        "entry_name": "Mo Salad",
        "event_total": 50,
        "has_played": true,
        "id": 23574773,
        "last_rank": 49207,
        "player_name": "Sean McDonald",
        "rank": 59982,
        "rank_sort": 60070,
        "total": 2346
      },
      {
        "club_badge_src": null,
        "entry": 3296285,
        "entry_name": "Major league Saka",
        "event_total": 62,
        "has_played": true,
        "id": 24409980,
        "last_rank": 70072,
        "player_name": "Alex Spellward",
        "rank": 59982,
        "rank_sort": 60071,
        "total": 2346
      },
      {
        "club_badge_src": null,
        "entry": 3299878,
        "entry_name": "Durham FC",
        "event_total": 68,
        "has_played": true,
        "id": 24439199,
        "last_rank": 65796,
        "player_name": "Luke Morgan",
        "rank": 59982,
        "rank_sort": 60072,
        "total": 2346
      },
      {
        "club_badge_src": null,
        "entry": 3345631,
        "entry_name": "YAVP",
        "event_total": 54,
        "has_played": true,
        "id": 24817335,
        "last_rank": 48898,
        "player_name": "ricky chan",
        "rank": 59982,
        "rank_sort": 60073,
        "total": 2346
      },
      {
        "club_badge_src": null,
        "entry": 3359648,
        "entry_name": "Eberechi MVP",
        "event_total": 57,
        "has_played": true,
        "id": 24927317,
        "last_rank": 60933,
        "player_name": "Berto Solinis",
        "rank": 59982,
        "rank_sort": 60074,
        "total": 2346
      },
      {
        "club_badge_src": null,
        "entry": 3478239,
        "entry_name": "RKS Rak\u00f3wCzestochowa",
        "event_total": 66,
        "has_played": true,
        "id": 25862864,
        "last_rank": 69907,
        "player_name": "Arturo Wdowiak",
        "rank": 59982,
        "rank_sort": 60075,
        "total": 2346
      },
      {
        "club_badge_src": null,
        "entry": 3532340,
        "entry_name": "I-Sak At This",
        "event_total": 58,
        "has_played": true,
        "id": 26290476,
        "last_rank": 55311,
        "player_name": "Kelvin Njambi",
        "rank": 59982,
        "rank_sort": 60076,
        "total": 2346
      },
      {
        "club_badge_src": null,
        "entry": 3685488,
        "entry_name": "FC Sorokin",
        "event_total": 57,
        "has_played": true,
        "id": 27492728,
        "last_rank": 60827,
        "player_name": "Siim Sorokin",
        "rank": 59982,
        "rank_sort": 60077,
        "total": 2346
      },
      {
        "club_badge_src": null,
        "entry": 3888486,
        "entry_name": "Pulga",
        "event_total": 66,
        "has_played": true,
        "id": 29219822,
        "last_rank": 69907,
        "player_name": "Ali Safar",
        "rank": 59982,
        "rank_sort": 60078,
        "total": 2346
      },
      {
        "club_badge_src": null,
        "entry": 3936503,
        "entry_name": "rached rouissi",
        "event_total": 56,
        "has_played": true,
        "id": 29610490,
        "last_rank": 52205,
        "player_name": "Rouissi Rached",
        "rank": 59982,
        "rank_sort": 60079,
        "total": 2346
      },
      {
        "club_badge_src": null,
        "entry": 3992411,
        "entry_name": "jaish e madrid",
        "event_total": 62,
        "has_played": true,
        "id": 30063512,
        "last_rank": 62429,
        "player_name": "Aryamaan Pawar",
        "rank": 59982,
        "rank_sort": 60080,
        "total": 2346
      },
      {
        "club_badge_src": null,
        "entry": 4040573,
        "entry_name": "The Good Doctor",
        "event_total": 68,
        "has_played": true,
        "id": 30471069,
        "last_rank": 73975,
        "player_name": "Omar A. Barakat",
        "rank": 59982,
        "rank_sort": 60081,
        "total": 2346
      },
      {
        "club_badge_src": "https://fantasy.premierleague.com/gcs/plfpl-production-adobe-approved/plfpl-production/4122786/c73d87d7-0019-4555-9d7e-e0a05ed8bf1e.png",
        "entry": 4122786,
        "entry_name": "RIP The Tomans",
        "event_total": 68,
        "has_played": true,
        "id": 31148128,
        "last_rank": 73975,
        "player_name": "Ben Kelly",
        "rank": 59982,
        "rank_sort": 60082,
        "total": 2346
      },
      {
        "club_badge_src": null,
        "entry": 4132523,
        "entry_name": "Gangsters Allardyce",
        "event_total": 73,
        "has_played": true,
        "id": 31229043,
        "last_rank": 94537,
        "player_name": "Ryan Rouse",
        "rank": 59982,
        "rank_sort": 60083,
        "total": 2346
      },
      {
        "club_badge_src": null,
        "entry": 4334956,
        "entry_name": "HaCunha Matata",
        "event_total": 62,
        "has_played": true,
        "id": 32910828,
        "last_rank": 70072,
        "player_name": "Chris Finnerty",
        "rank": 59982,
        "rank_sort": 60084,
        "total": 2346
      },
      {
        "club_badge_src": null,
        "entry": 4485767,
        "entry_name": "slot Alot",
        "event_total": 69,
        "has_played": true,
        "id": 34190517,
        "last_rank": 85207,
        "player_name": "adam mcdougall",
        "rank": 59982,
        "rank_sort": 60085,
        "total": 2346
      },
      {
        "club_badge_src": null,
        "entry": 4637551,
        "entry_name": "No Wirtz, All Action",
        "event_total": 45,
        "has_played": true,
        "id": 35465609,
        "last_rank": 41967,
        "player_name": "Dan Marsh",
        "rank": 59982,
        "rank_sort": 60086,
        "total": 2346
      },
      {
        "club_badge_src": null,
        "entry": 4868941,
        "entry_name": "The Loud",
        "event_total": 73,
        "has_played": true,
        "id": 37528056,
        "last_rank": 75874,
        "player_name": "Damilola Ojegbile",
        "rank": 59982,
        "rank_sort": 60087,
        "total": 2346
      },
      {
        "club_badge_src": null,
        "entry": 5206531,
        "entry_name": "Mulvangladbach",
        "event_total": 39,
        "has_played": true,
        "id": 40325840,
        "last_rank": 30060,
        "player_name": "Jamie Mulvaney",
        "rank": 59982,
        "rank_sort": 60088,
        "total": 2346
      },
      {
        "club_badge_src": null,
        "entry": 5350918,
        "entry_name": "Lost for Wirtz",
        "event_total": 65,
        "has_played": true,
        "id": 41534284,
        "last_rank": 75537,
        "player_name": "Controller MAL",
        "rank": 59982,
        "rank_sort": 60089,
        "total": 2346
      },
      {
        "club_badge_src": null,
        "entry": 5372456,
        "entry_name": "The AvenGers",
        "event_total": 47,
        "has_played": true,
        "id": 41748606,
        "last_rank": 44672,
        "player_name": "James Archibald",
        "rank": 59982,
        "rank_sort": 60090,
        "total": 2346
      },
      {
        "club_badge_src": "https://fantasy.premierleague.com/gcs/plfpl-production-adobe-approved/plfpl-production/5436224/dedfaa1d-be49-4355-aa05-ee3e7eb8f59b.png",
        "entry": 5436224,
        "entry_name": "FAMOUS",
        "event_total": 41,
        "has_played": true,
        "id": 42289991,
        "last_rank": 37058,
        "player_name": "Good Man",
        "rank": 59982,
        "rank_sort": 60091,
        "total": 2346
      },
      {
        "club_badge_src": null,
        "entry": 5456841,
        "entry_name": "Rab fc",
        "event_total": 57,
        "has_played": true,
        "id": 42465487,
        "last_rank": 60827,
        "player_name": "Salvador Rabago Cruz",
        "rank": 59982,
        "rank_sort": 60092,
        "total": 2346
      },
      {
        "club_badge_src": null,
        "entry": 5501232,
        "entry_name": "Kabba",
        "event_total": 65,
        "has_played": true,
        "id": 42864820,
        "last_rank": 76330,
        "player_name": "Elbasan Kabashi",
        "rank": 59982,
        "rank_sort": 60093,
        "total": 2346
      },
      {
        "club_badge_src": "https://fantasy.premierleague.com/gcs/plfpl-production-adobe-approved/plfpl-production/5730498/8964708a-b23a-4b07-984f-c758d8384514.png",
        "entry": 5730498,
        "entry_name": "HalfTimePepTalk",
        "event_total": 66,
        "has_played": true,
        "id": 44892746,
        "last_rank": 69907,
        "player_name": "Sadir Omer",
        "rank": 59982,
        "rank_sort": 60094,
        "total": 2346
      },
      {
        "club_badge_src": null,
        "entry": 5809548,
        "entry_name": "AFSEO",
        "event_total": 80,
        "has_played": true,
        "id": 45582316,
        "last_rank": 112960,
        "player_name": "Atle Frang Svendsen",
        "rank": 59982,
        "rank_sort": 60095,
        "total": 2346
      },
      {
        "club_badge_src": null,
        "entry": 5932124,
        "entry_name": "Reykjav\u00edk United",
        "event_total": 60,
        "has_played": true,
        "id": 46637328,
        "last_rank": 66200,
        "player_name": "David Lim",
        "rank": 59982,
        "rank_sort": 60096,
        "total": 2346
      },
      {
        "club_badge_src": null,
        "entry": 6107512,
        "entry_name": "Kove Ramblers",
        "event_total": 53,
        "has_played": true,
        "id": 48241929,
        "last_rank": 53837,
        "player_name": "Liam Buckley",
        "rank": 59982,
        "rank_sort": 60097,
        "total": 2346
      },
      {
        "club_badge_src": null,
        "entry": 6281624,
        "entry_name": "saleh",
        "event_total": 71,
        "has_played": true,
        "id": 49751634,
        "last_rank": 80465,
        "player_name": "Saleh N",
        "rank": 59982,
        "rank_sort": 60098,
        "total": 2346
      },
      {
        "club_badge_src": null,
        "entry": 6407727,
        "entry_name": "Mudiloo",
        "event_total": 66,
        "has_played": true,
        "id": 50987665,
        "last_rank": 78575,
        "player_name": "Mudiake Omorhirhi",
        "rank": 59982,
        "rank_sort": 60099,
        "total": 2346
      },
      {
        "club_badge_src": null,
        "entry": 6423455,
        "entry_name": "2nd Again",
        "event_total": 73,
        "has_played": true,
        "id": 51127891,
        "last_rank": 75874,
        "player_name": "Bailey Whiter",
        "rank": 59982,
        "rank_sort": 60100,
        "total": 2346
      }
    ]
  }
}