{
  "last_updated_data": "2026-05-24T23:28:17Z",
  "league": {
    "admin_entry": null,
    "closed": false,
    "code_privacy": "p",
    "created": "2025-07-20T23:14:33.933835Z",
    "cup_league": 2815434,
    "has_cup": true,
    "id": 314,
    "league_type": "s",
    "max_entries": null,
    "name": "Overall",
    "rank": null,
    "scoring": "c",
    "start_event": 1
  },
  "new_entries": {
    "has_next": false,
    "page": 1,
    "results": []
  },
  "standings": {
    "has_next": true,
    "page": 644,
    "results": [
      {
        "club_badge_src": null,
        "entry": 736475,
        "entry_name": "Nkunkukumber",
        "event_total": 56,
        "has_played": true,
        "id": 5006674,
        "last_rank": 30957,
        "player_name": "Will Howell",
        "rank": 32080,
        "rank_sort": 32151,
        "total": 2366
      },
      {
        "club_badge_src": null,
        "entry": 737798,
        "entry_name": "\u2605 A B D O \u2605FC",
        "event_total": 50,
        "has_played": true,
        "id": 5015948,
        "last_rank": 21775,
        "player_name": "BOOODY ELZEIT",
        "rank": 32080,
        "rank_sort": 32152,
        "total": 2366
      },
      {
        "club_badge_src": null,
        "entry": 786703,
        "entry_name": "FromThePalmerMyHand",
        "event_total": 50,
        "has_played": true,
        "id": 5377500,
        "last_rank": 25002,
        "player_name": "Tristan Louveaux",
        "rank": 32080,
        "rank_sort": 32153,
        "total": 2366
      },
      {
        "club_badge_src": null,
        "entry": 828042,
        "entry_name": "LooneyTunes FC",
        "event_total": 55,
        "has_played": true,
        "id": 5671395,
        "last_rank": 29688,
        "player_name": "Ilias Attadloui",
        "rank": 32080,
        "rank_sort": 32154,
        "total": 2366
      },
      {
        "club_badge_src": "https://fantasy.premierleague.com/gcs/plfpl-production-adobe-approved/plfpl-production/842758/fa20531a-64ee-47a2-bb9a-adac64ad8d59.png",
        "entry": 842758,
        "entry_name": "Pep's Peeps",
        "event_total": 56,
        "has_played": true,
        "id": 5774342,
        "last_rank": 30957,
        "player_name": "Serghei Andronachi",
        "rank": 32080,
        "rank_sort": 32155,
        "total": 2366
      },
      {
        "club_badge_src": null,
        "entry": 849111,
        "entry_name": "Slotting Wirtz In",
        "event_total": 68,
        "has_played": true,
        "id": 5819994,
        "last_rank": 45416,
        "player_name": "Ilyas Dudhwala",
        "rank": 32080,
        "rank_sort": 32156,
        "total": 2366
      },
      {
        "club_badge_src": null,
        "entry": 857087,
        "entry_name": "AXA F.C",
        "event_total": 54,
        "has_played": true,
        "id": 5874966,
        "last_rank": 25002,
        "player_name": "Moameren Longchar",
        "rank": 32080,
        "rank_sort": 32157,
        "total": 2366
      },
      {
        "club_badge_src": null,
        "entry": 883207,
        "entry_name": "Knights of Peace",
        "event_total": 51,
        "has_played": true,
        "id": 6057073,
        "last_rank": 26088,
        "player_name": "Dragon Knight",
        "rank": 32080,
        "rank_sort": 32158,
        "total": 2366
      },
      {
        "club_badge_src": null,
        "entry": 884774,
        "entry_name": "MelaTosin",
        "event_total": 62,
        "has_played": true,
        "id": 6067975,
        "last_rank": 37589,
        "player_name": "Pun Tanchanpong",
        "rank": 32080,
        "rank_sort": 32159,
        "total": 2366
      },
      {
        "club_badge_src": null,
        "entry": 898872,
        "entry_name": "Perazim",
        "event_total": 51,
        "has_played": true,
        "id": 6175886,
        "last_rank": 26088,
        "player_name": "Themba Siyabonga",
        "rank": 32080,
        "rank_sort": 32160,
        "total": 2366
      },
      {
        "club_badge_src": null,
        "entry": 903475,
        "entry_name": "All eyes on Gazza",
        "event_total": 50,
        "has_played": true,
        "id": 6207942,
        "last_rank": 25172,
        "player_name": "James Bannister",
        "rank": 32080,
        "rank_sort": 32161,
        "total": 2366
      },
      {
        "club_badge_src": null,
        "entry": 909007,
        "entry_name": "Oriental Express",
        "event_total": 61,
        "has_played": true,
        "id": 6248956,
        "last_rank": 36348,
        "player_name": "Derek Ho",
        "rank": 32080,
        "rank_sort": 32162,
        "total": 2366
      },
      {
        "club_badge_src": null,
        "entry": 910466,
        "entry_name": "bestchicken_fc",
        "event_total": 58,
        "has_played": true,
        "id": 6260060,
        "last_rank": 33147,
        "player_name": "Kofi Okine",
        "rank": 32080,
        "rank_sort": 32163,
        "total": 2366
      },
      {
        "club_badge_src": "https://fantasy.premierleague.com/gcs/plfpl-production-adobe-approved/plfpl-production/920552/2d94faf7-5c90-479a-81a5-a80ab885b3f0.png",
        "entry": 920552,
        "entry_name": "Fianchetto FC",
        "event_total": 66,
        "has_played": true,
        "id": 6330841,
        "last_rank": 42940,
        "player_name": "Rishat Zeini",
        "rank": 32080,
        "rank_sort": 32164,
        "total": 2366
      },
      {
        "club_badge_src": null,
        "entry": 948944,
        "entry_name": "GvardiolsOfTheGalaxy",
        "event_total": 74,
        "has_played": true,
        "id": 6536733,
        "last_rank": 54667,
        "player_name": "Andrew Fernandes",
        "rank": 32080,
        "rank_sort": 32165,
        "total": 2366
      },
      {
        "club_badge_src": null,
        "entry": 978555,
        "entry_name": "Ozilmandias",
        "event_total": 70,
        "has_played": true,
        "id": 6746100,
        "last_rank": 42648,
        "player_name": "Nathan Birch",
        "rank": 32080,
        "rank_sort": 32166,
        "total": 2366
      },
      {
        "club_badge_src": null,
        "entry": 1107167,
        "entry_name": "Rooney Tunes",
        "event_total": 68,
        "has_played": true,
        "id": 7668985,
        "last_rank": 45416,
        "player_name": "Dara McGinley",
        "rank": 32080,
        "rank_sort": 32167,
        "total": 2366
      },
      {
        "club_badge_src": null,
        "entry": 1137903,
        "entry_name": "Sherif Elshoura",
        "event_total": 64,
        "has_played": true,
        "id": 7887645,
        "last_rank": 40036,
        "player_name": "Sherif Elshoura",
        "rank": 32080,
        "rank_sort": 32168,
        "total": 2366
      },
      {
        "club_badge_src": null,
        "entry": 1197326,
        "entry_name": "Ajax Trees Down",
        "event_total": 63,
        "has_played": true,
        "id": 8308633,
        "last_rank": 38542,
        "player_name": "Jacob Morley",
        "rank": 32080,
        "rank_sort": 32169,
        "total": 2366
      },
      {
        "club_badge_src": null,
        "entry": 1208713,
        "entry_name": "ItchIsak FC",
        "event_total": 59,
        "has_played": true,
        "id": 8388942,
        "last_rank": 29578,
        "player_name": "Daniel Carter",
        "rank": 32080,
        "rank_sort": 32170,
        "total": 2366
      },
      {
        "club_badge_src": null,
        "entry": 1238664,
        "entry_name": "FAcup",
        "event_total": 61,
        "has_played": true,
        "id": 8601907,
        "last_rank": 36348,
        "player_name": "Lucas Stovold",
        "rank": 32080,
        "rank_sort": 32171,
        "total": 2366
      },
      {
        "club_badge_src": null,
        "entry": 1246788,
        "entry_name": "The intruders F.C",
        "event_total": 42,
        "has_played": true,
        "id": 8659063,
        "last_rank": 18790,
        "player_name": "Mohamed Shahin",
        "rank": 32080,
        "rank_sort": 32172,
        "total": 2366
      },
      {
        "club_badge_src": null,
        "entry": 1247250,
        "entry_name": "Cola Liepzig",
        "event_total": 65,
        "has_played": true,
        "id": 8662339,
        "last_rank": 41617,
        "player_name": "Max Rose",
        "rank": 32080,
        "rank_sort": 32173,
        "total": 2366
      },
      {
        "club_badge_src": "https://fantasy.premierleague.com/gcs/plfpl-production-adobe-approved/plfpl-production/1267589/763d8544-9673-4d78-89a8-f8f3a8e4638b.png",
        "entry": 1267589,
        "entry_name": "nmballs",
        "event_total": 64,
        "has_played": true,
        "id": 8807336,
        "last_rank": 40297,
        "player_name": "Niels Brochner",
        "rank": 32080,
        "rank_sort": 32174,
        "total": 2366
      },
      {
        "club_badge_src": "https://fantasy.premierleague.com/gcs/plfpl-production-adobe-approved/plfpl-production/1271065/84ee8d18-9416-4718-9a47-b1634d92522e.png",
        "entry": 1271065,
        "entry_name": "Deus Ex Machina",
        "event_total": 67,
        "has_played": true,
        "id": 8831533,
        "last_rank": 38774,
        "player_name": "Domagoj Vuleta",
        "rank": 32080,
        "rank_sort": 32175,
        "total": 2366
      },
      {
        "club_badge_src": null,
        "entry": 1280963,
        "entry_name": "The Bornauw Identity",
        "event_total": 67,
        "has_played": true,
        "id": 8901052,
        "last_rank": 38571,
        "player_name": "Adam Poulter",
        "rank": 32080,
        "rank_sort": 32176,
        "total": 2366
      },
      {
        "club_badge_src": "https://fantasy.premierleague.com/gcs/plfpl-production-adobe-approved/plfpl-production/1340879/ad309bab-2379-42b6-b610-1c7611fff0ef.png",
        "entry": 1340879,
        "entry_name": "Dr Mosbah",
        "event_total": 56,
        "has_played": true,
        "id": 9322292,
        "last_rank": 30957,
        "player_name": "Mohamed Mosbah",
        "rank": 32080,
        "rank_sort": 32177,
        "total": 2366
      },
      {
        "club_badge_src": "https://fantasy.premierleague.com/gcs/plfpl-production-adobe-approved/plfpl-production/1417887/a776d2be-6013-47f7-a4bf-8a31966ad56d.png",
        "entry": 1417887,
        "entry_name": "Abdulamlek bashar",
        "event_total": 55,
        "has_played": true,
        "id": 9872014,
        "last_rank": 29904,
        "player_name": "Abdalmlk Bashar",
        "rank": 32080,
        "rank_sort": 32178,
        "total": 2366
      },
      {
        "club_badge_src": "https://fantasy.premierleague.com/gcs/plfpl-production-adobe-approved/plfpl-production/1422935/595c224f-036d-4769-a9ee-52314c8eabef.png",
        "entry": 1422935,
        "entry_name": "Bees Again",
        "event_total": 53,
        "has_played": true,
        "id": 9909970,
        "last_rank": 27976,
        "player_name": "Arne Byberg",
        "rank": 32080,
        "rank_sort": 32179,
        "total": 2366
      },
      {
        "club_badge_src": null,
        "entry": 1483078,
        "entry_name": "A Bold & Strong Reds",
        "event_total": 62,
        "has_played": true,
        "id": 10341965,
        "last_rank": 37589,
        "player_name": "Daniel Chow",
        "rank": 32080,
        "rank_sort": 32180,
        "total": 2366
      },
      {
        "club_badge_src": null,
        "entry": 1492096,
        "entry_name": "Hylestad",
        "event_total": 80,
        "has_played": true,
        "id": 10405220,
        "last_rank": 58071,
        "player_name": "Roger Homme",
        "rank": 32080,
        "rank_sort": 32181,
        "total": 2366
      },
      {
        "club_badge_src": null,
        "entry": 1521939,
        "entry_name": "Holy Boehly",
        "event_total": 66,
        "has_played": true,
        "id": 10615121,
        "last_rank": 42506,
        "player_name": "Faris Iqbal",
        "rank": 32080,
        "rank_sort": 32182,
        "total": 2366
      },
      {
        "club_badge_src": null,
        "entry": 1524734,
        "entry_name": "Hosni",
        "event_total": 53,
        "has_played": true,
        "id": 10634568,
        "last_rank": 27976,
        "player_name": "salah hosny",
        "rank": 32080,
        "rank_sort": 32183,
        "total": 2366
      },
      {
        "club_badge_src": null,
        "entry": 1531977,
        "entry_name": "Writz case scenario",
        "event_total": 58,
        "has_played": true,
        "id": 10690765,
        "last_rank": 32879,
        "player_name": "yash yadav",
        "rank": 32080,
        "rank_sort": 32184,
        "total": 2366
      },
      {
        "club_badge_src": null,
        "entry": 1578921,
        "entry_name": "Boss FC",
        "event_total": 50,
        "has_played": true,
        "id": 11033104,
        "last_rank": 25002,
        "player_name": "Ahmed Elbossati",
        "rank": 32080,
        "rank_sort": 32185,
        "total": 2366
      },
      {
        "club_badge_src": null,
        "entry": 1751012,
        "entry_name": "FC ZullyWood",
        "event_total": 66,
        "has_played": true,
        "id": 12288618,
        "last_rank": 37589,
        "player_name": "Zulkarnain Zainal A",
        "rank": 32080,
        "rank_sort": 32186,
        "total": 2366
      },
      {
        "club_badge_src": null,
        "entry": 1874569,
        "entry_name": "Finding Mbeumo",
        "event_total": 59,
        "has_played": true,
        "id": 13197864,
        "last_rank": 29688,
        "player_name": "imran chaudhri",
        "rank": 32080,
        "rank_sort": 32187,
        "total": 2366
      },
      {
        "club_badge_src": null,
        "entry": 1925329,
        "entry_name": "Hibz Energi 25/26",
        "event_total": 63,
        "has_played": true,
        "id": 13578267,
        "last_rank": 33936,
        "player_name": "Jim Walker",
        "rank": 32080,
        "rank_sort": 32188,
        "total": 2366
      },
      {
        "club_badge_src": null,
        "entry": 1983070,
        "entry_name": "Hummus World",
        "event_total": 45,
        "has_played": true,
        "id": 14007029,
        "last_rank": 18113,
        "player_name": "Amar Ali",
        "rank": 32080,
        "rank_sort": 32189,
        "total": 2366
      },
      {
        "club_badge_src": null,
        "entry": 2004039,
        "entry_name": "Wynners",
        "event_total": 59,
        "has_played": true,
        "id": 14168436,
        "last_rank": 34293,
        "player_name": "Ant Wong",
        "rank": 32080,
        "rank_sort": 32190,
        "total": 2366
      },
      {
        "club_badge_src": null,
        "entry": 2008088,
        "entry_name": "Real Medina",
        "event_total": 59,
        "has_played": true,
        "id": 14198399,
        "last_rank": 34293,
        "player_name": "David Medina",
        "rank": 32080,
        "rank_sort": 32191,
        "total": 2366
      },
      {
        "club_badge_src": null,
        "entry": 2019500,
        "entry_name": "Ilhana's Bodega",
        "event_total": 64,
        "has_played": true,
        "id": 14288624,
        "last_rank": 35166,
        "player_name": "Erling Mj\u00f8lhus",
        "rank": 32080,
        "rank_sort": 32192,
        "total": 2366
      },
      {
        "club_badge_src": null,
        "entry": 2214557,
        "entry_name": "Helminho",
        "event_total": 66,
        "has_played": true,
        "id": 15770884,
        "last_rank": 42940,
        "player_name": "Omar Helmy",
        "rank": 32080,
        "rank_sort": 32193,
        "total": 2366
      },
      {
        "club_badge_src": null,
        "entry": 2298520,
        "entry_name": "Difke",
        "event_total": 56,
        "has_played": true,
        "id": 16393746,
        "last_rank": 30957,
        "player_name": "Marko Jovanovic",
        "rank": 32080,
        "rank_sort": 32194,
        "total": 2366
      },
      {
        "club_badge_src": null,
        "entry": 2393598,
        "entry_name": "Arsenal",
        "event_total": 59,
        "has_played": true,
        "id": 17099072,
        "last_rank": 34458,
        "player_name": "Tatiana Hajducka",
        "rank": 32080,
        "rank_sort": 32195,
        "total": 2366
      },
      {
        "club_badge_src": null,
        "entry": 2417321,
        "entry_name": "Bambacini FCeeni",
        "event_total": 56,
        "has_played": true,
        "id": 17280544,
        "last_rank": 30727,
        "player_name": "Adam Jarvis",
        "rank": 32080,
        "rank_sort": 32196,
        "total": 2366
      },
      {
        "club_badge_src": null,
        "entry": 2462970,
        "entry_name": "Hard number",
        "event_total": 67,
        "has_played": true,
        "id": 17617723,
        "last_rank": 44048,
        "player_name": "Qamar Ali",
        "rank": 32080,
        "rank_sort": 32197,
        "total": 2366
      },
      {
        "club_badge_src": null,
        "entry": 2478501,
        "entry_name": "The professor \ufffd",
        "event_total": 51,
        "has_played": true,
        "id": 17733661,
        "last_rank": 26230,
        "player_name": "Mostafa Abdullah",
        "rank": 32080,
        "rank_sort": 32198,
        "total": 2366
      },
      {
        "club_badge_src": null,
        "entry": 2580415,
        "entry_name": "Sesko Clubcard",
        "event_total": 68,
        "has_played": true,
        "id": 18520849,
        "last_rank": 45714,
        "player_name": "Nathan Hargreaves",
        "rank": 32080,
        "rank_sort": 32199,
        "total": 2366
      },
      {
        "club_badge_src": "https://fantasy.premierleague.com/gcs/plfpl-production-adobe-approved/plfpl-production/2652670/618fc75d-736a-4ab9-bd27-a4f3845a3472.png",
        "entry": 2652670,
        "entry_name": "London is Blue",
        "event_total": 65,
        "has_played": true,
        "id": 19067436,
        "last_rank": 41617,
        "player_name": "Greg Casey",
        "rank": 32080,
        "rank_sort": 32200,
        "total": 2366
      }
    ]
  }
}