{
  "last_updated_data": "2026-05-24T23:28:17Z",
  "league": {
    "admin_entry": null,
    "closed": false,
    "code_privacy": "p",
    "created": "2025-07-20T23:14:33.933835Z",
    "cup_league": 2815434,
    "has_cup": true,
    "id": 314,
    "league_type": "s",
    "max_entries": null,
    "name": "Overall",
    "rank": null,
    "scoring": "c",
    "start_event": 1
  },
  "new_entries": {
    "has_next": false,
    "page": 1,
    "results": []
  },
  "standings": {
    "has_next": true,
    "page": 289,
    "results": [
      {
        "club_badge_src": null,
        "entry": 1030358,
        "entry_name": "can't park there s\u00e1",
        "event_total": 49,
        "has_played": true,
        "id": 7128897,
        "last_rank": 8339,
        "player_name": "jenson duffy",
        "rank": 14354,
        "rank_sort": 14401,
        "total": 2389
      },
      {
        "club_badge_src": null,
        "entry": 1128435,
        "entry_name": "Frimping-pong",
        "event_total": 61,
        "has_played": true,
        "id": 7820534,
        "last_rank": 13821,
        "player_name": "Matthew Gilroy",
        "rank": 14354,
        "rank_sort": 14402,
        "total": 2389
      },
      {
        "club_badge_src": null,
        "entry": 1174455,
        "entry_name": "Safe Hands FC",
        "event_total": 61,
        "has_played": true,
        "id": 8148134,
        "last_rank": 16320,
        "player_name": "Teemu Orjatsalo",
        "rank": 14354,
        "rank_sort": 14403,
        "total": 2389
      },
      {
        "club_badge_src": "https://fantasy.premierleague.com/gcs/plfpl-production-adobe-approved/plfpl-production/1272982/ded43302-6bc2-4fbd-b0e0-99e027eceb55.png",
        "entry": 1272982,
        "entry_name": "A Cunha Mateta",
        "event_total": 61,
        "has_played": true,
        "id": 8845192,
        "last_rank": 16320,
        "player_name": "Callum Slack",
        "rank": 14354,
        "rank_sort": 14404,
        "total": 2389
      },
      {
        "club_badge_src": null,
        "entry": 1277190,
        "entry_name": "ShangNan",
        "event_total": 65,
        "has_played": true,
        "id": 8874772,
        "last_rank": 18790,
        "player_name": "Jie Shen",
        "rank": 14354,
        "rank_sort": 14405,
        "total": 2389
      },
      {
        "club_badge_src": null,
        "entry": 1286332,
        "entry_name": "Sou\u010dek Mate",
        "event_total": 56,
        "has_played": true,
        "id": 8938378,
        "last_rank": 13500,
        "player_name": "Terry Gladden",
        "rank": 14354,
        "rank_sort": 14406,
        "total": 2389
      },
      {
        "club_badge_src": null,
        "entry": 1347712,
        "entry_name": "$K_FC",
        "event_total": 65,
        "has_played": true,
        "id": 9369622,
        "last_rank": 18790,
        "player_name": "Steffan Kabul",
        "rank": 14354,
        "rank_sort": 14407,
        "total": 2389
      },
      {
        "club_badge_src": "https://fantasy.premierleague.com/gcs/plfpl-production-adobe-approved/plfpl-production/1453445/0350e77d-55a4-402b-ab7f-54288cf61796.png",
        "entry": 1453445,
        "entry_name": "Og bench press squad",
        "event_total": 68,
        "has_played": true,
        "id": 10127583,
        "last_rank": 21159,
        "player_name": "dan hareven",
        "rank": 14354,
        "rank_sort": 14408,
        "total": 2389
      },
      {
        "club_badge_src": null,
        "entry": 1481375,
        "entry_name": "Scholes Galore",
        "event_total": 65,
        "has_played": true,
        "id": 10329870,
        "last_rank": 18790,
        "player_name": "Danny Edge-Stenson",
        "rank": 14354,
        "rank_sort": 14409,
        "total": 2389
      },
      {
        "club_badge_src": null,
        "entry": 1558967,
        "entry_name": "2L8DaHero",
        "event_total": 62,
        "has_played": true,
        "id": 10887199,
        "last_rank": 16959,
        "player_name": "Tommy Creelman",
        "rank": 14354,
        "rank_sort": 14410,
        "total": 2389
      },
      {
        "club_badge_src": null,
        "entry": 1559640,
        "entry_name": "4 better or 4 Wirtz",
        "event_total": 71,
        "has_played": true,
        "id": 10891808,
        "last_rank": 23522,
        "player_name": "Paul Cowgill",
        "rank": 14354,
        "rank_sort": 14411,
        "total": 2389
      },
      {
        "club_badge_src": null,
        "entry": 1562744,
        "entry_name": "GALACTICOS",
        "event_total": 49,
        "has_played": true,
        "id": 10915864,
        "last_rank": 10102,
        "player_name": "Faizel Abrahams",
        "rank": 14354,
        "rank_sort": 14412,
        "total": 2389
      },
      {
        "club_badge_src": null,
        "entry": 1734295,
        "entry_name": "sneaky golem",
        "event_total": 61,
        "has_played": true,
        "id": 12166063,
        "last_rank": 16320,
        "player_name": "Dylan Murphy",
        "rank": 14354,
        "rank_sort": 14413,
        "total": 2389
      },
      {
        "club_badge_src": null,
        "entry": 1739946,
        "entry_name": "HikiCS",
        "event_total": 64,
        "has_played": true,
        "id": 12207580,
        "last_rank": 15550,
        "player_name": "Leevi V\u00e4\u00e4n\u00e4nen",
        "rank": 14354,
        "rank_sort": 14414,
        "total": 2389
      },
      {
        "club_badge_src": null,
        "entry": 1756798,
        "entry_name": "daredevilz",
        "event_total": 67,
        "has_played": true,
        "id": 12333690,
        "last_rank": 20147,
        "player_name": "Kwok Yann Boo",
        "rank": 14354,
        "rank_sort": 14415,
        "total": 2389
      },
      {
        "club_badge_src": null,
        "entry": 1821139,
        "entry_name": "LeHampton Meridiem",
        "event_total": 54,
        "has_played": true,
        "id": 12807670,
        "last_rank": 12322,
        "player_name": "Darren Parker",
        "rank": 14354,
        "rank_sort": 14416,
        "total": 2389
      },
      {
        "club_badge_src": null,
        "entry": 1858553,
        "entry_name": "Marder TLV FC",
        "event_total": 57,
        "has_played": true,
        "id": 13080289,
        "last_rank": 11642,
        "player_name": "Daniel Marder",
        "rank": 14354,
        "rank_sort": 14417,
        "total": 2389
      },
      {
        "club_badge_src": null,
        "entry": 1912342,
        "entry_name": "Top Dier FC",
        "event_total": 47,
        "has_played": true,
        "id": 13482658,
        "last_rank": 9142,
        "player_name": "Marcus Wyllie",
        "rank": 14354,
        "rank_sort": 14418,
        "total": 2389
      },
      {
        "club_badge_src": null,
        "entry": 1952848,
        "entry_name": "AndVar 23 FC",
        "event_total": 47,
        "has_played": true,
        "id": 13776045,
        "last_rank": 9248,
        "player_name": "Andres Vargas",
        "rank": 14354,
        "rank_sort": 14419,
        "total": 2389
      },
      {
        "club_badge_src": null,
        "entry": 2039150,
        "entry_name": "Stolpskotten",
        "event_total": 57,
        "has_played": true,
        "id": 14439934,
        "last_rank": 13754,
        "player_name": "Magnus Auoja",
        "rank": 14354,
        "rank_sort": 14420,
        "total": 2389
      },
      {
        "club_badge_src": null,
        "entry": 2336063,
        "entry_name": "Bruno Dos Tre\u015b",
        "event_total": 76,
        "has_played": true,
        "id": 16668024,
        "last_rank": 27770,
        "player_name": "Anthony Dunn",
        "rank": 14354,
        "rank_sort": 14421,
        "total": 2389
      },
      {
        "club_badge_src": "https://fantasy.premierleague.com/gcs/plfpl-production-adobe-approved/plfpl-production/2467974/57c1aac1-bfa7-4372-a480-1ba1ea6e22fb.png",
        "entry": 2467974,
        "entry_name": "Ranjang Ternoda",
        "event_total": 48,
        "has_played": true,
        "id": 17654538,
        "last_rank": 8032,
        "player_name": "Ary Wibowo",
        "rank": 14354,
        "rank_sort": 14422,
        "total": 2389
      },
      {
        "club_badge_src": null,
        "entry": 2570758,
        "entry_name": "Folkefiender",
        "event_total": 36,
        "has_played": true,
        "id": 18445779,
        "last_rank": 5688,
        "player_name": "\u00d8ystein Hermansen",
        "rank": 14354,
        "rank_sort": 14423,
        "total": 2389
      },
      {
        "club_badge_src": null,
        "entry": 2610151,
        "entry_name": "Ulriksen",
        "event_total": 60,
        "has_played": true,
        "id": 18752260,
        "last_rank": 15550,
        "player_name": "Simen Ulriksen",
        "rank": 14354,
        "rank_sort": 14424,
        "total": 2389
      },
      {
        "club_badge_src": null,
        "entry": 2912120,
        "entry_name": "Sorted15",
        "event_total": 62,
        "has_played": true,
        "id": 21344457,
        "last_rank": 14370,
        "player_name": "Aseem Prabhat",
        "rank": 14354,
        "rank_sort": 14425,
        "total": 2389
      },
      {
        "club_badge_src": null,
        "entry": 3021856,
        "entry_name": "King Kenny",
        "event_total": 75,
        "has_played": true,
        "id": 22233490,
        "last_rank": 27020,
        "player_name": "Martin Stein",
        "rank": 14354,
        "rank_sort": 14426,
        "total": 2389
      },
      {
        "club_badge_src": null,
        "entry": 3105748,
        "entry_name": "Bruno, dos, tres",
        "event_total": 65,
        "has_played": true,
        "id": 22898598,
        "last_rank": 18985,
        "player_name": "Kish Diaus",
        "rank": 14354,
        "rank_sort": 14427,
        "total": 2389
      },
      {
        "club_badge_src": null,
        "entry": 3147166,
        "entry_name": "Abo Younis",
        "event_total": 67,
        "has_played": true,
        "id": 23237885,
        "last_rank": 20416,
        "player_name": "Ahmed Sayed ----",
        "rank": 14354,
        "rank_sort": 14428,
        "total": 2389
      },
      {
        "club_badge_src": null,
        "entry": 3169427,
        "entry_name": "itcouldbeitmaybeitis",
        "event_total": 58,
        "has_played": true,
        "id": 23416385,
        "last_rank": 14496,
        "player_name": "Bounce Angeles",
        "rank": 14354,
        "rank_sort": 14429,
        "total": 2389
      },
      {
        "club_badge_src": null,
        "entry": 3448573,
        "entry_name": "Moyes will be moyes",
        "event_total": 67,
        "has_played": true,
        "id": 25624593,
        "last_rank": 20416,
        "player_name": "Freddie Calder",
        "rank": 14354,
        "rank_sort": 14430,
        "total": 2389
      },
      {
        "club_badge_src": null,
        "entry": 3565221,
        "entry_name": "Fire in the Hojlund",
        "event_total": 51,
        "has_played": true,
        "id": 26546229,
        "last_rank": 10805,
        "player_name": "Niall McWhir",
        "rank": 14354,
        "rank_sort": 14431,
        "total": 2389
      },
      {
        "club_badge_src": null,
        "entry": 3587212,
        "entry_name": "Ruud Mullets",
        "event_total": 56,
        "has_played": true,
        "id": 26714910,
        "last_rank": 13401,
        "player_name": "John Mallinson",
        "rank": 14354,
        "rank_sort": 14432,
        "total": 2389
      },
      {
        "club_badge_src": null,
        "entry": 3651228,
        "entry_name": "SRA",
        "event_total": 66,
        "has_played": true,
        "id": 27216022,
        "last_rank": 19544,
        "player_name": "Stefan Ralph",
        "rank": 14354,
        "rank_sort": 14433,
        "total": 2389
      },
      {
        "club_badge_src": "https://fantasy.premierleague.com/gcs/plfpl-production-adobe-approved/plfpl-production/3670766/fac1687b-50cb-4c44-9ce8-f50213573d84.png",
        "entry": 3670766,
        "entry_name": "BBKing",
        "event_total": 68,
        "has_played": true,
        "id": 27376812,
        "last_rank": 21159,
        "player_name": "Bla\u017e Budja",
        "rank": 14354,
        "rank_sort": 14434,
        "total": 2389
      },
      {
        "club_badge_src": "https://fantasy.premierleague.com/gcs/plfpl-production-adobe-approved/plfpl-production/3809903/7852a8ee-26aa-44bf-b348-b700e6a46861.png",
        "entry": 3809903,
        "entry_name": "Magic Donkey",
        "event_total": 73,
        "has_played": true,
        "id": 28487241,
        "last_rank": 25002,
        "player_name": "Tom Hurst",
        "rank": 14354,
        "rank_sort": 14435,
        "total": 2389
      },
      {
        "club_badge_src": null,
        "entry": 3824823,
        "entry_name": "\u0e40\u0e25\u0e48\u0e19\u0e21\u0e35\u0e17\u0e23\u0e07\u0e08\u0e30\u0e07\u0e07\u0e21\u0e32\u0e01",
        "event_total": 52,
        "has_played": true,
        "id": 28608520,
        "last_rank": 11237,
        "player_name": "chano wangsuekul",
        "rank": 14354,
        "rank_sort": 14436,
        "total": 2389
      },
      {
        "club_badge_src": null,
        "entry": 4049929,
        "entry_name": "ATHLETIC MILAN",
        "event_total": 69,
        "has_played": true,
        "id": 30548564,
        "last_rank": 21775,
        "player_name": "Chinedu Okoli",
        "rank": 14354,
        "rank_sort": 14437,
        "total": 2389
      },
      {
        "club_badge_src": null,
        "entry": 4061966,
        "entry_name": "Mar-Knee",
        "event_total": 60,
        "has_played": true,
        "id": 30653089,
        "last_rank": 15416,
        "player_name": "Tom Sargent",
        "rank": 14354,
        "rank_sort": 14438,
        "total": 2389
      },
      {
        "club_badge_src": null,
        "entry": 4082866,
        "entry_name": "Rimrod United",
        "event_total": 59,
        "has_played": true,
        "id": 30822557,
        "last_rank": 14926,
        "player_name": "Ryan Price",
        "rank": 14354,
        "rank_sort": 14439,
        "total": 2389
      },
      {
        "club_badge_src": null,
        "entry": 4224682,
        "entry_name": "Danny Ings fan",
        "event_total": 65,
        "has_played": true,
        "id": 32004461,
        "last_rank": 16062,
        "player_name": "Corey Lowe",
        "rank": 14354,
        "rank_sort": 14440,
        "total": 2389
      },
      {
        "club_badge_src": null,
        "entry": 4249871,
        "entry_name": "Grespinsystem",
        "event_total": 59,
        "has_played": true,
        "id": 32215680,
        "last_rank": 12705,
        "player_name": "Graham Essex",
        "rank": 14354,
        "rank_sort": 14441,
        "total": 2389
      },
      {
        "club_badge_src": "https://fantasy.premierleague.com/gcs/plfpl-production-adobe-approved/plfpl-production/4279379/47779895-2bc9-4bb7-8564-96843beb9256.png",
        "entry": 4279379,
        "entry_name": "Alstruijkblieft",
        "event_total": 49,
        "has_played": true,
        "id": 32454864,
        "last_rank": 10031,
        "player_name": "Alp Revanbahs",
        "rank": 14354,
        "rank_sort": 14442,
        "total": 2389
      },
      {
        "club_badge_src": null,
        "entry": 4649050,
        "entry_name": "cooked fc",
        "event_total": 62,
        "has_played": true,
        "id": 35567035,
        "last_rank": 14292,
        "player_name": "William Watson",
        "rank": 14354,
        "rank_sort": 14443,
        "total": 2389
      },
      {
        "club_badge_src": null,
        "entry": 4679521,
        "entry_name": "Avondale celtic",
        "event_total": 67,
        "has_played": true,
        "id": 35852623,
        "last_rank": 20416,
        "player_name": "Deco Moore",
        "rank": 14354,
        "rank_sort": 14444,
        "total": 2389
      },
      {
        "club_badge_src": null,
        "entry": 4697822,
        "entry_name": "Dubravkacadabra",
        "event_total": 61,
        "has_played": true,
        "id": 36012664,
        "last_rank": 13821,
        "player_name": "Josh Kettle",
        "rank": 14354,
        "rank_sort": 14445,
        "total": 2389
      },
      {
        "club_badge_src": null,
        "entry": 4895309,
        "entry_name": "Galacticos",
        "event_total": 48,
        "has_played": true,
        "id": 37745708,
        "last_rank": 9536,
        "player_name": "Joe McNulty",
        "rank": 14354,
        "rank_sort": 14446,
        "total": 2389
      },
      {
        "club_badge_src": null,
        "entry": 5101541,
        "entry_name": "Eze come eze go",
        "event_total": 57,
        "has_played": true,
        "id": 39432125,
        "last_rank": 13821,
        "player_name": "Jest Wong",
        "rank": 14354,
        "rank_sort": 14447,
        "total": 2389
      },
      {
        "club_badge_src": null,
        "entry": 5246441,
        "entry_name": "Scholes Scores Goals",
        "event_total": 72,
        "has_played": true,
        "id": 40660110,
        "last_rank": 20983,
        "player_name": "Karen Scholes",
        "rank": 14354,
        "rank_sort": 14448,
        "total": 2389
      },
      {
        "club_badge_src": null,
        "entry": 5411264,
        "entry_name": "Barker",
        "event_total": 61,
        "has_played": true,
        "id": 42080334,
        "last_rank": 13821,
        "player_name": "Harrison Barker",
        "rank": 14354,
        "rank_sort": 14449,
        "total": 2389
      },
      {
        "club_badge_src": null,
        "entry": 5569830,
        "entry_name": "ThomastheFrankengine",
        "event_total": 61,
        "has_played": true,
        "id": 43492239,
        "last_rank": 16320,
        "player_name": "Mike Doherty",
        "rank": 14354,
        "rank_sort": 14450,
        "total": 2389
      }
    ]
  }
}