{
  "last_updated_data": "2026-05-24T23:28:17Z",
  "league": {
    "admin_entry": null,
    "closed": false,
    "code_privacy": "p",
    "created": "2025-07-20T23:14:33.933835Z",
    "cup_league": 2815434,
    "has_cup": true,
    "id": 314,
    "league_type": "s",
    "max_entries": null,
    "name": "Overall",
    "rank": null,
    "scoring": "c",
    "start_event": 1
  },
  "new_entries": {
    "has_next": false,
    "page": 1,
    "results": []
  },
  "standings": {
    "has_next": true,
    "page": 1643,
    "results": [
      {
        "club_badge_src": null,
        "entry": 908245,
        "entry_name": "Sher Squad",
        "event_total": 53,
        "has_played": true,
        "id": 6243545,
        "last_rank": 75139,
        "player_name": "Harman Sidhu",
        "rank": 81984,
        "rank_sort": 82101,
        "total": 2334
      },
      {
        "club_badge_src": "https://fantasy.premierleague.com/gcs/plfpl-production-adobe-approved/plfpl-production/949940/cd38d09a-d9a5-4aee-b267-35b851490581.png",
        "entry": 949940,
        "entry_name": "Santos Reijnders",
        "event_total": 59,
        "has_played": true,
        "id": 6544242,
        "last_rank": 88249,
        "player_name": "Thomas Boyd",
        "rank": 81984,
        "rank_sort": 82102,
        "total": 2334
      },
      {
        "club_badge_src": null,
        "entry": 957540,
        "entry_name": "Reebok or the Nike",
        "event_total": 60,
        "has_played": true,
        "id": 6597845,
        "last_rank": 90625,
        "player_name": "Angus Winter",
        "rank": 81984,
        "rank_sort": 82103,
        "total": 2334
      },
      {
        "club_badge_src": null,
        "entry": 958142,
        "entry_name": "\u0160vih\u00e1ci",
        "event_total": 57,
        "has_played": true,
        "id": 6602184,
        "last_rank": 83934,
        "player_name": "Luk\u00e1\u0161 Vacata",
        "rank": 81984,
        "rank_sort": 82104,
        "total": 2334
      },
      {
        "club_badge_src": null,
        "entry": 970355,
        "entry_name": "Josef  Wirtzal",
        "event_total": 59,
        "has_played": true,
        "id": 6688626,
        "last_rank": 88249,
        "player_name": "Darren Burke",
        "rank": 81984,
        "rank_sort": 82105,
        "total": 2334
      },
      {
        "club_badge_src": null,
        "entry": 987557,
        "entry_name": "FringPong Paddle",
        "event_total": 75,
        "has_played": true,
        "id": 6809299,
        "last_rank": 132281,
        "player_name": "Jake Showler",
        "rank": 81984,
        "rank_sort": 82106,
        "total": 2334
      },
      {
        "club_badge_src": null,
        "entry": 1001465,
        "entry_name": "No Fox Given",
        "event_total": 63,
        "has_played": true,
        "id": 6922687,
        "last_rank": 98011,
        "player_name": "Conor McGrath",
        "rank": 81984,
        "rank_sort": 82107,
        "total": 2334
      },
      {
        "club_badge_src": null,
        "entry": 1021254,
        "entry_name": "Frondes et Flammas",
        "event_total": 63,
        "has_played": true,
        "id": 7065697,
        "last_rank": 98073,
        "player_name": "Josef Kub\u00edk",
        "rank": 81984,
        "rank_sort": 82108,
        "total": 2334
      },
      {
        "club_badge_src": null,
        "entry": 1028273,
        "entry_name": "No Kane, No Gain",
        "event_total": 67,
        "has_played": true,
        "id": 7114426,
        "last_rank": 108959,
        "player_name": "Harry Bartlett",
        "rank": 81984,
        "rank_sort": 82109,
        "total": 2334
      },
      {
        "club_badge_src": null,
        "entry": 1032259,
        "entry_name": "kenmo FC.",
        "event_total": 31,
        "has_played": true,
        "id": 7141953,
        "last_rank": 38644,
        "player_name": "Ken Bancroft",
        "rank": 81984,
        "rank_sort": 82110,
        "total": 2334
      },
      {
        "club_badge_src": null,
        "entry": 1047119,
        "entry_name": "Mena",
        "event_total": 73,
        "has_played": true,
        "id": 7246751,
        "last_rank": 126088,
        "player_name": "Mena Kadhem",
        "rank": 81984,
        "rank_sort": 82111,
        "total": 2334
      },
      {
        "club_badge_src": null,
        "entry": 1061360,
        "entry_name": "Shaw Ate Dalot",
        "event_total": 67,
        "has_played": true,
        "id": 7347187,
        "last_rank": 108567,
        "player_name": "Matthew Derbyshire",
        "rank": 81984,
        "rank_sort": 82112,
        "total": 2334
      },
      {
        "club_badge_src": null,
        "entry": 1062669,
        "entry_name": "Bu 7md",
        "event_total": 61,
        "has_played": true,
        "id": 7356484,
        "last_rank": 93883,
        "player_name": "Ammar Alnaqbi",
        "rank": 81984,
        "rank_sort": 82113,
        "total": 2334
      },
      {
        "club_badge_src": null,
        "entry": 1101770,
        "entry_name": "Askula",
        "event_total": 20,
        "has_played": true,
        "id": 7631628,
        "last_rank": 26827,
        "player_name": "Joonas Sillanp\u00e4\u00e4",
        "rank": 81984,
        "rank_sort": 82114,
        "total": 2334
      },
      {
        "club_badge_src": "https://fantasy.premierleague.com/gcs/plfpl-production-adobe-approved/plfpl-production/1105542/fc2ea835-872b-42f1-8df4-d0e1b32a1777.png",
        "entry": 1105542,
        "entry_name": "XG Syndicate",
        "event_total": 38,
        "has_played": true,
        "id": 7657731,
        "last_rank": 48642,
        "player_name": "ricky mbinga",
        "rank": 81984,
        "rank_sort": 82115,
        "total": 2334
      },
      {
        "club_badge_src": null,
        "entry": 1124423,
        "entry_name": "SecondZebras",
        "event_total": 54,
        "has_played": true,
        "id": 7792512,
        "last_rank": 77258,
        "player_name": "Rohit Nair",
        "rank": 81984,
        "rank_sort": 82116,
        "total": 2334
      },
      {
        "club_badge_src": null,
        "entry": 1137029,
        "entry_name": "a Kerkez!?",
        "event_total": 58,
        "has_played": true,
        "id": 7881568,
        "last_rank": 86304,
        "player_name": "Harry Moffett",
        "rank": 81984,
        "rank_sort": 82117,
        "total": 2334
      },
      {
        "club_badge_src": null,
        "entry": 1159815,
        "entry_name": "The Jolly Boys",
        "event_total": 60,
        "has_played": true,
        "id": 8045379,
        "last_rank": 91006,
        "player_name": "Odhran Mc Guinness",
        "rank": 81984,
        "rank_sort": 82118,
        "total": 2334
      },
      {
        "club_badge_src": null,
        "entry": 1176588,
        "entry_name": "Real Sosobad",
        "event_total": 60,
        "has_played": true,
        "id": 8163773,
        "last_rank": 90746,
        "player_name": "Lee Bowers",
        "rank": 81984,
        "rank_sort": 82119,
        "total": 2334
      },
      {
        "club_badge_src": null,
        "entry": 1193951,
        "entry_name": "Mcginn with a chance",
        "event_total": 69,
        "has_played": true,
        "id": 8284042,
        "last_rank": 114574,
        "player_name": "Stuart Cox",
        "rank": 81984,
        "rank_sort": 82120,
        "total": 2334
      },
      {
        "club_badge_src": null,
        "entry": 1198287,
        "entry_name": "Newcrecepelo4Bilbao",
        "event_total": 57,
        "has_played": true,
        "id": 8315399,
        "last_rank": 83934,
        "player_name": "Tom\u00e1s Arsuaga",
        "rank": 81984,
        "rank_sort": 82121,
        "total": 2334
      },
      {
        "club_badge_src": null,
        "entry": 1213667,
        "entry_name": "Change Name",
        "event_total": 46,
        "has_played": true,
        "id": 8424150,
        "last_rank": 61950,
        "player_name": "Jack Higgins",
        "rank": 81984,
        "rank_sort": 82122,
        "total": 2334
      },
      {
        "club_badge_src": null,
        "entry": 1216861,
        "entry_name": "Hitman",
        "event_total": 48,
        "has_played": true,
        "id": 8446210,
        "last_rank": 65163,
        "player_name": "Ahmad Sabhan",
        "rank": 81984,
        "rank_sort": 82123,
        "total": 2334
      },
      {
        "club_badge_src": null,
        "entry": 1231416,
        "entry_name": "Udlame FC",
        "event_total": 71,
        "has_played": true,
        "id": 8550809,
        "last_rank": 120438,
        "player_name": "Sifiso Mgaga",
        "rank": 81984,
        "rank_sort": 82124,
        "total": 2334
      },
      {
        "club_badge_src": null,
        "entry": 1249942,
        "entry_name": "aWengers",
        "event_total": 80,
        "has_played": true,
        "id": 8681003,
        "last_rank": 149530,
        "player_name": "Sergei Spiridonov",
        "rank": 81984,
        "rank_sort": 82125,
        "total": 2334
      },
      {
        "club_badge_src": null,
        "entry": 1266643,
        "entry_name": "ChickenTikkaMoSalah",
        "event_total": 55,
        "has_played": true,
        "id": 8800857,
        "last_rank": 79079,
        "player_name": "Nabil Abdel-Rahman",
        "rank": 81984,
        "rank_sort": 82126,
        "total": 2334
      },
      {
        "club_badge_src": null,
        "entry": 1286964,
        "entry_name": "Under my Cucurella",
        "event_total": 59,
        "has_played": true,
        "id": 8942777,
        "last_rank": 79079,
        "player_name": "Daniel Hunt",
        "rank": 81984,
        "rank_sort": 82127,
        "total": 2334
      },
      {
        "club_badge_src": null,
        "entry": 1299634,
        "entry_name": "WeDontTalkAboutBruno",
        "event_total": 52,
        "has_played": true,
        "id": 9032393,
        "last_rank": 73038,
        "player_name": "Ryan herbert",
        "rank": 81984,
        "rank_sort": 82128,
        "total": 2334
      },
      {
        "club_badge_src": null,
        "entry": 1301445,
        "entry_name": "FC Impalers",
        "event_total": 65,
        "has_played": true,
        "id": 9045031,
        "last_rank": 103526,
        "player_name": "Inzam Hossain",
        "rank": 81984,
        "rank_sort": 82129,
        "total": 2334
      },
      {
        "club_badge_src": null,
        "entry": 1316343,
        "entry_name": "Relentless F.C",
        "event_total": 68,
        "has_played": true,
        "id": 9149343,
        "last_rank": 111669,
        "player_name": "Thomas Cloudesley",
        "rank": 81984,
        "rank_sort": 82130,
        "total": 2334
      },
      {
        "club_badge_src": null,
        "entry": 1322012,
        "entry_name": "Flawless Viktory",
        "event_total": 58,
        "has_played": true,
        "id": 9189298,
        "last_rank": 86304,
        "player_name": "Tom Markovec",
        "rank": 81984,
        "rank_sort": 82131,
        "total": 2334
      },
      {
        "club_badge_src": "https://fantasy.premierleague.com/gcs/plfpl-production-adobe-approved/plfpl-production/1379608/adc5ef74-b8cc-4ebc-b149-a91ac6002318.png",
        "entry": 1379608,
        "entry_name": "Saka'n ma balls",
        "event_total": 53,
        "has_played": true,
        "id": 9590213,
        "last_rank": 66848,
        "player_name": "Regan Heatley",
        "rank": 81984,
        "rank_sort": 82132,
        "total": 2334
      },
      {
        "club_badge_src": null,
        "entry": 1398684,
        "entry_name": "FC Robi\u0119WasJakChc\u0119",
        "event_total": 42,
        "has_played": true,
        "id": 9730886,
        "last_rank": 54667,
        "player_name": "Tomasz Popek",
        "rank": 81984,
        "rank_sort": 82133,
        "total": 2334
      },
      {
        "club_badge_src": null,
        "entry": 1411788,
        "entry_name": "Snoop Udogie dogg",
        "event_total": 48,
        "has_played": true,
        "id": 9824780,
        "last_rank": 65163,
        "player_name": "Mark Gabrel",
        "rank": 81984,
        "rank_sort": 82134,
        "total": 2334
      },
      {
        "club_badge_src": null,
        "entry": 1451834,
        "entry_name": "Gangsters Allardyce",
        "event_total": 68,
        "has_played": true,
        "id": 10116337,
        "last_rank": 111669,
        "player_name": "Korvah Oberly",
        "rank": 81984,
        "rank_sort": 82135,
        "total": 2334
      },
      {
        "club_badge_src": null,
        "entry": 1513661,
        "entry_name": "Top of The League",
        "event_total": 62,
        "has_played": true,
        "id": 10557188,
        "last_rank": 95890,
        "player_name": "Jack Harvey",
        "rank": 81984,
        "rank_sort": 82136,
        "total": 2334
      },
      {
        "club_badge_src": null,
        "entry": 1536294,
        "entry_name": "Moda3i",
        "event_total": 55,
        "has_played": true,
        "id": 10721598,
        "last_rank": 79431,
        "player_name": "seif Hossam",
        "rank": 81984,
        "rank_sort": 82137,
        "total": 2334
      },
      {
        "club_badge_src": null,
        "entry": 1572797,
        "entry_name": "StoneColeStevePalmer",
        "event_total": 62,
        "has_played": true,
        "id": 10989906,
        "last_rank": 95640,
        "player_name": "Edvinas Norkus",
        "rank": 81984,
        "rank_sort": 82138,
        "total": 2334
      },
      {
        "club_badge_src": null,
        "entry": 1577330,
        "entry_name": "Umri_Neandrej",
        "event_total": 36,
        "has_played": true,
        "id": 11021937,
        "last_rank": 45416,
        "player_name": "Luka Novkovic",
        "rank": 81984,
        "rank_sort": 82139,
        "total": 2334
      },
      {
        "club_badge_src": null,
        "entry": 1616042,
        "entry_name": "\u0627\u0644\u062d\u0644\u0645 \u0627\u0644\u0645\u063a\u0631\u0628\u064a",
        "event_total": 49,
        "has_played": true,
        "id": 11307914,
        "last_rank": 67422,
        "player_name": "MohaMed Z\u00e0wj\u00e5\u013e",
        "rank": 81984,
        "rank_sort": 82140,
        "total": 2334
      },
      {
        "club_badge_src": null,
        "entry": 1616280,
        "entry_name": "Sarr Wars",
        "event_total": 59,
        "has_played": true,
        "id": 11309593,
        "last_rank": 88185,
        "player_name": "Bj\u00f8rn Salomonsen",
        "rank": 81984,
        "rank_sort": 82141,
        "total": 2334
      },
      {
        "club_badge_src": null,
        "entry": 1663188,
        "entry_name": "Team Berjano",
        "event_total": 75,
        "has_played": true,
        "id": 11644575,
        "last_rank": 132427,
        "player_name": "Pedro Berjano",
        "rank": 81984,
        "rank_sort": 82142,
        "total": 2334
      },
      {
        "club_badge_src": null,
        "entry": 1670571,
        "entry_name": "FITZ-G FC",
        "event_total": 43,
        "has_played": true,
        "id": 11696271,
        "last_rank": 56369,
        "player_name": "Shane Fitz-Gerald",
        "rank": 81984,
        "rank_sort": 82143,
        "total": 2334
      },
      {
        "club_badge_src": null,
        "entry": 1695280,
        "entry_name": "3D FC",
        "event_total": 47,
        "has_played": true,
        "id": 11873671,
        "last_rank": 63390,
        "player_name": "Dhamo Dhar Dhungyel",
        "rank": 81984,
        "rank_sort": 82144,
        "total": 2334
      },
      {
        "club_badge_src": null,
        "entry": 1709474,
        "entry_name": "The Wanderers",
        "event_total": 41,
        "has_played": true,
        "id": 11977389,
        "last_rank": 53023,
        "player_name": "Sammy Stewart",
        "rank": 81984,
        "rank_sort": 82145,
        "total": 2334
      },
      {
        "club_badge_src": null,
        "entry": 1778691,
        "entry_name": "WeedySide",
        "event_total": 70,
        "has_played": true,
        "id": 12496171,
        "last_rank": 116953,
        "player_name": "Parinay Singhal",
        "rank": 81984,
        "rank_sort": 82146,
        "total": 2334
      },
      {
        "club_badge_src": null,
        "entry": 1809004,
        "entry_name": "Shaw Thing",
        "event_total": 58,
        "has_played": true,
        "id": 12718291,
        "last_rank": 86304,
        "player_name": "Jason Bull",
        "rank": 81984,
        "rank_sort": 82147,
        "total": 2334
      },
      {
        "club_badge_src": "https://fantasy.premierleague.com/gcs/plfpl-production-adobe-approved/plfpl-production/1841046/b36a4eac-91b0-4cab-9164-9b55ac3a01e8.png",
        "entry": 1841046,
        "entry_name": "Openda Vrij",
        "event_total": 40,
        "has_played": true,
        "id": 12952575,
        "last_rank": 51720,
        "player_name": "Kyriece HB",
        "rank": 81984,
        "rank_sort": 82148,
        "total": 2334
      },
      {
        "club_badge_src": null,
        "entry": 1851012,
        "entry_name": "Pickford & Destroy",
        "event_total": 51,
        "has_played": true,
        "id": 13025078,
        "last_rank": 70985,
        "player_name": "Mladen Milanovic",
        "rank": 81984,
        "rank_sort": 82149,
        "total": 2334
      },
      {
        "club_badge_src": null,
        "entry": 1856908,
        "entry_name": "Poonie",
        "event_total": 66,
        "has_played": true,
        "id": 13068123,
        "last_rank": 106259,
        "player_name": "David Poon",
        "rank": 81984,
        "rank_sort": 82150,
        "total": 2334
      }
    ]
  }
}