{
  "last_updated_data": "2026-05-24T23:28:17Z",
  "league": {
    "admin_entry": null,
    "closed": false,
    "code_privacy": "p",
    "created": "2025-07-20T23:14:33.933835Z",
    "cup_league": 2815434,
    "has_cup": true,
    "id": 314,
    "league_type": "s",
    "max_entries": null,
    "name": "Overall",
    "rank": null,
    "scoring": "c",
    "start_event": 1
  },
  "new_entries": {
    "has_next": false,
    "page": 1,
    "results": []
  },
  "standings": {
    "has_next": true,
    "page": 59,
    "results": [
      {
        "club_badge_src": null,
        "entry": 1618485,
        "entry_name": "Rose City Park SC",
        "event_total": 61,
        "has_played": true,
        "id": 11325623,
        "last_rank": 2620,
        "player_name": "Taylor Lauritsen",
        "rank": 2898,
        "rank_sort": 2901,
        "total": 2427
      },
      {
        "club_badge_src": null,
        "entry": 2547048,
        "entry_name": "Slot into first",
        "event_total": 63,
        "has_played": true,
        "id": 18257561,
        "last_rank": 2907,
        "player_name": "Jack Baresic",
        "rank": 2898,
        "rank_sort": 2902,
        "total": 2427
      },
      {
        "club_badge_src": null,
        "entry": 4849345,
        "entry_name": "Pardeep FC",
        "event_total": 69,
        "has_played": true,
        "id": 37361088,
        "last_rank": 4657,
        "player_name": "Pardeep Basi",
        "rank": 2898,
        "rank_sort": 2903,
        "total": 2427
      },
      {
        "club_badge_src": null,
        "entry": 5358940,
        "entry_name": "Angels",
        "event_total": 76,
        "has_played": true,
        "id": 41617497,
        "last_rank": 5241,
        "player_name": "Jannicke Dahlberg",
        "rank": 2898,
        "rank_sort": 2904,
        "total": 2427
      },
      {
        "club_badge_src": null,
        "entry": 5380424,
        "entry_name": "What The Skelly?!",
        "event_total": 59,
        "has_played": true,
        "id": 41825050,
        "last_rank": 2363,
        "player_name": "Ishaq Bolarinwa",
        "rank": 2898,
        "rank_sort": 2905,
        "total": 2427
      },
      {
        "club_badge_src": null,
        "entry": 8738569,
        "entry_name": "Ubunthu",
        "event_total": 49,
        "has_played": true,
        "id": 72953941,
        "last_rank": 1420,
        "player_name": "Botho Koldeweij",
        "rank": 2898,
        "rank_sort": 2906,
        "total": 2427
      },
      {
        "club_badge_src": null,
        "entry": 533591,
        "entry_name": "TJ United",
        "event_total": 50,
        "has_played": true,
        "id": 3590433,
        "last_rank": 1491,
        "player_name": "Tom Jackson",
        "rank": 2907,
        "rank_sort": 2907,
        "total": 2427
      },
      {
        "club_badge_src": null,
        "entry": 1846323,
        "entry_name": "Cancelo Culture",
        "event_total": 60,
        "has_played": true,
        "id": 12991073,
        "last_rank": 2491,
        "player_name": "Michael Kitley",
        "rank": 2907,
        "rank_sort": 2908,
        "total": 2427
      },
      {
        "club_badge_src": null,
        "entry": 2176786,
        "entry_name": "Kudus To Me",
        "event_total": 47,
        "has_played": true,
        "id": 15479100,
        "last_rank": 1587,
        "player_name": "Trevor Ketley",
        "rank": 2907,
        "rank_sort": 2909,
        "total": 2427
      },
      {
        "club_badge_src": null,
        "entry": 2289481,
        "entry_name": "munnic",
        "event_total": 65,
        "has_played": true,
        "id": 16328103,
        "last_rank": 3202,
        "player_name": "drew munn",
        "rank": 2907,
        "rank_sort": 2910,
        "total": 2427
      },
      {
        "club_badge_src": null,
        "entry": 412977,
        "entry_name": "Livin' Saliba Loca",
        "event_total": 64,
        "has_played": true,
        "id": 2768781,
        "last_rank": 3046,
        "player_name": "Jose Manuel Blanco Ramos",
        "rank": 2911,
        "rank_sort": 2911,
        "total": 2427
      },
      {
        "club_badge_src": null,
        "entry": 536088,
        "entry_name": "Championreturns2026",
        "event_total": 63,
        "has_played": true,
        "id": 3608075,
        "last_rank": 3502,
        "player_name": "gerard sinovich",
        "rank": 2911,
        "rank_sort": 2912,
        "total": 2427
      },
      {
        "club_badge_src": null,
        "entry": 8899880,
        "entry_name": "lets get Messi",
        "event_total": 63,
        "has_played": true,
        "id": 74507966,
        "last_rank": 3502,
        "player_name": "Emma Howard",
        "rank": 2911,
        "rank_sort": 2913,
        "total": 2427
      },
      {
        "club_badge_src": null,
        "entry": 19092,
        "entry_name": "Mab_94",
        "event_total": 60,
        "has_played": true,
        "id": 118823,
        "last_rank": 2045,
        "player_name": "Mohammad Busalha",
        "rank": 2914,
        "rank_sort": 2914,
        "total": 2427
      },
      {
        "club_badge_src": null,
        "entry": 144341,
        "entry_name": "pARTizan, tradizione",
        "event_total": 63,
        "has_played": true,
        "id": 944764,
        "last_rank": 3508,
        "player_name": "Djordje Jovanovski",
        "rank": 2914,
        "rank_sort": 2915,
        "total": 2427
      },
      {
        "club_badge_src": null,
        "entry": 923625,
        "entry_name": "McGinn & Tonic",
        "event_total": 60,
        "has_played": true,
        "id": 6353503,
        "last_rank": 2501,
        "player_name": "Daniel Taylor",
        "rank": 2914,
        "rank_sort": 2916,
        "total": 2427
      },
      {
        "club_badge_src": null,
        "entry": 4143426,
        "entry_name": "Chilli con Arne",
        "event_total": 60,
        "has_played": true,
        "id": 31315465,
        "last_rank": 2045,
        "player_name": "Matt Khine-Short",
        "rank": 2914,
        "rank_sort": 2917,
        "total": 2427
      },
      {
        "club_badge_src": "https://fantasy.premierleague.com/gcs/plfpl-production-adobe-approved/plfpl-production/4728016/05d358dd-393f-4433-bfb4-83034f2556e3.png",
        "entry": 4728016,
        "entry_name": "Beezalona",
        "event_total": 75,
        "has_played": true,
        "id": 36354041,
        "last_rank": 6127,
        "player_name": "Joe Murphy",
        "rank": 2914,
        "rank_sort": 2918,
        "total": 2427
      },
      {
        "club_badge_src": null,
        "entry": 7802827,
        "entry_name": "Jossa United",
        "event_total": 78,
        "has_played": true,
        "id": 64098651,
        "last_rank": 4880,
        "player_name": "Stian Johansen",
        "rank": 2914,
        "rank_sort": 2919,
        "total": 2427
      },
      {
        "club_badge_src": "https://fantasy.premierleague.com/gcs/plfpl-production-adobe-approved/plfpl-production/453948/89c4c2ea-098c-4f41-b3dd-7cc5f3267f04.png",
        "entry": 453948,
        "entry_name": "Kinder Mbeumo",
        "event_total": 63,
        "has_played": true,
        "id": 3045142,
        "last_rank": 3510,
        "player_name": "Josh Francis",
        "rank": 2920,
        "rank_sort": 2920,
        "total": 2427
      },
      {
        "club_badge_src": null,
        "entry": 845413,
        "entry_name": "\u0627\u0644\u062d\u0645\u062f \u0644\u0644\u0647",
        "event_total": 59,
        "has_played": true,
        "id": 5792550,
        "last_rank": 2390,
        "player_name": "Rafie Hamad",
        "rank": 2920,
        "rank_sort": 2921,
        "total": 2427
      },
      {
        "club_badge_src": null,
        "entry": 2847343,
        "entry_name": "Alicat",
        "event_total": 66,
        "has_played": true,
        "id": 20816635,
        "last_rank": 4035,
        "player_name": "Ryan Allington",
        "rank": 2922,
        "rank_sort": 2922,
        "total": 2426
      },
      {
        "club_badge_src": "https://fantasy.premierleague.com/gcs/plfpl-production-adobe-approved/plfpl-production/527088/82c6dddb-537f-4291-a5ac-6d60c46f68ca.png",
        "entry": 527088,
        "entry_name": "Wirtzgebeurt",
        "event_total": 70,
        "has_played": true,
        "id": 3543274,
        "last_rank": 4911,
        "player_name": "Max Winokan",
        "rank": 2923,
        "rank_sort": 2923,
        "total": 2426
      },
      {
        "club_badge_src": null,
        "entry": 4063224,
        "entry_name": "Change Name",
        "event_total": 42,
        "has_played": true,
        "id": 30663705,
        "last_rank": 1225,
        "player_name": "Pedro Benavides",
        "rank": 2923,
        "rank_sort": 2924,
        "total": 2426
      },
      {
        "club_badge_src": "https://fantasy.premierleague.com/gcs/plfpl-production-adobe-approved/plfpl-production/96540/669a6ee2-fcd5-4b5d-a6f0-02861f7898d4.png",
        "entry": 96540,
        "entry_name": "Frankster FC",
        "event_total": 68,
        "has_played": true,
        "id": 630668,
        "last_rank": 4463,
        "player_name": "Frank Nielsen",
        "rank": 2925,
        "rank_sort": 2925,
        "total": 2426
      },
      {
        "club_badge_src": null,
        "entry": 488874,
        "entry_name": "The Very Wirtz Way",
        "event_total": 66,
        "has_played": true,
        "id": 3281887,
        "last_rank": 4062,
        "player_name": "Daniel Tanner",
        "rank": 2926,
        "rank_sort": 2926,
        "total": 2426
      },
      {
        "club_badge_src": null,
        "entry": 1025172,
        "entry_name": "Hugo's Boss La",
        "event_total": 50,
        "has_played": true,
        "id": 7092710,
        "last_rank": 1856,
        "player_name": "Will Cooper",
        "rank": 2926,
        "rank_sort": 2927,
        "total": 2426
      },
      {
        "club_badge_src": null,
        "entry": 1779510,
        "entry_name": "Chicken chow mainoo",
        "event_total": 44,
        "has_played": true,
        "id": 12501997,
        "last_rank": 1358,
        "player_name": "Peter Thorpe",
        "rank": 2926,
        "rank_sort": 2928,
        "total": 2426
      },
      {
        "club_badge_src": null,
        "entry": 1501220,
        "entry_name": "TPs Tuggers",
        "event_total": 63,
        "has_played": true,
        "id": 10469345,
        "last_rank": 3520,
        "player_name": "Harry Thirlaway-Price",
        "rank": 2929,
        "rank_sort": 2929,
        "total": 2426
      },
      {
        "club_badge_src": null,
        "entry": 4013079,
        "entry_name": "Bohman's Boys",
        "event_total": 71,
        "has_played": true,
        "id": 30239559,
        "last_rank": 5129,
        "player_name": "Erik Bohman",
        "rank": 2929,
        "rank_sort": 2930,
        "total": 2426
      },
      {
        "club_badge_src": null,
        "entry": 6149127,
        "entry_name": "Havana Onana",
        "event_total": 55,
        "has_played": true,
        "id": 48605631,
        "last_rank": 2399,
        "player_name": "Abhishek Gokhale",
        "rank": 2929,
        "rank_sort": 2931,
        "total": 2426
      },
      {
        "club_badge_src": null,
        "entry": 6653251,
        "entry_name": "City will be back",
        "event_total": 71,
        "has_played": true,
        "id": 53192525,
        "last_rank": 5147,
        "player_name": "Paul Tepedino",
        "rank": 2929,
        "rank_sort": 2932,
        "total": 2426
      },
      {
        "club_badge_src": null,
        "entry": 7183363,
        "entry_name": "27",
        "event_total": 50,
        "has_played": true,
        "id": 57977618,
        "last_rank": 1856,
        "player_name": "laith hashim",
        "rank": 2929,
        "rank_sort": 2933,
        "total": 2426
      },
      {
        "club_badge_src": "https://fantasy.premierleague.com/gcs/plfpl-production-adobe-approved/plfpl-production/11895/2922b6d5-23b9-43be-8929-3f368186e0d5.png",
        "entry": 11895,
        "entry_name": "Hjertesukk",
        "event_total": 53,
        "has_played": true,
        "id": 70928,
        "last_rank": 2189,
        "player_name": "Ole Nikolai Lie",
        "rank": 2934,
        "rank_sort": 2934,
        "total": 2426
      },
      {
        "club_badge_src": null,
        "entry": 26365,
        "entry_name": "XG FC",
        "event_total": 62,
        "has_played": true,
        "id": 166692,
        "last_rank": 3408,
        "player_name": "Peter Stead",
        "rank": 2934,
        "rank_sort": 2935,
        "total": 2426
      },
      {
        "club_badge_src": null,
        "entry": 44982,
        "entry_name": "Viktor's Secret",
        "event_total": 68,
        "has_played": true,
        "id": 288437,
        "last_rank": 4488,
        "player_name": "Miguel Lopes",
        "rank": 2934,
        "rank_sort": 2936,
        "total": 2426
      },
      {
        "club_badge_src": null,
        "entry": 47890,
        "entry_name": "Strand Larseny",
        "event_total": 66,
        "has_played": true,
        "id": 307362,
        "last_rank": 4099,
        "player_name": "Sam Rhodes",
        "rank": 2934,
        "rank_sort": 2937,
        "total": 2426
      },
      {
        "club_badge_src": null,
        "entry": 67429,
        "entry_name": "Markus888",
        "event_total": 61,
        "has_played": true,
        "id": 436567,
        "last_rank": 3257,
        "player_name": "Markus Pachara",
        "rank": 2934,
        "rank_sort": 2938,
        "total": 2426
      },
      {
        "club_badge_src": null,
        "entry": 111977,
        "entry_name": "xAuraFarming",
        "event_total": 67,
        "has_played": true,
        "id": 730069,
        "last_rank": 4303,
        "player_name": "Sir Cope Alot",
        "rank": 2934,
        "rank_sort": 2939,
        "total": 2426
      },
      {
        "club_badge_src": null,
        "entry": 253567,
        "entry_name": "It could be Wirtz",
        "event_total": 70,
        "has_played": true,
        "id": 1686574,
        "last_rank": 4930,
        "player_name": "Shaun Love",
        "rank": 2934,
        "rank_sort": 2940,
        "total": 2426
      },
      {
        "club_badge_src": null,
        "entry": 312945,
        "entry_name": "Shrek",
        "event_total": 57,
        "has_played": true,
        "id": 2096712,
        "last_rank": 2665,
        "player_name": "HELMI SYAHRUDDIN -REDLINE-",
        "rank": 2934,
        "rank_sort": 2941,
        "total": 2426
      },
      {
        "club_badge_src": null,
        "entry": 337624,
        "entry_name": "Mohamad United",
        "event_total": 53,
        "has_played": true,
        "id": 2260297,
        "last_rank": 2189,
        "player_name": "Mohamad Zarei",
        "rank": 2934,
        "rank_sort": 2942,
        "total": 2426
      },
      {
        "club_badge_src": null,
        "entry": 364971,
        "entry_name": "Champion's",
        "event_total": 64,
        "has_played": true,
        "id": 2442553,
        "last_rank": 3687,
        "player_name": "John Durrant",
        "rank": 2934,
        "rank_sort": 2943,
        "total": 2426
      },
      {
        "club_badge_src": null,
        "entry": 581334,
        "entry_name": "Me, Myself, N'Diaye",
        "event_total": 67,
        "has_played": true,
        "id": 3912121,
        "last_rank": 4303,
        "player_name": "Liam Fallon",
        "rank": 2934,
        "rank_sort": 2944,
        "total": 2426
      },
      {
        "club_badge_src": null,
        "entry": 777765,
        "entry_name": "GoForJoe",
        "event_total": 68,
        "has_played": true,
        "id": 5306953,
        "last_rank": 4488,
        "player_name": "Robbie Kennedy",
        "rank": 2934,
        "rank_sort": 2945,
        "total": 2426
      },
      {
        "club_badge_src": "https://fantasy.premierleague.com/gcs/plfpl-production-adobe-approved/plfpl-production/940227/6ea04193-b6e9-4a2d-8833-1ffb20d71d85.png",
        "entry": 940227,
        "entry_name": "Y`ALRIGHT LANDLORD",
        "event_total": 69,
        "has_played": true,
        "id": 6471437,
        "last_rank": 4742,
        "player_name": "Andy Ward",
        "rank": 2934,
        "rank_sort": 2946,
        "total": 2426
      },
      {
        "club_badge_src": null,
        "entry": 1008309,
        "entry_name": "Kinder Mbeumo",
        "event_total": 57,
        "has_played": true,
        "id": 6971132,
        "last_rank": 2685,
        "player_name": "Will Larvin",
        "rank": 2934,
        "rank_sort": 2947,
        "total": 2426
      },
      {
        "club_badge_src": null,
        "entry": 1081290,
        "entry_name": "MyDreamsFade&Die",
        "event_total": 70,
        "has_played": true,
        "id": 7486936,
        "last_rank": 5011,
        "player_name": "Alex Randall",
        "rank": 2934,
        "rank_sort": 2948,
        "total": 2426
      },
      {
        "club_badge_src": null,
        "entry": 1104446,
        "entry_name": "Debalkie fc",
        "event_total": 64,
        "has_played": true,
        "id": 7650200,
        "last_rank": 3699,
        "player_name": "Dennis Balkenende",
        "rank": 2934,
        "rank_sort": 2949,
        "total": 2426
      },
      {
        "club_badge_src": null,
        "entry": 1282698,
        "entry_name": "Lew's Lions",
        "event_total": 67,
        "has_played": true,
        "id": 8913135,
        "last_rank": 4257,
        "player_name": "Lewis Harper",
        "rank": 2934,
        "rank_sort": 2950,
        "total": 2426
      }
    ]
  }
}