{
  "last_updated_data": "2026-05-24T23:28:17Z",
  "league": {
    "admin_entry": null,
    "closed": false,
    "code_privacy": "p",
    "created": "2025-07-20T23:14:33.933835Z",
    "cup_league": 2815434,
    "has_cup": true,
    "id": 314,
    "league_type": "s",
    "max_entries": null,
    "name": "Overall",
    "rank": null,
    "scoring": "c",
    "start_event": 1
  },
  "new_entries": {
    "has_next": false,
    "page": 1,
    "results": []
  },
  "standings": {
    "has_next": true,
    "page": 1071,
    "results": [
      {
        "club_badge_src": null,
        "entry": 3067784,
        "entry_name": "Galacticos",
        "event_total": 60,
        "has_played": true,
        "id": 22588635,
        "last_rank": 45927,
        "player_name": "Marinos Stylianou",
        "rank": 53421,
        "rank_sort": 53501,
        "total": 2350
      },
      {
        "club_badge_src": null,
        "entry": 3275704,
        "entry_name": "HLOU's TEAM",
        "event_total": 66,
        "has_played": true,
        "id": 24243646,
        "last_rank": 70072,
        "player_name": "Assaad Hlou",
        "rank": 53421,
        "rank_sort": 53502,
        "total": 2350
      },
      {
        "club_badge_src": null,
        "entry": 3342269,
        "entry_name": "Eik FC",
        "event_total": 57,
        "has_played": true,
        "id": 24790800,
        "last_rank": 53952,
        "player_name": "H\u00e5kon Eikefet",
        "rank": 53421,
        "rank_sort": 53503,
        "total": 2350
      },
      {
        "club_badge_src": null,
        "entry": 3352672,
        "entry_name": "EL7arefa",
        "event_total": 53,
        "has_played": true,
        "id": 24872602,
        "last_rank": 47722,
        "player_name": "Ashraf Hashim",
        "rank": 53421,
        "rank_sort": 53504,
        "total": 2350
      },
      {
        "club_badge_src": null,
        "entry": 3512534,
        "entry_name": "Frank TheTank Engine",
        "event_total": 63,
        "has_played": true,
        "id": 26136556,
        "last_rank": 57200,
        "player_name": "Patrick Dara Kelly",
        "rank": 53421,
        "rank_sort": 53505,
        "total": 2350
      },
      {
        "club_badge_src": null,
        "entry": 3682363,
        "entry_name": "BruniniJeba\u010di",
        "event_total": 56,
        "has_played": true,
        "id": 27467146,
        "last_rank": 52461,
        "player_name": "Bruno Bajric",
        "rank": 53421,
        "rank_sort": 53506,
        "total": 2350
      },
      {
        "club_badge_src": "https://fantasy.premierleague.com/gcs/plfpl-production-adobe-approved/plfpl-production/3730969/e9db128f-7cd7-4d89-b8b7-13d82e49c14c.png",
        "entry": 3730969,
        "entry_name": "Polk Salad Amorim",
        "event_total": 46,
        "has_played": true,
        "id": 27848024,
        "last_rank": 33483,
        "player_name": "Mike Riley",
        "rank": 53421,
        "rank_sort": 53507,
        "total": 2350
      },
      {
        "club_badge_src": null,
        "entry": 3812922,
        "entry_name": "Hillmount Comrades",
        "event_total": 64,
        "has_played": true,
        "id": 28511866,
        "last_rank": 58688,
        "player_name": "Stephen Tyrrell",
        "rank": 53421,
        "rank_sort": 53508,
        "total": 2350
      },
      {
        "club_badge_src": null,
        "entry": 4037003,
        "entry_name": "Lallana Del Rey",
        "event_total": 64,
        "has_played": true,
        "id": 30441104,
        "last_rank": 58688,
        "player_name": "Harry Young",
        "rank": 53421,
        "rank_sort": 53509,
        "total": 2350
      },
      {
        "club_badge_src": null,
        "entry": 4053321,
        "entry_name": "Liudy",
        "event_total": 54,
        "has_played": true,
        "id": 30579975,
        "last_rank": 49301,
        "player_name": "Caster Liu",
        "rank": 53421,
        "rank_sort": 53510,
        "total": 2350
      },
      {
        "club_badge_src": null,
        "entry": 4095271,
        "entry_name": "Haul or nothing",
        "event_total": 43,
        "has_played": true,
        "id": 30921451,
        "last_rank": 34682,
        "player_name": "Tom Howard",
        "rank": 53421,
        "rank_sort": 53511,
        "total": 2350
      },
      {
        "club_badge_src": "https://fantasy.premierleague.com/gcs/plfpl-production-adobe-approved/plfpl-production/4109235/5b1928d5-fb6b-41ae-8b84-c21081c2d858.png",
        "entry": 4109235,
        "entry_name": "FC \"Kom nu lige i \u00e5r",
        "event_total": 71,
        "has_played": true,
        "id": 31033154,
        "last_rank": 80651,
        "player_name": "Aksel K. Anthonisen",
        "rank": 53421,
        "rank_sort": 53512,
        "total": 2350
      },
      {
        "club_badge_src": null,
        "entry": 4209224,
        "entry_name": "Mitchell's XI",
        "event_total": 46,
        "has_played": true,
        "id": 31868432,
        "last_rank": 38267,
        "player_name": "Mitchell Rasberry",
        "rank": 53421,
        "rank_sort": 53513,
        "total": 2350
      },
      {
        "club_badge_src": "https://fantasy.premierleague.com/gcs/plfpl-production-adobe-approved/plfpl-production/4251496/02a418be-107e-45b8-977c-94ca269d72af.png",
        "entry": 4251496,
        "entry_name": "FC CHALAKUDY",
        "event_total": 64,
        "has_played": true,
        "id": 32228634,
        "last_rank": 66200,
        "player_name": "Ashik Shajan",
        "rank": 53421,
        "rank_sort": 53514,
        "total": 2350
      },
      {
        "club_badge_src": "https://fantasy.premierleague.com/gcs/plfpl-production-adobe-approved/plfpl-production/4326280/dc416f08-4fc7-4450-978f-b75107ad5ab8.png",
        "entry": 4326280,
        "entry_name": "Hacunha Mateta",
        "event_total": 52,
        "has_played": true,
        "id": 32835117,
        "last_rank": 46236,
        "player_name": "Casper Thoresson",
        "rank": 53421,
        "rank_sort": 53515,
        "total": 2350
      },
      {
        "club_badge_src": null,
        "entry": 4347361,
        "entry_name": "Hell4Leather!!!",
        "event_total": 74,
        "has_played": true,
        "id": 33010856,
        "last_rank": 87350,
        "player_name": "Wojtek Swiesciak",
        "rank": 53421,
        "rank_sort": 53516,
        "total": 2350
      },
      {
        "club_badge_src": null,
        "entry": 4348166,
        "entry_name": "An Mhaith",
        "event_total": 57,
        "has_played": true,
        "id": 33017239,
        "last_rank": 53952,
        "player_name": "Mukoro Gberevbie",
        "rank": 53421,
        "rank_sort": 53517,
        "total": 2350
      },
      {
        "club_badge_src": "https://fantasy.premierleague.com/gcs/plfpl-production-adobe-approved/plfpl-production/4375428/4166f727-396f-47e1-92e0-926db9b90470.png",
        "entry": 4375428,
        "entry_name": "Treblemakers FC ***",
        "event_total": 68,
        "has_played": true,
        "id": 33245659,
        "last_rank": 66057,
        "player_name": "Eric Palcic",
        "rank": 53421,
        "rank_sort": 53518,
        "total": 2350
      },
      {
        "club_badge_src": null,
        "entry": 4879073,
        "entry_name": "Tomiyasuuuu",
        "event_total": 55,
        "has_played": true,
        "id": 37611155,
        "last_rank": 50635,
        "player_name": "Theo Einarsen-Sorteberg",
        "rank": 53421,
        "rank_sort": 53519,
        "total": 2350
      },
      {
        "club_badge_src": null,
        "entry": 4979011,
        "entry_name": "Yak XI",
        "event_total": 47,
        "has_played": true,
        "id": 38433694,
        "last_rank": 39510,
        "player_name": "Matthew Yarker",
        "rank": 53421,
        "rank_sort": 53520,
        "total": 2350
      },
      {
        "club_badge_src": null,
        "entry": 5136495,
        "entry_name": "Gunners15",
        "event_total": 36,
        "has_played": true,
        "id": 39729786,
        "last_rank": 27364,
        "player_name": "James Clarence",
        "rank": 53421,
        "rank_sort": 53521,
        "total": 2350
      },
      {
        "club_badge_src": null,
        "entry": 5150947,
        "entry_name": "mb",
        "event_total": 66,
        "has_played": true,
        "id": 39851033,
        "last_rank": 69907,
        "player_name": "Mathias Berg",
        "rank": 53421,
        "rank_sort": 53522,
        "total": 2350
      },
      {
        "club_badge_src": null,
        "entry": 5503100,
        "entry_name": "Dream team",
        "event_total": 66,
        "has_played": true,
        "id": 42881508,
        "last_rank": 62429,
        "player_name": "bernadus kusumadanu",
        "rank": 53421,
        "rank_sort": 53523,
        "total": 2350
      },
      {
        "club_badge_src": null,
        "entry": 5614815,
        "entry_name": "Euro 21 cash now FFS",
        "event_total": 87,
        "has_played": true,
        "id": 43885504,
        "last_rank": 120941,
        "player_name": "Mitch Norfolk",
        "rank": 53421,
        "rank_sort": 53524,
        "total": 2350
      },
      {
        "club_badge_src": null,
        "entry": 5714129,
        "entry_name": "Big Declan Energy",
        "event_total": 66,
        "has_played": true,
        "id": 44750163,
        "last_rank": 70072,
        "player_name": "Simge Haznedaroglu",
        "rank": 53421,
        "rank_sort": 53525,
        "total": 2350
      },
      {
        "club_badge_src": null,
        "entry": 5938968,
        "entry_name": "Air \u0160e\u0161ko",
        "event_total": 57,
        "has_played": true,
        "id": 46699681,
        "last_rank": 53952,
        "player_name": "Michael Commisso",
        "rank": 53421,
        "rank_sort": 53526,
        "total": 2350
      },
      {
        "club_badge_src": null,
        "entry": 6293273,
        "entry_name": "Alison n blunderland",
        "event_total": 54,
        "has_played": true,
        "id": 49869882,
        "last_rank": 43342,
        "player_name": "Imran Khalid",
        "rank": 53421,
        "rank_sort": 53527,
        "total": 2350
      },
      {
        "club_badge_src": null,
        "entry": 6482649,
        "entry_name": "PKMAPA",
        "event_total": 65,
        "has_played": true,
        "id": 51669038,
        "last_rank": 60671,
        "player_name": "Pascal Adabre",
        "rank": 53421,
        "rank_sort": 53528,
        "total": 2350
      },
      {
        "club_badge_src": null,
        "entry": 6578351,
        "entry_name": "Muller Reus Corner",
        "event_total": 61,
        "has_played": true,
        "id": 52527702,
        "last_rank": 53837,
        "player_name": "Heidi Stengel",
        "rank": 53421,
        "rank_sort": 53529,
        "total": 2350
      },
      {
        "club_badge_src": null,
        "entry": 6629448,
        "entry_name": "Kinder Mbeumo",
        "event_total": 54,
        "has_played": true,
        "id": 52982455,
        "last_rank": 43342,
        "player_name": "Simon Rolfe",
        "rank": 53421,
        "rank_sort": 53530,
        "total": 2350
      },
      {
        "club_badge_src": null,
        "entry": 6980480,
        "entry_name": "Livin' Saliba Loca",
        "event_total": 71,
        "has_played": true,
        "id": 56021989,
        "last_rank": 71386,
        "player_name": "Kyle Spigelman",
        "rank": 53421,
        "rank_sort": 53531,
        "total": 2350
      },
      {
        "club_badge_src": null,
        "entry": 7235558,
        "entry_name": "Sebstar",
        "event_total": 51,
        "has_played": true,
        "id": 58466971,
        "last_rank": 44804,
        "player_name": "Sebastisy Parr",
        "rank": 53421,
        "rank_sort": 53532,
        "total": 2350
      },
      {
        "club_badge_src": null,
        "entry": 7918401,
        "entry_name": "\ufffd Kai Me A River \ufffd",
        "event_total": 71,
        "has_played": true,
        "id": 65154725,
        "last_rank": 71956,
        "player_name": "Zak Dahir",
        "rank": 53421,
        "rank_sort": 53533,
        "total": 2350
      },
      {
        "club_badge_src": "https://fantasy.premierleague.com/gcs/plfpl-production-adobe-approved/plfpl-production/8134008/8bed5b19-32c6-468c-a76a-c22ff2e73586.png",
        "entry": 8134008,
        "entry_name": "Dachshund",
        "event_total": 65,
        "has_played": true,
        "id": 67118959,
        "last_rank": 68107,
        "player_name": "Santiago Viano",
        "rank": 53421,
        "rank_sort": 53534,
        "total": 2350
      },
      {
        "club_badge_src": null,
        "entry": 8213120,
        "entry_name": "zeyad tamer",
        "event_total": 60,
        "has_played": true,
        "id": 67865607,
        "last_rank": 59077,
        "player_name": "Zeyad Tamer",
        "rank": 53421,
        "rank_sort": 53535,
        "total": 2350
      },
      {
        "club_badge_src": null,
        "entry": 8492591,
        "entry_name": "Oldrice",
        "event_total": 49,
        "has_played": true,
        "id": 70565102,
        "last_rank": 41967,
        "player_name": "Yagaiswaran Mohkan",
        "rank": 53421,
        "rank_sort": 53536,
        "total": 2350
      },
      {
        "club_badge_src": null,
        "entry": 8850104,
        "entry_name": "J. J. Okocha",
        "event_total": 64,
        "has_played": true,
        "id": 74027339,
        "last_rank": 66057,
        "player_name": "Miroslav Moravac",
        "rank": 53421,
        "rank_sort": 53537,
        "total": 2350
      },
      {
        "club_badge_src": null,
        "entry": 9194094,
        "entry_name": "KIAFC",
        "event_total": 60,
        "has_played": true,
        "id": 77375881,
        "last_rank": 52205,
        "player_name": "John Ronan",
        "rank": 53421,
        "rank_sort": 53538,
        "total": 2350
      },
      {
        "club_badge_src": null,
        "entry": 9209704,
        "entry_name": "FC Get Schwifty",
        "event_total": 76,
        "has_played": true,
        "id": 77529945,
        "last_rank": 92332,
        "player_name": "Tom David",
        "rank": 53421,
        "rank_sort": 53539,
        "total": 2350
      },
      {
        "club_badge_src": "https://fantasy.premierleague.com/gcs/plfpl-production-adobe-approved/plfpl-production/6461/1866ef5c-82f6-4ea2-9d8e-07d69b088ada.png",
        "entry": 6461,
        "entry_name": "Relegation battle",
        "event_total": 61,
        "has_played": true,
        "id": 37077,
        "last_rank": 53952,
        "player_name": "David Ginola",
        "rank": 53540,
        "rank_sort": 53540,
        "total": 2350
      },
      {
        "club_badge_src": null,
        "entry": 7894,
        "entry_name": "304LY",
        "event_total": 62,
        "has_played": true,
        "id": 45597,
        "last_rank": 55659,
        "player_name": "Micha\u0142 T",
        "rank": 53540,
        "rank_sort": 53541,
        "total": 2350
      },
      {
        "club_badge_src": null,
        "entry": 11907,
        "entry_name": "Kinder Mbeumo",
        "event_total": 57,
        "has_played": true,
        "id": 71017,
        "last_rank": 36624,
        "player_name": "Ollie Pascoe-Jones",
        "rank": 53540,
        "rank_sort": 53542,
        "total": 2350
      },
      {
        "club_badge_src": null,
        "entry": 17044,
        "entry_name": "Wissa 'pon a Sarr",
        "event_total": 61,
        "has_played": true,
        "id": 105598,
        "last_rank": 60671,
        "player_name": "Hugo Sinclair",
        "rank": 53540,
        "rank_sort": 53543,
        "total": 2350
      },
      {
        "club_badge_src": null,
        "entry": 18731,
        "entry_name": "Angthong City FC",
        "event_total": 59,
        "has_played": true,
        "id": 116557,
        "last_rank": 50772,
        "player_name": "First Pep No.2",
        "rank": 53540,
        "rank_sort": 53544,
        "total": 2350
      },
      {
        "club_badge_src": null,
        "entry": 23378,
        "entry_name": "AFC Steve Ryder",
        "event_total": 71,
        "has_played": true,
        "id": 147199,
        "last_rank": 80651,
        "player_name": "Jonathan Covey",
        "rank": 53540,
        "rank_sort": 53545,
        "total": 2350
      },
      {
        "club_badge_src": null,
        "entry": 38550,
        "entry_name": "ThomasTheFrankEngine",
        "event_total": 59,
        "has_played": true,
        "id": 247092,
        "last_rank": 44672,
        "player_name": "Joshua Roberts",
        "rank": 53540,
        "rank_sort": 53546,
        "total": 2350
      },
      {
        "club_badge_src": "https://fantasy.premierleague.com/gcs/plfpl-production-adobe-approved/plfpl-production/54368/6330ef5d-00d7-4bf5-939e-171e4de5f946.png",
        "entry": 54368,
        "entry_name": "AB Dawnfury",
        "event_total": 59,
        "has_played": true,
        "id": 349924,
        "last_rank": 50772,
        "player_name": "Alex Bush",
        "rank": 53540,
        "rank_sort": 53547,
        "total": 2350
      },
      {
        "club_badge_src": "https://fantasy.premierleague.com/gcs/plfpl-production-adobe-approved/plfpl-production/55608/75aac648-b785-470b-9eb9-3dab1744a6be.png",
        "entry": 55608,
        "entry_name": "Saka Saka",
        "event_total": 62,
        "has_played": true,
        "id": 358046,
        "last_rank": 62429,
        "player_name": "Abdullah Alrajeh",
        "rank": 53540,
        "rank_sort": 53548,
        "total": 2350
      },
      {
        "club_badge_src": null,
        "entry": 55929,
        "entry_name": "Ska ha det moro i \u00e5r",
        "event_total": 57,
        "has_played": true,
        "id": 360189,
        "last_rank": 54065,
        "player_name": "Eirik Bomann",
        "rank": 53540,
        "rank_sort": 53549,
        "total": 2350
      },
      {
        "club_badge_src": null,
        "entry": 81215,
        "entry_name": "DFPL XI",
        "event_total": 56,
        "has_played": true,
        "id": 528365,
        "last_rank": 46236,
        "player_name": "DesiFpl Girl",
        "rank": 53540,
        "rank_sort": 53550,
        "total": 2350
      }
    ]
  }
}