{
  "last_updated_data": "2026-05-24T23:28:17Z",
  "league": {
    "admin_entry": null,
    "closed": false,
    "code_privacy": "p",
    "created": "2025-07-20T23:14:33.933835Z",
    "cup_league": 2815434,
    "has_cup": true,
    "id": 314,
    "league_type": "s",
    "max_entries": null,
    "name": "Overall",
    "rank": null,
    "scoring": "c",
    "start_event": 1
  },
  "new_entries": {
    "has_next": false,
    "page": 1,
    "results": []
  },
  "standings": {
    "has_next": true,
    "page": 461,
    "results": [
      {
        "club_badge_src": null,
        "entry": 5618,
        "entry_name": "Saka to em",
        "event_total": 57,
        "has_played": true,
        "id": 32053,
        "last_rank": 19432,
        "player_name": "Leslie L",
        "rank": 22998,
        "rank_sort": 23001,
        "total": 2376
      },
      {
        "club_badge_src": null,
        "entry": 6242,
        "entry_name": "Singer's Spartans",
        "event_total": 69,
        "has_played": true,
        "id": 35781,
        "last_rank": 34293,
        "player_name": "Alex Singer",
        "rank": 22998,
        "rank_sort": 23002,
        "total": 2376
      },
      {
        "club_badge_src": null,
        "entry": 15106,
        "entry_name": "Moneyball",
        "event_total": 71,
        "has_played": true,
        "id": 92399,
        "last_rank": 31747,
        "player_name": "Aaron Hamilton",
        "rank": 22998,
        "rank_sort": 23003,
        "total": 2376
      },
      {
        "club_badge_src": null,
        "entry": 15393,
        "entry_name": "Lallana Airlines",
        "event_total": 56,
        "has_played": true,
        "id": 94437,
        "last_rank": 18790,
        "player_name": "Kristian Eidesvik",
        "rank": 22998,
        "rank_sort": 23004,
        "total": 2376
      },
      {
        "club_badge_src": null,
        "entry": 16598,
        "entry_name": "Tosin and Turnin",
        "event_total": 58,
        "has_played": true,
        "id": 102625,
        "last_rank": 20179,
        "player_name": "Kinshuk Babbar",
        "rank": 22998,
        "rank_sort": 23005,
        "total": 2376
      },
      {
        "club_badge_src": null,
        "entry": 17263,
        "entry_name": "Sam's Stars",
        "event_total": 63,
        "has_played": true,
        "id": 107046,
        "last_rank": 27770,
        "player_name": "Sam Sheppard",
        "rank": 22998,
        "rank_sort": 23006,
        "total": 2376
      },
      {
        "club_badge_src": null,
        "entry": 18037,
        "entry_name": "Coopers Losers",
        "event_total": 47,
        "has_played": true,
        "id": 112098,
        "last_rank": 15694,
        "player_name": "Mark Cooper",
        "rank": 22998,
        "rank_sort": 23007,
        "total": 2376
      },
      {
        "club_badge_src": null,
        "entry": 22158,
        "entry_name": "Vini FC",
        "event_total": 68,
        "has_played": true,
        "id": 139099,
        "last_rank": 28726,
        "player_name": "Vincent Murphy",
        "rank": 22998,
        "rank_sort": 23008,
        "total": 2376
      },
      {
        "club_badge_src": null,
        "entry": 27423,
        "entry_name": "Korona Dobrzech\u00f3w",
        "event_total": 56,
        "has_played": true,
        "id": 173356,
        "last_rank": 22064,
        "player_name": "Maciek Hajnosz",
        "rank": 22998,
        "rank_sort": 23009,
        "total": 2376
      },
      {
        "club_badge_src": null,
        "entry": 28693,
        "entry_name": "Alisson Chains",
        "event_total": 66,
        "has_played": true,
        "id": 181396,
        "last_rank": 30957,
        "player_name": "Tom Williams",
        "rank": 22998,
        "rank_sort": 23010,
        "total": 2376
      },
      {
        "club_badge_src": "https://fantasy.premierleague.com/gcs/plfpl-production-adobe-approved/plfpl-production/41944/266e881e-6439-4bae-903c-05712d78bd0e.png",
        "entry": 41944,
        "entry_name": "The Price is right",
        "event_total": 53,
        "has_played": true,
        "id": 268775,
        "last_rank": 19835,
        "player_name": "Gareth Price",
        "rank": 22998,
        "rank_sort": 23011,
        "total": 2376
      },
      {
        "club_badge_src": null,
        "entry": 46173,
        "entry_name": "SANTAN BERLADA",
        "event_total": 55,
        "has_played": true,
        "id": 296079,
        "last_rank": 21301,
        "player_name": "MOHD AZIZI MAT NAYAN -DOLPHERS-",
        "rank": 22998,
        "rank_sort": 23012,
        "total": 2376
      },
      {
        "club_badge_src": null,
        "entry": 48755,
        "entry_name": "Hibiscus Mahajad",
        "event_total": 55,
        "has_played": true,
        "id": 313234,
        "last_rank": 21301,
        "player_name": "Osman Ertugrul",
        "rank": 22998,
        "rank_sort": 23013,
        "total": 2376
      },
      {
        "club_badge_src": null,
        "entry": 51808,
        "entry_name": "Liam's Dream Team FC",
        "event_total": 51,
        "has_played": true,
        "id": 333164,
        "last_rank": 15550,
        "player_name": "Liam Thistlethwaite",
        "rank": 22998,
        "rank_sort": 23014,
        "total": 2376
      },
      {
        "club_badge_src": null,
        "entry": 52236,
        "entry_name": "Potong Tang Kona",
        "event_total": 55,
        "has_played": true,
        "id": 335915,
        "last_rank": 21301,
        "player_name": "Man Kulim",
        "rank": 22998,
        "rank_sort": 23015,
        "total": 2376
      },
      {
        "club_badge_src": "https://fantasy.premierleague.com/gcs/plfpl-production-adobe-approved/plfpl-production/64327/417b4b80-f96e-48b6-8d42-fcdb923540b9.png",
        "entry": 64327,
        "entry_name": "Sesko Express",
        "event_total": 68,
        "has_played": true,
        "id": 415197,
        "last_rank": 33147,
        "player_name": "Jordan Farren",
        "rank": 22998,
        "rank_sort": 23016,
        "total": 2376
      },
      {
        "club_badge_src": null,
        "entry": 64343,
        "entry_name": "Serenity Now",
        "event_total": 65,
        "has_played": true,
        "id": 415302,
        "last_rank": 29688,
        "player_name": "Niklas Frithiof",
        "rank": 22998,
        "rank_sort": 23017,
        "total": 2376
      },
      {
        "club_badge_src": null,
        "entry": 80576,
        "entry_name": "Power Reijnders",
        "event_total": 68,
        "has_played": true,
        "id": 524230,
        "last_rank": 28726,
        "player_name": "Dhiren Mistry",
        "rank": 22998,
        "rank_sort": 23018,
        "total": 2376
      },
      {
        "club_badge_src": null,
        "entry": 80687,
        "entry_name": "noegghenners",
        "event_total": 52,
        "has_played": true,
        "id": 524948,
        "last_rank": 18655,
        "player_name": "Henry Putt",
        "rank": 22998,
        "rank_sort": 23019,
        "total": 2376
      },
      {
        "club_badge_src": null,
        "entry": 82414,
        "entry_name": "YKTV FC",
        "event_total": 58,
        "has_played": true,
        "id": 536256,
        "last_rank": 23522,
        "player_name": "Oladayo Olawuni",
        "rank": 22998,
        "rank_sort": 23020,
        "total": 2376
      },
      {
        "club_badge_src": null,
        "entry": 83808,
        "entry_name": "bruno dos tres",
        "event_total": 52,
        "has_played": true,
        "id": 545535,
        "last_rank": 18985,
        "player_name": "Freddie Baker",
        "rank": 22998,
        "rank_sort": 23021,
        "total": 2376
      },
      {
        "club_badge_src": null,
        "entry": 128203,
        "entry_name": "Liverpool",
        "event_total": 51,
        "has_played": true,
        "id": 835656,
        "last_rank": 18270,
        "player_name": "Waled Sasa",
        "rank": 22998,
        "rank_sort": 23022,
        "total": 2376
      },
      {
        "club_badge_src": null,
        "entry": 143169,
        "entry_name": "FootBots",
        "event_total": 75,
        "has_played": true,
        "id": 936611,
        "last_rank": 41101,
        "player_name": "C S",
        "rank": 22998,
        "rank_sort": 23023,
        "total": 2376
      },
      {
        "club_badge_src": "https://fantasy.premierleague.com/gcs/plfpl-production-adobe-approved/plfpl-production/143500/c7f97b62-ab3b-4da3-92ee-a2219ca8edff.png",
        "entry": 143500,
        "entry_name": "Ballklubb",
        "event_total": 60,
        "has_played": true,
        "id": 938874,
        "last_rank": 21775,
        "player_name": "Bendik Sydb\u00f8ge",
        "rank": 22998,
        "rank_sort": 23024,
        "total": 2376
      },
      {
        "club_badge_src": "https://fantasy.premierleague.com/gcs/plfpl-production-adobe-approved/plfpl-production/143702/3bca8409-4d13-4aca-badc-5ad18a306e09.png",
        "entry": 143702,
        "entry_name": "REDS **",
        "event_total": 61,
        "has_played": true,
        "id": 940244,
        "last_rank": 26088,
        "player_name": "Abdulla Almarzooqi",
        "rank": 22998,
        "rank_sort": 23025,
        "total": 2376
      },
      {
        "club_badge_src": "https://fantasy.premierleague.com/gcs/plfpl-production-adobe-approved/plfpl-production/166569/73d6c3f5-6aec-49fb-8d81-48225a1dc21e.png",
        "entry": 166569,
        "entry_name": "GoodMorning1234",
        "event_total": 70,
        "has_played": true,
        "id": 1100543,
        "last_rank": 35424,
        "player_name": "Ryan Tan",
        "rank": 22998,
        "rank_sort": 23026,
        "total": 2376
      },
      {
        "club_badge_src": null,
        "entry": 184112,
        "entry_name": "pique blinders",
        "event_total": 69,
        "has_played": true,
        "id": 1215678,
        "last_rank": 34293,
        "player_name": "Matthew Stewart",
        "rank": 22998,
        "rank_sort": 23027,
        "total": 2376
      },
      {
        "club_badge_src": "https://fantasy.premierleague.com/gcs/plfpl-production-adobe-approved/plfpl-production/194126/6bcdbf85-3e11-4dbe-b95c-c9b97ce0e340.png",
        "entry": 194126,
        "entry_name": "The Burn Ultimatum",
        "event_total": 42,
        "has_played": true,
        "id": 1286944,
        "last_rank": 12846,
        "player_name": "Dominic Wisdom",
        "rank": 22998,
        "rank_sort": 23028,
        "total": 2376
      },
      {
        "club_badge_src": null,
        "entry": 198495,
        "entry_name": "The Scouserz",
        "event_total": 70,
        "has_played": true,
        "id": 1317234,
        "last_rank": 35424,
        "player_name": "Ahmed Khalaf",
        "rank": 22998,
        "rank_sort": 23029,
        "total": 2376
      },
      {
        "club_badge_src": null,
        "entry": 202980,
        "entry_name": "Tariq Hinds beans",
        "event_total": 62,
        "has_played": true,
        "id": 1348284,
        "last_rank": 26710,
        "player_name": "Eric Armitage",
        "rank": 22998,
        "rank_sort": 23030,
        "total": 2376
      },
      {
        "club_badge_src": null,
        "entry": 224894,
        "entry_name": "Enter team name",
        "event_total": 42,
        "has_played": true,
        "id": 1496030,
        "last_rank": 12846,
        "player_name": "Liam Cartledge",
        "rank": 22998,
        "rank_sort": 23031,
        "total": 2376
      },
      {
        "club_badge_src": null,
        "entry": 239263,
        "entry_name": "wellfed zaha",
        "event_total": 66,
        "has_played": true,
        "id": 1592133,
        "last_rank": 30600,
        "player_name": "Craig Lumsden",
        "rank": 22998,
        "rank_sort": 23032,
        "total": 2376
      },
      {
        "club_badge_src": null,
        "entry": 240019,
        "entry_name": "Living Saliba Loca",
        "event_total": 53,
        "has_played": true,
        "id": 1597313,
        "last_rank": 19721,
        "player_name": "Alex Heard-White",
        "rank": 22998,
        "rank_sort": 23033,
        "total": 2376
      },
      {
        "club_badge_src": "https://fantasy.premierleague.com/gcs/plfpl-production-adobe-approved/plfpl-production/251641/61dd3d8a-6136-4539-8257-e04d80f334ae.png",
        "entry": 251641,
        "entry_name": "TITO",
        "event_total": 61,
        "has_played": true,
        "id": 1674042,
        "last_rank": 22426,
        "player_name": "Tito CheeseCherylCharcoal",
        "rank": 22998,
        "rank_sort": 23034,
        "total": 2376
      },
      {
        "club_badge_src": null,
        "entry": 269831,
        "entry_name": "Rice Rice Baby",
        "event_total": 68,
        "has_played": true,
        "id": 1795127,
        "last_rank": 28609,
        "player_name": "Apurva Subedi",
        "rank": 22998,
        "rank_sort": 23035,
        "total": 2376
      },
      {
        "club_badge_src": null,
        "entry": 309156,
        "entry_name": "Vesterbro Juniors",
        "event_total": 60,
        "has_played": true,
        "id": 2070853,
        "last_rank": 25172,
        "player_name": "Christoffer Magnus",
        "rank": 22998,
        "rank_sort": 23036,
        "total": 2376
      },
      {
        "club_badge_src": null,
        "entry": 335849,
        "entry_name": "S@L_09_XI",
        "event_total": 59,
        "has_played": true,
        "id": 2248714,
        "last_rank": 24330,
        "player_name": "Bikram Rai",
        "rank": 22998,
        "rank_sort": 23037,
        "total": 2376
      },
      {
        "club_badge_src": null,
        "entry": 356870,
        "entry_name": "lfc",
        "event_total": 45,
        "has_played": true,
        "id": 2388167,
        "last_rank": 14496,
        "player_name": "saud alhassoon",
        "rank": 22998,
        "rank_sort": 23038,
        "total": 2376
      },
      {
        "club_badge_src": "https://fantasy.premierleague.com/gcs/plfpl-production-adobe-approved/plfpl-production/368420/377d95ef-11da-4bd5-a9e1-b96525ea48aa.png",
        "entry": 368420,
        "entry_name": "Radovcic United",
        "event_total": 62,
        "has_played": true,
        "id": 2465488,
        "last_rank": 27020,
        "player_name": "An\u0111elo Sudinja",
        "rank": 22998,
        "rank_sort": 23039,
        "total": 2376
      },
      {
        "club_badge_src": "https://fantasy.premierleague.com/gcs/plfpl-production-adobe-approved/plfpl-production/388137/2468fac2-520d-4bfb-96f6-4e37b11e0f1c.png",
        "entry": 388137,
        "entry_name": "Gulo Gr\u00f6no",
        "event_total": 72,
        "has_played": true,
        "id": 2603820,
        "last_rank": 37589,
        "player_name": "Elias Nilsson",
        "rank": 22998,
        "rank_sort": 23040,
        "total": 2376
      },
      {
        "club_badge_src": null,
        "entry": 395086,
        "entry_name": "Yoro Wissa Harry",
        "event_total": 65,
        "has_played": true,
        "id": 2649533,
        "last_rank": 25902,
        "player_name": "H J",
        "rank": 22998,
        "rank_sort": 23041,
        "total": 2376
      },
      {
        "club_badge_src": null,
        "entry": 432396,
        "entry_name": "Ctrl Alt deLigt",
        "event_total": 44,
        "has_played": true,
        "id": 2899904,
        "last_rank": 13947,
        "player_name": "Akshay Mukhi",
        "rank": 22998,
        "rank_sort": 23042,
        "total": 2376
      },
      {
        "club_badge_src": null,
        "entry": 447238,
        "entry_name": "Yamine Lamal",
        "event_total": 65,
        "has_played": true,
        "id": 2999956,
        "last_rank": 29578,
        "player_name": "Sourav Shrish",
        "rank": 22998,
        "rank_sort": 23043,
        "total": 2376
      },
      {
        "club_badge_src": "https://fantasy.premierleague.com/gcs/plfpl-production-adobe-approved/plfpl-production/498872/ac4d0f4e-6a99-47b7-80b9-9faf1fc22de6.png",
        "entry": 498872,
        "entry_name": "Beskidy Bielsko",
        "event_total": 60,
        "has_played": true,
        "id": 3348194,
        "last_rank": 21775,
        "player_name": "Alek Dziergas",
        "rank": 22998,
        "rank_sort": 23044,
        "total": 2376
      },
      {
        "club_badge_src": "https://fantasy.premierleague.com/gcs/plfpl-production-adobe-approved/plfpl-production/516427/c74dafd8-d052-4a77-a54b-015ec02a808c.png",
        "entry": 516427,
        "entry_name": "The Untouchables",
        "event_total": 59,
        "has_played": true,
        "id": 3467167,
        "last_rank": 24330,
        "player_name": "David Whiteway",
        "rank": 22998,
        "rank_sort": 23045,
        "total": 2376
      },
      {
        "club_badge_src": null,
        "entry": 545238,
        "entry_name": "Half the world (A)",
        "event_total": 48,
        "has_played": true,
        "id": 3669451,
        "last_rank": 16320,
        "player_name": "Johnny Keenaghan",
        "rank": 22998,
        "rank_sort": 23046,
        "total": 2376
      },
      {
        "club_badge_src": null,
        "entry": 546757,
        "entry_name": "Ameer",
        "event_total": 60,
        "has_played": true,
        "id": 3679629,
        "last_rank": 21775,
        "player_name": "Ameer hassan",
        "rank": 22998,
        "rank_sort": 23047,
        "total": 2376
      },
      {
        "club_badge_src": null,
        "entry": 564746,
        "entry_name": "King Julian",
        "event_total": 60,
        "has_played": true,
        "id": 3801281,
        "last_rank": 25002,
        "player_name": "Simon Taarup",
        "rank": 22998,
        "rank_sort": 23048,
        "total": 2376
      },
      {
        "club_badge_src": null,
        "entry": 600016,
        "entry_name": "Tinstaafl",
        "event_total": 66,
        "has_played": true,
        "id": 4047913,
        "last_rank": 26827,
        "player_name": "Stig Noergaard",
        "rank": 22998,
        "rank_sort": 23049,
        "total": 2376
      },
      {
        "club_badge_src": "https://fantasy.premierleague.com/gcs/plfpl-production-adobe-approved/plfpl-production/600347/79e65721-4c4c-4c92-bf2d-74f6de48edf5.png",
        "entry": 600347,
        "entry_name": "CCFC",
        "event_total": 60,
        "has_played": true,
        "id": 4050469,
        "last_rank": 25002,
        "player_name": "Einar Svartbekk",
        "rank": 22998,
        "rank_sort": 23050,
        "total": 2376
      }
    ]
  }
}