{
  "last_updated_data": "2026-05-24T23:28:17Z",
  "league": {
    "admin_entry": null,
    "closed": false,
    "code_privacy": "p",
    "created": "2025-07-20T23:14:33.933835Z",
    "cup_league": 2815434,
    "has_cup": true,
    "id": 314,
    "league_type": "s",
    "max_entries": null,
    "name": "Overall",
    "rank": null,
    "scoring": "c",
    "start_event": 1
  },
  "new_entries": {
    "has_next": false,
    "page": 1,
    "results": []
  },
  "standings": {
    "has_next": true,
    "page": 555,
    "results": [
      {
        "club_badge_src": null,
        "entry": 5719685,
        "entry_name": "Borussia teeth",
        "event_total": 46,
        "has_played": true,
        "id": 44800023,
        "last_rank": 18520,
        "player_name": "Niall Hanrahan",
        "rank": 27643,
        "rank_sort": 27701,
        "total": 2371
      },
      {
        "club_badge_src": null,
        "entry": 6331801,
        "entry_name": "Heaven United",
        "event_total": 65,
        "has_played": true,
        "id": 50320701,
        "last_rank": 31236,
        "player_name": "Hassan Raza",
        "rank": 27643,
        "rank_sort": 27702,
        "total": 2371
      },
      {
        "club_badge_src": null,
        "entry": 6528493,
        "entry_name": "Pitch Perfect",
        "event_total": 66,
        "has_played": true,
        "id": 52075817,
        "last_rank": 32190,
        "player_name": "Edi Steven",
        "rank": 27643,
        "rank_sort": 27703,
        "total": 2371
      },
      {
        "club_badge_src": "https://fantasy.premierleague.com/gcs/plfpl-production-adobe-approved/plfpl-production/6843189/0d897d36-8041-4531-b519-f3973d462bd7.png",
        "entry": 6843189,
        "entry_name": "14in26",
        "event_total": 68,
        "has_played": true,
        "id": 54820400,
        "last_rank": 34578,
        "player_name": "Aruj Tickoo",
        "rank": 27643,
        "rank_sort": 27704,
        "total": 2371
      },
      {
        "club_badge_src": null,
        "entry": 6989441,
        "entry_name": "Sidali usma",
        "event_total": 68,
        "has_played": true,
        "id": 56105293,
        "last_rank": 39510,
        "player_name": "Sid Ali Boucenna",
        "rank": 27643,
        "rank_sort": 27705,
        "total": 2371
      },
      {
        "club_badge_src": null,
        "entry": 7127618,
        "entry_name": "Gy\u00f6k, stop and roll",
        "event_total": 45,
        "has_played": true,
        "id": 57437623,
        "last_rank": 17848,
        "player_name": "Freddie Clark",
        "rank": 27643,
        "rank_sort": 27706,
        "total": 2371
      },
      {
        "club_badge_src": null,
        "entry": 7183227,
        "entry_name": "Fantasy \u00e1hugi 0",
        "event_total": 67,
        "has_played": true,
        "id": 57976241,
        "last_rank": 38267,
        "player_name": "Bj\u00f6rn Vi\u00f0ar",
        "rank": 27643,
        "rank_sort": 27707,
        "total": 2371
      },
      {
        "club_badge_src": null,
        "entry": 7269417,
        "entry_name": "The laggards FC",
        "event_total": 56,
        "has_played": true,
        "id": 58787567,
        "last_rank": 26425,
        "player_name": "\u0645\u062d\u0645\u062f \u0627\u0644\u0628\u0644\u0648\u064a",
        "rank": 27643,
        "rank_sort": 27708,
        "total": 2371
      },
      {
        "club_badge_src": null,
        "entry": 7324370,
        "entry_name": "Ahmed Ango74",
        "event_total": 56,
        "has_played": true,
        "id": 59305221,
        "last_rank": 26475,
        "player_name": "Ahmed Ango74",
        "rank": 27643,
        "rank_sort": 27709,
        "total": 2371
      },
      {
        "club_badge_src": null,
        "entry": 7901427,
        "entry_name": "Omar14",
        "event_total": 70,
        "has_played": true,
        "id": 65000763,
        "last_rank": 41967,
        "player_name": "Omar Hassanen",
        "rank": 27643,
        "rank_sort": 27710,
        "total": 2371
      },
      {
        "club_badge_src": null,
        "entry": 8156734,
        "entry_name": "Goalivia",
        "event_total": 56,
        "has_played": true,
        "id": 67331331,
        "last_rank": 22921,
        "player_name": "Olivia Tops",
        "rank": 27643,
        "rank_sort": 27711,
        "total": 2371
      },
      {
        "club_badge_src": null,
        "entry": 8411130,
        "entry_name": "oscar FC",
        "event_total": 66,
        "has_played": true,
        "id": 69781865,
        "last_rank": 36831,
        "player_name": "Simon Richardson",
        "rank": 27643,
        "rank_sort": 27712,
        "total": 2371
      },
      {
        "club_badge_src": null,
        "entry": 2321,
        "entry_name": "Kinder Mbeumo",
        "event_total": 64,
        "has_played": true,
        "id": 12935,
        "last_rank": 30276,
        "player_name": "Connor Howe",
        "rank": 27713,
        "rank_sort": 27713,
        "total": 2371
      },
      {
        "club_badge_src": null,
        "entry": 6541,
        "entry_name": "PURE VIBES XI",
        "event_total": 69,
        "has_played": true,
        "id": 37547,
        "last_rank": 35867,
        "player_name": "Tansen Habib",
        "rank": 27713,
        "rank_sort": 27714,
        "total": 2371
      },
      {
        "club_badge_src": null,
        "entry": 11232,
        "entry_name": "all set",
        "event_total": 73,
        "has_played": true,
        "id": 66698,
        "last_rank": 46313,
        "player_name": "E Allen",
        "rank": 27713,
        "rank_sort": 27715,
        "total": 2371
      },
      {
        "club_badge_src": "https://fantasy.premierleague.com/gcs/plfpl-production-adobe-approved/plfpl-production/11543/370d161e-c150-4420-a911-93a65dedf8f8.png",
        "entry": 11543,
        "entry_name": "Kung Fu Panda",
        "event_total": 64,
        "has_played": true,
        "id": 68649,
        "last_rank": 34682,
        "player_name": "Kristina Leparova",
        "rank": 27713,
        "rank_sort": 27716,
        "total": 2371
      },
      {
        "club_badge_src": null,
        "entry": 16807,
        "entry_name": "Gooner Army",
        "event_total": 68,
        "has_played": true,
        "id": 104020,
        "last_rank": 34682,
        "player_name": "Michael Eccles",
        "rank": 27713,
        "rank_sort": 27717,
        "total": 2371
      },
      {
        "club_badge_src": "https://fantasy.premierleague.com/gcs/plfpl-production-adobe-approved/plfpl-production/27711/ecbf7e62-c166-4dea-97f7-b61b982e8888.png",
        "entry": 27711,
        "entry_name": "Gronkhaulski",
        "event_total": 67,
        "has_played": true,
        "id": 175172,
        "last_rank": 38163,
        "player_name": "paul khauli",
        "rank": 27713,
        "rank_sort": 27718,
        "total": 2371
      },
      {
        "club_badge_src": "https://fantasy.premierleague.com/gcs/plfpl-production-adobe-approved/plfpl-production/109283/5c79e6ec-8530-40c9-bc12-3edf5cdefba1.png",
        "entry": 109283,
        "entry_name": "@SlapItForRetail",
        "event_total": 62,
        "has_played": true,
        "id": 712522,
        "last_rank": 32491,
        "player_name": "David De Freitas",
        "rank": 27713,
        "rank_sort": 27719,
        "total": 2371
      },
      {
        "club_badge_src": null,
        "entry": 221740,
        "entry_name": "Hwang the Hee-J",
        "event_total": 59,
        "has_played": true,
        "id": 1474818,
        "last_rank": 29333,
        "player_name": "tom wearing",
        "rank": 27713,
        "rank_sort": 27720,
        "total": 2371
      },
      {
        "club_badge_src": null,
        "entry": 235781,
        "entry_name": "Guran's Blue Bananas",
        "event_total": 60,
        "has_played": true,
        "id": 1568863,
        "last_rank": 26425,
        "player_name": "G\u00f8ran Andreassen",
        "rank": 27713,
        "rank_sort": 27721,
        "total": 2371
      },
      {
        "club_badge_src": null,
        "entry": 265283,
        "entry_name": "Zubi Zubi Doo",
        "event_total": 61,
        "has_played": true,
        "id": 1764393,
        "last_rank": 27364,
        "player_name": "Sam Gray",
        "rank": 27713,
        "rank_sort": 27722,
        "total": 2371
      },
      {
        "club_badge_src": null,
        "entry": 440937,
        "entry_name": "Kitwave Kowboys",
        "event_total": 60,
        "has_played": true,
        "id": 2956600,
        "last_rank": 30191,
        "player_name": "John Hope",
        "rank": 27713,
        "rank_sort": 27723,
        "total": 2371
      },
      {
        "club_badge_src": null,
        "entry": 441604,
        "entry_name": "Puns are Bad-iashile",
        "event_total": 64,
        "has_played": true,
        "id": 2960989,
        "last_rank": 34749,
        "player_name": "Mohib Rizvi",
        "rank": 27713,
        "rank_sort": 27724,
        "total": 2371
      },
      {
        "club_badge_src": null,
        "entry": 970531,
        "entry_name": "Amorim\u2019s Devils \ufffd",
        "event_total": 56,
        "has_played": true,
        "id": 6690121,
        "last_rank": 22996,
        "player_name": "brian gillen",
        "rank": 27713,
        "rank_sort": 27725,
        "total": 2371
      },
      {
        "club_badge_src": null,
        "entry": 1128322,
        "entry_name": "Yoro Wissa Harry",
        "event_total": 38,
        "has_played": true,
        "id": 7819646,
        "last_rank": 13629,
        "player_name": "Kyle Hill",
        "rank": 27713,
        "rank_sort": 27726,
        "total": 2371
      },
      {
        "club_badge_src": null,
        "entry": 1285617,
        "entry_name": "Los Vikingos",
        "event_total": 60,
        "has_played": true,
        "id": 8933324,
        "last_rank": 26425,
        "player_name": "Riyad Taleb",
        "rank": 27713,
        "rank_sort": 27727,
        "total": 2371
      },
      {
        "club_badge_src": null,
        "entry": 1324683,
        "entry_name": "esperados",
        "event_total": 66,
        "has_played": true,
        "id": 9207716,
        "last_rank": 37134,
        "player_name": "Espen Haugland",
        "rank": 27713,
        "rank_sort": 27728,
        "total": 2371
      },
      {
        "club_badge_src": "https://fantasy.premierleague.com/gcs/plfpl-production-adobe-approved/plfpl-production/1328857/3db8f683-10b0-48e4-8987-d7e9bcc41621.png",
        "entry": 1328857,
        "entry_name": "Moggy FC",
        "event_total": 67,
        "has_played": true,
        "id": 9236512,
        "last_rank": 38340,
        "player_name": "JJ Clark",
        "rank": 27713,
        "rank_sort": 27729,
        "total": 2371
      },
      {
        "club_badge_src": null,
        "entry": 1378038,
        "entry_name": "Sesko Meal Deal",
        "event_total": 51,
        "has_played": true,
        "id": 9579151,
        "last_rank": 22263,
        "player_name": "James Reynolds",
        "rank": 27713,
        "rank_sort": 27730,
        "total": 2371
      },
      {
        "club_badge_src": null,
        "entry": 1535513,
        "entry_name": "Reg Rovers",
        "event_total": 62,
        "has_played": true,
        "id": 10715972,
        "last_rank": 28348,
        "player_name": "Dean Holdsworth",
        "rank": 27713,
        "rank_sort": 27731,
        "total": 2371
      },
      {
        "club_badge_src": null,
        "entry": 2472137,
        "entry_name": "Baby Reijnders",
        "event_total": 51,
        "has_played": true,
        "id": 17685755,
        "last_rank": 22263,
        "player_name": "Stu McInnes",
        "rank": 27713,
        "rank_sort": 27732,
        "total": 2371
      },
      {
        "club_badge_src": null,
        "entry": 2834760,
        "entry_name": "ol\u00e9, ol\u00e9, ol\u00e9",
        "event_total": 52,
        "has_played": true,
        "id": 20715676,
        "last_rank": 23039,
        "player_name": "Ole Nicolaisen",
        "rank": 27713,
        "rank_sort": 27733,
        "total": 2371
      },
      {
        "club_badge_src": null,
        "entry": 3220354,
        "entry_name": "Black bridge",
        "event_total": 54,
        "has_played": true,
        "id": 23813779,
        "last_rank": 21450,
        "player_name": "Luk\u00e1\u0161 Koutensk\u00fd",
        "rank": 27713,
        "rank_sort": 27734,
        "total": 2371
      },
      {
        "club_badge_src": null,
        "entry": 3311339,
        "entry_name": "A.F.C. Boo Boys",
        "event_total": 61,
        "has_played": true,
        "id": 24533212,
        "last_rank": 17585,
        "player_name": "Ben Brugger",
        "rank": 27713,
        "rank_sort": 27735,
        "total": 2371
      },
      {
        "club_badge_src": null,
        "entry": 3351127,
        "entry_name": "Bang over the Bar",
        "event_total": 50,
        "has_played": true,
        "id": 24860678,
        "last_rank": 21486,
        "player_name": "Donal Walsh",
        "rank": 27713,
        "rank_sort": 27736,
        "total": 2371
      },
      {
        "club_badge_src": "https://fantasy.premierleague.com/gcs/plfpl-production-adobe-approved/plfpl-production/3702069/85b448d0-658b-42c9-a365-d287244c0dda.png",
        "entry": 3702069,
        "entry_name": "bob",
        "event_total": 68,
        "has_played": true,
        "id": 27621632,
        "last_rank": 34682,
        "player_name": "Jon inge Nilsen",
        "rank": 27713,
        "rank_sort": 27737,
        "total": 2371
      },
      {
        "club_badge_src": null,
        "entry": 3832670,
        "entry_name": "Gunning4Glory",
        "event_total": 56,
        "has_played": true,
        "id": 28671391,
        "last_rank": 19904,
        "player_name": "Paul Borgall",
        "rank": 27713,
        "rank_sort": 27738,
        "total": 2371
      },
      {
        "club_badge_src": null,
        "entry": 4252444,
        "entry_name": "Karim Nagiub",
        "event_total": 73,
        "has_played": true,
        "id": 32236489,
        "last_rank": 40770,
        "player_name": "karim Nagiub",
        "rank": 27713,
        "rank_sort": 27739,
        "total": 2371
      },
      {
        "club_badge_src": null,
        "entry": 4343706,
        "entry_name": "Sag FC",
        "event_total": 68,
        "has_played": true,
        "id": 32982057,
        "last_rank": 39510,
        "player_name": "Kevin Fraser",
        "rank": 27713,
        "rank_sort": 27740,
        "total": 2371
      },
      {
        "club_badge_src": null,
        "entry": 4538127,
        "entry_name": "Red & White Army",
        "event_total": 56,
        "has_played": true,
        "id": 34620464,
        "last_rank": 26345,
        "player_name": "Keith Noctor",
        "rank": 27713,
        "rank_sort": 27741,
        "total": 2371
      },
      {
        "club_badge_src": null,
        "entry": 4542437,
        "entry_name": "mo salad",
        "event_total": 63,
        "has_played": true,
        "id": 34655227,
        "last_rank": 29279,
        "player_name": "Evaz Abdulla",
        "rank": 27713,
        "rank_sort": 27742,
        "total": 2371
      },
      {
        "club_badge_src": null,
        "entry": 4869190,
        "entry_name": "Leoforos United\u2618\ufe0f",
        "event_total": 59,
        "has_played": true,
        "id": 37530118,
        "last_rank": 29333,
        "player_name": "Dimitrios Daskalakis",
        "rank": 27713,
        "rank_sort": 27743,
        "total": 2371
      },
      {
        "club_badge_src": "https://fantasy.premierleague.com/gcs/plfpl-production-adobe-approved/plfpl-production/5015219/b1246721-a5fa-4ae2-bcfb-03f23189372f.png",
        "entry": 5015219,
        "entry_name": "Graysea",
        "event_total": 57,
        "has_played": true,
        "id": 38729247,
        "last_rank": 27402,
        "player_name": "graham carter",
        "rank": 27713,
        "rank_sort": 27744,
        "total": 2371
      },
      {
        "club_badge_src": null,
        "entry": 5023733,
        "entry_name": "KieranTearKnee",
        "event_total": 56,
        "has_played": true,
        "id": 38798811,
        "last_rank": 26425,
        "player_name": "Patric Hollywood",
        "rank": 27713,
        "rank_sort": 27745,
        "total": 2371
      },
      {
        "club_badge_src": null,
        "entry": 5267733,
        "entry_name": "Cunha Diggit Sucka",
        "event_total": 42,
        "has_played": true,
        "id": 40828252,
        "last_rank": 15952,
        "player_name": "James Corcoran",
        "rank": 27713,
        "rank_sort": 27746,
        "total": 2371
      },
      {
        "club_badge_src": null,
        "entry": 5424231,
        "entry_name": "The Cruyff Turn",
        "event_total": 62,
        "has_played": true,
        "id": 42188733,
        "last_rank": 32491,
        "player_name": "Iain Funnell",
        "rank": 27713,
        "rank_sort": 27747,
        "total": 2371
      },
      {
        "club_badge_src": null,
        "entry": 5527469,
        "entry_name": "Gr\u00f8nseth\u2019s warriors",
        "event_total": 68,
        "has_played": true,
        "id": 43108801,
        "last_rank": 39585,
        "player_name": "Liv Erna Myre Gr\u00f8nseth",
        "rank": 27713,
        "rank_sort": 27748,
        "total": 2371
      },
      {
        "club_badge_src": "https://fantasy.premierleague.com/gcs/plfpl-production-adobe-approved/plfpl-production/6585930/816a4a11-01f9-4b50-bc7a-32e8ce4a5d86.png",
        "entry": 6585930,
        "entry_name": "The Beatles",
        "event_total": 54,
        "has_played": true,
        "id": 52595758,
        "last_rank": 18475,
        "player_name": "David Davitkovski",
        "rank": 27713,
        "rank_sort": 27749,
        "total": 2371
      },
      {
        "club_badge_src": null,
        "entry": 7311523,
        "entry_name": "Fergies Boys",
        "event_total": 66,
        "has_played": true,
        "id": 59184722,
        "last_rank": 37134,
        "player_name": "Laksh Atha",
        "rank": 27713,
        "rank_sort": 27750,
        "total": 2371
      }
    ]
  }
}