{
  "last_updated_data": "2026-05-24T23:28:17Z",
  "league": {
    "admin_entry": null,
    "closed": false,
    "code_privacy": "p",
    "created": "2025-07-20T23:14:33.933835Z",
    "cup_league": 2815434,
    "has_cup": true,
    "id": 314,
    "league_type": "s",
    "max_entries": null,
    "name": "Overall",
    "rank": null,
    "scoring": "c",
    "start_event": 1
  },
  "new_entries": {
    "has_next": false,
    "page": 1,
    "results": []
  },
  "standings": {
    "has_next": true,
    "page": 84,
    "results": [
      {
        "club_badge_src": null,
        "entry": 100478,
        "entry_name": "Nordfjell United",
        "event_total": 66,
        "has_played": true,
        "id": 655697,
        "last_rank": 3902,
        "player_name": "Roy Johansen",
        "rank": 4149,
        "rank_sort": 4151,
        "total": 2419
      },
      {
        "club_badge_src": "https://fantasy.premierleague.com/gcs/plfpl-production-adobe-approved/plfpl-production/133981/9d06bcfd-6d94-43fa-be1f-0b13194e92ef.png",
        "entry": 133981,
        "entry_name": "Champions of Europe",
        "event_total": 67,
        "has_played": true,
        "id": 872625,
        "last_rank": 5011,
        "player_name": "Shaun Dwyer",
        "rank": 4149,
        "rank_sort": 4152,
        "total": 2419
      },
      {
        "club_badge_src": null,
        "entry": 164221,
        "entry_name": "Ch4mp1on",
        "event_total": 74,
        "has_played": true,
        "id": 1083646,
        "last_rank": 8198,
        "player_name": "Pravate Adulthamavit",
        "rank": 4149,
        "rank_sort": 4153,
        "total": 2419
      },
      {
        "club_badge_src": "https://fantasy.premierleague.com/gcs/plfpl-production-adobe-approved/plfpl-production/167303/c123b0f7-a34a-408a-8faf-c59d52efc1d3.png",
        "entry": 167303,
        "entry_name": "\u0e22\u0e37\u0e19\u0e22\u0e34\u0e49\u0e21\u0e17\u0e35\u0e48\u0e23\u0e34\u0e21\u0e23\u0e31\u0e49\u0e27",
        "event_total": 69,
        "has_played": true,
        "id": 1105837,
        "last_rank": 5498,
        "player_name": "Jirawat Kullasu",
        "rank": 4149,
        "rank_sort": 4154,
        "total": 2419
      },
      {
        "club_badge_src": null,
        "entry": 186976,
        "entry_name": "Legion Komar\u00f3w",
        "event_total": 67,
        "has_played": true,
        "id": 1235966,
        "last_rank": 5011,
        "player_name": "Krzysztof Przybylski",
        "rank": 4149,
        "rank_sort": 4155,
        "total": 2419
      },
      {
        "club_badge_src": null,
        "entry": 198244,
        "entry_name": "My name\u2019s Diouf",
        "event_total": 58,
        "has_played": true,
        "id": 1315552,
        "last_rank": 3951,
        "player_name": "Mark Westlake",
        "rank": 4149,
        "rank_sort": 4156,
        "total": 2419
      },
      {
        "club_badge_src": null,
        "entry": 219151,
        "entry_name": "Baller Boys",
        "event_total": 69,
        "has_played": true,
        "id": 1457408,
        "last_rank": 5448,
        "player_name": "Adam Baller",
        "rank": 4149,
        "rank_sort": 4157,
        "total": 2419
      },
      {
        "club_badge_src": null,
        "entry": 308971,
        "entry_name": "ACMilan",
        "event_total": 48,
        "has_played": true,
        "id": 2069564,
        "last_rank": 2468,
        "player_name": "Idmir Totic",
        "rank": 4149,
        "rank_sort": 4158,
        "total": 2419
      },
      {
        "club_badge_src": null,
        "entry": 530987,
        "entry_name": "Pinnockolada",
        "event_total": 65,
        "has_played": true,
        "id": 3571094,
        "last_rank": 5498,
        "player_name": "Nils Helge Bakken",
        "rank": 4149,
        "rank_sort": 4159,
        "total": 2419
      },
      {
        "club_badge_src": "https://fantasy.premierleague.com/gcs/plfpl-production-adobe-approved/plfpl-production/569266/b1f6d307-1fb9-4954-8024-6aa122ffd439.png",
        "entry": 569266,
        "entry_name": "Os Massudos",
        "event_total": 68,
        "has_played": true,
        "id": 3831467,
        "last_rank": 6305,
        "player_name": "Jo\u00e3o Martelo",
        "rank": 4149,
        "rank_sort": 4160,
        "total": 2419
      },
      {
        "club_badge_src": null,
        "entry": 587821,
        "entry_name": "Mbeum Boom Robot Da",
        "event_total": 49,
        "has_played": true,
        "id": 3957452,
        "last_rank": 2588,
        "player_name": "Kishann Vasanthakumar",
        "rank": 4149,
        "rank_sort": 4161,
        "total": 2419
      },
      {
        "club_badge_src": "https://fantasy.premierleague.com/gcs/plfpl-production-adobe-approved/plfpl-production/641538/c94da6f4-9ccf-4997-9295-794833e9a7d7.png",
        "entry": 641538,
        "entry_name": "Human Wrecking Balls",
        "event_total": 68,
        "has_played": true,
        "id": 4335835,
        "last_rank": 6305,
        "player_name": "Alex Mann",
        "rank": 4149,
        "rank_sort": 4162,
        "total": 2419
      },
      {
        "club_badge_src": null,
        "entry": 1081482,
        "entry_name": "MbeumoskeCunhaVinde",
        "event_total": 61,
        "has_played": true,
        "id": 7488272,
        "last_rank": 3765,
        "player_name": "William N\u00f8rbygaard",
        "rank": 4149,
        "rank_sort": 4163,
        "total": 2419
      },
      {
        "club_badge_src": null,
        "entry": 1196509,
        "entry_name": "Pinepub FC",
        "event_total": 56,
        "has_played": true,
        "id": 8302973,
        "last_rank": 3627,
        "player_name": "Tore Johannesson",
        "rank": 4149,
        "rank_sort": 4164,
        "total": 2419
      },
      {
        "club_badge_src": "https://fantasy.premierleague.com/gcs/plfpl-production-adobe-approved/plfpl-production/1453665/22dd0afd-d6c2-46d8-92b8-e38c4e87cfb5.png",
        "entry": 1453665,
        "entry_name": "zendenpen",
        "event_total": 62,
        "has_played": true,
        "id": 10129135,
        "last_rank": 3257,
        "player_name": "Brian Sill",
        "rank": 4149,
        "rank_sort": 4165,
        "total": 2419
      },
      {
        "club_badge_src": null,
        "entry": 2093154,
        "entry_name": "Glennes team",
        "event_total": 89,
        "has_played": true,
        "id": 14850939,
        "last_rank": 14926,
        "player_name": "Martin Ostberg",
        "rank": 4149,
        "rank_sort": 4166,
        "total": 2419
      },
      {
        "club_badge_src": null,
        "entry": 2809164,
        "entry_name": "Guess who?.....",
        "event_total": 79,
        "has_played": true,
        "id": 20516846,
        "last_rank": 10102,
        "player_name": "Emmanuel Ngwu",
        "rank": 4149,
        "rank_sort": 4167,
        "total": 2419
      },
      {
        "club_badge_src": null,
        "entry": 2840924,
        "entry_name": "Livin' Saliba Loca",
        "event_total": 61,
        "has_played": true,
        "id": 20763947,
        "last_rank": 4570,
        "player_name": "Ivan Koh",
        "rank": 4149,
        "rank_sort": 4168,
        "total": 2419
      },
      {
        "club_badge_src": "https://fantasy.premierleague.com/gcs/plfpl-production-adobe-approved/plfpl-production/2968704/3c9aac4b-84dc-47ee-9fc6-b0507543ea01.png",
        "entry": 2968704,
        "entry_name": "Schade freude",
        "event_total": 69,
        "has_played": true,
        "id": 21811208,
        "last_rank": 6579,
        "player_name": "Tom Robertson",
        "rank": 4149,
        "rank_sort": 4169,
        "total": 2419
      },
      {
        "club_badge_src": null,
        "entry": 4161932,
        "entry_name": "Salah11",
        "event_total": 54,
        "has_played": true,
        "id": 31467194,
        "last_rank": 3342,
        "player_name": "Moh Sharki",
        "rank": 4149,
        "rank_sort": 4170,
        "total": 2419
      },
      {
        "club_badge_src": null,
        "entry": 4185537,
        "entry_name": "Hell in Lascelles",
        "event_total": 58,
        "has_played": true,
        "id": 31668954,
        "last_rank": 4000,
        "player_name": "Loren Ellis",
        "rank": 4149,
        "rank_sort": 4171,
        "total": 2419
      },
      {
        "club_badge_src": null,
        "entry": 4616802,
        "entry_name": "Quagmires boys",
        "event_total": 68,
        "has_played": true,
        "id": 35285900,
        "last_rank": 5173,
        "player_name": "Mikael T\u00f6rnstr\u00f6m",
        "rank": 4149,
        "rank_sort": 4172,
        "total": 2419
      },
      {
        "club_badge_src": null,
        "entry": 5105718,
        "entry_name": "Change Name",
        "event_total": 69,
        "has_played": true,
        "id": 39466455,
        "last_rank": 6579,
        "player_name": "Olivier Delafontaine",
        "rank": 4149,
        "rank_sort": 4173,
        "total": 2419
      },
      {
        "club_badge_src": null,
        "entry": 6555419,
        "entry_name": "69x82",
        "event_total": 75,
        "has_played": true,
        "id": 52315287,
        "last_rank": 8484,
        "player_name": "yasir ammar",
        "rank": 4149,
        "rank_sort": 4174,
        "total": 2419
      },
      {
        "club_badge_src": "https://fantasy.premierleague.com/gcs/plfpl-production-adobe-approved/plfpl-production/6739641/3073b65f-205b-4575-b741-739ac4dcdbfe.png",
        "entry": 6739641,
        "entry_name": "IK D\u00f6dsstj\u00e4rnan",
        "event_total": 61,
        "has_played": true,
        "id": 53948986,
        "last_rank": 4570,
        "player_name": "David Vidlund",
        "rank": 4149,
        "rank_sort": 4175,
        "total": 2419
      },
      {
        "club_badge_src": null,
        "entry": 13484,
        "entry_name": "Harleysgotnomates FC",
        "event_total": 66,
        "has_played": true,
        "id": 81494,
        "last_rank": 4839,
        "player_name": "Ross Tebbett \u2b50\ufe0f\u2b50\ufe0f\u2b50\ufe0f\u2b50\ufe0f\u2b50\ufe0f",
        "rank": 4176,
        "rank_sort": 4176,
        "total": 2419
      },
      {
        "club_badge_src": null,
        "entry": 23248,
        "entry_name": "FC Sixten Camp",
        "event_total": 67,
        "has_played": true,
        "id": 146350,
        "last_rank": 5053,
        "player_name": "Dennis Svernfors",
        "rank": 4176,
        "rank_sort": 4177,
        "total": 2419
      },
      {
        "club_badge_src": "https://fantasy.premierleague.com/gcs/plfpl-production-adobe-approved/plfpl-production/45872/0349d9f9-21be-40f3-800a-a9225fc63ccf.png",
        "entry": 45872,
        "entry_name": "abcdefGG FC",
        "event_total": 71,
        "has_played": true,
        "id": 294233,
        "last_rank": 4954,
        "player_name": "Graeme Goodair",
        "rank": 4176,
        "rank_sort": 4178,
        "total": 2419
      },
      {
        "club_badge_src": null,
        "entry": 185891,
        "entry_name": "Glipton Grasshoppers",
        "event_total": 73,
        "has_played": true,
        "id": 1228197,
        "last_rank": 6528,
        "player_name": "William Dew",
        "rank": 4176,
        "rank_sort": 4179,
        "total": 2419
      },
      {
        "club_badge_src": null,
        "entry": 267166,
        "entry_name": "Mbeumo or Mbusto",
        "event_total": 67,
        "has_played": true,
        "id": 1777294,
        "last_rank": 5053,
        "player_name": "Jack Finn",
        "rank": 4176,
        "rank_sort": 4180,
        "total": 2419
      },
      {
        "club_badge_src": null,
        "entry": 556856,
        "entry_name": "Shaw me the money",
        "event_total": 74,
        "has_played": true,
        "id": 3747708,
        "last_rank": 6887,
        "player_name": "Kristoffer Bang",
        "rank": 4176,
        "rank_sort": 4181,
        "total": 2419
      },
      {
        "club_badge_src": null,
        "entry": 560729,
        "entry_name": "Denzel Dumplings",
        "event_total": 50,
        "has_played": true,
        "id": 3774354,
        "last_rank": 2762,
        "player_name": "Ruchir Bhandari",
        "rank": 4176,
        "rank_sort": 4182,
        "total": 2419
      },
      {
        "club_badge_src": null,
        "entry": 2050519,
        "entry_name": "TIL",
        "event_total": 65,
        "has_played": true,
        "id": 14524072,
        "last_rank": 5560,
        "player_name": "Tor Inge Lilleb\u00f8",
        "rank": 4176,
        "rank_sort": 4183,
        "total": 2419
      },
      {
        "club_badge_src": null,
        "entry": 2550383,
        "entry_name": "Mixed Salah",
        "event_total": 79,
        "has_played": true,
        "id": 18283162,
        "last_rank": 8552,
        "player_name": "Andrew Foulds",
        "rank": 4176,
        "rank_sort": 4184,
        "total": 2419
      },
      {
        "club_badge_src": null,
        "entry": 8299947,
        "entry_name": "Danny FC",
        "event_total": 84,
        "has_played": true,
        "id": 68709606,
        "last_rank": 12200,
        "player_name": "Daniel Kristoffersen",
        "rank": 4176,
        "rank_sort": 4185,
        "total": 2419
      },
      {
        "club_badge_src": null,
        "entry": 54957,
        "entry_name": "Gangster Monkeys",
        "event_total": 57,
        "has_played": true,
        "id": 353688,
        "last_rank": 3829,
        "player_name": "Andy _Social",
        "rank": 4186,
        "rank_sort": 4186,
        "total": 2419
      },
      {
        "club_badge_src": null,
        "entry": 128539,
        "entry_name": "Jayos jokers",
        "event_total": 56,
        "has_played": true,
        "id": 837874,
        "last_rank": 3661,
        "player_name": "Jason Dunne",
        "rank": 4186,
        "rank_sort": 4187,
        "total": 2419
      },
      {
        "club_badge_src": "https://fantasy.premierleague.com/gcs/plfpl-production-adobe-approved/plfpl-production/230864/11700ec5-80fc-4bbd-a4c5-72a7489efc12.png",
        "entry": 230864,
        "entry_name": "\u0160e\u0161ko's Finest",
        "event_total": 65,
        "has_played": true,
        "id": 1535951,
        "last_rank": 5583,
        "player_name": "Tim Robertson",
        "rank": 4186,
        "rank_sort": 4188,
        "total": 2419
      },
      {
        "club_badge_src": null,
        "entry": 910826,
        "entry_name": "Tyson's men",
        "event_total": 66,
        "has_played": true,
        "id": 6262646,
        "last_rank": 4866,
        "player_name": "Bruce J",
        "rank": 4186,
        "rank_sort": 4189,
        "total": 2419
      },
      {
        "club_badge_src": null,
        "entry": 1230750,
        "entry_name": "Whopper CF",
        "event_total": 63,
        "has_played": true,
        "id": 8546112,
        "last_rank": 4205,
        "player_name": "James Thomas",
        "rank": 4186,
        "rank_sort": 4190,
        "total": 2419
      },
      {
        "club_badge_src": "https://fantasy.premierleague.com/gcs/plfpl-production-adobe-approved/plfpl-production/1659110/4ac8e5ba-ebb6-4667-8ccf-97b25b58ea30.png",
        "entry": 1659110,
        "entry_name": "lmoooo7 Liverpool \ufffd|",
        "event_total": 49,
        "has_played": true,
        "id": 11615811,
        "last_rank": 2620,
        "player_name": "mohamed rhb",
        "rank": 4186,
        "rank_sort": 4191,
        "total": 2419
      },
      {
        "club_badge_src": null,
        "entry": 2536423,
        "entry_name": "El JuaraBertahan",
        "event_total": 79,
        "has_played": true,
        "id": 18177170,
        "last_rank": 10102,
        "player_name": "Hari Satrio Nugroho",
        "rank": 4186,
        "rank_sort": 4192,
        "total": 2419
      },
      {
        "club_badge_src": null,
        "entry": 2802490,
        "entry_name": "Sit on Delap",
        "event_total": 70,
        "has_played": true,
        "id": 20465141,
        "last_rank": 6887,
        "player_name": "Casey Bewley",
        "rank": 4186,
        "rank_sort": 4193,
        "total": 2419
      },
      {
        "club_badge_src": "https://fantasy.premierleague.com/gcs/plfpl-production-adobe-approved/plfpl-production/5347870/9476ec3c-0be3-4b7a-8319-e838c7cf5ffc.png",
        "entry": 5347870,
        "entry_name": "AC Sparta Bizzy",
        "event_total": 56,
        "has_played": true,
        "id": 41500243,
        "last_rank": 3648,
        "player_name": "Michal Bystro\u0148",
        "rank": 4186,
        "rank_sort": 4194,
        "total": 2419
      },
      {
        "club_badge_src": null,
        "entry": 5706,
        "entry_name": "YOUBIGDOSSER!!",
        "event_total": 66,
        "has_played": true,
        "id": 32564,
        "last_rank": 4880,
        "player_name": "Azz Zzz",
        "rank": 4195,
        "rank_sort": 4195,
        "total": 2419
      },
      {
        "club_badge_src": null,
        "entry": 45220,
        "entry_name": "\u5317\u4f26\u6566\u8036\u7a23\u964d\u4e34",
        "event_total": 67,
        "has_played": true,
        "id": 290024,
        "last_rank": 5081,
        "player_name": "Dylan Yao",
        "rank": 4195,
        "rank_sort": 4196,
        "total": 2419
      },
      {
        "club_badge_src": null,
        "entry": 2161441,
        "entry_name": "reddevils95",
        "event_total": 54,
        "has_played": true,
        "id": 15365289,
        "last_rank": 2775,
        "player_name": "Kevin Shah",
        "rank": 4195,
        "rank_sort": 4197,
        "total": 2419
      },
      {
        "club_badge_src": null,
        "entry": 119969,
        "entry_name": "\u0627\u062f\u0647\u0645 \u0639\u0628\u062f\u0647",
        "event_total": 57,
        "has_played": true,
        "id": 782724,
        "last_rank": 3210,
        "player_name": "Adham Tarek",
        "rank": 4198,
        "rank_sort": 4198,
        "total": 2419
      },
      {
        "club_badge_src": null,
        "entry": 581752,
        "entry_name": "CorshamLobsters",
        "event_total": 71,
        "has_played": true,
        "id": 3915150,
        "last_rank": 6106,
        "player_name": "Tom Frost",
        "rank": 4198,
        "rank_sort": 4199,
        "total": 2419
      },
      {
        "club_badge_src": "https://fantasy.premierleague.com/gcs/plfpl-production-adobe-approved/plfpl-production/4944640/ba7ddde1-03f7-4943-9121-a2aaf477b8d5.png",
        "entry": 4944640,
        "entry_name": "Pegasus Tayan Vehha",
        "event_total": 60,
        "has_played": true,
        "id": 38152140,
        "last_rank": 4445,
        "player_name": "Paolo Tarapong",
        "rank": 4198,
        "rank_sort": 4200,
        "total": 2419
      }
    ]
  }
}