{
  "last_updated_data": "2026-05-24T23:28:17Z",
  "league": {
    "admin_entry": null,
    "closed": false,
    "code_privacy": "p",
    "created": "2025-07-20T23:14:33.933835Z",
    "cup_league": 2815434,
    "has_cup": true,
    "id": 314,
    "league_type": "s",
    "max_entries": null,
    "name": "Overall",
    "rank": null,
    "scoring": "c",
    "start_event": 1
  },
  "new_entries": {
    "has_next": false,
    "page": 1,
    "results": []
  },
  "standings": {
    "has_next": true,
    "page": 794,
    "results": [
      {
        "club_badge_src": null,
        "entry": 317134,
        "entry_name": "Playa Fista FC",
        "event_total": 62,
        "has_played": true,
        "id": 2125712,
        "last_rank": 41003,
        "player_name": "Joshua Smith",
        "rank": 39651,
        "rank_sort": 39651,
        "total": 2360
      },
      {
        "club_badge_src": null,
        "entry": 367775,
        "entry_name": "CR7-GOAT",
        "event_total": 62,
        "has_played": true,
        "id": 2461221,
        "last_rank": 41003,
        "player_name": "Delelegn Yilma",
        "rank": 39651,
        "rank_sort": 39652,
        "total": 2360
      },
      {
        "club_badge_src": null,
        "entry": 498288,
        "entry_name": "Kev's Hero's",
        "event_total": 36,
        "has_played": true,
        "id": 3344386,
        "last_rank": 19346,
        "player_name": "Kevin Dudley",
        "rank": 39651,
        "rank_sort": 39653,
        "total": 2360
      },
      {
        "club_badge_src": null,
        "entry": 1998788,
        "entry_name": "\u0632\u0639\u064a\u0645 \u0627\u0644\u0645\u062f\u0641\u0639\u062c\u064a\u0629",
        "event_total": 41,
        "has_played": true,
        "id": 14125550,
        "last_rank": 20087,
        "player_name": "\u0632\u0627\u0647\u0631 \u0627\u0644\u0641\u0627\u062a\u062d",
        "rank": 39651,
        "rank_sort": 39654,
        "total": 2360
      },
      {
        "club_badge_src": null,
        "entry": 6935688,
        "entry_name": "de chern fc",
        "event_total": 50,
        "has_played": true,
        "id": 55603547,
        "last_rank": 31484,
        "player_name": "De Chern Tee",
        "rank": 39651,
        "rank_sort": 39655,
        "total": 2360
      },
      {
        "club_badge_src": null,
        "entry": 760669,
        "entry_name": "\u0639\u0627\u0645\u0631 \u0627\u0644\u062f\u0627\u0631\u0633\u0647",
        "event_total": 68,
        "has_played": true,
        "id": 5185660,
        "last_rank": 55991,
        "player_name": "Aamer Eldarsa",
        "rank": 39656,
        "rank_sort": 39656,
        "total": 2360
      },
      {
        "club_badge_src": null,
        "entry": 1206903,
        "entry_name": "Birds11",
        "event_total": 45,
        "has_played": true,
        "id": 8375801,
        "last_rank": 26595,
        "player_name": "Martin Cook",
        "rank": 39656,
        "rank_sort": 39657,
        "total": 2360
      },
      {
        "club_badge_src": null,
        "entry": 2095371,
        "entry_name": "BeastieBoys",
        "event_total": 61,
        "has_played": true,
        "id": 14866909,
        "last_rank": 45072,
        "player_name": "Jan Erik Finseth",
        "rank": 39656,
        "rank_sort": 39658,
        "total": 2360
      },
      {
        "club_badge_src": null,
        "entry": 2863445,
        "entry_name": "Lemonlake FC",
        "event_total": 54,
        "has_played": true,
        "id": 20941683,
        "last_rank": 31484,
        "player_name": "Marius Aasen",
        "rank": 39656,
        "rank_sort": 39659,
        "total": 2360
      },
      {
        "club_badge_src": null,
        "entry": 3556387,
        "entry_name": "Team Jupiter",
        "event_total": 66,
        "has_played": true,
        "id": 26478523,
        "last_rank": 46479,
        "player_name": "MH Yasin",
        "rank": 39656,
        "rank_sort": 39660,
        "total": 2360
      },
      {
        "club_badge_src": null,
        "entry": 3991654,
        "entry_name": "TWT",
        "event_total": 78,
        "has_played": true,
        "id": 30057041,
        "last_rank": 59399,
        "player_name": "Olle Karlsson",
        "rank": 39656,
        "rank_sort": 39661,
        "total": 2360
      },
      {
        "club_badge_src": null,
        "entry": 3278820,
        "entry_name": "Myyryork FC",
        "event_total": 57,
        "has_played": true,
        "id": 24268292,
        "last_rank": 39747,
        "player_name": "Lauri Tammela",
        "rank": 39662,
        "rank_sort": 39662,
        "total": 2360
      },
      {
        "club_badge_src": null,
        "entry": 2894983,
        "entry_name": "\u0627\u0644\u0635\u0639\u0627\u064a\u062f\u0629",
        "event_total": 53,
        "has_played": true,
        "id": 21210538,
        "last_rank": 26595,
        "player_name": "Mohamed Battah",
        "rank": 39663,
        "rank_sort": 39663,
        "total": 2360
      },
      {
        "club_badge_src": null,
        "entry": 3597794,
        "entry_name": "Catalunya",
        "event_total": 64,
        "has_played": true,
        "id": 26795525,
        "last_rank": 43701,
        "player_name": "mohamed alaa",
        "rank": 39663,
        "rank_sort": 39664,
        "total": 2360
      },
      {
        "club_badge_src": null,
        "entry": 8071466,
        "entry_name": "Lebong FC",
        "event_total": 72,
        "has_played": true,
        "id": 66535377,
        "last_rank": 55998,
        "player_name": "Zyang @-@",
        "rank": 39663,
        "rank_sort": 39665,
        "total": 2360
      },
      {
        "club_badge_src": "https://fantasy.premierleague.com/gcs/plfpl-production-adobe-approved/plfpl-production/24/90fa46fa-c821-4fcb-afce-555559b00aa8.png",
        "entry": 24,
        "entry_name": "FPL on the Beach",
        "event_total": 70,
        "has_played": true,
        "id": 133,
        "last_rank": 41017,
        "player_name": "Hector Isaac",
        "rank": 39666,
        "rank_sort": 39666,
        "total": 2360
      },
      {
        "club_badge_src": null,
        "entry": 1162407,
        "entry_name": "MuppetMaster (\u2b50\u2b50)",
        "event_total": 63,
        "has_played": true,
        "id": 8063517,
        "last_rank": 42371,
        "player_name": "Andy Wong",
        "rank": 39667,
        "rank_sort": 39667,
        "total": 2360
      },
      {
        "club_badge_src": null,
        "entry": 764303,
        "entry_name": "Scarlet Hurricanes",
        "event_total": 72,
        "has_played": true,
        "id": 5212587,
        "last_rank": 49514,
        "player_name": "Albert Markowicz",
        "rank": 39668,
        "rank_sort": 39668,
        "total": 2360
      },
      {
        "club_badge_src": null,
        "entry": 4480076,
        "entry_name": "Manchester is blue",
        "event_total": 46,
        "has_played": true,
        "id": 34144275,
        "last_rank": 23949,
        "player_name": "Theodor Meza Axelsson",
        "rank": 39668,
        "rank_sort": 39669,
        "total": 2360
      },
      {
        "club_badge_src": null,
        "entry": 1442117,
        "entry_name": "SAMI-1",
        "event_total": 53,
        "has_played": true,
        "id": 10049043,
        "last_rank": 34901,
        "player_name": "KSA --",
        "rank": 39670,
        "rank_sort": 39670,
        "total": 2360
      },
      {
        "club_badge_src": null,
        "entry": 1823182,
        "entry_name": "In It To Lose It",
        "event_total": 77,
        "has_played": true,
        "id": 12822793,
        "last_rank": 64723,
        "player_name": "David Southwell",
        "rank": 39670,
        "rank_sort": 39671,
        "total": 2360
      },
      {
        "club_badge_src": null,
        "entry": 1438215,
        "entry_name": "CHAMP\u2019S XI",
        "event_total": 54,
        "has_played": true,
        "id": 10021611,
        "last_rank": 31498,
        "player_name": "Jason Champaneri",
        "rank": 39672,
        "rank_sort": 39672,
        "total": 2360
      },
      {
        "club_badge_src": null,
        "entry": 5510596,
        "entry_name": "winin squad\ufffd",
        "event_total": 59,
        "has_played": true,
        "id": 42952286,
        "last_rank": 32621,
        "player_name": "Lawrence Attama",
        "rank": 39673,
        "rank_sort": 39673,
        "total": 2360
      },
      {
        "club_badge_src": null,
        "entry": 473532,
        "entry_name": "AC Maldini",
        "event_total": 63,
        "has_played": true,
        "id": 3179072,
        "last_rank": 48038,
        "player_name": "Peter Clark",
        "rank": 39674,
        "rank_sort": 39674,
        "total": 2360
      },
      {
        "club_badge_src": null,
        "entry": 1905575,
        "entry_name": "colleys clowns",
        "event_total": 67,
        "has_played": true,
        "id": 13433802,
        "last_rank": 54334,
        "player_name": "David Colley",
        "rank": 39675,
        "rank_sort": 39675,
        "total": 2359
      },
      {
        "club_badge_src": null,
        "entry": 7901909,
        "entry_name": "Kate & Gerry did it",
        "event_total": 79,
        "has_played": true,
        "id": 65005068,
        "last_rank": 76856,
        "player_name": "John Martin",
        "rank": 39676,
        "rank_sort": 39676,
        "total": 2359
      },
      {
        "club_badge_src": null,
        "entry": 6053043,
        "entry_name": "Fionn Hourican",
        "event_total": 56,
        "has_played": true,
        "id": 47766119,
        "last_rank": 38510,
        "player_name": "Fionn Hourican",
        "rank": 39677,
        "rank_sort": 39677,
        "total": 2359
      },
      {
        "club_badge_src": null,
        "entry": 3110362,
        "entry_name": "Up The Chels",
        "event_total": 56,
        "has_played": true,
        "id": 22952360,
        "last_rank": 38512,
        "player_name": "Erik Baxter",
        "rank": 39678,
        "rank_sort": 39678,
        "total": 2359
      },
      {
        "club_badge_src": null,
        "entry": 5155068,
        "entry_name": "lynnersdinners",
        "event_total": 66,
        "has_played": true,
        "id": 39886406,
        "last_rank": 52704,
        "player_name": "Richard Lynn",
        "rank": 39679,
        "rank_sort": 39679,
        "total": 2359
      },
      {
        "club_badge_src": null,
        "entry": 3822033,
        "entry_name": "Blaugrana",
        "event_total": 71,
        "has_played": true,
        "id": 28586298,
        "last_rank": 61220,
        "player_name": "Amel Ali\u0107",
        "rank": 39680,
        "rank_sort": 39680,
        "total": 2359
      },
      {
        "club_badge_src": null,
        "entry": 6050820,
        "entry_name": "Kinder Mbeumo",
        "event_total": 76,
        "has_played": true,
        "id": 47747019,
        "last_rank": 70566,
        "player_name": "Andy Gelder",
        "rank": 39680,
        "rank_sort": 39681,
        "total": 2359
      },
      {
        "club_badge_src": "https://fantasy.premierleague.com/gcs/plfpl-production-adobe-approved/plfpl-production/6280406/81d2aa4a-c1d5-47d2-ac7f-826dd51a1386.png",
        "entry": 6280406,
        "entry_name": "team58",
        "event_total": 53,
        "has_played": true,
        "id": 49739881,
        "last_rank": 34904,
        "player_name": "Mouaad AJJAJ",
        "rank": 39680,
        "rank_sort": 39682,
        "total": 2359
      },
      {
        "club_badge_src": null,
        "entry": 819210,
        "entry_name": "King Weenie III",
        "event_total": 55,
        "has_played": true,
        "id": 5610384,
        "last_rank": 37314,
        "player_name": "Liam Steff",
        "rank": 39683,
        "rank_sort": 39683,
        "total": 2359
      },
      {
        "club_badge_src": "https://fantasy.premierleague.com/gcs/plfpl-production-adobe-approved/plfpl-production/1341730/9ac7312d-a3a0-4183-8865-969daa4622e3.png",
        "entry": 1341730,
        "entry_name": "Livin Lavia Loca",
        "event_total": 56,
        "has_played": true,
        "id": 9328814,
        "last_rank": 38523,
        "player_name": "Ben Adcock",
        "rank": 39683,
        "rank_sort": 39684,
        "total": 2359
      },
      {
        "club_badge_src": null,
        "entry": 2201204,
        "entry_name": "Wireless Rutter",
        "event_total": 55,
        "has_played": true,
        "id": 15664628,
        "last_rank": 37314,
        "player_name": "Charlie Rutter",
        "rank": 39683,
        "rank_sort": 39685,
        "total": 2359
      },
      {
        "club_badge_src": null,
        "entry": 3488189,
        "entry_name": "X111 ASK",
        "event_total": 53,
        "has_played": true,
        "id": 25940763,
        "last_rank": 34910,
        "player_name": "S Kooner",
        "rank": 39683,
        "rank_sort": 39686,
        "total": 2359
      },
      {
        "club_badge_src": null,
        "entry": 8825364,
        "entry_name": "Palmer Party",
        "event_total": 35,
        "has_played": true,
        "id": 73788283,
        "last_rank": 18632,
        "player_name": "Oscar Bruun",
        "rank": 39683,
        "rank_sort": 39687,
        "total": 2359
      },
      {
        "club_badge_src": null,
        "entry": 8888082,
        "entry_name": "Mazen",
        "event_total": 43,
        "has_played": true,
        "id": 74393166,
        "last_rank": 24812,
        "player_name": "Mazen Mohamed",
        "rank": 39683,
        "rank_sort": 39688,
        "total": 2359
      },
      {
        "club_badge_src": null,
        "entry": 8958569,
        "entry_name": "Abu Amru",
        "event_total": 77,
        "has_played": true,
        "id": 75082326,
        "last_rank": 72622,
        "player_name": "Abu Umar",
        "rank": 39683,
        "rank_sort": 39689,
        "total": 2359
      },
      {
        "club_badge_src": null,
        "entry": 359416,
        "entry_name": "Valle",
        "event_total": 43,
        "has_played": true,
        "id": 2405147,
        "last_rank": 24817,
        "player_name": "Valter Ottosson",
        "rank": 39690,
        "rank_sort": 39690,
        "total": 2359
      },
      {
        "club_badge_src": null,
        "entry": 1398911,
        "entry_name": "Milky Milky",
        "event_total": 63,
        "has_played": true,
        "id": 9732488,
        "last_rank": 48067,
        "player_name": "Mike English",
        "rank": 39690,
        "rank_sort": 39691,
        "total": 2359
      },
      {
        "club_badge_src": null,
        "entry": 2072646,
        "entry_name": "Lavia n Leave Ya",
        "event_total": 68,
        "has_played": true,
        "id": 14694648,
        "last_rank": 56047,
        "player_name": "Adil Mohamed",
        "rank": 39690,
        "rank_sort": 39692,
        "total": 2359
      },
      {
        "club_badge_src": null,
        "entry": 5656559,
        "entry_name": "TeamStainless",
        "event_total": 62,
        "has_played": true,
        "id": 44252645,
        "last_rank": 46534,
        "player_name": "Ayo O",
        "rank": 39690,
        "rank_sort": 39693,
        "total": 2359
      },
      {
        "club_badge_src": "https://fantasy.premierleague.com/gcs/plfpl-production-adobe-approved/plfpl-production/8342627/1b61b177-2186-407f-ba50-fe87cbad8b79.png",
        "entry": 8342627,
        "entry_name": "Ctrl + Alt + De Ligt",
        "event_total": 43,
        "has_played": true,
        "id": 69133279,
        "last_rank": 24817,
        "player_name": "Hugo Alves",
        "rank": 39690,
        "rank_sort": 39694,
        "total": 2359
      },
      {
        "club_badge_src": "https://fantasy.premierleague.com/gcs/plfpl-production-adobe-approved/plfpl-production/9022882/cd74f069-e8bc-403a-a9c9-572fdf6050e1.png",
        "entry": 9022882,
        "entry_name": "WIN PATTARAWEE",
        "event_total": 63,
        "has_played": true,
        "id": 75700206,
        "last_rank": 48067,
        "player_name": "WIN PATTARAWEE",
        "rank": 39690,
        "rank_sort": 39695,
        "total": 2359
      },
      {
        "club_badge_src": null,
        "entry": 4783434,
        "entry_name": "T\u00f3ftal\u00ed\u00f0",
        "event_total": 80,
        "has_played": true,
        "id": 36823856,
        "last_rank": 79027,
        "player_name": "Ari Vestergaard",
        "rank": 39696,
        "rank_sort": 39696,
        "total": 2359
      },
      {
        "club_badge_src": null,
        "entry": 5175498,
        "entry_name": "ifitu",
        "event_total": 74,
        "has_played": true,
        "id": 40058330,
        "last_rank": 66627,
        "player_name": "If Antonov",
        "rank": 39696,
        "rank_sort": 39697,
        "total": 2359
      },
      {
        "club_badge_src": null,
        "entry": 5439254,
        "entry_name": "spyros24",
        "event_total": 59,
        "has_played": true,
        "id": 42318123,
        "last_rank": 42386,
        "player_name": "Spyros S",
        "rank": 39696,
        "rank_sort": 39698,
        "total": 2359
      },
      {
        "club_badge_src": null,
        "entry": 6018395,
        "entry_name": "J1897",
        "event_total": 70,
        "has_played": true,
        "id": 47462209,
        "last_rank": 59475,
        "player_name": "Christopher Ellul",
        "rank": 39696,
        "rank_sort": 39699,
        "total": 2359
      },
      {
        "club_badge_src": null,
        "entry": 6297585,
        "entry_name": "Red Djed Redemption",
        "event_total": 43,
        "has_played": true,
        "id": 49916350,
        "last_rank": 24832,
        "player_name": "Andrew Krzysik",
        "rank": 39696,
        "rank_sort": 39700,
        "total": 2359
      }
    ]
  }
}