{
  "last_updated_data": "2026-05-24T23:28:17Z",
  "league": {
    "admin_entry": null,
    "closed": false,
    "code_privacy": "p",
    "created": "2025-07-20T23:14:33.933835Z",
    "cup_league": 2815434,
    "has_cup": true,
    "id": 314,
    "league_type": "s",
    "max_entries": null,
    "name": "Overall",
    "rank": null,
    "scoring": "c",
    "start_event": 1
  },
  "new_entries": {
    "has_next": false,
    "page": 1,
    "results": []
  },
  "standings": {
    "has_next": true,
    "page": 1664,
    "results": [
      {
        "club_badge_src": null,
        "entry": 3463574,
        "entry_name": "it\u00e4porinmasterclass",
        "event_total": 42,
        "has_played": true,
        "id": 25746629,
        "last_rank": 55311,
        "player_name": "Toni Storberg",
        "rank": 83008,
        "rank_sort": 83151,
        "total": 2334
      },
      {
        "club_badge_src": null,
        "entry": 3476715,
        "entry_name": "Meritocracy",
        "event_total": 63,
        "has_played": true,
        "id": 25850875,
        "last_rank": 99596,
        "player_name": "La Pioche",
        "rank": 83008,
        "rank_sort": 83152,
        "total": 2334
      },
      {
        "club_badge_src": null,
        "entry": 3491693,
        "entry_name": "FC KHODA",
        "event_total": 61,
        "has_played": true,
        "id": 25968026,
        "last_rank": 94537,
        "player_name": "Uwais Khoda",
        "rank": 83008,
        "rank_sort": 83153,
        "total": 2334
      },
      {
        "club_badge_src": null,
        "entry": 3503074,
        "entry_name": "nikdzl fc",
        "event_total": 89,
        "has_played": true,
        "id": 26059486,
        "last_rank": 183535,
        "player_name": "Nikolas Zachariades",
        "rank": 83008,
        "rank_sort": 83154,
        "total": 2334
      },
      {
        "club_badge_src": null,
        "entry": 3564755,
        "entry_name": "Scrum and Get It",
        "event_total": 70,
        "has_played": true,
        "id": 26542754,
        "last_rank": 117915,
        "player_name": "Courtney Stirling",
        "rank": 83008,
        "rank_sort": 83155,
        "total": 2334
      },
      {
        "club_badge_src": null,
        "entry": 3571326,
        "entry_name": "Elton FC",
        "event_total": 59,
        "has_played": true,
        "id": 26592603,
        "last_rank": 89706,
        "player_name": "Philip Rogic",
        "rank": 83008,
        "rank_sort": 83156,
        "total": 2334
      },
      {
        "club_badge_src": null,
        "entry": 3578004,
        "entry_name": "Gunneri Gb",
        "event_total": 56,
        "has_played": true,
        "id": 26643744,
        "last_rank": 82398,
        "player_name": "Kristian Todorov",
        "rank": 83008,
        "rank_sort": 83157,
        "total": 2334
      },
      {
        "club_badge_src": null,
        "entry": 3594144,
        "entry_name": "\u0648\u062d\u0634\u0646\u064a \u0639\u0644\u064a \u0645\u0639\u0644\u0648\u0644",
        "event_total": 53,
        "has_played": true,
        "id": 26767926,
        "last_rank": 76128,
        "player_name": "\u0627\u0644\u0639\u0628\u0627\u0633\u064a \u261d\ud83c\udffc",
        "rank": 83008,
        "rank_sort": 83158,
        "total": 2334
      },
      {
        "club_badge_src": null,
        "entry": 3636141,
        "entry_name": "Rout legends",
        "event_total": 44,
        "has_played": true,
        "id": 27097503,
        "last_rank": 58911,
        "player_name": "Paul Routledge",
        "rank": 83008,
        "rank_sort": 83159,
        "total": 2334
      },
      {
        "club_badge_src": null,
        "entry": 3707724,
        "entry_name": "Fpl_Savage",
        "event_total": 59,
        "has_played": true,
        "id": 27665476,
        "last_rank": 89426,
        "player_name": "Alpha Savage",
        "rank": 83008,
        "rank_sort": 83160,
        "total": 2334
      },
      {
        "club_badge_src": null,
        "entry": 3722119,
        "entry_name": "Wirtz nightmare",
        "event_total": 38,
        "has_played": true,
        "id": 27777849,
        "last_rank": 49078,
        "player_name": "Glen Smith",
        "rank": 83008,
        "rank_sort": 83161,
        "total": 2334
      },
      {
        "club_badge_src": null,
        "entry": 3738318,
        "entry_name": "Hell In Lascelles",
        "event_total": 64,
        "has_played": true,
        "id": 27905081,
        "last_rank": 102125,
        "player_name": "Jordan Lillywhite",
        "rank": 83008,
        "rank_sort": 83162,
        "total": 2334
      },
      {
        "club_badge_src": null,
        "entry": 3760493,
        "entry_name": "Partizanove bebe",
        "event_total": 52,
        "has_played": true,
        "id": 28077570,
        "last_rank": 73975,
        "player_name": "Luka Zecevic",
        "rank": 83008,
        "rank_sort": 83163,
        "total": 2334
      },
      {
        "club_badge_src": null,
        "entry": 3820879,
        "entry_name": "Holy Boehly",
        "event_total": 35,
        "has_played": true,
        "id": 28577146,
        "last_rank": 44672,
        "player_name": "\u00f8ystein myrkaskog",
        "rank": 83008,
        "rank_sort": 83164,
        "total": 2334
      },
      {
        "club_badge_src": null,
        "entry": 3825815,
        "entry_name": "Kinder Mbeumo",
        "event_total": 53,
        "has_played": true,
        "id": 28616926,
        "last_rank": 67695,
        "player_name": "Owen Parker",
        "rank": 83008,
        "rank_sort": 83165,
        "total": 2334
      },
      {
        "club_badge_src": null,
        "entry": 3886221,
        "entry_name": "Murphys law",
        "event_total": 57,
        "has_played": true,
        "id": 29202210,
        "last_rank": 84731,
        "player_name": "Mattias Hall",
        "rank": 83008,
        "rank_sort": 83166,
        "total": 2334
      },
      {
        "club_badge_src": null,
        "entry": 3920079,
        "entry_name": "Livin\u2019 Saliba Loca",
        "event_total": 45,
        "has_played": true,
        "id": 29477434,
        "last_rank": 60671,
        "player_name": "Ashley Deller",
        "rank": 83008,
        "rank_sort": 83167,
        "total": 2334
      },
      {
        "club_badge_src": null,
        "entry": 3987942,
        "entry_name": "msamiozil",
        "event_total": 64,
        "has_played": true,
        "id": 30025653,
        "last_rank": 102125,
        "player_name": "mohammed sami",
        "rank": 83008,
        "rank_sort": 83168,
        "total": 2334
      },
      {
        "club_badge_src": null,
        "entry": 4078731,
        "entry_name": "S\u00e6gajylte Ukselag",
        "event_total": 75,
        "has_played": true,
        "id": 30789433,
        "last_rank": 133827,
        "player_name": "Simon Holst Aandahl",
        "rank": 83008,
        "rank_sort": 83169,
        "total": 2334
      },
      {
        "club_badge_src": null,
        "entry": 4124548,
        "entry_name": "Fox United",
        "event_total": 64,
        "has_played": true,
        "id": 31162542,
        "last_rank": 102125,
        "player_name": "Howard Fox",
        "rank": 83008,
        "rank_sort": 83170,
        "total": 2334
      },
      {
        "club_badge_src": null,
        "entry": 4156813,
        "entry_name": "yazeed___4",
        "event_total": 57,
        "has_played": true,
        "id": 31422894,
        "last_rank": 84980,
        "player_name": "@ yazeed___4 \ud83c\uddf5\ud83c\uddf8",
        "rank": 83008,
        "rank_sort": 83171,
        "total": 2334
      },
      {
        "club_badge_src": "https://fantasy.premierleague.com/gcs/plfpl-production-adobe-approved/plfpl-production/4173188/f5f0c073-9d88-47c4-bcde-341a695a2509.png",
        "entry": 4173188,
        "entry_name": "The Sea Wolves",
        "event_total": 57,
        "has_played": true,
        "id": 31563739,
        "last_rank": 84731,
        "player_name": "Phil Saul",
        "rank": 83008,
        "rank_sort": 83172,
        "total": 2334
      },
      {
        "club_badge_src": null,
        "entry": 4175046,
        "entry_name": "ADPH1/2025(18)",
        "event_total": 55,
        "has_played": true,
        "id": 31579259,
        "last_rank": 80194,
        "player_name": "Amirul Afif",
        "rank": 83008,
        "rank_sort": 83173,
        "total": 2334
      },
      {
        "club_badge_src": null,
        "entry": 4294997,
        "entry_name": "\u0160ebi",
        "event_total": 59,
        "has_played": true,
        "id": 32582148,
        "last_rank": 79817,
        "player_name": "Marin \u0160ebalj",
        "rank": 83008,
        "rank_sort": 83174,
        "total": 2334
      },
      {
        "club_badge_src": null,
        "entry": 4336883,
        "entry_name": "Alisson Chains",
        "event_total": 56,
        "has_played": true,
        "id": 32926292,
        "last_rank": 73720,
        "player_name": "Gavin Smith",
        "rank": 83008,
        "rank_sort": 83175,
        "total": 2334
      },
      {
        "club_badge_src": null,
        "entry": 4388305,
        "entry_name": "Varane Away With It",
        "event_total": 71,
        "has_played": true,
        "id": 33357776,
        "last_rank": 109863,
        "player_name": "D Gordon",
        "rank": 83008,
        "rank_sort": 83176,
        "total": 2334
      },
      {
        "club_badge_src": null,
        "entry": 4453901,
        "entry_name": "Jangos Jabronis",
        "event_total": 64,
        "has_played": true,
        "id": 33926709,
        "last_rank": 102125,
        "player_name": "Gavin O'Neill",
        "rank": 83008,
        "rank_sort": 83177,
        "total": 2334
      },
      {
        "club_badge_src": null,
        "entry": 4512374,
        "entry_name": "palmer FC",
        "event_total": 79,
        "has_played": true,
        "id": 34408079,
        "last_rank": 147186,
        "player_name": "Qhayiya Mkobeni",
        "rank": 83008,
        "rank_sort": 83178,
        "total": 2334
      },
      {
        "club_badge_src": null,
        "entry": 4555017,
        "entry_name": "Sayedxp",
        "event_total": 66,
        "has_played": true,
        "id": 34756267,
        "last_rank": 96374,
        "player_name": "Sayed Mohamed",
        "rank": 83008,
        "rank_sort": 83179,
        "total": 2334
      },
      {
        "club_badge_src": null,
        "entry": 4608854,
        "entry_name": "Brokeri bodibilderi",
        "event_total": 64,
        "has_played": true,
        "id": 35215437,
        "last_rank": 101818,
        "player_name": "Luka Arizovi\u0107",
        "rank": 83008,
        "rank_sort": 83180,
        "total": 2334
      },
      {
        "club_badge_src": "https://fantasy.premierleague.com/gcs/plfpl-production-adobe-approved/plfpl-production/4629246/82c06add-1c45-4632-b90d-44ef64a18dc4.png",
        "entry": 4629246,
        "entry_name": "Mare Raketa",
        "event_total": 60,
        "has_played": true,
        "id": 35394973,
        "last_rank": 82398,
        "player_name": "Marko Vrebac",
        "rank": 83008,
        "rank_sort": 83181,
        "total": 2334
      },
      {
        "club_badge_src": null,
        "entry": 4642477,
        "entry_name": "Teignmouth Trotters",
        "event_total": 77,
        "has_played": true,
        "id": 35509342,
        "last_rank": 140403,
        "player_name": "Ruth Doughty",
        "rank": 83008,
        "rank_sort": 83182,
        "total": 2334
      },
      {
        "club_badge_src": null,
        "entry": 4678741,
        "entry_name": "Blink 1-Eto'o",
        "event_total": 58,
        "has_played": true,
        "id": 35846112,
        "last_rank": 87541,
        "player_name": "George Riley",
        "rank": 83008,
        "rank_sort": 83183,
        "total": 2334
      },
      {
        "club_badge_src": null,
        "entry": 4684004,
        "entry_name": "Ajay's Amateurs",
        "event_total": 58,
        "has_played": true,
        "id": 35894324,
        "last_rank": 87350,
        "player_name": "Ajay Patel",
        "rank": 83008,
        "rank_sort": 83184,
        "total": 2334
      },
      {
        "club_badge_src": null,
        "entry": 4785721,
        "entry_name": "CF PARET",
        "event_total": 64,
        "has_played": true,
        "id": 36841908,
        "last_rank": 91835,
        "player_name": "Carl-Frederic Paret",
        "rank": 83008,
        "rank_sort": 83185,
        "total": 2334
      },
      {
        "club_badge_src": null,
        "entry": 4893167,
        "entry_name": "zubi dooby doo",
        "event_total": 64,
        "has_played": true,
        "id": 37727919,
        "last_rank": 102343,
        "player_name": "Ben Alexander",
        "rank": 83008,
        "rank_sort": 83186,
        "total": 2334
      },
      {
        "club_badge_src": null,
        "entry": 4901221,
        "entry_name": "The Jurgen Flops",
        "event_total": 62,
        "has_played": true,
        "id": 37794267,
        "last_rank": 97305,
        "player_name": "Richard Yapp",
        "rank": 83008,
        "rank_sort": 83187,
        "total": 2334
      },
      {
        "club_badge_src": "https://fantasy.premierleague.com/gcs/plfpl-production-adobe-approved/plfpl-production/4931418/86f0f152-6234-48a8-8808-207c1332bcab.png",
        "entry": 4931418,
        "entry_name": "WaxiidCapsters1",
        "event_total": 61,
        "has_played": true,
        "id": 38041633,
        "last_rank": 75537,
        "player_name": "Waxiid Capster",
        "rank": 83008,
        "rank_sort": 83188,
        "total": 2334
      },
      {
        "club_badge_src": null,
        "entry": 5179642,
        "entry_name": "Lend me a yoro",
        "event_total": 70,
        "has_played": true,
        "id": 40092202,
        "last_rank": 118654,
        "player_name": "Louis Twining",
        "rank": 83008,
        "rank_sort": 83189,
        "total": 2334
      },
      {
        "club_badge_src": null,
        "entry": 5624126,
        "entry_name": "Gy\u00f6kTuah FC",
        "event_total": 69,
        "has_played": true,
        "id": 43966153,
        "last_rank": 115421,
        "player_name": "Shantam Kalra",
        "rank": 83008,
        "rank_sort": 83190,
        "total": 2334
      },
      {
        "club_badge_src": null,
        "entry": 5676890,
        "entry_name": "\u00d8deargod",
        "event_total": 50,
        "has_played": true,
        "id": 44427903,
        "last_rank": 69907,
        "player_name": "Eirik Starheim",
        "rank": 83008,
        "rank_sort": 83191,
        "total": 2334
      },
      {
        "club_badge_src": "https://fantasy.premierleague.com/gcs/plfpl-production-adobe-approved/plfpl-production/5758828/70be5546-1c2f-43f5-a753-0293dfabbee4.png",
        "entry": 5758828,
        "entry_name": "Glockeres",
        "event_total": 67,
        "has_played": true,
        "id": 45142058,
        "last_rank": 109863,
        "player_name": "Jack Kelly",
        "rank": 83008,
        "rank_sort": 83192,
        "total": 2334
      },
      {
        "club_badge_src": null,
        "entry": 5781809,
        "entry_name": "Ekitike Taka",
        "event_total": 59,
        "has_played": true,
        "id": 45339049,
        "last_rank": 89706,
        "player_name": "Sean Evers",
        "rank": 83008,
        "rank_sort": 83193,
        "total": 2334
      },
      {
        "club_badge_src": null,
        "entry": 5784785,
        "entry_name": "Sailiya FC",
        "event_total": 39,
        "has_played": true,
        "id": 45364616,
        "last_rank": 50635,
        "player_name": "Mishaal Nousher",
        "rank": 83008,
        "rank_sort": 83194,
        "total": 2334
      },
      {
        "club_badge_src": null,
        "entry": 5950354,
        "entry_name": "Amadpiano",
        "event_total": 61,
        "has_played": true,
        "id": 46802252,
        "last_rank": 94255,
        "player_name": "Cole Bailey",
        "rank": 83008,
        "rank_sort": 83195,
        "total": 2334
      },
      {
        "club_badge_src": null,
        "entry": 5961488,
        "entry_name": "JM FC",
        "event_total": 56,
        "has_played": true,
        "id": 46900504,
        "last_rank": 82664,
        "player_name": "Jason Mouawad",
        "rank": 83008,
        "rank_sort": 83196,
        "total": 2334
      },
      {
        "club_badge_src": "https://fantasy.premierleague.com/gcs/plfpl-production-adobe-approved/plfpl-production/6056537/83690fbb-3dc2-4d81-9546-55198204bb55.png",
        "entry": 6056537,
        "entry_name": "Crveni \u0110avoli GGMU",
        "event_total": 63,
        "has_played": true,
        "id": 47795971,
        "last_rank": 99596,
        "player_name": "Nemanja Stojic",
        "rank": 83008,
        "rank_sort": 83197,
        "total": 2334
      },
      {
        "club_badge_src": null,
        "entry": 6366964,
        "entry_name": "Hareth Saket \ufffd",
        "event_total": 59,
        "has_played": true,
        "id": 50628124,
        "last_rank": 89897,
        "player_name": "hareth saket",
        "rank": 83008,
        "rank_sort": 83198,
        "total": 2334
      },
      {
        "club_badge_src": null,
        "entry": 6372731,
        "entry_name": "CROOZINN",
        "event_total": 49,
        "has_played": true,
        "id": 50678612,
        "last_rank": 67422,
        "player_name": "Kelvin Munene",
        "rank": 83008,
        "rank_sort": 83199,
        "total": 2334
      },
      {
        "club_badge_src": null,
        "entry": 6435663,
        "entry_name": "Mutt-ball FC",
        "event_total": 63,
        "has_played": true,
        "id": 51234961,
        "last_rank": 99296,
        "player_name": "Richard Mutton",
        "rank": 83008,
        "rank_sort": 83200,
        "total": 2334
      }
    ]
  }
}