{
  "last_updated_data": "2026-05-24T23:28:17Z",
  "league": {
    "admin_entry": null,
    "closed": false,
    "code_privacy": "p",
    "created": "2025-07-20T23:14:33.933835Z",
    "cup_league": 2815434,
    "has_cup": true,
    "id": 314,
    "league_type": "s",
    "max_entries": null,
    "name": "Overall",
    "rank": null,
    "scoring": "c",
    "start_event": 1
  },
  "new_entries": {
    "has_next": false,
    "page": 1,
    "results": []
  },
  "standings": {
    "has_next": true,
    "page": 576,
    "results": [
      {
        "club_badge_src": null,
        "entry": 2417679,
        "entry_name": "BOMBA",
        "event_total": 47,
        "has_played": true,
        "id": 17283273,
        "last_rank": 20092,
        "player_name": "Elliot Simmons Flouras",
        "rank": 28747,
        "rank_sort": 28751,
        "total": 2370
      },
      {
        "club_badge_src": null,
        "entry": 2520892,
        "entry_name": "Young 13",
        "event_total": 62,
        "has_played": true,
        "id": 18062574,
        "last_rank": 25633,
        "player_name": "John Muigai",
        "rank": 28747,
        "rank_sort": 28752,
        "total": 2370
      },
      {
        "club_badge_src": null,
        "entry": 30404,
        "entry_name": "Sofian",
        "event_total": 61,
        "has_played": true,
        "id": 192408,
        "last_rank": 28485,
        "player_name": "Ahmed Oufa",
        "rank": 28753,
        "rank_sort": 28753,
        "total": 2370
      },
      {
        "club_badge_src": null,
        "entry": 5103887,
        "entry_name": "Dynamo Donny",
        "event_total": 52,
        "has_played": true,
        "id": 39451773,
        "last_rank": 20790,
        "player_name": "Mikey Donaldson",
        "rank": 28753,
        "rank_sort": 28754,
        "total": 2370
      },
      {
        "club_badge_src": null,
        "entry": 6187957,
        "entry_name": "FC Gunnerhino",
        "event_total": 39,
        "has_played": true,
        "id": 48941180,
        "last_rank": 14797,
        "player_name": "Radomir Patava",
        "rank": 28753,
        "rank_sort": 28755,
        "total": 2370
      },
      {
        "club_badge_src": "https://fantasy.premierleague.com/gcs/plfpl-production-adobe-approved/plfpl-production/305667/5bf5e474-f3dd-40e9-8283-676806776922.png",
        "entry": 305667,
        "entry_name": "Peter & Lena United",
        "event_total": 81,
        "has_played": true,
        "id": 2046945,
        "last_rank": 42327,
        "player_name": "Peter Jiang",
        "rank": 28756,
        "rank_sort": 28756,
        "total": 2370
      },
      {
        "club_badge_src": null,
        "entry": 1482875,
        "entry_name": "Niklaus Mikaelson",
        "event_total": 66,
        "has_played": true,
        "id": 10340509,
        "last_rank": 38484,
        "player_name": "Mohamed RABIIC \ud80c\udd53-\ufe0f",
        "rank": 28756,
        "rank_sort": 28757,
        "total": 2370
      },
      {
        "club_badge_src": null,
        "entry": 1816250,
        "entry_name": "ABCDEFC",
        "event_total": 67,
        "has_played": true,
        "id": 12772077,
        "last_rank": 30456,
        "player_name": "Suleman Musa",
        "rank": 28758,
        "rank_sort": 28758,
        "total": 2370
      },
      {
        "club_badge_src": null,
        "entry": 2440586,
        "entry_name": "Trapping Brook FFC",
        "event_total": 53,
        "has_played": true,
        "id": 17454184,
        "last_rank": 24796,
        "player_name": "Jesse Graves",
        "rank": 28758,
        "rank_sort": 28759,
        "total": 2370
      },
      {
        "club_badge_src": null,
        "entry": 2756844,
        "entry_name": "FPL Mang",
        "event_total": 58,
        "has_played": true,
        "id": 20090850,
        "last_rank": 22342,
        "player_name": "Thangsuanmang Guite",
        "rank": 28758,
        "rank_sort": 28760,
        "total": 2370
      },
      {
        "club_badge_src": null,
        "entry": 1955333,
        "entry_name": "Chini kwa chini",
        "event_total": 75,
        "has_played": true,
        "id": 13793718,
        "last_rank": 39747,
        "player_name": "Jana kutwa Kesho jana",
        "rank": 28761,
        "rank_sort": 28761,
        "total": 2370
      },
      {
        "club_badge_src": null,
        "entry": 1493530,
        "entry_name": "Toffee Toffs",
        "event_total": 76,
        "has_played": true,
        "id": 10415328,
        "last_rank": 52694,
        "player_name": "Fera Efremov",
        "rank": 28762,
        "rank_sort": 28762,
        "total": 2370
      },
      {
        "club_badge_src": null,
        "entry": 9038886,
        "entry_name": "extra shampoo",
        "event_total": 70,
        "has_played": true,
        "id": 75856313,
        "last_rank": 33800,
        "player_name": "Felix Melunsky",
        "rank": 28762,
        "rank_sort": 28763,
        "total": 2370
      },
      {
        "club_badge_src": null,
        "entry": 2427370,
        "entry_name": "Kante think ofa name",
        "event_total": 60,
        "has_played": true,
        "id": 17356661,
        "last_rank": 27535,
        "player_name": "Neil Davies",
        "rank": 28764,
        "rank_sort": 28764,
        "total": 2370
      },
      {
        "club_badge_src": null,
        "entry": 8215045,
        "entry_name": "Fortapt FC",
        "event_total": 65,
        "has_played": true,
        "id": 67883683,
        "last_rank": 37301,
        "player_name": "Lars Torset",
        "rank": 28765,
        "rank_sort": 28765,
        "total": 2370
      },
      {
        "club_badge_src": null,
        "entry": 268494,
        "entry_name": "Arandomoldman",
        "event_total": 82,
        "has_played": true,
        "id": 1786171,
        "last_rank": 56009,
        "player_name": "Manh Vu",
        "rank": 28766,
        "rank_sort": 28766,
        "total": 2370
      },
      {
        "club_badge_src": null,
        "entry": 662256,
        "entry_name": "TGW ARE MEN",
        "event_total": 59,
        "has_played": true,
        "id": 4476666,
        "last_rank": 26603,
        "player_name": "SCOTT CHEGG",
        "rank": 28767,
        "rank_sort": 28767,
        "total": 2370
      },
      {
        "club_badge_src": null,
        "entry": 1627830,
        "entry_name": "Bodman1",
        "event_total": 22,
        "has_played": true,
        "id": 11393906,
        "last_rank": 7298,
        "player_name": "moji odesilo",
        "rank": 28768,
        "rank_sort": 28768,
        "total": 2369
      },
      {
        "club_badge_src": null,
        "entry": 4596640,
        "entry_name": "Team TREx",
        "event_total": 55,
        "has_played": true,
        "id": 35107029,
        "last_rank": 26606,
        "player_name": "John Goodwin",
        "rank": 28769,
        "rank_sort": 28769,
        "total": 2369
      },
      {
        "club_badge_src": null,
        "entry": 6239599,
        "entry_name": "FC Agbinilekrou",
        "event_total": 46,
        "has_played": true,
        "id": 49385539,
        "last_rank": 19356,
        "player_name": "Marshall Matters",
        "rank": 28769,
        "rank_sort": 28770,
        "total": 2369
      },
      {
        "club_badge_src": null,
        "entry": 5471981,
        "entry_name": "VAR and Away",
        "event_total": 73,
        "has_played": true,
        "id": 42595076,
        "last_rank": 48043,
        "player_name": "Ciaran McCartan",
        "rank": 28771,
        "rank_sort": 28771,
        "total": 2369
      },
      {
        "club_badge_src": null,
        "entry": 660849,
        "entry_name": "Beef Cherki",
        "event_total": 57,
        "has_played": true,
        "id": 4466344,
        "last_rank": 28511,
        "player_name": "Dean Dean",
        "rank": 28772,
        "rank_sort": 28772,
        "total": 2369
      },
      {
        "club_badge_src": null,
        "entry": 9363602,
        "entry_name": "SiteKarrGateProMax",
        "event_total": 97,
        "has_played": true,
        "id": 79018127,
        "last_rank": 95396,
        "player_name": "SiteKarTamarLay MgFreddy",
        "rank": 28772,
        "rank_sort": 28773,
        "total": 2369
      },
      {
        "club_badge_src": null,
        "entry": 819402,
        "entry_name": "Unittttteeeed",
        "event_total": 65,
        "has_played": true,
        "id": 5611702,
        "last_rank": 37325,
        "player_name": "Saud Alajmi",
        "rank": 28774,
        "rank_sort": 28774,
        "total": 2369
      },
      {
        "club_badge_src": null,
        "entry": 1775356,
        "entry_name": "Saka Potatoes",
        "event_total": 47,
        "has_played": true,
        "id": 12472031,
        "last_rank": 20111,
        "player_name": "Lucas Boyce",
        "rank": 28774,
        "rank_sort": 28775,
        "total": 2369
      },
      {
        "club_badge_src": null,
        "entry": 5480589,
        "entry_name": "EPL Champs?",
        "event_total": 79,
        "has_played": true,
        "id": 42670970,
        "last_rank": 57723,
        "player_name": "M Giang",
        "rank": 28774,
        "rank_sort": 28776,
        "total": 2369
      },
      {
        "club_badge_src": null,
        "entry": 7669920,
        "entry_name": "Mainoo Event",
        "event_total": 92,
        "has_played": true,
        "id": 62900416,
        "last_rank": 83498,
        "player_name": "Munir Safi",
        "rank": 28774,
        "rank_sort": 28777,
        "total": 2369
      },
      {
        "club_badge_src": null,
        "entry": 8419333,
        "entry_name": "Expected Toulouse",
        "event_total": 58,
        "has_played": true,
        "id": 69861109,
        "last_rank": 29482,
        "player_name": "andrea morgan",
        "rank": 28774,
        "rank_sort": 28778,
        "total": 2369
      },
      {
        "club_badge_src": null,
        "entry": 242465,
        "entry_name": "Owl & The Octopus",
        "event_total": 72,
        "has_played": true,
        "id": 1614170,
        "last_rank": 46526,
        "player_name": "Owen Nunn",
        "rank": 28779,
        "rank_sort": 28779,
        "total": 2369
      },
      {
        "club_badge_src": null,
        "entry": 738511,
        "entry_name": "Slot Right In",
        "event_total": 61,
        "has_played": true,
        "id": 5020991,
        "last_rank": 32647,
        "player_name": "Tariq Mahmood",
        "rank": 28779,
        "rank_sort": 28780,
        "total": 2369
      },
      {
        "club_badge_src": null,
        "entry": 800956,
        "entry_name": "Kinder Mbeumo",
        "event_total": 42,
        "has_played": true,
        "id": 5482665,
        "last_rank": 16675,
        "player_name": "Jake Griffiths",
        "rank": 28779,
        "rank_sort": 28781,
        "total": 2369
      },
      {
        "club_badge_src": null,
        "entry": 1801456,
        "entry_name": "Robbenham Hotsberg",
        "event_total": 48,
        "has_played": true,
        "id": 12663670,
        "last_rank": 20826,
        "player_name": "Robert Berg",
        "rank": 28779,
        "rank_sort": 28782,
        "total": 2369
      },
      {
        "club_badge_src": null,
        "entry": 5466085,
        "entry_name": "ABs Super Squad",
        "event_total": 70,
        "has_played": true,
        "id": 42541946,
        "last_rank": 43737,
        "player_name": "Andrew Bhimy",
        "rank": 28779,
        "rank_sort": 28783,
        "total": 2369
      },
      {
        "club_badge_src": "https://fantasy.premierleague.com/gcs/plfpl-production-adobe-approved/plfpl-production/7423113/3270f9e6-185a-4101-9076-60a9a97d79e5.png",
        "entry": 7423113,
        "entry_name": "I give up already",
        "event_total": 68,
        "has_played": true,
        "id": 60279774,
        "last_rank": 41041,
        "player_name": "Jamie Underwood",
        "rank": 28779,
        "rank_sort": 28784,
        "total": 2369
      },
      {
        "club_badge_src": null,
        "entry": 53825,
        "entry_name": "AyruS",
        "event_total": 48,
        "has_played": true,
        "id": 346373,
        "last_rank": 20853,
        "player_name": "Surya C",
        "rank": 28785,
        "rank_sort": 28785,
        "total": 2369
      },
      {
        "club_badge_src": null,
        "entry": 1813183,
        "entry_name": "Change Name",
        "event_total": 55,
        "has_played": true,
        "id": 12749652,
        "last_rank": 26656,
        "player_name": "Harry Russell",
        "rank": 28785,
        "rank_sort": 28786,
        "total": 2369
      },
      {
        "club_badge_src": null,
        "entry": 2254745,
        "entry_name": "F\u00fcllkrug fighters",
        "event_total": 66,
        "has_played": true,
        "id": 16072298,
        "last_rank": 38571,
        "player_name": "Harvey Munden",
        "rank": 28785,
        "rank_sort": 28787,
        "total": 2369
      },
      {
        "club_badge_src": null,
        "entry": 3031694,
        "entry_name": "Change Name",
        "event_total": 40,
        "has_played": true,
        "id": 22309661,
        "last_rank": 15416,
        "player_name": "Albert Lisk",
        "rank": 28785,
        "rank_sort": 28788,
        "total": 2369
      },
      {
        "club_badge_src": null,
        "entry": 3079509,
        "entry_name": "Joga_Bon1t0",
        "event_total": 71,
        "has_played": true,
        "id": 22687107,
        "last_rank": 45144,
        "player_name": "Nikita Mokhan",
        "rank": 28785,
        "rank_sort": 28789,
        "total": 2369
      },
      {
        "club_badge_src": "https://fantasy.premierleague.com/gcs/plfpl-production-adobe-approved/plfpl-production/3239234/c84bd8cc-baf4-4f79-91f0-b268d6d29c65.png",
        "entry": 3239234,
        "entry_name": "The Arsenal Delusion",
        "event_total": 65,
        "has_played": true,
        "id": 23959311,
        "last_rank": 37325,
        "player_name": "Brian Flynn",
        "rank": 28785,
        "rank_sort": 28790,
        "total": 2369
      },
      {
        "club_badge_src": null,
        "entry": 3656869,
        "entry_name": "Triple-A",
        "event_total": 68,
        "has_played": true,
        "id": 27268558,
        "last_rank": 41048,
        "player_name": "Mohamed Arab",
        "rank": 28785,
        "rank_sort": 28791,
        "total": 2369
      },
      {
        "club_badge_src": null,
        "entry": 4172315,
        "entry_name": "Wirtz Case Scenario",
        "event_total": 49,
        "has_played": true,
        "id": 31556521,
        "last_rank": 21628,
        "player_name": "Levente W\u00e1gner",
        "rank": 28785,
        "rank_sort": 28792,
        "total": 2369
      },
      {
        "club_badge_src": null,
        "entry": 4578968,
        "entry_name": "Leonard Fc",
        "event_total": 63,
        "has_played": true,
        "id": 34953859,
        "last_rank": 34969,
        "player_name": "Otitolaiye Leonard",
        "rank": 28785,
        "rank_sort": 28793,
        "total": 2369
      },
      {
        "club_badge_src": null,
        "entry": 4855281,
        "entry_name": "Hellboys",
        "event_total": 56,
        "has_played": true,
        "id": 37410845,
        "last_rank": 27585,
        "player_name": "Helle Hella",
        "rank": 28785,
        "rank_sort": 28794,
        "total": 2369
      },
      {
        "club_badge_src": null,
        "entry": 5464051,
        "entry_name": "PlaceholderFC",
        "event_total": 55,
        "has_played": true,
        "id": 42524852,
        "last_rank": 26620,
        "player_name": "Peter Guempel",
        "rank": 28785,
        "rank_sort": 28795,
        "total": 2369
      },
      {
        "club_badge_src": null,
        "entry": 8275469,
        "entry_name": "Ups & Downes",
        "event_total": 49,
        "has_played": true,
        "id": 68465656,
        "last_rank": 21609,
        "player_name": "Oliver Downes",
        "rank": 28785,
        "rank_sort": 28796,
        "total": 2369
      },
      {
        "club_badge_src": null,
        "entry": 28181,
        "entry_name": "DIF Hullihulli",
        "event_total": 57,
        "has_played": true,
        "id": 178194,
        "last_rank": 28609,
        "player_name": "Patrik Lignell Persson",
        "rank": 28797,
        "rank_sort": 28797,
        "total": 2369
      },
      {
        "club_badge_src": null,
        "entry": 90328,
        "entry_name": "Sean McCabe XI",
        "event_total": 54,
        "has_played": true,
        "id": 589718,
        "last_rank": 25776,
        "player_name": "Adam Murphy",
        "rank": 28797,
        "rank_sort": 28798,
        "total": 2369
      },
      {
        "club_badge_src": null,
        "entry": 249939,
        "entry_name": "J",
        "event_total": 60,
        "has_played": true,
        "id": 1663069,
        "last_rank": 31556,
        "player_name": "Jack Burrill",
        "rank": 28797,
        "rank_sort": 28799,
        "total": 2369
      },
      {
        "club_badge_src": null,
        "entry": 534573,
        "entry_name": "TinkrTailrSoldierKai",
        "event_total": 71,
        "has_played": true,
        "id": 3597748,
        "last_rank": 45126,
        "player_name": "Philip Nessfield",
        "rank": 28797,
        "rank_sort": 28800,
        "total": 2369
      }
    ]
  }
}