{
  "last_updated_data": "2026-05-24T23:28:17Z",
  "league": {
    "admin_entry": null,
    "closed": false,
    "code_privacy": "p",
    "created": "2025-07-20T23:14:33.933835Z",
    "cup_league": 2815434,
    "has_cup": true,
    "id": 314,
    "league_type": "s",
    "max_entries": null,
    "name": "Overall",
    "rank": null,
    "scoring": "c",
    "start_event": 1
  },
  "new_entries": {
    "has_next": false,
    "page": 1,
    "results": []
  },
  "standings": {
    "has_next": true,
    "page": 583,
    "results": [
      {
        "club_badge_src": null,
        "entry": 7005390,
        "entry_name": "Need a Gakpoo",
        "event_total": 64,
        "has_played": true,
        "id": 56253031,
        "last_rank": 36348,
        "player_name": "Joe Barlow",
        "rank": 28885,
        "rank_sort": 29101,
        "total": 2369
      },
      {
        "club_badge_src": null,
        "entry": 7033444,
        "entry_name": "Bonesy Babes",
        "event_total": 59,
        "has_played": true,
        "id": 56531810,
        "last_rank": 30727,
        "player_name": "Robbie Jones",
        "rank": 28885,
        "rank_sort": 29102,
        "total": 2369
      },
      {
        "club_badge_src": null,
        "entry": 7033990,
        "entry_name": "ZubiZubiDoo",
        "event_total": 34,
        "has_played": true,
        "id": 56537713,
        "last_rank": 12200,
        "player_name": "Eamonn Dudgeon",
        "rank": 28885,
        "rank_sort": 29103,
        "total": 2369
      },
      {
        "club_badge_src": null,
        "entry": 7098321,
        "entry_name": "Mosens Helte",
        "event_total": 66,
        "has_played": true,
        "id": 57159460,
        "last_rank": 38644,
        "player_name": "Anders B\u00f8rsmose",
        "rank": 28885,
        "rank_sort": 29104,
        "total": 2369
      },
      {
        "club_badge_src": null,
        "entry": 7135958,
        "entry_name": "B-laget",
        "event_total": 64,
        "has_played": true,
        "id": 57517845,
        "last_rank": 36142,
        "player_name": "Filip Pierzgalski",
        "rank": 28885,
        "rank_sort": 29105,
        "total": 2369
      },
      {
        "club_badge_src": null,
        "entry": 7144020,
        "entry_name": "Out of Respect FC",
        "event_total": 61,
        "has_played": true,
        "id": 57594215,
        "last_rank": 32879,
        "player_name": "James Johnstone",
        "rank": 28885,
        "rank_sort": 29106,
        "total": 2369
      },
      {
        "club_badge_src": null,
        "entry": 7159456,
        "entry_name": "Casemiracle",
        "event_total": 58,
        "has_played": true,
        "id": 57748122,
        "last_rank": 29688,
        "player_name": "\u00c1ron Keszler",
        "rank": 28885,
        "rank_sort": 29107,
        "total": 2369
      },
      {
        "club_badge_src": "https://fantasy.premierleague.com/gcs/plfpl-production-adobe-approved/plfpl-production/7342609/3b4925dc-6d4a-4c62-aaf6-491f0b8d4009.png",
        "entry": 7342609,
        "entry_name": "Chippy Chips FC",
        "event_total": 68,
        "has_played": true,
        "id": 59476381,
        "last_rank": 41324,
        "player_name": "Arabella Cheryl Sutcliffe",
        "rank": 28885,
        "rank_sort": 29108,
        "total": 2369
      },
      {
        "club_badge_src": null,
        "entry": 7415758,
        "entry_name": "boomson",
        "event_total": 82,
        "has_played": true,
        "id": 60193172,
        "last_rank": 63117,
        "player_name": "Matthew Boey",
        "rank": 28885,
        "rank_sort": 29109,
        "total": 2369
      },
      {
        "club_badge_src": null,
        "entry": 7440712,
        "entry_name": "Danger",
        "event_total": 64,
        "has_played": true,
        "id": 60512499,
        "last_rank": 36142,
        "player_name": "Dan Gersh",
        "rank": 28885,
        "rank_sort": 29110,
        "total": 2369
      },
      {
        "club_badge_src": null,
        "entry": 7447687,
        "entry_name": "Zinyoka fc",
        "event_total": 48,
        "has_played": true,
        "id": 60603456,
        "last_rank": 20983,
        "player_name": "Ntando Mpisi",
        "rank": 28885,
        "rank_sort": 29111,
        "total": 2369
      },
      {
        "club_badge_src": null,
        "entry": 7500821,
        "entry_name": "Sheikubs Oil FC",
        "event_total": 41,
        "has_played": true,
        "id": 61288425,
        "last_rank": 16163,
        "player_name": "Jacob Gibson",
        "rank": 28885,
        "rank_sort": 29112,
        "total": 2369
      },
      {
        "club_badge_src": "https://fantasy.premierleague.com/gcs/plfpl-production-adobe-approved/plfpl-production/7755727/95e323da-06da-4424-add1-13f915795f7e.png",
        "entry": 7755727,
        "entry_name": "Flo better Flo Wirtz",
        "event_total": 63,
        "has_played": true,
        "id": 63674422,
        "last_rank": 35166,
        "player_name": "David Rowley",
        "rank": 28885,
        "rank_sort": 29113,
        "total": 2369
      },
      {
        "club_badge_src": null,
        "entry": 7795755,
        "entry_name": "Wart's Wanderers",
        "event_total": 57,
        "has_played": true,
        "id": 64035173,
        "last_rank": 28726,
        "player_name": "Ian Waterworth",
        "rank": 28885,
        "rank_sort": 29114,
        "total": 2369
      },
      {
        "club_badge_src": null,
        "entry": 7820575,
        "entry_name": "Watercress crew A",
        "event_total": 49,
        "has_played": true,
        "id": 64260046,
        "last_rank": 21609,
        "player_name": "Scott Millard",
        "rank": 28885,
        "rank_sort": 29115,
        "total": 2369
      },
      {
        "club_badge_src": null,
        "entry": 8036358,
        "entry_name": "B Milan",
        "event_total": 50,
        "has_played": true,
        "id": 66213186,
        "last_rank": 22391,
        "player_name": "I Mumin",
        "rank": 28885,
        "rank_sort": 29116,
        "total": 2369
      },
      {
        "club_badge_src": null,
        "entry": 8071133,
        "entry_name": "FC MadMax",
        "event_total": 82,
        "has_played": true,
        "id": 66532242,
        "last_rank": 63724,
        "player_name": "Kem Reid",
        "rank": 28885,
        "rank_sort": 29117,
        "total": 2369
      },
      {
        "club_badge_src": null,
        "entry": 8186731,
        "entry_name": "Flawed System",
        "event_total": 46,
        "has_played": true,
        "id": 67614391,
        "last_rank": 19432,
        "player_name": "Marten Flaw",
        "rank": 28885,
        "rank_sort": 29118,
        "total": 2369
      },
      {
        "club_badge_src": null,
        "entry": 8289281,
        "entry_name": "Brothers In Arms",
        "event_total": 65,
        "has_played": true,
        "id": 68597984,
        "last_rank": 37435,
        "player_name": "Steffen Knudsen",
        "rank": 28885,
        "rank_sort": 29119,
        "total": 2369
      },
      {
        "club_badge_src": null,
        "entry": 8312069,
        "entry_name": "VinciPerNoi.gr",
        "event_total": 67,
        "has_played": true,
        "id": 68837087,
        "last_rank": 40036,
        "player_name": "Chrysovalantis Demosthenous",
        "rank": 28885,
        "rank_sort": 29120,
        "total": 2369
      },
      {
        "club_badge_src": null,
        "entry": 8784276,
        "entry_name": "Agera IL",
        "event_total": 59,
        "has_played": true,
        "id": 73393101,
        "last_rank": 30727,
        "player_name": "Nadia J\u00f8rgenrud",
        "rank": 28885,
        "rank_sort": 29121,
        "total": 2369
      },
      {
        "club_badge_src": null,
        "entry": 8946269,
        "entry_name": "wld lhya",
        "event_total": 104,
        "has_played": true,
        "id": 74962558,
        "last_rank": 114169,
        "player_name": "Brahim Kammach",
        "rank": 28885,
        "rank_sort": 29122,
        "total": 2369
      },
      {
        "club_badge_src": null,
        "entry": 9239411,
        "entry_name": "Five Spice Lane",
        "event_total": 35,
        "has_played": true,
        "id": 77819936,
        "last_rank": 12705,
        "player_name": "Nick Singh",
        "rank": 28885,
        "rank_sort": 29123,
        "total": 2369
      },
      {
        "club_badge_src": null,
        "entry": 9304775,
        "entry_name": "I don't wanna team",
        "event_total": 54,
        "has_played": true,
        "id": 78454848,
        "last_rank": 25902,
        "player_name": "Kiaora Tolmie",
        "rank": 28885,
        "rank_sort": 29124,
        "total": 2369
      },
      {
        "club_badge_src": null,
        "entry": 9322599,
        "entry_name": "CDF Tush",
        "event_total": 59,
        "has_played": true,
        "id": 78626115,
        "last_rank": 30727,
        "player_name": "Tushaar Kalra",
        "rank": 28885,
        "rank_sort": 29125,
        "total": 2369
      },
      {
        "club_badge_src": null,
        "entry": 9362050,
        "entry_name": "FC 2.0",
        "event_total": 54,
        "has_played": true,
        "id": 79003022,
        "last_rank": 25902,
        "player_name": "Ali Mauroof",
        "rank": 28885,
        "rank_sort": 29126,
        "total": 2369
      },
      {
        "club_badge_src": null,
        "entry": 9400492,
        "entry_name": "Rowdy Rovers",
        "event_total": 76,
        "has_played": true,
        "id": 79378020,
        "last_rank": 52759,
        "player_name": "Joe Yates",
        "rank": 28885,
        "rank_sort": 29127,
        "total": 2369
      },
      {
        "club_badge_src": null,
        "entry": 222,
        "entry_name": "Hegs Honeys",
        "event_total": 65,
        "has_played": true,
        "id": 1221,
        "last_rank": 37589,
        "player_name": "Dan Hegarty",
        "rank": 29128,
        "rank_sort": 29128,
        "total": 2369
      },
      {
        "club_badge_src": "https://fantasy.premierleague.com/gcs/plfpl-production-adobe-approved/plfpl-production/5201/d981365d-6474-449e-b3e2-4a326667a979.png",
        "entry": 5201,
        "entry_name": "Bruno Dos Tres",
        "event_total": 55,
        "has_played": true,
        "id": 29637,
        "last_rank": 23341,
        "player_name": "Alex Stevens",
        "rank": 29128,
        "rank_sort": 29129,
        "total": 2369
      },
      {
        "club_badge_src": null,
        "entry": 15914,
        "entry_name": "Sir Sande",
        "event_total": 67,
        "has_played": true,
        "id": 98024,
        "last_rank": 39874,
        "player_name": "Sander Sande Tenden",
        "rank": 29128,
        "rank_sort": 29130,
        "total": 2369
      },
      {
        "club_badge_src": null,
        "entry": 20422,
        "entry_name": "We_FKC\u271f\ufffd",
        "event_total": 70,
        "has_played": true,
        "id": 127360,
        "last_rank": 43786,
        "player_name": "Francis K - Conteh",
        "rank": 29128,
        "rank_sort": 29131,
        "total": 2369
      },
      {
        "club_badge_src": null,
        "entry": 21839,
        "entry_name": "Bowen To Be Wild",
        "event_total": 65,
        "has_played": true,
        "id": 137003,
        "last_rank": 37435,
        "player_name": "Matt Dawe",
        "rank": 29128,
        "rank_sort": 29132,
        "total": 2369
      },
      {
        "club_badge_src": null,
        "entry": 26939,
        "entry_name": "Cunha get me points?",
        "event_total": 66,
        "has_played": true,
        "id": 170338,
        "last_rank": 39023,
        "player_name": "Ekansh Mavlankar",
        "rank": 29128,
        "rank_sort": 29133,
        "total": 2369
      },
      {
        "club_badge_src": null,
        "entry": 31099,
        "entry_name": "Konate Lose",
        "event_total": 57,
        "has_played": true,
        "id": 196936,
        "last_rank": 24897,
        "player_name": "Adam Mohamoud",
        "rank": 29128,
        "rank_sort": 29134,
        "total": 2369
      },
      {
        "club_badge_src": null,
        "entry": 31341,
        "entry_name": "Fishing Top 3",
        "event_total": 65,
        "has_played": true,
        "id": 198618,
        "last_rank": 32879,
        "player_name": "Jevgenijs Pavlovs",
        "rank": 29128,
        "rank_sort": 29135,
        "total": 2369
      },
      {
        "club_badge_src": null,
        "entry": 60717,
        "entry_name": "FANTASY-DZ",
        "event_total": 60,
        "has_played": true,
        "id": 390928,
        "last_rank": 27770,
        "player_name": "Abderrahmane Kouache",
        "rank": 29128,
        "rank_sort": 29136,
        "total": 2369
      },
      {
        "club_badge_src": "https://fantasy.premierleague.com/gcs/plfpl-production-adobe-approved/plfpl-production/63366/2c72b6ba-57ff-4b29-ba2f-66e860901662.png",
        "entry": 63366,
        "entry_name": "TM29.Psychic",
        "event_total": 62,
        "has_played": true,
        "id": 408816,
        "last_rank": 29688,
        "player_name": "Thanh Xuan Truong",
        "rank": 29128,
        "rank_sort": 29137,
        "total": 2369
      },
      {
        "club_badge_src": null,
        "entry": 79361,
        "entry_name": "Shin Fein Yamada",
        "event_total": 63,
        "has_played": true,
        "id": 516133,
        "last_rank": 35034,
        "player_name": "Ciaran Mates",
        "rank": 29128,
        "rank_sort": 29138,
        "total": 2369
      },
      {
        "club_badge_src": null,
        "entry": 80688,
        "entry_name": "Benni\u2019s",
        "event_total": 70,
        "has_played": true,
        "id": 524953,
        "last_rank": 38774,
        "player_name": "Benjamin V\u00e5ge Nilsen",
        "rank": 29128,
        "rank_sort": 29139,
        "total": 2369
      },
      {
        "club_badge_src": null,
        "entry": 91097,
        "entry_name": "Tesco McNeil Deal",
        "event_total": 52,
        "has_played": true,
        "id": 594918,
        "last_rank": 20888,
        "player_name": "Archie Welch",
        "rank": 29128,
        "rank_sort": 29140,
        "total": 2369
      },
      {
        "club_badge_src": "https://fantasy.premierleague.com/gcs/plfpl-production-adobe-approved/plfpl-production/91913/25661db2-41c3-49a5-8640-16fc80c2d5b1.png",
        "entry": 91913,
        "entry_name": "Labubucar Kamara",
        "event_total": 64,
        "has_played": true,
        "id": 600493,
        "last_rank": 31747,
        "player_name": "phil k",
        "rank": 29128,
        "rank_sort": 29141,
        "total": 2369
      },
      {
        "club_badge_src": "https://fantasy.premierleague.com/gcs/plfpl-production-adobe-approved/plfpl-production/92147/40b7f919-869c-4c7d-9a2c-d3bdf718f9d0.png",
        "entry": 92147,
        "entry_name": "1st theWirtz 2nd ARS",
        "event_total": 77,
        "has_played": true,
        "id": 602081,
        "last_rank": 48363,
        "player_name": "Roy Chu",
        "rank": 29128,
        "rank_sort": 29142,
        "total": 2369
      },
      {
        "club_badge_src": null,
        "entry": 102547,
        "entry_name": "Chielcoladehanen",
        "event_total": 58,
        "has_played": true,
        "id": 669099,
        "last_rank": 29904,
        "player_name": "chiel Tournier",
        "rank": 29128,
        "rank_sort": 29143,
        "total": 2369
      },
      {
        "club_badge_src": "https://fantasy.premierleague.com/gcs/plfpl-production-adobe-approved/plfpl-production/107645/c64265b3-0777-4659-9ff7-688554329a7e.png",
        "entry": 107645,
        "entry_name": "Bosut",
        "event_total": 64,
        "has_played": true,
        "id": 701761,
        "last_rank": 36348,
        "player_name": "Davor Mili\u010devi\u0107",
        "rank": 29128,
        "rank_sort": 29144,
        "total": 2369
      },
      {
        "club_badge_src": "https://fantasy.premierleague.com/gcs/plfpl-production-adobe-approved/plfpl-production/129655/92d4078f-a589-4149-b305-2eec90658655.png",
        "entry": 129655,
        "entry_name": "JLH",
        "event_total": 65,
        "has_played": true,
        "id": 845001,
        "last_rank": 32879,
        "player_name": "J\u00f8rgen Lilleb\u00f8e Hatland",
        "rank": 29128,
        "rank_sort": 29145,
        "total": 2369
      },
      {
        "club_badge_src": null,
        "entry": 150618,
        "entry_name": "Newton Heath FC",
        "event_total": 53,
        "has_played": true,
        "id": 987882,
        "last_rank": 25172,
        "player_name": "Dominic Whitfield",
        "rank": 29128,
        "rank_sort": 29146,
        "total": 2369
      },
      {
        "club_badge_src": null,
        "entry": 170592,
        "entry_name": "Half The World (a)",
        "event_total": 61,
        "has_played": true,
        "id": 1127077,
        "last_rank": 33147,
        "player_name": "Rhys Chow-Seegoolam",
        "rank": 29128,
        "rank_sort": 29147,
        "total": 2369
      },
      {
        "club_badge_src": null,
        "entry": 190065,
        "entry_name": "GodSaveUnited",
        "event_total": 67,
        "has_played": true,
        "id": 1258390,
        "last_rank": 40036,
        "player_name": "Dhruv Majithia",
        "rank": 29128,
        "rank_sort": 29148,
        "total": 2369
      },
      {
        "club_badge_src": null,
        "entry": 191305,
        "entry_name": "Klinger FC",
        "event_total": 53,
        "has_played": true,
        "id": 1267062,
        "last_rank": 25172,
        "player_name": "Joe Spishko",
        "rank": 29128,
        "rank_sort": 29149,
        "total": 2369
      },
      {
        "club_badge_src": null,
        "entry": 243660,
        "entry_name": "Liams lag",
        "event_total": 52,
        "has_played": true,
        "id": 1622429,
        "last_rank": 24475,
        "player_name": "Liam Westerstad",
        "rank": 29128,
        "rank_sort": 29150,
        "total": 2369
      }
    ]
  }
}