{
  "last_updated_data": "2026-05-24T23:28:17Z",
  "league": {
    "admin_entry": null,
    "closed": false,
    "code_privacy": "p",
    "created": "2025-07-20T23:14:33.933835Z",
    "cup_league": 2815434,
    "has_cup": true,
    "id": 314,
    "league_type": "s",
    "max_entries": null,
    "name": "Overall",
    "rank": null,
    "scoring": "c",
    "start_event": 1
  },
  "new_entries": {
    "has_next": false,
    "page": 1,
    "results": []
  },
  "standings": {
    "has_next": true,
    "page": 457,
    "results": [
      {
        "club_badge_src": null,
        "entry": 1814771,
        "entry_name": "Butterface FC",
        "event_total": 69,
        "has_played": true,
        "id": 12761474,
        "last_rank": 33936,
        "player_name": "Nathan Thompson",
        "rank": 22787,
        "rank_sort": 22801,
        "total": 2376
      },
      {
        "club_badge_src": null,
        "entry": 2177421,
        "entry_name": "Klopp-a-doodle-do",
        "event_total": 55,
        "has_played": true,
        "id": 15484936,
        "last_rank": 20826,
        "player_name": "Shlymon Van Heidelburg",
        "rank": 22787,
        "rank_sort": 22802,
        "total": 2376
      },
      {
        "club_badge_src": null,
        "entry": 2318562,
        "entry_name": "Dales11",
        "event_total": 49,
        "has_played": true,
        "id": 16539915,
        "last_rank": 16729,
        "player_name": "ashley dales",
        "rank": 22787,
        "rank_sort": 22803,
        "total": 2376
      },
      {
        "club_badge_src": null,
        "entry": 2403531,
        "entry_name": "IMBA",
        "event_total": 56,
        "has_played": true,
        "id": 17179307,
        "last_rank": 21775,
        "player_name": "\u041d\u0435\u0434\u044f\u043b\u043a\u043e \u041d\u0435\u0434\u0435\u043b\u0447\u0435\u0432",
        "rank": 22787,
        "rank_sort": 22804,
        "total": 2376
      },
      {
        "club_badge_src": null,
        "entry": 2696123,
        "entry_name": "ch1LLWAVE",
        "event_total": 52,
        "has_played": true,
        "id": 19394197,
        "last_rank": 18691,
        "player_name": "Stef Everts",
        "rank": 22787,
        "rank_sort": 22805,
        "total": 2376
      },
      {
        "club_badge_src": null,
        "entry": 2987499,
        "entry_name": "Jamie FC",
        "event_total": 44,
        "has_played": true,
        "id": 21968376,
        "last_rank": 13720,
        "player_name": "Jamie Sackville",
        "rank": 22787,
        "rank_sort": 22806,
        "total": 2376
      },
      {
        "club_badge_src": null,
        "entry": 3237013,
        "entry_name": "wasting my time",
        "event_total": 58,
        "has_played": true,
        "id": 23942163,
        "last_rank": 23230,
        "player_name": "Stuart Spurgeon",
        "rank": 22787,
        "rank_sort": 22807,
        "total": 2376
      },
      {
        "club_badge_src": "https://fantasy.premierleague.com/gcs/plfpl-production-adobe-approved/plfpl-production/3325974/d8fd2fd4-e3af-4257-b7ec-2ac63518092d.png",
        "entry": 3325974,
        "entry_name": "Broad Black Frimmer",
        "event_total": 54,
        "has_played": true,
        "id": 24657984,
        "last_rank": 20179,
        "player_name": "Anthony Gallagher",
        "rank": 22787,
        "rank_sort": 22808,
        "total": 2376
      },
      {
        "club_badge_src": null,
        "entry": 3426836,
        "entry_name": "Beef Cherki",
        "event_total": 84,
        "has_played": true,
        "id": 25456243,
        "last_rank": 54416,
        "player_name": "James Lumkin",
        "rank": 22787,
        "rank_sort": 22809,
        "total": 2376
      },
      {
        "club_badge_src": null,
        "entry": 3440419,
        "entry_name": "**isakadeznutz",
        "event_total": 61,
        "has_played": true,
        "id": 25560144,
        "last_rank": 25776,
        "player_name": "Tanner Kottwitz",
        "rank": 22787,
        "rank_sort": 22810,
        "total": 2376
      },
      {
        "club_badge_src": null,
        "entry": 3654320,
        "entry_name": "Tronstad Dream",
        "event_total": 71,
        "has_played": true,
        "id": 27240437,
        "last_rank": 36142,
        "player_name": "Kian Gregson",
        "rank": 22787,
        "rank_sort": 22811,
        "total": 2376
      },
      {
        "club_badge_src": null,
        "entry": 4016154,
        "entry_name": "GTL",
        "event_total": 49,
        "has_played": true,
        "id": 30265426,
        "last_rank": 16729,
        "player_name": "Pritpal Dosanjh",
        "rank": 22787,
        "rank_sort": 22812,
        "total": 2376
      },
      {
        "club_badge_src": null,
        "entry": 4161927,
        "entry_name": "bigscotsman",
        "event_total": 62,
        "has_played": true,
        "id": 31467155,
        "last_rank": 26656,
        "player_name": "Christian Lavery",
        "rank": 22787,
        "rank_sort": 22813,
        "total": 2376
      },
      {
        "club_badge_src": "https://fantasy.premierleague.com/gcs/plfpl-production-adobe-approved/plfpl-production/4294228/afd8af31-3ba3-4c20-aab2-3327a62ff435.png",
        "entry": 4294228,
        "entry_name": "Gliders",
        "event_total": 62,
        "has_played": true,
        "id": 32575775,
        "last_rank": 26656,
        "player_name": "Ben Archer",
        "rank": 22787,
        "rank_sort": 22814,
        "total": 2376
      },
      {
        "club_badge_src": null,
        "entry": 4430637,
        "entry_name": "Joey Hennessy",
        "event_total": 48,
        "has_played": true,
        "id": 33729174,
        "last_rank": 16029,
        "player_name": "Joanna Henson",
        "rank": 22787,
        "rank_sort": 22815,
        "total": 2376
      },
      {
        "club_badge_src": null,
        "entry": 4780303,
        "entry_name": "Peaky Blinders",
        "event_total": 63,
        "has_played": true,
        "id": 36798660,
        "last_rank": 27644,
        "player_name": "shane kearns",
        "rank": 22787,
        "rank_sort": 22816,
        "total": 2376
      },
      {
        "club_badge_src": null,
        "entry": 5332181,
        "entry_name": "Zzz",
        "event_total": 42,
        "has_played": true,
        "id": 41337839,
        "last_rank": 12705,
        "player_name": "Alfie Perkins",
        "rank": 22787,
        "rank_sort": 22817,
        "total": 2376
      },
      {
        "club_badge_src": null,
        "entry": 5490436,
        "entry_name": "Briljos",
        "event_total": 67,
        "has_played": true,
        "id": 42761236,
        "last_rank": 31556,
        "player_name": "Andreas Nilsen",
        "rank": 22787,
        "rank_sort": 22818,
        "total": 2376
      },
      {
        "club_badge_src": null,
        "entry": 5726505,
        "entry_name": "PROVERBO FC",
        "event_total": 32,
        "has_played": true,
        "id": 44858727,
        "last_rank": 8382,
        "player_name": "PROSPER MULUSA",
        "rank": 22787,
        "rank_sort": 22819,
        "total": 2376
      },
      {
        "club_badge_src": null,
        "entry": 6064329,
        "entry_name": "Sparras Bin",
        "event_total": 63,
        "has_played": true,
        "id": 47863682,
        "last_rank": 27564,
        "player_name": "Luke Lunnon",
        "rank": 22787,
        "rank_sort": 22820,
        "total": 2376
      },
      {
        "club_badge_src": null,
        "entry": 6272617,
        "entry_name": "Marinakiss of Life",
        "event_total": 60,
        "has_played": true,
        "id": 49670589,
        "last_rank": 24897,
        "player_name": "Alex Moffett",
        "rank": 22787,
        "rank_sort": 22821,
        "total": 2376
      },
      {
        "club_badge_src": null,
        "entry": 6309910,
        "entry_name": "For better or Wirtz",
        "event_total": 60,
        "has_played": true,
        "id": 50056915,
        "last_rank": 24897,
        "player_name": "Pam Sarris",
        "rank": 22787,
        "rank_sort": 22822,
        "total": 2376
      },
      {
        "club_badge_src": null,
        "entry": 6578045,
        "entry_name": "Deeney In A Bottle",
        "event_total": 66,
        "has_played": true,
        "id": 52524767,
        "last_rank": 30600,
        "player_name": "Matt Angell",
        "rank": 22787,
        "rank_sort": 22823,
        "total": 2376
      },
      {
        "club_badge_src": null,
        "entry": 6758237,
        "entry_name": "J\u00f8rgenvev",
        "event_total": 58,
        "has_played": true,
        "id": 54108432,
        "last_rank": 23230,
        "player_name": "J\u00f8rgen Vevle",
        "rank": 22787,
        "rank_sort": 22824,
        "total": 2376
      },
      {
        "club_badge_src": null,
        "entry": 6785974,
        "entry_name": "\u00d6scarsenal",
        "event_total": 34,
        "has_played": true,
        "id": 54339963,
        "last_rank": 9089,
        "player_name": "Michael Read",
        "rank": 22787,
        "rank_sort": 22825,
        "total": 2376
      },
      {
        "club_badge_src": null,
        "entry": 6849580,
        "entry_name": "Ac sletta",
        "event_total": 60,
        "has_played": true,
        "id": 54875652,
        "last_rank": 25002,
        "player_name": "Puyan Salehi",
        "rank": 22787,
        "rank_sort": 22826,
        "total": 2376
      },
      {
        "club_badge_src": null,
        "entry": 7201798,
        "entry_name": "rm",
        "event_total": 48,
        "has_played": true,
        "id": 58148724,
        "last_rank": 16062,
        "player_name": "low .",
        "rank": 22787,
        "rank_sort": 22827,
        "total": 2376
      },
      {
        "club_badge_src": null,
        "entry": 7241777,
        "entry_name": "Gallus FC",
        "event_total": 47,
        "has_played": true,
        "id": 58524772,
        "last_rank": 15452,
        "player_name": "Derek Harte",
        "rank": 22787,
        "rank_sort": 22828,
        "total": 2376
      },
      {
        "club_badge_src": null,
        "entry": 7566744,
        "entry_name": "khal dorgu",
        "event_total": 68,
        "has_played": true,
        "id": 61962791,
        "last_rank": 32688,
        "player_name": "Mukul Bhagia",
        "rank": 22787,
        "rank_sort": 22829,
        "total": 2376
      },
      {
        "club_badge_src": null,
        "entry": 7722552,
        "entry_name": "FC Webb",
        "event_total": 65,
        "has_played": true,
        "id": 63374087,
        "last_rank": 29522,
        "player_name": "Josh Webb",
        "rank": 22787,
        "rank_sort": 22830,
        "total": 2376
      },
      {
        "club_badge_src": null,
        "entry": 8319228,
        "entry_name": "lastminuteselection",
        "event_total": 73,
        "has_played": true,
        "id": 68911696,
        "last_rank": 38774,
        "player_name": "Simon Denn",
        "rank": 22787,
        "rank_sort": 22831,
        "total": 2376
      },
      {
        "club_badge_src": null,
        "entry": 8574943,
        "entry_name": "JWPepper",
        "event_total": 50,
        "has_played": true,
        "id": 71357668,
        "last_rank": 17327,
        "player_name": "Jon Parker",
        "rank": 22787,
        "rank_sort": 22832,
        "total": 2376
      },
      {
        "club_badge_src": null,
        "entry": 8687687,
        "entry_name": "Joe Mama",
        "event_total": 69,
        "has_played": true,
        "id": 72460288,
        "last_rank": 33869,
        "player_name": "Joe Birch",
        "rank": 22787,
        "rank_sort": 22833,
        "total": 2376
      },
      {
        "club_badge_src": null,
        "entry": 9046422,
        "entry_name": "FC Grund\u00f3",
        "event_total": 68,
        "has_played": true,
        "id": 75929808,
        "last_rank": 32688,
        "player_name": "Elva Bj\u00f6rk J\u00f3nsd\u00f3ttir",
        "rank": 22787,
        "rank_sort": 22834,
        "total": 2376
      },
      {
        "club_badge_src": null,
        "entry": 9243924,
        "entry_name": "Hoffers Tractor Boys",
        "event_total": 45,
        "has_played": true,
        "id": 77863331,
        "last_rank": 14370,
        "player_name": "Matt Hough",
        "rank": 22787,
        "rank_sort": 22835,
        "total": 2376
      },
      {
        "club_badge_src": null,
        "entry": 238,
        "entry_name": "Martial Arts",
        "event_total": 64,
        "has_played": true,
        "id": 1316,
        "last_rank": 28546,
        "player_name": "David B",
        "rank": 22836,
        "rank_sort": 22836,
        "total": 2376
      },
      {
        "club_badge_src": null,
        "entry": 1509,
        "entry_name": "Sports United",
        "event_total": 68,
        "has_played": true,
        "id": 8400,
        "last_rank": 32688,
        "player_name": "Ollie Long",
        "rank": 22836,
        "rank_sort": 22837,
        "total": 2376
      },
      {
        "club_badge_src": "https://fantasy.premierleague.com/gcs/plfpl-production-adobe-approved/plfpl-production/7364/f3c2fd34-77af-4a70-8b32-03695f91e657.png",
        "entry": 7364,
        "entry_name": "Wirtz Nightmare",
        "event_total": 59,
        "has_played": true,
        "id": 42437,
        "last_rank": 24143,
        "player_name": "FPL Trini",
        "rank": 22836,
        "rank_sort": 22838,
        "total": 2376
      },
      {
        "club_badge_src": null,
        "entry": 12704,
        "entry_name": "Jonny Boy",
        "event_total": 65,
        "has_played": true,
        "id": 76325,
        "last_rank": 29688,
        "player_name": "Jonathan Syer",
        "rank": 22836,
        "rank_sort": 22839,
        "total": 2376
      },
      {
        "club_badge_src": null,
        "entry": 12933,
        "entry_name": "Gascoigne",
        "event_total": 51,
        "has_played": true,
        "id": 77857,
        "last_rank": 17989,
        "player_name": "Ian Hobbs",
        "rank": 22836,
        "rank_sort": 22840,
        "total": 2376
      },
      {
        "club_badge_src": "https://fantasy.premierleague.com/gcs/plfpl-production-adobe-approved/plfpl-production/13462/c00433d3-8c03-4dcb-93d7-499d4b7e4a8b.png",
        "entry": 13462,
        "entry_name": "Gamla R\u00e4vens XI",
        "event_total": 67,
        "has_played": true,
        "id": 81356,
        "last_rank": 31620,
        "player_name": "Anton Lennartsson",
        "rank": 22836,
        "rank_sort": 22841,
        "total": 2376
      },
      {
        "club_badge_src": null,
        "entry": 16467,
        "entry_name": "Weerapatrick",
        "event_total": 66,
        "has_played": true,
        "id": 101725,
        "last_rank": 30600,
        "player_name": "Weerapat Tangchakwaranont",
        "rank": 22836,
        "rank_sort": 22842,
        "total": 2376
      },
      {
        "club_badge_src": null,
        "entry": 16827,
        "entry_name": "pique blinders",
        "event_total": 63,
        "has_played": true,
        "id": 104148,
        "last_rank": 27564,
        "player_name": "Job Chaimongkol",
        "rank": 22836,
        "rank_sort": 22843,
        "total": 2376
      },
      {
        "club_badge_src": null,
        "entry": 17236,
        "entry_name": "Aurphen FC",
        "event_total": 58,
        "has_played": true,
        "id": 106853,
        "last_rank": 23230,
        "player_name": "Finn O-Beirne",
        "rank": 22836,
        "rank_sort": 22844,
        "total": 2376
      },
      {
        "club_badge_src": null,
        "entry": 21056,
        "entry_name": "Kinder Mbuemo",
        "event_total": 71,
        "has_played": true,
        "id": 131941,
        "last_rank": 36200,
        "player_name": "Berge Berge",
        "rank": 22836,
        "rank_sort": 22845,
        "total": 2376
      },
      {
        "club_badge_src": null,
        "entry": 25819,
        "entry_name": "Now I'm a Baleba",
        "event_total": 48,
        "has_played": true,
        "id": 163303,
        "last_rank": 16039,
        "player_name": "Jon Hodson",
        "rank": 22836,
        "rank_sort": 22846,
        "total": 2376
      },
      {
        "club_badge_src": null,
        "entry": 26631,
        "entry_name": "FPL Race",
        "event_total": 70,
        "has_played": true,
        "id": 168374,
        "last_rank": 35034,
        "player_name": "Bishnu Gaire",
        "rank": 22836,
        "rank_sort": 22847,
        "total": 2376
      },
      {
        "club_badge_src": null,
        "entry": 32640,
        "entry_name": "Cyrish Christie",
        "event_total": 65,
        "has_played": true,
        "id": 207733,
        "last_rank": 29688,
        "player_name": "Dara Mullin",
        "rank": 22836,
        "rank_sort": 22848,
        "total": 2376
      },
      {
        "club_badge_src": null,
        "entry": 33606,
        "entry_name": "MirrorSignalMalouda",
        "event_total": 49,
        "has_played": true,
        "id": 214389,
        "last_rank": 16807,
        "player_name": "Matt Tunnicliffe",
        "rank": 22836,
        "rank_sort": 22849,
        "total": 2376
      },
      {
        "club_badge_src": null,
        "entry": 35949,
        "entry_name": "Rudolph the Reijnder",
        "event_total": 75,
        "has_played": true,
        "id": 230068,
        "last_rank": 41162,
        "player_name": "Ben Sherlock",
        "rank": 22836,
        "rank_sort": 22850,
        "total": 2376
      }
    ]
  }
}