{
  "last_updated_data": "2026-05-24T23:28:17Z",
  "league": {
    "admin_entry": null,
    "closed": false,
    "code_privacy": "p",
    "created": "2025-07-20T23:14:33.933835Z",
    "cup_league": 2815434,
    "has_cup": true,
    "id": 314,
    "league_type": "s",
    "max_entries": null,
    "name": "Overall",
    "rank": null,
    "scoring": "c",
    "start_event": 1
  },
  "new_entries": {
    "has_next": false,
    "page": 1,
    "results": []
  },
  "standings": {
    "has_next": true,
    "page": 1077,
    "results": [
      {
        "club_badge_src": null,
        "entry": 8501913,
        "entry_name": "fc flik",
        "event_total": 46,
        "has_played": true,
        "id": 70656051,
        "last_rank": 38475,
        "player_name": "zakaria guellil",
        "rank": 53785,
        "rank_sort": 53801,
        "total": 2350
      },
      {
        "club_badge_src": null,
        "entry": 8596167,
        "entry_name": "Otaview",
        "event_total": 59,
        "has_played": true,
        "id": 71561321,
        "last_rank": 45034,
        "player_name": "Lorelai Rory",
        "rank": 53785,
        "rank_sort": 53802,
        "total": 2350
      },
      {
        "club_badge_src": null,
        "entry": 506159,
        "entry_name": "Deadpool FC",
        "event_total": 61,
        "has_played": true,
        "id": 3397236,
        "last_rank": 61172,
        "player_name": "Rob Warley",
        "rank": 53803,
        "rank_sort": 53803,
        "total": 2350
      },
      {
        "club_badge_src": null,
        "entry": 1853680,
        "entry_name": "\u0645\u062d\u0645\u062f \u062c\u0648\u064a\u0647",
        "event_total": 59,
        "has_played": true,
        "id": 13044366,
        "last_rank": 57663,
        "player_name": "Muhammed Nadeem",
        "rank": 53803,
        "rank_sort": 53804,
        "total": 2350
      },
      {
        "club_badge_src": "https://fantasy.premierleague.com/gcs/plfpl-production-adobe-approved/plfpl-production/2593713/82173c22-b418-43f3-a46e-5fb8e0a52a56.png",
        "entry": 2593713,
        "entry_name": "CREAL",
        "event_total": 69,
        "has_played": true,
        "id": 18623410,
        "last_rank": 76791,
        "player_name": "Cyril Wilhelms",
        "rank": 53803,
        "rank_sort": 53805,
        "total": 2350
      },
      {
        "club_badge_src": "https://fantasy.premierleague.com/gcs/plfpl-production-adobe-approved/plfpl-production/3227226/a239a8b4-164d-4d44-80ce-593af68b06e9.png",
        "entry": 3227226,
        "entry_name": "UnitedMan",
        "event_total": 64,
        "has_played": true,
        "id": 23866609,
        "last_rank": 59386,
        "player_name": "Rujano Tjivikua",
        "rank": 53803,
        "rank_sort": 53806,
        "total": 2350
      },
      {
        "club_badge_src": null,
        "entry": 3451441,
        "entry_name": "ChosenXI",
        "event_total": 49,
        "has_played": true,
        "id": 25648983,
        "last_rank": 42360,
        "player_name": "suhail rafeeq",
        "rank": 53803,
        "rank_sort": 53807,
        "total": 2350
      },
      {
        "club_badge_src": "https://fantasy.premierleague.com/gcs/plfpl-production-adobe-approved/plfpl-production/3552690/6ae6ac5b-45fc-4567-a3e9-4f3d0bb5b6e9.png",
        "entry": 3552690,
        "entry_name": "Disho FC",
        "event_total": 74,
        "has_played": true,
        "id": 26449382,
        "last_rank": 78875,
        "player_name": "Mostafa-- Eliwa--",
        "rank": 53803,
        "rank_sort": 53808,
        "total": 2350
      },
      {
        "club_badge_src": null,
        "entry": 5046042,
        "entry_name": "Alisson Wonderland",
        "event_total": 69,
        "has_played": true,
        "id": 38979408,
        "last_rank": 76791,
        "player_name": "Joe Van-Breemen",
        "rank": 53803,
        "rank_sort": 53809,
        "total": 2350
      },
      {
        "club_badge_src": null,
        "entry": 6377625,
        "entry_name": "FC NANTES",
        "event_total": 77,
        "has_played": true,
        "id": 50721319,
        "last_rank": 95337,
        "player_name": "Fela Abudu",
        "rank": 53803,
        "rank_sort": 53810,
        "total": 2350
      },
      {
        "club_badge_src": null,
        "entry": 7744673,
        "entry_name": "StrawberryBanana",
        "event_total": 61,
        "has_played": true,
        "id": 63572916,
        "last_rank": 61172,
        "player_name": "Karim Benzema",
        "rank": 53803,
        "rank_sort": 53811,
        "total": 2350
      },
      {
        "club_badge_src": null,
        "entry": 514993,
        "entry_name": "Zamalek hossam 77",
        "event_total": 55,
        "has_played": true,
        "id": 3457787,
        "last_rank": 45072,
        "player_name": "Hossam Mahdy",
        "rank": 53812,
        "rank_sort": 53812,
        "total": 2350
      },
      {
        "club_badge_src": "https://fantasy.premierleague.com/gcs/plfpl-production-adobe-approved/plfpl-production/602614/561cb5fe-8803-47c9-a51f-be322dbfcb5a.png",
        "entry": 602614,
        "entry_name": "Grinta",
        "event_total": 70,
        "has_played": true,
        "id": 4066922,
        "last_rank": 55957,
        "player_name": "Abadeer Rezk",
        "rank": 53812,
        "rank_sort": 53813,
        "total": 2350
      },
      {
        "club_badge_src": "https://fantasy.premierleague.com/gcs/plfpl-production-adobe-approved/plfpl-production/1465159/af892b30-4e98-40c3-8d70-2edd088cd0ef.png",
        "entry": 1465159,
        "entry_name": "Parsons Pirates \ufffd\ufffd\u2620",
        "event_total": 35,
        "has_played": true,
        "id": 10212811,
        "last_rank": 20087,
        "player_name": "Craig Larson",
        "rank": 53812,
        "rank_sort": 53814,
        "total": 2350
      },
      {
        "club_badge_src": null,
        "entry": 2406674,
        "entry_name": "W tym roku si\u0119 uda",
        "event_total": 58,
        "has_played": true,
        "id": 17202399,
        "last_rank": 49492,
        "player_name": "Wojciech Klonowski",
        "rank": 53812,
        "rank_sort": 53815,
        "total": 2350
      },
      {
        "club_badge_src": null,
        "entry": 4541721,
        "entry_name": "DEE FC",
        "event_total": 63,
        "has_played": true,
        "id": 34649351,
        "last_rank": 57663,
        "player_name": "Marooz Olamide",
        "rank": 53812,
        "rank_sort": 53816,
        "total": 2350
      },
      {
        "club_badge_src": "https://fantasy.premierleague.com/gcs/plfpl-production-adobe-approved/plfpl-production/5434393/73560ed1-7767-4370-8756-1b4942824d26.png",
        "entry": 5434393,
        "entry_name": "Hutch Hotspur",
        "event_total": 83,
        "has_played": true,
        "id": 42274125,
        "last_rank": 111001,
        "player_name": "David Hutchings",
        "rank": 53812,
        "rank_sort": 53817,
        "total": 2350
      },
      {
        "club_badge_src": null,
        "entry": 1663043,
        "entry_name": "Kinder Mbuemo",
        "event_total": 71,
        "has_played": true,
        "id": 11643554,
        "last_rank": 81147,
        "player_name": "Conor Bowen",
        "rank": 53818,
        "rank_sort": 53818,
        "total": 2350
      },
      {
        "club_badge_src": null,
        "entry": 3600332,
        "entry_name": "HADI DANSUMAILA FC",
        "event_total": 66,
        "has_played": true,
        "id": 26815078,
        "last_rank": 55980,
        "player_name": "Hadi Dansumaila",
        "rank": 53818,
        "rank_sort": 53819,
        "total": 2350
      },
      {
        "club_badge_src": null,
        "entry": 5248478,
        "entry_name": "everitts dream team",
        "event_total": 66,
        "has_played": true,
        "id": 40676426,
        "last_rank": 62999,
        "player_name": "Nathan Everitt",
        "rank": 53818,
        "rank_sort": 53820,
        "total": 2350
      },
      {
        "club_badge_src": null,
        "entry": 5340094,
        "entry_name": "HOLM FC",
        "event_total": 59,
        "has_played": true,
        "id": 41412681,
        "last_rank": 51056,
        "player_name": "Tobias Holm",
        "rank": 53818,
        "rank_sort": 53821,
        "total": 2350
      },
      {
        "club_badge_src": "https://fantasy.premierleague.com/gcs/plfpl-production-adobe-approved/plfpl-production/6518/d074fd87-60b0-4a4f-b2de-77c2187984fd.png",
        "entry": 6518,
        "entry_name": "El Bob Show",
        "event_total": 58,
        "has_played": true,
        "id": 37414,
        "last_rank": 49507,
        "player_name": "El Bob Show",
        "rank": 53822,
        "rank_sort": 53822,
        "total": 2350
      },
      {
        "club_badge_src": null,
        "entry": 60594,
        "entry_name": "The Dream Team",
        "event_total": 74,
        "has_played": true,
        "id": 390122,
        "last_rank": 70518,
        "player_name": "Jason Ng",
        "rank": 53822,
        "rank_sort": 53823,
        "total": 2350
      },
      {
        "club_badge_src": "https://fantasy.premierleague.com/gcs/plfpl-production-adobe-approved/plfpl-production/746896/395c6819-8e39-407e-9f7e-218f4b531442.png",
        "entry": 746896,
        "entry_name": "MANCHESTER UNlTED",
        "event_total": 73,
        "has_played": true,
        "id": 5081204,
        "last_rank": 85784,
        "player_name": "Micha\u0142 Piecha",
        "rank": 53822,
        "rank_sort": 53824,
        "total": 2350
      },
      {
        "club_badge_src": null,
        "entry": 800863,
        "entry_name": "Teye baggy SC",
        "event_total": 72,
        "has_played": true,
        "id": 5481983,
        "last_rank": 83427,
        "player_name": "Jeremiah Teye Laweh",
        "rank": 53822,
        "rank_sort": 53825,
        "total": 2350
      },
      {
        "club_badge_src": null,
        "entry": 4532867,
        "entry_name": "Belly Boy City",
        "event_total": 56,
        "has_played": true,
        "id": 34577042,
        "last_rank": 52689,
        "player_name": "Jack Kelly",
        "rank": 53822,
        "rank_sort": 53826,
        "total": 2350
      },
      {
        "club_badge_src": null,
        "entry": 67839,
        "entry_name": "Rezk",
        "event_total": 78,
        "has_played": true,
        "id": 439334,
        "last_rank": 78919,
        "player_name": "Mody Rezk",
        "rank": 53827,
        "rank_sort": 53827,
        "total": 2350
      },
      {
        "club_badge_src": null,
        "entry": 247887,
        "entry_name": "Kinder Mbeumo",
        "event_total": 61,
        "has_played": true,
        "id": 1649929,
        "last_rank": 48023,
        "player_name": "Simon Keating",
        "rank": 53827,
        "rank_sort": 53828,
        "total": 2350
      },
      {
        "club_badge_src": null,
        "entry": 1819647,
        "entry_name": "\u0627\u0644\u0643\u0648\u0686\u0649 \u0634\u0627\u0647\u064a\u0646 \u261d\ufffd",
        "event_total": 69,
        "has_played": true,
        "id": 12796757,
        "last_rank": 68510,
        "player_name": "Abdalla Shahin",
        "rank": 53827,
        "rank_sort": 53829,
        "total": 2350
      },
      {
        "club_badge_src": null,
        "entry": 418837,
        "entry_name": "Zamalek F.C.",
        "event_total": 54,
        "has_played": true,
        "id": 2807267,
        "last_rank": 43711,
        "player_name": "Ahmed Eltayeb",
        "rank": 53830,
        "rank_sort": 53830,
        "total": 2350
      },
      {
        "club_badge_src": null,
        "entry": 1434439,
        "entry_name": "Free palestine",
        "event_total": 48,
        "has_played": true,
        "id": 9995242,
        "last_rank": 23945,
        "player_name": "Belal Amrooo",
        "rank": 53830,
        "rank_sort": 53831,
        "total": 2350
      },
      {
        "club_badge_src": null,
        "entry": 812136,
        "entry_name": "The Spursy Cabinet",
        "event_total": 53,
        "has_played": true,
        "id": 5560656,
        "last_rank": 48037,
        "player_name": "Jack Howell",
        "rank": 53832,
        "rank_sort": 53832,
        "total": 2350
      },
      {
        "club_badge_src": null,
        "entry": 4207893,
        "entry_name": "POENA FC",
        "event_total": 54,
        "has_played": true,
        "id": 31857262,
        "last_rank": 43718,
        "player_name": "clinton meyer",
        "rank": 53833,
        "rank_sort": 53833,
        "total": 2350
      },
      {
        "club_badge_src": null,
        "entry": 5276842,
        "entry_name": "chalz",
        "event_total": 71,
        "has_played": true,
        "id": 40900241,
        "last_rank": 72596,
        "player_name": "Abasi-ono Uke",
        "rank": 53833,
        "rank_sort": 53834,
        "total": 2350
      },
      {
        "club_badge_src": null,
        "entry": 7009485,
        "entry_name": "SNOKERX FC",
        "event_total": 60,
        "has_played": true,
        "id": 56290366,
        "last_rank": 59444,
        "player_name": "Mohamed Mousa",
        "rank": 53835,
        "rank_sort": 53835,
        "total": 2350
      },
      {
        "club_badge_src": null,
        "entry": 6725587,
        "entry_name": "Phumeza",
        "event_total": 48,
        "has_played": true,
        "id": 53829155,
        "last_rank": 41033,
        "player_name": "Phumeza Minenhle",
        "rank": 53836,
        "rank_sort": 53836,
        "total": 2349
      },
      {
        "club_badge_src": null,
        "entry": 9396436,
        "entry_name": "Shars Rockets",
        "event_total": 54,
        "has_played": true,
        "id": 79339471,
        "last_rank": 49528,
        "player_name": "Shardele Derbyshire",
        "rank": 53837,
        "rank_sort": 53837,
        "total": 2349
      },
      {
        "club_badge_src": null,
        "entry": 8405796,
        "entry_name": "Wirtz\u2019s Sleeve",
        "event_total": 49,
        "has_played": true,
        "id": 69732098,
        "last_rank": 42374,
        "player_name": "Nick Both",
        "rank": 53838,
        "rank_sort": 53838,
        "total": 2349
      },
      {
        "club_badge_src": null,
        "entry": 3591401,
        "entry_name": "brexit fc",
        "event_total": 53,
        "has_played": true,
        "id": 26746933,
        "last_rank": 48040,
        "player_name": "Demi Adeniran",
        "rank": 53839,
        "rank_sort": 53839,
        "total": 2349
      },
      {
        "club_badge_src": null,
        "entry": 9247269,
        "entry_name": "Lethal Lynos",
        "event_total": 38,
        "has_played": true,
        "id": 77895716,
        "last_rank": 29467,
        "player_name": "Paul Lynan",
        "rank": 53840,
        "rank_sort": 53840,
        "total": 2349
      },
      {
        "club_badge_src": null,
        "entry": 543727,
        "entry_name": "\u262f",
        "event_total": 64,
        "has_played": true,
        "id": 3659325,
        "last_rank": 66636,
        "player_name": "Rory Buckle",
        "rank": 53841,
        "rank_sort": 53841,
        "total": 2349
      },
      {
        "club_badge_src": null,
        "entry": 1073987,
        "entry_name": "WirtzNightmareFC",
        "event_total": 55,
        "has_played": true,
        "id": 7435339,
        "last_rank": 51095,
        "player_name": "Ryan O'Connor",
        "rank": 53842,
        "rank_sort": 53842,
        "total": 2349
      },
      {
        "club_badge_src": null,
        "entry": 2641563,
        "entry_name": "Pass to Haaland FC",
        "event_total": 54,
        "has_played": true,
        "id": 18985630,
        "last_rank": 49542,
        "player_name": "Joe H",
        "rank": 53842,
        "rank_sort": 53843,
        "total": 2349
      },
      {
        "club_badge_src": null,
        "entry": 4597121,
        "entry_name": "Stubberud IF",
        "event_total": 60,
        "has_played": true,
        "id": 35111142,
        "last_rank": 59456,
        "player_name": "Bj\u00f8rn \u00d8rjan Myhre",
        "rank": 53842,
        "rank_sort": 53844,
        "total": 2349
      },
      {
        "club_badge_src": "https://fantasy.premierleague.com/gcs/plfpl-production-adobe-approved/plfpl-production/5010901/8c38b710-8f0c-4d07-8f8b-6e3e45e72059.png",
        "entry": 5010901,
        "entry_name": "Wirtz Nightmare",
        "event_total": 71,
        "has_played": true,
        "id": 38694979,
        "last_rank": 81180,
        "player_name": "Szymon Paczkowski",
        "rank": 53842,
        "rank_sort": 53845,
        "total": 2349
      },
      {
        "club_badge_src": null,
        "entry": 8225411,
        "entry_name": "Creece's Pieces",
        "event_total": 81,
        "has_played": true,
        "id": 67980870,
        "last_rank": 105689,
        "player_name": "Courtney Reece",
        "rank": 53842,
        "rank_sort": 53846,
        "total": 2349
      },
      {
        "club_badge_src": null,
        "entry": 1387965,
        "entry_name": "dedon",
        "event_total": 55,
        "has_played": true,
        "id": 9654474,
        "last_rank": 51099,
        "player_name": "Jama Mokorotlo",
        "rank": 53847,
        "rank_sort": 53847,
        "total": 2349
      },
      {
        "club_badge_src": null,
        "entry": 115614,
        "entry_name": "Charli xGx",
        "event_total": 69,
        "has_played": true,
        "id": 754574,
        "last_rank": 76877,
        "player_name": "Aasha Hussain",
        "rank": 53848,
        "rank_sort": 53848,
        "total": 2349
      },
      {
        "club_badge_src": null,
        "entry": 544940,
        "entry_name": "victor fc",
        "event_total": 36,
        "has_played": true,
        "id": 3667467,
        "last_rank": 27564,
        "player_name": "Vict Corneliusson",
        "rank": 53848,
        "rank_sort": 53849,
        "total": 2349
      },
      {
        "club_badge_src": null,
        "entry": 4199291,
        "entry_name": "Change Name",
        "event_total": 58,
        "has_played": true,
        "id": 31786016,
        "last_rank": 56047,
        "player_name": "Ni Andersen",
        "rank": 53848,
        "rank_sort": 53850,
        "total": 2349
      }
    ]
  }
}