{
  "last_updated_data": "2026-05-24T23:28:17Z",
  "league": {
    "admin_entry": null,
    "closed": false,
    "code_privacy": "p",
    "created": "2025-07-20T23:14:33.933835Z",
    "cup_league": 2815434,
    "has_cup": true,
    "id": 314,
    "league_type": "s",
    "max_entries": null,
    "name": "Overall",
    "rank": null,
    "scoring": "c",
    "start_event": 1
  },
  "new_entries": {
    "has_next": false,
    "page": 1,
    "results": []
  },
  "standings": {
    "has_next": true,
    "page": 1458,
    "results": [
      {
        "club_badge_src": null,
        "entry": 1171242,
        "entry_name": "PRAGULO",
        "event_total": 71,
        "has_played": true,
        "id": 8125445,
        "last_rank": 107162,
        "player_name": "M Rizani Ihsan",
        "rank": 72796,
        "rank_sort": 72851,
        "total": 2339
      },
      {
        "club_badge_src": null,
        "entry": 1276993,
        "entry_name": "King Kong's Finger",
        "event_total": 66,
        "has_played": true,
        "id": 8873424,
        "last_rank": 94255,
        "player_name": "Gabriel Nolan",
        "rank": 72796,
        "rank_sort": 72852,
        "total": 2339
      },
      {
        "club_badge_src": null,
        "entry": 1300846,
        "entry_name": "Trezegol",
        "event_total": 57,
        "has_played": true,
        "id": 9040836,
        "last_rank": 74166,
        "player_name": "Marin Ginduzov",
        "rank": 72796,
        "rank_sort": 72853,
        "total": 2339
      },
      {
        "club_badge_src": null,
        "entry": 1385890,
        "entry_name": "The Smitheads",
        "event_total": 65,
        "has_played": true,
        "id": 9639298,
        "last_rank": 82664,
        "player_name": "Tom Smith",
        "rank": 72796,
        "rank_sort": 72854,
        "total": 2339
      },
      {
        "club_badge_src": null,
        "entry": 1413477,
        "entry_name": "Avangarda",
        "event_total": 71,
        "has_played": true,
        "id": 9836634,
        "last_rank": 97096,
        "player_name": "Djordje Djurdjevic",
        "rank": 72796,
        "rank_sort": 72855,
        "total": 2339
      },
      {
        "club_badge_src": null,
        "entry": 1425116,
        "entry_name": "Decent F.C.",
        "event_total": 74,
        "has_played": true,
        "id": 9929485,
        "last_rank": 116017,
        "player_name": "Scott Bird",
        "rank": 72796,
        "rank_sort": 72856,
        "total": 2339
      },
      {
        "club_badge_src": null,
        "entry": 1521674,
        "entry_name": "Bangarang",
        "event_total": 58,
        "has_played": true,
        "id": 10613281,
        "last_rank": 76330,
        "player_name": "Steinar Gauti Dagsson",
        "rank": 72796,
        "rank_sort": 72857,
        "total": 2339
      },
      {
        "club_badge_src": null,
        "entry": 1573006,
        "entry_name": "\u0627\u0644\u0645\u062f\u0641\u0639\u062c\u064a\u0629",
        "event_total": 30,
        "has_played": true,
        "id": 10991346,
        "last_rank": 32437,
        "player_name": "Muhammad Khalifa",
        "rank": 72796,
        "rank_sort": 72858,
        "total": 2339
      },
      {
        "club_badge_src": "https://fantasy.premierleague.com/gcs/plfpl-production-adobe-approved/plfpl-production/1578537/571aeaa2-2d8e-4961-938a-1a6307c8b065.png",
        "entry": 1578537,
        "entry_name": "Expected Mo Goals",
        "event_total": 48,
        "has_played": true,
        "id": 11030434,
        "last_rank": 50635,
        "player_name": "Faycal Sabri",
        "rank": 72796,
        "rank_sort": 72859,
        "total": 2339
      },
      {
        "club_badge_src": null,
        "entry": 1598772,
        "entry_name": "Peaky Blinders",
        "event_total": 66,
        "has_played": true,
        "id": 11184433,
        "last_rank": 94537,
        "player_name": "Daniel Zayas",
        "rank": 72796,
        "rank_sort": 72860,
        "total": 2339
      },
      {
        "club_badge_src": null,
        "entry": 1615604,
        "entry_name": "Red-nosed Reijnders",
        "event_total": 57,
        "has_played": true,
        "id": 11304798,
        "last_rank": 74166,
        "player_name": "Mr Matthew Hazelton",
        "rank": 72796,
        "rank_sort": 72861,
        "total": 2339
      },
      {
        "club_badge_src": null,
        "entry": 1645995,
        "entry_name": "Caerphilly Crusaders",
        "event_total": 48,
        "has_played": true,
        "id": 11522172,
        "last_rank": 57200,
        "player_name": "Chris Olsen",
        "rank": 72796,
        "rank_sort": 72862,
        "total": 2339
      },
      {
        "club_badge_src": null,
        "entry": 1680202,
        "entry_name": "DOG SQUAD",
        "event_total": 55,
        "has_played": true,
        "id": 11762255,
        "last_rank": 69907,
        "player_name": "Matthew Lambert",
        "rank": 72796,
        "rank_sort": 72863,
        "total": 2339
      },
      {
        "club_badge_src": "https://fantasy.premierleague.com/gcs/plfpl-production-adobe-approved/plfpl-production/1685462/9920b1a9-e11e-4041-9651-4be34bd198b7.png",
        "entry": 1685462,
        "entry_name": "Tomiyasu kilode (x2)",
        "event_total": 66,
        "has_played": true,
        "id": 11798375,
        "last_rank": 94778,
        "player_name": "Gbenga Ajileye",
        "rank": 72796,
        "rank_sort": 72864,
        "total": 2339
      },
      {
        "club_badge_src": null,
        "entry": 1710189,
        "entry_name": "AbuSams",
        "event_total": 55,
        "has_played": true,
        "id": 11982589,
        "last_rank": 62429,
        "player_name": "Salar Tafti",
        "rank": 72796,
        "rank_sort": 72865,
        "total": 2339
      },
      {
        "club_badge_src": null,
        "entry": 1710383,
        "entry_name": "Chocolate's 99's",
        "event_total": 52,
        "has_played": true,
        "id": 11983934,
        "last_rank": 57200,
        "player_name": "Stevie Mellon",
        "rank": 72796,
        "rank_sort": 72866,
        "total": 2339
      },
      {
        "club_badge_src": null,
        "entry": 1770190,
        "entry_name": "Better Call Sa\u00fal",
        "event_total": 46,
        "has_played": true,
        "id": 12435127,
        "last_rank": 53952,
        "player_name": "Patrick Kirwin",
        "rank": 72796,
        "rank_sort": 72867,
        "total": 2339
      },
      {
        "club_badge_src": null,
        "entry": 1795451,
        "entry_name": "Cole Runnings",
        "event_total": 75,
        "has_played": true,
        "id": 12617232,
        "last_rank": 106259,
        "player_name": "Joe Rushby",
        "rank": 72796,
        "rank_sort": 72868,
        "total": 2339
      },
      {
        "club_badge_src": null,
        "entry": 1883381,
        "entry_name": "Patna Highfliers",
        "event_total": 64,
        "has_played": true,
        "id": 13270539,
        "last_rank": 89897,
        "player_name": "Kamal Kaushik",
        "rank": 72796,
        "rank_sort": 72869,
        "total": 2339
      },
      {
        "club_badge_src": null,
        "entry": 2140798,
        "entry_name": "Cameros",
        "event_total": 53,
        "has_played": true,
        "id": 15214780,
        "last_rank": 58911,
        "player_name": "Pedro Jaramillo",
        "rank": 72796,
        "rank_sort": 72870,
        "total": 2339
      },
      {
        "club_badge_src": null,
        "entry": 2205563,
        "entry_name": "aaii united",
        "event_total": 63,
        "has_played": true,
        "id": 15699616,
        "last_rank": 87541,
        "player_name": "Ai Koolhiran",
        "rank": 72796,
        "rank_sort": 72871,
        "total": 2339
      },
      {
        "club_badge_src": null,
        "entry": 2379137,
        "entry_name": "FPL BRAINBOX",
        "event_total": 57,
        "has_played": true,
        "id": 16987751,
        "last_rank": 73720,
        "player_name": "Obi Chiedozie",
        "rank": 72796,
        "rank_sort": 72872,
        "total": 2339
      },
      {
        "club_badge_src": null,
        "entry": 2390679,
        "entry_name": "Fleek Fc",
        "event_total": 68,
        "has_played": true,
        "id": 17077150,
        "last_rank": 99296,
        "player_name": "Java Ninsiima",
        "rank": 72796,
        "rank_sort": 72873,
        "total": 2339
      },
      {
        "club_badge_src": "https://fantasy.premierleague.com/gcs/plfpl-production-adobe-approved/plfpl-production/2400685/4c98992b-17fc-4bfa-bfed-3104487751f9.png",
        "entry": 2400685,
        "entry_name": "KOLLINTONFC",
        "event_total": 67,
        "has_played": true,
        "id": 17158026,
        "last_rank": 97096,
        "player_name": "Emmanuel Kollinton",
        "rank": 72796,
        "rank_sort": 72874,
        "total": 2339
      },
      {
        "club_badge_src": null,
        "entry": 2507351,
        "entry_name": "CUNHA DIG IT, SAKA?!",
        "event_total": 69,
        "has_played": true,
        "id": 17956287,
        "last_rank": 102343,
        "player_name": "Manoj Prasath",
        "rank": 72796,
        "rank_sort": 72875,
        "total": 2339
      },
      {
        "club_badge_src": null,
        "entry": 2521096,
        "entry_name": "Al Ali FC",
        "event_total": 54,
        "has_played": true,
        "id": 18064098,
        "last_rank": 60462,
        "player_name": "Ali Malik",
        "rank": 72796,
        "rank_sort": 72876,
        "total": 2339
      },
      {
        "club_badge_src": null,
        "entry": 2598667,
        "entry_name": "Here we no!",
        "event_total": 75,
        "has_played": true,
        "id": 18662775,
        "last_rank": 118654,
        "player_name": "Brandon Anderson",
        "rank": 72796,
        "rank_sort": 72877,
        "total": 2339
      },
      {
        "club_badge_src": null,
        "entry": 2599649,
        "entry_name": "Northerners",
        "event_total": 65,
        "has_played": true,
        "id": 18670310,
        "last_rank": 82069,
        "player_name": "Salmane A.",
        "rank": 72796,
        "rank_sort": 72878,
        "total": 2339
      },
      {
        "club_badge_src": null,
        "entry": 2606041,
        "entry_name": "\u0627\u0648\u0635\u0627",
        "event_total": 71,
        "has_played": true,
        "id": 18719939,
        "last_rank": 87074,
        "player_name": "\u0633\u0647\u0645 \u0641\u064a \u062e\u0631\u0645 \u0627\u0644\u0645\u062d\u0631\u0648\u0642 \u0642\u0644\u0641\u0631\u062f",
        "rank": 72796,
        "rank_sort": 72879,
        "total": 2339
      },
      {
        "club_badge_src": "https://fantasy.premierleague.com/gcs/plfpl-production-adobe-approved/plfpl-production/2734662/641d70dd-d0af-4676-8722-e450b32b98bb.png",
        "entry": 2734662,
        "entry_name": "Mansour",
        "event_total": 62,
        "has_played": true,
        "id": 19679363,
        "last_rank": 67422,
        "player_name": "Mansour Milano",
        "rank": 72796,
        "rank_sort": 72880,
        "total": 2339
      },
      {
        "club_badge_src": null,
        "entry": 2771508,
        "entry_name": "Hakuna Matazo FC",
        "event_total": 65,
        "has_played": true,
        "id": 20222086,
        "last_rank": 92332,
        "player_name": "Jake Mell",
        "rank": 72796,
        "rank_sort": 72881,
        "total": 2339
      },
      {
        "club_badge_src": null,
        "entry": 2776123,
        "entry_name": "Gunners Daily",
        "event_total": 59,
        "has_played": true,
        "id": 20259581,
        "last_rank": 69907,
        "player_name": "Ivan Poga\u010di\u0107",
        "rank": 72796,
        "rank_sort": 72882,
        "total": 2339
      },
      {
        "club_badge_src": null,
        "entry": 2834752,
        "entry_name": "liverpool",
        "event_total": 57,
        "has_played": true,
        "id": 20715611,
        "last_rank": 74166,
        "player_name": "Abdullah AlFaisal",
        "rank": 72796,
        "rank_sort": 72883,
        "total": 2339
      },
      {
        "club_badge_src": "https://fantasy.premierleague.com/gcs/plfpl-production-adobe-approved/plfpl-production/2870362/5d7f4f44-f101-44db-883b-9112ac965840.png",
        "entry": 2870362,
        "entry_name": "Carrick FC",
        "event_total": 62,
        "has_played": true,
        "id": 20998693,
        "last_rank": 84980,
        "player_name": "Albert Augustin",
        "rank": 72796,
        "rank_sort": 72884,
        "total": 2339
      },
      {
        "club_badge_src": null,
        "entry": 2976636,
        "entry_name": "Hold My Trophy",
        "event_total": 53,
        "has_played": true,
        "id": 21874707,
        "last_rank": 65796,
        "player_name": "Max Murphy",
        "rank": 72796,
        "rank_sort": 72885,
        "total": 2339
      },
      {
        "club_badge_src": null,
        "entry": 3031432,
        "entry_name": "The way to a Murillo",
        "event_total": 43,
        "has_played": true,
        "id": 22307569,
        "last_rank": 49207,
        "player_name": "Sam Rodber",
        "rank": 72796,
        "rank_sort": 72886,
        "total": 2339
      },
      {
        "club_badge_src": null,
        "entry": 3046266,
        "entry_name": "Tindalls St Tropez",
        "event_total": 68,
        "has_played": true,
        "id": 22424713,
        "last_rank": 99596,
        "player_name": "Adam Elliott",
        "rank": 72796,
        "rank_sort": 72887,
        "total": 2339
      },
      {
        "club_badge_src": null,
        "entry": 3139401,
        "entry_name": "Harry up and score",
        "event_total": 64,
        "has_played": true,
        "id": 23176007,
        "last_rank": 80465,
        "player_name": "Katie Spurrier",
        "rank": 72796,
        "rank_sort": 72888,
        "total": 2339
      },
      {
        "club_badge_src": null,
        "entry": 3209268,
        "entry_name": "FC Grab\u00f3w",
        "event_total": 55,
        "has_played": true,
        "id": 23726622,
        "last_rank": 62429,
        "player_name": "Alan Chmielarski",
        "rank": 72796,
        "rank_sort": 72889,
        "total": 2339
      },
      {
        "club_badge_src": null,
        "entry": 3294908,
        "entry_name": "speak of the devil",
        "event_total": 69,
        "has_played": true,
        "id": 24398853,
        "last_rank": 92126,
        "player_name": "Russ Favager",
        "rank": 72796,
        "rank_sort": 72890,
        "total": 2339
      },
      {
        "club_badge_src": null,
        "entry": 3332451,
        "entry_name": "Thai Frimpong Show",
        "event_total": 58,
        "has_played": true,
        "id": 24708832,
        "last_rank": 75874,
        "player_name": "Tom Hughes",
        "rank": 72796,
        "rank_sort": 72891,
        "total": 2339
      },
      {
        "club_badge_src": null,
        "entry": 3430783,
        "entry_name": "BabyDaddy FC",
        "event_total": 64,
        "has_played": true,
        "id": 25485966,
        "last_rank": 80465,
        "player_name": "Ihsancan Turan",
        "rank": 72796,
        "rank_sort": 72892,
        "total": 2339
      },
      {
        "club_badge_src": null,
        "entry": 3566621,
        "entry_name": "Xhaka's Crackers",
        "event_total": 64,
        "has_played": true,
        "id": 26556914,
        "last_rank": 89897,
        "player_name": "Mark Weston",
        "rank": 72796,
        "rank_sort": 72893,
        "total": 2339
      },
      {
        "club_badge_src": null,
        "entry": 3647745,
        "entry_name": "Trust the Process",
        "event_total": 55,
        "has_played": true,
        "id": 27189519,
        "last_rank": 69907,
        "player_name": "Villads Wismann",
        "rank": 72796,
        "rank_sort": 72894,
        "total": 2339
      },
      {
        "club_badge_src": null,
        "entry": 3800609,
        "entry_name": "Covered Persons",
        "event_total": 51,
        "has_played": true,
        "id": 28411089,
        "last_rank": 62429,
        "player_name": "Daniel Cole",
        "rank": 72796,
        "rank_sort": 72895,
        "total": 2339
      },
      {
        "club_badge_src": "https://fantasy.premierleague.com/gcs/plfpl-production-adobe-approved/plfpl-production/3830239/c05cb788-cf45-473a-b786-8e4f0a9af897.png",
        "entry": 3830239,
        "entry_name": "Khaledalthuwaini",
        "event_total": 65,
        "has_played": true,
        "id": 28651983,
        "last_rank": 92332,
        "player_name": "Khaled Althuwaini",
        "rank": 72796,
        "rank_sort": 72896,
        "total": 2339
      },
      {
        "club_badge_src": null,
        "entry": 3863957,
        "entry_name": "WE TRIED FC",
        "event_total": 67,
        "has_played": true,
        "id": 28972382,
        "last_rank": 87350,
        "player_name": "Pakorn Lekklang",
        "rank": 72796,
        "rank_sort": 72897,
        "total": 2339
      },
      {
        "club_badge_src": "https://fantasy.premierleague.com/gcs/plfpl-production-adobe-approved/plfpl-production/3900094/f4e4b7c6-b43f-40ab-906d-01fc7f115fd1.png",
        "entry": 3900094,
        "entry_name": "Back of the Neto",
        "event_total": 59,
        "has_played": true,
        "id": 29317687,
        "last_rank": 78244,
        "player_name": "Joseph Wilson",
        "rank": 72796,
        "rank_sort": 72898,
        "total": 2339
      },
      {
        "club_badge_src": "https://fantasy.premierleague.com/gcs/plfpl-production-adobe-approved/plfpl-production/3900624/3d002e2f-2cc3-47a7-9bce-7d6cda846682.png",
        "entry": 3900624,
        "entry_name": "Lady Killers",
        "event_total": 47,
        "has_played": true,
        "id": 29321840,
        "last_rank": 55659,
        "player_name": "Denise Regan",
        "rank": 72796,
        "rank_sort": 72899,
        "total": 2339
      },
      {
        "club_badge_src": null,
        "entry": 3922693,
        "entry_name": "I\u2019m Amad Head",
        "event_total": 65,
        "has_played": true,
        "id": 29498890,
        "last_rank": 92332,
        "player_name": "Tyran Harrison",
        "rank": 72796,
        "rank_sort": 72900,
        "total": 2339
      }
    ]
  }
}