{
  "last_updated_data": "2026-05-24T23:28:17Z",
  "league": {
    "admin_entry": null,
    "closed": false,
    "code_privacy": "p",
    "created": "2025-07-20T23:14:33.933835Z",
    "cup_league": 2815434,
    "has_cup": true,
    "id": 314,
    "league_type": "s",
    "max_entries": null,
    "name": "Overall",
    "rank": null,
    "scoring": "c",
    "start_event": 1
  },
  "new_entries": {
    "has_next": false,
    "page": 1,
    "results": []
  },
  "standings": {
    "has_next": true,
    "page": 1462,
    "results": [
      {
        "club_badge_src": null,
        "entry": 7063504,
        "entry_name": "Railway Workers FC",
        "event_total": 48,
        "has_played": true,
        "id": 56828332,
        "last_rank": 57451,
        "player_name": "Raymond Hansen",
        "rank": 72944,
        "rank_sort": 73051,
        "total": 2339
      },
      {
        "club_badge_src": null,
        "entry": 7118795,
        "entry_name": "Ctrl Alt De Ligt",
        "event_total": 37,
        "has_played": true,
        "id": 57354903,
        "last_rank": 40832,
        "player_name": "Chris Smith",
        "rank": 72944,
        "rank_sort": 73052,
        "total": 2339
      },
      {
        "club_badge_src": null,
        "entry": 7386743,
        "entry_name": "Bonkers Utd.",
        "event_total": 53,
        "has_played": true,
        "id": 59888658,
        "last_rank": 66057,
        "player_name": "Kozzi Kunn",
        "rank": 72944,
        "rank_sort": 73053,
        "total": 2339
      },
      {
        "club_badge_src": null,
        "entry": 7586015,
        "entry_name": "FC Mooselona",
        "event_total": 59,
        "has_played": true,
        "id": 62137741,
        "last_rank": 78244,
        "player_name": "Moses Kang",
        "rank": 72944,
        "rank_sort": 73054,
        "total": 2339
      },
      {
        "club_badge_src": "https://fantasy.premierleague.com/gcs/plfpl-production-adobe-approved/plfpl-production/7923635/e4568575-ed01-4819-984b-1cf9878f3922.png",
        "entry": 7923635,
        "entry_name": "Wielbiciele Cioci",
        "event_total": 74,
        "has_played": true,
        "id": 65200806,
        "last_rank": 116017,
        "player_name": "Kamil Kozak",
        "rank": 72944,
        "rank_sort": 73055,
        "total": 2339
      },
      {
        "club_badge_src": null,
        "entry": 8178051,
        "entry_name": "max wanderers",
        "event_total": 68,
        "has_played": true,
        "id": 67533073,
        "last_rank": 89897,
        "player_name": "Marcus Feiral",
        "rank": 72944,
        "rank_sort": 73056,
        "total": 2339
      },
      {
        "club_badge_src": null,
        "entry": 8226685,
        "entry_name": "Solom FC \u26a1\ufe0f",
        "event_total": 61,
        "has_played": true,
        "id": 67993045,
        "last_rank": 74166,
        "player_name": "Eslam Ibrahim",
        "rank": 72944,
        "rank_sort": 73057,
        "total": 2339
      },
      {
        "club_badge_src": null,
        "entry": 8735062,
        "entry_name": "Earn money fm u guys",
        "event_total": 68,
        "has_played": true,
        "id": 72919962,
        "last_rank": 100092,
        "player_name": "Earn C",
        "rank": 72944,
        "rank_sort": 73058,
        "total": 2339
      },
      {
        "club_badge_src": "https://fantasy.premierleague.com/gcs/plfpl-production-adobe-approved/plfpl-production/8896427/38662891-7141-4adc-b079-f32fad5baad8.png",
        "entry": 8896427,
        "entry_name": "Clicks FC",
        "event_total": 68,
        "has_played": true,
        "id": 74474148,
        "last_rank": 99806,
        "player_name": "Adedeji A. Paul",
        "rank": 72944,
        "rank_sort": 73059,
        "total": 2339
      },
      {
        "club_badge_src": null,
        "entry": 9185348,
        "entry_name": "On the \u0160e\u0161hko",
        "event_total": 72,
        "has_played": true,
        "id": 77289604,
        "last_rank": 110416,
        "player_name": "Daniel Martin",
        "rank": 72944,
        "rank_sort": 73060,
        "total": 2339
      },
      {
        "club_badge_src": null,
        "entry": 9323895,
        "entry_name": "kkb14",
        "event_total": 61,
        "has_played": true,
        "id": 78638327,
        "last_rank": 83018,
        "player_name": "karim bhanwadia",
        "rank": 72944,
        "rank_sort": 73061,
        "total": 2339
      },
      {
        "club_badge_src": null,
        "entry": 10724308,
        "entry_name": "BubuYier",
        "event_total": 53,
        "has_played": true,
        "id": 90587859,
        "last_rank": 59077,
        "player_name": "Moh Cy",
        "rank": 72944,
        "rank_sort": 73062,
        "total": 2339
      },
      {
        "club_badge_src": "https://fantasy.premierleague.com/gcs/plfpl-production-adobe-approved/plfpl-production/8775/c513b9fa-0d73-4131-a494-46d923c4ea03.png",
        "entry": 8775,
        "entry_name": "Xprez kebab",
        "event_total": 58,
        "has_played": true,
        "id": 51196,
        "last_rank": 53837,
        "player_name": "Mads Frey",
        "rank": 73063,
        "rank_sort": 73063,
        "total": 2339
      },
      {
        "club_badge_src": null,
        "entry": 13481,
        "entry_name": "Dom'sDiamonds",
        "event_total": 49,
        "has_played": true,
        "id": 81477,
        "last_rank": 59249,
        "player_name": "Graeme Toppin",
        "rank": 73063,
        "rank_sort": 73064,
        "total": 2339
      },
      {
        "club_badge_src": null,
        "entry": 43537,
        "entry_name": "PortoLoqos",
        "event_total": 67,
        "has_played": true,
        "id": 278821,
        "last_rank": 97470,
        "player_name": "Ms Eryna",
        "rank": 73063,
        "rank_sort": 73065,
        "total": 2339
      },
      {
        "club_badge_src": null,
        "entry": 57762,
        "entry_name": "Tyrone Shmings XI",
        "event_total": 49,
        "has_played": true,
        "id": 372120,
        "last_rank": 52461,
        "player_name": "Suraj Sharma",
        "rank": 73063,
        "rank_sort": 73066,
        "total": 2339
      },
      {
        "club_badge_src": null,
        "entry": 62910,
        "entry_name": "Wirtz Case Scenario",
        "event_total": 91,
        "has_played": true,
        "id": 405754,
        "last_rank": 117915,
        "player_name": "Mike Dunn",
        "rank": 73063,
        "rank_sort": 73067,
        "total": 2339
      },
      {
        "club_badge_src": null,
        "entry": 65202,
        "entry_name": "Aminooo-9",
        "event_total": 68,
        "has_played": true,
        "id": 420864,
        "last_rank": 90057,
        "player_name": "Mostafa Amin",
        "rank": 73063,
        "rank_sort": 73068,
        "total": 2339
      },
      {
        "club_badge_src": null,
        "entry": 145773,
        "entry_name": "BalotelliTubbieFC",
        "event_total": 67,
        "has_played": true,
        "id": 954792,
        "last_rank": 87710,
        "player_name": "Taymour Metwalli",
        "rank": 73063,
        "rank_sort": 73069,
        "total": 2339
      },
      {
        "club_badge_src": "https://fantasy.premierleague.com/gcs/plfpl-production-adobe-approved/plfpl-production/177954/adc766da-ac69-42b7-bcaa-ca945aeca16e.png",
        "entry": 177954,
        "entry_name": "Camelot",
        "event_total": 50,
        "has_played": true,
        "id": 1174478,
        "last_rank": 54065,
        "player_name": "Leonard Leader",
        "rank": 73063,
        "rank_sort": 73070,
        "total": 2339
      },
      {
        "club_badge_src": "https://fantasy.premierleague.com/gcs/plfpl-production-adobe-approved/plfpl-production/190386/7c8bf3ae-8329-4f24-a298-28a97969fab9.png",
        "entry": 190386,
        "entry_name": "Hey ho Silva",
        "event_total": 45,
        "has_played": true,
        "id": 1260713,
        "last_rank": 40770,
        "player_name": "ian armstrong",
        "rank": 73063,
        "rank_sort": 73071,
        "total": 2339
      },
      {
        "club_badge_src": null,
        "entry": 204809,
        "entry_name": "BATI KAKO CEMO?",
        "event_total": 69,
        "has_played": true,
        "id": 1361269,
        "last_rank": 92332,
        "player_name": "Aleksandar Pandzic",
        "rank": 73063,
        "rank_sort": 73072,
        "total": 2339
      },
      {
        "club_badge_src": "https://fantasy.premierleague.com/gcs/plfpl-production-adobe-approved/plfpl-production/221668/318d1260-1dfb-4eaa-af2d-a732314513fe.png",
        "entry": 221668,
        "entry_name": "\u2666\ufe0f   YNWA   \u2666\ufe0f",
        "event_total": 67,
        "has_played": true,
        "id": 1474336,
        "last_rank": 87710,
        "player_name": "Antonijo Arti\u0107",
        "rank": 73063,
        "rank_sort": 73073,
        "total": 2339
      },
      {
        "club_badge_src": null,
        "entry": 223402,
        "entry_name": "Miller's Magic 11",
        "event_total": 60,
        "has_played": true,
        "id": 1486085,
        "last_rank": 80877,
        "player_name": "Kurran Miller",
        "rank": 73063,
        "rank_sort": 73074,
        "total": 2339
      },
      {
        "club_badge_src": null,
        "entry": 282633,
        "entry_name": "Daan Fc",
        "event_total": 47,
        "has_played": true,
        "id": 1881364,
        "last_rank": 55812,
        "player_name": "Daan van de Goor",
        "rank": 73063,
        "rank_sort": 73075,
        "total": 2339
      },
      {
        "club_badge_src": null,
        "entry": 345332,
        "entry_name": "Iris_FC",
        "event_total": 45,
        "has_played": true,
        "id": 2311603,
        "last_rank": 52461,
        "player_name": "Eleni Melissopoulou",
        "rank": 73063,
        "rank_sort": 73076,
        "total": 2339
      },
      {
        "club_badge_src": null,
        "entry": 498629,
        "entry_name": "Rock that Bartley",
        "event_total": 75,
        "has_played": true,
        "id": 3346630,
        "last_rank": 118654,
        "player_name": "Ben Cresswell",
        "rank": 73063,
        "rank_sort": 73077,
        "total": 2339
      },
      {
        "club_badge_src": null,
        "entry": 701769,
        "entry_name": "FC Alrightmate VIII",
        "event_total": 51,
        "has_played": true,
        "id": 4754991,
        "last_rank": 62812,
        "player_name": "Chris Platts",
        "rank": 73063,
        "rank_sort": 73078,
        "total": 2339
      },
      {
        "club_badge_src": null,
        "entry": 704061,
        "entry_name": "bonham rovers",
        "event_total": 37,
        "has_played": true,
        "id": 4770972,
        "last_rank": 35768,
        "player_name": "Rob Hall",
        "rank": 73063,
        "rank_sort": 73079,
        "total": 2339
      },
      {
        "club_badge_src": null,
        "entry": 707789,
        "entry_name": "Leones azules!",
        "event_total": 62,
        "has_played": true,
        "id": 4796995,
        "last_rank": 85487,
        "player_name": "MT -",
        "rank": 73063,
        "rank_sort": 73080,
        "total": 2339
      },
      {
        "club_badge_src": null,
        "entry": 731532,
        "entry_name": "i ragazzi",
        "event_total": 53,
        "has_played": true,
        "id": 4970950,
        "last_rank": 66380,
        "player_name": "Johan St\u00e5lhult Pianadei",
        "rank": 73063,
        "rank_sort": 73081,
        "total": 2339
      },
      {
        "club_badge_src": null,
        "entry": 751421,
        "entry_name": "Dodo FC",
        "event_total": 73,
        "has_played": true,
        "id": 5112858,
        "last_rank": 113400,
        "player_name": "Demola Akin-adesina",
        "rank": 73063,
        "rank_sort": 73082,
        "total": 2339
      },
      {
        "club_badge_src": null,
        "entry": 795785,
        "entry_name": "Chicken Caesar Salah",
        "event_total": 65,
        "has_played": true,
        "id": 5446229,
        "last_rank": 92471,
        "player_name": "Isaac Henry",
        "rank": 73063,
        "rank_sort": 73083,
        "total": 2339
      },
      {
        "club_badge_src": null,
        "entry": 802349,
        "entry_name": "Mcneil Deal",
        "event_total": 64,
        "has_played": true,
        "id": 5492294,
        "last_rank": 80781,
        "player_name": "Josh McCabe",
        "rank": 73063,
        "rank_sort": 73084,
        "total": 2339
      },
      {
        "club_badge_src": null,
        "entry": 836286,
        "entry_name": "Benoni United",
        "event_total": 52,
        "has_played": true,
        "id": 5728894,
        "last_rank": 57358,
        "player_name": "Ivan Stein",
        "rank": 73063,
        "rank_sort": 73085,
        "total": 2339
      },
      {
        "club_badge_src": "https://fantasy.premierleague.com/gcs/plfpl-production-adobe-approved/plfpl-production/869535/f72ff738-1955-41cf-b630-1b1f16336782.png",
        "entry": 869535,
        "entry_name": "M7",
        "event_total": 63,
        "has_played": true,
        "id": 5961353,
        "last_rank": 69907,
        "player_name": "m7mod khaled",
        "rank": 73063,
        "rank_sort": 73086,
        "total": 2339
      },
      {
        "club_badge_src": "https://fantasy.premierleague.com/gcs/plfpl-production-adobe-approved/plfpl-production/952143/9d8514c7-2422-496b-989c-86ef13176f45.png",
        "entry": 952143,
        "entry_name": "Alpha Daywalkers!",
        "event_total": 53,
        "has_played": true,
        "id": 6559934,
        "last_rank": 52357,
        "player_name": "Emmanuel Ajiboye",
        "rank": 73063,
        "rank_sort": 73087,
        "total": 2339
      },
      {
        "club_badge_src": "https://fantasy.premierleague.com/gcs/plfpl-production-adobe-approved/plfpl-production/998989/bac480f6-6345-438b-a789-bff59421f8a3.png",
        "entry": 998989,
        "entry_name": "SatoruGojo",
        "event_total": 64,
        "has_played": true,
        "id": 6904138,
        "last_rank": 80781,
        "player_name": "Ante Karamati\u0107",
        "rank": 73063,
        "rank_sort": 73088,
        "total": 2339
      },
      {
        "club_badge_src": null,
        "entry": 1061195,
        "entry_name": "Kneecapped United",
        "event_total": 69,
        "has_played": true,
        "id": 7346011,
        "last_rank": 102501,
        "player_name": "Ciaran Mc Grath",
        "rank": 73063,
        "rank_sort": 73089,
        "total": 2339
      },
      {
        "club_badge_src": null,
        "entry": 1072092,
        "entry_name": "Kinder Mbeumo",
        "event_total": 73,
        "has_played": true,
        "id": 7422038,
        "last_rank": 102343,
        "player_name": "Kurusharran Kajendran",
        "rank": 73063,
        "rank_sort": 73090,
        "total": 2339
      },
      {
        "club_badge_src": null,
        "entry": 1174434,
        "entry_name": "\u00a5\u00a3\u516b\u65b9\u6765\u8d22\u20ac$",
        "event_total": 63,
        "has_played": true,
        "id": 8147967,
        "last_rank": 78575,
        "player_name": "Kyoma LIU",
        "rank": 73063,
        "rank_sort": 73091,
        "total": 2339
      },
      {
        "club_badge_src": "https://fantasy.premierleague.com/gcs/plfpl-production-adobe-approved/plfpl-production/1340108/07bd7cea-2d41-47f8-bb24-fc702806e125.png",
        "entry": 1340108,
        "entry_name": "Phoenix FC",
        "event_total": 66,
        "has_played": true,
        "id": 9317051,
        "last_rank": 85349,
        "player_name": "Leonard Mizzi",
        "rank": 73063,
        "rank_sort": 73092,
        "total": 2339
      },
      {
        "club_badge_src": "https://fantasy.premierleague.com/gcs/plfpl-production-adobe-approved/plfpl-production/1342314/6c5bdf5b-111f-4f24-851f-ac2bbcb6a96a.png",
        "entry": 1342314,
        "entry_name": "LuckyStrike",
        "event_total": 41,
        "has_played": true,
        "id": 9332761,
        "last_rank": 40832,
        "player_name": "Linus Linnros",
        "rank": 73063,
        "rank_sort": 73093,
        "total": 2339
      },
      {
        "club_badge_src": null,
        "entry": 1366559,
        "entry_name": "torlafax",
        "event_total": 60,
        "has_played": true,
        "id": 9499785,
        "last_rank": 80877,
        "player_name": "Torlasarn Tamnao",
        "rank": 73063,
        "rank_sort": 73094,
        "total": 2339
      },
      {
        "club_badge_src": null,
        "entry": 1372690,
        "entry_name": "Saka Potatoes",
        "event_total": 66,
        "has_played": true,
        "id": 9542038,
        "last_rank": 94933,
        "player_name": "Chuck Ramsamooj",
        "rank": 73063,
        "rank_sort": 73095,
        "total": 2339
      },
      {
        "club_badge_src": null,
        "entry": 1599531,
        "entry_name": "Slight Pepper",
        "event_total": 73,
        "has_played": true,
        "id": 11189665,
        "last_rank": 113553,
        "player_name": "STUART FRANCO",
        "rank": 73063,
        "rank_sort": 73096,
        "total": 2339
      },
      {
        "club_badge_src": null,
        "entry": 1680613,
        "entry_name": "Dolladis FC",
        "event_total": 59,
        "has_played": true,
        "id": 11765142,
        "last_rank": 70183,
        "player_name": "Phudit Benyapong",
        "rank": 73063,
        "rank_sort": 73097,
        "total": 2339
      },
      {
        "club_badge_src": null,
        "entry": 1686163,
        "entry_name": "RIP",
        "event_total": 56,
        "has_played": true,
        "id": 11803380,
        "last_rank": 64422,
        "player_name": "A B",
        "rank": 73063,
        "rank_sort": 73098,
        "total": 2339
      },
      {
        "club_badge_src": null,
        "entry": 1699324,
        "entry_name": "Blue & White Chaos",
        "event_total": 55,
        "has_played": true,
        "id": 11902801,
        "last_rank": 62724,
        "player_name": "Mark Piper",
        "rank": 73063,
        "rank_sort": 73099,
        "total": 2339
      },
      {
        "club_badge_src": "https://fantasy.premierleague.com/gcs/plfpl-production-adobe-approved/plfpl-production/1772465/348cf669-9664-4250-9948-dd2aaeec75db.png",
        "entry": 1772465,
        "entry_name": "Ayam Biru ManCity FC",
        "event_total": 38,
        "has_played": true,
        "id": 12451282,
        "last_rank": 42225,
        "player_name": "SSS PS04232023",
        "rank": 73063,
        "rank_sort": 73100,
        "total": 2339
      }
    ]
  }
}