{
  "last_updated_data": "2026-05-24T23:28:17Z",
  "league": {
    "admin_entry": null,
    "closed": false,
    "code_privacy": "p",
    "created": "2025-07-20T23:14:33.933835Z",
    "cup_league": 2815434,
    "has_cup": true,
    "id": 314,
    "league_type": "s",
    "max_entries": null,
    "name": "Overall",
    "rank": null,
    "scoring": "c",
    "start_event": 1
  },
  "new_entries": {
    "has_next": false,
    "page": 1,
    "results": []
  },
  "standings": {
    "has_next": true,
    "page": 962,
    "results": [
      {
        "club_badge_src": null,
        "entry": 2822435,
        "entry_name": "Viva Las Vega",
        "event_total": 70,
        "has_played": true,
        "id": 20620542,
        "last_rank": 70600,
        "player_name": "Annabel Vega",
        "rank": 47869,
        "rank_sort": 48051,
        "total": 2353
      },
      {
        "club_badge_src": null,
        "entry": 2869983,
        "entry_name": "wetbanana",
        "event_total": 53,
        "has_played": true,
        "id": 20994846,
        "last_rank": 42648,
        "player_name": "Chia Yin Chang",
        "rank": 47869,
        "rank_sort": 48052,
        "total": 2353
      },
      {
        "club_badge_src": null,
        "entry": 2877353,
        "entry_name": "arsnal win",
        "event_total": 45,
        "has_played": true,
        "id": 21062413,
        "last_rank": 32879,
        "player_name": "mostafa Abd elhalem",
        "rank": 47869,
        "rank_sort": 48053,
        "total": 2353
      },
      {
        "club_badge_src": null,
        "entry": 2903418,
        "entry_name": "Sunshine",
        "event_total": 69,
        "has_played": true,
        "id": 21277063,
        "last_rank": 68624,
        "player_name": "Ashish S",
        "rank": 47869,
        "rank_sort": 48054,
        "total": 2353
      },
      {
        "club_badge_src": null,
        "entry": 2908053,
        "entry_name": "Kinder Mbeumo",
        "event_total": 66,
        "has_played": true,
        "id": 21312990,
        "last_rank": 63201,
        "player_name": "Sam Acres",
        "rank": 47869,
        "rank_sort": 48055,
        "total": 2353
      },
      {
        "club_badge_src": null,
        "entry": 2911183,
        "entry_name": "mayling",
        "event_total": 61,
        "has_played": true,
        "id": 21337319,
        "last_rank": 54667,
        "player_name": "kieren cooper",
        "rank": 47869,
        "rank_sort": 48056,
        "total": 2353
      },
      {
        "club_badge_src": null,
        "entry": 2944632,
        "entry_name": "Kolby is cute",
        "event_total": 60,
        "has_played": true,
        "id": 21607078,
        "last_rank": 53023,
        "player_name": "Toby jennings",
        "rank": 47869,
        "rank_sort": 48057,
        "total": 2353
      },
      {
        "club_badge_src": null,
        "entry": 2954741,
        "entry_name": "MachineDerry",
        "event_total": 56,
        "has_played": true,
        "id": 21701768,
        "last_rank": 46660,
        "player_name": "Luke Littlewood",
        "rank": 47869,
        "rank_sort": 48058,
        "total": 2353
      },
      {
        "club_badge_src": "https://fantasy.premierleague.com/gcs/plfpl-production-adobe-approved/plfpl-production/2956495/e3970755-2796-484d-a6c1-b59bc0272412.png",
        "entry": 2956495,
        "entry_name": "Forza Viola",
        "event_total": 68,
        "has_played": true,
        "id": 21715338,
        "last_rank": 66738,
        "player_name": "Tiberiu Ionescu",
        "rank": 47869,
        "rank_sort": 48059,
        "total": 2353
      },
      {
        "club_badge_src": null,
        "entry": 2958080,
        "entry_name": "Lucy's XI",
        "event_total": 57,
        "has_played": true,
        "id": 21727498,
        "last_rank": 48363,
        "player_name": "Lucy McManus",
        "rank": 47869,
        "rank_sort": 48060,
        "total": 2353
      },
      {
        "club_badge_src": null,
        "entry": 3074371,
        "entry_name": "Ha-Cunha Matata",
        "event_total": 61,
        "has_played": true,
        "id": 22639062,
        "last_rank": 54667,
        "player_name": "Ben Smith",
        "rank": 47869,
        "rank_sort": 48061,
        "total": 2353
      },
      {
        "club_badge_src": null,
        "entry": 3120053,
        "entry_name": "Daz's Dazzlers",
        "event_total": 33,
        "has_played": true,
        "id": 23024798,
        "last_rank": 21775,
        "player_name": "Darryl Bannan",
        "rank": 47869,
        "rank_sort": 48062,
        "total": 2353
      },
      {
        "club_badge_src": null,
        "entry": 3174928,
        "entry_name": "Hwang Solo",
        "event_total": 68,
        "has_played": true,
        "id": 23459296,
        "last_rank": 67063,
        "player_name": "Joe Atton",
        "rank": 47869,
        "rank_sort": 48063,
        "total": 2353
      },
      {
        "club_badge_src": null,
        "entry": 3205445,
        "entry_name": "Big Bunda Bryan",
        "event_total": 51,
        "has_played": true,
        "id": 23696708,
        "last_rank": 40036,
        "player_name": "Nick Khairi",
        "rank": 47869,
        "rank_sort": 48064,
        "total": 2353
      },
      {
        "club_badge_src": null,
        "entry": 3222201,
        "entry_name": "Potts' Miracle Men",
        "event_total": 56,
        "has_played": true,
        "id": 23827890,
        "last_rank": 46660,
        "player_name": "Tony Potts",
        "rank": 47869,
        "rank_sort": 48065,
        "total": 2353
      },
      {
        "club_badge_src": null,
        "entry": 3232152,
        "entry_name": "Fru J\u00f8rgensen",
        "event_total": 56,
        "has_played": true,
        "id": 23904566,
        "last_rank": 46839,
        "player_name": "Knut Markhus",
        "rank": 47869,
        "rank_sort": 48066,
        "total": 2353
      },
      {
        "club_badge_src": null,
        "entry": 3243690,
        "entry_name": "FC SAHIN",
        "event_total": 52,
        "has_played": true,
        "id": 23994730,
        "last_rank": 41101,
        "player_name": "Emre Sahin",
        "rank": 47869,
        "rank_sort": 48067,
        "total": 2353
      },
      {
        "club_badge_src": null,
        "entry": 3253213,
        "entry_name": "Change Name",
        "event_total": 49,
        "has_played": true,
        "id": 24069867,
        "last_rank": 37589,
        "player_name": "Andy Thornton",
        "rank": 47869,
        "rank_sort": 48068,
        "total": 2353
      },
      {
        "club_badge_src": null,
        "entry": 3259440,
        "entry_name": "Rutter Woke Nonsense",
        "event_total": 51,
        "has_played": true,
        "id": 24117629,
        "last_rank": 40036,
        "player_name": "Scott Amphlett",
        "rank": 47869,
        "rank_sort": 48069,
        "total": 2353
      },
      {
        "club_badge_src": null,
        "entry": 3374189,
        "entry_name": "PeteyFC",
        "event_total": 70,
        "has_played": true,
        "id": 25043759,
        "last_rank": 70757,
        "player_name": "Peter Jarvis",
        "rank": 47869,
        "rank_sort": 48070,
        "total": 2353
      },
      {
        "club_badge_src": null,
        "entry": 3513331,
        "entry_name": "High Line FC",
        "event_total": 67,
        "has_played": true,
        "id": 26142845,
        "last_rank": 57776,
        "player_name": "Houssem Ferihi",
        "rank": 47869,
        "rank_sort": 48071,
        "total": 2353
      },
      {
        "club_badge_src": null,
        "entry": 3525046,
        "entry_name": "Your wirtz enemy",
        "event_total": 66,
        "has_played": true,
        "id": 26234196,
        "last_rank": 63201,
        "player_name": "gary bailey",
        "rank": 47869,
        "rank_sort": 48072,
        "total": 2353
      },
      {
        "club_badge_src": null,
        "entry": 3536567,
        "entry_name": "Saka potatoes",
        "event_total": 70,
        "has_played": true,
        "id": 26323641,
        "last_rank": 71386,
        "player_name": "Matthew Wilks",
        "rank": 47869,
        "rank_sort": 48073,
        "total": 2353
      },
      {
        "club_badge_src": null,
        "entry": 3633552,
        "entry_name": "banega",
        "event_total": 54,
        "has_played": true,
        "id": 27077353,
        "last_rank": 44048,
        "player_name": "Ait Nadir",
        "rank": 47869,
        "rank_sort": 48074,
        "total": 2353
      },
      {
        "club_badge_src": null,
        "entry": 3706849,
        "entry_name": "Rice Rice Baby",
        "event_total": 75,
        "has_played": true,
        "id": 27658756,
        "last_rank": 81646,
        "player_name": "Tadhg Corkery",
        "rank": 47869,
        "rank_sort": 48075,
        "total": 2353
      },
      {
        "club_badge_src": "https://fantasy.premierleague.com/gcs/plfpl-production-adobe-approved/plfpl-production/3726598/92f3d192-3871-4720-a7df-76b004856ac7.png",
        "entry": 3726598,
        "entry_name": "FpL CaVe",
        "event_total": 42,
        "has_played": true,
        "id": 27814354,
        "last_rank": 29904,
        "player_name": "Jim RoY",
        "rank": 47869,
        "rank_sort": 48076,
        "total": 2353
      },
      {
        "club_badge_src": null,
        "entry": 3780714,
        "entry_name": "Jeremie PingPong",
        "event_total": 53,
        "has_played": true,
        "id": 28231177,
        "last_rank": 42648,
        "player_name": "Ryan Cahill",
        "rank": 47869,
        "rank_sort": 48077,
        "total": 2353
      },
      {
        "club_badge_src": null,
        "entry": 3831980,
        "entry_name": "CMPND Coach",
        "event_total": 67,
        "has_played": true,
        "id": 28666060,
        "last_rank": 64830,
        "player_name": "Tom Maguire",
        "rank": 47869,
        "rank_sort": 48078,
        "total": 2353
      },
      {
        "club_badge_src": null,
        "entry": 3877803,
        "entry_name": "McGinniesta",
        "event_total": 55,
        "has_played": true,
        "id": 29135701,
        "last_rank": 45416,
        "player_name": "Daniel Dyke",
        "rank": 47869,
        "rank_sort": 48079,
        "total": 2353
      },
      {
        "club_badge_src": null,
        "entry": 3881104,
        "entry_name": "Pontiakos FC",
        "event_total": 47,
        "has_played": true,
        "id": 29162020,
        "last_rank": 34969,
        "player_name": "Gio Kost",
        "rank": 47869,
        "rank_sort": 48080,
        "total": 2353
      },
      {
        "club_badge_src": "https://fantasy.premierleague.com/gcs/plfpl-production-adobe-approved/plfpl-production/3908599/86964931-e291-417c-9a3e-90267d99fd7c.png",
        "entry": 3908599,
        "entry_name": "\u0160takori sa krilima",
        "event_total": 53,
        "has_played": true,
        "id": 29385851,
        "last_rank": 42648,
        "player_name": "Marko Milanovi\u0107",
        "rank": 47869,
        "rank_sort": 48081,
        "total": 2353
      },
      {
        "club_badge_src": null,
        "entry": 3971879,
        "entry_name": "guts",
        "event_total": 42,
        "has_played": true,
        "id": 29890951,
        "last_rank": 29688,
        "player_name": "z i",
        "rank": 47869,
        "rank_sort": 48082,
        "total": 2353
      },
      {
        "club_badge_src": null,
        "entry": 3979045,
        "entry_name": "Friggs 11",
        "event_total": 70,
        "has_played": true,
        "id": 29951253,
        "last_rank": 70651,
        "player_name": "Oscar Fridh",
        "rank": 47869,
        "rank_sort": 48083,
        "total": 2353
      },
      {
        "club_badge_src": "https://fantasy.premierleague.com/gcs/plfpl-production-adobe-approved/plfpl-production/4006035/0991df56-1891-4d01-96fd-02d48af58625.png",
        "entry": 4006035,
        "entry_name": "Ain\u2019t Got a Kalou",
        "event_total": 55,
        "has_played": true,
        "id": 30177236,
        "last_rank": 45252,
        "player_name": "James Asherson",
        "rank": 47869,
        "rank_sort": 48084,
        "total": 2353
      },
      {
        "club_badge_src": null,
        "entry": 4055202,
        "entry_name": "Here We Go",
        "event_total": 58,
        "has_played": true,
        "id": 30597119,
        "last_rank": 49880,
        "player_name": "MFFM Zu1h41r1e",
        "rank": 47869,
        "rank_sort": 48085,
        "total": 2353
      },
      {
        "club_badge_src": "https://fantasy.premierleague.com/gcs/plfpl-production-adobe-approved/plfpl-production/4064731/80bacd5d-81f7-47d8-9a68-e725016c8e9d.png",
        "entry": 4064731,
        "entry_name": "London Calling",
        "event_total": 73,
        "has_played": true,
        "id": 30675980,
        "last_rank": 77258,
        "player_name": "John Edwards",
        "rank": 47869,
        "rank_sort": 48086,
        "total": 2353
      },
      {
        "club_badge_src": null,
        "entry": 4115185,
        "entry_name": "MonkeyTennis",
        "event_total": 47,
        "has_played": true,
        "id": 31085626,
        "last_rank": 35166,
        "player_name": "Colin Wicks",
        "rank": 47869,
        "rank_sort": 48087,
        "total": 2353
      },
      {
        "club_badge_src": null,
        "entry": 4178420,
        "entry_name": "livergirls",
        "event_total": 82,
        "has_played": true,
        "id": 31607810,
        "last_rank": 98073,
        "player_name": "Chantal Sanyuy",
        "rank": 47869,
        "rank_sort": 48088,
        "total": 2353
      },
      {
        "club_badge_src": null,
        "entry": 4281405,
        "entry_name": "FK Handnes\u00f8ya",
        "event_total": 56,
        "has_played": true,
        "id": 32471485,
        "last_rank": 46839,
        "player_name": "J\u00f8rn Strandheim",
        "rank": 47869,
        "rank_sort": 48089,
        "total": 2353
      },
      {
        "club_badge_src": null,
        "entry": 4290483,
        "entry_name": "Kyles Embarasing Dad",
        "event_total": 56,
        "has_played": true,
        "id": 32544905,
        "last_rank": 46839,
        "player_name": "Michael Hanley",
        "rank": 47869,
        "rank_sort": 48090,
        "total": 2353
      },
      {
        "club_badge_src": null,
        "entry": 4333706,
        "entry_name": "Wirtz nightmare",
        "event_total": 62,
        "has_played": true,
        "id": 32900840,
        "last_rank": 56369,
        "player_name": "James Pollock",
        "rank": 47869,
        "rank_sort": 48091,
        "total": 2353
      },
      {
        "club_badge_src": "https://fantasy.premierleague.com/gcs/plfpl-production-adobe-approved/plfpl-production/4362134/6778bf30-17a4-40ea-ad2b-b8ea12d167d3.png",
        "entry": 4362134,
        "entry_name": "Left Coast Loonies",
        "event_total": 29,
        "has_played": true,
        "id": 33131970,
        "last_rank": 18790,
        "player_name": "Nick Johnson",
        "rank": 47869,
        "rank_sort": 48092,
        "total": 2353
      },
      {
        "club_badge_src": null,
        "entry": 4380941,
        "entry_name": "Bowen Arrow",
        "event_total": 56,
        "has_played": true,
        "id": 33292715,
        "last_rank": 46839,
        "player_name": "Joe Steggle",
        "rank": 47869,
        "rank_sort": 48093,
        "total": 2353
      },
      {
        "club_badge_src": null,
        "entry": 4390172,
        "entry_name": "Bayern Bru",
        "event_total": 36,
        "has_played": true,
        "id": 33373305,
        "last_rank": 24143,
        "player_name": "Tony Stanton",
        "rank": 47869,
        "rank_sort": 48094,
        "total": 2353
      },
      {
        "club_badge_src": null,
        "entry": 4417587,
        "entry_name": "Ctrl Alt De Ligt",
        "event_total": 60,
        "has_played": true,
        "id": 33609162,
        "last_rank": 53023,
        "player_name": "Calvin Tyson",
        "rank": 47869,
        "rank_sort": 48095,
        "total": 2353
      },
      {
        "club_badge_src": "https://fantasy.premierleague.com/gcs/plfpl-production-adobe-approved/plfpl-production/4437684/c2f63038-8db4-4f67-8870-cf77f809c7d1.png",
        "entry": 4437684,
        "entry_name": "Whales***",
        "event_total": 60,
        "has_played": true,
        "id": 33789755,
        "last_rank": 53023,
        "player_name": "Matthew Whale",
        "rank": 47869,
        "rank_sort": 48096,
        "total": 2353
      },
      {
        "club_badge_src": null,
        "entry": 4443450,
        "entry_name": "Hunt's Heroes",
        "event_total": 60,
        "has_played": true,
        "id": 33837786,
        "last_rank": 52759,
        "player_name": "Chris Hunt",
        "rank": 47869,
        "rank_sort": 48097,
        "total": 2353
      },
      {
        "club_badge_src": null,
        "entry": 4535280,
        "entry_name": "Rib Rovers",
        "event_total": 66,
        "has_played": true,
        "id": 34597122,
        "last_rank": 63201,
        "player_name": "Michael Doyle",
        "rank": 47869,
        "rank_sort": 48098,
        "total": 2353
      },
      {
        "club_badge_src": "https://fantasy.premierleague.com/gcs/plfpl-production-adobe-approved/plfpl-production/4644586/b7f9d71a-140b-44e1-995b-ebfd7d701ed3.png",
        "entry": 4644586,
        "entry_name": "Y-Men",
        "event_total": 58,
        "has_played": true,
        "id": 35528132,
        "last_rank": 49880,
        "player_name": "yigit baspinar",
        "rank": 47869,
        "rank_sort": 48099,
        "total": 2353
      },
      {
        "club_badge_src": null,
        "entry": 4743411,
        "entry_name": "Probably peaked",
        "event_total": 51,
        "has_played": true,
        "id": 36498064,
        "last_rank": 39874,
        "player_name": "Sean Lough",
        "rank": 47869,
        "rank_sort": 48100,
        "total": 2353
      }
    ]
  }
}