{
  "last_updated_data": "2026-05-24T23:28:17Z",
  "league": {
    "admin_entry": null,
    "closed": false,
    "code_privacy": "p",
    "created": "2025-07-20T23:14:33.933835Z",
    "cup_league": 2815434,
    "has_cup": true,
    "id": 314,
    "league_type": "s",
    "max_entries": null,
    "name": "Overall",
    "rank": null,
    "scoring": "c",
    "start_event": 1
  },
  "new_entries": {
    "has_next": false,
    "page": 1,
    "results": []
  },
  "standings": {
    "has_next": true,
    "page": 983,
    "results": [
      {
        "club_badge_src": null,
        "entry": 3266401,
        "entry_name": "top",
        "event_total": 51,
        "has_played": true,
        "id": 24171164,
        "last_rank": 40923,
        "player_name": "Jamal Alkandri",
        "rank": 49075,
        "rank_sort": 49101,
        "total": 2353
      },
      {
        "club_badge_src": null,
        "entry": 3405024,
        "entry_name": "Life of Bryan",
        "event_total": 67,
        "has_played": true,
        "id": 25285040,
        "last_rank": 59249,
        "player_name": "Adam Pollard",
        "rank": 49075,
        "rank_sort": 49102,
        "total": 2353
      },
      {
        "club_badge_src": null,
        "entry": 3540781,
        "entry_name": "hossam elsaw",
        "event_total": 59,
        "has_played": true,
        "id": 26356273,
        "last_rank": 46313,
        "player_name": "Hossam Elsaw",
        "rank": 49075,
        "rank_sort": 49103,
        "total": 2353
      },
      {
        "club_badge_src": "https://fantasy.premierleague.com/gcs/plfpl-production-adobe-approved/plfpl-production/3724362/75a9283c-2eb9-4b13-abdc-063eeee459db.png",
        "entry": 3724362,
        "entry_name": "Sanguijuelas  Rojas",
        "event_total": 57,
        "has_played": true,
        "id": 27795406,
        "last_rank": 43570,
        "player_name": "Dani Munoz",
        "rank": 49075,
        "rank_sort": 49104,
        "total": 2353
      },
      {
        "club_badge_src": null,
        "entry": 3896465,
        "entry_name": "Nameless shameless",
        "event_total": 39,
        "has_played": true,
        "id": 29285840,
        "last_rank": 27480,
        "player_name": "Z Alam",
        "rank": 49075,
        "rank_sort": 49105,
        "total": 2353
      },
      {
        "club_badge_src": null,
        "entry": 4078695,
        "entry_name": "Regazzo FC",
        "event_total": 58,
        "has_played": true,
        "id": 30789165,
        "last_rank": 50984,
        "player_name": "Ryan Richards",
        "rank": 49075,
        "rank_sort": 49106,
        "total": 2353
      },
      {
        "club_badge_src": null,
        "entry": 4127549,
        "entry_name": "Humberside",
        "event_total": 68,
        "has_played": true,
        "id": 31189414,
        "last_rank": 68351,
        "player_name": "Nicholas Tennant",
        "rank": 49075,
        "rank_sort": 49107,
        "total": 2353
      },
      {
        "club_badge_src": null,
        "entry": 4380360,
        "entry_name": "lacasa",
        "event_total": 46,
        "has_played": true,
        "id": 33287604,
        "last_rank": 34849,
        "player_name": "Sayf Ahmed",
        "rank": 49075,
        "rank_sort": 49108,
        "total": 2353
      },
      {
        "club_badge_src": null,
        "entry": 4780392,
        "entry_name": "TAHA",
        "event_total": 71,
        "has_played": true,
        "id": 36799353,
        "last_rank": 74474,
        "player_name": "Mahmoud Taha",
        "rank": 49075,
        "rank_sort": 49109,
        "total": 2353
      },
      {
        "club_badge_src": null,
        "entry": 4781327,
        "entry_name": "Campbells Coblers",
        "event_total": 73,
        "has_played": true,
        "id": 36807340,
        "last_rank": 55659,
        "player_name": "Scott Campbell",
        "rank": 49075,
        "rank_sort": 49110,
        "total": 2353
      },
      {
        "club_badge_src": null,
        "entry": 4973734,
        "entry_name": "Gentlemen of Leisure",
        "event_total": 59,
        "has_played": true,
        "id": 38391831,
        "last_rank": 52522,
        "player_name": "Guy McCrea",
        "rank": 49075,
        "rank_sort": 49111,
        "total": 2353
      },
      {
        "club_badge_src": null,
        "entry": 5031426,
        "entry_name": "MR",
        "event_total": 82,
        "has_played": true,
        "id": 38861043,
        "last_rank": 80651,
        "player_name": "Mohammed Alateeq",
        "rank": 49075,
        "rank_sort": 49112,
        "total": 2353
      },
      {
        "club_badge_src": null,
        "entry": 5142559,
        "entry_name": "SK Slavoj Houslice",
        "event_total": 42,
        "has_played": true,
        "id": 39781432,
        "last_rank": 30361,
        "player_name": "Ji\u0159\u00ed Dennda",
        "rank": 49075,
        "rank_sort": 49113,
        "total": 2353
      },
      {
        "club_badge_src": null,
        "entry": 7869248,
        "entry_name": "Limnatis FC",
        "event_total": 54,
        "has_played": true,
        "id": 64706942,
        "last_rank": 44982,
        "player_name": "Marios Limnatitis",
        "rank": 49075,
        "rank_sort": 49114,
        "total": 2353
      },
      {
        "club_badge_src": null,
        "entry": 8264596,
        "entry_name": "Kenny Powers T'N'T",
        "event_total": 65,
        "has_played": true,
        "id": 68362493,
        "last_rank": 49301,
        "player_name": "Mark Twigg",
        "rank": 49075,
        "rank_sort": 49115,
        "total": 2353
      },
      {
        "club_badge_src": null,
        "entry": 8703055,
        "entry_name": "Change Name",
        "event_total": 53,
        "has_played": true,
        "id": 72608518,
        "last_rank": 38391,
        "player_name": "Abbas Amin",
        "rank": 49075,
        "rank_sort": 49116,
        "total": 2353
      },
      {
        "club_badge_src": null,
        "entry": 2015,
        "entry_name": "RRB",
        "event_total": 66,
        "has_played": true,
        "id": 11242,
        "last_rank": 57451,
        "player_name": "Lee Chapman",
        "rank": 49117,
        "rank_sort": 49117,
        "total": 2353
      },
      {
        "club_badge_src": null,
        "entry": 3797,
        "entry_name": "\u4f5c\u4e1a\u501f\u6211\u6284\u4e00\u4e0b",
        "event_total": 59,
        "has_played": true,
        "id": 21529,
        "last_rank": 46406,
        "player_name": "\u624e\u5361 \u53cd\u9ed1\u5c0f\u7ec4",
        "rank": 49117,
        "rank_sort": 49118,
        "total": 2353
      },
      {
        "club_badge_src": null,
        "entry": 14905,
        "entry_name": "BaDRiCo",
        "event_total": 66,
        "has_played": true,
        "id": 90995,
        "last_rank": 64562,
        "player_name": "Badr Asri",
        "rank": 49117,
        "rank_sort": 49119,
        "total": 2353
      },
      {
        "club_badge_src": "https://fantasy.premierleague.com/gcs/plfpl-production-adobe-approved/plfpl-production/63593/47e65ccd-828d-43c8-97aa-55f20e5c939c.png",
        "entry": 63593,
        "entry_name": "Red Shifters",
        "event_total": 65,
        "has_played": true,
        "id": 410356,
        "last_rank": 55865,
        "player_name": "Colin Greenwood",
        "rank": 49117,
        "rank_sort": 49120,
        "total": 2353
      },
      {
        "club_badge_src": "https://fantasy.premierleague.com/gcs/plfpl-production-adobe-approved/plfpl-production/149235/6da0a799-f684-4284-a085-60199516f578.png",
        "entry": 149235,
        "entry_name": "Mumi",
        "event_total": 76,
        "has_played": true,
        "id": 978423,
        "last_rank": 85624,
        "player_name": "martin munene",
        "rank": 49117,
        "rank_sort": 49121,
        "total": 2353
      },
      {
        "club_badge_src": null,
        "entry": 292574,
        "entry_name": "\u0627\u0644\u063a\u0644\u0627\u0628\u0647 FC",
        "event_total": 68,
        "has_played": true,
        "id": 1952322,
        "last_rank": 68351,
        "player_name": "Ahmed Gamil",
        "rank": 49117,
        "rank_sort": 49122,
        "total": 2353
      },
      {
        "club_badge_src": null,
        "entry": 322722,
        "entry_name": "Generic Team Pun",
        "event_total": 55,
        "has_played": true,
        "id": 2162604,
        "last_rank": 40923,
        "player_name": "Damon de Rees",
        "rank": 49117,
        "rank_sort": 49123,
        "total": 2353
      },
      {
        "club_badge_src": null,
        "entry": 564334,
        "entry_name": "Maryhill Murderers",
        "event_total": 62,
        "has_played": true,
        "id": 3798554,
        "last_rank": 57596,
        "player_name": "Jamie Redmond",
        "rank": 49117,
        "rank_sort": 49124,
        "total": 2353
      },
      {
        "club_badge_src": null,
        "entry": 597655,
        "entry_name": "TB FC",
        "event_total": 75,
        "has_played": true,
        "id": 4030411,
        "last_rank": 74474,
        "player_name": "Tim Baildam",
        "rank": 49117,
        "rank_sort": 49125,
        "total": 2353
      },
      {
        "club_badge_src": "https://fantasy.premierleague.com/gcs/plfpl-production-adobe-approved/plfpl-production/644617/1e1e09ed-d9b4-4639-9de9-102b7cfcbc66.png",
        "entry": 644617,
        "entry_name": "Maguire's Firm head",
        "event_total": 65,
        "has_played": true,
        "id": 4356300,
        "last_rank": 62874,
        "player_name": "Matthew Du Plessis",
        "rank": 49117,
        "rank_sort": 49126,
        "total": 2353
      },
      {
        "club_badge_src": null,
        "entry": 814123,
        "entry_name": "Reece's Pieces",
        "event_total": 48,
        "has_played": true,
        "id": 5574883,
        "last_rank": 37236,
        "player_name": "Stefan Titus-Glover",
        "rank": 49117,
        "rank_sort": 49127,
        "total": 2353
      },
      {
        "club_badge_src": null,
        "entry": 866760,
        "entry_name": "AshOnU",
        "event_total": 66,
        "has_played": true,
        "id": 5942279,
        "last_rank": 64508,
        "player_name": "Ashour Ashour",
        "rank": 49117,
        "rank_sort": 49128,
        "total": 2353
      },
      {
        "club_badge_src": null,
        "entry": 1584851,
        "entry_name": "\u0627\u0628\u0648 \u0641\u0644\u0627\u062d",
        "event_total": 52,
        "has_played": true,
        "id": 11078766,
        "last_rank": 37211,
        "player_name": "Abdullah Dehane",
        "rank": 49117,
        "rank_sort": 49129,
        "total": 2353
      },
      {
        "club_badge_src": null,
        "entry": 1605142,
        "entry_name": "Ctrl+Alt+De Ligt",
        "event_total": 66,
        "has_played": true,
        "id": 11229832,
        "last_rank": 57557,
        "player_name": "Jeff Kerton",
        "rank": 49117,
        "rank_sort": 49130,
        "total": 2353
      },
      {
        "club_badge_src": null,
        "entry": 1750154,
        "entry_name": "Coming Pharoah",
        "event_total": 89,
        "has_played": true,
        "id": 12282144,
        "last_rank": 119491,
        "player_name": "Mohamed Khalaf",
        "rank": 49117,
        "rank_sort": 49131,
        "total": 2353
      },
      {
        "club_badge_src": "https://fantasy.premierleague.com/gcs/plfpl-production-adobe-approved/plfpl-production/2151338/02948fa8-ee79-41f0-8e92-def3b04a28b0.png",
        "entry": 2151338,
        "entry_name": "Change Name",
        "event_total": 64,
        "has_played": true,
        "id": 15291767,
        "last_rank": 61045,
        "player_name": "armando paz",
        "rank": 49117,
        "rank_sort": 49132,
        "total": 2353
      },
      {
        "club_badge_src": "https://fantasy.premierleague.com/gcs/plfpl-production-adobe-approved/plfpl-production/2170896/903ab361-5181-4367-b272-470d50e6b0db.png",
        "entry": 2170896,
        "entry_name": "Szocska 4.0",
        "event_total": 66,
        "has_played": true,
        "id": 15435637,
        "last_rank": 64562,
        "player_name": "J\u00e1nos Baksa",
        "rank": 49117,
        "rank_sort": 49133,
        "total": 2353
      },
      {
        "club_badge_src": null,
        "entry": 2259150,
        "entry_name": "kader",
        "event_total": 53,
        "has_played": true,
        "id": 16105077,
        "last_rank": 43637,
        "player_name": "larbi rezig abdelkader",
        "rank": 49117,
        "rank_sort": 49134,
        "total": 2353
      },
      {
        "club_badge_src": null,
        "entry": 2525343,
        "entry_name": "Ravage\u2694\ufe0f",
        "event_total": 57,
        "has_played": true,
        "id": 18095505,
        "last_rank": 43607,
        "player_name": "\ud83d\udc51\ud835\udd6f\ud835\udd86\ud835\udd97\ud835\udd90 \ud835\udd71\ud835\udd86\ud835\udd93\ud835\udd8c \u26a1\u26a1",
        "rank": 49117,
        "rank_sort": 49135,
        "total": 2353
      },
      {
        "club_badge_src": null,
        "entry": 2546274,
        "entry_name": "Messinho Impossible",
        "event_total": 59,
        "has_played": true,
        "id": 18251115,
        "last_rank": 46364,
        "player_name": "Michael Paul",
        "rank": 49117,
        "rank_sort": 49136,
        "total": 2353
      },
      {
        "club_badge_src": null,
        "entry": 2725458,
        "entry_name": "Shahar",
        "event_total": 66,
        "has_played": true,
        "id": 19612399,
        "last_rank": 50905,
        "player_name": "Shahar Brukner",
        "rank": 49117,
        "rank_sort": 49137,
        "total": 2353
      },
      {
        "club_badge_src": null,
        "entry": 3158426,
        "entry_name": "smithy,s supreme",
        "event_total": 68,
        "has_played": true,
        "id": 23329640,
        "last_rank": 68351,
        "player_name": "Ben Smithy",
        "rank": 49117,
        "rank_sort": 49138,
        "total": 2353
      },
      {
        "club_badge_src": null,
        "entry": 3459324,
        "entry_name": "Midtable  Galacticos",
        "event_total": 70,
        "has_played": true,
        "id": 25713115,
        "last_rank": 64562,
        "player_name": "Jacek Stolarek",
        "rank": 49117,
        "rank_sort": 49139,
        "total": 2353
      },
      {
        "club_badge_src": null,
        "entry": 4576931,
        "entry_name": "Moaz haj 2014",
        "event_total": 72,
        "has_played": true,
        "id": 34936618,
        "last_rank": 68294,
        "player_name": "Moaz Alhaj",
        "rank": 49117,
        "rank_sort": 49140,
        "total": 2353
      },
      {
        "club_badge_src": null,
        "entry": 6637861,
        "entry_name": "Irabz FC",
        "event_total": 61,
        "has_played": true,
        "id": 53057546,
        "last_rank": 55747,
        "player_name": "Navis Irabor",
        "rank": 49117,
        "rank_sort": 49141,
        "total": 2353
      },
      {
        "club_badge_src": null,
        "entry": 6736037,
        "entry_name": "\u0627\u0644\u0641\u062e\u0627\u064a\u062f\u0629",
        "event_total": 57,
        "has_played": true,
        "id": 53918059,
        "last_rank": 49463,
        "player_name": "Akram Tarak",
        "rank": 49117,
        "rank_sort": 49142,
        "total": 2353
      },
      {
        "club_badge_src": null,
        "entry": 7638538,
        "entry_name": "Kinder Mbeumo",
        "event_total": 51,
        "has_played": true,
        "id": 62612720,
        "last_rank": 40959,
        "player_name": "Ravinder Harish",
        "rank": 49117,
        "rank_sort": 49143,
        "total": 2353
      },
      {
        "club_badge_src": null,
        "entry": 9288105,
        "entry_name": "Slot them for Klopp",
        "event_total": 65,
        "has_played": true,
        "id": 78295125,
        "last_rank": 55865,
        "player_name": "Eoin Curran",
        "rank": 49117,
        "rank_sort": 49144,
        "total": 2353
      },
      {
        "club_badge_src": null,
        "entry": 134133,
        "entry_name": "Z\u00e9 Gota United",
        "event_total": 67,
        "has_played": true,
        "id": 873599,
        "last_rank": 66518,
        "player_name": "David Faria",
        "rank": 49145,
        "rank_sort": 49145,
        "total": 2353
      },
      {
        "club_badge_src": "https://fantasy.premierleague.com/gcs/plfpl-production-adobe-approved/plfpl-production/361539/b688faa2-30da-4d6b-8c89-f45f7fd37245.png",
        "entry": 361539,
        "entry_name": "Eze Come Eze Go",
        "event_total": 50,
        "has_played": true,
        "id": 2419106,
        "last_rank": 39716,
        "player_name": "Sergio Pretorius",
        "rank": 49145,
        "rank_sort": 49146,
        "total": 2353
      },
      {
        "club_badge_src": null,
        "entry": 480227,
        "entry_name": "Szpagaciarze",
        "event_total": 70,
        "has_played": true,
        "id": 3224153,
        "last_rank": 72495,
        "player_name": "Tomasz Sowa",
        "rank": 49145,
        "rank_sort": 49147,
        "total": 2353
      },
      {
        "club_badge_src": null,
        "entry": 690449,
        "entry_name": "Mamba XI",
        "event_total": 55,
        "has_played": true,
        "id": 4675166,
        "last_rank": 40959,
        "player_name": "Musa Musa",
        "rank": 49145,
        "rank_sort": 49148,
        "total": 2353
      },
      {
        "club_badge_src": "https://fantasy.premierleague.com/gcs/plfpl-production-adobe-approved/plfpl-production/812399/2e58ad9a-538a-4e73-873b-81acd960ca14.png",
        "entry": 812399,
        "entry_name": "Hun Sen Naa Hee",
        "event_total": 65,
        "has_played": true,
        "id": 5562454,
        "last_rank": 55902,
        "player_name": "Watcharaphong Saithong",
        "rank": 49145,
        "rank_sort": 49149,
        "total": 2353
      },
      {
        "club_badge_src": null,
        "entry": 1502940,
        "entry_name": "DIVITA FC",
        "event_total": 67,
        "has_played": true,
        "id": 10481540,
        "last_rank": 66518,
        "player_name": "RAS Real African Seed",
        "rank": 49145,
        "rank_sort": 49150,
        "total": 2353
      }
    ]
  }
}