{
  "last_updated_data": "2026-05-24T23:28:17Z",
  "league": {
    "admin_entry": null,
    "closed": false,
    "code_privacy": "p",
    "created": "2025-07-20T23:14:33.933835Z",
    "cup_league": 2815434,
    "has_cup": true,
    "id": 314,
    "league_type": "s",
    "max_entries": null,
    "name": "Overall",
    "rank": null,
    "scoring": "c",
    "start_event": 1
  },
  "new_entries": {
    "has_next": false,
    "page": 1,
    "results": []
  },
  "standings": {
    "has_next": true,
    "page": 974,
    "results": [
      {
        "club_badge_src": null,
        "entry": 7209491,
        "entry_name": "Zezo Hany",
        "event_total": 63,
        "has_played": true,
        "id": 58222763,
        "last_rank": 51720,
        "player_name": "zezo Hany",
        "rank": 48456,
        "rank_sort": 48651,
        "total": 2353
      },
      {
        "club_badge_src": null,
        "entry": 7269966,
        "entry_name": "Yasser Alaswany",
        "event_total": 58,
        "has_played": true,
        "id": 58792485,
        "last_rank": 44303,
        "player_name": "yasser mohsen",
        "rank": 48456,
        "rank_sort": 48652,
        "total": 2353
      },
      {
        "club_badge_src": null,
        "entry": 7340665,
        "entry_name": "No More Mr Rice Kai",
        "event_total": 47,
        "has_played": true,
        "id": 59458193,
        "last_rank": 35619,
        "player_name": "Karen Goode",
        "rank": 48456,
        "rank_sort": 48653,
        "total": 2353
      },
      {
        "club_badge_src": null,
        "entry": 7510672,
        "entry_name": "Khan't stop the Rams",
        "event_total": 75,
        "has_played": true,
        "id": 61405620,
        "last_rank": 82664,
        "player_name": "Nadeem Khan",
        "rank": 48456,
        "rank_sort": 48654,
        "total": 2353
      },
      {
        "club_badge_src": null,
        "entry": 7720707,
        "entry_name": "Saka Saka, eh eh",
        "event_total": 67,
        "has_played": true,
        "id": 63357534,
        "last_rank": 65796,
        "player_name": "Monica Maher",
        "rank": 48456,
        "rank_sort": 48655,
        "total": 2353
      },
      {
        "club_badge_src": null,
        "entry": 7741399,
        "entry_name": "Shaw & Order",
        "event_total": 60,
        "has_played": true,
        "id": 63543557,
        "last_rank": 53837,
        "player_name": "Niall Cooke",
        "rank": 48456,
        "rank_sort": 48656,
        "total": 2353
      },
      {
        "club_badge_src": null,
        "entry": 7800667,
        "entry_name": "Frimpong ping pong",
        "event_total": 56,
        "has_played": true,
        "id": 64079201,
        "last_rank": 46839,
        "player_name": "Dominic Choi",
        "rank": 48456,
        "rank_sort": 48657,
        "total": 2353
      },
      {
        "club_badge_src": null,
        "entry": 7812638,
        "entry_name": "Gyok Tuah",
        "event_total": 58,
        "has_played": true,
        "id": 64187549,
        "last_rank": 50468,
        "player_name": "Frederick Parton",
        "rank": 48456,
        "rank_sort": 48658,
        "total": 2353
      },
      {
        "club_badge_src": null,
        "entry": 7840304,
        "entry_name": "eNems\ufffd",
        "event_total": 55,
        "has_played": true,
        "id": 64444099,
        "last_rank": 40297,
        "player_name": "daoudi abderrahmen",
        "rank": 48456,
        "rank_sort": 48659,
        "total": 2353
      },
      {
        "club_badge_src": null,
        "entry": 7907749,
        "entry_name": "\u0627\u0644\u0645\u062f\u0641\u0639 \u0641\u0648\u0642",
        "event_total": 61,
        "has_played": true,
        "id": 65056974,
        "last_rank": 55311,
        "player_name": "eslam gebril",
        "rank": 48456,
        "rank_sort": 48660,
        "total": 2353
      },
      {
        "club_badge_src": null,
        "entry": 7977000,
        "entry_name": "Pints With Grealish",
        "event_total": 59,
        "has_played": true,
        "id": 65680635,
        "last_rank": 51984,
        "player_name": "Mikey Irvin",
        "rank": 48456,
        "rank_sort": 48661,
        "total": 2353
      },
      {
        "club_badge_src": null,
        "entry": 8156188,
        "entry_name": "Class of 25!",
        "event_total": 61,
        "has_played": true,
        "id": 67326214,
        "last_rank": 55014,
        "player_name": "Akshay Tandon",
        "rank": 48456,
        "rank_sort": 48662,
        "total": 2353
      },
      {
        "club_badge_src": null,
        "entry": 8199718,
        "entry_name": "AJmademedoitagain FC",
        "event_total": 37,
        "has_played": true,
        "id": 67737964,
        "last_rank": 25330,
        "player_name": "Steve Wallage",
        "rank": 48456,
        "rank_sort": 48663,
        "total": 2353
      },
      {
        "club_badge_src": null,
        "entry": 8841942,
        "entry_name": "Alshmasaa \u26bd",
        "event_total": 43,
        "has_played": true,
        "id": 73948592,
        "last_rank": 31125,
        "player_name": "Salih Abdelrhman",
        "rank": 48456,
        "rank_sort": 48664,
        "total": 2353
      },
      {
        "club_badge_src": null,
        "entry": 8877879,
        "entry_name": "Caulchester United",
        "event_total": 62,
        "has_played": true,
        "id": 74294561,
        "last_rank": 57001,
        "player_name": "McCauley Moore",
        "rank": 48456,
        "rank_sort": 48665,
        "total": 2353
      },
      {
        "club_badge_src": null,
        "entry": 9042788,
        "entry_name": "Ishak  cityzans",
        "event_total": 44,
        "has_played": true,
        "id": 75894803,
        "last_rank": 27976,
        "player_name": "DjeLLaL isHaK",
        "rank": 48456,
        "rank_sort": 48666,
        "total": 2353
      },
      {
        "club_badge_src": null,
        "entry": 9169485,
        "entry_name": "Kroos Control",
        "event_total": 59,
        "has_played": true,
        "id": 77132144,
        "last_rank": 51403,
        "player_name": "Adam Key",
        "rank": 48456,
        "rank_sort": 48667,
        "total": 2353
      },
      {
        "club_badge_src": null,
        "entry": 9442778,
        "entry_name": "ABDUL MALIK",
        "event_total": 74,
        "has_played": true,
        "id": 79781432,
        "last_rank": 71386,
        "player_name": "3bdo Al-Harbi",
        "rank": 48456,
        "rank_sort": 48668,
        "total": 2353
      },
      {
        "club_badge_src": null,
        "entry": 2828,
        "entry_name": "Under my Cucurella",
        "event_total": 57,
        "has_played": true,
        "id": 15902,
        "last_rank": 37822,
        "player_name": "Niall McTaggart",
        "rank": 48669,
        "rank_sort": 48669,
        "total": 2353
      },
      {
        "club_badge_src": null,
        "entry": 2951,
        "entry_name": "Jinx",
        "event_total": 57,
        "has_played": true,
        "id": 16623,
        "last_rank": 48642,
        "player_name": "Max Harvey",
        "rank": 48669,
        "rank_sort": 48670,
        "total": 2353
      },
      {
        "club_badge_src": null,
        "entry": 9875,
        "entry_name": "Sonny PandaSon",
        "event_total": 65,
        "has_played": true,
        "id": 58231,
        "last_rank": 62429,
        "player_name": "Marius Chetty",
        "rank": 48669,
        "rank_sort": 48671,
        "total": 2353
      },
      {
        "club_badge_src": null,
        "entry": 11468,
        "entry_name": "Nathan Akey",
        "event_total": 42,
        "has_played": true,
        "id": 68188,
        "last_rank": 30191,
        "player_name": "Tom Akehurst",
        "rank": 48669,
        "rank_sort": 48672,
        "total": 2353
      },
      {
        "club_badge_src": null,
        "entry": 11792,
        "entry_name": "FPL Donna",
        "event_total": 70,
        "has_played": true,
        "id": 70249,
        "last_rank": 71713,
        "player_name": "Donna A",
        "rank": 48669,
        "rank_sort": 48673,
        "total": 2353
      },
      {
        "club_badge_src": null,
        "entry": 13956,
        "entry_name": "Katastrofe",
        "event_total": 58,
        "has_played": true,
        "id": 84536,
        "last_rank": 44525,
        "player_name": "Rune Risanger",
        "rank": 48669,
        "rank_sort": 48674,
        "total": 2353
      },
      {
        "club_badge_src": null,
        "entry": 18386,
        "entry_name": "\ufffd\ufe0f\ufffd\ufe0fAC Dasta\ufffd\ufe0f\ufffd\ufe0f",
        "event_total": 56,
        "has_played": true,
        "id": 114363,
        "last_rank": 41824,
        "player_name": "Roy Fogel",
        "rank": 48669,
        "rank_sort": 48675,
        "total": 2353
      },
      {
        "club_badge_src": null,
        "entry": 20203,
        "entry_name": "Guston pojat",
        "event_total": 54,
        "has_played": true,
        "id": 125833,
        "last_rank": 44672,
        "player_name": "Roope Kortelainen",
        "rank": 48669,
        "rank_sort": 48676,
        "total": 2353
      },
      {
        "club_badge_src": null,
        "entry": 21439,
        "entry_name": "Totally Hammered",
        "event_total": 60,
        "has_played": true,
        "id": 134407,
        "last_rank": 47163,
        "player_name": "Jon Day",
        "rank": 48669,
        "rank_sort": 48677,
        "total": 2353
      },
      {
        "club_badge_src": null,
        "entry": 25123,
        "entry_name": "Steve",
        "event_total": 51,
        "has_played": true,
        "id": 158873,
        "last_rank": 40647,
        "player_name": "Steve Lambert",
        "rank": 48669,
        "rank_sort": 48678,
        "total": 2353
      },
      {
        "club_badge_src": "https://fantasy.premierleague.com/gcs/plfpl-production-adobe-approved/plfpl-production/30571/d9fa07f9-0208-48eb-a62a-97e7990edc48.png",
        "entry": 30571,
        "entry_name": "Kioskv\u00e4ltarna CF",
        "event_total": 64,
        "has_played": true,
        "id": 193466,
        "last_rank": 53621,
        "player_name": "Viktor Sandberg",
        "rank": 48669,
        "rank_sort": 48679,
        "total": 2353
      },
      {
        "club_badge_src": null,
        "entry": 38802,
        "entry_name": "Jam on Jones",
        "event_total": 53,
        "has_played": true,
        "id": 248743,
        "last_rank": 33147,
        "player_name": "Zac Kinahan",
        "rank": 48669,
        "rank_sort": 48680,
        "total": 2353
      },
      {
        "club_badge_src": null,
        "entry": 43460,
        "entry_name": "Sarai",
        "event_total": 65,
        "has_played": true,
        "id": 278334,
        "last_rank": 48363,
        "player_name": "Stephen Sarai",
        "rank": 48669,
        "rank_sort": 48681,
        "total": 2353
      },
      {
        "club_badge_src": null,
        "entry": 43977,
        "entry_name": "Kupolens Kvistvakter",
        "event_total": 62,
        "has_played": true,
        "id": 281739,
        "last_rank": 57200,
        "player_name": "Jakob Tunved",
        "rank": 48669,
        "rank_sort": 48682,
        "total": 2353
      },
      {
        "club_badge_src": null,
        "entry": 71994,
        "entry_name": "Dutch Warriors",
        "event_total": 59,
        "has_played": true,
        "id": 467744,
        "last_rank": 51984,
        "player_name": "Gert-Jan van Poppel",
        "rank": 48669,
        "rank_sort": 48683,
        "total": 2353
      },
      {
        "club_badge_src": null,
        "entry": 98387,
        "entry_name": "Team FC",
        "event_total": 75,
        "has_played": true,
        "id": 642468,
        "last_rank": 73038,
        "player_name": "Justin Scheu",
        "rank": 48669,
        "rank_sort": 48684,
        "total": 2353
      },
      {
        "club_badge_src": null,
        "entry": 98406,
        "entry_name": "Lucky Farke",
        "event_total": 70,
        "has_played": true,
        "id": 642591,
        "last_rank": 64005,
        "player_name": "Jason Austin",
        "rank": 48669,
        "rank_sort": 48685,
        "total": 2353
      },
      {
        "club_badge_src": null,
        "entry": 99932,
        "entry_name": "The Sanchosen One",
        "event_total": 45,
        "has_played": true,
        "id": 652281,
        "last_rank": 33483,
        "player_name": "Ayman Adam",
        "rank": 48669,
        "rank_sort": 48686,
        "total": 2353
      },
      {
        "club_badge_src": "https://fantasy.premierleague.com/gcs/plfpl-production-adobe-approved/plfpl-production/118671/a6c28f63-39c1-4ced-8caa-6b963c9fc185.png",
        "entry": 118671,
        "entry_name": "ABMH",
        "event_total": 57,
        "has_played": true,
        "id": 774443,
        "last_rank": 43168,
        "player_name": "Kassem Hariri",
        "rank": 48669,
        "rank_sort": 48687,
        "total": 2353
      },
      {
        "club_badge_src": "https://fantasy.premierleague.com/gcs/plfpl-production-adobe-approved/plfpl-production/129063/8c7fcc4a-c8b5-461a-a302-3fbd3589c43b.png",
        "entry": 129063,
        "entry_name": "Red Eagle",
        "event_total": 59,
        "has_played": true,
        "id": 841227,
        "last_rank": 52205,
        "player_name": "Tiago Costa",
        "rank": 48669,
        "rank_sort": 48688,
        "total": 2353
      },
      {
        "club_badge_src": null,
        "entry": 140886,
        "entry_name": "Cold FC",
        "event_total": 57,
        "has_played": true,
        "id": 920212,
        "last_rank": 43168,
        "player_name": "Jere Jokinen",
        "rank": 48669,
        "rank_sort": 48689,
        "total": 2353
      },
      {
        "club_badge_src": null,
        "entry": 144749,
        "entry_name": "Van de Ven Diagram",
        "event_total": 64,
        "has_played": true,
        "id": 947676,
        "last_rank": 60462,
        "player_name": "Billy Nats",
        "rank": 48669,
        "rank_sort": 48690,
        "total": 2353
      },
      {
        "club_badge_src": null,
        "entry": 182145,
        "entry_name": "SPY",
        "event_total": 56,
        "has_played": true,
        "id": 1201968,
        "last_rank": 36624,
        "player_name": "Sam Pye",
        "rank": 48669,
        "rank_sort": 48691,
        "total": 2353
      },
      {
        "club_badge_src": null,
        "entry": 198842,
        "entry_name": "Half The World (a)",
        "event_total": 68,
        "has_played": true,
        "id": 1319605,
        "last_rank": 67422,
        "player_name": "Tyler Rose",
        "rank": 48669,
        "rank_sort": 48692,
        "total": 2353
      },
      {
        "club_badge_src": "https://fantasy.premierleague.com/gcs/plfpl-production-adobe-approved/plfpl-production/203590/5aeb3676-cbba-487f-a5fa-f0332f191e53.png",
        "entry": 203590,
        "entry_name": "Murray's XI",
        "event_total": 62,
        "has_played": true,
        "id": 1352696,
        "last_rank": 57001,
        "player_name": "Sam Murray",
        "rank": 48669,
        "rank_sort": 48693,
        "total": 2353
      },
      {
        "club_badge_src": null,
        "entry": 203916,
        "entry_name": "SmashIT",
        "event_total": 61,
        "has_played": true,
        "id": 1355006,
        "last_rank": 55311,
        "player_name": "Kushal Murarka",
        "rank": 48669,
        "rank_sort": 48694,
        "total": 2353
      },
      {
        "club_badge_src": null,
        "entry": 221321,
        "entry_name": "Silva Lining",
        "event_total": 59,
        "has_played": true,
        "id": 1471989,
        "last_rank": 45927,
        "player_name": "Scott Harkins",
        "rank": 48669,
        "rank_sort": 48695,
        "total": 2353
      },
      {
        "club_badge_src": null,
        "entry": 228045,
        "entry_name": "What's The Mateta",
        "event_total": 53,
        "has_played": true,
        "id": 1516908,
        "last_rank": 43342,
        "player_name": "Ola Ramoni",
        "rank": 48669,
        "rank_sort": 48696,
        "total": 2353
      },
      {
        "club_badge_src": null,
        "entry": 244097,
        "entry_name": "Wygrywy",
        "event_total": 62,
        "has_played": true,
        "id": 1625218,
        "last_rank": 57001,
        "player_name": "Lukasz Makuch",
        "rank": 48669,
        "rank_sort": 48697,
        "total": 2353
      },
      {
        "club_badge_src": null,
        "entry": 293982,
        "entry_name": "Backstreet Moyes",
        "event_total": 53,
        "has_played": true,
        "id": 1962659,
        "last_rank": 43168,
        "player_name": "Matthew Molloy",
        "rank": 48669,
        "rank_sort": 48698,
        "total": 2353
      },
      {
        "club_badge_src": null,
        "entry": 297545,
        "entry_name": "If Chins Could Kill",
        "event_total": 59,
        "has_played": true,
        "id": 1988795,
        "last_rank": 51984,
        "player_name": "Tim Warnett",
        "rank": 48669,
        "rank_sort": 48699,
        "total": 2353
      },
      {
        "club_badge_src": null,
        "entry": 307406,
        "entry_name": "Cold",
        "event_total": 66,
        "has_played": true,
        "id": 2058853,
        "last_rank": 57001,
        "player_name": "Ryan K",
        "rank": 48669,
        "rank_sort": 48700,
        "total": 2353
      }
    ]
  }
}