{
  "last_updated_data": "2026-05-24T23:28:17Z",
  "league": {
    "admin_entry": null,
    "closed": false,
    "code_privacy": "p",
    "created": "2025-07-20T23:14:33.933835Z",
    "cup_league": 2815434,
    "has_cup": true,
    "id": 314,
    "league_type": "s",
    "max_entries": null,
    "name": "Overall",
    "rank": null,
    "scoring": "c",
    "start_event": 1
  },
  "new_entries": {
    "has_next": false,
    "page": 1,
    "results": []
  },
  "standings": {
    "has_next": true,
    "page": 885,
    "results": [
      {
        "club_badge_src": null,
        "entry": 7599553,
        "entry_name": "Dinara",
        "event_total": 75,
        "has_played": true,
        "id": 62260934,
        "last_rank": 75139,
        "player_name": "Sa\u0161a Ergi\u0107",
        "rank": 43984,
        "rank_sort": 44201,
        "total": 2356
      },
      {
        "club_badge_src": null,
        "entry": 7727853,
        "entry_name": "Nitok IF",
        "event_total": 55,
        "has_played": true,
        "id": 63421932,
        "last_rank": 41617,
        "player_name": "Eren Tok",
        "rank": 43984,
        "rank_sort": 44202,
        "total": 2356
      },
      {
        "club_badge_src": null,
        "entry": 7876079,
        "entry_name": "saeid-yousef",
        "event_total": 35,
        "has_played": true,
        "id": 64768792,
        "last_rank": 20983,
        "player_name": "Saeid Yousef",
        "rank": 43984,
        "rank_sort": 44203,
        "total": 2356
      },
      {
        "club_badge_src": null,
        "entry": 7911307,
        "entry_name": "Macrodata Refiners",
        "event_total": 60,
        "has_played": true,
        "id": 65088771,
        "last_rank": 48642,
        "player_name": "Gil Lau",
        "rank": 43984,
        "rank_sort": 44204,
        "total": 2356
      },
      {
        "club_badge_src": null,
        "entry": 7919413,
        "entry_name": "Tombstone United",
        "event_total": 62,
        "has_played": true,
        "id": 65163618,
        "last_rank": 51720,
        "player_name": "Steven Taylor",
        "rank": 43984,
        "rank_sort": 44205,
        "total": 2356
      },
      {
        "club_badge_src": null,
        "entry": 7987042,
        "entry_name": "Cucumelon FC",
        "event_total": 76,
        "has_played": true,
        "id": 65768729,
        "last_rank": 68748,
        "player_name": "Jorge Vigil",
        "rank": 43984,
        "rank_sort": 44206,
        "total": 2356
      },
      {
        "club_badge_src": null,
        "entry": 8005246,
        "entry_name": "Zubimended",
        "event_total": 55,
        "has_played": true,
        "id": 65930968,
        "last_rank": 41617,
        "player_name": "W Malin",
        "rank": 43984,
        "rank_sort": 44207,
        "total": 2356
      },
      {
        "club_badge_src": null,
        "entry": 8020802,
        "entry_name": "Ngomgham F.C",
        "event_total": 63,
        "has_played": true,
        "id": 66072318,
        "last_rank": 46660,
        "player_name": "Douglas Tarh",
        "rank": 43984,
        "rank_sort": 44208,
        "total": 2356
      },
      {
        "club_badge_src": null,
        "entry": 8148955,
        "entry_name": "\u0628\u0643\u0631\u064a",
        "event_total": 87,
        "has_played": true,
        "id": 67259146,
        "last_rank": 93443,
        "player_name": "\u0628\u0643\u0627\u0627\u0627 bika",
        "rank": 43984,
        "rank_sort": 44209,
        "total": 2356
      },
      {
        "club_badge_src": null,
        "entry": 8210128,
        "entry_name": "Schei\u00dfverein",
        "event_total": 50,
        "has_played": true,
        "id": 67837293,
        "last_rank": 35166,
        "player_name": "Olzhas Askar",
        "rank": 43984,
        "rank_sort": 44210,
        "total": 2356
      },
      {
        "club_badge_src": null,
        "entry": 8507486,
        "entry_name": "Ali Barber",
        "event_total": 57,
        "has_played": true,
        "id": 70710043,
        "last_rank": 44303,
        "player_name": "Louis Barber",
        "rank": 43984,
        "rank_sort": 44211,
        "total": 2356
      },
      {
        "club_badge_src": null,
        "entry": 8581877,
        "entry_name": "M.Salah",
        "event_total": 71,
        "has_played": true,
        "id": 71423607,
        "last_rank": 67422,
        "player_name": "Mohamed Salah",
        "rank": 43984,
        "rank_sort": 44212,
        "total": 2356
      },
      {
        "club_badge_src": null,
        "entry": 8602380,
        "entry_name": "THE-GREATEST",
        "event_total": 55,
        "has_played": true,
        "id": 71620757,
        "last_rank": 41617,
        "player_name": "Thegreatest ofalltime",
        "rank": 43984,
        "rank_sort": 44213,
        "total": 2356
      },
      {
        "club_badge_src": null,
        "entry": 8737838,
        "entry_name": "Malaga Mike\u2019s FC",
        "event_total": 66,
        "has_played": true,
        "id": 72946857,
        "last_rank": 58071,
        "player_name": "Michael Renouf",
        "rank": 43984,
        "rank_sort": 44214,
        "total": 2356
      },
      {
        "club_badge_src": null,
        "entry": 9206912,
        "entry_name": "Skal bare",
        "event_total": 66,
        "has_played": true,
        "id": 77503032,
        "last_rank": 58388,
        "player_name": "Einar Hjellvik",
        "rank": 43984,
        "rank_sort": 44215,
        "total": 2356
      },
      {
        "club_badge_src": null,
        "entry": 9297513,
        "entry_name": "Barbie FC",
        "event_total": 74,
        "has_played": true,
        "id": 78386423,
        "last_rank": 65163,
        "player_name": "Dolapo Kuforiji",
        "rank": 43984,
        "rank_sort": 44216,
        "total": 2356
      },
      {
        "club_badge_src": null,
        "entry": 9468494,
        "entry_name": "Pj Harvey fc",
        "event_total": 53,
        "has_played": true,
        "id": 80018208,
        "last_rank": 39023,
        "player_name": "stephen davies",
        "rank": 43984,
        "rank_sort": 44217,
        "total": 2356
      },
      {
        "club_badge_src": null,
        "entry": 1772,
        "entry_name": "Ange Management",
        "event_total": 68,
        "has_played": true,
        "id": 9866,
        "last_rank": 55014,
        "player_name": "Ryan O'Connor",
        "rank": 44218,
        "rank_sort": 44218,
        "total": 2356
      },
      {
        "club_badge_src": null,
        "entry": 4648,
        "entry_name": "Just in Case",
        "event_total": 69,
        "has_played": true,
        "id": 26438,
        "last_rank": 49880,
        "player_name": "Aravind V",
        "rank": 44218,
        "rank_sort": 44219,
        "total": 2356
      },
      {
        "club_badge_src": null,
        "entry": 7782,
        "entry_name": "Helv",
        "event_total": 53,
        "has_played": true,
        "id": 44906,
        "last_rank": 34051,
        "player_name": "Mariusz Cholozynski",
        "rank": 44218,
        "rank_sort": 44220,
        "total": 2356
      },
      {
        "club_badge_src": null,
        "entry": 15890,
        "entry_name": "Rutter Woke Nonsense",
        "event_total": 68,
        "has_played": true,
        "id": 97872,
        "last_rank": 55014,
        "player_name": "Ryan Da Costa",
        "rank": 44218,
        "rank_sort": 44221,
        "total": 2356
      },
      {
        "club_badge_src": null,
        "entry": 16265,
        "entry_name": "Ugarte be kidding me",
        "event_total": 64,
        "has_played": true,
        "id": 100359,
        "last_rank": 54667,
        "player_name": "Fionn O'Sullivan",
        "rank": 44218,
        "rank_sort": 44222,
        "total": 2356
      },
      {
        "club_badge_src": null,
        "entry": 21330,
        "entry_name": "FmG",
        "event_total": 65,
        "has_played": true,
        "id": 133722,
        "last_rank": 57001,
        "player_name": "Emmanuel Agboola",
        "rank": 44218,
        "rank_sort": 44223,
        "total": 2356
      },
      {
        "club_badge_src": "https://fantasy.premierleague.com/gcs/plfpl-production-adobe-approved/plfpl-production/38400/e92836d4-5dcc-4806-864c-d186fed5e6dc.png",
        "entry": 38400,
        "entry_name": "VELINTER",
        "event_total": 45,
        "has_played": true,
        "id": 246103,
        "last_rank": 30060,
        "player_name": "Velin Nakov",
        "rank": 44218,
        "rank_sort": 44224,
        "total": 2356
      },
      {
        "club_badge_src": null,
        "entry": 49300,
        "entry_name": "Mada Saka FC",
        "event_total": 56,
        "has_played": true,
        "id": 316893,
        "last_rank": 42940,
        "player_name": "Yatir Ronen",
        "rank": 44218,
        "rank_sort": 44225,
        "total": 2356
      },
      {
        "club_badge_src": null,
        "entry": 49403,
        "entry_name": "Asser fc",
        "event_total": 67,
        "has_played": true,
        "id": 317570,
        "last_rank": 53023,
        "player_name": "Asser Sharony",
        "rank": 44218,
        "rank_sort": 44226,
        "total": 2356
      },
      {
        "club_badge_src": null,
        "entry": 50934,
        "entry_name": "Bacon San\u00e9",
        "event_total": 54,
        "has_played": true,
        "id": 327651,
        "last_rank": 40503,
        "player_name": "Freddy Crosby",
        "rank": 44218,
        "rank_sort": 44227,
        "total": 2356
      },
      {
        "club_badge_src": "https://fantasy.premierleague.com/gcs/plfpl-production-adobe-approved/plfpl-production/52751/94e0e1c5-9790-43c2-9850-ba4e7a25da23.png",
        "entry": 52751,
        "entry_name": "The Oracle",
        "event_total": 56,
        "has_played": true,
        "id": 339187,
        "last_rank": 37822,
        "player_name": "Ngong Mayen",
        "rank": 44218,
        "rank_sort": 44228,
        "total": 2356
      },
      {
        "club_badge_src": null,
        "entry": 53751,
        "entry_name": "Banksy Boys",
        "event_total": 73,
        "has_played": true,
        "id": 345874,
        "last_rank": 70985,
        "player_name": "Andrew Cooper",
        "rank": 44218,
        "rank_sort": 44229,
        "total": 2356
      },
      {
        "club_badge_src": null,
        "entry": 57372,
        "entry_name": "A",
        "event_total": 36,
        "has_played": true,
        "id": 369585,
        "last_rank": 21949,
        "player_name": "Arun Kumar",
        "rank": 44218,
        "rank_sort": 44230,
        "total": 2356
      },
      {
        "club_badge_src": "https://fantasy.premierleague.com/gcs/plfpl-production-adobe-approved/plfpl-production/76220/b4e5ecc2-3e2d-447c-adb9-6ac779e167bf.png",
        "entry": 76220,
        "entry_name": "Dreams Can't Be Buy",
        "event_total": 62,
        "has_played": true,
        "id": 495498,
        "last_rank": 51720,
        "player_name": "Ben Biggs",
        "rank": 44218,
        "rank_sort": 44231,
        "total": 2356
      },
      {
        "club_badge_src": null,
        "entry": 87889,
        "entry_name": "For The Glory",
        "event_total": 68,
        "has_played": true,
        "id": 573324,
        "last_rank": 62223,
        "player_name": "Cristian Stan",
        "rank": 44218,
        "rank_sort": 44232,
        "total": 2356
      },
      {
        "club_badge_src": null,
        "entry": 96127,
        "entry_name": "ColdPalms",
        "event_total": 30,
        "has_played": true,
        "id": 627981,
        "last_rank": 17718,
        "player_name": "Ritik Gupta",
        "rank": 44218,
        "rank_sort": 44233,
        "total": 2356
      },
      {
        "club_badge_src": "https://fantasy.premierleague.com/gcs/plfpl-production-adobe-approved/plfpl-production/107075/3ee0885e-3055-49cc-aa5b-6a7f38326b0c.png",
        "entry": 107075,
        "entry_name": "Fuenlabrada CF",
        "event_total": 52,
        "has_played": true,
        "id": 698060,
        "last_rank": 38016,
        "player_name": "Faris Zain",
        "rank": 44218,
        "rank_sort": 44234,
        "total": 2356
      },
      {
        "club_badge_src": "https://fantasy.premierleague.com/gcs/plfpl-production-adobe-approved/plfpl-production/125599/067b6689-bd92-4706-a821-604c54418118.png",
        "entry": 125599,
        "entry_name": "Ninja Skrtels",
        "event_total": 59,
        "has_played": true,
        "id": 819136,
        "last_rank": 41617,
        "player_name": "Tom Burke",
        "rank": 44218,
        "rank_sort": 44235,
        "total": 2356
      },
      {
        "club_badge_src": "https://fantasy.premierleague.com/gcs/plfpl-production-adobe-approved/plfpl-production/134044/6adbbdc8-4cb2-450b-8937-b406be05b00e.png",
        "entry": 134044,
        "entry_name": "superBGteam",
        "event_total": 67,
        "has_played": true,
        "id": 873043,
        "last_rank": 60462,
        "player_name": "Georgi Dimitrov",
        "rank": 44218,
        "rank_sort": 44236,
        "total": 2356
      },
      {
        "club_badge_src": "https://fantasy.premierleague.com/gcs/plfpl-production-adobe-approved/plfpl-production/147383/f4d2627a-8866-4bdc-ae14-656774535e34.png",
        "entry": 147383,
        "entry_name": "Take a Hit",
        "event_total": 63,
        "has_played": true,
        "id": 965859,
        "last_rank": 47163,
        "player_name": "Doug Emann",
        "rank": 44218,
        "rank_sort": 44237,
        "total": 2356
      },
      {
        "club_badge_src": null,
        "entry": 159696,
        "entry_name": "Kinder Mbuemo",
        "event_total": 54,
        "has_played": true,
        "id": 1051209,
        "last_rank": 40503,
        "player_name": "Noah Reif Jakobsen",
        "rank": 44218,
        "rank_sort": 44238,
        "total": 2356
      },
      {
        "club_badge_src": null,
        "entry": 221580,
        "entry_name": "Stink Nuggetz",
        "event_total": 74,
        "has_played": true,
        "id": 1473748,
        "last_rank": 73423,
        "player_name": "Jordan Dunne",
        "rank": 44218,
        "rank_sort": 44239,
        "total": 2356
      },
      {
        "club_badge_src": null,
        "entry": 223843,
        "entry_name": "Me, Myself, Ndiaye",
        "event_total": 65,
        "has_played": true,
        "id": 1489001,
        "last_rank": 50199,
        "player_name": "Iain Weston",
        "rank": 44218,
        "rank_sort": 44240,
        "total": 2356
      },
      {
        "club_badge_src": null,
        "entry": 228855,
        "entry_name": "Bowen  747",
        "event_total": 64,
        "has_played": true,
        "id": 1522589,
        "last_rank": 55311,
        "player_name": "Bobby Moore",
        "rank": 44218,
        "rank_sort": 44241,
        "total": 2356
      },
      {
        "club_badge_src": "https://fantasy.premierleague.com/gcs/plfpl-production-adobe-approved/plfpl-production/230322/7c48c19f-988f-4734-8e0c-ddad1850a011.png",
        "entry": 230322,
        "entry_name": "Richmond Wolves",
        "event_total": 51,
        "has_played": true,
        "id": 1532280,
        "last_rank": 31747,
        "player_name": "Nick Horton",
        "rank": 44218,
        "rank_sort": 44242,
        "total": 2356
      },
      {
        "club_badge_src": null,
        "entry": 258564,
        "entry_name": "Highbury N5",
        "event_total": 50,
        "has_played": true,
        "id": 1719303,
        "last_rank": 35424,
        "player_name": "Casper Mogensen",
        "rank": 44218,
        "rank_sort": 44243,
        "total": 2356
      },
      {
        "club_badge_src": "https://fantasy.premierleague.com/gcs/plfpl-production-adobe-approved/plfpl-production/291501/7f5b8fb0-6c19-4838-85c0-341cc880015f.png",
        "entry": 291501,
        "entry_name": "Wirtz-Case scenario",
        "event_total": 46,
        "has_played": true,
        "id": 1944418,
        "last_rank": 27020,
        "player_name": "Phil Tayles",
        "rank": 44218,
        "rank_sort": 44244,
        "total": 2356
      },
      {
        "club_badge_src": null,
        "entry": 316419,
        "entry_name": "XVI",
        "event_total": 71,
        "has_played": true,
        "id": 2120803,
        "last_rank": 67695,
        "player_name": "Brighton Kalonga",
        "rank": 44218,
        "rank_sort": 44245,
        "total": 2356
      },
      {
        "club_badge_src": null,
        "entry": 322127,
        "entry_name": "Wizo",
        "event_total": 66,
        "has_played": true,
        "id": 2158739,
        "last_rank": 58911,
        "player_name": "Owais Osama",
        "rank": 44218,
        "rank_sort": 44246,
        "total": 2356
      },
      {
        "club_badge_src": null,
        "entry": 329903,
        "entry_name": "Goon $quad",
        "event_total": 60,
        "has_played": true,
        "id": 2209873,
        "last_rank": 48363,
        "player_name": "Gray Visco",
        "rank": 44218,
        "rank_sort": 44247,
        "total": 2356
      },
      {
        "club_badge_src": null,
        "entry": 331629,
        "entry_name": "Like a new signing",
        "event_total": 66,
        "has_played": true,
        "id": 2221220,
        "last_rank": 51403,
        "player_name": "Thomas Nycz-Losi",
        "rank": 44218,
        "rank_sort": 44248,
        "total": 2356
      },
      {
        "club_badge_src": null,
        "entry": 333170,
        "entry_name": "A Few Million More",
        "event_total": 51,
        "has_played": true,
        "id": 2231378,
        "last_rank": 31995,
        "player_name": "Steven Manson",
        "rank": 44218,
        "rank_sort": 44249,
        "total": 2356
      },
      {
        "club_badge_src": null,
        "entry": 339426,
        "entry_name": "KLOPPITES FC",
        "event_total": 65,
        "has_played": true,
        "id": 2272229,
        "last_rank": 49880,
        "player_name": "Eric Forsberg",
        "rank": 44218,
        "rank_sort": 44250,
        "total": 2356
      }
    ]
  }
}