{
  "last_updated_data": "2026-05-24T23:28:17Z",
  "league": {
    "admin_entry": null,
    "closed": false,
    "code_privacy": "p",
    "created": "2025-07-20T23:14:33.933835Z",
    "cup_league": 2815434,
    "has_cup": true,
    "id": 314,
    "league_type": "s",
    "max_entries": null,
    "name": "Overall",
    "rank": null,
    "scoring": "c",
    "start_event": 1
  },
  "new_entries": {
    "has_next": false,
    "page": 1,
    "results": []
  },
  "standings": {
    "has_next": true,
    "page": 259,
    "results": [
      {
        "club_badge_src": null,
        "entry": 3769315,
        "entry_name": "Restored",
        "event_total": 62,
        "has_played": true,
        "id": 28143893,
        "last_rank": 14926,
        "player_name": "ahmed shahien",
        "rank": 12846,
        "rank_sort": 12901,
        "total": 2392
      },
      {
        "club_badge_src": null,
        "entry": 4099897,
        "entry_name": "Gull\u00e1cticos",
        "event_total": 63,
        "has_played": true,
        "id": 30958702,
        "last_rank": 13401,
        "player_name": "Andy Gulliver",
        "rank": 12846,
        "rank_sort": 12902,
        "total": 2392
      },
      {
        "club_badge_src": null,
        "entry": 4151566,
        "entry_name": "Jodwin Nunez",
        "event_total": 73,
        "has_played": true,
        "id": 31379249,
        "last_rank": 22830,
        "player_name": "Jack O'Dwyer",
        "rank": 12846,
        "rank_sort": 12903,
        "total": 2392
      },
      {
        "club_badge_src": null,
        "entry": 4204642,
        "entry_name": "Beans On Tosin",
        "event_total": 55,
        "has_played": true,
        "id": 31829887,
        "last_rank": 11419,
        "player_name": "Aadesh Dutta",
        "rank": 12846,
        "rank_sort": 12904,
        "total": 2392
      },
      {
        "club_badge_src": "https://fantasy.premierleague.com/gcs/plfpl-production-adobe-approved/plfpl-production/4322842/de9a0df8-b927-4c5b-845c-0d8b6172462b.png",
        "entry": 4322842,
        "entry_name": "\u0627\u0644\u0645\u062e\u0635\u064a\u064a\u0646 2.0",
        "event_total": 51,
        "has_played": true,
        "id": 32807648,
        "last_rank": 9711,
        "player_name": "Ahmed Attageel",
        "rank": 12846,
        "rank_sort": 12905,
        "total": 2392
      },
      {
        "club_badge_src": null,
        "entry": 4457793,
        "entry_name": "DooodzerZ",
        "event_total": 52,
        "has_played": true,
        "id": 33959399,
        "last_rank": 8484,
        "player_name": "Dodzzz Doddzzyy",
        "rank": 12846,
        "rank_sort": 12906,
        "total": 2392
      },
      {
        "club_badge_src": null,
        "entry": 4504798,
        "entry_name": "SALAND",
        "event_total": 79,
        "has_played": true,
        "id": 34345582,
        "last_rank": 27644,
        "player_name": "la la oh la la",
        "rank": 12846,
        "rank_sort": 12907,
        "total": 2392
      },
      {
        "club_badge_src": null,
        "entry": 4538377,
        "entry_name": "Sesk in the city",
        "event_total": 69,
        "has_played": true,
        "id": 34622498,
        "last_rank": 19835,
        "player_name": "vikesh patel",
        "rank": 12846,
        "rank_sort": 12908,
        "total": 2392
      },
      {
        "club_badge_src": null,
        "entry": 4572247,
        "entry_name": "VM XI",
        "event_total": 44,
        "has_played": true,
        "id": 34896866,
        "last_rank": 7193,
        "player_name": "Van Mnn",
        "rank": 12846,
        "rank_sort": 12909,
        "total": 2392
      },
      {
        "club_badge_src": null,
        "entry": 4643650,
        "entry_name": "Uhuru wa Manyani Fc",
        "event_total": 61,
        "has_played": true,
        "id": 35520068,
        "last_rank": 14604,
        "player_name": "Edgar Masatu",
        "rank": 12846,
        "rank_sort": 12910,
        "total": 2392
      },
      {
        "club_badge_src": null,
        "entry": 4840517,
        "entry_name": "RUU",
        "event_total": 61,
        "has_played": true,
        "id": 37287590,
        "last_rank": 14604,
        "player_name": "Arief RS",
        "rank": 12846,
        "rank_sort": 12911,
        "total": 2392
      },
      {
        "club_badge_src": null,
        "entry": 5070832,
        "entry_name": "Ice Cold",
        "event_total": 65,
        "has_played": true,
        "id": 39187291,
        "last_rank": 14496,
        "player_name": "Damian Guzinski",
        "rank": 12846,
        "rank_sort": 12912,
        "total": 2392
      },
      {
        "club_badge_src": null,
        "entry": 5159551,
        "entry_name": "The Wet Bandits",
        "event_total": 55,
        "has_played": true,
        "id": 39924677,
        "last_rank": 11419,
        "player_name": "Craig McDonald",
        "rank": 12846,
        "rank_sort": 12913,
        "total": 2392
      },
      {
        "club_badge_src": "https://fantasy.premierleague.com/gcs/plfpl-production-adobe-approved/plfpl-production/5363663/23fe1fb0-f3e5-44ec-8dbf-1588fd4b7224.png",
        "entry": 5363663,
        "entry_name": "Rubbish fc",
        "event_total": 55,
        "has_played": true,
        "id": 41663546,
        "last_rank": 11419,
        "player_name": "grant burge",
        "rank": 12846,
        "rank_sort": 12914,
        "total": 2392
      },
      {
        "club_badge_src": "https://fantasy.premierleague.com/gcs/plfpl-production-adobe-approved/plfpl-production/5601986/745115c6-23a1-4a2b-855b-803786718b57.png",
        "entry": 5601986,
        "entry_name": "SlimDEconmist FC",
        "event_total": 58,
        "has_played": true,
        "id": 43773530,
        "last_rank": 10920,
        "player_name": "Mustapha Kamara",
        "rank": 12846,
        "rank_sort": 12915,
        "total": 2392
      },
      {
        "club_badge_src": null,
        "entry": 5645813,
        "entry_name": "SazFC",
        "event_total": 52,
        "has_played": true,
        "id": 44160455,
        "last_rank": 10102,
        "player_name": "Samuel Hallworth",
        "rank": 12846,
        "rank_sort": 12916,
        "total": 2392
      },
      {
        "club_badge_src": null,
        "entry": 5674005,
        "entry_name": "Liggeunderlaget",
        "event_total": 55,
        "has_played": true,
        "id": 44403208,
        "last_rank": 11419,
        "player_name": "Gina S\u00f8derstr\u00f8m",
        "rank": 12846,
        "rank_sort": 12917,
        "total": 2392
      },
      {
        "club_badge_src": "https://fantasy.premierleague.com/gcs/plfpl-production-adobe-approved/plfpl-production/6984770/fa1ccce0-f22e-4b8d-ba5b-fa2eb053920e.png",
        "entry": 6984770,
        "entry_name": "Chris Wood could FC",
        "event_total": 76,
        "has_played": true,
        "id": 56061786,
        "last_rank": 25002,
        "player_name": "Alastair McAllan",
        "rank": 12846,
        "rank_sort": 12918,
        "total": 2392
      },
      {
        "club_badge_src": null,
        "entry": 8711617,
        "entry_name": "Wirtz and All",
        "event_total": 59,
        "has_played": true,
        "id": 72691571,
        "last_rank": 13500,
        "player_name": "Peter Clark",
        "rank": 12846,
        "rank_sort": 12919,
        "total": 2392
      },
      {
        "club_badge_src": null,
        "entry": 67542,
        "entry_name": "Wirtz Kept Secret",
        "event_total": 64,
        "has_played": true,
        "id": 437315,
        "last_rank": 16441,
        "player_name": "Ryan Pritchard",
        "rank": 12920,
        "rank_sort": 12920,
        "total": 2392
      },
      {
        "club_badge_src": "https://fantasy.premierleague.com/gcs/plfpl-production-adobe-approved/plfpl-production/73937/78ef6d83-36a9-4e17-bfb0-90cc10e69878.png",
        "entry": 73937,
        "entry_name": "MASSIVE OWLS",
        "event_total": 64,
        "has_played": true,
        "id": 480637,
        "last_rank": 14040,
        "player_name": "Rich Scott",
        "rank": 12920,
        "rank_sort": 12921,
        "total": 2392
      },
      {
        "club_badge_src": "https://fantasy.premierleague.com/gcs/plfpl-production-adobe-approved/plfpl-production/206736/4f9feee6-047a-4682-a51b-888a51e2bab0.png",
        "entry": 206736,
        "entry_name": "Oh! Line-up",
        "event_total": 65,
        "has_played": true,
        "id": 1374087,
        "last_rank": 17150,
        "player_name": "Omar Hany",
        "rank": 12920,
        "rank_sort": 12922,
        "total": 2392
      },
      {
        "club_badge_src": null,
        "entry": 336131,
        "entry_name": "Serien",
        "event_total": 58,
        "has_played": true,
        "id": 2250486,
        "last_rank": 10992,
        "player_name": "Mohamed Adel",
        "rank": 12920,
        "rank_sort": 12923,
        "total": 2392
      },
      {
        "club_badge_src": null,
        "entry": 396611,
        "entry_name": "Emery Board XI",
        "event_total": 67,
        "has_played": true,
        "id": 2659610,
        "last_rank": 15797,
        "player_name": "Jenny Haywood",
        "rank": 12920,
        "rank_sort": 12924,
        "total": 2392
      },
      {
        "club_badge_src": null,
        "entry": 407088,
        "entry_name": "Matiford Fc",
        "event_total": 46,
        "has_played": true,
        "id": 2729746,
        "last_rank": 7863,
        "player_name": "Abdulrahman Mayford Lahai",
        "rank": 12920,
        "rank_sort": 12925,
        "total": 2392
      },
      {
        "club_badge_src": "https://fantasy.premierleague.com/gcs/plfpl-production-adobe-approved/plfpl-production/432188/492dd24a-b692-46fe-83a1-99238121446a.png",
        "entry": 432188,
        "entry_name": "BurnleyTop4",
        "event_total": 61,
        "has_played": true,
        "id": 2898543,
        "last_rank": 12420,
        "player_name": "Kieran Paine",
        "rank": 12920,
        "rank_sort": 12926,
        "total": 2392
      },
      {
        "club_badge_src": "https://fantasy.premierleague.com/gcs/plfpl-production-adobe-approved/plfpl-production/452329/8d2f1831-f33a-4d52-a06f-e06660be4516.png",
        "entry": 452329,
        "entry_name": "Waddle",
        "event_total": 68,
        "has_played": true,
        "id": 3034443,
        "last_rank": 16441,
        "player_name": "Ebby A",
        "rank": 12920,
        "rank_sort": 12927,
        "total": 2392
      },
      {
        "club_badge_src": null,
        "entry": 462881,
        "entry_name": "Under My Cucurella",
        "event_total": 64,
        "has_played": true,
        "id": 3104955,
        "last_rank": 14040,
        "player_name": "Carl Yong",
        "rank": 12920,
        "rank_sort": 12928,
        "total": 2392
      },
      {
        "club_badge_src": "https://fantasy.premierleague.com/gcs/plfpl-production-adobe-approved/plfpl-production/499697/23e79537-db62-420a-b64c-448ae435435b.png",
        "entry": 499697,
        "entry_name": "Relax, take it Eze",
        "event_total": 50,
        "has_played": true,
        "id": 3353628,
        "last_rank": 9350,
        "player_name": "Sean Casey",
        "rank": 12920,
        "rank_sort": 12929,
        "total": 2392
      },
      {
        "club_badge_src": "https://fantasy.premierleague.com/gcs/plfpl-production-adobe-approved/plfpl-production/550844/d74548b9-ee1b-484d-b1b5-72c91bbdacd6.png",
        "entry": 550844,
        "entry_name": "Meetha Teri Maa Ki",
        "event_total": 53,
        "has_played": true,
        "id": 3707600,
        "last_rank": 10600,
        "player_name": "Vrutik Bharat",
        "rank": 12920,
        "rank_sort": 12930,
        "total": 2392
      },
      {
        "club_badge_src": null,
        "entry": 558969,
        "entry_name": "AI team",
        "event_total": 59,
        "has_played": true,
        "id": 3761754,
        "last_rank": 11345,
        "player_name": "joe cahill",
        "rank": 12920,
        "rank_sort": 12931,
        "total": 2392
      },
      {
        "club_badge_src": null,
        "entry": 637963,
        "entry_name": "Pezenas Athl\u00e9tique",
        "event_total": 75,
        "has_played": true,
        "id": 4311708,
        "last_rank": 24475,
        "player_name": "karl kenny",
        "rank": 12920,
        "rank_sort": 12932,
        "total": 2392
      },
      {
        "club_badge_src": "https://fantasy.premierleague.com/gcs/plfpl-production-adobe-approved/plfpl-production/652752/b7275256-5894-480a-94d5-e87bb6a58954.png",
        "entry": 652752,
        "entry_name": "Nicolas Jackson",
        "event_total": 67,
        "has_played": true,
        "id": 4411362,
        "last_rank": 15797,
        "player_name": "Dilovan Saeed",
        "rank": 12920,
        "rank_sort": 12933,
        "total": 2392
      },
      {
        "club_badge_src": null,
        "entry": 722870,
        "entry_name": "shawcrosslikeamelody",
        "event_total": 56,
        "has_played": true,
        "id": 4909470,
        "last_rank": 10102,
        "player_name": "Jack Beckett",
        "rank": 12920,
        "rank_sort": 12934,
        "total": 2392
      },
      {
        "club_badge_src": null,
        "entry": 753857,
        "entry_name": "The Winning 11",
        "event_total": 59,
        "has_played": true,
        "id": 5130911,
        "last_rank": 11419,
        "player_name": "Dhiran Nagji",
        "rank": 12920,
        "rank_sort": 12935,
        "total": 2392
      },
      {
        "club_badge_src": null,
        "entry": 787175,
        "entry_name": "Cheeky Reijnders",
        "event_total": 71,
        "has_played": true,
        "id": 5381329,
        "last_rank": 18377,
        "player_name": "Ian Sheppard",
        "rank": 12920,
        "rank_sort": 12936,
        "total": 2392
      },
      {
        "club_badge_src": null,
        "entry": 835064,
        "entry_name": "HAND OF GOD CF",
        "event_total": 57,
        "has_played": true,
        "id": 5720253,
        "last_rank": 12470,
        "player_name": "Curtis Carter",
        "rank": 12920,
        "rank_sort": 12937,
        "total": 2392
      },
      {
        "club_badge_src": "https://fantasy.premierleague.com/gcs/plfpl-production-adobe-approved/plfpl-production/900271/9807fdeb-ff93-4a00-9f0a-706d4ae00c07.png",
        "entry": 900271,
        "entry_name": "Hawaiian Haka",
        "event_total": 54,
        "has_played": true,
        "id": 6185731,
        "last_rank": 11034,
        "player_name": "Neil Turner",
        "rank": 12920,
        "rank_sort": 12938,
        "total": 2392
      },
      {
        "club_badge_src": null,
        "entry": 919883,
        "entry_name": "WhatareudoingstepSon",
        "event_total": 75,
        "has_played": true,
        "id": 6326157,
        "last_rank": 24570,
        "player_name": "Peter Rae",
        "rank": 12920,
        "rank_sort": 12939,
        "total": 2392
      },
      {
        "club_badge_src": "https://fantasy.premierleague.com/gcs/plfpl-production-adobe-approved/plfpl-production/922630/e8a57f6c-86a1-440e-89c5-b996fcb10738.png",
        "entry": 922630,
        "entry_name": "Arneskirenn",
        "event_total": 59,
        "has_played": true,
        "id": 6345606,
        "last_rank": 11419,
        "player_name": "Magnus Midtun",
        "rank": 12920,
        "rank_sort": 12940,
        "total": 2392
      },
      {
        "club_badge_src": null,
        "entry": 942331,
        "entry_name": "Maguire and Chips",
        "event_total": 56,
        "has_played": true,
        "id": 6489397,
        "last_rank": 11999,
        "player_name": "Emil Hansen",
        "rank": 12920,
        "rank_sort": 12941,
        "total": 2392
      },
      {
        "club_badge_src": null,
        "entry": 1026260,
        "entry_name": "SherwoodsLads",
        "event_total": 69,
        "has_played": true,
        "id": 7100251,
        "last_rank": 19904,
        "player_name": "Kalle Andersson",
        "rank": 12920,
        "rank_sort": 12942,
        "total": 2392
      },
      {
        "club_badge_src": null,
        "entry": 1272620,
        "entry_name": "Jortnite",
        "event_total": 59,
        "has_played": true,
        "id": 8842660,
        "last_rank": 13558,
        "player_name": "Kieran Gasowski",
        "rank": 12920,
        "rank_sort": 12943,
        "total": 2392
      },
      {
        "club_badge_src": null,
        "entry": 2079882,
        "entry_name": "Don'tLookBackElanga",
        "event_total": 67,
        "has_played": true,
        "id": 14748288,
        "last_rank": 18475,
        "player_name": "Luke Mc Donnell",
        "rank": 12920,
        "rank_sort": 12944,
        "total": 2392
      },
      {
        "club_badge_src": null,
        "entry": 2079909,
        "entry_name": "Seedawgz",
        "event_total": 57,
        "has_played": true,
        "id": 14748491,
        "last_rank": 10556,
        "player_name": "Antony Seeto",
        "rank": 12920,
        "rank_sort": 12945,
        "total": 2392
      },
      {
        "club_badge_src": "https://fantasy.premierleague.com/gcs/plfpl-production-adobe-approved/plfpl-production/2409757/76a87d07-577d-4197-a171-ad8941221c47.png",
        "entry": 2409757,
        "entry_name": "T2G",
        "event_total": 64,
        "has_played": true,
        "id": 17225001,
        "last_rank": 16567,
        "player_name": "MISHAL METEB",
        "rank": 12920,
        "rank_sort": 12946,
        "total": 2392
      },
      {
        "club_badge_src": "https://fantasy.premierleague.com/gcs/plfpl-production-adobe-approved/plfpl-production/2708706/eca3c829-9f37-4f4a-bdab-9ff0400cb908.png",
        "entry": 2708706,
        "entry_name": "Greatest Of All Time",
        "event_total": 47,
        "has_played": true,
        "id": 19488153,
        "last_rank": 8234,
        "player_name": "Dazza Fabulous",
        "rank": 12920,
        "rank_sort": 12947,
        "total": 2392
      },
      {
        "club_badge_src": null,
        "entry": 2809504,
        "entry_name": "Gizzle 11",
        "event_total": 69,
        "has_played": true,
        "id": 20519526,
        "last_rank": 19835,
        "player_name": "Ene Gizzle",
        "rank": 12920,
        "rank_sort": 12948,
        "total": 2392
      },
      {
        "club_badge_src": null,
        "entry": 3041902,
        "entry_name": "BlackCountryNewRowe",
        "event_total": 68,
        "has_played": true,
        "id": 22390076,
        "last_rank": 16441,
        "player_name": "Rian Jordan",
        "rank": 12920,
        "rank_sort": 12949,
        "total": 2392
      },
      {
        "club_badge_src": null,
        "entry": 3135771,
        "entry_name": "clovers",
        "event_total": 57,
        "has_played": true,
        "id": 23147355,
        "last_rank": 12470,
        "player_name": "Robert Jewkes",
        "rank": 12920,
        "rank_sort": 12950,
        "total": 2392
      }
    ]
  }
}