{
  "last_updated_data": "2026-05-24T23:28:17Z",
  "league": {
    "admin_entry": null,
    "closed": false,
    "code_privacy": "p",
    "created": "2025-07-20T23:14:33.933835Z",
    "cup_league": 2815434,
    "has_cup": true,
    "id": 314,
    "league_type": "s",
    "max_entries": null,
    "name": "Overall",
    "rank": null,
    "scoring": "c",
    "start_event": 1
  },
  "new_entries": {
    "has_next": false,
    "page": 1,
    "results": []
  },
  "standings": {
    "has_next": true,
    "page": 1326,
    "results": [
      {
        "club_badge_src": null,
        "entry": 4631653,
        "entry_name": "KaiKai's Kingdom",
        "event_total": 65,
        "has_played": true,
        "id": 35415590,
        "last_rank": 83698,
        "player_name": "Toby .",
        "rank": 66017,
        "rank_sort": 66251,
        "total": 2342
      },
      {
        "club_badge_src": null,
        "entry": 4646087,
        "entry_name": "Roy Donk",
        "event_total": 57,
        "has_played": true,
        "id": 35540524,
        "last_rank": 67063,
        "player_name": "John Siwiec",
        "rank": 66017,
        "rank_sort": 66252,
        "total": 2342
      },
      {
        "club_badge_src": null,
        "entry": 4655884,
        "entry_name": "Guessand Who\u2019s Back",
        "event_total": 56,
        "has_played": true,
        "id": 35633577,
        "last_rank": 64830,
        "player_name": "James Brown",
        "rank": 66017,
        "rank_sort": 66253,
        "total": 2342
      },
      {
        "club_badge_src": null,
        "entry": 4679742,
        "entry_name": "FC MADRID",
        "event_total": 61,
        "has_played": true,
        "id": 35854629,
        "last_rank": 75139,
        "player_name": "Hassan Abdo",
        "rank": 66017,
        "rank_sort": 66254,
        "total": 2342
      },
      {
        "club_badge_src": null,
        "entry": 4684324,
        "entry_name": "Rye",
        "event_total": 51,
        "has_played": true,
        "id": 35897103,
        "last_rank": 56369,
        "player_name": "Bises Rye",
        "rank": 66017,
        "rank_sort": 66255,
        "total": 2342
      },
      {
        "club_badge_src": null,
        "entry": 4749802,
        "entry_name": "Theatre of Dreams",
        "event_total": 81,
        "has_played": true,
        "id": 36549350,
        "last_rank": 125939,
        "player_name": "Tamara Velkovska",
        "rank": 66017,
        "rank_sort": 66256,
        "total": 2342
      },
      {
        "club_badge_src": null,
        "entry": 5112680,
        "entry_name": "StayDench",
        "event_total": 47,
        "has_played": true,
        "id": 39525648,
        "last_rank": 49691,
        "player_name": "Nicholas Block",
        "rank": 66017,
        "rank_sort": 66257,
        "total": 2342
      },
      {
        "club_badge_src": null,
        "entry": 5130182,
        "entry_name": "The Best Team",
        "event_total": 62,
        "has_played": true,
        "id": 39676833,
        "last_rank": 77050,
        "player_name": "Frederick Corones",
        "rank": 66017,
        "rank_sort": 66258,
        "total": 2342
      },
      {
        "club_badge_src": null,
        "entry": 5163781,
        "entry_name": "Minimis FC",
        "event_total": 60,
        "has_played": true,
        "id": 39960950,
        "last_rank": 72815,
        "player_name": "Kwesi Austin",
        "rank": 66017,
        "rank_sort": 66259,
        "total": 2342
      },
      {
        "club_badge_src": "https://fantasy.premierleague.com/gcs/plfpl-production-adobe-approved/plfpl-production/5178369/bdeb16a2-5eb8-4d41-82c2-33ad0f4016ba.png",
        "entry": 5178369,
        "entry_name": "Blue Lions",
        "event_total": 58,
        "has_played": true,
        "id": 40081443,
        "last_rank": 69323,
        "player_name": "Arnav John",
        "rank": 66017,
        "rank_sort": 66260,
        "total": 2342
      },
      {
        "club_badge_src": null,
        "entry": 5204884,
        "entry_name": "FC Brian Munich",
        "event_total": 56,
        "has_played": true,
        "id": 40311627,
        "last_rank": 65163,
        "player_name": "Brian Booth",
        "rank": 66017,
        "rank_sort": 66261,
        "total": 2342
      },
      {
        "club_badge_src": null,
        "entry": 5212228,
        "entry_name": "Fordard",
        "event_total": 52,
        "has_played": true,
        "id": 40373708,
        "last_rank": 58388,
        "player_name": "Nwakwoke Fred",
        "rank": 66017,
        "rank_sort": 66262,
        "total": 2342
      },
      {
        "club_badge_src": null,
        "entry": 5262853,
        "entry_name": "ArtetaEtLabore",
        "event_total": 60,
        "has_played": true,
        "id": 40790016,
        "last_rank": 73423,
        "player_name": "Tom Powell",
        "rank": 66017,
        "rank_sort": 66263,
        "total": 2342
      },
      {
        "club_badge_src": null,
        "entry": 5373633,
        "entry_name": "All Stars United",
        "event_total": 61,
        "has_played": true,
        "id": 41759910,
        "last_rank": 75139,
        "player_name": "Jo Morgan",
        "rank": 66017,
        "rank_sort": 66264,
        "total": 2342
      },
      {
        "club_badge_src": null,
        "entry": 5446178,
        "entry_name": "Not in the Squad ??",
        "event_total": 55,
        "has_played": true,
        "id": 42376271,
        "last_rank": 63390,
        "player_name": "Anthony Michael",
        "rank": 66017,
        "rank_sort": 66265,
        "total": 2342
      },
      {
        "club_badge_src": null,
        "entry": 5498510,
        "entry_name": "Marinakis Madness",
        "event_total": 40,
        "has_played": true,
        "id": 42840413,
        "last_rank": 39874,
        "player_name": "Tariq Jamal",
        "rank": 66017,
        "rank_sort": 66266,
        "total": 2342
      },
      {
        "club_badge_src": null,
        "entry": 5523978,
        "entry_name": "MW",
        "event_total": 55,
        "has_played": true,
        "id": 43077264,
        "last_rank": 63390,
        "player_name": "Michael Woods",
        "rank": 66017,
        "rank_sort": 66267,
        "total": 2342
      },
      {
        "club_badge_src": null,
        "entry": 5544707,
        "entry_name": "WalekLPU",
        "event_total": 62,
        "has_played": true,
        "id": 43268612,
        "last_rank": 76908,
        "player_name": "Filip Walczak",
        "rank": 66017,
        "rank_sort": 66268,
        "total": 2342
      },
      {
        "club_badge_src": null,
        "entry": 5584099,
        "entry_name": "Tierney Weeny",
        "event_total": 43,
        "has_played": true,
        "id": 43617323,
        "last_rank": 44303,
        "player_name": "Finley Cowell",
        "rank": 66017,
        "rank_sort": 66269,
        "total": 2342
      },
      {
        "club_badge_src": null,
        "entry": 5607997,
        "entry_name": "ARMY",
        "event_total": 60,
        "has_played": true,
        "id": 43825878,
        "last_rank": 72815,
        "player_name": "Rados\u0142aw Hawry\u0142ko",
        "rank": 66017,
        "rank_sort": 66270,
        "total": 2342
      },
      {
        "club_badge_src": null,
        "entry": 5662679,
        "entry_name": "Elite Footie",
        "event_total": 55,
        "has_played": true,
        "id": 44304412,
        "last_rank": 63390,
        "player_name": "Feyi O",
        "rank": 66017,
        "rank_sort": 66271,
        "total": 2342
      },
      {
        "club_badge_src": null,
        "entry": 5690030,
        "entry_name": "11 points",
        "event_total": 64,
        "has_played": true,
        "id": 44542415,
        "last_rank": 81646,
        "player_name": "Yashwanth Kantam",
        "rank": 66017,
        "rank_sort": 66272,
        "total": 2342
      },
      {
        "club_badge_src": null,
        "entry": 5752538,
        "entry_name": "Chicken Bowens",
        "event_total": 51,
        "has_played": true,
        "id": 45087421,
        "last_rank": 56369,
        "player_name": "Nadine Roper",
        "rank": 66017,
        "rank_sort": 66273,
        "total": 2342
      },
      {
        "club_badge_src": null,
        "entry": 5761839,
        "entry_name": "BradleyzBoyz",
        "event_total": 66,
        "has_played": true,
        "id": 45168347,
        "last_rank": 86304,
        "player_name": "Wayne Bradley",
        "rank": 66017,
        "rank_sort": 66274,
        "total": 2342
      },
      {
        "club_badge_src": null,
        "entry": 5775649,
        "entry_name": "Once Mighty United",
        "event_total": 48,
        "has_played": true,
        "id": 45285529,
        "last_rank": 51403,
        "player_name": "Ketil Vestbakke",
        "rank": 66017,
        "rank_sort": 66275,
        "total": 2342
      },
      {
        "club_badge_src": null,
        "entry": 5800460,
        "entry_name": "Ar do rothar Boyz",
        "event_total": 61,
        "has_played": true,
        "id": 45502337,
        "last_rank": 75139,
        "player_name": "Ronan Walsh",
        "rank": 66017,
        "rank_sort": 66276,
        "total": 2342
      },
      {
        "club_badge_src": null,
        "entry": 5804290,
        "entry_name": "huss7",
        "event_total": 85,
        "has_played": true,
        "id": 45537130,
        "last_rank": 114055,
        "player_name": "Mukhtar Hussainnn",
        "rank": 66017,
        "rank_sort": 66277,
        "total": 2342
      },
      {
        "club_badge_src": null,
        "entry": 5839357,
        "entry_name": "Don't Tread On Me",
        "event_total": 54,
        "has_played": true,
        "id": 45837248,
        "last_rank": 61411,
        "player_name": "Capt America",
        "rank": 66017,
        "rank_sort": 66278,
        "total": 2342
      },
      {
        "club_badge_src": null,
        "entry": 5921048,
        "entry_name": "Austin",
        "event_total": 60,
        "has_played": true,
        "id": 46539273,
        "last_rank": 64830,
        "player_name": "Steven Tanoto",
        "rank": 66017,
        "rank_sort": 66279,
        "total": 2342
      },
      {
        "club_badge_src": null,
        "entry": 5964030,
        "entry_name": "Ayew mad",
        "event_total": 75,
        "has_played": true,
        "id": 46922861,
        "last_rank": 108689,
        "player_name": "David Aronsson",
        "rank": 66017,
        "rank_sort": 66280,
        "total": 2342
      },
      {
        "club_badge_src": null,
        "entry": 6000874,
        "entry_name": "Bruno Dos Tres",
        "event_total": 56,
        "has_played": true,
        "id": 47306010,
        "last_rank": 65475,
        "player_name": "caleb ohanlon",
        "rank": 66017,
        "rank_sort": 66281,
        "total": 2342
      },
      {
        "club_badge_src": null,
        "entry": 6025191,
        "entry_name": "ChickenTikka MoSalah",
        "event_total": 46,
        "has_played": true,
        "id": 47523179,
        "last_rank": 48363,
        "player_name": "Jamie Nicol",
        "rank": 66017,
        "rank_sort": 66282,
        "total": 2342
      },
      {
        "club_badge_src": "https://fantasy.premierleague.com/gcs/plfpl-production-adobe-approved/plfpl-production/6027992/7cb851f2-340f-4cc2-bb9b-96c81f42627f.png",
        "entry": 6027992,
        "entry_name": "The Mariners",
        "event_total": 50,
        "has_played": true,
        "id": 47547907,
        "last_rank": 54667,
        "player_name": "Alice Haxby",
        "rank": 66017,
        "rank_sort": 66283,
        "total": 2342
      },
      {
        "club_badge_src": null,
        "entry": 6105658,
        "entry_name": "Wood's a Mug XI",
        "event_total": 53,
        "has_played": true,
        "id": 48225843,
        "last_rank": 59632,
        "player_name": "Ayden Nussey",
        "rank": 66017,
        "rank_sort": 66284,
        "total": 2342
      },
      {
        "club_badge_src": null,
        "entry": 6114627,
        "entry_name": "Dont LookBack Elanga",
        "event_total": 67,
        "has_played": true,
        "id": 48303515,
        "last_rank": 88594,
        "player_name": "Fergus Evans",
        "rank": 66017,
        "rank_sort": 66285,
        "total": 2342
      },
      {
        "club_badge_src": null,
        "entry": 6141013,
        "entry_name": "Mrs Palmer\u2019s Rodon",
        "event_total": 53,
        "has_played": true,
        "id": 48534519,
        "last_rank": 59632,
        "player_name": "Jonny Francis",
        "rank": 66017,
        "rank_sort": 66286,
        "total": 2342
      },
      {
        "club_badge_src": null,
        "entry": 6264594,
        "entry_name": "Backstreet Moyes",
        "event_total": 70,
        "has_played": true,
        "id": 49603055,
        "last_rank": 95640,
        "player_name": "Eoin Power",
        "rank": 66017,
        "rank_sort": 66287,
        "total": 2342
      },
      {
        "club_badge_src": null,
        "entry": 6270906,
        "entry_name": "Mainoo Attraction",
        "event_total": 61,
        "has_played": true,
        "id": 49656439,
        "last_rank": 75139,
        "player_name": "Conor Calvey",
        "rank": 66017,
        "rank_sort": 66288,
        "total": 2342
      },
      {
        "club_badge_src": null,
        "entry": 6276919,
        "entry_name": "Frimpingpong",
        "event_total": 57,
        "has_played": true,
        "id": 49707714,
        "last_rank": 67063,
        "player_name": "Joe Dennis",
        "rank": 66017,
        "rank_sort": 66289,
        "total": 2342
      },
      {
        "club_badge_src": null,
        "entry": 6318837,
        "entry_name": "Mumba No.5",
        "event_total": 37,
        "has_played": true,
        "id": 50161179,
        "last_rank": 36200,
        "player_name": "Josh Coles-Rouse",
        "rank": 66017,
        "rank_sort": 66290,
        "total": 2342
      },
      {
        "club_badge_src": null,
        "entry": 6343582,
        "entry_name": "Transfer me out",
        "event_total": 54,
        "has_played": true,
        "id": 50422567,
        "last_rank": 61606,
        "player_name": "Eoin Wilson",
        "rank": 66017,
        "rank_sort": 66291,
        "total": 2342
      },
      {
        "club_badge_src": "https://fantasy.premierleague.com/gcs/plfpl-production-adobe-approved/plfpl-production/6367356/69fed265-d783-4d85-8c86-aff56015f270.png",
        "entry": 6367356,
        "entry_name": "Okposi007",
        "event_total": 45,
        "has_played": true,
        "id": 50631470,
        "last_rank": 46839,
        "player_name": "IHEANACHO OSIAGOR",
        "rank": 66017,
        "rank_sort": 66292,
        "total": 2342
      },
      {
        "club_badge_src": null,
        "entry": 6372204,
        "entry_name": "Fish'n'Chips",
        "event_total": 37,
        "has_played": true,
        "id": 50673484,
        "last_rank": 36200,
        "player_name": "Nikola Miholic",
        "rank": 66017,
        "rank_sort": 66293,
        "total": 2342
      },
      {
        "club_badge_src": null,
        "entry": 6411468,
        "entry_name": "Pathetico Madrid",
        "event_total": 52,
        "has_played": true,
        "id": 51021302,
        "last_rank": 58071,
        "player_name": "Ricky Scott",
        "rank": 66017,
        "rank_sort": 66294,
        "total": 2342
      },
      {
        "club_badge_src": null,
        "entry": 6438313,
        "entry_name": "Beef Castagne",
        "event_total": 74,
        "has_played": true,
        "id": 51258915,
        "last_rank": 106763,
        "player_name": "Joe Brown",
        "rank": 66017,
        "rank_sort": 66295,
        "total": 2342
      },
      {
        "club_badge_src": null,
        "entry": 6461660,
        "entry_name": "MR IDA3",
        "event_total": 68,
        "has_played": true,
        "id": 51476362,
        "last_rank": 90746,
        "player_name": "Christopher Palmer",
        "rank": 66017,
        "rank_sort": 66296,
        "total": 2342
      },
      {
        "club_badge_src": null,
        "entry": 6526103,
        "entry_name": "Tea and Busquets",
        "event_total": 68,
        "has_played": true,
        "id": 52054221,
        "last_rank": 91006,
        "player_name": "Husam Islam",
        "rank": 66017,
        "rank_sort": 66297,
        "total": 2342
      },
      {
        "club_badge_src": null,
        "entry": 6542588,
        "entry_name": "Spm ikkesant",
        "event_total": 73,
        "has_played": true,
        "id": 52201706,
        "last_rank": 103254,
        "player_name": "Felix Thomsen",
        "rank": 66017,
        "rank_sort": 66298,
        "total": 2342
      },
      {
        "club_badge_src": null,
        "entry": 6547271,
        "entry_name": "Under my cucurella",
        "event_total": 47,
        "has_played": true,
        "id": 52243114,
        "last_rank": 50199,
        "player_name": "Kitty Piper",
        "rank": 66017,
        "rank_sort": 66299,
        "total": 2342
      },
      {
        "club_badge_src": null,
        "entry": 6585684,
        "entry_name": "Tim",
        "event_total": 51,
        "has_played": true,
        "id": 52593630,
        "last_rank": 56369,
        "player_name": "Tim Lam",
        "rank": 66017,
        "rank_sort": 66300,
        "total": 2342
      }
    ]
  }
}