{
  "last_updated_data": "2026-05-24T23:28:17Z",
  "league": {
    "admin_entry": null,
    "closed": false,
    "code_privacy": "p",
    "created": "2025-07-20T23:14:33.933835Z",
    "cup_league": 2815434,
    "has_cup": true,
    "id": 314,
    "league_type": "s",
    "max_entries": null,
    "name": "Overall",
    "rank": null,
    "scoring": "c",
    "start_event": 1
  },
  "new_entries": {
    "has_next": false,
    "page": 1,
    "results": []
  },
  "standings": {
    "has_next": true,
    "page": 608,
    "results": [
      {
        "club_badge_src": null,
        "entry": 6010560,
        "entry_name": "IgotoSchoolbybus",
        "event_total": 65,
        "has_played": true,
        "id": 47391696,
        "last_rank": 39246,
        "player_name": "Wade Chak",
        "rank": 30244,
        "rank_sort": 30351,
        "total": 2368
      },
      {
        "club_badge_src": null,
        "entry": 6025933,
        "entry_name": "Hindsight FC",
        "event_total": 60,
        "has_played": true,
        "id": 47529712,
        "last_rank": 33332,
        "player_name": "Darragh Twomey",
        "rank": 30244,
        "rank_sort": 30352,
        "total": 2368
      },
      {
        "club_badge_src": null,
        "entry": 6082395,
        "entry_name": "Warley Warriors",
        "event_total": 68,
        "has_played": true,
        "id": 48022854,
        "last_rank": 37822,
        "player_name": "Edward Sims-Woodhouse",
        "rank": 30244,
        "rank_sort": 30353,
        "total": 2368
      },
      {
        "club_badge_src": null,
        "entry": 6190549,
        "entry_name": "Ragneer",
        "event_total": 59,
        "has_played": true,
        "id": 48963513,
        "last_rank": 32190,
        "player_name": "youssef ourruche",
        "rank": 30244,
        "rank_sort": 30354,
        "total": 2368
      },
      {
        "club_badge_src": "https://fantasy.premierleague.com/gcs/plfpl-production-adobe-approved/plfpl-production/6239613/d0bab0b3-f181-440b-b021-70b14e6ac558.png",
        "entry": 6239613,
        "entry_name": "MR Fashafsh",
        "event_total": 52,
        "has_played": true,
        "id": 49385650,
        "last_rank": 25330,
        "player_name": "mazen mohamed",
        "rank": 30244,
        "rank_sort": 30355,
        "total": 2368
      },
      {
        "club_badge_src": "https://fantasy.premierleague.com/gcs/plfpl-production-adobe-approved/plfpl-production/6312920/8a639fb6-2b90-4e26-a41a-4561660f0850.png",
        "entry": 6312920,
        "entry_name": "Deep Sea Division",
        "event_total": 74,
        "has_played": true,
        "id": 50091238,
        "last_rank": 45416,
        "player_name": "Jordan Phillips",
        "rank": 30244,
        "rank_sort": 30356,
        "total": 2368
      },
      {
        "club_badge_src": null,
        "entry": 6317001,
        "entry_name": "pawins11",
        "event_total": 60,
        "has_played": true,
        "id": 50135918,
        "last_rank": 33147,
        "player_name": "pawin pettrakul",
        "rank": 30244,
        "rank_sort": 30357,
        "total": 2368
      },
      {
        "club_badge_src": null,
        "entry": 6400242,
        "entry_name": "Jothawe",
        "event_total": 53,
        "has_played": true,
        "id": 50921739,
        "last_rank": 26230,
        "player_name": "Jo Thawe",
        "rank": 30244,
        "rank_sort": 30358,
        "total": 2368
      },
      {
        "club_badge_src": null,
        "entry": 6880858,
        "entry_name": "C\u00e9sar Amorim",
        "event_total": 78,
        "has_played": true,
        "id": 55142819,
        "last_rank": 51220,
        "player_name": "C\u00e9sar Amorim",
        "rank": 30244,
        "rank_sort": 30359,
        "total": 2368
      },
      {
        "club_badge_src": null,
        "entry": 7008594,
        "entry_name": "Cunha Matata",
        "event_total": 58,
        "has_played": true,
        "id": 56282169,
        "last_rank": 31125,
        "player_name": "Karan Kothari",
        "rank": 30244,
        "rank_sort": 30360,
        "total": 2368
      },
      {
        "club_badge_src": null,
        "entry": 7442115,
        "entry_name": "Slumdog Amorim-aire",
        "event_total": 63,
        "has_played": true,
        "id": 60530930,
        "last_rank": 31995,
        "player_name": "Carlos Afonso Amoretty Mendes",
        "rank": 30244,
        "rank_sort": 30361,
        "total": 2368
      },
      {
        "club_badge_src": null,
        "entry": 7961447,
        "entry_name": "OnlyHumean",
        "event_total": 52,
        "has_played": true,
        "id": 65543096,
        "last_rank": 25330,
        "player_name": "Qu Ming",
        "rank": 30244,
        "rank_sort": 30362,
        "total": 2368
      },
      {
        "club_badge_src": null,
        "entry": 8092686,
        "entry_name": "A&Y fc",
        "event_total": 40,
        "has_played": true,
        "id": 66733091,
        "last_rank": 16512,
        "player_name": "Amirul 8066",
        "rank": 30244,
        "rank_sort": 30363,
        "total": 2368
      },
      {
        "club_badge_src": null,
        "entry": 8410944,
        "entry_name": "underrated",
        "event_total": 54,
        "has_played": true,
        "id": 69780141,
        "last_rank": 27203,
        "player_name": "Endegena A",
        "rank": 30244,
        "rank_sort": 30364,
        "total": 2368
      },
      {
        "club_badge_src": null,
        "entry": 8734411,
        "entry_name": "Mina's Avengers",
        "event_total": 49,
        "has_played": true,
        "id": 72913952,
        "last_rank": 19544,
        "player_name": "Mina Ebrahim",
        "rank": 30244,
        "rank_sort": 30365,
        "total": 2368
      },
      {
        "club_badge_src": null,
        "entry": 8890910,
        "entry_name": "Tsey",
        "event_total": 65,
        "has_played": true,
        "id": 74420558,
        "last_rank": 34293,
        "player_name": "Tsey Zanq",
        "rank": 30244,
        "rank_sort": 30366,
        "total": 2368
      },
      {
        "club_badge_src": null,
        "entry": 8965511,
        "entry_name": "AROCZAR",
        "event_total": 39,
        "has_played": true,
        "id": 75148668,
        "last_rank": 13401,
        "player_name": "Arkadiusz CZARNECKI",
        "rank": 30244,
        "rank_sort": 30367,
        "total": 2368
      },
      {
        "club_badge_src": null,
        "entry": 9030611,
        "entry_name": "Hopkins FC",
        "event_total": 60,
        "has_played": true,
        "id": 75775460,
        "last_rank": 33332,
        "player_name": "Flynn Hopkins",
        "rank": 30244,
        "rank_sort": 30368,
        "total": 2368
      },
      {
        "club_badge_src": null,
        "entry": 9470310,
        "entry_name": "Aint Got A Kalou",
        "event_total": 63,
        "has_played": true,
        "id": 80034558,
        "last_rank": 36624,
        "player_name": "Ryan McMahon",
        "rank": 30244,
        "rank_sort": 30369,
        "total": 2368
      },
      {
        "club_badge_src": null,
        "entry": 9471379,
        "entry_name": "ICEMAN",
        "event_total": 65,
        "has_played": true,
        "id": 80044129,
        "last_rank": 34293,
        "player_name": "Icecold G",
        "rank": 30244,
        "rank_sort": 30370,
        "total": 2368
      },
      {
        "club_badge_src": null,
        "entry": 7922,
        "entry_name": "Habesha Kopite",
        "event_total": 65,
        "has_played": true,
        "id": 45780,
        "last_rank": 34458,
        "player_name": "Theo Alemayehou",
        "rank": 30371,
        "rank_sort": 30371,
        "total": 2368
      },
      {
        "club_badge_src": null,
        "entry": 8672,
        "entry_name": "Supreme",
        "event_total": 65,
        "has_played": true,
        "id": 50543,
        "last_rank": 34458,
        "player_name": "SongPhuc Nguy\u1ec5n \u0110o\u00e0n",
        "rank": 30371,
        "rank_sort": 30372,
        "total": 2368
      },
      {
        "club_badge_src": null,
        "entry": 11341,
        "entry_name": "Rutter Woke Nonsense",
        "event_total": 49,
        "has_played": true,
        "id": 67381,
        "last_rank": 22921,
        "player_name": "Pj Steggles",
        "rank": 30371,
        "rank_sort": 30373,
        "total": 2368
      },
      {
        "club_badge_src": null,
        "entry": 16913,
        "entry_name": "Ramy",
        "event_total": 70,
        "has_played": true,
        "id": 104710,
        "last_rank": 40503,
        "player_name": "Ramy Esmat",
        "rank": 30371,
        "rank_sort": 30374,
        "total": 2368
      },
      {
        "club_badge_src": "https://fantasy.premierleague.com/gcs/plfpl-production-adobe-approved/plfpl-production/23367/54c56aa0-35ba-4e27-be6a-cf3f5804caf5.png",
        "entry": 23367,
        "entry_name": "mali zeleni",
        "event_total": 61,
        "has_played": true,
        "id": 147119,
        "last_rank": 34578,
        "player_name": "Luka Elez",
        "rank": 30371,
        "rank_sort": 30375,
        "total": 2368
      },
      {
        "club_badge_src": "https://fantasy.premierleague.com/gcs/plfpl-production-adobe-approved/plfpl-production/24922/3c4bc136-75e5-4ccb-81c7-5da724fadef9.png",
        "entry": 24922,
        "entry_name": "BDV United",
        "event_total": 56,
        "has_played": true,
        "id": 157469,
        "last_rank": 29199,
        "player_name": "Viktor Plevnes",
        "rank": 30371,
        "rank_sort": 30376,
        "total": 2368
      },
      {
        "club_badge_src": null,
        "entry": 26547,
        "entry_name": "Now Aina Baleba",
        "event_total": 51,
        "has_played": true,
        "id": 167844,
        "last_rank": 21301,
        "player_name": "Tom Whear",
        "rank": 30371,
        "rank_sort": 30377,
        "total": 2368
      },
      {
        "club_badge_src": null,
        "entry": 28161,
        "entry_name": "McClean Sheets",
        "event_total": 64,
        "has_played": true,
        "id": 178081,
        "last_rank": 33332,
        "player_name": "Martin Hennessy",
        "rank": 30371,
        "rank_sort": 30378,
        "total": 2368
      },
      {
        "club_badge_src": null,
        "entry": 40473,
        "entry_name": "Hazem Elwan",
        "event_total": 70,
        "has_played": true,
        "id": 259467,
        "last_rank": 40503,
        "player_name": "Hazem Elwan",
        "rank": 30371,
        "rank_sort": 30379,
        "total": 2368
      },
      {
        "club_badge_src": "https://fantasy.premierleague.com/gcs/plfpl-production-adobe-approved/plfpl-production/54178/cfbfcd26-3d30-463f-9567-376d377ed98d.png",
        "entry": 54178,
        "entry_name": "Falcon Chiefs",
        "event_total": 59,
        "has_played": true,
        "id": 348698,
        "last_rank": 31995,
        "player_name": "Daniel Berkers",
        "rank": 30371,
        "rank_sort": 30380,
        "total": 2368
      },
      {
        "club_badge_src": null,
        "entry": 63891,
        "entry_name": "sewey fc",
        "event_total": 68,
        "has_played": true,
        "id": 412291,
        "last_rank": 37822,
        "player_name": "Ronan Vasanth",
        "rank": 30371,
        "rank_sort": 30381,
        "total": 2368
      },
      {
        "club_badge_src": null,
        "entry": 77424,
        "entry_name": "Sami's boys.",
        "event_total": 46,
        "has_played": true,
        "id": 503226,
        "last_rank": 20678,
        "player_name": "Sami Alqahtani",
        "rank": 30371,
        "rank_sort": 30382,
        "total": 2368
      },
      {
        "club_badge_src": null,
        "entry": 100194,
        "entry_name": "This is Our Year",
        "event_total": 55,
        "has_played": true,
        "id": 653879,
        "last_rank": 24475,
        "player_name": "Ronan O'Connell",
        "rank": 30371,
        "rank_sort": 30383,
        "total": 2368
      },
      {
        "club_badge_src": "https://fantasy.premierleague.com/gcs/plfpl-production-adobe-approved/plfpl-production/125994/ba371553-e29e-4fc7-8fd6-b51b8594478c.png",
        "entry": 125994,
        "entry_name": "TSV Brightonegg",
        "event_total": 69,
        "has_played": true,
        "id": 821614,
        "last_rank": 44672,
        "player_name": "Maximilian Stoni",
        "rank": 30371,
        "rank_sort": 30384,
        "total": 2368
      },
      {
        "club_badge_src": null,
        "entry": 127238,
        "entry_name": "Hansi Deter Flick",
        "event_total": 53,
        "has_played": true,
        "id": 829534,
        "last_rank": 22830,
        "player_name": "Omar Gamal",
        "rank": 30371,
        "rank_sort": 30385,
        "total": 2368
      },
      {
        "club_badge_src": null,
        "entry": 136302,
        "entry_name": "Real Maghrib",
        "event_total": 65,
        "has_played": true,
        "id": 887889,
        "last_rank": 34458,
        "player_name": "Zulkhairi Eghi",
        "rank": 30371,
        "rank_sort": 30386,
        "total": 2368
      },
      {
        "club_badge_src": null,
        "entry": 165077,
        "entry_name": "Bruno Dos Tres",
        "event_total": 63,
        "has_played": true,
        "id": 1089723,
        "last_rank": 36831,
        "player_name": "Emma Balmbra",
        "rank": 30371,
        "rank_sort": 30387,
        "total": 2368
      },
      {
        "club_badge_src": null,
        "entry": 165148,
        "entry_name": "Kilkenny City",
        "event_total": 59,
        "has_played": true,
        "id": 1090229,
        "last_rank": 28150,
        "player_name": "Richie Moloney",
        "rank": 30371,
        "rank_sort": 30388,
        "total": 2368
      },
      {
        "club_badge_src": null,
        "entry": 167367,
        "entry_name": "Faabra",
        "event_total": 67,
        "has_played": true,
        "id": 1106284,
        "last_rank": 41824,
        "player_name": "Fahim Rajah",
        "rank": 30371,
        "rank_sort": 30389,
        "total": 2368
      },
      {
        "club_badge_src": null,
        "entry": 189770,
        "entry_name": "Amassive XI",
        "event_total": 49,
        "has_played": true,
        "id": 1256252,
        "last_rank": 22921,
        "player_name": "Max Fletcher",
        "rank": 30371,
        "rank_sort": 30390,
        "total": 2368
      },
      {
        "club_badge_src": null,
        "entry": 217786,
        "entry_name": "Kram Sn\u00f8",
        "event_total": 61,
        "has_played": true,
        "id": 1448317,
        "last_rank": 34578,
        "player_name": "Isak Johan Lergrovik",
        "rank": 30371,
        "rank_sort": 30391,
        "total": 2368
      },
      {
        "club_badge_src": "https://fantasy.premierleague.com/gcs/plfpl-production-adobe-approved/plfpl-production/228968/ebd7f6fc-891f-4e4a-95ce-d871a4a8e4e1.png",
        "entry": 228968,
        "entry_name": "Roy's Rovers",
        "event_total": 62,
        "has_played": true,
        "id": 1523343,
        "last_rank": 35619,
        "player_name": "Roy Evans",
        "rank": 30371,
        "rank_sort": 30392,
        "total": 2368
      },
      {
        "club_badge_src": null,
        "entry": 259896,
        "entry_name": "bruno penandes",
        "event_total": 65,
        "has_played": true,
        "id": 1727893,
        "last_rank": 34458,
        "player_name": "Eli Hess",
        "rank": 30371,
        "rank_sort": 30393,
        "total": 2368
      },
      {
        "club_badge_src": "https://fantasy.premierleague.com/gcs/plfpl-production-adobe-approved/plfpl-production/289114/4a036101-529c-4e31-9a29-c1cab58b78bf.png",
        "entry": 289114,
        "entry_name": "Gatch FC",
        "event_total": 63,
        "has_played": true,
        "id": 1927166,
        "last_rank": 32190,
        "player_name": "Awais Ayub",
        "rank": 30371,
        "rank_sort": 30394,
        "total": 2368
      },
      {
        "club_badge_src": null,
        "entry": 346826,
        "entry_name": "GameOfStones",
        "event_total": 65,
        "has_played": true,
        "id": 2321515,
        "last_rank": 39246,
        "player_name": "Ben Martin",
        "rank": 30371,
        "rank_sort": 30395,
        "total": 2368
      },
      {
        "club_badge_src": null,
        "entry": 354704,
        "entry_name": "100K Short",
        "event_total": 51,
        "has_played": true,
        "id": 2373842,
        "last_rank": 24570,
        "player_name": "George Caldwell",
        "rank": 30371,
        "rank_sort": 30396,
        "total": 2368
      },
      {
        "club_badge_src": null,
        "entry": 372347,
        "entry_name": "Power Reijnders",
        "event_total": 40,
        "has_played": true,
        "id": 2491310,
        "last_rank": 16512,
        "player_name": "Ulrik Langeland",
        "rank": 30371,
        "rank_sort": 30397,
        "total": 2368
      },
      {
        "club_badge_src": null,
        "entry": 373393,
        "entry_name": "Crosses and losses",
        "event_total": 52,
        "has_played": true,
        "id": 2498212,
        "last_rank": 25436,
        "player_name": "Prinston Gomes",
        "rank": 30371,
        "rank_sort": 30398,
        "total": 2368
      },
      {
        "club_badge_src": null,
        "entry": 373699,
        "entry_name": "LZS Boreczek",
        "event_total": 69,
        "has_played": true,
        "id": 2500370,
        "last_rank": 44525,
        "player_name": "Tomasz Giza",
        "rank": 30371,
        "rank_sort": 30399,
        "total": 2368
      },
      {
        "club_badge_src": null,
        "entry": 474060,
        "entry_name": "orthobro",
        "event_total": 57,
        "has_played": true,
        "id": 3182647,
        "last_rank": 30191,
        "player_name": "Ayoub Daoudi",
        "rank": 30371,
        "rank_sort": 30400,
        "total": 2368
      }
    ]
  }
}