{
  "last_updated_data": "2026-05-24T23:28:17Z",
  "league": {
    "admin_entry": null,
    "closed": false,
    "code_privacy": "p",
    "created": "2025-07-20T23:14:33.933835Z",
    "cup_league": 2815434,
    "has_cup": true,
    "id": 314,
    "league_type": "s",
    "max_entries": null,
    "name": "Overall",
    "rank": null,
    "scoring": "c",
    "start_event": 1
  },
  "new_entries": {
    "has_next": false,
    "page": 1,
    "results": []
  },
  "standings": {
    "has_next": true,
    "page": 274,
    "results": [
      {
        "club_badge_src": null,
        "entry": 3615745,
        "entry_name": "JK11",
        "event_total": 63,
        "has_played": true,
        "id": 26936904,
        "last_rank": 16675,
        "player_name": "Johnny Kidner",
        "rank": 13628,
        "rank_sort": 13651,
        "total": 2390
      },
      {
        "club_badge_src": null,
        "entry": 3661381,
        "entry_name": "EMPI squad",
        "event_total": 68,
        "has_played": true,
        "id": 27303261,
        "last_rank": 20179,
        "player_name": "Martin Petkov",
        "rank": 13628,
        "rank_sort": 13652,
        "total": 2390
      },
      {
        "club_badge_src": null,
        "entry": 4122056,
        "entry_name": "Solo Il Salah",
        "event_total": 54,
        "has_played": true,
        "id": 31142135,
        "last_rank": 11699,
        "player_name": "Arman Koklu",
        "rank": 13628,
        "rank_sort": 13653,
        "total": 2390
      },
      {
        "club_badge_src": null,
        "entry": 4541177,
        "entry_name": "stefos321cy",
        "event_total": 72,
        "has_played": true,
        "id": 34644836,
        "last_rank": 23188,
        "player_name": "Stefanos Nearchou",
        "rank": 13628,
        "rank_sort": 13654,
        "total": 2390
      },
      {
        "club_badge_src": null,
        "entry": 4687383,
        "entry_name": "thegreatbundino",
        "event_total": 61,
        "has_played": true,
        "id": 35923931,
        "last_rank": 13153,
        "player_name": "Sean Casey",
        "rank": 13628,
        "rank_sort": 13655,
        "total": 2390
      },
      {
        "club_badge_src": null,
        "entry": 5302912,
        "entry_name": "wonderkid",
        "event_total": 60,
        "has_played": true,
        "id": 41105775,
        "last_rank": 14857,
        "player_name": "Tim T",
        "rank": 13628,
        "rank_sort": 13656,
        "total": 2390
      },
      {
        "club_badge_src": null,
        "entry": 5331320,
        "entry_name": "Trust in Amorim",
        "event_total": 53,
        "has_played": true,
        "id": 41330932,
        "last_rank": 11237,
        "player_name": "Nikola Sljivic",
        "rank": 13628,
        "rank_sort": 13657,
        "total": 2390
      },
      {
        "club_badge_src": null,
        "entry": 5544893,
        "entry_name": "Mitchy van de Ven",
        "event_total": 67,
        "has_played": true,
        "id": 43270176,
        "last_rank": 19376,
        "player_name": "Jack Mitchell",
        "rank": 13628,
        "rank_sort": 13658,
        "total": 2390
      },
      {
        "club_badge_src": null,
        "entry": 5754569,
        "entry_name": "Tuchel for School",
        "event_total": 61,
        "has_played": true,
        "id": 45106801,
        "last_rank": 15416,
        "player_name": "Rene Hefer",
        "rank": 13628,
        "rank_sort": 13659,
        "total": 2390
      },
      {
        "club_badge_src": null,
        "entry": 5853642,
        "entry_name": "Bader Ashwan",
        "event_total": 48,
        "has_played": true,
        "id": 45960593,
        "last_rank": 9089,
        "player_name": "Bader Alenezi",
        "rank": 13628,
        "rank_sort": 13660,
        "total": 2390
      },
      {
        "club_badge_src": null,
        "entry": 6587166,
        "entry_name": "East Industrials",
        "event_total": 69,
        "has_played": true,
        "id": 52606827,
        "last_rank": 20826,
        "player_name": "Emil Damm",
        "rank": 13628,
        "rank_sort": 13661,
        "total": 2390
      },
      {
        "club_badge_src": null,
        "entry": 7324409,
        "entry_name": "Cry Me a River Plate",
        "event_total": 55,
        "has_played": true,
        "id": 59305647,
        "last_rank": 12200,
        "player_name": "Jonathan Adcock-Shepherd",
        "rank": 13628,
        "rank_sort": 13662,
        "total": 2390
      },
      {
        "club_badge_src": null,
        "entry": 8419367,
        "entry_name": "sa_Team",
        "event_total": 49,
        "has_played": true,
        "id": 69861426,
        "last_rank": 9536,
        "player_name": "saja bellili",
        "rank": 13628,
        "rank_sort": 13663,
        "total": 2390
      },
      {
        "club_badge_src": null,
        "entry": 8707553,
        "entry_name": "FC.ool",
        "event_total": 45,
        "has_played": true,
        "id": 72651956,
        "last_rank": 7979,
        "player_name": "Duarte Paul",
        "rank": 13628,
        "rank_sort": 13664,
        "total": 2390
      },
      {
        "club_badge_src": null,
        "entry": 8729871,
        "entry_name": "urdy",
        "event_total": 43,
        "has_played": true,
        "id": 72869905,
        "last_rank": 7375,
        "player_name": "sander urdal",
        "rank": 13628,
        "rank_sort": 13665,
        "total": 2390
      },
      {
        "club_badge_src": null,
        "entry": 9457088,
        "entry_name": "Goal Diggers",
        "event_total": 66,
        "has_played": true,
        "id": 79914377,
        "last_rank": 18655,
        "player_name": "Melissa Pisirici",
        "rank": 13628,
        "rank_sort": 13666,
        "total": 2390
      },
      {
        "club_badge_src": null,
        "entry": 808,
        "entry_name": "Guppys xGI Joes",
        "event_total": 53,
        "has_played": true,
        "id": 4465,
        "last_rank": 11237,
        "player_name": "Kishan Gupta",
        "rank": 13667,
        "rank_sort": 13667,
        "total": 2390
      },
      {
        "club_badge_src": "https://fantasy.premierleague.com/gcs/plfpl-production-adobe-approved/plfpl-production/6100/ce196113-c2be-4f8d-8433-a21c7ff1a90b.png",
        "entry": 6100,
        "entry_name": "Cash me if you can",
        "event_total": 49,
        "has_played": true,
        "id": 34916,
        "last_rank": 9536,
        "player_name": "Martin Brown",
        "rank": 13667,
        "rank_sort": 13668,
        "total": 2390
      },
      {
        "club_badge_src": "https://fantasy.premierleague.com/gcs/plfpl-production-adobe-approved/plfpl-production/6376/1985ab6c-019f-465b-9cc7-b39bfbfad47f.png",
        "entry": 6376,
        "entry_name": "Mutant Ninja Skrtels",
        "event_total": 69,
        "has_played": true,
        "id": 36567,
        "last_rank": 20888,
        "player_name": "George Wilkinson",
        "rank": 13667,
        "rank_sort": 13669,
        "total": 2390
      },
      {
        "club_badge_src": "https://fantasy.premierleague.com/gcs/plfpl-production-adobe-approved/plfpl-production/7332/bed4517e-b56e-4ec0-80c3-1654cfc03e9a.png",
        "entry": 7332,
        "entry_name": "FC RENAISSANCE",
        "event_total": 67,
        "has_played": true,
        "id": 42244,
        "last_rank": 19544,
        "player_name": "Cyril Garnier",
        "rank": 13667,
        "rank_sort": 13670,
        "total": 2390
      },
      {
        "club_badge_src": null,
        "entry": 12737,
        "entry_name": "Chelocean",
        "event_total": 49,
        "has_played": true,
        "id": 76527,
        "last_rank": 9536,
        "player_name": "Kevin Anto",
        "rank": 13667,
        "rank_sort": 13671,
        "total": 2390
      },
      {
        "club_badge_src": "https://fantasy.premierleague.com/gcs/plfpl-production-adobe-approved/plfpl-production/26300/440291d4-9d20-4f56-abd8-22900e986c99.png",
        "entry": 26300,
        "entry_name": "OakHalaMadrid",
        "event_total": 57,
        "has_played": true,
        "id": 166276,
        "last_rank": 13257,
        "player_name": "Oak Thanitboon",
        "rank": 13667,
        "rank_sort": 13672,
        "total": 2390
      },
      {
        "club_badge_src": null,
        "entry": 31193,
        "entry_name": "Bob's Bravehearts",
        "event_total": 52,
        "has_played": true,
        "id": 197602,
        "last_rank": 10805,
        "player_name": "Robert Law",
        "rank": 13667,
        "rank_sort": 13673,
        "total": 2390
      },
      {
        "club_badge_src": null,
        "entry": 32820,
        "entry_name": "vamonos",
        "event_total": 57,
        "has_played": true,
        "id": 208965,
        "last_rank": 13184,
        "player_name": "Kole Ogundipe",
        "rank": 13667,
        "rank_sort": 13674,
        "total": 2390
      },
      {
        "club_badge_src": "https://fantasy.premierleague.com/gcs/plfpl-production-adobe-approved/plfpl-production/39925/0dcccecb-b558-4f12-8cee-6b325b925ddc.png",
        "entry": 39925,
        "entry_name": "Seventh Timer",
        "event_total": 59,
        "has_played": true,
        "id": 255900,
        "last_rank": 14370,
        "player_name": "Samuel \u0160tev\u010d\u00edk",
        "rank": 13667,
        "rank_sort": 13675,
        "total": 2390
      },
      {
        "club_badge_src": "https://fantasy.premierleague.com/gcs/plfpl-production-adobe-approved/plfpl-production/48535/73c5ba0d-73e8-43a3-9e2c-2b2c23275b20.png",
        "entry": 48535,
        "entry_name": "Top Bins",
        "event_total": 57,
        "has_played": true,
        "id": 311738,
        "last_rank": 13153,
        "player_name": "Richard de Courcy",
        "rank": 13667,
        "rank_sort": 13676,
        "total": 2390
      },
      {
        "club_badge_src": null,
        "entry": 54063,
        "entry_name": "Babs F/C",
        "event_total": 61,
        "has_played": true,
        "id": 347924,
        "last_rank": 15550,
        "player_name": "Yahya Muhyedeen",
        "rank": 13667,
        "rank_sort": 13677,
        "total": 2390
      },
      {
        "club_badge_src": "https://fantasy.premierleague.com/gcs/plfpl-production-adobe-approved/plfpl-production/64669/8a3d8d19-761f-43bc-959c-2aa012c466f2.png",
        "entry": 64669,
        "entry_name": "Yamal or Never",
        "event_total": 56,
        "has_played": true,
        "id": 417410,
        "last_rank": 12645,
        "player_name": "Peter Hruby",
        "rank": 13667,
        "rank_sort": 13678,
        "total": 2390
      },
      {
        "club_badge_src": null,
        "entry": 67418,
        "entry_name": "LoveIt",
        "event_total": 62,
        "has_played": true,
        "id": 436494,
        "last_rank": 16163,
        "player_name": "Clive Hall-Tomkin",
        "rank": 13667,
        "rank_sort": 13679,
        "total": 2390
      },
      {
        "club_badge_src": null,
        "entry": 71536,
        "entry_name": "Wirtz Case Scenario",
        "event_total": 42,
        "has_played": true,
        "id": 464676,
        "last_rank": 7014,
        "player_name": "Connor John",
        "rank": 13667,
        "rank_sort": 13680,
        "total": 2390
      },
      {
        "club_badge_src": null,
        "entry": 95472,
        "entry_name": "Victor N\u00e4tverket",
        "event_total": 68,
        "has_played": true,
        "id": 623817,
        "last_rank": 20179,
        "player_name": "Victor Nystr\u00f6m",
        "rank": 13667,
        "rank_sort": 13681,
        "total": 2390
      },
      {
        "club_badge_src": null,
        "entry": 97929,
        "entry_name": "Gates_FC",
        "event_total": 46,
        "has_played": true,
        "id": 639592,
        "last_rank": 8339,
        "player_name": "Leo Nipetwa",
        "rank": 13667,
        "rank_sort": 13682,
        "total": 2390
      },
      {
        "club_badge_src": null,
        "entry": 99864,
        "entry_name": "CunhaDigItSuckaaaa",
        "event_total": 65,
        "has_played": true,
        "id": 651823,
        "last_rank": 18113,
        "player_name": "Hridhay Rajkumar",
        "rank": 13667,
        "rank_sort": 13683,
        "total": 2390
      },
      {
        "club_badge_src": null,
        "entry": 100938,
        "entry_name": "QuitByOctober",
        "event_total": 71,
        "has_played": true,
        "id": 658686,
        "last_rank": 22391,
        "player_name": "Ross Nicholls",
        "rank": 13667,
        "rank_sort": 13684,
        "total": 2390
      },
      {
        "club_badge_src": null,
        "entry": 106656,
        "entry_name": "Stanlow FC",
        "event_total": 73,
        "has_played": true,
        "id": 695403,
        "last_rank": 24143,
        "player_name": "Scott Garman",
        "rank": 13667,
        "rank_sort": 13685,
        "total": 2390
      },
      {
        "club_badge_src": null,
        "entry": 108379,
        "entry_name": "Can't get any Wirtz",
        "event_total": 65,
        "has_played": true,
        "id": 706606,
        "last_rank": 18113,
        "player_name": "Mattias Yde",
        "rank": 13667,
        "rank_sort": 13686,
        "total": 2390
      },
      {
        "club_badge_src": null,
        "entry": 120739,
        "entry_name": "Live and Let Ndiaye",
        "event_total": 72,
        "has_played": true,
        "id": 787830,
        "last_rank": 23341,
        "player_name": "Daniel Taylor",
        "rank": 13667,
        "rank_sort": 13687,
        "total": 2390
      },
      {
        "club_badge_src": null,
        "entry": 147627,
        "entry_name": "David Plattapus FC",
        "event_total": 64,
        "has_played": true,
        "id": 967520,
        "last_rank": 17358,
        "player_name": "Daniel Carson",
        "rank": 13667,
        "rank_sort": 13688,
        "total": 2390
      },
      {
        "club_badge_src": null,
        "entry": 162983,
        "entry_name": "Catches Win Matches",
        "event_total": 61,
        "has_played": true,
        "id": 1074638,
        "last_rank": 15452,
        "player_name": "Harley Dobson",
        "rank": 13667,
        "rank_sort": 13689,
        "total": 2390
      },
      {
        "club_badge_src": null,
        "entry": 217461,
        "entry_name": "Shot-Gunners",
        "event_total": 69,
        "has_played": true,
        "id": 1446224,
        "last_rank": 20888,
        "player_name": "Jimmy Zheng",
        "rank": 13667,
        "rank_sort": 13690,
        "total": 2390
      },
      {
        "club_badge_src": null,
        "entry": 246644,
        "entry_name": "Carlos Kickerballs",
        "event_total": 71,
        "has_played": true,
        "id": 1641990,
        "last_rank": 22426,
        "player_name": "Nigel Smith",
        "rank": 13667,
        "rank_sort": 13691,
        "total": 2390
      },
      {
        "club_badge_src": "https://fantasy.premierleague.com/gcs/plfpl-production-adobe-approved/plfpl-production/300201/f641b2dc-350b-4370-8161-cce8aa5f7389.png",
        "entry": 300201,
        "entry_name": "BoyBetterKnow FC",
        "event_total": 67,
        "has_played": true,
        "id": 2007887,
        "last_rank": 19544,
        "player_name": "Richard coyle",
        "rank": 13667,
        "rank_sort": 13692,
        "total": 2390
      },
      {
        "club_badge_src": "https://fantasy.premierleague.com/gcs/plfpl-production-adobe-approved/plfpl-production/302587/0b31ca30-a8ab-4fba-b987-2ceece2719a5.png",
        "entry": 302587,
        "entry_name": "cobham blues",
        "event_total": 69,
        "has_played": true,
        "id": 2025024,
        "last_rank": 20983,
        "player_name": "doniyor umarkhujaev",
        "rank": 13667,
        "rank_sort": 13693,
        "total": 2390
      },
      {
        "club_badge_src": null,
        "entry": 314900,
        "entry_name": "FPLeumas",
        "event_total": 36,
        "has_played": true,
        "id": 2110258,
        "last_rank": 5498,
        "player_name": "Leumas Mid God",
        "rank": 13667,
        "rank_sort": 13694,
        "total": 2390
      },
      {
        "club_badge_src": null,
        "entry": 326462,
        "entry_name": "Couldn't give a Monk",
        "event_total": 61,
        "has_played": true,
        "id": 2187424,
        "last_rank": 15550,
        "player_name": "john baker",
        "rank": 13667,
        "rank_sort": 13695,
        "total": 2390
      },
      {
        "club_badge_src": null,
        "entry": 327437,
        "entry_name": "Noni your buisness",
        "event_total": 70,
        "has_played": true,
        "id": 2193795,
        "last_rank": 21775,
        "player_name": "Parsa Mirjani",
        "rank": 13667,
        "rank_sort": 13696,
        "total": 2390
      },
      {
        "club_badge_src": "https://fantasy.premierleague.com/gcs/plfpl-production-adobe-approved/plfpl-production/342877/316492f6-e3fd-4f33-9a81-66e9bf194573.png",
        "entry": 342877,
        "entry_name": "Best uten ball",
        "event_total": 59,
        "has_played": true,
        "id": 2294862,
        "last_rank": 14251,
        "player_name": "Olav Kv\u00e6rum",
        "rank": 13667,
        "rank_sort": 13697,
        "total": 2390
      },
      {
        "club_badge_src": "https://fantasy.premierleague.com/gcs/plfpl-production-adobe-approved/plfpl-production/412569/d8d9f375-e3c2-4025-9947-e5d0cf293ad4.png",
        "entry": 412569,
        "entry_name": "Cole as Ice",
        "event_total": 59,
        "has_played": true,
        "id": 2766111,
        "last_rank": 14370,
        "player_name": "Bogdan W",
        "rank": 13667,
        "rank_sort": 13698,
        "total": 2390
      },
      {
        "club_badge_src": null,
        "entry": 435911,
        "entry_name": "Bowen 747",
        "event_total": 74,
        "has_played": true,
        "id": 2923040,
        "last_rank": 25002,
        "player_name": "Matthew Harrison",
        "rank": 13667,
        "rank_sort": 13699,
        "total": 2390
      },
      {
        "club_badge_src": null,
        "entry": 572346,
        "entry_name": "Hardly Athletic",
        "event_total": 63,
        "has_played": true,
        "id": 3851944,
        "last_rank": 16729,
        "player_name": "Daniel Brough",
        "rank": 13667,
        "rank_sort": 13700,
        "total": 2390
      }
    ]
  }
}