{
  "last_updated_data": "2026-05-24T23:28:17Z",
  "league": {
    "admin_entry": null,
    "closed": false,
    "code_privacy": "p",
    "created": "2025-07-20T23:14:33.933835Z",
    "cup_league": 2815434,
    "has_cup": true,
    "id": 314,
    "league_type": "s",
    "max_entries": null,
    "name": "Overall",
    "rank": null,
    "scoring": "c",
    "start_event": 1
  },
  "new_entries": {
    "has_next": false,
    "page": 1,
    "results": []
  },
  "standings": {
    "has_next": true,
    "page": 734,
    "results": [
      {
        "club_badge_src": null,
        "entry": 3768847,
        "entry_name": "PR XI",
        "event_total": 56,
        "has_played": true,
        "id": 28140445,
        "last_rank": 35619,
        "player_name": "Paul Raskauskas",
        "rank": 36510,
        "rank_sort": 36651,
        "total": 2362
      },
      {
        "club_badge_src": null,
        "entry": 3845019,
        "entry_name": "Richmond Rovers",
        "event_total": 62,
        "has_played": true,
        "id": 28818923,
        "last_rank": 42648,
        "player_name": "Curtis Fenton",
        "rank": 36510,
        "rank_sort": 36652,
        "total": 2362
      },
      {
        "club_badge_src": "https://fantasy.premierleague.com/gcs/plfpl-production-adobe-approved/plfpl-production/3854548/3f4faba4-1e3f-4ad5-a2ec-272d95a1371e.png",
        "entry": 3854548,
        "entry_name": "Charros",
        "event_total": 59,
        "has_played": true,
        "id": 28896442,
        "last_rank": 34051,
        "player_name": "Emil Lundell",
        "rank": 36510,
        "rank_sort": 36653,
        "total": 2362
      },
      {
        "club_badge_src": null,
        "entry": 3870702,
        "entry_name": "Kiss my pass",
        "event_total": 66,
        "has_played": true,
        "id": 29040232,
        "last_rank": 48363,
        "player_name": "Ian Green",
        "rank": 36510,
        "rank_sort": 36654,
        "total": 2362
      },
      {
        "club_badge_src": "https://fantasy.premierleague.com/gcs/plfpl-production-adobe-approved/plfpl-production/3883428/59e5937e-d2d2-4d2f-9e5c-6251d44933d1.png",
        "entry": 3883428,
        "entry_name": "Double12",
        "event_total": 33,
        "has_played": true,
        "id": 29180151,
        "last_rank": 15694,
        "player_name": "John Chia",
        "rank": 36510,
        "rank_sort": 36655,
        "total": 2362
      },
      {
        "club_badge_src": "https://fantasy.premierleague.com/gcs/plfpl-production-adobe-approved/plfpl-production/3914302/9a6bafd6-809e-4ee9-841c-ea84292f3cf9.png",
        "entry": 3914302,
        "entry_name": "Mouse Jiggler FC",
        "event_total": 58,
        "has_played": true,
        "id": 29431807,
        "last_rank": 37822,
        "player_name": "James Powell",
        "rank": 36510,
        "rank_sort": 36656,
        "total": 2362
      },
      {
        "club_badge_src": null,
        "entry": 3947194,
        "entry_name": "SexyFC",
        "event_total": 62,
        "has_played": true,
        "id": 29693761,
        "last_rank": 42940,
        "player_name": "Molly Paget",
        "rank": 36510,
        "rank_sort": 36657,
        "total": 2362
      },
      {
        "club_badge_src": null,
        "entry": 3995318,
        "entry_name": "Sykadelic All Stars",
        "event_total": 51,
        "has_played": true,
        "id": 30087375,
        "last_rank": 29904,
        "player_name": "Dan Sykes",
        "rank": 36510,
        "rank_sort": 36658,
        "total": 2362
      },
      {
        "club_badge_src": "https://fantasy.premierleague.com/gcs/plfpl-production-adobe-approved/plfpl-production/4146975/82b81c31-2cb1-4702-bea4-996575ab9e4e.png",
        "entry": 4146975,
        "entry_name": "Ni-AmranX22",
        "event_total": 64,
        "has_played": true,
        "id": 31343469,
        "last_rank": 40036,
        "player_name": "Run BinDing",
        "rank": 36510,
        "rank_sort": 36659,
        "total": 2362
      },
      {
        "club_badge_src": null,
        "entry": 4168926,
        "entry_name": "random",
        "event_total": 64,
        "has_played": true,
        "id": 31527860,
        "last_rank": 40036,
        "player_name": "Pavan R",
        "rank": 36510,
        "rank_sort": 36660,
        "total": 2362
      },
      {
        "club_badge_src": null,
        "entry": 4183778,
        "entry_name": "H\u00f8jlund Radio",
        "event_total": 59,
        "has_played": true,
        "id": 31654324,
        "last_rank": 34051,
        "player_name": "Gareth Peoples",
        "rank": 36510,
        "rank_sort": 36661,
        "total": 2362
      },
      {
        "club_badge_src": null,
        "entry": 4262454,
        "entry_name": "Milambo No. 5",
        "event_total": 63,
        "has_played": true,
        "id": 32318575,
        "last_rank": 44303,
        "player_name": "Clayton Meyer",
        "rank": 36510,
        "rank_sort": 36662,
        "total": 2362
      },
      {
        "club_badge_src": null,
        "entry": 4442868,
        "entry_name": "chule",
        "event_total": 59,
        "has_played": true,
        "id": 33832909,
        "last_rank": 38774,
        "player_name": "Biswas Acharya",
        "rank": 36510,
        "rank_sort": 36663,
        "total": 2362
      },
      {
        "club_badge_src": "https://fantasy.premierleague.com/gcs/plfpl-production-adobe-approved/plfpl-production/4448640/b3449c8c-6f3c-4349-b2f5-2041439ec531.png",
        "entry": 4448640,
        "entry_name": "Team Seniors only",
        "event_total": 53,
        "has_played": true,
        "id": 33881615,
        "last_rank": 31995,
        "player_name": "Vidar Holm",
        "rank": 36510,
        "rank_sort": 36664,
        "total": 2362
      },
      {
        "club_badge_src": null,
        "entry": 4462697,
        "entry_name": "A-Cunha Matata",
        "event_total": 67,
        "has_played": true,
        "id": 34000515,
        "last_rank": 50199,
        "player_name": "Lewis Elston",
        "rank": 36510,
        "rank_sort": 36665,
        "total": 2362
      },
      {
        "club_badge_src": "https://fantasy.premierleague.com/gcs/plfpl-production-adobe-approved/plfpl-production/4464796/5f128344-3ff3-4374-9cfe-de72d4bf3e01.png",
        "entry": 4464796,
        "entry_name": "Est\u00eav\u00e3o-ganza",
        "event_total": 67,
        "has_played": true,
        "id": 34017890,
        "last_rank": 50199,
        "player_name": "Aadi J",
        "rank": 36510,
        "rank_sort": 36666,
        "total": 2362
      },
      {
        "club_badge_src": null,
        "entry": 4491007,
        "entry_name": "7asb wshk fc",
        "event_total": 53,
        "has_played": true,
        "id": 34232909,
        "last_rank": 31995,
        "player_name": "El Basha",
        "rank": 36510,
        "rank_sort": 36667,
        "total": 2362
      },
      {
        "club_badge_src": null,
        "entry": 4564231,
        "entry_name": "The Special One",
        "event_total": 48,
        "has_played": true,
        "id": 34829722,
        "last_rank": 27203,
        "player_name": "Tony Godoy",
        "rank": 36510,
        "rank_sort": 36668,
        "total": 2362
      },
      {
        "club_badge_src": null,
        "entry": 4568297,
        "entry_name": "keong",
        "event_total": 65,
        "has_played": true,
        "id": 34862516,
        "last_rank": 41324,
        "player_name": "Chee Keong Koh",
        "rank": 36510,
        "rank_sort": 36669,
        "total": 2362
      },
      {
        "club_badge_src": null,
        "entry": 4589447,
        "entry_name": "Hopkins Hotspur",
        "event_total": 68,
        "has_played": true,
        "id": 35044159,
        "last_rank": 51403,
        "player_name": "Matthew Hopkins",
        "rank": 36510,
        "rank_sort": 36670,
        "total": 2362
      },
      {
        "club_badge_src": null,
        "entry": 4631199,
        "entry_name": "Adetola United",
        "event_total": 63,
        "has_played": true,
        "id": 35411873,
        "last_rank": 44303,
        "player_name": "Adetola Adegoke",
        "rank": 36510,
        "rank_sort": 36671,
        "total": 2362
      },
      {
        "club_badge_src": null,
        "entry": 4700403,
        "entry_name": "A-Cunha Matata",
        "event_total": 57,
        "has_played": true,
        "id": 36033774,
        "last_rank": 36624,
        "player_name": "Tim Pearce",
        "rank": 36510,
        "rank_sort": 36672,
        "total": 2362
      },
      {
        "club_badge_src": null,
        "entry": 4782493,
        "entry_name": "FC Tjommi",
        "event_total": 53,
        "has_played": true,
        "id": 36816434,
        "last_rank": 31995,
        "player_name": "Tommy Karlsen",
        "rank": 36510,
        "rank_sort": 36673,
        "total": 2362
      },
      {
        "club_badge_src": "https://fantasy.premierleague.com/gcs/plfpl-production-adobe-approved/plfpl-production/4870308/53b55aca-bf37-4efa-a702-8def3162953b.png",
        "entry": 4870308,
        "entry_name": "Brunoing on Fumes",
        "event_total": 69,
        "has_played": true,
        "id": 37539418,
        "last_rank": 53345,
        "player_name": "Matthew Cawdron",
        "rank": 36510,
        "rank_sort": 36674,
        "total": 2362
      },
      {
        "club_badge_src": "https://fantasy.premierleague.com/gcs/plfpl-production-adobe-approved/plfpl-production/4896274/de94be12-cff9-42b2-8a91-d4789fd850a4.png",
        "entry": 4896274,
        "entry_name": "Yubu Fc",
        "event_total": 56,
        "has_played": true,
        "id": 37753561,
        "last_rank": 35424,
        "player_name": "Ayub abdullahi Hallow",
        "rank": 36510,
        "rank_sort": 36675,
        "total": 2362
      },
      {
        "club_badge_src": null,
        "entry": 4904239,
        "entry_name": "Jalakapallolupi",
        "event_total": 51,
        "has_played": true,
        "id": 37818650,
        "last_rank": 30060,
        "player_name": "Henrikki Kainulainen",
        "rank": 36510,
        "rank_sort": 36676,
        "total": 2362
      },
      {
        "club_badge_src": null,
        "entry": 5034891,
        "entry_name": "Ryda FC",
        "event_total": 57,
        "has_played": true,
        "id": 38888839,
        "last_rank": 36348,
        "player_name": "Karl Larsson",
        "rank": 36510,
        "rank_sort": 36677,
        "total": 2362
      },
      {
        "club_badge_src": null,
        "entry": 5128702,
        "entry_name": "Slot Machines",
        "event_total": 69,
        "has_played": true,
        "id": 39663184,
        "last_rank": 53345,
        "player_name": "Christine Gregson",
        "rank": 36510,
        "rank_sort": 36678,
        "total": 2362
      },
      {
        "club_badge_src": null,
        "entry": 5129321,
        "entry_name": "Palermo Faith",
        "event_total": 57,
        "has_played": true,
        "id": 39668245,
        "last_rank": 36348,
        "player_name": "Jonathan Patterson",
        "rank": 36510,
        "rank_sort": 36679,
        "total": 2362
      },
      {
        "club_badge_src": null,
        "entry": 5201631,
        "entry_name": "Fluke Ayling",
        "event_total": 60,
        "has_played": true,
        "id": 40284831,
        "last_rank": 35034,
        "player_name": "Dom Gallon",
        "rank": 36510,
        "rank_sort": 36680,
        "total": 2362
      },
      {
        "club_badge_src": null,
        "entry": 5238414,
        "entry_name": "Croft House Athletic",
        "event_total": 87,
        "has_played": true,
        "id": 40595239,
        "last_rank": 79190,
        "player_name": "Will Carter",
        "rank": 36510,
        "rank_sort": 36681,
        "total": 2362
      },
      {
        "club_badge_src": "https://fantasy.premierleague.com/gcs/plfpl-production-adobe-approved/plfpl-production/5261171/6a436459-6f95-4e03-8098-4ba41a337326.png",
        "entry": 5261171,
        "entry_name": "Corinthian Campbells",
        "event_total": 62,
        "has_played": true,
        "id": 40776641,
        "last_rank": 42940,
        "player_name": "Campbell Blair",
        "rank": 36510,
        "rank_sort": 36682,
        "total": 2362
      },
      {
        "club_badge_src": null,
        "entry": 5377374,
        "entry_name": "Soccer",
        "event_total": 59,
        "has_played": true,
        "id": 41795541,
        "last_rank": 39023,
        "player_name": "Faisal Alsabah",
        "rank": 36510,
        "rank_sort": 36683,
        "total": 2362
      },
      {
        "club_badge_src": null,
        "entry": 5381545,
        "entry_name": "DeLap Dance",
        "event_total": 52,
        "has_played": true,
        "id": 41834082,
        "last_rank": 23230,
        "player_name": "gavin lowney",
        "rank": 36510,
        "rank_sort": 36684,
        "total": 2362
      },
      {
        "club_badge_src": "https://fantasy.premierleague.com/gcs/plfpl-production-adobe-approved/plfpl-production/5384340/72dedf5c-c32b-4f3b-bb5c-639bf32e7d91.png",
        "entry": 5384340,
        "entry_name": "BetterThanMattFC",
        "event_total": 52,
        "has_played": true,
        "id": 41857179,
        "last_rank": 30727,
        "player_name": "Sian Rodway-Smith",
        "rank": 36510,
        "rank_sort": 36685,
        "total": 2362
      },
      {
        "club_badge_src": null,
        "entry": 5479452,
        "entry_name": "Lloyds XI",
        "event_total": 53,
        "has_played": true,
        "id": 42660859,
        "last_rank": 31747,
        "player_name": "Lloyd Williams",
        "rank": 36510,
        "rank_sort": 36686,
        "total": 2362
      },
      {
        "club_badge_src": null,
        "entry": 5485664,
        "entry_name": "Haalandaise Sauce",
        "event_total": 69,
        "has_played": true,
        "id": 42718988,
        "last_rank": 53023,
        "player_name": "Kieren McIntyre",
        "rank": 36510,
        "rank_sort": 36687,
        "total": 2362
      },
      {
        "club_badge_src": null,
        "entry": 5491950,
        "entry_name": "Ekitike Taka",
        "event_total": 52,
        "has_played": true,
        "id": 42774669,
        "last_rank": 30957,
        "player_name": "Paul Whittington",
        "rank": 36510,
        "rank_sort": 36688,
        "total": 2362
      },
      {
        "club_badge_src": null,
        "entry": 5572375,
        "entry_name": "Gyok Tuah",
        "event_total": 50,
        "has_played": true,
        "id": 43514182,
        "last_rank": 24897,
        "player_name": "Josh Paulin",
        "rank": 36510,
        "rank_sort": 36689,
        "total": 2362
      },
      {
        "club_badge_src": null,
        "entry": 5582774,
        "entry_name": "Bone's Stiff Men",
        "event_total": 57,
        "has_played": true,
        "id": 43604459,
        "last_rank": 36624,
        "player_name": "Fraser Bone",
        "rank": 36510,
        "rank_sort": 36690,
        "total": 2362
      },
      {
        "club_badge_src": null,
        "entry": 5606240,
        "entry_name": "OnanasInPajamas",
        "event_total": 63,
        "has_played": true,
        "id": 43810401,
        "last_rank": 43849,
        "player_name": "Jared Morgan",
        "rank": 36510,
        "rank_sort": 36691,
        "total": 2362
      },
      {
        "club_badge_src": null,
        "entry": 5705423,
        "entry_name": "Change Name",
        "event_total": 64,
        "has_played": true,
        "id": 44674039,
        "last_rank": 45182,
        "player_name": "Dylan Shortt",
        "rank": 36510,
        "rank_sort": 36692,
        "total": 2362
      },
      {
        "club_badge_src": null,
        "entry": 5720117,
        "entry_name": "Kanonlaget",
        "event_total": 34,
        "has_played": true,
        "id": 44804016,
        "last_rank": 16062,
        "player_name": "Kim Stensnes",
        "rank": 36510,
        "rank_sort": 36693,
        "total": 2362
      },
      {
        "club_badge_src": null,
        "entry": 5766292,
        "entry_name": "Glil Yam Devils",
        "event_total": 64,
        "has_played": true,
        "id": 45206012,
        "last_rank": 45416,
        "player_name": "Asaf Michalovich",
        "rank": 36510,
        "rank_sort": 36694,
        "total": 2362
      },
      {
        "club_badge_src": null,
        "entry": 5880969,
        "entry_name": "lucky?",
        "event_total": 54,
        "has_played": true,
        "id": 46194885,
        "last_rank": 33147,
        "player_name": "Eko P",
        "rank": 36510,
        "rank_sort": 36695,
        "total": 2362
      },
      {
        "club_badge_src": null,
        "entry": 5910451,
        "entry_name": "Eze on the eye",
        "event_total": 68,
        "has_played": true,
        "id": 46445651,
        "last_rank": 51720,
        "player_name": "AF Saad",
        "rank": 36510,
        "rank_sort": 36696,
        "total": 2362
      },
      {
        "club_badge_src": null,
        "entry": 5971180,
        "entry_name": "Tomash",
        "event_total": 66,
        "has_played": true,
        "id": 46989860,
        "last_rank": 48363,
        "player_name": "Tomasz Kryger",
        "rank": 36510,
        "rank_sort": 36697,
        "total": 2362
      },
      {
        "club_badge_src": "https://fantasy.premierleague.com/gcs/plfpl-production-adobe-approved/plfpl-production/6225485/fc5b96c9-fc15-4fbc-aa63-1a4633fd0684.png",
        "entry": 6225485,
        "entry_name": "NWOKOLO III\u2122 FC",
        "event_total": 56,
        "has_played": true,
        "id": 49263317,
        "last_rank": 30727,
        "player_name": "Shotgun Shane",
        "rank": 36510,
        "rank_sort": 36698,
        "total": 2362
      },
      {
        "club_badge_src": null,
        "entry": 6250641,
        "entry_name": "Captain Pole Calmer",
        "event_total": 63,
        "has_played": true,
        "id": 49480463,
        "last_rank": 38774,
        "player_name": "Anirudh R",
        "rank": 36510,
        "rank_sort": 36699,
        "total": 2362
      },
      {
        "club_badge_src": null,
        "entry": 6270179,
        "entry_name": "Shot Caller",
        "event_total": 49,
        "has_played": true,
        "id": 49650345,
        "last_rank": 27976,
        "player_name": "Chris McHale",
        "rank": 36510,
        "rank_sort": 36700,
        "total": 2362
      }
    ]
  }
}