{
  "last_updated_data": "2026-05-24T23:28:17Z",
  "league": {
    "admin_entry": null,
    "closed": false,
    "code_privacy": "p",
    "created": "2025-07-20T23:14:33.933835Z",
    "cup_league": 2815434,
    "has_cup": true,
    "id": 314,
    "league_type": "s",
    "max_entries": null,
    "name": "Overall",
    "rank": null,
    "scoring": "c",
    "start_event": 1
  },
  "new_entries": {
    "has_next": false,
    "page": 1,
    "results": []
  },
  "standings": {
    "has_next": true,
    "page": 880,
    "results": [
      {
        "club_badge_src": null,
        "entry": 6606886,
        "entry_name": "Exclusive",
        "event_total": 61,
        "has_played": true,
        "id": 52781284,
        "last_rank": 49880,
        "player_name": "Jonathan Emdal",
        "rank": 43702,
        "rank_sort": 43951,
        "total": 2356
      },
      {
        "club_badge_src": null,
        "entry": 6653363,
        "entry_name": "peetn",
        "event_total": 64,
        "has_played": true,
        "id": 53193547,
        "last_rank": 48197,
        "player_name": "Petter Wibstad",
        "rank": 43702,
        "rank_sort": 43952,
        "total": 2356
      },
      {
        "club_badge_src": "https://fantasy.premierleague.com/gcs/plfpl-production-adobe-approved/plfpl-production/6726625/dfa7a154-0eb5-471f-934e-0f6f6f67e418.png",
        "entry": 6726625,
        "entry_name": "It's not cricket",
        "event_total": 76,
        "has_played": true,
        "id": 53837684,
        "last_rank": 77676,
        "player_name": "Neil Glass",
        "rank": 43702,
        "rank_sort": 43953,
        "total": 2356
      },
      {
        "club_badge_src": null,
        "entry": 6798464,
        "entry_name": "Beef Cherki",
        "event_total": 54,
        "has_played": true,
        "id": 54443717,
        "last_rank": 40036,
        "player_name": "Niall Concannon",
        "rank": 43702,
        "rank_sort": 43954,
        "total": 2356
      },
      {
        "club_badge_src": null,
        "entry": 6917463,
        "entry_name": "Owenator FC",
        "event_total": 67,
        "has_played": true,
        "id": 55450733,
        "last_rank": 59813,
        "player_name": "Tyler Owen",
        "rank": 43702,
        "rank_sort": 43955,
        "total": 2356
      },
      {
        "club_badge_src": null,
        "entry": 6920788,
        "entry_name": "Back Of The Neto",
        "event_total": 50,
        "has_played": true,
        "id": 55478260,
        "last_rank": 34969,
        "player_name": "James Paine",
        "rank": 43702,
        "rank_sort": 43956,
        "total": 2356
      },
      {
        "club_badge_src": null,
        "entry": 7019738,
        "entry_name": "Saka White Rice",
        "event_total": 59,
        "has_played": true,
        "id": 56385023,
        "last_rank": 46660,
        "player_name": "Molly Harris",
        "rank": 43702,
        "rank_sort": 43957,
        "total": 2356
      },
      {
        "club_badge_src": null,
        "entry": 7061234,
        "entry_name": "Kingsman FC",
        "event_total": 60,
        "has_played": true,
        "id": 56807496,
        "last_rank": 48197,
        "player_name": "Abiola Joe-Alabi",
        "rank": 43702,
        "rank_sort": 43958,
        "total": 2356
      },
      {
        "club_badge_src": null,
        "entry": 7114825,
        "entry_name": "UNKNOWN FC",
        "event_total": 52,
        "has_played": true,
        "id": 57318241,
        "last_rank": 37822,
        "player_name": "UNKNOWN FC",
        "rank": 43702,
        "rank_sort": 43959,
        "total": 2356
      },
      {
        "club_badge_src": null,
        "entry": 7161562,
        "entry_name": "Hooligans FC",
        "event_total": 68,
        "has_played": true,
        "id": 57768893,
        "last_rank": 61606,
        "player_name": "Michael Holahan",
        "rank": 43702,
        "rank_sort": 43960,
        "total": 2356
      },
      {
        "club_badge_src": null,
        "entry": 7250968,
        "entry_name": "Set and Forget",
        "event_total": 65,
        "has_played": true,
        "id": 58614577,
        "last_rank": 49691,
        "player_name": "Jose Mourinho",
        "rank": 43702,
        "rank_sort": 43961,
        "total": 2356
      },
      {
        "club_badge_src": null,
        "entry": 7320978,
        "entry_name": "Pumpa",
        "event_total": 65,
        "has_played": true,
        "id": 59272967,
        "last_rank": 56369,
        "player_name": "Phil Sheehan",
        "rank": 43702,
        "rank_sort": 43962,
        "total": 2356
      },
      {
        "club_badge_src": null,
        "entry": 7365532,
        "entry_name": "Fred Devils",
        "event_total": 73,
        "has_played": true,
        "id": 59693137,
        "last_rank": 70757,
        "player_name": "frederik Klit",
        "rank": 43702,
        "rank_sort": 43963,
        "total": 2356
      },
      {
        "club_badge_src": null,
        "entry": 7381743,
        "entry_name": "K-RAMS",
        "event_total": 61,
        "has_played": true,
        "id": 59842788,
        "last_rank": 49880,
        "player_name": "Mike Irwin",
        "rank": 43702,
        "rank_sort": 43964,
        "total": 2356
      },
      {
        "club_badge_src": null,
        "entry": 7467781,
        "entry_name": "DC Villa",
        "event_total": 82,
        "has_played": true,
        "id": 60866133,
        "last_rank": 90625,
        "player_name": "Declan Cullen",
        "rank": 43702,
        "rank_sort": 43965,
        "total": 2356
      },
      {
        "club_badge_src": null,
        "entry": 7665598,
        "entry_name": "Supa Strikas",
        "event_total": 71,
        "has_played": true,
        "id": 62860229,
        "last_rank": 67063,
        "player_name": "Siddhant Nashte",
        "rank": 43702,
        "rank_sort": 43966,
        "total": 2356
      },
      {
        "club_badge_src": null,
        "entry": 7715369,
        "entry_name": "Sparrow Legs",
        "event_total": 42,
        "has_played": true,
        "id": 63309282,
        "last_rank": 26827,
        "player_name": "Joe Slisz",
        "rank": 43702,
        "rank_sort": 43967,
        "total": 2356
      },
      {
        "club_badge_src": "https://fantasy.premierleague.com/gcs/plfpl-production-adobe-approved/plfpl-production/7927591/d4a73ebe-2ba0-402c-a861-38f9f67882f3.png",
        "entry": 7927591,
        "entry_name": "belsho",
        "event_total": 59,
        "has_played": true,
        "id": 65236994,
        "last_rank": 46839,
        "player_name": "Mohamed Elbelshashy",
        "rank": 43702,
        "rank_sort": 43968,
        "total": 2356
      },
      {
        "club_badge_src": null,
        "entry": 7947733,
        "entry_name": "\u062c\u0640\u0648\u064a\u0646",
        "event_total": 68,
        "has_played": true,
        "id": 65419077,
        "last_rank": 61411,
        "player_name": "Sir Pavel",
        "rank": 43702,
        "rank_sort": 43969,
        "total": 2356
      },
      {
        "club_badge_src": null,
        "entry": 7966280,
        "entry_name": "NMitch",
        "event_total": 55,
        "has_played": true,
        "id": 65585674,
        "last_rank": 41617,
        "player_name": "Nathan Mitchell",
        "rank": 43702,
        "rank_sort": 43970,
        "total": 2356
      },
      {
        "club_badge_src": null,
        "entry": 7967425,
        "entry_name": "mewmeww",
        "event_total": 65,
        "has_played": true,
        "id": 65595763,
        "last_rank": 56180,
        "player_name": "Mew Phattanateeradaj",
        "rank": 43702,
        "rank_sort": 43971,
        "total": 2356
      },
      {
        "club_badge_src": null,
        "entry": 8027121,
        "entry_name": "Cannonball Stef",
        "event_total": 61,
        "has_played": true,
        "id": 66129326,
        "last_rank": 49880,
        "player_name": "Stefan Leyhane",
        "rank": 43702,
        "rank_sort": 43972,
        "total": 2356
      },
      {
        "club_badge_src": null,
        "entry": 8131941,
        "entry_name": "Samwise & Frodo",
        "event_total": 70,
        "has_played": true,
        "id": 67099815,
        "last_rank": 64830,
        "player_name": "Sam Arshad-Roberts and Iain Pemberton",
        "rank": 43702,
        "rank_sort": 43973,
        "total": 2356
      },
      {
        "club_badge_src": "https://fantasy.premierleague.com/gcs/plfpl-production-adobe-approved/plfpl-production/8141246/36c8be43-2e96-40d3-9a8f-651b1bd28a33.png",
        "entry": 8141246,
        "entry_name": "Giorgia's Melonis",
        "event_total": 64,
        "has_played": true,
        "id": 67187113,
        "last_rank": 54667,
        "player_name": "Vinnie DiFilippo",
        "rank": 43702,
        "rank_sort": 43974,
        "total": 2356
      },
      {
        "club_badge_src": null,
        "entry": 8324615,
        "entry_name": "Midtable Mediocrity",
        "event_total": 59,
        "has_played": true,
        "id": 68963466,
        "last_rank": 46660,
        "player_name": "Niall Fry",
        "rank": 43702,
        "rank_sort": 43975,
        "total": 2356
      },
      {
        "club_badge_src": null,
        "entry": 8615403,
        "entry_name": "Raya Sunshine",
        "event_total": 56,
        "has_played": true,
        "id": 71746829,
        "last_rank": 42506,
        "player_name": "Sam Harry",
        "rank": 43702,
        "rank_sort": 43976,
        "total": 2356
      },
      {
        "club_badge_src": null,
        "entry": 9004292,
        "entry_name": "Toby One Kenobi Nil",
        "event_total": 67,
        "has_played": true,
        "id": 75521605,
        "last_rank": 59535,
        "player_name": "toby willis",
        "rank": 43702,
        "rank_sort": 43977,
        "total": 2356
      },
      {
        "club_badge_src": null,
        "entry": 9305176,
        "entry_name": "D-Generation XI",
        "event_total": 49,
        "has_played": true,
        "id": 78458752,
        "last_rank": 33936,
        "player_name": "Logan Kerr",
        "rank": 43702,
        "rank_sort": 43978,
        "total": 2356
      },
      {
        "club_badge_src": null,
        "entry": 9315775,
        "entry_name": "begob",
        "event_total": 51,
        "has_played": true,
        "id": 78561078,
        "last_rank": 36348,
        "player_name": "H L",
        "rank": 43702,
        "rank_sort": 43979,
        "total": 2356
      },
      {
        "club_badge_src": null,
        "entry": 9335041,
        "entry_name": "Hakuna Mateta",
        "event_total": 58,
        "has_played": true,
        "id": 78744302,
        "last_rank": 45252,
        "player_name": "Yusuf Ahmed",
        "rank": 43702,
        "rank_sort": 43980,
        "total": 2356
      },
      {
        "club_badge_src": "https://fantasy.premierleague.com/gcs/plfpl-production-adobe-approved/plfpl-production/9393351/06fe92e2-d1d4-469c-8417-0f480329e835.png",
        "entry": 9393351,
        "entry_name": "Kebabrulle FC",
        "event_total": 61,
        "has_played": true,
        "id": 79309606,
        "last_rank": 49691,
        "player_name": "Gabriel Vigil",
        "rank": 43702,
        "rank_sort": 43981,
        "total": 2356
      },
      {
        "club_badge_src": null,
        "entry": 9397921,
        "entry_name": "#Backtoback",
        "event_total": 55,
        "has_played": true,
        "id": 79353672,
        "last_rank": 41162,
        "player_name": "Paul Watkins",
        "rank": 43702,
        "rank_sort": 43982,
        "total": 2356
      },
      {
        "club_badge_src": null,
        "entry": 9441574,
        "entry_name": "LAURUS",
        "event_total": 64,
        "has_played": true,
        "id": 79769978,
        "last_rank": 54667,
        "player_name": "Laura Bridges",
        "rank": 43702,
        "rank_sort": 43983,
        "total": 2356
      },
      {
        "club_badge_src": "https://fantasy.premierleague.com/gcs/plfpl-production-adobe-approved/plfpl-production/150/6c5e6879-19f2-4da6-84f5-4d9a5090a655.png",
        "entry": 150,
        "entry_name": "@amunpalmann",
        "event_total": 58,
        "has_played": true,
        "id": 830,
        "last_rank": 45252,
        "player_name": "Amunpal Mann",
        "rank": 43984,
        "rank_sort": 43984,
        "total": 2356
      },
      {
        "club_badge_src": null,
        "entry": 285,
        "entry_name": "2 Slot 2 Handle \u2b50",
        "event_total": 54,
        "has_played": true,
        "id": 1574,
        "last_rank": 35166,
        "player_name": "Andrew O Regan",
        "rank": 43984,
        "rank_sort": 43985,
        "total": 2356
      },
      {
        "club_badge_src": "https://fantasy.premierleague.com/gcs/plfpl-production-adobe-approved/plfpl-production/1649/408b3b28-5551-4ae2-ac3c-cebf1b51c637.png",
        "entry": 1649,
        "entry_name": "Diouf Ex Machina",
        "event_total": 65,
        "has_played": true,
        "id": 9172,
        "last_rank": 49691,
        "player_name": "rhys s",
        "rank": 43984,
        "rank_sort": 43986,
        "total": 2356
      },
      {
        "club_badge_src": "https://fantasy.premierleague.com/gcs/plfpl-production-adobe-approved/plfpl-production/14625/6ec37fa9-66ef-4240-8cde-e12bdbfa70f4.png",
        "entry": 14625,
        "entry_name": "Telstars",
        "event_total": 40,
        "has_played": true,
        "id": 88929,
        "last_rank": 25172,
        "player_name": "TERRY HYNES",
        "rank": 43984,
        "rank_sort": 43987,
        "total": 2356
      },
      {
        "club_badge_src": "https://fantasy.premierleague.com/gcs/plfpl-production-adobe-approved/plfpl-production/17119/1ce2ce8b-8827-49eb-8ce5-dfec11207c8b.png",
        "entry": 17119,
        "entry_name": "bread jam and tesco",
        "event_total": 65,
        "has_played": true,
        "id": 106085,
        "last_rank": 49880,
        "player_name": "Tanmay Deshpande",
        "rank": 43984,
        "rank_sort": 43988,
        "total": 2356
      },
      {
        "club_badge_src": null,
        "entry": 20475,
        "entry_name": "Graffis 11",
        "event_total": 59,
        "has_played": true,
        "id": 127783,
        "last_rank": 41324,
        "player_name": "Elias Bj\u00f8rgve",
        "rank": 43984,
        "rank_sort": 43989,
        "total": 2356
      },
      {
        "club_badge_src": null,
        "entry": 24305,
        "entry_name": "Barrie McKay",
        "event_total": 62,
        "has_played": true,
        "id": 153392,
        "last_rank": 51137,
        "player_name": "Nathan Rebbeck",
        "rank": 43984,
        "rank_sort": 43990,
        "total": 2356
      },
      {
        "club_badge_src": null,
        "entry": 27658,
        "entry_name": "Motorway Rooster",
        "event_total": 51,
        "has_played": true,
        "id": 174863,
        "last_rank": 36831,
        "player_name": "Simon Spackman",
        "rank": 43984,
        "rank_sort": 43991,
        "total": 2356
      },
      {
        "club_badge_src": "https://fantasy.premierleague.com/gcs/plfpl-production-adobe-approved/plfpl-production/31236/3fdedfe5-9448-4320-a9e4-c51134b9227a.png",
        "entry": 31236,
        "entry_name": "Soungoutoulez-Vous",
        "event_total": 51,
        "has_played": true,
        "id": 197886,
        "last_rank": 36624,
        "player_name": "Jack Tew",
        "rank": 43984,
        "rank_sort": 43992,
        "total": 2356
      },
      {
        "club_badge_src": "https://fantasy.premierleague.com/gcs/plfpl-production-adobe-approved/plfpl-production/34384/7345bc97-80f0-4991-bb25-b894aa3b1acf.png",
        "entry": 34384,
        "entry_name": "Redditor's Predators",
        "event_total": 64,
        "has_played": true,
        "id": 219622,
        "last_rank": 55014,
        "player_name": "Jack Ukiah",
        "rank": 43984,
        "rank_sort": 43993,
        "total": 2356
      },
      {
        "club_badge_src": null,
        "entry": 39883,
        "entry_name": "Bijol and End-All",
        "event_total": 65,
        "has_played": true,
        "id": 255639,
        "last_rank": 49880,
        "player_name": "Vincent L",
        "rank": 43984,
        "rank_sort": 43994,
        "total": 2356
      },
      {
        "club_badge_src": null,
        "entry": 40135,
        "entry_name": "Moomin on up",
        "event_total": 62,
        "has_played": true,
        "id": 257305,
        "last_rank": 51720,
        "player_name": "Tom Crompton",
        "rank": 43984,
        "rank_sort": 43995,
        "total": 2356
      },
      {
        "club_badge_src": "https://fantasy.premierleague.com/gcs/plfpl-production-adobe-approved/plfpl-production/40692/0dd217af-8b72-4bf3-a47d-864ea578e14d.png",
        "entry": 40692,
        "entry_name": "Meowsy's Magic",
        "event_total": 79,
        "has_played": true,
        "id": 260819,
        "last_rank": 83934,
        "player_name": "Luke McDermott",
        "rank": 43984,
        "rank_sort": 43996,
        "total": 2356
      },
      {
        "club_badge_src": null,
        "entry": 47300,
        "entry_name": "ItsUpForGrabsNow",
        "event_total": 49,
        "has_played": true,
        "id": 303341,
        "last_rank": 34458,
        "player_name": "Tommy Kevil",
        "rank": 43984,
        "rank_sort": 43997,
        "total": 2356
      },
      {
        "club_badge_src": "https://fantasy.premierleague.com/gcs/plfpl-production-adobe-approved/plfpl-production/51128/ac26986a-9312-45e0-a186-08285c07feaf.png",
        "entry": 51128,
        "entry_name": "Amazing Spider-Team",
        "event_total": 44,
        "has_played": true,
        "id": 328850,
        "last_rank": 28906,
        "player_name": "Balagopal K.V.",
        "rank": 43984,
        "rank_sort": 43998,
        "total": 2356
      },
      {
        "club_badge_src": "https://fantasy.premierleague.com/gcs/plfpl-production-adobe-approved/plfpl-production/51415/d94c5555-7a5f-4665-b46d-a6aeee419f5b.png",
        "entry": 51415,
        "entry_name": "Wirtz up Doc!",
        "event_total": 58,
        "has_played": true,
        "id": 330678,
        "last_rank": 45714,
        "player_name": "Douye Appah",
        "rank": 43984,
        "rank_sort": 43999,
        "total": 2356
      },
      {
        "club_badge_src": null,
        "entry": 54062,
        "entry_name": "Deanos Dreamos",
        "event_total": 51,
        "has_played": true,
        "id": 347918,
        "last_rank": 36624,
        "player_name": "Dean Adamson",
        "rank": 43984,
        "rank_sort": 44000,
        "total": 2356
      }
    ]
  }
}