{
  "last_updated_data": "2026-05-24T23:28:17Z",
  "league": {
    "admin_entry": null,
    "closed": false,
    "code_privacy": "p",
    "created": "2025-07-20T23:14:33.933835Z",
    "cup_league": 2815434,
    "has_cup": true,
    "id": 314,
    "league_type": "s",
    "max_entries": null,
    "name": "Overall",
    "rank": null,
    "scoring": "c",
    "start_event": 1
  },
  "new_entries": {
    "has_next": false,
    "page": 1,
    "results": []
  },
  "standings": {
    "has_next": true,
    "page": 1555,
    "results": [
      {
        "club_badge_src": null,
        "entry": 4962735,
        "entry_name": "IdiAminAPickle",
        "event_total": 58,
        "has_played": true,
        "id": 38297463,
        "last_rank": 81312,
        "player_name": "Reeve Dixon",
        "rank": 77615,
        "rank_sort": 77701,
        "total": 2336
      },
      {
        "club_badge_src": null,
        "entry": 5136135,
        "entry_name": "Barbz FC",
        "event_total": 55,
        "has_played": true,
        "id": 39726829,
        "last_rank": 74898,
        "player_name": "Babalola Oyediran",
        "rank": 77615,
        "rank_sort": 77702,
        "total": 2336
      },
      {
        "club_badge_src": null,
        "entry": 5216331,
        "entry_name": "Gunners",
        "event_total": 51,
        "has_played": true,
        "id": 40412378,
        "last_rank": 66848,
        "player_name": "Simon Cornwall",
        "rank": 77615,
        "rank_sort": 77703,
        "total": 2336
      },
      {
        "club_badge_src": null,
        "entry": 5228008,
        "entry_name": "Hirsty work",
        "event_total": 39,
        "has_played": true,
        "id": 40510750,
        "last_rank": 46839,
        "player_name": "Nathan Poole",
        "rank": 77615,
        "rank_sort": 77704,
        "total": 2336
      },
      {
        "club_badge_src": null,
        "entry": 5235615,
        "entry_name": "Change Name",
        "event_total": 65,
        "has_played": true,
        "id": 40572565,
        "last_rank": 98436,
        "player_name": "Harrison Ellis",
        "rank": 77615,
        "rank_sort": 77705,
        "total": 2336
      },
      {
        "club_badge_src": null,
        "entry": 5259348,
        "entry_name": "Sik Tik FC",
        "event_total": 66,
        "has_played": true,
        "id": 40761799,
        "last_rank": 100572,
        "player_name": "Tiran Gohil",
        "rank": 77615,
        "rank_sort": 77706,
        "total": 2336
      },
      {
        "club_badge_src": null,
        "entry": 5272876,
        "entry_name": "Change Name",
        "event_total": 62,
        "has_played": true,
        "id": 40868462,
        "last_rank": 90625,
        "player_name": "Louis Williams",
        "rank": 77615,
        "rank_sort": 77707,
        "total": 2336
      },
      {
        "club_badge_src": null,
        "entry": 5334193,
        "entry_name": "MaybeThisYear",
        "event_total": 66,
        "has_played": true,
        "id": 41354138,
        "last_rank": 100572,
        "player_name": "Srijan Bagdas",
        "rank": 77615,
        "rank_sort": 77708,
        "total": 2336
      },
      {
        "club_badge_src": null,
        "entry": 5347391,
        "entry_name": "BIG FOWKE",
        "event_total": 57,
        "has_played": true,
        "id": 41495169,
        "last_rank": 79431,
        "player_name": "Jamie Fowke",
        "rank": 77615,
        "rank_sort": 77709,
        "total": 2336
      },
      {
        "club_badge_src": null,
        "entry": 5381944,
        "entry_name": "Volvic Fc",
        "event_total": 33,
        "has_played": true,
        "id": 41837529,
        "last_rank": 38774,
        "player_name": "Karan Hayre",
        "rank": 77615,
        "rank_sort": 77710,
        "total": 2336
      },
      {
        "club_badge_src": null,
        "entry": 5419771,
        "entry_name": "Van de Ven Diagram",
        "event_total": 71,
        "has_played": true,
        "id": 42151601,
        "last_rank": 114169,
        "player_name": "Rosie McCabe",
        "rank": 77615,
        "rank_sort": 77711,
        "total": 2336
      },
      {
        "club_badge_src": null,
        "entry": 5453867,
        "entry_name": "Tela Pongo FC",
        "event_total": 61,
        "has_played": true,
        "id": 42440976,
        "last_rank": 88348,
        "player_name": "Ignacio Mont\u00fa",
        "rank": 77615,
        "rank_sort": 77712,
        "total": 2336
      },
      {
        "club_badge_src": null,
        "entry": 5492961,
        "entry_name": "Bruno Dos Tres",
        "event_total": 64,
        "has_played": true,
        "id": 42783701,
        "last_rank": 95464,
        "player_name": "Ethan Cleary",
        "rank": 77615,
        "rank_sort": 77713,
        "total": 2336
      },
      {
        "club_badge_src": null,
        "entry": 5559620,
        "entry_name": "Red Slot Chili Peps",
        "event_total": 62,
        "has_played": true,
        "id": 43401418,
        "last_rank": 91006,
        "player_name": "Sam Norris",
        "rank": 77615,
        "rank_sort": 77714,
        "total": 2336
      },
      {
        "club_badge_src": null,
        "entry": 5601805,
        "entry_name": "ayew shaw?",
        "event_total": 51,
        "has_played": true,
        "id": 43771933,
        "last_rank": 66848,
        "player_name": "Ben Stewart",
        "rank": 77615,
        "rank_sort": 77715,
        "total": 2336
      },
      {
        "club_badge_src": null,
        "entry": 5657313,
        "entry_name": "Az's Jatt AllStarz",
        "event_total": 34,
        "has_played": true,
        "id": 44258987,
        "last_rank": 39816,
        "player_name": "Aran Dhaliwal",
        "rank": 77615,
        "rank_sort": 77716,
        "total": 2336
      },
      {
        "club_badge_src": null,
        "entry": 5698124,
        "entry_name": "mestari",
        "event_total": 53,
        "has_played": true,
        "id": 44611836,
        "last_rank": 70985,
        "player_name": "Ville Erkkil\u00e4",
        "rank": 77615,
        "rank_sort": 77717,
        "total": 2336
      },
      {
        "club_badge_src": null,
        "entry": 5747664,
        "entry_name": "Black Raven Fc",
        "event_total": 66,
        "has_played": true,
        "id": 45046482,
        "last_rank": 100700,
        "player_name": "Gary Owen",
        "rank": 77615,
        "rank_sort": 77718,
        "total": 2336
      },
      {
        "club_badge_src": null,
        "entry": 5861831,
        "entry_name": "PanaBoyzz",
        "event_total": 55,
        "has_played": true,
        "id": 46032326,
        "last_rank": 75139,
        "player_name": "Junger Vargas",
        "rank": 77615,
        "rank_sort": 77719,
        "total": 2336
      },
      {
        "club_badge_src": null,
        "entry": 5970243,
        "entry_name": "Rexi Fc",
        "event_total": 61,
        "has_played": true,
        "id": 46979368,
        "last_rank": 88348,
        "player_name": "Endrit Rexhaj",
        "rank": 77615,
        "rank_sort": 77720,
        "total": 2336
      },
      {
        "club_badge_src": null,
        "entry": 6006702,
        "entry_name": "Goks Wonders",
        "event_total": 68,
        "has_played": true,
        "id": 47357388,
        "last_rank": 106259,
        "player_name": "Frankie Hart",
        "rank": 77615,
        "rank_sort": 77721,
        "total": 2336
      },
      {
        "club_badge_src": null,
        "entry": 6105041,
        "entry_name": "Melloul oussama",
        "event_total": 59,
        "has_played": true,
        "id": 48220562,
        "last_rank": 83584,
        "player_name": "Melloul Melloul",
        "rank": 77615,
        "rank_sort": 77722,
        "total": 2336
      },
      {
        "club_badge_src": null,
        "entry": 6107362,
        "entry_name": "Slot right in",
        "event_total": 36,
        "has_played": true,
        "id": 48240459,
        "last_rank": 42506,
        "player_name": "Matev\u017e Postra\u0161ija",
        "rank": 77615,
        "rank_sort": 77723,
        "total": 2336
      },
      {
        "club_badge_src": null,
        "entry": 6145598,
        "entry_name": "Baldies",
        "event_total": 60,
        "has_played": true,
        "id": 48574313,
        "last_rank": 86304,
        "player_name": "Conor Brogan",
        "rank": 77615,
        "rank_sort": 77724,
        "total": 2336
      },
      {
        "club_badge_src": null,
        "entry": 6148105,
        "entry_name": "ifyoulikepinacolada",
        "event_total": 53,
        "has_played": true,
        "id": 48596133,
        "last_rank": 70985,
        "player_name": "Paul Meyer",
        "rank": 77615,
        "rank_sort": 77725,
        "total": 2336
      },
      {
        "club_badge_src": null,
        "entry": 6200200,
        "entry_name": "Say it ain't Sesko",
        "event_total": 59,
        "has_played": true,
        "id": 49047179,
        "last_rank": 83934,
        "player_name": "Jack Littler",
        "rank": 77615,
        "rank_sort": 77726,
        "total": 2336
      },
      {
        "club_badge_src": null,
        "entry": 6205224,
        "entry_name": "Lost for Wirtz",
        "event_total": 73,
        "has_played": true,
        "id": 49090415,
        "last_rank": 119846,
        "player_name": "Matt Stronge",
        "rank": 77615,
        "rank_sort": 77727,
        "total": 2336
      },
      {
        "club_badge_src": null,
        "entry": 6214457,
        "entry_name": "Cool Away Kit",
        "event_total": 66,
        "has_played": true,
        "id": 49169336,
        "last_rank": 100700,
        "player_name": "Jeremy Hancock",
        "rank": 77615,
        "rank_sort": 77728,
        "total": 2336
      },
      {
        "club_badge_src": null,
        "entry": 6238210,
        "entry_name": "Lowbee Technologies",
        "event_total": 69,
        "has_played": true,
        "id": 49373301,
        "last_rank": 108959,
        "player_name": "Abiodun Okono",
        "rank": 77615,
        "rank_sort": 77729,
        "total": 2336
      },
      {
        "club_badge_src": null,
        "entry": 6245306,
        "entry_name": "Pukki Blinders",
        "event_total": 63,
        "has_played": true,
        "id": 49434315,
        "last_rank": 93052,
        "player_name": "Dane Edwards",
        "rank": 77615,
        "rank_sort": 77730,
        "total": 2336
      },
      {
        "club_badge_src": null,
        "entry": 6259261,
        "entry_name": "Sesko Club Card",
        "event_total": 42,
        "has_played": true,
        "id": 49555531,
        "last_rank": 51220,
        "player_name": "Ashley Fernandes",
        "rank": 77615,
        "rank_sort": 77731,
        "total": 2336
      },
      {
        "club_badge_src": null,
        "entry": 6300825,
        "entry_name": "tafs",
        "event_total": 59,
        "has_played": true,
        "id": 49952893,
        "last_rank": 83934,
        "player_name": "Nicolas Clerc",
        "rank": 77615,
        "rank_sort": 77732,
        "total": 2336
      },
      {
        "club_badge_src": null,
        "entry": 6401344,
        "entry_name": "Power Reijnders",
        "event_total": 79,
        "has_played": true,
        "id": 50931544,
        "last_rank": 139016,
        "player_name": "Yasser zeyad",
        "rank": 77615,
        "rank_sort": 77733,
        "total": 2336
      },
      {
        "club_badge_src": null,
        "entry": 6501170,
        "entry_name": "Marti FC",
        "event_total": 60,
        "has_played": true,
        "id": 51832440,
        "last_rank": 85932,
        "player_name": "Alex Martinez",
        "rank": 77615,
        "rank_sort": 77734,
        "total": 2336
      },
      {
        "club_badge_src": null,
        "entry": 6630237,
        "entry_name": "Saka White Rice",
        "event_total": 51,
        "has_played": true,
        "id": 52989698,
        "last_rank": 67063,
        "player_name": "Olivier Mutebwa",
        "rank": 77615,
        "rank_sort": 77735,
        "total": 2336
      },
      {
        "club_badge_src": null,
        "entry": 6747875,
        "entry_name": "don't stop bELINvin!",
        "event_total": 51,
        "has_played": true,
        "id": 54019758,
        "last_rank": 67063,
        "player_name": "Elin Owen",
        "rank": 77615,
        "rank_sort": 77736,
        "total": 2336
      },
      {
        "club_badge_src": null,
        "entry": 6809523,
        "entry_name": "YakuBull FC",
        "event_total": 71,
        "has_played": true,
        "id": 54535437,
        "last_rank": 114095,
        "player_name": "John Turnbull",
        "rank": 77615,
        "rank_sort": 77737,
        "total": 2336
      },
      {
        "club_badge_src": null,
        "entry": 7079084,
        "entry_name": "Salgueiro7",
        "event_total": 60,
        "has_played": true,
        "id": 56976856,
        "last_rank": 85932,
        "player_name": "F\u00e1bio Salgueiro",
        "rank": 77615,
        "rank_sort": 77738,
        "total": 2336
      },
      {
        "club_badge_src": null,
        "entry": 7245572,
        "entry_name": "Liam FC",
        "event_total": 64,
        "has_played": true,
        "id": 58561025,
        "last_rank": 95640,
        "player_name": "Liam Mcdonagh",
        "rank": 77615,
        "rank_sort": 77739,
        "total": 2336
      },
      {
        "club_badge_src": null,
        "entry": 7315428,
        "entry_name": "Livin' Saliba Loca",
        "event_total": 45,
        "has_played": true,
        "id": 59221043,
        "last_rank": 56369,
        "player_name": "Georgia Harvey",
        "rank": 77615,
        "rank_sort": 77740,
        "total": 2336
      },
      {
        "club_badge_src": null,
        "entry": 7315899,
        "entry_name": "Fionn MacGoal",
        "event_total": 55,
        "has_played": true,
        "id": 59225715,
        "last_rank": 74898,
        "player_name": "Fionn Maggs",
        "rank": 77615,
        "rank_sort": 77741,
        "total": 2336
      },
      {
        "club_badge_src": null,
        "entry": 7431437,
        "entry_name": "FantasyGommie00",
        "event_total": 53,
        "has_played": true,
        "id": 60389657,
        "last_rank": 70985,
        "player_name": "Colin Scanlon",
        "rank": 77615,
        "rank_sort": 77742,
        "total": 2336
      },
      {
        "club_badge_src": null,
        "entry": 7664837,
        "entry_name": "ultraglorious",
        "event_total": 52,
        "has_played": true,
        "id": 62852670,
        "last_rank": 68624,
        "player_name": "Eric Grono",
        "rank": 77615,
        "rank_sort": 77743,
        "total": 2336
      },
      {
        "club_badge_src": null,
        "entry": 7718819,
        "entry_name": "Tesco McNeil Deal",
        "event_total": 52,
        "has_played": true,
        "id": 63340217,
        "last_rank": 68957,
        "player_name": "Chris Jones",
        "rank": 77615,
        "rank_sort": 77744,
        "total": 2336
      },
      {
        "club_badge_src": null,
        "entry": 7918991,
        "entry_name": "Silencer247",
        "event_total": 42,
        "has_played": true,
        "id": 65159995,
        "last_rank": 51403,
        "player_name": "Damilola Aluede",
        "rank": 77615,
        "rank_sort": 77745,
        "total": 2336
      },
      {
        "club_badge_src": null,
        "entry": 7958597,
        "entry_name": "bagingou teme",
        "event_total": 56,
        "has_played": true,
        "id": 65517938,
        "last_rank": 77258,
        "player_name": "Milor Ayoub",
        "rank": 77615,
        "rank_sort": 77746,
        "total": 2336
      },
      {
        "club_badge_src": null,
        "entry": 7959161,
        "entry_name": "Ex-Salah Enjoyer",
        "event_total": 30,
        "has_played": true,
        "id": 65523038,
        "last_rank": 35166,
        "player_name": "Jeryl Ong",
        "rank": 77615,
        "rank_sort": 77747,
        "total": 2336
      },
      {
        "club_badge_src": null,
        "entry": 8084262,
        "entry_name": "Team C",
        "event_total": 53,
        "has_played": true,
        "id": 66654684,
        "last_rank": 70757,
        "player_name": "Camilla Lyngsmo Nilsen",
        "rank": 77615,
        "rank_sort": 77748,
        "total": 2336
      },
      {
        "club_badge_src": null,
        "entry": 8245477,
        "entry_name": "omarinuoo",
        "event_total": 52,
        "has_played": true,
        "id": 68180288,
        "last_rank": 68957,
        "player_name": "Omar Abughazy",
        "rank": 77615,
        "rank_sort": 77749,
        "total": 2336
      },
      {
        "club_badge_src": null,
        "entry": 8716757,
        "entry_name": "Sid",
        "event_total": 66,
        "has_played": true,
        "id": 72742250,
        "last_rank": 100700,
        "player_name": "ashley norton",
        "rank": 77615,
        "rank_sort": 77750,
        "total": 2336
      }
    ]
  }
}