{
  "last_updated_data": "2026-05-24T23:28:17Z",
  "league": {
    "admin_entry": null,
    "closed": false,
    "code_privacy": "p",
    "created": "2025-07-20T23:14:33.933835Z",
    "cup_league": 2815434,
    "has_cup": true,
    "id": 314,
    "league_type": "s",
    "max_entries": null,
    "name": "Overall",
    "rank": null,
    "scoring": "c",
    "start_event": 1
  },
  "new_entries": {
    "has_next": false,
    "page": 1,
    "results": []
  },
  "standings": {
    "has_next": true,
    "page": 1522,
    "results": [
      {
        "club_badge_src": null,
        "entry": 127530,
        "entry_name": "Jivkovo City",
        "event_total": 56,
        "has_played": true,
        "id": 831349,
        "last_rank": 75139,
        "player_name": "Ivan Angelov",
        "rank": 76012,
        "rank_sort": 76051,
        "total": 2337
      },
      {
        "club_badge_src": "https://fantasy.premierleague.com/gcs/plfpl-production-adobe-approved/plfpl-production/131077/cb9b63e8-93d6-4511-8c3b-fcd7a8ecfe7e.png",
        "entry": 131077,
        "entry_name": "I\u2019ll Lavia forever",
        "event_total": 66,
        "has_played": true,
        "id": 854037,
        "last_rank": 98896,
        "player_name": "Vaggelis Skrinis",
        "rank": 76012,
        "rank_sort": 76052,
        "total": 2337
      },
      {
        "club_badge_src": null,
        "entry": 131948,
        "entry_name": "Elthe Kyrie",
        "event_total": 76,
        "has_played": true,
        "id": 859578,
        "last_rank": 126408,
        "player_name": "Ebube Oragwuncha",
        "rank": 76012,
        "rank_sort": 76053,
        "total": 2337
      },
      {
        "club_badge_src": "https://fantasy.premierleague.com/gcs/plfpl-production-adobe-approved/plfpl-production/137407/206abbf8-f5ca-40a1-8bf7-3a9e12a6f88d.png",
        "entry": 137407,
        "entry_name": "SakaXhakaLaca",
        "event_total": 67,
        "has_played": true,
        "id": 895676,
        "last_rank": 90625,
        "player_name": "Giorgi Tezelashvili",
        "rank": 76012,
        "rank_sort": 76054,
        "total": 2337
      },
      {
        "club_badge_src": null,
        "entry": 139181,
        "entry_name": "neu",
        "event_total": 63,
        "has_played": true,
        "id": 908277,
        "last_rank": 81420,
        "player_name": "Oyindamola Salami",
        "rank": 76012,
        "rank_sort": 76055,
        "total": 2337
      },
      {
        "club_badge_src": "https://fantasy.premierleague.com/gcs/plfpl-production-adobe-approved/plfpl-production/164580/e57cdfb2-9eda-4f44-bf85-8f2be15a3068.png",
        "entry": 164580,
        "entry_name": "Obispo FC",
        "event_total": 64,
        "has_played": true,
        "id": 1086207,
        "last_rank": 83934,
        "player_name": "Toby Bishop",
        "rank": 76012,
        "rank_sort": 76056,
        "total": 2337
      },
      {
        "club_badge_src": null,
        "entry": 168536,
        "entry_name": "Cunha Taste It?",
        "event_total": 49,
        "has_played": true,
        "id": 1113887,
        "last_rank": 54667,
        "player_name": "Josef Hughes",
        "rank": 76012,
        "rank_sort": 76057,
        "total": 2337
      },
      {
        "club_badge_src": null,
        "entry": 176214,
        "entry_name": "Pravha Baggies",
        "event_total": 39,
        "has_played": true,
        "id": 1163267,
        "last_rank": 45714,
        "player_name": "Josh Southall",
        "rank": 76012,
        "rank_sort": 76058,
        "total": 2337
      },
      {
        "club_badge_src": "https://fantasy.premierleague.com/gcs/plfpl-production-adobe-approved/plfpl-production/186432/0a91aa95-9a28-4525-9e26-78ae01f3f447.png",
        "entry": 186432,
        "entry_name": "Pep a Pig",
        "event_total": 64,
        "has_played": true,
        "id": 1232110,
        "last_rank": 93443,
        "player_name": "Dylan Mulder",
        "rank": 76012,
        "rank_sort": 76059,
        "total": 2337
      },
      {
        "club_badge_src": null,
        "entry": 199270,
        "entry_name": "Fabritius FC",
        "event_total": 63,
        "has_played": true,
        "id": 1322523,
        "last_rank": 91006,
        "player_name": "Peder Sj\u00f8bakk Lund",
        "rank": 76012,
        "rank_sort": 76060,
        "total": 2337
      },
      {
        "club_badge_src": null,
        "entry": 209568,
        "entry_name": "Grays Athletic",
        "event_total": 60,
        "has_played": true,
        "id": 1393675,
        "last_rank": 75139,
        "player_name": "Jack Gray",
        "rank": 76012,
        "rank_sort": 76061,
        "total": 2337
      },
      {
        "club_badge_src": null,
        "entry": 213759,
        "entry_name": "Quo Vadimus",
        "event_total": 57,
        "has_played": true,
        "id": 1422003,
        "last_rank": 77676,
        "player_name": "Michael Owiredu",
        "rank": 76012,
        "rank_sort": 76062,
        "total": 2337
      },
      {
        "club_badge_src": null,
        "entry": 221187,
        "entry_name": "bbbbbb",
        "event_total": 69,
        "has_played": true,
        "id": 1471094,
        "last_rank": 106259,
        "player_name": "Pariti Thongmitr",
        "rank": 76012,
        "rank_sort": 76063,
        "total": 2337
      },
      {
        "club_badge_src": "https://fantasy.premierleague.com/gcs/plfpl-production-adobe-approved/plfpl-production/221761/08f86b93-5664-42d8-8049-c43ac9d60d96.png",
        "entry": 221761,
        "entry_name": "Ismail FC",
        "event_total": 62,
        "has_played": true,
        "id": 1474977,
        "last_rank": 89055,
        "player_name": "Ismail Elsherif",
        "rank": 76012,
        "rank_sort": 76064,
        "total": 2337
      },
      {
        "club_badge_src": null,
        "entry": 225968,
        "entry_name": "Rocks",
        "event_total": 45,
        "has_played": true,
        "id": 1503233,
        "last_rank": 48197,
        "player_name": "Gin Toki",
        "rank": 76012,
        "rank_sort": 76065,
        "total": 2337
      },
      {
        "club_badge_src": "https://fantasy.premierleague.com/gcs/plfpl-production-adobe-approved/plfpl-production/235944/fbe1a487-6e95-49c0-a333-9b84b36d65aa.png",
        "entry": 235944,
        "entry_name": "Brennan Jerry's",
        "event_total": 67,
        "has_played": true,
        "id": 1569932,
        "last_rank": 91006,
        "player_name": "Caroline Kirk",
        "rank": 76012,
        "rank_sort": 76066,
        "total": 2337
      },
      {
        "club_badge_src": null,
        "entry": 248653,
        "entry_name": "Perfect days",
        "event_total": 63,
        "has_played": true,
        "id": 1654891,
        "last_rank": 91006,
        "player_name": "Khaled- Mahmoud",
        "rank": 76012,
        "rank_sort": 76067,
        "total": 2337
      },
      {
        "club_badge_src": null,
        "entry": 257339,
        "entry_name": "Poetry & Power",
        "event_total": 60,
        "has_played": true,
        "id": 1711431,
        "last_rank": 84360,
        "player_name": "Chandru Relwani",
        "rank": 76012,
        "rank_sort": 76068,
        "total": 2337
      },
      {
        "club_badge_src": null,
        "entry": 257872,
        "entry_name": "Sporting Abeergut",
        "event_total": 62,
        "has_played": true,
        "id": 1714849,
        "last_rank": 89055,
        "player_name": "gavin mooney",
        "rank": 76012,
        "rank_sort": 76069,
        "total": 2337
      },
      {
        "club_badge_src": "https://fantasy.premierleague.com/gcs/plfpl-production-adobe-approved/plfpl-production/264427/c164cedb-1e4d-416e-af60-a605a2c389b8.png",
        "entry": 264427,
        "entry_name": "Team Bratwirtz",
        "event_total": 56,
        "has_played": true,
        "id": 1758414,
        "last_rank": 75537,
        "player_name": "Jon Bekkevoll",
        "rank": 76012,
        "rank_sort": 76070,
        "total": 2337
      },
      {
        "club_badge_src": null,
        "entry": 266659,
        "entry_name": "Boaty's Babes",
        "event_total": 41,
        "has_played": true,
        "id": 1773816,
        "last_rank": 48363,
        "player_name": "Terry Boatwright",
        "rank": 76012,
        "rank_sort": 76071,
        "total": 2337
      },
      {
        "club_badge_src": "https://fantasy.premierleague.com/gcs/plfpl-production-adobe-approved/plfpl-production/273420/d9c34bb4-daa5-4a43-9d90-3a1f2308ab23.png",
        "entry": 273420,
        "entry_name": "Jenny de Giraffe",
        "event_total": 60,
        "has_played": true,
        "id": 1819319,
        "last_rank": 83698,
        "player_name": "J Aravind",
        "rank": 76012,
        "rank_sort": 76072,
        "total": 2337
      },
      {
        "club_badge_src": null,
        "entry": 275661,
        "entry_name": "Kebab FC",
        "event_total": 68,
        "has_played": true,
        "id": 1834683,
        "last_rank": 103526,
        "player_name": "Pawe\u0142 Groborz",
        "rank": 76012,
        "rank_sort": 76073,
        "total": 2337
      },
      {
        "club_badge_src": null,
        "entry": 283391,
        "entry_name": "NotTallJustSolanke",
        "event_total": 61,
        "has_played": true,
        "id": 1886657,
        "last_rank": 86054,
        "player_name": "Darren Baylis",
        "rank": 76012,
        "rank_sort": 76074,
        "total": 2337
      },
      {
        "club_badge_src": null,
        "entry": 287364,
        "entry_name": "Mitro\u2019s on Fire",
        "event_total": 60,
        "has_played": true,
        "id": 1915055,
        "last_rank": 83698,
        "player_name": "Zivorad Milic",
        "rank": 76012,
        "rank_sort": 76075,
        "total": 2337
      },
      {
        "club_badge_src": null,
        "entry": 287583,
        "entry_name": "A7med 3ta",
        "event_total": 53,
        "has_played": true,
        "id": 1916539,
        "last_rank": 69323,
        "player_name": "A7med 3ta",
        "rank": 76012,
        "rank_sort": 76076,
        "total": 2337
      },
      {
        "club_badge_src": null,
        "entry": 293048,
        "entry_name": "Team Anne",
        "event_total": 46,
        "has_played": true,
        "id": 1955886,
        "last_rank": 56708,
        "player_name": "Anne H\u00e5land",
        "rank": 76012,
        "rank_sort": 76077,
        "total": 2337
      },
      {
        "club_badge_src": null,
        "entry": 296453,
        "entry_name": "Dave's Giants",
        "event_total": 52,
        "has_played": true,
        "id": 1980769,
        "last_rank": 67422,
        "player_name": "Dave Rogers",
        "rank": 76012,
        "rank_sort": 76078,
        "total": 2337
      },
      {
        "club_badge_src": "https://fantasy.premierleague.com/gcs/plfpl-production-adobe-approved/plfpl-production/302100/cba39475-7478-446d-8b8b-61535ae7129f.png",
        "entry": 302100,
        "entry_name": "the North remembers",
        "event_total": 48,
        "has_played": true,
        "id": 2021567,
        "last_rank": 60168,
        "player_name": "Aleksandar Nikolov",
        "rank": 76012,
        "rank_sort": 76079,
        "total": 2337
      },
      {
        "club_badge_src": "https://fantasy.premierleague.com/gcs/plfpl-production-adobe-approved/plfpl-production/341837/957a263e-7c19-492a-af5f-b58fd1ba7e6e.png",
        "entry": 341837,
        "entry_name": "PingPongFrimPong",
        "event_total": 75,
        "has_played": true,
        "id": 2288011,
        "last_rank": 111669,
        "player_name": "Jens-Joachim Jensen",
        "rank": 76012,
        "rank_sort": 76080,
        "total": 2337
      },
      {
        "club_badge_src": "https://fantasy.premierleague.com/gcs/plfpl-production-adobe-approved/plfpl-production/342777/d057d90c-d47a-4592-85da-4ebe3c124171.png",
        "entry": 342777,
        "entry_name": "The Konate Kid",
        "event_total": 52,
        "has_played": true,
        "id": 2294202,
        "last_rank": 67422,
        "player_name": "J\u00f8rgen Fjeld Nilsen",
        "rank": 76012,
        "rank_sort": 76081,
        "total": 2337
      },
      {
        "club_badge_src": null,
        "entry": 352945,
        "entry_name": "Difficult place 2 go",
        "event_total": 52,
        "has_played": true,
        "id": 2362184,
        "last_rank": 67422,
        "player_name": "Johan Karlsson",
        "rank": 76012,
        "rank_sort": 76082,
        "total": 2337
      },
      {
        "club_badge_src": null,
        "entry": 360108,
        "entry_name": "FC Thunderbolt",
        "event_total": 58,
        "has_played": true,
        "id": 2409669,
        "last_rank": 79190,
        "player_name": "Nazmus Sakib Khan",
        "rank": 76012,
        "rank_sort": 76083,
        "total": 2337
      },
      {
        "club_badge_src": "https://fantasy.premierleague.com/gcs/plfpl-production-adobe-approved/plfpl-production/383736/efcb3a2f-230e-45e8-b91a-7b3b5ebc8ed9.png",
        "entry": 383736,
        "entry_name": "Bellako Saka",
        "event_total": 48,
        "has_played": true,
        "id": 2573548,
        "last_rank": 60168,
        "player_name": "Alvaro Jimenez",
        "rank": 76012,
        "rank_sort": 76084,
        "total": 2337
      },
      {
        "club_badge_src": null,
        "entry": 402738,
        "entry_name": "Netoflix & chill",
        "event_total": 64,
        "has_played": true,
        "id": 2700486,
        "last_rank": 93443,
        "player_name": "Luka Niemi",
        "rank": 76012,
        "rank_sort": 76085,
        "total": 2337
      },
      {
        "club_badge_src": null,
        "entry": 403974,
        "entry_name": "KramarOFF\u2665\ufe0fWHITE",
        "event_total": 61,
        "has_played": true,
        "id": 2708707,
        "last_rank": 77050,
        "player_name": "Dmitri Kramarov",
        "rank": 76012,
        "rank_sort": 76086,
        "total": 2337
      },
      {
        "club_badge_src": null,
        "entry": 432129,
        "entry_name": "Zizo",
        "event_total": 60,
        "has_played": true,
        "id": 2898168,
        "last_rank": 84360,
        "player_name": "Akeel Zizo --",
        "rank": 76012,
        "rank_sort": 76087,
        "total": 2337
      },
      {
        "club_badge_src": null,
        "entry": 439869,
        "entry_name": "FPL NOOB",
        "event_total": 70,
        "has_played": true,
        "id": 2949536,
        "last_rank": 98436,
        "player_name": "WAN NAZRIN",
        "rank": 76012,
        "rank_sort": 76088,
        "total": 2337
      },
      {
        "club_badge_src": null,
        "entry": 443105,
        "entry_name": "Come back Vardy Fox",
        "event_total": 55,
        "has_played": true,
        "id": 2970837,
        "last_rank": 73423,
        "player_name": "Steve Tester",
        "rank": 76012,
        "rank_sort": 76089,
        "total": 2337
      },
      {
        "club_badge_src": null,
        "entry": 455111,
        "entry_name": "Mask of Porro",
        "event_total": 65,
        "has_played": true,
        "id": 3053162,
        "last_rank": 96374,
        "player_name": "chris hendley",
        "rank": 76012,
        "rank_sort": 76090,
        "total": 2337
      },
      {
        "club_badge_src": null,
        "entry": 473547,
        "entry_name": "Netflix FC",
        "event_total": 68,
        "has_played": true,
        "id": 3179171,
        "last_rank": 103526,
        "player_name": "Atle Hovdenakk",
        "rank": 76012,
        "rank_sort": 76091,
        "total": 2337
      },
      {
        "club_badge_src": null,
        "entry": 473775,
        "entry_name": "\u2b50\ufe0f\u2b50\ufe0f\u2b50\ufe0f\u2b50\ufe0f\u2b50\ufe0f",
        "event_total": 60,
        "has_played": true,
        "id": 3180715,
        "last_rank": 84360,
        "player_name": "Aneil Ladva",
        "rank": 76012,
        "rank_sort": 76092,
        "total": 2337
      },
      {
        "club_badge_src": null,
        "entry": 481757,
        "entry_name": "WIRTZ CASE SCENARIO",
        "event_total": 65,
        "has_played": true,
        "id": 3234200,
        "last_rank": 96374,
        "player_name": "oliver derry",
        "rank": 76012,
        "rank_sort": 76093,
        "total": 2337
      },
      {
        "club_badge_src": null,
        "entry": 500069,
        "entry_name": "Sporting pisowat",
        "event_total": 64,
        "has_played": true,
        "id": 3356114,
        "last_rank": 93883,
        "player_name": "maalainine Larabasse",
        "rank": 76012,
        "rank_sort": 76094,
        "total": 2337
      },
      {
        "club_badge_src": null,
        "entry": 500692,
        "entry_name": "Saka Jaka Tanaka",
        "event_total": 47,
        "has_played": true,
        "id": 3360177,
        "last_rank": 58071,
        "player_name": "Hal Rastelli",
        "rank": 76012,
        "rank_sort": 76095,
        "total": 2337
      },
      {
        "club_badge_src": null,
        "entry": 505516,
        "entry_name": "Football not Saka",
        "event_total": 58,
        "has_played": true,
        "id": 3392995,
        "last_rank": 79431,
        "player_name": "Max Kami\u0144ski",
        "rank": 76012,
        "rank_sort": 76096,
        "total": 2337
      },
      {
        "club_badge_src": null,
        "entry": 521491,
        "entry_name": "ValidFC",
        "event_total": 53,
        "has_played": true,
        "id": 3502247,
        "last_rank": 69641,
        "player_name": "walid kehail",
        "rank": 76012,
        "rank_sort": 76097,
        "total": 2337
      },
      {
        "club_badge_src": null,
        "entry": 527638,
        "entry_name": "Nunn the Wissa",
        "event_total": 58,
        "has_played": true,
        "id": 3547125,
        "last_rank": 79431,
        "player_name": "Michael Nunn",
        "rank": 76012,
        "rank_sort": 76098,
        "total": 2337
      },
      {
        "club_badge_src": null,
        "entry": 529394,
        "entry_name": "Manchester United\u26bd\ufe0f",
        "event_total": 53,
        "has_played": true,
        "id": 3559851,
        "last_rank": 68748,
        "player_name": "Mohamed Nasr",
        "rank": 76012,
        "rank_sort": 76099,
        "total": 2337
      },
      {
        "club_badge_src": null,
        "entry": 529725,
        "entry_name": "Howards Heroes",
        "event_total": 62,
        "has_played": true,
        "id": 3562176,
        "last_rank": 88594,
        "player_name": "Joe Howard",
        "rank": 76012,
        "rank_sort": 76100,
        "total": 2337
      }
    ]
  }
}