{
  "last_updated_data": "2026-05-24T23:28:17Z",
  "league": {
    "admin_entry": null,
    "closed": false,
    "code_privacy": "p",
    "created": "2025-07-20T23:14:33.933835Z",
    "cup_league": 2815434,
    "has_cup": true,
    "id": 314,
    "league_type": "s",
    "max_entries": null,
    "name": "Overall",
    "rank": null,
    "scoring": "c",
    "start_event": 1
  },
  "new_entries": {
    "has_next": false,
    "page": 1,
    "results": []
  },
  "standings": {
    "has_next": true,
    "page": 1622,
    "results": [
      {
        "club_badge_src": null,
        "entry": 3099179,
        "entry_name": "Mounts93",
        "event_total": 57,
        "has_played": true,
        "id": 22849340,
        "last_rank": 73423,
        "player_name": "Alex Mountain",
        "rank": 80913,
        "rank_sort": 81051,
        "total": 2335
      },
      {
        "club_badge_src": null,
        "entry": 3100028,
        "entry_name": "Ali",
        "event_total": 60,
        "has_played": true,
        "id": 22855875,
        "last_rank": 80194,
        "player_name": "Ali Sharafani",
        "rank": 80913,
        "rank_sort": 81052,
        "total": 2335
      },
      {
        "club_badge_src": null,
        "entry": 3112550,
        "entry_name": "Declan Slice",
        "event_total": 49,
        "has_played": true,
        "id": 22968489,
        "last_rank": 66057,
        "player_name": "Chris Thompson",
        "rank": 80913,
        "rank_sort": 81053,
        "total": 2335
      },
      {
        "club_badge_src": null,
        "entry": 3385599,
        "entry_name": "BobiRmdhn",
        "event_total": 58,
        "has_played": true,
        "id": 25132672,
        "last_rank": 84980,
        "player_name": "bobi ramadhan",
        "rank": 80913,
        "rank_sort": 81054,
        "total": 2335
      },
      {
        "club_badge_src": null,
        "entry": 3415078,
        "entry_name": "Top Gunners",
        "event_total": 73,
        "has_played": true,
        "id": 25365077,
        "last_rank": 124682,
        "player_name": "John Mc Callion",
        "rank": 80913,
        "rank_sort": 81055,
        "total": 2335
      },
      {
        "club_badge_src": null,
        "entry": 3418443,
        "entry_name": "GEMY",
        "event_total": 51,
        "has_played": true,
        "id": 25391440,
        "last_rank": 70072,
        "player_name": "mohamed gamal",
        "rank": 80913,
        "rank_sort": 81056,
        "total": 2335
      },
      {
        "club_badge_src": null,
        "entry": 3451915,
        "entry_name": "Flawless Viktor-y",
        "event_total": 57,
        "has_played": true,
        "id": 25652712,
        "last_rank": 82873,
        "player_name": "Mark Thomsett",
        "rank": 80913,
        "rank_sort": 81057,
        "total": 2335
      },
      {
        "club_badge_src": null,
        "entry": 3543017,
        "entry_name": "Oberon FC",
        "event_total": 60,
        "has_played": true,
        "id": 26373765,
        "last_rank": 89426,
        "player_name": "Ob Oberon",
        "rank": 80913,
        "rank_sort": 81058,
        "total": 2335
      },
      {
        "club_badge_src": "https://fantasy.premierleague.com/gcs/plfpl-production-adobe-approved/plfpl-production/3583256/eab1c935-b026-4019-8833-b08bb14b1e77.png",
        "entry": 3583256,
        "entry_name": "Sampstad FC",
        "event_total": 56,
        "has_played": true,
        "id": 26684056,
        "last_rank": 80194,
        "player_name": "Cato Myrstad",
        "rank": 80913,
        "rank_sort": 81059,
        "total": 2335
      },
      {
        "club_badge_src": null,
        "entry": 3699350,
        "entry_name": "Rice & Chili",
        "event_total": 59,
        "has_played": true,
        "id": 27600814,
        "last_rank": 87350,
        "player_name": "Christofer Ewert",
        "rank": 80913,
        "rank_sort": 81060,
        "total": 2335
      },
      {
        "club_badge_src": null,
        "entry": 3936978,
        "entry_name": "Cold Palmer FC",
        "event_total": 56,
        "has_played": true,
        "id": 29614297,
        "last_rank": 80194,
        "player_name": "Suheil Dhirani",
        "rank": 80913,
        "rank_sort": 81061,
        "total": 2335
      },
      {
        "club_badge_src": null,
        "entry": 4067896,
        "entry_name": "BLITZENIX",
        "event_total": 44,
        "has_played": true,
        "id": 30701583,
        "last_rank": 44303,
        "player_name": "Shishir Bhattarai",
        "rank": 80913,
        "rank_sort": 81062,
        "total": 2335
      },
      {
        "club_badge_src": null,
        "entry": 4069634,
        "entry_name": "Gy\u00f6k Tuah",
        "event_total": 51,
        "has_played": true,
        "id": 30715725,
        "last_rank": 62223,
        "player_name": "Jordan Riley",
        "rank": 80913,
        "rank_sort": 81063,
        "total": 2335
      },
      {
        "club_badge_src": null,
        "entry": 4171240,
        "entry_name": "Kante Touch This",
        "event_total": 58,
        "has_played": true,
        "id": 31547488,
        "last_rank": 84980,
        "player_name": "Johan Persson",
        "rank": 80913,
        "rank_sort": 81064,
        "total": 2335
      },
      {
        "club_badge_src": null,
        "entry": 4188028,
        "entry_name": "Never a Doubt",
        "event_total": 65,
        "has_played": true,
        "id": 31689322,
        "last_rank": 102125,
        "player_name": "Phil Dolling",
        "rank": 80913,
        "rank_sort": 81065,
        "total": 2335
      },
      {
        "club_badge_src": null,
        "entry": 4192340,
        "entry_name": "Luzerpul",
        "event_total": 65,
        "has_played": true,
        "id": 31727951,
        "last_rank": 102125,
        "player_name": "Mihailo Vukojicic",
        "rank": 80913,
        "rank_sort": 81066,
        "total": 2335
      },
      {
        "club_badge_src": null,
        "entry": 4204119,
        "entry_name": "NeverReallyWon",
        "event_total": 63,
        "has_played": true,
        "id": 31825606,
        "last_rank": 97096,
        "player_name": "Dej Maxwell",
        "rank": 80913,
        "rank_sort": 81067,
        "total": 2335
      },
      {
        "club_badge_src": null,
        "entry": 4218987,
        "entry_name": "HeWearsTheNumber20",
        "event_total": 58,
        "has_played": true,
        "id": 31954270,
        "last_rank": 75537,
        "player_name": "Liam Murray",
        "rank": 80913,
        "rank_sort": 81068,
        "total": 2335
      },
      {
        "club_badge_src": null,
        "entry": 4228237,
        "entry_name": "haCunha Mateta",
        "event_total": 55,
        "has_played": true,
        "id": 32034891,
        "last_rank": 78244,
        "player_name": "AbdulMuiz Osinowo",
        "rank": 80913,
        "rank_sort": 81069,
        "total": 2335
      },
      {
        "club_badge_src": null,
        "entry": 4240347,
        "entry_name": "Phobia",
        "event_total": 60,
        "has_played": true,
        "id": 32136800,
        "last_rank": 80194,
        "player_name": "AHMED DiNHO",
        "rank": 80913,
        "rank_sort": 81070,
        "total": 2335
      },
      {
        "club_badge_src": null,
        "entry": 4244194,
        "entry_name": "Krul and The Gang",
        "event_total": 33,
        "has_played": true,
        "id": 32168295,
        "last_rank": 40647,
        "player_name": "Jake Lines",
        "rank": 80913,
        "rank_sort": 81071,
        "total": 2335
      },
      {
        "club_badge_src": null,
        "entry": 4244793,
        "entry_name": "ITACHI",
        "event_total": 71,
        "has_played": true,
        "id": 32173226,
        "last_rank": 118654,
        "player_name": "Nasro Saa",
        "rank": 80913,
        "rank_sort": 81072,
        "total": 2335
      },
      {
        "club_badge_src": null,
        "entry": 4359705,
        "entry_name": "T-baggers",
        "event_total": 54,
        "has_played": true,
        "id": 33111723,
        "last_rank": 76330,
        "player_name": "Tanya Emmett",
        "rank": 80913,
        "rank_sort": 81073,
        "total": 2335
      },
      {
        "club_badge_src": null,
        "entry": 4369836,
        "entry_name": "Skkamukja",
        "event_total": 53,
        "has_played": true,
        "id": 33197601,
        "last_rank": 73720,
        "player_name": "seokki hong",
        "rank": 80913,
        "rank_sort": 81074,
        "total": 2335
      },
      {
        "club_badge_src": null,
        "entry": 4447354,
        "entry_name": "ahmedfadhul10",
        "event_total": 78,
        "has_played": true,
        "id": 33871091,
        "last_rank": 127384,
        "player_name": "Ahmed fadhul",
        "rank": 80913,
        "rank_sort": 81075,
        "total": 2335
      },
      {
        "club_badge_src": null,
        "entry": 4539715,
        "entry_name": "MACdeMARCOS FC II",
        "event_total": 64,
        "has_played": true,
        "id": 34633376,
        "last_rank": 99596,
        "player_name": "Mac Maquez",
        "rank": 80913,
        "rank_sort": 81076,
        "total": 2335
      },
      {
        "club_badge_src": null,
        "entry": 4613601,
        "entry_name": "ChampagneSuperRovers",
        "event_total": 68,
        "has_played": true,
        "id": 35257720,
        "last_rank": 109863,
        "player_name": "Robert Burnett",
        "rank": 80913,
        "rank_sort": 81077,
        "total": 2335
      },
      {
        "club_badge_src": null,
        "entry": 4636541,
        "entry_name": "shiko",
        "event_total": 31,
        "has_played": true,
        "id": 35457014,
        "last_rank": 28906,
        "player_name": "Mohamed Shiko",
        "rank": 80913,
        "rank_sort": 81078,
        "total": 2335
      },
      {
        "club_badge_src": null,
        "entry": 4710245,
        "entry_name": "DusBen",
        "event_total": 70,
        "has_played": true,
        "id": 36135846,
        "last_rank": 104388,
        "player_name": "Du\u0161an Benko",
        "rank": 80913,
        "rank_sort": 81079,
        "total": 2335
      },
      {
        "club_badge_src": null,
        "entry": 4739859,
        "entry_name": "Roo Devils",
        "event_total": 62,
        "has_played": true,
        "id": 36469294,
        "last_rank": 84731,
        "player_name": "Robbie Donohue",
        "rank": 80913,
        "rank_sort": 81080,
        "total": 2335
      },
      {
        "club_badge_src": null,
        "entry": 4744565,
        "entry_name": "Shaw Thing United",
        "event_total": 36,
        "has_played": true,
        "id": 36506960,
        "last_rank": 44672,
        "player_name": "Craig Shaw",
        "rank": 80913,
        "rank_sort": 81081,
        "total": 2335
      },
      {
        "club_badge_src": null,
        "entry": 4941562,
        "entry_name": "Foden Doku Ao Tanaka",
        "event_total": 57,
        "has_played": true,
        "id": 38127215,
        "last_rank": 73720,
        "player_name": "Carlos Neto",
        "rank": 80913,
        "rank_sort": 81082,
        "total": 2335
      },
      {
        "club_badge_src": null,
        "entry": 4968166,
        "entry_name": "Change Name",
        "event_total": 56,
        "has_played": true,
        "id": 38341053,
        "last_rank": 80465,
        "player_name": "Evan Jarman",
        "rank": 80913,
        "rank_sort": 81083,
        "total": 2335
      },
      {
        "club_badge_src": null,
        "entry": 5040118,
        "entry_name": "Real Rascals",
        "event_total": 49,
        "has_played": true,
        "id": 38931453,
        "last_rank": 66057,
        "player_name": "Becks Soccer All Stars",
        "rank": 80913,
        "rank_sort": 81084,
        "total": 2335
      },
      {
        "club_badge_src": null,
        "entry": 5144197,
        "entry_name": "Toonali Army",
        "event_total": 60,
        "has_played": true,
        "id": 39795083,
        "last_rank": 89706,
        "player_name": "Josh Eales",
        "rank": 80913,
        "rank_sort": 81085,
        "total": 2335
      },
      {
        "club_badge_src": "https://fantasy.premierleague.com/gcs/plfpl-production-adobe-approved/plfpl-production/5158507/0afbbfeb-9c99-42b5-a1cc-06f6fc66c2c5.png",
        "entry": 5158507,
        "entry_name": "BeeeLucky",
        "event_total": 36,
        "has_played": true,
        "id": 39915429,
        "last_rank": 44672,
        "player_name": "Kevin Walsh",
        "rank": 80913,
        "rank_sort": 81086,
        "total": 2335
      },
      {
        "club_badge_src": null,
        "entry": 5190200,
        "entry_name": "bleep bloop",
        "event_total": 55,
        "has_played": true,
        "id": 40181227,
        "last_rank": 78244,
        "player_name": "Dwaipayan Chaudhuri",
        "rank": 80913,
        "rank_sort": 81087,
        "total": 2335
      },
      {
        "club_badge_src": null,
        "entry": 5307819,
        "entry_name": "taziki",
        "event_total": 50,
        "has_played": true,
        "id": 41144071,
        "last_rank": 67926,
        "player_name": "David Sacco",
        "rank": 80913,
        "rank_sort": 81088,
        "total": 2335
      },
      {
        "club_badge_src": null,
        "entry": 5324076,
        "entry_name": "Ridiculous Tactics 2",
        "event_total": 45,
        "has_played": true,
        "id": 41273098,
        "last_rank": 58911,
        "player_name": "Will Volante",
        "rank": 80913,
        "rank_sort": 81089,
        "total": 2335
      },
      {
        "club_badge_src": "https://fantasy.premierleague.com/gcs/plfpl-production-adobe-approved/plfpl-production/5429715/9ce13ada-4ec6-4e2a-9d05-6c666e5c57c5.png",
        "entry": 5429715,
        "entry_name": "3lDE 11",
        "event_total": 59,
        "has_played": true,
        "id": 42234128,
        "last_rank": 87074,
        "player_name": "laid ra",
        "rank": 80913,
        "rank_sort": 81090,
        "total": 2335
      },
      {
        "club_badge_src": null,
        "entry": 5469293,
        "entry_name": "Muggins Moochers",
        "event_total": 49,
        "has_played": true,
        "id": 42569064,
        "last_rank": 66057,
        "player_name": "Nicholas Ricks",
        "rank": 80913,
        "rank_sort": 81091,
        "total": 2335
      },
      {
        "club_badge_src": null,
        "entry": 5474227,
        "entry_name": "Arsenal",
        "event_total": 42,
        "has_played": true,
        "id": 42614441,
        "last_rank": 53837,
        "player_name": "Dejan Mihailovski",
        "rank": 80913,
        "rank_sort": 81092,
        "total": 2335
      },
      {
        "club_badge_src": null,
        "entry": 5558026,
        "entry_name": "Dynamo Dunder",
        "event_total": 55,
        "has_played": true,
        "id": 43387619,
        "last_rank": 69323,
        "player_name": "Marcus Sj\u00f6str\u00f6m",
        "rank": 80913,
        "rank_sort": 81093,
        "total": 2335
      },
      {
        "club_badge_src": null,
        "entry": 5634779,
        "entry_name": "The Warriors",
        "event_total": 62,
        "has_played": true,
        "id": 44059723,
        "last_rank": 94255,
        "player_name": "Jen Balfour",
        "rank": 80913,
        "rank_sort": 81094,
        "total": 2335
      },
      {
        "club_badge_src": null,
        "entry": 5742401,
        "entry_name": "\u010cech Mate",
        "event_total": 57,
        "has_played": true,
        "id": 45001198,
        "last_rank": 82398,
        "player_name": "Jack Tucker",
        "rank": 80913,
        "rank_sort": 81095,
        "total": 2335
      },
      {
        "club_badge_src": null,
        "entry": 5866198,
        "entry_name": "HomerBSharp",
        "event_total": 71,
        "has_played": true,
        "id": 46074246,
        "last_rank": 107162,
        "player_name": "g kane",
        "rank": 80913,
        "rank_sort": 81096,
        "total": 2335
      },
      {
        "club_badge_src": null,
        "entry": 5925036,
        "entry_name": "Hersey",
        "event_total": 62,
        "has_played": true,
        "id": 46574018,
        "last_rank": 84731,
        "player_name": "Mark Lidierth",
        "rank": 80913,
        "rank_sort": 81097,
        "total": 2335
      },
      {
        "club_badge_src": null,
        "entry": 5926429,
        "entry_name": "Sharon FC",
        "event_total": 77,
        "has_played": true,
        "id": 46586098,
        "last_rank": 137440,
        "player_name": "Luke Ingledew",
        "rank": 80913,
        "rank_sort": 81098,
        "total": 2335
      },
      {
        "club_badge_src": null,
        "entry": 6101066,
        "entry_name": "Ruben FC",
        "event_total": 67,
        "has_played": true,
        "id": 48184928,
        "last_rank": 106763,
        "player_name": "Ruben Enslin",
        "rank": 80913,
        "rank_sort": 81099,
        "total": 2335
      },
      {
        "club_badge_src": null,
        "entry": 6132007,
        "entry_name": "Thierno DingleBarry",
        "event_total": 60,
        "has_played": true,
        "id": 48456364,
        "last_rank": 80194,
        "player_name": "Dingle Berry",
        "rank": 80913,
        "rank_sort": 81100,
        "total": 2335
      }
    ]
  }
}