{
  "last_updated_data": "2026-05-24T23:28:17Z",
  "league": {
    "admin_entry": null,
    "closed": false,
    "code_privacy": "p",
    "created": "2025-07-20T23:14:33.933835Z",
    "cup_league": 2815434,
    "has_cup": true,
    "id": 314,
    "league_type": "s",
    "max_entries": null,
    "name": "Overall",
    "rank": null,
    "scoring": "c",
    "start_event": 1
  },
  "new_entries": {
    "has_next": false,
    "page": 1,
    "results": []
  },
  "standings": {
    "has_next": true,
    "page": 1389,
    "results": [
      {
        "club_badge_src": null,
        "entry": 1674263,
        "entry_name": "Kinder Mbeumo",
        "event_total": 73,
        "has_played": true,
        "id": 11721658,
        "last_rank": 108264,
        "player_name": "Marcus D-Alessandro",
        "rank": 69394,
        "rank_sort": 69401,
        "total": 2341
      },
      {
        "club_badge_src": null,
        "entry": 1768608,
        "entry_name": "Osama Ahmed",
        "event_total": 47,
        "has_played": true,
        "id": 12423838,
        "last_rank": 52632,
        "player_name": "Osama Ahmed Algad",
        "rank": 69394,
        "rank_sort": 69402,
        "total": 2341
      },
      {
        "club_badge_src": "https://fantasy.premierleague.com/gcs/plfpl-production-adobe-approved/plfpl-production/2338423/2d1eee6f-4310-41d5-ad23-d5a6eb8df53f.png",
        "entry": 2338423,
        "entry_name": "FC Champion",
        "event_total": 48,
        "has_played": true,
        "id": 16685094,
        "last_rank": 54291,
        "player_name": "Ahmed abdelwehab",
        "rank": 69394,
        "rank_sort": 69403,
        "total": 2341
      },
      {
        "club_badge_src": null,
        "entry": 2541426,
        "entry_name": "H.R",
        "event_total": 57,
        "has_played": true,
        "id": 18214239,
        "last_rank": 70471,
        "player_name": "Hamada Elremozy",
        "rank": 69394,
        "rank_sort": 69404,
        "total": 2341
      },
      {
        "club_badge_src": "https://fantasy.premierleague.com/gcs/plfpl-production-adobe-approved/plfpl-production/2666540/c0b707b9-481b-4d44-88f8-ce5a04aab7b7.png",
        "entry": 2666540,
        "entry_name": "Leo Invincibles",
        "event_total": 56,
        "has_played": true,
        "id": 19170166,
        "last_rank": 68460,
        "player_name": "Abdulsalam Ademola",
        "rank": 69394,
        "rank_sort": 69405,
        "total": 2341
      },
      {
        "club_badge_src": null,
        "entry": 3227256,
        "entry_name": "Hoofin Hamsters FC",
        "event_total": 50,
        "has_played": true,
        "id": 23866829,
        "last_rank": 57619,
        "player_name": "James Everett",
        "rank": 69394,
        "rank_sort": 69406,
        "total": 2341
      },
      {
        "club_badge_src": null,
        "entry": 3992807,
        "entry_name": "Han United",
        "event_total": 29,
        "has_played": true,
        "id": 30066803,
        "last_rank": 25653,
        "player_name": "Hannah Tucker",
        "rank": 69394,
        "rank_sort": 69407,
        "total": 2341
      },
      {
        "club_badge_src": null,
        "entry": 7182691,
        "entry_name": "SHELENI FC",
        "event_total": 76,
        "has_played": true,
        "id": 57971255,
        "last_rank": 105483,
        "player_name": "Zibu Mhlophe",
        "rank": 69394,
        "rank_sort": 69408,
        "total": 2341
      },
      {
        "club_badge_src": null,
        "entry": 8792262,
        "entry_name": "Abdul Aziz Jbara",
        "event_total": 45,
        "has_played": true,
        "id": 73469775,
        "last_rank": 43657,
        "player_name": "Abdul Aziz Jbara",
        "rank": 69394,
        "rank_sort": 69409,
        "total": 2341
      },
      {
        "club_badge_src": null,
        "entry": 52793,
        "entry_name": "The Cesc Pistols",
        "event_total": 65,
        "has_played": true,
        "id": 339461,
        "last_rank": 78852,
        "player_name": "James Oborne",
        "rank": 69410,
        "rank_sort": 69410,
        "total": 2341
      },
      {
        "club_badge_src": null,
        "entry": 207601,
        "entry_name": "The Mighty O's",
        "event_total": 50,
        "has_played": true,
        "id": 1379948,
        "last_rank": 45034,
        "player_name": "Rob Doran",
        "rank": 69410,
        "rank_sort": 69411,
        "total": 2341
      },
      {
        "club_badge_src": "https://fantasy.premierleague.com/gcs/plfpl-production-adobe-approved/plfpl-production/321484/dc9b5551-9269-44b5-bfed-2a15417f5c5a.png",
        "entry": 321484,
        "entry_name": "Kickers FC",
        "event_total": 70,
        "has_played": true,
        "id": 2154499,
        "last_rank": 90386,
        "player_name": "Senthil 158",
        "rank": 69410,
        "rank_sort": 69412,
        "total": 2341
      },
      {
        "club_badge_src": null,
        "entry": 370368,
        "entry_name": "The ghost",
        "event_total": 52,
        "has_played": true,
        "id": 2478357,
        "last_rank": 54268,
        "player_name": "Oussama ANAJAR",
        "rank": 69410,
        "rank_sort": 69413,
        "total": 2341
      },
      {
        "club_badge_src": null,
        "entry": 438887,
        "entry_name": "Branch Man",
        "event_total": 62,
        "has_played": true,
        "id": 2943032,
        "last_rank": 72524,
        "player_name": "Wahab Yusuf",
        "rank": 69410,
        "rank_sort": 69414,
        "total": 2341
      },
      {
        "club_badge_src": null,
        "entry": 834060,
        "entry_name": "Messrs Masters",
        "event_total": 56,
        "has_played": true,
        "id": 5713177,
        "last_rank": 61139,
        "player_name": "Stephen Watkins",
        "rank": 69410,
        "rank_sort": 69415,
        "total": 2341
      },
      {
        "club_badge_src": "https://fantasy.premierleague.com/gcs/plfpl-production-adobe-approved/plfpl-production/879325/df19b864-7e0f-4604-b14a-868a60461aa2.png",
        "entry": 879325,
        "entry_name": "topic",
        "event_total": 86,
        "has_played": true,
        "id": 6029841,
        "last_rank": 148711,
        "player_name": "Ahmed Omar",
        "rank": 69410,
        "rank_sort": 69416,
        "total": 2341
      },
      {
        "club_badge_src": "https://fantasy.premierleague.com/gcs/plfpl-production-adobe-approved/plfpl-production/1720213/b718ccc3-ac59-48ff-8f9e-416c914e9d8b.png",
        "entry": 1720213,
        "entry_name": "Martin Luther Skelly",
        "event_total": 76,
        "has_played": true,
        "id": 12056465,
        "last_rank": 95248,
        "player_name": "Oliver Cox",
        "rank": 69410,
        "rank_sort": 69417,
        "total": 2341
      },
      {
        "club_badge_src": null,
        "entry": 1735032,
        "entry_name": "noobdehtam",
        "event_total": 54,
        "has_played": true,
        "id": 12171723,
        "last_rank": 64677,
        "player_name": "Unique Gaming",
        "rank": 69410,
        "rank_sort": 69418,
        "total": 2341
      },
      {
        "club_badge_src": null,
        "entry": 1774591,
        "entry_name": "slotball",
        "event_total": 46,
        "has_played": true,
        "id": 12466534,
        "last_rank": 51047,
        "player_name": "Daan van Donk",
        "rank": 69410,
        "rank_sort": 69419,
        "total": 2341
      },
      {
        "club_badge_src": null,
        "entry": 1924444,
        "entry_name": "Ciao Pedro",
        "event_total": 41,
        "has_played": true,
        "id": 13572042,
        "last_rank": 33768,
        "player_name": "Harry Lynn",
        "rank": 69410,
        "rank_sort": 69420,
        "total": 2341
      },
      {
        "club_badge_src": "https://fantasy.premierleague.com/gcs/plfpl-production-adobe-approved/plfpl-production/2346689/fb899364-3bbf-4268-9f8e-76a0500c69e9.png",
        "entry": 2346689,
        "entry_name": "Hakuna Mateta",
        "event_total": 78,
        "has_played": true,
        "id": 16744486,
        "last_rank": 111001,
        "player_name": "Nidhal Ben Jbara",
        "rank": 69410,
        "rank_sort": 69421,
        "total": 2341
      },
      {
        "club_badge_src": null,
        "entry": 2408232,
        "entry_name": "Munaye-Fan\ufffd",
        "event_total": 68,
        "has_played": true,
        "id": 17213748,
        "last_rank": 95281,
        "player_name": "BAHU VERSION",
        "rank": 69410,
        "rank_sort": 69422,
        "total": 2341
      },
      {
        "club_badge_src": null,
        "entry": 4106533,
        "entry_name": "Change Name",
        "event_total": 68,
        "has_played": true,
        "id": 31011708,
        "last_rank": 85707,
        "player_name": "Zachary Simms",
        "rank": 69410,
        "rank_sort": 69423,
        "total": 2341
      },
      {
        "club_badge_src": null,
        "entry": 6132255,
        "entry_name": "Calisah FC",
        "event_total": 60,
        "has_played": true,
        "id": 48458445,
        "last_rank": 76778,
        "player_name": "Ad. Trey",
        "rank": 69410,
        "rank_sort": 69424,
        "total": 2341
      },
      {
        "club_badge_src": null,
        "entry": 6185461,
        "entry_name": "IT'S MY SEASON",
        "event_total": 60,
        "has_played": true,
        "id": 48919257,
        "last_rank": 68460,
        "player_name": "faisal F-10",
        "rank": 69410,
        "rank_sort": 69425,
        "total": 2341
      },
      {
        "club_badge_src": null,
        "entry": 8678447,
        "entry_name": "Valley Park XI",
        "event_total": 65,
        "has_played": true,
        "id": 72369451,
        "last_rank": 88053,
        "player_name": "KRISHNENDU DAS",
        "rank": 69410,
        "rank_sort": 69426,
        "total": 2341
      },
      {
        "club_badge_src": null,
        "entry": 1354,
        "entry_name": "Catfish and Arsenal",
        "event_total": 72,
        "has_played": true,
        "id": 7539,
        "last_rank": 95281,
        "player_name": "Tiwa Banjo",
        "rank": 69427,
        "rank_sort": 69427,
        "total": 2341
      },
      {
        "club_badge_src": "https://fantasy.premierleague.com/gcs/plfpl-production-adobe-approved/plfpl-production/50472/008bcd75-1425-402c-a03c-591f68d5a6ee.png",
        "entry": 50472,
        "entry_name": "Si Paling FPL",
        "event_total": 60,
        "has_played": true,
        "id": 324627,
        "last_rank": 61139,
        "player_name": "Raditya Pradipta",
        "rank": 69427,
        "rank_sort": 69428,
        "total": 2341
      },
      {
        "club_badge_src": null,
        "entry": 172008,
        "entry_name": "bowen 747",
        "event_total": 67,
        "has_played": true,
        "id": 1136194,
        "last_rank": 92861,
        "player_name": "Ollie Hopwood",
        "rank": 69427,
        "rank_sort": 69429,
        "total": 2341
      },
      {
        "club_badge_src": "https://fantasy.premierleague.com/gcs/plfpl-production-adobe-approved/plfpl-production/198892/a843a4de-fe52-4791-a69e-277bc4d22cec.png",
        "entry": 198892,
        "entry_name": "BEBO",
        "event_total": 57,
        "has_played": true,
        "id": 1319932,
        "last_rank": 62974,
        "player_name": "Abanoub Raafat",
        "rank": 69427,
        "rank_sort": 69430,
        "total": 2341
      },
      {
        "club_badge_src": null,
        "entry": 260318,
        "entry_name": "Sammy FK",
        "event_total": 59,
        "has_played": true,
        "id": 1730591,
        "last_rank": 66546,
        "player_name": "Samuel Isaksen",
        "rank": 69427,
        "rank_sort": 69431,
        "total": 2341
      },
      {
        "club_badge_src": null,
        "entry": 336805,
        "entry_name": "Special one",
        "event_total": 61,
        "has_played": true,
        "id": 2254869,
        "last_rank": 62958,
        "player_name": "A mohamed abdelaziz",
        "rank": 69427,
        "rank_sort": 69432,
        "total": 2341
      },
      {
        "club_badge_src": "https://fantasy.premierleague.com/gcs/plfpl-production-adobe-approved/plfpl-production/511007/50af76e0-f873-4fc3-b105-150e59e56677.png",
        "entry": 511007,
        "entry_name": "HK~",
        "event_total": 74,
        "has_played": true,
        "id": 3431539,
        "last_rank": 90386,
        "player_name": "Humood Aladwanii",
        "rank": 69427,
        "rank_sort": 69433,
        "total": 2341
      },
      {
        "club_badge_src": "https://fantasy.premierleague.com/gcs/plfpl-production-adobe-approved/plfpl-production/596032/8356b65a-f8ff-4534-9fa1-092b340b2234.png",
        "entry": 596032,
        "entry_name": "Beef Cherki",
        "event_total": 60,
        "has_played": true,
        "id": 4018455,
        "last_rank": 76791,
        "player_name": "Ben Andrews",
        "rank": 69427,
        "rank_sort": 69434,
        "total": 2341
      },
      {
        "club_badge_src": null,
        "entry": 703620,
        "entry_name": "Intercourse Milan",
        "event_total": 41,
        "has_played": true,
        "id": 4767914,
        "last_rank": 43695,
        "player_name": "Thomas Wang",
        "rank": 69427,
        "rank_sort": 69435,
        "total": 2341
      },
      {
        "club_badge_src": "https://fantasy.premierleague.com/gcs/plfpl-production-adobe-approved/plfpl-production/1072596/28c48293-923b-4471-a794-d8167e78d5cb.png",
        "entry": 1072596,
        "entry_name": "StoneColdStevePalmer",
        "event_total": 72,
        "has_played": true,
        "id": 7425609,
        "last_rank": 85707,
        "player_name": "Aditya Srinivasan",
        "rank": 69427,
        "rank_sort": 69436,
        "total": 2341
      },
      {
        "club_badge_src": null,
        "entry": 2812337,
        "entry_name": "GL\u00d6KERES",
        "event_total": 52,
        "has_played": true,
        "id": 20541143,
        "last_rank": 61172,
        "player_name": "Anthony John",
        "rank": 69427,
        "rank_sort": 69437,
        "total": 2341
      },
      {
        "club_badge_src": null,
        "entry": 2928892,
        "entry_name": "Potter FC",
        "event_total": 67,
        "has_played": true,
        "id": 21473297,
        "last_rank": 92850,
        "player_name": "Matt Harvey",
        "rank": 69427,
        "rank_sort": 69438,
        "total": 2341
      },
      {
        "club_badge_src": null,
        "entry": 3464165,
        "entry_name": "Fabrique Belgique",
        "event_total": 63,
        "has_played": true,
        "id": 25751200,
        "last_rank": 74609,
        "player_name": "Russell Hurley",
        "rank": 69427,
        "rank_sort": 69439,
        "total": 2341
      },
      {
        "club_badge_src": null,
        "entry": 3649770,
        "entry_name": "Doins FC",
        "event_total": 29,
        "has_played": true,
        "id": 27204983,
        "last_rank": 29454,
        "player_name": "Adonai Tinashe",
        "rank": 69427,
        "rank_sort": 69440,
        "total": 2341
      },
      {
        "club_badge_src": null,
        "entry": 3790120,
        "entry_name": "Juventus",
        "event_total": 75,
        "has_played": true,
        "id": 28318398,
        "last_rank": 92820,
        "player_name": "Diego Simeone",
        "rank": 69427,
        "rank_sort": 69441,
        "total": 2341
      },
      {
        "club_badge_src": null,
        "entry": 3801012,
        "entry_name": "WhoFiat",
        "event_total": 70,
        "has_played": true,
        "id": 28414352,
        "last_rank": 81073,
        "player_name": "Simon Griffiths",
        "rank": 69427,
        "rank_sort": 69442,
        "total": 2341
      },
      {
        "club_badge_src": null,
        "entry": 7297758,
        "entry_name": "KLOPPTIMISTIC",
        "event_total": 66,
        "has_played": true,
        "id": 59055308,
        "last_rank": 81093,
        "player_name": "maan rathor",
        "rank": 69427,
        "rank_sort": 69443,
        "total": 2341
      },
      {
        "club_badge_src": null,
        "entry": 330955,
        "entry_name": "OGR FC",
        "event_total": 59,
        "has_played": true,
        "id": 2216790,
        "last_rank": 52653,
        "player_name": "Alex McDowell",
        "rank": 69444,
        "rank_sort": 69444,
        "total": 2341
      },
      {
        "club_badge_src": null,
        "entry": 400573,
        "entry_name": "Don\u2019t stop Balebing",
        "event_total": 67,
        "has_played": true,
        "id": 2686120,
        "last_rank": 83385,
        "player_name": "Vinny Narenthiram",
        "rank": 69444,
        "rank_sort": 69445,
        "total": 2341
      },
      {
        "club_badge_src": "https://fantasy.premierleague.com/gcs/plfpl-production-adobe-approved/plfpl-production/654030/11f9d47b-6c31-46bd-a8ed-f922238213be.png",
        "entry": 654030,
        "entry_name": "St Aubyn FC",
        "event_total": 45,
        "has_played": true,
        "id": 4419854,
        "last_rank": 49499,
        "player_name": "Heath Cram",
        "rank": 69444,
        "rank_sort": 69446,
        "total": 2341
      },
      {
        "club_badge_src": null,
        "entry": 899491,
        "entry_name": "Sp3rm Donorrumma",
        "event_total": 46,
        "has_played": true,
        "id": 6180320,
        "last_rank": 51064,
        "player_name": "tommy shirley",
        "rank": 69444,
        "rank_sort": 69447,
        "total": 2341
      },
      {
        "club_badge_src": null,
        "entry": 1220144,
        "entry_name": "\u24c2\ufe0f-SIRI",
        "event_total": 56,
        "has_played": true,
        "id": 8471125,
        "last_rank": 61172,
        "player_name": "Sirimana Nattawut",
        "rank": 69444,
        "rank_sort": 69448,
        "total": 2341
      },
      {
        "club_badge_src": null,
        "entry": 2463542,
        "entry_name": "Elvis aint dead",
        "event_total": 46,
        "has_played": true,
        "id": 17621783,
        "last_rank": 51064,
        "player_name": "Elvis ferensas",
        "rank": 69444,
        "rank_sort": 69449,
        "total": 2341
      },
      {
        "club_badge_src": "https://fantasy.premierleague.com/gcs/plfpl-production-adobe-approved/plfpl-production/2557844/ea4b9338-98d1-4d75-9d9f-362f7d225df2.png",
        "entry": 2557844,
        "entry_name": "R2 Finesse",
        "event_total": 62,
        "has_played": true,
        "id": 18342817,
        "last_rank": 72544,
        "player_name": "Anton Jackson",
        "rank": 69444,
        "rank_sort": 69450,
        "total": 2341
      }
    ]
  }
}