{
  "last_updated_data": "2026-05-24T23:28:17Z",
  "league": {
    "admin_entry": null,
    "closed": false,
    "code_privacy": "p",
    "created": "2025-07-20T23:14:33.933835Z",
    "cup_league": 2815434,
    "has_cup": true,
    "id": 314,
    "league_type": "s",
    "max_entries": null,
    "name": "Overall",
    "rank": null,
    "scoring": "c",
    "start_event": 1
  },
  "new_entries": {
    "has_next": false,
    "page": 1,
    "results": []
  },
  "standings": {
    "has_next": true,
    "page": 1568,
    "results": [
      {
        "club_badge_src": null,
        "entry": 3321313,
        "entry_name": "Abo anas",
        "event_total": 45,
        "has_played": true,
        "id": 24619991,
        "last_rank": 56708,
        "player_name": "Ahmed T Akilan",
        "rank": 78139,
        "rank_sort": 78351,
        "total": 2336
      },
      {
        "club_badge_src": null,
        "entry": 3334557,
        "entry_name": "the maestro",
        "event_total": 50,
        "has_played": true,
        "id": 24728691,
        "last_rank": 65163,
        "player_name": "Abood Alakhras",
        "rank": 78139,
        "rank_sort": 78352,
        "total": 2336
      },
      {
        "club_badge_src": "https://fantasy.premierleague.com/gcs/plfpl-production-adobe-approved/plfpl-production/3366492/e1cae727-d084-49d1-b7ad-fec720fed992.png",
        "entry": 3366492,
        "entry_name": "Real Mantri",
        "event_total": 67,
        "has_played": true,
        "id": 24981238,
        "last_rank": 103526,
        "player_name": "Giorgos Kousios",
        "rank": 78139,
        "rank_sort": 78353,
        "total": 2336
      },
      {
        "club_badge_src": null,
        "entry": 3398535,
        "entry_name": "password",
        "event_total": 57,
        "has_played": true,
        "id": 25233338,
        "last_rank": 80194,
        "player_name": "Hussen Yossry",
        "rank": 78139,
        "rank_sort": 78354,
        "total": 2336
      },
      {
        "club_badge_src": "https://fantasy.premierleague.com/gcs/plfpl-production-adobe-approved/plfpl-production/3422056/4e1be3cd-2668-4571-b6d2-e68a25f38d23.png",
        "entry": 3422056,
        "entry_name": "Elhovski Tigri",
        "event_total": 64,
        "has_played": true,
        "id": 25419364,
        "last_rank": 95890,
        "player_name": "Atanas Mihalev",
        "rank": 78139,
        "rank_sort": 78355,
        "total": 2336
      },
      {
        "club_badge_src": null,
        "entry": 3443485,
        "entry_name": "Un Baleba Ball Jeff",
        "event_total": 56,
        "has_played": true,
        "id": 25584051,
        "last_rank": 68748,
        "player_name": "Donal 2B",
        "rank": 78139,
        "rank_sort": 78356,
        "total": 2336
      },
      {
        "club_badge_src": null,
        "entry": 3459996,
        "entry_name": "Chickn Tika Mo-Salah",
        "event_total": 45,
        "has_played": true,
        "id": 25718413,
        "last_rank": 56369,
        "player_name": "Sandra Cesare",
        "rank": 78139,
        "rank_sort": 78357,
        "total": 2336
      },
      {
        "club_badge_src": null,
        "entry": 3498189,
        "entry_name": "Gera to Odemwingie",
        "event_total": 55,
        "has_played": true,
        "id": 26020767,
        "last_rank": 75139,
        "player_name": "James Harrison",
        "rank": 78139,
        "rank_sort": 78358,
        "total": 2336
      },
      {
        "club_badge_src": null,
        "entry": 3607060,
        "entry_name": "North London Forever",
        "event_total": 56,
        "has_played": true,
        "id": 26868409,
        "last_rank": 77676,
        "player_name": "Claire Tweed",
        "rank": 78139,
        "rank_sort": 78359,
        "total": 2336
      },
      {
        "club_badge_src": null,
        "entry": 3625694,
        "entry_name": "Squidwirtz",
        "event_total": 51,
        "has_played": true,
        "id": 27015691,
        "last_rank": 67422,
        "player_name": "Dylan Davies",
        "rank": 78139,
        "rank_sort": 78360,
        "total": 2336
      },
      {
        "club_badge_src": null,
        "entry": 3656643,
        "entry_name": "Wirtz the Point?!",
        "event_total": 57,
        "has_played": true,
        "id": 27266793,
        "last_rank": 79817,
        "player_name": "Joe MacDonald",
        "rank": 78139,
        "rank_sort": 78361,
        "total": 2336
      },
      {
        "club_badge_src": null,
        "entry": 3729927,
        "entry_name": "vet kje",
        "event_total": 68,
        "has_played": true,
        "id": 27839969,
        "last_rank": 106259,
        "player_name": "Runar Karlsen",
        "rank": 78139,
        "rank_sort": 78362,
        "total": 2336
      },
      {
        "club_badge_src": null,
        "entry": 3736027,
        "entry_name": "farke the bus",
        "event_total": 59,
        "has_played": true,
        "id": 27887291,
        "last_rank": 83934,
        "player_name": "Robbie Stevenson",
        "rank": 78139,
        "rank_sort": 78363,
        "total": 2336
      },
      {
        "club_badge_src": null,
        "entry": 3741388,
        "entry_name": "Thierry Hungry",
        "event_total": 22,
        "has_played": true,
        "id": 27928897,
        "last_rank": 27020,
        "player_name": "nathan elroy",
        "rank": 78139,
        "rank_sort": 78364,
        "total": 2336
      },
      {
        "club_badge_src": null,
        "entry": 3789362,
        "entry_name": "HAKUNAMATATA",
        "event_total": 53,
        "has_played": true,
        "id": 28312022,
        "last_rank": 71713,
        "player_name": "Antare Mailo",
        "rank": 78139,
        "rank_sort": 78365,
        "total": 2336
      },
      {
        "club_badge_src": null,
        "entry": 3791065,
        "entry_name": "slats ctid",
        "event_total": 55,
        "has_played": true,
        "id": 28327869,
        "last_rank": 75537,
        "player_name": "kevin slattery",
        "rank": 78139,
        "rank_sort": 78366,
        "total": 2336
      },
      {
        "club_badge_src": null,
        "entry": 3799345,
        "entry_name": "Idk",
        "event_total": 36,
        "has_played": true,
        "id": 28400531,
        "last_rank": 42940,
        "player_name": "Borche Stefanovski",
        "rank": 78139,
        "rank_sort": 78367,
        "total": 2336
      },
      {
        "club_badge_src": null,
        "entry": 3834414,
        "entry_name": "KD United",
        "event_total": 52,
        "has_played": true,
        "id": 28685648,
        "last_rank": 69323,
        "player_name": "Kieran Downes",
        "rank": 78139,
        "rank_sort": 78368,
        "total": 2336
      },
      {
        "club_badge_src": null,
        "entry": 3856929,
        "entry_name": "WWA GANG",
        "event_total": 50,
        "has_played": true,
        "id": 28916129,
        "last_rank": 65475,
        "player_name": "Piotr Baran",
        "rank": 78139,
        "rank_sort": 78369,
        "total": 2336
      },
      {
        "club_badge_src": null,
        "entry": 3893187,
        "entry_name": "Victory Delap",
        "event_total": 59,
        "has_played": true,
        "id": 29258610,
        "last_rank": 84360,
        "player_name": "Toby Mclinden",
        "rank": 78139,
        "rank_sort": 78370,
        "total": 2336
      },
      {
        "club_badge_src": null,
        "entry": 3902057,
        "entry_name": "Habdelrahman",
        "event_total": 57,
        "has_played": true,
        "id": 29333451,
        "last_rank": 79817,
        "player_name": "Haytham AbdelRahman",
        "rank": 78139,
        "rank_sort": 78371,
        "total": 2336
      },
      {
        "club_badge_src": null,
        "entry": 3969192,
        "entry_name": "Tee-Pee Allstars",
        "event_total": 47,
        "has_played": true,
        "id": 29868428,
        "last_rank": 60168,
        "player_name": "Richard Chartier",
        "rank": 78139,
        "rank_sort": 78372,
        "total": 2336
      },
      {
        "club_badge_src": null,
        "entry": 3987013,
        "entry_name": "Van Gaal Army",
        "event_total": 57,
        "has_played": true,
        "id": 30018042,
        "last_rank": 70757,
        "player_name": "Mats Ellingsen",
        "rank": 78139,
        "rank_sort": 78373,
        "total": 2336
      },
      {
        "club_badge_src": null,
        "entry": 3992209,
        "entry_name": "Ring mig sen United",
        "event_total": 55,
        "has_played": true,
        "id": 30061830,
        "last_rank": 75139,
        "player_name": "August Carling",
        "rank": 78139,
        "rank_sort": 78374,
        "total": 2336
      },
      {
        "club_badge_src": "https://fantasy.premierleague.com/gcs/plfpl-production-adobe-approved/plfpl-production/4011476/c2a259f1-28ef-4d54-8463-892d5165683b.png",
        "entry": 4011476,
        "entry_name": "Saf fc",
        "event_total": 65,
        "has_played": true,
        "id": 30226383,
        "last_rank": 98436,
        "player_name": "Hussein Saf",
        "rank": 78139,
        "rank_sort": 78375,
        "total": 2336
      },
      {
        "club_badge_src": null,
        "entry": 4028706,
        "entry_name": "Ganeshakad FFC",
        "event_total": 66,
        "has_played": true,
        "id": 30369902,
        "last_rank": 91006,
        "player_name": "Andyia Rama Nugraha",
        "rank": 78139,
        "rank_sort": 78376,
        "total": 2336
      },
      {
        "club_badge_src": "https://fantasy.premierleague.com/gcs/plfpl-production-adobe-approved/plfpl-production/4038574/66139c0c-8d17-4965-87e1-25b5453b6aa3.png",
        "entry": 4038574,
        "entry_name": "Mohamed Hussain",
        "event_total": 51,
        "has_played": true,
        "id": 30454404,
        "last_rank": 67695,
        "player_name": "Surprise .",
        "rank": 78139,
        "rank_sort": 78377,
        "total": 2336
      },
      {
        "club_badge_src": null,
        "entry": 4069884,
        "entry_name": "White Ben can't jump",
        "event_total": 55,
        "has_played": true,
        "id": 30717822,
        "last_rank": 75537,
        "player_name": "Jamie Fitzgerald",
        "rank": 78139,
        "rank_sort": 78378,
        "total": 2336
      },
      {
        "club_badge_src": null,
        "entry": 4102911,
        "entry_name": "Bruno Fernachos",
        "event_total": 49,
        "has_played": true,
        "id": 30982780,
        "last_rank": 63724,
        "player_name": "Noah Hewett",
        "rank": 78139,
        "rank_sort": 78379,
        "total": 2336
      },
      {
        "club_badge_src": null,
        "entry": 4132703,
        "entry_name": "Palmer Violets",
        "event_total": 54,
        "has_played": true,
        "id": 31230458,
        "last_rank": 73423,
        "player_name": "fraser moran",
        "rank": 78139,
        "rank_sort": 78380,
        "total": 2336
      },
      {
        "club_badge_src": null,
        "entry": 4140814,
        "entry_name": "Legend of Yoro",
        "event_total": 50,
        "has_played": true,
        "id": 31294956,
        "last_rank": 65796,
        "player_name": "Richard Sowter",
        "rank": 78139,
        "rank_sort": 78381,
        "total": 2336
      },
      {
        "club_badge_src": null,
        "entry": 4163739,
        "entry_name": "Tikka Mo Salah",
        "event_total": 48,
        "has_played": true,
        "id": 31485346,
        "last_rank": 61950,
        "player_name": "Oliver Brady",
        "rank": 78139,
        "rank_sort": 78382,
        "total": 2336
      },
      {
        "club_badge_src": null,
        "entry": 4212060,
        "entry_name": "Fenerba\u00e7ka\u00e7he",
        "event_total": 52,
        "has_played": true,
        "id": 31892316,
        "last_rank": 69641,
        "player_name": "Alex Gill",
        "rank": 78139,
        "rank_sort": 78383,
        "total": 2336
      },
      {
        "club_badge_src": "https://fantasy.premierleague.com/gcs/plfpl-production-adobe-approved/plfpl-production/4213542/27138752-f10f-45e4-b3c2-61e6516a20cf.png",
        "entry": 4213542,
        "entry_name": "Ingscanonlygetbetter",
        "event_total": 59,
        "has_played": true,
        "id": 31904626,
        "last_rank": 84360,
        "player_name": "Elliott Diver",
        "rank": 78139,
        "rank_sort": 78384,
        "total": 2336
      },
      {
        "club_badge_src": null,
        "entry": 4222430,
        "entry_name": "Change Name",
        "event_total": 55,
        "has_played": true,
        "id": 31986100,
        "last_rank": 75537,
        "player_name": "Lewis Mussen",
        "rank": 78139,
        "rank_sort": 78385,
        "total": 2336
      },
      {
        "club_badge_src": null,
        "entry": 4269744,
        "entry_name": "Cold Tefa",
        "event_total": 63,
        "has_played": true,
        "id": 32377625,
        "last_rank": 93008,
        "player_name": "Mostafa Ahmed",
        "rank": 78139,
        "rank_sort": 78386,
        "total": 2336
      },
      {
        "club_badge_src": null,
        "entry": 4325219,
        "entry_name": "Zan Fc",
        "event_total": 72,
        "has_played": true,
        "id": 32826605,
        "last_rank": 117423,
        "player_name": "Ebube Chika",
        "rank": 78139,
        "rank_sort": 78387,
        "total": 2336
      },
      {
        "club_badge_src": null,
        "entry": 4349321,
        "entry_name": "elpolga",
        "event_total": 64,
        "has_played": true,
        "id": 33026970,
        "last_rank": 96374,
        "player_name": "Mohad Almansouri",
        "rank": 78139,
        "rank_sort": 78388,
        "total": 2336
      },
      {
        "club_badge_src": null,
        "entry": 4352443,
        "entry_name": "Change Name",
        "event_total": 67,
        "has_played": true,
        "id": 33051563,
        "last_rank": 103978,
        "player_name": "Graham Kirwan",
        "rank": 78139,
        "rank_sort": 78389,
        "total": 2336
      },
      {
        "club_badge_src": null,
        "entry": 4355028,
        "entry_name": "Doa Ibu",
        "event_total": 70,
        "has_played": true,
        "id": 33073643,
        "last_rank": 111669,
        "player_name": "Muhammad Rifaldy",
        "rank": 78139,
        "rank_sort": 78390,
        "total": 2336
      },
      {
        "club_badge_src": null,
        "entry": 4374959,
        "entry_name": "Lian's Lazy Lions",
        "event_total": 71,
        "has_played": true,
        "id": 33241791,
        "last_rank": 114292,
        "player_name": "Ian Lucietti",
        "rank": 78139,
        "rank_sort": 78391,
        "total": 2336
      },
      {
        "club_badge_src": null,
        "entry": 4376791,
        "entry_name": "Hakim",
        "event_total": 65,
        "has_played": true,
        "id": 33257093,
        "last_rank": 98896,
        "player_name": "Hakim fawzi",
        "rank": 78139,
        "rank_sort": 78392,
        "total": 2336
      },
      {
        "club_badge_src": null,
        "entry": 4418071,
        "entry_name": "Saka Potatoes",
        "event_total": 51,
        "has_played": true,
        "id": 33613231,
        "last_rank": 67422,
        "player_name": "Ben Owen",
        "rank": 78139,
        "rank_sort": 78393,
        "total": 2336
      },
      {
        "club_badge_src": null,
        "entry": 4425932,
        "entry_name": "YouDirtyLittleSlot",
        "event_total": 55,
        "has_played": true,
        "id": 33686554,
        "last_rank": 75139,
        "player_name": "Luke Sims",
        "rank": 78139,
        "rank_sort": 78394,
        "total": 2336
      },
      {
        "club_badge_src": null,
        "entry": 4497298,
        "entry_name": "le fuq",
        "event_total": 68,
        "has_played": true,
        "id": 34284157,
        "last_rank": 106763,
        "player_name": "Ciaran Haydon",
        "rank": 78139,
        "rank_sort": 78395,
        "total": 2336
      },
      {
        "club_badge_src": null,
        "entry": 4501769,
        "entry_name": "Club Piippo",
        "event_total": 43,
        "has_played": true,
        "id": 34320785,
        "last_rank": 53345,
        "player_name": "Morten Hol",
        "rank": 78139,
        "rank_sort": 78396,
        "total": 2336
      },
      {
        "club_badge_src": null,
        "entry": 4552475,
        "entry_name": "JMS",
        "event_total": 63,
        "has_played": true,
        "id": 34735977,
        "last_rank": 93883,
        "player_name": "Jayden MS",
        "rank": 78139,
        "rank_sort": 78397,
        "total": 2336
      },
      {
        "club_badge_src": null,
        "entry": 4561617,
        "entry_name": "Delap of Faith",
        "event_total": 67,
        "has_played": true,
        "id": 34808868,
        "last_rank": 103978,
        "player_name": "Jimbo Nickson",
        "rank": 78139,
        "rank_sort": 78398,
        "total": 2336
      },
      {
        "club_badge_src": null,
        "entry": 4614462,
        "entry_name": "on your Edson",
        "event_total": 51,
        "has_played": true,
        "id": 35265665,
        "last_rank": 67063,
        "player_name": "Matt Lowe",
        "rank": 78139,
        "rank_sort": 78399,
        "total": 2336
      },
      {
        "club_badge_src": null,
        "entry": 4672939,
        "entry_name": "on Amad one",
        "event_total": 57,
        "has_played": true,
        "id": 35795713,
        "last_rank": 79190,
        "player_name": "Ben Bills",
        "rank": 78139,
        "rank_sort": 78400,
        "total": 2336
      }
    ]
  }
}