{
  "last_updated_data": "2026-05-24T23:28:17Z",
  "league": {
    "admin_entry": null,
    "closed": false,
    "code_privacy": "p",
    "created": "2025-07-20T23:14:33.933835Z",
    "cup_league": 2815434,
    "has_cup": true,
    "id": 314,
    "league_type": "s",
    "max_entries": null,
    "name": "Overall",
    "rank": null,
    "scoring": "c",
    "start_event": 1
  },
  "new_entries": {
    "has_next": false,
    "page": 1,
    "results": []
  },
  "standings": {
    "has_next": true,
    "page": 907,
    "results": [
      {
        "club_badge_src": null,
        "entry": 6258908,
        "entry_name": "Club de RJV",
        "event_total": 62,
        "has_played": true,
        "id": 49552320,
        "last_rank": 52853,
        "player_name": "Azmir Ali Rijve",
        "rank": 45077,
        "rank_sort": 45301,
        "total": 2355
      },
      {
        "club_badge_src": null,
        "entry": 6322514,
        "entry_name": "Bovellion FC",
        "event_total": 68,
        "has_played": true,
        "id": 50213653,
        "last_rank": 63390,
        "player_name": "Alex Baker",
        "rank": 45077,
        "rank_sort": 45302,
        "total": 2355
      },
      {
        "club_badge_src": null,
        "entry": 6377125,
        "entry_name": "Lord of the Ings",
        "event_total": 41,
        "has_played": true,
        "id": 50717114,
        "last_rank": 27020,
        "player_name": "Dan Ashford",
        "rank": 45077,
        "rank_sort": 45303,
        "total": 2355
      },
      {
        "club_badge_src": null,
        "entry": 6484819,
        "entry_name": "Calafiornication",
        "event_total": 51,
        "has_played": true,
        "id": 51688052,
        "last_rank": 37325,
        "player_name": "Rob Sullivan",
        "rank": 45077,
        "rank_sort": 45304,
        "total": 2355
      },
      {
        "club_badge_src": null,
        "entry": 6714605,
        "entry_name": "Sims FC",
        "event_total": 55,
        "has_played": true,
        "id": 53736531,
        "last_rank": 42506,
        "player_name": "Simrah Hussain",
        "rank": 45077,
        "rank_sort": 45305,
        "total": 2355
      },
      {
        "club_badge_src": "https://fantasy.premierleague.com/gcs/plfpl-production-adobe-approved/plfpl-production/6901693/adcaf659-d6a1-44fc-9f69-18c70ac5fbeb.png",
        "entry": 6901693,
        "entry_name": "Lil Uzi Wirtz",
        "event_total": 60,
        "has_played": true,
        "id": 55318193,
        "last_rank": 43849,
        "player_name": "Odin Aksnes",
        "rank": 45077,
        "rank_sort": 45306,
        "total": 2355
      },
      {
        "club_badge_src": "https://fantasy.premierleague.com/gcs/plfpl-production-adobe-approved/plfpl-production/6963800/ebd6153e-5b30-4519-ab56-f333f3ed533a.png",
        "entry": 6963800,
        "entry_name": "Lowballers FC",
        "event_total": 55,
        "has_played": true,
        "id": 55850853,
        "last_rank": 42648,
        "player_name": "Ryan Howarth",
        "rank": 45077,
        "rank_sort": 45307,
        "total": 2355
      },
      {
        "club_badge_src": "https://fantasy.premierleague.com/gcs/plfpl-production-adobe-approved/plfpl-production/6988665/1311ad2c-6f2e-41e1-97ab-03f4b0c2c4df.png",
        "entry": 6988665,
        "entry_name": "Rashford Fc",
        "event_total": 68,
        "has_played": true,
        "id": 56098198,
        "last_rank": 63390,
        "player_name": "Shehryar Ali",
        "rank": 45077,
        "rank_sort": 45308,
        "total": 2355
      },
      {
        "club_badge_src": null,
        "entry": 7025521,
        "entry_name": "HB85",
        "event_total": 66,
        "has_played": true,
        "id": 56443025,
        "last_rank": 59813,
        "player_name": "harwinder singh",
        "rank": 45077,
        "rank_sort": 45309,
        "total": 2355
      },
      {
        "club_badge_src": null,
        "entry": 7077103,
        "entry_name": "Dame Un Grrrrrr",
        "event_total": 52,
        "has_played": true,
        "id": 56956342,
        "last_rank": 38542,
        "player_name": "ZoneTwo Aerobic",
        "rank": 45077,
        "rank_sort": 45310,
        "total": 2355
      },
      {
        "club_badge_src": null,
        "entry": 7176565,
        "entry_name": "Li\u00f0-a",
        "event_total": 60,
        "has_played": true,
        "id": 57913855,
        "last_rank": 49691,
        "player_name": "Anna \u00ed Li\u00f0a",
        "rank": 45077,
        "rank_sort": 45311,
        "total": 2355
      },
      {
        "club_badge_src": null,
        "entry": 7460941,
        "entry_name": "Tiki-Taka og Tuborg",
        "event_total": 52,
        "has_played": true,
        "id": 60777733,
        "last_rank": 38644,
        "player_name": "Jakob Marqard Kristensen",
        "rank": 45077,
        "rank_sort": 45312,
        "total": 2355
      },
      {
        "club_badge_src": null,
        "entry": 7624268,
        "entry_name": "Yahya FC",
        "event_total": 57,
        "has_played": true,
        "id": 62485060,
        "last_rank": 45252,
        "player_name": "Jonathan Beharry",
        "rank": 45077,
        "rank_sort": 45313,
        "total": 2355
      },
      {
        "club_badge_src": null,
        "entry": 7626962,
        "entry_name": "TeamMatteAndersson",
        "event_total": 54,
        "has_played": true,
        "id": 62508837,
        "last_rank": 41324,
        "player_name": "Mattias Andersson",
        "rank": 45077,
        "rank_sort": 45314,
        "total": 2355
      },
      {
        "club_badge_src": null,
        "entry": 7657320,
        "entry_name": "IDUNNO",
        "event_total": 45,
        "has_played": true,
        "id": 62782286,
        "last_rank": 30600,
        "player_name": "Howard Sabga",
        "rank": 45077,
        "rank_sort": 45315,
        "total": 2355
      },
      {
        "club_badge_src": null,
        "entry": 7711287,
        "entry_name": "Beto and forgeto",
        "event_total": 51,
        "has_played": true,
        "id": 63271967,
        "last_rank": 37435,
        "player_name": "James Hopkin",
        "rank": 45077,
        "rank_sort": 45316,
        "total": 2355
      },
      {
        "club_badge_src": null,
        "entry": 7778939,
        "entry_name": "Cole As Ice",
        "event_total": 41,
        "has_played": true,
        "id": 63884513,
        "last_rank": 26827,
        "player_name": "Deirdre King",
        "rank": 45077,
        "rank_sort": 45317,
        "total": 2355
      },
      {
        "club_badge_src": null,
        "entry": 7903092,
        "entry_name": "HansiFlick FC",
        "event_total": 50,
        "has_played": true,
        "id": 65015571,
        "last_rank": 36142,
        "player_name": "Ahmed Ali",
        "rank": 45077,
        "rank_sort": 45318,
        "total": 2355
      },
      {
        "club_badge_src": null,
        "entry": 8023022,
        "entry_name": "Mandem FC",
        "event_total": 64,
        "has_played": true,
        "id": 66092410,
        "last_rank": 56708,
        "player_name": "Kayne Erskine",
        "rank": 45077,
        "rank_sort": 45319,
        "total": 2355
      },
      {
        "club_badge_src": null,
        "entry": 8047726,
        "entry_name": "good ebening",
        "event_total": 53,
        "has_played": true,
        "id": 66316677,
        "last_rank": 39874,
        "player_name": "Henry Algert",
        "rank": 45077,
        "rank_sort": 45320,
        "total": 2355
      },
      {
        "club_badge_src": null,
        "entry": 8211680,
        "entry_name": "Why Ayew Running",
        "event_total": 47,
        "has_played": true,
        "id": 67852006,
        "last_rank": 32879,
        "player_name": "Fin Stuttard",
        "rank": 45077,
        "rank_sort": 45321,
        "total": 2355
      },
      {
        "club_badge_src": null,
        "entry": 8308792,
        "entry_name": "50ShadesOfAndyGray",
        "event_total": 62,
        "has_played": true,
        "id": 68802597,
        "last_rank": 53023,
        "player_name": "Jason Corrigan",
        "rank": 45077,
        "rank_sort": 45322,
        "total": 2355
      },
      {
        "club_badge_src": null,
        "entry": 8644467,
        "entry_name": "Copilot FC",
        "event_total": 57,
        "has_played": true,
        "id": 72031116,
        "last_rank": 45252,
        "player_name": "Nick Perry",
        "rank": 45077,
        "rank_sort": 45323,
        "total": 2355
      },
      {
        "club_badge_src": "https://fantasy.premierleague.com/gcs/plfpl-production-adobe-approved/plfpl-production/8705851/6737a3ba-06b4-4a83-8afb-92594fa971e8.png",
        "entry": 8705851,
        "entry_name": "Goonchifier",
        "event_total": 63,
        "has_played": true,
        "id": 72635488,
        "last_rank": 54667,
        "player_name": "Anirban Majumder",
        "rank": 45077,
        "rank_sort": 45324,
        "total": 2355
      },
      {
        "club_badge_src": null,
        "entry": 8717039,
        "entry_name": "Gunners",
        "event_total": 64,
        "has_played": true,
        "id": 72745026,
        "last_rank": 56369,
        "player_name": "Alexander Ryabikov",
        "rank": 45077,
        "rank_sort": 45325,
        "total": 2355
      },
      {
        "club_badge_src": null,
        "entry": 8849164,
        "entry_name": "WeGoAgain FC",
        "event_total": 67,
        "has_played": true,
        "id": 74018439,
        "last_rank": 61315,
        "player_name": "Seyi Sanni",
        "rank": 45077,
        "rank_sort": 45326,
        "total": 2355
      },
      {
        "club_badge_src": null,
        "entry": 8900980,
        "entry_name": "Change Name",
        "event_total": 68,
        "has_played": true,
        "id": 74519016,
        "last_rank": 63201,
        "player_name": "dax kelly",
        "rank": 45077,
        "rank_sort": 45327,
        "total": 2355
      },
      {
        "club_badge_src": null,
        "entry": 8931567,
        "entry_name": "RPlate",
        "event_total": 72,
        "has_played": true,
        "id": 74818087,
        "last_rank": 70757,
        "player_name": "Lisandro Diaz",
        "rank": 45077,
        "rank_sort": 45328,
        "total": 2355
      },
      {
        "club_badge_src": null,
        "entry": 8936072,
        "entry_name": "Squidwirtz",
        "event_total": 47,
        "has_played": true,
        "id": 74863286,
        "last_rank": 32879,
        "player_name": "Ellis Dyer",
        "rank": 45077,
        "rank_sort": 45329,
        "total": 2355
      },
      {
        "club_badge_src": "https://fantasy.premierleague.com/gcs/plfpl-production-adobe-approved/plfpl-production/9002020/4f422b70-11c3-46f2-963e-90e11f4e4adc.png",
        "entry": 9002020,
        "entry_name": "Opa2Diner",
        "event_total": 55,
        "has_played": true,
        "id": 75499985,
        "last_rank": 42648,
        "player_name": "Joshua Bossik",
        "rank": 45077,
        "rank_sort": 45330,
        "total": 2355
      },
      {
        "club_badge_src": null,
        "entry": 9193347,
        "entry_name": "UnitedGGMU",
        "event_total": 66,
        "has_played": true,
        "id": 77368612,
        "last_rank": 59632,
        "player_name": "Vivek K",
        "rank": 45077,
        "rank_sort": 45331,
        "total": 2355
      },
      {
        "club_badge_src": null,
        "entry": 9213250,
        "entry_name": "Jeremie Pingpong",
        "event_total": 65,
        "has_played": true,
        "id": 77565247,
        "last_rank": 57776,
        "player_name": "Liam Wilson",
        "rank": 45077,
        "rank_sort": 45332,
        "total": 2355
      },
      {
        "club_badge_src": null,
        "entry": 9249269,
        "entry_name": "Nordells bordell",
        "event_total": 63,
        "has_played": true,
        "id": 77915224,
        "last_rank": 54667,
        "player_name": "brita nordell",
        "rank": 45077,
        "rank_sort": 45333,
        "total": 2355
      },
      {
        "club_badge_src": null,
        "entry": 9360945,
        "entry_name": "Charli xGx",
        "event_total": 65,
        "has_played": true,
        "id": 78992147,
        "last_rank": 57857,
        "player_name": "Ivan Mendoza",
        "rank": 45077,
        "rank_sort": 45334,
        "total": 2355
      },
      {
        "club_badge_src": null,
        "entry": 9366084,
        "entry_name": "Pickford n Mix",
        "event_total": 51,
        "has_played": true,
        "id": 79042430,
        "last_rank": 37589,
        "player_name": "Naomi Hayes",
        "rank": 45077,
        "rank_sort": 45335,
        "total": 2355
      },
      {
        "club_badge_src": null,
        "entry": 2733,
        "entry_name": "Rock 'n' Roll Sarr",
        "event_total": 52,
        "has_played": true,
        "id": 15332,
        "last_rank": 39023,
        "player_name": "Tom Harrison",
        "rank": 45336,
        "rank_sort": 45336,
        "total": 2355
      },
      {
        "club_badge_src": null,
        "entry": 3015,
        "entry_name": "SPURAINIE SAPNIISHI",
        "event_total": 59,
        "has_played": true,
        "id": 17002,
        "last_rank": 48119,
        "player_name": "Artis Simsons",
        "rank": 45336,
        "rank_sort": 45337,
        "total": 2355
      },
      {
        "club_badge_src": null,
        "entry": 3420,
        "entry_name": "d1mero team",
        "event_total": 56,
        "has_played": true,
        "id": 19375,
        "last_rank": 44303,
        "player_name": "dimero Arseniuk",
        "rank": 45336,
        "rank_sort": 45338,
        "total": 2355
      },
      {
        "club_badge_src": null,
        "entry": 6483,
        "entry_name": "Ana aizz kullu boint",
        "event_total": 47,
        "has_played": true,
        "id": 37201,
        "last_rank": 33147,
        "player_name": "Van Klinkert Delarosa",
        "rank": 45336,
        "rank_sort": 45339,
        "total": 2355
      },
      {
        "club_badge_src": "https://fantasy.premierleague.com/gcs/plfpl-production-adobe-approved/plfpl-production/6827/7d0348b4-2e98-421d-b229-dccb562fd86a.png",
        "entry": 6827,
        "entry_name": "1st Points then Pint",
        "event_total": 60,
        "has_played": true,
        "id": 39267,
        "last_rank": 50199,
        "player_name": "James Glaze",
        "rank": 45336,
        "rank_sort": 45340,
        "total": 2355
      },
      {
        "club_badge_src": "https://fantasy.premierleague.com/gcs/plfpl-production-adobe-approved/plfpl-production/7066/e0e1ad41-8494-4f69-87a2-b24d0cf3ce4b.png",
        "entry": 7066,
        "entry_name": "FC Al-Verca",
        "event_total": 54,
        "has_played": true,
        "id": 40695,
        "last_rank": 41324,
        "player_name": "Tiago -",
        "rank": 45336,
        "rank_sort": 45341,
        "total": 2355
      },
      {
        "club_badge_src": null,
        "entry": 9013,
        "entry_name": "The Bagus Villa",
        "event_total": 47,
        "has_played": true,
        "id": 52736,
        "last_rank": 28726,
        "player_name": "Felix Choi",
        "rank": 45336,
        "rank_sort": 45342,
        "total": 2355
      },
      {
        "club_badge_src": null,
        "entry": 14461,
        "entry_name": "FPL Bavarians",
        "event_total": 62,
        "has_played": true,
        "id": 87834,
        "last_rank": 53345,
        "player_name": "Jakub Gawe\u0142",
        "rank": 45336,
        "rank_sort": 45343,
        "total": 2355
      },
      {
        "club_badge_src": null,
        "entry": 14804,
        "entry_name": "M\u0142odzi Wilcy",
        "event_total": 60,
        "has_played": true,
        "id": 90303,
        "last_rank": 49880,
        "player_name": "Tomasz Ornat",
        "rank": 45336,
        "rank_sort": 45344,
        "total": 2355
      },
      {
        "club_badge_src": null,
        "entry": 16871,
        "entry_name": "BannistersLannisters",
        "event_total": 61,
        "has_played": true,
        "id": 104431,
        "last_rank": 51403,
        "player_name": "Joshua Bannister",
        "rank": 45336,
        "rank_sort": 45345,
        "total": 2355
      },
      {
        "club_badge_src": "https://fantasy.premierleague.com/gcs/plfpl-production-adobe-approved/plfpl-production/20685/704219eb-114e-4b2b-b312-cc9237ba59d6.png",
        "entry": 20685,
        "entry_name": "Wingardium LevioSARR",
        "event_total": 71,
        "has_played": true,
        "id": 129295,
        "last_rank": 61606,
        "player_name": "Gregg Arrand",
        "rank": 45336,
        "rank_sort": 45346,
        "total": 2355
      },
      {
        "club_badge_src": null,
        "entry": 22653,
        "entry_name": "Lil Uzi Wirtz",
        "event_total": 62,
        "has_played": true,
        "id": 142341,
        "last_rank": 46660,
        "player_name": "Ben McNelis",
        "rank": 45336,
        "rank_sort": 45347,
        "total": 2355
      },
      {
        "club_badge_src": null,
        "entry": 25445,
        "entry_name": "Those Damn Stripes",
        "event_total": 51,
        "has_played": true,
        "id": 160923,
        "last_rank": 37822,
        "player_name": "Pete Mason",
        "rank": 45336,
        "rank_sort": 45348,
        "total": 2355
      },
      {
        "club_badge_src": null,
        "entry": 26877,
        "entry_name": "Scans XI",
        "event_total": 67,
        "has_played": true,
        "id": 169945,
        "last_rank": 61950,
        "player_name": "John Devane",
        "rank": 45336,
        "rank_sort": 45349,
        "total": 2355
      },
      {
        "club_badge_src": "https://fantasy.premierleague.com/gcs/plfpl-production-adobe-approved/plfpl-production/30360/3b30d8e0-59b7-4a64-8cba-7b616d953c6c.png",
        "entry": 30360,
        "entry_name": "Fabian Bond",
        "event_total": 64,
        "has_played": true,
        "id": 192143,
        "last_rank": 56369,
        "player_name": "Jamie Short",
        "rank": 45336,
        "rank_sort": 45350,
        "total": 2355
      }
    ]
  }
}