{
  "last_updated_data": "2026-05-24T23:28:17Z",
  "league": {
    "admin_entry": null,
    "closed": false,
    "code_privacy": "p",
    "created": "2025-07-20T23:14:33.933835Z",
    "cup_league": 2815434,
    "has_cup": true,
    "id": 314,
    "league_type": "s",
    "max_entries": null,
    "name": "Overall",
    "rank": null,
    "scoring": "c",
    "start_event": 1
  },
  "new_entries": {
    "has_next": false,
    "page": 1,
    "results": []
  },
  "standings": {
    "has_next": true,
    "page": 853,
    "results": [
      {
        "club_badge_src": null,
        "entry": 6900029,
        "entry_name": "YaKnowIwataMean",
        "event_total": 56,
        "has_played": true,
        "id": 55304217,
        "last_rank": 41101,
        "player_name": "Dave Lewis",
        "rank": 42358,
        "rank_sort": 42601,
        "total": 2357
      },
      {
        "club_badge_src": null,
        "entry": 6975659,
        "entry_name": "HusTeit United",
        "event_total": 72,
        "has_played": true,
        "id": 55967261,
        "last_rank": 66848,
        "player_name": "Hanne Hustveit",
        "rank": 42358,
        "rank_sort": 42602,
        "total": 2357
      },
      {
        "club_badge_src": null,
        "entry": 7049413,
        "entry_name": "Livin Saliba Loca",
        "event_total": 68,
        "has_played": true,
        "id": 56692184,
        "last_rank": 59632,
        "player_name": "Micky Burr",
        "rank": 42358,
        "rank_sort": 42603,
        "total": 2357
      },
      {
        "club_badge_src": null,
        "entry": 7061835,
        "entry_name": "Wirtz Case Scenario",
        "event_total": 62,
        "has_played": true,
        "id": 56813067,
        "last_rank": 49880,
        "player_name": "Ieuan Rutherford",
        "rank": 42358,
        "rank_sort": 42604,
        "total": 2357
      },
      {
        "club_badge_src": null,
        "entry": 7308835,
        "entry_name": "Manchester is blue",
        "event_total": 60,
        "has_played": true,
        "id": 59159724,
        "last_rank": 46839,
        "player_name": "Mohammed Almogren",
        "rank": 42358,
        "rank_sort": 42605,
        "total": 2357
      },
      {
        "club_badge_src": null,
        "entry": 7317633,
        "entry_name": "The11",
        "event_total": 65,
        "has_played": true,
        "id": 59241885,
        "last_rank": 54667,
        "player_name": "Ben Farrell",
        "rank": 42358,
        "rank_sort": 42606,
        "total": 2357
      },
      {
        "club_badge_src": null,
        "entry": 7353794,
        "entry_name": "No More Hoodoo",
        "event_total": 61,
        "has_played": true,
        "id": 59583572,
        "last_rank": 48197,
        "player_name": "Yajat Singh",
        "rank": 42358,
        "rank_sort": 42607,
        "total": 2357
      },
      {
        "club_badge_src": null,
        "entry": 7358270,
        "entry_name": "Flameo Hotman",
        "event_total": 55,
        "has_played": true,
        "id": 59625918,
        "last_rank": 40036,
        "player_name": "Tash K",
        "rank": 42358,
        "rank_sort": 42608,
        "total": 2357
      },
      {
        "club_badge_src": null,
        "entry": 7371270,
        "entry_name": "Reece\u2019s Pieces",
        "event_total": 58,
        "has_played": true,
        "id": 59746221,
        "last_rank": 43849,
        "player_name": "Fahim Asfar",
        "rank": 42358,
        "rank_sort": 42609,
        "total": 2357
      },
      {
        "club_badge_src": null,
        "entry": 7419228,
        "entry_name": "why am I solanke",
        "event_total": 68,
        "has_played": true,
        "id": 60239365,
        "last_rank": 59475,
        "player_name": "Ed McDermott",
        "rank": 42358,
        "rank_sort": 42610,
        "total": 2357
      },
      {
        "club_badge_src": null,
        "entry": 7450392,
        "entry_name": "Eze come Eze go",
        "event_total": 47,
        "has_played": true,
        "id": 60638932,
        "last_rank": 30727,
        "player_name": "James Bailey",
        "rank": 42358,
        "rank_sort": 42611,
        "total": 2357
      },
      {
        "club_badge_src": null,
        "entry": 7455311,
        "entry_name": "Nettles Sting",
        "event_total": 68,
        "has_played": true,
        "id": 60704278,
        "last_rank": 59813,
        "player_name": "Ben Hibbert",
        "rank": 42358,
        "rank_sort": 42612,
        "total": 2357
      },
      {
        "club_badge_src": null,
        "entry": 7521770,
        "entry_name": "Nightcaps FC.",
        "event_total": 62,
        "has_played": true,
        "id": 61543029,
        "last_rank": 49691,
        "player_name": "Sebastian Jarrin",
        "rank": 42358,
        "rank_sort": 42613,
        "total": 2357
      },
      {
        "club_badge_src": null,
        "entry": 7535621,
        "entry_name": "HotShotShad",
        "event_total": 76,
        "has_played": true,
        "id": 61679636,
        "last_rank": 74898,
        "player_name": "Brenden Shaddick",
        "rank": 42358,
        "rank_sort": 42614,
        "total": 2357
      },
      {
        "club_badge_src": null,
        "entry": 7597113,
        "entry_name": "Ana Banana",
        "event_total": 64,
        "has_played": true,
        "id": 62238885,
        "last_rank": 52853,
        "player_name": "Anamaria Nesteriuc",
        "rank": 42358,
        "rank_sort": 42615,
        "total": 2357
      },
      {
        "club_badge_src": null,
        "entry": 7644117,
        "entry_name": "Woodstock United",
        "event_total": 56,
        "has_played": true,
        "id": 62662807,
        "last_rank": 41324,
        "player_name": "Hannah Wood",
        "rank": 42358,
        "rank_sort": 42616,
        "total": 2357
      },
      {
        "club_badge_src": null,
        "entry": 7648210,
        "entry_name": "Gangsta's Allardyce",
        "event_total": 60,
        "has_played": true,
        "id": 62700714,
        "last_rank": 46839,
        "player_name": "Alex Hunt",
        "rank": 42358,
        "rank_sort": 42617,
        "total": 2357
      },
      {
        "club_badge_src": null,
        "entry": 7673817,
        "entry_name": "ijaz_7",
        "event_total": 59,
        "has_played": true,
        "id": 62935804,
        "last_rank": 45416,
        "player_name": "Ijaz Ahmed",
        "rank": 42358,
        "rank_sort": 42618,
        "total": 2357
      },
      {
        "club_badge_src": null,
        "entry": 7728396,
        "entry_name": "I Baleba Can Fly",
        "event_total": 54,
        "has_played": true,
        "id": 63426624,
        "last_rank": 38774,
        "player_name": "Alex Richards",
        "rank": 42358,
        "rank_sort": 42619,
        "total": 2357
      },
      {
        "club_badge_src": null,
        "entry": 7732458,
        "entry_name": "Haaland",
        "event_total": 54,
        "has_played": true,
        "id": 63463274,
        "last_rank": 38774,
        "player_name": "Martin Larsson",
        "rank": 42358,
        "rank_sort": 42620,
        "total": 2357
      },
      {
        "club_badge_src": null,
        "entry": 7770458,
        "entry_name": "no tik tok no ai",
        "event_total": 67,
        "has_played": true,
        "id": 63807146,
        "last_rank": 57857,
        "player_name": "Naser Ghadban",
        "rank": 42358,
        "rank_sort": 42621,
        "total": 2357
      },
      {
        "club_badge_src": null,
        "entry": 7860031,
        "entry_name": "Victor Moses lawn",
        "event_total": 68,
        "has_played": true,
        "id": 64623342,
        "last_rank": 59632,
        "player_name": "Jayden Sanson",
        "rank": 42358,
        "rank_sort": 42622,
        "total": 2357
      },
      {
        "club_badge_src": null,
        "entry": 7861344,
        "entry_name": "Gut",
        "event_total": 56,
        "has_played": true,
        "id": 64635365,
        "last_rank": 41324,
        "player_name": "Jamie Ellwood",
        "rank": 42358,
        "rank_sort": 42623,
        "total": 2357
      },
      {
        "club_badge_src": null,
        "entry": 8443111,
        "entry_name": "Ralph N Dem Man",
        "event_total": 59,
        "has_played": true,
        "id": 70088861,
        "last_rank": 45714,
        "player_name": "Kieran Machin",
        "rank": 42358,
        "rank_sort": 42624,
        "total": 2357
      },
      {
        "club_badge_src": null,
        "entry": 8506367,
        "entry_name": "Drogbit Like its Hot",
        "event_total": 65,
        "has_played": true,
        "id": 70699224,
        "last_rank": 54494,
        "player_name": "Patrick Meyler",
        "rank": 42358,
        "rank_sort": 42625,
        "total": 2357
      },
      {
        "club_badge_src": "https://fantasy.premierleague.com/gcs/plfpl-production-adobe-approved/plfpl-production/8782106/a45faa61-5956-474c-844b-5cabb6f3cc92.png",
        "entry": 8782106,
        "entry_name": "Not McFred again",
        "event_total": 70,
        "has_played": true,
        "id": 73372149,
        "last_rank": 63390,
        "player_name": "Manuel Wallner",
        "rank": 42358,
        "rank_sort": 42626,
        "total": 2357
      },
      {
        "club_badge_src": null,
        "entry": 8811378,
        "entry_name": "Ekitik\u00e9-taka",
        "event_total": 46,
        "has_played": true,
        "id": 73654514,
        "last_rank": 29688,
        "player_name": "Jordan James",
        "rank": 42358,
        "rank_sort": 42627,
        "total": 2357
      },
      {
        "club_badge_src": null,
        "entry": 8987998,
        "entry_name": "Ace of Slades",
        "event_total": 58,
        "has_played": true,
        "id": 75366075,
        "last_rank": 43849,
        "player_name": "Seb Slade",
        "rank": 42358,
        "rank_sort": 42628,
        "total": 2357
      },
      {
        "club_badge_src": null,
        "entry": 9285732,
        "entry_name": "Rivs FC",
        "event_total": 51,
        "has_played": true,
        "id": 78271805,
        "last_rank": 35424,
        "player_name": "Emma Rivers",
        "rank": 42358,
        "rank_sort": 42629,
        "total": 2357
      },
      {
        "club_badge_src": null,
        "entry": 9310992,
        "entry_name": "budget portsmouth",
        "event_total": 76,
        "has_played": true,
        "id": 78514851,
        "last_rank": 74787,
        "player_name": "Jacob S",
        "rank": 42358,
        "rank_sort": 42630,
        "total": 2357
      },
      {
        "club_badge_src": null,
        "entry": 9398543,
        "entry_name": "Bruno Dos Tres",
        "event_total": 38,
        "has_played": true,
        "id": 79359534,
        "last_rank": 22685,
        "player_name": "Iyaz B",
        "rank": 42358,
        "rank_sort": 42631,
        "total": 2357
      },
      {
        "club_badge_src": "https://fantasy.premierleague.com/gcs/plfpl-production-adobe-approved/plfpl-production/924/f9489d5e-f7af-49d9-b924-ae757ff1c018.png",
        "entry": 924,
        "entry_name": "Viktor Concordia",
        "event_total": 61,
        "has_played": true,
        "id": 5113,
        "last_rank": 48642,
        "player_name": "Ed Shardlow",
        "rank": 42632,
        "rank_sort": 42632,
        "total": 2357
      },
      {
        "club_badge_src": null,
        "entry": 5869,
        "entry_name": "Rees Rovers",
        "event_total": 66,
        "has_played": true,
        "id": 33551,
        "last_rank": 56180,
        "player_name": "Paul Rees",
        "rank": 42632,
        "rank_sort": 42633,
        "total": 2357
      },
      {
        "club_badge_src": null,
        "entry": 11004,
        "entry_name": "Thighs for Myles",
        "event_total": 64,
        "has_played": true,
        "id": 65237,
        "last_rank": 46839,
        "player_name": "Joe Shanahan",
        "rank": 42632,
        "rank_sort": 42634,
        "total": 2357
      },
      {
        "club_badge_src": "https://fantasy.premierleague.com/gcs/plfpl-production-adobe-approved/plfpl-production/12225/c22f1e7a-f5e2-46e3-ad8c-631ad5d29f1e.png",
        "entry": 12225,
        "entry_name": "Homegrounder",
        "event_total": 70,
        "has_played": true,
        "id": 72960,
        "last_rank": 56369,
        "player_name": "The Knights Template",
        "rank": 42632,
        "rank_sort": 42635,
        "total": 2357
      },
      {
        "club_badge_src": null,
        "entry": 13498,
        "entry_name": "Amad Fer It",
        "event_total": 71,
        "has_played": true,
        "id": 81607,
        "last_rank": 58071,
        "player_name": "Dan Wright",
        "rank": 42632,
        "rank_sort": 42636,
        "total": 2357
      },
      {
        "club_badge_src": null,
        "entry": 15746,
        "entry_name": "FC VaPa",
        "event_total": 60,
        "has_played": true,
        "id": 96891,
        "last_rank": 36200,
        "player_name": "Tommi Kari",
        "rank": 42632,
        "rank_sort": 42637,
        "total": 2357
      },
      {
        "club_badge_src": null,
        "entry": 16008,
        "entry_name": "Gruby na Brame",
        "event_total": 49,
        "has_played": true,
        "id": 98662,
        "last_rank": 28726,
        "player_name": "Rafa\u0142 Macioszek",
        "rank": 42632,
        "rank_sort": 42638,
        "total": 2357
      },
      {
        "club_badge_src": null,
        "entry": 16510,
        "entry_name": "404: TEAM NOT FOUND",
        "event_total": 55,
        "has_played": true,
        "id": 102028,
        "last_rank": 35166,
        "player_name": "Sam Hammonds",
        "rank": 42632,
        "rank_sort": 42639,
        "total": 2357
      },
      {
        "club_badge_src": null,
        "entry": 17791,
        "entry_name": "NFA keemo",
        "event_total": 65,
        "has_played": true,
        "id": 110452,
        "last_rank": 54667,
        "player_name": "Zakeem Lucien",
        "rank": 42632,
        "rank_sort": 42640,
        "total": 2357
      },
      {
        "club_badge_src": null,
        "entry": 19412,
        "entry_name": "HaCunhaMateta",
        "event_total": 61,
        "has_played": true,
        "id": 120782,
        "last_rank": 48642,
        "player_name": "Francisco Vilarinho",
        "rank": 42632,
        "rank_sort": 42641,
        "total": 2357
      },
      {
        "club_badge_src": null,
        "entry": 21529,
        "entry_name": "Alternatives2",
        "event_total": 51,
        "has_played": true,
        "id": 134992,
        "last_rank": 35166,
        "player_name": "Cat Spratt",
        "rank": 42632,
        "rank_sort": 42642,
        "total": 2357
      },
      {
        "club_badge_src": "https://fantasy.premierleague.com/gcs/plfpl-production-adobe-approved/plfpl-production/21693/3166b0c1-847a-4ad6-8092-de9e95fa5af6.png",
        "entry": 21693,
        "entry_name": "Lallanas In Pajamas",
        "event_total": 66,
        "has_played": true,
        "id": 136073,
        "last_rank": 56708,
        "player_name": "Ferdy Moore",
        "rank": 42632,
        "rank_sort": 42643,
        "total": 2357
      },
      {
        "club_badge_src": "https://fantasy.premierleague.com/gcs/plfpl-production-adobe-approved/plfpl-production/33095/ac7a6f84-e2bd-4fb0-ba67-caf75410036e.png",
        "entry": 33095,
        "entry_name": "harrykaneheist",
        "event_total": 50,
        "has_played": true,
        "id": 210903,
        "last_rank": 29688,
        "player_name": "Andrew Smith",
        "rank": 42632,
        "rank_sort": 42644,
        "total": 2357
      },
      {
        "club_badge_src": null,
        "entry": 34804,
        "entry_name": "Change Name",
        "event_total": 29,
        "has_played": true,
        "id": 222490,
        "last_rank": 16441,
        "player_name": "\u0421\u0438\u043c\u0435\u043e\u043d \u0422\u0440\u044a\u043d\u043e\u0432",
        "rank": 42632,
        "rank_sort": 42645,
        "total": 2357
      },
      {
        "club_badge_src": null,
        "entry": 35999,
        "entry_name": "\u2018Tis what \u2018tis",
        "event_total": 48,
        "has_played": true,
        "id": 230381,
        "last_rank": 27770,
        "player_name": "Jonas Cantoro",
        "rank": 42632,
        "rank_sort": 42646,
        "total": 2357
      },
      {
        "club_badge_src": null,
        "entry": 37109,
        "entry_name": "Cheap Fantasy",
        "event_total": 56,
        "has_played": true,
        "id": 237641,
        "last_rank": 41617,
        "player_name": "Agrim Mehandiratta",
        "rank": 42632,
        "rank_sort": 42647,
        "total": 2357
      },
      {
        "club_badge_src": null,
        "entry": 45530,
        "entry_name": "Area 69",
        "event_total": 66,
        "has_played": true,
        "id": 292085,
        "last_rank": 56708,
        "player_name": "Jack Forde",
        "rank": 42632,
        "rank_sort": 42648,
        "total": 2357
      },
      {
        "club_badge_src": null,
        "entry": 49005,
        "entry_name": "Champions of Europe",
        "event_total": 53,
        "has_played": true,
        "id": 314909,
        "last_rank": 37822,
        "player_name": "Henry Seaton",
        "rank": 42632,
        "rank_sort": 42649,
        "total": 2357
      },
      {
        "club_badge_src": null,
        "entry": 54848,
        "entry_name": "Kinder Mbeumo",
        "event_total": 60,
        "has_played": true,
        "id": 352989,
        "last_rank": 41101,
        "player_name": "Cathal Maher",
        "rank": 42632,
        "rank_sort": 42650,
        "total": 2357
      }
    ]
  }
}