{
  "last_updated_data": "2026-05-24T23:28:17Z",
  "league": {
    "admin_entry": null,
    "closed": false,
    "code_privacy": "p",
    "created": "2025-07-20T23:14:33.933835Z",
    "cup_league": 2815434,
    "has_cup": true,
    "id": 314,
    "league_type": "s",
    "max_entries": null,
    "name": "Overall",
    "rank": null,
    "scoring": "c",
    "start_event": 1
  },
  "new_entries": {
    "has_next": false,
    "page": 1,
    "results": []
  },
  "standings": {
    "has_next": true,
    "page": 515,
    "results": [
      {
        "club_badge_src": null,
        "entry": 740307,
        "entry_name": "ha-Cunha matata",
        "event_total": 56,
        "has_played": true,
        "id": 5033698,
        "last_rank": 24143,
        "player_name": "Cyriel Dessers",
        "rank": 25669,
        "rank_sort": 25701,
        "total": 2373
      },
      {
        "club_badge_src": null,
        "entry": 787259,
        "entry_name": "Pepsi Guardiola",
        "event_total": 58,
        "has_played": true,
        "id": 5382016,
        "last_rank": 26088,
        "player_name": "Dan iel",
        "rank": 25669,
        "rank_sort": 25702,
        "total": 2373
      },
      {
        "club_badge_src": null,
        "entry": 796649,
        "entry_name": "B\u00edctor Bald\u00e9s",
        "event_total": 61,
        "has_played": true,
        "id": 5452285,
        "last_rank": 29071,
        "player_name": "Phillp Harris",
        "rank": 25669,
        "rank_sort": 25703,
        "total": 2373
      },
      {
        "club_badge_src": null,
        "entry": 873070,
        "entry_name": "Frankly Football",
        "event_total": 62,
        "has_played": true,
        "id": 5985573,
        "last_rank": 30060,
        "player_name": "Francis Lundy",
        "rank": 25669,
        "rank_sort": 25704,
        "total": 2373
      },
      {
        "club_badge_src": null,
        "entry": 878493,
        "entry_name": "What A Drongo Kante",
        "event_total": 76,
        "has_played": true,
        "id": 6023500,
        "last_rank": 47596,
        "player_name": "Jeremy Pucheta",
        "rank": 25669,
        "rank_sort": 25705,
        "total": 2373
      },
      {
        "club_badge_src": null,
        "entry": 881806,
        "entry_name": "LETSGOCHAMP",
        "event_total": 62,
        "has_played": true,
        "id": 6047304,
        "last_rank": 30060,
        "player_name": "Thomas Sinton",
        "rank": 25669,
        "rank_sort": 25706,
        "total": 2373
      },
      {
        "club_badge_src": "https://fantasy.premierleague.com/gcs/plfpl-production-adobe-approved/plfpl-production/884299/2d713a90-c874-4b70-9944-e69493ca36ff.png",
        "entry": 884299,
        "entry_name": "Santa FC",
        "event_total": 66,
        "has_played": true,
        "id": 6064691,
        "last_rank": 29904,
        "player_name": "Anthony Santaga",
        "rank": 25669,
        "rank_sort": 25707,
        "total": 2373
      },
      {
        "club_badge_src": "https://fantasy.premierleague.com/gcs/plfpl-production-adobe-approved/plfpl-production/900346/ce13b19f-e9b1-4fe1-92df-f692fad1f849.png",
        "entry": 900346,
        "entry_name": "The Ostriches",
        "event_total": 68,
        "has_played": true,
        "id": 6186269,
        "last_rank": 36831,
        "player_name": "Sebastiaan Smits",
        "rank": 25669,
        "rank_sort": 25708,
        "total": 2373
      },
      {
        "club_badge_src": null,
        "entry": 916599,
        "entry_name": "Ekitike Taka",
        "event_total": 65,
        "has_played": true,
        "id": 6303108,
        "last_rank": 33332,
        "player_name": "Dan Mallinder",
        "rank": 25669,
        "rank_sort": 25709,
        "total": 2373
      },
      {
        "club_badge_src": null,
        "entry": 925043,
        "entry_name": "Atletico Sverre",
        "event_total": 40,
        "has_played": true,
        "id": 6363599,
        "last_rank": 11345,
        "player_name": "Sverre Gjerdingen",
        "rank": 25669,
        "rank_sort": 25710,
        "total": 2373
      },
      {
        "club_badge_src": null,
        "entry": 946732,
        "entry_name": "NR 1",
        "event_total": 63,
        "has_played": true,
        "id": 6520828,
        "last_rank": 30727,
        "player_name": "Imad Munthir",
        "rank": 25669,
        "rank_sort": 25711,
        "total": 2373
      },
      {
        "club_badge_src": null,
        "entry": 956606,
        "entry_name": "Vasco da Ginta",
        "event_total": 53,
        "has_played": true,
        "id": 6591283,
        "last_rank": 22064,
        "player_name": "Daniel Ginty",
        "rank": 25669,
        "rank_sort": 25712,
        "total": 2373
      },
      {
        "club_badge_src": null,
        "entry": 1004141,
        "entry_name": "BPS All Stars",
        "event_total": 65,
        "has_played": true,
        "id": 6941323,
        "last_rank": 33147,
        "player_name": "M McNeil",
        "rank": 25669,
        "rank_sort": 25713,
        "total": 2373
      },
      {
        "club_badge_src": null,
        "entry": 1005296,
        "entry_name": "BafanaBafana",
        "event_total": 68,
        "has_played": true,
        "id": 6949437,
        "last_rank": 31995,
        "player_name": "Paul Quinton",
        "rank": 25669,
        "rank_sort": 25714,
        "total": 2373
      },
      {
        "club_badge_src": null,
        "entry": 1005618,
        "entry_name": "The aWengers",
        "event_total": 62,
        "has_played": true,
        "id": 6951622,
        "last_rank": 26088,
        "player_name": "Joe Haysom",
        "rank": 25669,
        "rank_sort": 25715,
        "total": 2373
      },
      {
        "club_badge_src": null,
        "entry": 1087469,
        "entry_name": "FC Modr\u00fd Makrely",
        "event_total": 54,
        "has_played": true,
        "id": 7531161,
        "last_rank": 19721,
        "player_name": "Mat\u011bj \u017dmolil",
        "rank": 25669,
        "rank_sort": 25716,
        "total": 2373
      },
      {
        "club_badge_src": null,
        "entry": 1097821,
        "entry_name": "MagicyZUlicyAuu",
        "event_total": 38,
        "has_played": true,
        "id": 7604066,
        "last_rank": 12420,
        "player_name": "Sebastian Haluch",
        "rank": 25669,
        "rank_sort": 25717,
        "total": 2373
      },
      {
        "club_badge_src": null,
        "entry": 1133969,
        "entry_name": "FC Green Valley",
        "event_total": 72,
        "has_played": true,
        "id": 7860460,
        "last_rank": 41824,
        "player_name": "Willy Neumann",
        "rank": 25669,
        "rank_sort": 25718,
        "total": 2373
      },
      {
        "club_badge_src": null,
        "entry": 1144359,
        "entry_name": "Wrong role model",
        "event_total": 47,
        "has_played": true,
        "id": 7932411,
        "last_rank": 17718,
        "player_name": "Chisala Mwilima",
        "rank": 25669,
        "rank_sort": 25719,
        "total": 2373
      },
      {
        "club_badge_src": null,
        "entry": 1173070,
        "entry_name": "Marcelo",
        "event_total": 53,
        "has_played": true,
        "id": 8138130,
        "last_rank": 18985,
        "player_name": "marcel michnowski",
        "rank": 25669,
        "rank_sort": 25720,
        "total": 2373
      },
      {
        "club_badge_src": null,
        "entry": 1185010,
        "entry_name": "UP THE SEDGE",
        "event_total": 66,
        "has_played": true,
        "id": 8221869,
        "last_rank": 29904,
        "player_name": "Paul Ferrier",
        "rank": 25669,
        "rank_sort": 25721,
        "total": 2373
      },
      {
        "club_badge_src": null,
        "entry": 1250905,
        "entry_name": "Couldn't B Any Wirtz",
        "event_total": 64,
        "has_played": true,
        "id": 8687954,
        "last_rank": 27770,
        "player_name": "Ciar\u00e1n Mohan",
        "rank": 25669,
        "rank_sort": 25722,
        "total": 2373
      },
      {
        "club_badge_src": null,
        "entry": 1274357,
        "entry_name": "Arne Slot Machines",
        "event_total": 39,
        "has_played": true,
        "id": 8855055,
        "last_rank": 12940,
        "player_name": "Neil Byrne",
        "rank": 25669,
        "rank_sort": 25723,
        "total": 2373
      },
      {
        "club_badge_src": "https://fantasy.premierleague.com/gcs/plfpl-production-adobe-approved/plfpl-production/1298319/189806b1-c82a-4d9d-bc3a-296eba90b698.png",
        "entry": 1298319,
        "entry_name": "TheRiseOf SC Sandorf",
        "event_total": 67,
        "has_played": true,
        "id": 9023330,
        "last_rank": 35424,
        "player_name": "Tom\u00e1\u0161 Tarko\u0161",
        "rank": 25669,
        "rank_sort": 25724,
        "total": 2373
      },
      {
        "club_badge_src": null,
        "entry": 1360475,
        "entry_name": "Master G",
        "event_total": 60,
        "has_played": true,
        "id": 9456468,
        "last_rank": 28273,
        "player_name": "Marco Polo",
        "rank": 25669,
        "rank_sort": 25725,
        "total": 2373
      },
      {
        "club_badge_src": null,
        "entry": 1383507,
        "entry_name": "Gigo",
        "event_total": 52,
        "has_played": true,
        "id": 9622462,
        "last_rank": 21301,
        "player_name": "Marko Gigovic",
        "rank": 25669,
        "rank_sort": 25726,
        "total": 2373
      },
      {
        "club_badge_src": null,
        "entry": 1387787,
        "entry_name": "Marshall FC",
        "event_total": 69,
        "has_played": true,
        "id": 9653198,
        "last_rank": 32751,
        "player_name": "Geoff Butcher",
        "rank": 25669,
        "rank_sort": 25727,
        "total": 2373
      },
      {
        "club_badge_src": null,
        "entry": 1416401,
        "entry_name": "John Wick Academy",
        "event_total": 66,
        "has_played": true,
        "id": 9861520,
        "last_rank": 29904,
        "player_name": "Justin L. Cooper",
        "rank": 25669,
        "rank_sort": 25728,
        "total": 2373
      },
      {
        "club_badge_src": null,
        "entry": 1609265,
        "entry_name": "FrimPING PONG",
        "event_total": 69,
        "has_played": true,
        "id": 11259221,
        "last_rank": 37589,
        "player_name": "Burhan Anabtawi",
        "rank": 25669,
        "rank_sort": 25729,
        "total": 2373
      },
      {
        "club_badge_src": "https://fantasy.premierleague.com/gcs/plfpl-production-adobe-approved/plfpl-production/1666396/f9e11b34-be5e-4c46-8bc8-d7a416d04bee.png",
        "entry": 1666396,
        "entry_name": "Mojama Sal\u00e1  Barbate",
        "event_total": 68,
        "has_played": true,
        "id": 11667003,
        "last_rank": 36831,
        "player_name": "Papito Pepito",
        "rank": 25669,
        "rank_sort": 25730,
        "total": 2373
      },
      {
        "club_badge_src": null,
        "entry": 1693909,
        "entry_name": "Saka Potatoes",
        "event_total": 72,
        "has_played": true,
        "id": 11863795,
        "last_rank": 36348,
        "player_name": "Lucas Bradley",
        "rank": 25669,
        "rank_sort": 25731,
        "total": 2373
      },
      {
        "club_badge_src": null,
        "entry": 1719961,
        "entry_name": "lucky eleven",
        "event_total": 63,
        "has_played": true,
        "id": 12054608,
        "last_rank": 27020,
        "player_name": "David Bendrik",
        "rank": 25669,
        "rank_sort": 25732,
        "total": 2373
      },
      {
        "club_badge_src": "https://fantasy.premierleague.com/gcs/plfpl-production-adobe-approved/plfpl-production/1721388/e74ba777-fcf7-4a7f-b2c6-6e5dccdea58b.png",
        "entry": 1721388,
        "entry_name": "Cold Palmer",
        "event_total": 68,
        "has_played": true,
        "id": 12065067,
        "last_rank": 36831,
        "player_name": "Tariq Al Bakri",
        "rank": 25669,
        "rank_sort": 25733,
        "total": 2373
      },
      {
        "club_badge_src": null,
        "entry": 1993487,
        "entry_name": "The_Mbuemo_Ultimatum",
        "event_total": 56,
        "has_played": true,
        "id": 14085400,
        "last_rank": 20983,
        "player_name": "Zak Lagden",
        "rank": 25669,
        "rank_sort": 25734,
        "total": 2373
      },
      {
        "club_badge_src": null,
        "entry": 2000643,
        "entry_name": "SPECJALni",
        "event_total": 49,
        "has_played": true,
        "id": 14143284,
        "last_rank": 19103,
        "player_name": "Dawid D\u0105browski",
        "rank": 25669,
        "rank_sort": 25735,
        "total": 2373
      },
      {
        "club_badge_src": null,
        "entry": 2012271,
        "entry_name": "Maroo",
        "event_total": 62,
        "has_played": true,
        "id": 14229338,
        "last_rank": 30060,
        "player_name": "Maro Meme",
        "rank": 25669,
        "rank_sort": 25736,
        "total": 2373
      },
      {
        "club_badge_src": null,
        "entry": 2025086,
        "entry_name": "The Crown Jools",
        "event_total": 62,
        "has_played": true,
        "id": 14332376,
        "last_rank": 30060,
        "player_name": "Julian Lines",
        "rank": 25669,
        "rank_sort": 25737,
        "total": 2373
      },
      {
        "club_badge_src": null,
        "entry": 2143365,
        "entry_name": "Ka1j",
        "event_total": 66,
        "has_played": true,
        "id": 15233833,
        "last_rank": 34293,
        "player_name": "Kai Jones",
        "rank": 25669,
        "rank_sort": 25738,
        "total": 2373
      },
      {
        "club_badge_src": null,
        "entry": 2416434,
        "entry_name": "Dafetawu",
        "event_total": 49,
        "has_played": true,
        "id": 17274126,
        "last_rank": 16320,
        "player_name": "Florian Fetahu",
        "rank": 25669,
        "rank_sort": 25739,
        "total": 2373
      },
      {
        "club_badge_src": null,
        "entry": 2547076,
        "entry_name": "Bafana Bafana",
        "event_total": 66,
        "has_played": true,
        "id": 18257799,
        "last_rank": 34458,
        "player_name": "Al Noel",
        "rank": 25669,
        "rank_sort": 25740,
        "total": 2373
      },
      {
        "club_badge_src": null,
        "entry": 2587184,
        "entry_name": "Godlike JH",
        "event_total": 50,
        "has_played": true,
        "id": 18572866,
        "last_rank": 19835,
        "player_name": "Jeffrey Ho",
        "rank": 25669,
        "rank_sort": 25741,
        "total": 2373
      },
      {
        "club_badge_src": "https://fantasy.premierleague.com/gcs/plfpl-production-adobe-approved/plfpl-production/2599837/e6c5b2b5-338d-41cf-85a5-e266e3ca3bf1.png",
        "entry": 2599837,
        "entry_name": "Newton Goalsney",
        "event_total": 45,
        "has_played": true,
        "id": 18671725,
        "last_rank": 16320,
        "player_name": "Jim Davies",
        "rank": 25669,
        "rank_sort": 25742,
        "total": 2373
      },
      {
        "club_badge_src": null,
        "entry": 2909173,
        "entry_name": "Stevies Wonders",
        "event_total": 76,
        "has_played": true,
        "id": 21321451,
        "last_rank": 41617,
        "player_name": "Mark Smith",
        "rank": 25669,
        "rank_sort": 25743,
        "total": 2373
      },
      {
        "club_badge_src": null,
        "entry": 2914031,
        "entry_name": "Under My Cucurella",
        "event_total": 65,
        "has_played": true,
        "id": 21358991,
        "last_rank": 33332,
        "player_name": "Craig Jarvis",
        "rank": 25669,
        "rank_sort": 25744,
        "total": 2373
      },
      {
        "club_badge_src": "https://fantasy.premierleague.com/gcs/plfpl-production-adobe-approved/plfpl-production/3017103/94c33269-a70e-4c28-b55e-a47dd1cbaba2.png",
        "entry": 3017103,
        "entry_name": "GGMU",
        "event_total": 59,
        "has_played": true,
        "id": 22197386,
        "last_rank": 27203,
        "player_name": "Irwin Tham",
        "rank": 25669,
        "rank_sort": 25745,
        "total": 2373
      },
      {
        "club_badge_src": null,
        "entry": 3055746,
        "entry_name": "Cunha Feel It",
        "event_total": 55,
        "has_played": true,
        "id": 22496932,
        "last_rank": 20416,
        "player_name": "Shane Billbrough",
        "rank": 25669,
        "rank_sort": 25746,
        "total": 2373
      },
      {
        "club_badge_src": "https://fantasy.premierleague.com/gcs/plfpl-production-adobe-approved/plfpl-production/3085578/4559aae1-f802-48d3-b04a-cdd3e02d6fec.png",
        "entry": 3085578,
        "entry_name": "DontLookBackInElanga",
        "event_total": 52,
        "has_played": true,
        "id": 22733883,
        "last_rank": 21301,
        "player_name": "Barry Thornton",
        "rank": 25669,
        "rank_sort": 25747,
        "total": 2373
      },
      {
        "club_badge_src": null,
        "entry": 3155490,
        "entry_name": "JSHarland XI",
        "event_total": 64,
        "has_played": true,
        "id": 23306159,
        "last_rank": 32335,
        "player_name": "Jack Harland",
        "rank": 25669,
        "rank_sort": 25748,
        "total": 2373
      },
      {
        "club_badge_src": null,
        "entry": 3292855,
        "entry_name": "Pain in Dias",
        "event_total": 61,
        "has_played": true,
        "id": 24381776,
        "last_rank": 25172,
        "player_name": "Lucy Page",
        "rank": 25669,
        "rank_sort": 25749,
        "total": 2373
      },
      {
        "club_badge_src": "https://fantasy.premierleague.com/gcs/plfpl-production-adobe-approved/plfpl-production/3294443/1782d715-d5f4-4b74-9436-c1bf9f11cdac.png",
        "entry": 3294443,
        "entry_name": "Cullen Me Softly",
        "event_total": 54,
        "has_played": true,
        "id": 24395253,
        "last_rank": 22830,
        "player_name": "Andrew Earnshaw",
        "rank": 25669,
        "rank_sort": 25750,
        "total": 2373
      }
    ]
  }
}