{
  "last_updated_data": "2026-05-24T23:28:17Z",
  "league": {
    "admin_entry": null,
    "closed": false,
    "code_privacy": "p",
    "created": "2025-07-20T23:14:33.933835Z",
    "cup_league": 2815434,
    "has_cup": true,
    "id": 314,
    "league_type": "s",
    "max_entries": null,
    "name": "Overall",
    "rank": null,
    "scoring": "c",
    "start_event": 1
  },
  "new_entries": {
    "has_next": false,
    "page": 1,
    "results": []
  },
  "standings": {
    "has_next": true,
    "page": 526,
    "results": [
      {
        "club_badge_src": null,
        "entry": 2737278,
        "entry_name": "topgunners",
        "event_total": 58,
        "has_played": true,
        "id": 19706897,
        "last_rank": 26710,
        "player_name": "Daven Tan",
        "rank": 26139,
        "rank_sort": 26251,
        "total": 2372
      },
      {
        "club_badge_src": null,
        "entry": 2759394,
        "entry_name": "Nanslayer69",
        "event_total": 67,
        "has_played": true,
        "id": 20128920,
        "last_rank": 36624,
        "player_name": "Liam Perriman",
        "rank": 26139,
        "rank_sort": 26252,
        "total": 2372
      },
      {
        "club_badge_src": null,
        "entry": 2803264,
        "entry_name": "Snoddas",
        "event_total": 63,
        "has_played": true,
        "id": 20470944,
        "last_rank": 31747,
        "player_name": "Emil Lindmark",
        "rank": 26139,
        "rank_sort": 26253,
        "total": 2372
      },
      {
        "club_badge_src": null,
        "entry": 2817240,
        "entry_name": "Klia Mee Bale",
        "event_total": 56,
        "has_played": true,
        "id": 20577777,
        "last_rank": 24897,
        "player_name": "David Waidelich",
        "rank": 26139,
        "rank_sort": 26254,
        "total": 2372
      },
      {
        "club_badge_src": null,
        "entry": 2821936,
        "entry_name": "FC Pora\u017cka",
        "event_total": 59,
        "has_played": true,
        "id": 20616727,
        "last_rank": 27644,
        "player_name": "Marcin Kurek",
        "rank": 26139,
        "rank_sort": 26255,
        "total": 2372
      },
      {
        "club_badge_src": null,
        "entry": 2852104,
        "entry_name": "Armp\u00e5garna",
        "event_total": 30,
        "has_played": true,
        "id": 20853834,
        "last_rank": 9142,
        "player_name": "Fredrik Ohlson",
        "rank": 26139,
        "rank_sort": 26256,
        "total": 2372
      },
      {
        "club_badge_src": "https://fantasy.premierleague.com/gcs/plfpl-production-adobe-approved/plfpl-production/2897004/0912e6ef-1af0-4b2a-a859-65783c398548.png",
        "entry": 2897004,
        "entry_name": "Chris's No Hopers",
        "event_total": 65,
        "has_played": true,
        "id": 21226456,
        "last_rank": 34051,
        "player_name": "Chris Roberts",
        "rank": 26139,
        "rank_sort": 26257,
        "total": 2372
      },
      {
        "club_badge_src": null,
        "entry": 2909088,
        "entry_name": "Falling Apart Again",
        "event_total": 68,
        "has_played": true,
        "id": 21320780,
        "last_rank": 37589,
        "player_name": "mark smith",
        "rank": 26139,
        "rank_sort": 26258,
        "total": 2372
      },
      {
        "club_badge_src": null,
        "entry": 2963711,
        "entry_name": "Beautiful Game",
        "event_total": 59,
        "has_played": true,
        "id": 21771941,
        "last_rank": 27770,
        "player_name": "Jamie Waller",
        "rank": 26139,
        "rank_sort": 26259,
        "total": 2372
      },
      {
        "club_badge_src": null,
        "entry": 2972755,
        "entry_name": "Potetmaen's 11",
        "event_total": 66,
        "has_played": true,
        "id": 21842789,
        "last_rank": 34969,
        "player_name": "Hans Knudsen",
        "rank": 26139,
        "rank_sort": 26260,
        "total": 2372
      },
      {
        "club_badge_src": null,
        "entry": 3033130,
        "entry_name": "LBAA",
        "event_total": 68,
        "has_played": true,
        "id": 22320874,
        "last_rank": 37344,
        "player_name": "Benny Ng",
        "rank": 26139,
        "rank_sort": 26261,
        "total": 2372
      },
      {
        "club_badge_src": "https://fantasy.premierleague.com/gcs/plfpl-production-adobe-approved/plfpl-production/3138391/1ef0a563-edea-4771-b1b5-63e0f867b601.png",
        "entry": 3138391,
        "entry_name": "Living The Dream Utd",
        "event_total": 66,
        "has_played": true,
        "id": 23168051,
        "last_rank": 35166,
        "player_name": "Jez Betts",
        "rank": 26139,
        "rank_sort": 26262,
        "total": 2372
      },
      {
        "club_badge_src": null,
        "entry": 3219591,
        "entry_name": "RB Custard",
        "event_total": 53,
        "has_played": true,
        "id": 23807999,
        "last_rank": 22685,
        "player_name": "Tom Birchby",
        "rank": 26139,
        "rank_sort": 26263,
        "total": 2372
      },
      {
        "club_badge_src": null,
        "entry": 3261038,
        "entry_name": "Watching Netflix",
        "event_total": 60,
        "has_played": true,
        "id": 24129727,
        "last_rank": 28546,
        "player_name": "Boing Yuen --\ufe0f",
        "rank": 26139,
        "rank_sort": 26264,
        "total": 2372
      },
      {
        "club_badge_src": null,
        "entry": 3275596,
        "entry_name": "Zulu11",
        "event_total": 75,
        "has_played": true,
        "id": 24242887,
        "last_rank": 46839,
        "player_name": "Sujesh Sujan",
        "rank": 26139,
        "rank_sort": 26265,
        "total": 2372
      },
      {
        "club_badge_src": null,
        "entry": 3292987,
        "entry_name": "Blak- LUFC",
        "event_total": 66,
        "has_played": true,
        "id": 24382844,
        "last_rank": 34969,
        "player_name": "Blak -",
        "rank": 26139,
        "rank_sort": 26266,
        "total": 2372
      },
      {
        "club_badge_src": null,
        "entry": 3415816,
        "entry_name": "Mini FC",
        "event_total": 66,
        "has_played": true,
        "id": 25371084,
        "last_rank": 35166,
        "player_name": "Ond\u0159ej Skalick\u00fd",
        "rank": 26139,
        "rank_sort": 26267,
        "total": 2372
      },
      {
        "club_badge_src": null,
        "entry": 3441399,
        "entry_name": "Im Back - T.S",
        "event_total": 58,
        "has_played": true,
        "id": 25567480,
        "last_rank": 26827,
        "player_name": "TonZe Aristos",
        "rank": 26139,
        "rank_sort": 26268,
        "total": 2372
      },
      {
        "club_badge_src": null,
        "entry": 3447330,
        "entry_name": "wirtz nightmare",
        "event_total": 65,
        "has_played": true,
        "id": 25614602,
        "last_rank": 33936,
        "player_name": "Matt Dawe",
        "rank": 26139,
        "rank_sort": 26269,
        "total": 2372
      },
      {
        "club_badge_src": null,
        "entry": 3452533,
        "entry_name": "S\u00e4gOhAhKennedy",
        "event_total": 63,
        "has_played": true,
        "id": 25657694,
        "last_rank": 31747,
        "player_name": "Jesper \u00c5kerlund",
        "rank": 26139,
        "rank_sort": 26270,
        "total": 2372
      },
      {
        "club_badge_src": null,
        "entry": 3462130,
        "entry_name": "Son of Norm",
        "event_total": 51,
        "has_played": true,
        "id": 25735098,
        "last_rank": 20983,
        "player_name": "Jamie Featherstone",
        "rank": 26139,
        "rank_sort": 26271,
        "total": 2372
      },
      {
        "club_badge_src": null,
        "entry": 3468221,
        "entry_name": "Change Name",
        "event_total": 50,
        "has_played": true,
        "id": 25783134,
        "last_rank": 20179,
        "player_name": "Ross Witherford",
        "rank": 26139,
        "rank_sort": 26272,
        "total": 2372
      },
      {
        "club_badge_src": null,
        "entry": 3562089,
        "entry_name": "RAHAND",
        "event_total": 66,
        "has_played": true,
        "id": 26522035,
        "last_rank": 35166,
        "player_name": "Rahand Karzan",
        "rank": 26139,
        "rank_sort": 26273,
        "total": 2372
      },
      {
        "club_badge_src": null,
        "entry": 3574500,
        "entry_name": "campeones",
        "event_total": 55,
        "has_played": true,
        "id": 26616732,
        "last_rank": 24039,
        "player_name": "Denisse Ruvalcaba",
        "rank": 26139,
        "rank_sort": 26274,
        "total": 2372
      },
      {
        "club_badge_src": null,
        "entry": 3607499,
        "entry_name": "blueblueblue",
        "event_total": 65,
        "has_played": true,
        "id": 26871874,
        "last_rank": 34051,
        "player_name": "Ming Lam Chan",
        "rank": 26139,
        "rank_sort": 26275,
        "total": 2372
      },
      {
        "club_badge_src": null,
        "entry": 3620777,
        "entry_name": "LexCorp",
        "event_total": 58,
        "has_played": true,
        "id": 26976561,
        "last_rank": 23188,
        "player_name": "Lars Wik",
        "rank": 26139,
        "rank_sort": 26276,
        "total": 2372
      },
      {
        "club_badge_src": "https://fantasy.premierleague.com/gcs/plfpl-production-adobe-approved/plfpl-production/3645877/2583e766-a284-4c44-b6cd-44615e2159ba.png",
        "entry": 3645877,
        "entry_name": "\u5165\u6728\u5169\u5206",
        "event_total": 60,
        "has_played": true,
        "id": 27173064,
        "last_rank": 28726,
        "player_name": "Jable SM",
        "rank": 26139,
        "rank_sort": 26277,
        "total": 2372
      },
      {
        "club_badge_src": null,
        "entry": 3666246,
        "entry_name": "AllBelowMeIzBallz",
        "event_total": 69,
        "has_played": true,
        "id": 27341912,
        "last_rank": 38644,
        "player_name": "Kacy Drayton",
        "rank": 26139,
        "rank_sort": 26278,
        "total": 2372
      },
      {
        "club_badge_src": null,
        "entry": 3677764,
        "entry_name": "The Champ is Here",
        "event_total": 47,
        "has_played": true,
        "id": 27431107,
        "last_rank": 18113,
        "player_name": "Hussain Haidar",
        "rank": 26139,
        "rank_sort": 26279,
        "total": 2372
      },
      {
        "club_badge_src": null,
        "entry": 3720567,
        "entry_name": "Galacticos FC",
        "event_total": 65,
        "has_played": true,
        "id": 27765642,
        "last_rank": 33869,
        "player_name": "Juan Burgon",
        "rank": 26139,
        "rank_sort": 26280,
        "total": 2372
      },
      {
        "club_badge_src": null,
        "entry": 4000626,
        "entry_name": "Split the G",
        "event_total": 54,
        "has_played": true,
        "id": 30132111,
        "last_rank": 23341,
        "player_name": "Oskar F\u00f8rde",
        "rank": 26139,
        "rank_sort": 26281,
        "total": 2372
      },
      {
        "club_badge_src": null,
        "entry": 4017901,
        "entry_name": "Netoflix and Chill",
        "event_total": 54,
        "has_played": true,
        "id": 30280037,
        "last_rank": 23341,
        "player_name": "Luke Armstrong",
        "rank": 26139,
        "rank_sort": 26282,
        "total": 2372
      },
      {
        "club_badge_src": null,
        "entry": 4114040,
        "entry_name": "BeeNanaCupcake",
        "event_total": 77,
        "has_played": true,
        "id": 31073299,
        "last_rank": 49691,
        "player_name": "Caroline Easthope",
        "rank": 26139,
        "rank_sort": 26283,
        "total": 2372
      },
      {
        "club_badge_src": null,
        "entry": 4151915,
        "entry_name": "Scoobs Allstars",
        "event_total": 55,
        "has_played": true,
        "id": 31381937,
        "last_rank": 24143,
        "player_name": "Mitchell Holmes",
        "rank": 26139,
        "rank_sort": 26284,
        "total": 2372
      },
      {
        "club_badge_src": null,
        "entry": 4199351,
        "entry_name": "I love cp",
        "event_total": 64,
        "has_played": true,
        "id": 31786466,
        "last_rank": 32879,
        "player_name": "Tim Ryan",
        "rank": 26139,
        "rank_sort": 26285,
        "total": 2372
      },
      {
        "club_badge_src": null,
        "entry": 4363947,
        "entry_name": "Change Name",
        "event_total": 68,
        "has_played": true,
        "id": 33147306,
        "last_rank": 37435,
        "player_name": "Jonas Nouri",
        "rank": 26139,
        "rank_sort": 26286,
        "total": 2372
      },
      {
        "club_badge_src": "https://fantasy.premierleague.com/gcs/plfpl-production-adobe-approved/plfpl-production/4371957/1d551d62-70ab-48d1-8d6f-4a55d022b8fd.png",
        "entry": 4371957,
        "entry_name": "Keltavihre\u00e4t 1931",
        "event_total": 73,
        "has_played": true,
        "id": 33215270,
        "last_rank": 43849,
        "player_name": "Kalle Ermil",
        "rank": 26139,
        "rank_sort": 26287,
        "total": 2372
      },
      {
        "club_badge_src": null,
        "entry": 4384632,
        "entry_name": "AnttiGunner",
        "event_total": 55,
        "has_played": true,
        "id": 33327016,
        "last_rank": 24330,
        "player_name": "Antti Reijonen",
        "rank": 26139,
        "rank_sort": 26288,
        "total": 2372
      },
      {
        "club_badge_src": null,
        "entry": 4390684,
        "entry_name": "Odemwingie's Taxis",
        "event_total": 59,
        "has_played": true,
        "id": 33377626,
        "last_rank": 27976,
        "player_name": "Dan Foster",
        "rank": 26139,
        "rank_sort": 26289,
        "total": 2372
      },
      {
        "club_badge_src": "https://fantasy.premierleague.com/gcs/plfpl-production-adobe-approved/plfpl-production/4391713/a1387672-0d40-4288-945b-e8e79810dcaa.png",
        "entry": 4391713,
        "entry_name": "Rowdy X1",
        "event_total": 58,
        "has_played": true,
        "id": 33386547,
        "last_rank": 26827,
        "player_name": "Tom Crowdy",
        "rank": 26139,
        "rank_sort": 26290,
        "total": 2372
      },
      {
        "club_badge_src": null,
        "entry": 4430726,
        "entry_name": "Sigma",
        "event_total": 47,
        "has_played": true,
        "id": 33730068,
        "last_rank": 18113,
        "player_name": "Filip Bo\u017cek",
        "rank": 26139,
        "rank_sort": 26291,
        "total": 2372
      },
      {
        "club_badge_src": null,
        "entry": 4474715,
        "entry_name": "Shey's Ballers FC",
        "event_total": 49,
        "has_played": true,
        "id": 34100501,
        "last_rank": 16729,
        "player_name": "Shey Newing",
        "rank": 26139,
        "rank_sort": 26292,
        "total": 2372
      },
      {
        "club_badge_src": null,
        "entry": 4519227,
        "entry_name": "Swansong United",
        "event_total": 41,
        "has_played": true,
        "id": 34464129,
        "last_rank": 14370,
        "player_name": "Lovat Rees",
        "rank": 26139,
        "rank_sort": 26293,
        "total": 2372
      },
      {
        "club_badge_src": "https://fantasy.premierleague.com/gcs/plfpl-production-adobe-approved/plfpl-production/4631712/62d72d94-7982-464e-a84f-5817918f168c.png",
        "entry": 4631712,
        "entry_name": "Red Lightning",
        "event_total": 54,
        "has_played": true,
        "id": 35416065,
        "last_rank": 23341,
        "player_name": "H\u00e5vard Halse",
        "rank": 26139,
        "rank_sort": 26294,
        "total": 2372
      },
      {
        "club_badge_src": null,
        "entry": 4643390,
        "entry_name": "consistency is key",
        "event_total": 71,
        "has_played": true,
        "id": 35517807,
        "last_rank": 41324,
        "player_name": "Oscar Andersen",
        "rank": 26139,
        "rank_sort": 26295,
        "total": 2372
      },
      {
        "club_badge_src": null,
        "entry": 4674440,
        "entry_name": "Est\u00e9ve Banks",
        "event_total": 44,
        "has_played": true,
        "id": 35808222,
        "last_rank": 16163,
        "player_name": "Tyler Kettle",
        "rank": 26139,
        "rank_sort": 26296,
        "total": 2372
      },
      {
        "club_badge_src": null,
        "entry": 4807999,
        "entry_name": "simo",
        "event_total": 71,
        "has_played": true,
        "id": 37020499,
        "last_rank": 41324,
        "player_name": "SL .WEELVER",
        "rank": 26139,
        "rank_sort": 26297,
        "total": 2372
      },
      {
        "club_badge_src": null,
        "entry": 5051967,
        "entry_name": "Tika taka or death",
        "event_total": 55,
        "has_played": true,
        "id": 39033277,
        "last_rank": 24143,
        "player_name": "Chris Hope",
        "rank": 26139,
        "rank_sort": 26298,
        "total": 2372
      },
      {
        "club_badge_src": null,
        "entry": 5098916,
        "entry_name": "Timrich fc",
        "event_total": 56,
        "has_played": true,
        "id": 39411230,
        "last_rank": 24897,
        "player_name": "Samuel Timi",
        "rank": 26139,
        "rank_sort": 26299,
        "total": 2372
      },
      {
        "club_badge_src": null,
        "entry": 5216080,
        "entry_name": "jarvinho fc",
        "event_total": 45,
        "has_played": true,
        "id": 40408358,
        "last_rank": 16729,
        "player_name": "Jarvis Anderson",
        "rank": 26139,
        "rank_sort": 26300,
        "total": 2372
      }
    ]
  }
}