{
  "last_updated_data": "2026-05-24T23:28:17Z",
  "league": {
    "admin_entry": null,
    "closed": false,
    "code_privacy": "p",
    "created": "2025-07-20T23:14:33.933835Z",
    "cup_league": 2815434,
    "has_cup": true,
    "id": 314,
    "league_type": "s",
    "max_entries": null,
    "name": "Overall",
    "rank": null,
    "scoring": "c",
    "start_event": 1
  },
  "new_entries": {
    "has_next": false,
    "page": 1,
    "results": []
  },
  "standings": {
    "has_next": true,
    "page": 1629,
    "results": [
      {
        "club_badge_src": null,
        "entry": 8606741,
        "entry_name": "Axxol FC",
        "event_total": 69,
        "has_played": true,
        "id": 71663175,
        "last_rank": 113400,
        "player_name": "Ransome Halliday",
        "rank": 81296,
        "rank_sort": 81401,
        "total": 2335
      },
      {
        "club_badge_src": null,
        "entry": 8626998,
        "entry_name": "Marc's magicians",
        "event_total": 23,
        "has_played": true,
        "id": 71858699,
        "last_rank": 29333,
        "player_name": "marc cotter",
        "rank": 81296,
        "rank_sort": 81402,
        "total": 2335
      },
      {
        "club_badge_src": null,
        "entry": 9129229,
        "entry_name": "JOHNNY CITYZENS",
        "event_total": 47,
        "has_played": true,
        "id": 76739057,
        "last_rank": 62724,
        "player_name": "Yousef Elrashidi",
        "rank": 81296,
        "rank_sort": 81403,
        "total": 2335
      },
      {
        "club_badge_src": "https://fantasy.premierleague.com/gcs/plfpl-production-adobe-approved/plfpl-production/12675/179575e2-25ac-4668-96e9-4b8ac98ed5cc.png",
        "entry": 12675,
        "entry_name": "Jamie Bean FC",
        "event_total": 59,
        "has_played": true,
        "id": 76138,
        "last_rank": 70072,
        "player_name": "Jamie Pryke",
        "rank": 81404,
        "rank_sort": 81404,
        "total": 2335
      },
      {
        "club_badge_src": null,
        "entry": 15456,
        "entry_name": "MANOJ'S FIRST ELEVEN",
        "event_total": 52,
        "has_played": true,
        "id": 94878,
        "last_rank": 72407,
        "player_name": "Manoj kumar",
        "rank": 81404,
        "rank_sort": 81405,
        "total": 2335
      },
      {
        "club_badge_src": "https://fantasy.premierleague.com/gcs/plfpl-production-adobe-approved/plfpl-production/24874/4d6afff9-2523-40cd-9d37-798a2af71277.png",
        "entry": 24874,
        "entry_name": "Backstreet Gvardiol",
        "event_total": 56,
        "has_played": true,
        "id": 157143,
        "last_rank": 72265,
        "player_name": "Lionel Masbay",
        "rank": 81404,
        "rank_sort": 81406,
        "total": 2335
      },
      {
        "club_badge_src": null,
        "entry": 26390,
        "entry_name": "Bakers XI",
        "event_total": 59,
        "has_played": true,
        "id": 166861,
        "last_rank": 70072,
        "player_name": "Aaron Baker",
        "rank": 81404,
        "rank_sort": 81407,
        "total": 2335
      },
      {
        "club_badge_src": null,
        "entry": 29381,
        "entry_name": "Power Reijnders",
        "event_total": 63,
        "has_played": true,
        "id": 185762,
        "last_rank": 87710,
        "player_name": "Marc Buchanan",
        "rank": 81404,
        "rank_sort": 81408,
        "total": 2335
      },
      {
        "club_badge_src": null,
        "entry": 79279,
        "entry_name": "Calafiori Dreamin",
        "event_total": 53,
        "has_played": true,
        "id": 515598,
        "last_rank": 66296,
        "player_name": "Steven Tuckwell",
        "rank": 81404,
        "rank_sort": 81409,
        "total": 2335
      },
      {
        "club_badge_src": null,
        "entry": 84181,
        "entry_name": "All Too Welbeck (TV)",
        "event_total": 37,
        "has_played": true,
        "id": 548016,
        "last_rank": 46364,
        "player_name": "Jacob Linder",
        "rank": 81404,
        "rank_sort": 81410,
        "total": 2335
      },
      {
        "club_badge_src": null,
        "entry": 97116,
        "entry_name": "Change Name",
        "event_total": 56,
        "has_played": true,
        "id": 634323,
        "last_rank": 80877,
        "player_name": "Yusuf Abdurahman",
        "rank": 81404,
        "rank_sort": 81411,
        "total": 2335
      },
      {
        "club_badge_src": null,
        "entry": 159216,
        "entry_name": "Waen Fo Lo Fiao",
        "event_total": 68,
        "has_played": true,
        "id": 1047884,
        "last_rank": 99959,
        "player_name": "MoMoTaRoo Red Devil - The Ohm-",
        "rank": 81404,
        "rank_sort": 81412,
        "total": 2335
      },
      {
        "club_badge_src": null,
        "entry": 185159,
        "entry_name": "Team Meech",
        "event_total": 56,
        "has_played": true,
        "id": 1222938,
        "last_rank": 64319,
        "player_name": "James Kenny",
        "rank": 81404,
        "rank_sort": 81413,
        "total": 2335
      },
      {
        "club_badge_src": null,
        "entry": 207424,
        "entry_name": "MIST ROLLING IN",
        "event_total": 41,
        "has_played": true,
        "id": 1378680,
        "last_rank": 52522,
        "player_name": "adam wilcox",
        "rank": 81404,
        "rank_sort": 81414,
        "total": 2335
      },
      {
        "club_badge_src": null,
        "entry": 238903,
        "entry_name": "ArneBall",
        "event_total": 51,
        "has_played": true,
        "id": 1589619,
        "last_rank": 70276,
        "player_name": "Mats Flaa",
        "rank": 81404,
        "rank_sort": 81415,
        "total": 2335
      },
      {
        "club_badge_src": null,
        "entry": 304905,
        "entry_name": "Fantasy Fortunes",
        "event_total": 65,
        "has_played": true,
        "id": 2041686,
        "last_rank": 92471,
        "player_name": "Mel Dixon",
        "rank": 81404,
        "rank_sort": 81416,
        "total": 2335
      },
      {
        "club_badge_src": null,
        "entry": 333066,
        "entry_name": "malkhayat",
        "event_total": 57,
        "has_played": true,
        "id": 2230703,
        "last_rank": 83127,
        "player_name": "Muhamed Alkhayat",
        "rank": 81404,
        "rank_sort": 81417,
        "total": 2335
      },
      {
        "club_badge_src": null,
        "entry": 338159,
        "entry_name": "Do\u0646gol",
        "event_total": 62,
        "has_played": true,
        "id": 2263893,
        "last_rank": 76330,
        "player_name": "Mohamed Amr",
        "rank": 81404,
        "rank_sort": 81418,
        "total": 2335
      },
      {
        "club_badge_src": null,
        "entry": 355169,
        "entry_name": "Life of Bryan",
        "event_total": 58,
        "has_played": true,
        "id": 2376961,
        "last_rank": 68107,
        "player_name": "George Nairn",
        "rank": 81404,
        "rank_sort": 81419,
        "total": 2335
      },
      {
        "club_badge_src": null,
        "entry": 419391,
        "entry_name": "3000rpm",
        "event_total": 41,
        "has_played": true,
        "id": 2810868,
        "last_rank": 46313,
        "player_name": "Agung Saputra",
        "rank": 81404,
        "rank_sort": 81420,
        "total": 2335
      },
      {
        "club_badge_src": null,
        "entry": 429366,
        "entry_name": "\u0e19\u0e49\u0e2d\u0e07\u0e41\u0e1a\u0e07\u0e04\u0e4c\u0e28\u0e34\u0e29\u0e22\u0e4c\u0e08\u0e32\u0e23\u0e40\u0e14\u0e0a",
        "event_total": 77,
        "has_played": true,
        "id": 2879796,
        "last_rank": 124961,
        "player_name": "\u0e2d\u0e18\u0e34\u0e27\u0e31\u0e12\u0e19\u0e4c \u0e0d\u0e32\u0e19\u0e30",
        "rank": 81404,
        "rank_sort": 81421,
        "total": 2335
      },
      {
        "club_badge_src": null,
        "entry": 519075,
        "entry_name": "Stewart XI",
        "event_total": 51,
        "has_played": true,
        "id": 3485233,
        "last_rank": 70276,
        "player_name": "Alex Stewart",
        "rank": 81404,
        "rank_sort": 81422,
        "total": 2335
      },
      {
        "club_badge_src": null,
        "entry": 735796,
        "entry_name": "Gale Fc",
        "event_total": 68,
        "has_played": true,
        "id": 5001912,
        "last_rank": 110709,
        "player_name": "Sam Gale",
        "rank": 81404,
        "rank_sort": 81423,
        "total": 2335
      },
      {
        "club_badge_src": null,
        "entry": 748439,
        "entry_name": "SONY",
        "event_total": 68,
        "has_played": true,
        "id": 5092011,
        "last_rank": 99959,
        "player_name": "Alicja Pogoda",
        "rank": 81404,
        "rank_sort": 81424,
        "total": 2335
      },
      {
        "club_badge_src": null,
        "entry": 752369,
        "entry_name": "Game of Jones FC",
        "event_total": 82,
        "has_played": true,
        "id": 5119658,
        "last_rank": 141115,
        "player_name": "Rhys Jones",
        "rank": 81404,
        "rank_sort": 81425,
        "total": 2335
      },
      {
        "club_badge_src": null,
        "entry": 759022,
        "entry_name": "BIG BUCKET OF SOUP",
        "event_total": 53,
        "has_played": true,
        "id": 5171575,
        "last_rank": 74395,
        "player_name": "Tom Rees",
        "rank": 81404,
        "rank_sort": 81426,
        "total": 2335
      },
      {
        "club_badge_src": null,
        "entry": 773940,
        "entry_name": "Change Name",
        "event_total": 56,
        "has_played": true,
        "id": 5280432,
        "last_rank": 72265,
        "player_name": "Ethan Nayman",
        "rank": 81404,
        "rank_sort": 81427,
        "total": 2335
      },
      {
        "club_badge_src": null,
        "entry": 827206,
        "entry_name": "Studs Up FC",
        "event_total": 57,
        "has_played": true,
        "id": 5665585,
        "last_rank": 74317,
        "player_name": "Nikhil Ghayal",
        "rank": 81404,
        "rank_sort": 81428,
        "total": 2335
      },
      {
        "club_badge_src": null,
        "entry": 834229,
        "entry_name": "Biscuit Dunkers",
        "event_total": 67,
        "has_played": true,
        "id": 5714332,
        "last_rank": 107485,
        "player_name": "mark Pritty",
        "rank": 81404,
        "rank_sort": 81429,
        "total": 2335
      },
      {
        "club_badge_src": null,
        "entry": 881913,
        "entry_name": "ARSENAL91",
        "event_total": 66,
        "has_played": true,
        "id": 6048039,
        "last_rank": 105264,
        "player_name": "Omar Asfour",
        "rank": 81404,
        "rank_sort": 81430,
        "total": 2335
      },
      {
        "club_badge_src": null,
        "entry": 898310,
        "entry_name": "Omar YNWA",
        "event_total": 63,
        "has_played": true,
        "id": 6172012,
        "last_rank": 97470,
        "player_name": "Omar YNWA",
        "rank": 81404,
        "rank_sort": 81431,
        "total": 2335
      },
      {
        "club_badge_src": null,
        "entry": 910427,
        "entry_name": "Pekak FC",
        "event_total": 57,
        "has_played": true,
        "id": 6259817,
        "last_rank": 83127,
        "player_name": "Topek al depot",
        "rank": 81404,
        "rank_sort": 81432,
        "total": 2335
      },
      {
        "club_badge_src": null,
        "entry": 977997,
        "entry_name": "Rami 92",
        "event_total": 53,
        "has_played": true,
        "id": 6742316,
        "last_rank": 74395,
        "player_name": "Rami Radi",
        "rank": 81404,
        "rank_sort": 81433,
        "total": 2335
      },
      {
        "club_badge_src": null,
        "entry": 1143950,
        "entry_name": "Up the Rovers",
        "event_total": 60,
        "has_played": true,
        "id": 7929620,
        "last_rank": 80781,
        "player_name": "Arran Topham",
        "rank": 81404,
        "rank_sort": 81434,
        "total": 2335
      },
      {
        "club_badge_src": null,
        "entry": 1231615,
        "entry_name": "its coming home \u2b50\ufe0f\u2b50\ufe0f",
        "event_total": 50,
        "has_played": true,
        "id": 8552199,
        "last_rank": 68294,
        "player_name": "Steve Head",
        "rank": 81404,
        "rank_sort": 81435,
        "total": 2335
      },
      {
        "club_badge_src": "https://fantasy.premierleague.com/gcs/plfpl-production-adobe-approved/plfpl-production/1287561/1bc3fb0a-abd3-4e57-be66-187e04b4ea60.png",
        "entry": 1287561,
        "entry_name": "The Magnificent XI",
        "event_total": 74,
        "has_played": true,
        "id": 8946978,
        "last_rank": 128016,
        "player_name": "Erwin Mario",
        "rank": 81404,
        "rank_sort": 81436,
        "total": 2335
      },
      {
        "club_badge_src": "https://fantasy.premierleague.com/gcs/plfpl-production-adobe-approved/plfpl-production/1321604/0cae9492-261b-46a5-89fd-1631b149401f.png",
        "entry": 1321604,
        "entry_name": "Darwen End Rovers",
        "event_total": 59,
        "has_played": true,
        "id": 9186471,
        "last_rank": 87808,
        "player_name": "Dion Hayman",
        "rank": 81404,
        "rank_sort": 81437,
        "total": 2335
      },
      {
        "club_badge_src": null,
        "entry": 1440530,
        "entry_name": "The Invincibles 49",
        "event_total": 49,
        "has_played": true,
        "id": 10037950,
        "last_rank": 66296,
        "player_name": "Oskar Siegel",
        "rank": 81404,
        "rank_sort": 81438,
        "total": 2335
      },
      {
        "club_badge_src": "https://fantasy.premierleague.com/gcs/plfpl-production-adobe-approved/plfpl-production/1475782/59f1f3b8-d950-4f2a-be89-d2b26c9e3ad3.png",
        "entry": 1475782,
        "entry_name": "VICTORY DELAP",
        "event_total": 60,
        "has_played": true,
        "id": 10287404,
        "last_rank": 71713,
        "player_name": "Darren Scheepers",
        "rank": 81404,
        "rank_sort": 81439,
        "total": 2335
      },
      {
        "club_badge_src": null,
        "entry": 1603323,
        "entry_name": "Josh",
        "event_total": 81,
        "has_played": true,
        "id": 11216688,
        "last_rank": 151018,
        "player_name": "Joshua Hon",
        "rank": 81404,
        "rank_sort": 81440,
        "total": 2335
      },
      {
        "club_badge_src": null,
        "entry": 1606169,
        "entry_name": "Perch Toppers",
        "event_total": 64,
        "has_played": true,
        "id": 11237480,
        "last_rank": 90057,
        "player_name": "Michael Crawford",
        "rank": 81404,
        "rank_sort": 81441,
        "total": 2335
      },
      {
        "club_badge_src": null,
        "entry": 1818132,
        "entry_name": "Totsuka 01",
        "event_total": 46,
        "has_played": true,
        "id": 12785908,
        "last_rank": 61004,
        "player_name": "oktora reza",
        "rank": 81404,
        "rank_sort": 81442,
        "total": 2335
      },
      {
        "club_badge_src": null,
        "entry": 2002104,
        "entry_name": "Amorim or Out",
        "event_total": 60,
        "has_played": true,
        "id": 14154206,
        "last_rank": 80781,
        "player_name": "Marc Buncle",
        "rank": 81404,
        "rank_sort": 81443,
        "total": 2335
      },
      {
        "club_badge_src": null,
        "entry": 2127255,
        "entry_name": "Wyans Warriors",
        "event_total": 59,
        "has_played": true,
        "id": 15115056,
        "last_rank": 87808,
        "player_name": "Ryan Wayman",
        "rank": 81404,
        "rank_sort": 81444,
        "total": 2335
      },
      {
        "club_badge_src": "https://fantasy.premierleague.com/gcs/plfpl-production-adobe-approved/plfpl-production/2251990/0eb2276b-84b5-49e9-820e-52d9be5fcb83.png",
        "entry": 2251990,
        "entry_name": "Noni Mr rice kai",
        "event_total": 56,
        "has_played": true,
        "id": 16047268,
        "last_rank": 72265,
        "player_name": "Alexander Tucker",
        "rank": 81404,
        "rank_sort": 81445,
        "total": 2335
      },
      {
        "club_badge_src": null,
        "entry": 2273883,
        "entry_name": "Master",
        "event_total": 61,
        "has_played": true,
        "id": 16214248,
        "last_rank": 92602,
        "player_name": "Rnelly ob",
        "rank": 81404,
        "rank_sort": 81446,
        "total": 2335
      },
      {
        "club_badge_src": "https://fantasy.premierleague.com/gcs/plfpl-production-adobe-approved/plfpl-production/2403906/51fbd664-619c-46a1-8812-efbee5868d70.png",
        "entry": 2403906,
        "entry_name": "Hadyz",
        "event_total": 61,
        "has_played": true,
        "id": 17182076,
        "last_rank": 92602,
        "player_name": "Hady Samir",
        "rank": 81404,
        "rank_sort": 81447,
        "total": 2335
      },
      {
        "club_badge_src": null,
        "entry": 2456561,
        "entry_name": "Sheriff Wednesday",
        "event_total": 53,
        "has_played": true,
        "id": 17570901,
        "last_rank": 74474,
        "player_name": "Sheriff Showobi",
        "rank": 81404,
        "rank_sort": 81448,
        "total": 2335
      },
      {
        "club_badge_src": null,
        "entry": 2475547,
        "entry_name": "3mk Hady",
        "event_total": 64,
        "has_played": true,
        "id": 17711427,
        "last_rank": 90057,
        "player_name": "Mo Medo",
        "rank": 81404,
        "rank_sort": 81449,
        "total": 2335
      },
      {
        "club_badge_src": null,
        "entry": 2484441,
        "entry_name": "\u12cb\u1234",
        "event_total": 51,
        "has_played": true,
        "id": 17778223,
        "last_rank": 70276,
        "player_name": "Wase --------",
        "rank": 81404,
        "rank_sort": 81450,
        "total": 2335
      }
    ]
  }
}