{
  "last_updated_data": "2026-05-24T23:28:17Z",
  "league": {
    "admin_entry": null,
    "closed": false,
    "code_privacy": "p",
    "created": "2025-07-20T23:14:33.933835Z",
    "cup_league": 2815434,
    "has_cup": true,
    "id": 314,
    "league_type": "s",
    "max_entries": null,
    "name": "Overall",
    "rank": null,
    "scoring": "c",
    "start_event": 1
  },
  "new_entries": {
    "has_next": false,
    "page": 1,
    "results": []
  },
  "standings": {
    "has_next": true,
    "page": 580,
    "results": [
      {
        "club_badge_src": null,
        "entry": 699116,
        "entry_name": "Beef Cherki",
        "event_total": 56,
        "has_played": true,
        "id": 4736060,
        "last_rank": 27644,
        "player_name": "Sam Barlow",
        "rank": 28885,
        "rank_sort": 28951,
        "total": 2369
      },
      {
        "club_badge_src": null,
        "entry": 707303,
        "entry_name": "Locky's Legends",
        "event_total": 75,
        "has_played": true,
        "id": 4793594,
        "last_rank": 51137,
        "player_name": "Stuart Lockwood",
        "rank": 28885,
        "rank_sort": 28952,
        "total": 2369
      },
      {
        "club_badge_src": null,
        "entry": 710228,
        "entry_name": "The Habish F.C",
        "event_total": 68,
        "has_played": true,
        "id": 4816365,
        "last_rank": 41101,
        "player_name": "Karim Khaled",
        "rank": 28885,
        "rank_sort": 28953,
        "total": 2369
      },
      {
        "club_badge_src": null,
        "entry": 714701,
        "entry_name": "Gunners \ufffd",
        "event_total": 73,
        "has_played": true,
        "id": 4848868,
        "last_rank": 48197,
        "player_name": "Fatah aici \ud83c\udde9\ud83c\uddff\ud83c\udfc6\ud83e\udd47",
        "rank": 28885,
        "rank_sort": 28954,
        "total": 2369
      },
      {
        "club_badge_src": null,
        "entry": 724782,
        "entry_name": "SALMONELLA CONCUBINE",
        "event_total": 60,
        "has_played": true,
        "id": 4922787,
        "last_rank": 31747,
        "player_name": "Zachary Burton",
        "rank": 28885,
        "rank_sort": 28955,
        "total": 2369
      },
      {
        "club_badge_src": null,
        "entry": 740097,
        "entry_name": "AGPRK",
        "event_total": 56,
        "has_played": true,
        "id": 5032191,
        "last_rank": 27976,
        "player_name": "Heather Allum",
        "rank": 28885,
        "rank_sort": 28956,
        "total": 2369
      },
      {
        "club_badge_src": "https://fantasy.premierleague.com/gcs/plfpl-production-adobe-approved/plfpl-production/749622/3f744915-e934-4d12-ae7a-169b2bdd827f.png",
        "entry": 749622,
        "entry_name": "'Ohhh, Diogo' 2\u20e30\u20e3",
        "event_total": 57,
        "has_played": true,
        "id": 5100220,
        "last_rank": 28726,
        "player_name": "Matthew Martyniak",
        "rank": 28885,
        "rank_sort": 28957,
        "total": 2369
      },
      {
        "club_badge_src": null,
        "entry": 792271,
        "entry_name": "Merseyside Blue",
        "event_total": 60,
        "has_played": true,
        "id": 5421771,
        "last_rank": 31620,
        "player_name": "Oliver Firth",
        "rank": 28885,
        "rank_sort": 28958,
        "total": 2369
      },
      {
        "club_badge_src": null,
        "entry": 807080,
        "entry_name": "Toilet Break Tactics",
        "event_total": 66,
        "has_played": true,
        "id": 5525277,
        "last_rank": 38644,
        "player_name": "Kevin Baxter",
        "rank": 28885,
        "rank_sort": 28959,
        "total": 2369
      },
      {
        "club_badge_src": null,
        "entry": 820809,
        "entry_name": "Barnyard's XI",
        "event_total": 62,
        "has_played": true,
        "id": 5621469,
        "last_rank": 34051,
        "player_name": "Scott Barnes",
        "rank": 28885,
        "rank_sort": 28960,
        "total": 2369
      },
      {
        "club_badge_src": "https://fantasy.premierleague.com/gcs/plfpl-production-adobe-approved/plfpl-production/830612/9e7cbba2-967e-40ec-9533-949b2cdf9edf.png",
        "entry": 830612,
        "entry_name": "CHOleICEsterol Utd",
        "event_total": 55,
        "has_played": true,
        "id": 5689305,
        "last_rank": 26710,
        "player_name": "Lester Leaves It Late Lee",
        "rank": 28885,
        "rank_sort": 28961,
        "total": 2369
      },
      {
        "club_badge_src": null,
        "entry": 846255,
        "entry_name": "Jakarta FC",
        "event_total": 45,
        "has_played": true,
        "id": 5798333,
        "last_rank": 18691,
        "player_name": "Fuaad Salim",
        "rank": 28885,
        "rank_sort": 28962,
        "total": 2369
      },
      {
        "club_badge_src": null,
        "entry": 853434,
        "entry_name": "No Palace No Party",
        "event_total": 42,
        "has_played": true,
        "id": 5849887,
        "last_rank": 16729,
        "player_name": "Robert Penman",
        "rank": 28885,
        "rank_sort": 28963,
        "total": 2369
      },
      {
        "club_badge_src": "https://fantasy.premierleague.com/gcs/plfpl-production-adobe-approved/plfpl-production/868619/7c397229-f14f-41dd-9194-cdbb6e7a2577.png",
        "entry": 868619,
        "entry_name": "Calafiori Dreamin",
        "event_total": 71,
        "has_played": true,
        "id": 5955057,
        "last_rank": 45182,
        "player_name": "Mirnes Bubalo",
        "rank": 28885,
        "rank_sort": 28964,
        "total": 2369
      },
      {
        "club_badge_src": null,
        "entry": 884899,
        "entry_name": "Charli xGx",
        "event_total": 68,
        "has_played": true,
        "id": 6068812,
        "last_rank": 41162,
        "player_name": "Theo Kwong",
        "rank": 28885,
        "rank_sort": 28965,
        "total": 2369
      },
      {
        "club_badge_src": "https://fantasy.premierleague.com/gcs/plfpl-production-adobe-approved/plfpl-production/930192/4646ca2a-2b59-4167-8dba-fa1541a644ff.png",
        "entry": 930192,
        "entry_name": "FC Davenators",
        "event_total": 60,
        "has_played": true,
        "id": 6400320,
        "last_rank": 31747,
        "player_name": "David Strnad",
        "rank": 28885,
        "rank_sort": 28966,
        "total": 2369
      },
      {
        "club_badge_src": null,
        "entry": 982803,
        "entry_name": "chido Obi Wan kanobi",
        "event_total": 76,
        "has_played": true,
        "id": 6775948,
        "last_rank": 52738,
        "player_name": "Richard Crosara",
        "rank": 28885,
        "rank_sort": 28967,
        "total": 2369
      },
      {
        "club_badge_src": null,
        "entry": 1051660,
        "entry_name": "Rolls Reus",
        "event_total": 29,
        "has_played": true,
        "id": 7278089,
        "last_rank": 9942,
        "player_name": "Matt Moles",
        "rank": 28885,
        "rank_sort": 28968,
        "total": 2369
      },
      {
        "club_badge_src": null,
        "entry": 1054945,
        "entry_name": "Tel me Moore",
        "event_total": 51,
        "has_played": true,
        "id": 7300896,
        "last_rank": 23230,
        "player_name": "Hannah Foulkes",
        "rank": 28885,
        "rank_sort": 28969,
        "total": 2369
      },
      {
        "club_badge_src": "https://fantasy.premierleague.com/gcs/plfpl-production-adobe-approved/plfpl-production/1072291/ce31a75a-46c9-42a4-9d0f-c2ec5b2469ba.png",
        "entry": 1072291,
        "entry_name": "Canadian Beavers",
        "event_total": 64,
        "has_played": true,
        "id": 7423387,
        "last_rank": 36200,
        "player_name": "Chris Banham",
        "rank": 28885,
        "rank_sort": 28970,
        "total": 2369
      },
      {
        "club_badge_src": null,
        "entry": 1072352,
        "entry_name": "Cornick On The Cob",
        "event_total": 54,
        "has_played": true,
        "id": 7423816,
        "last_rank": 25902,
        "player_name": "Ted Mewes",
        "rank": 28885,
        "rank_sort": 28971,
        "total": 2369
      },
      {
        "club_badge_src": null,
        "entry": 1110250,
        "entry_name": "Ten Hag me Gently FC",
        "event_total": 66,
        "has_played": true,
        "id": 7690703,
        "last_rank": 38644,
        "player_name": "Lee Apsley",
        "rank": 28885,
        "rank_sort": 28972,
        "total": 2369
      },
      {
        "club_badge_src": null,
        "entry": 1120902,
        "entry_name": "Shakey The GOAT",
        "event_total": 58,
        "has_played": true,
        "id": 7765509,
        "last_rank": 29688,
        "player_name": "Jake Marks",
        "rank": 28885,
        "rank_sort": 28973,
        "total": 2369
      },
      {
        "club_badge_src": null,
        "entry": 1126717,
        "entry_name": "FABIO CANNAVARO",
        "event_total": 75,
        "has_played": true,
        "id": 7808637,
        "last_rank": 51220,
        "player_name": "FABIO CANNAVARO",
        "rank": 28885,
        "rank_sort": 28974,
        "total": 2369
      },
      {
        "club_badge_src": null,
        "entry": 1134955,
        "entry_name": "Mahmoud Mostafa",
        "event_total": 40,
        "has_played": true,
        "id": 7867276,
        "last_rank": 15550,
        "player_name": "Mahmoud Mostafa",
        "rank": 28885,
        "rank_sort": 28975,
        "total": 2369
      },
      {
        "club_badge_src": null,
        "entry": 1142452,
        "entry_name": "The Frogs of War",
        "event_total": 59,
        "has_played": true,
        "id": 7919297,
        "last_rank": 30957,
        "player_name": "Richard Froggatt",
        "rank": 28885,
        "rank_sort": 28976,
        "total": 2369
      },
      {
        "club_badge_src": "https://fantasy.premierleague.com/gcs/plfpl-production-adobe-approved/plfpl-production/1148342/2179e252-00e6-4983-9a5b-ac2147028e99.png",
        "entry": 1148342,
        "entry_name": "Os Marienses",
        "event_total": 68,
        "has_played": true,
        "id": 7962054,
        "last_rank": 41324,
        "player_name": "Joshua Cabral",
        "rank": 28885,
        "rank_sort": 28977,
        "total": 2369
      },
      {
        "club_badge_src": null,
        "entry": 1182760,
        "entry_name": "Old Havertz Kai Hard",
        "event_total": 61,
        "has_played": true,
        "id": 8206201,
        "last_rank": 32751,
        "player_name": "Leon Longmore",
        "rank": 28885,
        "rank_sort": 28978,
        "total": 2369
      },
      {
        "club_badge_src": null,
        "entry": 1191797,
        "entry_name": "Cobblers Select X1",
        "event_total": 59,
        "has_played": true,
        "id": 8269217,
        "last_rank": 30727,
        "player_name": "Rob Sapwell",
        "rank": 28885,
        "rank_sort": 28979,
        "total": 2369
      },
      {
        "club_badge_src": null,
        "entry": 1237422,
        "entry_name": "idos",
        "event_total": 55,
        "has_played": true,
        "id": 8592768,
        "last_rank": 26710,
        "player_name": "ido sagi",
        "rank": 28885,
        "rank_sort": 28980,
        "total": 2369
      },
      {
        "club_badge_src": null,
        "entry": 1283158,
        "entry_name": "JoelinToon",
        "event_total": 41,
        "has_played": true,
        "id": 8916282,
        "last_rank": 16163,
        "player_name": "Chris Lewis",
        "rank": 28885,
        "rank_sort": 28981,
        "total": 2369
      },
      {
        "club_badge_src": "https://fantasy.premierleague.com/gcs/plfpl-production-adobe-approved/plfpl-production/1301516/043e3805-27e4-4e0c-af64-9c00455d098f.png",
        "entry": 1301516,
        "entry_name": "Moo",
        "event_total": 48,
        "has_played": true,
        "id": 9045545,
        "last_rank": 20983,
        "player_name": "Jonathan Crewe",
        "rank": 28885,
        "rank_sort": 28982,
        "total": 2369
      },
      {
        "club_badge_src": "https://fantasy.premierleague.com/gcs/plfpl-production-adobe-approved/plfpl-production/1303019/4b0f6211-8b12-4752-871c-c951d19f00be.png",
        "entry": 1303019,
        "entry_name": "Diogo Jota",
        "event_total": 60,
        "has_played": true,
        "id": 9056018,
        "last_rank": 31556,
        "player_name": "Adeola Me-tan",
        "rank": 28885,
        "rank_sort": 28983,
        "total": 2369
      },
      {
        "club_badge_src": "https://fantasy.premierleague.com/gcs/plfpl-production-adobe-approved/plfpl-production/1318065/2ee4cf4b-383c-42c3-ab30-35e5f6eca5a8.png",
        "entry": 1318065,
        "entry_name": "\u30df\u30ab\u30f3\u30de\u30b9",
        "event_total": 44,
        "has_played": true,
        "id": 9161409,
        "last_rank": 18113,
        "player_name": "MIKAMI HiROKI",
        "rank": 28885,
        "rank_sort": 28984,
        "total": 2369
      },
      {
        "club_badge_src": null,
        "entry": 1369645,
        "entry_name": "Got 2 B Chippy Chips",
        "event_total": 60,
        "has_played": true,
        "id": 9520747,
        "last_rank": 31620,
        "player_name": "Justin Redemann",
        "rank": 28885,
        "rank_sort": 28985,
        "total": 2369
      },
      {
        "club_badge_src": null,
        "entry": 1395381,
        "entry_name": "Rudolph Reijnders",
        "event_total": 68,
        "has_played": true,
        "id": 9707467,
        "last_rank": 41162,
        "player_name": "Darren Payton",
        "rank": 28885,
        "rank_sort": 28986,
        "total": 2369
      },
      {
        "club_badge_src": null,
        "entry": 1411903,
        "entry_name": "93:20",
        "event_total": 47,
        "has_played": true,
        "id": 9825555,
        "last_rank": 20416,
        "player_name": "Bryan Babrovskie",
        "rank": 28885,
        "rank_sort": 28987,
        "total": 2369
      },
      {
        "club_badge_src": null,
        "entry": 1418731,
        "entry_name": "El Mauricio",
        "event_total": 62,
        "has_played": true,
        "id": 9878101,
        "last_rank": 34051,
        "player_name": "kamal Ahmed",
        "rank": 28885,
        "rank_sort": 28988,
        "total": 2369
      },
      {
        "club_badge_src": null,
        "entry": 1492758,
        "entry_name": "Van Buren Boys",
        "event_total": 54,
        "has_played": true,
        "id": 10409943,
        "last_rank": 25902,
        "player_name": "Gregory Mannering",
        "rank": 28885,
        "rank_sort": 28989,
        "total": 2369
      },
      {
        "club_badge_src": null,
        "entry": 1516292,
        "entry_name": "Carry on Wayward Son",
        "event_total": 64,
        "has_played": true,
        "id": 10575799,
        "last_rank": 36348,
        "player_name": "Nilo Daniel",
        "rank": 28885,
        "rank_sort": 28990,
        "total": 2369
      },
      {
        "club_badge_src": "https://fantasy.premierleague.com/gcs/plfpl-production-adobe-approved/plfpl-production/1551068/99fc7477-f60c-4632-b2fd-b397959f0f42.png",
        "entry": 1551068,
        "entry_name": "Code Red Eleven",
        "event_total": 59,
        "has_played": true,
        "id": 10829449,
        "last_rank": 30600,
        "player_name": "Mayur Mahamuni",
        "rank": 28885,
        "rank_sort": 28991,
        "total": 2369
      },
      {
        "club_badge_src": null,
        "entry": 1585835,
        "entry_name": "Lets Goal FC",
        "event_total": 60,
        "has_played": true,
        "id": 11086333,
        "last_rank": 31620,
        "player_name": "Daniel Kazemi",
        "rank": 28885,
        "rank_sort": 28992,
        "total": 2369
      },
      {
        "club_badge_src": null,
        "entry": 1586020,
        "entry_name": "FC Bada Bing!",
        "event_total": 62,
        "has_played": true,
        "id": 11087626,
        "last_rank": 25729,
        "player_name": "Liam Parker",
        "rank": 28885,
        "rank_sort": 28993,
        "total": 2369
      },
      {
        "club_badge_src": null,
        "entry": 1603515,
        "entry_name": "Special One",
        "event_total": 58,
        "has_played": true,
        "id": 11218311,
        "last_rank": 29578,
        "player_name": "Eslam Tety",
        "rank": 28885,
        "rank_sort": 28994,
        "total": 2369
      },
      {
        "club_badge_src": "https://fantasy.premierleague.com/gcs/plfpl-production-adobe-approved/plfpl-production/1605127/d848babe-277b-4cfc-b603-2bef218b29ff.png",
        "entry": 1605127,
        "entry_name": "Premier Elite XI",
        "event_total": 55,
        "has_played": true,
        "id": 11229724,
        "last_rank": 26827,
        "player_name": "raouf mld",
        "rank": 28885,
        "rank_sort": 28995,
        "total": 2369
      },
      {
        "club_badge_src": null,
        "entry": 1645592,
        "entry_name": "Rice Rice Baby",
        "event_total": 60,
        "has_played": true,
        "id": 11519301,
        "last_rank": 31747,
        "player_name": "Darragh Phillips",
        "rank": 28885,
        "rank_sort": 28996,
        "total": 2369
      },
      {
        "club_badge_src": null,
        "entry": 1694237,
        "entry_name": "Vinjani",
        "event_total": 58,
        "has_played": true,
        "id": 11866136,
        "last_rank": 29904,
        "player_name": "Ivan Galic",
        "rank": 28885,
        "rank_sort": 28997,
        "total": 2369
      },
      {
        "club_badge_src": null,
        "entry": 1703300,
        "entry_name": "behnz super team",
        "event_total": 60,
        "has_played": true,
        "id": 11931827,
        "last_rank": 31747,
        "player_name": "ben raftery",
        "rank": 28885,
        "rank_sort": 28998,
        "total": 2369
      },
      {
        "club_badge_src": null,
        "entry": 1707875,
        "entry_name": "Wirtz Behaviour",
        "event_total": 68,
        "has_played": true,
        "id": 11965349,
        "last_rank": 41324,
        "player_name": "Benga Adenusi",
        "rank": 28885,
        "rank_sort": 28999,
        "total": 2369
      },
      {
        "club_badge_src": null,
        "entry": 1723923,
        "entry_name": "Super Mik Arteta",
        "event_total": 72,
        "has_played": true,
        "id": 12088524,
        "last_rank": 47163,
        "player_name": "Rob Pavic",
        "rank": 28885,
        "rank_sort": 29000,
        "total": 2369
      }
    ]
  }
}