{
  "last_updated_data": "2026-05-24T23:28:17Z",
  "league": {
    "admin_entry": null,
    "closed": false,
    "code_privacy": "p",
    "created": "2025-07-20T23:14:33.933835Z",
    "cup_league": 2815434,
    "has_cup": true,
    "id": 314,
    "league_type": "s",
    "max_entries": null,
    "name": "Overall",
    "rank": null,
    "scoring": "c",
    "start_event": 1
  },
  "new_entries": {
    "has_next": false,
    "page": 1,
    "results": []
  },
  "standings": {
    "has_next": true,
    "page": 1407,
    "results": [
      {
        "club_badge_src": null,
        "entry": 5409955,
        "entry_name": "Morgan Wongers",
        "event_total": 66,
        "has_played": true,
        "id": 42069464,
        "last_rank": 91006,
        "player_name": "Wei Xian Wong",
        "rank": 70078,
        "rank_sort": 70301,
        "total": 2340
      },
      {
        "club_badge_src": null,
        "entry": 5436698,
        "entry_name": "FF - Ayush",
        "event_total": 56,
        "has_played": true,
        "id": 42294266,
        "last_rank": 69641,
        "player_name": "Ayush Nagar",
        "rank": 70078,
        "rank_sort": 70302,
        "total": 2340
      },
      {
        "club_badge_src": null,
        "entry": 5495155,
        "entry_name": "smeagols",
        "event_total": 49,
        "has_played": true,
        "id": 42803687,
        "last_rank": 56708,
        "player_name": "Hugo Razdan",
        "rank": 70078,
        "rank_sort": 70303,
        "total": 2340
      },
      {
        "club_badge_src": "https://fantasy.premierleague.com/gcs/plfpl-production-adobe-approved/plfpl-production/5497881/3423c7ae-e171-42e6-9128-79a185998cab.png",
        "entry": 5497881,
        "entry_name": "POGBOOM",
        "event_total": 62,
        "has_played": true,
        "id": 42834920,
        "last_rank": 81646,
        "player_name": "Guhan Ganesan",
        "rank": 70078,
        "rank_sort": 70304,
        "total": 2340
      },
      {
        "club_badge_src": "https://fantasy.premierleague.com/gcs/plfpl-production-adobe-approved/plfpl-production/5498766/077b3b32-effb-4691-8e18-eefd1d8ae146.png",
        "entry": 5498766,
        "entry_name": "Jeff Benzo",
        "event_total": 50,
        "has_played": true,
        "id": 42842610,
        "last_rank": 58688,
        "player_name": "Eric M\u00e5rdh",
        "rank": 70078,
        "rank_sort": 70305,
        "total": 2340
      },
      {
        "club_badge_src": null,
        "entry": 5583573,
        "entry_name": "redemptionseason*",
        "event_total": 73,
        "has_played": true,
        "id": 43612065,
        "last_rank": 108959,
        "player_name": "Aksel Vermassen",
        "rank": 70078,
        "rank_sort": 70306,
        "total": 2340
      },
      {
        "club_badge_src": null,
        "entry": 5630621,
        "entry_name": "Diamond Geezers",
        "event_total": 51,
        "has_played": true,
        "id": 44022769,
        "last_rank": 60462,
        "player_name": "Connor Diamond",
        "rank": 70078,
        "rank_sort": 70307,
        "total": 2340
      },
      {
        "club_badge_src": null,
        "entry": 5647365,
        "entry_name": "Twon",
        "event_total": 57,
        "has_played": true,
        "id": 44174680,
        "last_rank": 63390,
        "player_name": "Anthony Megaro",
        "rank": 70078,
        "rank_sort": 70308,
        "total": 2340
      },
      {
        "club_badge_src": null,
        "entry": 5661665,
        "entry_name": "Deep Pan Nostril Boy",
        "event_total": 52,
        "has_played": true,
        "id": 44296024,
        "last_rank": 54494,
        "player_name": "Tom Hurdiss",
        "rank": 70078,
        "rank_sort": 70309,
        "total": 2340
      },
      {
        "club_badge_src": null,
        "entry": 5675654,
        "entry_name": "Bismo Funyuns",
        "event_total": 59,
        "has_played": true,
        "id": 44417536,
        "last_rank": 59535,
        "player_name": "Nicolas Villa",
        "rank": 70078,
        "rank_sort": 70310,
        "total": 2340
      },
      {
        "club_badge_src": null,
        "entry": 5696611,
        "entry_name": "Liggeunderlaget",
        "event_total": 59,
        "has_played": true,
        "id": 44599120,
        "last_rank": 75139,
        "player_name": "Caroline Gabrielsen",
        "rank": 70078,
        "rank_sort": 70311,
        "total": 2340
      },
      {
        "club_badge_src": null,
        "entry": 5757008,
        "entry_name": "Metahampaat",
        "event_total": 70,
        "has_played": true,
        "id": 45126944,
        "last_rank": 101818,
        "player_name": "Daniel Tuuva",
        "rank": 70078,
        "rank_sort": 70312,
        "total": 2340
      },
      {
        "club_badge_src": null,
        "entry": 5799848,
        "entry_name": "BF",
        "event_total": 75,
        "has_played": true,
        "id": 45496669,
        "last_rank": 103254,
        "player_name": "BandaR Al Harbi",
        "rank": 70078,
        "rank_sort": 70313,
        "total": 2340
      },
      {
        "club_badge_src": null,
        "entry": 5896299,
        "entry_name": "livendirect",
        "event_total": 63,
        "has_played": true,
        "id": 46322314,
        "last_rank": 83934,
        "player_name": "Khaled Mohamed",
        "rank": 70078,
        "rank_sort": 70314,
        "total": 2340
      },
      {
        "club_badge_src": null,
        "entry": 5999616,
        "entry_name": "Jonathan Hotspur",
        "event_total": 54,
        "has_played": true,
        "id": 47295062,
        "last_rank": 58071,
        "player_name": "Jonathan Stabbetorp",
        "rank": 70078,
        "rank_sort": 70315,
        "total": 2340
      },
      {
        "club_badge_src": null,
        "entry": 6029760,
        "entry_name": "Just Mo with the Flo",
        "event_total": 57,
        "has_played": true,
        "id": 47564233,
        "last_rank": 70651,
        "player_name": "Ben Bravington",
        "rank": 70078,
        "rank_sort": 70316,
        "total": 2340
      },
      {
        "club_badge_src": null,
        "entry": 6066230,
        "entry_name": "Kellorado Rapids",
        "event_total": 69,
        "has_played": true,
        "id": 47880393,
        "last_rank": 98896,
        "player_name": "Andrew Kelly",
        "rank": 70078,
        "rank_sort": 70317,
        "total": 2340
      },
      {
        "club_badge_src": null,
        "entry": 6074555,
        "entry_name": "Bueno FC",
        "event_total": 41,
        "has_played": true,
        "id": 47954111,
        "last_rank": 44048,
        "player_name": "Antonio Muela",
        "rank": 70078,
        "rank_sort": 70318,
        "total": 2340
      },
      {
        "club_badge_src": null,
        "entry": 6235974,
        "entry_name": "Bedwetters",
        "event_total": 55,
        "has_played": true,
        "id": 49354580,
        "last_rank": 67422,
        "player_name": "Clive Brooks",
        "rank": 70078,
        "rank_sort": 70319,
        "total": 2340
      },
      {
        "club_badge_src": null,
        "entry": 6249904,
        "entry_name": "khweloSpa\u010de FC",
        "event_total": 66,
        "has_played": true,
        "id": 49473883,
        "last_rank": 91006,
        "player_name": "Tebogo Azania Makhwelo",
        "rank": 70078,
        "rank_sort": 70320,
        "total": 2340
      },
      {
        "club_badge_src": null,
        "entry": 6262220,
        "entry_name": "Bog Walk FC",
        "event_total": 67,
        "has_played": true,
        "id": 49582144,
        "last_rank": 93883,
        "player_name": "Fraser McConnell",
        "rank": 70078,
        "rank_sort": 70321,
        "total": 2340
      },
      {
        "club_badge_src": null,
        "entry": 6337769,
        "entry_name": "Berglunds",
        "event_total": 46,
        "has_played": true,
        "id": 50372806,
        "last_rank": 51720,
        "player_name": "Espen Berglund",
        "rank": 70078,
        "rank_sort": 70322,
        "total": 2340
      },
      {
        "club_badge_src": null,
        "entry": 6383152,
        "entry_name": "SSrf",
        "event_total": 57,
        "has_played": true,
        "id": 50770876,
        "last_rank": 63390,
        "player_name": "Jovan Zagorcic",
        "rank": 70078,
        "rank_sort": 70323,
        "total": 2340
      },
      {
        "club_badge_src": null,
        "entry": 6425475,
        "entry_name": "Kudusevski",
        "event_total": 55,
        "has_played": true,
        "id": 51146106,
        "last_rank": 66848,
        "player_name": "Tom Duffy",
        "rank": 70078,
        "rank_sort": 70324,
        "total": 2340
      },
      {
        "club_badge_src": null,
        "entry": 6487882,
        "entry_name": "your uncle",
        "event_total": 68,
        "has_played": true,
        "id": 51714928,
        "last_rank": 95640,
        "player_name": "Tarek Aboullaban",
        "rank": 70078,
        "rank_sort": 70325,
        "total": 2340
      },
      {
        "club_badge_src": null,
        "entry": 6531013,
        "entry_name": "The Pink Alien",
        "event_total": 71,
        "has_played": true,
        "id": 52098178,
        "last_rank": 93443,
        "player_name": "The Pink Alien",
        "rank": 70078,
        "rank_sort": 70326,
        "total": 2340
      },
      {
        "club_badge_src": null,
        "entry": 6631862,
        "entry_name": "Yonge St Warriors",
        "event_total": 55,
        "has_played": true,
        "id": 53003907,
        "last_rank": 59632,
        "player_name": "Chris Spencer",
        "rank": 70078,
        "rank_sort": 70327,
        "total": 2340
      },
      {
        "club_badge_src": "https://fantasy.premierleague.com/gcs/plfpl-production-adobe-approved/plfpl-production/6701527/197e432c-7d87-4d2a-b365-9e814505a7b1.png",
        "entry": 6701527,
        "entry_name": "Impy & Chimpy",
        "event_total": 64,
        "has_played": true,
        "id": 53621845,
        "last_rank": 86735,
        "player_name": "Tariq Salarbux",
        "rank": 70078,
        "rank_sort": 70328,
        "total": 2340
      },
      {
        "club_badge_src": null,
        "entry": 6754553,
        "entry_name": "Hit em were it Wirtz",
        "event_total": 65,
        "has_played": true,
        "id": 54076567,
        "last_rank": 88594,
        "player_name": "Ross Mcgall",
        "rank": 70078,
        "rank_sort": 70329,
        "total": 2340
      },
      {
        "club_badge_src": null,
        "entry": 6792810,
        "entry_name": "Livin' Saliba Loca",
        "event_total": 76,
        "has_played": true,
        "id": 54397381,
        "last_rank": 106259,
        "player_name": "Donny Wright",
        "rank": 70078,
        "rank_sort": 70330,
        "total": 2340
      },
      {
        "club_badge_src": null,
        "entry": 6794714,
        "entry_name": "Benny Blanco",
        "event_total": 72,
        "has_played": true,
        "id": 54413174,
        "last_rank": 106763,
        "player_name": "Michael Kelliher",
        "rank": 70078,
        "rank_sort": 70331,
        "total": 2340
      },
      {
        "club_badge_src": null,
        "entry": 6839435,
        "entry_name": "shaaranee natural",
        "event_total": 49,
        "has_played": true,
        "id": 54788671,
        "last_rank": 57001,
        "player_name": "Shaarani Balarabe Muhammad",
        "rank": 70078,
        "rank_sort": 70332,
        "total": 2340
      },
      {
        "club_badge_src": null,
        "entry": 7135878,
        "entry_name": "MKP",
        "event_total": 50,
        "has_played": true,
        "id": 57517089,
        "last_rank": 58071,
        "player_name": "Marcin Kowalczyk",
        "rank": 70078,
        "rank_sort": 70333,
        "total": 2340
      },
      {
        "club_badge_src": "https://fantasy.premierleague.com/gcs/plfpl-production-adobe-approved/plfpl-production/7153379/ac4a0217-6aa4-4234-a9fe-ea0228ca46b3.png",
        "entry": 7153379,
        "entry_name": "JS1",
        "event_total": 63,
        "has_played": true,
        "id": 57687334,
        "last_rank": 75139,
        "player_name": "Jay S.",
        "rank": 70078,
        "rank_sort": 70334,
        "total": 2340
      },
      {
        "club_badge_src": null,
        "entry": 7177642,
        "entry_name": "Trudalestin",
        "event_total": 64,
        "has_played": true,
        "id": 57924123,
        "last_rank": 85870,
        "player_name": "Hlynur Bjarnason",
        "rank": 70078,
        "rank_sort": 70335,
        "total": 2340
      },
      {
        "club_badge_src": null,
        "entry": 7251601,
        "entry_name": "Courage !!",
        "event_total": 73,
        "has_played": true,
        "id": 58621304,
        "last_rank": 108567,
        "player_name": "Michael Seixeiro",
        "rank": 70078,
        "rank_sort": 70336,
        "total": 2340
      },
      {
        "club_badge_src": null,
        "entry": 7275793,
        "entry_name": "Top \u0160e\u0161korer",
        "event_total": 66,
        "has_played": true,
        "id": 58847440,
        "last_rank": 91466,
        "player_name": "Alex Kokkalis",
        "rank": 70078,
        "rank_sort": 70337,
        "total": 2340
      },
      {
        "club_badge_src": null,
        "entry": 7369005,
        "entry_name": "Circassian -_-",
        "event_total": 54,
        "has_played": true,
        "id": 59725489,
        "last_rank": 65475,
        "player_name": "Omer Daghistany",
        "rank": 70078,
        "rank_sort": 70338,
        "total": 2340
      },
      {
        "club_badge_src": null,
        "entry": 7458044,
        "entry_name": "Caesar Salech",
        "event_total": 79,
        "has_played": true,
        "id": 60740064,
        "last_rank": 126088,
        "player_name": "Lauren Hosking",
        "rank": 70078,
        "rank_sort": 70339,
        "total": 2340
      },
      {
        "club_badge_src": null,
        "entry": 7477031,
        "entry_name": "Kinder Mbuemo",
        "event_total": 51,
        "has_played": true,
        "id": 60984764,
        "last_rank": 60462,
        "player_name": "Deni \u0160uran",
        "rank": 70078,
        "rank_sort": 70340,
        "total": 2340
      },
      {
        "club_badge_src": null,
        "entry": 7479634,
        "entry_name": "YouDoYouBruv",
        "event_total": 48,
        "has_played": true,
        "id": 61017929,
        "last_rank": 54667,
        "player_name": "Cheena Montana",
        "rank": 70078,
        "rank_sort": 70341,
        "total": 2340
      },
      {
        "club_badge_src": null,
        "entry": 7563776,
        "entry_name": "easy-peasy squad",
        "event_total": 46,
        "has_played": true,
        "id": 61935789,
        "last_rank": 51720,
        "player_name": "Dmitry Kuzmenko",
        "rank": 70078,
        "rank_sort": 70342,
        "total": 2340
      },
      {
        "club_badge_src": null,
        "entry": 7618967,
        "entry_name": "FC Expected Toulouse",
        "event_total": 58,
        "has_played": true,
        "id": 62437607,
        "last_rank": 73423,
        "player_name": "Patrick Connolly",
        "rank": 70078,
        "rank_sort": 70343,
        "total": 2340
      },
      {
        "club_badge_src": null,
        "entry": 7650016,
        "entry_name": "Kinsky Boots",
        "event_total": 52,
        "has_played": true,
        "id": 62717199,
        "last_rank": 61950,
        "player_name": "Neil Galbally",
        "rank": 70078,
        "rank_sort": 70344,
        "total": 2340
      },
      {
        "club_badge_src": "https://fantasy.premierleague.com/gcs/plfpl-production-adobe-approved/plfpl-production/7694847/22d21656-1f6a-43e6-a468-4b0904353bac.png",
        "entry": 7694847,
        "entry_name": "It's done",
        "event_total": 59,
        "has_played": true,
        "id": 63125142,
        "last_rank": 75537,
        "player_name": "Yanal Islam",
        "rank": 70078,
        "rank_sort": 70345,
        "total": 2340
      },
      {
        "club_badge_src": null,
        "entry": 7706074,
        "entry_name": "HibbosBird",
        "event_total": 62,
        "has_played": true,
        "id": 63225835,
        "last_rank": 73038,
        "player_name": "Matthew Carroll",
        "rank": 70078,
        "rank_sort": 70346,
        "total": 2340
      },
      {
        "club_badge_src": null,
        "entry": 7852236,
        "entry_name": "A-Cunha Matata",
        "event_total": 67,
        "has_played": true,
        "id": 64552482,
        "last_rank": 93443,
        "player_name": "Tom Hubert",
        "rank": 70078,
        "rank_sort": 70347,
        "total": 2340
      },
      {
        "club_badge_src": null,
        "entry": 7999899,
        "entry_name": "Kutangku Antakusuma",
        "event_total": 63,
        "has_played": true,
        "id": 65882907,
        "last_rank": 83934,
        "player_name": "raden helmi jongjava",
        "rank": 70078,
        "rank_sort": 70348,
        "total": 2340
      },
      {
        "club_badge_src": null,
        "entry": 8000905,
        "entry_name": "The inbetweeners",
        "event_total": 52,
        "has_played": true,
        "id": 65891918,
        "last_rank": 61606,
        "player_name": "Padraig Harding",
        "rank": 70078,
        "rank_sort": 70349,
        "total": 2340
      },
      {
        "club_badge_src": null,
        "entry": 8170332,
        "entry_name": "To De Ligthouse",
        "event_total": 56,
        "has_played": true,
        "id": 67457441,
        "last_rank": 69323,
        "player_name": "Cara Stoppard",
        "rank": 70078,
        "rank_sort": 70350,
        "total": 2340
      }
    ]
  }
}