{
  "last_updated_data": "2026-05-24T23:28:17Z",
  "league": {
    "admin_entry": null,
    "closed": false,
    "code_privacy": "p",
    "created": "2025-07-20T23:14:33.933835Z",
    "cup_league": 2815434,
    "has_cup": true,
    "id": 314,
    "league_type": "s",
    "max_entries": null,
    "name": "Overall",
    "rank": null,
    "scoring": "c",
    "start_event": 1
  },
  "new_entries": {
    "has_next": false,
    "page": 1,
    "results": []
  },
  "standings": {
    "has_next": true,
    "page": 1507,
    "results": [
      {
        "club_badge_src": null,
        "entry": 734791,
        "entry_name": "Mazarita FC",
        "event_total": 64,
        "has_played": true,
        "id": 4994211,
        "last_rank": 92861,
        "player_name": "Mostafa Ragab",
        "rank": 75299,
        "rank_sort": 75301,
        "total": 2338
      },
      {
        "club_badge_src": null,
        "entry": 977320,
        "entry_name": "A Cunha Mateta",
        "event_total": 52,
        "has_played": true,
        "id": 6737685,
        "last_rank": 52653,
        "player_name": "shane moore",
        "rank": 75299,
        "rank_sort": 75302,
        "total": 2338
      },
      {
        "club_badge_src": "https://fantasy.premierleague.com/gcs/plfpl-production-adobe-approved/plfpl-production/1339203/7b0d07fa-9f42-44be-97f7-5811368201aa.png",
        "entry": 1339203,
        "entry_name": "Gilly\u2019s Gringo\u2019s",
        "event_total": 59,
        "has_played": true,
        "id": 9310965,
        "last_rank": 72536,
        "player_name": "Tony Gill",
        "rank": 75299,
        "rank_sort": 75303,
        "total": 2338
      },
      {
        "club_badge_src": null,
        "entry": 1397953,
        "entry_name": "Oo kyaw U kyaw",
        "event_total": 62,
        "has_played": true,
        "id": 9725777,
        "last_rank": 78875,
        "player_name": "Oo Kyaw",
        "rank": 75299,
        "rank_sort": 75304,
        "total": 2338
      },
      {
        "club_badge_src": null,
        "entry": 2284045,
        "entry_name": "Potton Flyers",
        "event_total": 59,
        "has_played": true,
        "id": 16288433,
        "last_rank": 81111,
        "player_name": "Keith Fuller",
        "rank": 75299,
        "rank_sort": 75305,
        "total": 2338
      },
      {
        "club_badge_src": null,
        "entry": 4853765,
        "entry_name": "Rozova Dolina",
        "event_total": 62,
        "has_played": true,
        "id": 37398422,
        "last_rank": 78875,
        "player_name": "Zahari Filev",
        "rank": 75299,
        "rank_sort": 75306,
        "total": 2338
      },
      {
        "club_badge_src": null,
        "entry": 4966031,
        "entry_name": "THE BEST",
        "event_total": 49,
        "has_played": true,
        "id": 38323912,
        "last_rank": 61172,
        "player_name": "Matt Ingham",
        "rank": 75299,
        "rank_sort": 75307,
        "total": 2338
      },
      {
        "club_badge_src": null,
        "entry": 107517,
        "entry_name": "Fighter's",
        "event_total": 56,
        "has_played": true,
        "id": 700910,
        "last_rank": 52653,
        "player_name": "Omar Emam",
        "rank": 75308,
        "rank_sort": 75308,
        "total": 2338
      },
      {
        "club_badge_src": "https://fantasy.premierleague.com/gcs/plfpl-production-adobe-approved/plfpl-production/304112/bb1802d6-bb92-4e2b-a12b-0d5e0f1c952e.png",
        "entry": 304112,
        "entry_name": "My Heart \u2764\ufe0f\ufffd",
        "event_total": 63,
        "has_played": true,
        "id": 2035995,
        "last_rank": 64656,
        "player_name": "Mahmoud Al-Shawadfi",
        "rank": 75308,
        "rank_sort": 75309,
        "total": 2338
      },
      {
        "club_badge_src": "https://fantasy.premierleague.com/gcs/plfpl-production-adobe-approved/plfpl-production/580209/8f8c8d06-a5ea-48fd-a0a5-0ea9bae91d02.png",
        "entry": 580209,
        "entry_name": "Grey Area",
        "event_total": 56,
        "has_played": true,
        "id": 3904415,
        "last_rank": 66571,
        "player_name": "Chris Hurst",
        "rank": 75308,
        "rank_sort": 75310,
        "total": 2338
      },
      {
        "club_badge_src": null,
        "entry": 651752,
        "entry_name": "M\u00f1ause",
        "event_total": 42,
        "has_played": true,
        "id": 4404541,
        "last_rank": 43695,
        "player_name": "Alberto Avay\u00fa",
        "rank": 75308,
        "rank_sort": 75311,
        "total": 2338
      },
      {
        "club_badge_src": null,
        "entry": 1218926,
        "entry_name": "Minteh Fresh Breath",
        "event_total": 68,
        "has_played": true,
        "id": 8462123,
        "last_rank": 92861,
        "player_name": "Alex Attrill",
        "rank": 75308,
        "rank_sort": 75312,
        "total": 2338
      },
      {
        "club_badge_src": "https://fantasy.premierleague.com/gcs/plfpl-production-adobe-approved/plfpl-production/1632127/db2b3c6e-e718-431d-8120-cf8125bb3ea8.png",
        "entry": 1632127,
        "entry_name": "Wirtz = traitor",
        "event_total": 64,
        "has_played": true,
        "id": 11423902,
        "last_rank": 83385,
        "player_name": "Raies Ahmed",
        "rank": 75308,
        "rank_sort": 75313,
        "total": 2338
      },
      {
        "club_badge_src": null,
        "entry": 2054668,
        "entry_name": "LickMyEyeSack",
        "event_total": 56,
        "has_played": true,
        "id": 14554702,
        "last_rank": 66571,
        "player_name": "Ade Bower",
        "rank": 75308,
        "rank_sort": 75314,
        "total": 2338
      },
      {
        "club_badge_src": "https://fantasy.premierleague.com/gcs/plfpl-production-adobe-approved/plfpl-production/2650841/b1a16db2-14e2-422c-8868-e1ead9b23c0f.png",
        "entry": 2650841,
        "entry_name": "Ozi Visuals",
        "event_total": 57,
        "has_played": true,
        "id": 19053834,
        "last_rank": 76815,
        "player_name": "Ozi Uche",
        "rank": 75308,
        "rank_sort": 75315,
        "total": 2338
      },
      {
        "club_badge_src": null,
        "entry": 2924877,
        "entry_name": "Runners Up FC",
        "event_total": 57,
        "has_played": true,
        "id": 21442135,
        "last_rank": 76791,
        "player_name": "Andy McCrindle",
        "rank": 75308,
        "rank_sort": 75316,
        "total": 2338
      },
      {
        "club_badge_src": null,
        "entry": 3004514,
        "entry_name": "mahmoud Xx",
        "event_total": 48,
        "has_played": true,
        "id": 22100445,
        "last_rank": 52681,
        "player_name": "Mahmoud Abdo",
        "rank": 75308,
        "rank_sort": 75317,
        "total": 2338
      },
      {
        "club_badge_src": null,
        "entry": 3132120,
        "entry_name": "peaky reijnders",
        "event_total": 41,
        "has_played": true,
        "id": 23118695,
        "last_rank": 48007,
        "player_name": "Thomas Stockdale",
        "rank": 75308,
        "rank_sort": 75318,
        "total": 2338
      },
      {
        "club_badge_src": null,
        "entry": 3511924,
        "entry_name": "Aogaogaog",
        "event_total": 71,
        "has_played": true,
        "id": 26131945,
        "last_rank": 100378,
        "player_name": "Gavin Sousa",
        "rank": 75308,
        "rank_sort": 75319,
        "total": 2338
      },
      {
        "club_badge_src": null,
        "entry": 3838947,
        "entry_name": "QManU",
        "event_total": 63,
        "has_played": true,
        "id": 28742659,
        "last_rank": 90434,
        "player_name": "MrQ ManU",
        "rank": 75308,
        "rank_sort": 75320,
        "total": 2338
      },
      {
        "club_badge_src": null,
        "entry": 6058474,
        "entry_name": "K7alaf 24",
        "event_total": 64,
        "has_played": true,
        "id": 47812664,
        "last_rank": 92882,
        "player_name": "Ahmed K7alaf",
        "rank": 75308,
        "rank_sort": 75321,
        "total": 2338
      },
      {
        "club_badge_src": null,
        "entry": 6773286,
        "entry_name": "RANO FC",
        "event_total": 50,
        "has_played": true,
        "id": 54234030,
        "last_rank": 55980,
        "player_name": "Oyindamola Badewa",
        "rank": 75308,
        "rank_sort": 75322,
        "total": 2338
      },
      {
        "club_badge_src": null,
        "entry": 7043283,
        "entry_name": "All_Don",
        "event_total": 59,
        "has_played": true,
        "id": 56630311,
        "last_rank": 72544,
        "player_name": "Owen The Don",
        "rank": 75308,
        "rank_sort": 75323,
        "total": 2338
      },
      {
        "club_badge_src": null,
        "entry": 1134010,
        "entry_name": "The Rock",
        "event_total": 63,
        "has_played": true,
        "id": 7860738,
        "last_rank": 81121,
        "player_name": "Sherif Mohamed",
        "rank": 75324,
        "rank_sort": 75324,
        "total": 2338
      },
      {
        "club_badge_src": null,
        "entry": 1273458,
        "entry_name": "chilli sauce Salah",
        "event_total": 52,
        "has_played": true,
        "id": 8848564,
        "last_rank": 66588,
        "player_name": "Robert Baillie",
        "rank": 75324,
        "rank_sort": 75325,
        "total": 2338
      },
      {
        "club_badge_src": null,
        "entry": 1366919,
        "entry_name": "Merseybeat",
        "event_total": 69,
        "has_played": true,
        "id": 9502264,
        "last_rank": 85747,
        "player_name": "Lau Chun Yong",
        "rank": 75324,
        "rank_sort": 75326,
        "total": 2338
      },
      {
        "club_badge_src": null,
        "entry": 1384625,
        "entry_name": "Fitzys Fellas",
        "event_total": 60,
        "has_played": true,
        "id": 9630267,
        "last_rank": 74635,
        "player_name": "David Fitzmaurice",
        "rank": 75324,
        "rank_sort": 75327,
        "total": 2338
      },
      {
        "club_badge_src": null,
        "entry": 2164653,
        "entry_name": "ALLER PECHE",
        "event_total": 58,
        "has_played": true,
        "id": 15388391,
        "last_rank": 78919,
        "player_name": "mark lazenby",
        "rank": 75324,
        "rank_sort": 75328,
        "total": 2338
      },
      {
        "club_badge_src": null,
        "entry": 2964339,
        "entry_name": "ToMi \ufffd",
        "event_total": 59,
        "has_played": true,
        "id": 21776882,
        "last_rank": 72557,
        "player_name": "abdelrahman tohamy",
        "rank": 75324,
        "rank_sort": 75329,
        "total": 2338
      },
      {
        "club_badge_src": null,
        "entry": 3302835,
        "entry_name": "RLFC",
        "event_total": 66,
        "has_played": true,
        "id": 24463293,
        "last_rank": 78887,
        "player_name": "Rasmus Lindkvist",
        "rank": 75324,
        "rank_sort": 75330,
        "total": 2338
      },
      {
        "club_badge_src": null,
        "entry": 3326555,
        "entry_name": "Ataxia_XI",
        "event_total": 39,
        "has_played": true,
        "id": 24662514,
        "last_rank": 39744,
        "player_name": "Justin Sardine",
        "rank": 75324,
        "rank_sort": 75331,
        "total": 2338
      },
      {
        "club_badge_src": null,
        "entry": 4070226,
        "entry_name": "Of a7",
        "event_total": 68,
        "has_played": true,
        "id": 30720643,
        "last_rank": 83385,
        "player_name": "Boudyy Yasser",
        "rank": 75324,
        "rank_sort": 75332,
        "total": 2338
      },
      {
        "club_badge_src": null,
        "entry": 6616880,
        "entry_name": "\u0627\u0644\u0623\u0637\u0648\u0642",
        "event_total": 70,
        "has_played": true,
        "id": 52873067,
        "last_rank": 88053,
        "player_name": "qbbbr -",
        "rank": 75324,
        "rank_sort": 75333,
        "total": 2338
      },
      {
        "club_badge_src": null,
        "entry": 56352,
        "entry_name": "West Seim",
        "event_total": 58,
        "has_played": true,
        "id": 362966,
        "last_rank": 78919,
        "player_name": "Martin Alexander Seim",
        "rank": 75334,
        "rank_sort": 75334,
        "total": 2338
      },
      {
        "club_badge_src": null,
        "entry": 92467,
        "entry_name": "LeBron James",
        "event_total": 44,
        "has_played": true,
        "id": 604256,
        "last_rank": 46497,
        "player_name": "Riz Hussain",
        "rank": 75334,
        "rank_sort": 75335,
        "total": 2338
      },
      {
        "club_badge_src": "https://fantasy.premierleague.com/gcs/plfpl-production-adobe-approved/plfpl-production/511392/7c4d14a0-f472-476c-94bd-0217b745fe1a.png",
        "entry": 511392,
        "entry_name": "\u0418\u043d\u043a\u0435\u0440 FC",
        "event_total": 65,
        "has_played": true,
        "id": 3434066,
        "last_rank": 85776,
        "player_name": "Andrej Bogdanovski",
        "rank": 75334,
        "rank_sort": 75336,
        "total": 2338
      },
      {
        "club_badge_src": null,
        "entry": 1154191,
        "entry_name": "N17 FC",
        "event_total": 40,
        "has_played": true,
        "id": 8003552,
        "last_rank": 46503,
        "player_name": "Gene Spencer-Salmon",
        "rank": 75334,
        "rank_sort": 75337,
        "total": 2338
      },
      {
        "club_badge_src": null,
        "entry": 1368999,
        "entry_name": "One Size Fitz Hall",
        "event_total": 75,
        "has_played": true,
        "id": 9516463,
        "last_rank": 111060,
        "player_name": "The Stig",
        "rank": 75334,
        "rank_sort": 75338,
        "total": 2338
      },
      {
        "club_badge_src": "https://fantasy.premierleague.com/gcs/plfpl-production-adobe-approved/plfpl-production/5242965/8532ae6c-67e2-4616-b52b-e6b9e007f67c.png",
        "entry": 5242965,
        "entry_name": "Ctrl Alt De Ligt",
        "event_total": 62,
        "has_played": true,
        "id": 40632085,
        "last_rank": 70518,
        "player_name": "Mark Green",
        "rank": 75334,
        "rank_sort": 75339,
        "total": 2338
      },
      {
        "club_badge_src": null,
        "entry": 6869217,
        "entry_name": "Evo's All Star XI",
        "event_total": 63,
        "has_played": true,
        "id": 55043252,
        "last_rank": 90452,
        "player_name": "Martin Evans",
        "rank": 75334,
        "rank_sort": 75340,
        "total": 2338
      },
      {
        "club_badge_src": null,
        "entry": 7249833,
        "entry_name": "\u0627\u0644\u0645\u0632\u0627\u062c\u0646\u062c\u064a",
        "event_total": 66,
        "has_played": true,
        "id": 58603066,
        "last_rank": 88078,
        "player_name": "A M",
        "rank": 75334,
        "rank_sort": 75341,
        "total": 2338
      },
      {
        "club_badge_src": null,
        "entry": 8310135,
        "entry_name": "no name",
        "event_total": 51,
        "has_played": true,
        "id": 68816743,
        "last_rank": 57677,
        "player_name": "David Allwood",
        "rank": 75334,
        "rank_sort": 75342,
        "total": 2338
      },
      {
        "club_badge_src": "https://fantasy.premierleague.com/gcs/plfpl-production-adobe-approved/plfpl-production/267359/4bb59850-d601-47e9-8ce7-eace858f5efb.png",
        "entry": 267359,
        "entry_name": "Ong.FC",
        "event_total": 55,
        "has_played": true,
        "id": 1778585,
        "last_rank": 64715,
        "player_name": "Jakkai Tumpaktrakul",
        "rank": 75343,
        "rank_sort": 75343,
        "total": 2338
      },
      {
        "club_badge_src": null,
        "entry": 883905,
        "entry_name": "FPL AMAN",
        "event_total": 69,
        "has_played": true,
        "id": 6061895,
        "last_rank": 76791,
        "player_name": "Amanuel Abebe",
        "rank": 75343,
        "rank_sort": 75344,
        "total": 2338
      },
      {
        "club_badge_src": null,
        "entry": 980281,
        "entry_name": "Satara\u0161",
        "event_total": 79,
        "has_played": true,
        "id": 6758120,
        "last_rank": 135320,
        "player_name": "Ante Prusina",
        "rank": 75343,
        "rank_sort": 75345,
        "total": 2338
      },
      {
        "club_badge_src": null,
        "entry": 4372579,
        "entry_name": "Hazzzard",
        "event_total": 66,
        "has_played": true,
        "id": 33221758,
        "last_rank": 88087,
        "player_name": "Ayan Banerjee",
        "rank": 75343,
        "rank_sort": 75346,
        "total": 2338
      },
      {
        "club_badge_src": null,
        "entry": 4899665,
        "entry_name": "Balotellitubbies",
        "event_total": 63,
        "has_played": true,
        "id": 37781405,
        "last_rank": 81147,
        "player_name": "Joshua Samuel",
        "rank": 75343,
        "rank_sort": 75347,
        "total": 2338
      },
      {
        "club_badge_src": null,
        "entry": 7404373,
        "entry_name": "GoGo Power Reijnders",
        "event_total": 60,
        "has_played": true,
        "id": 60054775,
        "last_rank": 83438,
        "player_name": "JR Lewis",
        "rank": 75343,
        "rank_sort": 75348,
        "total": 2338
      },
      {
        "club_badge_src": null,
        "entry": 1730299,
        "entry_name": "Squidwirtz",
        "event_total": 60,
        "has_played": true,
        "id": 12136086,
        "last_rank": 83447,
        "player_name": "Samir Rahman",
        "rank": 75349,
        "rank_sort": 75349,
        "total": 2338
      },
      {
        "club_badge_src": null,
        "entry": 304125,
        "entry_name": "Premier Saints",
        "event_total": 60,
        "has_played": true,
        "id": 2036103,
        "last_rank": 74653,
        "player_name": "Grant Rist",
        "rank": 75350,
        "rank_sort": 75350,
        "total": 2338
      }
    ]
  }
}