{
  "last_updated_data": "2026-05-24T23:28:17Z",
  "league": {
    "admin_entry": null,
    "closed": false,
    "code_privacy": "p",
    "created": "2025-07-20T23:14:33.933835Z",
    "cup_league": 2815434,
    "has_cup": true,
    "id": 314,
    "league_type": "s",
    "max_entries": null,
    "name": "Overall",
    "rank": null,
    "scoring": "c",
    "start_event": 1
  },
  "new_entries": {
    "has_next": false,
    "page": 1,
    "results": []
  },
  "standings": {
    "has_next": true,
    "page": 1108,
    "results": [
      {
        "club_badge_src": null,
        "entry": 3553142,
        "entry_name": "Golden Tigers",
        "event_total": 76,
        "has_played": true,
        "id": 26452751,
        "last_rank": 76638,
        "player_name": "Ahmed Ali",
        "rank": 55334,
        "rank_sort": 55351,
        "total": 2349
      },
      {
        "club_badge_src": null,
        "entry": 5818606,
        "entry_name": "EkitikekitikE",
        "event_total": 67,
        "has_played": true,
        "id": 45659756,
        "last_rank": 74561,
        "player_name": "Jithu Jayachandran",
        "rank": 55334,
        "rank_sort": 55352,
        "total": 2349
      },
      {
        "club_badge_src": "https://fantasy.premierleague.com/gcs/plfpl-production-adobe-approved/plfpl-production/6771745/0ba362e4-93f9-4a4b-a45a-944064b82c26.png",
        "entry": 6771745,
        "entry_name": "\u0410\u043a\u0441\u0435\u0441\u0441-\u0413\u043e\u043b\u0434\u0435\u043d-\u0413\u0440\u0435\u0439\u043d",
        "event_total": 65,
        "has_played": true,
        "id": 54221143,
        "last_rank": 70446,
        "player_name": "Alexey Antropov",
        "rank": 55334,
        "rank_sort": 55353,
        "total": 2349
      },
      {
        "club_badge_src": null,
        "entry": 6806688,
        "entry_name": "2winjustonce",
        "event_total": 53,
        "has_played": true,
        "id": 54511944,
        "last_rank": 49475,
        "player_name": "Ronan Cassidy",
        "rank": 55334,
        "rank_sort": 55354,
        "total": 2349
      },
      {
        "club_badge_src": null,
        "entry": 8551689,
        "entry_name": "FC Wersonki",
        "event_total": 65,
        "has_played": true,
        "id": 71134793,
        "last_rank": 62874,
        "player_name": "Jakub Wach",
        "rank": 55334,
        "rank_sort": 55355,
        "total": 2349
      },
      {
        "club_badge_src": "https://fantasy.premierleague.com/gcs/plfpl-production-adobe-approved/plfpl-production/9415385/c39ee257-8a50-4b53-864f-0004104cac04.png",
        "entry": 9415385,
        "entry_name": "Malek Mabrouk",
        "event_total": 59,
        "has_played": true,
        "id": 79521443,
        "last_rank": 59335,
        "player_name": "Mabrouk Shaaban",
        "rank": 55334,
        "rank_sort": 55356,
        "total": 2349
      },
      {
        "club_badge_src": null,
        "entry": 947,
        "entry_name": "R\u00f8de Kaviarstjerne",
        "event_total": 67,
        "has_played": true,
        "id": 5241,
        "last_rank": 74561,
        "player_name": "Marius Sandmo",
        "rank": 55357,
        "rank_sort": 55357,
        "total": 2349
      },
      {
        "club_badge_src": null,
        "entry": 40424,
        "entry_name": "Champange SuperKova",
        "event_total": 48,
        "has_played": true,
        "id": 259174,
        "last_rank": 42327,
        "player_name": "Joe Partridge",
        "rank": 55357,
        "rank_sort": 55358,
        "total": 2349
      },
      {
        "club_badge_src": null,
        "entry": 121048,
        "entry_name": "Nk Mijaca",
        "event_total": 66,
        "has_played": true,
        "id": 789853,
        "last_rank": 64603,
        "player_name": "Blago Roso",
        "rank": 55357,
        "rank_sort": 55359,
        "total": 2349
      },
      {
        "club_badge_src": null,
        "entry": 177706,
        "entry_name": "kinder mbeumo",
        "event_total": 71,
        "has_played": true,
        "id": 1172855,
        "last_rank": 74561,
        "player_name": "alex griffiths",
        "rank": 55357,
        "rank_sort": 55360,
        "total": 2349
      },
      {
        "club_badge_src": null,
        "entry": 210122,
        "entry_name": "FPL Royalty",
        "event_total": 64,
        "has_played": true,
        "id": 1397397,
        "last_rank": 68460,
        "player_name": "Ryan Black",
        "rank": 55357,
        "rank_sort": 55361,
        "total": 2349
      },
      {
        "club_badge_src": null,
        "entry": 228844,
        "entry_name": "blue London",
        "event_total": 51,
        "has_played": true,
        "id": 1522508,
        "last_rank": 35998,
        "player_name": "Mishary S",
        "rank": 55357,
        "rank_sort": 55362,
        "total": 2349
      },
      {
        "club_badge_src": null,
        "entry": 442841,
        "entry_name": "FC | AWS $",
        "event_total": 65,
        "has_played": true,
        "id": 2969101,
        "last_rank": 70446,
        "player_name": "Aws Maali",
        "rank": 55357,
        "rank_sort": 55363,
        "total": 2349
      },
      {
        "club_badge_src": null,
        "entry": 1079750,
        "entry_name": "MurderOnZidanesFloor",
        "event_total": 80,
        "has_played": true,
        "id": 7476303,
        "last_rank": 95213,
        "player_name": "Laurynas Discoburger",
        "rank": 55357,
        "rank_sort": 55364,
        "total": 2349
      },
      {
        "club_badge_src": null,
        "entry": 1475599,
        "entry_name": "Haa Haaland",
        "event_total": 63,
        "has_played": true,
        "id": 10286067,
        "last_rank": 66518,
        "player_name": "Lamont Howie",
        "rank": 55357,
        "rank_sort": 55365,
        "total": 2349
      },
      {
        "club_badge_src": null,
        "entry": 1594222,
        "entry_name": "Da boyz!!!!",
        "event_total": 58,
        "has_played": true,
        "id": 11150944,
        "last_rank": 45007,
        "player_name": "eric benta",
        "rank": 55357,
        "rank_sort": 55366,
        "total": 2349
      },
      {
        "club_badge_src": null,
        "entry": 1776163,
        "entry_name": "LadsOnTour\u00e9",
        "event_total": 67,
        "has_played": true,
        "id": 12477741,
        "last_rank": 74591,
        "player_name": "Ieuan Johns",
        "rank": 55357,
        "rank_sort": 55367,
        "total": 2349
      },
      {
        "club_badge_src": null,
        "entry": 2122615,
        "entry_name": "Ali FC",
        "event_total": 55,
        "has_played": true,
        "id": 15078531,
        "last_rank": 52653,
        "player_name": "Hallgeir Sveen",
        "rank": 55357,
        "rank_sort": 55368,
        "total": 2349
      },
      {
        "club_badge_src": null,
        "entry": 2629757,
        "entry_name": "Haider team",
        "event_total": 53,
        "has_played": true,
        "id": 18898619,
        "last_rank": 49475,
        "player_name": "Haider Qannita",
        "rank": 55357,
        "rank_sort": 55369,
        "total": 2349
      },
      {
        "club_badge_src": null,
        "entry": 4429936,
        "entry_name": "PSquad",
        "event_total": 57,
        "has_played": true,
        "id": 33721673,
        "last_rank": 49463,
        "player_name": "Petru Sofianu",
        "rank": 55357,
        "rank_sort": 55370,
        "total": 2349
      },
      {
        "club_badge_src": null,
        "entry": 4523789,
        "entry_name": "tuft",
        "event_total": 58,
        "has_played": true,
        "id": 34501811,
        "last_rank": 57636,
        "player_name": "Sondre Tuft Thorgeirsson",
        "rank": 55357,
        "rank_sort": 55371,
        "total": 2349
      },
      {
        "club_badge_src": null,
        "entry": 4643164,
        "entry_name": "stex",
        "event_total": 58,
        "has_played": true,
        "id": 35515946,
        "last_rank": 51013,
        "player_name": "Stefan Ivanovic",
        "rank": 55357,
        "rank_sort": 55372,
        "total": 2349
      },
      {
        "club_badge_src": null,
        "entry": 4858060,
        "entry_name": "Team 1",
        "event_total": 56,
        "has_played": true,
        "id": 37435246,
        "last_rank": 54268,
        "player_name": "Danijel Skeledzija",
        "rank": 55357,
        "rank_sort": 55373,
        "total": 2349
      },
      {
        "club_badge_src": null,
        "entry": 6899919,
        "entry_name": "Hassen_1",
        "event_total": 70,
        "has_played": true,
        "id": 55303311,
        "last_rank": 72495,
        "player_name": "hassen bessekri",
        "rank": 55357,
        "rank_sort": 55374,
        "total": 2349
      },
      {
        "club_badge_src": null,
        "entry": 8316645,
        "entry_name": "Bantam Menace",
        "event_total": 54,
        "has_played": true,
        "id": 68885494,
        "last_rank": 51035,
        "player_name": "Jon Barrow",
        "rank": 55357,
        "rank_sort": 55375,
        "total": 2349
      },
      {
        "club_badge_src": "https://fantasy.premierleague.com/gcs/plfpl-production-adobe-approved/plfpl-production/215266/4fc32dd7-2b28-4078-8872-037c9214434a.png",
        "entry": 215266,
        "entry_name": "Waldorf Salah",
        "event_total": 59,
        "has_played": true,
        "id": 1431866,
        "last_rank": 46454,
        "player_name": "Gregg Arrand",
        "rank": 55376,
        "rank_sort": 55376,
        "total": 2349
      },
      {
        "club_badge_src": "https://fantasy.premierleague.com/gcs/plfpl-production-adobe-approved/plfpl-production/255407/b5fcb175-bb9f-4bda-80f6-849afd8fe404.png",
        "entry": 255407,
        "entry_name": "Kroupi Crawlies",
        "event_total": 69,
        "has_played": true,
        "id": 1698850,
        "last_rank": 78887,
        "player_name": "Owen Owen",
        "rank": 55376,
        "rank_sort": 55377,
        "total": 2349
      },
      {
        "club_badge_src": "https://fantasy.premierleague.com/gcs/plfpl-production-adobe-approved/plfpl-production/282899/5cfbe8fc-58b2-4cc7-8e28-32285665f0ca.png",
        "entry": 282899,
        "entry_name": "Loaf Boys\u2122",
        "event_total": 55,
        "has_played": true,
        "id": 1883200,
        "last_rank": 52670,
        "player_name": "Sean Kirk",
        "rank": 55376,
        "rank_sort": 55378,
        "total": 2349
      },
      {
        "club_badge_src": null,
        "entry": 403050,
        "entry_name": "Botman and Robin",
        "event_total": 44,
        "has_played": true,
        "id": 2702673,
        "last_rank": 37264,
        "player_name": "Josh McQuoid",
        "rank": 55376,
        "rank_sort": 55379,
        "total": 2349
      },
      {
        "club_badge_src": "https://fantasy.premierleague.com/gcs/plfpl-production-adobe-approved/plfpl-production/404518/707224be-e25f-432e-a6d5-4e2241827d4e.png",
        "entry": 404518,
        "entry_name": "Alcapop",
        "event_total": 64,
        "has_played": true,
        "id": 2712322,
        "last_rank": 54218,
        "player_name": "Alan Cope",
        "rank": 55376,
        "rank_sort": 55380,
        "total": 2349
      },
      {
        "club_badge_src": null,
        "entry": 478925,
        "entry_name": "Anthun",
        "event_total": 70,
        "has_played": true,
        "id": 3215058,
        "last_rank": 81093,
        "player_name": "Andreas Anthun",
        "rank": 55376,
        "rank_sort": 55381,
        "total": 2349
      },
      {
        "club_badge_src": null,
        "entry": 2450962,
        "entry_name": "Rabbi Keane",
        "event_total": 54,
        "has_played": true,
        "id": 17530053,
        "last_rank": 51047,
        "player_name": "Kevin Foster",
        "rank": 55376,
        "rank_sort": 55382,
        "total": 2349
      },
      {
        "club_badge_src": null,
        "entry": 2590363,
        "entry_name": "United Logan",
        "event_total": 54,
        "has_played": true,
        "id": 18597195,
        "last_rank": 51047,
        "player_name": "AMAL ANTONY",
        "rank": 55376,
        "rank_sort": 55383,
        "total": 2349
      },
      {
        "club_badge_src": null,
        "entry": 8350242,
        "entry_name": "Anton",
        "event_total": 66,
        "has_played": true,
        "id": 69204786,
        "last_rank": 57619,
        "player_name": "Anton Vieugue",
        "rank": 55376,
        "rank_sort": 55384,
        "total": 2349
      },
      {
        "club_badge_src": null,
        "entry": 8787927,
        "entry_name": "LS Renger",
        "event_total": 62,
        "has_played": true,
        "id": 73427894,
        "last_rank": 45007,
        "player_name": "Loongsa Chanmetha",
        "rank": 55376,
        "rank_sort": 55385,
        "total": 2349
      },
      {
        "club_badge_src": null,
        "entry": 121471,
        "entry_name": "Wirtz Your Name",
        "event_total": 40,
        "has_played": true,
        "id": 792567,
        "last_rank": 28485,
        "player_name": "Matt Halliburton",
        "rank": 55386,
        "rank_sort": 55386,
        "total": 2349
      },
      {
        "club_badge_src": null,
        "entry": 166297,
        "entry_name": "banwen boys",
        "event_total": 57,
        "has_played": true,
        "id": 1098597,
        "last_rank": 43657,
        "player_name": "Fran Armstrong",
        "rank": 55386,
        "rank_sort": 55387,
        "total": 2349
      },
      {
        "club_badge_src": null,
        "entry": 876568,
        "entry_name": "Lexxxus The Donn",
        "event_total": 55,
        "has_played": true,
        "id": 6009747,
        "last_rank": 27464,
        "player_name": "Lexxus Schilpz",
        "rank": 55386,
        "rank_sort": 55388,
        "total": 2349
      },
      {
        "club_badge_src": null,
        "entry": 1334087,
        "entry_name": "Livlongtime FC",
        "event_total": 66,
        "has_played": true,
        "id": 9273171,
        "last_rank": 72544,
        "player_name": "Samuel Grufman",
        "rank": 55386,
        "rank_sort": 55389,
        "total": 2349
      },
      {
        "club_badge_src": null,
        "entry": 1353314,
        "entry_name": "ABODE",
        "event_total": 37,
        "has_played": true,
        "id": 9407841,
        "last_rank": 29454,
        "player_name": "ABODE HUSSAM",
        "rank": 55386,
        "rank_sort": 55390,
        "total": 2349
      },
      {
        "club_badge_src": "https://fantasy.premierleague.com/gcs/plfpl-production-adobe-approved/plfpl-production/1786221/dd400725-a4a8-4f94-aa7b-ab89816d8aa3.png",
        "entry": 1786221,
        "entry_name": "Messaoud Reds",
        "event_total": 62,
        "has_played": true,
        "id": 12550530,
        "last_rank": 57652,
        "player_name": "Messaoud Mecheta",
        "rank": 55386,
        "rank_sort": 55391,
        "total": 2349
      },
      {
        "club_badge_src": null,
        "entry": 5365200,
        "entry_name": "colonoscopy",
        "event_total": 57,
        "has_played": true,
        "id": 41678088,
        "last_rank": 55980,
        "player_name": "Yuval Dekel",
        "rank": 55386,
        "rank_sort": 55392,
        "total": 2349
      },
      {
        "club_badge_src": null,
        "entry": 5412462,
        "entry_name": "Major League Saka",
        "event_total": 61,
        "has_played": true,
        "id": 42090220,
        "last_rank": 62974,
        "player_name": "Ruhil Kapadi",
        "rank": 55386,
        "rank_sort": 55393,
        "total": 2349
      },
      {
        "club_badge_src": "https://fantasy.premierleague.com/gcs/plfpl-production-adobe-approved/plfpl-production/7748900/7f372498-0da1-4e0d-82db-5e35f86d0f33.png",
        "entry": 7748900,
        "entry_name": "$kevstar",
        "event_total": 54,
        "has_played": true,
        "id": 63611251,
        "last_rank": 51047,
        "player_name": "Kevaughn Benjamin",
        "rank": 55386,
        "rank_sort": 55394,
        "total": 2349
      },
      {
        "club_badge_src": null,
        "entry": 933384,
        "entry_name": "Black mamba fc",
        "event_total": 65,
        "has_played": true,
        "id": 6422891,
        "last_rank": 62974,
        "player_name": "yus Yup",
        "rank": 55395,
        "rank_sort": 55395,
        "total": 2349
      },
      {
        "club_badge_src": null,
        "entry": 1053113,
        "entry_name": "Krishinators",
        "event_total": 56,
        "has_played": true,
        "id": 7288227,
        "last_rank": 54317,
        "player_name": "Krish Gill",
        "rank": 55395,
        "rank_sort": 55396,
        "total": 2349
      },
      {
        "club_badge_src": null,
        "entry": 3942668,
        "entry_name": "Bukayo's Glock14",
        "event_total": 74,
        "has_played": true,
        "id": 29658675,
        "last_rank": 81111,
        "player_name": "Repon Rahat",
        "rank": 55395,
        "rank_sort": 55397,
        "total": 2349
      },
      {
        "club_badge_src": null,
        "entry": 6504938,
        "entry_name": "NaverDie",
        "event_total": 58,
        "has_played": true,
        "id": 51865862,
        "last_rank": 57670,
        "player_name": "Sarawut Boupheun",
        "rank": 55395,
        "rank_sort": 55398,
        "total": 2349
      },
      {
        "club_badge_src": null,
        "entry": 6943152,
        "entry_name": "The North Star",
        "event_total": 72,
        "has_played": true,
        "id": 55668114,
        "last_rank": 76778,
        "player_name": "Simon Wardle",
        "rank": 55395,
        "rank_sort": 55399,
        "total": 2349
      },
      {
        "club_badge_src": null,
        "entry": 111530,
        "entry_name": "Vinh Klose",
        "event_total": 71,
        "has_played": true,
        "id": 727234,
        "last_rank": 74624,
        "player_name": "Vinh Do",
        "rank": 55400,
        "rank_sort": 55400,
        "total": 2349
      }
    ]
  }
}