{
  "last_updated_data": "2026-05-24T23:28:17Z",
  "league": {
    "admin_entry": null,
    "closed": false,
    "code_privacy": "p",
    "created": "2025-07-20T23:14:33.933835Z",
    "cup_league": 2815434,
    "has_cup": true,
    "id": 314,
    "league_type": "s",
    "max_entries": null,
    "name": "Overall",
    "rank": null,
    "scoring": "c",
    "start_event": 1
  },
  "new_entries": {
    "has_next": false,
    "page": 1,
    "results": []
  },
  "standings": {
    "has_next": true,
    "page": 1057,
    "results": [
      {
        "club_badge_src": null,
        "entry": 236362,
        "entry_name": "MKorhosen Pumppu",
        "event_total": 59,
        "has_played": true,
        "id": 1572631,
        "last_rank": 49880,
        "player_name": "Mikael Korhonen",
        "rank": 52759,
        "rank_sort": 52801,
        "total": 2350
      },
      {
        "club_badge_src": "https://fantasy.premierleague.com/gcs/plfpl-production-adobe-approved/plfpl-production/249155/f33ab15c-e2c0-45c6-bb40-c285dab977ad.png",
        "entry": 249155,
        "entry_name": "The Djeidi Order",
        "event_total": 73,
        "has_played": true,
        "id": 1658107,
        "last_rank": 74898,
        "player_name": "Mathew Reid",
        "rank": 52759,
        "rank_sort": 52802,
        "total": 2350
      },
      {
        "club_badge_src": null,
        "entry": 253501,
        "entry_name": "Pecarosi XI",
        "event_total": 64,
        "has_played": true,
        "id": 1686138,
        "last_rank": 65163,
        "player_name": "Radovan Djokovic",
        "rank": 52759,
        "rank_sort": 52803,
        "total": 2350
      },
      {
        "club_badge_src": null,
        "entry": 254001,
        "entry_name": "Wirtz the craic",
        "event_total": 68,
        "has_played": true,
        "id": 1689638,
        "last_rank": 73720,
        "player_name": "Matthew McGrath",
        "rank": 52759,
        "rank_sort": 52804,
        "total": 2350
      },
      {
        "club_badge_src": null,
        "entry": 256136,
        "entry_name": "Seb FC",
        "event_total": 76,
        "has_played": true,
        "id": 1703560,
        "last_rank": 91466,
        "player_name": "Sebastian Dobosz",
        "rank": 52759,
        "rank_sort": 52805,
        "total": 2350
      },
      {
        "club_badge_src": null,
        "entry": 257640,
        "entry_name": "lukeyseagles",
        "event_total": 61,
        "has_played": true,
        "id": 1713347,
        "last_rank": 59632,
        "player_name": "Luke Munday",
        "rank": 52759,
        "rank_sort": 52806,
        "total": 2350
      },
      {
        "club_badge_src": null,
        "entry": 300767,
        "entry_name": "Bala Garba",
        "event_total": 68,
        "has_played": true,
        "id": 2011909,
        "last_rank": 73423,
        "player_name": "Ole Henrik \u00d8verby",
        "rank": 52759,
        "rank_sort": 52807,
        "total": 2350
      },
      {
        "club_badge_src": null,
        "entry": 324864,
        "entry_name": "Lil Uzi Wirtz",
        "event_total": 53,
        "has_played": true,
        "id": 2176855,
        "last_rank": 41324,
        "player_name": "Alex -",
        "rank": 52759,
        "rank_sort": 52808,
        "total": 2350
      },
      {
        "club_badge_src": null,
        "entry": 334457,
        "entry_name": "EDawg",
        "event_total": 54,
        "has_played": true,
        "id": 2239651,
        "last_rank": 48642,
        "player_name": "Elliot Fagan",
        "rank": 52759,
        "rank_sort": 52809,
        "total": 2350
      },
      {
        "club_badge_src": "https://fantasy.premierleague.com/gcs/plfpl-production-adobe-approved/plfpl-production/334779/5052aadb-4b86-4bde-bcdf-30165cc99ee3.png",
        "entry": 334779,
        "entry_name": "Boulogne Ballers",
        "event_total": 59,
        "has_played": true,
        "id": 2241723,
        "last_rank": 56369,
        "player_name": "Charlie Denning",
        "rank": 52759,
        "rank_sort": 52810,
        "total": 2350
      },
      {
        "club_badge_src": "https://fantasy.premierleague.com/gcs/plfpl-production-adobe-approved/plfpl-production/347758/244148af-862c-4347-99d4-8c259276de9f.png",
        "entry": 347758,
        "entry_name": "A Kudus Matata",
        "event_total": 73,
        "has_played": true,
        "id": 2327698,
        "last_rank": 83934,
        "player_name": "Jordan mackay",
        "rank": 52759,
        "rank_sort": 52811,
        "total": 2350
      },
      {
        "club_badge_src": null,
        "entry": 353849,
        "entry_name": "Wirtz Case Scenario",
        "event_total": 54,
        "has_played": true,
        "id": 2368194,
        "last_rank": 48363,
        "player_name": "Vibu Kumaran",
        "rank": 52759,
        "rank_sort": 52812,
        "total": 2350
      },
      {
        "club_badge_src": null,
        "entry": 361399,
        "entry_name": "Shiver me Timber",
        "event_total": 60,
        "has_played": true,
        "id": 2418184,
        "last_rank": 58071,
        "player_name": "Sam Marsh",
        "rank": 52759,
        "rank_sort": 52813,
        "total": 2350
      },
      {
        "club_badge_src": null,
        "entry": 367728,
        "entry_name": "magpies(Asan23)",
        "event_total": 54,
        "has_played": true,
        "id": 2460896,
        "last_rank": 42648,
        "player_name": "Asan Sileman",
        "rank": 52759,
        "rank_sort": 52814,
        "total": 2350
      },
      {
        "club_badge_src": null,
        "entry": 394519,
        "entry_name": "AFC Gerlander",
        "event_total": 65,
        "has_played": true,
        "id": 2645760,
        "last_rank": 67063,
        "player_name": "Lauri Puustinen",
        "rank": 52759,
        "rank_sort": 52815,
        "total": 2350
      },
      {
        "club_badge_src": "https://fantasy.premierleague.com/gcs/plfpl-production-adobe-approved/plfpl-production/398467/e589cff0-bc60-4c37-9150-a983003ee7bf.png",
        "entry": 398467,
        "entry_name": "RobertA85BestTeam",
        "event_total": 46,
        "has_played": true,
        "id": 2672129,
        "last_rank": 37822,
        "player_name": "Robert Allden",
        "rank": 52759,
        "rank_sort": 52816,
        "total": 2350
      },
      {
        "club_badge_src": null,
        "entry": 405289,
        "entry_name": "Lamar",
        "event_total": 63,
        "has_played": true,
        "id": 2717305,
        "last_rank": 63724,
        "player_name": "lamar zheng",
        "rank": 52759,
        "rank_sort": 52817,
        "total": 2350
      },
      {
        "club_badge_src": null,
        "entry": 412619,
        "entry_name": "Goatchettino",
        "event_total": 68,
        "has_played": true,
        "id": 2766432,
        "last_rank": 65163,
        "player_name": "Carson Cook",
        "rank": 52759,
        "rank_sort": 52818,
        "total": 2350
      },
      {
        "club_badge_src": null,
        "entry": 425344,
        "entry_name": "The Peacocks",
        "event_total": 80,
        "has_played": true,
        "id": 2851032,
        "last_rank": 100700,
        "player_name": "Ronny Larsen",
        "rank": 52759,
        "rank_sort": 52819,
        "total": 2350
      },
      {
        "club_badge_src": null,
        "entry": 451387,
        "entry_name": "Post King Kev",
        "event_total": 57,
        "has_played": true,
        "id": 3028340,
        "last_rank": 53023,
        "player_name": "Matthias Leistentritt",
        "rank": 52759,
        "rank_sort": 52820,
        "total": 2350
      },
      {
        "club_badge_src": "https://fantasy.premierleague.com/gcs/plfpl-production-adobe-approved/plfpl-production/504722/4a8185b3-e737-4683-854e-92fb4ef238df.png",
        "entry": 504722,
        "entry_name": "Reijnders Keepers",
        "event_total": 63,
        "has_played": true,
        "id": 3387845,
        "last_rank": 63390,
        "player_name": "Toby Chambers",
        "rank": 52759,
        "rank_sort": 52821,
        "total": 2350
      },
      {
        "club_badge_src": null,
        "entry": 508869,
        "entry_name": "Wirtz Nightmare",
        "event_total": 51,
        "has_played": true,
        "id": 3416244,
        "last_rank": 44303,
        "player_name": "Ryan Loughran",
        "rank": 52759,
        "rank_sort": 52822,
        "total": 2350
      },
      {
        "club_badge_src": null,
        "entry": 515943,
        "entry_name": "Skoppum IL",
        "event_total": 78,
        "has_played": true,
        "id": 3463958,
        "last_rank": 95527,
        "player_name": "Sigurd S\u00f8rdal",
        "rank": 52759,
        "rank_sort": 52823,
        "total": 2350
      },
      {
        "club_badge_src": null,
        "entry": 522344,
        "entry_name": "Libero",
        "event_total": 41,
        "has_played": true,
        "id": 3508193,
        "last_rank": 31995,
        "player_name": "Nicholas Syvertsen",
        "rank": 52759,
        "rank_sort": 52824,
        "total": 2350
      },
      {
        "club_badge_src": null,
        "entry": 524965,
        "entry_name": "Pritchy's Wonders",
        "event_total": 64,
        "has_played": true,
        "id": 3527741,
        "last_rank": 65796,
        "player_name": "Nathan Pritchard",
        "rank": 52759,
        "rank_sort": 52825,
        "total": 2350
      },
      {
        "club_badge_src": null,
        "entry": 541037,
        "entry_name": "Muriburi FC",
        "event_total": 62,
        "has_played": true,
        "id": 3641528,
        "last_rank": 61950,
        "player_name": "H\u00e5kon Hoflandsdal",
        "rank": 52759,
        "rank_sort": 52826,
        "total": 2350
      },
      {
        "club_badge_src": "https://fantasy.premierleague.com/gcs/plfpl-production-adobe-approved/plfpl-production/574566/6dd4da69-2081-4d4a-98e7-e6323ad2f2cc.png",
        "entry": 574566,
        "entry_name": "Real Marcella",
        "event_total": 59,
        "has_played": true,
        "id": 3866583,
        "last_rank": 56708,
        "player_name": "Dom Gaynor",
        "rank": 52759,
        "rank_sort": 52827,
        "total": 2350
      },
      {
        "club_badge_src": null,
        "entry": 586212,
        "entry_name": "Slot Machine",
        "event_total": 51,
        "has_played": true,
        "id": 3945048,
        "last_rank": 38774,
        "player_name": "Ross Mayfield",
        "rank": 52759,
        "rank_sort": 52828,
        "total": 2350
      },
      {
        "club_badge_src": "https://fantasy.premierleague.com/gcs/plfpl-production-adobe-approved/plfpl-production/600419/8a0d02f0-d90b-4b75-bae4-9041f9b3d1b1.png",
        "entry": 600419,
        "entry_name": "Burrito Boyz",
        "event_total": 50,
        "has_played": true,
        "id": 4051001,
        "last_rank": 37589,
        "player_name": "Mamdouh Ali",
        "rank": 52759,
        "rank_sort": 52829,
        "total": 2350
      },
      {
        "club_badge_src": null,
        "entry": 600868,
        "entry_name": "Gee Whizz",
        "event_total": 53,
        "has_played": true,
        "id": 4054272,
        "last_rank": 47163,
        "player_name": "Gregor Paton",
        "rank": 52759,
        "rank_sort": 52830,
        "total": 2350
      },
      {
        "club_badge_src": null,
        "entry": 609153,
        "entry_name": "I am Spartacus",
        "event_total": 52,
        "has_played": true,
        "id": 4114734,
        "last_rank": 45714,
        "player_name": "James Hobson",
        "rank": 52759,
        "rank_sort": 52831,
        "total": 2350
      },
      {
        "club_badge_src": null,
        "entry": 610898,
        "entry_name": "Fauchetdinho",
        "event_total": 67,
        "has_played": true,
        "id": 4127492,
        "last_rank": 71386,
        "player_name": "Jean Fauchet",
        "rank": 52759,
        "rank_sort": 52832,
        "total": 2350
      },
      {
        "club_badge_src": null,
        "entry": 616140,
        "entry_name": "RuruFC",
        "event_total": 54,
        "has_played": true,
        "id": 4163191,
        "last_rank": 42648,
        "player_name": "Baxter Rogers",
        "rank": 52759,
        "rank_sort": 52833,
        "total": 2350
      },
      {
        "club_badge_src": "https://fantasy.premierleague.com/gcs/plfpl-production-adobe-approved/plfpl-production/616310/6c160bb6-b547-4119-ba80-032f6b1bf697.png",
        "entry": 616310,
        "entry_name": "Pound Erling",
        "event_total": 59,
        "has_played": true,
        "id": 4164304,
        "last_rank": 56180,
        "player_name": "Matt Farrell",
        "rank": 52759,
        "rank_sort": 52834,
        "total": 2350
      },
      {
        "club_badge_src": null,
        "entry": 620849,
        "entry_name": "kaffes kopper",
        "event_total": 64,
        "has_played": true,
        "id": 4195699,
        "last_rank": 64943,
        "player_name": "Steffen Jakobsen",
        "rank": 52759,
        "rank_sort": 52835,
        "total": 2350
      },
      {
        "club_badge_src": null,
        "entry": 682153,
        "entry_name": "Win ya Learn FC",
        "event_total": 65,
        "has_played": true,
        "id": 4616607,
        "last_rank": 67422,
        "player_name": "sarim javed",
        "rank": 52759,
        "rank_sort": 52836,
        "total": 2350
      },
      {
        "club_badge_src": null,
        "entry": 689398,
        "entry_name": "Malins Team",
        "event_total": 60,
        "has_played": true,
        "id": 4667788,
        "last_rank": 58388,
        "player_name": "Marcin Malina",
        "rank": 52759,
        "rank_sort": 52837,
        "total": 2350
      },
      {
        "club_badge_src": null,
        "entry": 694495,
        "entry_name": "Back of the Neto",
        "event_total": 57,
        "has_played": true,
        "id": 4703671,
        "last_rank": 53023,
        "player_name": "Luca Vlasceanu",
        "rank": 52759,
        "rank_sort": 52838,
        "total": 2350
      },
      {
        "club_badge_src": null,
        "entry": 702619,
        "entry_name": "Stranger Mings",
        "event_total": 53,
        "has_played": true,
        "id": 4760926,
        "last_rank": 47163,
        "player_name": "Christer S",
        "rank": 52759,
        "rank_sort": 52839,
        "total": 2350
      },
      {
        "club_badge_src": "https://fantasy.premierleague.com/gcs/plfpl-production-adobe-approved/plfpl-production/718566/8b142b76-492c-4a6f-9e9b-3e9af90519d3.png",
        "entry": 718566,
        "entry_name": "Net Six and Chill",
        "event_total": 75,
        "has_played": true,
        "id": 4876419,
        "last_rank": 88594,
        "player_name": "Anthony Apostoli",
        "rank": 52759,
        "rank_sort": 52840,
        "total": 2350
      },
      {
        "club_badge_src": null,
        "entry": 719927,
        "entry_name": "ZMUFC",
        "event_total": 57,
        "has_played": true,
        "id": 4887258,
        "last_rank": 53345,
        "player_name": "Zayed Moyeen",
        "rank": 52759,
        "rank_sort": 52841,
        "total": 2350
      },
      {
        "club_badge_src": null,
        "entry": 720163,
        "entry_name": "Whole Jota Love",
        "event_total": 68,
        "has_played": true,
        "id": 4889053,
        "last_rank": 73423,
        "player_name": "David Doonan",
        "rank": 52759,
        "rank_sort": 52842,
        "total": 2350
      },
      {
        "club_badge_src": null,
        "entry": 750176,
        "entry_name": "Terry's Hackers",
        "event_total": 44,
        "has_played": true,
        "id": 5104149,
        "last_rank": 35424,
        "player_name": "Terry Monahan",
        "rank": 52759,
        "rank_sort": 52843,
        "total": 2350
      },
      {
        "club_badge_src": null,
        "entry": 756419,
        "entry_name": "Free Palestine",
        "event_total": 57,
        "has_played": true,
        "id": 5149882,
        "last_rank": 53345,
        "player_name": "mahmoud walid",
        "rank": 52759,
        "rank_sort": 52844,
        "total": 2350
      },
      {
        "club_badge_src": "https://fantasy.premierleague.com/gcs/plfpl-production-adobe-approved/plfpl-production/759828/5fa65b8c-5788-48ca-9574-9a5c5e3ff54f.png",
        "entry": 759828,
        "entry_name": "Freddie\u2019s Hammers!",
        "event_total": 69,
        "has_played": true,
        "id": 5178687,
        "last_rank": 75537,
        "player_name": "Simon Brown",
        "rank": 52759,
        "rank_sort": 52845,
        "total": 2350
      },
      {
        "club_badge_src": null,
        "entry": 773311,
        "entry_name": "Lokomotiv Brentford",
        "event_total": 51,
        "has_played": true,
        "id": 5275914,
        "last_rank": 44303,
        "player_name": "Matthew White",
        "rank": 52759,
        "rank_sort": 52846,
        "total": 2350
      },
      {
        "club_badge_src": null,
        "entry": 784936,
        "entry_name": "Foostie fud fc",
        "event_total": 62,
        "has_played": true,
        "id": 5362869,
        "last_rank": 61950,
        "player_name": "Ryan Smith",
        "rank": 52759,
        "rank_sort": 52847,
        "total": 2350
      },
      {
        "club_badge_src": null,
        "entry": 821586,
        "entry_name": "ed181",
        "event_total": 60,
        "has_played": true,
        "id": 5626814,
        "last_rank": 58688,
        "player_name": "Edmond Ilbawi",
        "rank": 52759,
        "rank_sort": 52848,
        "total": 2350
      },
      {
        "club_badge_src": null,
        "entry": 825799,
        "entry_name": "Battery",
        "event_total": 55,
        "has_played": true,
        "id": 5655861,
        "last_rank": 50199,
        "player_name": "Jason Gallo",
        "rank": 52759,
        "rank_sort": 52849,
        "total": 2350
      },
      {
        "club_badge_src": null,
        "entry": 835019,
        "entry_name": "SakaPunch",
        "event_total": 35,
        "has_played": true,
        "id": 5719925,
        "last_rank": 25902,
        "player_name": "Danny Dimovski",
        "rank": 52759,
        "rank_sort": 52850,
        "total": 2350
      }
    ]
  }
}