{
  "last_updated_data": "2026-05-24T23:28:17Z",
  "league": {
    "admin_entry": null,
    "closed": false,
    "code_privacy": "p",
    "created": "2025-07-20T23:14:33.933835Z",
    "cup_league": 2815434,
    "has_cup": true,
    "id": 314,
    "league_type": "s",
    "max_entries": null,
    "name": "Overall",
    "rank": null,
    "scoring": "c",
    "start_event": 1
  },
  "new_entries": {
    "has_next": false,
    "page": 1,
    "results": []
  },
  "standings": {
    "has_next": true,
    "page": 967,
    "results": [
      {
        "club_badge_src": null,
        "entry": 1278634,
        "entry_name": "Maresca Ball",
        "event_total": 60,
        "has_played": true,
        "id": 8884942,
        "last_rank": 46839,
        "player_name": "Johannes Wittig",
        "rank": 48181,
        "rank_sort": 48301,
        "total": 2353
      },
      {
        "club_badge_src": "https://fantasy.premierleague.com/gcs/plfpl-production-adobe-approved/plfpl-production/1287036/e49700e8-a6d8-4a07-a488-5eec99ba5767.png",
        "entry": 1287036,
        "entry_name": "Chillarby",
        "event_total": 57,
        "has_played": true,
        "id": 8943276,
        "last_rank": 48642,
        "player_name": "Catherine Hillarby-Ross",
        "rank": 48181,
        "rank_sort": 48302,
        "total": 2353
      },
      {
        "club_badge_src": null,
        "entry": 1292507,
        "entry_name": "\u0160e\u0161ko and I Know It",
        "event_total": 69,
        "has_played": true,
        "id": 8981407,
        "last_rank": 69323,
        "player_name": "Ben Alders",
        "rank": 48181,
        "rank_sort": 48303,
        "total": 2353
      },
      {
        "club_badge_src": null,
        "entry": 1301765,
        "entry_name": "Isak & Destroy",
        "event_total": 51,
        "has_played": true,
        "id": 9047272,
        "last_rank": 40297,
        "player_name": "Chris Raven",
        "rank": 48181,
        "rank_sort": 48304,
        "total": 2353
      },
      {
        "club_badge_src": "https://fantasy.premierleague.com/gcs/plfpl-production-adobe-approved/plfpl-production/1309862/2c38157e-c6d0-42ed-8b9b-0e29e4fd6006.png",
        "entry": 1309862,
        "entry_name": "Z3em",
        "event_total": 49,
        "has_played": true,
        "id": 9104682,
        "last_rank": 37822,
        "player_name": "Abdallah Bdeir",
        "rank": 48181,
        "rank_sort": 48305,
        "total": 2353
      },
      {
        "club_badge_src": "https://fantasy.premierleague.com/gcs/plfpl-production-adobe-approved/plfpl-production/1358417/23dc74e1-7d05-4d2a-b38d-b80cf7cf4c08.png",
        "entry": 1358417,
        "entry_name": "DagDigDugSerr",
        "event_total": 59,
        "has_played": true,
        "id": 9442423,
        "last_rank": 51403,
        "player_name": "Fadhil Azkiyya Hakim",
        "rank": 48181,
        "rank_sort": 48306,
        "total": 2353
      },
      {
        "club_badge_src": null,
        "entry": 1373948,
        "entry_name": "Haalandaise Sauce",
        "event_total": 61,
        "has_played": true,
        "id": 9550710,
        "last_rank": 55014,
        "player_name": "Finn McMahon",
        "rank": 48181,
        "rank_sort": 48307,
        "total": 2353
      },
      {
        "club_badge_src": null,
        "entry": 1410414,
        "entry_name": "EuropeWinners'25",
        "event_total": 54,
        "has_played": true,
        "id": 9814042,
        "last_rank": 44048,
        "player_name": "Cedric Vandecasteele",
        "rank": 48181,
        "rank_sort": 48308,
        "total": 2353
      },
      {
        "club_badge_src": null,
        "entry": 1545566,
        "entry_name": "Lottery Picks",
        "event_total": 71,
        "has_played": true,
        "id": 10789985,
        "last_rank": 73038,
        "player_name": "Andrew Wild",
        "rank": 48181,
        "rank_sort": 48309,
        "total": 2353
      },
      {
        "club_badge_src": null,
        "entry": 1569869,
        "entry_name": "AAA",
        "event_total": 39,
        "has_played": true,
        "id": 10967675,
        "last_rank": 23341,
        "player_name": "Ayham Nashar",
        "rank": 48181,
        "rank_sort": 48310,
        "total": 2353
      },
      {
        "club_badge_src": null,
        "entry": 1629349,
        "entry_name": "Howe's The Plan",
        "event_total": 63,
        "has_played": true,
        "id": 11404408,
        "last_rank": 58071,
        "player_name": "Ben Wu",
        "rank": 48181,
        "rank_sort": 48311,
        "total": 2353
      },
      {
        "club_badge_src": "https://fantasy.premierleague.com/gcs/plfpl-production-adobe-approved/plfpl-production/1657230/dde04235-dc47-4232-8c67-7972e5cbe9c1.png",
        "entry": 1657230,
        "entry_name": "\u0e4f\u00d8MAR\u0e4f",
        "event_total": 82,
        "has_played": true,
        "id": 11602511,
        "last_rank": 98183,
        "player_name": "omar khairy",
        "rank": 48181,
        "rank_sort": 48312,
        "total": 2353
      },
      {
        "club_badge_src": "https://fantasy.premierleague.com/gcs/plfpl-production-adobe-approved/plfpl-production/1663623/210f1219-f6be-4176-a406-232dda87cc59.png",
        "entry": 1663623,
        "entry_name": "Cold As Ice",
        "event_total": 61,
        "has_played": true,
        "id": 11647599,
        "last_rank": 55014,
        "player_name": "Jonathan Tjong",
        "rank": 48181,
        "rank_sort": 48313,
        "total": 2353
      },
      {
        "club_badge_src": "https://fantasy.premierleague.com/gcs/plfpl-production-adobe-approved/plfpl-production/1666801/e51d5464-82b0-4b6b-974d-f109ee6387d9.png",
        "entry": 1666801,
        "entry_name": "Red Nosed Reijnders",
        "event_total": 73,
        "has_played": true,
        "id": 11669818,
        "last_rank": 77676,
        "player_name": "Bryson Orth",
        "rank": 48181,
        "rank_sort": 48314,
        "total": 2353
      },
      {
        "club_badge_src": null,
        "entry": 1711345,
        "entry_name": "I'm Jose Mourinho",
        "event_total": 70,
        "has_played": true,
        "id": 11990944,
        "last_rank": 71713,
        "player_name": "Abdulmajeed Almeshari",
        "rank": 48181,
        "rank_sort": 48315,
        "total": 2353
      },
      {
        "club_badge_src": null,
        "entry": 1722070,
        "entry_name": "CC Team",
        "event_total": 59,
        "has_played": true,
        "id": 12070113,
        "last_rank": 51403,
        "player_name": "Cedric Courteille",
        "rank": 48181,
        "rank_sort": 48316,
        "total": 2353
      },
      {
        "club_badge_src": null,
        "entry": 1733008,
        "entry_name": "Black-Magic FC",
        "event_total": 82,
        "has_played": true,
        "id": 12156280,
        "last_rank": 98896,
        "player_name": "Hameh Batchilly",
        "rank": 48181,
        "rank_sort": 48317,
        "total": 2353
      },
      {
        "club_badge_src": null,
        "entry": 1736879,
        "entry_name": "KappyD_FC",
        "event_total": 65,
        "has_played": true,
        "id": 12185147,
        "last_rank": 54494,
        "player_name": "David Kaplan",
        "rank": 48181,
        "rank_sort": 48318,
        "total": 2353
      },
      {
        "club_badge_src": null,
        "entry": 1740441,
        "entry_name": "goated XI",
        "event_total": 57,
        "has_played": true,
        "id": 12211153,
        "last_rank": 48642,
        "player_name": "Ivo Feretic",
        "rank": 48181,
        "rank_sort": 48319,
        "total": 2353
      },
      {
        "club_badge_src": null,
        "entry": 1765609,
        "entry_name": "The Chosen Ones",
        "event_total": 67,
        "has_played": true,
        "id": 12401499,
        "last_rank": 64943,
        "player_name": "Erlend Nilsen",
        "rank": 48181,
        "rank_sort": 48320,
        "total": 2353
      },
      {
        "club_badge_src": null,
        "entry": 1914997,
        "entry_name": "Expected Toulouse",
        "event_total": 76,
        "has_played": true,
        "id": 13501905,
        "last_rank": 74898,
        "player_name": "Richard Kalupa",
        "rank": 48181,
        "rank_sort": 48321,
        "total": 2353
      },
      {
        "club_badge_src": null,
        "entry": 1917200,
        "entry_name": "The Mo'tivated XI",
        "event_total": 69,
        "has_played": true,
        "id": 13518080,
        "last_rank": 68957,
        "player_name": "Davy Vandromme",
        "rank": 48181,
        "rank_sort": 48322,
        "total": 2353
      },
      {
        "club_badge_src": null,
        "entry": 1970613,
        "entry_name": "poooooooooon",
        "event_total": 56,
        "has_played": true,
        "id": 13908429,
        "last_rank": 41324,
        "player_name": "Vasin Kerinnonta",
        "rank": 48181,
        "rank_sort": 48323,
        "total": 2353
      },
      {
        "club_badge_src": null,
        "entry": 1988321,
        "entry_name": "\ufffdFootballFrEnzo\ufffd",
        "event_total": 48,
        "has_played": true,
        "id": 14046206,
        "last_rank": 36624,
        "player_name": "James Mckeage",
        "rank": 48181,
        "rank_sort": 48324,
        "total": 2353
      },
      {
        "club_badge_src": null,
        "entry": 2025417,
        "entry_name": "ABCDE FC",
        "event_total": 59,
        "has_played": true,
        "id": 14335696,
        "last_rank": 51403,
        "player_name": "Ian O'Dwyer",
        "rank": 48181,
        "rank_sort": 48325,
        "total": 2353
      },
      {
        "club_badge_src": null,
        "entry": 2076406,
        "entry_name": "BIN HARBAN",
        "event_total": 54,
        "has_played": true,
        "id": 14722029,
        "last_rank": 38774,
        "player_name": "Mohammed Alharban",
        "rank": 48181,
        "rank_sort": 48326,
        "total": 2353
      },
      {
        "club_badge_src": null,
        "entry": 2107776,
        "entry_name": "Pittsburgers",
        "event_total": 52,
        "has_played": true,
        "id": 14959006,
        "last_rank": 41617,
        "player_name": "Adam Pitts",
        "rank": 48181,
        "rank_sort": 48327,
        "total": 2353
      },
      {
        "club_badge_src": null,
        "entry": 2114752,
        "entry_name": "ash's XI",
        "event_total": 57,
        "has_played": true,
        "id": 15015635,
        "last_rank": 48363,
        "player_name": "Ashish Doorgapershad",
        "rank": 48181,
        "rank_sort": 48328,
        "total": 2353
      },
      {
        "club_badge_src": null,
        "entry": 2146236,
        "entry_name": "FergieBack",
        "event_total": 58,
        "has_played": true,
        "id": 15254923,
        "last_rank": 43849,
        "player_name": "Josh Murphy",
        "rank": 48181,
        "rank_sort": 48329,
        "total": 2353
      },
      {
        "club_badge_src": null,
        "entry": 2188915,
        "entry_name": "Bubblegum20",
        "event_total": 60,
        "has_played": true,
        "id": 15572188,
        "last_rank": 46839,
        "player_name": "Khaled AlQahtani",
        "rank": 48181,
        "rank_sort": 48330,
        "total": 2353
      },
      {
        "club_badge_src": "https://fantasy.premierleague.com/gcs/plfpl-production-adobe-approved/plfpl-production/2381812/64b8737b-1050-4cda-bbc6-8d344d9e9c69.png",
        "entry": 2381812,
        "entry_name": "Quizmasters",
        "event_total": 65,
        "has_played": true,
        "id": 17008076,
        "last_rank": 61950,
        "player_name": "Jota Moreira",
        "rank": 48181,
        "rank_sort": 48331,
        "total": 2353
      },
      {
        "club_badge_src": null,
        "entry": 2445282,
        "entry_name": "Pantomime Villains",
        "event_total": 56,
        "has_played": true,
        "id": 17488769,
        "last_rank": 41324,
        "player_name": "Thomas Graham",
        "rank": 48181,
        "rank_sort": 48332,
        "total": 2353
      },
      {
        "club_badge_src": null,
        "entry": 2561256,
        "entry_name": "G\u00f6kboet",
        "event_total": 46,
        "has_played": true,
        "id": 18369523,
        "last_rank": 34293,
        "player_name": "Adam Eriksson",
        "rank": 48181,
        "rank_sort": 48333,
        "total": 2353
      },
      {
        "club_badge_src": null,
        "entry": 2606693,
        "entry_name": "Mah Teh Tah FC",
        "event_total": 57,
        "has_played": true,
        "id": 18724926,
        "last_rank": 42648,
        "player_name": "Liam Perry",
        "rank": 48181,
        "rank_sort": 48334,
        "total": 2353
      },
      {
        "club_badge_src": null,
        "entry": 2628802,
        "entry_name": "Reece's Set Pieces",
        "event_total": 69,
        "has_played": true,
        "id": 18890624,
        "last_rank": 68957,
        "player_name": "Jessica Curran",
        "rank": 48181,
        "rank_sort": 48335,
        "total": 2353
      },
      {
        "club_badge_src": "https://fantasy.premierleague.com/gcs/plfpl-production-adobe-approved/plfpl-production/2651173/362926af-3d44-4030-b624-f9a83b03c833.png",
        "entry": 2651173,
        "entry_name": "Torta Pounder",
        "event_total": 63,
        "has_played": true,
        "id": 19056342,
        "last_rank": 51403,
        "player_name": "Simone Kolodezh",
        "rank": 48181,
        "rank_sort": 48336,
        "total": 2353
      },
      {
        "club_badge_src": null,
        "entry": 2657439,
        "entry_name": "Throughball",
        "event_total": 51,
        "has_played": true,
        "id": 19102354,
        "last_rank": 40503,
        "player_name": "Brian Fox",
        "rank": 48181,
        "rank_sort": 48337,
        "total": 2353
      },
      {
        "club_badge_src": null,
        "entry": 2668369,
        "entry_name": "HaHaHlHaHnHd",
        "event_total": 53,
        "has_played": true,
        "id": 19184223,
        "last_rank": 42940,
        "player_name": "Andreas S\u00f8bstad",
        "rank": 48181,
        "rank_sort": 48338,
        "total": 2353
      },
      {
        "club_badge_src": null,
        "entry": 2756614,
        "entry_name": "thiti-",
        "event_total": 56,
        "has_played": true,
        "id": 20087129,
        "last_rank": 46839,
        "player_name": "Thitiwat Ruangsakorn",
        "rank": 48181,
        "rank_sort": 48339,
        "total": 2353
      },
      {
        "club_badge_src": null,
        "entry": 2925897,
        "entry_name": "Gyoker-o-tri",
        "event_total": 38,
        "has_played": true,
        "id": 21449962,
        "last_rank": 26088,
        "player_name": "Fl\u00e1vio Bessa",
        "rank": 48181,
        "rank_sort": 48340,
        "total": 2353
      },
      {
        "club_badge_src": null,
        "entry": 2932118,
        "entry_name": "Freddy Ljungberg",
        "event_total": 70,
        "has_played": true,
        "id": 21497616,
        "last_rank": 71386,
        "player_name": "Brett Fredricks",
        "rank": 48181,
        "rank_sort": 48341,
        "total": 2353
      },
      {
        "club_badge_src": null,
        "entry": 3028300,
        "entry_name": "Retired FC",
        "event_total": 48,
        "has_played": true,
        "id": 22282607,
        "last_rank": 31747,
        "player_name": "Tom Robbins",
        "rank": 48181,
        "rank_sort": 48342,
        "total": 2353
      },
      {
        "club_badge_src": null,
        "entry": 3030227,
        "entry_name": "RicholzTeam",
        "event_total": 53,
        "has_played": true,
        "id": 22297602,
        "last_rank": 37589,
        "player_name": "Micha\u0142 Miner",
        "rank": 48181,
        "rank_sort": 48343,
        "total": 2353
      },
      {
        "club_badge_src": null,
        "entry": 3051261,
        "entry_name": "Ekitikitaka",
        "event_total": 53,
        "has_played": true,
        "id": 22462752,
        "last_rank": 42940,
        "player_name": "Connor King",
        "rank": 48181,
        "rank_sort": 48344,
        "total": 2353
      },
      {
        "club_badge_src": null,
        "entry": 3085883,
        "entry_name": "Mi Old Marras",
        "event_total": 50,
        "has_played": true,
        "id": 22736206,
        "last_rank": 39246,
        "player_name": "Dan Benson",
        "rank": 48181,
        "rank_sort": 48345,
        "total": 2353
      },
      {
        "club_badge_src": "https://fantasy.premierleague.com/gcs/plfpl-production-adobe-approved/plfpl-production/3138876/6939e7e3-9d05-426d-ba51-e7a3b880ed8b.png",
        "entry": 3138876,
        "entry_name": "Cole Me Maybe",
        "event_total": 59,
        "has_played": true,
        "id": 23171888,
        "last_rank": 45416,
        "player_name": "Keane Putera Laksana",
        "rank": 48181,
        "rank_sort": 48346,
        "total": 2353
      },
      {
        "club_badge_src": null,
        "entry": 3144469,
        "entry_name": "Majaalahden Majurit",
        "event_total": 71,
        "has_played": true,
        "id": 23216651,
        "last_rank": 72815,
        "player_name": "Riku Poikolainen",
        "rank": 48181,
        "rank_sort": 48347,
        "total": 2353
      },
      {
        "club_badge_src": null,
        "entry": 3155034,
        "entry_name": "Gazzmataz",
        "event_total": 74,
        "has_played": true,
        "id": 23301868,
        "last_rank": 80194,
        "player_name": "Gary Watkins",
        "rank": 48181,
        "rank_sort": 48348,
        "total": 2353
      },
      {
        "club_badge_src": null,
        "entry": 3172221,
        "entry_name": "Kinder Mbeumo",
        "event_total": 71,
        "has_played": true,
        "id": 23437948,
        "last_rank": 73038,
        "player_name": "Joshua kuras",
        "rank": 48181,
        "rank_sort": 48349,
        "total": 2353
      },
      {
        "club_badge_src": null,
        "entry": 3181890,
        "entry_name": "Piqu\u00e9 Blinders",
        "event_total": 68,
        "has_played": true,
        "id": 23512742,
        "last_rank": 67422,
        "player_name": "Andrew Birks",
        "rank": 48181,
        "rank_sort": 48350,
        "total": 2353
      }
    ]
  }
}