{
  "last_updated_data": "2026-05-24T23:28:17Z",
  "league": {
    "admin_entry": null,
    "closed": false,
    "code_privacy": "p",
    "created": "2025-07-20T23:14:33.933835Z",
    "cup_league": 2815434,
    "has_cup": true,
    "id": 314,
    "league_type": "s",
    "max_entries": null,
    "name": "Overall",
    "rank": null,
    "scoring": "c",
    "start_event": 1
  },
  "new_entries": {
    "has_next": false,
    "page": 1,
    "results": []
  },
  "standings": {
    "has_next": true,
    "page": 1003,
    "results": [
      {
        "club_badge_src": null,
        "entry": 1215123,
        "entry_name": "Samchester United",
        "event_total": 49,
        "has_played": true,
        "id": 8434138,
        "last_rank": 39023,
        "player_name": "Samuli V\u00e4lim\u00e4ki",
        "rank": 50020,
        "rank_sort": 50101,
        "total": 2352
      },
      {
        "club_badge_src": "https://fantasy.premierleague.com/gcs/plfpl-production-adobe-approved/plfpl-production/1245631/20e5b689-5e2d-458a-9b55-5c2fea6279ea.png",
        "entry": 1245631,
        "entry_name": "Awey Kidding Mee?",
        "event_total": 63,
        "has_played": true,
        "id": 8650969,
        "last_rank": 59813,
        "player_name": "Mathias Gavey",
        "rank": 50020,
        "rank_sort": 50102,
        "total": 2352
      },
      {
        "club_badge_src": "https://fantasy.premierleague.com/gcs/plfpl-production-adobe-approved/plfpl-production/1312204/1104c8d5-190a-43db-8f7d-17c6554d1b2d.png",
        "entry": 1312204,
        "entry_name": "DollarEachWay",
        "event_total": 44,
        "has_played": true,
        "id": 9120901,
        "last_rank": 33147,
        "player_name": "Carl Williams",
        "rank": 50020,
        "rank_sort": 50103,
        "total": 2352
      },
      {
        "club_badge_src": "https://fantasy.premierleague.com/gcs/plfpl-production-adobe-approved/plfpl-production/1366029/95595e11-5ea5-4d68-9726-f0dafe2499fa.png",
        "entry": 1366029,
        "entry_name": "Rossoneri FC",
        "event_total": 72,
        "has_played": true,
        "id": 9496163,
        "last_rank": 78244,
        "player_name": "Taimur Mazhar",
        "rank": 50020,
        "rank_sort": 50104,
        "total": 2352
      },
      {
        "club_badge_src": null,
        "entry": 1370466,
        "entry_name": "Good Ebening",
        "event_total": 73,
        "has_played": true,
        "id": 9526468,
        "last_rank": 79817,
        "player_name": "Sam Zanardo",
        "rank": 50020,
        "rank_sort": 50105,
        "total": 2352
      },
      {
        "club_badge_src": null,
        "entry": 1384788,
        "entry_name": "Tammy, Tammy, Tammy!",
        "event_total": 52,
        "has_played": true,
        "id": 9631404,
        "last_rank": 43168,
        "player_name": "Michael Smith",
        "rank": 50020,
        "rank_sort": 50106,
        "total": 2352
      },
      {
        "club_badge_src": null,
        "entry": 1385423,
        "entry_name": "N1",
        "event_total": 60,
        "has_played": true,
        "id": 9635942,
        "last_rank": 55311,
        "player_name": "Nader Hadi",
        "rank": 50020,
        "rank_sort": 50107,
        "total": 2352
      },
      {
        "club_badge_src": null,
        "entry": 1418352,
        "entry_name": "matummai",
        "event_total": 67,
        "has_played": true,
        "id": 9875449,
        "last_rank": 67695,
        "player_name": "tharawat kuptatirawat",
        "rank": 50020,
        "rank_sort": 50108,
        "total": 2352
      },
      {
        "club_badge_src": null,
        "entry": 1449599,
        "entry_name": "El.Herbawy",
        "event_total": 46,
        "has_played": true,
        "id": 10100986,
        "last_rank": 35619,
        "player_name": "Youssef Shaybob",
        "rank": 50020,
        "rank_sort": 50109,
        "total": 2352
      },
      {
        "club_badge_src": null,
        "entry": 1465108,
        "entry_name": "Bacary Lasagna",
        "event_total": 55,
        "has_played": true,
        "id": 10212463,
        "last_rank": 46839,
        "player_name": "Jamie Cunningham",
        "rank": 50020,
        "rank_sort": 50110,
        "total": 2352
      },
      {
        "club_badge_src": null,
        "entry": 1540904,
        "entry_name": "Charli xGx",
        "event_total": 35,
        "has_played": true,
        "id": 10754534,
        "last_rank": 24475,
        "player_name": "Noah Quinn",
        "rank": 50020,
        "rank_sort": 50111,
        "total": 2352
      },
      {
        "club_badge_src": null,
        "entry": 1568168,
        "entry_name": "Best Wirtz Team Ever",
        "event_total": 57,
        "has_played": true,
        "id": 10954877,
        "last_rank": 50468,
        "player_name": "T P",
        "rank": 50020,
        "rank_sort": 50112,
        "total": 2352
      },
      {
        "club_badge_src": null,
        "entry": 1587935,
        "entry_name": "Alfa Romeos",
        "event_total": 61,
        "has_played": true,
        "id": 11101519,
        "last_rank": 57001,
        "player_name": "Robert Hatcher",
        "rank": 50020,
        "rank_sort": 50113,
        "total": 2352
      },
      {
        "club_badge_src": null,
        "entry": 1596286,
        "entry_name": "The Slot Machine",
        "event_total": 56,
        "has_played": true,
        "id": 11166576,
        "last_rank": 48898,
        "player_name": "Phil Seery",
        "rank": 50020,
        "rank_sort": 50114,
        "total": 2352
      },
      {
        "club_badge_src": null,
        "entry": 1618222,
        "entry_name": "The Three Gavels",
        "event_total": 52,
        "has_played": true,
        "id": 11323695,
        "last_rank": 43168,
        "player_name": "John Uko",
        "rank": 50020,
        "rank_sort": 50115,
        "total": 2352
      },
      {
        "club_badge_src": null,
        "entry": 1638912,
        "entry_name": "FC XARAKO",
        "event_total": 75,
        "has_played": true,
        "id": 11471982,
        "last_rank": 75139,
        "player_name": "Bakar Muriidi",
        "rank": 50020,
        "rank_sort": 50116,
        "total": 2352
      },
      {
        "club_badge_src": "https://fantasy.premierleague.com/gcs/plfpl-production-adobe-approved/plfpl-production/1660729/f1269504-c70e-447c-9bed-626a6aa3876f.png",
        "entry": 1660729,
        "entry_name": "khalednyo",
        "event_total": 72,
        "has_played": true,
        "id": 11627163,
        "last_rank": 69323,
        "player_name": "khaled ghazala",
        "rank": 50020,
        "rank_sort": 50117,
        "total": 2352
      },
      {
        "club_badge_src": null,
        "entry": 1673222,
        "entry_name": "Ayew Serious??",
        "event_total": 65,
        "has_played": true,
        "id": 11714440,
        "last_rank": 56708,
        "player_name": "Nkem Nwogu",
        "rank": 50020,
        "rank_sort": 50118,
        "total": 2352
      },
      {
        "club_badge_src": null,
        "entry": 1705989,
        "entry_name": "Hatim ahmed",
        "event_total": 64,
        "has_played": true,
        "id": 11951374,
        "last_rank": 55014,
        "player_name": "Hatim Ahmed",
        "rank": 50020,
        "rank_sort": 50119,
        "total": 2352
      },
      {
        "club_badge_src": null,
        "entry": 1869633,
        "entry_name": "PHARMATRONS",
        "event_total": 53,
        "has_played": true,
        "id": 13160887,
        "last_rank": 39023,
        "player_name": "Adam Mawer",
        "rank": 50020,
        "rank_sort": 50120,
        "total": 2352
      },
      {
        "club_badge_src": null,
        "entry": 1942787,
        "entry_name": "Slottdog Millionaire",
        "event_total": 47,
        "has_played": true,
        "id": 13704051,
        "last_rank": 36831,
        "player_name": "Christian B",
        "rank": 50020,
        "rank_sort": 50121,
        "total": 2352
      },
      {
        "club_badge_src": null,
        "entry": 1951371,
        "entry_name": "Lil'OzSpurs",
        "event_total": 68,
        "has_played": true,
        "id": 13765369,
        "last_rank": 69641,
        "player_name": "Maisie Hill",
        "rank": 50020,
        "rank_sort": 50122,
        "total": 2352
      },
      {
        "club_badge_src": "https://fantasy.premierleague.com/gcs/plfpl-production-adobe-approved/plfpl-production/2035857/7a3c06b9-6d6d-4c81-814e-37bba5eb63c8.png",
        "entry": 2035857,
        "entry_name": "omar",
        "event_total": 78,
        "has_played": true,
        "id": 14414864,
        "last_rank": 92126,
        "player_name": "Omar Aldehani",
        "rank": 50020,
        "rank_sort": 50123,
        "total": 2352
      },
      {
        "club_badge_src": null,
        "entry": 2045048,
        "entry_name": "Kilichev.man.city",
        "event_total": 78,
        "has_played": true,
        "id": 14483262,
        "last_rank": 91835,
        "player_name": "Jahongir Qilichev",
        "rank": 50020,
        "rank_sort": 50124,
        "total": 2352
      },
      {
        "club_badge_src": null,
        "entry": 2054812,
        "entry_name": "Pants",
        "event_total": 55,
        "has_played": true,
        "id": 14555781,
        "last_rank": 47417,
        "player_name": "Neil Paddon",
        "rank": 50020,
        "rank_sort": 50125,
        "total": 2352
      },
      {
        "club_badge_src": null,
        "entry": 2133748,
        "entry_name": "STILL WE RISE",
        "event_total": 62,
        "has_played": true,
        "id": 15163399,
        "last_rank": 45416,
        "player_name": "\u041f\u0435\u0442\u044a\u0440 \u0422\u043e\u043f\u0443\u0437\u043e\u0432",
        "rank": 50020,
        "rank_sort": 50126,
        "total": 2352
      },
      {
        "club_badge_src": null,
        "entry": 2167258,
        "entry_name": "Europa > Conference",
        "event_total": 53,
        "has_played": true,
        "id": 15408587,
        "last_rank": 44525,
        "player_name": "Sam Lydford",
        "rank": 50020,
        "rank_sort": 50127,
        "total": 2352
      },
      {
        "club_badge_src": null,
        "entry": 2170436,
        "entry_name": "CideReds",
        "event_total": 59,
        "has_played": true,
        "id": 15432245,
        "last_rank": 53621,
        "player_name": "Lewis Maggs",
        "rank": 50020,
        "rank_sort": 50128,
        "total": 2352
      },
      {
        "club_badge_src": null,
        "entry": 2273317,
        "entry_name": "Snakes Onana Plane",
        "event_total": 41,
        "has_played": true,
        "id": 16210042,
        "last_rank": 30060,
        "player_name": "Jim Hall",
        "rank": 50020,
        "rank_sort": 50129,
        "total": 2352
      },
      {
        "club_badge_src": "https://fantasy.premierleague.com/gcs/plfpl-production-adobe-approved/plfpl-production/2338817/c698e37b-2314-494d-a998-3dfeed4fe3d3.png",
        "entry": 2338817,
        "entry_name": "WindmillFC",
        "event_total": 61,
        "has_played": true,
        "id": 16687959,
        "last_rank": 57001,
        "player_name": "Bob Windmill",
        "rank": 50020,
        "rank_sort": 50130,
        "total": 2352
      },
      {
        "club_badge_src": null,
        "entry": 2409248,
        "entry_name": "Misie kolorowe",
        "event_total": 46,
        "has_played": true,
        "id": 17221286,
        "last_rank": 35424,
        "player_name": "Marcin Zmuda",
        "rank": 50020,
        "rank_sort": 50131,
        "total": 2352
      },
      {
        "club_badge_src": "https://fantasy.premierleague.com/gcs/plfpl-production-adobe-approved/plfpl-production/2462655/78601bfe-d628-45d8-bac9-a37c17a644ed.png",
        "entry": 2462655,
        "entry_name": "rakan",
        "event_total": 65,
        "has_played": true,
        "id": 17615490,
        "last_rank": 64005,
        "player_name": "Rakan Alajmi",
        "rank": 50020,
        "rank_sort": 50132,
        "total": 2352
      },
      {
        "club_badge_src": null,
        "entry": 2663563,
        "entry_name": "misteeyome",
        "event_total": 62,
        "has_played": true,
        "id": 19147338,
        "last_rank": 45182,
        "player_name": "Yomi Davies",
        "rank": 50020,
        "rank_sort": 50133,
        "total": 2352
      },
      {
        "club_badge_src": null,
        "entry": 2764365,
        "entry_name": "Bruno Dos Tres",
        "event_total": 77,
        "has_played": true,
        "id": 20167702,
        "last_rank": 88594,
        "player_name": "Alex Pettener",
        "rank": 50020,
        "rank_sort": 50134,
        "total": 2352
      },
      {
        "club_badge_src": null,
        "entry": 2840356,
        "entry_name": "Hakuna Mateta",
        "event_total": 60,
        "has_played": true,
        "id": 20759685,
        "last_rank": 42648,
        "player_name": "Tom\u00e1s Covas",
        "rank": 50020,
        "rank_sort": 50135,
        "total": 2352
      },
      {
        "club_badge_src": null,
        "entry": 2902745,
        "entry_name": "Catch Me If You Can!",
        "event_total": 59,
        "has_played": true,
        "id": 21271992,
        "last_rank": 53621,
        "player_name": "Ashley Williams",
        "rank": 50020,
        "rank_sort": 50136,
        "total": 2352
      },
      {
        "club_badge_src": null,
        "entry": 2937515,
        "entry_name": "VAR VAR Winks",
        "event_total": 75,
        "has_played": true,
        "id": 21554483,
        "last_rank": 84731,
        "player_name": "Dave Staddon",
        "rank": 50020,
        "rank_sort": 50137,
        "total": 2352
      },
      {
        "club_badge_src": null,
        "entry": 3057224,
        "entry_name": "Rash Decisions",
        "event_total": 63,
        "has_played": true,
        "id": 22508054,
        "last_rank": 60168,
        "player_name": "Mike Soliman",
        "rank": 50020,
        "rank_sort": 50138,
        "total": 2352
      },
      {
        "club_badge_src": null,
        "entry": 3184624,
        "entry_name": "Jordlinton",
        "event_total": 62,
        "has_played": true,
        "id": 23533926,
        "last_rank": 58388,
        "player_name": "Jordan Walmsley",
        "rank": 50020,
        "rank_sort": 50139,
        "total": 2352
      },
      {
        "club_badge_src": null,
        "entry": 3391004,
        "entry_name": "Pearce FC",
        "event_total": 49,
        "has_played": true,
        "id": 25174449,
        "last_rank": 39403,
        "player_name": "Joshua Pearce",
        "rank": 50020,
        "rank_sort": 50140,
        "total": 2352
      },
      {
        "club_badge_src": null,
        "entry": 3416513,
        "entry_name": "Yaaaaaanited",
        "event_total": 66,
        "has_played": true,
        "id": 25376501,
        "last_rank": 65796,
        "player_name": "Joe Falzon",
        "rank": 50020,
        "rank_sort": 50141,
        "total": 2352
      },
      {
        "club_badge_src": null,
        "entry": 3448714,
        "entry_name": "50 Shades O'Shea",
        "event_total": 39,
        "has_played": true,
        "id": 25626336,
        "last_rank": 28150,
        "player_name": "shane wafer",
        "rank": 50020,
        "rank_sort": 50142,
        "total": 2352
      },
      {
        "club_badge_src": null,
        "entry": 3477947,
        "entry_name": "Moss Sighed",
        "event_total": 62,
        "has_played": true,
        "id": 25860605,
        "last_rank": 51720,
        "player_name": "Rob Moss",
        "rank": 50020,
        "rank_sort": 50143,
        "total": 2352
      },
      {
        "club_badge_src": null,
        "entry": 3529880,
        "entry_name": "Quarshiorkor",
        "event_total": 56,
        "has_played": true,
        "id": 26271400,
        "last_rank": 48898,
        "player_name": "Mark Bradley",
        "rank": 50020,
        "rank_sort": 50144,
        "total": 2352
      },
      {
        "club_badge_src": null,
        "entry": 3693875,
        "entry_name": "You Shaw boet",
        "event_total": 67,
        "has_played": true,
        "id": 27557628,
        "last_rank": 67422,
        "player_name": "Raanan Klatzkin",
        "rank": 50020,
        "rank_sort": 50145,
        "total": 2352
      },
      {
        "club_badge_src": null,
        "entry": 3736965,
        "entry_name": "AFC No Hope",
        "event_total": 55,
        "has_played": true,
        "id": 27894522,
        "last_rank": 41617,
        "player_name": "Andy Alty",
        "rank": 50020,
        "rank_sort": 50146,
        "total": 2352
      },
      {
        "club_badge_src": null,
        "entry": 3819274,
        "entry_name": "Going on Amad one",
        "event_total": 60,
        "has_played": true,
        "id": 28563553,
        "last_rank": 48363,
        "player_name": "Puregym Salisbury",
        "rank": 50020,
        "rank_sort": 50147,
        "total": 2352
      },
      {
        "club_badge_src": null,
        "entry": 3825687,
        "entry_name": "G-Rush69",
        "event_total": 59,
        "has_played": true,
        "id": 28615890,
        "last_rank": 41162,
        "player_name": "Hermi Matin",
        "rank": 50020,
        "rank_sort": 50148,
        "total": 2352
      },
      {
        "club_badge_src": null,
        "entry": 3857200,
        "entry_name": "Call me Nighthawk",
        "event_total": 58,
        "has_played": true,
        "id": 28918345,
        "last_rank": 51984,
        "player_name": "Thomas Taylor",
        "rank": 50020,
        "rank_sort": 50149,
        "total": 2352
      },
      {
        "club_badge_src": null,
        "entry": 3957170,
        "entry_name": "Squash Daddy",
        "event_total": 59,
        "has_played": true,
        "id": 29772011,
        "last_rank": 53621,
        "player_name": "Zane Ye",
        "rank": 50020,
        "rank_sort": 50150,
        "total": 2352
      }
    ]
  }
}