{
  "last_updated_data": "2026-05-24T23:28:17Z",
  "league": {
    "admin_entry": null,
    "closed": false,
    "code_privacy": "p",
    "created": "2025-07-20T23:14:33.933835Z",
    "cup_league": 2815434,
    "has_cup": true,
    "id": 314,
    "league_type": "s",
    "max_entries": null,
    "name": "Overall",
    "rank": null,
    "scoring": "c",
    "start_event": 1
  },
  "new_entries": {
    "has_next": false,
    "page": 1,
    "results": []
  },
  "standings": {
    "has_next": true,
    "page": 1490,
    "results": [
      {
        "club_badge_src": null,
        "entry": 2804382,
        "entry_name": "rossonero",
        "event_total": 53,
        "has_played": true,
        "id": 20479470,
        "last_rank": 67422,
        "player_name": "Dimitar Simeonov",
        "rank": 74308,
        "rank_sort": 74451,
        "total": 2338
      },
      {
        "club_badge_src": null,
        "entry": 2840389,
        "entry_name": "Jag kommer f\u00f6re dig",
        "event_total": 51,
        "has_played": true,
        "id": 20759932,
        "last_rank": 64005,
        "player_name": "Oliver Lindstedt",
        "rank": 74308,
        "rank_sort": 74452,
        "total": 2338
      },
      {
        "club_badge_src": null,
        "entry": 2913030,
        "entry_name": "Cunha score a goal?",
        "event_total": 54,
        "has_played": true,
        "id": 21351415,
        "last_rank": 69641,
        "player_name": "Graeme Forster",
        "rank": 74308,
        "rank_sort": 74453,
        "total": 2338
      },
      {
        "club_badge_src": null,
        "entry": 2923938,
        "entry_name": "R\u00e9al Big Rigs",
        "event_total": 81,
        "has_played": true,
        "id": 21434921,
        "last_rank": 139917,
        "player_name": "Adam Morrell",
        "rank": 74308,
        "rank_sort": 74454,
        "total": 2338
      },
      {
        "club_badge_src": "https://fantasy.premierleague.com/gcs/plfpl-production-adobe-approved/plfpl-production/2967726/15ca8154-6fc3-4e91-9c84-cea886545753.png",
        "entry": 2967726,
        "entry_name": "Mattholland Drive",
        "event_total": 64,
        "has_played": true,
        "id": 21803428,
        "last_rank": 91006,
        "player_name": "Tom Jowett",
        "rank": 74308,
        "rank_sort": 74455,
        "total": 2338
      },
      {
        "club_badge_src": null,
        "entry": 2978392,
        "entry_name": "AlWasl",
        "event_total": 61,
        "has_played": true,
        "id": 21894053,
        "last_rank": 84360,
        "player_name": "Alexander Torssell",
        "rank": 74308,
        "rank_sort": 74456,
        "total": 2338
      },
      {
        "club_badge_src": "https://fantasy.premierleague.com/gcs/plfpl-production-adobe-approved/plfpl-production/3021964/991ebdf0-939d-4ee6-a525-79e65d81ca46.png",
        "entry": 3021964,
        "entry_name": "Me, Myself Ndiaye",
        "event_total": 61,
        "has_played": true,
        "id": 22234398,
        "last_rank": 75139,
        "player_name": "Yosi Abu Khalil",
        "rank": 74308,
        "rank_sort": 74457,
        "total": 2338
      },
      {
        "club_badge_src": null,
        "entry": 3034426,
        "entry_name": "Lil Uzi Wirtz",
        "event_total": 56,
        "has_played": true,
        "id": 22331186,
        "last_rank": 65475,
        "player_name": "Emmet Young",
        "rank": 74308,
        "rank_sort": 74458,
        "total": 2338
      },
      {
        "club_badge_src": "https://fantasy.premierleague.com/gcs/plfpl-production-adobe-approved/plfpl-production/3061656/38440efc-376c-4b20-aff0-2a6d621aa221.png",
        "entry": 3061656,
        "entry_name": "Blackpool",
        "event_total": 65,
        "has_played": true,
        "id": 22541522,
        "last_rank": 84360,
        "player_name": "Omar RAFALI",
        "rank": 74308,
        "rank_sort": 74459,
        "total": 2338
      },
      {
        "club_badge_src": null,
        "entry": 3069033,
        "entry_name": "EnterNameHere",
        "event_total": 51,
        "has_played": true,
        "id": 22598141,
        "last_rank": 64005,
        "player_name": "Andy Gautschi",
        "rank": 74308,
        "rank_sort": 74460,
        "total": 2338
      },
      {
        "club_badge_src": null,
        "entry": 3084676,
        "entry_name": "De guilty partey",
        "event_total": 59,
        "has_played": true,
        "id": 22726939,
        "last_rank": 80194,
        "player_name": "Ihab Said",
        "rank": 74308,
        "rank_sort": 74461,
        "total": 2338
      },
      {
        "club_badge_src": null,
        "entry": 3100826,
        "entry_name": "Champagne Khusanova",
        "event_total": 49,
        "has_played": true,
        "id": 22861929,
        "last_rank": 60462,
        "player_name": "Jacob Cooper",
        "rank": 74308,
        "rank_sort": 74462,
        "total": 2338
      },
      {
        "club_badge_src": "https://fantasy.premierleague.com/gcs/plfpl-production-adobe-approved/plfpl-production/3102009/863d2e12-e1fc-48cb-ac12-8365105c628b.png",
        "entry": 3102009,
        "entry_name": "M!ND THE GAP",
        "event_total": 59,
        "has_played": true,
        "id": 22870806,
        "last_rank": 79817,
        "player_name": "ABDULLA ALFARAJ",
        "rank": 74308,
        "rank_sort": 74463,
        "total": 2338
      },
      {
        "club_badge_src": null,
        "entry": 3118975,
        "entry_name": "doa ibu fc",
        "event_total": 37,
        "has_played": true,
        "id": 23016768,
        "last_rank": 41824,
        "player_name": "xxanggax x",
        "rank": 74308,
        "rank_sort": 74464,
        "total": 2338
      },
      {
        "club_badge_src": null,
        "entry": 3122988,
        "entry_name": "Go with the Flo",
        "event_total": 56,
        "has_played": true,
        "id": 23047115,
        "last_rank": 65475,
        "player_name": "barry brownbill",
        "rank": 74308,
        "rank_sort": 74465,
        "total": 2338
      },
      {
        "club_badge_src": null,
        "entry": 3187606,
        "entry_name": "Jacobski TV FC",
        "event_total": 68,
        "has_played": true,
        "id": 23556804,
        "last_rank": 101818,
        "player_name": "Jacob Nordin",
        "rank": 74308,
        "rank_sort": 74466,
        "total": 2338
      },
      {
        "club_badge_src": null,
        "entry": 3223858,
        "entry_name": "Krul Summer",
        "event_total": 37,
        "has_played": true,
        "id": 23840609,
        "last_rank": 41967,
        "player_name": "Rebecca Hopkins",
        "rank": 74308,
        "rank_sort": 74467,
        "total": 2338
      },
      {
        "club_badge_src": null,
        "entry": 3243213,
        "entry_name": "Master Splinter",
        "event_total": 60,
        "has_played": true,
        "id": 23990647,
        "last_rank": 73423,
        "player_name": "Samson Rattigan",
        "rank": 74308,
        "rank_sort": 74468,
        "total": 2338
      },
      {
        "club_badge_src": "https://fantasy.premierleague.com/gcs/plfpl-production-adobe-approved/plfpl-production/3278418/08cfc676-4b9b-4bb2-98d5-e941751aebb2.png",
        "entry": 3278418,
        "entry_name": "Gbest_FC",
        "event_total": 31,
        "has_played": true,
        "id": 24265044,
        "last_rank": 34458,
        "player_name": "Godwin Balogun",
        "rank": 74308,
        "rank_sort": 74469,
        "total": 2338
      },
      {
        "club_badge_src": null,
        "entry": 3355389,
        "entry_name": "Asko1_FC",
        "event_total": 38,
        "has_played": true,
        "id": 24893668,
        "last_rank": 43168,
        "player_name": "Abdullahi Shuaibu",
        "rank": 74308,
        "rank_sort": 74470,
        "total": 2338
      },
      {
        "club_badge_src": "https://fantasy.premierleague.com/gcs/plfpl-production-adobe-approved/plfpl-production/3496428/c5a7f6fe-def9-4969-8c84-9a459e93e832.png",
        "entry": 3496428,
        "entry_name": "\ufffd",
        "event_total": 65,
        "has_played": true,
        "id": 26007256,
        "last_rank": 94255,
        "player_name": "TA 2024-2025",
        "rank": 74308,
        "rank_sort": 74471,
        "total": 2338
      },
      {
        "club_badge_src": null,
        "entry": 3502162,
        "entry_name": "DaddyDempsXI",
        "event_total": 57,
        "has_played": true,
        "id": 26052342,
        "last_rank": 75874,
        "player_name": "Dempsey White",
        "rank": 74308,
        "rank_sort": 74472,
        "total": 2338
      },
      {
        "club_badge_src": null,
        "entry": 3515829,
        "entry_name": "ForzaFiume",
        "event_total": 66,
        "has_played": true,
        "id": 26162339,
        "last_rank": 96777,
        "player_name": "Dean Tonkovi\u0107",
        "rank": 74308,
        "rank_sort": 74473,
        "total": 2338
      },
      {
        "club_badge_src": null,
        "entry": 3540069,
        "entry_name": "Commander Igris Army",
        "event_total": 49,
        "has_played": true,
        "id": 26350865,
        "last_rank": 59813,
        "player_name": "Mickell Crawford",
        "rank": 74308,
        "rank_sort": 74474,
        "total": 2338
      },
      {
        "club_badge_src": null,
        "entry": 3566600,
        "entry_name": "Roll Tide",
        "event_total": 61,
        "has_played": true,
        "id": 26556696,
        "last_rank": 84731,
        "player_name": "Menasse Kumlachew",
        "rank": 74308,
        "rank_sort": 74475,
        "total": 2338
      },
      {
        "club_badge_src": null,
        "entry": 3576833,
        "entry_name": "Yas_bhad",
        "event_total": 66,
        "has_played": true,
        "id": 26634657,
        "last_rank": 86304,
        "player_name": "Muhammad Yaaseen Patel",
        "rank": 74308,
        "rank_sort": 74476,
        "total": 2338
      },
      {
        "club_badge_src": null,
        "entry": 3600196,
        "entry_name": "Wirtz for wear",
        "event_total": 40,
        "has_played": true,
        "id": 26814021,
        "last_rank": 40297,
        "player_name": "Nicholas Chia",
        "rank": 74308,
        "rank_sort": 74477,
        "total": 2338
      },
      {
        "club_badge_src": null,
        "entry": 3606320,
        "entry_name": "McGinn & Tonic",
        "event_total": 64,
        "has_played": true,
        "id": 26862731,
        "last_rank": 91466,
        "player_name": "Mark Ellis",
        "rank": 74308,
        "rank_sort": 74478,
        "total": 2338
      },
      {
        "club_badge_src": null,
        "entry": 3606881,
        "entry_name": "PHM United",
        "event_total": 77,
        "has_played": true,
        "id": 26866933,
        "last_rank": 127749,
        "player_name": "Shiraz Qasim",
        "rank": 74308,
        "rank_sort": 74479,
        "total": 2338
      },
      {
        "club_badge_src": null,
        "entry": 3626085,
        "entry_name": "Star Lord XI \u2b50\ufe0f \u2b50\ufe0f",
        "event_total": 80,
        "has_played": true,
        "id": 27018795,
        "last_rank": 136624,
        "player_name": "Christian Marsden",
        "rank": 74308,
        "rank_sort": 74480,
        "total": 2338
      },
      {
        "club_badge_src": "https://fantasy.premierleague.com/gcs/plfpl-production-adobe-approved/plfpl-production/3648315/358230a1-0193-4d4d-a2dc-a6206f2387f3.png",
        "entry": 3648315,
        "entry_name": "Carrick Them Home FC",
        "event_total": 63,
        "has_played": true,
        "id": 27193885,
        "last_rank": 79817,
        "player_name": "Liam Glennon",
        "rank": 74308,
        "rank_sort": 74481,
        "total": 2338
      },
      {
        "club_badge_src": "https://fantasy.premierleague.com/gcs/plfpl-production-adobe-approved/plfpl-production/3657281/e11724c4-aed9-4c41-af5b-065dfdb734a9.png",
        "entry": 3657281,
        "entry_name": "Pink ponies",
        "event_total": 62,
        "has_played": true,
        "id": 27271773,
        "last_rank": 86735,
        "player_name": "Emma Horner",
        "rank": 74308,
        "rank_sort": 74482,
        "total": 2338
      },
      {
        "club_badge_src": null,
        "entry": 3718227,
        "entry_name": "\u0645\u062d\u0645\u062f \u0631\u0633\u0648\u0644",
        "event_total": 68,
        "has_played": true,
        "id": 27747091,
        "last_rank": 101419,
        "player_name": "mohamed rsol",
        "rank": 74308,
        "rank_sort": 74483,
        "total": 2338
      },
      {
        "club_badge_src": null,
        "entry": 3731145,
        "entry_name": "khpreesh",
        "event_total": 59,
        "has_played": true,
        "id": 27849429,
        "last_rank": 80194,
        "player_name": "\u062e\u062e\u0647\u0647\u0647 \u062e\u0647\u0647\u0647\u0647",
        "rank": 74308,
        "rank_sort": 74484,
        "total": 2338
      },
      {
        "club_badge_src": null,
        "entry": 3741663,
        "entry_name": "FC Sheijtmountain",
        "event_total": 66,
        "has_played": true,
        "id": 27930998,
        "last_rank": 95890,
        "player_name": "andreas hagberg",
        "rank": 74308,
        "rank_sort": 74485,
        "total": 2338
      },
      {
        "club_badge_src": null,
        "entry": 3749872,
        "entry_name": "Frawlotelli",
        "event_total": 53,
        "has_played": true,
        "id": 27995946,
        "last_rank": 67695,
        "player_name": "adam frawley",
        "rank": 74308,
        "rank_sort": 74486,
        "total": 2338
      },
      {
        "club_badge_src": null,
        "entry": 3764130,
        "entry_name": "Dandubs",
        "event_total": 69,
        "has_played": true,
        "id": 28105030,
        "last_rank": 104388,
        "player_name": "Daniel Wilkinson",
        "rank": 74308,
        "rank_sort": 74487,
        "total": 2338
      },
      {
        "club_badge_src": null,
        "entry": 3818190,
        "entry_name": "Starboy FC",
        "event_total": 56,
        "has_played": true,
        "id": 28554784,
        "last_rank": 65163,
        "player_name": "Thibaut Yap",
        "rank": 74308,
        "rank_sort": 74488,
        "total": 2338
      },
      {
        "club_badge_src": null,
        "entry": 3880367,
        "entry_name": "Rice And Eze Does It",
        "event_total": 75,
        "has_played": true,
        "id": 29156011,
        "last_rank": 108959,
        "player_name": "Paul Tern",
        "rank": 74308,
        "rank_sort": 74489,
        "total": 2338
      },
      {
        "club_badge_src": null,
        "entry": 3887304,
        "entry_name": "Cantonaheim FC",
        "event_total": 57,
        "has_played": true,
        "id": 29210555,
        "last_rank": 76128,
        "player_name": "Rudi Trogstad",
        "rank": 74308,
        "rank_sort": 74490,
        "total": 2338
      },
      {
        "club_badge_src": "https://fantasy.premierleague.com/gcs/plfpl-production-adobe-approved/plfpl-production/3929484/b1ec633a-f6a2-45c1-bf58-5ee2e00458eb.png",
        "entry": 3929484,
        "entry_name": "Let's Gyok!",
        "event_total": 60,
        "has_played": true,
        "id": 29552766,
        "last_rank": 82398,
        "player_name": "Andrew Porter",
        "rank": 74308,
        "rank_sort": 74491,
        "total": 2338
      },
      {
        "club_badge_src": null,
        "entry": 3975578,
        "entry_name": "Change Name",
        "event_total": 53,
        "has_played": true,
        "id": 29922123,
        "last_rank": 67695,
        "player_name": "Chris Cole",
        "rank": 74308,
        "rank_sort": 74492,
        "total": 2338
      },
      {
        "club_badge_src": null,
        "entry": 4029695,
        "entry_name": "Cunha Dig It",
        "event_total": 52,
        "has_played": true,
        "id": 30378369,
        "last_rank": 65475,
        "player_name": "Connor Martiello",
        "rank": 74308,
        "rank_sort": 74493,
        "total": 2338
      },
      {
        "club_badge_src": null,
        "entry": 4109782,
        "entry_name": "Rice Rice Baby",
        "event_total": 45,
        "has_played": true,
        "id": 31037561,
        "last_rank": 53345,
        "player_name": "Thomas Larsen",
        "rank": 74308,
        "rank_sort": 74494,
        "total": 2338
      },
      {
        "club_badge_src": null,
        "entry": 4143653,
        "entry_name": "MaanLyun",
        "event_total": 63,
        "has_played": true,
        "id": 31317219,
        "last_rank": 89426,
        "player_name": "Man Ho Leung",
        "rank": 74308,
        "rank_sort": 74495,
        "total": 2338
      },
      {
        "club_badge_src": null,
        "entry": 4178722,
        "entry_name": "Pelikirja kateissa",
        "event_total": 72,
        "has_played": true,
        "id": 31610399,
        "last_rank": 112169,
        "player_name": "Juho Liukkonen",
        "rank": 74308,
        "rank_sort": 74496,
        "total": 2338
      },
      {
        "club_badge_src": null,
        "entry": 4227736,
        "entry_name": "FK Autsajderi",
        "event_total": 48,
        "has_played": true,
        "id": 32030835,
        "last_rank": 58688,
        "player_name": "Stojance Mancev",
        "rank": 74308,
        "rank_sort": 74497,
        "total": 2338
      },
      {
        "club_badge_src": null,
        "entry": 4305216,
        "entry_name": "Cunha Dig It?",
        "event_total": 59,
        "has_played": true,
        "id": 32664031,
        "last_rank": 80194,
        "player_name": "Simon Lam",
        "rank": 74308,
        "rank_sort": 74498,
        "total": 2338
      },
      {
        "club_badge_src": null,
        "entry": 4384247,
        "entry_name": "Jag Gl\u00f6mde Deadline",
        "event_total": 71,
        "has_played": true,
        "id": 33323948,
        "last_rank": 108959,
        "player_name": "Hanna Sivia",
        "rank": 74308,
        "rank_sort": 74499,
        "total": 2338
      },
      {
        "club_badge_src": null,
        "entry": 4412767,
        "entry_name": "Kaisala Gunners",
        "event_total": 52,
        "has_played": true,
        "id": 33569303,
        "last_rank": 65796,
        "player_name": "Juhani Tuomainen",
        "rank": 74308,
        "rank_sort": 74500,
        "total": 2338
      }
    ]
  }
}