{
  "last_updated_data": "2026-05-24T23:28:17Z",
  "league": {
    "admin_entry": null,
    "closed": false,
    "code_privacy": "p",
    "created": "2025-07-20T23:14:33.933835Z",
    "cup_league": 2815434,
    "has_cup": true,
    "id": 314,
    "league_type": "s",
    "max_entries": null,
    "name": "Overall",
    "rank": null,
    "scoring": "c",
    "start_event": 1
  },
  "new_entries": {
    "has_next": false,
    "page": 1,
    "results": []
  },
  "standings": {
    "has_next": true,
    "page": 612,
    "results": [
      {
        "club_badge_src": null,
        "entry": 1324728,
        "entry_name": "Wirtz Case Scenario",
        "event_total": 55,
        "has_played": true,
        "id": 9208022,
        "last_rank": 24636,
        "player_name": "Kulwinder Vig",
        "rank": 30533,
        "rank_sort": 30551,
        "total": 2368
      },
      {
        "club_badge_src": null,
        "entry": 1344725,
        "entry_name": "#20 #RIP",
        "event_total": 67,
        "has_played": true,
        "id": 9349215,
        "last_rank": 42081,
        "player_name": "Tom Connolly",
        "rank": 30533,
        "rank_sort": 30552,
        "total": 2368
      },
      {
        "club_badge_src": null,
        "entry": 1449992,
        "entry_name": "Hapoel Marmorek",
        "event_total": 59,
        "has_played": true,
        "id": 10103733,
        "last_rank": 28348,
        "player_name": "Sharon Davidovitch",
        "rank": 30533,
        "rank_sort": 30553,
        "total": 2368
      },
      {
        "club_badge_src": null,
        "entry": 1537726,
        "entry_name": "P.S. I Love Eustace",
        "event_total": 65,
        "has_played": true,
        "id": 10732007,
        "last_rank": 34682,
        "player_name": "Will O'Neill",
        "rank": 30533,
        "rank_sort": 30554,
        "total": 2368
      },
      {
        "club_badge_src": "https://fantasy.premierleague.com/gcs/plfpl-production-adobe-approved/plfpl-production/1736873/d697c84b-c319-450b-bbd1-f74019c73b05.png",
        "entry": 1736873,
        "entry_name": "blackout ballers",
        "event_total": 40,
        "has_played": true,
        "id": 12185114,
        "last_rank": 16598,
        "player_name": "Emmanuel Ayiku",
        "rank": 30533,
        "rank_sort": 30555,
        "total": 2368
      },
      {
        "club_badge_src": "https://fantasy.premierleague.com/gcs/plfpl-production-adobe-approved/plfpl-production/1759541/d18ae920-6c01-467b-8ed0-40ad231c3cd3.png",
        "entry": 1759541,
        "entry_name": "No Games",
        "event_total": 53,
        "has_played": true,
        "id": 12353567,
        "last_rank": 26475,
        "player_name": "Nathan Mac",
        "rank": 30533,
        "rank_sort": 30556,
        "total": 2368
      },
      {
        "club_badge_src": "https://fantasy.premierleague.com/gcs/plfpl-production-adobe-approved/plfpl-production/1795316/920f66ea-3e07-428f-9bdb-a9f5eae3239a.png",
        "entry": 1795316,
        "entry_name": "Rice Rice Baby",
        "event_total": 75,
        "has_played": true,
        "id": 12616240,
        "last_rank": 47417,
        "player_name": "Ah Bang",
        "rank": 30533,
        "rank_sort": 30557,
        "total": 2368
      },
      {
        "club_badge_src": null,
        "entry": 2301483,
        "entry_name": "GvardiolsOfTheGalaxy",
        "event_total": 61,
        "has_played": true,
        "id": 16415152,
        "last_rank": 34749,
        "player_name": "Shane O'connell",
        "rank": 30533,
        "rank_sort": 30558,
        "total": 2368
      },
      {
        "club_badge_src": null,
        "entry": 2388268,
        "entry_name": "ambitsioonikas mees",
        "event_total": 63,
        "has_played": true,
        "id": 17058700,
        "last_rank": 37134,
        "player_name": "Andero Heinola",
        "rank": 30533,
        "rank_sort": 30559,
        "total": 2368
      },
      {
        "club_badge_src": null,
        "entry": 2438511,
        "entry_name": "Chicken Ekitikka",
        "event_total": 53,
        "has_played": true,
        "id": 17438672,
        "last_rank": 26475,
        "player_name": "Nathan Albasini",
        "rank": 30533,
        "rank_sort": 30560,
        "total": 2368
      },
      {
        "club_badge_src": null,
        "entry": 3291687,
        "entry_name": "Taou FC",
        "event_total": 59,
        "has_played": true,
        "id": 24372076,
        "last_rank": 32437,
        "player_name": "george taoushanis",
        "rank": 30533,
        "rank_sort": 30561,
        "total": 2368
      },
      {
        "club_badge_src": null,
        "entry": 3757597,
        "entry_name": "Awoba-bobb-bobb",
        "event_total": 25,
        "has_played": true,
        "id": 28054986,
        "last_rank": 9015,
        "player_name": "Leo Barrow",
        "rank": 30533,
        "rank_sort": 30562,
        "total": 2368
      },
      {
        "club_badge_src": "https://fantasy.premierleague.com/gcs/plfpl-production-adobe-approved/plfpl-production/3924277/10a88c77-f4d8-400e-951a-026a5c90ba00.png",
        "entry": 3924277,
        "entry_name": "Ruby Rovers",
        "event_total": 63,
        "has_played": true,
        "id": 29511491,
        "last_rank": 37058,
        "player_name": "Alison ONeill",
        "rank": 30533,
        "rank_sort": 30563,
        "total": 2368
      },
      {
        "club_badge_src": null,
        "entry": 4205190,
        "entry_name": "Ctrl Alt Deligt",
        "event_total": 63,
        "has_played": true,
        "id": 31834292,
        "last_rank": 37134,
        "player_name": "Nabeel Naushahi",
        "rank": 30533,
        "rank_sort": 30564,
        "total": 2368
      },
      {
        "club_badge_src": null,
        "entry": 4250841,
        "entry_name": "Macdonex FC \u26a1\ufe0f",
        "event_total": 61,
        "has_played": true,
        "id": 32223419,
        "last_rank": 34749,
        "player_name": "Macdonex Damola",
        "rank": 30533,
        "rank_sort": 30565,
        "total": 2368
      },
      {
        "club_badge_src": null,
        "entry": 5210022,
        "entry_name": "North Khuan",
        "event_total": 48,
        "has_played": true,
        "id": 40355220,
        "last_rank": 22263,
        "player_name": "North19 Nutto",
        "rank": 30533,
        "rank_sort": 30566,
        "total": 2368
      },
      {
        "club_badge_src": null,
        "entry": 5516435,
        "entry_name": "fpl_team_25_26",
        "event_total": 69,
        "has_played": true,
        "id": 43008657,
        "last_rank": 44882,
        "player_name": "net mobile",
        "rank": 30533,
        "rank_sort": 30567,
        "total": 2368
      },
      {
        "club_badge_src": null,
        "entry": 5587934,
        "entry_name": "FC Kurdistan",
        "event_total": 66,
        "has_played": true,
        "id": 43652049,
        "last_rank": 40832,
        "player_name": "Deldar Ibrahim",
        "rank": 30533,
        "rank_sort": 30568,
        "total": 2368
      },
      {
        "club_badge_src": null,
        "entry": 6231809,
        "entry_name": "Marveaux 31",
        "event_total": 72,
        "has_played": true,
        "id": 49318896,
        "last_rank": 43342,
        "player_name": "Marvin Mats",
        "rank": 30533,
        "rank_sort": 30569,
        "total": 2368
      },
      {
        "club_badge_src": null,
        "entry": 6544133,
        "entry_name": "AlHaj",
        "event_total": 68,
        "has_played": true,
        "id": 52215061,
        "last_rank": 38163,
        "player_name": "Ahmad Dabbas",
        "rank": 30533,
        "rank_sort": 30570,
        "total": 2368
      },
      {
        "club_badge_src": null,
        "entry": 6799861,
        "entry_name": "Mellor Boys FC",
        "event_total": 64,
        "has_played": true,
        "id": 54455056,
        "last_rank": 33483,
        "player_name": "Sam Mellor",
        "rank": 30533,
        "rank_sort": 30571,
        "total": 2368
      },
      {
        "club_badge_src": "https://fantasy.premierleague.com/gcs/plfpl-production-adobe-approved/plfpl-production/8312440/1ec584dd-5dd0-4fb7-a06b-96de344d618f.png",
        "entry": 8312440,
        "entry_name": "Bugevilla Flasher FC",
        "event_total": 69,
        "has_played": true,
        "id": 68841188,
        "last_rank": 44804,
        "player_name": "Nazri Nordin",
        "rank": 30533,
        "rank_sort": 30572,
        "total": 2368
      },
      {
        "club_badge_src": null,
        "entry": 8318278,
        "entry_name": "gizz4m",
        "event_total": 54,
        "has_played": true,
        "id": 68902408,
        "last_rank": 27402,
        "player_name": "Gezim Maliqi",
        "rank": 30533,
        "rank_sort": 30573,
        "total": 2368
      },
      {
        "club_badge_src": null,
        "entry": 8610143,
        "entry_name": "MurderOnZidanesFloor",
        "event_total": 60,
        "has_played": true,
        "id": 71695516,
        "last_rank": 33651,
        "player_name": "Archie Spears",
        "rank": 30533,
        "rank_sort": 30574,
        "total": 2368
      },
      {
        "club_badge_src": null,
        "entry": 8644907,
        "entry_name": "McEkialoo tike",
        "event_total": 63,
        "has_played": true,
        "id": 72035348,
        "last_rank": 37134,
        "player_name": "Srishti Goel",
        "rank": 30533,
        "rank_sort": 30575,
        "total": 2368
      },
      {
        "club_badge_src": "https://fantasy.premierleague.com/gcs/plfpl-production-adobe-approved/plfpl-production/8748168/316032dd-8f03-4ece-8989-668372687591.png",
        "entry": 8748168,
        "entry_name": "1998Fc",
        "event_total": 49,
        "has_played": true,
        "id": 73046233,
        "last_rank": 23039,
        "player_name": "Karzan Othman",
        "rank": 30533,
        "rank_sort": 30576,
        "total": 2368
      },
      {
        "club_badge_src": null,
        "entry": 8944257,
        "entry_name": "Lollie Delap",
        "event_total": 64,
        "has_played": true,
        "id": 74942945,
        "last_rank": 33582,
        "player_name": "Sean Tan",
        "rank": 30533,
        "rank_sort": 30577,
        "total": 2368
      },
      {
        "club_badge_src": null,
        "entry": 9285368,
        "entry_name": "Everton Kenya",
        "event_total": 60,
        "has_played": true,
        "id": 78268183,
        "last_rank": 29279,
        "player_name": "Lewinyo Edwin",
        "rank": 30533,
        "rank_sort": 30578,
        "total": 2368
      },
      {
        "club_badge_src": null,
        "entry": 5923,
        "entry_name": "Ry's Guys",
        "event_total": 59,
        "has_played": true,
        "id": 33876,
        "last_rank": 32491,
        "player_name": "Ryan Knowles",
        "rank": 30579,
        "rank_sort": 30579,
        "total": 2368
      },
      {
        "club_badge_src": null,
        "entry": 76378,
        "entry_name": "Kinder Mbeumo",
        "event_total": 62,
        "has_played": true,
        "id": 496489,
        "last_rank": 31371,
        "player_name": "Arran Chauhan",
        "rank": 30579,
        "rank_sort": 30580,
        "total": 2368
      },
      {
        "club_badge_src": null,
        "entry": 105213,
        "entry_name": "I eat simpson Pussey",
        "event_total": 63,
        "has_played": true,
        "id": 686226,
        "last_rank": 32491,
        "player_name": "Nathan Forster",
        "rank": 30579,
        "rank_sort": 30581,
        "total": 2368
      },
      {
        "club_badge_src": null,
        "entry": 186627,
        "entry_name": "Yakot boys \u0627\u0644\u0623\u0634\u0627\u0648\u0633",
        "event_total": 47,
        "has_played": true,
        "id": 1233491,
        "last_rank": 15920,
        "player_name": "karim Yakot",
        "rank": 30579,
        "rank_sort": 30582,
        "total": 2368
      },
      {
        "club_badge_src": "https://fantasy.premierleague.com/gcs/plfpl-production-adobe-approved/plfpl-production/197686/14632dbd-b4b9-4c99-890e-66d39db8634d.png",
        "entry": 197686,
        "entry_name": "The Devil\u2019s DeLigt",
        "event_total": 58,
        "has_played": true,
        "id": 1311732,
        "last_rank": 31404,
        "player_name": "Jamal Ahmed",
        "rank": 30579,
        "rank_sort": 30583,
        "total": 2368
      },
      {
        "club_badge_src": "https://fantasy.premierleague.com/gcs/plfpl-production-adobe-approved/plfpl-production/233032/6a43d5de-57b3-4412-841c-9b4047ff4465.png",
        "entry": 233032,
        "entry_name": "Rutter Woke Nonsence",
        "event_total": 77,
        "has_played": true,
        "id": 1550467,
        "last_rank": 44672,
        "player_name": "Liam Cassidy",
        "rank": 30579,
        "rank_sort": 30584,
        "total": 2368
      },
      {
        "club_badge_src": null,
        "entry": 253324,
        "entry_name": "The Gooners",
        "event_total": 38,
        "has_played": true,
        "id": 1684883,
        "last_rank": 15336,
        "player_name": "Ben Santhosh",
        "rank": 30579,
        "rank_sort": 30585,
        "total": 2368
      },
      {
        "club_badge_src": null,
        "entry": 456241,
        "entry_name": "KALA F\u20ac",
        "event_total": 59,
        "has_played": true,
        "id": 3060967,
        "last_rank": 32531,
        "player_name": "Kaleb Elias",
        "rank": 30579,
        "rank_sort": 30586,
        "total": 2368
      },
      {
        "club_badge_src": "https://fantasy.premierleague.com/gcs/plfpl-production-adobe-approved/plfpl-production/525310/c4949020-07bb-4b6d-96a8-96e77fedd3b2.png",
        "entry": 525310,
        "entry_name": "Karpaloharhautus",
        "event_total": 54,
        "has_played": true,
        "id": 3530394,
        "last_rank": 27438,
        "player_name": "Niko Ekblom",
        "rank": 30579,
        "rank_sort": 30587,
        "total": 2368
      },
      {
        "club_badge_src": null,
        "entry": 913987,
        "entry_name": "The GalactiCOS",
        "event_total": 59,
        "has_played": true,
        "id": 6284812,
        "last_rank": 28388,
        "player_name": "Costas Achillea",
        "rank": 30579,
        "rank_sort": 30588,
        "total": 2368
      },
      {
        "club_badge_src": null,
        "entry": 980605,
        "entry_name": "Under My Cunharella",
        "event_total": 64,
        "has_played": true,
        "id": 6760301,
        "last_rank": 33651,
        "player_name": "Rob Palmer",
        "rank": 30579,
        "rank_sort": 30589,
        "total": 2368
      },
      {
        "club_badge_src": null,
        "entry": 1234161,
        "entry_name": "stylebender",
        "event_total": 60,
        "has_played": true,
        "id": 8570230,
        "last_rank": 29279,
        "player_name": "Jonathan Karrin",
        "rank": 30579,
        "rank_sort": 30590,
        "total": 2368
      },
      {
        "club_badge_src": null,
        "entry": 1271734,
        "entry_name": "\u0637\u0648\u0641\u0627\u0646 \u0627\u0644\u0627\u0642\u0635\u064a\ufffd \u2665",
        "event_total": 67,
        "has_played": true,
        "id": 8836430,
        "last_rank": 37134,
        "player_name": "Ahmed Ambosha",
        "rank": 30579,
        "rank_sort": 30591,
        "total": 2368
      },
      {
        "club_badge_src": null,
        "entry": 1301597,
        "entry_name": "whats the Mata",
        "event_total": 53,
        "has_played": true,
        "id": 9046112,
        "last_rank": 26541,
        "player_name": "charles bantock",
        "rank": 30579,
        "rank_sort": 30592,
        "total": 2368
      },
      {
        "club_badge_src": null,
        "entry": 1494491,
        "entry_name": "Finding Neco",
        "event_total": 79,
        "has_played": true,
        "id": 10422000,
        "last_rank": 60827,
        "player_name": "Evan \u3164",
        "rank": 30579,
        "rank_sort": 30593,
        "total": 2368
      },
      {
        "club_badge_src": null,
        "entry": 2339780,
        "entry_name": "tatum Kennedy",
        "event_total": 52,
        "has_played": true,
        "id": 16694860,
        "last_rank": 25595,
        "player_name": "djamil saidi",
        "rank": 30579,
        "rank_sort": 30594,
        "total": 2368
      },
      {
        "club_badge_src": null,
        "entry": 2807558,
        "entry_name": "Anwar Manna 10",
        "event_total": 65,
        "has_played": true,
        "id": 20504903,
        "last_rank": 34749,
        "player_name": "Anwar Manna",
        "rank": 30579,
        "rank_sort": 30595,
        "total": 2368
      },
      {
        "club_badge_src": null,
        "entry": 3348568,
        "entry_name": "Barceliwma F.C",
        "event_total": 72,
        "has_played": true,
        "id": 24840565,
        "last_rank": 43512,
        "player_name": "Thanos Keramidas",
        "rank": 30579,
        "rank_sort": 30596,
        "total": 2368
      },
      {
        "club_badge_src": null,
        "entry": 3985974,
        "entry_name": "abdelllll",
        "event_total": 69,
        "has_played": true,
        "id": 30009681,
        "last_rank": 44882,
        "player_name": "Abdelmalek Omar",
        "rank": 30579,
        "rank_sort": 30597,
        "total": 2368
      },
      {
        "club_badge_src": null,
        "entry": 4386046,
        "entry_name": "rekmark",
        "event_total": 69,
        "has_played": true,
        "id": 33338766,
        "last_rank": 44950,
        "player_name": "Robin Ekmark",
        "rank": 30579,
        "rank_sort": 30598,
        "total": 2368
      },
      {
        "club_badge_src": null,
        "entry": 4544202,
        "entry_name": "StoneColdStevePalmer",
        "event_total": 64,
        "has_played": true,
        "id": 34669236,
        "last_rank": 33651,
        "player_name": "Glen Fulham",
        "rank": 30579,
        "rank_sort": 30599,
        "total": 2368
      },
      {
        "club_badge_src": null,
        "entry": 6168975,
        "entry_name": "\u0645\u062d\u0645\u062f",
        "event_total": 50,
        "has_played": true,
        "id": 48776819,
        "last_rank": 23904,
        "player_name": "Mohammed Mohammed",
        "rank": 30579,
        "rank_sort": 30600,
        "total": 2368
      }
    ]
  }
}