{
  "last_updated_data": "2026-05-24T23:28:17Z",
  "league": {
    "admin_entry": null,
    "closed": false,
    "code_privacy": "p",
    "created": "2025-07-20T23:14:33.933835Z",
    "cup_league": 2815434,
    "has_cup": true,
    "id": 314,
    "league_type": "s",
    "max_entries": null,
    "name": "Overall",
    "rank": null,
    "scoring": "c",
    "start_event": 1
  },
  "new_entries": {
    "has_next": false,
    "page": 1,
    "results": []
  },
  "standings": {
    "has_next": true,
    "page": 1387,
    "results": [
      {
        "club_badge_src": null,
        "entry": 4335204,
        "entry_name": "Naif FC",
        "event_total": 49,
        "has_played": true,
        "id": 32912881,
        "last_rank": 49368,
        "player_name": "Naif Alqurashi",
        "rank": 69250,
        "rank_sort": 69301,
        "total": 2341
      },
      {
        "club_badge_src": null,
        "entry": 4429054,
        "entry_name": "Yoro Wizard Harry",
        "event_total": 75,
        "has_played": true,
        "id": 33714537,
        "last_rank": 113553,
        "player_name": "Josh Whitmore",
        "rank": 69250,
        "rank_sort": 69302,
        "total": 2341
      },
      {
        "club_badge_src": "https://fantasy.premierleague.com/gcs/plfpl-production-adobe-approved/plfpl-production/4491726/ea865e2a-a8ad-4eaa-a960-ee0757dfb340.png",
        "entry": 4491726,
        "entry_name": "SESKOnaUNITED",
        "event_total": 58,
        "has_played": true,
        "id": 34238734,
        "last_rank": 57451,
        "player_name": "Wilson TheDot Matarutso",
        "rank": 69250,
        "rank_sort": 69303,
        "total": 2341
      },
      {
        "club_badge_src": "https://fantasy.premierleague.com/gcs/plfpl-production-adobe-approved/plfpl-production/4579482/0ebd91e8-25f2-49cd-a30b-5556c5038a3b.png",
        "entry": 4579482,
        "entry_name": "Beb\u00e9 Shaw Dorgugugu",
        "event_total": 64,
        "has_played": true,
        "id": 34958426,
        "last_rank": 76574,
        "player_name": "Mo Salih",
        "rank": 69250,
        "rank_sort": 69304,
        "total": 2341
      },
      {
        "club_badge_src": null,
        "entry": 5008939,
        "entry_name": "Cunha-Sesko-Mbuemo",
        "event_total": 55,
        "has_played": true,
        "id": 38679404,
        "last_rank": 59249,
        "player_name": "Simen Olsen",
        "rank": 69250,
        "rank_sort": 69305,
        "total": 2341
      },
      {
        "club_badge_src": null,
        "entry": 5749686,
        "entry_name": "SC Fahulavaan",
        "event_total": 71,
        "has_played": true,
        "id": 45063646,
        "last_rank": 83018,
        "player_name": "Ahmed Asim",
        "rank": 69250,
        "rank_sort": 69306,
        "total": 2341
      },
      {
        "club_badge_src": null,
        "entry": 6168284,
        "entry_name": "Broadbeach Poms",
        "event_total": 61,
        "has_played": true,
        "id": 48770719,
        "last_rank": 62724,
        "player_name": "Steve Staples",
        "rank": 69250,
        "rank_sort": 69307,
        "total": 2341
      },
      {
        "club_badge_src": null,
        "entry": 6284597,
        "entry_name": "Calafiorication",
        "event_total": 83,
        "has_played": true,
        "id": 49780405,
        "last_rank": 138215,
        "player_name": "Ian Wright",
        "rank": 69250,
        "rank_sort": 69308,
        "total": 2341
      },
      {
        "club_badge_src": null,
        "entry": 7264571,
        "entry_name": "Pogbartini is back",
        "event_total": 34,
        "has_played": true,
        "id": 58743098,
        "last_rank": 34825,
        "player_name": "Paul Martini",
        "rank": 69250,
        "rank_sort": 69309,
        "total": 2341
      },
      {
        "club_badge_src": null,
        "entry": 8712444,
        "entry_name": "Kebaberdean FC",
        "event_total": 56,
        "has_played": true,
        "id": 72699626,
        "last_rank": 68294,
        "player_name": "Michael Pearson",
        "rank": 69250,
        "rank_sort": 69310,
        "total": 2341
      },
      {
        "club_badge_src": null,
        "entry": 9981887,
        "entry_name": "my team",
        "event_total": 68,
        "has_played": true,
        "id": 84674948,
        "last_rank": 95063,
        "player_name": "Wajid Ahmed",
        "rank": 69250,
        "rank_sort": 69311,
        "total": 2341
      },
      {
        "club_badge_src": "https://fantasy.premierleague.com/gcs/plfpl-production-adobe-approved/plfpl-production/2123/a042834d-223a-4bf9-a8db-396e2077cc5e.png",
        "entry": 2123,
        "entry_name": "ArssoNki",
        "event_total": 50,
        "has_played": true,
        "id": 11841,
        "last_rank": 50905,
        "player_name": "Arkadiusz Lekki",
        "rank": 69312,
        "rank_sort": 69312,
        "total": 2341
      },
      {
        "club_badge_src": "https://fantasy.premierleague.com/gcs/plfpl-production-adobe-approved/plfpl-production/16104/63c786c8-3ee9-4415-8266-500d5ba89009.png",
        "entry": 16104,
        "entry_name": "Tadow",
        "event_total": 70,
        "has_played": true,
        "id": 99273,
        "last_rank": 80877,
        "player_name": "Joe Brunn",
        "rank": 69312,
        "rank_sort": 69313,
        "total": 2341
      },
      {
        "club_badge_src": null,
        "entry": 46160,
        "entry_name": "alkhafaji32",
        "event_total": 68,
        "has_played": true,
        "id": 295998,
        "last_rank": 85565,
        "player_name": "Mohammed Alkhafaji",
        "rank": 69312,
        "rank_sort": 69314,
        "total": 2341
      },
      {
        "club_badge_src": null,
        "entry": 65123,
        "entry_name": "Fantazisti",
        "event_total": 43,
        "has_played": true,
        "id": 420338,
        "last_rank": 35969,
        "player_name": "Ivan Stojic",
        "rank": 69312,
        "rank_sort": 69315,
        "total": 2341
      },
      {
        "club_badge_src": null,
        "entry": 68568,
        "entry_name": "Ekitike-taka",
        "event_total": 51,
        "has_played": true,
        "id": 444311,
        "last_rank": 52561,
        "player_name": "Jacob Stretton",
        "rank": 69312,
        "rank_sort": 69316,
        "total": 2341
      },
      {
        "club_badge_src": null,
        "entry": 73808,
        "entry_name": "Lisandro al Gaib",
        "event_total": 54,
        "has_played": true,
        "id": 479813,
        "last_rank": 64603,
        "player_name": "Scott Goodison",
        "rank": 69312,
        "rank_sort": 69317,
        "total": 2341
      },
      {
        "club_badge_src": "https://fantasy.premierleague.com/gcs/plfpl-production-adobe-approved/plfpl-production/162623/a5281548-7235-452f-8a4b-4c37df2382cf.png",
        "entry": 162623,
        "entry_name": "gorbachev",
        "event_total": 75,
        "has_played": true,
        "id": 1072098,
        "last_rank": 102700,
        "player_name": "Daniel Tampubolon",
        "rank": 69312,
        "rank_sort": 69318,
        "total": 2341
      },
      {
        "club_badge_src": null,
        "entry": 184851,
        "entry_name": "SquidWirtz",
        "event_total": 74,
        "has_played": true,
        "id": 1220771,
        "last_rank": 110813,
        "player_name": "kieran murphy",
        "rank": 69312,
        "rank_sort": 69319,
        "total": 2341
      },
      {
        "club_badge_src": "https://fantasy.premierleague.com/gcs/plfpl-production-adobe-approved/plfpl-production/191233/74d56501-9ed8-4fd6-97dc-bdf7fe36db24.png",
        "entry": 191233,
        "entry_name": "\u83e9\u63d0\u8001\u7956",
        "event_total": 57,
        "has_played": true,
        "id": 1266566,
        "last_rank": 55812,
        "player_name": "Eric Chau",
        "rank": 69312,
        "rank_sort": 69320,
        "total": 2341
      },
      {
        "club_badge_src": null,
        "entry": 232189,
        "entry_name": "This is SPARTA",
        "event_total": 67,
        "has_played": true,
        "id": 1544736,
        "last_rank": 83216,
        "player_name": "Michael Watson",
        "rank": 69312,
        "rank_sort": 69321,
        "total": 2341
      },
      {
        "club_badge_src": null,
        "entry": 321174,
        "entry_name": "abdo aldoury",
        "event_total": 69,
        "has_played": true,
        "id": 2152516,
        "last_rank": 97750,
        "player_name": "Abdullah Aldoury",
        "rank": 69312,
        "rank_sort": 69322,
        "total": 2341
      },
      {
        "club_badge_src": null,
        "entry": 335176,
        "entry_name": "Hitz FC",
        "event_total": 46,
        "has_played": true,
        "id": 2244306,
        "last_rank": 44982,
        "player_name": "Jz Koay",
        "rank": 69312,
        "rank_sort": 69323,
        "total": 2341
      },
      {
        "club_badge_src": null,
        "entry": 495445,
        "entry_name": "Bird United",
        "event_total": 66,
        "has_played": true,
        "id": 3325534,
        "last_rank": 72265,
        "player_name": "Khairul Bird",
        "rank": 69312,
        "rank_sort": 69324,
        "total": 2341
      },
      {
        "club_badge_src": null,
        "entry": 622533,
        "entry_name": "Sir Nawaf",
        "event_total": 43,
        "has_played": true,
        "id": 4207073,
        "last_rank": 46432,
        "player_name": "Nawaf Alajmi",
        "rank": 69312,
        "rank_sort": 69325,
        "total": 2341
      },
      {
        "club_badge_src": null,
        "entry": 694771,
        "entry_name": "Always Munchen",
        "event_total": 45,
        "has_played": true,
        "id": 4705607,
        "last_rank": 38267,
        "player_name": "Brett Woods",
        "rank": 69312,
        "rank_sort": 69326,
        "total": 2341
      },
      {
        "club_badge_src": null,
        "entry": 695644,
        "entry_name": "Natty No Bowel Boa",
        "event_total": 56,
        "has_played": true,
        "id": 4711651,
        "last_rank": 61045,
        "player_name": "Nathanael Sheppard",
        "rank": 69312,
        "rank_sort": 69327,
        "total": 2341
      },
      {
        "club_badge_src": "https://fantasy.premierleague.com/gcs/plfpl-production-adobe-approved/plfpl-production/711081/13687caf-cd6a-4c9f-bec3-306e91ea5052.png",
        "entry": 711081,
        "entry_name": "Y'all be bad",
        "event_total": 48,
        "has_played": true,
        "id": 4822823,
        "last_rank": 47920,
        "player_name": "Kieran Fitzpatrick",
        "rank": 69312,
        "rank_sort": 69328,
        "total": 2341
      },
      {
        "club_badge_src": null,
        "entry": 748242,
        "entry_name": "Bannerman xi",
        "event_total": 56,
        "has_played": true,
        "id": 5090583,
        "last_rank": 68395,
        "player_name": "Adam Mott",
        "rank": 69312,
        "rank_sort": 69329,
        "total": 2341
      },
      {
        "club_badge_src": null,
        "entry": 905605,
        "entry_name": "Delap of Honour",
        "event_total": 66,
        "has_played": true,
        "id": 6224349,
        "last_rank": 90300,
        "player_name": "Anthony Toolan",
        "rank": 69312,
        "rank_sort": 69330,
        "total": 2341
      },
      {
        "club_badge_src": null,
        "entry": 981011,
        "entry_name": "Corto Muso",
        "event_total": 66,
        "has_played": true,
        "id": 6763062,
        "last_rank": 72346,
        "player_name": "hiiima Sayed",
        "rank": 69312,
        "rank_sort": 69331,
        "total": 2341
      },
      {
        "club_badge_src": "https://fantasy.premierleague.com/gcs/plfpl-production-adobe-approved/plfpl-production/1061005/d2014296-e1cd-45b4-af8e-fe06b5588c7c.png",
        "entry": 1061005,
        "entry_name": "elldod",
        "event_total": 72,
        "has_played": true,
        "id": 7344408,
        "last_rank": 105430,
        "player_name": "Khaled Elashry",
        "rank": 69312,
        "rank_sort": 69332,
        "total": 2341
      },
      {
        "club_badge_src": "https://fantasy.premierleague.com/gcs/plfpl-production-adobe-approved/plfpl-production/1173954/a8804456-435a-4053-b784-d801592827ec.png",
        "entry": 1173954,
        "entry_name": "Chicharito",
        "event_total": 64,
        "has_played": true,
        "id": 8144500,
        "last_rank": 85487,
        "player_name": "Sir Pidot",
        "rank": 69312,
        "rank_sort": 69333,
        "total": 2341
      },
      {
        "club_badge_src": "https://fantasy.premierleague.com/gcs/plfpl-production-adobe-approved/plfpl-production/1194087/78e47aed-ba9c-42a1-8aa0-1bd4c537b106.png",
        "entry": 1194087,
        "entry_name": "Latiff Football Club",
        "event_total": 57,
        "has_played": true,
        "id": 8284981,
        "last_rank": 70355,
        "player_name": "Qamar Latiff",
        "rank": 69312,
        "rank_sort": 69334,
        "total": 2341
      },
      {
        "club_badge_src": null,
        "entry": 1306664,
        "entry_name": "Naggar dream team",
        "event_total": 66,
        "has_played": true,
        "id": 9082195,
        "last_rank": 72346,
        "player_name": "Mohamed Elnagar",
        "rank": 69312,
        "rank_sort": 69335,
        "total": 2341
      },
      {
        "club_badge_src": null,
        "entry": 1491159,
        "entry_name": "Cock Eral Balls",
        "event_total": 60,
        "has_played": true,
        "id": 10398586,
        "last_rank": 61004,
        "player_name": "Todd van Epen",
        "rank": 69312,
        "rank_sort": 69336,
        "total": 2341
      },
      {
        "club_badge_src": null,
        "entry": 1732569,
        "entry_name": "Abudory Cardosi",
        "event_total": 59,
        "has_played": true,
        "id": 12153006,
        "last_rank": 74524,
        "player_name": "Tint Lwin Oo",
        "rank": 69312,
        "rank_sort": 69337,
        "total": 2341
      },
      {
        "club_badge_src": null,
        "entry": 1780765,
        "entry_name": "Maine Champions",
        "event_total": 67,
        "has_played": true,
        "id": 12511171,
        "last_rank": 92602,
        "player_name": "Mike Stubbs",
        "rank": 69312,
        "rank_sort": 69338,
        "total": 2341
      },
      {
        "club_badge_src": null,
        "entry": 1859389,
        "entry_name": "Phil Mitchell FC",
        "event_total": 56,
        "has_played": true,
        "id": 13086573,
        "last_rank": 68395,
        "player_name": "Jonny Lawn",
        "rank": 69312,
        "rank_sort": 69339,
        "total": 2341
      },
      {
        "club_badge_src": null,
        "entry": 2069755,
        "entry_name": "No Mo",
        "event_total": 36,
        "has_played": true,
        "id": 14671804,
        "last_rank": 37256,
        "player_name": "Bashar A",
        "rank": 69312,
        "rank_sort": 69340,
        "total": 2341
      },
      {
        "club_badge_src": "https://fantasy.premierleague.com/gcs/plfpl-production-adobe-approved/plfpl-production/2271353/dbf7396b-fe7b-41ec-9ec8-6133b7761046.png",
        "entry": 2271353,
        "entry_name": "Such Is Fyfe",
        "event_total": 60,
        "has_played": true,
        "id": 16195917,
        "last_rank": 61004,
        "player_name": "Michael Fyfe",
        "rank": 69312,
        "rank_sort": 69341,
        "total": 2341
      },
      {
        "club_badge_src": null,
        "entry": 2500391,
        "entry_name": "papa1951",
        "event_total": 67,
        "has_played": true,
        "id": 17903566,
        "last_rank": 83216,
        "player_name": "Les Limbrick",
        "rank": 69312,
        "rank_sort": 69342,
        "total": 2341
      },
      {
        "club_badge_src": null,
        "entry": 2680733,
        "entry_name": "Mbeumo No.5",
        "event_total": 48,
        "has_played": true,
        "id": 19280153,
        "last_rank": 54218,
        "player_name": "Scott Brunton",
        "rank": 69312,
        "rank_sort": 69343,
        "total": 2341
      },
      {
        "club_badge_src": "https://fantasy.premierleague.com/gcs/plfpl-production-adobe-approved/plfpl-production/2818242/867f6460-fcda-4616-ae26-946097288b61.png",
        "entry": 2818242,
        "entry_name": "VaVaVoom14",
        "event_total": 66,
        "has_played": true,
        "id": 20585558,
        "last_rank": 90300,
        "player_name": "Tilaye Hailesilassie",
        "rank": 69312,
        "rank_sort": 69344,
        "total": 2341
      },
      {
        "club_badge_src": null,
        "entry": 2874910,
        "entry_name": "Hacunha Matata",
        "event_total": 72,
        "has_played": true,
        "id": 21037590,
        "last_rank": 85487,
        "player_name": "Adrian Brack",
        "rank": 69312,
        "rank_sort": 69345,
        "total": 2341
      },
      {
        "club_badge_src": "https://fantasy.premierleague.com/gcs/plfpl-production-adobe-approved/plfpl-production/3189184/551d8067-342e-476a-96f5-4f4e40bc7026.png",
        "entry": 3189184,
        "entry_name": "[A$H] DTU_NAM",
        "event_total": 58,
        "has_played": true,
        "id": 23568963,
        "last_rank": 64508,
        "player_name": "Ahmad El Hajjar",
        "rank": 69312,
        "rank_sort": 69346,
        "total": 2341
      },
      {
        "club_badge_src": null,
        "entry": 3327785,
        "entry_name": "TommyFarah",
        "event_total": 53,
        "has_played": true,
        "id": 24672350,
        "last_rank": 62874,
        "player_name": "Tom Ord",
        "rank": 69312,
        "rank_sort": 69347,
        "total": 2341
      },
      {
        "club_badge_src": null,
        "entry": 3379711,
        "entry_name": "Bruno 2.0",
        "event_total": 42,
        "has_played": true,
        "id": 25086549,
        "last_rank": 45007,
        "player_name": "Ethan Hopkins",
        "rank": 69312,
        "rank_sort": 69348,
        "total": 2341
      },
      {
        "club_badge_src": null,
        "entry": 3937069,
        "entry_name": "Ahmed Seleman",
        "event_total": 60,
        "has_played": true,
        "id": 29615034,
        "last_rank": 76693,
        "player_name": "Ahmed Seleman",
        "rank": 69312,
        "rank_sort": 69349,
        "total": 2341
      },
      {
        "club_badge_src": "https://fantasy.premierleague.com/gcs/plfpl-production-adobe-approved/plfpl-production/4064846/dcdc761f-1186-4eaa-8151-d5ee0daac587.png",
        "entry": 4064846,
        "entry_name": "Lucky King \ufffd",
        "event_total": 61,
        "has_played": true,
        "id": 30676859,
        "last_rank": 70355,
        "player_name": "Salim Umar",
        "rank": 69312,
        "rank_sort": 69350,
        "total": 2341
      }
    ]
  }
}