{
  "last_updated_data": "2026-05-24T23:28:17Z",
  "league": {
    "admin_entry": null,
    "closed": false,
    "code_privacy": "p",
    "created": "2025-07-20T23:14:33.933835Z",
    "cup_league": 2815434,
    "has_cup": true,
    "id": 314,
    "league_type": "s",
    "max_entries": null,
    "name": "Overall",
    "rank": null,
    "scoring": "c",
    "start_event": 1
  },
  "new_entries": {
    "has_next": false,
    "page": 1,
    "results": []
  },
  "standings": {
    "has_next": true,
    "page": 645,
    "results": [
      {
        "club_badge_src": null,
        "entry": 2671064,
        "entry_name": "Los JPs",
        "event_total": 68,
        "has_played": true,
        "id": 19204268,
        "last_rank": 45714,
        "player_name": "Juan P. Ocampo",
        "rank": 32080,
        "rank_sort": 32201,
        "total": 2366
      },
      {
        "club_badge_src": null,
        "entry": 2795683,
        "entry_name": "Hugo Boss",
        "event_total": 68,
        "has_played": true,
        "id": 20413299,
        "last_rank": 45416,
        "player_name": "Ronan McGinley",
        "rank": 32080,
        "rank_sort": 32202,
        "total": 2366
      },
      {
        "club_badge_src": null,
        "entry": 2818497,
        "entry_name": "Spartak Mogens",
        "event_total": 71,
        "has_played": true,
        "id": 20587449,
        "last_rank": 50199,
        "player_name": "Martin Sylte",
        "rank": 32080,
        "rank_sort": 32203,
        "total": 2366
      },
      {
        "club_badge_src": null,
        "entry": 2862067,
        "entry_name": "NoxiuS",
        "event_total": 64,
        "has_played": true,
        "id": 20930356,
        "last_rank": 40036,
        "player_name": "Martin Dangev",
        "rank": 32080,
        "rank_sort": 32204,
        "total": 2366
      },
      {
        "club_badge_src": null,
        "entry": 2870877,
        "entry_name": "Champagne Supernovas",
        "event_total": 64,
        "has_played": true,
        "id": 21004272,
        "last_rank": 40036,
        "player_name": "Allan Glomlien",
        "rank": 32080,
        "rank_sort": 32205,
        "total": 2366
      },
      {
        "club_badge_src": null,
        "entry": 2893902,
        "entry_name": "Team Dewey",
        "event_total": 67,
        "has_played": true,
        "id": 21199084,
        "last_rank": 38774,
        "player_name": "Jon Dewey",
        "rank": 32080,
        "rank_sort": 32206,
        "total": 2366
      },
      {
        "club_badge_src": null,
        "entry": 3029429,
        "entry_name": "Half the World (A)",
        "event_total": 48,
        "has_played": true,
        "id": 22291096,
        "last_rank": 23522,
        "player_name": "Will Richardson",
        "rank": 32080,
        "rank_sort": 32207,
        "total": 2366
      },
      {
        "club_badge_src": null,
        "entry": 3040669,
        "entry_name": "S\u00daP\u00c0\u00b9\u00b9",
        "event_total": 70,
        "has_played": true,
        "id": 22380652,
        "last_rank": 48898,
        "player_name": "prakash ojha",
        "rank": 32080,
        "rank_sort": 32208,
        "total": 2366
      },
      {
        "club_badge_src": null,
        "entry": 3045780,
        "entry_name": "Get Miggy With It",
        "event_total": 66,
        "has_played": true,
        "id": 22421038,
        "last_rank": 42940,
        "player_name": "Umad Awan",
        "rank": 32080,
        "rank_sort": 32209,
        "total": 2366
      },
      {
        "club_badge_src": "https://fantasy.premierleague.com/gcs/plfpl-production-adobe-approved/plfpl-production/3175266/310ddb5b-1e4f-428d-9253-ca612fc80c21.png",
        "entry": 3175266,
        "entry_name": "Livin Saliba Loca",
        "event_total": 56,
        "has_played": true,
        "id": 23461981,
        "last_rank": 31125,
        "player_name": "Curtis Nichols",
        "rank": 32080,
        "rank_sort": 32210,
        "total": 2366
      },
      {
        "club_badge_src": null,
        "entry": 3208642,
        "entry_name": "Barstool Pundits",
        "event_total": 61,
        "has_played": true,
        "id": 23721649,
        "last_rank": 36624,
        "player_name": "J.J. OKane",
        "rank": 32080,
        "rank_sort": 32211,
        "total": 2366
      },
      {
        "club_badge_src": null,
        "entry": 3209401,
        "entry_name": "Unatletico Madrid",
        "event_total": 61,
        "has_played": true,
        "id": 23727652,
        "last_rank": 36624,
        "player_name": "Declan O'Kane",
        "rank": 32080,
        "rank_sort": 32212,
        "total": 2366
      },
      {
        "club_badge_src": null,
        "entry": 3221060,
        "entry_name": "Lucy's Legends",
        "event_total": 70,
        "has_played": true,
        "id": 23819170,
        "last_rank": 48363,
        "player_name": "Ciaran McCaul",
        "rank": 32080,
        "rank_sort": 32213,
        "total": 2366
      },
      {
        "club_badge_src": null,
        "entry": 3279659,
        "entry_name": "red devils",
        "event_total": 62,
        "has_played": true,
        "id": 24274741,
        "last_rank": 37589,
        "player_name": "M7moud 17",
        "rank": 32080,
        "rank_sort": 32214,
        "total": 2366
      },
      {
        "club_badge_src": null,
        "entry": 3486082,
        "entry_name": "LESBIANESE",
        "event_total": 63,
        "has_played": true,
        "id": 25924406,
        "last_rank": 39023,
        "player_name": "Robin Cordahi",
        "rank": 32080,
        "rank_sort": 32215,
        "total": 2366
      },
      {
        "club_badge_src": null,
        "entry": 3586601,
        "entry_name": "It's coMING home",
        "event_total": 68,
        "has_played": true,
        "id": 26710315,
        "last_rank": 45714,
        "player_name": "Ming Wong",
        "rank": 32080,
        "rank_sort": 32216,
        "total": 2366
      },
      {
        "club_badge_src": null,
        "entry": 3646002,
        "entry_name": "NexB777",
        "event_total": 57,
        "has_played": true,
        "id": 27174012,
        "last_rank": 31620,
        "player_name": "Nemanja Bukumiric",
        "rank": 32080,
        "rank_sort": 32217,
        "total": 2366
      },
      {
        "club_badge_src": "https://fantasy.premierleague.com/gcs/plfpl-production-adobe-approved/plfpl-production/3693331/ffde4187-f32f-4c05-afa0-3a4d446427d2.png",
        "entry": 3693331,
        "entry_name": "SupaDupaFly",
        "event_total": 66,
        "has_played": true,
        "id": 27553542,
        "last_rank": 42648,
        "player_name": "Ein\u0101rs Da\u0123is",
        "rank": 32080,
        "rank_sort": 32218,
        "total": 2366
      },
      {
        "club_badge_src": null,
        "entry": 3754602,
        "entry_name": "I Saw The Crescent",
        "event_total": 58,
        "has_played": true,
        "id": 28032113,
        "last_rank": 33147,
        "player_name": "David Ward",
        "rank": 32080,
        "rank_sort": 32219,
        "total": 2366
      },
      {
        "club_badge_src": null,
        "entry": 3787814,
        "entry_name": "Joy Division",
        "event_total": 55,
        "has_played": true,
        "id": 28299184,
        "last_rank": 29904,
        "player_name": "ELIZABETH REK",
        "rank": 32080,
        "rank_sort": 32220,
        "total": 2366
      },
      {
        "club_badge_src": null,
        "entry": 3848962,
        "entry_name": "Abzzy FC",
        "event_total": 73,
        "has_played": true,
        "id": 28851337,
        "last_rank": 46839,
        "player_name": "Abdulaziz Abaalkhail",
        "rank": 32080,
        "rank_sort": 32221,
        "total": 2366
      },
      {
        "club_badge_src": "https://fantasy.premierleague.com/gcs/plfpl-production-adobe-approved/plfpl-production/3868527/25b482dc-2fcf-4a1c-96eb-905a183c013e.png",
        "entry": 3868527,
        "entry_name": "loftus cheeky",
        "event_total": 61,
        "has_played": true,
        "id": 29014437,
        "last_rank": 36624,
        "player_name": "Constance Balaam",
        "rank": 32080,
        "rank_sort": 32222,
        "total": 2366
      },
      {
        "club_badge_src": null,
        "entry": 3922067,
        "entry_name": "Calafiornication",
        "event_total": 67,
        "has_played": true,
        "id": 29493896,
        "last_rank": 43786,
        "player_name": "Liam Waterhouse",
        "rank": 32080,
        "rank_sort": 32223,
        "total": 2366
      },
      {
        "club_badge_src": null,
        "entry": 4035265,
        "entry_name": "Lonely",
        "event_total": 70,
        "has_played": true,
        "id": 30426395,
        "last_rank": 42648,
        "player_name": "Hasty M Latif",
        "rank": 32080,
        "rank_sort": 32224,
        "total": 2366
      },
      {
        "club_badge_src": null,
        "entry": 4050826,
        "entry_name": "NK \u0160intar Graba",
        "event_total": 65,
        "has_played": true,
        "id": 30555851,
        "last_rank": 36348,
        "player_name": "Jan Fekonja",
        "rank": 32080,
        "rank_sort": 32225,
        "total": 2366
      },
      {
        "club_badge_src": null,
        "entry": 4066536,
        "entry_name": "Ayew Serious?",
        "event_total": 43,
        "has_played": true,
        "id": 30690521,
        "last_rank": 19544,
        "player_name": "Scott Hill",
        "rank": 32080,
        "rank_sort": 32226,
        "total": 2366
      },
      {
        "club_badge_src": null,
        "entry": 4074865,
        "entry_name": "\u0648\u062d\u062f\u0629 \u0627\u0644\u0633\u064a\u0637\u0631\u0629 \u0627\u0644\u0628\u0637\u062d\u0629",
        "event_total": 74,
        "has_played": true,
        "id": 30758687,
        "last_rank": 55014,
        "player_name": "FREE PALESTINE \ud83c\uddf5\ud83c\uddf8",
        "rank": 32080,
        "rank_sort": 32227,
        "total": 2366
      },
      {
        "club_badge_src": "https://fantasy.premierleague.com/gcs/plfpl-production-adobe-approved/plfpl-production/4075631/191d3c58-beed-4ded-9774-277a37b03ab3.png",
        "entry": 4075631,
        "entry_name": "FC Godis",
        "event_total": 70,
        "has_played": true,
        "id": 30764874,
        "last_rank": 48642,
        "player_name": "Joel M\u00e5rtensson",
        "rank": 32080,
        "rank_sort": 32228,
        "total": 2366
      },
      {
        "club_badge_src": null,
        "entry": 4110660,
        "entry_name": "TGFY FC",
        "event_total": 69,
        "has_played": true,
        "id": 31044362,
        "last_rank": 41162,
        "player_name": "Erik J\u00f8rgenv\u00e5g",
        "rank": 32080,
        "rank_sort": 32229,
        "total": 2366
      },
      {
        "club_badge_src": null,
        "entry": 4316161,
        "entry_name": "wearethechampions",
        "event_total": 62,
        "has_played": true,
        "id": 32753169,
        "last_rank": 37822,
        "player_name": "Hans Inge Kristiansen",
        "rank": 32080,
        "rank_sort": 32230,
        "total": 2366
      },
      {
        "club_badge_src": "https://fantasy.premierleague.com/gcs/plfpl-production-adobe-approved/plfpl-production/4394883/a1a1a1e1-8033-468e-a439-3f2fca7108ac.png",
        "entry": 4394883,
        "entry_name": "mouad.dahak.rajawi",
        "event_total": 71,
        "has_played": true,
        "id": 33416468,
        "last_rank": 43849,
        "player_name": "Ashraf Merzouki",
        "rank": 32080,
        "rank_sort": 32231,
        "total": 2366
      },
      {
        "club_badge_src": null,
        "entry": 4404313,
        "entry_name": "kiki19",
        "event_total": 67,
        "has_played": true,
        "id": 33498605,
        "last_rank": 38774,
        "player_name": "Ivo Kriste",
        "rank": 32080,
        "rank_sort": 32232,
        "total": 2366
      },
      {
        "club_badge_src": null,
        "entry": 4505711,
        "entry_name": "ForzaTette",
        "event_total": 73,
        "has_played": true,
        "id": 34353206,
        "last_rank": 53023,
        "player_name": "Adrian Ekenstierna",
        "rank": 32080,
        "rank_sort": 32233,
        "total": 2366
      },
      {
        "club_badge_src": null,
        "entry": 4528850,
        "entry_name": "Nannes Ponkar",
        "event_total": 73,
        "has_played": true,
        "id": 34543461,
        "last_rank": 53345,
        "player_name": "Pelle Hansson",
        "rank": 32080,
        "rank_sort": 32234,
        "total": 2366
      },
      {
        "club_badge_src": null,
        "entry": 4565361,
        "entry_name": "freeyoungstrong",
        "event_total": 58,
        "has_played": true,
        "id": 34838765,
        "last_rank": 32879,
        "player_name": "Alex Greenwald",
        "rank": 32080,
        "rank_sort": 32235,
        "total": 2366
      },
      {
        "club_badge_src": null,
        "entry": 4578571,
        "entry_name": "Miami Rice",
        "event_total": 53,
        "has_played": true,
        "id": 34950486,
        "last_rank": 27770,
        "player_name": "Freddie King",
        "rank": 32080,
        "rank_sort": 32236,
        "total": 2366
      },
      {
        "club_badge_src": null,
        "entry": 4737052,
        "entry_name": "Alikoo10",
        "event_total": 58,
        "has_played": true,
        "id": 36446682,
        "last_rank": 28609,
        "player_name": "Ali Majeed",
        "rank": 32080,
        "rank_sort": 32237,
        "total": 2366
      },
      {
        "club_badge_src": "https://fantasy.premierleague.com/gcs/plfpl-production-adobe-approved/plfpl-production/4819857/1ee945bd-5df4-471a-8ecd-af41255b3ad3.png",
        "entry": 4819857,
        "entry_name": "H\u00fcrzeler to europe",
        "event_total": 50,
        "has_played": true,
        "id": 37115746,
        "last_rank": 25172,
        "player_name": "Ollie Cook",
        "rank": 32080,
        "rank_sort": 32238,
        "total": 2366
      },
      {
        "club_badge_src": null,
        "entry": 4884480,
        "entry_name": "Chiswick FC",
        "event_total": 64,
        "has_played": true,
        "id": 37656563,
        "last_rank": 35166,
        "player_name": "Onur Erdem YILMAZ",
        "rank": 32080,
        "rank_sort": 32239,
        "total": 2366
      },
      {
        "club_badge_src": null,
        "entry": 4953486,
        "entry_name": "B\u00e4rts B\u00e4rsta Boys",
        "event_total": 54,
        "has_played": true,
        "id": 38223387,
        "last_rank": 29071,
        "player_name": "Viktor Lundgren",
        "rank": 32080,
        "rank_sort": 32240,
        "total": 2366
      },
      {
        "club_badge_src": null,
        "entry": 4999025,
        "entry_name": "cavac215",
        "event_total": 63,
        "has_played": true,
        "id": 38600126,
        "last_rank": 39023,
        "player_name": "Ankit Chhetri",
        "rank": 32080,
        "rank_sort": 32241,
        "total": 2366
      },
      {
        "club_badge_src": null,
        "entry": 5010074,
        "entry_name": "Sesko Value",
        "event_total": 75,
        "has_played": true,
        "id": 38688494,
        "last_rank": 56708,
        "player_name": "Luke Colling",
        "rank": 32080,
        "rank_sort": 32242,
        "total": 2366
      },
      {
        "club_badge_src": null,
        "entry": 5143783,
        "entry_name": "kalari",
        "event_total": 56,
        "has_played": true,
        "id": 39791634,
        "last_rank": 30727,
        "player_name": "abas sarwat",
        "rank": 32080,
        "rank_sort": 32243,
        "total": 2366
      },
      {
        "club_badge_src": null,
        "entry": 5153459,
        "entry_name": "ABCDE FC",
        "event_total": 56,
        "has_played": true,
        "id": 39872117,
        "last_rank": 30957,
        "player_name": "Sam Creedon",
        "rank": 32080,
        "rank_sort": 32244,
        "total": 2366
      },
      {
        "club_badge_src": null,
        "entry": 5226439,
        "entry_name": "FK J\u00f8gge",
        "event_total": 58,
        "has_played": true,
        "id": 40497821,
        "last_rank": 32879,
        "player_name": "J\u00f8rgen Preus",
        "rank": 32080,
        "rank_sort": 32245,
        "total": 2366
      },
      {
        "club_badge_src": "https://fantasy.premierleague.com/gcs/plfpl-production-adobe-approved/plfpl-production/5240074/3108af9a-4eaf-4a21-adcd-a3ba99344009.png",
        "entry": 5240074,
        "entry_name": "Fergie Time",
        "event_total": 57,
        "has_played": true,
        "id": 40609080,
        "last_rank": 27770,
        "player_name": "Oliver Wright",
        "rank": 32080,
        "rank_sort": 32246,
        "total": 2366
      },
      {
        "club_badge_src": null,
        "entry": 5309669,
        "entry_name": "Vengeance United",
        "event_total": 80,
        "has_played": true,
        "id": 41158702,
        "last_rank": 57776,
        "player_name": "Ed Patrick",
        "rank": 32080,
        "rank_sort": 32247,
        "total": 2366
      },
      {
        "club_badge_src": null,
        "entry": 5360137,
        "entry_name": "Tony Hibbert",
        "event_total": 65,
        "has_played": true,
        "id": 41628989,
        "last_rank": 36348,
        "player_name": "James Stacey",
        "rank": 32080,
        "rank_sort": 32248,
        "total": 2366
      },
      {
        "club_badge_src": null,
        "entry": 5421469,
        "entry_name": "Kinder Bruno",
        "event_total": 56,
        "has_played": true,
        "id": 42165656,
        "last_rank": 30957,
        "player_name": "Amine Nassar",
        "rank": 32080,
        "rank_sort": 32249,
        "total": 2366
      },
      {
        "club_badge_src": "https://fantasy.premierleague.com/gcs/plfpl-production-adobe-approved/plfpl-production/5449839/e5e5daf4-2b0d-45da-b48c-81c4f421d860.png",
        "entry": 5449839,
        "entry_name": "@BradfordCityMain",
        "event_total": 59,
        "has_played": true,
        "id": 42407689,
        "last_rank": 29688,
        "player_name": "Luke Socic",
        "rank": 32080,
        "rank_sort": 32250,
        "total": 2366
      }
    ]
  }
}