{
  "last_updated_data": "2026-05-24T23:28:17Z",
  "league": {
    "admin_entry": null,
    "closed": false,
    "code_privacy": "p",
    "created": "2025-07-20T23:14:33.933835Z",
    "cup_league": 2815434,
    "has_cup": true,
    "id": 314,
    "league_type": "s",
    "max_entries": null,
    "name": "Overall",
    "rank": null,
    "scoring": "c",
    "start_event": 1
  },
  "new_entries": {
    "has_next": false,
    "page": 1,
    "results": []
  },
  "standings": {
    "has_next": true,
    "page": 1378,
    "results": [
      {
        "club_badge_src": null,
        "entry": 1483718,
        "entry_name": "RubenMeTheWrongWay",
        "event_total": 46,
        "has_played": true,
        "id": 10346523,
        "last_rank": 50468,
        "player_name": "Steven McInerney",
        "rank": 68762,
        "rank_sort": 68851,
        "total": 2341
      },
      {
        "club_badge_src": null,
        "entry": 1504878,
        "entry_name": "Fearing the Wirtz",
        "event_total": 53,
        "has_played": true,
        "id": 10495162,
        "last_rank": 62429,
        "player_name": "Sam Ellison",
        "rank": 68762,
        "rank_sort": 68852,
        "total": 2341
      },
      {
        "club_badge_src": null,
        "entry": 1523184,
        "entry_name": "Me Myself Ndiaye",
        "event_total": 67,
        "has_played": true,
        "id": 10623699,
        "last_rank": 82398,
        "player_name": "Ollie Jault",
        "rank": 68762,
        "rank_sort": 68853,
        "total": 2341
      },
      {
        "club_badge_src": null,
        "entry": 1565663,
        "entry_name": "O-B City FC",
        "event_total": 60,
        "has_played": true,
        "id": 10937221,
        "last_rank": 76128,
        "player_name": "Ricky Thomason",
        "rank": 68762,
        "rank_sort": 68854,
        "total": 2341
      },
      {
        "club_badge_src": null,
        "entry": 1682284,
        "entry_name": "power reijnders",
        "event_total": 46,
        "has_played": true,
        "id": 11776592,
        "last_rank": 44525,
        "player_name": "Tom Wallis",
        "rank": 68762,
        "rank_sort": 68855,
        "total": 2341
      },
      {
        "club_badge_src": null,
        "entry": 1755673,
        "entry_name": "Huey's XI",
        "event_total": 68,
        "has_played": true,
        "id": 12325753,
        "last_rank": 84731,
        "player_name": "Huey Goldstone",
        "rank": 68762,
        "rank_sort": 68856,
        "total": 2341
      },
      {
        "club_badge_src": null,
        "entry": 1806938,
        "entry_name": "Pacinho",
        "event_total": 58,
        "has_played": true,
        "id": 12703414,
        "last_rank": 71956,
        "player_name": "Pavle Savkovic",
        "rank": 68762,
        "rank_sort": 68857,
        "total": 2341
      },
      {
        "club_badge_src": null,
        "entry": 1847062,
        "entry_name": "Wanda Naras",
        "event_total": 50,
        "has_played": true,
        "id": 12996512,
        "last_rank": 57200,
        "player_name": "Martin Johansson",
        "rank": 68762,
        "rank_sort": 68858,
        "total": 2341
      },
      {
        "club_badge_src": null,
        "entry": 1908931,
        "entry_name": "Gila Monsters",
        "event_total": 40,
        "has_played": true,
        "id": 13458016,
        "last_rank": 41967,
        "player_name": "Michael Matz",
        "rank": 68762,
        "rank_sort": 68859,
        "total": 2341
      },
      {
        "club_badge_src": null,
        "entry": 2007741,
        "entry_name": "S&L Gretton",
        "event_total": 65,
        "has_played": true,
        "id": 14195817,
        "last_rank": 86735,
        "player_name": "Rob Ellis",
        "rank": 68762,
        "rank_sort": 68860,
        "total": 2341
      },
      {
        "club_badge_src": null,
        "entry": 2084100,
        "entry_name": "The Headshrinker's",
        "event_total": 68,
        "has_played": true,
        "id": 14784368,
        "last_rank": 94255,
        "player_name": "Teddy Kerrigan",
        "rank": 68762,
        "rank_sort": 68861,
        "total": 2341
      },
      {
        "club_badge_src": "https://fantasy.premierleague.com/gcs/plfpl-production-adobe-approved/plfpl-production/2100094/7626f6f3-64dd-4f47-ad19-71c9208006d4.png",
        "entry": 2100094,
        "entry_name": "Wiggy the Wad",
        "event_total": 59,
        "has_played": true,
        "id": 14901068,
        "last_rank": 73975,
        "player_name": "Mark Jones",
        "rank": 68762,
        "rank_sort": 68862,
        "total": 2341
      },
      {
        "club_badge_src": null,
        "entry": 2117686,
        "entry_name": "Chill FC",
        "event_total": 59,
        "has_played": true,
        "id": 15041908,
        "last_rank": 73720,
        "player_name": "Mathias Gullberg",
        "rank": 68762,
        "rank_sort": 68863,
        "total": 2341
      },
      {
        "club_badge_src": null,
        "entry": 2444165,
        "entry_name": "Finding Neco",
        "event_total": 53,
        "has_played": true,
        "id": 17480579,
        "last_rank": 62429,
        "player_name": "Shea Mcknight",
        "rank": 68762,
        "rank_sort": 68864,
        "total": 2341
      },
      {
        "club_badge_src": null,
        "entry": 2449789,
        "entry_name": "Cho bou",
        "event_total": 66,
        "has_played": true,
        "id": 17521324,
        "last_rank": 89706,
        "player_name": "Chouaib Bou",
        "rank": 68762,
        "rank_sort": 68865,
        "total": 2341
      },
      {
        "club_badge_src": "https://fantasy.premierleague.com/gcs/plfpl-production-adobe-approved/plfpl-production/2464253/94a661d8-2283-491c-b271-220f1fdc8533.png",
        "entry": 2464253,
        "entry_name": "Ball is life",
        "event_total": 65,
        "has_played": true,
        "id": 17626913,
        "last_rank": 69323,
        "player_name": "Musa Charles Furumele",
        "rank": 68762,
        "rank_sort": 68866,
        "total": 2341
      },
      {
        "club_badge_src": null,
        "entry": 2486377,
        "entry_name": "BK Gustavsson",
        "event_total": 56,
        "has_played": true,
        "id": 17793129,
        "last_rank": 60462,
        "player_name": "Olof Gustavsson",
        "rank": 68762,
        "rank_sort": 68867,
        "total": 2341
      },
      {
        "club_badge_src": null,
        "entry": 2577946,
        "entry_name": "Harold Shipmum\u2019s XI",
        "event_total": 53,
        "has_played": true,
        "id": 18501618,
        "last_rank": 62429,
        "player_name": "Keith Wales",
        "rank": 68762,
        "rank_sort": 68868,
        "total": 2341
      },
      {
        "club_badge_src": "https://fantasy.premierleague.com/gcs/plfpl-production-adobe-approved/plfpl-production/2611923/49e22651-b0b4-4ebb-9e9a-53f319cd4a88.png",
        "entry": 2611923,
        "entry_name": "TheGy\u00f6kNessMonster",
        "event_total": 52,
        "has_played": true,
        "id": 18765877,
        "last_rank": 53621,
        "player_name": "simon benigeri",
        "rank": 68762,
        "rank_sort": 68869,
        "total": 2341
      },
      {
        "club_badge_src": "https://fantasy.premierleague.com/gcs/plfpl-production-adobe-approved/plfpl-production/2668780/328236d3-92ef-4f6c-a28d-39f8378734be.png",
        "entry": 2668780,
        "entry_name": "Bubbly Bowen Brekkie",
        "event_total": 56,
        "has_played": true,
        "id": 19187168,
        "last_rank": 60462,
        "player_name": "Jed Karnowski",
        "rank": 68762,
        "rank_sort": 68870,
        "total": 2341
      },
      {
        "club_badge_src": null,
        "entry": 2673882,
        "entry_name": "team Rabie",
        "event_total": 51,
        "has_played": true,
        "id": 19224994,
        "last_rank": 58911,
        "player_name": "Rabie Jebroun",
        "rank": 68762,
        "rank_sort": 68871,
        "total": 2341
      },
      {
        "club_badge_src": null,
        "entry": 2850996,
        "entry_name": "Monsteri",
        "event_total": 82,
        "has_played": true,
        "id": 20845187,
        "last_rank": 133328,
        "player_name": "Aleksandar Zastranovic",
        "rank": 68762,
        "rank_sort": 68872,
        "total": 2341
      },
      {
        "club_badge_src": null,
        "entry": 2876202,
        "entry_name": "Wirtz case scenario",
        "event_total": 65,
        "has_played": true,
        "id": 21051654,
        "last_rank": 87350,
        "player_name": "Oliver Gifford",
        "rank": 68762,
        "rank_sort": 68873,
        "total": 2341
      },
      {
        "club_badge_src": null,
        "entry": 2895789,
        "entry_name": "AFC Wolfbag",
        "event_total": 50,
        "has_played": true,
        "id": 21217278,
        "last_rank": 57200,
        "player_name": "James Goodburn",
        "rank": 68762,
        "rank_sort": 68874,
        "total": 2341
      },
      {
        "club_badge_src": null,
        "entry": 2937101,
        "entry_name": "e",
        "event_total": 55,
        "has_played": true,
        "id": 21551572,
        "last_rank": 66057,
        "player_name": "Emil Ivanov",
        "rank": 68762,
        "rank_sort": 68875,
        "total": 2341
      },
      {
        "club_badge_src": "https://fantasy.premierleague.com/gcs/plfpl-production-adobe-approved/plfpl-production/2960937/bd2cf241-b71f-45d3-9cab-650838780998.png",
        "entry": 2960937,
        "entry_name": "Arjen Rockben",
        "event_total": 62,
        "has_played": true,
        "id": 21749803,
        "last_rank": 80194,
        "player_name": "Ming Fung Yip",
        "rank": 68762,
        "rank_sort": 68876,
        "total": 2341
      },
      {
        "club_badge_src": null,
        "entry": 3061006,
        "entry_name": "hara 11",
        "event_total": 61,
        "has_played": true,
        "id": 22536625,
        "last_rank": 77999,
        "player_name": "indrojit chakroborty",
        "rank": 68762,
        "rank_sort": 68877,
        "total": 2341
      },
      {
        "club_badge_src": null,
        "entry": 3080723,
        "entry_name": "Teds Tragiska",
        "event_total": 57,
        "has_played": true,
        "id": 22696304,
        "last_rank": 69907,
        "player_name": "Ted Johnson",
        "rank": 68762,
        "rank_sort": 68878,
        "total": 2341
      },
      {
        "club_badge_src": null,
        "entry": 3211143,
        "entry_name": "UpTheChels",
        "event_total": 68,
        "has_played": true,
        "id": 23740949,
        "last_rank": 84360,
        "player_name": "Tushar Malhotra",
        "rank": 68762,
        "rank_sort": 68879,
        "total": 2341
      },
      {
        "club_badge_src": null,
        "entry": 3247712,
        "entry_name": "mboomer",
        "event_total": 67,
        "has_played": true,
        "id": 24026998,
        "last_rank": 65163,
        "player_name": "Paul Burgoine",
        "rank": 68762,
        "rank_sort": 68880,
        "total": 2341
      },
      {
        "club_badge_src": null,
        "entry": 3268588,
        "entry_name": "FC Kop",
        "event_total": 49,
        "has_played": true,
        "id": 24188248,
        "last_rank": 48898,
        "player_name": "Samar Chand",
        "rank": 68762,
        "rank_sort": 68881,
        "total": 2341
      },
      {
        "club_badge_src": null,
        "entry": 3273326,
        "entry_name": "YANITEDD",
        "event_total": 69,
        "has_played": true,
        "id": 24224507,
        "last_rank": 96777,
        "player_name": "Krrish Kalwani",
        "rank": 68762,
        "rank_sort": 68882,
        "total": 2341
      },
      {
        "club_badge_src": null,
        "entry": 3374089,
        "entry_name": "canal boat crew",
        "event_total": 47,
        "has_played": true,
        "id": 25042980,
        "last_rank": 51984,
        "player_name": "Jonny Olin",
        "rank": 68762,
        "rank_sort": 68883,
        "total": 2341
      },
      {
        "club_badge_src": null,
        "entry": 3412600,
        "entry_name": "Rooney Tunes",
        "event_total": 53,
        "has_played": true,
        "id": 25344257,
        "last_rank": 62429,
        "player_name": "H\u00e5kon Undrum Andersen",
        "rank": 68762,
        "rank_sort": 68884,
        "total": 2341
      },
      {
        "club_badge_src": null,
        "entry": 3617335,
        "entry_name": "XI",
        "event_total": 52,
        "has_played": true,
        "id": 26949386,
        "last_rank": 60671,
        "player_name": "Christoffer Santander Braute",
        "rank": 68762,
        "rank_sort": 68885,
        "total": 2341
      },
      {
        "club_badge_src": null,
        "entry": 3624601,
        "entry_name": "Saka Potatoes",
        "event_total": 55,
        "has_played": true,
        "id": 27006957,
        "last_rank": 58688,
        "player_name": "Jordan Pashley",
        "rank": 68762,
        "rank_sort": 68886,
        "total": 2341
      },
      {
        "club_badge_src": null,
        "entry": 3668805,
        "entry_name": "Definitely Maybe",
        "event_total": 52,
        "has_played": true,
        "id": 27361458,
        "last_rank": 60671,
        "player_name": "Anthony court",
        "rank": 68762,
        "rank_sort": 68887,
        "total": 2341
      },
      {
        "club_badge_src": null,
        "entry": 3730647,
        "entry_name": "team green",
        "event_total": 71,
        "has_played": true,
        "id": 27845498,
        "last_rank": 102343,
        "player_name": "Michael Tinkler",
        "rank": 68762,
        "rank_sort": 68888,
        "total": 2341
      },
      {
        "club_badge_src": null,
        "entry": 3805627,
        "entry_name": "For Better or Wirtz",
        "event_total": 62,
        "has_played": true,
        "id": 28452273,
        "last_rank": 80465,
        "player_name": "Aaron Cook",
        "rank": 68762,
        "rank_sort": 68889,
        "total": 2341
      },
      {
        "club_badge_src": null,
        "entry": 3827610,
        "entry_name": "extra fried rice",
        "event_total": 57,
        "has_played": true,
        "id": 28631249,
        "last_rank": 69641,
        "player_name": "Reece Mullins",
        "rank": 68762,
        "rank_sort": 68890,
        "total": 2341
      },
      {
        "club_badge_src": null,
        "entry": 3836914,
        "entry_name": "Bruno Dos Tres",
        "event_total": 65,
        "has_played": true,
        "id": 28717731,
        "last_rank": 77999,
        "player_name": "Alastair MacArthur",
        "rank": 68762,
        "rank_sort": 68891,
        "total": 2341
      },
      {
        "club_badge_src": null,
        "entry": 3887494,
        "entry_name": "MUFC",
        "event_total": 66,
        "has_played": true,
        "id": 29212030,
        "last_rank": 80194,
        "player_name": "Torekhan Zhuman",
        "rank": 68762,
        "rank_sort": 68892,
        "total": 2341
      },
      {
        "club_badge_src": null,
        "entry": 3937408,
        "entry_name": "Haaland Oates",
        "event_total": 62,
        "has_played": true,
        "id": 29617733,
        "last_rank": 79817,
        "player_name": "Adam Browne",
        "rank": 68762,
        "rank_sort": 68893,
        "total": 2341
      },
      {
        "club_badge_src": null,
        "entry": 3938023,
        "entry_name": "Zien fc",
        "event_total": 56,
        "has_played": true,
        "id": 29622485,
        "last_rank": 67926,
        "player_name": "Adam Karim",
        "rank": 68762,
        "rank_sort": 68894,
        "total": 2341
      },
      {
        "club_badge_src": null,
        "entry": 4127093,
        "entry_name": "Br\u00f6tchen Boys",
        "event_total": 43,
        "has_played": true,
        "id": 31185466,
        "last_rank": 45927,
        "player_name": "Frank Stigring",
        "rank": 68762,
        "rank_sort": 68895,
        "total": 2341
      },
      {
        "club_badge_src": null,
        "entry": 4159343,
        "entry_name": "Change Name",
        "event_total": 63,
        "has_played": true,
        "id": 31443691,
        "last_rank": 65475,
        "player_name": "Alex Eraso",
        "rank": 68762,
        "rank_sort": 68896,
        "total": 2341
      },
      {
        "club_badge_src": null,
        "entry": 4164989,
        "entry_name": "fathi fc",
        "event_total": 60,
        "has_played": true,
        "id": 31495656,
        "last_rank": 67695,
        "player_name": "Mohd Fathi",
        "rank": 68762,
        "rank_sort": 68897,
        "total": 2341
      },
      {
        "club_badge_src": null,
        "entry": 4171736,
        "entry_name": "Raya Sunshine",
        "event_total": 61,
        "has_played": true,
        "id": 31551651,
        "last_rank": 69641,
        "player_name": "John Townsend",
        "rank": 68762,
        "rank_sort": 68898,
        "total": 2341
      },
      {
        "club_badge_src": null,
        "entry": 4211293,
        "entry_name": "Jalapenos Bomb Squad",
        "event_total": 42,
        "has_played": true,
        "id": 31885809,
        "last_rank": 44672,
        "player_name": "Alex Phillips",
        "rank": 68762,
        "rank_sort": 68899,
        "total": 2341
      },
      {
        "club_badge_src": "https://fantasy.premierleague.com/gcs/plfpl-production-adobe-approved/plfpl-production/4216540/8cc09682-3e9f-45ba-b06b-4502bfdb897e.png",
        "entry": 4216540,
        "entry_name": "Birezhy",
        "event_total": 71,
        "has_played": true,
        "id": 31932978,
        "last_rank": 102125,
        "player_name": "HaMa Amirr",
        "rank": 68762,
        "rank_sort": 68900,
        "total": 2341
      }
    ]
  }
}