{
  "last_updated_data": "2026-05-24T23:28:17Z",
  "league": {
    "admin_entry": null,
    "closed": false,
    "code_privacy": "p",
    "created": "2025-07-20T23:14:33.933835Z",
    "cup_league": 2815434,
    "has_cup": true,
    "id": 314,
    "league_type": "s",
    "max_entries": null,
    "name": "Overall",
    "rank": null,
    "scoring": "c",
    "start_event": 1
  },
  "new_entries": {
    "has_next": false,
    "page": 1,
    "results": []
  },
  "standings": {
    "has_next": true,
    "page": 981,
    "results": [
      {
        "club_badge_src": null,
        "entry": 5112969,
        "entry_name": "BigBackwall",
        "event_total": 70,
        "has_played": true,
        "id": 39528078,
        "last_rank": 72145,
        "player_name": "jonas b\u00e4ckwall",
        "rank": 48939,
        "rank_sort": 49001,
        "total": 2353
      },
      {
        "club_badge_src": null,
        "entry": 5364597,
        "entry_name": "Kushinda",
        "event_total": 70,
        "has_played": true,
        "id": 41672447,
        "last_rank": 64319,
        "player_name": "Nicolas Vandenbussche",
        "rank": 48939,
        "rank_sort": 49002,
        "total": 2353
      },
      {
        "club_badge_src": null,
        "entry": 5427555,
        "entry_name": "P A  BLO",
        "event_total": 52,
        "has_played": true,
        "id": 42216284,
        "last_rank": 42152,
        "player_name": "Paul Binding",
        "rank": 48939,
        "rank_sort": 49003,
        "total": 2353
      },
      {
        "club_badge_src": null,
        "entry": 5970441,
        "entry_name": "Manchester is Red",
        "event_total": 66,
        "has_played": true,
        "id": 46981601,
        "last_rank": 64422,
        "player_name": "Oatta Red Army",
        "rank": 48939,
        "rank_sort": 49004,
        "total": 2353
      },
      {
        "club_badge_src": null,
        "entry": 5973532,
        "entry_name": "Pass the Ducksch",
        "event_total": 65,
        "has_played": true,
        "id": 47015215,
        "last_rank": 49078,
        "player_name": "Oscar Lawrence",
        "rank": 48939,
        "rank_sort": 49005,
        "total": 2353
      },
      {
        "club_badge_src": null,
        "entry": 6002595,
        "entry_name": "Gy\u00f6ks On You",
        "event_total": 64,
        "has_played": true,
        "id": 47321473,
        "last_rank": 53952,
        "player_name": "Dariush Alamdari",
        "rank": 48939,
        "rank_sort": 49006,
        "total": 2353
      },
      {
        "club_badge_src": null,
        "entry": 6093467,
        "entry_name": "Garnachos WithCheese",
        "event_total": 61,
        "has_played": true,
        "id": 48119783,
        "last_rank": 55659,
        "player_name": "Sanjay M",
        "rank": 48939,
        "rank_sort": 49007,
        "total": 2353
      },
      {
        "club_badge_src": null,
        "entry": 6207170,
        "entry_name": "CECHTHESCORE",
        "event_total": 78,
        "has_played": true,
        "id": 49107384,
        "last_rank": 89426,
        "player_name": "Arash H",
        "rank": 48939,
        "rank_sort": 49008,
        "total": 2353
      },
      {
        "club_badge_src": null,
        "entry": 6293381,
        "entry_name": "Sesko  Mental",
        "event_total": 58,
        "has_played": true,
        "id": 49871045,
        "last_rank": 50848,
        "player_name": "Michael Brady",
        "rank": 48939,
        "rank_sort": 49009,
        "total": 2353
      },
      {
        "club_badge_src": null,
        "entry": 6503361,
        "entry_name": "H1K9",
        "event_total": 50,
        "has_played": true,
        "id": 51851768,
        "last_rank": 39585,
        "player_name": "Hadi Kud",
        "rank": 48939,
        "rank_sort": 49010,
        "total": 2353
      },
      {
        "club_badge_src": null,
        "entry": 6753751,
        "entry_name": "Raul or Nothing",
        "event_total": 56,
        "has_played": true,
        "id": 54069561,
        "last_rank": 47812,
        "player_name": "Milo Hodgkiss",
        "rank": 48939,
        "rank_sort": 49011,
        "total": 2353
      },
      {
        "club_badge_src": null,
        "entry": 6901393,
        "entry_name": "Dinho",
        "event_total": 75,
        "has_played": true,
        "id": 55315684,
        "last_rank": 74166,
        "player_name": "Papa Ansah",
        "rank": 48939,
        "rank_sort": 49012,
        "total": 2353
      },
      {
        "club_badge_src": null,
        "entry": 7036695,
        "entry_name": "Reece Lightning",
        "event_total": 49,
        "has_played": true,
        "id": 56564097,
        "last_rank": 38267,
        "player_name": "Ahsan Kahlon",
        "rank": 48939,
        "rank_sort": 49013,
        "total": 2353
      },
      {
        "club_badge_src": null,
        "entry": 7523722,
        "entry_name": "COACH",
        "event_total": 51,
        "has_played": true,
        "id": 61565724,
        "last_rank": 40832,
        "player_name": "Ahmed Barakat------",
        "rank": 48939,
        "rank_sort": 49014,
        "total": 2353
      },
      {
        "club_badge_src": null,
        "entry": 7721373,
        "entry_name": "Two Cups One Hag",
        "event_total": 54,
        "has_played": true,
        "id": 63363437,
        "last_rank": 39510,
        "player_name": "Andy Huynh",
        "rank": 48939,
        "rank_sort": 49015,
        "total": 2353
      },
      {
        "club_badge_src": null,
        "entry": 8180651,
        "entry_name": "Bartman Begins",
        "event_total": 65,
        "has_played": true,
        "id": 67557950,
        "last_rank": 62617,
        "player_name": "Adam Barton",
        "rank": 48939,
        "rank_sort": 49016,
        "total": 2353
      },
      {
        "club_badge_src": null,
        "entry": 8673117,
        "entry_name": "Pique Blinders",
        "event_total": 58,
        "has_played": true,
        "id": 72317187,
        "last_rank": 50772,
        "player_name": "Mathieu De Belder",
        "rank": 48939,
        "rank_sort": 49017,
        "total": 2353
      },
      {
        "club_badge_src": null,
        "entry": 8804980,
        "entry_name": "Abu Bandar 2016",
        "event_total": 75,
        "has_played": true,
        "id": 73592577,
        "last_rank": 66057,
        "player_name": "Mohammad almarshad",
        "rank": 48939,
        "rank_sort": 49018,
        "total": 2353
      },
      {
        "club_badge_src": "https://fantasy.premierleague.com/gcs/plfpl-production-adobe-approved/plfpl-production/9474/d327d907-502c-45c6-8e5b-ecd3e7f53f52.png",
        "entry": 9474,
        "entry_name": "\u559dMilo\u7b11Keke",
        "event_total": 77,
        "has_played": true,
        "id": 55709,
        "last_rank": 78440,
        "player_name": "Wong Kuok Kang",
        "rank": 49019,
        "rank_sort": 49019,
        "total": 2353
      },
      {
        "club_badge_src": null,
        "entry": 22218,
        "entry_name": "HaCuhna Mateta",
        "event_total": 54,
        "has_played": true,
        "id": 139488,
        "last_rank": 39585,
        "player_name": "Billy Blaydes",
        "rank": 49019,
        "rank_sort": 49020,
        "total": 2353
      },
      {
        "club_badge_src": null,
        "entry": 23194,
        "entry_name": "KickiLeaks",
        "event_total": 54,
        "has_played": true,
        "id": 145976,
        "last_rank": 39585,
        "player_name": "Rowan Blaney --",
        "rank": 49019,
        "rank_sort": 49021,
        "total": 2353
      },
      {
        "club_badge_src": "https://fantasy.premierleague.com/gcs/plfpl-production-adobe-approved/plfpl-production/23891/11c48353-d366-432e-b869-963e98f1de0f.png",
        "entry": 23891,
        "entry_name": "ESC GOAT",
        "event_total": 77,
        "has_played": true,
        "id": 150672,
        "last_rank": 78575,
        "player_name": "Cini Gekpe",
        "rank": 49019,
        "rank_sort": 49022,
        "total": 2353
      },
      {
        "club_badge_src": null,
        "entry": 47073,
        "entry_name": "The Martial Mata LP",
        "event_total": 73,
        "has_played": true,
        "id": 301848,
        "last_rank": 62617,
        "player_name": "Jakob Eines",
        "rank": 49019,
        "rank_sort": 49023,
        "total": 2353
      },
      {
        "club_badge_src": "https://fantasy.premierleague.com/gcs/plfpl-production-adobe-approved/plfpl-production/59471/0489c8ab-4ad7-466f-9e74-8847f6e91485.png",
        "entry": 59471,
        "entry_name": "Hutchester United",
        "event_total": 65,
        "has_played": true,
        "id": 382978,
        "last_rank": 62812,
        "player_name": "Lewis Hutchinson",
        "rank": 49019,
        "rank_sort": 49024,
        "total": 2353
      },
      {
        "club_badge_src": null,
        "entry": 60378,
        "entry_name": "AIR PUTEH FC (T)",
        "event_total": 69,
        "has_played": true,
        "id": 388749,
        "last_rank": 70276,
        "player_name": "Fajrul Iman",
        "rank": 49019,
        "rank_sort": 49025,
        "total": 2353
      },
      {
        "club_badge_src": null,
        "entry": 115114,
        "entry_name": "AhmedSayed15",
        "event_total": 64,
        "has_played": true,
        "id": 751169,
        "last_rank": 61004,
        "player_name": "Free Palaestine \ud83c\uddf5\ud83c\uddf8",
        "rank": 49019,
        "rank_sort": 49026,
        "total": 2353
      },
      {
        "club_badge_src": "https://fantasy.premierleague.com/gcs/plfpl-production-adobe-approved/plfpl-production/135207/9c653369-1209-4fa3-a29e-d79f70657c28.png",
        "entry": 135207,
        "entry_name": "S\u00f6derklubben Verona",
        "event_total": 44,
        "has_played": true,
        "id": 880439,
        "last_rank": 32552,
        "player_name": "Edwin Swahn",
        "rank": 49019,
        "rank_sort": 49027,
        "total": 2353
      },
      {
        "club_badge_src": null,
        "entry": 278447,
        "entry_name": "TC",
        "event_total": 50,
        "has_played": true,
        "id": 1853301,
        "last_rank": 39673,
        "player_name": "Thomas Cain",
        "rank": 49019,
        "rank_sort": 49028,
        "total": 2353
      },
      {
        "club_badge_src": null,
        "entry": 332400,
        "entry_name": "schnauzsteiner",
        "event_total": 52,
        "has_played": true,
        "id": 2226315,
        "last_rank": 32437,
        "player_name": "David Smith",
        "rank": 49019,
        "rank_sort": 49029,
        "total": 2353
      },
      {
        "club_badge_src": null,
        "entry": 341678,
        "entry_name": "The almost wirtz",
        "event_total": 68,
        "has_played": true,
        "id": 2286997,
        "last_rank": 68294,
        "player_name": "Joshua Boyd-Smith",
        "rank": 49019,
        "rank_sort": 49030,
        "total": 2353
      },
      {
        "club_badge_src": null,
        "entry": 351292,
        "entry_name": "Lord of the Ings",
        "event_total": 49,
        "has_played": true,
        "id": 2351442,
        "last_rank": 38391,
        "player_name": "PERRY CURTIS",
        "rank": 49019,
        "rank_sort": 49031,
        "total": 2353
      },
      {
        "club_badge_src": "https://fantasy.premierleague.com/gcs/plfpl-production-adobe-approved/plfpl-production/373171/cf6be456-957b-430b-83e7-b824dfe52be7.png",
        "entry": 373171,
        "entry_name": "\u2638CSBS\u2638",
        "event_total": 56,
        "has_played": true,
        "id": 2496758,
        "last_rank": 42152,
        "player_name": "AHMED BENDJBBARA",
        "rank": 49019,
        "rank_sort": 49032,
        "total": 2353
      },
      {
        "club_badge_src": "https://fantasy.premierleague.com/gcs/plfpl-production-adobe-approved/plfpl-production/377400/25ab1c72-fbad-4144-9c9c-5954b730fb98.png",
        "entry": 377400,
        "entry_name": "\u00d8deparfum",
        "event_total": 54,
        "has_played": true,
        "id": 2528047,
        "last_rank": 39585,
        "player_name": "Marcus Brooks",
        "rank": 49019,
        "rank_sort": 49033,
        "total": 2353
      },
      {
        "club_badge_src": null,
        "entry": 535837,
        "entry_name": "TT United",
        "event_total": 49,
        "has_played": true,
        "id": 3606388,
        "last_rank": 38391,
        "player_name": "Tum Sirichotekunakol",
        "rank": 49019,
        "rank_sort": 49034,
        "total": 2353
      },
      {
        "club_badge_src": null,
        "entry": 582736,
        "entry_name": "bog trotters",
        "event_total": 66,
        "has_played": true,
        "id": 3921707,
        "last_rank": 57451,
        "player_name": "Iain Chalmers",
        "rank": 49019,
        "rank_sort": 49035,
        "total": 2353
      },
      {
        "club_badge_src": "https://fantasy.premierleague.com/gcs/plfpl-production-adobe-approved/plfpl-production/636182/6f195b9c-d41b-4704-a2bc-aa82a346de60.png",
        "entry": 636182,
        "entry_name": "Great (xG)pectations",
        "event_total": 61,
        "has_played": true,
        "id": 4299510,
        "last_rank": 49301,
        "player_name": "Charles Irvine",
        "rank": 49019,
        "rank_sort": 49036,
        "total": 2353
      },
      {
        "club_badge_src": "https://fantasy.premierleague.com/gcs/plfpl-production-adobe-approved/plfpl-production/672798/88f8ff00-48c7-41ad-94dd-7535530c9f5c.png",
        "entry": 672798,
        "entry_name": "Elshobaky",
        "event_total": 56,
        "has_played": true,
        "id": 4550998,
        "last_rank": 47868,
        "player_name": "King Shobaky",
        "rank": 49019,
        "rank_sort": 49037,
        "total": 2353
      },
      {
        "club_badge_src": null,
        "entry": 780344,
        "entry_name": "Beskorisni",
        "event_total": 47,
        "has_played": true,
        "id": 5327536,
        "last_rank": 35969,
        "player_name": "Mladen Mihajlovic",
        "rank": 49019,
        "rank_sort": 49038,
        "total": 2353
      },
      {
        "club_badge_src": null,
        "entry": 828863,
        "entry_name": "Point2Prove",
        "event_total": 75,
        "has_played": true,
        "id": 5677197,
        "last_rank": 83018,
        "player_name": "Juls D",
        "rank": 49019,
        "rank_sort": 49039,
        "total": 2353
      },
      {
        "club_badge_src": "https://fantasy.premierleague.com/gcs/plfpl-production-adobe-approved/plfpl-production/833552/8a432fc4-2a84-44f1-9e69-81e1a869487e.png",
        "entry": 833552,
        "entry_name": "saif alkadomi",
        "event_total": 57,
        "has_played": true,
        "id": 5709430,
        "last_rank": 43512,
        "player_name": "saif muhammed",
        "rank": 49019,
        "rank_sort": 49040,
        "total": 2353
      },
      {
        "club_badge_src": "https://fantasy.premierleague.com/gcs/plfpl-production-adobe-approved/plfpl-production/1040698/c6d38205-b7d6-46f1-bcfc-9f76bb4dc397.png",
        "entry": 1040698,
        "entry_name": "-",
        "event_total": 66,
        "has_played": true,
        "id": 7201939,
        "last_rank": 57451,
        "player_name": "Mark Sargison",
        "rank": 49019,
        "rank_sort": 49041,
        "total": 2353
      },
      {
        "club_badge_src": "https://fantasy.premierleague.com/gcs/plfpl-production-adobe-approved/plfpl-production/1063978/6bf531d9-e4fd-4035-99b8-8674e60d63ea.png",
        "entry": 1063978,
        "entry_name": "Brdo",
        "event_total": 78,
        "has_played": true,
        "id": 7365584,
        "last_rank": 90158,
        "player_name": "Luka Maleti\u0107",
        "rank": 49019,
        "rank_sort": 49042,
        "total": 2353
      },
      {
        "club_badge_src": null,
        "entry": 1204214,
        "entry_name": "Momen's team",
        "event_total": 65,
        "has_played": true,
        "id": 8356800,
        "last_rank": 55747,
        "player_name": "momen ali",
        "rank": 49019,
        "rank_sort": 49043,
        "total": 2353
      },
      {
        "club_badge_src": "https://fantasy.premierleague.com/gcs/plfpl-production-adobe-approved/plfpl-production/1278409/a5b93bd5-61bc-4e70-915a-d09787595bc0.png",
        "entry": 1278409,
        "entry_name": "Hale End Starboys",
        "event_total": 43,
        "has_played": true,
        "id": 8883352,
        "last_rank": 27402,
        "player_name": "Lee Morphew",
        "rank": 49019,
        "rank_sort": 49044,
        "total": 2353
      },
      {
        "club_badge_src": null,
        "entry": 1541373,
        "entry_name": "KeWv",
        "event_total": 79,
        "has_played": true,
        "id": 10757819,
        "last_rank": 92471,
        "player_name": "Waiyaki .",
        "rank": 49019,
        "rank_sort": 49045,
        "total": 2353
      },
      {
        "club_badge_src": null,
        "entry": 1899811,
        "entry_name": "Armergeddon",
        "event_total": 79,
        "has_played": true,
        "id": 13391947,
        "last_rank": 74166,
        "player_name": "Mark Armer",
        "rank": 49019,
        "rank_sort": 49046,
        "total": 2353
      },
      {
        "club_badge_src": null,
        "entry": 2177127,
        "entry_name": "VAR from winning",
        "event_total": 69,
        "has_played": true,
        "id": 15482684,
        "last_rank": 55514,
        "player_name": "Frans van Driel",
        "rank": 49019,
        "rank_sort": 49047,
        "total": 2353
      },
      {
        "club_badge_src": null,
        "entry": 2304239,
        "entry_name": "Huttlet Plastics",
        "event_total": 59,
        "has_played": true,
        "id": 16435291,
        "last_rank": 52522,
        "player_name": "Cait Wilding",
        "rank": 49019,
        "rank_sort": 49048,
        "total": 2353
      },
      {
        "club_badge_src": null,
        "entry": 2357084,
        "entry_name": "Bobby's Rovers",
        "event_total": 61,
        "has_played": true,
        "id": 16819056,
        "last_rank": 55812,
        "player_name": "Paul Rusbridge",
        "rank": 49019,
        "rank_sort": 49049,
        "total": 2353
      },
      {
        "club_badge_src": null,
        "entry": 2392395,
        "entry_name": "Hospicjum",
        "event_total": 46,
        "has_played": true,
        "id": 17089902,
        "last_rank": 34796,
        "player_name": "Darek Zwolinski",
        "rank": 49019,
        "rank_sort": 49050,
        "total": 2353
      }
    ]
  }
}