{
  "last_updated_data": "2026-05-24T23:28:17Z",
  "league": {
    "admin_entry": null,
    "closed": false,
    "code_privacy": "p",
    "created": "2025-07-20T23:14:33.933835Z",
    "cup_league": 2815434,
    "has_cup": true,
    "id": 314,
    "league_type": "s",
    "max_entries": null,
    "name": "Overall",
    "rank": null,
    "scoring": "c",
    "start_event": 1
  },
  "new_entries": {
    "has_next": false,
    "page": 1,
    "results": []
  },
  "standings": {
    "has_next": true,
    "page": 1120,
    "results": [
      {
        "club_badge_src": null,
        "entry": 8249436,
        "entry_name": "Cremanaccio",
        "event_total": 55,
        "has_played": true,
        "id": 68218913,
        "last_rank": 52853,
        "player_name": "Ivan Ah Sam",
        "rank": 55651,
        "rank_sort": 55951,
        "total": 2348
      },
      {
        "club_badge_src": null,
        "entry": 8285160,
        "entry_name": "Manjoi FC",
        "event_total": 50,
        "has_played": true,
        "id": 68557623,
        "last_rank": 45252,
        "player_name": "faris norzi",
        "rank": 55651,
        "rank_sort": 55952,
        "total": 2348
      },
      {
        "club_badge_src": null,
        "entry": 8288535,
        "entry_name": "DHM",
        "event_total": 52,
        "has_played": true,
        "id": 68590423,
        "last_rank": 48363,
        "player_name": "du7my .",
        "rank": 55651,
        "rank_sort": 55953,
        "total": 2348
      },
      {
        "club_badge_src": null,
        "entry": 8628146,
        "entry_name": "Jackycyk",
        "event_total": 65,
        "has_played": true,
        "id": 71870032,
        "last_rank": 70985,
        "player_name": "Jacky Cheng",
        "rank": 55651,
        "rank_sort": 55954,
        "total": 2348
      },
      {
        "club_badge_src": null,
        "entry": 8688640,
        "entry_name": "Bizonize FC",
        "event_total": 44,
        "has_played": true,
        "id": 72469290,
        "last_rank": 37589,
        "player_name": "Obi Pittomvils",
        "rank": 55651,
        "rank_sort": 55955,
        "total": 2348
      },
      {
        "club_badge_src": null,
        "entry": 8852424,
        "entry_name": "Ekitike-Taka",
        "event_total": 61,
        "has_played": true,
        "id": 74049570,
        "last_rank": 63201,
        "player_name": "Kimberley King",
        "rank": 55651,
        "rank_sort": 55956,
        "total": 2348
      },
      {
        "club_badge_src": null,
        "entry": 8868634,
        "entry_name": "Slot Machine",
        "event_total": 62,
        "has_played": true,
        "id": 74205798,
        "last_rank": 64830,
        "player_name": "Noah Cotterill",
        "rank": 55651,
        "rank_sort": 55957,
        "total": 2348
      },
      {
        "club_badge_src": null,
        "entry": 9007295,
        "entry_name": "Hotel? Thiago",
        "event_total": 82,
        "has_played": true,
        "id": 75550630,
        "last_rank": 111405,
        "player_name": "Zain Waheed",
        "rank": 55651,
        "rank_sort": 55958,
        "total": 2348
      },
      {
        "club_badge_src": null,
        "entry": 9140430,
        "entry_name": "R\u00f8kla BK",
        "event_total": 45,
        "has_played": true,
        "id": 76847936,
        "last_rank": 38644,
        "player_name": "Oliver \u00d8verg\u00e5rd",
        "rank": 55651,
        "rank_sort": 55959,
        "total": 2348
      },
      {
        "club_badge_src": null,
        "entry": 9314409,
        "entry_name": "Partick Monkeys",
        "event_total": 53,
        "has_played": true,
        "id": 78548251,
        "last_rank": 49880,
        "player_name": "Graeme Breen",
        "rank": 55651,
        "rank_sort": 55960,
        "total": 2348
      },
      {
        "club_badge_src": null,
        "entry": 9381622,
        "entry_name": "UMASU 1D",
        "event_total": 52,
        "has_played": true,
        "id": 79196246,
        "last_rank": 48363,
        "player_name": "Go Big Or Go Home",
        "rank": 55651,
        "rank_sort": 55961,
        "total": 2348
      },
      {
        "club_badge_src": null,
        "entry": 9473619,
        "entry_name": "Kuskinen",
        "event_total": 61,
        "has_played": true,
        "id": 80063627,
        "last_rank": 63080,
        "player_name": "Juuso Koskinen",
        "rank": 55651,
        "rank_sort": 55962,
        "total": 2348
      },
      {
        "club_badge_src": null,
        "entry": 4030,
        "entry_name": "IFK Surstr\u00f6mming",
        "event_total": 64,
        "has_played": true,
        "id": 22863,
        "last_rank": 69323,
        "player_name": "J\u00f8rgen Balseth",
        "rank": 55963,
        "rank_sort": 55963,
        "total": 2348
      },
      {
        "club_badge_src": "https://fantasy.premierleague.com/gcs/plfpl-production-adobe-approved/plfpl-production/4120/eae20ef1-b36b-45bc-852a-c84245c617fd.png",
        "entry": 4120,
        "entry_name": "ARTETA",
        "event_total": 44,
        "has_played": true,
        "id": 23380,
        "last_rank": 37822,
        "player_name": ".\u0131l\u0131l\u0131.\u0131l\u0131l\u0131l \u0131l\u0131l\u0131.",
        "rank": 55963,
        "rank_sort": 55964,
        "total": 2348
      },
      {
        "club_badge_src": "https://fantasy.premierleague.com/gcs/plfpl-production-adobe-approved/plfpl-production/16465/664410bf-c406-448c-a70d-ae11a55e6a55.png",
        "entry": 16465,
        "entry_name": "Kowisza Krosno",
        "event_total": 58,
        "has_played": true,
        "id": 101714,
        "last_rank": 58688,
        "player_name": "Bartosz Florek",
        "rank": 55963,
        "rank_sort": 55965,
        "total": 2348
      },
      {
        "club_badge_src": null,
        "entry": 16480,
        "entry_name": "Klorian Wirtz",
        "event_total": 59,
        "has_played": true,
        "id": 101825,
        "last_rank": 59632,
        "player_name": "Vidar Dahle",
        "rank": 55963,
        "rank_sort": 55966,
        "total": 2348
      },
      {
        "club_badge_src": "https://fantasy.premierleague.com/gcs/plfpl-production-adobe-approved/plfpl-production/20302/003c6928-1a20-422a-81c0-d0a23b991c13.png",
        "entry": 20302,
        "entry_name": "Orange Bulldogs FC",
        "event_total": 52,
        "has_played": true,
        "id": 126483,
        "last_rank": 42648,
        "player_name": "Constantinos Orphanides",
        "rank": 55963,
        "rank_sort": 55967,
        "total": 2348
      },
      {
        "club_badge_src": "https://fantasy.premierleague.com/gcs/plfpl-production-adobe-approved/plfpl-production/20382/e9555b1c-ec28-4957-b206-49172999f355.png",
        "entry": 20382,
        "entry_name": "Kobbie ManU",
        "event_total": 58,
        "has_played": true,
        "id": 127037,
        "last_rank": 58388,
        "player_name": "Alex Solomon",
        "rank": 55963,
        "rank_sort": 55968,
        "total": 2348
      },
      {
        "club_badge_src": null,
        "entry": 20822,
        "entry_name": "Brat Summerville",
        "event_total": 57,
        "has_played": true,
        "id": 130279,
        "last_rank": 56369,
        "player_name": "Harry Young",
        "rank": 55963,
        "rank_sort": 55969,
        "total": 2348
      },
      {
        "club_badge_src": null,
        "entry": 26232,
        "entry_name": "Dobry\u0144 ES",
        "event_total": 65,
        "has_played": true,
        "id": 165850,
        "last_rank": 71386,
        "player_name": "Filip Korycinski",
        "rank": 55963,
        "rank_sort": 55970,
        "total": 2348
      },
      {
        "club_badge_src": null,
        "entry": 27669,
        "entry_name": "Shiver me timber",
        "event_total": 57,
        "has_played": true,
        "id": 174932,
        "last_rank": 56369,
        "player_name": "Philip XI",
        "rank": 55963,
        "rank_sort": 55971,
        "total": 2348
      },
      {
        "club_badge_src": null,
        "entry": 32133,
        "entry_name": "Mullahead Devils",
        "event_total": 62,
        "has_played": true,
        "id": 204201,
        "last_rank": 65475,
        "player_name": "Iain Irwin",
        "rank": 55963,
        "rank_sort": 55972,
        "total": 2348
      },
      {
        "club_badge_src": "https://fantasy.premierleague.com/gcs/plfpl-production-adobe-approved/plfpl-production/40840/1236cd70-e153-4b8a-b28a-1b5a684b4704.png",
        "entry": 40840,
        "entry_name": "FC Kennedy",
        "event_total": 66,
        "has_played": true,
        "id": 261780,
        "last_rank": 72815,
        "player_name": "Joseph Kennedy",
        "rank": 55963,
        "rank_sort": 55973,
        "total": 2348
      },
      {
        "club_badge_src": "https://fantasy.premierleague.com/gcs/plfpl-production-adobe-approved/plfpl-production/41569/08a66a16-bfe4-4f68-8c50-0111ee6adad9.png",
        "entry": 41569,
        "entry_name": "Garebsky",
        "event_total": 51,
        "has_played": true,
        "id": 266329,
        "last_rank": 41162,
        "player_name": "Gabriel Piwnik",
        "rank": 55963,
        "rank_sort": 55974,
        "total": 2348
      },
      {
        "club_badge_src": null,
        "entry": 48326,
        "entry_name": "Bali & Me",
        "event_total": 60,
        "has_played": true,
        "id": 310287,
        "last_rank": 61950,
        "player_name": "Lewis Atherton",
        "rank": 55963,
        "rank_sort": 55975,
        "total": 2348
      },
      {
        "club_badge_src": "https://fantasy.premierleague.com/gcs/plfpl-production-adobe-approved/plfpl-production/51034/b4316f17-5c3c-469b-adde-c4a1cbb010a4.png",
        "entry": 51034,
        "entry_name": "McBurnies Dream",
        "event_total": 60,
        "has_played": true,
        "id": 328253,
        "last_rank": 54667,
        "player_name": "Rohan Manoharan",
        "rank": 55963,
        "rank_sort": 55976,
        "total": 2348
      },
      {
        "club_badge_src": "https://fantasy.premierleague.com/gcs/plfpl-production-adobe-approved/plfpl-production/52930/3db45c8b-f2f8-45ff-a8d1-ff515f8b64d7.png",
        "entry": 52930,
        "entry_name": "Matsuri18",
        "event_total": 64,
        "has_played": true,
        "id": 340367,
        "last_rank": 69323,
        "player_name": "Rustam Baj",
        "rank": 55963,
        "rank_sort": 55977,
        "total": 2348
      },
      {
        "club_badge_src": null,
        "entry": 54942,
        "entry_name": "Rizza Yomama Wizza",
        "event_total": 66,
        "has_played": true,
        "id": 353583,
        "last_rank": 73038,
        "player_name": "Luca Smit",
        "rank": 55963,
        "rank_sort": 55978,
        "total": 2348
      },
      {
        "club_badge_src": "https://fantasy.premierleague.com/gcs/plfpl-production-adobe-approved/plfpl-production/55777/5aea8855-509e-49f9-824d-40caf71faad6.png",
        "entry": 55777,
        "entry_name": "All Round Doer UTD",
        "event_total": 66,
        "has_played": true,
        "id": 359158,
        "last_rank": 65163,
        "player_name": "Matthew Pike",
        "rank": 55963,
        "rank_sort": 55979,
        "total": 2348
      },
      {
        "club_badge_src": null,
        "entry": 55959,
        "entry_name": "Pink Devils",
        "event_total": 59,
        "has_played": true,
        "id": 360376,
        "last_rank": 60168,
        "player_name": "Supatsorn Lertsuwanwong",
        "rank": 55963,
        "rank_sort": 55980,
        "total": 2348
      },
      {
        "club_badge_src": "https://fantasy.premierleague.com/gcs/plfpl-production-adobe-approved/plfpl-production/65134/0e919ee6-7bf4-4be9-9896-0c20b1ba0c73.png",
        "entry": 65134,
        "entry_name": "Boom XhakaLacaSaka",
        "event_total": 54,
        "has_played": true,
        "id": 420417,
        "last_rank": 51403,
        "player_name": "Gustav Lindfors",
        "rank": 55963,
        "rank_sort": 55981,
        "total": 2348
      },
      {
        "club_badge_src": "https://fantasy.premierleague.com/gcs/plfpl-production-adobe-approved/plfpl-production/70508/bc831b8b-4cfc-4cfa-ab12-1d206fd8e1d8.png",
        "entry": 70508,
        "entry_name": "We'regonnafindaway",
        "event_total": 65,
        "has_played": true,
        "id": 457868,
        "last_rank": 71386,
        "player_name": "Steven Hamilton",
        "rank": 55963,
        "rank_sort": 55982,
        "total": 2348
      },
      {
        "club_badge_src": null,
        "entry": 74909,
        "entry_name": "Nifen",
        "event_total": 53,
        "has_played": true,
        "id": 486972,
        "last_rank": 49691,
        "player_name": "Fredrik Ageg\u00e5rd",
        "rank": 55963,
        "rank_sort": 55983,
        "total": 2348
      },
      {
        "club_badge_src": null,
        "entry": 77975,
        "entry_name": "Half the world (a)",
        "event_total": 56,
        "has_played": true,
        "id": 506929,
        "last_rank": 55014,
        "player_name": "Senan Carroll",
        "rank": 55963,
        "rank_sort": 55984,
        "total": 2348
      },
      {
        "club_badge_src": null,
        "entry": 78616,
        "entry_name": "Galwegians",
        "event_total": 64,
        "has_played": true,
        "id": 511159,
        "last_rank": 68957,
        "player_name": "Damien Hynes",
        "rank": 55963,
        "rank_sort": 55985,
        "total": 2348
      },
      {
        "club_badge_src": null,
        "entry": 79047,
        "entry_name": "Bluestreaks12",
        "event_total": 57,
        "has_played": true,
        "id": 514003,
        "last_rank": 49880,
        "player_name": "Chris Gray",
        "rank": 55963,
        "rank_sort": 55986,
        "total": 2348
      },
      {
        "club_badge_src": null,
        "entry": 82264,
        "entry_name": "Team Saxby",
        "event_total": 44,
        "has_played": true,
        "id": 535246,
        "last_rank": 37822,
        "player_name": "Gary Saxby",
        "rank": 55963,
        "rank_sort": 55987,
        "total": 2348
      },
      {
        "club_badge_src": null,
        "entry": 87252,
        "entry_name": "Richsenal",
        "event_total": 57,
        "has_played": true,
        "id": 568915,
        "last_rank": 49880,
        "player_name": "Rich Yu",
        "rank": 55963,
        "rank_sort": 55988,
        "total": 2348
      },
      {
        "club_badge_src": null,
        "entry": 88728,
        "entry_name": "RedDevilsManUnited",
        "event_total": 74,
        "has_played": true,
        "id": 579068,
        "last_rank": 81646,
        "player_name": "Alexey Shubaba",
        "rank": 55963,
        "rank_sort": 55989,
        "total": 2348
      },
      {
        "club_badge_src": null,
        "entry": 99925,
        "entry_name": "Ashley Barnes' Bunly",
        "event_total": 68,
        "has_played": true,
        "id": 652234,
        "last_rank": 77258,
        "player_name": "Josh Murphie",
        "rank": 55963,
        "rank_sort": 55990,
        "total": 2348
      },
      {
        "club_badge_src": null,
        "entry": 114553,
        "entry_name": "Prancing Camels",
        "event_total": 60,
        "has_played": true,
        "id": 747275,
        "last_rank": 61606,
        "player_name": "Matt Stacey",
        "rank": 55963,
        "rank_sort": 55991,
        "total": 2348
      },
      {
        "club_badge_src": null,
        "entry": 129122,
        "entry_name": "Godt knas FC",
        "event_total": 63,
        "has_played": true,
        "id": 841621,
        "last_rank": 59813,
        "player_name": "J\u00f8rgen Molstad",
        "rank": 55963,
        "rank_sort": 55992,
        "total": 2348
      },
      {
        "club_badge_src": null,
        "entry": 131709,
        "entry_name": "A Cunha Mateta",
        "event_total": 74,
        "has_played": true,
        "id": 858045,
        "last_rank": 91466,
        "player_name": "Carl Thomas",
        "rank": 55963,
        "rank_sort": 55993,
        "total": 2348
      },
      {
        "club_badge_src": null,
        "entry": 134576,
        "entry_name": "Hardly Athletic",
        "event_total": 51,
        "has_played": true,
        "id": 876454,
        "last_rank": 47163,
        "player_name": "John Gadd",
        "rank": 55963,
        "rank_sort": 55994,
        "total": 2348
      },
      {
        "club_badge_src": null,
        "entry": 142223,
        "entry_name": "Warp Speed Schick",
        "event_total": 74,
        "has_played": true,
        "id": 929671,
        "last_rank": 91006,
        "player_name": "Tyler Morgan",
        "rank": 55963,
        "rank_sort": 55995,
        "total": 2348
      },
      {
        "club_badge_src": null,
        "entry": 150262,
        "entry_name": "Brecke Townn",
        "event_total": 55,
        "has_played": true,
        "id": 985397,
        "last_rank": 53345,
        "player_name": "Stefan Anglerfjord",
        "rank": 55963,
        "rank_sort": 55996,
        "total": 2348
      },
      {
        "club_badge_src": null,
        "entry": 155439,
        "entry_name": "Rice Rice Baby",
        "event_total": 61,
        "has_played": true,
        "id": 1021621,
        "last_rank": 56369,
        "player_name": "Kieran Chadha",
        "rank": 55963,
        "rank_sort": 55997,
        "total": 2348
      },
      {
        "club_badge_src": "https://fantasy.premierleague.com/gcs/plfpl-production-adobe-approved/plfpl-production/163837/5a7dc614-e26f-4f5c-a761-6b926f73301e.png",
        "entry": 163837,
        "entry_name": "North Pole FC",
        "event_total": 60,
        "has_played": true,
        "id": 1080908,
        "last_rank": 61950,
        "player_name": "Steven McCaig",
        "rank": 55963,
        "rank_sort": 55998,
        "total": 2348
      },
      {
        "club_badge_src": "https://fantasy.premierleague.com/gcs/plfpl-production-adobe-approved/plfpl-production/166038/8add2d1a-df71-48e3-a18d-4a716d8ffbdc.png",
        "entry": 166038,
        "entry_name": "Fly to the Slot baby",
        "event_total": 68,
        "has_played": true,
        "id": 1096767,
        "last_rank": 77676,
        "player_name": "Liakos Pap",
        "rank": 55963,
        "rank_sort": 55999,
        "total": 2348
      },
      {
        "club_badge_src": null,
        "entry": 169697,
        "entry_name": "Delap of Honour",
        "event_total": 44,
        "has_played": true,
        "id": 1121372,
        "last_rank": 37822,
        "player_name": "Taylor Cogan",
        "rank": 55963,
        "rank_sort": 56000,
        "total": 2348
      }
    ]
  }
}