{
  "last_updated_data": "2026-05-24T23:28:17Z",
  "league": {
    "admin_entry": null,
    "closed": false,
    "code_privacy": "p",
    "created": "2025-07-20T23:14:33.933835Z",
    "cup_league": 2815434,
    "has_cup": true,
    "id": 314,
    "league_type": "s",
    "max_entries": null,
    "name": "Overall",
    "rank": null,
    "scoring": "c",
    "start_event": 1
  },
  "new_entries": {
    "has_next": false,
    "page": 1,
    "results": []
  },
  "standings": {
    "has_next": true,
    "page": 958,
    "results": [
      {
        "club_badge_src": null,
        "entry": 6467048,
        "entry_name": "Kinder Mbeumo",
        "event_total": 68,
        "has_played": true,
        "id": 51524514,
        "last_rank": 66738,
        "player_name": "Cillian Forde",
        "rank": 47775,
        "rank_sort": 47851,
        "total": 2353
      },
      {
        "club_badge_src": null,
        "entry": 6742985,
        "entry_name": "Zbrojovka Je\u017e\u00ed\u0161",
        "event_total": 52,
        "has_played": true,
        "id": 53977329,
        "last_rank": 41101,
        "player_name": "Timotej Kubica",
        "rank": 47775,
        "rank_sort": 47852,
        "total": 2353
      },
      {
        "club_badge_src": null,
        "entry": 6942223,
        "entry_name": "Jingle Bellamy",
        "event_total": 81,
        "has_played": true,
        "id": 55660114,
        "last_rank": 95640,
        "player_name": "David Fundalski",
        "rank": 47775,
        "rank_sort": 47853,
        "total": 2353
      },
      {
        "club_badge_src": null,
        "entry": 7035135,
        "entry_name": "Red and Blue Army",
        "event_total": 70,
        "has_played": true,
        "id": 56548774,
        "last_rank": 70985,
        "player_name": "Kevin Watts",
        "rank": 47775,
        "rank_sort": 47854,
        "total": 2353
      },
      {
        "club_badge_src": null,
        "entry": 7387443,
        "entry_name": "challybagskitzdunkno",
        "event_total": 56,
        "has_played": true,
        "id": 59895469,
        "last_rank": 46839,
        "player_name": "Arlo Challis",
        "rank": 47775,
        "rank_sort": 47855,
        "total": 2353
      },
      {
        "club_badge_src": null,
        "entry": 7444952,
        "entry_name": "UTB",
        "event_total": 62,
        "has_played": true,
        "id": 60568008,
        "last_rank": 56180,
        "player_name": "Leo Li",
        "rank": 47775,
        "rank_sort": 47856,
        "total": 2353
      },
      {
        "club_badge_src": null,
        "entry": 7445749,
        "entry_name": "Onana Whats My Name?",
        "event_total": 80,
        "has_played": true,
        "id": 60578597,
        "last_rank": 93052,
        "player_name": "Simone Cook",
        "rank": 47775,
        "rank_sort": 47857,
        "total": 2353
      },
      {
        "club_badge_src": null,
        "entry": 7676568,
        "entry_name": "JoGibbs-White",
        "event_total": 55,
        "has_played": true,
        "id": 62960597,
        "last_rank": 45416,
        "player_name": "Matt Gaskin",
        "rank": 47775,
        "rank_sort": 47858,
        "total": 2353
      },
      {
        "club_badge_src": null,
        "entry": 7801917,
        "entry_name": "DangbanaChoco",
        "event_total": 57,
        "has_played": true,
        "id": 64090422,
        "last_rank": 48363,
        "player_name": "Danny Kups",
        "rank": 47775,
        "rank_sort": 47859,
        "total": 2353
      },
      {
        "club_badge_src": null,
        "entry": 7896855,
        "entry_name": "Ter's La Masia",
        "event_total": 42,
        "has_played": true,
        "id": 64959350,
        "last_rank": 29495,
        "player_name": "Tertsea apuugum",
        "rank": 47775,
        "rank_sort": 47860,
        "total": 2353
      },
      {
        "club_badge_src": null,
        "entry": 8176147,
        "entry_name": "Coatinho's Champs",
        "event_total": 78,
        "has_played": true,
        "id": 67514344,
        "last_rank": 88185,
        "player_name": "Aleksandar Zdravkovic",
        "rank": 47775,
        "rank_sort": 47861,
        "total": 2353
      },
      {
        "club_badge_src": null,
        "entry": 8186616,
        "entry_name": "HaCunhaMateta",
        "event_total": 52,
        "has_played": true,
        "id": 67613378,
        "last_rank": 41162,
        "player_name": "Michael McBride",
        "rank": 47775,
        "rank_sort": 47862,
        "total": 2353
      },
      {
        "club_badge_src": null,
        "entry": 8962767,
        "entry_name": "Kinder Mbeumo",
        "event_total": 51,
        "has_played": true,
        "id": 75122638,
        "last_rank": 40036,
        "player_name": "Sean O'Connell",
        "rank": 47775,
        "rank_sort": 47863,
        "total": 2353
      },
      {
        "club_badge_src": "https://fantasy.premierleague.com/gcs/plfpl-production-adobe-approved/plfpl-production/9072076/c6a8cee7-9dba-41c4-8b4a-207860ea06e0.png",
        "entry": 9072076,
        "entry_name": "Pa\u010darez FC",
        "event_total": 58,
        "has_played": true,
        "id": 76178080,
        "last_rank": 49552,
        "player_name": "Rade Radi\u0107",
        "rank": 47775,
        "rank_sort": 47864,
        "total": 2353
      },
      {
        "club_badge_src": null,
        "entry": 9076831,
        "entry_name": "UGU",
        "event_total": 78,
        "has_played": true,
        "id": 76224963,
        "last_rank": 88594,
        "player_name": "Ahmed Mahmoud",
        "rank": 47775,
        "rank_sort": 47865,
        "total": 2353
      },
      {
        "club_badge_src": "https://fantasy.premierleague.com/gcs/plfpl-production-adobe-approved/plfpl-production/9085899/a35e4405-9687-45b0-a994-a59b133aaab8.png",
        "entry": 9085899,
        "entry_name": "Sinking ship fc",
        "event_total": 77,
        "has_played": true,
        "id": 76313407,
        "last_rank": 86304,
        "player_name": "derek gibney",
        "rank": 47775,
        "rank_sort": 47866,
        "total": 2353
      },
      {
        "club_badge_src": null,
        "entry": 9302135,
        "entry_name": "Fat Kev\u2019s mate FC",
        "event_total": 57,
        "has_played": true,
        "id": 78430199,
        "last_rank": 48363,
        "player_name": "Eamonn Hennessy",
        "rank": 47775,
        "rank_sort": 47867,
        "total": 2353
      },
      {
        "club_badge_src": null,
        "entry": 9339724,
        "entry_name": "Batak Varna",
        "event_total": 64,
        "has_played": true,
        "id": 78789136,
        "last_rank": 59496,
        "player_name": "Rodislav Kuzmanov",
        "rank": 47775,
        "rank_sort": 47868,
        "total": 2353
      },
      {
        "club_badge_src": "https://fantasy.premierleague.com/gcs/plfpl-production-adobe-approved/plfpl-production/984/ffcd2a80-7236-409d-9808-fa5f4cd25535.png",
        "entry": 984,
        "entry_name": "Aguerooooo",
        "event_total": 67,
        "has_played": true,
        "id": 5451,
        "last_rank": 65163,
        "player_name": "Topias Toikkanen",
        "rank": 47869,
        "rank_sort": 47869,
        "total": 2353
      },
      {
        "club_badge_src": null,
        "entry": 2046,
        "entry_name": "The Koupis Express",
        "event_total": 54,
        "has_played": true,
        "id": 11411,
        "last_rank": 44048,
        "player_name": "Yiannis Koupis",
        "rank": 47869,
        "rank_sort": 47870,
        "total": 2353
      },
      {
        "club_badge_src": null,
        "entry": 2079,
        "entry_name": "Bend It Like Bennett",
        "event_total": 49,
        "has_played": true,
        "id": 11598,
        "last_rank": 37435,
        "player_name": "Dan Bennett",
        "rank": 47869,
        "rank_sort": 47871,
        "total": 2353
      },
      {
        "club_badge_src": "https://fantasy.premierleague.com/gcs/plfpl-production-adobe-approved/plfpl-production/2306/855a78e9-d753-4cf6-9b5d-23bc908382a0.png",
        "entry": 2306,
        "entry_name": "REO-Coker Speedwagon",
        "event_total": 61,
        "has_played": true,
        "id": 12852,
        "last_rank": 54416,
        "player_name": "Patrick Woulfe",
        "rank": 47869,
        "rank_sort": 47872,
        "total": 2353
      },
      {
        "club_badge_src": null,
        "entry": 2499,
        "entry_name": "HaCunha Mateta",
        "event_total": 66,
        "has_played": true,
        "id": 13938,
        "last_rank": 63201,
        "player_name": "James Heath",
        "rank": 47869,
        "rank_sort": 47873,
        "total": 2353
      },
      {
        "club_badge_src": null,
        "entry": 4879,
        "entry_name": "The Wriggle Sprigs",
        "event_total": 62,
        "has_played": true,
        "id": 27764,
        "last_rank": 56180,
        "player_name": "Magnus Joyce",
        "rank": 47869,
        "rank_sort": 47874,
        "total": 2353
      },
      {
        "club_badge_src": null,
        "entry": 6660,
        "entry_name": "UK26",
        "event_total": 51,
        "has_played": true,
        "id": 38267,
        "last_rank": 39874,
        "player_name": "Uri Keselman",
        "rank": 47869,
        "rank_sort": 47875,
        "total": 2353
      },
      {
        "club_badge_src": null,
        "entry": 8668,
        "entry_name": "FC Karpie",
        "event_total": 43,
        "has_played": true,
        "id": 50534,
        "last_rank": 30727,
        "player_name": "Jacek Flak",
        "rank": 47869,
        "rank_sort": 47876,
        "total": 2353
      },
      {
        "club_badge_src": null,
        "entry": 9532,
        "entry_name": "DDUGS",
        "event_total": 59,
        "has_played": true,
        "id": 56066,
        "last_rank": 51403,
        "player_name": "David Dugdale",
        "rank": 47869,
        "rank_sort": 47877,
        "total": 2353
      },
      {
        "club_badge_src": null,
        "entry": 12467,
        "entry_name": "Tips? I dont Need\u2019em",
        "event_total": 68,
        "has_played": true,
        "id": 74645,
        "last_rank": 66848,
        "player_name": "George Needham",
        "rank": 47869,
        "rank_sort": 47878,
        "total": 2353
      },
      {
        "club_badge_src": null,
        "entry": 13008,
        "entry_name": "Bla_chars",
        "event_total": 71,
        "has_played": true,
        "id": 78365,
        "last_rank": 73038,
        "player_name": "Charles Agyei",
        "rank": 47869,
        "rank_sort": 47879,
        "total": 2353
      },
      {
        "club_badge_src": null,
        "entry": 17110,
        "entry_name": "The Outsiders",
        "event_total": 61,
        "has_played": true,
        "id": 106013,
        "last_rank": 54494,
        "player_name": "John Bishop",
        "rank": 47869,
        "rank_sort": 47880,
        "total": 2353
      },
      {
        "club_badge_src": null,
        "entry": 18667,
        "entry_name": "Road to Nothing",
        "event_total": 56,
        "has_played": true,
        "id": 116159,
        "last_rank": 46660,
        "player_name": "Promodh Fernando",
        "rank": 47869,
        "rank_sort": 47881,
        "total": 2353
      },
      {
        "club_badge_src": null,
        "entry": 22188,
        "entry_name": "EzePickingsPipsqueak",
        "event_total": 59,
        "has_played": true,
        "id": 139287,
        "last_rank": 45252,
        "player_name": "Thomas Hadden",
        "rank": 47869,
        "rank_sort": 47882,
        "total": 2353
      },
      {
        "club_badge_src": null,
        "entry": 33165,
        "entry_name": "Thespald",
        "event_total": 73,
        "has_played": true,
        "id": 211383,
        "last_rank": 76947,
        "player_name": "Carl Spalding",
        "rank": 47869,
        "rank_sort": 47883,
        "total": 2353
      },
      {
        "club_badge_src": "https://fantasy.premierleague.com/gcs/plfpl-production-adobe-approved/plfpl-production/35365/f573fca0-f079-4dd2-9fed-44833fb2b0ed.png",
        "entry": 35365,
        "entry_name": "Goal D Rogers",
        "event_total": 75,
        "has_played": true,
        "id": 226284,
        "last_rank": 81420,
        "player_name": "Dan Blume",
        "rank": 47869,
        "rank_sort": 47884,
        "total": 2353
      },
      {
        "club_badge_src": null,
        "entry": 41231,
        "entry_name": "GOALTBCASSISTNON",
        "event_total": 56,
        "has_played": true,
        "id": 264187,
        "last_rank": 46839,
        "player_name": "Danny Morata",
        "rank": 47869,
        "rank_sort": 47885,
        "total": 2353
      },
      {
        "club_badge_src": null,
        "entry": 41696,
        "entry_name": "Rodri, you plonker!",
        "event_total": 58,
        "has_played": true,
        "id": 267173,
        "last_rank": 49691,
        "player_name": "Charlie Lambert",
        "rank": 47869,
        "rank_sort": 47886,
        "total": 2353
      },
      {
        "club_badge_src": null,
        "entry": 42471,
        "entry_name": "brrrrr",
        "event_total": 53,
        "has_played": true,
        "id": 272128,
        "last_rank": 42648,
        "player_name": "Lucas Thijssen",
        "rank": 47869,
        "rank_sort": 47887,
        "total": 2353
      },
      {
        "club_badge_src": null,
        "entry": 46504,
        "entry_name": "DiaReS",
        "event_total": 50,
        "has_played": true,
        "id": 298128,
        "last_rank": 33936,
        "player_name": "Daniel Molik",
        "rank": 47869,
        "rank_sort": 47888,
        "total": 2353
      },
      {
        "club_badge_src": null,
        "entry": 48923,
        "entry_name": "Jobi",
        "event_total": 60,
        "has_played": true,
        "id": 314359,
        "last_rank": 52853,
        "player_name": "Jobi JKMMF",
        "rank": 47869,
        "rank_sort": 47889,
        "total": 2353
      },
      {
        "club_badge_src": "https://fantasy.premierleague.com/gcs/plfpl-production-adobe-approved/plfpl-production/49581/8a38204b-67a0-4d4d-8649-4390138e74b2.png",
        "entry": 49581,
        "entry_name": "Couples Taremi",
        "event_total": 43,
        "has_played": true,
        "id": 318743,
        "last_rank": 30600,
        "player_name": "Frank-louis Prillard",
        "rank": 47869,
        "rank_sort": 47890,
        "total": 2353
      },
      {
        "club_badge_src": "https://fantasy.premierleague.com/gcs/plfpl-production-adobe-approved/plfpl-production/49699/f644a8cc-ea2e-43e1-861f-0925c5f03c0f.png",
        "entry": 49699,
        "entry_name": "Reeces Set Pieces",
        "event_total": 64,
        "has_played": true,
        "id": 319493,
        "last_rank": 59813,
        "player_name": "Noah Brown",
        "rank": 47869,
        "rank_sort": 47891,
        "total": 2353
      },
      {
        "club_badge_src": null,
        "entry": 50494,
        "entry_name": "The Muffin People",
        "event_total": 57,
        "has_played": true,
        "id": 324781,
        "last_rank": 48197,
        "player_name": "Luke Mitchell",
        "rank": 47869,
        "rank_sort": 47892,
        "total": 2353
      },
      {
        "club_badge_src": null,
        "entry": 53465,
        "entry_name": ".",
        "event_total": 55,
        "has_played": true,
        "id": 343968,
        "last_rank": 45252,
        "player_name": "Toby Wastling",
        "rank": 47869,
        "rank_sort": 47893,
        "total": 2353
      },
      {
        "club_badge_src": null,
        "entry": 63435,
        "entry_name": "Tarras mannar",
        "event_total": 69,
        "has_played": true,
        "id": 409292,
        "last_rank": 68748,
        "player_name": "Oskar Gustavsen",
        "rank": 47869,
        "rank_sort": 47894,
        "total": 2353
      },
      {
        "club_badge_src": null,
        "entry": 66728,
        "entry_name": "Billycat FC",
        "event_total": 54,
        "has_played": true,
        "id": 431615,
        "last_rank": 43849,
        "player_name": "Lynsey McMorrow",
        "rank": 47869,
        "rank_sort": 47895,
        "total": 2353
      },
      {
        "club_badge_src": null,
        "entry": 66735,
        "entry_name": "One Man Arne",
        "event_total": 66,
        "has_played": true,
        "id": 431662,
        "last_rank": 63390,
        "player_name": "Liam Joyce",
        "rank": 47869,
        "rank_sort": 47896,
        "total": 2353
      },
      {
        "club_badge_src": null,
        "entry": 75332,
        "entry_name": "Charcot Donetsk",
        "event_total": 56,
        "has_played": true,
        "id": 489739,
        "last_rank": 46839,
        "player_name": "Chris Halsall",
        "rank": 47869,
        "rank_sort": 47897,
        "total": 2353
      },
      {
        "club_badge_src": null,
        "entry": 85243,
        "entry_name": "Szoboslay",
        "event_total": 53,
        "has_played": true,
        "id": 555072,
        "last_rank": 42506,
        "player_name": "Coral Cooke",
        "rank": 47869,
        "rank_sort": 47898,
        "total": 2353
      },
      {
        "club_badge_src": null,
        "entry": 94619,
        "entry_name": "Silva Ware",
        "event_total": 39,
        "has_played": true,
        "id": 618274,
        "last_rank": 26827,
        "player_name": "Steve Mundell",
        "rank": 47869,
        "rank_sort": 47899,
        "total": 2353
      },
      {
        "club_badge_src": "https://fantasy.premierleague.com/gcs/plfpl-production-adobe-approved/plfpl-production/94625/77aaf522-9b0b-4835-8a20-53af9fb99066.png",
        "entry": 94625,
        "entry_name": "Merlin FC",
        "event_total": 70,
        "has_played": true,
        "id": 618307,
        "last_rank": 70651,
        "player_name": "Erik Lindberg",
        "rank": 47869,
        "rank_sort": 47900,
        "total": 2353
      }
    ]
  }
}