{
  "last_updated_data": "2026-05-24T23:28:17Z",
  "league": {
    "admin_entry": null,
    "closed": false,
    "code_privacy": "p",
    "created": "2025-07-20T23:14:33.933835Z",
    "cup_league": 2815434,
    "has_cup": true,
    "id": 314,
    "league_type": "s",
    "max_entries": null,
    "name": "Overall",
    "rank": null,
    "scoring": "c",
    "start_event": 1
  },
  "new_entries": {
    "has_next": false,
    "page": 1,
    "results": []
  },
  "standings": {
    "has_next": true,
    "page": 1254,
    "results": [
      {
        "club_badge_src": null,
        "entry": 3418049,
        "entry_name": "Stats Pack",
        "event_total": 56,
        "has_played": true,
        "id": 25388396,
        "last_rank": 54494,
        "player_name": "Brian Wilson",
        "rank": 62426,
        "rank_sort": 62651,
        "total": 2344
      },
      {
        "club_badge_src": null,
        "entry": 3457711,
        "entry_name": "\u0639\u0645\u0631 \u062a\u062d\u062a \u0627\u0644\u0642\u0635\u0641",
        "event_total": 54,
        "has_played": true,
        "id": 25700222,
        "last_rank": 58071,
        "player_name": "Omar ahmed",
        "rank": 62426,
        "rank_sort": 62652,
        "total": 2344
      },
      {
        "club_badge_src": null,
        "entry": 3497286,
        "entry_name": "MILKMEN",
        "event_total": 67,
        "has_played": true,
        "id": 26013845,
        "last_rank": 83584,
        "player_name": "Oliver Partner",
        "rank": 62426,
        "rank_sort": 62653,
        "total": 2344
      },
      {
        "club_badge_src": "https://fantasy.premierleague.com/gcs/plfpl-production-adobe-approved/plfpl-production/3511712/724fa950-ce24-4531-8ae1-638141ab0b57.png",
        "entry": 3511712,
        "entry_name": "MaLiSpArCh",
        "event_total": 56,
        "has_played": true,
        "id": 26130293,
        "last_rank": 61606,
        "player_name": "Sid J",
        "rank": 62426,
        "rank_sort": 62654,
        "total": 2344
      },
      {
        "club_badge_src": null,
        "entry": 3574891,
        "entry_name": "On Amad One",
        "event_total": 73,
        "has_played": true,
        "id": 26619596,
        "last_rank": 98436,
        "player_name": "Chris Booker",
        "rank": 62426,
        "rank_sort": 62655,
        "total": 2344
      },
      {
        "club_badge_src": null,
        "entry": 3620097,
        "entry_name": "IBK",
        "event_total": 41,
        "has_played": true,
        "id": 26971078,
        "last_rank": 38774,
        "player_name": "Ibrahim Almohannadi",
        "rank": 62426,
        "rank_sort": 62656,
        "total": 2344
      },
      {
        "club_badge_src": null,
        "entry": 3623315,
        "entry_name": "It\u2019s all about Kudus",
        "event_total": 49,
        "has_played": true,
        "id": 26996691,
        "last_rank": 49880,
        "player_name": "John Organ",
        "rank": 62426,
        "rank_sort": 62657,
        "total": 2344
      },
      {
        "club_badge_src": "https://fantasy.premierleague.com/gcs/plfpl-production-adobe-approved/plfpl-production/3648853/0c14a426-58fd-4db1-b12b-4c77ddc1f87c.png",
        "entry": 3648853,
        "entry_name": "Tinkerbell (of CV6)",
        "event_total": 59,
        "has_played": true,
        "id": 27198006,
        "last_rank": 67063,
        "player_name": "Kirsten Udall",
        "rank": 62426,
        "rank_sort": 62658,
        "total": 2344
      },
      {
        "club_badge_src": null,
        "entry": 3720573,
        "entry_name": "12thagainwhogivesaF",
        "event_total": 57,
        "has_played": true,
        "id": 27765682,
        "last_rank": 63201,
        "player_name": "Alan Stevens",
        "rank": 62426,
        "rank_sort": 62659,
        "total": 2344
      },
      {
        "club_badge_src": "https://fantasy.premierleague.com/gcs/plfpl-production-adobe-approved/plfpl-production/3727252/daf8ab0a-d8a7-4b57-8a5b-fb9440456079.png",
        "entry": 3727252,
        "entry_name": "Change Name",
        "event_total": 80,
        "has_played": true,
        "id": 27819267,
        "last_rank": 117112,
        "player_name": "Matthew Aston",
        "rank": 62426,
        "rank_sort": 62660,
        "total": 2344
      },
      {
        "club_badge_src": null,
        "entry": 3742503,
        "entry_name": "Los blancos",
        "event_total": 63,
        "has_played": true,
        "id": 27937461,
        "last_rank": 75139,
        "player_name": "Sanjeev Shakya",
        "rank": 62426,
        "rank_sort": 62661,
        "total": 2344
      },
      {
        "club_badge_src": null,
        "entry": 3745061,
        "entry_name": "Not even close lol",
        "event_total": 66,
        "has_played": true,
        "id": 27957252,
        "last_rank": 81646,
        "player_name": "Lee Mainwaring",
        "rank": 62426,
        "rank_sort": 62662,
        "total": 2344
      },
      {
        "club_badge_src": null,
        "entry": 3780280,
        "entry_name": "The Babaric FC",
        "event_total": 58,
        "has_played": true,
        "id": 28227844,
        "last_rank": 65163,
        "player_name": "Sumit Babar",
        "rank": 62426,
        "rank_sort": 62663,
        "total": 2344
      },
      {
        "club_badge_src": "https://fantasy.premierleague.com/gcs/plfpl-production-adobe-approved/plfpl-production/3808828/142fb9e2-8e3b-4676-86f3-208340dac108.png",
        "entry": 3808828,
        "entry_name": "RafFC",
        "event_total": 58,
        "has_played": true,
        "id": 28478058,
        "last_rank": 65163,
        "player_name": "Raf Arguelles",
        "rank": 62426,
        "rank_sort": 62664,
        "total": 2344
      },
      {
        "club_badge_src": "https://fantasy.premierleague.com/gcs/plfpl-production-adobe-approved/plfpl-production/3828606/96bd75e8-101f-452d-a530-2f85b475950c.png",
        "entry": 3828606,
        "entry_name": "KKT",
        "event_total": 45,
        "has_played": true,
        "id": 28639208,
        "last_rank": 44048,
        "player_name": "Krishna Kumar",
        "rank": 62426,
        "rank_sort": 62665,
        "total": 2344
      },
      {
        "club_badge_src": null,
        "entry": 3838687,
        "entry_name": "The Otters",
        "event_total": 53,
        "has_played": true,
        "id": 28739483,
        "last_rank": 56369,
        "player_name": "Ed Goodworth",
        "rank": 62426,
        "rank_sort": 62666,
        "total": 2344
      },
      {
        "club_badge_src": null,
        "entry": 3877880,
        "entry_name": "Sharpeye",
        "event_total": 56,
        "has_played": true,
        "id": 29136324,
        "last_rank": 61606,
        "player_name": "Nikita Ostroglazov",
        "rank": 62426,
        "rank_sort": 62667,
        "total": 2344
      },
      {
        "club_badge_src": null,
        "entry": 3885692,
        "entry_name": "SpurvFC",
        "event_total": 64,
        "has_played": true,
        "id": 29198044,
        "last_rank": 68748,
        "player_name": "Tore Sandviken",
        "rank": 62426,
        "rank_sort": 62668,
        "total": 2344
      },
      {
        "club_badge_src": null,
        "entry": 3885993,
        "entry_name": "Kroupi Crawlies",
        "event_total": 60,
        "has_played": true,
        "id": 29200481,
        "last_rank": 68748,
        "player_name": "Hannah Golightly",
        "rank": 62426,
        "rank_sort": 62669,
        "total": 2344
      },
      {
        "club_badge_src": null,
        "entry": 3887357,
        "entry_name": "Marionas",
        "event_total": 55,
        "has_played": true,
        "id": 29210979,
        "last_rank": 59632,
        "player_name": "Mario Nascimento",
        "rank": 62426,
        "rank_sort": 62670,
        "total": 2344
      },
      {
        "club_badge_src": null,
        "entry": 3952535,
        "entry_name": "MADRID-MCO",
        "event_total": 61,
        "has_played": true,
        "id": 29735762,
        "last_rank": 70985,
        "player_name": "Mohamed Djaber",
        "rank": 62426,
        "rank_sort": 62671,
        "total": 2344
      },
      {
        "club_badge_src": null,
        "entry": 3970795,
        "entry_name": "FC Larshyboy",
        "event_total": 69,
        "has_played": true,
        "id": 29882032,
        "last_rank": 88594,
        "player_name": "Lars Kalland",
        "rank": 62426,
        "rank_sort": 62672,
        "total": 2344
      },
      {
        "club_badge_src": null,
        "entry": 4104066,
        "entry_name": "You When Twos",
        "event_total": 72,
        "has_played": true,
        "id": 30992201,
        "last_rank": 95890,
        "player_name": "Aryan Ashoori",
        "rank": 62426,
        "rank_sort": 62673,
        "total": 2344
      },
      {
        "club_badge_src": null,
        "entry": 4132044,
        "entry_name": "Follow Saliba liba",
        "event_total": 67,
        "has_played": true,
        "id": 31225249,
        "last_rank": 83584,
        "player_name": "Jamie Basham",
        "rank": 62426,
        "rank_sort": 62674,
        "total": 2344
      },
      {
        "club_badge_src": null,
        "entry": 4163602,
        "entry_name": "Bj\u00f8nnungan",
        "event_total": 42,
        "has_played": true,
        "id": 31484145,
        "last_rank": 40036,
        "player_name": "Bj\u00f8rn Riset Sundberg",
        "rank": 62426,
        "rank_sort": 62675,
        "total": 2344
      },
      {
        "club_badge_src": null,
        "entry": 4179922,
        "entry_name": "Coppola Beers Please",
        "event_total": 69,
        "has_played": true,
        "id": 31620468,
        "last_rank": 88185,
        "player_name": "Dan Cooper",
        "rank": 62426,
        "rank_sort": 62676,
        "total": 2344
      },
      {
        "club_badge_src": null,
        "entry": 4193700,
        "entry_name": "Freddieball",
        "event_total": 62,
        "has_played": true,
        "id": 31739210,
        "last_rank": 73038,
        "player_name": "Ben Smith",
        "rank": 62426,
        "rank_sort": 62677,
        "total": 2344
      },
      {
        "club_badge_src": null,
        "entry": 4222366,
        "entry_name": "The Nubity Project",
        "event_total": 79,
        "has_played": true,
        "id": 31985574,
        "last_rank": 114169,
        "player_name": "Mitchell Kuin",
        "rank": 62426,
        "rank_sort": 62678,
        "total": 2344
      },
      {
        "club_badge_src": null,
        "entry": 4288745,
        "entry_name": "Throstles",
        "event_total": 60,
        "has_played": true,
        "id": 32531129,
        "last_rank": 68748,
        "player_name": "Harvey Mitchell",
        "rank": 62426,
        "rank_sort": 62679,
        "total": 2344
      },
      {
        "club_badge_src": null,
        "entry": 4297401,
        "entry_name": "Cunhabelieveit",
        "event_total": 66,
        "has_played": true,
        "id": 32601656,
        "last_rank": 81646,
        "player_name": "Alex Duff",
        "rank": 62426,
        "rank_sort": 62680,
        "total": 2344
      },
      {
        "club_badge_src": null,
        "entry": 4339772,
        "entry_name": "Wirtz Happenin",
        "event_total": 54,
        "has_played": true,
        "id": 32949265,
        "last_rank": 58388,
        "player_name": "Michal Mludzik",
        "rank": 62426,
        "rank_sort": 62681,
        "total": 2344
      },
      {
        "club_badge_src": null,
        "entry": 4441823,
        "entry_name": "The Gladacticos",
        "event_total": 69,
        "has_played": true,
        "id": 33824093,
        "last_rank": 79190,
        "player_name": "Ben McClean",
        "rank": 62426,
        "rank_sort": 62682,
        "total": 2344
      },
      {
        "club_badge_src": null,
        "entry": 4457193,
        "entry_name": "Couch Potato",
        "event_total": 78,
        "has_played": true,
        "id": 33954359,
        "last_rank": 111270,
        "player_name": "Kristi Wu",
        "rank": 62426,
        "rank_sort": 62683,
        "total": 2344
      },
      {
        "club_badge_src": null,
        "entry": 4458075,
        "entry_name": "Kinofy FC",
        "event_total": 52,
        "has_played": true,
        "id": 33961625,
        "last_rank": 54667,
        "player_name": "Jakob Byhr",
        "rank": 62426,
        "rank_sort": 62684,
        "total": 2344
      },
      {
        "club_badge_src": null,
        "entry": 4523846,
        "entry_name": "MSH",
        "event_total": 47,
        "has_played": true,
        "id": 34502293,
        "last_rank": 46839,
        "player_name": "Mmmm Ssss",
        "rank": 62426,
        "rank_sort": 62685,
        "total": 2344
      },
      {
        "club_badge_src": null,
        "entry": 4529578,
        "entry_name": "ZP11",
        "event_total": 57,
        "has_played": true,
        "id": 34549435,
        "last_rank": 63390,
        "player_name": "Zain Adam",
        "rank": 62426,
        "rank_sort": 62686,
        "total": 2344
      },
      {
        "club_badge_src": null,
        "entry": 4546375,
        "entry_name": "Hill Dickinson Gang",
        "event_total": 66,
        "has_played": true,
        "id": 34686734,
        "last_rank": 81646,
        "player_name": "Peter Bransfield",
        "rank": 62426,
        "rank_sort": 62687,
        "total": 2344
      },
      {
        "club_badge_src": null,
        "entry": 4645101,
        "entry_name": "Real Sosobad",
        "event_total": 71,
        "has_played": true,
        "id": 35532425,
        "last_rank": 93186,
        "player_name": "Toby Cottrell",
        "rank": 62426,
        "rank_sort": 62688,
        "total": 2344
      },
      {
        "club_badge_src": null,
        "entry": 4645478,
        "entry_name": "Afternoon De light",
        "event_total": 80,
        "has_played": true,
        "id": 35535554,
        "last_rank": 117112,
        "player_name": "Jordan Tomlinson",
        "rank": 62426,
        "rank_sort": 62689,
        "total": 2344
      },
      {
        "club_badge_src": null,
        "entry": 4777402,
        "entry_name": "90Minutes FC",
        "event_total": 61,
        "has_played": true,
        "id": 36775567,
        "last_rank": 70985,
        "player_name": "Dubem Obio Dubem",
        "rank": 62426,
        "rank_sort": 62690,
        "total": 2344
      },
      {
        "club_badge_src": null,
        "entry": 4795172,
        "entry_name": "Dan-ger Zone",
        "event_total": 69,
        "has_played": true,
        "id": 36917892,
        "last_rank": 88594,
        "player_name": "Daniel Scott",
        "rank": 62426,
        "rank_sort": 62691,
        "total": 2344
      },
      {
        "club_badge_src": null,
        "entry": 4840253,
        "entry_name": "Lane Shlong",
        "event_total": 73,
        "has_played": true,
        "id": 37285354,
        "last_rank": 98896,
        "player_name": "Nick Cowell",
        "rank": 62426,
        "rank_sort": 62692,
        "total": 2344
      },
      {
        "club_badge_src": null,
        "entry": 4847377,
        "entry_name": "Lamine Nightcat",
        "event_total": 51,
        "has_played": true,
        "id": 37344410,
        "last_rank": 53345,
        "player_name": "Rico Chan",
        "rank": 62426,
        "rank_sort": 62693,
        "total": 2344
      },
      {
        "club_badge_src": null,
        "entry": 4870723,
        "entry_name": "xfvgfssgfd",
        "event_total": 56,
        "has_played": true,
        "id": 37543020,
        "last_rank": 61606,
        "player_name": "Bojan Rakic",
        "rank": 62426,
        "rank_sort": 62694,
        "total": 2344
      },
      {
        "club_badge_src": null,
        "entry": 4896610,
        "entry_name": "Mission Unpossible",
        "event_total": 49,
        "has_played": true,
        "id": 37756178,
        "last_rank": 49880,
        "player_name": "Ole Petter Hasselgreen",
        "rank": 62426,
        "rank_sort": 62695,
        "total": 2344
      },
      {
        "club_badge_src": null,
        "entry": 4936976,
        "entry_name": "_Paulus_",
        "event_total": 55,
        "has_played": true,
        "id": 38089910,
        "last_rank": 59813,
        "player_name": "Tom\u00e1\u0161 Pavl\u00ed\u010dek",
        "rank": 62426,
        "rank_sort": 62696,
        "total": 2344
      },
      {
        "club_badge_src": null,
        "entry": 4943319,
        "entry_name": "Me Gusto Soccer",
        "event_total": 43,
        "has_played": true,
        "id": 38141791,
        "last_rank": 41162,
        "player_name": "Nathan Shaughnessy",
        "rank": 62426,
        "rank_sort": 62697,
        "total": 2344
      },
      {
        "club_badge_src": null,
        "entry": 4980255,
        "entry_name": "poppy's team",
        "event_total": 65,
        "has_played": true,
        "id": 38443662,
        "last_rank": 79190,
        "player_name": "poppy webber",
        "rank": 62426,
        "rank_sort": 62698,
        "total": 2344
      },
      {
        "club_badge_src": null,
        "entry": 4983398,
        "entry_name": "YAlhoni10",
        "event_total": 61,
        "has_played": true,
        "id": 38470873,
        "last_rank": 70651,
        "player_name": "youssef ahmed",
        "rank": 62426,
        "rank_sort": 62699,
        "total": 2344
      },
      {
        "club_badge_src": null,
        "entry": 4996209,
        "entry_name": "Fenway Sports Group",
        "event_total": 72,
        "has_played": true,
        "id": 38577308,
        "last_rank": 95640,
        "player_name": "Danial Masruroini",
        "rank": 62426,
        "rank_sort": 62700,
        "total": 2344
      }
    ]
  }
}