{
  "last_updated_data": "2026-05-24T23:28:17Z",
  "league": {
    "admin_entry": null,
    "closed": false,
    "code_privacy": "p",
    "created": "2025-07-20T23:14:33.933835Z",
    "cup_league": 2815434,
    "has_cup": true,
    "id": 314,
    "league_type": "s",
    "max_entries": null,
    "name": "Overall",
    "rank": null,
    "scoring": "c",
    "start_event": 1
  },
  "new_entries": {
    "has_next": false,
    "page": 1,
    "results": []
  },
  "standings": {
    "has_next": true,
    "page": 1562,
    "results": [
      {
        "club_badge_src": null,
        "entry": 5448313,
        "entry_name": "LEVEL_UP",
        "event_total": 71,
        "has_played": true,
        "id": 42393912,
        "last_rank": 114292,
        "player_name": "Chris Marin John",
        "rank": 77757,
        "rank_sort": 78051,
        "total": 2336
      },
      {
        "club_badge_src": null,
        "entry": 5509620,
        "entry_name": "Frimpong Along",
        "event_total": 55,
        "has_played": true,
        "id": 42943685,
        "last_rank": 75139,
        "player_name": "Pieter Brits",
        "rank": 77757,
        "rank_sort": 78052,
        "total": 2336
      },
      {
        "club_badge_src": null,
        "entry": 5524213,
        "entry_name": "KT5",
        "event_total": 75,
        "has_played": true,
        "id": 43079310,
        "last_rank": 125939,
        "player_name": "Samantha Su",
        "rank": 77757,
        "rank_sort": 78053,
        "total": 2336
      },
      {
        "club_badge_src": null,
        "entry": 5561751,
        "entry_name": "Bob's slender people",
        "event_total": 63,
        "has_played": true,
        "id": 43420386,
        "last_rank": 93186,
        "player_name": "Dan Scerri",
        "rank": 77757,
        "rank_sort": 78054,
        "total": 2336
      },
      {
        "club_badge_src": null,
        "entry": 5603233,
        "entry_name": "Tottenhamon",
        "event_total": 34,
        "has_played": true,
        "id": 43784514,
        "last_rank": 40036,
        "player_name": "Ufo Ufo",
        "rank": 77757,
        "rank_sort": 78055,
        "total": 2336
      },
      {
        "club_badge_src": null,
        "entry": 5649643,
        "entry_name": "Number 20",
        "event_total": 58,
        "has_played": true,
        "id": 44194297,
        "last_rank": 81646,
        "player_name": "Joey M\u00fcller",
        "rank": 77757,
        "rank_sort": 78056,
        "total": 2336
      },
      {
        "club_badge_src": null,
        "entry": 5652653,
        "entry_name": "Brighton&Hope Albion",
        "event_total": 60,
        "has_played": true,
        "id": 44219770,
        "last_rank": 85932,
        "player_name": "Josh Hope",
        "rank": 77757,
        "rank_sort": 78057,
        "total": 2336
      },
      {
        "club_badge_src": null,
        "entry": 5666406,
        "entry_name": "yep \u2b50\ufe0f",
        "event_total": 61,
        "has_played": true,
        "id": 44336201,
        "last_rank": 88594,
        "player_name": "Michael Cody",
        "rank": 77757,
        "rank_sort": 78058,
        "total": 2336
      },
      {
        "club_badge_src": null,
        "entry": 5731537,
        "entry_name": "penteke",
        "event_total": 69,
        "has_played": true,
        "id": 44901443,
        "last_rank": 108689,
        "player_name": "Willem Beernaert",
        "rank": 77757,
        "rank_sort": 78059,
        "total": 2336
      },
      {
        "club_badge_src": null,
        "entry": 5736051,
        "entry_name": "Sakas Stroopwafels",
        "event_total": 65,
        "has_played": true,
        "id": 44940353,
        "last_rank": 98436,
        "player_name": "Johan Nyqvist",
        "rank": 77757,
        "rank_sort": 78060,
        "total": 2336
      },
      {
        "club_badge_src": null,
        "entry": 5797074,
        "entry_name": "HEADSIWIN",
        "event_total": 57,
        "has_played": true,
        "id": 45473444,
        "last_rank": 79190,
        "player_name": "Kevin Head",
        "rank": 77757,
        "rank_sort": 78061,
        "total": 2336
      },
      {
        "club_badge_src": null,
        "entry": 5808578,
        "entry_name": "Pip Guardiola",
        "event_total": 64,
        "has_played": true,
        "id": 45574323,
        "last_rank": 95890,
        "player_name": "Pippa Colgan",
        "rank": 77757,
        "rank_sort": 78062,
        "total": 2336
      },
      {
        "club_badge_src": null,
        "entry": 5809770,
        "entry_name": "Ally Pally",
        "event_total": 41,
        "has_played": true,
        "id": 45584241,
        "last_rank": 49691,
        "player_name": "Alasdair Earle",
        "rank": 77757,
        "rank_sort": 78063,
        "total": 2336
      },
      {
        "club_badge_src": null,
        "entry": 5911553,
        "entry_name": "Smoke it ange",
        "event_total": 78,
        "has_played": true,
        "id": 46454838,
        "last_rank": 136080,
        "player_name": "Jack Slater",
        "rank": 77757,
        "rank_sort": 78064,
        "total": 2336
      },
      {
        "club_badge_src": null,
        "entry": 5957154,
        "entry_name": "Arne: I'll be back",
        "event_total": 53,
        "has_played": true,
        "id": 46862676,
        "last_rank": 70651,
        "player_name": "Waqas Butt",
        "rank": 77757,
        "rank_sort": 78065,
        "total": 2336
      },
      {
        "club_badge_src": null,
        "entry": 5987283,
        "entry_name": "AntiSoccerSoccerClub",
        "event_total": 33,
        "has_played": true,
        "id": 47164982,
        "last_rank": 38644,
        "player_name": "Loong Lim",
        "rank": 77757,
        "rank_sort": 78066,
        "total": 2336
      },
      {
        "club_badge_src": null,
        "entry": 5988121,
        "entry_name": "Jerry the St's squad",
        "event_total": 48,
        "has_played": true,
        "id": 47174816,
        "last_rank": 61606,
        "player_name": "Jerry Cummins",
        "rank": 77757,
        "rank_sort": 78067,
        "total": 2336
      },
      {
        "club_badge_src": null,
        "entry": 6005741,
        "entry_name": "Obi 1 Kenobi 0",
        "event_total": 51,
        "has_played": true,
        "id": 47349106,
        "last_rank": 66848,
        "player_name": "Lauren Foley",
        "rank": 77757,
        "rank_sort": 78068,
        "total": 2336
      },
      {
        "club_badge_src": null,
        "entry": 6056568,
        "entry_name": "Yoro Wissa Harry",
        "event_total": 50,
        "has_played": true,
        "id": 47796274,
        "last_rank": 65163,
        "player_name": "Arun Mann",
        "rank": 77757,
        "rank_sort": 78069,
        "total": 2336
      },
      {
        "club_badge_src": null,
        "entry": 6107447,
        "entry_name": "Wilkors",
        "event_total": 59,
        "has_played": true,
        "id": 48241326,
        "last_rank": 83934,
        "player_name": "Wilski Maciej",
        "rank": 77757,
        "rank_sort": 78070,
        "total": 2336
      },
      {
        "club_badge_src": null,
        "entry": 6193067,
        "entry_name": "Tesco McNeil Deal",
        "event_total": 64,
        "has_played": true,
        "id": 48985660,
        "last_rank": 95640,
        "player_name": "Harry Jelley",
        "rank": 77757,
        "rank_sort": 78071,
        "total": 2336
      },
      {
        "club_badge_src": null,
        "entry": 6246421,
        "entry_name": "Rodri's On Fire",
        "event_total": 61,
        "has_played": true,
        "id": 49444091,
        "last_rank": 88348,
        "player_name": "Chris Averay",
        "rank": 77757,
        "rank_sort": 78072,
        "total": 2336
      },
      {
        "club_badge_src": null,
        "entry": 6334509,
        "entry_name": "good googly moogly",
        "event_total": 52,
        "has_played": true,
        "id": 50344803,
        "last_rank": 69323,
        "player_name": "Max Meredith",
        "rank": 77757,
        "rank_sort": 78073,
        "total": 2336
      },
      {
        "club_badge_src": null,
        "entry": 6371633,
        "entry_name": "Put a Dendonck on it",
        "event_total": 74,
        "has_played": true,
        "id": 50668504,
        "last_rank": 122897,
        "player_name": "Michael Weldon",
        "rank": 77757,
        "rank_sort": 78074,
        "total": 2336
      },
      {
        "club_badge_src": null,
        "entry": 6392276,
        "entry_name": "burns2808",
        "event_total": 70,
        "has_played": true,
        "id": 50850043,
        "last_rank": 111405,
        "player_name": "Tim Cahill",
        "rank": 77757,
        "rank_sort": 78075,
        "total": 2336
      },
      {
        "club_badge_src": null,
        "entry": 6394602,
        "entry_name": "Kinder Mbuemo",
        "event_total": 48,
        "has_played": true,
        "id": 50871776,
        "last_rank": 54494,
        "player_name": "Chris Brooking",
        "rank": 77757,
        "rank_sort": 78076,
        "total": 2336
      },
      {
        "club_badge_src": null,
        "entry": 6466213,
        "entry_name": "Cunha Mateta",
        "event_total": 66,
        "has_played": true,
        "id": 51517435,
        "last_rank": 100949,
        "player_name": "Colin O'Rourke",
        "rank": 77757,
        "rank_sort": 78077,
        "total": 2336
      },
      {
        "club_badge_src": null,
        "entry": 6480370,
        "entry_name": "Selfmade",
        "event_total": 83,
        "has_played": true,
        "id": 51649025,
        "last_rank": 153085,
        "player_name": "Iyiola Bello",
        "rank": 77757,
        "rank_sort": 78078,
        "total": 2336
      },
      {
        "club_badge_src": null,
        "entry": 6552319,
        "entry_name": "World champion\ufffd",
        "event_total": 36,
        "has_played": true,
        "id": 52288076,
        "last_rank": 42940,
        "player_name": "Abdulrahman bello haliru",
        "rank": 77757,
        "rank_sort": 78079,
        "total": 2336
      },
      {
        "club_badge_src": null,
        "entry": 6567041,
        "entry_name": "A Team Has No Name",
        "event_total": 59,
        "has_played": true,
        "id": 52418679,
        "last_rank": 74898,
        "player_name": "Abu Sayed Farhad",
        "rank": 77757,
        "rank_sort": 78080,
        "total": 2336
      },
      {
        "club_badge_src": "https://fantasy.premierleague.com/gcs/plfpl-production-adobe-approved/plfpl-production/6606690/6896ee0b-2342-4ede-a331-26e285c2fa5a.png",
        "entry": 6606690,
        "entry_name": "Kris United FC",
        "event_total": 64,
        "has_played": true,
        "id": 52779494,
        "last_rank": 95640,
        "player_name": "Kristiyan Nachev",
        "rank": 77757,
        "rank_sort": 78081,
        "total": 2336
      },
      {
        "club_badge_src": null,
        "entry": 6627504,
        "entry_name": "Miguel Almirmong",
        "event_total": 60,
        "has_played": true,
        "id": 52965057,
        "last_rank": 86054,
        "player_name": "James Seymour",
        "rank": 77757,
        "rank_sort": 78082,
        "total": 2336
      },
      {
        "club_badge_src": null,
        "entry": 6633056,
        "entry_name": "Smadders No More",
        "event_total": 75,
        "has_played": true,
        "id": 53014231,
        "last_rank": 126088,
        "player_name": "Christian Smaditch",
        "rank": 77757,
        "rank_sort": 78083,
        "total": 2336
      },
      {
        "club_badge_src": null,
        "entry": 6651366,
        "entry_name": "Vitorpointsthenpints",
        "event_total": 38,
        "has_played": true,
        "id": 53174217,
        "last_rank": 45416,
        "player_name": "Emma Denham",
        "rank": 77757,
        "rank_sort": 78084,
        "total": 2336
      },
      {
        "club_badge_src": null,
        "entry": 6662253,
        "entry_name": "Blackburn",
        "event_total": 72,
        "has_played": true,
        "id": 53277948,
        "last_rank": 116852,
        "player_name": "Andreas S\u00f8rby",
        "rank": 77757,
        "rank_sort": 78085,
        "total": 2336
      },
      {
        "club_badge_src": null,
        "entry": 6665976,
        "entry_name": "FC Ninjaghos",
        "event_total": 52,
        "has_played": true,
        "id": 53310174,
        "last_rank": 68748,
        "player_name": "Filip Choromanski",
        "rank": 77757,
        "rank_sort": 78086,
        "total": 2336
      },
      {
        "club_badge_src": null,
        "entry": 6689360,
        "entry_name": "Big Refs",
        "event_total": 48,
        "has_played": true,
        "id": 53515254,
        "last_rank": 61606,
        "player_name": "Eirik Refsum",
        "rank": 77757,
        "rank_sort": 78087,
        "total": 2336
      },
      {
        "club_badge_src": null,
        "entry": 6730055,
        "entry_name": "Pipe Guardiola",
        "event_total": 72,
        "has_played": true,
        "id": 53867523,
        "last_rank": 116953,
        "player_name": "Paddy Pipe",
        "rank": 77757,
        "rank_sort": 78088,
        "total": 2336
      },
      {
        "club_badge_src": null,
        "entry": 6762311,
        "entry_name": "Maja's team",
        "event_total": 65,
        "has_played": true,
        "id": 54142833,
        "last_rank": 98436,
        "player_name": "Enej Jarkovic",
        "rank": 77757,
        "rank_sort": 78089,
        "total": 2336
      },
      {
        "club_badge_src": "https://fantasy.premierleague.com/gcs/plfpl-production-adobe-approved/plfpl-production/6771840/90f9d79e-a5b8-4e73-b41b-6f7a61908734.png",
        "entry": 6771840,
        "entry_name": "Kemps Katastrophies",
        "event_total": 53,
        "has_played": true,
        "id": 54221906,
        "last_rank": 70757,
        "player_name": "Robert Kemp",
        "rank": 77757,
        "rank_sort": 78090,
        "total": 2336
      },
      {
        "club_badge_src": "https://fantasy.premierleague.com/gcs/plfpl-production-adobe-approved/plfpl-production/6885232/97d6aa9c-4f17-4242-88e0-3bdb4cfc26ac.png",
        "entry": 6885232,
        "entry_name": "Sesko Clubcard",
        "event_total": 58,
        "has_played": true,
        "id": 55180336,
        "last_rank": 81646,
        "player_name": "Jamie Dodd",
        "rank": 77757,
        "rank_sort": 78091,
        "total": 2336
      },
      {
        "club_badge_src": null,
        "entry": 6908855,
        "entry_name": "Dr Death",
        "event_total": 68,
        "has_played": true,
        "id": 55378402,
        "last_rank": 105818,
        "player_name": "Srinayan Katari",
        "rank": 77757,
        "rank_sort": 78092,
        "total": 2336
      },
      {
        "club_badge_src": "https://fantasy.premierleague.com/gcs/plfpl-production-adobe-approved/plfpl-production/6959117/1d65455b-cc2b-4b4c-9719-f961655ba5d0.png",
        "entry": 6959117,
        "entry_name": "chippy chips fc",
        "event_total": 54,
        "has_played": true,
        "id": 55808666,
        "last_rank": 73038,
        "player_name": "Adrian Yeoh",
        "rank": 77757,
        "rank_sort": 78093,
        "total": 2336
      },
      {
        "club_badge_src": null,
        "entry": 6965572,
        "entry_name": "The A Team",
        "event_total": 68,
        "has_played": true,
        "id": 55867122,
        "last_rank": 106259,
        "player_name": "Fazle Rabbi",
        "rank": 77757,
        "rank_sort": 78094,
        "total": 2336
      },
      {
        "club_badge_src": null,
        "entry": 6999198,
        "entry_name": "WC2022 Winners",
        "event_total": 49,
        "has_played": true,
        "id": 56195386,
        "last_rank": 63390,
        "player_name": "Jeevan Pandeya",
        "rank": 77757,
        "rank_sort": 78095,
        "total": 2336
      },
      {
        "club_badge_src": null,
        "entry": 7140151,
        "entry_name": "Sesko Clubcard",
        "event_total": 45,
        "has_played": true,
        "id": 57556308,
        "last_rank": 56369,
        "player_name": "Dilraj Sadhera",
        "rank": 77757,
        "rank_sort": 78096,
        "total": 2336
      },
      {
        "club_badge_src": null,
        "entry": 7156692,
        "entry_name": "Y.Fahel FC",
        "event_total": 50,
        "has_played": true,
        "id": 57720089,
        "last_rank": 65163,
        "player_name": "Yousef Alfahel",
        "rank": 77757,
        "rank_sort": 78097,
        "total": 2336
      },
      {
        "club_badge_src": null,
        "entry": 7310301,
        "entry_name": "matthews team",
        "event_total": 53,
        "has_played": true,
        "id": 59173393,
        "last_rank": 70651,
        "player_name": "Matthew Murray",
        "rank": 77757,
        "rank_sort": 78098,
        "total": 2336
      },
      {
        "club_badge_src": null,
        "entry": 7347603,
        "entry_name": "Prem Soon Come",
        "event_total": 39,
        "has_played": true,
        "id": 59523226,
        "last_rank": 46839,
        "player_name": "Oliver Sang",
        "rank": 77757,
        "rank_sort": 78099,
        "total": 2336
      },
      {
        "club_badge_src": null,
        "entry": 7387192,
        "entry_name": "lobos",
        "event_total": 65,
        "has_played": true,
        "id": 59893076,
        "last_rank": 98436,
        "player_name": "Mohammed Reda Sahmi",
        "rank": 77757,
        "rank_sort": 78100,
        "total": 2336
      }
    ]
  }
}