{
  "last_updated_data": "2026-05-24T23:28:17Z",
  "league": {
    "admin_entry": null,
    "closed": false,
    "code_privacy": "p",
    "created": "2025-07-20T23:14:33.933835Z",
    "cup_league": 2815434,
    "has_cup": true,
    "id": 314,
    "league_type": "s",
    "max_entries": null,
    "name": "Overall",
    "rank": null,
    "scoring": "c",
    "start_event": 1
  },
  "new_entries": {
    "has_next": false,
    "page": 1,
    "results": []
  },
  "standings": {
    "has_next": true,
    "page": 149,
    "results": [
      {
        "club_badge_src": null,
        "entry": 1570386,
        "entry_name": "BlueMoon FC",
        "event_total": 50,
        "has_played": true,
        "id": 10972185,
        "last_rank": 5092,
        "player_name": "Michael Choy",
        "rank": 7392,
        "rank_sort": 7401,
        "total": 2406
      },
      {
        "club_badge_src": null,
        "entry": 1727484,
        "entry_name": "Holy Boehly",
        "event_total": 56,
        "has_played": true,
        "id": 12115239,
        "last_rank": 6614,
        "player_name": "Ross Cardwell",
        "rank": 7392,
        "rank_sort": 7402,
        "total": 2406
      },
      {
        "club_badge_src": null,
        "entry": 4951742,
        "entry_name": "Tango",
        "event_total": 64,
        "has_played": true,
        "id": 38209582,
        "last_rank": 7863,
        "player_name": "Osama Almunayes",
        "rank": 7392,
        "rank_sort": 7403,
        "total": 2406
      },
      {
        "club_badge_src": "https://fantasy.premierleague.com/gcs/plfpl-production-adobe-approved/plfpl-production/6128334/528dbd2e-398e-43ea-87cf-1081d5fd3650.png",
        "entry": 6128334,
        "entry_name": "Onana what's my name",
        "event_total": 56,
        "has_played": true,
        "id": 48423115,
        "last_rank": 5560,
        "player_name": "Simon Cuypers",
        "rank": 7392,
        "rank_sort": 7404,
        "total": 2406
      },
      {
        "club_badge_src": null,
        "entry": 7237606,
        "entry_name": "JMONEY\u00ae XI",
        "event_total": 67,
        "has_played": true,
        "id": 58486402,
        "last_rank": 10600,
        "player_name": "Jevon Samuel",
        "rank": 7392,
        "rank_sort": 7405,
        "total": 2406
      },
      {
        "club_badge_src": null,
        "entry": 7845234,
        "entry_name": "Innit's XI",
        "event_total": 60,
        "has_played": true,
        "id": 64487746,
        "last_rank": 7914,
        "player_name": "Ayaz Quraishi",
        "rank": 7392,
        "rank_sort": 7406,
        "total": 2406
      },
      {
        "club_badge_src": null,
        "entry": 11199,
        "entry_name": "\u0e2d\u0e25\u0e2d\u0e19\u0e41\u0e2a\u0e49! \u0e2d\u0e25\u0e2d\u0e19\u0e40\u0e0a\u0e37\u0e2d\u0e01!",
        "event_total": 61,
        "has_played": true,
        "id": 66481,
        "last_rank": 8260,
        "player_name": "Topinho FPL Noob Thailand",
        "rank": 7407,
        "rank_sort": 7407,
        "total": 2406
      },
      {
        "club_badge_src": null,
        "entry": 868203,
        "entry_name": "EasyTop3",
        "event_total": 66,
        "has_played": true,
        "id": 5952192,
        "last_rank": 10195,
        "player_name": "Tarrek Sartawy",
        "rank": 7407,
        "rank_sort": 7408,
        "total": 2406
      },
      {
        "club_badge_src": null,
        "entry": 1143015,
        "entry_name": "jo\u0161ko gvALDIol",
        "event_total": 56,
        "has_played": true,
        "id": 7923139,
        "last_rank": 5583,
        "player_name": "Tom Parker",
        "rank": 7407,
        "rank_sort": 7409,
        "total": 2406
      },
      {
        "club_badge_src": null,
        "entry": 1875769,
        "entry_name": "Taman0x",
        "event_total": 26,
        "has_played": true,
        "id": 13206675,
        "last_rank": 1282,
        "player_name": "Ibrahim Taman",
        "rank": 7407,
        "rank_sort": 7410,
        "total": 2406
      },
      {
        "club_badge_src": "https://fantasy.premierleague.com/gcs/plfpl-production-adobe-approved/plfpl-production/2051443/cb2ec710-0eb3-47dc-9fd8-620c82500ece.png",
        "entry": 2051443,
        "entry_name": "N A R O",
        "event_total": 55,
        "has_played": true,
        "id": 14530684,
        "last_rank": 5313,
        "player_name": "Naro Abubakir",
        "rank": 7407,
        "rank_sort": 7411,
        "total": 2406
      },
      {
        "club_badge_src": null,
        "entry": 2281271,
        "entry_name": "Mad Manc",
        "event_total": 69,
        "has_played": true,
        "id": 16268144,
        "last_rank": 11536,
        "player_name": "Ged Doherty",
        "rank": 7407,
        "rank_sort": 7412,
        "total": 2406
      },
      {
        "club_badge_src": "https://fantasy.premierleague.com/gcs/plfpl-production-adobe-approved/plfpl-production/2417771/9d10b52a-fe67-4cdb-b046-b63e2b039a3c.png",
        "entry": 2417771,
        "entry_name": "Let's Go",
        "event_total": 63,
        "has_played": true,
        "id": 17283953,
        "last_rank": 8999,
        "player_name": "Lalit Neupane",
        "rank": 7407,
        "rank_sort": 7413,
        "total": 2406
      },
      {
        "club_badge_src": null,
        "entry": 3721010,
        "entry_name": "Boban11",
        "event_total": 65,
        "has_played": true,
        "id": 27769050,
        "last_rank": 9792,
        "player_name": "Darren Bateman",
        "rank": 7407,
        "rank_sort": 7414,
        "total": 2406
      },
      {
        "club_badge_src": null,
        "entry": 5304434,
        "entry_name": "Hakadal United",
        "event_total": 69,
        "has_played": true,
        "id": 41117772,
        "last_rank": 9751,
        "player_name": "Kristian Trehj\u00f8rningen",
        "rank": 7407,
        "rank_sort": 7415,
        "total": 2406
      },
      {
        "club_badge_src": null,
        "entry": 5745476,
        "entry_name": "Crabby",
        "event_total": 62,
        "has_played": true,
        "id": 45027796,
        "last_rank": 8627,
        "player_name": "Terry Crabb",
        "rank": 7407,
        "rank_sort": 7416,
        "total": 2406
      },
      {
        "club_badge_src": null,
        "entry": 6395851,
        "entry_name": "EPL GALACTICOS",
        "event_total": 75,
        "has_played": true,
        "id": 50883111,
        "last_rank": 12512,
        "player_name": "Renga Nathan",
        "rank": 7407,
        "rank_sort": 7417,
        "total": 2406
      },
      {
        "club_badge_src": null,
        "entry": 63375,
        "entry_name": "Wirtz of Oz",
        "event_total": 35,
        "has_played": true,
        "id": 408888,
        "last_rank": 2495,
        "player_name": "Lee Thompson",
        "rank": 7418,
        "rank_sort": 7418,
        "total": 2406
      },
      {
        "club_badge_src": null,
        "entry": 373530,
        "entry_name": "kenji",
        "event_total": 61,
        "has_played": true,
        "id": 2499158,
        "last_rank": 8260,
        "player_name": "Omar K",
        "rank": 7418,
        "rank_sort": 7419,
        "total": 2406
      },
      {
        "club_badge_src": null,
        "entry": 2992159,
        "entry_name": "A-Cunha Matata",
        "event_total": 43,
        "has_played": true,
        "id": 22006340,
        "last_rank": 3670,
        "player_name": "James Sing Wong",
        "rank": 7418,
        "rank_sort": 7420,
        "total": 2406
      },
      {
        "club_badge_src": null,
        "entry": 2995418,
        "entry_name": "Olesen FC",
        "event_total": 68,
        "has_played": true,
        "id": 22031095,
        "last_rank": 11098,
        "player_name": "H\u00e5kon Olesen",
        "rank": 7418,
        "rank_sort": 7421,
        "total": 2406
      },
      {
        "club_badge_src": null,
        "entry": 3972195,
        "entry_name": "GonterTeam",
        "event_total": 64,
        "has_played": true,
        "id": 29893472,
        "last_rank": 7891,
        "player_name": "Patryk Ginter",
        "rank": 7418,
        "rank_sort": 7422,
        "total": 2406
      },
      {
        "club_badge_src": null,
        "entry": 4246665,
        "entry_name": "Wirtz-ard of anfield",
        "event_total": 66,
        "has_played": true,
        "id": 32188797,
        "last_rank": 8627,
        "player_name": "Waziri 254",
        "rank": 7418,
        "rank_sort": 7423,
        "total": 2406
      },
      {
        "club_badge_src": null,
        "entry": 5030766,
        "entry_name": "Rooney Tunes",
        "event_total": 71,
        "has_played": true,
        "id": 38855659,
        "last_rank": 12547,
        "player_name": "Sam Fraser",
        "rank": 7418,
        "rank_sort": 7424,
        "total": 2406
      },
      {
        "club_badge_src": null,
        "entry": 1222792,
        "entry_name": "Franklin_KR",
        "event_total": 55,
        "has_played": true,
        "id": 8489470,
        "last_rank": 5348,
        "player_name": "Yunkyu Shim",
        "rank": 7425,
        "rank_sort": 7425,
        "total": 2406
      },
      {
        "club_badge_src": null,
        "entry": 1957519,
        "entry_name": "BraCunha",
        "event_total": 71,
        "has_played": true,
        "id": 13809527,
        "last_rank": 10651,
        "player_name": "Victor Okindo",
        "rank": 7425,
        "rank_sort": 7426,
        "total": 2406
      },
      {
        "club_badge_src": null,
        "entry": 914535,
        "entry_name": "ADDOU Hamid",
        "event_total": 47,
        "has_played": true,
        "id": 6288614,
        "last_rank": 3676,
        "player_name": "Addou Abdelhamid",
        "rank": 7427,
        "rank_sort": 7427,
        "total": 2406
      },
      {
        "club_badge_src": null,
        "entry": 5486810,
        "entry_name": "No Mas",
        "event_total": 68,
        "has_played": true,
        "id": 42729028,
        "last_rank": 11112,
        "player_name": "Ezra Kingz",
        "rank": 7427,
        "rank_sort": 7428,
        "total": 2406
      },
      {
        "club_badge_src": "https://fantasy.premierleague.com/gcs/plfpl-production-adobe-approved/plfpl-production/667340/eec91491-6c5e-46af-802d-c645db24c95b.png",
        "entry": 667340,
        "entry_name": "Ain't Got No Solio",
        "event_total": 38,
        "has_played": true,
        "id": 4512193,
        "last_rank": 1949,
        "player_name": "Yonnas Jahren",
        "rank": 7429,
        "rank_sort": 7429,
        "total": 2406
      },
      {
        "club_badge_src": null,
        "entry": 890605,
        "entry_name": "Love Love",
        "event_total": 75,
        "has_played": true,
        "id": 6109831,
        "last_rank": 14780,
        "player_name": "Noppadol Jaemkarnjanaloha",
        "rank": 7429,
        "rank_sort": 7430,
        "total": 2406
      },
      {
        "club_badge_src": null,
        "entry": 4113389,
        "entry_name": "Tristrams XI",
        "event_total": 54,
        "has_played": true,
        "id": 31066411,
        "last_rank": 6133,
        "player_name": "Tristram Stockwell",
        "rank": 7429,
        "rank_sort": 7431,
        "total": 2406
      },
      {
        "club_badge_src": null,
        "entry": 4311047,
        "entry_name": "\u0646\u0633\u0631 \u0627\u0644\u0635\u0639\u064a\u062f \ufffd",
        "event_total": 36,
        "has_played": true,
        "id": 32711113,
        "last_rank": 2644,
        "player_name": "Waleed Abdelmonaem",
        "rank": 7429,
        "rank_sort": 7432,
        "total": 2406
      },
      {
        "club_badge_src": null,
        "entry": 2901,
        "entry_name": "Ana Maradun",
        "event_total": 43,
        "has_played": true,
        "id": 16328,
        "last_rank": 3055,
        "player_name": "Mateen Farat",
        "rank": 7433,
        "rank_sort": 7433,
        "total": 2406
      },
      {
        "club_badge_src": null,
        "entry": 2984892,
        "entry_name": "LUFC Allstars",
        "event_total": 49,
        "has_played": true,
        "id": 21947576,
        "last_rank": 4028,
        "player_name": "Lee Deverell",
        "rank": 7433,
        "rank_sort": 7434,
        "total": 2406
      },
      {
        "club_badge_src": null,
        "entry": 3642368,
        "entry_name": "Rubber Dingy Rapids",
        "event_total": 54,
        "has_played": true,
        "id": 27145943,
        "last_rank": 6135,
        "player_name": "Paul Ogden",
        "rank": 7433,
        "rank_sort": 7435,
        "total": 2406
      },
      {
        "club_badge_src": null,
        "entry": 156098,
        "entry_name": "Holcot Dogs FC",
        "event_total": 70,
        "has_played": true,
        "id": 1026406,
        "last_rank": 12073,
        "player_name": "Thomas Ellis",
        "rank": 7436,
        "rank_sort": 7436,
        "total": 2406
      },
      {
        "club_badge_src": null,
        "entry": 9234448,
        "entry_name": "Stenson FC",
        "event_total": 73,
        "has_played": true,
        "id": 77771490,
        "last_rank": 8295,
        "player_name": "Harry Stenson",
        "rank": 7436,
        "rank_sort": 7437,
        "total": 2406
      },
      {
        "club_badge_src": null,
        "entry": 2740463,
        "entry_name": "TAMOUDA KIRA",
        "event_total": 73,
        "has_played": true,
        "id": 19773677,
        "last_rank": 8295,
        "player_name": "el aziz mohamed",
        "rank": 7438,
        "rank_sort": 7438,
        "total": 2406
      },
      {
        "club_badge_src": null,
        "entry": 8125467,
        "entry_name": "Wallace Wanderers",
        "event_total": 65,
        "has_played": true,
        "id": 67039677,
        "last_rank": 8305,
        "player_name": "Kevin Wallace",
        "rank": 7439,
        "rank_sort": 7439,
        "total": 2406
      },
      {
        "club_badge_src": null,
        "entry": 6605237,
        "entry_name": "Phittinon_kang",
        "event_total": 66,
        "has_played": true,
        "id": 52766965,
        "last_rank": 10243,
        "player_name": "Phittinon Dansawang",
        "rank": 7440,
        "rank_sort": 7440,
        "total": 2406
      },
      {
        "club_badge_src": null,
        "entry": 518081,
        "entry_name": "Watford on Sea",
        "event_total": 64,
        "has_played": true,
        "id": 3478308,
        "last_rank": 9441,
        "player_name": "Alan Marshall",
        "rank": 7441,
        "rank_sort": 7441,
        "total": 2405
      },
      {
        "club_badge_src": null,
        "entry": 7772938,
        "entry_name": "dwrr XI",
        "event_total": 56,
        "has_played": true,
        "id": 63829431,
        "last_rank": 6674,
        "player_name": "Cillian Dwyer",
        "rank": 7442,
        "rank_sort": 7442,
        "total": 2405
      },
      {
        "club_badge_src": null,
        "entry": 296790,
        "entry_name": "In Schlotti we trust",
        "event_total": 51,
        "has_played": true,
        "id": 1983222,
        "last_rank": 5379,
        "player_name": "Josh Pilgerstorfer",
        "rank": 7443,
        "rank_sort": 7443,
        "total": 2405
      },
      {
        "club_badge_src": null,
        "entry": 1294953,
        "entry_name": "bijol and end all",
        "event_total": 81,
        "has_played": true,
        "id": 8999721,
        "last_rank": 18628,
        "player_name": "Seb Holmes",
        "rank": 7443,
        "rank_sort": 7444,
        "total": 2405
      },
      {
        "club_badge_src": null,
        "entry": 4120064,
        "entry_name": "Kobbie and paste",
        "event_total": 90,
        "has_played": true,
        "id": 31125875,
        "last_rank": 25709,
        "player_name": "Matthew Eyton-Jones",
        "rank": 7443,
        "rank_sort": 7445,
        "total": 2405
      },
      {
        "club_badge_src": null,
        "entry": 1027111,
        "entry_name": "Game of Stones",
        "event_total": 69,
        "has_played": true,
        "id": 7106166,
        "last_rank": 11588,
        "player_name": "Gordan Streitenberger",
        "rank": 7446,
        "rank_sort": 7446,
        "total": 2405
      },
      {
        "club_badge_src": null,
        "entry": 2456982,
        "entry_name": "Cookies Monsters",
        "event_total": 57,
        "has_played": true,
        "id": 17574012,
        "last_rank": 7000,
        "player_name": "Noah Walter",
        "rank": 7446,
        "rank_sort": 7447,
        "total": 2405
      },
      {
        "club_badge_src": null,
        "entry": 3528513,
        "entry_name": "Arctick Missle",
        "event_total": 69,
        "has_played": true,
        "id": 26260852,
        "last_rank": 11585,
        "player_name": "Rory Smart",
        "rank": 7446,
        "rank_sort": 7448,
        "total": 2405
      },
      {
        "club_badge_src": null,
        "entry": 4381767,
        "entry_name": "Easterbrook\u2019s XI",
        "event_total": 64,
        "has_played": true,
        "id": 33299828,
        "last_rank": 9445,
        "player_name": "Oliver Easterbrook",
        "rank": 7446,
        "rank_sort": 7449,
        "total": 2405
      },
      {
        "club_badge_src": null,
        "entry": 7884627,
        "entry_name": "Farcelona",
        "event_total": 37,
        "has_played": true,
        "id": 64846001,
        "last_rank": 2795,
        "player_name": "Matt Potter",
        "rank": 7446,
        "rank_sort": 7450,
        "total": 2405
      }
    ]
  }
}