{
  "last_updated_data": "2026-05-24T23:28:17Z",
  "league": {
    "admin_entry": null,
    "closed": false,
    "code_privacy": "p",
    "created": "2025-07-20T23:14:33.933835Z",
    "cup_league": 2815434,
    "has_cup": true,
    "id": 314,
    "league_type": "s",
    "max_entries": null,
    "name": "Overall",
    "rank": null,
    "scoring": "c",
    "start_event": 1
  },
  "new_entries": {
    "has_next": false,
    "page": 1,
    "results": []
  },
  "standings": {
    "has_next": true,
    "page": 847,
    "results": [
      {
        "club_badge_src": null,
        "entry": 686772,
        "entry_name": "Kanon",
        "event_total": 56,
        "has_played": true,
        "id": 4649205,
        "last_rank": 41324,
        "player_name": "Erlend Vestad",
        "rank": 42287,
        "rank_sort": 42301,
        "total": 2357
      },
      {
        "club_badge_src": null,
        "entry": 767304,
        "entry_name": "lastminutewinner",
        "event_total": 64,
        "has_played": true,
        "id": 5233434,
        "last_rank": 52722,
        "player_name": "Ale\u0161 Rupreht",
        "rank": 42287,
        "rank_sort": 42302,
        "total": 2357
      },
      {
        "club_badge_src": null,
        "entry": 859465,
        "entry_name": "My Team FC",
        "event_total": 65,
        "has_played": true,
        "id": 5891706,
        "last_rank": 54494,
        "player_name": "Sachin Sanpal",
        "rank": 42287,
        "rank_sort": 42303,
        "total": 2357
      },
      {
        "club_badge_src": null,
        "entry": 1069904,
        "entry_name": "7mdy fc",
        "event_total": 57,
        "has_played": true,
        "id": 7406837,
        "last_rank": 42648,
        "player_name": "Kevin George",
        "rank": 42287,
        "rank_sort": 42304,
        "total": 2357
      },
      {
        "club_badge_src": null,
        "entry": 1109849,
        "entry_name": "Hnedej Tym",
        "event_total": 56,
        "has_played": true,
        "id": 7687652,
        "last_rank": 41324,
        "player_name": "Jan Hn\u011bvkovsk\u00fd",
        "rank": 42287,
        "rank_sort": 42305,
        "total": 2357
      },
      {
        "club_badge_src": null,
        "entry": 1196904,
        "entry_name": "Yoro Wizard Harry",
        "event_total": 58,
        "has_played": true,
        "id": 8305774,
        "last_rank": 44048,
        "player_name": "Adam Fazz",
        "rank": 42287,
        "rank_sort": 42306,
        "total": 2357
      },
      {
        "club_badge_src": null,
        "entry": 1235340,
        "entry_name": "Ugarte Be Kidding Me",
        "event_total": 69,
        "has_played": true,
        "id": 8578403,
        "last_rank": 61315,
        "player_name": "Reuben Wood",
        "rank": 42287,
        "rank_sort": 42307,
        "total": 2357
      },
      {
        "club_badge_src": "https://fantasy.premierleague.com/gcs/plfpl-production-adobe-approved/plfpl-production/1338396/524e4512-4281-41c1-8dd4-4dfe66fe8173.png",
        "entry": 1338396,
        "entry_name": "Oh no Onana",
        "event_total": 50,
        "has_played": true,
        "id": 9305330,
        "last_rank": 34051,
        "player_name": "Zhi Yuan Chong",
        "rank": 42287,
        "rank_sort": 42308,
        "total": 2357
      },
      {
        "club_badge_src": null,
        "entry": 1492312,
        "entry_name": "Ruben's at the wheel",
        "event_total": 73,
        "has_played": true,
        "id": 10406764,
        "last_rank": 68748,
        "player_name": "Joe Walker",
        "rank": 42287,
        "rank_sort": 42309,
        "total": 2357
      },
      {
        "club_badge_src": null,
        "entry": 1500591,
        "entry_name": "siu",
        "event_total": 80,
        "has_played": true,
        "id": 10464893,
        "last_rank": 83934,
        "player_name": "Abdelrahman manhrous",
        "rank": 42287,
        "rank_sort": 42310,
        "total": 2357
      },
      {
        "club_badge_src": null,
        "entry": 1670193,
        "entry_name": "Super scoots",
        "event_total": 30,
        "has_played": true,
        "id": 11693634,
        "last_rank": 16807,
        "player_name": "scott griffin",
        "rank": 42287,
        "rank_sort": 42311,
        "total": 2357
      },
      {
        "club_badge_src": null,
        "entry": 1961112,
        "entry_name": "Los Porros Hermanos",
        "event_total": 50,
        "has_played": true,
        "id": 13836222,
        "last_rank": 33936,
        "player_name": "george chynoweth-smith",
        "rank": 42287,
        "rank_sort": 42312,
        "total": 2357
      },
      {
        "club_badge_src": null,
        "entry": 1999329,
        "entry_name": "Count Doku",
        "event_total": 70,
        "has_played": true,
        "id": 14131844,
        "last_rank": 56099,
        "player_name": "Andrew .",
        "rank": 42287,
        "rank_sort": 42313,
        "total": 2357
      },
      {
        "club_badge_src": null,
        "entry": 2037351,
        "entry_name": "Livin' Saliba Loca",
        "event_total": 70,
        "has_played": true,
        "id": 14426792,
        "last_rank": 63390,
        "player_name": "Richard Wakefield",
        "rank": 42287,
        "rank_sort": 42314,
        "total": 2357
      },
      {
        "club_badge_src": null,
        "entry": 2189035,
        "entry_name": "L\u00f6w Island",
        "event_total": 68,
        "has_played": true,
        "id": 15573065,
        "last_rank": 59496,
        "player_name": "Mari Moe Haahjem",
        "rank": 42287,
        "rank_sort": 42315,
        "total": 2357
      },
      {
        "club_badge_src": null,
        "entry": 2216148,
        "entry_name": "Limps Soldados",
        "event_total": 43,
        "has_played": true,
        "id": 15782860,
        "last_rank": 26827,
        "player_name": "Linus Westman",
        "rank": 42287,
        "rank_sort": 42316,
        "total": 2357
      },
      {
        "club_badge_src": null,
        "entry": 2278244,
        "entry_name": "Change Name",
        "event_total": 75,
        "has_played": true,
        "id": 16246018,
        "last_rank": 72662,
        "player_name": "Jeff Halpin",
        "rank": 42287,
        "rank_sort": 42317,
        "total": 2357
      },
      {
        "club_badge_src": null,
        "entry": 2347890,
        "entry_name": "HaCunhaMateta",
        "event_total": 44,
        "has_played": true,
        "id": 16752951,
        "last_rank": 27770,
        "player_name": "Connor Trae",
        "rank": 42287,
        "rank_sort": 42318,
        "total": 2357
      },
      {
        "club_badge_src": null,
        "entry": 2369186,
        "entry_name": "Pie Mash & Slicker",
        "event_total": 81,
        "has_played": true,
        "id": 16912112,
        "last_rank": 85932,
        "player_name": "Steve Wait",
        "rank": 42287,
        "rank_sort": 42319,
        "total": 2357
      },
      {
        "club_badge_src": null,
        "entry": 2384118,
        "entry_name": "CG FC",
        "event_total": 37,
        "has_played": true,
        "id": 17025252,
        "last_rank": 21775,
        "player_name": "Calum Gordon",
        "rank": 42287,
        "rank_sort": 42320,
        "total": 2357
      },
      {
        "club_badge_src": null,
        "entry": 2594193,
        "entry_name": "KeyDi",
        "event_total": 57,
        "has_played": true,
        "id": 18627055,
        "last_rank": 42434,
        "player_name": "Karim Dimassi",
        "rank": 42287,
        "rank_sort": 42321,
        "total": 2357
      },
      {
        "club_badge_src": null,
        "entry": 2612172,
        "entry_name": "Kamada Harris",
        "event_total": 48,
        "has_played": true,
        "id": 18767767,
        "last_rank": 31518,
        "player_name": "Tom Mac",
        "rank": 42287,
        "rank_sort": 42322,
        "total": 2357
      },
      {
        "club_badge_src": null,
        "entry": 2727404,
        "entry_name": "Bens Boys 25",
        "event_total": 51,
        "has_played": true,
        "id": 19626775,
        "last_rank": 34969,
        "player_name": "Ben Cook",
        "rank": 42287,
        "rank_sort": 42323,
        "total": 2357
      },
      {
        "club_badge_src": null,
        "entry": 2802517,
        "entry_name": "Havertz Got a Clue",
        "event_total": 52,
        "has_played": true,
        "id": 20465330,
        "last_rank": 36200,
        "player_name": "Matthew Burt",
        "rank": 42287,
        "rank_sort": 42324,
        "total": 2357
      },
      {
        "club_badge_src": null,
        "entry": 3031355,
        "entry_name": "Inuzuma eleven",
        "event_total": 57,
        "has_played": true,
        "id": 22306569,
        "last_rank": 42648,
        "player_name": "Sachin Rizal",
        "rank": 42287,
        "rank_sort": 42325,
        "total": 2357
      },
      {
        "club_badge_src": "https://fantasy.premierleague.com/gcs/plfpl-production-adobe-approved/plfpl-production/3104639/457dc988-54cb-4524-be31-e44c25e0aa93.png",
        "entry": 3104639,
        "entry_name": "Diogoals",
        "event_total": 56,
        "has_played": true,
        "id": 22890465,
        "last_rank": 41162,
        "player_name": "Matthieu Dufourcq",
        "rank": 42287,
        "rank_sort": 42326,
        "total": 2357
      },
      {
        "club_badge_src": null,
        "entry": 3572643,
        "entry_name": "Cole Palmergeddon",
        "event_total": 65,
        "has_played": true,
        "id": 26602409,
        "last_rank": 54380,
        "player_name": "Chris Warren",
        "rank": 42287,
        "rank_sort": 42327,
        "total": 2357
      },
      {
        "club_badge_src": null,
        "entry": 3804864,
        "entry_name": "Thee underdogs",
        "event_total": 66,
        "has_played": true,
        "id": 28445972,
        "last_rank": 56099,
        "player_name": "Agot Owen",
        "rank": 42287,
        "rank_sort": 42328,
        "total": 2357
      },
      {
        "club_badge_src": null,
        "entry": 3937969,
        "entry_name": "KhalidGoo",
        "event_total": 56,
        "has_played": true,
        "id": 29622045,
        "last_rank": 41101,
        "player_name": "Khalid Moh",
        "rank": 42287,
        "rank_sort": 42329,
        "total": 2357
      },
      {
        "club_badge_src": null,
        "entry": 3966678,
        "entry_name": "Hakuna Mateta",
        "event_total": 48,
        "has_played": true,
        "id": 29848174,
        "last_rank": 31556,
        "player_name": "Jack Blair",
        "rank": 42287,
        "rank_sort": 42330,
        "total": 2357
      },
      {
        "club_badge_src": null,
        "entry": 4047626,
        "entry_name": "Slide (A)",
        "event_total": 64,
        "has_played": true,
        "id": 30529755,
        "last_rank": 46591,
        "player_name": "Will Jeffries",
        "rank": 42287,
        "rank_sort": 42331,
        "total": 2357
      },
      {
        "club_badge_src": "https://fantasy.premierleague.com/gcs/plfpl-production-adobe-approved/plfpl-production/4229334/2c6b6574-d90a-4d9a-8c71-cc960096f03d.png",
        "entry": 4229334,
        "entry_name": "B\u00f8tteballetten",
        "event_total": 72,
        "has_played": true,
        "id": 32043994,
        "last_rank": 66738,
        "player_name": "Ove Kristensen",
        "rank": 42287,
        "rank_sort": 42332,
        "total": 2357
      },
      {
        "club_badge_src": null,
        "entry": 4301826,
        "entry_name": "babydrill",
        "event_total": 55,
        "has_played": true,
        "id": 32636905,
        "last_rank": 39784,
        "player_name": "Jules Van Der Linden",
        "rank": 42287,
        "rank_sort": 42333,
        "total": 2357
      },
      {
        "club_badge_src": null,
        "entry": 4587602,
        "entry_name": "Lively down the Lane",
        "event_total": 57,
        "has_played": true,
        "id": 35028384,
        "last_rank": 42506,
        "player_name": "Richard Jakes",
        "rank": 42287,
        "rank_sort": 42334,
        "total": 2357
      },
      {
        "club_badge_src": null,
        "entry": 4716263,
        "entry_name": "Tasty TATY FC",
        "event_total": 58,
        "has_played": true,
        "id": 36211971,
        "last_rank": 43849,
        "player_name": "Nikko Alcalde",
        "rank": 42287,
        "rank_sort": 42335,
        "total": 2357
      },
      {
        "club_badge_src": null,
        "entry": 4750488,
        "entry_name": "Good Kid AMAD City",
        "event_total": 68,
        "has_played": true,
        "id": 36554818,
        "last_rank": 59475,
        "player_name": "James R",
        "rank": 42287,
        "rank_sort": 42336,
        "total": 2357
      },
      {
        "club_badge_src": null,
        "entry": 4833208,
        "entry_name": "Ramzi_team",
        "event_total": 56,
        "has_played": true,
        "id": 37227045,
        "last_rank": 41324,
        "player_name": "saadi ramzi",
        "rank": 42287,
        "rank_sort": 42337,
        "total": 2357
      },
      {
        "club_badge_src": null,
        "entry": 4975087,
        "entry_name": "Pinky and De Bruyne",
        "event_total": 59,
        "has_played": true,
        "id": 38402449,
        "last_rank": 45252,
        "player_name": "Emma D-Costa",
        "rank": 42287,
        "rank_sort": 42338,
        "total": 2357
      },
      {
        "club_badge_src": null,
        "entry": 5042684,
        "entry_name": "FC Goransson",
        "event_total": 63,
        "has_played": true,
        "id": 38952028,
        "last_rank": 51220,
        "player_name": "Felix G\u00f6ransson",
        "rank": 42287,
        "rank_sort": 42339,
        "total": 2357
      },
      {
        "club_badge_src": null,
        "entry": 5679719,
        "entry_name": "japale\u00f1o",
        "event_total": 57,
        "has_played": true,
        "id": 44452807,
        "last_rank": 42434,
        "player_name": "Alexander Persson",
        "rank": 42287,
        "rank_sort": 42340,
        "total": 2357
      },
      {
        "club_badge_src": null,
        "entry": 5784037,
        "entry_name": "Custom's  F.C",
        "event_total": 93,
        "has_played": true,
        "id": 45357869,
        "last_rank": 116835,
        "player_name": "Ayoub Ayoub",
        "rank": 42287,
        "rank_sort": 42341,
        "total": 2357
      },
      {
        "club_badge_src": null,
        "entry": 5837377,
        "entry_name": "FPL MG",
        "event_total": 54,
        "has_played": true,
        "id": 45820755,
        "last_rank": 38644,
        "player_name": "Manish Gudka",
        "rank": 42287,
        "rank_sort": 42342,
        "total": 2357
      },
      {
        "club_badge_src": null,
        "entry": 6028125,
        "entry_name": "Johnny Red",
        "event_total": 56,
        "has_played": true,
        "id": 47548980,
        "last_rank": 41324,
        "player_name": "Jon Fearn",
        "rank": 42287,
        "rank_sort": 42343,
        "total": 2357
      },
      {
        "club_badge_src": null,
        "entry": 6440465,
        "entry_name": "BBB",
        "event_total": 55,
        "has_played": true,
        "id": 51277813,
        "last_rank": 39816,
        "player_name": "Hudson De Bortoli",
        "rank": 42287,
        "rank_sort": 42344,
        "total": 2357
      },
      {
        "club_badge_src": null,
        "entry": 6457024,
        "entry_name": "Harrache fares",
        "event_total": 60,
        "has_played": true,
        "id": 51427974,
        "last_rank": 46660,
        "player_name": "fares harrache",
        "rank": 42287,
        "rank_sort": 42345,
        "total": 2357
      },
      {
        "club_badge_src": "https://fantasy.premierleague.com/gcs/plfpl-production-adobe-approved/plfpl-production/6561638/82332b19-36e6-4f3b-bdbe-cac0605846d6.png",
        "entry": 6561638,
        "entry_name": "nORm@l -1-",
        "event_total": 69,
        "has_played": true,
        "id": 52370594,
        "last_rank": 61606,
        "player_name": "P1 SSP",
        "rank": 42287,
        "rank_sort": 42346,
        "total": 2357
      },
      {
        "club_badge_src": null,
        "entry": 6669407,
        "entry_name": "Wirtz case scenario",
        "event_total": 58,
        "has_played": true,
        "id": 53339671,
        "last_rank": 43849,
        "player_name": "Peter Thomas",
        "rank": 42287,
        "rank_sort": 42347,
        "total": 2357
      },
      {
        "club_badge_src": null,
        "entry": 6823911,
        "entry_name": "Mathletico Madrid",
        "event_total": 56,
        "has_played": true,
        "id": 54657331,
        "last_rank": 41324,
        "player_name": "Michelle Ledbetter",
        "rank": 42287,
        "rank_sort": 42348,
        "total": 2357
      },
      {
        "club_badge_src": null,
        "entry": 7076283,
        "entry_name": "Rudolphthereijnders",
        "event_total": 57,
        "has_played": true,
        "id": 56948519,
        "last_rank": 42434,
        "player_name": "Jack Buckley",
        "rank": 42287,
        "rank_sort": 42349,
        "total": 2357
      },
      {
        "club_badge_src": null,
        "entry": 7375645,
        "entry_name": "Kirkekoret",
        "event_total": 66,
        "has_played": true,
        "id": 59786397,
        "last_rank": 56099,
        "player_name": "J\u00f8rgen Kirkeb\u00f8en",
        "rank": 42287,
        "rank_sort": 42350,
        "total": 2357
      }
    ]
  }
}