{
  "last_updated_data": "2026-05-24T23:28:17Z",
  "league": {
    "admin_entry": null,
    "closed": false,
    "code_privacy": "p",
    "created": "2025-07-20T23:14:33.933835Z",
    "cup_league": 2815434,
    "has_cup": true,
    "id": 314,
    "league_type": "s",
    "max_entries": null,
    "name": "Overall",
    "rank": null,
    "scoring": "c",
    "start_event": 1
  },
  "new_entries": {
    "has_next": false,
    "page": 1,
    "results": []
  },
  "standings": {
    "has_next": true,
    "page": 966,
    "results": [
      {
        "club_badge_src": null,
        "entry": 428114,
        "entry_name": "Obi wan - Kenobi nil",
        "event_total": 77,
        "has_played": true,
        "id": 2871444,
        "last_rank": 86304,
        "player_name": "Colm Donnelly",
        "rank": 48181,
        "rank_sort": 48251,
        "total": 2353
      },
      {
        "club_badge_src": null,
        "entry": 453559,
        "entry_name": "Bizkit United",
        "event_total": 62,
        "has_played": true,
        "id": 3042486,
        "last_rank": 56180,
        "player_name": "Kittikun Pongsasithorn",
        "rank": 48181,
        "rank_sort": 48252,
        "total": 2353
      },
      {
        "club_badge_src": null,
        "entry": 466677,
        "entry_name": "Maguire'd & Inspired",
        "event_total": 64,
        "has_played": true,
        "id": 3131245,
        "last_rank": 60168,
        "player_name": "Jonas Smyth",
        "rank": 48181,
        "rank_sort": 48253,
        "total": 2353
      },
      {
        "club_badge_src": null,
        "entry": 476000,
        "entry_name": "Sonshine",
        "event_total": 61,
        "has_played": true,
        "id": 3195292,
        "last_rank": 55014,
        "player_name": "Finlay Stuart",
        "rank": 48181,
        "rank_sort": 48254,
        "total": 2353
      },
      {
        "club_badge_src": null,
        "entry": 476161,
        "entry_name": "Donna's Blue Army \ufffd",
        "event_total": 58,
        "has_played": true,
        "id": 3196336,
        "last_rank": 50199,
        "player_name": "Donna Marshall",
        "rank": 48181,
        "rank_sort": 48255,
        "total": 2353
      },
      {
        "club_badge_src": null,
        "entry": 482488,
        "entry_name": "Frimp My Ride",
        "event_total": 57,
        "has_played": true,
        "id": 3238960,
        "last_rank": 48363,
        "player_name": "Namaan Ali",
        "rank": 48181,
        "rank_sort": 48256,
        "total": 2353
      },
      {
        "club_badge_src": null,
        "entry": 489761,
        "entry_name": "ari likes men",
        "event_total": 66,
        "has_played": true,
        "id": 3287900,
        "last_rank": 63390,
        "player_name": "Ari Is Zesty",
        "rank": 48181,
        "rank_sort": 48257,
        "total": 2353
      },
      {
        "club_badge_src": null,
        "entry": 499841,
        "entry_name": "Kroos Control",
        "event_total": 63,
        "has_played": true,
        "id": 3354607,
        "last_rank": 58388,
        "player_name": "Robbie Lauder",
        "rank": 48181,
        "rank_sort": 48258,
        "total": 2353
      },
      {
        "club_badge_src": "https://fantasy.premierleague.com/gcs/plfpl-production-adobe-approved/plfpl-production/515729/ec1ee467-5236-4a80-b30e-2c185c642c71.png",
        "entry": 515729,
        "entry_name": "Girontondo",
        "event_total": 75,
        "has_played": true,
        "id": 3462558,
        "last_rank": 81646,
        "player_name": "Roman Jelenik",
        "rank": 48181,
        "rank_sort": 48259,
        "total": 2353
      },
      {
        "club_badge_src": null,
        "entry": 583161,
        "entry_name": "TottenhamTwo Return",
        "event_total": 63,
        "has_played": true,
        "id": 3924511,
        "last_rank": 58388,
        "player_name": "William Hayward",
        "rank": 48181,
        "rank_sort": 48260,
        "total": 2353
      },
      {
        "club_badge_src": null,
        "entry": 583210,
        "entry_name": "Blowww",
        "event_total": 65,
        "has_played": true,
        "id": 3924848,
        "last_rank": 54667,
        "player_name": "Idowu Owolabi",
        "rank": 48181,
        "rank_sort": 48261,
        "total": 2353
      },
      {
        "club_badge_src": "https://fantasy.premierleague.com/gcs/plfpl-production-adobe-approved/plfpl-production/589957/2c7e6c46-5836-4315-85a8-0c5aa3146a38.png",
        "entry": 589957,
        "entry_name": "Iwobi-Wan Kenobi",
        "event_total": 57,
        "has_played": true,
        "id": 3973824,
        "last_rank": 48197,
        "player_name": "Keanan Rolph",
        "rank": 48181,
        "rank_sort": 48262,
        "total": 2353
      },
      {
        "club_badge_src": null,
        "entry": 599701,
        "entry_name": "Isaktly",
        "event_total": 59,
        "has_played": true,
        "id": 4045434,
        "last_rank": 51984,
        "player_name": "Petey McCormick",
        "rank": 48181,
        "rank_sort": 48263,
        "total": 2353
      },
      {
        "club_badge_src": null,
        "entry": 610916,
        "entry_name": "Panic at the Isco",
        "event_total": 65,
        "has_played": true,
        "id": 4127623,
        "last_rank": 54667,
        "player_name": "Dan Owen",
        "rank": 48181,
        "rank_sort": 48264,
        "total": 2353
      },
      {
        "club_badge_src": null,
        "entry": 626871,
        "entry_name": "In the Slot",
        "event_total": 62,
        "has_played": true,
        "id": 4236168,
        "last_rank": 56708,
        "player_name": "Paul Hampton",
        "rank": 48181,
        "rank_sort": 48265,
        "total": 2353
      },
      {
        "club_badge_src": null,
        "entry": 650040,
        "entry_name": "Botman Begins",
        "event_total": 66,
        "has_played": true,
        "id": 4393098,
        "last_rank": 63724,
        "player_name": "Mark Balmbra",
        "rank": 48181,
        "rank_sort": 48266,
        "total": 2353
      },
      {
        "club_badge_src": null,
        "entry": 666889,
        "entry_name": "Sergio Woof",
        "event_total": 46,
        "has_played": true,
        "id": 4509093,
        "last_rank": 34293,
        "player_name": "Will Cawte",
        "rank": 48181,
        "rank_sort": 48267,
        "total": 2353
      },
      {
        "club_badge_src": null,
        "entry": 671769,
        "entry_name": "Lethal Grizzle FC",
        "event_total": 62,
        "has_played": true,
        "id": 4543823,
        "last_rank": 56708,
        "player_name": "James Grisley",
        "rank": 48181,
        "rank_sort": 48268,
        "total": 2353
      },
      {
        "club_badge_src": null,
        "entry": 727804,
        "entry_name": "FPLtotheMax",
        "event_total": 56,
        "has_played": true,
        "id": 4944671,
        "last_rank": 47417,
        "player_name": "Max Smithson",
        "rank": 48181,
        "rank_sort": 48269,
        "total": 2353
      },
      {
        "club_badge_src": null,
        "entry": 731661,
        "entry_name": "Yorky's HR Hustlers",
        "event_total": 65,
        "has_played": true,
        "id": 4971845,
        "last_rank": 61950,
        "player_name": "Flynn Cray",
        "rank": 48181,
        "rank_sort": 48270,
        "total": 2353
      },
      {
        "club_badge_src": null,
        "entry": 743730,
        "entry_name": "Los Narcos",
        "event_total": 46,
        "has_played": true,
        "id": 5059078,
        "last_rank": 34293,
        "player_name": "Silvio Scheavi",
        "rank": 48181,
        "rank_sort": 48271,
        "total": 2353
      },
      {
        "club_badge_src": null,
        "entry": 770616,
        "entry_name": "Zubi, or not Zubi",
        "event_total": 44,
        "has_played": true,
        "id": 5256946,
        "last_rank": 32190,
        "player_name": "D\u00f3ri \u00d3li",
        "rank": 48181,
        "rank_sort": 48272,
        "total": 2353
      },
      {
        "club_badge_src": null,
        "entry": 771994,
        "entry_name": "laurenssierens",
        "event_total": 41,
        "has_played": true,
        "id": 5266646,
        "last_rank": 29071,
        "player_name": "Laurens Sierens",
        "rank": 48181,
        "rank_sort": 48273,
        "total": 2353
      },
      {
        "club_badge_src": null,
        "entry": 845938,
        "entry_name": "DHJ",
        "event_total": 51,
        "has_played": true,
        "id": 5796143,
        "last_rank": 40297,
        "player_name": "ahmed Moltazim",
        "rank": 48181,
        "rank_sort": 48274,
        "total": 2353
      },
      {
        "club_badge_src": null,
        "entry": 847409,
        "entry_name": "Final Chapter",
        "event_total": 67,
        "has_played": true,
        "id": 5807608,
        "last_rank": 65163,
        "player_name": "saiful izwan",
        "rank": 48181,
        "rank_sort": 48275,
        "total": 2353
      },
      {
        "club_badge_src": null,
        "entry": 853043,
        "entry_name": "Wayz for the Win",
        "event_total": 60,
        "has_played": true,
        "id": 5847067,
        "last_rank": 52853,
        "player_name": "Emiliano Reveron",
        "rank": 48181,
        "rank_sort": 48276,
        "total": 2353
      },
      {
        "club_badge_src": "https://fantasy.premierleague.com/gcs/plfpl-production-adobe-approved/plfpl-production/872153/02537b06-deca-479f-b209-e96c5dd5f09a.png",
        "entry": 872153,
        "entry_name": "Zero FC",
        "event_total": 68,
        "has_played": true,
        "id": 5979339,
        "last_rank": 67063,
        "player_name": "Zayar Zy",
        "rank": 48181,
        "rank_sort": 48277,
        "total": 2353
      },
      {
        "club_badge_src": null,
        "entry": 887253,
        "entry_name": "Free Palestine",
        "event_total": 44,
        "has_played": true,
        "id": 6085452,
        "last_rank": 32190,
        "player_name": "Mu7ammad Yasser",
        "rank": 48181,
        "rank_sort": 48278,
        "total": 2353
      },
      {
        "club_badge_src": "https://fantasy.premierleague.com/gcs/plfpl-production-adobe-approved/plfpl-production/908040/96561a62-3ba6-43cc-8764-8fab858d6507.png",
        "entry": 908040,
        "entry_name": "Royal FC",
        "event_total": 62,
        "has_played": true,
        "id": 6241963,
        "last_rank": 56708,
        "player_name": "Petar Stojanovic",
        "rank": 48181,
        "rank_sort": 48279,
        "total": 2353
      },
      {
        "club_badge_src": null,
        "entry": 918013,
        "entry_name": "Jurginho",
        "event_total": 55,
        "has_played": true,
        "id": 6313036,
        "last_rank": 45416,
        "player_name": "Jurgen Degraeve",
        "rank": 48181,
        "rank_sort": 48280,
        "total": 2353
      },
      {
        "club_badge_src": null,
        "entry": 925469,
        "entry_name": "Your Wirtz Nightmare",
        "event_total": 87,
        "has_played": true,
        "id": 6366739,
        "last_rank": 112169,
        "player_name": "Tiago Santos",
        "rank": 48181,
        "rank_sort": 48281,
        "total": 2353
      },
      {
        "club_badge_src": null,
        "entry": 930117,
        "entry_name": "zombiekiller",
        "event_total": 53,
        "has_played": true,
        "id": 6399774,
        "last_rank": 43168,
        "player_name": "Martin Misaghi",
        "rank": 48181,
        "rank_sort": 48282,
        "total": 2353
      },
      {
        "club_badge_src": null,
        "entry": 939917,
        "entry_name": "Mantap fc",
        "event_total": 68,
        "has_played": true,
        "id": 6469182,
        "last_rank": 67422,
        "player_name": "Sapiz Halim",
        "rank": 48181,
        "rank_sort": 48283,
        "total": 2353
      },
      {
        "club_badge_src": null,
        "entry": 967015,
        "entry_name": "Optimus Clyne",
        "event_total": 57,
        "has_played": true,
        "id": 6664860,
        "last_rank": 48642,
        "player_name": "Aryn Matthee",
        "rank": 48181,
        "rank_sort": 48284,
        "total": 2353
      },
      {
        "club_badge_src": null,
        "entry": 977907,
        "entry_name": "Liam Delap Dancer",
        "event_total": 63,
        "has_played": true,
        "id": 6741696,
        "last_rank": 58071,
        "player_name": "Andy Howlett",
        "rank": 48181,
        "rank_sort": 48285,
        "total": 2353
      },
      {
        "club_badge_src": null,
        "entry": 996109,
        "entry_name": "DirtyWhites",
        "event_total": 67,
        "has_played": true,
        "id": 6877207,
        "last_rank": 64943,
        "player_name": "Abhinav Shukla",
        "rank": 48181,
        "rank_sort": 48286,
        "total": 2353
      },
      {
        "club_badge_src": null,
        "entry": 998502,
        "entry_name": "1pils&4fernet",
        "event_total": 57,
        "has_played": true,
        "id": 6899783,
        "last_rank": 48363,
        "player_name": "Sandra Shani Myhre",
        "rank": 48181,
        "rank_sort": 48287,
        "total": 2353
      },
      {
        "club_badge_src": null,
        "entry": 1042559,
        "entry_name": "Sassine",
        "event_total": 59,
        "has_played": true,
        "id": 7214729,
        "last_rank": 51403,
        "player_name": "Kevin Sassine",
        "rank": 48181,
        "rank_sort": 48288,
        "total": 2353
      },
      {
        "club_badge_src": "https://fantasy.premierleague.com/gcs/plfpl-production-adobe-approved/plfpl-production/1054534/8c64f5ad-e870-463a-ac48-22a8ddc157a4.png",
        "entry": 1054534,
        "entry_name": "AVC 123",
        "event_total": 63,
        "has_played": true,
        "id": 7298154,
        "last_rank": 51403,
        "player_name": "Luke Soper",
        "rank": 48181,
        "rank_sort": 48289,
        "total": 2353
      },
      {
        "club_badge_src": null,
        "entry": 1054761,
        "entry_name": "TheatreofMemes",
        "event_total": 71,
        "has_played": true,
        "id": 7299668,
        "last_rank": 73423,
        "player_name": "Peter Edge",
        "rank": 48181,
        "rank_sort": 48290,
        "total": 2353
      },
      {
        "club_badge_src": null,
        "entry": 1073126,
        "entry_name": "Borussia Teeth",
        "event_total": 54,
        "has_played": true,
        "id": 7429365,
        "last_rank": 43849,
        "player_name": "Benjamin Cross",
        "rank": 48181,
        "rank_sort": 48291,
        "total": 2353
      },
      {
        "club_badge_src": null,
        "entry": 1078673,
        "entry_name": "Timoth\u00e9e Chalamet",
        "event_total": 63,
        "has_played": true,
        "id": 7468784,
        "last_rank": 58071,
        "player_name": "henry mcnally",
        "rank": 48181,
        "rank_sort": 48292,
        "total": 2353
      },
      {
        "club_badge_src": null,
        "entry": 1099090,
        "entry_name": "Sch\u00e4r-este",
        "event_total": 62,
        "has_played": true,
        "id": 7612906,
        "last_rank": 56708,
        "player_name": "Tore Johansen",
        "rank": 48181,
        "rank_sort": 48293,
        "total": 2353
      },
      {
        "club_badge_src": null,
        "entry": 1146459,
        "entry_name": "Borussia Bobbins",
        "event_total": 70,
        "has_played": true,
        "id": 7948882,
        "last_rank": 70757,
        "player_name": "Richard Wynn-Davies",
        "rank": 48181,
        "rank_sort": 48294,
        "total": 2353
      },
      {
        "club_badge_src": null,
        "entry": 1160505,
        "entry_name": "Change Name",
        "event_total": 63,
        "has_played": true,
        "id": 8050272,
        "last_rank": 58388,
        "player_name": "jimmy oliver",
        "rank": 48181,
        "rank_sort": 48295,
        "total": 2353
      },
      {
        "club_badge_src": null,
        "entry": 1165179,
        "entry_name": "Bruno dos tres",
        "event_total": 51,
        "has_played": true,
        "id": 8082774,
        "last_rank": 40297,
        "player_name": "Rohan Budon",
        "rank": 48181,
        "rank_sort": 48296,
        "total": 2353
      },
      {
        "club_badge_src": null,
        "entry": 1192089,
        "entry_name": "A Cunha Mateta",
        "event_total": 72,
        "has_played": true,
        "id": 8271179,
        "last_rank": 67063,
        "player_name": "Josh Blake",
        "rank": 48181,
        "rank_sort": 48297,
        "total": 2353
      },
      {
        "club_badge_src": null,
        "entry": 1207675,
        "entry_name": "Dude, Where's Micah?",
        "event_total": 68,
        "has_played": true,
        "id": 8381059,
        "last_rank": 59813,
        "player_name": "Myles Duke",
        "rank": 48181,
        "rank_sort": 48298,
        "total": 2353
      },
      {
        "club_badge_src": null,
        "entry": 1214807,
        "entry_name": "bit' \u0107e sni'ga",
        "event_total": 78,
        "has_played": true,
        "id": 8432004,
        "last_rank": 89055,
        "player_name": "Petar Sainovic",
        "rank": 48181,
        "rank_sort": 48299,
        "total": 2353
      },
      {
        "club_badge_src": null,
        "entry": 1249513,
        "entry_name": "UTD_GGMU",
        "event_total": 58,
        "has_played": true,
        "id": 8677882,
        "last_rank": 49691,
        "player_name": "Sanzar Alam",
        "rank": 48181,
        "rank_sort": 48300,
        "total": 2353
      }
    ]
  }
}