{
  "last_updated_data": "2026-05-24T23:28:17Z",
  "league": {
    "admin_entry": null,
    "closed": false,
    "code_privacy": "p",
    "created": "2025-07-20T23:14:33.933835Z",
    "cup_league": 2815434,
    "has_cup": true,
    "id": 314,
    "league_type": "s",
    "max_entries": null,
    "name": "Overall",
    "rank": null,
    "scoring": "c",
    "start_event": 1
  },
  "new_entries": {
    "has_next": false,
    "page": 1,
    "results": []
  },
  "standings": {
    "has_next": true,
    "page": 1098,
    "results": [
      {
        "club_badge_src": null,
        "entry": 2304,
        "entry_name": "Ullared Headhunters",
        "event_total": 65,
        "has_played": true,
        "id": 12838,
        "last_rank": 69641,
        "player_name": "Joakim Reinhardt",
        "rank": 54848,
        "rank_sort": 54851,
        "total": 2349
      },
      {
        "club_badge_src": null,
        "entry": 5068,
        "entry_name": "Leeds the way",
        "event_total": 66,
        "has_played": true,
        "id": 28866,
        "last_rank": 71956,
        "player_name": "Luke Bexley",
        "rank": 54848,
        "rank_sort": 54852,
        "total": 2349
      },
      {
        "club_badge_src": null,
        "entry": 9286,
        "entry_name": "Curl up Ndiaye",
        "event_total": 53,
        "has_played": true,
        "id": 54532,
        "last_rank": 49078,
        "player_name": "Sam Inchley",
        "rank": 54848,
        "rank_sort": 54853,
        "total": 2349
      },
      {
        "club_badge_src": null,
        "entry": 10761,
        "entry_name": "Caldas United",
        "event_total": 61,
        "has_played": true,
        "id": 63728,
        "last_rank": 62223,
        "player_name": "Daniel Gerson Marques",
        "rank": 54848,
        "rank_sort": 54854,
        "total": 2349
      },
      {
        "club_badge_src": null,
        "entry": 12505,
        "entry_name": "Master Oogway",
        "event_total": 61,
        "has_played": true,
        "id": 74915,
        "last_rank": 55311,
        "player_name": "Doctor Strange",
        "rank": 54848,
        "rank_sort": 54855,
        "total": 2349
      },
      {
        "club_badge_src": "https://fantasy.premierleague.com/gcs/plfpl-production-adobe-approved/plfpl-production/12529/86979002-2e20-4c6d-a2c8-0adf02379ba7.png",
        "entry": 12529,
        "entry_name": "Eskimosy",
        "event_total": 63,
        "has_played": true,
        "id": 75073,
        "last_rank": 51403,
        "player_name": "Miko\u0142aj Kabaci\u0144ski",
        "rank": 54848,
        "rank_sort": 54856,
        "total": 2349
      },
      {
        "club_badge_src": null,
        "entry": 14467,
        "entry_name": "Rock and Roll Sarr",
        "event_total": 59,
        "has_played": true,
        "id": 87874,
        "last_rank": 51720,
        "player_name": "Kate Bolger",
        "rank": 54848,
        "rank_sort": 54857,
        "total": 2349
      },
      {
        "club_badge_src": null,
        "entry": 14649,
        "entry_name": "The GONEmundssons",
        "event_total": 68,
        "has_played": true,
        "id": 89095,
        "last_rank": 76128,
        "player_name": "Jonathon masters",
        "rank": 54848,
        "rank_sort": 54858,
        "total": 2349
      },
      {
        "club_badge_src": "https://fantasy.premierleague.com/gcs/plfpl-production-adobe-approved/plfpl-production/14720/7cb1c3e1-331b-4bdc-889e-93e2a161797d.png",
        "entry": 14720,
        "entry_name": "Haaland Grass",
        "event_total": 47,
        "has_played": true,
        "id": 89611,
        "last_rank": 35619,
        "player_name": "Ronan Lawlor",
        "rank": 54848,
        "rank_sort": 54859,
        "total": 2349
      },
      {
        "club_badge_src": null,
        "entry": 18312,
        "entry_name": "Maccamura FC",
        "event_total": 67,
        "has_played": true,
        "id": 113892,
        "last_rank": 65475,
        "player_name": "Cormac O'Neill",
        "rank": 54848,
        "rank_sort": 54860,
        "total": 2349
      },
      {
        "club_badge_src": "https://fantasy.premierleague.com/gcs/plfpl-production-adobe-approved/plfpl-production/18314/6bf32016-f33e-4e31-8bc2-c35a41c0234c.png",
        "entry": 18314,
        "entry_name": "FLINT DOGG",
        "event_total": 66,
        "has_played": true,
        "id": 113901,
        "last_rank": 71956,
        "player_name": "James Flint",
        "rank": 54848,
        "rank_sort": 54861,
        "total": 2349
      },
      {
        "club_badge_src": null,
        "entry": 28663,
        "entry_name": "FintVaer FC",
        "event_total": 70,
        "has_played": true,
        "id": 181216,
        "last_rank": 80465,
        "player_name": "Andreas \u00d8stigaard",
        "rank": 54848,
        "rank_sort": 54862,
        "total": 2349
      },
      {
        "club_badge_src": null,
        "entry": 30418,
        "entry_name": "missed the deadline",
        "event_total": 64,
        "has_played": true,
        "id": 192498,
        "last_rank": 60462,
        "player_name": "Jonathan Kearney",
        "rank": 54848,
        "rank_sort": 54863,
        "total": 2349
      },
      {
        "club_badge_src": null,
        "entry": 30457,
        "entry_name": "Woody Woo's",
        "event_total": 50,
        "has_played": true,
        "id": 192759,
        "last_rank": 44672,
        "player_name": "Mitchell Lupton",
        "rank": 54848,
        "rank_sort": 54864,
        "total": 2349
      },
      {
        "club_badge_src": null,
        "entry": 33643,
        "entry_name": "Stevicini Nosorozi",
        "event_total": 56,
        "has_played": true,
        "id": 214634,
        "last_rank": 53837,
        "player_name": "Aleksandar \u0110or\u0111evi\u0107",
        "rank": 54848,
        "rank_sort": 54865,
        "total": 2349
      },
      {
        "club_badge_src": null,
        "entry": 38270,
        "entry_name": "XERXES",
        "event_total": 63,
        "has_played": true,
        "id": 245257,
        "last_rank": 65796,
        "player_name": "Khadar mohamed",
        "rank": 54848,
        "rank_sort": 54866,
        "total": 2349
      },
      {
        "club_badge_src": null,
        "entry": 43983,
        "entry_name": "Oddy's Bodies",
        "event_total": 56,
        "has_played": true,
        "id": 281782,
        "last_rank": 47417,
        "player_name": "Tom ODonnell",
        "rank": 54848,
        "rank_sort": 54867,
        "total": 2349
      },
      {
        "club_badge_src": null,
        "entry": 45710,
        "entry_name": "Ninja \u0160krtels",
        "event_total": 30,
        "has_played": true,
        "id": 293208,
        "last_rank": 22921,
        "player_name": "Ethan West",
        "rank": 54848,
        "rank_sort": 54868,
        "total": 2349
      },
      {
        "club_badge_src": null,
        "entry": 48110,
        "entry_name": "FCB",
        "event_total": 74,
        "has_played": true,
        "id": 308832,
        "last_rank": 70985,
        "player_name": "Oscar Verlander",
        "rank": 54848,
        "rank_sort": 54869,
        "total": 2349
      },
      {
        "club_badge_src": "https://fantasy.premierleague.com/gcs/plfpl-production-adobe-approved/plfpl-production/75069/a0374d41-fbb7-42b2-8a55-aabefd02d51f.png",
        "entry": 75069,
        "entry_name": "Jota be Remembered",
        "event_total": 66,
        "has_played": true,
        "id": 488034,
        "last_rank": 64005,
        "player_name": "Mit Patel",
        "rank": 54848,
        "rank_sort": 54870,
        "total": 2349
      },
      {
        "club_badge_src": null,
        "entry": 78837,
        "entry_name": "Oat",
        "event_total": 67,
        "has_played": true,
        "id": 512572,
        "last_rank": 73720,
        "player_name": "Perathit Chanhom",
        "rank": 54848,
        "rank_sort": 54871,
        "total": 2349
      },
      {
        "club_badge_src": "https://fantasy.premierleague.com/gcs/plfpl-production-adobe-approved/plfpl-production/80831/9be63bda-2e85-4356-bc1f-2dcffb8416f4.png",
        "entry": 80831,
        "entry_name": "Reecegrynsgr\u00f6t",
        "event_total": 41,
        "has_played": true,
        "id": 525867,
        "last_rank": 33483,
        "player_name": "Joakim Olsson",
        "rank": 54848,
        "rank_sort": 54872,
        "total": 2349
      },
      {
        "club_badge_src": "https://fantasy.premierleague.com/gcs/plfpl-production-adobe-approved/plfpl-production/88560/9e89e5b1-8d03-4346-ba5b-8b65fc12859c.png",
        "entry": 88560,
        "entry_name": "PradipBecks",
        "event_total": 68,
        "has_played": true,
        "id": 577916,
        "last_rank": 75874,
        "player_name": "Pradip Hamal",
        "rank": 54848,
        "rank_sort": 54873,
        "total": 2349
      },
      {
        "club_badge_src": null,
        "entry": 105008,
        "entry_name": "Cameroon Diaz",
        "event_total": 50,
        "has_played": true,
        "id": 684924,
        "last_rank": 44672,
        "player_name": "Jack Taylor",
        "rank": 54848,
        "rank_sort": 54874,
        "total": 2349
      },
      {
        "club_badge_src": null,
        "entry": 109435,
        "entry_name": "Nevizade City",
        "event_total": 50,
        "has_played": true,
        "id": 713526,
        "last_rank": 44672,
        "player_name": "Stephen Bootle",
        "rank": 54848,
        "rank_sort": 54875,
        "total": 2349
      },
      {
        "club_badge_src": "https://fantasy.premierleague.com/gcs/plfpl-production-adobe-approved/plfpl-production/115221/851804f2-be73-449e-811a-bac47687392e.png",
        "entry": 115221,
        "entry_name": "Ashish XI",
        "event_total": 59,
        "has_played": true,
        "id": 751912,
        "last_rank": 51984,
        "player_name": "Ashish Ghalke",
        "rank": 54848,
        "rank_sort": 54876,
        "total": 2349
      },
      {
        "club_badge_src": "https://fantasy.premierleague.com/gcs/plfpl-production-adobe-approved/plfpl-production/124842/16cb2f1a-f3ed-4bf3-a2a9-a3281fcef2f3.png",
        "entry": 124842,
        "entry_name": "Whatever FC \ufffd",
        "event_total": 60,
        "has_played": true,
        "id": 814253,
        "last_rank": 60671,
        "player_name": "Anas CDM",
        "rank": 54848,
        "rank_sort": 54877,
        "total": 2349
      },
      {
        "club_badge_src": "https://fantasy.premierleague.com/gcs/plfpl-production-adobe-approved/plfpl-production/144135/ba480c64-5ef4-4cf5-9808-e70822da525d.png",
        "entry": 144135,
        "entry_name": "PLOOER FC",
        "event_total": 46,
        "has_played": true,
        "id": 943291,
        "last_rank": 34293,
        "player_name": "Chiradechwiroj Jirapas",
        "rank": 54848,
        "rank_sort": 54878,
        "total": 2349
      },
      {
        "club_badge_src": null,
        "entry": 153532,
        "entry_name": "La Carrington",
        "event_total": 68,
        "has_played": true,
        "id": 1008259,
        "last_rank": 75537,
        "player_name": "Akid Zafran",
        "rank": 54848,
        "rank_sort": 54879,
        "total": 2349
      },
      {
        "club_badge_src": null,
        "entry": 170559,
        "entry_name": "Slot Machine",
        "event_total": 64,
        "has_played": true,
        "id": 1126860,
        "last_rank": 67926,
        "player_name": "Cillian Gilligan",
        "rank": 54848,
        "rank_sort": 54880,
        "total": 2349
      },
      {
        "club_badge_src": null,
        "entry": 189205,
        "entry_name": "Death Eaters FC",
        "event_total": 58,
        "has_played": true,
        "id": 1252296,
        "last_rank": 50468,
        "player_name": "Henrik Niklasson",
        "rank": 54848,
        "rank_sort": 54881,
        "total": 2349
      },
      {
        "club_badge_src": null,
        "entry": 219411,
        "entry_name": "Supersonic United",
        "event_total": 61,
        "has_played": true,
        "id": 1459139,
        "last_rank": 48642,
        "player_name": "Jordan Wood",
        "rank": 54848,
        "rank_sort": 54882,
        "total": 2349
      },
      {
        "club_badge_src": null,
        "entry": 224761,
        "entry_name": "Hammers",
        "event_total": 68,
        "has_played": true,
        "id": 1495156,
        "last_rank": 67063,
        "player_name": "Joshua Hamlyn",
        "rank": 54848,
        "rank_sort": 54883,
        "total": 2349
      },
      {
        "club_badge_src": null,
        "entry": 225158,
        "entry_name": "I Will Still Lose",
        "event_total": 63,
        "has_played": true,
        "id": 1497807,
        "last_rank": 66057,
        "player_name": "marshall tarrant",
        "rank": 54848,
        "rank_sort": 54884,
        "total": 2349
      },
      {
        "club_badge_src": "https://fantasy.premierleague.com/gcs/plfpl-production-adobe-approved/plfpl-production/228817/54c818e7-0748-4615-aee6-cbc823435731.png",
        "entry": 228817,
        "entry_name": "Mind in the Rutter",
        "event_total": 64,
        "has_played": true,
        "id": 1522332,
        "last_rank": 67926,
        "player_name": "Brian McSteen",
        "rank": 54848,
        "rank_sort": 54885,
        "total": 2349
      },
      {
        "club_badge_src": null,
        "entry": 241734,
        "entry_name": "alishams_09",
        "event_total": 53,
        "has_played": true,
        "id": 1609024,
        "last_rank": 43168,
        "player_name": "Ali Shams",
        "rank": 54848,
        "rank_sort": 54886,
        "total": 2349
      },
      {
        "club_badge_src": null,
        "entry": 246686,
        "entry_name": "Botman Begins",
        "event_total": 67,
        "has_played": true,
        "id": 1642264,
        "last_rank": 73975,
        "player_name": "kallum gilliss",
        "rank": 54848,
        "rank_sort": 54887,
        "total": 2349
      },
      {
        "club_badge_src": null,
        "entry": 267409,
        "entry_name": "Abood 49",
        "event_total": 51,
        "has_played": true,
        "id": 1778932,
        "last_rank": 46106,
        "player_name": "Ahmed Sabry",
        "rank": 54848,
        "rank_sort": 54888,
        "total": 2349
      },
      {
        "club_badge_src": "https://fantasy.premierleague.com/gcs/plfpl-production-adobe-approved/plfpl-production/273647/e7d8a49e-2026-45a8-9c83-b87c9234fccd.png",
        "entry": 273647,
        "entry_name": "reis solanky",
        "event_total": 65,
        "has_played": true,
        "id": 1820863,
        "last_rank": 55014,
        "player_name": "Faded already",
        "rank": 54848,
        "rank_sort": 54889,
        "total": 2349
      },
      {
        "club_badge_src": null,
        "entry": 303838,
        "entry_name": "YerryCrossTheMersey",
        "event_total": 68,
        "has_played": true,
        "id": 2034027,
        "last_rank": 67063,
        "player_name": "Louie Parker",
        "rank": 54848,
        "rank_sort": 54890,
        "total": 2349
      },
      {
        "club_badge_src": null,
        "entry": 305148,
        "entry_name": "Show me the Mane",
        "event_total": 49,
        "has_played": true,
        "id": 2043401,
        "last_rank": 43342,
        "player_name": "Connor Hance",
        "rank": 54848,
        "rank_sort": 54891,
        "total": 2349
      },
      {
        "club_badge_src": null,
        "entry": 308863,
        "entry_name": "ChickenTikka MoSalah",
        "event_total": 75,
        "has_played": true,
        "id": 2068841,
        "last_rank": 91835,
        "player_name": "Oliver Cardoso",
        "rank": 54848,
        "rank_sort": 54892,
        "total": 2349
      },
      {
        "club_badge_src": null,
        "entry": 312658,
        "entry_name": "AWB Inc.",
        "event_total": 68,
        "has_played": true,
        "id": 2094770,
        "last_rank": 75139,
        "player_name": "Alex Birch",
        "rank": 54848,
        "rank_sort": 54893,
        "total": 2349
      },
      {
        "club_badge_src": "https://fantasy.premierleague.com/gcs/plfpl-production-adobe-approved/plfpl-production/322296/bc3e3ece-00d1-47b5-88b3-938d0aebb448.png",
        "entry": 322296,
        "entry_name": "FC Rednazionale",
        "event_total": 42,
        "has_played": true,
        "id": 2159851,
        "last_rank": 30060,
        "player_name": "David Filipe",
        "rank": 54848,
        "rank_sort": 54894,
        "total": 2349
      },
      {
        "club_badge_src": null,
        "entry": 420577,
        "entry_name": "The Punisher",
        "event_total": 55,
        "has_played": true,
        "id": 2818633,
        "last_rank": 45927,
        "player_name": "Mohammed Qahtan",
        "rank": 54848,
        "rank_sort": 54895,
        "total": 2349
      },
      {
        "club_badge_src": "https://fantasy.premierleague.com/gcs/plfpl-production-adobe-approved/plfpl-production/425824/436f971b-11e8-4b6f-bea7-86b25dcf08b2.png",
        "entry": 425824,
        "entry_name": "\u00d8deparfum",
        "event_total": 49,
        "has_played": true,
        "id": 2854580,
        "last_rank": 43168,
        "player_name": "Haseeb Irfan",
        "rank": 54848,
        "rank_sort": 54896,
        "total": 2349
      },
      {
        "club_badge_src": null,
        "entry": 470816,
        "entry_name": "LA Academy",
        "event_total": 48,
        "has_played": true,
        "id": 3160696,
        "last_rank": 41617,
        "player_name": "William Neem Laahanen",
        "rank": 54848,
        "rank_sort": 54897,
        "total": 2349
      },
      {
        "club_badge_src": null,
        "entry": 473284,
        "entry_name": "U.D. Lodgey",
        "event_total": 61,
        "has_played": true,
        "id": 3177445,
        "last_rank": 62223,
        "player_name": "Claire Lodge",
        "rank": 54848,
        "rank_sort": 54898,
        "total": 2349
      },
      {
        "club_badge_src": null,
        "entry": 492411,
        "entry_name": "Indonesia United",
        "event_total": 69,
        "has_played": true,
        "id": 3305442,
        "last_rank": 69641,
        "player_name": "Sam Godfrey",
        "rank": 54848,
        "rank_sort": 54899,
        "total": 2349
      },
      {
        "club_badge_src": "https://fantasy.premierleague.com/gcs/plfpl-production-adobe-approved/plfpl-production/493219/1b2758f5-6b98-4a9e-b911-3e1205bf6014.png",
        "entry": 493219,
        "entry_name": "Can't get any Wirtz",
        "event_total": 43,
        "has_played": true,
        "id": 3310783,
        "last_rank": 35867,
        "player_name": "Jonathan Prunty",
        "rank": 54848,
        "rank_sort": 54900,
        "total": 2349
      }
    ]
  }
}