{
  "last_updated_data": "2026-05-24T23:28:17Z",
  "league": {
    "admin_entry": null,
    "closed": false,
    "code_privacy": "p",
    "created": "2025-07-20T23:14:33.933835Z",
    "cup_league": 2815434,
    "has_cup": true,
    "id": 314,
    "league_type": "s",
    "max_entries": null,
    "name": "Overall",
    "rank": null,
    "scoring": "c",
    "start_event": 1
  },
  "new_entries": {
    "has_next": false,
    "page": 1,
    "results": []
  },
  "standings": {
    "has_next": true,
    "page": 592,
    "results": [
      {
        "club_badge_src": null,
        "entry": 7091630,
        "entry_name": "Mainoo Knighted",
        "event_total": 67,
        "has_played": true,
        "id": 57096653,
        "last_rank": 35619,
        "player_name": "Jaz Sandhu",
        "rank": 29496,
        "rank_sort": 29551,
        "total": 2369
      },
      {
        "club_badge_src": null,
        "entry": 7195507,
        "entry_name": "bo saed",
        "event_total": 56,
        "has_played": true,
        "id": 58091189,
        "last_rank": 24570,
        "player_name": "Butisaed Almansouri",
        "rank": 29496,
        "rank_sort": 29552,
        "total": 2369
      },
      {
        "club_badge_src": null,
        "entry": 7280550,
        "entry_name": "Lech Rypin",
        "event_total": 51,
        "has_played": true,
        "id": 58894455,
        "last_rank": 23820,
        "player_name": "Przemek Sup\u0142acz",
        "rank": 29496,
        "rank_sort": 29553,
        "total": 2369
      },
      {
        "club_badge_src": null,
        "entry": 8328480,
        "entry_name": "Ludilo brajoo",
        "event_total": 67,
        "has_played": true,
        "id": 69000042,
        "last_rank": 40832,
        "player_name": "sara stankovic",
        "rank": 29496,
        "rank_sort": 29554,
        "total": 2369
      },
      {
        "club_badge_src": null,
        "entry": 9194618,
        "entry_name": "plata o plomo",
        "event_total": 59,
        "has_played": true,
        "id": 77381147,
        "last_rank": 31309,
        "player_name": "Yahia Mohamed",
        "rank": 29496,
        "rank_sort": 29555,
        "total": 2369
      },
      {
        "club_badge_src": "https://fantasy.premierleague.com/gcs/plfpl-production-adobe-approved/plfpl-production/9398826/cb2c9000-36f7-4801-9e59-0470b76f3178.png",
        "entry": 9398826,
        "entry_name": "Sarmad",
        "event_total": 59,
        "has_played": true,
        "id": 79362179,
        "last_rank": 31309,
        "player_name": "Sarmad Al Zadjali",
        "rank": 29496,
        "rank_sort": 29556,
        "total": 2369
      },
      {
        "club_badge_src": "https://fantasy.premierleague.com/gcs/plfpl-production-adobe-approved/plfpl-production/12373/afca1352-ff31-4ac2-9cf0-90ed3a65f951.png",
        "entry": 12373,
        "entry_name": "Merseyside",
        "event_total": 71,
        "has_played": true,
        "id": 73966,
        "last_rank": 40770,
        "player_name": "Damion Culling",
        "rank": 29557,
        "rank_sort": 29557,
        "total": 2369
      },
      {
        "club_badge_src": null,
        "entry": 16788,
        "entry_name": "Uber Wheats",
        "event_total": 79,
        "has_played": true,
        "id": 103893,
        "last_rank": 45927,
        "player_name": "Nathan Harper",
        "rank": 29557,
        "rank_sort": 29558,
        "total": 2369
      },
      {
        "club_badge_src": null,
        "entry": 47488,
        "entry_name": "The Konate Kid",
        "event_total": 53,
        "has_played": true,
        "id": 304636,
        "last_rank": 25595,
        "player_name": "Aidan Brooks",
        "rank": 29557,
        "rank_sort": 29559,
        "total": 2369
      },
      {
        "club_badge_src": null,
        "entry": 57729,
        "entry_name": "GOATFC",
        "event_total": 61,
        "has_played": true,
        "id": 371915,
        "last_rank": 29279,
        "player_name": "hanzala batan",
        "rank": 29557,
        "rank_sort": 29560,
        "total": 2369
      },
      {
        "club_badge_src": null,
        "entry": 227370,
        "entry_name": "world champions 11",
        "event_total": 72,
        "has_played": true,
        "id": 1512443,
        "last_rank": 42081,
        "player_name": "Bhavin Doshi",
        "rank": 29557,
        "rank_sort": 29561,
        "total": 2369
      },
      {
        "club_badge_src": null,
        "entry": 227829,
        "entry_name": "TeamHarbo",
        "event_total": 59,
        "has_played": true,
        "id": 1515488,
        "last_rank": 31309,
        "player_name": "Bjarte Harbo",
        "rank": 29557,
        "rank_sort": 29562,
        "total": 2369
      },
      {
        "club_badge_src": null,
        "entry": 344471,
        "entry_name": "Jumpers4goalposts",
        "event_total": 63,
        "has_played": true,
        "id": 2305729,
        "last_rank": 35926,
        "player_name": "Rich White",
        "rank": 29557,
        "rank_sort": 29563,
        "total": 2369
      },
      {
        "club_badge_src": null,
        "entry": 378154,
        "entry_name": "Raging bull",
        "event_total": 70,
        "has_played": true,
        "id": 2533408,
        "last_rank": 44882,
        "player_name": "norm Allen",
        "rank": 29557,
        "rank_sort": 29564,
        "total": 2369
      },
      {
        "club_badge_src": null,
        "entry": 407150,
        "entry_name": "The Glory Slot",
        "event_total": 76,
        "has_played": true,
        "id": 2730167,
        "last_rank": 53952,
        "player_name": "Andrea Dalle Ave",
        "rank": 29557,
        "rank_sort": 29565,
        "total": 2369
      },
      {
        "club_badge_src": null,
        "entry": 500680,
        "entry_name": "Kulu and the Gang",
        "event_total": 40,
        "has_played": true,
        "id": 3360099,
        "last_rank": 13601,
        "player_name": "Peter Turrell",
        "rank": 29557,
        "rank_sort": 29566,
        "total": 2369
      },
      {
        "club_badge_src": null,
        "entry": 550299,
        "entry_name": "Tarek1\u270a",
        "event_total": 61,
        "has_played": true,
        "id": 3703673,
        "last_rank": 29279,
        "player_name": "Ahmed Tarek",
        "rank": 29557,
        "rank_sort": 29567,
        "total": 2369
      },
      {
        "club_badge_src": null,
        "entry": 559813,
        "entry_name": "Sam fc",
        "event_total": 70,
        "has_played": true,
        "id": 3767783,
        "last_rank": 44804,
        "player_name": "Sam Walshe",
        "rank": 29557,
        "rank_sort": 29568,
        "total": 2369
      },
      {
        "club_badge_src": "https://fantasy.premierleague.com/gcs/plfpl-production-adobe-approved/plfpl-production/561686/e3ed34ce-9061-4da7-841a-b950c322211e.png",
        "entry": 561686,
        "entry_name": "The red devils_mf :)",
        "event_total": 68,
        "has_played": true,
        "id": 3780784,
        "last_rank": 37058,
        "player_name": "Macsen Fitzgerald",
        "rank": 29557,
        "rank_sort": 29569,
        "total": 2369
      },
      {
        "club_badge_src": null,
        "entry": 573496,
        "entry_name": "JJ XI",
        "event_total": 58,
        "has_played": true,
        "id": 3859599,
        "last_rank": 26425,
        "player_name": "Jac Jones",
        "rank": 29557,
        "rank_sort": 29570,
        "total": 2369
      },
      {
        "club_badge_src": null,
        "entry": 718476,
        "entry_name": "MCMXLVI",
        "event_total": 75,
        "has_played": true,
        "id": 4875743,
        "last_rank": 46106,
        "player_name": "Sanjin Hadziomerovic",
        "rank": 29557,
        "rank_sort": 29571,
        "total": 2369
      },
      {
        "club_badge_src": null,
        "entry": 938127,
        "entry_name": "Vajazzlers",
        "event_total": 72,
        "has_played": true,
        "id": 6456726,
        "last_rank": 47812,
        "player_name": "Tom McAleavy",
        "rank": 29557,
        "rank_sort": 29572,
        "total": 2369
      },
      {
        "club_badge_src": "https://fantasy.premierleague.com/gcs/plfpl-production-adobe-approved/plfpl-production/1430701/4f613f3e-2fe3-48ec-8128-5a00160f25d5.png",
        "entry": 1430701,
        "entry_name": "Rice&BludclartPeas",
        "event_total": 66,
        "has_played": true,
        "id": 9969268,
        "last_rank": 39510,
        "player_name": "Matthew Dummer",
        "rank": 29557,
        "rank_sort": 29573,
        "total": 2369
      },
      {
        "club_badge_src": null,
        "entry": 1555440,
        "entry_name": "Zhou-degaard Dynasty",
        "event_total": 57,
        "has_played": true,
        "id": 10860738,
        "last_rank": 25517,
        "player_name": "Patrick Williamson",
        "rank": 29557,
        "rank_sort": 29574,
        "total": 2369
      },
      {
        "club_badge_src": null,
        "entry": 1653654,
        "entry_name": "Lil Uzi Wirtz",
        "event_total": 63,
        "has_played": true,
        "id": 11577432,
        "last_rank": 31236,
        "player_name": "Dipesh Patel",
        "rank": 29557,
        "rank_sort": 29575,
        "total": 2369
      },
      {
        "club_badge_src": null,
        "entry": 1904726,
        "entry_name": "Noble Games Allowed",
        "event_total": 69,
        "has_played": true,
        "id": 13427599,
        "last_rank": 43342,
        "player_name": "Jack Burke",
        "rank": 29557,
        "rank_sort": 29576,
        "total": 2369
      },
      {
        "club_badge_src": "https://fantasy.premierleague.com/gcs/plfpl-production-adobe-approved/plfpl-production/2184186/d3b0f1ea-56e7-42c1-b9fd-62c4ed327f5e.png",
        "entry": 2184186,
        "entry_name": "The Bijol & End All",
        "event_total": 51,
        "has_played": true,
        "id": 15536342,
        "last_rank": 20678,
        "player_name": "Tom Read",
        "rank": 29557,
        "rank_sort": 29577,
        "total": 2369
      },
      {
        "club_badge_src": null,
        "entry": 2321368,
        "entry_name": "\u0627\u0644\u0639\u0643\u0627\u0634\u0629",
        "event_total": 63,
        "has_played": true,
        "id": 16560068,
        "last_rank": 35926,
        "player_name": "Ahmed Okasha",
        "rank": 29557,
        "rank_sort": 29578,
        "total": 2369
      },
      {
        "club_badge_src": null,
        "entry": 2439545,
        "entry_name": "Rouses Bowses",
        "event_total": 66,
        "has_played": true,
        "id": 17446459,
        "last_rank": 39585,
        "player_name": "Joe Ayling-Rouse",
        "rank": 29557,
        "rank_sort": 29579,
        "total": 2369
      },
      {
        "club_badge_src": "https://fantasy.premierleague.com/gcs/plfpl-production-adobe-approved/plfpl-production/2465632/2f930541-28cd-4247-926d-879148b83642.png",
        "entry": 2465632,
        "entry_name": "Na tslata drajkata",
        "event_total": 67,
        "has_played": true,
        "id": 17637083,
        "last_rank": 40832,
        "player_name": "Svilen Y",
        "rank": 29557,
        "rank_sort": 29580,
        "total": 2369
      },
      {
        "club_badge_src": "https://fantasy.premierleague.com/gcs/plfpl-production-adobe-approved/plfpl-production/2727240/c97b31da-abb5-4e98-862e-5f0f09826dc2.png",
        "entry": 2727240,
        "entry_name": "3OOO",
        "event_total": 63,
        "has_played": true,
        "id": 19625476,
        "last_rank": 31309,
        "player_name": "Eyad Aloudah",
        "rank": 29557,
        "rank_sort": 29581,
        "total": 2369
      },
      {
        "club_badge_src": null,
        "entry": 2797741,
        "entry_name": "Wirtz the hell?",
        "event_total": 60,
        "has_played": true,
        "id": 20429335,
        "last_rank": 32491,
        "player_name": "Sadat Sayeed",
        "rank": 29557,
        "rank_sort": 29582,
        "total": 2369
      },
      {
        "club_badge_src": null,
        "entry": 3803314,
        "entry_name": "Karlito's Way 10.1",
        "event_total": 60,
        "has_played": true,
        "id": 28432904,
        "last_rank": 28348,
        "player_name": "Karlos Pemberton",
        "rank": 29557,
        "rank_sort": 29583,
        "total": 2369
      },
      {
        "club_badge_src": null,
        "entry": 4507131,
        "entry_name": "nonsense warriors",
        "event_total": 66,
        "has_played": true,
        "id": 34365088,
        "last_rank": 39585,
        "player_name": "Gavin Cooper",
        "rank": 29557,
        "rank_sort": 29584,
        "total": 2369
      },
      {
        "club_badge_src": null,
        "entry": 4533971,
        "entry_name": "Schl\u00e4tta BK",
        "event_total": 54,
        "has_played": true,
        "id": 34586126,
        "last_rank": 22996,
        "player_name": "Alexander Lev\u00e9n",
        "rank": 29557,
        "rank_sort": 29585,
        "total": 2369
      },
      {
        "club_badge_src": null,
        "entry": 4758931,
        "entry_name": "neville wears prada",
        "event_total": 58,
        "has_played": true,
        "id": 36623678,
        "last_rank": 30325,
        "player_name": "Simon Raiye",
        "rank": 29557,
        "rank_sort": 29586,
        "total": 2369
      },
      {
        "club_badge_src": null,
        "entry": 4965824,
        "entry_name": "Ouzo",
        "event_total": 61,
        "has_played": true,
        "id": 38322130,
        "last_rank": 33651,
        "player_name": "Youssef Khaled",
        "rank": 29557,
        "rank_sort": 29587,
        "total": 2369
      },
      {
        "club_badge_src": "https://fantasy.premierleague.com/gcs/plfpl-production-adobe-approved/plfpl-production/5103926/c066d7be-0c97-4cab-82f0-dd268f4a78ef.png",
        "entry": 5103926,
        "entry_name": "Bay Area FC",
        "event_total": 64,
        "has_played": true,
        "id": 39452055,
        "last_rank": 37134,
        "player_name": "Acho Egbunu",
        "rank": 29557,
        "rank_sort": 29588,
        "total": 2369
      },
      {
        "club_badge_src": "https://fantasy.premierleague.com/gcs/plfpl-production-adobe-approved/plfpl-production/5201588/246f64d1-8b9e-4bf1-ba66-73455c64c253.png",
        "entry": 5201588,
        "entry_name": "Gini in a Bottle",
        "event_total": 82,
        "has_played": true,
        "id": 40284493,
        "last_rank": 50635,
        "player_name": "Josh Dennis",
        "rank": 29557,
        "rank_sort": 29589,
        "total": 2369
      },
      {
        "club_badge_src": null,
        "entry": 5301837,
        "entry_name": "Wirtz Case Scenario",
        "event_total": 46,
        "has_played": true,
        "id": 41097415,
        "last_rank": 20008,
        "player_name": "Faisal Hussain",
        "rank": 29557,
        "rank_sort": 29590,
        "total": 2369
      },
      {
        "club_badge_src": null,
        "entry": 5452699,
        "entry_name": "37gwNo1",
        "event_total": 62,
        "has_played": true,
        "id": 42431180,
        "last_rank": 30276,
        "player_name": "Anh La",
        "rank": 29557,
        "rank_sort": 29591,
        "total": 2369
      },
      {
        "club_badge_src": null,
        "entry": 5506580,
        "entry_name": "Fc Fofce",
        "event_total": 79,
        "has_played": true,
        "id": 42916615,
        "last_rank": 52205,
        "player_name": "Tilen Leban",
        "rank": 29557,
        "rank_sort": 29592,
        "total": 2369
      },
      {
        "club_badge_src": null,
        "entry": 5543920,
        "entry_name": "Ekitike tiki taka",
        "event_total": 48,
        "has_played": true,
        "id": 43261874,
        "last_rank": 18520,
        "player_name": "umar raidhan",
        "rank": 29557,
        "rank_sort": 29593,
        "total": 2369
      },
      {
        "club_badge_src": "https://fantasy.premierleague.com/gcs/plfpl-production-adobe-approved/plfpl-production/6539760/015620b0-ad47-4a19-91f8-4c3d42a5cdb5.png",
        "entry": 6539760,
        "entry_name": "Under My Cucurella",
        "event_total": 60,
        "has_played": true,
        "id": 52175785,
        "last_rank": 28273,
        "player_name": "Mohamed Mudawi",
        "rank": 29557,
        "rank_sort": 29594,
        "total": 2369
      },
      {
        "club_badge_src": null,
        "entry": 6699305,
        "entry_name": "The Shining Fuds",
        "event_total": 66,
        "has_played": true,
        "id": 53602668,
        "last_rank": 39585,
        "player_name": "Andrew Thomson",
        "rank": 29557,
        "rank_sort": 29595,
        "total": 2369
      },
      {
        "club_badge_src": null,
        "entry": 7002319,
        "entry_name": "The Slot Thickens",
        "event_total": 68,
        "has_played": true,
        "id": 56224806,
        "last_rank": 42152,
        "player_name": "Adam Milligan",
        "rank": 29557,
        "rank_sort": 29596,
        "total": 2369
      },
      {
        "club_badge_src": null,
        "entry": 8088855,
        "entry_name": "Ludovicho",
        "event_total": 63,
        "has_played": true,
        "id": 66697416,
        "last_rank": 35926,
        "player_name": "Christer Steinvik",
        "rank": 29557,
        "rank_sort": 29597,
        "total": 2369
      },
      {
        "club_badge_src": null,
        "entry": 8831846,
        "entry_name": "Likely Toulouse",
        "event_total": 65,
        "has_played": true,
        "id": 73850805,
        "last_rank": 38340,
        "player_name": "Adam Vettese",
        "rank": 29557,
        "rank_sort": 29598,
        "total": 2369
      },
      {
        "club_badge_src": "https://fantasy.premierleague.com/gcs/plfpl-production-adobe-approved/plfpl-production/12491/41cc1e16-3c3a-4b35-b610-93b6ed1fd6fe.png",
        "entry": 12491,
        "entry_name": "DEXTER FC",
        "event_total": 69,
        "has_played": true,
        "id": 74820,
        "last_rank": 33582,
        "player_name": "Bader Zakarneh",
        "rank": 29599,
        "rank_sort": 29599,
        "total": 2369
      },
      {
        "club_badge_src": null,
        "entry": 113032,
        "entry_name": "Tikka Mo Salah",
        "event_total": 46,
        "has_played": true,
        "id": 737173,
        "last_rank": 17233,
        "player_name": "Samantha Wadsack",
        "rank": 29599,
        "rank_sort": 29600,
        "total": 2369
      }
    ]
  }
}