{
  "last_updated_data": "2026-05-24T23:28:17Z",
  "league": {
    "admin_entry": null,
    "closed": false,
    "code_privacy": "p",
    "created": "2025-07-20T23:14:33.933835Z",
    "cup_league": 2815434,
    "has_cup": true,
    "id": 314,
    "league_type": "s",
    "max_entries": null,
    "name": "Overall",
    "rank": null,
    "scoring": "c",
    "start_event": 1
  },
  "new_entries": {
    "has_next": false,
    "page": 1,
    "results": []
  },
  "standings": {
    "has_next": true,
    "page": 963,
    "results": [
      {
        "club_badge_src": null,
        "entry": 4838015,
        "entry_name": "Holdini",
        "event_total": 50,
        "has_played": true,
        "id": 37267043,
        "last_rank": 38774,
        "player_name": "Moe Alsaleh",
        "rank": 47869,
        "rank_sort": 48101,
        "total": 2353
      },
      {
        "club_badge_src": null,
        "entry": 4935885,
        "entry_name": "thisisAnfield",
        "event_total": 45,
        "has_played": true,
        "id": 38081386,
        "last_rank": 32879,
        "player_name": "Tanakrit Roongtanapirom",
        "rank": 47869,
        "rank_sort": 48102,
        "total": 2353
      },
      {
        "club_badge_src": null,
        "entry": 4938904,
        "entry_name": "Hench United 6",
        "event_total": 62,
        "has_played": true,
        "id": 38105379,
        "last_rank": 56369,
        "player_name": "Abdul Fallaha",
        "rank": 47869,
        "rank_sort": 48103,
        "total": 2353
      },
      {
        "club_badge_src": "https://fantasy.premierleague.com/gcs/plfpl-production-adobe-approved/plfpl-production/4972514/3d5c2615-092c-4d2d-80f9-16807b28f4e9.png",
        "entry": 4972514,
        "entry_name": "doku like it\u2019s hot",
        "event_total": 71,
        "has_played": true,
        "id": 38380977,
        "last_rank": 72815,
        "player_name": "Issy P",
        "rank": 47869,
        "rank_sort": 48104,
        "total": 2353
      },
      {
        "club_badge_src": null,
        "entry": 4988040,
        "entry_name": "Scorpio",
        "event_total": 44,
        "has_played": true,
        "id": 38508193,
        "last_rank": 31747,
        "player_name": "Anthony Berry",
        "rank": 47869,
        "rank_sort": 48105,
        "total": 2353
      },
      {
        "club_badge_src": null,
        "entry": 5093267,
        "entry_name": "Beef Cherki",
        "event_total": 32,
        "has_played": true,
        "id": 39366531,
        "last_rank": 20983,
        "player_name": "Zak Berry",
        "rank": 47869,
        "rank_sort": 48106,
        "total": 2353
      },
      {
        "club_badge_src": null,
        "entry": 5165678,
        "entry_name": "FC Banzai",
        "event_total": 61,
        "has_played": true,
        "id": 39976500,
        "last_rank": 54667,
        "player_name": "Olli Rojo",
        "rank": 47869,
        "rank_sort": 48107,
        "total": 2353
      },
      {
        "club_badge_src": null,
        "entry": 5167286,
        "entry_name": "Boom Xhaka Laka",
        "event_total": 56,
        "has_played": true,
        "id": 39990083,
        "last_rank": 46839,
        "player_name": "Andy Parratt",
        "rank": 47869,
        "rank_sort": 48108,
        "total": 2353
      },
      {
        "club_badge_src": null,
        "entry": 5175972,
        "entry_name": "VAR and Away",
        "event_total": 69,
        "has_played": true,
        "id": 40062193,
        "last_rank": 68957,
        "player_name": "Tom van der Graaf",
        "rank": 47869,
        "rank_sort": 48109,
        "total": 2353
      },
      {
        "club_badge_src": null,
        "entry": 5191640,
        "entry_name": "Waiting for Godo",
        "event_total": 50,
        "has_played": true,
        "id": 40193408,
        "last_rank": 38774,
        "player_name": "Matthew Helliwell",
        "rank": 47869,
        "rank_sort": 48110,
        "total": 2353
      },
      {
        "club_badge_src": null,
        "entry": 5204783,
        "entry_name": "Dechester FC",
        "event_total": 66,
        "has_played": true,
        "id": 40310637,
        "last_rank": 63390,
        "player_name": "Mercy Idowu",
        "rank": 47869,
        "rank_sort": 48111,
        "total": 2353
      },
      {
        "club_badge_src": null,
        "entry": 5276216,
        "entry_name": "Linus Olai & MoMo",
        "event_total": 39,
        "has_played": true,
        "id": 40895237,
        "last_rank": 26827,
        "player_name": "Linus Olai Kvamme Hjellvoll",
        "rank": 47869,
        "rank_sort": 48112,
        "total": 2353
      },
      {
        "club_badge_src": null,
        "entry": 5284052,
        "entry_name": "Frimp my ride",
        "event_total": 34,
        "has_played": true,
        "id": 40957271,
        "last_rank": 22426,
        "player_name": "Simran Patel",
        "rank": 47869,
        "rank_sort": 48113,
        "total": 2353
      },
      {
        "club_badge_src": null,
        "entry": 5310290,
        "entry_name": "Yes Marmoush!",
        "event_total": 58,
        "has_played": true,
        "id": 41163417,
        "last_rank": 49880,
        "player_name": "Ruairidh Cameron",
        "rank": 47869,
        "rank_sort": 48114,
        "total": 2353
      },
      {
        "club_badge_src": null,
        "entry": 5367311,
        "entry_name": "KALOCHERIAKOS FC",
        "event_total": 64,
        "has_played": true,
        "id": 41698527,
        "last_rank": 59632,
        "player_name": "Panagiotis Kalocheris",
        "rank": 47869,
        "rank_sort": 48115,
        "total": 2353
      },
      {
        "club_badge_src": null,
        "entry": 5406931,
        "entry_name": "Not Isak-ly Sure",
        "event_total": 30,
        "has_played": true,
        "id": 42044057,
        "last_rank": 19544,
        "player_name": "Geraint Evans",
        "rank": 47869,
        "rank_sort": 48116,
        "total": 2353
      },
      {
        "club_badge_src": null,
        "entry": 5463637,
        "entry_name": "Helm Putih",
        "event_total": 51,
        "has_played": true,
        "id": 42521555,
        "last_rank": 40036,
        "player_name": "Muhammad Rifanli",
        "rank": 47869,
        "rank_sort": 48117,
        "total": 2353
      },
      {
        "club_badge_src": null,
        "entry": 5477481,
        "entry_name": "The Sharks",
        "event_total": 64,
        "has_played": true,
        "id": 42642910,
        "last_rank": 59813,
        "player_name": "Ramin Jarvand",
        "rank": 47869,
        "rank_sort": 48118,
        "total": 2353
      },
      {
        "club_badge_src": null,
        "entry": 5489219,
        "entry_name": "Sterns Hammer Blow",
        "event_total": 67,
        "has_played": true,
        "id": 42750790,
        "last_rank": 64830,
        "player_name": "Otto Sterner",
        "rank": 47869,
        "rank_sort": 48119,
        "total": 2353
      },
      {
        "club_badge_src": null,
        "entry": 5523443,
        "entry_name": "ZubiDoobyDoo",
        "event_total": 43,
        "has_played": true,
        "id": 43072687,
        "last_rank": 30727,
        "player_name": "Leo Ryu",
        "rank": 47869,
        "rank_sort": 48120,
        "total": 2353
      },
      {
        "club_badge_src": null,
        "entry": 5537603,
        "entry_name": "Archie Grays Anatomy",
        "event_total": 71,
        "has_played": true,
        "id": 43206492,
        "last_rank": 72702,
        "player_name": "Raees Khan",
        "rank": 47869,
        "rank_sort": 48121,
        "total": 2353
      },
      {
        "club_badge_src": null,
        "entry": 5541937,
        "entry_name": "S(team)ing Ahead",
        "event_total": 64,
        "has_played": true,
        "id": 43244350,
        "last_rank": 59632,
        "player_name": "Hitein Rao",
        "rank": 47869,
        "rank_sort": 48122,
        "total": 2353
      },
      {
        "club_badge_src": null,
        "entry": 5592257,
        "entry_name": "-",
        "event_total": 41,
        "has_played": true,
        "id": 43689704,
        "last_rank": 28726,
        "player_name": "Tom Routledge",
        "rank": 47869,
        "rank_sort": 48123,
        "total": 2353
      },
      {
        "club_badge_src": null,
        "entry": 5655056,
        "entry_name": "Zubi-dubi-doo",
        "event_total": 68,
        "has_played": true,
        "id": 44240003,
        "last_rank": 67063,
        "player_name": "Daniel Howse",
        "rank": 47869,
        "rank_sort": 48124,
        "total": 2353
      },
      {
        "club_badge_src": "https://fantasy.premierleague.com/gcs/plfpl-production-adobe-approved/plfpl-production/5656334/7c60698e-9aed-4de2-98cc-ae2ebb8c43ee.png",
        "entry": 5656334,
        "entry_name": "Sess Education",
        "event_total": 56,
        "has_played": true,
        "id": 44250822,
        "last_rank": 46660,
        "player_name": "David Claridge",
        "rank": 47869,
        "rank_sort": 48125,
        "total": 2353
      },
      {
        "club_badge_src": null,
        "entry": 5700299,
        "entry_name": "Johnson\u2019s Journeymen",
        "event_total": 54,
        "has_played": true,
        "id": 44630264,
        "last_rank": 44048,
        "player_name": "Graham Johnson",
        "rank": 47869,
        "rank_sort": 48126,
        "total": 2353
      },
      {
        "club_badge_src": null,
        "entry": 5772369,
        "entry_name": "Pountine on a show",
        "event_total": 50,
        "has_played": true,
        "id": 45257199,
        "last_rank": 38774,
        "player_name": "Will Reaves",
        "rank": 47869,
        "rank_sort": 48127,
        "total": 2353
      },
      {
        "club_badge_src": "https://fantasy.premierleague.com/gcs/plfpl-production-adobe-approved/plfpl-production/5813761/9c200ce9-0940-4ff7-9b58-a9f616e63825.png",
        "entry": 5813761,
        "entry_name": "Mubixx XI",
        "event_total": 58,
        "has_played": true,
        "id": 45618981,
        "last_rank": 49691,
        "player_name": "Mubaraq M",
        "rank": 47869,
        "rank_sort": 48128,
        "total": 2353
      },
      {
        "club_badge_src": null,
        "entry": 5829066,
        "entry_name": "Sundby FC",
        "event_total": 55,
        "has_played": true,
        "id": 45751017,
        "last_rank": 45416,
        "player_name": "Mari Sundby",
        "rank": 47869,
        "rank_sort": 48129,
        "total": 2353
      },
      {
        "club_badge_src": null,
        "entry": 5904218,
        "entry_name": "El Nicko",
        "event_total": 45,
        "has_played": true,
        "id": 46389385,
        "last_rank": 32879,
        "player_name": "Harnick Sidhu",
        "rank": 47869,
        "rank_sort": 48130,
        "total": 2353
      },
      {
        "club_badge_src": null,
        "entry": 6035419,
        "entry_name": "El Mowssad",
        "event_total": 58,
        "has_played": true,
        "id": 47613855,
        "last_rank": 50199,
        "player_name": "Mohamed Mowaled",
        "rank": 47869,
        "rank_sort": 48131,
        "total": 2353
      },
      {
        "club_badge_src": "https://fantasy.premierleague.com/gcs/plfpl-production-adobe-approved/plfpl-production/6061495/39df4e4b-2f29-4347-aa50-be49d9b7c21d.png",
        "entry": 6061495,
        "entry_name": "MatejYNWA",
        "event_total": 60,
        "has_played": true,
        "id": 47839094,
        "last_rank": 53023,
        "player_name": "Matej Orolim",
        "rank": 47869,
        "rank_sort": 48132,
        "total": 2353
      },
      {
        "club_badge_src": null,
        "entry": 6071245,
        "entry_name": "No Kane No Game",
        "event_total": 45,
        "has_played": true,
        "id": 47925222,
        "last_rank": 32879,
        "player_name": "william hodges",
        "rank": 47869,
        "rank_sort": 48133,
        "total": 2353
      },
      {
        "club_badge_src": "https://fantasy.premierleague.com/gcs/plfpl-production-adobe-approved/plfpl-production/6114735/0ce1f036-a2f7-4cff-88e3-95f186cae2ec.png",
        "entry": 6114735,
        "entry_name": "RIP Sean Dyche",
        "event_total": 59,
        "has_played": true,
        "id": 48304433,
        "last_rank": 45252,
        "player_name": "Nico Paoletti",
        "rank": 47869,
        "rank_sort": 48134,
        "total": 2353
      },
      {
        "club_badge_src": null,
        "entry": 6116994,
        "entry_name": "Son Tan",
        "event_total": 67,
        "has_played": true,
        "id": 48323884,
        "last_rank": 64830,
        "player_name": "Stephen Tan",
        "rank": 47869,
        "rank_sort": 48135,
        "total": 2353
      },
      {
        "club_badge_src": "https://fantasy.premierleague.com/gcs/plfpl-production-adobe-approved/plfpl-production/6324440/4d84b368-43d8-4e75-a374-3effcce55647.png",
        "entry": 6324440,
        "entry_name": "med ouiddar",
        "event_total": 66,
        "has_played": true,
        "id": 50237118,
        "last_rank": 63201,
        "player_name": "mohamed ouiddar",
        "rank": 47869,
        "rank_sort": 48136,
        "total": 2353
      },
      {
        "club_badge_src": null,
        "entry": 6329884,
        "entry_name": "Delph and Safety",
        "event_total": 45,
        "has_played": true,
        "id": 50300737,
        "last_rank": 32751,
        "player_name": "Aiden Birchenough",
        "rank": 47869,
        "rank_sort": 48137,
        "total": 2353
      },
      {
        "club_badge_src": "https://fantasy.premierleague.com/gcs/plfpl-production-adobe-approved/plfpl-production/6391633/4155506e-2169-4438-a493-d315ed870c53.png",
        "entry": 6391633,
        "entry_name": "VSMA CITY \ufffd",
        "event_total": 106,
        "has_played": true,
        "id": 50843817,
        "last_rank": 159429,
        "player_name": "Wassim Hachani --------",
        "rank": 47869,
        "rank_sort": 48138,
        "total": 2353
      },
      {
        "club_badge_src": null,
        "entry": 6472635,
        "entry_name": "20 is plenty",
        "event_total": 63,
        "has_played": true,
        "id": 51574142,
        "last_rank": 57857,
        "player_name": "David Carroll",
        "rank": 47869,
        "rank_sort": 48139,
        "total": 2353
      },
      {
        "club_badge_src": null,
        "entry": 6481005,
        "entry_name": "Ginger FC",
        "event_total": 57,
        "has_played": true,
        "id": 51654644,
        "last_rank": 48363,
        "player_name": "Megan Weaver",
        "rank": 47869,
        "rank_sort": 48140,
        "total": 2353
      },
      {
        "club_badge_src": null,
        "entry": 6532320,
        "entry_name": "Mbeumo No.5",
        "event_total": 76,
        "has_played": true,
        "id": 52109995,
        "last_rank": 83698,
        "player_name": "Kevin Douglas",
        "rank": 47869,
        "rank_sort": 48141,
        "total": 2353
      },
      {
        "club_badge_src": null,
        "entry": 6559259,
        "entry_name": "moani bonboani",
        "event_total": 49,
        "has_played": true,
        "id": 52349534,
        "last_rank": 37589,
        "player_name": "Simeon Obretenov",
        "rank": 47869,
        "rank_sort": 48142,
        "total": 2353
      },
      {
        "club_badge_src": null,
        "entry": 6651153,
        "entry_name": "Soucek Mate",
        "event_total": 55,
        "has_played": true,
        "id": 53172191,
        "last_rank": 45416,
        "player_name": "Alfie Sharland",
        "rank": 47869,
        "rank_sort": 48143,
        "total": 2353
      },
      {
        "club_badge_src": null,
        "entry": 6673170,
        "entry_name": "Sesko to the top",
        "event_total": 69,
        "has_played": true,
        "id": 53372647,
        "last_rank": 68957,
        "player_name": "Greg Upton",
        "rank": 47869,
        "rank_sort": 48144,
        "total": 2353
      },
      {
        "club_badge_src": null,
        "entry": 6675724,
        "entry_name": "It's a Krul Sommer",
        "event_total": 66,
        "has_played": true,
        "id": 53395680,
        "last_rank": 63390,
        "player_name": "Victoria Wilson",
        "rank": 47869,
        "rank_sort": 48145,
        "total": 2353
      },
      {
        "club_badge_src": null,
        "entry": 6725468,
        "entry_name": "Hardly Athletic",
        "event_total": 61,
        "has_played": true,
        "id": 53828174,
        "last_rank": 55014,
        "player_name": "Evan Wright",
        "rank": 47869,
        "rank_sort": 48146,
        "total": 2353
      },
      {
        "club_badge_src": null,
        "entry": 6730519,
        "entry_name": "Retro City Ballers",
        "event_total": 52,
        "has_played": true,
        "id": 53871304,
        "last_rank": 41324,
        "player_name": "Lee Butler",
        "rank": 47869,
        "rank_sort": 48147,
        "total": 2353
      },
      {
        "club_badge_src": "https://fantasy.premierleague.com/gcs/plfpl-production-adobe-approved/plfpl-production/6779033/fdf42f98-3b5c-47dd-bd5f-97539bd051fd.png",
        "entry": 6779033,
        "entry_name": "\u03a0\u03cc\u03c4\u03b5\u0392\u03bf\u03cd\u03b4\u03b1\u03c2_\u03a0\u03cc\u03c4\u03b5Kudus",
        "event_total": 48,
        "has_played": true,
        "id": 54282147,
        "last_rank": 36348,
        "player_name": "Alexandros Klokkaris",
        "rank": 47869,
        "rank_sort": 48148,
        "total": 2353
      },
      {
        "club_badge_src": null,
        "entry": 6784434,
        "entry_name": "Borussia Teeth",
        "event_total": 46,
        "has_played": true,
        "id": 54327241,
        "last_rank": 34051,
        "player_name": "Meilir Thomas",
        "rank": 47869,
        "rank_sort": 48149,
        "total": 2353
      },
      {
        "club_badge_src": null,
        "entry": 6974490,
        "entry_name": "Para Sempre 20",
        "event_total": 59,
        "has_played": true,
        "id": 55953467,
        "last_rank": 51220,
        "player_name": "Kyle Gungan",
        "rank": 47869,
        "rank_sort": 48150,
        "total": 2353
      }
    ]
  }
}