{
  "last_updated_data": "2026-05-24T23:28:17Z",
  "league": {
    "admin_entry": null,
    "closed": false,
    "code_privacy": "p",
    "created": "2025-07-20T23:14:33.933835Z",
    "cup_league": 2815434,
    "has_cup": true,
    "id": 314,
    "league_type": "s",
    "max_entries": null,
    "name": "Overall",
    "rank": null,
    "scoring": "c",
    "start_event": 1
  },
  "new_entries": {
    "has_next": false,
    "page": 1,
    "results": []
  },
  "standings": {
    "has_next": true,
    "page": 1021,
    "results": [
      {
        "club_badge_src": null,
        "entry": 8709468,
        "entry_name": "Change Name",
        "event_total": 62,
        "has_played": true,
        "id": 72670626,
        "last_rank": 59632,
        "player_name": "Declan Twigg",
        "rank": 50899,
        "rank_sort": 51001,
        "total": 2351
      },
      {
        "club_badge_src": null,
        "entry": 9003506,
        "entry_name": "Reform FC",
        "event_total": 36,
        "has_played": true,
        "id": 75514049,
        "last_rank": 25902,
        "player_name": "Daanyaal Jamal",
        "rank": 50899,
        "rank_sort": 51002,
        "total": 2351
      },
      {
        "club_badge_src": null,
        "entry": 9033888,
        "entry_name": "Icet\u00eahk\u00e3o Willian",
        "event_total": 36,
        "has_played": true,
        "id": 75807659,
        "last_rank": 25776,
        "player_name": "Muzang King",
        "rank": 50899,
        "rank_sort": 51003,
        "total": 2351
      },
      {
        "club_badge_src": "https://fantasy.premierleague.com/gcs/plfpl-production-adobe-approved/plfpl-production/265/b4c5032b-aa93-4c61-8afb-8f62deb577ca.png",
        "entry": 265,
        "entry_name": "Chris (FPL Armband)",
        "event_total": 60,
        "has_played": true,
        "id": 1470,
        "last_rank": 56369,
        "player_name": "Chris FC",
        "rank": 51004,
        "rank_sort": 51004,
        "total": 2351
      },
      {
        "club_badge_src": null,
        "entry": 982,
        "entry_name": "Sunset Boulegvardiol",
        "event_total": 61,
        "has_played": true,
        "id": 5442,
        "last_rank": 58071,
        "player_name": "Jacob McLaughlin",
        "rank": 51004,
        "rank_sort": 51005,
        "total": 2351
      },
      {
        "club_badge_src": "https://fantasy.premierleague.com/gcs/plfpl-production-adobe-approved/plfpl-production/1858/a5e25f4d-d5ac-411d-9420-ef1b3e9fc67c.png",
        "entry": 1858,
        "entry_name": "ARSENE WAS HERE",
        "event_total": 65,
        "has_played": true,
        "id": 10363,
        "last_rank": 64830,
        "player_name": "Danny Amitai",
        "rank": 51004,
        "rank_sort": 51006,
        "total": 2351
      },
      {
        "club_badge_src": null,
        "entry": 4383,
        "entry_name": "Redders Rovers",
        "event_total": 56,
        "has_played": true,
        "id": 24914,
        "last_rank": 49880,
        "player_name": "James Redgrave",
        "rank": 51004,
        "rank_sort": 51007,
        "total": 2351
      },
      {
        "club_badge_src": null,
        "entry": 4401,
        "entry_name": "The Phill Inns",
        "event_total": 65,
        "has_played": true,
        "id": 25021,
        "last_rank": 65163,
        "player_name": "Aaron Finlay",
        "rank": 51004,
        "rank_sort": 51008,
        "total": 2351
      },
      {
        "club_badge_src": "https://fantasy.premierleague.com/gcs/plfpl-production-adobe-approved/plfpl-production/6562/d3ce9711-9ae2-4f90-b427-e5183d690b3c.png",
        "entry": 6562,
        "entry_name": "Corky XI",
        "event_total": 74,
        "has_played": true,
        "id": 37677,
        "last_rank": 83584,
        "player_name": "Carl Johnson",
        "rank": 51004,
        "rank_sort": 51009,
        "total": 2351
      },
      {
        "club_badge_src": "https://fantasy.premierleague.com/gcs/plfpl-production-adobe-approved/plfpl-production/7128/1f49f661-e83b-4127-8975-e8b5712d655a.png",
        "entry": 7128,
        "entry_name": "Panic Hitmen",
        "event_total": 50,
        "has_played": true,
        "id": 41050,
        "last_rank": 41324,
        "player_name": "Bert Steen",
        "rank": 51004,
        "rank_sort": 51010,
        "total": 2351
      },
      {
        "club_badge_src": null,
        "entry": 8591,
        "entry_name": "Candles",
        "event_total": 50,
        "has_played": true,
        "id": 50036,
        "last_rank": 41324,
        "player_name": "impaled dc",
        "rank": 51004,
        "rank_sort": 51011,
        "total": 2351
      },
      {
        "club_badge_src": null,
        "entry": 10360,
        "entry_name": "Off",
        "event_total": 63,
        "has_played": true,
        "id": 61243,
        "last_rank": 61411,
        "player_name": "Jorn Verheijden",
        "rank": 51004,
        "rank_sort": 51012,
        "total": 2351
      },
      {
        "club_badge_src": null,
        "entry": 14273,
        "entry_name": "United",
        "event_total": 63,
        "has_played": true,
        "id": 86602,
        "last_rank": 61606,
        "player_name": "Zvika Greengross",
        "rank": 51004,
        "rank_sort": 51013,
        "total": 2351
      },
      {
        "club_badge_src": "https://fantasy.premierleague.com/gcs/plfpl-production-adobe-approved/plfpl-production/23169/13c63cac-6c8c-4159-b6eb-44ceb5d957b6.png",
        "entry": 23169,
        "entry_name": "Cairney Do It Again?",
        "event_total": 61,
        "has_played": true,
        "id": 145816,
        "last_rank": 58071,
        "player_name": "Tim Linkens",
        "rank": 51004,
        "rank_sort": 51014,
        "total": 2351
      },
      {
        "club_badge_src": null,
        "entry": 25454,
        "entry_name": "Love Sosa",
        "event_total": 44,
        "has_played": true,
        "id": 160981,
        "last_rank": 34051,
        "player_name": "Marin Devi\u0107",
        "rank": 51004,
        "rank_sort": 51015,
        "total": 2351
      },
      {
        "club_badge_src": "https://fantasy.premierleague.com/gcs/plfpl-production-adobe-approved/plfpl-production/25884/a8592293-e0b5-4554-81f3-dee3150a8c75.png",
        "entry": 25884,
        "entry_name": "Pegasus Juniors",
        "event_total": 53,
        "has_played": true,
        "id": 163691,
        "last_rank": 45416,
        "player_name": "P\u00e1ll \u00d3li \u00d3lason",
        "rank": 51004,
        "rank_sort": 51016,
        "total": 2351
      },
      {
        "club_badge_src": null,
        "entry": 28017,
        "entry_name": "Grace Chasers",
        "event_total": 43,
        "has_played": true,
        "id": 177176,
        "last_rank": 32879,
        "player_name": "Craigen Bester",
        "rank": 51004,
        "rank_sort": 51017,
        "total": 2351
      },
      {
        "club_badge_src": "https://fantasy.premierleague.com/gcs/plfpl-production-adobe-approved/plfpl-production/35567/525a0a73-e4c5-41f2-8b8d-5c2f222a3147.png",
        "entry": 35567,
        "entry_name": "Royal Jelly",
        "event_total": 70,
        "has_played": true,
        "id": 227630,
        "last_rank": 75139,
        "player_name": "Roy Murray",
        "rank": 51004,
        "rank_sort": 51018,
        "total": 2351
      },
      {
        "club_badge_src": null,
        "entry": 36557,
        "entry_name": "High Strandards",
        "event_total": 67,
        "has_played": true,
        "id": 234044,
        "last_rank": 68748,
        "player_name": "Dave Sheridan",
        "rank": 51004,
        "rank_sort": 51019,
        "total": 2351
      },
      {
        "club_badge_src": null,
        "entry": 36696,
        "entry_name": "SuperFunHappySlide",
        "event_total": 75,
        "has_played": true,
        "id": 234946,
        "last_rank": 86304,
        "player_name": "William Wren",
        "rank": 51004,
        "rank_sort": 51020,
        "total": 2351
      },
      {
        "club_badge_src": null,
        "entry": 37214,
        "entry_name": "Heaven on Turf",
        "event_total": 63,
        "has_played": true,
        "id": 238334,
        "last_rank": 61258,
        "player_name": "Lewis Walker",
        "rank": 51004,
        "rank_sort": 51021,
        "total": 2351
      },
      {
        "club_badge_src": null,
        "entry": 44255,
        "entry_name": "Extractors FC",
        "event_total": 60,
        "has_played": true,
        "id": 283608,
        "last_rank": 56180,
        "player_name": "Sriram S",
        "rank": 51004,
        "rank_sort": 51022,
        "total": 2351
      },
      {
        "club_badge_src": null,
        "entry": 44661,
        "entry_name": "Ca\u0142y Czas Do Przodu",
        "event_total": 74,
        "has_played": true,
        "id": 286279,
        "last_rank": 83584,
        "player_name": "Kamil Wiszniewski",
        "rank": 51004,
        "rank_sort": 51023,
        "total": 2351
      },
      {
        "club_badge_src": null,
        "entry": 49845,
        "entry_name": "Announce Relegation",
        "event_total": 33,
        "has_played": true,
        "id": 320429,
        "last_rank": 23230,
        "player_name": "Andrew Bergman",
        "rank": 51004,
        "rank_sort": 51024,
        "total": 2351
      },
      {
        "club_badge_src": null,
        "entry": 56203,
        "entry_name": "Wuteruuuu",
        "event_total": 56,
        "has_played": true,
        "id": 361984,
        "last_rank": 49880,
        "player_name": "Wouter De Beste",
        "rank": 51004,
        "rank_sort": 51025,
        "total": 2351
      },
      {
        "club_badge_src": null,
        "entry": 59760,
        "entry_name": "Hotel Calafiori",
        "event_total": 63,
        "has_played": true,
        "id": 384804,
        "last_rank": 61606,
        "player_name": "Hashim Mustafa",
        "rank": 51004,
        "rank_sort": 51026,
        "total": 2351
      },
      {
        "club_badge_src": null,
        "entry": 62049,
        "entry_name": "Lucky15",
        "event_total": 58,
        "has_played": true,
        "id": 399820,
        "last_rank": 53023,
        "player_name": "Joe Donaghy",
        "rank": 51004,
        "rank_sort": 51027,
        "total": 2351
      },
      {
        "club_badge_src": null,
        "entry": 66341,
        "entry_name": "Perkins FC",
        "event_total": 54,
        "has_played": true,
        "id": 428843,
        "last_rank": 46660,
        "player_name": "Connor Perkins",
        "rank": 51004,
        "rank_sort": 51028,
        "total": 2351
      },
      {
        "club_badge_src": "https://fantasy.premierleague.com/gcs/plfpl-production-adobe-approved/plfpl-production/70252/a8b16a8e-db0f-4e85-9429-b80cc29d7d93.png",
        "entry": 70252,
        "entry_name": "La Seleccion",
        "event_total": 62,
        "has_played": true,
        "id": 456052,
        "last_rank": 59813,
        "player_name": "Pieter Sayer",
        "rank": 51004,
        "rank_sort": 51029,
        "total": 2351
      },
      {
        "club_badge_src": null,
        "entry": 72245,
        "entry_name": "Top Billing",
        "event_total": 63,
        "has_played": true,
        "id": 469418,
        "last_rank": 61606,
        "player_name": "Rory Swann",
        "rank": 51004,
        "rank_sort": 51030,
        "total": 2351
      },
      {
        "club_badge_src": null,
        "entry": 74676,
        "entry_name": "ctrl alt de ligt",
        "event_total": 66,
        "has_played": true,
        "id": 485413,
        "last_rank": 67063,
        "player_name": "Hector Bridle",
        "rank": 51004,
        "rank_sort": 51031,
        "total": 2351
      },
      {
        "club_badge_src": "https://fantasy.premierleague.com/gcs/plfpl-production-adobe-approved/plfpl-production/92732/067bf1c1-7d8d-4e2e-8aec-18d0d64d347b.png",
        "entry": 92732,
        "entry_name": "Rise of Gy\u00f6keres",
        "event_total": 50,
        "has_played": true,
        "id": 605983,
        "last_rank": 41162,
        "player_name": "Ahmed Drijencic",
        "rank": 51004,
        "rank_sort": 51032,
        "total": 2351
      },
      {
        "club_badge_src": null,
        "entry": 119289,
        "entry_name": "Kinder Mbeumo",
        "event_total": 48,
        "has_played": true,
        "id": 778347,
        "last_rank": 38774,
        "player_name": "Samuel Mudge",
        "rank": 51004,
        "rank_sort": 51033,
        "total": 2351
      },
      {
        "club_badge_src": "https://fantasy.premierleague.com/gcs/plfpl-production-adobe-approved/plfpl-production/150815/0d4be296-1b90-4caa-a1ef-90eda9e94040.png",
        "entry": 150815,
        "entry_name": "Punisher FC",
        "event_total": 52,
        "has_played": true,
        "id": 989257,
        "last_rank": 44048,
        "player_name": "Jorgen Perminow",
        "rank": 51004,
        "rank_sort": 51034,
        "total": 2351
      },
      {
        "club_badge_src": null,
        "entry": 152102,
        "entry_name": "PAA",
        "event_total": 68,
        "has_played": true,
        "id": 998126,
        "last_rank": 70757,
        "player_name": "PAA GE",
        "rank": 51004,
        "rank_sort": 51035,
        "total": 2351
      },
      {
        "club_badge_src": null,
        "entry": 154611,
        "entry_name": "Livin Saliba Loca",
        "event_total": 42,
        "has_played": true,
        "id": 1015749,
        "last_rank": 31747,
        "player_name": "Oufa Khan",
        "rank": 51004,
        "rank_sort": 51036,
        "total": 2351
      },
      {
        "club_badge_src": null,
        "entry": 172494,
        "entry_name": "Proper Madheads",
        "event_total": 62,
        "has_played": true,
        "id": 1139332,
        "last_rank": 59813,
        "player_name": "Martin Heward",
        "rank": 51004,
        "rank_sort": 51037,
        "total": 2351
      },
      {
        "club_badge_src": null,
        "entry": 173190,
        "entry_name": "Grandpapa",
        "event_total": 62,
        "has_played": true,
        "id": 1143859,
        "last_rank": 59813,
        "player_name": "Kelfala Sheriff",
        "rank": 51004,
        "rank_sort": 51038,
        "total": 2351
      },
      {
        "club_badge_src": null,
        "entry": 177311,
        "entry_name": "BullDozer",
        "event_total": 56,
        "has_played": true,
        "id": 1170295,
        "last_rank": 49880,
        "player_name": "Samiul Alam",
        "rank": 51004,
        "rank_sort": 51039,
        "total": 2351
      },
      {
        "club_badge_src": null,
        "entry": 188166,
        "entry_name": "FC Railwayworker",
        "event_total": 60,
        "has_played": true,
        "id": 1244650,
        "last_rank": 56708,
        "player_name": "Kenan Mizdrak",
        "rank": 51004,
        "rank_sort": 51040,
        "total": 2351
      },
      {
        "club_badge_src": null,
        "entry": 193626,
        "entry_name": "Bas21on of Becker",
        "event_total": 56,
        "has_played": true,
        "id": 1283473,
        "last_rank": 49880,
        "player_name": "Ivan Kanev",
        "rank": 51004,
        "rank_sort": 51041,
        "total": 2351
      },
      {
        "club_badge_src": null,
        "entry": 198953,
        "entry_name": "\u0646\u062c\u0639 \u062d\u0645\u0627\u062f \u0627\u0641 \u0633\u064a",
        "event_total": 42,
        "has_played": true,
        "id": 1320341,
        "last_rank": 31995,
        "player_name": "Ali Ehab",
        "rank": 51004,
        "rank_sort": 51042,
        "total": 2351
      },
      {
        "club_badge_src": "https://fantasy.premierleague.com/gcs/plfpl-production-adobe-approved/plfpl-production/221845/597870bc-e1fe-4449-bcd2-5dae8e9a73a3.png",
        "entry": 221845,
        "entry_name": "FPLPedPed",
        "event_total": 56,
        "has_played": true,
        "id": 1475514,
        "last_rank": 49691,
        "player_name": "Apisit Phunphet",
        "rank": 51004,
        "rank_sort": 51043,
        "total": 2351
      },
      {
        "club_badge_src": null,
        "entry": 241566,
        "entry_name": "Kinder Mbuemo",
        "event_total": 64,
        "has_played": true,
        "id": 1607894,
        "last_rank": 63390,
        "player_name": "Tom Goodwin",
        "rank": 51004,
        "rank_sort": 51044,
        "total": 2351
      },
      {
        "club_badge_src": null,
        "entry": 241604,
        "entry_name": "Slot Machine",
        "event_total": 52,
        "has_played": true,
        "id": 1608149,
        "last_rank": 44048,
        "player_name": "Chris Baldwin",
        "rank": 51004,
        "rank_sort": 51045,
        "total": 2351
      },
      {
        "club_badge_src": null,
        "entry": 248567,
        "entry_name": "Botman returns",
        "event_total": 61,
        "has_played": true,
        "id": 1654339,
        "last_rank": 58388,
        "player_name": "Liam Armstrong",
        "rank": 51004,
        "rank_sort": 51046,
        "total": 2351
      },
      {
        "club_badge_src": "https://fantasy.premierleague.com/gcs/plfpl-production-adobe-approved/plfpl-production/253239/36605c6d-e3c0-46d7-a19f-339f80208196.png",
        "entry": 253239,
        "entry_name": "Bezwold Thursday",
        "event_total": 64,
        "has_played": true,
        "id": 1684321,
        "last_rank": 63390,
        "player_name": "Elliott Bermudez",
        "rank": 51004,
        "rank_sort": 51047,
        "total": 2351
      },
      {
        "club_badge_src": null,
        "entry": 263460,
        "entry_name": "Kroos Control",
        "event_total": 56,
        "has_played": true,
        "id": 1751733,
        "last_rank": 49880,
        "player_name": "Ahmed Al Jabal",
        "rank": 51004,
        "rank_sort": 51048,
        "total": 2351
      },
      {
        "club_badge_src": null,
        "entry": 263560,
        "entry_name": "SlotsShinyScalp",
        "event_total": 48,
        "has_played": true,
        "id": 1752424,
        "last_rank": 38542,
        "player_name": "George Sadler",
        "rank": 51004,
        "rank_sort": 51049,
        "total": 2351
      },
      {
        "club_badge_src": "https://fantasy.premierleague.com/gcs/plfpl-production-adobe-approved/plfpl-production/278839/82ae460d-a4a2-4f1f-a897-c5c3b2172e5c.png",
        "entry": 278839,
        "entry_name": "Pretek\u013ci",
        "event_total": 59,
        "has_played": true,
        "id": 1855796,
        "last_rank": 54667,
        "player_name": "Andis Ledskalni\u0146\u0161",
        "rank": 51004,
        "rank_sort": 51050,
        "total": 2351
      }
    ]
  }
}