{
  "last_updated_data": "2026-05-24T23:28:17Z",
  "league": {
    "admin_entry": null,
    "closed": false,
    "code_privacy": "p",
    "created": "2025-07-20T23:14:33.933835Z",
    "cup_league": 2815434,
    "has_cup": true,
    "id": 314,
    "league_type": "s",
    "max_entries": null,
    "name": "Overall",
    "rank": null,
    "scoring": "c",
    "start_event": 1
  },
  "new_entries": {
    "has_next": false,
    "page": 1,
    "results": []
  },
  "standings": {
    "has_next": true,
    "page": 431,
    "results": [
      {
        "club_badge_src": null,
        "entry": 7300720,
        "entry_name": "Different Knock",
        "event_total": 55,
        "has_played": true,
        "id": 59083131,
        "last_rank": 19432,
        "player_name": "Vijaykrishnan Venkatesh",
        "rank": 21354,
        "rank_sort": 21501,
        "total": 2378
      },
      {
        "club_badge_src": null,
        "entry": 7317908,
        "entry_name": "HulaFC",
        "event_total": 30,
        "has_played": true,
        "id": 59244472,
        "last_rank": 7141,
        "player_name": "simen Gerner",
        "rank": 21354,
        "rank_sort": 21502,
        "total": 2378
      },
      {
        "club_badge_src": null,
        "entry": 7320586,
        "entry_name": "qasssob",
        "event_total": 54,
        "has_played": true,
        "id": 59269291,
        "last_rank": 18790,
        "player_name": "Forikh Shams",
        "rank": 21354,
        "rank_sort": 21503,
        "total": 2378
      },
      {
        "club_badge_src": null,
        "entry": 7391762,
        "entry_name": "Hector Stellarin",
        "event_total": 42,
        "has_played": true,
        "id": 59936199,
        "last_rank": 11699,
        "player_name": "Ben Dyble",
        "rank": 21354,
        "rank_sort": 21504,
        "total": 2378
      },
      {
        "club_badge_src": null,
        "entry": 7454532,
        "entry_name": "Phase 9",
        "event_total": 70,
        "has_played": true,
        "id": 60694041,
        "last_rank": 32751,
        "player_name": "Viet Nguyen",
        "rank": 21354,
        "rank_sort": 21505,
        "total": 2378
      },
      {
        "club_badge_src": null,
        "entry": 7491231,
        "entry_name": "Furia 612",
        "event_total": 37,
        "has_played": true,
        "id": 61169401,
        "last_rank": 9536,
        "player_name": "Nicolas Curtiss",
        "rank": 21354,
        "rank_sort": 21506,
        "total": 2378
      },
      {
        "club_badge_src": null,
        "entry": 7598189,
        "entry_name": "Sakaspuds",
        "event_total": 57,
        "has_played": true,
        "id": 62248509,
        "last_rank": 20983,
        "player_name": "Martin Nichols",
        "rank": 21354,
        "rank_sort": 21507,
        "total": 2378
      },
      {
        "club_badge_src": null,
        "entry": 7672149,
        "entry_name": "Toves Traktorer",
        "event_total": 56,
        "has_played": true,
        "id": 62920943,
        "last_rank": 20179,
        "player_name": "Tove Lennartsson",
        "rank": 21354,
        "rank_sort": 21508,
        "total": 2378
      },
      {
        "club_badge_src": null,
        "entry": 7824233,
        "entry_name": "Western Wolverines",
        "event_total": 40,
        "has_played": true,
        "id": 64293326,
        "last_rank": 10805,
        "player_name": "Douglas White",
        "rank": 21354,
        "rank_sort": 21509,
        "total": 2378
      },
      {
        "club_badge_src": null,
        "entry": 7883195,
        "entry_name": "Rusty's Bar FC",
        "event_total": 47,
        "has_played": true,
        "id": 64833037,
        "last_rank": 14496,
        "player_name": "Danny Roberts",
        "rank": 21354,
        "rank_sort": 21510,
        "total": 2378
      },
      {
        "club_badge_src": null,
        "entry": 8057018,
        "entry_name": "Pole Calmer",
        "event_total": 59,
        "has_played": true,
        "id": 66400871,
        "last_rank": 22426,
        "player_name": "Romy Motwani",
        "rank": 21354,
        "rank_sort": 21511,
        "total": 2378
      },
      {
        "club_badge_src": null,
        "entry": 8232756,
        "entry_name": "XiTeam",
        "event_total": 72,
        "has_played": true,
        "id": 68053506,
        "last_rank": 35424,
        "player_name": "Kshitij Limaye",
        "rank": 21354,
        "rank_sort": 21512,
        "total": 2378
      },
      {
        "club_badge_src": null,
        "entry": 8681801,
        "entry_name": "NAIFEs Boys",
        "event_total": 61,
        "has_played": true,
        "id": 72402128,
        "last_rank": 24039,
        "player_name": "Nathan Hill",
        "rank": 21354,
        "rank_sort": 21513,
        "total": 2378
      },
      {
        "club_badge_src": null,
        "entry": 8693792,
        "entry_name": "Seagulls & Trawlers",
        "event_total": 60,
        "has_played": true,
        "id": 72519041,
        "last_rank": 23341,
        "player_name": "Mark Warne",
        "rank": 21354,
        "rank_sort": 21514,
        "total": 2378
      },
      {
        "club_badge_src": null,
        "entry": 8716754,
        "entry_name": "A Game of 38 Weeks",
        "event_total": 64,
        "has_played": true,
        "id": 72742208,
        "last_rank": 26827,
        "player_name": "Conor OG",
        "rank": 21354,
        "rank_sort": 21515,
        "total": 2378
      },
      {
        "club_badge_src": null,
        "entry": 8772190,
        "entry_name": "Baaland",
        "event_total": 70,
        "has_played": true,
        "id": 73276135,
        "last_rank": 32751,
        "player_name": "Saifuddin Rowther",
        "rank": 21354,
        "rank_sort": 21516,
        "total": 2378
      },
      {
        "club_badge_src": null,
        "entry": 9095302,
        "entry_name": "Winning PackHall",
        "event_total": 54,
        "has_played": true,
        "id": 76405338,
        "last_rank": 18691,
        "player_name": "Neil Grimshaw",
        "rank": 21354,
        "rank_sort": 21517,
        "total": 2378
      },
      {
        "club_badge_src": "https://fantasy.premierleague.com/gcs/plfpl-production-adobe-approved/plfpl-production/506/fe16e14d-18e2-4a02-9ee0-7be280398946.png",
        "entry": 506,
        "entry_name": "\u706b\u7bad\u603b\u51a0\u519b-NCU",
        "event_total": 64,
        "has_played": true,
        "id": 2789,
        "last_rank": 23341,
        "player_name": "DDD D",
        "rank": 21518,
        "rank_sort": 21518,
        "total": 2378
      },
      {
        "club_badge_src": null,
        "entry": 2395,
        "entry_name": "Otterveurdt",
        "event_total": 62,
        "has_played": true,
        "id": 13357,
        "last_rank": 25172,
        "player_name": "Danny Schiffelers",
        "rank": 21518,
        "rank_sort": 21519,
        "total": 2378
      },
      {
        "club_badge_src": "https://fantasy.premierleague.com/gcs/plfpl-production-adobe-approved/plfpl-production/3139/be4972e5-016c-4fa3-b000-a15c1fbf3164.png",
        "entry": 3139,
        "entry_name": "Aston Villermann",
        "event_total": 71,
        "has_played": true,
        "id": 17719,
        "last_rank": 34051,
        "player_name": "Stuart Villermann",
        "rank": 21518,
        "rank_sort": 21520,
        "total": 2378
      },
      {
        "club_badge_src": null,
        "entry": 4739,
        "entry_name": "CB Bandits",
        "event_total": 65,
        "has_played": true,
        "id": 26969,
        "last_rank": 24143,
        "player_name": "Anthony C",
        "rank": 21518,
        "rank_sort": 21521,
        "total": 2378
      },
      {
        "club_badge_src": null,
        "entry": 11522,
        "entry_name": "SakaRice",
        "event_total": 77,
        "has_played": true,
        "id": 68526,
        "last_rank": 41324,
        "player_name": "Jody Hosking",
        "rank": 21518,
        "rank_sort": 21522,
        "total": 2378
      },
      {
        "club_badge_src": "https://fantasy.premierleague.com/gcs/plfpl-production-adobe-approved/plfpl-production/14394/5996a84f-7872-4a6b-98b4-eeb627422336.png",
        "entry": 14394,
        "entry_name": "TBD",
        "event_total": 60,
        "has_played": true,
        "id": 87396,
        "last_rank": 20280,
        "player_name": "Kawach Kumar",
        "rank": 21518,
        "rank_sort": 21523,
        "total": 2378
      },
      {
        "club_badge_src": null,
        "entry": 19431,
        "entry_name": "HakunaMateta",
        "event_total": 46,
        "has_played": true,
        "id": 120896,
        "last_rank": 13947,
        "player_name": "Thomas Bellas",
        "rank": 21518,
        "rank_sort": 21524,
        "total": 2378
      },
      {
        "club_badge_src": null,
        "entry": 19708,
        "entry_name": "SB Team",
        "event_total": 63,
        "has_played": true,
        "id": 122643,
        "last_rank": 25902,
        "player_name": "Scarlet Bignell",
        "rank": 21518,
        "rank_sort": 21525,
        "total": 2378
      },
      {
        "club_badge_src": null,
        "entry": 21309,
        "entry_name": "Unshakables",
        "event_total": 63,
        "has_played": true,
        "id": 133593,
        "last_rank": 25902,
        "player_name": "YG T",
        "rank": 21518,
        "rank_sort": 21526,
        "total": 2378
      },
      {
        "club_badge_src": null,
        "entry": 30375,
        "entry_name": "DaSilvaLining",
        "event_total": 58,
        "has_played": true,
        "id": 192232,
        "last_rank": 21775,
        "player_name": "\u00c5dne Waaler",
        "rank": 21518,
        "rank_sort": 21527,
        "total": 2378
      },
      {
        "club_badge_src": null,
        "entry": 31927,
        "entry_name": "Team Hebb",
        "event_total": 65,
        "has_played": true,
        "id": 202740,
        "last_rank": 24039,
        "player_name": "Andreas Heiberg",
        "rank": 21518,
        "rank_sort": 21528,
        "total": 2378
      },
      {
        "club_badge_src": null,
        "entry": 39859,
        "entry_name": "Hubz",
        "event_total": 63,
        "has_played": true,
        "id": 255484,
        "last_rank": 22426,
        "player_name": "Hubert Adamek",
        "rank": 21518,
        "rank_sort": 21529,
        "total": 2378
      },
      {
        "club_badge_src": null,
        "entry": 44262,
        "entry_name": "AFC Richmond",
        "event_total": 56,
        "has_played": true,
        "id": 283638,
        "last_rank": 20280,
        "player_name": "Edward Limantoro",
        "rank": 21518,
        "rank_sort": 21530,
        "total": 2378
      },
      {
        "club_badge_src": null,
        "entry": 66138,
        "entry_name": "KasIDI",
        "event_total": 73,
        "has_played": true,
        "id": 427373,
        "last_rank": 31747,
        "player_name": "Kasidi Dantrakul",
        "rank": 21518,
        "rank_sort": 21531,
        "total": 2378
      },
      {
        "club_badge_src": null,
        "entry": 72676,
        "entry_name": "Wenger in",
        "event_total": 60,
        "has_played": true,
        "id": 472309,
        "last_rank": 23656,
        "player_name": "Mattis Hattestad",
        "rank": 21518,
        "rank_sort": 21532,
        "total": 2378
      },
      {
        "club_badge_src": null,
        "entry": 86118,
        "entry_name": "The Dead Parrots",
        "event_total": 58,
        "has_played": true,
        "id": 561111,
        "last_rank": 18790,
        "player_name": "Ben Clarke",
        "rank": 21518,
        "rank_sort": 21533,
        "total": 2378
      },
      {
        "club_badge_src": null,
        "entry": 92798,
        "entry_name": "obaid mohammad",
        "event_total": 70,
        "has_played": true,
        "id": 606410,
        "last_rank": 33147,
        "player_name": "\u0639\u0628\u064a\u062f \u0627\u0644\u0645\u0648\u064a\u0633\u0647",
        "rank": 21518,
        "rank_sort": 21534,
        "total": 2378
      },
      {
        "club_badge_src": null,
        "entry": 96024,
        "entry_name": "marksmen",
        "event_total": 57,
        "has_played": true,
        "id": 627328,
        "last_rank": 21159,
        "player_name": "Mark Flynn",
        "rank": 21518,
        "rank_sort": 21535,
        "total": 2378
      },
      {
        "club_badge_src": null,
        "entry": 123932,
        "entry_name": "Frimpingpong",
        "event_total": 72,
        "has_played": true,
        "id": 808308,
        "last_rank": 35034,
        "player_name": "Mathias Huber",
        "rank": 21518,
        "rank_sort": 21536,
        "total": 2378
      },
      {
        "club_badge_src": "https://fantasy.premierleague.com/gcs/plfpl-production-adobe-approved/plfpl-production/142768/d88c355e-0450-4d5d-82bb-15bd60e99fed.png",
        "entry": 142768,
        "entry_name": "Ctrl Alt De Ligt",
        "event_total": 70,
        "has_played": true,
        "id": 933705,
        "last_rank": 33147,
        "player_name": "Jerome Tan",
        "rank": 21518,
        "rank_sort": 21537,
        "total": 2378
      },
      {
        "club_badge_src": "https://fantasy.premierleague.com/gcs/plfpl-production-adobe-approved/plfpl-production/150632/937b5d37-3843-4424-852e-835363cc7f31.png",
        "entry": 150632,
        "entry_name": "Silverdiggers F.C.",
        "event_total": 55,
        "has_played": true,
        "id": 987985,
        "last_rank": 19544,
        "player_name": "Alexander Silversten",
        "rank": 21518,
        "rank_sort": 21538,
        "total": 2378
      },
      {
        "club_badge_src": null,
        "entry": 150739,
        "entry_name": "Wall Street Wingers",
        "event_total": 60,
        "has_played": true,
        "id": 988721,
        "last_rank": 20280,
        "player_name": "Oskar Kaufmann",
        "rank": 21518,
        "rank_sort": 21539,
        "total": 2378
      },
      {
        "club_badge_src": null,
        "entry": 152222,
        "entry_name": "\u00d8deparfum",
        "event_total": 55,
        "has_played": true,
        "id": 998995,
        "last_rank": 19721,
        "player_name": "Nathan Hale",
        "rank": 21518,
        "rank_sort": 21540,
        "total": 2378
      },
      {
        "club_badge_src": null,
        "entry": 162357,
        "entry_name": "Da Movement",
        "event_total": 69,
        "has_played": true,
        "id": 1070164,
        "last_rank": 31995,
        "player_name": "Michael Kojo Brown",
        "rank": 21518,
        "rank_sort": 21541,
        "total": 2378
      },
      {
        "club_badge_src": null,
        "entry": 173253,
        "entry_name": "GuaranteedRelegation",
        "event_total": 68,
        "has_played": true,
        "id": 1144268,
        "last_rank": 30727,
        "player_name": "Luka Stivaletti",
        "rank": 21518,
        "rank_sort": 21542,
        "total": 2378
      },
      {
        "club_badge_src": null,
        "entry": 181261,
        "entry_name": "Starboys FC",
        "event_total": 67,
        "has_played": true,
        "id": 1196135,
        "last_rank": 29578,
        "player_name": "Shervon Alleyne",
        "rank": 21518,
        "rank_sort": 21543,
        "total": 2378
      },
      {
        "club_badge_src": "https://fantasy.premierleague.com/gcs/plfpl-production-adobe-approved/plfpl-production/202066/a17fa0a2-017c-40da-800f-6b6d6b9e0813.png",
        "entry": 202066,
        "entry_name": "Bangkok Bahjis",
        "event_total": 53,
        "has_played": true,
        "id": 1341794,
        "last_rank": 18270,
        "player_name": "Jamie King",
        "rank": 21518,
        "rank_sort": 21544,
        "total": 2378
      },
      {
        "club_badge_src": null,
        "entry": 212566,
        "entry_name": "One Hit Wonder",
        "event_total": 45,
        "has_played": true,
        "id": 1414058,
        "last_rank": 13401,
        "player_name": "Alex Keech",
        "rank": 21518,
        "rank_sort": 21545,
        "total": 2378
      },
      {
        "club_badge_src": "https://fantasy.premierleague.com/gcs/plfpl-production-adobe-approved/plfpl-production/214057/63a75109-da3f-411a-b455-b16629a6d7fb.png",
        "entry": 214057,
        "entry_name": "Havertz POTS 25/26",
        "event_total": 48,
        "has_played": true,
        "id": 1424037,
        "last_rank": 15063,
        "player_name": "Erik Linnes Dr\u00e6geb\u00f8",
        "rank": 21518,
        "rank_sort": 21546,
        "total": 2378
      },
      {
        "club_badge_src": null,
        "entry": 223916,
        "entry_name": "Charli xGx",
        "event_total": 61,
        "has_played": true,
        "id": 1489487,
        "last_rank": 24143,
        "player_name": "Lewis Stevenson",
        "rank": 21518,
        "rank_sort": 21547,
        "total": 2378
      },
      {
        "club_badge_src": null,
        "entry": 235750,
        "entry_name": "Hurleys XI",
        "event_total": 66,
        "has_played": true,
        "id": 1568655,
        "last_rank": 28906,
        "player_name": "Dylan Hurley",
        "rank": 21518,
        "rank_sort": 21548,
        "total": 2378
      },
      {
        "club_badge_src": null,
        "entry": 240325,
        "entry_name": "Baby Reijnders",
        "event_total": 67,
        "has_played": true,
        "id": 1599374,
        "last_rank": 29688,
        "player_name": "John Feehan",
        "rank": 21518,
        "rank_sort": 21549,
        "total": 2378
      },
      {
        "club_badge_src": null,
        "entry": 245729,
        "entry_name": "No chance",
        "event_total": 56,
        "has_played": true,
        "id": 1636042,
        "last_rank": 17437,
        "player_name": "Tom Ceretto",
        "rank": 21518,
        "rank_sort": 21550,
        "total": 2378
      }
    ]
  }
}