{
  "last_updated_data": "2026-05-24T23:28:17Z",
  "league": {
    "admin_entry": null,
    "closed": false,
    "code_privacy": "p",
    "created": "2025-07-20T23:14:33.933835Z",
    "cup_league": 2815434,
    "has_cup": true,
    "id": 314,
    "league_type": "s",
    "max_entries": null,
    "name": "Overall",
    "rank": null,
    "scoring": "c",
    "start_event": 1
  },
  "new_entries": {
    "has_next": false,
    "page": 1,
    "results": []
  },
  "standings": {
    "has_next": true,
    "page": 945,
    "results": [
      {
        "club_badge_src": null,
        "entry": 188624,
        "entry_name": "LongbeachHinshelwood",
        "event_total": 59,
        "has_played": true,
        "id": 1248027,
        "last_rank": 50635,
        "player_name": "Jo Ellis",
        "rank": 47177,
        "rank_sort": 47201,
        "total": 2354
      },
      {
        "club_badge_src": null,
        "entry": 192391,
        "entry_name": "The Cush Way",
        "event_total": 53,
        "has_played": true,
        "id": 1274735,
        "last_rank": 41967,
        "player_name": "Michael Cushway",
        "rank": 47177,
        "rank_sort": 47202,
        "total": 2354
      },
      {
        "club_badge_src": null,
        "entry": 239492,
        "entry_name": "My Worst Choices 07",
        "event_total": 44,
        "has_played": true,
        "id": 1593673,
        "last_rank": 31236,
        "player_name": "Ahmed Elsabaa",
        "rank": 47177,
        "rank_sort": 47203,
        "total": 2354
      },
      {
        "club_badge_src": null,
        "entry": 248682,
        "entry_name": "Nothing else madders",
        "event_total": 57,
        "has_played": true,
        "id": 1655080,
        "last_rank": 47596,
        "player_name": "Joe Flaherty",
        "rank": 47177,
        "rank_sort": 47204,
        "total": 2354
      },
      {
        "club_badge_src": null,
        "entry": 283293,
        "entry_name": "Crazy Horses",
        "event_total": 67,
        "has_played": true,
        "id": 1885942,
        "last_rank": 49880,
        "player_name": "Darren Dray",
        "rank": 47177,
        "rank_sort": 47205,
        "total": 2354
      },
      {
        "club_badge_src": "https://fantasy.premierleague.com/gcs/plfpl-production-adobe-approved/plfpl-production/301002/9d81d9ee-49ec-47bd-80d4-6d337c8519c7.png",
        "entry": 301002,
        "entry_name": "Tefa Hisham FC",
        "event_total": 56,
        "has_played": true,
        "id": 2013592,
        "last_rank": 35424,
        "player_name": "Mostafa Hisham",
        "rank": 47177,
        "rank_sort": 47206,
        "total": 2354
      },
      {
        "club_badge_src": null,
        "entry": 301301,
        "entry_name": "Ping Frimg Pong Men",
        "event_total": 66,
        "has_played": true,
        "id": 2015760,
        "last_rank": 62429,
        "player_name": "Lindokuhle Khoza",
        "rank": 47177,
        "rank_sort": 47207,
        "total": 2354
      },
      {
        "club_badge_src": null,
        "entry": 319912,
        "entry_name": "Don't lookbackelanga",
        "event_total": 52,
        "has_played": true,
        "id": 2144303,
        "last_rank": 40647,
        "player_name": "richard castle",
        "rank": 47177,
        "rank_sort": 47208,
        "total": 2354
      },
      {
        "club_badge_src": "https://fantasy.premierleague.com/gcs/plfpl-production-adobe-approved/plfpl-production/323917/6c9499b7-2940-4990-9638-7c5fe39377fe.png",
        "entry": 323917,
        "entry_name": "FC TulikoSe",
        "event_total": 62,
        "has_played": true,
        "id": 2170599,
        "last_rank": 55514,
        "player_name": "Nebih Zeqiri",
        "rank": 47177,
        "rank_sort": 47209,
        "total": 2354
      },
      {
        "club_badge_src": null,
        "entry": 343708,
        "entry_name": "Haal-and Oates",
        "event_total": 46,
        "has_played": true,
        "id": 2300277,
        "last_rank": 33483,
        "player_name": "Alain Fogarty",
        "rank": 47177,
        "rank_sort": 47210,
        "total": 2354
      },
      {
        "club_badge_src": "https://fantasy.premierleague.com/gcs/plfpl-production-adobe-approved/plfpl-production/365082/9334b9e0-6209-4c57-b8be-e9135bebba07.png",
        "entry": 365082,
        "entry_name": "Cunha Mateta",
        "event_total": 55,
        "has_played": true,
        "id": 2443299,
        "last_rank": 39246,
        "player_name": "Scott Barton",
        "rank": 47177,
        "rank_sort": 47211,
        "total": 2354
      },
      {
        "club_badge_src": null,
        "entry": 386307,
        "entry_name": "Tikka-Taka",
        "event_total": 67,
        "has_played": true,
        "id": 2591564,
        "last_rank": 63724,
        "player_name": "Abhay Prakash",
        "rank": 47177,
        "rank_sort": 47212,
        "total": 2354
      },
      {
        "club_badge_src": "https://fantasy.premierleague.com/gcs/plfpl-production-adobe-approved/plfpl-production/409906/b9e0aefb-6f11-4dd7-a629-8f42e3ef293f.png",
        "entry": 409906,
        "entry_name": "JaCklinos",
        "event_total": 52,
        "has_played": true,
        "id": 2748621,
        "last_rank": 40503,
        "player_name": "Jorge Cola\u00e7o",
        "rank": 47177,
        "rank_sort": 47213,
        "total": 2354
      },
      {
        "club_badge_src": "https://fantasy.premierleague.com/gcs/plfpl-production-adobe-approved/plfpl-production/437226/97866786-73f0-4b1d-99c4-bf528214f3b5.png",
        "entry": 437226,
        "entry_name": "Cole Salahbration",
        "event_total": 41,
        "has_played": true,
        "id": 2931994,
        "last_rank": 28273,
        "player_name": "Vegard Tapio",
        "rank": 47177,
        "rank_sort": 47214,
        "total": 2354
      },
      {
        "club_badge_src": "https://fantasy.premierleague.com/gcs/plfpl-production-adobe-approved/plfpl-production/439461/bd8a4133-c5f7-45b6-a4d6-4b9e1058e18f.png",
        "entry": 439461,
        "entry_name": "K\u00e4rkk\u00e4ri United",
        "event_total": 73,
        "has_played": true,
        "id": 2946845,
        "last_rank": 75874,
        "player_name": "Joona Kautto",
        "rank": 47177,
        "rank_sort": 47215,
        "total": 2354
      },
      {
        "club_badge_src": null,
        "entry": 479729,
        "entry_name": "m4hdi team",
        "event_total": 56,
        "has_played": true,
        "id": 3220682,
        "last_rank": 46106,
        "player_name": "jusstt_ mehdi",
        "rank": 47177,
        "rank_sort": 47216,
        "total": 2354
      },
      {
        "club_badge_src": null,
        "entry": 506308,
        "entry_name": "B\u0105belki",
        "event_total": 59,
        "has_played": true,
        "id": 3398271,
        "last_rank": 50635,
        "player_name": "\u0141ukasz Kob\u0119dza",
        "rank": 47177,
        "rank_sort": 47217,
        "total": 2354
      },
      {
        "club_badge_src": "https://fantasy.premierleague.com/gcs/plfpl-production-adobe-approved/plfpl-production/520090/8efc7609-705a-4565-9fd5-865c5e6475f9.png",
        "entry": 520090,
        "entry_name": "Zubi-dubi-doo",
        "event_total": 57,
        "has_played": true,
        "id": 3492447,
        "last_rank": 47722,
        "player_name": "Josh Parsons",
        "rank": 47177,
        "rank_sort": 47218,
        "total": 2354
      },
      {
        "club_badge_src": null,
        "entry": 566001,
        "entry_name": "Lil Uzi Wirtz",
        "event_total": 61,
        "has_played": true,
        "id": 3809572,
        "last_rank": 53837,
        "player_name": "Nikita Maksimenko",
        "rank": 47177,
        "rank_sort": 47219,
        "total": 2354
      },
      {
        "club_badge_src": null,
        "entry": 583260,
        "entry_name": "Jah Jah Frimpong",
        "event_total": 71,
        "has_played": true,
        "id": 3925178,
        "last_rank": 63724,
        "player_name": "Myles Oliver",
        "rank": 47177,
        "rank_sort": 47220,
        "total": 2354
      },
      {
        "club_badge_src": null,
        "entry": 620833,
        "entry_name": "pitou",
        "event_total": 51,
        "has_played": true,
        "id": 4195593,
        "last_rank": 39403,
        "player_name": "Pierre Corvec",
        "rank": 47177,
        "rank_sort": 47221,
        "total": 2354
      },
      {
        "club_badge_src": null,
        "entry": 645852,
        "entry_name": "Frosty FC",
        "event_total": 60,
        "has_played": true,
        "id": 4364599,
        "last_rank": 40036,
        "player_name": "Martin Frost",
        "rank": 47177,
        "rank_sort": 47222,
        "total": 2354
      },
      {
        "club_badge_src": "https://fantasy.premierleague.com/gcs/plfpl-production-adobe-approved/plfpl-production/687486/60761ce4-8143-4794-b504-211653ee97b3.png",
        "entry": 687486,
        "entry_name": "NIKBLAKHOF",
        "event_total": 73,
        "has_played": true,
        "id": 4654219,
        "last_rank": 60168,
        "player_name": "Skander BACHTA",
        "rank": 47177,
        "rank_sort": 47223,
        "total": 2354
      },
      {
        "club_badge_src": null,
        "entry": 698765,
        "entry_name": "botrkii",
        "event_total": 56,
        "has_played": true,
        "id": 4733580,
        "last_rank": 46106,
        "player_name": "Bandar Aldousari",
        "rank": 47177,
        "rank_sort": 47224,
        "total": 2354
      },
      {
        "club_badge_src": null,
        "entry": 709289,
        "entry_name": "Take it Eze",
        "event_total": 66,
        "has_played": true,
        "id": 4808666,
        "last_rank": 55311,
        "player_name": "ben batty",
        "rank": 47177,
        "rank_sort": 47225,
        "total": 2354
      },
      {
        "club_badge_src": "https://fantasy.premierleague.com/gcs/plfpl-production-adobe-approved/plfpl-production/719883/1f5be4fb-450f-48f9-a8e8-0dfc30b34c2c.png",
        "entry": 719883,
        "entry_name": "for Becker or Wirtz",
        "event_total": 61,
        "has_played": true,
        "id": 4886859,
        "last_rank": 53345,
        "player_name": "Paul Boyd-Vandeleur",
        "rank": 47177,
        "rank_sort": 47226,
        "total": 2354
      },
      {
        "club_badge_src": null,
        "entry": 738068,
        "entry_name": "JSF F.C.",
        "event_total": 61,
        "has_played": true,
        "id": 5017858,
        "last_rank": 47417,
        "player_name": "igbegaoluwa ogundare-philips",
        "rank": 47177,
        "rank_sort": 47227,
        "total": 2354
      },
      {
        "club_badge_src": null,
        "entry": 755281,
        "entry_name": "Hamed_TM",
        "event_total": 73,
        "has_played": true,
        "id": 5141921,
        "last_rank": 46591,
        "player_name": "Hamed Abdelmoneim----",
        "rank": 47177,
        "rank_sort": 47228,
        "total": 2354
      },
      {
        "club_badge_src": null,
        "entry": 762484,
        "entry_name": "Tats Lads",
        "event_total": 70,
        "has_played": true,
        "id": 5199837,
        "last_rank": 69323,
        "player_name": "Andy T",
        "rank": 47177,
        "rank_sort": 47229,
        "total": 2354
      },
      {
        "club_badge_src": null,
        "entry": 764992,
        "entry_name": "Abo Yehia",
        "event_total": 66,
        "has_played": true,
        "id": 5217385,
        "last_rank": 55014,
        "player_name": "nasser fathy",
        "rank": 47177,
        "rank_sort": 47230,
        "total": 2354
      },
      {
        "club_badge_src": null,
        "entry": 794661,
        "entry_name": "Nettans FC",
        "event_total": 67,
        "has_played": true,
        "id": 5438418,
        "last_rank": 64005,
        "player_name": "Isak Net",
        "rank": 47177,
        "rank_sort": 47231,
        "total": 2354
      },
      {
        "club_badge_src": null,
        "entry": 873328,
        "entry_name": "HaalandMeTheTissues!",
        "event_total": 55,
        "has_played": true,
        "id": 5987364,
        "last_rank": 39246,
        "player_name": "Jesse Racey",
        "rank": 47177,
        "rank_sort": 47232,
        "total": 2354
      },
      {
        "club_badge_src": null,
        "entry": 883522,
        "entry_name": "Doukhani mimou",
        "event_total": 51,
        "has_played": true,
        "id": 6059245,
        "last_rank": 34458,
        "player_name": "King DK",
        "rank": 47177,
        "rank_sort": 47233,
        "total": 2354
      },
      {
        "club_badge_src": null,
        "entry": 908142,
        "entry_name": "Chaz team",
        "event_total": 48,
        "has_played": true,
        "id": 6242791,
        "last_rank": 35768,
        "player_name": "charlie morris",
        "rank": 47177,
        "rank_sort": 47234,
        "total": 2354
      },
      {
        "club_badge_src": null,
        "entry": 908909,
        "entry_name": "AURA",
        "event_total": 50,
        "has_played": true,
        "id": 6248240,
        "last_rank": 38163,
        "player_name": "darwin muniz",
        "rank": 47177,
        "rank_sort": 47235,
        "total": 2354
      },
      {
        "club_badge_src": null,
        "entry": 922884,
        "entry_name": "Brisenal FC",
        "event_total": 61,
        "has_played": true,
        "id": 6347455,
        "last_rank": 47163,
        "player_name": "Thomas Brice",
        "rank": 47177,
        "rank_sort": 47236,
        "total": 2354
      },
      {
        "club_badge_src": "https://fantasy.premierleague.com/gcs/plfpl-production-adobe-approved/plfpl-production/953585/4f3f1d4f-8efd-4be3-ae40-d43d7f32b329.png",
        "entry": 953585,
        "entry_name": "gudzuliccc",
        "event_total": 66,
        "has_played": true,
        "id": 6570130,
        "last_rank": 62223,
        "player_name": "Janko Gudzulic",
        "rank": 47177,
        "rank_sort": 47237,
        "total": 2354
      },
      {
        "club_badge_src": null,
        "entry": 1042741,
        "entry_name": "Flash Gordon",
        "event_total": 69,
        "has_played": true,
        "id": 7216057,
        "last_rank": 53345,
        "player_name": "Daniel Colbeck",
        "rank": 47177,
        "rank_sort": 47238,
        "total": 2354
      },
      {
        "club_badge_src": null,
        "entry": 1128917,
        "entry_name": "Dzakpata SC",
        "event_total": 63,
        "has_played": true,
        "id": 7824208,
        "last_rank": 50468,
        "player_name": "Delali Dorcoo",
        "rank": 47177,
        "rank_sort": 47239,
        "total": 2354
      },
      {
        "club_badge_src": null,
        "entry": 1148042,
        "entry_name": "hunter",
        "event_total": 42,
        "has_played": true,
        "id": 7959964,
        "last_rank": 29279,
        "player_name": "Saif Ahmed",
        "rank": 47177,
        "rank_sort": 47240,
        "total": 2354
      },
      {
        "club_badge_src": null,
        "entry": 1184049,
        "entry_name": "N9 !",
        "event_total": 52,
        "has_played": true,
        "id": 8215173,
        "last_rank": 40647,
        "player_name": "N M A",
        "rank": 47177,
        "rank_sort": 47241,
        "total": 2354
      },
      {
        "club_badge_src": null,
        "entry": 1244902,
        "entry_name": "Ricky Bobby Reid",
        "event_total": 61,
        "has_played": true,
        "id": 8645913,
        "last_rank": 53621,
        "player_name": "Ted Delahoy",
        "rank": 47177,
        "rank_sort": 47242,
        "total": 2354
      },
      {
        "club_badge_src": null,
        "entry": 1251706,
        "entry_name": "Surrehues reiser",
        "event_total": 52,
        "has_played": true,
        "id": 8693552,
        "last_rank": 35619,
        "player_name": "Rune Endalsvoll",
        "rank": 47177,
        "rank_sort": 47243,
        "total": 2354
      },
      {
        "club_badge_src": "https://fantasy.premierleague.com/gcs/plfpl-production-adobe-approved/plfpl-production/1281172/501de38a-3c65-4293-a399-93b6ac14b838.png",
        "entry": 1281172,
        "entry_name": "Bacon Mbappe",
        "event_total": 65,
        "has_played": true,
        "id": 8902518,
        "last_rank": 53345,
        "player_name": "Kieran Davis",
        "rank": 47177,
        "rank_sort": 47244,
        "total": 2354
      },
      {
        "club_badge_src": null,
        "entry": 1308511,
        "entry_name": "No Gy\u00f6king way",
        "event_total": 42,
        "has_played": true,
        "id": 9095334,
        "last_rank": 25330,
        "player_name": "P B",
        "rank": 47177,
        "rank_sort": 47245,
        "total": 2354
      },
      {
        "club_badge_src": null,
        "entry": 1337118,
        "entry_name": "Kinder Mbeumo",
        "event_total": 54,
        "has_played": true,
        "id": 9295441,
        "last_rank": 43342,
        "player_name": "Gaven Griffin",
        "rank": 47177,
        "rank_sort": 47246,
        "total": 2354
      },
      {
        "club_badge_src": null,
        "entry": 1390455,
        "entry_name": "The Dark Arts",
        "event_total": 50,
        "has_played": true,
        "id": 9673038,
        "last_rank": 38267,
        "player_name": "Martin Medina",
        "rank": 47177,
        "rank_sort": 47247,
        "total": 2354
      },
      {
        "club_badge_src": "https://fantasy.premierleague.com/gcs/plfpl-production-adobe-approved/plfpl-production/1418709/7d312538-dcc0-449f-aefb-0a9d6c86fcab.png",
        "entry": 1418709,
        "entry_name": "Wolf Pack",
        "event_total": 72,
        "has_played": true,
        "id": 9877957,
        "last_rank": 65796,
        "player_name": "Daniel Spiteri",
        "rank": 47177,
        "rank_sort": 47248,
        "total": 2354
      },
      {
        "club_badge_src": null,
        "entry": 1450183,
        "entry_name": "Reijnders Keepers",
        "event_total": 55,
        "has_played": true,
        "id": 10105046,
        "last_rank": 44672,
        "player_name": "Thomas Wright",
        "rank": 47177,
        "rank_sort": 47249,
        "total": 2354
      },
      {
        "club_badge_src": null,
        "entry": 1468301,
        "entry_name": "Team Moo",
        "event_total": 59,
        "has_played": true,
        "id": 10234565,
        "last_rank": 50635,
        "player_name": "Niclas Jakobsson",
        "rank": 47177,
        "rank_sort": 47250,
        "total": 2354
      }
    ]
  }
}