{
  "last_updated_data": "2026-05-24T23:28:17Z",
  "league": {
    "admin_entry": null,
    "closed": false,
    "code_privacy": "p",
    "created": "2025-07-20T23:14:33.933835Z",
    "cup_league": 2815434,
    "has_cup": true,
    "id": 314,
    "league_type": "s",
    "max_entries": null,
    "name": "Overall",
    "rank": null,
    "scoring": "c",
    "start_event": 1
  },
  "new_entries": {
    "has_next": false,
    "page": 1,
    "results": []
  },
  "standings": {
    "has_next": true,
    "page": 631,
    "results": [
      {
        "club_badge_src": null,
        "entry": 5925049,
        "entry_name": "Streets will forget",
        "event_total": 65,
        "has_played": true,
        "id": 46574116,
        "last_rank": 35619,
        "player_name": "Eskil Dalsl\u00e5en",
        "rank": 31408,
        "rank_sort": 31501,
        "total": 2367
      },
      {
        "club_badge_src": null,
        "entry": 6009216,
        "entry_name": "Bluebirds",
        "event_total": 61,
        "has_played": true,
        "id": 47379833,
        "last_rank": 35768,
        "player_name": "Jack Corney",
        "rank": 31408,
        "rank_sort": 31502,
        "total": 2367
      },
      {
        "club_badge_src": null,
        "entry": 6030539,
        "entry_name": "Clean Sheet Cartel",
        "event_total": 64,
        "has_played": true,
        "id": 47571029,
        "last_rank": 34458,
        "player_name": "Nicolas Reenp\u00e4\u00e4",
        "rank": 31408,
        "rank_sort": 31503,
        "total": 2367
      },
      {
        "club_badge_src": null,
        "entry": 6549477,
        "entry_name": "Bk Barksboys",
        "event_total": 75,
        "has_played": true,
        "id": 52262672,
        "last_rank": 48642,
        "player_name": "Kalle Zacharoff",
        "rank": 31408,
        "rank_sort": 31504,
        "total": 2367
      },
      {
        "club_badge_src": null,
        "entry": 6676611,
        "entry_name": "abo zizo",
        "event_total": 59,
        "has_played": true,
        "id": 53403414,
        "last_rank": 29071,
        "player_name": "Gaber Elsherif",
        "rank": 31408,
        "rank_sort": 31505,
        "total": 2367
      },
      {
        "club_badge_src": null,
        "entry": 6804901,
        "entry_name": "Quinn's Creepers",
        "event_total": 62,
        "has_played": true,
        "id": 54497001,
        "last_rank": 32190,
        "player_name": "Danny Phelan",
        "rank": 31408,
        "rank_sort": 31506,
        "total": 2367
      },
      {
        "club_badge_src": null,
        "entry": 6874951,
        "entry_name": "BIANCO",
        "event_total": 66,
        "has_played": true,
        "id": 55092733,
        "last_rank": 31995,
        "player_name": "Zakaria Aouadi",
        "rank": 31408,
        "rank_sort": 31507,
        "total": 2367
      },
      {
        "club_badge_src": null,
        "entry": 6983312,
        "entry_name": "idkwhatimdoing",
        "event_total": 76,
        "has_played": true,
        "id": 56049019,
        "last_rank": 44303,
        "player_name": "Toma Atanasov",
        "rank": 31408,
        "rank_sort": 31508,
        "total": 2367
      },
      {
        "club_badge_src": null,
        "entry": 7143176,
        "entry_name": "The Squeakdogs*",
        "event_total": 56,
        "has_played": true,
        "id": 57585402,
        "last_rank": 26230,
        "player_name": "david fennell",
        "rank": 31408,
        "rank_sort": 31509,
        "total": 2367
      },
      {
        "club_badge_src": null,
        "entry": 7563865,
        "entry_name": "Mondialy FC",
        "event_total": 54,
        "has_played": true,
        "id": 61936608,
        "last_rank": 28273,
        "player_name": "Abdul rahman Abdullah",
        "rank": 31408,
        "rank_sort": 31510,
        "total": 2367
      },
      {
        "club_badge_src": null,
        "entry": 7664689,
        "entry_name": "Yoro wizard Harry",
        "event_total": 59,
        "has_played": true,
        "id": 62851146,
        "last_rank": 33332,
        "player_name": "Matthew Breen",
        "rank": 31408,
        "rank_sort": 31511,
        "total": 2367
      },
      {
        "club_badge_src": null,
        "entry": 9100683,
        "entry_name": "Ruben Amorim fc",
        "event_total": 51,
        "has_played": true,
        "id": 76458867,
        "last_rank": 25436,
        "player_name": "Peter Oluwatobi",
        "rank": 31408,
        "rank_sort": 31512,
        "total": 2367
      },
      {
        "club_badge_src": null,
        "entry": 1768,
        "entry_name": "lyhlty",
        "event_total": 63,
        "has_played": true,
        "id": 9837,
        "last_rank": 33483,
        "player_name": "Brian Lau",
        "rank": 31513,
        "rank_sort": 31513,
        "total": 2367
      },
      {
        "club_badge_src": null,
        "entry": 2107,
        "entry_name": "kokooxd",
        "event_total": 72,
        "has_played": true,
        "id": 11757,
        "last_rank": 44672,
        "player_name": "Jakub Kasak",
        "rank": 31513,
        "rank_sort": 31514,
        "total": 2367
      },
      {
        "club_badge_src": "https://fantasy.premierleague.com/gcs/plfpl-production-adobe-approved/plfpl-production/13898/0187bb74-7f14-4a5d-be7b-2311a3d75d52.png",
        "entry": 13898,
        "entry_name": "Stockholm Syndrome",
        "event_total": 62,
        "has_played": true,
        "id": 84159,
        "last_rank": 37058,
        "player_name": "Rickard Hentze",
        "rank": 31513,
        "rank_sort": 31515,
        "total": 2367
      },
      {
        "club_badge_src": null,
        "entry": 33030,
        "entry_name": "Pedro Netonyahu",
        "event_total": 69,
        "has_played": true,
        "id": 210441,
        "last_rank": 40647,
        "player_name": "Chris Campbell",
        "rank": 31513,
        "rank_sort": 31516,
        "total": 2367
      },
      {
        "club_badge_src": "https://fantasy.premierleague.com/gcs/plfpl-production-adobe-approved/plfpl-production/53615/ff3175c6-9c8a-4fd4-a3b7-7f0adf62fb14.png",
        "entry": 53615,
        "entry_name": "Eze Come Eze Go",
        "event_total": 66,
        "has_played": true,
        "id": 344973,
        "last_rank": 36963,
        "player_name": "Marc Footman",
        "rank": 31513,
        "rank_sort": 31517,
        "total": 2367
      },
      {
        "club_badge_src": null,
        "entry": 74276,
        "entry_name": "Lokomotiv Koff\u00e5r",
        "event_total": 49,
        "has_played": true,
        "id": 482793,
        "last_rank": 20624,
        "player_name": "Tom Sivertsen",
        "rank": 31513,
        "rank_sort": 31518,
        "total": 2367
      },
      {
        "club_badge_src": null,
        "entry": 100111,
        "entry_name": "Just Tap It In",
        "event_total": 56,
        "has_played": true,
        "id": 653382,
        "last_rank": 26345,
        "player_name": "Liam Turner",
        "rank": 31513,
        "rank_sort": 31519,
        "total": 2367
      },
      {
        "club_badge_src": null,
        "entry": 130358,
        "entry_name": "Hakadalama",
        "event_total": 69,
        "has_played": true,
        "id": 849455,
        "last_rank": 40647,
        "player_name": "Arnav Singh",
        "rank": 31513,
        "rank_sort": 31520,
        "total": 2367
      },
      {
        "club_badge_src": null,
        "entry": 178665,
        "entry_name": "Make do & Zubimendi",
        "event_total": 64,
        "has_played": true,
        "id": 1179143,
        "last_rank": 39510,
        "player_name": "Paul Jacobs",
        "rank": 31513,
        "rank_sort": 31521,
        "total": 2367
      },
      {
        "club_badge_src": null,
        "entry": 213681,
        "entry_name": "hakuna mateta",
        "event_total": 75,
        "has_played": true,
        "id": 1421462,
        "last_rank": 48898,
        "player_name": "truls ringseth",
        "rank": 31513,
        "rank_sort": 31522,
        "total": 2367
      },
      {
        "club_badge_src": null,
        "entry": 230103,
        "entry_name": "Drop it like it Slot",
        "event_total": 51,
        "has_played": true,
        "id": 1530871,
        "last_rank": 25436,
        "player_name": "Rob Pearson",
        "rank": 31513,
        "rank_sort": 31523,
        "total": 2367
      },
      {
        "club_badge_src": null,
        "entry": 263131,
        "entry_name": "Hugh Jed United",
        "event_total": 59,
        "has_played": true,
        "id": 1749509,
        "last_rank": 33582,
        "player_name": "Christian Keith",
        "rank": 31513,
        "rank_sort": 31524,
        "total": 2367
      },
      {
        "club_badge_src": null,
        "entry": 285128,
        "entry_name": "Wang10FC",
        "event_total": 77,
        "has_played": true,
        "id": 1898831,
        "last_rank": 52205,
        "player_name": "Wangchuk Rooney",
        "rank": 31513,
        "rank_sort": 31525,
        "total": 2367
      },
      {
        "club_badge_src": null,
        "entry": 306288,
        "entry_name": "Seigmenn United",
        "event_total": 68,
        "has_played": true,
        "id": 2051212,
        "last_rank": 39403,
        "player_name": "Martin Norlin",
        "rank": 31513,
        "rank_sort": 31526,
        "total": 2367
      },
      {
        "club_badge_src": null,
        "entry": 330856,
        "entry_name": "PsyduckUtd",
        "event_total": 70,
        "has_played": true,
        "id": 2216139,
        "last_rank": 47596,
        "player_name": "Leon Tan",
        "rank": 31513,
        "rank_sort": 31527,
        "total": 2367
      },
      {
        "club_badge_src": null,
        "entry": 397949,
        "entry_name": "Maulden Magic",
        "event_total": 56,
        "has_played": true,
        "id": 2668500,
        "last_rank": 26345,
        "player_name": "Adam Humphries",
        "rank": 31513,
        "rank_sort": 31528,
        "total": 2367
      },
      {
        "club_badge_src": null,
        "entry": 496889,
        "entry_name": "Glenn Whelan",
        "event_total": 60,
        "has_played": true,
        "id": 3335101,
        "last_rank": 34682,
        "player_name": "Stoke (C)ity",
        "rank": 31513,
        "rank_sort": 31529,
        "total": 2367
      },
      {
        "club_badge_src": "https://fantasy.premierleague.com/gcs/plfpl-production-adobe-approved/plfpl-production/507833/ce081580-d721-4da1-bc26-cd181d8f97c6.png",
        "entry": 507833,
        "entry_name": "SucculentChineseMeal",
        "event_total": 50,
        "has_played": true,
        "id": 3408554,
        "last_rank": 24636,
        "player_name": "Paul Burke",
        "rank": 31513,
        "rank_sort": 31530,
        "total": 2367
      },
      {
        "club_badge_src": null,
        "entry": 540279,
        "entry_name": "\u062d\u0644\u0642 \u0627\u0644\u0644\u0647 \u064a\u0633\u062a\u0631\u0643",
        "event_total": 69,
        "has_played": true,
        "id": 3636534,
        "last_rank": 46236,
        "player_name": "mohammed ATEF",
        "rank": 31513,
        "rank_sort": 31531,
        "total": 2367
      },
      {
        "club_badge_src": null,
        "entry": 624630,
        "entry_name": "Harris' Hackers",
        "event_total": 44,
        "has_played": true,
        "id": 4221104,
        "last_rank": 19966,
        "player_name": "mark harris",
        "rank": 31513,
        "rank_sort": 31532,
        "total": 2367
      },
      {
        "club_badge_src": null,
        "entry": 698335,
        "entry_name": "kmb fc",
        "event_total": 66,
        "has_played": true,
        "id": 4730576,
        "last_rank": 36963,
        "player_name": "akram amr",
        "rank": 31513,
        "rank_sort": 31533,
        "total": 2367
      },
      {
        "club_badge_src": "https://fantasy.premierleague.com/gcs/plfpl-production-adobe-approved/plfpl-production/925494/0d6c7433-59c7-4f58-a5a9-c3c85579f123.png",
        "entry": 925494,
        "entry_name": "PAIN FC",
        "event_total": 69,
        "has_played": true,
        "id": 6366923,
        "last_rank": 46106,
        "player_name": "Mitcho Bani",
        "rank": 31513,
        "rank_sort": 31534,
        "total": 2367
      },
      {
        "club_badge_src": "https://fantasy.premierleague.com/gcs/plfpl-production-adobe-approved/plfpl-production/1209103/a31f4eb3-e053-480e-8663-86fcafdb6ead.png",
        "entry": 1209103,
        "entry_name": "FPL Goblins",
        "event_total": 36,
        "has_played": true,
        "id": 8391912,
        "last_rank": 12470,
        "player_name": "Chris Collins",
        "rank": 31513,
        "rank_sort": 31535,
        "total": 2367
      },
      {
        "club_badge_src": null,
        "entry": 1240940,
        "entry_name": "Jugta Culus",
        "event_total": 65,
        "has_played": true,
        "id": 8618353,
        "last_rank": 35619,
        "player_name": "Jalangoo Jalaas",
        "rank": 31513,
        "rank_sort": 31536,
        "total": 2367
      },
      {
        "club_badge_src": null,
        "entry": 1339214,
        "entry_name": "That we're The Ones\u261d",
        "event_total": 56,
        "has_played": true,
        "id": 9311044,
        "last_rank": 26345,
        "player_name": "The Ones",
        "rank": 31513,
        "rank_sort": 31537,
        "total": 2367
      },
      {
        "club_badge_src": null,
        "entry": 1628034,
        "entry_name": "\u0641\u0631\u064a\u0642 \u0627\u0644\u0628\u0627\u0643\u0627\u0628\u0648\u0631\u062a\u0627\u062a",
        "event_total": 34,
        "has_played": true,
        "id": 11395319,
        "last_rank": 13629,
        "player_name": "Aziz Ageel",
        "rank": 31513,
        "rank_sort": 31538,
        "total": 2367
      },
      {
        "club_badge_src": null,
        "entry": 1636274,
        "entry_name": "YOUSSEFxFATHY",
        "event_total": 62,
        "has_played": true,
        "id": 11453261,
        "last_rank": 37058,
        "player_name": "Youssef Fathy",
        "rank": 31513,
        "rank_sort": 31539,
        "total": 2367
      },
      {
        "club_badge_src": "https://fantasy.premierleague.com/gcs/plfpl-production-adobe-approved/plfpl-production/1687799/21038250-916b-4bf7-84ce-76743ebc5621.png",
        "entry": 1687799,
        "entry_name": "Zirkzee & I Know it",
        "event_total": 63,
        "has_played": true,
        "id": 11815007,
        "last_rank": 33483,
        "player_name": "Ethan Bates",
        "rank": 31513,
        "rank_sort": 31540,
        "total": 2367
      },
      {
        "club_badge_src": null,
        "entry": 1907859,
        "entry_name": "Bruce's Boys 2025",
        "event_total": 65,
        "has_played": true,
        "id": 13450241,
        "last_rank": 35619,
        "player_name": "Bruce SMITH",
        "rank": 31513,
        "rank_sort": 31541,
        "total": 2367
      },
      {
        "club_badge_src": null,
        "entry": 2122238,
        "entry_name": "Overpaid XI FC",
        "event_total": 52,
        "has_played": true,
        "id": 15075624,
        "last_rank": 26425,
        "player_name": "Nico Georgiou",
        "rank": 31513,
        "rank_sort": 31542,
        "total": 2367
      },
      {
        "club_badge_src": null,
        "entry": 2426733,
        "entry_name": "Don Carlo",
        "event_total": 75,
        "has_played": true,
        "id": 17351957,
        "last_rank": 48898,
        "player_name": "Mohammed Almarri",
        "rank": 31513,
        "rank_sort": 31543,
        "total": 2367
      },
      {
        "club_badge_src": null,
        "entry": 2583385,
        "entry_name": "Legoat James",
        "event_total": 78,
        "has_played": true,
        "id": 18543772,
        "last_rank": 60168,
        "player_name": "Chris Dwyer",
        "rank": 31513,
        "rank_sort": 31544,
        "total": 2367
      },
      {
        "club_badge_src": null,
        "entry": 2768385,
        "entry_name": "YUYAJI",
        "event_total": 65,
        "has_played": true,
        "id": 20198324,
        "last_rank": 40770,
        "player_name": "YUSUF YASIN",
        "rank": 31513,
        "rank_sort": 31545,
        "total": 2367
      },
      {
        "club_badge_src": null,
        "entry": 3116548,
        "entry_name": "Al-Shuprimau",
        "event_total": 73,
        "has_played": true,
        "id": 22998133,
        "last_rank": 46106,
        "player_name": "Zaidy S",
        "rank": 31513,
        "rank_sort": 31546,
        "total": 2367
      },
      {
        "club_badge_src": null,
        "entry": 3222683,
        "entry_name": "BarclaysMan",
        "event_total": 50,
        "has_played": true,
        "id": 23831546,
        "last_rank": 21392,
        "player_name": "lloyd sayers",
        "rank": 31513,
        "rank_sort": 31547,
        "total": 2367
      },
      {
        "club_badge_src": null,
        "entry": 3251961,
        "entry_name": "Kinder Mbuemo",
        "event_total": 69,
        "has_played": true,
        "id": 24060247,
        "last_rank": 46236,
        "player_name": "Jai Matharoo",
        "rank": 31513,
        "rank_sort": 31548,
        "total": 2367
      },
      {
        "club_badge_src": null,
        "entry": 3415131,
        "entry_name": "Mikel's Lego Haircut",
        "event_total": 43,
        "has_played": true,
        "id": 25365544,
        "last_rank": 19279,
        "player_name": "Adam Glaser",
        "rank": 31513,
        "rank_sort": 31549,
        "total": 2367
      },
      {
        "club_badge_src": "https://fantasy.premierleague.com/gcs/plfpl-production-adobe-approved/plfpl-production/3439659/c8c7e2cc-e1b6-4e93-be0d-16d75706a720.png",
        "entry": 3439659,
        "entry_name": "Aaliyan FC",
        "event_total": 58,
        "has_played": true,
        "id": 25554265,
        "last_rank": 28273,
        "player_name": "Aaliyan Malik",
        "rank": 31513,
        "rank_sort": 31550,
        "total": 2367
      }
    ]
  }
}