{
  "last_updated_data": "2026-05-24T23:28:17Z",
  "league": {
    "admin_entry": null,
    "closed": false,
    "code_privacy": "p",
    "created": "2025-07-20T23:14:33.933835Z",
    "cup_league": 2815434,
    "has_cup": true,
    "id": 314,
    "league_type": "s",
    "max_entries": null,
    "name": "Overall",
    "rank": null,
    "scoring": "c",
    "start_event": 1
  },
  "new_entries": {
    "has_next": false,
    "page": 1,
    "results": []
  },
  "standings": {
    "has_next": true,
    "page": 409,
    "results": [
      {
        "club_badge_src": null,
        "entry": 1464586,
        "entry_name": "Sazonov FC",
        "event_total": 69,
        "has_played": true,
        "id": 10208868,
        "last_rank": 30276,
        "player_name": "Dima Sazonov",
        "rank": 20390,
        "rank_sort": 20401,
        "total": 2380
      },
      {
        "club_badge_src": null,
        "entry": 1478152,
        "entry_name": "Chili cheese is back",
        "event_total": 79,
        "has_played": true,
        "id": 10306595,
        "last_rank": 42152,
        "player_name": "James Kelly",
        "rank": 20390,
        "rank_sort": 20402,
        "total": 2380
      },
      {
        "club_badge_src": null,
        "entry": 1812210,
        "entry_name": "Jose Maureen ya know",
        "event_total": 66,
        "has_played": true,
        "id": 12742395,
        "last_rank": 27364,
        "player_name": "Simon Owen",
        "rank": 20390,
        "rank_sort": 20403,
        "total": 2380
      },
      {
        "club_badge_src": null,
        "entry": 2287924,
        "entry_name": "WIP",
        "event_total": 50,
        "has_played": true,
        "id": 16316935,
        "last_rank": 15319,
        "player_name": "Josh Riekie",
        "rank": 20390,
        "rank_sort": 20404,
        "total": 2380
      },
      {
        "club_badge_src": null,
        "entry": 2300618,
        "entry_name": "Lets go champ",
        "event_total": 61,
        "has_played": true,
        "id": 16408824,
        "last_rank": 22921,
        "player_name": "James Russell",
        "rank": 20390,
        "rank_sort": 20405,
        "total": 2380
      },
      {
        "club_badge_src": null,
        "entry": 2500278,
        "entry_name": "Eskandar",
        "event_total": 64,
        "has_played": true,
        "id": 17902670,
        "last_rank": 25564,
        "player_name": "Eskandar waled",
        "rank": 20390,
        "rank_sort": 20406,
        "total": 2380
      },
      {
        "club_badge_src": null,
        "entry": 2821486,
        "entry_name": "KSY fc",
        "event_total": 58,
        "has_played": true,
        "id": 20613065,
        "last_rank": 17848,
        "player_name": "Noh ArNOHtovic",
        "rank": 20390,
        "rank_sort": 20407,
        "total": 2380
      },
      {
        "club_badge_src": "https://fantasy.premierleague.com/gcs/plfpl-production-adobe-approved/plfpl-production/3138677/4d20f019-b178-4d1f-8176-0443aeef7aa8.png",
        "entry": 3138677,
        "entry_name": "Chester",
        "event_total": 62,
        "has_played": true,
        "id": 23170284,
        "last_rank": 20678,
        "player_name": "Mohammed Yahya",
        "rank": 20390,
        "rank_sort": 20408,
        "total": 2380
      },
      {
        "club_badge_src": null,
        "entry": 3526676,
        "entry_name": "BIGDVROOMVROOM",
        "event_total": 69,
        "has_played": true,
        "id": 26246547,
        "last_rank": 22921,
        "player_name": "David Daoud",
        "rank": 20390,
        "rank_sort": 20409,
        "total": 2380
      },
      {
        "club_badge_src": null,
        "entry": 4654047,
        "entry_name": "Jimmy's Barmy Army",
        "event_total": 50,
        "has_played": true,
        "id": 35613146,
        "last_rank": 15336,
        "player_name": "James Barrington",
        "rank": 20390,
        "rank_sort": 20410,
        "total": 2380
      },
      {
        "club_badge_src": null,
        "entry": 4703182,
        "entry_name": "Zamalek Knight",
        "event_total": 63,
        "has_played": true,
        "id": 36056558,
        "last_rank": 24680,
        "player_name": "Mohamed Reda",
        "rank": 20390,
        "rank_sort": 20411,
        "total": 2380
      },
      {
        "club_badge_src": "https://fantasy.premierleague.com/gcs/plfpl-production-adobe-approved/plfpl-production/4882886/480a1f71-98f3-4919-a6b0-2f03db77712d.png",
        "entry": 4882886,
        "entry_name": "It Wirtz When I Pee",
        "event_total": 51,
        "has_played": true,
        "id": 37642990,
        "last_rank": 15952,
        "player_name": "Arno Goosen",
        "rank": 20390,
        "rank_sort": 20412,
        "total": 2380
      },
      {
        "club_badge_src": null,
        "entry": 5036939,
        "entry_name": "Hills Heroes",
        "event_total": 71,
        "has_played": true,
        "id": 38905548,
        "last_rank": 32491,
        "player_name": "Oli Hills",
        "rank": 20390,
        "rank_sort": 20413,
        "total": 2380
      },
      {
        "club_badge_src": null,
        "entry": 5826133,
        "entry_name": "Credit,Crypto & Cash",
        "event_total": 51,
        "has_played": true,
        "id": 45724732,
        "last_rank": 13601,
        "player_name": "Alex McKeough",
        "rank": 20390,
        "rank_sort": 20414,
        "total": 2380
      },
      {
        "club_badge_src": "https://fantasy.premierleague.com/gcs/plfpl-production-adobe-approved/plfpl-production/6917718/6e820e59-df3d-4779-a096-cd266279228f.png",
        "entry": 6917718,
        "entry_name": "Elvovo FC",
        "event_total": 71,
        "has_played": true,
        "id": 55452814,
        "last_rank": 28348,
        "player_name": "Elvis Rapoo",
        "rank": 20390,
        "rank_sort": 20415,
        "total": 2380
      },
      {
        "club_badge_src": null,
        "entry": 8004855,
        "entry_name": "nevergiveup",
        "event_total": 56,
        "has_played": true,
        "id": 65927611,
        "last_rank": 16567,
        "player_name": "FBL Thinker",
        "rank": 20390,
        "rank_sort": 20416,
        "total": 2380
      },
      {
        "club_badge_src": "https://fantasy.premierleague.com/gcs/plfpl-production-adobe-approved/plfpl-production/207992/5b6575d0-a2a9-422e-a1e0-27daedc394bc.png",
        "entry": 207992,
        "entry_name": "hos",
        "event_total": 63,
        "has_played": true,
        "id": 1382658,
        "last_rank": 21486,
        "player_name": "Hossam Mostafa",
        "rank": 20417,
        "rank_sort": 20417,
        "total": 2380
      },
      {
        "club_badge_src": null,
        "entry": 213119,
        "entry_name": "I_Know_Kevin",
        "event_total": 75,
        "has_played": true,
        "id": 1417695,
        "last_rank": 37134,
        "player_name": "Logan Black",
        "rank": 20417,
        "rank_sort": 20418,
        "total": 2380
      },
      {
        "club_badge_src": "https://fantasy.premierleague.com/gcs/plfpl-production-adobe-approved/plfpl-production/272323/de35cc4b-e256-4dad-a9d2-2f597cf2573f.png",
        "entry": 272323,
        "entry_name": "StamfordFridge",
        "event_total": 63,
        "has_played": true,
        "id": 1811818,
        "last_rank": 24713,
        "player_name": "Aleksa Mrakovic",
        "rank": 20417,
        "rank_sort": 20419,
        "total": 2380
      },
      {
        "club_badge_src": null,
        "entry": 355759,
        "entry_name": "FC Schophoek",
        "event_total": 71,
        "has_played": true,
        "id": 2380851,
        "last_rank": 20983,
        "player_name": "Joeri Smits",
        "rank": 20417,
        "rank_sort": 20420,
        "total": 2380
      },
      {
        "club_badge_src": null,
        "entry": 610785,
        "entry_name": "love a quick touch",
        "event_total": 50,
        "has_played": true,
        "id": 4126681,
        "last_rank": 15319,
        "player_name": "stephen bowman",
        "rank": 20417,
        "rank_sort": 20421,
        "total": 2380
      },
      {
        "club_badge_src": null,
        "entry": 713116,
        "entry_name": "N\u00e4ita neile Mbeumo!",
        "event_total": 64,
        "has_played": true,
        "id": 4837734,
        "last_rank": 22263,
        "player_name": "Sten-Kristjan Nurk",
        "rank": 20417,
        "rank_sort": 20422,
        "total": 2380
      },
      {
        "club_badge_src": null,
        "entry": 795943,
        "entry_name": "Cesc Pistols",
        "event_total": 61,
        "has_played": true,
        "id": 5447312,
        "last_rank": 19904,
        "player_name": "El Scorchi0",
        "rank": 20417,
        "rank_sort": 20423,
        "total": 2380
      },
      {
        "club_badge_src": null,
        "entry": 1250626,
        "entry_name": "Saka Potatoes",
        "event_total": 63,
        "has_played": true,
        "id": 8685835,
        "last_rank": 24713,
        "player_name": "George White",
        "rank": 20417,
        "rank_sort": 20424,
        "total": 2380
      },
      {
        "club_badge_src": "https://fantasy.premierleague.com/gcs/plfpl-production-adobe-approved/plfpl-production/1462516/9c4934ab-df1b-4bf3-bf78-1c1fd04a2cbf.png",
        "entry": 1462516,
        "entry_name": "Md Syahmi FC",
        "event_total": 64,
        "has_played": true,
        "id": 10194360,
        "last_rank": 25595,
        "player_name": "Md Syahmi",
        "rank": 20417,
        "rank_sort": 20425,
        "total": 2380
      },
      {
        "club_badge_src": "https://fantasy.premierleague.com/gcs/plfpl-production-adobe-approved/plfpl-production/2071240/88807861-6025-417a-b9d5-cdff5b716aad.png",
        "entry": 2071240,
        "entry_name": "Bandito FC",
        "event_total": 62,
        "has_played": true,
        "id": 14684456,
        "last_rank": 20727,
        "player_name": "Steve Gomez",
        "rank": 20417,
        "rank_sort": 20426,
        "total": 2380
      },
      {
        "club_badge_src": null,
        "entry": 2541584,
        "entry_name": "Red Garuda",
        "event_total": 63,
        "has_played": true,
        "id": 18215393,
        "last_rank": 24713,
        "player_name": "c p",
        "rank": 20417,
        "rank_sort": 20427,
        "total": 2380
      },
      {
        "club_badge_src": null,
        "entry": 2706350,
        "entry_name": "sugar daddies",
        "event_total": 73,
        "has_played": true,
        "id": 19470596,
        "last_rank": 34749,
        "player_name": "David hartshorn",
        "rank": 20417,
        "rank_sort": 20428,
        "total": 2380
      },
      {
        "club_badge_src": null,
        "entry": 2926488,
        "entry_name": "cossies heros",
        "event_total": 62,
        "has_played": true,
        "id": 21454603,
        "last_rank": 23881,
        "player_name": "Pat Cosgrove",
        "rank": 20417,
        "rank_sort": 20429,
        "total": 2380
      },
      {
        "club_badge_src": null,
        "entry": 2989006,
        "entry_name": "Omar",
        "event_total": 61,
        "has_played": true,
        "id": 21981888,
        "last_rank": 20008,
        "player_name": "Omar ElRefaay",
        "rank": 20417,
        "rank_sort": 20430,
        "total": 2380
      },
      {
        "club_badge_src": "https://fantasy.premierleague.com/gcs/plfpl-production-adobe-approved/plfpl-production/2998491/d0ab6983-01e7-418b-818c-ed5b340baf4d.png",
        "entry": 2998491,
        "entry_name": "Saint FC",
        "event_total": 61,
        "has_played": true,
        "id": 22054706,
        "last_rank": 23039,
        "player_name": "Abiodun Salimon",
        "rank": 20417,
        "rank_sort": 20431,
        "total": 2380
      },
      {
        "club_badge_src": null,
        "entry": 3997241,
        "entry_name": "Major League Saka",
        "event_total": 44,
        "has_played": true,
        "id": 30103785,
        "last_rank": 12048,
        "player_name": "Leon Alexander",
        "rank": 20417,
        "rank_sort": 20432,
        "total": 2380
      },
      {
        "club_badge_src": null,
        "entry": 4963733,
        "entry_name": "Nice Guys XI",
        "event_total": 46,
        "has_played": true,
        "id": 38305488,
        "last_rank": 13084,
        "player_name": "Kevin Ng",
        "rank": 20417,
        "rank_sort": 20433,
        "total": 2380
      },
      {
        "club_badge_src": null,
        "entry": 4971320,
        "entry_name": "TANK FC",
        "event_total": 54,
        "has_played": true,
        "id": 38370462,
        "last_rank": 17894,
        "player_name": "Thomas Kelly",
        "rank": 20417,
        "rank_sort": 20434,
        "total": 2380
      },
      {
        "club_badge_src": null,
        "entry": 5780001,
        "entry_name": "Bruno Dos Tres",
        "event_total": 67,
        "has_played": true,
        "id": 45323618,
        "last_rank": 24680,
        "player_name": "JC Patel",
        "rank": 20417,
        "rank_sort": 20435,
        "total": 2380
      },
      {
        "club_badge_src": "https://fantasy.premierleague.com/gcs/plfpl-production-adobe-approved/plfpl-production/6954086/be59e287-a591-4661-9cc2-df478574cefe.png",
        "entry": 6954086,
        "entry_name": "ShawShanks",
        "event_total": 53,
        "has_played": true,
        "id": 55762921,
        "last_rank": 14712,
        "player_name": "J.M. Mark",
        "rank": 20417,
        "rank_sort": 20436,
        "total": 2380
      },
      {
        "club_badge_src": null,
        "entry": 7359804,
        "entry_name": "Lemon Demons(Angels)",
        "event_total": 73,
        "has_played": true,
        "id": 59640384,
        "last_rank": 34749,
        "player_name": "Lemon Angels -demons-",
        "rank": 20417,
        "rank_sort": 20437,
        "total": 2380
      },
      {
        "club_badge_src": null,
        "entry": 7499742,
        "entry_name": "Trust The Process FC",
        "event_total": 48,
        "has_played": true,
        "id": 61275526,
        "last_rank": 10151,
        "player_name": "Piotr Zima",
        "rank": 20417,
        "rank_sort": 20438,
        "total": 2380
      },
      {
        "club_badge_src": null,
        "entry": 8034469,
        "entry_name": "Gunners",
        "event_total": 56,
        "has_played": true,
        "id": 66195869,
        "last_rank": 14148,
        "player_name": "J B",
        "rank": 20417,
        "rank_sort": 20439,
        "total": 2380
      },
      {
        "club_badge_src": null,
        "entry": 44701,
        "entry_name": "AURORA XI",
        "event_total": 70,
        "has_played": true,
        "id": 286556,
        "last_rank": 27438,
        "player_name": "Nathaphong Phruthisaranphong",
        "rank": 20440,
        "rank_sort": 20440,
        "total": 2380
      },
      {
        "club_badge_src": null,
        "entry": 100944,
        "entry_name": "Rasmy",
        "event_total": 63,
        "has_played": true,
        "id": 658728,
        "last_rank": 24735,
        "player_name": "Mohamed Rasmy",
        "rank": 20440,
        "rank_sort": 20441,
        "total": 2380
      },
      {
        "club_badge_src": null,
        "entry": 178203,
        "entry_name": "Adamantium",
        "event_total": 60,
        "has_played": true,
        "id": 1176122,
        "last_rank": 16598,
        "player_name": "Adam knocker",
        "rank": 20440,
        "rank_sort": 20442,
        "total": 2380
      },
      {
        "club_badge_src": null,
        "entry": 231074,
        "entry_name": "Harambee Stars",
        "event_total": 68,
        "has_played": true,
        "id": 1537319,
        "last_rank": 25595,
        "player_name": "Stuart Best",
        "rank": 20440,
        "rank_sort": 20443,
        "total": 2380
      },
      {
        "club_badge_src": null,
        "entry": 732994,
        "entry_name": "Saka Potatoes",
        "event_total": 66,
        "has_played": true,
        "id": 4981143,
        "last_rank": 27402,
        "player_name": "Jack Hollick",
        "rank": 20440,
        "rank_sort": 20444,
        "total": 2380
      },
      {
        "club_badge_src": null,
        "entry": 758698,
        "entry_name": "Palmer Violets",
        "event_total": 68,
        "has_played": true,
        "id": 5168610,
        "last_rank": 25564,
        "player_name": "Franco Almeida",
        "rank": 20440,
        "rank_sort": 20445,
        "total": 2380
      },
      {
        "club_badge_src": null,
        "entry": 774648,
        "entry_name": "Black Swans",
        "event_total": 67,
        "has_played": true,
        "id": 5285377,
        "last_rank": 24713,
        "player_name": "Paul Browne",
        "rank": 20440,
        "rank_sort": 20446,
        "total": 2380
      },
      {
        "club_badge_src": null,
        "entry": 920733,
        "entry_name": "Certified Turtle",
        "event_total": 58,
        "has_played": true,
        "id": 6332130,
        "last_rank": 17894,
        "player_name": "Merson Styles",
        "rank": 20440,
        "rank_sort": 20447,
        "total": 2380
      },
      {
        "club_badge_src": "https://fantasy.premierleague.com/gcs/plfpl-production-adobe-approved/plfpl-production/983371/1b29a185-c425-44b3-9178-2aa82d547f42.png",
        "entry": 983371,
        "entry_name": "Viking FC",
        "event_total": 65,
        "has_played": true,
        "id": 6779861,
        "last_rank": 26541,
        "player_name": "Ezekiel E",
        "rank": 20440,
        "rank_sort": 20448,
        "total": 2380
      },
      {
        "club_badge_src": null,
        "entry": 1089152,
        "entry_name": "ShayKing in my boots",
        "event_total": 69,
        "has_played": true,
        "id": 7542984,
        "last_rank": 26475,
        "player_name": "Shay Beeka",
        "rank": 20440,
        "rank_sort": 20449,
        "total": 2380
      },
      {
        "club_badge_src": null,
        "entry": 1358744,
        "entry_name": "Dru\u017cyna",
        "event_total": 56,
        "has_played": true,
        "id": 9444680,
        "last_rank": 19318,
        "player_name": "Roman End",
        "rank": 20440,
        "rank_sort": 20450,
        "total": 2380
      }
    ]
  }
}