{
  "last_updated_data": "2026-05-24T23:28:17Z",
  "league": {
    "admin_entry": null,
    "closed": false,
    "code_privacy": "p",
    "created": "2025-07-20T23:14:33.933835Z",
    "cup_league": 2815434,
    "has_cup": true,
    "id": 314,
    "league_type": "s",
    "max_entries": null,
    "name": "Overall",
    "rank": null,
    "scoring": "c",
    "start_event": 1
  },
  "new_entries": {
    "has_next": false,
    "page": 1,
    "results": []
  },
  "standings": {
    "has_next": true,
    "page": 1557,
    "results": [
      {
        "club_badge_src": null,
        "entry": 140918,
        "entry_name": "Quick Maths",
        "event_total": 67,
        "has_played": true,
        "id": 920442,
        "last_rank": 103526,
        "player_name": "Tuomas Harjula",
        "rank": 77757,
        "rank_sort": 77801,
        "total": 2336
      },
      {
        "club_badge_src": null,
        "entry": 141761,
        "entry_name": "MATIKUTU CITY",
        "event_total": 65,
        "has_played": true,
        "id": 926345,
        "last_rank": 98183,
        "player_name": "Mohamad Zaidi Serah",
        "rank": 77757,
        "rank_sort": 77802,
        "total": 2336
      },
      {
        "club_badge_src": null,
        "entry": 144587,
        "entry_name": "Banners 25/26",
        "event_total": 62,
        "has_played": true,
        "id": 946518,
        "last_rank": 91006,
        "player_name": "james banwell",
        "rank": 77757,
        "rank_sort": 77803,
        "total": 2336
      },
      {
        "club_badge_src": null,
        "entry": 152299,
        "entry_name": "Hacklam Kebab",
        "event_total": 48,
        "has_played": true,
        "id": 999564,
        "last_rank": 61606,
        "player_name": "Paul Hallam",
        "rank": 77757,
        "rank_sort": 77804,
        "total": 2336
      },
      {
        "club_badge_src": null,
        "entry": 153633,
        "entry_name": "Chels",
        "event_total": 65,
        "has_played": true,
        "id": 1008970,
        "last_rank": 98183,
        "player_name": "Moses Karumbi",
        "rank": 77757,
        "rank_sort": 77805,
        "total": 2336
      },
      {
        "club_badge_src": null,
        "entry": 154508,
        "entry_name": "Super Mik Arteta",
        "event_total": 67,
        "has_played": true,
        "id": 1015041,
        "last_rank": 103254,
        "player_name": "Luke Gunning",
        "rank": 77757,
        "rank_sort": 77806,
        "total": 2336
      },
      {
        "club_badge_src": null,
        "entry": 159010,
        "entry_name": "Bar\u00e7a",
        "event_total": 59,
        "has_played": true,
        "id": 1046419,
        "last_rank": 83584,
        "player_name": "Visca Bar\u00e7a",
        "rank": 77757,
        "rank_sort": 77807,
        "total": 2336
      },
      {
        "club_badge_src": null,
        "entry": 176536,
        "entry_name": "Joel HC",
        "event_total": 63,
        "has_played": true,
        "id": 1165375,
        "last_rank": 93186,
        "player_name": "Joel Lundgren",
        "rank": 77757,
        "rank_sort": 77808,
        "total": 2336
      },
      {
        "club_badge_src": "https://fantasy.premierleague.com/gcs/plfpl-production-adobe-approved/plfpl-production/187115/8f0e446c-0611-4c14-bdcf-127fb746b837.png",
        "entry": 187115,
        "entry_name": "lefriki Atletico",
        "event_total": 82,
        "has_played": true,
        "id": 1236986,
        "last_rank": 150077,
        "player_name": "Sami Hajnasr",
        "rank": 77757,
        "rank_sort": 77809,
        "total": 2336
      },
      {
        "club_badge_src": null,
        "entry": 199723,
        "entry_name": "expected toulouse",
        "event_total": 48,
        "has_played": true,
        "id": 1325593,
        "last_rank": 61950,
        "player_name": "Harry Swan",
        "rank": 77757,
        "rank_sort": 77810,
        "total": 2336
      },
      {
        "club_badge_src": null,
        "entry": 202651,
        "entry_name": "Fire Up The Quattro",
        "event_total": 53,
        "has_played": true,
        "id": 1345918,
        "last_rank": 70651,
        "player_name": "Steven Howarth",
        "rank": 77757,
        "rank_sort": 77811,
        "total": 2336
      },
      {
        "club_badge_src": null,
        "entry": 209911,
        "entry_name": "Fc Red Devil",
        "event_total": 48,
        "has_played": true,
        "id": 1395941,
        "last_rank": 61950,
        "player_name": "Shadab Istiak",
        "rank": 77757,
        "rank_sort": 77812,
        "total": 2336
      },
      {
        "club_badge_src": null,
        "entry": 225454,
        "entry_name": "ShawToulouse",
        "event_total": 37,
        "has_played": true,
        "id": 1499783,
        "last_rank": 44303,
        "player_name": "Danielle Wilson",
        "rank": 77757,
        "rank_sort": 77813,
        "total": 2336
      },
      {
        "club_badge_src": null,
        "entry": 233561,
        "entry_name": "Ryans XI",
        "event_total": 41,
        "has_played": true,
        "id": 1554035,
        "last_rank": 49691,
        "player_name": "Ryan McCourt",
        "rank": 77757,
        "rank_sort": 77814,
        "total": 2336
      },
      {
        "club_badge_src": null,
        "entry": 235054,
        "entry_name": "House of Mous",
        "event_total": 58,
        "has_played": true,
        "id": 1564025,
        "last_rank": 81646,
        "player_name": "Callum Sloan",
        "rank": 77757,
        "rank_sort": 77815,
        "total": 2336
      },
      {
        "club_badge_src": null,
        "entry": 243836,
        "entry_name": "mayer doa FC",
        "event_total": 64,
        "has_played": true,
        "id": 1623529,
        "last_rank": 95640,
        "player_name": "Tawhidul Hasan",
        "rank": 77757,
        "rank_sort": 77816,
        "total": 2336
      },
      {
        "club_badge_src": null,
        "entry": 244167,
        "entry_name": "Eze? He is aye",
        "event_total": 67,
        "has_played": true,
        "id": 1625666,
        "last_rank": 103254,
        "player_name": "Sean Conway",
        "rank": 77757,
        "rank_sort": 77817,
        "total": 2336
      },
      {
        "club_badge_src": null,
        "entry": 252969,
        "entry_name": "RedDevils",
        "event_total": 69,
        "has_played": true,
        "id": 1682546,
        "last_rank": 108959,
        "player_name": "dancho vachev",
        "rank": 77757,
        "rank_sort": 77818,
        "total": 2336
      },
      {
        "club_badge_src": "https://fantasy.premierleague.com/gcs/plfpl-production-adobe-approved/plfpl-production/253502/abcc9038-83cd-4b8b-b6be-e09b93cd819a.png",
        "entry": 253502,
        "entry_name": "Sauce F.C.",
        "event_total": 45,
        "has_played": true,
        "id": 1686157,
        "last_rank": 56369,
        "player_name": "James Kent",
        "rank": 77757,
        "rank_sort": 77819,
        "total": 2336
      },
      {
        "club_badge_src": null,
        "entry": 260625,
        "entry_name": "Donyell Stop Me Now",
        "event_total": 42,
        "has_played": true,
        "id": 1732551,
        "last_rank": 51403,
        "player_name": "Rich Goddard",
        "rank": 77757,
        "rank_sort": 77820,
        "total": 2336
      },
      {
        "club_badge_src": null,
        "entry": 268422,
        "entry_name": "dazzas dazzlers",
        "event_total": 54,
        "has_played": true,
        "id": 1785701,
        "last_rank": 73038,
        "player_name": "Darryl Freedman",
        "rank": 77757,
        "rank_sort": 77821,
        "total": 2336
      },
      {
        "club_badge_src": null,
        "entry": 289372,
        "entry_name": "N12",
        "event_total": 60,
        "has_played": true,
        "id": 1928924,
        "last_rank": 86054,
        "player_name": "Neel Sarin",
        "rank": 77757,
        "rank_sort": 77822,
        "total": 2336
      },
      {
        "club_badge_src": null,
        "entry": 296512,
        "entry_name": "Yoro Wizard Lenny",
        "event_total": 59,
        "has_played": true,
        "id": 1981182,
        "last_rank": 83934,
        "player_name": "Theo Parkhouse",
        "rank": 77757,
        "rank_sort": 77823,
        "total": 2336
      },
      {
        "club_badge_src": null,
        "entry": 315610,
        "entry_name": "The Damned United",
        "event_total": 68,
        "has_played": true,
        "id": 2115240,
        "last_rank": 106259,
        "player_name": "Jiffin Tony Thottan",
        "rank": 77757,
        "rank_sort": 77824,
        "total": 2336
      },
      {
        "club_badge_src": null,
        "entry": 316847,
        "entry_name": "Sorted 4 E's & Wizz",
        "event_total": 51,
        "has_played": true,
        "id": 2123714,
        "last_rank": 67063,
        "player_name": "Neil McDougall",
        "rank": 77757,
        "rank_sort": 77825,
        "total": 2336
      },
      {
        "club_badge_src": null,
        "entry": 317527,
        "entry_name": "Amorim Ball",
        "event_total": 52,
        "has_played": true,
        "id": 2128390,
        "last_rank": 68957,
        "player_name": "Ethan Agius",
        "rank": 77757,
        "rank_sort": 77826,
        "total": 2336
      },
      {
        "club_badge_src": null,
        "entry": 323474,
        "entry_name": "Bowen's on Fire",
        "event_total": 62,
        "has_played": true,
        "id": 2167723,
        "last_rank": 91006,
        "player_name": "Mark Ring",
        "rank": 77757,
        "rank_sort": 77827,
        "total": 2336
      },
      {
        "club_badge_src": null,
        "entry": 347414,
        "entry_name": "Mai Headhertz",
        "event_total": 53,
        "has_played": true,
        "id": 2325413,
        "last_rank": 70757,
        "player_name": "August GK",
        "rank": 77757,
        "rank_sort": 77828,
        "total": 2336
      },
      {
        "club_badge_src": null,
        "entry": 348950,
        "entry_name": "\u00c5tta Soucek",
        "event_total": 72,
        "has_played": true,
        "id": 2335665,
        "last_rank": 117112,
        "player_name": "Jasu P\u00f6lj\u00f6",
        "rank": 77757,
        "rank_sort": 77829,
        "total": 2336
      },
      {
        "club_badge_src": null,
        "entry": 349240,
        "entry_name": "The Rules are Clear",
        "event_total": 66,
        "has_played": true,
        "id": 2337540,
        "last_rank": 100949,
        "player_name": "Shakir Ispahani",
        "rank": 77757,
        "rank_sort": 77830,
        "total": 2336
      },
      {
        "club_badge_src": null,
        "entry": 356077,
        "entry_name": "Sticky Toffee Puddin",
        "event_total": 70,
        "has_played": true,
        "id": 2382881,
        "last_rank": 111405,
        "player_name": "Evan Purtill",
        "rank": 77757,
        "rank_sort": 77831,
        "total": 2336
      },
      {
        "club_badge_src": "https://fantasy.premierleague.com/gcs/plfpl-production-adobe-approved/plfpl-production/377983/1d7a372c-d275-4e1e-a089-6f8451a7e9c5.png",
        "entry": 377983,
        "entry_name": "Overcooked",
        "event_total": 59,
        "has_played": true,
        "id": 2532198,
        "last_rank": 83698,
        "player_name": "Tor-Einar Myrvang",
        "rank": 77757,
        "rank_sort": 77832,
        "total": 2336
      },
      {
        "club_badge_src": "https://fantasy.premierleague.com/gcs/plfpl-production-adobe-approved/plfpl-production/398258/335a6c7d-9a48-4f54-a17d-5424c213bb73.png",
        "entry": 398258,
        "entry_name": "Kinder Mbeumo",
        "event_total": 66,
        "has_played": true,
        "id": 2670755,
        "last_rank": 100572,
        "player_name": "Dale Hodgson",
        "rank": 77757,
        "rank_sort": 77833,
        "total": 2336
      },
      {
        "club_badge_src": null,
        "entry": 403836,
        "entry_name": "Echte Liebe",
        "event_total": 37,
        "has_played": true,
        "id": 2707757,
        "last_rank": 44048,
        "player_name": "Martin Ashworth",
        "rank": 77757,
        "rank_sort": 77834,
        "total": 2336
      },
      {
        "club_badge_src": "https://fantasy.premierleague.com/gcs/plfpl-production-adobe-approved/plfpl-production/416260/22767860-55c5-46d2-afef-733190cb016d.png",
        "entry": 416260,
        "entry_name": "helafriedraptoregg",
        "event_total": 67,
        "has_played": true,
        "id": 2790427,
        "last_rank": 103130,
        "player_name": "Layton Jones",
        "rank": 77757,
        "rank_sort": 77835,
        "total": 2336
      },
      {
        "club_badge_src": null,
        "entry": 424834,
        "entry_name": "Can't Get Any Wirtz",
        "event_total": 53,
        "has_played": true,
        "id": 2847235,
        "last_rank": 70985,
        "player_name": "Andrew Francis",
        "rank": 77757,
        "rank_sort": 77836,
        "total": 2336
      },
      {
        "club_badge_src": null,
        "entry": 445214,
        "entry_name": "Kismiras",
        "event_total": 41,
        "has_played": true,
        "id": 2985591,
        "last_rank": 49880,
        "player_name": "Peter Robinson",
        "rank": 77757,
        "rank_sort": 77837,
        "total": 2336
      },
      {
        "club_badge_src": null,
        "entry": 470190,
        "entry_name": "Muppets from Leeds",
        "event_total": 62,
        "has_played": true,
        "id": 3156241,
        "last_rank": 90746,
        "player_name": "Patrick Graham",
        "rank": 77757,
        "rank_sort": 77838,
        "total": 2336
      },
      {
        "club_badge_src": null,
        "entry": 486603,
        "entry_name": "Paquet\u00e1 Busquets",
        "event_total": 63,
        "has_played": true,
        "id": 3266825,
        "last_rank": 93052,
        "player_name": "Seth Nisbet",
        "rank": 77757,
        "rank_sort": 77839,
        "total": 2336
      },
      {
        "club_badge_src": null,
        "entry": 508759,
        "entry_name": "chair",
        "event_total": 53,
        "has_played": true,
        "id": 3415413,
        "last_rank": 70985,
        "player_name": "Andrew Cawthorne",
        "rank": 77757,
        "rank_sort": 77840,
        "total": 2336
      },
      {
        "club_badge_src": null,
        "entry": 518762,
        "entry_name": "Bacalhau United",
        "event_total": 44,
        "has_played": true,
        "id": 3483066,
        "last_rank": 54667,
        "player_name": "Lu\u00eds Rocha",
        "rank": 77757,
        "rank_sort": 77841,
        "total": 2336
      },
      {
        "club_badge_src": null,
        "entry": 525037,
        "entry_name": "\u9b5a\u8169FC",
        "event_total": 66,
        "has_played": true,
        "id": 3528309,
        "last_rank": 100572,
        "player_name": "Goku Son",
        "rank": 77757,
        "rank_sort": 77842,
        "total": 2336
      },
      {
        "club_badge_src": "https://fantasy.premierleague.com/gcs/plfpl-production-adobe-approved/plfpl-production/528904/aa02e572-837f-4b81-8be7-bdf08d7c3dc1.png",
        "entry": 528904,
        "entry_name": "FC Semedela",
        "event_total": 63,
        "has_played": true,
        "id": 3556273,
        "last_rank": 93052,
        "player_name": "Matej Vatovec",
        "rank": 77757,
        "rank_sort": 77843,
        "total": 2336
      },
      {
        "club_badge_src": null,
        "entry": 537571,
        "entry_name": "Moistend Bints \u2b50",
        "event_total": 80,
        "has_played": true,
        "id": 3618732,
        "last_rank": 142194,
        "player_name": "Billy Porter",
        "rank": 77757,
        "rank_sort": 77844,
        "total": 2336
      },
      {
        "club_badge_src": null,
        "entry": 552887,
        "entry_name": "Psyyy",
        "event_total": 63,
        "has_played": true,
        "id": 3721376,
        "last_rank": 93186,
        "player_name": "James Parison",
        "rank": 77757,
        "rank_sort": 77845,
        "total": 2336
      },
      {
        "club_badge_src": null,
        "entry": 562393,
        "entry_name": "saka potatoes",
        "event_total": 62,
        "has_played": true,
        "id": 3785522,
        "last_rank": 91006,
        "player_name": "Jamie Evans",
        "rank": 77757,
        "rank_sort": 77846,
        "total": 2336
      },
      {
        "club_badge_src": null,
        "entry": 563010,
        "entry_name": "Divers x1",
        "event_total": 58,
        "has_played": true,
        "id": 3789548,
        "last_rank": 81646,
        "player_name": "Phil Divers",
        "rank": 77757,
        "rank_sort": 77847,
        "total": 2336
      },
      {
        "club_badge_src": null,
        "entry": 564914,
        "entry_name": "Ha Ha Haaland",
        "event_total": 66,
        "has_played": true,
        "id": 3802377,
        "last_rank": 100949,
        "player_name": "Sam Scaife",
        "rank": 77757,
        "rank_sort": 77848,
        "total": 2336
      },
      {
        "club_badge_src": null,
        "entry": 570759,
        "entry_name": "Gwladysallover",
        "event_total": 68,
        "has_played": true,
        "id": 3841317,
        "last_rank": 105963,
        "player_name": "Trefor Parry",
        "rank": 77757,
        "rank_sort": 77849,
        "total": 2336
      },
      {
        "club_badge_src": null,
        "entry": 597199,
        "entry_name": "Salahzar Slytherin",
        "event_total": 74,
        "has_played": true,
        "id": 4027065,
        "last_rank": 122988,
        "player_name": "S\u00f8ren Lassen",
        "rank": 77757,
        "rank_sort": 77850,
        "total": 2336
      }
    ]
  }
}