{
  "last_updated_data": "2026-05-24T23:28:17Z",
  "league": {
    "admin_entry": null,
    "closed": false,
    "code_privacy": "p",
    "created": "2025-07-20T23:14:33.933835Z",
    "cup_league": 2815434,
    "has_cup": true,
    "id": 314,
    "league_type": "s",
    "max_entries": null,
    "name": "Overall",
    "rank": null,
    "scoring": "c",
    "start_event": 1
  },
  "new_entries": {
    "has_next": false,
    "page": 1,
    "results": []
  },
  "standings": {
    "has_next": true,
    "page": 1039,
    "results": [
      {
        "club_badge_src": null,
        "entry": 6156413,
        "entry_name": "3DN4NE !",
        "event_total": 58,
        "has_played": true,
        "id": 48668329,
        "last_rank": 53837,
        "player_name": "Adnane Ait Ouakrim",
        "rank": 51772,
        "rank_sort": 51901,
        "total": 2351
      },
      {
        "club_badge_src": null,
        "entry": 6450543,
        "entry_name": "McGinn and Tonic",
        "event_total": 61,
        "has_played": true,
        "id": 51367222,
        "last_rank": 58911,
        "player_name": "Matthew Gannon",
        "rank": 51772,
        "rank_sort": 51902,
        "total": 2351
      },
      {
        "club_badge_src": null,
        "entry": 6665325,
        "entry_name": "Weeclassof11",
        "event_total": 72,
        "has_played": true,
        "id": 53304536,
        "last_rank": 80465,
        "player_name": "joshua Pevler",
        "rank": 51772,
        "rank_sort": 51903,
        "total": 2351
      },
      {
        "club_badge_src": null,
        "entry": 6752591,
        "entry_name": "Chelski",
        "event_total": 78,
        "has_played": true,
        "id": 54059496,
        "last_rank": 84360,
        "player_name": "Tom Livesey",
        "rank": 51772,
        "rank_sort": 51904,
        "total": 2351
      },
      {
        "club_badge_src": null,
        "entry": 6819589,
        "entry_name": "1862",
        "event_total": 51,
        "has_played": true,
        "id": 54620352,
        "last_rank": 43342,
        "player_name": "Bryn Orme",
        "rank": 51772,
        "rank_sort": 51905,
        "total": 2351
      },
      {
        "club_badge_src": null,
        "entry": 7317337,
        "entry_name": "Phantom",
        "event_total": 62,
        "has_played": true,
        "id": 59239091,
        "last_rank": 53345,
        "player_name": "Us Ma",
        "rank": 51772,
        "rank_sort": 51906,
        "total": 2351
      },
      {
        "club_badge_src": null,
        "entry": 7461700,
        "entry_name": "Nick's Hotspurts",
        "event_total": 48,
        "has_played": true,
        "id": 60787478,
        "last_rank": 39246,
        "player_name": "Nick Braidwood",
        "rank": 51772,
        "rank_sort": 51907,
        "total": 2351
      },
      {
        "club_badge_src": null,
        "entry": 7512245,
        "entry_name": "2nd Season Champs",
        "event_total": 52,
        "has_played": true,
        "id": 61425487,
        "last_rank": 39246,
        "player_name": "Ange Postecoglou",
        "rank": 51772,
        "rank_sort": 51908,
        "total": 2351
      },
      {
        "club_badge_src": null,
        "entry": 7727749,
        "entry_name": "Latakia Hbf",
        "event_total": 73,
        "has_played": true,
        "id": 63421024,
        "last_rank": 73720,
        "player_name": "Hussam Sharif",
        "rank": 51772,
        "rank_sort": 51909,
        "total": 2351
      },
      {
        "club_badge_src": null,
        "entry": 7834523,
        "entry_name": "Change Name",
        "event_total": 68,
        "has_played": true,
        "id": 64388048,
        "last_rank": 63724,
        "player_name": "Eoin Healy",
        "rank": 51772,
        "rank_sort": 51910,
        "total": 2351
      },
      {
        "club_badge_src": null,
        "entry": 7857610,
        "entry_name": "H_German",
        "event_total": 71,
        "has_played": true,
        "id": 64601301,
        "last_rank": 69641,
        "player_name": "Hussain German",
        "rank": 51772,
        "rank_sort": 51911,
        "total": 2351
      },
      {
        "club_badge_src": null,
        "entry": 7906762,
        "entry_name": "Sopa",
        "event_total": 49,
        "has_played": true,
        "id": 65048199,
        "last_rank": 40503,
        "player_name": "Marigona Sopa",
        "rank": 51772,
        "rank_sort": 51912,
        "total": 2351
      },
      {
        "club_badge_src": null,
        "entry": 8151679,
        "entry_name": "Fram\u00e5t stolta",
        "event_total": 73,
        "has_played": true,
        "id": 67284406,
        "last_rank": 82664,
        "player_name": "Sebastian Lundgren",
        "rank": 51772,
        "rank_sort": 51913,
        "total": 2351
      },
      {
        "club_badge_src": null,
        "entry": 8192270,
        "entry_name": "TBC",
        "event_total": 45,
        "has_played": true,
        "id": 67666595,
        "last_rank": 31125,
        "player_name": "John Carmody",
        "rank": 51772,
        "rank_sort": 51914,
        "total": 2351
      },
      {
        "club_badge_src": null,
        "entry": 8429342,
        "entry_name": "Champs Olise",
        "event_total": 67,
        "has_played": true,
        "id": 69958549,
        "last_rank": 69907,
        "player_name": "J Stubbings",
        "rank": 51772,
        "rank_sort": 51915,
        "total": 2351
      },
      {
        "club_badge_src": null,
        "entry": 8743374,
        "entry_name": "WATP",
        "event_total": 76,
        "has_played": true,
        "id": 73000429,
        "last_rank": 89055,
        "player_name": "Hannah Robertson",
        "rank": 51772,
        "rank_sort": 51916,
        "total": 2351
      },
      {
        "club_badge_src": "https://fantasy.premierleague.com/gcs/plfpl-production-adobe-approved/plfpl-production/9049112/9965968b-d53c-4a96-abbf-d1b9631be823.png",
        "entry": 9049112,
        "entry_name": "The Big Boss",
        "event_total": 61,
        "has_played": true,
        "id": 75956180,
        "last_rank": 58911,
        "player_name": "Mark Adams",
        "rank": 51772,
        "rank_sort": 51917,
        "total": 2351
      },
      {
        "club_badge_src": null,
        "entry": 53,
        "entry_name": "Had One Tchouameni",
        "event_total": 50,
        "has_played": true,
        "id": 294,
        "last_rank": 41967,
        "player_name": "Sam Calvert",
        "rank": 51918,
        "rank_sort": 51918,
        "total": 2351
      },
      {
        "club_badge_src": null,
        "entry": 2122,
        "entry_name": "Hall Cunha Mateta",
        "event_total": 65,
        "has_played": true,
        "id": 11835,
        "last_rank": 65796,
        "player_name": "Pradipta B Karki",
        "rank": 51918,
        "rank_sort": 51919,
        "total": 2351
      },
      {
        "club_badge_src": "https://fantasy.premierleague.com/gcs/plfpl-production-adobe-approved/plfpl-production/2483/35d7be92-4dbf-4d31-a2f1-c28086d3d2f9.png",
        "entry": 2483,
        "entry_name": "Dangermen",
        "event_total": 67,
        "has_played": true,
        "id": 13843,
        "last_rank": 69907,
        "player_name": "Dan Pallister",
        "rank": 51918,
        "rank_sort": 51920,
        "total": 2351
      },
      {
        "club_badge_src": null,
        "entry": 15210,
        "entry_name": "Rebel Army",
        "event_total": 62,
        "has_played": true,
        "id": 93113,
        "last_rank": 47417,
        "player_name": "Daniel O Sullivan",
        "rank": 51918,
        "rank_sort": 51921,
        "total": 2351
      },
      {
        "club_badge_src": null,
        "entry": 17605,
        "entry_name": "Only time will Tel",
        "event_total": 68,
        "has_played": true,
        "id": 109271,
        "last_rank": 64190,
        "player_name": "scott bradrick",
        "rank": 51918,
        "rank_sort": 51922,
        "total": 2351
      },
      {
        "club_badge_src": "https://fantasy.premierleague.com/gcs/plfpl-production-adobe-approved/plfpl-production/22844/23dd4759-43b2-4f7d-a3c1-6c1018a264fa.png",
        "entry": 22844,
        "entry_name": "Jigglebilly",
        "event_total": 59,
        "has_played": true,
        "id": 143630,
        "last_rank": 55747,
        "player_name": "Noel Schulz",
        "rank": 51918,
        "rank_sort": 51923,
        "total": 2351
      },
      {
        "club_badge_src": null,
        "entry": 25916,
        "entry_name": "fred up",
        "event_total": 60,
        "has_played": true,
        "id": 163882,
        "last_rank": 50468,
        "player_name": "George Partington",
        "rank": 51918,
        "rank_sort": 51924,
        "total": 2351
      },
      {
        "club_badge_src": "https://fantasy.premierleague.com/gcs/plfpl-production-adobe-approved/plfpl-production/33439/6a7c847a-f7a0-47bf-afc7-84a99536d31a.png",
        "entry": 33439,
        "entry_name": "Ktokz",
        "event_total": 69,
        "has_played": true,
        "id": 213245,
        "last_rank": 65796,
        "player_name": "Yerkebulan Soltanbayev",
        "rank": 51918,
        "rank_sort": 51925,
        "total": 2351
      },
      {
        "club_badge_src": "https://fantasy.premierleague.com/gcs/plfpl-production-adobe-approved/plfpl-production/50230/63f23517-6be1-4ea3-8487-d0ef4e1aca64.png",
        "entry": 50230,
        "entry_name": "wacko.jacko",
        "event_total": 31,
        "has_played": true,
        "id": 323054,
        "last_rank": 19176,
        "player_name": "Jeremiah Obasa",
        "rank": 51918,
        "rank_sort": 51926,
        "total": 2351
      },
      {
        "club_badge_src": null,
        "entry": 51854,
        "entry_name": "KudusToYou",
        "event_total": 61,
        "has_played": true,
        "id": 333471,
        "last_rank": 45927,
        "player_name": "Owen Brennan",
        "rank": 51918,
        "rank_sort": 51927,
        "total": 2351
      },
      {
        "club_badge_src": null,
        "entry": 55736,
        "entry_name": "Change Name",
        "event_total": 51,
        "has_played": true,
        "id": 358879,
        "last_rank": 38163,
        "player_name": "Kyle Redmond",
        "rank": 51918,
        "rank_sort": 51928,
        "total": 2351
      },
      {
        "club_badge_src": null,
        "entry": 57742,
        "entry_name": "ArcherRandall",
        "event_total": 64,
        "has_played": true,
        "id": 371997,
        "last_rank": 57200,
        "player_name": "paul blake",
        "rank": 51918,
        "rank_sort": 51929,
        "total": 2351
      },
      {
        "club_badge_src": null,
        "entry": 66119,
        "entry_name": "BunnyLicks UTD",
        "event_total": 72,
        "has_played": true,
        "id": 427252,
        "last_rank": 80465,
        "player_name": "Justin Crewe",
        "rank": 51918,
        "rank_sort": 51930,
        "total": 2351
      },
      {
        "club_badge_src": null,
        "entry": 80060,
        "entry_name": "HishaM Almoola",
        "event_total": 70,
        "has_played": true,
        "id": 520923,
        "last_rank": 60462,
        "player_name": "Hisham ALmoola",
        "rank": 51918,
        "rank_sort": 51931,
        "total": 2351
      },
      {
        "club_badge_src": null,
        "entry": 80189,
        "entry_name": "Ali Hassan",
        "event_total": 45,
        "has_played": true,
        "id": 521768,
        "last_rank": 35926,
        "player_name": "Ali Hassan",
        "rank": 51918,
        "rank_sort": 51932,
        "total": 2351
      },
      {
        "club_badge_src": null,
        "entry": 157073,
        "entry_name": "Ctrl Alt De Ligt",
        "event_total": 74,
        "has_played": true,
        "id": 1033192,
        "last_rank": 75874,
        "player_name": "Luke Gibson",
        "rank": 51918,
        "rank_sort": 51933,
        "total": 2351
      },
      {
        "club_badge_src": "https://fantasy.premierleague.com/gcs/plfpl-production-adobe-approved/plfpl-production/174040/2090ea8c-744c-45be-9fec-497c66a57c20.png",
        "entry": 174040,
        "entry_name": "Psychological_Gabe",
        "event_total": 62,
        "has_played": true,
        "id": 1149321,
        "last_rank": 60827,
        "player_name": "Melusi Chundu",
        "rank": 51918,
        "rank_sort": 51934,
        "total": 2351
      },
      {
        "club_badge_src": null,
        "entry": 202954,
        "entry_name": "Aromadabeezli",
        "event_total": 58,
        "has_played": true,
        "id": 1348101,
        "last_rank": 47596,
        "player_name": "Stephen Peck",
        "rank": 51918,
        "rank_sort": 51935,
        "total": 2351
      },
      {
        "club_badge_src": "https://fantasy.premierleague.com/gcs/plfpl-production-adobe-approved/plfpl-production/212657/1ca70019-62ed-4b32-8f0a-a6e70695b134.png",
        "entry": 212657,
        "entry_name": "Just Kilman Now",
        "event_total": 75,
        "has_played": true,
        "id": 1414658,
        "last_rank": 87350,
        "player_name": "Dean Kelly",
        "rank": 51918,
        "rank_sort": 51936,
        "total": 2351
      },
      {
        "club_badge_src": "https://fantasy.premierleague.com/gcs/plfpl-production-adobe-approved/plfpl-production/224598/51c80128-b298-4ec8-a511-5d34a29355dd.png",
        "entry": 224598,
        "entry_name": "Game of Stones",
        "event_total": 47,
        "has_played": true,
        "id": 1494090,
        "last_rank": 38267,
        "player_name": "areeb Naseer",
        "rank": 51918,
        "rank_sort": 51937,
        "total": 2351
      },
      {
        "club_badge_src": null,
        "entry": 273510,
        "entry_name": "enzo",
        "event_total": 61,
        "has_played": true,
        "id": 1819926,
        "last_rank": 58911,
        "player_name": "Sander Munkejord",
        "rank": 51918,
        "rank_sort": 51938,
        "total": 2351
      },
      {
        "club_badge_src": null,
        "entry": 277062,
        "entry_name": "Rothaugen FC",
        "event_total": 29,
        "has_played": true,
        "id": 1844131,
        "last_rank": 20678,
        "player_name": "Ronny Herdlev\u00e6r",
        "rank": 51918,
        "rank_sort": 51939,
        "total": 2351
      },
      {
        "club_badge_src": "https://fantasy.premierleague.com/gcs/plfpl-production-adobe-approved/plfpl-production/311043/4427b73b-0a3e-46fa-9d0d-0ae5d3ca2518.png",
        "entry": 311043,
        "entry_name": "AAs",
        "event_total": 57,
        "has_played": true,
        "id": 2083788,
        "last_rank": 46106,
        "player_name": "Dimitris Karamalegkos",
        "rank": 51918,
        "rank_sort": 51940,
        "total": 2351
      },
      {
        "club_badge_src": null,
        "entry": 315933,
        "entry_name": "NdiayeWilAlwaysLuvU",
        "event_total": 46,
        "has_played": true,
        "id": 2117439,
        "last_rank": 37058,
        "player_name": "Noah Grogan",
        "rank": 51918,
        "rank_sort": 51941,
        "total": 2351
      },
      {
        "club_badge_src": null,
        "entry": 321036,
        "entry_name": "Kings",
        "event_total": 92,
        "has_played": true,
        "id": 2151648,
        "last_rank": 109863,
        "player_name": "Callum King",
        "rank": 51918,
        "rank_sort": 51942,
        "total": 2351
      },
      {
        "club_badge_src": null,
        "entry": 434043,
        "entry_name": "Bruno, Dos, Tres",
        "event_total": 62,
        "has_played": true,
        "id": 2910805,
        "last_rank": 53837,
        "player_name": "Zachary Aboh",
        "rank": 51918,
        "rank_sort": 51943,
        "total": 2351
      },
      {
        "club_badge_src": "https://fantasy.premierleague.com/gcs/plfpl-production-adobe-approved/plfpl-production/463530/192a7f46-e75e-4c39-bde3-8a8386f9d3f3.png",
        "entry": 463530,
        "entry_name": "Ekitike-Taka",
        "event_total": 61,
        "has_played": true,
        "id": 3109214,
        "last_rank": 45927,
        "player_name": "Daniel Hannon",
        "rank": 51918,
        "rank_sort": 51944,
        "total": 2351
      },
      {
        "club_badge_src": null,
        "entry": 529502,
        "entry_name": "UNITED FC",
        "event_total": 71,
        "has_played": true,
        "id": 3560640,
        "last_rank": 78244,
        "player_name": "Thomas Jones",
        "rank": 51918,
        "rank_sort": 51945,
        "total": 2351
      },
      {
        "club_badge_src": null,
        "entry": 684751,
        "entry_name": "Walkers Originals",
        "event_total": 56,
        "has_played": true,
        "id": 4634820,
        "last_rank": 50772,
        "player_name": "Jacob Newell",
        "rank": 51918,
        "rank_sort": 51946,
        "total": 2351
      },
      {
        "club_badge_src": null,
        "entry": 714307,
        "entry_name": "R\u00faben the Wrong Way",
        "event_total": 66,
        "has_played": true,
        "id": 4846125,
        "last_rank": 53345,
        "player_name": "Shawn Dsouza",
        "rank": 51918,
        "rank_sort": 51947,
        "total": 2351
      },
      {
        "club_badge_src": null,
        "entry": 728100,
        "entry_name": "Sainsbury's FC",
        "event_total": 64,
        "has_played": true,
        "id": 4946756,
        "last_rank": 64319,
        "player_name": "Christopher Schalchi",
        "rank": 51918,
        "rank_sort": 51948,
        "total": 2351
      },
      {
        "club_badge_src": null,
        "entry": 1029564,
        "entry_name": "zohir18",
        "event_total": 71,
        "has_played": true,
        "id": 7123326,
        "last_rank": 62223,
        "player_name": "zohir boulkaboul",
        "rank": 51918,
        "rank_sort": 51949,
        "total": 2351
      },
      {
        "club_badge_src": null,
        "entry": 1102067,
        "entry_name": "Elducaa",
        "event_total": 51,
        "has_played": true,
        "id": 7633753,
        "last_rank": 43444,
        "player_name": "ahmed shohbor",
        "rank": 51918,
        "rank_sort": 51950,
        "total": 2351
      }
    ]
  }
}