{
  "last_updated_data": "2026-05-24T23:28:17Z",
  "league": {
    "admin_entry": null,
    "closed": false,
    "code_privacy": "p",
    "created": "2025-07-20T23:14:33.933835Z",
    "cup_league": 2815434,
    "has_cup": true,
    "id": 314,
    "league_type": "s",
    "max_entries": null,
    "name": "Overall",
    "rank": null,
    "scoring": "c",
    "start_event": 1
  },
  "new_entries": {
    "has_next": false,
    "page": 1,
    "results": []
  },
  "standings": {
    "has_next": true,
    "page": 233,
    "results": [
      {
        "club_badge_src": null,
        "entry": 479838,
        "entry_name": "palmeeeer",
        "event_total": 55,
        "has_played": true,
        "id": 3221462,
        "last_rank": 8627,
        "player_name": "Mohammad Jamil",
        "rank": 11595,
        "rank_sort": 11601,
        "total": 2395
      },
      {
        "club_badge_src": null,
        "entry": 605808,
        "entry_name": "Too Eze",
        "event_total": 57,
        "has_played": true,
        "id": 4090425,
        "last_rank": 9402,
        "player_name": "Harry King",
        "rank": 11595,
        "rank_sort": 11602,
        "total": 2395
      },
      {
        "club_badge_src": null,
        "entry": 655837,
        "entry_name": "Bayern di monaco",
        "event_total": 61,
        "has_played": true,
        "id": 4432170,
        "last_rank": 13060,
        "player_name": "dexter cauchi",
        "rank": 11595,
        "rank_sort": 11603,
        "total": 2395
      },
      {
        "club_badge_src": null,
        "entry": 2810245,
        "entry_name": "FC Millhouse",
        "event_total": 59,
        "has_played": true,
        "id": 20525036,
        "last_rank": 12048,
        "player_name": "Jamie Miller",
        "rank": 11595,
        "rank_sort": 11604,
        "total": 2395
      },
      {
        "club_badge_src": null,
        "entry": 3579677,
        "entry_name": "UNI TED",
        "event_total": 85,
        "has_played": true,
        "id": 26656767,
        "last_rank": 23820,
        "player_name": "Siquander Singh",
        "rank": 11595,
        "rank_sort": 11605,
        "total": 2395
      },
      {
        "club_badge_src": null,
        "entry": 4099971,
        "entry_name": "Neymar Mr Nice Guy",
        "event_total": 70,
        "has_played": true,
        "id": 30959347,
        "last_rank": 18578,
        "player_name": "Joshua McAllister",
        "rank": 11595,
        "rank_sort": 11606,
        "total": 2395
      },
      {
        "club_badge_src": null,
        "entry": 4153548,
        "entry_name": "3azoz",
        "event_total": 58,
        "has_played": true,
        "id": 31394892,
        "last_rank": 9792,
        "player_name": "Mohamed Ezzat",
        "rank": 11595,
        "rank_sort": 11607,
        "total": 2395
      },
      {
        "club_badge_src": null,
        "entry": 5318351,
        "entry_name": "De beste",
        "event_total": 67,
        "has_played": true,
        "id": 41227608,
        "last_rank": 11999,
        "player_name": "robert H\u00e5land",
        "rank": 11595,
        "rank_sort": 11608,
        "total": 2395
      },
      {
        "club_badge_src": null,
        "entry": 5385662,
        "entry_name": "LeFondre of All Evil",
        "event_total": 47,
        "has_played": true,
        "id": 41868205,
        "last_rank": 7280,
        "player_name": "Kit Haig",
        "rank": 11595,
        "rank_sort": 11609,
        "total": 2395
      },
      {
        "club_badge_src": null,
        "entry": 6381360,
        "entry_name": "Spurs\ufffd",
        "event_total": 64,
        "has_played": true,
        "id": 50754285,
        "last_rank": 10629,
        "player_name": "Tabet Tibot",
        "rank": 11595,
        "rank_sort": 11610,
        "total": 2395
      },
      {
        "club_badge_src": null,
        "entry": 6457671,
        "entry_name": "Thiaw for Now",
        "event_total": 65,
        "has_played": true,
        "id": 51434809,
        "last_rank": 13060,
        "player_name": "Scott Tomlinson",
        "rank": 11595,
        "rank_sort": 11611,
        "total": 2395
      },
      {
        "club_badge_src": null,
        "entry": 7078972,
        "entry_name": "Prime FC",
        "event_total": 61,
        "has_played": true,
        "id": 56975822,
        "last_rank": 13060,
        "player_name": "Yunusa Bature",
        "rank": 11595,
        "rank_sort": 11612,
        "total": 2395
      },
      {
        "club_badge_src": null,
        "entry": 8848089,
        "entry_name": "Fc Ba9lewa",
        "event_total": 76,
        "has_played": true,
        "id": 74008015,
        "last_rank": 19904,
        "player_name": "bensaad hamadi",
        "rank": 11595,
        "rank_sort": 11613,
        "total": 2395
      },
      {
        "club_badge_src": null,
        "entry": 3663,
        "entry_name": "BornholmFC",
        "event_total": 50,
        "has_played": true,
        "id": 20773,
        "last_rank": 8295,
        "player_name": "Jacob Riis",
        "rank": 11614,
        "rank_sort": 11614,
        "total": 2395
      },
      {
        "club_badge_src": null,
        "entry": 22508,
        "entry_name": "Kinder Mbeumo",
        "event_total": 71,
        "has_played": true,
        "id": 141364,
        "last_rank": 19318,
        "player_name": "Youssef Kacem",
        "rank": 11614,
        "rank_sort": 11615,
        "total": 2395
      },
      {
        "club_badge_src": null,
        "entry": 758453,
        "entry_name": "DW ABOUT IT CUH",
        "event_total": 49,
        "has_played": true,
        "id": 5166545,
        "last_rank": 7920,
        "player_name": "Dawud Ahmed",
        "rank": 11614,
        "rank_sort": 11616,
        "total": 2395
      },
      {
        "club_badge_src": null,
        "entry": 3253597,
        "entry_name": "La mineya mal",
        "event_total": 73,
        "has_played": true,
        "id": 24072888,
        "last_rank": 20747,
        "player_name": "Nenn N",
        "rank": 11614,
        "rank_sort": 11617,
        "total": 2395
      },
      {
        "club_badge_src": "https://fantasy.premierleague.com/gcs/plfpl-production-adobe-approved/plfpl-production/3437890/5acf620f-b7ed-4e3d-9339-0251fcd1592c.png",
        "entry": 3437890,
        "entry_name": "Patteninho FC",
        "event_total": 78,
        "has_played": true,
        "id": 25540135,
        "last_rank": 18520,
        "player_name": "Joshua Patten",
        "rank": 11614,
        "rank_sort": 11618,
        "total": 2395
      },
      {
        "club_badge_src": null,
        "entry": 4103188,
        "entry_name": "Jamal.Ibra",
        "event_total": 58,
        "has_played": true,
        "id": 30985056,
        "last_rank": 11559,
        "player_name": "Jamal Ibraheem",
        "rank": 11614,
        "rank_sort": 11619,
        "total": 2395
      },
      {
        "club_badge_src": null,
        "entry": 4812271,
        "entry_name": "Og Tribal Chief OTC",
        "event_total": 65,
        "has_played": true,
        "id": 37054373,
        "last_rank": 13084,
        "player_name": "farhan roslan",
        "rank": 11614,
        "rank_sort": 11620,
        "total": 2395
      },
      {
        "club_badge_src": null,
        "entry": 6929989,
        "entry_name": "abdulaziz alotaibi",
        "event_total": 62,
        "has_played": true,
        "id": 55554840,
        "last_rank": 11551,
        "player_name": "abdulaziz alzyadi",
        "rank": 11614,
        "rank_sort": 11621,
        "total": 2395
      },
      {
        "club_badge_src": null,
        "entry": 35607,
        "entry_name": "Bayern Bru",
        "event_total": 65,
        "has_played": true,
        "id": 227884,
        "last_rank": 13096,
        "player_name": "Soheal Malik",
        "rank": 11622,
        "rank_sort": 11622,
        "total": 2395
      },
      {
        "club_badge_src": null,
        "entry": 81996,
        "entry_name": "hengisme",
        "event_total": 65,
        "has_played": true,
        "id": 533476,
        "last_rank": 11080,
        "player_name": "JJ Hogan",
        "rank": 11622,
        "rank_sort": 11623,
        "total": 2395
      },
      {
        "club_badge_src": null,
        "entry": 205939,
        "entry_name": "Keido Tornado",
        "event_total": 67,
        "has_played": true,
        "id": 1368867,
        "last_rank": 16639,
        "player_name": "Jonathan Bond",
        "rank": 11622,
        "rank_sort": 11624,
        "total": 2395
      },
      {
        "club_badge_src": null,
        "entry": 348863,
        "entry_name": "Womble221b",
        "event_total": 71,
        "has_played": true,
        "id": 2335077,
        "last_rank": 16630,
        "player_name": "Bandar E",
        "rank": 11622,
        "rank_sort": 11625,
        "total": 2395
      },
      {
        "club_badge_src": null,
        "entry": 920991,
        "entry_name": "CY Fake Guru \ufffd",
        "event_total": 55,
        "has_played": true,
        "id": 6333891,
        "last_rank": 8645,
        "player_name": "Giorgos Sokratous",
        "rank": 11622,
        "rank_sort": 11626,
        "total": 2395
      },
      {
        "club_badge_src": null,
        "entry": 1914408,
        "entry_name": "Crawley\u2019s Crew \u2b50\ufe0f\u2b50\ufe0f",
        "event_total": 39,
        "has_played": true,
        "id": 13497585,
        "last_rank": 4242,
        "player_name": "Lyndon Crawley",
        "rank": 11622,
        "rank_sort": 11627,
        "total": 2395
      },
      {
        "club_badge_src": "https://fantasy.premierleague.com/gcs/plfpl-production-adobe-approved/plfpl-production/1988780/04d7601e-cb17-4a25-8bd1-d9e6e3f52730.png",
        "entry": 1988780,
        "entry_name": "\u0141YSY UTD",
        "event_total": 68,
        "has_played": true,
        "id": 14050197,
        "last_rank": 17265,
        "player_name": "Afro 3960",
        "rank": 11622,
        "rank_sort": 11628,
        "total": 2395
      },
      {
        "club_badge_src": "https://fantasy.premierleague.com/gcs/plfpl-production-adobe-approved/plfpl-production/2937454/de8988e4-ad5b-4226-8e8f-795c5cffa13a.png",
        "entry": 2937454,
        "entry_name": "Udupi Coastals",
        "event_total": 54,
        "has_played": true,
        "id": 21554039,
        "last_rank": 8289,
        "player_name": "Rizky Rubbi",
        "rank": 11622,
        "rank_sort": 11629,
        "total": 2395
      },
      {
        "club_badge_src": null,
        "entry": 3522483,
        "entry_name": "OGC",
        "event_total": 58,
        "has_played": true,
        "id": 26214532,
        "last_rank": 9806,
        "player_name": "Carl Johnson",
        "rank": 11622,
        "rank_sort": 11630,
        "total": 2395
      },
      {
        "club_badge_src": null,
        "entry": 7237733,
        "entry_name": "Pantoliano III",
        "event_total": 57,
        "has_played": true,
        "id": 58487521,
        "last_rank": 11112,
        "player_name": "Anders Christiansen",
        "rank": 11622,
        "rank_sort": 11631,
        "total": 2395
      },
      {
        "club_badge_src": null,
        "entry": 8592549,
        "entry_name": "Ammar",
        "event_total": 65,
        "has_played": true,
        "id": 71526557,
        "last_rank": 15363,
        "player_name": "\u0639\u0645\u0627\u0631 \u0645\u064a\u0627",
        "rank": 11622,
        "rank_sort": 11632,
        "total": 2395
      },
      {
        "club_badge_src": null,
        "entry": 60530,
        "entry_name": "Flaga 11",
        "event_total": 63,
        "has_played": true,
        "id": 389716,
        "last_rank": 12069,
        "player_name": "Lucifer Flaga",
        "rank": 11633,
        "rank_sort": 11633,
        "total": 2395
      },
      {
        "club_badge_src": null,
        "entry": 1923042,
        "entry_name": "Monkeyhangers",
        "event_total": 60,
        "has_played": true,
        "id": 13561766,
        "last_rank": 12568,
        "player_name": "Sam Walker",
        "rank": 11633,
        "rank_sort": 11634,
        "total": 2395
      },
      {
        "club_badge_src": null,
        "entry": 2267288,
        "entry_name": "Barca Barrar",
        "event_total": 71,
        "has_played": true,
        "id": 16166341,
        "last_rank": 14192,
        "player_name": "Adam Barrar",
        "rank": 11633,
        "rank_sort": 11635,
        "total": 2395
      },
      {
        "club_badge_src": null,
        "entry": 4331989,
        "entry_name": "Trust the proces",
        "event_total": 60,
        "has_played": true,
        "id": 32883616,
        "last_rank": 12568,
        "player_name": "Patryk Nieckarz",
        "rank": 11633,
        "rank_sort": 11636,
        "total": 2395
      },
      {
        "club_badge_src": null,
        "entry": 785383,
        "entry_name": "No Name FC",
        "event_total": 62,
        "has_played": true,
        "id": 5366538,
        "last_rank": 11565,
        "player_name": "Giorgos Kyriakakis",
        "rank": 11637,
        "rank_sort": 11637,
        "total": 2395
      },
      {
        "club_badge_src": null,
        "entry": 1447864,
        "entry_name": "\u0645\u062d\u0645\u062f \u0627\u0644\u0628\u0634\u0644\u064a",
        "event_total": 65,
        "has_played": true,
        "id": 10088932,
        "last_rank": 15366,
        "player_name": "\u0645\u062d\u0645\u062f \u0627\u062d\u0645\u0648\u062f \u0645\u062d\u0645\u0648\u062f",
        "rank": 11637,
        "rank_sort": 11638,
        "total": 2395
      },
      {
        "club_badge_src": null,
        "entry": 37146,
        "entry_name": "Top 4 is a Trophy",
        "event_total": 62,
        "has_played": true,
        "id": 237878,
        "last_rank": 9827,
        "player_name": "Nnaemeka Agwuncha",
        "rank": 11639,
        "rank_sort": 11639,
        "total": 2395
      },
      {
        "club_badge_src": "https://fantasy.premierleague.com/gcs/plfpl-production-adobe-approved/plfpl-production/166035/e730a5fd-2c1d-47b2-bb1d-e0d52833d37e.png",
        "entry": 166035,
        "entry_name": "\u00a1HALA MADRID!",
        "event_total": 65,
        "has_played": true,
        "id": 1096740,
        "last_rank": 11120,
        "player_name": "Babak Javashi",
        "rank": 11639,
        "rank_sort": 11640,
        "total": 2395
      },
      {
        "club_badge_src": "https://fantasy.premierleague.com/gcs/plfpl-production-adobe-approved/plfpl-production/1228734/5f23e663-1d95-4cb7-9b8d-534d61f540f2.png",
        "entry": 1228734,
        "entry_name": "He'sMagicYouKnow",
        "event_total": 58,
        "has_played": true,
        "id": 8531884,
        "last_rank": 11573,
        "player_name": "Rob King",
        "rank": 11641,
        "rank_sort": 11641,
        "total": 2395
      },
      {
        "club_badge_src": null,
        "entry": 3880,
        "entry_name": "Ingland",
        "event_total": 58,
        "has_played": true,
        "id": 22006,
        "last_rank": 11573,
        "player_name": "Joakim Broberg",
        "rank": 11642,
        "rank_sort": 11642,
        "total": 2395
      },
      {
        "club_badge_src": "https://fantasy.premierleague.com/gcs/plfpl-production-adobe-approved/plfpl-production/2150215/4e8ac41a-281c-41ec-8149-5e968dafe290.png",
        "entry": 2150215,
        "entry_name": "Simba",
        "event_total": 60,
        "has_played": true,
        "id": 15283652,
        "last_rank": 10695,
        "player_name": "Abu Haneen",
        "rank": 11642,
        "rank_sort": 11643,
        "total": 2395
      },
      {
        "club_badge_src": null,
        "entry": 5042617,
        "entry_name": "Football Team III",
        "event_total": 58,
        "has_played": true,
        "id": 38951512,
        "last_rank": 11580,
        "player_name": "Paul Doherty",
        "rank": 11644,
        "rank_sort": 11644,
        "total": 2395
      },
      {
        "club_badge_src": null,
        "entry": 4002904,
        "entry_name": "SlotMachine",
        "event_total": 81,
        "has_played": true,
        "id": 30151231,
        "last_rank": 23951,
        "player_name": "Chris Jarvis",
        "rank": 11645,
        "rank_sort": 11645,
        "total": 2395
      },
      {
        "club_badge_src": "https://fantasy.premierleague.com/gcs/plfpl-production-adobe-approved/plfpl-production/339994/e2be365b-4ed5-40ef-85f0-02e3fc27041b.png",
        "entry": 339994,
        "entry_name": "glavezzi",
        "event_total": 65,
        "has_played": true,
        "id": 2275900,
        "last_rank": 13117,
        "player_name": "Dino Alisic",
        "rank": 11646,
        "rank_sort": 11646,
        "total": 2395
      },
      {
        "club_badge_src": null,
        "entry": 1489334,
        "entry_name": "Downinthedumps",
        "event_total": 52,
        "has_played": true,
        "id": 10385806,
        "last_rank": 9059,
        "player_name": "Daniel Downing-Jones",
        "rank": 11646,
        "rank_sort": 11647,
        "total": 2395
      },
      {
        "club_badge_src": null,
        "entry": 7638855,
        "entry_name": "Ctrl Alt De Ligt",
        "event_total": 60,
        "has_played": true,
        "id": 62615611,
        "last_rank": 12588,
        "player_name": "Arjan Dhami",
        "rank": 11648,
        "rank_sort": 11648,
        "total": 2394
      },
      {
        "club_badge_src": null,
        "entry": 92532,
        "entry_name": "Young Gunners",
        "event_total": 61,
        "has_played": true,
        "id": 604684,
        "last_rank": 13121,
        "player_name": "Kevin Jack",
        "rank": 11649,
        "rank_sort": 11649,
        "total": 2394
      },
      {
        "club_badge_src": null,
        "entry": 1211583,
        "entry_name": "fchelsea",
        "event_total": 70,
        "has_played": true,
        "id": 8409474,
        "last_rank": 18632,
        "player_name": "Nejc Sever",
        "rank": 11650,
        "rank_sort": 11650,
        "total": 2394
      }
    ]
  }
}