{
  "last_updated_data": "2026-05-24T23:28:17Z",
  "league": {
    "admin_entry": null,
    "closed": false,
    "code_privacy": "p",
    "created": "2025-07-20T23:14:33.933835Z",
    "cup_league": 2815434,
    "has_cup": true,
    "id": 314,
    "league_type": "s",
    "max_entries": null,
    "name": "Overall",
    "rank": null,
    "scoring": "c",
    "start_event": 1
  },
  "new_entries": {
    "has_next": false,
    "page": 1,
    "results": []
  },
  "standings": {
    "has_next": true,
    "page": 745,
    "results": [
      {
        "club_badge_src": null,
        "entry": 491857,
        "entry_name": "Sajjad7k",
        "event_total": 66,
        "has_played": true,
        "id": 3301471,
        "last_rank": 49407,
        "player_name": "Sajad Kazem",
        "rank": 37191,
        "rank_sort": 37201,
        "total": 2362
      },
      {
        "club_badge_src": null,
        "entry": 611373,
        "entry_name": "Lashmere Lions",
        "event_total": 82,
        "has_played": true,
        "id": 4130887,
        "last_rank": 70276,
        "player_name": "Ross Stow",
        "rank": 37191,
        "rank_sort": 37202,
        "total": 2362
      },
      {
        "club_badge_src": null,
        "entry": 623239,
        "entry_name": "Wirtz Nightmare",
        "event_total": 64,
        "has_played": true,
        "id": 4211820,
        "last_rank": 40878,
        "player_name": "Matthew Hughes",
        "rank": 37191,
        "rank_sort": 37203,
        "total": 2362
      },
      {
        "club_badge_src": null,
        "entry": 740284,
        "entry_name": "Escape from Alcaraz",
        "event_total": 51,
        "has_played": true,
        "id": 5033542,
        "last_rank": 26512,
        "player_name": "Nick Wood",
        "rank": 37191,
        "rank_sort": 37204,
        "total": 2362
      },
      {
        "club_badge_src": null,
        "entry": 782999,
        "entry_name": "Mohammed Khalid",
        "event_total": 69,
        "has_played": true,
        "id": 5346611,
        "last_rank": 47868,
        "player_name": "Mohamed Khalid",
        "rank": 37191,
        "rank_sort": 37205,
        "total": 2362
      },
      {
        "club_badge_src": null,
        "entry": 1216250,
        "entry_name": "Calafiornication",
        "event_total": 68,
        "has_played": true,
        "id": 8442039,
        "last_rank": 46364,
        "player_name": "Matthew Sheehan",
        "rank": 37191,
        "rank_sort": 37206,
        "total": 2362
      },
      {
        "club_badge_src": "https://fantasy.premierleague.com/gcs/plfpl-production-adobe-approved/plfpl-production/1342167/7879cd8d-99a6-4d30-a249-4b5fa864df5b.png",
        "entry": 1342167,
        "entry_name": "FPL M.A.D MaruL \u2122",
        "event_total": 60,
        "has_played": true,
        "id": 9331780,
        "last_rank": 35969,
        "player_name": "M\u0101ruL D\u00e4w\u00e4M-",
        "rank": 37191,
        "rank_sort": 37207,
        "total": 2362
      },
      {
        "club_badge_src": null,
        "entry": 1442070,
        "entry_name": "MBOOOMO",
        "event_total": 82,
        "has_played": true,
        "id": 10048723,
        "last_rank": 78440,
        "player_name": "Regan Boden",
        "rank": 37191,
        "rank_sort": 37208,
        "total": 2362
      },
      {
        "club_badge_src": "https://fantasy.premierleague.com/gcs/plfpl-production-adobe-approved/plfpl-production/1827587/c03c2ae2-5392-40ec-ad8c-da1fbf14eafa.png",
        "entry": 1827587,
        "entry_name": "F.C. Dato Dzia",
        "event_total": 57,
        "has_played": true,
        "id": 12854999,
        "last_rank": 28348,
        "player_name": "Buta Vakhvakhishvili",
        "rank": 37191,
        "rank_sort": 37209,
        "total": 2362
      },
      {
        "club_badge_src": null,
        "entry": 2183819,
        "entry_name": "\u00d6ZIL",
        "event_total": 55,
        "has_played": true,
        "id": 15533662,
        "last_rank": 30361,
        "player_name": "Abdo \u00d6zil",
        "rank": 37191,
        "rank_sort": 37210,
        "total": 2362
      },
      {
        "club_badge_src": "https://fantasy.premierleague.com/gcs/plfpl-production-adobe-approved/plfpl-production/2555198/296a2847-ee84-4a22-b2e0-41d93fd366aa.png",
        "entry": 2555198,
        "entry_name": "FC Mateta",
        "event_total": 71,
        "has_played": true,
        "id": 18322158,
        "last_rank": 50905,
        "player_name": "Konstantin Filipov",
        "rank": 37191,
        "rank_sort": 37211,
        "total": 2362
      },
      {
        "club_badge_src": null,
        "entry": 3023496,
        "entry_name": "Salmons r the Wirtz",
        "event_total": 53,
        "has_played": true,
        "id": 22246116,
        "last_rank": 28425,
        "player_name": "Emilio Noriega Farres",
        "rank": 37191,
        "rank_sort": 37212,
        "total": 2362
      },
      {
        "club_badge_src": null,
        "entry": 3082867,
        "entry_name": "Macc3rs FC",
        "event_total": 61,
        "has_played": true,
        "id": 22712670,
        "last_rank": 42225,
        "player_name": "Matthew McPherson",
        "rank": 37191,
        "rank_sort": 37213,
        "total": 2362
      },
      {
        "club_badge_src": null,
        "entry": 3155985,
        "entry_name": "55BURGERS55FRIES55TA",
        "event_total": 60,
        "has_played": true,
        "id": 23310860,
        "last_rank": 40923,
        "player_name": "Luke Robertson",
        "rank": 37191,
        "rank_sort": 37214,
        "total": 2362
      },
      {
        "club_badge_src": null,
        "entry": 3656402,
        "entry_name": "Crouch Potatoes",
        "event_total": 49,
        "has_played": true,
        "id": 27264961,
        "last_rank": 28449,
        "player_name": "Devon Crouch",
        "rank": 37191,
        "rank_sort": 37215,
        "total": 2362
      },
      {
        "club_badge_src": null,
        "entry": 3795913,
        "entry_name": "FortuneFavoursDeGea",
        "event_total": 61,
        "has_played": true,
        "id": 28372431,
        "last_rank": 42263,
        "player_name": "Darian Fortune",
        "rank": 37191,
        "rank_sort": 37216,
        "total": 2362
      },
      {
        "club_badge_src": null,
        "entry": 4321384,
        "entry_name": "Borussia Teeth",
        "event_total": 60,
        "has_played": true,
        "id": 32795687,
        "last_rank": 40923,
        "player_name": "Lewis Withnell",
        "rank": 37191,
        "rank_sort": 37217,
        "total": 2362
      },
      {
        "club_badge_src": null,
        "entry": 4482239,
        "entry_name": "The Invisibles",
        "event_total": 57,
        "has_played": true,
        "id": 34161553,
        "last_rank": 32531,
        "player_name": "Kasper Madsen",
        "rank": 37191,
        "rank_sort": 37218,
        "total": 2362
      },
      {
        "club_badge_src": null,
        "entry": 5042421,
        "entry_name": "w",
        "event_total": 66,
        "has_played": true,
        "id": 38950008,
        "last_rank": 49368,
        "player_name": "Wael S",
        "rank": 37191,
        "rank_sort": 37219,
        "total": 2362
      },
      {
        "club_badge_src": null,
        "entry": 5206838,
        "entry_name": "Dinny Jimmy",
        "event_total": 66,
        "has_played": true,
        "id": 40328503,
        "last_rank": 43570,
        "player_name": "James Andrews",
        "rank": 37191,
        "rank_sort": 37220,
        "total": 2362
      },
      {
        "club_badge_src": "https://fantasy.premierleague.com/gcs/plfpl-production-adobe-approved/plfpl-production/5492852/a5397015-51d0-4df6-8a28-cfa4f0bdcb54.png",
        "entry": 5492852,
        "entry_name": "Marshall's Maniacs",
        "event_total": 75,
        "has_played": true,
        "id": 42782746,
        "last_rank": 57515,
        "player_name": "Craig Marshall",
        "rank": 37191,
        "rank_sort": 37221,
        "total": 2362
      },
      {
        "club_badge_src": null,
        "entry": 5500326,
        "entry_name": "DC",
        "event_total": 60,
        "has_played": true,
        "id": 42856677,
        "last_rank": 35926,
        "player_name": "David Cartner",
        "rank": 37191,
        "rank_sort": 37222,
        "total": 2362
      },
      {
        "club_badge_src": null,
        "entry": 5875992,
        "entry_name": "PJJ FC",
        "event_total": 64,
        "has_played": true,
        "id": 46154891,
        "last_rank": 40878,
        "player_name": "Mohd Zuraidi",
        "rank": 37191,
        "rank_sort": 37223,
        "total": 2362
      },
      {
        "club_badge_src": null,
        "entry": 6520344,
        "entry_name": "Vlachodimos & Pliers",
        "event_total": 54,
        "has_played": true,
        "id": 52002866,
        "last_rank": 29369,
        "player_name": "Jim Proudfoot",
        "rank": 37191,
        "rank_sort": 37224,
        "total": 2362
      },
      {
        "club_badge_src": "https://fantasy.premierleague.com/gcs/plfpl-production-adobe-approved/plfpl-production/6817880/c5905ca3-27f7-4fd6-8f46-193cdbdbedef.png",
        "entry": 6817880,
        "entry_name": "Abims_Warriors",
        "event_total": 53,
        "has_played": true,
        "id": 54605339,
        "last_rank": 32552,
        "player_name": "Abimbola Obayemi",
        "rank": 37191,
        "rank_sort": 37225,
        "total": 2362
      },
      {
        "club_badge_src": null,
        "entry": 7219254,
        "entry_name": "othman.20",
        "event_total": 73,
        "has_played": true,
        "id": 58315235,
        "last_rank": 54134,
        "player_name": "Othman Zebari",
        "rank": 37191,
        "rank_sort": 37226,
        "total": 2362
      },
      {
        "club_badge_src": null,
        "entry": 8916564,
        "entry_name": "Sub Bekims",
        "event_total": 68,
        "has_played": true,
        "id": 74669742,
        "last_rank": 52561,
        "player_name": "Kimskie .",
        "rank": 37191,
        "rank_sort": 37227,
        "total": 2362
      },
      {
        "club_badge_src": null,
        "entry": 11656,
        "entry_name": "Tea & Busquets",
        "event_total": 67,
        "has_played": true,
        "id": 69379,
        "last_rank": 50984,
        "player_name": "Josh Evans",
        "rank": 37228,
        "rank_sort": 37228,
        "total": 2362
      },
      {
        "club_badge_src": null,
        "entry": 33456,
        "entry_name": "abed97",
        "event_total": 63,
        "has_played": true,
        "id": 213366,
        "last_rank": 45007,
        "player_name": "Abed Hyari",
        "rank": 37228,
        "rank_sort": 37229,
        "total": 2362
      },
      {
        "club_badge_src": null,
        "entry": 165607,
        "entry_name": "kinder mbuemo",
        "event_total": 71,
        "has_played": true,
        "id": 1093523,
        "last_rank": 44950,
        "player_name": "Dale Robinson",
        "rank": 37228,
        "rank_sort": 37230,
        "total": 2362
      },
      {
        "club_badge_src": null,
        "entry": 192298,
        "entry_name": "Stretch and Score",
        "event_total": 51,
        "has_played": true,
        "id": 1274078,
        "last_rank": 30433,
        "player_name": "Niall Williams",
        "rank": 37228,
        "rank_sort": 37231,
        "total": 2362
      },
      {
        "club_badge_src": null,
        "entry": 313757,
        "entry_name": "Pro Evolution Saka",
        "event_total": 57,
        "has_played": true,
        "id": 2102313,
        "last_rank": 37236,
        "player_name": "jack thompson",
        "rank": 37228,
        "rank_sort": 37232,
        "total": 2362
      },
      {
        "club_badge_src": null,
        "entry": 348726,
        "entry_name": "Big Bald Skid",
        "event_total": 57,
        "has_played": true,
        "id": 2334168,
        "last_rank": 28425,
        "player_name": "Lewis Skidmore",
        "rank": 37228,
        "rank_sort": 37233,
        "total": 2362
      },
      {
        "club_badge_src": "https://fantasy.premierleague.com/gcs/plfpl-production-adobe-approved/plfpl-production/788912/3d2d3589-62d2-4682-951d-4e24cc806110.png",
        "entry": 788912,
        "entry_name": "The Palmer Parade",
        "event_total": 49,
        "has_played": true,
        "id": 5396062,
        "last_rank": 28449,
        "player_name": "Yash Banthia",
        "rank": 37228,
        "rank_sort": 37234,
        "total": 2362
      },
      {
        "club_badge_src": "https://fantasy.premierleague.com/gcs/plfpl-production-adobe-approved/plfpl-production/835652/d8f66b51-f3b5-498d-be23-1205a78c751e.png",
        "entry": 835652,
        "entry_name": "Buckley's Best",
        "event_total": 52,
        "has_played": true,
        "id": 5724421,
        "last_rank": 27464,
        "player_name": "Simon Buckley",
        "rank": 37228,
        "rank_sort": 37235,
        "total": 2362
      },
      {
        "club_badge_src": null,
        "entry": 1181231,
        "entry_name": "Hacksburn Rollerz",
        "event_total": 56,
        "has_played": true,
        "id": 8195668,
        "last_rank": 36031,
        "player_name": "Alexander Hackwood",
        "rank": 37228,
        "rank_sort": 37236,
        "total": 2362
      },
      {
        "club_badge_src": "https://fantasy.premierleague.com/gcs/plfpl-production-adobe-approved/plfpl-production/1554970/7927f3f2-cbfe-4a88-8f76-e9e3ddeaced1.png",
        "entry": 1554970,
        "entry_name": "Benzo90 FC",
        "event_total": 55,
        "has_played": true,
        "id": 10857343,
        "last_rank": 23039,
        "player_name": "Mehmet \u015eeyh----",
        "rank": 37228,
        "rank_sort": 37237,
        "total": 2362
      },
      {
        "club_badge_src": "https://fantasy.premierleague.com/gcs/plfpl-production-adobe-approved/plfpl-production/3883724/bf6766ec-bad2-4fa4-a763-46adec271dc7.png",
        "entry": 3883724,
        "entry_name": "Heikashow",
        "event_total": 67,
        "has_played": true,
        "id": 29182545,
        "last_rank": 50984,
        "player_name": "Tobias Heika",
        "rank": 37228,
        "rank_sort": 37238,
        "total": 2362
      },
      {
        "club_badge_src": "https://fantasy.premierleague.com/gcs/plfpl-production-adobe-approved/plfpl-production/4308539/f05be649-814d-4bc5-9ae6-096fa36c9b46.png",
        "entry": 4308539,
        "entry_name": "I'm a baleba",
        "event_total": 74,
        "has_played": true,
        "id": 32690801,
        "last_rank": 62874,
        "player_name": "Jack Kerr",
        "rank": 37228,
        "rank_sort": 37239,
        "total": 2362
      },
      {
        "club_badge_src": null,
        "entry": 5173315,
        "entry_name": "Bruno Dos Tres",
        "event_total": 68,
        "has_played": true,
        "id": 40040274,
        "last_rank": 52461,
        "player_name": "Rhys Ferguson",
        "rank": 37228,
        "rank_sort": 37240,
        "total": 2362
      },
      {
        "club_badge_src": null,
        "entry": 7812650,
        "entry_name": "Hello Paul",
        "event_total": 50,
        "has_played": true,
        "id": 64187658,
        "last_rank": 29411,
        "player_name": "Lewis Paterson",
        "rank": 37228,
        "rank_sort": 37241,
        "total": 2362
      },
      {
        "club_badge_src": "https://fantasy.premierleague.com/gcs/plfpl-production-adobe-approved/plfpl-production/7907077/e771898d-0aa8-4058-92d1-56103cc9d862.png",
        "entry": 7907077,
        "entry_name": "bbibbo",
        "event_total": 66,
        "has_played": true,
        "id": 65051129,
        "last_rank": 43512,
        "player_name": "mini pom",
        "rank": 37228,
        "rank_sort": 37242,
        "total": 2362
      },
      {
        "club_badge_src": null,
        "entry": 8397946,
        "entry_name": "salah",
        "event_total": 49,
        "has_played": true,
        "id": 69659150,
        "last_rank": 28449,
        "player_name": "Salah Boudali",
        "rank": 37228,
        "rank_sort": 37243,
        "total": 2362
      },
      {
        "club_badge_src": null,
        "entry": 6579,
        "entry_name": "\u0160e\u0161ko Meal Deal FC",
        "event_total": 58,
        "has_played": true,
        "id": 37779,
        "last_rank": 29393,
        "player_name": "Anoob Pillai",
        "rank": 37244,
        "rank_sort": 37244,
        "total": 2362
      },
      {
        "club_badge_src": "https://fantasy.premierleague.com/gcs/plfpl-production-adobe-approved/plfpl-production/11557/57f07dd8-689c-4bdc-8470-97c8ff3d62f0.png",
        "entry": 11557,
        "entry_name": "Redstuds",
        "event_total": 70,
        "has_played": true,
        "id": 68745,
        "last_rank": 38391,
        "player_name": "Harish Reddy",
        "rank": 37244,
        "rank_sort": 37245,
        "total": 2362
      },
      {
        "club_badge_src": null,
        "entry": 229527,
        "entry_name": "God Morgan Rogers",
        "event_total": 54,
        "has_played": true,
        "id": 1527081,
        "last_rank": 25613,
        "player_name": "Emil K\u00e5n\u00e5hols",
        "rank": 37244,
        "rank_sort": 37246,
        "total": 2362
      },
      {
        "club_badge_src": "https://fantasy.premierleague.com/gcs/plfpl-production-adobe-approved/plfpl-production/541847/045a30bd-a338-47f5-ae18-a40b616b8d3d.png",
        "entry": 541847,
        "entry_name": "Strandplassveien FC",
        "event_total": 72,
        "has_played": true,
        "id": 3646856,
        "last_rank": 59370,
        "player_name": "Ole Morten Eidsnes",
        "rank": 37244,
        "rank_sort": 37247,
        "total": 2362
      },
      {
        "club_badge_src": null,
        "entry": 601147,
        "entry_name": "NieZnamSieNaFPL",
        "event_total": 78,
        "has_played": true,
        "id": 4056236,
        "last_rank": 62917,
        "player_name": "Jakub Andrzejewski",
        "rank": 37244,
        "rank_sort": 37248,
        "total": 2362
      },
      {
        "club_badge_src": null,
        "entry": 938530,
        "entry_name": "The Green Army",
        "event_total": 37,
        "has_played": true,
        "id": 6459555,
        "last_rank": 18609,
        "player_name": "lee brown",
        "rank": 37244,
        "rank_sort": 37249,
        "total": 2362
      },
      {
        "club_badge_src": null,
        "entry": 1396728,
        "entry_name": "Jimmy K",
        "event_total": 60,
        "has_played": true,
        "id": 9717100,
        "last_rank": 36015,
        "player_name": "Jimmy K",
        "rank": 37244,
        "rank_sort": 37250,
        "total": 2362
      }
    ]
  }
}