{
  "last_updated_data": "2026-05-24T23:28:17Z",
  "league": {
    "admin_entry": null,
    "closed": false,
    "code_privacy": "p",
    "created": "2025-07-20T23:14:33.933835Z",
    "cup_league": 2815434,
    "has_cup": true,
    "id": 314,
    "league_type": "s",
    "max_entries": null,
    "name": "Overall",
    "rank": null,
    "scoring": "c",
    "start_event": 1
  },
  "new_entries": {
    "has_next": false,
    "page": 1,
    "results": []
  },
  "standings": {
    "has_next": true,
    "page": 1147,
    "results": [
      {
        "club_badge_src": null,
        "entry": 460977,
        "entry_name": "ElisKelis",
        "event_total": 53,
        "has_played": true,
        "id": 3092284,
        "last_rank": 51137,
        "player_name": "August Ronne",
        "rank": 57227,
        "rank_sort": 57301,
        "total": 2347
      },
      {
        "club_badge_src": null,
        "entry": 462088,
        "entry_name": "Maguires Maniacs",
        "event_total": 58,
        "has_played": true,
        "id": 3099698,
        "last_rank": 59813,
        "player_name": "Jonto McBeezer",
        "rank": 57227,
        "rank_sort": 57302,
        "total": 2347
      },
      {
        "club_badge_src": null,
        "entry": 464748,
        "entry_name": "Rizz\u2019m with the tism",
        "event_total": 57,
        "has_played": true,
        "id": 3117513,
        "last_rank": 57857,
        "player_name": "Ryan Kerton",
        "rank": 57227,
        "rank_sort": 57303,
        "total": 2347
      },
      {
        "club_badge_src": "https://fantasy.premierleague.com/gcs/plfpl-production-adobe-approved/plfpl-production/464914/865a8ffc-192d-4cd8-aa37-4673030a9a16.png",
        "entry": 464914,
        "entry_name": "Tudor Cinema Club",
        "event_total": 51,
        "has_played": true,
        "id": 3118775,
        "last_rank": 48363,
        "player_name": "Ish Konteh",
        "rank": 57227,
        "rank_sort": 57304,
        "total": 2347
      },
      {
        "club_badge_src": null,
        "entry": 478606,
        "entry_name": "Call Me Pep",
        "event_total": 59,
        "has_played": true,
        "id": 3212996,
        "last_rank": 61606,
        "player_name": "Kennedy Shitumba",
        "rank": 57227,
        "rank_sort": 57305,
        "total": 2347
      },
      {
        "club_badge_src": null,
        "entry": 507669,
        "entry_name": "K LFC",
        "event_total": 59,
        "has_played": true,
        "id": 3407470,
        "last_rank": 61606,
        "player_name": "korng sok",
        "rank": 57227,
        "rank_sort": 57306,
        "total": 2347
      },
      {
        "club_badge_src": null,
        "entry": 530480,
        "entry_name": "bigsofttete.png",
        "event_total": 69,
        "has_played": true,
        "id": 3567505,
        "last_rank": 81244,
        "player_name": "S D",
        "rank": 57227,
        "rank_sort": 57307,
        "total": 2347
      },
      {
        "club_badge_src": null,
        "entry": 533859,
        "entry_name": "GH FC",
        "event_total": 66,
        "has_played": true,
        "id": 3592398,
        "last_rank": 75139,
        "player_name": "Gareth Hughes",
        "rank": 57227,
        "rank_sort": 57308,
        "total": 2347
      },
      {
        "club_badge_src": null,
        "entry": 555403,
        "entry_name": "\u00d8deparfum",
        "event_total": 43,
        "has_played": true,
        "id": 3738055,
        "last_rank": 37822,
        "player_name": "Matthew Potts",
        "rank": 57227,
        "rank_sort": 57309,
        "total": 2347
      },
      {
        "club_badge_src": null,
        "entry": 563607,
        "entry_name": "Mariscada FC",
        "event_total": 69,
        "has_played": true,
        "id": 3793542,
        "last_rank": 81312,
        "player_name": "Paulo Cordeiro",
        "rank": 57227,
        "rank_sort": 57310,
        "total": 2347
      },
      {
        "club_badge_src": null,
        "entry": 569095,
        "entry_name": "Vit\u00e5 BK Come On!",
        "event_total": 62,
        "has_played": true,
        "id": 3830344,
        "last_rank": 66848,
        "player_name": "Joel Waara",
        "rank": 57227,
        "rank_sort": 57311,
        "total": 2347
      },
      {
        "club_badge_src": null,
        "entry": 583774,
        "entry_name": "Class AAA team",
        "event_total": 48,
        "has_played": true,
        "id": 3928696,
        "last_rank": 44048,
        "player_name": "Darren Marsden",
        "rank": 57227,
        "rank_sort": 57312,
        "total": 2347
      },
      {
        "club_badge_src": null,
        "entry": 610101,
        "entry_name": "Moeda FC",
        "event_total": 59,
        "has_played": true,
        "id": 4121615,
        "last_rank": 61606,
        "player_name": "Damo Pashby",
        "rank": 57227,
        "rank_sort": 57313,
        "total": 2347
      },
      {
        "club_badge_src": "https://fantasy.premierleague.com/gcs/plfpl-production-adobe-approved/plfpl-production/630536/8cafa14b-20f1-465b-a2f9-0ef00c53bca4.png",
        "entry": 630536,
        "entry_name": "Scousers",
        "event_total": 53,
        "has_played": true,
        "id": 4260792,
        "last_rank": 51403,
        "player_name": "Andr\u00e9 Malon\u00e6s",
        "rank": 57227,
        "rank_sort": 57314,
        "total": 2347
      },
      {
        "club_badge_src": null,
        "entry": 652884,
        "entry_name": "PEP BALL FC",
        "event_total": 43,
        "has_played": true,
        "id": 4412262,
        "last_rank": 37822,
        "player_name": "Jami Vahtera",
        "rank": 57227,
        "rank_sort": 57315,
        "total": 2347
      },
      {
        "club_badge_src": null,
        "entry": 659777,
        "entry_name": "Saka Potatoes",
        "event_total": 58,
        "has_played": true,
        "id": 4459000,
        "last_rank": 59632,
        "player_name": "Mitchell Riley",
        "rank": 57227,
        "rank_sort": 57316,
        "total": 2347
      },
      {
        "club_badge_src": "https://fantasy.premierleague.com/gcs/plfpl-production-adobe-approved/plfpl-production/662956/dcf6a35f-2238-4df2-978a-30907b88bcb3.png",
        "entry": 662956,
        "entry_name": "ABE",
        "event_total": 64,
        "has_played": true,
        "id": 4481775,
        "last_rank": 70985,
        "player_name": "Abdulla Almohannadi",
        "rank": 57227,
        "rank_sort": 57317,
        "total": 2347
      },
      {
        "club_badge_src": null,
        "entry": 663356,
        "entry_name": "Hacunha Mateta",
        "event_total": 76,
        "has_played": true,
        "id": 4484569,
        "last_rank": 98436,
        "player_name": "andy cole",
        "rank": 57227,
        "rank_sort": 57318,
        "total": 2347
      },
      {
        "club_badge_src": null,
        "entry": 666830,
        "entry_name": "Kinder Mbeumo",
        "event_total": 67,
        "has_played": true,
        "id": 4508686,
        "last_rank": 77050,
        "player_name": "Jordan Phillips",
        "rank": 57227,
        "rank_sort": 57319,
        "total": 2347
      },
      {
        "club_badge_src": null,
        "entry": 670464,
        "entry_name": "Better than Figo",
        "event_total": 58,
        "has_played": true,
        "id": 4534639,
        "last_rank": 59813,
        "player_name": "Barry Lawrence",
        "rank": 57227,
        "rank_sort": 57320,
        "total": 2347
      },
      {
        "club_badge_src": null,
        "entry": 693817,
        "entry_name": "Enfield Celtic",
        "event_total": 64,
        "has_played": true,
        "id": 4698912,
        "last_rank": 63201,
        "player_name": "Callum Taaffe",
        "rank": 57227,
        "rank_sort": 57321,
        "total": 2347
      },
      {
        "club_badge_src": null,
        "entry": 724398,
        "entry_name": "Bruno Dos Tres FC",
        "event_total": 30,
        "has_played": true,
        "id": 4920125,
        "last_rank": 20888,
        "player_name": "Stuart Clarke",
        "rank": 57227,
        "rank_sort": 57322,
        "total": 2347
      },
      {
        "club_badge_src": null,
        "entry": 752493,
        "entry_name": "Schar Wars",
        "event_total": 35,
        "has_played": true,
        "id": 5120565,
        "last_rank": 28726,
        "player_name": "Adam Clough",
        "rank": 57227,
        "rank_sort": 57323,
        "total": 2347
      },
      {
        "club_badge_src": null,
        "entry": 761820,
        "entry_name": "Yv mintis",
        "event_total": 59,
        "has_played": true,
        "id": 5194948,
        "last_rank": 61606,
        "player_name": "Juho Peltola",
        "rank": 57227,
        "rank_sort": 57324,
        "total": 2347
      },
      {
        "club_badge_src": null,
        "entry": 766240,
        "entry_name": "Famous Last Wirtz",
        "event_total": 57,
        "has_played": true,
        "id": 5226110,
        "last_rank": 57857,
        "player_name": "Simon Meester",
        "rank": 57227,
        "rank_sort": 57325,
        "total": 2347
      },
      {
        "club_badge_src": "https://fantasy.premierleague.com/gcs/plfpl-production-adobe-approved/plfpl-production/768257/634513cc-1aa6-40b4-aef1-b3daa947e43f.png",
        "entry": 768257,
        "entry_name": "UNITED LLP",
        "event_total": 41,
        "has_played": true,
        "id": 5240000,
        "last_rank": 35166,
        "player_name": "Aaron Soleimani",
        "rank": 57227,
        "rank_sort": 57326,
        "total": 2347
      },
      {
        "club_badge_src": null,
        "entry": 775017,
        "entry_name": "Palmer Chameleon",
        "event_total": 61,
        "has_played": true,
        "id": 5287916,
        "last_rank": 64830,
        "player_name": "James Evans",
        "rank": 57227,
        "rank_sort": 57327,
        "total": 2347
      },
      {
        "club_badge_src": "https://fantasy.premierleague.com/gcs/plfpl-production-adobe-approved/plfpl-production/779370/14f62f84-69d0-4667-9e1b-f4c6fb316939.png",
        "entry": 779370,
        "entry_name": "The Diggs",
        "event_total": 55,
        "has_played": true,
        "id": 5320123,
        "last_rank": 54667,
        "player_name": "Andy Hales",
        "rank": 57227,
        "rank_sort": 57328,
        "total": 2347
      },
      {
        "club_badge_src": "https://fantasy.premierleague.com/gcs/plfpl-production-adobe-approved/plfpl-production/800110/1a342b08-48c6-4ae9-a9be-274f5f2d4f2b.png",
        "entry": 800110,
        "entry_name": "The Coutinho Money",
        "event_total": 63,
        "has_played": true,
        "id": 5476575,
        "last_rank": 68957,
        "player_name": "Craig Mitchell",
        "rank": 57227,
        "rank_sort": 57329,
        "total": 2347
      },
      {
        "club_badge_src": null,
        "entry": 805279,
        "entry_name": "Gy\u00f6-cologist",
        "event_total": 52,
        "has_played": true,
        "id": 5512501,
        "last_rank": 49880,
        "player_name": "Marcus Ovcaric",
        "rank": 57227,
        "rank_sort": 57330,
        "total": 2347
      },
      {
        "club_badge_src": null,
        "entry": 830230,
        "entry_name": "Latte FC",
        "event_total": 69,
        "has_played": true,
        "id": 5686624,
        "last_rank": 81420,
        "player_name": "Oab Worapat",
        "rank": 57227,
        "rank_sort": 57331,
        "total": 2347
      },
      {
        "club_badge_src": null,
        "entry": 835878,
        "entry_name": "The Rice is Right",
        "event_total": 51,
        "has_played": true,
        "id": 5726075,
        "last_rank": 48084,
        "player_name": "Devang Shah",
        "rank": 57227,
        "rank_sort": 57332,
        "total": 2347
      },
      {
        "club_badge_src": null,
        "entry": 849599,
        "entry_name": "Mr Lover Man, Xhaka",
        "event_total": 69,
        "has_played": true,
        "id": 5823328,
        "last_rank": 81646,
        "player_name": "Matt Street",
        "rank": 57227,
        "rank_sort": 57333,
        "total": 2347
      },
      {
        "club_badge_src": null,
        "entry": 853901,
        "entry_name": "Good Team on Paper",
        "event_total": 43,
        "has_played": true,
        "id": 5853094,
        "last_rank": 37589,
        "player_name": "Andy Akker",
        "rank": 57227,
        "rank_sort": 57334,
        "total": 2347
      },
      {
        "club_badge_src": null,
        "entry": 857119,
        "entry_name": "Ali Bros XI",
        "event_total": 71,
        "has_played": true,
        "id": 5875230,
        "last_rank": 85870,
        "player_name": "Mohammad Ali",
        "rank": 57227,
        "rank_sort": 57335,
        "total": 2347
      },
      {
        "club_badge_src": null,
        "entry": 859079,
        "entry_name": "SmellsLikeTeamSpirit",
        "event_total": 53,
        "has_played": true,
        "id": 5889035,
        "last_rank": 51220,
        "player_name": "Sachin Vasishta",
        "rank": 57227,
        "rank_sort": 57336,
        "total": 2347
      },
      {
        "club_badge_src": null,
        "entry": 875702,
        "entry_name": "GrabFingerAndPulisic",
        "event_total": 60,
        "has_played": true,
        "id": 6003748,
        "last_rank": 63201,
        "player_name": "Hugh Cullman",
        "rank": 57227,
        "rank_sort": 57337,
        "total": 2347
      },
      {
        "club_badge_src": null,
        "entry": 876006,
        "entry_name": "6 man like lou will",
        "event_total": 48,
        "has_played": true,
        "id": 6005852,
        "last_rank": 44303,
        "player_name": "Naail Shoaib",
        "rank": 57227,
        "rank_sort": 57338,
        "total": 2347
      },
      {
        "club_badge_src": null,
        "entry": 884025,
        "entry_name": "Retrenched",
        "event_total": 81,
        "has_played": true,
        "id": 6062785,
        "last_rank": 112169,
        "player_name": "dank dank",
        "rank": 57227,
        "rank_sort": 57339,
        "total": 2347
      },
      {
        "club_badge_src": null,
        "entry": 898773,
        "entry_name": "GIDI",
        "event_total": 68,
        "has_played": true,
        "id": 6175247,
        "last_rank": 79190,
        "player_name": "Cleaven Ellul",
        "rank": 57227,
        "rank_sort": 57340,
        "total": 2347
      },
      {
        "club_badge_src": "https://fantasy.premierleague.com/gcs/plfpl-production-adobe-approved/plfpl-production/911697/ced4ee7d-b243-486b-ac83-fcbfcf928eb1.png",
        "entry": 911697,
        "entry_name": "Forever 20",
        "event_total": 66,
        "has_played": true,
        "id": 6268696,
        "last_rank": 75537,
        "player_name": "Raqib Rauf",
        "rank": 57227,
        "rank_sort": 57341,
        "total": 2347
      },
      {
        "club_badge_src": null,
        "entry": 948097,
        "entry_name": "Areola Grande",
        "event_total": 68,
        "has_played": true,
        "id": 6530794,
        "last_rank": 79431,
        "player_name": "Mario S",
        "rank": 57227,
        "rank_sort": 57342,
        "total": 2347
      },
      {
        "club_badge_src": null,
        "entry": 951443,
        "entry_name": "McMillan's 11",
        "event_total": 44,
        "has_played": true,
        "id": 6555004,
        "last_rank": 39023,
        "player_name": "Milan Popovic",
        "rank": 57227,
        "rank_sort": 57343,
        "total": 2347
      },
      {
        "club_badge_src": null,
        "entry": 960979,
        "entry_name": "Stavanger T\u00f6estub",
        "event_total": 34,
        "has_played": true,
        "id": 6622146,
        "last_rank": 27770,
        "player_name": "Frank Burke",
        "rank": 57227,
        "rank_sort": 57344,
        "total": 2347
      },
      {
        "club_badge_src": "https://fantasy.premierleague.com/gcs/plfpl-production-adobe-approved/plfpl-production/970049/90db074a-8b3b-4261-8e30-57b68c7c0942.png",
        "entry": 970049,
        "entry_name": "Sarsink FC",
        "event_total": 67,
        "has_played": true,
        "id": 6685970,
        "last_rank": 77258,
        "player_name": "Ninor Warda",
        "rank": 57227,
        "rank_sort": 57345,
        "total": 2347
      },
      {
        "club_badge_src": null,
        "entry": 970917,
        "entry_name": "No Franks Given",
        "event_total": 56,
        "has_played": true,
        "id": 6692843,
        "last_rank": 56180,
        "player_name": "Colby Pridham",
        "rank": 57227,
        "rank_sort": 57346,
        "total": 2347
      },
      {
        "club_badge_src": null,
        "entry": 986719,
        "entry_name": "H\u00f8jligt",
        "event_total": 65,
        "has_played": true,
        "id": 6803392,
        "last_rank": 73038,
        "player_name": "Ellen Lindheim",
        "rank": 57227,
        "rank_sort": 57347,
        "total": 2347
      },
      {
        "club_badge_src": null,
        "entry": 1018797,
        "entry_name": "Fuzzball",
        "event_total": 70,
        "has_played": true,
        "id": 7048362,
        "last_rank": 83698,
        "player_name": "Indigo Myer",
        "rank": 57227,
        "rank_sort": 57348,
        "total": 2347
      },
      {
        "club_badge_src": null,
        "entry": 1034641,
        "entry_name": "Sloted Right In",
        "event_total": 57,
        "has_played": true,
        "id": 7159428,
        "last_rank": 58071,
        "player_name": "Ian Griffiths",
        "rank": 57227,
        "rank_sort": 57349,
        "total": 2347
      },
      {
        "club_badge_src": null,
        "entry": 1088030,
        "entry_name": "Always Sonny in N17",
        "event_total": 63,
        "has_played": true,
        "id": 7535159,
        "last_rank": 68957,
        "player_name": "Ben Keavy",
        "rank": 57227,
        "rank_sort": 57350,
        "total": 2347
      }
    ]
  }
}