{
  "last_updated_data": "2026-05-24T23:28:17Z",
  "league": {
    "admin_entry": null,
    "closed": false,
    "code_privacy": "p",
    "created": "2025-07-20T23:14:33.933835Z",
    "cup_league": 2815434,
    "has_cup": true,
    "id": 314,
    "league_type": "s",
    "max_entries": null,
    "name": "Overall",
    "rank": null,
    "scoring": "c",
    "start_event": 1
  },
  "new_entries": {
    "has_next": false,
    "page": 1,
    "results": []
  },
  "standings": {
    "has_next": true,
    "page": 1245,
    "results": [
      {
        "club_badge_src": null,
        "entry": 6591101,
        "entry_name": "Palmergeddon FC",
        "event_total": 70,
        "has_played": true,
        "id": 52640913,
        "last_rank": 81137,
        "player_name": "Prakhar Mishra",
        "rank": 62197,
        "rank_sort": 62201,
        "total": 2345
      },
      {
        "club_badge_src": "https://fantasy.premierleague.com/gcs/plfpl-production-adobe-approved/plfpl-production/7506006/c115a01b-b643-4af0-b4e8-76e7afdb6e3f.png",
        "entry": 7506006,
        "entry_name": "Tekkerslovakia",
        "event_total": 64,
        "has_played": true,
        "id": 61349802,
        "last_rank": 54304,
        "player_name": "Milos Babovic",
        "rank": 62197,
        "rank_sort": 62202,
        "total": 2345
      },
      {
        "club_badge_src": null,
        "entry": 4519049,
        "entry_name": "IceinHisVeins F.C",
        "event_total": 54,
        "has_played": true,
        "id": 34462652,
        "last_rank": 45090,
        "player_name": "Hossam Reda",
        "rank": 62203,
        "rank_sort": 62203,
        "total": 2345
      },
      {
        "club_badge_src": null,
        "entry": 9094922,
        "entry_name": "Ronnies Rovers FC",
        "event_total": 54,
        "has_played": true,
        "id": 76401520,
        "last_rank": 57682,
        "player_name": "Paul Prendergast",
        "rank": 62203,
        "rank_sort": 62204,
        "total": 2345
      },
      {
        "club_badge_src": "https://fantasy.premierleague.com/gcs/plfpl-production-adobe-approved/plfpl-production/3095039/b466d6f7-3b51-4ca1-847c-8ad162ad47c6.png",
        "entry": 3095039,
        "entry_name": "Stuventus",
        "event_total": 44,
        "has_played": true,
        "id": 22810739,
        "last_rank": 37299,
        "player_name": "Stuart Gray",
        "rank": 62205,
        "rank_sort": 62205,
        "total": 2345
      },
      {
        "club_badge_src": "https://fantasy.premierleague.com/gcs/plfpl-production-adobe-approved/plfpl-production/4882479/7900c696-c684-402f-afa3-3fb7875521fd.png",
        "entry": 4882479,
        "entry_name": "CouldHaveBeenWirtz",
        "event_total": 54,
        "has_played": true,
        "id": 37639194,
        "last_rank": 57686,
        "player_name": "Huw Prior",
        "rank": 62206,
        "rank_sort": 62206,
        "total": 2345
      },
      {
        "club_badge_src": null,
        "entry": 56812,
        "entry_name": "Bruno Dos Tres",
        "event_total": 75,
        "has_played": true,
        "id": 365965,
        "last_rank": 74651,
        "player_name": "Sean Johnson",
        "rank": 62207,
        "rank_sort": 62207,
        "total": 2345
      },
      {
        "club_badge_src": null,
        "entry": 846439,
        "entry_name": "Keebo",
        "event_total": 60,
        "has_played": true,
        "id": 5799619,
        "last_rank": 54324,
        "player_name": "Mohamed Ehab",
        "rank": 62207,
        "rank_sort": 62208,
        "total": 2345
      },
      {
        "club_badge_src": null,
        "entry": 7778579,
        "entry_name": "ThugLife",
        "event_total": 51,
        "has_played": true,
        "id": 63881228,
        "last_rank": 46506,
        "player_name": "Steven David",
        "rank": 62207,
        "rank_sort": 62209,
        "total": 2345
      },
      {
        "club_badge_src": null,
        "entry": 1666963,
        "entry_name": "DOGSO",
        "event_total": 68,
        "has_played": true,
        "id": 11671020,
        "last_rank": 68520,
        "player_name": "Jokovic Sir",
        "rank": 62210,
        "rank_sort": 62210,
        "total": 2345
      },
      {
        "club_badge_src": "https://fantasy.premierleague.com/gcs/plfpl-production-adobe-approved/plfpl-production/6562388/29da3496-b2ee-40f5-a179-dde64fcd6069.png",
        "entry": 6562388,
        "entry_name": "BBzombies",
        "event_total": 56,
        "has_played": true,
        "id": 52377372,
        "last_rank": 61206,
        "player_name": "Benjamin Burger",
        "rank": 62211,
        "rank_sort": 62211,
        "total": 2344
      },
      {
        "club_badge_src": null,
        "entry": 7250890,
        "entry_name": "Bombers",
        "event_total": 41,
        "has_played": true,
        "id": 58613833,
        "last_rank": 38507,
        "player_name": "Okey Onwualu",
        "rank": 62212,
        "rank_sort": 62212,
        "total": 2344
      },
      {
        "club_badge_src": null,
        "entry": 3611524,
        "entry_name": "Grants",
        "event_total": 36,
        "has_played": true,
        "id": 26903949,
        "last_rank": 32625,
        "player_name": "Gilbert kiprotich",
        "rank": 62213,
        "rank_sort": 62213,
        "total": 2344
      },
      {
        "club_badge_src": null,
        "entry": 7188471,
        "entry_name": "AFC Wiase",
        "event_total": 53,
        "has_played": true,
        "id": 58025815,
        "last_rank": 56018,
        "player_name": "Nkansah kwasi Ntiamoah",
        "rank": 62214,
        "rank_sort": 62214,
        "total": 2344
      },
      {
        "club_badge_src": null,
        "entry": 9382667,
        "entry_name": "MGFC",
        "event_total": 56,
        "has_played": true,
        "id": 79206488,
        "last_rank": 61208,
        "player_name": "Menelik Graham",
        "rank": 62215,
        "rank_sort": 62215,
        "total": 2344
      },
      {
        "club_badge_src": null,
        "entry": 3044818,
        "entry_name": "KRALJEVO",
        "event_total": 77,
        "has_played": true,
        "id": 22413049,
        "last_rank": 108400,
        "player_name": "Veljko Vukadinovic",
        "rank": 62216,
        "rank_sort": 62216,
        "total": 2344
      },
      {
        "club_badge_src": null,
        "entry": 954071,
        "entry_name": "Shearer No Relation",
        "event_total": 69,
        "has_played": true,
        "id": 6573551,
        "last_rank": 88121,
        "player_name": "ROBERT SHEARER",
        "rank": 62217,
        "rank_sort": 62217,
        "total": 2344
      },
      {
        "club_badge_src": null,
        "entry": 3619024,
        "entry_name": "I've Got My Milk!",
        "event_total": 67,
        "has_played": true,
        "id": 26962508,
        "last_rank": 83468,
        "player_name": "Nicky Thompson",
        "rank": 62218,
        "rank_sort": 62218,
        "total": 2344
      },
      {
        "club_badge_src": "https://fantasy.premierleague.com/gcs/plfpl-production-adobe-approved/plfpl-production/4517842/e9d16183-49d7-43f5-be5e-765a2619c38a.png",
        "entry": 4517842,
        "entry_name": "Absolutely Fab-regas",
        "event_total": 62,
        "has_played": true,
        "id": 34452698,
        "last_rank": 72609,
        "player_name": "Dawn Fowler",
        "rank": 62218,
        "rank_sort": 62219,
        "total": 2344
      },
      {
        "club_badge_src": null,
        "entry": 2301223,
        "entry_name": "Big T",
        "event_total": 72,
        "has_played": true,
        "id": 16413192,
        "last_rank": 95406,
        "player_name": "Tom Reaney",
        "rank": 62220,
        "rank_sort": 62220,
        "total": 2344
      },
      {
        "club_badge_src": null,
        "entry": 7698271,
        "entry_name": "Trailfinders",
        "event_total": 59,
        "has_played": true,
        "id": 63155748,
        "last_rank": 66627,
        "player_name": "Joanne Harcourt",
        "rank": 62220,
        "rank_sort": 62221,
        "total": 2344
      },
      {
        "club_badge_src": null,
        "entry": 1568790,
        "entry_name": "pk6",
        "event_total": 60,
        "has_played": true,
        "id": 10959308,
        "last_rank": 68544,
        "player_name": "Pk -",
        "rank": 62222,
        "rank_sort": 62222,
        "total": 2344
      },
      {
        "club_badge_src": null,
        "entry": 1892734,
        "entry_name": "Xaro FC",
        "event_total": 53,
        "has_played": true,
        "id": 13340244,
        "last_rank": 49533,
        "player_name": "Gildas Xaro",
        "rank": 62222,
        "rank_sort": 62223,
        "total": 2344
      },
      {
        "club_badge_src": null,
        "entry": 4040530,
        "entry_name": "The perfect one",
        "event_total": 55,
        "has_played": true,
        "id": 30470695,
        "last_rank": 59462,
        "player_name": "F F",
        "rank": 62222,
        "rank_sort": 62224,
        "total": 2344
      },
      {
        "club_badge_src": null,
        "entry": 4782809,
        "entry_name": "Delap of Honour",
        "event_total": 75,
        "has_played": true,
        "id": 36818993,
        "last_rank": 102983,
        "player_name": "Vince Icheku",
        "rank": 62222,
        "rank_sort": 62225,
        "total": 2344
      },
      {
        "club_badge_src": null,
        "entry": 7269654,
        "entry_name": "Manu-fever",
        "event_total": 53,
        "has_played": true,
        "id": 58789741,
        "last_rank": 56035,
        "player_name": "Nathan Nyamuzuwe",
        "rank": 62222,
        "rank_sort": 62226,
        "total": 2344
      },
      {
        "club_badge_src": null,
        "entry": 1142493,
        "entry_name": "LY19",
        "event_total": 58,
        "has_played": true,
        "id": 7919570,
        "last_rank": 64751,
        "player_name": "ala ben aziza",
        "rank": 62227,
        "rank_sort": 62227,
        "total": 2344
      },
      {
        "club_badge_src": null,
        "entry": 5981096,
        "entry_name": "WADE F.C",
        "event_total": 58,
        "has_played": true,
        "id": 47096473,
        "last_rank": 64751,
        "player_name": "Akram Wade",
        "rank": 62227,
        "rank_sort": 62228,
        "total": 2344
      },
      {
        "club_badge_src": null,
        "entry": 5303568,
        "entry_name": "straw hats",
        "event_total": 42,
        "has_played": true,
        "id": 41110925,
        "last_rank": 39770,
        "player_name": "Aakarshan Gupta",
        "rank": 62229,
        "rank_sort": 62229,
        "total": 2344
      },
      {
        "club_badge_src": null,
        "entry": 6248114,
        "entry_name": "Los Porro Hermanos",
        "event_total": 61,
        "has_played": true,
        "id": 49458870,
        "last_rank": 70576,
        "player_name": "Scott Peebles",
        "rank": 62229,
        "rank_sort": 62230,
        "total": 2344
      },
      {
        "club_badge_src": null,
        "entry": 6288836,
        "entry_name": "CFC_Andres",
        "event_total": 44,
        "has_played": true,
        "id": 49822542,
        "last_rank": 42386,
        "player_name": "The Gaming kid",
        "rank": 62229,
        "rank_sort": 62231,
        "total": 2344
      },
      {
        "club_badge_src": null,
        "entry": 9425439,
        "entry_name": "J",
        "event_total": 61,
        "has_played": true,
        "id": 79617757,
        "last_rank": 70566,
        "player_name": "Jahid Ali",
        "rank": 62229,
        "rank_sort": 62232,
        "total": 2344
      },
      {
        "club_badge_src": null,
        "entry": 128568,
        "entry_name": "Kinder Mbeumo",
        "event_total": 55,
        "has_played": true,
        "id": 838070,
        "last_rank": 59475,
        "player_name": "Oran Norris-Browne",
        "rank": 62233,
        "rank_sort": 62233,
        "total": 2344
      },
      {
        "club_badge_src": "https://fantasy.premierleague.com/gcs/plfpl-production-adobe-approved/plfpl-production/786618/744785d7-c0ed-49a8-a45c-2ecdc69a2304.png",
        "entry": 786618,
        "entry_name": "Hayesentina",
        "event_total": 79,
        "has_played": true,
        "id": 5376773,
        "last_rank": 114095,
        "player_name": "James Mitchell",
        "rank": 62233,
        "rank_sort": 62234,
        "total": 2344
      },
      {
        "club_badge_src": null,
        "entry": 2639638,
        "entry_name": "KroosControl",
        "event_total": 42,
        "has_played": true,
        "id": 18971703,
        "last_rank": 39784,
        "player_name": "Oluwa Oakley",
        "rank": 62233,
        "rank_sort": 62235,
        "total": 2344
      },
      {
        "club_badge_src": null,
        "entry": 3045114,
        "entry_name": "Hot Cirkin Roll",
        "event_total": 57,
        "has_played": true,
        "id": 22415765,
        "last_rank": 63051,
        "player_name": "Luke Dilworth",
        "rank": 62233,
        "rank_sort": 62236,
        "total": 2344
      },
      {
        "club_badge_src": null,
        "entry": 3527206,
        "entry_name": "Kinder Mbeumo",
        "event_total": 56,
        "has_played": true,
        "id": 26250529,
        "last_rank": 61258,
        "player_name": "James Shanahan",
        "rank": 62233,
        "rank_sort": 62237,
        "total": 2344
      },
      {
        "club_badge_src": null,
        "entry": 4072528,
        "entry_name": "Gyokeres +10",
        "event_total": 80,
        "has_played": true,
        "id": 30739397,
        "last_rank": 116818,
        "player_name": "Gon\u00e7alo Marum",
        "rank": 62233,
        "rank_sort": 62238,
        "total": 2344
      },
      {
        "club_badge_src": null,
        "entry": 4096866,
        "entry_name": "Good Aznou",
        "event_total": 67,
        "has_played": true,
        "id": 30934150,
        "last_rank": 83534,
        "player_name": "Charlotte Howey",
        "rank": 62233,
        "rank_sort": 62239,
        "total": 2344
      },
      {
        "club_badge_src": null,
        "entry": 6010549,
        "entry_name": "levati",
        "event_total": 71,
        "has_played": true,
        "id": 47391609,
        "last_rank": 92939,
        "player_name": "Ivan Grebenar",
        "rank": 62233,
        "rank_sort": 62240,
        "total": 2344
      },
      {
        "club_badge_src": null,
        "entry": 6272569,
        "entry_name": "Dennett FC",
        "event_total": 67,
        "has_played": true,
        "id": 49670220,
        "last_rank": 83498,
        "player_name": "Scott Dennett",
        "rank": 62233,
        "rank_sort": 62241,
        "total": 2344
      },
      {
        "club_badge_src": null,
        "entry": 6481760,
        "entry_name": "Kacijole",
        "event_total": 54,
        "has_played": true,
        "id": 51661311,
        "last_rank": 57743,
        "player_name": "Sebastijan Wieser",
        "rank": 62233,
        "rank_sort": 62242,
        "total": 2344
      },
      {
        "club_badge_src": null,
        "entry": 6861962,
        "entry_name": "OnlyGodFC",
        "event_total": 63,
        "has_played": true,
        "id": 54981500,
        "last_rank": 74723,
        "player_name": "Matthew Anderson",
        "rank": 62233,
        "rank_sort": 62243,
        "total": 2344
      },
      {
        "club_badge_src": null,
        "entry": 7461203,
        "entry_name": "Lovesexy",
        "event_total": 68,
        "has_played": true,
        "id": 60780936,
        "last_rank": 85823,
        "player_name": "Johannes Norberg",
        "rank": 62233,
        "rank_sort": 62244,
        "total": 2344
      },
      {
        "club_badge_src": null,
        "entry": 7720294,
        "entry_name": "Beef Cherki",
        "event_total": 41,
        "has_played": true,
        "id": 63353777,
        "last_rank": 38542,
        "player_name": "Eanna Brady",
        "rank": 62233,
        "rank_sort": 62245,
        "total": 2344
      },
      {
        "club_badge_src": null,
        "entry": 7748911,
        "entry_name": "SlotMeOut",
        "event_total": 65,
        "has_played": true,
        "id": 63611355,
        "last_rank": 79027,
        "player_name": "andreas fl\u00e6te",
        "rank": 62233,
        "rank_sort": 62246,
        "total": 2344
      },
      {
        "club_badge_src": "https://fantasy.premierleague.com/gcs/plfpl-production-adobe-approved/plfpl-production/9161277/564ceae4-747f-4761-ab8f-fc49248bebff.png",
        "entry": 9161277,
        "entry_name": "BOOMSakaSaka",
        "event_total": 44,
        "has_played": true,
        "id": 77050742,
        "last_rank": 42379,
        "player_name": "Ben Salavati",
        "rank": 62233,
        "rank_sort": 62247,
        "total": 2344
      },
      {
        "club_badge_src": null,
        "entry": 281424,
        "entry_name": "ISAKtly Right",
        "event_total": 64,
        "has_played": true,
        "id": 1872777,
        "last_rank": 76885,
        "player_name": "Rory Fraser",
        "rank": 62248,
        "rank_sort": 62248,
        "total": 2344
      },
      {
        "club_badge_src": null,
        "entry": 285365,
        "entry_name": "--BoNiTo--",
        "event_total": 40,
        "has_played": true,
        "id": 1900593,
        "last_rank": 37376,
        "player_name": "MoRk Chavakorn",
        "rank": 62248,
        "rank_sort": 62249,
        "total": 2344
      },
      {
        "club_badge_src": null,
        "entry": 328610,
        "entry_name": "UPVC Wilson Isidor",
        "event_total": 55,
        "has_played": true,
        "id": 2201413,
        "last_rank": 59464,
        "player_name": "Ryan Hanson",
        "rank": 62248,
        "rank_sort": 62250,
        "total": 2344
      }
    ]
  }
}