{
  "last_updated_data": "2026-05-24T23:28:17Z",
  "league": {
    "admin_entry": null,
    "closed": false,
    "code_privacy": "p",
    "created": "2025-07-20T23:14:33.933835Z",
    "cup_league": 2815434,
    "has_cup": true,
    "id": 314,
    "league_type": "s",
    "max_entries": null,
    "name": "Overall",
    "rank": null,
    "scoring": "c",
    "start_event": 1
  },
  "new_entries": {
    "has_next": false,
    "page": 1,
    "results": []
  },
  "standings": {
    "has_next": true,
    "page": 1655,
    "results": [
      {
        "club_badge_src": null,
        "entry": 8427665,
        "entry_name": "Will'sgonnawin",
        "event_total": 64,
        "has_played": true,
        "id": 69942398,
        "last_rank": 100949,
        "player_name": "William Platts",
        "rank": 82364,
        "rank_sort": 82701,
        "total": 2334
      },
      {
        "club_badge_src": null,
        "entry": 8465314,
        "entry_name": "Ali Albasri",
        "event_total": 80,
        "has_played": true,
        "id": 70300412,
        "last_rank": 150607,
        "player_name": "ali albassri",
        "rank": 82364,
        "rank_sort": 82702,
        "total": 2334
      },
      {
        "club_badge_src": null,
        "entry": 8585850,
        "entry_name": "Estevaos Show Ab",
        "event_total": 46,
        "has_played": true,
        "id": 71461699,
        "last_rank": 61950,
        "player_name": "Wille Eklund",
        "rank": 82364,
        "rank_sort": 82703,
        "total": 2334
      },
      {
        "club_badge_src": null,
        "entry": 8605402,
        "entry_name": "beef Cherki",
        "event_total": 61,
        "has_played": true,
        "id": 71649955,
        "last_rank": 93186,
        "player_name": "Jake Kile",
        "rank": 82364,
        "rank_sort": 82704,
        "total": 2334
      },
      {
        "club_badge_src": null,
        "entry": 9121598,
        "entry_name": "Kenny",
        "event_total": 57,
        "has_played": true,
        "id": 76663395,
        "last_rank": 83934,
        "player_name": "Kenneth Sheridan",
        "rank": 82364,
        "rank_sort": 82705,
        "total": 2334
      },
      {
        "club_badge_src": null,
        "entry": 9140726,
        "entry_name": "\u8033\u673a\u7403\u738b",
        "event_total": 53,
        "has_played": true,
        "id": 76850742,
        "last_rank": 75874,
        "player_name": "Allen Woo",
        "rank": 82364,
        "rank_sort": 82706,
        "total": 2334
      },
      {
        "club_badge_src": null,
        "entry": 9160560,
        "entry_name": "Kay FC",
        "event_total": 57,
        "has_played": true,
        "id": 77043787,
        "last_rank": 83934,
        "player_name": "Henry Wilkins",
        "rank": 82364,
        "rank_sort": 82707,
        "total": 2334
      },
      {
        "club_badge_src": null,
        "entry": 9168255,
        "entry_name": "Power is power",
        "event_total": 30,
        "has_played": true,
        "id": 77120019,
        "last_rank": 37822,
        "player_name": "R\u00e1w l\u00e0n",
        "rank": 82364,
        "rank_sort": 82708,
        "total": 2334
      },
      {
        "club_badge_src": null,
        "entry": 9196516,
        "entry_name": "Team Name",
        "event_total": 64,
        "has_played": true,
        "id": 77399603,
        "last_rank": 91006,
        "player_name": "Volodymyr Malitskyy",
        "rank": 82364,
        "rank_sort": 82709,
        "total": 2334
      },
      {
        "club_badge_src": null,
        "entry": 9356187,
        "entry_name": "Rathcash Gunners",
        "event_total": 64,
        "has_played": true,
        "id": 78946033,
        "last_rank": 101419,
        "player_name": "Sean Meany",
        "rank": 82364,
        "rank_sort": 82710,
        "total": 2334
      },
      {
        "club_badge_src": null,
        "entry": 9381317,
        "entry_name": "Hnging by a Fred",
        "event_total": 73,
        "has_played": true,
        "id": 79193217,
        "last_rank": 126948,
        "player_name": "Frederico Cardoso",
        "rank": 82364,
        "rank_sort": 82711,
        "total": 2334
      },
      {
        "club_badge_src": null,
        "entry": 9388924,
        "entry_name": "Barowo2",
        "event_total": 61,
        "has_played": true,
        "id": 79267159,
        "last_rank": 93883,
        "player_name": "Micha\u0142 Kucharski",
        "rank": 82364,
        "rank_sort": 82712,
        "total": 2334
      },
      {
        "club_badge_src": "https://fantasy.premierleague.com/gcs/plfpl-production-adobe-approved/plfpl-production/9435010/89791a2d-2c1e-4a97-8068-fb61ed1fbef2.png",
        "entry": 9435010,
        "entry_name": "Los Bandengos",
        "event_total": 49,
        "has_played": true,
        "id": 79707661,
        "last_rank": 66848,
        "player_name": "Ignatius harly Putranto",
        "rank": 82364,
        "rank_sort": 82713,
        "total": 2334
      },
      {
        "club_badge_src": "https://fantasy.premierleague.com/gcs/plfpl-production-adobe-approved/plfpl-production/379/c6ad36b6-9bc7-4591-85f6-765738c3b1aa.png",
        "entry": 379,
        "entry_name": "MeliaFC",
        "event_total": 59,
        "has_played": true,
        "id": 2093,
        "last_rank": 79817,
        "player_name": "Patrick Melia",
        "rank": 82714,
        "rank_sort": 82714,
        "total": 2334
      },
      {
        "club_badge_src": null,
        "entry": 870,
        "entry_name": "MassUTD",
        "event_total": 56,
        "has_played": true,
        "id": 4813,
        "last_rank": 73423,
        "player_name": "Mass DL",
        "rank": 82714,
        "rank_sort": 82715,
        "total": 2334
      },
      {
        "club_badge_src": null,
        "entry": 3102,
        "entry_name": "MissMyTrent",
        "event_total": 31,
        "has_played": true,
        "id": 17497,
        "last_rank": 39246,
        "player_name": "mohamed alaa",
        "rank": 82714,
        "rank_sort": 82716,
        "total": 2334
      },
      {
        "club_badge_src": null,
        "entry": 3177,
        "entry_name": "Lil Uzi Wirtz",
        "event_total": 59,
        "has_played": true,
        "id": 17944,
        "last_rank": 79431,
        "player_name": "Max Hawthorne",
        "rank": 82714,
        "rank_sort": 82717,
        "total": 2334
      },
      {
        "club_badge_src": null,
        "entry": 3262,
        "entry_name": "Alisson Wonderland",
        "event_total": 49,
        "has_played": true,
        "id": 18441,
        "last_rank": 67422,
        "player_name": "Shahzad Yasin",
        "rank": 82714,
        "rank_sort": 82718,
        "total": 2334
      },
      {
        "club_badge_src": "https://fantasy.premierleague.com/gcs/plfpl-production-adobe-approved/plfpl-production/4458/14a8007f-e769-406e-86c5-8a2f31757c5a.png",
        "entry": 4458,
        "entry_name": "Blue is Extra Moody",
        "event_total": 66,
        "has_played": true,
        "id": 25342,
        "last_rank": 95640,
        "player_name": "Finlay Fayers",
        "rank": 82714,
        "rank_sort": 82719,
        "total": 2334
      },
      {
        "club_badge_src": "https://fantasy.premierleague.com/gcs/plfpl-production-adobe-approved/plfpl-production/8180/d55a75c0-f4db-4a8d-942e-dcafcf66369d.png",
        "entry": 8180,
        "entry_name": "DONOTHING",
        "event_total": 60,
        "has_played": true,
        "id": 47417,
        "last_rank": 82069,
        "player_name": "Andres Garrido",
        "rank": 82714,
        "rank_sort": 82720,
        "total": 2334
      },
      {
        "club_badge_src": null,
        "entry": 8848,
        "entry_name": "Fpl mishi",
        "event_total": 64,
        "has_played": true,
        "id": 51645,
        "last_rank": 101419,
        "player_name": "Michael Shliger",
        "rank": 82714,
        "rank_sort": 82721,
        "total": 2334
      },
      {
        "club_badge_src": "https://fantasy.premierleague.com/gcs/plfpl-production-adobe-approved/plfpl-production/10964/46da5325-0e94-4ea4-9d29-7a93160238e5.png",
        "entry": 10964,
        "entry_name": "Gembo's Gods",
        "event_total": 44,
        "has_played": true,
        "id": 64977,
        "last_rank": 58688,
        "player_name": "Josh Gembo",
        "rank": 82714,
        "rank_sort": 82722,
        "total": 2334
      },
      {
        "club_badge_src": null,
        "entry": 12948,
        "entry_name": "The great picasadi",
        "event_total": 64,
        "has_played": true,
        "id": 77949,
        "last_rank": 91466,
        "player_name": "arman asadi",
        "rank": 82714,
        "rank_sort": 82723,
        "total": 2334
      },
      {
        "club_badge_src": "https://fantasy.premierleague.com/gcs/plfpl-production-adobe-approved/plfpl-production/17077/c35e28cd-91f7-43c9-8b0d-53d5904a46fb.png",
        "entry": 17077,
        "entry_name": "Joptimus Prime",
        "event_total": 57,
        "has_played": true,
        "id": 105797,
        "last_rank": 84360,
        "player_name": "Jop Splitthoff",
        "rank": 82714,
        "rank_sort": 82724,
        "total": 2334
      },
      {
        "club_badge_src": null,
        "entry": 22694,
        "entry_name": "TakingTheMikel",
        "event_total": 54,
        "has_played": true,
        "id": 142607,
        "last_rank": 77258,
        "player_name": "David Morgan",
        "rank": 82714,
        "rank_sort": 82725,
        "total": 2334
      },
      {
        "club_badge_src": null,
        "entry": 24878,
        "entry_name": "Vibes FC",
        "event_total": 63,
        "has_played": true,
        "id": 157172,
        "last_rank": 89055,
        "player_name": "Ben Ritchings",
        "rank": 82714,
        "rank_sort": 82726,
        "total": 2334
      },
      {
        "club_badge_src": null,
        "entry": 27737,
        "entry_name": "Peanuthead",
        "event_total": 69,
        "has_played": true,
        "id": 175371,
        "last_rank": 114574,
        "player_name": "Panna Fricker",
        "rank": 82714,
        "rank_sort": 82727,
        "total": 2334
      },
      {
        "club_badge_src": null,
        "entry": 29282,
        "entry_name": "Hadhba & Goal",
        "event_total": 56,
        "has_played": true,
        "id": 185135,
        "last_rank": 82069,
        "player_name": "Seif Aouinti",
        "rank": 82714,
        "rank_sort": 82728,
        "total": 2334
      },
      {
        "club_badge_src": "https://fantasy.premierleague.com/gcs/plfpl-production-adobe-approved/plfpl-production/32664/2d6862f5-07b1-442d-848a-6584c795d8c7.png",
        "entry": 32664,
        "entry_name": "Donny Wan de League",
        "event_total": 56,
        "has_played": true,
        "id": 207893,
        "last_rank": 82398,
        "player_name": "Donwil Fernandes",
        "rank": 82714,
        "rank_sort": 82729,
        "total": 2334
      },
      {
        "club_badge_src": null,
        "entry": 34981,
        "entry_name": "Just4Fun",
        "event_total": 46,
        "has_played": true,
        "id": 223691,
        "last_rank": 61950,
        "player_name": "Lars Ulltveit",
        "rank": 82714,
        "rank_sort": 82730,
        "total": 2334
      },
      {
        "club_badge_src": "https://fantasy.premierleague.com/gcs/plfpl-production-adobe-approved/plfpl-production/35155/37fd12f8-4288-490e-bb21-a3ba9a2e381f.png",
        "entry": 35155,
        "entry_name": "Bruno Dos Tres",
        "event_total": 75,
        "has_played": true,
        "id": 224875,
        "last_rank": 132758,
        "player_name": "Laura Riley",
        "rank": 82714,
        "rank_sort": 82731,
        "total": 2334
      },
      {
        "club_badge_src": null,
        "entry": 35529,
        "entry_name": "Hazard's Burgers",
        "event_total": 68,
        "has_played": true,
        "id": 227379,
        "last_rank": 112169,
        "player_name": "Ansh Humagain",
        "rank": 82714,
        "rank_sort": 82732,
        "total": 2334
      },
      {
        "club_badge_src": null,
        "entry": 38418,
        "entry_name": "Zubi Doobie Dooo",
        "event_total": 59,
        "has_played": true,
        "id": 246201,
        "last_rank": 89426,
        "player_name": "TheGoon Squad",
        "rank": 82714,
        "rank_sort": 82733,
        "total": 2334
      },
      {
        "club_badge_src": null,
        "entry": 38511,
        "entry_name": "Slot Machine",
        "event_total": 65,
        "has_played": true,
        "id": 246830,
        "last_rank": 93883,
        "player_name": "Samir Sheth",
        "rank": 82714,
        "rank_sort": 82734,
        "total": 2334
      },
      {
        "club_badge_src": null,
        "entry": 39093,
        "entry_name": "Botman and Robin",
        "event_total": 71,
        "has_played": true,
        "id": 250577,
        "last_rank": 119948,
        "player_name": "Robert Sturgess",
        "rank": 82714,
        "rank_sort": 82735,
        "total": 2334
      },
      {
        "club_badge_src": null,
        "entry": 42292,
        "entry_name": "The Boot Boys",
        "event_total": 84,
        "has_played": true,
        "id": 270972,
        "last_rank": 163199,
        "player_name": "Jaiden So",
        "rank": 82714,
        "rank_sort": 82736,
        "total": 2334
      },
      {
        "club_badge_src": null,
        "entry": 44393,
        "entry_name": "Baker\u2019s Gonna Bake",
        "event_total": 72,
        "has_played": true,
        "id": 284502,
        "last_rank": 112169,
        "player_name": "Joshua Baker",
        "rank": 82714,
        "rank_sort": 82737,
        "total": 2334
      },
      {
        "club_badge_src": null,
        "entry": 45123,
        "entry_name": "tinkerfc",
        "event_total": 53,
        "has_played": true,
        "id": 289366,
        "last_rank": 67422,
        "player_name": "john kelly",
        "rank": 82714,
        "rank_sort": 82738,
        "total": 2334
      },
      {
        "club_badge_src": null,
        "entry": 58041,
        "entry_name": "McGinn and Tonic",
        "event_total": 74,
        "has_played": true,
        "id": 373902,
        "last_rank": 130566,
        "player_name": "Nik Ayre",
        "rank": 82714,
        "rank_sort": 82739,
        "total": 2334
      },
      {
        "club_badge_src": null,
        "entry": 74702,
        "entry_name": "BDMem14",
        "event_total": 57,
        "has_played": true,
        "id": 485591,
        "last_rank": 84731,
        "player_name": "Mem 1106",
        "rank": 82714,
        "rank_sort": 82740,
        "total": 2334
      },
      {
        "club_badge_src": null,
        "entry": 78510,
        "entry_name": "balki",
        "event_total": 67,
        "has_played": true,
        "id": 510460,
        "last_rank": 98896,
        "player_name": "Mohammed Balki",
        "rank": 82714,
        "rank_sort": 82741,
        "total": 2334
      },
      {
        "club_badge_src": null,
        "entry": 79444,
        "entry_name": "Lambing Season FC",
        "event_total": 66,
        "has_played": true,
        "id": 516685,
        "last_rank": 96374,
        "player_name": "Gerald McCrudden",
        "rank": 82714,
        "rank_sort": 82742,
        "total": 2334
      },
      {
        "club_badge_src": null,
        "entry": 82810,
        "entry_name": "Taiwo Silver Lining",
        "event_total": 62,
        "has_played": true,
        "id": 538909,
        "last_rank": 86735,
        "player_name": "Alison Cox",
        "rank": 82714,
        "rank_sort": 82743,
        "total": 2334
      },
      {
        "club_badge_src": "https://fantasy.premierleague.com/gcs/plfpl-production-adobe-approved/plfpl-production/97209/a96d6fd1-671d-46a6-afee-d42972869325.png",
        "entry": 97209,
        "entry_name": "the hoax",
        "event_total": 39,
        "has_played": true,
        "id": 634932,
        "last_rank": 50468,
        "player_name": "Christoffer Robin Markussen",
        "rank": 82714,
        "rank_sort": 82744,
        "total": 2334
      },
      {
        "club_badge_src": null,
        "entry": 102671,
        "entry_name": "David Silva is God",
        "event_total": 67,
        "has_played": true,
        "id": 669908,
        "last_rank": 109863,
        "player_name": "Jonathon Kelly",
        "rank": 82714,
        "rank_sort": 82745,
        "total": 2334
      },
      {
        "club_badge_src": null,
        "entry": 103506,
        "entry_name": "Fc \u0627\u0644\u0645\u0632\u0627\u0631\u064a\u0637\u0629",
        "event_total": 74,
        "has_played": true,
        "id": 675389,
        "last_rank": 106259,
        "player_name": "Bshar Mohamed",
        "rank": 82714,
        "rank_sort": 82746,
        "total": 2334
      },
      {
        "club_badge_src": null,
        "entry": 110308,
        "entry_name": "Greenstone Rovers",
        "event_total": 68,
        "has_played": true,
        "id": 719409,
        "last_rank": 112591,
        "player_name": "Gavin Devine",
        "rank": 82714,
        "rank_sort": 82747,
        "total": 2334
      },
      {
        "club_badge_src": "https://fantasy.premierleague.com/gcs/plfpl-production-adobe-approved/plfpl-production/126032/f5256ee9-3e1f-41e4-bac8-067c2e1d2504.png",
        "entry": 126032,
        "entry_name": "Hopes and Dreams",
        "event_total": 69,
        "has_played": true,
        "id": 821849,
        "last_rank": 115421,
        "player_name": "Aaron Hope",
        "rank": 82714,
        "rank_sort": 82748,
        "total": 2334
      },
      {
        "club_badge_src": null,
        "entry": 129201,
        "entry_name": "Trai Hard Hume",
        "event_total": 63,
        "has_played": true,
        "id": 842134,
        "last_rank": 89055,
        "player_name": "Dan Hall",
        "rank": 82714,
        "rank_sort": 82749,
        "total": 2334
      },
      {
        "club_badge_src": "https://fantasy.premierleague.com/gcs/plfpl-production-adobe-approved/plfpl-production/157856/f1284ba4-c4ee-4e9e-90c8-500b10636c35.png",
        "entry": 157856,
        "entry_name": "Bruno Magnifico",
        "event_total": 50,
        "has_played": true,
        "id": 1038629,
        "last_rank": 61950,
        "player_name": "Ashton Rao",
        "rank": 82714,
        "rank_sort": 82750,
        "total": 2334
      }
    ]
  }
}