{
  "last_updated_data": "2026-05-24T23:28:17Z",
  "league": {
    "admin_entry": null,
    "closed": false,
    "code_privacy": "p",
    "created": "2025-07-20T23:14:33.933835Z",
    "cup_league": 2815434,
    "has_cup": true,
    "id": 314,
    "league_type": "s",
    "max_entries": null,
    "name": "Overall",
    "rank": null,
    "scoring": "c",
    "start_event": 1
  },
  "new_entries": {
    "has_next": false,
    "page": 1,
    "results": []
  },
  "standings": {
    "has_next": true,
    "page": 27,
    "results": [
      {
        "club_badge_src": null,
        "entry": 3477874,
        "entry_name": "Trust issues",
        "event_total": 72,
        "has_played": true,
        "id": 25860025,
        "last_rank": 2468,
        "player_name": "Stefan Thomas",
        "rank": 1298,
        "rank_sort": 1301,
        "total": 2443
      },
      {
        "club_badge_src": null,
        "entry": 4469289,
        "entry_name": "Diamondos",
        "event_total": 30,
        "has_played": true,
        "id": 34056312,
        "last_rank": 272,
        "player_name": "michael jewell",
        "rank": 1298,
        "rank_sort": 1302,
        "total": 2443
      },
      {
        "club_badge_src": null,
        "entry": 4722552,
        "entry_name": "Kikkenballers",
        "event_total": 65,
        "has_played": true,
        "id": 36287603,
        "last_rank": 1358,
        "player_name": "Frederik Kikkenborg",
        "rank": 1298,
        "rank_sort": 1303,
        "total": 2443
      },
      {
        "club_badge_src": null,
        "entry": 5568565,
        "entry_name": "HRF",
        "event_total": 74,
        "has_played": true,
        "id": 43481280,
        "last_rank": 2189,
        "player_name": "Hassan Alfailakawi",
        "rank": 1298,
        "rank_sort": 1304,
        "total": 2443
      },
      {
        "club_badge_src": null,
        "entry": 5703126,
        "entry_name": "Chippy Chips FC",
        "event_total": 68,
        "has_played": true,
        "id": 44654361,
        "last_rank": 1609,
        "player_name": "Duarte Freire",
        "rank": 1298,
        "rank_sort": 1305,
        "total": 2443
      },
      {
        "club_badge_src": null,
        "entry": 7336904,
        "entry_name": "Up The Reds",
        "event_total": 68,
        "has_played": true,
        "id": 59422728,
        "last_rank": 1633,
        "player_name": "Stephen Powling",
        "rank": 1298,
        "rank_sort": 1306,
        "total": 2443
      },
      {
        "club_badge_src": null,
        "entry": 8855064,
        "entry_name": "VARs Plokker",
        "event_total": 61,
        "has_played": true,
        "id": 74075227,
        "last_rank": 1410,
        "player_name": "Fynn Bruijn",
        "rank": 1298,
        "rank_sort": 1307,
        "total": 2443
      },
      {
        "club_badge_src": null,
        "entry": 126334,
        "entry_name": "WLC Athletic",
        "event_total": 51,
        "has_played": true,
        "id": 823772,
        "last_rank": 848,
        "player_name": "Matt Roberts",
        "rank": 1308,
        "rank_sort": 1308,
        "total": 2443
      },
      {
        "club_badge_src": null,
        "entry": 227587,
        "entry_name": "Play Up Pompey",
        "event_total": 65,
        "has_played": true,
        "id": 1513891,
        "last_rank": 1728,
        "player_name": "Reuben Mcardle",
        "rank": 1308,
        "rank_sort": 1309,
        "total": 2443
      },
      {
        "club_badge_src": null,
        "entry": 1379000,
        "entry_name": "Devil Wears Schade",
        "event_total": 57,
        "has_played": true,
        "id": 9585900,
        "last_rank": 951,
        "player_name": "Jack Salter",
        "rank": 1308,
        "rank_sort": 1310,
        "total": 2443
      },
      {
        "club_badge_src": null,
        "entry": 1758036,
        "entry_name": "Kinder Mbuemo",
        "event_total": 66,
        "has_played": true,
        "id": 12342792,
        "last_rank": 1486,
        "player_name": "Anirudh Banerjee",
        "rank": 1311,
        "rank_sort": 1311,
        "total": 2443
      },
      {
        "club_badge_src": null,
        "entry": 6382909,
        "entry_name": "BrunoPenalFernandes",
        "event_total": 61,
        "has_played": true,
        "id": 50768758,
        "last_rank": 951,
        "player_name": "Davor Domazet",
        "rank": 1311,
        "rank_sort": 1312,
        "total": 2443
      },
      {
        "club_badge_src": null,
        "entry": 9019514,
        "entry_name": "RobboKop",
        "event_total": 70,
        "has_played": true,
        "id": 75667483,
        "last_rank": 1825,
        "player_name": "Grant Creegan",
        "rank": 1311,
        "rank_sort": 1313,
        "total": 2443
      },
      {
        "club_badge_src": null,
        "entry": 3076996,
        "entry_name": "Murray\u2019s Mints",
        "event_total": 56,
        "has_played": true,
        "id": 22667882,
        "last_rank": 916,
        "player_name": "Paul Murray",
        "rank": 1314,
        "rank_sort": 1314,
        "total": 2443
      },
      {
        "club_badge_src": null,
        "entry": 476433,
        "entry_name": "Gloria Rose Edward",
        "event_total": 74,
        "has_played": true,
        "id": 3198105,
        "last_rank": 1832,
        "player_name": "Ezeugo Chukukere",
        "rank": 1315,
        "rank_sort": 1315,
        "total": 2443
      },
      {
        "club_badge_src": null,
        "entry": 5560474,
        "entry_name": "FC Gy\u00f6keres",
        "event_total": 66,
        "has_played": true,
        "id": 43409059,
        "last_rank": 1839,
        "player_name": "Fredrik Nordgren",
        "rank": 1315,
        "rank_sort": 1316,
        "total": 2443
      },
      {
        "club_badge_src": "https://fantasy.premierleague.com/gcs/plfpl-production-adobe-approved/plfpl-production/62944/1666de25-f9b1-4b74-bbf3-b9ad670356c1.png",
        "entry": 62944,
        "entry_name": "Better Call Daniel",
        "event_total": 72,
        "has_played": true,
        "id": 405965,
        "last_rank": 2055,
        "player_name": "MUHAMMAD DANIEL MUSTAQIM",
        "rank": 1317,
        "rank_sort": 1317,
        "total": 2443
      },
      {
        "club_badge_src": null,
        "entry": 128777,
        "entry_name": "UTD XI",
        "event_total": 63,
        "has_played": true,
        "id": 839402,
        "last_rank": 1592,
        "player_name": "Tapologo Sukube",
        "rank": 1317,
        "rank_sort": 1318,
        "total": 2443
      },
      {
        "club_badge_src": null,
        "entry": 1696537,
        "entry_name": "Tates FC",
        "event_total": 68,
        "has_played": true,
        "id": 11882824,
        "last_rank": 2057,
        "player_name": "Guy Tatham",
        "rank": 1319,
        "rank_sort": 1319,
        "total": 2443
      },
      {
        "club_badge_src": null,
        "entry": 14874,
        "entry_name": "PedroPorroPickledPep",
        "event_total": 24,
        "has_played": true,
        "id": 90782,
        "last_rank": 193,
        "player_name": "Ian Stokes",
        "rank": 1320,
        "rank_sort": 1320,
        "total": 2442
      },
      {
        "club_badge_src": "https://fantasy.premierleague.com/gcs/plfpl-production-adobe-approved/plfpl-production/59828/520913c2-26d7-4a7c-87dc-a9a7a5ba2194.png",
        "entry": 59828,
        "entry_name": "Bonnies meet n\u2019 jeet",
        "event_total": 64,
        "has_played": true,
        "id": 385242,
        "last_rank": 1668,
        "player_name": "Marco Fruci",
        "rank": 1320,
        "rank_sort": 1321,
        "total": 2442
      },
      {
        "club_badge_src": null,
        "entry": 1025872,
        "entry_name": "Roaring Red MD FC",
        "event_total": 60,
        "has_played": true,
        "id": 7097573,
        "last_rank": 1354,
        "player_name": "Rachavin Poosuwon",
        "rank": 1320,
        "rank_sort": 1322,
        "total": 2442
      },
      {
        "club_badge_src": null,
        "entry": 2724600,
        "entry_name": "FC \u00cdvar",
        "event_total": 59,
        "has_played": true,
        "id": 19606060,
        "last_rank": 1294,
        "player_name": "\u00cdvar \u00f6rn Sveinbj\u00f6rnsson",
        "rank": 1320,
        "rank_sort": 1323,
        "total": 2442
      },
      {
        "club_badge_src": null,
        "entry": 3152127,
        "entry_name": "Rutter Woke Nonsense",
        "event_total": 62,
        "has_played": true,
        "id": 23278979,
        "last_rank": 1523,
        "player_name": "Rhin Sim-Nik",
        "rank": 1320,
        "rank_sort": 1324,
        "total": 2442
      },
      {
        "club_badge_src": null,
        "entry": 20396,
        "entry_name": "WANTAM FC",
        "event_total": 66,
        "has_played": true,
        "id": 127147,
        "last_rank": 1880,
        "player_name": "HARM JOHN",
        "rank": 1325,
        "rank_sort": 1325,
        "total": 2442
      },
      {
        "club_badge_src": null,
        "entry": 58484,
        "entry_name": "Lee F.C.",
        "event_total": 55,
        "has_played": true,
        "id": 376697,
        "last_rank": 1065,
        "player_name": "Harry Lee",
        "rank": 1325,
        "rank_sort": 1326,
        "total": 2442
      },
      {
        "club_badge_src": null,
        "entry": 60424,
        "entry_name": "\u0414\u0438Whites",
        "event_total": 60,
        "has_played": true,
        "id": 389033,
        "last_rank": 1354,
        "player_name": "Dan Ivanov",
        "rank": 1325,
        "rank_sort": 1327,
        "total": 2442
      },
      {
        "club_badge_src": null,
        "entry": 115708,
        "entry_name": "F1rst",
        "event_total": 67,
        "has_played": true,
        "id": 755212,
        "last_rank": 1961,
        "player_name": "Vitchayawat Yooying",
        "rank": 1325,
        "rank_sort": 1328,
        "total": 2442
      },
      {
        "club_badge_src": null,
        "entry": 712575,
        "entry_name": "Cunha Mateta",
        "event_total": 48,
        "has_played": true,
        "id": 4833939,
        "last_rank": 748,
        "player_name": "Daniel Astin",
        "rank": 1325,
        "rank_sort": 1329,
        "total": 2442
      },
      {
        "club_badge_src": null,
        "entry": 836847,
        "entry_name": "bluey",
        "event_total": 77,
        "has_played": true,
        "id": 5732714,
        "last_rank": 3302,
        "player_name": "Jie Sheng Lim",
        "rank": 1325,
        "rank_sort": 1330,
        "total": 2442
      },
      {
        "club_badge_src": null,
        "entry": 965756,
        "entry_name": "Bottleham Hotspur",
        "event_total": 68,
        "has_played": true,
        "id": 6655974,
        "last_rank": 2088,
        "player_name": "Andrew Wang",
        "rank": 1325,
        "rank_sort": 1331,
        "total": 2442
      },
      {
        "club_badge_src": "https://fantasy.premierleague.com/gcs/plfpl-production-adobe-approved/plfpl-production/1451863/988f4205-4497-41bb-8a85-0d9c8bf423ae.png",
        "entry": 1451863,
        "entry_name": "Free Palestine",
        "event_total": 73,
        "has_played": true,
        "id": 10116524,
        "last_rank": 2665,
        "player_name": "Chedi Ghazouani",
        "rank": 1325,
        "rank_sort": 1332,
        "total": 2442
      },
      {
        "club_badge_src": null,
        "entry": 2438606,
        "entry_name": "MakeMaregaGreatAgain",
        "event_total": 70,
        "has_played": true,
        "id": 17439365,
        "last_rank": 2280,
        "player_name": "Sam Lund",
        "rank": 1325,
        "rank_sort": 1333,
        "total": 2442
      },
      {
        "club_badge_src": null,
        "entry": 2816288,
        "entry_name": "Maguire FC",
        "event_total": 59,
        "has_played": true,
        "id": 20570693,
        "last_rank": 1294,
        "player_name": "Ignacy Kocio\u0142ek",
        "rank": 1325,
        "rank_sort": 1334,
        "total": 2442
      },
      {
        "club_badge_src": null,
        "entry": 4758086,
        "entry_name": "Wissa You Were Here",
        "event_total": 58,
        "has_played": true,
        "id": 36615975,
        "last_rank": 1240,
        "player_name": "Jonny Warburton",
        "rank": 1325,
        "rank_sort": 1335,
        "total": 2442
      },
      {
        "club_badge_src": null,
        "entry": 5480386,
        "entry_name": "sEsGoal ! \u26bd",
        "event_total": 65,
        "has_played": true,
        "id": 42669121,
        "last_rank": 1758,
        "player_name": "TOng Plw",
        "rank": 1325,
        "rank_sort": 1336,
        "total": 2442
      },
      {
        "club_badge_src": null,
        "entry": 6139905,
        "entry_name": "Shaw Mee What U Kane",
        "event_total": 61,
        "has_played": true,
        "id": 48524584,
        "last_rank": 1465,
        "player_name": "Stian Nystad",
        "rank": 1325,
        "rank_sort": 1337,
        "total": 2442
      },
      {
        "club_badge_src": null,
        "entry": 6229871,
        "entry_name": "Carbyne Crushers",
        "event_total": 68,
        "has_played": true,
        "id": 49302199,
        "last_rank": 2068,
        "player_name": "Railo Carbyne",
        "rank": 1325,
        "rank_sort": 1338,
        "total": 2442
      },
      {
        "club_badge_src": "https://fantasy.premierleague.com/gcs/plfpl-production-adobe-approved/plfpl-production/6654920/445bc3e8-471e-40d4-9865-a11d771985ea.png",
        "entry": 6654920,
        "entry_name": "Bukayo Zacka",
        "event_total": 54,
        "has_played": true,
        "id": 53208343,
        "last_rank": 1022,
        "player_name": "Zack Williams",
        "rank": 1325,
        "rank_sort": 1339,
        "total": 2442
      },
      {
        "club_badge_src": null,
        "entry": 7710468,
        "entry_name": "Valderrama Fc",
        "event_total": 63,
        "has_played": true,
        "id": 63264802,
        "last_rank": 1609,
        "player_name": "Patricia Valderrama",
        "rank": 1325,
        "rank_sort": 1340,
        "total": 2442
      },
      {
        "club_badge_src": null,
        "entry": 8243644,
        "entry_name": "Wodnik Siemie\u0144",
        "event_total": 61,
        "has_played": true,
        "id": 68162070,
        "last_rank": 1452,
        "player_name": "Eustachy Motyka",
        "rank": 1325,
        "rank_sort": 1341,
        "total": 2442
      },
      {
        "club_badge_src": null,
        "entry": 2793,
        "entry_name": "Anacortes FC",
        "event_total": 52,
        "has_played": true,
        "id": 15694,
        "last_rank": 944,
        "player_name": "Luke McCollough",
        "rank": 1342,
        "rank_sort": 1342,
        "total": 2442
      },
      {
        "club_badge_src": null,
        "entry": 16231,
        "entry_name": "Howe's The Bacon?",
        "event_total": 54,
        "has_played": true,
        "id": 100128,
        "last_rank": 825,
        "player_name": "Jamie Macdonald",
        "rank": 1342,
        "rank_sort": 1343,
        "total": 2442
      },
      {
        "club_badge_src": null,
        "entry": 39562,
        "entry_name": "Men Without Helmets",
        "event_total": 64,
        "has_played": true,
        "id": 253497,
        "last_rank": 1372,
        "player_name": "Win Murray",
        "rank": 1342,
        "rank_sort": 1344,
        "total": 2442
      },
      {
        "club_badge_src": "https://fantasy.premierleague.com/gcs/plfpl-production-adobe-approved/plfpl-production/50185/98468388-5534-45f6-b739-de2a9dd9ab36.png",
        "entry": 50185,
        "entry_name": "ChampagneSuperRovers",
        "event_total": 58,
        "has_played": true,
        "id": 322752,
        "last_rank": 1263,
        "player_name": "Robert Rowbotham",
        "rank": 1342,
        "rank_sort": 1345,
        "total": 2442
      },
      {
        "club_badge_src": null,
        "entry": 53190,
        "entry_name": "Warwick Castle FC",
        "event_total": 62,
        "has_played": true,
        "id": 342138,
        "last_rank": 1551,
        "player_name": "Harry Warwick",
        "rank": 1342,
        "rank_sort": 1346,
        "total": 2442
      },
      {
        "club_badge_src": null,
        "entry": 156344,
        "entry_name": "Champagne Khusanova",
        "event_total": 56,
        "has_played": true,
        "id": 1028120,
        "last_rank": 1152,
        "player_name": "Matt O\u2019Brien",
        "rank": 1342,
        "rank_sort": 1347,
        "total": 2442
      },
      {
        "club_badge_src": null,
        "entry": 176201,
        "entry_name": "Baby Reijnders",
        "event_total": 64,
        "has_played": true,
        "id": 1163187,
        "last_rank": 1689,
        "player_name": "Alex Brown",
        "rank": 1342,
        "rank_sort": 1348,
        "total": 2442
      },
      {
        "club_badge_src": "https://fantasy.premierleague.com/gcs/plfpl-production-adobe-approved/plfpl-production/232089/04a37a38-1900-4985-b4c0-e1328ab0800f.png",
        "entry": 232089,
        "entry_name": "Feet Connesseurs",
        "event_total": 71,
        "has_played": true,
        "id": 1544096,
        "last_rank": 2409,
        "player_name": "Nikolii V",
        "rank": 1342,
        "rank_sort": 1349,
        "total": 2442
      },
      {
        "club_badge_src": null,
        "entry": 332614,
        "entry_name": "Kinder Mbeumo",
        "event_total": 67,
        "has_played": true,
        "id": 2227705,
        "last_rank": 2009,
        "player_name": "James Mounsey",
        "rank": 1342,
        "rank_sort": 1350,
        "total": 2442
      }
    ]
  }
}