{
  "last_updated_data": "2026-05-24T23:28:17Z",
  "league": {
    "admin_entry": null,
    "closed": false,
    "code_privacy": "p",
    "created": "2025-07-20T23:14:33.933835Z",
    "cup_league": 2815434,
    "has_cup": true,
    "id": 314,
    "league_type": "s",
    "max_entries": null,
    "name": "Overall",
    "rank": null,
    "scoring": "c",
    "start_event": 1
  },
  "new_entries": {
    "has_next": false,
    "page": 1,
    "results": []
  },
  "standings": {
    "has_next": true,
    "page": 875,
    "results": [
      {
        "club_badge_src": null,
        "entry": 9409550,
        "entry_name": "Every Little Sesko",
        "event_total": 60,
        "has_played": true,
        "id": 79464805,
        "last_rank": 48197,
        "player_name": "Zed Ali",
        "rank": 43627,
        "rank_sort": 43701,
        "total": 2356
      },
      {
        "club_badge_src": null,
        "entry": 1524,
        "entry_name": "The Hawks",
        "event_total": 40,
        "has_played": true,
        "id": 8481,
        "last_rank": 25002,
        "player_name": "Henry Mitchell",
        "rank": 43702,
        "rank_sort": 43702,
        "total": 2356
      },
      {
        "club_badge_src": null,
        "entry": 2091,
        "entry_name": "Rolling Rolling",
        "event_total": 64,
        "has_played": true,
        "id": 11663,
        "last_rank": 54494,
        "player_name": "Seth Kaye",
        "rank": 43702,
        "rank_sort": 43703,
        "total": 2356
      },
      {
        "club_badge_src": null,
        "entry": 4364,
        "entry_name": "VaBanque",
        "event_total": 58,
        "has_played": true,
        "id": 24798,
        "last_rank": 45416,
        "player_name": "S\u00f8ren Freund",
        "rank": 43702,
        "rank_sort": 43704,
        "total": 2356
      },
      {
        "club_badge_src": null,
        "entry": 6039,
        "entry_name": "Haalandaise Sauceda",
        "event_total": 59,
        "has_played": true,
        "id": 34560,
        "last_rank": 46839,
        "player_name": "Magnus Larsen",
        "rank": 43702,
        "rank_sort": 43705,
        "total": 2356
      },
      {
        "club_badge_src": null,
        "entry": 11923,
        "entry_name": "\u0d1a\u0d3e\u0d35\u0d47\u0d31\u0d41\u0d15\u0d7e",
        "event_total": 66,
        "has_played": true,
        "id": 71121,
        "last_rank": 57857,
        "player_name": "Aneesh K  Narayanan",
        "rank": 43702,
        "rank_sort": 43706,
        "total": 2356
      },
      {
        "club_badge_src": null,
        "entry": 12051,
        "entry_name": "FC Kvennjhuselva",
        "event_total": 63,
        "has_played": true,
        "id": 71905,
        "last_rank": 46660,
        "player_name": "Jonas Longva",
        "rank": 43702,
        "rank_sort": 43707,
        "total": 2356
      },
      {
        "club_badge_src": "https://fantasy.premierleague.com/gcs/plfpl-production-adobe-approved/plfpl-production/12129/16a53fb5-a378-4d25-b30d-23ece16837d1.png",
        "entry": 12129,
        "entry_name": "Gau\u010dosi CF",
        "event_total": 56,
        "has_played": true,
        "id": 72374,
        "last_rank": 42506,
        "player_name": "Nenad Grujic",
        "rank": 43702,
        "rank_sort": 43708,
        "total": 2356
      },
      {
        "club_badge_src": "https://fantasy.premierleague.com/gcs/plfpl-production-adobe-approved/plfpl-production/13208/3ca70d83-4f52-4095-8507-8057e4b52115.png",
        "entry": 13208,
        "entry_name": "Kj\u00f8ttkaker&Chambolle",
        "event_total": 65,
        "has_played": true,
        "id": 79645,
        "last_rank": 56180,
        "player_name": "Sigurd Jorem",
        "rank": 43702,
        "rank_sort": 43709,
        "total": 2356
      },
      {
        "club_badge_src": null,
        "entry": 16158,
        "entry_name": "Wirtzuoso",
        "event_total": 56,
        "has_played": true,
        "id": 99628,
        "last_rank": 42648,
        "player_name": "Petar Bakalov",
        "rank": 43702,
        "rank_sort": 43710,
        "total": 2356
      },
      {
        "club_badge_src": null,
        "entry": 17161,
        "entry_name": "CUNHA BELIEVE IT",
        "event_total": 60,
        "has_played": true,
        "id": 106367,
        "last_rank": 48197,
        "player_name": "Jack Baker",
        "rank": 43702,
        "rank_sort": 43711,
        "total": 2356
      },
      {
        "club_badge_src": "https://fantasy.premierleague.com/gcs/plfpl-production-adobe-approved/plfpl-production/20948/c2a17bdf-cae8-46d0-819a-23f59d210f63.png",
        "entry": 20948,
        "entry_name": "Broadwell Beys",
        "event_total": 68,
        "has_played": true,
        "id": 131192,
        "last_rank": 61411,
        "player_name": "Elliot Martin",
        "rank": 43702,
        "rank_sort": 43712,
        "total": 2356
      },
      {
        "club_badge_src": null,
        "entry": 37572,
        "entry_name": "Blinky Boo",
        "event_total": 70,
        "has_played": true,
        "id": 240699,
        "last_rank": 64943,
        "player_name": "Kamel Mahjoub",
        "rank": 43702,
        "rank_sort": 43713,
        "total": 2356
      },
      {
        "club_badge_src": null,
        "entry": 37678,
        "entry_name": "Elwynn Forest",
        "event_total": 68,
        "has_played": true,
        "id": 241402,
        "last_rank": 61606,
        "player_name": "Andrew Noon",
        "rank": 43702,
        "rank_sort": 43714,
        "total": 2356
      },
      {
        "club_badge_src": null,
        "entry": 38794,
        "entry_name": "Bleak team on paper",
        "event_total": 39,
        "has_played": true,
        "id": 248696,
        "last_rank": 24039,
        "player_name": "Frank Schirrmann",
        "rank": 43702,
        "rank_sort": 43715,
        "total": 2356
      },
      {
        "club_badge_src": null,
        "entry": 39588,
        "entry_name": "Friends call me Nova",
        "event_total": 43,
        "has_played": true,
        "id": 253669,
        "last_rank": 27770,
        "player_name": "Mattias William Fairchild Olsen",
        "rank": 43702,
        "rank_sort": 43716,
        "total": 2356
      },
      {
        "club_badge_src": null,
        "entry": 47035,
        "entry_name": "Saucy Beans",
        "event_total": 66,
        "has_played": true,
        "id": 301603,
        "last_rank": 57776,
        "player_name": "Matty Long",
        "rank": 43702,
        "rank_sort": 43717,
        "total": 2356
      },
      {
        "club_badge_src": null,
        "entry": 47579,
        "entry_name": "M.Harby",
        "event_total": 46,
        "has_played": true,
        "id": 305259,
        "last_rank": 30727,
        "player_name": "Mohamed Harby Sdeek",
        "rank": 43702,
        "rank_sort": 43718,
        "total": 2356
      },
      {
        "club_badge_src": null,
        "entry": 57121,
        "entry_name": "Rhythm of van dijk",
        "event_total": 50,
        "has_played": true,
        "id": 367932,
        "last_rank": 34969,
        "player_name": "James Blick",
        "rank": 43702,
        "rank_sort": 43719,
        "total": 2356
      },
      {
        "club_badge_src": null,
        "entry": 60328,
        "entry_name": "Rutter Woke Nonsense",
        "event_total": 68,
        "has_played": true,
        "id": 388430,
        "last_rank": 61606,
        "player_name": "Tom Williams",
        "rank": 43702,
        "rank_sort": 43720,
        "total": 2356
      },
      {
        "club_badge_src": null,
        "entry": 63660,
        "entry_name": "Krul to beekind",
        "event_total": 60,
        "has_played": true,
        "id": 410792,
        "last_rank": 48197,
        "player_name": "Analytics Hivemind",
        "rank": 43702,
        "rank_sort": 43721,
        "total": 2356
      },
      {
        "club_badge_src": null,
        "entry": 64631,
        "entry_name": "R A S H E D H4RKI",
        "event_total": 69,
        "has_played": true,
        "id": 417167,
        "last_rank": 63724,
        "player_name": "Rasheed Marie Rasheed",
        "rank": 43702,
        "rank_sort": 43722,
        "total": 2356
      },
      {
        "club_badge_src": "https://fantasy.premierleague.com/gcs/plfpl-production-adobe-approved/plfpl-production/79839/c289c9eb-e3bd-4025-8a1a-60755f1657d8.png",
        "entry": 79839,
        "entry_name": "Nemanja",
        "event_total": 64,
        "has_played": true,
        "id": 519417,
        "last_rank": 54494,
        "player_name": "Nemanja Savi\u0107",
        "rank": 43702,
        "rank_sort": 43723,
        "total": 2356
      },
      {
        "club_badge_src": null,
        "entry": 82242,
        "entry_name": "Baraboa",
        "event_total": 50,
        "has_played": true,
        "id": 535112,
        "last_rank": 35034,
        "player_name": "Hassan Janah",
        "rank": 43702,
        "rank_sort": 43724,
        "total": 2356
      },
      {
        "club_badge_src": null,
        "entry": 83843,
        "entry_name": "Hubbard XI",
        "event_total": 56,
        "has_played": true,
        "id": 545769,
        "last_rank": 42648,
        "player_name": "Sid Hubbard",
        "rank": 43702,
        "rank_sort": 43725,
        "total": 2356
      },
      {
        "club_badge_src": null,
        "entry": 84472,
        "entry_name": "Hatters Gonna Hat",
        "event_total": 46,
        "has_played": true,
        "id": 550014,
        "last_rank": 30727,
        "player_name": "Tim Wood",
        "rank": 43702,
        "rank_sort": 43726,
        "total": 2356
      },
      {
        "club_badge_src": null,
        "entry": 106391,
        "entry_name": "Tommy Bananas FC",
        "event_total": 53,
        "has_played": true,
        "id": 693746,
        "last_rank": 38644,
        "player_name": "Tom Croon",
        "rank": 43702,
        "rank_sort": 43727,
        "total": 2356
      },
      {
        "club_badge_src": null,
        "entry": 122205,
        "entry_name": "Delaware Rovers",
        "event_total": 46,
        "has_played": true,
        "id": 797287,
        "last_rank": 30727,
        "player_name": "Graeme Hobbs",
        "rank": 43702,
        "rank_sort": 43728,
        "total": 2356
      },
      {
        "club_badge_src": null,
        "entry": 122466,
        "entry_name": "Kudos to Kudus",
        "event_total": 62,
        "has_played": true,
        "id": 798965,
        "last_rank": 51220,
        "player_name": "Martin Arnold",
        "rank": 43702,
        "rank_sort": 43729,
        "total": 2356
      },
      {
        "club_badge_src": null,
        "entry": 128884,
        "entry_name": "Wanderwall FC",
        "event_total": 63,
        "has_played": true,
        "id": 840091,
        "last_rank": 52853,
        "player_name": "Muhammad Ridwan Aditya",
        "rank": 43702,
        "rank_sort": 43730,
        "total": 2356
      },
      {
        "club_badge_src": "https://fantasy.premierleague.com/gcs/plfpl-production-adobe-approved/plfpl-production/149230/52c9d750-423f-4e41-9dd7-4a1754fbbf8a.png",
        "entry": 149230,
        "entry_name": "\ufffdDIVO0O0O",
        "event_total": 66,
        "has_played": true,
        "id": 978393,
        "last_rank": 58071,
        "player_name": "David Gerges",
        "rank": 43702,
        "rank_sort": 43731,
        "total": 2356
      },
      {
        "club_badge_src": null,
        "entry": 149792,
        "entry_name": "Dunn Good",
        "event_total": 68,
        "has_played": true,
        "id": 982193,
        "last_rank": 61411,
        "player_name": "Anthony Dunn",
        "rank": 43702,
        "rank_sort": 43732,
        "total": 2356
      },
      {
        "club_badge_src": null,
        "entry": 172755,
        "entry_name": "Tesco McNeil Deal",
        "event_total": 65,
        "has_played": true,
        "id": 1140991,
        "last_rank": 56369,
        "player_name": "Olly Whiting",
        "rank": 43702,
        "rank_sort": 43733,
        "total": 2356
      },
      {
        "club_badge_src": null,
        "entry": 192302,
        "entry_name": "NoForknChance2",
        "event_total": 67,
        "has_played": true,
        "id": 1274105,
        "last_rank": 59535,
        "player_name": "Paul Worsley",
        "rank": 43702,
        "rank_sort": 43734,
        "total": 2356
      },
      {
        "club_badge_src": null,
        "entry": 209833,
        "entry_name": "Loco Lobo",
        "event_total": 56,
        "has_played": true,
        "id": 1395432,
        "last_rank": 42940,
        "player_name": "marcus gomez",
        "rank": 43702,
        "rank_sort": 43735,
        "total": 2356
      },
      {
        "club_badge_src": "https://fantasy.premierleague.com/gcs/plfpl-production-adobe-approved/plfpl-production/220132/fec2494c-b762-4b85-8378-051f1f78b160.png",
        "entry": 220132,
        "entry_name": "Haalandaise Sauce",
        "event_total": 62,
        "has_played": true,
        "id": 1464087,
        "last_rank": 51403,
        "player_name": "Darren Weaver",
        "rank": 43702,
        "rank_sort": 43736,
        "total": 2356
      },
      {
        "club_badge_src": "https://fantasy.premierleague.com/gcs/plfpl-production-adobe-approved/plfpl-production/234336/8c23c3f8-b326-4c61-beeb-a2f8c34131d6.png",
        "entry": 234336,
        "entry_name": "LigaWielkichCh\u0142op\u00f3w",
        "event_total": 65,
        "has_played": true,
        "id": 1559322,
        "last_rank": 56099,
        "player_name": "Dominik Rogo\u017cy\u0144ski",
        "rank": 43702,
        "rank_sort": 43737,
        "total": 2356
      },
      {
        "club_badge_src": "https://fantasy.premierleague.com/gcs/plfpl-production-adobe-approved/plfpl-production/243427/a940e987-8e44-45b8-9561-6b107980259d.png",
        "entry": 243427,
        "entry_name": "Apocalypse Howe",
        "event_total": 57,
        "has_played": true,
        "id": 1620935,
        "last_rank": 44048,
        "player_name": "Liam Gerrard",
        "rank": 43702,
        "rank_sort": 43738,
        "total": 2356
      },
      {
        "club_badge_src": null,
        "entry": 248212,
        "entry_name": "Pathetico Madrid",
        "event_total": 74,
        "has_played": true,
        "id": 1652061,
        "last_rank": 72702,
        "player_name": "Adam Tolfrey",
        "rank": 43702,
        "rank_sort": 43739,
        "total": 2356
      },
      {
        "club_badge_src": null,
        "entry": 270541,
        "entry_name": "Getting Mayenda Way",
        "event_total": 61,
        "has_played": true,
        "id": 1799831,
        "last_rank": 49691,
        "player_name": "John Hamilton-Ward",
        "rank": 43702,
        "rank_sort": 43740,
        "total": 2356
      },
      {
        "club_badge_src": null,
        "entry": 305246,
        "entry_name": "NoAuraFrank",
        "event_total": 68,
        "has_played": true,
        "id": 2044088,
        "last_rank": 61606,
        "player_name": "Anthony Cheng",
        "rank": 43702,
        "rank_sort": 43741,
        "total": 2356
      },
      {
        "club_badge_src": null,
        "entry": 312589,
        "entry_name": "One Tchouameni FC",
        "event_total": 65,
        "has_played": true,
        "id": 2094283,
        "last_rank": 56180,
        "player_name": "Yo Babou-",
        "rank": 43702,
        "rank_sort": 43742,
        "total": 2356
      },
      {
        "club_badge_src": null,
        "entry": 313426,
        "entry_name": "PBA",
        "event_total": 52,
        "has_played": true,
        "id": 2099995,
        "last_rank": 37589,
        "player_name": "Paul Lawrence",
        "rank": 43702,
        "rank_sort": 43743,
        "total": 2356
      },
      {
        "club_badge_src": null,
        "entry": 340556,
        "entry_name": "wirtz case scenario",
        "event_total": 54,
        "has_played": true,
        "id": 2279559,
        "last_rank": 40297,
        "player_name": "richard ahern",
        "rank": 43702,
        "rank_sort": 43744,
        "total": 2356
      },
      {
        "club_badge_src": "https://fantasy.premierleague.com/gcs/plfpl-production-adobe-approved/plfpl-production/343169/47828849-5bcd-491f-bfb0-bb106ebdfd32.png",
        "entry": 343169,
        "entry_name": "All\u0130Do\u0130sSmokePope",
        "event_total": 71,
        "has_played": true,
        "id": 2296792,
        "last_rank": 67063,
        "player_name": "Furkan U",
        "rank": 43702,
        "rank_sort": 43745,
        "total": 2356
      },
      {
        "club_badge_src": null,
        "entry": 345755,
        "entry_name": "Amad For It",
        "event_total": 40,
        "has_played": true,
        "id": 2314415,
        "last_rank": 25002,
        "player_name": "Joe Singleton",
        "rank": 43702,
        "rank_sort": 43746,
        "total": 2356
      },
      {
        "club_badge_src": null,
        "entry": 373694,
        "entry_name": "Berties Beauties",
        "event_total": 70,
        "has_played": true,
        "id": 2500342,
        "last_rank": 64943,
        "player_name": "Mark Turner",
        "rank": 43702,
        "rank_sort": 43747,
        "total": 2356
      },
      {
        "club_badge_src": null,
        "entry": 390905,
        "entry_name": "Monkey Magic",
        "event_total": 74,
        "has_played": true,
        "id": 2622115,
        "last_rank": 72815,
        "player_name": "Michael Orton",
        "rank": 43702,
        "rank_sort": 43748,
        "total": 2356
      },
      {
        "club_badge_src": "https://fantasy.premierleague.com/gcs/plfpl-production-adobe-approved/plfpl-production/401998/1932bc8d-8ff0-4801-be6b-7d97c80320ea.png",
        "entry": 401998,
        "entry_name": "iBeZ Club",
        "event_total": 56,
        "has_played": true,
        "id": 2695498,
        "last_rank": 42648,
        "player_name": "fatmi el idrissi",
        "rank": 43702,
        "rank_sort": 43749,
        "total": 2356
      },
      {
        "club_badge_src": "https://fantasy.premierleague.com/gcs/plfpl-production-adobe-approved/plfpl-production/413947/60827102-3575-43c3-a07f-bb8ac4cb42bd.png",
        "entry": 413947,
        "entry_name": "Hasta El Final!",
        "event_total": 63,
        "has_played": true,
        "id": 2775089,
        "last_rank": 52853,
        "player_name": "Abdelrahman Adel",
        "rank": 43702,
        "rank_sort": 43750,
        "total": 2356
      }
    ]
  }
}