{
  "last_updated_data": "2026-05-24T23:28:17Z",
  "league": {
    "admin_entry": null,
    "closed": false,
    "code_privacy": "p",
    "created": "2025-07-20T23:14:33.933835Z",
    "cup_league": 2815434,
    "has_cup": true,
    "id": 314,
    "league_type": "s",
    "max_entries": null,
    "name": "Overall",
    "rank": null,
    "scoring": "c",
    "start_event": 1
  },
  "new_entries": {
    "has_next": false,
    "page": 1,
    "results": []
  },
  "standings": {
    "has_next": true,
    "page": 1648,
    "results": [
      {
        "club_badge_src": null,
        "entry": 8352512,
        "entry_name": "Tinder Fc",
        "event_total": 58,
        "has_played": true,
        "id": 69226021,
        "last_rank": 86304,
        "player_name": "Warre Vanhaelewyn",
        "rank": 81984,
        "rank_sort": 82351,
        "total": 2334
      },
      {
        "club_badge_src": null,
        "entry": 8430982,
        "entry_name": "Mohammed Albuainain",
        "event_total": 45,
        "has_played": true,
        "id": 69974666,
        "last_rank": 59813,
        "player_name": "Mohammed Albuainain",
        "rank": 81984,
        "rank_sort": 82352,
        "total": 2334
      },
      {
        "club_badge_src": null,
        "entry": 8499143,
        "entry_name": "jrjdejsjskdkddj",
        "event_total": 47,
        "has_played": true,
        "id": 70629220,
        "last_rank": 63117,
        "player_name": "Eytan Neiss",
        "rank": 81984,
        "rank_sort": 82353,
        "total": 2334
      },
      {
        "club_badge_src": null,
        "entry": 8592764,
        "entry_name": "Allison Wonderland",
        "event_total": 75,
        "has_played": true,
        "id": 71528658,
        "last_rank": 132427,
        "player_name": "Shauna Burman",
        "rank": 81984,
        "rank_sort": 82354,
        "total": 2334
      },
      {
        "club_badge_src": null,
        "entry": 8742071,
        "entry_name": "Kentish Town United",
        "event_total": 44,
        "has_played": true,
        "id": 72987740,
        "last_rank": 58388,
        "player_name": "Shuowang He",
        "rank": 81984,
        "rank_sort": 82355,
        "total": 2334
      },
      {
        "club_badge_src": null,
        "entry": 8756247,
        "entry_name": "matinkyl\u00e4n martial",
        "event_total": 59,
        "has_played": true,
        "id": 73122568,
        "last_rank": 88594,
        "player_name": "Elias Launistola",
        "rank": 81984,
        "rank_sort": 82356,
        "total": 2334
      },
      {
        "club_badge_src": null,
        "entry": 8811762,
        "entry_name": "upDSpurs",
        "event_total": 51,
        "has_played": true,
        "id": 73658226,
        "last_rank": 70985,
        "player_name": "Bhavya Rawal",
        "rank": 81984,
        "rank_sort": 82357,
        "total": 2334
      },
      {
        "club_badge_src": null,
        "entry": 8812729,
        "entry_name": "The power Reijnders",
        "event_total": 56,
        "has_played": true,
        "id": 73667494,
        "last_rank": 81646,
        "player_name": "georg -",
        "rank": 81984,
        "rank_sort": 82358,
        "total": 2334
      },
      {
        "club_badge_src": null,
        "entry": 8846193,
        "entry_name": "Burgatia XI",
        "event_total": 68,
        "has_played": true,
        "id": 73989727,
        "last_rank": 111405,
        "player_name": "Christopher Prendergast",
        "rank": 81984,
        "rank_sort": 82359,
        "total": 2334
      },
      {
        "club_badge_src": null,
        "entry": 8892691,
        "entry_name": "MLz2",
        "event_total": 47,
        "has_played": true,
        "id": 74437708,
        "last_rank": 63724,
        "player_name": "Mhamad hsaen",
        "rank": 81984,
        "rank_sort": 82360,
        "total": 2334
      },
      {
        "club_badge_src": null,
        "entry": 9002264,
        "entry_name": "Super monkeys",
        "event_total": 74,
        "has_played": true,
        "id": 75502386,
        "last_rank": 129205,
        "player_name": "Richard Ward",
        "rank": 81984,
        "rank_sort": 82361,
        "total": 2334
      },
      {
        "club_badge_src": null,
        "entry": 9359583,
        "entry_name": "Obi 1 Kenobi 0",
        "event_total": 58,
        "has_played": true,
        "id": 78979073,
        "last_rank": 86304,
        "player_name": "Joe Hughes",
        "rank": 81984,
        "rank_sort": 82362,
        "total": 2334
      },
      {
        "club_badge_src": null,
        "entry": 10732268,
        "entry_name": "Ois\u00edn Konat\u00e9",
        "event_total": 61,
        "has_played": true,
        "id": 90653903,
        "last_rank": 83698,
        "player_name": "Matthew O'Hare",
        "rank": 81984,
        "rank_sort": 82363,
        "total": 2334
      },
      {
        "club_badge_src": "https://fantasy.premierleague.com/gcs/plfpl-production-adobe-approved/plfpl-production/2282/1afc3766-b737-4f07-85bb-b52ae3b639b2.png",
        "entry": 2282,
        "entry_name": "Fight Club",
        "event_total": 66,
        "has_played": true,
        "id": 12720,
        "last_rank": 106259,
        "player_name": "Al Amin piash",
        "rank": 82364,
        "rank_sort": 82364,
        "total": 2334
      },
      {
        "club_badge_src": null,
        "entry": 3286,
        "entry_name": "Ange\u00ae Management",
        "event_total": 66,
        "has_played": true,
        "id": 18583,
        "last_rank": 106763,
        "player_name": "Yuming Guo",
        "rank": 82364,
        "rank_sort": 82365,
        "total": 2334
      },
      {
        "club_badge_src": null,
        "entry": 4186,
        "entry_name": "I Baleba Can Fly",
        "event_total": 74,
        "has_played": true,
        "id": 23769,
        "last_rank": 129205,
        "player_name": "James Unitt",
        "rank": 82364,
        "rank_sort": 82366,
        "total": 2334
      },
      {
        "club_badge_src": null,
        "entry": 4290,
        "entry_name": "Corsano United",
        "event_total": 74,
        "has_played": true,
        "id": 24373,
        "last_rank": 129506,
        "player_name": "Richard Clarke",
        "rank": 82364,
        "rank_sort": 82367,
        "total": 2334
      },
      {
        "club_badge_src": null,
        "entry": 6052,
        "entry_name": "LEJ Utd",
        "event_total": 64,
        "has_played": true,
        "id": 34639,
        "last_rank": 100700,
        "player_name": "Nathan Jobling",
        "rank": 82364,
        "rank_sort": 82368,
        "total": 2334
      },
      {
        "club_badge_src": "https://fantasy.premierleague.com/gcs/plfpl-production-adobe-approved/plfpl-production/7368/3d1b8331-cc05-4c0a-b489-b0fdfec3aa8b.png",
        "entry": 7368,
        "entry_name": "Jadou FC",
        "event_total": 70,
        "has_played": true,
        "id": 42461,
        "last_rank": 117112,
        "player_name": "Abdullah Jadou",
        "rank": 82364,
        "rank_sort": 82369,
        "total": 2334
      },
      {
        "club_badge_src": "https://fantasy.premierleague.com/gcs/plfpl-production-adobe-approved/plfpl-production/7682/8f03772c-99cb-49b3-af85-b1948f1c793e.png",
        "entry": 7682,
        "entry_name": "BK Drule",
        "event_total": 62,
        "has_played": true,
        "id": 44322,
        "last_rank": 96374,
        "player_name": "Kim H\u00e4gglund",
        "rank": 82364,
        "rank_sort": 82370,
        "total": 2334
      },
      {
        "club_badge_src": null,
        "entry": 13079,
        "entry_name": "ENGINEER TEAM",
        "event_total": 57,
        "has_played": true,
        "id": 78814,
        "last_rank": 75139,
        "player_name": "Waleed Khaled",
        "rank": 82364,
        "rank_sort": 82371,
        "total": 2334
      },
      {
        "club_badge_src": null,
        "entry": 16169,
        "entry_name": "Dennis The Menace",
        "event_total": 56,
        "has_played": true,
        "id": 99706,
        "last_rank": 82069,
        "player_name": "Jake Dennis",
        "rank": 82364,
        "rank_sort": 82372,
        "total": 2334
      },
      {
        "club_badge_src": "https://fantasy.premierleague.com/gcs/plfpl-production-adobe-approved/plfpl-production/19745/87a7b8c1-1a03-4edd-908c-cce4a57d66f8.png",
        "entry": 19745,
        "entry_name": "FC Moo",
        "event_total": 66,
        "has_played": true,
        "id": 122884,
        "last_rank": 95890,
        "player_name": "Matti Koo",
        "rank": 82364,
        "rank_sort": 82373,
        "total": 2334
      },
      {
        "club_badge_src": "https://fantasy.premierleague.com/gcs/plfpl-production-adobe-approved/plfpl-production/20003/ceb85448-e7a7-4d82-aab5-71f60b18ce79.png",
        "entry": 20003,
        "entry_name": "Nah, I'd win.",
        "event_total": 67,
        "has_played": true,
        "id": 124528,
        "last_rank": 109454,
        "player_name": "\u041a\u0430\u043b\u043e\u044f\u043d \u0414\u0443\u0446\u043e\u043b\u043e\u0432",
        "rank": 82364,
        "rank_sort": 82374,
        "total": 2334
      },
      {
        "club_badge_src": null,
        "entry": 26091,
        "entry_name": "FCSM",
        "event_total": 60,
        "has_played": true,
        "id": 164983,
        "last_rank": 81420,
        "player_name": "Filip Milovanovic",
        "rank": 82364,
        "rank_sort": 82375,
        "total": 2334
      },
      {
        "club_badge_src": null,
        "entry": 32494,
        "entry_name": "Change Name",
        "event_total": 58,
        "has_played": true,
        "id": 206748,
        "last_rank": 86304,
        "player_name": "Francisco Costa",
        "rank": 82364,
        "rank_sort": 82376,
        "total": 2334
      },
      {
        "club_badge_src": "https://fantasy.premierleague.com/gcs/plfpl-production-adobe-approved/plfpl-production/32989/8a3078e8-4ff6-477c-941b-114f337ed50e.png",
        "entry": 32989,
        "entry_name": "WirtzClassFinish FC",
        "event_total": 56,
        "has_played": true,
        "id": 210149,
        "last_rank": 82398,
        "player_name": "Axel Linder",
        "rank": 82364,
        "rank_sort": 82377,
        "total": 2334
      },
      {
        "club_badge_src": "https://fantasy.premierleague.com/gcs/plfpl-production-adobe-approved/plfpl-production/35802/c4235ad7-e4dd-4841-8eb7-ef5a783cfb06.png",
        "entry": 35802,
        "entry_name": "Eze Come Eze Go",
        "event_total": 60,
        "has_played": true,
        "id": 229155,
        "last_rank": 91466,
        "player_name": "Emz Itis",
        "rank": 82364,
        "rank_sort": 82378,
        "total": 2334
      },
      {
        "club_badge_src": null,
        "entry": 52263,
        "entry_name": "Risk & Reward",
        "event_total": 65,
        "has_played": true,
        "id": 336088,
        "last_rank": 93443,
        "player_name": "toby mitchell",
        "rank": 82364,
        "rank_sort": 82379,
        "total": 2334
      },
      {
        "club_badge_src": null,
        "entry": 68746,
        "entry_name": "Mo\u2605with\u2605the\u2605Flo\u2605",
        "event_total": 63,
        "has_played": true,
        "id": 445548,
        "last_rank": 88594,
        "player_name": "Phil Vallade",
        "rank": 82364,
        "rank_sort": 82380,
        "total": 2334
      },
      {
        "club_badge_src": null,
        "entry": 72796,
        "entry_name": "Injure Dalot FC",
        "event_total": 63,
        "has_played": true,
        "id": 473106,
        "last_rank": 98896,
        "player_name": "Jacob Nicolay Schultz Wiig",
        "rank": 82364,
        "rank_sort": 82381,
        "total": 2334
      },
      {
        "club_badge_src": null,
        "entry": 82889,
        "entry_name": "Danso r\u2019ochr y dibyn",
        "event_total": 69,
        "has_played": true,
        "id": 539430,
        "last_rank": 114574,
        "player_name": "Sion Lewis",
        "rank": 82364,
        "rank_sort": 82382,
        "total": 2334
      },
      {
        "club_badge_src": null,
        "entry": 83209,
        "entry_name": "Cunha smell that?",
        "event_total": 58,
        "has_played": true,
        "id": 541516,
        "last_rank": 86735,
        "player_name": "Ben Collins",
        "rank": 82364,
        "rank_sort": 82383,
        "total": 2334
      },
      {
        "club_badge_src": null,
        "entry": 83592,
        "entry_name": "The Bully Boys",
        "event_total": 60,
        "has_played": true,
        "id": 544093,
        "last_rank": 81646,
        "player_name": "Gordon Macleod",
        "rank": 82364,
        "rank_sort": 82384,
        "total": 2334
      },
      {
        "club_badge_src": null,
        "entry": 91328,
        "entry_name": "Kings XI Whickham",
        "event_total": 79,
        "has_played": true,
        "id": 596463,
        "last_rank": 147186,
        "player_name": "Mark Toward",
        "rank": 82364,
        "rank_sort": 82385,
        "total": 2334
      },
      {
        "club_badge_src": null,
        "entry": 92432,
        "entry_name": "Stuck in the mudryk",
        "event_total": 55,
        "has_played": true,
        "id": 604023,
        "last_rank": 79817,
        "player_name": "Jamie Lamb",
        "rank": 82364,
        "rank_sort": 82386,
        "total": 2334
      },
      {
        "club_badge_src": null,
        "entry": 100730,
        "entry_name": "ShatteredDreamsPW",
        "event_total": 42,
        "has_played": true,
        "id": 657374,
        "last_rank": 55311,
        "player_name": "Tom Biggs",
        "rank": 82364,
        "rank_sort": 82387,
        "total": 2334
      },
      {
        "club_badge_src": null,
        "entry": 100891,
        "entry_name": "Ugarte catch me",
        "event_total": 58,
        "has_played": true,
        "id": 658389,
        "last_rank": 86735,
        "player_name": "Guy Hopkins",
        "rank": 82364,
        "rank_sort": 82388,
        "total": 2334
      },
      {
        "club_badge_src": null,
        "entry": 104912,
        "entry_name": "Pharophs",
        "event_total": 69,
        "has_played": true,
        "id": 684303,
        "last_rank": 115057,
        "player_name": "Karl Bassem",
        "rank": 82364,
        "rank_sort": 82389,
        "total": 2334
      },
      {
        "club_badge_src": null,
        "entry": 109090,
        "entry_name": "Patata Fc",
        "event_total": 48,
        "has_played": true,
        "id": 711198,
        "last_rank": 65475,
        "player_name": "Antonis Dionisopoulos",
        "rank": 82364,
        "rank_sort": 82390,
        "total": 2334
      },
      {
        "club_badge_src": null,
        "entry": 111318,
        "entry_name": "TBC",
        "event_total": 73,
        "has_played": true,
        "id": 725877,
        "last_rank": 114574,
        "player_name": "Ash Dunn",
        "rank": 82364,
        "rank_sort": 82391,
        "total": 2334
      },
      {
        "club_badge_src": null,
        "entry": 125385,
        "entry_name": "Wirtz Case Scenario",
        "event_total": 70,
        "has_played": true,
        "id": 817737,
        "last_rank": 117423,
        "player_name": "Christen Lang\u00f8",
        "rank": 82364,
        "rank_sort": 82392,
        "total": 2334
      },
      {
        "club_badge_src": null,
        "entry": 135160,
        "entry_name": "Irregulars",
        "event_total": 45,
        "has_played": true,
        "id": 880123,
        "last_rank": 60462,
        "player_name": "Jacob Whittingham",
        "rank": 82364,
        "rank_sort": 82393,
        "total": 2334
      },
      {
        "club_badge_src": null,
        "entry": 140368,
        "entry_name": "Haaland Hoo",
        "event_total": 44,
        "has_played": true,
        "id": 916622,
        "last_rank": 58388,
        "player_name": "Oliver Polhill",
        "rank": 82364,
        "rank_sort": 82394,
        "total": 2334
      },
      {
        "club_badge_src": null,
        "entry": 145358,
        "entry_name": "Tible",
        "event_total": 71,
        "has_played": true,
        "id": 951919,
        "last_rank": 108959,
        "player_name": "Younes Khallouq",
        "rank": 82364,
        "rank_sort": 82395,
        "total": 2334
      },
      {
        "club_badge_src": null,
        "entry": 147086,
        "entry_name": "Zinedine Zidane",
        "event_total": 60,
        "has_played": true,
        "id": 963768,
        "last_rank": 91006,
        "player_name": "Shahan Ahmed",
        "rank": 82364,
        "rank_sort": 82396,
        "total": 2334
      },
      {
        "club_badge_src": "https://fantasy.premierleague.com/gcs/plfpl-production-adobe-approved/plfpl-production/147340/b2b6367a-02a1-4797-9d7f-023983dea982.png",
        "entry": 147340,
        "entry_name": "Hunter10",
        "event_total": 62,
        "has_played": true,
        "id": 965560,
        "last_rank": 95890,
        "player_name": "Veerayut Duangnet",
        "rank": 82364,
        "rank_sort": 82397,
        "total": 2334
      },
      {
        "club_badge_src": null,
        "entry": 159413,
        "entry_name": "SantiSignals",
        "event_total": 45,
        "has_played": true,
        "id": 1049278,
        "last_rank": 59813,
        "player_name": "Santiago Foldvari",
        "rank": 82364,
        "rank_sort": 82398,
        "total": 2334
      },
      {
        "club_badge_src": "https://fantasy.premierleague.com/gcs/plfpl-production-adobe-approved/plfpl-production/165322/86e78a03-6efc-402b-96da-68726ce0b6a7.png",
        "entry": 165322,
        "entry_name": "Calafiori Dreamin'",
        "event_total": 60,
        "has_played": true,
        "id": 1091450,
        "last_rank": 81646,
        "player_name": "Jack McLean",
        "rank": 82364,
        "rank_sort": 82399,
        "total": 2334
      },
      {
        "club_badge_src": null,
        "entry": 168211,
        "entry_name": "EqUiPo dEl oRo",
        "event_total": 32,
        "has_played": true,
        "id": 1111832,
        "last_rank": 40297,
        "player_name": "El AmiRe",
        "rank": 82364,
        "rank_sort": 82400,
        "total": 2334
      }
    ]
  }
}