{
  "last_updated_data": "2026-05-24T23:28:17Z",
  "league": {
    "admin_entry": null,
    "closed": false,
    "code_privacy": "p",
    "created": "2025-07-20T23:14:33.933835Z",
    "cup_league": 2815434,
    "has_cup": true,
    "id": 314,
    "league_type": "s",
    "max_entries": null,
    "name": "Overall",
    "rank": null,
    "scoring": "c",
    "start_event": 1
  },
  "new_entries": {
    "has_next": false,
    "page": 1,
    "results": []
  },
  "standings": {
    "has_next": true,
    "page": 1486,
    "results": [
      {
        "club_badge_src": null,
        "entry": 5672799,
        "entry_name": "BombayMix",
        "event_total": 60,
        "has_played": true,
        "id": 44392957,
        "last_rank": 82069,
        "player_name": "David Bradbury",
        "rank": 73983,
        "rank_sort": 74251,
        "total": 2338
      },
      {
        "club_badge_src": null,
        "entry": 5720394,
        "entry_name": "The Backstreet Moyes",
        "event_total": 71,
        "has_played": true,
        "id": 44806337,
        "last_rank": 109454,
        "player_name": "Archie Harris",
        "rank": 73983,
        "rank_sort": 74252,
        "total": 2338
      },
      {
        "club_badge_src": "https://fantasy.premierleague.com/gcs/plfpl-production-adobe-approved/plfpl-production/5724092/69435ac4-c613-4825-93a3-b6d7ba68e0ff.png",
        "entry": 5724092,
        "entry_name": "VAR Lord Chapman FC",
        "event_total": 40,
        "has_played": true,
        "id": 44838075,
        "last_rank": 45927,
        "player_name": "Michael Chapman",
        "rank": 73983,
        "rank_sort": 74253,
        "total": 2338
      },
      {
        "club_badge_src": null,
        "entry": 5752526,
        "entry_name": "Hwang like a Donkey",
        "event_total": 67,
        "has_played": true,
        "id": 45087338,
        "last_rank": 98436,
        "player_name": "Hugo Sumner",
        "rank": 73983,
        "rank_sort": 74254,
        "total": 2338
      },
      {
        "club_badge_src": null,
        "entry": 5790973,
        "entry_name": "Sth Ldn Whartlords",
        "event_total": 62,
        "has_played": true,
        "id": 45418667,
        "last_rank": 77258,
        "player_name": "Akbar Khan",
        "rank": 73983,
        "rank_sort": 74255,
        "total": 2338
      },
      {
        "club_badge_src": null,
        "entry": 5914000,
        "entry_name": "DA Capital",
        "event_total": 41,
        "has_played": true,
        "id": 46476156,
        "last_rank": 47417,
        "player_name": "Daniel K Ang",
        "rank": 73983,
        "rank_sort": 74256,
        "total": 2338
      },
      {
        "club_badge_src": null,
        "entry": 5933428,
        "entry_name": "bryansbees",
        "event_total": 47,
        "has_played": true,
        "id": 46649123,
        "last_rank": 56369,
        "player_name": "Bryan Lang",
        "rank": 73983,
        "rank_sort": 74257,
        "total": 2338
      },
      {
        "club_badge_src": null,
        "entry": 6026006,
        "entry_name": "Wenger's Scuba Club",
        "event_total": 63,
        "has_played": true,
        "id": 47530355,
        "last_rank": 89055,
        "player_name": "Jack Maddalla",
        "rank": 73983,
        "rank_sort": 74258,
        "total": 2338
      },
      {
        "club_badge_src": null,
        "entry": 6061842,
        "entry_name": "Goblet of Claret \u2692\ufe0f",
        "event_total": 63,
        "has_played": true,
        "id": 47842136,
        "last_rank": 89055,
        "player_name": "Marc Sullivan",
        "rank": 73983,
        "rank_sort": 74259,
        "total": 2338
      },
      {
        "club_badge_src": null,
        "entry": 6072340,
        "entry_name": "MP Dons",
        "event_total": 64,
        "has_played": true,
        "id": 47934812,
        "last_rank": 90746,
        "player_name": "Mohammad Patel",
        "rank": 73983,
        "rank_sort": 74260,
        "total": 2338
      },
      {
        "club_badge_src": null,
        "entry": 6089917,
        "entry_name": "Gazzers FC",
        "event_total": 64,
        "has_played": true,
        "id": 48089315,
        "last_rank": 81646,
        "player_name": "Gary Boxall",
        "rank": 73983,
        "rank_sort": 74261,
        "total": 2338
      },
      {
        "club_badge_src": null,
        "entry": 6126449,
        "entry_name": "Lord Winterfellaini",
        "event_total": 58,
        "has_played": true,
        "id": 48407125,
        "last_rank": 77676,
        "player_name": "Ed Vickery",
        "rank": 73983,
        "rank_sort": 74262,
        "total": 2338
      },
      {
        "club_badge_src": "https://fantasy.premierleague.com/gcs/plfpl-production-adobe-approved/plfpl-production/6153533/d3362743-65d4-44f8-8c98-a36d56c04862.png",
        "entry": 6153533,
        "entry_name": "OWEN MONEY FC",
        "event_total": 48,
        "has_played": true,
        "id": 48643495,
        "last_rank": 58388,
        "player_name": "Charlie Owen",
        "rank": 73983,
        "rank_sort": 74263,
        "total": 2338
      },
      {
        "club_badge_src": null,
        "entry": 6193548,
        "entry_name": "AS Jabal",
        "event_total": 55,
        "has_played": true,
        "id": 48989801,
        "last_rank": 70985,
        "player_name": "Abadi Salloum",
        "rank": 73983,
        "rank_sort": 74264,
        "total": 2338
      },
      {
        "club_badge_src": null,
        "entry": 6228183,
        "entry_name": "COW_FV",
        "event_total": 65,
        "has_played": true,
        "id": 49286469,
        "last_rank": 93443,
        "player_name": "Idachaba Gideon",
        "rank": 73983,
        "rank_sort": 74265,
        "total": 2338
      },
      {
        "club_badge_src": null,
        "entry": 6328702,
        "entry_name": "NevilleWearsPrada",
        "event_total": 67,
        "has_played": true,
        "id": 50287382,
        "last_rank": 98073,
        "player_name": "Wayne Fong",
        "rank": 73983,
        "rank_sort": 74266,
        "total": 2338
      },
      {
        "club_badge_src": null,
        "entry": 6337533,
        "entry_name": "Van de Ven Diagram",
        "event_total": 54,
        "has_played": true,
        "id": 50370806,
        "last_rank": 61411,
        "player_name": "Alex Hutson",
        "rank": 73983,
        "rank_sort": 74267,
        "total": 2338
      },
      {
        "club_badge_src": null,
        "entry": 6380750,
        "entry_name": "Red Devils",
        "event_total": 59,
        "has_played": true,
        "id": 50749018,
        "last_rank": 79817,
        "player_name": "Andrew Synychka",
        "rank": 73983,
        "rank_sort": 74268,
        "total": 2338
      },
      {
        "club_badge_src": null,
        "entry": 6455755,
        "entry_name": "Ars\u00e8ne's Ghost FC",
        "event_total": 66,
        "has_played": true,
        "id": 51414855,
        "last_rank": 95890,
        "player_name": "Julius Jousi",
        "rank": 73983,
        "rank_sort": 74269,
        "total": 2338
      },
      {
        "club_badge_src": null,
        "entry": 6475490,
        "entry_name": "Inter",
        "event_total": 34,
        "has_played": true,
        "id": 51601490,
        "last_rank": 37822,
        "player_name": "Aidar Mazhanov",
        "rank": 73983,
        "rank_sort": 74270,
        "total": 2338
      },
      {
        "club_badge_src": null,
        "entry": 6546693,
        "entry_name": "Alisson Becca",
        "event_total": 59,
        "has_played": true,
        "id": 52237981,
        "last_rank": 79817,
        "player_name": "Becca Waterman",
        "rank": 73983,
        "rank_sort": 74271,
        "total": 2338
      },
      {
        "club_badge_src": "https://fantasy.premierleague.com/gcs/plfpl-production-adobe-approved/plfpl-production/6589327/9d8e7292-596f-46aa-a5fd-2153105851b5.png",
        "entry": 6589327,
        "entry_name": "Minteh Fresh",
        "event_total": 57,
        "has_played": true,
        "id": 52625612,
        "last_rank": 75139,
        "player_name": "Geoff Kahler",
        "rank": 73983,
        "rank_sort": 74272,
        "total": 2338
      },
      {
        "club_badge_src": null,
        "entry": 6606310,
        "entry_name": "Gangsters Allardyce",
        "event_total": 45,
        "has_played": true,
        "id": 52776356,
        "last_rank": 53345,
        "player_name": "Padraig Mulry",
        "rank": 73983,
        "rank_sort": 74273,
        "total": 2338
      },
      {
        "club_badge_src": null,
        "entry": 6613109,
        "entry_name": "Xabi Alonsonly",
        "event_total": 50,
        "has_played": true,
        "id": 52840042,
        "last_rank": 61950,
        "player_name": "Borja Gomez",
        "rank": 73983,
        "rank_sort": 74274,
        "total": 2338
      },
      {
        "club_badge_src": null,
        "entry": 6622983,
        "entry_name": "Spartans",
        "event_total": 50,
        "has_played": true,
        "id": 52925933,
        "last_rank": 48197,
        "player_name": "Karun Jain",
        "rank": 73983,
        "rank_sort": 74275,
        "total": 2338
      },
      {
        "club_badge_src": null,
        "entry": 6780677,
        "entry_name": "Faroos",
        "event_total": 60,
        "has_played": true,
        "id": 54295695,
        "last_rank": 82398,
        "player_name": "Mohamed Fares",
        "rank": 73983,
        "rank_sort": 74276,
        "total": 2338
      },
      {
        "club_badge_src": null,
        "entry": 6801457,
        "entry_name": "A Cunha Mateta",
        "event_total": 55,
        "has_played": true,
        "id": 54468391,
        "last_rank": 71386,
        "player_name": "Krishan Lad",
        "rank": 73983,
        "rank_sort": 74277,
        "total": 2338
      },
      {
        "club_badge_src": null,
        "entry": 7039420,
        "entry_name": "C.o.Me",
        "event_total": 69,
        "has_played": true,
        "id": 56593301,
        "last_rank": 103978,
        "player_name": "Derek Chemiati",
        "rank": 73983,
        "rank_sort": 74278,
        "total": 2338
      },
      {
        "club_badge_src": null,
        "entry": 7072263,
        "entry_name": "garudan",
        "event_total": 48,
        "has_played": true,
        "id": 56910151,
        "last_rank": 58388,
        "player_name": "Ajeesh Messi",
        "rank": 73983,
        "rank_sort": 74279,
        "total": 2338
      },
      {
        "club_badge_src": null,
        "entry": 7092884,
        "entry_name": "Rem fc",
        "event_total": 40,
        "has_played": true,
        "id": 57108338,
        "last_rank": 45714,
        "player_name": "Tobias Remme",
        "rank": 73983,
        "rank_sort": 74280,
        "total": 2338
      },
      {
        "club_badge_src": null,
        "entry": 7171261,
        "entry_name": "Cole'd As Ice",
        "event_total": 65,
        "has_played": true,
        "id": 57864876,
        "last_rank": 93443,
        "player_name": "Tom Byfield",
        "rank": 73983,
        "rank_sort": 74281,
        "total": 2338
      },
      {
        "club_badge_src": null,
        "entry": 7276357,
        "entry_name": "Klopps & Robbers",
        "event_total": 47,
        "has_played": true,
        "id": 58852813,
        "last_rank": 56708,
        "player_name": "Nathan Owusu-Attafuah",
        "rank": 73983,
        "rank_sort": 74282,
        "total": 2338
      },
      {
        "club_badge_src": null,
        "entry": 7317833,
        "entry_name": "CasinoSlots",
        "event_total": 63,
        "has_played": true,
        "id": 59243774,
        "last_rank": 89055,
        "player_name": "Wing Chu",
        "rank": 73983,
        "rank_sort": 74283,
        "total": 2338
      },
      {
        "club_badge_src": null,
        "entry": 7361637,
        "entry_name": "Cunha Kick It?",
        "event_total": 75,
        "has_played": true,
        "id": 59657308,
        "last_rank": 121383,
        "player_name": "Jonathan Pascoe",
        "rank": 73983,
        "rank_sort": 74284,
        "total": 2338
      },
      {
        "club_badge_src": null,
        "entry": 7387838,
        "entry_name": "Wirtz Case Scenario",
        "event_total": 60,
        "has_played": true,
        "id": 59899324,
        "last_rank": 81646,
        "player_name": "Aleksi Hemminki",
        "rank": 73983,
        "rank_sort": 74285,
        "total": 2338
      },
      {
        "club_badge_src": null,
        "entry": 7419076,
        "entry_name": "Streakyblues",
        "event_total": 40,
        "has_played": true,
        "id": 60237352,
        "last_rank": 45714,
        "player_name": "Peter Johnston",
        "rank": 73983,
        "rank_sort": 74286,
        "total": 2338
      },
      {
        "club_badge_src": "https://fantasy.premierleague.com/gcs/plfpl-production-adobe-approved/plfpl-production/7482399/d9f437cf-1400-4ac6-824f-764693b9b34e.png",
        "entry": 7482399,
        "entry_name": "mcF(S-D)c",
        "event_total": 54,
        "has_played": true,
        "id": 61054113,
        "last_rank": 69323,
        "player_name": "Freddie Swales-Dawson",
        "rank": 73983,
        "rank_sort": 74287,
        "total": 2338
      },
      {
        "club_badge_src": null,
        "entry": 7483530,
        "entry_name": "Robbos Rebels",
        "event_total": 67,
        "has_played": true,
        "id": 61068315,
        "last_rank": 98896,
        "player_name": "Keith Robson",
        "rank": 73983,
        "rank_sort": 74288,
        "total": 2338
      },
      {
        "club_badge_src": null,
        "entry": 7499838,
        "entry_name": "RndmWlk99",
        "event_total": 62,
        "has_played": true,
        "id": 61276721,
        "last_rank": 86735,
        "player_name": "Paul Graf",
        "rank": 73983,
        "rank_sort": 74289,
        "total": 2338
      },
      {
        "club_badge_src": null,
        "entry": 7530693,
        "entry_name": "FC Diglet",
        "event_total": 51,
        "has_played": true,
        "id": 61635235,
        "last_rank": 63724,
        "player_name": "Cathy Harvey",
        "rank": 73983,
        "rank_sort": 74290,
        "total": 2338
      },
      {
        "club_badge_src": null,
        "entry": 7552468,
        "entry_name": "onanawhatsmyname",
        "event_total": 62,
        "has_played": true,
        "id": 61834451,
        "last_rank": 87074,
        "player_name": "Harry Miners",
        "rank": 73983,
        "rank_sort": 74291,
        "total": 2338
      },
      {
        "club_badge_src": null,
        "entry": 7586601,
        "entry_name": "S&VVD",
        "event_total": 53,
        "has_played": true,
        "id": 62143135,
        "last_rank": 67422,
        "player_name": "Anna Rowley",
        "rank": 73983,
        "rank_sort": 74292,
        "total": 2338
      },
      {
        "club_badge_src": null,
        "entry": 7599133,
        "entry_name": "Hacunha Mateta",
        "event_total": 65,
        "has_played": true,
        "id": 62257012,
        "last_rank": 93443,
        "player_name": "Warren John",
        "rank": 73983,
        "rank_sort": 74293,
        "total": 2338
      },
      {
        "club_badge_src": "https://fantasy.premierleague.com/gcs/plfpl-production-adobe-approved/plfpl-production/7626331/e20682e5-df6d-4747-88d7-a75ae36565e7.png",
        "entry": 7626331,
        "entry_name": "SheWoreAYellowRibbon",
        "event_total": 58,
        "has_played": true,
        "id": 62503201,
        "last_rank": 77258,
        "player_name": "Bruce Trevithick",
        "rank": 73983,
        "rank_sort": 74294,
        "total": 2338
      },
      {
        "club_badge_src": null,
        "entry": 7846698,
        "entry_name": "Tegatos",
        "event_total": 70,
        "has_played": true,
        "id": 64500892,
        "last_rank": 106259,
        "player_name": "Oghenetega Olemu",
        "rank": 73983,
        "rank_sort": 74295,
        "total": 2338
      },
      {
        "club_badge_src": null,
        "entry": 8059561,
        "entry_name": "Hello Kitty",
        "event_total": 45,
        "has_played": true,
        "id": 66424161,
        "last_rank": 53345,
        "player_name": "Awang Amaluddin",
        "rank": 73983,
        "rank_sort": 74296,
        "total": 2338
      },
      {
        "club_badge_src": null,
        "entry": 8086709,
        "entry_name": "Chow That",
        "event_total": 70,
        "has_played": true,
        "id": 66677811,
        "last_rank": 106763,
        "player_name": "Greg McLaughlin",
        "rank": 73983,
        "rank_sort": 74297,
        "total": 2338
      },
      {
        "club_badge_src": null,
        "entry": 8296851,
        "entry_name": "MAKING GAINS",
        "event_total": 58,
        "has_played": true,
        "id": 68676656,
        "last_rank": 68957,
        "player_name": "Martin Lewis",
        "rank": 73983,
        "rank_sort": 74298,
        "total": 2338
      },
      {
        "club_badge_src": null,
        "entry": 8297362,
        "entry_name": "Newcomers",
        "event_total": 54,
        "has_played": true,
        "id": 68682060,
        "last_rank": 68748,
        "player_name": "Anton Gribog",
        "rank": 73983,
        "rank_sort": 74299,
        "total": 2338
      },
      {
        "club_badge_src": null,
        "entry": 8596565,
        "entry_name": "Amsies",
        "event_total": 40,
        "has_played": true,
        "id": 71565045,
        "last_rank": 45416,
        "player_name": "Muhammad Zulfikar",
        "rank": 73983,
        "rank_sort": 74300,
        "total": 2338
      }
    ]
  }
}