{
  "last_updated_data": "2026-05-24T23:28:17Z",
  "league": {
    "admin_entry": null,
    "closed": false,
    "code_privacy": "p",
    "created": "2025-07-20T23:14:33.933835Z",
    "cup_league": 2815434,
    "has_cup": true,
    "id": 314,
    "league_type": "s",
    "max_entries": null,
    "name": "Overall",
    "rank": null,
    "scoring": "c",
    "start_event": 1
  },
  "new_entries": {
    "has_next": false,
    "page": 1,
    "results": []
  },
  "standings": {
    "has_next": true,
    "page": 653,
    "results": [
      {
        "club_badge_src": null,
        "entry": 967300,
        "entry_name": "Yoro Wizard Lenny",
        "event_total": 61,
        "has_played": true,
        "id": 6666868,
        "last_rank": 32335,
        "player_name": "Endre D\u00f8skeland",
        "rank": 32571,
        "rank_sort": 32601,
        "total": 2366
      },
      {
        "club_badge_src": null,
        "entry": 1004269,
        "entry_name": "l i v e r p h o l",
        "event_total": 63,
        "has_played": true,
        "id": 6942220,
        "last_rank": 39510,
        "player_name": "pholtana wongsuchart",
        "rank": 32571,
        "rank_sort": 32602,
        "total": 2366
      },
      {
        "club_badge_src": null,
        "entry": 1089959,
        "entry_name": "Utopia",
        "event_total": 59,
        "has_played": true,
        "id": 7548735,
        "last_rank": 26230,
        "player_name": "Sherif Ashraf",
        "rank": 32571,
        "rank_sort": 32603,
        "total": 2366
      },
      {
        "club_badge_src": null,
        "entry": 1103815,
        "entry_name": "HUWDU NIEZWYCI\u0118\u017bONY",
        "event_total": 61,
        "has_played": true,
        "id": 7645773,
        "last_rank": 37058,
        "player_name": "Adrian Kaszak",
        "rank": 32571,
        "rank_sort": 32604,
        "total": 2366
      },
      {
        "club_badge_src": null,
        "entry": 1262991,
        "entry_name": "davidessmma",
        "event_total": 67,
        "has_played": true,
        "id": 8775171,
        "last_rank": 44525,
        "player_name": "David Z\u00e1me\u010dn\u00edk",
        "rank": 32571,
        "rank_sort": 32605,
        "total": 2366
      },
      {
        "club_badge_src": null,
        "entry": 1310859,
        "entry_name": "Yes I Am Number One",
        "event_total": 57,
        "has_played": true,
        "id": 9111554,
        "last_rank": 32335,
        "player_name": "Ihab Elkebbe",
        "rank": 32571,
        "rank_sort": 32606,
        "total": 2366
      },
      {
        "club_badge_src": null,
        "entry": 1331051,
        "entry_name": "MoSalah Always Right",
        "event_total": 43,
        "has_played": true,
        "id": 9251841,
        "last_rank": 19966,
        "player_name": "Deni Budiyanto",
        "rank": 32571,
        "rank_sort": 32607,
        "total": 2366
      },
      {
        "club_badge_src": null,
        "entry": 1340128,
        "entry_name": "Rice, Rice, Baby",
        "event_total": 69,
        "has_played": true,
        "id": 9317219,
        "last_rank": 41824,
        "player_name": "Dan Houiellebecq",
        "rank": 32571,
        "rank_sort": 32608,
        "total": 2366
      },
      {
        "club_badge_src": null,
        "entry": 1352757,
        "entry_name": "FC Bayada",
        "event_total": 72,
        "has_played": true,
        "id": 9404113,
        "last_rank": 46106,
        "player_name": "rani sarkis",
        "rank": 32571,
        "rank_sort": 32609,
        "total": 2366
      },
      {
        "club_badge_src": null,
        "entry": 1444423,
        "entry_name": "STRICTLY FPL!!",
        "event_total": 66,
        "has_played": true,
        "id": 10065053,
        "last_rank": 38163,
        "player_name": "LAWRENCE ASIDI",
        "rank": 32571,
        "rank_sort": 32610,
        "total": 2366
      },
      {
        "club_badge_src": null,
        "entry": 1566419,
        "entry_name": "Helmy",
        "event_total": 53,
        "has_played": true,
        "id": 10942508,
        "last_rank": 24570,
        "player_name": "Ahmed Helmy",
        "rank": 32571,
        "rank_sort": 32611,
        "total": 2366
      },
      {
        "club_badge_src": "https://fantasy.premierleague.com/gcs/plfpl-production-adobe-approved/plfpl-production/1784802/f19afd7c-26ef-4a58-bb7c-61b53bf0f3ec.png",
        "entry": 1784802,
        "entry_name": "Atl\u00e9tico Andyroo",
        "event_total": 47,
        "has_played": true,
        "id": 12540009,
        "last_rank": 22996,
        "player_name": "Andrew Gerrard",
        "rank": 32571,
        "rank_sort": 32612,
        "total": 2366
      },
      {
        "club_badge_src": null,
        "entry": 1894577,
        "entry_name": "FC Ellmo Van Basten",
        "event_total": 67,
        "has_played": true,
        "id": 13353617,
        "last_rank": 44804,
        "player_name": "Elliot Rivett",
        "rank": 32571,
        "rank_sort": 32613,
        "total": 2366
      },
      {
        "club_badge_src": null,
        "entry": 1940216,
        "entry_name": "Tactically Astute-",
        "event_total": 59,
        "has_played": true,
        "id": 13685414,
        "last_rank": 34682,
        "player_name": "Farrukh Sufi",
        "rank": 32571,
        "rank_sort": 32614,
        "total": 2366
      },
      {
        "club_badge_src": "https://fantasy.premierleague.com/gcs/plfpl-production-adobe-approved/plfpl-production/2006871/d201db22-ccef-460f-8a27-9f4845173996.png",
        "entry": 2006871,
        "entry_name": "Frimp My Ride",
        "event_total": 57,
        "has_played": true,
        "id": 14189243,
        "last_rank": 32437,
        "player_name": "Tom Higham",
        "rank": 32571,
        "rank_sort": 32615,
        "total": 2366
      },
      {
        "club_badge_src": null,
        "entry": 2191313,
        "entry_name": "\u0627\u0644\u0634\u0644\u0643\u0634",
        "event_total": 62,
        "has_played": true,
        "id": 15590203,
        "last_rank": 38267,
        "player_name": "Tony Fathy",
        "rank": 32571,
        "rank_sort": 32616,
        "total": 2366
      },
      {
        "club_badge_src": null,
        "entry": 2267468,
        "entry_name": "Canopoi",
        "event_total": 59,
        "has_played": true,
        "id": 16167797,
        "last_rank": 30191,
        "player_name": "Suhail AlOmair",
        "rank": 32571,
        "rank_sort": 32617,
        "total": 2366
      },
      {
        "club_badge_src": null,
        "entry": 2353738,
        "entry_name": "Fishi",
        "event_total": 46,
        "has_played": true,
        "id": 16794814,
        "last_rank": 22216,
        "player_name": "Marc Fischer",
        "rank": 32571,
        "rank_sort": 32618,
        "total": 2366
      },
      {
        "club_badge_src": null,
        "entry": 2392563,
        "entry_name": "Wazzis Elva",
        "event_total": 54,
        "has_played": true,
        "id": 17091134,
        "last_rank": 29279,
        "player_name": "Oliwer Mannerstr\u00f6m",
        "rank": 32571,
        "rank_sort": 32619,
        "total": 2366
      },
      {
        "club_badge_src": null,
        "entry": 2583421,
        "entry_name": "Bedre enn Gundersen",
        "event_total": 60,
        "has_played": true,
        "id": 18544057,
        "last_rank": 23522,
        "player_name": "Ole P Henriksen",
        "rank": 32571,
        "rank_sort": 32620,
        "total": 2366
      },
      {
        "club_badge_src": null,
        "entry": 2587614,
        "entry_name": "Artes",
        "event_total": 54,
        "has_played": true,
        "id": 18576368,
        "last_rank": 25436,
        "player_name": "Francis Linn",
        "rank": 32571,
        "rank_sort": 32621,
        "total": 2366
      },
      {
        "club_badge_src": null,
        "entry": 2833193,
        "entry_name": "Ayew Serious?",
        "event_total": 59,
        "has_played": true,
        "id": 20703331,
        "last_rank": 26230,
        "player_name": "Kristian Krohn-Holm",
        "rank": 32571,
        "rank_sort": 32622,
        "total": 2366
      },
      {
        "club_badge_src": null,
        "entry": 2836350,
        "entry_name": "PjanicAtTheIsco",
        "event_total": 57,
        "has_played": true,
        "id": 20728107,
        "last_rank": 24475,
        "player_name": "Louie Cochrane",
        "rank": 32571,
        "rank_sort": 32623,
        "total": 2366
      },
      {
        "club_badge_src": null,
        "entry": 2954785,
        "entry_name": "Eze Come Eze Go",
        "event_total": 75,
        "has_played": true,
        "id": 21702137,
        "last_rank": 50199,
        "player_name": "Jason Lee",
        "rank": 32571,
        "rank_sort": 32624,
        "total": 2366
      },
      {
        "club_badge_src": null,
        "entry": 3012410,
        "entry_name": "Split the stevie g",
        "event_total": 61,
        "has_played": true,
        "id": 22161204,
        "last_rank": 32335,
        "player_name": "Tim Boogaard",
        "rank": 32571,
        "rank_sort": 32625,
        "total": 2366
      },
      {
        "club_badge_src": null,
        "entry": 3125622,
        "entry_name": "U\u010ditelji",
        "event_total": 68,
        "has_played": true,
        "id": 23067733,
        "last_rank": 40647,
        "player_name": "Stefan Toroman",
        "rank": 32571,
        "rank_sort": 32626,
        "total": 2366
      },
      {
        "club_badge_src": null,
        "entry": 3402377,
        "entry_name": "aboabdo",
        "event_total": 53,
        "has_played": true,
        "id": 25262886,
        "last_rank": 24570,
        "player_name": "MEHMET TALIP",
        "rank": 32571,
        "rank_sort": 32627,
        "total": 2366
      },
      {
        "club_badge_src": "https://fantasy.premierleague.com/gcs/plfpl-production-adobe-approved/plfpl-production/3592294/889b98a1-7e2c-42e6-87cc-926035b6c035.png",
        "entry": 3592294,
        "entry_name": "Fc-RayonX",
        "event_total": 72,
        "has_played": true,
        "id": 26754018,
        "last_rank": 52357,
        "player_name": "Taha Bennaceur",
        "rank": 32571,
        "rank_sort": 32628,
        "total": 2366
      },
      {
        "club_badge_src": "https://fantasy.premierleague.com/gcs/plfpl-production-adobe-approved/plfpl-production/3961637/e943e313-412d-43f1-99d7-e8e627b48c19.png",
        "entry": 3961637,
        "entry_name": "PremierGPT",
        "event_total": 57,
        "has_played": true,
        "id": 29807092,
        "last_rank": 32437,
        "player_name": "Karam Chadha",
        "rank": 32571,
        "rank_sort": 32629,
        "total": 2366
      },
      {
        "club_badge_src": null,
        "entry": 4028847,
        "entry_name": "Could Be Wirtz FC",
        "event_total": 56,
        "has_played": true,
        "id": 30371124,
        "last_rank": 27304,
        "player_name": "Michael Lawton",
        "rank": 32571,
        "rank_sort": 32630,
        "total": 2366
      },
      {
        "club_badge_src": null,
        "entry": 4083934,
        "entry_name": "Don't Kobbie me",
        "event_total": 61,
        "has_played": true,
        "id": 30831498,
        "last_rank": 31747,
        "player_name": "Christian Henriksen",
        "rank": 32571,
        "rank_sort": 32631,
        "total": 2366
      },
      {
        "club_badge_src": null,
        "entry": 4128821,
        "entry_name": "The Champians",
        "event_total": 57,
        "has_played": true,
        "id": 31199542,
        "last_rank": 32437,
        "player_name": "Ian Upcott",
        "rank": 32571,
        "rank_sort": 32632,
        "total": 2366
      },
      {
        "club_badge_src": null,
        "entry": 4437399,
        "entry_name": "Winter is coming",
        "event_total": 86,
        "has_played": true,
        "id": 33787385,
        "last_rank": 77258,
        "player_name": "Omar Elweekeel",
        "rank": 32571,
        "rank_sort": 32633,
        "total": 2366
      },
      {
        "club_badge_src": null,
        "entry": 5055919,
        "entry_name": "Dangerous Minds",
        "event_total": 68,
        "has_played": true,
        "id": 39065997,
        "last_rank": 35619,
        "player_name": "Prakash Hira",
        "rank": 32571,
        "rank_sort": 32634,
        "total": 2366
      },
      {
        "club_badge_src": null,
        "entry": 5156265,
        "entry_name": "Dilbah drill",
        "event_total": 52,
        "has_played": true,
        "id": 39896380,
        "last_rank": 27364,
        "player_name": "Josh Hale",
        "rank": 32571,
        "rank_sort": 32635,
        "total": 2366
      },
      {
        "club_badge_src": null,
        "entry": 5449869,
        "entry_name": "DoTheAyatollah",
        "event_total": 50,
        "has_played": true,
        "id": 42407934,
        "last_rank": 25517,
        "player_name": "Gareth John",
        "rank": 32571,
        "rank_sort": 32636,
        "total": 2366
      },
      {
        "club_badge_src": null,
        "entry": 5601175,
        "entry_name": "Strand Larceny",
        "event_total": 76,
        "has_played": true,
        "id": 43766563,
        "last_rank": 45927,
        "player_name": "Dominic Lay",
        "rank": 32571,
        "rank_sort": 32637,
        "total": 2366
      },
      {
        "club_badge_src": null,
        "entry": 5621465,
        "entry_name": "KRIEGLER B",
        "event_total": 57,
        "has_played": true,
        "id": 43943156,
        "last_rank": 32491,
        "player_name": "CHARLES KIRINGA",
        "rank": 32571,
        "rank_sort": 32638,
        "total": 2366
      },
      {
        "club_badge_src": null,
        "entry": 5787583,
        "entry_name": "Game of Stones",
        "event_total": 35,
        "has_played": true,
        "id": 45388024,
        "last_rank": 14712,
        "player_name": "Bailey Sherlock",
        "rank": 32571,
        "rank_sort": 32639,
        "total": 2366
      },
      {
        "club_badge_src": null,
        "entry": 5898142,
        "entry_name": "SKY",
        "event_total": 61,
        "has_played": true,
        "id": 46337727,
        "last_rank": 37058,
        "player_name": "Yaasiin Dauhoo",
        "rank": 32571,
        "rank_sort": 32640,
        "total": 2366
      },
      {
        "club_badge_src": null,
        "entry": 6111080,
        "entry_name": "LucasPlayz",
        "event_total": 62,
        "has_played": true,
        "id": 48272911,
        "last_rank": 38016,
        "player_name": "Lucas Evison",
        "rank": 32571,
        "rank_sort": 32641,
        "total": 2366
      },
      {
        "club_badge_src": "https://fantasy.premierleague.com/gcs/plfpl-production-adobe-approved/plfpl-production/6137991/71240890-a127-4b28-bed9-5276c610c777.png",
        "entry": 6137991,
        "entry_name": "Trowel and Error",
        "event_total": 65,
        "has_played": true,
        "id": 48508206,
        "last_rank": 32190,
        "player_name": "Juliet Graham",
        "rank": 32571,
        "rank_sort": 32642,
        "total": 2366
      },
      {
        "club_badge_src": null,
        "entry": 6322953,
        "entry_name": "ChaYen",
        "event_total": 78,
        "has_played": true,
        "id": 50218756,
        "last_rank": 62429,
        "player_name": "Sirirat Thatmas",
        "rank": 32571,
        "rank_sort": 32643,
        "total": 2366
      },
      {
        "club_badge_src": "https://fantasy.premierleague.com/gcs/plfpl-production-adobe-approved/plfpl-production/6764003/28495bde-ca00-4418-9033-7c15913cdd90.png",
        "entry": 6764003,
        "entry_name": "Witchfinder",
        "event_total": 65,
        "has_played": true,
        "id": 54157375,
        "last_rank": 36963,
        "player_name": "Naveen Natarajan",
        "rank": 32571,
        "rank_sort": 32644,
        "total": 2366
      },
      {
        "club_badge_src": null,
        "entry": 6871423,
        "entry_name": "Boehlywood FC",
        "event_total": 60,
        "has_played": true,
        "id": 55062257,
        "last_rank": 31236,
        "player_name": "Niklas Eriksen",
        "rank": 32571,
        "rank_sort": 32645,
        "total": 2366
      },
      {
        "club_badge_src": null,
        "entry": 6966800,
        "entry_name": "R\u00f8de Kner United",
        "event_total": 73,
        "has_played": true,
        "id": 55878214,
        "last_rank": 53952,
        "player_name": "Johannes Holstad T\u00f8nder",
        "rank": 32571,
        "rank_sort": 32646,
        "total": 2366
      },
      {
        "club_badge_src": null,
        "entry": 7020085,
        "entry_name": "Goal diggers FC",
        "event_total": 46,
        "has_played": true,
        "id": 56388292,
        "last_rank": 22216,
        "player_name": "Nadeem Mattath",
        "rank": 32571,
        "rank_sort": 32647,
        "total": 2366
      },
      {
        "club_badge_src": null,
        "entry": 7136126,
        "entry_name": "Bad Belly XII",
        "event_total": 66,
        "has_played": true,
        "id": 57519404,
        "last_rank": 38163,
        "player_name": "John Weldon",
        "rank": 32571,
        "rank_sort": 32648,
        "total": 2366
      },
      {
        "club_badge_src": null,
        "entry": 7289281,
        "entry_name": "Last XI",
        "event_total": 59,
        "has_played": true,
        "id": 58976434,
        "last_rank": 34682,
        "player_name": "David Brassil",
        "rank": 32571,
        "rank_sort": 32649,
        "total": 2366
      },
      {
        "club_badge_src": null,
        "entry": 8663315,
        "entry_name": "Arteta's Bottlejobs",
        "event_total": 60,
        "has_played": true,
        "id": 72222034,
        "last_rank": 35867,
        "player_name": "George McCall",
        "rank": 32571,
        "rank_sort": 32650,
        "total": 2366
      }
    ]
  }
}