{
  "last_updated_data": "2026-05-24T23:28:17Z",
  "league": {
    "admin_entry": null,
    "closed": false,
    "code_privacy": "p",
    "created": "2025-07-20T23:14:33.933835Z",
    "cup_league": 2815434,
    "has_cup": true,
    "id": 314,
    "league_type": "s",
    "max_entries": null,
    "name": "Overall",
    "rank": null,
    "scoring": "c",
    "start_event": 1
  },
  "new_entries": {
    "has_next": false,
    "page": 1,
    "results": []
  },
  "standings": {
    "has_next": true,
    "page": 1333,
    "results": [
      {
        "club_badge_src": null,
        "entry": 7787504,
        "entry_name": "Gakpo & Chill",
        "event_total": 47,
        "has_played": true,
        "id": 63961107,
        "last_rank": 49880,
        "player_name": "Wayne Brown",
        "rank": 66338,
        "rank_sort": 66601,
        "total": 2342
      },
      {
        "club_badge_src": "https://fantasy.premierleague.com/gcs/plfpl-production-adobe-approved/plfpl-production/8024844/35f5f49f-fdc3-46e9-bbfe-ad70dab84248.png",
        "entry": 8024844,
        "entry_name": "Mr. Kipling\u2019s Angels",
        "event_total": 59,
        "has_played": true,
        "id": 66108642,
        "last_rank": 71386,
        "player_name": "Jeremy Henderson",
        "rank": 66338,
        "rank_sort": 66602,
        "total": 2342
      },
      {
        "club_badge_src": null,
        "entry": 8070440,
        "entry_name": "Heung-Min Daughter",
        "event_total": 44,
        "has_played": true,
        "id": 66525800,
        "last_rank": 45714,
        "player_name": "Sophie Kim",
        "rank": 66338,
        "rank_sort": 66603,
        "total": 2342
      },
      {
        "club_badge_src": null,
        "entry": 8155809,
        "entry_name": "Under my Cucurella",
        "event_total": 60,
        "has_played": true,
        "id": 67322699,
        "last_rank": 64943,
        "player_name": "Feisal Salah",
        "rank": 66338,
        "rank_sort": 66604,
        "total": 2342
      },
      {
        "club_badge_src": null,
        "entry": 8217158,
        "entry_name": "People on a pitch",
        "event_total": 53,
        "has_played": true,
        "id": 67904057,
        "last_rank": 60168,
        "player_name": "Dave Kingston",
        "rank": 66338,
        "rank_sort": 66605,
        "total": 2342
      },
      {
        "club_badge_src": "https://fantasy.premierleague.com/gcs/plfpl-production-adobe-approved/plfpl-production/8257531/80e1e803-f0d9-4bbe-aed4-336124a052ba.png",
        "entry": 8257531,
        "entry_name": "H@$$@n",
        "event_total": 50,
        "has_played": true,
        "id": 68296769,
        "last_rank": 55014,
        "player_name": "\u062d\u0633\u0646 \u062d\u0633\u0646",
        "rank": 66338,
        "rank_sort": 66606,
        "total": 2342
      },
      {
        "club_badge_src": "https://fantasy.premierleague.com/gcs/plfpl-production-adobe-approved/plfpl-production/8270330/e1797e99-9b49-4867-9334-84b052267e59.png",
        "entry": 8270330,
        "entry_name": "Corn on the Kobbie's",
        "event_total": 60,
        "has_played": true,
        "id": 68417734,
        "last_rank": 73038,
        "player_name": "Sam Thwaites",
        "rank": 66338,
        "rank_sort": 66607,
        "total": 2342
      },
      {
        "club_badge_src": "https://fantasy.premierleague.com/gcs/plfpl-production-adobe-approved/plfpl-production/8284131/5e49cafe-6019-4143-a334-9a8d21c43005.png",
        "entry": 8284131,
        "entry_name": "P\u00f8lsemester",
        "event_total": 69,
        "has_played": true,
        "id": 68548140,
        "last_rank": 94255,
        "player_name": "Elvar Freyr Steinarsson",
        "rank": 66338,
        "rank_sort": 66608,
        "total": 2342
      },
      {
        "club_badge_src": null,
        "entry": 8302602,
        "entry_name": "HK Rovers",
        "event_total": 62,
        "has_played": true,
        "id": 68737160,
        "last_rank": 77258,
        "player_name": "Hans-Kristian Neteland",
        "rank": 66338,
        "rank_sort": 66609,
        "total": 2342
      },
      {
        "club_badge_src": "https://fantasy.premierleague.com/gcs/plfpl-production-adobe-approved/plfpl-production/8664540/d62c295b-b881-4018-a3d4-91b0342b80e6.png",
        "entry": 8664540,
        "entry_name": "Crystal Pints",
        "event_total": 49,
        "has_played": true,
        "id": 72234060,
        "last_rank": 53345,
        "player_name": "Karl Gr\u00e4ske",
        "rank": 66338,
        "rank_sort": 66610,
        "total": 2342
      },
      {
        "club_badge_src": null,
        "entry": 8800716,
        "entry_name": "Lil Uzi Wirtz",
        "event_total": 58,
        "has_played": true,
        "id": 73551909,
        "last_rank": 61411,
        "player_name": "J M",
        "rank": 66338,
        "rank_sort": 66611,
        "total": 2342
      },
      {
        "club_badge_src": null,
        "entry": 8805555,
        "entry_name": "Bastian's 31",
        "event_total": 61,
        "has_played": true,
        "id": 73598270,
        "last_rank": 75537,
        "player_name": "Bastian Bundu",
        "rank": 66338,
        "rank_sort": 66612,
        "total": 2342
      },
      {
        "club_badge_src": "https://fantasy.premierleague.com/gcs/plfpl-production-adobe-approved/plfpl-production/8843120/0c5a1bd9-eda1-4958-b376-2cadcdc5c00f.png",
        "entry": 8843120,
        "entry_name": "Breakout Bandits",
        "event_total": 69,
        "has_played": true,
        "id": 73960023,
        "last_rank": 93443,
        "player_name": "Miran Mahmud",
        "rank": 66338,
        "rank_sort": 66613,
        "total": 2342
      },
      {
        "club_badge_src": null,
        "entry": 8866883,
        "entry_name": "kinder Mbuemo",
        "event_total": 57,
        "has_played": true,
        "id": 74189446,
        "last_rank": 67063,
        "player_name": "Thomas Smith",
        "rank": 66338,
        "rank_sort": 66614,
        "total": 2342
      },
      {
        "club_badge_src": null,
        "entry": 8871926,
        "entry_name": "Saka White Rice",
        "event_total": 47,
        "has_played": true,
        "id": 74237035,
        "last_rank": 50199,
        "player_name": "Daniel Payne",
        "rank": 66338,
        "rank_sort": 66615,
        "total": 2342
      },
      {
        "club_badge_src": null,
        "entry": 8879824,
        "entry_name": "Change Name",
        "event_total": 74,
        "has_played": true,
        "id": 74313135,
        "last_rank": 105963,
        "player_name": "Ryan Binns",
        "rank": 66338,
        "rank_sort": 66616,
        "total": 2342
      },
      {
        "club_badge_src": null,
        "entry": 8976294,
        "entry_name": "F.C.7azem",
        "event_total": 67,
        "has_played": true,
        "id": 75252942,
        "last_rank": 79431,
        "player_name": "Mustafa Shawkat",
        "rank": 66338,
        "rank_sort": 66617,
        "total": 2342
      },
      {
        "club_badge_src": null,
        "entry": 9036363,
        "entry_name": "Totally Clueless",
        "event_total": 70,
        "has_played": true,
        "id": 75831744,
        "last_rank": 86304,
        "player_name": "Gault Picken",
        "rank": 66338,
        "rank_sort": 66618,
        "total": 2342
      },
      {
        "club_badge_src": null,
        "entry": 9358042,
        "entry_name": "pep roulette",
        "event_total": 65,
        "has_played": true,
        "id": 78964132,
        "last_rank": 75139,
        "player_name": "Will Franklin",
        "rank": 66338,
        "rank_sort": 66619,
        "total": 2342
      },
      {
        "club_badge_src": "https://fantasy.premierleague.com/gcs/plfpl-production-adobe-approved/plfpl-production/10608928/b69f7d03-8bc6-4319-83f6-68a5963d7297.png",
        "entry": 10608928,
        "entry_name": "GOONERS FC",
        "event_total": 63,
        "has_played": true,
        "id": 89655841,
        "last_rank": 79817,
        "player_name": "Avihai Kikoz",
        "rank": 66338,
        "rank_sort": 66620,
        "total": 2342
      },
      {
        "club_badge_src": "https://fantasy.premierleague.com/gcs/plfpl-production-adobe-approved/plfpl-production/686/9b681379-eac2-4c59-b0c5-32c9b14fc9bd.png",
        "entry": 686,
        "entry_name": "Expected VARiance",
        "event_total": 62,
        "has_played": true,
        "id": 3785,
        "last_rank": 69323,
        "player_name": "Rob Westaway",
        "rank": 66621,
        "rank_sort": 66621,
        "total": 2342
      },
      {
        "club_badge_src": null,
        "entry": 3516,
        "entry_name": "Wirtz Nightmare",
        "event_total": 49,
        "has_played": true,
        "id": 19938,
        "last_rank": 53621,
        "player_name": "Adam Henderson",
        "rank": 66621,
        "rank_sort": 66622,
        "total": 2342
      },
      {
        "club_badge_src": null,
        "entry": 4199,
        "entry_name": "4ever Bowen Bubbles",
        "event_total": 61,
        "has_played": true,
        "id": 23844,
        "last_rank": 67422,
        "player_name": "Ben Gadd",
        "rank": 66621,
        "rank_sort": 66623,
        "total": 2342
      },
      {
        "club_badge_src": "https://fantasy.premierleague.com/gcs/plfpl-production-adobe-approved/plfpl-production/7078/dca31df7-2dcf-4f19-83bb-45c21da2a9f3.png",
        "entry": 7078,
        "entry_name": "Bols\u00f8ya Wanderers",
        "event_total": 66,
        "has_played": true,
        "id": 40765,
        "last_rank": 87074,
        "player_name": "Daniel Bols\u00f8",
        "rank": 66621,
        "rank_sort": 66624,
        "total": 2342
      },
      {
        "club_badge_src": "https://fantasy.premierleague.com/gcs/plfpl-production-adobe-approved/plfpl-production/13836/e92ed78e-1c08-44e2-8a51-a19c10364a1a.png",
        "entry": 13836,
        "entry_name": "Prancing Devils",
        "event_total": 64,
        "has_played": true,
        "id": 83765,
        "last_rank": 73038,
        "player_name": "William Wright",
        "rank": 66621,
        "rank_sort": 66625,
        "total": 2342
      },
      {
        "club_badge_src": null,
        "entry": 19813,
        "entry_name": "The Black Ones",
        "event_total": 51,
        "has_played": true,
        "id": 123304,
        "last_rank": 50199,
        "player_name": "Favour Teibowei",
        "rank": 66621,
        "rank_sort": 66626,
        "total": 2342
      },
      {
        "club_badge_src": "https://fantasy.premierleague.com/gcs/plfpl-production-adobe-approved/plfpl-production/28652/61722783-8ff2-41ae-9b71-60c8c3dd3216.png",
        "entry": 28652,
        "entry_name": "Mayden Heaven",
        "event_total": 71,
        "has_played": true,
        "id": 181144,
        "last_rank": 98436,
        "player_name": "Ethan Melvill",
        "rank": 66621,
        "rank_sort": 66627,
        "total": 2342
      },
      {
        "club_badge_src": null,
        "entry": 30354,
        "entry_name": "Shy Tall Knights",
        "event_total": 68,
        "has_played": true,
        "id": 192098,
        "last_rank": 82069,
        "player_name": "Carl Sinfield",
        "rank": 66621,
        "rank_sort": 66628,
        "total": 2342
      },
      {
        "club_badge_src": null,
        "entry": 30667,
        "entry_name": "amir hisham",
        "event_total": 64,
        "has_played": true,
        "id": 194085,
        "last_rank": 82069,
        "player_name": "Amir Hisham",
        "rank": 66621,
        "rank_sort": 66629,
        "total": 2342
      },
      {
        "club_badge_src": null,
        "entry": 32054,
        "entry_name": "Restored",
        "event_total": 80,
        "has_played": true,
        "id": 203638,
        "last_rank": 124682,
        "player_name": "Rajkumar Tharu",
        "rank": 66621,
        "rank_sort": 66630,
        "total": 2342
      },
      {
        "club_badge_src": null,
        "entry": 33316,
        "entry_name": "Chamakh My Arse FC",
        "event_total": 60,
        "has_played": true,
        "id": 212443,
        "last_rank": 73720,
        "player_name": "George Hunt",
        "rank": 66621,
        "rank_sort": 66631,
        "total": 2342
      },
      {
        "club_badge_src": null,
        "entry": 38849,
        "entry_name": "TJFC",
        "event_total": 59,
        "has_played": true,
        "id": 249046,
        "last_rank": 71386,
        "player_name": "Taehyun Jun",
        "rank": 66621,
        "rank_sort": 66632,
        "total": 2342
      },
      {
        "club_badge_src": null,
        "entry": 42040,
        "entry_name": "Blue Cake",
        "event_total": 72,
        "has_played": true,
        "id": 269403,
        "last_rank": 101818,
        "player_name": "John Connor",
        "rank": 66621,
        "rank_sort": 66633,
        "total": 2342
      },
      {
        "club_badge_src": null,
        "entry": 44265,
        "entry_name": "One Season Wonder",
        "event_total": 61,
        "has_played": true,
        "id": 283656,
        "last_rank": 67063,
        "player_name": "Lukas Chovan",
        "rank": 66621,
        "rank_sort": 66634,
        "total": 2342
      },
      {
        "club_badge_src": null,
        "entry": 45089,
        "entry_name": "P\u00e5 byn",
        "event_total": 59,
        "has_played": true,
        "id": 289148,
        "last_rank": 71386,
        "player_name": "\u00d8yvind Ringseth",
        "rank": 66621,
        "rank_sort": 66635,
        "total": 2342
      },
      {
        "club_badge_src": null,
        "entry": 48479,
        "entry_name": "Running Points FC",
        "event_total": 50,
        "has_played": true,
        "id": 311339,
        "last_rank": 55311,
        "player_name": "Marcin Rydzewski",
        "rank": 66621,
        "rank_sort": 66636,
        "total": 2342
      },
      {
        "club_badge_src": "https://fantasy.premierleague.com/gcs/plfpl-production-adobe-approved/plfpl-production/53841/00531b5e-8ded-404f-bc05-9a803019f9de.png",
        "entry": 53841,
        "entry_name": "FC Lost Dif",
        "event_total": 68,
        "has_played": true,
        "id": 346477,
        "last_rank": 81646,
        "player_name": "Mykyta Bondar",
        "rank": 66621,
        "rank_sort": 66637,
        "total": 2342
      },
      {
        "club_badge_src": null,
        "entry": 55087,
        "entry_name": "Count Doku",
        "event_total": 61,
        "has_played": true,
        "id": 354552,
        "last_rank": 59813,
        "player_name": "Rhys Bending",
        "rank": 66621,
        "rank_sort": 66638,
        "total": 2342
      },
      {
        "club_badge_src": null,
        "entry": 55919,
        "entry_name": "NeverTrustPep",
        "event_total": 52,
        "has_played": true,
        "id": 360125,
        "last_rank": 51403,
        "player_name": "Tom C",
        "rank": 66621,
        "rank_sort": 66639,
        "total": 2342
      },
      {
        "club_badge_src": null,
        "entry": 56742,
        "entry_name": "FC Butcher",
        "event_total": 64,
        "has_played": true,
        "id": 365512,
        "last_rank": 82069,
        "player_name": "Andrew Youssef",
        "rank": 66621,
        "rank_sort": 66640,
        "total": 2342
      },
      {
        "club_badge_src": null,
        "entry": 57682,
        "entry_name": "Kudus Loves Spurs",
        "event_total": 58,
        "has_played": true,
        "id": 371616,
        "last_rank": 54667,
        "player_name": "Ethan Abrahams",
        "rank": 66621,
        "rank_sort": 66641,
        "total": 2342
      },
      {
        "club_badge_src": null,
        "entry": 59812,
        "entry_name": "Could be Wirtz",
        "event_total": 55,
        "has_played": true,
        "id": 385142,
        "last_rank": 56369,
        "player_name": "Morgan Campbell",
        "rank": 66621,
        "rank_sort": 66642,
        "total": 2342
      },
      {
        "club_badge_src": null,
        "entry": 63759,
        "entry_name": "Qaddory FC",
        "event_total": 72,
        "has_played": true,
        "id": 411432,
        "last_rank": 81420,
        "player_name": "Qaddory Ali",
        "rank": 66621,
        "rank_sort": 66643,
        "total": 2342
      },
      {
        "club_badge_src": "https://fantasy.premierleague.com/gcs/plfpl-production-adobe-approved/plfpl-production/63982/1638e025-17ce-4b81-adfa-ebbbd29ffaa0.png",
        "entry": 63982,
        "entry_name": "ArsenalFantasy25/26",
        "event_total": 52,
        "has_played": true,
        "id": 412883,
        "last_rank": 58688,
        "player_name": "Chuba Chine",
        "rank": 66621,
        "rank_sort": 66644,
        "total": 2342
      },
      {
        "club_badge_src": null,
        "entry": 64277,
        "entry_name": "Bando",
        "event_total": 63,
        "has_played": true,
        "id": 414854,
        "last_rank": 80194,
        "player_name": "Leart Ademi",
        "rank": 66621,
        "rank_sort": 66645,
        "total": 2342
      },
      {
        "club_badge_src": null,
        "entry": 64928,
        "entry_name": "Pyret Pangar",
        "event_total": 66,
        "has_played": true,
        "id": 419123,
        "last_rank": 87074,
        "player_name": "Adam Nordbeck",
        "rank": 66621,
        "rank_sort": 66646,
        "total": 2342
      },
      {
        "club_badge_src": null,
        "entry": 66410,
        "entry_name": "Sayed M3zaa \ufffd",
        "event_total": 64,
        "has_played": true,
        "id": 429337,
        "last_rank": 73423,
        "player_name": "Ahmmed Mostafa",
        "rank": 66621,
        "rank_sort": 66647,
        "total": 2342
      },
      {
        "club_badge_src": "https://fantasy.premierleague.com/gcs/plfpl-production-adobe-approved/plfpl-production/69148/81169e2a-9b4f-4bf4-90d7-4c90e2a38e27.png",
        "entry": 69148,
        "entry_name": "Random Dutch Guy FC",
        "event_total": 66,
        "has_played": true,
        "id": 448336,
        "last_rank": 87074,
        "player_name": "Marcel den Adel",
        "rank": 66621,
        "rank_sort": 66648,
        "total": 2342
      },
      {
        "club_badge_src": null,
        "entry": 78180,
        "entry_name": "Caldicot Saints",
        "event_total": 49,
        "has_played": true,
        "id": 508302,
        "last_rank": 47163,
        "player_name": "Michael Bradley",
        "rank": 66621,
        "rank_sort": 66649,
        "total": 2342
      },
      {
        "club_badge_src": "https://fantasy.premierleague.com/gcs/plfpl-production-adobe-approved/plfpl-production/80851/3758dde3-d940-45d5-af92-c5fd8bb71889.png",
        "entry": 80851,
        "entry_name": "Old James Trafford",
        "event_total": 47,
        "has_played": true,
        "id": 526018,
        "last_rank": 50199,
        "player_name": "David Kova\u010di\u0107",
        "rank": 66621,
        "rank_sort": 66650,
        "total": 2342
      }
    ]
  }
}