{
  "last_updated_data": "2026-05-24T23:28:17Z",
  "league": {
    "admin_entry": null,
    "closed": false,
    "code_privacy": "p",
    "created": "2025-07-20T23:14:33.933835Z",
    "cup_league": 2815434,
    "has_cup": true,
    "id": 314,
    "league_type": "s",
    "max_entries": null,
    "name": "Overall",
    "rank": null,
    "scoring": "c",
    "start_event": 1
  },
  "new_entries": {
    "has_next": false,
    "page": 1,
    "results": []
  },
  "standings": {
    "has_next": true,
    "page": 345,
    "results": [
      {
        "club_badge_src": null,
        "entry": 2247196,
        "entry_name": "Ja sam tu biciklom",
        "event_total": 57,
        "has_played": true,
        "id": 16011271,
        "last_rank": 16729,
        "player_name": "Marko Banek",
        "rank": 17139,
        "rank_sort": 17201,
        "total": 2384
      },
      {
        "club_badge_src": null,
        "entry": 2382176,
        "entry_name": "sgum pommaidh",
        "event_total": 60,
        "has_played": true,
        "id": 17010791,
        "last_rank": 18790,
        "player_name": "Ross Gilligan",
        "rank": 17139,
        "rank_sort": 17202,
        "total": 2384
      },
      {
        "club_badge_src": null,
        "entry": 2424029,
        "entry_name": "Mainoo Event",
        "event_total": 53,
        "has_played": true,
        "id": 17331857,
        "last_rank": 14370,
        "player_name": "Gavin Alford",
        "rank": 17139,
        "rank_sort": 17203,
        "total": 2384
      },
      {
        "club_badge_src": null,
        "entry": 2474822,
        "entry_name": "Misfits",
        "event_total": 63,
        "has_played": true,
        "id": 17706124,
        "last_rank": 20983,
        "player_name": "Phil Moule",
        "rank": 17139,
        "rank_sort": 17204,
        "total": 2384
      },
      {
        "club_badge_src": null,
        "entry": 2538205,
        "entry_name": "Clockwork Papaya",
        "event_total": 59,
        "has_played": true,
        "id": 18190388,
        "last_rank": 18113,
        "player_name": "Jeff Jin",
        "rank": 17139,
        "rank_sort": 17205,
        "total": 2384
      },
      {
        "club_badge_src": null,
        "entry": 2598737,
        "entry_name": "Amooreim",
        "event_total": 63,
        "has_played": true,
        "id": 18663279,
        "last_rank": 20983,
        "player_name": "Charlotte Moore",
        "rank": 17139,
        "rank_sort": 17206,
        "total": 2384
      },
      {
        "club_badge_src": null,
        "entry": 2635281,
        "entry_name": "KPFC",
        "event_total": 84,
        "has_played": true,
        "id": 18939674,
        "last_rank": 42940,
        "player_name": "Krishna Parekh",
        "rank": 17139,
        "rank_sort": 17207,
        "total": 2384
      },
      {
        "club_badge_src": null,
        "entry": 2686053,
        "entry_name": "Livin Saliba Loca",
        "event_total": 56,
        "has_played": true,
        "id": 19319297,
        "last_rank": 16039,
        "player_name": "Kevin S",
        "rank": 17139,
        "rank_sort": 17208,
        "total": 2384
      },
      {
        "club_badge_src": "https://fantasy.premierleague.com/gcs/plfpl-production-adobe-approved/plfpl-production/2779985/fb97932a-100f-4435-bef5-89c78cad64f7.png",
        "entry": 2779985,
        "entry_name": "LFCHK",
        "event_total": 66,
        "has_played": true,
        "id": 20289671,
        "last_rank": 23522,
        "player_name": "Jay Maan",
        "rank": 17139,
        "rank_sort": 17209,
        "total": 2384
      },
      {
        "club_badge_src": null,
        "entry": 2835665,
        "entry_name": "komma",
        "event_total": 46,
        "has_played": true,
        "id": 20722671,
        "last_rank": 10748,
        "player_name": "Konsta Kinnunen",
        "rank": 17139,
        "rank_sort": 17210,
        "total": 2384
      },
      {
        "club_badge_src": null,
        "entry": 2837945,
        "entry_name": "NASY",
        "event_total": 70,
        "has_played": true,
        "id": 20740359,
        "last_rank": 26710,
        "player_name": "Luke Kim",
        "rank": 17139,
        "rank_sort": 17211,
        "total": 2384
      },
      {
        "club_badge_src": null,
        "entry": 2857623,
        "entry_name": "Behind Emery Lines",
        "event_total": 64,
        "has_played": true,
        "id": 20896534,
        "last_rank": 21775,
        "player_name": "Glenn O Donovan",
        "rank": 17139,
        "rank_sort": 17212,
        "total": 2384
      },
      {
        "club_badge_src": null,
        "entry": 2927617,
        "entry_name": "De Ligt ful",
        "event_total": 71,
        "has_played": true,
        "id": 21463219,
        "last_rank": 27564,
        "player_name": "Krish Anand",
        "rank": 17139,
        "rank_sort": 17213,
        "total": 2384
      },
      {
        "club_badge_src": "https://fantasy.premierleague.com/gcs/plfpl-production-adobe-approved/plfpl-production/2953143/677ba8bf-1dd7-42ba-bf01-ad6fe73ca672.png",
        "entry": 2953143,
        "entry_name": "SPursy",
        "event_total": 57,
        "has_played": true,
        "id": 21689269,
        "last_rank": 16729,
        "player_name": "Kitsadar Prosumneng",
        "rank": 17139,
        "rank_sort": 17214,
        "total": 2384
      },
      {
        "club_badge_src": "https://fantasy.premierleague.com/gcs/plfpl-production-adobe-approved/plfpl-production/2987799/e3ba9d34-1876-4e94-8109-798b4992f27a.png",
        "entry": 2987799,
        "entry_name": "Lage Lagesson",
        "event_total": 56,
        "has_played": true,
        "id": 21971488,
        "last_rank": 16163,
        "player_name": "Joacim Nilsson",
        "rank": 17139,
        "rank_sort": 17215,
        "total": 2384
      },
      {
        "club_badge_src": null,
        "entry": 3010064,
        "entry_name": "Duke City FC",
        "event_total": 77,
        "has_played": true,
        "id": 22143216,
        "last_rank": 33936,
        "player_name": "Willy Simon",
        "rank": 17139,
        "rank_sort": 17216,
        "total": 2384
      },
      {
        "club_badge_src": null,
        "entry": 3014797,
        "entry_name": "MoreCherkiMrChandler",
        "event_total": 67,
        "has_played": true,
        "id": 22179739,
        "last_rank": 24039,
        "player_name": "David Barclay",
        "rank": 17139,
        "rank_sort": 17217,
        "total": 2384
      },
      {
        "club_badge_src": null,
        "entry": 3016184,
        "entry_name": "Amfel",
        "event_total": 61,
        "has_played": true,
        "id": 22190471,
        "last_rank": 19544,
        "player_name": "Marcin K",
        "rank": 17139,
        "rank_sort": 17218,
        "total": 2384
      },
      {
        "club_badge_src": null,
        "entry": 3094514,
        "entry_name": "khaled alsaeedi",
        "event_total": 46,
        "has_played": true,
        "id": 22806770,
        "last_rank": 10805,
        "player_name": "\u062e\u0627\u0644\u062f \u0627\u0644\u0628\u0631\u0642\u0627",
        "rank": 17139,
        "rank_sort": 17219,
        "total": 2384
      },
      {
        "club_badge_src": null,
        "entry": 3131688,
        "entry_name": "BangDeWinFC",
        "event_total": 59,
        "has_played": true,
        "id": 23115321,
        "last_rank": 18029,
        "player_name": "C N",
        "rank": 17139,
        "rank_sort": 17220,
        "total": 2384
      },
      {
        "club_badge_src": null,
        "entry": 3246481,
        "entry_name": "Hodel\u00f8se H\u00f8ns",
        "event_total": 68,
        "has_played": true,
        "id": 24017236,
        "last_rank": 24857,
        "player_name": "J\u00f8rgen Vaaler",
        "rank": 17139,
        "rank_sort": 17221,
        "total": 2384
      },
      {
        "club_badge_src": null,
        "entry": 3251600,
        "entry_name": "American Pie",
        "event_total": 64,
        "has_played": true,
        "id": 24057494,
        "last_rank": 21677,
        "player_name": "Scott Horton",
        "rank": 17139,
        "rank_sort": 17222,
        "total": 2384
      },
      {
        "club_badge_src": null,
        "entry": 3427215,
        "entry_name": "Hacunha Mateta",
        "event_total": 76,
        "has_played": true,
        "id": 25459079,
        "last_rank": 32688,
        "player_name": "Paul Beale",
        "rank": 17139,
        "rank_sort": 17223,
        "total": 2384
      },
      {
        "club_badge_src": null,
        "entry": 3461092,
        "entry_name": "thereisbearkamp fc",
        "event_total": 35,
        "has_played": true,
        "id": 25727105,
        "last_rank": 6752,
        "player_name": "luke hornett",
        "rank": 17139,
        "rank_sort": 17224,
        "total": 2384
      },
      {
        "club_badge_src": null,
        "entry": 3493583,
        "entry_name": "Kamen Ingrad",
        "event_total": 68,
        "has_played": true,
        "id": 25985100,
        "last_rank": 24897,
        "player_name": "Patrik Turkalj",
        "rank": 17139,
        "rank_sort": 17225,
        "total": 2384
      },
      {
        "club_badge_src": null,
        "entry": 3509132,
        "entry_name": "Livin' Saliba Loca",
        "event_total": 74,
        "has_played": true,
        "id": 26109937,
        "last_rank": 30727,
        "player_name": "Dan Beckles",
        "rank": 17139,
        "rank_sort": 17226,
        "total": 2384
      },
      {
        "club_badge_src": null,
        "entry": 3511231,
        "entry_name": "Rashford2Glory",
        "event_total": 70,
        "has_played": true,
        "id": 26126560,
        "last_rank": 26710,
        "player_name": "Abeshegk R",
        "rank": 17139,
        "rank_sort": 17227,
        "total": 2384
      },
      {
        "club_badge_src": null,
        "entry": 3513919,
        "entry_name": "PhaedsAway",
        "event_total": 65,
        "has_played": true,
        "id": 26147525,
        "last_rank": 22426,
        "player_name": "Phaedra Nicholls",
        "rank": 17139,
        "rank_sort": 17228,
        "total": 2384
      },
      {
        "club_badge_src": null,
        "entry": 3550468,
        "entry_name": "The Polished Turds",
        "event_total": 47,
        "has_played": true,
        "id": 26432151,
        "last_rank": 11237,
        "player_name": "James Sinclair",
        "rank": 17139,
        "rank_sort": 17229,
        "total": 2384
      },
      {
        "club_badge_src": null,
        "entry": 3668521,
        "entry_name": "Fpl Rat FC",
        "event_total": 73,
        "has_played": true,
        "id": 27359319,
        "last_rank": 29522,
        "player_name": "Josh Harrop",
        "rank": 17139,
        "rank_sort": 17230,
        "total": 2384
      },
      {
        "club_badge_src": null,
        "entry": 3711102,
        "entry_name": "bachalar",
        "event_total": 61,
        "has_played": true,
        "id": 27691648,
        "last_rank": 19432,
        "player_name": "Khusniddin Abdufattokhov",
        "rank": 17139,
        "rank_sort": 17231,
        "total": 2384
      },
      {
        "club_badge_src": null,
        "entry": 3766070,
        "entry_name": "Dirtbags",
        "event_total": 57,
        "has_played": true,
        "id": 28119711,
        "last_rank": 16729,
        "player_name": "Kurt Hayward",
        "rank": 17139,
        "rank_sort": 17232,
        "total": 2384
      },
      {
        "club_badge_src": null,
        "entry": 3771437,
        "entry_name": "Abu Mohammed",
        "event_total": 69,
        "has_played": true,
        "id": 28160119,
        "last_rank": 25902,
        "player_name": "Ziyad -",
        "rank": 17139,
        "rank_sort": 17233,
        "total": 2384
      },
      {
        "club_badge_src": null,
        "entry": 3879935,
        "entry_name": "El Pero Grande",
        "event_total": 46,
        "has_played": true,
        "id": 29152668,
        "last_rank": 10920,
        "player_name": "Annabelle Verry",
        "rank": 17139,
        "rank_sort": 17234,
        "total": 2384
      },
      {
        "club_badge_src": null,
        "entry": 4077979,
        "entry_name": "Top of the Slots",
        "event_total": 51,
        "has_played": true,
        "id": 30783467,
        "last_rank": 13257,
        "player_name": "Nathan Berkley",
        "rank": 17139,
        "rank_sort": 17235,
        "total": 2384
      },
      {
        "club_badge_src": null,
        "entry": 4197992,
        "entry_name": "Wirtz case scenario",
        "event_total": 61,
        "has_played": true,
        "id": 31775575,
        "last_rank": 19432,
        "player_name": "Seth Davies",
        "rank": 17139,
        "rank_sort": 17236,
        "total": 2384
      },
      {
        "club_badge_src": null,
        "entry": 4329856,
        "entry_name": "Change Name",
        "event_total": 47,
        "has_played": true,
        "id": 32865753,
        "last_rank": 11142,
        "player_name": "Jack Beattie",
        "rank": 17139,
        "rank_sort": 17237,
        "total": 2384
      },
      {
        "club_badge_src": null,
        "entry": 4411556,
        "entry_name": "JammyFC",
        "event_total": 61,
        "has_played": true,
        "id": 33559269,
        "last_rank": 19392,
        "player_name": "James Storry",
        "rank": 17139,
        "rank_sort": 17238,
        "total": 2384
      },
      {
        "club_badge_src": null,
        "entry": 4469001,
        "entry_name": "Big Willie Style",
        "event_total": 66,
        "has_played": true,
        "id": 34054044,
        "last_rank": 23341,
        "player_name": "Willie Yidman",
        "rank": 17139,
        "rank_sort": 17239,
        "total": 2384
      },
      {
        "club_badge_src": null,
        "entry": 4522791,
        "entry_name": "fc tm",
        "event_total": 68,
        "has_played": true,
        "id": 34493656,
        "last_rank": 24897,
        "player_name": "Tadgh \u00d3 Murch\u00fa",
        "rank": 17139,
        "rank_sort": 17240,
        "total": 2384
      },
      {
        "club_badge_src": null,
        "entry": 4621298,
        "entry_name": "Wormhole Wanderlust",
        "event_total": 64,
        "has_played": true,
        "id": 35324244,
        "last_rank": 21628,
        "player_name": "Aravind G",
        "rank": 17139,
        "rank_sort": 17241,
        "total": 2384
      },
      {
        "club_badge_src": "https://fantasy.premierleague.com/gcs/plfpl-production-adobe-approved/plfpl-production/4720717/d876c343-f9bf-48f8-951c-2084c2bfb0ad.png",
        "entry": 4720717,
        "entry_name": "Allez Allez Allez",
        "event_total": 57,
        "has_played": true,
        "id": 36266120,
        "last_rank": 16702,
        "player_name": "Kevin Johnson",
        "rank": 17139,
        "rank_sort": 17242,
        "total": 2384
      },
      {
        "club_badge_src": null,
        "entry": 4825341,
        "entry_name": "Real Sosobad",
        "event_total": 49,
        "has_played": true,
        "id": 37162291,
        "last_rank": 12200,
        "player_name": "Jamie Cassidy",
        "rank": 17139,
        "rank_sort": 17243,
        "total": 2384
      },
      {
        "club_badge_src": null,
        "entry": 4837323,
        "entry_name": "YouTube Premium",
        "event_total": 51,
        "has_played": true,
        "id": 37261329,
        "last_rank": 13184,
        "player_name": "Jack Siah",
        "rank": 17139,
        "rank_sort": 17244,
        "total": 2384
      },
      {
        "club_badge_src": null,
        "entry": 4848422,
        "entry_name": "Rasclut UTD",
        "event_total": 75,
        "has_played": true,
        "id": 37353358,
        "last_rank": 31620,
        "player_name": "Ras K",
        "rank": 17139,
        "rank_sort": 17245,
        "total": 2384
      },
      {
        "club_badge_src": null,
        "entry": 4957242,
        "entry_name": "\u0160e\u0161ko Meal Deal",
        "event_total": 41,
        "has_played": true,
        "id": 38253204,
        "last_rank": 8758,
        "player_name": "Hazim Hamid",
        "rank": 17139,
        "rank_sort": 17246,
        "total": 2384
      },
      {
        "club_badge_src": null,
        "entry": 5030100,
        "entry_name": "Gooning for 2nd",
        "event_total": 61,
        "has_played": true,
        "id": 38850208,
        "last_rank": 19544,
        "player_name": "Jude Agostini",
        "rank": 17139,
        "rank_sort": 17247,
        "total": 2384
      },
      {
        "club_badge_src": "https://fantasy.premierleague.com/gcs/plfpl-production-adobe-approved/plfpl-production/5040406/8648bd58-0d49-4221-b880-f831aef84bdf.png",
        "entry": 5040406,
        "entry_name": "Cole World",
        "event_total": 60,
        "has_played": true,
        "id": 38933743,
        "last_rank": 18790,
        "player_name": "John Youssef",
        "rank": 17139,
        "rank_sort": 17248,
        "total": 2384
      },
      {
        "club_badge_src": null,
        "entry": 5176041,
        "entry_name": "balbla",
        "event_total": 55,
        "has_played": true,
        "id": 40062770,
        "last_rank": 15550,
        "player_name": "amr bolbol",
        "rank": 17139,
        "rank_sort": 17249,
        "total": 2384
      },
      {
        "club_badge_src": null,
        "entry": 5401014,
        "entry_name": "ViOl98",
        "event_total": 59,
        "has_played": true,
        "id": 41994615,
        "last_rank": 18029,
        "player_name": "Villiam Olsson",
        "rank": 17139,
        "rank_sort": 17250,
        "total": 2384
      }
    ]
  }
}