{
  "last_updated_data": "2026-05-24T23:28:17Z",
  "league": {
    "admin_entry": null,
    "closed": false,
    "code_privacy": "p",
    "created": "2025-07-20T23:14:33.933835Z",
    "cup_league": 2815434,
    "has_cup": true,
    "id": 314,
    "league_type": "s",
    "max_entries": null,
    "name": "Overall",
    "rank": null,
    "scoring": "c",
    "start_event": 1
  },
  "new_entries": {
    "has_next": false,
    "page": 1,
    "results": []
  },
  "standings": {
    "has_next": true,
    "page": 906,
    "results": [
      {
        "club_badge_src": null,
        "entry": 3814103,
        "entry_name": "Ao Tikitanaka",
        "event_total": 61,
        "has_played": true,
        "id": 28521590,
        "last_rank": 51220,
        "player_name": "Wayne Maw",
        "rank": 45077,
        "rank_sort": 45251,
        "total": 2355
      },
      {
        "club_badge_src": null,
        "entry": 3836466,
        "entry_name": "Midtable  FC",
        "event_total": 59,
        "has_played": true,
        "id": 28712095,
        "last_rank": 48197,
        "player_name": "Joshua Dixon",
        "rank": 45077,
        "rank_sort": 45252,
        "total": 2355
      },
      {
        "club_badge_src": null,
        "entry": 3871245,
        "entry_name": "Hakuna Mateta",
        "event_total": 46,
        "has_played": true,
        "id": 29046782,
        "last_rank": 31747,
        "player_name": "Ethan Smith",
        "rank": 45077,
        "rank_sort": 45253,
        "total": 2355
      },
      {
        "club_badge_src": null,
        "entry": 3884070,
        "entry_name": "Odegarden Party",
        "event_total": 47,
        "has_played": true,
        "id": 29185260,
        "last_rank": 32879,
        "player_name": "Richard Waller",
        "rank": 45077,
        "rank_sort": 45254,
        "total": 2355
      },
      {
        "club_badge_src": null,
        "entry": 3956359,
        "entry_name": "Gy\u00f6kalypse Now",
        "event_total": 73,
        "has_played": true,
        "id": 29765763,
        "last_rank": 72815,
        "player_name": "Sam Brunning",
        "rank": 45077,
        "rank_sort": 45255,
        "total": 2355
      },
      {
        "club_badge_src": null,
        "entry": 3971045,
        "entry_name": "City Zen",
        "event_total": 59,
        "has_played": true,
        "id": 29884058,
        "last_rank": 48363,
        "player_name": "Antoine Baijot",
        "rank": 45077,
        "rank_sort": 45256,
        "total": 2355
      },
      {
        "club_badge_src": "https://fantasy.premierleague.com/gcs/plfpl-production-adobe-approved/plfpl-production/3988699/bcf311d8-3e10-41d0-84f5-4169eb957974.png",
        "entry": 3988699,
        "entry_name": "brunos mannar",
        "event_total": 48,
        "has_played": true,
        "id": 30032041,
        "last_rank": 34051,
        "player_name": "Gabriel Wikholm",
        "rank": 45077,
        "rank_sort": 45257,
        "total": 2355
      },
      {
        "club_badge_src": null,
        "entry": 4003403,
        "entry_name": "Hauges soldater",
        "event_total": 40,
        "has_played": true,
        "id": 30155243,
        "last_rank": 25902,
        "player_name": "Jonas Hauge",
        "rank": 45077,
        "rank_sort": 45258,
        "total": 2355
      },
      {
        "club_badge_src": null,
        "entry": 4007213,
        "entry_name": "Molchat Roma",
        "event_total": 69,
        "has_played": true,
        "id": 30187050,
        "last_rank": 64943,
        "player_name": "JOE WORSLEY",
        "rank": 45077,
        "rank_sort": 45259,
        "total": 2355
      },
      {
        "club_badge_src": "https://fantasy.premierleague.com/gcs/plfpl-production-adobe-approved/plfpl-production/4079197/7d94dab9-9fbe-4021-bbf9-4fe1e1946658.png",
        "entry": 4079197,
        "entry_name": "Diogoal Machine",
        "event_total": 66,
        "has_played": true,
        "id": 30793247,
        "last_rank": 59632,
        "player_name": "Kris Mendonsa",
        "rank": 45077,
        "rank_sort": 45260,
        "total": 2355
      },
      {
        "club_badge_src": null,
        "entry": 4127401,
        "entry_name": "Palmer Violets",
        "event_total": 50,
        "has_played": true,
        "id": 31188058,
        "last_rank": 36348,
        "player_name": "Luke Miller",
        "rank": 45077,
        "rank_sort": 45261,
        "total": 2355
      },
      {
        "club_badge_src": null,
        "entry": 4149881,
        "entry_name": "ice cold",
        "event_total": 50,
        "has_played": true,
        "id": 31366079,
        "last_rank": 36348,
        "player_name": "Mazen Chaaban",
        "rank": 45077,
        "rank_sort": 45262,
        "total": 2355
      },
      {
        "club_badge_src": "https://fantasy.premierleague.com/gcs/plfpl-production-adobe-approved/plfpl-production/4164984/336bdf2f-6f24-49bf-a740-c63f0a96f27f.png",
        "entry": 4164984,
        "entry_name": "stifler",
        "event_total": 69,
        "has_played": true,
        "id": 31495605,
        "last_rank": 64943,
        "player_name": "stifler 1990",
        "rank": 45077,
        "rank_sort": 45263,
        "total": 2355
      },
      {
        "club_badge_src": "https://fantasy.premierleague.com/gcs/plfpl-production-adobe-approved/plfpl-production/4209037/5aa63cff-ed1e-494a-90cc-e2f4a1efd5e5.png",
        "entry": 4209037,
        "entry_name": "Inter Continental",
        "event_total": 50,
        "has_played": true,
        "id": 31866916,
        "last_rank": 36348,
        "player_name": "Graeme Powrie",
        "rank": 45077,
        "rank_sort": 45264,
        "total": 2355
      },
      {
        "club_badge_src": null,
        "entry": 4212928,
        "entry_name": "Habib 11",
        "event_total": 56,
        "has_played": true,
        "id": 31899421,
        "last_rank": 44048,
        "player_name": "Habib Hussain",
        "rank": 45077,
        "rank_sort": 45265,
        "total": 2355
      },
      {
        "club_badge_src": null,
        "entry": 4213363,
        "entry_name": "Arteta's Angels",
        "event_total": 56,
        "has_played": true,
        "id": 31903099,
        "last_rank": 44048,
        "player_name": "Anya H",
        "rank": 45077,
        "rank_sort": 45266,
        "total": 2355
      },
      {
        "club_badge_src": null,
        "entry": 4286220,
        "entry_name": "Red Revolution",
        "event_total": 68,
        "has_played": true,
        "id": 32510928,
        "last_rank": 63117,
        "player_name": "\u017dan Krnc",
        "rank": 45077,
        "rank_sort": 45267,
        "total": 2355
      },
      {
        "club_badge_src": "https://fantasy.premierleague.com/gcs/plfpl-production-adobe-approved/plfpl-production/4367854/37339581-7863-4c71-bfbe-d998a868a931.png",
        "entry": 4367854,
        "entry_name": "sushiro fc",
        "event_total": 58,
        "has_played": true,
        "id": 33180935,
        "last_rank": 46839,
        "player_name": "Spurskiller 69",
        "rank": 45077,
        "rank_sort": 45268,
        "total": 2355
      },
      {
        "club_badge_src": null,
        "entry": 4378927,
        "entry_name": "Hit the Beckenbauer",
        "event_total": 65,
        "has_played": true,
        "id": 33275596,
        "last_rank": 58071,
        "player_name": "Lucas Gualano",
        "rank": 45077,
        "rank_sort": 45269,
        "total": 2355
      },
      {
        "club_badge_src": null,
        "entry": 4395178,
        "entry_name": "ILLUSION",
        "event_total": 60,
        "has_played": true,
        "id": 33419449,
        "last_rank": 49880,
        "player_name": "Hemant Gogna",
        "rank": 45077,
        "rank_sort": 45270,
        "total": 2355
      },
      {
        "club_badge_src": null,
        "entry": 4427370,
        "entry_name": "Big Beat Manifesto",
        "event_total": 47,
        "has_played": true,
        "id": 33699633,
        "last_rank": 32879,
        "player_name": "Matt Hipwell",
        "rank": 45077,
        "rank_sort": 45271,
        "total": 2355
      },
      {
        "club_badge_src": null,
        "entry": 4484633,
        "entry_name": "Sosa",
        "event_total": 67,
        "has_played": true,
        "id": 34181088,
        "last_rank": 61606,
        "player_name": "Sosa Chamberlain",
        "rank": 45077,
        "rank_sort": 45272,
        "total": 2355
      },
      {
        "club_badge_src": null,
        "entry": 4559198,
        "entry_name": "\u900d\u9065\u5c0f\u5c27",
        "event_total": 53,
        "has_played": true,
        "id": 34789623,
        "last_rank": 39874,
        "player_name": "ren puyao",
        "rank": 45077,
        "rank_sort": 45273,
        "total": 2355
      },
      {
        "club_badge_src": null,
        "entry": 4584252,
        "entry_name": "Paenov",
        "event_total": 69,
        "has_played": true,
        "id": 34999014,
        "last_rank": 64777,
        "player_name": "Ivan Paenov",
        "rank": 45077,
        "rank_sort": 45274,
        "total": 2355
      },
      {
        "club_badge_src": null,
        "entry": 4604918,
        "entry_name": "Delapagos Islands",
        "event_total": 65,
        "has_played": true,
        "id": 35181668,
        "last_rank": 57857,
        "player_name": "Travis Ackermann",
        "rank": 45077,
        "rank_sort": 45275,
        "total": 2355
      },
      {
        "club_badge_src": null,
        "entry": 4623481,
        "entry_name": "Raya Light",
        "event_total": 62,
        "has_played": true,
        "id": 35345766,
        "last_rank": 53023,
        "player_name": "Chris George",
        "rank": 45077,
        "rank_sort": 45276,
        "total": 2355
      },
      {
        "club_badge_src": null,
        "entry": 4672364,
        "entry_name": "Borussia Teeth",
        "event_total": 60,
        "has_played": true,
        "id": 35791075,
        "last_rank": 49880,
        "player_name": "Vincenzo Iannone",
        "rank": 45077,
        "rank_sort": 45277,
        "total": 2355
      },
      {
        "club_badge_src": null,
        "entry": 4689170,
        "entry_name": "Miguel Utd",
        "event_total": 60,
        "has_played": true,
        "id": 35939019,
        "last_rank": 49880,
        "player_name": "Miguel Sierra",
        "rank": 45077,
        "rank_sort": 45278,
        "total": 2355
      },
      {
        "club_badge_src": null,
        "entry": 4739218,
        "entry_name": "Robinho",
        "event_total": 52,
        "has_played": true,
        "id": 36464064,
        "last_rank": 39023,
        "player_name": "Robin -",
        "rank": 45077,
        "rank_sort": 45279,
        "total": 2355
      },
      {
        "club_badge_src": "https://fantasy.premierleague.com/gcs/plfpl-production-adobe-approved/plfpl-production/4860485/7e7b0d43-ec31-4fd7-95f5-9eabb9183edd.png",
        "entry": 4860485,
        "entry_name": "Mr Marinakis's Mafia",
        "event_total": 52,
        "has_played": true,
        "id": 37456376,
        "last_rank": 38774,
        "player_name": "Rob Wallace",
        "rank": 45077,
        "rank_sort": 45280,
        "total": 2355
      },
      {
        "club_badge_src": null,
        "entry": 4884946,
        "entry_name": "Nickel Arteta",
        "event_total": 58,
        "has_played": true,
        "id": 37660328,
        "last_rank": 46660,
        "player_name": "Nick Falkner",
        "rank": 45077,
        "rank_sort": 45281,
        "total": 2355
      },
      {
        "club_badge_src": null,
        "entry": 4888793,
        "entry_name": "PAZZA5000 FC",
        "event_total": 65,
        "has_played": true,
        "id": 37692113,
        "last_rank": 58071,
        "player_name": "Paul Carrett",
        "rank": 45077,
        "rank_sort": 45282,
        "total": 2355
      },
      {
        "club_badge_src": null,
        "entry": 5055227,
        "entry_name": "Noni your business",
        "event_total": 65,
        "has_played": true,
        "id": 39060228,
        "last_rank": 57857,
        "player_name": "Aaron Sayers",
        "rank": 45077,
        "rank_sort": 45283,
        "total": 2355
      },
      {
        "club_badge_src": "https://fantasy.premierleague.com/gcs/plfpl-production-adobe-approved/plfpl-production/5123994/8f98ca97-64f1-444d-a253-e7892d467348.png",
        "entry": 5123994,
        "entry_name": "Mozla Utd",
        "event_total": 65,
        "has_played": true,
        "id": 39623660,
        "last_rank": 57857,
        "player_name": "Andy Morris",
        "rank": 45077,
        "rank_sort": 45284,
        "total": 2355
      },
      {
        "club_badge_src": null,
        "entry": 5311341,
        "entry_name": "Persibojan",
        "event_total": 64,
        "has_played": true,
        "id": 41171471,
        "last_rank": 56180,
        "player_name": "Nazmi Febrian",
        "rank": 45077,
        "rank_sort": 45285,
        "total": 2355
      },
      {
        "club_badge_src": null,
        "entry": 5412704,
        "entry_name": "netters",
        "event_total": 32,
        "has_played": true,
        "id": 42092306,
        "last_rank": 19432,
        "player_name": "Bryan Curnutte",
        "rank": 45077,
        "rank_sort": 45286,
        "total": 2355
      },
      {
        "club_badge_src": null,
        "entry": 5417621,
        "entry_name": "TVFOB FC",
        "event_total": 69,
        "has_played": true,
        "id": 42133629,
        "last_rank": 64943,
        "player_name": "Tom O Brien",
        "rank": 45077,
        "rank_sort": 45287,
        "total": 2355
      },
      {
        "club_badge_src": null,
        "entry": 5466545,
        "entry_name": "Maguiering",
        "event_total": 64,
        "has_played": true,
        "id": 42545735,
        "last_rank": 56369,
        "player_name": "Panayiotis Tavellas",
        "rank": 45077,
        "rank_sort": 45288,
        "total": 2355
      },
      {
        "club_badge_src": null,
        "entry": 5477733,
        "entry_name": "moonshasabigheadfc",
        "event_total": 61,
        "has_played": true,
        "id": 42645114,
        "last_rank": 51720,
        "player_name": "Kieran Ingram",
        "rank": 45077,
        "rank_sort": 45289,
        "total": 2355
      },
      {
        "club_badge_src": null,
        "entry": 5544706,
        "entry_name": "Only fools and Spurs",
        "event_total": 45,
        "has_played": true,
        "id": 43268603,
        "last_rank": 30727,
        "player_name": "Frankie Licheri",
        "rank": 45077,
        "rank_sort": 45290,
        "total": 2355
      },
      {
        "club_badge_src": null,
        "entry": 5572838,
        "entry_name": "WainoBall",
        "event_total": 47,
        "has_played": true,
        "id": 43518174,
        "last_rank": 32879,
        "player_name": "Luke Wain",
        "rank": 45077,
        "rank_sort": 45291,
        "total": 2355
      },
      {
        "club_badge_src": null,
        "entry": 5610203,
        "entry_name": "AFC Richmond",
        "event_total": 78,
        "has_played": true,
        "id": 43845101,
        "last_rank": 84360,
        "player_name": "Gabe Jonas",
        "rank": 45077,
        "rank_sort": 45292,
        "total": 2355
      },
      {
        "club_badge_src": null,
        "entry": 5643321,
        "entry_name": "Nordic God",
        "event_total": 58,
        "has_played": true,
        "id": 44136557,
        "last_rank": 46839,
        "player_name": "Nordic God --",
        "rank": 45077,
        "rank_sort": 45293,
        "total": 2355
      },
      {
        "club_badge_src": null,
        "entry": 5669118,
        "entry_name": "kudus be the one?",
        "event_total": 44,
        "has_played": true,
        "id": 44361115,
        "last_rank": 29904,
        "player_name": "Nathan Campanale",
        "rank": 45077,
        "rank_sort": 45294,
        "total": 2355
      },
      {
        "club_badge_src": null,
        "entry": 5782335,
        "entry_name": "LiVARpool",
        "event_total": 53,
        "has_played": true,
        "id": 45343459,
        "last_rank": 40036,
        "player_name": "Tao Emil Levinsen",
        "rank": 45077,
        "rank_sort": 45295,
        "total": 2355
      },
      {
        "club_badge_src": "https://fantasy.premierleague.com/gcs/plfpl-production-adobe-approved/plfpl-production/6023954/d7d4d6f7-4de3-45ed-b1c3-fdbaade114e3.png",
        "entry": 6023954,
        "entry_name": "A Le\u00e3o It Fam",
        "event_total": 32,
        "has_played": true,
        "id": 47512375,
        "last_rank": 19544,
        "player_name": "Lewis Guest",
        "rank": 45077,
        "rank_sort": 45296,
        "total": 2355
      },
      {
        "club_badge_src": null,
        "entry": 6123290,
        "entry_name": "Bluesy Boys",
        "event_total": 57,
        "has_played": true,
        "id": 48378994,
        "last_rank": 45252,
        "player_name": "Philip Richmond",
        "rank": 45077,
        "rank_sort": 45297,
        "total": 2355
      },
      {
        "club_badge_src": null,
        "entry": 6123338,
        "entry_name": "Hutchengladbach",
        "event_total": 57,
        "has_played": true,
        "id": 48379421,
        "last_rank": 45416,
        "player_name": "Tom Hutchings",
        "rank": 45077,
        "rank_sort": 45298,
        "total": 2355
      },
      {
        "club_badge_src": null,
        "entry": 6147663,
        "entry_name": "Fantasy Team",
        "event_total": 67,
        "has_played": true,
        "id": 48592308,
        "last_rank": 61606,
        "player_name": "SS Yong",
        "rank": 45077,
        "rank_sort": 45299,
        "total": 2355
      },
      {
        "club_badge_src": null,
        "entry": 6159586,
        "entry_name": "Frimp My Ride",
        "event_total": 57,
        "has_played": true,
        "id": 48695350,
        "last_rank": 45144,
        "player_name": "Charles Oyoo",
        "rank": 45077,
        "rank_sort": 45300,
        "total": 2355
      }
    ]
  }
}