{
  "last_updated_data": "2026-05-24T23:28:17Z",
  "league": {
    "admin_entry": null,
    "closed": false,
    "code_privacy": "p",
    "created": "2025-07-20T23:14:33.933835Z",
    "cup_league": 2815434,
    "has_cup": true,
    "id": 314,
    "league_type": "s",
    "max_entries": null,
    "name": "Overall",
    "rank": null,
    "scoring": "c",
    "start_event": 1
  },
  "new_entries": {
    "has_next": false,
    "page": 1,
    "results": []
  },
  "standings": {
    "has_next": true,
    "page": 703,
    "results": [
      {
        "club_badge_src": null,
        "entry": 7020266,
        "entry_name": "browny",
        "event_total": 69,
        "has_played": true,
        "id": 56389969,
        "last_rank": 51220,
        "player_name": "ryan brown",
        "rank": 35050,
        "rank_sort": 35101,
        "total": 2363
      },
      {
        "club_badge_src": null,
        "entry": 7296705,
        "entry_name": "Time square",
        "event_total": 53,
        "has_played": true,
        "id": 59045404,
        "last_rank": 30536,
        "player_name": "Abderrahmane Aknouze",
        "rank": 35050,
        "rank_sort": 35102,
        "total": 2363
      },
      {
        "club_badge_src": null,
        "entry": 7389463,
        "entry_name": "Football Heritage",
        "event_total": 55,
        "has_played": true,
        "id": 59914871,
        "last_rank": 32879,
        "player_name": "Ali Homsi",
        "rank": 35050,
        "rank_sort": 35103,
        "total": 2363
      },
      {
        "club_badge_src": null,
        "entry": 7581119,
        "entry_name": "arsenal",
        "event_total": 69,
        "has_played": true,
        "id": 62093599,
        "last_rank": 51403,
        "player_name": "nader hmdn",
        "rank": 35050,
        "rank_sort": 35104,
        "total": 2363
      },
      {
        "club_badge_src": null,
        "entry": 7638758,
        "entry_name": "kevin de bainez",
        "event_total": 49,
        "has_played": true,
        "id": 62614692,
        "last_rank": 26827,
        "player_name": "Jordan Cruden",
        "rank": 35050,
        "rank_sort": 35105,
        "total": 2363
      },
      {
        "club_badge_src": null,
        "entry": 7775687,
        "entry_name": "Kondix7",
        "event_total": 64,
        "has_played": true,
        "id": 63853950,
        "last_rank": 44048,
        "player_name": "Konrad Szewc",
        "rank": 35050,
        "rank_sort": 35106,
        "total": 2363
      },
      {
        "club_badge_src": null,
        "entry": 10287170,
        "entry_name": "Perfect Iraolas",
        "event_total": 54,
        "has_played": true,
        "id": 87114574,
        "last_rank": 31556,
        "player_name": "Thornton Heath",
        "rank": 35050,
        "rank_sort": 35107,
        "total": 2363
      },
      {
        "club_badge_src": null,
        "entry": 98,
        "entry_name": "Shepherd's Brew",
        "event_total": 45,
        "has_played": true,
        "id": 540,
        "last_rank": 23341,
        "player_name": "Jamie Shepherd",
        "rank": 35108,
        "rank_sort": 35108,
        "total": 2363
      },
      {
        "club_badge_src": "https://fantasy.premierleague.com/gcs/plfpl-production-adobe-approved/plfpl-production/197/3abd8a6f-d327-4ae4-859d-b84411459bd8.png",
        "entry": 197,
        "entry_name": "FANTASTIQUE",
        "event_total": 66,
        "has_played": true,
        "id": 1087,
        "last_rank": 46839,
        "player_name": "Jason H",
        "rank": 35108,
        "rank_sort": 35109,
        "total": 2363
      },
      {
        "club_badge_src": null,
        "entry": 261,
        "entry_name": "Steal Adobe",
        "event_total": 68,
        "has_played": true,
        "id": 1442,
        "last_rank": 49691,
        "player_name": "Sam T",
        "rank": 35108,
        "rank_sort": 35110,
        "total": 2363
      },
      {
        "club_badge_src": null,
        "entry": 762,
        "entry_name": "\u00d8deParfum",
        "event_total": 60,
        "has_played": true,
        "id": 4210,
        "last_rank": 38774,
        "player_name": "Nandish Gorasia",
        "rank": 35108,
        "rank_sort": 35111,
        "total": 2363
      },
      {
        "club_badge_src": null,
        "entry": 1921,
        "entry_name": "Cheeky Cunha\u2019s",
        "event_total": 71,
        "has_played": true,
        "id": 10712,
        "last_rank": 54494,
        "player_name": "Nadir Meherjina",
        "rank": 35108,
        "rank_sort": 35112,
        "total": 2363
      },
      {
        "club_badge_src": null,
        "entry": 5633,
        "entry_name": "HaCunha Mateta",
        "event_total": 72,
        "has_played": true,
        "id": 32128,
        "last_rank": 56069,
        "player_name": "Roberts Kalnberzins",
        "rank": 35108,
        "rank_sort": 35113,
        "total": 2363
      },
      {
        "club_badge_src": null,
        "entry": 9133,
        "entry_name": "A new Leif",
        "event_total": 49,
        "has_played": true,
        "id": 53548,
        "last_rank": 26827,
        "player_name": "Sam Cooper",
        "rank": 35108,
        "rank_sort": 35114,
        "total": 2363
      },
      {
        "club_badge_src": "https://fantasy.premierleague.com/gcs/plfpl-production-adobe-approved/plfpl-production/9804/e1df0b66-c5f3-4cec-9007-4854532f3cea.png",
        "entry": 9804,
        "entry_name": "Santa's Reijnders",
        "event_total": 60,
        "has_played": true,
        "id": 57793,
        "last_rank": 38644,
        "player_name": "Matthew Bower",
        "rank": 35108,
        "rank_sort": 35115,
        "total": 2363
      },
      {
        "club_badge_src": "https://fantasy.premierleague.com/gcs/plfpl-production-adobe-approved/plfpl-production/14757/ed2b5b2c-4e61-422f-a886-ccbe6c411651.png",
        "entry": 14757,
        "entry_name": "FC NOWE ZAGRODY",
        "event_total": 59,
        "has_played": true,
        "id": 89928,
        "last_rank": 37325,
        "player_name": "Adam Klu\u0144",
        "rank": 35108,
        "rank_sort": 35116,
        "total": 2363
      },
      {
        "club_badge_src": null,
        "entry": 17112,
        "entry_name": "InThePalmerMyHand FC",
        "event_total": 58,
        "has_played": true,
        "id": 106029,
        "last_rank": 36200,
        "player_name": "Joe Trigg",
        "rank": 35108,
        "rank_sort": 35117,
        "total": 2363
      },
      {
        "club_badge_src": null,
        "entry": 22587,
        "entry_name": "Lil Uzi Wirtz",
        "event_total": 53,
        "has_played": true,
        "id": 141893,
        "last_rank": 30536,
        "player_name": "Fred Jackson",
        "rank": 35108,
        "rank_sort": 35118,
        "total": 2363
      },
      {
        "club_badge_src": "https://fantasy.premierleague.com/gcs/plfpl-production-adobe-approved/plfpl-production/26714/00b88461-4125-4554-bbdf-c69d8d085485.png",
        "entry": 26714,
        "entry_name": "Lanley Staurel Utd",
        "event_total": 57,
        "has_played": true,
        "id": 168917,
        "last_rank": 35166,
        "player_name": "Ade Spencer",
        "rank": 35108,
        "rank_sort": 35119,
        "total": 2363
      },
      {
        "club_badge_src": null,
        "entry": 28066,
        "entry_name": "Kinder Mbeumo",
        "event_total": 67,
        "has_played": true,
        "id": 177498,
        "last_rank": 48363,
        "player_name": "Jacob Popple",
        "rank": 35108,
        "rank_sort": 35120,
        "total": 2363
      },
      {
        "club_badge_src": "https://fantasy.premierleague.com/gcs/plfpl-production-adobe-approved/plfpl-production/29974/e6b08b64-acea-4e87-bab3-b3836f02c034.png",
        "entry": 29974,
        "entry_name": "bricha youness",
        "event_total": 63,
        "has_played": true,
        "id": 189638,
        "last_rank": 42940,
        "player_name": "Youness bricha\ud83c\uddf2\ud83c\udde6",
        "rank": 35108,
        "rank_sort": 35121,
        "total": 2363
      },
      {
        "club_badge_src": "https://fantasy.premierleague.com/gcs/plfpl-production-adobe-approved/plfpl-production/34114/56f46b3b-6866-45c3-9327-89d99956b57b.png",
        "entry": 34114,
        "entry_name": "FC Easy Peasy",
        "event_total": 60,
        "has_played": true,
        "id": 217851,
        "last_rank": 39023,
        "player_name": "Matej Borovac Trkulja",
        "rank": 35108,
        "rank_sort": 35122,
        "total": 2363
      },
      {
        "club_badge_src": null,
        "entry": 36479,
        "entry_name": "Milosz Fc",
        "event_total": 61,
        "has_played": true,
        "id": 233540,
        "last_rank": 40036,
        "player_name": "Mi\u0142osz Manuszewski",
        "rank": 35108,
        "rank_sort": 35123,
        "total": 2363
      },
      {
        "club_badge_src": null,
        "entry": 38227,
        "entry_name": "Reece's Set Pieces",
        "event_total": 56,
        "has_played": true,
        "id": 244995,
        "last_rank": 33936,
        "player_name": "Justin Fouladbakhsh",
        "rank": 35108,
        "rank_sort": 35124,
        "total": 2363
      },
      {
        "club_badge_src": null,
        "entry": 44500,
        "entry_name": "Christian Clunk FC",
        "event_total": 76,
        "has_played": true,
        "id": 285212,
        "last_rank": 63117,
        "player_name": "Ben Butcher",
        "rank": 35108,
        "rank_sort": 35125,
        "total": 2363
      },
      {
        "club_badge_src": "https://fantasy.premierleague.com/gcs/plfpl-production-adobe-approved/plfpl-production/49809/2bb96036-105e-4f00-9114-0ca0e752e20e.png",
        "entry": 49809,
        "entry_name": "Moamar",
        "event_total": 58,
        "has_played": true,
        "id": 320211,
        "last_rank": 36348,
        "player_name": "Moamer Mustafa",
        "rank": 35108,
        "rank_sort": 35126,
        "total": 2363
      },
      {
        "club_badge_src": null,
        "entry": 51340,
        "entry_name": "haland",
        "event_total": 68,
        "has_played": true,
        "id": 330191,
        "last_rank": 49607,
        "player_name": "Mindor H\u00e5land",
        "rank": 35108,
        "rank_sort": 35127,
        "total": 2363
      },
      {
        "club_badge_src": "https://fantasy.premierleague.com/gcs/plfpl-production-adobe-approved/plfpl-production/55622/895e70a3-48e2-4023-9164-81af394638eb.png",
        "entry": 55622,
        "entry_name": "Michael cruncles",
        "event_total": 66,
        "has_played": true,
        "id": 358133,
        "last_rank": 46591,
        "player_name": "Tarek sayed",
        "rank": 35108,
        "rank_sort": 35128,
        "total": 2363
      },
      {
        "club_badge_src": null,
        "entry": 62230,
        "entry_name": "ThomasTheFrankEngine",
        "event_total": 61,
        "has_played": true,
        "id": 401020,
        "last_rank": 40036,
        "player_name": "Oliver Millhouse",
        "rank": 35108,
        "rank_sort": 35129,
        "total": 2363
      },
      {
        "club_badge_src": null,
        "entry": 69430,
        "entry_name": "Bay Harbour Kebabs",
        "event_total": 51,
        "has_played": true,
        "id": 450349,
        "last_rank": 28906,
        "player_name": "Ethan Bell",
        "rank": 35108,
        "rank_sort": 35130,
        "total": 2363
      },
      {
        "club_badge_src": null,
        "entry": 71250,
        "entry_name": "Team of SCOUNDRELS",
        "event_total": 61,
        "has_played": true,
        "id": 462755,
        "last_rank": 39874,
        "player_name": "Rupert Cross",
        "rank": 35108,
        "rank_sort": 35131,
        "total": 2363
      },
      {
        "club_badge_src": null,
        "entry": 71806,
        "entry_name": "Amorinthemoney",
        "event_total": 47,
        "has_played": true,
        "id": 466475,
        "last_rank": 25002,
        "player_name": "Kyle D",
        "rank": 35108,
        "rank_sort": 35132,
        "total": 2363
      },
      {
        "club_badge_src": null,
        "entry": 82038,
        "entry_name": "Viva El Fulham",
        "event_total": 60,
        "has_played": true,
        "id": 533757,
        "last_rank": 38774,
        "player_name": "Liam Lock",
        "rank": 35108,
        "rank_sort": 35133,
        "total": 2363
      },
      {
        "club_badge_src": null,
        "entry": 87860,
        "entry_name": "Peaky Reijnders",
        "event_total": 55,
        "has_played": true,
        "id": 573117,
        "last_rank": 32688,
        "player_name": "Jack Gibson",
        "rank": 35108,
        "rank_sort": 35134,
        "total": 2363
      },
      {
        "club_badge_src": null,
        "entry": 91987,
        "entry_name": "Freed from desire",
        "event_total": 66,
        "has_played": true,
        "id": 600972,
        "last_rank": 46660,
        "player_name": "Alexander Stewart",
        "rank": 35108,
        "rank_sort": 35135,
        "total": 2363
      },
      {
        "club_badge_src": null,
        "entry": 97503,
        "entry_name": "Looksgood Looksfine",
        "event_total": 56,
        "has_played": true,
        "id": 636815,
        "last_rank": 33936,
        "player_name": "Erez Dickfeld",
        "rank": 35108,
        "rank_sort": 35136,
        "total": 2363
      },
      {
        "club_badge_src": null,
        "entry": 98596,
        "entry_name": "COB FC",
        "event_total": 83,
        "has_played": true,
        "id": 643795,
        "last_rank": 77050,
        "player_name": "Carl-Oscar Backlund",
        "rank": 35108,
        "rank_sort": 35137,
        "total": 2363
      },
      {
        "club_badge_src": "https://fantasy.premierleague.com/gcs/plfpl-production-adobe-approved/plfpl-production/110785/3a5b6d5a-255e-4df0-a3b3-0c1c6c74819b.png",
        "entry": 110785,
        "entry_name": "Hughes a clever boy.",
        "event_total": 67,
        "has_played": true,
        "id": 722489,
        "last_rank": 48363,
        "player_name": "Marc Jowett",
        "rank": 35108,
        "rank_sort": 35138,
        "total": 2363
      },
      {
        "club_badge_src": "https://fantasy.premierleague.com/gcs/plfpl-production-adobe-approved/plfpl-production/112224/0460b413-8f5a-451a-bea0-8488b88a545b.png",
        "entry": 112224,
        "entry_name": "Give me a Shaw",
        "event_total": 68,
        "has_played": true,
        "id": 731665,
        "last_rank": 49572,
        "player_name": "Linus Orestav",
        "rank": 35108,
        "rank_sort": 35139,
        "total": 2363
      },
      {
        "club_badge_src": null,
        "entry": 117482,
        "entry_name": "Just for kicks",
        "event_total": 70,
        "has_played": true,
        "id": 766832,
        "last_rank": 52759,
        "player_name": "Giovanni Esposito",
        "rank": 35108,
        "rank_sort": 35140,
        "total": 2363
      },
      {
        "club_badge_src": null,
        "entry": 127653,
        "entry_name": "Ron Over Son",
        "event_total": 57,
        "has_played": true,
        "id": 832144,
        "last_rank": 34969,
        "player_name": "Harshita Jain",
        "rank": 35108,
        "rank_sort": 35141,
        "total": 2363
      },
      {
        "club_badge_src": null,
        "entry": 131524,
        "entry_name": "FC_NongKirin",
        "event_total": 60,
        "has_played": true,
        "id": 856852,
        "last_rank": 38644,
        "player_name": "Witsanu Nowin",
        "rank": 35108,
        "rank_sort": 35142,
        "total": 2363
      },
      {
        "club_badge_src": "https://fantasy.premierleague.com/gcs/plfpl-production-adobe-approved/plfpl-production/140396/75c1da00-799d-4538-b34c-9d43e658e3e4.png",
        "entry": 140396,
        "entry_name": "ZASPONX",
        "event_total": 66,
        "has_played": true,
        "id": 916800,
        "last_rank": 46591,
        "player_name": "Mat Mal",
        "rank": 35108,
        "rank_sort": 35143,
        "total": 2363
      },
      {
        "club_badge_src": null,
        "entry": 140960,
        "entry_name": "Coggo City",
        "event_total": 46,
        "has_played": true,
        "id": 920745,
        "last_rank": 24143,
        "player_name": "Andy Cogdon",
        "rank": 35108,
        "rank_sort": 35144,
        "total": 2363
      },
      {
        "club_badge_src": null,
        "entry": 152850,
        "entry_name": "TXI",
        "event_total": 61,
        "has_played": true,
        "id": 1003458,
        "last_rank": 39874,
        "player_name": "Keval Thanki",
        "rank": 35108,
        "rank_sort": 35145,
        "total": 2363
      },
      {
        "club_badge_src": null,
        "entry": 165355,
        "entry_name": "Wirtz Team Name Ever",
        "event_total": 63,
        "has_played": true,
        "id": 1091693,
        "last_rank": 42648,
        "player_name": "Ian Shaylor",
        "rank": 35108,
        "rank_sort": 35146,
        "total": 2363
      },
      {
        "club_badge_src": null,
        "entry": 171041,
        "entry_name": "Queen City FC",
        "event_total": 60,
        "has_played": true,
        "id": 1129985,
        "last_rank": 38774,
        "player_name": "Brendan Wilhide",
        "rank": 35108,
        "rank_sort": 35147,
        "total": 2363
      },
      {
        "club_badge_src": null,
        "entry": 181623,
        "entry_name": "Espen United",
        "event_total": 50,
        "has_played": true,
        "id": 1198535,
        "last_rank": 27770,
        "player_name": "Espen Erichsen",
        "rank": 35108,
        "rank_sort": 35148,
        "total": 2363
      },
      {
        "club_badge_src": null,
        "entry": 199108,
        "entry_name": "Jos\u00e9 Mika\u00eblsen",
        "event_total": 64,
        "has_played": true,
        "id": 1321387,
        "last_rank": 44048,
        "player_name": "Josse Michielsen",
        "rank": 35108,
        "rank_sort": 35149,
        "total": 2363
      },
      {
        "club_badge_src": null,
        "entry": 203912,
        "entry_name": "Burbage Forever",
        "event_total": 54,
        "has_played": true,
        "id": 1354981,
        "last_rank": 31995,
        "player_name": "George Marsden",
        "rank": 35108,
        "rank_sort": 35150,
        "total": 2363
      }
    ]
  }
}