{
  "last_updated_data": "2026-05-24T23:28:17Z",
  "league": {
    "admin_entry": null,
    "closed": false,
    "code_privacy": "p",
    "created": "2025-07-20T23:14:33.933835Z",
    "cup_league": 2815434,
    "has_cup": true,
    "id": 314,
    "league_type": "s",
    "max_entries": null,
    "name": "Overall",
    "rank": null,
    "scoring": "c",
    "start_event": 1
  },
  "new_entries": {
    "has_next": false,
    "page": 1,
    "results": []
  },
  "standings": {
    "has_next": true,
    "page": 597,
    "results": [
      {
        "club_badge_src": null,
        "entry": 3906084,
        "entry_name": "Wirtz your slot?",
        "event_total": 71,
        "has_played": true,
        "id": 29365697,
        "last_rank": 46660,
        "player_name": "Tom Hinton",
        "rank": 29763,
        "rank_sort": 29801,
        "total": 2368
      },
      {
        "club_badge_src": "https://fantasy.premierleague.com/gcs/plfpl-production-adobe-approved/plfpl-production/3988153/dfd81255-090b-4b64-a6ff-4948a73b7f37.png",
        "entry": 3988153,
        "entry_name": "Hounds",
        "event_total": 57,
        "has_played": true,
        "id": 30027445,
        "last_rank": 29688,
        "player_name": "Sakir Niloy",
        "rank": 29763,
        "rank_sort": 29802,
        "total": 2368
      },
      {
        "club_badge_src": null,
        "entry": 4077022,
        "entry_name": "HNK Stjepan",
        "event_total": 74,
        "has_played": true,
        "id": 30775920,
        "last_rank": 51137,
        "player_name": "Stjepan Petric",
        "rank": 29763,
        "rank_sort": 29803,
        "total": 2368
      },
      {
        "club_badge_src": null,
        "entry": 4359675,
        "entry_name": "Diamonds",
        "event_total": 67,
        "has_played": true,
        "id": 33111487,
        "last_rank": 41162,
        "player_name": "Samir Imamovic",
        "rank": 29763,
        "rank_sort": 29804,
        "total": 2368
      },
      {
        "club_badge_src": null,
        "entry": 4369269,
        "entry_name": "AbraDubravka",
        "event_total": 55,
        "has_played": true,
        "id": 33192875,
        "last_rank": 27585,
        "player_name": "Jonny Bryson",
        "rank": 29763,
        "rank_sort": 29805,
        "total": 2368
      },
      {
        "club_badge_src": null,
        "entry": 4506179,
        "entry_name": "Sheeka",
        "event_total": 65,
        "has_played": true,
        "id": 34356977,
        "last_rank": 38774,
        "player_name": "Mohamed Adel",
        "rank": 29763,
        "rank_sort": 29806,
        "total": 2368
      },
      {
        "club_badge_src": null,
        "entry": 4533600,
        "entry_name": "Cunha beat this?",
        "event_total": 50,
        "has_played": true,
        "id": 34583087,
        "last_rank": 23230,
        "player_name": "Alex Burns",
        "rank": 29763,
        "rank_sort": 29807,
        "total": 2368
      },
      {
        "club_badge_src": null,
        "entry": 4931540,
        "entry_name": "Mask on",
        "event_total": 59,
        "has_played": true,
        "id": 38042784,
        "last_rank": 31747,
        "player_name": "Fahad Salah",
        "rank": 29763,
        "rank_sort": 29808,
        "total": 2368
      },
      {
        "club_badge_src": null,
        "entry": 5182520,
        "entry_name": "\u0183u\u1d09\u029eu\u1d09\u0265\u0287u\u028dop\u01ddp\u1d09sdn",
        "event_total": 70,
        "has_played": true,
        "id": 40115573,
        "last_rank": 45117,
        "player_name": "Captain Majed",
        "rank": 29763,
        "rank_sort": 29809,
        "total": 2368
      },
      {
        "club_badge_src": null,
        "entry": 5393162,
        "entry_name": "Machine Gun Skelly",
        "event_total": 57,
        "has_played": true,
        "id": 41929835,
        "last_rank": 29522,
        "player_name": "Martin L\u00f8venholm",
        "rank": 29763,
        "rank_sort": 29810,
        "total": 2368
      },
      {
        "club_badge_src": "https://fantasy.premierleague.com/gcs/plfpl-production-adobe-approved/plfpl-production/5852604/502a95cf-9919-4848-9c6d-d71548b4a2e2.png",
        "entry": 5852604,
        "entry_name": "The Mask of Yoro",
        "event_total": 73,
        "has_played": true,
        "id": 45950215,
        "last_rank": 49607,
        "player_name": "Fahad Chaudry",
        "rank": 29763,
        "rank_sort": 29811,
        "total": 2368
      },
      {
        "club_badge_src": null,
        "entry": 5961331,
        "entry_name": "Al Zaeem",
        "event_total": 38,
        "has_played": true,
        "id": 46899075,
        "last_rank": 14926,
        "player_name": "Mohammed Alblooshi",
        "rank": 29763,
        "rank_sort": 29812,
        "total": 2368
      },
      {
        "club_badge_src": null,
        "entry": 5962370,
        "entry_name": "what the skelly",
        "event_total": 57,
        "has_played": true,
        "id": 46908208,
        "last_rank": 29578,
        "player_name": "M S Mandair",
        "rank": 29763,
        "rank_sort": 29813,
        "total": 2368
      },
      {
        "club_badge_src": null,
        "entry": 5973027,
        "entry_name": "Havana Onana",
        "event_total": 66,
        "has_played": true,
        "id": 47009659,
        "last_rank": 39816,
        "player_name": "James Earley",
        "rank": 29763,
        "rank_sort": 29814,
        "total": 2368
      },
      {
        "club_badge_src": null,
        "entry": 6121087,
        "entry_name": "Gruda & friends",
        "event_total": 66,
        "has_played": true,
        "id": 48359572,
        "last_rank": 39784,
        "player_name": "Tim Schneider",
        "rank": 29763,
        "rank_sort": 29815,
        "total": 2368
      },
      {
        "club_badge_src": null,
        "entry": 6762244,
        "entry_name": "Isak the Ripper",
        "event_total": 54,
        "has_played": true,
        "id": 54142243,
        "last_rank": 26827,
        "player_name": "Peter Cornish",
        "rank": 29763,
        "rank_sort": 29816,
        "total": 2368
      },
      {
        "club_badge_src": null,
        "entry": 7109276,
        "entry_name": "Drizzy FC",
        "event_total": 59,
        "has_played": true,
        "id": 57265287,
        "last_rank": 31556,
        "player_name": "Adrian Rezaie",
        "rank": 29763,
        "rank_sort": 29817,
        "total": 2368
      },
      {
        "club_badge_src": null,
        "entry": 7156804,
        "entry_name": "Murillo kart",
        "event_total": 72,
        "has_played": true,
        "id": 57721131,
        "last_rank": 48119,
        "player_name": "Shaq Koodabux",
        "rank": 29763,
        "rank_sort": 29818,
        "total": 2368
      },
      {
        "club_badge_src": null,
        "entry": 7427610,
        "entry_name": "sMarti Pants",
        "event_total": 58,
        "has_played": true,
        "id": 60338455,
        "last_rank": 30503,
        "player_name": "David Harrison",
        "rank": 29763,
        "rank_sort": 29819,
        "total": 2368
      },
      {
        "club_badge_src": null,
        "entry": 7431142,
        "entry_name": "Smidginz 69",
        "event_total": 47,
        "has_played": true,
        "id": 60385787,
        "last_rank": 20853,
        "player_name": "Danny Smith",
        "rank": 29763,
        "rank_sort": 29820,
        "total": 2368
      },
      {
        "club_badge_src": null,
        "entry": 7563191,
        "entry_name": "Happy GUEYEmore",
        "event_total": 58,
        "has_played": true,
        "id": 61930545,
        "last_rank": 30600,
        "player_name": "Jayne Tangeman",
        "rank": 29763,
        "rank_sort": 29821,
        "total": 2368
      },
      {
        "club_badge_src": null,
        "entry": 7599596,
        "entry_name": "KillANNIE",
        "event_total": 44,
        "has_played": true,
        "id": 62261326,
        "last_rank": 18790,
        "player_name": "Abdel Rahman Alkilani",
        "rank": 29763,
        "rank_sort": 29822,
        "total": 2368
      },
      {
        "club_badge_src": null,
        "entry": 7728557,
        "entry_name": "Pappascoreus FC",
        "event_total": 59,
        "has_played": true,
        "id": 63428014,
        "last_rank": 31747,
        "player_name": "Rob Niblett",
        "rank": 29763,
        "rank_sort": 29823,
        "total": 2368
      },
      {
        "club_badge_src": "https://fantasy.premierleague.com/gcs/plfpl-production-adobe-approved/plfpl-production/7963322/522ac83c-13bf-4b0c-b1d8-5237ebfea6e7.png",
        "entry": 7963322,
        "entry_name": "SOCCERFC",
        "event_total": 45,
        "has_played": true,
        "id": 65559763,
        "last_rank": 19544,
        "player_name": "Keven Vasquez",
        "rank": 29763,
        "rank_sort": 29824,
        "total": 2368
      },
      {
        "club_badge_src": null,
        "entry": 8349560,
        "entry_name": "Oli's Blues",
        "event_total": 65,
        "has_played": true,
        "id": 69198186,
        "last_rank": 38644,
        "player_name": "Oli Cohen",
        "rank": 29763,
        "rank_sort": 29825,
        "total": 2368
      },
      {
        "club_badge_src": null,
        "entry": 8557690,
        "entry_name": "Plymouthsystrarna",
        "event_total": 59,
        "has_played": true,
        "id": 71193166,
        "last_rank": 31534,
        "player_name": "Christian Johansson",
        "rank": 29763,
        "rank_sort": 29826,
        "total": 2368
      },
      {
        "club_badge_src": null,
        "entry": 8666827,
        "entry_name": "LeoMabbott",
        "event_total": 66,
        "has_played": true,
        "id": 72256403,
        "last_rank": 34969,
        "player_name": "Richard Mabbott",
        "rank": 29763,
        "rank_sort": 29827,
        "total": 2368
      },
      {
        "club_badge_src": null,
        "entry": 9251142,
        "entry_name": "West Ham Oliwia",
        "event_total": 74,
        "has_played": true,
        "id": 77933370,
        "last_rank": 45182,
        "player_name": "Oliwia Filipowicz",
        "rank": 29763,
        "rank_sort": 29828,
        "total": 2368
      },
      {
        "club_badge_src": null,
        "entry": 9434841,
        "entry_name": "Old Havertz Kai Hard",
        "event_total": 69,
        "has_played": true,
        "id": 79706071,
        "last_rank": 43849,
        "player_name": "Rene Moret",
        "rank": 29763,
        "rank_sort": 29829,
        "total": 2368
      },
      {
        "club_badge_src": null,
        "entry": 3265,
        "entry_name": "Scott's Tots",
        "event_total": 60,
        "has_played": true,
        "id": 18460,
        "last_rank": 32879,
        "player_name": "Marko Kovacevic",
        "rank": 29830,
        "rank_sort": 29830,
        "total": 2368
      },
      {
        "club_badge_src": null,
        "entry": 4436,
        "entry_name": "UNExPECTED Goals",
        "event_total": 60,
        "has_played": true,
        "id": 25223,
        "last_rank": 32751,
        "player_name": "Lukasz Zadrozny",
        "rank": 29830,
        "rank_sort": 29831,
        "total": 2368
      },
      {
        "club_badge_src": null,
        "entry": 9439,
        "entry_name": "Power Reijnders",
        "event_total": 58,
        "has_played": true,
        "id": 55491,
        "last_rank": 30536,
        "player_name": "Jeeves RB",
        "rank": 29830,
        "rank_sort": 29832,
        "total": 2368
      },
      {
        "club_badge_src": null,
        "entry": 11610,
        "entry_name": "Red Nosed Reijnders",
        "event_total": 58,
        "has_played": true,
        "id": 69087,
        "last_rank": 30727,
        "player_name": "Jacob Gates",
        "rank": 29830,
        "rank_sort": 29833,
        "total": 2368
      },
      {
        "club_badge_src": null,
        "entry": 13080,
        "entry_name": "Classispermanent",
        "event_total": 45,
        "has_played": true,
        "id": 78821,
        "last_rank": 19544,
        "player_name": "Adrian Glaze",
        "rank": 29830,
        "rank_sort": 29834,
        "total": 2368
      },
      {
        "club_badge_src": null,
        "entry": 19631,
        "entry_name": "Wild Bill's boys",
        "event_total": 69,
        "has_played": true,
        "id": 122145,
        "last_rank": 43757,
        "player_name": "William Rigby",
        "rank": 29830,
        "rank_sort": 29835,
        "total": 2368
      },
      {
        "club_badge_src": "https://fantasy.premierleague.com/gcs/plfpl-production-adobe-approved/plfpl-production/20488/51ce5a95-0220-40d7-b684-c4b116e608ba.png",
        "entry": 20488,
        "entry_name": "Howe to do it!",
        "event_total": 67,
        "has_played": true,
        "id": 127869,
        "last_rank": 41162,
        "player_name": "Jambo Hardy",
        "rank": 29830,
        "rank_sort": 29836,
        "total": 2368
      },
      {
        "club_badge_src": null,
        "entry": 20662,
        "entry_name": "Jammy FC",
        "event_total": 57,
        "has_played": true,
        "id": 129158,
        "last_rank": 29578,
        "player_name": "James Hodgkinson",
        "rank": 29830,
        "rank_sort": 29837,
        "total": 2368
      },
      {
        "club_badge_src": "https://fantasy.premierleague.com/gcs/plfpl-production-adobe-approved/plfpl-production/21618/002a2230-6c87-4b7b-b01c-a6067ba01861.png",
        "entry": 21618,
        "entry_name": "TaE XI",
        "event_total": 53,
        "has_played": true,
        "id": 135593,
        "last_rank": 25902,
        "player_name": "Tae Chongsiriwatana",
        "rank": 29830,
        "rank_sort": 29838,
        "total": 2368
      },
      {
        "club_badge_src": null,
        "entry": 25562,
        "entry_name": "Borussia Teeth",
        "event_total": 54,
        "has_played": true,
        "id": 161692,
        "last_rank": 26656,
        "player_name": "Chris Paterson",
        "rank": 29830,
        "rank_sort": 29839,
        "total": 2368
      },
      {
        "club_badge_src": null,
        "entry": 26827,
        "entry_name": "Play On Wirtz",
        "event_total": 74,
        "has_played": true,
        "id": 169621,
        "last_rank": 51403,
        "player_name": "Andy Craig",
        "rank": 29830,
        "rank_sort": 29840,
        "total": 2368
      },
      {
        "club_badge_src": null,
        "entry": 27065,
        "entry_name": "FC Kippiauto",
        "event_total": 52,
        "has_played": true,
        "id": 171107,
        "last_rank": 24897,
        "player_name": "Oscar Hagfors",
        "rank": 29830,
        "rank_sort": 29841,
        "total": 2368
      },
      {
        "club_badge_src": null,
        "entry": 27900,
        "entry_name": "FC Utd",
        "event_total": 33,
        "has_played": true,
        "id": 176437,
        "last_rank": 12200,
        "player_name": "Clayton Bowen",
        "rank": 29830,
        "rank_sort": 29842,
        "total": 2368
      },
      {
        "club_badge_src": null,
        "entry": 28058,
        "entry_name": "Saka fried Rice",
        "event_total": 64,
        "has_played": true,
        "id": 177449,
        "last_rank": 37589,
        "player_name": "Samson Thongs-George",
        "rank": 29830,
        "rank_sort": 29843,
        "total": 2368
      },
      {
        "club_badge_src": null,
        "entry": 31804,
        "entry_name": "unlucky team",
        "event_total": 58,
        "has_played": true,
        "id": 201837,
        "last_rank": 30536,
        "player_name": "Ali Halwachi",
        "rank": 29830,
        "rank_sort": 29844,
        "total": 2368
      },
      {
        "club_badge_src": null,
        "entry": 34115,
        "entry_name": "Petr Cech Yo Self",
        "event_total": 65,
        "has_played": true,
        "id": 217859,
        "last_rank": 38644,
        "player_name": "JJ Hamilton",
        "rank": 29830,
        "rank_sort": 29845,
        "total": 2368
      },
      {
        "club_badge_src": "https://fantasy.premierleague.com/gcs/plfpl-production-adobe-approved/plfpl-production/36160/439e72b5-82a5-4fda-b5eb-950d6fb6f715.png",
        "entry": 36160,
        "entry_name": "The Hend of God",
        "event_total": 58,
        "has_played": true,
        "id": 231420,
        "last_rank": 30727,
        "player_name": "Joe Threadingham",
        "rank": 29830,
        "rank_sort": 29846,
        "total": 2368
      },
      {
        "club_badge_src": "https://fantasy.premierleague.com/gcs/plfpl-production-adobe-approved/plfpl-production/36576/52f1ed0a-41c5-46d2-a881-4ededc16587b.png",
        "entry": 36576,
        "entry_name": "Wheel Madrid C.F.",
        "event_total": 39,
        "has_played": true,
        "id": 234189,
        "last_rank": 15550,
        "player_name": "Matt Wheeler",
        "rank": 29830,
        "rank_sort": 29847,
        "total": 2368
      },
      {
        "club_badge_src": null,
        "entry": 42769,
        "entry_name": "Phoenix",
        "event_total": 45,
        "has_played": true,
        "id": 273965,
        "last_rank": 19544,
        "player_name": "Mridul Shandilya",
        "rank": 29830,
        "rank_sort": 29848,
        "total": 2368
      },
      {
        "club_badge_src": "https://fantasy.premierleague.com/gcs/plfpl-production-adobe-approved/plfpl-production/53006/08e0ca70-9618-4545-a329-93880f898f66.png",
        "entry": 53006,
        "entry_name": "Not for me, Clive",
        "event_total": 60,
        "has_played": true,
        "id": 340884,
        "last_rank": 32879,
        "player_name": "Tom Miller",
        "rank": 29830,
        "rank_sort": 29849,
        "total": 2368
      },
      {
        "club_badge_src": null,
        "entry": 66428,
        "entry_name": "Eze come Eze Gy\u00f6",
        "event_total": 49,
        "has_played": true,
        "id": 429483,
        "last_rank": 22426,
        "player_name": "HH Ong",
        "rank": 29830,
        "rank_sort": 29850,
        "total": 2368
      }
    ]
  }
}