{
  "last_updated_data": "2026-05-24T23:28:17Z",
  "league": {
    "admin_entry": null,
    "closed": false,
    "code_privacy": "p",
    "created": "2025-07-20T23:14:33.933835Z",
    "cup_league": 2815434,
    "has_cup": true,
    "id": 314,
    "league_type": "s",
    "max_entries": null,
    "name": "Overall",
    "rank": null,
    "scoring": "c",
    "start_event": 1
  },
  "new_entries": {
    "has_next": false,
    "page": 1,
    "results": []
  },
  "standings": {
    "has_next": true,
    "page": 1305,
    "results": [
      {
        "club_badge_src": null,
        "entry": 3715598,
        "entry_name": "Jeff Astle FantasyFC",
        "event_total": 69,
        "has_played": true,
        "id": 27726784,
        "last_rank": 91835,
        "player_name": "Scott Raybouldinho",
        "rank": 65089,
        "rank_sort": 65201,
        "total": 2343
      },
      {
        "club_badge_src": "https://fantasy.premierleague.com/gcs/plfpl-production-adobe-approved/plfpl-production/3944097/8362ed10-cee8-4252-a842-6e56c5c301c6.png",
        "entry": 3944097,
        "entry_name": "Horne73 FC",
        "event_total": 71,
        "has_played": true,
        "id": 29669924,
        "last_rank": 96777,
        "player_name": "Alan Horne",
        "rank": 65089,
        "rank_sort": 65202,
        "total": 2343
      },
      {
        "club_badge_src": null,
        "entry": 4042148,
        "entry_name": "Netflix and Chilwell",
        "event_total": 46,
        "has_played": true,
        "id": 30484606,
        "last_rank": 47596,
        "player_name": "Laura lowe",
        "rank": 65089,
        "rank_sort": 65203,
        "total": 2343
      },
      {
        "club_badge_src": null,
        "entry": 4062113,
        "entry_name": "Naz Reid",
        "event_total": 73,
        "has_played": true,
        "id": 30654307,
        "last_rank": 102125,
        "player_name": "Barney Howorth",
        "rank": 65089,
        "rank_sort": 65204,
        "total": 2343
      },
      {
        "club_badge_src": null,
        "entry": 4066072,
        "entry_name": "SquareOne",
        "event_total": 66,
        "has_played": true,
        "id": 30686856,
        "last_rank": 75874,
        "player_name": "Ashwin Durga",
        "rank": 65089,
        "rank_sort": 65205,
        "total": 2343
      },
      {
        "club_badge_src": null,
        "entry": 4072407,
        "entry_name": "karwan kurdish",
        "event_total": 84,
        "has_played": true,
        "id": 30738420,
        "last_rank": 134226,
        "player_name": "karwan Mziry",
        "rank": 65089,
        "rank_sort": 65206,
        "total": 2343
      },
      {
        "club_badge_src": null,
        "entry": 4085269,
        "entry_name": "Wet Spam Utd",
        "event_total": 73,
        "has_played": true,
        "id": 30842303,
        "last_rank": 101818,
        "player_name": "Louis Wheeler",
        "rank": 65089,
        "rank_sort": 65207,
        "total": 2343
      },
      {
        "club_badge_src": null,
        "entry": 4168962,
        "entry_name": "Palmer\u2019s SuDoku Club",
        "event_total": 48,
        "has_played": true,
        "id": 31528317,
        "last_rank": 50635,
        "player_name": "Si\u00f4n Davies",
        "rank": 65089,
        "rank_sort": 65208,
        "total": 2343
      },
      {
        "club_badge_src": null,
        "entry": 4170953,
        "entry_name": "Triple Threat Jenks",
        "event_total": 68,
        "has_played": true,
        "id": 31545049,
        "last_rank": 89706,
        "player_name": "Tim Jenkins",
        "rank": 65089,
        "rank_sort": 65209,
        "total": 2343
      },
      {
        "club_badge_src": null,
        "entry": 4191969,
        "entry_name": "Lord Farkesquad",
        "event_total": 49,
        "has_played": true,
        "id": 31723719,
        "last_rank": 51720,
        "player_name": "Gurtaj Bahi",
        "rank": 65089,
        "rank_sort": 65210,
        "total": 2343
      },
      {
        "club_badge_src": null,
        "entry": 4360943,
        "entry_name": "G\u00f6alkeres",
        "event_total": 63,
        "has_played": true,
        "id": 33122126,
        "last_rank": 77999,
        "player_name": "Edmund Kong",
        "rank": 65089,
        "rank_sort": 65211,
        "total": 2343
      },
      {
        "club_badge_src": null,
        "entry": 4368749,
        "entry_name": "+9 Points FC",
        "event_total": 62,
        "has_played": true,
        "id": 33188424,
        "last_rank": 76330,
        "player_name": "Randy Krallman",
        "rank": 65089,
        "rank_sort": 65212,
        "total": 2343
      },
      {
        "club_badge_src": "https://fantasy.premierleague.com/gcs/plfpl-production-adobe-approved/plfpl-production/4381805/b58579d1-1729-495f-9fa0-dbe7e36e8c1f.png",
        "entry": 4381805,
        "entry_name": "Jim's Skylarks",
        "event_total": 54,
        "has_played": true,
        "id": 33300217,
        "last_rank": 60671,
        "player_name": "Jim Wood",
        "rank": 65089,
        "rank_sort": 65213,
        "total": 2343
      },
      {
        "club_badge_src": null,
        "entry": 4457294,
        "entry_name": "QO",
        "event_total": 64,
        "has_played": true,
        "id": 33955188,
        "last_rank": 80465,
        "player_name": "Q O",
        "rank": 65089,
        "rank_sort": 65214,
        "total": 2343
      },
      {
        "club_badge_src": null,
        "entry": 4484118,
        "entry_name": "Snowkids",
        "event_total": 51,
        "has_played": true,
        "id": 34176950,
        "last_rank": 48898,
        "player_name": "Nikos Mixailidis",
        "rank": 65089,
        "rank_sort": 65215,
        "total": 2343
      },
      {
        "club_badge_src": null,
        "entry": 4508062,
        "entry_name": "Guardiola S\u00edoch\u00e1na",
        "event_total": 44,
        "has_played": true,
        "id": 34372970,
        "last_rank": 44672,
        "player_name": "Sean Gaffey",
        "rank": 65089,
        "rank_sort": 65216,
        "total": 2343
      },
      {
        "club_badge_src": null,
        "entry": 4568922,
        "entry_name": "Matz Sels Sea Shells",
        "event_total": 65,
        "has_played": true,
        "id": 34867773,
        "last_rank": 82398,
        "player_name": "Conor Brennan",
        "rank": 65089,
        "rank_sort": 65217,
        "total": 2343
      },
      {
        "club_badge_src": null,
        "entry": 4619132,
        "entry_name": "Palestinian Abu omar",
        "event_total": 73,
        "has_played": true,
        "id": 35305760,
        "last_rank": 102125,
        "player_name": "Abdallah Kokhon",
        "rank": 65089,
        "rank_sort": 65218,
        "total": 2343
      },
      {
        "club_badge_src": null,
        "entry": 4719779,
        "entry_name": "Rogers Rabbit",
        "event_total": 62,
        "has_played": true,
        "id": 36254494,
        "last_rank": 76128,
        "player_name": "Carol Karwandy",
        "rank": 65089,
        "rank_sort": 65219,
        "total": 2343
      },
      {
        "club_badge_src": "https://fantasy.premierleague.com/gcs/plfpl-production-adobe-approved/plfpl-production/4732924/25fb045a-a197-4816-ba08-eee6f381159a.png",
        "entry": 4732924,
        "entry_name": "Onana Rogers Watkins",
        "event_total": 64,
        "has_played": true,
        "id": 36413455,
        "last_rank": 80465,
        "player_name": "Russell Mulligan",
        "rank": 65089,
        "rank_sort": 65220,
        "total": 2343
      },
      {
        "club_badge_src": null,
        "entry": 4841551,
        "entry_name": "MickAng",
        "event_total": 52,
        "has_played": true,
        "id": 37296041,
        "last_rank": 57200,
        "player_name": "Michael Gavriel",
        "rank": 65089,
        "rank_sort": 65221,
        "total": 2343
      },
      {
        "club_badge_src": null,
        "entry": 4842517,
        "entry_name": "Fev's Rovers",
        "event_total": 53,
        "has_played": true,
        "id": 37303906,
        "last_rank": 58911,
        "player_name": "Joe Feather",
        "rank": 65089,
        "rank_sort": 65222,
        "total": 2343
      },
      {
        "club_badge_src": null,
        "entry": 4919823,
        "entry_name": "Maywear",
        "event_total": 47,
        "has_played": true,
        "id": 37947366,
        "last_rank": 49078,
        "player_name": "Yaqub Rahman",
        "rank": 65089,
        "rank_sort": 65223,
        "total": 2343
      },
      {
        "club_badge_src": null,
        "entry": 4993322,
        "entry_name": "Slot machine",
        "event_total": 65,
        "has_played": true,
        "id": 38550766,
        "last_rank": 65475,
        "player_name": "Rahul Swami",
        "rank": 65089,
        "rank_sort": 65224,
        "total": 2343
      },
      {
        "club_badge_src": null,
        "entry": 5071949,
        "entry_name": "RAINJARS ALL STARS",
        "event_total": 58,
        "has_played": true,
        "id": 39196491,
        "last_rank": 67926,
        "player_name": "Raj Nair",
        "rank": 65089,
        "rank_sort": 65225,
        "total": 2343
      },
      {
        "club_badge_src": null,
        "entry": 5104483,
        "entry_name": "Pokhreli Devils",
        "event_total": 52,
        "has_played": true,
        "id": 39456686,
        "last_rank": 57200,
        "player_name": "Prashant Bhandari",
        "rank": 65089,
        "rank_sort": 65226,
        "total": 2343
      },
      {
        "club_badge_src": null,
        "entry": 5111676,
        "entry_name": "Golden Strikers",
        "event_total": 48,
        "has_played": true,
        "id": 39517283,
        "last_rank": 50635,
        "player_name": "Javion Taylor",
        "rank": 65089,
        "rank_sort": 65227,
        "total": 2343
      },
      {
        "club_badge_src": null,
        "entry": 5144145,
        "entry_name": "Manchester United",
        "event_total": 42,
        "has_played": true,
        "id": 39794663,
        "last_rank": 42081,
        "player_name": "\u0639\u0628\u062f\u0627\u0644\u063a\u0646\u064a \u0627\u0644\u0646\u0627\u0635\u0631",
        "rank": 65089,
        "rank_sort": 65228,
        "total": 2343
      },
      {
        "club_badge_src": null,
        "entry": 5150726,
        "entry_name": "GGMU",
        "event_total": 40,
        "has_played": true,
        "id": 39849197,
        "last_rank": 34293,
        "player_name": "Genc Marevci",
        "rank": 65089,
        "rank_sort": 65229,
        "total": 2343
      },
      {
        "club_badge_src": null,
        "entry": 5230348,
        "entry_name": "Moby United",
        "event_total": 53,
        "has_played": true,
        "id": 40529594,
        "last_rank": 58911,
        "player_name": "BirdsOfFeather MadeTheCut",
        "rank": 65089,
        "rank_sort": 65230,
        "total": 2343
      },
      {
        "club_badge_src": null,
        "entry": 5381353,
        "entry_name": "17th&I dont know how",
        "event_total": 55,
        "has_played": true,
        "id": 41832535,
        "last_rank": 55311,
        "player_name": "Adrian Toner",
        "rank": 65089,
        "rank_sort": 65231,
        "total": 2343
      },
      {
        "club_badge_src": null,
        "entry": 5675819,
        "entry_name": "Pinokio_21",
        "event_total": 56,
        "has_played": true,
        "id": 44419001,
        "last_rank": 57001,
        "player_name": "paris christofi",
        "rank": 65089,
        "rank_sort": 65232,
        "total": 2343
      },
      {
        "club_badge_src": null,
        "entry": 5778696,
        "entry_name": "Greenandred",
        "event_total": 54,
        "has_played": true,
        "id": 45312704,
        "last_rank": 60462,
        "player_name": "Marty Regan",
        "rank": 65089,
        "rank_sort": 65233,
        "total": 2343
      },
      {
        "club_badge_src": null,
        "entry": 5791636,
        "entry_name": "Eki tikaka FC",
        "event_total": 55,
        "has_played": true,
        "id": 45425049,
        "last_rank": 62617,
        "player_name": "Gunnar Eidem",
        "rank": 65089,
        "rank_sort": 65234,
        "total": 2343
      },
      {
        "club_badge_src": null,
        "entry": 5897248,
        "entry_name": "PANY FC",
        "event_total": 67,
        "has_played": true,
        "id": 46330330,
        "last_rank": 77676,
        "player_name": "Maciej Filipowski",
        "rank": 65089,
        "rank_sort": 65235,
        "total": 2343
      },
      {
        "club_badge_src": null,
        "entry": 6185675,
        "entry_name": "MarkovoHraci",
        "event_total": 49,
        "has_played": true,
        "id": 48921073,
        "last_rank": 52357,
        "player_name": "Marek \u0160af\u00e1rik",
        "rank": 65089,
        "rank_sort": 65236,
        "total": 2343
      },
      {
        "club_badge_src": null,
        "entry": 6222873,
        "entry_name": "Dr\u00e4ngarna FF",
        "event_total": 60,
        "has_played": true,
        "id": 49240900,
        "last_rank": 71713,
        "player_name": "Anton M\u00f6ller",
        "rank": 65089,
        "rank_sort": 65237,
        "total": 2343
      },
      {
        "club_badge_src": null,
        "entry": 6267044,
        "entry_name": "Scouser in the Wig",
        "event_total": 68,
        "has_played": true,
        "id": 49624020,
        "last_rank": 79817,
        "player_name": "Matt Smith",
        "rank": 65089,
        "rank_sort": 65238,
        "total": 2343
      },
      {
        "club_badge_src": null,
        "entry": 6456494,
        "entry_name": "Get Frimponged",
        "event_total": 55,
        "has_played": true,
        "id": 51422486,
        "last_rank": 62223,
        "player_name": "James Hill",
        "rank": 65089,
        "rank_sort": 65239,
        "total": 2343
      },
      {
        "club_badge_src": null,
        "entry": 6622791,
        "entry_name": "Your Wirtz Nightmare",
        "event_total": 49,
        "has_played": true,
        "id": 52924280,
        "last_rank": 52205,
        "player_name": "Ruair\u00ed Kinsella",
        "rank": 65089,
        "rank_sort": 65240,
        "total": 2343
      },
      {
        "club_badge_src": null,
        "entry": 6640866,
        "entry_name": "It's who we are mate",
        "event_total": 61,
        "has_played": true,
        "id": 53083859,
        "last_rank": 73975,
        "player_name": "tony smith",
        "rank": 65089,
        "rank_sort": 65241,
        "total": 2343
      },
      {
        "club_badge_src": null,
        "entry": 6711980,
        "entry_name": "Big Poppa Wanderers",
        "event_total": 53,
        "has_played": true,
        "id": 53714402,
        "last_rank": 58911,
        "player_name": "Adrian Talley",
        "rank": 65089,
        "rank_sort": 65242,
        "total": 2343
      },
      {
        "club_badge_src": null,
        "entry": 6869140,
        "entry_name": "Basic Pitches",
        "event_total": 52,
        "has_played": true,
        "id": 55042619,
        "last_rank": 57200,
        "player_name": "Nessa Dolan",
        "rank": 65089,
        "rank_sort": 65243,
        "total": 2343
      },
      {
        "club_badge_src": null,
        "entry": 7298050,
        "entry_name": "Slot To Go",
        "event_total": 84,
        "has_played": true,
        "id": 59057826,
        "last_rank": 132758,
        "player_name": "Troy Walker",
        "rank": 65089,
        "rank_sort": 65244,
        "total": 2343
      },
      {
        "club_badge_src": null,
        "entry": 7308468,
        "entry_name": "Wirtz case scenario",
        "event_total": 72,
        "has_played": true,
        "id": 59156418,
        "last_rank": 99596,
        "player_name": "Sam Brooker",
        "rank": 65089,
        "rank_sort": 65245,
        "total": 2343
      },
      {
        "club_badge_src": null,
        "entry": 7648975,
        "entry_name": "Oh Schick!",
        "event_total": 54,
        "has_played": true,
        "id": 62707818,
        "last_rank": 53345,
        "player_name": "Pratyush Rohra",
        "rank": 65089,
        "rank_sort": 65246,
        "total": 2343
      },
      {
        "club_badge_src": null,
        "entry": 8039056,
        "entry_name": "Kuusamon pallopeikot",
        "event_total": 63,
        "has_played": true,
        "id": 66238588,
        "last_rank": 69641,
        "player_name": "Gin Valid",
        "rank": 65089,
        "rank_sort": 65247,
        "total": 2343
      },
      {
        "club_badge_src": null,
        "entry": 8092779,
        "entry_name": "beef Cherki",
        "event_total": 51,
        "has_played": true,
        "id": 66733937,
        "last_rank": 55014,
        "player_name": "Stuart Cecil-Dennett",
        "rank": 65089,
        "rank_sort": 65248,
        "total": 2343
      },
      {
        "club_badge_src": null,
        "entry": 8639019,
        "entry_name": "We tried",
        "event_total": 65,
        "has_played": true,
        "id": 71977817,
        "last_rank": 73423,
        "player_name": "Mohamed Nader",
        "rank": 65089,
        "rank_sort": 65249,
        "total": 2343
      },
      {
        "club_badge_src": null,
        "entry": 8685071,
        "entry_name": "USEF.FC",
        "event_total": 45,
        "has_played": true,
        "id": 72434725,
        "last_rank": 46106,
        "player_name": "Youssef Agntif",
        "rank": 65089,
        "rank_sort": 65250,
        "total": 2343
      }
    ]
  }
}