{
  "last_updated_data": "2026-05-24T23:28:17Z",
  "league": {
    "admin_entry": null,
    "closed": false,
    "code_privacy": "p",
    "created": "2025-07-20T23:14:33.933835Z",
    "cup_league": 2815434,
    "has_cup": true,
    "id": 314,
    "league_type": "s",
    "max_entries": null,
    "name": "Overall",
    "rank": null,
    "scoring": "c",
    "start_event": 1
  },
  "new_entries": {
    "has_next": false,
    "page": 1,
    "results": []
  },
  "standings": {
    "has_next": true,
    "page": 835,
    "results": [
      {
        "club_badge_src": null,
        "entry": 4068567,
        "entry_name": "Sack Slot",
        "event_total": 49,
        "has_played": true,
        "id": 30707019,
        "last_rank": 32190,
        "player_name": "Michael Caudy",
        "rank": 41573,
        "rank_sort": 41701,
        "total": 2358
      },
      {
        "club_badge_src": null,
        "entry": 4232646,
        "entry_name": "Danso Yrself Clean",
        "event_total": 66,
        "has_played": true,
        "id": 32072145,
        "last_rank": 55014,
        "player_name": "George Papadopoulos",
        "rank": 41573,
        "rank_sort": 41702,
        "total": 2358
      },
      {
        "club_badge_src": null,
        "entry": 4236636,
        "entry_name": "Unknown FC",
        "event_total": 53,
        "has_played": true,
        "id": 32104648,
        "last_rank": 36831,
        "player_name": "Sidamo Wright",
        "rank": 41573,
        "rank_sort": 41703,
        "total": 2358
      },
      {
        "club_badge_src": "https://fantasy.premierleague.com/gcs/plfpl-production-adobe-approved/plfpl-production/4239416/785b2806-5cc6-44c8-9264-40d9b79a118f.png",
        "entry": 4239416,
        "entry_name": "Palmer My Hand",
        "event_total": 66,
        "has_played": true,
        "id": 32128851,
        "last_rank": 48363,
        "player_name": "Andy Malins",
        "rank": 41573,
        "rank_sort": 41704,
        "total": 2358
      },
      {
        "club_badge_src": "https://fantasy.premierleague.com/gcs/plfpl-production-adobe-approved/plfpl-production/4242088/eab6ac1f-f423-4fdc-936e-a7e482e0c118.png",
        "entry": 4242088,
        "entry_name": "Riffa Raptors",
        "event_total": 48,
        "has_played": true,
        "id": 32151080,
        "last_rank": 27020,
        "player_name": "Adam Kamal",
        "rank": 41573,
        "rank_sort": 41705,
        "total": 2358
      },
      {
        "club_badge_src": null,
        "entry": 4299483,
        "entry_name": "barcelona fc",
        "event_total": 49,
        "has_played": true,
        "id": 32618086,
        "last_rank": 32190,
        "player_name": "David Bambe",
        "rank": 41573,
        "rank_sort": 41706,
        "total": 2358
      },
      {
        "club_badge_src": null,
        "entry": 4399579,
        "entry_name": "Exodus XL",
        "event_total": 39,
        "has_played": true,
        "id": 33458062,
        "last_rank": 22830,
        "player_name": "Sirak Tekeste",
        "rank": 41573,
        "rank_sort": 41707,
        "total": 2358
      },
      {
        "club_badge_src": null,
        "entry": 4452820,
        "entry_name": "Herculesxx",
        "event_total": 66,
        "has_played": true,
        "id": 33917008,
        "last_rank": 55311,
        "player_name": "Bom Noppawut",
        "rank": 41573,
        "rank_sort": 41708,
        "total": 2358
      },
      {
        "club_badge_src": null,
        "entry": 4525765,
        "entry_name": "Not the OKFC",
        "event_total": 56,
        "has_played": true,
        "id": 34518134,
        "last_rank": 40503,
        "player_name": "Britt Farr",
        "rank": 41573,
        "rank_sort": 41709,
        "total": 2358
      },
      {
        "club_badge_src": null,
        "entry": 4816723,
        "entry_name": "The London Boys",
        "event_total": 67,
        "has_played": true,
        "id": 37090239,
        "last_rank": 56708,
        "player_name": "Christian Wibeck-Nilsson",
        "rank": 41573,
        "rank_sort": 41710,
        "total": 2358
      },
      {
        "club_badge_src": null,
        "entry": 5057641,
        "entry_name": "Killa FC",
        "event_total": 45,
        "has_played": true,
        "id": 39080220,
        "last_rank": 28150,
        "player_name": "Utsav Killa",
        "rank": 41573,
        "rank_sort": 41711,
        "total": 2358
      },
      {
        "club_badge_src": "https://fantasy.premierleague.com/gcs/plfpl-production-adobe-approved/plfpl-production/5078540/2fd306a6-f366-4822-93e6-d753814a6937.png",
        "entry": 5078540,
        "entry_name": "pirjar_duski",
        "event_total": 72,
        "has_played": true,
        "id": 39250048,
        "last_rank": 65163,
        "player_name": "pirjar Yaseen",
        "rank": 41573,
        "rank_sort": 41712,
        "total": 2358
      },
      {
        "club_badge_src": null,
        "entry": 5120034,
        "entry_name": "T\u00e5paj FC",
        "event_total": 65,
        "has_played": true,
        "id": 39587267,
        "last_rank": 53345,
        "player_name": "Johan Nilsson",
        "rank": 41573,
        "rank_sort": 41713,
        "total": 2358
      },
      {
        "club_badge_src": null,
        "entry": 5132623,
        "entry_name": "count_von_count",
        "event_total": 67,
        "has_played": true,
        "id": 39697113,
        "last_rank": 57001,
        "player_name": "Mikhail Zabolev",
        "rank": 41573,
        "rank_sort": 41714,
        "total": 2358
      },
      {
        "club_badge_src": null,
        "entry": 5217040,
        "entry_name": "Net 6 and Chill",
        "event_total": 62,
        "has_played": true,
        "id": 40419072,
        "last_rank": 48642,
        "player_name": "Bobby Smith",
        "rank": 41573,
        "rank_sort": 41715,
        "total": 2358
      },
      {
        "club_badge_src": null,
        "entry": 5288148,
        "entry_name": "Super Jim",
        "event_total": 48,
        "has_played": true,
        "id": 40990012,
        "last_rank": 27020,
        "player_name": "James Neill",
        "rank": 41573,
        "rank_sort": 41716,
        "total": 2358
      },
      {
        "club_badge_src": "https://fantasy.premierleague.com/gcs/plfpl-production-adobe-approved/plfpl-production/5348581/ce8fffd4-d75b-43ce-9f73-60efc0db3947.png",
        "entry": 5348581,
        "entry_name": "I See Set Pieces",
        "event_total": 54,
        "has_played": true,
        "id": 41507955,
        "last_rank": 38016,
        "player_name": "Steven Welsh",
        "rank": 41573,
        "rank_sort": 41717,
        "total": 2358
      },
      {
        "club_badge_src": null,
        "entry": 5421308,
        "entry_name": "VARterans United",
        "event_total": 45,
        "has_played": true,
        "id": 42164363,
        "last_rank": 28150,
        "player_name": "Tim Dixon",
        "rank": 41573,
        "rank_sort": 41718,
        "total": 2358
      },
      {
        "club_badge_src": null,
        "entry": 5496029,
        "entry_name": "For Beto Or Wirtz",
        "event_total": 55,
        "has_played": true,
        "id": 42813071,
        "last_rank": 34293,
        "player_name": "Sam Chew",
        "rank": 41573,
        "rank_sort": 41719,
        "total": 2358
      },
      {
        "club_badge_src": null,
        "entry": 5566869,
        "entry_name": "Danny's All Stars",
        "event_total": 62,
        "has_played": true,
        "id": 43466471,
        "last_rank": 42506,
        "player_name": "Daniel Purbrick",
        "rank": 41573,
        "rank_sort": 41720,
        "total": 2358
      },
      {
        "club_badge_src": null,
        "entry": 5674991,
        "entry_name": "Braut Force",
        "event_total": 64,
        "has_played": true,
        "id": 44411623,
        "last_rank": 51984,
        "player_name": "Espen Lomahaug",
        "rank": 41573,
        "rank_sort": 41721,
        "total": 2358
      },
      {
        "club_badge_src": null,
        "entry": 5676585,
        "entry_name": "ThomasTheTankEngine",
        "event_total": 58,
        "has_played": true,
        "id": 44425341,
        "last_rank": 43168,
        "player_name": "Jesse Crew",
        "rank": 41573,
        "rank_sort": 41722,
        "total": 2358
      },
      {
        "club_badge_src": null,
        "entry": 5683295,
        "entry_name": "Skuffe FC",
        "event_total": 65,
        "has_played": true,
        "id": 44484683,
        "last_rank": 47163,
        "player_name": "Kristoffer Kj\u00e6r",
        "rank": 41573,
        "rank_sort": 41723,
        "total": 2358
      },
      {
        "club_badge_src": null,
        "entry": 5713146,
        "entry_name": "\u0633\u0631\u0627\u062c \u0627\u0644\u0642\u0630\u0627\u0641\u064a",
        "event_total": 56,
        "has_played": true,
        "id": 44741195,
        "last_rank": 40297,
        "player_name": "Porn die",
        "rank": 41573,
        "rank_sort": 41724,
        "total": 2358
      },
      {
        "club_badge_src": null,
        "entry": 5765033,
        "entry_name": "Johnny Gittens",
        "event_total": 51,
        "has_played": true,
        "id": 45195074,
        "last_rank": 34458,
        "player_name": "Joey Cardiff",
        "rank": 41573,
        "rank_sort": 41725,
        "total": 2358
      },
      {
        "club_badge_src": null,
        "entry": 5820732,
        "entry_name": "Sockloss",
        "event_total": 49,
        "has_played": true,
        "id": 45679256,
        "last_rank": 31556,
        "player_name": "Martin Jonsson",
        "rank": 41573,
        "rank_sort": 41726,
        "total": 2358
      },
      {
        "club_badge_src": "https://fantasy.premierleague.com/gcs/plfpl-production-adobe-approved/plfpl-production/5861234/836a4730-19e4-4cb9-8c30-68fa835ce6b0.png",
        "entry": 5861234,
        "entry_name": "class on grass",
        "event_total": 68,
        "has_played": true,
        "id": 46026293,
        "last_rank": 58688,
        "player_name": "Jackson Bzowski",
        "rank": 41573,
        "rank_sort": 41727,
        "total": 2358
      },
      {
        "club_badge_src": null,
        "entry": 6014185,
        "entry_name": "Me, Myself Ndiaye",
        "event_total": 65,
        "has_played": true,
        "id": 47424056,
        "last_rank": 47163,
        "player_name": "Aidan Tomlinson",
        "rank": 41573,
        "rank_sort": 41728,
        "total": 2358
      },
      {
        "club_badge_src": null,
        "entry": 6118646,
        "entry_name": "United Glazer",
        "event_total": 76,
        "has_played": true,
        "id": 48338307,
        "last_rank": 73423,
        "player_name": "Jack Burchett III",
        "rank": 41573,
        "rank_sort": 41729,
        "total": 2358
      },
      {
        "club_badge_src": null,
        "entry": 6185932,
        "entry_name": "Two Trophy Palace",
        "event_total": 67,
        "has_played": true,
        "id": 48923537,
        "last_rank": 50199,
        "player_name": "James Everett",
        "rank": 41573,
        "rank_sort": 41730,
        "total": 2358
      },
      {
        "club_badge_src": "https://fantasy.premierleague.com/gcs/plfpl-production-adobe-approved/plfpl-production/6312993/0f71fe28-1768-4637-a7cf-fab5f89098d2.png",
        "entry": 6312993,
        "entry_name": "Having Gittens",
        "event_total": 61,
        "has_played": true,
        "id": 50091928,
        "last_rank": 47417,
        "player_name": "Thomas Brewer",
        "rank": 41573,
        "rank_sort": 41731,
        "total": 2358
      },
      {
        "club_badge_src": null,
        "entry": 6335273,
        "entry_name": "Mo of the Match",
        "event_total": 26,
        "has_played": true,
        "id": 50351322,
        "last_rank": 14040,
        "player_name": "Thomas Williams",
        "rank": 41573,
        "rank_sort": 41732,
        "total": 2358
      },
      {
        "club_badge_src": null,
        "entry": 6660315,
        "entry_name": "Allahu Akbar Kabiira",
        "event_total": 60,
        "has_played": true,
        "id": 53258366,
        "last_rank": 45927,
        "player_name": "Mohamed Abdikadir",
        "rank": 41573,
        "rank_sort": 41733,
        "total": 2358
      },
      {
        "club_badge_src": null,
        "entry": 6749950,
        "entry_name": "TBC",
        "event_total": 56,
        "has_played": true,
        "id": 54037029,
        "last_rank": 40503,
        "player_name": "calum byrne",
        "rank": 41573,
        "rank_sort": 41734,
        "total": 2358
      },
      {
        "club_badge_src": null,
        "entry": 6754990,
        "entry_name": "Hugo Ate a Tea Cake",
        "event_total": 72,
        "has_played": true,
        "id": 54080365,
        "last_rank": 58071,
        "player_name": "Hugo Wong",
        "rank": 41573,
        "rank_sort": 41735,
        "total": 2358
      },
      {
        "club_badge_src": null,
        "entry": 6855549,
        "entry_name": "Excelsior FC",
        "event_total": 72,
        "has_played": true,
        "id": 54926568,
        "last_rank": 65475,
        "player_name": "CK Olendo",
        "rank": 41573,
        "rank_sort": 41736,
        "total": 2358
      },
      {
        "club_badge_src": null,
        "entry": 6935236,
        "entry_name": "Rahasia",
        "event_total": 68,
        "has_played": true,
        "id": 55599712,
        "last_rank": 58388,
        "player_name": "P. Bayu Wibowo",
        "rank": 41573,
        "rank_sort": 41737,
        "total": 2358
      },
      {
        "club_badge_src": null,
        "entry": 7029960,
        "entry_name": "TM Arch",
        "event_total": 45,
        "has_played": true,
        "id": 56493695,
        "last_rank": 28150,
        "player_name": "Teerawut Jansuan",
        "rank": 41573,
        "rank_sort": 41738,
        "total": 2358
      },
      {
        "club_badge_src": null,
        "entry": 7149174,
        "entry_name": "Saagi FC",
        "event_total": 72,
        "has_played": true,
        "id": 57645899,
        "last_rank": 65796,
        "player_name": "Hasan Saghir",
        "rank": 41573,
        "rank_sort": 41739,
        "total": 2358
      },
      {
        "club_badge_src": null,
        "entry": 7163869,
        "entry_name": "what the skelly",
        "event_total": 72,
        "has_played": true,
        "id": 57793460,
        "last_rank": 65475,
        "player_name": "Evan Hunnisett",
        "rank": 41573,
        "rank_sort": 41740,
        "total": 2358
      },
      {
        "club_badge_src": null,
        "entry": 7177014,
        "entry_name": "OTTO FC",
        "event_total": 42,
        "has_played": true,
        "id": 57918052,
        "last_rank": 25330,
        "player_name": "Omar Malik",
        "rank": 41573,
        "rank_sort": 41741,
        "total": 2358
      },
      {
        "club_badge_src": null,
        "entry": 7877413,
        "entry_name": "ManJeffster United",
        "event_total": 72,
        "has_played": true,
        "id": 64781186,
        "last_rank": 65796,
        "player_name": "Jeffrey Frias",
        "rank": 41573,
        "rank_sort": 41742,
        "total": 2358
      },
      {
        "club_badge_src": "https://fantasy.premierleague.com/gcs/plfpl-production-adobe-approved/plfpl-production/8041736/914ea7b0-c989-4adc-b966-7204851b43e9.png",
        "entry": 8041736,
        "entry_name": "Wirtz Every Penny",
        "event_total": 52,
        "has_played": true,
        "id": 66262388,
        "last_rank": 35619,
        "player_name": "Vaughn Lawrence",
        "rank": 41573,
        "rank_sort": 41743,
        "total": 2358
      },
      {
        "club_badge_src": null,
        "entry": 8186953,
        "entry_name": "Fc Kiki Musampa",
        "event_total": 65,
        "has_played": true,
        "id": 67616469,
        "last_rank": 41324,
        "player_name": "Diderick Disbeschl",
        "rank": 41573,
        "rank_sort": 41744,
        "total": 2358
      },
      {
        "club_badge_src": null,
        "entry": 8373569,
        "entry_name": "So Salah Can Wait",
        "event_total": 62,
        "has_played": true,
        "id": 69428826,
        "last_rank": 42940,
        "player_name": "Dylan Caldwell",
        "rank": 41573,
        "rank_sort": 41745,
        "total": 2358
      },
      {
        "club_badge_src": null,
        "entry": 8401149,
        "entry_name": "Slot machine",
        "event_total": 54,
        "has_played": true,
        "id": 69688365,
        "last_rank": 38016,
        "player_name": "Mattias Verbruggen",
        "rank": 41573,
        "rank_sort": 41746,
        "total": 2358
      },
      {
        "club_badge_src": null,
        "entry": 8576272,
        "entry_name": "Timell p\u00e5 tuttbar",
        "event_total": 55,
        "has_played": true,
        "id": 71370524,
        "last_rank": 39246,
        "player_name": "Albin Persson",
        "rank": 41573,
        "rank_sort": 41747,
        "total": 2358
      },
      {
        "club_badge_src": null,
        "entry": 8625162,
        "entry_name": "4-yearsbacktoback",
        "event_total": 57,
        "has_played": true,
        "id": 71841068,
        "last_rank": 36348,
        "player_name": "Shane Timmons",
        "rank": 41573,
        "rank_sort": 41748,
        "total": 2358
      },
      {
        "club_badge_src": null,
        "entry": 8964847,
        "entry_name": "blackandwhitearmy!",
        "event_total": 56,
        "has_played": true,
        "id": 75142096,
        "last_rank": 40503,
        "player_name": "William Robb",
        "rank": 41573,
        "rank_sort": 41749,
        "total": 2358
      },
      {
        "club_badge_src": "https://fantasy.premierleague.com/gcs/plfpl-production-adobe-approved/plfpl-production/9063416/f45a5e4a-ccc2-402c-8629-249333034ecc.png",
        "entry": 9063416,
        "entry_name": "Baked Baines",
        "event_total": 47,
        "has_played": true,
        "id": 76095138,
        "last_rank": 30060,
        "player_name": "Rob Jones",
        "rank": 41573,
        "rank_sort": 41750,
        "total": 2358
      }
    ]
  }
}