{
  "last_updated_data": "2026-05-24T23:28:17Z",
  "league": {
    "admin_entry": null,
    "closed": false,
    "code_privacy": "p",
    "created": "2025-07-20T23:14:33.933835Z",
    "cup_league": 2815434,
    "has_cup": true,
    "id": 314,
    "league_type": "s",
    "max_entries": null,
    "name": "Overall",
    "rank": null,
    "scoring": "c",
    "start_event": 1
  },
  "new_entries": {
    "has_next": false,
    "page": 1,
    "results": []
  },
  "standings": {
    "has_next": true,
    "page": 1604,
    "results": [
      {
        "club_badge_src": null,
        "entry": 5196350,
        "entry_name": "Amorim\u2019s Prattville",
        "event_total": 67,
        "has_played": true,
        "id": 40233690,
        "last_rank": 105818,
        "player_name": "Zakhar Frolov",
        "rank": 79844,
        "rank_sort": 80151,
        "total": 2335
      },
      {
        "club_badge_src": null,
        "entry": 5196502,
        "entry_name": "Garcia FC",
        "event_total": 61,
        "has_played": true,
        "id": 40235009,
        "last_rank": 81420,
        "player_name": "Aaron Garcia",
        "rank": 79844,
        "rank_sort": 80152,
        "total": 2335
      },
      {
        "club_badge_src": null,
        "entry": 5219244,
        "entry_name": "Berge, No Salahd",
        "event_total": 69,
        "has_played": true,
        "id": 40438018,
        "last_rank": 111669,
        "player_name": "Craig Austin",
        "rank": 79844,
        "rank_sort": 80153,
        "total": 2335
      },
      {
        "club_badge_src": null,
        "entry": 5300781,
        "entry_name": "It doesn't Mata",
        "event_total": 65,
        "has_played": true,
        "id": 41088959,
        "last_rank": 100949,
        "player_name": "Eskil Hang\u00e5rd",
        "rank": 79844,
        "rank_sort": 80154,
        "total": 2335
      },
      {
        "club_badge_src": null,
        "entry": 5316180,
        "entry_name": "Lieds United",
        "event_total": 61,
        "has_played": true,
        "id": 41210057,
        "last_rank": 90746,
        "player_name": "Therese Borge Lied",
        "rank": 79844,
        "rank_sort": 80155,
        "total": 2335
      },
      {
        "club_badge_src": null,
        "entry": 5356600,
        "entry_name": "Baggio's Babes",
        "event_total": 51,
        "has_played": true,
        "id": 41594822,
        "last_rank": 68957,
        "player_name": "Charlie Baggott",
        "rank": 79844,
        "rank_sort": 80156,
        "total": 2335
      },
      {
        "club_badge_src": null,
        "entry": 5376192,
        "entry_name": "Farthing's Angels",
        "event_total": 62,
        "has_played": true,
        "id": 41784245,
        "last_rank": 83698,
        "player_name": "James Farthing",
        "rank": 79844,
        "rank_sort": 80157,
        "total": 2335
      },
      {
        "club_badge_src": null,
        "entry": 5397069,
        "entry_name": "Nobby Regardless",
        "event_total": 71,
        "has_played": true,
        "id": 41962012,
        "last_rank": 117112,
        "player_name": "Robbie Hardless",
        "rank": 79844,
        "rank_sort": 80158,
        "total": 2335
      },
      {
        "club_badge_src": null,
        "entry": 5399402,
        "entry_name": "CurryWirtz",
        "event_total": 43,
        "has_played": true,
        "id": 41981100,
        "last_rank": 54667,
        "player_name": "\u0160t\u011bp\u00e1n \u010cejka",
        "rank": 79844,
        "rank_sort": 80159,
        "total": 2335
      },
      {
        "club_badge_src": null,
        "entry": 5408600,
        "entry_name": "Ji Sung Park the Bus",
        "event_total": 60,
        "has_played": true,
        "id": 42057789,
        "last_rank": 88594,
        "player_name": "Stephen Loughran",
        "rank": 79844,
        "rank_sort": 80160,
        "total": 2335
      },
      {
        "club_badge_src": null,
        "entry": 5443268,
        "entry_name": "Teebutter FC",
        "event_total": 52,
        "has_played": true,
        "id": 42351247,
        "last_rank": 70985,
        "player_name": "Tope Ogunkua",
        "rank": 79844,
        "rank_sort": 80161,
        "total": 2335
      },
      {
        "club_badge_src": null,
        "entry": 5487257,
        "entry_name": "Corner House",
        "event_total": 53,
        "has_played": true,
        "id": 42733041,
        "last_rank": 73038,
        "player_name": "Nikhil Jorapur",
        "rank": 79844,
        "rank_sort": 80162,
        "total": 2335
      },
      {
        "club_badge_src": null,
        "entry": 5500440,
        "entry_name": "LML",
        "event_total": 55,
        "has_played": true,
        "id": 42857726,
        "last_rank": 77258,
        "player_name": "ML Lee",
        "rank": 79844,
        "rank_sort": 80163,
        "total": 2335
      },
      {
        "club_badge_src": null,
        "entry": 5514667,
        "entry_name": "Telek FC",
        "event_total": 49,
        "has_played": true,
        "id": 42991301,
        "last_rank": 65163,
        "player_name": "Soma Kisteleki",
        "rank": 79844,
        "rank_sort": 80164,
        "total": 2335
      },
      {
        "club_badge_src": null,
        "entry": 5522560,
        "entry_name": "Dibbas Diplomater",
        "event_total": 52,
        "has_played": true,
        "id": 43064728,
        "last_rank": 70985,
        "player_name": "Linus Lundby",
        "rank": 79844,
        "rank_sort": 80165,
        "total": 2335
      },
      {
        "club_badge_src": null,
        "entry": 5540715,
        "entry_name": "Mansesko United",
        "event_total": 66,
        "has_played": true,
        "id": 43233506,
        "last_rank": 103526,
        "player_name": "Aman Jain",
        "rank": 79844,
        "rank_sort": 80166,
        "total": 2335
      },
      {
        "club_badge_src": null,
        "entry": 5578655,
        "entry_name": "Jo+aBonito",
        "event_total": 68,
        "has_played": true,
        "id": 43568569,
        "last_rank": 108959,
        "player_name": "Jacob Lim",
        "rank": 79844,
        "rank_sort": 80167,
        "total": 2335
      },
      {
        "club_badge_src": null,
        "entry": 5587091,
        "entry_name": "Solanke panky",
        "event_total": 42,
        "has_played": true,
        "id": 43644902,
        "last_rank": 53345,
        "player_name": "Chris Law",
        "rank": 79844,
        "rank_sort": 80168,
        "total": 2335
      },
      {
        "club_badge_src": null,
        "entry": 5650053,
        "entry_name": "Vowel please, Rachel",
        "event_total": 64,
        "has_played": true,
        "id": 44197835,
        "last_rank": 98183,
        "player_name": "Angus Faraday",
        "rank": 79844,
        "rank_sort": 80169,
        "total": 2335
      },
      {
        "club_badge_src": null,
        "entry": 5650312,
        "entry_name": "Mbuemola Balebastein",
        "event_total": 79,
        "has_played": true,
        "id": 44199988,
        "last_rank": 142273,
        "player_name": "Aidan Train",
        "rank": 79844,
        "rank_sort": 80170,
        "total": 2335
      },
      {
        "club_badge_src": null,
        "entry": 5701281,
        "entry_name": "Yoro Wizard Harry",
        "event_total": 63,
        "has_played": true,
        "id": 44638874,
        "last_rank": 95640,
        "player_name": "Johnny Plimmer",
        "rank": 79844,
        "rank_sort": 80171,
        "total": 2335
      },
      {
        "club_badge_src": "https://fantasy.premierleague.com/gcs/plfpl-production-adobe-approved/plfpl-production/5706826/ee3d321b-d989-4367-b3be-cd8f2a015df8.png",
        "entry": 5706826,
        "entry_name": "Gavla FC",
        "event_total": 63,
        "has_played": true,
        "id": 44686835,
        "last_rank": 96374,
        "player_name": "Gavin Bostock",
        "rank": 79844,
        "rank_sort": 80172,
        "total": 2335
      },
      {
        "club_badge_src": null,
        "entry": 5735096,
        "entry_name": "Qali vici CUNHAshi",
        "event_total": 67,
        "has_played": true,
        "id": 44932009,
        "last_rank": 106259,
        "player_name": "Giorgi Tsiklauri",
        "rank": 79844,
        "rank_sort": 80173,
        "total": 2335
      },
      {
        "club_badge_src": null,
        "entry": 5761342,
        "entry_name": "Defenders Assemble",
        "event_total": 66,
        "has_played": true,
        "id": 45164244,
        "last_rank": 103017,
        "player_name": "Conor Murphy",
        "rank": 79844,
        "rank_sort": 80174,
        "total": 2335
      },
      {
        "club_badge_src": null,
        "entry": 5856892,
        "entry_name": "Don\u2019tLookBackInAnge",
        "event_total": 78,
        "has_played": true,
        "id": 45987996,
        "last_rank": 139016,
        "player_name": "David McCarthy",
        "rank": 79844,
        "rank_sort": 80175,
        "total": 2335
      },
      {
        "club_badge_src": null,
        "entry": 5915695,
        "entry_name": "monke",
        "event_total": 51,
        "has_played": true,
        "id": 46491140,
        "last_rank": 68748,
        "player_name": "Zaidan Hussain",
        "rank": 79844,
        "rank_sort": 80176,
        "total": 2335
      },
      {
        "club_badge_src": null,
        "entry": 5954549,
        "entry_name": "Wirtz the story",
        "event_total": 69,
        "has_played": true,
        "id": 46839566,
        "last_rank": 111669,
        "player_name": "Mike Ryan",
        "rank": 79844,
        "rank_sort": 80177,
        "total": 2335
      },
      {
        "club_badge_src": null,
        "entry": 6030477,
        "entry_name": "unbeast the leash",
        "event_total": 41,
        "has_played": true,
        "id": 47570528,
        "last_rank": 51720,
        "player_name": "Alexander Kaychov",
        "rank": 79844,
        "rank_sort": 80178,
        "total": 2335
      },
      {
        "club_badge_src": null,
        "entry": 6033856,
        "entry_name": "Wirtz Nightmare",
        "event_total": 56,
        "has_played": true,
        "id": 47599980,
        "last_rank": 79817,
        "player_name": "Daniel Ferguson",
        "rank": 79844,
        "rank_sort": 80179,
        "total": 2335
      },
      {
        "club_badge_src": null,
        "entry": 6047071,
        "entry_name": "Finding Timo",
        "event_total": 52,
        "has_played": true,
        "id": 47714084,
        "last_rank": 70757,
        "player_name": "Rebecca Fearon",
        "rank": 79844,
        "rank_sort": 80180,
        "total": 2335
      },
      {
        "club_badge_src": null,
        "entry": 6135700,
        "entry_name": "Una Palhinha Franka",
        "event_total": 64,
        "has_played": true,
        "id": 48488414,
        "last_rank": 98896,
        "player_name": "Simon McGrahan",
        "rank": 79844,
        "rank_sort": 80181,
        "total": 2335
      },
      {
        "club_badge_src": null,
        "entry": 6201717,
        "entry_name": "Cucubacumalocu",
        "event_total": 49,
        "has_played": true,
        "id": 49059911,
        "last_rank": 65475,
        "player_name": "Tommy Izzett",
        "rank": 79844,
        "rank_sort": 80182,
        "total": 2335
      },
      {
        "club_badge_src": null,
        "entry": 6275115,
        "entry_name": "FC GuardiAmorTeta",
        "event_total": 76,
        "has_played": true,
        "id": 49691926,
        "last_rank": 132281,
        "player_name": "Cathrine Augustson",
        "rank": 79844,
        "rank_sort": 80183,
        "total": 2335
      },
      {
        "club_badge_src": null,
        "entry": 6280369,
        "entry_name": "i miss kevin",
        "event_total": 46,
        "has_played": true,
        "id": 49739555,
        "last_rank": 59813,
        "player_name": "Clayton McCoy",
        "rank": 79844,
        "rank_sort": 80184,
        "total": 2335
      },
      {
        "club_badge_src": null,
        "entry": 6338668,
        "entry_name": "ABCDE FC",
        "event_total": 66,
        "has_played": true,
        "id": 50380658,
        "last_rank": 103130,
        "player_name": "Leo K",
        "rank": 79844,
        "rank_sort": 80185,
        "total": 2335
      },
      {
        "club_badge_src": null,
        "entry": 6339988,
        "entry_name": "myenemiesarenothappy",
        "event_total": 55,
        "has_played": true,
        "id": 50391846,
        "last_rank": 77050,
        "player_name": "Abdulahi Mohammed",
        "rank": 79844,
        "rank_sort": 80186,
        "total": 2335
      },
      {
        "club_badge_src": null,
        "entry": 6364426,
        "entry_name": "Sir Bobby's Heaven11",
        "event_total": 80,
        "has_played": true,
        "id": 50606297,
        "last_rank": 145577,
        "player_name": "David Boyle",
        "rank": 79844,
        "rank_sort": 80187,
        "total": 2335
      },
      {
        "club_badge_src": null,
        "entry": 6364914,
        "entry_name": "Wirtz Team Ever",
        "event_total": 56,
        "has_played": true,
        "id": 50610488,
        "last_rank": 79431,
        "player_name": "Dan Barker",
        "rank": 79844,
        "rank_sort": 80188,
        "total": 2335
      },
      {
        "club_badge_src": "https://fantasy.premierleague.com/gcs/plfpl-production-adobe-approved/plfpl-production/6410245/b723f61d-a8c5-456d-bd78-408554b58209.png",
        "entry": 6410245,
        "entry_name": "The Boys",
        "event_total": 68,
        "has_played": true,
        "id": 51010159,
        "last_rank": 108689,
        "player_name": "Mohammed Reda",
        "rank": 79844,
        "rank_sort": 80189,
        "total": 2335
      },
      {
        "club_badge_src": null,
        "entry": 6484292,
        "entry_name": "monndo fc",
        "event_total": 60,
        "has_played": true,
        "id": 51683438,
        "last_rank": 88348,
        "player_name": "Eamonn Cairns",
        "rank": 79844,
        "rank_sort": 80190,
        "total": 2335
      },
      {
        "club_badge_src": null,
        "entry": 6491366,
        "entry_name": "Derbados FC",
        "event_total": 61,
        "has_played": true,
        "id": 51745732,
        "last_rank": 91006,
        "player_name": "Tom Elliott",
        "rank": 79844,
        "rank_sort": 80191,
        "total": 2335
      },
      {
        "club_badge_src": null,
        "entry": 6509673,
        "entry_name": "I'm a Baleba",
        "event_total": 75,
        "has_played": true,
        "id": 51907637,
        "last_rank": 129506,
        "player_name": "Harry Mitchard",
        "rank": 79844,
        "rank_sort": 80192,
        "total": 2335
      },
      {
        "club_badge_src": null,
        "entry": 6534655,
        "entry_name": "Enkerud allstars",
        "event_total": 60,
        "has_played": true,
        "id": 52130508,
        "last_rank": 88594,
        "player_name": "Rune Skymoen",
        "rank": 79844,
        "rank_sort": 80193,
        "total": 2335
      },
      {
        "club_badge_src": null,
        "entry": 6565228,
        "entry_name": "Alty All Stars",
        "event_total": 58,
        "has_played": true,
        "id": 52402646,
        "last_rank": 83698,
        "player_name": "Mark Parker",
        "rank": 79844,
        "rank_sort": 80194,
        "total": 2335
      },
      {
        "club_badge_src": null,
        "entry": 6613204,
        "entry_name": "FC Maestrowe",
        "event_total": 56,
        "has_played": true,
        "id": 52840918,
        "last_rank": 79817,
        "player_name": "Jay Rowe",
        "rank": 79844,
        "rank_sort": 80195,
        "total": 2335
      },
      {
        "club_badge_src": null,
        "entry": 6639945,
        "entry_name": "Timelord",
        "event_total": 63,
        "has_played": true,
        "id": 53075950,
        "last_rank": 96374,
        "player_name": "Tauraj Khan",
        "rank": 79844,
        "rank_sort": 80196,
        "total": 2335
      },
      {
        "club_badge_src": null,
        "entry": 6699222,
        "entry_name": "AmaD'Ness",
        "event_total": 58,
        "has_played": true,
        "id": 53601935,
        "last_rank": 83698,
        "player_name": "L Annor",
        "rank": 79844,
        "rank_sort": 80197,
        "total": 2335
      },
      {
        "club_badge_src": null,
        "entry": 6707481,
        "entry_name": "Michael POlise",
        "event_total": 55,
        "has_played": true,
        "id": 53675876,
        "last_rank": 77258,
        "player_name": "Alex Thompson",
        "rank": 79844,
        "rank_sort": 80198,
        "total": 2335
      },
      {
        "club_badge_src": "https://fantasy.premierleague.com/gcs/plfpl-production-adobe-approved/plfpl-production/6740867/48c444da-2cb4-4bc2-9037-df972fcffda8.png",
        "entry": 6740867,
        "entry_name": "greasen",
        "event_total": 51,
        "has_played": true,
        "id": 53959009,
        "last_rank": 68624,
        "player_name": "narotam n",
        "rank": 79844,
        "rank_sort": 80199,
        "total": 2335
      },
      {
        "club_badge_src": null,
        "entry": 6806066,
        "entry_name": "Norfolkinchance FC",
        "event_total": 59,
        "has_played": true,
        "id": 54506590,
        "last_rank": 86304,
        "player_name": "Mark Renshall",
        "rank": 79844,
        "rank_sort": 80200,
        "total": 2335
      }
    ]
  }
}