{
  "last_updated_data": "2026-05-24T23:28:17Z",
  "league": {
    "admin_entry": null,
    "closed": false,
    "code_privacy": "p",
    "created": "2025-07-20T23:14:33.933835Z",
    "cup_league": 2815434,
    "has_cup": true,
    "id": 314,
    "league_type": "s",
    "max_entries": null,
    "name": "Overall",
    "rank": null,
    "scoring": "c",
    "start_event": 1
  },
  "new_entries": {
    "has_next": false,
    "page": 1,
    "results": []
  },
  "standings": {
    "has_next": true,
    "page": 326,
    "results": [
      {
        "club_badge_src": null,
        "entry": 1228621,
        "entry_name": "Wirtz the Story",
        "event_total": 68,
        "has_played": true,
        "id": 8531100,
        "last_rank": 23656,
        "player_name": "Chris Poucher",
        "rank": 16214,
        "rank_sort": 16251,
        "total": 2386
      },
      {
        "club_badge_src": null,
        "entry": 1440577,
        "entry_name": "Lucky",
        "event_total": 45,
        "has_played": true,
        "id": 10038288,
        "last_rank": 8138,
        "player_name": "Faisal Khalid",
        "rank": 16214,
        "rank_sort": 16252,
        "total": 2386
      },
      {
        "club_badge_src": null,
        "entry": 1559905,
        "entry_name": "Wout",
        "event_total": 50,
        "has_played": true,
        "id": 10893756,
        "last_rank": 11821,
        "player_name": "Petter \u00d8fsteng",
        "rank": 16214,
        "rank_sort": 16253,
        "total": 2386
      },
      {
        "club_badge_src": null,
        "entry": 1575107,
        "entry_name": "The Cockney Boys",
        "event_total": 60,
        "has_played": true,
        "id": 11006349,
        "last_rank": 17585,
        "player_name": "Bradley Filsell",
        "rank": 16214,
        "rank_sort": 16254,
        "total": 2386
      },
      {
        "club_badge_src": null,
        "entry": 1597591,
        "entry_name": "\u0645\u064a\u0631\u0646\u063a\u0649 \u062c\u0645\u064a\u064a\u064a\u064a\u064a\u0644",
        "event_total": 63,
        "has_played": true,
        "id": 11175955,
        "last_rank": 19835,
        "player_name": "fakher bensethom",
        "rank": 16214,
        "rank_sort": 16255,
        "total": 2386
      },
      {
        "club_badge_src": null,
        "entry": 1632168,
        "entry_name": "Leonine XI",
        "event_total": 53,
        "has_played": true,
        "id": 11424193,
        "last_rank": 11345,
        "player_name": "sud vadrevu",
        "rank": 16214,
        "rank_sort": 16256,
        "total": 2386
      },
      {
        "club_badge_src": "https://fantasy.premierleague.com/gcs/plfpl-production-adobe-approved/plfpl-production/1689841/04448d83-1db9-4ce0-ba9d-05978e0bb372.png",
        "entry": 1689841,
        "entry_name": "CSKA Sofia",
        "event_total": 42,
        "has_played": true,
        "id": 11829713,
        "last_rank": 8552,
        "player_name": "Filip Zdronov",
        "rank": 16214,
        "rank_sort": 16257,
        "total": 2386
      },
      {
        "club_badge_src": null,
        "entry": 1738810,
        "entry_name": "Comsi Konsa",
        "event_total": 69,
        "has_played": true,
        "id": 12199286,
        "last_rank": 24330,
        "player_name": "Rob Birks",
        "rank": 16214,
        "rank_sort": 16258,
        "total": 2386
      },
      {
        "club_badge_src": null,
        "entry": 1761609,
        "entry_name": "Sure Win",
        "event_total": 61,
        "has_played": true,
        "id": 12368599,
        "last_rank": 15694,
        "player_name": "Louis Tan",
        "rank": 16214,
        "rank_sort": 16259,
        "total": 2386
      },
      {
        "club_badge_src": null,
        "entry": 1833873,
        "entry_name": "Gear FC",
        "event_total": 77,
        "has_played": true,
        "id": 12900443,
        "last_rank": 31995,
        "player_name": "Gear Wong",
        "rank": 16214,
        "rank_sort": 16260,
        "total": 2386
      },
      {
        "club_badge_src": "https://fantasy.premierleague.com/gcs/plfpl-production-adobe-approved/plfpl-production/2143708/71bd796f-2404-48da-a634-42b770d7948d.png",
        "entry": 2143708,
        "entry_name": "Psykepleierklubben",
        "event_total": 36,
        "has_played": true,
        "id": 15236354,
        "last_rank": 6579,
        "player_name": "Aldenora Fjellheim",
        "rank": 16214,
        "rank_sort": 16261,
        "total": 2386
      },
      {
        "club_badge_src": null,
        "entry": 2199966,
        "entry_name": "The Shakehounds",
        "event_total": 66,
        "has_played": true,
        "id": 15654891,
        "last_rank": 18985,
        "player_name": "Sharif Shaykhoun",
        "rank": 16214,
        "rank_sort": 16262,
        "total": 2386
      },
      {
        "club_badge_src": null,
        "entry": 2328930,
        "entry_name": "Los Campeones",
        "event_total": 69,
        "has_played": true,
        "id": 16616034,
        "last_rank": 24330,
        "player_name": "Phil Courtney",
        "rank": 16214,
        "rank_sort": 16263,
        "total": 2386
      },
      {
        "club_badge_src": null,
        "entry": 2329965,
        "entry_name": "win",
        "event_total": 72,
        "has_played": true,
        "id": 16623478,
        "last_rank": 27020,
        "player_name": "Aleksi Suvanto",
        "rank": 16214,
        "rank_sort": 16264,
        "total": 2386
      },
      {
        "club_badge_src": null,
        "entry": 2368653,
        "entry_name": "Murphys lag",
        "event_total": 66,
        "has_played": true,
        "id": 16908238,
        "last_rank": 16163,
        "player_name": "Kasper J\u00f6rhall",
        "rank": 16214,
        "rank_sort": 16265,
        "total": 2386
      },
      {
        "club_badge_src": null,
        "entry": 2393010,
        "entry_name": "Gy\u00f6keresOut",
        "event_total": 66,
        "has_played": true,
        "id": 17094446,
        "last_rank": 18985,
        "player_name": "M\u00e5ns M\u00e5nsson",
        "rank": 16214,
        "rank_sort": 16266,
        "total": 2386
      },
      {
        "club_badge_src": null,
        "entry": 2544535,
        "entry_name": "Mexico F.C",
        "event_total": 38,
        "has_played": true,
        "id": 18238034,
        "last_rank": 7193,
        "player_name": "Kevin Scully",
        "rank": 16214,
        "rank_sort": 16267,
        "total": 2386
      },
      {
        "club_badge_src": null,
        "entry": 2567614,
        "entry_name": "N\u00e6relven IL",
        "event_total": 44,
        "has_played": true,
        "id": 18419663,
        "last_rank": 7676,
        "player_name": "Sindre Viberg",
        "rank": 16214,
        "rank_sort": 16268,
        "total": 2386
      },
      {
        "club_badge_src": null,
        "entry": 2700836,
        "entry_name": "Gunnarstorps IF",
        "event_total": 61,
        "has_played": true,
        "id": 19429201,
        "last_rank": 15694,
        "player_name": "Benjamin B\u00e4ckstr\u00f6m",
        "rank": 16214,
        "rank_sort": 16269,
        "total": 2386
      },
      {
        "club_badge_src": null,
        "entry": 2721421,
        "entry_name": "Hoti jnr",
        "event_total": 59,
        "has_played": true,
        "id": 19582629,
        "last_rank": 16807,
        "player_name": "Sher Hoti",
        "rank": 16214,
        "rank_sort": 16270,
        "total": 2386
      },
      {
        "club_badge_src": null,
        "entry": 2977350,
        "entry_name": "Return of the Gedi.",
        "event_total": 61,
        "has_played": true,
        "id": 21882391,
        "last_rank": 15694,
        "player_name": "Ged Nolan",
        "rank": 16214,
        "rank_sort": 16271,
        "total": 2386
      },
      {
        "club_badge_src": null,
        "entry": 3064837,
        "entry_name": "No more Mr. Rice Kai",
        "event_total": 52,
        "has_played": true,
        "id": 22565744,
        "last_rank": 12940,
        "player_name": "Rory McMeikan",
        "rank": 16214,
        "rank_sort": 16272,
        "total": 2386
      },
      {
        "club_badge_src": null,
        "entry": 3306102,
        "entry_name": "Max' Maskiner",
        "event_total": 64,
        "has_played": true,
        "id": 24489283,
        "last_rank": 17585,
        "player_name": "Max Brigge",
        "rank": 16214,
        "rank_sort": 16273,
        "total": 2386
      },
      {
        "club_badge_src": null,
        "entry": 3331704,
        "entry_name": "KopackaKicevo",
        "event_total": 62,
        "has_played": true,
        "id": 24703019,
        "last_rank": 19103,
        "player_name": "Luka Arsov",
        "rank": 16214,
        "rank_sort": 16274,
        "total": 2386
      },
      {
        "club_badge_src": null,
        "entry": 3454662,
        "entry_name": "bgts",
        "event_total": 76,
        "has_played": true,
        "id": 25675176,
        "last_rank": 31236,
        "player_name": "afg zaki",
        "rank": 16214,
        "rank_sort": 16275,
        "total": 2386
      },
      {
        "club_badge_src": null,
        "entry": 3475700,
        "entry_name": "Seanold FC 2.0",
        "event_total": 59,
        "has_played": true,
        "id": 25842732,
        "last_rank": 17078,
        "player_name": "Sean Mcnamee",
        "rank": 16214,
        "rank_sort": 16276,
        "total": 2386
      },
      {
        "club_badge_src": null,
        "entry": 3562180,
        "entry_name": "The Backstreet Moyes",
        "event_total": 59,
        "has_played": true,
        "id": 26522735,
        "last_rank": 17078,
        "player_name": "Matt Makins",
        "rank": 16214,
        "rank_sort": 16277,
        "total": 2386
      },
      {
        "club_badge_src": null,
        "entry": 3564944,
        "entry_name": "GOALmaal hai bhai",
        "event_total": 64,
        "has_played": true,
        "id": 26544168,
        "last_rank": 17585,
        "player_name": "Mark Fernandes",
        "rank": 16214,
        "rank_sort": 16278,
        "total": 2386
      },
      {
        "club_badge_src": null,
        "entry": 3798711,
        "entry_name": "Top 2 At Least",
        "event_total": 65,
        "has_played": true,
        "id": 28395306,
        "last_rank": 21301,
        "player_name": "Luke Johnson",
        "rank": 16214,
        "rank_sort": 16279,
        "total": 2386
      },
      {
        "club_badge_src": null,
        "entry": 3968329,
        "entry_name": "Gakpo-calypse Now",
        "event_total": 45,
        "has_played": true,
        "id": 29861484,
        "last_rank": 9711,
        "player_name": "Frank Erik Str\u00f8mland",
        "rank": 16214,
        "rank_sort": 16280,
        "total": 2386
      },
      {
        "club_badge_src": null,
        "entry": 4377432,
        "entry_name": "Man van glas",
        "event_total": 64,
        "has_played": true,
        "id": 33262670,
        "last_rank": 20538,
        "player_name": "Jarni Mirtic",
        "rank": 16214,
        "rank_sort": 16281,
        "total": 2386
      },
      {
        "club_badge_src": null,
        "entry": 4543867,
        "entry_name": "Gy\u00f6k 9",
        "event_total": 52,
        "has_played": true,
        "id": 34666596,
        "last_rank": 12940,
        "player_name": "Jamie Yates",
        "rank": 16214,
        "rank_sort": 16282,
        "total": 2386
      },
      {
        "club_badge_src": null,
        "entry": 4823662,
        "entry_name": "High Stakes FC",
        "event_total": 63,
        "has_played": true,
        "id": 37148801,
        "last_rank": 19544,
        "player_name": "Yoges Segar",
        "rank": 16214,
        "rank_sort": 16283,
        "total": 2386
      },
      {
        "club_badge_src": "https://fantasy.premierleague.com/gcs/plfpl-production-adobe-approved/plfpl-production/5091177/838b8228-6bec-47c8-8e79-bf2e6c199e7b.png",
        "entry": 5091177,
        "entry_name": "Devilisback",
        "event_total": 65,
        "has_played": true,
        "id": 39350052,
        "last_rank": 21301,
        "player_name": "Milan Khadka",
        "rank": 16214,
        "rank_sort": 16284,
        "total": 2386
      },
      {
        "club_badge_src": "https://fantasy.premierleague.com/gcs/plfpl-production-adobe-approved/plfpl-production/5449769/53632060-bf78-4ebe-9932-1ae263fa4234.png",
        "entry": 5449769,
        "entry_name": "Fanatic Reds",
        "event_total": 63,
        "has_played": true,
        "id": 42407148,
        "last_rank": 16959,
        "player_name": "Amine UFR",
        "rank": 16214,
        "rank_sort": 16285,
        "total": 2386
      },
      {
        "club_badge_src": null,
        "entry": 5568924,
        "entry_name": "CaraherFC",
        "event_total": 56,
        "has_played": true,
        "id": 43484305,
        "last_rank": 15164,
        "player_name": "Adam Caraher",
        "rank": 16214,
        "rank_sort": 16286,
        "total": 2386
      },
      {
        "club_badge_src": null,
        "entry": 5659101,
        "entry_name": "Fc Noto\u0159i",
        "event_total": 62,
        "has_played": true,
        "id": 44274679,
        "last_rank": 19103,
        "player_name": "Luk\u00e1\u0161 Samuel",
        "rank": 16214,
        "rank_sort": 16287,
        "total": 2386
      },
      {
        "club_badge_src": null,
        "entry": 6272601,
        "entry_name": "Domino Athletic FC",
        "event_total": 78,
        "has_played": true,
        "id": 49670466,
        "last_rank": 33147,
        "player_name": "Dom Lobley",
        "rank": 16214,
        "rank_sort": 16288,
        "total": 2386
      },
      {
        "club_badge_src": null,
        "entry": 6443706,
        "entry_name": "1st place",
        "event_total": 66,
        "has_played": true,
        "id": 51306769,
        "last_rank": 21949,
        "player_name": "Sam O Sullivan",
        "rank": 16214,
        "rank_sort": 16289,
        "total": 2386
      },
      {
        "club_badge_src": null,
        "entry": 6515466,
        "entry_name": "Marmoushy peas",
        "event_total": 73,
        "has_played": true,
        "id": 51959559,
        "last_rank": 27976,
        "player_name": "Jack Huxley",
        "rank": 16214,
        "rank_sort": 16290,
        "total": 2386
      },
      {
        "club_badge_src": null,
        "entry": 6703859,
        "entry_name": "Template Til I Die",
        "event_total": 56,
        "has_played": true,
        "id": 53641973,
        "last_rank": 12846,
        "player_name": "Finn Ryan",
        "rank": 16214,
        "rank_sort": 16291,
        "total": 2386
      },
      {
        "club_badge_src": null,
        "entry": 6859515,
        "entry_name": "Bruno dos tres",
        "event_total": 67,
        "has_played": true,
        "id": 54960875,
        "last_rank": 19721,
        "player_name": "\u00d8rjan Heggland",
        "rank": 16214,
        "rank_sort": 16292,
        "total": 2386
      },
      {
        "club_badge_src": null,
        "entry": 7028105,
        "entry_name": "Porabia FC",
        "event_total": 62,
        "has_played": true,
        "id": 56471196,
        "last_rank": 16320,
        "player_name": "Amin Malalla",
        "rank": 16214,
        "rank_sort": 16293,
        "total": 2386
      },
      {
        "club_badge_src": null,
        "entry": 7236037,
        "entry_name": "Gamoly",
        "event_total": 62,
        "has_played": true,
        "id": 58471692,
        "last_rank": 18691,
        "player_name": "Mohammed Gamal",
        "rank": 16214,
        "rank_sort": 16294,
        "total": 2386
      },
      {
        "club_badge_src": null,
        "entry": 7350882,
        "entry_name": "Hulk 11",
        "event_total": 65,
        "has_played": true,
        "id": 59554052,
        "last_rank": 15550,
        "player_name": "Mo Shaqer",
        "rank": 16214,
        "rank_sort": 16295,
        "total": 2386
      },
      {
        "club_badge_src": null,
        "entry": 7467873,
        "entry_name": "Hesham elnady",
        "event_total": 66,
        "has_played": true,
        "id": 60867250,
        "last_rank": 22064,
        "player_name": "Hesham Elnady",
        "rank": 16214,
        "rank_sort": 16296,
        "total": 2386
      },
      {
        "club_badge_src": "https://fantasy.premierleague.com/gcs/plfpl-production-adobe-approved/plfpl-production/8479053/7ba61d92-1360-4044-9d99-ea6622eeceb5.png",
        "entry": 8479053,
        "entry_name": "PK92FC",
        "event_total": 64,
        "has_played": true,
        "id": 70431029,
        "last_rank": 20538,
        "player_name": "Sai Soe",
        "rank": 16214,
        "rank_sort": 16297,
        "total": 2386
      },
      {
        "club_badge_src": null,
        "entry": 8985373,
        "entry_name": "Guhtrafford",
        "event_total": 42,
        "has_played": true,
        "id": 75340865,
        "last_rank": 8591,
        "player_name": "Guhan Saravanan",
        "rank": 16214,
        "rank_sort": 16298,
        "total": 2386
      },
      {
        "club_badge_src": "https://fantasy.premierleague.com/gcs/plfpl-production-adobe-approved/plfpl-production/9060762/4b9eecb6-f72e-46e7-973e-fda3599232f4.png",
        "entry": 9060762,
        "entry_name": "NK \u0160ank Linija",
        "event_total": 68,
        "has_played": true,
        "id": 76069462,
        "last_rank": 23522,
        "player_name": "Bruno Raven\u0161\u010dak",
        "rank": 16214,
        "rank_sort": 16299,
        "total": 2386
      },
      {
        "club_badge_src": "https://fantasy.premierleague.com/gcs/plfpl-production-adobe-approved/plfpl-production/1006/4cb43152-cc6d-44a9-8538-536ee1a8a490.png",
        "entry": 1006,
        "entry_name": "Stokes City",
        "event_total": 66,
        "has_played": true,
        "id": 5578,
        "last_rank": 18790,
        "player_name": "George Stokes",
        "rank": 16300,
        "rank_sort": 16300,
        "total": 2386
      }
    ]
  }
}