{
  "last_updated_data": "2026-05-24T23:28:17Z",
  "league": {
    "admin_entry": null,
    "closed": false,
    "code_privacy": "p",
    "created": "2025-07-20T23:14:33.933835Z",
    "cup_league": 2815434,
    "has_cup": true,
    "id": 314,
    "league_type": "s",
    "max_entries": null,
    "name": "Overall",
    "rank": null,
    "scoring": "c",
    "start_event": 1
  },
  "new_entries": {
    "has_next": false,
    "page": 1,
    "results": []
  },
  "standings": {
    "has_next": true,
    "page": 195,
    "results": [
      {
        "club_badge_src": null,
        "entry": 845071,
        "entry_name": "Volteex11",
        "event_total": 69,
        "has_played": true,
        "id": 5790234,
        "last_rank": 15063,
        "player_name": "Achraf Belrhlimi",
        "rank": 9683,
        "rank_sort": 9701,
        "total": 2399
      },
      {
        "club_badge_src": null,
        "entry": 881018,
        "entry_name": "trademeister",
        "event_total": 68,
        "has_played": true,
        "id": 6041768,
        "last_rank": 14496,
        "player_name": "Lum Meng Leong",
        "rank": 9683,
        "rank_sort": 9702,
        "total": 2399
      },
      {
        "club_badge_src": null,
        "entry": 972954,
        "entry_name": "Extraordinary",
        "event_total": 68,
        "has_played": true,
        "id": 6707026,
        "last_rank": 14604,
        "player_name": "Abdulrahman Thiab",
        "rank": 9683,
        "rank_sort": 9703,
        "total": 2399
      },
      {
        "club_badge_src": null,
        "entry": 1109226,
        "entry_name": "Ekitike Backwards",
        "event_total": 65,
        "has_played": true,
        "id": 7683288,
        "last_rank": 10805,
        "player_name": "Alykhan Bhimji",
        "rank": 9683,
        "rank_sort": 9704,
        "total": 2399
      },
      {
        "club_badge_src": null,
        "entry": 1136306,
        "entry_name": "Led Tasso",
        "event_total": 43,
        "has_played": true,
        "id": 7876590,
        "last_rank": 4954,
        "player_name": "Andries Kleynhans",
        "rank": 9683,
        "rank_sort": 9705,
        "total": 2399
      },
      {
        "club_badge_src": "https://fantasy.premierleague.com/gcs/plfpl-production-adobe-approved/plfpl-production/1140480/fb5a1626-7e38-47f9-b745-154cad746e01.png",
        "entry": 1140480,
        "entry_name": "good kid, amad city",
        "event_total": 65,
        "has_played": true,
        "id": 7905625,
        "last_rank": 10805,
        "player_name": "Dominik Pais",
        "rank": 9683,
        "rank_sort": 9706,
        "total": 2399
      },
      {
        "club_badge_src": null,
        "entry": 1275968,
        "entry_name": "Wardos",
        "event_total": 63,
        "has_played": true,
        "id": 8866356,
        "last_rank": 11821,
        "player_name": "Marc Ward",
        "rank": 9683,
        "rank_sort": 9707,
        "total": 2399
      },
      {
        "club_badge_src": null,
        "entry": 1292635,
        "entry_name": "Arsenal Fighters",
        "event_total": 51,
        "has_played": true,
        "id": 8982368,
        "last_rank": 7141,
        "player_name": "Hracja Gjulzadjan",
        "rank": 9683,
        "rank_sort": 9708,
        "total": 2399
      },
      {
        "club_badge_src": null,
        "entry": 1412370,
        "entry_name": "AC Luddevalla",
        "event_total": 69,
        "has_played": true,
        "id": 9828756,
        "last_rank": 14926,
        "player_name": "Ludwig Fridolvsson",
        "rank": 9683,
        "rank_sort": 9709,
        "total": 2399
      },
      {
        "club_badge_src": "https://fantasy.premierleague.com/gcs/plfpl-production-adobe-approved/plfpl-production/1414354/1cc40ea5-31e7-442f-9df1-e942d69fdc7a.png",
        "entry": 1414354,
        "entry_name": "Magneto Incarnated",
        "event_total": 71,
        "has_played": true,
        "id": 9842971,
        "last_rank": 16062,
        "player_name": "Brian Magero",
        "rank": 9683,
        "rank_sort": 9710,
        "total": 2399
      },
      {
        "club_badge_src": null,
        "entry": 1429797,
        "entry_name": "MARO Brave",
        "event_total": 67,
        "has_played": true,
        "id": 9962841,
        "last_rank": 13754,
        "player_name": "Selim Marwan",
        "rank": 9683,
        "rank_sort": 9711,
        "total": 2399
      },
      {
        "club_badge_src": null,
        "entry": 1511088,
        "entry_name": "Mouadh FPL",
        "event_total": 54,
        "has_played": true,
        "id": 10538972,
        "last_rank": 8032,
        "player_name": "Mouadh Hfaiedh",
        "rank": 9683,
        "rank_sort": 9712,
        "total": 2399
      },
      {
        "club_badge_src": null,
        "entry": 1622439,
        "entry_name": "fc poekieboe",
        "event_total": 64,
        "has_played": true,
        "id": 11355334,
        "last_rank": 12322,
        "player_name": "Ludovic De ridder",
        "rank": 9683,
        "rank_sort": 9713,
        "total": 2399
      },
      {
        "club_badge_src": null,
        "entry": 1659728,
        "entry_name": "Alcarazzle Dazzle",
        "event_total": 64,
        "has_played": true,
        "id": 11620058,
        "last_rank": 12322,
        "player_name": "Kieran Clifford",
        "rank": 9683,
        "rank_sort": 9714,
        "total": 2399
      },
      {
        "club_badge_src": null,
        "entry": 1716358,
        "entry_name": "Pilka Diagonalna",
        "event_total": 51,
        "has_played": true,
        "id": 12027815,
        "last_rank": 7141,
        "player_name": "Dawid Wichowski",
        "rank": 9683,
        "rank_sort": 9715,
        "total": 2399
      },
      {
        "club_badge_src": null,
        "entry": 1899628,
        "entry_name": "BALE.",
        "event_total": 60,
        "has_played": true,
        "id": 13390590,
        "last_rank": 8758,
        "player_name": "Abdelwahab Qandil",
        "rank": 9683,
        "rank_sort": 9716,
        "total": 2399
      },
      {
        "club_badge_src": null,
        "entry": 1920335,
        "entry_name": "El Prisdente",
        "event_total": 57,
        "has_played": true,
        "id": 13541259,
        "last_rank": 9248,
        "player_name": "Badr Neyaz",
        "rank": 9683,
        "rank_sort": 9717,
        "total": 2399
      },
      {
        "club_badge_src": null,
        "entry": 2630259,
        "entry_name": "Gazda Isak",
        "event_total": 59,
        "has_played": true,
        "id": 18902751,
        "last_rank": 9942,
        "player_name": "Z Dj",
        "rank": 9683,
        "rank_sort": 9718,
        "total": 2399
      },
      {
        "club_badge_src": null,
        "entry": 2632520,
        "entry_name": "HearMeRoar",
        "event_total": 57,
        "has_played": true,
        "id": 18919357,
        "last_rank": 9248,
        "player_name": "Ronald Dina",
        "rank": 9683,
        "rank_sort": 9719,
        "total": 2399
      },
      {
        "club_badge_src": null,
        "entry": 2883086,
        "entry_name": "Kulusevskings",
        "event_total": 55,
        "has_played": true,
        "id": 21106233,
        "last_rank": 8484,
        "player_name": "Michael McGrath",
        "rank": 9683,
        "rank_sort": 9720,
        "total": 2399
      },
      {
        "club_badge_src": null,
        "entry": 2924146,
        "entry_name": "PiqueBlinders",
        "event_total": 68,
        "has_played": true,
        "id": 21436452,
        "last_rank": 14496,
        "player_name": "Ian Scott",
        "rank": 9683,
        "rank_sort": 9721,
        "total": 2399
      },
      {
        "club_badge_src": null,
        "entry": 3347600,
        "entry_name": "Rutter Woke Nonsense",
        "event_total": 44,
        "has_played": true,
        "id": 24833116,
        "last_rank": 4303,
        "player_name": "James Clarke",
        "rank": 9683,
        "rank_sort": 9722,
        "total": 2399
      },
      {
        "club_badge_src": null,
        "entry": 3348115,
        "entry_name": "Not Enough Americans",
        "event_total": 61,
        "has_played": true,
        "id": 24837123,
        "last_rank": 10920,
        "player_name": "Quin Phalen",
        "rank": 9683,
        "rank_sort": 9723,
        "total": 2399
      },
      {
        "club_badge_src": null,
        "entry": 3527383,
        "entry_name": "Frank Leboeuf's",
        "event_total": 57,
        "has_played": true,
        "id": 26251902,
        "last_rank": 9248,
        "player_name": "Henrik Erixon",
        "rank": 9683,
        "rank_sort": 9724,
        "total": 2399
      },
      {
        "club_badge_src": null,
        "entry": 3566790,
        "entry_name": "FC Gbeselona",
        "event_total": 57,
        "has_played": true,
        "id": 26558230,
        "last_rank": 9248,
        "player_name": "Olumide Falomo",
        "rank": 9683,
        "rank_sort": 9725,
        "total": 2399
      },
      {
        "club_badge_src": null,
        "entry": 3620600,
        "entry_name": "Blink-1 Eto'o",
        "event_total": 54,
        "has_played": true,
        "id": 26975057,
        "last_rank": 8032,
        "player_name": "Darren Hill",
        "rank": 9683,
        "rank_sort": 9726,
        "total": 2399
      },
      {
        "club_badge_src": null,
        "entry": 3700798,
        "entry_name": "ACunhaMateta",
        "event_total": 79,
        "has_played": true,
        "id": 27611943,
        "last_rank": 21628,
        "player_name": "Alexander James",
        "rank": 9683,
        "rank_sort": 9727,
        "total": 2399
      },
      {
        "club_badge_src": null,
        "entry": 3847873,
        "entry_name": "dimbonds",
        "event_total": 68,
        "has_played": true,
        "id": 28842468,
        "last_rank": 14251,
        "player_name": "Dmi Juz",
        "rank": 9683,
        "rank_sort": 9728,
        "total": 2399
      },
      {
        "club_badge_src": null,
        "entry": 3853127,
        "entry_name": "Chicken Caesar Salah",
        "event_total": 60,
        "has_played": true,
        "id": 28885079,
        "last_rank": 10462,
        "player_name": "John Brennan",
        "rank": 9683,
        "rank_sort": 9729,
        "total": 2399
      },
      {
        "club_badge_src": null,
        "entry": 4002285,
        "entry_name": "For Better or Wirtz",
        "event_total": 55,
        "has_played": true,
        "id": 30146184,
        "last_rank": 8552,
        "player_name": "Joe Ottone",
        "rank": 9683,
        "rank_sort": 9730,
        "total": 2399
      },
      {
        "club_badge_src": null,
        "entry": 4028879,
        "entry_name": "Divxsurg7",
        "event_total": 60,
        "has_played": true,
        "id": 30371380,
        "last_rank": 10462,
        "player_name": "Divyanshu Sharma",
        "rank": 9683,
        "rank_sort": 9731,
        "total": 2399
      },
      {
        "club_badge_src": null,
        "entry": 4522858,
        "entry_name": "A1",
        "event_total": 67,
        "has_played": true,
        "id": 34494247,
        "last_rank": 11642,
        "player_name": "A One",
        "rank": 9683,
        "rank_sort": 9732,
        "total": 2399
      },
      {
        "club_badge_src": null,
        "entry": 4559432,
        "entry_name": "I'm a Baleba",
        "event_total": 63,
        "has_played": true,
        "id": 34791445,
        "last_rank": 9942,
        "player_name": "James King",
        "rank": 9683,
        "rank_sort": 9733,
        "total": 2399
      },
      {
        "club_badge_src": null,
        "entry": 4645489,
        "entry_name": "Cherki Minaj",
        "event_total": 48,
        "has_played": true,
        "id": 35535644,
        "last_rank": 6265,
        "player_name": "Mattia Comisetti",
        "rank": 9683,
        "rank_sort": 9734,
        "total": 2399
      },
      {
        "club_badge_src": null,
        "entry": 4648248,
        "entry_name": "Top 10%",
        "event_total": 66,
        "has_played": true,
        "id": 35560457,
        "last_rank": 13401,
        "player_name": "Antoine Leduc",
        "rank": 9683,
        "rank_sort": 9735,
        "total": 2399
      },
      {
        "club_badge_src": null,
        "entry": 4724935,
        "entry_name": "Curry Wirtz",
        "event_total": 58,
        "has_played": true,
        "id": 36317292,
        "last_rank": 9644,
        "player_name": "John Hartney",
        "rank": 9683,
        "rank_sort": 9736,
        "total": 2399
      },
      {
        "club_badge_src": "https://fantasy.premierleague.com/gcs/plfpl-production-adobe-approved/plfpl-production/4839416/d2e34f53-91df-488b-9748-7bcc5e5efc5d.png",
        "entry": 4839416,
        "entry_name": "Cymru Boyos FC",
        "event_total": 60,
        "has_played": true,
        "id": 37278429,
        "last_rank": 10462,
        "player_name": "David Evans",
        "rank": 9683,
        "rank_sort": 9737,
        "total": 2399
      },
      {
        "club_badge_src": null,
        "entry": 4893311,
        "entry_name": "Fc Bob 2",
        "event_total": 68,
        "has_played": true,
        "id": 37729032,
        "last_rank": 14370,
        "player_name": "jolan fdez",
        "rank": 9683,
        "rank_sort": 9738,
        "total": 2399
      },
      {
        "club_badge_src": null,
        "entry": 5386449,
        "entry_name": "Utterly Eustace",
        "event_total": 54,
        "has_played": true,
        "id": 41874667,
        "last_rank": 8032,
        "player_name": "Ed O'Sullivan",
        "rank": 9683,
        "rank_sort": 9739,
        "total": 2399
      },
      {
        "club_badge_src": null,
        "entry": 5397748,
        "entry_name": "Manchester Unutted",
        "event_total": 62,
        "has_played": true,
        "id": 41967600,
        "last_rank": 11345,
        "player_name": "Zack Reinholtz",
        "rank": 9683,
        "rank_sort": 9740,
        "total": 2399
      },
      {
        "club_badge_src": null,
        "entry": 5493058,
        "entry_name": "3LOWA BLOWA",
        "event_total": 62,
        "has_played": true,
        "id": 42784512,
        "last_rank": 11345,
        "player_name": "A\u064f Aldawish",
        "rank": 9683,
        "rank_sort": 9741,
        "total": 2399
      },
      {
        "club_badge_src": null,
        "entry": 5529586,
        "entry_name": "Borussia M\u00f6nchenecmo",
        "event_total": 52,
        "has_played": true,
        "id": 43132490,
        "last_rank": 7450,
        "player_name": "Luke OHara",
        "rank": 9683,
        "rank_sort": 9742,
        "total": 2399
      },
      {
        "club_badge_src": null,
        "entry": 5566503,
        "entry_name": "Gr\u00e4nges Bandy",
        "event_total": 64,
        "has_played": true,
        "id": 43463330,
        "last_rank": 12200,
        "player_name": "Mikael Pihlanen",
        "rank": 9683,
        "rank_sort": 9743,
        "total": 2399
      },
      {
        "club_badge_src": null,
        "entry": 5867678,
        "entry_name": "AUB",
        "event_total": 65,
        "has_played": true,
        "id": 46086363,
        "last_rank": 12705,
        "player_name": "Ay oub",
        "rank": 9683,
        "rank_sort": 9744,
        "total": 2399
      },
      {
        "club_badge_src": null,
        "entry": 5912515,
        "entry_name": "CAFE OL\u00c9 BOYZ",
        "event_total": 50,
        "has_played": true,
        "id": 46462892,
        "last_rank": 6839,
        "player_name": "Gaku Lange",
        "rank": 9683,
        "rank_sort": 9745,
        "total": 2399
      },
      {
        "club_badge_src": null,
        "entry": 6273604,
        "entry_name": "Charli xGx",
        "event_total": 56,
        "has_played": true,
        "id": 49679029,
        "last_rank": 8854,
        "player_name": "hannah soll",
        "rank": 9683,
        "rank_sort": 9746,
        "total": 2399
      },
      {
        "club_badge_src": null,
        "entry": 6475253,
        "entry_name": "Arsenalin vuosi",
        "event_total": 75,
        "has_played": true,
        "id": 51599216,
        "last_rank": 18691,
        "player_name": "Make Kaari",
        "rank": 9683,
        "rank_sort": 9747,
        "total": 2399
      },
      {
        "club_badge_src": null,
        "entry": 7353459,
        "entry_name": "Bone",
        "event_total": 57,
        "has_played": true,
        "id": 59580177,
        "last_rank": 9142,
        "player_name": "Mark Bone",
        "rank": 9683,
        "rank_sort": 9748,
        "total": 2399
      },
      {
        "club_badge_src": null,
        "entry": 7386318,
        "entry_name": "TommysTerrors",
        "event_total": 53,
        "has_played": true,
        "id": 59884646,
        "last_rank": 7676,
        "player_name": "Chris Smiles",
        "rank": 9683,
        "rank_sort": 9749,
        "total": 2399
      },
      {
        "club_badge_src": null,
        "entry": 7490172,
        "entry_name": "Splatter Fatality",
        "event_total": 67,
        "has_played": true,
        "id": 61155450,
        "last_rank": 13947,
        "player_name": "Ben Hewett",
        "rank": 9683,
        "rank_sort": 9750,
        "total": 2399
      }
    ]
  }
}