{
  "last_updated_data": "2026-05-24T23:28:17Z",
  "league": {
    "admin_entry": null,
    "closed": false,
    "code_privacy": "p",
    "created": "2025-07-20T23:14:33.933835Z",
    "cup_league": 2815434,
    "has_cup": true,
    "id": 314,
    "league_type": "s",
    "max_entries": null,
    "name": "Overall",
    "rank": null,
    "scoring": "c",
    "start_event": 1
  },
  "new_entries": {
    "has_next": false,
    "page": 1,
    "results": []
  },
  "standings": {
    "has_next": true,
    "page": 124,
    "results": [
      {
        "club_badge_src": null,
        "entry": 9639,
        "entry_name": "iToey olo",
        "event_total": 69,
        "has_played": true,
        "id": 56734,
        "last_rank": 9484,
        "player_name": "Tichai iToey",
        "rank": 6147,
        "rank_sort": 6151,
        "total": 2410
      },
      {
        "club_badge_src": null,
        "entry": 14006,
        "entry_name": "Dex's Space Diner XI",
        "event_total": 58,
        "has_played": true,
        "id": 84859,
        "last_rank": 5940,
        "player_name": "Nick Moult",
        "rank": 6147,
        "rank_sort": 6152,
        "total": 2410
      },
      {
        "club_badge_src": null,
        "entry": 19914,
        "entry_name": "Click here",
        "event_total": 66,
        "has_played": true,
        "id": 123950,
        "last_rank": 7059,
        "player_name": "Zak Abukar",
        "rank": 6147,
        "rank_sort": 6153,
        "total": 2410
      },
      {
        "club_badge_src": null,
        "entry": 35597,
        "entry_name": "\u2014\u2014?!\u2014\u2014",
        "event_total": 57,
        "has_played": true,
        "id": 227819,
        "last_rank": 4742,
        "player_name": "Mark Edworthy",
        "rank": 6147,
        "rank_sort": 6154,
        "total": 2410
      },
      {
        "club_badge_src": null,
        "entry": 41082,
        "entry_name": "FrontRunners",
        "event_total": 66,
        "has_played": true,
        "id": 263290,
        "last_rank": 7059,
        "player_name": "Tikaharu Sharma",
        "rank": 6147,
        "rank_sort": 6155,
        "total": 2410
      },
      {
        "club_badge_src": null,
        "entry": 59533,
        "entry_name": "MAKING MONEY MACHINE",
        "event_total": 50,
        "has_played": true,
        "id": 383383,
        "last_rank": 4099,
        "player_name": "Zapryan Zapryanov",
        "rank": 6147,
        "rank_sort": 6156,
        "total": 2410
      },
      {
        "club_badge_src": null,
        "entry": 82755,
        "entry_name": "bolo zenden",
        "event_total": 44,
        "has_played": true,
        "id": 538545,
        "last_rank": 3150,
        "player_name": "Sam Slydel",
        "rank": 6147,
        "rank_sort": 6157,
        "total": 2410
      },
      {
        "club_badge_src": null,
        "entry": 85980,
        "entry_name": "RaksDevil",
        "event_total": 61,
        "has_played": true,
        "id": 560181,
        "last_rank": 6839,
        "player_name": "Rakesh Shandgi",
        "rank": 6147,
        "rank_sort": 6158,
        "total": 2410
      },
      {
        "club_badge_src": "https://fantasy.premierleague.com/gcs/plfpl-production-adobe-approved/plfpl-production/99655/4ed4e2ff-3b7e-4a13-a6e7-6b43ebd711c4.png",
        "entry": 99655,
        "entry_name": "ST\u00dcSSY ALL\u272eSTARS",
        "event_total": 65,
        "has_played": true,
        "id": 650524,
        "last_rank": 6752,
        "player_name": "Jonny Small",
        "rank": 6147,
        "rank_sort": 6159,
        "total": 2410
      },
      {
        "club_badge_src": null,
        "entry": 109821,
        "entry_name": "Wirtz Team Ever",
        "event_total": 63,
        "has_played": true,
        "id": 716136,
        "last_rank": 7375,
        "player_name": "Joshua Pinto",
        "rank": 6147,
        "rank_sort": 6160,
        "total": 2410
      },
      {
        "club_badge_src": null,
        "entry": 177505,
        "entry_name": "Main hi Jeetunga",
        "event_total": 53,
        "has_played": true,
        "id": 1171537,
        "last_rank": 4839,
        "player_name": "Ritesh Khanna",
        "rank": 6147,
        "rank_sort": 6161,
        "total": 2410
      },
      {
        "club_badge_src": null,
        "entry": 243624,
        "entry_name": "Stiff Kicks",
        "event_total": 56,
        "has_played": true,
        "id": 1622201,
        "last_rank": 5448,
        "player_name": "Miguel Godinez",
        "rank": 6147,
        "rank_sort": 6162,
        "total": 2410
      },
      {
        "club_badge_src": "https://fantasy.premierleague.com/gcs/plfpl-production-adobe-approved/plfpl-production/305450/891fa4b5-0ddb-48dd-94f9-a8bd6b16edf1.png",
        "entry": 305450,
        "entry_name": "atletico jalapenos",
        "event_total": 67,
        "has_played": true,
        "id": 2045504,
        "last_rank": 7375,
        "player_name": "D B",
        "rank": 6147,
        "rank_sort": 6163,
        "total": 2410
      },
      {
        "club_badge_src": null,
        "entry": 334011,
        "entry_name": "Mileys Men",
        "event_total": 56,
        "has_played": true,
        "id": 2236785,
        "last_rank": 5528,
        "player_name": "Alan Martin",
        "rank": 6147,
        "rank_sort": 6164,
        "total": 2410
      },
      {
        "club_badge_src": null,
        "entry": 357690,
        "entry_name": "CLUMP FC",
        "event_total": 66,
        "has_played": true,
        "id": 2393705,
        "last_rank": 8484,
        "player_name": "Jack Clamp",
        "rank": 6147,
        "rank_sort": 6165,
        "total": 2410
      },
      {
        "club_badge_src": null,
        "entry": 369911,
        "entry_name": "Harchester United",
        "event_total": 57,
        "has_played": true,
        "id": 2475286,
        "last_rank": 5688,
        "player_name": "Ian Fletcher",
        "rank": 6147,
        "rank_sort": 6166,
        "total": 2410
      },
      {
        "club_badge_src": "https://fantasy.premierleague.com/gcs/plfpl-production-adobe-approved/plfpl-production/429194/abaaadf2-accc-468d-b0f9-51d9b4e4b8af.png",
        "entry": 429194,
        "entry_name": "Kings XI",
        "event_total": 72,
        "has_played": true,
        "id": 2878657,
        "last_rank": 10920,
        "player_name": "Simranjot Singh",
        "rank": 6147,
        "rank_sort": 6167,
        "total": 2410
      },
      {
        "club_badge_src": null,
        "entry": 434209,
        "entry_name": "Ram-part",
        "event_total": 63,
        "has_played": true,
        "id": 2911854,
        "last_rank": 7375,
        "player_name": "Colin Verstraete",
        "rank": 6147,
        "rank_sort": 6168,
        "total": 2410
      },
      {
        "club_badge_src": null,
        "entry": 590031,
        "entry_name": "Charli xGx",
        "event_total": 60,
        "has_played": true,
        "id": 3974378,
        "last_rank": 5400,
        "player_name": "Samuel Hanks",
        "rank": 6147,
        "rank_sort": 6169,
        "total": 2410
      },
      {
        "club_badge_src": null,
        "entry": 604469,
        "entry_name": "ATAALLAH",
        "event_total": 67,
        "has_played": true,
        "id": 4080584,
        "last_rank": 8758,
        "player_name": "Ahmed Ata Allah",
        "rank": 6147,
        "rank_sort": 6170,
        "total": 2410
      },
      {
        "club_badge_src": null,
        "entry": 667077,
        "entry_name": "Champos XI",
        "event_total": 60,
        "has_played": true,
        "id": 4510383,
        "last_rank": 6528,
        "player_name": "Chris Brown",
        "rank": 6147,
        "rank_sort": 6171,
        "total": 2410
      },
      {
        "club_badge_src": null,
        "entry": 934803,
        "entry_name": "Real Socialdad",
        "event_total": 52,
        "has_played": true,
        "id": 6432944,
        "last_rank": 4570,
        "player_name": "Dan Butcher",
        "rank": 6147,
        "rank_sort": 6172,
        "total": 2410
      },
      {
        "club_badge_src": "https://fantasy.premierleague.com/gcs/plfpl-production-adobe-approved/plfpl-production/999086/ffd867a8-3f8a-4484-b506-a3009bc54a05.png",
        "entry": 999086,
        "entry_name": "Suphaqorn fc",
        "event_total": 65,
        "has_played": true,
        "id": 6905058,
        "last_rank": 6752,
        "player_name": "supakorn apaipolchan",
        "rank": 6147,
        "rank_sort": 6173,
        "total": 2410
      },
      {
        "club_badge_src": "https://fantasy.premierleague.com/gcs/plfpl-production-adobe-approved/plfpl-production/1049302/540dafdc-ecb0-49ba-9640-9b5775b0d9c6.png",
        "entry": 1049302,
        "entry_name": "FPL Alpha",
        "event_total": 58,
        "has_played": true,
        "id": 7261715,
        "last_rank": 5940,
        "player_name": "Raeez Modack",
        "rank": 6147,
        "rank_sort": 6174,
        "total": 2410
      },
      {
        "club_badge_src": "https://fantasy.premierleague.com/gcs/plfpl-production-adobe-approved/plfpl-production/1114841/0160ac52-f7ca-44a2-8cb3-d9bdcd3d8917.png",
        "entry": 1114841,
        "entry_name": "Dads Army",
        "event_total": 60,
        "has_played": true,
        "id": 7722237,
        "last_rank": 6448,
        "player_name": "Michael Simmons",
        "rank": 6147,
        "rank_sort": 6175,
        "total": 2410
      },
      {
        "club_badge_src": null,
        "entry": 1264617,
        "entry_name": "Loyd's Lads",
        "event_total": 62,
        "has_played": true,
        "id": 8786620,
        "last_rank": 7059,
        "player_name": "Loyd Horner",
        "rank": 6147,
        "rank_sort": 6176,
        "total": 2410
      },
      {
        "club_badge_src": "https://fantasy.premierleague.com/gcs/plfpl-production-adobe-approved/plfpl-production/1318029/a43e6c53-f208-477e-abaf-be1615b27c32.png",
        "entry": 1318029,
        "entry_name": "Galacticos",
        "event_total": 56,
        "has_played": true,
        "id": 9161156,
        "last_rank": 5498,
        "player_name": "Mehran Mirmohammadi",
        "rank": 6147,
        "rank_sort": 6177,
        "total": 2410
      },
      {
        "club_badge_src": null,
        "entry": 2050789,
        "entry_name": "momoring",
        "event_total": 61,
        "has_played": true,
        "id": 14526024,
        "last_rank": 5688,
        "player_name": "Supakorn Dangchamroon",
        "rank": 6147,
        "rank_sort": 6178,
        "total": 2410
      },
      {
        "club_badge_src": "https://fantasy.premierleague.com/gcs/plfpl-production-adobe-approved/plfpl-production/2092041/0bafee70-287d-4b7c-ab17-1982fde20785.png",
        "entry": 2092041,
        "entry_name": "Dont LookBack Elanga",
        "event_total": 76,
        "has_played": true,
        "id": 14842963,
        "last_rank": 12705,
        "player_name": "Louis Frost",
        "rank": 6147,
        "rank_sort": 6179,
        "total": 2410
      },
      {
        "club_badge_src": null,
        "entry": 2399022,
        "entry_name": "Struijk It Gently",
        "event_total": 66,
        "has_played": true,
        "id": 17144364,
        "last_rank": 8484,
        "player_name": "Thabit Ahamed",
        "rank": 6147,
        "rank_sort": 6180,
        "total": 2410
      },
      {
        "club_badge_src": null,
        "entry": 2536176,
        "entry_name": "elvitaly",
        "event_total": 81,
        "has_played": true,
        "id": 18175339,
        "last_rank": 13257,
        "player_name": "Vitaly Eliash",
        "rank": 6147,
        "rank_sort": 6181,
        "total": 2410
      },
      {
        "club_badge_src": "https://fantasy.premierleague.com/gcs/plfpl-production-adobe-approved/plfpl-production/2604800/256fecdd-6a27-4f6a-b333-08334ef3dde8.png",
        "entry": 2604800,
        "entry_name": "Kg Morten",
        "event_total": 74,
        "has_played": true,
        "id": 18710515,
        "last_rank": 11642,
        "player_name": "Amalul Asyraf",
        "rank": 6147,
        "rank_sort": 6182,
        "total": 2410
      },
      {
        "club_badge_src": null,
        "entry": 3036982,
        "entry_name": "Lost in da Disasi",
        "event_total": 66,
        "has_played": true,
        "id": 22351581,
        "last_rank": 7059,
        "player_name": "Gavin Sleeter",
        "rank": 6147,
        "rank_sort": 6183,
        "total": 2410
      },
      {
        "club_badge_src": null,
        "entry": 3112936,
        "entry_name": "Gooners",
        "event_total": 60,
        "has_played": true,
        "id": 22971346,
        "last_rank": 6528,
        "player_name": "Michael Nagle",
        "rank": 6147,
        "rank_sort": 6184,
        "total": 2410
      },
      {
        "club_badge_src": null,
        "entry": 3141117,
        "entry_name": "fc Poiss united",
        "event_total": 38,
        "has_played": true,
        "id": 23189888,
        "last_rank": 2328,
        "player_name": "J\u00fcri Milov",
        "rank": 6147,
        "rank_sort": 6185,
        "total": 2410
      },
      {
        "club_badge_src": "https://fantasy.premierleague.com/gcs/plfpl-production-adobe-approved/plfpl-production/3161483/4051c5b9-3a57-4237-bb69-3ee12b21f8a4.png",
        "entry": 3161483,
        "entry_name": "The Cunning Cunhas",
        "event_total": 57,
        "has_played": true,
        "id": 23354713,
        "last_rank": 5688,
        "player_name": "Andy Hall",
        "rank": 6147,
        "rank_sort": 6186,
        "total": 2410
      },
      {
        "club_badge_src": null,
        "entry": 3857488,
        "entry_name": "Leksands Lirare",
        "event_total": 62,
        "has_played": true,
        "id": 28920606,
        "last_rank": 5904,
        "player_name": "Philip Nyg\u00e5rdh",
        "rank": 6147,
        "rank_sort": 6187,
        "total": 2410
      },
      {
        "club_badge_src": "https://fantasy.premierleague.com/gcs/plfpl-production-adobe-approved/plfpl-production/4129013/34927bbe-9050-49e3-bfc4-4a022cd1473c.png",
        "entry": 4129013,
        "entry_name": "Dun Goofers",
        "event_total": 56,
        "has_played": true,
        "id": 31201033,
        "last_rank": 4488,
        "player_name": "Michael Naylor",
        "rank": 6147,
        "rank_sort": 6188,
        "total": 2410
      },
      {
        "club_badge_src": null,
        "entry": 4152970,
        "entry_name": "Neymar Mr Nice Guy",
        "event_total": 60,
        "has_played": true,
        "id": 31390144,
        "last_rank": 6448,
        "player_name": "Nathan Laverty",
        "rank": 6147,
        "rank_sort": 6189,
        "total": 2410
      },
      {
        "club_badge_src": null,
        "entry": 4296504,
        "entry_name": "Gone to VARkinson",
        "event_total": 69,
        "has_played": true,
        "id": 32594294,
        "last_rank": 9644,
        "player_name": "Kathryn Parkinson",
        "rank": 6147,
        "rank_sort": 6190,
        "total": 2410
      },
      {
        "club_badge_src": null,
        "entry": 4346479,
        "entry_name": "FC Vieux chauves",
        "event_total": 66,
        "has_played": true,
        "id": 33004090,
        "last_rank": 8382,
        "player_name": "Antoine Guex",
        "rank": 6147,
        "rank_sort": 6191,
        "total": 2410
      },
      {
        "club_badge_src": null,
        "entry": 4672441,
        "entry_name": "Svensb\u00f6le City",
        "event_total": 59,
        "has_played": true,
        "id": 35791663,
        "last_rank": 6265,
        "player_name": "Anthon Gr\u00f6nqvist",
        "rank": 6147,
        "rank_sort": 6192,
        "total": 2410
      },
      {
        "club_badge_src": null,
        "entry": 4693786,
        "entry_name": "JB\u2019s Balebas",
        "event_total": 58,
        "has_played": true,
        "id": 35978910,
        "last_rank": 6011,
        "player_name": "Jack Bodill",
        "rank": 6147,
        "rank_sort": 6193,
        "total": 2410
      },
      {
        "club_badge_src": "https://fantasy.premierleague.com/gcs/plfpl-production-adobe-approved/plfpl-production/4827890/6fab406e-5c9f-4c6b-9fa4-9a74a9c50829.png",
        "entry": 4827890,
        "entry_name": "Shire's Green&White",
        "event_total": 61,
        "has_played": true,
        "id": 37182883,
        "last_rank": 5688,
        "player_name": "Declan Quinn-Thomas",
        "rank": 6147,
        "rank_sort": 6194,
        "total": 2410
      },
      {
        "club_badge_src": null,
        "entry": 4930575,
        "entry_name": "FK Storaa",
        "event_total": 57,
        "has_played": true,
        "id": 38034593,
        "last_rank": 5752,
        "player_name": "Adrian A. Aagesen",
        "rank": 6147,
        "rank_sort": 6195,
        "total": 2410
      },
      {
        "club_badge_src": "https://fantasy.premierleague.com/gcs/plfpl-production-adobe-approved/plfpl-production/5197293/4b711e35-1262-4542-b2d0-dd3c07973a48.png",
        "entry": 5197293,
        "entry_name": "Samosir Warriors",
        "event_total": 49,
        "has_played": true,
        "id": 40241883,
        "last_rank": 3951,
        "player_name": "Francesco Ilham",
        "rank": 6147,
        "rank_sort": 6196,
        "total": 2410
      },
      {
        "club_badge_src": null,
        "entry": 5503595,
        "entry_name": "Qvarna FF",
        "event_total": 57,
        "has_played": true,
        "id": 42885611,
        "last_rank": 5752,
        "player_name": "Linus Henningsson",
        "rank": 6147,
        "rank_sort": 6197,
        "total": 2410
      },
      {
        "club_badge_src": null,
        "entry": 6560933,
        "entry_name": "Full Fart Fram\u00e5t",
        "event_total": 66,
        "has_played": true,
        "id": 52364454,
        "last_rank": 8382,
        "player_name": "Jesper Cederschiold",
        "rank": 6147,
        "rank_sort": 6198,
        "total": 2410
      },
      {
        "club_badge_src": null,
        "entry": 6994983,
        "entry_name": "AWEsome United",
        "event_total": 65,
        "has_played": true,
        "id": 56156036,
        "last_rank": 7979,
        "player_name": "Axel Wroll-Evensen",
        "rank": 6147,
        "rank_sort": 6199,
        "total": 2410
      },
      {
        "club_badge_src": null,
        "entry": 7685719,
        "entry_name": "The Milk Men",
        "event_total": 69,
        "has_played": true,
        "id": 63042986,
        "last_rank": 9536,
        "player_name": "Joe Mleczko",
        "rank": 6147,
        "rank_sort": 6200,
        "total": 2410
      }
    ]
  }
}