{
  "last_updated_data": "2026-05-24T23:28:17Z",
  "league": {
    "admin_entry": null,
    "closed": false,
    "code_privacy": "p",
    "created": "2025-07-20T23:14:33.933835Z",
    "cup_league": 2815434,
    "has_cup": true,
    "id": 314,
    "league_type": "s",
    "max_entries": null,
    "name": "Overall",
    "rank": null,
    "scoring": "c",
    "start_event": 1
  },
  "new_entries": {
    "has_next": false,
    "page": 1,
    "results": []
  },
  "standings": {
    "has_next": true,
    "page": 1577,
    "results": [
      {
        "club_badge_src": null,
        "entry": 205791,
        "entry_name": "B\u0119dzieDobrze",
        "event_total": 52,
        "has_played": true,
        "id": 1367914,
        "last_rank": 62223,
        "player_name": "Micha\u0142 Szczurek",
        "rank": 78765,
        "rank_sort": 78801,
        "total": 2336
      },
      {
        "club_badge_src": null,
        "entry": 207438,
        "entry_name": "CF maksiu",
        "event_total": 63,
        "has_played": true,
        "id": 1378784,
        "last_rank": 75537,
        "player_name": "Micha\u0142 Maksymowicz",
        "rank": 78765,
        "rank_sort": 78802,
        "total": 2336
      },
      {
        "club_badge_src": null,
        "entry": 240668,
        "entry_name": "Finding Tino",
        "event_total": 71,
        "has_played": true,
        "id": 1601762,
        "last_rank": 104388,
        "player_name": "Cameron Roy",
        "rank": 78765,
        "rank_sort": 78803,
        "total": 2336
      },
      {
        "club_badge_src": "https://fantasy.premierleague.com/gcs/plfpl-production-adobe-approved/plfpl-production/243776/a4f84912-16df-478d-adce-60a4f286ad91.png",
        "entry": 243776,
        "entry_name": "Tigers FC",
        "event_total": 66,
        "has_played": true,
        "id": 1623166,
        "last_rank": 102125,
        "player_name": "Eyad Nimer",
        "rank": 78765,
        "rank_sort": 78804,
        "total": 2336
      },
      {
        "club_badge_src": null,
        "entry": 244647,
        "entry_name": "Makelo Artemba",
        "event_total": 59,
        "has_played": true,
        "id": 1628841,
        "last_rank": 75537,
        "player_name": "Fares SK",
        "rank": 78765,
        "rank_sort": 78805,
        "total": 2336
      },
      {
        "club_badge_src": "https://fantasy.premierleague.com/gcs/plfpl-production-adobe-approved/plfpl-production/264106/f952cd45-2c36-494e-8f38-0c5dae6937ba.png",
        "entry": 264106,
        "entry_name": "Der \u00dcbermensch",
        "event_total": 70,
        "has_played": true,
        "id": 1756178,
        "last_rank": 112960,
        "player_name": "Ian Munro",
        "rank": 78765,
        "rank_sort": 78806,
        "total": 2336
      },
      {
        "club_badge_src": null,
        "entry": 274412,
        "entry_name": "Szympansy FC",
        "event_total": 73,
        "has_played": true,
        "id": 1825984,
        "last_rank": 109863,
        "player_name": "Piotr Szymala",
        "rank": 78765,
        "rank_sort": 78807,
        "total": 2336
      },
      {
        "club_badge_src": null,
        "entry": 292054,
        "entry_name": "High Rollers",
        "event_total": 71,
        "has_played": true,
        "id": 1948441,
        "last_rank": 115760,
        "player_name": "Mark Fanner",
        "rank": 78765,
        "rank_sort": 78808,
        "total": 2336
      },
      {
        "club_badge_src": null,
        "entry": 299152,
        "entry_name": "Football by Fordy",
        "event_total": 32,
        "has_played": true,
        "id": 2000473,
        "last_rank": 38163,
        "player_name": "Andy Ford",
        "rank": 78765,
        "rank_sort": 78809,
        "total": 2336
      },
      {
        "club_badge_src": null,
        "entry": 302634,
        "entry_name": "FindingTimo",
        "event_total": 66,
        "has_played": true,
        "id": 2025372,
        "last_rank": 91835,
        "player_name": "Amir Mostaed",
        "rank": 78765,
        "rank_sort": 78810,
        "total": 2336
      },
      {
        "club_badge_src": "https://fantasy.premierleague.com/gcs/plfpl-production-adobe-approved/plfpl-production/304676/e088efad-edce-4227-8a3c-7534bc65c70c.png",
        "entry": 304676,
        "entry_name": "Toppo R&A",
        "event_total": 51,
        "has_played": true,
        "id": 2040029,
        "last_rank": 68107,
        "player_name": "Narerdol Gantanant",
        "rank": 78765,
        "rank_sort": 78811,
        "total": 2336
      },
      {
        "club_badge_src": null,
        "entry": 311051,
        "entry_name": "Mendip Muppets",
        "event_total": 33,
        "has_played": true,
        "id": 2083837,
        "last_rank": 39403,
        "player_name": "Ben Taylor",
        "rank": 78765,
        "rank_sort": 78812,
        "total": 2336
      },
      {
        "club_badge_src": null,
        "entry": 311740,
        "entry_name": "\u26053os\u2605",
        "event_total": 68,
        "has_played": true,
        "id": 2088519,
        "last_rank": 96374,
        "player_name": "Osman Ahmed",
        "rank": 78765,
        "rank_sort": 78813,
        "total": 2336
      },
      {
        "club_badge_src": null,
        "entry": 314862,
        "entry_name": "Barkboy12",
        "event_total": 52,
        "has_played": true,
        "id": 2109989,
        "last_rank": 62223,
        "player_name": "Tai Durell",
        "rank": 78765,
        "rank_sort": 78814,
        "total": 2336
      },
      {
        "club_badge_src": null,
        "entry": 349896,
        "entry_name": "Eze come Eze go",
        "event_total": 68,
        "has_played": true,
        "id": 2341881,
        "last_rank": 96374,
        "player_name": "Adam Topham",
        "rank": 78765,
        "rank_sort": 78815,
        "total": 2336
      },
      {
        "club_badge_src": null,
        "entry": 352546,
        "entry_name": "C30",
        "event_total": 87,
        "has_played": true,
        "id": 2359569,
        "last_rank": 168074,
        "player_name": "C 30",
        "rank": 78765,
        "rank_sort": 78816,
        "total": 2336
      },
      {
        "club_badge_src": null,
        "entry": 357698,
        "entry_name": "Pick of Destiny",
        "event_total": 49,
        "has_played": true,
        "id": 2393755,
        "last_rank": 57001,
        "player_name": "Uno Jakobsson",
        "rank": 78765,
        "rank_sort": 78817,
        "total": 2336
      },
      {
        "club_badge_src": null,
        "entry": 386718,
        "entry_name": "Minteh fresh",
        "event_total": 65,
        "has_played": true,
        "id": 2594351,
        "last_rank": 99596,
        "player_name": "Lewis Mccartney",
        "rank": 78765,
        "rank_sort": 78818,
        "total": 2336
      },
      {
        "club_badge_src": null,
        "entry": 392407,
        "entry_name": "Cordal Master",
        "event_total": 60,
        "has_played": true,
        "id": 2631905,
        "last_rank": 87350,
        "player_name": "tim odonoghue",
        "rank": 78765,
        "rank_sort": 78819,
        "total": 2336
      },
      {
        "club_badge_src": null,
        "entry": 410319,
        "entry_name": "cops and rogers",
        "event_total": 64,
        "has_played": true,
        "id": 2751279,
        "last_rank": 87074,
        "player_name": "Archie Brookes",
        "rank": 78765,
        "rank_sort": 78820,
        "total": 2336
      },
      {
        "club_badge_src": null,
        "entry": 427193,
        "entry_name": "Jason's Argonauts",
        "event_total": 73,
        "has_played": true,
        "id": 2864723,
        "last_rank": 121705,
        "player_name": "Jason Priley",
        "rank": 78765,
        "rank_sort": 78821,
        "total": 2336
      },
      {
        "club_badge_src": null,
        "entry": 431143,
        "entry_name": "Farcelona ***",
        "event_total": 65,
        "has_played": true,
        "id": 2891488,
        "last_rank": 99296,
        "player_name": "Spiros Spyrou",
        "rank": 78765,
        "rank_sort": 78822,
        "total": 2336
      },
      {
        "club_badge_src": null,
        "entry": 441732,
        "entry_name": "Silent But Deadly",
        "event_total": 63,
        "has_played": true,
        "id": 2961858,
        "last_rank": 94537,
        "player_name": "Chenthil Kumarasingam",
        "rank": 78765,
        "rank_sort": 78823,
        "total": 2336
      },
      {
        "club_badge_src": null,
        "entry": 445380,
        "entry_name": "Wharton on Sunshine",
        "event_total": 62,
        "has_played": true,
        "id": 2986785,
        "last_rank": 82398,
        "player_name": "Liam Reyner",
        "rank": 78765,
        "rank_sort": 78824,
        "total": 2336
      },
      {
        "club_badge_src": "https://fantasy.premierleague.com/gcs/plfpl-production-adobe-approved/plfpl-production/451453/93093053-1dfc-430a-94c9-81dd056c00d5.png",
        "entry": 451453,
        "entry_name": "The BenchMARK Again",
        "event_total": 40,
        "has_played": true,
        "id": 3028786,
        "last_rank": 43168,
        "player_name": "Mark Trythall",
        "rank": 78765,
        "rank_sort": 78825,
        "total": 2336
      },
      {
        "club_badge_src": null,
        "entry": 473022,
        "entry_name": "Dynamo Davis",
        "event_total": 56,
        "has_played": true,
        "id": 3175716,
        "last_rank": 69641,
        "player_name": "Ben Davis",
        "rank": 78765,
        "rank_sort": 78826,
        "total": 2336
      },
      {
        "club_badge_src": null,
        "entry": 500671,
        "entry_name": "simens saftiga lag",
        "event_total": 43,
        "has_played": true,
        "id": 3360039,
        "last_rank": 53952,
        "player_name": "Simon H\u00f6gberg",
        "rank": 78765,
        "rank_sort": 78827,
        "total": 2336
      },
      {
        "club_badge_src": null,
        "entry": 510044,
        "entry_name": "Tijjani Reindeers",
        "event_total": 57,
        "has_played": true,
        "id": 3424874,
        "last_rank": 80465,
        "player_name": "Rizqi Syahra",
        "rank": 78765,
        "rank_sort": 78828,
        "total": 2336
      },
      {
        "club_badge_src": null,
        "entry": 515091,
        "entry_name": "Streaky Samosas",
        "event_total": 68,
        "has_played": true,
        "id": 3458418,
        "last_rank": 96777,
        "player_name": "Prayag Panchwadkar",
        "rank": 78765,
        "rank_sort": 78829,
        "total": 2336
      },
      {
        "club_badge_src": null,
        "entry": 516988,
        "entry_name": "Can't find my Kerkez",
        "event_total": 50,
        "has_played": true,
        "id": 3470886,
        "last_rank": 58688,
        "player_name": "Al McFarland",
        "rank": 78765,
        "rank_sort": 78830,
        "total": 2336
      },
      {
        "club_badge_src": "https://fantasy.premierleague.com/gcs/plfpl-production-adobe-approved/plfpl-production/556372/d5e36904-c6a3-4589-a8c0-6ae4b7ada6ee.png",
        "entry": 556372,
        "entry_name": "Ctrl Alt Delap",
        "event_total": 59,
        "has_played": true,
        "id": 3744443,
        "last_rank": 84980,
        "player_name": "Blane McNab",
        "rank": 78765,
        "rank_sort": 78831,
        "total": 2336
      },
      {
        "club_badge_src": null,
        "entry": 577378,
        "entry_name": "Top of the Cunha",
        "event_total": 57,
        "has_played": true,
        "id": 3885136,
        "last_rank": 71386,
        "player_name": "Barney Redwood",
        "rank": 78765,
        "rank_sort": 78832,
        "total": 2336
      },
      {
        "club_badge_src": null,
        "entry": 599988,
        "entry_name": "Shift DeLigt",
        "event_total": 61,
        "has_played": true,
        "id": 4047700,
        "last_rank": 89706,
        "player_name": "S\u028a\u0308\u03b2h\u03b1 \u03b4\u0259\u0259p",
        "rank": 78765,
        "rank_sort": 78833,
        "total": 2336
      },
      {
        "club_badge_src": null,
        "entry": 624274,
        "entry_name": "ballers",
        "event_total": 29,
        "has_played": true,
        "id": 4218727,
        "last_rank": 34578,
        "player_name": "Michael Thomas",
        "rank": 78765,
        "rank_sort": 78834,
        "total": 2336
      },
      {
        "club_badge_src": null,
        "entry": 666031,
        "entry_name": "Slabhead FC",
        "event_total": 48,
        "has_played": true,
        "id": 4503114,
        "last_rank": 62429,
        "player_name": "Oli Wardle",
        "rank": 78765,
        "rank_sort": 78835,
        "total": 2336
      },
      {
        "club_badge_src": null,
        "entry": 675058,
        "entry_name": "4 in a row",
        "event_total": 57,
        "has_played": true,
        "id": 4566936,
        "last_rank": 80465,
        "player_name": "Michael Haynes",
        "rank": 78765,
        "rank_sort": 78836,
        "total": 2336
      },
      {
        "club_badge_src": null,
        "entry": 681024,
        "entry_name": "jarrah.ali",
        "event_total": 64,
        "has_played": true,
        "id": 4608803,
        "last_rank": 97096,
        "player_name": "Jarah Alali",
        "rank": 78765,
        "rank_sort": 78837,
        "total": 2336
      },
      {
        "club_badge_src": null,
        "entry": 682213,
        "entry_name": "Victor Moses Lawn",
        "event_total": 60,
        "has_played": true,
        "id": 4617043,
        "last_rank": 69323,
        "player_name": "Max Sinclair",
        "rank": 78765,
        "rank_sort": 78838,
        "total": 2336
      },
      {
        "club_badge_src": null,
        "entry": 682686,
        "entry_name": "St\u00f3mas",
        "event_total": 69,
        "has_played": true,
        "id": 4620337,
        "last_rank": 110187,
        "player_name": "Tomas Petursson",
        "rank": 78765,
        "rank_sort": 78839,
        "total": 2336
      },
      {
        "club_badge_src": null,
        "entry": 693743,
        "entry_name": "The blue grinta \ufffd",
        "event_total": 66,
        "has_played": true,
        "id": 4698427,
        "last_rank": 102125,
        "player_name": "mohamed teleb",
        "rank": 78765,
        "rank_sort": 78840,
        "total": 2336
      },
      {
        "club_badge_src": null,
        "entry": 703378,
        "entry_name": "Rock and roll sarr",
        "event_total": 56,
        "has_played": true,
        "id": 4766248,
        "last_rank": 77999,
        "player_name": "Caelan Zaghlul",
        "rank": 78765,
        "rank_sort": 78841,
        "total": 2336
      },
      {
        "club_badge_src": null,
        "entry": 707494,
        "entry_name": "Lussebullar",
        "event_total": 49,
        "has_played": true,
        "id": 4794971,
        "last_rank": 64190,
        "player_name": "Lucas Nilsson",
        "rank": 78765,
        "rank_sort": 78842,
        "total": 2336
      },
      {
        "club_badge_src": null,
        "entry": 725640,
        "entry_name": "The Entertainers",
        "event_total": 65,
        "has_played": true,
        "id": 4928903,
        "last_rank": 89426,
        "player_name": "Sam Lawson",
        "rank": 78765,
        "rank_sort": 78843,
        "total": 2336
      },
      {
        "club_badge_src": null,
        "entry": 730595,
        "entry_name": "Boneys babes",
        "event_total": 49,
        "has_played": true,
        "id": 4964308,
        "last_rank": 64190,
        "player_name": "Richard Barry Smith",
        "rank": 78765,
        "rank_sort": 78844,
        "total": 2336
      },
      {
        "club_badge_src": null,
        "entry": 747965,
        "entry_name": "FFP Tigers",
        "event_total": 65,
        "has_played": true,
        "id": 5088634,
        "last_rank": 99806,
        "player_name": "Alex Hudson",
        "rank": 78765,
        "rank_sort": 78845,
        "total": 2336
      },
      {
        "club_badge_src": null,
        "entry": 792988,
        "entry_name": "\u0627\u0644\u0623\u0634\u0627\u0648\u0633 - WFC",
        "event_total": 61,
        "has_played": true,
        "id": 5426797,
        "last_rank": 80194,
        "player_name": "Shawki Mamdouh",
        "rank": 78765,
        "rank_sort": 78846,
        "total": 2336
      },
      {
        "club_badge_src": null,
        "entry": 794388,
        "entry_name": "SMURPH FC",
        "event_total": 60,
        "has_played": true,
        "id": 5436470,
        "last_rank": 87350,
        "player_name": "Sam Murphy",
        "rank": 78765,
        "rank_sort": 78847,
        "total": 2336
      },
      {
        "club_badge_src": null,
        "entry": 813815,
        "entry_name": "Tuverud",
        "event_total": 82,
        "has_played": true,
        "id": 5572728,
        "last_rank": 136624,
        "player_name": "Johan R\u00f8nning",
        "rank": 78765,
        "rank_sort": 78848,
        "total": 2336
      },
      {
        "club_badge_src": null,
        "entry": 857837,
        "entry_name": "Manow Rovers",
        "event_total": 68,
        "has_played": true,
        "id": 5880505,
        "last_rank": 107485,
        "player_name": "Pawapan Ngamatprapatsorn",
        "rank": 78765,
        "rank_sort": 78849,
        "total": 2336
      },
      {
        "club_badge_src": null,
        "entry": 865036,
        "entry_name": "Infinite Tsukuyomi",
        "event_total": 48,
        "has_played": true,
        "id": 5930195,
        "last_rank": 48642,
        "player_name": "Rinaldo Faucher",
        "rank": 78765,
        "rank_sort": 78850,
        "total": 2336
      }
    ]
  }
}