{
  "last_updated_data": "2026-05-24T23:28:17Z",
  "league": {
    "admin_entry": null,
    "closed": false,
    "code_privacy": "p",
    "created": "2025-07-20T23:14:33.933835Z",
    "cup_league": 2815434,
    "has_cup": true,
    "id": 314,
    "league_type": "s",
    "max_entries": null,
    "name": "Overall",
    "rank": null,
    "scoring": "c",
    "start_event": 1
  },
  "new_entries": {
    "has_next": false,
    "page": 1,
    "results": []
  },
  "standings": {
    "has_next": true,
    "page": 1172,
    "results": [
      {
        "club_badge_src": null,
        "entry": 1219939,
        "entry_name": "The~lord~",
        "event_total": 62,
        "has_played": true,
        "id": 8469740,
        "last_rank": 68351,
        "player_name": "hamza hamdan",
        "rank": 58529,
        "rank_sort": 58551,
        "total": 2347
      },
      {
        "club_badge_src": null,
        "entry": 1238315,
        "entry_name": "YFZ FC",
        "event_total": 72,
        "has_played": true,
        "id": 8599122,
        "last_rank": 90229,
        "player_name": "omar medhioub",
        "rank": 58529,
        "rank_sort": 58552,
        "total": 2347
      },
      {
        "club_badge_src": null,
        "entry": 1356631,
        "entry_name": "BLAGAJ IN",
        "event_total": 56,
        "has_played": true,
        "id": 9430248,
        "last_rank": 44882,
        "player_name": "Smail Blagajcevic",
        "rank": 58529,
        "rank_sort": 58553,
        "total": 2347
      },
      {
        "club_badge_src": null,
        "entry": 1680808,
        "entry_name": "Son Cha Park Lee",
        "event_total": 65,
        "has_played": true,
        "id": 11766476,
        "last_rank": 74474,
        "player_name": "David Lee",
        "rank": 58529,
        "rank_sort": 58554,
        "total": 2347
      },
      {
        "club_badge_src": null,
        "entry": 1882518,
        "entry_name": "\u0627\u0644\u062d\u0631\u064a\u0641",
        "event_total": 67,
        "has_played": true,
        "id": 13264251,
        "last_rank": 78730,
        "player_name": "Anas Mahmoud",
        "rank": 58529,
        "rank_sort": 58555,
        "total": 2347
      },
      {
        "club_badge_src": null,
        "entry": 1899426,
        "entry_name": "Howe Toon Is Now FC",
        "event_total": 62,
        "has_played": true,
        "id": 13389169,
        "last_rank": 61004,
        "player_name": "Tony Hay",
        "rank": 58529,
        "rank_sort": 58556,
        "total": 2347
      },
      {
        "club_badge_src": "https://fantasy.premierleague.com/gcs/plfpl-production-adobe-approved/plfpl-production/2100292/17b71bb3-3413-4845-9df4-5fbf19d3b237.png",
        "entry": 2100292,
        "entry_name": "\u0421\u0442\u0435\u043b\u0430 \u0420\u043e\u0441\u0430",
        "event_total": 62,
        "has_played": true,
        "id": 14902476,
        "last_rank": 61004,
        "player_name": "Milenko Djukic",
        "rank": 58529,
        "rank_sort": 58557,
        "total": 2347
      },
      {
        "club_badge_src": "https://fantasy.premierleague.com/gcs/plfpl-production-adobe-approved/plfpl-production/2929011/c2cbe467-45ba-43f7-bd9c-236f53f17fcb.png",
        "entry": 2929011,
        "entry_name": "Change Name",
        "event_total": 67,
        "has_played": true,
        "id": 21474162,
        "last_rank": 78730,
        "player_name": "Osian Gatehouse",
        "rank": 58529,
        "rank_sort": 58558,
        "total": 2347
      },
      {
        "club_badge_src": null,
        "entry": 3266725,
        "entry_name": "majer club",
        "event_total": 77,
        "has_played": true,
        "id": 24173632,
        "last_rank": 92602,
        "player_name": "Omar Nuri",
        "rank": 58529,
        "rank_sort": 58559,
        "total": 2347
      },
      {
        "club_badge_src": null,
        "entry": 3366244,
        "entry_name": "Waleed dream team",
        "event_total": 62,
        "has_played": true,
        "id": 24979312,
        "last_rank": 68294,
        "player_name": "\u0648\u0644\u064a\u062f \u0639\u0644\u064a",
        "rank": 58529,
        "rank_sort": 58560,
        "total": 2347
      },
      {
        "club_badge_src": null,
        "entry": 3373041,
        "entry_name": "Peanut my butter",
        "event_total": 68,
        "has_played": true,
        "id": 25032776,
        "last_rank": 80877,
        "player_name": "Lee Rance",
        "rank": 58529,
        "rank_sort": 58561,
        "total": 2347
      },
      {
        "club_badge_src": null,
        "entry": 3938999,
        "entry_name": "Ibrahima Bakayoko",
        "event_total": 59,
        "has_played": true,
        "id": 29630055,
        "last_rank": 62874,
        "player_name": "Craig McRoberts",
        "rank": 58529,
        "rank_sort": 58562,
        "total": 2347
      },
      {
        "club_badge_src": null,
        "entry": 4266316,
        "entry_name": "FC Tukki",
        "event_total": 41,
        "has_played": true,
        "id": 32349946,
        "last_rank": 35998,
        "player_name": "Olli Mattila",
        "rank": 58529,
        "rank_sort": 58563,
        "total": 2347
      },
      {
        "club_badge_src": null,
        "entry": 4318751,
        "entry_name": "11 Pipers piping",
        "event_total": 73,
        "has_played": true,
        "id": 32774338,
        "last_rank": 83127,
        "player_name": "Kyle Alexander",
        "rank": 58529,
        "rank_sort": 58564,
        "total": 2347
      },
      {
        "club_badge_src": null,
        "entry": 5254394,
        "entry_name": "The fighter",
        "event_total": 58,
        "has_played": true,
        "id": 40723547,
        "last_rank": 61004,
        "player_name": "A7med eid",
        "rank": 58529,
        "rank_sort": 58565,
        "total": 2347
      },
      {
        "club_badge_src": null,
        "entry": 5444131,
        "entry_name": "Mahmoud Hanzal",
        "event_total": 50,
        "has_played": true,
        "id": 42358170,
        "last_rank": 42225,
        "player_name": "mahmoud hanzal",
        "rank": 58529,
        "rank_sort": 58566,
        "total": 2347
      },
      {
        "club_badge_src": null,
        "entry": 5493674,
        "entry_name": "Backstreet Moyes",
        "event_total": 69,
        "has_played": true,
        "id": 42790041,
        "last_rank": 74395,
        "player_name": "Ross Berry",
        "rank": 58529,
        "rank_sort": 58567,
        "total": 2347
      },
      {
        "club_badge_src": null,
        "entry": 5791415,
        "entry_name": "Banter City",
        "event_total": 61,
        "has_played": true,
        "id": 45422915,
        "last_rank": 66447,
        "player_name": "Garry Clancy",
        "rank": 58529,
        "rank_sort": 58568,
        "total": 2347
      },
      {
        "club_badge_src": "https://fantasy.premierleague.com/gcs/plfpl-production-adobe-approved/plfpl-production/5824368/8cbc2df7-38fe-4072-8685-a071ca356421.png",
        "entry": 5824368,
        "entry_name": "Elgendii",
        "event_total": 49,
        "has_played": true,
        "id": 45710048,
        "last_rank": 40878,
        "player_name": "Mostafa Elgendi",
        "rank": 58529,
        "rank_sort": 58569,
        "total": 2347
      },
      {
        "club_badge_src": null,
        "entry": 7408980,
        "entry_name": "Shiko Vilanova",
        "event_total": 75,
        "has_played": true,
        "id": 60103537,
        "last_rank": 97687,
        "player_name": "Sherif Ibra",
        "rank": 58529,
        "rank_sort": 58570,
        "total": 2347
      },
      {
        "club_badge_src": null,
        "entry": 7431605,
        "entry_name": "Muslim United",
        "event_total": 39,
        "has_played": true,
        "id": 60391895,
        "last_rank": 33729,
        "player_name": "Desuta Saputra",
        "rank": 58529,
        "rank_sort": 58571,
        "total": 2347
      },
      {
        "club_badge_src": null,
        "entry": 7660851,
        "entry_name": "kings of Leon Osman",
        "event_total": 63,
        "has_played": true,
        "id": 62814726,
        "last_rank": 62812,
        "player_name": "Patrick Ainsworth",
        "rank": 58529,
        "rank_sort": 58572,
        "total": 2347
      },
      {
        "club_badge_src": null,
        "entry": 7966863,
        "entry_name": "Real Bristol",
        "event_total": 65,
        "has_played": true,
        "id": 65590683,
        "last_rank": 59170,
        "player_name": "Edward Lai",
        "rank": 58529,
        "rank_sort": 58573,
        "total": 2347
      },
      {
        "club_badge_src": null,
        "entry": 8153822,
        "entry_name": "Penelopes Primo",
        "event_total": 55,
        "has_played": true,
        "id": 67304449,
        "last_rank": 55865,
        "player_name": "Pippa White",
        "rank": 58529,
        "rank_sort": 58574,
        "total": 2347
      },
      {
        "club_badge_src": null,
        "entry": 8734914,
        "entry_name": "Gy\u00f6keredet",
        "event_total": 65,
        "has_played": true,
        "id": 72918602,
        "last_rank": 66380,
        "player_name": "Ole-Jacob Edvardsen",
        "rank": 58529,
        "rank_sort": 58575,
        "total": 2347
      },
      {
        "club_badge_src": "https://fantasy.premierleague.com/gcs/plfpl-production-adobe-approved/plfpl-production/25475/8e72a481-08dc-49bb-9e1c-05695fe239e0.png",
        "entry": 25475,
        "entry_name": "Abdelrahman Ragab",
        "event_total": 61,
        "has_played": true,
        "id": 161113,
        "last_rank": 66487,
        "player_name": "Abdelrahman Ragab",
        "rank": 58576,
        "rank_sort": 58576,
        "total": 2347
      },
      {
        "club_badge_src": null,
        "entry": 55626,
        "entry_name": "REDS YNWA",
        "event_total": 65,
        "has_played": true,
        "id": 358172,
        "last_rank": 66380,
        "player_name": "nasri Diin",
        "rank": 58576,
        "rank_sort": 58577,
        "total": 2347
      },
      {
        "club_badge_src": null,
        "entry": 100415,
        "entry_name": "In Delap of the Gods",
        "event_total": 64,
        "has_played": true,
        "id": 655311,
        "last_rank": 64562,
        "player_name": "Patrick Griffin",
        "rank": 58576,
        "rank_sort": 58578,
        "total": 2347
      },
      {
        "club_badge_src": null,
        "entry": 110298,
        "entry_name": "Rimon Raafat",
        "event_total": 60,
        "has_played": true,
        "id": 719339,
        "last_rank": 50905,
        "player_name": "rimon raafat",
        "rank": 58576,
        "rank_sort": 58579,
        "total": 2347
      },
      {
        "club_badge_src": null,
        "entry": 144823,
        "entry_name": "Hakuna Mateta",
        "event_total": 54,
        "has_played": true,
        "id": 948206,
        "last_rank": 47920,
        "player_name": "Thomas Dunne",
        "rank": 58576,
        "rank_sort": 58580,
        "total": 2347
      },
      {
        "club_badge_src": null,
        "entry": 147846,
        "entry_name": "Luka My Croatian CB",
        "event_total": 64,
        "has_played": true,
        "id": 968983,
        "last_rank": 72454,
        "player_name": "Chris I'Anson-Miller",
        "rank": 58576,
        "rank_sort": 58581,
        "total": 2347
      },
      {
        "club_badge_src": "https://fantasy.premierleague.com/gcs/plfpl-production-adobe-approved/plfpl-production/258425/2a21d3e4-373f-48e9-87da-385c976047d3.png",
        "entry": 258425,
        "entry_name": "THE INVINCIBLE \ufffd\ufffd\u2642\ufe0f",
        "event_total": 70,
        "has_played": true,
        "id": 1718403,
        "last_rank": 85624,
        "player_name": "omar abdelbaset",
        "rank": 58576,
        "rank_sort": 58582,
        "total": 2347
      },
      {
        "club_badge_src": null,
        "entry": 312440,
        "entry_name": "Alisson Wonderland",
        "event_total": 71,
        "has_played": true,
        "id": 2093256,
        "last_rank": 78730,
        "player_name": "Jake Palmer",
        "rank": 58576,
        "rank_sort": 58583,
        "total": 2347
      },
      {
        "club_badge_src": null,
        "entry": 594369,
        "entry_name": "CHIMINO",
        "event_total": 72,
        "has_played": true,
        "id": 4006156,
        "last_rank": 80965,
        "player_name": "Hachem Ben Khalifa",
        "rank": 58576,
        "rank_sort": 58584,
        "total": 2347
      },
      {
        "club_badge_src": null,
        "entry": 690034,
        "entry_name": "Pain in Dias",
        "event_total": 75,
        "has_played": true,
        "id": 4672288,
        "last_rank": 87885,
        "player_name": "Jamie Elliott",
        "rank": 58576,
        "rank_sort": 58585,
        "total": 2347
      },
      {
        "club_badge_src": null,
        "entry": 777968,
        "entry_name": "Sharkteam",
        "event_total": 53,
        "has_played": true,
        "id": 5308390,
        "last_rank": 46406,
        "player_name": "Ndip Drevert",
        "rank": 58576,
        "rank_sort": 58586,
        "total": 2347
      },
      {
        "club_badge_src": null,
        "entry": 1219809,
        "entry_name": "Girasol",
        "event_total": 71,
        "has_played": true,
        "id": 8468872,
        "last_rank": 87945,
        "player_name": "Ognjen \u010cubrilo",
        "rank": 58576,
        "rank_sort": 58587,
        "total": 2347
      },
      {
        "club_badge_src": null,
        "entry": 1382599,
        "entry_name": "CR7",
        "event_total": 76,
        "has_played": true,
        "id": 9616063,
        "last_rank": 72265,
        "player_name": "Fadhl alyafei",
        "rank": 58576,
        "rank_sort": 58588,
        "total": 2347
      },
      {
        "club_badge_src": null,
        "entry": 1496902,
        "entry_name": "CaptainMorgan59",
        "event_total": 51,
        "has_played": true,
        "id": 10438983,
        "last_rank": 49442,
        "player_name": "Morgan Ericsson",
        "rank": 58576,
        "rank_sort": 58589,
        "total": 2347
      },
      {
        "club_badge_src": null,
        "entry": 1617994,
        "entry_name": "Flamingos&Raptors fc",
        "event_total": 52,
        "has_played": true,
        "id": 11322062,
        "last_rank": 50956,
        "player_name": "Terry Ireton",
        "rank": 58576,
        "rank_sort": 58590,
        "total": 2347
      },
      {
        "club_badge_src": "https://fantasy.premierleague.com/gcs/plfpl-production-adobe-approved/plfpl-production/1618312/7bc5c6f4-5a17-464c-81ef-f5443b52e364.png",
        "entry": 1618312,
        "entry_name": "Chase FC",
        "event_total": 77,
        "has_played": true,
        "id": 11324370,
        "last_rank": 92602,
        "player_name": "Tyrel Chase",
        "rank": 58576,
        "rank_sort": 58591,
        "total": 2347
      },
      {
        "club_badge_src": null,
        "entry": 2145243,
        "entry_name": "Moen Fantasy",
        "event_total": 68,
        "has_played": true,
        "id": 15247645,
        "last_rank": 81010,
        "player_name": "Ragnar S\u00f8rbr\u00e5ten",
        "rank": 58576,
        "rank_sort": 58592,
        "total": 2347
      },
      {
        "club_badge_src": null,
        "entry": 2399302,
        "entry_name": "S3 better than S2",
        "event_total": 53,
        "has_played": true,
        "id": 17147610,
        "last_rank": 52603,
        "player_name": "Ian Lawson",
        "rank": 58576,
        "rank_sort": 58593,
        "total": 2347
      },
      {
        "club_badge_src": null,
        "entry": 3513694,
        "entry_name": "AR",
        "event_total": 80,
        "has_played": true,
        "id": 26145753,
        "last_rank": 100177,
        "player_name": "A R",
        "rank": 58576,
        "rank_sort": 58594,
        "total": 2347
      },
      {
        "club_badge_src": null,
        "entry": 3741017,
        "entry_name": "Mister Arbi",
        "event_total": 35,
        "has_played": true,
        "id": 27925986,
        "last_rank": 25613,
        "player_name": "Mister Arbi",
        "rank": 58576,
        "rank_sort": 58595,
        "total": 2347
      },
      {
        "club_badge_src": null,
        "entry": 3952040,
        "entry_name": "kissna69",
        "event_total": 59,
        "has_played": true,
        "id": 29731474,
        "last_rank": 62917,
        "player_name": "Krishnarjit Sur",
        "rank": 58576,
        "rank_sort": 58596,
        "total": 2347
      },
      {
        "club_badge_src": null,
        "entry": 3959815,
        "entry_name": "Abu Kamal",
        "event_total": 28,
        "has_played": true,
        "id": 29792777,
        "last_rank": 20058,
        "player_name": "Ahmed Kamal",
        "rank": 58576,
        "rank_sort": 58597,
        "total": 2347
      },
      {
        "club_badge_src": "https://fantasy.premierleague.com/gcs/plfpl-production-adobe-approved/plfpl-production/5305961/bf407d3a-4eba-438f-9091-ab8db5a32cad.png",
        "entry": 5305961,
        "entry_name": "Al's Pals",
        "event_total": 61,
        "has_played": true,
        "id": 41129667,
        "last_rank": 66487,
        "player_name": "Alex Nel",
        "rank": 58576,
        "rank_sort": 58598,
        "total": 2347
      },
      {
        "club_badge_src": null,
        "entry": 5401021,
        "entry_name": "BenRuss",
        "event_total": 68,
        "has_played": true,
        "id": 41994688,
        "last_rank": 72407,
        "player_name": "Sy Willoughby",
        "rank": 58576,
        "rank_sort": 58599,
        "total": 2347
      },
      {
        "club_badge_src": null,
        "entry": 8431740,
        "entry_name": "Wazza Wangers",
        "event_total": 57,
        "has_played": true,
        "id": 69982133,
        "last_rank": 52561,
        "player_name": "Kevin Duncan",
        "rank": 58576,
        "rank_sort": 58600,
        "total": 2347
      }
    ]
  }
}