{
  "last_updated_data": "2026-05-24T23:28:17Z",
  "league": {
    "admin_entry": null,
    "closed": false,
    "code_privacy": "p",
    "created": "2025-07-20T23:14:33.933835Z",
    "cup_league": 2815434,
    "has_cup": true,
    "id": 314,
    "league_type": "s",
    "max_entries": null,
    "name": "Overall",
    "rank": null,
    "scoring": "c",
    "start_event": 1
  },
  "new_entries": {
    "has_next": false,
    "page": 1,
    "results": []
  },
  "standings": {
    "has_next": true,
    "page": 39,
    "results": [
      {
        "club_badge_src": null,
        "entry": 3429626,
        "entry_name": "Lapuan liike",
        "event_total": 60,
        "has_played": true,
        "id": 25477094,
        "last_rank": 1956,
        "player_name": "Antto Nikkarinen",
        "rank": 1884,
        "rank_sort": 1901,
        "total": 2435
      },
      {
        "club_badge_src": null,
        "entry": 4512889,
        "entry_name": "Yaz21",
        "event_total": 68,
        "has_played": true,
        "id": 34412197,
        "last_rank": 2952,
        "player_name": "Yazan M",
        "rank": 1884,
        "rank_sort": 1902,
        "total": 2435
      },
      {
        "club_badge_src": null,
        "entry": 4794941,
        "entry_name": "Joe's Giants",
        "event_total": 67,
        "has_played": true,
        "id": 36915949,
        "last_rank": 2824,
        "player_name": "Joe Ward",
        "rank": 1884,
        "rank_sort": 1903,
        "total": 2435
      },
      {
        "club_badge_src": null,
        "entry": 5517508,
        "entry_name": "DBs Team",
        "event_total": 67,
        "has_played": true,
        "id": 43019368,
        "last_rank": 2795,
        "player_name": "Daniel Burgess",
        "rank": 1884,
        "rank_sort": 1904,
        "total": 2435
      },
      {
        "club_badge_src": "https://fantasy.premierleague.com/gcs/plfpl-production-adobe-approved/plfpl-production/5598901/792804b0-7181-4e7a-bffe-dd9108f97410.png",
        "entry": 5598901,
        "entry_name": "Doutromundo FC",
        "event_total": 60,
        "has_played": true,
        "id": 43747066,
        "last_rank": 1961,
        "player_name": "Miguel Santos",
        "rank": 1884,
        "rank_sort": 1905,
        "total": 2435
      },
      {
        "club_badge_src": null,
        "entry": 6813590,
        "entry_name": "Mo team",
        "event_total": 57,
        "has_played": true,
        "id": 54568304,
        "last_rank": 1712,
        "player_name": "mohmed elkassaby",
        "rank": 1884,
        "rank_sort": 1906,
        "total": 2435
      },
      {
        "club_badge_src": null,
        "entry": 6933582,
        "entry_name": "Fifty Shades O'Shea",
        "event_total": 75,
        "has_played": true,
        "id": 55585762,
        "last_rank": 4099,
        "player_name": "Glenn Forbes",
        "rank": 1884,
        "rank_sort": 1907,
        "total": 2435
      },
      {
        "club_badge_src": null,
        "entry": 7129,
        "entry_name": "Devil's XI",
        "event_total": 72,
        "has_played": true,
        "id": 41059,
        "last_rank": 3528,
        "player_name": "Sanjeev Chaudhary",
        "rank": 1908,
        "rank_sort": 1908,
        "total": 2435
      },
      {
        "club_badge_src": "https://fantasy.premierleague.com/gcs/plfpl-production-adobe-approved/plfpl-production/18552/a5a3866c-9b9d-46d6-ae76-566bb58ca991.png",
        "entry": 18552,
        "entry_name": "Way M16",
        "event_total": 72,
        "has_played": true,
        "id": 115430,
        "last_rank": 2977,
        "player_name": "Blake Lloyd",
        "rank": 1908,
        "rank_sort": 1909,
        "total": 2435
      },
      {
        "club_badge_src": null,
        "entry": 157004,
        "entry_name": "Mayonoord",
        "event_total": 69,
        "has_played": true,
        "id": 1032695,
        "last_rank": 2553,
        "player_name": "Aaron Mayo",
        "rank": 1908,
        "rank_sort": 1910,
        "total": 2435
      },
      {
        "club_badge_src": null,
        "entry": 307526,
        "entry_name": "OSEL FPL",
        "event_total": 60,
        "has_played": true,
        "id": 2059689,
        "last_rank": 1978,
        "player_name": "Tshering Jatsho",
        "rank": 1908,
        "rank_sort": 1911,
        "total": 2435
      },
      {
        "club_badge_src": "https://fantasy.premierleague.com/gcs/plfpl-production-adobe-approved/plfpl-production/394271/c74d2563-cd6a-4261-998d-8daf9b8748bc.png",
        "entry": 394271,
        "entry_name": "JOE MAMA FC",
        "event_total": 55,
        "has_played": true,
        "id": 2644150,
        "last_rank": 1510,
        "player_name": "Makanaka Mamutse",
        "rank": 1908,
        "rank_sort": 1912,
        "total": 2435
      },
      {
        "club_badge_src": "https://fantasy.premierleague.com/gcs/plfpl-production-adobe-approved/plfpl-production/1021298/cc01de39-f89c-4168-8bd0-b1c64245cdb2.png",
        "entry": 1021298,
        "entry_name": "Tischtennisplatten",
        "event_total": 51,
        "has_played": true,
        "id": 7065996,
        "last_rank": 1263,
        "player_name": "Milos Stankovic",
        "rank": 1908,
        "rank_sort": 1913,
        "total": 2435
      },
      {
        "club_badge_src": "https://fantasy.premierleague.com/gcs/plfpl-production-adobe-approved/plfpl-production/1171002/2fc63e6c-2654-4867-bd6d-b29708e3f933.png",
        "entry": 1171002,
        "entry_name": "darWIN",
        "event_total": 69,
        "has_played": true,
        "id": 8123773,
        "last_rank": 2526,
        "player_name": "Dragos Florescu",
        "rank": 1908,
        "rank_sort": 1914,
        "total": 2435
      },
      {
        "club_badge_src": null,
        "entry": 1210544,
        "entry_name": "Hakuna Mateta",
        "event_total": 59,
        "has_played": true,
        "id": 8402074,
        "last_rank": 1909,
        "player_name": "Herman Solberg",
        "rank": 1908,
        "rank_sort": 1915,
        "total": 2435
      },
      {
        "club_badge_src": null,
        "entry": 2110662,
        "entry_name": "\u0639\u0628\u064a \u0648\u062d\u0637 \u0641\u064a \u0627\u0644\u0643\u064a\u0633",
        "event_total": 43,
        "has_played": true,
        "id": 14981318,
        "last_rank": 848,
        "player_name": "Abdulrahman Kamal",
        "rank": 1908,
        "rank_sort": 1916,
        "total": 2435
      },
      {
        "club_badge_src": null,
        "entry": 2590261,
        "entry_name": "FK Kalos",
        "event_total": 66,
        "has_played": true,
        "id": 18596464,
        "last_rank": 2189,
        "player_name": "Djordje Alidjukic",
        "rank": 1908,
        "rank_sort": 1917,
        "total": 2435
      },
      {
        "club_badge_src": null,
        "entry": 2707605,
        "entry_name": "City Slickers",
        "event_total": 56,
        "has_played": true,
        "id": 19480139,
        "last_rank": 1302,
        "player_name": "Tomas Shannon",
        "rank": 1908,
        "rank_sort": 1918,
        "total": 2435
      },
      {
        "club_badge_src": null,
        "entry": 2856701,
        "entry_name": "Bearchester United",
        "event_total": 61,
        "has_played": true,
        "id": 20889348,
        "last_rank": 2112,
        "player_name": "Jakub Mikusek",
        "rank": 1908,
        "rank_sort": 1919,
        "total": 2435
      },
      {
        "club_badge_src": "https://fantasy.premierleague.com/gcs/plfpl-production-adobe-approved/plfpl-production/4297669/a1486ba3-15e8-431c-95d4-6c48d557e585.png",
        "entry": 4297669,
        "entry_name": "Dragon Fartz",
        "event_total": 52,
        "has_played": true,
        "id": 32603711,
        "last_rank": 1294,
        "player_name": "Lushen Pillay",
        "rank": 1908,
        "rank_sort": 1920,
        "total": 2435
      },
      {
        "club_badge_src": null,
        "entry": 4600702,
        "entry_name": "Kudus to You",
        "event_total": 65,
        "has_played": true,
        "id": 35145219,
        "last_rank": 2526,
        "player_name": "Talia Ben Shoshan",
        "rank": 1908,
        "rank_sort": 1921,
        "total": 2435
      },
      {
        "club_badge_src": null,
        "entry": 5533539,
        "entry_name": "The Onana Splits",
        "event_total": 67,
        "has_played": true,
        "id": 43170829,
        "last_rank": 2274,
        "player_name": "Aaron Baker",
        "rank": 1908,
        "rank_sort": 1922,
        "total": 2435
      },
      {
        "club_badge_src": null,
        "entry": 68768,
        "entry_name": "Power Red Devils",
        "event_total": 69,
        "has_played": true,
        "id": 445690,
        "last_rank": 3175,
        "player_name": "Suwat Charoensakpanich",
        "rank": 1923,
        "rank_sort": 1923,
        "total": 2435
      },
      {
        "club_badge_src": null,
        "entry": 85484,
        "entry_name": "IceCole\ufffd",
        "event_total": 66,
        "has_played": true,
        "id": 556756,
        "last_rank": 2749,
        "player_name": "Milton Kalinkin",
        "rank": 1923,
        "rank_sort": 1924,
        "total": 2435
      },
      {
        "club_badge_src": null,
        "entry": 92959,
        "entry_name": ".",
        "event_total": 57,
        "has_played": true,
        "id": 607496,
        "last_rank": 1130,
        "player_name": "Alex Hoggard",
        "rank": 1923,
        "rank_sort": 1925,
        "total": 2435
      },
      {
        "club_badge_src": null,
        "entry": 231427,
        "entry_name": "Smarta drag",
        "event_total": 62,
        "has_played": true,
        "id": 1539701,
        "last_rank": 1797,
        "player_name": "Jonatan Persson",
        "rank": 1923,
        "rank_sort": 1926,
        "total": 2435
      },
      {
        "club_badge_src": null,
        "entry": 326021,
        "entry_name": "Rimelig tvil",
        "event_total": 68,
        "has_played": true,
        "id": 2184456,
        "last_rank": 2448,
        "player_name": "Johan L\u00f8ken",
        "rank": 1923,
        "rank_sort": 1927,
        "total": 2435
      },
      {
        "club_badge_src": null,
        "entry": 544618,
        "entry_name": "FozBall (Remontada)",
        "event_total": 61,
        "has_played": true,
        "id": 3665230,
        "last_rank": 1712,
        "player_name": "jack foster",
        "rank": 1923,
        "rank_sort": 1928,
        "total": 2435
      },
      {
        "club_badge_src": null,
        "entry": 957749,
        "entry_name": "Shark Attack",
        "event_total": 57,
        "has_played": true,
        "id": 6599306,
        "last_rank": 1728,
        "player_name": "Steve Findon",
        "rank": 1923,
        "rank_sort": 1929,
        "total": 2435
      },
      {
        "club_badge_src": "https://fantasy.premierleague.com/gcs/plfpl-production-adobe-approved/plfpl-production/1698349/bf7e55b3-b3ef-4674-8c48-75af69f995f6.png",
        "entry": 1698349,
        "entry_name": "MoMo FC",
        "event_total": 55,
        "has_played": true,
        "id": 11895638,
        "last_rank": 1263,
        "player_name": "Pujan Maharjan",
        "rank": 1923,
        "rank_sort": 1930,
        "total": 2435
      },
      {
        "club_badge_src": null,
        "entry": 1795246,
        "entry_name": "Gunshysamurai",
        "event_total": 50,
        "has_played": true,
        "id": 12615748,
        "last_rank": 1209,
        "player_name": "Jake Modi",
        "rank": 1923,
        "rank_sort": 1931,
        "total": 2435
      },
      {
        "club_badge_src": null,
        "entry": 1814110,
        "entry_name": "Power Reijnders",
        "event_total": 64,
        "has_played": true,
        "id": 12756718,
        "last_rank": 2009,
        "player_name": "Jamie Crane",
        "rank": 1923,
        "rank_sort": 1932,
        "total": 2435
      },
      {
        "club_badge_src": null,
        "entry": 1903371,
        "entry_name": "Kinder Mbeumo",
        "event_total": 61,
        "has_played": true,
        "id": 13417836,
        "last_rank": 1712,
        "player_name": "Chris Doughty",
        "rank": 1923,
        "rank_sort": 1933,
        "total": 2435
      },
      {
        "club_badge_src": null,
        "entry": 3224309,
        "entry_name": "Poochie 2025",
        "event_total": 66,
        "has_played": true,
        "id": 23843987,
        "last_rank": 2731,
        "player_name": "Ajay Patel",
        "rank": 1923,
        "rank_sort": 1934,
        "total": 2435
      },
      {
        "club_badge_src": null,
        "entry": 3234280,
        "entry_name": "Blaugrana",
        "event_total": 64,
        "has_played": true,
        "id": 23921146,
        "last_rank": 2009,
        "player_name": "Adam Kizito",
        "rank": 1923,
        "rank_sort": 1935,
        "total": 2435
      },
      {
        "club_badge_src": null,
        "entry": 4132371,
        "entry_name": "JT FC",
        "event_total": 69,
        "has_played": true,
        "id": 31227884,
        "last_rank": 3175,
        "player_name": "J T",
        "rank": 1923,
        "rank_sort": 1936,
        "total": 2435
      },
      {
        "club_badge_src": null,
        "entry": 5755786,
        "entry_name": "The Cesc Pistols",
        "event_total": 75,
        "has_played": true,
        "id": 45116879,
        "last_rank": 4155,
        "player_name": "Will Lawley",
        "rank": 1923,
        "rank_sort": 1937,
        "total": 2435
      },
      {
        "club_badge_src": null,
        "entry": 6653171,
        "entry_name": "Tedde Sheringham",
        "event_total": 62,
        "has_played": true,
        "id": 53191772,
        "last_rank": 1797,
        "player_name": "Theodor B\u00f6hlin",
        "rank": 1923,
        "rank_sort": 1938,
        "total": 2435
      },
      {
        "club_badge_src": null,
        "entry": 8741600,
        "entry_name": "80k",
        "event_total": 59,
        "has_played": true,
        "id": 72983075,
        "last_rank": 1523,
        "player_name": "Dominik Dragani\u0107",
        "rank": 1923,
        "rank_sort": 1939,
        "total": 2435
      },
      {
        "club_badge_src": null,
        "entry": 23617,
        "entry_name": "Craics 90",
        "event_total": 51,
        "has_played": true,
        "id": 148805,
        "last_rank": 842,
        "player_name": "Ben McCrum",
        "rank": 1940,
        "rank_sort": 1940,
        "total": 2435
      },
      {
        "club_badge_src": null,
        "entry": 64638,
        "entry_name": "Blackbeasts",
        "event_total": 75,
        "has_played": true,
        "id": 417212,
        "last_rank": 4155,
        "player_name": "Micha\u0142 Brzezi\u0144ski",
        "rank": 1940,
        "rank_sort": 1941,
        "total": 2435
      },
      {
        "club_badge_src": null,
        "entry": 85877,
        "entry_name": "Mr.fantazy",
        "event_total": 72,
        "has_played": true,
        "id": 559469,
        "last_rank": 3007,
        "player_name": "Mohyiddine Moussaoui",
        "rank": 1940,
        "rank_sort": 1942,
        "total": 2435
      },
      {
        "club_badge_src": null,
        "entry": 139583,
        "entry_name": "Peppermint Guardiola",
        "event_total": 47,
        "has_played": true,
        "id": 911106,
        "last_rank": 1053,
        "player_name": "albin karlstr\u00f6m",
        "rank": 1940,
        "rank_sort": 1943,
        "total": 2435
      },
      {
        "club_badge_src": null,
        "entry": 311663,
        "entry_name": "As Cole as you like",
        "event_total": 68,
        "has_played": true,
        "id": 2087997,
        "last_rank": 2448,
        "player_name": "Christoforos Kyriakides",
        "rank": 1940,
        "rank_sort": 1944,
        "total": 2435
      },
      {
        "club_badge_src": "https://fantasy.premierleague.com/gcs/plfpl-production-adobe-approved/plfpl-production/593380/4d913d0a-e25e-4f0d-a83b-b6475ca125ed.png",
        "entry": 593380,
        "entry_name": "SlabHead FC",
        "event_total": 60,
        "has_played": true,
        "id": 3998789,
        "last_rank": 2033,
        "player_name": "Ruben Midtun \u00d8yre",
        "rank": 1940,
        "rank_sort": 1945,
        "total": 2435
      },
      {
        "club_badge_src": null,
        "entry": 769520,
        "entry_name": "Jenga FC",
        "event_total": 58,
        "has_played": true,
        "id": 5249359,
        "last_rank": 1816,
        "player_name": "Callan Jahani",
        "rank": 1940,
        "rank_sort": 1946,
        "total": 2435
      },
      {
        "club_badge_src": null,
        "entry": 882258,
        "entry_name": "Arxontas",
        "event_total": 68,
        "has_played": true,
        "id": 6050452,
        "last_rank": 2468,
        "player_name": "Elias Archontides",
        "rank": 1940,
        "rank_sort": 1947,
        "total": 2435
      },
      {
        "club_badge_src": null,
        "entry": 5153767,
        "entry_name": "Dreamteam",
        "event_total": 71,
        "has_played": true,
        "id": 39875220,
        "last_rank": 3473,
        "player_name": "St\u00e5le Garberg",
        "rank": 1940,
        "rank_sort": 1948,
        "total": 2435
      },
      {
        "club_badge_src": null,
        "entry": 2805309,
        "entry_name": "The Bald Eagles",
        "event_total": 59,
        "has_played": true,
        "id": 20486523,
        "last_rank": 1941,
        "player_name": "Stefan Berg",
        "rank": 1949,
        "rank_sort": 1949,
        "total": 2435
      },
      {
        "club_badge_src": null,
        "entry": 7390120,
        "entry_name": "Calafiori Girls",
        "event_total": 58,
        "has_played": true,
        "id": 59920890,
        "last_rank": 1832,
        "player_name": "Mads Eskildsen",
        "rank": 1949,
        "rank_sort": 1950,
        "total": 2435
      }
    ]
  }
}