{
  "last_updated_data": "2026-05-24T23:28:17Z",
  "league": {
    "admin_entry": null,
    "closed": false,
    "code_privacy": "p",
    "created": "2025-07-20T23:14:33.933835Z",
    "cup_league": 2815434,
    "has_cup": true,
    "id": 314,
    "league_type": "s",
    "max_entries": null,
    "name": "Overall",
    "rank": null,
    "scoring": "c",
    "start_event": 1
  },
  "new_entries": {
    "has_next": false,
    "page": 1,
    "results": []
  },
  "standings": {
    "has_next": true,
    "page": 684,
    "results": [
      {
        "club_badge_src": null,
        "entry": 2742908,
        "entry_name": "PPP",
        "event_total": 68,
        "has_played": true,
        "id": 19812892,
        "last_rank": 48642,
        "player_name": "Samuel Semple",
        "rank": 34016,
        "rank_sort": 34151,
        "total": 2364
      },
      {
        "club_badge_src": null,
        "entry": 2779646,
        "entry_name": "Frimp\u00f8ngis",
        "event_total": 68,
        "has_played": true,
        "id": 20287028,
        "last_rank": 48119,
        "player_name": "H\u00e5var Kosmo",
        "rank": 34016,
        "rank_sort": 34152,
        "total": 2364
      },
      {
        "club_badge_src": null,
        "entry": 2849614,
        "entry_name": "Heppen BK",
        "event_total": 50,
        "has_played": true,
        "id": 20834325,
        "last_rank": 26827,
        "player_name": "Ivar Espenes Huitfeldt",
        "rank": 34016,
        "rank_sort": 34153,
        "total": 2364
      },
      {
        "club_badge_src": null,
        "entry": 2901015,
        "entry_name": "Peace Ndlovu",
        "event_total": 65,
        "has_played": true,
        "id": 21258942,
        "last_rank": 43849,
        "player_name": "Matt Broomhead",
        "rank": 34016,
        "rank_sort": 34154,
        "total": 2364
      },
      {
        "club_badge_src": "https://fantasy.premierleague.com/gcs/plfpl-production-adobe-approved/plfpl-production/3102014/f02137ff-3759-4445-84dd-d6706e7e612d.png",
        "entry": 3102014,
        "entry_name": "Club of the Klassy",
        "event_total": 66,
        "has_played": true,
        "id": 22870844,
        "last_rank": 39874,
        "player_name": "Natwut Sangangam",
        "rank": 34016,
        "rank_sort": 34155,
        "total": 2364
      },
      {
        "club_badge_src": null,
        "entry": 3150218,
        "entry_name": "cunha matata",
        "event_total": 62,
        "has_played": true,
        "id": 23262036,
        "last_rank": 40036,
        "player_name": "Chris Anderson",
        "rank": 34016,
        "rank_sort": 34156,
        "total": 2364
      },
      {
        "club_badge_src": "https://fantasy.premierleague.com/gcs/plfpl-production-adobe-approved/plfpl-production/3161937/7909788f-2da1-433b-9fcc-33ba5dd700d2.png",
        "entry": 3161937,
        "entry_name": "Schous Army",
        "event_total": 69,
        "has_played": true,
        "id": 23358316,
        "last_rank": 49607,
        "player_name": "Lam van Ngo",
        "rank": 34016,
        "rank_sort": 34157,
        "total": 2364
      },
      {
        "club_badge_src": null,
        "entry": 3172078,
        "entry_name": "memyselfndiaye",
        "event_total": 49,
        "has_played": true,
        "id": 23436931,
        "last_rank": 26088,
        "player_name": "Charlie Black",
        "rank": 34016,
        "rank_sort": 34158,
        "total": 2364
      },
      {
        "club_badge_src": null,
        "entry": 3205238,
        "entry_name": "Henderson volleys",
        "event_total": 67,
        "has_played": true,
        "id": 23695141,
        "last_rank": 46660,
        "player_name": "Fion\u00e1n Gallagher",
        "rank": 34016,
        "rank_sort": 34159,
        "total": 2364
      },
      {
        "club_badge_src": null,
        "entry": 3220371,
        "entry_name": "Team O\u2019Wehrner",
        "event_total": 59,
        "has_played": true,
        "id": 23813900,
        "last_rank": 31620,
        "player_name": "William Ehrner",
        "rank": 34016,
        "rank_sort": 34160,
        "total": 2364
      },
      {
        "club_badge_src": null,
        "entry": 3249036,
        "entry_name": "HR FC",
        "event_total": 58,
        "has_played": true,
        "id": 24037572,
        "last_rank": 35166,
        "player_name": "Ardip Ghag",
        "rank": 34016,
        "rank_sort": 34161,
        "total": 2364
      },
      {
        "club_badge_src": "https://fantasy.premierleague.com/gcs/plfpl-production-adobe-approved/plfpl-production/3342927/c5bd5d06-cf15-4353-bf04-711d466cec26.png",
        "entry": 3342927,
        "entry_name": "Lee Watts",
        "event_total": 50,
        "has_played": true,
        "id": 24796233,
        "last_rank": 26827,
        "player_name": "Paul Davey",
        "rank": 34016,
        "rank_sort": 34162,
        "total": 2364
      },
      {
        "club_badge_src": null,
        "entry": 3351011,
        "entry_name": "Light Work",
        "event_total": 38,
        "has_played": true,
        "id": 24859808,
        "last_rank": 17585,
        "player_name": "Sir Mc",
        "rank": 34016,
        "rank_sort": 34163,
        "total": 2364
      },
      {
        "club_badge_src": null,
        "entry": 3385560,
        "entry_name": "Donna's Desperados",
        "event_total": 46,
        "has_played": true,
        "id": 25132392,
        "last_rank": 23341,
        "player_name": "Donna Jones",
        "rank": 34016,
        "rank_sort": 34164,
        "total": 2364
      },
      {
        "club_badge_src": "https://fantasy.premierleague.com/gcs/plfpl-production-adobe-approved/plfpl-production/3385600/c2e35106-75c3-4338-9dce-b00b89f22eed.png",
        "entry": 3385600,
        "entry_name": "Mini Manners",
        "event_total": 68,
        "has_played": true,
        "id": 25132678,
        "last_rank": 48642,
        "player_name": "Juan Sevilla",
        "rank": 34016,
        "rank_sort": 34165,
        "total": 2364
      },
      {
        "club_badge_src": null,
        "entry": 3496175,
        "entry_name": "sangar xoshawi",
        "event_total": 45,
        "has_played": true,
        "id": 26005266,
        "last_rank": 22534,
        "player_name": "pashew xoshawi",
        "rank": 34016,
        "rank_sort": 34166,
        "total": 2364
      },
      {
        "club_badge_src": "https://fantasy.premierleague.com/gcs/plfpl-production-adobe-approved/plfpl-production/3510622/74b2e27d-7dff-4ba7-87de-9b7a4f8faa68.png",
        "entry": 3510622,
        "entry_name": "#1 Forest Fan",
        "event_total": 73,
        "has_played": true,
        "id": 26121659,
        "last_rank": 56099,
        "player_name": "Samuel Bishop",
        "rank": 34016,
        "rank_sort": 34167,
        "total": 2364
      },
      {
        "club_badge_src": null,
        "entry": 3626674,
        "entry_name": "FC Leeming Bar",
        "event_total": 52,
        "has_played": true,
        "id": 27023370,
        "last_rank": 28726,
        "player_name": "Sam Ward",
        "rank": 34016,
        "rank_sort": 34168,
        "total": 2364
      },
      {
        "club_badge_src": null,
        "entry": 3642898,
        "entry_name": "Beef cherki",
        "event_total": 47,
        "has_played": true,
        "id": 27150013,
        "last_rank": 24143,
        "player_name": "ollie sykes",
        "rank": 34016,
        "rank_sort": 34169,
        "total": 2364
      },
      {
        "club_badge_src": null,
        "entry": 3646533,
        "entry_name": "Old Squad",
        "event_total": 85,
        "has_played": true,
        "id": 27179067,
        "last_rank": 79190,
        "player_name": "Lenpu Lotjem",
        "rank": 34016,
        "rank_sort": 34170,
        "total": 2364
      },
      {
        "club_badge_src": null,
        "entry": 3758954,
        "entry_name": "Enceladus",
        "event_total": 63,
        "has_played": true,
        "id": 28065846,
        "last_rank": 41101,
        "player_name": "John Andrews",
        "rank": 34016,
        "rank_sort": 34171,
        "total": 2364
      },
      {
        "club_badge_src": null,
        "entry": 3812911,
        "entry_name": "Per Wirtz",
        "event_total": 64,
        "has_played": true,
        "id": 28511763,
        "last_rank": 42506,
        "player_name": "Callum Marriott",
        "rank": 34016,
        "rank_sort": 34172,
        "total": 2364
      },
      {
        "club_badge_src": null,
        "entry": 3819841,
        "entry_name": "sunil11",
        "event_total": 68,
        "has_played": true,
        "id": 28568131,
        "last_rank": 48119,
        "player_name": "Sunil Acharya",
        "rank": 34016,
        "rank_sort": 34173,
        "total": 2364
      },
      {
        "club_badge_src": null,
        "entry": 3985153,
        "entry_name": "Mid Table Wanderers",
        "event_total": 59,
        "has_played": true,
        "id": 30002769,
        "last_rank": 36200,
        "player_name": "Jack Spong",
        "rank": 34016,
        "rank_sort": 34174,
        "total": 2364
      },
      {
        "club_badge_src": null,
        "entry": 4021972,
        "entry_name": "myles away",
        "event_total": 72,
        "has_played": true,
        "id": 30313937,
        "last_rank": 54494,
        "player_name": "Saif Abdul",
        "rank": 34016,
        "rank_sort": 34175,
        "total": 2364
      },
      {
        "club_badge_src": null,
        "entry": 4081597,
        "entry_name": "It Could Be Wirtz",
        "event_total": 51,
        "has_played": true,
        "id": 30812370,
        "last_rank": 24039,
        "player_name": "Terry Smith",
        "rank": 34016,
        "rank_sort": 34176,
        "total": 2364
      },
      {
        "club_badge_src": null,
        "entry": 4204022,
        "entry_name": "Bet His Dad's Buzzin",
        "event_total": 86,
        "has_played": true,
        "id": 31824760,
        "last_rank": 81244,
        "player_name": "Ryan Galpin",
        "rank": 34016,
        "rank_sort": 34177,
        "total": 2364
      },
      {
        "club_badge_src": null,
        "entry": 4257550,
        "entry_name": "Quinta-Nova",
        "event_total": 47,
        "has_played": true,
        "id": 32278495,
        "last_rank": 24143,
        "player_name": "Valter Santos",
        "rank": 34016,
        "rank_sort": 34178,
        "total": 2364
      },
      {
        "club_badge_src": null,
        "entry": 4296004,
        "entry_name": "the mayers",
        "event_total": 49,
        "has_played": true,
        "id": 32590194,
        "last_rank": 25776,
        "player_name": "Moran Mayer",
        "rank": 34016,
        "rank_sort": 34179,
        "total": 2364
      },
      {
        "club_badge_src": null,
        "entry": 4306568,
        "entry_name": "BISHBASHBOX",
        "event_total": 33,
        "has_played": true,
        "id": 32674717,
        "last_rank": 14496,
        "player_name": "Charlie Boxall",
        "rank": 34016,
        "rank_sort": 34180,
        "total": 2364
      },
      {
        "club_badge_src": null,
        "entry": 4354454,
        "entry_name": "Ode\u2019s Bunch",
        "event_total": 55,
        "has_played": true,
        "id": 33068924,
        "last_rank": 31747,
        "player_name": "Shawn Macfarlan",
        "rank": 34016,
        "rank_sort": 34181,
        "total": 2364
      },
      {
        "club_badge_src": null,
        "entry": 4375329,
        "entry_name": "Danny\u2019s Divers",
        "event_total": 40,
        "has_played": true,
        "id": 33244882,
        "last_rank": 18790,
        "player_name": "Teresa Kempinska",
        "rank": 34016,
        "rank_sort": 34182,
        "total": 2364
      },
      {
        "club_badge_src": "https://fantasy.premierleague.com/gcs/plfpl-production-adobe-approved/plfpl-production/4393963/746d9237-cb49-4d30-af67-e9ad7a1a8c4c.png",
        "entry": 4393963,
        "entry_name": "Prime Laho",
        "event_total": 62,
        "has_played": true,
        "id": 33405676,
        "last_rank": 40036,
        "player_name": "Callum Prime",
        "rank": 34016,
        "rank_sort": 34183,
        "total": 2364
      },
      {
        "club_badge_src": null,
        "entry": 4401251,
        "entry_name": "Hennessy XI",
        "event_total": 55,
        "has_played": true,
        "id": 33472603,
        "last_rank": 31556,
        "player_name": "Jack Hennessy",
        "rank": 34016,
        "rank_sort": 34184,
        "total": 2364
      },
      {
        "club_badge_src": null,
        "entry": 4560225,
        "entry_name": "21 times Man united",
        "event_total": 60,
        "has_played": true,
        "id": 34797502,
        "last_rank": 37589,
        "player_name": "Mitch Sarcia",
        "rank": 34016,
        "rank_sort": 34185,
        "total": 2364
      },
      {
        "club_badge_src": null,
        "entry": 4665706,
        "entry_name": "Kemoozz \u00a9\ufe0f",
        "event_total": 44,
        "has_played": true,
        "id": 35736069,
        "last_rank": 18691,
        "player_name": "Karim Ashraf",
        "rank": 34016,
        "rank_sort": 34186,
        "total": 2364
      },
      {
        "club_badge_src": "https://fantasy.premierleague.com/gcs/plfpl-production-adobe-approved/plfpl-production/4707300/90870c5a-b976-4e2a-94d5-3209e0d0668a.png",
        "entry": 4707300,
        "entry_name": "HolyGhostFire",
        "event_total": 65,
        "has_played": true,
        "id": 36098925,
        "last_rank": 44048,
        "player_name": "Pariyawit Chansukko",
        "rank": 34016,
        "rank_sort": 34187,
        "total": 2364
      },
      {
        "club_badge_src": null,
        "entry": 4763640,
        "entry_name": "Where's me Rice?",
        "event_total": 69,
        "has_played": true,
        "id": 36661970,
        "last_rank": 49691,
        "player_name": "Ari Lam",
        "rank": 34016,
        "rank_sort": 34188,
        "total": 2364
      },
      {
        "club_badge_src": null,
        "entry": 4795305,
        "entry_name": "3fillyandward Fc",
        "event_total": 63,
        "has_played": true,
        "id": 36919211,
        "last_rank": 41324,
        "player_name": "Donald Trump",
        "rank": 34016,
        "rank_sort": 34189,
        "total": 2364
      },
      {
        "club_badge_src": null,
        "entry": 4879801,
        "entry_name": "Willian $ Baby",
        "event_total": 64,
        "has_played": true,
        "id": 37617024,
        "last_rank": 42506,
        "player_name": "Robert Geaney-O'Brien",
        "rank": 34016,
        "rank_sort": 34190,
        "total": 2364
      },
      {
        "club_badge_src": null,
        "entry": 4932144,
        "entry_name": "MOnK",
        "event_total": 50,
        "has_played": true,
        "id": 38048347,
        "last_rank": 27020,
        "player_name": "Suraj Tamang",
        "rank": 34016,
        "rank_sort": 34191,
        "total": 2364
      },
      {
        "club_badge_src": null,
        "entry": 5000629,
        "entry_name": "Ozborn to Win",
        "event_total": 62,
        "has_played": true,
        "id": 38612826,
        "last_rank": 40036,
        "player_name": "Sam Osborne",
        "rank": 34016,
        "rank_sort": 34192,
        "total": 2364
      },
      {
        "club_badge_src": null,
        "entry": 5019241,
        "entry_name": "Bruisers&Cruisers",
        "event_total": 63,
        "has_played": true,
        "id": 38762237,
        "last_rank": 41162,
        "player_name": "Noah Keane",
        "rank": 34016,
        "rank_sort": 34193,
        "total": 2364
      },
      {
        "club_badge_src": null,
        "entry": 5034822,
        "entry_name": "Bredbury Reds",
        "event_total": 45,
        "has_played": true,
        "id": 38888278,
        "last_rank": 22685,
        "player_name": "Jim Ford",
        "rank": 34016,
        "rank_sort": 34194,
        "total": 2364
      },
      {
        "club_badge_src": null,
        "entry": 5097776,
        "entry_name": "Field Tilt SC",
        "event_total": 67,
        "has_played": true,
        "id": 39402101,
        "last_rank": 46660,
        "player_name": "Matthew Brauer",
        "rank": 34016,
        "rank_sort": 34195,
        "total": 2364
      },
      {
        "club_badge_src": null,
        "entry": 5127004,
        "entry_name": "Men in van de Ven",
        "event_total": 79,
        "has_played": true,
        "id": 39648467,
        "last_rank": 66658,
        "player_name": "Gregor Southall",
        "rank": 34016,
        "rank_sort": 34196,
        "total": 2364
      },
      {
        "club_badge_src": null,
        "entry": 5143830,
        "entry_name": "Mind the Gap \u2b50\u2b50",
        "event_total": 43,
        "has_played": true,
        "id": 39792044,
        "last_rank": 20888,
        "player_name": "Panagiotis Gavrilis",
        "rank": 34016,
        "rank_sort": 34197,
        "total": 2364
      },
      {
        "club_badge_src": "https://fantasy.premierleague.com/gcs/plfpl-production-adobe-approved/plfpl-production/5174715/ed780a41-c04d-4d98-8a76-a738b2fa8fae.png",
        "entry": 5174715,
        "entry_name": "Neville wears Prada",
        "event_total": 74,
        "has_played": true,
        "id": 40051885,
        "last_rank": 57857,
        "player_name": "Imran Chouglay",
        "rank": 34016,
        "rank_sort": 34198,
        "total": 2364
      },
      {
        "club_badge_src": null,
        "entry": 5286707,
        "entry_name": "ive got green wood!",
        "event_total": 81,
        "has_played": true,
        "id": 40978622,
        "last_rank": 70651,
        "player_name": "Luke Davis",
        "rank": 34016,
        "rank_sort": 34199,
        "total": 2364
      },
      {
        "club_badge_src": null,
        "entry": 5331501,
        "entry_name": "Florian Wirtz",
        "event_total": 45,
        "has_played": true,
        "id": 41332348,
        "last_rank": 22534,
        "player_name": "Shane O Dwyer",
        "rank": 34016,
        "rank_sort": 34200,
        "total": 2364
      }
    ]
  }
}