{
  "last_updated_data": "2026-05-24T23:28:17Z",
  "league": {
    "admin_entry": null,
    "closed": false,
    "code_privacy": "p",
    "created": "2025-07-20T23:14:33.933835Z",
    "cup_league": 2815434,
    "has_cup": true,
    "id": 314,
    "league_type": "s",
    "max_entries": null,
    "name": "Overall",
    "rank": null,
    "scoring": "c",
    "start_event": 1
  },
  "new_entries": {
    "has_next": false,
    "page": 1,
    "results": []
  },
  "standings": {
    "has_next": true,
    "page": 573,
    "results": [
      {
        "club_badge_src": null,
        "entry": 2208032,
        "entry_name": "Principalities\u2022",
        "event_total": 65,
        "has_played": true,
        "id": 15722166,
        "last_rank": 32335,
        "player_name": "king Frank",
        "rank": 28571,
        "rank_sort": 28601,
        "total": 2370
      },
      {
        "club_badge_src": null,
        "entry": 2500295,
        "entry_name": "Total Maximal",
        "event_total": 64,
        "has_played": true,
        "id": 17902794,
        "last_rank": 31236,
        "player_name": "Asko Avdic",
        "rank": 28571,
        "rank_sort": 28602,
        "total": 2370
      },
      {
        "club_badge_src": null,
        "entry": 2579838,
        "entry_name": "Gudruns Gubbar",
        "event_total": 47,
        "has_played": true,
        "id": 18516479,
        "last_rank": 19904,
        "player_name": "Jonathan Lindgren",
        "rank": 28571,
        "rank_sort": 28603,
        "total": 2370
      },
      {
        "club_badge_src": null,
        "entry": 2691306,
        "entry_name": "AH&BC Jong Dames 6",
        "event_total": 61,
        "has_played": true,
        "id": 19358166,
        "last_rank": 32437,
        "player_name": "Mart Lukkassen",
        "rank": 28571,
        "rank_sort": 28604,
        "total": 2370
      },
      {
        "club_badge_src": null,
        "entry": 2798419,
        "entry_name": "BBM",
        "event_total": 56,
        "has_played": true,
        "id": 20434463,
        "last_rank": 27304,
        "player_name": "Nantawat Kittisakseree",
        "rank": 28571,
        "rank_sort": 28605,
        "total": 2370
      },
      {
        "club_badge_src": null,
        "entry": 3124235,
        "entry_name": "BRUSKO FC",
        "event_total": 63,
        "has_played": true,
        "id": 23056712,
        "last_rank": 34578,
        "player_name": "Harith Hakimi",
        "rank": 28571,
        "rank_sort": 28606,
        "total": 2370
      },
      {
        "club_badge_src": null,
        "entry": 3415091,
        "entry_name": "Oraiimi",
        "event_total": 47,
        "has_played": true,
        "id": 25365207,
        "last_rank": 17150,
        "player_name": "Ahmed Al Oraimi",
        "rank": 28571,
        "rank_sort": 28607,
        "total": 2370
      },
      {
        "club_badge_src": null,
        "entry": 3549066,
        "entry_name": "Theo's All Stars",
        "event_total": 60,
        "has_played": true,
        "id": 26421298,
        "last_rank": 27203,
        "player_name": "Theo Bollands",
        "rank": 28571,
        "rank_sort": 28608,
        "total": 2370
      },
      {
        "club_badge_src": null,
        "entry": 3822649,
        "entry_name": "Parampuk",
        "event_total": 77,
        "has_played": true,
        "id": 28591153,
        "last_rank": 47163,
        "player_name": "Menix M",
        "rank": 28571,
        "rank_sort": 28609,
        "total": 2370
      },
      {
        "club_badge_src": null,
        "entry": 4265940,
        "entry_name": "Xhakanda Forever!",
        "event_total": 52,
        "has_played": true,
        "id": 32346892,
        "last_rank": 23748,
        "player_name": "Prince Eyuel",
        "rank": 28571,
        "rank_sort": 28610,
        "total": 2370
      },
      {
        "club_badge_src": null,
        "entry": 4402932,
        "entry_name": "IncogNeto",
        "event_total": 86,
        "has_played": true,
        "id": 33487195,
        "last_rank": 70183,
        "player_name": "Owen Garland",
        "rank": 28571,
        "rank_sort": 28611,
        "total": 2370
      },
      {
        "club_badge_src": null,
        "entry": 5079969,
        "entry_name": "Rothie rek diam",
        "event_total": 53,
        "has_played": true,
        "id": 39261558,
        "last_rank": 24636,
        "player_name": "Rothie rk diam Rothie rk diam",
        "rank": 28571,
        "rank_sort": 28612,
        "total": 2370
      },
      {
        "club_badge_src": null,
        "entry": 5211710,
        "entry_name": "Farkin El",
        "event_total": 69,
        "has_played": true,
        "id": 40369245,
        "last_rank": 36963,
        "player_name": "Michael Oconnell",
        "rank": 28571,
        "rank_sort": 28613,
        "total": 2370
      },
      {
        "club_badge_src": null,
        "entry": 5221998,
        "entry_name": "Tonali's Cheeky Acca",
        "event_total": 64,
        "has_played": true,
        "id": 40461110,
        "last_rank": 35867,
        "player_name": "Jamie Hackett",
        "rank": 28571,
        "rank_sort": 28614,
        "total": 2370
      },
      {
        "club_badge_src": null,
        "entry": 5535936,
        "entry_name": "Wolfy Wolfy",
        "event_total": 69,
        "has_played": true,
        "id": 43192066,
        "last_rank": 36963,
        "player_name": "Sindre Lundberg",
        "rank": 28571,
        "rank_sort": 28615,
        "total": 2370
      },
      {
        "club_badge_src": null,
        "entry": 5571927,
        "entry_name": "empire of the son",
        "event_total": 49,
        "has_played": true,
        "id": 43510254,
        "last_rank": 21392,
        "player_name": "jordan willetts",
        "rank": 28571,
        "rank_sort": 28616,
        "total": 2370
      },
      {
        "club_badge_src": null,
        "entry": 6504627,
        "entry_name": "Hamperokken",
        "event_total": 51,
        "has_played": true,
        "id": 51863055,
        "last_rank": 19835,
        "player_name": "\u00d8yvind kornstad",
        "rank": 28571,
        "rank_sort": 28617,
        "total": 2370
      },
      {
        "club_badge_src": null,
        "entry": 6894196,
        "entry_name": "Wirtz Case Ontario",
        "event_total": 62,
        "has_played": true,
        "id": 55255229,
        "last_rank": 29199,
        "player_name": "Cooper Macdonell",
        "rank": 28571,
        "rank_sort": 28618,
        "total": 2370
      },
      {
        "club_badge_src": null,
        "entry": 7056976,
        "entry_name": "Antony",
        "event_total": 58,
        "has_played": true,
        "id": 56765040,
        "last_rank": 29071,
        "player_name": "William Miller",
        "rank": 28571,
        "rank_sort": 28619,
        "total": 2370
      },
      {
        "club_badge_src": null,
        "entry": 7089959,
        "entry_name": "VARLORD",
        "event_total": 68,
        "has_played": true,
        "id": 57081137,
        "last_rank": 40770,
        "player_name": "Aksel Hennie",
        "rank": 28571,
        "rank_sort": 28620,
        "total": 2370
      },
      {
        "club_badge_src": "https://fantasy.premierleague.com/gcs/plfpl-production-adobe-approved/plfpl-production/7150516/71ea8ba7-09a9-4906-b999-870977b9c9cc.png",
        "entry": 7150516,
        "entry_name": "Grand Master L",
        "event_total": 51,
        "has_played": true,
        "id": 57658825,
        "last_rank": 19904,
        "player_name": "Owen Lewis",
        "rank": 28571,
        "rank_sort": 28621,
        "total": 2370
      },
      {
        "club_badge_src": null,
        "entry": 7154643,
        "entry_name": "Hide",
        "event_total": 70,
        "has_played": true,
        "id": 57699678,
        "last_rank": 38163,
        "player_name": "Rabye Haloui",
        "rank": 28571,
        "rank_sort": 28622,
        "total": 2370
      },
      {
        "club_badge_src": null,
        "entry": 7692399,
        "entry_name": "Under My Cucurella",
        "event_total": 66,
        "has_played": true,
        "id": 63103159,
        "last_rank": 33483,
        "player_name": "Tertius Van Eeden",
        "rank": 28571,
        "rank_sort": 28623,
        "total": 2370
      },
      {
        "club_badge_src": null,
        "entry": 8055092,
        "entry_name": "FC Goryeo",
        "event_total": 55,
        "has_played": true,
        "id": 66383569,
        "last_rank": 26425,
        "player_name": "Alex Lee",
        "rank": 28571,
        "rank_sort": 28624,
        "total": 2370
      },
      {
        "club_badge_src": null,
        "entry": 8258179,
        "entry_name": "Ishmita FC",
        "event_total": 71,
        "has_played": true,
        "id": 68303058,
        "last_rank": 39403,
        "player_name": "Dr Susmita Shrestha",
        "rank": 28571,
        "rank_sort": 28625,
        "total": 2370
      },
      {
        "club_badge_src": null,
        "entry": 8512155,
        "entry_name": "Nottigham Prisa",
        "event_total": 60,
        "has_played": true,
        "id": 70755574,
        "last_rank": 31309,
        "player_name": "Miguel Jos\u00e9 Blanco Ca\u00f1izares",
        "rank": 28571,
        "rank_sort": 28626,
        "total": 2370
      },
      {
        "club_badge_src": null,
        "entry": 8725818,
        "entry_name": "MKFkers",
        "event_total": 68,
        "has_played": true,
        "id": 72830881,
        "last_rank": 40770,
        "player_name": "Melvin Koh",
        "rank": 28571,
        "rank_sort": 28627,
        "total": 2370
      },
      {
        "club_badge_src": null,
        "entry": 8933725,
        "entry_name": "\u0160e\u0161ko Extra",
        "event_total": 73,
        "has_played": true,
        "id": 74839810,
        "last_rank": 41967,
        "player_name": "Tom Skellon",
        "rank": 28571,
        "rank_sort": 28628,
        "total": 2370
      },
      {
        "club_badge_src": null,
        "entry": 9190672,
        "entry_name": "areola grande",
        "event_total": 72,
        "has_played": true,
        "id": 77342086,
        "last_rank": 40647,
        "player_name": "Megan Deghaye",
        "rank": 28571,
        "rank_sort": 28629,
        "total": 2370
      },
      {
        "club_badge_src": null,
        "entry": 9342813,
        "entry_name": "skvisvik",
        "event_total": 68,
        "has_played": true,
        "id": 78819363,
        "last_rank": 35768,
        "player_name": "Ann Kj\u00e6revik",
        "rank": 28571,
        "rank_sort": 28630,
        "total": 2370
      },
      {
        "club_badge_src": null,
        "entry": 8666,
        "entry_name": "Kymppikassi",
        "event_total": 68,
        "has_played": true,
        "id": 50516,
        "last_rank": 40770,
        "player_name": "Markus Itkonen",
        "rank": 28631,
        "rank_sort": 28631,
        "total": 2370
      },
      {
        "club_badge_src": "https://fantasy.premierleague.com/gcs/plfpl-production-adobe-approved/plfpl-production/41847/fb08895c-00f3-4b71-ac65-e9e42c2dfb52.png",
        "entry": 41847,
        "entry_name": "TDFC",
        "event_total": 55,
        "has_played": true,
        "id": 268119,
        "last_rank": 26512,
        "player_name": "Tony Holmes",
        "rank": 28631,
        "rank_sort": 28632,
        "total": 2370
      },
      {
        "club_badge_src": "https://fantasy.premierleague.com/gcs/plfpl-production-adobe-approved/plfpl-production/44169/30a3d551-bdfe-4158-bd43-fb583a792169.png",
        "entry": 44169,
        "entry_name": "Mousa Demb\u00e9l\u00e9",
        "event_total": 66,
        "has_played": true,
        "id": 283041,
        "last_rank": 33582,
        "player_name": "Daniel Huizinga",
        "rank": 28631,
        "rank_sort": 28633,
        "total": 2370
      },
      {
        "club_badge_src": "https://fantasy.premierleague.com/gcs/plfpl-production-adobe-approved/plfpl-production/57466/0556b558-dfae-472e-9d4b-4ba2d1c2a811.png",
        "entry": 57466,
        "entry_name": "Elhosry max \u26a1",
        "event_total": 75,
        "has_played": true,
        "id": 370199,
        "last_rank": 44804,
        "player_name": "mohamed esam\ud83c\uddf5\ud83c\uddf8",
        "rank": 28631,
        "rank_sort": 28634,
        "total": 2370
      },
      {
        "club_badge_src": null,
        "entry": 59447,
        "entry_name": "Brizzle Kicks",
        "event_total": 62,
        "has_played": true,
        "id": 382835,
        "last_rank": 33582,
        "player_name": "Simon Evans",
        "rank": 28631,
        "rank_sort": 28635,
        "total": 2370
      },
      {
        "club_badge_src": null,
        "entry": 95944,
        "entry_name": "League 1 for Cardiff",
        "event_total": 55,
        "has_played": true,
        "id": 626808,
        "last_rank": 19904,
        "player_name": "Lewis Prosser",
        "rank": 28631,
        "rank_sort": 28636,
        "total": 2370
      },
      {
        "club_badge_src": null,
        "entry": 97875,
        "entry_name": "adkosas2526",
        "event_total": 67,
        "has_played": true,
        "id": 639232,
        "last_rank": 39403,
        "player_name": "Ad Kosas",
        "rank": 28631,
        "rank_sort": 28637,
        "total": 2370
      },
      {
        "club_badge_src": null,
        "entry": 335101,
        "entry_name": "Potion Salah",
        "event_total": 67,
        "has_played": true,
        "id": 2243811,
        "last_rank": 39510,
        "player_name": "Joe Mason",
        "rank": 28631,
        "rank_sort": 28638,
        "total": 2370
      },
      {
        "club_badge_src": null,
        "entry": 559195,
        "entry_name": "Moneta Utd",
        "event_total": 60,
        "has_played": true,
        "id": 3763268,
        "last_rank": 27304,
        "player_name": "Michael Bratton",
        "rank": 28631,
        "rank_sort": 28639,
        "total": 2370
      },
      {
        "club_badge_src": null,
        "entry": 597259,
        "entry_name": "TagsGolacticos",
        "event_total": 54,
        "has_played": true,
        "id": 4027499,
        "last_rank": 22216,
        "player_name": "Colin McTaggart",
        "rank": 28631,
        "rank_sort": 28640,
        "total": 2370
      },
      {
        "club_badge_src": "https://fantasy.premierleague.com/gcs/plfpl-production-adobe-approved/plfpl-production/630031/31da99f5-78f6-4173-afa3-bb6019b23370.png",
        "entry": 630031,
        "entry_name": "Unagi",
        "event_total": 68,
        "has_played": true,
        "id": 4257379,
        "last_rank": 35867,
        "player_name": "Hampus Lundskog",
        "rank": 28631,
        "rank_sort": 28641,
        "total": 2370
      },
      {
        "club_badge_src": null,
        "entry": 735189,
        "entry_name": "Brunyati's Castle",
        "event_total": 78,
        "has_played": true,
        "id": 4997422,
        "last_rank": 55659,
        "player_name": "Charlie Brunyate",
        "rank": 28631,
        "rank_sort": 28642,
        "total": 2370
      },
      {
        "club_badge_src": null,
        "entry": 841610,
        "entry_name": "KloppDahl",
        "event_total": 59,
        "has_played": true,
        "id": 5766314,
        "last_rank": 30325,
        "player_name": "Oskar L\u00f6wdahl",
        "rank": 28631,
        "rank_sort": 28643,
        "total": 2370
      },
      {
        "club_badge_src": null,
        "entry": 853914,
        "entry_name": "DRaFTell",
        "event_total": 64,
        "has_played": true,
        "id": 5853194,
        "last_rank": 31309,
        "player_name": "DRaFTell .",
        "rank": 28631,
        "rank_sort": 28644,
        "total": 2370
      },
      {
        "club_badge_src": null,
        "entry": 1278235,
        "entry_name": "Stach attack",
        "event_total": 62,
        "has_played": true,
        "id": 8882108,
        "last_rank": 29279,
        "player_name": "Michael Kreft",
        "rank": 28631,
        "rank_sort": 28645,
        "total": 2370
      },
      {
        "club_badge_src": null,
        "entry": 1342327,
        "entry_name": "immamisskdb17",
        "event_total": 70,
        "has_played": true,
        "id": 9332850,
        "last_rank": 43444,
        "player_name": "Andy Chen",
        "rank": 28631,
        "rank_sort": 28646,
        "total": 2370
      },
      {
        "club_badge_src": null,
        "entry": 1430257,
        "entry_name": "Siu",
        "event_total": 67,
        "has_played": true,
        "id": 9966100,
        "last_rank": 30191,
        "player_name": "Alex Fan",
        "rank": 28631,
        "rank_sort": 28647,
        "total": 2370
      },
      {
        "club_badge_src": null,
        "entry": 1459684,
        "entry_name": "The Divine Ponytails",
        "event_total": 66,
        "has_played": true,
        "id": 10174686,
        "last_rank": 33582,
        "player_name": "Ian Rutherford",
        "rank": 28631,
        "rank_sort": 28648,
        "total": 2370
      },
      {
        "club_badge_src": "https://fantasy.premierleague.com/gcs/plfpl-production-adobe-approved/plfpl-production/1867352/dd71674c-350f-4515-bd9a-920700550d59.png",
        "entry": 1867352,
        "entry_name": "The Rovers",
        "event_total": 61,
        "has_played": true,
        "id": 13144148,
        "last_rank": 32491,
        "player_name": "Martyn Sexton",
        "rank": 28631,
        "rank_sort": 28649,
        "total": 2370
      },
      {
        "club_badge_src": null,
        "entry": 2226437,
        "entry_name": "\u2660\ufe0eIAMBKGGMU\u2660\ufe0e",
        "event_total": 55,
        "has_played": true,
        "id": 15859259,
        "last_rank": 26475,
        "player_name": "BRUNO FERNANDES -GGMU-",
        "rank": 28631,
        "rank_sort": 28650,
        "total": 2370
      }
    ]
  }
}