{
  "last_updated_data": "2026-05-24T23:28:17Z",
  "league": {
    "admin_entry": null,
    "closed": false,
    "code_privacy": "p",
    "created": "2025-07-20T23:14:33.933835Z",
    "cup_league": 2815434,
    "has_cup": true,
    "id": 314,
    "league_type": "s",
    "max_entries": null,
    "name": "Overall",
    "rank": null,
    "scoring": "c",
    "start_event": 1
  },
  "new_entries": {
    "has_next": false,
    "page": 1,
    "results": []
  },
  "standings": {
    "has_next": true,
    "page": 343,
    "results": [
      {
        "club_badge_src": null,
        "entry": 216038,
        "entry_name": "Comber ect FC",
        "event_total": 51,
        "has_played": true,
        "id": 1436823,
        "last_rank": 13184,
        "player_name": "Ryan Ashfield",
        "rank": 17092,
        "rank_sort": 17101,
        "total": 2384
      },
      {
        "club_badge_src": null,
        "entry": 294881,
        "entry_name": "Greg's Greyhounds",
        "event_total": 63,
        "has_played": true,
        "id": 1969246,
        "last_rank": 20888,
        "player_name": "Greg Chambers",
        "rank": 17092,
        "rank_sort": 17102,
        "total": 2384
      },
      {
        "club_badge_src": null,
        "entry": 304030,
        "entry_name": "yoro melt 2.0",
        "event_total": 70,
        "has_played": true,
        "id": 2035428,
        "last_rank": 26631,
        "player_name": "Danial Hodgson",
        "rank": 17092,
        "rank_sort": 17103,
        "total": 2384
      },
      {
        "club_badge_src": null,
        "entry": 501984,
        "entry_name": "50 shades of gravy",
        "event_total": 49,
        "has_played": true,
        "id": 3369214,
        "last_rank": 12141,
        "player_name": "Sam Parke",
        "rank": 17092,
        "rank_sort": 17104,
        "total": 2384
      },
      {
        "club_badge_src": null,
        "entry": 637549,
        "entry_name": "Shank's Bastion",
        "event_total": 61,
        "has_played": true,
        "id": 4308911,
        "last_rank": 19432,
        "player_name": "Mark Timbs",
        "rank": 17092,
        "rank_sort": 17105,
        "total": 2384
      },
      {
        "club_badge_src": null,
        "entry": 650933,
        "entry_name": "Pain in Diaz",
        "event_total": 48,
        "has_played": true,
        "id": 4399143,
        "last_rank": 11608,
        "player_name": "Calvin Nortje",
        "rank": 17092,
        "rank_sort": 17106,
        "total": 2384
      },
      {
        "club_badge_src": null,
        "entry": 700432,
        "entry_name": "ANGARUKIREMU",
        "event_total": 73,
        "has_played": true,
        "id": 4745515,
        "last_rank": 29688,
        "player_name": "Taata Jeremiah",
        "rank": 17092,
        "rank_sort": 17107,
        "total": 2384
      },
      {
        "club_badge_src": "https://fantasy.premierleague.com/gcs/plfpl-production-adobe-approved/plfpl-production/714090/a5a31e73-5786-4ee5-8179-aebc4992662a.png",
        "entry": 714090,
        "entry_name": "PSV Pingu",
        "event_total": 59,
        "has_played": true,
        "id": 4844593,
        "last_rank": 18029,
        "player_name": "Mal Bevis",
        "rank": 17092,
        "rank_sort": 17108,
        "total": 2384
      },
      {
        "club_badge_src": null,
        "entry": 795032,
        "entry_name": "eze win",
        "event_total": 60,
        "has_played": true,
        "id": 5441064,
        "last_rank": 18691,
        "player_name": "Ossian Westerstad",
        "rank": 17092,
        "rank_sort": 17109,
        "total": 2384
      },
      {
        "club_badge_src": null,
        "entry": 862195,
        "entry_name": "Ectobas",
        "event_total": 65,
        "has_played": true,
        "id": 5910622,
        "last_rank": 22426,
        "player_name": "Toti \u26f5",
        "rank": 17092,
        "rank_sort": 17110,
        "total": 2384
      },
      {
        "club_badge_src": null,
        "entry": 1260265,
        "entry_name": "IceColdPalmer*Brr",
        "event_total": 59,
        "has_played": true,
        "id": 8754312,
        "last_rank": 18113,
        "player_name": "Elias Thomasson",
        "rank": 17092,
        "rank_sort": 17111,
        "total": 2384
      },
      {
        "club_badge_src": null,
        "entry": 1755001,
        "entry_name": "ChampagneSuperRovers",
        "event_total": 56,
        "has_played": true,
        "id": 12320808,
        "last_rank": 13702,
        "player_name": "Adam Orme",
        "rank": 17092,
        "rank_sort": 17112,
        "total": 2384
      },
      {
        "club_badge_src": null,
        "entry": 2378407,
        "entry_name": "Farabi Sarker",
        "event_total": 67,
        "has_played": true,
        "id": 16982070,
        "last_rank": 23990,
        "player_name": "Farabi Sarker",
        "rank": 17092,
        "rank_sort": 17113,
        "total": 2384
      },
      {
        "club_badge_src": null,
        "entry": 2580003,
        "entry_name": "Pug's Dream Team",
        "event_total": 65,
        "has_played": true,
        "id": 18517738,
        "last_rank": 22534,
        "player_name": "Adam Borg",
        "rank": 17092,
        "rank_sort": 17114,
        "total": 2384
      },
      {
        "club_badge_src": null,
        "entry": 2888508,
        "entry_name": "FC Peaky Blinders",
        "event_total": 67,
        "has_played": true,
        "id": 21149121,
        "last_rank": 24039,
        "player_name": "V\u00e1\u0161a Sala\u010d",
        "rank": 17092,
        "rank_sort": 17115,
        "total": 2384
      },
      {
        "club_badge_src": null,
        "entry": 3438272,
        "entry_name": "KoliasnikOffsideTrap",
        "event_total": 56,
        "has_played": true,
        "id": 25543124,
        "last_rank": 16039,
        "player_name": "Marc Koliasnikoff",
        "rank": 17092,
        "rank_sort": 17116,
        "total": 2384
      },
      {
        "club_badge_src": null,
        "entry": 3506932,
        "entry_name": "Detroit Wheels",
        "event_total": 60,
        "has_played": true,
        "id": 26089223,
        "last_rank": 18655,
        "player_name": "Ryan Belanger",
        "rank": 17092,
        "rank_sort": 17117,
        "total": 2384
      },
      {
        "club_badge_src": null,
        "entry": 3695324,
        "entry_name": "Pointless FC",
        "event_total": 46,
        "has_played": true,
        "id": 27568629,
        "last_rank": 10805,
        "player_name": "Rahul Kainth",
        "rank": 17092,
        "rank_sort": 17118,
        "total": 2384
      },
      {
        "club_badge_src": "https://fantasy.premierleague.com/gcs/plfpl-production-adobe-approved/plfpl-production/4024271/c42b844c-5893-44fc-996b-72a3fd7997fb.png",
        "entry": 4024271,
        "entry_name": "The Class of 92'",
        "event_total": 49,
        "has_played": true,
        "id": 30333051,
        "last_rank": 12200,
        "player_name": "Midlaj Backer",
        "rank": 17092,
        "rank_sort": 17119,
        "total": 2384
      },
      {
        "club_badge_src": null,
        "entry": 4057899,
        "entry_name": "Football United FC",
        "event_total": 50,
        "has_played": true,
        "id": 30619885,
        "last_rank": 12705,
        "player_name": "Zach Jones",
        "rank": 17092,
        "rank_sort": 17120,
        "total": 2384
      },
      {
        "club_badge_src": null,
        "entry": 4084505,
        "entry_name": "Sha\u00eft Happens",
        "event_total": 74,
        "has_played": true,
        "id": 30836181,
        "last_rank": 30727,
        "player_name": "Shelby Romero",
        "rank": 17092,
        "rank_sort": 17121,
        "total": 2384
      },
      {
        "club_badge_src": null,
        "entry": 4188827,
        "entry_name": "Ibsens Utvalgte",
        "event_total": 60,
        "has_played": true,
        "id": 31696139,
        "last_rank": 18655,
        "player_name": "Sander Evjen Sanna",
        "rank": 17092,
        "rank_sort": 17122,
        "total": 2384
      },
      {
        "club_badge_src": null,
        "entry": 4292612,
        "entry_name": "D\u00fcrrs Dynamitter",
        "event_total": 62,
        "has_played": true,
        "id": 32562076,
        "last_rank": 20131,
        "player_name": "Mikael Pedersen",
        "rank": 17092,
        "rank_sort": 17123,
        "total": 2384
      },
      {
        "club_badge_src": null,
        "entry": 4357692,
        "entry_name": "Big dawgs",
        "event_total": 49,
        "has_played": true,
        "id": 33095174,
        "last_rank": 12200,
        "player_name": "Hesham Ramadan",
        "rank": 17092,
        "rank_sort": 17124,
        "total": 2384
      },
      {
        "club_badge_src": null,
        "entry": 4518467,
        "entry_name": "Rubber Digne Rapids",
        "event_total": 67,
        "has_played": true,
        "id": 34458100,
        "last_rank": 23973,
        "player_name": "Sean Sutton",
        "rank": 17092,
        "rank_sort": 17125,
        "total": 2384
      },
      {
        "club_badge_src": null,
        "entry": 4627183,
        "entry_name": "Eggs 3 Ways FC",
        "event_total": 49,
        "has_played": true,
        "id": 35377078,
        "last_rank": 12200,
        "player_name": "Matthew Spyrou",
        "rank": 17092,
        "rank_sort": 17126,
        "total": 2384
      },
      {
        "club_badge_src": null,
        "entry": 5646914,
        "entry_name": "Everybody Wirtz",
        "event_total": 64,
        "has_played": true,
        "id": 44170794,
        "last_rank": 21775,
        "player_name": "John Foley",
        "rank": 17092,
        "rank_sort": 17127,
        "total": 2384
      },
      {
        "club_badge_src": null,
        "entry": 6142009,
        "entry_name": "Warzon",
        "event_total": 57,
        "has_played": true,
        "id": 48543312,
        "last_rank": 16807,
        "player_name": "Warzon Mobil",
        "rank": 17092,
        "rank_sort": 17128,
        "total": 2384
      },
      {
        "club_badge_src": null,
        "entry": 6205461,
        "entry_name": "Planteskolen IF",
        "event_total": 52,
        "has_played": true,
        "id": 49092509,
        "last_rank": 13821,
        "player_name": "Andreas Kristiansen",
        "rank": 17092,
        "rank_sort": 17129,
        "total": 2384
      },
      {
        "club_badge_src": "https://fantasy.premierleague.com/gcs/plfpl-production-adobe-approved/plfpl-production/6221987/7d44c8ba-1e35-43f1-a05e-cfee2bd34104.png",
        "entry": 6221987,
        "entry_name": "King Gunde",
        "event_total": 66,
        "has_played": true,
        "id": 49233273,
        "last_rank": 23230,
        "player_name": "King Gunde",
        "rank": 17092,
        "rank_sort": 17130,
        "total": 2384
      },
      {
        "club_badge_src": null,
        "entry": 6627985,
        "entry_name": "heyhyehye",
        "event_total": 75,
        "has_played": true,
        "id": 52969195,
        "last_rank": 31534,
        "player_name": "Prasun Shrestha",
        "rank": 17092,
        "rank_sort": 17131,
        "total": 2384
      },
      {
        "club_badge_src": null,
        "entry": 7141424,
        "entry_name": "The Wenger Boys",
        "event_total": 52,
        "has_played": true,
        "id": 57568028,
        "last_rank": 13821,
        "player_name": "Mathew Anthony",
        "rank": 17092,
        "rank_sort": 17132,
        "total": 2384
      },
      {
        "club_badge_src": null,
        "entry": 7265208,
        "entry_name": "The Red Devil",
        "event_total": 50,
        "has_played": true,
        "id": 58749150,
        "last_rank": 12645,
        "player_name": "Jude Masalha",
        "rank": 17092,
        "rank_sort": 17133,
        "total": 2384
      },
      {
        "club_badge_src": null,
        "entry": 7522003,
        "entry_name": "malky b super squad",
        "event_total": 77,
        "has_played": true,
        "id": 61545877,
        "last_rank": 34051,
        "player_name": "Malcolm Baker",
        "rank": 17092,
        "rank_sort": 17134,
        "total": 2384
      },
      {
        "club_badge_src": null,
        "entry": 7791765,
        "entry_name": "What The Skelly",
        "event_total": 66,
        "has_played": true,
        "id": 63999366,
        "last_rank": 23155,
        "player_name": "Ellis Snell",
        "rank": 17092,
        "rank_sort": 17135,
        "total": 2384
      },
      {
        "club_badge_src": null,
        "entry": 8273767,
        "entry_name": "SlipItIn",
        "event_total": 63,
        "has_played": true,
        "id": 68449875,
        "last_rank": 20853,
        "player_name": "Gavin Tulk",
        "rank": 17092,
        "rank_sort": 17136,
        "total": 2384
      },
      {
        "club_badge_src": null,
        "entry": 9741916,
        "entry_name": "Real Marit",
        "event_total": 66,
        "has_played": true,
        "id": 82668592,
        "last_rank": 23188,
        "player_name": "Marit Elin Eid",
        "rank": 17092,
        "rank_sort": 17137,
        "total": 2384
      },
      {
        "club_badge_src": null,
        "entry": 10123678,
        "entry_name": "fc 7amdy \u261d\ufffd",
        "event_total": 77,
        "has_played": true,
        "id": 85799978,
        "last_rank": 33869,
        "player_name": "Ahmed Hassan",
        "rank": 17092,
        "rank_sort": 17138,
        "total": 2384
      },
      {
        "club_badge_src": null,
        "entry": 1805,
        "entry_name": "Klavan Wanderers",
        "event_total": 56,
        "has_played": true,
        "id": 10051,
        "last_rank": 16062,
        "player_name": "Arn\u00f3r Da\u00f0i Rafnsson",
        "rank": 17139,
        "rank_sort": 17139,
        "total": 2384
      },
      {
        "club_badge_src": null,
        "entry": 3613,
        "entry_name": "AMADNESS",
        "event_total": 64,
        "has_played": true,
        "id": 20485,
        "last_rank": 21628,
        "player_name": "Ross Harper",
        "rank": 17139,
        "rank_sort": 17140,
        "total": 2384
      },
      {
        "club_badge_src": null,
        "entry": 4195,
        "entry_name": "warriors united",
        "event_total": 70,
        "has_played": true,
        "id": 23818,
        "last_rank": 26631,
        "player_name": "sam fisher",
        "rank": 17139,
        "rank_sort": 17141,
        "total": 2384
      },
      {
        "club_badge_src": null,
        "entry": 15546,
        "entry_name": "Solio Team",
        "event_total": 49,
        "has_played": true,
        "id": 95481,
        "last_rank": 12141,
        "player_name": "S Zubayer",
        "rank": 17139,
        "rank_sort": 17142,
        "total": 2384
      },
      {
        "club_badge_src": "https://fantasy.premierleague.com/gcs/plfpl-production-adobe-approved/plfpl-production/18761/6270d051-4054-490d-a31b-a48c0f8ed4ad.png",
        "entry": 18761,
        "entry_name": "Strijders",
        "event_total": 63,
        "has_played": true,
        "id": 116761,
        "last_rank": 20888,
        "player_name": "Kevin de Ruiter",
        "rank": 17139,
        "rank_sort": 17143,
        "total": 2384
      },
      {
        "club_badge_src": null,
        "entry": 20763,
        "entry_name": "Change Name",
        "event_total": 59,
        "has_played": true,
        "id": 129866,
        "last_rank": 18029,
        "player_name": "Jack Stennulat",
        "rank": 17139,
        "rank_sort": 17144,
        "total": 2384
      },
      {
        "club_badge_src": null,
        "entry": 20920,
        "entry_name": "FPL_KNTT",
        "event_total": 67,
        "has_played": true,
        "id": 130973,
        "last_rank": 24143,
        "player_name": "Jakkapan Siriburanakiat",
        "rank": 17139,
        "rank_sort": 17145,
        "total": 2384
      },
      {
        "club_badge_src": null,
        "entry": 27246,
        "entry_name": "011",
        "event_total": 55,
        "has_played": true,
        "id": 172224,
        "last_rank": 15550,
        "player_name": "David Manners",
        "rank": 17139,
        "rank_sort": 17146,
        "total": 2384
      },
      {
        "club_badge_src": null,
        "entry": 38398,
        "entry_name": "he who made him fall",
        "event_total": 57,
        "has_played": true,
        "id": 246087,
        "last_rank": 14251,
        "player_name": "Konstantin Raithel",
        "rank": 17139,
        "rank_sort": 17147,
        "total": 2384
      },
      {
        "club_badge_src": null,
        "entry": 39711,
        "entry_name": "GWG Utd",
        "event_total": 69,
        "has_played": true,
        "id": 254496,
        "last_rank": 25902,
        "player_name": "Gareth Griffiths",
        "rank": 17139,
        "rank_sort": 17148,
        "total": 2384
      },
      {
        "club_badge_src": null,
        "entry": 45150,
        "entry_name": "itsagrandoldteam",
        "event_total": 69,
        "has_played": true,
        "id": 289542,
        "last_rank": 25902,
        "player_name": "Alexander Lynskey",
        "rank": 17139,
        "rank_sort": 17149,
        "total": 2384
      },
      {
        "club_badge_src": null,
        "entry": 62270,
        "entry_name": "CatelonianFoden",
        "event_total": 34,
        "has_played": true,
        "id": 401276,
        "last_rank": 6448,
        "player_name": "Fahim Khan",
        "rank": 17139,
        "rank_sort": 17150,
        "total": 2384
      }
    ]
  }
}