{
  "last_updated_data": "2026-05-24T23:28:17Z",
  "league": {
    "admin_entry": null,
    "closed": false,
    "code_privacy": "p",
    "created": "2025-07-20T23:14:33.933835Z",
    "cup_league": 2815434,
    "has_cup": true,
    "id": 314,
    "league_type": "s",
    "max_entries": null,
    "name": "Overall",
    "rank": null,
    "scoring": "c",
    "start_event": 1
  },
  "new_entries": {
    "has_next": false,
    "page": 1,
    "results": []
  },
  "standings": {
    "has_next": true,
    "page": 723,
    "results": [
      {
        "club_badge_src": null,
        "entry": 9544,
        "entry_name": "Hmmm",
        "event_total": 57,
        "has_played": true,
        "id": 56135,
        "last_rank": 36031,
        "player_name": "Mike Perry",
        "rank": 36101,
        "rank_sort": 36101,
        "total": 2363
      },
      {
        "club_badge_src": "https://fantasy.premierleague.com/gcs/plfpl-production-adobe-approved/plfpl-production/30793/1d67c00d-b822-4ade-9f5e-176bc2132776.png",
        "entry": 30793,
        "entry_name": "Moo Ma Now",
        "event_total": 50,
        "has_played": true,
        "id": 194892,
        "last_rank": 24735,
        "player_name": "Phattarachai Boonchouy",
        "rank": 36101,
        "rank_sort": 36102,
        "total": 2363
      },
      {
        "club_badge_src": null,
        "entry": 102142,
        "entry_name": "Di Stefano",
        "event_total": 65,
        "has_played": true,
        "id": 666423,
        "last_rank": 40959,
        "player_name": "Stephen Wilson",
        "rank": 36101,
        "rank_sort": 36103,
        "total": 2363
      },
      {
        "club_badge_src": "https://fantasy.premierleague.com/gcs/plfpl-production-adobe-approved/plfpl-production/427574/7bc640f2-f313-4192-b1da-87ffe4f333dc.png",
        "entry": 427574,
        "entry_name": "UTDHarsil99",
        "event_total": 54,
        "has_played": true,
        "id": 2867527,
        "last_rank": 32586,
        "player_name": "Harshil Jain",
        "rank": 36101,
        "rank_sort": 36104,
        "total": 2363
      },
      {
        "club_badge_src": "https://fantasy.premierleague.com/gcs/plfpl-production-adobe-approved/plfpl-production/739021/1a5b9572-94a3-4c78-bbe7-e17a6854690e.png",
        "entry": 739021,
        "entry_name": "I\u2019M A GOONER",
        "event_total": 70,
        "has_played": true,
        "id": 5024604,
        "last_rank": 47950,
        "player_name": "Oliver Bj\u00f8rsvik",
        "rank": 36101,
        "rank_sort": 36105,
        "total": 2363
      },
      {
        "club_badge_src": null,
        "entry": 1343065,
        "entry_name": "Mbambito FC",
        "event_total": 73,
        "has_played": true,
        "id": 9337794,
        "last_rank": 52561,
        "player_name": "raditya putra",
        "rank": 36101,
        "rank_sort": 36106,
        "total": 2363
      },
      {
        "club_badge_src": null,
        "entry": 1791859,
        "entry_name": "Manuel Benson",
        "event_total": 77,
        "has_played": true,
        "id": 12591154,
        "last_rank": 59291,
        "player_name": "Rafat Faruk",
        "rank": 36101,
        "rank_sort": 36107,
        "total": 2363
      },
      {
        "club_badge_src": null,
        "entry": 2108080,
        "entry_name": "White Ben Can\u2019t Jump",
        "event_total": 49,
        "has_played": true,
        "id": 14961451,
        "last_rank": 27499,
        "player_name": "Gary James",
        "rank": 36101,
        "rank_sort": 36108,
        "total": 2363
      },
      {
        "club_badge_src": null,
        "entry": 2157062,
        "entry_name": "Slot Machine",
        "event_total": 60,
        "has_played": true,
        "id": 15333583,
        "last_rank": 39716,
        "player_name": "Marcus Blowers",
        "rank": 36101,
        "rank_sort": 36109,
        "total": 2363
      },
      {
        "club_badge_src": null,
        "entry": 2193573,
        "entry_name": "ABU Abdulaziz &&&",
        "event_total": 55,
        "has_played": true,
        "id": 15607154,
        "last_rank": 33768,
        "player_name": "AB NORH Alyafei",
        "rank": 36101,
        "rank_sort": 36110,
        "total": 2363
      },
      {
        "club_badge_src": null,
        "entry": 3568429,
        "entry_name": "Pique Blinders",
        "event_total": 54,
        "has_played": true,
        "id": 26570576,
        "last_rank": 32586,
        "player_name": "Martin Usher",
        "rank": 36101,
        "rank_sort": 36111,
        "total": 2363
      },
      {
        "club_badge_src": null,
        "entry": 3834277,
        "entry_name": "Abad diallo",
        "event_total": 85,
        "has_played": true,
        "id": 28684176,
        "last_rank": 83216,
        "player_name": "Mrasta Mbeumo",
        "rank": 36101,
        "rank_sort": 36112,
        "total": 2363
      },
      {
        "club_badge_src": null,
        "entry": 3944155,
        "entry_name": "Bullens Road FC",
        "event_total": 65,
        "has_played": true,
        "id": 29670371,
        "last_rank": 46406,
        "player_name": "Will Dodd",
        "rank": 36101,
        "rank_sort": 36113,
        "total": 2363
      },
      {
        "club_badge_src": null,
        "entry": 8307685,
        "entry_name": "Royal Blue Rebels",
        "event_total": 50,
        "has_played": true,
        "id": 68790734,
        "last_rank": 28476,
        "player_name": "Lilah Cretney",
        "rank": 36101,
        "rank_sort": 36114,
        "total": 2363
      },
      {
        "club_badge_src": "https://fantasy.premierleague.com/gcs/plfpl-production-adobe-approved/plfpl-production/11019/e749bbc1-0cc6-4ea4-ad29-6caca7bd44cd.png",
        "entry": 11019,
        "entry_name": "Nostromo Xenomorphs",
        "event_total": 44,
        "has_played": true,
        "id": 65334,
        "last_rank": 23123,
        "player_name": "Jon Fletcher",
        "rank": 36115,
        "rank_sort": 36115,
        "total": 2363
      },
      {
        "club_badge_src": null,
        "entry": 322040,
        "entry_name": "Fynes' Fynest",
        "event_total": 64,
        "has_played": true,
        "id": 2158173,
        "last_rank": 39716,
        "player_name": "Chris Fynes",
        "rank": 36115,
        "rank_sort": 36116,
        "total": 2363
      },
      {
        "club_badge_src": null,
        "entry": 509109,
        "entry_name": "BIG T",
        "event_total": 67,
        "has_played": true,
        "id": 3418044,
        "last_rank": 49475,
        "player_name": "Tarek Moose",
        "rank": 36115,
        "rank_sort": 36117,
        "total": 2363
      },
      {
        "club_badge_src": null,
        "entry": 881553,
        "entry_name": "l'equipe lele",
        "event_total": 38,
        "has_played": true,
        "id": 6045478,
        "last_rank": 18616,
        "player_name": "Leo Wellmann",
        "rank": 36115,
        "rank_sort": 36118,
        "total": 2363
      },
      {
        "club_badge_src": null,
        "entry": 2757428,
        "entry_name": "Dream team!!",
        "event_total": 54,
        "has_played": true,
        "id": 20100255,
        "last_rank": 32604,
        "player_name": "Zieyaad Isaacs",
        "rank": 36115,
        "rank_sort": 36119,
        "total": 2363
      },
      {
        "club_badge_src": null,
        "entry": 4743792,
        "entry_name": "The guy FC",
        "event_total": 69,
        "has_played": true,
        "id": 36501055,
        "last_rank": 52653,
        "player_name": "Clergy Mandizvidza",
        "rank": 36115,
        "rank_sort": 36120,
        "total": 2363
      },
      {
        "club_badge_src": null,
        "entry": 4869198,
        "entry_name": "Abo Ali",
        "event_total": 56,
        "has_played": true,
        "id": 37530208,
        "last_rank": 26554,
        "player_name": "Mahmoud Hamdy",
        "rank": 36115,
        "rank_sort": 36121,
        "total": 2363
      },
      {
        "club_badge_src": null,
        "entry": 83173,
        "entry_name": "Maldini Studios",
        "event_total": 46,
        "has_played": true,
        "id": 541292,
        "last_rank": 24787,
        "player_name": "Rasmus Moberg",
        "rank": 36122,
        "rank_sort": 36122,
        "total": 2363
      },
      {
        "club_badge_src": null,
        "entry": 601947,
        "entry_name": "Fignoleur FC",
        "event_total": 60,
        "has_played": true,
        "id": 4062038,
        "last_rank": 26554,
        "player_name": "MJ FP",
        "rank": 36122,
        "rank_sort": 36123,
        "total": 2363
      },
      {
        "club_badge_src": null,
        "entry": 1762971,
        "entry_name": "The Gy\u00f6ke Awakens",
        "event_total": 50,
        "has_played": true,
        "id": 12379333,
        "last_rank": 28485,
        "player_name": "Mikael An\u00e9r",
        "rank": 36122,
        "rank_sort": 36124,
        "total": 2363
      },
      {
        "club_badge_src": null,
        "entry": 2504605,
        "entry_name": "Great White Buffalo",
        "event_total": 72,
        "has_played": true,
        "id": 17935772,
        "last_rank": 51013,
        "player_name": "Jean-Fredrick Mortensen",
        "rank": 36122,
        "rank_sort": 36125,
        "total": 2363
      },
      {
        "club_badge_src": null,
        "entry": 3127631,
        "entry_name": "Champagne Charlies",
        "event_total": 49,
        "has_played": true,
        "id": 23082956,
        "last_rank": 27521,
        "player_name": "Gareth Rowett",
        "rank": 36122,
        "rank_sort": 36126,
        "total": 2363
      },
      {
        "club_badge_src": null,
        "entry": 3579322,
        "entry_name": "Captain John",
        "event_total": 74,
        "has_played": true,
        "id": 26653953,
        "last_rank": 54268,
        "player_name": "John Graziano",
        "rank": 36122,
        "rank_sort": 36127,
        "total": 2363
      },
      {
        "club_badge_src": null,
        "entry": 197804,
        "entry_name": "Kurt's Pet Parlour",
        "event_total": 65,
        "has_played": true,
        "id": 1312574,
        "last_rank": 41003,
        "player_name": "Will Thomas",
        "rank": 36128,
        "rank_sort": 36128,
        "total": 2363
      },
      {
        "club_badge_src": null,
        "entry": 502100,
        "entry_name": "TocaJ",
        "event_total": 55,
        "has_played": true,
        "id": 3370074,
        "last_rank": 33782,
        "player_name": "Billy Wong",
        "rank": 36128,
        "rank_sort": 36129,
        "total": 2363
      },
      {
        "club_badge_src": null,
        "entry": 892615,
        "entry_name": "F\u00f6rhudsl\u00f6sa BK",
        "event_total": 61,
        "has_played": true,
        "id": 6130408,
        "last_rank": 41014,
        "player_name": "Rasmus Holm Dahlqvist",
        "rank": 36128,
        "rank_sort": 36130,
        "total": 2363
      },
      {
        "club_badge_src": null,
        "entry": 1969768,
        "entry_name": "Next Season FC",
        "event_total": 77,
        "has_played": true,
        "id": 13902099,
        "last_rank": 52653,
        "player_name": "Dejan Tesevic",
        "rank": 36128,
        "rank_sort": 36131,
        "total": 2363
      },
      {
        "club_badge_src": null,
        "entry": 2626797,
        "entry_name": "\u0645\u0631\u0643\u0632 \u0634\u0628\u0627\u0628 \u0643\u0641\u0631 \u0645\u0635\u0645\u0635",
        "event_total": 68,
        "has_played": true,
        "id": 18876034,
        "last_rank": 34864,
        "player_name": "Amr Eslam",
        "rank": 36128,
        "rank_sort": 36132,
        "total": 2363
      },
      {
        "club_badge_src": null,
        "entry": 4318969,
        "entry_name": "Tasmanijski \u0111avoli",
        "event_total": 64,
        "has_played": true,
        "id": 32776049,
        "last_rank": 39731,
        "player_name": "\u0416\u0438\u0432\u0430\u043d \u0423\u0440\u0443\u043c\u043e\u0432\u0438\u045b",
        "rank": 36128,
        "rank_sort": 36133,
        "total": 2363
      },
      {
        "club_badge_src": null,
        "entry": 5841927,
        "entry_name": "garma3i",
        "event_total": 57,
        "has_played": true,
        "id": 45859192,
        "last_rank": 36052,
        "player_name": "youssef fettah",
        "rank": 36128,
        "rank_sort": 36134,
        "total": 2363
      },
      {
        "club_badge_src": null,
        "entry": 6748571,
        "entry_name": "Lancet",
        "event_total": 62,
        "has_played": true,
        "id": 54025545,
        "last_rank": 42360,
        "player_name": "bryan koech",
        "rank": 36128,
        "rank_sort": 36135,
        "total": 2363
      },
      {
        "club_badge_src": "https://fantasy.premierleague.com/gcs/plfpl-production-adobe-approved/plfpl-production/264902/d577ead5-fb2b-4baf-b61d-0d9d627b9108.png",
        "entry": 264902,
        "entry_name": "\u0427\u0435\u0440\u043d\u043e_\u0422\u043e\u0422\u043e\ufffd",
        "event_total": 73,
        "has_played": true,
        "id": 1761766,
        "last_rank": 59415,
        "player_name": "Gencho Turlakov",
        "rank": 36136,
        "rank_sort": 36136,
        "total": 2363
      },
      {
        "club_badge_src": "https://fantasy.premierleague.com/gcs/plfpl-production-adobe-approved/plfpl-production/4061904/4691b658-61d5-4c3b-992f-ae43f5949acf.png",
        "entry": 4061904,
        "entry_name": "BenditLikeBendtner",
        "event_total": 67,
        "has_played": true,
        "id": 30652641,
        "last_rank": 43695,
        "player_name": "Alex Brightman",
        "rank": 36136,
        "rank_sort": 36137,
        "total": 2363
      },
      {
        "club_badge_src": "https://fantasy.premierleague.com/gcs/plfpl-production-adobe-approved/plfpl-production/1745936/d9b8ced6-77b1-4d74-8178-bc97beffc6bb.png",
        "entry": 1745936,
        "entry_name": "Dodivich77",
        "event_total": 60,
        "has_played": true,
        "id": 12251457,
        "last_rank": 34894,
        "player_name": "Emad Abdel Fattah Mostafa",
        "rank": 36138,
        "rank_sort": 36138,
        "total": 2363
      },
      {
        "club_badge_src": null,
        "entry": 1902411,
        "entry_name": "Bu Saleh FC",
        "event_total": 67,
        "has_played": true,
        "id": 13410982,
        "last_rank": 38484,
        "player_name": "Mohammad Zakarneh",
        "rank": 36138,
        "rank_sort": 36139,
        "total": 2363
      },
      {
        "club_badge_src": "https://fantasy.premierleague.com/gcs/plfpl-production-adobe-approved/plfpl-production/4562127/efdb3d4e-7bb6-46b4-9089-11f9e2ef899d.png",
        "entry": 4562127,
        "entry_name": "Fulkrig Hell",
        "event_total": 59,
        "has_played": true,
        "id": 34812846,
        "last_rank": 38497,
        "player_name": "Richard Rider",
        "rank": 36138,
        "rank_sort": 36140,
        "total": 2363
      },
      {
        "club_badge_src": null,
        "entry": 489146,
        "entry_name": "R\u00f8d Mix 3",
        "event_total": 51,
        "has_played": true,
        "id": 3283749,
        "last_rank": 25680,
        "player_name": "Magnus Moen",
        "rank": 36141,
        "rank_sort": 36141,
        "total": 2363
      },
      {
        "club_badge_src": "https://fantasy.premierleague.com/gcs/plfpl-production-adobe-approved/plfpl-production/8418689/3c6bf2f2-8129-42e5-b5f7-69e8bf299ed4.png",
        "entry": 8418689,
        "entry_name": "Momar",
        "event_total": 54,
        "has_played": true,
        "id": 69855034,
        "last_rank": 32616,
        "player_name": "Mohammad Omar",
        "rank": 36142,
        "rank_sort": 36142,
        "total": 2363
      },
      {
        "club_badge_src": null,
        "entry": 679145,
        "entry_name": "Al Nahyan",
        "event_total": 61,
        "has_played": true,
        "id": 4595620,
        "last_rank": 36073,
        "player_name": "Mohammed Awol",
        "rank": 36143,
        "rank_sort": 36143,
        "total": 2363
      },
      {
        "club_badge_src": null,
        "entry": 7377994,
        "entry_name": "Super Mario",
        "event_total": 57,
        "has_played": true,
        "id": 59807966,
        "last_rank": 31497,
        "player_name": "WG Robinson",
        "rank": 36144,
        "rank_sort": 36144,
        "total": 2363
      },
      {
        "club_badge_src": null,
        "entry": 4497849,
        "entry_name": "Almaz fc",
        "event_total": 58,
        "has_played": true,
        "id": 34288701,
        "last_rank": 32620,
        "player_name": "Vicky Sozou",
        "rank": 36145,
        "rank_sort": 36145,
        "total": 2363
      },
      {
        "club_badge_src": null,
        "entry": 769344,
        "entry_name": "Spragle&Pondus",
        "event_total": 69,
        "has_played": true,
        "id": 5248108,
        "last_rank": 41031,
        "player_name": "Harry Bj\u00f8rnestad",
        "rank": 36146,
        "rank_sort": 36146,
        "total": 2363
      },
      {
        "club_badge_src": null,
        "entry": 2577741,
        "entry_name": "1st place !!!",
        "event_total": 34,
        "has_played": true,
        "id": 18500122,
        "last_rank": 16021,
        "player_name": "Abby Richards",
        "rank": 36147,
        "rank_sort": 36147,
        "total": 2362
      },
      {
        "club_badge_src": null,
        "entry": 4393160,
        "entry_name": "SahalFirezz",
        "event_total": 53,
        "has_played": true,
        "id": 33398700,
        "last_rank": 31504,
        "player_name": "Sahal Mahrib",
        "rank": 36148,
        "rank_sort": 36148,
        "total": 2362
      },
      {
        "club_badge_src": null,
        "entry": 5563348,
        "entry_name": "Isakly what we need",
        "event_total": 56,
        "has_played": true,
        "id": 43434551,
        "last_rank": 34903,
        "player_name": "David Evans",
        "rank": 36148,
        "rank_sort": 36149,
        "total": 2362
      },
      {
        "club_badge_src": null,
        "entry": 37816,
        "entry_name": "Loyals FC",
        "event_total": 75,
        "has_played": true,
        "id": 242303,
        "last_rank": 63033,
        "player_name": "Set Forget",
        "rank": 36150,
        "rank_sort": 36150,
        "total": 2362
      }
    ]
  }
}