{
  "last_updated_data": "2026-05-24T23:28:17Z",
  "league": {
    "admin_entry": null,
    "closed": false,
    "code_privacy": "p",
    "created": "2025-07-20T23:14:33.933835Z",
    "cup_league": 2815434,
    "has_cup": true,
    "id": 314,
    "league_type": "s",
    "max_entries": null,
    "name": "Overall",
    "rank": null,
    "scoring": "c",
    "start_event": 1
  },
  "new_entries": {
    "has_next": false,
    "page": 1,
    "results": []
  },
  "standings": {
    "has_next": true,
    "page": 1410,
    "results": [
      {
        "club_badge_src": null,
        "entry": 640826,
        "entry_name": "Obi Wan Iwobi",
        "event_total": 58,
        "has_played": true,
        "id": 4330931,
        "last_rank": 73423,
        "player_name": "Dean Zan",
        "rank": 70365,
        "rank_sort": 70451,
        "total": 2340
      },
      {
        "club_badge_src": null,
        "entry": 655307,
        "entry_name": "Blue Lock 11",
        "event_total": 73,
        "has_played": true,
        "id": 4428656,
        "last_rank": 109454,
        "player_name": "Evan Fernandes",
        "rank": 70365,
        "rank_sort": 70452,
        "total": 2340
      },
      {
        "club_badge_src": null,
        "entry": 661702,
        "entry_name": "harry came to soon",
        "event_total": 56,
        "has_played": true,
        "id": 4472488,
        "last_rank": 69323,
        "player_name": "Sean Kerr",
        "rank": 70365,
        "rank_sort": 70453,
        "total": 2340
      },
      {
        "club_badge_src": null,
        "entry": 664575,
        "entry_name": "Irons",
        "event_total": 59,
        "has_played": true,
        "id": 4492981,
        "last_rank": 75874,
        "player_name": "Christos Mitaras",
        "rank": 70365,
        "rank_sort": 70454,
        "total": 2340
      },
      {
        "club_badge_src": null,
        "entry": 667047,
        "entry_name": "Half the world (a)",
        "event_total": 68,
        "has_played": true,
        "id": 4510197,
        "last_rank": 96777,
        "player_name": "Conor Newman",
        "rank": 70365,
        "rank_sort": 70455,
        "total": 2340
      },
      {
        "club_badge_src": null,
        "entry": 692465,
        "entry_name": "Malta",
        "event_total": 36,
        "has_played": true,
        "id": 4689644,
        "last_rank": 38016,
        "player_name": "Michael Kryger",
        "rank": 70365,
        "rank_sort": 70456,
        "total": 2340
      },
      {
        "club_badge_src": null,
        "entry": 696528,
        "entry_name": "Hadi's Team",
        "event_total": 66,
        "has_played": true,
        "id": 4717870,
        "last_rank": 91466,
        "player_name": "Hadi Ahmad",
        "rank": 70365,
        "rank_sort": 70457,
        "total": 2340
      },
      {
        "club_badge_src": null,
        "entry": 717667,
        "entry_name": "Johnson Again Ole",
        "event_total": 60,
        "has_played": true,
        "id": 4869589,
        "last_rank": 77676,
        "player_name": "Rahul Sathiaraj",
        "rank": 70365,
        "rank_sort": 70458,
        "total": 2340
      },
      {
        "club_badge_src": null,
        "entry": 720992,
        "entry_name": "Gingermeister",
        "event_total": 62,
        "has_played": true,
        "id": 4895473,
        "last_rank": 82398,
        "player_name": "Daan W",
        "rank": 70365,
        "rank_sort": 70459,
        "total": 2340
      },
      {
        "club_badge_src": null,
        "entry": 734877,
        "entry_name": "Haris",
        "event_total": 57,
        "has_played": true,
        "id": 4994899,
        "last_rank": 71713,
        "player_name": "Abdulrahman Haris",
        "rank": 70365,
        "rank_sort": 70460,
        "total": 2340
      },
      {
        "club_badge_src": null,
        "entry": 776827,
        "entry_name": "Rangers @ Texas",
        "event_total": 54,
        "has_played": true,
        "id": 5300512,
        "last_rank": 66057,
        "player_name": "Steven Scotland",
        "rank": 70365,
        "rank_sort": 70461,
        "total": 2340
      },
      {
        "club_badge_src": null,
        "entry": 780748,
        "entry_name": "GOAT FC",
        "event_total": 68,
        "has_played": true,
        "id": 5330352,
        "last_rank": 86735,
        "player_name": "Pedro Fonseca",
        "rank": 70365,
        "rank_sort": 70462,
        "total": 2340
      },
      {
        "club_badge_src": null,
        "entry": 785097,
        "entry_name": "FC Laverkusen",
        "event_total": 63,
        "has_played": true,
        "id": 5364195,
        "last_rank": 75537,
        "player_name": "Joshua Laver",
        "rank": 70365,
        "rank_sort": 70463,
        "total": 2340
      },
      {
        "club_badge_src": null,
        "entry": 795919,
        "entry_name": "Jurgen FC",
        "event_total": 54,
        "has_played": true,
        "id": 5447141,
        "last_rank": 65796,
        "player_name": "Jurgen Skenderi",
        "rank": 70365,
        "rank_sort": 70464,
        "total": 2340
      },
      {
        "club_badge_src": null,
        "entry": 815957,
        "entry_name": "Livin Saliba loca",
        "event_total": 67,
        "has_played": true,
        "id": 5587624,
        "last_rank": 93883,
        "player_name": "Harry Green",
        "rank": 70365,
        "rank_sort": 70465,
        "total": 2340
      },
      {
        "club_badge_src": null,
        "entry": 823979,
        "entry_name": "FPL transferase",
        "event_total": 73,
        "has_played": true,
        "id": 5643311,
        "last_rank": 110187,
        "player_name": "Jordan Katchen",
        "rank": 70365,
        "rank_sort": 70466,
        "total": 2340
      },
      {
        "club_badge_src": null,
        "entry": 886525,
        "entry_name": "Ebenezer FC",
        "event_total": 64,
        "has_played": true,
        "id": 6080467,
        "last_rank": 77258,
        "player_name": "Jonathan McPhillips",
        "rank": 70365,
        "rank_sort": 70467,
        "total": 2340
      },
      {
        "club_badge_src": null,
        "entry": 890315,
        "entry_name": "Nenad1526",
        "event_total": 57,
        "has_played": true,
        "id": 6106959,
        "last_rank": 71713,
        "player_name": "Nenad Markovic",
        "rank": 70365,
        "rank_sort": 70468,
        "total": 2340
      },
      {
        "club_badge_src": null,
        "entry": 893754,
        "entry_name": "Shaw Me The Money",
        "event_total": 57,
        "has_played": true,
        "id": 6139257,
        "last_rank": 71386,
        "player_name": "Atharv Dua",
        "rank": 70365,
        "rank_sort": 70469,
        "total": 2340
      },
      {
        "club_badge_src": "https://fantasy.premierleague.com/gcs/plfpl-production-adobe-approved/plfpl-production/929959/040c4b96-7c34-40f4-b9ad-3ec9363dbe9b.png",
        "entry": 929959,
        "entry_name": "Wirtz Case Scenario",
        "event_total": 74,
        "has_played": true,
        "id": 6398663,
        "last_rank": 112591,
        "player_name": "Adam Nolan",
        "rank": 70365,
        "rank_sort": 70470,
        "total": 2340
      },
      {
        "club_badge_src": null,
        "entry": 931525,
        "entry_name": "FikLFC",
        "event_total": 61,
        "has_played": true,
        "id": 6409774,
        "last_rank": 80194,
        "player_name": "Petr Frishans",
        "rank": 70365,
        "rank_sort": 70471,
        "total": 2340
      },
      {
        "club_badge_src": null,
        "entry": 934004,
        "entry_name": "No piroe no party",
        "event_total": 61,
        "has_played": true,
        "id": 6427155,
        "last_rank": 80194,
        "player_name": "Adam Gosling",
        "rank": 70365,
        "rank_sort": 70472,
        "total": 2340
      },
      {
        "club_badge_src": "https://fantasy.premierleague.com/gcs/plfpl-production-adobe-approved/plfpl-production/950059/e3ec7fce-cb16-41fe-9ca9-f08b6f388fd2.png",
        "entry": 950059,
        "entry_name": "TooEzE",
        "event_total": 50,
        "has_played": true,
        "id": 6545091,
        "last_rank": 58688,
        "player_name": "William Yerrill",
        "rank": 70365,
        "rank_sort": 70473,
        "total": 2340
      },
      {
        "club_badge_src": "https://fantasy.premierleague.com/gcs/plfpl-production-adobe-approved/plfpl-production/961109/8f2ea407-c118-4120-a0f5-f63c4108c366.png",
        "entry": 961109,
        "entry_name": "Obi-Wan Kenobench",
        "event_total": 50,
        "has_played": true,
        "id": 6623084,
        "last_rank": 58688,
        "player_name": "Yann -The Last Dance-",
        "rank": 70365,
        "rank_sort": 70474,
        "total": 2340
      },
      {
        "club_badge_src": null,
        "entry": 964133,
        "entry_name": "FC Vegalomania",
        "event_total": 60,
        "has_played": true,
        "id": 6644604,
        "last_rank": 77258,
        "player_name": "Torbj\u00f6rn Johansson",
        "rank": 70365,
        "rank_sort": 70475,
        "total": 2340
      },
      {
        "club_badge_src": null,
        "entry": 964538,
        "entry_name": "C&C Idrettsforening",
        "event_total": 75,
        "has_played": true,
        "id": 6647386,
        "last_rank": 115760,
        "player_name": "Kenneth C. Edvardsen",
        "rank": 70365,
        "rank_sort": 70476,
        "total": 2340
      },
      {
        "club_badge_src": null,
        "entry": 993586,
        "entry_name": "LoveHowItWirtz",
        "event_total": 78,
        "has_played": true,
        "id": 6853741,
        "last_rank": 112169,
        "player_name": "Declan O'Reilly",
        "rank": 70365,
        "rank_sort": 70477,
        "total": 2340
      },
      {
        "club_badge_src": "https://fantasy.premierleague.com/gcs/plfpl-production-adobe-approved/plfpl-production/998386/72577955-5eee-4d3a-9005-89644b6ec34a.png",
        "entry": 998386,
        "entry_name": "Snodsbury Sharks",
        "event_total": 66,
        "has_played": true,
        "id": 6898837,
        "last_rank": 91466,
        "player_name": "Ryan Jennings",
        "rank": 70365,
        "rank_sort": 70478,
        "total": 2340
      },
      {
        "club_badge_src": null,
        "entry": 1070827,
        "entry_name": "Funky Cheese",
        "event_total": 50,
        "has_played": true,
        "id": 7413304,
        "last_rank": 58688,
        "player_name": "Ben Kottler",
        "rank": 70365,
        "rank_sort": 70479,
        "total": 2340
      },
      {
        "club_badge_src": null,
        "entry": 1097833,
        "entry_name": "O2",
        "event_total": 50,
        "has_played": true,
        "id": 7604155,
        "last_rank": 58688,
        "player_name": "Ahmed harb",
        "rank": 70365,
        "rank_sort": 70480,
        "total": 2340
      },
      {
        "club_badge_src": null,
        "entry": 1120658,
        "entry_name": "Xabi alonso",
        "event_total": 64,
        "has_played": true,
        "id": 7763807,
        "last_rank": 77676,
        "player_name": "best Team",
        "rank": 70365,
        "rank_sort": 70481,
        "total": 2340
      },
      {
        "club_badge_src": null,
        "entry": 1128486,
        "entry_name": "DO YOUR WIRTZ",
        "event_total": 56,
        "has_played": true,
        "id": 7820922,
        "last_rank": 69323,
        "player_name": "Denis Pascal",
        "rank": 70365,
        "rank_sort": 70482,
        "total": 2340
      },
      {
        "club_badge_src": null,
        "entry": 1155190,
        "entry_name": "ALLSTAR XI",
        "event_total": 55,
        "has_played": true,
        "id": 8010453,
        "last_rank": 67422,
        "player_name": "wisdom Ose",
        "rank": 70365,
        "rank_sort": 70483,
        "total": 2340
      },
      {
        "club_badge_src": "https://fantasy.premierleague.com/gcs/plfpl-production-adobe-approved/plfpl-production/1170508/88d3ac5d-c7a6-4e9e-b839-242fd154134d.png",
        "entry": 1170508,
        "entry_name": "FC Ostkaka",
        "event_total": 68,
        "has_played": true,
        "id": 8120265,
        "last_rank": 95527,
        "player_name": "Patrick Gustavsson",
        "rank": 70365,
        "rank_sort": 70484,
        "total": 2340
      },
      {
        "club_badge_src": null,
        "entry": 1198303,
        "entry_name": "Cunha Chawawa",
        "event_total": 75,
        "has_played": true,
        "id": 8315497,
        "last_rank": 83584,
        "player_name": "Matt Stafford",
        "rank": 70365,
        "rank_sort": 70485,
        "total": 2340
      },
      {
        "club_badge_src": null,
        "entry": 1241797,
        "entry_name": "FC cole blooded",
        "event_total": 63,
        "has_played": true,
        "id": 8624130,
        "last_rank": 75537,
        "player_name": "Kirby Belmonte",
        "rank": 70365,
        "rank_sort": 70486,
        "total": 2340
      },
      {
        "club_badge_src": null,
        "entry": 1277047,
        "entry_name": "FC Lindcastle",
        "event_total": 53,
        "has_played": true,
        "id": 8873813,
        "last_rank": 63390,
        "player_name": "Rasmus Lindk\u00e6r",
        "rank": 70365,
        "rank_sort": 70487,
        "total": 2340
      },
      {
        "club_badge_src": null,
        "entry": 1372412,
        "entry_name": "VC",
        "event_total": 68,
        "has_played": true,
        "id": 9540217,
        "last_rank": 96374,
        "player_name": "Victor Chan",
        "rank": 70365,
        "rank_sort": 70488,
        "total": 2340
      },
      {
        "club_badge_src": null,
        "entry": 1422980,
        "entry_name": "laerze_c",
        "event_total": 59,
        "has_played": true,
        "id": 9910383,
        "last_rank": 67422,
        "player_name": "Pak Yik Chan",
        "rank": 70365,
        "rank_sort": 70489,
        "total": 2340
      },
      {
        "club_badge_src": null,
        "entry": 1425259,
        "entry_name": "Rauman Ashley Young",
        "event_total": 61,
        "has_played": true,
        "id": 9930478,
        "last_rank": 80194,
        "player_name": "Alex Johansson",
        "rank": 70365,
        "rank_sort": 70490,
        "total": 2340
      },
      {
        "club_badge_src": null,
        "entry": 1485052,
        "entry_name": "Wirtz schaffen das",
        "event_total": 56,
        "has_played": true,
        "id": 10355883,
        "last_rank": 69641,
        "player_name": "Renze De Locht",
        "rank": 70365,
        "rank_sort": 70491,
        "total": 2340
      },
      {
        "club_badge_src": null,
        "entry": 1520151,
        "entry_name": "AnothaHappyHaalandin",
        "event_total": 66,
        "has_played": true,
        "id": 10602658,
        "last_rank": 91835,
        "player_name": "Louie Boot",
        "rank": 70365,
        "rank_sort": 70492,
        "total": 2340
      },
      {
        "club_badge_src": null,
        "entry": 1540706,
        "entry_name": "Fred",
        "event_total": 40,
        "has_played": true,
        "id": 10753137,
        "last_rank": 43168,
        "player_name": "David Groom",
        "rank": 70365,
        "rank_sort": 70493,
        "total": 2340
      },
      {
        "club_badge_src": null,
        "entry": 1547310,
        "entry_name": "Calafiorication",
        "event_total": 55,
        "has_played": true,
        "id": 10802687,
        "last_rank": 53023,
        "player_name": "Dan Nash",
        "rank": 70365,
        "rank_sort": 70494,
        "total": 2340
      },
      {
        "club_badge_src": null,
        "entry": 1562682,
        "entry_name": "Odklejeni Wroc\u0142aw",
        "event_total": 39,
        "has_played": true,
        "id": 10915414,
        "last_rank": 41824,
        "player_name": "Ryszard Rosikiewicz",
        "rank": 70365,
        "rank_sort": 70495,
        "total": 2340
      },
      {
        "club_badge_src": null,
        "entry": 1592655,
        "entry_name": "The Shaw must go on",
        "event_total": 71,
        "has_played": true,
        "id": 11137099,
        "last_rank": 83934,
        "player_name": "Ben McDonald",
        "rank": 70365,
        "rank_sort": 70496,
        "total": 2340
      },
      {
        "club_badge_src": null,
        "entry": 1599724,
        "entry_name": "SOKAK FC",
        "event_total": 69,
        "has_played": true,
        "id": 11191039,
        "last_rank": 99296,
        "player_name": "Dino Beronja",
        "rank": 70365,
        "rank_sort": 70497,
        "total": 2340
      },
      {
        "club_badge_src": null,
        "entry": 1607114,
        "entry_name": "HaCunhaMateta",
        "event_total": 61,
        "has_played": true,
        "id": 11244096,
        "last_rank": 70985,
        "player_name": "Caleb Wolfreys",
        "rank": 70365,
        "rank_sort": 70498,
        "total": 2340
      },
      {
        "club_badge_src": null,
        "entry": 1627344,
        "entry_name": "Get to De Cuyper",
        "event_total": 61,
        "has_played": true,
        "id": 11390493,
        "last_rank": 71386,
        "player_name": "Joe Mancebo",
        "rank": 70365,
        "rank_sort": 70499,
        "total": 2340
      },
      {
        "club_badge_src": null,
        "entry": 1641061,
        "entry_name": "Elanga Management",
        "event_total": 68,
        "has_played": true,
        "id": 11487509,
        "last_rank": 96374,
        "player_name": "Philip Clappison",
        "rank": 70365,
        "rank_sort": 70500,
        "total": 2340
      }
    ]
  }
}