{
  "last_updated_data": "2026-05-24T23:28:17Z",
  "league": {
    "admin_entry": null,
    "closed": false,
    "code_privacy": "p",
    "created": "2025-07-20T23:14:33.933835Z",
    "cup_league": 2815434,
    "has_cup": true,
    "id": 314,
    "league_type": "s",
    "max_entries": null,
    "name": "Overall",
    "rank": null,
    "scoring": "c",
    "start_event": 1
  },
  "new_entries": {
    "has_next": false,
    "page": 1,
    "results": []
  },
  "standings": {
    "has_next": true,
    "page": 316,
    "results": [
      {
        "club_badge_src": null,
        "entry": 3513065,
        "entry_name": "Wortney-Corkers",
        "event_total": 49,
        "has_played": true,
        "id": 26140685,
        "last_rank": 7822,
        "player_name": "Aran Courtney-Walker",
        "rank": 15726,
        "rank_sort": 15751,
        "total": 2387
      },
      {
        "club_badge_src": "https://fantasy.premierleague.com/gcs/plfpl-production-adobe-approved/plfpl-production/3533886/fcac0a50-0c86-499c-99ea-66e9168084e5.png",
        "entry": 3533886,
        "entry_name": "ABDALLA7",
        "event_total": 78,
        "has_played": true,
        "id": 26302674,
        "last_rank": 32190,
        "player_name": "Abdalla Ahmed",
        "rank": 15726,
        "rank_sort": 15752,
        "total": 2387
      },
      {
        "club_badge_src": null,
        "entry": 4791076,
        "entry_name": "dharmosyFC",
        "event_total": 53,
        "has_played": true,
        "id": 36884973,
        "last_rank": 9311,
        "player_name": "damilola Iluyomade",
        "rank": 15726,
        "rank_sort": 15753,
        "total": 2387
      },
      {
        "club_badge_src": null,
        "entry": 5156868,
        "entry_name": "Jimmys Jambons",
        "event_total": 58,
        "has_played": true,
        "id": 39901363,
        "last_rank": 15876,
        "player_name": "James Doyle",
        "rank": 15726,
        "rank_sort": 15754,
        "total": 2387
      },
      {
        "club_badge_src": null,
        "entry": 6015625,
        "entry_name": "Not Isakly Sure",
        "event_total": 65,
        "has_played": true,
        "id": 47436860,
        "last_rank": 17802,
        "player_name": "Kaitlyn Pike",
        "rank": 15726,
        "rank_sort": 15755,
        "total": 2387
      },
      {
        "club_badge_src": null,
        "entry": 6252873,
        "entry_name": "Isaac's 11",
        "event_total": 58,
        "has_played": true,
        "id": 49499544,
        "last_rank": 15876,
        "player_name": "Soleiman Sharifi",
        "rank": 15726,
        "rank_sort": 15756,
        "total": 2387
      },
      {
        "club_badge_src": null,
        "entry": 7843132,
        "entry_name": "THE_GUNNERS",
        "event_total": 71,
        "has_played": true,
        "id": 64469240,
        "last_rank": 25436,
        "player_name": "REWAT PUN",
        "rank": 15726,
        "rank_sort": 15757,
        "total": 2387
      },
      {
        "club_badge_src": null,
        "entry": 51404,
        "entry_name": "Daydream Baleba",
        "event_total": 66,
        "has_played": true,
        "id": 330611,
        "last_rank": 21450,
        "player_name": "David Morrow",
        "rank": 15758,
        "rank_sort": 15758,
        "total": 2387
      },
      {
        "club_badge_src": null,
        "entry": 83150,
        "entry_name": "NoTitleFC",
        "event_total": 52,
        "has_played": true,
        "id": 541134,
        "last_rank": 12512,
        "player_name": "Joseph Aby John",
        "rank": 15758,
        "rank_sort": 15759,
        "total": 2387
      },
      {
        "club_badge_src": null,
        "entry": 135583,
        "entry_name": "wardo",
        "event_total": 68,
        "has_played": true,
        "id": 882894,
        "last_rank": 22996,
        "player_name": "Andy Ward",
        "rank": 15758,
        "rank_sort": 15760,
        "total": 2387
      },
      {
        "club_badge_src": null,
        "entry": 172189,
        "entry_name": "ChampagneSuperRovers",
        "event_total": 38,
        "has_played": true,
        "id": 1137323,
        "last_rank": 4866,
        "player_name": "Andrew Letham",
        "rank": 15758,
        "rank_sort": 15761,
        "total": 2387
      },
      {
        "club_badge_src": null,
        "entry": 544816,
        "entry_name": "Polish Forward",
        "event_total": 54,
        "has_played": true,
        "id": 3666660,
        "last_rank": 13629,
        "player_name": "Sebastian Krychowiak",
        "rank": 15758,
        "rank_sort": 15762,
        "total": 2387
      },
      {
        "club_badge_src": null,
        "entry": 879124,
        "entry_name": "TeamRL",
        "event_total": 62,
        "has_played": true,
        "id": 6028453,
        "last_rank": 18555,
        "player_name": "Hyunkoo Lee",
        "rank": 15758,
        "rank_sort": 15763,
        "total": 2387
      },
      {
        "club_badge_src": null,
        "entry": 921450,
        "entry_name": "Reijnders Keepers",
        "event_total": 65,
        "has_played": true,
        "id": 6337108,
        "last_rank": 20727,
        "player_name": "Pietro Magaldi",
        "rank": 15758,
        "rank_sort": 15764,
        "total": 2387
      },
      {
        "club_badge_src": "https://fantasy.premierleague.com/gcs/plfpl-production-adobe-approved/plfpl-production/1179900/a17ac784-7157-49d5-8a86-4df78a748b3a.png",
        "entry": 1179900,
        "entry_name": "Panther \ufffd",
        "event_total": 55,
        "has_played": true,
        "id": 8186573,
        "last_rank": 14102,
        "player_name": "Ponthy Niasis",
        "rank": 15758,
        "rank_sort": 15765,
        "total": 2387
      },
      {
        "club_badge_src": null,
        "entry": 1379218,
        "entry_name": "<N>",
        "event_total": 56,
        "has_played": true,
        "id": 9587423,
        "last_rank": 12512,
        "player_name": "Sava Polimenov",
        "rank": 15758,
        "rank_sort": 15766,
        "total": 2387
      },
      {
        "club_badge_src": null,
        "entry": 1390571,
        "entry_name": "Mullers XI",
        "event_total": 53,
        "has_played": true,
        "id": 9673938,
        "last_rank": 9350,
        "player_name": "Hayden Muller",
        "rank": 15758,
        "rank_sort": 15767,
        "total": 2387
      },
      {
        "club_badge_src": null,
        "entry": 1718750,
        "entry_name": "Underdogs",
        "event_total": 70,
        "has_played": true,
        "id": 12045500,
        "last_rank": 21450,
        "player_name": "Managed by Egne",
        "rank": 15758,
        "rank_sort": 15768,
        "total": 2387
      },
      {
        "club_badge_src": "https://fantasy.premierleague.com/gcs/plfpl-production-adobe-approved/plfpl-production/1893654/922bf543-92eb-4806-8a1a-89c2ab662bff.png",
        "entry": 1893654,
        "entry_name": "Zero2Hero",
        "event_total": 68,
        "has_played": true,
        "id": 13346904,
        "last_rank": 17150,
        "player_name": "Jamil Barbara",
        "rank": 15758,
        "rank_sort": 15769,
        "total": 2387
      },
      {
        "club_badge_src": null,
        "entry": 2370018,
        "entry_name": "hugobigorgohome",
        "event_total": 75,
        "has_played": true,
        "id": 16918281,
        "last_rank": 29279,
        "player_name": "Khai Sky",
        "rank": 15758,
        "rank_sort": 15770,
        "total": 2387
      },
      {
        "club_badge_src": null,
        "entry": 2516803,
        "entry_name": "Boreusyeah Dortmund",
        "event_total": 68,
        "has_played": true,
        "id": 18031708,
        "last_rank": 19966,
        "player_name": "Edd Hutchinson",
        "rank": 15758,
        "rank_sort": 15771,
        "total": 2387
      },
      {
        "club_badge_src": null,
        "entry": 2850792,
        "entry_name": "Lil Saints\ufffd",
        "event_total": 64,
        "has_played": true,
        "id": 20843590,
        "last_rank": 19966,
        "player_name": "Santi Santiago",
        "rank": 15758,
        "rank_sort": 15772,
        "total": 2387
      },
      {
        "club_badge_src": null,
        "entry": 3008294,
        "entry_name": "oh here he is!",
        "event_total": 65,
        "has_played": true,
        "id": 22129654,
        "last_rank": 20727,
        "player_name": "jack tinney",
        "rank": 15758,
        "rank_sort": 15773,
        "total": 2387
      },
      {
        "club_badge_src": null,
        "entry": 3519042,
        "entry_name": "DC",
        "event_total": 57,
        "has_played": true,
        "id": 26187898,
        "last_rank": 15280,
        "player_name": "Danny Coates",
        "rank": 15758,
        "rank_sort": 15774,
        "total": 2387
      },
      {
        "club_badge_src": null,
        "entry": 3560571,
        "entry_name": "Patrick DogPoo",
        "event_total": 72,
        "has_played": true,
        "id": 26510220,
        "last_rank": 26475,
        "player_name": "Lucca Hamill",
        "rank": 15758,
        "rank_sort": 15775,
        "total": 2387
      },
      {
        "club_badge_src": null,
        "entry": 3881538,
        "entry_name": "dontlookbackelanga",
        "event_total": 51,
        "has_played": true,
        "id": 29165511,
        "last_rank": 12027,
        "player_name": "jordan taylor",
        "rank": 15758,
        "rank_sort": 15776,
        "total": 2387
      },
      {
        "club_badge_src": null,
        "entry": 4800911,
        "entry_name": "Best XI  \ufffd",
        "event_total": 64,
        "has_played": true,
        "id": 36964036,
        "last_rank": 20008,
        "player_name": "Curville Charles",
        "rank": 15758,
        "rank_sort": 15777,
        "total": 2387
      },
      {
        "club_badge_src": null,
        "entry": 5184198,
        "entry_name": "FC Giachino",
        "event_total": 63,
        "has_played": true,
        "id": 40129620,
        "last_rank": 19279,
        "player_name": "Christoph Giacomuzzi",
        "rank": 15758,
        "rank_sort": 15778,
        "total": 2387
      },
      {
        "club_badge_src": null,
        "entry": 5556826,
        "entry_name": "kickAzz",
        "event_total": 67,
        "has_played": true,
        "id": 43375751,
        "last_rank": 22263,
        "player_name": "Peace Sethuntsa",
        "rank": 15758,
        "rank_sort": 15779,
        "total": 2387
      },
      {
        "club_badge_src": null,
        "entry": 5917634,
        "entry_name": "United Greats",
        "event_total": 54,
        "has_played": true,
        "id": 46508294,
        "last_rank": 13629,
        "player_name": "Mark Bellers",
        "rank": 15758,
        "rank_sort": 15780,
        "total": 2387
      },
      {
        "club_badge_src": null,
        "entry": 6008137,
        "entry_name": "The Captain",
        "event_total": 66,
        "has_played": true,
        "id": 47370143,
        "last_rank": 18520,
        "player_name": "Danail Nedkov",
        "rank": 15758,
        "rank_sort": 15781,
        "total": 2387
      },
      {
        "club_badge_src": null,
        "entry": 6806602,
        "entry_name": "Leeds72",
        "event_total": 63,
        "has_played": true,
        "id": 54511224,
        "last_rank": 19279,
        "player_name": "Ryan Newman",
        "rank": 15758,
        "rank_sort": 15782,
        "total": 2387
      },
      {
        "club_badge_src": null,
        "entry": 19050,
        "entry_name": "Fpl  rida \u26bd",
        "event_total": 50,
        "has_played": true,
        "id": 118558,
        "last_rank": 11536,
        "player_name": "rida. cher",
        "rank": 15783,
        "rank_sort": 15783,
        "total": 2387
      },
      {
        "club_badge_src": null,
        "entry": 52922,
        "entry_name": "Power Reijnders",
        "event_total": 55,
        "has_played": true,
        "id": 340313,
        "last_rank": 14171,
        "player_name": "Karlo Granatir",
        "rank": 15783,
        "rank_sort": 15784,
        "total": 2387
      },
      {
        "club_badge_src": "https://fantasy.premierleague.com/gcs/plfpl-production-adobe-approved/plfpl-production/66136/2743fd4c-2fac-4bdf-a8ba-994250c7a000.png",
        "entry": 66136,
        "entry_name": "Mafia Four Lions",
        "event_total": 50,
        "has_played": true,
        "id": 427368,
        "last_rank": 11551,
        "player_name": "John Williams",
        "rank": 15783,
        "rank_sort": 15785,
        "total": 2387
      },
      {
        "club_badge_src": "https://fantasy.premierleague.com/gcs/plfpl-production-adobe-approved/plfpl-production/92196/7428af23-c2cf-4943-9205-f1d8d2f2e93f.png",
        "entry": 92196,
        "entry_name": "Alan She/Her",
        "event_total": 68,
        "has_played": true,
        "id": 602410,
        "last_rank": 19966,
        "player_name": "Shaun Carey",
        "rank": 15783,
        "rank_sort": 15786,
        "total": 2387
      },
      {
        "club_badge_src": null,
        "entry": 116565,
        "entry_name": "VanicXi",
        "event_total": 54,
        "has_played": true,
        "id": 760993,
        "last_rank": 11536,
        "player_name": "Ammar Nabil",
        "rank": 15783,
        "rank_sort": 15787,
        "total": 2387
      },
      {
        "club_badge_src": null,
        "entry": 184100,
        "entry_name": "\u062e\u0644\u064a\u0647\u0627 \u0639\u0644\u0649 \u0627\u0644\u0644\u0647",
        "event_total": 61,
        "has_played": true,
        "id": 1215603,
        "last_rank": 17878,
        "player_name": "Aly omar",
        "rank": 15783,
        "rank_sort": 15788,
        "total": 2387
      },
      {
        "club_badge_src": null,
        "entry": 455647,
        "entry_name": "Here we Go",
        "event_total": 63,
        "has_played": true,
        "id": 3056840,
        "last_rank": 16598,
        "player_name": "Marcus Vaughan",
        "rank": 15783,
        "rank_sort": 15789,
        "total": 2387
      },
      {
        "club_badge_src": null,
        "entry": 651560,
        "entry_name": "Lillywhites",
        "event_total": 53,
        "has_played": true,
        "id": 4403290,
        "last_rank": 13060,
        "player_name": "Graham Hodge",
        "rank": 15783,
        "rank_sort": 15790,
        "total": 2387
      },
      {
        "club_badge_src": null,
        "entry": 2085338,
        "entry_name": "Free Palestine",
        "event_total": 83,
        "has_played": true,
        "id": 14793543,
        "last_rank": 29199,
        "player_name": "\ud83c\uddf5\ud83c\uddf8Amr Mahmoud\ud83c\uddf5\ud83c\uddf8",
        "rank": 15783,
        "rank_sort": 15791,
        "total": 2387
      },
      {
        "club_badge_src": null,
        "entry": 3187863,
        "entry_name": "Gl\u00f6ckeres FC",
        "event_total": 69,
        "has_played": true,
        "id": 23558819,
        "last_rank": 23904,
        "player_name": "angel contreras",
        "rank": 15783,
        "rank_sort": 15792,
        "total": 2387
      },
      {
        "club_badge_src": null,
        "entry": 3722894,
        "entry_name": "pix11",
        "event_total": 64,
        "has_played": true,
        "id": 27783882,
        "last_rank": 20008,
        "player_name": "Daniel Clements",
        "rank": 15783,
        "rank_sort": 15793,
        "total": 2387
      },
      {
        "club_badge_src": null,
        "entry": 3738438,
        "entry_name": "vanFaberinho",
        "event_total": 71,
        "has_played": true,
        "id": 27906071,
        "last_rank": 25613,
        "player_name": "Luke Faber",
        "rank": 15783,
        "rank_sort": 15794,
        "total": 2387
      },
      {
        "club_badge_src": null,
        "entry": 3785772,
        "entry_name": "\u00ca\u013b\u00cf\u00c3\u0160_\u0126\u00c2\u015e\u01cd\u0145",
        "event_total": 58,
        "has_played": true,
        "id": 28271424,
        "last_rank": 15972,
        "player_name": "Elias Hasan",
        "rank": 15783,
        "rank_sort": 15795,
        "total": 2387
      },
      {
        "club_badge_src": null,
        "entry": 4775336,
        "entry_name": "Roza Parks the Bus",
        "event_total": 54,
        "has_played": true,
        "id": 36758564,
        "last_rank": 11536,
        "player_name": "David Wilson",
        "rank": 15783,
        "rank_sort": 15796,
        "total": 2387
      },
      {
        "club_badge_src": null,
        "entry": 7944544,
        "entry_name": "yahya byd",
        "event_total": 83,
        "has_played": true,
        "id": 65390805,
        "last_rank": 33651,
        "player_name": "Yahya Bouydia",
        "rank": 15783,
        "rank_sort": 15797,
        "total": 2387
      },
      {
        "club_badge_src": null,
        "entry": 8744608,
        "entry_name": "anwar",
        "event_total": 65,
        "has_played": true,
        "id": 73012389,
        "last_rank": 15280,
        "player_name": "Marko Morsy",
        "rank": 15783,
        "rank_sort": 15798,
        "total": 2387
      },
      {
        "club_badge_src": null,
        "entry": 9450440,
        "entry_name": "Diggers fc",
        "event_total": 80,
        "has_played": true,
        "id": 79852377,
        "last_rank": 30191,
        "player_name": "Rob Miller",
        "rank": 15783,
        "rank_sort": 15799,
        "total": 2387
      },
      {
        "club_badge_src": null,
        "entry": 275526,
        "entry_name": "Palmer de Mallorca",
        "event_total": 68,
        "has_played": true,
        "id": 1833726,
        "last_rank": 20038,
        "player_name": "Maj Markosek",
        "rank": 15800,
        "rank_sort": 15800,
        "total": 2387
      }
    ]
  }
}