{
  "last_updated_data": "2026-05-24T23:28:17Z",
  "league": {
    "admin_entry": null,
    "closed": false,
    "code_privacy": "p",
    "created": "2025-07-20T23:14:33.933835Z",
    "cup_league": 2815434,
    "has_cup": true,
    "id": 314,
    "league_type": "s",
    "max_entries": null,
    "name": "Overall",
    "rank": null,
    "scoring": "c",
    "start_event": 1
  },
  "new_entries": {
    "has_next": false,
    "page": 1,
    "results": []
  },
  "standings": {
    "has_next": true,
    "page": 115,
    "results": [
      {
        "club_badge_src": null,
        "entry": 328078,
        "entry_name": "LUFC",
        "event_total": 60,
        "has_played": true,
        "id": 2197947,
        "last_rank": 6106,
        "player_name": "Shane Crutchley",
        "rank": 5699,
        "rank_sort": 5701,
        "total": 2412
      },
      {
        "club_badge_src": null,
        "entry": 650311,
        "entry_name": "Viking Strikes Back",
        "event_total": 64,
        "has_played": true,
        "id": 4394967,
        "last_rank": 5053,
        "player_name": "Ailton Guimaraes",
        "rank": 5699,
        "rank_sort": 5702,
        "total": 2412
      },
      {
        "club_badge_src": null,
        "entry": 863898,
        "entry_name": "\u00caI T\u00e8ms\u00e17 \ufffd VI",
        "event_total": 64,
        "has_played": true,
        "id": 5922453,
        "last_rank": 6061,
        "player_name": "Ahmad Alaa",
        "rank": 5699,
        "rank_sort": 5703,
        "total": 2412
      },
      {
        "club_badge_src": null,
        "entry": 942912,
        "entry_name": "Live and Let N'Diaye",
        "event_total": 70,
        "has_played": true,
        "id": 6494149,
        "last_rank": 9382,
        "player_name": "Tom Milne",
        "rank": 5699,
        "rank_sort": 5704,
        "total": 2412
      },
      {
        "club_badge_src": null,
        "entry": 1097835,
        "entry_name": "The Magoos",
        "event_total": 63,
        "has_played": true,
        "id": 7604170,
        "last_rank": 5820,
        "player_name": "Joseph Ewins",
        "rank": 5699,
        "rank_sort": 5705,
        "total": 2412
      },
      {
        "club_badge_src": null,
        "entry": 2206448,
        "entry_name": "I Wissa had no lisp",
        "event_total": 67,
        "has_played": true,
        "id": 15708789,
        "last_rank": 6887,
        "player_name": "Wayne Doherty",
        "rank": 5699,
        "rank_sort": 5706,
        "total": 2412
      },
      {
        "club_badge_src": null,
        "entry": 3171743,
        "entry_name": "JUNGNEY'10'",
        "event_total": 59,
        "has_played": true,
        "id": 23434370,
        "last_rank": 5845,
        "player_name": "Tseten Tashi",
        "rank": 5699,
        "rank_sort": 5707,
        "total": 2412
      },
      {
        "club_badge_src": null,
        "entry": 3968774,
        "entry_name": "Nankatsu FC",
        "event_total": 44,
        "has_played": true,
        "id": 29865095,
        "last_rank": 2891,
        "player_name": "steven vallian",
        "rank": 5699,
        "rank_sort": 5708,
        "total": 2412
      },
      {
        "club_badge_src": null,
        "entry": 3983228,
        "entry_name": "Eslam FC",
        "event_total": 52,
        "has_played": true,
        "id": 29985693,
        "last_rank": 4223,
        "player_name": "Eslam Tamer",
        "rank": 5699,
        "rank_sort": 5709,
        "total": 2412
      },
      {
        "club_badge_src": null,
        "entry": 4131875,
        "entry_name": "For Beto or Wirtz",
        "event_total": 49,
        "has_played": true,
        "id": 31223983,
        "last_rank": 3661,
        "player_name": "Orrin Brady",
        "rank": 5699,
        "rank_sort": 5710,
        "total": 2412
      },
      {
        "club_badge_src": null,
        "entry": 4249456,
        "entry_name": "imlosingeveryga",
        "event_total": 74,
        "has_played": true,
        "id": 32212570,
        "last_rank": 9350,
        "player_name": "nedyar kewk",
        "rank": 5699,
        "rank_sort": 5711,
        "total": 2412
      },
      {
        "club_badge_src": null,
        "entry": 4306046,
        "entry_name": "YOLO-Laget",
        "event_total": 75,
        "has_played": true,
        "id": 32670561,
        "last_rank": 11516,
        "player_name": "Wilhelm Granath",
        "rank": 5699,
        "rank_sort": 5712,
        "total": 2412
      },
      {
        "club_badge_src": null,
        "entry": 5145069,
        "entry_name": "Erkans gubbar",
        "event_total": 60,
        "has_played": true,
        "id": 39802472,
        "last_rank": 6106,
        "player_name": "Erik Hammarstr\u00f6m",
        "rank": 5699,
        "rank_sort": 5713,
        "total": 2412
      },
      {
        "club_badge_src": "https://fantasy.premierleague.com/gcs/plfpl-production-adobe-approved/plfpl-production/5475495/bda4991b-6d70-4daf-81d1-6d9139734a5e.png",
        "entry": 5475495,
        "entry_name": "FameSesko",
        "event_total": 72,
        "has_played": true,
        "id": 42625531,
        "last_rank": 8591,
        "player_name": "Nitinun Punkheo",
        "rank": 5699,
        "rank_sort": 5714,
        "total": 2412
      },
      {
        "club_badge_src": null,
        "entry": 7740986,
        "entry_name": "Victoria Concordia",
        "event_total": 63,
        "has_played": true,
        "id": 63539810,
        "last_rank": 5820,
        "player_name": "Barry Hughes",
        "rank": 5699,
        "rank_sort": 5715,
        "total": 2412
      },
      {
        "club_badge_src": null,
        "entry": 8529254,
        "entry_name": "Forever Yellow \ufffd",
        "event_total": 59,
        "has_played": true,
        "id": 70919655,
        "last_rank": 5845,
        "player_name": "Dale Warner",
        "rank": 5699,
        "rank_sort": 5716,
        "total": 2412
      },
      {
        "club_badge_src": "https://fantasy.premierleague.com/gcs/plfpl-production-adobe-approved/plfpl-production/113803/0ccba8d1-d03d-4a67-a031-fb7ae5e6eba8.png",
        "entry": 113803,
        "entry_name": "Bowen Arrow",
        "event_total": 77,
        "has_played": true,
        "id": 742318,
        "last_rank": 12470,
        "player_name": "Wojciech Bigaj",
        "rank": 5717,
        "rank_sort": 5717,
        "total": 2412
      },
      {
        "club_badge_src": null,
        "entry": 138837,
        "entry_name": "Game of Stones",
        "event_total": 68,
        "has_played": true,
        "id": 905879,
        "last_rank": 7237,
        "player_name": "Eirik Aase",
        "rank": 5717,
        "rank_sort": 5718,
        "total": 2412
      },
      {
        "club_badge_src": "https://fantasy.premierleague.com/gcs/plfpl-production-adobe-approved/plfpl-production/217932/c1d568c1-2740-4ad3-9cad-b28e82fc3e22.png",
        "entry": 217932,
        "entry_name": "Corn on the Bobb",
        "event_total": 75,
        "has_played": true,
        "id": 1449258,
        "last_rank": 8234,
        "player_name": "Ben MacNab",
        "rank": 5717,
        "rank_sort": 5719,
        "total": 2412
      },
      {
        "club_badge_src": null,
        "entry": 240204,
        "entry_name": "Charlie xGx",
        "event_total": 57,
        "has_played": true,
        "id": 1598587,
        "last_rank": 4431,
        "player_name": "Tom Emmins",
        "rank": 5717,
        "rank_sort": 5720,
        "total": 2412
      },
      {
        "club_badge_src": null,
        "entry": 568183,
        "entry_name": "Cunha Kick It?",
        "event_total": 47,
        "has_played": true,
        "id": 3824230,
        "last_rank": 2762,
        "player_name": "Tim Johnston",
        "rank": 5717,
        "rank_sort": 5721,
        "total": 2412
      },
      {
        "club_badge_src": null,
        "entry": 1764748,
        "entry_name": "Kinder Mbeumo",
        "event_total": 57,
        "has_played": true,
        "id": 12394727,
        "last_rank": 5348,
        "player_name": "Ev MANEV",
        "rank": 5717,
        "rank_sort": 5722,
        "total": 2412
      },
      {
        "club_badge_src": null,
        "entry": 2010760,
        "entry_name": "Krantzy FC",
        "event_total": 54,
        "has_played": true,
        "id": 14218152,
        "last_rank": 4668,
        "player_name": "Barney Krantz",
        "rank": 5717,
        "rank_sort": 5723,
        "total": 2412
      },
      {
        "club_badge_src": null,
        "entry": 3306836,
        "entry_name": "Lance utd",
        "event_total": 65,
        "has_played": true,
        "id": 24495122,
        "last_rank": 7567,
        "player_name": "Lance Leaner",
        "rank": 5717,
        "rank_sort": 5724,
        "total": 2412
      },
      {
        "club_badge_src": null,
        "entry": 3843959,
        "entry_name": "Dirty Cunhas",
        "event_total": 68,
        "has_played": true,
        "id": 28806152,
        "last_rank": 8591,
        "player_name": "Ryan Davies",
        "rank": 5717,
        "rank_sort": 5725,
        "total": 2412
      },
      {
        "club_badge_src": null,
        "entry": 5136166,
        "entry_name": "gloryglory666",
        "event_total": 74,
        "has_played": true,
        "id": 39727122,
        "last_rank": 11080,
        "player_name": "Raghav Baweja",
        "rank": 5717,
        "rank_sort": 5726,
        "total": 2412
      },
      {
        "club_badge_src": null,
        "entry": 6554943,
        "entry_name": "Kicker Conspiracy FC",
        "event_total": 66,
        "has_played": true,
        "id": 52311139,
        "last_rank": 7914,
        "player_name": "Tom Ellen",
        "rank": 5717,
        "rank_sort": 5727,
        "total": 2412
      },
      {
        "club_badge_src": null,
        "entry": 28781,
        "entry_name": "Saint Woodsy",
        "event_total": 61,
        "has_played": true,
        "id": 181941,
        "last_rank": 5348,
        "player_name": "Simon Woods",
        "rank": 5728,
        "rank_sort": 5728,
        "total": 2412
      },
      {
        "club_badge_src": null,
        "entry": 198467,
        "entry_name": "Frimping Pong",
        "event_total": 79,
        "has_played": true,
        "id": 1317049,
        "last_rank": 13601,
        "player_name": "spencer bowen",
        "rank": 5728,
        "rank_sort": 5729,
        "total": 2412
      },
      {
        "club_badge_src": null,
        "entry": 518107,
        "entry_name": "Rhytm of van Dijk",
        "event_total": 56,
        "has_played": true,
        "id": 3478488,
        "last_rank": 3482,
        "player_name": "Casper \u00c5berg",
        "rank": 5728,
        "rank_sort": 5730,
        "total": 2412
      },
      {
        "club_badge_src": "https://fantasy.premierleague.com/gcs/plfpl-production-adobe-approved/plfpl-production/689776/f69ebf15-5e56-489a-a667-b927c1bd269b.png",
        "entry": 689776,
        "entry_name": "Pumpbolaget",
        "event_total": 55,
        "has_played": true,
        "id": 4670448,
        "last_rank": 4024,
        "player_name": "kim l\u00e5ngsj\u00f6",
        "rank": 5728,
        "rank_sort": 5731,
        "total": 2412
      },
      {
        "club_badge_src": null,
        "entry": 2027710,
        "entry_name": "Elite Muppetry FC",
        "event_total": 61,
        "has_played": true,
        "id": 14354519,
        "last_rank": 5335,
        "player_name": "Steve Barnes",
        "rank": 5728,
        "rank_sort": 5732,
        "total": 2412
      },
      {
        "club_badge_src": null,
        "entry": 3736250,
        "entry_name": "Tizzle FC",
        "event_total": 68,
        "has_played": true,
        "id": 27889014,
        "last_rank": 8638,
        "player_name": "Kijana Johnson",
        "rank": 5728,
        "rank_sort": 5733,
        "total": 2412
      },
      {
        "club_badge_src": null,
        "entry": 5768200,
        "entry_name": "MoneyForJam",
        "event_total": 67,
        "has_played": true,
        "id": 45222105,
        "last_rank": 6964,
        "player_name": "Elliot Christophers",
        "rank": 5728,
        "rank_sort": 5734,
        "total": 2412
      },
      {
        "club_badge_src": null,
        "entry": 6182783,
        "entry_name": "Frappe FC",
        "event_total": 50,
        "has_played": true,
        "id": 48896310,
        "last_rank": 3836,
        "player_name": "George Dedousis",
        "rank": 5728,
        "rank_sort": 5735,
        "total": 2412
      },
      {
        "club_badge_src": null,
        "entry": 6287944,
        "entry_name": "randy bobandy",
        "event_total": 66,
        "has_played": true,
        "id": 49813984,
        "last_rank": 4644,
        "player_name": "Christopher B",
        "rank": 5728,
        "rank_sort": 5736,
        "total": 2412
      },
      {
        "club_badge_src": "https://fantasy.premierleague.com/gcs/plfpl-production-adobe-approved/plfpl-production/6926177/6747b0a0-7120-4df4-abd6-9b3205fbcde8.png",
        "entry": 6926177,
        "entry_name": "Change Name",
        "event_total": 63,
        "has_played": true,
        "id": 55523117,
        "last_rank": 6964,
        "player_name": "Connor Graham",
        "rank": 5728,
        "rank_sort": 5737,
        "total": 2412
      },
      {
        "club_badge_src": "https://fantasy.premierleague.com/gcs/plfpl-production-adobe-approved/plfpl-production/1251049/7e3f62fe-1207-41d2-9e85-af3fa2800d0a.png",
        "entry": 1251049,
        "entry_name": "7th legion",
        "event_total": 57,
        "has_played": true,
        "id": 8688977,
        "last_rank": 5362,
        "player_name": "lewis done",
        "rank": 5738,
        "rank_sort": 5738,
        "total": 2412
      },
      {
        "club_badge_src": null,
        "entry": 1951232,
        "entry_name": "ikazbalo",
        "event_total": 63,
        "has_played": true,
        "id": 13764383,
        "last_rank": 6974,
        "player_name": "ossamal lehkim",
        "rank": 5738,
        "rank_sort": 5739,
        "total": 2412
      },
      {
        "club_badge_src": null,
        "entry": 1760464,
        "entry_name": "HoDohouch Pokus",
        "event_total": 53,
        "has_played": true,
        "id": 12360365,
        "last_rank": 4455,
        "player_name": "Rasmus Dohouch Poulsen",
        "rank": 5740,
        "rank_sort": 5740,
        "total": 2412
      },
      {
        "club_badge_src": "https://fantasy.premierleague.com/gcs/plfpl-production-adobe-approved/plfpl-production/2204891/2c684678-6524-4a5f-860f-3ce97053f265.png",
        "entry": 2204891,
        "entry_name": "Brainilimi",
        "event_total": 60,
        "has_played": true,
        "id": 15694223,
        "last_rank": 6132,
        "player_name": "Yusuf Abdulgafar Iliya",
        "rank": 5740,
        "rank_sort": 5741,
        "total": 2412
      },
      {
        "club_badge_src": null,
        "entry": 4691257,
        "entry_name": "basa fc",
        "event_total": 58,
        "has_played": true,
        "id": 35957399,
        "last_rank": 5609,
        "player_name": "Belgacem Allag",
        "rank": 5740,
        "rank_sort": 5742,
        "total": 2412
      },
      {
        "club_badge_src": null,
        "entry": 5046583,
        "entry_name": "Hittyhopey",
        "event_total": 58,
        "has_played": true,
        "id": 38985096,
        "last_rank": 5606,
        "player_name": "Richard Whelan",
        "rank": 5740,
        "rank_sort": 5743,
        "total": 2412
      },
      {
        "club_badge_src": null,
        "entry": 6942375,
        "entry_name": "Gy\u00f6k Tuah",
        "event_total": 60,
        "has_played": true,
        "id": 55661448,
        "last_rank": 5114,
        "player_name": "Matthew Muratore",
        "rank": 5740,
        "rank_sort": 5744,
        "total": 2412
      },
      {
        "club_badge_src": null,
        "entry": 7294961,
        "entry_name": "rdmp szn",
        "event_total": 57,
        "has_played": true,
        "id": 59029334,
        "last_rank": 5362,
        "player_name": "Eyad Eldeeb",
        "rank": 5740,
        "rank_sort": 5745,
        "total": 2412
      },
      {
        "club_badge_src": null,
        "entry": 9009288,
        "entry_name": "ialialkhalaf",
        "event_total": 87,
        "has_played": true,
        "id": 75569861,
        "last_rank": 18555,
        "player_name": "Ali Alkhalaf",
        "rank": 5740,
        "rank_sort": 5746,
        "total": 2412
      },
      {
        "club_badge_src": null,
        "entry": 31337,
        "entry_name": "Reddevil",
        "event_total": 60,
        "has_played": true,
        "id": 198591,
        "last_rank": 5115,
        "player_name": "Bartosz Bolek",
        "rank": 5747,
        "rank_sort": 5747,
        "total": 2412
      },
      {
        "club_badge_src": null,
        "entry": 6071651,
        "entry_name": "\u0627\u0644\u062c\u0627\u0645\u062f",
        "event_total": 63,
        "has_played": true,
        "id": 47928681,
        "last_rank": 6981,
        "player_name": "BolBol Amer",
        "rank": 5747,
        "rank_sort": 5748,
        "total": 2412
      },
      {
        "club_badge_src": null,
        "entry": 1362872,
        "entry_name": "Sotonians",
        "event_total": 55,
        "has_played": true,
        "id": 9473432,
        "last_rank": 2787,
        "player_name": "Chris O'Bee",
        "rank": 5749,
        "rank_sort": 5749,
        "total": 2412
      },
      {
        "club_badge_src": null,
        "entry": 364359,
        "entry_name": "Mbeumo on Top",
        "event_total": 58,
        "has_played": true,
        "id": 2438133,
        "last_rank": 4680,
        "player_name": "Chris Petrov",
        "rank": 5750,
        "rank_sort": 5750,
        "total": 2412
      }
    ]
  }
}