{
  "last_updated_data": "2026-05-24T23:28:17Z",
  "league": {
    "admin_entry": null,
    "closed": false,
    "code_privacy": "p",
    "created": "2025-07-20T23:14:33.933835Z",
    "cup_league": 2815434,
    "has_cup": true,
    "id": 314,
    "league_type": "s",
    "max_entries": null,
    "name": "Overall",
    "rank": null,
    "scoring": "c",
    "start_event": 1
  },
  "new_entries": {
    "has_next": false,
    "page": 1,
    "results": []
  },
  "standings": {
    "has_next": true,
    "page": 550,
    "results": [
      {
        "club_badge_src": null,
        "entry": 913347,
        "entry_name": "Os Polvos",
        "event_total": 69,
        "has_played": true,
        "id": 6280317,
        "last_rank": 40503,
        "player_name": "Bruno Vidal",
        "rank": 27414,
        "rank_sort": 27451,
        "total": 2371
      },
      {
        "club_badge_src": null,
        "entry": 1111007,
        "entry_name": "The ? Mark",
        "event_total": 55,
        "has_played": true,
        "id": 7695946,
        "last_rank": 21949,
        "player_name": "Divesh Ramu",
        "rank": 27414,
        "rank_sort": 27452,
        "total": 2371
      },
      {
        "club_badge_src": "https://fantasy.premierleague.com/gcs/plfpl-production-adobe-approved/plfpl-production/1129663/5605ac81-4580-494e-9832-ca0403f52d1e.png",
        "entry": 1129663,
        "entry_name": "Chef Matti",
        "event_total": 65,
        "has_played": true,
        "id": 7829579,
        "last_rank": 30957,
        "player_name": "Tizz Mupupa",
        "rank": 27414,
        "rank_sort": 27453,
        "total": 2371
      },
      {
        "club_badge_src": null,
        "entry": 1132484,
        "entry_name": "HappyT",
        "event_total": 63,
        "has_played": true,
        "id": 7850026,
        "last_rank": 33147,
        "player_name": "Tunrawit Hancharoen",
        "rank": 27414,
        "rank_sort": 27454,
        "total": 2371
      },
      {
        "club_badge_src": null,
        "entry": 1135741,
        "entry_name": "see me",
        "event_total": 61,
        "has_played": true,
        "id": 7872712,
        "last_rank": 31125,
        "player_name": "mohamed Hassen",
        "rank": 27414,
        "rank_sort": 27455,
        "total": 2371
      },
      {
        "club_badge_src": "https://fantasy.premierleague.com/gcs/plfpl-production-adobe-approved/plfpl-production/1199960/58280096-40f8-4fb9-a68d-bb0ff9acc2fa.png",
        "entry": 1199960,
        "entry_name": "Bayern Bru",
        "event_total": 53,
        "has_played": true,
        "id": 8327064,
        "last_rank": 20416,
        "player_name": "Damian Della Croce",
        "rank": 27414,
        "rank_sort": 27456,
        "total": 2371
      },
      {
        "club_badge_src": "https://fantasy.premierleague.com/gcs/plfpl-production-adobe-approved/plfpl-production/1323934/166c0f49-c8b7-4b5a-8d60-dbb922be8f57.png",
        "entry": 1323934,
        "entry_name": "MoAmL .",
        "event_total": 73,
        "has_played": true,
        "id": 9202617,
        "last_rank": 45927,
        "player_name": "insta- 8.sm",
        "rank": 27414,
        "rank_sort": 27457,
        "total": 2371
      },
      {
        "club_badge_src": null,
        "entry": 1359452,
        "entry_name": "Coufal So Good",
        "event_total": 67,
        "has_played": true,
        "id": 9449530,
        "last_rank": 37589,
        "player_name": "David Tau",
        "rank": 27414,
        "rank_sort": 27458,
        "total": 2371
      },
      {
        "club_badge_src": null,
        "entry": 1422663,
        "entry_name": "Stonebridge FC",
        "event_total": 64,
        "has_played": true,
        "id": 9907064,
        "last_rank": 29688,
        "player_name": "Dom Stonebridge",
        "rank": 27414,
        "rank_sort": 27459,
        "total": 2371
      },
      {
        "club_badge_src": null,
        "entry": 1483301,
        "entry_name": "AC Brygge",
        "event_total": 72,
        "has_played": true,
        "id": 10343551,
        "last_rank": 39023,
        "player_name": "H\u00e5kon Brevik",
        "rank": 27414,
        "rank_sort": 27460,
        "total": 2371
      },
      {
        "club_badge_src": null,
        "entry": 1526196,
        "entry_name": "Larssons Eltie",
        "event_total": 45,
        "has_played": true,
        "id": 10644842,
        "last_rank": 17718,
        "player_name": "Thomas Reid",
        "rank": 27414,
        "rank_sort": 27461,
        "total": 2371
      },
      {
        "club_badge_src": null,
        "entry": 1557814,
        "entry_name": "Ikke lov \u00e5 druse",
        "event_total": 63,
        "has_played": true,
        "id": 10878606,
        "last_rank": 33332,
        "player_name": "Harald Sommer",
        "rank": 27414,
        "rank_sort": 27462,
        "total": 2371
      },
      {
        "club_badge_src": null,
        "entry": 1589992,
        "entry_name": "KotaLemang",
        "event_total": 44,
        "has_played": true,
        "id": 11117584,
        "last_rank": 17078,
        "player_name": "Jordan Kosashi",
        "rank": 27414,
        "rank_sort": 27463,
        "total": 2371
      },
      {
        "club_badge_src": null,
        "entry": 1630138,
        "entry_name": "Backstreet Moyes",
        "event_total": 68,
        "has_played": true,
        "id": 11409886,
        "last_rank": 39246,
        "player_name": "Luke Treharne",
        "rank": 27414,
        "rank_sort": 27464,
        "total": 2371
      },
      {
        "club_badge_src": null,
        "entry": 1653690,
        "entry_name": "Gy\u00f6k's Gooners",
        "event_total": 43,
        "has_played": true,
        "id": 11577672,
        "last_rank": 16441,
        "player_name": "Harry Ward",
        "rank": 27414,
        "rank_sort": 27465,
        "total": 2371
      },
      {
        "club_badge_src": null,
        "entry": 1711938,
        "entry_name": "KHALIDINHO",
        "event_total": 60,
        "has_played": true,
        "id": 11995279,
        "last_rank": 30060,
        "player_name": "Khalid Abdulkhaliq",
        "rank": 27414,
        "rank_sort": 27466,
        "total": 2371
      },
      {
        "club_badge_src": null,
        "entry": 1798220,
        "entry_name": "\u00d8deparfum",
        "event_total": 67,
        "has_played": true,
        "id": 12637431,
        "last_rank": 28609,
        "player_name": "Suhaib Kazi",
        "rank": 27414,
        "rank_sort": 27467,
        "total": 2371
      },
      {
        "club_badge_src": null,
        "entry": 1802841,
        "entry_name": "Kopelia",
        "event_total": 58,
        "has_played": true,
        "id": 12673820,
        "last_rank": 28150,
        "player_name": "Marios Loizou",
        "rank": 27414,
        "rank_sort": 27468,
        "total": 2371
      },
      {
        "club_badge_src": null,
        "entry": 1973017,
        "entry_name": "Algorithmic Void",
        "event_total": 73,
        "has_played": true,
        "id": 13926073,
        "last_rank": 40036,
        "player_name": "Jordan dunn",
        "rank": 27414,
        "rank_sort": 27469,
        "total": 2371
      },
      {
        "club_badge_src": null,
        "entry": 2006463,
        "entry_name": "Abbek\u00e5s",
        "event_total": 59,
        "has_played": true,
        "id": 14186236,
        "last_rank": 29071,
        "player_name": "Albin Kal\u00e9n",
        "rank": 27414,
        "rank_sort": 27470,
        "total": 2371
      },
      {
        "club_badge_src": "https://fantasy.premierleague.com/gcs/plfpl-production-adobe-approved/plfpl-production/2038156/d5013397-bfeb-48f3-8d1c-27d42b5f0ef8.png",
        "entry": 2038156,
        "entry_name": "Reed-1",
        "event_total": 60,
        "has_played": true,
        "id": 14432624,
        "last_rank": 30060,
        "player_name": "Reed Onne",
        "rank": 27414,
        "rank_sort": 27471,
        "total": 2371
      },
      {
        "club_badge_src": null,
        "entry": 2094677,
        "entry_name": "yunohuaiem",
        "event_total": 63,
        "has_played": true,
        "id": 14861835,
        "last_rank": 28726,
        "player_name": "Yuno huaiem",
        "rank": 27414,
        "rank_sort": 27472,
        "total": 2371
      },
      {
        "club_badge_src": null,
        "entry": 2129606,
        "entry_name": "Stingers",
        "event_total": 64,
        "has_played": true,
        "id": 15132673,
        "last_rank": 29904,
        "player_name": "Gabs Cooper",
        "rank": 27414,
        "rank_sort": 27473,
        "total": 2371
      },
      {
        "club_badge_src": null,
        "entry": 2266433,
        "entry_name": "LetMeHearYouSay AO",
        "event_total": 49,
        "has_played": true,
        "id": 16159850,
        "last_rank": 20538,
        "player_name": "V J",
        "rank": 27414,
        "rank_sort": 27474,
        "total": 2371
      },
      {
        "club_badge_src": null,
        "entry": 2312019,
        "entry_name": "The Bailey Babes",
        "event_total": 68,
        "has_played": true,
        "id": 16491866,
        "last_rank": 33936,
        "player_name": "Robert Bailey",
        "rank": 27414,
        "rank_sort": 27475,
        "total": 2371
      },
      {
        "club_badge_src": null,
        "entry": 2594553,
        "entry_name": "Nuketown United v.7",
        "event_total": 56,
        "has_played": true,
        "id": 18629813,
        "last_rank": 22685,
        "player_name": "Lars Terje Husbyn",
        "rank": 27414,
        "rank_sort": 27476,
        "total": 2371
      },
      {
        "club_badge_src": "https://fantasy.premierleague.com/gcs/plfpl-production-adobe-approved/plfpl-production/2597224/f800edf9-dab0-417f-a9dc-2a0928dbb7aa.png",
        "entry": 2597224,
        "entry_name": "Added Time Assassins",
        "event_total": 66,
        "has_played": true,
        "id": 18651591,
        "last_rank": 36831,
        "player_name": "Josh Micallef",
        "rank": 27414,
        "rank_sort": 27477,
        "total": 2371
      },
      {
        "club_badge_src": "https://fantasy.premierleague.com/gcs/plfpl-production-adobe-approved/plfpl-production/2662125/ac24ea26-2bc3-4eae-9d98-687ac8c31f47.png",
        "entry": 2662125,
        "entry_name": "The Bite of Suarez",
        "event_total": 73,
        "has_played": true,
        "id": 19136847,
        "last_rank": 40036,
        "player_name": "Chris McIvor",
        "rank": 27414,
        "rank_sort": 27478,
        "total": 2371
      },
      {
        "club_badge_src": null,
        "entry": 2765469,
        "entry_name": "Stretford Boys",
        "event_total": 48,
        "has_played": true,
        "id": 20176338,
        "last_rank": 19835,
        "player_name": "Gajendran Balachandran",
        "rank": 27414,
        "rank_sort": 27479,
        "total": 2371
      },
      {
        "club_badge_src": null,
        "entry": 2869818,
        "entry_name": "WINKERS XI",
        "event_total": 66,
        "has_played": true,
        "id": 20993049,
        "last_rank": 31747,
        "player_name": "Liam Watson",
        "rank": 27414,
        "rank_sort": 27480,
        "total": 2371
      },
      {
        "club_badge_src": null,
        "entry": 2907735,
        "entry_name": "COYG!!!",
        "event_total": 60,
        "has_played": true,
        "id": 21310650,
        "last_rank": 22534,
        "player_name": "Ben Williams",
        "rank": 27414,
        "rank_sort": 27481,
        "total": 2371
      },
      {
        "club_badge_src": null,
        "entry": 2914376,
        "entry_name": "Livin' Saliba Loca",
        "event_total": 68,
        "has_played": true,
        "id": 21361592,
        "last_rank": 39023,
        "player_name": "Tom Gent",
        "rank": 27414,
        "rank_sort": 27482,
        "total": 2371
      },
      {
        "club_badge_src": null,
        "entry": 2919833,
        "entry_name": "MotsyUtd",
        "event_total": 60,
        "has_played": true,
        "id": 21403717,
        "last_rank": 26088,
        "player_name": "Neil Marshall",
        "rank": 27414,
        "rank_sort": 27483,
        "total": 2371
      },
      {
        "club_badge_src": null,
        "entry": 3017662,
        "entry_name": "Lacosta fc",
        "event_total": 57,
        "has_played": true,
        "id": 22201846,
        "last_rank": 27020,
        "player_name": "Lineekela Nghiivali",
        "rank": 27414,
        "rank_sort": 27484,
        "total": 2371
      },
      {
        "club_badge_src": null,
        "entry": 3150564,
        "entry_name": "RuudVansmithstelrooy",
        "event_total": 53,
        "has_played": true,
        "id": 23264854,
        "last_rank": 23656,
        "player_name": "Thomas Smith",
        "rank": 27414,
        "rank_sort": 27485,
        "total": 2371
      },
      {
        "club_badge_src": null,
        "entry": 3297020,
        "entry_name": "MD Fc",
        "event_total": 61,
        "has_played": true,
        "id": 24416142,
        "last_rank": 31125,
        "player_name": "MujahiD Y",
        "rank": 27414,
        "rank_sort": 27486,
        "total": 2371
      },
      {
        "club_badge_src": null,
        "entry": 3317922,
        "entry_name": "Pawlos10",
        "event_total": 66,
        "has_played": true,
        "id": 24586164,
        "last_rank": 36831,
        "player_name": "Mateusz Pawlak",
        "rank": 27414,
        "rank_sort": 27487,
        "total": 2371
      },
      {
        "club_badge_src": null,
        "entry": 3365884,
        "entry_name": "Soosschoen",
        "event_total": 67,
        "has_played": true,
        "id": 24976624,
        "last_rank": 38016,
        "player_name": "Jesse Sjoerdsma",
        "rank": 27414,
        "rank_sort": 27488,
        "total": 2371
      },
      {
        "club_badge_src": null,
        "entry": 3368097,
        "entry_name": "Ctrl Alt De Ligt",
        "event_total": 67,
        "has_played": true,
        "id": 24993906,
        "last_rank": 37822,
        "player_name": "Chris Pietersen",
        "rank": 27414,
        "rank_sort": 27489,
        "total": 2371
      },
      {
        "club_badge_src": null,
        "entry": 3521666,
        "entry_name": "You Kante Be Serious",
        "event_total": 65,
        "has_played": true,
        "id": 26208333,
        "last_rank": 35619,
        "player_name": "Tanuj Karmakar",
        "rank": 27414,
        "rank_sort": 27490,
        "total": 2371
      },
      {
        "club_badge_src": null,
        "entry": 3567754,
        "entry_name": "Helal",
        "event_total": 64,
        "has_played": true,
        "id": 26565505,
        "last_rank": 29904,
        "player_name": "Ahmed Helal",
        "rank": 27414,
        "rank_sort": 27491,
        "total": 2371
      },
      {
        "club_badge_src": null,
        "entry": 3800700,
        "entry_name": "Peaky Reijnders",
        "event_total": 69,
        "has_played": true,
        "id": 28411787,
        "last_rank": 40036,
        "player_name": "Ori Gersht",
        "rank": 27414,
        "rank_sort": 27492,
        "total": 2371
      },
      {
        "club_badge_src": null,
        "entry": 3852258,
        "entry_name": "Fittex FC",
        "event_total": 68,
        "has_played": true,
        "id": 28878017,
        "last_rank": 39246,
        "player_name": "fayaa fittexx",
        "rank": 27414,
        "rank_sort": 27493,
        "total": 2371
      },
      {
        "club_badge_src": null,
        "entry": 3882320,
        "entry_name": "HSOTNAS LEDGIS",
        "event_total": 66,
        "has_played": true,
        "id": 29171571,
        "last_rank": 31995,
        "player_name": "Santosh Sigdel",
        "rank": 27414,
        "rank_sort": 27494,
        "total": 2371
      },
      {
        "club_badge_src": null,
        "entry": 3984772,
        "entry_name": "Smooth Operator",
        "event_total": 63,
        "has_played": true,
        "id": 29999521,
        "last_rank": 32879,
        "player_name": "Antonio Montecinos",
        "rank": 27414,
        "rank_sort": 27495,
        "total": 2371
      },
      {
        "club_badge_src": "https://fantasy.premierleague.com/gcs/plfpl-production-adobe-approved/plfpl-production/3999207/526f5f3b-5b68-4515-9028-95db003f2312.png",
        "entry": 3999207,
        "entry_name": "TheBusbyWay",
        "event_total": 60,
        "has_played": true,
        "id": 30119668,
        "last_rank": 29904,
        "player_name": "Joswin Dsouza",
        "rank": 27414,
        "rank_sort": 27496,
        "total": 2371
      },
      {
        "club_badge_src": null,
        "entry": 4015921,
        "entry_name": "Skitlaget",
        "event_total": 66,
        "has_played": true,
        "id": 30263449,
        "last_rank": 36831,
        "player_name": "\u00d8ystein Skovseth",
        "rank": 27414,
        "rank_sort": 27497,
        "total": 2371
      },
      {
        "club_badge_src": null,
        "entry": 4035974,
        "entry_name": "Ding Town",
        "event_total": 49,
        "has_played": true,
        "id": 30432300,
        "last_rank": 17585,
        "player_name": "Alasdair Kendrick",
        "rank": 27414,
        "rank_sort": 27498,
        "total": 2371
      },
      {
        "club_badge_src": null,
        "entry": 4052149,
        "entry_name": "mansy\ufffdmansy",
        "event_total": 60,
        "has_played": true,
        "id": 30566754,
        "last_rank": 29688,
        "player_name": "King Mansy",
        "rank": 27414,
        "rank_sort": 27499,
        "total": 2371
      },
      {
        "club_badge_src": null,
        "entry": 4181905,
        "entry_name": "Gyok Tuah",
        "event_total": 60,
        "has_played": true,
        "id": 31638474,
        "last_rank": 26088,
        "player_name": "Liam Downing",
        "rank": 27414,
        "rank_sort": 27500,
        "total": 2371
      }
    ]
  }
}