{
  "last_updated_data": "2026-05-24T23:28:17Z",
  "league": {
    "admin_entry": null,
    "closed": false,
    "code_privacy": "p",
    "created": "2025-07-20T23:14:33.933835Z",
    "cup_league": 2815434,
    "has_cup": true,
    "id": 314,
    "league_type": "s",
    "max_entries": null,
    "name": "Overall",
    "rank": null,
    "scoring": "c",
    "start_event": 1
  },
  "new_entries": {
    "has_next": false,
    "page": 1,
    "results": []
  },
  "standings": {
    "has_next": true,
    "page": 276,
    "results": [
      {
        "club_badge_src": null,
        "entry": 3162580,
        "entry_name": "Backstreet Moyes",
        "event_total": 63,
        "has_played": true,
        "id": 23363271,
        "last_rank": 16807,
        "player_name": "Jack Windle",
        "rank": 13667,
        "rank_sort": 13751,
        "total": 2390
      },
      {
        "club_badge_src": null,
        "entry": 3213162,
        "entry_name": "Dan The Armchair Fan",
        "event_total": 67,
        "has_played": true,
        "id": 23756173,
        "last_rank": 19544,
        "player_name": "Mike Richards",
        "rank": 13667,
        "rank_sort": 13752,
        "total": 2390
      },
      {
        "club_badge_src": null,
        "entry": 3290547,
        "entry_name": "Outram Wanderers",
        "event_total": 46,
        "has_played": true,
        "id": 24362812,
        "last_rank": 8382,
        "player_name": "Mark Olsen",
        "rank": 13667,
        "rank_sort": 13753,
        "total": 2390
      },
      {
        "club_badge_src": null,
        "entry": 3375703,
        "entry_name": "115 Reasons Why",
        "event_total": 62,
        "has_played": true,
        "id": 25055317,
        "last_rank": 16062,
        "player_name": "Cameron Cummins",
        "rank": 13667,
        "rank_sort": 13754,
        "total": 2390
      },
      {
        "club_badge_src": null,
        "entry": 3390552,
        "entry_name": "FC Bahar se lona",
        "event_total": 60,
        "has_played": true,
        "id": 25170979,
        "last_rank": 14926,
        "player_name": "Mohammad Usama",
        "rank": 13667,
        "rank_sort": 13755,
        "total": 2390
      },
      {
        "club_badge_src": "https://fantasy.premierleague.com/gcs/plfpl-production-adobe-approved/plfpl-production/3399278/582d64d9-4d6b-4fb3-8697-cf5024923f99.png",
        "entry": 3399278,
        "entry_name": "Palmer FC",
        "event_total": 64,
        "has_played": true,
        "id": 25239278,
        "last_rank": 17437,
        "player_name": "Sammy Jo",
        "rank": 13667,
        "rank_sort": 13756,
        "total": 2390
      },
      {
        "club_badge_src": null,
        "entry": 3450011,
        "entry_name": "BandW_Army",
        "event_total": 63,
        "has_played": true,
        "id": 25637753,
        "last_rank": 16729,
        "player_name": "Greg Jackson",
        "rank": 13667,
        "rank_sort": 13757,
        "total": 2390
      },
      {
        "club_badge_src": null,
        "entry": 3464007,
        "entry_name": "holbeeberwinner2026",
        "event_total": 60,
        "has_played": true,
        "id": 25749971,
        "last_rank": 14926,
        "player_name": "Sawaraj Hollor",
        "rank": 13667,
        "rank_sort": 13758,
        "total": 2390
      },
      {
        "club_badge_src": null,
        "entry": 3465064,
        "entry_name": "Luke, I am ur Schade",
        "event_total": 55,
        "has_played": true,
        "id": 25758272,
        "last_rank": 12200,
        "player_name": "Kier Childs",
        "rank": 13667,
        "rank_sort": 13759,
        "total": 2390
      },
      {
        "club_badge_src": "https://fantasy.premierleague.com/gcs/plfpl-production-adobe-approved/plfpl-production/3502579/710a267b-d952-483e-9d73-d91cc3cc6d74.png",
        "entry": 3502579,
        "entry_name": "ANGRYBIRDSLOVER42",
        "event_total": 50,
        "has_played": true,
        "id": 26055540,
        "last_rank": 9942,
        "player_name": "George Leonard",
        "rank": 13667,
        "rank_sort": 13760,
        "total": 2390
      },
      {
        "club_badge_src": null,
        "entry": 3579784,
        "entry_name": "Feliz Imadad",
        "event_total": 50,
        "has_played": true,
        "id": 26657553,
        "last_rank": 9942,
        "player_name": "Chris Savory",
        "rank": 13667,
        "rank_sort": 13761,
        "total": 2390
      },
      {
        "club_badge_src": null,
        "entry": 3768932,
        "entry_name": "(<[*_*]>)",
        "event_total": 58,
        "has_played": true,
        "id": 28141083,
        "last_rank": 13821,
        "player_name": "Jonny Gaze",
        "rank": 13667,
        "rank_sort": 13762,
        "total": 2390
      },
      {
        "club_badge_src": null,
        "entry": 3811699,
        "entry_name": "Salad Grealish",
        "event_total": 72,
        "has_played": true,
        "id": 28501857,
        "last_rank": 23522,
        "player_name": "graham barron",
        "rank": 13667,
        "rank_sort": 13763,
        "total": 2390
      },
      {
        "club_badge_src": null,
        "entry": 3829798,
        "entry_name": "Ecumenical Mata",
        "event_total": 49,
        "has_played": true,
        "id": 28648550,
        "last_rank": 9536,
        "player_name": "Liam Kneafsey",
        "rank": 13667,
        "rank_sort": 13764,
        "total": 2390
      },
      {
        "club_badge_src": null,
        "entry": 4199681,
        "entry_name": "Dynamo Dresdan",
        "event_total": 68,
        "has_played": true,
        "id": 31789273,
        "last_rank": 20179,
        "player_name": "Dan Beever",
        "rank": 13667,
        "rank_sort": 13765,
        "total": 2390
      },
      {
        "club_badge_src": null,
        "entry": 4222876,
        "entry_name": "DC rangers",
        "event_total": 56,
        "has_played": true,
        "id": 31989795,
        "last_rank": 12705,
        "player_name": "dan comber",
        "rank": 13667,
        "rank_sort": 13766,
        "total": 2390
      },
      {
        "club_badge_src": null,
        "entry": 4285653,
        "entry_name": "marthebt",
        "event_total": 57,
        "has_played": true,
        "id": 32506391,
        "last_rank": 13257,
        "player_name": "Marthe Bjorheim Topstad",
        "rank": 13667,
        "rank_sort": 13767,
        "total": 2390
      },
      {
        "club_badge_src": null,
        "entry": 4426589,
        "entry_name": "It'sallbullo**ks FC",
        "event_total": 65,
        "has_played": true,
        "id": 33693136,
        "last_rank": 18029,
        "player_name": "Yaw Nkansah",
        "rank": 13667,
        "rank_sort": 13768,
        "total": 2390
      },
      {
        "club_badge_src": "https://fantasy.premierleague.com/gcs/plfpl-production-adobe-approved/plfpl-production/4633966/aff65258-d5b8-40b2-b1a2-6877805c131d.png",
        "entry": 4633966,
        "entry_name": "Dunnes & \u0160e\u0161ko",
        "event_total": 40,
        "has_played": true,
        "id": 35435032,
        "last_rank": 6528,
        "player_name": "Mickey Mckenna",
        "rank": 13667,
        "rank_sort": 13769,
        "total": 2390
      },
      {
        "club_badge_src": null,
        "entry": 4775621,
        "entry_name": "Organisedconfusion",
        "event_total": 55,
        "has_played": true,
        "id": 36761068,
        "last_rank": 12141,
        "player_name": "Ruairi Lynch",
        "rank": 13667,
        "rank_sort": 13770,
        "total": 2390
      },
      {
        "club_badge_src": null,
        "entry": 5233891,
        "entry_name": "EMS",
        "event_total": 68,
        "has_played": true,
        "id": 40558082,
        "last_rank": 20179,
        "player_name": "Emad Shamsi",
        "rank": 13667,
        "rank_sort": 13771,
        "total": 2390
      },
      {
        "club_badge_src": null,
        "entry": 5393953,
        "entry_name": "AKS",
        "event_total": 60,
        "has_played": true,
        "id": 41936344,
        "last_rank": 14926,
        "player_name": "ali sabra",
        "rank": 13667,
        "rank_sort": 13772,
        "total": 2390
      },
      {
        "club_badge_src": null,
        "entry": 5423853,
        "entry_name": "Bibbish BK",
        "event_total": 75,
        "has_played": true,
        "id": 42185660,
        "last_rank": 25776,
        "player_name": "Robin Nilsson",
        "rank": 13667,
        "rank_sort": 13773,
        "total": 2390
      },
      {
        "club_badge_src": null,
        "entry": 5438659,
        "entry_name": "The Bhoys 2.0",
        "event_total": 50,
        "has_played": true,
        "id": 42313081,
        "last_rank": 9853,
        "player_name": "Jordan O-Brien",
        "rank": 13667,
        "rank_sort": 13774,
        "total": 2390
      },
      {
        "club_badge_src": null,
        "entry": 5548600,
        "entry_name": "Freed From Maguire",
        "event_total": 62,
        "has_played": true,
        "id": 43302427,
        "last_rank": 16062,
        "player_name": "Jack Kenny",
        "rank": 13667,
        "rank_sort": 13775,
        "total": 2390
      },
      {
        "club_badge_src": null,
        "entry": 5552002,
        "entry_name": "Better Call Palmer",
        "event_total": 66,
        "has_played": true,
        "id": 43333171,
        "last_rank": 18691,
        "player_name": "Sandro Esposito",
        "rank": 13667,
        "rank_sort": 13776,
        "total": 2390
      },
      {
        "club_badge_src": null,
        "entry": 5566027,
        "entry_name": "Gilblaze",
        "event_total": 66,
        "has_played": true,
        "id": 43458948,
        "last_rank": 18790,
        "player_name": "Sunday Gilbert",
        "rank": 13667,
        "rank_sort": 13777,
        "total": 2390
      },
      {
        "club_badge_src": "https://fantasy.premierleague.com/gcs/plfpl-production-adobe-approved/plfpl-production/5609999/3e78e020-0d92-48a6-b1d7-17d7622fb59c.png",
        "entry": 5609999,
        "entry_name": "one.last.chance",
        "event_total": 42,
        "has_played": true,
        "id": 43843398,
        "last_rank": 7014,
        "player_name": "loau ashraf",
        "rank": 13667,
        "rank_sort": 13778,
        "total": 2390
      },
      {
        "club_badge_src": null,
        "entry": 5639829,
        "entry_name": "DavidJamesShow XIX",
        "event_total": 48,
        "has_played": true,
        "id": 44103727,
        "last_rank": 9142,
        "player_name": "David Ellis",
        "rank": 13667,
        "rank_sort": 13779,
        "total": 2390
      },
      {
        "club_badge_src": null,
        "entry": 6005509,
        "entry_name": "Mohan FC",
        "event_total": 61,
        "has_played": true,
        "id": 47347094,
        "last_rank": 15550,
        "player_name": "Mohan Lulla",
        "rank": 13667,
        "rank_sort": 13780,
        "total": 2390
      },
      {
        "club_badge_src": null,
        "entry": 6062249,
        "entry_name": "Glory Days",
        "event_total": 56,
        "has_played": true,
        "id": 47845869,
        "last_rank": 12645,
        "player_name": "Rohn Malhotra",
        "rank": 13667,
        "rank_sort": 13781,
        "total": 2390
      },
      {
        "club_badge_src": null,
        "entry": 6102390,
        "entry_name": "The Sopranos",
        "event_total": 61,
        "has_played": true,
        "id": 48196283,
        "last_rank": 15452,
        "player_name": "Teddy Mukadzambo",
        "rank": 13667,
        "rank_sort": 13782,
        "total": 2390
      },
      {
        "club_badge_src": null,
        "entry": 6414070,
        "entry_name": "For Evra Young",
        "event_total": 56,
        "has_played": true,
        "id": 51044917,
        "last_rank": 12846,
        "player_name": "Kiya Ghazaipour",
        "rank": 13667,
        "rank_sort": 13783,
        "total": 2390
      },
      {
        "club_badge_src": null,
        "entry": 6691557,
        "entry_name": "Yates Gonna Yate",
        "event_total": 56,
        "has_played": true,
        "id": 53534464,
        "last_rank": 12705,
        "player_name": "Sofi Melvin",
        "rank": 13667,
        "rank_sort": 13784,
        "total": 2390
      },
      {
        "club_badge_src": null,
        "entry": 6779639,
        "entry_name": "KaraA47",
        "event_total": 76,
        "has_played": true,
        "id": 54287089,
        "last_rank": 26710,
        "player_name": "Antreas Karamanolis",
        "rank": 13667,
        "rank_sort": 13785,
        "total": 2390
      },
      {
        "club_badge_src": null,
        "entry": 6889518,
        "entry_name": "FPL ashur",
        "event_total": 70,
        "has_played": true,
        "id": 55216380,
        "last_rank": 21628,
        "player_name": "Ashur Oraha",
        "rank": 13667,
        "rank_sort": 13786,
        "total": 2390
      },
      {
        "club_badge_src": null,
        "entry": 7178510,
        "entry_name": "Hit the barn dorgu!",
        "event_total": 53,
        "has_played": true,
        "id": 57932313,
        "last_rank": 11237,
        "player_name": "Mark Calverley",
        "rank": 13667,
        "rank_sort": 13787,
        "total": 2390
      },
      {
        "club_badge_src": null,
        "entry": 7388801,
        "entry_name": "Blackrock FC",
        "event_total": 55,
        "has_played": true,
        "id": 59908597,
        "last_rank": 12200,
        "player_name": "Don Andres",
        "rank": 13667,
        "rank_sort": 13788,
        "total": 2390
      },
      {
        "club_badge_src": "https://fantasy.premierleague.com/gcs/plfpl-production-adobe-approved/plfpl-production/7513958/f28e1bf0-539a-4163-879f-45c01cb79951.png",
        "entry": 7513958,
        "entry_name": "Ctrl, Alt, De Ligt",
        "event_total": 69,
        "has_played": true,
        "id": 61446850,
        "last_rank": 17989,
        "player_name": "Adam Roberts",
        "rank": 13667,
        "rank_sort": 13789,
        "total": 2390
      },
      {
        "club_badge_src": "https://fantasy.premierleague.com/gcs/plfpl-production-adobe-approved/plfpl-production/7729978/b8c3dab6-0edf-475a-a070-79915c6eba37.png",
        "entry": 7729978,
        "entry_name": "Net Six & Chill",
        "event_total": 60,
        "has_played": true,
        "id": 63440929,
        "last_rank": 14926,
        "player_name": "Carna Mostert",
        "rank": 13667,
        "rank_sort": 13790,
        "total": 2390
      },
      {
        "club_badge_src": null,
        "entry": 7937277,
        "entry_name": "I did not see it",
        "event_total": 68,
        "has_played": true,
        "id": 65326769,
        "last_rank": 20280,
        "player_name": "Aman Pujara",
        "rank": 13667,
        "rank_sort": 13791,
        "total": 2390
      },
      {
        "club_badge_src": null,
        "entry": 8077160,
        "entry_name": "Revekatten",
        "event_total": 67,
        "has_played": true,
        "id": 66588370,
        "last_rank": 19544,
        "player_name": "Nicholas Revheim",
        "rank": 13667,
        "rank_sort": 13792,
        "total": 2390
      },
      {
        "club_badge_src": null,
        "entry": 8784140,
        "entry_name": "Fancy Dans",
        "event_total": 77,
        "has_played": true,
        "id": 73391780,
        "last_rank": 27644,
        "player_name": "Dan Kellett",
        "rank": 13667,
        "rank_sort": 13793,
        "total": 2390
      },
      {
        "club_badge_src": null,
        "entry": 8856915,
        "entry_name": "doginelli",
        "event_total": 59,
        "has_played": true,
        "id": 74093132,
        "last_rank": 14496,
        "player_name": "Jimmy Seals",
        "rank": 13667,
        "rank_sort": 13794,
        "total": 2390
      },
      {
        "club_badge_src": null,
        "entry": 8986333,
        "entry_name": "E.3 Muhammed",
        "event_total": 67,
        "has_played": true,
        "id": 75350083,
        "last_rank": 19392,
        "player_name": "\u0645\u062d\u0645\u062f \u0627\u0644\u062d\u0631\u0628\u064a",
        "rank": 13667,
        "rank_sort": 13795,
        "total": 2390
      },
      {
        "club_badge_src": null,
        "entry": 9252176,
        "entry_name": "Messi-ca Stocks",
        "event_total": 54,
        "has_played": true,
        "id": 77943682,
        "last_rank": 11699,
        "player_name": "Jessica Stocks",
        "rank": 13667,
        "rank_sort": 13796,
        "total": 2390
      },
      {
        "club_badge_src": "https://fantasy.premierleague.com/gcs/plfpl-production-adobe-approved/plfpl-production/1444/28aecc82-6aa8-4634-b3cc-7514497816db.png",
        "entry": 1444,
        "entry_name": "Breaking Bau",
        "event_total": 74,
        "has_played": true,
        "id": 8036,
        "last_rank": 25172,
        "player_name": "Baumstark Adam",
        "rank": 13797,
        "rank_sort": 13797,
        "total": 2390
      },
      {
        "club_badge_src": null,
        "entry": 2962,
        "entry_name": "NeverMindTheBullocks",
        "event_total": 63,
        "has_played": true,
        "id": 16688,
        "last_rank": 16807,
        "player_name": "Jamie Bullock",
        "rank": 13797,
        "rank_sort": 13798,
        "total": 2390
      },
      {
        "club_badge_src": null,
        "entry": 10245,
        "entry_name": "Abo eyad",
        "event_total": 65,
        "has_played": true,
        "id": 60515,
        "last_rank": 15550,
        "player_name": "Abo Eyad Elhagar",
        "rank": 13797,
        "rank_sort": 13799,
        "total": 2390
      },
      {
        "club_badge_src": null,
        "entry": 10548,
        "entry_name": "aa zak",
        "event_total": 77,
        "has_played": true,
        "id": 62422,
        "last_rank": 27770,
        "player_name": "aa zak",
        "rank": 13797,
        "rank_sort": 13800,
        "total": 2390
      }
    ]
  }
}