{
  "last_updated_data": "2026-05-24T23:28:17Z",
  "league": {
    "admin_entry": null,
    "closed": false,
    "code_privacy": "p",
    "created": "2025-07-20T23:14:33.933835Z",
    "cup_league": 2815434,
    "has_cup": true,
    "id": 314,
    "league_type": "s",
    "max_entries": null,
    "name": "Overall",
    "rank": null,
    "scoring": "c",
    "start_event": 1
  },
  "new_entries": {
    "has_next": false,
    "page": 1,
    "results": []
  },
  "standings": {
    "has_next": true,
    "page": 1413,
    "results": [
      {
        "club_badge_src": null,
        "entry": 6513539,
        "entry_name": "NY HOTSPURS FC",
        "event_total": 53,
        "has_played": true,
        "id": 51942302,
        "last_rank": 56708,
        "player_name": "Angelo Villanueva",
        "rank": 70365,
        "rank_sort": 70601,
        "total": 2340
      },
      {
        "club_badge_src": null,
        "entry": 6590886,
        "entry_name": "HT XI",
        "event_total": 52,
        "has_played": true,
        "id": 52638993,
        "last_rank": 62223,
        "player_name": "Hardik Tewatia",
        "rank": 70365,
        "rank_sort": 70602,
        "total": 2340
      },
      {
        "club_badge_src": null,
        "entry": 6710571,
        "entry_name": "HaCunha Mateta",
        "event_total": 56,
        "has_played": true,
        "id": 53702380,
        "last_rank": 54667,
        "player_name": "Samsul Arefen Anni",
        "rank": 70365,
        "rank_sort": 70603,
        "total": 2340
      },
      {
        "club_badge_src": null,
        "entry": 6807234,
        "entry_name": "Kinder Mbeumo",
        "event_total": 45,
        "has_played": true,
        "id": 54516425,
        "last_rank": 50468,
        "player_name": "Sean Tierney",
        "rank": 70365,
        "rank_sort": 70604,
        "total": 2340
      },
      {
        "club_badge_src": null,
        "entry": 6831816,
        "entry_name": "Maccabi Kaskas",
        "event_total": 60,
        "has_played": true,
        "id": 54723757,
        "last_rank": 77999,
        "player_name": "Shim Zaki",
        "rank": 70365,
        "rank_sort": 70605,
        "total": 2340
      },
      {
        "club_badge_src": null,
        "entry": 6852941,
        "entry_name": "Fieldmania",
        "event_total": 58,
        "has_played": true,
        "id": 54904056,
        "last_rank": 73423,
        "player_name": "reece fieldman",
        "rank": 70365,
        "rank_sort": 70606,
        "total": 2340
      },
      {
        "club_badge_src": "https://fantasy.premierleague.com/gcs/plfpl-production-adobe-approved/plfpl-production/6923038/b42bbec1-d0d5-4afb-ad3e-6f87cd40ff75.png",
        "entry": 6923038,
        "entry_name": "Cruzares F.C",
        "event_total": 61,
        "has_played": true,
        "id": 55496842,
        "last_rank": 80194,
        "player_name": "Eumeudou Ndiaye",
        "rank": 70365,
        "rank_sort": 70607,
        "total": 2340
      },
      {
        "club_badge_src": "https://fantasy.premierleague.com/gcs/plfpl-production-adobe-approved/plfpl-production/6977907/61f4f5b0-b931-4c41-b639-41850e63ce18.png",
        "entry": 6977907,
        "entry_name": "Cityzen Of Etihad",
        "event_total": 64,
        "has_played": true,
        "id": 55993725,
        "last_rank": 86735,
        "player_name": "Sooraj gopali",
        "rank": 70365,
        "rank_sort": 70608,
        "total": 2340
      },
      {
        "club_badge_src": "https://fantasy.premierleague.com/gcs/plfpl-production-adobe-approved/plfpl-production/7007388/4fb7914c-cc6d-492a-a827-cc183f1b17e4.png",
        "entry": 7007388,
        "entry_name": "AFC 60-Bussen",
        "event_total": 61,
        "has_played": true,
        "id": 56271411,
        "last_rank": 80194,
        "player_name": "Edvard E. Sorensen",
        "rank": 70365,
        "rank_sort": 70609,
        "total": 2340
      },
      {
        "club_badge_src": null,
        "entry": 7029370,
        "entry_name": "Lord Woltemade",
        "event_total": 55,
        "has_played": true,
        "id": 56486884,
        "last_rank": 67695,
        "player_name": "Ross Legg",
        "rank": 70365,
        "rank_sort": 70610,
        "total": 2340
      },
      {
        "club_badge_src": null,
        "entry": 7085321,
        "entry_name": "Los Porro Hermanos",
        "event_total": 49,
        "has_played": true,
        "id": 57037094,
        "last_rank": 56708,
        "player_name": "George Hughes",
        "rank": 70365,
        "rank_sort": 70611,
        "total": 2340
      },
      {
        "club_badge_src": null,
        "entry": 7238925,
        "entry_name": "Tirimiri Jhyai",
        "event_total": 45,
        "has_played": true,
        "id": 58498618,
        "last_rank": 50468,
        "player_name": "Udeet Singh",
        "rank": 70365,
        "rank_sort": 70612,
        "total": 2340
      },
      {
        "club_badge_src": "https://fantasy.premierleague.com/gcs/plfpl-production-adobe-approved/plfpl-production/7354141/62658e24-8f1b-4d35-9472-277adc5c85f9.png",
        "entry": 7354141,
        "entry_name": "Yuzzy_MO",
        "event_total": 65,
        "has_played": true,
        "id": 59586955,
        "last_rank": 89426,
        "player_name": "Yusuf Mumuni",
        "rank": 70365,
        "rank_sort": 70613,
        "total": 2340
      },
      {
        "club_badge_src": null,
        "entry": 7379061,
        "entry_name": "Stroppy Kloppy",
        "event_total": 61,
        "has_played": true,
        "id": 59817787,
        "last_rank": 70985,
        "player_name": "Clare Rodway",
        "rank": 70365,
        "rank_sort": 70614,
        "total": 2340
      },
      {
        "club_badge_src": null,
        "entry": 7399461,
        "entry_name": "ZubiZubiDoo",
        "event_total": 64,
        "has_played": true,
        "id": 60009162,
        "last_rank": 77676,
        "player_name": "Yosef Tadesse",
        "rank": 70365,
        "rank_sort": 70615,
        "total": 2340
      },
      {
        "club_badge_src": null,
        "entry": 7413316,
        "entry_name": "All Too FPL",
        "event_total": 55,
        "has_played": true,
        "id": 60160563,
        "last_rank": 67695,
        "player_name": "Nazia Tasnim Khanam Afraa",
        "rank": 70365,
        "rank_sort": 70616,
        "total": 2340
      },
      {
        "club_badge_src": null,
        "entry": 7479935,
        "entry_name": "Aarnwynnleavsitin",
        "event_total": 49,
        "has_played": true,
        "id": 61021896,
        "last_rank": 56369,
        "player_name": "Daniel Gregg",
        "rank": 70365,
        "rank_sort": 70617,
        "total": 2340
      },
      {
        "club_badge_src": null,
        "entry": 7758240,
        "entry_name": "Trickster",
        "event_total": 37,
        "has_played": true,
        "id": 63697209,
        "last_rank": 39246,
        "player_name": "Rashed Aljarwan",
        "rank": 70365,
        "rank_sort": 70618,
        "total": 2340
      },
      {
        "club_badge_src": null,
        "entry": 7920253,
        "entry_name": "No Quincidence 25/26",
        "event_total": 44,
        "has_played": true,
        "id": 65171014,
        "last_rank": 48898,
        "player_name": "Q C",
        "rank": 70365,
        "rank_sort": 70619,
        "total": 2340
      },
      {
        "club_badge_src": "https://fantasy.premierleague.com/gcs/plfpl-production-adobe-approved/plfpl-production/8079712/60199843-e620-48ab-a09d-967917e5a3b1.png",
        "entry": 8079712,
        "entry_name": "FC Bukowa",
        "event_total": 65,
        "has_played": true,
        "id": 66612505,
        "last_rank": 89055,
        "player_name": "Sebastian Kobak",
        "rank": 70365,
        "rank_sort": 70620,
        "total": 2340
      },
      {
        "club_badge_src": null,
        "entry": 8080656,
        "entry_name": "ArendalsgataAufguss",
        "event_total": 63,
        "has_played": true,
        "id": 66621286,
        "last_rank": 84731,
        "player_name": "Mats Strand",
        "rank": 70365,
        "rank_sort": 70621,
        "total": 2340
      },
      {
        "club_badge_src": null,
        "entry": 8618673,
        "entry_name": "SnoutSquad",
        "event_total": 59,
        "has_played": true,
        "id": 71779517,
        "last_rank": 75537,
        "player_name": "Matthew Gallagher",
        "rank": 70365,
        "rank_sort": 70622,
        "total": 2340
      },
      {
        "club_badge_src": null,
        "entry": 8619820,
        "entry_name": "Stubbuteo",
        "event_total": 43,
        "has_played": true,
        "id": 71790770,
        "last_rank": 47417,
        "player_name": "Stuart Brown",
        "rank": 70365,
        "rank_sort": 70623,
        "total": 2340
      },
      {
        "club_badge_src": null,
        "entry": 8784917,
        "entry_name": "JSquad",
        "event_total": 54,
        "has_played": true,
        "id": 73399108,
        "last_rank": 58071,
        "player_name": "Jens Petter Lund",
        "rank": 70365,
        "rank_sort": 70624,
        "total": 2340
      },
      {
        "club_badge_src": null,
        "entry": 9037104,
        "entry_name": "V V Victorious",
        "event_total": 53,
        "has_played": true,
        "id": 75838886,
        "last_rank": 64005,
        "player_name": "Varshinee Veerahoo",
        "rank": 70365,
        "rank_sort": 70625,
        "total": 2340
      },
      {
        "club_badge_src": null,
        "entry": 9125189,
        "entry_name": "ooosh",
        "event_total": 57,
        "has_played": true,
        "id": 76699264,
        "last_rank": 56369,
        "player_name": "Nawar Afif",
        "rank": 70365,
        "rank_sort": 70626,
        "total": 2340
      },
      {
        "club_badge_src": null,
        "entry": 1203,
        "entry_name": "Can I Kick It?",
        "event_total": 52,
        "has_played": true,
        "id": 6685,
        "last_rank": 55311,
        "player_name": "Ben Coleman",
        "rank": 70627,
        "rank_sort": 70627,
        "total": 2340
      },
      {
        "club_badge_src": null,
        "entry": 7397,
        "entry_name": "Los Pepes",
        "event_total": 68,
        "has_played": true,
        "id": 42629,
        "last_rank": 77676,
        "player_name": "Vegard Ottesen",
        "rank": 70627,
        "rank_sort": 70628,
        "total": 2340
      },
      {
        "club_badge_src": "https://fantasy.premierleague.com/gcs/plfpl-production-adobe-approved/plfpl-production/13399/55fe68d8-220b-4dd2-9b2e-98f03f6850fc.png",
        "entry": 13399,
        "entry_name": "Backstreet Moyes",
        "event_total": 68,
        "has_played": true,
        "id": 80930,
        "last_rank": 87074,
        "player_name": "Ond\u0159ej Kr\u00e1l",
        "rank": 70627,
        "rank_sort": 70629,
        "total": 2340
      },
      {
        "club_badge_src": "https://fantasy.premierleague.com/gcs/plfpl-production-adobe-approved/plfpl-production/13747/6d57656d-6c22-47d6-8186-7bb4c69107c7.png",
        "entry": 13747,
        "entry_name": "mankaind",
        "event_total": 37,
        "has_played": true,
        "id": 83186,
        "last_rank": 39403,
        "player_name": "Vladimir Serheiev",
        "rank": 70627,
        "rank_sort": 70630,
        "total": 2340
      },
      {
        "club_badge_src": null,
        "entry": 15947,
        "entry_name": "SackedInTheMorningXI",
        "event_total": 59,
        "has_played": true,
        "id": 98247,
        "last_rank": 67695,
        "player_name": "Alexander Borge",
        "rank": 70627,
        "rank_sort": 70631,
        "total": 2340
      },
      {
        "club_badge_src": null,
        "entry": 18677,
        "entry_name": "Wirtz Stars",
        "event_total": 78,
        "has_played": true,
        "id": 116233,
        "last_rank": 124682,
        "player_name": "Vikram Marwaha",
        "rank": 70627,
        "rank_sort": 70632,
        "total": 2340
      },
      {
        "club_badge_src": null,
        "entry": 18938,
        "entry_name": "Yoro Wizard Harry!",
        "event_total": 70,
        "has_played": true,
        "id": 117873,
        "last_rank": 91835,
        "player_name": "Rahul K",
        "rank": 70627,
        "rank_sort": 70633,
        "total": 2340
      },
      {
        "club_badge_src": "https://fantasy.premierleague.com/gcs/plfpl-production-adobe-approved/plfpl-production/20278/bc827b96-9c0e-4d7b-b78f-bab40b305916.png",
        "entry": 20278,
        "entry_name": "Factor 50 Soncream",
        "event_total": 58,
        "has_played": true,
        "id": 126329,
        "last_rank": 65796,
        "player_name": "P\u00e1draig Hamilton",
        "rank": 70627,
        "rank_sort": 70634,
        "total": 2340
      },
      {
        "club_badge_src": null,
        "entry": 21514,
        "entry_name": "\u4e8c\u4e03\u4e00\u56db\u4e5d",
        "event_total": 64,
        "has_played": true,
        "id": 134898,
        "last_rank": 86735,
        "player_name": "Loki 9-9",
        "rank": 70627,
        "rank_sort": 70635,
        "total": 2340
      },
      {
        "club_badge_src": null,
        "entry": 22441,
        "entry_name": "AMIDFC",
        "event_total": 52,
        "has_played": true,
        "id": 140912,
        "last_rank": 62429,
        "player_name": "Irfan Ashirov",
        "rank": 70627,
        "rank_sort": 70636,
        "total": 2340
      },
      {
        "club_badge_src": null,
        "entry": 23570,
        "entry_name": "Commanders",
        "event_total": 68,
        "has_played": true,
        "id": 148481,
        "last_rank": 87074,
        "player_name": "D M",
        "rank": 70627,
        "rank_sort": 70637,
        "total": 2340
      },
      {
        "club_badge_src": "https://fantasy.premierleague.com/gcs/plfpl-production-adobe-approved/plfpl-production/24043/75f54360-be17-4896-8148-c671251faf0f.png",
        "entry": 24043,
        "entry_name": "You Belong With Mo",
        "event_total": 63,
        "has_played": true,
        "id": 151663,
        "last_rank": 84980,
        "player_name": "Nazia T. Khanam",
        "rank": 70627,
        "rank_sort": 70638,
        "total": 2340
      },
      {
        "club_badge_src": "https://fantasy.premierleague.com/gcs/plfpl-production-adobe-approved/plfpl-production/26580/3047e30d-c610-432f-8ca6-7fd5e8c337b0.png",
        "entry": 26580,
        "entry_name": "My Luck Stinks",
        "event_total": 57,
        "has_played": true,
        "id": 168053,
        "last_rank": 71956,
        "player_name": "Matt Guest",
        "rank": 70627,
        "rank_sort": 70639,
        "total": 2340
      },
      {
        "club_badge_src": null,
        "entry": 27482,
        "entry_name": "Z",
        "event_total": 55,
        "has_played": true,
        "id": 173734,
        "last_rank": 60462,
        "player_name": "Zackarias Johansson",
        "rank": 70627,
        "rank_sort": 70640,
        "total": 2340
      },
      {
        "club_badge_src": null,
        "entry": 27893,
        "entry_name": "CITYZENS\u00ae",
        "event_total": 49,
        "has_played": true,
        "id": 176377,
        "last_rank": 56708,
        "player_name": "Tausif Shaikh",
        "rank": 70627,
        "rank_sort": 70641,
        "total": 2340
      },
      {
        "club_badge_src": null,
        "entry": 29528,
        "entry_name": "Le Cabaret",
        "event_total": 52,
        "has_played": true,
        "id": 186736,
        "last_rank": 62429,
        "player_name": "Quaresma 1908",
        "rank": 70627,
        "rank_sort": 70642,
        "total": 2340
      },
      {
        "club_badge_src": null,
        "entry": 32712,
        "entry_name": "Yoro Wissa Harry",
        "event_total": 59,
        "has_played": true,
        "id": 208212,
        "last_rank": 67695,
        "player_name": "Callum Rodger",
        "rank": 70627,
        "rank_sort": 70643,
        "total": 2340
      },
      {
        "club_badge_src": null,
        "entry": 33728,
        "entry_name": "Fan Tas Tic",
        "event_total": 46,
        "has_played": true,
        "id": 215240,
        "last_rank": 45927,
        "player_name": "Ahmed Muizz",
        "rank": 70627,
        "rank_sort": 70644,
        "total": 2340
      },
      {
        "club_badge_src": null,
        "entry": 35576,
        "entry_name": "Korofc",
        "event_total": 58,
        "has_played": true,
        "id": 227687,
        "last_rank": 73038,
        "player_name": "Dimitrios Koromplis",
        "rank": 70627,
        "rank_sort": 70645,
        "total": 2340
      },
      {
        "club_badge_src": null,
        "entry": 39702,
        "entry_name": "Say the line, Bart",
        "event_total": 59,
        "has_played": true,
        "id": 254434,
        "last_rank": 67695,
        "player_name": "Bartosz \u015awidrak",
        "rank": 70627,
        "rank_sort": 70646,
        "total": 2340
      },
      {
        "club_badge_src": null,
        "entry": 41985,
        "entry_name": "ParisAintGerman",
        "event_total": 59,
        "has_played": true,
        "id": 269032,
        "last_rank": 60168,
        "player_name": "Paris Hutt",
        "rank": 70627,
        "rank_sort": 70647,
        "total": 2340
      },
      {
        "club_badge_src": "https://fantasy.premierleague.com/gcs/plfpl-production-adobe-approved/plfpl-production/44285/9b0fe581-4032-466d-9591-711ae889b25c.png",
        "entry": 44285,
        "entry_name": "Arne FK",
        "event_total": 65,
        "has_played": true,
        "id": 283794,
        "last_rank": 79817,
        "player_name": "Assad Ansar",
        "rank": 70627,
        "rank_sort": 70648,
        "total": 2340
      },
      {
        "club_badge_src": "https://fantasy.premierleague.com/gcs/plfpl-production-adobe-approved/plfpl-production/56978/77f0c08a-a459-4a34-bdc7-87ca35dafd67.png",
        "entry": 56978,
        "entry_name": "Algorithm XXVI",
        "event_total": 63,
        "has_played": true,
        "id": 367016,
        "last_rank": 84980,
        "player_name": "Richard Odufisan",
        "rank": 70627,
        "rank_sort": 70649,
        "total": 2340
      },
      {
        "club_badge_src": null,
        "entry": 61125,
        "entry_name": "Pesona Idaman FC",
        "event_total": 57,
        "has_played": true,
        "id": 393609,
        "last_rank": 71956,
        "player_name": "MNazri Jamiran",
        "rank": 70627,
        "rank_sort": 70650,
        "total": 2340
      }
    ]
  }
}