{
  "last_updated_data": "2026-05-24T23:28:17Z",
  "league": {
    "admin_entry": null,
    "closed": false,
    "code_privacy": "p",
    "created": "2025-07-20T23:14:33.933835Z",
    "cup_league": 2815434,
    "has_cup": true,
    "id": 314,
    "league_type": "s",
    "max_entries": null,
    "name": "Overall",
    "rank": null,
    "scoring": "c",
    "start_event": 1
  },
  "new_entries": {
    "has_next": false,
    "page": 1,
    "results": []
  },
  "standings": {
    "has_next": true,
    "page": 1344,
    "results": [
      {
        "club_badge_src": null,
        "entry": 1519270,
        "entry_name": "Sully Xi",
        "event_total": 50,
        "has_played": true,
        "id": 10596530,
        "last_rank": 55747,
        "player_name": "Sulaimaan Polli",
        "rank": 67076,
        "rank_sort": 67151,
        "total": 2342
      },
      {
        "club_badge_src": null,
        "entry": 1562389,
        "entry_name": "Konsa FC",
        "event_total": 70,
        "has_played": true,
        "id": 10913340,
        "last_rank": 95890,
        "player_name": "Vedant Kumar",
        "rank": 67076,
        "rank_sort": 67152,
        "total": 2342
      },
      {
        "club_badge_src": null,
        "entry": 1562963,
        "entry_name": "Obi-Wan Iwobi",
        "event_total": 57,
        "has_played": true,
        "id": 10917506,
        "last_rank": 68216,
        "player_name": "jacob singh",
        "rank": 67076,
        "rank_sort": 67153,
        "total": 2342
      },
      {
        "club_badge_src": null,
        "entry": 1640412,
        "entry_name": "Change Name",
        "event_total": 37,
        "has_played": true,
        "id": 11482927,
        "last_rank": 36831,
        "player_name": "Hugh Page",
        "rank": 67076,
        "rank_sort": 67154,
        "total": 2342
      },
      {
        "club_badge_src": "https://fantasy.premierleague.com/gcs/plfpl-production-adobe-approved/plfpl-production/1670664/d88c435a-13a9-44c6-94c6-24ee65d8fb63.png",
        "entry": 1670664,
        "entry_name": "Raquinho FC",
        "event_total": 45,
        "has_played": true,
        "id": 11696965,
        "last_rank": 47812,
        "player_name": "James Borowski",
        "rank": 67076,
        "rank_sort": 67155,
        "total": 2342
      },
      {
        "club_badge_src": null,
        "entry": 1768792,
        "entry_name": "Fierce321",
        "event_total": 73,
        "has_played": true,
        "id": 12425185,
        "last_rank": 84731,
        "player_name": "Mahmoud Ahmed",
        "rank": 67076,
        "rank_sort": 67156,
        "total": 2342
      },
      {
        "club_badge_src": null,
        "entry": 1901200,
        "entry_name": "Man You Knighted",
        "event_total": 69,
        "has_played": true,
        "id": 13402209,
        "last_rank": 84980,
        "player_name": "Emmanuel Chinhoyi",
        "rank": 67076,
        "rank_sort": 67157,
        "total": 2342
      },
      {
        "club_badge_src": null,
        "entry": 1912175,
        "entry_name": "aziz",
        "event_total": 53,
        "has_played": true,
        "id": 13481402,
        "last_rank": 60827,
        "player_name": "abdelaziz makhlouki",
        "rank": 67076,
        "rank_sort": 67158,
        "total": 2342
      },
      {
        "club_badge_src": null,
        "entry": 2047577,
        "entry_name": "Dalholt United",
        "event_total": 52,
        "has_played": true,
        "id": 14501991,
        "last_rank": 59170,
        "player_name": "Ralph Martin Dalholt",
        "rank": 67076,
        "rank_sort": 67159,
        "total": 2342
      },
      {
        "club_badge_src": null,
        "entry": 2183298,
        "entry_name": "Baldiola",
        "event_total": 61,
        "has_played": true,
        "id": 15529801,
        "last_rank": 76128,
        "player_name": "Dara Baldiola",
        "rank": 67076,
        "rank_sort": 67160,
        "total": 2342
      },
      {
        "club_badge_src": null,
        "entry": 2219674,
        "entry_name": "Mcdinhio United",
        "event_total": 57,
        "has_played": true,
        "id": 15808983,
        "last_rank": 67926,
        "player_name": "Sander Loen",
        "rank": 67076,
        "rank_sort": 67161,
        "total": 2342
      },
      {
        "club_badge_src": null,
        "entry": 2366408,
        "entry_name": "FC Skins",
        "event_total": 59,
        "has_played": true,
        "id": 16891435,
        "last_rank": 72145,
        "player_name": "Jon Hoskins",
        "rank": 67076,
        "rank_sort": 67162,
        "total": 2342
      },
      {
        "club_badge_src": null,
        "entry": 2471007,
        "entry_name": "Meadsy",
        "event_total": 57,
        "has_played": true,
        "id": 17677224,
        "last_rank": 60462,
        "player_name": "Alex Meads",
        "rank": 67076,
        "rank_sort": 67163,
        "total": 2342
      },
      {
        "club_badge_src": null,
        "entry": 2571580,
        "entry_name": "I tak przegram",
        "event_total": 66,
        "has_played": true,
        "id": 18452308,
        "last_rank": 77999,
        "player_name": "Zygzak McQueen",
        "rank": 67076,
        "rank_sort": 67164,
        "total": 2342
      },
      {
        "club_badge_src": null,
        "entry": 2596179,
        "entry_name": "PARTYAH20",
        "event_total": 54,
        "has_played": true,
        "id": 18643082,
        "last_rank": 55514,
        "player_name": "Aaron Hicken",
        "rank": 67076,
        "rank_sort": 67165,
        "total": 2342
      },
      {
        "club_badge_src": null,
        "entry": 2605917,
        "entry_name": "Werners Vikinger",
        "event_total": 55,
        "has_played": true,
        "id": 18718942,
        "last_rank": 57001,
        "player_name": "Dennis Mortensen",
        "rank": 67076,
        "rank_sort": 67166,
        "total": 2342
      },
      {
        "club_badge_src": null,
        "entry": 2619524,
        "entry_name": "hta",
        "event_total": 59,
        "has_played": true,
        "id": 18822269,
        "last_rank": 64005,
        "player_name": "Orel Primo",
        "rank": 67076,
        "rank_sort": 67167,
        "total": 2342
      },
      {
        "club_badge_src": null,
        "entry": 2828688,
        "entry_name": "St Jomstone",
        "event_total": 56,
        "has_played": true,
        "id": 20669080,
        "last_rank": 66200,
        "player_name": "David James",
        "rank": 67076,
        "rank_sort": 67168,
        "total": 2342
      },
      {
        "club_badge_src": null,
        "entry": 2886177,
        "entry_name": "Freemoney again 11",
        "event_total": 62,
        "has_played": true,
        "id": 21130034,
        "last_rank": 78440,
        "player_name": "Paul Robinson",
        "rank": 67076,
        "rank_sort": 67169,
        "total": 2342
      },
      {
        "club_badge_src": null,
        "entry": 2916215,
        "entry_name": "OLE OLE OLE OLE",
        "event_total": 62,
        "has_played": true,
        "id": 21375398,
        "last_rank": 78440,
        "player_name": "Oliver Stokes",
        "rank": 67076,
        "rank_sort": 67170,
        "total": 2342
      },
      {
        "club_badge_src": null,
        "entry": 3117749,
        "entry_name": "\u0418\u0442\u0430\u043b\u044c\u044f\u043d\u0435\u0446",
        "event_total": 59,
        "has_played": true,
        "id": 23006931,
        "last_rank": 72145,
        "player_name": "\u042e\u0440\u0456\u0439 \u0414\u0438\u043c\u0430\u0440\u044c",
        "rank": 67076,
        "rank_sort": 67171,
        "total": 2342
      },
      {
        "club_badge_src": null,
        "entry": 3239212,
        "entry_name": "Hamilton",
        "event_total": 68,
        "has_played": true,
        "id": 23959138,
        "last_rank": 92471,
        "player_name": "Fred Hamilton",
        "rank": 67076,
        "rank_sort": 67172,
        "total": 2342
      },
      {
        "club_badge_src": null,
        "entry": 3455475,
        "entry_name": "Stopp en Hall",
        "event_total": 47,
        "has_played": true,
        "id": 25681563,
        "last_rank": 50772,
        "player_name": "Truls Bonnegolt",
        "rank": 67076,
        "rank_sort": 67173,
        "total": 2342
      },
      {
        "club_badge_src": null,
        "entry": 3477559,
        "entry_name": "Victor Moses Lawn",
        "event_total": 66,
        "has_played": true,
        "id": 25857568,
        "last_rank": 78244,
        "player_name": "sam pearce",
        "rank": 67076,
        "rank_sort": 67174,
        "total": 2342
      },
      {
        "club_badge_src": null,
        "entry": 3562851,
        "entry_name": "Sickbay",
        "event_total": 74,
        "has_played": true,
        "id": 26527778,
        "last_rank": 107702,
        "player_name": "Oghie Sheehy",
        "rank": 67076,
        "rank_sort": 67175,
        "total": 2342
      },
      {
        "club_badge_src": null,
        "entry": 3643975,
        "entry_name": "Reijn ders SonBurn",
        "event_total": 57,
        "has_played": true,
        "id": 27158197,
        "last_rank": 67926,
        "player_name": "Steven Yun",
        "rank": 67076,
        "rank_sort": 67176,
        "total": 2342
      },
      {
        "club_badge_src": null,
        "entry": 3654677,
        "entry_name": "Minus4_FC",
        "event_total": 56,
        "has_played": true,
        "id": 27244212,
        "last_rank": 66200,
        "player_name": "Muhib Hoque",
        "rank": 67076,
        "rank_sort": 67177,
        "total": 2342
      },
      {
        "club_badge_src": null,
        "entry": 3683925,
        "entry_name": "Bruno Dos Tres",
        "event_total": 47,
        "has_played": true,
        "id": 27480655,
        "last_rank": 50772,
        "player_name": "Muhammad Dawoud",
        "rank": 67076,
        "rank_sort": 67178,
        "total": 2342
      },
      {
        "club_badge_src": "https://fantasy.premierleague.com/gcs/plfpl-production-adobe-approved/plfpl-production/3700749/b056917f-cd0d-4f76-b24d-496991a80945.png",
        "entry": 3700749,
        "entry_name": "The Blues",
        "event_total": 57,
        "has_played": true,
        "id": 27611582,
        "last_rank": 60671,
        "player_name": "Jyoti Sankar Basak",
        "rank": 67076,
        "rank_sort": 67179,
        "total": 2342
      },
      {
        "club_badge_src": null,
        "entry": 3707119,
        "entry_name": "Haalandaise Sauce",
        "event_total": 53,
        "has_played": true,
        "id": 27660874,
        "last_rank": 60827,
        "player_name": "Eric Lam",
        "rank": 67076,
        "rank_sort": 67180,
        "total": 2342
      },
      {
        "club_badge_src": null,
        "entry": 3742167,
        "entry_name": "RetiredRangers",
        "event_total": 70,
        "has_played": true,
        "id": 27934848,
        "last_rank": 97305,
        "player_name": "paul merritt",
        "rank": 67076,
        "rank_sort": 67181,
        "total": 2342
      },
      {
        "club_badge_src": null,
        "entry": 3781588,
        "entry_name": "chickenrice",
        "event_total": 60,
        "has_played": true,
        "id": 28238159,
        "last_rank": 66057,
        "player_name": "Zhi Ren Liew",
        "rank": 67076,
        "rank_sort": 67182,
        "total": 2342
      },
      {
        "club_badge_src": null,
        "entry": 3986037,
        "entry_name": "manduzalon",
        "event_total": 61,
        "has_played": true,
        "id": 30010219,
        "last_rank": 67926,
        "player_name": "Yakubu Muhammad",
        "rank": 67076,
        "rank_sort": 67183,
        "total": 2342
      },
      {
        "club_badge_src": null,
        "entry": 4022813,
        "entry_name": "Matz Sels Seashells",
        "event_total": 69,
        "has_played": true,
        "id": 30321088,
        "last_rank": 84980,
        "player_name": "Matt Catt",
        "rank": 67076,
        "rank_sort": 67184,
        "total": 2342
      },
      {
        "club_badge_src": null,
        "entry": 4073444,
        "entry_name": "Wahimbay Nation",
        "event_total": 68,
        "has_played": true,
        "id": 30747141,
        "last_rank": 92332,
        "player_name": "Ed T",
        "rank": 67076,
        "rank_sort": 67185,
        "total": 2342
      },
      {
        "club_badge_src": null,
        "entry": 4100503,
        "entry_name": "Three Peat",
        "event_total": 67,
        "has_played": true,
        "id": 30963647,
        "last_rank": 89897,
        "player_name": "EMIL DEHLHOLM",
        "rank": 67076,
        "rank_sort": 67186,
        "total": 2342
      },
      {
        "club_badge_src": null,
        "entry": 4128495,
        "entry_name": "Gunnerbah\u00e7e FC",
        "event_total": 58,
        "has_played": true,
        "id": 31196912,
        "last_rank": 69907,
        "player_name": "Kaan Arat",
        "rank": 67076,
        "rank_sort": 67187,
        "total": 2342
      },
      {
        "club_badge_src": null,
        "entry": 4193512,
        "entry_name": "Comebackkid",
        "event_total": 51,
        "has_played": true,
        "id": 31737714,
        "last_rank": 57358,
        "player_name": "Prashanth Nair",
        "rank": 67076,
        "rank_sort": 67188,
        "total": 2342
      },
      {
        "club_badge_src": null,
        "entry": 4247471,
        "entry_name": "Dr Yafiee",
        "event_total": 67,
        "has_played": true,
        "id": 32195327,
        "last_rank": 89897,
        "player_name": "Dr Yafiee",
        "rank": 67076,
        "rank_sort": 67189,
        "total": 2342
      },
      {
        "club_badge_src": null,
        "entry": 4255482,
        "entry_name": "Erling me Softly",
        "event_total": 44,
        "has_played": true,
        "id": 32261518,
        "last_rank": 46236,
        "player_name": "Kemishka Ragoobeer",
        "rank": 67076,
        "rank_sort": 67190,
        "total": 2342
      },
      {
        "club_badge_src": null,
        "entry": 4296104,
        "entry_name": "Skjerves Utvalgte",
        "event_total": 77,
        "has_played": true,
        "id": 32591048,
        "last_rank": 115760,
        "player_name": "Kristian Skjerve",
        "rank": 67076,
        "rank_sort": 67191,
        "total": 2342
      },
      {
        "club_badge_src": null,
        "entry": 4369611,
        "entry_name": "TheMaft",
        "event_total": 68,
        "has_played": true,
        "id": 33195808,
        "last_rank": 92126,
        "player_name": "Timileyin Fadare",
        "rank": 67076,
        "rank_sort": 67192,
        "total": 2342
      },
      {
        "club_badge_src": null,
        "entry": 4376523,
        "entry_name": "FFMGOONZ",
        "event_total": 58,
        "has_played": true,
        "id": 33254882,
        "last_rank": 70072,
        "player_name": "Tilmann Sch\u00f6newald",
        "rank": 67076,
        "rank_sort": 67193,
        "total": 2342
      },
      {
        "club_badge_src": null,
        "entry": 4469513,
        "entry_name": "CXCVIII",
        "event_total": 76,
        "has_played": true,
        "id": 34058132,
        "last_rank": 102125,
        "player_name": "Phil Stimpson",
        "rank": 67076,
        "rank_sort": 67194,
        "total": 2342
      },
      {
        "club_badge_src": "https://fantasy.premierleague.com/gcs/plfpl-production-adobe-approved/plfpl-production/4608924/2e94caf6-a5f0-4515-a4f2-d19ba05d4c71.png",
        "entry": 4608924,
        "entry_name": "Band of Brothers",
        "event_total": 67,
        "has_played": true,
        "id": 35216075,
        "last_rank": 80465,
        "player_name": "Christian Victor Wiig",
        "rank": 67076,
        "rank_sort": 67195,
        "total": 2342
      },
      {
        "club_badge_src": null,
        "entry": 4666204,
        "entry_name": "lothbrook",
        "event_total": 69,
        "has_played": true,
        "id": 35740087,
        "last_rank": 84980,
        "player_name": "Brempong Boateng",
        "rank": 67076,
        "rank_sort": 67196,
        "total": 2342
      },
      {
        "club_badge_src": null,
        "entry": 4669658,
        "entry_name": "vrlosmolagani",
        "event_total": 62,
        "has_played": true,
        "id": 35768656,
        "last_rank": 78440,
        "player_name": "Mario \u0160aran",
        "rank": 67076,
        "rank_sort": 67197,
        "total": 2342
      },
      {
        "club_badge_src": null,
        "entry": 4713434,
        "entry_name": "Year of the Big Man",
        "event_total": 69,
        "has_played": true,
        "id": 36176087,
        "last_rank": 94537,
        "player_name": "Nathan Lacey",
        "rank": 67076,
        "rank_sort": 67198,
        "total": 2342
      },
      {
        "club_badge_src": "https://fantasy.premierleague.com/gcs/plfpl-production-adobe-approved/plfpl-production/4776803/f8339949-6231-481f-a2ba-ecb591347767.png",
        "entry": 4776803,
        "entry_name": "Hyperfokus",
        "event_total": 51,
        "has_played": true,
        "id": 36770532,
        "last_rank": 50635,
        "player_name": "Bernt V\u00e5rdal",
        "rank": 67076,
        "rank_sort": 67199,
        "total": 2342
      },
      {
        "club_badge_src": null,
        "entry": 5006912,
        "entry_name": "ahmed177",
        "event_total": 54,
        "has_played": true,
        "id": 38662887,
        "last_rank": 62617,
        "player_name": "Ahmed Hakami",
        "rank": 67076,
        "rank_sort": 67200,
        "total": 2342
      }
    ]
  }
}