{
  "last_updated_data": "2026-05-24T23:28:17Z",
  "league": {
    "admin_entry": null,
    "closed": false,
    "code_privacy": "p",
    "created": "2025-07-20T23:14:33.933835Z",
    "cup_league": 2815434,
    "has_cup": true,
    "id": 314,
    "league_type": "s",
    "max_entries": null,
    "name": "Overall",
    "rank": null,
    "scoring": "c",
    "start_event": 1
  },
  "new_entries": {
    "has_next": false,
    "page": 1,
    "results": []
  },
  "standings": {
    "has_next": true,
    "page": 86,
    "results": [
      {
        "club_badge_src": null,
        "entry": 59428,
        "entry_name": "jgc fc",
        "event_total": 62,
        "has_played": true,
        "id": 382715,
        "last_rank": 4930,
        "player_name": "Levi Geerdink",
        "rank": 4243,
        "rank_sort": 4251,
        "total": 2418
      },
      {
        "club_badge_src": null,
        "entry": 69553,
        "entry_name": "Brighton My Days",
        "event_total": 69,
        "has_played": true,
        "id": 451235,
        "last_rank": 6703,
        "player_name": "Dani Baloney",
        "rank": 4243,
        "rank_sort": 4252,
        "total": 2418
      },
      {
        "club_badge_src": "https://fantasy.premierleague.com/gcs/plfpl-production-adobe-approved/plfpl-production/104846/e99f06a1-6e2d-424e-98f9-ea05bc31dbf2.png",
        "entry": 104846,
        "entry_name": "Dalot Expectations",
        "event_total": 59,
        "has_played": true,
        "id": 683882,
        "last_rank": 4270,
        "player_name": "Jake OmniFPL",
        "rank": 4243,
        "rank_sort": 4253,
        "total": 2418
      },
      {
        "club_badge_src": null,
        "entry": 108680,
        "entry_name": "ads lads",
        "event_total": 62,
        "has_played": true,
        "id": 708546,
        "last_rank": 5011,
        "player_name": "adam wilkins",
        "rank": 4243,
        "rank_sort": 4254,
        "total": 2418
      },
      {
        "club_badge_src": null,
        "entry": 123735,
        "entry_name": "OH TOMMY TOMMY",
        "event_total": 74,
        "has_played": true,
        "id": 807046,
        "last_rank": 8320,
        "player_name": "Ben Rose",
        "rank": 4243,
        "rank_sort": 4255,
        "total": 2418
      },
      {
        "club_badge_src": null,
        "entry": 182674,
        "entry_name": "DaceMitrov",
        "event_total": 55,
        "has_played": true,
        "id": 1205574,
        "last_rank": 3562,
        "player_name": "Dragan Mitrov",
        "rank": 4243,
        "rank_sort": 4256,
        "total": 2418
      },
      {
        "club_badge_src": null,
        "entry": 204100,
        "entry_name": "Pass to Demba Ba",
        "event_total": 64,
        "has_played": true,
        "id": 1356340,
        "last_rank": 5400,
        "player_name": "Emil Eriksson",
        "rank": 4243,
        "rank_sort": 4257,
        "total": 2418
      },
      {
        "club_badge_src": "https://fantasy.premierleague.com/gcs/plfpl-production-adobe-approved/plfpl-production/331887/2b179ad1-13a9-4af8-9e68-ede3b33c83ac.png",
        "entry": 331887,
        "entry_name": "Str\u00e4ckt Wirtz",
        "event_total": 64,
        "has_played": true,
        "id": 2222928,
        "last_rank": 5400,
        "player_name": "Joakim Thoor",
        "rank": 4243,
        "rank_sort": 4258,
        "total": 2418
      },
      {
        "club_badge_src": null,
        "entry": 401975,
        "entry_name": "Real McSauciedad",
        "event_total": 56,
        "has_played": true,
        "id": 2695348,
        "last_rank": 3699,
        "player_name": "Andrew Mackenzie",
        "rank": 4243,
        "rank_sort": 4259,
        "total": 2418
      },
      {
        "club_badge_src": null,
        "entry": 459598,
        "entry_name": "Team WinALot",
        "event_total": 74,
        "has_played": true,
        "id": 3083193,
        "last_rank": 8312,
        "player_name": "Sebastian Pedersen",
        "rank": 4243,
        "rank_sort": 4260,
        "total": 2418
      },
      {
        "club_badge_src": null,
        "entry": 460965,
        "entry_name": "Riverview Raiders",
        "event_total": 60,
        "has_played": true,
        "id": 3092196,
        "last_rank": 4515,
        "player_name": "Colm Doyle",
        "rank": 4243,
        "rank_sort": 4261,
        "total": 2418
      },
      {
        "club_badge_src": null,
        "entry": 557763,
        "entry_name": "Could be Wirtz",
        "event_total": 67,
        "has_played": true,
        "id": 3753718,
        "last_rank": 6194,
        "player_name": "Tom Hames",
        "rank": 4243,
        "rank_sort": 4262,
        "total": 2418
      },
      {
        "club_badge_src": "https://fantasy.premierleague.com/gcs/plfpl-production-adobe-approved/plfpl-production/649895/a434e61a-6ac6-4135-bf71-33f9c32e938c.png",
        "entry": 649895,
        "entry_name": "Kingdaou",
        "event_total": 50,
        "has_played": true,
        "id": 4392153,
        "last_rank": 2824,
        "player_name": "Ghadi Daou",
        "rank": 4243,
        "rank_sort": 4263,
        "total": 2418
      },
      {
        "club_badge_src": null,
        "entry": 699982,
        "entry_name": "Jurgen Kurup",
        "event_total": 60,
        "has_played": true,
        "id": 4742072,
        "last_rank": 4488,
        "player_name": "Rayvind Kurup",
        "rank": 4243,
        "rank_sort": 4264,
        "total": 2418
      },
      {
        "club_badge_src": null,
        "entry": 710132,
        "entry_name": "Hakuna JuanMata",
        "event_total": 58,
        "has_played": true,
        "id": 4815611,
        "last_rank": 4099,
        "player_name": "Reza Rasool",
        "rank": 4243,
        "rank_sort": 4265,
        "total": 2418
      },
      {
        "club_badge_src": "https://fantasy.premierleague.com/gcs/plfpl-production-adobe-approved/plfpl-production/737034/439beeb6-5665-4a2f-a2d6-767e811be382.png",
        "entry": 737034,
        "entry_name": "Union Of One \u26bd\ufe0f\u26bd\ufe0f\u26bd\ufe0f",
        "event_total": 54,
        "has_played": true,
        "id": 5010584,
        "last_rank": 3408,
        "player_name": "Darren Bedford",
        "rank": 4243,
        "rank_sort": 4266,
        "total": 2418
      },
      {
        "club_badge_src": null,
        "entry": 744292,
        "entry_name": "A Glasner Schade-nay",
        "event_total": 59,
        "has_played": true,
        "id": 5062976,
        "last_rank": 4270,
        "player_name": "Daniel Hagger",
        "rank": 4243,
        "rank_sort": 4267,
        "total": 2418
      },
      {
        "club_badge_src": "https://fantasy.premierleague.com/gcs/plfpl-production-adobe-approved/plfpl-production/880004/041fee49-1be7-4a16-80e9-9acdd59bbbc6.png",
        "entry": 880004,
        "entry_name": "FlamesOn",
        "event_total": 46,
        "has_played": true,
        "id": 6034657,
        "last_rank": 2300,
        "player_name": "Yuvraj Bashyal",
        "rank": 4243,
        "rank_sort": 4268,
        "total": 2418
      },
      {
        "club_badge_src": null,
        "entry": 881540,
        "entry_name": "FUKURO Wash",
        "event_total": 66,
        "has_played": true,
        "id": 6045383,
        "last_rank": 5904,
        "player_name": "Akung Kriangkrai",
        "rank": 4243,
        "rank_sort": 4269,
        "total": 2418
      },
      {
        "club_badge_src": "https://fantasy.premierleague.com/gcs/plfpl-production-adobe-approved/plfpl-production/902887/22785779-5eb7-4ea2-835d-dcc877768e7a.png",
        "entry": 902887,
        "entry_name": "boxtobox",
        "event_total": 47,
        "has_played": true,
        "id": 6203895,
        "last_rank": 2418,
        "player_name": "oz isaac",
        "rank": 4243,
        "rank_sort": 4270,
        "total": 2418
      },
      {
        "club_badge_src": null,
        "entry": 1112040,
        "entry_name": "InThePalmerMyHand",
        "event_total": 66,
        "has_played": true,
        "id": 7702951,
        "last_rank": 5940,
        "player_name": "Daniel Clemson",
        "rank": 4243,
        "rank_sort": 4271,
        "total": 2418
      },
      {
        "club_badge_src": null,
        "entry": 1256316,
        "entry_name": "FK Bela Palanka",
        "event_total": 62,
        "has_played": true,
        "id": 8726783,
        "last_rank": 4954,
        "player_name": "Nikola Jovanovic",
        "rank": 4243,
        "rank_sort": 4272,
        "total": 2418
      },
      {
        "club_badge_src": null,
        "entry": 1267995,
        "entry_name": "CTRL ALT De Ligt",
        "event_total": 74,
        "has_played": true,
        "id": 8810120,
        "last_rank": 8382,
        "player_name": "Fatheur Rahman",
        "rank": 4243,
        "rank_sort": 4273,
        "total": 2418
      },
      {
        "club_badge_src": null,
        "entry": 1274973,
        "entry_name": "Lee Gwan",
        "event_total": 56,
        "has_played": true,
        "id": 8859270,
        "last_rank": 3721,
        "player_name": "Tom Evans",
        "rank": 4243,
        "rank_sort": 4274,
        "total": 2418
      },
      {
        "club_badge_src": "https://fantasy.premierleague.com/gcs/plfpl-production-adobe-approved/plfpl-production/1449191/bdd926fb-a24f-4c23-b712-7eab83db8899.png",
        "entry": 1449191,
        "entry_name": "Morton\u2019s Wolves",
        "event_total": 46,
        "has_played": true,
        "id": 10098077,
        "last_rank": 2300,
        "player_name": "Scott Morton",
        "rank": 4243,
        "rank_sort": 4275,
        "total": 2418
      },
      {
        "club_badge_src": null,
        "entry": 1707663,
        "entry_name": "Jose Chelski",
        "event_total": 70,
        "has_played": true,
        "id": 11963835,
        "last_rank": 7014,
        "player_name": "Oscar Wilde",
        "rank": 4243,
        "rank_sort": 4276,
        "total": 2418
      },
      {
        "club_badge_src": null,
        "entry": 1842020,
        "entry_name": "fantasybot",
        "event_total": 66,
        "has_played": true,
        "id": 12959511,
        "last_rank": 5894,
        "player_name": "Pavan PB",
        "rank": 4243,
        "rank_sort": 4277,
        "total": 2418
      },
      {
        "club_badge_src": null,
        "entry": 1848501,
        "entry_name": "Red Stripe Belgrade",
        "event_total": 71,
        "has_played": true,
        "id": 13006979,
        "last_rank": 7310,
        "player_name": "Tim Hooper",
        "rank": 4243,
        "rank_sort": 4278,
        "total": 2418
      },
      {
        "club_badge_src": null,
        "entry": 1879336,
        "entry_name": "Bakarv\u00e5gen FC",
        "event_total": 69,
        "has_played": true,
        "id": 13240429,
        "last_rank": 6703,
        "player_name": "Lars Ringdal",
        "rank": 4243,
        "rank_sort": 4279,
        "total": 2418
      },
      {
        "club_badge_src": null,
        "entry": 1906356,
        "entry_name": "CAS7",
        "event_total": 65,
        "has_played": true,
        "id": 13439302,
        "last_rank": 5646,
        "player_name": "Bj\u00f8rn Brathaug",
        "rank": 4243,
        "rank_sort": 4280,
        "total": 2418
      },
      {
        "club_badge_src": null,
        "entry": 2028630,
        "entry_name": "Carrick Era Pending",
        "event_total": 50,
        "has_played": true,
        "id": 14361454,
        "last_rank": 2824,
        "player_name": "Robin Bradley",
        "rank": 4243,
        "rank_sort": 4281,
        "total": 2418
      },
      {
        "club_badge_src": null,
        "entry": 2086520,
        "entry_name": "Cunha Believe It?",
        "event_total": 64,
        "has_played": true,
        "id": 14802982,
        "last_rank": 5448,
        "player_name": "Joshua Hilliard",
        "rank": 4243,
        "rank_sort": 4282,
        "total": 2418
      },
      {
        "club_badge_src": null,
        "entry": 2299308,
        "entry_name": "Cunha keep up",
        "event_total": 69,
        "has_played": true,
        "id": 16399387,
        "last_rank": 6703,
        "player_name": "thomas evans",
        "rank": 4243,
        "rank_sort": 4283,
        "total": 2418
      },
      {
        "club_badge_src": null,
        "entry": 2490991,
        "entry_name": "No Spuds Allowed",
        "event_total": 65,
        "has_played": true,
        "id": 17832983,
        "last_rank": 5632,
        "player_name": "Tony O'Donovan",
        "rank": 4243,
        "rank_sort": 4284,
        "total": 2418
      },
      {
        "club_badge_src": null,
        "entry": 2702791,
        "entry_name": "dlshad 2",
        "event_total": 50,
        "has_played": true,
        "id": 19443968,
        "last_rank": 2824,
        "player_name": "dlshad surchi",
        "rank": 4243,
        "rank_sort": 4285,
        "total": 2418
      },
      {
        "club_badge_src": null,
        "entry": 2883053,
        "entry_name": "Fc Simpii",
        "event_total": 67,
        "has_played": true,
        "id": 21106002,
        "last_rank": 6194,
        "player_name": "Simon-Pierre B\u00e9langer",
        "rank": 4243,
        "rank_sort": 4286,
        "total": 2418
      },
      {
        "club_badge_src": null,
        "entry": 3252265,
        "entry_name": "The ME's",
        "event_total": 71,
        "has_played": true,
        "id": 24062607,
        "last_rank": 7333,
        "player_name": "Mike Evans",
        "rank": 4243,
        "rank_sort": 4287,
        "total": 2418
      },
      {
        "club_badge_src": null,
        "entry": 3297401,
        "entry_name": "Zubi Doo",
        "event_total": 70,
        "has_played": true,
        "id": 24419312,
        "last_rank": 6994,
        "player_name": "Adam Hayani",
        "rank": 4243,
        "rank_sort": 4288,
        "total": 2418
      },
      {
        "club_badge_src": null,
        "entry": 3518977,
        "entry_name": "Trying Again",
        "event_total": 72,
        "has_played": true,
        "id": 26187393,
        "last_rank": 7625,
        "player_name": "N V",
        "rank": 4243,
        "rank_sort": 4289,
        "total": 2418
      },
      {
        "club_badge_src": null,
        "entry": 4130200,
        "entry_name": "BoomSakalaka",
        "event_total": 60,
        "has_played": true,
        "id": 31210773,
        "last_rank": 4471,
        "player_name": "Chris Porges",
        "rank": 4243,
        "rank_sort": 4290,
        "total": 2418
      },
      {
        "club_badge_src": "https://fantasy.premierleague.com/gcs/plfpl-production-adobe-approved/plfpl-production/4216840/6a4745f8-4fdb-489f-8b19-504f744722d0.png",
        "entry": 4216840,
        "entry_name": "The Slot Machines",
        "event_total": 67,
        "has_played": true,
        "id": 31935379,
        "last_rank": 6154,
        "player_name": "Erik Nettestad",
        "rank": 4243,
        "rank_sort": 4291,
        "total": 2418
      },
      {
        "club_badge_src": "https://fantasy.premierleague.com/gcs/plfpl-production-adobe-approved/plfpl-production/4421456/7ebad2ab-dfa4-44d9-88f1-bc7fcad14bf3.png",
        "entry": 4421456,
        "entry_name": "Finding my Seoul 3.0",
        "event_total": 66,
        "has_played": true,
        "id": 33641161,
        "last_rank": 5940,
        "player_name": "Robert Browell",
        "rank": 4243,
        "rank_sort": 4292,
        "total": 2418
      },
      {
        "club_badge_src": null,
        "entry": 4456070,
        "entry_name": "Nice to Michu",
        "event_total": 40,
        "has_played": true,
        "id": 33944784,
        "last_rank": 1712,
        "player_name": "Jamie Cummins",
        "rank": 4243,
        "rank_sort": 4293,
        "total": 2418
      },
      {
        "club_badge_src": "https://fantasy.premierleague.com/gcs/plfpl-production-adobe-approved/plfpl-production/4467356/97984055-15fc-4ff0-9601-ba3aeeb662b1.png",
        "entry": 4467356,
        "entry_name": "Ndiaye Will Do Beto",
        "event_total": 56,
        "has_played": true,
        "id": 34040929,
        "last_rank": 3721,
        "player_name": "Michael Byrne",
        "rank": 4243,
        "rank_sort": 4294,
        "total": 2418
      },
      {
        "club_badge_src": "https://fantasy.premierleague.com/gcs/plfpl-production-adobe-approved/plfpl-production/4715098/d2353927-d6bb-4508-8cdc-4cd2cc398dfa.png",
        "entry": 4715098,
        "entry_name": "Al_noby",
        "event_total": 68,
        "has_played": true,
        "id": 36196448,
        "last_rank": 6392,
        "player_name": "Ahmed Essam",
        "rank": 4243,
        "rank_sort": 4295,
        "total": 2418
      },
      {
        "club_badge_src": null,
        "entry": 4822698,
        "entry_name": "Cold Palmer FC",
        "event_total": 73,
        "has_played": true,
        "id": 37139299,
        "last_rank": 7979,
        "player_name": "Ivan You",
        "rank": 4243,
        "rank_sort": 4296,
        "total": 2418
      },
      {
        "club_badge_src": "https://fantasy.premierleague.com/gcs/plfpl-production-adobe-approved/plfpl-production/5517735/627bbba3-a99c-4ba5-b79f-e04d94dbb9c7.png",
        "entry": 5517735,
        "entry_name": "Martial Law FC",
        "event_total": 50,
        "has_played": true,
        "id": 43021385,
        "last_rank": 2824,
        "player_name": "Randall Roof",
        "rank": 4243,
        "rank_sort": 4297,
        "total": 2418
      },
      {
        "club_badge_src": null,
        "entry": 5681164,
        "entry_name": "NickNacks",
        "event_total": 59,
        "has_played": true,
        "id": 44464949,
        "last_rank": 4270,
        "player_name": "Neil Sachdev",
        "rank": 4243,
        "rank_sort": 4298,
        "total": 2418
      },
      {
        "club_badge_src": "https://fantasy.premierleague.com/gcs/plfpl-production-adobe-approved/plfpl-production/5810632/c217559c-3413-4e0b-a531-6cf9c7263fc3.png",
        "entry": 5810632,
        "entry_name": "Gila lah",
        "event_total": 59,
        "has_played": true,
        "id": 45591566,
        "last_rank": 4358,
        "player_name": "Arif Ibrahim",
        "rank": 4243,
        "rank_sort": 4299,
        "total": 2418
      },
      {
        "club_badge_src": null,
        "entry": 6177636,
        "entry_name": "Daradona",
        "event_total": 72,
        "has_played": true,
        "id": 48852026,
        "last_rank": 7676,
        "player_name": "Elias Marfavi",
        "rank": 4243,
        "rank_sort": 4300,
        "total": 2418
      }
    ]
  }
}