{
  "last_updated_data": "2026-05-24T23:28:17Z",
  "league": {
    "admin_entry": null,
    "closed": false,
    "code_privacy": "p",
    "created": "2025-07-20T23:14:33.933835Z",
    "cup_league": 2815434,
    "has_cup": true,
    "id": 314,
    "league_type": "s",
    "max_entries": null,
    "name": "Overall",
    "rank": null,
    "scoring": "c",
    "start_event": 1
  },
  "new_entries": {
    "has_next": false,
    "page": 1,
    "results": []
  },
  "standings": {
    "has_next": true,
    "page": 234,
    "results": [
      {
        "club_badge_src": null,
        "entry": 290633,
        "entry_name": "FC skadeutsatt",
        "event_total": 56,
        "has_played": true,
        "id": 1938097,
        "last_rank": 10708,
        "player_name": "Halvor Kristensen",
        "rank": 11651,
        "rank_sort": 11651,
        "total": 2394
      },
      {
        "club_badge_src": null,
        "entry": 1730407,
        "entry_name": "World Champions CFC",
        "event_total": 62,
        "has_played": true,
        "id": 12136873,
        "last_rank": 13720,
        "player_name": "Phil Asen",
        "rank": 11651,
        "rank_sort": 11652,
        "total": 2394
      },
      {
        "club_badge_src": null,
        "entry": 2147687,
        "entry_name": "spurs got a trophy",
        "event_total": 49,
        "has_played": true,
        "id": 15265425,
        "last_rank": 7959,
        "player_name": "matt corbett",
        "rank": 11651,
        "rank_sort": 11653,
        "total": 2394
      },
      {
        "club_badge_src": null,
        "entry": 7071340,
        "entry_name": "Cunhalingus",
        "event_total": 67,
        "has_played": true,
        "id": 56901724,
        "last_rank": 16675,
        "player_name": "Aaron Duff",
        "rank": 11651,
        "rank_sort": 11654,
        "total": 2394
      },
      {
        "club_badge_src": null,
        "entry": 7730468,
        "entry_name": "FC Kurczaki",
        "event_total": 62,
        "has_played": true,
        "id": 63445338,
        "last_rank": 13710,
        "player_name": "Konrad Szczukiewicz",
        "rank": 11651,
        "rank_sort": 11655,
        "total": 2394
      },
      {
        "club_badge_src": null,
        "entry": 2529,
        "entry_name": "It's Too Eze",
        "event_total": 63,
        "has_played": true,
        "id": 14118,
        "last_rank": 14234,
        "player_name": "Ellis Gayle",
        "rank": 11656,
        "rank_sort": 11656,
        "total": 2394
      },
      {
        "club_badge_src": null,
        "entry": 97944,
        "entry_name": "Flairball",
        "event_total": 48,
        "has_played": true,
        "id": 639692,
        "last_rank": 7625,
        "player_name": "FPL Flair",
        "rank": 11656,
        "rank_sort": 11657,
        "total": 2394
      },
      {
        "club_badge_src": null,
        "entry": 457364,
        "entry_name": "Pathetico Madrid",
        "event_total": 56,
        "has_played": true,
        "id": 3068405,
        "last_rank": 10748,
        "player_name": "Tom Mccluskey",
        "rank": 11656,
        "rank_sort": 11658,
        "total": 2394
      },
      {
        "club_badge_src": null,
        "entry": 1147669,
        "entry_name": "No Hope",
        "event_total": 74,
        "has_played": true,
        "id": 7957324,
        "last_rank": 21609,
        "player_name": "Jack Kent",
        "rank": 11656,
        "rank_sort": 11659,
        "total": 2394
      },
      {
        "club_badge_src": null,
        "entry": 1927558,
        "entry_name": "The Cobblers",
        "event_total": 41,
        "has_played": true,
        "id": 13594407,
        "last_rank": 5624,
        "player_name": "Travis McDermott",
        "rank": 11656,
        "rank_sort": 11660,
        "total": 2394
      },
      {
        "club_badge_src": null,
        "entry": 2121806,
        "entry_name": "Kingston",
        "event_total": 52,
        "has_played": true,
        "id": 15072460,
        "last_rank": 9089,
        "player_name": "Brunsly Hearlen",
        "rank": 11656,
        "rank_sort": 11661,
        "total": 2394
      },
      {
        "club_badge_src": "https://fantasy.premierleague.com/gcs/plfpl-production-adobe-approved/plfpl-production/2568404/d50373c7-aea0-4274-898a-939a8a3b0dee.png",
        "entry": 2568404,
        "entry_name": "Elite Etihad",
        "event_total": 56,
        "has_played": true,
        "id": 18426141,
        "last_rank": 10748,
        "player_name": "Shamim Hossen",
        "rank": 11656,
        "rank_sort": 11662,
        "total": 2394
      },
      {
        "club_badge_src": null,
        "entry": 3729706,
        "entry_name": "Flawine FC",
        "event_total": 66,
        "has_played": true,
        "id": 27838263,
        "last_rank": 16029,
        "player_name": "Brent Flawine",
        "rank": 11656,
        "rank_sort": 11663,
        "total": 2394
      },
      {
        "club_badge_src": null,
        "entry": 5553838,
        "entry_name": "Rubber Digne Rapids",
        "event_total": 58,
        "has_played": true,
        "id": 43349618,
        "last_rank": 11608,
        "player_name": "Alex knight",
        "rank": 11656,
        "rank_sort": 11664,
        "total": 2394
      },
      {
        "club_badge_src": null,
        "entry": 6715018,
        "entry_name": "Levy La Vida Loca",
        "event_total": 56,
        "has_played": true,
        "id": 53739902,
        "last_rank": 10748,
        "player_name": "Jack Shilliam",
        "rank": 11656,
        "rank_sort": 11665,
        "total": 2394
      },
      {
        "club_badge_src": null,
        "entry": 8360485,
        "entry_name": "Maritza",
        "event_total": 60,
        "has_played": true,
        "id": 69302882,
        "last_rank": 12608,
        "player_name": "Angel Gospodinov",
        "rank": 11656,
        "rank_sort": 11666,
        "total": 2394
      },
      {
        "club_badge_src": "https://fantasy.premierleague.com/gcs/plfpl-production-adobe-approved/plfpl-production/9154732/32021c2c-7200-48ff-a0ef-ff1b73025ebb.png",
        "entry": 9154732,
        "entry_name": "Santa Yofre",
        "event_total": 65,
        "has_played": true,
        "id": 76986965,
        "last_rank": 15452,
        "player_name": "Petto Cantarutti",
        "rank": 11656,
        "rank_sort": 11667,
        "total": 2394
      },
      {
        "club_badge_src": "https://fantasy.premierleague.com/gcs/plfpl-production-adobe-approved/plfpl-production/2153/51b5be15-ed06-43a7-a054-ee1c3cc491eb.png",
        "entry": 2153,
        "entry_name": "Carvcelona",
        "event_total": 47,
        "has_played": true,
        "id": 11999,
        "last_rank": 7310,
        "player_name": "Chris Carver",
        "rank": 11668,
        "rank_sort": 11668,
        "total": 2394
      },
      {
        "club_badge_src": "https://fantasy.premierleague.com/gcs/plfpl-production-adobe-approved/plfpl-production/168293/115f163e-83b5-4853-8317-9913b05420cf.png",
        "entry": 168293,
        "entry_name": "Beaver Moon",
        "event_total": 66,
        "has_played": true,
        "id": 1112367,
        "last_rank": 16163,
        "player_name": "Vlad Ciubuc",
        "rank": 11668,
        "rank_sort": 11669,
        "total": 2394
      },
      {
        "club_badge_src": null,
        "entry": 496103,
        "entry_name": "Ajax Trees Down",
        "event_total": 84,
        "has_played": true,
        "id": 3329848,
        "last_rank": 30536,
        "player_name": "owen Curley",
        "rank": 11668,
        "rank_sort": 11670,
        "total": 2394
      },
      {
        "club_badge_src": null,
        "entry": 595370,
        "entry_name": "Matt Turner On",
        "event_total": 50,
        "has_played": true,
        "id": 4013633,
        "last_rank": 8339,
        "player_name": "Alex Duke",
        "rank": 11668,
        "rank_sort": 11671,
        "total": 2394
      },
      {
        "club_badge_src": null,
        "entry": 654994,
        "entry_name": "Mzansi for Shaw",
        "event_total": 68,
        "has_played": true,
        "id": 4426555,
        "last_rank": 17358,
        "player_name": "Stefan Leo",
        "rank": 11668,
        "rank_sort": 11672,
        "total": 2394
      },
      {
        "club_badge_src": null,
        "entry": 666364,
        "entry_name": "Johan's Journeymen",
        "event_total": 65,
        "has_played": true,
        "id": 4505410,
        "last_rank": 15416,
        "player_name": "John C",
        "rank": 11668,
        "rank_sort": 11673,
        "total": 2394
      },
      {
        "club_badge_src": "https://fantasy.premierleague.com/gcs/plfpl-production-adobe-approved/plfpl-production/797690/261a07b4-d7f1-4283-901c-8509b4b0d486.png",
        "entry": 797690,
        "entry_name": "AFC TopsanFingerz",
        "event_total": 50,
        "has_played": true,
        "id": 5459758,
        "last_rank": 8382,
        "player_name": "Steven Kellett",
        "rank": 11668,
        "rank_sort": 11674,
        "total": 2394
      },
      {
        "club_badge_src": "https://fantasy.premierleague.com/gcs/plfpl-production-adobe-approved/plfpl-production/896716/ae5000ed-a9dd-487a-a1ef-d726170d0696.png",
        "entry": 896716,
        "entry_name": "Kevin De Bruyne",
        "event_total": 57,
        "has_played": true,
        "id": 6160249,
        "last_rank": 11237,
        "player_name": "Olof N",
        "rank": 11668,
        "rank_sort": 11675,
        "total": 2394
      },
      {
        "club_badge_src": null,
        "entry": 1009367,
        "entry_name": "Ekitike-taka",
        "event_total": 56,
        "has_played": true,
        "id": 6978656,
        "last_rank": 10720,
        "player_name": "Edward Hick",
        "rank": 11668,
        "rank_sort": 11676,
        "total": 2394
      },
      {
        "club_badge_src": null,
        "entry": 1247503,
        "entry_name": "Wingate Fc",
        "event_total": 60,
        "has_played": true,
        "id": 8664045,
        "last_rank": 12608,
        "player_name": "Jack Wingate",
        "rank": 11668,
        "rank_sort": 11677,
        "total": 2394
      },
      {
        "club_badge_src": null,
        "entry": 1689992,
        "entry_name": "MeMyselfAndNdiaye",
        "event_total": 70,
        "has_played": true,
        "id": 11830763,
        "last_rank": 18632,
        "player_name": "Johnathon Adams",
        "rank": 11668,
        "rank_sort": 11678,
        "total": 2394
      },
      {
        "club_badge_src": null,
        "entry": 2431867,
        "entry_name": "whyalwaysme",
        "event_total": 42,
        "has_played": true,
        "id": 17389534,
        "last_rank": 5940,
        "player_name": "Tanatswa George Mukungurutse",
        "rank": 11668,
        "rank_sort": 11679,
        "total": 2394
      },
      {
        "club_badge_src": null,
        "entry": 3120033,
        "entry_name": "Kinder Mbeumo",
        "event_total": 64,
        "has_played": true,
        "id": 23024657,
        "last_rank": 14857,
        "player_name": "Dylan Coleman",
        "rank": 11668,
        "rank_sort": 11680,
        "total": 2394
      },
      {
        "club_badge_src": null,
        "entry": 3287391,
        "entry_name": "Jenkaboys",
        "event_total": 55,
        "has_played": true,
        "id": 24336623,
        "last_rank": 10288,
        "player_name": "P\u00e5l Wolleb\u00e6k J\u00f8rgensen",
        "rank": 11668,
        "rank_sort": 11681,
        "total": 2394
      },
      {
        "club_badge_src": null,
        "entry": 3512983,
        "entry_name": "Mr.MVP",
        "event_total": 63,
        "has_played": true,
        "id": 26140034,
        "last_rank": 14251,
        "player_name": "Harim Cano",
        "rank": 11668,
        "rank_sort": 11682,
        "total": 2394
      },
      {
        "club_badge_src": null,
        "entry": 3812560,
        "entry_name": "Gangsters Allardyce",
        "event_total": 59,
        "has_played": true,
        "id": 28508874,
        "last_rank": 12141,
        "player_name": "Adam Hurley",
        "rank": 11668,
        "rank_sort": 11683,
        "total": 2394
      },
      {
        "club_badge_src": null,
        "entry": 3999640,
        "entry_name": "Youtube FPL Expert",
        "event_total": 44,
        "has_played": true,
        "id": 30123889,
        "last_rank": 6392,
        "player_name": "Joshua Suares",
        "rank": 11668,
        "rank_sort": 11684,
        "total": 2394
      },
      {
        "club_badge_src": null,
        "entry": 4133569,
        "entry_name": "Reus Krispies",
        "event_total": 61,
        "has_played": true,
        "id": 31237500,
        "last_rank": 13257,
        "player_name": "Sahil Sandhu",
        "rank": 11668,
        "rank_sort": 11685,
        "total": 2394
      },
      {
        "club_badge_src": null,
        "entry": 4258495,
        "entry_name": "Brodie XI",
        "event_total": 62,
        "has_played": true,
        "id": 32286210,
        "last_rank": 13754,
        "player_name": "Sandy Brodie",
        "rank": 11668,
        "rank_sort": 11686,
        "total": 2394
      },
      {
        "club_badge_src": null,
        "entry": 4699051,
        "entry_name": "Team ETM",
        "event_total": 57,
        "has_played": true,
        "id": 36022682,
        "last_rank": 11175,
        "player_name": "Ella Melsom",
        "rank": 11668,
        "rank_sort": 11687,
        "total": 2394
      },
      {
        "club_badge_src": null,
        "entry": 5467277,
        "entry_name": "ScarBar FC",
        "event_total": 57,
        "has_played": true,
        "id": 42551755,
        "last_rank": 11175,
        "player_name": "Matthew Barham",
        "rank": 11668,
        "rank_sort": 11688,
        "total": 2394
      },
      {
        "club_badge_src": null,
        "entry": 5678485,
        "entry_name": "Frim Ping Pong",
        "event_total": 67,
        "has_played": true,
        "id": 44441997,
        "last_rank": 16807,
        "player_name": "Scott Appleby",
        "rank": 11668,
        "rank_sort": 11689,
        "total": 2394
      },
      {
        "club_badge_src": null,
        "entry": 5846171,
        "entry_name": "Knackered knees",
        "event_total": 58,
        "has_played": true,
        "id": 45895637,
        "last_rank": 11642,
        "player_name": "Roger Escott",
        "rank": 11668,
        "rank_sort": 11690,
        "total": 2394
      },
      {
        "club_badge_src": null,
        "entry": 6448470,
        "entry_name": "La Reina",
        "event_total": 69,
        "has_played": true,
        "id": 51349092,
        "last_rank": 15396,
        "player_name": "Deka Ahmed",
        "rank": 11668,
        "rank_sort": 11691,
        "total": 2394
      },
      {
        "club_badge_src": null,
        "entry": 6469549,
        "entry_name": "Bugsy's Bhoys",
        "event_total": 62,
        "has_played": true,
        "id": 51546439,
        "last_rank": 13702,
        "player_name": "James Clocherty",
        "rank": 11668,
        "rank_sort": 11692,
        "total": 2394
      },
      {
        "club_badge_src": null,
        "entry": 8296613,
        "entry_name": "Rio FPL",
        "event_total": 77,
        "has_played": true,
        "id": 68674108,
        "last_rank": 23990,
        "player_name": "Peter Hiesz",
        "rank": 11668,
        "rank_sort": 11693,
        "total": 2394
      },
      {
        "club_badge_src": null,
        "entry": 8378178,
        "entry_name": "Foden the Cheese",
        "event_total": 66,
        "has_played": true,
        "id": 69473641,
        "last_rank": 16039,
        "player_name": "Jimmy Ho",
        "rank": 11668,
        "rank_sort": 11694,
        "total": 2394
      },
      {
        "club_badge_src": "https://fantasy.premierleague.com/gcs/plfpl-production-adobe-approved/plfpl-production/324/671daa45-9d0c-4e8b-a709-354bd193c5f1.png",
        "entry": 324,
        "entry_name": "La Havana FC",
        "event_total": 66,
        "has_played": true,
        "id": 1788,
        "last_rank": 16039,
        "player_name": "Aapo Kallio",
        "rank": 11695,
        "rank_sort": 11695,
        "total": 2394
      },
      {
        "club_badge_src": null,
        "entry": 7886,
        "entry_name": "B&W Propagandists",
        "event_total": 61,
        "has_played": true,
        "id": 45549,
        "last_rank": 13184,
        "player_name": "Daniele P",
        "rank": 11695,
        "rank_sort": 11696,
        "total": 2394
      },
      {
        "club_badge_src": null,
        "entry": 12123,
        "entry_name": "Morning Glory",
        "event_total": 58,
        "has_played": true,
        "id": 72329,
        "last_rank": 11699,
        "player_name": "Iaroslav Pasechko",
        "rank": 11695,
        "rank_sort": 11697,
        "total": 2394
      },
      {
        "club_badge_src": null,
        "entry": 17393,
        "entry_name": "Team Stat",
        "event_total": 60,
        "has_played": true,
        "id": 107889,
        "last_rank": 12608,
        "player_name": "Wuttipong Tongprapai",
        "rank": 11695,
        "rank_sort": 11698,
        "total": 2394
      },
      {
        "club_badge_src": null,
        "entry": 36195,
        "entry_name": "Ji-Sung Park the Bus",
        "event_total": 52,
        "has_played": true,
        "id": 231665,
        "last_rank": 9142,
        "player_name": "Will Cotton",
        "rank": 11695,
        "rank_sort": 11699,
        "total": 2394
      },
      {
        "club_badge_src": null,
        "entry": 36205,
        "entry_name": "Agent P",
        "event_total": 75,
        "has_played": true,
        "id": 231735,
        "last_rank": 22426,
        "player_name": "Photis Panagiotopoulos",
        "rank": 11695,
        "rank_sort": 11700,
        "total": 2394
      }
    ]
  }
}